<?xml version="1.0" encoding="UTF-8" standalone="no"?>
<!-- Created with CurveBenchmark -->
<svg
	xmlns:dc="http://purl.org/dc/elements/1.1/"
	xmlns:cc="http://creativecommons.org/ns#"
	xmlns:rdf="http://www.w3.org/1999/02/22-rdf-syntax-ns#"
	xmlns:svg="http://www.w3.org/2000/svg"
	xmlns="http://www.w3.org/2000/svg"
	xmlns:sodipodi="http://sodipodi.sourceforge.net/DTD/sodipodi-0.dtd"
	xmlns:inkscape="http://www.inkscape.org/namespaces/inkscape"
	width="1000"
	height="1000"
	id="svg2"
	version="1.1"
	sodipodi:docname="manifold/crust-fork22.png.txt">
<defs
	id="defs4" />
<metadata
	id="metadata7">
	<rdf:RDF>
		<cc:Work
			rdf:about="">
			<dc:format>image/svg+xml</dc:format>
			<dc:type
				rdf:resource="http://purl.org/dc/dcmitype/StillImage" />
			<dc:title></dc:title>
		</cc:Work>
	</rdf:RDF>
</metadata>
<g
	inkscape:label="Layer 1"
	inkscape:groupmode="layer"
	id="layer1">
	<path style="fill:none;stroke:red;stroke-width:1px;stroke-linecap:butt;stroke-linejoin:miter;stroke-opacity:1" d="M 22.5768,31.8652 4,37.4382 z" id="boundary" inkscape:connector-curvature="0" />
	<path style="fill:none;stroke:red;stroke-width:1px;stroke-linecap:butt;stroke-linejoin:miter;stroke-opacity:1" d="M 4,56.015 4,37.4382 z" id="boundary" inkscape:connector-curvature="0" />
	<path style="fill:none;stroke:red;stroke-width:1px;stroke-linecap:butt;stroke-linejoin:miter;stroke-opacity:1" d="M 41.1536,31.8652 22.5768,31.8652 z" id="boundary" inkscape:connector-curvature="0" />
	<path style="fill:none;stroke:red;stroke-width:1px;stroke-linecap:butt;stroke-linejoin:miter;stroke-opacity:1" d="M 78.3071,22.5768 59.7303,28.1498 z" id="boundary" inkscape:connector-curvature="0" />
	<path style="fill:none;stroke:red;stroke-width:1px;stroke-linecap:butt;stroke-linejoin:miter;stroke-opacity:1" d="M 41.1536,31.8652 59.7303,28.1498 z" id="boundary" inkscape:connector-curvature="0" />
	<path style="fill:none;stroke:red;stroke-width:1px;stroke-linecap:butt;stroke-linejoin:miter;stroke-opacity:1" d="M 13.2884,72.7341 4,56.015 z" id="boundary" inkscape:connector-curvature="0" />
	<path style="fill:none;stroke:red;stroke-width:1px;stroke-linecap:butt;stroke-linejoin:miter;stroke-opacity:1" d="M 31.8652,80.1648 13.2884,72.7341 z" id="boundary" inkscape:connector-curvature="0" />
	<path style="fill:none;stroke:red;stroke-width:1px;stroke-linecap:butt;stroke-linejoin:miter;stroke-opacity:1" d="M 31.8652,80.1648 50.4419,80.1648 z" id="boundary" inkscape:connector-curvature="0" />
	<path style="fill:none;stroke:red;stroke-width:1px;stroke-linecap:butt;stroke-linejoin:miter;stroke-opacity:1" d="M 69.0187,80.1648 50.4419,80.1648 z" id="boundary" inkscape:connector-curvature="0" />
	<path style="fill:none;stroke:red;stroke-width:1px;stroke-linecap:butt;stroke-linejoin:miter;stroke-opacity:1" d="M 96.8839,22.5768 78.3071,22.5768 z" id="boundary" inkscape:connector-curvature="0" />
	<path style="fill:none;stroke:red;stroke-width:1px;stroke-linecap:butt;stroke-linejoin:miter;stroke-opacity:1" d="M 115.461,22.5768 96.8839,22.5768 z" id="boundary" inkscape:connector-curvature="0" />
	<path style="fill:none;stroke:red;stroke-width:1px;stroke-linecap:butt;stroke-linejoin:miter;stroke-opacity:1" d="M 115.461,22.5768 134.037,22.5768 z" id="boundary" inkscape:connector-curvature="0" />
	<path style="fill:none;stroke:red;stroke-width:1px;stroke-linecap:butt;stroke-linejoin:miter;stroke-opacity:1" d="M 87.5955,80.1648 69.0187,80.1648 z" id="boundary" inkscape:connector-curvature="0" />
	<path style="fill:none;stroke:red;stroke-width:1px;stroke-linecap:butt;stroke-linejoin:miter;stroke-opacity:1" d="M 106.172,80.1648 87.5955,80.1648 z" id="boundary" inkscape:connector-curvature="0" />
	<path style="fill:none;stroke:red;stroke-width:1px;stroke-linecap:butt;stroke-linejoin:miter;stroke-opacity:1" d="M 124.749,80.1648 106.172,80.1648 z" id="boundary" inkscape:connector-curvature="0" />
	<path style="fill:none;stroke:red;stroke-width:1px;stroke-linecap:butt;stroke-linejoin:miter;stroke-opacity:1" d="M 134.037,124.749 115.461,130.322 z" id="boundary" inkscape:connector-curvature="0" />
	<path style="fill:none;stroke:red;stroke-width:1px;stroke-linecap:butt;stroke-linejoin:miter;stroke-opacity:1" d="M 22.5768,139.61 22.5768,158.187 z" id="boundary" inkscape:connector-curvature="0" />
	<path style="fill:none;stroke:red;stroke-width:1px;stroke-linecap:butt;stroke-linejoin:miter;stroke-opacity:1" d="M 59.7303,134.037 41.1536,134.037 z" id="boundary" inkscape:connector-curvature="0" />
	<path style="fill:none;stroke:red;stroke-width:1px;stroke-linecap:butt;stroke-linejoin:miter;stroke-opacity:1" d="M 22.5768,139.61 41.1536,134.037 z" id="boundary" inkscape:connector-curvature="0" />
	<path style="fill:none;stroke:red;stroke-width:1px;stroke-linecap:butt;stroke-linejoin:miter;stroke-opacity:1" d="M 22.5768,158.187 22.5768,176.764 z" id="boundary" inkscape:connector-curvature="0" />
	<path style="fill:none;stroke:red;stroke-width:1px;stroke-linecap:butt;stroke-linejoin:miter;stroke-opacity:1" d="M 33.7228,191.625 22.5768,176.764 z" id="boundary" inkscape:connector-curvature="0" />
	<path style="fill:none;stroke:red;stroke-width:1px;stroke-linecap:butt;stroke-linejoin:miter;stroke-opacity:1" d="M 52.2996,191.625 33.7228,191.625 z" id="boundary" inkscape:connector-curvature="0" />
	<path style="fill:none;stroke:red;stroke-width:1px;stroke-linecap:butt;stroke-linejoin:miter;stroke-opacity:1" d="M 70.8764,182.337 52.2996,191.625 z" id="boundary" inkscape:connector-curvature="0" />
	<path style="fill:none;stroke:red;stroke-width:1px;stroke-linecap:butt;stroke-linejoin:miter;stroke-opacity:1" d="M 78.3071,134.037 59.7303,134.037 z" id="boundary" inkscape:connector-curvature="0" />
	<path style="fill:none;stroke:red;stroke-width:1px;stroke-linecap:butt;stroke-linejoin:miter;stroke-opacity:1" d="M 96.8839,134.037 78.3071,134.037 z" id="boundary" inkscape:connector-curvature="0" />
	<path style="fill:none;stroke:red;stroke-width:1px;stroke-linecap:butt;stroke-linejoin:miter;stroke-opacity:1" d="M 96.8839,134.037 115.461,130.322 z" id="boundary" inkscape:connector-curvature="0" />
	<path style="fill:none;stroke:red;stroke-width:1px;stroke-linecap:butt;stroke-linejoin:miter;stroke-opacity:1" d="M 89.4532,182.337 70.8764,182.337 z" id="boundary" inkscape:connector-curvature="0" />
	<path style="fill:none;stroke:red;stroke-width:1px;stroke-linecap:butt;stroke-linejoin:miter;stroke-opacity:1" d="M 126.607,182.337 108.03,182.337 z" id="boundary" inkscape:connector-curvature="0" />
	<path style="fill:none;stroke:red;stroke-width:1px;stroke-linecap:butt;stroke-linejoin:miter;stroke-opacity:1" d="M 89.4532,182.337 108.03,182.337 z" id="boundary" inkscape:connector-curvature="0" />
	<path style="fill:none;stroke:red;stroke-width:1px;stroke-linecap:butt;stroke-linejoin:miter;stroke-opacity:1" d="M 169.333,13.2884 152.614,22.5768 z" id="boundary" inkscape:connector-curvature="0" />
	<path style="fill:none;stroke:red;stroke-width:1px;stroke-linecap:butt;stroke-linejoin:miter;stroke-opacity:1" d="M 187.91,13.2884 169.333,13.2884 z" id="boundary" inkscape:connector-curvature="0" />
	<path style="fill:none;stroke:red;stroke-width:1px;stroke-linecap:butt;stroke-linejoin:miter;stroke-opacity:1" d="M 134.037,22.5768 152.614,22.5768 z" id="boundary" inkscape:connector-curvature="0" />
	<path style="fill:none;stroke:red;stroke-width:1px;stroke-linecap:butt;stroke-linejoin:miter;stroke-opacity:1" d="M 187.91,13.2884 206.487,13.2884 z" id="boundary" inkscape:connector-curvature="0" />
	<path style="fill:none;stroke:red;stroke-width:1px;stroke-linecap:butt;stroke-linejoin:miter;stroke-opacity:1" d="M 161.903,80.1648 143.326,80.1648 z" id="boundary" inkscape:connector-curvature="0" />
	<path style="fill:none;stroke:red;stroke-width:1px;stroke-linecap:butt;stroke-linejoin:miter;stroke-opacity:1" d="M 124.749,80.1648 143.326,80.1648 z" id="boundary" inkscape:connector-curvature="0" />
	<path style="fill:none;stroke:red;stroke-width:1px;stroke-linecap:butt;stroke-linejoin:miter;stroke-opacity:1" d="M 161.903,80.1648 180.479,74.5918 z" id="boundary" inkscape:connector-curvature="0" />
	<path style="fill:none;stroke:red;stroke-width:1px;stroke-linecap:butt;stroke-linejoin:miter;stroke-opacity:1" d="M 199.056,70.8764 180.479,74.5918 z" id="boundary" inkscape:connector-curvature="0" />
	<path style="fill:none;stroke:red;stroke-width:1px;stroke-linecap:butt;stroke-linejoin:miter;stroke-opacity:1" d="M 225.064,13.2884 206.487,13.2884 z" id="boundary" inkscape:connector-curvature="0" />
	<path style="fill:none;stroke:red;stroke-width:1px;stroke-linecap:butt;stroke-linejoin:miter;stroke-opacity:1" d="M 241.783,4 225.064,13.2884 z" id="boundary" inkscape:connector-curvature="0" />
	<path style="fill:none;stroke:red;stroke-width:1px;stroke-linecap:butt;stroke-linejoin:miter;stroke-opacity:1" d="M 241.783,4 260.36,4 z" id="boundary" inkscape:connector-curvature="0" />
	<path style="fill:none;stroke:red;stroke-width:1px;stroke-linecap:butt;stroke-linejoin:miter;stroke-opacity:1" d="M 199.056,70.8764 217.633,70.8764 z" id="boundary" inkscape:connector-curvature="0" />
	<path style="fill:none;stroke:red;stroke-width:1px;stroke-linecap:butt;stroke-linejoin:miter;stroke-opacity:1" d="M 217.633,70.8764 236.21,70.8764 z" id="boundary" inkscape:connector-curvature="0" />
	<path style="fill:none;stroke:red;stroke-width:1px;stroke-linecap:butt;stroke-linejoin:miter;stroke-opacity:1" d="M 236.21,70.8764 254.787,70.8764 z" id="boundary" inkscape:connector-curvature="0" />
	<path style="fill:none;stroke:red;stroke-width:1px;stroke-linecap:butt;stroke-linejoin:miter;stroke-opacity:1" d="M 254.787,70.8764 254.787,89.4532 z" id="boundary" inkscape:connector-curvature="0" />
	<path style="fill:none;stroke:red;stroke-width:1px;stroke-linecap:butt;stroke-linejoin:miter;stroke-opacity:1" d="M 152.614,124.749 134.037,124.749 z" id="boundary" inkscape:connector-curvature="0" />
	<path style="fill:none;stroke:red;stroke-width:1px;stroke-linecap:butt;stroke-linejoin:miter;stroke-opacity:1" d="M 189.768,121.034 171.191,124.749 z" id="boundary" inkscape:connector-curvature="0" />
	<path style="fill:none;stroke:red;stroke-width:1px;stroke-linecap:butt;stroke-linejoin:miter;stroke-opacity:1" d="M 171.191,124.749 152.614,124.749 z" id="boundary" inkscape:connector-curvature="0" />
	<path style="fill:none;stroke:red;stroke-width:1px;stroke-linecap:butt;stroke-linejoin:miter;stroke-opacity:1" d="M 126.607,182.337 145.184,182.337 z" id="boundary" inkscape:connector-curvature="0" />
	<path style="fill:none;stroke:red;stroke-width:1px;stroke-linecap:butt;stroke-linejoin:miter;stroke-opacity:1" d="M 163.76,182.337 145.184,182.337 z" id="boundary" inkscape:connector-curvature="0" />
	<path style="fill:none;stroke:red;stroke-width:1px;stroke-linecap:butt;stroke-linejoin:miter;stroke-opacity:1" d="M 182.337,182.337 163.76,182.337 z" id="boundary" inkscape:connector-curvature="0" />
	<path style="fill:none;stroke:red;stroke-width:1px;stroke-linecap:butt;stroke-linejoin:miter;stroke-opacity:1" d="M 208.345,115.461 189.768,121.034 z" id="boundary" inkscape:connector-curvature="0" />
	<path style="fill:none;stroke:red;stroke-width:1px;stroke-linecap:butt;stroke-linejoin:miter;stroke-opacity:1" d="M 245.498,115.461 226.921,115.461 z" id="boundary" inkscape:connector-curvature="0" />
	<path style="fill:none;stroke:red;stroke-width:1px;stroke-linecap:butt;stroke-linejoin:miter;stroke-opacity:1" d="M 226.921,115.461 208.345,115.461 z" id="boundary" inkscape:connector-curvature="0" />
	<path style="fill:none;stroke:red;stroke-width:1px;stroke-linecap:butt;stroke-linejoin:miter;stroke-opacity:1" d="M 254.787,89.4532 245.498,115.461 z" id="boundary" inkscape:connector-curvature="0" />
	<path style="fill:none;stroke:red;stroke-width:1px;stroke-linecap:butt;stroke-linejoin:miter;stroke-opacity:1" d="M 200.914,182.337 182.337,182.337 z" id="boundary" inkscape:connector-curvature="0" />
	<path style="fill:none;stroke:red;stroke-width:1px;stroke-linecap:butt;stroke-linejoin:miter;stroke-opacity:1" d="M 200.914,182.337 219.491,182.337 z" id="boundary" inkscape:connector-curvature="0" />
	<path style="fill:none;stroke:red;stroke-width:1px;stroke-linecap:butt;stroke-linejoin:miter;stroke-opacity:1" d="M 219.491,182.337 238.067,182.337 z" id="boundary" inkscape:connector-curvature="0" />
	<path style="fill:none;stroke:red;stroke-width:1px;stroke-linecap:butt;stroke-linejoin:miter;stroke-opacity:1" d="M 238.067,182.337 254.787,191.625 z" id="boundary" inkscape:connector-curvature="0" />
	<path style="fill:none;stroke:red;stroke-width:1px;stroke-linecap:butt;stroke-linejoin:miter;stroke-opacity:1" d="M 31.8652,251.071 31.8652,269.648 z" id="boundary" inkscape:connector-curvature="0" />
	<path style="fill:none;stroke:red;stroke-width:1px;stroke-linecap:butt;stroke-linejoin:miter;stroke-opacity:1" d="M 50.4419,241.783 31.8652,251.071 z" id="boundary" inkscape:connector-curvature="0" />
	<path style="fill:none;stroke:red;stroke-width:1px;stroke-linecap:butt;stroke-linejoin:miter;stroke-opacity:1" d="M 69.0187,236.21 50.4419,241.783 z" id="boundary" inkscape:connector-curvature="0" />
	<path style="fill:none;stroke:red;stroke-width:1px;stroke-linecap:butt;stroke-linejoin:miter;stroke-opacity:1" d="M 31.8652,269.648 31.8652,288.225 z" id="boundary" inkscape:connector-curvature="0" />
	<path style="fill:none;stroke:red;stroke-width:1px;stroke-linecap:butt;stroke-linejoin:miter;stroke-opacity:1" d="M 50.4419,293.798 31.8652,288.225 z" id="boundary" inkscape:connector-curvature="0" />
	<path style="fill:none;stroke:red;stroke-width:1px;stroke-linecap:butt;stroke-linejoin:miter;stroke-opacity:1" d="M 69.0187,293.798 50.4419,293.798 z" id="boundary" inkscape:connector-curvature="0" />
	<path style="fill:none;stroke:red;stroke-width:1px;stroke-linecap:butt;stroke-linejoin:miter;stroke-opacity:1" d="M 106.172,236.21 87.5955,236.21 z" id="boundary" inkscape:connector-curvature="0" />
	<path style="fill:none;stroke:red;stroke-width:1px;stroke-linecap:butt;stroke-linejoin:miter;stroke-opacity:1" d="M 69.0187,236.21 87.5955,236.21 z" id="boundary" inkscape:connector-curvature="0" />
	<path style="fill:none;stroke:red;stroke-width:1px;stroke-linecap:butt;stroke-linejoin:miter;stroke-opacity:1" d="M 124.749,232.494 106.172,236.21 z" id="boundary" inkscape:connector-curvature="0" />
	<path style="fill:none;stroke:red;stroke-width:1px;stroke-linecap:butt;stroke-linejoin:miter;stroke-opacity:1" d="M 87.5955,293.798 106.172,293.798 z" id="boundary" inkscape:connector-curvature="0" />
	<path style="fill:none;stroke:red;stroke-width:1px;stroke-linecap:butt;stroke-linejoin:miter;stroke-opacity:1" d="M 69.0187,293.798 87.5955,293.798 z" id="boundary" inkscape:connector-curvature="0" />
	<path style="fill:none;stroke:red;stroke-width:1px;stroke-linecap:butt;stroke-linejoin:miter;stroke-opacity:1" d="M 106.172,293.798 124.749,293.798 z" id="boundary" inkscape:connector-curvature="0" />
	<path style="fill:none;stroke:red;stroke-width:1px;stroke-linecap:butt;stroke-linejoin:miter;stroke-opacity:1" d="M 134.037,338.382 115.461,338.382 z" id="boundary" inkscape:connector-curvature="0" />
	<path style="fill:none;stroke:red;stroke-width:1px;stroke-linecap:butt;stroke-linejoin:miter;stroke-opacity:1" d="M 41.1536,353.243 41.1536,371.82 z" id="boundary" inkscape:connector-curvature="0" />
	<path style="fill:none;stroke:red;stroke-width:1px;stroke-linecap:butt;stroke-linejoin:miter;stroke-opacity:1" d="M 41.1536,371.82 41.1536,390.397 z" id="boundary" inkscape:connector-curvature="0" />
	<path style="fill:none;stroke:red;stroke-width:1px;stroke-linecap:butt;stroke-linejoin:miter;stroke-opacity:1" d="M 41.1536,353.243 59.7303,347.67 z" id="boundary" inkscape:connector-curvature="0" />
	<path style="fill:none;stroke:red;stroke-width:1px;stroke-linecap:butt;stroke-linejoin:miter;stroke-opacity:1" d="M 59.7303,347.67 78.3071,347.67 z" id="boundary" inkscape:connector-curvature="0" />
	<path style="fill:none;stroke:red;stroke-width:1px;stroke-linecap:butt;stroke-linejoin:miter;stroke-opacity:1" d="M 52.2996,405.258 41.1536,390.397 z" id="boundary" inkscape:connector-curvature="0" />
	<path style="fill:none;stroke:red;stroke-width:1px;stroke-linecap:butt;stroke-linejoin:miter;stroke-opacity:1" d="M 70.8764,405.258 52.2996,405.258 z" id="boundary" inkscape:connector-curvature="0" />
	<path style="fill:none;stroke:red;stroke-width:1px;stroke-linecap:butt;stroke-linejoin:miter;stroke-opacity:1" d="M 96.8839,343.955 78.3071,347.67 z" id="boundary" inkscape:connector-curvature="0" />
	<path style="fill:none;stroke:red;stroke-width:1px;stroke-linecap:butt;stroke-linejoin:miter;stroke-opacity:1" d="M 115.461,338.382 96.8839,343.955 z" id="boundary" inkscape:connector-curvature="0" />
	<path style="fill:none;stroke:red;stroke-width:1px;stroke-linecap:butt;stroke-linejoin:miter;stroke-opacity:1" d="M 145.184,395.97 126.607,405.258 z" id="boundary" inkscape:connector-curvature="0" />
	<path style="fill:none;stroke:red;stroke-width:1px;stroke-linecap:butt;stroke-linejoin:miter;stroke-opacity:1" d="M 89.4532,405.258 70.8764,405.258 z" id="boundary" inkscape:connector-curvature="0" />
	<path style="fill:none;stroke:red;stroke-width:1px;stroke-linecap:butt;stroke-linejoin:miter;stroke-opacity:1" d="M 89.4532,405.258 108.03,405.258 z" id="boundary" inkscape:connector-curvature="0" />
	<path style="fill:none;stroke:red;stroke-width:1px;stroke-linecap:butt;stroke-linejoin:miter;stroke-opacity:1" d="M 108.03,405.258 126.607,405.258 z" id="boundary" inkscape:connector-curvature="0" />
	<path style="fill:none;stroke:red;stroke-width:1px;stroke-linecap:butt;stroke-linejoin:miter;stroke-opacity:1" d="M 161.903,226.921 143.326,226.921 z" id="boundary" inkscape:connector-curvature="0" />
	<path style="fill:none;stroke:red;stroke-width:1px;stroke-linecap:butt;stroke-linejoin:miter;stroke-opacity:1" d="M 124.749,232.494 143.326,226.921 z" id="boundary" inkscape:connector-curvature="0" />
	<path style="fill:none;stroke:red;stroke-width:1px;stroke-linecap:butt;stroke-linejoin:miter;stroke-opacity:1" d="M 180.479,226.921 161.903,226.921 z" id="boundary" inkscape:connector-curvature="0" />
	<path style="fill:none;stroke:red;stroke-width:1px;stroke-linecap:butt;stroke-linejoin:miter;stroke-opacity:1" d="M 199.056,226.921 180.479,226.921 z" id="boundary" inkscape:connector-curvature="0" />
	<path style="fill:none;stroke:red;stroke-width:1px;stroke-linecap:butt;stroke-linejoin:miter;stroke-opacity:1" d="M 161.903,293.798 143.326,293.798 z" id="boundary" inkscape:connector-curvature="0" />
	<path style="fill:none;stroke:red;stroke-width:1px;stroke-linecap:butt;stroke-linejoin:miter;stroke-opacity:1" d="M 124.749,293.798 143.326,293.798 z" id="boundary" inkscape:connector-curvature="0" />
	<path style="fill:none;stroke:red;stroke-width:1px;stroke-linecap:butt;stroke-linejoin:miter;stroke-opacity:1" d="M 199.056,288.225 180.479,293.798 z" id="boundary" inkscape:connector-curvature="0" />
	<path style="fill:none;stroke:red;stroke-width:1px;stroke-linecap:butt;stroke-linejoin:miter;stroke-opacity:1" d="M 180.479,293.798 161.903,293.798 z" id="boundary" inkscape:connector-curvature="0" />
	<path style="fill:none;stroke:red;stroke-width:1px;stroke-linecap:butt;stroke-linejoin:miter;stroke-opacity:1" d="M 217.633,223.206 199.056,226.921 z" id="boundary" inkscape:connector-curvature="0" />
	<path style="fill:none;stroke:red;stroke-width:1px;stroke-linecap:butt;stroke-linejoin:miter;stroke-opacity:1" d="M 236.21,217.633 254.787,217.633 z" id="boundary" inkscape:connector-curvature="0" />
	<path style="fill:none;stroke:red;stroke-width:1px;stroke-linecap:butt;stroke-linejoin:miter;stroke-opacity:1" d="M 236.21,217.633 217.633,223.206 z" id="boundary" inkscape:connector-curvature="0" />
	<path style="fill:none;stroke:red;stroke-width:1px;stroke-linecap:butt;stroke-linejoin:miter;stroke-opacity:1" d="M 199.056,288.225 217.633,284.509 z" id="boundary" inkscape:connector-curvature="0" />
	<path style="fill:none;stroke:red;stroke-width:1px;stroke-linecap:butt;stroke-linejoin:miter;stroke-opacity:1" d="M 217.633,284.509 236.21,284.509 z" id="boundary" inkscape:connector-curvature="0" />
	<path style="fill:none;stroke:red;stroke-width:1px;stroke-linecap:butt;stroke-linejoin:miter;stroke-opacity:1" d="M 236.21,284.509 254.787,284.509 z" id="boundary" inkscape:connector-curvature="0" />
	<path style="fill:none;stroke:red;stroke-width:1px;stroke-linecap:butt;stroke-linejoin:miter;stroke-opacity:1" d="M 152.614,338.382 134.037,338.382 z" id="boundary" inkscape:connector-curvature="0" />
	<path style="fill:none;stroke:red;stroke-width:1px;stroke-linecap:butt;stroke-linejoin:miter;stroke-opacity:1" d="M 171.191,338.382 152.614,338.382 z" id="boundary" inkscape:connector-curvature="0" />
	<path style="fill:none;stroke:red;stroke-width:1px;stroke-linecap:butt;stroke-linejoin:miter;stroke-opacity:1" d="M 171.191,338.382 189.768,338.382 z" id="boundary" inkscape:connector-curvature="0" />
	<path style="fill:none;stroke:red;stroke-width:1px;stroke-linecap:butt;stroke-linejoin:miter;stroke-opacity:1" d="M 163.76,395.97 145.184,395.97 z" id="boundary" inkscape:connector-curvature="0" />
	<path style="fill:none;stroke:red;stroke-width:1px;stroke-linecap:butt;stroke-linejoin:miter;stroke-opacity:1" d="M 182.337,395.97 163.76,395.97 z" id="boundary" inkscape:connector-curvature="0" />
	<path style="fill:none;stroke:red;stroke-width:1px;stroke-linecap:butt;stroke-linejoin:miter;stroke-opacity:1" d="M 182.337,395.97 200.914,395.97 z" id="boundary" inkscape:connector-curvature="0" />
	<path style="fill:none;stroke:red;stroke-width:1px;stroke-linecap:butt;stroke-linejoin:miter;stroke-opacity:1" d="M 189.768,338.382 206.487,329.094 z" id="boundary" inkscape:connector-curvature="0" />
	<path style="fill:none;stroke:red;stroke-width:1px;stroke-linecap:butt;stroke-linejoin:miter;stroke-opacity:1" d="M 206.487,329.094 225.064,329.094 z" id="boundary" inkscape:connector-curvature="0" />
	<path style="fill:none;stroke:red;stroke-width:1px;stroke-linecap:butt;stroke-linejoin:miter;stroke-opacity:1" d="M 225.064,329.094 243.64,329.094 z" id="boundary" inkscape:connector-curvature="0" />
	<path style="fill:none;stroke:red;stroke-width:1px;stroke-linecap:butt;stroke-linejoin:miter;stroke-opacity:1" d="M 254.787,386.682 236.21,386.682 z" id="boundary" inkscape:connector-curvature="0" />
	<path style="fill:none;stroke:red;stroke-width:1px;stroke-linecap:butt;stroke-linejoin:miter;stroke-opacity:1" d="M 243.64,329.094 262.217,329.094 z" id="boundary" inkscape:connector-curvature="0" />
	<path style="fill:none;stroke:red;stroke-width:1px;stroke-linecap:butt;stroke-linejoin:miter;stroke-opacity:1" d="M 219.491,395.97 200.914,395.97 z" id="boundary" inkscape:connector-curvature="0" />
	<path style="fill:none;stroke:red;stroke-width:1px;stroke-linecap:butt;stroke-linejoin:miter;stroke-opacity:1" d="M 219.491,395.97 236.21,386.682 z" id="boundary" inkscape:connector-curvature="0" />
	<path style="fill:none;stroke:red;stroke-width:1px;stroke-linecap:butt;stroke-linejoin:miter;stroke-opacity:1" d="M 254.787,191.625 254.787,217.633 z" id="boundary" inkscape:connector-curvature="0" />
	<path style="fill:none;stroke:red;stroke-width:1px;stroke-linecap:butt;stroke-linejoin:miter;stroke-opacity:1" d="M 260.36,4 278.936,4 z" id="boundary" inkscape:connector-curvature="0" />
	<path style="fill:none;stroke:red;stroke-width:1px;stroke-linecap:butt;stroke-linejoin:miter;stroke-opacity:1" d="M 297.513,4 278.936,4 z" id="boundary" inkscape:connector-curvature="0" />
	<path style="fill:none;stroke:red;stroke-width:1px;stroke-linecap:butt;stroke-linejoin:miter;stroke-opacity:1" d="M 297.513,4 316.09,4 z" id="boundary" inkscape:connector-curvature="0" />
	<path style="fill:none;stroke:red;stroke-width:1px;stroke-linecap:butt;stroke-linejoin:miter;stroke-opacity:1" d="M 334.667,4 316.09,4 z" id="boundary" inkscape:connector-curvature="0" />
	<path style="fill:none;stroke:red;stroke-width:1px;stroke-linecap:butt;stroke-linejoin:miter;stroke-opacity:1" d="M 334.667,4 353.243,4 z" id="boundary" inkscape:connector-curvature="0" />
	<path style="fill:none;stroke:red;stroke-width:1px;stroke-linecap:butt;stroke-linejoin:miter;stroke-opacity:1" d="M 371.82,4 353.243,4 z" id="boundary" inkscape:connector-curvature="0" />
	<path style="fill:none;stroke:red;stroke-width:1px;stroke-linecap:butt;stroke-linejoin:miter;stroke-opacity:1" d="M 377.393,22.5768 377.393,41.1536 z" id="boundary" inkscape:connector-curvature="0" />
	<path style="fill:none;stroke:red;stroke-width:1px;stroke-linecap:butt;stroke-linejoin:miter;stroke-opacity:1" d="M 377.393,22.5768 371.82,4 z" id="boundary" inkscape:connector-curvature="0" />
	<path style="fill:none;stroke:red;stroke-width:1px;stroke-linecap:butt;stroke-linejoin:miter;stroke-opacity:1" d="M 386.682,57.8727 377.393,41.1536 z" id="boundary" inkscape:connector-curvature="0" />
	<path style="fill:none;stroke:red;stroke-width:1px;stroke-linecap:butt;stroke-linejoin:miter;stroke-opacity:1" d="M 386.682,57.8727 386.682,76.4494 z" id="boundary" inkscape:connector-curvature="0" />
	<path style="fill:none;stroke:red;stroke-width:1px;stroke-linecap:butt;stroke-linejoin:miter;stroke-opacity:1" d="M 386.682,95.0262 386.682,76.4494 z" id="boundary" inkscape:connector-curvature="0" />
	<path style="fill:none;stroke:red;stroke-width:1px;stroke-linecap:butt;stroke-linejoin:miter;stroke-opacity:1" d="M 386.682,113.603 386.682,95.0262 z" id="boundary" inkscape:connector-curvature="0" />
	<path style="fill:none;stroke:red;stroke-width:1px;stroke-linecap:butt;stroke-linejoin:miter;stroke-opacity:1" d="M 529.723,124.749 511.146,134.037 z" id="boundary" inkscape:connector-curvature="0" />
	<path style="fill:none;stroke:red;stroke-width:1px;stroke-linecap:butt;stroke-linejoin:miter;stroke-opacity:1" d="M 386.682,132.18 386.682,113.603 z" id="boundary" inkscape:connector-curvature="0" />
	<path style="fill:none;stroke:red;stroke-width:1px;stroke-linecap:butt;stroke-linejoin:miter;stroke-opacity:1" d="M 401.543,143.326 386.682,132.18 z" id="boundary" inkscape:connector-curvature="0" />
	<path style="fill:none;stroke:red;stroke-width:1px;stroke-linecap:butt;stroke-linejoin:miter;stroke-opacity:1" d="M 420.12,143.326 401.543,143.326 z" id="boundary" inkscape:connector-curvature="0" />
	<path style="fill:none;stroke:red;stroke-width:1px;stroke-linecap:butt;stroke-linejoin:miter;stroke-opacity:1" d="M 436.839,134.037 420.12,143.326 z" id="boundary" inkscape:connector-curvature="0" />
	<path style="fill:none;stroke:red;stroke-width:1px;stroke-linecap:butt;stroke-linejoin:miter;stroke-opacity:1" d="M 423.835,256.644 405.258,256.644 z" id="boundary" inkscape:connector-curvature="0" />
	<path style="fill:none;stroke:red;stroke-width:1px;stroke-linecap:butt;stroke-linejoin:miter;stroke-opacity:1" d="M 436.839,134.037 455.416,134.037 z" id="boundary" inkscape:connector-curvature="0" />
	<path style="fill:none;stroke:red;stroke-width:1px;stroke-linecap:butt;stroke-linejoin:miter;stroke-opacity:1" d="M 455.416,134.037 473.993,134.037 z" id="boundary" inkscape:connector-curvature="0" />
	<path style="fill:none;stroke:red;stroke-width:1px;stroke-linecap:butt;stroke-linejoin:miter;stroke-opacity:1" d="M 492.569,134.037 511.146,134.037 z" id="boundary" inkscape:connector-curvature="0" />
	<path style="fill:none;stroke:red;stroke-width:1px;stroke-linecap:butt;stroke-linejoin:miter;stroke-opacity:1" d="M 492.569,134.037 473.993,134.037 z" id="boundary" inkscape:connector-curvature="0" />
	<path style="fill:none;stroke:red;stroke-width:1px;stroke-linecap:butt;stroke-linejoin:miter;stroke-opacity:1" d="M 460.989,256.644 442.412,256.644 z" id="boundary" inkscape:connector-curvature="0" />
	<path style="fill:none;stroke:red;stroke-width:1px;stroke-linecap:butt;stroke-linejoin:miter;stroke-opacity:1" d="M 442.412,256.644 423.835,256.644 z" id="boundary" inkscape:connector-curvature="0" />
	<path style="fill:none;stroke:red;stroke-width:1px;stroke-linecap:butt;stroke-linejoin:miter;stroke-opacity:1" d="M 498.142,256.644 479.566,256.644 z" id="boundary" inkscape:connector-curvature="0" />
	<path style="fill:none;stroke:red;stroke-width:1px;stroke-linecap:butt;stroke-linejoin:miter;stroke-opacity:1" d="M 479.566,256.644 460.989,256.644 z" id="boundary" inkscape:connector-curvature="0" />
	<path style="fill:none;stroke:red;stroke-width:1px;stroke-linecap:butt;stroke-linejoin:miter;stroke-opacity:1" d="M 516.719,247.356 498.142,256.644 z" id="boundary" inkscape:connector-curvature="0" />
	<path style="fill:none;stroke:red;stroke-width:1px;stroke-linecap:butt;stroke-linejoin:miter;stroke-opacity:1" d="M 535.296,247.356 516.719,247.356 z" id="boundary" inkscape:connector-curvature="0" />
	<path style="fill:none;stroke:red;stroke-width:1px;stroke-linecap:butt;stroke-linejoin:miter;stroke-opacity:1" d="M 622.607,115.461 604.03,115.461 z" id="boundary" inkscape:connector-curvature="0" />
	<path style="fill:none;stroke:red;stroke-width:1px;stroke-linecap:butt;stroke-linejoin:miter;stroke-opacity:1" d="M 696.914,115.461 678.337,115.461 z" id="boundary" inkscape:connector-curvature="0" />
	<path style="fill:none;stroke:red;stroke-width:1px;stroke-linecap:butt;stroke-linejoin:miter;stroke-opacity:1" d="M 604.03,115.461 585.453,124.749 z" id="boundary" inkscape:connector-curvature="0" />
	<path style="fill:none;stroke:red;stroke-width:1px;stroke-linecap:butt;stroke-linejoin:miter;stroke-opacity:1" d="M 529.723,124.749 548.3,124.749 z" id="boundary" inkscape:connector-curvature="0" />
	<path style="fill:none;stroke:red;stroke-width:1px;stroke-linecap:butt;stroke-linejoin:miter;stroke-opacity:1" d="M 548.3,124.749 566.876,124.749 z" id="boundary" inkscape:connector-curvature="0" />
	<path style="fill:none;stroke:red;stroke-width:1px;stroke-linecap:butt;stroke-linejoin:miter;stroke-opacity:1" d="M 585.453,124.749 566.876,124.749 z" id="boundary" inkscape:connector-curvature="0" />
	<path style="fill:none;stroke:red;stroke-width:1px;stroke-linecap:butt;stroke-linejoin:miter;stroke-opacity:1" d="M 622.607,115.461 641.184,115.461 z" id="boundary" inkscape:connector-curvature="0" />
	<path style="fill:none;stroke:red;stroke-width:1px;stroke-linecap:butt;stroke-linejoin:miter;stroke-opacity:1" d="M 641.184,115.461 659.76,115.461 z" id="boundary" inkscape:connector-curvature="0" />
	<path style="fill:none;stroke:red;stroke-width:1px;stroke-linecap:butt;stroke-linejoin:miter;stroke-opacity:1" d="M 678.337,115.461 659.76,115.461 z" id="boundary" inkscape:connector-curvature="0" />
	<path style="fill:none;stroke:red;stroke-width:1px;stroke-linecap:butt;stroke-linejoin:miter;stroke-opacity:1" d="M 696.914,115.461 709.918,130.322 z" id="boundary" inkscape:connector-curvature="0" />
	<path style="fill:none;stroke:red;stroke-width:1px;stroke-linecap:butt;stroke-linejoin:miter;stroke-opacity:1" d="M 724.779,143.326 709.918,130.322 z" id="boundary" inkscape:connector-curvature="0" />
	<path style="fill:none;stroke:red;stroke-width:1px;stroke-linecap:butt;stroke-linejoin:miter;stroke-opacity:1" d="M 737.783,158.187 724.779,143.326 z" id="boundary" inkscape:connector-curvature="0" />
	<path style="fill:none;stroke:red;stroke-width:1px;stroke-linecap:butt;stroke-linejoin:miter;stroke-opacity:1" d="M 747.071,174.906 737.783,158.187 z" id="boundary" inkscape:connector-curvature="0" />
	<path style="fill:none;stroke:red;stroke-width:1px;stroke-linecap:butt;stroke-linejoin:miter;stroke-opacity:1" d="M 845.528,265.933 832.524,251.071 z" id="boundary" inkscape:connector-curvature="0" />
	<path style="fill:none;stroke:red;stroke-width:1px;stroke-linecap:butt;stroke-linejoin:miter;stroke-opacity:1" d="M 535.296,247.356 553.873,247.356 z" id="boundary" inkscape:connector-curvature="0" />
	<path style="fill:none;stroke:red;stroke-width:1px;stroke-linecap:butt;stroke-linejoin:miter;stroke-opacity:1" d="M 572.449,247.356 553.873,247.356 z" id="boundary" inkscape:connector-curvature="0" />
	<path style="fill:none;stroke:red;stroke-width:1px;stroke-linecap:butt;stroke-linejoin:miter;stroke-opacity:1" d="M 609.603,238.067 591.026,247.356 z" id="boundary" inkscape:connector-curvature="0" />
	<path style="fill:none;stroke:red;stroke-width:1px;stroke-linecap:butt;stroke-linejoin:miter;stroke-opacity:1" d="M 609.603,238.067 628.18,238.067 z" id="boundary" inkscape:connector-curvature="0" />
	<path style="fill:none;stroke:red;stroke-width:1px;stroke-linecap:butt;stroke-linejoin:miter;stroke-opacity:1" d="M 628.18,238.067 644.899,247.356 z" id="boundary" inkscape:connector-curvature="0" />
	<path style="fill:none;stroke:red;stroke-width:1px;stroke-linecap:butt;stroke-linejoin:miter;stroke-opacity:1" d="M 591.026,247.356 572.449,247.356 z" id="boundary" inkscape:connector-curvature="0" />
	<path style="fill:none;stroke:red;stroke-width:1px;stroke-linecap:butt;stroke-linejoin:miter;stroke-opacity:1" d="M 773.079,200.914 758.217,189.768 z" id="boundary" inkscape:connector-curvature="0" />
	<path style="fill:none;stroke:red;stroke-width:1px;stroke-linecap:butt;stroke-linejoin:miter;stroke-opacity:1" d="M 758.217,189.768 747.071,174.906 z" id="boundary" inkscape:connector-curvature="0" />
	<path style="fill:none;stroke:red;stroke-width:1px;stroke-linecap:butt;stroke-linejoin:miter;stroke-opacity:1" d="M 786.082,215.775 773.079,200.914 z" id="boundary" inkscape:connector-curvature="0" />
	<path style="fill:none;stroke:red;stroke-width:1px;stroke-linecap:butt;stroke-linejoin:miter;stroke-opacity:1" d="M 817.663,238.067 800.944,228.779 z" id="boundary" inkscape:connector-curvature="0" />
	<path style="fill:none;stroke:red;stroke-width:1px;stroke-linecap:butt;stroke-linejoin:miter;stroke-opacity:1" d="M 656.045,262.217 644.899,247.356 z" id="boundary" inkscape:connector-curvature="0" />
	<path style="fill:none;stroke:red;stroke-width:1px;stroke-linecap:butt;stroke-linejoin:miter;stroke-opacity:1" d="M 800.944,228.779 786.082,215.775 z" id="boundary" inkscape:connector-curvature="0" />
	<path style="fill:none;stroke:red;stroke-width:1px;stroke-linecap:butt;stroke-linejoin:miter;stroke-opacity:1" d="M 832.524,251.071 817.663,238.067 z" id="boundary" inkscape:connector-curvature="0" />
	<path style="fill:none;stroke:red;stroke-width:1px;stroke-linecap:butt;stroke-linejoin:miter;stroke-opacity:1" d="M 254.787,284.509 273.363,284.509 z" id="boundary" inkscape:connector-curvature="0" />
	<path style="fill:none;stroke:red;stroke-width:1px;stroke-linecap:butt;stroke-linejoin:miter;stroke-opacity:1" d="M 273.363,303.086 262.217,329.094 z" id="boundary" inkscape:connector-curvature="0" />
	<path style="fill:none;stroke:red;stroke-width:1px;stroke-linecap:butt;stroke-linejoin:miter;stroke-opacity:1" d="M 273.363,284.509 273.363,303.086 z" id="boundary" inkscape:connector-curvature="0" />
	<path style="fill:none;stroke:red;stroke-width:1px;stroke-linecap:butt;stroke-linejoin:miter;stroke-opacity:1" d="M 405.258,275.221 405.258,256.644 z" id="boundary" inkscape:connector-curvature="0" />
	<path style="fill:none;stroke:red;stroke-width:1px;stroke-linecap:butt;stroke-linejoin:miter;stroke-opacity:1" d="M 405.258,293.798 405.258,275.221 z" id="boundary" inkscape:connector-curvature="0" />
	<path style="fill:none;stroke:red;stroke-width:1px;stroke-linecap:butt;stroke-linejoin:miter;stroke-opacity:1" d="M 408.974,312.375 405.258,293.798 z" id="boundary" inkscape:connector-curvature="0" />
	<path style="fill:none;stroke:red;stroke-width:1px;stroke-linecap:butt;stroke-linejoin:miter;stroke-opacity:1" d="M 414.547,330.951 414.547,349.528 z" id="boundary" inkscape:connector-curvature="0" />
	<path style="fill:none;stroke:red;stroke-width:1px;stroke-linecap:butt;stroke-linejoin:miter;stroke-opacity:1" d="M 414.547,330.951 408.974,312.375 z" id="boundary" inkscape:connector-curvature="0" />
	<path style="fill:none;stroke:red;stroke-width:1px;stroke-linecap:butt;stroke-linejoin:miter;stroke-opacity:1" d="M 401.543,368.105 414.547,349.528 z" id="boundary" inkscape:connector-curvature="0" />
	<path style="fill:none;stroke:red;stroke-width:1px;stroke-linecap:butt;stroke-linejoin:miter;stroke-opacity:1" d="M 273.363,386.682 291.94,386.682 z" id="boundary" inkscape:connector-curvature="0" />
	<path style="fill:none;stroke:red;stroke-width:1px;stroke-linecap:butt;stroke-linejoin:miter;stroke-opacity:1" d="M 273.363,386.682 254.787,386.682 z" id="boundary" inkscape:connector-curvature="0" />
	<path style="fill:none;stroke:red;stroke-width:1px;stroke-linecap:butt;stroke-linejoin:miter;stroke-opacity:1" d="M 366.247,377.393 347.67,377.393 z" id="boundary" inkscape:connector-curvature="0" />
	<path style="fill:none;stroke:red;stroke-width:1px;stroke-linecap:butt;stroke-linejoin:miter;stroke-opacity:1" d="M 347.67,377.393 329.094,381.109 z" id="boundary" inkscape:connector-curvature="0" />
	<path style="fill:none;stroke:red;stroke-width:1px;stroke-linecap:butt;stroke-linejoin:miter;stroke-opacity:1" d="M 384.824,377.393 366.247,377.393 z" id="boundary" inkscape:connector-curvature="0" />
	<path style="fill:none;stroke:red;stroke-width:1px;stroke-linecap:butt;stroke-linejoin:miter;stroke-opacity:1" d="M 310.517,386.682 291.94,386.682 z" id="boundary" inkscape:connector-curvature="0" />
	<path style="fill:none;stroke:red;stroke-width:1px;stroke-linecap:butt;stroke-linejoin:miter;stroke-opacity:1" d="M 384.824,377.393 401.543,368.105 z" id="boundary" inkscape:connector-curvature="0" />
	<path style="fill:none;stroke:red;stroke-width:1px;stroke-linecap:butt;stroke-linejoin:miter;stroke-opacity:1" d="M 329.094,381.109 310.517,386.682 z" id="boundary" inkscape:connector-curvature="0" />
	<path style="fill:none;stroke:red;stroke-width:1px;stroke-linecap:butt;stroke-linejoin:miter;stroke-opacity:1" d="M 656.045,262.217 670.906,275.221 z" id="boundary" inkscape:connector-curvature="0" />
	<path style="fill:none;stroke:red;stroke-width:1px;stroke-linecap:butt;stroke-linejoin:miter;stroke-opacity:1" d="M 683.91,290.082 670.906,275.221 z" id="boundary" inkscape:connector-curvature="0" />
	<path style="fill:none;stroke:red;stroke-width:1px;stroke-linecap:butt;stroke-linejoin:miter;stroke-opacity:1" d="M 698.772,303.086 683.91,290.082 z" id="boundary" inkscape:connector-curvature="0" />
	<path style="fill:none;stroke:red;stroke-width:1px;stroke-linecap:butt;stroke-linejoin:miter;stroke-opacity:1" d="M 698.772,303.086 711.775,317.948 z" id="boundary" inkscape:connector-curvature="0" />
	<path style="fill:none;stroke:red;stroke-width:1px;stroke-linecap:butt;stroke-linejoin:miter;stroke-opacity:1" d="M 726.637,330.951 711.775,317.948 z" id="boundary" inkscape:connector-curvature="0" />
	<path style="fill:none;stroke:red;stroke-width:1px;stroke-linecap:butt;stroke-linejoin:miter;stroke-opacity:1" d="M 754.502,358.816 739.64,345.813 z" id="boundary" inkscape:connector-curvature="0" />
	<path style="fill:none;stroke:red;stroke-width:1px;stroke-linecap:butt;stroke-linejoin:miter;stroke-opacity:1" d="M 739.64,345.813 726.637,330.951 z" id="boundary" inkscape:connector-curvature="0" />
	<path style="fill:none;stroke:red;stroke-width:1px;stroke-linecap:butt;stroke-linejoin:miter;stroke-opacity:1" d="M 754.502,358.816 767.506,373.678 z" id="boundary" inkscape:connector-curvature="0" />
	<path style="fill:none;stroke:red;stroke-width:1px;stroke-linecap:butt;stroke-linejoin:miter;stroke-opacity:1" d="M 782.367,386.682 767.506,373.678 z" id="boundary" inkscape:connector-curvature="0" />
	<path style="fill:none;stroke:red;stroke-width:1px;stroke-linecap:butt;stroke-linejoin:miter;stroke-opacity:1" d="M 860.39,278.936 873.393,293.798 z" id="boundary" inkscape:connector-curvature="0" />
	<path style="fill:none;stroke:red;stroke-width:1px;stroke-linecap:butt;stroke-linejoin:miter;stroke-opacity:1" d="M 860.39,278.936 845.528,265.933 z" id="boundary" inkscape:connector-curvature="0" />
	<path style="fill:none;stroke:red;stroke-width:1px;stroke-linecap:butt;stroke-linejoin:miter;stroke-opacity:1" d="M 873.393,293.798 888.255,306.801 z" id="boundary" inkscape:connector-curvature="0" />
	<path style="fill:none;stroke:red;stroke-width:1px;stroke-linecap:butt;stroke-linejoin:miter;stroke-opacity:1" d="M 988.569,399.685 975.566,384.824 z" id="boundary" inkscape:connector-curvature="0" />
	<path style="fill:none;stroke:red;stroke-width:1px;stroke-linecap:butt;stroke-linejoin:miter;stroke-opacity:1" d="M 901.258,321.663 888.255,306.801 z" id="boundary" inkscape:connector-curvature="0" />
	<path style="fill:none;stroke:red;stroke-width:1px;stroke-linecap:butt;stroke-linejoin:miter;stroke-opacity:1" d="M 901.258,321.663 916.12,334.667 z" id="boundary" inkscape:connector-curvature="0" />
	<path style="fill:none;stroke:red;stroke-width:1px;stroke-linecap:butt;stroke-linejoin:miter;stroke-opacity:1" d="M 929.124,349.528 916.12,334.667 z" id="boundary" inkscape:connector-curvature="0" />
	<path style="fill:none;stroke:red;stroke-width:1px;stroke-linecap:butt;stroke-linejoin:miter;stroke-opacity:1" d="M 943.985,362.532 929.124,349.528 z" id="boundary" inkscape:connector-curvature="0" />
	<path style="fill:none;stroke:red;stroke-width:1px;stroke-linecap:butt;stroke-linejoin:miter;stroke-opacity:1" d="M 960.704,371.82 943.985,362.532 z" id="boundary" inkscape:connector-curvature="0" />
	<path style="fill:none;stroke:red;stroke-width:1px;stroke-linecap:butt;stroke-linejoin:miter;stroke-opacity:1" d="M 960.704,371.82 975.566,384.824 z" id="boundary" inkscape:connector-curvature="0" />
	<path style="fill:none;stroke:red;stroke-width:1px;stroke-linecap:butt;stroke-linejoin:miter;stroke-opacity:1" d="M 782.367,386.682 795.371,401.543 z" id="boundary" inkscape:connector-curvature="0" />
	<path style="fill:none;stroke:red;stroke-width:1px;stroke-linecap:butt;stroke-linejoin:miter;stroke-opacity:1" d="M 810.232,414.547 795.371,401.543 z" id="boundary" inkscape:connector-curvature="0" />
	<path style="fill:none;stroke:red;stroke-width:1px;stroke-linecap:butt;stroke-linejoin:miter;stroke-opacity:1" d="M 823.236,429.408 810.232,414.547 z" id="boundary" inkscape:connector-curvature="0" />
	<path style="fill:none;stroke:red;stroke-width:1px;stroke-linecap:butt;stroke-linejoin:miter;stroke-opacity:1" d="M 851.101,457.273 838.097,442.412 z" id="boundary" inkscape:connector-curvature="0" />
	<path style="fill:none;stroke:red;stroke-width:1px;stroke-linecap:butt;stroke-linejoin:miter;stroke-opacity:1" d="M 865.963,470.277 851.101,457.273 z" id="boundary" inkscape:connector-curvature="0" />
	<path style="fill:none;stroke:red;stroke-width:1px;stroke-linecap:butt;stroke-linejoin:miter;stroke-opacity:1" d="M 823.236,429.408 838.097,442.412 z" id="boundary" inkscape:connector-curvature="0" />
	<path style="fill:none;stroke:red;stroke-width:1px;stroke-linecap:butt;stroke-linejoin:miter;stroke-opacity:1" d="M 865.963,470.277 878.966,485.139 z" id="boundary" inkscape:connector-curvature="0" />
	<path style="fill:none;stroke:red;stroke-width:1px;stroke-linecap:butt;stroke-linejoin:miter;stroke-opacity:1" d="M 906.831,513.004 893.828,498.142 z" id="boundary" inkscape:connector-curvature="0" />
	<path style="fill:none;stroke:red;stroke-width:1px;stroke-linecap:butt;stroke-linejoin:miter;stroke-opacity:1" d="M 923.551,501.858 906.831,513.004 z" id="boundary" inkscape:connector-curvature="0" />
	<path style="fill:none;stroke:red;stroke-width:1px;stroke-linecap:butt;stroke-linejoin:miter;stroke-opacity:1" d="M 893.828,498.142 878.966,485.139 z" id="boundary" inkscape:connector-curvature="0" />
	<path style="fill:none;stroke:red;stroke-width:1px;stroke-linecap:butt;stroke-linejoin:miter;stroke-opacity:1" d="M 996,429.408 981.139,442.412 z" id="boundary" inkscape:connector-curvature="0" />
	<path style="fill:none;stroke:red;stroke-width:1px;stroke-linecap:butt;stroke-linejoin:miter;stroke-opacity:1" d="M 988.569,399.685 996,429.408 z" id="boundary" inkscape:connector-curvature="0" />
	<path style="fill:none;stroke:red;stroke-width:1px;stroke-linecap:butt;stroke-linejoin:miter;stroke-opacity:1" d="M 981.139,442.412 968.135,457.273 z" id="boundary" inkscape:connector-curvature="0" />
	<path style="fill:none;stroke:red;stroke-width:1px;stroke-linecap:butt;stroke-linejoin:miter;stroke-opacity:1" d="M 938.412,486.996 923.551,501.858 z" id="boundary" inkscape:connector-curvature="0" />
	<path style="fill:none;stroke:red;stroke-width:1px;stroke-linecap:butt;stroke-linejoin:miter;stroke-opacity:1" d="M 953.273,470.277 968.135,457.273 z" id="boundary" inkscape:connector-curvature="0" />
	<path style="fill:none;stroke:red;stroke-width:1px;stroke-linecap:butt;stroke-linejoin:miter;stroke-opacity:1" d="M 938.412,486.996 953.273,470.277 z" id="boundary" inkscape:connector-curvature="0" />
	<circle cx="4" cy="37.4382" r="4" fill="#0" id="circle0"/>
	<circle cx="4" cy="56.015" r="4" fill="#0" id="circle1"/>
	<circle cx="13.2884" cy="72.7341" r="4" fill="#0" id="circle2"/>
	<circle cx="22.5768" cy="31.8652" r="4" fill="#0" id="circle3"/>
	<circle cx="22.5768" cy="139.61" r="4" fill="#0" id="circle4"/>
	<circle cx="22.5768" cy="158.187" r="4" fill="#0" id="circle5"/>
	<circle cx="22.5768" cy="176.764" r="4" fill="#0" id="circle6"/>
	<circle cx="31.8652" cy="80.1648" r="4" fill="#0" id="circle7"/>
	<circle cx="31.8652" cy="251.071" r="4" fill="#0" id="circle8"/>
	<circle cx="31.8652" cy="269.648" r="4" fill="#0" id="circle9"/>
	<circle cx="31.8652" cy="288.225" r="4" fill="#0" id="circle10"/>
	<circle cx="33.7228" cy="191.625" r="4" fill="#0" id="circle11"/>
	<circle cx="41.1536" cy="31.8652" r="4" fill="#0" id="circle12"/>
	<circle cx="41.1536" cy="134.037" r="4" fill="#0" id="circle13"/>
	<circle cx="41.1536" cy="353.243" r="4" fill="#0" id="circle14"/>
	<circle cx="41.1536" cy="371.82" r="4" fill="#0" id="circle15"/>
	<circle cx="41.1536" cy="390.397" r="4" fill="#0" id="circle16"/>
	<circle cx="50.4419" cy="80.1648" r="4" fill="#0" id="circle17"/>
	<circle cx="50.4419" cy="241.783" r="4" fill="#0" id="circle18"/>
	<circle cx="50.4419" cy="293.798" r="4" fill="#0" id="circle19"/>
	<circle cx="52.2996" cy="191.625" r="4" fill="#0" id="circle20"/>
	<circle cx="52.2996" cy="405.258" r="4" fill="#0" id="circle21"/>
	<circle cx="59.7303" cy="28.1498" r="4" fill="#0" id="circle22"/>
	<circle cx="59.7303" cy="134.037" r="4" fill="#0" id="circle23"/>
	<circle cx="59.7303" cy="347.67" r="4" fill="#0" id="circle24"/>
	<circle cx="69.0187" cy="80.1648" r="4" fill="#0" id="circle25"/>
	<circle cx="69.0187" cy="236.21" r="4" fill="#0" id="circle26"/>
	<circle cx="69.0187" cy="293.798" r="4" fill="#0" id="circle27"/>
	<circle cx="70.8764" cy="182.337" r="4" fill="#0" id="circle28"/>
	<circle cx="70.8764" cy="405.258" r="4" fill="#0" id="circle29"/>
	<circle cx="78.3071" cy="22.5768" r="4" fill="#0" id="circle30"/>
	<circle cx="78.3071" cy="134.037" r="4" fill="#0" id="circle31"/>
	<circle cx="78.3071" cy="347.67" r="4" fill="#0" id="circle32"/>
	<circle cx="87.5955" cy="80.1648" r="4" fill="#0" id="circle33"/>
	<circle cx="87.5955" cy="236.21" r="4" fill="#0" id="circle34"/>
	<circle cx="87.5955" cy="293.798" r="4" fill="#0" id="circle35"/>
	<circle cx="89.4532" cy="182.337" r="4" fill="#0" id="circle36"/>
	<circle cx="89.4532" cy="405.258" r="4" fill="#0" id="circle37"/>
	<circle cx="96.8839" cy="22.5768" r="4" fill="#0" id="circle38"/>
	<circle cx="96.8839" cy="134.037" r="4" fill="#0" id="circle39"/>
	<circle cx="96.8839" cy="343.955" r="4" fill="#0" id="circle40"/>
	<circle cx="106.172" cy="80.1648" r="4" fill="#0" id="circle41"/>
	<circle cx="106.172" cy="236.21" r="4" fill="#0" id="circle42"/>
	<circle cx="106.172" cy="293.798" r="4" fill="#0" id="circle43"/>
	<circle cx="108.03" cy="182.337" r="4" fill="#0" id="circle44"/>
	<circle cx="108.03" cy="405.258" r="4" fill="#0" id="circle45"/>
	<circle cx="115.461" cy="22.5768" r="4" fill="#0" id="circle46"/>
	<circle cx="115.461" cy="130.322" r="4" fill="#0" id="circle47"/>
	<circle cx="115.461" cy="338.382" r="4" fill="#0" id="circle48"/>
	<circle cx="124.749" cy="80.1648" r="4" fill="#0" id="circle49"/>
	<circle cx="124.749" cy="232.494" r="4" fill="#0" id="circle50"/>
	<circle cx="124.749" cy="293.798" r="4" fill="#0" id="circle51"/>
	<circle cx="126.607" cy="182.337" r="4" fill="#0" id="circle52"/>
	<circle cx="126.607" cy="405.258" r="4" fill="#0" id="circle53"/>
	<circle cx="134.037" cy="22.5768" r="4" fill="#0" id="circle54"/>
	<circle cx="134.037" cy="124.749" r="4" fill="#0" id="circle55"/>
	<circle cx="134.037" cy="338.382" r="4" fill="#0" id="circle56"/>
	<circle cx="143.326" cy="80.1648" r="4" fill="#0" id="circle57"/>
	<circle cx="143.326" cy="226.921" r="4" fill="#0" id="circle58"/>
	<circle cx="143.326" cy="293.798" r="4" fill="#0" id="circle59"/>
	<circle cx="145.184" cy="182.337" r="4" fill="#0" id="circle60"/>
	<circle cx="145.184" cy="395.97" r="4" fill="#0" id="circle61"/>
	<circle cx="152.614" cy="22.5768" r="4" fill="#0" id="circle62"/>
	<circle cx="152.614" cy="124.749" r="4" fill="#0" id="circle63"/>
	<circle cx="152.614" cy="338.382" r="4" fill="#0" id="circle64"/>
	<circle cx="161.903" cy="80.1648" r="4" fill="#0" id="circle65"/>
	<circle cx="161.903" cy="226.921" r="4" fill="#0" id="circle66"/>
	<circle cx="161.903" cy="293.798" r="4" fill="#0" id="circle67"/>
	<circle cx="163.76" cy="182.337" r="4" fill="#0" id="circle68"/>
	<circle cx="163.76" cy="395.97" r="4" fill="#0" id="circle69"/>
	<circle cx="169.333" cy="13.2884" r="4" fill="#0" id="circle70"/>
	<circle cx="171.191" cy="124.749" r="4" fill="#0" id="circle71"/>
	<circle cx="171.191" cy="338.382" r="4" fill="#0" id="circle72"/>
	<circle cx="180.479" cy="74.5918" r="4" fill="#0" id="circle73"/>
	<circle cx="180.479" cy="226.921" r="4" fill="#0" id="circle74"/>
	<circle cx="180.479" cy="293.798" r="4" fill="#0" id="circle75"/>
	<circle cx="182.337" cy="182.337" r="4" fill="#0" id="circle76"/>
	<circle cx="182.337" cy="395.97" r="4" fill="#0" id="circle77"/>
	<circle cx="187.91" cy="13.2884" r="4" fill="#0" id="circle78"/>
	<circle cx="189.768" cy="121.034" r="4" fill="#0" id="circle79"/>
	<circle cx="189.768" cy="338.382" r="4" fill="#0" id="circle80"/>
	<circle cx="199.056" cy="70.8764" r="4" fill="#0" id="circle81"/>
	<circle cx="199.056" cy="226.921" r="4" fill="#0" id="circle82"/>
	<circle cx="199.056" cy="288.225" r="4" fill="#0" id="circle83"/>
	<circle cx="200.914" cy="182.337" r="4" fill="#0" id="circle84"/>
	<circle cx="200.914" cy="395.97" r="4" fill="#0" id="circle85"/>
	<circle cx="206.487" cy="13.2884" r="4" fill="#0" id="circle86"/>
	<circle cx="206.487" cy="329.094" r="4" fill="#0" id="circle87"/>
	<circle cx="208.345" cy="115.461" r="4" fill="#0" id="circle88"/>
	<circle cx="217.633" cy="70.8764" r="4" fill="#0" id="circle89"/>
	<circle cx="217.633" cy="223.206" r="4" fill="#0" id="circle90"/>
	<circle cx="217.633" cy="284.509" r="4" fill="#0" id="circle91"/>
	<circle cx="219.491" cy="182.337" r="4" fill="#0" id="circle92"/>
	<circle cx="219.491" cy="395.97" r="4" fill="#0" id="circle93"/>
	<circle cx="225.064" cy="13.2884" r="4" fill="#0" id="circle94"/>
	<circle cx="225.064" cy="329.094" r="4" fill="#0" id="circle95"/>
	<circle cx="226.921" cy="115.461" r="4" fill="#0" id="circle96"/>
	<circle cx="236.21" cy="70.8764" r="4" fill="#0" id="circle97"/>
	<circle cx="236.21" cy="217.633" r="4" fill="#0" id="circle98"/>
	<circle cx="236.21" cy="284.509" r="4" fill="#0" id="circle99"/>
	<circle cx="236.21" cy="386.682" r="4" fill="#0" id="circle100"/>
	<circle cx="238.067" cy="182.337" r="4" fill="#0" id="circle101"/>
	<circle cx="241.783" cy="4" r="4" fill="#0" id="circle102"/>
	<circle cx="243.64" cy="329.094" r="4" fill="#0" id="circle103"/>
	<circle cx="245.498" cy="115.461" r="4" fill="#0" id="circle104"/>
	<circle cx="254.787" cy="70.8764" r="4" fill="#0" id="circle105"/>
	<circle cx="254.787" cy="89.4532" r="4" fill="#0" id="circle106"/>
	<circle cx="254.787" cy="191.625" r="4" fill="#0" id="circle107"/>
	<circle cx="254.787" cy="217.633" r="4" fill="#0" id="circle108"/>
	<circle cx="254.787" cy="284.509" r="4" fill="#0" id="circle109"/>
	<circle cx="254.787" cy="386.682" r="4" fill="#0" id="circle110"/>
	<circle cx="260.36" cy="4" r="4" fill="#0" id="circle111"/>
	<circle cx="262.217" cy="329.094" r="4" fill="#0" id="circle112"/>
	<circle cx="273.363" cy="284.509" r="4" fill="#0" id="circle113"/>
	<circle cx="273.363" cy="303.086" r="4" fill="#0" id="circle114"/>
	<circle cx="273.363" cy="386.682" r="4" fill="#0" id="circle115"/>
	<circle cx="278.936" cy="4" r="4" fill="#0" id="circle116"/>
	<circle cx="291.94" cy="386.682" r="4" fill="#0" id="circle117"/>
	<circle cx="297.513" cy="4" r="4" fill="#0" id="circle118"/>
	<circle cx="310.517" cy="386.682" r="4" fill="#0" id="circle119"/>
	<circle cx="316.09" cy="4" r="4" fill="#0" id="circle120"/>
	<circle cx="329.094" cy="381.109" r="4" fill="#0" id="circle121"/>
	<circle cx="334.667" cy="4" r="4" fill="#0" id="circle122"/>
	<circle cx="347.67" cy="377.393" r="4" fill="#0" id="circle123"/>
	<circle cx="353.243" cy="4" r="4" fill="#0" id="circle124"/>
	<circle cx="366.247" cy="377.393" r="4" fill="#0" id="circle125"/>
	<circle cx="371.82" cy="4" r="4" fill="#0" id="circle126"/>
	<circle cx="377.393" cy="22.5768" r="4" fill="#0" id="circle127"/>
	<circle cx="377.393" cy="41.1536" r="4" fill="#0" id="circle128"/>
	<circle cx="384.824" cy="377.393" r="4" fill="#0" id="circle129"/>
	<circle cx="386.682" cy="57.8727" r="4" fill="#0" id="circle130"/>
	<circle cx="386.682" cy="76.4494" r="4" fill="#0" id="circle131"/>
	<circle cx="386.682" cy="95.0262" r="4" fill="#0" id="circle132"/>
	<circle cx="386.682" cy="113.603" r="4" fill="#0" id="circle133"/>
	<circle cx="386.682" cy="132.18" r="4" fill="#0" id="circle134"/>
	<circle cx="401.543" cy="143.326" r="4" fill="#0" id="circle135"/>
	<circle cx="401.543" cy="368.105" r="4" fill="#0" id="circle136"/>
	<circle cx="405.258" cy="256.644" r="4" fill="#0" id="circle137"/>
	<circle cx="405.258" cy="275.221" r="4" fill="#0" id="circle138"/>
	<circle cx="405.258" cy="293.798" r="4" fill="#0" id="circle139"/>
	<circle cx="408.974" cy="312.375" r="4" fill="#0" id="circle140"/>
	<circle cx="414.547" cy="330.951" r="4" fill="#0" id="circle141"/>
	<circle cx="414.547" cy="349.528" r="4" fill="#0" id="circle142"/>
	<circle cx="420.12" cy="143.326" r="4" fill="#0" id="circle143"/>
	<circle cx="423.835" cy="256.644" r="4" fill="#0" id="circle144"/>
	<circle cx="436.839" cy="134.037" r="4" fill="#0" id="circle145"/>
	<circle cx="442.412" cy="256.644" r="4" fill="#0" id="circle146"/>
	<circle cx="455.416" cy="134.037" r="4" fill="#0" id="circle147"/>
	<circle cx="460.989" cy="256.644" r="4" fill="#0" id="circle148"/>
	<circle cx="473.993" cy="134.037" r="4" fill="#0" id="circle149"/>
	<circle cx="479.566" cy="256.644" r="4" fill="#0" id="circle150"/>
	<circle cx="492.569" cy="134.037" r="4" fill="#0" id="circle151"/>
	<circle cx="498.142" cy="256.644" r="4" fill="#0" id="circle152"/>
	<circle cx="511.146" cy="134.037" r="4" fill="#0" id="circle153"/>
	<circle cx="516.719" cy="247.356" r="4" fill="#0" id="circle154"/>
	<circle cx="529.723" cy="124.749" r="4" fill="#0" id="circle155"/>
	<circle cx="535.296" cy="247.356" r="4" fill="#0" id="circle156"/>
	<circle cx="548.3" cy="124.749" r="4" fill="#0" id="circle157"/>
	<circle cx="553.873" cy="247.356" r="4" fill="#0" id="circle158"/>
	<circle cx="566.876" cy="124.749" r="4" fill="#0" id="circle159"/>
	<circle cx="572.449" cy="247.356" r="4" fill="#0" id="circle160"/>
	<circle cx="585.453" cy="124.749" r="4" fill="#0" id="circle161"/>
	<circle cx="591.026" cy="247.356" r="4" fill="#0" id="circle162"/>
	<circle cx="604.03" cy="115.461" r="4" fill="#0" id="circle163"/>
	<circle cx="609.603" cy="238.067" r="4" fill="#0" id="circle164"/>
	<circle cx="622.607" cy="115.461" r="4" fill="#0" id="circle165"/>
	<circle cx="628.18" cy="238.067" r="4" fill="#0" id="circle166"/>
	<circle cx="641.184" cy="115.461" r="4" fill="#0" id="circle167"/>
	<circle cx="644.899" cy="247.356" r="4" fill="#0" id="circle168"/>
	<circle cx="656.045" cy="262.217" r="4" fill="#0" id="circle169"/>
	<circle cx="659.76" cy="115.461" r="4" fill="#0" id="circle170"/>
	<circle cx="670.906" cy="275.221" r="4" fill="#0" id="circle171"/>
	<circle cx="678.337" cy="115.461" r="4" fill="#0" id="circle172"/>
	<circle cx="683.91" cy="290.082" r="4" fill="#0" id="circle173"/>
	<circle cx="696.914" cy="115.461" r="4" fill="#0" id="circle174"/>
	<circle cx="698.772" cy="303.086" r="4" fill="#0" id="circle175"/>
	<circle cx="709.918" cy="130.322" r="4" fill="#0" id="circle176"/>
	<circle cx="711.775" cy="317.948" r="4" fill="#0" id="circle177"/>
	<circle cx="724.779" cy="143.326" r="4" fill="#0" id="circle178"/>
	<circle cx="726.637" cy="330.951" r="4" fill="#0" id="circle179"/>
	<circle cx="737.783" cy="158.187" r="4" fill="#0" id="circle180"/>
	<circle cx="739.64" cy="345.813" r="4" fill="#0" id="circle181"/>
	<circle cx="747.071" cy="174.906" r="4" fill="#0" id="circle182"/>
	<circle cx="754.502" cy="358.816" r="4" fill="#0" id="circle183"/>
	<circle cx="758.217" cy="189.768" r="4" fill="#0" id="circle184"/>
	<circle cx="767.506" cy="373.678" r="4" fill="#0" id="circle185"/>
	<circle cx="773.079" cy="200.914" r="4" fill="#0" id="circle186"/>
	<circle cx="782.367" cy="386.682" r="4" fill="#0" id="circle187"/>
	<circle cx="786.082" cy="215.775" r="4" fill="#0" id="circle188"/>
	<circle cx="795.371" cy="401.543" r="4" fill="#0" id="circle189"/>
	<circle cx="800.944" cy="228.779" r="4" fill="#0" id="circle190"/>
	<circle cx="810.232" cy="414.547" r="4" fill="#0" id="circle191"/>
	<circle cx="817.663" cy="238.067" r="4" fill="#0" id="circle192"/>
	<circle cx="823.236" cy="429.408" r="4" fill="#0" id="circle193"/>
	<circle cx="832.524" cy="251.071" r="4" fill="#0" id="circle194"/>
	<circle cx="838.097" cy="442.412" r="4" fill="#0" id="circle195"/>
	<circle cx="845.528" cy="265.933" r="4" fill="#0" id="circle196"/>
	<circle cx="851.101" cy="457.273" r="4" fill="#0" id="circle197"/>
	<circle cx="860.39" cy="278.936" r="4" fill="#0" id="circle198"/>
	<circle cx="865.963" cy="470.277" r="4" fill="#0" id="circle199"/>
	<circle cx="873.393" cy="293.798" r="4" fill="#0" id="circle200"/>
	<circle cx="878.966" cy="485.139" r="4" fill="#0" id="circle201"/>
	<circle cx="888.255" cy="306.801" r="4" fill="#0" id="circle202"/>
	<circle cx="893.828" cy="498.142" r="4" fill="#0" id="circle203"/>
	<circle cx="901.258" cy="321.663" r="4" fill="#0" id="circle204"/>
	<circle cx="906.831" cy="513.004" r="4" fill="#0" id="circle205"/>
	<circle cx="916.12" cy="334.667" r="4" fill="#0" id="circle206"/>
	<circle cx="923.551" cy="501.858" r="4" fill="#0" id="circle207"/>
	<circle cx="929.124" cy="349.528" r="4" fill="#0" id="circle208"/>
	<circle cx="938.412" cy="486.996" r="4" fill="#0" id="circle209"/>
	<circle cx="943.985" cy="362.532" r="4" fill="#0" id="circle210"/>
	<circle cx="953.273" cy="470.277" r="4" fill="#0" id="circle211"/>
	<circle cx="960.704" cy="371.82" r="4" fill="#0" id="circle212"/>
	<circle cx="968.135" cy="457.273" r="4" fill="#0" id="circle213"/>
	<circle cx="975.566" cy="384.824" r="4" fill="#0" id="circle214"/>
	<circle cx="981.139" cy="442.412" r="4" fill="#0" id="circle215"/>
	<circle cx="988.569" cy="399.685" r="4" fill="#0" id="circle216"/>
	<circle cx="996" cy="429.408" r="4" fill="#0" id="circle217"/>
	</g>
</svg>