<?xml version="1.0" encoding="UTF-8" standalone="no"?>
<!-- Created with CurveBenchmark -->
<svg
	xmlns:dc="http://purl.org/dc/elements/1.1/"
	xmlns:cc="http://creativecommons.org/ns#"
	xmlns:rdf="http://www.w3.org/1999/02/22-rdf-syntax-ns#"
	xmlns:svg="http://www.w3.org/2000/svg"
	xmlns="http://www.w3.org/2000/svg"
	xmlns:sodipodi="http://sodipodi.sourceforge.net/DTD/sodipodi-0.dtd"
	xmlns:inkscape="http://www.inkscape.org/namespaces/inkscape"
	width="1000"
	height="1000"
	id="svg2"
	version="1.1"
	sodipodi:docname="manifold/crust-cat15.png.txt">
<defs
	id="defs4" />
<metadata
	id="metadata7">
	<rdf:RDF>
		<cc:Work
			rdf:about="">
			<dc:format>image/svg+xml</dc:format>
			<dc:type
				rdf:resource="http://purl.org/dc/dcmitype/StillImage" />
			<dc:title></dc:title>
		</cc:Work>
	</rdf:RDF>
</metadata>
<g
	inkscape:label="Layer 1"
	inkscape:groupmode="layer"
	id="layer1">
	<path style="fill:none;stroke:red;stroke-width:1px;stroke-linecap:butt;stroke-linejoin:miter;stroke-opacity:1" d="M 20.3696,355.947 4,360.858 z" id="boundary" inkscape:connector-curvature="0" />
	<path style="fill:none;stroke:red;stroke-width:1px;stroke-linecap:butt;stroke-linejoin:miter;stroke-opacity:1" d="M 36.7393,355.947 20.3696,355.947 z" id="boundary" inkscape:connector-curvature="0" />
	<path style="fill:none;stroke:red;stroke-width:1px;stroke-linecap:butt;stroke-linejoin:miter;stroke-opacity:1" d="M 4,377.228 4,360.858 z" id="boundary" inkscape:connector-curvature="0" />
	<path style="fill:none;stroke:red;stroke-width:1px;stroke-linecap:butt;stroke-linejoin:miter;stroke-opacity:1" d="M 12.1848,391.96 4,377.228 z" id="boundary" inkscape:connector-curvature="0" />
	<path style="fill:none;stroke:red;stroke-width:1px;stroke-linecap:butt;stroke-linejoin:miter;stroke-opacity:1" d="M 51.4719,364.132 36.7393,355.947 z" id="boundary" inkscape:connector-curvature="0" />
	<path style="fill:none;stroke:red;stroke-width:1px;stroke-linecap:butt;stroke-linejoin:miter;stroke-opacity:1" d="M 67.8416,365.769 51.4719,364.132 z" id="boundary" inkscape:connector-curvature="0" />
	<path style="fill:none;stroke:red;stroke-width:1px;stroke-linecap:butt;stroke-linejoin:miter;stroke-opacity:1" d="M 67.8416,365.769 82.5743,373.954 z" id="boundary" inkscape:connector-curvature="0" />
	<path style="fill:none;stroke:red;stroke-width:1px;stroke-linecap:butt;stroke-linejoin:miter;stroke-opacity:1" d="M 20.3696,406.693 12.1848,391.96 z" id="boundary" inkscape:connector-curvature="0" />
	<path style="fill:none;stroke:red;stroke-width:1px;stroke-linecap:butt;stroke-linejoin:miter;stroke-opacity:1" d="M 231.538,282.284 218.442,293.743 z" id="boundary" inkscape:connector-curvature="0" />
	<path style="fill:none;stroke:red;stroke-width:1px;stroke-linecap:butt;stroke-linejoin:miter;stroke-opacity:1" d="M 218.442,293.743 205.347,306.838 z" id="boundary" inkscape:connector-curvature="0" />
	<path style="fill:none;stroke:red;stroke-width:1px;stroke-linecap:butt;stroke-linejoin:miter;stroke-opacity:1" d="M 198.799,323.208 205.347,306.838 z" id="boundary" inkscape:connector-curvature="0" />
	<path style="fill:none;stroke:red;stroke-width:1px;stroke-linecap:butt;stroke-linejoin:miter;stroke-opacity:1" d="M 144.779,359.221 131.683,372.317 z" id="boundary" inkscape:connector-curvature="0" />
	<path style="fill:none;stroke:red;stroke-width:1px;stroke-linecap:butt;stroke-linejoin:miter;stroke-opacity:1" d="M 98.9439,380.502 82.5743,373.954 z" id="boundary" inkscape:connector-curvature="0" />
	<path style="fill:none;stroke:red;stroke-width:1px;stroke-linecap:butt;stroke-linejoin:miter;stroke-opacity:1" d="M 115.314,380.502 98.9439,380.502 z" id="boundary" inkscape:connector-curvature="0" />
	<path style="fill:none;stroke:red;stroke-width:1px;stroke-linecap:butt;stroke-linejoin:miter;stroke-opacity:1" d="M 131.683,372.317 115.314,380.502 z" id="boundary" inkscape:connector-curvature="0" />
	<path style="fill:none;stroke:red;stroke-width:1px;stroke-linecap:butt;stroke-linejoin:miter;stroke-opacity:1" d="M 185.703,334.667 174.244,347.762 z" id="boundary" inkscape:connector-curvature="0" />
	<path style="fill:none;stroke:red;stroke-width:1px;stroke-linecap:butt;stroke-linejoin:miter;stroke-opacity:1" d="M 144.779,359.221 157.875,347.762 z" id="boundary" inkscape:connector-curvature="0" />
	<path style="fill:none;stroke:red;stroke-width:1px;stroke-linecap:butt;stroke-linejoin:miter;stroke-opacity:1" d="M 157.875,347.762 174.244,347.762 z" id="boundary" inkscape:connector-curvature="0" />
	<path style="fill:none;stroke:red;stroke-width:1px;stroke-linecap:butt;stroke-linejoin:miter;stroke-opacity:1" d="M 198.799,323.208 185.703,334.667 z" id="boundary" inkscape:connector-curvature="0" />
	<path style="fill:none;stroke:red;stroke-width:1px;stroke-linecap:butt;stroke-linejoin:miter;stroke-opacity:1" d="M 20.3696,406.693 20.3696,423.063 z" id="boundary" inkscape:connector-curvature="0" />
	<path style="fill:none;stroke:red;stroke-width:1px;stroke-linecap:butt;stroke-linejoin:miter;stroke-opacity:1" d="M 28.5545,437.795 20.3696,423.063 z" id="boundary" inkscape:connector-curvature="0" />
	<path style="fill:none;stroke:red;stroke-width:1px;stroke-linecap:butt;stroke-linejoin:miter;stroke-opacity:1" d="M 28.5545,437.795 31.8284,454.165 z" id="boundary" inkscape:connector-curvature="0" />
	<path style="fill:none;stroke:red;stroke-width:1px;stroke-linecap:butt;stroke-linejoin:miter;stroke-opacity:1" d="M 36.7393,470.535 31.8284,454.165 z" id="boundary" inkscape:connector-curvature="0" />
	<path style="fill:none;stroke:red;stroke-width:1px;stroke-linecap:butt;stroke-linejoin:miter;stroke-opacity:1" d="M 36.7393,470.535 36.7393,486.904 z" id="boundary" inkscape:connector-curvature="0" />
	<path style="fill:none;stroke:red;stroke-width:1px;stroke-linecap:butt;stroke-linejoin:miter;stroke-opacity:1" d="M 36.7393,486.904 36.7393,503.274 z" id="boundary" inkscape:connector-curvature="0" />
	<path style="fill:none;stroke:red;stroke-width:1px;stroke-linecap:butt;stroke-linejoin:miter;stroke-opacity:1" d="M 54.7459,549.109 44.9241,536.013 z" id="boundary" inkscape:connector-curvature="0" />
	<path style="fill:none;stroke:red;stroke-width:1px;stroke-linecap:butt;stroke-linejoin:miter;stroke-opacity:1" d="M 40.0132,519.644 36.7393,503.274 z" id="boundary" inkscape:connector-curvature="0" />
	<path style="fill:none;stroke:red;stroke-width:1px;stroke-linecap:butt;stroke-linejoin:miter;stroke-opacity:1" d="M 40.0132,519.644 44.9241,536.013 z" id="boundary" inkscape:connector-curvature="0" />
	<path style="fill:none;stroke:red;stroke-width:1px;stroke-linecap:butt;stroke-linejoin:miter;stroke-opacity:1" d="M 80.9373,570.389 66.2046,562.205 z" id="boundary" inkscape:connector-curvature="0" />
	<path style="fill:none;stroke:red;stroke-width:1px;stroke-linecap:butt;stroke-linejoin:miter;stroke-opacity:1" d="M 66.2046,562.205 54.7459,549.109 z" id="boundary" inkscape:connector-curvature="0" />
	<path style="fill:none;stroke:red;stroke-width:1px;stroke-linecap:butt;stroke-linejoin:miter;stroke-opacity:1" d="M 110.403,586.759 95.67,578.574 z" id="boundary" inkscape:connector-curvature="0" />
	<path style="fill:none;stroke:red;stroke-width:1px;stroke-linecap:butt;stroke-linejoin:miter;stroke-opacity:1" d="M 95.67,578.574 80.9373,570.389 z" id="boundary" inkscape:connector-curvature="0" />
	<path style="fill:none;stroke:red;stroke-width:1px;stroke-linecap:butt;stroke-linejoin:miter;stroke-opacity:1" d="M 125.135,594.944 110.403,586.759 z" id="boundary" inkscape:connector-curvature="0" />
	<path style="fill:none;stroke:red;stroke-width:1px;stroke-linecap:butt;stroke-linejoin:miter;stroke-opacity:1" d="M 125.135,594.944 139.868,603.129 z" id="boundary" inkscape:connector-curvature="0" />
	<path style="fill:none;stroke:red;stroke-width:1px;stroke-linecap:butt;stroke-linejoin:miter;stroke-opacity:1" d="M 152.964,614.587 139.868,603.129 z" id="boundary" inkscape:connector-curvature="0" />
	<path style="fill:none;stroke:red;stroke-width:1px;stroke-linecap:butt;stroke-linejoin:miter;stroke-opacity:1" d="M 152.964,614.587 159.512,630.957 z" id="boundary" inkscape:connector-curvature="0" />
	<path style="fill:none;stroke:red;stroke-width:1px;stroke-linecap:butt;stroke-linejoin:miter;stroke-opacity:1" d="M 167.696,645.69 159.512,630.957 z" id="boundary" inkscape:connector-curvature="0" />
	<path style="fill:none;stroke:red;stroke-width:1px;stroke-linecap:butt;stroke-linejoin:miter;stroke-opacity:1" d="M 333.03,211.894 316.66,220.079 z" id="boundary" inkscape:connector-curvature="0" />
	<path style="fill:none;stroke:red;stroke-width:1px;stroke-linecap:butt;stroke-linejoin:miter;stroke-opacity:1" d="M 346.125,200.436 333.03,211.894 z" id="boundary" inkscape:connector-curvature="0" />
	<path style="fill:none;stroke:red;stroke-width:1px;stroke-linecap:butt;stroke-linejoin:miter;stroke-opacity:1" d="M 362.495,200.436 346.125,200.436 z" id="boundary" inkscape:connector-curvature="0" />
	<path style="fill:none;stroke:red;stroke-width:1px;stroke-linecap:butt;stroke-linejoin:miter;stroke-opacity:1" d="M 316.66,220.079 300.29,228.264 z" id="boundary" inkscape:connector-curvature="0" />
	<path style="fill:none;stroke:red;stroke-width:1px;stroke-linecap:butt;stroke-linejoin:miter;stroke-opacity:1" d="M 409.967,192.251 393.597,192.251 z" id="boundary" inkscape:connector-curvature="0" />
	<path style="fill:none;stroke:red;stroke-width:1px;stroke-linecap:butt;stroke-linejoin:miter;stroke-opacity:1" d="M 377.228,192.251 362.495,200.436 z" id="boundary" inkscape:connector-curvature="0" />
	<path style="fill:none;stroke:red;stroke-width:1px;stroke-linecap:butt;stroke-linejoin:miter;stroke-opacity:1" d="M 393.597,192.251 377.228,192.251 z" id="boundary" inkscape:connector-curvature="0" />
	<path style="fill:none;stroke:red;stroke-width:1px;stroke-linecap:butt;stroke-linejoin:miter;stroke-opacity:1" d="M 256.092,257.729 267.551,244.634 z" id="boundary" inkscape:connector-curvature="0" />
	<path style="fill:none;stroke:red;stroke-width:1px;stroke-linecap:butt;stroke-linejoin:miter;stroke-opacity:1" d="M 256.092,257.729 242.997,269.188 z" id="boundary" inkscape:connector-curvature="0" />
	<path style="fill:none;stroke:red;stroke-width:1px;stroke-linecap:butt;stroke-linejoin:miter;stroke-opacity:1" d="M 283.921,236.449 267.551,244.634 z" id="boundary" inkscape:connector-curvature="0" />
	<path style="fill:none;stroke:red;stroke-width:1px;stroke-linecap:butt;stroke-linejoin:miter;stroke-opacity:1" d="M 242.997,269.188 231.538,282.284 z" id="boundary" inkscape:connector-curvature="0" />
	<path style="fill:none;stroke:red;stroke-width:1px;stroke-linecap:butt;stroke-linejoin:miter;stroke-opacity:1" d="M 283.921,236.449 300.29,228.264 z" id="boundary" inkscape:connector-curvature="0" />
	<path style="fill:none;stroke:red;stroke-width:1px;stroke-linecap:butt;stroke-linejoin:miter;stroke-opacity:1" d="M 426.337,192.251 409.967,192.251 z" id="boundary" inkscape:connector-curvature="0" />
	<path style="fill:none;stroke:red;stroke-width:1px;stroke-linecap:butt;stroke-linejoin:miter;stroke-opacity:1" d="M 442.706,192.251 426.337,192.251 z" id="boundary" inkscape:connector-curvature="0" />
	<path style="fill:none;stroke:red;stroke-width:1px;stroke-linecap:butt;stroke-linejoin:miter;stroke-opacity:1" d="M 459.076,192.251 442.706,192.251 z" id="boundary" inkscape:connector-curvature="0" />
	<path style="fill:none;stroke:red;stroke-width:1px;stroke-linecap:butt;stroke-linejoin:miter;stroke-opacity:1" d="M 475.446,192.251 459.076,192.251 z" id="boundary" inkscape:connector-curvature="0" />
	<path style="fill:none;stroke:red;stroke-width:1px;stroke-linecap:butt;stroke-linejoin:miter;stroke-opacity:1" d="M 491.815,192.251 508.185,192.251 z" id="boundary" inkscape:connector-curvature="0" />
	<path style="fill:none;stroke:red;stroke-width:1px;stroke-linecap:butt;stroke-linejoin:miter;stroke-opacity:1" d="M 524.554,192.251 508.185,192.251 z" id="boundary" inkscape:connector-curvature="0" />
	<path style="fill:none;stroke:red;stroke-width:1px;stroke-linecap:butt;stroke-linejoin:miter;stroke-opacity:1" d="M 475.446,192.251 491.815,192.251 z" id="boundary" inkscape:connector-curvature="0" />
	<path style="fill:none;stroke:red;stroke-width:1px;stroke-linecap:butt;stroke-linejoin:miter;stroke-opacity:1" d="M 175.881,660.422 167.696,645.69 z" id="boundary" inkscape:connector-curvature="0" />
	<path style="fill:none;stroke:red;stroke-width:1px;stroke-linecap:butt;stroke-linejoin:miter;stroke-opacity:1" d="M 406.693,603.129 398.508,619.498 z" id="boundary" inkscape:connector-curvature="0" />
	<path style="fill:none;stroke:red;stroke-width:1px;stroke-linecap:butt;stroke-linejoin:miter;stroke-opacity:1" d="M 297.017,652.238 282.284,644.053 z" id="boundary" inkscape:connector-curvature="0" />
	<path style="fill:none;stroke:red;stroke-width:1px;stroke-linecap:butt;stroke-linejoin:miter;stroke-opacity:1" d="M 398.508,619.498 390.323,644.053 z" id="boundary" inkscape:connector-curvature="0" />
	<path style="fill:none;stroke:red;stroke-width:1px;stroke-linecap:butt;stroke-linejoin:miter;stroke-opacity:1" d="M 282.284,644.053 267.551,652.238 z" id="boundary" inkscape:connector-curvature="0" />
	<path style="fill:none;stroke:red;stroke-width:1px;stroke-linecap:butt;stroke-linejoin:miter;stroke-opacity:1" d="M 468.898,570.389 452.528,575.3 z" id="boundary" inkscape:connector-curvature="0" />
	<path style="fill:none;stroke:red;stroke-width:1px;stroke-linecap:butt;stroke-linejoin:miter;stroke-opacity:1" d="M 501.637,570.389 485.267,570.389 z" id="boundary" inkscape:connector-curvature="0" />
	<path style="fill:none;stroke:red;stroke-width:1px;stroke-linecap:butt;stroke-linejoin:miter;stroke-opacity:1" d="M 516.37,578.574 501.637,570.389 z" id="boundary" inkscape:connector-curvature="0" />
	<path style="fill:none;stroke:red;stroke-width:1px;stroke-linecap:butt;stroke-linejoin:miter;stroke-opacity:1" d="M 485.267,570.389 468.898,570.389 z" id="boundary" inkscape:connector-curvature="0" />
	<path style="fill:none;stroke:red;stroke-width:1px;stroke-linecap:butt;stroke-linejoin:miter;stroke-opacity:1" d="M 419.789,591.67 436.158,583.485 z" id="boundary" inkscape:connector-curvature="0" />
	<path style="fill:none;stroke:red;stroke-width:1px;stroke-linecap:butt;stroke-linejoin:miter;stroke-opacity:1" d="M 452.528,575.3 436.158,583.485 z" id="boundary" inkscape:connector-curvature="0" />
	<path style="fill:none;stroke:red;stroke-width:1px;stroke-linecap:butt;stroke-linejoin:miter;stroke-opacity:1" d="M 406.693,603.129 419.789,591.67 z" id="boundary" inkscape:connector-curvature="0" />
	<path style="fill:none;stroke:red;stroke-width:1px;stroke-linecap:butt;stroke-linejoin:miter;stroke-opacity:1" d="M 516.37,578.574 529.465,590.033 z" id="boundary" inkscape:connector-curvature="0" />
	<path style="fill:none;stroke:red;stroke-width:1px;stroke-linecap:butt;stroke-linejoin:miter;stroke-opacity:1" d="M 390.323,644.053 382.139,668.607 z" id="boundary" inkscape:connector-curvature="0" />
	<path style="fill:none;stroke:red;stroke-width:1px;stroke-linecap:butt;stroke-linejoin:miter;stroke-opacity:1" d="M 175.881,660.422 167.696,680.066 z" id="boundary" inkscape:connector-curvature="0" />
	<path style="fill:none;stroke:red;stroke-width:1px;stroke-linecap:butt;stroke-linejoin:miter;stroke-opacity:1" d="M 167.696,680.066 167.696,696.436 z" id="boundary" inkscape:connector-curvature="0" />
	<path style="fill:none;stroke:red;stroke-width:1px;stroke-linecap:butt;stroke-linejoin:miter;stroke-opacity:1" d="M 167.696,745.545 159.512,761.914 z" id="boundary" inkscape:connector-curvature="0" />
	<path style="fill:none;stroke:red;stroke-width:1px;stroke-linecap:butt;stroke-linejoin:miter;stroke-opacity:1" d="M 159.512,761.914 151.327,778.284 z" id="boundary" inkscape:connector-curvature="0" />
	<path style="fill:none;stroke:red;stroke-width:1px;stroke-linecap:butt;stroke-linejoin:miter;stroke-opacity:1" d="M 167.696,696.436 167.696,712.805 z" id="boundary" inkscape:connector-curvature="0" />
	<path style="fill:none;stroke:red;stroke-width:1px;stroke-linecap:butt;stroke-linejoin:miter;stroke-opacity:1" d="M 251.182,684.977 259.366,668.607 z" id="boundary" inkscape:connector-curvature="0" />
	<path style="fill:none;stroke:red;stroke-width:1px;stroke-linecap:butt;stroke-linejoin:miter;stroke-opacity:1" d="M 251.182,684.977 242.997,701.347 z" id="boundary" inkscape:connector-curvature="0" />
	<path style="fill:none;stroke:red;stroke-width:1px;stroke-linecap:butt;stroke-linejoin:miter;stroke-opacity:1" d="M 242.997,701.347 239.723,730.812 z" id="boundary" inkscape:connector-curvature="0" />
	<path style="fill:none;stroke:red;stroke-width:1px;stroke-linecap:butt;stroke-linejoin:miter;stroke-opacity:1" d="M 175.881,727.538 167.696,745.545 z" id="boundary" inkscape:connector-curvature="0" />
	<path style="fill:none;stroke:red;stroke-width:1px;stroke-linecap:butt;stroke-linejoin:miter;stroke-opacity:1" d="M 167.696,712.805 175.881,727.538 z" id="boundary" inkscape:connector-curvature="0" />
	<path style="fill:none;stroke:red;stroke-width:1px;stroke-linecap:butt;stroke-linejoin:miter;stroke-opacity:1" d="M 231.538,747.182 239.723,730.812 z" id="boundary" inkscape:connector-curvature="0" />
	<path style="fill:none;stroke:red;stroke-width:1px;stroke-linecap:butt;stroke-linejoin:miter;stroke-opacity:1" d="M 231.538,747.182 218.442,758.64 z" id="boundary" inkscape:connector-curvature="0" />
	<path style="fill:none;stroke:red;stroke-width:1px;stroke-linecap:butt;stroke-linejoin:miter;stroke-opacity:1" d="M 218.442,758.64 210.257,783.195 z" id="boundary" inkscape:connector-curvature="0" />
	<path style="fill:none;stroke:red;stroke-width:1px;stroke-linecap:butt;stroke-linejoin:miter;stroke-opacity:1" d="M 259.366,668.607 267.551,652.238 z" id="boundary" inkscape:connector-curvature="0" />
	<path style="fill:none;stroke:red;stroke-width:1px;stroke-linecap:butt;stroke-linejoin:miter;stroke-opacity:1" d="M 94.033,811.023 107.129,797.927 z" id="boundary" inkscape:connector-curvature="0" />
	<path style="fill:none;stroke:red;stroke-width:1px;stroke-linecap:butt;stroke-linejoin:miter;stroke-opacity:1" d="M 94.033,811.023 94.033,827.393 z" id="boundary" inkscape:connector-curvature="0" />
	<path style="fill:none;stroke:red;stroke-width:1px;stroke-linecap:butt;stroke-linejoin:miter;stroke-opacity:1" d="M 107.129,797.927 123.498,797.927 z" id="boundary" inkscape:connector-curvature="0" />
	<path style="fill:none;stroke:red;stroke-width:1px;stroke-linecap:butt;stroke-linejoin:miter;stroke-opacity:1" d="M 138.231,789.743 123.498,797.927 z" id="boundary" inkscape:connector-curvature="0" />
	<path style="fill:none;stroke:red;stroke-width:1px;stroke-linecap:butt;stroke-linejoin:miter;stroke-opacity:1" d="M 138.231,789.743 151.327,778.284 z" id="boundary" inkscape:connector-curvature="0" />
	<path style="fill:none;stroke:red;stroke-width:1px;stroke-linecap:butt;stroke-linejoin:miter;stroke-opacity:1" d="M 107.129,838.851 94.033,827.393 z" id="boundary" inkscape:connector-curvature="0" />
	<path style="fill:none;stroke:red;stroke-width:1px;stroke-linecap:butt;stroke-linejoin:miter;stroke-opacity:1" d="M 120.224,848.673 107.129,838.851 z" id="boundary" inkscape:connector-curvature="0" />
	<path style="fill:none;stroke:red;stroke-width:1px;stroke-linecap:butt;stroke-linejoin:miter;stroke-opacity:1" d="M 136.594,848.673 120.224,848.673 z" id="boundary" inkscape:connector-curvature="0" />
	<path style="fill:none;stroke:red;stroke-width:1px;stroke-linecap:butt;stroke-linejoin:miter;stroke-opacity:1" d="M 152.964,848.673 136.594,848.673 z" id="boundary" inkscape:connector-curvature="0" />
	<path style="fill:none;stroke:red;stroke-width:1px;stroke-linecap:butt;stroke-linejoin:miter;stroke-opacity:1" d="M 166.059,837.215 152.964,848.673 z" id="boundary" inkscape:connector-curvature="0" />
	<path style="fill:none;stroke:red;stroke-width:1px;stroke-linecap:butt;stroke-linejoin:miter;stroke-opacity:1" d="M 210.257,783.195 198.799,796.29 z" id="boundary" inkscape:connector-curvature="0" />
	<path style="fill:none;stroke:red;stroke-width:1px;stroke-linecap:butt;stroke-linejoin:miter;stroke-opacity:1" d="M 198.799,796.29 190.614,812.66 z" id="boundary" inkscape:connector-curvature="0" />
	<path style="fill:none;stroke:red;stroke-width:1px;stroke-linecap:butt;stroke-linejoin:miter;stroke-opacity:1" d="M 190.614,812.66 177.518,824.119 z" id="boundary" inkscape:connector-curvature="0" />
	<path style="fill:none;stroke:red;stroke-width:1px;stroke-linecap:butt;stroke-linejoin:miter;stroke-opacity:1" d="M 166.059,837.215 177.518,824.119 z" id="boundary" inkscape:connector-curvature="0" />
	<path style="fill:none;stroke:red;stroke-width:1px;stroke-linecap:butt;stroke-linejoin:miter;stroke-opacity:1" d="M 279.01,830.667 265.914,843.762 z" id="boundary" inkscape:connector-curvature="0" />
	<path style="fill:none;stroke:red;stroke-width:1px;stroke-linecap:butt;stroke-linejoin:miter;stroke-opacity:1" d="M 265.914,843.762 274.099,858.495 z" id="boundary" inkscape:connector-curvature="0" />
	<path style="fill:none;stroke:red;stroke-width:1px;stroke-linecap:butt;stroke-linejoin:miter;stroke-opacity:1" d="M 297.017,652.238 298.653,668.607 z" id="boundary" inkscape:connector-curvature="0" />
	<path style="fill:none;stroke:red;stroke-width:1px;stroke-linecap:butt;stroke-linejoin:miter;stroke-opacity:1" d="M 303.564,684.977 298.653,668.607 z" id="boundary" inkscape:connector-curvature="0" />
	<path style="fill:none;stroke:red;stroke-width:1px;stroke-linecap:butt;stroke-linejoin:miter;stroke-opacity:1" d="M 306.838,701.347 303.564,684.977 z" id="boundary" inkscape:connector-curvature="0" />
	<path style="fill:none;stroke:red;stroke-width:1px;stroke-linecap:butt;stroke-linejoin:miter;stroke-opacity:1" d="M 306.838,701.347 306.838,717.716 z" id="boundary" inkscape:connector-curvature="0" />
	<path style="fill:none;stroke:red;stroke-width:1px;stroke-linecap:butt;stroke-linejoin:miter;stroke-opacity:1" d="M 315.023,732.449 306.838,717.716 z" id="boundary" inkscape:connector-curvature="0" />
	<path style="fill:none;stroke:red;stroke-width:1px;stroke-linecap:butt;stroke-linejoin:miter;stroke-opacity:1" d="M 315.023,748.818 315.023,732.449 z" id="boundary" inkscape:connector-curvature="0" />
	<path style="fill:none;stroke:red;stroke-width:1px;stroke-linecap:butt;stroke-linejoin:miter;stroke-opacity:1" d="M 315.023,748.818 315.023,765.188 z" id="boundary" inkscape:connector-curvature="0" />
	<path style="fill:none;stroke:red;stroke-width:1px;stroke-linecap:butt;stroke-linejoin:miter;stroke-opacity:1" d="M 382.139,684.977 382.139,701.347 z" id="boundary" inkscape:connector-curvature="0" />
	<path style="fill:none;stroke:red;stroke-width:1px;stroke-linecap:butt;stroke-linejoin:miter;stroke-opacity:1" d="M 382.139,684.977 382.139,668.607 z" id="boundary" inkscape:connector-curvature="0" />
	<path style="fill:none;stroke:red;stroke-width:1px;stroke-linecap:butt;stroke-linejoin:miter;stroke-opacity:1" d="M 382.139,701.347 373.954,725.901 z" id="boundary" inkscape:connector-curvature="0" />
	<path style="fill:none;stroke:red;stroke-width:1px;stroke-linecap:butt;stroke-linejoin:miter;stroke-opacity:1" d="M 373.954,742.271 373.954,725.901 z" id="boundary" inkscape:connector-curvature="0" />
	<path style="fill:none;stroke:red;stroke-width:1px;stroke-linecap:butt;stroke-linejoin:miter;stroke-opacity:1" d="M 373.954,742.271 373.954,758.64 z" id="boundary" inkscape:connector-curvature="0" />
	<path style="fill:none;stroke:red;stroke-width:1px;stroke-linecap:butt;stroke-linejoin:miter;stroke-opacity:1" d="M 315.023,765.188 315.023,781.558 z" id="boundary" inkscape:connector-curvature="0" />
	<path style="fill:none;stroke:red;stroke-width:1px;stroke-linecap:butt;stroke-linejoin:miter;stroke-opacity:1" d="M 315.023,781.558 305.201,806.112 z" id="boundary" inkscape:connector-curvature="0" />
	<path style="fill:none;stroke:red;stroke-width:1px;stroke-linecap:butt;stroke-linejoin:miter;stroke-opacity:1" d="M 279.01,830.667 292.106,817.571 z" id="boundary" inkscape:connector-curvature="0" />
	<path style="fill:none;stroke:red;stroke-width:1px;stroke-linecap:butt;stroke-linejoin:miter;stroke-opacity:1" d="M 305.201,806.112 292.106,817.571 z" id="boundary" inkscape:connector-curvature="0" />
	<path style="fill:none;stroke:red;stroke-width:1px;stroke-linecap:butt;stroke-linejoin:miter;stroke-opacity:1" d="M 347.762,851.947 331.393,860.132 z" id="boundary" inkscape:connector-curvature="0" />
	<path style="fill:none;stroke:red;stroke-width:1px;stroke-linecap:butt;stroke-linejoin:miter;stroke-opacity:1" d="M 285.558,871.591 274.099,858.495 z" id="boundary" inkscape:connector-curvature="0" />
	<path style="fill:none;stroke:red;stroke-width:1px;stroke-linecap:butt;stroke-linejoin:miter;stroke-opacity:1" d="M 301.927,873.228 285.558,871.591 z" id="boundary" inkscape:connector-curvature="0" />
	<path style="fill:none;stroke:red;stroke-width:1px;stroke-linecap:butt;stroke-linejoin:miter;stroke-opacity:1" d="M 331.393,860.132 318.297,873.228 z" id="boundary" inkscape:connector-curvature="0" />
	<path style="fill:none;stroke:red;stroke-width:1px;stroke-linecap:butt;stroke-linejoin:miter;stroke-opacity:1" d="M 318.297,873.228 301.927,873.228 z" id="boundary" inkscape:connector-curvature="0" />
	<path style="fill:none;stroke:red;stroke-width:1px;stroke-linecap:butt;stroke-linejoin:miter;stroke-opacity:1" d="M 373.954,758.64 365.769,783.195 z" id="boundary" inkscape:connector-curvature="0" />
	<path style="fill:none;stroke:red;stroke-width:1px;stroke-linecap:butt;stroke-linejoin:miter;stroke-opacity:1" d="M 365.769,783.195 365.769,799.564 z" id="boundary" inkscape:connector-curvature="0" />
	<path style="fill:none;stroke:red;stroke-width:1px;stroke-linecap:butt;stroke-linejoin:miter;stroke-opacity:1" d="M 365.769,799.564 365.769,815.934 z" id="boundary" inkscape:connector-curvature="0" />
	<path style="fill:none;stroke:red;stroke-width:1px;stroke-linecap:butt;stroke-linejoin:miter;stroke-opacity:1" d="M 511.459,794.653 503.274,819.208 z" id="boundary" inkscape:connector-curvature="0" />
	<path style="fill:none;stroke:red;stroke-width:1px;stroke-linecap:butt;stroke-linejoin:miter;stroke-opacity:1" d="M 527.828,786.469 511.459,794.653 z" id="boundary" inkscape:connector-curvature="0" />
	<path style="fill:none;stroke:red;stroke-width:1px;stroke-linecap:butt;stroke-linejoin:miter;stroke-opacity:1" d="M 347.762,851.947 357.584,832.304 z" id="boundary" inkscape:connector-curvature="0" />
	<path style="fill:none;stroke:red;stroke-width:1px;stroke-linecap:butt;stroke-linejoin:miter;stroke-opacity:1" d="M 365.769,815.934 357.584,832.304 z" id="boundary" inkscape:connector-curvature="0" />
	<path style="fill:none;stroke:red;stroke-width:1px;stroke-linecap:butt;stroke-linejoin:miter;stroke-opacity:1" d="M 527.828,840.488 511.459,833.941 z" id="boundary" inkscape:connector-curvature="0" />
	<path style="fill:none;stroke:red;stroke-width:1px;stroke-linecap:butt;stroke-linejoin:miter;stroke-opacity:1" d="M 511.459,833.941 503.274,819.208 z" id="boundary" inkscape:connector-curvature="0" />
	<path style="fill:none;stroke:red;stroke-width:1px;stroke-linecap:butt;stroke-linejoin:miter;stroke-opacity:1" d="M 527.828,840.488 542.561,848.673 z" id="boundary" inkscape:connector-curvature="0" />
	<path style="fill:none;stroke:red;stroke-width:1px;stroke-linecap:butt;stroke-linejoin:miter;stroke-opacity:1" d="M 524.554,192.251 539.287,200.436 z" id="boundary" inkscape:connector-curvature="0" />
	<path style="fill:none;stroke:red;stroke-width:1px;stroke-linecap:butt;stroke-linejoin:miter;stroke-opacity:1" d="M 555.657,200.436 539.287,200.436 z" id="boundary" inkscape:connector-curvature="0" />
	<path style="fill:none;stroke:red;stroke-width:1px;stroke-linecap:butt;stroke-linejoin:miter;stroke-opacity:1" d="M 570.389,208.62 555.657,200.436 z" id="boundary" inkscape:connector-curvature="0" />
	<path style="fill:none;stroke:red;stroke-width:1px;stroke-linecap:butt;stroke-linejoin:miter;stroke-opacity:1" d="M 570.389,208.62 585.122,216.805 z" id="boundary" inkscape:connector-curvature="0" />
	<path style="fill:none;stroke:red;stroke-width:1px;stroke-linecap:butt;stroke-linejoin:miter;stroke-opacity:1" d="M 585.122,216.805 599.855,224.99 z" id="boundary" inkscape:connector-curvature="0" />
	<path style="fill:none;stroke:red;stroke-width:1px;stroke-linecap:butt;stroke-linejoin:miter;stroke-opacity:1" d="M 614.587,233.175 599.855,224.99 z" id="boundary" inkscape:connector-curvature="0" />
	<path style="fill:none;stroke:red;stroke-width:1px;stroke-linecap:butt;stroke-linejoin:miter;stroke-opacity:1" d="M 629.32,241.36 614.587,233.175 z" id="boundary" inkscape:connector-curvature="0" />
	<path style="fill:none;stroke:red;stroke-width:1px;stroke-linecap:butt;stroke-linejoin:miter;stroke-opacity:1" d="M 644.053,249.545 629.32,241.36 z" id="boundary" inkscape:connector-curvature="0" />
	<path style="fill:none;stroke:red;stroke-width:1px;stroke-linecap:butt;stroke-linejoin:miter;stroke-opacity:1" d="M 797.927,123.498 789.743,148.053 z" id="boundary" inkscape:connector-curvature="0" />
	<path style="fill:none;stroke:red;stroke-width:1px;stroke-linecap:butt;stroke-linejoin:miter;stroke-opacity:1" d="M 827.393,77.6634 819.208,94.033 z" id="boundary" inkscape:connector-curvature="0" />
	<path style="fill:none;stroke:red;stroke-width:1px;stroke-linecap:butt;stroke-linejoin:miter;stroke-opacity:1" d="M 789.743,148.053 781.558,172.607 z" id="boundary" inkscape:connector-curvature="0" />
	<path style="fill:none;stroke:red;stroke-width:1px;stroke-linecap:butt;stroke-linejoin:miter;stroke-opacity:1" d="M 781.558,172.607 773.373,197.162 z" id="boundary" inkscape:connector-curvature="0" />
	<path style="fill:none;stroke:red;stroke-width:1px;stroke-linecap:butt;stroke-linejoin:miter;stroke-opacity:1" d="M 811.023,110.403 797.927,123.498 z" id="boundary" inkscape:connector-curvature="0" />
	<path style="fill:none;stroke:red;stroke-width:1px;stroke-linecap:butt;stroke-linejoin:miter;stroke-opacity:1" d="M 819.208,94.033 811.023,110.403 z" id="boundary" inkscape:connector-curvature="0" />
	<path style="fill:none;stroke:red;stroke-width:1px;stroke-linecap:butt;stroke-linejoin:miter;stroke-opacity:1" d="M 773.373,197.162 765.188,221.716 z" id="boundary" inkscape:connector-curvature="0" />
	<path style="fill:none;stroke:red;stroke-width:1px;stroke-linecap:butt;stroke-linejoin:miter;stroke-opacity:1" d="M 765.188,221.716 765.188,238.086 z" id="boundary" inkscape:connector-curvature="0" />
	<path style="fill:none;stroke:red;stroke-width:1px;stroke-linecap:butt;stroke-linejoin:miter;stroke-opacity:1" d="M 658.785,257.729 644.053,249.545 z" id="boundary" inkscape:connector-curvature="0" />
	<path style="fill:none;stroke:red;stroke-width:1px;stroke-linecap:butt;stroke-linejoin:miter;stroke-opacity:1" d="M 658.785,257.729 671.881,267.551 z" id="boundary" inkscape:connector-curvature="0" />
	<path style="fill:none;stroke:red;stroke-width:1px;stroke-linecap:butt;stroke-linejoin:miter;stroke-opacity:1" d="M 684.977,279.01 671.881,267.551 z" id="boundary" inkscape:connector-curvature="0" />
	<path style="fill:none;stroke:red;stroke-width:1px;stroke-linecap:butt;stroke-linejoin:miter;stroke-opacity:1" d="M 684.977,279.01 698.073,290.469 z" id="boundary" inkscape:connector-curvature="0" />
	<path style="fill:none;stroke:red;stroke-width:1px;stroke-linecap:butt;stroke-linejoin:miter;stroke-opacity:1" d="M 698.073,290.469 712.805,298.653 z" id="boundary" inkscape:connector-curvature="0" />
	<path style="fill:none;stroke:red;stroke-width:1px;stroke-linecap:butt;stroke-linejoin:miter;stroke-opacity:1" d="M 729.175,298.653 712.805,298.653 z" id="boundary" inkscape:connector-curvature="0" />
	<path style="fill:none;stroke:red;stroke-width:1px;stroke-linecap:butt;stroke-linejoin:miter;stroke-opacity:1" d="M 761.914,257.729 755.366,274.099 z" id="boundary" inkscape:connector-curvature="0" />
	<path style="fill:none;stroke:red;stroke-width:1px;stroke-linecap:butt;stroke-linejoin:miter;stroke-opacity:1" d="M 765.188,238.086 761.914,257.729 z" id="boundary" inkscape:connector-curvature="0" />
	<path style="fill:none;stroke:red;stroke-width:1px;stroke-linecap:butt;stroke-linejoin:miter;stroke-opacity:1" d="M 742.271,285.558 755.366,274.099 z" id="boundary" inkscape:connector-curvature="0" />
	<path style="fill:none;stroke:red;stroke-width:1px;stroke-linecap:butt;stroke-linejoin:miter;stroke-opacity:1" d="M 729.175,298.653 742.271,285.558 z" id="boundary" inkscape:connector-curvature="0" />
	<path style="fill:none;stroke:red;stroke-width:1px;stroke-linecap:butt;stroke-linejoin:miter;stroke-opacity:1" d="M 832.304,267.551 824.119,283.921 z" id="boundary" inkscape:connector-curvature="0" />
	<path style="fill:none;stroke:red;stroke-width:1px;stroke-linecap:butt;stroke-linejoin:miter;stroke-opacity:1" d="M 824.119,398.508 815.934,414.878 z" id="boundary" inkscape:connector-curvature="0" />
	<path style="fill:none;stroke:red;stroke-width:1px;stroke-linecap:butt;stroke-linejoin:miter;stroke-opacity:1" d="M 815.934,414.878 807.749,439.432 z" id="boundary" inkscape:connector-curvature="0" />
	<path style="fill:none;stroke:red;stroke-width:1px;stroke-linecap:butt;stroke-linejoin:miter;stroke-opacity:1" d="M 791.38,488.541 791.38,504.911 z" id="boundary" inkscape:connector-curvature="0" />
	<path style="fill:none;stroke:red;stroke-width:1px;stroke-linecap:butt;stroke-linejoin:miter;stroke-opacity:1" d="M 791.38,488.541 799.564,463.987 z" id="boundary" inkscape:connector-curvature="0" />
	<path style="fill:none;stroke:red;stroke-width:1px;stroke-linecap:butt;stroke-linejoin:miter;stroke-opacity:1" d="M 807.749,439.432 799.564,463.987 z" id="boundary" inkscape:connector-curvature="0" />
	<path style="fill:none;stroke:red;stroke-width:1px;stroke-linecap:butt;stroke-linejoin:miter;stroke-opacity:1" d="M 824.119,283.921 824.119,300.29 z" id="boundary" inkscape:connector-curvature="0" />
	<path style="fill:none;stroke:red;stroke-width:1px;stroke-linecap:butt;stroke-linejoin:miter;stroke-opacity:1" d="M 881.413,31.8284 865.043,40.0132 z" id="boundary" inkscape:connector-curvature="0" />
	<path style="fill:none;stroke:red;stroke-width:1px;stroke-linecap:butt;stroke-linejoin:miter;stroke-opacity:1" d="M 894.508,20.3696 881.413,31.8284 z" id="boundary" inkscape:connector-curvature="0" />
	<path style="fill:none;stroke:red;stroke-width:1px;stroke-linecap:butt;stroke-linejoin:miter;stroke-opacity:1" d="M 853.584,53.1089 865.043,40.0132 z" id="boundary" inkscape:connector-curvature="0" />
	<path style="fill:none;stroke:red;stroke-width:1px;stroke-linecap:butt;stroke-linejoin:miter;stroke-opacity:1" d="M 827.393,77.6634 840.488,64.5677 z" id="boundary" inkscape:connector-curvature="0" />
	<path style="fill:none;stroke:red;stroke-width:1px;stroke-linecap:butt;stroke-linejoin:miter;stroke-opacity:1" d="M 853.584,53.1089 840.488,64.5677 z" id="boundary" inkscape:connector-curvature="0" />
	<path style="fill:none;stroke:red;stroke-width:1px;stroke-linecap:butt;stroke-linejoin:miter;stroke-opacity:1" d="M 909.241,12.1848 894.508,20.3696 z" id="boundary" inkscape:connector-curvature="0" />
	<path style="fill:none;stroke:red;stroke-width:1px;stroke-linecap:butt;stroke-linejoin:miter;stroke-opacity:1" d="M 919.063,92.396 905.967,103.855 z" id="boundary" inkscape:connector-curvature="0" />
	<path style="fill:none;stroke:red;stroke-width:1px;stroke-linecap:butt;stroke-linejoin:miter;stroke-opacity:1" d="M 923.974,4 909.241,12.1848 z" id="boundary" inkscape:connector-curvature="0" />
	<path style="fill:none;stroke:red;stroke-width:1px;stroke-linecap:butt;stroke-linejoin:miter;stroke-opacity:1" d="M 894.508,116.95 881.413,128.409 z" id="boundary" inkscape:connector-curvature="0" />
	<path style="fill:none;stroke:red;stroke-width:1px;stroke-linecap:butt;stroke-linejoin:miter;stroke-opacity:1" d="M 905.967,103.855 894.508,116.95 z" id="boundary" inkscape:connector-curvature="0" />
	<path style="fill:none;stroke:red;stroke-width:1px;stroke-linecap:butt;stroke-linejoin:miter;stroke-opacity:1" d="M 881.413,128.409 873.228,144.779 z" id="boundary" inkscape:connector-curvature="0" />
	<path style="fill:none;stroke:red;stroke-width:1px;stroke-linecap:butt;stroke-linejoin:miter;stroke-opacity:1" d="M 923.974,4 940.343,4 z" id="boundary" inkscape:connector-curvature="0" />
	<path style="fill:none;stroke:red;stroke-width:1px;stroke-linecap:butt;stroke-linejoin:miter;stroke-opacity:1" d="M 956.713,4 940.343,4 z" id="boundary" inkscape:connector-curvature="0" />
	<path style="fill:none;stroke:red;stroke-width:1px;stroke-linecap:butt;stroke-linejoin:miter;stroke-opacity:1" d="M 973.083,4 989.452,4 z" id="boundary" inkscape:connector-curvature="0" />
	<path style="fill:none;stroke:red;stroke-width:1px;stroke-linecap:butt;stroke-linejoin:miter;stroke-opacity:1" d="M 989.452,4 996,20.3696 z" id="boundary" inkscape:connector-curvature="0" />
	<path style="fill:none;stroke:red;stroke-width:1px;stroke-linecap:butt;stroke-linejoin:miter;stroke-opacity:1" d="M 956.713,4 973.083,4 z" id="boundary" inkscape:connector-curvature="0" />
	<path style="fill:none;stroke:red;stroke-width:1px;stroke-linecap:butt;stroke-linejoin:miter;stroke-opacity:1" d="M 996,20.3696 987.815,38.3762 z" id="boundary" inkscape:connector-curvature="0" />
	<path style="fill:none;stroke:red;stroke-width:1px;stroke-linecap:butt;stroke-linejoin:miter;stroke-opacity:1" d="M 935.432,84.2112 919.063,92.396 z" id="boundary" inkscape:connector-curvature="0" />
	<path style="fill:none;stroke:red;stroke-width:1px;stroke-linecap:butt;stroke-linejoin:miter;stroke-opacity:1" d="M 977.993,54.7459 963.261,62.9307 z" id="boundary" inkscape:connector-curvature="0" />
	<path style="fill:none;stroke:red;stroke-width:1px;stroke-linecap:butt;stroke-linejoin:miter;stroke-opacity:1" d="M 977.993,54.7459 987.815,38.3762 z" id="boundary" inkscape:connector-curvature="0" />
	<path style="fill:none;stroke:red;stroke-width:1px;stroke-linecap:butt;stroke-linejoin:miter;stroke-opacity:1" d="M 935.432,84.2112 951.802,76.0264 z" id="boundary" inkscape:connector-curvature="0" />
	<path style="fill:none;stroke:red;stroke-width:1px;stroke-linecap:butt;stroke-linejoin:miter;stroke-opacity:1" d="M 951.802,76.0264 963.261,62.9307 z" id="boundary" inkscape:connector-curvature="0" />
	<path style="fill:none;stroke:red;stroke-width:1px;stroke-linecap:butt;stroke-linejoin:miter;stroke-opacity:1" d="M 856.858,177.518 848.673,193.888 z" id="boundary" inkscape:connector-curvature="0" />
	<path style="fill:none;stroke:red;stroke-width:1px;stroke-linecap:butt;stroke-linejoin:miter;stroke-opacity:1" d="M 848.673,193.888 848.673,210.257 z" id="boundary" inkscape:connector-curvature="0" />
	<path style="fill:none;stroke:red;stroke-width:1px;stroke-linecap:butt;stroke-linejoin:miter;stroke-opacity:1" d="M 840.488,242.997 840.488,226.627 z" id="boundary" inkscape:connector-curvature="0" />
	<path style="fill:none;stroke:red;stroke-width:1px;stroke-linecap:butt;stroke-linejoin:miter;stroke-opacity:1" d="M 848.673,210.257 840.488,226.627 z" id="boundary" inkscape:connector-curvature="0" />
	<path style="fill:none;stroke:red;stroke-width:1px;stroke-linecap:butt;stroke-linejoin:miter;stroke-opacity:1" d="M 840.488,242.997 832.304,267.551 z" id="boundary" inkscape:connector-curvature="0" />
	<path style="fill:none;stroke:red;stroke-width:1px;stroke-linecap:butt;stroke-linejoin:miter;stroke-opacity:1" d="M 865.043,161.149 873.228,144.779 z" id="boundary" inkscape:connector-curvature="0" />
	<path style="fill:none;stroke:red;stroke-width:1px;stroke-linecap:butt;stroke-linejoin:miter;stroke-opacity:1" d="M 856.858,177.518 865.043,161.149 z" id="boundary" inkscape:connector-curvature="0" />
	<path style="fill:none;stroke:red;stroke-width:1px;stroke-linecap:butt;stroke-linejoin:miter;stroke-opacity:1" d="M 824.119,300.29 824.119,316.66 z" id="boundary" inkscape:connector-curvature="0" />
	<path style="fill:none;stroke:red;stroke-width:1px;stroke-linecap:butt;stroke-linejoin:miter;stroke-opacity:1" d="M 824.119,333.03 824.119,316.66 z" id="boundary" inkscape:connector-curvature="0" />
	<path style="fill:none;stroke:red;stroke-width:1px;stroke-linecap:butt;stroke-linejoin:miter;stroke-opacity:1" d="M 824.119,349.399 824.119,365.769 z" id="boundary" inkscape:connector-curvature="0" />
	<path style="fill:none;stroke:red;stroke-width:1px;stroke-linecap:butt;stroke-linejoin:miter;stroke-opacity:1" d="M 824.119,382.139 824.119,365.769 z" id="boundary" inkscape:connector-curvature="0" />
	<path style="fill:none;stroke:red;stroke-width:1px;stroke-linecap:butt;stroke-linejoin:miter;stroke-opacity:1" d="M 824.119,349.399 824.119,333.03 z" id="boundary" inkscape:connector-curvature="0" />
	<path style="fill:none;stroke:red;stroke-width:1px;stroke-linecap:butt;stroke-linejoin:miter;stroke-opacity:1" d="M 824.119,398.508 824.119,382.139 z" id="boundary" inkscape:connector-curvature="0" />
	<path style="fill:none;stroke:red;stroke-width:1px;stroke-linecap:butt;stroke-linejoin:miter;stroke-opacity:1" d="M 791.38,521.281 791.38,504.911 z" id="boundary" inkscape:connector-curvature="0" />
	<path style="fill:none;stroke:red;stroke-width:1px;stroke-linecap:butt;stroke-linejoin:miter;stroke-opacity:1" d="M 555.657,634.231 544.198,621.135 z" id="boundary" inkscape:connector-curvature="0" />
	<path style="fill:none;stroke:red;stroke-width:1px;stroke-linecap:butt;stroke-linejoin:miter;stroke-opacity:1" d="M 544.198,621.135 536.013,606.403 z" id="boundary" inkscape:connector-curvature="0" />
	<path style="fill:none;stroke:red;stroke-width:1px;stroke-linecap:butt;stroke-linejoin:miter;stroke-opacity:1" d="M 555.657,634.231 563.842,648.964 z" id="boundary" inkscape:connector-curvature="0" />
	<path style="fill:none;stroke:red;stroke-width:1px;stroke-linecap:butt;stroke-linejoin:miter;stroke-opacity:1" d="M 563.842,648.964 578.574,657.149 z" id="boundary" inkscape:connector-curvature="0" />
	<path style="fill:none;stroke:red;stroke-width:1px;stroke-linecap:butt;stroke-linejoin:miter;stroke-opacity:1" d="M 536.013,606.403 529.465,590.033 z" id="boundary" inkscape:connector-curvature="0" />
	<path style="fill:none;stroke:red;stroke-width:1px;stroke-linecap:butt;stroke-linejoin:miter;stroke-opacity:1" d="M 586.759,671.881 578.574,657.149 z" id="boundary" inkscape:connector-curvature="0" />
	<path style="fill:none;stroke:red;stroke-width:1px;stroke-linecap:butt;stroke-linejoin:miter;stroke-opacity:1" d="M 598.218,684.977 586.759,671.881 z" id="boundary" inkscape:connector-curvature="0" />
	<path style="fill:none;stroke:red;stroke-width:1px;stroke-linecap:butt;stroke-linejoin:miter;stroke-opacity:1" d="M 598.218,684.977 593.307,704.62 z" id="boundary" inkscape:connector-curvature="0" />
	<path style="fill:none;stroke:red;stroke-width:1px;stroke-linecap:butt;stroke-linejoin:miter;stroke-opacity:1" d="M 593.307,704.62 601.492,719.353 z" id="boundary" inkscape:connector-curvature="0" />
	<path style="fill:none;stroke:red;stroke-width:1px;stroke-linecap:butt;stroke-linejoin:miter;stroke-opacity:1" d="M 594.944,735.723 601.492,719.353 z" id="boundary" inkscape:connector-curvature="0" />
	<path style="fill:none;stroke:red;stroke-width:1px;stroke-linecap:butt;stroke-linejoin:miter;stroke-opacity:1" d="M 594.944,735.723 586.759,752.092 z" id="boundary" inkscape:connector-curvature="0" />
	<path style="fill:none;stroke:red;stroke-width:1px;stroke-linecap:butt;stroke-linejoin:miter;stroke-opacity:1" d="M 717.716,680.066 701.347,676.792 z" id="boundary" inkscape:connector-curvature="0" />
	<path style="fill:none;stroke:red;stroke-width:1px;stroke-linecap:butt;stroke-linejoin:miter;stroke-opacity:1" d="M 693.162,709.531 681.703,730.812 z" id="boundary" inkscape:connector-curvature="0" />
	<path style="fill:none;stroke:red;stroke-width:1px;stroke-linecap:butt;stroke-linejoin:miter;stroke-opacity:1" d="M 701.347,693.162 693.162,709.531 z" id="boundary" inkscape:connector-curvature="0" />
	<path style="fill:none;stroke:red;stroke-width:1px;stroke-linecap:butt;stroke-linejoin:miter;stroke-opacity:1" d="M 701.347,693.162 701.347,676.792 z" id="boundary" inkscape:connector-curvature="0" />
	<path style="fill:none;stroke:red;stroke-width:1px;stroke-linecap:butt;stroke-linejoin:miter;stroke-opacity:1" d="M 732.449,688.251 717.716,680.066 z" id="boundary" inkscape:connector-curvature="0" />
	<path style="fill:none;stroke:red;stroke-width:1px;stroke-linecap:butt;stroke-linejoin:miter;stroke-opacity:1" d="M 681.703,730.812 668.607,742.271 z" id="boundary" inkscape:connector-curvature="0" />
	<path style="fill:none;stroke:red;stroke-width:1px;stroke-linecap:butt;stroke-linejoin:miter;stroke-opacity:1" d="M 732.449,688.251 748.818,693.162 z" id="boundary" inkscape:connector-curvature="0" />
	<path style="fill:none;stroke:red;stroke-width:1px;stroke-linecap:butt;stroke-linejoin:miter;stroke-opacity:1" d="M 573.663,765.188 560.568,778.284 z" id="boundary" inkscape:connector-curvature="0" />
	<path style="fill:none;stroke:red;stroke-width:1px;stroke-linecap:butt;stroke-linejoin:miter;stroke-opacity:1" d="M 586.759,752.092 573.663,765.188 z" id="boundary" inkscape:connector-curvature="0" />
	<path style="fill:none;stroke:red;stroke-width:1px;stroke-linecap:butt;stroke-linejoin:miter;stroke-opacity:1" d="M 560.568,778.284 544.198,781.558 z" id="boundary" inkscape:connector-curvature="0" />
	<path style="fill:none;stroke:red;stroke-width:1px;stroke-linecap:butt;stroke-linejoin:miter;stroke-opacity:1" d="M 527.828,786.469 544.198,781.558 z" id="boundary" inkscape:connector-curvature="0" />
	<path style="fill:none;stroke:red;stroke-width:1px;stroke-linecap:butt;stroke-linejoin:miter;stroke-opacity:1" d="M 599.855,820.845 586.759,832.304 z" id="boundary" inkscape:connector-curvature="0" />
	<path style="fill:none;stroke:red;stroke-width:1px;stroke-linecap:butt;stroke-linejoin:miter;stroke-opacity:1" d="M 542.561,848.673 558.931,848.673 z" id="boundary" inkscape:connector-curvature="0" />
	<path style="fill:none;stroke:red;stroke-width:1px;stroke-linecap:butt;stroke-linejoin:miter;stroke-opacity:1" d="M 575.3,845.399 558.931,848.673 z" id="boundary" inkscape:connector-curvature="0" />
	<path style="fill:none;stroke:red;stroke-width:1px;stroke-linecap:butt;stroke-linejoin:miter;stroke-opacity:1" d="M 586.759,832.304 575.3,845.399 z" id="boundary" inkscape:connector-curvature="0" />
	<path style="fill:none;stroke:red;stroke-width:1px;stroke-linecap:butt;stroke-linejoin:miter;stroke-opacity:1" d="M 644.053,766.825 632.594,779.921 z" id="boundary" inkscape:connector-curvature="0" />
	<path style="fill:none;stroke:red;stroke-width:1px;stroke-linecap:butt;stroke-linejoin:miter;stroke-opacity:1" d="M 632.594,779.921 619.498,791.38 z" id="boundary" inkscape:connector-curvature="0" />
	<path style="fill:none;stroke:red;stroke-width:1px;stroke-linecap:butt;stroke-linejoin:miter;stroke-opacity:1" d="M 668.607,742.271 657.149,755.366 z" id="boundary" inkscape:connector-curvature="0" />
	<path style="fill:none;stroke:red;stroke-width:1px;stroke-linecap:butt;stroke-linejoin:miter;stroke-opacity:1" d="M 644.053,766.825 657.149,755.366 z" id="boundary" inkscape:connector-curvature="0" />
	<path style="fill:none;stroke:red;stroke-width:1px;stroke-linecap:butt;stroke-linejoin:miter;stroke-opacity:1" d="M 611.314,807.749 619.498,791.38 z" id="boundary" inkscape:connector-curvature="0" />
	<path style="fill:none;stroke:red;stroke-width:1px;stroke-linecap:butt;stroke-linejoin:miter;stroke-opacity:1" d="M 611.314,807.749 599.855,820.845 z" id="boundary" inkscape:connector-curvature="0" />
	<path style="fill:none;stroke:red;stroke-width:1px;stroke-linecap:butt;stroke-linejoin:miter;stroke-opacity:1" d="M 791.38,537.65 791.38,554.02 z" id="boundary" inkscape:connector-curvature="0" />
	<path style="fill:none;stroke:red;stroke-width:1px;stroke-linecap:butt;stroke-linejoin:miter;stroke-opacity:1" d="M 794.653,570.389 791.38,554.02 z" id="boundary" inkscape:connector-curvature="0" />
	<path style="fill:none;stroke:red;stroke-width:1px;stroke-linecap:butt;stroke-linejoin:miter;stroke-opacity:1" d="M 794.653,570.389 802.838,585.122 z" id="boundary" inkscape:connector-curvature="0" />
	<path style="fill:none;stroke:red;stroke-width:1px;stroke-linecap:butt;stroke-linejoin:miter;stroke-opacity:1" d="M 791.38,521.281 791.38,537.65 z" id="boundary" inkscape:connector-curvature="0" />
	<path style="fill:none;stroke:red;stroke-width:1px;stroke-linecap:butt;stroke-linejoin:miter;stroke-opacity:1" d="M 807.749,601.492 802.838,585.122 z" id="boundary" inkscape:connector-curvature="0" />
	<path style="fill:none;stroke:red;stroke-width:1px;stroke-linecap:butt;stroke-linejoin:miter;stroke-opacity:1" d="M 807.749,601.492 824.119,606.403 z" id="boundary" inkscape:connector-curvature="0" />
	<path style="fill:none;stroke:red;stroke-width:1px;stroke-linecap:butt;stroke-linejoin:miter;stroke-opacity:1" d="M 835.578,619.498 824.119,606.403 z" id="boundary" inkscape:connector-curvature="0" />
	<path style="fill:none;stroke:red;stroke-width:1px;stroke-linecap:butt;stroke-linejoin:miter;stroke-opacity:1" d="M 763.551,701.347 748.818,693.162 z" id="boundary" inkscape:connector-curvature="0" />
	<path style="fill:none;stroke:red;stroke-width:1px;stroke-linecap:butt;stroke-linejoin:miter;stroke-opacity:1" d="M 763.551,701.347 779.921,701.347 z" id="boundary" inkscape:connector-curvature="0" />
	<path style="fill:none;stroke:red;stroke-width:1px;stroke-linecap:butt;stroke-linejoin:miter;stroke-opacity:1" d="M 794.653,709.531 779.921,701.347 z" id="boundary" inkscape:connector-curvature="0" />
	<path style="fill:none;stroke:red;stroke-width:1px;stroke-linecap:butt;stroke-linejoin:miter;stroke-opacity:1" d="M 822.482,729.175 811.023,716.079 z" id="boundary" inkscape:connector-curvature="0" />
	<path style="fill:none;stroke:red;stroke-width:1px;stroke-linecap:butt;stroke-linejoin:miter;stroke-opacity:1" d="M 811.023,716.079 794.653,709.531 z" id="boundary" inkscape:connector-curvature="0" />
	<path style="fill:none;stroke:red;stroke-width:1px;stroke-linecap:butt;stroke-linejoin:miter;stroke-opacity:1" d="M 843.762,634.231 835.578,619.498 z" id="boundary" inkscape:connector-curvature="0" />
	<path style="fill:none;stroke:red;stroke-width:1px;stroke-linecap:butt;stroke-linejoin:miter;stroke-opacity:1" d="M 855.221,647.327 843.762,634.231 z" id="boundary" inkscape:connector-curvature="0" />
	<path style="fill:none;stroke:red;stroke-width:1px;stroke-linecap:butt;stroke-linejoin:miter;stroke-opacity:1" d="M 865.043,660.422 855.221,647.327 z" id="boundary" inkscape:connector-curvature="0" />
	<path style="fill:none;stroke:red;stroke-width:1px;stroke-linecap:butt;stroke-linejoin:miter;stroke-opacity:1" d="M 873.228,675.155 865.043,660.422 z" id="boundary" inkscape:connector-curvature="0" />
	<path style="fill:none;stroke:red;stroke-width:1px;stroke-linecap:butt;stroke-linejoin:miter;stroke-opacity:1" d="M 873.228,691.525 873.228,675.155 z" id="boundary" inkscape:connector-curvature="0" />
	<path style="fill:none;stroke:red;stroke-width:1px;stroke-linecap:butt;stroke-linejoin:miter;stroke-opacity:1" d="M 873.228,707.894 873.228,691.525 z" id="boundary" inkscape:connector-curvature="0" />
	<path style="fill:none;stroke:red;stroke-width:1px;stroke-linecap:butt;stroke-linejoin:miter;stroke-opacity:1" d="M 873.228,707.894 873.228,724.264 z" id="boundary" inkscape:connector-curvature="0" />
	<path style="fill:none;stroke:red;stroke-width:1px;stroke-linecap:butt;stroke-linejoin:miter;stroke-opacity:1" d="M 873.228,724.264 873.228,740.634 z" id="boundary" inkscape:connector-curvature="0" />
	<path style="fill:none;stroke:red;stroke-width:1px;stroke-linecap:butt;stroke-linejoin:miter;stroke-opacity:1" d="M 786.469,781.558 773.373,794.653 z" id="boundary" inkscape:connector-curvature="0" />
	<path style="fill:none;stroke:red;stroke-width:1px;stroke-linecap:butt;stroke-linejoin:miter;stroke-opacity:1" d="M 773.373,794.653 773.373,811.023 z" id="boundary" inkscape:connector-curvature="0" />
	<path style="fill:none;stroke:red;stroke-width:1px;stroke-linecap:butt;stroke-linejoin:miter;stroke-opacity:1" d="M 817.571,765.188 802.838,773.373 z" id="boundary" inkscape:connector-curvature="0" />
	<path style="fill:none;stroke:red;stroke-width:1px;stroke-linecap:butt;stroke-linejoin:miter;stroke-opacity:1" d="M 822.482,745.545 817.571,765.188 z" id="boundary" inkscape:connector-curvature="0" />
	<path style="fill:none;stroke:red;stroke-width:1px;stroke-linecap:butt;stroke-linejoin:miter;stroke-opacity:1" d="M 786.469,781.558 802.838,773.373 z" id="boundary" inkscape:connector-curvature="0" />
	<path style="fill:none;stroke:red;stroke-width:1px;stroke-linecap:butt;stroke-linejoin:miter;stroke-opacity:1" d="M 799.564,824.119 783.195,824.119 z" id="boundary" inkscape:connector-curvature="0" />
	<path style="fill:none;stroke:red;stroke-width:1px;stroke-linecap:butt;stroke-linejoin:miter;stroke-opacity:1" d="M 783.195,824.119 773.373,811.023 z" id="boundary" inkscape:connector-curvature="0" />
	<path style="fill:none;stroke:red;stroke-width:1px;stroke-linecap:butt;stroke-linejoin:miter;stroke-opacity:1" d="M 799.564,824.119 815.934,824.119 z" id="boundary" inkscape:connector-curvature="0" />
	<path style="fill:none;stroke:red;stroke-width:1px;stroke-linecap:butt;stroke-linejoin:miter;stroke-opacity:1" d="M 832.304,824.119 848.673,824.119 z" id="boundary" inkscape:connector-curvature="0" />
	<path style="fill:none;stroke:red;stroke-width:1px;stroke-linecap:butt;stroke-linejoin:miter;stroke-opacity:1" d="M 815.934,824.119 832.304,824.119 z" id="boundary" inkscape:connector-curvature="0" />
	<path style="fill:none;stroke:red;stroke-width:1px;stroke-linecap:butt;stroke-linejoin:miter;stroke-opacity:1" d="M 822.482,729.175 822.482,745.545 z" id="boundary" inkscape:connector-curvature="0" />
	<path style="fill:none;stroke:red;stroke-width:1px;stroke-linecap:butt;stroke-linejoin:miter;stroke-opacity:1" d="M 873.228,757.003 873.228,740.634 z" id="boundary" inkscape:connector-curvature="0" />
	<path style="fill:none;stroke:red;stroke-width:1px;stroke-linecap:butt;stroke-linejoin:miter;stroke-opacity:1" d="M 873.228,773.373 873.228,757.003 z" id="boundary" inkscape:connector-curvature="0" />
	<path style="fill:none;stroke:red;stroke-width:1px;stroke-linecap:butt;stroke-linejoin:miter;stroke-opacity:1" d="M 873.228,773.373 865.043,791.38 z" id="boundary" inkscape:connector-curvature="0" />
	<path style="fill:none;stroke:red;stroke-width:1px;stroke-linecap:butt;stroke-linejoin:miter;stroke-opacity:1" d="M 865.043,791.38 861.769,812.66 z" id="boundary" inkscape:connector-curvature="0" />
	<path style="fill:none;stroke:red;stroke-width:1px;stroke-linecap:butt;stroke-linejoin:miter;stroke-opacity:1" d="M 861.769,812.66 848.673,824.119 z" id="boundary" inkscape:connector-curvature="0" />
	<circle cx="4" cy="360.858" r="4" fill="#0" id="circle0"/>
	<circle cx="4" cy="377.228" r="4" fill="#0" id="circle1"/>
	<circle cx="12.1848" cy="391.96" r="4" fill="#0" id="circle2"/>
	<circle cx="20.3696" cy="355.947" r="4" fill="#0" id="circle3"/>
	<circle cx="20.3696" cy="406.693" r="4" fill="#0" id="circle4"/>
	<circle cx="20.3696" cy="423.063" r="4" fill="#0" id="circle5"/>
	<circle cx="28.5545" cy="437.795" r="4" fill="#0" id="circle6"/>
	<circle cx="31.8284" cy="454.165" r="4" fill="#0" id="circle7"/>
	<circle cx="36.7393" cy="355.947" r="4" fill="#0" id="circle8"/>
	<circle cx="36.7393" cy="470.535" r="4" fill="#0" id="circle9"/>
	<circle cx="36.7393" cy="486.904" r="4" fill="#0" id="circle10"/>
	<circle cx="36.7393" cy="503.274" r="4" fill="#0" id="circle11"/>
	<circle cx="40.0132" cy="519.644" r="4" fill="#0" id="circle12"/>
	<circle cx="44.9241" cy="536.013" r="4" fill="#0" id="circle13"/>
	<circle cx="51.4719" cy="364.132" r="4" fill="#0" id="circle14"/>
	<circle cx="54.7459" cy="549.109" r="4" fill="#0" id="circle15"/>
	<circle cx="66.2046" cy="562.205" r="4" fill="#0" id="circle16"/>
	<circle cx="67.8416" cy="365.769" r="4" fill="#0" id="circle17"/>
	<circle cx="80.9373" cy="570.389" r="4" fill="#0" id="circle18"/>
	<circle cx="82.5743" cy="373.954" r="4" fill="#0" id="circle19"/>
	<circle cx="94.033" cy="811.023" r="4" fill="#0" id="circle20"/>
	<circle cx="94.033" cy="827.393" r="4" fill="#0" id="circle21"/>
	<circle cx="95.67" cy="578.574" r="4" fill="#0" id="circle22"/>
	<circle cx="98.9439" cy="380.502" r="4" fill="#0" id="circle23"/>
	<circle cx="107.129" cy="797.927" r="4" fill="#0" id="circle24"/>
	<circle cx="107.129" cy="838.851" r="4" fill="#0" id="circle25"/>
	<circle cx="110.403" cy="586.759" r="4" fill="#0" id="circle26"/>
	<circle cx="115.314" cy="380.502" r="4" fill="#0" id="circle27"/>
	<circle cx="120.224" cy="848.673" r="4" fill="#0" id="circle28"/>
	<circle cx="123.498" cy="797.927" r="4" fill="#0" id="circle29"/>
	<circle cx="125.135" cy="594.944" r="4" fill="#0" id="circle30"/>
	<circle cx="131.683" cy="372.317" r="4" fill="#0" id="circle31"/>
	<circle cx="136.594" cy="848.673" r="4" fill="#0" id="circle32"/>
	<circle cx="138.231" cy="789.743" r="4" fill="#0" id="circle33"/>
	<circle cx="139.868" cy="603.129" r="4" fill="#0" id="circle34"/>
	<circle cx="144.779" cy="359.221" r="4" fill="#0" id="circle35"/>
	<circle cx="151.327" cy="778.284" r="4" fill="#0" id="circle36"/>
	<circle cx="152.964" cy="614.587" r="4" fill="#0" id="circle37"/>
	<circle cx="152.964" cy="848.673" r="4" fill="#0" id="circle38"/>
	<circle cx="157.875" cy="347.762" r="4" fill="#0" id="circle39"/>
	<circle cx="159.512" cy="630.957" r="4" fill="#0" id="circle40"/>
	<circle cx="159.512" cy="761.914" r="4" fill="#0" id="circle41"/>
	<circle cx="166.059" cy="837.215" r="4" fill="#0" id="circle42"/>
	<circle cx="167.696" cy="645.69" r="4" fill="#0" id="circle43"/>
	<circle cx="167.696" cy="680.066" r="4" fill="#0" id="circle44"/>
	<circle cx="167.696" cy="696.436" r="4" fill="#0" id="circle45"/>
	<circle cx="167.696" cy="712.805" r="4" fill="#0" id="circle46"/>
	<circle cx="167.696" cy="745.545" r="4" fill="#0" id="circle47"/>
	<circle cx="174.244" cy="347.762" r="4" fill="#0" id="circle48"/>
	<circle cx="175.881" cy="660.422" r="4" fill="#0" id="circle49"/>
	<circle cx="175.881" cy="727.538" r="4" fill="#0" id="circle50"/>
	<circle cx="177.518" cy="824.119" r="4" fill="#0" id="circle51"/>
	<circle cx="185.703" cy="334.667" r="4" fill="#0" id="circle52"/>
	<circle cx="190.614" cy="812.66" r="4" fill="#0" id="circle53"/>
	<circle cx="198.799" cy="323.208" r="4" fill="#0" id="circle54"/>
	<circle cx="198.799" cy="796.29" r="4" fill="#0" id="circle55"/>
	<circle cx="205.347" cy="306.838" r="4" fill="#0" id="circle56"/>
	<circle cx="210.257" cy="783.195" r="4" fill="#0" id="circle57"/>
	<circle cx="218.442" cy="293.743" r="4" fill="#0" id="circle58"/>
	<circle cx="218.442" cy="758.64" r="4" fill="#0" id="circle59"/>
	<circle cx="231.538" cy="282.284" r="4" fill="#0" id="circle60"/>
	<circle cx="231.538" cy="747.182" r="4" fill="#0" id="circle61"/>
	<circle cx="239.723" cy="730.812" r="4" fill="#0" id="circle62"/>
	<circle cx="242.997" cy="269.188" r="4" fill="#0" id="circle63"/>
	<circle cx="242.997" cy="701.347" r="4" fill="#0" id="circle64"/>
	<circle cx="251.182" cy="684.977" r="4" fill="#0" id="circle65"/>
	<circle cx="256.092" cy="257.729" r="4" fill="#0" id="circle66"/>
	<circle cx="259.366" cy="668.607" r="4" fill="#0" id="circle67"/>
	<circle cx="265.914" cy="843.762" r="4" fill="#0" id="circle68"/>
	<circle cx="267.551" cy="244.634" r="4" fill="#0" id="circle69"/>
	<circle cx="267.551" cy="652.238" r="4" fill="#0" id="circle70"/>
	<circle cx="274.099" cy="858.495" r="4" fill="#0" id="circle71"/>
	<circle cx="279.01" cy="830.667" r="4" fill="#0" id="circle72"/>
	<circle cx="282.284" cy="644.053" r="4" fill="#0" id="circle73"/>
	<circle cx="283.921" cy="236.449" r="4" fill="#0" id="circle74"/>
	<circle cx="285.558" cy="871.591" r="4" fill="#0" id="circle75"/>
	<circle cx="292.106" cy="817.571" r="4" fill="#0" id="circle76"/>
	<circle cx="297.017" cy="652.238" r="4" fill="#0" id="circle77"/>
	<circle cx="298.653" cy="668.607" r="4" fill="#0" id="circle78"/>
	<circle cx="300.29" cy="228.264" r="4" fill="#0" id="circle79"/>
	<circle cx="301.927" cy="873.228" r="4" fill="#0" id="circle80"/>
	<circle cx="303.564" cy="684.977" r="4" fill="#0" id="circle81"/>
	<circle cx="305.201" cy="806.112" r="4" fill="#0" id="circle82"/>
	<circle cx="306.838" cy="701.347" r="4" fill="#0" id="circle83"/>
	<circle cx="306.838" cy="717.716" r="4" fill="#0" id="circle84"/>
	<circle cx="315.023" cy="732.449" r="4" fill="#0" id="circle85"/>
	<circle cx="315.023" cy="748.818" r="4" fill="#0" id="circle86"/>
	<circle cx="315.023" cy="765.188" r="4" fill="#0" id="circle87"/>
	<circle cx="315.023" cy="781.558" r="4" fill="#0" id="circle88"/>
	<circle cx="316.66" cy="220.079" r="4" fill="#0" id="circle89"/>
	<circle cx="318.297" cy="873.228" r="4" fill="#0" id="circle90"/>
	<circle cx="331.393" cy="860.132" r="4" fill="#0" id="circle91"/>
	<circle cx="333.03" cy="211.894" r="4" fill="#0" id="circle92"/>
	<circle cx="346.125" cy="200.436" r="4" fill="#0" id="circle93"/>
	<circle cx="347.762" cy="851.947" r="4" fill="#0" id="circle94"/>
	<circle cx="357.584" cy="832.304" r="4" fill="#0" id="circle95"/>
	<circle cx="362.495" cy="200.436" r="4" fill="#0" id="circle96"/>
	<circle cx="365.769" cy="783.195" r="4" fill="#0" id="circle97"/>
	<circle cx="365.769" cy="799.564" r="4" fill="#0" id="circle98"/>
	<circle cx="365.769" cy="815.934" r="4" fill="#0" id="circle99"/>
	<circle cx="373.954" cy="725.901" r="4" fill="#0" id="circle100"/>
	<circle cx="373.954" cy="742.271" r="4" fill="#0" id="circle101"/>
	<circle cx="373.954" cy="758.64" r="4" fill="#0" id="circle102"/>
	<circle cx="377.228" cy="192.251" r="4" fill="#0" id="circle103"/>
	<circle cx="382.139" cy="668.607" r="4" fill="#0" id="circle104"/>
	<circle cx="382.139" cy="684.977" r="4" fill="#0" id="circle105"/>
	<circle cx="382.139" cy="701.347" r="4" fill="#0" id="circle106"/>
	<circle cx="390.323" cy="644.053" r="4" fill="#0" id="circle107"/>
	<circle cx="393.597" cy="192.251" r="4" fill="#0" id="circle108"/>
	<circle cx="398.508" cy="619.498" r="4" fill="#0" id="circle109"/>
	<circle cx="406.693" cy="603.129" r="4" fill="#0" id="circle110"/>
	<circle cx="409.967" cy="192.251" r="4" fill="#0" id="circle111"/>
	<circle cx="419.789" cy="591.67" r="4" fill="#0" id="circle112"/>
	<circle cx="426.337" cy="192.251" r="4" fill="#0" id="circle113"/>
	<circle cx="436.158" cy="583.485" r="4" fill="#0" id="circle114"/>
	<circle cx="442.706" cy="192.251" r="4" fill="#0" id="circle115"/>
	<circle cx="452.528" cy="575.3" r="4" fill="#0" id="circle116"/>
	<circle cx="459.076" cy="192.251" r="4" fill="#0" id="circle117"/>
	<circle cx="468.898" cy="570.389" r="4" fill="#0" id="circle118"/>
	<circle cx="475.446" cy="192.251" r="4" fill="#0" id="circle119"/>
	<circle cx="485.267" cy="570.389" r="4" fill="#0" id="circle120"/>
	<circle cx="491.815" cy="192.251" r="4" fill="#0" id="circle121"/>
	<circle cx="501.637" cy="570.389" r="4" fill="#0" id="circle122"/>
	<circle cx="503.274" cy="819.208" r="4" fill="#0" id="circle123"/>
	<circle cx="508.185" cy="192.251" r="4" fill="#0" id="circle124"/>
	<circle cx="511.459" cy="794.653" r="4" fill="#0" id="circle125"/>
	<circle cx="511.459" cy="833.941" r="4" fill="#0" id="circle126"/>
	<circle cx="516.37" cy="578.574" r="4" fill="#0" id="circle127"/>
	<circle cx="524.554" cy="192.251" r="4" fill="#0" id="circle128"/>
	<circle cx="527.828" cy="786.469" r="4" fill="#0" id="circle129"/>
	<circle cx="527.828" cy="840.488" r="4" fill="#0" id="circle130"/>
	<circle cx="529.465" cy="590.033" r="4" fill="#0" id="circle131"/>
	<circle cx="536.013" cy="606.403" r="4" fill="#0" id="circle132"/>
	<circle cx="539.287" cy="200.436" r="4" fill="#0" id="circle133"/>
	<circle cx="542.561" cy="848.673" r="4" fill="#0" id="circle134"/>
	<circle cx="544.198" cy="621.135" r="4" fill="#0" id="circle135"/>
	<circle cx="544.198" cy="781.558" r="4" fill="#0" id="circle136"/>
	<circle cx="555.657" cy="200.436" r="4" fill="#0" id="circle137"/>
	<circle cx="555.657" cy="634.231" r="4" fill="#0" id="circle138"/>
	<circle cx="558.931" cy="848.673" r="4" fill="#0" id="circle139"/>
	<circle cx="560.568" cy="778.284" r="4" fill="#0" id="circle140"/>
	<circle cx="563.842" cy="648.964" r="4" fill="#0" id="circle141"/>
	<circle cx="570.389" cy="208.62" r="4" fill="#0" id="circle142"/>
	<circle cx="573.663" cy="765.188" r="4" fill="#0" id="circle143"/>
	<circle cx="575.3" cy="845.399" r="4" fill="#0" id="circle144"/>
	<circle cx="578.574" cy="657.149" r="4" fill="#0" id="circle145"/>
	<circle cx="585.122" cy="216.805" r="4" fill="#0" id="circle146"/>
	<circle cx="586.759" cy="671.881" r="4" fill="#0" id="circle147"/>
	<circle cx="586.759" cy="752.092" r="4" fill="#0" id="circle148"/>
	<circle cx="586.759" cy="832.304" r="4" fill="#0" id="circle149"/>
	<circle cx="593.307" cy="704.62" r="4" fill="#0" id="circle150"/>
	<circle cx="594.944" cy="735.723" r="4" fill="#0" id="circle151"/>
	<circle cx="598.218" cy="684.977" r="4" fill="#0" id="circle152"/>
	<circle cx="599.855" cy="224.99" r="4" fill="#0" id="circle153"/>
	<circle cx="599.855" cy="820.845" r="4" fill="#0" id="circle154"/>
	<circle cx="601.492" cy="719.353" r="4" fill="#0" id="circle155"/>
	<circle cx="611.314" cy="807.749" r="4" fill="#0" id="circle156"/>
	<circle cx="614.587" cy="233.175" r="4" fill="#0" id="circle157"/>
	<circle cx="619.498" cy="791.38" r="4" fill="#0" id="circle158"/>
	<circle cx="629.32" cy="241.36" r="4" fill="#0" id="circle159"/>
	<circle cx="632.594" cy="779.921" r="4" fill="#0" id="circle160"/>
	<circle cx="644.053" cy="249.545" r="4" fill="#0" id="circle161"/>
	<circle cx="644.053" cy="766.825" r="4" fill="#0" id="circle162"/>
	<circle cx="657.149" cy="755.366" r="4" fill="#0" id="circle163"/>
	<circle cx="658.785" cy="257.729" r="4" fill="#0" id="circle164"/>
	<circle cx="668.607" cy="742.271" r="4" fill="#0" id="circle165"/>
	<circle cx="671.881" cy="267.551" r="4" fill="#0" id="circle166"/>
	<circle cx="681.703" cy="730.812" r="4" fill="#0" id="circle167"/>
	<circle cx="684.977" cy="279.01" r="4" fill="#0" id="circle168"/>
	<circle cx="693.162" cy="709.531" r="4" fill="#0" id="circle169"/>
	<circle cx="698.073" cy="290.469" r="4" fill="#0" id="circle170"/>
	<circle cx="701.347" cy="676.792" r="4" fill="#0" id="circle171"/>
	<circle cx="701.347" cy="693.162" r="4" fill="#0" id="circle172"/>
	<circle cx="712.805" cy="298.653" r="4" fill="#0" id="circle173"/>
	<circle cx="717.716" cy="680.066" r="4" fill="#0" id="circle174"/>
	<circle cx="729.175" cy="298.653" r="4" fill="#0" id="circle175"/>
	<circle cx="732.449" cy="688.251" r="4" fill="#0" id="circle176"/>
	<circle cx="742.271" cy="285.558" r="4" fill="#0" id="circle177"/>
	<circle cx="748.818" cy="693.162" r="4" fill="#0" id="circle178"/>
	<circle cx="755.366" cy="274.099" r="4" fill="#0" id="circle179"/>
	<circle cx="761.914" cy="257.729" r="4" fill="#0" id="circle180"/>
	<circle cx="763.551" cy="701.347" r="4" fill="#0" id="circle181"/>
	<circle cx="765.188" cy="221.716" r="4" fill="#0" id="circle182"/>
	<circle cx="765.188" cy="238.086" r="4" fill="#0" id="circle183"/>
	<circle cx="773.373" cy="197.162" r="4" fill="#0" id="circle184"/>
	<circle cx="773.373" cy="794.653" r="4" fill="#0" id="circle185"/>
	<circle cx="773.373" cy="811.023" r="4" fill="#0" id="circle186"/>
	<circle cx="779.921" cy="701.347" r="4" fill="#0" id="circle187"/>
	<circle cx="781.558" cy="172.607" r="4" fill="#0" id="circle188"/>
	<circle cx="783.195" cy="824.119" r="4" fill="#0" id="circle189"/>
	<circle cx="786.469" cy="781.558" r="4" fill="#0" id="circle190"/>
	<circle cx="789.743" cy="148.053" r="4" fill="#0" id="circle191"/>
	<circle cx="791.38" cy="488.541" r="4" fill="#0" id="circle192"/>
	<circle cx="791.38" cy="504.911" r="4" fill="#0" id="circle193"/>
	<circle cx="791.38" cy="521.281" r="4" fill="#0" id="circle194"/>
	<circle cx="791.38" cy="537.65" r="4" fill="#0" id="circle195"/>
	<circle cx="791.38" cy="554.02" r="4" fill="#0" id="circle196"/>
	<circle cx="794.653" cy="570.389" r="4" fill="#0" id="circle197"/>
	<circle cx="794.653" cy="709.531" r="4" fill="#0" id="circle198"/>
	<circle cx="797.927" cy="123.498" r="4" fill="#0" id="circle199"/>
	<circle cx="799.564" cy="463.987" r="4" fill="#0" id="circle200"/>
	<circle cx="799.564" cy="824.119" r="4" fill="#0" id="circle201"/>
	<circle cx="802.838" cy="585.122" r="4" fill="#0" id="circle202"/>
	<circle cx="802.838" cy="773.373" r="4" fill="#0" id="circle203"/>
	<circle cx="807.749" cy="439.432" r="4" fill="#0" id="circle204"/>
	<circle cx="807.749" cy="601.492" r="4" fill="#0" id="circle205"/>
	<circle cx="811.023" cy="110.403" r="4" fill="#0" id="circle206"/>
	<circle cx="811.023" cy="716.079" r="4" fill="#0" id="circle207"/>
	<circle cx="815.934" cy="414.878" r="4" fill="#0" id="circle208"/>
	<circle cx="815.934" cy="824.119" r="4" fill="#0" id="circle209"/>
	<circle cx="817.571" cy="765.188" r="4" fill="#0" id="circle210"/>
	<circle cx="819.208" cy="94.033" r="4" fill="#0" id="circle211"/>
	<circle cx="822.482" cy="729.175" r="4" fill="#0" id="circle212"/>
	<circle cx="822.482" cy="745.545" r="4" fill="#0" id="circle213"/>
	<circle cx="824.119" cy="283.921" r="4" fill="#0" id="circle214"/>
	<circle cx="824.119" cy="300.29" r="4" fill="#0" id="circle215"/>
	<circle cx="824.119" cy="316.66" r="4" fill="#0" id="circle216"/>
	<circle cx="824.119" cy="333.03" r="4" fill="#0" id="circle217"/>
	<circle cx="824.119" cy="349.399" r="4" fill="#0" id="circle218"/>
	<circle cx="824.119" cy="365.769" r="4" fill="#0" id="circle219"/>
	<circle cx="824.119" cy="382.139" r="4" fill="#0" id="circle220"/>
	<circle cx="824.119" cy="398.508" r="4" fill="#0" id="circle221"/>
	<circle cx="824.119" cy="606.403" r="4" fill="#0" id="circle222"/>
	<circle cx="827.393" cy="77.6634" r="4" fill="#0" id="circle223"/>
	<circle cx="832.304" cy="267.551" r="4" fill="#0" id="circle224"/>
	<circle cx="832.304" cy="824.119" r="4" fill="#0" id="circle225"/>
	<circle cx="835.578" cy="619.498" r="4" fill="#0" id="circle226"/>
	<circle cx="840.488" cy="64.5677" r="4" fill="#0" id="circle227"/>
	<circle cx="840.488" cy="226.627" r="4" fill="#0" id="circle228"/>
	<circle cx="840.488" cy="242.997" r="4" fill="#0" id="circle229"/>
	<circle cx="843.762" cy="634.231" r="4" fill="#0" id="circle230"/>
	<circle cx="848.673" cy="193.888" r="4" fill="#0" id="circle231"/>
	<circle cx="848.673" cy="210.257" r="4" fill="#0" id="circle232"/>
	<circle cx="848.673" cy="824.119" r="4" fill="#0" id="circle233"/>
	<circle cx="853.584" cy="53.1089" r="4" fill="#0" id="circle234"/>
	<circle cx="855.221" cy="647.327" r="4" fill="#0" id="circle235"/>
	<circle cx="856.858" cy="177.518" r="4" fill="#0" id="circle236"/>
	<circle cx="861.769" cy="812.66" r="4" fill="#0" id="circle237"/>
	<circle cx="865.043" cy="40.0132" r="4" fill="#0" id="circle238"/>
	<circle cx="865.043" cy="161.149" r="4" fill="#0" id="circle239"/>
	<circle cx="865.043" cy="660.422" r="4" fill="#0" id="circle240"/>
	<circle cx="865.043" cy="791.38" r="4" fill="#0" id="circle241"/>
	<circle cx="873.228" cy="144.779" r="4" fill="#0" id="circle242"/>
	<circle cx="873.228" cy="675.155" r="4" fill="#0" id="circle243"/>
	<circle cx="873.228" cy="691.525" r="4" fill="#0" id="circle244"/>
	<circle cx="873.228" cy="707.894" r="4" fill="#0" id="circle245"/>
	<circle cx="873.228" cy="724.264" r="4" fill="#0" id="circle246"/>
	<circle cx="873.228" cy="740.634" r="4" fill="#0" id="circle247"/>
	<circle cx="873.228" cy="757.003" r="4" fill="#0" id="circle248"/>
	<circle cx="873.228" cy="773.373" r="4" fill="#0" id="circle249"/>
	<circle cx="881.413" cy="31.8284" r="4" fill="#0" id="circle250"/>
	<circle cx="881.413" cy="128.409" r="4" fill="#0" id="circle251"/>
	<circle cx="894.508" cy="20.3696" r="4" fill="#0" id="circle252"/>
	<circle cx="894.508" cy="116.95" r="4" fill="#0" id="circle253"/>
	<circle cx="905.967" cy="103.855" r="4" fill="#0" id="circle254"/>
	<circle cx="909.241" cy="12.1848" r="4" fill="#0" id="circle255"/>
	<circle cx="919.063" cy="92.396" r="4" fill="#0" id="circle256"/>
	<circle cx="923.974" cy="4" r="4" fill="#0" id="circle257"/>
	<circle cx="935.432" cy="84.2112" r="4" fill="#0" id="circle258"/>
	<circle cx="940.343" cy="4" r="4" fill="#0" id="circle259"/>
	<circle cx="951.802" cy="76.0264" r="4" fill="#0" id="circle260"/>
	<circle cx="956.713" cy="4" r="4" fill="#0" id="circle261"/>
	<circle cx="963.261" cy="62.9307" r="4" fill="#0" id="circle262"/>
	<circle cx="973.083" cy="4" r="4" fill="#0" id="circle263"/>
	<circle cx="977.993" cy="54.7459" r="4" fill="#0" id="circle264"/>
	<circle cx="987.815" cy="38.3762" r="4" fill="#0" id="circle265"/>
	<circle cx="989.452" cy="4" r="4" fill="#0" id="circle266"/>
	<circle cx="996" cy="20.3696" r="4" fill="#0" id="circle267"/>
	</g>
</svg>