<?xml version="1.0" encoding="UTF-8" standalone="no"?>
<!-- Created with CurveBenchmark -->
<svg
	xmlns:dc="http://purl.org/dc/elements/1.1/"
	xmlns:cc="http://creativecommons.org/ns#"
	xmlns:rdf="http://www.w3.org/1999/02/22-rdf-syntax-ns#"
	xmlns:svg="http://www.w3.org/2000/svg"
	xmlns="http://www.w3.org/2000/svg"
	xmlns:sodipodi="http://sodipodi.sourceforge.net/DTD/sodipodi-0.dtd"
	xmlns:inkscape="http://www.inkscape.org/namespaces/inkscape"
	width="1000"
	height="1000"
	id="svg2"
	version="1.1"
	sodipodi:docname="manifold/crust-fountain-04.png.txt">
<defs
	id="defs4" />
<metadata
	id="metadata7">
	<rdf:RDF>
		<cc:Work
			rdf:about="">
			<dc:format>image/svg+xml</dc:format>
			<dc:type
				rdf:resource="http://purl.org/dc/dcmitype/StillImage" />
			<dc:title></dc:title>
		</cc:Work>
	</rdf:RDF>
</metadata>
<g
	inkscape:label="Layer 1"
	inkscape:groupmode="layer"
	id="layer1">
	<path style="fill:none;stroke:red;stroke-width:1px;stroke-linecap:butt;stroke-linejoin:miter;stroke-opacity:1" d="M 378.712,149.94 378.712,159.801 z" id="boundary" inkscape:connector-curvature="0" />
	<path style="fill:none;stroke:red;stroke-width:1px;stroke-linecap:butt;stroke-linejoin:miter;stroke-opacity:1" d="M 386.6,142.052 378.712,149.94 z" id="boundary" inkscape:connector-curvature="0" />
	<path style="fill:none;stroke:red;stroke-width:1px;stroke-linecap:butt;stroke-linejoin:miter;stroke-opacity:1" d="M 406.322,132.191 396.461,137.121 z" id="boundary" inkscape:connector-curvature="0" />
	<path style="fill:none;stroke:red;stroke-width:1px;stroke-linecap:butt;stroke-linejoin:miter;stroke-opacity:1" d="M 396.461,137.121 386.6,142.052 z" id="boundary" inkscape:connector-curvature="0" />
	<path style="fill:none;stroke:red;stroke-width:1px;stroke-linecap:butt;stroke-linejoin:miter;stroke-opacity:1" d="M 416.183,132.191 426.044,132.191 z" id="boundary" inkscape:connector-curvature="0" />
	<path style="fill:none;stroke:red;stroke-width:1px;stroke-linecap:butt;stroke-linejoin:miter;stroke-opacity:1" d="M 406.322,132.191 416.183,132.191 z" id="boundary" inkscape:connector-curvature="0" />
	<path style="fill:none;stroke:red;stroke-width:1px;stroke-linecap:butt;stroke-linejoin:miter;stroke-opacity:1" d="M 383.642,168.676 378.712,159.801 z" id="boundary" inkscape:connector-curvature="0" />
	<path style="fill:none;stroke:red;stroke-width:1px;stroke-linecap:butt;stroke-linejoin:miter;stroke-opacity:1" d="M 390.545,176.565 383.642,168.676 z" id="boundary" inkscape:connector-curvature="0" />
	<path style="fill:none;stroke:red;stroke-width:1px;stroke-linecap:butt;stroke-linejoin:miter;stroke-opacity:1" d="M 390.545,176.565 398.433,182.481 z" id="boundary" inkscape:connector-curvature="0" />
	<path style="fill:none;stroke:red;stroke-width:1px;stroke-linecap:butt;stroke-linejoin:miter;stroke-opacity:1" d="M 408.294,182.481 398.433,182.481 z" id="boundary" inkscape:connector-curvature="0" />
	<path style="fill:none;stroke:red;stroke-width:1px;stroke-linecap:butt;stroke-linejoin:miter;stroke-opacity:1" d="M 408.294,182.481 417.169,187.412 z" id="boundary" inkscape:connector-curvature="0" />
	<path style="fill:none;stroke:red;stroke-width:1px;stroke-linecap:butt;stroke-linejoin:miter;stroke-opacity:1" d="M 417.169,187.412 426.044,192.342 z" id="boundary" inkscape:connector-curvature="0" />
	<path style="fill:none;stroke:red;stroke-width:1px;stroke-linecap:butt;stroke-linejoin:miter;stroke-opacity:1" d="M 314.616,352.087 304.755,354.06 z" id="boundary" inkscape:connector-curvature="0" />
	<path style="fill:none;stroke:red;stroke-width:1px;stroke-linecap:butt;stroke-linejoin:miter;stroke-opacity:1" d="M 304.755,354.06 295.881,358.99 z" id="boundary" inkscape:connector-curvature="0" />
	<path style="fill:none;stroke:red;stroke-width:1px;stroke-linecap:butt;stroke-linejoin:miter;stroke-opacity:1" d="M 267.284,369.837 277.145,364.907 z" id="boundary" inkscape:connector-curvature="0" />
	<path style="fill:none;stroke:red;stroke-width:1px;stroke-linecap:butt;stroke-linejoin:miter;stroke-opacity:1" d="M 287.006,363.92 277.145,364.907 z" id="boundary" inkscape:connector-curvature="0" />
	<path style="fill:none;stroke:red;stroke-width:1px;stroke-linecap:butt;stroke-linejoin:miter;stroke-opacity:1" d="M 295.881,358.99 287.006,363.92 z" id="boundary" inkscape:connector-curvature="0" />
	<path style="fill:none;stroke:red;stroke-width:1px;stroke-linecap:butt;stroke-linejoin:miter;stroke-opacity:1" d="M 267.284,369.837 257.423,374.767 z" id="boundary" inkscape:connector-curvature="0" />
	<path style="fill:none;stroke:red;stroke-width:1px;stroke-linecap:butt;stroke-linejoin:miter;stroke-opacity:1" d="M 209.105,393.503 199.245,398.433 z" id="boundary" inkscape:connector-curvature="0" />
	<path style="fill:none;stroke:red;stroke-width:1px;stroke-linecap:butt;stroke-linejoin:miter;stroke-opacity:1" d="M 191.356,406.322 199.245,398.433 z" id="boundary" inkscape:connector-curvature="0" />
	<path style="fill:none;stroke:red;stroke-width:1px;stroke-linecap:butt;stroke-linejoin:miter;stroke-opacity:1" d="M 191.356,406.322 184.453,418.155 z" id="boundary" inkscape:connector-curvature="0" />
	<path style="fill:none;stroke:red;stroke-width:1px;stroke-linecap:butt;stroke-linejoin:miter;stroke-opacity:1" d="M 247.563,378.712 238.688,383.642 z" id="boundary" inkscape:connector-curvature="0" />
	<path style="fill:none;stroke:red;stroke-width:1px;stroke-linecap:butt;stroke-linejoin:miter;stroke-opacity:1" d="M 228.827,383.642 218.966,388.573 z" id="boundary" inkscape:connector-curvature="0" />
	<path style="fill:none;stroke:red;stroke-width:1px;stroke-linecap:butt;stroke-linejoin:miter;stroke-opacity:1" d="M 247.563,378.712 257.423,374.767 z" id="boundary" inkscape:connector-curvature="0" />
	<path style="fill:none;stroke:red;stroke-width:1px;stroke-linecap:butt;stroke-linejoin:miter;stroke-opacity:1" d="M 238.688,383.642 228.827,383.642 z" id="boundary" inkscape:connector-curvature="0" />
	<path style="fill:none;stroke:red;stroke-width:1px;stroke-linecap:butt;stroke-linejoin:miter;stroke-opacity:1" d="M 209.105,393.503 218.966,388.573 z" id="boundary" inkscape:connector-curvature="0" />
	<path style="fill:none;stroke:red;stroke-width:1px;stroke-linecap:butt;stroke-linejoin:miter;stroke-opacity:1" d="M 334.338,347.157 344.199,344.199 z" id="boundary" inkscape:connector-curvature="0" />
	<path style="fill:none;stroke:red;stroke-width:1px;stroke-linecap:butt;stroke-linejoin:miter;stroke-opacity:1" d="M 334.338,347.157 324.477,349.129 z" id="boundary" inkscape:connector-curvature="0" />
	<path style="fill:none;stroke:red;stroke-width:1px;stroke-linecap:butt;stroke-linejoin:miter;stroke-opacity:1" d="M 354.06,344.199 344.199,344.199 z" id="boundary" inkscape:connector-curvature="0" />
	<path style="fill:none;stroke:red;stroke-width:1px;stroke-linecap:butt;stroke-linejoin:miter;stroke-opacity:1" d="M 314.616,352.087 324.477,349.129 z" id="boundary" inkscape:connector-curvature="0" />
	<path style="fill:none;stroke:red;stroke-width:1px;stroke-linecap:butt;stroke-linejoin:miter;stroke-opacity:1" d="M 373.781,339.268 383.642,339.268 z" id="boundary" inkscape:connector-curvature="0" />
	<path style="fill:none;stroke:red;stroke-width:1px;stroke-linecap:butt;stroke-linejoin:miter;stroke-opacity:1" d="M 393.503,339.268 383.642,339.268 z" id="boundary" inkscape:connector-curvature="0" />
	<path style="fill:none;stroke:red;stroke-width:1px;stroke-linecap:butt;stroke-linejoin:miter;stroke-opacity:1" d="M 354.06,344.199 363.92,342.227 z" id="boundary" inkscape:connector-curvature="0" />
	<path style="fill:none;stroke:red;stroke-width:1px;stroke-linecap:butt;stroke-linejoin:miter;stroke-opacity:1" d="M 363.92,342.227 373.781,339.268 z" id="boundary" inkscape:connector-curvature="0" />
	<path style="fill:none;stroke:red;stroke-width:1px;stroke-linecap:butt;stroke-linejoin:miter;stroke-opacity:1" d="M 403.364,339.268 413.225,339.268 z" id="boundary" inkscape:connector-curvature="0" />
	<path style="fill:none;stroke:red;stroke-width:1px;stroke-linecap:butt;stroke-linejoin:miter;stroke-opacity:1" d="M 393.503,339.268 403.364,339.268 z" id="boundary" inkscape:connector-curvature="0" />
	<path style="fill:none;stroke:red;stroke-width:1px;stroke-linecap:butt;stroke-linejoin:miter;stroke-opacity:1" d="M 413.225,339.268 423.085,339.268 z" id="boundary" inkscape:connector-curvature="0" />
	<path style="fill:none;stroke:red;stroke-width:1px;stroke-linecap:butt;stroke-linejoin:miter;stroke-opacity:1" d="M 467.459,25.6938 467.459,35.5547 z" id="boundary" inkscape:connector-curvature="0" />
	<path style="fill:none;stroke:red;stroke-width:1px;stroke-linecap:butt;stroke-linejoin:miter;stroke-opacity:1" d="M 467.459,25.6938 462.529,16.8191 z" id="boundary" inkscape:connector-curvature="0" />
	<path style="fill:none;stroke:red;stroke-width:1px;stroke-linecap:butt;stroke-linejoin:miter;stroke-opacity:1" d="M 467.459,35.5547 467.459,45.4155 z" id="boundary" inkscape:connector-curvature="0" />
	<path style="fill:none;stroke:red;stroke-width:1px;stroke-linecap:butt;stroke-linejoin:miter;stroke-opacity:1" d="M 462.529,71.0537 462.529,80.9145 z" id="boundary" inkscape:connector-curvature="0" />
	<path style="fill:none;stroke:red;stroke-width:1px;stroke-linecap:butt;stroke-linejoin:miter;stroke-opacity:1" d="M 462.529,90.7753 470.417,97.6779 z" id="boundary" inkscape:connector-curvature="0" />
	<path style="fill:none;stroke:red;stroke-width:1px;stroke-linecap:butt;stroke-linejoin:miter;stroke-opacity:1" d="M 462.529,90.7753 462.529,80.9145 z" id="boundary" inkscape:connector-curvature="0" />
	<path style="fill:none;stroke:red;stroke-width:1px;stroke-linecap:butt;stroke-linejoin:miter;stroke-opacity:1" d="M 467.459,55.2763 462.529,71.0537 z" id="boundary" inkscape:connector-curvature="0" />
	<path style="fill:none;stroke:red;stroke-width:1px;stroke-linecap:butt;stroke-linejoin:miter;stroke-opacity:1" d="M 435.905,132.191 426.044,132.191 z" id="boundary" inkscape:connector-curvature="0" />
	<path style="fill:none;stroke:red;stroke-width:1px;stroke-linecap:butt;stroke-linejoin:miter;stroke-opacity:1" d="M 435.905,132.191 445.765,132.191 z" id="boundary" inkscape:connector-curvature="0" />
	<path style="fill:none;stroke:red;stroke-width:1px;stroke-linecap:butt;stroke-linejoin:miter;stroke-opacity:1" d="M 445.765,132.191 455.626,132.191 z" id="boundary" inkscape:connector-curvature="0" />
	<path style="fill:none;stroke:red;stroke-width:1px;stroke-linecap:butt;stroke-linejoin:miter;stroke-opacity:1" d="M 463.515,124.302 455.626,132.191 z" id="boundary" inkscape:connector-curvature="0" />
	<path style="fill:none;stroke:red;stroke-width:1px;stroke-linecap:butt;stroke-linejoin:miter;stroke-opacity:1" d="M 468.445,114.441 463.515,124.302 z" id="boundary" inkscape:connector-curvature="0" />
	<path style="fill:none;stroke:red;stroke-width:1px;stroke-linecap:butt;stroke-linejoin:miter;stroke-opacity:1" d="M 467.459,45.4155 467.459,55.2763 z" id="boundary" inkscape:connector-curvature="0" />
	<path style="fill:none;stroke:red;stroke-width:1px;stroke-linecap:butt;stroke-linejoin:miter;stroke-opacity:1" d="M 470.417,8.93042 479.292,4 z" id="boundary" inkscape:connector-curvature="0" />
	<path style="fill:none;stroke:red;stroke-width:1px;stroke-linecap:butt;stroke-linejoin:miter;stroke-opacity:1" d="M 489.153,4 479.292,4 z" id="boundary" inkscape:connector-curvature="0" />
	<path style="fill:none;stroke:red;stroke-width:1px;stroke-linecap:butt;stroke-linejoin:miter;stroke-opacity:1" d="M 489.153,4 499.014,4 z" id="boundary" inkscape:connector-curvature="0" />
	<path style="fill:none;stroke:red;stroke-width:1px;stroke-linecap:butt;stroke-linejoin:miter;stroke-opacity:1" d="M 462.529,16.8191 470.417,8.93042 z" id="boundary" inkscape:connector-curvature="0" />
	<path style="fill:none;stroke:red;stroke-width:1px;stroke-linecap:butt;stroke-linejoin:miter;stroke-opacity:1" d="M 468.445,114.441 470.417,97.6779 z" id="boundary" inkscape:connector-curvature="0" />
	<path style="fill:none;stroke:red;stroke-width:1px;stroke-linecap:butt;stroke-linejoin:miter;stroke-opacity:1" d="M 435.905,196.286 426.044,192.342 z" id="boundary" inkscape:connector-curvature="0" />
	<path style="fill:none;stroke:red;stroke-width:1px;stroke-linecap:butt;stroke-linejoin:miter;stroke-opacity:1" d="M 435.905,196.286 445.765,197.272 z" id="boundary" inkscape:connector-curvature="0" />
	<path style="fill:none;stroke:red;stroke-width:1px;stroke-linecap:butt;stroke-linejoin:miter;stroke-opacity:1" d="M 454.64,202.203 445.765,197.272 z" id="boundary" inkscape:connector-curvature="0" />
	<path style="fill:none;stroke:red;stroke-width:1px;stroke-linecap:butt;stroke-linejoin:miter;stroke-opacity:1" d="M 452.668,248.549 447.738,258.41 z" id="boundary" inkscape:connector-curvature="0" />
	<path style="fill:none;stroke:red;stroke-width:1px;stroke-linecap:butt;stroke-linejoin:miter;stroke-opacity:1" d="M 457.598,233.757 452.668,248.549 z" id="boundary" inkscape:connector-curvature="0" />
	<path style="fill:none;stroke:red;stroke-width:1px;stroke-linecap:butt;stroke-linejoin:miter;stroke-opacity:1" d="M 462.529,217.98 457.598,233.757 z" id="boundary" inkscape:connector-curvature="0" />
	<path style="fill:none;stroke:red;stroke-width:1px;stroke-linecap:butt;stroke-linejoin:miter;stroke-opacity:1" d="M 447.738,268.27 447.738,258.41 z" id="boundary" inkscape:connector-curvature="0" />
	<path style="fill:none;stroke:red;stroke-width:1px;stroke-linecap:butt;stroke-linejoin:miter;stroke-opacity:1" d="M 454.64,202.203 462.529,208.119 z" id="boundary" inkscape:connector-curvature="0" />
	<path style="fill:none;stroke:red;stroke-width:1px;stroke-linecap:butt;stroke-linejoin:miter;stroke-opacity:1" d="M 447.738,317.575 442.807,327.435 z" id="boundary" inkscape:connector-curvature="0" />
	<path style="fill:none;stroke:red;stroke-width:1px;stroke-linecap:butt;stroke-linejoin:miter;stroke-opacity:1" d="M 432.946,339.268 423.085,339.268 z" id="boundary" inkscape:connector-curvature="0" />
	<path style="fill:none;stroke:red;stroke-width:1px;stroke-linecap:butt;stroke-linejoin:miter;stroke-opacity:1" d="M 442.807,337.296 432.946,339.268 z" id="boundary" inkscape:connector-curvature="0" />
	<path style="fill:none;stroke:red;stroke-width:1px;stroke-linecap:butt;stroke-linejoin:miter;stroke-opacity:1" d="M 442.807,327.435 442.807,337.296 z" id="boundary" inkscape:connector-curvature="0" />
	<path style="fill:none;stroke:red;stroke-width:1px;stroke-linecap:butt;stroke-linejoin:miter;stroke-opacity:1" d="M 447.738,287.992 447.738,297.853 z" id="boundary" inkscape:connector-curvature="0" />
	<path style="fill:none;stroke:red;stroke-width:1px;stroke-linecap:butt;stroke-linejoin:miter;stroke-opacity:1" d="M 447.738,278.131 447.738,268.27 z" id="boundary" inkscape:connector-curvature="0" />
	<path style="fill:none;stroke:red;stroke-width:1px;stroke-linecap:butt;stroke-linejoin:miter;stroke-opacity:1" d="M 447.738,287.992 447.738,278.131 z" id="boundary" inkscape:connector-curvature="0" />
	<path style="fill:none;stroke:red;stroke-width:1px;stroke-linecap:butt;stroke-linejoin:miter;stroke-opacity:1" d="M 447.738,307.714 447.738,317.575 z" id="boundary" inkscape:connector-curvature="0" />
	<path style="fill:none;stroke:red;stroke-width:1px;stroke-linecap:butt;stroke-linejoin:miter;stroke-opacity:1" d="M 447.738,297.853 447.738,307.714 z" id="boundary" inkscape:connector-curvature="0" />
	<path style="fill:none;stroke:red;stroke-width:1px;stroke-linecap:butt;stroke-linejoin:miter;stroke-opacity:1" d="M 462.529,208.119 462.529,217.98 z" id="boundary" inkscape:connector-curvature="0" />
	<path style="fill:none;stroke:red;stroke-width:1px;stroke-linecap:butt;stroke-linejoin:miter;stroke-opacity:1" d="M 21.7495,531.555 26.6799,521.694 z" id="boundary" inkscape:connector-curvature="0" />
	<path style="fill:none;stroke:red;stroke-width:1px;stroke-linecap:butt;stroke-linejoin:miter;stroke-opacity:1" d="M 36.5408,516.763 26.6799,521.694 z" id="boundary" inkscape:connector-curvature="0" />
	<path style="fill:none;stroke:red;stroke-width:1px;stroke-linecap:butt;stroke-linejoin:miter;stroke-opacity:1" d="M 45.4155,511.833 36.5408,516.763 z" id="boundary" inkscape:connector-curvature="0" />
	<path style="fill:none;stroke:red;stroke-width:1px;stroke-linecap:butt;stroke-linejoin:miter;stroke-opacity:1" d="M 21.7495,531.555 13.8608,539.443 z" id="boundary" inkscape:connector-curvature="0" />
	<path style="fill:none;stroke:red;stroke-width:1px;stroke-linecap:butt;stroke-linejoin:miter;stroke-opacity:1" d="M 80.9145,487.181 73.0258,495.07 z" id="boundary" inkscape:connector-curvature="0" />
	<path style="fill:none;stroke:red;stroke-width:1px;stroke-linecap:butt;stroke-linejoin:miter;stroke-opacity:1" d="M 90.7753,482.25 80.9145,487.181 z" id="boundary" inkscape:connector-curvature="0" />
	<path style="fill:none;stroke:red;stroke-width:1px;stroke-linecap:butt;stroke-linejoin:miter;stroke-opacity:1" d="M 63.165,500 73.0258,495.07 z" id="boundary" inkscape:connector-curvature="0" />
	<path style="fill:none;stroke:red;stroke-width:1px;stroke-linecap:butt;stroke-linejoin:miter;stroke-opacity:1" d="M 45.4155,511.833 53.3042,504.93 z" id="boundary" inkscape:connector-curvature="0" />
	<path style="fill:none;stroke:red;stroke-width:1px;stroke-linecap:butt;stroke-linejoin:miter;stroke-opacity:1" d="M 63.165,500 53.3042,504.93 z" id="boundary" inkscape:connector-curvature="0" />
	<path style="fill:none;stroke:red;stroke-width:1px;stroke-linecap:butt;stroke-linejoin:miter;stroke-opacity:1" d="M 4,559.165 8.93042,549.304 z" id="boundary" inkscape:connector-curvature="0" />
	<path style="fill:none;stroke:red;stroke-width:1px;stroke-linecap:butt;stroke-linejoin:miter;stroke-opacity:1" d="M 13.8608,539.443 8.93042,549.304 z" id="boundary" inkscape:connector-curvature="0" />
	<path style="fill:none;stroke:red;stroke-width:1px;stroke-linecap:butt;stroke-linejoin:miter;stroke-opacity:1" d="M 4,559.165 4,569.026 z" id="boundary" inkscape:connector-curvature="0" />
	<path style="fill:none;stroke:red;stroke-width:1px;stroke-linecap:butt;stroke-linejoin:miter;stroke-opacity:1" d="M 4,578.887 4,569.026 z" id="boundary" inkscape:connector-curvature="0" />
	<path style="fill:none;stroke:red;stroke-width:1px;stroke-linecap:butt;stroke-linejoin:miter;stroke-opacity:1" d="M 4,588.748 4,578.887 z" id="boundary" inkscape:connector-curvature="0" />
	<path style="fill:none;stroke:red;stroke-width:1px;stroke-linecap:butt;stroke-linejoin:miter;stroke-opacity:1" d="M 130.219,462.529 120.358,467.459 z" id="boundary" inkscape:connector-curvature="0" />
	<path style="fill:none;stroke:red;stroke-width:1px;stroke-linecap:butt;stroke-linejoin:miter;stroke-opacity:1" d="M 140.08,457.598 130.219,462.529 z" id="boundary" inkscape:connector-curvature="0" />
	<path style="fill:none;stroke:red;stroke-width:1px;stroke-linecap:butt;stroke-linejoin:miter;stroke-opacity:1" d="M 90.7753,482.25 100.636,477.32 z" id="boundary" inkscape:connector-curvature="0" />
	<path style="fill:none;stroke:red;stroke-width:1px;stroke-linecap:butt;stroke-linejoin:miter;stroke-opacity:1" d="M 110.497,472.39 120.358,467.459 z" id="boundary" inkscape:connector-curvature="0" />
	<path style="fill:none;stroke:red;stroke-width:1px;stroke-linecap:butt;stroke-linejoin:miter;stroke-opacity:1" d="M 100.636,477.32 110.497,472.39 z" id="boundary" inkscape:connector-curvature="0" />
	<path style="fill:none;stroke:red;stroke-width:1px;stroke-linecap:butt;stroke-linejoin:miter;stroke-opacity:1" d="M 149.94,452.668 140.08,457.598 z" id="boundary" inkscape:connector-curvature="0" />
	<path style="fill:none;stroke:red;stroke-width:1px;stroke-linecap:butt;stroke-linejoin:miter;stroke-opacity:1" d="M 179.523,428.016 175.579,437.877 z" id="boundary" inkscape:connector-curvature="0" />
	<path style="fill:none;stroke:red;stroke-width:1px;stroke-linecap:butt;stroke-linejoin:miter;stroke-opacity:1" d="M 175.579,437.877 167.69,444.779 z" id="boundary" inkscape:connector-curvature="0" />
	<path style="fill:none;stroke:red;stroke-width:1px;stroke-linecap:butt;stroke-linejoin:miter;stroke-opacity:1" d="M 149.94,452.668 159.801,452.668 z" id="boundary" inkscape:connector-curvature="0" />
	<path style="fill:none;stroke:red;stroke-width:1px;stroke-linecap:butt;stroke-linejoin:miter;stroke-opacity:1" d="M 159.801,452.668 167.69,444.779 z" id="boundary" inkscape:connector-curvature="0" />
	<path style="fill:none;stroke:red;stroke-width:1px;stroke-linecap:butt;stroke-linejoin:miter;stroke-opacity:1" d="M 8.93042,617.344 4,608.469 z" id="boundary" inkscape:connector-curvature="0" />
	<path style="fill:none;stroke:red;stroke-width:1px;stroke-linecap:butt;stroke-linejoin:miter;stroke-opacity:1" d="M 8.93042,627.205 8.93042,617.344 z" id="boundary" inkscape:connector-curvature="0" />
	<path style="fill:none;stroke:red;stroke-width:1px;stroke-linecap:butt;stroke-linejoin:miter;stroke-opacity:1" d="M 4,598.608 4,608.469 z" id="boundary" inkscape:connector-curvature="0" />
	<path style="fill:none;stroke:red;stroke-width:1px;stroke-linecap:butt;stroke-linejoin:miter;stroke-opacity:1" d="M 8.93042,627.205 13.8608,636.08 z" id="boundary" inkscape:connector-curvature="0" />
	<path style="fill:none;stroke:red;stroke-width:1px;stroke-linecap:butt;stroke-linejoin:miter;stroke-opacity:1" d="M 19.7773,643.968 13.8608,636.08 z" id="boundary" inkscape:connector-curvature="0" />
	<path style="fill:none;stroke:red;stroke-width:1px;stroke-linecap:butt;stroke-linejoin:miter;stroke-opacity:1" d="M 4,588.748 4,598.608 z" id="boundary" inkscape:connector-curvature="0" />
	<path style="fill:none;stroke:red;stroke-width:1px;stroke-linecap:butt;stroke-linejoin:miter;stroke-opacity:1" d="M 19.7773,643.968 24.7078,652.843 z" id="boundary" inkscape:connector-curvature="0" />
	<path style="fill:none;stroke:red;stroke-width:1px;stroke-linecap:butt;stroke-linejoin:miter;stroke-opacity:1" d="M 28.6521,662.704 24.7078,652.843 z" id="boundary" inkscape:connector-curvature="0" />
	<path style="fill:none;stroke:red;stroke-width:1px;stroke-linecap:butt;stroke-linejoin:miter;stroke-opacity:1" d="M 43.4433,677.495 36.5408,669.606 z" id="boundary" inkscape:connector-curvature="0" />
	<path style="fill:none;stroke:red;stroke-width:1px;stroke-linecap:butt;stroke-linejoin:miter;stroke-opacity:1" d="M 36.5408,669.606 28.6521,662.704 z" id="boundary" inkscape:connector-curvature="0" />
	<path style="fill:none;stroke:red;stroke-width:1px;stroke-linecap:butt;stroke-linejoin:miter;stroke-opacity:1" d="M 43.4433,677.495 48.3738,686.37 z" id="boundary" inkscape:connector-curvature="0" />
	<path style="fill:none;stroke:red;stroke-width:1px;stroke-linecap:butt;stroke-linejoin:miter;stroke-opacity:1" d="M 55.2763,694.258 48.3738,686.37 z" id="boundary" inkscape:connector-curvature="0" />
	<path style="fill:none;stroke:red;stroke-width:1px;stroke-linecap:butt;stroke-linejoin:miter;stroke-opacity:1" d="M 55.2763,694.258 63.165,700.175 z" id="boundary" inkscape:connector-curvature="0" />
	<path style="fill:none;stroke:red;stroke-width:1px;stroke-linecap:butt;stroke-linejoin:miter;stroke-opacity:1" d="M 72.0398,705.105 80.9145,710.036 z" id="boundary" inkscape:connector-curvature="0" />
	<path style="fill:none;stroke:red;stroke-width:1px;stroke-linecap:butt;stroke-linejoin:miter;stroke-opacity:1" d="M 63.165,700.175 72.0398,705.105 z" id="boundary" inkscape:connector-curvature="0" />
	<path style="fill:none;stroke:red;stroke-width:1px;stroke-linecap:butt;stroke-linejoin:miter;stroke-opacity:1" d="M 90.7753,713.98 99.6501,718.911 z" id="boundary" inkscape:connector-curvature="0" />
	<path style="fill:none;stroke:red;stroke-width:1px;stroke-linecap:butt;stroke-linejoin:miter;stroke-opacity:1" d="M 109.511,719.897 99.6501,718.911 z" id="boundary" inkscape:connector-curvature="0" />
	<path style="fill:none;stroke:red;stroke-width:1px;stroke-linecap:butt;stroke-linejoin:miter;stroke-opacity:1" d="M 119.372,722.855 109.511,719.897 z" id="boundary" inkscape:connector-curvature="0" />
	<path style="fill:none;stroke:red;stroke-width:1px;stroke-linecap:butt;stroke-linejoin:miter;stroke-opacity:1" d="M 90.7753,713.98 80.9145,710.036 z" id="boundary" inkscape:connector-curvature="0" />
	<path style="fill:none;stroke:red;stroke-width:1px;stroke-linecap:butt;stroke-linejoin:miter;stroke-opacity:1" d="M 129.233,724.827 119.372,722.855 z" id="boundary" inkscape:connector-curvature="0" />
	<path style="fill:none;stroke:red;stroke-width:1px;stroke-linecap:butt;stroke-linejoin:miter;stroke-opacity:1" d="M 129.233,724.827 139.093,727.785 z" id="boundary" inkscape:connector-curvature="0" />
	<path style="fill:none;stroke:red;stroke-width:1px;stroke-linecap:butt;stroke-linejoin:miter;stroke-opacity:1" d="M 147.968,732.716 139.093,727.785 z" id="boundary" inkscape:connector-curvature="0" />
	<path style="fill:none;stroke:red;stroke-width:1px;stroke-linecap:butt;stroke-linejoin:miter;stroke-opacity:1" d="M 157.829,734.688 147.968,732.716 z" id="boundary" inkscape:connector-curvature="0" />
	<path style="fill:none;stroke:red;stroke-width:1px;stroke-linecap:butt;stroke-linejoin:miter;stroke-opacity:1" d="M 166.704,739.618 175.579,744.549 z" id="boundary" inkscape:connector-curvature="0" />
	<path style="fill:none;stroke:red;stroke-width:1px;stroke-linecap:butt;stroke-linejoin:miter;stroke-opacity:1" d="M 157.829,734.688 166.704,739.618 z" id="boundary" inkscape:connector-curvature="0" />
	<path style="fill:none;stroke:red;stroke-width:1px;stroke-linecap:butt;stroke-linejoin:miter;stroke-opacity:1" d="M 179.523,428.016 184.453,418.155 z" id="boundary" inkscape:connector-curvature="0" />
	<path style="fill:none;stroke:red;stroke-width:1px;stroke-linecap:butt;stroke-linejoin:miter;stroke-opacity:1" d="M 185.439,744.549 194.314,749.479 z" id="boundary" inkscape:connector-curvature="0" />
	<path style="fill:none;stroke:red;stroke-width:1px;stroke-linecap:butt;stroke-linejoin:miter;stroke-opacity:1" d="M 204.175,753.423 214.036,754.41 z" id="boundary" inkscape:connector-curvature="0" />
	<path style="fill:none;stroke:red;stroke-width:1px;stroke-linecap:butt;stroke-linejoin:miter;stroke-opacity:1" d="M 204.175,753.423 194.314,749.479 z" id="boundary" inkscape:connector-curvature="0" />
	<path style="fill:none;stroke:red;stroke-width:1px;stroke-linecap:butt;stroke-linejoin:miter;stroke-opacity:1" d="M 223.897,754.41 214.036,754.41 z" id="boundary" inkscape:connector-curvature="0" />
	<path style="fill:none;stroke:red;stroke-width:1px;stroke-linecap:butt;stroke-linejoin:miter;stroke-opacity:1" d="M 175.579,744.549 185.439,744.549 z" id="boundary" inkscape:connector-curvature="0" />
	<path style="fill:none;stroke:red;stroke-width:1px;stroke-linecap:butt;stroke-linejoin:miter;stroke-opacity:1" d="M 232.771,759.34 223.897,754.41 z" id="boundary" inkscape:connector-curvature="0" />
	<path style="fill:none;stroke:red;stroke-width:1px;stroke-linecap:butt;stroke-linejoin:miter;stroke-opacity:1" d="M 242.632,759.34 232.771,759.34 z" id="boundary" inkscape:connector-curvature="0" />
	<path style="fill:none;stroke:red;stroke-width:1px;stroke-linecap:butt;stroke-linejoin:miter;stroke-opacity:1" d="M 251.507,764.27 242.632,759.34 z" id="boundary" inkscape:connector-curvature="0" />
	<path style="fill:none;stroke:red;stroke-width:1px;stroke-linecap:butt;stroke-linejoin:miter;stroke-opacity:1" d="M 251.507,764.27 261.368,766.243 z" id="boundary" inkscape:connector-curvature="0" />
	<path style="fill:none;stroke:red;stroke-width:1px;stroke-linecap:butt;stroke-linejoin:miter;stroke-opacity:1" d="M 271.229,769.201 261.368,766.243 z" id="boundary" inkscape:connector-curvature="0" />
	<path style="fill:none;stroke:red;stroke-width:1px;stroke-linecap:butt;stroke-linejoin:miter;stroke-opacity:1" d="M 271.229,769.201 281.089,769.201 z" id="boundary" inkscape:connector-curvature="0" />
	<path style="fill:none;stroke:red;stroke-width:1px;stroke-linecap:butt;stroke-linejoin:miter;stroke-opacity:1" d="M 281.089,769.201 290.95,771.173 z" id="boundary" inkscape:connector-curvature="0" />
	<path style="fill:none;stroke:red;stroke-width:1px;stroke-linecap:butt;stroke-linejoin:miter;stroke-opacity:1" d="M 290.95,771.173 300.811,774.131 z" id="boundary" inkscape:connector-curvature="0" />
	<path style="fill:none;stroke:red;stroke-width:1px;stroke-linecap:butt;stroke-linejoin:miter;stroke-opacity:1" d="M 310.672,774.131 300.811,774.131 z" id="boundary" inkscape:connector-curvature="0" />
	<path style="fill:none;stroke:red;stroke-width:1px;stroke-linecap:butt;stroke-linejoin:miter;stroke-opacity:1" d="M 320.533,776.103 310.672,774.131 z" id="boundary" inkscape:connector-curvature="0" />
	<path style="fill:none;stroke:red;stroke-width:1px;stroke-linecap:butt;stroke-linejoin:miter;stroke-opacity:1" d="M 330.394,779.062 320.533,776.103 z" id="boundary" inkscape:connector-curvature="0" />
	<path style="fill:none;stroke:red;stroke-width:1px;stroke-linecap:butt;stroke-linejoin:miter;stroke-opacity:1" d="M 330.394,779.062 340.254,781.034 z" id="boundary" inkscape:connector-curvature="0" />
	<path style="fill:none;stroke:red;stroke-width:1px;stroke-linecap:butt;stroke-linejoin:miter;stroke-opacity:1" d="M 350.115,783.992 340.254,781.034 z" id="boundary" inkscape:connector-curvature="0" />
	<path style="fill:none;stroke:red;stroke-width:1px;stroke-linecap:butt;stroke-linejoin:miter;stroke-opacity:1" d="M 399.419,783.992 389.559,783.992 z" id="boundary" inkscape:connector-curvature="0" />
	<path style="fill:none;stroke:red;stroke-width:1px;stroke-linecap:butt;stroke-linejoin:miter;stroke-opacity:1" d="M 359.976,783.992 369.837,783.992 z" id="boundary" inkscape:connector-curvature="0" />
	<path style="fill:none;stroke:red;stroke-width:1px;stroke-linecap:butt;stroke-linejoin:miter;stroke-opacity:1" d="M 379.698,783.992 389.559,783.992 z" id="boundary" inkscape:connector-curvature="0" />
	<path style="fill:none;stroke:red;stroke-width:1px;stroke-linecap:butt;stroke-linejoin:miter;stroke-opacity:1" d="M 379.698,783.992 369.837,783.992 z" id="boundary" inkscape:connector-curvature="0" />
	<path style="fill:none;stroke:red;stroke-width:1px;stroke-linecap:butt;stroke-linejoin:miter;stroke-opacity:1" d="M 359.976,783.992 350.115,783.992 z" id="boundary" inkscape:connector-curvature="0" />
	<path style="fill:none;stroke:red;stroke-width:1px;stroke-linecap:butt;stroke-linejoin:miter;stroke-opacity:1" d="M 399.419,783.992 409.28,783.992 z" id="boundary" inkscape:connector-curvature="0" />
	<path style="fill:none;stroke:red;stroke-width:1px;stroke-linecap:butt;stroke-linejoin:miter;stroke-opacity:1" d="M 419.141,783.992 409.28,783.992 z" id="boundary" inkscape:connector-curvature="0" />
	<path style="fill:none;stroke:red;stroke-width:1px;stroke-linecap:butt;stroke-linejoin:miter;stroke-opacity:1" d="M 429.002,783.992 438.863,783.992 z" id="boundary" inkscape:connector-curvature="0" />
	<path style="fill:none;stroke:red;stroke-width:1px;stroke-linecap:butt;stroke-linejoin:miter;stroke-opacity:1" d="M 419.141,783.992 429.002,783.992 z" id="boundary" inkscape:connector-curvature="0" />
	<path style="fill:none;stroke:red;stroke-width:1px;stroke-linecap:butt;stroke-linejoin:miter;stroke-opacity:1" d="M 438.863,783.992 448.724,783.992 z" id="boundary" inkscape:connector-curvature="0" />
	<path style="fill:none;stroke:red;stroke-width:1px;stroke-linecap:butt;stroke-linejoin:miter;stroke-opacity:1" d="M 458.584,783.992 448.724,783.992 z" id="boundary" inkscape:connector-curvature="0" />
	<path style="fill:none;stroke:red;stroke-width:1px;stroke-linecap:butt;stroke-linejoin:miter;stroke-opacity:1" d="M 458.584,783.992 468.445,783.992 z" id="boundary" inkscape:connector-curvature="0" />
	<path style="fill:none;stroke:red;stroke-width:1px;stroke-linecap:butt;stroke-linejoin:miter;stroke-opacity:1" d="M 478.306,783.992 468.445,783.992 z" id="boundary" inkscape:connector-curvature="0" />
	<path style="fill:none;stroke:red;stroke-width:1px;stroke-linecap:butt;stroke-linejoin:miter;stroke-opacity:1" d="M 478.306,783.992 488.167,783.992 z" id="boundary" inkscape:connector-curvature="0" />
	<path style="fill:none;stroke:red;stroke-width:1px;stroke-linecap:butt;stroke-linejoin:miter;stroke-opacity:1" d="M 498.028,783.992 488.167,783.992 z" id="boundary" inkscape:connector-curvature="0" />
	<path style="fill:none;stroke:red;stroke-width:1px;stroke-linecap:butt;stroke-linejoin:miter;stroke-opacity:1" d="M 508.875,4 518.736,4 z" id="boundary" inkscape:connector-curvature="0" />
	<path style="fill:none;stroke:red;stroke-width:1px;stroke-linecap:butt;stroke-linejoin:miter;stroke-opacity:1" d="M 518.736,4 526.624,10.9026 z" id="boundary" inkscape:connector-curvature="0" />
	<path style="fill:none;stroke:red;stroke-width:1px;stroke-linecap:butt;stroke-linejoin:miter;stroke-opacity:1" d="M 499.014,4 508.875,4 z" id="boundary" inkscape:connector-curvature="0" />
	<path style="fill:none;stroke:red;stroke-width:1px;stroke-linecap:butt;stroke-linejoin:miter;stroke-opacity:1" d="M 527.61,24.7078 522.68,39.499 z" id="boundary" inkscape:connector-curvature="0" />
	<path style="fill:none;stroke:red;stroke-width:1px;stroke-linecap:butt;stroke-linejoin:miter;stroke-opacity:1" d="M 526.624,10.9026 527.61,24.7078 z" id="boundary" inkscape:connector-curvature="0" />
	<path style="fill:none;stroke:red;stroke-width:1px;stroke-linecap:butt;stroke-linejoin:miter;stroke-opacity:1" d="M 522.68,49.3598 522.68,39.499 z" id="boundary" inkscape:connector-curvature="0" />
	<path style="fill:none;stroke:red;stroke-width:1px;stroke-linecap:butt;stroke-linejoin:miter;stroke-opacity:1" d="M 522.68,49.3598 522.68,59.2207 z" id="boundary" inkscape:connector-curvature="0" />
	<path style="fill:none;stroke:red;stroke-width:1px;stroke-linecap:butt;stroke-linejoin:miter;stroke-opacity:1" d="M 522.68,69.0815 522.68,59.2207 z" id="boundary" inkscape:connector-curvature="0" />
	<path style="fill:none;stroke:red;stroke-width:1px;stroke-linecap:butt;stroke-linejoin:miter;stroke-opacity:1" d="M 522.68,69.0815 522.68,78.9423 z" id="boundary" inkscape:connector-curvature="0" />
	<path style="fill:none;stroke:red;stroke-width:1px;stroke-linecap:butt;stroke-linejoin:miter;stroke-opacity:1" d="M 522.68,78.9423 522.68,88.8032 z" id="boundary" inkscape:connector-curvature="0" />
	<path style="fill:none;stroke:red;stroke-width:1px;stroke-linecap:butt;stroke-linejoin:miter;stroke-opacity:1" d="M 522.68,88.8032 522.68,98.664 z" id="boundary" inkscape:connector-curvature="0" />
	<path style="fill:none;stroke:red;stroke-width:1px;stroke-linecap:butt;stroke-linejoin:miter;stroke-opacity:1" d="M 522.68,108.525 522.68,98.664 z" id="boundary" inkscape:connector-curvature="0" />
	<path style="fill:none;stroke:red;stroke-width:1px;stroke-linecap:butt;stroke-linejoin:miter;stroke-opacity:1" d="M 527.61,117.4 537.471,117.4 z" id="boundary" inkscape:connector-curvature="0" />
	<path style="fill:none;stroke:red;stroke-width:1px;stroke-linecap:butt;stroke-linejoin:miter;stroke-opacity:1" d="M 527.61,117.4 522.68,108.525 z" id="boundary" inkscape:connector-curvature="0" />
	<path style="fill:none;stroke:red;stroke-width:1px;stroke-linecap:butt;stroke-linejoin:miter;stroke-opacity:1" d="M 557.193,117.4 547.332,117.4 z" id="boundary" inkscape:connector-curvature="0" />
	<path style="fill:none;stroke:red;stroke-width:1px;stroke-linecap:butt;stroke-linejoin:miter;stroke-opacity:1" d="M 547.332,117.4 537.471,117.4 z" id="boundary" inkscape:connector-curvature="0" />
	<path style="fill:none;stroke:red;stroke-width:1px;stroke-linecap:butt;stroke-linejoin:miter;stroke-opacity:1" d="M 567.054,117.4 557.193,117.4 z" id="boundary" inkscape:connector-curvature="0" />
	<path style="fill:none;stroke:red;stroke-width:1px;stroke-linecap:butt;stroke-linejoin:miter;stroke-opacity:1" d="M 576.915,117.4 567.054,117.4 z" id="boundary" inkscape:connector-curvature="0" />
	<path style="fill:none;stroke:red;stroke-width:1px;stroke-linecap:butt;stroke-linejoin:miter;stroke-opacity:1" d="M 586.775,117.4 576.915,117.4 z" id="boundary" inkscape:connector-curvature="0" />
	<path style="fill:none;stroke:red;stroke-width:1px;stroke-linecap:butt;stroke-linejoin:miter;stroke-opacity:1" d="M 596.636,120.358 586.775,117.4 z" id="boundary" inkscape:connector-curvature="0" />
	<path style="fill:none;stroke:red;stroke-width:1px;stroke-linecap:butt;stroke-linejoin:miter;stroke-opacity:1" d="M 596.636,120.358 606.497,122.33 z" id="boundary" inkscape:connector-curvature="0" />
	<path style="fill:none;stroke:red;stroke-width:1px;stroke-linecap:butt;stroke-linejoin:miter;stroke-opacity:1" d="M 606.497,122.33 616.358,122.33 z" id="boundary" inkscape:connector-curvature="0" />
	<path style="fill:none;stroke:red;stroke-width:1px;stroke-linecap:butt;stroke-linejoin:miter;stroke-opacity:1" d="M 615.372,177.551 606.497,182.481 z" id="boundary" inkscape:connector-curvature="0" />
	<path style="fill:none;stroke:red;stroke-width:1px;stroke-linecap:butt;stroke-linejoin:miter;stroke-opacity:1" d="M 547.332,192.342 557.193,187.412 z" id="boundary" inkscape:connector-curvature="0" />
	<path style="fill:none;stroke:red;stroke-width:1px;stroke-linecap:butt;stroke-linejoin:miter;stroke-opacity:1" d="M 547.332,202.203 547.332,192.342 z" id="boundary" inkscape:connector-curvature="0" />
	<path style="fill:none;stroke:red;stroke-width:1px;stroke-linecap:butt;stroke-linejoin:miter;stroke-opacity:1" d="M 547.332,202.203 547.332,212.064 z" id="boundary" inkscape:connector-curvature="0" />
	<path style="fill:none;stroke:red;stroke-width:1px;stroke-linecap:butt;stroke-linejoin:miter;stroke-opacity:1" d="M 547.332,221.924 547.332,231.785 z" id="boundary" inkscape:connector-curvature="0" />
	<path style="fill:none;stroke:red;stroke-width:1px;stroke-linecap:butt;stroke-linejoin:miter;stroke-opacity:1" d="M 547.332,221.924 547.332,212.064 z" id="boundary" inkscape:connector-curvature="0" />
	<path style="fill:none;stroke:red;stroke-width:1px;stroke-linecap:butt;stroke-linejoin:miter;stroke-opacity:1" d="M 547.332,241.646 547.332,231.785 z" id="boundary" inkscape:connector-curvature="0" />
	<path style="fill:none;stroke:red;stroke-width:1px;stroke-linecap:butt;stroke-linejoin:miter;stroke-opacity:1" d="M 547.332,241.646 547.332,251.507 z" id="boundary" inkscape:connector-curvature="0" />
	<path style="fill:none;stroke:red;stroke-width:1px;stroke-linecap:butt;stroke-linejoin:miter;stroke-opacity:1" d="M 547.332,261.368 547.332,251.507 z" id="boundary" inkscape:connector-curvature="0" />
	<path style="fill:none;stroke:red;stroke-width:1px;stroke-linecap:butt;stroke-linejoin:miter;stroke-opacity:1" d="M 547.332,271.229 547.332,281.089 z" id="boundary" inkscape:connector-curvature="0" />
	<path style="fill:none;stroke:red;stroke-width:1px;stroke-linecap:butt;stroke-linejoin:miter;stroke-opacity:1" d="M 547.332,290.95 547.332,281.089 z" id="boundary" inkscape:connector-curvature="0" />
	<path style="fill:none;stroke:red;stroke-width:1px;stroke-linecap:butt;stroke-linejoin:miter;stroke-opacity:1" d="M 547.332,290.95 547.332,300.811 z" id="boundary" inkscape:connector-curvature="0" />
	<path style="fill:none;stroke:red;stroke-width:1px;stroke-linecap:butt;stroke-linejoin:miter;stroke-opacity:1" d="M 547.332,310.672 547.332,300.811 z" id="boundary" inkscape:connector-curvature="0" />
	<path style="fill:none;stroke:red;stroke-width:1px;stroke-linecap:butt;stroke-linejoin:miter;stroke-opacity:1" d="M 547.332,271.229 547.332,261.368 z" id="boundary" inkscape:connector-curvature="0" />
	<path style="fill:none;stroke:red;stroke-width:1px;stroke-linecap:butt;stroke-linejoin:miter;stroke-opacity:1" d="M 547.332,310.672 547.332,320.533 z" id="boundary" inkscape:connector-curvature="0" />
	<path style="fill:none;stroke:red;stroke-width:1px;stroke-linecap:butt;stroke-linejoin:miter;stroke-opacity:1" d="M 547.332,330.394 547.332,320.533 z" id="boundary" inkscape:connector-curvature="0" />
	<path style="fill:none;stroke:red;stroke-width:1px;stroke-linecap:butt;stroke-linejoin:miter;stroke-opacity:1" d="M 547.332,340.254 547.332,330.394 z" id="boundary" inkscape:connector-curvature="0" />
	<path style="fill:none;stroke:red;stroke-width:1px;stroke-linecap:butt;stroke-linejoin:miter;stroke-opacity:1" d="M 561.137,354.06 552.262,349.129 z" id="boundary" inkscape:connector-curvature="0" />
	<path style="fill:none;stroke:red;stroke-width:1px;stroke-linecap:butt;stroke-linejoin:miter;stroke-opacity:1" d="M 561.137,354.06 570.998,356.032 z" id="boundary" inkscape:connector-curvature="0" />
	<path style="fill:none;stroke:red;stroke-width:1px;stroke-linecap:butt;stroke-linejoin:miter;stroke-opacity:1" d="M 552.262,349.129 547.332,340.254 z" id="boundary" inkscape:connector-curvature="0" />
	<path style="fill:none;stroke:red;stroke-width:1px;stroke-linecap:butt;stroke-linejoin:miter;stroke-opacity:1" d="M 557.193,187.412 567.054,187.412 z" id="boundary" inkscape:connector-curvature="0" />
	<path style="fill:none;stroke:red;stroke-width:1px;stroke-linecap:butt;stroke-linejoin:miter;stroke-opacity:1" d="M 576.915,187.412 567.054,187.412 z" id="boundary" inkscape:connector-curvature="0" />
	<path style="fill:none;stroke:red;stroke-width:1px;stroke-linecap:butt;stroke-linejoin:miter;stroke-opacity:1" d="M 586.775,182.481 576.915,187.412 z" id="boundary" inkscape:connector-curvature="0" />
	<path style="fill:none;stroke:red;stroke-width:1px;stroke-linecap:butt;stroke-linejoin:miter;stroke-opacity:1" d="M 586.775,182.481 596.636,182.481 z" id="boundary" inkscape:connector-curvature="0" />
	<path style="fill:none;stroke:red;stroke-width:1px;stroke-linecap:butt;stroke-linejoin:miter;stroke-opacity:1" d="M 596.636,182.481 606.497,182.481 z" id="boundary" inkscape:connector-curvature="0" />
	<path style="fill:none;stroke:red;stroke-width:1px;stroke-linecap:butt;stroke-linejoin:miter;stroke-opacity:1" d="M 570.998,356.032 579.873,360.962 z" id="boundary" inkscape:connector-curvature="0" />
	<path style="fill:none;stroke:red;stroke-width:1px;stroke-linecap:butt;stroke-linejoin:miter;stroke-opacity:1" d="M 579.873,360.962 589.734,364.907 z" id="boundary" inkscape:connector-curvature="0" />
	<path style="fill:none;stroke:red;stroke-width:1px;stroke-linecap:butt;stroke-linejoin:miter;stroke-opacity:1" d="M 589.734,364.907 599.594,368.851 z" id="boundary" inkscape:connector-curvature="0" />
	<path style="fill:none;stroke:red;stroke-width:1px;stroke-linecap:butt;stroke-linejoin:miter;stroke-opacity:1" d="M 608.469,373.781 599.594,368.851 z" id="boundary" inkscape:connector-curvature="0" />
	<path style="fill:none;stroke:red;stroke-width:1px;stroke-linecap:butt;stroke-linejoin:miter;stroke-opacity:1" d="M 608.469,373.781 618.33,373.781 z" id="boundary" inkscape:connector-curvature="0" />
	<path style="fill:none;stroke:red;stroke-width:1px;stroke-linecap:butt;stroke-linejoin:miter;stroke-opacity:1" d="M 644.954,129.233 635.093,127.26 z" id="boundary" inkscape:connector-curvature="0" />
	<path style="fill:none;stroke:red;stroke-width:1px;stroke-linecap:butt;stroke-linejoin:miter;stroke-opacity:1" d="M 625.233,127.26 616.358,122.33 z" id="boundary" inkscape:connector-curvature="0" />
	<path style="fill:none;stroke:red;stroke-width:1px;stroke-linecap:butt;stroke-linejoin:miter;stroke-opacity:1" d="M 625.233,127.26 635.093,127.26 z" id="boundary" inkscape:connector-curvature="0" />
	<path style="fill:none;stroke:red;stroke-width:1px;stroke-linecap:butt;stroke-linejoin:miter;stroke-opacity:1" d="M 653.829,134.163 644.954,129.233 z" id="boundary" inkscape:connector-curvature="0" />
	<path style="fill:none;stroke:red;stroke-width:1px;stroke-linecap:butt;stroke-linejoin:miter;stroke-opacity:1" d="M 625.233,177.551 615.372,177.551 z" id="boundary" inkscape:connector-curvature="0" />
	<path style="fill:none;stroke:red;stroke-width:1px;stroke-linecap:butt;stroke-linejoin:miter;stroke-opacity:1" d="M 625.233,177.551 634.107,172.62 z" id="boundary" inkscape:connector-curvature="0" />
	<path style="fill:none;stroke:red;stroke-width:1px;stroke-linecap:butt;stroke-linejoin:miter;stroke-opacity:1" d="M 655.801,152.899 651.857,162.759 z" id="boundary" inkscape:connector-curvature="0" />
	<path style="fill:none;stroke:red;stroke-width:1px;stroke-linecap:butt;stroke-linejoin:miter;stroke-opacity:1" d="M 651.857,162.759 642.982,167.69 z" id="boundary" inkscape:connector-curvature="0" />
	<path style="fill:none;stroke:red;stroke-width:1px;stroke-linecap:butt;stroke-linejoin:miter;stroke-opacity:1" d="M 634.107,172.62 642.982,167.69 z" id="boundary" inkscape:connector-curvature="0" />
	<path style="fill:none;stroke:red;stroke-width:1px;stroke-linecap:butt;stroke-linejoin:miter;stroke-opacity:1" d="M 653.829,134.163 658.759,143.038 z" id="boundary" inkscape:connector-curvature="0" />
	<path style="fill:none;stroke:red;stroke-width:1px;stroke-linecap:butt;stroke-linejoin:miter;stroke-opacity:1" d="M 655.801,152.899 658.759,143.038 z" id="boundary" inkscape:connector-curvature="0" />
	<path style="fill:none;stroke:red;stroke-width:1px;stroke-linecap:butt;stroke-linejoin:miter;stroke-opacity:1" d="M 628.191,373.781 618.33,373.781 z" id="boundary" inkscape:connector-curvature="0" />
	<path style="fill:none;stroke:red;stroke-width:1px;stroke-linecap:butt;stroke-linejoin:miter;stroke-opacity:1" d="M 638.052,373.781 628.191,373.781 z" id="boundary" inkscape:connector-curvature="0" />
	<path style="fill:none;stroke:red;stroke-width:1px;stroke-linecap:butt;stroke-linejoin:miter;stroke-opacity:1" d="M 638.052,373.781 647.913,373.781 z" id="boundary" inkscape:connector-curvature="0" />
	<path style="fill:none;stroke:red;stroke-width:1px;stroke-linecap:butt;stroke-linejoin:miter;stroke-opacity:1" d="M 657.773,373.781 647.913,373.781 z" id="boundary" inkscape:connector-curvature="0" />
	<path style="fill:none;stroke:red;stroke-width:1px;stroke-linecap:butt;stroke-linejoin:miter;stroke-opacity:1" d="M 657.773,373.781 667.634,373.781 z" id="boundary" inkscape:connector-curvature="0" />
	<path style="fill:none;stroke:red;stroke-width:1px;stroke-linecap:butt;stroke-linejoin:miter;stroke-opacity:1" d="M 667.634,373.781 677.495,373.781 z" id="boundary" inkscape:connector-curvature="0" />
	<path style="fill:none;stroke:red;stroke-width:1px;stroke-linecap:butt;stroke-linejoin:miter;stroke-opacity:1" d="M 677.495,373.781 687.356,373.781 z" id="boundary" inkscape:connector-curvature="0" />
	<path style="fill:none;stroke:red;stroke-width:1px;stroke-linecap:butt;stroke-linejoin:miter;stroke-opacity:1" d="M 696.231,378.712 687.356,373.781 z" id="boundary" inkscape:connector-curvature="0" />
	<path style="fill:none;stroke:red;stroke-width:1px;stroke-linecap:butt;stroke-linejoin:miter;stroke-opacity:1" d="M 706.091,378.712 696.231,378.712 z" id="boundary" inkscape:connector-curvature="0" />
	<path style="fill:none;stroke:red;stroke-width:1px;stroke-linecap:butt;stroke-linejoin:miter;stroke-opacity:1" d="M 714.966,383.642 724.827,386.6 z" id="boundary" inkscape:connector-curvature="0" />
	<path style="fill:none;stroke:red;stroke-width:1px;stroke-linecap:butt;stroke-linejoin:miter;stroke-opacity:1" d="M 714.966,383.642 706.091,378.712 z" id="boundary" inkscape:connector-curvature="0" />
	<path style="fill:none;stroke:red;stroke-width:1px;stroke-linecap:butt;stroke-linejoin:miter;stroke-opacity:1" d="M 724.827,386.6 733.702,391.531 z" id="boundary" inkscape:connector-curvature="0" />
	<path style="fill:none;stroke:red;stroke-width:1px;stroke-linecap:butt;stroke-linejoin:miter;stroke-opacity:1" d="M 743.563,395.475 733.702,391.531 z" id="boundary" inkscape:connector-curvature="0" />
	<path style="fill:none;stroke:red;stroke-width:1px;stroke-linecap:butt;stroke-linejoin:miter;stroke-opacity:1" d="M 743.563,395.475 752.437,400.406 z" id="boundary" inkscape:connector-curvature="0" />
	<path style="fill:none;stroke:red;stroke-width:1px;stroke-linecap:butt;stroke-linejoin:miter;stroke-opacity:1" d="M 752.437,400.406 762.298,404.35 z" id="boundary" inkscape:connector-curvature="0" />
	<path style="fill:none;stroke:red;stroke-width:1px;stroke-linecap:butt;stroke-linejoin:miter;stroke-opacity:1" d="M 771.173,409.28 762.298,404.35 z" id="boundary" inkscape:connector-curvature="0" />
	<path style="fill:none;stroke:red;stroke-width:1px;stroke-linecap:butt;stroke-linejoin:miter;stroke-opacity:1" d="M 781.034,413.225 771.173,409.28 z" id="boundary" inkscape:connector-curvature="0" />
	<path style="fill:none;stroke:red;stroke-width:1px;stroke-linecap:butt;stroke-linejoin:miter;stroke-opacity:1" d="M 781.034,413.225 787.936,421.113 z" id="boundary" inkscape:connector-curvature="0" />
	<path style="fill:none;stroke:red;stroke-width:1px;stroke-linecap:butt;stroke-linejoin:miter;stroke-opacity:1" d="M 792.867,429.988 787.936,421.113 z" id="boundary" inkscape:connector-curvature="0" />
	<path style="fill:none;stroke:red;stroke-width:1px;stroke-linecap:butt;stroke-linejoin:miter;stroke-opacity:1" d="M 792.867,429.988 793.853,439.849 z" id="boundary" inkscape:connector-curvature="0" />
	<path style="fill:none;stroke:red;stroke-width:1px;stroke-linecap:butt;stroke-linejoin:miter;stroke-opacity:1" d="M 793.853,439.849 799.769,447.738 z" id="boundary" inkscape:connector-curvature="0" />
	<path style="fill:none;stroke:red;stroke-width:1px;stroke-linecap:butt;stroke-linejoin:miter;stroke-opacity:1" d="M 809.63,447.738 799.769,447.738 z" id="boundary" inkscape:connector-curvature="0" />
	<path style="fill:none;stroke:red;stroke-width:1px;stroke-linecap:butt;stroke-linejoin:miter;stroke-opacity:1" d="M 819.491,447.738 809.63,447.738 z" id="boundary" inkscape:connector-curvature="0" />
	<path style="fill:none;stroke:red;stroke-width:1px;stroke-linecap:butt;stroke-linejoin:miter;stroke-opacity:1" d="M 507.889,783.992 498.028,783.992 z" id="boundary" inkscape:connector-curvature="0" />
	<path style="fill:none;stroke:red;stroke-width:1px;stroke-linecap:butt;stroke-linejoin:miter;stroke-opacity:1" d="M 815.547,734.688 806.672,739.618 z" id="boundary" inkscape:connector-curvature="0" />
	<path style="fill:none;stroke:red;stroke-width:1px;stroke-linecap:butt;stroke-linejoin:miter;stroke-opacity:1" d="M 806.672,739.618 797.797,744.549 z" id="boundary" inkscape:connector-curvature="0" />
	<path style="fill:none;stroke:red;stroke-width:1px;stroke-linecap:butt;stroke-linejoin:miter;stroke-opacity:1" d="M 566.068,779.062 556.207,779.062 z" id="boundary" inkscape:connector-curvature="0" />
	<path style="fill:none;stroke:red;stroke-width:1px;stroke-linecap:butt;stroke-linejoin:miter;stroke-opacity:1" d="M 575.928,779.062 566.068,779.062 z" id="boundary" inkscape:connector-curvature="0" />
	<path style="fill:none;stroke:red;stroke-width:1px;stroke-linecap:butt;stroke-linejoin:miter;stroke-opacity:1" d="M 556.207,779.062 547.332,783.992 z" id="boundary" inkscape:connector-curvature="0" />
	<path style="fill:none;stroke:red;stroke-width:1px;stroke-linecap:butt;stroke-linejoin:miter;stroke-opacity:1" d="M 517.75,783.992 507.889,783.992 z" id="boundary" inkscape:connector-curvature="0" />
	<path style="fill:none;stroke:red;stroke-width:1px;stroke-linecap:butt;stroke-linejoin:miter;stroke-opacity:1" d="M 575.928,779.062 585.789,779.062 z" id="boundary" inkscape:connector-curvature="0" />
	<path style="fill:none;stroke:red;stroke-width:1px;stroke-linecap:butt;stroke-linejoin:miter;stroke-opacity:1" d="M 595.65,779.062 585.789,779.062 z" id="boundary" inkscape:connector-curvature="0" />
	<path style="fill:none;stroke:red;stroke-width:1px;stroke-linecap:butt;stroke-linejoin:miter;stroke-opacity:1" d="M 615.372,779.062 605.511,779.062 z" id="boundary" inkscape:connector-curvature="0" />
	<path style="fill:none;stroke:red;stroke-width:1px;stroke-linecap:butt;stroke-linejoin:miter;stroke-opacity:1" d="M 605.511,779.062 595.65,779.062 z" id="boundary" inkscape:connector-curvature="0" />
	<path style="fill:none;stroke:red;stroke-width:1px;stroke-linecap:butt;stroke-linejoin:miter;stroke-opacity:1" d="M 625.233,779.062 615.372,779.062 z" id="boundary" inkscape:connector-curvature="0" />
	<path style="fill:none;stroke:red;stroke-width:1px;stroke-linecap:butt;stroke-linejoin:miter;stroke-opacity:1" d="M 635.093,779.062 625.233,779.062 z" id="boundary" inkscape:connector-curvature="0" />
	<path style="fill:none;stroke:red;stroke-width:1px;stroke-linecap:butt;stroke-linejoin:miter;stroke-opacity:1" d="M 654.815,779.062 644.954,779.062 z" id="boundary" inkscape:connector-curvature="0" />
	<path style="fill:none;stroke:red;stroke-width:1px;stroke-linecap:butt;stroke-linejoin:miter;stroke-opacity:1" d="M 644.954,779.062 635.093,779.062 z" id="boundary" inkscape:connector-curvature="0" />
	<path style="fill:none;stroke:red;stroke-width:1px;stroke-linecap:butt;stroke-linejoin:miter;stroke-opacity:1" d="M 664.676,776.103 654.815,779.062 z" id="boundary" inkscape:connector-curvature="0" />
	<path style="fill:none;stroke:red;stroke-width:1px;stroke-linecap:butt;stroke-linejoin:miter;stroke-opacity:1" d="M 517.75,783.992 527.61,783.992 z" id="boundary" inkscape:connector-curvature="0" />
	<path style="fill:none;stroke:red;stroke-width:1px;stroke-linecap:butt;stroke-linejoin:miter;stroke-opacity:1" d="M 537.471,783.992 527.61,783.992 z" id="boundary" inkscape:connector-curvature="0" />
	<path style="fill:none;stroke:red;stroke-width:1px;stroke-linecap:butt;stroke-linejoin:miter;stroke-opacity:1" d="M 537.471,783.992 547.332,783.992 z" id="boundary" inkscape:connector-curvature="0" />
	<path style="fill:none;stroke:red;stroke-width:1px;stroke-linecap:butt;stroke-linejoin:miter;stroke-opacity:1" d="M 730.744,759.34 721.869,764.27 z" id="boundary" inkscape:connector-curvature="0" />
	<path style="fill:none;stroke:red;stroke-width:1px;stroke-linecap:butt;stroke-linejoin:miter;stroke-opacity:1" d="M 693.272,769.201 702.147,764.27 z" id="boundary" inkscape:connector-curvature="0" />
	<path style="fill:none;stroke:red;stroke-width:1px;stroke-linecap:butt;stroke-linejoin:miter;stroke-opacity:1" d="M 702.147,764.27 712.008,764.27 z" id="boundary" inkscape:connector-curvature="0" />
	<path style="fill:none;stroke:red;stroke-width:1px;stroke-linecap:butt;stroke-linejoin:miter;stroke-opacity:1" d="M 721.869,764.27 712.008,764.27 z" id="boundary" inkscape:connector-curvature="0" />
	<path style="fill:none;stroke:red;stroke-width:1px;stroke-linecap:butt;stroke-linejoin:miter;stroke-opacity:1" d="M 693.272,769.201 684.398,774.131 z" id="boundary" inkscape:connector-curvature="0" />
	<path style="fill:none;stroke:red;stroke-width:1px;stroke-linecap:butt;stroke-linejoin:miter;stroke-opacity:1" d="M 769.201,754.41 778.076,749.479 z" id="boundary" inkscape:connector-curvature="0" />
	<path style="fill:none;stroke:red;stroke-width:1px;stroke-linecap:butt;stroke-linejoin:miter;stroke-opacity:1" d="M 759.34,754.41 750.465,759.34 z" id="boundary" inkscape:connector-curvature="0" />
	<path style="fill:none;stroke:red;stroke-width:1px;stroke-linecap:butt;stroke-linejoin:miter;stroke-opacity:1" d="M 787.936,746.521 778.076,749.479 z" id="boundary" inkscape:connector-curvature="0" />
	<path style="fill:none;stroke:red;stroke-width:1px;stroke-linecap:butt;stroke-linejoin:miter;stroke-opacity:1" d="M 730.744,759.34 740.604,759.34 z" id="boundary" inkscape:connector-curvature="0" />
	<path style="fill:none;stroke:red;stroke-width:1px;stroke-linecap:butt;stroke-linejoin:miter;stroke-opacity:1" d="M 750.465,759.34 740.604,759.34 z" id="boundary" inkscape:connector-curvature="0" />
	<path style="fill:none;stroke:red;stroke-width:1px;stroke-linecap:butt;stroke-linejoin:miter;stroke-opacity:1" d="M 769.201,754.41 759.34,754.41 z" id="boundary" inkscape:connector-curvature="0" />
	<path style="fill:none;stroke:red;stroke-width:1px;stroke-linecap:butt;stroke-linejoin:miter;stroke-opacity:1" d="M 787.936,746.521 797.797,744.549 z" id="boundary" inkscape:connector-curvature="0" />
	<path style="fill:none;stroke:red;stroke-width:1px;stroke-linecap:butt;stroke-linejoin:miter;stroke-opacity:1" d="M 664.676,776.103 674.537,774.131 z" id="boundary" inkscape:connector-curvature="0" />
	<path style="fill:none;stroke:red;stroke-width:1px;stroke-linecap:butt;stroke-linejoin:miter;stroke-opacity:1" d="M 684.398,774.131 674.537,774.131 z" id="boundary" inkscape:connector-curvature="0" />
	<path style="fill:none;stroke:red;stroke-width:1px;stroke-linecap:butt;stroke-linejoin:miter;stroke-opacity:1" d="M 819.491,447.738 829.352,447.738 z" id="boundary" inkscape:connector-curvature="0" />
	<path style="fill:none;stroke:red;stroke-width:1px;stroke-linecap:butt;stroke-linejoin:miter;stroke-opacity:1" d="M 839.213,447.738 829.352,447.738 z" id="boundary" inkscape:connector-curvature="0" />
	<path style="fill:none;stroke:red;stroke-width:1px;stroke-linecap:butt;stroke-linejoin:miter;stroke-opacity:1" d="M 839.213,447.738 848.087,452.668 z" id="boundary" inkscape:connector-curvature="0" />
	<path style="fill:none;stroke:red;stroke-width:1px;stroke-linecap:butt;stroke-linejoin:miter;stroke-opacity:1" d="M 857.948,455.626 866.823,460.557 z" id="boundary" inkscape:connector-curvature="0" />
	<path style="fill:none;stroke:red;stroke-width:1px;stroke-linecap:butt;stroke-linejoin:miter;stroke-opacity:1" d="M 866.823,460.557 874.712,467.459 z" id="boundary" inkscape:connector-curvature="0" />
	<path style="fill:none;stroke:red;stroke-width:1px;stroke-linecap:butt;stroke-linejoin:miter;stroke-opacity:1" d="M 874.712,467.459 883.586,472.39 z" id="boundary" inkscape:connector-curvature="0" />
	<path style="fill:none;stroke:red;stroke-width:1px;stroke-linecap:butt;stroke-linejoin:miter;stroke-opacity:1" d="M 883.586,472.39 891.475,479.292 z" id="boundary" inkscape:connector-curvature="0" />
	<path style="fill:none;stroke:red;stroke-width:1px;stroke-linecap:butt;stroke-linejoin:miter;stroke-opacity:1" d="M 897.392,487.181 891.475,479.292 z" id="boundary" inkscape:connector-curvature="0" />
	<path style="fill:none;stroke:red;stroke-width:1px;stroke-linecap:butt;stroke-linejoin:miter;stroke-opacity:1" d="M 848.087,452.668 857.948,455.626 z" id="boundary" inkscape:connector-curvature="0" />
	<path style="fill:none;stroke:red;stroke-width:1px;stroke-linecap:butt;stroke-linejoin:miter;stroke-opacity:1" d="M 897.392,487.181 907.252,490.139 z" id="boundary" inkscape:connector-curvature="0" />
	<path style="fill:none;stroke:red;stroke-width:1px;stroke-linecap:butt;stroke-linejoin:miter;stroke-opacity:1" d="M 915.141,497.042 907.252,490.139 z" id="boundary" inkscape:connector-curvature="0" />
	<path style="fill:none;stroke:red;stroke-width:1px;stroke-linecap:butt;stroke-linejoin:miter;stroke-opacity:1" d="M 924.016,501.972 915.141,497.042 z" id="boundary" inkscape:connector-curvature="0" />
	<path style="fill:none;stroke:red;stroke-width:1px;stroke-linecap:butt;stroke-linejoin:miter;stroke-opacity:1" d="M 924.016,501.972 930.918,509.861 z" id="boundary" inkscape:connector-curvature="0" />
	<path style="fill:none;stroke:red;stroke-width:1px;stroke-linecap:butt;stroke-linejoin:miter;stroke-opacity:1" d="M 930.918,509.861 938.807,516.763 z" id="boundary" inkscape:connector-curvature="0" />
	<path style="fill:none;stroke:red;stroke-width:1px;stroke-linecap:butt;stroke-linejoin:miter;stroke-opacity:1" d="M 938.807,516.763 945.71,524.652 z" id="boundary" inkscape:connector-curvature="0" />
	<path style="fill:none;stroke:red;stroke-width:1px;stroke-linecap:butt;stroke-linejoin:miter;stroke-opacity:1" d="M 953.598,531.555 945.71,524.652 z" id="boundary" inkscape:connector-curvature="0" />
	<path style="fill:none;stroke:red;stroke-width:1px;stroke-linecap:butt;stroke-linejoin:miter;stroke-opacity:1" d="M 960.501,539.443 953.598,531.555 z" id="boundary" inkscape:connector-curvature="0" />
	<path style="fill:none;stroke:red;stroke-width:1px;stroke-linecap:butt;stroke-linejoin:miter;stroke-opacity:1" d="M 960.501,539.443 968.39,546.346 z" id="boundary" inkscape:connector-curvature="0" />
	<path style="fill:none;stroke:red;stroke-width:1px;stroke-linecap:butt;stroke-linejoin:miter;stroke-opacity:1" d="M 976.278,565.082 971.348,556.207 z" id="boundary" inkscape:connector-curvature="0" />
	<path style="fill:none;stroke:red;stroke-width:1px;stroke-linecap:butt;stroke-linejoin:miter;stroke-opacity:1" d="M 968.39,546.346 971.348,556.207 z" id="boundary" inkscape:connector-curvature="0" />
	<path style="fill:none;stroke:red;stroke-width:1px;stroke-linecap:butt;stroke-linejoin:miter;stroke-opacity:1" d="M 976.278,565.082 981.209,573.956 z" id="boundary" inkscape:connector-curvature="0" />
	<path style="fill:none;stroke:red;stroke-width:1px;stroke-linecap:butt;stroke-linejoin:miter;stroke-opacity:1" d="M 985.153,583.817 986.139,593.678 z" id="boundary" inkscape:connector-curvature="0" />
	<path style="fill:none;stroke:red;stroke-width:1px;stroke-linecap:butt;stroke-linejoin:miter;stroke-opacity:1" d="M 996,611.427 991.07,602.553 z" id="boundary" inkscape:connector-curvature="0" />
	<path style="fill:none;stroke:red;stroke-width:1px;stroke-linecap:butt;stroke-linejoin:miter;stroke-opacity:1" d="M 991.07,602.553 986.139,593.678 z" id="boundary" inkscape:connector-curvature="0" />
	<path style="fill:none;stroke:red;stroke-width:1px;stroke-linecap:butt;stroke-linejoin:miter;stroke-opacity:1" d="M 985.153,583.817 981.209,573.956 z" id="boundary" inkscape:connector-curvature="0" />
	<path style="fill:none;stroke:red;stroke-width:1px;stroke-linecap:butt;stroke-linejoin:miter;stroke-opacity:1" d="M 862.879,714.966 853.018,719.897 z" id="boundary" inkscape:connector-curvature="0" />
	<path style="fill:none;stroke:red;stroke-width:1px;stroke-linecap:butt;stroke-linejoin:miter;stroke-opacity:1" d="M 882.6,710.036 892.461,705.105 z" id="boundary" inkscape:connector-curvature="0" />
	<path style="fill:none;stroke:red;stroke-width:1px;stroke-linecap:butt;stroke-linejoin:miter;stroke-opacity:1" d="M 872.74,714.966 862.879,714.966 z" id="boundary" inkscape:connector-curvature="0" />
	<path style="fill:none;stroke:red;stroke-width:1px;stroke-linecap:butt;stroke-linejoin:miter;stroke-opacity:1" d="M 882.6,710.036 872.74,714.966 z" id="boundary" inkscape:connector-curvature="0" />
	<path style="fill:none;stroke:red;stroke-width:1px;stroke-linecap:butt;stroke-linejoin:miter;stroke-opacity:1" d="M 902.322,705.105 892.461,705.105 z" id="boundary" inkscape:connector-curvature="0" />
	<path style="fill:none;stroke:red;stroke-width:1px;stroke-linecap:butt;stroke-linejoin:miter;stroke-opacity:1" d="M 912.183,700.175 902.322,705.105 z" id="boundary" inkscape:connector-curvature="0" />
	<path style="fill:none;stroke:red;stroke-width:1px;stroke-linecap:butt;stroke-linejoin:miter;stroke-opacity:1" d="M 922.044,695.245 912.183,700.175 z" id="boundary" inkscape:connector-curvature="0" />
	<path style="fill:none;stroke:red;stroke-width:1px;stroke-linecap:butt;stroke-linejoin:miter;stroke-opacity:1" d="M 843.157,724.827 834.282,729.757 z" id="boundary" inkscape:connector-curvature="0" />
	<path style="fill:none;stroke:red;stroke-width:1px;stroke-linecap:butt;stroke-linejoin:miter;stroke-opacity:1" d="M 853.018,719.897 843.157,724.827 z" id="boundary" inkscape:connector-curvature="0" />
	<path style="fill:none;stroke:red;stroke-width:1px;stroke-linecap:butt;stroke-linejoin:miter;stroke-opacity:1" d="M 834.282,729.757 824.421,729.757 z" id="boundary" inkscape:connector-curvature="0" />
	<path style="fill:none;stroke:red;stroke-width:1px;stroke-linecap:butt;stroke-linejoin:miter;stroke-opacity:1" d="M 815.547,734.688 824.421,729.757 z" id="boundary" inkscape:connector-curvature="0" />
	<path style="fill:none;stroke:red;stroke-width:1px;stroke-linecap:butt;stroke-linejoin:miter;stroke-opacity:1" d="M 996,611.427 994.028,624.247 z" id="boundary" inkscape:connector-curvature="0" />
	<path style="fill:none;stroke:red;stroke-width:1px;stroke-linecap:butt;stroke-linejoin:miter;stroke-opacity:1" d="M 994.028,624.247 989.097,634.107 z" id="boundary" inkscape:connector-curvature="0" />
	<path style="fill:none;stroke:red;stroke-width:1px;stroke-linecap:butt;stroke-linejoin:miter;stroke-opacity:1" d="M 971.348,660.732 979.237,653.829 z" id="boundary" inkscape:connector-curvature="0" />
	<path style="fill:none;stroke:red;stroke-width:1px;stroke-linecap:butt;stroke-linejoin:miter;stroke-opacity:1" d="M 984.167,643.968 989.097,634.107 z" id="boundary" inkscape:connector-curvature="0" />
	<path style="fill:none;stroke:red;stroke-width:1px;stroke-linecap:butt;stroke-linejoin:miter;stroke-opacity:1" d="M 984.167,643.968 979.237,653.829 z" id="boundary" inkscape:connector-curvature="0" />
	<path style="fill:none;stroke:red;stroke-width:1px;stroke-linecap:butt;stroke-linejoin:miter;stroke-opacity:1" d="M 971.348,660.732 964.445,668.62 z" id="boundary" inkscape:connector-curvature="0" />
	<path style="fill:none;stroke:red;stroke-width:1px;stroke-linecap:butt;stroke-linejoin:miter;stroke-opacity:1" d="M 948.668,684.398 940.779,690.314 z" id="boundary" inkscape:connector-curvature="0" />
	<path style="fill:none;stroke:red;stroke-width:1px;stroke-linecap:butt;stroke-linejoin:miter;stroke-opacity:1" d="M 956.557,675.523 948.668,684.398 z" id="boundary" inkscape:connector-curvature="0" />
	<path style="fill:none;stroke:red;stroke-width:1px;stroke-linecap:butt;stroke-linejoin:miter;stroke-opacity:1" d="M 940.779,690.314 931.905,695.245 z" id="boundary" inkscape:connector-curvature="0" />
	<path style="fill:none;stroke:red;stroke-width:1px;stroke-linecap:butt;stroke-linejoin:miter;stroke-opacity:1" d="M 922.044,695.245 931.905,695.245 z" id="boundary" inkscape:connector-curvature="0" />
	<path style="fill:none;stroke:red;stroke-width:1px;stroke-linecap:butt;stroke-linejoin:miter;stroke-opacity:1" d="M 956.557,675.523 964.445,668.62 z" id="boundary" inkscape:connector-curvature="0" />
	<circle cx="4" cy="559.165" r="4" fill="#0" id="circle0"/>
	<circle cx="4" cy="569.026" r="4" fill="#0" id="circle1"/>
	<circle cx="4" cy="578.887" r="4" fill="#0" id="circle2"/>
	<circle cx="4" cy="588.748" r="4" fill="#0" id="circle3"/>
	<circle cx="4" cy="598.608" r="4" fill="#0" id="circle4"/>
	<circle cx="4" cy="608.469" r="4" fill="#0" id="circle5"/>
	<circle cx="8.93042" cy="549.304" r="4" fill="#0" id="circle6"/>
	<circle cx="8.93042" cy="617.344" r="4" fill="#0" id="circle7"/>
	<circle cx="8.93042" cy="627.205" r="4" fill="#0" id="circle8"/>
	<circle cx="13.8608" cy="539.443" r="4" fill="#0" id="circle9"/>
	<circle cx="13.8608" cy="636.08" r="4" fill="#0" id="circle10"/>
	<circle cx="19.7773" cy="643.968" r="4" fill="#0" id="circle11"/>
	<circle cx="21.7495" cy="531.555" r="4" fill="#0" id="circle12"/>
	<circle cx="24.7078" cy="652.843" r="4" fill="#0" id="circle13"/>
	<circle cx="26.6799" cy="521.694" r="4" fill="#0" id="circle14"/>
	<circle cx="28.6521" cy="662.704" r="4" fill="#0" id="circle15"/>
	<circle cx="36.5408" cy="516.763" r="4" fill="#0" id="circle16"/>
	<circle cx="36.5408" cy="669.606" r="4" fill="#0" id="circle17"/>
	<circle cx="43.4433" cy="677.495" r="4" fill="#0" id="circle18"/>
	<circle cx="45.4155" cy="511.833" r="4" fill="#0" id="circle19"/>
	<circle cx="48.3738" cy="686.37" r="4" fill="#0" id="circle20"/>
	<circle cx="53.3042" cy="504.93" r="4" fill="#0" id="circle21"/>
	<circle cx="55.2763" cy="694.258" r="4" fill="#0" id="circle22"/>
	<circle cx="63.165" cy="500" r="4" fill="#0" id="circle23"/>
	<circle cx="63.165" cy="700.175" r="4" fill="#0" id="circle24"/>
	<circle cx="72.0398" cy="705.105" r="4" fill="#0" id="circle25"/>
	<circle cx="73.0258" cy="495.07" r="4" fill="#0" id="circle26"/>
	<circle cx="80.9145" cy="487.181" r="4" fill="#0" id="circle27"/>
	<circle cx="80.9145" cy="710.036" r="4" fill="#0" id="circle28"/>
	<circle cx="90.7753" cy="482.25" r="4" fill="#0" id="circle29"/>
	<circle cx="90.7753" cy="713.98" r="4" fill="#0" id="circle30"/>
	<circle cx="99.6501" cy="718.911" r="4" fill="#0" id="circle31"/>
	<circle cx="100.636" cy="477.32" r="4" fill="#0" id="circle32"/>
	<circle cx="109.511" cy="719.897" r="4" fill="#0" id="circle33"/>
	<circle cx="110.497" cy="472.39" r="4" fill="#0" id="circle34"/>
	<circle cx="119.372" cy="722.855" r="4" fill="#0" id="circle35"/>
	<circle cx="120.358" cy="467.459" r="4" fill="#0" id="circle36"/>
	<circle cx="129.233" cy="724.827" r="4" fill="#0" id="circle37"/>
	<circle cx="130.219" cy="462.529" r="4" fill="#0" id="circle38"/>
	<circle cx="139.093" cy="727.785" r="4" fill="#0" id="circle39"/>
	<circle cx="140.08" cy="457.598" r="4" fill="#0" id="circle40"/>
	<circle cx="147.968" cy="732.716" r="4" fill="#0" id="circle41"/>
	<circle cx="149.94" cy="452.668" r="4" fill="#0" id="circle42"/>
	<circle cx="157.829" cy="734.688" r="4" fill="#0" id="circle43"/>
	<circle cx="159.801" cy="452.668" r="4" fill="#0" id="circle44"/>
	<circle cx="166.704" cy="739.618" r="4" fill="#0" id="circle45"/>
	<circle cx="167.69" cy="444.779" r="4" fill="#0" id="circle46"/>
	<circle cx="175.579" cy="437.877" r="4" fill="#0" id="circle47"/>
	<circle cx="175.579" cy="744.549" r="4" fill="#0" id="circle48"/>
	<circle cx="179.523" cy="428.016" r="4" fill="#0" id="circle49"/>
	<circle cx="184.453" cy="418.155" r="4" fill="#0" id="circle50"/>
	<circle cx="185.439" cy="744.549" r="4" fill="#0" id="circle51"/>
	<circle cx="191.356" cy="406.322" r="4" fill="#0" id="circle52"/>
	<circle cx="194.314" cy="749.479" r="4" fill="#0" id="circle53"/>
	<circle cx="199.245" cy="398.433" r="4" fill="#0" id="circle54"/>
	<circle cx="204.175" cy="753.423" r="4" fill="#0" id="circle55"/>
	<circle cx="209.105" cy="393.503" r="4" fill="#0" id="circle56"/>
	<circle cx="214.036" cy="754.41" r="4" fill="#0" id="circle57"/>
	<circle cx="218.966" cy="388.573" r="4" fill="#0" id="circle58"/>
	<circle cx="223.897" cy="754.41" r="4" fill="#0" id="circle59"/>
	<circle cx="228.827" cy="383.642" r="4" fill="#0" id="circle60"/>
	<circle cx="232.771" cy="759.34" r="4" fill="#0" id="circle61"/>
	<circle cx="238.688" cy="383.642" r="4" fill="#0" id="circle62"/>
	<circle cx="242.632" cy="759.34" r="4" fill="#0" id="circle63"/>
	<circle cx="247.563" cy="378.712" r="4" fill="#0" id="circle64"/>
	<circle cx="251.507" cy="764.27" r="4" fill="#0" id="circle65"/>
	<circle cx="257.423" cy="374.767" r="4" fill="#0" id="circle66"/>
	<circle cx="261.368" cy="766.243" r="4" fill="#0" id="circle67"/>
	<circle cx="267.284" cy="369.837" r="4" fill="#0" id="circle68"/>
	<circle cx="271.229" cy="769.201" r="4" fill="#0" id="circle69"/>
	<circle cx="277.145" cy="364.907" r="4" fill="#0" id="circle70"/>
	<circle cx="281.089" cy="769.201" r="4" fill="#0" id="circle71"/>
	<circle cx="287.006" cy="363.92" r="4" fill="#0" id="circle72"/>
	<circle cx="290.95" cy="771.173" r="4" fill="#0" id="circle73"/>
	<circle cx="295.881" cy="358.99" r="4" fill="#0" id="circle74"/>
	<circle cx="300.811" cy="774.131" r="4" fill="#0" id="circle75"/>
	<circle cx="304.755" cy="354.06" r="4" fill="#0" id="circle76"/>
	<circle cx="310.672" cy="774.131" r="4" fill="#0" id="circle77"/>
	<circle cx="314.616" cy="352.087" r="4" fill="#0" id="circle78"/>
	<circle cx="320.533" cy="776.103" r="4" fill="#0" id="circle79"/>
	<circle cx="324.477" cy="349.129" r="4" fill="#0" id="circle80"/>
	<circle cx="330.394" cy="779.062" r="4" fill="#0" id="circle81"/>
	<circle cx="334.338" cy="347.157" r="4" fill="#0" id="circle82"/>
	<circle cx="340.254" cy="781.034" r="4" fill="#0" id="circle83"/>
	<circle cx="344.199" cy="344.199" r="4" fill="#0" id="circle84"/>
	<circle cx="350.115" cy="783.992" r="4" fill="#0" id="circle85"/>
	<circle cx="354.06" cy="344.199" r="4" fill="#0" id="circle86"/>
	<circle cx="359.976" cy="783.992" r="4" fill="#0" id="circle87"/>
	<circle cx="363.92" cy="342.227" r="4" fill="#0" id="circle88"/>
	<circle cx="369.837" cy="783.992" r="4" fill="#0" id="circle89"/>
	<circle cx="373.781" cy="339.268" r="4" fill="#0" id="circle90"/>
	<circle cx="378.712" cy="149.94" r="4" fill="#0" id="circle91"/>
	<circle cx="378.712" cy="159.801" r="4" fill="#0" id="circle92"/>
	<circle cx="379.698" cy="783.992" r="4" fill="#0" id="circle93"/>
	<circle cx="383.642" cy="168.676" r="4" fill="#0" id="circle94"/>
	<circle cx="383.642" cy="339.268" r="4" fill="#0" id="circle95"/>
	<circle cx="386.6" cy="142.052" r="4" fill="#0" id="circle96"/>
	<circle cx="389.559" cy="783.992" r="4" fill="#0" id="circle97"/>
	<circle cx="390.545" cy="176.565" r="4" fill="#0" id="circle98"/>
	<circle cx="393.503" cy="339.268" r="4" fill="#0" id="circle99"/>
	<circle cx="396.461" cy="137.121" r="4" fill="#0" id="circle100"/>
	<circle cx="398.433" cy="182.481" r="4" fill="#0" id="circle101"/>
	<circle cx="399.419" cy="783.992" r="4" fill="#0" id="circle102"/>
	<circle cx="403.364" cy="339.268" r="4" fill="#0" id="circle103"/>
	<circle cx="406.322" cy="132.191" r="4" fill="#0" id="circle104"/>
	<circle cx="408.294" cy="182.481" r="4" fill="#0" id="circle105"/>
	<circle cx="409.28" cy="783.992" r="4" fill="#0" id="circle106"/>
	<circle cx="413.225" cy="339.268" r="4" fill="#0" id="circle107"/>
	<circle cx="416.183" cy="132.191" r="4" fill="#0" id="circle108"/>
	<circle cx="417.169" cy="187.412" r="4" fill="#0" id="circle109"/>
	<circle cx="419.141" cy="783.992" r="4" fill="#0" id="circle110"/>
	<circle cx="423.085" cy="339.268" r="4" fill="#0" id="circle111"/>
	<circle cx="426.044" cy="132.191" r="4" fill="#0" id="circle112"/>
	<circle cx="426.044" cy="192.342" r="4" fill="#0" id="circle113"/>
	<circle cx="429.002" cy="783.992" r="4" fill="#0" id="circle114"/>
	<circle cx="432.946" cy="339.268" r="4" fill="#0" id="circle115"/>
	<circle cx="435.905" cy="132.191" r="4" fill="#0" id="circle116"/>
	<circle cx="435.905" cy="196.286" r="4" fill="#0" id="circle117"/>
	<circle cx="438.863" cy="783.992" r="4" fill="#0" id="circle118"/>
	<circle cx="442.807" cy="327.435" r="4" fill="#0" id="circle119"/>
	<circle cx="442.807" cy="337.296" r="4" fill="#0" id="circle120"/>
	<circle cx="445.765" cy="132.191" r="4" fill="#0" id="circle121"/>
	<circle cx="445.765" cy="197.272" r="4" fill="#0" id="circle122"/>
	<circle cx="447.738" cy="258.41" r="4" fill="#0" id="circle123"/>
	<circle cx="447.738" cy="268.27" r="4" fill="#0" id="circle124"/>
	<circle cx="447.738" cy="278.131" r="4" fill="#0" id="circle125"/>
	<circle cx="447.738" cy="287.992" r="4" fill="#0" id="circle126"/>
	<circle cx="447.738" cy="297.853" r="4" fill="#0" id="circle127"/>
	<circle cx="447.738" cy="307.714" r="4" fill="#0" id="circle128"/>
	<circle cx="447.738" cy="317.575" r="4" fill="#0" id="circle129"/>
	<circle cx="448.724" cy="783.992" r="4" fill="#0" id="circle130"/>
	<circle cx="452.668" cy="248.549" r="4" fill="#0" id="circle131"/>
	<circle cx="454.64" cy="202.203" r="4" fill="#0" id="circle132"/>
	<circle cx="455.626" cy="132.191" r="4" fill="#0" id="circle133"/>
	<circle cx="457.598" cy="233.757" r="4" fill="#0" id="circle134"/>
	<circle cx="458.584" cy="783.992" r="4" fill="#0" id="circle135"/>
	<circle cx="462.529" cy="16.8191" r="4" fill="#0" id="circle136"/>
	<circle cx="462.529" cy="71.0537" r="4" fill="#0" id="circle137"/>
	<circle cx="462.529" cy="80.9145" r="4" fill="#0" id="circle138"/>
	<circle cx="462.529" cy="90.7753" r="4" fill="#0" id="circle139"/>
	<circle cx="462.529" cy="208.119" r="4" fill="#0" id="circle140"/>
	<circle cx="462.529" cy="217.98" r="4" fill="#0" id="circle141"/>
	<circle cx="463.515" cy="124.302" r="4" fill="#0" id="circle142"/>
	<circle cx="467.459" cy="25.6938" r="4" fill="#0" id="circle143"/>
	<circle cx="467.459" cy="35.5547" r="4" fill="#0" id="circle144"/>
	<circle cx="467.459" cy="45.4155" r="4" fill="#0" id="circle145"/>
	<circle cx="467.459" cy="55.2763" r="4" fill="#0" id="circle146"/>
	<circle cx="468.445" cy="114.441" r="4" fill="#0" id="circle147"/>
	<circle cx="468.445" cy="783.992" r="4" fill="#0" id="circle148"/>
	<circle cx="470.417" cy="8.93042" r="4" fill="#0" id="circle149"/>
	<circle cx="470.417" cy="97.6779" r="4" fill="#0" id="circle150"/>
	<circle cx="478.306" cy="783.992" r="4" fill="#0" id="circle151"/>
	<circle cx="479.292" cy="4" r="4" fill="#0" id="circle152"/>
	<circle cx="488.167" cy="783.992" r="4" fill="#0" id="circle153"/>
	<circle cx="489.153" cy="4" r="4" fill="#0" id="circle154"/>
	<circle cx="498.028" cy="783.992" r="4" fill="#0" id="circle155"/>
	<circle cx="499.014" cy="4" r="4" fill="#0" id="circle156"/>
	<circle cx="507.889" cy="783.992" r="4" fill="#0" id="circle157"/>
	<circle cx="508.875" cy="4" r="4" fill="#0" id="circle158"/>
	<circle cx="517.75" cy="783.992" r="4" fill="#0" id="circle159"/>
	<circle cx="518.736" cy="4" r="4" fill="#0" id="circle160"/>
	<circle cx="522.68" cy="39.499" r="4" fill="#0" id="circle161"/>
	<circle cx="522.68" cy="49.3598" r="4" fill="#0" id="circle162"/>
	<circle cx="522.68" cy="59.2207" r="4" fill="#0" id="circle163"/>
	<circle cx="522.68" cy="69.0815" r="4" fill="#0" id="circle164"/>
	<circle cx="522.68" cy="78.9423" r="4" fill="#0" id="circle165"/>
	<circle cx="522.68" cy="88.8032" r="4" fill="#0" id="circle166"/>
	<circle cx="522.68" cy="98.664" r="4" fill="#0" id="circle167"/>
	<circle cx="522.68" cy="108.525" r="4" fill="#0" id="circle168"/>
	<circle cx="526.624" cy="10.9026" r="4" fill="#0" id="circle169"/>
	<circle cx="527.61" cy="24.7078" r="4" fill="#0" id="circle170"/>
	<circle cx="527.61" cy="117.4" r="4" fill="#0" id="circle171"/>
	<circle cx="527.61" cy="783.992" r="4" fill="#0" id="circle172"/>
	<circle cx="537.471" cy="117.4" r="4" fill="#0" id="circle173"/>
	<circle cx="537.471" cy="783.992" r="4" fill="#0" id="circle174"/>
	<circle cx="547.332" cy="117.4" r="4" fill="#0" id="circle175"/>
	<circle cx="547.332" cy="192.342" r="4" fill="#0" id="circle176"/>
	<circle cx="547.332" cy="202.203" r="4" fill="#0" id="circle177"/>
	<circle cx="547.332" cy="212.064" r="4" fill="#0" id="circle178"/>
	<circle cx="547.332" cy="221.924" r="4" fill="#0" id="circle179"/>
	<circle cx="547.332" cy="231.785" r="4" fill="#0" id="circle180"/>
	<circle cx="547.332" cy="241.646" r="4" fill="#0" id="circle181"/>
	<circle cx="547.332" cy="251.507" r="4" fill="#0" id="circle182"/>
	<circle cx="547.332" cy="261.368" r="4" fill="#0" id="circle183"/>
	<circle cx="547.332" cy="271.229" r="4" fill="#0" id="circle184"/>
	<circle cx="547.332" cy="281.089" r="4" fill="#0" id="circle185"/>
	<circle cx="547.332" cy="290.95" r="4" fill="#0" id="circle186"/>
	<circle cx="547.332" cy="300.811" r="4" fill="#0" id="circle187"/>
	<circle cx="547.332" cy="310.672" r="4" fill="#0" id="circle188"/>
	<circle cx="547.332" cy="320.533" r="4" fill="#0" id="circle189"/>
	<circle cx="547.332" cy="330.394" r="4" fill="#0" id="circle190"/>
	<circle cx="547.332" cy="340.254" r="4" fill="#0" id="circle191"/>
	<circle cx="547.332" cy="783.992" r="4" fill="#0" id="circle192"/>
	<circle cx="552.262" cy="349.129" r="4" fill="#0" id="circle193"/>
	<circle cx="556.207" cy="779.062" r="4" fill="#0" id="circle194"/>
	<circle cx="557.193" cy="117.4" r="4" fill="#0" id="circle195"/>
	<circle cx="557.193" cy="187.412" r="4" fill="#0" id="circle196"/>
	<circle cx="561.137" cy="354.06" r="4" fill="#0" id="circle197"/>
	<circle cx="566.068" cy="779.062" r="4" fill="#0" id="circle198"/>
	<circle cx="567.054" cy="117.4" r="4" fill="#0" id="circle199"/>
	<circle cx="567.054" cy="187.412" r="4" fill="#0" id="circle200"/>
	<circle cx="570.998" cy="356.032" r="4" fill="#0" id="circle201"/>
	<circle cx="575.928" cy="779.062" r="4" fill="#0" id="circle202"/>
	<circle cx="576.915" cy="117.4" r="4" fill="#0" id="circle203"/>
	<circle cx="576.915" cy="187.412" r="4" fill="#0" id="circle204"/>
	<circle cx="579.873" cy="360.962" r="4" fill="#0" id="circle205"/>
	<circle cx="585.789" cy="779.062" r="4" fill="#0" id="circle206"/>
	<circle cx="586.775" cy="117.4" r="4" fill="#0" id="circle207"/>
	<circle cx="586.775" cy="182.481" r="4" fill="#0" id="circle208"/>
	<circle cx="589.734" cy="364.907" r="4" fill="#0" id="circle209"/>
	<circle cx="595.65" cy="779.062" r="4" fill="#0" id="circle210"/>
	<circle cx="596.636" cy="120.358" r="4" fill="#0" id="circle211"/>
	<circle cx="596.636" cy="182.481" r="4" fill="#0" id="circle212"/>
	<circle cx="599.594" cy="368.851" r="4" fill="#0" id="circle213"/>
	<circle cx="605.511" cy="779.062" r="4" fill="#0" id="circle214"/>
	<circle cx="606.497" cy="122.33" r="4" fill="#0" id="circle215"/>
	<circle cx="606.497" cy="182.481" r="4" fill="#0" id="circle216"/>
	<circle cx="608.469" cy="373.781" r="4" fill="#0" id="circle217"/>
	<circle cx="615.372" cy="177.551" r="4" fill="#0" id="circle218"/>
	<circle cx="615.372" cy="779.062" r="4" fill="#0" id="circle219"/>
	<circle cx="616.358" cy="122.33" r="4" fill="#0" id="circle220"/>
	<circle cx="618.33" cy="373.781" r="4" fill="#0" id="circle221"/>
	<circle cx="625.233" cy="127.26" r="4" fill="#0" id="circle222"/>
	<circle cx="625.233" cy="177.551" r="4" fill="#0" id="circle223"/>
	<circle cx="625.233" cy="779.062" r="4" fill="#0" id="circle224"/>
	<circle cx="628.191" cy="373.781" r="4" fill="#0" id="circle225"/>
	<circle cx="634.107" cy="172.62" r="4" fill="#0" id="circle226"/>
	<circle cx="635.093" cy="127.26" r="4" fill="#0" id="circle227"/>
	<circle cx="635.093" cy="779.062" r="4" fill="#0" id="circle228"/>
	<circle cx="638.052" cy="373.781" r="4" fill="#0" id="circle229"/>
	<circle cx="642.982" cy="167.69" r="4" fill="#0" id="circle230"/>
	<circle cx="644.954" cy="129.233" r="4" fill="#0" id="circle231"/>
	<circle cx="644.954" cy="779.062" r="4" fill="#0" id="circle232"/>
	<circle cx="647.913" cy="373.781" r="4" fill="#0" id="circle233"/>
	<circle cx="651.857" cy="162.759" r="4" fill="#0" id="circle234"/>
	<circle cx="653.829" cy="134.163" r="4" fill="#0" id="circle235"/>
	<circle cx="654.815" cy="779.062" r="4" fill="#0" id="circle236"/>
	<circle cx="655.801" cy="152.899" r="4" fill="#0" id="circle237"/>
	<circle cx="657.773" cy="373.781" r="4" fill="#0" id="circle238"/>
	<circle cx="658.759" cy="143.038" r="4" fill="#0" id="circle239"/>
	<circle cx="664.676" cy="776.103" r="4" fill="#0" id="circle240"/>
	<circle cx="667.634" cy="373.781" r="4" fill="#0" id="circle241"/>
	<circle cx="674.537" cy="774.131" r="4" fill="#0" id="circle242"/>
	<circle cx="677.495" cy="373.781" r="4" fill="#0" id="circle243"/>
	<circle cx="684.398" cy="774.131" r="4" fill="#0" id="circle244"/>
	<circle cx="687.356" cy="373.781" r="4" fill="#0" id="circle245"/>
	<circle cx="693.272" cy="769.201" r="4" fill="#0" id="circle246"/>
	<circle cx="696.231" cy="378.712" r="4" fill="#0" id="circle247"/>
	<circle cx="702.147" cy="764.27" r="4" fill="#0" id="circle248"/>
	<circle cx="706.091" cy="378.712" r="4" fill="#0" id="circle249"/>
	<circle cx="712.008" cy="764.27" r="4" fill="#0" id="circle250"/>
	<circle cx="714.966" cy="383.642" r="4" fill="#0" id="circle251"/>
	<circle cx="721.869" cy="764.27" r="4" fill="#0" id="circle252"/>
	<circle cx="724.827" cy="386.6" r="4" fill="#0" id="circle253"/>
	<circle cx="730.744" cy="759.34" r="4" fill="#0" id="circle254"/>
	<circle cx="733.702" cy="391.531" r="4" fill="#0" id="circle255"/>
	<circle cx="740.604" cy="759.34" r="4" fill="#0" id="circle256"/>
	<circle cx="743.563" cy="395.475" r="4" fill="#0" id="circle257"/>
	<circle cx="750.465" cy="759.34" r="4" fill="#0" id="circle258"/>
	<circle cx="752.437" cy="400.406" r="4" fill="#0" id="circle259"/>
	<circle cx="759.34" cy="754.41" r="4" fill="#0" id="circle260"/>
	<circle cx="762.298" cy="404.35" r="4" fill="#0" id="circle261"/>
	<circle cx="769.201" cy="754.41" r="4" fill="#0" id="circle262"/>
	<circle cx="771.173" cy="409.28" r="4" fill="#0" id="circle263"/>
	<circle cx="778.076" cy="749.479" r="4" fill="#0" id="circle264"/>
	<circle cx="781.034" cy="413.225" r="4" fill="#0" id="circle265"/>
	<circle cx="787.936" cy="421.113" r="4" fill="#0" id="circle266"/>
	<circle cx="787.936" cy="746.521" r="4" fill="#0" id="circle267"/>
	<circle cx="792.867" cy="429.988" r="4" fill="#0" id="circle268"/>
	<circle cx="793.853" cy="439.849" r="4" fill="#0" id="circle269"/>
	<circle cx="797.797" cy="744.549" r="4" fill="#0" id="circle270"/>
	<circle cx="799.769" cy="447.738" r="4" fill="#0" id="circle271"/>
	<circle cx="806.672" cy="739.618" r="4" fill="#0" id="circle272"/>
	<circle cx="809.63" cy="447.738" r="4" fill="#0" id="circle273"/>
	<circle cx="815.547" cy="734.688" r="4" fill="#0" id="circle274"/>
	<circle cx="819.491" cy="447.738" r="4" fill="#0" id="circle275"/>
	<circle cx="824.421" cy="729.757" r="4" fill="#0" id="circle276"/>
	<circle cx="829.352" cy="447.738" r="4" fill="#0" id="circle277"/>
	<circle cx="834.282" cy="729.757" r="4" fill="#0" id="circle278"/>
	<circle cx="839.213" cy="447.738" r="4" fill="#0" id="circle279"/>
	<circle cx="843.157" cy="724.827" r="4" fill="#0" id="circle280"/>
	<circle cx="848.087" cy="452.668" r="4" fill="#0" id="circle281"/>
	<circle cx="853.018" cy="719.897" r="4" fill="#0" id="circle282"/>
	<circle cx="857.948" cy="455.626" r="4" fill="#0" id="circle283"/>
	<circle cx="862.879" cy="714.966" r="4" fill="#0" id="circle284"/>
	<circle cx="866.823" cy="460.557" r="4" fill="#0" id="circle285"/>
	<circle cx="872.74" cy="714.966" r="4" fill="#0" id="circle286"/>
	<circle cx="874.712" cy="467.459" r="4" fill="#0" id="circle287"/>
	<circle cx="882.6" cy="710.036" r="4" fill="#0" id="circle288"/>
	<circle cx="883.586" cy="472.39" r="4" fill="#0" id="circle289"/>
	<circle cx="891.475" cy="479.292" r="4" fill="#0" id="circle290"/>
	<circle cx="892.461" cy="705.105" r="4" fill="#0" id="circle291"/>
	<circle cx="897.392" cy="487.181" r="4" fill="#0" id="circle292"/>
	<circle cx="902.322" cy="705.105" r="4" fill="#0" id="circle293"/>
	<circle cx="907.252" cy="490.139" r="4" fill="#0" id="circle294"/>
	<circle cx="912.183" cy="700.175" r="4" fill="#0" id="circle295"/>
	<circle cx="915.141" cy="497.042" r="4" fill="#0" id="circle296"/>
	<circle cx="922.044" cy="695.245" r="4" fill="#0" id="circle297"/>
	<circle cx="924.016" cy="501.972" r="4" fill="#0" id="circle298"/>
	<circle cx="930.918" cy="509.861" r="4" fill="#0" id="circle299"/>
	<circle cx="931.905" cy="695.245" r="4" fill="#0" id="circle300"/>
	<circle cx="938.807" cy="516.763" r="4" fill="#0" id="circle301"/>
	<circle cx="940.779" cy="690.314" r="4" fill="#0" id="circle302"/>
	<circle cx="945.71" cy="524.652" r="4" fill="#0" id="circle303"/>
	<circle cx="948.668" cy="684.398" r="4" fill="#0" id="circle304"/>
	<circle cx="953.598" cy="531.555" r="4" fill="#0" id="circle305"/>
	<circle cx="956.557" cy="675.523" r="4" fill="#0" id="circle306"/>
	<circle cx="960.501" cy="539.443" r="4" fill="#0" id="circle307"/>
	<circle cx="964.445" cy="668.62" r="4" fill="#0" id="circle308"/>
	<circle cx="968.39" cy="546.346" r="4" fill="#0" id="circle309"/>
	<circle cx="971.348" cy="556.207" r="4" fill="#0" id="circle310"/>
	<circle cx="971.348" cy="660.732" r="4" fill="#0" id="circle311"/>
	<circle cx="976.278" cy="565.082" r="4" fill="#0" id="circle312"/>
	<circle cx="979.237" cy="653.829" r="4" fill="#0" id="circle313"/>
	<circle cx="981.209" cy="573.956" r="4" fill="#0" id="circle314"/>
	<circle cx="984.167" cy="643.968" r="4" fill="#0" id="circle315"/>
	<circle cx="985.153" cy="583.817" r="4" fill="#0" id="circle316"/>
	<circle cx="986.139" cy="593.678" r="4" fill="#0" id="circle317"/>
	<circle cx="989.097" cy="634.107" r="4" fill="#0" id="circle318"/>
	<circle cx="991.07" cy="602.553" r="4" fill="#0" id="circle319"/>
	<circle cx="994.028" cy="624.247" r="4" fill="#0" id="circle320"/>
	<circle cx="996" cy="611.427" r="4" fill="#0" id="circle321"/>
	</g>
</svg>