<?xml version="1.0" encoding="UTF-8" standalone="no"?>
<!-- Created with CurveBenchmark -->
<svg
	xmlns:dc="http://purl.org/dc/elements/1.1/"
	xmlns:cc="http://creativecommons.org/ns#"
	xmlns:rdf="http://www.w3.org/1999/02/22-rdf-syntax-ns#"
	xmlns:svg="http://www.w3.org/2000/svg"
	xmlns="http://www.w3.org/2000/svg"
	xmlns:sodipodi="http://sodipodi.sourceforge.net/DTD/sodipodi-0.dtd"
	xmlns:inkscape="http://www.inkscape.org/namespaces/inkscape"
	width="1000"
	height="1000"
	id="svg2"
	version="1.1"
	sodipodi:docname="manifold/crust-stef11.png.txt">
<defs
	id="defs4" />
<metadata
	id="metadata7">
	<rdf:RDF>
		<cc:Work
			rdf:about="">
			<dc:format>image/svg+xml</dc:format>
			<dc:type
				rdf:resource="http://purl.org/dc/dcmitype/StillImage" />
			<dc:title></dc:title>
		</cc:Work>
	</rdf:RDF>
</metadata>
<g
	inkscape:label="Layer 1"
	inkscape:groupmode="layer"
	id="layer1">
	<path style="fill:none;stroke:red;stroke-width:1px;stroke-linecap:butt;stroke-linejoin:miter;stroke-opacity:1" d="M 21.6199,35.7158 35.7158,21.6199 z" id="boundary" inkscape:connector-curvature="0" />
	<path style="fill:none;stroke:red;stroke-width:1px;stroke-linecap:butt;stroke-linejoin:miter;stroke-opacity:1" d="M 49.8117,7.52398 35.7158,21.6199 z" id="boundary" inkscape:connector-curvature="0" />
	<path style="fill:none;stroke:red;stroke-width:1px;stroke-linecap:butt;stroke-linejoin:miter;stroke-opacity:1" d="M 12.8099,62.1456 21.6199,35.7158 z" id="boundary" inkscape:connector-curvature="0" />
	<path style="fill:none;stroke:red;stroke-width:1px;stroke-linecap:butt;stroke-linejoin:miter;stroke-opacity:1" d="M 49.8117,7.52398 67.4316,4 z" id="boundary" inkscape:connector-curvature="0" />
	<path style="fill:none;stroke:red;stroke-width:1px;stroke-linecap:butt;stroke-linejoin:miter;stroke-opacity:1" d="M 12.8099,79.7655 12.8099,97.3854 z" id="boundary" inkscape:connector-curvature="0" />
	<path style="fill:none;stroke:red;stroke-width:1px;stroke-linecap:butt;stroke-linejoin:miter;stroke-opacity:1" d="M 12.8099,62.1456 12.8099,79.7655 z" id="boundary" inkscape:connector-curvature="0" />
	<path style="fill:none;stroke:red;stroke-width:1px;stroke-linecap:butt;stroke-linejoin:miter;stroke-opacity:1" d="M 26.9059,109.719 12.8099,97.3854 z" id="boundary" inkscape:connector-curvature="0" />
	<path style="fill:none;stroke:red;stroke-width:1px;stroke-linecap:butt;stroke-linejoin:miter;stroke-opacity:1" d="M 67.4316,4 85.0515,4 z" id="boundary" inkscape:connector-curvature="0" />
	<path style="fill:none;stroke:red;stroke-width:1px;stroke-linecap:butt;stroke-linejoin:miter;stroke-opacity:1" d="M 85.0515,4 102.671,4 z" id="boundary" inkscape:connector-curvature="0" />
	<path style="fill:none;stroke:red;stroke-width:1px;stroke-linecap:butt;stroke-linejoin:miter;stroke-opacity:1" d="M 102.671,4 118.529,12.8099 z" id="boundary" inkscape:connector-curvature="0" />
	<path style="fill:none;stroke:red;stroke-width:1px;stroke-linecap:butt;stroke-linejoin:miter;stroke-opacity:1" d="M 132.625,23.3819 146.721,35.7158 z" id="boundary" inkscape:connector-curvature="0" />
	<path style="fill:none;stroke:red;stroke-width:1px;stroke-linecap:butt;stroke-linejoin:miter;stroke-opacity:1" d="M 132.625,23.3819 118.529,12.8099 z" id="boundary" inkscape:connector-curvature="0" />
	<path style="fill:none;stroke:red;stroke-width:1px;stroke-linecap:butt;stroke-linejoin:miter;stroke-opacity:1" d="M 146.721,35.7158 160.817,48.0497 z" id="boundary" inkscape:connector-curvature="0" />
	<path style="fill:none;stroke:red;stroke-width:1px;stroke-linecap:butt;stroke-linejoin:miter;stroke-opacity:1" d="M 173.151,62.1456 160.817,48.0497 z" id="boundary" inkscape:connector-curvature="0" />
	<path style="fill:none;stroke:red;stroke-width:1px;stroke-linecap:butt;stroke-linejoin:miter;stroke-opacity:1" d="M 26.9059,109.719 41.0018,120.291 z" id="boundary" inkscape:connector-curvature="0" />
	<path style="fill:none;stroke:red;stroke-width:1px;stroke-linecap:butt;stroke-linejoin:miter;stroke-opacity:1" d="M 56.8597,129.101 41.0018,120.291 z" id="boundary" inkscape:connector-curvature="0" />
	<path style="fill:none;stroke:red;stroke-width:1px;stroke-linecap:butt;stroke-linejoin:miter;stroke-opacity:1" d="M 56.8597,129.101 72.7176,137.911 z" id="boundary" inkscape:connector-curvature="0" />
	<path style="fill:none;stroke:red;stroke-width:1px;stroke-linecap:butt;stroke-linejoin:miter;stroke-opacity:1" d="M 90.3375,137.911 106.195,146.721 z" id="boundary" inkscape:connector-curvature="0" />
	<path style="fill:none;stroke:red;stroke-width:1px;stroke-linecap:butt;stroke-linejoin:miter;stroke-opacity:1" d="M 106.195,146.721 109.719,164.341 z" id="boundary" inkscape:connector-curvature="0" />
	<path style="fill:none;stroke:red;stroke-width:1px;stroke-linecap:butt;stroke-linejoin:miter;stroke-opacity:1" d="M 72.7176,137.911 90.3375,137.911 z" id="boundary" inkscape:connector-curvature="0" />
	<path style="fill:none;stroke:red;stroke-width:1px;stroke-linecap:butt;stroke-linejoin:miter;stroke-opacity:1" d="M 109.719,164.341 115.005,181.961 z" id="boundary" inkscape:connector-curvature="0" />
	<path style="fill:none;stroke:red;stroke-width:1px;stroke-linecap:butt;stroke-linejoin:miter;stroke-opacity:1" d="M 123.815,197.819 136.149,211.915 z" id="boundary" inkscape:connector-curvature="0" />
	<path style="fill:none;stroke:red;stroke-width:1px;stroke-linecap:butt;stroke-linejoin:miter;stroke-opacity:1" d="M 136.149,211.915 153.769,217.201 z" id="boundary" inkscape:connector-curvature="0" />
	<path style="fill:none;stroke:red;stroke-width:1px;stroke-linecap:butt;stroke-linejoin:miter;stroke-opacity:1" d="M 123.815,197.819 115.005,181.961 z" id="boundary" inkscape:connector-curvature="0" />
	<path style="fill:none;stroke:red;stroke-width:1px;stroke-linecap:butt;stroke-linejoin:miter;stroke-opacity:1" d="M 169.627,226.011 153.769,217.201 z" id="boundary" inkscape:connector-curvature="0" />
	<path style="fill:none;stroke:red;stroke-width:1px;stroke-linecap:butt;stroke-linejoin:miter;stroke-opacity:1" d="M 169.627,226.011 185.485,234.821 z" id="boundary" inkscape:connector-curvature="0" />
	<path style="fill:none;stroke:red;stroke-width:1px;stroke-linecap:butt;stroke-linejoin:miter;stroke-opacity:1" d="M 173.151,62.1456 187.247,74.4796 z" id="boundary" inkscape:connector-curvature="0" />
	<path style="fill:none;stroke:red;stroke-width:1px;stroke-linecap:butt;stroke-linejoin:miter;stroke-opacity:1" d="M 218.963,56.8597 234.821,48.0497 z" id="boundary" inkscape:connector-curvature="0" />
	<path style="fill:none;stroke:red;stroke-width:1px;stroke-linecap:butt;stroke-linejoin:miter;stroke-opacity:1" d="M 218.963,56.8597 203.105,65.6696 z" id="boundary" inkscape:connector-curvature="0" />
	<path style="fill:none;stroke:red;stroke-width:1px;stroke-linecap:butt;stroke-linejoin:miter;stroke-opacity:1" d="M 203.105,65.6696 187.247,74.4796 z" id="boundary" inkscape:connector-curvature="0" />
	<path style="fill:none;stroke:red;stroke-width:1px;stroke-linecap:butt;stroke-linejoin:miter;stroke-opacity:1" d="M 234.821,48.0497 250.679,56.8597 z" id="boundary" inkscape:connector-curvature="0" />
	<path style="fill:none;stroke:red;stroke-width:1px;stroke-linecap:butt;stroke-linejoin:miter;stroke-opacity:1" d="M 285.918,51.5737 268.298,51.5737 z" id="boundary" inkscape:connector-curvature="0" />
	<path style="fill:none;stroke:red;stroke-width:1px;stroke-linecap:butt;stroke-linejoin:miter;stroke-opacity:1" d="M 250.679,56.8597 268.298,51.5737 z" id="boundary" inkscape:connector-curvature="0" />
	<path style="fill:none;stroke:red;stroke-width:1px;stroke-linecap:butt;stroke-linejoin:miter;stroke-opacity:1" d="M 301.776,60.3837 285.918,51.5737 z" id="boundary" inkscape:connector-curvature="0" />
	<path style="fill:none;stroke:red;stroke-width:1px;stroke-linecap:butt;stroke-linejoin:miter;stroke-opacity:1" d="M 301.776,60.3837 312.348,74.4796 z" id="boundary" inkscape:connector-curvature="0" />
	<path style="fill:none;stroke:red;stroke-width:1px;stroke-linecap:butt;stroke-linejoin:miter;stroke-opacity:1" d="M 312.348,74.4796 328.206,83.2895 z" id="boundary" inkscape:connector-curvature="0" />
	<path style="fill:none;stroke:red;stroke-width:1px;stroke-linecap:butt;stroke-linejoin:miter;stroke-opacity:1" d="M 328.206,83.2895 345.826,85.0515 z" id="boundary" inkscape:connector-curvature="0" />
	<path style="fill:none;stroke:red;stroke-width:1px;stroke-linecap:butt;stroke-linejoin:miter;stroke-opacity:1" d="M 345.826,85.0515 358.16,99.1474 z" id="boundary" inkscape:connector-curvature="0" />
	<path style="fill:none;stroke:red;stroke-width:1px;stroke-linecap:butt;stroke-linejoin:miter;stroke-opacity:1" d="M 203.105,241.869 215.439,255.964 z" id="boundary" inkscape:connector-curvature="0" />
	<path style="fill:none;stroke:red;stroke-width:1px;stroke-linecap:butt;stroke-linejoin:miter;stroke-opacity:1" d="M 203.105,241.869 185.485,234.821 z" id="boundary" inkscape:connector-curvature="0" />
	<path style="fill:none;stroke:red;stroke-width:1px;stroke-linecap:butt;stroke-linejoin:miter;stroke-opacity:1" d="M 215.439,255.964 233.059,261.25 z" id="boundary" inkscape:connector-curvature="0" />
	<path style="fill:none;stroke:red;stroke-width:1px;stroke-linecap:butt;stroke-linejoin:miter;stroke-opacity:1" d="M 243.631,275.346 233.059,261.25 z" id="boundary" inkscape:connector-curvature="0" />
	<path style="fill:none;stroke:red;stroke-width:1px;stroke-linecap:butt;stroke-linejoin:miter;stroke-opacity:1" d="M 243.631,275.346 261.25,282.394 z" id="boundary" inkscape:connector-curvature="0" />
	<path style="fill:none;stroke:red;stroke-width:1px;stroke-linecap:butt;stroke-linejoin:miter;stroke-opacity:1" d="M 241.869,344.064 224.249,361.684 z" id="boundary" inkscape:connector-curvature="0" />
	<path style="fill:none;stroke:red;stroke-width:1px;stroke-linecap:butt;stroke-linejoin:miter;stroke-opacity:1" d="M 259.488,335.254 241.869,344.064 z" id="boundary" inkscape:connector-curvature="0" />
	<path style="fill:none;stroke:red;stroke-width:1px;stroke-linecap:butt;stroke-linejoin:miter;stroke-opacity:1" d="M 277.108,326.444 259.488,335.254 z" id="boundary" inkscape:connector-curvature="0" />
	<path style="fill:none;stroke:red;stroke-width:1px;stroke-linecap:butt;stroke-linejoin:miter;stroke-opacity:1" d="M 277.108,291.204 261.25,282.394 z" id="boundary" inkscape:connector-curvature="0" />
	<path style="fill:none;stroke:red;stroke-width:1px;stroke-linecap:butt;stroke-linejoin:miter;stroke-opacity:1" d="M 294.728,296.49 277.108,291.204 z" id="boundary" inkscape:connector-curvature="0" />
	<path style="fill:none;stroke:red;stroke-width:1px;stroke-linecap:butt;stroke-linejoin:miter;stroke-opacity:1" d="M 294.728,296.49 294.728,321.158 z" id="boundary" inkscape:connector-curvature="0" />
	<path style="fill:none;stroke:red;stroke-width:1px;stroke-linecap:butt;stroke-linejoin:miter;stroke-opacity:1" d="M 277.108,326.444 294.728,321.158 z" id="boundary" inkscape:connector-curvature="0" />
	<path style="fill:none;stroke:red;stroke-width:1px;stroke-linecap:butt;stroke-linejoin:miter;stroke-opacity:1" d="M 144.959,432.163 136.149,449.783 z" id="boundary" inkscape:connector-curvature="0" />
	<path style="fill:none;stroke:red;stroke-width:1px;stroke-linecap:butt;stroke-linejoin:miter;stroke-opacity:1" d="M 92.0995,564.313 83.2895,581.933 z" id="boundary" inkscape:connector-curvature="0" />
	<path style="fill:none;stroke:red;stroke-width:1px;stroke-linecap:butt;stroke-linejoin:miter;stroke-opacity:1" d="M 83.2895,581.933 74.4796,608.362 z" id="boundary" inkscape:connector-curvature="0" />
	<path style="fill:none;stroke:red;stroke-width:1px;stroke-linecap:butt;stroke-linejoin:miter;stroke-opacity:1" d="M 65.6696,625.982 74.4796,608.362 z" id="boundary" inkscape:connector-curvature="0" />
	<path style="fill:none;stroke:red;stroke-width:1px;stroke-linecap:butt;stroke-linejoin:miter;stroke-opacity:1" d="M 123.815,514.977 115.005,532.597 z" id="boundary" inkscape:connector-curvature="0" />
	<path style="fill:none;stroke:red;stroke-width:1px;stroke-linecap:butt;stroke-linejoin:miter;stroke-opacity:1" d="M 92.0995,564.313 106.195,550.217 z" id="boundary" inkscape:connector-curvature="0" />
	<path style="fill:none;stroke:red;stroke-width:1px;stroke-linecap:butt;stroke-linejoin:miter;stroke-opacity:1" d="M 106.195,550.217 115.005,532.597 z" id="boundary" inkscape:connector-curvature="0" />
	<path style="fill:none;stroke:red;stroke-width:1px;stroke-linecap:butt;stroke-linejoin:miter;stroke-opacity:1" d="M 136.149,467.403 127.339,493.833 z" id="boundary" inkscape:connector-curvature="0" />
	<path style="fill:none;stroke:red;stroke-width:1px;stroke-linecap:butt;stroke-linejoin:miter;stroke-opacity:1" d="M 123.815,514.977 127.339,493.833 z" id="boundary" inkscape:connector-curvature="0" />
	<path style="fill:none;stroke:red;stroke-width:1px;stroke-linecap:butt;stroke-linejoin:miter;stroke-opacity:1" d="M 136.149,449.783 136.149,467.403 z" id="boundary" inkscape:connector-curvature="0" />
	<path style="fill:none;stroke:red;stroke-width:1px;stroke-linecap:butt;stroke-linejoin:miter;stroke-opacity:1" d="M 120.291,613.648 134.387,601.314 z" id="boundary" inkscape:connector-curvature="0" />
	<path style="fill:none;stroke:red;stroke-width:1px;stroke-linecap:butt;stroke-linejoin:miter;stroke-opacity:1" d="M 134.387,601.314 146.721,587.218 z" id="boundary" inkscape:connector-curvature="0" />
	<path style="fill:none;stroke:red;stroke-width:1px;stroke-linecap:butt;stroke-linejoin:miter;stroke-opacity:1" d="M 120.291,613.648 120.291,631.268 z" id="boundary" inkscape:connector-curvature="0" />
	<path style="fill:none;stroke:red;stroke-width:1px;stroke-linecap:butt;stroke-linejoin:miter;stroke-opacity:1" d="M 12.8099,714.082 26.9059,699.986 z" id="boundary" inkscape:connector-curvature="0" />
	<path style="fill:none;stroke:red;stroke-width:1px;stroke-linecap:butt;stroke-linejoin:miter;stroke-opacity:1" d="M 44.5258,691.176 26.9059,699.986 z" id="boundary" inkscape:connector-curvature="0" />
	<path style="fill:none;stroke:red;stroke-width:1px;stroke-linecap:butt;stroke-linejoin:miter;stroke-opacity:1" d="M 12.8099,714.082 4,731.702 z" id="boundary" inkscape:connector-curvature="0" />
	<path style="fill:none;stroke:red;stroke-width:1px;stroke-linecap:butt;stroke-linejoin:miter;stroke-opacity:1" d="M 44.5258,691.176 53.3357,673.556 z" id="boundary" inkscape:connector-curvature="0" />
	<path style="fill:none;stroke:red;stroke-width:1px;stroke-linecap:butt;stroke-linejoin:miter;stroke-opacity:1" d="M 56.8597,652.412 53.3357,673.556 z" id="boundary" inkscape:connector-curvature="0" />
	<path style="fill:none;stroke:red;stroke-width:1px;stroke-linecap:butt;stroke-linejoin:miter;stroke-opacity:1" d="M 65.6696,625.982 56.8597,652.412 z" id="boundary" inkscape:connector-curvature="0" />
	<path style="fill:none;stroke:red;stroke-width:1px;stroke-linecap:butt;stroke-linejoin:miter;stroke-opacity:1" d="M 21.6199,736.988 4,731.702 z" id="boundary" inkscape:connector-curvature="0" />
	<path style="fill:none;stroke:red;stroke-width:1px;stroke-linecap:butt;stroke-linejoin:miter;stroke-opacity:1" d="M 39.2398,736.988 21.6199,736.988 z" id="boundary" inkscape:connector-curvature="0" />
	<path style="fill:none;stroke:red;stroke-width:1px;stroke-linecap:butt;stroke-linejoin:miter;stroke-opacity:1" d="M 39.2398,736.988 56.8597,736.988 z" id="boundary" inkscape:connector-curvature="0" />
	<path style="fill:none;stroke:red;stroke-width:1px;stroke-linecap:butt;stroke-linejoin:miter;stroke-opacity:1" d="M 56.8597,736.988 74.4796,736.988 z" id="boundary" inkscape:connector-curvature="0" />
	<path style="fill:none;stroke:red;stroke-width:1px;stroke-linecap:butt;stroke-linejoin:miter;stroke-opacity:1" d="M 120.291,648.888 120.291,666.508 z" id="boundary" inkscape:connector-curvature="0" />
	<path style="fill:none;stroke:red;stroke-width:1px;stroke-linecap:butt;stroke-linejoin:miter;stroke-opacity:1" d="M 120.291,631.268 120.291,648.888 z" id="boundary" inkscape:connector-curvature="0" />
	<path style="fill:none;stroke:red;stroke-width:1px;stroke-linecap:butt;stroke-linejoin:miter;stroke-opacity:1" d="M 120.291,666.508 120.291,684.128 z" id="boundary" inkscape:connector-curvature="0" />
	<path style="fill:none;stroke:red;stroke-width:1px;stroke-linecap:butt;stroke-linejoin:miter;stroke-opacity:1" d="M 92.0995,736.988 74.4796,736.988 z" id="boundary" inkscape:connector-curvature="0" />
	<path style="fill:none;stroke:red;stroke-width:1px;stroke-linecap:butt;stroke-linejoin:miter;stroke-opacity:1" d="M 120.291,684.128 120.291,701.748 z" id="boundary" inkscape:connector-curvature="0" />
	<path style="fill:none;stroke:red;stroke-width:1px;stroke-linecap:butt;stroke-linejoin:miter;stroke-opacity:1" d="M 106.195,726.416 92.0995,736.988 z" id="boundary" inkscape:connector-curvature="0" />
	<path style="fill:none;stroke:red;stroke-width:1px;stroke-linecap:butt;stroke-linejoin:miter;stroke-opacity:1" d="M 120.291,701.748 106.195,726.416 z" id="boundary" inkscape:connector-curvature="0" />
	<path style="fill:none;stroke:red;stroke-width:1px;stroke-linecap:butt;stroke-linejoin:miter;stroke-opacity:1" d="M 196.057,400.448 180.199,409.258 z" id="boundary" inkscape:connector-curvature="0" />
	<path style="fill:none;stroke:red;stroke-width:1px;stroke-linecap:butt;stroke-linejoin:miter;stroke-opacity:1" d="M 206.629,379.304 196.057,400.448 z" id="boundary" inkscape:connector-curvature="0" />
	<path style="fill:none;stroke:red;stroke-width:1px;stroke-linecap:butt;stroke-linejoin:miter;stroke-opacity:1" d="M 162.579,414.544 180.199,409.258 z" id="boundary" inkscape:connector-curvature="0" />
	<path style="fill:none;stroke:red;stroke-width:1px;stroke-linecap:butt;stroke-linejoin:miter;stroke-opacity:1" d="M 162.579,414.544 144.959,432.163 z" id="boundary" inkscape:connector-curvature="0" />
	<path style="fill:none;stroke:red;stroke-width:1px;stroke-linecap:butt;stroke-linejoin:miter;stroke-opacity:1" d="M 243.631,446.259 226.011,449.783 z" id="boundary" inkscape:connector-curvature="0" />
	<path style="fill:none;stroke:red;stroke-width:1px;stroke-linecap:butt;stroke-linejoin:miter;stroke-opacity:1" d="M 224.249,361.684 206.629,379.304 z" id="boundary" inkscape:connector-curvature="0" />
	<path style="fill:none;stroke:red;stroke-width:1px;stroke-linecap:butt;stroke-linejoin:miter;stroke-opacity:1" d="M 208.391,446.259 226.011,449.783 z" id="boundary" inkscape:connector-curvature="0" />
	<path style="fill:none;stroke:red;stroke-width:1px;stroke-linecap:butt;stroke-linejoin:miter;stroke-opacity:1" d="M 208.391,446.259 208.391,463.879 z" id="boundary" inkscape:connector-curvature="0" />
	<path style="fill:none;stroke:red;stroke-width:1px;stroke-linecap:butt;stroke-linejoin:miter;stroke-opacity:1" d="M 261.25,446.259 243.631,446.259 z" id="boundary" inkscape:connector-curvature="0" />
	<path style="fill:none;stroke:red;stroke-width:1px;stroke-linecap:butt;stroke-linejoin:miter;stroke-opacity:1" d="M 278.87,437.449 261.25,446.259 z" id="boundary" inkscape:connector-curvature="0" />
	<path style="fill:none;stroke:red;stroke-width:1px;stroke-linecap:butt;stroke-linejoin:miter;stroke-opacity:1" d="M 314.11,419.829 331.73,411.02 z" id="boundary" inkscape:connector-curvature="0" />
	<path style="fill:none;stroke:red;stroke-width:1px;stroke-linecap:butt;stroke-linejoin:miter;stroke-opacity:1" d="M 296.49,428.639 278.87,437.449 z" id="boundary" inkscape:connector-curvature="0" />
	<path style="fill:none;stroke:red;stroke-width:1px;stroke-linecap:butt;stroke-linejoin:miter;stroke-opacity:1" d="M 296.49,428.639 314.11,419.829 z" id="boundary" inkscape:connector-curvature="0" />
	<path style="fill:none;stroke:red;stroke-width:1px;stroke-linecap:butt;stroke-linejoin:miter;stroke-opacity:1" d="M 349.35,402.21 331.73,411.02 z" id="boundary" inkscape:connector-curvature="0" />
	<path style="fill:none;stroke:red;stroke-width:1px;stroke-linecap:butt;stroke-linejoin:miter;stroke-opacity:1" d="M 199.581,499.119 190.771,516.739 z" id="boundary" inkscape:connector-curvature="0" />
	<path style="fill:none;stroke:red;stroke-width:1px;stroke-linecap:butt;stroke-linejoin:miter;stroke-opacity:1" d="M 208.391,481.499 199.581,499.119 z" id="boundary" inkscape:connector-curvature="0" />
	<path style="fill:none;stroke:red;stroke-width:1px;stroke-linecap:butt;stroke-linejoin:miter;stroke-opacity:1" d="M 181.961,534.359 190.771,516.739 z" id="boundary" inkscape:connector-curvature="0" />
	<path style="fill:none;stroke:red;stroke-width:1px;stroke-linecap:butt;stroke-linejoin:miter;stroke-opacity:1" d="M 160.817,574.885 146.721,587.218 z" id="boundary" inkscape:connector-curvature="0" />
	<path style="fill:none;stroke:red;stroke-width:1px;stroke-linecap:butt;stroke-linejoin:miter;stroke-opacity:1" d="M 173.151,551.979 160.817,574.885 z" id="boundary" inkscape:connector-curvature="0" />
	<path style="fill:none;stroke:red;stroke-width:1px;stroke-linecap:butt;stroke-linejoin:miter;stroke-opacity:1" d="M 173.151,551.979 181.961,534.359 z" id="boundary" inkscape:connector-curvature="0" />
	<path style="fill:none;stroke:red;stroke-width:1px;stroke-linecap:butt;stroke-linejoin:miter;stroke-opacity:1" d="M 208.391,463.879 208.391,481.499 z" id="boundary" inkscape:connector-curvature="0" />
	<path style="fill:none;stroke:red;stroke-width:1px;stroke-linecap:butt;stroke-linejoin:miter;stroke-opacity:1" d="M 375.78,106.195 358.16,99.1474 z" id="boundary" inkscape:connector-curvature="0" />
	<path style="fill:none;stroke:red;stroke-width:1px;stroke-linecap:butt;stroke-linejoin:miter;stroke-opacity:1" d="M 375.78,106.195 388.114,120.291 z" id="boundary" inkscape:connector-curvature="0" />
	<path style="fill:none;stroke:red;stroke-width:1px;stroke-linecap:butt;stroke-linejoin:miter;stroke-opacity:1" d="M 402.21,132.625 388.114,120.291 z" id="boundary" inkscape:connector-curvature="0" />
	<path style="fill:none;stroke:red;stroke-width:1px;stroke-linecap:butt;stroke-linejoin:miter;stroke-opacity:1" d="M 402.21,132.625 414.544,146.721 z" id="boundary" inkscape:connector-curvature="0" />
	<path style="fill:none;stroke:red;stroke-width:1px;stroke-linecap:butt;stroke-linejoin:miter;stroke-opacity:1" d="M 414.544,146.721 428.639,159.055 z" id="boundary" inkscape:connector-curvature="0" />
	<path style="fill:none;stroke:red;stroke-width:1px;stroke-linecap:butt;stroke-linejoin:miter;stroke-opacity:1" d="M 440.973,173.151 428.639,159.055 z" id="boundary" inkscape:connector-curvature="0" />
	<path style="fill:none;stroke:red;stroke-width:1px;stroke-linecap:butt;stroke-linejoin:miter;stroke-opacity:1" d="M 440.973,173.151 449.783,189.009 z" id="boundary" inkscape:connector-curvature="0" />
	<path style="fill:none;stroke:red;stroke-width:1px;stroke-linecap:butt;stroke-linejoin:miter;stroke-opacity:1" d="M 462.117,203.105 449.783,189.009 z" id="boundary" inkscape:connector-curvature="0" />
	<path style="fill:none;stroke:red;stroke-width:1px;stroke-linecap:butt;stroke-linejoin:miter;stroke-opacity:1" d="M 476.213,215.439 488.547,229.535 z" id="boundary" inkscape:connector-curvature="0" />
	<path style="fill:none;stroke:red;stroke-width:1px;stroke-linecap:butt;stroke-linejoin:miter;stroke-opacity:1" d="M 476.213,215.439 462.117,203.105 z" id="boundary" inkscape:connector-curvature="0" />
	<path style="fill:none;stroke:red;stroke-width:1px;stroke-linecap:butt;stroke-linejoin:miter;stroke-opacity:1" d="M 488.547,229.535 502.643,241.869 z" id="boundary" inkscape:connector-curvature="0" />
	<path style="fill:none;stroke:red;stroke-width:1px;stroke-linecap:butt;stroke-linejoin:miter;stroke-opacity:1" d="M 502.643,241.869 514.977,255.964 z" id="boundary" inkscape:connector-curvature="0" />
	<path style="fill:none;stroke:red;stroke-width:1px;stroke-linecap:butt;stroke-linejoin:miter;stroke-opacity:1" d="M 529.073,268.298 541.407,282.394 z" id="boundary" inkscape:connector-curvature="0" />
	<path style="fill:none;stroke:red;stroke-width:1px;stroke-linecap:butt;stroke-linejoin:miter;stroke-opacity:1" d="M 550.217,298.252 541.407,282.394 z" id="boundary" inkscape:connector-curvature="0" />
	<path style="fill:none;stroke:red;stroke-width:1px;stroke-linecap:butt;stroke-linejoin:miter;stroke-opacity:1" d="M 529.073,268.298 514.977,255.964 z" id="boundary" inkscape:connector-curvature="0" />
	<path style="fill:none;stroke:red;stroke-width:1px;stroke-linecap:butt;stroke-linejoin:miter;stroke-opacity:1" d="M 557.265,315.872 550.217,298.252 z" id="boundary" inkscape:connector-curvature="0" />
	<path style="fill:none;stroke:red;stroke-width:1px;stroke-linecap:butt;stroke-linejoin:miter;stroke-opacity:1" d="M 414.544,375.78 398.686,384.59 z" id="boundary" inkscape:connector-curvature="0" />
	<path style="fill:none;stroke:red;stroke-width:1px;stroke-linecap:butt;stroke-linejoin:miter;stroke-opacity:1" d="M 418.067,393.4 414.544,375.78 z" id="boundary" inkscape:connector-curvature="0" />
	<path style="fill:none;stroke:red;stroke-width:1px;stroke-linecap:butt;stroke-linejoin:miter;stroke-opacity:1" d="M 398.686,384.59 381.066,389.876 z" id="boundary" inkscape:connector-curvature="0" />
	<path style="fill:none;stroke:red;stroke-width:1px;stroke-linecap:butt;stroke-linejoin:miter;stroke-opacity:1" d="M 366.97,402.21 381.066,389.876 z" id="boundary" inkscape:connector-curvature="0" />
	<path style="fill:none;stroke:red;stroke-width:1px;stroke-linecap:butt;stroke-linejoin:miter;stroke-opacity:1" d="M 349.35,402.21 366.97,402.21 z" id="boundary" inkscape:connector-curvature="0" />
	<path style="fill:none;stroke:red;stroke-width:1px;stroke-linecap:butt;stroke-linejoin:miter;stroke-opacity:1" d="M 426.877,409.258 418.067,393.4 z" id="boundary" inkscape:connector-curvature="0" />
	<path style="fill:none;stroke:red;stroke-width:1px;stroke-linecap:butt;stroke-linejoin:miter;stroke-opacity:1" d="M 430.401,426.877 426.877,409.258 z" id="boundary" inkscape:connector-curvature="0" />
	<path style="fill:none;stroke:red;stroke-width:1px;stroke-linecap:butt;stroke-linejoin:miter;stroke-opacity:1" d="M 569.599,349.35 560.789,333.492 z" id="boundary" inkscape:connector-curvature="0" />
	<path style="fill:none;stroke:red;stroke-width:1px;stroke-linecap:butt;stroke-linejoin:miter;stroke-opacity:1" d="M 560.789,333.492 557.265,315.872 z" id="boundary" inkscape:connector-curvature="0" />
	<path style="fill:none;stroke:red;stroke-width:1px;stroke-linecap:butt;stroke-linejoin:miter;stroke-opacity:1" d="M 596.028,370.494 578.409,365.208 z" id="boundary" inkscape:connector-curvature="0" />
	<path style="fill:none;stroke:red;stroke-width:1px;stroke-linecap:butt;stroke-linejoin:miter;stroke-opacity:1" d="M 569.599,349.35 578.409,365.208 z" id="boundary" inkscape:connector-curvature="0" />
	<path style="fill:none;stroke:red;stroke-width:1px;stroke-linecap:butt;stroke-linejoin:miter;stroke-opacity:1" d="M 604.838,403.972 596.028,388.114 z" id="boundary" inkscape:connector-curvature="0" />
	<path style="fill:none;stroke:red;stroke-width:1px;stroke-linecap:butt;stroke-linejoin:miter;stroke-opacity:1" d="M 596.028,370.494 596.028,388.114 z" id="boundary" inkscape:connector-curvature="0" />
	<path style="fill:none;stroke:red;stroke-width:1px;stroke-linecap:butt;stroke-linejoin:miter;stroke-opacity:1" d="M 819.801,312.348 837.421,303.538 z" id="boundary" inkscape:connector-curvature="0" />
	<path style="fill:none;stroke:red;stroke-width:1px;stroke-linecap:butt;stroke-linejoin:miter;stroke-opacity:1" d="M 855.041,303.538 837.421,303.538 z" id="boundary" inkscape:connector-curvature="0" />
	<path style="fill:none;stroke:red;stroke-width:1px;stroke-linecap:butt;stroke-linejoin:miter;stroke-opacity:1" d="M 805.705,326.444 819.801,312.348 z" id="boundary" inkscape:connector-curvature="0" />
	<path style="fill:none;stroke:red;stroke-width:1px;stroke-linecap:butt;stroke-linejoin:miter;stroke-opacity:1" d="M 895.567,338.778 884.995,324.682 z" id="boundary" inkscape:connector-curvature="0" />
	<path style="fill:none;stroke:red;stroke-width:1px;stroke-linecap:butt;stroke-linejoin:miter;stroke-opacity:1" d="M 884.995,324.682 870.899,312.348 z" id="boundary" inkscape:connector-curvature="0" />
	<path style="fill:none;stroke:red;stroke-width:1px;stroke-linecap:butt;stroke-linejoin:miter;stroke-opacity:1" d="M 855.041,303.538 870.899,312.348 z" id="boundary" inkscape:connector-curvature="0" />
	<path style="fill:none;stroke:red;stroke-width:1px;stroke-linecap:butt;stroke-linejoin:miter;stroke-opacity:1" d="M 805.705,326.444 796.895,344.064 z" id="boundary" inkscape:connector-curvature="0" />
	<path style="fill:none;stroke:red;stroke-width:1px;stroke-linecap:butt;stroke-linejoin:miter;stroke-opacity:1" d="M 784.561,365.208 796.895,344.064 z" id="boundary" inkscape:connector-curvature="0" />
	<path style="fill:none;stroke:red;stroke-width:1px;stroke-linecap:butt;stroke-linejoin:miter;stroke-opacity:1" d="M 784.561,365.208 770.465,379.304 z" id="boundary" inkscape:connector-curvature="0" />
	<path style="fill:none;stroke:red;stroke-width:1px;stroke-linecap:butt;stroke-linejoin:miter;stroke-opacity:1" d="M 740.512,400.448 756.369,391.638 z" id="boundary" inkscape:connector-curvature="0" />
	<path style="fill:none;stroke:red;stroke-width:1px;stroke-linecap:butt;stroke-linejoin:miter;stroke-opacity:1" d="M 707.034,409.258 724.654,409.258 z" id="boundary" inkscape:connector-curvature="0" />
	<path style="fill:none;stroke:red;stroke-width:1px;stroke-linecap:butt;stroke-linejoin:miter;stroke-opacity:1" d="M 724.654,409.258 740.512,400.448 z" id="boundary" inkscape:connector-curvature="0" />
	<path style="fill:none;stroke:red;stroke-width:1px;stroke-linecap:butt;stroke-linejoin:miter;stroke-opacity:1" d="M 756.369,391.638 770.465,379.304 z" id="boundary" inkscape:connector-curvature="0" />
	<path style="fill:none;stroke:red;stroke-width:1px;stroke-linecap:butt;stroke-linejoin:miter;stroke-opacity:1" d="M 921.996,363.446 909.663,349.35 z" id="boundary" inkscape:connector-curvature="0" />
	<path style="fill:none;stroke:red;stroke-width:1px;stroke-linecap:butt;stroke-linejoin:miter;stroke-opacity:1" d="M 909.663,349.35 895.567,338.778 z" id="boundary" inkscape:connector-curvature="0" />
	<path style="fill:none;stroke:red;stroke-width:1px;stroke-linecap:butt;stroke-linejoin:miter;stroke-opacity:1" d="M 936.092,374.018 921.996,363.446 z" id="boundary" inkscape:connector-curvature="0" />
	<path style="fill:none;stroke:red;stroke-width:1px;stroke-linecap:butt;stroke-linejoin:miter;stroke-opacity:1" d="M 951.95,382.828 936.092,374.018 z" id="boundary" inkscape:connector-curvature="0" />
	<path style="fill:none;stroke:red;stroke-width:1px;stroke-linecap:butt;stroke-linejoin:miter;stroke-opacity:1" d="M 964.284,396.924 951.95,382.828 z" id="boundary" inkscape:connector-curvature="0" />
	<path style="fill:none;stroke:red;stroke-width:1px;stroke-linecap:butt;stroke-linejoin:miter;stroke-opacity:1" d="M 964.284,396.924 978.38,409.258 z" id="boundary" inkscape:connector-curvature="0" />
	<path style="fill:none;stroke:red;stroke-width:1px;stroke-linecap:butt;stroke-linejoin:miter;stroke-opacity:1" d="M 994.238,418.067 978.38,409.258 z" id="boundary" inkscape:connector-curvature="0" />
	<path style="fill:none;stroke:red;stroke-width:1px;stroke-linecap:butt;stroke-linejoin:miter;stroke-opacity:1" d="M 707.034,409.258 691.176,418.067 z" id="boundary" inkscape:connector-curvature="0" />
	<path style="fill:none;stroke:red;stroke-width:1px;stroke-linecap:butt;stroke-linejoin:miter;stroke-opacity:1" d="M 439.211,442.735 430.401,426.877 z" id="boundary" inkscape:connector-curvature="0" />
	<path style="fill:none;stroke:red;stroke-width:1px;stroke-linecap:butt;stroke-linejoin:miter;stroke-opacity:1" d="M 439.211,442.735 453.307,455.069 z" id="boundary" inkscape:connector-curvature="0" />
	<path style="fill:none;stroke:red;stroke-width:1px;stroke-linecap:butt;stroke-linejoin:miter;stroke-opacity:1" d="M 463.879,469.165 453.307,455.069 z" id="boundary" inkscape:connector-curvature="0" />
	<path style="fill:none;stroke:red;stroke-width:1px;stroke-linecap:butt;stroke-linejoin:miter;stroke-opacity:1" d="M 463.879,469.165 477.975,481.499 z" id="boundary" inkscape:connector-curvature="0" />
	<path style="fill:none;stroke:red;stroke-width:1px;stroke-linecap:butt;stroke-linejoin:miter;stroke-opacity:1" d="M 490.309,495.595 477.975,481.499 z" id="boundary" inkscape:connector-curvature="0" />
	<path style="fill:none;stroke:red;stroke-width:1px;stroke-linecap:butt;stroke-linejoin:miter;stroke-opacity:1" d="M 507.929,502.643 490.309,495.595 z" id="boundary" inkscape:connector-curvature="0" />
	<path style="fill:none;stroke:red;stroke-width:1px;stroke-linecap:butt;stroke-linejoin:miter;stroke-opacity:1" d="M 604.838,421.591 604.838,403.972 z" id="boundary" inkscape:connector-curvature="0" />
	<path style="fill:none;stroke:red;stroke-width:1px;stroke-linecap:butt;stroke-linejoin:miter;stroke-opacity:1" d="M 604.838,439.211 604.838,421.591 z" id="boundary" inkscape:connector-curvature="0" />
	<path style="fill:none;stroke:red;stroke-width:1px;stroke-linecap:butt;stroke-linejoin:miter;stroke-opacity:1" d="M 604.838,439.211 615.41,453.307 z" id="boundary" inkscape:connector-curvature="0" />
	<path style="fill:none;stroke:red;stroke-width:1px;stroke-linecap:butt;stroke-linejoin:miter;stroke-opacity:1" d="M 631.268,462.117 641.84,446.259 z" id="boundary" inkscape:connector-curvature="0" />
	<path style="fill:none;stroke:red;stroke-width:1px;stroke-linecap:butt;stroke-linejoin:miter;stroke-opacity:1" d="M 631.268,462.117 615.41,453.307 z" id="boundary" inkscape:connector-curvature="0" />
	<path style="fill:none;stroke:red;stroke-width:1px;stroke-linecap:butt;stroke-linejoin:miter;stroke-opacity:1" d="M 659.46,437.449 641.84,446.259 z" id="boundary" inkscape:connector-curvature="0" />
	<path style="fill:none;stroke:red;stroke-width:1px;stroke-linecap:butt;stroke-linejoin:miter;stroke-opacity:1" d="M 677.08,428.639 659.46,437.449 z" id="boundary" inkscape:connector-curvature="0" />
	<path style="fill:none;stroke:red;stroke-width:1px;stroke-linecap:butt;stroke-linejoin:miter;stroke-opacity:1" d="M 507.929,502.643 520.263,516.739 z" id="boundary" inkscape:connector-curvature="0" />
	<path style="fill:none;stroke:red;stroke-width:1px;stroke-linecap:butt;stroke-linejoin:miter;stroke-opacity:1" d="M 534.359,529.073 520.263,516.739 z" id="boundary" inkscape:connector-curvature="0" />
	<path style="fill:none;stroke:red;stroke-width:1px;stroke-linecap:butt;stroke-linejoin:miter;stroke-opacity:1" d="M 534.359,529.073 546.693,543.169 z" id="boundary" inkscape:connector-curvature="0" />
	<path style="fill:none;stroke:red;stroke-width:1px;stroke-linecap:butt;stroke-linejoin:miter;stroke-opacity:1" d="M 546.693,543.169 564.313,550.217 z" id="boundary" inkscape:connector-curvature="0" />
	<path style="fill:none;stroke:red;stroke-width:1px;stroke-linecap:butt;stroke-linejoin:miter;stroke-opacity:1" d="M 664.746,564.313 648.888,573.123 z" id="boundary" inkscape:connector-curvature="0" />
	<path style="fill:none;stroke:red;stroke-width:1px;stroke-linecap:butt;stroke-linejoin:miter;stroke-opacity:1" d="M 597.79,566.075 580.171,559.027 z" id="boundary" inkscape:connector-curvature="0" />
	<path style="fill:none;stroke:red;stroke-width:1px;stroke-linecap:butt;stroke-linejoin:miter;stroke-opacity:1" d="M 597.79,566.075 613.648,574.885 z" id="boundary" inkscape:connector-curvature="0" />
	<path style="fill:none;stroke:red;stroke-width:1px;stroke-linecap:butt;stroke-linejoin:miter;stroke-opacity:1" d="M 580.171,559.027 564.313,550.217 z" id="boundary" inkscape:connector-curvature="0" />
	<path style="fill:none;stroke:red;stroke-width:1px;stroke-linecap:butt;stroke-linejoin:miter;stroke-opacity:1" d="M 631.268,573.123 613.648,574.885 z" id="boundary" inkscape:connector-curvature="0" />
	<path style="fill:none;stroke:red;stroke-width:1px;stroke-linecap:butt;stroke-linejoin:miter;stroke-opacity:1" d="M 631.268,573.123 648.888,573.123 z" id="boundary" inkscape:connector-curvature="0" />
	<path style="fill:none;stroke:red;stroke-width:1px;stroke-linecap:butt;stroke-linejoin:miter;stroke-opacity:1" d="M 677.08,428.639 691.176,418.067 z" id="boundary" inkscape:connector-curvature="0" />
	<path style="fill:none;stroke:red;stroke-width:1px;stroke-linecap:butt;stroke-linejoin:miter;stroke-opacity:1" d="M 805.705,455.069 795.133,469.165 z" id="boundary" inkscape:connector-curvature="0" />
	<path style="fill:none;stroke:red;stroke-width:1px;stroke-linecap:butt;stroke-linejoin:miter;stroke-opacity:1" d="M 759.893,469.165 777.513,469.165 z" id="boundary" inkscape:connector-curvature="0" />
	<path style="fill:none;stroke:red;stroke-width:1px;stroke-linecap:butt;stroke-linejoin:miter;stroke-opacity:1" d="M 795.133,469.165 777.513,469.165 z" id="boundary" inkscape:connector-curvature="0" />
	<path style="fill:none;stroke:red;stroke-width:1px;stroke-linecap:butt;stroke-linejoin:miter;stroke-opacity:1" d="M 759.893,469.165 745.798,481.499 z" id="boundary" inkscape:connector-curvature="0" />
	<path style="fill:none;stroke:red;stroke-width:1px;stroke-linecap:butt;stroke-linejoin:miter;stroke-opacity:1" d="M 823.325,458.593 805.705,455.069 z" id="boundary" inkscape:connector-curvature="0" />
	<path style="fill:none;stroke:red;stroke-width:1px;stroke-linecap:butt;stroke-linejoin:miter;stroke-opacity:1" d="M 893.805,446.259 876.185,446.259 z" id="boundary" inkscape:connector-curvature="0" />
	<path style="fill:none;stroke:red;stroke-width:1px;stroke-linecap:butt;stroke-linejoin:miter;stroke-opacity:1" d="M 994.238,418.067 996,435.687 z" id="boundary" inkscape:connector-curvature="0" />
	<path style="fill:none;stroke:red;stroke-width:1px;stroke-linecap:butt;stroke-linejoin:miter;stroke-opacity:1" d="M 996,435.687 981.904,446.259 z" id="boundary" inkscape:connector-curvature="0" />
	<path style="fill:none;stroke:red;stroke-width:1px;stroke-linecap:butt;stroke-linejoin:miter;stroke-opacity:1" d="M 840.945,455.069 858.565,449.783 z" id="boundary" inkscape:connector-curvature="0" />
	<path style="fill:none;stroke:red;stroke-width:1px;stroke-linecap:butt;stroke-linejoin:miter;stroke-opacity:1" d="M 858.565,449.783 876.185,446.259 z" id="boundary" inkscape:connector-curvature="0" />
	<path style="fill:none;stroke:red;stroke-width:1px;stroke-linecap:butt;stroke-linejoin:miter;stroke-opacity:1" d="M 823.325,458.593 840.945,455.069 z" id="boundary" inkscape:connector-curvature="0" />
	<path style="fill:none;stroke:red;stroke-width:1px;stroke-linecap:butt;stroke-linejoin:miter;stroke-opacity:1" d="M 893.805,446.259 911.425,446.259 z" id="boundary" inkscape:connector-curvature="0" />
	<path style="fill:none;stroke:red;stroke-width:1px;stroke-linecap:butt;stroke-linejoin:miter;stroke-opacity:1" d="M 929.044,446.259 911.425,446.259 z" id="boundary" inkscape:connector-curvature="0" />
	<path style="fill:none;stroke:red;stroke-width:1px;stroke-linecap:butt;stroke-linejoin:miter;stroke-opacity:1" d="M 929.044,446.259 946.664,446.259 z" id="boundary" inkscape:connector-curvature="0" />
	<path style="fill:none;stroke:red;stroke-width:1px;stroke-linecap:butt;stroke-linejoin:miter;stroke-opacity:1" d="M 964.284,446.259 946.664,446.259 z" id="boundary" inkscape:connector-curvature="0" />
	<path style="fill:none;stroke:red;stroke-width:1px;stroke-linecap:butt;stroke-linejoin:miter;stroke-opacity:1" d="M 981.904,446.259 964.284,446.259 z" id="boundary" inkscape:connector-curvature="0" />
	<path style="fill:none;stroke:red;stroke-width:1px;stroke-linecap:butt;stroke-linejoin:miter;stroke-opacity:1" d="M 736.988,499.119 745.798,481.499 z" id="boundary" inkscape:connector-curvature="0" />
	<path style="fill:none;stroke:red;stroke-width:1px;stroke-linecap:butt;stroke-linejoin:miter;stroke-opacity:1" d="M 724.654,513.215 736.988,499.119 z" id="boundary" inkscape:connector-curvature="0" />
	<path style="fill:none;stroke:red;stroke-width:1px;stroke-linecap:butt;stroke-linejoin:miter;stroke-opacity:1" d="M 664.746,564.313 682.366,555.503 z" id="boundary" inkscape:connector-curvature="0" />
	<path style="fill:none;stroke:red;stroke-width:1px;stroke-linecap:butt;stroke-linejoin:miter;stroke-opacity:1" d="M 699.986,546.693 682.366,555.503 z" id="boundary" inkscape:connector-curvature="0" />
	<path style="fill:none;stroke:red;stroke-width:1px;stroke-linecap:butt;stroke-linejoin:miter;stroke-opacity:1" d="M 710.558,525.549 724.654,513.215 z" id="boundary" inkscape:connector-curvature="0" />
	<path style="fill:none;stroke:red;stroke-width:1px;stroke-linecap:butt;stroke-linejoin:miter;stroke-opacity:1" d="M 699.986,546.693 710.558,525.549 z" id="boundary" inkscape:connector-curvature="0" />
	<circle cx="4" cy="731.702" r="4" fill="#0" id="circle0"/>
	<circle cx="12.8099" cy="62.1456" r="4" fill="#0" id="circle1"/>
	<circle cx="12.8099" cy="79.7655" r="4" fill="#0" id="circle2"/>
	<circle cx="12.8099" cy="97.3854" r="4" fill="#0" id="circle3"/>
	<circle cx="12.8099" cy="714.082" r="4" fill="#0" id="circle4"/>
	<circle cx="21.6199" cy="35.7158" r="4" fill="#0" id="circle5"/>
	<circle cx="21.6199" cy="736.988" r="4" fill="#0" id="circle6"/>
	<circle cx="26.9059" cy="109.719" r="4" fill="#0" id="circle7"/>
	<circle cx="26.9059" cy="699.986" r="4" fill="#0" id="circle8"/>
	<circle cx="35.7158" cy="21.6199" r="4" fill="#0" id="circle9"/>
	<circle cx="39.2398" cy="736.988" r="4" fill="#0" id="circle10"/>
	<circle cx="41.0018" cy="120.291" r="4" fill="#0" id="circle11"/>
	<circle cx="44.5258" cy="691.176" r="4" fill="#0" id="circle12"/>
	<circle cx="49.8117" cy="7.52398" r="4" fill="#0" id="circle13"/>
	<circle cx="53.3357" cy="673.556" r="4" fill="#0" id="circle14"/>
	<circle cx="56.8597" cy="129.101" r="4" fill="#0" id="circle15"/>
	<circle cx="56.8597" cy="652.412" r="4" fill="#0" id="circle16"/>
	<circle cx="56.8597" cy="736.988" r="4" fill="#0" id="circle17"/>
	<circle cx="65.6696" cy="625.982" r="4" fill="#0" id="circle18"/>
	<circle cx="67.4316" cy="4" r="4" fill="#0" id="circle19"/>
	<circle cx="72.7176" cy="137.911" r="4" fill="#0" id="circle20"/>
	<circle cx="74.4796" cy="608.362" r="4" fill="#0" id="circle21"/>
	<circle cx="74.4796" cy="736.988" r="4" fill="#0" id="circle22"/>
	<circle cx="83.2895" cy="581.933" r="4" fill="#0" id="circle23"/>
	<circle cx="85.0515" cy="4" r="4" fill="#0" id="circle24"/>
	<circle cx="90.3375" cy="137.911" r="4" fill="#0" id="circle25"/>
	<circle cx="92.0995" cy="564.313" r="4" fill="#0" id="circle26"/>
	<circle cx="92.0995" cy="736.988" r="4" fill="#0" id="circle27"/>
	<circle cx="102.671" cy="4" r="4" fill="#0" id="circle28"/>
	<circle cx="106.195" cy="146.721" r="4" fill="#0" id="circle29"/>
	<circle cx="106.195" cy="550.217" r="4" fill="#0" id="circle30"/>
	<circle cx="106.195" cy="726.416" r="4" fill="#0" id="circle31"/>
	<circle cx="109.719" cy="164.341" r="4" fill="#0" id="circle32"/>
	<circle cx="115.005" cy="181.961" r="4" fill="#0" id="circle33"/>
	<circle cx="115.005" cy="532.597" r="4" fill="#0" id="circle34"/>
	<circle cx="118.529" cy="12.8099" r="4" fill="#0" id="circle35"/>
	<circle cx="120.291" cy="613.648" r="4" fill="#0" id="circle36"/>
	<circle cx="120.291" cy="631.268" r="4" fill="#0" id="circle37"/>
	<circle cx="120.291" cy="648.888" r="4" fill="#0" id="circle38"/>
	<circle cx="120.291" cy="666.508" r="4" fill="#0" id="circle39"/>
	<circle cx="120.291" cy="684.128" r="4" fill="#0" id="circle40"/>
	<circle cx="120.291" cy="701.748" r="4" fill="#0" id="circle41"/>
	<circle cx="123.815" cy="197.819" r="4" fill="#0" id="circle42"/>
	<circle cx="123.815" cy="514.977" r="4" fill="#0" id="circle43"/>
	<circle cx="127.339" cy="493.833" r="4" fill="#0" id="circle44"/>
	<circle cx="132.625" cy="23.3819" r="4" fill="#0" id="circle45"/>
	<circle cx="134.387" cy="601.314" r="4" fill="#0" id="circle46"/>
	<circle cx="136.149" cy="211.915" r="4" fill="#0" id="circle47"/>
	<circle cx="136.149" cy="449.783" r="4" fill="#0" id="circle48"/>
	<circle cx="136.149" cy="467.403" r="4" fill="#0" id="circle49"/>
	<circle cx="144.959" cy="432.163" r="4" fill="#0" id="circle50"/>
	<circle cx="146.721" cy="35.7158" r="4" fill="#0" id="circle51"/>
	<circle cx="146.721" cy="587.218" r="4" fill="#0" id="circle52"/>
	<circle cx="153.769" cy="217.201" r="4" fill="#0" id="circle53"/>
	<circle cx="160.817" cy="48.0497" r="4" fill="#0" id="circle54"/>
	<circle cx="160.817" cy="574.885" r="4" fill="#0" id="circle55"/>
	<circle cx="162.579" cy="414.544" r="4" fill="#0" id="circle56"/>
	<circle cx="169.627" cy="226.011" r="4" fill="#0" id="circle57"/>
	<circle cx="173.151" cy="62.1456" r="4" fill="#0" id="circle58"/>
	<circle cx="173.151" cy="551.979" r="4" fill="#0" id="circle59"/>
	<circle cx="180.199" cy="409.258" r="4" fill="#0" id="circle60"/>
	<circle cx="181.961" cy="534.359" r="4" fill="#0" id="circle61"/>
	<circle cx="185.485" cy="234.821" r="4" fill="#0" id="circle62"/>
	<circle cx="187.247" cy="74.4796" r="4" fill="#0" id="circle63"/>
	<circle cx="190.771" cy="516.739" r="4" fill="#0" id="circle64"/>
	<circle cx="196.057" cy="400.448" r="4" fill="#0" id="circle65"/>
	<circle cx="199.581" cy="499.119" r="4" fill="#0" id="circle66"/>
	<circle cx="203.105" cy="65.6696" r="4" fill="#0" id="circle67"/>
	<circle cx="203.105" cy="241.869" r="4" fill="#0" id="circle68"/>
	<circle cx="206.629" cy="379.304" r="4" fill="#0" id="circle69"/>
	<circle cx="208.391" cy="446.259" r="4" fill="#0" id="circle70"/>
	<circle cx="208.391" cy="463.879" r="4" fill="#0" id="circle71"/>
	<circle cx="208.391" cy="481.499" r="4" fill="#0" id="circle72"/>
	<circle cx="215.439" cy="255.964" r="4" fill="#0" id="circle73"/>
	<circle cx="218.963" cy="56.8597" r="4" fill="#0" id="circle74"/>
	<circle cx="224.249" cy="361.684" r="4" fill="#0" id="circle75"/>
	<circle cx="226.011" cy="449.783" r="4" fill="#0" id="circle76"/>
	<circle cx="233.059" cy="261.25" r="4" fill="#0" id="circle77"/>
	<circle cx="234.821" cy="48.0497" r="4" fill="#0" id="circle78"/>
	<circle cx="241.869" cy="344.064" r="4" fill="#0" id="circle79"/>
	<circle cx="243.631" cy="275.346" r="4" fill="#0" id="circle80"/>
	<circle cx="243.631" cy="446.259" r="4" fill="#0" id="circle81"/>
	<circle cx="250.679" cy="56.8597" r="4" fill="#0" id="circle82"/>
	<circle cx="259.488" cy="335.254" r="4" fill="#0" id="circle83"/>
	<circle cx="261.25" cy="282.394" r="4" fill="#0" id="circle84"/>
	<circle cx="261.25" cy="446.259" r="4" fill="#0" id="circle85"/>
	<circle cx="268.298" cy="51.5737" r="4" fill="#0" id="circle86"/>
	<circle cx="277.108" cy="291.204" r="4" fill="#0" id="circle87"/>
	<circle cx="277.108" cy="326.444" r="4" fill="#0" id="circle88"/>
	<circle cx="278.87" cy="437.449" r="4" fill="#0" id="circle89"/>
	<circle cx="285.918" cy="51.5737" r="4" fill="#0" id="circle90"/>
	<circle cx="294.728" cy="296.49" r="4" fill="#0" id="circle91"/>
	<circle cx="294.728" cy="321.158" r="4" fill="#0" id="circle92"/>
	<circle cx="296.49" cy="428.639" r="4" fill="#0" id="circle93"/>
	<circle cx="301.776" cy="60.3837" r="4" fill="#0" id="circle94"/>
	<circle cx="312.348" cy="74.4796" r="4" fill="#0" id="circle95"/>
	<circle cx="314.11" cy="419.829" r="4" fill="#0" id="circle96"/>
	<circle cx="328.206" cy="83.2895" r="4" fill="#0" id="circle97"/>
	<circle cx="331.73" cy="411.02" r="4" fill="#0" id="circle98"/>
	<circle cx="345.826" cy="85.0515" r="4" fill="#0" id="circle99"/>
	<circle cx="349.35" cy="402.21" r="4" fill="#0" id="circle100"/>
	<circle cx="358.16" cy="99.1474" r="4" fill="#0" id="circle101"/>
	<circle cx="366.97" cy="402.21" r="4" fill="#0" id="circle102"/>
	<circle cx="375.78" cy="106.195" r="4" fill="#0" id="circle103"/>
	<circle cx="381.066" cy="389.876" r="4" fill="#0" id="circle104"/>
	<circle cx="388.114" cy="120.291" r="4" fill="#0" id="circle105"/>
	<circle cx="398.686" cy="384.59" r="4" fill="#0" id="circle106"/>
	<circle cx="402.21" cy="132.625" r="4" fill="#0" id="circle107"/>
	<circle cx="414.544" cy="146.721" r="4" fill="#0" id="circle108"/>
	<circle cx="414.544" cy="375.78" r="4" fill="#0" id="circle109"/>
	<circle cx="418.067" cy="393.4" r="4" fill="#0" id="circle110"/>
	<circle cx="426.877" cy="409.258" r="4" fill="#0" id="circle111"/>
	<circle cx="428.639" cy="159.055" r="4" fill="#0" id="circle112"/>
	<circle cx="430.401" cy="426.877" r="4" fill="#0" id="circle113"/>
	<circle cx="439.211" cy="442.735" r="4" fill="#0" id="circle114"/>
	<circle cx="440.973" cy="173.151" r="4" fill="#0" id="circle115"/>
	<circle cx="449.783" cy="189.009" r="4" fill="#0" id="circle116"/>
	<circle cx="453.307" cy="455.069" r="4" fill="#0" id="circle117"/>
	<circle cx="462.117" cy="203.105" r="4" fill="#0" id="circle118"/>
	<circle cx="463.879" cy="469.165" r="4" fill="#0" id="circle119"/>
	<circle cx="476.213" cy="215.439" r="4" fill="#0" id="circle120"/>
	<circle cx="477.975" cy="481.499" r="4" fill="#0" id="circle121"/>
	<circle cx="488.547" cy="229.535" r="4" fill="#0" id="circle122"/>
	<circle cx="490.309" cy="495.595" r="4" fill="#0" id="circle123"/>
	<circle cx="502.643" cy="241.869" r="4" fill="#0" id="circle124"/>
	<circle cx="507.929" cy="502.643" r="4" fill="#0" id="circle125"/>
	<circle cx="514.977" cy="255.964" r="4" fill="#0" id="circle126"/>
	<circle cx="520.263" cy="516.739" r="4" fill="#0" id="circle127"/>
	<circle cx="529.073" cy="268.298" r="4" fill="#0" id="circle128"/>
	<circle cx="534.359" cy="529.073" r="4" fill="#0" id="circle129"/>
	<circle cx="541.407" cy="282.394" r="4" fill="#0" id="circle130"/>
	<circle cx="546.693" cy="543.169" r="4" fill="#0" id="circle131"/>
	<circle cx="550.217" cy="298.252" r="4" fill="#0" id="circle132"/>
	<circle cx="557.265" cy="315.872" r="4" fill="#0" id="circle133"/>
	<circle cx="560.789" cy="333.492" r="4" fill="#0" id="circle134"/>
	<circle cx="564.313" cy="550.217" r="4" fill="#0" id="circle135"/>
	<circle cx="569.599" cy="349.35" r="4" fill="#0" id="circle136"/>
	<circle cx="578.409" cy="365.208" r="4" fill="#0" id="circle137"/>
	<circle cx="580.171" cy="559.027" r="4" fill="#0" id="circle138"/>
	<circle cx="596.028" cy="370.494" r="4" fill="#0" id="circle139"/>
	<circle cx="596.028" cy="388.114" r="4" fill="#0" id="circle140"/>
	<circle cx="597.79" cy="566.075" r="4" fill="#0" id="circle141"/>
	<circle cx="604.838" cy="403.972" r="4" fill="#0" id="circle142"/>
	<circle cx="604.838" cy="421.591" r="4" fill="#0" id="circle143"/>
	<circle cx="604.838" cy="439.211" r="4" fill="#0" id="circle144"/>
	<circle cx="613.648" cy="574.885" r="4" fill="#0" id="circle145"/>
	<circle cx="615.41" cy="453.307" r="4" fill="#0" id="circle146"/>
	<circle cx="631.268" cy="462.117" r="4" fill="#0" id="circle147"/>
	<circle cx="631.268" cy="573.123" r="4" fill="#0" id="circle148"/>
	<circle cx="641.84" cy="446.259" r="4" fill="#0" id="circle149"/>
	<circle cx="648.888" cy="573.123" r="4" fill="#0" id="circle150"/>
	<circle cx="659.46" cy="437.449" r="4" fill="#0" id="circle151"/>
	<circle cx="664.746" cy="564.313" r="4" fill="#0" id="circle152"/>
	<circle cx="677.08" cy="428.639" r="4" fill="#0" id="circle153"/>
	<circle cx="682.366" cy="555.503" r="4" fill="#0" id="circle154"/>
	<circle cx="691.176" cy="418.067" r="4" fill="#0" id="circle155"/>
	<circle cx="699.986" cy="546.693" r="4" fill="#0" id="circle156"/>
	<circle cx="707.034" cy="409.258" r="4" fill="#0" id="circle157"/>
	<circle cx="710.558" cy="525.549" r="4" fill="#0" id="circle158"/>
	<circle cx="724.654" cy="409.258" r="4" fill="#0" id="circle159"/>
	<circle cx="724.654" cy="513.215" r="4" fill="#0" id="circle160"/>
	<circle cx="736.988" cy="499.119" r="4" fill="#0" id="circle161"/>
	<circle cx="740.512" cy="400.448" r="4" fill="#0" id="circle162"/>
	<circle cx="745.798" cy="481.499" r="4" fill="#0" id="circle163"/>
	<circle cx="756.369" cy="391.638" r="4" fill="#0" id="circle164"/>
	<circle cx="759.893" cy="469.165" r="4" fill="#0" id="circle165"/>
	<circle cx="770.465" cy="379.304" r="4" fill="#0" id="circle166"/>
	<circle cx="777.513" cy="469.165" r="4" fill="#0" id="circle167"/>
	<circle cx="784.561" cy="365.208" r="4" fill="#0" id="circle168"/>
	<circle cx="795.133" cy="469.165" r="4" fill="#0" id="circle169"/>
	<circle cx="796.895" cy="344.064" r="4" fill="#0" id="circle170"/>
	<circle cx="805.705" cy="326.444" r="4" fill="#0" id="circle171"/>
	<circle cx="805.705" cy="455.069" r="4" fill="#0" id="circle172"/>
	<circle cx="819.801" cy="312.348" r="4" fill="#0" id="circle173"/>
	<circle cx="823.325" cy="458.593" r="4" fill="#0" id="circle174"/>
	<circle cx="837.421" cy="303.538" r="4" fill="#0" id="circle175"/>
	<circle cx="840.945" cy="455.069" r="4" fill="#0" id="circle176"/>
	<circle cx="855.041" cy="303.538" r="4" fill="#0" id="circle177"/>
	<circle cx="858.565" cy="449.783" r="4" fill="#0" id="circle178"/>
	<circle cx="870.899" cy="312.348" r="4" fill="#0" id="circle179"/>
	<circle cx="876.185" cy="446.259" r="4" fill="#0" id="circle180"/>
	<circle cx="884.995" cy="324.682" r="4" fill="#0" id="circle181"/>
	<circle cx="893.805" cy="446.259" r="4" fill="#0" id="circle182"/>
	<circle cx="895.567" cy="338.778" r="4" fill="#0" id="circle183"/>
	<circle cx="909.663" cy="349.35" r="4" fill="#0" id="circle184"/>
	<circle cx="911.425" cy="446.259" r="4" fill="#0" id="circle185"/>
	<circle cx="921.996" cy="363.446" r="4" fill="#0" id="circle186"/>
	<circle cx="929.044" cy="446.259" r="4" fill="#0" id="circle187"/>
	<circle cx="936.092" cy="374.018" r="4" fill="#0" id="circle188"/>
	<circle cx="946.664" cy="446.259" r="4" fill="#0" id="circle189"/>
	<circle cx="951.95" cy="382.828" r="4" fill="#0" id="circle190"/>
	<circle cx="964.284" cy="396.924" r="4" fill="#0" id="circle191"/>
	<circle cx="964.284" cy="446.259" r="4" fill="#0" id="circle192"/>
	<circle cx="978.38" cy="409.258" r="4" fill="#0" id="circle193"/>
	<circle cx="981.904" cy="446.259" r="4" fill="#0" id="circle194"/>
	<circle cx="994.238" cy="418.067" r="4" fill="#0" id="circle195"/>
	<circle cx="996" cy="435.687" r="4" fill="#0" id="circle196"/>
	</g>
</svg>