<?xml version="1.0" encoding="UTF-8" standalone="no"?>
<!-- Created with CurveBenchmark -->
<svg
	xmlns:dc="http://purl.org/dc/elements/1.1/"
	xmlns:cc="http://creativecommons.org/ns#"
	xmlns:rdf="http://www.w3.org/1999/02/22-rdf-syntax-ns#"
	xmlns:svg="http://www.w3.org/2000/svg"
	xmlns="http://www.w3.org/2000/svg"
	xmlns:sodipodi="http://sodipodi.sourceforge.net/DTD/sodipodi-0.dtd"
	xmlns:inkscape="http://www.inkscape.org/namespaces/inkscape"
	width="1000"
	height="1000"
	id="svg2"
	version="1.1"
	sodipodi:docname="manifold/crust-tool07.png.txt">
<defs
	id="defs4" />
<metadata
	id="metadata7">
	<rdf:RDF>
		<cc:Work
			rdf:about="">
			<dc:format>image/svg+xml</dc:format>
			<dc:type
				rdf:resource="http://purl.org/dc/dcmitype/StillImage" />
			<dc:title></dc:title>
		</cc:Work>
	</rdf:RDF>
</metadata>
<g
	inkscape:label="Layer 1"
	inkscape:groupmode="layer"
	id="layer1">
	<path style="fill:none;stroke:red;stroke-width:1px;stroke-linecap:butt;stroke-linejoin:miter;stroke-opacity:1" d="M 347.028,334.667 322.305,359.389 z" id="boundary" inkscape:connector-curvature="0" />
	<path style="fill:none;stroke:red;stroke-width:1px;stroke-linecap:butt;stroke-linejoin:miter;stroke-opacity:1" d="M 322.305,359.389 291.402,374.841 z" id="boundary" inkscape:connector-curvature="0" />
	<path style="fill:none;stroke:red;stroke-width:1px;stroke-linecap:butt;stroke-linejoin:miter;stroke-opacity:1" d="M 167.788,483.003 192.511,458.28 z" id="boundary" inkscape:connector-curvature="0" />
	<path style="fill:none;stroke:red;stroke-width:1px;stroke-linecap:butt;stroke-linejoin:miter;stroke-opacity:1" d="M 217.234,436.648 192.511,458.28 z" id="boundary" inkscape:connector-curvature="0" />
	<path style="fill:none;stroke:red;stroke-width:1px;stroke-linecap:butt;stroke-linejoin:miter;stroke-opacity:1" d="M 44.1745,498.455 75.0779,498.455 z" id="boundary" inkscape:connector-curvature="0" />
	<path style="fill:none;stroke:red;stroke-width:1px;stroke-linecap:butt;stroke-linejoin:miter;stroke-opacity:1" d="M 167.788,483.003 136.885,498.455 z" id="boundary" inkscape:connector-curvature="0" />
	<path style="fill:none;stroke:red;stroke-width:1px;stroke-linecap:butt;stroke-linejoin:miter;stroke-opacity:1" d="M 105.981,498.455 75.0779,498.455 z" id="boundary" inkscape:connector-curvature="0" />
	<path style="fill:none;stroke:red;stroke-width:1px;stroke-linecap:butt;stroke-linejoin:miter;stroke-opacity:1" d="M 136.885,498.455 105.981,498.455 z" id="boundary" inkscape:connector-curvature="0" />
	<path style="fill:none;stroke:red;stroke-width:1px;stroke-linecap:butt;stroke-linejoin:miter;stroke-opacity:1" d="M 217.234,436.648 248.137,436.648 z" id="boundary" inkscape:connector-curvature="0" />
	<path style="fill:none;stroke:red;stroke-width:1px;stroke-linecap:butt;stroke-linejoin:miter;stroke-opacity:1" d="M 266.679,399.564 248.137,436.648 z" id="boundary" inkscape:connector-curvature="0" />
	<path style="fill:none;stroke:red;stroke-width:1px;stroke-linecap:butt;stroke-linejoin:miter;stroke-opacity:1" d="M 266.679,399.564 291.402,374.841 z" id="boundary" inkscape:connector-curvature="0" />
	<path style="fill:none;stroke:red;stroke-width:1px;stroke-linecap:butt;stroke-linejoin:miter;stroke-opacity:1" d="M 44.1745,498.455 19.4517,523.178 z" id="boundary" inkscape:connector-curvature="0" />
	<path style="fill:none;stroke:red;stroke-width:1px;stroke-linecap:butt;stroke-linejoin:miter;stroke-opacity:1" d="M 449.009,266.679 424.287,288.312 z" id="boundary" inkscape:connector-curvature="0" />
	<path style="fill:none;stroke:red;stroke-width:1px;stroke-linecap:butt;stroke-linejoin:miter;stroke-opacity:1" d="M 347.028,334.667 371.751,313.034 z" id="boundary" inkscape:connector-curvature="0" />
	<path style="fill:none;stroke:red;stroke-width:1px;stroke-linecap:butt;stroke-linejoin:miter;stroke-opacity:1" d="M 402.654,313.034 424.287,288.312 z" id="boundary" inkscape:connector-curvature="0" />
	<path style="fill:none;stroke:red;stroke-width:1px;stroke-linecap:butt;stroke-linejoin:miter;stroke-opacity:1" d="M 402.654,313.034 371.751,313.034 z" id="boundary" inkscape:connector-curvature="0" />
	<path style="fill:none;stroke:red;stroke-width:1px;stroke-linecap:butt;stroke-linejoin:miter;stroke-opacity:1" d="M 507.726,251.227 476.822,251.227 z" id="boundary" inkscape:connector-curvature="0" />
	<path style="fill:none;stroke:red;stroke-width:1px;stroke-linecap:butt;stroke-linejoin:miter;stroke-opacity:1" d="M 449.009,266.679 476.822,251.227 z" id="boundary" inkscape:connector-curvature="0" />
	<path style="fill:none;stroke:red;stroke-width:1px;stroke-linecap:butt;stroke-linejoin:miter;stroke-opacity:1" d="M 433.558,464.461 408.835,486.093 z" id="boundary" inkscape:connector-curvature="0" />
	<path style="fill:none;stroke:red;stroke-width:1px;stroke-linecap:butt;stroke-linejoin:miter;stroke-opacity:1" d="M 520.087,424.287 492.274,439.738 z" id="boundary" inkscape:connector-curvature="0" />
	<path style="fill:none;stroke:red;stroke-width:1px;stroke-linecap:butt;stroke-linejoin:miter;stroke-opacity:1" d="M 464.461,455.19 433.558,464.461 z" id="boundary" inkscape:connector-curvature="0" />
	<path style="fill:none;stroke:red;stroke-width:1px;stroke-linecap:butt;stroke-linejoin:miter;stroke-opacity:1" d="M 464.461,455.19 492.274,439.738 z" id="boundary" inkscape:connector-curvature="0" />
	<path style="fill:none;stroke:red;stroke-width:1px;stroke-linecap:butt;stroke-linejoin:miter;stroke-opacity:1" d="M 408.835,486.093 387.202,510.816 z" id="boundary" inkscape:connector-curvature="0" />
	<path style="fill:none;stroke:red;stroke-width:1px;stroke-linecap:butt;stroke-linejoin:miter;stroke-opacity:1" d="M 4,554.081 19.4517,523.178 z" id="boundary" inkscape:connector-curvature="0" />
	<path style="fill:none;stroke:red;stroke-width:1px;stroke-linecap:butt;stroke-linejoin:miter;stroke-opacity:1" d="M 19.4517,581.894 4,554.081 z" id="boundary" inkscape:connector-curvature="0" />
	<path style="fill:none;stroke:red;stroke-width:1px;stroke-linecap:butt;stroke-linejoin:miter;stroke-opacity:1" d="M 19.4517,581.894 19.4517,615.888 z" id="boundary" inkscape:connector-curvature="0" />
	<path style="fill:none;stroke:red;stroke-width:1px;stroke-linecap:butt;stroke-linejoin:miter;stroke-opacity:1" d="M 37.9938,640.611 19.4517,615.888 z" id="boundary" inkscape:connector-curvature="0" />
	<path style="fill:none;stroke:red;stroke-width:1px;stroke-linecap:butt;stroke-linejoin:miter;stroke-opacity:1" d="M 68.8972,640.611 37.9938,640.611 z" id="boundary" inkscape:connector-curvature="0" />
	<path style="fill:none;stroke:red;stroke-width:1px;stroke-linecap:butt;stroke-linejoin:miter;stroke-opacity:1" d="M 44.1745,671.514 37.9938,640.611 z" id="boundary" inkscape:connector-curvature="0" />
	<path style="fill:none;stroke:red;stroke-width:1px;stroke-linecap:butt;stroke-linejoin:miter;stroke-opacity:1" d="M 44.1745,671.514 19.4517,693.146 z" id="boundary" inkscape:connector-curvature="0" />
	<path style="fill:none;stroke:red;stroke-width:1px;stroke-linecap:butt;stroke-linejoin:miter;stroke-opacity:1" d="M 19.4517,693.146 19.4517,724.05 z" id="boundary" inkscape:connector-curvature="0" />
	<path style="fill:none;stroke:red;stroke-width:1px;stroke-linecap:butt;stroke-linejoin:miter;stroke-opacity:1" d="M 50.3551,733.321 19.4517,724.05 z" id="boundary" inkscape:connector-curvature="0" />
	<path style="fill:none;stroke:red;stroke-width:1px;stroke-linecap:butt;stroke-linejoin:miter;stroke-opacity:1" d="M 112.162,733.321 81.2586,733.321 z" id="boundary" inkscape:connector-curvature="0" />
	<path style="fill:none;stroke:red;stroke-width:1px;stroke-linecap:butt;stroke-linejoin:miter;stroke-opacity:1" d="M 81.2586,733.321 50.3551,733.321 z" id="boundary" inkscape:connector-curvature="0" />
	<path style="fill:none;stroke:red;stroke-width:1px;stroke-linecap:butt;stroke-linejoin:miter;stroke-opacity:1" d="M 356.299,526.268 387.202,510.816 z" id="boundary" inkscape:connector-curvature="0" />
	<path style="fill:none;stroke:red;stroke-width:1px;stroke-linecap:butt;stroke-linejoin:miter;stroke-opacity:1" d="M 356.299,526.268 325.396,541.72 z" id="boundary" inkscape:connector-curvature="0" />
	<path style="fill:none;stroke:red;stroke-width:1px;stroke-linecap:butt;stroke-linejoin:miter;stroke-opacity:1" d="M 269.769,578.804 300.673,563.352 z" id="boundary" inkscape:connector-curvature="0" />
	<path style="fill:none;stroke:red;stroke-width:1px;stroke-linecap:butt;stroke-linejoin:miter;stroke-opacity:1" d="M 300.673,563.352 325.396,541.72 z" id="boundary" inkscape:connector-curvature="0" />
	<path style="fill:none;stroke:red;stroke-width:1px;stroke-linecap:butt;stroke-linejoin:miter;stroke-opacity:1" d="M 161.607,686.966 139.975,717.869 z" id="boundary" inkscape:connector-curvature="0" />
	<path style="fill:none;stroke:red;stroke-width:1px;stroke-linecap:butt;stroke-linejoin:miter;stroke-opacity:1" d="M 192.511,686.966 161.607,686.966 z" id="boundary" inkscape:connector-curvature="0" />
	<path style="fill:none;stroke:red;stroke-width:1px;stroke-linecap:butt;stroke-linejoin:miter;stroke-opacity:1" d="M 220.324,671.514 192.511,686.966 z" id="boundary" inkscape:connector-curvature="0" />
	<path style="fill:none;stroke:red;stroke-width:1px;stroke-linecap:butt;stroke-linejoin:miter;stroke-opacity:1" d="M 112.162,733.321 139.975,717.869 z" id="boundary" inkscape:connector-curvature="0" />
	<path style="fill:none;stroke:red;stroke-width:1px;stroke-linecap:butt;stroke-linejoin:miter;stroke-opacity:1" d="M 245.047,652.972 260.498,622.069 z" id="boundary" inkscape:connector-curvature="0" />
	<path style="fill:none;stroke:red;stroke-width:1px;stroke-linecap:butt;stroke-linejoin:miter;stroke-opacity:1" d="M 269.769,578.804 260.498,622.069 z" id="boundary" inkscape:connector-curvature="0" />
	<path style="fill:none;stroke:red;stroke-width:1px;stroke-linecap:butt;stroke-linejoin:miter;stroke-opacity:1" d="M 220.324,671.514 245.047,652.972 z" id="boundary" inkscape:connector-curvature="0" />
	<path style="fill:none;stroke:red;stroke-width:1px;stroke-linecap:butt;stroke-linejoin:miter;stroke-opacity:1" d="M 776.586,28.7227 745.682,44.1745 z" id="boundary" inkscape:connector-curvature="0" />
	<path style="fill:none;stroke:red;stroke-width:1px;stroke-linecap:butt;stroke-linejoin:miter;stroke-opacity:1" d="M 801.308,4 776.586,28.7227 z" id="boundary" inkscape:connector-curvature="0" />
	<path style="fill:none;stroke:red;stroke-width:1px;stroke-linecap:butt;stroke-linejoin:miter;stroke-opacity:1" d="M 730.231,75.0779 745.682,44.1745 z" id="boundary" inkscape:connector-curvature="0" />
	<path style="fill:none;stroke:red;stroke-width:1px;stroke-linecap:butt;stroke-linejoin:miter;stroke-opacity:1" d="M 724.05,112.162 730.231,75.0779 z" id="boundary" inkscape:connector-curvature="0" />
	<path style="fill:none;stroke:red;stroke-width:1px;stroke-linecap:butt;stroke-linejoin:miter;stroke-opacity:1" d="M 724.05,112.162 699.327,136.885 z" id="boundary" inkscape:connector-curvature="0" />
	<path style="fill:none;stroke:red;stroke-width:1px;stroke-linecap:butt;stroke-linejoin:miter;stroke-opacity:1" d="M 801.308,4 832.212,4 z" id="boundary" inkscape:connector-curvature="0" />
	<path style="fill:none;stroke:red;stroke-width:1px;stroke-linecap:butt;stroke-linejoin:miter;stroke-opacity:1" d="M 866.206,93.6199 841.483,115.252 z" id="boundary" inkscape:connector-curvature="0" />
	<path style="fill:none;stroke:red;stroke-width:1px;stroke-linecap:butt;stroke-linejoin:miter;stroke-opacity:1" d="M 863.115,4 832.212,4 z" id="boundary" inkscape:connector-curvature="0" />
	<path style="fill:none;stroke:red;stroke-width:1px;stroke-linecap:butt;stroke-linejoin:miter;stroke-opacity:1" d="M 646.791,173.969 622.069,198.692 z" id="boundary" inkscape:connector-curvature="0" />
	<path style="fill:none;stroke:red;stroke-width:1px;stroke-linecap:butt;stroke-linejoin:miter;stroke-opacity:1" d="M 677.695,173.969 646.791,173.969 z" id="boundary" inkscape:connector-curvature="0" />
	<path style="fill:none;stroke:red;stroke-width:1px;stroke-linecap:butt;stroke-linejoin:miter;stroke-opacity:1" d="M 699.327,136.885 677.695,173.969 z" id="boundary" inkscape:connector-curvature="0" />
	<path style="fill:none;stroke:red;stroke-width:1px;stroke-linecap:butt;stroke-linejoin:miter;stroke-opacity:1" d="M 591.165,204.872 622.069,198.692 z" id="boundary" inkscape:connector-curvature="0" />
	<path style="fill:none;stroke:red;stroke-width:1px;stroke-linecap:butt;stroke-linejoin:miter;stroke-opacity:1" d="M 841.483,115.252 841.483,146.156 z" id="boundary" inkscape:connector-curvature="0" />
	<path style="fill:none;stroke:red;stroke-width:1px;stroke-linecap:butt;stroke-linejoin:miter;stroke-opacity:1" d="M 841.483,146.156 856.935,173.969 z" id="boundary" inkscape:connector-curvature="0" />
	<path style="fill:none;stroke:red;stroke-width:1px;stroke-linecap:butt;stroke-linejoin:miter;stroke-opacity:1" d="M 591.165,204.872 563.352,220.324 z" id="boundary" inkscape:connector-curvature="0" />
	<path style="fill:none;stroke:red;stroke-width:1px;stroke-linecap:butt;stroke-linejoin:miter;stroke-opacity:1" d="M 897.109,84.3489 866.206,93.6199 z" id="boundary" inkscape:connector-curvature="0" />
	<path style="fill:none;stroke:red;stroke-width:1px;stroke-linecap:butt;stroke-linejoin:miter;stroke-opacity:1" d="M 863.115,4 894.019,4 z" id="boundary" inkscape:connector-curvature="0" />
	<path style="fill:none;stroke:red;stroke-width:1px;stroke-linecap:butt;stroke-linejoin:miter;stroke-opacity:1" d="M 921.832,19.4517 894.019,4 z" id="boundary" inkscape:connector-curvature="0" />
	<path style="fill:none;stroke:red;stroke-width:1px;stroke-linecap:butt;stroke-linejoin:miter;stroke-opacity:1" d="M 949.645,34.9034 921.832,19.4517 z" id="boundary" inkscape:connector-curvature="0" />
	<path style="fill:none;stroke:red;stroke-width:1px;stroke-linecap:butt;stroke-linejoin:miter;stroke-opacity:1" d="M 897.109,84.3489 924.922,68.8972 z" id="boundary" inkscape:connector-curvature="0" />
	<path style="fill:none;stroke:red;stroke-width:1px;stroke-linecap:butt;stroke-linejoin:miter;stroke-opacity:1" d="M 949.645,34.9034 924.922,68.8972 z" id="boundary" inkscape:connector-curvature="0" />
	<path style="fill:none;stroke:red;stroke-width:1px;stroke-linecap:butt;stroke-linejoin:miter;stroke-opacity:1" d="M 887.838,173.969 856.935,173.969 z" id="boundary" inkscape:connector-curvature="0" />
	<path style="fill:none;stroke:red;stroke-width:1px;stroke-linecap:butt;stroke-linejoin:miter;stroke-opacity:1" d="M 887.838,173.969 918.741,173.969 z" id="boundary" inkscape:connector-curvature="0" />
	<path style="fill:none;stroke:red;stroke-width:1px;stroke-linecap:butt;stroke-linejoin:miter;stroke-opacity:1" d="M 980.548,173.969 949.645,173.969 z" id="boundary" inkscape:connector-curvature="0" />
	<path style="fill:none;stroke:red;stroke-width:1px;stroke-linecap:butt;stroke-linejoin:miter;stroke-opacity:1" d="M 949.645,173.969 918.741,173.969 z" id="boundary" inkscape:connector-curvature="0" />
	<path style="fill:none;stroke:red;stroke-width:1px;stroke-linecap:butt;stroke-linejoin:miter;stroke-opacity:1" d="M 980.548,173.969 996,201.782 z" id="boundary" inkscape:connector-curvature="0" />
	<path style="fill:none;stroke:red;stroke-width:1px;stroke-linecap:butt;stroke-linejoin:miter;stroke-opacity:1" d="M 996,201.782 980.548,238.866 z" id="boundary" inkscape:connector-curvature="0" />
	<path style="fill:none;stroke:red;stroke-width:1px;stroke-linecap:butt;stroke-linejoin:miter;stroke-opacity:1" d="M 507.726,251.227 535.539,235.776 z" id="boundary" inkscape:connector-curvature="0" />
	<path style="fill:none;stroke:red;stroke-width:1px;stroke-linecap:butt;stroke-linejoin:miter;stroke-opacity:1" d="M 563.352,220.324 535.539,235.776 z" id="boundary" inkscape:connector-curvature="0" />
	<path style="fill:none;stroke:red;stroke-width:1px;stroke-linecap:butt;stroke-linejoin:miter;stroke-opacity:1" d="M 776.586,285.221 745.682,291.402 z" id="boundary" inkscape:connector-curvature="0" />
	<path style="fill:none;stroke:red;stroke-width:1px;stroke-linecap:butt;stroke-linejoin:miter;stroke-opacity:1" d="M 745.682,291.402 714.779,306.854 z" id="boundary" inkscape:connector-curvature="0" />
	<path style="fill:none;stroke:red;stroke-width:1px;stroke-linecap:butt;stroke-linejoin:miter;stroke-opacity:1" d="M 600.436,377.931 569.533,377.931 z" id="boundary" inkscape:connector-curvature="0" />
	<path style="fill:none;stroke:red;stroke-width:1px;stroke-linecap:butt;stroke-linejoin:miter;stroke-opacity:1" d="M 569.533,377.931 544.81,399.564 z" id="boundary" inkscape:connector-curvature="0" />
	<path style="fill:none;stroke:red;stroke-width:1px;stroke-linecap:butt;stroke-linejoin:miter;stroke-opacity:1" d="M 520.087,424.287 544.81,399.564 z" id="boundary" inkscape:connector-curvature="0" />
	<path style="fill:none;stroke:red;stroke-width:1px;stroke-linecap:butt;stroke-linejoin:miter;stroke-opacity:1" d="M 600.436,377.931 628.249,362.48 z" id="boundary" inkscape:connector-curvature="0" />
	<path style="fill:none;stroke:red;stroke-width:1px;stroke-linecap:butt;stroke-linejoin:miter;stroke-opacity:1" d="M 628.249,362.48 652.972,337.757 z" id="boundary" inkscape:connector-curvature="0" />
	<path style="fill:none;stroke:red;stroke-width:1px;stroke-linecap:butt;stroke-linejoin:miter;stroke-opacity:1" d="M 652.972,337.757 683.875,322.305 z" id="boundary" inkscape:connector-curvature="0" />
	<path style="fill:none;stroke:red;stroke-width:1px;stroke-linecap:butt;stroke-linejoin:miter;stroke-opacity:1" d="M 683.875,322.305 714.779,306.854 z" id="boundary" inkscape:connector-curvature="0" />
	<path style="fill:none;stroke:red;stroke-width:1px;stroke-linecap:butt;stroke-linejoin:miter;stroke-opacity:1" d="M 807.489,285.221 838.393,285.221 z" id="boundary" inkscape:connector-curvature="0" />
	<path style="fill:none;stroke:red;stroke-width:1px;stroke-linecap:butt;stroke-linejoin:miter;stroke-opacity:1" d="M 897.109,294.492 866.206,300.673 z" id="boundary" inkscape:connector-curvature="0" />
	<path style="fill:none;stroke:red;stroke-width:1px;stroke-linecap:butt;stroke-linejoin:miter;stroke-opacity:1" d="M 866.206,300.673 838.393,285.221 z" id="boundary" inkscape:connector-curvature="0" />
	<path style="fill:none;stroke:red;stroke-width:1px;stroke-linecap:butt;stroke-linejoin:miter;stroke-opacity:1" d="M 807.489,285.221 776.586,285.221 z" id="boundary" inkscape:connector-curvature="0" />
	<path style="fill:none;stroke:red;stroke-width:1px;stroke-linecap:butt;stroke-linejoin:miter;stroke-opacity:1" d="M 897.109,294.492 928.012,279.04 z" id="boundary" inkscape:connector-curvature="0" />
	<path style="fill:none;stroke:red;stroke-width:1px;stroke-linecap:butt;stroke-linejoin:miter;stroke-opacity:1" d="M 928.012,279.04 949.645,254.318 z" id="boundary" inkscape:connector-curvature="0" />
	<path style="fill:none;stroke:red;stroke-width:1px;stroke-linecap:butt;stroke-linejoin:miter;stroke-opacity:1" d="M 980.548,238.866 949.645,254.318 z" id="boundary" inkscape:connector-curvature="0" />
	<circle cx="4" cy="554.081" r="4" fill="#0" id="circle0"/>
	<circle cx="19.4517" cy="523.178" r="4" fill="#0" id="circle1"/>
	<circle cx="19.4517" cy="581.894" r="4" fill="#0" id="circle2"/>
	<circle cx="19.4517" cy="615.888" r="4" fill="#0" id="circle3"/>
	<circle cx="19.4517" cy="693.146" r="4" fill="#0" id="circle4"/>
	<circle cx="19.4517" cy="724.05" r="4" fill="#0" id="circle5"/>
	<circle cx="37.9938" cy="640.611" r="4" fill="#0" id="circle6"/>
	<circle cx="44.1745" cy="498.455" r="4" fill="#0" id="circle7"/>
	<circle cx="44.1745" cy="671.514" r="4" fill="#0" id="circle8"/>
	<circle cx="50.3551" cy="733.321" r="4" fill="#0" id="circle9"/>
	<circle cx="68.8972" cy="640.611" r="4" fill="#0" id="circle10"/>
	<circle cx="75.0779" cy="498.455" r="4" fill="#0" id="circle11"/>
	<circle cx="81.2586" cy="733.321" r="4" fill="#0" id="circle12"/>
	<circle cx="105.981" cy="498.455" r="4" fill="#0" id="circle13"/>
	<circle cx="112.162" cy="733.321" r="4" fill="#0" id="circle14"/>
	<circle cx="136.885" cy="498.455" r="4" fill="#0" id="circle15"/>
	<circle cx="139.975" cy="717.869" r="4" fill="#0" id="circle16"/>
	<circle cx="161.607" cy="686.966" r="4" fill="#0" id="circle17"/>
	<circle cx="167.788" cy="483.003" r="4" fill="#0" id="circle18"/>
	<circle cx="192.511" cy="458.28" r="4" fill="#0" id="circle19"/>
	<circle cx="192.511" cy="686.966" r="4" fill="#0" id="circle20"/>
	<circle cx="217.234" cy="436.648" r="4" fill="#0" id="circle21"/>
	<circle cx="220.324" cy="671.514" r="4" fill="#0" id="circle22"/>
	<circle cx="245.047" cy="652.972" r="4" fill="#0" id="circle23"/>
	<circle cx="248.137" cy="436.648" r="4" fill="#0" id="circle24"/>
	<circle cx="260.498" cy="622.069" r="4" fill="#0" id="circle25"/>
	<circle cx="266.679" cy="399.564" r="4" fill="#0" id="circle26"/>
	<circle cx="269.769" cy="578.804" r="4" fill="#0" id="circle27"/>
	<circle cx="291.402" cy="374.841" r="4" fill="#0" id="circle28"/>
	<circle cx="300.673" cy="563.352" r="4" fill="#0" id="circle29"/>
	<circle cx="322.305" cy="359.389" r="4" fill="#0" id="circle30"/>
	<circle cx="325.396" cy="541.72" r="4" fill="#0" id="circle31"/>
	<circle cx="347.028" cy="334.667" r="4" fill="#0" id="circle32"/>
	<circle cx="356.299" cy="526.268" r="4" fill="#0" id="circle33"/>
	<circle cx="371.751" cy="313.034" r="4" fill="#0" id="circle34"/>
	<circle cx="387.202" cy="510.816" r="4" fill="#0" id="circle35"/>
	<circle cx="402.654" cy="313.034" r="4" fill="#0" id="circle36"/>
	<circle cx="408.835" cy="486.093" r="4" fill="#0" id="circle37"/>
	<circle cx="424.287" cy="288.312" r="4" fill="#0" id="circle38"/>
	<circle cx="433.558" cy="464.461" r="4" fill="#0" id="circle39"/>
	<circle cx="449.009" cy="266.679" r="4" fill="#0" id="circle40"/>
	<circle cx="464.461" cy="455.19" r="4" fill="#0" id="circle41"/>
	<circle cx="476.822" cy="251.227" r="4" fill="#0" id="circle42"/>
	<circle cx="492.274" cy="439.738" r="4" fill="#0" id="circle43"/>
	<circle cx="507.726" cy="251.227" r="4" fill="#0" id="circle44"/>
	<circle cx="520.087" cy="424.287" r="4" fill="#0" id="circle45"/>
	<circle cx="535.539" cy="235.776" r="4" fill="#0" id="circle46"/>
	<circle cx="544.81" cy="399.564" r="4" fill="#0" id="circle47"/>
	<circle cx="563.352" cy="220.324" r="4" fill="#0" id="circle48"/>
	<circle cx="569.533" cy="377.931" r="4" fill="#0" id="circle49"/>
	<circle cx="591.165" cy="204.872" r="4" fill="#0" id="circle50"/>
	<circle cx="600.436" cy="377.931" r="4" fill="#0" id="circle51"/>
	<circle cx="622.069" cy="198.692" r="4" fill="#0" id="circle52"/>
	<circle cx="628.249" cy="362.48" r="4" fill="#0" id="circle53"/>
	<circle cx="646.791" cy="173.969" r="4" fill="#0" id="circle54"/>
	<circle cx="652.972" cy="337.757" r="4" fill="#0" id="circle55"/>
	<circle cx="677.695" cy="173.969" r="4" fill="#0" id="circle56"/>
	<circle cx="683.875" cy="322.305" r="4" fill="#0" id="circle57"/>
	<circle cx="699.327" cy="136.885" r="4" fill="#0" id="circle58"/>
	<circle cx="714.779" cy="306.854" r="4" fill="#0" id="circle59"/>
	<circle cx="724.05" cy="112.162" r="4" fill="#0" id="circle60"/>
	<circle cx="730.231" cy="75.0779" r="4" fill="#0" id="circle61"/>
	<circle cx="745.682" cy="44.1745" r="4" fill="#0" id="circle62"/>
	<circle cx="745.682" cy="291.402" r="4" fill="#0" id="circle63"/>
	<circle cx="776.586" cy="28.7227" r="4" fill="#0" id="circle64"/>
	<circle cx="776.586" cy="285.221" r="4" fill="#0" id="circle65"/>
	<circle cx="801.308" cy="4" r="4" fill="#0" id="circle66"/>
	<circle cx="807.489" cy="285.221" r="4" fill="#0" id="circle67"/>
	<circle cx="832.212" cy="4" r="4" fill="#0" id="circle68"/>
	<circle cx="838.393" cy="285.221" r="4" fill="#0" id="circle69"/>
	<circle cx="841.483" cy="115.252" r="4" fill="#0" id="circle70"/>
	<circle cx="841.483" cy="146.156" r="4" fill="#0" id="circle71"/>
	<circle cx="856.935" cy="173.969" r="4" fill="#0" id="circle72"/>
	<circle cx="863.115" cy="4" r="4" fill="#0" id="circle73"/>
	<circle cx="866.206" cy="93.6199" r="4" fill="#0" id="circle74"/>
	<circle cx="866.206" cy="300.673" r="4" fill="#0" id="circle75"/>
	<circle cx="887.838" cy="173.969" r="4" fill="#0" id="circle76"/>
	<circle cx="894.019" cy="4" r="4" fill="#0" id="circle77"/>
	<circle cx="897.109" cy="84.3489" r="4" fill="#0" id="circle78"/>
	<circle cx="897.109" cy="294.492" r="4" fill="#0" id="circle79"/>
	<circle cx="918.741" cy="173.969" r="4" fill="#0" id="circle80"/>
	<circle cx="921.832" cy="19.4517" r="4" fill="#0" id="circle81"/>
	<circle cx="924.922" cy="68.8972" r="4" fill="#0" id="circle82"/>
	<circle cx="928.012" cy="279.04" r="4" fill="#0" id="circle83"/>
	<circle cx="949.645" cy="34.9034" r="4" fill="#0" id="circle84"/>
	<circle cx="949.645" cy="173.969" r="4" fill="#0" id="circle85"/>
	<circle cx="949.645" cy="254.318" r="4" fill="#0" id="circle86"/>
	<circle cx="980.548" cy="173.969" r="4" fill="#0" id="circle87"/>
	<circle cx="980.548" cy="238.866" r="4" fill="#0" id="circle88"/>
	<circle cx="996" cy="201.782" r="4" fill="#0" id="circle89"/>
	</g>
</svg>