<?xml version="1.0" encoding="UTF-8" standalone="no"?>
<!-- Created with CurveBenchmark -->
<svg
	xmlns:dc="http://purl.org/dc/elements/1.1/"
	xmlns:cc="http://creativecommons.org/ns#"
	xmlns:rdf="http://www.w3.org/1999/02/22-rdf-syntax-ns#"
	xmlns:svg="http://www.w3.org/2000/svg"
	xmlns="http://www.w3.org/2000/svg"
	xmlns:sodipodi="http://sodipodi.sourceforge.net/DTD/sodipodi-0.dtd"
	xmlns:inkscape="http://www.inkscape.org/namespaces/inkscape"
	width="1000"
	height="1000"
	id="svg2"
	version="1.1"
	sodipodi:docname="manifold/crust-key17.png.txt">
<defs
	id="defs4" />
<metadata
	id="metadata7">
	<rdf:RDF>
		<cc:Work
			rdf:about="">
			<dc:format>image/svg+xml</dc:format>
			<dc:type
				rdf:resource="http://purl.org/dc/dcmitype/StillImage" />
			<dc:title></dc:title>
		</cc:Work>
	</rdf:RDF>
</metadata>
<g
	inkscape:label="Layer 1"
	inkscape:groupmode="layer"
	id="layer1">
	<path style="fill:none;stroke:red;stroke-width:1px;stroke-linecap:butt;stroke-linejoin:miter;stroke-opacity:1" d="M 145.184,63.4457 130.322,78.3071 z" id="boundary" inkscape:connector-curvature="0" />
	<path style="fill:none;stroke:red;stroke-width:1px;stroke-linecap:butt;stroke-linejoin:miter;stroke-opacity:1" d="M 130.322,78.3071 115.461,93.1685 z" id="boundary" inkscape:connector-curvature="0" />
	<path style="fill:none;stroke:red;stroke-width:1px;stroke-linecap:butt;stroke-linejoin:miter;stroke-opacity:1" d="M 187.91,22.5768 173.049,35.5805 z" id="boundary" inkscape:connector-curvature="0" />
	<path style="fill:none;stroke:red;stroke-width:1px;stroke-linecap:butt;stroke-linejoin:miter;stroke-opacity:1" d="M 195.341,4 187.91,22.5768 z" id="boundary" inkscape:connector-curvature="0" />
	<path style="fill:none;stroke:red;stroke-width:1px;stroke-linecap:butt;stroke-linejoin:miter;stroke-opacity:1" d="M 173.049,35.5805 160.045,50.4419 z" id="boundary" inkscape:connector-curvature="0" />
	<path style="fill:none;stroke:red;stroke-width:1px;stroke-linecap:butt;stroke-linejoin:miter;stroke-opacity:1" d="M 195.341,4 213.918,4 z" id="boundary" inkscape:connector-curvature="0" />
	<path style="fill:none;stroke:red;stroke-width:1px;stroke-linecap:butt;stroke-linejoin:miter;stroke-opacity:1" d="M 145.184,63.4457 160.045,50.4419 z" id="boundary" inkscape:connector-curvature="0" />
	<path style="fill:none;stroke:red;stroke-width:1px;stroke-linecap:butt;stroke-linejoin:miter;stroke-opacity:1" d="M 213.918,4 232.494,4 z" id="boundary" inkscape:connector-curvature="0" />
	<path style="fill:none;stroke:red;stroke-width:1px;stroke-linecap:butt;stroke-linejoin:miter;stroke-opacity:1" d="M 22.5768,158.187 4,167.476 z" id="boundary" inkscape:connector-curvature="0" />
	<path style="fill:none;stroke:red;stroke-width:1px;stroke-linecap:butt;stroke-linejoin:miter;stroke-opacity:1" d="M 37.4382,143.326 22.5768,158.187 z" id="boundary" inkscape:connector-curvature="0" />
	<path style="fill:none;stroke:red;stroke-width:1px;stroke-linecap:butt;stroke-linejoin:miter;stroke-opacity:1" d="M 52.2996,128.464 37.4382,143.326 z" id="boundary" inkscape:connector-curvature="0" />
	<path style="fill:none;stroke:red;stroke-width:1px;stroke-linecap:butt;stroke-linejoin:miter;stroke-opacity:1" d="M 52.2996,128.464 70.8764,124.749 z" id="boundary" inkscape:connector-curvature="0" />
	<path style="fill:none;stroke:red;stroke-width:1px;stroke-linecap:butt;stroke-linejoin:miter;stroke-opacity:1" d="M 4,167.476 4,186.052 z" id="boundary" inkscape:connector-curvature="0" />
	<path style="fill:none;stroke:red;stroke-width:1px;stroke-linecap:butt;stroke-linejoin:miter;stroke-opacity:1" d="M 4,204.629 4,186.052 z" id="boundary" inkscape:connector-curvature="0" />
	<path style="fill:none;stroke:red;stroke-width:1px;stroke-linecap:butt;stroke-linejoin:miter;stroke-opacity:1" d="M 4,232.494 4,204.629 z" id="boundary" inkscape:connector-curvature="0" />
	<path style="fill:none;stroke:red;stroke-width:1px;stroke-linecap:butt;stroke-linejoin:miter;stroke-opacity:1" d="M 70.8764,124.749 82.0225,108.03 z" id="boundary" inkscape:connector-curvature="0" />
	<path style="fill:none;stroke:red;stroke-width:1px;stroke-linecap:butt;stroke-linejoin:miter;stroke-opacity:1" d="M 96.8839,96.8839 82.0225,108.03 z" id="boundary" inkscape:connector-curvature="0" />
	<path style="fill:none;stroke:red;stroke-width:1px;stroke-linecap:butt;stroke-linejoin:miter;stroke-opacity:1" d="M 96.8839,96.8839 115.461,93.1685 z" id="boundary" inkscape:connector-curvature="0" />
	<path style="fill:none;stroke:red;stroke-width:1px;stroke-linecap:butt;stroke-linejoin:miter;stroke-opacity:1" d="M 232.494,4 251.071,4 z" id="boundary" inkscape:connector-curvature="0" />
	<path style="fill:none;stroke:red;stroke-width:1px;stroke-linecap:butt;stroke-linejoin:miter;stroke-opacity:1" d="M 251.071,4 256.644,22.5768 z" id="boundary" inkscape:connector-curvature="0" />
	<path style="fill:none;stroke:red;stroke-width:1px;stroke-linecap:butt;stroke-linejoin:miter;stroke-opacity:1" d="M 256.644,22.5768 271.506,33.7228 z" id="boundary" inkscape:connector-curvature="0" />
	<path style="fill:none;stroke:red;stroke-width:1px;stroke-linecap:butt;stroke-linejoin:miter;stroke-opacity:1" d="M 271.506,33.7228 288.225,43.0112 z" id="boundary" inkscape:connector-curvature="0" />
	<path style="fill:none;stroke:red;stroke-width:1px;stroke-linecap:butt;stroke-linejoin:miter;stroke-opacity:1" d="M 314.232,69.0187 297.513,59.7303 z" id="boundary" inkscape:connector-curvature="0" />
	<path style="fill:none;stroke:red;stroke-width:1px;stroke-linecap:butt;stroke-linejoin:miter;stroke-opacity:1" d="M 297.513,59.7303 288.225,43.0112 z" id="boundary" inkscape:connector-curvature="0" />
	<path style="fill:none;stroke:red;stroke-width:1px;stroke-linecap:butt;stroke-linejoin:miter;stroke-opacity:1" d="M 349.528,78.3071 330.951,78.3071 z" id="boundary" inkscape:connector-curvature="0" />
	<path style="fill:none;stroke:red;stroke-width:1px;stroke-linecap:butt;stroke-linejoin:miter;stroke-opacity:1" d="M 330.951,78.3071 314.232,69.0187 z" id="boundary" inkscape:connector-curvature="0" />
	<path style="fill:none;stroke:red;stroke-width:1px;stroke-linecap:butt;stroke-linejoin:miter;stroke-opacity:1" d="M 368.105,83.8801 349.528,78.3071 z" id="boundary" inkscape:connector-curvature="0" />
	<path style="fill:none;stroke:red;stroke-width:1px;stroke-linecap:butt;stroke-linejoin:miter;stroke-opacity:1" d="M 386.682,83.8801 368.105,83.8801 z" id="boundary" inkscape:connector-curvature="0" />
	<path style="fill:none;stroke:red;stroke-width:1px;stroke-linecap:butt;stroke-linejoin:miter;stroke-opacity:1" d="M 401.543,96.8839 386.682,83.8801 z" id="boundary" inkscape:connector-curvature="0" />
	<path style="fill:none;stroke:red;stroke-width:1px;stroke-linecap:butt;stroke-linejoin:miter;stroke-opacity:1" d="M 420.12,96.8839 401.543,96.8839 z" id="boundary" inkscape:connector-curvature="0" />
	<path style="fill:none;stroke:red;stroke-width:1px;stroke-linecap:butt;stroke-linejoin:miter;stroke-opacity:1" d="M 451.7,113.603 438.697,98.7416 z" id="boundary" inkscape:connector-curvature="0" />
	<path style="fill:none;stroke:red;stroke-width:1px;stroke-linecap:butt;stroke-linejoin:miter;stroke-opacity:1" d="M 420.12,96.8839 438.697,98.7416 z" id="boundary" inkscape:connector-curvature="0" />
	<path style="fill:none;stroke:red;stroke-width:1px;stroke-linecap:butt;stroke-linejoin:miter;stroke-opacity:1" d="M 460.989,130.322 451.7,113.603 z" id="boundary" inkscape:connector-curvature="0" />
	<path style="fill:none;stroke:red;stroke-width:1px;stroke-linecap:butt;stroke-linejoin:miter;stroke-opacity:1" d="M 4,251.071 4,269.648 z" id="boundary" inkscape:connector-curvature="0" />
	<path style="fill:none;stroke:red;stroke-width:1px;stroke-linecap:butt;stroke-linejoin:miter;stroke-opacity:1" d="M 4,251.071 4,232.494 z" id="boundary" inkscape:connector-curvature="0" />
	<path style="fill:none;stroke:red;stroke-width:1px;stroke-linecap:butt;stroke-linejoin:miter;stroke-opacity:1" d="M 13.2884,286.367 4,269.648 z" id="boundary" inkscape:connector-curvature="0" />
	<path style="fill:none;stroke:red;stroke-width:1px;stroke-linecap:butt;stroke-linejoin:miter;stroke-opacity:1" d="M 26.2921,301.228 13.2884,286.367 z" id="boundary" inkscape:connector-curvature="0" />
	<path style="fill:none;stroke:red;stroke-width:1px;stroke-linecap:butt;stroke-linejoin:miter;stroke-opacity:1" d="M 41.1536,312.375 57.8727,321.663 z" id="boundary" inkscape:connector-curvature="0" />
	<path style="fill:none;stroke:red;stroke-width:1px;stroke-linecap:butt;stroke-linejoin:miter;stroke-opacity:1" d="M 41.1536,312.375 26.2921,301.228 z" id="boundary" inkscape:connector-curvature="0" />
	<path style="fill:none;stroke:red;stroke-width:1px;stroke-linecap:butt;stroke-linejoin:miter;stroke-opacity:1" d="M 70.8764,336.524 57.8727,321.663 z" id="boundary" inkscape:connector-curvature="0" />
	<path style="fill:none;stroke:red;stroke-width:1px;stroke-linecap:butt;stroke-linejoin:miter;stroke-opacity:1" d="M 70.8764,336.524 89.4532,340.24 z" id="boundary" inkscape:connector-curvature="0" />
	<path style="fill:none;stroke:red;stroke-width:1px;stroke-linecap:butt;stroke-linejoin:miter;stroke-opacity:1" d="M 106.172,349.528 89.4532,340.24 z" id="boundary" inkscape:connector-curvature="0" />
	<path style="fill:none;stroke:red;stroke-width:1px;stroke-linecap:butt;stroke-linejoin:miter;stroke-opacity:1" d="M 106.172,349.528 111.745,368.105 z" id="boundary" inkscape:connector-curvature="0" />
	<path style="fill:none;stroke:red;stroke-width:1px;stroke-linecap:butt;stroke-linejoin:miter;stroke-opacity:1" d="M 111.745,368.105 130.322,368.105 z" id="boundary" inkscape:connector-curvature="0" />
	<path style="fill:none;stroke:red;stroke-width:1px;stroke-linecap:butt;stroke-linejoin:miter;stroke-opacity:1" d="M 130.322,368.105 145.184,381.109 z" id="boundary" inkscape:connector-curvature="0" />
	<path style="fill:none;stroke:red;stroke-width:1px;stroke-linecap:butt;stroke-linejoin:miter;stroke-opacity:1" d="M 152.614,399.685 145.184,381.109 z" id="boundary" inkscape:connector-curvature="0" />
	<path style="fill:none;stroke:red;stroke-width:1px;stroke-linecap:butt;stroke-linejoin:miter;stroke-opacity:1" d="M 152.614,399.685 171.191,405.258 z" id="boundary" inkscape:connector-curvature="0" />
	<path style="fill:none;stroke:red;stroke-width:1px;stroke-linecap:butt;stroke-linejoin:miter;stroke-opacity:1" d="M 182.337,420.12 171.191,405.258 z" id="boundary" inkscape:connector-curvature="0" />
	<path style="fill:none;stroke:red;stroke-width:1px;stroke-linecap:butt;stroke-linejoin:miter;stroke-opacity:1" d="M 197.199,433.124 182.337,420.12 z" id="boundary" inkscape:connector-curvature="0" />
	<path style="fill:none;stroke:red;stroke-width:1px;stroke-linecap:butt;stroke-linejoin:miter;stroke-opacity:1" d="M 197.199,433.124 208.345,464.704 z" id="boundary" inkscape:connector-curvature="0" />
	<path style="fill:none;stroke:red;stroke-width:1px;stroke-linecap:butt;stroke-linejoin:miter;stroke-opacity:1" d="M 208.345,464.704 223.206,477.708 z" id="boundary" inkscape:connector-curvature="0" />
	<path style="fill:none;stroke:red;stroke-width:1px;stroke-linecap:butt;stroke-linejoin:miter;stroke-opacity:1" d="M 241.783,479.566 223.206,477.708 z" id="boundary" inkscape:connector-curvature="0" />
	<path style="fill:none;stroke:red;stroke-width:1px;stroke-linecap:butt;stroke-linejoin:miter;stroke-opacity:1" d="M 355.101,364.39 373.678,355.101 z" id="boundary" inkscape:connector-curvature="0" />
	<path style="fill:none;stroke:red;stroke-width:1px;stroke-linecap:butt;stroke-linejoin:miter;stroke-opacity:1" d="M 355.101,364.39 340.24,377.393 z" id="boundary" inkscape:connector-curvature="0" />
	<path style="fill:none;stroke:red;stroke-width:1px;stroke-linecap:butt;stroke-linejoin:miter;stroke-opacity:1" d="M 392.255,355.101 373.678,355.101 z" id="boundary" inkscape:connector-curvature="0" />
	<path style="fill:none;stroke:red;stroke-width:1px;stroke-linecap:butt;stroke-linejoin:miter;stroke-opacity:1" d="M 470.277,321.663 451.7,321.663 z" id="boundary" inkscape:connector-curvature="0" />
	<path style="fill:none;stroke:red;stroke-width:1px;stroke-linecap:butt;stroke-linejoin:miter;stroke-opacity:1" d="M 479.566,303.086 470.277,321.663 z" id="boundary" inkscape:connector-curvature="0" />
	<path style="fill:none;stroke:red;stroke-width:1px;stroke-linecap:butt;stroke-linejoin:miter;stroke-opacity:1" d="M 451.7,321.663 442.412,340.24 z" id="boundary" inkscape:connector-curvature="0" />
	<path style="fill:none;stroke:red;stroke-width:1px;stroke-linecap:butt;stroke-linejoin:miter;stroke-opacity:1" d="M 392.255,355.101 405.258,340.24 z" id="boundary" inkscape:connector-curvature="0" />
	<path style="fill:none;stroke:red;stroke-width:1px;stroke-linecap:butt;stroke-linejoin:miter;stroke-opacity:1" d="M 405.258,340.24 423.835,340.24 z" id="boundary" inkscape:connector-curvature="0" />
	<path style="fill:none;stroke:red;stroke-width:1px;stroke-linecap:butt;stroke-linejoin:miter;stroke-opacity:1" d="M 442.412,340.24 423.835,340.24 z" id="boundary" inkscape:connector-curvature="0" />
	<path style="fill:none;stroke:red;stroke-width:1px;stroke-linecap:butt;stroke-linejoin:miter;stroke-opacity:1" d="M 290.082,429.408 275.221,442.412 z" id="boundary" inkscape:connector-curvature="0" />
	<path style="fill:none;stroke:red;stroke-width:1px;stroke-linecap:butt;stroke-linejoin:miter;stroke-opacity:1" d="M 290.082,429.408 308.659,423.835 z" id="boundary" inkscape:connector-curvature="0" />
	<path style="fill:none;stroke:red;stroke-width:1px;stroke-linecap:butt;stroke-linejoin:miter;stroke-opacity:1" d="M 260.36,477.708 241.783,479.566 z" id="boundary" inkscape:connector-curvature="0" />
	<path style="fill:none;stroke:red;stroke-width:1px;stroke-linecap:butt;stroke-linejoin:miter;stroke-opacity:1" d="M 260.36,477.708 275.221,460.989 z" id="boundary" inkscape:connector-curvature="0" />
	<path style="fill:none;stroke:red;stroke-width:1px;stroke-linecap:butt;stroke-linejoin:miter;stroke-opacity:1" d="M 275.221,442.412 275.221,460.989 z" id="boundary" inkscape:connector-curvature="0" />
	<path style="fill:none;stroke:red;stroke-width:1px;stroke-linecap:butt;stroke-linejoin:miter;stroke-opacity:1" d="M 312.375,405.258 321.663,386.682 z" id="boundary" inkscape:connector-curvature="0" />
	<path style="fill:none;stroke:red;stroke-width:1px;stroke-linecap:butt;stroke-linejoin:miter;stroke-opacity:1" d="M 321.663,386.682 340.24,377.393 z" id="boundary" inkscape:connector-curvature="0" />
	<path style="fill:none;stroke:red;stroke-width:1px;stroke-linecap:butt;stroke-linejoin:miter;stroke-opacity:1" d="M 308.659,423.835 312.375,405.258 z" id="boundary" inkscape:connector-curvature="0" />
	<path style="fill:none;stroke:red;stroke-width:1px;stroke-linecap:butt;stroke-linejoin:miter;stroke-opacity:1" d="M 479.566,124.749 460.989,130.322 z" id="boundary" inkscape:connector-curvature="0" />
	<path style="fill:none;stroke:red;stroke-width:1px;stroke-linecap:butt;stroke-linejoin:miter;stroke-opacity:1" d="M 665.333,119.176 646.757,121.034 z" id="boundary" inkscape:connector-curvature="0" />
	<path style="fill:none;stroke:red;stroke-width:1px;stroke-linecap:butt;stroke-linejoin:miter;stroke-opacity:1" d="M 646.757,121.034 628.18,121.034 z" id="boundary" inkscape:connector-curvature="0" />
	<path style="fill:none;stroke:red;stroke-width:1px;stroke-linecap:butt;stroke-linejoin:miter;stroke-opacity:1" d="M 683.91,124.749 665.333,119.176 z" id="boundary" inkscape:connector-curvature="0" />
	<path style="fill:none;stroke:red;stroke-width:1px;stroke-linecap:butt;stroke-linejoin:miter;stroke-opacity:1" d="M 628.18,121.034 609.603,124.749 z" id="boundary" inkscape:connector-curvature="0" />
	<path style="fill:none;stroke:red;stroke-width:1px;stroke-linecap:butt;stroke-linejoin:miter;stroke-opacity:1" d="M 479.566,124.749 498.142,124.749 z" id="boundary" inkscape:connector-curvature="0" />
	<path style="fill:none;stroke:red;stroke-width:1px;stroke-linecap:butt;stroke-linejoin:miter;stroke-opacity:1" d="M 516.719,124.749 535.296,124.749 z" id="boundary" inkscape:connector-curvature="0" />
	<path style="fill:none;stroke:red;stroke-width:1px;stroke-linecap:butt;stroke-linejoin:miter;stroke-opacity:1" d="M 553.873,124.749 535.296,124.749 z" id="boundary" inkscape:connector-curvature="0" />
	<path style="fill:none;stroke:red;stroke-width:1px;stroke-linecap:butt;stroke-linejoin:miter;stroke-opacity:1" d="M 516.719,124.749 498.142,124.749 z" id="boundary" inkscape:connector-curvature="0" />
	<path style="fill:none;stroke:red;stroke-width:1px;stroke-linecap:butt;stroke-linejoin:miter;stroke-opacity:1" d="M 572.449,124.749 591.026,124.749 z" id="boundary" inkscape:connector-curvature="0" />
	<path style="fill:none;stroke:red;stroke-width:1px;stroke-linecap:butt;stroke-linejoin:miter;stroke-opacity:1" d="M 553.873,124.749 572.449,124.749 z" id="boundary" inkscape:connector-curvature="0" />
	<path style="fill:none;stroke:red;stroke-width:1px;stroke-linecap:butt;stroke-linejoin:miter;stroke-opacity:1" d="M 591.026,124.749 609.603,124.749 z" id="boundary" inkscape:connector-curvature="0" />
	<path style="fill:none;stroke:red;stroke-width:1px;stroke-linecap:butt;stroke-linejoin:miter;stroke-opacity:1" d="M 683.91,124.749 702.487,124.749 z" id="boundary" inkscape:connector-curvature="0" />
	<path style="fill:none;stroke:red;stroke-width:1px;stroke-linecap:butt;stroke-linejoin:miter;stroke-opacity:1" d="M 721.064,124.749 702.487,124.749 z" id="boundary" inkscape:connector-curvature="0" />
	<path style="fill:none;stroke:red;stroke-width:1px;stroke-linecap:butt;stroke-linejoin:miter;stroke-opacity:1" d="M 739.64,124.749 721.064,124.749 z" id="boundary" inkscape:connector-curvature="0" />
	<path style="fill:none;stroke:red;stroke-width:1px;stroke-linecap:butt;stroke-linejoin:miter;stroke-opacity:1" d="M 843.67,115.461 826.951,106.172 z" id="boundary" inkscape:connector-curvature="0" />
	<path style="fill:none;stroke:red;stroke-width:1px;stroke-linecap:butt;stroke-linejoin:miter;stroke-opacity:1" d="M 826.951,106.172 810.232,115.461 z" id="boundary" inkscape:connector-curvature="0" />
	<path style="fill:none;stroke:red;stroke-width:1px;stroke-linecap:butt;stroke-linejoin:miter;stroke-opacity:1" d="M 776.794,119.176 758.217,124.749 z" id="boundary" inkscape:connector-curvature="0" />
	<path style="fill:none;stroke:red;stroke-width:1px;stroke-linecap:butt;stroke-linejoin:miter;stroke-opacity:1" d="M 791.655,108.03 776.794,119.176 z" id="boundary" inkscape:connector-curvature="0" />
	<path style="fill:none;stroke:red;stroke-width:1px;stroke-linecap:butt;stroke-linejoin:miter;stroke-opacity:1" d="M 810.232,115.461 791.655,108.03 z" id="boundary" inkscape:connector-curvature="0" />
	<path style="fill:none;stroke:red;stroke-width:1px;stroke-linecap:butt;stroke-linejoin:miter;stroke-opacity:1" d="M 860.39,106.172 843.67,115.461 z" id="boundary" inkscape:connector-curvature="0" />
	<path style="fill:none;stroke:red;stroke-width:1px;stroke-linecap:butt;stroke-linejoin:miter;stroke-opacity:1" d="M 758.217,124.749 739.64,124.749 z" id="boundary" inkscape:connector-curvature="0" />
	<path style="fill:none;stroke:red;stroke-width:1px;stroke-linecap:butt;stroke-linejoin:miter;stroke-opacity:1" d="M 979.281,139.61 966.277,124.749 z" id="boundary" inkscape:connector-curvature="0" />
	<path style="fill:none;stroke:red;stroke-width:1px;stroke-linecap:butt;stroke-linejoin:miter;stroke-opacity:1" d="M 878.966,106.172 860.39,106.172 z" id="boundary" inkscape:connector-curvature="0" />
	<path style="fill:none;stroke:red;stroke-width:1px;stroke-linecap:butt;stroke-linejoin:miter;stroke-opacity:1" d="M 878.966,106.172 897.543,106.172 z" id="boundary" inkscape:connector-curvature="0" />
	<path style="fill:none;stroke:red;stroke-width:1px;stroke-linecap:butt;stroke-linejoin:miter;stroke-opacity:1" d="M 914.262,115.461 897.543,106.172 z" id="boundary" inkscape:connector-curvature="0" />
	<path style="fill:none;stroke:red;stroke-width:1px;stroke-linecap:butt;stroke-linejoin:miter;stroke-opacity:1" d="M 932.839,111.745 951.416,111.745 z" id="boundary" inkscape:connector-curvature="0" />
	<path style="fill:none;stroke:red;stroke-width:1px;stroke-linecap:butt;stroke-linejoin:miter;stroke-opacity:1" d="M 932.839,111.745 914.262,115.461 z" id="boundary" inkscape:connector-curvature="0" />
	<path style="fill:none;stroke:red;stroke-width:1px;stroke-linecap:butt;stroke-linejoin:miter;stroke-opacity:1" d="M 966.277,124.749 951.416,111.745 z" id="boundary" inkscape:connector-curvature="0" />
	<path style="fill:none;stroke:red;stroke-width:1px;stroke-linecap:butt;stroke-linejoin:miter;stroke-opacity:1" d="M 988.569,156.33 979.281,139.61 z" id="boundary" inkscape:connector-curvature="0" />
	<path style="fill:none;stroke:red;stroke-width:1px;stroke-linecap:butt;stroke-linejoin:miter;stroke-opacity:1" d="M 988.569,156.33 996,178.622 z" id="boundary" inkscape:connector-curvature="0" />
	<path style="fill:none;stroke:red;stroke-width:1px;stroke-linecap:butt;stroke-linejoin:miter;stroke-opacity:1" d="M 996,178.622 981.139,191.625 z" id="boundary" inkscape:connector-curvature="0" />
	<path style="fill:none;stroke:red;stroke-width:1px;stroke-linecap:butt;stroke-linejoin:miter;stroke-opacity:1" d="M 552.015,256.644 535.296,265.933 z" id="boundary" inkscape:connector-curvature="0" />
	<path style="fill:none;stroke:red;stroke-width:1px;stroke-linecap:butt;stroke-linejoin:miter;stroke-opacity:1" d="M 624.464,256.644 607.745,247.356 z" id="boundary" inkscape:connector-curvature="0" />
	<path style="fill:none;stroke:red;stroke-width:1px;stroke-linecap:butt;stroke-linejoin:miter;stroke-opacity:1" d="M 607.745,247.356 589.169,251.071 z" id="boundary" inkscape:connector-curvature="0" />
	<path style="fill:none;stroke:red;stroke-width:1px;stroke-linecap:butt;stroke-linejoin:miter;stroke-opacity:1" d="M 659.76,247.356 641.184,247.356 z" id="boundary" inkscape:connector-curvature="0" />
	<path style="fill:none;stroke:red;stroke-width:1px;stroke-linecap:butt;stroke-linejoin:miter;stroke-opacity:1" d="M 678.337,247.356 659.76,247.356 z" id="boundary" inkscape:connector-curvature="0" />
	<path style="fill:none;stroke:red;stroke-width:1px;stroke-linecap:butt;stroke-linejoin:miter;stroke-opacity:1" d="M 624.464,256.644 641.184,247.356 z" id="boundary" inkscape:connector-curvature="0" />
	<path style="fill:none;stroke:red;stroke-width:1px;stroke-linecap:butt;stroke-linejoin:miter;stroke-opacity:1" d="M 570.592,260.36 589.169,251.071 z" id="boundary" inkscape:connector-curvature="0" />
	<path style="fill:none;stroke:red;stroke-width:1px;stroke-linecap:butt;stroke-linejoin:miter;stroke-opacity:1" d="M 695.056,256.644 678.337,247.356 z" id="boundary" inkscape:connector-curvature="0" />
	<path style="fill:none;stroke:red;stroke-width:1px;stroke-linecap:butt;stroke-linejoin:miter;stroke-opacity:1" d="M 711.775,265.933 695.056,256.644 z" id="boundary" inkscape:connector-curvature="0" />
	<path style="fill:none;stroke:red;stroke-width:1px;stroke-linecap:butt;stroke-linejoin:miter;stroke-opacity:1" d="M 552.015,256.644 570.592,260.36 z" id="boundary" inkscape:connector-curvature="0" />
	<path style="fill:none;stroke:red;stroke-width:1px;stroke-linecap:butt;stroke-linejoin:miter;stroke-opacity:1" d="M 505.573,293.798 488.854,284.509 z" id="boundary" inkscape:connector-curvature="0" />
	<path style="fill:none;stroke:red;stroke-width:1px;stroke-linecap:butt;stroke-linejoin:miter;stroke-opacity:1" d="M 535.296,265.933 524.15,297.513 z" id="boundary" inkscape:connector-curvature="0" />
	<path style="fill:none;stroke:red;stroke-width:1px;stroke-linecap:butt;stroke-linejoin:miter;stroke-opacity:1" d="M 479.566,303.086 488.854,284.509 z" id="boundary" inkscape:connector-curvature="0" />
	<path style="fill:none;stroke:red;stroke-width:1px;stroke-linecap:butt;stroke-linejoin:miter;stroke-opacity:1" d="M 524.15,297.513 505.573,293.798 z" id="boundary" inkscape:connector-curvature="0" />
	<path style="fill:none;stroke:red;stroke-width:1px;stroke-linecap:butt;stroke-linejoin:miter;stroke-opacity:1" d="M 711.775,265.933 730.352,265.933 z" id="boundary" inkscape:connector-curvature="0" />
	<path style="fill:none;stroke:red;stroke-width:1px;stroke-linecap:butt;stroke-linejoin:miter;stroke-opacity:1" d="M 819.521,247.356 800.944,252.929 z" id="boundary" inkscape:connector-curvature="0" />
	<path style="fill:none;stroke:red;stroke-width:1px;stroke-linecap:butt;stroke-linejoin:miter;stroke-opacity:1" d="M 800.944,252.929 786.082,265.933 z" id="boundary" inkscape:connector-curvature="0" />
	<path style="fill:none;stroke:red;stroke-width:1px;stroke-linecap:butt;stroke-linejoin:miter;stroke-opacity:1" d="M 968.135,206.487 953.273,219.491 z" id="boundary" inkscape:connector-curvature="0" />
	<path style="fill:none;stroke:red;stroke-width:1px;stroke-linecap:butt;stroke-linejoin:miter;stroke-opacity:1" d="M 968.135,206.487 981.139,191.625 z" id="boundary" inkscape:connector-curvature="0" />
	<path style="fill:none;stroke:red;stroke-width:1px;stroke-linecap:butt;stroke-linejoin:miter;stroke-opacity:1" d="M 940.27,234.352 953.273,219.491 z" id="boundary" inkscape:connector-curvature="0" />
	<path style="fill:none;stroke:red;stroke-width:1px;stroke-linecap:butt;stroke-linejoin:miter;stroke-opacity:1" d="M 903.116,234.352 884.539,243.64 z" id="boundary" inkscape:connector-curvature="0" />
	<path style="fill:none;stroke:red;stroke-width:1px;stroke-linecap:butt;stroke-linejoin:miter;stroke-opacity:1" d="M 832.524,262.217 819.521,247.356 z" id="boundary" inkscape:connector-curvature="0" />
	<path style="fill:none;stroke:red;stroke-width:1px;stroke-linecap:butt;stroke-linejoin:miter;stroke-opacity:1" d="M 921.693,238.067 903.116,234.352 z" id="boundary" inkscape:connector-curvature="0" />
	<path style="fill:none;stroke:red;stroke-width:1px;stroke-linecap:butt;stroke-linejoin:miter;stroke-opacity:1" d="M 921.693,238.067 940.27,234.352 z" id="boundary" inkscape:connector-curvature="0" />
	<path style="fill:none;stroke:red;stroke-width:1px;stroke-linecap:butt;stroke-linejoin:miter;stroke-opacity:1" d="M 884.539,243.64 869.678,256.644 z" id="boundary" inkscape:connector-curvature="0" />
	<path style="fill:none;stroke:red;stroke-width:1px;stroke-linecap:butt;stroke-linejoin:miter;stroke-opacity:1" d="M 748.929,265.933 767.506,265.933 z" id="boundary" inkscape:connector-curvature="0" />
	<path style="fill:none;stroke:red;stroke-width:1px;stroke-linecap:butt;stroke-linejoin:miter;stroke-opacity:1" d="M 786.082,265.933 767.506,265.933 z" id="boundary" inkscape:connector-curvature="0" />
	<path style="fill:none;stroke:red;stroke-width:1px;stroke-linecap:butt;stroke-linejoin:miter;stroke-opacity:1" d="M 748.929,265.933 730.352,265.933 z" id="boundary" inkscape:connector-curvature="0" />
	<path style="fill:none;stroke:red;stroke-width:1px;stroke-linecap:butt;stroke-linejoin:miter;stroke-opacity:1" d="M 832.524,262.217 851.101,256.644 z" id="boundary" inkscape:connector-curvature="0" />
	<path style="fill:none;stroke:red;stroke-width:1px;stroke-linecap:butt;stroke-linejoin:miter;stroke-opacity:1" d="M 869.678,256.644 851.101,256.644 z" id="boundary" inkscape:connector-curvature="0" />
	<circle cx="4" cy="167.476" r="4" fill="#0" id="circle0"/>
	<circle cx="4" cy="186.052" r="4" fill="#0" id="circle1"/>
	<circle cx="4" cy="204.629" r="4" fill="#0" id="circle2"/>
	<circle cx="4" cy="232.494" r="4" fill="#0" id="circle3"/>
	<circle cx="4" cy="251.071" r="4" fill="#0" id="circle4"/>
	<circle cx="4" cy="269.648" r="4" fill="#0" id="circle5"/>
	<circle cx="13.2884" cy="286.367" r="4" fill="#0" id="circle6"/>
	<circle cx="22.5768" cy="158.187" r="4" fill="#0" id="circle7"/>
	<circle cx="26.2921" cy="301.228" r="4" fill="#0" id="circle8"/>
	<circle cx="37.4382" cy="143.326" r="4" fill="#0" id="circle9"/>
	<circle cx="41.1536" cy="312.375" r="4" fill="#0" id="circle10"/>
	<circle cx="52.2996" cy="128.464" r="4" fill="#0" id="circle11"/>
	<circle cx="57.8727" cy="321.663" r="4" fill="#0" id="circle12"/>
	<circle cx="70.8764" cy="124.749" r="4" fill="#0" id="circle13"/>
	<circle cx="70.8764" cy="336.524" r="4" fill="#0" id="circle14"/>
	<circle cx="82.0225" cy="108.03" r="4" fill="#0" id="circle15"/>
	<circle cx="89.4532" cy="340.24" r="4" fill="#0" id="circle16"/>
	<circle cx="96.8839" cy="96.8839" r="4" fill="#0" id="circle17"/>
	<circle cx="106.172" cy="349.528" r="4" fill="#0" id="circle18"/>
	<circle cx="111.745" cy="368.105" r="4" fill="#0" id="circle19"/>
	<circle cx="115.461" cy="93.1685" r="4" fill="#0" id="circle20"/>
	<circle cx="130.322" cy="78.3071" r="4" fill="#0" id="circle21"/>
	<circle cx="130.322" cy="368.105" r="4" fill="#0" id="circle22"/>
	<circle cx="145.184" cy="63.4457" r="4" fill="#0" id="circle23"/>
	<circle cx="145.184" cy="381.109" r="4" fill="#0" id="circle24"/>
	<circle cx="152.614" cy="399.685" r="4" fill="#0" id="circle25"/>
	<circle cx="160.045" cy="50.4419" r="4" fill="#0" id="circle26"/>
	<circle cx="171.191" cy="405.258" r="4" fill="#0" id="circle27"/>
	<circle cx="173.049" cy="35.5805" r="4" fill="#0" id="circle28"/>
	<circle cx="182.337" cy="420.12" r="4" fill="#0" id="circle29"/>
	<circle cx="187.91" cy="22.5768" r="4" fill="#0" id="circle30"/>
	<circle cx="195.341" cy="4" r="4" fill="#0" id="circle31"/>
	<circle cx="197.199" cy="433.124" r="4" fill="#0" id="circle32"/>
	<circle cx="208.345" cy="464.704" r="4" fill="#0" id="circle33"/>
	<circle cx="213.918" cy="4" r="4" fill="#0" id="circle34"/>
	<circle cx="223.206" cy="477.708" r="4" fill="#0" id="circle35"/>
	<circle cx="232.494" cy="4" r="4" fill="#0" id="circle36"/>
	<circle cx="241.783" cy="479.566" r="4" fill="#0" id="circle37"/>
	<circle cx="251.071" cy="4" r="4" fill="#0" id="circle38"/>
	<circle cx="256.644" cy="22.5768" r="4" fill="#0" id="circle39"/>
	<circle cx="260.36" cy="477.708" r="4" fill="#0" id="circle40"/>
	<circle cx="271.506" cy="33.7228" r="4" fill="#0" id="circle41"/>
	<circle cx="275.221" cy="442.412" r="4" fill="#0" id="circle42"/>
	<circle cx="275.221" cy="460.989" r="4" fill="#0" id="circle43"/>
	<circle cx="288.225" cy="43.0112" r="4" fill="#0" id="circle44"/>
	<circle cx="290.082" cy="429.408" r="4" fill="#0" id="circle45"/>
	<circle cx="297.513" cy="59.7303" r="4" fill="#0" id="circle46"/>
	<circle cx="308.659" cy="423.835" r="4" fill="#0" id="circle47"/>
	<circle cx="312.375" cy="405.258" r="4" fill="#0" id="circle48"/>
	<circle cx="314.232" cy="69.0187" r="4" fill="#0" id="circle49"/>
	<circle cx="321.663" cy="386.682" r="4" fill="#0" id="circle50"/>
	<circle cx="330.951" cy="78.3071" r="4" fill="#0" id="circle51"/>
	<circle cx="340.24" cy="377.393" r="4" fill="#0" id="circle52"/>
	<circle cx="349.528" cy="78.3071" r="4" fill="#0" id="circle53"/>
	<circle cx="355.101" cy="364.39" r="4" fill="#0" id="circle54"/>
	<circle cx="368.105" cy="83.8801" r="4" fill="#0" id="circle55"/>
	<circle cx="373.678" cy="355.101" r="4" fill="#0" id="circle56"/>
	<circle cx="386.682" cy="83.8801" r="4" fill="#0" id="circle57"/>
	<circle cx="392.255" cy="355.101" r="4" fill="#0" id="circle58"/>
	<circle cx="401.543" cy="96.8839" r="4" fill="#0" id="circle59"/>
	<circle cx="405.258" cy="340.24" r="4" fill="#0" id="circle60"/>
	<circle cx="420.12" cy="96.8839" r="4" fill="#0" id="circle61"/>
	<circle cx="423.835" cy="340.24" r="4" fill="#0" id="circle62"/>
	<circle cx="438.697" cy="98.7416" r="4" fill="#0" id="circle63"/>
	<circle cx="442.412" cy="340.24" r="4" fill="#0" id="circle64"/>
	<circle cx="451.7" cy="113.603" r="4" fill="#0" id="circle65"/>
	<circle cx="451.7" cy="321.663" r="4" fill="#0" id="circle66"/>
	<circle cx="460.989" cy="130.322" r="4" fill="#0" id="circle67"/>
	<circle cx="470.277" cy="321.663" r="4" fill="#0" id="circle68"/>
	<circle cx="479.566" cy="124.749" r="4" fill="#0" id="circle69"/>
	<circle cx="479.566" cy="303.086" r="4" fill="#0" id="circle70"/>
	<circle cx="488.854" cy="284.509" r="4" fill="#0" id="circle71"/>
	<circle cx="498.142" cy="124.749" r="4" fill="#0" id="circle72"/>
	<circle cx="505.573" cy="293.798" r="4" fill="#0" id="circle73"/>
	<circle cx="516.719" cy="124.749" r="4" fill="#0" id="circle74"/>
	<circle cx="524.15" cy="297.513" r="4" fill="#0" id="circle75"/>
	<circle cx="535.296" cy="124.749" r="4" fill="#0" id="circle76"/>
	<circle cx="535.296" cy="265.933" r="4" fill="#0" id="circle77"/>
	<circle cx="552.015" cy="256.644" r="4" fill="#0" id="circle78"/>
	<circle cx="553.873" cy="124.749" r="4" fill="#0" id="circle79"/>
	<circle cx="570.592" cy="260.36" r="4" fill="#0" id="circle80"/>
	<circle cx="572.449" cy="124.749" r="4" fill="#0" id="circle81"/>
	<circle cx="589.169" cy="251.071" r="4" fill="#0" id="circle82"/>
	<circle cx="591.026" cy="124.749" r="4" fill="#0" id="circle83"/>
	<circle cx="607.745" cy="247.356" r="4" fill="#0" id="circle84"/>
	<circle cx="609.603" cy="124.749" r="4" fill="#0" id="circle85"/>
	<circle cx="624.464" cy="256.644" r="4" fill="#0" id="circle86"/>
	<circle cx="628.18" cy="121.034" r="4" fill="#0" id="circle87"/>
	<circle cx="641.184" cy="247.356" r="4" fill="#0" id="circle88"/>
	<circle cx="646.757" cy="121.034" r="4" fill="#0" id="circle89"/>
	<circle cx="659.76" cy="247.356" r="4" fill="#0" id="circle90"/>
	<circle cx="665.333" cy="119.176" r="4" fill="#0" id="circle91"/>
	<circle cx="678.337" cy="247.356" r="4" fill="#0" id="circle92"/>
	<circle cx="683.91" cy="124.749" r="4" fill="#0" id="circle93"/>
	<circle cx="695.056" cy="256.644" r="4" fill="#0" id="circle94"/>
	<circle cx="702.487" cy="124.749" r="4" fill="#0" id="circle95"/>
	<circle cx="711.775" cy="265.933" r="4" fill="#0" id="circle96"/>
	<circle cx="721.064" cy="124.749" r="4" fill="#0" id="circle97"/>
	<circle cx="730.352" cy="265.933" r="4" fill="#0" id="circle98"/>
	<circle cx="739.64" cy="124.749" r="4" fill="#0" id="circle99"/>
	<circle cx="748.929" cy="265.933" r="4" fill="#0" id="circle100"/>
	<circle cx="758.217" cy="124.749" r="4" fill="#0" id="circle101"/>
	<circle cx="767.506" cy="265.933" r="4" fill="#0" id="circle102"/>
	<circle cx="776.794" cy="119.176" r="4" fill="#0" id="circle103"/>
	<circle cx="786.082" cy="265.933" r="4" fill="#0" id="circle104"/>
	<circle cx="791.655" cy="108.03" r="4" fill="#0" id="circle105"/>
	<circle cx="800.944" cy="252.929" r="4" fill="#0" id="circle106"/>
	<circle cx="810.232" cy="115.461" r="4" fill="#0" id="circle107"/>
	<circle cx="819.521" cy="247.356" r="4" fill="#0" id="circle108"/>
	<circle cx="826.951" cy="106.172" r="4" fill="#0" id="circle109"/>
	<circle cx="832.524" cy="262.217" r="4" fill="#0" id="circle110"/>
	<circle cx="843.67" cy="115.461" r="4" fill="#0" id="circle111"/>
	<circle cx="851.101" cy="256.644" r="4" fill="#0" id="circle112"/>
	<circle cx="860.39" cy="106.172" r="4" fill="#0" id="circle113"/>
	<circle cx="869.678" cy="256.644" r="4" fill="#0" id="circle114"/>
	<circle cx="878.966" cy="106.172" r="4" fill="#0" id="circle115"/>
	<circle cx="884.539" cy="243.64" r="4" fill="#0" id="circle116"/>
	<circle cx="897.543" cy="106.172" r="4" fill="#0" id="circle117"/>
	<circle cx="903.116" cy="234.352" r="4" fill="#0" id="circle118"/>
	<circle cx="914.262" cy="115.461" r="4" fill="#0" id="circle119"/>
	<circle cx="921.693" cy="238.067" r="4" fill="#0" id="circle120"/>
	<circle cx="932.839" cy="111.745" r="4" fill="#0" id="circle121"/>
	<circle cx="940.27" cy="234.352" r="4" fill="#0" id="circle122"/>
	<circle cx="951.416" cy="111.745" r="4" fill="#0" id="circle123"/>
	<circle cx="953.273" cy="219.491" r="4" fill="#0" id="circle124"/>
	<circle cx="966.277" cy="124.749" r="4" fill="#0" id="circle125"/>
	<circle cx="968.135" cy="206.487" r="4" fill="#0" id="circle126"/>
	<circle cx="979.281" cy="139.61" r="4" fill="#0" id="circle127"/>
	<circle cx="981.139" cy="191.625" r="4" fill="#0" id="circle128"/>
	<circle cx="988.569" cy="156.33" r="4" fill="#0" id="circle129"/>
	<circle cx="996" cy="178.622" r="4" fill="#0" id="circle130"/>
	</g>
</svg>