<?xml version="1.0" encoding="UTF-8" standalone="no"?>
<!-- Created with CurveBenchmark -->
<svg
	xmlns:dc="http://purl.org/dc/elements/1.1/"
	xmlns:cc="http://creativecommons.org/ns#"
	xmlns:rdf="http://www.w3.org/1999/02/22-rdf-syntax-ns#"
	xmlns:svg="http://www.w3.org/2000/svg"
	xmlns="http://www.w3.org/2000/svg"
	xmlns:sodipodi="http://sodipodi.sourceforge.net/DTD/sodipodi-0.dtd"
	xmlns:inkscape="http://www.inkscape.org/namespaces/inkscape"
	width="1000"
	height="1000"
	id="svg2"
	version="1.1"
	sodipodi:docname="manifold/crust-hammer045.png.txt">
<defs
	id="defs4" />
<metadata
	id="metadata7">
	<rdf:RDF>
		<cc:Work
			rdf:about="">
			<dc:format>image/svg+xml</dc:format>
			<dc:type
				rdf:resource="http://purl.org/dc/dcmitype/StillImage" />
			<dc:title></dc:title>
		</cc:Work>
	</rdf:RDF>
</metadata>
<g
	inkscape:label="Layer 1"
	inkscape:groupmode="layer"
	id="layer1">
	<path style="fill:none;stroke:red;stroke-width:1px;stroke-linecap:butt;stroke-linejoin:miter;stroke-opacity:1" d="M 29.8783,87.3855 15.5014,113.264 z" id="boundary" inkscape:connector-curvature="0" />
	<path style="fill:none;stroke:red;stroke-width:1px;stroke-linecap:butt;stroke-linejoin:miter;stroke-opacity:1" d="M 44.2551,61.5072 29.8783,87.3855 z" id="boundary" inkscape:connector-curvature="0" />
	<path style="fill:none;stroke:red;stroke-width:1px;stroke-linecap:butt;stroke-linejoin:miter;stroke-opacity:1" d="M 4,147.768 15.5014,113.264 z" id="boundary" inkscape:connector-curvature="0" />
	<path style="fill:none;stroke:red;stroke-width:1px;stroke-linecap:butt;stroke-linejoin:miter;stroke-opacity:1" d="M 90.2609,15.5014 67.258,38.5043 z" id="boundary" inkscape:connector-curvature="0" />
	<path style="fill:none;stroke:red;stroke-width:1px;stroke-linecap:butt;stroke-linejoin:miter;stroke-opacity:1" d="M 44.2551,61.5072 67.258,38.5043 z" id="boundary" inkscape:connector-curvature="0" />
	<path style="fill:none;stroke:red;stroke-width:1px;stroke-linecap:butt;stroke-linejoin:miter;stroke-opacity:1" d="M 4,176.522 4,147.768 z" id="boundary" inkscape:connector-curvature="0" />
	<path style="fill:none;stroke:red;stroke-width:1px;stroke-linecap:butt;stroke-linejoin:miter;stroke-opacity:1" d="M 32.7536,179.397 4,176.522 z" id="boundary" inkscape:connector-curvature="0" />
	<path style="fill:none;stroke:red;stroke-width:1px;stroke-linecap:butt;stroke-linejoin:miter;stroke-opacity:1" d="M 32.7536,179.397 61.5072,179.397 z" id="boundary" inkscape:connector-curvature="0" />
	<path style="fill:none;stroke:red;stroke-width:1px;stroke-linecap:butt;stroke-linejoin:miter;stroke-opacity:1" d="M 61.5072,179.397 84.5101,156.394 z" id="boundary" inkscape:connector-curvature="0" />
	<path style="fill:none;stroke:red;stroke-width:1px;stroke-linecap:butt;stroke-linejoin:miter;stroke-opacity:1" d="M 119.014,4 147.768,4 z" id="boundary" inkscape:connector-curvature="0" />
	<path style="fill:none;stroke:red;stroke-width:1px;stroke-linecap:butt;stroke-linejoin:miter;stroke-opacity:1" d="M 113.264,150.643 98.887,124.765 z" id="boundary" inkscape:connector-curvature="0" />
	<path style="fill:none;stroke:red;stroke-width:1px;stroke-linecap:butt;stroke-linejoin:miter;stroke-opacity:1" d="M 90.2609,15.5014 119.014,4 z" id="boundary" inkscape:connector-curvature="0" />
	<path style="fill:none;stroke:red;stroke-width:1px;stroke-linecap:butt;stroke-linejoin:miter;stroke-opacity:1" d="M 176.522,4 147.768,4 z" id="boundary" inkscape:connector-curvature="0" />
	<path style="fill:none;stroke:red;stroke-width:1px;stroke-linecap:butt;stroke-linejoin:miter;stroke-opacity:1" d="M 124.765,179.397 113.264,150.643 z" id="boundary" inkscape:connector-curvature="0" />
	<path style="fill:none;stroke:red;stroke-width:1px;stroke-linecap:butt;stroke-linejoin:miter;stroke-opacity:1" d="M 124.765,179.397 136.267,208.151 z" id="boundary" inkscape:connector-curvature="0" />
	<path style="fill:none;stroke:red;stroke-width:1px;stroke-linecap:butt;stroke-linejoin:miter;stroke-opacity:1" d="M 136.267,208.151 136.267,236.904 z" id="boundary" inkscape:connector-curvature="0" />
	<path style="fill:none;stroke:red;stroke-width:1px;stroke-linecap:butt;stroke-linejoin:miter;stroke-opacity:1" d="M 136.267,236.904 136.267,265.658 z" id="boundary" inkscape:connector-curvature="0" />
	<path style="fill:none;stroke:red;stroke-width:1px;stroke-linecap:butt;stroke-linejoin:miter;stroke-opacity:1" d="M 142.017,294.412 136.267,265.658 z" id="boundary" inkscape:connector-curvature="0" />
	<path style="fill:none;stroke:red;stroke-width:1px;stroke-linecap:butt;stroke-linejoin:miter;stroke-opacity:1" d="M 142.017,294.412 142.017,323.165 z" id="boundary" inkscape:connector-curvature="0" />
	<path style="fill:none;stroke:red;stroke-width:1px;stroke-linecap:butt;stroke-linejoin:miter;stroke-opacity:1" d="M 142.017,323.165 142.017,351.919 z" id="boundary" inkscape:connector-curvature="0" />
	<path style="fill:none;stroke:red;stroke-width:1px;stroke-linecap:butt;stroke-linejoin:miter;stroke-opacity:1" d="M 136.267,400.8 142.017,351.919 z" id="boundary" inkscape:connector-curvature="0" />
	<path style="fill:none;stroke:red;stroke-width:1px;stroke-linecap:butt;stroke-linejoin:miter;stroke-opacity:1" d="M 113.264,487.061 113.264,515.814 z" id="boundary" inkscape:connector-curvature="0" />
	<path style="fill:none;stroke:red;stroke-width:1px;stroke-linecap:butt;stroke-linejoin:miter;stroke-opacity:1" d="M 124.765,458.307 113.264,487.061 z" id="boundary" inkscape:connector-curvature="0" />
	<path style="fill:none;stroke:red;stroke-width:1px;stroke-linecap:butt;stroke-linejoin:miter;stroke-opacity:1" d="M 113.264,515.814 113.264,544.568 z" id="boundary" inkscape:connector-curvature="0" />
	<path style="fill:none;stroke:red;stroke-width:1px;stroke-linecap:butt;stroke-linejoin:miter;stroke-opacity:1" d="M 113.264,544.568 113.264,573.322 z" id="boundary" inkscape:connector-curvature="0" />
	<path style="fill:none;stroke:red;stroke-width:1px;stroke-linecap:butt;stroke-linejoin:miter;stroke-opacity:1" d="M 113.264,602.075 113.264,630.829 z" id="boundary" inkscape:connector-curvature="0" />
	<path style="fill:none;stroke:red;stroke-width:1px;stroke-linecap:butt;stroke-linejoin:miter;stroke-opacity:1" d="M 113.264,602.075 113.264,573.322 z" id="boundary" inkscape:connector-curvature="0" />
	<path style="fill:none;stroke:red;stroke-width:1px;stroke-linecap:butt;stroke-linejoin:miter;stroke-opacity:1" d="M 113.264,688.336 113.264,659.583 z" id="boundary" inkscape:connector-curvature="0" />
	<path style="fill:none;stroke:red;stroke-width:1px;stroke-linecap:butt;stroke-linejoin:miter;stroke-opacity:1" d="M 113.264,630.829 113.264,659.583 z" id="boundary" inkscape:connector-curvature="0" />
	<path style="fill:none;stroke:red;stroke-width:1px;stroke-linecap:butt;stroke-linejoin:miter;stroke-opacity:1" d="M 101.762,987.374 107.513,935.617 z" id="boundary" inkscape:connector-curvature="0" />
	<path style="fill:none;stroke:red;stroke-width:1px;stroke-linecap:butt;stroke-linejoin:miter;stroke-opacity:1" d="M 113.264,889.612 107.513,935.617 z" id="boundary" inkscape:connector-curvature="0" />
	<path style="fill:none;stroke:red;stroke-width:1px;stroke-linecap:butt;stroke-linejoin:miter;stroke-opacity:1" d="M 113.264,688.336 113.264,717.09 z" id="boundary" inkscape:connector-curvature="0" />
	<path style="fill:none;stroke:red;stroke-width:1px;stroke-linecap:butt;stroke-linejoin:miter;stroke-opacity:1" d="M 101.762,987.374 130.516,996 z" id="boundary" inkscape:connector-curvature="0" />
	<path style="fill:none;stroke:red;stroke-width:1px;stroke-linecap:butt;stroke-linejoin:miter;stroke-opacity:1" d="M 136.267,429.554 136.267,400.8 z" id="boundary" inkscape:connector-curvature="0" />
	<path style="fill:none;stroke:red;stroke-width:1px;stroke-linecap:butt;stroke-linejoin:miter;stroke-opacity:1" d="M 124.765,458.307 136.267,429.554 z" id="boundary" inkscape:connector-curvature="0" />
	<path style="fill:none;stroke:red;stroke-width:1px;stroke-linecap:butt;stroke-linejoin:miter;stroke-opacity:1" d="M 113.264,717.09 113.264,745.843 z" id="boundary" inkscape:connector-curvature="0" />
	<path style="fill:none;stroke:red;stroke-width:1px;stroke-linecap:butt;stroke-linejoin:miter;stroke-opacity:1" d="M 113.264,774.597 113.264,745.843 z" id="boundary" inkscape:connector-curvature="0" />
	<path style="fill:none;stroke:red;stroke-width:1px;stroke-linecap:butt;stroke-linejoin:miter;stroke-opacity:1" d="M 113.264,803.351 113.264,832.104 z" id="boundary" inkscape:connector-curvature="0" />
	<path style="fill:none;stroke:red;stroke-width:1px;stroke-linecap:butt;stroke-linejoin:miter;stroke-opacity:1" d="M 113.264,860.858 113.264,832.104 z" id="boundary" inkscape:connector-curvature="0" />
	<path style="fill:none;stroke:red;stroke-width:1px;stroke-linecap:butt;stroke-linejoin:miter;stroke-opacity:1" d="M 113.264,860.858 113.264,889.612 z" id="boundary" inkscape:connector-curvature="0" />
	<path style="fill:none;stroke:red;stroke-width:1px;stroke-linecap:butt;stroke-linejoin:miter;stroke-opacity:1" d="M 113.264,803.351 113.264,774.597 z" id="boundary" inkscape:connector-curvature="0" />
	<path style="fill:none;stroke:red;stroke-width:1px;stroke-linecap:butt;stroke-linejoin:miter;stroke-opacity:1" d="M 159.27,996 130.516,996 z" id="boundary" inkscape:connector-curvature="0" />
	<path style="fill:none;stroke:red;stroke-width:1px;stroke-linecap:butt;stroke-linejoin:miter;stroke-opacity:1" d="M 188.023,996 159.27,996 z" id="boundary" inkscape:connector-curvature="0" />
	<path style="fill:none;stroke:red;stroke-width:1px;stroke-linecap:butt;stroke-linejoin:miter;stroke-opacity:1" d="M 176.522,4 205.275,4 z" id="boundary" inkscape:connector-curvature="0" />
	<path style="fill:none;stroke:red;stroke-width:1px;stroke-linecap:butt;stroke-linejoin:miter;stroke-opacity:1" d="M 205.275,4 234.029,4 z" id="boundary" inkscape:connector-curvature="0" />
	<path style="fill:none;stroke:red;stroke-width:1px;stroke-linecap:butt;stroke-linejoin:miter;stroke-opacity:1" d="M 242.655,124.765 231.154,159.27 z" id="boundary" inkscape:connector-curvature="0" />
	<path style="fill:none;stroke:red;stroke-width:1px;stroke-linecap:butt;stroke-linejoin:miter;stroke-opacity:1" d="M 234.029,4 262.783,9.75072 z" id="boundary" inkscape:connector-curvature="0" />
	<path style="fill:none;stroke:red;stroke-width:1px;stroke-linecap:butt;stroke-linejoin:miter;stroke-opacity:1" d="M 219.652,205.275 219.652,234.029 z" id="boundary" inkscape:connector-curvature="0" />
	<path style="fill:none;stroke:red;stroke-width:1px;stroke-linecap:butt;stroke-linejoin:miter;stroke-opacity:1" d="M 219.652,205.275 231.154,159.27 z" id="boundary" inkscape:connector-curvature="0" />
	<path style="fill:none;stroke:red;stroke-width:1px;stroke-linecap:butt;stroke-linejoin:miter;stroke-opacity:1" d="M 213.901,262.783 219.652,234.029 z" id="boundary" inkscape:connector-curvature="0" />
	<path style="fill:none;stroke:red;stroke-width:1px;stroke-linecap:butt;stroke-linejoin:miter;stroke-opacity:1" d="M 213.901,262.783 213.901,291.536 z" id="boundary" inkscape:connector-curvature="0" />
	<path style="fill:none;stroke:red;stroke-width:1px;stroke-linecap:butt;stroke-linejoin:miter;stroke-opacity:1" d="M 219.652,435.304 231.154,464.058 z" id="boundary" inkscape:connector-curvature="0" />
	<path style="fill:none;stroke:red;stroke-width:1px;stroke-linecap:butt;stroke-linejoin:miter;stroke-opacity:1" d="M 213.901,291.536 213.901,320.29 z" id="boundary" inkscape:connector-curvature="0" />
	<path style="fill:none;stroke:red;stroke-width:1px;stroke-linecap:butt;stroke-linejoin:miter;stroke-opacity:1" d="M 213.901,349.043 213.901,377.797 z" id="boundary" inkscape:connector-curvature="0" />
	<path style="fill:none;stroke:red;stroke-width:1px;stroke-linecap:butt;stroke-linejoin:miter;stroke-opacity:1" d="M 213.901,406.551 213.901,377.797 z" id="boundary" inkscape:connector-curvature="0" />
	<path style="fill:none;stroke:red;stroke-width:1px;stroke-linecap:butt;stroke-linejoin:miter;stroke-opacity:1" d="M 213.901,320.29 213.901,349.043 z" id="boundary" inkscape:connector-curvature="0" />
	<path style="fill:none;stroke:red;stroke-width:1px;stroke-linecap:butt;stroke-linejoin:miter;stroke-opacity:1" d="M 213.901,406.551 219.652,435.304 z" id="boundary" inkscape:connector-curvature="0" />
	<path style="fill:none;stroke:red;stroke-width:1px;stroke-linecap:butt;stroke-linejoin:miter;stroke-opacity:1" d="M 231.154,464.058 239.78,492.812 z" id="boundary" inkscape:connector-curvature="0" />
	<path style="fill:none;stroke:red;stroke-width:1px;stroke-linecap:butt;stroke-linejoin:miter;stroke-opacity:1" d="M 239.78,492.812 242.655,521.565 z" id="boundary" inkscape:connector-curvature="0" />
	<path style="fill:none;stroke:red;stroke-width:1px;stroke-linecap:butt;stroke-linejoin:miter;stroke-opacity:1" d="M 248.406,78.7594 274.284,93.1362 z" id="boundary" inkscape:connector-curvature="0" />
	<path style="fill:none;stroke:red;stroke-width:1px;stroke-linecap:butt;stroke-linejoin:miter;stroke-opacity:1" d="M 291.536,4 262.783,9.75072 z" id="boundary" inkscape:connector-curvature="0" />
	<path style="fill:none;stroke:red;stroke-width:1px;stroke-linecap:butt;stroke-linejoin:miter;stroke-opacity:1" d="M 291.536,4 320.29,6.87536 z" id="boundary" inkscape:connector-curvature="0" />
	<path style="fill:none;stroke:red;stroke-width:1px;stroke-linecap:butt;stroke-linejoin:miter;stroke-opacity:1" d="M 320.29,6.87536 334.667,32.7536 z" id="boundary" inkscape:connector-curvature="0" />
	<path style="fill:none;stroke:red;stroke-width:1px;stroke-linecap:butt;stroke-linejoin:miter;stroke-opacity:1" d="M 334.667,32.7536 326.041,75.8841 z" id="boundary" inkscape:connector-curvature="0" />
	<path style="fill:none;stroke:red;stroke-width:1px;stroke-linecap:butt;stroke-linejoin:miter;stroke-opacity:1" d="M 303.038,93.1362 326.041,75.8841 z" id="boundary" inkscape:connector-curvature="0" />
	<path style="fill:none;stroke:red;stroke-width:1px;stroke-linecap:butt;stroke-linejoin:miter;stroke-opacity:1" d="M 303.038,93.1362 274.284,93.1362 z" id="boundary" inkscape:connector-curvature="0" />
	<path style="fill:none;stroke:red;stroke-width:1px;stroke-linecap:butt;stroke-linejoin:miter;stroke-opacity:1" d="M 242.655,550.319 242.655,579.072 z" id="boundary" inkscape:connector-curvature="0" />
	<path style="fill:none;stroke:red;stroke-width:1px;stroke-linecap:butt;stroke-linejoin:miter;stroke-opacity:1" d="M 242.655,550.319 242.655,521.565 z" id="boundary" inkscape:connector-curvature="0" />
	<path style="fill:none;stroke:red;stroke-width:1px;stroke-linecap:butt;stroke-linejoin:miter;stroke-opacity:1" d="M 242.655,579.072 242.655,607.826 z" id="boundary" inkscape:connector-curvature="0" />
	<path style="fill:none;stroke:red;stroke-width:1px;stroke-linecap:butt;stroke-linejoin:miter;stroke-opacity:1" d="M 242.655,895.362 242.655,924.116 z" id="boundary" inkscape:connector-curvature="0" />
	<path style="fill:none;stroke:red;stroke-width:1px;stroke-linecap:butt;stroke-linejoin:miter;stroke-opacity:1" d="M 216.777,996 188.023,996 z" id="boundary" inkscape:connector-curvature="0" />
	<path style="fill:none;stroke:red;stroke-width:1px;stroke-linecap:butt;stroke-linejoin:miter;stroke-opacity:1" d="M 245.53,996 216.777,996 z" id="boundary" inkscape:connector-curvature="0" />
	<path style="fill:none;stroke:red;stroke-width:1px;stroke-linecap:butt;stroke-linejoin:miter;stroke-opacity:1" d="M 242.655,607.826 242.655,636.58 z" id="boundary" inkscape:connector-curvature="0" />
	<path style="fill:none;stroke:red;stroke-width:1px;stroke-linecap:butt;stroke-linejoin:miter;stroke-opacity:1" d="M 242.655,665.333 242.655,636.58 z" id="boundary" inkscape:connector-curvature="0" />
	<path style="fill:none;stroke:red;stroke-width:1px;stroke-linecap:butt;stroke-linejoin:miter;stroke-opacity:1" d="M 242.655,665.333 242.655,694.087 z" id="boundary" inkscape:connector-curvature="0" />
	<path style="fill:none;stroke:red;stroke-width:1px;stroke-linecap:butt;stroke-linejoin:miter;stroke-opacity:1" d="M 242.655,722.841 242.655,751.594 z" id="boundary" inkscape:connector-curvature="0" />
	<path style="fill:none;stroke:red;stroke-width:1px;stroke-linecap:butt;stroke-linejoin:miter;stroke-opacity:1" d="M 242.655,722.841 242.655,694.087 z" id="boundary" inkscape:connector-curvature="0" />
	<path style="fill:none;stroke:red;stroke-width:1px;stroke-linecap:butt;stroke-linejoin:miter;stroke-opacity:1" d="M 242.655,780.348 242.655,809.101 z" id="boundary" inkscape:connector-curvature="0" />
	<path style="fill:none;stroke:red;stroke-width:1px;stroke-linecap:butt;stroke-linejoin:miter;stroke-opacity:1" d="M 242.655,837.855 242.655,809.101 z" id="boundary" inkscape:connector-curvature="0" />
	<path style="fill:none;stroke:red;stroke-width:1px;stroke-linecap:butt;stroke-linejoin:miter;stroke-opacity:1" d="M 242.655,866.609 242.655,837.855 z" id="boundary" inkscape:connector-curvature="0" />
	<path style="fill:none;stroke:red;stroke-width:1px;stroke-linecap:butt;stroke-linejoin:miter;stroke-opacity:1" d="M 242.655,866.609 242.655,895.362 z" id="boundary" inkscape:connector-curvature="0" />
	<path style="fill:none;stroke:red;stroke-width:1px;stroke-linecap:butt;stroke-linejoin:miter;stroke-opacity:1" d="M 242.655,924.116 248.406,952.87 z" id="boundary" inkscape:connector-curvature="0" />
	<path style="fill:none;stroke:red;stroke-width:1px;stroke-linecap:butt;stroke-linejoin:miter;stroke-opacity:1" d="M 248.406,952.87 245.53,996 z" id="boundary" inkscape:connector-curvature="0" />
	<path style="fill:none;stroke:red;stroke-width:1px;stroke-linecap:butt;stroke-linejoin:miter;stroke-opacity:1" d="M 242.655,780.348 242.655,751.594 z" id="boundary" inkscape:connector-curvature="0" />
	<circle cx="4" cy="147.768" r="4" fill="#0" id="circle0"/>
	<circle cx="4" cy="176.522" r="4" fill="#0" id="circle1"/>
	<circle cx="15.5014" cy="113.264" r="4" fill="#0" id="circle2"/>
	<circle cx="29.8783" cy="87.3855" r="4" fill="#0" id="circle3"/>
	<circle cx="32.7536" cy="179.397" r="4" fill="#0" id="circle4"/>
	<circle cx="44.2551" cy="61.5072" r="4" fill="#0" id="circle5"/>
	<circle cx="61.5072" cy="179.397" r="4" fill="#0" id="circle6"/>
	<circle cx="67.258" cy="38.5043" r="4" fill="#0" id="circle7"/>
	<circle cx="84.5101" cy="156.394" r="4" fill="#0" id="circle8"/>
	<circle cx="90.2609" cy="15.5014" r="4" fill="#0" id="circle9"/>
	<circle cx="98.887" cy="124.765" r="4" fill="#0" id="circle10"/>
	<circle cx="101.762" cy="987.374" r="4" fill="#0" id="circle11"/>
	<circle cx="107.513" cy="935.617" r="4" fill="#0" id="circle12"/>
	<circle cx="113.264" cy="150.643" r="4" fill="#0" id="circle13"/>
	<circle cx="113.264" cy="487.061" r="4" fill="#0" id="circle14"/>
	<circle cx="113.264" cy="515.814" r="4" fill="#0" id="circle15"/>
	<circle cx="113.264" cy="544.568" r="4" fill="#0" id="circle16"/>
	<circle cx="113.264" cy="573.322" r="4" fill="#0" id="circle17"/>
	<circle cx="113.264" cy="602.075" r="4" fill="#0" id="circle18"/>
	<circle cx="113.264" cy="630.829" r="4" fill="#0" id="circle19"/>
	<circle cx="113.264" cy="659.583" r="4" fill="#0" id="circle20"/>
	<circle cx="113.264" cy="688.336" r="4" fill="#0" id="circle21"/>
	<circle cx="113.264" cy="717.09" r="4" fill="#0" id="circle22"/>
	<circle cx="113.264" cy="745.843" r="4" fill="#0" id="circle23"/>
	<circle cx="113.264" cy="774.597" r="4" fill="#0" id="circle24"/>
	<circle cx="113.264" cy="803.351" r="4" fill="#0" id="circle25"/>
	<circle cx="113.264" cy="832.104" r="4" fill="#0" id="circle26"/>
	<circle cx="113.264" cy="860.858" r="4" fill="#0" id="circle27"/>
	<circle cx="113.264" cy="889.612" r="4" fill="#0" id="circle28"/>
	<circle cx="119.014" cy="4" r="4" fill="#0" id="circle29"/>
	<circle cx="124.765" cy="179.397" r="4" fill="#0" id="circle30"/>
	<circle cx="124.765" cy="458.307" r="4" fill="#0" id="circle31"/>
	<circle cx="130.516" cy="996" r="4" fill="#0" id="circle32"/>
	<circle cx="136.267" cy="208.151" r="4" fill="#0" id="circle33"/>
	<circle cx="136.267" cy="236.904" r="4" fill="#0" id="circle34"/>
	<circle cx="136.267" cy="265.658" r="4" fill="#0" id="circle35"/>
	<circle cx="136.267" cy="400.8" r="4" fill="#0" id="circle36"/>
	<circle cx="136.267" cy="429.554" r="4" fill="#0" id="circle37"/>
	<circle cx="142.017" cy="294.412" r="4" fill="#0" id="circle38"/>
	<circle cx="142.017" cy="323.165" r="4" fill="#0" id="circle39"/>
	<circle cx="142.017" cy="351.919" r="4" fill="#0" id="circle40"/>
	<circle cx="147.768" cy="4" r="4" fill="#0" id="circle41"/>
	<circle cx="159.27" cy="996" r="4" fill="#0" id="circle42"/>
	<circle cx="176.522" cy="4" r="4" fill="#0" id="circle43"/>
	<circle cx="188.023" cy="996" r="4" fill="#0" id="circle44"/>
	<circle cx="205.275" cy="4" r="4" fill="#0" id="circle45"/>
	<circle cx="213.901" cy="262.783" r="4" fill="#0" id="circle46"/>
	<circle cx="213.901" cy="291.536" r="4" fill="#0" id="circle47"/>
	<circle cx="213.901" cy="320.29" r="4" fill="#0" id="circle48"/>
	<circle cx="213.901" cy="349.043" r="4" fill="#0" id="circle49"/>
	<circle cx="213.901" cy="377.797" r="4" fill="#0" id="circle50"/>
	<circle cx="213.901" cy="406.551" r="4" fill="#0" id="circle51"/>
	<circle cx="216.777" cy="996" r="4" fill="#0" id="circle52"/>
	<circle cx="219.652" cy="205.275" r="4" fill="#0" id="circle53"/>
	<circle cx="219.652" cy="234.029" r="4" fill="#0" id="circle54"/>
	<circle cx="219.652" cy="435.304" r="4" fill="#0" id="circle55"/>
	<circle cx="231.154" cy="159.27" r="4" fill="#0" id="circle56"/>
	<circle cx="231.154" cy="464.058" r="4" fill="#0" id="circle57"/>
	<circle cx="234.029" cy="4" r="4" fill="#0" id="circle58"/>
	<circle cx="239.78" cy="492.812" r="4" fill="#0" id="circle59"/>
	<circle cx="242.655" cy="124.765" r="4" fill="#0" id="circle60"/>
	<circle cx="242.655" cy="521.565" r="4" fill="#0" id="circle61"/>
	<circle cx="242.655" cy="550.319" r="4" fill="#0" id="circle62"/>
	<circle cx="242.655" cy="579.072" r="4" fill="#0" id="circle63"/>
	<circle cx="242.655" cy="607.826" r="4" fill="#0" id="circle64"/>
	<circle cx="242.655" cy="636.58" r="4" fill="#0" id="circle65"/>
	<circle cx="242.655" cy="665.333" r="4" fill="#0" id="circle66"/>
	<circle cx="242.655" cy="694.087" r="4" fill="#0" id="circle67"/>
	<circle cx="242.655" cy="722.841" r="4" fill="#0" id="circle68"/>
	<circle cx="242.655" cy="751.594" r="4" fill="#0" id="circle69"/>
	<circle cx="242.655" cy="780.348" r="4" fill="#0" id="circle70"/>
	<circle cx="242.655" cy="809.101" r="4" fill="#0" id="circle71"/>
	<circle cx="242.655" cy="837.855" r="4" fill="#0" id="circle72"/>
	<circle cx="242.655" cy="866.609" r="4" fill="#0" id="circle73"/>
	<circle cx="242.655" cy="895.362" r="4" fill="#0" id="circle74"/>
	<circle cx="242.655" cy="924.116" r="4" fill="#0" id="circle75"/>
	<circle cx="245.53" cy="996" r="4" fill="#0" id="circle76"/>
	<circle cx="248.406" cy="78.7594" r="4" fill="#0" id="circle77"/>
	<circle cx="248.406" cy="952.87" r="4" fill="#0" id="circle78"/>
	<circle cx="262.783" cy="9.75072" r="4" fill="#0" id="circle79"/>
	<circle cx="274.284" cy="93.1362" r="4" fill="#0" id="circle80"/>
	<circle cx="291.536" cy="4" r="4" fill="#0" id="circle81"/>
	<circle cx="303.038" cy="93.1362" r="4" fill="#0" id="circle82"/>
	<circle cx="320.29" cy="6.87536" r="4" fill="#0" id="circle83"/>
	<circle cx="326.041" cy="75.8841" r="4" fill="#0" id="circle84"/>
	<circle cx="334.667" cy="32.7536" r="4" fill="#0" id="circle85"/>
	</g>
</svg>