<?xml version="1.0" encoding="UTF-8" standalone="no"?>
<!-- Created with CurveBenchmark -->
<svg
	xmlns:dc="http://purl.org/dc/elements/1.1/"
	xmlns:cc="http://creativecommons.org/ns#"
	xmlns:rdf="http://www.w3.org/1999/02/22-rdf-syntax-ns#"
	xmlns:svg="http://www.w3.org/2000/svg"
	xmlns="http://www.w3.org/2000/svg"
	xmlns:sodipodi="http://sodipodi.sourceforge.net/DTD/sodipodi-0.dtd"
	xmlns:inkscape="http://www.inkscape.org/namespaces/inkscape"
	width="1000"
	height="1000"
	id="svg2"
	version="1.1"
	sodipodi:docname="manifold/crust-cthand14.png.txt">
<defs
	id="defs4" />
<metadata
	id="metadata7">
	<rdf:RDF>
		<cc:Work
			rdf:about="">
			<dc:format>image/svg+xml</dc:format>
			<dc:type
				rdf:resource="http://purl.org/dc/dcmitype/StillImage" />
			<dc:title></dc:title>
		</cc:Work>
	</rdf:RDF>
</metadata>
<g
	inkscape:label="Layer 1"
	inkscape:groupmode="layer"
	id="layer1">
	<path style="fill:none;stroke:red;stroke-width:1px;stroke-linecap:butt;stroke-linejoin:miter;stroke-opacity:1" d="M 41.3421,190.71 28.3535,203.699 z" id="boundary" inkscape:connector-curvature="0" />
	<path style="fill:none;stroke:red;stroke-width:1px;stroke-linecap:butt;stroke-linejoin:miter;stroke-opacity:1" d="M 28.3535,203.699 25.1064,223.182 z" id="boundary" inkscape:connector-curvature="0" />
	<path style="fill:none;stroke:red;stroke-width:1px;stroke-linecap:butt;stroke-linejoin:miter;stroke-opacity:1" d="M 52.707,203.699 41.3421,190.71 z" id="boundary" inkscape:connector-curvature="0" />
	<path style="fill:none;stroke:red;stroke-width:1px;stroke-linecap:butt;stroke-linejoin:miter;stroke-opacity:1" d="M 65.6956,215.064 52.707,203.699 z" id="boundary" inkscape:connector-curvature="0" />
	<path style="fill:none;stroke:red;stroke-width:1px;stroke-linecap:butt;stroke-linejoin:miter;stroke-opacity:1" d="M 70.5663,231.3 65.6956,215.064 z" id="boundary" inkscape:connector-curvature="0" />
	<path style="fill:none;stroke:red;stroke-width:1px;stroke-linecap:butt;stroke-linejoin:miter;stroke-opacity:1" d="M 16.9885,239.417 25.1064,223.182 z" id="boundary" inkscape:connector-curvature="0" />
	<path style="fill:none;stroke:red;stroke-width:1px;stroke-linecap:butt;stroke-linejoin:miter;stroke-opacity:1" d="M 16.9885,239.417 4,252.406 z" id="boundary" inkscape:connector-curvature="0" />
	<path style="fill:none;stroke:red;stroke-width:1px;stroke-linecap:butt;stroke-linejoin:miter;stroke-opacity:1" d="M 4,268.642 4,252.406 z" id="boundary" inkscape:connector-curvature="0" />
	<path style="fill:none;stroke:red;stroke-width:1px;stroke-linecap:butt;stroke-linejoin:miter;stroke-opacity:1" d="M 70.5663,231.3 78.6841,245.912 z" id="boundary" inkscape:connector-curvature="0" />
	<path style="fill:none;stroke:red;stroke-width:1px;stroke-linecap:butt;stroke-linejoin:miter;stroke-opacity:1" d="M 78.6841,245.912 78.6841,262.147 z" id="boundary" inkscape:connector-curvature="0" />
	<path style="fill:none;stroke:red;stroke-width:1px;stroke-linecap:butt;stroke-linejoin:miter;stroke-opacity:1" d="M 166.357,90.0491 166.357,106.285 z" id="boundary" inkscape:connector-curvature="0" />
	<path style="fill:none;stroke:red;stroke-width:1px;stroke-linecap:butt;stroke-linejoin:miter;stroke-opacity:1" d="M 166.357,90.0491 179.345,77.0606 z" id="boundary" inkscape:connector-curvature="0" />
	<path style="fill:none;stroke:red;stroke-width:1px;stroke-linecap:butt;stroke-linejoin:miter;stroke-opacity:1" d="M 179.345,77.0606 193.957,68.9427 z" id="boundary" inkscape:connector-curvature="0" />
	<path style="fill:none;stroke:red;stroke-width:1px;stroke-linecap:butt;stroke-linejoin:miter;stroke-opacity:1" d="M 166.357,122.52 166.357,106.285 z" id="boundary" inkscape:connector-curvature="0" />
	<path style="fill:none;stroke:red;stroke-width:1px;stroke-linecap:butt;stroke-linejoin:miter;stroke-opacity:1" d="M 166.357,138.756 166.357,154.992 z" id="boundary" inkscape:connector-curvature="0" />
	<path style="fill:none;stroke:red;stroke-width:1px;stroke-linecap:butt;stroke-linejoin:miter;stroke-opacity:1" d="M 166.357,138.756 166.357,122.52 z" id="boundary" inkscape:connector-curvature="0" />
	<path style="fill:none;stroke:red;stroke-width:1px;stroke-linecap:butt;stroke-linejoin:miter;stroke-opacity:1" d="M 166.357,171.227 166.357,154.992 z" id="boundary" inkscape:connector-curvature="0" />
	<path style="fill:none;stroke:red;stroke-width:1px;stroke-linecap:butt;stroke-linejoin:miter;stroke-opacity:1" d="M 166.357,187.463 158.239,211.817 z" id="boundary" inkscape:connector-curvature="0" />
	<path style="fill:none;stroke:red;stroke-width:1px;stroke-linecap:butt;stroke-linejoin:miter;stroke-opacity:1" d="M 158.239,211.817 158.239,228.052 z" id="boundary" inkscape:connector-curvature="0" />
	<path style="fill:none;stroke:red;stroke-width:1px;stroke-linecap:butt;stroke-linejoin:miter;stroke-opacity:1" d="M 166.357,187.463 166.357,171.227 z" id="boundary" inkscape:connector-curvature="0" />
	<path style="fill:none;stroke:red;stroke-width:1px;stroke-linecap:butt;stroke-linejoin:miter;stroke-opacity:1" d="M 158.239,244.288 158.239,228.052 z" id="boundary" inkscape:connector-curvature="0" />
	<path style="fill:none;stroke:red;stroke-width:1px;stroke-linecap:butt;stroke-linejoin:miter;stroke-opacity:1" d="M 158.239,244.288 150.121,268.642 z" id="boundary" inkscape:connector-curvature="0" />
	<path style="fill:none;stroke:red;stroke-width:1px;stroke-linecap:butt;stroke-linejoin:miter;stroke-opacity:1" d="M 12.1178,283.254 4,268.642 z" id="boundary" inkscape:connector-curvature="0" />
	<path style="fill:none;stroke:red;stroke-width:1px;stroke-linecap:butt;stroke-linejoin:miter;stroke-opacity:1" d="M 12.1178,299.489 12.1178,283.254 z" id="boundary" inkscape:connector-curvature="0" />
	<path style="fill:none;stroke:red;stroke-width:1px;stroke-linecap:butt;stroke-linejoin:miter;stroke-opacity:1" d="M 12.1178,299.489 12.1178,315.725 z" id="boundary" inkscape:connector-curvature="0" />
	<path style="fill:none;stroke:red;stroke-width:1px;stroke-linecap:butt;stroke-linejoin:miter;stroke-opacity:1" d="M 78.6841,278.383 86.802,292.995 z" id="boundary" inkscape:connector-curvature="0" />
	<path style="fill:none;stroke:red;stroke-width:1px;stroke-linecap:butt;stroke-linejoin:miter;stroke-opacity:1" d="M 86.802,292.995 86.802,309.231 z" id="boundary" inkscape:connector-curvature="0" />
	<path style="fill:none;stroke:red;stroke-width:1px;stroke-linecap:butt;stroke-linejoin:miter;stroke-opacity:1" d="M 78.6841,262.147 78.6841,278.383 z" id="boundary" inkscape:connector-curvature="0" />
	<path style="fill:none;stroke:red;stroke-width:1px;stroke-linecap:butt;stroke-linejoin:miter;stroke-opacity:1" d="M 12.1178,331.961 12.1178,315.725 z" id="boundary" inkscape:connector-curvature="0" />
	<path style="fill:none;stroke:red;stroke-width:1px;stroke-linecap:butt;stroke-linejoin:miter;stroke-opacity:1" d="M 12.1178,331.961 20.2357,346.573 z" id="boundary" inkscape:connector-curvature="0" />
	<path style="fill:none;stroke:red;stroke-width:1px;stroke-linecap:butt;stroke-linejoin:miter;stroke-opacity:1" d="M 20.2357,346.573 20.2357,362.809 z" id="boundary" inkscape:connector-curvature="0" />
	<path style="fill:none;stroke:red;stroke-width:1px;stroke-linecap:butt;stroke-linejoin:miter;stroke-opacity:1" d="M 94.9198,323.843 86.802,309.231 z" id="boundary" inkscape:connector-curvature="0" />
	<path style="fill:none;stroke:red;stroke-width:1px;stroke-linecap:butt;stroke-linejoin:miter;stroke-opacity:1" d="M 94.9198,323.843 94.9198,340.079 z" id="boundary" inkscape:connector-curvature="0" />
	<path style="fill:none;stroke:red;stroke-width:1px;stroke-linecap:butt;stroke-linejoin:miter;stroke-opacity:1" d="M 150.121,284.877 150.121,268.642 z" id="boundary" inkscape:connector-curvature="0" />
	<path style="fill:none;stroke:red;stroke-width:1px;stroke-linecap:butt;stroke-linejoin:miter;stroke-opacity:1" d="M 142.003,309.231 150.121,284.877 z" id="boundary" inkscape:connector-curvature="0" />
	<path style="fill:none;stroke:red;stroke-width:1px;stroke-linecap:butt;stroke-linejoin:miter;stroke-opacity:1" d="M 142.003,309.231 142.003,325.466 z" id="boundary" inkscape:connector-curvature="0" />
	<path style="fill:none;stroke:red;stroke-width:1px;stroke-linecap:butt;stroke-linejoin:miter;stroke-opacity:1" d="M 103.038,354.691 94.9198,340.079 z" id="boundary" inkscape:connector-curvature="0" />
	<path style="fill:none;stroke:red;stroke-width:1px;stroke-linecap:butt;stroke-linejoin:miter;stroke-opacity:1" d="M 142.003,325.466 142.003,341.702 z" id="boundary" inkscape:connector-curvature="0" />
	<path style="fill:none;stroke:red;stroke-width:1px;stroke-linecap:butt;stroke-linejoin:miter;stroke-opacity:1" d="M 150.121,356.314 142.003,341.702 z" id="boundary" inkscape:connector-curvature="0" />
	<path style="fill:none;stroke:red;stroke-width:1px;stroke-linecap:butt;stroke-linejoin:miter;stroke-opacity:1" d="M 219.935,44.5892 206.946,57.5777 z" id="boundary" inkscape:connector-curvature="0" />
	<path style="fill:none;stroke:red;stroke-width:1px;stroke-linecap:butt;stroke-linejoin:miter;stroke-opacity:1" d="M 193.957,68.9427 206.946,57.5777 z" id="boundary" inkscape:connector-curvature="0" />
	<path style="fill:none;stroke:red;stroke-width:1px;stroke-linecap:butt;stroke-linejoin:miter;stroke-opacity:1" d="M 219.935,44.5892 232.923,54.3306 z" id="boundary" inkscape:connector-curvature="0" />
	<path style="fill:none;stroke:red;stroke-width:1px;stroke-linecap:butt;stroke-linejoin:miter;stroke-opacity:1" d="M 232.923,54.3306 241.041,68.9427 z" id="boundary" inkscape:connector-curvature="0" />
	<path style="fill:none;stroke:red;stroke-width:1px;stroke-linecap:butt;stroke-linejoin:miter;stroke-opacity:1" d="M 257.277,111.155 249.159,127.391 z" id="boundary" inkscape:connector-curvature="0" />
	<path style="fill:none;stroke:red;stroke-width:1px;stroke-linecap:butt;stroke-linejoin:miter;stroke-opacity:1" d="M 249.159,127.391 249.159,143.627 z" id="boundary" inkscape:connector-curvature="0" />
	<path style="fill:none;stroke:red;stroke-width:1px;stroke-linecap:butt;stroke-linejoin:miter;stroke-opacity:1" d="M 249.159,143.627 249.159,159.863 z" id="boundary" inkscape:connector-curvature="0" />
	<path style="fill:none;stroke:red;stroke-width:1px;stroke-linecap:butt;stroke-linejoin:miter;stroke-opacity:1" d="M 249.159,159.863 249.159,176.098 z" id="boundary" inkscape:connector-curvature="0" />
	<path style="fill:none;stroke:red;stroke-width:1px;stroke-linecap:butt;stroke-linejoin:miter;stroke-opacity:1" d="M 241.041,68.9427 254.029,78.6841 z" id="boundary" inkscape:connector-curvature="0" />
	<path style="fill:none;stroke:red;stroke-width:1px;stroke-linecap:butt;stroke-linejoin:miter;stroke-opacity:1" d="M 257.277,94.9198 254.029,78.6841 z" id="boundary" inkscape:connector-curvature="0" />
	<path style="fill:none;stroke:red;stroke-width:1px;stroke-linecap:butt;stroke-linejoin:miter;stroke-opacity:1" d="M 257.277,94.9198 257.277,111.155 z" id="boundary" inkscape:connector-curvature="0" />
	<path style="fill:none;stroke:red;stroke-width:1px;stroke-linecap:butt;stroke-linejoin:miter;stroke-opacity:1" d="M 249.159,176.098 241.041,192.334 z" id="boundary" inkscape:connector-curvature="0" />
	<path style="fill:none;stroke:red;stroke-width:1px;stroke-linecap:butt;stroke-linejoin:miter;stroke-opacity:1" d="M 312.478,154.992 304.36,179.345 z" id="boundary" inkscape:connector-curvature="0" />
	<path style="fill:none;stroke:red;stroke-width:1px;stroke-linecap:butt;stroke-linejoin:miter;stroke-opacity:1" d="M 304.36,179.345 304.36,195.581 z" id="boundary" inkscape:connector-curvature="0" />
	<path style="fill:none;stroke:red;stroke-width:1px;stroke-linecap:butt;stroke-linejoin:miter;stroke-opacity:1" d="M 241.041,192.334 241.041,208.57 z" id="boundary" inkscape:connector-curvature="0" />
	<path style="fill:none;stroke:red;stroke-width:1px;stroke-linecap:butt;stroke-linejoin:miter;stroke-opacity:1" d="M 241.041,224.805 241.041,208.57 z" id="boundary" inkscape:connector-curvature="0" />
	<path style="fill:none;stroke:red;stroke-width:1px;stroke-linecap:butt;stroke-linejoin:miter;stroke-opacity:1" d="M 241.041,241.041 232.923,257.277 z" id="boundary" inkscape:connector-curvature="0" />
	<path style="fill:none;stroke:red;stroke-width:1px;stroke-linecap:butt;stroke-linejoin:miter;stroke-opacity:1" d="M 241.041,224.805 241.041,241.041 z" id="boundary" inkscape:connector-curvature="0" />
	<path style="fill:none;stroke:red;stroke-width:1px;stroke-linecap:butt;stroke-linejoin:miter;stroke-opacity:1" d="M 232.923,273.512 232.923,257.277 z" id="boundary" inkscape:connector-curvature="0" />
	<path style="fill:none;stroke:red;stroke-width:1px;stroke-linecap:butt;stroke-linejoin:miter;stroke-opacity:1" d="M 232.923,289.748 232.923,305.984 z" id="boundary" inkscape:connector-curvature="0" />
	<path style="fill:none;stroke:red;stroke-width:1px;stroke-linecap:butt;stroke-linejoin:miter;stroke-opacity:1" d="M 241.041,320.596 232.923,305.984 z" id="boundary" inkscape:connector-curvature="0" />
	<path style="fill:none;stroke:red;stroke-width:1px;stroke-linecap:butt;stroke-linejoin:miter;stroke-opacity:1" d="M 241.041,320.596 241.041,336.831 z" id="boundary" inkscape:connector-curvature="0" />
	<path style="fill:none;stroke:red;stroke-width:1px;stroke-linecap:butt;stroke-linejoin:miter;stroke-opacity:1" d="M 232.923,289.748 232.923,273.512 z" id="boundary" inkscape:connector-curvature="0" />
	<path style="fill:none;stroke:red;stroke-width:1px;stroke-linecap:butt;stroke-linejoin:miter;stroke-opacity:1" d="M 249.159,351.444 241.041,336.831 z" id="boundary" inkscape:connector-curvature="0" />
	<path style="fill:none;stroke:red;stroke-width:1px;stroke-linecap:butt;stroke-linejoin:miter;stroke-opacity:1" d="M 265.394,348.196 249.159,351.444 z" id="boundary" inkscape:connector-curvature="0" />
	<path style="fill:none;stroke:red;stroke-width:1px;stroke-linecap:butt;stroke-linejoin:miter;stroke-opacity:1" d="M 280.007,244.288 292.995,231.3 z" id="boundary" inkscape:connector-curvature="0" />
	<path style="fill:none;stroke:red;stroke-width:1px;stroke-linecap:butt;stroke-linejoin:miter;stroke-opacity:1" d="M 292.995,231.3 296.242,211.817 z" id="boundary" inkscape:connector-curvature="0" />
	<path style="fill:none;stroke:red;stroke-width:1px;stroke-linecap:butt;stroke-linejoin:miter;stroke-opacity:1" d="M 280.007,244.288 280.007,260.524 z" id="boundary" inkscape:connector-curvature="0" />
	<path style="fill:none;stroke:red;stroke-width:1px;stroke-linecap:butt;stroke-linejoin:miter;stroke-opacity:1" d="M 271.889,292.995 271.889,309.231 z" id="boundary" inkscape:connector-curvature="0" />
	<path style="fill:none;stroke:red;stroke-width:1px;stroke-linecap:butt;stroke-linejoin:miter;stroke-opacity:1" d="M 280.007,276.759 271.889,292.995 z" id="boundary" inkscape:connector-curvature="0" />
	<path style="fill:none;stroke:red;stroke-width:1px;stroke-linecap:butt;stroke-linejoin:miter;stroke-opacity:1" d="M 280.007,260.524 280.007,276.759 z" id="boundary" inkscape:connector-curvature="0" />
	<path style="fill:none;stroke:red;stroke-width:1px;stroke-linecap:butt;stroke-linejoin:miter;stroke-opacity:1" d="M 271.889,325.466 265.394,348.196 z" id="boundary" inkscape:connector-curvature="0" />
	<path style="fill:none;stroke:red;stroke-width:1px;stroke-linecap:butt;stroke-linejoin:miter;stroke-opacity:1" d="M 271.889,309.231 271.889,325.466 z" id="boundary" inkscape:connector-curvature="0" />
	<path style="fill:none;stroke:red;stroke-width:1px;stroke-linecap:butt;stroke-linejoin:miter;stroke-opacity:1" d="M 265.394,348.196 257.277,366.056 z" id="boundary" inkscape:connector-curvature="0" />
	<path style="fill:none;stroke:red;stroke-width:1px;stroke-linecap:butt;stroke-linejoin:miter;stroke-opacity:1" d="M 296.242,211.817 304.36,195.581 z" id="boundary" inkscape:connector-curvature="0" />
	<path style="fill:none;stroke:red;stroke-width:1px;stroke-linecap:butt;stroke-linejoin:miter;stroke-opacity:1" d="M 257.277,366.056 249.159,351.444 z" id="boundary" inkscape:connector-curvature="0" />
	<path style="fill:none;stroke:red;stroke-width:1px;stroke-linecap:butt;stroke-linejoin:miter;stroke-opacity:1" d="M 25.1064,379.044 28.3535,395.28 z" id="boundary" inkscape:connector-curvature="0" />
	<path style="fill:none;stroke:red;stroke-width:1px;stroke-linecap:butt;stroke-linejoin:miter;stroke-opacity:1" d="M 28.3535,395.28 28.3535,411.516 z" id="boundary" inkscape:connector-curvature="0" />
	<path style="fill:none;stroke:red;stroke-width:1px;stroke-linecap:butt;stroke-linejoin:miter;stroke-opacity:1" d="M 33.2242,427.751 28.3535,411.516 z" id="boundary" inkscape:connector-curvature="0" />
	<path style="fill:none;stroke:red;stroke-width:1px;stroke-linecap:butt;stroke-linejoin:miter;stroke-opacity:1" d="M 44.5892,458.599 36.4714,443.987 z" id="boundary" inkscape:connector-curvature="0" />
	<path style="fill:none;stroke:red;stroke-width:1px;stroke-linecap:butt;stroke-linejoin:miter;stroke-opacity:1" d="M 36.4714,443.987 33.2242,427.751 z" id="boundary" inkscape:connector-curvature="0" />
	<path style="fill:none;stroke:red;stroke-width:1px;stroke-linecap:butt;stroke-linejoin:miter;stroke-opacity:1" d="M 44.5892,474.835 44.5892,458.599 z" id="boundary" inkscape:connector-curvature="0" />
	<path style="fill:none;stroke:red;stroke-width:1px;stroke-linecap:butt;stroke-linejoin:miter;stroke-opacity:1" d="M 25.1064,379.044 20.2357,362.809 z" id="boundary" inkscape:connector-curvature="0" />
	<path style="fill:none;stroke:red;stroke-width:1px;stroke-linecap:butt;stroke-linejoin:miter;stroke-opacity:1" d="M 44.5892,474.835 52.707,489.447 z" id="boundary" inkscape:connector-curvature="0" />
	<path style="fill:none;stroke:red;stroke-width:1px;stroke-linecap:butt;stroke-linejoin:miter;stroke-opacity:1" d="M 52.707,489.447 52.707,505.682 z" id="boundary" inkscape:connector-curvature="0" />
	<path style="fill:none;stroke:red;stroke-width:1px;stroke-linecap:butt;stroke-linejoin:miter;stroke-opacity:1" d="M 60.8249,520.295 60.8249,536.53 z" id="boundary" inkscape:connector-curvature="0" />
	<path style="fill:none;stroke:red;stroke-width:1px;stroke-linecap:butt;stroke-linejoin:miter;stroke-opacity:1" d="M 60.8249,520.295 52.707,505.682 z" id="boundary" inkscape:connector-curvature="0" />
	<path style="fill:none;stroke:red;stroke-width:1px;stroke-linecap:butt;stroke-linejoin:miter;stroke-opacity:1" d="M 60.8249,536.53 60.8249,552.766 z" id="boundary" inkscape:connector-curvature="0" />
	<path style="fill:none;stroke:red;stroke-width:1px;stroke-linecap:butt;stroke-linejoin:miter;stroke-opacity:1" d="M 60.8249,552.766 60.8249,569.002 z" id="boundary" inkscape:connector-curvature="0" />
	<path style="fill:none;stroke:red;stroke-width:1px;stroke-linecap:butt;stroke-linejoin:miter;stroke-opacity:1" d="M 60.8249,585.237 60.8249,569.002 z" id="boundary" inkscape:connector-curvature="0" />
	<path style="fill:none;stroke:red;stroke-width:1px;stroke-linecap:butt;stroke-linejoin:miter;stroke-opacity:1" d="M 60.8249,585.237 60.8249,601.473 z" id="boundary" inkscape:connector-curvature="0" />
	<path style="fill:none;stroke:red;stroke-width:1px;stroke-linecap:butt;stroke-linejoin:miter;stroke-opacity:1" d="M 60.8249,650.18 60.8249,633.944 z" id="boundary" inkscape:connector-curvature="0" />
	<path style="fill:none;stroke:red;stroke-width:1px;stroke-linecap:butt;stroke-linejoin:miter;stroke-opacity:1" d="M 60.8249,601.473 60.8249,617.709 z" id="boundary" inkscape:connector-curvature="0" />
	<path style="fill:none;stroke:red;stroke-width:1px;stroke-linecap:butt;stroke-linejoin:miter;stroke-opacity:1" d="M 60.8249,666.416 60.8249,650.18 z" id="boundary" inkscape:connector-curvature="0" />
	<path style="fill:none;stroke:red;stroke-width:1px;stroke-linecap:butt;stroke-linejoin:miter;stroke-opacity:1" d="M 60.8249,633.944 60.8249,617.709 z" id="boundary" inkscape:connector-curvature="0" />
	<path style="fill:none;stroke:red;stroke-width:1px;stroke-linecap:butt;stroke-linejoin:miter;stroke-opacity:1" d="M 60.8249,666.416 60.8249,682.651 z" id="boundary" inkscape:connector-curvature="0" />
	<path style="fill:none;stroke:red;stroke-width:1px;stroke-linecap:butt;stroke-linejoin:miter;stroke-opacity:1" d="M 60.8249,698.887 60.8249,682.651 z" id="boundary" inkscape:connector-curvature="0" />
	<path style="fill:none;stroke:red;stroke-width:1px;stroke-linecap:butt;stroke-linejoin:miter;stroke-opacity:1" d="M 60.8249,698.887 60.8249,715.123 z" id="boundary" inkscape:connector-curvature="0" />
	<path style="fill:none;stroke:red;stroke-width:1px;stroke-linecap:butt;stroke-linejoin:miter;stroke-opacity:1" d="M 60.8249,731.358 60.8249,715.123 z" id="boundary" inkscape:connector-curvature="0" />
	<path style="fill:none;stroke:red;stroke-width:1px;stroke-linecap:butt;stroke-linejoin:miter;stroke-opacity:1" d="M 60.8249,747.594 60.8249,731.358 z" id="boundary" inkscape:connector-curvature="0" />
	<path style="fill:none;stroke:red;stroke-width:1px;stroke-linecap:butt;stroke-linejoin:miter;stroke-opacity:1" d="M 60.8249,747.594 60.8249,763.83 z" id="boundary" inkscape:connector-curvature="0" />
	<path style="fill:none;stroke:red;stroke-width:1px;stroke-linecap:butt;stroke-linejoin:miter;stroke-opacity:1" d="M 60.8249,780.065 60.8249,763.83 z" id="boundary" inkscape:connector-curvature="0" />
	<path style="fill:none;stroke:red;stroke-width:1px;stroke-linecap:butt;stroke-linejoin:miter;stroke-opacity:1" d="M 68.9427,810.913 60.8249,796.301 z" id="boundary" inkscape:connector-curvature="0" />
	<path style="fill:none;stroke:red;stroke-width:1px;stroke-linecap:butt;stroke-linejoin:miter;stroke-opacity:1" d="M 60.8249,796.301 60.8249,780.065 z" id="boundary" inkscape:connector-curvature="0" />
	<path style="fill:none;stroke:red;stroke-width:1px;stroke-linecap:butt;stroke-linejoin:miter;stroke-opacity:1" d="M 68.9427,827.149 68.9427,810.913 z" id="boundary" inkscape:connector-curvature="0" />
	<path style="fill:none;stroke:red;stroke-width:1px;stroke-linecap:butt;stroke-linejoin:miter;stroke-opacity:1" d="M 77.0606,841.761 77.0606,857.997 z" id="boundary" inkscape:connector-curvature="0" />
	<path style="fill:none;stroke:red;stroke-width:1px;stroke-linecap:butt;stroke-linejoin:miter;stroke-opacity:1" d="M 77.0606,841.761 68.9427,827.149 z" id="boundary" inkscape:connector-curvature="0" />
	<path style="fill:none;stroke:red;stroke-width:1px;stroke-linecap:butt;stroke-linejoin:miter;stroke-opacity:1" d="M 85.1784,872.609 88.4255,888.845 z" id="boundary" inkscape:connector-curvature="0" />
	<path style="fill:none;stroke:red;stroke-width:1px;stroke-linecap:butt;stroke-linejoin:miter;stroke-opacity:1" d="M 85.1784,872.609 77.0606,857.997 z" id="boundary" inkscape:connector-curvature="0" />
	<path style="fill:none;stroke:red;stroke-width:1px;stroke-linecap:butt;stroke-linejoin:miter;stroke-opacity:1" d="M 60.8249,958.658 68.9427,942.422 z" id="boundary" inkscape:connector-curvature="0" />
	<path style="fill:none;stroke:red;stroke-width:1px;stroke-linecap:butt;stroke-linejoin:miter;stroke-opacity:1" d="M 70.5663,971.646 60.8249,958.658 z" id="boundary" inkscape:connector-curvature="0" />
	<path style="fill:none;stroke:red;stroke-width:1px;stroke-linecap:butt;stroke-linejoin:miter;stroke-opacity:1" d="M 86.802,971.646 70.5663,971.646 z" id="boundary" inkscape:connector-curvature="0" />
	<path style="fill:none;stroke:red;stroke-width:1px;stroke-linecap:butt;stroke-linejoin:miter;stroke-opacity:1" d="M 90.0491,913.198 81.9313,929.434 z" id="boundary" inkscape:connector-curvature="0" />
	<path style="fill:none;stroke:red;stroke-width:1px;stroke-linecap:butt;stroke-linejoin:miter;stroke-opacity:1" d="M 81.9313,929.434 68.9427,942.422 z" id="boundary" inkscape:connector-curvature="0" />
	<path style="fill:none;stroke:red;stroke-width:1px;stroke-linecap:butt;stroke-linejoin:miter;stroke-opacity:1" d="M 103.038,971.646 86.802,971.646 z" id="boundary" inkscape:connector-curvature="0" />
	<path style="fill:none;stroke:red;stroke-width:1px;stroke-linecap:butt;stroke-linejoin:miter;stroke-opacity:1" d="M 90.0491,913.198 88.4255,888.845 z" id="boundary" inkscape:connector-curvature="0" />
	<path style="fill:none;stroke:red;stroke-width:1px;stroke-linecap:butt;stroke-linejoin:miter;stroke-opacity:1" d="M 114.403,385.538 119.273,401.774 z" id="boundary" inkscape:connector-curvature="0" />
	<path style="fill:none;stroke:red;stroke-width:1px;stroke-linecap:butt;stroke-linejoin:miter;stroke-opacity:1" d="M 114.403,385.538 106.285,370.926 z" id="boundary" inkscape:connector-curvature="0" />
	<path style="fill:none;stroke:red;stroke-width:1px;stroke-linecap:butt;stroke-linejoin:miter;stroke-opacity:1" d="M 119.273,401.774 119.273,418.01 z" id="boundary" inkscape:connector-curvature="0" />
	<path style="fill:none;stroke:red;stroke-width:1px;stroke-linecap:butt;stroke-linejoin:miter;stroke-opacity:1" d="M 103.038,354.691 106.285,370.926 z" id="boundary" inkscape:connector-curvature="0" />
	<path style="fill:none;stroke:red;stroke-width:1px;stroke-linecap:butt;stroke-linejoin:miter;stroke-opacity:1" d="M 150.121,372.55 150.121,388.786 z" id="boundary" inkscape:connector-curvature="0" />
	<path style="fill:none;stroke:red;stroke-width:1px;stroke-linecap:butt;stroke-linejoin:miter;stroke-opacity:1" d="M 150.121,356.314 150.121,372.55 z" id="boundary" inkscape:connector-curvature="0" />
	<path style="fill:none;stroke:red;stroke-width:1px;stroke-linecap:butt;stroke-linejoin:miter;stroke-opacity:1" d="M 127.391,432.622 119.273,418.01 z" id="boundary" inkscape:connector-curvature="0" />
	<path style="fill:none;stroke:red;stroke-width:1px;stroke-linecap:butt;stroke-linejoin:miter;stroke-opacity:1" d="M 127.391,432.622 135.509,447.234 z" id="boundary" inkscape:connector-curvature="0" />
	<path style="fill:none;stroke:red;stroke-width:1px;stroke-linecap:butt;stroke-linejoin:miter;stroke-opacity:1" d="M 148.498,458.599 135.509,447.234 z" id="boundary" inkscape:connector-curvature="0" />
	<path style="fill:none;stroke:red;stroke-width:1px;stroke-linecap:butt;stroke-linejoin:miter;stroke-opacity:1" d="M 150.121,437.493 148.498,458.599 z" id="boundary" inkscape:connector-curvature="0" />
	<path style="fill:none;stroke:red;stroke-width:1px;stroke-linecap:butt;stroke-linejoin:miter;stroke-opacity:1" d="M 150.121,388.786 150.121,405.021 z" id="boundary" inkscape:connector-curvature="0" />
	<path style="fill:none;stroke:red;stroke-width:1px;stroke-linecap:butt;stroke-linejoin:miter;stroke-opacity:1" d="M 150.121,405.021 150.121,421.257 z" id="boundary" inkscape:connector-curvature="0" />
	<path style="fill:none;stroke:red;stroke-width:1px;stroke-linecap:butt;stroke-linejoin:miter;stroke-opacity:1" d="M 150.121,437.493 150.121,421.257 z" id="boundary" inkscape:connector-curvature="0" />
	<path style="fill:none;stroke:red;stroke-width:1px;stroke-linecap:butt;stroke-linejoin:miter;stroke-opacity:1" d="M 119.273,971.646 103.038,971.646 z" id="boundary" inkscape:connector-curvature="0" />
	<path style="fill:none;stroke:red;stroke-width:1px;stroke-linecap:butt;stroke-linejoin:miter;stroke-opacity:1" d="M 231.3,979.764 215.064,979.764 z" id="boundary" inkscape:connector-curvature="0" />
	<path style="fill:none;stroke:red;stroke-width:1px;stroke-linecap:butt;stroke-linejoin:miter;stroke-opacity:1" d="M 135.509,971.646 119.273,971.646 z" id="boundary" inkscape:connector-curvature="0" />
	<path style="fill:none;stroke:red;stroke-width:1px;stroke-linecap:butt;stroke-linejoin:miter;stroke-opacity:1" d="M 151.745,971.646 135.509,971.646 z" id="boundary" inkscape:connector-curvature="0" />
	<path style="fill:none;stroke:red;stroke-width:1px;stroke-linecap:butt;stroke-linejoin:miter;stroke-opacity:1" d="M 167.98,971.646 184.216,971.646 z" id="boundary" inkscape:connector-curvature="0" />
	<path style="fill:none;stroke:red;stroke-width:1px;stroke-linecap:butt;stroke-linejoin:miter;stroke-opacity:1" d="M 198.828,979.764 184.216,971.646 z" id="boundary" inkscape:connector-curvature="0" />
	<path style="fill:none;stroke:red;stroke-width:1px;stroke-linecap:butt;stroke-linejoin:miter;stroke-opacity:1" d="M 198.828,979.764 215.064,979.764 z" id="boundary" inkscape:connector-curvature="0" />
	<path style="fill:none;stroke:red;stroke-width:1px;stroke-linecap:butt;stroke-linejoin:miter;stroke-opacity:1" d="M 151.745,971.646 167.98,971.646 z" id="boundary" inkscape:connector-curvature="0" />
	<path style="fill:none;stroke:red;stroke-width:1px;stroke-linecap:butt;stroke-linejoin:miter;stroke-opacity:1" d="M 247.535,979.764 231.3,979.764 z" id="boundary" inkscape:connector-curvature="0" />
	<path style="fill:none;stroke:red;stroke-width:1px;stroke-linecap:butt;stroke-linejoin:miter;stroke-opacity:1" d="M 263.771,979.764 247.535,979.764 z" id="boundary" inkscape:connector-curvature="0" />
	<path style="fill:none;stroke:red;stroke-width:1px;stroke-linecap:butt;stroke-linejoin:miter;stroke-opacity:1" d="M 280.007,979.764 263.771,979.764 z" id="boundary" inkscape:connector-curvature="0" />
	<path style="fill:none;stroke:red;stroke-width:1px;stroke-linecap:butt;stroke-linejoin:miter;stroke-opacity:1" d="M 294.619,987.882 280.007,979.764 z" id="boundary" inkscape:connector-curvature="0" />
	<path style="fill:none;stroke:red;stroke-width:1px;stroke-linecap:butt;stroke-linejoin:miter;stroke-opacity:1" d="M 294.619,987.882 310.854,987.882 z" id="boundary" inkscape:connector-curvature="0" />
	<path style="fill:none;stroke:red;stroke-width:1px;stroke-linecap:butt;stroke-linejoin:miter;stroke-opacity:1" d="M 328.714,41.3421 341.702,28.3535 z" id="boundary" inkscape:connector-curvature="0" />
	<path style="fill:none;stroke:red;stroke-width:1px;stroke-linecap:butt;stroke-linejoin:miter;stroke-opacity:1" d="M 328.714,57.5777 328.714,41.3421 z" id="boundary" inkscape:connector-curvature="0" />
	<path style="fill:none;stroke:red;stroke-width:1px;stroke-linecap:butt;stroke-linejoin:miter;stroke-opacity:1" d="M 320.596,81.9313 328.714,57.5777 z" id="boundary" inkscape:connector-curvature="0" />
	<path style="fill:none;stroke:red;stroke-width:1px;stroke-linecap:butt;stroke-linejoin:miter;stroke-opacity:1" d="M 320.596,98.1669 320.596,81.9313 z" id="boundary" inkscape:connector-curvature="0" />
	<path style="fill:none;stroke:red;stroke-width:1px;stroke-linecap:butt;stroke-linejoin:miter;stroke-opacity:1" d="M 320.596,98.1669 320.596,114.403 z" id="boundary" inkscape:connector-curvature="0" />
	<path style="fill:none;stroke:red;stroke-width:1px;stroke-linecap:butt;stroke-linejoin:miter;stroke-opacity:1" d="M 341.702,28.3535 354.691,15.365 z" id="boundary" inkscape:connector-curvature="0" />
	<path style="fill:none;stroke:red;stroke-width:1px;stroke-linecap:butt;stroke-linejoin:miter;stroke-opacity:1" d="M 320.596,114.403 312.478,138.756 z" id="boundary" inkscape:connector-curvature="0" />
	<path style="fill:none;stroke:red;stroke-width:1px;stroke-linecap:butt;stroke-linejoin:miter;stroke-opacity:1" d="M 312.478,154.992 312.478,138.756 z" id="boundary" inkscape:connector-curvature="0" />
	<path style="fill:none;stroke:red;stroke-width:1px;stroke-linecap:butt;stroke-linejoin:miter;stroke-opacity:1" d="M 367.679,4 383.915,5.62357 z" id="boundary" inkscape:connector-curvature="0" />
	<path style="fill:none;stroke:red;stroke-width:1px;stroke-linecap:butt;stroke-linejoin:miter;stroke-opacity:1" d="M 383.915,5.62357 395.28,18.6121 z" id="boundary" inkscape:connector-curvature="0" />
	<path style="fill:none;stroke:red;stroke-width:1px;stroke-linecap:butt;stroke-linejoin:miter;stroke-opacity:1" d="M 395.28,18.6121 403.398,33.2242 z" id="boundary" inkscape:connector-curvature="0" />
	<path style="fill:none;stroke:red;stroke-width:1px;stroke-linecap:butt;stroke-linejoin:miter;stroke-opacity:1" d="M 403.398,33.2242 411.516,47.8363 z" id="boundary" inkscape:connector-curvature="0" />
	<path style="fill:none;stroke:red;stroke-width:1px;stroke-linecap:butt;stroke-linejoin:miter;stroke-opacity:1" d="M 411.516,47.8363 411.516,64.072 z" id="boundary" inkscape:connector-curvature="0" />
	<path style="fill:none;stroke:red;stroke-width:1px;stroke-linecap:butt;stroke-linejoin:miter;stroke-opacity:1" d="M 411.516,80.3077 411.516,64.072 z" id="boundary" inkscape:connector-curvature="0" />
	<path style="fill:none;stroke:red;stroke-width:1px;stroke-linecap:butt;stroke-linejoin:miter;stroke-opacity:1" d="M 411.516,80.3077 411.516,96.5434 z" id="boundary" inkscape:connector-curvature="0" />
	<path style="fill:none;stroke:red;stroke-width:1px;stroke-linecap:butt;stroke-linejoin:miter;stroke-opacity:1" d="M 411.516,112.779 411.516,96.5434 z" id="boundary" inkscape:connector-curvature="0" />
	<path style="fill:none;stroke:red;stroke-width:1px;stroke-linecap:butt;stroke-linejoin:miter;stroke-opacity:1" d="M 411.516,129.015 403.398,151.745 z" id="boundary" inkscape:connector-curvature="0" />
	<path style="fill:none;stroke:red;stroke-width:1px;stroke-linecap:butt;stroke-linejoin:miter;stroke-opacity:1" d="M 403.398,167.98 395.28,192.334 z" id="boundary" inkscape:connector-curvature="0" />
	<path style="fill:none;stroke:red;stroke-width:1px;stroke-linecap:butt;stroke-linejoin:miter;stroke-opacity:1" d="M 403.398,151.745 403.398,167.98 z" id="boundary" inkscape:connector-curvature="0" />
	<path style="fill:none;stroke:red;stroke-width:1px;stroke-linecap:butt;stroke-linejoin:miter;stroke-opacity:1" d="M 411.516,129.015 411.516,112.779 z" id="boundary" inkscape:connector-curvature="0" />
	<path style="fill:none;stroke:red;stroke-width:1px;stroke-linecap:butt;stroke-linejoin:miter;stroke-opacity:1" d="M 395.28,192.334 395.28,208.57 z" id="boundary" inkscape:connector-curvature="0" />
	<path style="fill:none;stroke:red;stroke-width:1px;stroke-linecap:butt;stroke-linejoin:miter;stroke-opacity:1" d="M 354.691,15.365 367.679,4 z" id="boundary" inkscape:connector-curvature="0" />
	<path style="fill:none;stroke:red;stroke-width:1px;stroke-linecap:butt;stroke-linejoin:miter;stroke-opacity:1" d="M 387.162,224.805 387.162,241.041 z" id="boundary" inkscape:connector-curvature="0" />
	<path style="fill:none;stroke:red;stroke-width:1px;stroke-linecap:butt;stroke-linejoin:miter;stroke-opacity:1" d="M 379.044,265.394 379.044,281.63 z" id="boundary" inkscape:connector-curvature="0" />
	<path style="fill:none;stroke:red;stroke-width:1px;stroke-linecap:butt;stroke-linejoin:miter;stroke-opacity:1" d="M 379.044,297.866 379.044,281.63 z" id="boundary" inkscape:connector-curvature="0" />
	<path style="fill:none;stroke:red;stroke-width:1px;stroke-linecap:butt;stroke-linejoin:miter;stroke-opacity:1" d="M 387.162,241.041 379.044,265.394 z" id="boundary" inkscape:connector-curvature="0" />
	<path style="fill:none;stroke:red;stroke-width:1px;stroke-linecap:butt;stroke-linejoin:miter;stroke-opacity:1" d="M 379.044,297.866 370.926,314.101 z" id="boundary" inkscape:connector-curvature="0" />
	<path style="fill:none;stroke:red;stroke-width:1px;stroke-linecap:butt;stroke-linejoin:miter;stroke-opacity:1" d="M 370.926,330.337 370.926,314.101 z" id="boundary" inkscape:connector-curvature="0" />
	<path style="fill:none;stroke:red;stroke-width:1px;stroke-linecap:butt;stroke-linejoin:miter;stroke-opacity:1" d="M 370.926,330.337 370.926,346.573 z" id="boundary" inkscape:connector-curvature="0" />
	<path style="fill:none;stroke:red;stroke-width:1px;stroke-linecap:butt;stroke-linejoin:miter;stroke-opacity:1" d="M 374.173,362.809 370.926,346.573 z" id="boundary" inkscape:connector-curvature="0" />
	<path style="fill:none;stroke:red;stroke-width:1px;stroke-linecap:butt;stroke-linejoin:miter;stroke-opacity:1" d="M 374.173,362.809 379.044,379.044 z" id="boundary" inkscape:connector-curvature="0" />
	<path style="fill:none;stroke:red;stroke-width:1px;stroke-linecap:butt;stroke-linejoin:miter;stroke-opacity:1" d="M 442.363,292.995 434.245,317.349 z" id="boundary" inkscape:connector-curvature="0" />
	<path style="fill:none;stroke:red;stroke-width:1px;stroke-linecap:butt;stroke-linejoin:miter;stroke-opacity:1" d="M 418.01,357.938 409.892,374.173 z" id="boundary" inkscape:connector-curvature="0" />
	<path style="fill:none;stroke:red;stroke-width:1px;stroke-linecap:butt;stroke-linejoin:miter;stroke-opacity:1" d="M 418.01,357.938 426.128,341.702 z" id="boundary" inkscape:connector-curvature="0" />
	<path style="fill:none;stroke:red;stroke-width:1px;stroke-linecap:butt;stroke-linejoin:miter;stroke-opacity:1" d="M 434.245,317.349 426.128,341.702 z" id="boundary" inkscape:connector-curvature="0" />
	<path style="fill:none;stroke:red;stroke-width:1px;stroke-linecap:butt;stroke-linejoin:miter;stroke-opacity:1" d="M 409.892,374.173 403.398,396.903 z" id="boundary" inkscape:connector-curvature="0" />
	<path style="fill:none;stroke:red;stroke-width:1px;stroke-linecap:butt;stroke-linejoin:miter;stroke-opacity:1" d="M 387.162,224.805 395.28,208.57 z" id="boundary" inkscape:connector-curvature="0" />
	<path style="fill:none;stroke:red;stroke-width:1px;stroke-linecap:butt;stroke-linejoin:miter;stroke-opacity:1" d="M 382.291,395.28 379.044,379.044 z" id="boundary" inkscape:connector-curvature="0" />
	<path style="fill:none;stroke:red;stroke-width:1px;stroke-linecap:butt;stroke-linejoin:miter;stroke-opacity:1" d="M 507.306,98.1669 491.07,106.285 z" id="boundary" inkscape:connector-curvature="0" />
	<path style="fill:none;stroke:red;stroke-width:1px;stroke-linecap:butt;stroke-linejoin:miter;stroke-opacity:1" d="M 523.542,90.0491 507.306,98.1669 z" id="boundary" inkscape:connector-curvature="0" />
	<path style="fill:none;stroke:red;stroke-width:1px;stroke-linecap:butt;stroke-linejoin:miter;stroke-opacity:1" d="M 539.777,81.9313 523.542,90.0491 z" id="boundary" inkscape:connector-curvature="0" />
	<path style="fill:none;stroke:red;stroke-width:1px;stroke-linecap:butt;stroke-linejoin:miter;stroke-opacity:1" d="M 491.07,106.285 482.953,130.638 z" id="boundary" inkscape:connector-curvature="0" />
	<path style="fill:none;stroke:red;stroke-width:1px;stroke-linecap:butt;stroke-linejoin:miter;stroke-opacity:1" d="M 482.953,146.874 474.835,163.11 z" id="boundary" inkscape:connector-curvature="0" />
	<path style="fill:none;stroke:red;stroke-width:1px;stroke-linecap:butt;stroke-linejoin:miter;stroke-opacity:1" d="M 474.835,163.11 474.835,179.345 z" id="boundary" inkscape:connector-curvature="0" />
	<path style="fill:none;stroke:red;stroke-width:1px;stroke-linecap:butt;stroke-linejoin:miter;stroke-opacity:1" d="M 474.835,179.345 474.835,195.581 z" id="boundary" inkscape:connector-curvature="0" />
	<path style="fill:none;stroke:red;stroke-width:1px;stroke-linecap:butt;stroke-linejoin:miter;stroke-opacity:1" d="M 482.953,146.874 482.953,130.638 z" id="boundary" inkscape:connector-curvature="0" />
	<path style="fill:none;stroke:red;stroke-width:1px;stroke-linecap:butt;stroke-linejoin:miter;stroke-opacity:1" d="M 539.777,81.9313 556.013,88.4255 z" id="boundary" inkscape:connector-curvature="0" />
	<path style="fill:none;stroke:red;stroke-width:1px;stroke-linecap:butt;stroke-linejoin:miter;stroke-opacity:1" d="M 557.637,104.661 565.755,119.273 z" id="boundary" inkscape:connector-curvature="0" />
	<path style="fill:none;stroke:red;stroke-width:1px;stroke-linecap:butt;stroke-linejoin:miter;stroke-opacity:1" d="M 557.637,104.661 556.013,88.4255 z" id="boundary" inkscape:connector-curvature="0" />
	<path style="fill:none;stroke:red;stroke-width:1px;stroke-linecap:butt;stroke-linejoin:miter;stroke-opacity:1" d="M 565.755,119.273 565.755,135.509 z" id="boundary" inkscape:connector-curvature="0" />
	<path style="fill:none;stroke:red;stroke-width:1px;stroke-linecap:butt;stroke-linejoin:miter;stroke-opacity:1" d="M 573.872,150.121 565.755,135.509 z" id="boundary" inkscape:connector-curvature="0" />
	<path style="fill:none;stroke:red;stroke-width:1px;stroke-linecap:butt;stroke-linejoin:miter;stroke-opacity:1" d="M 573.872,150.121 573.872,166.357 z" id="boundary" inkscape:connector-curvature="0" />
	<path style="fill:none;stroke:red;stroke-width:1px;stroke-linecap:butt;stroke-linejoin:miter;stroke-opacity:1" d="M 565.755,184.216 573.872,166.357 z" id="boundary" inkscape:connector-curvature="0" />
	<path style="fill:none;stroke:red;stroke-width:1px;stroke-linecap:butt;stroke-linejoin:miter;stroke-opacity:1" d="M 450.481,252.406 458.599,236.17 z" id="boundary" inkscape:connector-curvature="0" />
	<path style="fill:none;stroke:red;stroke-width:1px;stroke-linecap:butt;stroke-linejoin:miter;stroke-opacity:1" d="M 474.835,195.581 466.717,211.817 z" id="boundary" inkscape:connector-curvature="0" />
	<path style="fill:none;stroke:red;stroke-width:1px;stroke-linecap:butt;stroke-linejoin:miter;stroke-opacity:1" d="M 458.599,236.17 466.717,211.817 z" id="boundary" inkscape:connector-curvature="0" />
	<path style="fill:none;stroke:red;stroke-width:1px;stroke-linecap:butt;stroke-linejoin:miter;stroke-opacity:1" d="M 442.363,276.759 450.481,252.406 z" id="boundary" inkscape:connector-curvature="0" />
	<path style="fill:none;stroke:red;stroke-width:1px;stroke-linecap:butt;stroke-linejoin:miter;stroke-opacity:1" d="M 442.363,292.995 442.363,276.759 z" id="boundary" inkscape:connector-curvature="0" />
	<path style="fill:none;stroke:red;stroke-width:1px;stroke-linecap:butt;stroke-linejoin:miter;stroke-opacity:1" d="M 525.165,362.809 517.047,379.044 z" id="boundary" inkscape:connector-curvature="0" />
	<path style="fill:none;stroke:red;stroke-width:1px;stroke-linecap:butt;stroke-linejoin:miter;stroke-opacity:1" d="M 517.047,379.044 517.047,395.28 z" id="boundary" inkscape:connector-curvature="0" />
	<path style="fill:none;stroke:red;stroke-width:1px;stroke-linecap:butt;stroke-linejoin:miter;stroke-opacity:1" d="M 557.637,216.687 557.637,232.923 z" id="boundary" inkscape:connector-curvature="0" />
	<path style="fill:none;stroke:red;stroke-width:1px;stroke-linecap:butt;stroke-linejoin:miter;stroke-opacity:1" d="M 565.755,200.452 557.637,216.687 z" id="boundary" inkscape:connector-curvature="0" />
	<path style="fill:none;stroke:red;stroke-width:1px;stroke-linecap:butt;stroke-linejoin:miter;stroke-opacity:1" d="M 557.637,232.923 549.519,249.159 z" id="boundary" inkscape:connector-curvature="0" />
	<path style="fill:none;stroke:red;stroke-width:1px;stroke-linecap:butt;stroke-linejoin:miter;stroke-opacity:1" d="M 549.519,249.159 549.519,265.394 z" id="boundary" inkscape:connector-curvature="0" />
	<path style="fill:none;stroke:red;stroke-width:1px;stroke-linecap:butt;stroke-linejoin:miter;stroke-opacity:1" d="M 549.519,281.63 549.519,265.394 z" id="boundary" inkscape:connector-curvature="0" />
	<path style="fill:none;stroke:red;stroke-width:1px;stroke-linecap:butt;stroke-linejoin:miter;stroke-opacity:1" d="M 549.519,281.63 541.401,305.984 z" id="boundary" inkscape:connector-curvature="0" />
	<path style="fill:none;stroke:red;stroke-width:1px;stroke-linecap:butt;stroke-linejoin:miter;stroke-opacity:1" d="M 565.755,184.216 565.755,200.452 z" id="boundary" inkscape:connector-curvature="0" />
	<path style="fill:none;stroke:red;stroke-width:1px;stroke-linecap:butt;stroke-linejoin:miter;stroke-opacity:1" d="M 533.283,322.219 525.165,346.573 z" id="boundary" inkscape:connector-curvature="0" />
	<path style="fill:none;stroke:red;stroke-width:1px;stroke-linecap:butt;stroke-linejoin:miter;stroke-opacity:1" d="M 541.401,305.984 533.283,322.219 z" id="boundary" inkscape:connector-curvature="0" />
	<path style="fill:none;stroke:red;stroke-width:1px;stroke-linecap:butt;stroke-linejoin:miter;stroke-opacity:1" d="M 525.165,362.809 525.165,346.573 z" id="boundary" inkscape:connector-curvature="0" />
	<path style="fill:none;stroke:red;stroke-width:1px;stroke-linecap:butt;stroke-linejoin:miter;stroke-opacity:1" d="M 382.291,395.28 390.409,409.892 z" id="boundary" inkscape:connector-curvature="0" />
	<path style="fill:none;stroke:red;stroke-width:1px;stroke-linecap:butt;stroke-linejoin:miter;stroke-opacity:1" d="M 403.398,396.903 390.409,409.892 z" id="boundary" inkscape:connector-curvature="0" />
	<path style="fill:none;stroke:red;stroke-width:1px;stroke-linecap:butt;stroke-linejoin:miter;stroke-opacity:1" d="M 500.812,508.93 500.812,525.165 z" id="boundary" inkscape:connector-curvature="0" />
	<path style="fill:none;stroke:red;stroke-width:1px;stroke-linecap:butt;stroke-linejoin:miter;stroke-opacity:1" d="M 508.93,492.694 500.812,508.93 z" id="boundary" inkscape:connector-curvature="0" />
	<path style="fill:none;stroke:red;stroke-width:1px;stroke-linecap:butt;stroke-linejoin:miter;stroke-opacity:1" d="M 500.812,541.401 500.812,525.165 z" id="boundary" inkscape:connector-curvature="0" />
	<path style="fill:none;stroke:red;stroke-width:1px;stroke-linecap:butt;stroke-linejoin:miter;stroke-opacity:1" d="M 500.812,541.401 500.812,557.637 z" id="boundary" inkscape:connector-curvature="0" />
	<path style="fill:none;stroke:red;stroke-width:1px;stroke-linecap:butt;stroke-linejoin:miter;stroke-opacity:1" d="M 500.812,557.637 504.059,573.872 z" id="boundary" inkscape:connector-curvature="0" />
	<path style="fill:none;stroke:red;stroke-width:1px;stroke-linecap:butt;stroke-linejoin:miter;stroke-opacity:1" d="M 504.059,573.872 508.93,590.108 z" id="boundary" inkscape:connector-curvature="0" />
	<path style="fill:none;stroke:red;stroke-width:1px;stroke-linecap:butt;stroke-linejoin:miter;stroke-opacity:1" d="M 508.93,411.516 508.93,427.751 z" id="boundary" inkscape:connector-curvature="0" />
	<path style="fill:none;stroke:red;stroke-width:1px;stroke-linecap:butt;stroke-linejoin:miter;stroke-opacity:1" d="M 508.93,443.987 508.93,427.751 z" id="boundary" inkscape:connector-curvature="0" />
	<path style="fill:none;stroke:red;stroke-width:1px;stroke-linecap:butt;stroke-linejoin:miter;stroke-opacity:1" d="M 508.93,460.223 508.93,476.458 z" id="boundary" inkscape:connector-curvature="0" />
	<path style="fill:none;stroke:red;stroke-width:1px;stroke-linecap:butt;stroke-linejoin:miter;stroke-opacity:1" d="M 508.93,492.694 508.93,476.458 z" id="boundary" inkscape:connector-curvature="0" />
	<path style="fill:none;stroke:red;stroke-width:1px;stroke-linecap:butt;stroke-linejoin:miter;stroke-opacity:1" d="M 508.93,443.987 508.93,460.223 z" id="boundary" inkscape:connector-curvature="0" />
	<path style="fill:none;stroke:red;stroke-width:1px;stroke-linecap:butt;stroke-linejoin:miter;stroke-opacity:1" d="M 508.93,411.516 517.047,395.28 z" id="boundary" inkscape:connector-curvature="0" />
	<path style="fill:none;stroke:red;stroke-width:1px;stroke-linecap:butt;stroke-linejoin:miter;stroke-opacity:1" d="M 508.93,606.344 508.93,590.108 z" id="boundary" inkscape:connector-curvature="0" />
	<path style="fill:none;stroke:red;stroke-width:1px;stroke-linecap:butt;stroke-linejoin:miter;stroke-opacity:1" d="M 508.93,622.579 508.93,606.344 z" id="boundary" inkscape:connector-curvature="0" />
	<path style="fill:none;stroke:red;stroke-width:1px;stroke-linecap:butt;stroke-linejoin:miter;stroke-opacity:1" d="M 547.895,609.591 538.154,629.074 z" id="boundary" inkscape:connector-curvature="0" />
	<path style="fill:none;stroke:red;stroke-width:1px;stroke-linecap:butt;stroke-linejoin:miter;stroke-opacity:1" d="M 508.93,622.579 508.93,638.815 z" id="boundary" inkscape:connector-curvature="0" />
	<path style="fill:none;stroke:red;stroke-width:1px;stroke-linecap:butt;stroke-linejoin:miter;stroke-opacity:1" d="M 525.165,640.439 538.154,629.074 z" id="boundary" inkscape:connector-curvature="0" />
	<path style="fill:none;stroke:red;stroke-width:1px;stroke-linecap:butt;stroke-linejoin:miter;stroke-opacity:1" d="M 310.854,987.882 327.09,987.882 z" id="boundary" inkscape:connector-curvature="0" />
	<path style="fill:none;stroke:red;stroke-width:1px;stroke-linecap:butt;stroke-linejoin:miter;stroke-opacity:1" d="M 343.326,987.882 327.09,987.882 z" id="boundary" inkscape:connector-curvature="0" />
	<path style="fill:none;stroke:red;stroke-width:1px;stroke-linecap:butt;stroke-linejoin:miter;stroke-opacity:1" d="M 343.326,987.882 359.561,987.882 z" id="boundary" inkscape:connector-curvature="0" />
	<path style="fill:none;stroke:red;stroke-width:1px;stroke-linecap:butt;stroke-linejoin:miter;stroke-opacity:1" d="M 435.869,971.646 419.633,979.764 z" id="boundary" inkscape:connector-curvature="0" />
	<path style="fill:none;stroke:red;stroke-width:1px;stroke-linecap:butt;stroke-linejoin:miter;stroke-opacity:1" d="M 419.633,979.764 406.645,994.376 z" id="boundary" inkscape:connector-curvature="0" />
	<path style="fill:none;stroke:red;stroke-width:1px;stroke-linecap:butt;stroke-linejoin:miter;stroke-opacity:1" d="M 359.561,987.882 374.173,996 z" id="boundary" inkscape:connector-curvature="0" />
	<path style="fill:none;stroke:red;stroke-width:1px;stroke-linecap:butt;stroke-linejoin:miter;stroke-opacity:1" d="M 390.409,996 374.173,996 z" id="boundary" inkscape:connector-curvature="0" />
	<path style="fill:none;stroke:red;stroke-width:1px;stroke-linecap:butt;stroke-linejoin:miter;stroke-opacity:1" d="M 406.645,994.376 390.409,996 z" id="boundary" inkscape:connector-curvature="0" />
	<path style="fill:none;stroke:red;stroke-width:1px;stroke-linecap:butt;stroke-linejoin:miter;stroke-opacity:1" d="M 525.165,640.439 508.93,638.815 z" id="boundary" inkscape:connector-curvature="0" />
	<path style="fill:none;stroke:red;stroke-width:1px;stroke-linecap:butt;stroke-linejoin:miter;stroke-opacity:1" d="M 549.519,833.643 541.401,849.879 z" id="boundary" inkscape:connector-curvature="0" />
	<path style="fill:none;stroke:red;stroke-width:1px;stroke-linecap:butt;stroke-linejoin:miter;stroke-opacity:1" d="M 541.401,849.879 531.66,866.115 z" id="boundary" inkscape:connector-curvature="0" />
	<path style="fill:none;stroke:red;stroke-width:1px;stroke-linecap:butt;stroke-linejoin:miter;stroke-opacity:1" d="M 531.66,866.115 517.047,874.232 z" id="boundary" inkscape:connector-curvature="0" />
	<path style="fill:none;stroke:red;stroke-width:1px;stroke-linecap:butt;stroke-linejoin:miter;stroke-opacity:1" d="M 476.458,939.175 460.223,947.293 z" id="boundary" inkscape:connector-curvature="0" />
	<path style="fill:none;stroke:red;stroke-width:1px;stroke-linecap:butt;stroke-linejoin:miter;stroke-opacity:1" d="M 460.223,947.293 448.858,960.282 z" id="boundary" inkscape:connector-curvature="0" />
	<path style="fill:none;stroke:red;stroke-width:1px;stroke-linecap:butt;stroke-linejoin:miter;stroke-opacity:1" d="M 448.858,960.282 435.869,971.646 z" id="boundary" inkscape:connector-curvature="0" />
	<path style="fill:none;stroke:red;stroke-width:1px;stroke-linecap:butt;stroke-linejoin:miter;stroke-opacity:1" d="M 508.93,890.468 517.047,874.232 z" id="boundary" inkscape:connector-curvature="0" />
	<path style="fill:none;stroke:red;stroke-width:1px;stroke-linecap:butt;stroke-linejoin:miter;stroke-opacity:1" d="M 508.93,890.468 497.565,911.574 z" id="boundary" inkscape:connector-curvature="0" />
	<path style="fill:none;stroke:red;stroke-width:1px;stroke-linecap:butt;stroke-linejoin:miter;stroke-opacity:1" d="M 476.458,939.175 489.447,927.81 z" id="boundary" inkscape:connector-curvature="0" />
	<path style="fill:none;stroke:red;stroke-width:1px;stroke-linecap:butt;stroke-linejoin:miter;stroke-opacity:1" d="M 489.447,927.81 497.565,911.574 z" id="boundary" inkscape:connector-curvature="0" />
	<path style="fill:none;stroke:red;stroke-width:1px;stroke-linecap:butt;stroke-linejoin:miter;stroke-opacity:1" d="M 580.367,455.352 593.355,442.363 z" id="boundary" inkscape:connector-curvature="0" />
	<path style="fill:none;stroke:red;stroke-width:1px;stroke-linecap:butt;stroke-linejoin:miter;stroke-opacity:1" d="M 593.355,442.363 609.591,434.245 z" id="boundary" inkscape:connector-curvature="0" />
	<path style="fill:none;stroke:red;stroke-width:1px;stroke-linecap:butt;stroke-linejoin:miter;stroke-opacity:1" d="M 580.367,455.352 580.367,471.588 z" id="boundary" inkscape:connector-curvature="0" />
	<path style="fill:none;stroke:red;stroke-width:1px;stroke-linecap:butt;stroke-linejoin:miter;stroke-opacity:1" d="M 624.203,426.128 609.591,434.245 z" id="boundary" inkscape:connector-curvature="0" />
	<path style="fill:none;stroke:red;stroke-width:1px;stroke-linecap:butt;stroke-linejoin:miter;stroke-opacity:1" d="M 572.249,536.53 564.131,560.884 z" id="boundary" inkscape:connector-curvature="0" />
	<path style="fill:none;stroke:red;stroke-width:1px;stroke-linecap:butt;stroke-linejoin:miter;stroke-opacity:1" d="M 580.367,504.059 572.249,520.295 z" id="boundary" inkscape:connector-curvature="0" />
	<path style="fill:none;stroke:red;stroke-width:1px;stroke-linecap:butt;stroke-linejoin:miter;stroke-opacity:1" d="M 572.249,520.295 572.249,536.53 z" id="boundary" inkscape:connector-curvature="0" />
	<path style="fill:none;stroke:red;stroke-width:1px;stroke-linecap:butt;stroke-linejoin:miter;stroke-opacity:1" d="M 564.131,560.884 564.131,577.119 z" id="boundary" inkscape:connector-curvature="0" />
	<path style="fill:none;stroke:red;stroke-width:1px;stroke-linecap:butt;stroke-linejoin:miter;stroke-opacity:1" d="M 580.367,487.823 580.367,471.588 z" id="boundary" inkscape:connector-curvature="0" />
	<path style="fill:none;stroke:red;stroke-width:1px;stroke-linecap:butt;stroke-linejoin:miter;stroke-opacity:1" d="M 580.367,504.059 580.367,487.823 z" id="boundary" inkscape:connector-curvature="0" />
	<path style="fill:none;stroke:red;stroke-width:1px;stroke-linecap:butt;stroke-linejoin:miter;stroke-opacity:1" d="M 638.815,434.245 646.933,448.858 z" id="boundary" inkscape:connector-curvature="0" />
	<path style="fill:none;stroke:red;stroke-width:1px;stroke-linecap:butt;stroke-linejoin:miter;stroke-opacity:1" d="M 624.203,426.128 638.815,434.245 z" id="boundary" inkscape:connector-curvature="0" />
	<path style="fill:none;stroke:red;stroke-width:1px;stroke-linecap:butt;stroke-linejoin:miter;stroke-opacity:1" d="M 655.051,463.47 655.051,479.705 z" id="boundary" inkscape:connector-curvature="0" />
	<path style="fill:none;stroke:red;stroke-width:1px;stroke-linecap:butt;stroke-linejoin:miter;stroke-opacity:1" d="M 646.933,448.858 655.051,463.47 z" id="boundary" inkscape:connector-curvature="0" />
	<path style="fill:none;stroke:red;stroke-width:1px;stroke-linecap:butt;stroke-linejoin:miter;stroke-opacity:1" d="M 655.051,479.705 655.051,495.941 z" id="boundary" inkscape:connector-curvature="0" />
	<path style="fill:none;stroke:red;stroke-width:1px;stroke-linecap:butt;stroke-linejoin:miter;stroke-opacity:1" d="M 655.051,495.941 663.169,510.553 z" id="boundary" inkscape:connector-curvature="0" />
	<path style="fill:none;stroke:red;stroke-width:1px;stroke-linecap:butt;stroke-linejoin:miter;stroke-opacity:1" d="M 663.169,526.789 663.169,543.025 z" id="boundary" inkscape:connector-curvature="0" />
	<path style="fill:none;stroke:red;stroke-width:1px;stroke-linecap:butt;stroke-linejoin:miter;stroke-opacity:1" d="M 674.534,573.872 671.286,557.637 z" id="boundary" inkscape:connector-curvature="0" />
	<path style="fill:none;stroke:red;stroke-width:1px;stroke-linecap:butt;stroke-linejoin:miter;stroke-opacity:1" d="M 671.286,557.637 663.169,543.025 z" id="boundary" inkscape:connector-curvature="0" />
	<path style="fill:none;stroke:red;stroke-width:1px;stroke-linecap:butt;stroke-linejoin:miter;stroke-opacity:1" d="M 663.169,526.789 663.169,510.553 z" id="boundary" inkscape:connector-curvature="0" />
	<path style="fill:none;stroke:red;stroke-width:1px;stroke-linecap:butt;stroke-linejoin:miter;stroke-opacity:1" d="M 556.013,593.355 547.895,609.591 z" id="boundary" inkscape:connector-curvature="0" />
	<path style="fill:none;stroke:red;stroke-width:1px;stroke-linecap:butt;stroke-linejoin:miter;stroke-opacity:1" d="M 564.131,577.119 556.013,593.355 z" id="boundary" inkscape:connector-curvature="0" />
	<path style="fill:none;stroke:red;stroke-width:1px;stroke-linecap:butt;stroke-linejoin:miter;stroke-opacity:1" d="M 581.99,784.936 565.755,801.172 z" id="boundary" inkscape:connector-curvature="0" />
	<path style="fill:none;stroke:red;stroke-width:1px;stroke-linecap:butt;stroke-linejoin:miter;stroke-opacity:1" d="M 549.519,833.643 557.637,817.408 z" id="boundary" inkscape:connector-curvature="0" />
	<path style="fill:none;stroke:red;stroke-width:1px;stroke-linecap:butt;stroke-linejoin:miter;stroke-opacity:1" d="M 565.755,801.172 557.637,817.408 z" id="boundary" inkscape:connector-curvature="0" />
	<path style="fill:none;stroke:red;stroke-width:1px;stroke-linecap:butt;stroke-linejoin:miter;stroke-opacity:1" d="M 614.462,736.229 603.097,757.336 z" id="boundary" inkscape:connector-curvature="0" />
	<path style="fill:none;stroke:red;stroke-width:1px;stroke-linecap:butt;stroke-linejoin:miter;stroke-opacity:1" d="M 603.097,757.336 590.108,768.7 z" id="boundary" inkscape:connector-curvature="0" />
	<path style="fill:none;stroke:red;stroke-width:1px;stroke-linecap:butt;stroke-linejoin:miter;stroke-opacity:1" d="M 590.108,768.7 581.99,784.936 z" id="boundary" inkscape:connector-curvature="0" />
	<path style="fill:none;stroke:red;stroke-width:1px;stroke-linecap:butt;stroke-linejoin:miter;stroke-opacity:1" d="M 614.462,736.229 614.462,719.993 z" id="boundary" inkscape:connector-curvature="0" />
	<path style="fill:none;stroke:red;stroke-width:1px;stroke-linecap:butt;stroke-linejoin:miter;stroke-opacity:1" d="M 622.579,695.64 614.462,719.993 z" id="boundary" inkscape:connector-curvature="0" />
	<path style="fill:none;stroke:red;stroke-width:1px;stroke-linecap:butt;stroke-linejoin:miter;stroke-opacity:1" d="M 643.686,668.039 635.568,684.275 z" id="boundary" inkscape:connector-curvature="0" />
	<path style="fill:none;stroke:red;stroke-width:1px;stroke-linecap:butt;stroke-linejoin:miter;stroke-opacity:1" d="M 646.933,646.933 643.686,668.039 z" id="boundary" inkscape:connector-curvature="0" />
	<path style="fill:none;stroke:red;stroke-width:1px;stroke-linecap:butt;stroke-linejoin:miter;stroke-opacity:1" d="M 635.568,684.275 622.579,695.64 z" id="boundary" inkscape:connector-curvature="0" />
	<path style="fill:none;stroke:red;stroke-width:1px;stroke-linecap:butt;stroke-linejoin:miter;stroke-opacity:1" d="M 676.157,603.097 668.039,619.332 z" id="boundary" inkscape:connector-curvature="0" />
	<path style="fill:none;stroke:red;stroke-width:1px;stroke-linecap:butt;stroke-linejoin:miter;stroke-opacity:1" d="M 668.039,619.332 655.051,630.697 z" id="boundary" inkscape:connector-curvature="0" />
	<path style="fill:none;stroke:red;stroke-width:1px;stroke-linecap:butt;stroke-linejoin:miter;stroke-opacity:1" d="M 676.157,603.097 674.534,573.872 z" id="boundary" inkscape:connector-curvature="0" />
	<path style="fill:none;stroke:red;stroke-width:1px;stroke-linecap:butt;stroke-linejoin:miter;stroke-opacity:1" d="M 646.933,646.933 655.051,630.697 z" id="boundary" inkscape:connector-curvature="0" />
	<circle cx="4" cy="252.406" r="4" fill="#0" id="circle0"/>
	<circle cx="4" cy="268.642" r="4" fill="#0" id="circle1"/>
	<circle cx="12.1178" cy="283.254" r="4" fill="#0" id="circle2"/>
	<circle cx="12.1178" cy="299.489" r="4" fill="#0" id="circle3"/>
	<circle cx="12.1178" cy="315.725" r="4" fill="#0" id="circle4"/>
	<circle cx="12.1178" cy="331.961" r="4" fill="#0" id="circle5"/>
	<circle cx="16.9885" cy="239.417" r="4" fill="#0" id="circle6"/>
	<circle cx="20.2357" cy="346.573" r="4" fill="#0" id="circle7"/>
	<circle cx="20.2357" cy="362.809" r="4" fill="#0" id="circle8"/>
	<circle cx="25.1064" cy="223.182" r="4" fill="#0" id="circle9"/>
	<circle cx="25.1064" cy="379.044" r="4" fill="#0" id="circle10"/>
	<circle cx="28.3535" cy="203.699" r="4" fill="#0" id="circle11"/>
	<circle cx="28.3535" cy="395.28" r="4" fill="#0" id="circle12"/>
	<circle cx="28.3535" cy="411.516" r="4" fill="#0" id="circle13"/>
	<circle cx="33.2242" cy="427.751" r="4" fill="#0" id="circle14"/>
	<circle cx="36.4714" cy="443.987" r="4" fill="#0" id="circle15"/>
	<circle cx="41.3421" cy="190.71" r="4" fill="#0" id="circle16"/>
	<circle cx="44.5892" cy="458.599" r="4" fill="#0" id="circle17"/>
	<circle cx="44.5892" cy="474.835" r="4" fill="#0" id="circle18"/>
	<circle cx="52.707" cy="203.699" r="4" fill="#0" id="circle19"/>
	<circle cx="52.707" cy="489.447" r="4" fill="#0" id="circle20"/>
	<circle cx="52.707" cy="505.682" r="4" fill="#0" id="circle21"/>
	<circle cx="60.8249" cy="520.295" r="4" fill="#0" id="circle22"/>
	<circle cx="60.8249" cy="536.53" r="4" fill="#0" id="circle23"/>
	<circle cx="60.8249" cy="552.766" r="4" fill="#0" id="circle24"/>
	<circle cx="60.8249" cy="569.002" r="4" fill="#0" id="circle25"/>
	<circle cx="60.8249" cy="585.237" r="4" fill="#0" id="circle26"/>
	<circle cx="60.8249" cy="601.473" r="4" fill="#0" id="circle27"/>
	<circle cx="60.8249" cy="617.709" r="4" fill="#0" id="circle28"/>
	<circle cx="60.8249" cy="633.944" r="4" fill="#0" id="circle29"/>
	<circle cx="60.8249" cy="650.18" r="4" fill="#0" id="circle30"/>
	<circle cx="60.8249" cy="666.416" r="4" fill="#0" id="circle31"/>
	<circle cx="60.8249" cy="682.651" r="4" fill="#0" id="circle32"/>
	<circle cx="60.8249" cy="698.887" r="4" fill="#0" id="circle33"/>
	<circle cx="60.8249" cy="715.123" r="4" fill="#0" id="circle34"/>
	<circle cx="60.8249" cy="731.358" r="4" fill="#0" id="circle35"/>
	<circle cx="60.8249" cy="747.594" r="4" fill="#0" id="circle36"/>
	<circle cx="60.8249" cy="763.83" r="4" fill="#0" id="circle37"/>
	<circle cx="60.8249" cy="780.065" r="4" fill="#0" id="circle38"/>
	<circle cx="60.8249" cy="796.301" r="4" fill="#0" id="circle39"/>
	<circle cx="60.8249" cy="958.658" r="4" fill="#0" id="circle40"/>
	<circle cx="65.6956" cy="215.064" r="4" fill="#0" id="circle41"/>
	<circle cx="68.9427" cy="810.913" r="4" fill="#0" id="circle42"/>
	<circle cx="68.9427" cy="827.149" r="4" fill="#0" id="circle43"/>
	<circle cx="68.9427" cy="942.422" r="4" fill="#0" id="circle44"/>
	<circle cx="70.5663" cy="231.3" r="4" fill="#0" id="circle45"/>
	<circle cx="70.5663" cy="971.646" r="4" fill="#0" id="circle46"/>
	<circle cx="77.0606" cy="841.761" r="4" fill="#0" id="circle47"/>
	<circle cx="77.0606" cy="857.997" r="4" fill="#0" id="circle48"/>
	<circle cx="78.6841" cy="245.912" r="4" fill="#0" id="circle49"/>
	<circle cx="78.6841" cy="262.147" r="4" fill="#0" id="circle50"/>
	<circle cx="78.6841" cy="278.383" r="4" fill="#0" id="circle51"/>
	<circle cx="81.9313" cy="929.434" r="4" fill="#0" id="circle52"/>
	<circle cx="85.1784" cy="872.609" r="4" fill="#0" id="circle53"/>
	<circle cx="86.802" cy="292.995" r="4" fill="#0" id="circle54"/>
	<circle cx="86.802" cy="309.231" r="4" fill="#0" id="circle55"/>
	<circle cx="86.802" cy="971.646" r="4" fill="#0" id="circle56"/>
	<circle cx="88.4255" cy="888.845" r="4" fill="#0" id="circle57"/>
	<circle cx="90.0491" cy="913.198" r="4" fill="#0" id="circle58"/>
	<circle cx="94.9198" cy="323.843" r="4" fill="#0" id="circle59"/>
	<circle cx="94.9198" cy="340.079" r="4" fill="#0" id="circle60"/>
	<circle cx="103.038" cy="354.691" r="4" fill="#0" id="circle61"/>
	<circle cx="103.038" cy="971.646" r="4" fill="#0" id="circle62"/>
	<circle cx="106.285" cy="370.926" r="4" fill="#0" id="circle63"/>
	<circle cx="114.403" cy="385.538" r="4" fill="#0" id="circle64"/>
	<circle cx="119.273" cy="401.774" r="4" fill="#0" id="circle65"/>
	<circle cx="119.273" cy="418.01" r="4" fill="#0" id="circle66"/>
	<circle cx="119.273" cy="971.646" r="4" fill="#0" id="circle67"/>
	<circle cx="127.391" cy="432.622" r="4" fill="#0" id="circle68"/>
	<circle cx="135.509" cy="447.234" r="4" fill="#0" id="circle69"/>
	<circle cx="135.509" cy="971.646" r="4" fill="#0" id="circle70"/>
	<circle cx="142.003" cy="309.231" r="4" fill="#0" id="circle71"/>
	<circle cx="142.003" cy="325.466" r="4" fill="#0" id="circle72"/>
	<circle cx="142.003" cy="341.702" r="4" fill="#0" id="circle73"/>
	<circle cx="148.498" cy="458.599" r="4" fill="#0" id="circle74"/>
	<circle cx="150.121" cy="268.642" r="4" fill="#0" id="circle75"/>
	<circle cx="150.121" cy="284.877" r="4" fill="#0" id="circle76"/>
	<circle cx="150.121" cy="356.314" r="4" fill="#0" id="circle77"/>
	<circle cx="150.121" cy="372.55" r="4" fill="#0" id="circle78"/>
	<circle cx="150.121" cy="388.786" r="4" fill="#0" id="circle79"/>
	<circle cx="150.121" cy="405.021" r="4" fill="#0" id="circle80"/>
	<circle cx="150.121" cy="421.257" r="4" fill="#0" id="circle81"/>
	<circle cx="150.121" cy="437.493" r="4" fill="#0" id="circle82"/>
	<circle cx="151.745" cy="971.646" r="4" fill="#0" id="circle83"/>
	<circle cx="158.239" cy="211.817" r="4" fill="#0" id="circle84"/>
	<circle cx="158.239" cy="228.052" r="4" fill="#0" id="circle85"/>
	<circle cx="158.239" cy="244.288" r="4" fill="#0" id="circle86"/>
	<circle cx="166.357" cy="90.0491" r="4" fill="#0" id="circle87"/>
	<circle cx="166.357" cy="106.285" r="4" fill="#0" id="circle88"/>
	<circle cx="166.357" cy="122.52" r="4" fill="#0" id="circle89"/>
	<circle cx="166.357" cy="138.756" r="4" fill="#0" id="circle90"/>
	<circle cx="166.357" cy="154.992" r="4" fill="#0" id="circle91"/>
	<circle cx="166.357" cy="171.227" r="4" fill="#0" id="circle92"/>
	<circle cx="166.357" cy="187.463" r="4" fill="#0" id="circle93"/>
	<circle cx="167.98" cy="971.646" r="4" fill="#0" id="circle94"/>
	<circle cx="179.345" cy="77.0606" r="4" fill="#0" id="circle95"/>
	<circle cx="184.216" cy="971.646" r="4" fill="#0" id="circle96"/>
	<circle cx="193.957" cy="68.9427" r="4" fill="#0" id="circle97"/>
	<circle cx="198.828" cy="979.764" r="4" fill="#0" id="circle98"/>
	<circle cx="206.946" cy="57.5777" r="4" fill="#0" id="circle99"/>
	<circle cx="215.064" cy="979.764" r="4" fill="#0" id="circle100"/>
	<circle cx="219.935" cy="44.5892" r="4" fill="#0" id="circle101"/>
	<circle cx="231.3" cy="979.764" r="4" fill="#0" id="circle102"/>
	<circle cx="232.923" cy="54.3306" r="4" fill="#0" id="circle103"/>
	<circle cx="232.923" cy="257.277" r="4" fill="#0" id="circle104"/>
	<circle cx="232.923" cy="273.512" r="4" fill="#0" id="circle105"/>
	<circle cx="232.923" cy="289.748" r="4" fill="#0" id="circle106"/>
	<circle cx="232.923" cy="305.984" r="4" fill="#0" id="circle107"/>
	<circle cx="241.041" cy="68.9427" r="4" fill="#0" id="circle108"/>
	<circle cx="241.041" cy="192.334" r="4" fill="#0" id="circle109"/>
	<circle cx="241.041" cy="208.57" r="4" fill="#0" id="circle110"/>
	<circle cx="241.041" cy="224.805" r="4" fill="#0" id="circle111"/>
	<circle cx="241.041" cy="241.041" r="4" fill="#0" id="circle112"/>
	<circle cx="241.041" cy="320.596" r="4" fill="#0" id="circle113"/>
	<circle cx="241.041" cy="336.831" r="4" fill="#0" id="circle114"/>
	<circle cx="247.535" cy="979.764" r="4" fill="#0" id="circle115"/>
	<circle cx="249.159" cy="127.391" r="4" fill="#0" id="circle116"/>
	<circle cx="249.159" cy="143.627" r="4" fill="#0" id="circle117"/>
	<circle cx="249.159" cy="159.863" r="4" fill="#0" id="circle118"/>
	<circle cx="249.159" cy="176.098" r="4" fill="#0" id="circle119"/>
	<circle cx="249.159" cy="351.444" r="4" fill="#0" id="circle120"/>
	<circle cx="254.029" cy="78.6841" r="4" fill="#0" id="circle121"/>
	<circle cx="257.277" cy="94.9198" r="4" fill="#0" id="circle122"/>
	<circle cx="257.277" cy="111.155" r="4" fill="#0" id="circle123"/>
	<circle cx="257.277" cy="366.056" r="4" fill="#0" id="circle124"/>
	<circle cx="263.771" cy="979.764" r="4" fill="#0" id="circle125"/>
	<circle cx="265.394" cy="348.196" r="4" fill="#0" id="circle126"/>
	<circle cx="271.889" cy="292.995" r="4" fill="#0" id="circle127"/>
	<circle cx="271.889" cy="309.231" r="4" fill="#0" id="circle128"/>
	<circle cx="271.889" cy="325.466" r="4" fill="#0" id="circle129"/>
	<circle cx="280.007" cy="244.288" r="4" fill="#0" id="circle130"/>
	<circle cx="280.007" cy="260.524" r="4" fill="#0" id="circle131"/>
	<circle cx="280.007" cy="276.759" r="4" fill="#0" id="circle132"/>
	<circle cx="280.007" cy="979.764" r="4" fill="#0" id="circle133"/>
	<circle cx="292.995" cy="231.3" r="4" fill="#0" id="circle134"/>
	<circle cx="294.619" cy="987.882" r="4" fill="#0" id="circle135"/>
	<circle cx="296.242" cy="211.817" r="4" fill="#0" id="circle136"/>
	<circle cx="304.36" cy="179.345" r="4" fill="#0" id="circle137"/>
	<circle cx="304.36" cy="195.581" r="4" fill="#0" id="circle138"/>
	<circle cx="310.854" cy="987.882" r="4" fill="#0" id="circle139"/>
	<circle cx="312.478" cy="138.756" r="4" fill="#0" id="circle140"/>
	<circle cx="312.478" cy="154.992" r="4" fill="#0" id="circle141"/>
	<circle cx="320.596" cy="81.9313" r="4" fill="#0" id="circle142"/>
	<circle cx="320.596" cy="98.1669" r="4" fill="#0" id="circle143"/>
	<circle cx="320.596" cy="114.403" r="4" fill="#0" id="circle144"/>
	<circle cx="327.09" cy="987.882" r="4" fill="#0" id="circle145"/>
	<circle cx="328.714" cy="41.3421" r="4" fill="#0" id="circle146"/>
	<circle cx="328.714" cy="57.5777" r="4" fill="#0" id="circle147"/>
	<circle cx="341.702" cy="28.3535" r="4" fill="#0" id="circle148"/>
	<circle cx="343.326" cy="987.882" r="4" fill="#0" id="circle149"/>
	<circle cx="354.691" cy="15.365" r="4" fill="#0" id="circle150"/>
	<circle cx="359.561" cy="987.882" r="4" fill="#0" id="circle151"/>
	<circle cx="367.679" cy="4" r="4" fill="#0" id="circle152"/>
	<circle cx="370.926" cy="314.101" r="4" fill="#0" id="circle153"/>
	<circle cx="370.926" cy="330.337" r="4" fill="#0" id="circle154"/>
	<circle cx="370.926" cy="346.573" r="4" fill="#0" id="circle155"/>
	<circle cx="374.173" cy="362.809" r="4" fill="#0" id="circle156"/>
	<circle cx="374.173" cy="996" r="4" fill="#0" id="circle157"/>
	<circle cx="379.044" cy="265.394" r="4" fill="#0" id="circle158"/>
	<circle cx="379.044" cy="281.63" r="4" fill="#0" id="circle159"/>
	<circle cx="379.044" cy="297.866" r="4" fill="#0" id="circle160"/>
	<circle cx="379.044" cy="379.044" r="4" fill="#0" id="circle161"/>
	<circle cx="382.291" cy="395.28" r="4" fill="#0" id="circle162"/>
	<circle cx="383.915" cy="5.62357" r="4" fill="#0" id="circle163"/>
	<circle cx="387.162" cy="224.805" r="4" fill="#0" id="circle164"/>
	<circle cx="387.162" cy="241.041" r="4" fill="#0" id="circle165"/>
	<circle cx="390.409" cy="409.892" r="4" fill="#0" id="circle166"/>
	<circle cx="390.409" cy="996" r="4" fill="#0" id="circle167"/>
	<circle cx="395.28" cy="18.6121" r="4" fill="#0" id="circle168"/>
	<circle cx="395.28" cy="192.334" r="4" fill="#0" id="circle169"/>
	<circle cx="395.28" cy="208.57" r="4" fill="#0" id="circle170"/>
	<circle cx="403.398" cy="33.2242" r="4" fill="#0" id="circle171"/>
	<circle cx="403.398" cy="151.745" r="4" fill="#0" id="circle172"/>
	<circle cx="403.398" cy="167.98" r="4" fill="#0" id="circle173"/>
	<circle cx="403.398" cy="396.903" r="4" fill="#0" id="circle174"/>
	<circle cx="406.645" cy="994.376" r="4" fill="#0" id="circle175"/>
	<circle cx="409.892" cy="374.173" r="4" fill="#0" id="circle176"/>
	<circle cx="411.516" cy="47.8363" r="4" fill="#0" id="circle177"/>
	<circle cx="411.516" cy="64.072" r="4" fill="#0" id="circle178"/>
	<circle cx="411.516" cy="80.3077" r="4" fill="#0" id="circle179"/>
	<circle cx="411.516" cy="96.5434" r="4" fill="#0" id="circle180"/>
	<circle cx="411.516" cy="112.779" r="4" fill="#0" id="circle181"/>
	<circle cx="411.516" cy="129.015" r="4" fill="#0" id="circle182"/>
	<circle cx="418.01" cy="357.938" r="4" fill="#0" id="circle183"/>
	<circle cx="419.633" cy="979.764" r="4" fill="#0" id="circle184"/>
	<circle cx="426.128" cy="341.702" r="4" fill="#0" id="circle185"/>
	<circle cx="434.245" cy="317.349" r="4" fill="#0" id="circle186"/>
	<circle cx="435.869" cy="971.646" r="4" fill="#0" id="circle187"/>
	<circle cx="442.363" cy="276.759" r="4" fill="#0" id="circle188"/>
	<circle cx="442.363" cy="292.995" r="4" fill="#0" id="circle189"/>
	<circle cx="448.858" cy="960.282" r="4" fill="#0" id="circle190"/>
	<circle cx="450.481" cy="252.406" r="4" fill="#0" id="circle191"/>
	<circle cx="458.599" cy="236.17" r="4" fill="#0" id="circle192"/>
	<circle cx="460.223" cy="947.293" r="4" fill="#0" id="circle193"/>
	<circle cx="466.717" cy="211.817" r="4" fill="#0" id="circle194"/>
	<circle cx="474.835" cy="163.11" r="4" fill="#0" id="circle195"/>
	<circle cx="474.835" cy="179.345" r="4" fill="#0" id="circle196"/>
	<circle cx="474.835" cy="195.581" r="4" fill="#0" id="circle197"/>
	<circle cx="476.458" cy="939.175" r="4" fill="#0" id="circle198"/>
	<circle cx="482.953" cy="130.638" r="4" fill="#0" id="circle199"/>
	<circle cx="482.953" cy="146.874" r="4" fill="#0" id="circle200"/>
	<circle cx="489.447" cy="927.81" r="4" fill="#0" id="circle201"/>
	<circle cx="491.07" cy="106.285" r="4" fill="#0" id="circle202"/>
	<circle cx="497.565" cy="911.574" r="4" fill="#0" id="circle203"/>
	<circle cx="500.812" cy="508.93" r="4" fill="#0" id="circle204"/>
	<circle cx="500.812" cy="525.165" r="4" fill="#0" id="circle205"/>
	<circle cx="500.812" cy="541.401" r="4" fill="#0" id="circle206"/>
	<circle cx="500.812" cy="557.637" r="4" fill="#0" id="circle207"/>
	<circle cx="504.059" cy="573.872" r="4" fill="#0" id="circle208"/>
	<circle cx="507.306" cy="98.1669" r="4" fill="#0" id="circle209"/>
	<circle cx="508.93" cy="411.516" r="4" fill="#0" id="circle210"/>
	<circle cx="508.93" cy="427.751" r="4" fill="#0" id="circle211"/>
	<circle cx="508.93" cy="443.987" r="4" fill="#0" id="circle212"/>
	<circle cx="508.93" cy="460.223" r="4" fill="#0" id="circle213"/>
	<circle cx="508.93" cy="476.458" r="4" fill="#0" id="circle214"/>
	<circle cx="508.93" cy="492.694" r="4" fill="#0" id="circle215"/>
	<circle cx="508.93" cy="590.108" r="4" fill="#0" id="circle216"/>
	<circle cx="508.93" cy="606.344" r="4" fill="#0" id="circle217"/>
	<circle cx="508.93" cy="622.579" r="4" fill="#0" id="circle218"/>
	<circle cx="508.93" cy="638.815" r="4" fill="#0" id="circle219"/>
	<circle cx="508.93" cy="890.468" r="4" fill="#0" id="circle220"/>
	<circle cx="517.047" cy="379.044" r="4" fill="#0" id="circle221"/>
	<circle cx="517.047" cy="395.28" r="4" fill="#0" id="circle222"/>
	<circle cx="517.047" cy="874.232" r="4" fill="#0" id="circle223"/>
	<circle cx="523.542" cy="90.0491" r="4" fill="#0" id="circle224"/>
	<circle cx="525.165" cy="346.573" r="4" fill="#0" id="circle225"/>
	<circle cx="525.165" cy="362.809" r="4" fill="#0" id="circle226"/>
	<circle cx="525.165" cy="640.439" r="4" fill="#0" id="circle227"/>
	<circle cx="531.66" cy="866.115" r="4" fill="#0" id="circle228"/>
	<circle cx="533.283" cy="322.219" r="4" fill="#0" id="circle229"/>
	<circle cx="538.154" cy="629.074" r="4" fill="#0" id="circle230"/>
	<circle cx="539.777" cy="81.9313" r="4" fill="#0" id="circle231"/>
	<circle cx="541.401" cy="305.984" r="4" fill="#0" id="circle232"/>
	<circle cx="541.401" cy="849.879" r="4" fill="#0" id="circle233"/>
	<circle cx="547.895" cy="609.591" r="4" fill="#0" id="circle234"/>
	<circle cx="549.519" cy="249.159" r="4" fill="#0" id="circle235"/>
	<circle cx="549.519" cy="265.394" r="4" fill="#0" id="circle236"/>
	<circle cx="549.519" cy="281.63" r="4" fill="#0" id="circle237"/>
	<circle cx="549.519" cy="833.643" r="4" fill="#0" id="circle238"/>
	<circle cx="556.013" cy="88.4255" r="4" fill="#0" id="circle239"/>
	<circle cx="556.013" cy="593.355" r="4" fill="#0" id="circle240"/>
	<circle cx="557.637" cy="104.661" r="4" fill="#0" id="circle241"/>
	<circle cx="557.637" cy="216.687" r="4" fill="#0" id="circle242"/>
	<circle cx="557.637" cy="232.923" r="4" fill="#0" id="circle243"/>
	<circle cx="557.637" cy="817.408" r="4" fill="#0" id="circle244"/>
	<circle cx="564.131" cy="560.884" r="4" fill="#0" id="circle245"/>
	<circle cx="564.131" cy="577.119" r="4" fill="#0" id="circle246"/>
	<circle cx="565.755" cy="119.273" r="4" fill="#0" id="circle247"/>
	<circle cx="565.755" cy="135.509" r="4" fill="#0" id="circle248"/>
	<circle cx="565.755" cy="184.216" r="4" fill="#0" id="circle249"/>
	<circle cx="565.755" cy="200.452" r="4" fill="#0" id="circle250"/>
	<circle cx="565.755" cy="801.172" r="4" fill="#0" id="circle251"/>
	<circle cx="572.249" cy="520.295" r="4" fill="#0" id="circle252"/>
	<circle cx="572.249" cy="536.53" r="4" fill="#0" id="circle253"/>
	<circle cx="573.872" cy="150.121" r="4" fill="#0" id="circle254"/>
	<circle cx="573.872" cy="166.357" r="4" fill="#0" id="circle255"/>
	<circle cx="580.367" cy="455.352" r="4" fill="#0" id="circle256"/>
	<circle cx="580.367" cy="471.588" r="4" fill="#0" id="circle257"/>
	<circle cx="580.367" cy="487.823" r="4" fill="#0" id="circle258"/>
	<circle cx="580.367" cy="504.059" r="4" fill="#0" id="circle259"/>
	<circle cx="581.99" cy="784.936" r="4" fill="#0" id="circle260"/>
	<circle cx="590.108" cy="768.7" r="4" fill="#0" id="circle261"/>
	<circle cx="593.355" cy="442.363" r="4" fill="#0" id="circle262"/>
	<circle cx="603.097" cy="757.336" r="4" fill="#0" id="circle263"/>
	<circle cx="609.591" cy="434.245" r="4" fill="#0" id="circle264"/>
	<circle cx="614.462" cy="719.993" r="4" fill="#0" id="circle265"/>
	<circle cx="614.462" cy="736.229" r="4" fill="#0" id="circle266"/>
	<circle cx="622.579" cy="695.64" r="4" fill="#0" id="circle267"/>
	<circle cx="624.203" cy="426.128" r="4" fill="#0" id="circle268"/>
	<circle cx="635.568" cy="684.275" r="4" fill="#0" id="circle269"/>
	<circle cx="638.815" cy="434.245" r="4" fill="#0" id="circle270"/>
	<circle cx="643.686" cy="668.039" r="4" fill="#0" id="circle271"/>
	<circle cx="646.933" cy="448.858" r="4" fill="#0" id="circle272"/>
	<circle cx="646.933" cy="646.933" r="4" fill="#0" id="circle273"/>
	<circle cx="655.051" cy="463.47" r="4" fill="#0" id="circle274"/>
	<circle cx="655.051" cy="479.705" r="4" fill="#0" id="circle275"/>
	<circle cx="655.051" cy="495.941" r="4" fill="#0" id="circle276"/>
	<circle cx="655.051" cy="630.697" r="4" fill="#0" id="circle277"/>
	<circle cx="663.169" cy="510.553" r="4" fill="#0" id="circle278"/>
	<circle cx="663.169" cy="526.789" r="4" fill="#0" id="circle279"/>
	<circle cx="663.169" cy="543.025" r="4" fill="#0" id="circle280"/>
	<circle cx="668.039" cy="619.332" r="4" fill="#0" id="circle281"/>
	<circle cx="671.286" cy="557.637" r="4" fill="#0" id="circle282"/>
	<circle cx="674.534" cy="573.872" r="4" fill="#0" id="circle283"/>
	<circle cx="676.157" cy="603.097" r="4" fill="#0" id="circle284"/>
	</g>
</svg>