<?xml version="1.0" encoding="UTF-8" standalone="no"?>
<!-- Created with CurveBenchmark -->
<svg
	xmlns:dc="http://purl.org/dc/elements/1.1/"
	xmlns:cc="http://creativecommons.org/ns#"
	xmlns:rdf="http://www.w3.org/1999/02/22-rdf-syntax-ns#"
	xmlns:svg="http://www.w3.org/2000/svg"
	xmlns="http://www.w3.org/2000/svg"
	xmlns:sodipodi="http://sodipodi.sourceforge.net/DTD/sodipodi-0.dtd"
	xmlns:inkscape="http://www.inkscape.org/namespaces/inkscape"
	width="1000"
	height="1000"
	id="svg2"
	version="1.1"
	sodipodi:docname="manifold/crust-hammer13.png.txt">
<defs
	id="defs4" />
<metadata
	id="metadata7">
	<rdf:RDF>
		<cc:Work
			rdf:about="">
			<dc:format>image/svg+xml</dc:format>
			<dc:type
				rdf:resource="http://purl.org/dc/dcmitype/StillImage" />
			<dc:title></dc:title>
		</cc:Work>
	</rdf:RDF>
</metadata>
<g
	inkscape:label="Layer 1"
	inkscape:groupmode="layer"
	id="layer1">
	<path style="fill:none;stroke:red;stroke-width:1px;stroke-linecap:butt;stroke-linejoin:miter;stroke-opacity:1" d="M 19.5486,178.144 35.0972,178.144 z" id="boundary" inkscape:connector-curvature="0" />
	<path style="fill:none;stroke:red;stroke-width:1px;stroke-linecap:butt;stroke-linejoin:miter;stroke-opacity:1" d="M 35.0972,178.144 50.6458,178.144 z" id="boundary" inkscape:connector-curvature="0" />
	<path style="fill:none;stroke:red;stroke-width:1px;stroke-linecap:butt;stroke-linejoin:miter;stroke-opacity:1" d="M 66.1944,181.254 50.6458,178.144 z" id="boundary" inkscape:connector-curvature="0" />
	<path style="fill:none;stroke:red;stroke-width:1px;stroke-linecap:butt;stroke-linejoin:miter;stroke-opacity:1" d="M 81.7429,178.144 97.2915,178.144 z" id="boundary" inkscape:connector-curvature="0" />
	<path style="fill:none;stroke:red;stroke-width:1px;stroke-linecap:butt;stroke-linejoin:miter;stroke-opacity:1" d="M 112.84,181.254 128.389,178.144 z" id="boundary" inkscape:connector-curvature="0" />
	<path style="fill:none;stroke:red;stroke-width:1px;stroke-linecap:butt;stroke-linejoin:miter;stroke-opacity:1" d="M 112.84,181.254 97.2915,178.144 z" id="boundary" inkscape:connector-curvature="0" />
	<path style="fill:none;stroke:red;stroke-width:1px;stroke-linecap:butt;stroke-linejoin:miter;stroke-opacity:1" d="M 66.1944,181.254 81.7429,178.144 z" id="boundary" inkscape:connector-curvature="0" />
	<path style="fill:none;stroke:red;stroke-width:1px;stroke-linecap:butt;stroke-linejoin:miter;stroke-opacity:1" d="M 19.5486,178.144 4,182.809 z" id="boundary" inkscape:connector-curvature="0" />
	<path style="fill:none;stroke:red;stroke-width:1px;stroke-linecap:butt;stroke-linejoin:miter;stroke-opacity:1" d="M 143.937,178.144 128.389,178.144 z" id="boundary" inkscape:connector-curvature="0" />
	<path style="fill:none;stroke:red;stroke-width:1px;stroke-linecap:butt;stroke-linejoin:miter;stroke-opacity:1" d="M 159.486,181.254 143.937,178.144 z" id="boundary" inkscape:connector-curvature="0" />
	<path style="fill:none;stroke:red;stroke-width:1px;stroke-linecap:butt;stroke-linejoin:miter;stroke-opacity:1" d="M 175.034,178.144 190.583,178.144 z" id="boundary" inkscape:connector-curvature="0" />
	<path style="fill:none;stroke:red;stroke-width:1px;stroke-linecap:butt;stroke-linejoin:miter;stroke-opacity:1" d="M 206.132,178.144 190.583,178.144 z" id="boundary" inkscape:connector-curvature="0" />
	<path style="fill:none;stroke:red;stroke-width:1px;stroke-linecap:butt;stroke-linejoin:miter;stroke-opacity:1" d="M 175.034,178.144 159.486,181.254 z" id="boundary" inkscape:connector-curvature="0" />
	<path style="fill:none;stroke:red;stroke-width:1px;stroke-linecap:butt;stroke-linejoin:miter;stroke-opacity:1" d="M 206.132,178.144 221.68,178.144 z" id="boundary" inkscape:connector-curvature="0" />
	<path style="fill:none;stroke:red;stroke-width:1px;stroke-linecap:butt;stroke-linejoin:miter;stroke-opacity:1" d="M 235.674,185.918 221.68,178.144 z" id="boundary" inkscape:connector-curvature="0" />
	<path style="fill:none;stroke:red;stroke-width:1px;stroke-linecap:butt;stroke-linejoin:miter;stroke-opacity:1" d="M 263.661,185.918 249.668,178.144 z" id="boundary" inkscape:connector-curvature="0" />
	<path style="fill:none;stroke:red;stroke-width:1px;stroke-linecap:butt;stroke-linejoin:miter;stroke-opacity:1" d="M 293.204,178.144 279.21,185.918 z" id="boundary" inkscape:connector-curvature="0" />
	<path style="fill:none;stroke:red;stroke-width:1px;stroke-linecap:butt;stroke-linejoin:miter;stroke-opacity:1" d="M 249.668,178.144 235.674,185.918 z" id="boundary" inkscape:connector-curvature="0" />
	<path style="fill:none;stroke:red;stroke-width:1px;stroke-linecap:butt;stroke-linejoin:miter;stroke-opacity:1" d="M 4,198.357 4,182.809 z" id="boundary" inkscape:connector-curvature="0" />
	<path style="fill:none;stroke:red;stroke-width:1px;stroke-linecap:butt;stroke-linejoin:miter;stroke-opacity:1" d="M 4,213.906 4,198.357 z" id="boundary" inkscape:connector-curvature="0" />
	<path style="fill:none;stroke:red;stroke-width:1px;stroke-linecap:butt;stroke-linejoin:miter;stroke-opacity:1" d="M 4,229.455 4,213.906 z" id="boundary" inkscape:connector-curvature="0" />
	<path style="fill:none;stroke:red;stroke-width:1px;stroke-linecap:butt;stroke-linejoin:miter;stroke-opacity:1" d="M 4,245.003 4,229.455 z" id="boundary" inkscape:connector-curvature="0" />
	<path style="fill:none;stroke:red;stroke-width:1px;stroke-linecap:butt;stroke-linejoin:miter;stroke-opacity:1" d="M 263.661,185.918 279.21,185.918 z" id="boundary" inkscape:connector-curvature="0" />
	<path style="fill:none;stroke:red;stroke-width:1px;stroke-linecap:butt;stroke-linejoin:miter;stroke-opacity:1" d="M 321.191,178.144 307.197,185.918 z" id="boundary" inkscape:connector-curvature="0" />
	<path style="fill:none;stroke:red;stroke-width:1px;stroke-linecap:butt;stroke-linejoin:miter;stroke-opacity:1" d="M 307.197,185.918 293.204,178.144 z" id="boundary" inkscape:connector-curvature="0" />
	<path style="fill:none;stroke:red;stroke-width:1px;stroke-linecap:butt;stroke-linejoin:miter;stroke-opacity:1" d="M 336.74,178.144 352.288,178.144 z" id="boundary" inkscape:connector-curvature="0" />
	<path style="fill:none;stroke:red;stroke-width:1px;stroke-linecap:butt;stroke-linejoin:miter;stroke-opacity:1" d="M 336.74,178.144 321.191,178.144 z" id="boundary" inkscape:connector-curvature="0" />
	<path style="fill:none;stroke:red;stroke-width:1px;stroke-linecap:butt;stroke-linejoin:miter;stroke-opacity:1" d="M 366.282,185.918 352.288,178.144 z" id="boundary" inkscape:connector-curvature="0" />
	<path style="fill:none;stroke:red;stroke-width:1px;stroke-linecap:butt;stroke-linejoin:miter;stroke-opacity:1" d="M 395.824,178.144 380.276,178.144 z" id="boundary" inkscape:connector-curvature="0" />
	<path style="fill:none;stroke:red;stroke-width:1px;stroke-linecap:butt;stroke-linejoin:miter;stroke-opacity:1" d="M 395.824,178.144 411.373,178.144 z" id="boundary" inkscape:connector-curvature="0" />
	<path style="fill:none;stroke:red;stroke-width:1px;stroke-linecap:butt;stroke-linejoin:miter;stroke-opacity:1" d="M 380.276,178.144 366.282,185.918 z" id="boundary" inkscape:connector-curvature="0" />
	<path style="fill:none;stroke:red;stroke-width:1px;stroke-linecap:butt;stroke-linejoin:miter;stroke-opacity:1" d="M 442.47,178.144 426.922,178.144 z" id="boundary" inkscape:connector-curvature="0" />
	<path style="fill:none;stroke:red;stroke-width:1px;stroke-linecap:butt;stroke-linejoin:miter;stroke-opacity:1" d="M 426.922,178.144 411.373,178.144 z" id="boundary" inkscape:connector-curvature="0" />
	<path style="fill:none;stroke:red;stroke-width:1px;stroke-linecap:butt;stroke-linejoin:miter;stroke-opacity:1" d="M 470.458,178.144 456.464,185.918 z" id="boundary" inkscape:connector-curvature="0" />
	<path style="fill:none;stroke:red;stroke-width:1px;stroke-linecap:butt;stroke-linejoin:miter;stroke-opacity:1" d="M 456.464,185.918 442.47,178.144 z" id="boundary" inkscape:connector-curvature="0" />
	<path style="fill:none;stroke:red;stroke-width:1px;stroke-linecap:butt;stroke-linejoin:miter;stroke-opacity:1" d="M 500,185.918 486.006,178.144 z" id="boundary" inkscape:connector-curvature="0" />
	<path style="fill:none;stroke:red;stroke-width:1px;stroke-linecap:butt;stroke-linejoin:miter;stroke-opacity:1" d="M 486.006,178.144 470.458,178.144 z" id="boundary" inkscape:connector-curvature="0" />
	<path style="fill:none;stroke:red;stroke-width:1px;stroke-linecap:butt;stroke-linejoin:miter;stroke-opacity:1" d="M 500,185.918 513.994,178.144 z" id="boundary" inkscape:connector-curvature="0" />
	<path style="fill:none;stroke:red;stroke-width:1px;stroke-linecap:butt;stroke-linejoin:miter;stroke-opacity:1" d="M 529.542,178.144 513.994,178.144 z" id="boundary" inkscape:connector-curvature="0" />
	<path style="fill:none;stroke:red;stroke-width:1px;stroke-linecap:butt;stroke-linejoin:miter;stroke-opacity:1" d="M 529.542,178.144 545.091,178.144 z" id="boundary" inkscape:connector-curvature="0" />
	<path style="fill:none;stroke:red;stroke-width:1px;stroke-linecap:butt;stroke-linejoin:miter;stroke-opacity:1" d="M 545.091,178.144 560.639,178.144 z" id="boundary" inkscape:connector-curvature="0" />
	<path style="fill:none;stroke:red;stroke-width:1px;stroke-linecap:butt;stroke-linejoin:miter;stroke-opacity:1" d="M 576.188,178.144 560.639,178.144 z" id="boundary" inkscape:connector-curvature="0" />
	<path style="fill:none;stroke:red;stroke-width:1px;stroke-linecap:butt;stroke-linejoin:miter;stroke-opacity:1" d="M 576.188,178.144 591.737,178.144 z" id="boundary" inkscape:connector-curvature="0" />
	<path style="fill:none;stroke:red;stroke-width:1px;stroke-linecap:butt;stroke-linejoin:miter;stroke-opacity:1" d="M 607.285,178.144 591.737,178.144 z" id="boundary" inkscape:connector-curvature="0" />
	<path style="fill:none;stroke:red;stroke-width:1px;stroke-linecap:butt;stroke-linejoin:miter;stroke-opacity:1" d="M 4,276.1 4,260.552 z" id="boundary" inkscape:connector-curvature="0" />
	<path style="fill:none;stroke:red;stroke-width:1px;stroke-linecap:butt;stroke-linejoin:miter;stroke-opacity:1" d="M 4,260.552 4,245.003 z" id="boundary" inkscape:connector-curvature="0" />
	<path style="fill:none;stroke:red;stroke-width:1px;stroke-linecap:butt;stroke-linejoin:miter;stroke-opacity:1" d="M 4,291.649 4,276.1 z" id="boundary" inkscape:connector-curvature="0" />
	<path style="fill:none;stroke:red;stroke-width:1px;stroke-linecap:butt;stroke-linejoin:miter;stroke-opacity:1" d="M 13.3292,319.636 4,307.197 z" id="boundary" inkscape:connector-curvature="0" />
	<path style="fill:none;stroke:red;stroke-width:1px;stroke-linecap:butt;stroke-linejoin:miter;stroke-opacity:1" d="M 4,307.197 4,291.649 z" id="boundary" inkscape:connector-curvature="0" />
	<path style="fill:none;stroke:red;stroke-width:1px;stroke-linecap:butt;stroke-linejoin:miter;stroke-opacity:1" d="M 72.4138,319.636 58.4201,311.862 z" id="boundary" inkscape:connector-curvature="0" />
	<path style="fill:none;stroke:red;stroke-width:1px;stroke-linecap:butt;stroke-linejoin:miter;stroke-opacity:1" d="M 58.4201,311.862 44.4263,319.636 z" id="boundary" inkscape:connector-curvature="0" />
	<path style="fill:none;stroke:red;stroke-width:1px;stroke-linecap:butt;stroke-linejoin:miter;stroke-opacity:1" d="M 145.492,311.862 131.498,319.636 z" id="boundary" inkscape:connector-curvature="0" />
	<path style="fill:none;stroke:red;stroke-width:1px;stroke-linecap:butt;stroke-linejoin:miter;stroke-opacity:1" d="M 131.498,319.636 117.505,311.862 z" id="boundary" inkscape:connector-curvature="0" />
	<path style="fill:none;stroke:red;stroke-width:1px;stroke-linecap:butt;stroke-linejoin:miter;stroke-opacity:1" d="M 159.486,319.636 145.492,311.862 z" id="boundary" inkscape:connector-curvature="0" />
	<path style="fill:none;stroke:red;stroke-width:1px;stroke-linecap:butt;stroke-linejoin:miter;stroke-opacity:1" d="M 206.132,319.636 190.583,314.972 z" id="boundary" inkscape:connector-curvature="0" />
	<path style="fill:none;stroke:red;stroke-width:1px;stroke-linecap:butt;stroke-linejoin:miter;stroke-opacity:1" d="M 252.777,314.972 237.229,319.636 z" id="boundary" inkscape:connector-curvature="0" />
	<path style="fill:none;stroke:red;stroke-width:1px;stroke-linecap:butt;stroke-linejoin:miter;stroke-opacity:1" d="M 268.326,319.636 252.777,314.972 z" id="boundary" inkscape:connector-curvature="0" />
	<path style="fill:none;stroke:red;stroke-width:1px;stroke-linecap:butt;stroke-linejoin:miter;stroke-opacity:1" d="M 117.505,311.862 103.511,319.636 z" id="boundary" inkscape:connector-curvature="0" />
	<path style="fill:none;stroke:red;stroke-width:1px;stroke-linecap:butt;stroke-linejoin:miter;stroke-opacity:1" d="M 299.423,314.972 283.875,319.636 z" id="boundary" inkscape:connector-curvature="0" />
	<path style="fill:none;stroke:red;stroke-width:1px;stroke-linecap:butt;stroke-linejoin:miter;stroke-opacity:1" d="M 190.583,314.972 175.034,319.636 z" id="boundary" inkscape:connector-curvature="0" />
	<path style="fill:none;stroke:red;stroke-width:1px;stroke-linecap:butt;stroke-linejoin:miter;stroke-opacity:1" d="M 13.3292,319.636 28.8777,319.636 z" id="boundary" inkscape:connector-curvature="0" />
	<path style="fill:none;stroke:red;stroke-width:1px;stroke-linecap:butt;stroke-linejoin:miter;stroke-opacity:1" d="M 28.8777,319.636 44.4263,319.636 z" id="boundary" inkscape:connector-curvature="0" />
	<path style="fill:none;stroke:red;stroke-width:1px;stroke-linecap:butt;stroke-linejoin:miter;stroke-opacity:1" d="M 72.4138,319.636 87.9624,319.636 z" id="boundary" inkscape:connector-curvature="0" />
	<path style="fill:none;stroke:red;stroke-width:1px;stroke-linecap:butt;stroke-linejoin:miter;stroke-opacity:1" d="M 87.9624,319.636 103.511,319.636 z" id="boundary" inkscape:connector-curvature="0" />
	<path style="fill:none;stroke:red;stroke-width:1px;stroke-linecap:butt;stroke-linejoin:miter;stroke-opacity:1" d="M 159.486,319.636 175.034,319.636 z" id="boundary" inkscape:connector-curvature="0" />
	<path style="fill:none;stroke:red;stroke-width:1px;stroke-linecap:butt;stroke-linejoin:miter;stroke-opacity:1" d="M 206.132,319.636 221.68,319.636 z" id="boundary" inkscape:connector-curvature="0" />
	<path style="fill:none;stroke:red;stroke-width:1px;stroke-linecap:butt;stroke-linejoin:miter;stroke-opacity:1" d="M 237.229,319.636 221.68,319.636 z" id="boundary" inkscape:connector-curvature="0" />
	<path style="fill:none;stroke:red;stroke-width:1px;stroke-linecap:butt;stroke-linejoin:miter;stroke-opacity:1" d="M 283.875,319.636 268.326,319.636 z" id="boundary" inkscape:connector-curvature="0" />
	<path style="fill:none;stroke:red;stroke-width:1px;stroke-linecap:butt;stroke-linejoin:miter;stroke-opacity:1" d="M 389.605,319.636 375.611,311.862 z" id="boundary" inkscape:connector-curvature="0" />
	<path style="fill:none;stroke:red;stroke-width:1px;stroke-linecap:butt;stroke-linejoin:miter;stroke-opacity:1" d="M 375.611,311.862 361.618,319.636 z" id="boundary" inkscape:connector-curvature="0" />
	<path style="fill:none;stroke:red;stroke-width:1px;stroke-linecap:butt;stroke-linejoin:miter;stroke-opacity:1" d="M 299.423,314.972 314.972,319.636 z" id="boundary" inkscape:connector-curvature="0" />
	<path style="fill:none;stroke:red;stroke-width:1px;stroke-linecap:butt;stroke-linejoin:miter;stroke-opacity:1" d="M 330.52,319.636 346.069,319.636 z" id="boundary" inkscape:connector-curvature="0" />
	<path style="fill:none;stroke:red;stroke-width:1px;stroke-linecap:butt;stroke-linejoin:miter;stroke-opacity:1" d="M 330.52,319.636 314.972,319.636 z" id="boundary" inkscape:connector-curvature="0" />
	<path style="fill:none;stroke:red;stroke-width:1px;stroke-linecap:butt;stroke-linejoin:miter;stroke-opacity:1" d="M 389.605,319.636 403.599,311.862 z" id="boundary" inkscape:connector-curvature="0" />
	<path style="fill:none;stroke:red;stroke-width:1px;stroke-linecap:butt;stroke-linejoin:miter;stroke-opacity:1" d="M 419.147,311.862 403.599,311.862 z" id="boundary" inkscape:connector-curvature="0" />
	<path style="fill:none;stroke:red;stroke-width:1px;stroke-linecap:butt;stroke-linejoin:miter;stroke-opacity:1" d="M 361.618,319.636 346.069,319.636 z" id="boundary" inkscape:connector-curvature="0" />
	<path style="fill:none;stroke:red;stroke-width:1px;stroke-linecap:butt;stroke-linejoin:miter;stroke-opacity:1" d="M 433.141,319.636 419.147,311.862 z" id="boundary" inkscape:connector-curvature="0" />
	<path style="fill:none;stroke:red;stroke-width:1px;stroke-linecap:butt;stroke-linejoin:miter;stroke-opacity:1" d="M 464.238,319.636 448.69,319.636 z" id="boundary" inkscape:connector-curvature="0" />
	<path style="fill:none;stroke:red;stroke-width:1px;stroke-linecap:butt;stroke-linejoin:miter;stroke-opacity:1" d="M 433.141,319.636 448.69,319.636 z" id="boundary" inkscape:connector-curvature="0" />
	<path style="fill:none;stroke:red;stroke-width:1px;stroke-linecap:butt;stroke-linejoin:miter;stroke-opacity:1" d="M 478.232,311.862 464.238,319.636 z" id="boundary" inkscape:connector-curvature="0" />
	<path style="fill:none;stroke:red;stroke-width:1px;stroke-linecap:butt;stroke-linejoin:miter;stroke-opacity:1" d="M 521.768,311.862 507.774,319.636 z" id="boundary" inkscape:connector-curvature="0" />
	<path style="fill:none;stroke:red;stroke-width:1px;stroke-linecap:butt;stroke-linejoin:miter;stroke-opacity:1" d="M 535.762,319.636 521.768,311.862 z" id="boundary" inkscape:connector-curvature="0" />
	<path style="fill:none;stroke:red;stroke-width:1px;stroke-linecap:butt;stroke-linejoin:miter;stroke-opacity:1" d="M 492.226,319.636 478.232,311.862 z" id="boundary" inkscape:connector-curvature="0" />
	<path style="fill:none;stroke:red;stroke-width:1px;stroke-linecap:butt;stroke-linejoin:miter;stroke-opacity:1" d="M 597.956,316.527 582.408,319.636 z" id="boundary" inkscape:connector-curvature="0" />
	<path style="fill:none;stroke:red;stroke-width:1px;stroke-linecap:butt;stroke-linejoin:miter;stroke-opacity:1" d="M 492.226,319.636 507.774,319.636 z" id="boundary" inkscape:connector-curvature="0" />
	<path style="fill:none;stroke:red;stroke-width:1px;stroke-linecap:butt;stroke-linejoin:miter;stroke-opacity:1" d="M 535.762,319.636 551.31,319.636 z" id="boundary" inkscape:connector-curvature="0" />
	<path style="fill:none;stroke:red;stroke-width:1px;stroke-linecap:butt;stroke-linejoin:miter;stroke-opacity:1" d="M 566.859,319.636 582.408,319.636 z" id="boundary" inkscape:connector-curvature="0" />
	<path style="fill:none;stroke:red;stroke-width:1px;stroke-linecap:butt;stroke-linejoin:miter;stroke-opacity:1" d="M 551.31,319.636 566.859,319.636 z" id="boundary" inkscape:connector-curvature="0" />
	<path style="fill:none;stroke:red;stroke-width:1px;stroke-linecap:butt;stroke-linejoin:miter;stroke-opacity:1" d="M 597.956,316.527 613.505,319.636 z" id="boundary" inkscape:connector-curvature="0" />
	<path style="fill:none;stroke:red;stroke-width:1px;stroke-linecap:butt;stroke-linejoin:miter;stroke-opacity:1" d="M 719.235,4 719.235,19.5486 z" id="boundary" inkscape:connector-curvature="0" />
	<path style="fill:none;stroke:red;stroke-width:1px;stroke-linecap:butt;stroke-linejoin:miter;stroke-opacity:1" d="M 719.235,19.5486 719.235,35.0972 z" id="boundary" inkscape:connector-curvature="0" />
	<path style="fill:none;stroke:red;stroke-width:1px;stroke-linecap:butt;stroke-linejoin:miter;stroke-opacity:1" d="M 719.235,50.6458 719.235,35.0972 z" id="boundary" inkscape:connector-curvature="0" />
	<path style="fill:none;stroke:red;stroke-width:1px;stroke-linecap:butt;stroke-linejoin:miter;stroke-opacity:1" d="M 719.235,66.1944 719.235,50.6458 z" id="boundary" inkscape:connector-curvature="0" />
	<path style="fill:none;stroke:red;stroke-width:1px;stroke-linecap:butt;stroke-linejoin:miter;stroke-opacity:1" d="M 719.235,81.7429 719.235,66.1944 z" id="boundary" inkscape:connector-curvature="0" />
	<path style="fill:none;stroke:red;stroke-width:1px;stroke-linecap:butt;stroke-linejoin:miter;stroke-opacity:1" d="M 719.235,4 734.784,4 z" id="boundary" inkscape:connector-curvature="0" />
	<path style="fill:none;stroke:red;stroke-width:1px;stroke-linecap:butt;stroke-linejoin:miter;stroke-opacity:1" d="M 622.834,178.144 607.285,178.144 z" id="boundary" inkscape:connector-curvature="0" />
	<path style="fill:none;stroke:red;stroke-width:1px;stroke-linecap:butt;stroke-linejoin:miter;stroke-opacity:1" d="M 719.235,81.7429 719.235,97.2915 z" id="boundary" inkscape:connector-curvature="0" />
	<path style="fill:none;stroke:red;stroke-width:1px;stroke-linecap:butt;stroke-linejoin:miter;stroke-opacity:1" d="M 719.235,112.84 719.235,128.389 z" id="boundary" inkscape:connector-curvature="0" />
	<path style="fill:none;stroke:red;stroke-width:1px;stroke-linecap:butt;stroke-linejoin:miter;stroke-opacity:1" d="M 719.235,112.84 719.235,97.2915 z" id="boundary" inkscape:connector-curvature="0" />
	<path style="fill:none;stroke:red;stroke-width:1px;stroke-linecap:butt;stroke-linejoin:miter;stroke-opacity:1" d="M 734.784,4 750.332,4 z" id="boundary" inkscape:connector-curvature="0" />
	<path style="fill:none;stroke:red;stroke-width:1px;stroke-linecap:butt;stroke-linejoin:miter;stroke-opacity:1" d="M 750.332,4 765.881,4 z" id="boundary" inkscape:connector-curvature="0" />
	<path style="fill:none;stroke:red;stroke-width:1px;stroke-linecap:butt;stroke-linejoin:miter;stroke-opacity:1" d="M 765.881,4 781.429,4 z" id="boundary" inkscape:connector-curvature="0" />
	<path style="fill:none;stroke:red;stroke-width:1px;stroke-linecap:butt;stroke-linejoin:miter;stroke-opacity:1" d="M 781.429,4 796.978,4 z" id="boundary" inkscape:connector-curvature="0" />
	<path style="fill:none;stroke:red;stroke-width:1px;stroke-linecap:butt;stroke-linejoin:miter;stroke-opacity:1" d="M 812.527,4 796.978,4 z" id="boundary" inkscape:connector-curvature="0" />
	<path style="fill:none;stroke:red;stroke-width:1px;stroke-linecap:butt;stroke-linejoin:miter;stroke-opacity:1" d="M 812.527,4 828.075,4 z" id="boundary" inkscape:connector-curvature="0" />
	<path style="fill:none;stroke:red;stroke-width:1px;stroke-linecap:butt;stroke-linejoin:miter;stroke-opacity:1" d="M 719.235,143.937 719.235,128.389 z" id="boundary" inkscape:connector-curvature="0" />
	<path style="fill:none;stroke:red;stroke-width:1px;stroke-linecap:butt;stroke-linejoin:miter;stroke-opacity:1" d="M 622.834,178.144 638.382,178.144 z" id="boundary" inkscape:connector-curvature="0" />
	<path style="fill:none;stroke:red;stroke-width:1px;stroke-linecap:butt;stroke-linejoin:miter;stroke-opacity:1" d="M 638.382,178.144 653.931,178.144 z" id="boundary" inkscape:connector-curvature="0" />
	<path style="fill:none;stroke:red;stroke-width:1px;stroke-linecap:butt;stroke-linejoin:miter;stroke-opacity:1" d="M 653.931,178.144 669.48,178.144 z" id="boundary" inkscape:connector-curvature="0" />
	<path style="fill:none;stroke:red;stroke-width:1px;stroke-linecap:butt;stroke-linejoin:miter;stroke-opacity:1" d="M 669.48,178.144 685.028,178.144 z" id="boundary" inkscape:connector-curvature="0" />
	<path style="fill:none;stroke:red;stroke-width:1px;stroke-linecap:butt;stroke-linejoin:miter;stroke-opacity:1" d="M 719.235,143.937 728.564,156.376 z" id="boundary" inkscape:connector-curvature="0" />
	<path style="fill:none;stroke:red;stroke-width:1px;stroke-linecap:butt;stroke-linejoin:miter;stroke-opacity:1" d="M 728.564,156.376 742.558,164.15 z" id="boundary" inkscape:connector-curvature="0" />
	<path style="fill:none;stroke:red;stroke-width:1px;stroke-linecap:butt;stroke-linejoin:miter;stroke-opacity:1" d="M 742.558,164.15 731.674,178.144 z" id="boundary" inkscape:connector-curvature="0" />
	<path style="fill:none;stroke:red;stroke-width:1px;stroke-linecap:butt;stroke-linejoin:miter;stroke-opacity:1" d="M 700.577,178.144 716.125,178.144 z" id="boundary" inkscape:connector-curvature="0" />
	<path style="fill:none;stroke:red;stroke-width:1px;stroke-linecap:butt;stroke-linejoin:miter;stroke-opacity:1" d="M 685.028,178.144 700.577,178.144 z" id="boundary" inkscape:connector-curvature="0" />
	<path style="fill:none;stroke:red;stroke-width:1px;stroke-linecap:butt;stroke-linejoin:miter;stroke-opacity:1" d="M 716.125,178.144 731.674,178.144 z" id="boundary" inkscape:connector-curvature="0" />
	<path style="fill:none;stroke:red;stroke-width:1px;stroke-linecap:butt;stroke-linejoin:miter;stroke-opacity:1" d="M 843.624,4 828.075,4 z" id="boundary" inkscape:connector-curvature="0" />
	<path style="fill:none;stroke:red;stroke-width:1px;stroke-linecap:butt;stroke-linejoin:miter;stroke-opacity:1" d="M 859.172,4 874.721,4 z" id="boundary" inkscape:connector-curvature="0" />
	<path style="fill:none;stroke:red;stroke-width:1px;stroke-linecap:butt;stroke-linejoin:miter;stroke-opacity:1" d="M 859.172,4 843.624,4 z" id="boundary" inkscape:connector-curvature="0" />
	<path style="fill:none;stroke:red;stroke-width:1px;stroke-linecap:butt;stroke-linejoin:miter;stroke-opacity:1" d="M 890.27,4 905.818,4 z" id="boundary" inkscape:connector-curvature="0" />
	<path style="fill:none;stroke:red;stroke-width:1px;stroke-linecap:butt;stroke-linejoin:miter;stroke-opacity:1" d="M 921.367,4 936.915,4 z" id="boundary" inkscape:connector-curvature="0" />
	<path style="fill:none;stroke:red;stroke-width:1px;stroke-linecap:butt;stroke-linejoin:miter;stroke-opacity:1" d="M 921.367,4 905.818,4 z" id="boundary" inkscape:connector-curvature="0" />
	<path style="fill:none;stroke:red;stroke-width:1px;stroke-linecap:butt;stroke-linejoin:miter;stroke-opacity:1" d="M 890.27,4 874.721,4 z" id="boundary" inkscape:connector-curvature="0" />
	<path style="fill:none;stroke:red;stroke-width:1px;stroke-linecap:butt;stroke-linejoin:miter;stroke-opacity:1" d="M 952.464,4 968.013,4 z" id="boundary" inkscape:connector-curvature="0" />
	<path style="fill:none;stroke:red;stroke-width:1px;stroke-linecap:butt;stroke-linejoin:miter;stroke-opacity:1" d="M 983.561,4 992.89,24.2132 z" id="boundary" inkscape:connector-curvature="0" />
	<path style="fill:none;stroke:red;stroke-width:1px;stroke-linecap:butt;stroke-linejoin:miter;stroke-opacity:1" d="M 968.013,4 983.561,4 z" id="boundary" inkscape:connector-curvature="0" />
	<path style="fill:none;stroke:red;stroke-width:1px;stroke-linecap:butt;stroke-linejoin:miter;stroke-opacity:1" d="M 992.89,24.2132 992.89,39.7618 z" id="boundary" inkscape:connector-curvature="0" />
	<path style="fill:none;stroke:red;stroke-width:1px;stroke-linecap:butt;stroke-linejoin:miter;stroke-opacity:1" d="M 992.89,39.7618 992.89,63.0846 z" id="boundary" inkscape:connector-curvature="0" />
	<path style="fill:none;stroke:red;stroke-width:1px;stroke-linecap:butt;stroke-linejoin:miter;stroke-opacity:1" d="M 992.89,63.0846 992.89,86.4075 z" id="boundary" inkscape:connector-curvature="0" />
	<path style="fill:none;stroke:red;stroke-width:1px;stroke-linecap:butt;stroke-linejoin:miter;stroke-opacity:1" d="M 992.89,101.956 992.89,86.4075 z" id="boundary" inkscape:connector-curvature="0" />
	<path style="fill:none;stroke:red;stroke-width:1px;stroke-linecap:butt;stroke-linejoin:miter;stroke-opacity:1" d="M 936.915,4 952.464,4 z" id="boundary" inkscape:connector-curvature="0" />
	<path style="fill:none;stroke:red;stroke-width:1px;stroke-linecap:butt;stroke-linejoin:miter;stroke-opacity:1" d="M 969.567,164.15 977.342,178.144 z" id="boundary" inkscape:connector-curvature="0" />
	<path style="fill:none;stroke:red;stroke-width:1px;stroke-linecap:butt;stroke-linejoin:miter;stroke-opacity:1" d="M 969.567,164.15 983.561,156.376 z" id="boundary" inkscape:connector-curvature="0" />
	<path style="fill:none;stroke:red;stroke-width:1px;stroke-linecap:butt;stroke-linejoin:miter;stroke-opacity:1" d="M 996,140.828 983.561,156.376 z" id="boundary" inkscape:connector-curvature="0" />
	<path style="fill:none;stroke:red;stroke-width:1px;stroke-linecap:butt;stroke-linejoin:miter;stroke-opacity:1" d="M 977.342,178.144 969.567,195.248 z" id="boundary" inkscape:connector-curvature="0" />
	<path style="fill:none;stroke:red;stroke-width:1px;stroke-linecap:butt;stroke-linejoin:miter;stroke-opacity:1" d="M 996,140.828 992.89,125.279 z" id="boundary" inkscape:connector-curvature="0" />
	<path style="fill:none;stroke:red;stroke-width:1px;stroke-linecap:butt;stroke-linejoin:miter;stroke-opacity:1" d="M 992.89,101.956 992.89,125.279 z" id="boundary" inkscape:connector-curvature="0" />
	<path style="fill:none;stroke:red;stroke-width:1px;stroke-linecap:butt;stroke-linejoin:miter;stroke-opacity:1" d="M 977.342,209.241 969.567,226.345 z" id="boundary" inkscape:connector-curvature="0" />
	<path style="fill:none;stroke:red;stroke-width:1px;stroke-linecap:butt;stroke-linejoin:miter;stroke-opacity:1" d="M 977.342,209.241 969.567,195.248 z" id="boundary" inkscape:connector-curvature="0" />
	<path style="fill:none;stroke:red;stroke-width:1px;stroke-linecap:butt;stroke-linejoin:miter;stroke-opacity:1" d="M 969.567,226.345 977.342,240.339 z" id="boundary" inkscape:connector-curvature="0" />
	<path style="fill:none;stroke:red;stroke-width:1px;stroke-linecap:butt;stroke-linejoin:miter;stroke-opacity:1" d="M 977.342,240.339 969.567,257.442 z" id="boundary" inkscape:connector-curvature="0" />
	<path style="fill:none;stroke:red;stroke-width:1px;stroke-linecap:butt;stroke-linejoin:miter;stroke-opacity:1" d="M 644.602,316.527 629.053,319.636 z" id="boundary" inkscape:connector-curvature="0" />
	<path style="fill:none;stroke:red;stroke-width:1px;stroke-linecap:butt;stroke-linejoin:miter;stroke-opacity:1" d="M 629.053,319.636 613.505,319.636 z" id="boundary" inkscape:connector-curvature="0" />
	<path style="fill:none;stroke:red;stroke-width:1px;stroke-linecap:butt;stroke-linejoin:miter;stroke-opacity:1" d="M 644.602,316.527 660.15,319.636 z" id="boundary" inkscape:connector-curvature="0" />
	<path style="fill:none;stroke:red;stroke-width:1px;stroke-linecap:butt;stroke-linejoin:miter;stroke-opacity:1" d="M 705.241,311.862 691.248,319.636 z" id="boundary" inkscape:connector-curvature="0" />
	<path style="fill:none;stroke:red;stroke-width:1px;stroke-linecap:butt;stroke-linejoin:miter;stroke-opacity:1" d="M 691.248,319.636 675.699,319.636 z" id="boundary" inkscape:connector-curvature="0" />
	<path style="fill:none;stroke:red;stroke-width:1px;stroke-linecap:butt;stroke-linejoin:miter;stroke-opacity:1" d="M 675.699,319.636 660.15,319.636 z" id="boundary" inkscape:connector-curvature="0" />
	<path style="fill:none;stroke:red;stroke-width:1px;stroke-linecap:butt;stroke-linejoin:miter;stroke-opacity:1" d="M 719.235,319.636 734.784,319.636 z" id="boundary" inkscape:connector-curvature="0" />
	<path style="fill:none;stroke:red;stroke-width:1px;stroke-linecap:butt;stroke-linejoin:miter;stroke-opacity:1" d="M 705.241,311.862 719.235,319.636 z" id="boundary" inkscape:connector-curvature="0" />
	<path style="fill:none;stroke:red;stroke-width:1px;stroke-linecap:butt;stroke-linejoin:miter;stroke-opacity:1" d="M 734.784,319.636 750.332,319.636 z" id="boundary" inkscape:connector-curvature="0" />
	<path style="fill:none;stroke:red;stroke-width:1px;stroke-linecap:butt;stroke-linejoin:miter;stroke-opacity:1" d="M 750.332,319.636 750.332,335.185 z" id="boundary" inkscape:connector-curvature="0" />
	<path style="fill:none;stroke:red;stroke-width:1px;stroke-linecap:butt;stroke-linejoin:miter;stroke-opacity:1" d="M 750.332,350.734 750.332,335.185 z" id="boundary" inkscape:connector-curvature="0" />
	<path style="fill:none;stroke:red;stroke-width:1px;stroke-linecap:butt;stroke-linejoin:miter;stroke-opacity:1" d="M 742.558,408.263 734.784,423.812 z" id="boundary" inkscape:connector-curvature="0" />
	<path style="fill:none;stroke:red;stroke-width:1px;stroke-linecap:butt;stroke-linejoin:miter;stroke-opacity:1" d="M 742.558,392.715 742.558,408.263 z" id="boundary" inkscape:connector-curvature="0" />
	<path style="fill:none;stroke:red;stroke-width:1px;stroke-linecap:butt;stroke-linejoin:miter;stroke-opacity:1" d="M 742.558,392.715 742.558,377.166 z" id="boundary" inkscape:connector-curvature="0" />
	<path style="fill:none;stroke:red;stroke-width:1px;stroke-linecap:butt;stroke-linejoin:miter;stroke-opacity:1" d="M 750.332,350.734 742.558,377.166 z" id="boundary" inkscape:connector-curvature="0" />
	<path style="fill:none;stroke:red;stroke-width:1px;stroke-linecap:butt;stroke-linejoin:miter;stroke-opacity:1" d="M 734.784,423.812 734.784,439.361 z" id="boundary" inkscape:connector-curvature="0" />
	<path style="fill:none;stroke:red;stroke-width:1px;stroke-linecap:butt;stroke-linejoin:miter;stroke-opacity:1" d="M 719.235,509.329 711.461,532.652 z" id="boundary" inkscape:connector-curvature="0" />
	<path style="fill:none;stroke:red;stroke-width:1px;stroke-linecap:butt;stroke-linejoin:miter;stroke-opacity:1" d="M 711.461,532.652 719.235,546.646 z" id="boundary" inkscape:connector-curvature="0" />
	<path style="fill:none;stroke:red;stroke-width:1px;stroke-linecap:butt;stroke-linejoin:miter;stroke-opacity:1" d="M 734.784,439.361 727.009,462.683 z" id="boundary" inkscape:connector-curvature="0" />
	<path style="fill:none;stroke:red;stroke-width:1px;stroke-linecap:butt;stroke-linejoin:miter;stroke-opacity:1" d="M 719.235,486.006 719.235,509.329 z" id="boundary" inkscape:connector-curvature="0" />
	<path style="fill:none;stroke:red;stroke-width:1px;stroke-linecap:butt;stroke-linejoin:miter;stroke-opacity:1" d="M 719.235,486.006 727.009,462.683 z" id="boundary" inkscape:connector-curvature="0" />
	<path style="fill:none;stroke:red;stroke-width:1px;stroke-linecap:butt;stroke-linejoin:miter;stroke-opacity:1" d="M 703.687,555.975 719.235,546.646 z" id="boundary" inkscape:connector-curvature="0" />
	<path style="fill:none;stroke:red;stroke-width:1px;stroke-linecap:butt;stroke-linejoin:miter;stroke-opacity:1" d="M 719.235,576.188 703.687,571.524 z" id="boundary" inkscape:connector-curvature="0" />
	<path style="fill:none;stroke:red;stroke-width:1px;stroke-linecap:butt;stroke-linejoin:miter;stroke-opacity:1" d="M 703.687,571.524 703.687,555.975 z" id="boundary" inkscape:connector-curvature="0" />
	<path style="fill:none;stroke:red;stroke-width:1px;stroke-linecap:butt;stroke-linejoin:miter;stroke-opacity:1" d="M 719.235,576.188 734.784,571.524 z" id="boundary" inkscape:connector-curvature="0" />
	<path style="fill:none;stroke:red;stroke-width:1px;stroke-linecap:butt;stroke-linejoin:miter;stroke-opacity:1" d="M 792.313,545.091 778.32,552.865 z" id="boundary" inkscape:connector-curvature="0" />
	<path style="fill:none;stroke:red;stroke-width:1px;stroke-linecap:butt;stroke-linejoin:miter;stroke-opacity:1" d="M 750.332,568.414 764.326,560.639 z" id="boundary" inkscape:connector-curvature="0" />
	<path style="fill:none;stroke:red;stroke-width:1px;stroke-linecap:butt;stroke-linejoin:miter;stroke-opacity:1" d="M 778.32,552.865 764.326,560.639 z" id="boundary" inkscape:connector-curvature="0" />
	<path style="fill:none;stroke:red;stroke-width:1px;stroke-linecap:butt;stroke-linejoin:miter;stroke-opacity:1" d="M 734.784,571.524 750.332,568.414 z" id="boundary" inkscape:connector-curvature="0" />
	<path style="fill:none;stroke:red;stroke-width:1px;stroke-linecap:butt;stroke-linejoin:miter;stroke-opacity:1" d="M 977.342,271.436 969.567,288.539 z" id="boundary" inkscape:connector-curvature="0" />
	<path style="fill:none;stroke:red;stroke-width:1px;stroke-linecap:butt;stroke-linejoin:miter;stroke-opacity:1" d="M 969.567,288.539 969.567,304.088 z" id="boundary" inkscape:connector-curvature="0" />
	<path style="fill:none;stroke:red;stroke-width:1px;stroke-linecap:butt;stroke-linejoin:miter;stroke-opacity:1" d="M 969.567,257.442 977.342,271.436 z" id="boundary" inkscape:connector-curvature="0" />
	<path style="fill:none;stroke:red;stroke-width:1px;stroke-linecap:butt;stroke-linejoin:miter;stroke-opacity:1" d="M 969.567,304.088 969.567,319.636 z" id="boundary" inkscape:connector-curvature="0" />
	<path style="fill:none;stroke:red;stroke-width:1px;stroke-linecap:butt;stroke-linejoin:miter;stroke-opacity:1" d="M 943.135,386.495 946.245,366.282 z" id="boundary" inkscape:connector-curvature="0" />
	<path style="fill:none;stroke:red;stroke-width:1px;stroke-linecap:butt;stroke-linejoin:miter;stroke-opacity:1" d="M 958.683,355.398 946.245,366.282 z" id="boundary" inkscape:connector-curvature="0" />
	<path style="fill:none;stroke:red;stroke-width:1px;stroke-linecap:butt;stroke-linejoin:miter;stroke-opacity:1" d="M 935.361,402.044 943.135,386.495 z" id="boundary" inkscape:connector-curvature="0" />
	<path style="fill:none;stroke:red;stroke-width:1px;stroke-linecap:butt;stroke-linejoin:miter;stroke-opacity:1" d="M 966.458,339.85 969.567,319.636 z" id="boundary" inkscape:connector-curvature="0" />
	<path style="fill:none;stroke:red;stroke-width:1px;stroke-linecap:butt;stroke-linejoin:miter;stroke-opacity:1" d="M 958.683,355.398 966.458,339.85 z" id="boundary" inkscape:connector-curvature="0" />
	<path style="fill:none;stroke:red;stroke-width:1px;stroke-linecap:butt;stroke-linejoin:miter;stroke-opacity:1" d="M 935.361,402.044 922.922,412.928 z" id="boundary" inkscape:connector-curvature="0" />
	<path style="fill:none;stroke:red;stroke-width:1px;stroke-linecap:butt;stroke-linejoin:miter;stroke-opacity:1" d="M 868.502,490.671 862.282,506.219 z" id="boundary" inkscape:connector-curvature="0" />
	<path style="fill:none;stroke:red;stroke-width:1px;stroke-linecap:butt;stroke-linejoin:miter;stroke-opacity:1" d="M 884.05,475.122 868.502,490.671 z" id="boundary" inkscape:connector-curvature="0" />
	<path style="fill:none;stroke:red;stroke-width:1px;stroke-linecap:butt;stroke-linejoin:miter;stroke-opacity:1" d="M 820.301,529.542 806.307,537.317 z" id="boundary" inkscape:connector-curvature="0" />
	<path style="fill:none;stroke:red;stroke-width:1px;stroke-linecap:butt;stroke-linejoin:miter;stroke-opacity:1" d="M 835.85,524.878 820.301,529.542 z" id="boundary" inkscape:connector-curvature="0" />
	<path style="fill:none;stroke:red;stroke-width:1px;stroke-linecap:butt;stroke-linejoin:miter;stroke-opacity:1" d="M 792.313,545.091 806.307,537.317 z" id="boundary" inkscape:connector-curvature="0" />
	<path style="fill:none;stroke:red;stroke-width:1px;stroke-linecap:butt;stroke-linejoin:miter;stroke-opacity:1" d="M 835.85,524.878 848.288,513.994 z" id="boundary" inkscape:connector-curvature="0" />
	<path style="fill:none;stroke:red;stroke-width:1px;stroke-linecap:butt;stroke-linejoin:miter;stroke-opacity:1" d="M 848.288,513.994 862.282,506.219 z" id="boundary" inkscape:connector-curvature="0" />
	<path style="fill:none;stroke:red;stroke-width:1px;stroke-linecap:butt;stroke-linejoin:miter;stroke-opacity:1" d="M 896.489,464.238 884.05,475.122 z" id="boundary" inkscape:connector-curvature="0" />
	<path style="fill:none;stroke:red;stroke-width:1px;stroke-linecap:butt;stroke-linejoin:miter;stroke-opacity:1" d="M 896.489,464.238 904.263,448.69 z" id="boundary" inkscape:connector-curvature="0" />
	<path style="fill:none;stroke:red;stroke-width:1px;stroke-linecap:butt;stroke-linejoin:miter;stroke-opacity:1" d="M 912.038,433.141 922.922,412.928 z" id="boundary" inkscape:connector-curvature="0" />
	<path style="fill:none;stroke:red;stroke-width:1px;stroke-linecap:butt;stroke-linejoin:miter;stroke-opacity:1" d="M 912.038,433.141 904.263,448.69 z" id="boundary" inkscape:connector-curvature="0" />
	<circle cx="4" cy="182.809" r="4" fill="#0" id="circle0"/>
	<circle cx="4" cy="198.357" r="4" fill="#0" id="circle1"/>
	<circle cx="4" cy="213.906" r="4" fill="#0" id="circle2"/>
	<circle cx="4" cy="229.455" r="4" fill="#0" id="circle3"/>
	<circle cx="4" cy="245.003" r="4" fill="#0" id="circle4"/>
	<circle cx="4" cy="260.552" r="4" fill="#0" id="circle5"/>
	<circle cx="4" cy="276.1" r="4" fill="#0" id="circle6"/>
	<circle cx="4" cy="291.649" r="4" fill="#0" id="circle7"/>
	<circle cx="4" cy="307.197" r="4" fill="#0" id="circle8"/>
	<circle cx="13.3292" cy="319.636" r="4" fill="#0" id="circle9"/>
	<circle cx="19.5486" cy="178.144" r="4" fill="#0" id="circle10"/>
	<circle cx="28.8777" cy="319.636" r="4" fill="#0" id="circle11"/>
	<circle cx="35.0972" cy="178.144" r="4" fill="#0" id="circle12"/>
	<circle cx="44.4263" cy="319.636" r="4" fill="#0" id="circle13"/>
	<circle cx="50.6458" cy="178.144" r="4" fill="#0" id="circle14"/>
	<circle cx="58.4201" cy="311.862" r="4" fill="#0" id="circle15"/>
	<circle cx="66.1944" cy="181.254" r="4" fill="#0" id="circle16"/>
	<circle cx="72.4138" cy="319.636" r="4" fill="#0" id="circle17"/>
	<circle cx="81.7429" cy="178.144" r="4" fill="#0" id="circle18"/>
	<circle cx="87.9624" cy="319.636" r="4" fill="#0" id="circle19"/>
	<circle cx="97.2915" cy="178.144" r="4" fill="#0" id="circle20"/>
	<circle cx="103.511" cy="319.636" r="4" fill="#0" id="circle21"/>
	<circle cx="112.84" cy="181.254" r="4" fill="#0" id="circle22"/>
	<circle cx="117.505" cy="311.862" r="4" fill="#0" id="circle23"/>
	<circle cx="128.389" cy="178.144" r="4" fill="#0" id="circle24"/>
	<circle cx="131.498" cy="319.636" r="4" fill="#0" id="circle25"/>
	<circle cx="143.937" cy="178.144" r="4" fill="#0" id="circle26"/>
	<circle cx="145.492" cy="311.862" r="4" fill="#0" id="circle27"/>
	<circle cx="159.486" cy="181.254" r="4" fill="#0" id="circle28"/>
	<circle cx="159.486" cy="319.636" r="4" fill="#0" id="circle29"/>
	<circle cx="175.034" cy="178.144" r="4" fill="#0" id="circle30"/>
	<circle cx="175.034" cy="319.636" r="4" fill="#0" id="circle31"/>
	<circle cx="190.583" cy="178.144" r="4" fill="#0" id="circle32"/>
	<circle cx="190.583" cy="314.972" r="4" fill="#0" id="circle33"/>
	<circle cx="206.132" cy="178.144" r="4" fill="#0" id="circle34"/>
	<circle cx="206.132" cy="319.636" r="4" fill="#0" id="circle35"/>
	<circle cx="221.68" cy="178.144" r="4" fill="#0" id="circle36"/>
	<circle cx="221.68" cy="319.636" r="4" fill="#0" id="circle37"/>
	<circle cx="235.674" cy="185.918" r="4" fill="#0" id="circle38"/>
	<circle cx="237.229" cy="319.636" r="4" fill="#0" id="circle39"/>
	<circle cx="249.668" cy="178.144" r="4" fill="#0" id="circle40"/>
	<circle cx="252.777" cy="314.972" r="4" fill="#0" id="circle41"/>
	<circle cx="263.661" cy="185.918" r="4" fill="#0" id="circle42"/>
	<circle cx="268.326" cy="319.636" r="4" fill="#0" id="circle43"/>
	<circle cx="279.21" cy="185.918" r="4" fill="#0" id="circle44"/>
	<circle cx="283.875" cy="319.636" r="4" fill="#0" id="circle45"/>
	<circle cx="293.204" cy="178.144" r="4" fill="#0" id="circle46"/>
	<circle cx="299.423" cy="314.972" r="4" fill="#0" id="circle47"/>
	<circle cx="307.197" cy="185.918" r="4" fill="#0" id="circle48"/>
	<circle cx="314.972" cy="319.636" r="4" fill="#0" id="circle49"/>
	<circle cx="321.191" cy="178.144" r="4" fill="#0" id="circle50"/>
	<circle cx="330.52" cy="319.636" r="4" fill="#0" id="circle51"/>
	<circle cx="336.74" cy="178.144" r="4" fill="#0" id="circle52"/>
	<circle cx="346.069" cy="319.636" r="4" fill="#0" id="circle53"/>
	<circle cx="352.288" cy="178.144" r="4" fill="#0" id="circle54"/>
	<circle cx="361.618" cy="319.636" r="4" fill="#0" id="circle55"/>
	<circle cx="366.282" cy="185.918" r="4" fill="#0" id="circle56"/>
	<circle cx="375.611" cy="311.862" r="4" fill="#0" id="circle57"/>
	<circle cx="380.276" cy="178.144" r="4" fill="#0" id="circle58"/>
	<circle cx="389.605" cy="319.636" r="4" fill="#0" id="circle59"/>
	<circle cx="395.824" cy="178.144" r="4" fill="#0" id="circle60"/>
	<circle cx="403.599" cy="311.862" r="4" fill="#0" id="circle61"/>
	<circle cx="411.373" cy="178.144" r="4" fill="#0" id="circle62"/>
	<circle cx="419.147" cy="311.862" r="4" fill="#0" id="circle63"/>
	<circle cx="426.922" cy="178.144" r="4" fill="#0" id="circle64"/>
	<circle cx="433.141" cy="319.636" r="4" fill="#0" id="circle65"/>
	<circle cx="442.47" cy="178.144" r="4" fill="#0" id="circle66"/>
	<circle cx="448.69" cy="319.636" r="4" fill="#0" id="circle67"/>
	<circle cx="456.464" cy="185.918" r="4" fill="#0" id="circle68"/>
	<circle cx="464.238" cy="319.636" r="4" fill="#0" id="circle69"/>
	<circle cx="470.458" cy="178.144" r="4" fill="#0" id="circle70"/>
	<circle cx="478.232" cy="311.862" r="4" fill="#0" id="circle71"/>
	<circle cx="486.006" cy="178.144" r="4" fill="#0" id="circle72"/>
	<circle cx="492.226" cy="319.636" r="4" fill="#0" id="circle73"/>
	<circle cx="500" cy="185.918" r="4" fill="#0" id="circle74"/>
	<circle cx="507.774" cy="319.636" r="4" fill="#0" id="circle75"/>
	<circle cx="513.994" cy="178.144" r="4" fill="#0" id="circle76"/>
	<circle cx="521.768" cy="311.862" r="4" fill="#0" id="circle77"/>
	<circle cx="529.542" cy="178.144" r="4" fill="#0" id="circle78"/>
	<circle cx="535.762" cy="319.636" r="4" fill="#0" id="circle79"/>
	<circle cx="545.091" cy="178.144" r="4" fill="#0" id="circle80"/>
	<circle cx="551.31" cy="319.636" r="4" fill="#0" id="circle81"/>
	<circle cx="560.639" cy="178.144" r="4" fill="#0" id="circle82"/>
	<circle cx="566.859" cy="319.636" r="4" fill="#0" id="circle83"/>
	<circle cx="576.188" cy="178.144" r="4" fill="#0" id="circle84"/>
	<circle cx="582.408" cy="319.636" r="4" fill="#0" id="circle85"/>
	<circle cx="591.737" cy="178.144" r="4" fill="#0" id="circle86"/>
	<circle cx="597.956" cy="316.527" r="4" fill="#0" id="circle87"/>
	<circle cx="607.285" cy="178.144" r="4" fill="#0" id="circle88"/>
	<circle cx="613.505" cy="319.636" r="4" fill="#0" id="circle89"/>
	<circle cx="622.834" cy="178.144" r="4" fill="#0" id="circle90"/>
	<circle cx="629.053" cy="319.636" r="4" fill="#0" id="circle91"/>
	<circle cx="638.382" cy="178.144" r="4" fill="#0" id="circle92"/>
	<circle cx="644.602" cy="316.527" r="4" fill="#0" id="circle93"/>
	<circle cx="653.931" cy="178.144" r="4" fill="#0" id="circle94"/>
	<circle cx="660.15" cy="319.636" r="4" fill="#0" id="circle95"/>
	<circle cx="669.48" cy="178.144" r="4" fill="#0" id="circle96"/>
	<circle cx="675.699" cy="319.636" r="4" fill="#0" id="circle97"/>
	<circle cx="685.028" cy="178.144" r="4" fill="#0" id="circle98"/>
	<circle cx="691.248" cy="319.636" r="4" fill="#0" id="circle99"/>
	<circle cx="700.577" cy="178.144" r="4" fill="#0" id="circle100"/>
	<circle cx="703.687" cy="555.975" r="4" fill="#0" id="circle101"/>
	<circle cx="703.687" cy="571.524" r="4" fill="#0" id="circle102"/>
	<circle cx="705.241" cy="311.862" r="4" fill="#0" id="circle103"/>
	<circle cx="711.461" cy="532.652" r="4" fill="#0" id="circle104"/>
	<circle cx="716.125" cy="178.144" r="4" fill="#0" id="circle105"/>
	<circle cx="719.235" cy="4" r="4" fill="#0" id="circle106"/>
	<circle cx="719.235" cy="19.5486" r="4" fill="#0" id="circle107"/>
	<circle cx="719.235" cy="35.0972" r="4" fill="#0" id="circle108"/>
	<circle cx="719.235" cy="50.6458" r="4" fill="#0" id="circle109"/>
	<circle cx="719.235" cy="66.1944" r="4" fill="#0" id="circle110"/>
	<circle cx="719.235" cy="81.7429" r="4" fill="#0" id="circle111"/>
	<circle cx="719.235" cy="97.2915" r="4" fill="#0" id="circle112"/>
	<circle cx="719.235" cy="112.84" r="4" fill="#0" id="circle113"/>
	<circle cx="719.235" cy="128.389" r="4" fill="#0" id="circle114"/>
	<circle cx="719.235" cy="143.937" r="4" fill="#0" id="circle115"/>
	<circle cx="719.235" cy="319.636" r="4" fill="#0" id="circle116"/>
	<circle cx="719.235" cy="486.006" r="4" fill="#0" id="circle117"/>
	<circle cx="719.235" cy="509.329" r="4" fill="#0" id="circle118"/>
	<circle cx="719.235" cy="546.646" r="4" fill="#0" id="circle119"/>
	<circle cx="719.235" cy="576.188" r="4" fill="#0" id="circle120"/>
	<circle cx="727.009" cy="462.683" r="4" fill="#0" id="circle121"/>
	<circle cx="728.564" cy="156.376" r="4" fill="#0" id="circle122"/>
	<circle cx="731.674" cy="178.144" r="4" fill="#0" id="circle123"/>
	<circle cx="734.784" cy="4" r="4" fill="#0" id="circle124"/>
	<circle cx="734.784" cy="319.636" r="4" fill="#0" id="circle125"/>
	<circle cx="734.784" cy="423.812" r="4" fill="#0" id="circle126"/>
	<circle cx="734.784" cy="439.361" r="4" fill="#0" id="circle127"/>
	<circle cx="734.784" cy="571.524" r="4" fill="#0" id="circle128"/>
	<circle cx="742.558" cy="164.15" r="4" fill="#0" id="circle129"/>
	<circle cx="742.558" cy="377.166" r="4" fill="#0" id="circle130"/>
	<circle cx="742.558" cy="392.715" r="4" fill="#0" id="circle131"/>
	<circle cx="742.558" cy="408.263" r="4" fill="#0" id="circle132"/>
	<circle cx="750.332" cy="4" r="4" fill="#0" id="circle133"/>
	<circle cx="750.332" cy="319.636" r="4" fill="#0" id="circle134"/>
	<circle cx="750.332" cy="335.185" r="4" fill="#0" id="circle135"/>
	<circle cx="750.332" cy="350.734" r="4" fill="#0" id="circle136"/>
	<circle cx="750.332" cy="568.414" r="4" fill="#0" id="circle137"/>
	<circle cx="764.326" cy="560.639" r="4" fill="#0" id="circle138"/>
	<circle cx="765.881" cy="4" r="4" fill="#0" id="circle139"/>
	<circle cx="778.32" cy="552.865" r="4" fill="#0" id="circle140"/>
	<circle cx="781.429" cy="4" r="4" fill="#0" id="circle141"/>
	<circle cx="792.313" cy="545.091" r="4" fill="#0" id="circle142"/>
	<circle cx="796.978" cy="4" r="4" fill="#0" id="circle143"/>
	<circle cx="806.307" cy="537.317" r="4" fill="#0" id="circle144"/>
	<circle cx="812.527" cy="4" r="4" fill="#0" id="circle145"/>
	<circle cx="820.301" cy="529.542" r="4" fill="#0" id="circle146"/>
	<circle cx="828.075" cy="4" r="4" fill="#0" id="circle147"/>
	<circle cx="835.85" cy="524.878" r="4" fill="#0" id="circle148"/>
	<circle cx="843.624" cy="4" r="4" fill="#0" id="circle149"/>
	<circle cx="848.288" cy="513.994" r="4" fill="#0" id="circle150"/>
	<circle cx="859.172" cy="4" r="4" fill="#0" id="circle151"/>
	<circle cx="862.282" cy="506.219" r="4" fill="#0" id="circle152"/>
	<circle cx="868.502" cy="490.671" r="4" fill="#0" id="circle153"/>
	<circle cx="874.721" cy="4" r="4" fill="#0" id="circle154"/>
	<circle cx="884.05" cy="475.122" r="4" fill="#0" id="circle155"/>
	<circle cx="890.27" cy="4" r="4" fill="#0" id="circle156"/>
	<circle cx="896.489" cy="464.238" r="4" fill="#0" id="circle157"/>
	<circle cx="904.263" cy="448.69" r="4" fill="#0" id="circle158"/>
	<circle cx="905.818" cy="4" r="4" fill="#0" id="circle159"/>
	<circle cx="912.038" cy="433.141" r="4" fill="#0" id="circle160"/>
	<circle cx="921.367" cy="4" r="4" fill="#0" id="circle161"/>
	<circle cx="922.922" cy="412.928" r="4" fill="#0" id="circle162"/>
	<circle cx="935.361" cy="402.044" r="4" fill="#0" id="circle163"/>
	<circle cx="936.915" cy="4" r="4" fill="#0" id="circle164"/>
	<circle cx="943.135" cy="386.495" r="4" fill="#0" id="circle165"/>
	<circle cx="946.245" cy="366.282" r="4" fill="#0" id="circle166"/>
	<circle cx="952.464" cy="4" r="4" fill="#0" id="circle167"/>
	<circle cx="958.683" cy="355.398" r="4" fill="#0" id="circle168"/>
	<circle cx="966.458" cy="339.85" r="4" fill="#0" id="circle169"/>
	<circle cx="968.013" cy="4" r="4" fill="#0" id="circle170"/>
	<circle cx="969.567" cy="164.15" r="4" fill="#0" id="circle171"/>
	<circle cx="969.567" cy="195.248" r="4" fill="#0" id="circle172"/>
	<circle cx="969.567" cy="226.345" r="4" fill="#0" id="circle173"/>
	<circle cx="969.567" cy="257.442" r="4" fill="#0" id="circle174"/>
	<circle cx="969.567" cy="288.539" r="4" fill="#0" id="circle175"/>
	<circle cx="969.567" cy="304.088" r="4" fill="#0" id="circle176"/>
	<circle cx="969.567" cy="319.636" r="4" fill="#0" id="circle177"/>
	<circle cx="977.342" cy="178.144" r="4" fill="#0" id="circle178"/>
	<circle cx="977.342" cy="209.241" r="4" fill="#0" id="circle179"/>
	<circle cx="977.342" cy="240.339" r="4" fill="#0" id="circle180"/>
	<circle cx="977.342" cy="271.436" r="4" fill="#0" id="circle181"/>
	<circle cx="983.561" cy="4" r="4" fill="#0" id="circle182"/>
	<circle cx="983.561" cy="156.376" r="4" fill="#0" id="circle183"/>
	<circle cx="992.89" cy="24.2132" r="4" fill="#0" id="circle184"/>
	<circle cx="992.89" cy="39.7618" r="4" fill="#0" id="circle185"/>
	<circle cx="992.89" cy="63.0846" r="4" fill="#0" id="circle186"/>
	<circle cx="992.89" cy="86.4075" r="4" fill="#0" id="circle187"/>
	<circle cx="992.89" cy="101.956" r="4" fill="#0" id="circle188"/>
	<circle cx="992.89" cy="125.279" r="4" fill="#0" id="circle189"/>
	<circle cx="996" cy="140.828" r="4" fill="#0" id="circle190"/>
	</g>
</svg>