<?xml version="1.0" encoding="UTF-8" standalone="no"?>
<!-- Created with CurveBenchmark -->
<svg
	xmlns:dc="http://purl.org/dc/elements/1.1/"
	xmlns:cc="http://creativecommons.org/ns#"
	xmlns:rdf="http://www.w3.org/1999/02/22-rdf-syntax-ns#"
	xmlns:svg="http://www.w3.org/2000/svg"
	xmlns="http://www.w3.org/2000/svg"
	xmlns:sodipodi="http://sodipodi.sourceforge.net/DTD/sodipodi-0.dtd"
	xmlns:inkscape="http://www.inkscape.org/namespaces/inkscape"
	width="1000"
	height="1000"
	id="svg2"
	version="1.1"
	sodipodi:docname="manifold/crust-pencil-19.png.txt">
<defs
	id="defs4" />
<metadata
	id="metadata7">
	<rdf:RDF>
		<cc:Work
			rdf:about="">
			<dc:format>image/svg+xml</dc:format>
			<dc:type
				rdf:resource="http://purl.org/dc/dcmitype/StillImage" />
			<dc:title></dc:title>
		</cc:Work>
	</rdf:RDF>
</metadata>
<g
	inkscape:label="Layer 1"
	inkscape:groupmode="layer"
	id="layer1">
	<path style="fill:none;stroke:red;stroke-width:1px;stroke-linecap:butt;stroke-linejoin:miter;stroke-opacity:1" d="M 17.1198,18.5775 13.4754,25.8663 z" id="boundary" inkscape:connector-curvature="0" />
	<path style="fill:none;stroke:red;stroke-width:1px;stroke-linecap:butt;stroke-linejoin:miter;stroke-opacity:1" d="M 22.9508,12.7465 17.1198,18.5775 z" id="boundary" inkscape:connector-curvature="0" />
	<path style="fill:none;stroke:red;stroke-width:1px;stroke-linecap:butt;stroke-linejoin:miter;stroke-opacity:1" d="M 13.4754,25.8663 7.64438,31.6973 z" id="boundary" inkscape:connector-curvature="0" />
	<path style="fill:none;stroke:red;stroke-width:1px;stroke-linecap:butt;stroke-linejoin:miter;stroke-opacity:1" d="M 4,38.986 7.64438,31.6973 z" id="boundary" inkscape:connector-curvature="0" />
	<path style="fill:none;stroke:red;stroke-width:1px;stroke-linecap:butt;stroke-linejoin:miter;stroke-opacity:1" d="M 4,46.2748 4,38.986 z" id="boundary" inkscape:connector-curvature="0" />
	<path style="fill:none;stroke:red;stroke-width:1px;stroke-linecap:butt;stroke-linejoin:miter;stroke-opacity:1" d="M 30.2395,9.10213 37.5283,5.45775 z" id="boundary" inkscape:connector-curvature="0" />
	<path style="fill:none;stroke:red;stroke-width:1px;stroke-linecap:butt;stroke-linejoin:miter;stroke-opacity:1" d="M 44.817,4 37.5283,5.45775 z" id="boundary" inkscape:connector-curvature="0" />
	<path style="fill:none;stroke:red;stroke-width:1px;stroke-linecap:butt;stroke-linejoin:miter;stroke-opacity:1" d="M 22.9508,12.7465 30.2395,9.10213 z" id="boundary" inkscape:connector-curvature="0" />
	<path style="fill:none;stroke:red;stroke-width:1px;stroke-linecap:butt;stroke-linejoin:miter;stroke-opacity:1" d="M 4,46.2748 7.64438,52.8347 z" id="boundary" inkscape:connector-curvature="0" />
	<path style="fill:none;stroke:red;stroke-width:1px;stroke-linecap:butt;stroke-linejoin:miter;stroke-opacity:1" d="M 7.64438,52.8347 7.64438,60.1234 z" id="boundary" inkscape:connector-curvature="0" />
	<path style="fill:none;stroke:red;stroke-width:1px;stroke-linecap:butt;stroke-linejoin:miter;stroke-opacity:1" d="M 11.2888,66.6833 7.64438,60.1234 z" id="boundary" inkscape:connector-curvature="0" />
	<path style="fill:none;stroke:red;stroke-width:1px;stroke-linecap:butt;stroke-linejoin:miter;stroke-opacity:1" d="M 11.2888,66.6833 13.4754,73.9721 z" id="boundary" inkscape:connector-curvature="0" />
	<path style="fill:none;stroke:red;stroke-width:1px;stroke-linecap:butt;stroke-linejoin:miter;stroke-opacity:1" d="M 17.1198,80.532 13.4754,73.9721 z" id="boundary" inkscape:connector-curvature="0" />
	<path style="fill:none;stroke:red;stroke-width:1px;stroke-linecap:butt;stroke-linejoin:miter;stroke-opacity:1" d="M 17.1198,80.532 18.5775,87.8207 z" id="boundary" inkscape:connector-curvature="0" />
	<path style="fill:none;stroke:red;stroke-width:1px;stroke-linecap:butt;stroke-linejoin:miter;stroke-opacity:1" d="M 25.8663,100.94 22.2219,94.3806 z" id="boundary" inkscape:connector-curvature="0" />
	<path style="fill:none;stroke:red;stroke-width:1px;stroke-linecap:butt;stroke-linejoin:miter;stroke-opacity:1" d="M 22.2219,94.3806 18.5775,87.8207 z" id="boundary" inkscape:connector-curvature="0" />
	<path style="fill:none;stroke:red;stroke-width:1px;stroke-linecap:butt;stroke-linejoin:miter;stroke-opacity:1" d="M 52.1058,4 59.3946,4 z" id="boundary" inkscape:connector-curvature="0" />
	<path style="fill:none;stroke:red;stroke-width:1px;stroke-linecap:butt;stroke-linejoin:miter;stroke-opacity:1" d="M 59.3946,4 66.6833,4 z" id="boundary" inkscape:connector-curvature="0" />
	<path style="fill:none;stroke:red;stroke-width:1px;stroke-linecap:butt;stroke-linejoin:miter;stroke-opacity:1" d="M 44.817,4 52.1058,4 z" id="boundary" inkscape:connector-curvature="0" />
	<path style="fill:none;stroke:red;stroke-width:1px;stroke-linecap:butt;stroke-linejoin:miter;stroke-opacity:1" d="M 81.2608,7.64438 73.9721,6.18663 z" id="boundary" inkscape:connector-curvature="0" />
	<path style="fill:none;stroke:red;stroke-width:1px;stroke-linecap:butt;stroke-linejoin:miter;stroke-opacity:1" d="M 73.9721,6.18663 66.6833,4 z" id="boundary" inkscape:connector-curvature="0" />
	<path style="fill:none;stroke:red;stroke-width:1px;stroke-linecap:butt;stroke-linejoin:miter;stroke-opacity:1" d="M 81.2608,7.64438 87.8207,11.2888 z" id="boundary" inkscape:connector-curvature="0" />
	<path style="fill:none;stroke:red;stroke-width:1px;stroke-linecap:butt;stroke-linejoin:miter;stroke-opacity:1" d="M 25.8663,100.94 25.8663,108.229 z" id="boundary" inkscape:connector-curvature="0" />
	<path style="fill:none;stroke:red;stroke-width:1px;stroke-linecap:butt;stroke-linejoin:miter;stroke-opacity:1" d="M 25.8663,115.518 25.8663,108.229 z" id="boundary" inkscape:connector-curvature="0" />
	<path style="fill:none;stroke:red;stroke-width:1px;stroke-linecap:butt;stroke-linejoin:miter;stroke-opacity:1" d="M 25.8663,122.807 25.8663,115.518 z" id="boundary" inkscape:connector-curvature="0" />
	<path style="fill:none;stroke:red;stroke-width:1px;stroke-linecap:butt;stroke-linejoin:miter;stroke-opacity:1" d="M 29.5107,129.367 25.8663,122.807 z" id="boundary" inkscape:connector-curvature="0" />
	<path style="fill:none;stroke:red;stroke-width:1px;stroke-linecap:butt;stroke-linejoin:miter;stroke-opacity:1" d="M 29.5107,129.367 33.155,135.927 z" id="boundary" inkscape:connector-curvature="0" />
	<path style="fill:none;stroke:red;stroke-width:1px;stroke-linecap:butt;stroke-linejoin:miter;stroke-opacity:1" d="M 36.7994,142.486 33.155,135.927 z" id="boundary" inkscape:connector-curvature="0" />
	<path style="fill:none;stroke:red;stroke-width:1px;stroke-linecap:butt;stroke-linejoin:miter;stroke-opacity:1" d="M 40.4438,149.046 36.7994,142.486 z" id="boundary" inkscape:connector-curvature="0" />
	<path style="fill:none;stroke:red;stroke-width:1px;stroke-linecap:butt;stroke-linejoin:miter;stroke-opacity:1" d="M 40.4438,149.046 44.0882,155.606 z" id="boundary" inkscape:connector-curvature="0" />
	<path style="fill:none;stroke:red;stroke-width:1px;stroke-linecap:butt;stroke-linejoin:miter;stroke-opacity:1" d="M 44.0882,155.606 44.0882,162.895 z" id="boundary" inkscape:connector-curvature="0" />
	<path style="fill:none;stroke:red;stroke-width:1px;stroke-linecap:butt;stroke-linejoin:miter;stroke-opacity:1" d="M 44.0882,162.895 49.9192,167.997 z" id="boundary" inkscape:connector-curvature="0" />
	<path style="fill:none;stroke:red;stroke-width:1px;stroke-linecap:butt;stroke-linejoin:miter;stroke-opacity:1" d="M 52.8347,175.286 56.4791,181.846 z" id="boundary" inkscape:connector-curvature="0" />
	<path style="fill:none;stroke:red;stroke-width:1px;stroke-linecap:butt;stroke-linejoin:miter;stroke-opacity:1" d="M 52.8347,175.286 49.9192,167.997 z" id="boundary" inkscape:connector-curvature="0" />
	<path style="fill:none;stroke:red;stroke-width:1px;stroke-linecap:butt;stroke-linejoin:miter;stroke-opacity:1" d="M 62.3101,186.948 56.4791,181.846 z" id="boundary" inkscape:connector-curvature="0" />
	<path style="fill:none;stroke:red;stroke-width:1px;stroke-linecap:butt;stroke-linejoin:miter;stroke-opacity:1" d="M 62.3101,186.948 64.4967,194.237 z" id="boundary" inkscape:connector-curvature="0" />
	<path style="fill:none;stroke:red;stroke-width:1px;stroke-linecap:butt;stroke-linejoin:miter;stroke-opacity:1" d="M 65.9544,201.525 64.4967,194.237 z" id="boundary" inkscape:connector-curvature="0" />
	<path style="fill:none;stroke:red;stroke-width:1px;stroke-linecap:butt;stroke-linejoin:miter;stroke-opacity:1" d="M 69.5988,208.085 73.2432,214.645 z" id="boundary" inkscape:connector-curvature="0" />
	<path style="fill:none;stroke:red;stroke-width:1px;stroke-linecap:butt;stroke-linejoin:miter;stroke-opacity:1" d="M 69.5988,208.085 65.9544,201.525 z" id="boundary" inkscape:connector-curvature="0" />
	<path style="fill:none;stroke:red;stroke-width:1px;stroke-linecap:butt;stroke-linejoin:miter;stroke-opacity:1" d="M 76.8876,221.205 73.2432,214.645 z" id="boundary" inkscape:connector-curvature="0" />
	<path style="fill:none;stroke:red;stroke-width:1px;stroke-linecap:butt;stroke-linejoin:miter;stroke-opacity:1" d="M 80.532,227.765 76.8876,221.205 z" id="boundary" inkscape:connector-curvature="0" />
	<path style="fill:none;stroke:red;stroke-width:1px;stroke-linecap:butt;stroke-linejoin:miter;stroke-opacity:1" d="M 84.1763,234.325 87.8207,240.885 z" id="boundary" inkscape:connector-curvature="0" />
	<path style="fill:none;stroke:red;stroke-width:1px;stroke-linecap:butt;stroke-linejoin:miter;stroke-opacity:1" d="M 84.1763,234.325 80.532,227.765 z" id="boundary" inkscape:connector-curvature="0" />
	<path style="fill:none;stroke:red;stroke-width:1px;stroke-linecap:butt;stroke-linejoin:miter;stroke-opacity:1" d="M 87.8207,240.885 89.2785,248.173 z" id="boundary" inkscape:connector-curvature="0" />
	<path style="fill:none;stroke:red;stroke-width:1px;stroke-linecap:butt;stroke-linejoin:miter;stroke-opacity:1" d="M 89.2785,248.173 92.9229,254.733 z" id="boundary" inkscape:connector-curvature="0" />
	<path style="fill:none;stroke:red;stroke-width:1px;stroke-linecap:butt;stroke-linejoin:miter;stroke-opacity:1" d="M 87.8207,11.2888 93.6517,15.662 z" id="boundary" inkscape:connector-curvature="0" />
	<path style="fill:none;stroke:red;stroke-width:1px;stroke-linecap:butt;stroke-linejoin:miter;stroke-opacity:1" d="M 99.4827,20.7641 93.6517,15.662 z" id="boundary" inkscape:connector-curvature="0" />
	<path style="fill:none;stroke:red;stroke-width:1px;stroke-linecap:butt;stroke-linejoin:miter;stroke-opacity:1" d="M 99.4827,20.7641 103.127,27.324 z" id="boundary" inkscape:connector-curvature="0" />
	<path style="fill:none;stroke:red;stroke-width:1px;stroke-linecap:butt;stroke-linejoin:miter;stroke-opacity:1" d="M 103.127,27.324 106.771,33.8839 z" id="boundary" inkscape:connector-curvature="0" />
	<path style="fill:none;stroke:red;stroke-width:1px;stroke-linecap:butt;stroke-linejoin:miter;stroke-opacity:1" d="M 106.771,33.8839 110.416,40.4438 z" id="boundary" inkscape:connector-curvature="0" />
	<path style="fill:none;stroke:red;stroke-width:1px;stroke-linecap:butt;stroke-linejoin:miter;stroke-opacity:1" d="M 110.416,47.7325 110.416,40.4438 z" id="boundary" inkscape:connector-curvature="0" />
	<path style="fill:none;stroke:red;stroke-width:1px;stroke-linecap:butt;stroke-linejoin:miter;stroke-opacity:1" d="M 114.06,54.2924 110.416,47.7325 z" id="boundary" inkscape:connector-curvature="0" />
	<path style="fill:none;stroke:red;stroke-width:1px;stroke-linecap:butt;stroke-linejoin:miter;stroke-opacity:1" d="M 117.705,60.8523 120.62,68.1411 z" id="boundary" inkscape:connector-curvature="0" />
	<path style="fill:none;stroke:red;stroke-width:1px;stroke-linecap:butt;stroke-linejoin:miter;stroke-opacity:1" d="M 117.705,60.8523 114.06,54.2924 z" id="boundary" inkscape:connector-curvature="0" />
	<path style="fill:none;stroke:red;stroke-width:1px;stroke-linecap:butt;stroke-linejoin:miter;stroke-opacity:1" d="M 120.62,68.1411 126.451,73.2432 z" id="boundary" inkscape:connector-curvature="0" />
	<path style="fill:none;stroke:red;stroke-width:1px;stroke-linecap:butt;stroke-linejoin:miter;stroke-opacity:1" d="M 132.282,77.6165 126.451,73.2432 z" id="boundary" inkscape:connector-curvature="0" />
	<path style="fill:none;stroke:red;stroke-width:1px;stroke-linecap:butt;stroke-linejoin:miter;stroke-opacity:1" d="M 132.282,77.6165 135.927,84.1763 z" id="boundary" inkscape:connector-curvature="0" />
	<path style="fill:none;stroke:red;stroke-width:1px;stroke-linecap:butt;stroke-linejoin:miter;stroke-opacity:1" d="M 139.571,90.7362 135.927,84.1763 z" id="boundary" inkscape:connector-curvature="0" />
	<path style="fill:none;stroke:red;stroke-width:1px;stroke-linecap:butt;stroke-linejoin:miter;stroke-opacity:1" d="M 143.215,97.2961 139.571,90.7362 z" id="boundary" inkscape:connector-curvature="0" />
	<path style="fill:none;stroke:red;stroke-width:1px;stroke-linecap:butt;stroke-linejoin:miter;stroke-opacity:1" d="M 143.215,97.2961 146.86,103.856 z" id="boundary" inkscape:connector-curvature="0" />
	<path style="fill:none;stroke:red;stroke-width:1px;stroke-linecap:butt;stroke-linejoin:miter;stroke-opacity:1" d="M 146.86,103.856 150.504,110.416 z" id="boundary" inkscape:connector-curvature="0" />
	<path style="fill:none;stroke:red;stroke-width:1px;stroke-linecap:butt;stroke-linejoin:miter;stroke-opacity:1" d="M 150.504,110.416 154.148,116.976 z" id="boundary" inkscape:connector-curvature="0" />
	<path style="fill:none;stroke:red;stroke-width:1px;stroke-linecap:butt;stroke-linejoin:miter;stroke-opacity:1" d="M 154.148,116.976 154.148,124.265 z" id="boundary" inkscape:connector-curvature="0" />
	<path style="fill:none;stroke:red;stroke-width:1px;stroke-linecap:butt;stroke-linejoin:miter;stroke-opacity:1" d="M 157.793,130.824 154.148,124.265 z" id="boundary" inkscape:connector-curvature="0" />
	<path style="fill:none;stroke:red;stroke-width:1px;stroke-linecap:butt;stroke-linejoin:miter;stroke-opacity:1" d="M 157.793,130.824 161.437,137.384 z" id="boundary" inkscape:connector-curvature="0" />
	<path style="fill:none;stroke:red;stroke-width:1px;stroke-linecap:butt;stroke-linejoin:miter;stroke-opacity:1" d="M 164.353,144.673 161.437,137.384 z" id="boundary" inkscape:connector-curvature="0" />
	<path style="fill:none;stroke:red;stroke-width:1px;stroke-linecap:butt;stroke-linejoin:miter;stroke-opacity:1" d="M 165.082,151.962 168.726,158.522 z" id="boundary" inkscape:connector-curvature="0" />
	<path style="fill:none;stroke:red;stroke-width:1px;stroke-linecap:butt;stroke-linejoin:miter;stroke-opacity:1" d="M 164.353,144.673 165.082,151.962 z" id="boundary" inkscape:connector-curvature="0" />
	<path style="fill:none;stroke:red;stroke-width:1px;stroke-linecap:butt;stroke-linejoin:miter;stroke-opacity:1" d="M 168.726,158.522 172.37,165.082 z" id="boundary" inkscape:connector-curvature="0" />
	<path style="fill:none;stroke:red;stroke-width:1px;stroke-linecap:butt;stroke-linejoin:miter;stroke-opacity:1" d="M 172.37,165.082 176.015,171.641 z" id="boundary" inkscape:connector-curvature="0" />
	<path style="fill:none;stroke:red;stroke-width:1px;stroke-linecap:butt;stroke-linejoin:miter;stroke-opacity:1" d="M 176.015,171.641 176.015,178.93 z" id="boundary" inkscape:connector-curvature="0" />
	<path style="fill:none;stroke:red;stroke-width:1px;stroke-linecap:butt;stroke-linejoin:miter;stroke-opacity:1" d="M 95.1095,262.022 92.9229,254.733 z" id="boundary" inkscape:connector-curvature="0" />
	<path style="fill:none;stroke:red;stroke-width:1px;stroke-linecap:butt;stroke-linejoin:miter;stroke-opacity:1" d="M 98.7539,268.582 95.1095,262.022 z" id="boundary" inkscape:connector-curvature="0" />
	<path style="fill:none;stroke:red;stroke-width:1px;stroke-linecap:butt;stroke-linejoin:miter;stroke-opacity:1" d="M 108.229,288.99 106.043,281.702 z" id="boundary" inkscape:connector-curvature="0" />
	<path style="fill:none;stroke:red;stroke-width:1px;stroke-linecap:butt;stroke-linejoin:miter;stroke-opacity:1" d="M 106.043,281.702 102.398,275.142 z" id="boundary" inkscape:connector-curvature="0" />
	<path style="fill:none;stroke:red;stroke-width:1px;stroke-linecap:butt;stroke-linejoin:miter;stroke-opacity:1" d="M 102.398,275.142 98.7539,268.582 z" id="boundary" inkscape:connector-curvature="0" />
	<path style="fill:none;stroke:red;stroke-width:1px;stroke-linecap:butt;stroke-linejoin:miter;stroke-opacity:1" d="M 179.659,185.49 176.015,178.93 z" id="boundary" inkscape:connector-curvature="0" />
	<path style="fill:none;stroke:red;stroke-width:1px;stroke-linecap:butt;stroke-linejoin:miter;stroke-opacity:1" d="M 183.303,192.05 179.659,185.49 z" id="boundary" inkscape:connector-curvature="0" />
	<path style="fill:none;stroke:red;stroke-width:1px;stroke-linecap:butt;stroke-linejoin:miter;stroke-opacity:1" d="M 186.948,198.61 189.134,205.899 z" id="boundary" inkscape:connector-curvature="0" />
	<path style="fill:none;stroke:red;stroke-width:1px;stroke-linecap:butt;stroke-linejoin:miter;stroke-opacity:1" d="M 183.303,192.05 186.948,198.61 z" id="boundary" inkscape:connector-curvature="0" />
	<path style="fill:none;stroke:red;stroke-width:1px;stroke-linecap:butt;stroke-linejoin:miter;stroke-opacity:1" d="M 189.134,205.899 192.779,212.458 z" id="boundary" inkscape:connector-curvature="0" />
	<path style="fill:none;stroke:red;stroke-width:1px;stroke-linecap:butt;stroke-linejoin:miter;stroke-opacity:1" d="M 195.694,219.747 192.779,212.458 z" id="boundary" inkscape:connector-curvature="0" />
	<path style="fill:none;stroke:red;stroke-width:1px;stroke-linecap:butt;stroke-linejoin:miter;stroke-opacity:1" d="M 199.339,226.307 201.525,233.596 z" id="boundary" inkscape:connector-curvature="0" />
	<path style="fill:none;stroke:red;stroke-width:1px;stroke-linecap:butt;stroke-linejoin:miter;stroke-opacity:1" d="M 199.339,226.307 195.694,219.747 z" id="boundary" inkscape:connector-curvature="0" />
	<path style="fill:none;stroke:red;stroke-width:1px;stroke-linecap:butt;stroke-linejoin:miter;stroke-opacity:1" d="M 205.17,240.156 201.525,233.596 z" id="boundary" inkscape:connector-curvature="0" />
	<path style="fill:none;stroke:red;stroke-width:1px;stroke-linecap:butt;stroke-linejoin:miter;stroke-opacity:1" d="M 205.17,240.156 208.814,246.716 z" id="boundary" inkscape:connector-curvature="0" />
	<path style="fill:none;stroke:red;stroke-width:1px;stroke-linecap:butt;stroke-linejoin:miter;stroke-opacity:1" d="M 208.814,246.716 211.73,254.004 z" id="boundary" inkscape:connector-curvature="0" />
	<path style="fill:none;stroke:red;stroke-width:1px;stroke-linecap:butt;stroke-linejoin:miter;stroke-opacity:1" d="M 227.036,287.533 223.392,280.973 z" id="boundary" inkscape:connector-curvature="0" />
	<path style="fill:none;stroke:red;stroke-width:1px;stroke-linecap:butt;stroke-linejoin:miter;stroke-opacity:1" d="M 212.458,261.293 211.73,254.004 z" id="boundary" inkscape:connector-curvature="0" />
	<path style="fill:none;stroke:red;stroke-width:1px;stroke-linecap:butt;stroke-linejoin:miter;stroke-opacity:1" d="M 212.458,261.293 216.103,267.853 z" id="boundary" inkscape:connector-curvature="0" />
	<path style="fill:none;stroke:red;stroke-width:1px;stroke-linecap:butt;stroke-linejoin:miter;stroke-opacity:1" d="M 223.392,280.973 219.747,274.413 z" id="boundary" inkscape:connector-curvature="0" />
	<path style="fill:none;stroke:red;stroke-width:1px;stroke-linecap:butt;stroke-linejoin:miter;stroke-opacity:1" d="M 219.747,274.413 216.103,267.853 z" id="boundary" inkscape:connector-curvature="0" />
	<path style="fill:none;stroke:red;stroke-width:1px;stroke-linecap:butt;stroke-linejoin:miter;stroke-opacity:1" d="M 108.229,288.99 113.331,294.821 z" id="boundary" inkscape:connector-curvature="0" />
	<path style="fill:none;stroke:red;stroke-width:1px;stroke-linecap:butt;stroke-linejoin:miter;stroke-opacity:1" d="M 116.976,309.399 114.06,302.11 z" id="boundary" inkscape:connector-curvature="0" />
	<path style="fill:none;stroke:red;stroke-width:1px;stroke-linecap:butt;stroke-linejoin:miter;stroke-opacity:1" d="M 120.62,315.959 116.976,309.399 z" id="boundary" inkscape:connector-curvature="0" />
	<path style="fill:none;stroke:red;stroke-width:1px;stroke-linecap:butt;stroke-linejoin:miter;stroke-opacity:1" d="M 113.331,294.821 114.06,302.11 z" id="boundary" inkscape:connector-curvature="0" />
	<path style="fill:none;stroke:red;stroke-width:1px;stroke-linecap:butt;stroke-linejoin:miter;stroke-opacity:1" d="M 124.265,322.519 120.62,315.959 z" id="boundary" inkscape:connector-curvature="0" />
	<path style="fill:none;stroke:red;stroke-width:1px;stroke-linecap:butt;stroke-linejoin:miter;stroke-opacity:1" d="M 124.265,322.519 127.909,329.079 z" id="boundary" inkscape:connector-curvature="0" />
	<path style="fill:none;stroke:red;stroke-width:1px;stroke-linecap:butt;stroke-linejoin:miter;stroke-opacity:1" d="M 131.553,335.639 127.909,329.079 z" id="boundary" inkscape:connector-curvature="0" />
	<path style="fill:none;stroke:red;stroke-width:1px;stroke-linecap:butt;stroke-linejoin:miter;stroke-opacity:1" d="M 133.011,342.927 136.655,349.487 z" id="boundary" inkscape:connector-curvature="0" />
	<path style="fill:none;stroke:red;stroke-width:1px;stroke-linecap:butt;stroke-linejoin:miter;stroke-opacity:1" d="M 131.553,335.639 133.011,342.927 z" id="boundary" inkscape:connector-curvature="0" />
	<path style="fill:none;stroke:red;stroke-width:1px;stroke-linecap:butt;stroke-linejoin:miter;stroke-opacity:1" d="M 136.655,349.487 139.571,356.776 z" id="boundary" inkscape:connector-curvature="0" />
	<path style="fill:none;stroke:red;stroke-width:1px;stroke-linecap:butt;stroke-linejoin:miter;stroke-opacity:1" d="M 142.486,364.065 139.571,356.776 z" id="boundary" inkscape:connector-curvature="0" />
	<path style="fill:none;stroke:red;stroke-width:1px;stroke-linecap:butt;stroke-linejoin:miter;stroke-opacity:1" d="M 146.131,370.625 149.775,377.184 z" id="boundary" inkscape:connector-curvature="0" />
	<path style="fill:none;stroke:red;stroke-width:1px;stroke-linecap:butt;stroke-linejoin:miter;stroke-opacity:1" d="M 146.131,370.625 142.486,364.065 z" id="boundary" inkscape:connector-curvature="0" />
	<path style="fill:none;stroke:red;stroke-width:1px;stroke-linecap:butt;stroke-linejoin:miter;stroke-opacity:1" d="M 149.775,377.184 153.42,383.744 z" id="boundary" inkscape:connector-curvature="0" />
	<path style="fill:none;stroke:red;stroke-width:1px;stroke-linecap:butt;stroke-linejoin:miter;stroke-opacity:1" d="M 155.606,391.033 159.251,397.593 z" id="boundary" inkscape:connector-curvature="0" />
	<path style="fill:none;stroke:red;stroke-width:1px;stroke-linecap:butt;stroke-linejoin:miter;stroke-opacity:1" d="M 153.42,383.744 155.606,391.033 z" id="boundary" inkscape:connector-curvature="0" />
	<path style="fill:none;stroke:red;stroke-width:1px;stroke-linecap:butt;stroke-linejoin:miter;stroke-opacity:1" d="M 159.251,397.593 160.708,404.882 z" id="boundary" inkscape:connector-curvature="0" />
	<path style="fill:none;stroke:red;stroke-width:1px;stroke-linecap:butt;stroke-linejoin:miter;stroke-opacity:1" d="M 164.353,411.442 160.708,404.882 z" id="boundary" inkscape:connector-curvature="0" />
	<path style="fill:none;stroke:red;stroke-width:1px;stroke-linecap:butt;stroke-linejoin:miter;stroke-opacity:1" d="M 164.353,411.442 165.082,418.73 z" id="boundary" inkscape:connector-curvature="0" />
	<path style="fill:none;stroke:red;stroke-width:1px;stroke-linecap:butt;stroke-linejoin:miter;stroke-opacity:1" d="M 165.082,418.73 170.913,423.832 z" id="boundary" inkscape:connector-curvature="0" />
	<path style="fill:none;stroke:red;stroke-width:1px;stroke-linecap:butt;stroke-linejoin:miter;stroke-opacity:1" d="M 173.828,431.121 170.913,423.832 z" id="boundary" inkscape:connector-curvature="0" />
	<path style="fill:none;stroke:red;stroke-width:1px;stroke-linecap:butt;stroke-linejoin:miter;stroke-opacity:1" d="M 175.286,438.41 173.828,431.121 z" id="boundary" inkscape:connector-curvature="0" />
	<path style="fill:none;stroke:red;stroke-width:1px;stroke-linecap:butt;stroke-linejoin:miter;stroke-opacity:1" d="M 175.286,438.41 178.93,444.97 z" id="boundary" inkscape:connector-curvature="0" />
	<path style="fill:none;stroke:red;stroke-width:1px;stroke-linecap:butt;stroke-linejoin:miter;stroke-opacity:1" d="M 178.93,444.97 182.575,451.53 z" id="boundary" inkscape:connector-curvature="0" />
	<path style="fill:none;stroke:red;stroke-width:1px;stroke-linecap:butt;stroke-linejoin:miter;stroke-opacity:1" d="M 182.575,451.53 186.219,458.09 z" id="boundary" inkscape:connector-curvature="0" />
	<path style="fill:none;stroke:red;stroke-width:1px;stroke-linecap:butt;stroke-linejoin:miter;stroke-opacity:1" d="M 189.863,464.65 189.863,471.938 z" id="boundary" inkscape:connector-curvature="0" />
	<path style="fill:none;stroke:red;stroke-width:1px;stroke-linecap:butt;stroke-linejoin:miter;stroke-opacity:1" d="M 189.863,464.65 186.219,458.09 z" id="boundary" inkscape:connector-curvature="0" />
	<path style="fill:none;stroke:red;stroke-width:1px;stroke-linecap:butt;stroke-linejoin:miter;stroke-opacity:1" d="M 230.68,294.093 233.596,301.381 z" id="boundary" inkscape:connector-curvature="0" />
	<path style="fill:none;stroke:red;stroke-width:1px;stroke-linecap:butt;stroke-linejoin:miter;stroke-opacity:1" d="M 230.68,294.093 227.036,287.533 z" id="boundary" inkscape:connector-curvature="0" />
	<path style="fill:none;stroke:red;stroke-width:1px;stroke-linecap:butt;stroke-linejoin:miter;stroke-opacity:1" d="M 233.596,301.381 234.325,308.67 z" id="boundary" inkscape:connector-curvature="0" />
	<path style="fill:none;stroke:red;stroke-width:1px;stroke-linecap:butt;stroke-linejoin:miter;stroke-opacity:1" d="M 237.969,315.23 241.614,321.79 z" id="boundary" inkscape:connector-curvature="0" />
	<path style="fill:none;stroke:red;stroke-width:1px;stroke-linecap:butt;stroke-linejoin:miter;stroke-opacity:1" d="M 234.325,308.67 237.969,315.23 z" id="boundary" inkscape:connector-curvature="0" />
	<path style="fill:none;stroke:red;stroke-width:1px;stroke-linecap:butt;stroke-linejoin:miter;stroke-opacity:1" d="M 241.614,321.79 245.258,328.35 z" id="boundary" inkscape:connector-curvature="0" />
	<path style="fill:none;stroke:red;stroke-width:1px;stroke-linecap:butt;stroke-linejoin:miter;stroke-opacity:1" d="M 248.902,334.91 245.258,328.35 z" id="boundary" inkscape:connector-curvature="0" />
	<path style="fill:none;stroke:red;stroke-width:1px;stroke-linecap:butt;stroke-linejoin:miter;stroke-opacity:1" d="M 252.547,341.47 248.902,334.91 z" id="boundary" inkscape:connector-curvature="0" />
	<path style="fill:none;stroke:red;stroke-width:1px;stroke-linecap:butt;stroke-linejoin:miter;stroke-opacity:1" d="M 255.462,348.758 256.191,356.047 z" id="boundary" inkscape:connector-curvature="0" />
	<path style="fill:none;stroke:red;stroke-width:1px;stroke-linecap:butt;stroke-linejoin:miter;stroke-opacity:1" d="M 255.462,348.758 252.547,341.47 z" id="boundary" inkscape:connector-curvature="0" />
	<path style="fill:none;stroke:red;stroke-width:1px;stroke-linecap:butt;stroke-linejoin:miter;stroke-opacity:1" d="M 256.191,356.047 259.835,362.607 z" id="boundary" inkscape:connector-curvature="0" />
	<path style="fill:none;stroke:red;stroke-width:1px;stroke-linecap:butt;stroke-linejoin:miter;stroke-opacity:1" d="M 263.48,369.167 259.835,362.607 z" id="boundary" inkscape:connector-curvature="0" />
	<path style="fill:none;stroke:red;stroke-width:1px;stroke-linecap:butt;stroke-linejoin:miter;stroke-opacity:1" d="M 193.508,478.498 189.863,471.938 z" id="boundary" inkscape:connector-curvature="0" />
	<path style="fill:none;stroke:red;stroke-width:1px;stroke-linecap:butt;stroke-linejoin:miter;stroke-opacity:1" d="M 197.152,485.058 193.508,478.498 z" id="boundary" inkscape:connector-curvature="0" />
	<path style="fill:none;stroke:red;stroke-width:1px;stroke-linecap:butt;stroke-linejoin:miter;stroke-opacity:1" d="M 197.152,485.058 200.796,491.618 z" id="boundary" inkscape:connector-curvature="0" />
	<path style="fill:none;stroke:red;stroke-width:1px;stroke-linecap:butt;stroke-linejoin:miter;stroke-opacity:1" d="M 200.796,491.618 204.441,498.178 z" id="boundary" inkscape:connector-curvature="0" />
	<path style="fill:none;stroke:red;stroke-width:1px;stroke-linecap:butt;stroke-linejoin:miter;stroke-opacity:1" d="M 204.441,505.467 204.441,498.178 z" id="boundary" inkscape:connector-curvature="0" />
	<path style="fill:none;stroke:red;stroke-width:1px;stroke-linecap:butt;stroke-linejoin:miter;stroke-opacity:1" d="M 208.085,512.026 204.441,505.467 z" id="boundary" inkscape:connector-curvature="0" />
	<path style="fill:none;stroke:red;stroke-width:1px;stroke-linecap:butt;stroke-linejoin:miter;stroke-opacity:1" d="M 208.085,512.026 211.73,518.586 z" id="boundary" inkscape:connector-curvature="0" />
	<path style="fill:none;stroke:red;stroke-width:1px;stroke-linecap:butt;stroke-linejoin:miter;stroke-opacity:1" d="M 211.73,518.586 215.374,525.146 z" id="boundary" inkscape:connector-curvature="0" />
	<path style="fill:none;stroke:red;stroke-width:1px;stroke-linecap:butt;stroke-linejoin:miter;stroke-opacity:1" d="M 220.476,538.995 216.832,532.435 z" id="boundary" inkscape:connector-curvature="0" />
	<path style="fill:none;stroke:red;stroke-width:1px;stroke-linecap:butt;stroke-linejoin:miter;stroke-opacity:1" d="M 216.832,532.435 215.374,525.146 z" id="boundary" inkscape:connector-curvature="0" />
	<path style="fill:none;stroke:red;stroke-width:1px;stroke-linecap:butt;stroke-linejoin:miter;stroke-opacity:1" d="M 227.036,552.843 223.392,546.284 z" id="boundary" inkscape:connector-curvature="0" />
	<path style="fill:none;stroke:red;stroke-width:1px;stroke-linecap:butt;stroke-linejoin:miter;stroke-opacity:1" d="M 223.392,546.284 220.476,538.995 z" id="boundary" inkscape:connector-curvature="0" />
	<path style="fill:none;stroke:red;stroke-width:1px;stroke-linecap:butt;stroke-linejoin:miter;stroke-opacity:1" d="M 227.036,552.843 229.952,560.132 z" id="boundary" inkscape:connector-curvature="0" />
	<path style="fill:none;stroke:red;stroke-width:1px;stroke-linecap:butt;stroke-linejoin:miter;stroke-opacity:1" d="M 229.952,560.132 233.596,566.692 z" id="boundary" inkscape:connector-curvature="0" />
	<path style="fill:none;stroke:red;stroke-width:1px;stroke-linecap:butt;stroke-linejoin:miter;stroke-opacity:1" d="M 237.24,573.252 239.427,580.541 z" id="boundary" inkscape:connector-curvature="0" />
	<path style="fill:none;stroke:red;stroke-width:1px;stroke-linecap:butt;stroke-linejoin:miter;stroke-opacity:1" d="M 237.24,573.252 233.596,566.692 z" id="boundary" inkscape:connector-curvature="0" />
	<path style="fill:none;stroke:red;stroke-width:1px;stroke-linecap:butt;stroke-linejoin:miter;stroke-opacity:1" d="M 243.071,587.101 245.987,594.389 z" id="boundary" inkscape:connector-curvature="0" />
	<path style="fill:none;stroke:red;stroke-width:1px;stroke-linecap:butt;stroke-linejoin:miter;stroke-opacity:1" d="M 243.071,587.101 239.427,580.541 z" id="boundary" inkscape:connector-curvature="0" />
	<path style="fill:none;stroke:red;stroke-width:1px;stroke-linecap:butt;stroke-linejoin:miter;stroke-opacity:1" d="M 252.547,607.509 248.173,601.678 z" id="boundary" inkscape:connector-curvature="0" />
	<path style="fill:none;stroke:red;stroke-width:1px;stroke-linecap:butt;stroke-linejoin:miter;stroke-opacity:1" d="M 245.987,594.389 248.173,601.678 z" id="boundary" inkscape:connector-curvature="0" />
	<path style="fill:none;stroke:red;stroke-width:1px;stroke-linecap:butt;stroke-linejoin:miter;stroke-opacity:1" d="M 259.107,621.358 255.462,614.798 z" id="boundary" inkscape:connector-curvature="0" />
	<path style="fill:none;stroke:red;stroke-width:1px;stroke-linecap:butt;stroke-linejoin:miter;stroke-opacity:1" d="M 255.462,614.798 252.547,607.509 z" id="boundary" inkscape:connector-curvature="0" />
	<path style="fill:none;stroke:red;stroke-width:1px;stroke-linecap:butt;stroke-linejoin:miter;stroke-opacity:1" d="M 259.107,621.358 259.107,628.647 z" id="boundary" inkscape:connector-curvature="0" />
	<path style="fill:none;stroke:red;stroke-width:1px;stroke-linecap:butt;stroke-linejoin:miter;stroke-opacity:1" d="M 259.107,628.647 262.751,635.206 z" id="boundary" inkscape:connector-curvature="0" />
	<path style="fill:none;stroke:red;stroke-width:1px;stroke-linecap:butt;stroke-linejoin:miter;stroke-opacity:1" d="M 262.751,635.206 266.395,641.766 z" id="boundary" inkscape:connector-curvature="0" />
	<path style="fill:none;stroke:red;stroke-width:1px;stroke-linecap:butt;stroke-linejoin:miter;stroke-opacity:1" d="M 263.48,369.167 267.124,375.727 z" id="boundary" inkscape:connector-curvature="0" />
	<path style="fill:none;stroke:red;stroke-width:1px;stroke-linecap:butt;stroke-linejoin:miter;stroke-opacity:1" d="M 270.769,382.287 267.124,375.727 z" id="boundary" inkscape:connector-curvature="0" />
	<path style="fill:none;stroke:red;stroke-width:1px;stroke-linecap:butt;stroke-linejoin:miter;stroke-opacity:1" d="M 270.769,382.287 274.413,388.846 z" id="boundary" inkscape:connector-curvature="0" />
	<path style="fill:none;stroke:red;stroke-width:1px;stroke-linecap:butt;stroke-linejoin:miter;stroke-opacity:1" d="M 274.413,388.846 274.413,396.135 z" id="boundary" inkscape:connector-curvature="0" />
	<path style="fill:none;stroke:red;stroke-width:1px;stroke-linecap:butt;stroke-linejoin:miter;stroke-opacity:1" d="M 274.413,396.135 278.057,402.695 z" id="boundary" inkscape:connector-curvature="0" />
	<path style="fill:none;stroke:red;stroke-width:1px;stroke-linecap:butt;stroke-linejoin:miter;stroke-opacity:1" d="M 281.702,409.255 285.346,415.815 z" id="boundary" inkscape:connector-curvature="0" />
	<path style="fill:none;stroke:red;stroke-width:1px;stroke-linecap:butt;stroke-linejoin:miter;stroke-opacity:1" d="M 281.702,409.255 278.057,402.695 z" id="boundary" inkscape:connector-curvature="0" />
	<path style="fill:none;stroke:red;stroke-width:1px;stroke-linecap:butt;stroke-linejoin:miter;stroke-opacity:1" d="M 285.346,423.104 285.346,415.815 z" id="boundary" inkscape:connector-curvature="0" />
	<path style="fill:none;stroke:red;stroke-width:1px;stroke-linecap:butt;stroke-linejoin:miter;stroke-opacity:1" d="M 288.99,429.663 292.635,436.223 z" id="boundary" inkscape:connector-curvature="0" />
	<path style="fill:none;stroke:red;stroke-width:1px;stroke-linecap:butt;stroke-linejoin:miter;stroke-opacity:1" d="M 288.99,429.663 285.346,423.104 z" id="boundary" inkscape:connector-curvature="0" />
	<path style="fill:none;stroke:red;stroke-width:1px;stroke-linecap:butt;stroke-linejoin:miter;stroke-opacity:1" d="M 296.279,442.783 299.924,449.343 z" id="boundary" inkscape:connector-curvature="0" />
	<path style="fill:none;stroke:red;stroke-width:1px;stroke-linecap:butt;stroke-linejoin:miter;stroke-opacity:1" d="M 292.635,436.223 296.279,442.783 z" id="boundary" inkscape:connector-curvature="0" />
	<path style="fill:none;stroke:red;stroke-width:1px;stroke-linecap:butt;stroke-linejoin:miter;stroke-opacity:1" d="M 303.568,455.903 299.924,449.343 z" id="boundary" inkscape:connector-curvature="0" />
	<path style="fill:none;stroke:red;stroke-width:1px;stroke-linecap:butt;stroke-linejoin:miter;stroke-opacity:1" d="M 303.568,463.192 303.568,455.903 z" id="boundary" inkscape:connector-curvature="0" />
	<path style="fill:none;stroke:red;stroke-width:1px;stroke-linecap:butt;stroke-linejoin:miter;stroke-opacity:1" d="M 303.568,463.192 309.399,467.565 z" id="boundary" inkscape:connector-curvature="0" />
	<path style="fill:none;stroke:red;stroke-width:1px;stroke-linecap:butt;stroke-linejoin:miter;stroke-opacity:1" d="M 309.399,467.565 310.857,474.854 z" id="boundary" inkscape:connector-curvature="0" />
	<path style="fill:none;stroke:red;stroke-width:1px;stroke-linecap:butt;stroke-linejoin:miter;stroke-opacity:1" d="M 343.656,549.199 342.927,541.91 z" id="boundary" inkscape:connector-curvature="0" />
	<path style="fill:none;stroke:red;stroke-width:1px;stroke-linecap:butt;stroke-linejoin:miter;stroke-opacity:1" d="M 310.857,474.854 314.501,481.414 z" id="boundary" inkscape:connector-curvature="0" />
	<path style="fill:none;stroke:red;stroke-width:1px;stroke-linecap:butt;stroke-linejoin:miter;stroke-opacity:1" d="M 318.145,487.974 314.501,481.414 z" id="boundary" inkscape:connector-curvature="0" />
	<path style="fill:none;stroke:red;stroke-width:1px;stroke-linecap:butt;stroke-linejoin:miter;stroke-opacity:1" d="M 318.145,495.262 323.976,500.364 z" id="boundary" inkscape:connector-curvature="0" />
	<path style="fill:none;stroke:red;stroke-width:1px;stroke-linecap:butt;stroke-linejoin:miter;stroke-opacity:1" d="M 318.145,487.974 318.145,495.262 z" id="boundary" inkscape:connector-curvature="0" />
	<path style="fill:none;stroke:red;stroke-width:1px;stroke-linecap:butt;stroke-linejoin:miter;stroke-opacity:1" d="M 323.976,500.364 326.892,507.653 z" id="boundary" inkscape:connector-curvature="0" />
	<path style="fill:none;stroke:red;stroke-width:1px;stroke-linecap:butt;stroke-linejoin:miter;stroke-opacity:1" d="M 332.723,521.502 329.079,514.942 z" id="boundary" inkscape:connector-curvature="0" />
	<path style="fill:none;stroke:red;stroke-width:1px;stroke-linecap:butt;stroke-linejoin:miter;stroke-opacity:1" d="M 329.079,514.942 326.892,507.653 z" id="boundary" inkscape:connector-curvature="0" />
	<path style="fill:none;stroke:red;stroke-width:1px;stroke-linecap:butt;stroke-linejoin:miter;stroke-opacity:1" d="M 332.723,521.502 336.367,528.062 z" id="boundary" inkscape:connector-curvature="0" />
	<path style="fill:none;stroke:red;stroke-width:1px;stroke-linecap:butt;stroke-linejoin:miter;stroke-opacity:1" d="M 336.367,528.062 340.012,534.622 z" id="boundary" inkscape:connector-curvature="0" />
	<path style="fill:none;stroke:red;stroke-width:1px;stroke-linecap:butt;stroke-linejoin:miter;stroke-opacity:1" d="M 342.927,541.91 340.012,534.622 z" id="boundary" inkscape:connector-curvature="0" />
	<path style="fill:none;stroke:red;stroke-width:1px;stroke-linecap:butt;stroke-linejoin:miter;stroke-opacity:1" d="M 270.04,648.326 273.684,654.886 z" id="boundary" inkscape:connector-curvature="0" />
	<path style="fill:none;stroke:red;stroke-width:1px;stroke-linecap:butt;stroke-linejoin:miter;stroke-opacity:1" d="M 270.04,648.326 266.395,641.766 z" id="boundary" inkscape:connector-curvature="0" />
	<path style="fill:none;stroke:red;stroke-width:1px;stroke-linecap:butt;stroke-linejoin:miter;stroke-opacity:1" d="M 273.684,654.886 273.684,662.175 z" id="boundary" inkscape:connector-curvature="0" />
	<path style="fill:none;stroke:red;stroke-width:1px;stroke-linecap:butt;stroke-linejoin:miter;stroke-opacity:1" d="M 273.684,662.175 277.328,668.735 z" id="boundary" inkscape:connector-curvature="0" />
	<path style="fill:none;stroke:red;stroke-width:1px;stroke-linecap:butt;stroke-linejoin:miter;stroke-opacity:1" d="M 277.328,668.735 280.973,675.295 z" id="boundary" inkscape:connector-curvature="0" />
	<path style="fill:none;stroke:red;stroke-width:1px;stroke-linecap:butt;stroke-linejoin:miter;stroke-opacity:1" d="M 280.973,675.295 284.617,681.855 z" id="boundary" inkscape:connector-curvature="0" />
	<path style="fill:none;stroke:red;stroke-width:1px;stroke-linecap:butt;stroke-linejoin:miter;stroke-opacity:1" d="M 288.262,688.414 284.617,681.855 z" id="boundary" inkscape:connector-curvature="0" />
	<path style="fill:none;stroke:red;stroke-width:1px;stroke-linecap:butt;stroke-linejoin:miter;stroke-opacity:1" d="M 288.99,695.703 288.262,688.414 z" id="boundary" inkscape:connector-curvature="0" />
	<path style="fill:none;stroke:red;stroke-width:1px;stroke-linecap:butt;stroke-linejoin:miter;stroke-opacity:1" d="M 292.635,702.263 295.55,709.552 z" id="boundary" inkscape:connector-curvature="0" />
	<path style="fill:none;stroke:red;stroke-width:1px;stroke-linecap:butt;stroke-linejoin:miter;stroke-opacity:1" d="M 292.635,702.263 288.99,695.703 z" id="boundary" inkscape:connector-curvature="0" />
	<path style="fill:none;stroke:red;stroke-width:1px;stroke-linecap:butt;stroke-linejoin:miter;stroke-opacity:1" d="M 299.195,716.112 295.55,709.552 z" id="boundary" inkscape:connector-curvature="0" />
	<path style="fill:none;stroke:red;stroke-width:1px;stroke-linecap:butt;stroke-linejoin:miter;stroke-opacity:1" d="M 347.301,555.759 343.656,549.199 z" id="boundary" inkscape:connector-curvature="0" />
	<path style="fill:none;stroke:red;stroke-width:1px;stroke-linecap:butt;stroke-linejoin:miter;stroke-opacity:1" d="M 302.839,722.672 299.195,716.112 z" id="boundary" inkscape:connector-curvature="0" />
	<path style="fill:none;stroke:red;stroke-width:1px;stroke-linecap:butt;stroke-linejoin:miter;stroke-opacity:1" d="M 347.301,555.759 350.945,562.319 z" id="boundary" inkscape:connector-curvature="0" />
	<path style="fill:none;stroke:red;stroke-width:1px;stroke-linecap:butt;stroke-linejoin:miter;stroke-opacity:1" d="M 358.234,582.727 354.589,576.168 z" id="boundary" inkscape:connector-curvature="0" />
	<path style="fill:none;stroke:red;stroke-width:1px;stroke-linecap:butt;stroke-linejoin:miter;stroke-opacity:1" d="M 361.878,589.287 358.234,582.727 z" id="boundary" inkscape:connector-curvature="0" />
	<path style="fill:none;stroke:red;stroke-width:1px;stroke-linecap:butt;stroke-linejoin:miter;stroke-opacity:1" d="M 361.878,589.287 365.522,595.847 z" id="boundary" inkscape:connector-curvature="0" />
	<path style="fill:none;stroke:red;stroke-width:1px;stroke-linecap:butt;stroke-linejoin:miter;stroke-opacity:1" d="M 354.589,576.168 354.589,568.879 z" id="boundary" inkscape:connector-curvature="0" />
	<path style="fill:none;stroke:red;stroke-width:1px;stroke-linecap:butt;stroke-linejoin:miter;stroke-opacity:1" d="M 367.709,603.136 365.522,595.847 z" id="boundary" inkscape:connector-curvature="0" />
	<path style="fill:none;stroke:red;stroke-width:1px;stroke-linecap:butt;stroke-linejoin:miter;stroke-opacity:1" d="M 372.811,608.967 376.456,615.527 z" id="boundary" inkscape:connector-curvature="0" />
	<path style="fill:none;stroke:red;stroke-width:1px;stroke-linecap:butt;stroke-linejoin:miter;stroke-opacity:1" d="M 372.811,608.967 367.709,603.136 z" id="boundary" inkscape:connector-curvature="0" />
	<path style="fill:none;stroke:red;stroke-width:1px;stroke-linecap:butt;stroke-linejoin:miter;stroke-opacity:1" d="M 376.456,615.527 376.456,622.816 z" id="boundary" inkscape:connector-curvature="0" />
	<path style="fill:none;stroke:red;stroke-width:1px;stroke-linecap:butt;stroke-linejoin:miter;stroke-opacity:1" d="M 380.1,629.375 376.456,622.816 z" id="boundary" inkscape:connector-curvature="0" />
	<path style="fill:none;stroke:red;stroke-width:1px;stroke-linecap:butt;stroke-linejoin:miter;stroke-opacity:1" d="M 354.589,568.879 350.945,562.319 z" id="boundary" inkscape:connector-curvature="0" />
	<path style="fill:none;stroke:red;stroke-width:1px;stroke-linecap:butt;stroke-linejoin:miter;stroke-opacity:1" d="M 380.1,629.375 383.744,635.935 z" id="boundary" inkscape:connector-curvature="0" />
	<path style="fill:none;stroke:red;stroke-width:1px;stroke-linecap:butt;stroke-linejoin:miter;stroke-opacity:1" d="M 387.389,642.495 383.744,635.935 z" id="boundary" inkscape:connector-curvature="0" />
	<path style="fill:none;stroke:red;stroke-width:1px;stroke-linecap:butt;stroke-linejoin:miter;stroke-opacity:1" d="M 388.846,649.784 392.491,656.344 z" id="boundary" inkscape:connector-curvature="0" />
	<path style="fill:none;stroke:red;stroke-width:1px;stroke-linecap:butt;stroke-linejoin:miter;stroke-opacity:1" d="M 387.389,642.495 388.846,649.784 z" id="boundary" inkscape:connector-curvature="0" />
	<path style="fill:none;stroke:red;stroke-width:1px;stroke-linecap:butt;stroke-linejoin:miter;stroke-opacity:1" d="M 394.677,663.633 398.322,670.193 z" id="boundary" inkscape:connector-curvature="0" />
	<path style="fill:none;stroke:red;stroke-width:1px;stroke-linecap:butt;stroke-linejoin:miter;stroke-opacity:1" d="M 394.677,663.633 392.491,656.344 z" id="boundary" inkscape:connector-curvature="0" />
	<path style="fill:none;stroke:red;stroke-width:1px;stroke-linecap:butt;stroke-linejoin:miter;stroke-opacity:1" d="M 401.966,676.752 398.322,670.193 z" id="boundary" inkscape:connector-curvature="0" />
	<path style="fill:none;stroke:red;stroke-width:1px;stroke-linecap:butt;stroke-linejoin:miter;stroke-opacity:1" d="M 401.966,676.752 405.611,683.312 z" id="boundary" inkscape:connector-curvature="0" />
	<path style="fill:none;stroke:red;stroke-width:1px;stroke-linecap:butt;stroke-linejoin:miter;stroke-opacity:1" d="M 409.255,689.872 405.611,683.312 z" id="boundary" inkscape:connector-curvature="0" />
	<path style="fill:none;stroke:red;stroke-width:1px;stroke-linecap:butt;stroke-linejoin:miter;stroke-opacity:1" d="M 412.899,696.432 412.899,703.721 z" id="boundary" inkscape:connector-curvature="0" />
	<path style="fill:none;stroke:red;stroke-width:1px;stroke-linecap:butt;stroke-linejoin:miter;stroke-opacity:1" d="M 409.255,689.872 412.899,696.432 z" id="boundary" inkscape:connector-curvature="0" />
	<path style="fill:none;stroke:red;stroke-width:1px;stroke-linecap:butt;stroke-linejoin:miter;stroke-opacity:1" d="M 412.899,703.721 416.544,710.281 z" id="boundary" inkscape:connector-curvature="0" />
	<path style="fill:none;stroke:red;stroke-width:1px;stroke-linecap:butt;stroke-linejoin:miter;stroke-opacity:1" d="M 416.544,710.281 420.188,716.841 z" id="boundary" inkscape:connector-curvature="0" />
	<path style="fill:none;stroke:red;stroke-width:1px;stroke-linecap:butt;stroke-linejoin:miter;stroke-opacity:1" d="M 423.832,723.4 420.188,716.841 z" id="boundary" inkscape:connector-curvature="0" />
	<path style="fill:none;stroke:red;stroke-width:1px;stroke-linecap:butt;stroke-linejoin:miter;stroke-opacity:1" d="M 427.477,729.96 423.832,723.4 z" id="boundary" inkscape:connector-curvature="0" />
	<path style="fill:none;stroke:red;stroke-width:1px;stroke-linecap:butt;stroke-linejoin:miter;stroke-opacity:1" d="M 306.483,729.231 307.941,736.52 z" id="boundary" inkscape:connector-curvature="0" />
	<path style="fill:none;stroke:red;stroke-width:1px;stroke-linecap:butt;stroke-linejoin:miter;stroke-opacity:1" d="M 302.839,722.672 306.483,729.231 z" id="boundary" inkscape:connector-curvature="0" />
	<path style="fill:none;stroke:red;stroke-width:1px;stroke-linecap:butt;stroke-linejoin:miter;stroke-opacity:1" d="M 313.772,740.893 307.941,736.52 z" id="boundary" inkscape:connector-curvature="0" />
	<path style="fill:none;stroke:red;stroke-width:1px;stroke-linecap:butt;stroke-linejoin:miter;stroke-opacity:1" d="M 313.772,740.893 313.772,748.182 z" id="boundary" inkscape:connector-curvature="0" />
	<path style="fill:none;stroke:red;stroke-width:1px;stroke-linecap:butt;stroke-linejoin:miter;stroke-opacity:1" d="M 313.772,748.182 317.417,754.742 z" id="boundary" inkscape:connector-curvature="0" />
	<path style="fill:none;stroke:red;stroke-width:1px;stroke-linecap:butt;stroke-linejoin:miter;stroke-opacity:1" d="M 321.061,761.302 317.417,754.742 z" id="boundary" inkscape:connector-curvature="0" />
	<path style="fill:none;stroke:red;stroke-width:1px;stroke-linecap:butt;stroke-linejoin:miter;stroke-opacity:1" d="M 324.705,767.862 321.061,761.302 z" id="boundary" inkscape:connector-curvature="0" />
	<path style="fill:none;stroke:red;stroke-width:1px;stroke-linecap:butt;stroke-linejoin:miter;stroke-opacity:1" d="M 328.35,774.422 328.35,781.711 z" id="boundary" inkscape:connector-curvature="0" />
	<path style="fill:none;stroke:red;stroke-width:1px;stroke-linecap:butt;stroke-linejoin:miter;stroke-opacity:1" d="M 324.705,767.862 328.35,774.422 z" id="boundary" inkscape:connector-curvature="0" />
	<path style="fill:none;stroke:red;stroke-width:1px;stroke-linecap:butt;stroke-linejoin:miter;stroke-opacity:1" d="M 331.994,788.27 328.35,781.711 z" id="boundary" inkscape:connector-curvature="0" />
	<path style="fill:none;stroke:red;stroke-width:1px;stroke-linecap:butt;stroke-linejoin:miter;stroke-opacity:1" d="M 331.994,788.27 335.639,794.83 z" id="boundary" inkscape:connector-curvature="0" />
	<path style="fill:none;stroke:red;stroke-width:1px;stroke-linecap:butt;stroke-linejoin:miter;stroke-opacity:1" d="M 339.283,801.39 335.639,794.83 z" id="boundary" inkscape:connector-curvature="0" />
	<path style="fill:none;stroke:red;stroke-width:1px;stroke-linecap:butt;stroke-linejoin:miter;stroke-opacity:1" d="M 339.283,801.39 340.012,808.679 z" id="boundary" inkscape:connector-curvature="0" />
	<path style="fill:none;stroke:red;stroke-width:1px;stroke-linecap:butt;stroke-linejoin:miter;stroke-opacity:1" d="M 343.656,815.239 346.572,822.528 z" id="boundary" inkscape:connector-curvature="0" />
	<path style="fill:none;stroke:red;stroke-width:1px;stroke-linecap:butt;stroke-linejoin:miter;stroke-opacity:1" d="M 343.656,815.239 340.012,808.679 z" id="boundary" inkscape:connector-curvature="0" />
	<path style="fill:none;stroke:red;stroke-width:1px;stroke-linecap:butt;stroke-linejoin:miter;stroke-opacity:1" d="M 350.216,829.087 346.572,822.528 z" id="boundary" inkscape:connector-curvature="0" />
	<path style="fill:none;stroke:red;stroke-width:1px;stroke-linecap:butt;stroke-linejoin:miter;stroke-opacity:1" d="M 427.477,729.96 431.121,736.52 z" id="boundary" inkscape:connector-curvature="0" />
	<path style="fill:none;stroke:red;stroke-width:1px;stroke-linecap:butt;stroke-linejoin:miter;stroke-opacity:1" d="M 434.766,743.08 431.121,736.52 z" id="boundary" inkscape:connector-curvature="0" />
	<path style="fill:none;stroke:red;stroke-width:1px;stroke-linecap:butt;stroke-linejoin:miter;stroke-opacity:1" d="M 353.86,835.647 350.216,829.087 z" id="boundary" inkscape:connector-curvature="0" />
	<path style="fill:none;stroke:red;stroke-width:1px;stroke-linecap:butt;stroke-linejoin:miter;stroke-opacity:1" d="M 353.86,835.647 356.047,842.936 z" id="boundary" inkscape:connector-curvature="0" />
	<path style="fill:none;stroke:red;stroke-width:1px;stroke-linecap:butt;stroke-linejoin:miter;stroke-opacity:1" d="M 356.047,842.936 359.691,849.496 z" id="boundary" inkscape:connector-curvature="0" />
	<path style="fill:none;stroke:red;stroke-width:1px;stroke-linecap:butt;stroke-linejoin:miter;stroke-opacity:1" d="M 362.607,856.785 359.691,849.496 z" id="boundary" inkscape:connector-curvature="0" />
	<path style="fill:none;stroke:red;stroke-width:1px;stroke-linecap:butt;stroke-linejoin:miter;stroke-opacity:1" d="M 369.167,870.633 366.251,863.345 z" id="boundary" inkscape:connector-curvature="0" />
	<path style="fill:none;stroke:red;stroke-width:1px;stroke-linecap:butt;stroke-linejoin:miter;stroke-opacity:1" d="M 380.1,881.566 374.998,875.735 z" id="boundary" inkscape:connector-curvature="0" />
	<path style="fill:none;stroke:red;stroke-width:1px;stroke-linecap:butt;stroke-linejoin:miter;stroke-opacity:1" d="M 374.998,875.735 369.167,870.633 z" id="boundary" inkscape:connector-curvature="0" />
	<path style="fill:none;stroke:red;stroke-width:1px;stroke-linecap:butt;stroke-linejoin:miter;stroke-opacity:1" d="M 366.251,863.345 362.607,856.785 z" id="boundary" inkscape:connector-curvature="0" />
	<path style="fill:none;stroke:red;stroke-width:1px;stroke-linecap:butt;stroke-linejoin:miter;stroke-opacity:1" d="M 385.931,886.669 391.033,892.5 z" id="boundary" inkscape:connector-curvature="0" />
	<path style="fill:none;stroke:red;stroke-width:1px;stroke-linecap:butt;stroke-linejoin:miter;stroke-opacity:1" d="M 385.931,886.669 380.1,881.566 z" id="boundary" inkscape:connector-curvature="0" />
	<path style="fill:none;stroke:red;stroke-width:1px;stroke-linecap:butt;stroke-linejoin:miter;stroke-opacity:1" d="M 391.033,892.5 396.864,897.602 z" id="boundary" inkscape:connector-curvature="0" />
	<path style="fill:none;stroke:red;stroke-width:1px;stroke-linecap:butt;stroke-linejoin:miter;stroke-opacity:1" d="M 396.864,897.602 401.966,903.433 z" id="boundary" inkscape:connector-curvature="0" />
	<path style="fill:none;stroke:red;stroke-width:1px;stroke-linecap:butt;stroke-linejoin:miter;stroke-opacity:1" d="M 401.966,903.433 407.797,908.535 z" id="boundary" inkscape:connector-curvature="0" />
	<path style="fill:none;stroke:red;stroke-width:1px;stroke-linecap:butt;stroke-linejoin:miter;stroke-opacity:1" d="M 425.29,923.112 418.73,919.468 z" id="boundary" inkscape:connector-curvature="0" />
	<path style="fill:none;stroke:red;stroke-width:1px;stroke-linecap:butt;stroke-linejoin:miter;stroke-opacity:1" d="M 418.73,919.468 412.899,914.366 z" id="boundary" inkscape:connector-curvature="0" />
	<path style="fill:none;stroke:red;stroke-width:1px;stroke-linecap:butt;stroke-linejoin:miter;stroke-opacity:1" d="M 407.797,908.535 412.899,914.366 z" id="boundary" inkscape:connector-curvature="0" />
	<path style="fill:none;stroke:red;stroke-width:1px;stroke-linecap:butt;stroke-linejoin:miter;stroke-opacity:1" d="M 425.29,923.112 431.121,928.215 z" id="boundary" inkscape:connector-curvature="0" />
	<path style="fill:none;stroke:red;stroke-width:1px;stroke-linecap:butt;stroke-linejoin:miter;stroke-opacity:1" d="M 436.223,934.046 431.121,928.215 z" id="boundary" inkscape:connector-curvature="0" />
	<path style="fill:none;stroke:red;stroke-width:1px;stroke-linecap:butt;stroke-linejoin:miter;stroke-opacity:1" d="M 436.223,934.046 442.054,939.148 z" id="boundary" inkscape:connector-curvature="0" />
	<path style="fill:none;stroke:red;stroke-width:1px;stroke-linecap:butt;stroke-linejoin:miter;stroke-opacity:1" d="M 434.766,743.08 438.41,749.64 z" id="boundary" inkscape:connector-curvature="0" />
	<path style="fill:none;stroke:red;stroke-width:1px;stroke-linecap:butt;stroke-linejoin:miter;stroke-opacity:1" d="M 442.054,763.489 438.41,756.929 z" id="boundary" inkscape:connector-curvature="0" />
	<path style="fill:none;stroke:red;stroke-width:1px;stroke-linecap:butt;stroke-linejoin:miter;stroke-opacity:1" d="M 445.699,770.048 442.054,763.489 z" id="boundary" inkscape:connector-curvature="0" />
	<path style="fill:none;stroke:red;stroke-width:1px;stroke-linecap:butt;stroke-linejoin:miter;stroke-opacity:1" d="M 445.699,770.048 449.343,776.608 z" id="boundary" inkscape:connector-curvature="0" />
	<path style="fill:none;stroke:red;stroke-width:1px;stroke-linecap:butt;stroke-linejoin:miter;stroke-opacity:1" d="M 449.343,776.608 452.988,783.168 z" id="boundary" inkscape:connector-curvature="0" />
	<path style="fill:none;stroke:red;stroke-width:1px;stroke-linecap:butt;stroke-linejoin:miter;stroke-opacity:1" d="M 438.41,756.929 438.41,749.64 z" id="boundary" inkscape:connector-curvature="0" />
	<path style="fill:none;stroke:red;stroke-width:1px;stroke-linecap:butt;stroke-linejoin:miter;stroke-opacity:1" d="M 456.632,789.728 452.988,783.168 z" id="boundary" inkscape:connector-curvature="0" />
	<path style="fill:none;stroke:red;stroke-width:1px;stroke-linecap:butt;stroke-linejoin:miter;stroke-opacity:1" d="M 456.632,789.728 456.632,797.017 z" id="boundary" inkscape:connector-curvature="0" />
	<path style="fill:none;stroke:red;stroke-width:1px;stroke-linecap:butt;stroke-linejoin:miter;stroke-opacity:1" d="M 456.632,797.017 460.276,803.577 z" id="boundary" inkscape:connector-curvature="0" />
	<path style="fill:none;stroke:red;stroke-width:1px;stroke-linecap:butt;stroke-linejoin:miter;stroke-opacity:1" d="M 467.565,816.697 463.921,810.137 z" id="boundary" inkscape:connector-curvature="0" />
	<path style="fill:none;stroke:red;stroke-width:1px;stroke-linecap:butt;stroke-linejoin:miter;stroke-opacity:1" d="M 463.921,810.137 460.276,803.577 z" id="boundary" inkscape:connector-curvature="0" />
	<path style="fill:none;stroke:red;stroke-width:1px;stroke-linecap:butt;stroke-linejoin:miter;stroke-opacity:1" d="M 467.565,816.697 467.565,823.985 z" id="boundary" inkscape:connector-curvature="0" />
	<path style="fill:none;stroke:red;stroke-width:1px;stroke-linecap:butt;stroke-linejoin:miter;stroke-opacity:1" d="M 471.209,830.545 467.565,823.985 z" id="boundary" inkscape:connector-curvature="0" />
	<path style="fill:none;stroke:red;stroke-width:1px;stroke-linecap:butt;stroke-linejoin:miter;stroke-opacity:1" d="M 471.209,830.545 471.209,837.834 z" id="boundary" inkscape:connector-curvature="0" />
	<path style="fill:none;stroke:red;stroke-width:1px;stroke-linecap:butt;stroke-linejoin:miter;stroke-opacity:1" d="M 474.854,851.683 474.854,858.971 z" id="boundary" inkscape:connector-curvature="0" />
	<path style="fill:none;stroke:red;stroke-width:1px;stroke-linecap:butt;stroke-linejoin:miter;stroke-opacity:1" d="M 474.854,851.683 471.209,845.123 z" id="boundary" inkscape:connector-curvature="0" />
	<path style="fill:none;stroke:red;stroke-width:1px;stroke-linecap:butt;stroke-linejoin:miter;stroke-opacity:1" d="M 474.854,866.26 474.854,858.971 z" id="boundary" inkscape:connector-curvature="0" />
	<path style="fill:none;stroke:red;stroke-width:1px;stroke-linecap:butt;stroke-linejoin:miter;stroke-opacity:1" d="M 471.209,845.123 471.209,837.834 z" id="boundary" inkscape:connector-curvature="0" />
	<path style="fill:none;stroke:red;stroke-width:1px;stroke-linecap:butt;stroke-linejoin:miter;stroke-opacity:1" d="M 474.854,866.26 474.854,873.549 z" id="boundary" inkscape:connector-curvature="0" />
	<path style="fill:none;stroke:red;stroke-width:1px;stroke-linecap:butt;stroke-linejoin:miter;stroke-opacity:1" d="M 474.854,880.838 474.854,873.549 z" id="boundary" inkscape:connector-curvature="0" />
	<path style="fill:none;stroke:red;stroke-width:1px;stroke-linecap:butt;stroke-linejoin:miter;stroke-opacity:1" d="M 474.854,888.126 474.854,895.415 z" id="boundary" inkscape:connector-curvature="0" />
	<path style="fill:none;stroke:red;stroke-width:1px;stroke-linecap:butt;stroke-linejoin:miter;stroke-opacity:1" d="M 474.854,909.993 474.854,902.704 z" id="boundary" inkscape:connector-curvature="0" />
	<path style="fill:none;stroke:red;stroke-width:1px;stroke-linecap:butt;stroke-linejoin:miter;stroke-opacity:1" d="M 474.854,902.704 474.854,895.415 z" id="boundary" inkscape:connector-curvature="0" />
	<path style="fill:none;stroke:red;stroke-width:1px;stroke-linecap:butt;stroke-linejoin:miter;stroke-opacity:1" d="M 474.854,888.126 474.854,880.838 z" id="boundary" inkscape:connector-curvature="0" />
	<path style="fill:none;stroke:red;stroke-width:1px;stroke-linecap:butt;stroke-linejoin:miter;stroke-opacity:1" d="M 448.614,942.792 442.054,939.148 z" id="boundary" inkscape:connector-curvature="0" />
	<path style="fill:none;stroke:red;stroke-width:1px;stroke-linecap:butt;stroke-linejoin:miter;stroke-opacity:1" d="M 448.614,942.792 454.445,947.894 z" id="boundary" inkscape:connector-curvature="0" />
	<path style="fill:none;stroke:red;stroke-width:1px;stroke-linecap:butt;stroke-linejoin:miter;stroke-opacity:1" d="M 474.854,909.993 474.854,917.281 z" id="boundary" inkscape:connector-curvature="0" />
	<path style="fill:none;stroke:red;stroke-width:1px;stroke-linecap:butt;stroke-linejoin:miter;stroke-opacity:1" d="M 459.547,953.725 454.445,947.894 z" id="boundary" inkscape:connector-curvature="0" />
	<path style="fill:none;stroke:red;stroke-width:1px;stroke-linecap:butt;stroke-linejoin:miter;stroke-opacity:1" d="M 463.192,960.285 459.547,953.725 z" id="boundary" inkscape:connector-curvature="0" />
	<path style="fill:none;stroke:red;stroke-width:1px;stroke-linecap:butt;stroke-linejoin:miter;stroke-opacity:1" d="M 463.192,960.285 466.836,966.845 z" id="boundary" inkscape:connector-curvature="0" />
	<path style="fill:none;stroke:red;stroke-width:1px;stroke-linecap:butt;stroke-linejoin:miter;stroke-opacity:1" d="M 466.836,966.845 470.481,973.405 z" id="boundary" inkscape:connector-curvature="0" />
	<path style="fill:none;stroke:red;stroke-width:1px;stroke-linecap:butt;stroke-linejoin:miter;stroke-opacity:1" d="M 470.481,973.405 471.938,980.694 z" id="boundary" inkscape:connector-curvature="0" />
	<path style="fill:none;stroke:red;stroke-width:1px;stroke-linecap:butt;stroke-linejoin:miter;stroke-opacity:1" d="M 471.938,980.694 477.769,985.067 z" id="boundary" inkscape:connector-curvature="0" />
	<path style="fill:none;stroke:red;stroke-width:1px;stroke-linecap:butt;stroke-linejoin:miter;stroke-opacity:1" d="M 474.854,917.281 478.498,923.841 z" id="boundary" inkscape:connector-curvature="0" />
	<path style="fill:none;stroke:red;stroke-width:1px;stroke-linecap:butt;stroke-linejoin:miter;stroke-opacity:1" d="M 478.498,931.13 478.498,938.419 z" id="boundary" inkscape:connector-curvature="0" />
	<path style="fill:none;stroke:red;stroke-width:1px;stroke-linecap:butt;stroke-linejoin:miter;stroke-opacity:1" d="M 478.498,945.708 478.498,938.419 z" id="boundary" inkscape:connector-curvature="0" />
	<path style="fill:none;stroke:red;stroke-width:1px;stroke-linecap:butt;stroke-linejoin:miter;stroke-opacity:1" d="M 478.498,952.996 482.143,959.556 z" id="boundary" inkscape:connector-curvature="0" />
	<path style="fill:none;stroke:red;stroke-width:1px;stroke-linecap:butt;stroke-linejoin:miter;stroke-opacity:1" d="M 478.498,952.996 478.498,945.708 z" id="boundary" inkscape:connector-curvature="0" />
	<path style="fill:none;stroke:red;stroke-width:1px;stroke-linecap:butt;stroke-linejoin:miter;stroke-opacity:1" d="M 485.787,966.116 482.143,959.556 z" id="boundary" inkscape:connector-curvature="0" />
	<path style="fill:none;stroke:red;stroke-width:1px;stroke-linecap:butt;stroke-linejoin:miter;stroke-opacity:1" d="M 478.498,931.13 478.498,923.841 z" id="boundary" inkscape:connector-curvature="0" />
	<path style="fill:none;stroke:red;stroke-width:1px;stroke-linecap:butt;stroke-linejoin:miter;stroke-opacity:1" d="M 477.769,985.067 479.956,992.356 z" id="boundary" inkscape:connector-curvature="0" />
	<path style="fill:none;stroke:red;stroke-width:1px;stroke-linecap:butt;stroke-linejoin:miter;stroke-opacity:1" d="M 489.431,979.965 489.431,972.676 z" id="boundary" inkscape:connector-curvature="0" />
	<path style="fill:none;stroke:red;stroke-width:1px;stroke-linecap:butt;stroke-linejoin:miter;stroke-opacity:1" d="M 489.431,972.676 485.787,966.116 z" id="boundary" inkscape:connector-curvature="0" />
	<path style="fill:none;stroke:red;stroke-width:1px;stroke-linecap:butt;stroke-linejoin:miter;stroke-opacity:1" d="M 493.076,986.525 489.431,979.965 z" id="boundary" inkscape:connector-curvature="0" />
	<path style="fill:none;stroke:red;stroke-width:1px;stroke-linecap:butt;stroke-linejoin:miter;stroke-opacity:1" d="M 486.516,996 479.956,992.356 z" id="boundary" inkscape:connector-curvature="0" />
	<path style="fill:none;stroke:red;stroke-width:1px;stroke-linecap:butt;stroke-linejoin:miter;stroke-opacity:1" d="M 486.516,996 493.076,986.525 z" id="boundary" inkscape:connector-curvature="0" />
	<circle cx="4" cy="38.986" r="4" fill="#0" id="circle0"/>
	<circle cx="4" cy="46.2748" r="4" fill="#0" id="circle1"/>
	<circle cx="7.64438" cy="31.6973" r="4" fill="#0" id="circle2"/>
	<circle cx="7.64438" cy="52.8347" r="4" fill="#0" id="circle3"/>
	<circle cx="7.64438" cy="60.1234" r="4" fill="#0" id="circle4"/>
	<circle cx="11.2888" cy="66.6833" r="4" fill="#0" id="circle5"/>
	<circle cx="13.4754" cy="25.8663" r="4" fill="#0" id="circle6"/>
	<circle cx="13.4754" cy="73.9721" r="4" fill="#0" id="circle7"/>
	<circle cx="17.1198" cy="18.5775" r="4" fill="#0" id="circle8"/>
	<circle cx="17.1198" cy="80.532" r="4" fill="#0" id="circle9"/>
	<circle cx="18.5775" cy="87.8207" r="4" fill="#0" id="circle10"/>
	<circle cx="22.2219" cy="94.3806" r="4" fill="#0" id="circle11"/>
	<circle cx="22.9508" cy="12.7465" r="4" fill="#0" id="circle12"/>
	<circle cx="25.8663" cy="100.94" r="4" fill="#0" id="circle13"/>
	<circle cx="25.8663" cy="108.229" r="4" fill="#0" id="circle14"/>
	<circle cx="25.8663" cy="115.518" r="4" fill="#0" id="circle15"/>
	<circle cx="25.8663" cy="122.807" r="4" fill="#0" id="circle16"/>
	<circle cx="29.5107" cy="129.367" r="4" fill="#0" id="circle17"/>
	<circle cx="30.2395" cy="9.10213" r="4" fill="#0" id="circle18"/>
	<circle cx="33.155" cy="135.927" r="4" fill="#0" id="circle19"/>
	<circle cx="36.7994" cy="142.486" r="4" fill="#0" id="circle20"/>
	<circle cx="37.5283" cy="5.45775" r="4" fill="#0" id="circle21"/>
	<circle cx="40.4438" cy="149.046" r="4" fill="#0" id="circle22"/>
	<circle cx="44.0882" cy="155.606" r="4" fill="#0" id="circle23"/>
	<circle cx="44.0882" cy="162.895" r="4" fill="#0" id="circle24"/>
	<circle cx="44.817" cy="4" r="4" fill="#0" id="circle25"/>
	<circle cx="49.9192" cy="167.997" r="4" fill="#0" id="circle26"/>
	<circle cx="52.1058" cy="4" r="4" fill="#0" id="circle27"/>
	<circle cx="52.8347" cy="175.286" r="4" fill="#0" id="circle28"/>
	<circle cx="56.4791" cy="181.846" r="4" fill="#0" id="circle29"/>
	<circle cx="59.3946" cy="4" r="4" fill="#0" id="circle30"/>
	<circle cx="62.3101" cy="186.948" r="4" fill="#0" id="circle31"/>
	<circle cx="64.4967" cy="194.237" r="4" fill="#0" id="circle32"/>
	<circle cx="65.9544" cy="201.525" r="4" fill="#0" id="circle33"/>
	<circle cx="66.6833" cy="4" r="4" fill="#0" id="circle34"/>
	<circle cx="69.5988" cy="208.085" r="4" fill="#0" id="circle35"/>
	<circle cx="73.2432" cy="214.645" r="4" fill="#0" id="circle36"/>
	<circle cx="73.9721" cy="6.18663" r="4" fill="#0" id="circle37"/>
	<circle cx="76.8876" cy="221.205" r="4" fill="#0" id="circle38"/>
	<circle cx="80.532" cy="227.765" r="4" fill="#0" id="circle39"/>
	<circle cx="81.2608" cy="7.64438" r="4" fill="#0" id="circle40"/>
	<circle cx="84.1763" cy="234.325" r="4" fill="#0" id="circle41"/>
	<circle cx="87.8207" cy="11.2888" r="4" fill="#0" id="circle42"/>
	<circle cx="87.8207" cy="240.885" r="4" fill="#0" id="circle43"/>
	<circle cx="89.2785" cy="248.173" r="4" fill="#0" id="circle44"/>
	<circle cx="92.9229" cy="254.733" r="4" fill="#0" id="circle45"/>
	<circle cx="93.6517" cy="15.662" r="4" fill="#0" id="circle46"/>
	<circle cx="95.1095" cy="262.022" r="4" fill="#0" id="circle47"/>
	<circle cx="98.7539" cy="268.582" r="4" fill="#0" id="circle48"/>
	<circle cx="99.4827" cy="20.7641" r="4" fill="#0" id="circle49"/>
	<circle cx="102.398" cy="275.142" r="4" fill="#0" id="circle50"/>
	<circle cx="103.127" cy="27.324" r="4" fill="#0" id="circle51"/>
	<circle cx="106.043" cy="281.702" r="4" fill="#0" id="circle52"/>
	<circle cx="106.771" cy="33.8839" r="4" fill="#0" id="circle53"/>
	<circle cx="108.229" cy="288.99" r="4" fill="#0" id="circle54"/>
	<circle cx="110.416" cy="40.4438" r="4" fill="#0" id="circle55"/>
	<circle cx="110.416" cy="47.7325" r="4" fill="#0" id="circle56"/>
	<circle cx="113.331" cy="294.821" r="4" fill="#0" id="circle57"/>
	<circle cx="114.06" cy="54.2924" r="4" fill="#0" id="circle58"/>
	<circle cx="114.06" cy="302.11" r="4" fill="#0" id="circle59"/>
	<circle cx="116.976" cy="309.399" r="4" fill="#0" id="circle60"/>
	<circle cx="117.705" cy="60.8523" r="4" fill="#0" id="circle61"/>
	<circle cx="120.62" cy="68.1411" r="4" fill="#0" id="circle62"/>
	<circle cx="120.62" cy="315.959" r="4" fill="#0" id="circle63"/>
	<circle cx="124.265" cy="322.519" r="4" fill="#0" id="circle64"/>
	<circle cx="126.451" cy="73.2432" r="4" fill="#0" id="circle65"/>
	<circle cx="127.909" cy="329.079" r="4" fill="#0" id="circle66"/>
	<circle cx="131.553" cy="335.639" r="4" fill="#0" id="circle67"/>
	<circle cx="132.282" cy="77.6165" r="4" fill="#0" id="circle68"/>
	<circle cx="133.011" cy="342.927" r="4" fill="#0" id="circle69"/>
	<circle cx="135.927" cy="84.1763" r="4" fill="#0" id="circle70"/>
	<circle cx="136.655" cy="349.487" r="4" fill="#0" id="circle71"/>
	<circle cx="139.571" cy="90.7362" r="4" fill="#0" id="circle72"/>
	<circle cx="139.571" cy="356.776" r="4" fill="#0" id="circle73"/>
	<circle cx="142.486" cy="364.065" r="4" fill="#0" id="circle74"/>
	<circle cx="143.215" cy="97.2961" r="4" fill="#0" id="circle75"/>
	<circle cx="146.131" cy="370.625" r="4" fill="#0" id="circle76"/>
	<circle cx="146.86" cy="103.856" r="4" fill="#0" id="circle77"/>
	<circle cx="149.775" cy="377.184" r="4" fill="#0" id="circle78"/>
	<circle cx="150.504" cy="110.416" r="4" fill="#0" id="circle79"/>
	<circle cx="153.42" cy="383.744" r="4" fill="#0" id="circle80"/>
	<circle cx="154.148" cy="116.976" r="4" fill="#0" id="circle81"/>
	<circle cx="154.148" cy="124.265" r="4" fill="#0" id="circle82"/>
	<circle cx="155.606" cy="391.033" r="4" fill="#0" id="circle83"/>
	<circle cx="157.793" cy="130.824" r="4" fill="#0" id="circle84"/>
	<circle cx="159.251" cy="397.593" r="4" fill="#0" id="circle85"/>
	<circle cx="160.708" cy="404.882" r="4" fill="#0" id="circle86"/>
	<circle cx="161.437" cy="137.384" r="4" fill="#0" id="circle87"/>
	<circle cx="164.353" cy="144.673" r="4" fill="#0" id="circle88"/>
	<circle cx="164.353" cy="411.442" r="4" fill="#0" id="circle89"/>
	<circle cx="165.082" cy="151.962" r="4" fill="#0" id="circle90"/>
	<circle cx="165.082" cy="418.73" r="4" fill="#0" id="circle91"/>
	<circle cx="168.726" cy="158.522" r="4" fill="#0" id="circle92"/>
	<circle cx="170.913" cy="423.832" r="4" fill="#0" id="circle93"/>
	<circle cx="172.37" cy="165.082" r="4" fill="#0" id="circle94"/>
	<circle cx="173.828" cy="431.121" r="4" fill="#0" id="circle95"/>
	<circle cx="175.286" cy="438.41" r="4" fill="#0" id="circle96"/>
	<circle cx="176.015" cy="171.641" r="4" fill="#0" id="circle97"/>
	<circle cx="176.015" cy="178.93" r="4" fill="#0" id="circle98"/>
	<circle cx="178.93" cy="444.97" r="4" fill="#0" id="circle99"/>
	<circle cx="179.659" cy="185.49" r="4" fill="#0" id="circle100"/>
	<circle cx="182.575" cy="451.53" r="4" fill="#0" id="circle101"/>
	<circle cx="183.303" cy="192.05" r="4" fill="#0" id="circle102"/>
	<circle cx="186.219" cy="458.09" r="4" fill="#0" id="circle103"/>
	<circle cx="186.948" cy="198.61" r="4" fill="#0" id="circle104"/>
	<circle cx="189.134" cy="205.899" r="4" fill="#0" id="circle105"/>
	<circle cx="189.863" cy="464.65" r="4" fill="#0" id="circle106"/>
	<circle cx="189.863" cy="471.938" r="4" fill="#0" id="circle107"/>
	<circle cx="192.779" cy="212.458" r="4" fill="#0" id="circle108"/>
	<circle cx="193.508" cy="478.498" r="4" fill="#0" id="circle109"/>
	<circle cx="195.694" cy="219.747" r="4" fill="#0" id="circle110"/>
	<circle cx="197.152" cy="485.058" r="4" fill="#0" id="circle111"/>
	<circle cx="199.339" cy="226.307" r="4" fill="#0" id="circle112"/>
	<circle cx="200.796" cy="491.618" r="4" fill="#0" id="circle113"/>
	<circle cx="201.525" cy="233.596" r="4" fill="#0" id="circle114"/>
	<circle cx="204.441" cy="498.178" r="4" fill="#0" id="circle115"/>
	<circle cx="204.441" cy="505.467" r="4" fill="#0" id="circle116"/>
	<circle cx="205.17" cy="240.156" r="4" fill="#0" id="circle117"/>
	<circle cx="208.085" cy="512.026" r="4" fill="#0" id="circle118"/>
	<circle cx="208.814" cy="246.716" r="4" fill="#0" id="circle119"/>
	<circle cx="211.73" cy="254.004" r="4" fill="#0" id="circle120"/>
	<circle cx="211.73" cy="518.586" r="4" fill="#0" id="circle121"/>
	<circle cx="212.458" cy="261.293" r="4" fill="#0" id="circle122"/>
	<circle cx="215.374" cy="525.146" r="4" fill="#0" id="circle123"/>
	<circle cx="216.103" cy="267.853" r="4" fill="#0" id="circle124"/>
	<circle cx="216.832" cy="532.435" r="4" fill="#0" id="circle125"/>
	<circle cx="219.747" cy="274.413" r="4" fill="#0" id="circle126"/>
	<circle cx="220.476" cy="538.995" r="4" fill="#0" id="circle127"/>
	<circle cx="223.392" cy="280.973" r="4" fill="#0" id="circle128"/>
	<circle cx="223.392" cy="546.284" r="4" fill="#0" id="circle129"/>
	<circle cx="227.036" cy="287.533" r="4" fill="#0" id="circle130"/>
	<circle cx="227.036" cy="552.843" r="4" fill="#0" id="circle131"/>
	<circle cx="229.952" cy="560.132" r="4" fill="#0" id="circle132"/>
	<circle cx="230.68" cy="294.093" r="4" fill="#0" id="circle133"/>
	<circle cx="233.596" cy="301.381" r="4" fill="#0" id="circle134"/>
	<circle cx="233.596" cy="566.692" r="4" fill="#0" id="circle135"/>
	<circle cx="234.325" cy="308.67" r="4" fill="#0" id="circle136"/>
	<circle cx="237.24" cy="573.252" r="4" fill="#0" id="circle137"/>
	<circle cx="237.969" cy="315.23" r="4" fill="#0" id="circle138"/>
	<circle cx="239.427" cy="580.541" r="4" fill="#0" id="circle139"/>
	<circle cx="241.614" cy="321.79" r="4" fill="#0" id="circle140"/>
	<circle cx="243.071" cy="587.101" r="4" fill="#0" id="circle141"/>
	<circle cx="245.258" cy="328.35" r="4" fill="#0" id="circle142"/>
	<circle cx="245.987" cy="594.389" r="4" fill="#0" id="circle143"/>
	<circle cx="248.173" cy="601.678" r="4" fill="#0" id="circle144"/>
	<circle cx="248.902" cy="334.91" r="4" fill="#0" id="circle145"/>
	<circle cx="252.547" cy="341.47" r="4" fill="#0" id="circle146"/>
	<circle cx="252.547" cy="607.509" r="4" fill="#0" id="circle147"/>
	<circle cx="255.462" cy="348.758" r="4" fill="#0" id="circle148"/>
	<circle cx="255.462" cy="614.798" r="4" fill="#0" id="circle149"/>
	<circle cx="256.191" cy="356.047" r="4" fill="#0" id="circle150"/>
	<circle cx="259.107" cy="621.358" r="4" fill="#0" id="circle151"/>
	<circle cx="259.107" cy="628.647" r="4" fill="#0" id="circle152"/>
	<circle cx="259.835" cy="362.607" r="4" fill="#0" id="circle153"/>
	<circle cx="262.751" cy="635.206" r="4" fill="#0" id="circle154"/>
	<circle cx="263.48" cy="369.167" r="4" fill="#0" id="circle155"/>
	<circle cx="266.395" cy="641.766" r="4" fill="#0" id="circle156"/>
	<circle cx="267.124" cy="375.727" r="4" fill="#0" id="circle157"/>
	<circle cx="270.04" cy="648.326" r="4" fill="#0" id="circle158"/>
	<circle cx="270.769" cy="382.287" r="4" fill="#0" id="circle159"/>
	<circle cx="273.684" cy="654.886" r="4" fill="#0" id="circle160"/>
	<circle cx="273.684" cy="662.175" r="4" fill="#0" id="circle161"/>
	<circle cx="274.413" cy="388.846" r="4" fill="#0" id="circle162"/>
	<circle cx="274.413" cy="396.135" r="4" fill="#0" id="circle163"/>
	<circle cx="277.328" cy="668.735" r="4" fill="#0" id="circle164"/>
	<circle cx="278.057" cy="402.695" r="4" fill="#0" id="circle165"/>
	<circle cx="280.973" cy="675.295" r="4" fill="#0" id="circle166"/>
	<circle cx="281.702" cy="409.255" r="4" fill="#0" id="circle167"/>
	<circle cx="284.617" cy="681.855" r="4" fill="#0" id="circle168"/>
	<circle cx="285.346" cy="415.815" r="4" fill="#0" id="circle169"/>
	<circle cx="285.346" cy="423.104" r="4" fill="#0" id="circle170"/>
	<circle cx="288.262" cy="688.414" r="4" fill="#0" id="circle171"/>
	<circle cx="288.99" cy="429.663" r="4" fill="#0" id="circle172"/>
	<circle cx="288.99" cy="695.703" r="4" fill="#0" id="circle173"/>
	<circle cx="292.635" cy="436.223" r="4" fill="#0" id="circle174"/>
	<circle cx="292.635" cy="702.263" r="4" fill="#0" id="circle175"/>
	<circle cx="295.55" cy="709.552" r="4" fill="#0" id="circle176"/>
	<circle cx="296.279" cy="442.783" r="4" fill="#0" id="circle177"/>
	<circle cx="299.195" cy="716.112" r="4" fill="#0" id="circle178"/>
	<circle cx="299.924" cy="449.343" r="4" fill="#0" id="circle179"/>
	<circle cx="302.839" cy="722.672" r="4" fill="#0" id="circle180"/>
	<circle cx="303.568" cy="455.903" r="4" fill="#0" id="circle181"/>
	<circle cx="303.568" cy="463.192" r="4" fill="#0" id="circle182"/>
	<circle cx="306.483" cy="729.231" r="4" fill="#0" id="circle183"/>
	<circle cx="307.941" cy="736.52" r="4" fill="#0" id="circle184"/>
	<circle cx="309.399" cy="467.565" r="4" fill="#0" id="circle185"/>
	<circle cx="310.857" cy="474.854" r="4" fill="#0" id="circle186"/>
	<circle cx="313.772" cy="740.893" r="4" fill="#0" id="circle187"/>
	<circle cx="313.772" cy="748.182" r="4" fill="#0" id="circle188"/>
	<circle cx="314.501" cy="481.414" r="4" fill="#0" id="circle189"/>
	<circle cx="317.417" cy="754.742" r="4" fill="#0" id="circle190"/>
	<circle cx="318.145" cy="487.974" r="4" fill="#0" id="circle191"/>
	<circle cx="318.145" cy="495.262" r="4" fill="#0" id="circle192"/>
	<circle cx="321.061" cy="761.302" r="4" fill="#0" id="circle193"/>
	<circle cx="323.976" cy="500.364" r="4" fill="#0" id="circle194"/>
	<circle cx="324.705" cy="767.862" r="4" fill="#0" id="circle195"/>
	<circle cx="326.892" cy="507.653" r="4" fill="#0" id="circle196"/>
	<circle cx="328.35" cy="774.422" r="4" fill="#0" id="circle197"/>
	<circle cx="328.35" cy="781.711" r="4" fill="#0" id="circle198"/>
	<circle cx="329.079" cy="514.942" r="4" fill="#0" id="circle199"/>
	<circle cx="331.994" cy="788.27" r="4" fill="#0" id="circle200"/>
	<circle cx="332.723" cy="521.502" r="4" fill="#0" id="circle201"/>
	<circle cx="335.639" cy="794.83" r="4" fill="#0" id="circle202"/>
	<circle cx="336.367" cy="528.062" r="4" fill="#0" id="circle203"/>
	<circle cx="339.283" cy="801.39" r="4" fill="#0" id="circle204"/>
	<circle cx="340.012" cy="534.622" r="4" fill="#0" id="circle205"/>
	<circle cx="340.012" cy="808.679" r="4" fill="#0" id="circle206"/>
	<circle cx="342.927" cy="541.91" r="4" fill="#0" id="circle207"/>
	<circle cx="343.656" cy="549.199" r="4" fill="#0" id="circle208"/>
	<circle cx="343.656" cy="815.239" r="4" fill="#0" id="circle209"/>
	<circle cx="346.572" cy="822.528" r="4" fill="#0" id="circle210"/>
	<circle cx="347.301" cy="555.759" r="4" fill="#0" id="circle211"/>
	<circle cx="350.216" cy="829.087" r="4" fill="#0" id="circle212"/>
	<circle cx="350.945" cy="562.319" r="4" fill="#0" id="circle213"/>
	<circle cx="353.86" cy="835.647" r="4" fill="#0" id="circle214"/>
	<circle cx="354.589" cy="568.879" r="4" fill="#0" id="circle215"/>
	<circle cx="354.589" cy="576.168" r="4" fill="#0" id="circle216"/>
	<circle cx="356.047" cy="842.936" r="4" fill="#0" id="circle217"/>
	<circle cx="358.234" cy="582.727" r="4" fill="#0" id="circle218"/>
	<circle cx="359.691" cy="849.496" r="4" fill="#0" id="circle219"/>
	<circle cx="361.878" cy="589.287" r="4" fill="#0" id="circle220"/>
	<circle cx="362.607" cy="856.785" r="4" fill="#0" id="circle221"/>
	<circle cx="365.522" cy="595.847" r="4" fill="#0" id="circle222"/>
	<circle cx="366.251" cy="863.345" r="4" fill="#0" id="circle223"/>
	<circle cx="367.709" cy="603.136" r="4" fill="#0" id="circle224"/>
	<circle cx="369.167" cy="870.633" r="4" fill="#0" id="circle225"/>
	<circle cx="372.811" cy="608.967" r="4" fill="#0" id="circle226"/>
	<circle cx="374.998" cy="875.735" r="4" fill="#0" id="circle227"/>
	<circle cx="376.456" cy="615.527" r="4" fill="#0" id="circle228"/>
	<circle cx="376.456" cy="622.816" r="4" fill="#0" id="circle229"/>
	<circle cx="380.1" cy="629.375" r="4" fill="#0" id="circle230"/>
	<circle cx="380.1" cy="881.566" r="4" fill="#0" id="circle231"/>
	<circle cx="383.744" cy="635.935" r="4" fill="#0" id="circle232"/>
	<circle cx="385.931" cy="886.669" r="4" fill="#0" id="circle233"/>
	<circle cx="387.389" cy="642.495" r="4" fill="#0" id="circle234"/>
	<circle cx="388.846" cy="649.784" r="4" fill="#0" id="circle235"/>
	<circle cx="391.033" cy="892.5" r="4" fill="#0" id="circle236"/>
	<circle cx="392.491" cy="656.344" r="4" fill="#0" id="circle237"/>
	<circle cx="394.677" cy="663.633" r="4" fill="#0" id="circle238"/>
	<circle cx="396.864" cy="897.602" r="4" fill="#0" id="circle239"/>
	<circle cx="398.322" cy="670.193" r="4" fill="#0" id="circle240"/>
	<circle cx="401.966" cy="676.752" r="4" fill="#0" id="circle241"/>
	<circle cx="401.966" cy="903.433" r="4" fill="#0" id="circle242"/>
	<circle cx="405.611" cy="683.312" r="4" fill="#0" id="circle243"/>
	<circle cx="407.797" cy="908.535" r="4" fill="#0" id="circle244"/>
	<circle cx="409.255" cy="689.872" r="4" fill="#0" id="circle245"/>
	<circle cx="412.899" cy="696.432" r="4" fill="#0" id="circle246"/>
	<circle cx="412.899" cy="703.721" r="4" fill="#0" id="circle247"/>
	<circle cx="412.899" cy="914.366" r="4" fill="#0" id="circle248"/>
	<circle cx="416.544" cy="710.281" r="4" fill="#0" id="circle249"/>
	<circle cx="418.73" cy="919.468" r="4" fill="#0" id="circle250"/>
	<circle cx="420.188" cy="716.841" r="4" fill="#0" id="circle251"/>
	<circle cx="423.832" cy="723.4" r="4" fill="#0" id="circle252"/>
	<circle cx="425.29" cy="923.112" r="4" fill="#0" id="circle253"/>
	<circle cx="427.477" cy="729.96" r="4" fill="#0" id="circle254"/>
	<circle cx="431.121" cy="736.52" r="4" fill="#0" id="circle255"/>
	<circle cx="431.121" cy="928.215" r="4" fill="#0" id="circle256"/>
	<circle cx="434.766" cy="743.08" r="4" fill="#0" id="circle257"/>
	<circle cx="436.223" cy="934.046" r="4" fill="#0" id="circle258"/>
	<circle cx="438.41" cy="749.64" r="4" fill="#0" id="circle259"/>
	<circle cx="438.41" cy="756.929" r="4" fill="#0" id="circle260"/>
	<circle cx="442.054" cy="763.489" r="4" fill="#0" id="circle261"/>
	<circle cx="442.054" cy="939.148" r="4" fill="#0" id="circle262"/>
	<circle cx="445.699" cy="770.048" r="4" fill="#0" id="circle263"/>
	<circle cx="448.614" cy="942.792" r="4" fill="#0" id="circle264"/>
	<circle cx="449.343" cy="776.608" r="4" fill="#0" id="circle265"/>
	<circle cx="452.988" cy="783.168" r="4" fill="#0" id="circle266"/>
	<circle cx="454.445" cy="947.894" r="4" fill="#0" id="circle267"/>
	<circle cx="456.632" cy="789.728" r="4" fill="#0" id="circle268"/>
	<circle cx="456.632" cy="797.017" r="4" fill="#0" id="circle269"/>
	<circle cx="459.547" cy="953.725" r="4" fill="#0" id="circle270"/>
	<circle cx="460.276" cy="803.577" r="4" fill="#0" id="circle271"/>
	<circle cx="463.192" cy="960.285" r="4" fill="#0" id="circle272"/>
	<circle cx="463.921" cy="810.137" r="4" fill="#0" id="circle273"/>
	<circle cx="466.836" cy="966.845" r="4" fill="#0" id="circle274"/>
	<circle cx="467.565" cy="816.697" r="4" fill="#0" id="circle275"/>
	<circle cx="467.565" cy="823.985" r="4" fill="#0" id="circle276"/>
	<circle cx="470.481" cy="973.405" r="4" fill="#0" id="circle277"/>
	<circle cx="471.209" cy="830.545" r="4" fill="#0" id="circle278"/>
	<circle cx="471.209" cy="837.834" r="4" fill="#0" id="circle279"/>
	<circle cx="471.209" cy="845.123" r="4" fill="#0" id="circle280"/>
	<circle cx="471.938" cy="980.694" r="4" fill="#0" id="circle281"/>
	<circle cx="474.854" cy="851.683" r="4" fill="#0" id="circle282"/>
	<circle cx="474.854" cy="858.971" r="4" fill="#0" id="circle283"/>
	<circle cx="474.854" cy="866.26" r="4" fill="#0" id="circle284"/>
	<circle cx="474.854" cy="873.549" r="4" fill="#0" id="circle285"/>
	<circle cx="474.854" cy="880.838" r="4" fill="#0" id="circle286"/>
	<circle cx="474.854" cy="888.126" r="4" fill="#0" id="circle287"/>
	<circle cx="474.854" cy="895.415" r="4" fill="#0" id="circle288"/>
	<circle cx="474.854" cy="902.704" r="4" fill="#0" id="circle289"/>
	<circle cx="474.854" cy="909.993" r="4" fill="#0" id="circle290"/>
	<circle cx="474.854" cy="917.281" r="4" fill="#0" id="circle291"/>
	<circle cx="477.769" cy="985.067" r="4" fill="#0" id="circle292"/>
	<circle cx="478.498" cy="923.841" r="4" fill="#0" id="circle293"/>
	<circle cx="478.498" cy="931.13" r="4" fill="#0" id="circle294"/>
	<circle cx="478.498" cy="938.419" r="4" fill="#0" id="circle295"/>
	<circle cx="478.498" cy="945.708" r="4" fill="#0" id="circle296"/>
	<circle cx="478.498" cy="952.996" r="4" fill="#0" id="circle297"/>
	<circle cx="479.956" cy="992.356" r="4" fill="#0" id="circle298"/>
	<circle cx="482.143" cy="959.556" r="4" fill="#0" id="circle299"/>
	<circle cx="485.787" cy="966.116" r="4" fill="#0" id="circle300"/>
	<circle cx="486.516" cy="996" r="4" fill="#0" id="circle301"/>
	<circle cx="489.431" cy="972.676" r="4" fill="#0" id="circle302"/>
	<circle cx="489.431" cy="979.965" r="4" fill="#0" id="circle303"/>
	<circle cx="493.076" cy="986.525" r="4" fill="#0" id="circle304"/>
	</g>
</svg>