<?xml version="1.0" encoding="UTF-8" standalone="no"?>
<!-- Created with CurveBenchmark -->
<svg
	xmlns:dc="http://purl.org/dc/elements/1.1/"
	xmlns:cc="http://creativecommons.org/ns#"
	xmlns:rdf="http://www.w3.org/1999/02/22-rdf-syntax-ns#"
	xmlns:svg="http://www.w3.org/2000/svg"
	xmlns="http://www.w3.org/2000/svg"
	xmlns:sodipodi="http://sodipodi.sourceforge.net/DTD/sodipodi-0.dtd"
	xmlns:inkscape="http://www.inkscape.org/namespaces/inkscape"
	width="1000"
	height="1000"
	id="svg2"
	version="1.1"
	sodipodi:docname="manifold/crust-guitar220.png.txt">
<defs
	id="defs4" />
<metadata
	id="metadata7">
	<rdf:RDF>
		<cc:Work
			rdf:about="">
			<dc:format>image/svg+xml</dc:format>
			<dc:type
				rdf:resource="http://purl.org/dc/dcmitype/StillImage" />
			<dc:title></dc:title>
		</cc:Work>
	</rdf:RDF>
</metadata>
<g
	inkscape:label="Layer 1"
	inkscape:groupmode="layer"
	id="layer1">
	<path style="fill:none;stroke:red;stroke-width:1px;stroke-linecap:butt;stroke-linejoin:miter;stroke-opacity:1" d="M 123.18,102.148 130.191,137.201 z" id="boundary" inkscape:connector-curvature="0" />
	<path style="fill:none;stroke:red;stroke-width:1px;stroke-linecap:butt;stroke-linejoin:miter;stroke-opacity:1" d="M 130.191,67.0954 123.18,102.148 z" id="boundary" inkscape:connector-curvature="0" />
	<path style="fill:none;stroke:red;stroke-width:1px;stroke-linecap:butt;stroke-linejoin:miter;stroke-opacity:1" d="M 165.244,4 137.201,32.0424 z" id="boundary" inkscape:connector-curvature="0" />
	<path style="fill:none;stroke:red;stroke-width:1px;stroke-linecap:butt;stroke-linejoin:miter;stroke-opacity:1" d="M 137.201,32.0424 130.191,67.0954 z" id="boundary" inkscape:connector-curvature="0" />
	<path style="fill:none;stroke:red;stroke-width:1px;stroke-linecap:butt;stroke-linejoin:miter;stroke-opacity:1" d="M 130.191,137.201 130.191,172.254 z" id="boundary" inkscape:connector-curvature="0" />
	<path style="fill:none;stroke:red;stroke-width:1px;stroke-linecap:butt;stroke-linejoin:miter;stroke-opacity:1" d="M 130.191,207.307 130.191,172.254 z" id="boundary" inkscape:connector-curvature="0" />
	<path style="fill:none;stroke:red;stroke-width:1px;stroke-linecap:butt;stroke-linejoin:miter;stroke-opacity:1" d="M 130.191,242.36 130.191,207.307 z" id="boundary" inkscape:connector-curvature="0" />
	<path style="fill:none;stroke:red;stroke-width:1px;stroke-linecap:butt;stroke-linejoin:miter;stroke-opacity:1" d="M 130.191,277.413 130.191,312.466 z" id="boundary" inkscape:connector-curvature="0" />
	<path style="fill:none;stroke:red;stroke-width:1px;stroke-linecap:butt;stroke-linejoin:miter;stroke-opacity:1" d="M 130.191,277.413 130.191,242.36 z" id="boundary" inkscape:connector-curvature="0" />
	<path style="fill:none;stroke:red;stroke-width:1px;stroke-linecap:butt;stroke-linejoin:miter;stroke-opacity:1" d="M 130.191,347.519 123.18,410.615 z" id="boundary" inkscape:connector-curvature="0" />
	<path style="fill:none;stroke:red;stroke-width:1px;stroke-linecap:butt;stroke-linejoin:miter;stroke-opacity:1" d="M 130.191,312.466 130.191,347.519 z" id="boundary" inkscape:connector-curvature="0" />
	<path style="fill:none;stroke:red;stroke-width:1px;stroke-linecap:butt;stroke-linejoin:miter;stroke-opacity:1" d="M 123.18,445.668 123.18,410.615 z" id="boundary" inkscape:connector-curvature="0" />
	<path style="fill:none;stroke:red;stroke-width:1px;stroke-linecap:butt;stroke-linejoin:miter;stroke-opacity:1" d="M 39.053,585.88 39.053,550.827 z" id="boundary" inkscape:connector-curvature="0" />
	<path style="fill:none;stroke:red;stroke-width:1px;stroke-linecap:butt;stroke-linejoin:miter;stroke-opacity:1" d="M 46.0636,620.933 39.053,585.88 z" id="boundary" inkscape:connector-curvature="0" />
	<path style="fill:none;stroke:red;stroke-width:1px;stroke-linecap:butt;stroke-linejoin:miter;stroke-opacity:1" d="M 56.5795,655.986 46.0636,620.933 z" id="boundary" inkscape:connector-curvature="0" />
	<path style="fill:none;stroke:red;stroke-width:1px;stroke-linecap:butt;stroke-linejoin:miter;stroke-opacity:1" d="M 11.0106,887.336 4,852.283 z" id="boundary" inkscape:connector-curvature="0" />
	<path style="fill:none;stroke:red;stroke-width:1px;stroke-linecap:butt;stroke-linejoin:miter;stroke-opacity:1" d="M 11.0106,782.177 4,817.23 z" id="boundary" inkscape:connector-curvature="0" />
	<path style="fill:none;stroke:red;stroke-width:1px;stroke-linecap:butt;stroke-linejoin:miter;stroke-opacity:1" d="M 4,852.283 4,817.23 z" id="boundary" inkscape:connector-curvature="0" />
	<path style="fill:none;stroke:red;stroke-width:1px;stroke-linecap:butt;stroke-linejoin:miter;stroke-opacity:1" d="M 25.0318,747.124 11.0106,782.177 z" id="boundary" inkscape:connector-curvature="0" />
	<path style="fill:none;stroke:red;stroke-width:1px;stroke-linecap:butt;stroke-linejoin:miter;stroke-opacity:1" d="M 42.5583,715.576 25.0318,747.124 z" id="boundary" inkscape:connector-curvature="0" />
	<path style="fill:none;stroke:red;stroke-width:1px;stroke-linecap:butt;stroke-linejoin:miter;stroke-opacity:1" d="M 28.5371,918.883 11.0106,887.336 z" id="boundary" inkscape:connector-curvature="0" />
	<path style="fill:none;stroke:red;stroke-width:1px;stroke-linecap:butt;stroke-linejoin:miter;stroke-opacity:1" d="M 49.5689,946.926 28.5371,918.883 z" id="boundary" inkscape:connector-curvature="0" />
	<path style="fill:none;stroke:red;stroke-width:1px;stroke-linecap:butt;stroke-linejoin:miter;stroke-opacity:1" d="M 56.5795,655.986 42.5583,715.576 z" id="boundary" inkscape:connector-curvature="0" />
	<path style="fill:none;stroke:red;stroke-width:1px;stroke-linecap:butt;stroke-linejoin:miter;stroke-opacity:1" d="M 74.106,543.816 109.159,543.816 z" id="boundary" inkscape:connector-curvature="0" />
	<path style="fill:none;stroke:red;stroke-width:1px;stroke-linecap:butt;stroke-linejoin:miter;stroke-opacity:1" d="M 39.053,550.827 74.106,543.816 z" id="boundary" inkscape:connector-curvature="0" />
	<path style="fill:none;stroke:red;stroke-width:1px;stroke-linecap:butt;stroke-linejoin:miter;stroke-opacity:1" d="M 123.18,480.721 123.18,445.668 z" id="boundary" inkscape:connector-curvature="0" />
	<path style="fill:none;stroke:red;stroke-width:1px;stroke-linecap:butt;stroke-linejoin:miter;stroke-opacity:1" d="M 109.159,543.816 123.18,480.721 z" id="boundary" inkscape:connector-curvature="0" />
	<path style="fill:none;stroke:red;stroke-width:1px;stroke-linecap:butt;stroke-linejoin:miter;stroke-opacity:1" d="M 112.664,981.979 77.6113,967.958 z" id="boundary" inkscape:connector-curvature="0" />
	<path style="fill:none;stroke:red;stroke-width:1px;stroke-linecap:butt;stroke-linejoin:miter;stroke-opacity:1" d="M 77.6113,967.958 49.5689,946.926 z" id="boundary" inkscape:connector-curvature="0" />
	<path style="fill:none;stroke:red;stroke-width:1px;stroke-linecap:butt;stroke-linejoin:miter;stroke-opacity:1" d="M 147.717,988.989 112.664,981.979 z" id="boundary" inkscape:connector-curvature="0" />
	<path style="fill:none;stroke:red;stroke-width:1px;stroke-linecap:butt;stroke-linejoin:miter;stroke-opacity:1" d="M 175.76,130.191 175.76,165.244 z" id="boundary" inkscape:connector-curvature="0" />
	<path style="fill:none;stroke:red;stroke-width:1px;stroke-linecap:butt;stroke-linejoin:miter;stroke-opacity:1" d="M 189.781,81.1166 175.76,130.191 z" id="boundary" inkscape:connector-curvature="0" />
	<path style="fill:none;stroke:red;stroke-width:1px;stroke-linecap:butt;stroke-linejoin:miter;stroke-opacity:1" d="M 175.76,165.244 175.76,200.297 z" id="boundary" inkscape:connector-curvature="0" />
	<path style="fill:none;stroke:red;stroke-width:1px;stroke-linecap:butt;stroke-linejoin:miter;stroke-opacity:1" d="M 200.297,11.0106 196.792,46.0636 z" id="boundary" inkscape:connector-curvature="0" />
	<path style="fill:none;stroke:red;stroke-width:1px;stroke-linecap:butt;stroke-linejoin:miter;stroke-opacity:1" d="M 165.244,4 200.297,11.0106 z" id="boundary" inkscape:connector-curvature="0" />
	<path style="fill:none;stroke:red;stroke-width:1px;stroke-linecap:butt;stroke-linejoin:miter;stroke-opacity:1" d="M 175.76,235.35 175.76,200.297 z" id="boundary" inkscape:connector-curvature="0" />
	<path style="fill:none;stroke:red;stroke-width:1px;stroke-linecap:butt;stroke-linejoin:miter;stroke-opacity:1" d="M 196.792,46.0636 189.781,81.1166 z" id="boundary" inkscape:connector-curvature="0" />
	<path style="fill:none;stroke:red;stroke-width:1px;stroke-linecap:butt;stroke-linejoin:miter;stroke-opacity:1" d="M 175.76,270.403 175.76,305.456 z" id="boundary" inkscape:connector-curvature="0" />
	<path style="fill:none;stroke:red;stroke-width:1px;stroke-linecap:butt;stroke-linejoin:miter;stroke-opacity:1" d="M 175.76,270.403 175.76,235.35 z" id="boundary" inkscape:connector-curvature="0" />
	<path style="fill:none;stroke:red;stroke-width:1px;stroke-linecap:butt;stroke-linejoin:miter;stroke-opacity:1" d="M 175.76,340.509 175.76,375.562 z" id="boundary" inkscape:connector-curvature="0" />
	<path style="fill:none;stroke:red;stroke-width:1px;stroke-linecap:butt;stroke-linejoin:miter;stroke-opacity:1" d="M 175.76,305.456 175.76,340.509 z" id="boundary" inkscape:connector-curvature="0" />
	<path style="fill:none;stroke:red;stroke-width:1px;stroke-linecap:butt;stroke-linejoin:miter;stroke-opacity:1" d="M 175.76,375.562 175.76,410.615 z" id="boundary" inkscape:connector-curvature="0" />
	<path style="fill:none;stroke:red;stroke-width:1px;stroke-linecap:butt;stroke-linejoin:miter;stroke-opacity:1" d="M 175.76,410.615 182.77,445.668 z" id="boundary" inkscape:connector-curvature="0" />
	<path style="fill:none;stroke:red;stroke-width:1px;stroke-linecap:butt;stroke-linejoin:miter;stroke-opacity:1" d="M 200.297,477.216 182.77,445.668 z" id="boundary" inkscape:connector-curvature="0" />
	<path style="fill:none;stroke:red;stroke-width:1px;stroke-linecap:butt;stroke-linejoin:miter;stroke-opacity:1" d="M 200.297,477.216 231.845,494.742 z" id="boundary" inkscape:connector-curvature="0" />
	<path style="fill:none;stroke:red;stroke-width:1px;stroke-linecap:butt;stroke-linejoin:miter;stroke-opacity:1" d="M 231.845,494.742 266.898,501.753 z" id="boundary" inkscape:connector-curvature="0" />
	<path style="fill:none;stroke:red;stroke-width:1px;stroke-linecap:butt;stroke-linejoin:miter;stroke-opacity:1" d="M 266.898,501.753 301.951,515.774 z" id="boundary" inkscape:connector-curvature="0" />
	<path style="fill:none;stroke:red;stroke-width:1px;stroke-linecap:butt;stroke-linejoin:miter;stroke-opacity:1" d="M 322.982,543.816 301.951,515.774 z" id="boundary" inkscape:connector-curvature="0" />
	<path style="fill:none;stroke:red;stroke-width:1px;stroke-linecap:butt;stroke-linejoin:miter;stroke-opacity:1" d="M 322.982,543.816 322.982,599.901 z" id="boundary" inkscape:connector-curvature="0" />
	<path style="fill:none;stroke:red;stroke-width:1px;stroke-linecap:butt;stroke-linejoin:miter;stroke-opacity:1" d="M 217.823,988.989 182.77,996 z" id="boundary" inkscape:connector-curvature="0" />
	<path style="fill:none;stroke:red;stroke-width:1px;stroke-linecap:butt;stroke-linejoin:miter;stroke-opacity:1" d="M 182.77,996 147.717,988.989 z" id="boundary" inkscape:connector-curvature="0" />
	<path style="fill:none;stroke:red;stroke-width:1px;stroke-linecap:butt;stroke-linejoin:miter;stroke-opacity:1" d="M 252.876,985.484 217.823,988.989 z" id="boundary" inkscape:connector-curvature="0" />
	<path style="fill:none;stroke:red;stroke-width:1px;stroke-linecap:butt;stroke-linejoin:miter;stroke-opacity:1" d="M 322.982,599.901 308.961,648.975 z" id="boundary" inkscape:connector-curvature="0" />
	<path style="fill:none;stroke:red;stroke-width:1px;stroke-linecap:butt;stroke-linejoin:miter;stroke-opacity:1" d="M 322.982,719.081 308.961,684.028 z" id="boundary" inkscape:connector-curvature="0" />
	<path style="fill:none;stroke:red;stroke-width:1px;stroke-linecap:butt;stroke-linejoin:miter;stroke-opacity:1" d="M 308.961,684.028 308.961,648.975 z" id="boundary" inkscape:connector-curvature="0" />
	<path style="fill:none;stroke:red;stroke-width:1px;stroke-linecap:butt;stroke-linejoin:miter;stroke-opacity:1" d="M 344.014,747.124 322.982,719.081 z" id="boundary" inkscape:connector-curvature="0" />
	<path style="fill:none;stroke:red;stroke-width:1px;stroke-linecap:butt;stroke-linejoin:miter;stroke-opacity:1" d="M 315.972,950.431 287.929,971.463 z" id="boundary" inkscape:connector-curvature="0" />
	<path style="fill:none;stroke:red;stroke-width:1px;stroke-linecap:butt;stroke-linejoin:miter;stroke-opacity:1" d="M 252.876,985.484 287.929,971.463 z" id="boundary" inkscape:connector-curvature="0" />
	<path style="fill:none;stroke:red;stroke-width:1px;stroke-linecap:butt;stroke-linejoin:miter;stroke-opacity:1" d="M 354.53,782.177 365.046,817.23 z" id="boundary" inkscape:connector-curvature="0" />
	<path style="fill:none;stroke:red;stroke-width:1px;stroke-linecap:butt;stroke-linejoin:miter;stroke-opacity:1" d="M 354.53,782.177 344.014,747.124 z" id="boundary" inkscape:connector-curvature="0" />
	<path style="fill:none;stroke:red;stroke-width:1px;stroke-linecap:butt;stroke-linejoin:miter;stroke-opacity:1" d="M 365.046,817.23 358.035,880.325 z" id="boundary" inkscape:connector-curvature="0" />
	<path style="fill:none;stroke:red;stroke-width:1px;stroke-linecap:butt;stroke-linejoin:miter;stroke-opacity:1" d="M 344.014,915.378 315.972,950.431 z" id="boundary" inkscape:connector-curvature="0" />
	<path style="fill:none;stroke:red;stroke-width:1px;stroke-linecap:butt;stroke-linejoin:miter;stroke-opacity:1" d="M 358.035,880.325 344.014,915.378 z" id="boundary" inkscape:connector-curvature="0" />
	<circle cx="4" cy="817.23" r="4" fill="#0" id="circle0"/>
	<circle cx="4" cy="852.283" r="4" fill="#0" id="circle1"/>
	<circle cx="11.0106" cy="782.177" r="4" fill="#0" id="circle2"/>
	<circle cx="11.0106" cy="887.336" r="4" fill="#0" id="circle3"/>
	<circle cx="25.0318" cy="747.124" r="4" fill="#0" id="circle4"/>
	<circle cx="28.5371" cy="918.883" r="4" fill="#0" id="circle5"/>
	<circle cx="39.053" cy="550.827" r="4" fill="#0" id="circle6"/>
	<circle cx="39.053" cy="585.88" r="4" fill="#0" id="circle7"/>
	<circle cx="42.5583" cy="715.576" r="4" fill="#0" id="circle8"/>
	<circle cx="46.0636" cy="620.933" r="4" fill="#0" id="circle9"/>
	<circle cx="49.5689" cy="946.926" r="4" fill="#0" id="circle10"/>
	<circle cx="56.5795" cy="655.986" r="4" fill="#0" id="circle11"/>
	<circle cx="74.106" cy="543.816" r="4" fill="#0" id="circle12"/>
	<circle cx="77.6113" cy="967.958" r="4" fill="#0" id="circle13"/>
	<circle cx="109.159" cy="543.816" r="4" fill="#0" id="circle14"/>
	<circle cx="112.664" cy="981.979" r="4" fill="#0" id="circle15"/>
	<circle cx="123.18" cy="102.148" r="4" fill="#0" id="circle16"/>
	<circle cx="123.18" cy="410.615" r="4" fill="#0" id="circle17"/>
	<circle cx="123.18" cy="445.668" r="4" fill="#0" id="circle18"/>
	<circle cx="123.18" cy="480.721" r="4" fill="#0" id="circle19"/>
	<circle cx="130.191" cy="67.0954" r="4" fill="#0" id="circle20"/>
	<circle cx="130.191" cy="137.201" r="4" fill="#0" id="circle21"/>
	<circle cx="130.191" cy="172.254" r="4" fill="#0" id="circle22"/>
	<circle cx="130.191" cy="207.307" r="4" fill="#0" id="circle23"/>
	<circle cx="130.191" cy="242.36" r="4" fill="#0" id="circle24"/>
	<circle cx="130.191" cy="277.413" r="4" fill="#0" id="circle25"/>
	<circle cx="130.191" cy="312.466" r="4" fill="#0" id="circle26"/>
	<circle cx="130.191" cy="347.519" r="4" fill="#0" id="circle27"/>
	<circle cx="137.201" cy="32.0424" r="4" fill="#0" id="circle28"/>
	<circle cx="147.717" cy="988.989" r="4" fill="#0" id="circle29"/>
	<circle cx="165.244" cy="4" r="4" fill="#0" id="circle30"/>
	<circle cx="175.76" cy="130.191" r="4" fill="#0" id="circle31"/>
	<circle cx="175.76" cy="165.244" r="4" fill="#0" id="circle32"/>
	<circle cx="175.76" cy="200.297" r="4" fill="#0" id="circle33"/>
	<circle cx="175.76" cy="235.35" r="4" fill="#0" id="circle34"/>
	<circle cx="175.76" cy="270.403" r="4" fill="#0" id="circle35"/>
	<circle cx="175.76" cy="305.456" r="4" fill="#0" id="circle36"/>
	<circle cx="175.76" cy="340.509" r="4" fill="#0" id="circle37"/>
	<circle cx="175.76" cy="375.562" r="4" fill="#0" id="circle38"/>
	<circle cx="175.76" cy="410.615" r="4" fill="#0" id="circle39"/>
	<circle cx="182.77" cy="445.668" r="4" fill="#0" id="circle40"/>
	<circle cx="182.77" cy="996" r="4" fill="#0" id="circle41"/>
	<circle cx="189.781" cy="81.1166" r="4" fill="#0" id="circle42"/>
	<circle cx="196.792" cy="46.0636" r="4" fill="#0" id="circle43"/>
	<circle cx="200.297" cy="11.0106" r="4" fill="#0" id="circle44"/>
	<circle cx="200.297" cy="477.216" r="4" fill="#0" id="circle45"/>
	<circle cx="217.823" cy="988.989" r="4" fill="#0" id="circle46"/>
	<circle cx="231.845" cy="494.742" r="4" fill="#0" id="circle47"/>
	<circle cx="252.876" cy="985.484" r="4" fill="#0" id="circle48"/>
	<circle cx="266.898" cy="501.753" r="4" fill="#0" id="circle49"/>
	<circle cx="287.929" cy="971.463" r="4" fill="#0" id="circle50"/>
	<circle cx="301.951" cy="515.774" r="4" fill="#0" id="circle51"/>
	<circle cx="308.961" cy="648.975" r="4" fill="#0" id="circle52"/>
	<circle cx="308.961" cy="684.028" r="4" fill="#0" id="circle53"/>
	<circle cx="315.972" cy="950.431" r="4" fill="#0" id="circle54"/>
	<circle cx="322.982" cy="543.816" r="4" fill="#0" id="circle55"/>
	<circle cx="322.982" cy="599.901" r="4" fill="#0" id="circle56"/>
	<circle cx="322.982" cy="719.081" r="4" fill="#0" id="circle57"/>
	<circle cx="344.014" cy="747.124" r="4" fill="#0" id="circle58"/>
	<circle cx="344.014" cy="915.378" r="4" fill="#0" id="circle59"/>
	<circle cx="354.53" cy="782.177" r="4" fill="#0" id="circle60"/>
	<circle cx="358.035" cy="880.325" r="4" fill="#0" id="circle61"/>
	<circle cx="365.046" cy="817.23" r="4" fill="#0" id="circle62"/>
	</g>
</svg>