<?xml version="1.0" encoding="UTF-8" standalone="no"?>
<!-- Created with CurveBenchmark -->
<svg
	xmlns:dc="http://purl.org/dc/elements/1.1/"
	xmlns:cc="http://creativecommons.org/ns#"
	xmlns:rdf="http://www.w3.org/1999/02/22-rdf-syntax-ns#"
	xmlns:svg="http://www.w3.org/2000/svg"
	xmlns="http://www.w3.org/2000/svg"
	xmlns:sodipodi="http://sodipodi.sourceforge.net/DTD/sodipodi-0.dtd"
	xmlns:inkscape="http://www.inkscape.org/namespaces/inkscape"
	width="1000"
	height="1000"
	id="svg2"
	version="1.1"
	sodipodi:docname="manifold/crust-fish0756.png.txt">
<defs
	id="defs4" />
<metadata
	id="metadata7">
	<rdf:RDF>
		<cc:Work
			rdf:about="">
			<dc:format>image/svg+xml</dc:format>
			<dc:type
				rdf:resource="http://purl.org/dc/dcmitype/StillImage" />
			<dc:title></dc:title>
		</cc:Work>
	</rdf:RDF>
</metadata>
<g
	inkscape:label="Layer 1"
	inkscape:groupmode="layer"
	id="layer1">
	<path style="fill:none;stroke:red;stroke-width:1px;stroke-linecap:butt;stroke-linejoin:miter;stroke-opacity:1" d="M 117.333,112 130.667,105.333 z" id="boundary" inkscape:connector-curvature="0" />
	<path style="fill:none;stroke:red;stroke-width:1px;stroke-linecap:butt;stroke-linejoin:miter;stroke-opacity:1" d="M 117.333,112 104,118.667 z" id="boundary" inkscape:connector-curvature="0" />
	<path style="fill:none;stroke:red;stroke-width:1px;stroke-linecap:butt;stroke-linejoin:miter;stroke-opacity:1" d="M 157.333,98.6667 170.667,92 z" id="boundary" inkscape:connector-curvature="0" />
	<path style="fill:none;stroke:red;stroke-width:1px;stroke-linecap:butt;stroke-linejoin:miter;stroke-opacity:1" d="M 130.667,105.333 144,101.333 z" id="boundary" inkscape:connector-curvature="0" />
	<path style="fill:none;stroke:red;stroke-width:1px;stroke-linecap:butt;stroke-linejoin:miter;stroke-opacity:1" d="M 157.333,98.6667 144,101.333 z" id="boundary" inkscape:connector-curvature="0" />
	<path style="fill:none;stroke:red;stroke-width:1px;stroke-linecap:butt;stroke-linejoin:miter;stroke-opacity:1" d="M 170.667,92 184,88 z" id="boundary" inkscape:connector-curvature="0" />
	<path style="fill:none;stroke:red;stroke-width:1px;stroke-linecap:butt;stroke-linejoin:miter;stroke-opacity:1" d="M 209.333,81.3333 222.667,81.3333 z" id="boundary" inkscape:connector-curvature="0" />
	<path style="fill:none;stroke:red;stroke-width:1px;stroke-linecap:butt;stroke-linejoin:miter;stroke-opacity:1" d="M 184,88 197.333,88 z" id="boundary" inkscape:connector-curvature="0" />
	<path style="fill:none;stroke:red;stroke-width:1px;stroke-linecap:butt;stroke-linejoin:miter;stroke-opacity:1" d="M 197.333,88 209.333,81.3333 z" id="boundary" inkscape:connector-curvature="0" />
	<path style="fill:none;stroke:red;stroke-width:1px;stroke-linecap:butt;stroke-linejoin:miter;stroke-opacity:1" d="M 248,68 261.333,68 z" id="boundary" inkscape:connector-curvature="0" />
	<path style="fill:none;stroke:red;stroke-width:1px;stroke-linecap:butt;stroke-linejoin:miter;stroke-opacity:1" d="M 234.667,74.6667 248,68 z" id="boundary" inkscape:connector-curvature="0" />
	<path style="fill:none;stroke:red;stroke-width:1px;stroke-linecap:butt;stroke-linejoin:miter;stroke-opacity:1" d="M 261.333,68 274.667,68 z" id="boundary" inkscape:connector-curvature="0" />
	<path style="fill:none;stroke:red;stroke-width:1px;stroke-linecap:butt;stroke-linejoin:miter;stroke-opacity:1" d="M 222.667,81.3333 234.667,74.6667 z" id="boundary" inkscape:connector-curvature="0" />
	<path style="fill:none;stroke:red;stroke-width:1px;stroke-linecap:butt;stroke-linejoin:miter;stroke-opacity:1" d="M 44,154.667 56,148 z" id="boundary" inkscape:connector-curvature="0" />
	<path style="fill:none;stroke:red;stroke-width:1px;stroke-linecap:butt;stroke-linejoin:miter;stroke-opacity:1" d="M 44,154.667 30.6667,158.667 z" id="boundary" inkscape:connector-curvature="0" />
	<path style="fill:none;stroke:red;stroke-width:1px;stroke-linecap:butt;stroke-linejoin:miter;stroke-opacity:1" d="M 17.3333,165.333 30.6667,158.667 z" id="boundary" inkscape:connector-curvature="0" />
	<path style="fill:none;stroke:red;stroke-width:1px;stroke-linecap:butt;stroke-linejoin:miter;stroke-opacity:1" d="M 80,134.667 90.6667,125.333 z" id="boundary" inkscape:connector-curvature="0" />
	<path style="fill:none;stroke:red;stroke-width:1px;stroke-linecap:butt;stroke-linejoin:miter;stroke-opacity:1" d="M 104,118.667 90.6667,125.333 z" id="boundary" inkscape:connector-curvature="0" />
	<path style="fill:none;stroke:red;stroke-width:1px;stroke-linecap:butt;stroke-linejoin:miter;stroke-opacity:1" d="M 68,141.333 80,134.667 z" id="boundary" inkscape:connector-curvature="0" />
	<path style="fill:none;stroke:red;stroke-width:1px;stroke-linecap:butt;stroke-linejoin:miter;stroke-opacity:1" d="M 68,141.333 56,148 z" id="boundary" inkscape:connector-curvature="0" />
	<path style="fill:none;stroke:red;stroke-width:1px;stroke-linecap:butt;stroke-linejoin:miter;stroke-opacity:1" d="M 14.6667,188 4,178.667 z" id="boundary" inkscape:connector-curvature="0" />
	<path style="fill:none;stroke:red;stroke-width:1px;stroke-linecap:butt;stroke-linejoin:miter;stroke-opacity:1" d="M 4,178.667 17.3333,165.333 z" id="boundary" inkscape:connector-curvature="0" />
	<path style="fill:none;stroke:red;stroke-width:1px;stroke-linecap:butt;stroke-linejoin:miter;stroke-opacity:1" d="M 288,68 274.667,68 z" id="boundary" inkscape:connector-curvature="0" />
	<path style="fill:none;stroke:red;stroke-width:1px;stroke-linecap:butt;stroke-linejoin:miter;stroke-opacity:1" d="M 341.333,54.6667 354.667,54.6667 z" id="boundary" inkscape:connector-curvature="0" />
	<path style="fill:none;stroke:red;stroke-width:1px;stroke-linecap:butt;stroke-linejoin:miter;stroke-opacity:1" d="M 368,54.6667 381.333,54.6667 z" id="boundary" inkscape:connector-curvature="0" />
	<path style="fill:none;stroke:red;stroke-width:1px;stroke-linecap:butt;stroke-linejoin:miter;stroke-opacity:1" d="M 368,54.6667 354.667,54.6667 z" id="boundary" inkscape:connector-curvature="0" />
	<path style="fill:none;stroke:red;stroke-width:1px;stroke-linecap:butt;stroke-linejoin:miter;stroke-opacity:1" d="M 421.333,48 408,48 z" id="boundary" inkscape:connector-curvature="0" />
	<path style="fill:none;stroke:red;stroke-width:1px;stroke-linecap:butt;stroke-linejoin:miter;stroke-opacity:1" d="M 408,48 394.667,54.6667 z" id="boundary" inkscape:connector-curvature="0" />
	<path style="fill:none;stroke:red;stroke-width:1px;stroke-linecap:butt;stroke-linejoin:miter;stroke-opacity:1" d="M 428,34.6667 421.333,48 z" id="boundary" inkscape:connector-curvature="0" />
	<path style="fill:none;stroke:red;stroke-width:1px;stroke-linecap:butt;stroke-linejoin:miter;stroke-opacity:1" d="M 394.667,54.6667 381.333,54.6667 z" id="boundary" inkscape:connector-curvature="0" />
	<path style="fill:none;stroke:red;stroke-width:1px;stroke-linecap:butt;stroke-linejoin:miter;stroke-opacity:1" d="M 341.333,54.6667 328,61.3333 z" id="boundary" inkscape:connector-curvature="0" />
	<path style="fill:none;stroke:red;stroke-width:1px;stroke-linecap:butt;stroke-linejoin:miter;stroke-opacity:1" d="M 450.667,5.33333 464,4 z" id="boundary" inkscape:connector-curvature="0" />
	<path style="fill:none;stroke:red;stroke-width:1px;stroke-linecap:butt;stroke-linejoin:miter;stroke-opacity:1" d="M 437.333,12 450.667,5.33333 z" id="boundary" inkscape:connector-curvature="0" />
	<path style="fill:none;stroke:red;stroke-width:1px;stroke-linecap:butt;stroke-linejoin:miter;stroke-opacity:1" d="M 464,4 472,14.6667 z" id="boundary" inkscape:connector-curvature="0" />
	<path style="fill:none;stroke:red;stroke-width:1px;stroke-linecap:butt;stroke-linejoin:miter;stroke-opacity:1" d="M 478.667,26.6667 472,14.6667 z" id="boundary" inkscape:connector-curvature="0" />
	<path style="fill:none;stroke:red;stroke-width:1px;stroke-linecap:butt;stroke-linejoin:miter;stroke-opacity:1" d="M 428,34.6667 437.333,12 z" id="boundary" inkscape:connector-curvature="0" />
	<path style="fill:none;stroke:red;stroke-width:1px;stroke-linecap:butt;stroke-linejoin:miter;stroke-opacity:1" d="M 485.333,38.6667 478.667,26.6667 z" id="boundary" inkscape:connector-curvature="0" />
	<path style="fill:none;stroke:red;stroke-width:1px;stroke-linecap:butt;stroke-linejoin:miter;stroke-opacity:1" d="M 485.333,38.6667 490.667,52 z" id="boundary" inkscape:connector-curvature="0" />
	<path style="fill:none;stroke:red;stroke-width:1px;stroke-linecap:butt;stroke-linejoin:miter;stroke-opacity:1" d="M 301.333,61.3333 314.667,61.3333 z" id="boundary" inkscape:connector-curvature="0" />
	<path style="fill:none;stroke:red;stroke-width:1px;stroke-linecap:butt;stroke-linejoin:miter;stroke-opacity:1" d="M 288,68 301.333,61.3333 z" id="boundary" inkscape:connector-curvature="0" />
	<path style="fill:none;stroke:red;stroke-width:1px;stroke-linecap:butt;stroke-linejoin:miter;stroke-opacity:1" d="M 314.667,61.3333 328,61.3333 z" id="boundary" inkscape:connector-curvature="0" />
	<path style="fill:none;stroke:red;stroke-width:1px;stroke-linecap:butt;stroke-linejoin:miter;stroke-opacity:1" d="M 490.667,52 492,65.3333 z" id="boundary" inkscape:connector-curvature="0" />
	<path style="fill:none;stroke:red;stroke-width:1px;stroke-linecap:butt;stroke-linejoin:miter;stroke-opacity:1" d="M 492,65.3333 505.333,68 z" id="boundary" inkscape:connector-curvature="0" />
	<path style="fill:none;stroke:red;stroke-width:1px;stroke-linecap:butt;stroke-linejoin:miter;stroke-opacity:1" d="M 518.667,72 505.333,68 z" id="boundary" inkscape:connector-curvature="0" />
	<path style="fill:none;stroke:red;stroke-width:1px;stroke-linecap:butt;stroke-linejoin:miter;stroke-opacity:1" d="M 532,74.6667 518.667,72 z" id="boundary" inkscape:connector-curvature="0" />
	<path style="fill:none;stroke:red;stroke-width:1px;stroke-linecap:butt;stroke-linejoin:miter;stroke-opacity:1" d="M 532,74.6667 544,81.3333 z" id="boundary" inkscape:connector-curvature="0" />
	<path style="fill:none;stroke:red;stroke-width:1px;stroke-linecap:butt;stroke-linejoin:miter;stroke-opacity:1" d="M 544,81.3333 556,88 z" id="boundary" inkscape:connector-curvature="0" />
	<path style="fill:none;stroke:red;stroke-width:1px;stroke-linecap:butt;stroke-linejoin:miter;stroke-opacity:1" d="M 20,201.333 14.6667,188 z" id="boundary" inkscape:connector-curvature="0" />
	<path style="fill:none;stroke:red;stroke-width:1px;stroke-linecap:butt;stroke-linejoin:miter;stroke-opacity:1" d="M 30.6667,209.333 20,201.333 z" id="boundary" inkscape:connector-curvature="0" />
	<path style="fill:none;stroke:red;stroke-width:1px;stroke-linecap:butt;stroke-linejoin:miter;stroke-opacity:1" d="M 30.6667,209.333 34.6667,222.667 z" id="boundary" inkscape:connector-curvature="0" />
	<path style="fill:none;stroke:red;stroke-width:1px;stroke-linecap:butt;stroke-linejoin:miter;stroke-opacity:1" d="M 46.6667,229.333 34.6667,222.667 z" id="boundary" inkscape:connector-curvature="0" />
	<path style="fill:none;stroke:red;stroke-width:1px;stroke-linecap:butt;stroke-linejoin:miter;stroke-opacity:1" d="M 60,233.333 46.6667,229.333 z" id="boundary" inkscape:connector-curvature="0" />
	<path style="fill:none;stroke:red;stroke-width:1px;stroke-linecap:butt;stroke-linejoin:miter;stroke-opacity:1" d="M 72,240 85.3333,242.667 z" id="boundary" inkscape:connector-curvature="0" />
	<path style="fill:none;stroke:red;stroke-width:1px;stroke-linecap:butt;stroke-linejoin:miter;stroke-opacity:1" d="M 72,240 60,233.333 z" id="boundary" inkscape:connector-curvature="0" />
	<path style="fill:none;stroke:red;stroke-width:1px;stroke-linecap:butt;stroke-linejoin:miter;stroke-opacity:1" d="M 98.6667,242.667 110.667,249.333 z" id="boundary" inkscape:connector-curvature="0" />
	<path style="fill:none;stroke:red;stroke-width:1px;stroke-linecap:butt;stroke-linejoin:miter;stroke-opacity:1" d="M 122.667,256 134.667,262.667 z" id="boundary" inkscape:connector-curvature="0" />
	<path style="fill:none;stroke:red;stroke-width:1px;stroke-linecap:butt;stroke-linejoin:miter;stroke-opacity:1" d="M 110.667,249.333 122.667,256 z" id="boundary" inkscape:connector-curvature="0" />
	<path style="fill:none;stroke:red;stroke-width:1px;stroke-linecap:butt;stroke-linejoin:miter;stroke-opacity:1" d="M 85.3333,242.667 98.6667,242.667 z" id="boundary" inkscape:connector-curvature="0" />
	<path style="fill:none;stroke:red;stroke-width:1px;stroke-linecap:butt;stroke-linejoin:miter;stroke-opacity:1" d="M 148,262.667 134.667,262.667 z" id="boundary" inkscape:connector-curvature="0" />
	<path style="fill:none;stroke:red;stroke-width:1px;stroke-linecap:butt;stroke-linejoin:miter;stroke-opacity:1" d="M 161.333,268 148,262.667 z" id="boundary" inkscape:connector-curvature="0" />
	<path style="fill:none;stroke:red;stroke-width:1px;stroke-linecap:butt;stroke-linejoin:miter;stroke-opacity:1" d="M 173.333,274.667 161.333,268 z" id="boundary" inkscape:connector-curvature="0" />
	<path style="fill:none;stroke:red;stroke-width:1px;stroke-linecap:butt;stroke-linejoin:miter;stroke-opacity:1" d="M 173.333,274.667 186.667,280 z" id="boundary" inkscape:connector-curvature="0" />
	<path style="fill:none;stroke:red;stroke-width:1px;stroke-linecap:butt;stroke-linejoin:miter;stroke-opacity:1" d="M 200,282.667 213.333,282.667 z" id="boundary" inkscape:connector-curvature="0" />
	<path style="fill:none;stroke:red;stroke-width:1px;stroke-linecap:butt;stroke-linejoin:miter;stroke-opacity:1" d="M 200,282.667 186.667,280 z" id="boundary" inkscape:connector-curvature="0" />
	<path style="fill:none;stroke:red;stroke-width:1px;stroke-linecap:butt;stroke-linejoin:miter;stroke-opacity:1" d="M 225.333,289.333 238.667,289.333 z" id="boundary" inkscape:connector-curvature="0" />
	<path style="fill:none;stroke:red;stroke-width:1px;stroke-linecap:butt;stroke-linejoin:miter;stroke-opacity:1" d="M 225.333,289.333 213.333,282.667 z" id="boundary" inkscape:connector-curvature="0" />
	<path style="fill:none;stroke:red;stroke-width:1px;stroke-linecap:butt;stroke-linejoin:miter;stroke-opacity:1" d="M 264,296 250.667,296 z" id="boundary" inkscape:connector-curvature="0" />
	<path style="fill:none;stroke:red;stroke-width:1px;stroke-linecap:butt;stroke-linejoin:miter;stroke-opacity:1" d="M 250.667,296 238.667,289.333 z" id="boundary" inkscape:connector-curvature="0" />
	<path style="fill:none;stroke:red;stroke-width:1px;stroke-linecap:butt;stroke-linejoin:miter;stroke-opacity:1" d="M 264,296 277.333,296 z" id="boundary" inkscape:connector-curvature="0" />
	<path style="fill:none;stroke:red;stroke-width:1px;stroke-linecap:butt;stroke-linejoin:miter;stroke-opacity:1" d="M 290.667,296 277.333,296 z" id="boundary" inkscape:connector-curvature="0" />
	<path style="fill:none;stroke:red;stroke-width:1px;stroke-linecap:butt;stroke-linejoin:miter;stroke-opacity:1" d="M 290.667,296 304,296 z" id="boundary" inkscape:connector-curvature="0" />
	<path style="fill:none;stroke:red;stroke-width:1px;stroke-linecap:butt;stroke-linejoin:miter;stroke-opacity:1" d="M 316,302.667 304,296 z" id="boundary" inkscape:connector-curvature="0" />
	<path style="fill:none;stroke:red;stroke-width:1px;stroke-linecap:butt;stroke-linejoin:miter;stroke-opacity:1" d="M 329.333,302.667 342.667,302.667 z" id="boundary" inkscape:connector-curvature="0" />
	<path style="fill:none;stroke:red;stroke-width:1px;stroke-linecap:butt;stroke-linejoin:miter;stroke-opacity:1" d="M 329.333,302.667 316,302.667 z" id="boundary" inkscape:connector-curvature="0" />
	<path style="fill:none;stroke:red;stroke-width:1px;stroke-linecap:butt;stroke-linejoin:miter;stroke-opacity:1" d="M 381.333,316 368,314.667 z" id="boundary" inkscape:connector-curvature="0" />
	<path style="fill:none;stroke:red;stroke-width:1px;stroke-linecap:butt;stroke-linejoin:miter;stroke-opacity:1" d="M 354.667,309.333 342.667,302.667 z" id="boundary" inkscape:connector-curvature="0" />
	<path style="fill:none;stroke:red;stroke-width:1px;stroke-linecap:butt;stroke-linejoin:miter;stroke-opacity:1" d="M 368,314.667 354.667,309.333 z" id="boundary" inkscape:connector-curvature="0" />
	<path style="fill:none;stroke:red;stroke-width:1px;stroke-linecap:butt;stroke-linejoin:miter;stroke-opacity:1" d="M 388,328 381.333,316 z" id="boundary" inkscape:connector-curvature="0" />
	<path style="fill:none;stroke:red;stroke-width:1px;stroke-linecap:butt;stroke-linejoin:miter;stroke-opacity:1" d="M 538.667,296 525.333,296 z" id="boundary" inkscape:connector-curvature="0" />
	<path style="fill:none;stroke:red;stroke-width:1px;stroke-linecap:butt;stroke-linejoin:miter;stroke-opacity:1" d="M 538.667,296 552,296 z" id="boundary" inkscape:connector-curvature="0" />
	<path style="fill:none;stroke:red;stroke-width:1px;stroke-linecap:butt;stroke-linejoin:miter;stroke-opacity:1" d="M 525.333,296 525.333,316 z" id="boundary" inkscape:connector-curvature="0" />
	<path style="fill:none;stroke:red;stroke-width:1px;stroke-linecap:butt;stroke-linejoin:miter;stroke-opacity:1" d="M 517.333,329.333 525.333,316 z" id="boundary" inkscape:connector-curvature="0" />
	<path style="fill:none;stroke:red;stroke-width:1px;stroke-linecap:butt;stroke-linejoin:miter;stroke-opacity:1" d="M 552,296 565.333,296 z" id="boundary" inkscape:connector-curvature="0" />
	<path style="fill:none;stroke:red;stroke-width:1px;stroke-linecap:butt;stroke-linejoin:miter;stroke-opacity:1" d="M 388,328 397.333,338.667 z" id="boundary" inkscape:connector-curvature="0" />
	<path style="fill:none;stroke:red;stroke-width:1px;stroke-linecap:butt;stroke-linejoin:miter;stroke-opacity:1" d="M 397.333,338.667 404,350.667 z" id="boundary" inkscape:connector-curvature="0" />
	<path style="fill:none;stroke:red;stroke-width:1px;stroke-linecap:butt;stroke-linejoin:miter;stroke-opacity:1" d="M 413.333,361.333 404,350.667 z" id="boundary" inkscape:connector-curvature="0" />
	<path style="fill:none;stroke:red;stroke-width:1px;stroke-linecap:butt;stroke-linejoin:miter;stroke-opacity:1" d="M 420,373.333 413.333,361.333 z" id="boundary" inkscape:connector-curvature="0" />
	<path style="fill:none;stroke:red;stroke-width:1px;stroke-linecap:butt;stroke-linejoin:miter;stroke-opacity:1" d="M 432,380 420,373.333 z" id="boundary" inkscape:connector-curvature="0" />
	<path style="fill:none;stroke:red;stroke-width:1px;stroke-linecap:butt;stroke-linejoin:miter;stroke-opacity:1" d="M 432,380 442.667,389.333 z" id="boundary" inkscape:connector-curvature="0" />
	<path style="fill:none;stroke:red;stroke-width:1px;stroke-linecap:butt;stroke-linejoin:miter;stroke-opacity:1" d="M 442.667,389.333 456,386.667 z" id="boundary" inkscape:connector-curvature="0" />
	<path style="fill:none;stroke:red;stroke-width:1px;stroke-linecap:butt;stroke-linejoin:miter;stroke-opacity:1" d="M 505.333,336 517.333,329.333 z" id="boundary" inkscape:connector-curvature="0" />
	<path style="fill:none;stroke:red;stroke-width:1px;stroke-linecap:butt;stroke-linejoin:miter;stroke-opacity:1" d="M 492,336 482.667,353.333 z" id="boundary" inkscape:connector-curvature="0" />
	<path style="fill:none;stroke:red;stroke-width:1px;stroke-linecap:butt;stroke-linejoin:miter;stroke-opacity:1" d="M 505.333,336 492,336 z" id="boundary" inkscape:connector-curvature="0" />
	<path style="fill:none;stroke:red;stroke-width:1px;stroke-linecap:butt;stroke-linejoin:miter;stroke-opacity:1" d="M 464,376 456,386.667 z" id="boundary" inkscape:connector-curvature="0" />
	<path style="fill:none;stroke:red;stroke-width:1px;stroke-linecap:butt;stroke-linejoin:miter;stroke-opacity:1" d="M 482.667,353.333 472,362.667 z" id="boundary" inkscape:connector-curvature="0" />
	<path style="fill:none;stroke:red;stroke-width:1px;stroke-linecap:butt;stroke-linejoin:miter;stroke-opacity:1" d="M 464,376 472,362.667 z" id="boundary" inkscape:connector-curvature="0" />
	<path style="fill:none;stroke:red;stroke-width:1px;stroke-linecap:butt;stroke-linejoin:miter;stroke-opacity:1" d="M 569.333,88 556,88 z" id="boundary" inkscape:connector-curvature="0" />
	<path style="fill:none;stroke:red;stroke-width:1px;stroke-linecap:butt;stroke-linejoin:miter;stroke-opacity:1" d="M 581.333,94.6667 569.333,88 z" id="boundary" inkscape:connector-curvature="0" />
	<path style="fill:none;stroke:red;stroke-width:1px;stroke-linecap:butt;stroke-linejoin:miter;stroke-opacity:1" d="M 581.333,94.6667 594.667,94.6667 z" id="boundary" inkscape:connector-curvature="0" />
	<path style="fill:none;stroke:red;stroke-width:1px;stroke-linecap:butt;stroke-linejoin:miter;stroke-opacity:1" d="M 594.667,94.6667 606.667,101.333 z" id="boundary" inkscape:connector-curvature="0" />
	<path style="fill:none;stroke:red;stroke-width:1px;stroke-linecap:butt;stroke-linejoin:miter;stroke-opacity:1" d="M 618.667,108 606.667,101.333 z" id="boundary" inkscape:connector-curvature="0" />
	<path style="fill:none;stroke:red;stroke-width:1px;stroke-linecap:butt;stroke-linejoin:miter;stroke-opacity:1" d="M 618.667,108 630.667,114.667 z" id="boundary" inkscape:connector-curvature="0" />
	<path style="fill:none;stroke:red;stroke-width:1px;stroke-linecap:butt;stroke-linejoin:miter;stroke-opacity:1" d="M 644,114.667 630.667,114.667 z" id="boundary" inkscape:connector-curvature="0" />
	<path style="fill:none;stroke:red;stroke-width:1px;stroke-linecap:butt;stroke-linejoin:miter;stroke-opacity:1" d="M 681.333,101.333 668,101.333 z" id="boundary" inkscape:connector-curvature="0" />
	<path style="fill:none;stroke:red;stroke-width:1px;stroke-linecap:butt;stroke-linejoin:miter;stroke-opacity:1" d="M 656,108 668,101.333 z" id="boundary" inkscape:connector-curvature="0" />
	<path style="fill:none;stroke:red;stroke-width:1px;stroke-linecap:butt;stroke-linejoin:miter;stroke-opacity:1" d="M 656,108 644,114.667 z" id="boundary" inkscape:connector-curvature="0" />
	<path style="fill:none;stroke:red;stroke-width:1px;stroke-linecap:butt;stroke-linejoin:miter;stroke-opacity:1" d="M 681.333,101.333 693.333,108 z" id="boundary" inkscape:connector-curvature="0" />
	<path style="fill:none;stroke:red;stroke-width:1px;stroke-linecap:butt;stroke-linejoin:miter;stroke-opacity:1" d="M 698.667,121.333 693.333,108 z" id="boundary" inkscape:connector-curvature="0" />
	<path style="fill:none;stroke:red;stroke-width:1px;stroke-linecap:butt;stroke-linejoin:miter;stroke-opacity:1" d="M 712,125.333 698.667,121.333 z" id="boundary" inkscape:connector-curvature="0" />
	<path style="fill:none;stroke:red;stroke-width:1px;stroke-linecap:butt;stroke-linejoin:miter;stroke-opacity:1" d="M 718.667,137.333 712,125.333 z" id="boundary" inkscape:connector-curvature="0" />
	<path style="fill:none;stroke:red;stroke-width:1px;stroke-linecap:butt;stroke-linejoin:miter;stroke-opacity:1" d="M 718.667,137.333 730.667,144 z" id="boundary" inkscape:connector-curvature="0" />
	<path style="fill:none;stroke:red;stroke-width:1px;stroke-linecap:butt;stroke-linejoin:miter;stroke-opacity:1" d="M 738.667,154.667 730.667,144 z" id="boundary" inkscape:connector-curvature="0" />
	<path style="fill:none;stroke:red;stroke-width:1px;stroke-linecap:butt;stroke-linejoin:miter;stroke-opacity:1" d="M 752,158.667 738.667,154.667 z" id="boundary" inkscape:connector-curvature="0" />
	<path style="fill:none;stroke:red;stroke-width:1px;stroke-linecap:butt;stroke-linejoin:miter;stroke-opacity:1" d="M 757.333,172 752,158.667 z" id="boundary" inkscape:connector-curvature="0" />
	<path style="fill:none;stroke:red;stroke-width:1px;stroke-linecap:butt;stroke-linejoin:miter;stroke-opacity:1" d="M 770.667,177.333 757.333,172 z" id="boundary" inkscape:connector-curvature="0" />
	<path style="fill:none;stroke:red;stroke-width:1px;stroke-linecap:butt;stroke-linejoin:miter;stroke-opacity:1" d="M 778.667,188 770.667,177.333 z" id="boundary" inkscape:connector-curvature="0" />
	<path style="fill:none;stroke:red;stroke-width:1px;stroke-linecap:butt;stroke-linejoin:miter;stroke-opacity:1" d="M 792,188 778.667,188 z" id="boundary" inkscape:connector-curvature="0" />
	<path style="fill:none;stroke:red;stroke-width:1px;stroke-linecap:butt;stroke-linejoin:miter;stroke-opacity:1" d="M 805.333,184 792,188 z" id="boundary" inkscape:connector-curvature="0" />
	<path style="fill:none;stroke:red;stroke-width:1px;stroke-linecap:butt;stroke-linejoin:miter;stroke-opacity:1" d="M 981.333,108 969.333,114.667 z" id="boundary" inkscape:connector-curvature="0" />
	<path style="fill:none;stroke:red;stroke-width:1px;stroke-linecap:butt;stroke-linejoin:miter;stroke-opacity:1" d="M 994.667,108 981.333,108 z" id="boundary" inkscape:connector-curvature="0" />
	<path style="fill:none;stroke:red;stroke-width:1px;stroke-linecap:butt;stroke-linejoin:miter;stroke-opacity:1" d="M 957.333,121.333 969.333,114.667 z" id="boundary" inkscape:connector-curvature="0" />
	<path style="fill:none;stroke:red;stroke-width:1px;stroke-linecap:butt;stroke-linejoin:miter;stroke-opacity:1" d="M 957.333,121.333 944,125.333 z" id="boundary" inkscape:connector-curvature="0" />
	<path style="fill:none;stroke:red;stroke-width:1px;stroke-linecap:butt;stroke-linejoin:miter;stroke-opacity:1" d="M 996,121.333 994.667,108 z" id="boundary" inkscape:connector-curvature="0" />
	<path style="fill:none;stroke:red;stroke-width:1px;stroke-linecap:butt;stroke-linejoin:miter;stroke-opacity:1" d="M 930.667,132 944,125.333 z" id="boundary" inkscape:connector-curvature="0" />
	<path style="fill:none;stroke:red;stroke-width:1px;stroke-linecap:butt;stroke-linejoin:miter;stroke-opacity:1" d="M 930.667,132 920,141.333 z" id="boundary" inkscape:connector-curvature="0" />
	<path style="fill:none;stroke:red;stroke-width:1px;stroke-linecap:butt;stroke-linejoin:miter;stroke-opacity:1" d="M 996,121.333 989.333,133.333 z" id="boundary" inkscape:connector-curvature="0" />
	<path style="fill:none;stroke:red;stroke-width:1px;stroke-linecap:butt;stroke-linejoin:miter;stroke-opacity:1" d="M 989.333,133.333 978.667,142.667 z" id="boundary" inkscape:connector-curvature="0" />
	<path style="fill:none;stroke:red;stroke-width:1px;stroke-linecap:butt;stroke-linejoin:miter;stroke-opacity:1" d="M 856,168 844,174.667 z" id="boundary" inkscape:connector-curvature="0" />
	<path style="fill:none;stroke:red;stroke-width:1px;stroke-linecap:butt;stroke-linejoin:miter;stroke-opacity:1" d="M 868,161.333 856,168 z" id="boundary" inkscape:connector-curvature="0" />
	<path style="fill:none;stroke:red;stroke-width:1px;stroke-linecap:butt;stroke-linejoin:miter;stroke-opacity:1" d="M 830.667,174.667 844,174.667 z" id="boundary" inkscape:connector-curvature="0" />
	<path style="fill:none;stroke:red;stroke-width:1px;stroke-linecap:butt;stroke-linejoin:miter;stroke-opacity:1" d="M 830.667,174.667 818.667,181.333 z" id="boundary" inkscape:connector-curvature="0" />
	<path style="fill:none;stroke:red;stroke-width:1px;stroke-linecap:butt;stroke-linejoin:miter;stroke-opacity:1" d="M 880,154.667 893.333,149.333 z" id="boundary" inkscape:connector-curvature="0" />
	<path style="fill:none;stroke:red;stroke-width:1px;stroke-linecap:butt;stroke-linejoin:miter;stroke-opacity:1" d="M 868,161.333 880,154.667 z" id="boundary" inkscape:connector-curvature="0" />
	<path style="fill:none;stroke:red;stroke-width:1px;stroke-linecap:butt;stroke-linejoin:miter;stroke-opacity:1" d="M 906.667,142.667 893.333,149.333 z" id="boundary" inkscape:connector-curvature="0" />
	<path style="fill:none;stroke:red;stroke-width:1px;stroke-linecap:butt;stroke-linejoin:miter;stroke-opacity:1" d="M 805.333,184 818.667,181.333 z" id="boundary" inkscape:connector-curvature="0" />
	<path style="fill:none;stroke:red;stroke-width:1px;stroke-linecap:butt;stroke-linejoin:miter;stroke-opacity:1" d="M 965.333,156 958.667,176 z" id="boundary" inkscape:connector-curvature="0" />
	<path style="fill:none;stroke:red;stroke-width:1px;stroke-linecap:butt;stroke-linejoin:miter;stroke-opacity:1" d="M 965.333,156 978.667,142.667 z" id="boundary" inkscape:connector-curvature="0" />
	<path style="fill:none;stroke:red;stroke-width:1px;stroke-linecap:butt;stroke-linejoin:miter;stroke-opacity:1" d="M 925.333,202.667 932,189.333 z" id="boundary" inkscape:connector-curvature="0" />
	<path style="fill:none;stroke:red;stroke-width:1px;stroke-linecap:butt;stroke-linejoin:miter;stroke-opacity:1" d="M 945.333,176 958.667,176 z" id="boundary" inkscape:connector-curvature="0" />
	<path style="fill:none;stroke:red;stroke-width:1px;stroke-linecap:butt;stroke-linejoin:miter;stroke-opacity:1" d="M 945.333,176 932,189.333 z" id="boundary" inkscape:connector-curvature="0" />
	<path style="fill:none;stroke:red;stroke-width:1px;stroke-linecap:butt;stroke-linejoin:miter;stroke-opacity:1" d="M 925.333,202.667 912,209.333 z" id="boundary" inkscape:connector-curvature="0" />
	<path style="fill:none;stroke:red;stroke-width:1px;stroke-linecap:butt;stroke-linejoin:miter;stroke-opacity:1" d="M 906.667,142.667 920,141.333 z" id="boundary" inkscape:connector-curvature="0" />
	<path style="fill:none;stroke:red;stroke-width:1px;stroke-linecap:butt;stroke-linejoin:miter;stroke-opacity:1" d="M 658.667,282.667 670.667,276 z" id="boundary" inkscape:connector-curvature="0" />
	<path style="fill:none;stroke:red;stroke-width:1px;stroke-linecap:butt;stroke-linejoin:miter;stroke-opacity:1" d="M 684,272 670.667,276 z" id="boundary" inkscape:connector-curvature="0" />
	<path style="fill:none;stroke:red;stroke-width:1px;stroke-linecap:butt;stroke-linejoin:miter;stroke-opacity:1" d="M 722.667,262.667 710.667,269.333 z" id="boundary" inkscape:connector-curvature="0" />
	<path style="fill:none;stroke:red;stroke-width:1px;stroke-linecap:butt;stroke-linejoin:miter;stroke-opacity:1" d="M 684,272 697.333,269.333 z" id="boundary" inkscape:connector-curvature="0" />
	<path style="fill:none;stroke:red;stroke-width:1px;stroke-linecap:butt;stroke-linejoin:miter;stroke-opacity:1" d="M 710.667,269.333 697.333,269.333 z" id="boundary" inkscape:connector-curvature="0" />
	<path style="fill:none;stroke:red;stroke-width:1px;stroke-linecap:butt;stroke-linejoin:miter;stroke-opacity:1" d="M 592,289.333 578.667,289.333 z" id="boundary" inkscape:connector-curvature="0" />
	<path style="fill:none;stroke:red;stroke-width:1px;stroke-linecap:butt;stroke-linejoin:miter;stroke-opacity:1" d="M 605.333,282.667 592,289.333 z" id="boundary" inkscape:connector-curvature="0" />
	<path style="fill:none;stroke:red;stroke-width:1px;stroke-linecap:butt;stroke-linejoin:miter;stroke-opacity:1" d="M 565.333,296 578.667,289.333 z" id="boundary" inkscape:connector-curvature="0" />
	<path style="fill:none;stroke:red;stroke-width:1px;stroke-linecap:butt;stroke-linejoin:miter;stroke-opacity:1" d="M 605.333,282.667 618.667,282.667 z" id="boundary" inkscape:connector-curvature="0" />
	<path style="fill:none;stroke:red;stroke-width:1px;stroke-linecap:butt;stroke-linejoin:miter;stroke-opacity:1" d="M 632,282.667 618.667,282.667 z" id="boundary" inkscape:connector-curvature="0" />
	<path style="fill:none;stroke:red;stroke-width:1px;stroke-linecap:butt;stroke-linejoin:miter;stroke-opacity:1" d="M 632,282.667 645.333,282.667 z" id="boundary" inkscape:connector-curvature="0" />
	<path style="fill:none;stroke:red;stroke-width:1px;stroke-linecap:butt;stroke-linejoin:miter;stroke-opacity:1" d="M 658.667,282.667 645.333,282.667 z" id="boundary" inkscape:connector-curvature="0" />
	<path style="fill:none;stroke:red;stroke-width:1px;stroke-linecap:butt;stroke-linejoin:miter;stroke-opacity:1" d="M 736,262.667 749.333,262.667 z" id="boundary" inkscape:connector-curvature="0" />
	<path style="fill:none;stroke:red;stroke-width:1px;stroke-linecap:butt;stroke-linejoin:miter;stroke-opacity:1" d="M 749.333,262.667 762.667,262.667 z" id="boundary" inkscape:connector-curvature="0" />
	<path style="fill:none;stroke:red;stroke-width:1px;stroke-linecap:butt;stroke-linejoin:miter;stroke-opacity:1" d="M 722.667,262.667 736,262.667 z" id="boundary" inkscape:connector-curvature="0" />
	<path style="fill:none;stroke:red;stroke-width:1px;stroke-linecap:butt;stroke-linejoin:miter;stroke-opacity:1" d="M 789.333,262.667 776,262.667 z" id="boundary" inkscape:connector-curvature="0" />
	<path style="fill:none;stroke:red;stroke-width:1px;stroke-linecap:butt;stroke-linejoin:miter;stroke-opacity:1" d="M 776,262.667 762.667,262.667 z" id="boundary" inkscape:connector-curvature="0" />
	<path style="fill:none;stroke:red;stroke-width:1px;stroke-linecap:butt;stroke-linejoin:miter;stroke-opacity:1" d="M 789.333,262.667 802.667,262.667 z" id="boundary" inkscape:connector-curvature="0" />
	<path style="fill:none;stroke:red;stroke-width:1px;stroke-linecap:butt;stroke-linejoin:miter;stroke-opacity:1" d="M 802.667,262.667 816,262.667 z" id="boundary" inkscape:connector-curvature="0" />
	<path style="fill:none;stroke:red;stroke-width:1px;stroke-linecap:butt;stroke-linejoin:miter;stroke-opacity:1" d="M 828,269.333 840,276 z" id="boundary" inkscape:connector-curvature="0" />
	<path style="fill:none;stroke:red;stroke-width:1px;stroke-linecap:butt;stroke-linejoin:miter;stroke-opacity:1" d="M 828,269.333 816,262.667 z" id="boundary" inkscape:connector-curvature="0" />
	<path style="fill:none;stroke:red;stroke-width:1px;stroke-linecap:butt;stroke-linejoin:miter;stroke-opacity:1" d="M 912,209.333 912,222.667 z" id="boundary" inkscape:connector-curvature="0" />
	<path style="fill:none;stroke:red;stroke-width:1px;stroke-linecap:butt;stroke-linejoin:miter;stroke-opacity:1" d="M 912,236 912,222.667 z" id="boundary" inkscape:connector-curvature="0" />
	<path style="fill:none;stroke:red;stroke-width:1px;stroke-linecap:butt;stroke-linejoin:miter;stroke-opacity:1" d="M 922.667,244 912,236 z" id="boundary" inkscape:connector-curvature="0" />
	<path style="fill:none;stroke:red;stroke-width:1px;stroke-linecap:butt;stroke-linejoin:miter;stroke-opacity:1" d="M 922.667,244 932,254.667 z" id="boundary" inkscape:connector-curvature="0" />
	<path style="fill:none;stroke:red;stroke-width:1px;stroke-linecap:butt;stroke-linejoin:miter;stroke-opacity:1" d="M 938.667,266.667 932,254.667 z" id="boundary" inkscape:connector-curvature="0" />
	<path style="fill:none;stroke:red;stroke-width:1px;stroke-linecap:butt;stroke-linejoin:miter;stroke-opacity:1" d="M 864,289.333 852,282.667 z" id="boundary" inkscape:connector-curvature="0" />
	<path style="fill:none;stroke:red;stroke-width:1px;stroke-linecap:butt;stroke-linejoin:miter;stroke-opacity:1" d="M 852,282.667 840,276 z" id="boundary" inkscape:connector-curvature="0" />
	<path style="fill:none;stroke:red;stroke-width:1px;stroke-linecap:butt;stroke-linejoin:miter;stroke-opacity:1" d="M 876,296 888,302.667 z" id="boundary" inkscape:connector-curvature="0" />
	<path style="fill:none;stroke:red;stroke-width:1px;stroke-linecap:butt;stroke-linejoin:miter;stroke-opacity:1" d="M 876,296 864,289.333 z" id="boundary" inkscape:connector-curvature="0" />
	<path style="fill:none;stroke:red;stroke-width:1px;stroke-linecap:butt;stroke-linejoin:miter;stroke-opacity:1" d="M 900,309.333 912,316 z" id="boundary" inkscape:connector-curvature="0" />
	<path style="fill:none;stroke:red;stroke-width:1px;stroke-linecap:butt;stroke-linejoin:miter;stroke-opacity:1" d="M 900,309.333 888,302.667 z" id="boundary" inkscape:connector-curvature="0" />
	<path style="fill:none;stroke:red;stroke-width:1px;stroke-linecap:butt;stroke-linejoin:miter;stroke-opacity:1" d="M 924,322.667 936,329.333 z" id="boundary" inkscape:connector-curvature="0" />
	<path style="fill:none;stroke:red;stroke-width:1px;stroke-linecap:butt;stroke-linejoin:miter;stroke-opacity:1" d="M 924,322.667 912,316 z" id="boundary" inkscape:connector-curvature="0" />
	<path style="fill:none;stroke:red;stroke-width:1px;stroke-linecap:butt;stroke-linejoin:miter;stroke-opacity:1" d="M 936,329.333 948,336 z" id="boundary" inkscape:connector-curvature="0" />
	<path style="fill:none;stroke:red;stroke-width:1px;stroke-linecap:butt;stroke-linejoin:miter;stroke-opacity:1" d="M 945.333,278.667 950.667,292 z" id="boundary" inkscape:connector-curvature="0" />
	<path style="fill:none;stroke:red;stroke-width:1px;stroke-linecap:butt;stroke-linejoin:miter;stroke-opacity:1" d="M 965.333,314.667 961.333,301.333 z" id="boundary" inkscape:connector-curvature="0" />
	<path style="fill:none;stroke:red;stroke-width:1px;stroke-linecap:butt;stroke-linejoin:miter;stroke-opacity:1" d="M 950.667,292 961.333,301.333 z" id="boundary" inkscape:connector-curvature="0" />
	<path style="fill:none;stroke:red;stroke-width:1px;stroke-linecap:butt;stroke-linejoin:miter;stroke-opacity:1" d="M 938.667,266.667 945.333,278.667 z" id="boundary" inkscape:connector-curvature="0" />
	<path style="fill:none;stroke:red;stroke-width:1px;stroke-linecap:butt;stroke-linejoin:miter;stroke-opacity:1" d="M 948,336 961.333,336 z" id="boundary" inkscape:connector-curvature="0" />
	<path style="fill:none;stroke:red;stroke-width:1px;stroke-linecap:butt;stroke-linejoin:miter;stroke-opacity:1" d="M 965.333,314.667 972,326.667 z" id="boundary" inkscape:connector-curvature="0" />
	<path style="fill:none;stroke:red;stroke-width:1px;stroke-linecap:butt;stroke-linejoin:miter;stroke-opacity:1" d="M 961.333,336 972,326.667 z" id="boundary" inkscape:connector-curvature="0" />
	<circle cx="4" cy="178.667" r="4" fill="#0" id="circle0"/>
	<circle cx="14.6667" cy="188" r="4" fill="#0" id="circle1"/>
	<circle cx="17.3333" cy="165.333" r="4" fill="#0" id="circle2"/>
	<circle cx="20" cy="201.333" r="4" fill="#0" id="circle3"/>
	<circle cx="30.6667" cy="158.667" r="4" fill="#0" id="circle4"/>
	<circle cx="30.6667" cy="209.333" r="4" fill="#0" id="circle5"/>
	<circle cx="34.6667" cy="222.667" r="4" fill="#0" id="circle6"/>
	<circle cx="44" cy="154.667" r="4" fill="#0" id="circle7"/>
	<circle cx="46.6667" cy="229.333" r="4" fill="#0" id="circle8"/>
	<circle cx="56" cy="148" r="4" fill="#0" id="circle9"/>
	<circle cx="60" cy="233.333" r="4" fill="#0" id="circle10"/>
	<circle cx="68" cy="141.333" r="4" fill="#0" id="circle11"/>
	<circle cx="72" cy="240" r="4" fill="#0" id="circle12"/>
	<circle cx="80" cy="134.667" r="4" fill="#0" id="circle13"/>
	<circle cx="85.3333" cy="242.667" r="4" fill="#0" id="circle14"/>
	<circle cx="90.6667" cy="125.333" r="4" fill="#0" id="circle15"/>
	<circle cx="98.6667" cy="242.667" r="4" fill="#0" id="circle16"/>
	<circle cx="104" cy="118.667" r="4" fill="#0" id="circle17"/>
	<circle cx="110.667" cy="249.333" r="4" fill="#0" id="circle18"/>
	<circle cx="117.333" cy="112" r="4" fill="#0" id="circle19"/>
	<circle cx="122.667" cy="256" r="4" fill="#0" id="circle20"/>
	<circle cx="130.667" cy="105.333" r="4" fill="#0" id="circle21"/>
	<circle cx="134.667" cy="262.667" r="4" fill="#0" id="circle22"/>
	<circle cx="144" cy="101.333" r="4" fill="#0" id="circle23"/>
	<circle cx="148" cy="262.667" r="4" fill="#0" id="circle24"/>
	<circle cx="157.333" cy="98.6667" r="4" fill="#0" id="circle25"/>
	<circle cx="161.333" cy="268" r="4" fill="#0" id="circle26"/>
	<circle cx="170.667" cy="92" r="4" fill="#0" id="circle27"/>
	<circle cx="173.333" cy="274.667" r="4" fill="#0" id="circle28"/>
	<circle cx="184" cy="88" r="4" fill="#0" id="circle29"/>
	<circle cx="186.667" cy="280" r="4" fill="#0" id="circle30"/>
	<circle cx="197.333" cy="88" r="4" fill="#0" id="circle31"/>
	<circle cx="200" cy="282.667" r="4" fill="#0" id="circle32"/>
	<circle cx="209.333" cy="81.3333" r="4" fill="#0" id="circle33"/>
	<circle cx="213.333" cy="282.667" r="4" fill="#0" id="circle34"/>
	<circle cx="222.667" cy="81.3333" r="4" fill="#0" id="circle35"/>
	<circle cx="225.333" cy="289.333" r="4" fill="#0" id="circle36"/>
	<circle cx="234.667" cy="74.6667" r="4" fill="#0" id="circle37"/>
	<circle cx="238.667" cy="289.333" r="4" fill="#0" id="circle38"/>
	<circle cx="248" cy="68" r="4" fill="#0" id="circle39"/>
	<circle cx="250.667" cy="296" r="4" fill="#0" id="circle40"/>
	<circle cx="261.333" cy="68" r="4" fill="#0" id="circle41"/>
	<circle cx="264" cy="296" r="4" fill="#0" id="circle42"/>
	<circle cx="274.667" cy="68" r="4" fill="#0" id="circle43"/>
	<circle cx="277.333" cy="296" r="4" fill="#0" id="circle44"/>
	<circle cx="288" cy="68" r="4" fill="#0" id="circle45"/>
	<circle cx="290.667" cy="296" r="4" fill="#0" id="circle46"/>
	<circle cx="301.333" cy="61.3333" r="4" fill="#0" id="circle47"/>
	<circle cx="304" cy="296" r="4" fill="#0" id="circle48"/>
	<circle cx="314.667" cy="61.3333" r="4" fill="#0" id="circle49"/>
	<circle cx="316" cy="302.667" r="4" fill="#0" id="circle50"/>
	<circle cx="328" cy="61.3333" r="4" fill="#0" id="circle51"/>
	<circle cx="329.333" cy="302.667" r="4" fill="#0" id="circle52"/>
	<circle cx="341.333" cy="54.6667" r="4" fill="#0" id="circle53"/>
	<circle cx="342.667" cy="302.667" r="4" fill="#0" id="circle54"/>
	<circle cx="354.667" cy="54.6667" r="4" fill="#0" id="circle55"/>
	<circle cx="354.667" cy="309.333" r="4" fill="#0" id="circle56"/>
	<circle cx="368" cy="54.6667" r="4" fill="#0" id="circle57"/>
	<circle cx="368" cy="314.667" r="4" fill="#0" id="circle58"/>
	<circle cx="381.333" cy="54.6667" r="4" fill="#0" id="circle59"/>
	<circle cx="381.333" cy="316" r="4" fill="#0" id="circle60"/>
	<circle cx="388" cy="328" r="4" fill="#0" id="circle61"/>
	<circle cx="394.667" cy="54.6667" r="4" fill="#0" id="circle62"/>
	<circle cx="397.333" cy="338.667" r="4" fill="#0" id="circle63"/>
	<circle cx="404" cy="350.667" r="4" fill="#0" id="circle64"/>
	<circle cx="408" cy="48" r="4" fill="#0" id="circle65"/>
	<circle cx="413.333" cy="361.333" r="4" fill="#0" id="circle66"/>
	<circle cx="420" cy="373.333" r="4" fill="#0" id="circle67"/>
	<circle cx="421.333" cy="48" r="4" fill="#0" id="circle68"/>
	<circle cx="428" cy="34.6667" r="4" fill="#0" id="circle69"/>
	<circle cx="432" cy="380" r="4" fill="#0" id="circle70"/>
	<circle cx="437.333" cy="12" r="4" fill="#0" id="circle71"/>
	<circle cx="442.667" cy="389.333" r="4" fill="#0" id="circle72"/>
	<circle cx="450.667" cy="5.33333" r="4" fill="#0" id="circle73"/>
	<circle cx="456" cy="386.667" r="4" fill="#0" id="circle74"/>
	<circle cx="464" cy="4" r="4" fill="#0" id="circle75"/>
	<circle cx="464" cy="376" r="4" fill="#0" id="circle76"/>
	<circle cx="472" cy="14.6667" r="4" fill="#0" id="circle77"/>
	<circle cx="472" cy="362.667" r="4" fill="#0" id="circle78"/>
	<circle cx="478.667" cy="26.6667" r="4" fill="#0" id="circle79"/>
	<circle cx="482.667" cy="353.333" r="4" fill="#0" id="circle80"/>
	<circle cx="485.333" cy="38.6667" r="4" fill="#0" id="circle81"/>
	<circle cx="490.667" cy="52" r="4" fill="#0" id="circle82"/>
	<circle cx="492" cy="65.3333" r="4" fill="#0" id="circle83"/>
	<circle cx="492" cy="336" r="4" fill="#0" id="circle84"/>
	<circle cx="505.333" cy="68" r="4" fill="#0" id="circle85"/>
	<circle cx="505.333" cy="336" r="4" fill="#0" id="circle86"/>
	<circle cx="517.333" cy="329.333" r="4" fill="#0" id="circle87"/>
	<circle cx="518.667" cy="72" r="4" fill="#0" id="circle88"/>
	<circle cx="525.333" cy="296" r="4" fill="#0" id="circle89"/>
	<circle cx="525.333" cy="316" r="4" fill="#0" id="circle90"/>
	<circle cx="532" cy="74.6667" r="4" fill="#0" id="circle91"/>
	<circle cx="538.667" cy="296" r="4" fill="#0" id="circle92"/>
	<circle cx="544" cy="81.3333" r="4" fill="#0" id="circle93"/>
	<circle cx="552" cy="296" r="4" fill="#0" id="circle94"/>
	<circle cx="556" cy="88" r="4" fill="#0" id="circle95"/>
	<circle cx="565.333" cy="296" r="4" fill="#0" id="circle96"/>
	<circle cx="569.333" cy="88" r="4" fill="#0" id="circle97"/>
	<circle cx="578.667" cy="289.333" r="4" fill="#0" id="circle98"/>
	<circle cx="581.333" cy="94.6667" r="4" fill="#0" id="circle99"/>
	<circle cx="592" cy="289.333" r="4" fill="#0" id="circle100"/>
	<circle cx="594.667" cy="94.6667" r="4" fill="#0" id="circle101"/>
	<circle cx="605.333" cy="282.667" r="4" fill="#0" id="circle102"/>
	<circle cx="606.667" cy="101.333" r="4" fill="#0" id="circle103"/>
	<circle cx="618.667" cy="108" r="4" fill="#0" id="circle104"/>
	<circle cx="618.667" cy="282.667" r="4" fill="#0" id="circle105"/>
	<circle cx="630.667" cy="114.667" r="4" fill="#0" id="circle106"/>
	<circle cx="632" cy="282.667" r="4" fill="#0" id="circle107"/>
	<circle cx="644" cy="114.667" r="4" fill="#0" id="circle108"/>
	<circle cx="645.333" cy="282.667" r="4" fill="#0" id="circle109"/>
	<circle cx="656" cy="108" r="4" fill="#0" id="circle110"/>
	<circle cx="658.667" cy="282.667" r="4" fill="#0" id="circle111"/>
	<circle cx="668" cy="101.333" r="4" fill="#0" id="circle112"/>
	<circle cx="670.667" cy="276" r="4" fill="#0" id="circle113"/>
	<circle cx="681.333" cy="101.333" r="4" fill="#0" id="circle114"/>
	<circle cx="684" cy="272" r="4" fill="#0" id="circle115"/>
	<circle cx="693.333" cy="108" r="4" fill="#0" id="circle116"/>
	<circle cx="697.333" cy="269.333" r="4" fill="#0" id="circle117"/>
	<circle cx="698.667" cy="121.333" r="4" fill="#0" id="circle118"/>
	<circle cx="710.667" cy="269.333" r="4" fill="#0" id="circle119"/>
	<circle cx="712" cy="125.333" r="4" fill="#0" id="circle120"/>
	<circle cx="718.667" cy="137.333" r="4" fill="#0" id="circle121"/>
	<circle cx="722.667" cy="262.667" r="4" fill="#0" id="circle122"/>
	<circle cx="730.667" cy="144" r="4" fill="#0" id="circle123"/>
	<circle cx="736" cy="262.667" r="4" fill="#0" id="circle124"/>
	<circle cx="738.667" cy="154.667" r="4" fill="#0" id="circle125"/>
	<circle cx="749.333" cy="262.667" r="4" fill="#0" id="circle126"/>
	<circle cx="752" cy="158.667" r="4" fill="#0" id="circle127"/>
	<circle cx="757.333" cy="172" r="4" fill="#0" id="circle128"/>
	<circle cx="762.667" cy="262.667" r="4" fill="#0" id="circle129"/>
	<circle cx="770.667" cy="177.333" r="4" fill="#0" id="circle130"/>
	<circle cx="776" cy="262.667" r="4" fill="#0" id="circle131"/>
	<circle cx="778.667" cy="188" r="4" fill="#0" id="circle132"/>
	<circle cx="789.333" cy="262.667" r="4" fill="#0" id="circle133"/>
	<circle cx="792" cy="188" r="4" fill="#0" id="circle134"/>
	<circle cx="802.667" cy="262.667" r="4" fill="#0" id="circle135"/>
	<circle cx="805.333" cy="184" r="4" fill="#0" id="circle136"/>
	<circle cx="816" cy="262.667" r="4" fill="#0" id="circle137"/>
	<circle cx="818.667" cy="181.333" r="4" fill="#0" id="circle138"/>
	<circle cx="828" cy="269.333" r="4" fill="#0" id="circle139"/>
	<circle cx="830.667" cy="174.667" r="4" fill="#0" id="circle140"/>
	<circle cx="840" cy="276" r="4" fill="#0" id="circle141"/>
	<circle cx="844" cy="174.667" r="4" fill="#0" id="circle142"/>
	<circle cx="852" cy="282.667" r="4" fill="#0" id="circle143"/>
	<circle cx="856" cy="168" r="4" fill="#0" id="circle144"/>
	<circle cx="864" cy="289.333" r="4" fill="#0" id="circle145"/>
	<circle cx="868" cy="161.333" r="4" fill="#0" id="circle146"/>
	<circle cx="876" cy="296" r="4" fill="#0" id="circle147"/>
	<circle cx="880" cy="154.667" r="4" fill="#0" id="circle148"/>
	<circle cx="888" cy="302.667" r="4" fill="#0" id="circle149"/>
	<circle cx="893.333" cy="149.333" r="4" fill="#0" id="circle150"/>
	<circle cx="900" cy="309.333" r="4" fill="#0" id="circle151"/>
	<circle cx="906.667" cy="142.667" r="4" fill="#0" id="circle152"/>
	<circle cx="912" cy="209.333" r="4" fill="#0" id="circle153"/>
	<circle cx="912" cy="222.667" r="4" fill="#0" id="circle154"/>
	<circle cx="912" cy="236" r="4" fill="#0" id="circle155"/>
	<circle cx="912" cy="316" r="4" fill="#0" id="circle156"/>
	<circle cx="920" cy="141.333" r="4" fill="#0" id="circle157"/>
	<circle cx="922.667" cy="244" r="4" fill="#0" id="circle158"/>
	<circle cx="924" cy="322.667" r="4" fill="#0" id="circle159"/>
	<circle cx="925.333" cy="202.667" r="4" fill="#0" id="circle160"/>
	<circle cx="930.667" cy="132" r="4" fill="#0" id="circle161"/>
	<circle cx="932" cy="189.333" r="4" fill="#0" id="circle162"/>
	<circle cx="932" cy="254.667" r="4" fill="#0" id="circle163"/>
	<circle cx="936" cy="329.333" r="4" fill="#0" id="circle164"/>
	<circle cx="938.667" cy="266.667" r="4" fill="#0" id="circle165"/>
	<circle cx="944" cy="125.333" r="4" fill="#0" id="circle166"/>
	<circle cx="945.333" cy="176" r="4" fill="#0" id="circle167"/>
	<circle cx="945.333" cy="278.667" r="4" fill="#0" id="circle168"/>
	<circle cx="948" cy="336" r="4" fill="#0" id="circle169"/>
	<circle cx="950.667" cy="292" r="4" fill="#0" id="circle170"/>
	<circle cx="957.333" cy="121.333" r="4" fill="#0" id="circle171"/>
	<circle cx="958.667" cy="176" r="4" fill="#0" id="circle172"/>
	<circle cx="961.333" cy="301.333" r="4" fill="#0" id="circle173"/>
	<circle cx="961.333" cy="336" r="4" fill="#0" id="circle174"/>
	<circle cx="965.333" cy="156" r="4" fill="#0" id="circle175"/>
	<circle cx="965.333" cy="314.667" r="4" fill="#0" id="circle176"/>
	<circle cx="969.333" cy="114.667" r="4" fill="#0" id="circle177"/>
	<circle cx="972" cy="326.667" r="4" fill="#0" id="circle178"/>
	<circle cx="978.667" cy="142.667" r="4" fill="#0" id="circle179"/>
	<circle cx="981.333" cy="108" r="4" fill="#0" id="circle180"/>
	<circle cx="989.333" cy="133.333" r="4" fill="#0" id="circle181"/>
	<circle cx="994.667" cy="108" r="4" fill="#0" id="circle182"/>
	<circle cx="996" cy="121.333" r="4" fill="#0" id="circle183"/>
	</g>
</svg>