<?xml version="1.0" encoding="UTF-8" standalone="no"?>
<!-- Created with CurveBenchmark -->
<svg
	xmlns:dc="http://purl.org/dc/elements/1.1/"
	xmlns:cc="http://creativecommons.org/ns#"
	xmlns:rdf="http://www.w3.org/1999/02/22-rdf-syntax-ns#"
	xmlns:svg="http://www.w3.org/2000/svg"
	xmlns="http://www.w3.org/2000/svg"
	xmlns:sodipodi="http://sodipodi.sourceforge.net/DTD/sodipodi-0.dtd"
	xmlns:inkscape="http://www.inkscape.org/namespaces/inkscape"
	width="1000"
	height="1000"
	id="svg2"
	version="1.1"
	sodipodi:docname="manifold/crust-bird30.png.txt">
<defs
	id="defs4" />
<metadata
	id="metadata7">
	<rdf:RDF>
		<cc:Work
			rdf:about="">
			<dc:format>image/svg+xml</dc:format>
			<dc:type
				rdf:resource="http://purl.org/dc/dcmitype/StillImage" />
			<dc:title></dc:title>
		</cc:Work>
	</rdf:RDF>
</metadata>
<g
	inkscape:label="Layer 1"
	inkscape:groupmode="layer"
	id="layer1">
	<path style="fill:none;stroke:red;stroke-width:1px;stroke-linecap:butt;stroke-linejoin:miter;stroke-opacity:1" d="M 71.1943,69.426 53.5116,78.2674 z" id="boundary" inkscape:connector-curvature="0" />
	<path style="fill:none;stroke:red;stroke-width:1px;stroke-linecap:butt;stroke-linejoin:miter;stroke-opacity:1" d="M 85.3405,55.2799 71.1943,69.426 z" id="boundary" inkscape:connector-curvature="0" />
	<path style="fill:none;stroke:red;stroke-width:1px;stroke-linecap:butt;stroke-linejoin:miter;stroke-opacity:1" d="M 21.6827,95.9501 37.5971,87.1087 z" id="boundary" inkscape:connector-curvature="0" />
	<path style="fill:none;stroke:red;stroke-width:1px;stroke-linecap:butt;stroke-linejoin:miter;stroke-opacity:1" d="M 53.5116,78.2674 37.5971,87.1087 z" id="boundary" inkscape:connector-curvature="0" />
	<path style="fill:none;stroke:red;stroke-width:1px;stroke-linecap:butt;stroke-linejoin:miter;stroke-opacity:1" d="M 21.6827,95.9501 4,101.255 z" id="boundary" inkscape:connector-curvature="0" />
	<path style="fill:none;stroke:red;stroke-width:1px;stroke-linecap:butt;stroke-linejoin:miter;stroke-opacity:1" d="M 21.6827,124.242 4,118.938 z" id="boundary" inkscape:connector-curvature="0" />
	<path style="fill:none;stroke:red;stroke-width:1px;stroke-linecap:butt;stroke-linejoin:miter;stroke-opacity:1" d="M 4,118.938 4,101.255 z" id="boundary" inkscape:connector-curvature="0" />
	<path style="fill:none;stroke:red;stroke-width:1px;stroke-linecap:butt;stroke-linejoin:miter;stroke-opacity:1" d="M 111.865,34.0606 94.1818,37.5971 z" id="boundary" inkscape:connector-curvature="0" />
	<path style="fill:none;stroke:red;stroke-width:1px;stroke-linecap:butt;stroke-linejoin:miter;stroke-opacity:1" d="M 127.779,21.6827 111.865,34.0606 z" id="boundary" inkscape:connector-curvature="0" />
	<path style="fill:none;stroke:red;stroke-width:1px;stroke-linecap:butt;stroke-linejoin:miter;stroke-opacity:1" d="M 85.3405,55.2799 94.1818,37.5971 z" id="boundary" inkscape:connector-curvature="0" />
	<path style="fill:none;stroke:red;stroke-width:1px;stroke-linecap:butt;stroke-linejoin:miter;stroke-opacity:1" d="M 163.144,7.53654 180.827,4 z" id="boundary" inkscape:connector-curvature="0" />
	<path style="fill:none;stroke:red;stroke-width:1px;stroke-linecap:butt;stroke-linejoin:miter;stroke-opacity:1" d="M 127.779,21.6827 145.462,12.8414 z" id="boundary" inkscape:connector-curvature="0" />
	<path style="fill:none;stroke:red;stroke-width:1px;stroke-linecap:butt;stroke-linejoin:miter;stroke-opacity:1" d="M 145.462,12.8414 163.144,7.53654 z" id="boundary" inkscape:connector-curvature="0" />
	<path style="fill:none;stroke:red;stroke-width:1px;stroke-linecap:butt;stroke-linejoin:miter;stroke-opacity:1" d="M 21.6827,124.242 39.3654,124.242 z" id="boundary" inkscape:connector-curvature="0" />
	<path style="fill:none;stroke:red;stroke-width:1px;stroke-linecap:butt;stroke-linejoin:miter;stroke-opacity:1" d="M 39.3654,124.242 57.0481,124.242 z" id="boundary" inkscape:connector-curvature="0" />
	<path style="fill:none;stroke:red;stroke-width:1px;stroke-linecap:butt;stroke-linejoin:miter;stroke-opacity:1" d="M 74.7308,124.242 92.4135,124.242 z" id="boundary" inkscape:connector-curvature="0" />
	<path style="fill:none;stroke:red;stroke-width:1px;stroke-linecap:butt;stroke-linejoin:miter;stroke-opacity:1" d="M 92.4135,124.242 108.328,133.084 z" id="boundary" inkscape:connector-curvature="0" />
	<path style="fill:none;stroke:red;stroke-width:1px;stroke-linecap:butt;stroke-linejoin:miter;stroke-opacity:1" d="M 57.0481,124.242 74.7308,124.242 z" id="boundary" inkscape:connector-curvature="0" />
	<path style="fill:none;stroke:red;stroke-width:1px;stroke-linecap:butt;stroke-linejoin:miter;stroke-opacity:1" d="M 118.938,147.23 118.938,164.913 z" id="boundary" inkscape:connector-curvature="0" />
	<path style="fill:none;stroke:red;stroke-width:1px;stroke-linecap:butt;stroke-linejoin:miter;stroke-opacity:1" d="M 118.938,147.23 108.328,133.084 z" id="boundary" inkscape:connector-curvature="0" />
	<path style="fill:none;stroke:red;stroke-width:1px;stroke-linecap:butt;stroke-linejoin:miter;stroke-opacity:1" d="M 118.938,164.913 118.938,182.595 z" id="boundary" inkscape:connector-curvature="0" />
	<path style="fill:none;stroke:red;stroke-width:1px;stroke-linecap:butt;stroke-linejoin:miter;stroke-opacity:1" d="M 118.938,200.278 118.938,182.595 z" id="boundary" inkscape:connector-curvature="0" />
	<path style="fill:none;stroke:red;stroke-width:1px;stroke-linecap:butt;stroke-linejoin:miter;stroke-opacity:1" d="M 118.938,200.278 118.938,217.961 z" id="boundary" inkscape:connector-curvature="0" />
	<path style="fill:none;stroke:red;stroke-width:1px;stroke-linecap:butt;stroke-linejoin:miter;stroke-opacity:1" d="M 118.938,235.643 118.938,217.961 z" id="boundary" inkscape:connector-curvature="0" />
	<path style="fill:none;stroke:red;stroke-width:1px;stroke-linecap:butt;stroke-linejoin:miter;stroke-opacity:1" d="M 118.938,235.643 127.779,251.558 z" id="boundary" inkscape:connector-curvature="0" />
	<path style="fill:none;stroke:red;stroke-width:1px;stroke-linecap:butt;stroke-linejoin:miter;stroke-opacity:1" d="M 136.62,267.472 127.779,251.558 z" id="boundary" inkscape:connector-curvature="0" />
	<path style="fill:none;stroke:red;stroke-width:1px;stroke-linecap:butt;stroke-linejoin:miter;stroke-opacity:1" d="M 136.62,285.155 145.462,301.07 z" id="boundary" inkscape:connector-curvature="0" />
	<path style="fill:none;stroke:red;stroke-width:1px;stroke-linecap:butt;stroke-linejoin:miter;stroke-opacity:1" d="M 136.62,267.472 136.62,285.155 z" id="boundary" inkscape:connector-curvature="0" />
	<path style="fill:none;stroke:red;stroke-width:1px;stroke-linecap:butt;stroke-linejoin:miter;stroke-opacity:1" d="M 164.913,331.13 150.766,318.752 z" id="boundary" inkscape:connector-curvature="0" />
	<path style="fill:none;stroke:red;stroke-width:1px;stroke-linecap:butt;stroke-linejoin:miter;stroke-opacity:1" d="M 150.766,318.752 145.462,301.07 z" id="boundary" inkscape:connector-curvature="0" />
	<path style="fill:none;stroke:red;stroke-width:1px;stroke-linecap:butt;stroke-linejoin:miter;stroke-opacity:1" d="M 177.291,345.276 164.913,331.13 z" id="boundary" inkscape:connector-curvature="0" />
	<path style="fill:none;stroke:red;stroke-width:1px;stroke-linecap:butt;stroke-linejoin:miter;stroke-opacity:1" d="M 177.291,345.276 194.973,352.349 z" id="boundary" inkscape:connector-curvature="0" />
	<path style="fill:none;stroke:red;stroke-width:1px;stroke-linecap:butt;stroke-linejoin:miter;stroke-opacity:1" d="M 194.973,352.349 198.51,370.032 z" id="boundary" inkscape:connector-curvature="0" />
	<path style="fill:none;stroke:red;stroke-width:1px;stroke-linecap:butt;stroke-linejoin:miter;stroke-opacity:1" d="M 180.827,4 198.51,7.53654 z" id="boundary" inkscape:connector-curvature="0" />
	<path style="fill:none;stroke:red;stroke-width:1px;stroke-linecap:butt;stroke-linejoin:miter;stroke-opacity:1" d="M 214.424,16.3779 198.51,7.53654 z" id="boundary" inkscape:connector-curvature="0" />
	<path style="fill:none;stroke:red;stroke-width:1px;stroke-linecap:butt;stroke-linejoin:miter;stroke-opacity:1" d="M 230.339,25.2193 214.424,16.3779 z" id="boundary" inkscape:connector-curvature="0" />
	<path style="fill:none;stroke:red;stroke-width:1px;stroke-linecap:butt;stroke-linejoin:miter;stroke-opacity:1" d="M 246.253,34.0606 230.339,25.2193 z" id="boundary" inkscape:connector-curvature="0" />
	<path style="fill:none;stroke:red;stroke-width:1px;stroke-linecap:butt;stroke-linejoin:miter;stroke-opacity:1" d="M 263.936,34.0606 246.253,34.0606 z" id="boundary" inkscape:connector-curvature="0" />
	<path style="fill:none;stroke:red;stroke-width:1px;stroke-linecap:butt;stroke-linejoin:miter;stroke-opacity:1" d="M 278.082,46.4385 263.936,34.0606 z" id="boundary" inkscape:connector-curvature="0" />
	<path style="fill:none;stroke:red;stroke-width:1px;stroke-linecap:butt;stroke-linejoin:miter;stroke-opacity:1" d="M 278.082,46.4385 285.155,64.1212 z" id="boundary" inkscape:connector-curvature="0" />
	<path style="fill:none;stroke:red;stroke-width:1px;stroke-linecap:butt;stroke-linejoin:miter;stroke-opacity:1" d="M 293.996,80.0357 285.155,64.1212 z" id="boundary" inkscape:connector-curvature="0" />
	<path style="fill:none;stroke:red;stroke-width:1px;stroke-linecap:butt;stroke-linejoin:miter;stroke-opacity:1" d="M 293.996,80.0357 306.374,94.1818 z" id="boundary" inkscape:connector-curvature="0" />
	<path style="fill:none;stroke:red;stroke-width:1px;stroke-linecap:butt;stroke-linejoin:miter;stroke-opacity:1" d="M 320.52,106.56 306.374,94.1818 z" id="boundary" inkscape:connector-curvature="0" />
	<path style="fill:none;stroke:red;stroke-width:1px;stroke-linecap:butt;stroke-linejoin:miter;stroke-opacity:1" d="M 320.52,106.56 336.435,115.401 z" id="boundary" inkscape:connector-curvature="0" />
	<path style="fill:none;stroke:red;stroke-width:1px;stroke-linecap:butt;stroke-linejoin:miter;stroke-opacity:1" d="M 350.581,127.779 336.435,115.401 z" id="boundary" inkscape:connector-curvature="0" />
	<path style="fill:none;stroke:red;stroke-width:1px;stroke-linecap:butt;stroke-linejoin:miter;stroke-opacity:1" d="M 375.337,152.535 357.654,145.462 z" id="boundary" inkscape:connector-curvature="0" />
	<path style="fill:none;stroke:red;stroke-width:1px;stroke-linecap:butt;stroke-linejoin:miter;stroke-opacity:1" d="M 350.581,127.779 357.654,145.462 z" id="boundary" inkscape:connector-curvature="0" />
	<path style="fill:none;stroke:red;stroke-width:1px;stroke-linecap:butt;stroke-linejoin:miter;stroke-opacity:1" d="M 393.02,157.84 375.337,152.535 z" id="boundary" inkscape:connector-curvature="0" />
	<path style="fill:none;stroke:red;stroke-width:1px;stroke-linecap:butt;stroke-linejoin:miter;stroke-opacity:1" d="M 393.02,157.84 408.934,166.681 z" id="boundary" inkscape:connector-curvature="0" />
	<path style="fill:none;stroke:red;stroke-width:1px;stroke-linecap:butt;stroke-linejoin:miter;stroke-opacity:1" d="M 424.848,175.522 430.153,193.205 z" id="boundary" inkscape:connector-curvature="0" />
	<path style="fill:none;stroke:red;stroke-width:1px;stroke-linecap:butt;stroke-linejoin:miter;stroke-opacity:1" d="M 408.934,166.681 424.848,175.522 z" id="boundary" inkscape:connector-curvature="0" />
	<path style="fill:none;stroke:red;stroke-width:1px;stroke-linecap:butt;stroke-linejoin:miter;stroke-opacity:1" d="M 207.351,385.947 198.51,370.032 z" id="boundary" inkscape:connector-curvature="0" />
	<path style="fill:none;stroke:red;stroke-width:1px;stroke-linecap:butt;stroke-linejoin:miter;stroke-opacity:1" d="M 216.193,401.861 207.351,385.947 z" id="boundary" inkscape:connector-curvature="0" />
	<path style="fill:none;stroke:red;stroke-width:1px;stroke-linecap:butt;stroke-linejoin:miter;stroke-opacity:1" d="M 225.034,417.775 216.193,401.861 z" id="boundary" inkscape:connector-curvature="0" />
	<path style="fill:none;stroke:red;stroke-width:1px;stroke-linecap:butt;stroke-linejoin:miter;stroke-opacity:1" d="M 233.875,433.69 225.034,417.775 z" id="boundary" inkscape:connector-curvature="0" />
	<path style="fill:none;stroke:red;stroke-width:1px;stroke-linecap:butt;stroke-linejoin:miter;stroke-opacity:1" d="M 430.153,193.205 447.836,193.205 z" id="boundary" inkscape:connector-curvature="0" />
	<path style="fill:none;stroke:red;stroke-width:1px;stroke-linecap:butt;stroke-linejoin:miter;stroke-opacity:1" d="M 461.982,203.815 477.897,212.656 z" id="boundary" inkscape:connector-curvature="0" />
	<path style="fill:none;stroke:red;stroke-width:1px;stroke-linecap:butt;stroke-linejoin:miter;stroke-opacity:1" d="M 461.982,203.815 447.836,193.205 z" id="boundary" inkscape:connector-curvature="0" />
	<path style="fill:none;stroke:red;stroke-width:1px;stroke-linecap:butt;stroke-linejoin:miter;stroke-opacity:1" d="M 477.897,212.656 495.579,219.729 z" id="boundary" inkscape:connector-curvature="0" />
	<path style="fill:none;stroke:red;stroke-width:1px;stroke-linecap:butt;stroke-linejoin:miter;stroke-opacity:1" d="M 233.875,433.69 239.18,451.373 z" id="boundary" inkscape:connector-curvature="0" />
	<path style="fill:none;stroke:red;stroke-width:1px;stroke-linecap:butt;stroke-linejoin:miter;stroke-opacity:1" d="M 248.021,467.287 239.18,451.373 z" id="boundary" inkscape:connector-curvature="0" />
	<path style="fill:none;stroke:red;stroke-width:1px;stroke-linecap:butt;stroke-linejoin:miter;stroke-opacity:1" d="M 248.021,467.287 251.558,484.97 z" id="boundary" inkscape:connector-curvature="0" />
	<path style="fill:none;stroke:red;stroke-width:1px;stroke-linecap:butt;stroke-linejoin:miter;stroke-opacity:1" d="M 255.094,502.652 251.558,484.97 z" id="boundary" inkscape:connector-curvature="0" />
	<path style="fill:none;stroke:red;stroke-width:1px;stroke-linecap:butt;stroke-linejoin:miter;stroke-opacity:1" d="M 269.241,513.262 274.545,530.945 z" id="boundary" inkscape:connector-curvature="0" />
	<path style="fill:none;stroke:red;stroke-width:1px;stroke-linecap:butt;stroke-linejoin:miter;stroke-opacity:1" d="M 269.241,513.262 255.094,502.652 z" id="boundary" inkscape:connector-curvature="0" />
	<path style="fill:none;stroke:red;stroke-width:1px;stroke-linecap:butt;stroke-linejoin:miter;stroke-opacity:1" d="M 274.545,530.945 283.387,546.859 z" id="boundary" inkscape:connector-curvature="0" />
	<path style="fill:none;stroke:red;stroke-width:1px;stroke-linecap:butt;stroke-linejoin:miter;stroke-opacity:1" d="M 295.765,561.005 283.387,546.859 z" id="boundary" inkscape:connector-curvature="0" />
	<path style="fill:none;stroke:red;stroke-width:1px;stroke-linecap:butt;stroke-linejoin:miter;stroke-opacity:1" d="M 295.765,561.005 313.447,566.31 z" id="boundary" inkscape:connector-curvature="0" />
	<path style="fill:none;stroke:red;stroke-width:1px;stroke-linecap:butt;stroke-linejoin:miter;stroke-opacity:1" d="M 313.447,566.31 324.057,580.456 z" id="boundary" inkscape:connector-curvature="0" />
	<path style="fill:none;stroke:red;stroke-width:1px;stroke-linecap:butt;stroke-linejoin:miter;stroke-opacity:1" d="M 324.057,580.456 341.74,587.529 z" id="boundary" inkscape:connector-curvature="0" />
	<path style="fill:none;stroke:red;stroke-width:1px;stroke-linecap:butt;stroke-linejoin:miter;stroke-opacity:1" d="M 348.813,605.212 341.74,587.529 z" id="boundary" inkscape:connector-curvature="0" />
	<path style="fill:none;stroke:red;stroke-width:1px;stroke-linecap:butt;stroke-linejoin:miter;stroke-opacity:1" d="M 362.959,617.59 348.813,605.212 z" id="boundary" inkscape:connector-curvature="0" />
	<path style="fill:none;stroke:red;stroke-width:1px;stroke-linecap:butt;stroke-linejoin:miter;stroke-opacity:1" d="M 375.337,631.736 362.959,617.59 z" id="boundary" inkscape:connector-curvature="0" />
	<path style="fill:none;stroke:red;stroke-width:1px;stroke-linecap:butt;stroke-linejoin:miter;stroke-opacity:1" d="M 278.082,799.722 288.692,813.868 z" id="boundary" inkscape:connector-curvature="0" />
	<path style="fill:none;stroke:red;stroke-width:1px;stroke-linecap:butt;stroke-linejoin:miter;stroke-opacity:1" d="M 292.228,785.576 278.082,799.722 z" id="boundary" inkscape:connector-curvature="0" />
	<path style="fill:none;stroke:red;stroke-width:1px;stroke-linecap:butt;stroke-linejoin:miter;stroke-opacity:1" d="M 309.911,785.576 292.228,785.576 z" id="boundary" inkscape:connector-curvature="0" />
	<path style="fill:none;stroke:red;stroke-width:1px;stroke-linecap:butt;stroke-linejoin:miter;stroke-opacity:1" d="M 327.594,785.576 309.911,785.576 z" id="boundary" inkscape:connector-curvature="0" />
	<path style="fill:none;stroke:red;stroke-width:1px;stroke-linecap:butt;stroke-linejoin:miter;stroke-opacity:1" d="M 306.374,813.868 288.692,813.868 z" id="boundary" inkscape:connector-curvature="0" />
	<path style="fill:none;stroke:red;stroke-width:1px;stroke-linecap:butt;stroke-linejoin:miter;stroke-opacity:1" d="M 324.057,813.868 306.374,813.868 z" id="boundary" inkscape:connector-curvature="0" />
	<path style="fill:none;stroke:red;stroke-width:1px;stroke-linecap:butt;stroke-linejoin:miter;stroke-opacity:1" d="M 361.191,776.734 345.276,785.576 z" id="boundary" inkscape:connector-curvature="0" />
	<path style="fill:none;stroke:red;stroke-width:1px;stroke-linecap:butt;stroke-linejoin:miter;stroke-opacity:1" d="M 327.594,785.576 345.276,785.576 z" id="boundary" inkscape:connector-curvature="0" />
	<path style="fill:none;stroke:red;stroke-width:1px;stroke-linecap:butt;stroke-linejoin:miter;stroke-opacity:1" d="M 394.788,780.271 377.105,785.576 z" id="boundary" inkscape:connector-curvature="0" />
	<path style="fill:none;stroke:red;stroke-width:1px;stroke-linecap:butt;stroke-linejoin:miter;stroke-opacity:1" d="M 377.105,785.576 361.191,776.734 z" id="boundary" inkscape:connector-curvature="0" />
	<path style="fill:none;stroke:red;stroke-width:1px;stroke-linecap:butt;stroke-linejoin:miter;stroke-opacity:1" d="M 359.422,813.868 341.74,813.868 z" id="boundary" inkscape:connector-curvature="0" />
	<path style="fill:none;stroke:red;stroke-width:1px;stroke-linecap:butt;stroke-linejoin:miter;stroke-opacity:1" d="M 341.74,813.868 324.057,813.868 z" id="boundary" inkscape:connector-curvature="0" />
	<path style="fill:none;stroke:red;stroke-width:1px;stroke-linecap:butt;stroke-linejoin:miter;stroke-opacity:1" d="M 377.105,813.868 359.422,813.868 z" id="boundary" inkscape:connector-curvature="0" />
	<path style="fill:none;stroke:red;stroke-width:1px;stroke-linecap:butt;stroke-linejoin:miter;stroke-opacity:1" d="M 375.337,631.736 393.02,637.041 z" id="boundary" inkscape:connector-curvature="0" />
	<path style="fill:none;stroke:red;stroke-width:1px;stroke-linecap:butt;stroke-linejoin:miter;stroke-opacity:1" d="M 408.934,645.882 393.02,637.041 z" id="boundary" inkscape:connector-curvature="0" />
	<path style="fill:none;stroke:red;stroke-width:1px;stroke-linecap:butt;stroke-linejoin:miter;stroke-opacity:1" d="M 426.617,645.882 408.934,645.882 z" id="boundary" inkscape:connector-curvature="0" />
	<path style="fill:none;stroke:red;stroke-width:1px;stroke-linecap:butt;stroke-linejoin:miter;stroke-opacity:1" d="M 442.531,654.724 426.617,645.882 z" id="boundary" inkscape:connector-curvature="0" />
	<path style="fill:none;stroke:red;stroke-width:1px;stroke-linecap:butt;stroke-linejoin:miter;stroke-opacity:1" d="M 460.214,652.955 442.531,654.724 z" id="boundary" inkscape:connector-curvature="0" />
	<path style="fill:none;stroke:red;stroke-width:1px;stroke-linecap:butt;stroke-linejoin:miter;stroke-opacity:1" d="M 454.909,675.943 446.068,693.626 z" id="boundary" inkscape:connector-curvature="0" />
	<path style="fill:none;stroke:red;stroke-width:1px;stroke-linecap:butt;stroke-linejoin:miter;stroke-opacity:1" d="M 446.068,693.626 442.531,714.845 z" id="boundary" inkscape:connector-curvature="0" />
	<path style="fill:none;stroke:red;stroke-width:1px;stroke-linecap:butt;stroke-linejoin:miter;stroke-opacity:1" d="M 442.531,714.845 428.385,728.991 z" id="boundary" inkscape:connector-curvature="0" />
	<path style="fill:none;stroke:red;stroke-width:1px;stroke-linecap:butt;stroke-linejoin:miter;stroke-opacity:1" d="M 474.36,698.93 465.519,725.455 z" id="boundary" inkscape:connector-curvature="0" />
	<path style="fill:none;stroke:red;stroke-width:1px;stroke-linecap:butt;stroke-linejoin:miter;stroke-opacity:1" d="M 488.506,686.553 474.36,698.93 z" id="boundary" inkscape:connector-curvature="0" />
	<path style="fill:none;stroke:red;stroke-width:1px;stroke-linecap:butt;stroke-linejoin:miter;stroke-opacity:1" d="M 499.116,672.406 488.506,686.553 z" id="boundary" inkscape:connector-curvature="0" />
	<path style="fill:none;stroke:red;stroke-width:1px;stroke-linecap:butt;stroke-linejoin:miter;stroke-opacity:1" d="M 465.519,725.455 453.141,739.601 z" id="boundary" inkscape:connector-curvature="0" />
	<path style="fill:none;stroke:red;stroke-width:1px;stroke-linecap:butt;stroke-linejoin:miter;stroke-opacity:1" d="M 408.934,767.893 421.312,753.747 z" id="boundary" inkscape:connector-curvature="0" />
	<path style="fill:none;stroke:red;stroke-width:1px;stroke-linecap:butt;stroke-linejoin:miter;stroke-opacity:1" d="M 394.788,780.271 408.934,767.893 z" id="boundary" inkscape:connector-curvature="0" />
	<path style="fill:none;stroke:red;stroke-width:1px;stroke-linecap:butt;stroke-linejoin:miter;stroke-opacity:1" d="M 421.312,753.747 438.995,751.979 z" id="boundary" inkscape:connector-curvature="0" />
	<path style="fill:none;stroke:red;stroke-width:1px;stroke-linecap:butt;stroke-linejoin:miter;stroke-opacity:1" d="M 438.995,751.979 442.531,769.661 z" id="boundary" inkscape:connector-curvature="0" />
	<path style="fill:none;stroke:red;stroke-width:1px;stroke-linecap:butt;stroke-linejoin:miter;stroke-opacity:1" d="M 421.312,753.747 428.385,728.991 z" id="boundary" inkscape:connector-curvature="0" />
	<path style="fill:none;stroke:red;stroke-width:1px;stroke-linecap:butt;stroke-linejoin:miter;stroke-opacity:1" d="M 412.471,813.868 394.788,813.868 z" id="boundary" inkscape:connector-curvature="0" />
	<path style="fill:none;stroke:red;stroke-width:1px;stroke-linecap:butt;stroke-linejoin:miter;stroke-opacity:1" d="M 394.788,813.868 377.105,813.868 z" id="boundary" inkscape:connector-curvature="0" />
	<path style="fill:none;stroke:red;stroke-width:1px;stroke-linecap:butt;stroke-linejoin:miter;stroke-opacity:1" d="M 430.153,813.868 412.471,813.868 z" id="boundary" inkscape:connector-curvature="0" />
	<path style="fill:none;stroke:red;stroke-width:1px;stroke-linecap:butt;stroke-linejoin:miter;stroke-opacity:1" d="M 447.836,813.868 430.153,813.868 z" id="boundary" inkscape:connector-curvature="0" />
	<path style="fill:none;stroke:red;stroke-width:1px;stroke-linecap:butt;stroke-linejoin:miter;stroke-opacity:1" d="M 453.141,739.601 438.995,751.979 z" id="boundary" inkscape:connector-curvature="0" />
	<path style="fill:none;stroke:red;stroke-width:1px;stroke-linecap:butt;stroke-linejoin:miter;stroke-opacity:1" d="M 456.677,782.039 442.531,769.661 z" id="boundary" inkscape:connector-curvature="0" />
	<path style="fill:none;stroke:red;stroke-width:1px;stroke-linecap:butt;stroke-linejoin:miter;stroke-opacity:1" d="M 474.36,785.576 456.677,782.039 z" id="boundary" inkscape:connector-curvature="0" />
	<path style="fill:none;stroke:red;stroke-width:1px;stroke-linecap:butt;stroke-linejoin:miter;stroke-opacity:1" d="M 490.275,776.734 474.36,785.576 z" id="boundary" inkscape:connector-curvature="0" />
	<path style="fill:none;stroke:red;stroke-width:1px;stroke-linecap:butt;stroke-linejoin:miter;stroke-opacity:1" d="M 465.519,813.868 447.836,813.868 z" id="boundary" inkscape:connector-curvature="0" />
	<path style="fill:none;stroke:red;stroke-width:1px;stroke-linecap:butt;stroke-linejoin:miter;stroke-opacity:1" d="M 500.884,813.868 483.201,813.868 z" id="boundary" inkscape:connector-curvature="0" />
	<path style="fill:none;stroke:red;stroke-width:1px;stroke-linecap:butt;stroke-linejoin:miter;stroke-opacity:1" d="M 483.201,813.868 465.519,813.868 z" id="boundary" inkscape:connector-curvature="0" />
	<path style="fill:none;stroke:red;stroke-width:1px;stroke-linecap:butt;stroke-linejoin:miter;stroke-opacity:1" d="M 490.275,776.734 507.957,780.271 z" id="boundary" inkscape:connector-curvature="0" />
	<path style="fill:none;stroke:red;stroke-width:1px;stroke-linecap:butt;stroke-linejoin:miter;stroke-opacity:1" d="M 495.579,219.729 507.957,233.875 z" id="boundary" inkscape:connector-curvature="0" />
	<path style="fill:none;stroke:red;stroke-width:1px;stroke-linecap:butt;stroke-linejoin:miter;stroke-opacity:1" d="M 522.103,246.253 507.957,233.875 z" id="boundary" inkscape:connector-curvature="0" />
	<path style="fill:none;stroke:red;stroke-width:1px;stroke-linecap:butt;stroke-linejoin:miter;stroke-opacity:1" d="M 522.103,246.253 534.481,260.399 z" id="boundary" inkscape:connector-curvature="0" />
	<path style="fill:none;stroke:red;stroke-width:1px;stroke-linecap:butt;stroke-linejoin:miter;stroke-opacity:1" d="M 534.481,260.399 552.164,267.472 z" id="boundary" inkscape:connector-curvature="0" />
	<path style="fill:none;stroke:red;stroke-width:1px;stroke-linecap:butt;stroke-linejoin:miter;stroke-opacity:1" d="M 552.164,267.472 562.774,281.619 z" id="boundary" inkscape:connector-curvature="0" />
	<path style="fill:none;stroke:red;stroke-width:1px;stroke-linecap:butt;stroke-linejoin:miter;stroke-opacity:1" d="M 589.298,306.374 598.139,322.289 z" id="boundary" inkscape:connector-curvature="0" />
	<path style="fill:none;stroke:red;stroke-width:1px;stroke-linecap:butt;stroke-linejoin:miter;stroke-opacity:1" d="M 589.298,306.374 576.92,292.228 z" id="boundary" inkscape:connector-curvature="0" />
	<path style="fill:none;stroke:red;stroke-width:1px;stroke-linecap:butt;stroke-linejoin:miter;stroke-opacity:1" d="M 576.92,292.228 562.774,281.619 z" id="boundary" inkscape:connector-curvature="0" />
	<path style="fill:none;stroke:red;stroke-width:1px;stroke-linecap:butt;stroke-linejoin:miter;stroke-opacity:1" d="M 598.139,322.289 610.517,336.435 z" id="boundary" inkscape:connector-curvature="0" />
	<path style="fill:none;stroke:red;stroke-width:1px;stroke-linecap:butt;stroke-linejoin:miter;stroke-opacity:1" d="M 628.2,343.508 610.517,336.435 z" id="boundary" inkscape:connector-curvature="0" />
	<path style="fill:none;stroke:red;stroke-width:1px;stroke-linecap:butt;stroke-linejoin:miter;stroke-opacity:1" d="M 628.2,343.508 644.114,352.349 z" id="boundary" inkscape:connector-curvature="0" />
	<path style="fill:none;stroke:red;stroke-width:1px;stroke-linecap:butt;stroke-linejoin:miter;stroke-opacity:1" d="M 660.029,361.191 668.87,377.105 z" id="boundary" inkscape:connector-curvature="0" />
	<path style="fill:none;stroke:red;stroke-width:1px;stroke-linecap:butt;stroke-linejoin:miter;stroke-opacity:1" d="M 644.114,352.349 660.029,361.191 z" id="boundary" inkscape:connector-curvature="0" />
	<path style="fill:none;stroke:red;stroke-width:1px;stroke-linecap:butt;stroke-linejoin:miter;stroke-opacity:1" d="M 668.87,377.105 683.016,389.483 z" id="boundary" inkscape:connector-curvature="0" />
	<path style="fill:none;stroke:red;stroke-width:1px;stroke-linecap:butt;stroke-linejoin:miter;stroke-opacity:1" d="M 695.394,403.629 683.016,389.483 z" id="boundary" inkscape:connector-curvature="0" />
	<path style="fill:none;stroke:red;stroke-width:1px;stroke-linecap:butt;stroke-linejoin:miter;stroke-opacity:1" d="M 695.394,403.629 713.077,410.702 z" id="boundary" inkscape:connector-curvature="0" />
	<path style="fill:none;stroke:red;stroke-width:1px;stroke-linecap:butt;stroke-linejoin:miter;stroke-opacity:1" d="M 727.223,423.08 713.077,410.702 z" id="boundary" inkscape:connector-curvature="0" />
	<path style="fill:none;stroke:red;stroke-width:1px;stroke-linecap:butt;stroke-linejoin:miter;stroke-opacity:1" d="M 743.137,431.922 727.223,423.08 z" id="boundary" inkscape:connector-curvature="0" />
	<path style="fill:none;stroke:red;stroke-width:1px;stroke-linecap:butt;stroke-linejoin:miter;stroke-opacity:1" d="M 576.92,598.139 589.298,583.993 z" id="boundary" inkscape:connector-curvature="0" />
	<path style="fill:none;stroke:red;stroke-width:1px;stroke-linecap:butt;stroke-linejoin:miter;stroke-opacity:1" d="M 576.92,598.139 559.237,601.676 z" id="boundary" inkscape:connector-curvature="0" />
	<path style="fill:none;stroke:red;stroke-width:1px;stroke-linecap:butt;stroke-linejoin:miter;stroke-opacity:1" d="M 543.323,610.517 559.237,601.676 z" id="boundary" inkscape:connector-curvature="0" />
	<path style="fill:none;stroke:red;stroke-width:1px;stroke-linecap:butt;stroke-linejoin:miter;stroke-opacity:1" d="M 589.298,583.993 606.98,583.993 z" id="boundary" inkscape:connector-curvature="0" />
	<path style="fill:none;stroke:red;stroke-width:1px;stroke-linecap:butt;stroke-linejoin:miter;stroke-opacity:1" d="M 624.663,587.529 606.98,583.993 z" id="boundary" inkscape:connector-curvature="0" />
	<path style="fill:none;stroke:red;stroke-width:1px;stroke-linecap:butt;stroke-linejoin:miter;stroke-opacity:1" d="M 642.346,592.834 660.029,596.371 z" id="boundary" inkscape:connector-curvature="0" />
	<path style="fill:none;stroke:red;stroke-width:1px;stroke-linecap:butt;stroke-linejoin:miter;stroke-opacity:1" d="M 642.346,592.834 624.663,587.529 z" id="boundary" inkscape:connector-curvature="0" />
	<path style="fill:none;stroke:red;stroke-width:1px;stroke-linecap:butt;stroke-linejoin:miter;stroke-opacity:1" d="M 660.029,596.371 667.102,614.053 z" id="boundary" inkscape:connector-curvature="0" />
	<path style="fill:none;stroke:red;stroke-width:1px;stroke-linecap:butt;stroke-linejoin:miter;stroke-opacity:1" d="M 743.137,431.922 757.283,442.531 z" id="boundary" inkscape:connector-curvature="0" />
	<path style="fill:none;stroke:red;stroke-width:1px;stroke-linecap:butt;stroke-linejoin:miter;stroke-opacity:1" d="M 757.283,442.531 766.125,458.446 z" id="boundary" inkscape:connector-curvature="0" />
	<path style="fill:none;stroke:red;stroke-width:1px;stroke-linecap:butt;stroke-linejoin:miter;stroke-opacity:1" d="M 766.125,458.446 780.271,469.055 z" id="boundary" inkscape:connector-curvature="0" />
	<path style="fill:none;stroke:red;stroke-width:1px;stroke-linecap:butt;stroke-linejoin:miter;stroke-opacity:1" d="M 684.784,619.358 667.102,614.053 z" id="boundary" inkscape:connector-curvature="0" />
	<path style="fill:none;stroke:red;stroke-width:1px;stroke-linecap:butt;stroke-linejoin:miter;stroke-opacity:1" d="M 543.323,610.517 527.408,619.358 z" id="boundary" inkscape:connector-curvature="0" />
	<path style="fill:none;stroke:red;stroke-width:1px;stroke-linecap:butt;stroke-linejoin:miter;stroke-opacity:1" d="M 796.185,477.897 780.271,469.055 z" id="boundary" inkscape:connector-curvature="0" />
	<path style="fill:none;stroke:red;stroke-width:1px;stroke-linecap:butt;stroke-linejoin:miter;stroke-opacity:1" d="M 796.185,477.897 805.027,493.811 z" id="boundary" inkscape:connector-curvature="0" />
	<path style="fill:none;stroke:red;stroke-width:1px;stroke-linecap:butt;stroke-linejoin:miter;stroke-opacity:1" d="M 820.941,502.652 805.027,493.811 z" id="boundary" inkscape:connector-curvature="0" />
	<path style="fill:none;stroke:red;stroke-width:1px;stroke-linecap:butt;stroke-linejoin:miter;stroke-opacity:1" d="M 836.856,511.494 820.941,502.652 z" id="boundary" inkscape:connector-curvature="0" />
	<path style="fill:none;stroke:red;stroke-width:1px;stroke-linecap:butt;stroke-linejoin:miter;stroke-opacity:1" d="M 851.002,522.103 836.856,511.494 z" id="boundary" inkscape:connector-curvature="0" />
	<path style="fill:none;stroke:red;stroke-width:1px;stroke-linecap:butt;stroke-linejoin:miter;stroke-opacity:1" d="M 851.002,522.103 863.38,536.25 z" id="boundary" inkscape:connector-curvature="0" />
	<path style="fill:none;stroke:red;stroke-width:1px;stroke-linecap:butt;stroke-linejoin:miter;stroke-opacity:1" d="M 863.38,536.25 881.062,538.018 z" id="boundary" inkscape:connector-curvature="0" />
	<path style="fill:none;stroke:red;stroke-width:1px;stroke-linecap:butt;stroke-linejoin:miter;stroke-opacity:1" d="M 881.062,538.018 898.745,543.323 z" id="boundary" inkscape:connector-curvature="0" />
	<path style="fill:none;stroke:red;stroke-width:1px;stroke-linecap:butt;stroke-linejoin:miter;stroke-opacity:1" d="M 898.745,543.323 912.891,555.701 z" id="boundary" inkscape:connector-curvature="0" />
	<path style="fill:none;stroke:red;stroke-width:1px;stroke-linecap:butt;stroke-linejoin:miter;stroke-opacity:1" d="M 928.806,564.542 912.891,555.701 z" id="boundary" inkscape:connector-curvature="0" />
	<path style="fill:none;stroke:red;stroke-width:1px;stroke-linecap:butt;stroke-linejoin:miter;stroke-opacity:1" d="M 944.72,573.383 928.806,564.542 z" id="boundary" inkscape:connector-curvature="0" />
	<path style="fill:none;stroke:red;stroke-width:1px;stroke-linecap:butt;stroke-linejoin:miter;stroke-opacity:1" d="M 889.904,591.066 881.062,575.152 z" id="boundary" inkscape:connector-curvature="0" />
	<path style="fill:none;stroke:red;stroke-width:1px;stroke-linecap:butt;stroke-linejoin:miter;stroke-opacity:1" d="M 907.586,583.993 925.269,587.529 z" id="boundary" inkscape:connector-curvature="0" />
	<path style="fill:none;stroke:red;stroke-width:1px;stroke-linecap:butt;stroke-linejoin:miter;stroke-opacity:1" d="M 904.05,601.676 889.904,591.066 z" id="boundary" inkscape:connector-curvature="0" />
	<path style="fill:none;stroke:red;stroke-width:1px;stroke-linecap:butt;stroke-linejoin:miter;stroke-opacity:1" d="M 919.964,610.517 904.05,601.676 z" id="boundary" inkscape:connector-curvature="0" />
	<path style="fill:none;stroke:red;stroke-width:1px;stroke-linecap:butt;stroke-linejoin:miter;stroke-opacity:1" d="M 942.952,592.834 925.269,587.529 z" id="boundary" inkscape:connector-curvature="0" />
	<path style="fill:none;stroke:red;stroke-width:1px;stroke-linecap:butt;stroke-linejoin:miter;stroke-opacity:1" d="M 944.72,573.383 960.635,582.225 z" id="boundary" inkscape:connector-curvature="0" />
	<path style="fill:none;stroke:red;stroke-width:1px;stroke-linecap:butt;stroke-linejoin:miter;stroke-opacity:1" d="M 960.635,582.225 978.317,587.529 z" id="boundary" inkscape:connector-curvature="0" />
	<path style="fill:none;stroke:red;stroke-width:1px;stroke-linecap:butt;stroke-linejoin:miter;stroke-opacity:1" d="M 934.111,622.895 919.964,610.517 z" id="boundary" inkscape:connector-curvature="0" />
	<path style="fill:none;stroke:red;stroke-width:1px;stroke-linecap:butt;stroke-linejoin:miter;stroke-opacity:1" d="M 942.952,592.834 958.866,601.676 z" id="boundary" inkscape:connector-curvature="0" />
	<path style="fill:none;stroke:red;stroke-width:1px;stroke-linecap:butt;stroke-linejoin:miter;stroke-opacity:1" d="M 978.317,587.529 978.317,605.212 z" id="boundary" inkscape:connector-curvature="0" />
	<path style="fill:none;stroke:red;stroke-width:1px;stroke-linecap:butt;stroke-linejoin:miter;stroke-opacity:1" d="M 964.171,619.358 958.866,601.676 z" id="boundary" inkscape:connector-curvature="0" />
	<path style="fill:none;stroke:red;stroke-width:1px;stroke-linecap:butt;stroke-linejoin:miter;stroke-opacity:1" d="M 523.872,642.346 527.408,619.358 z" id="boundary" inkscape:connector-curvature="0" />
	<path style="fill:none;stroke:red;stroke-width:1px;stroke-linecap:butt;stroke-linejoin:miter;stroke-opacity:1" d="M 523.872,642.346 509.725,654.724 z" id="boundary" inkscape:connector-curvature="0" />
	<path style="fill:none;stroke:red;stroke-width:1px;stroke-linecap:butt;stroke-linejoin:miter;stroke-opacity:1" d="M 684.784,619.358 700.699,628.2 z" id="boundary" inkscape:connector-curvature="0" />
	<path style="fill:none;stroke:red;stroke-width:1px;stroke-linecap:butt;stroke-linejoin:miter;stroke-opacity:1" d="M 716.613,637.041 700.699,628.2 z" id="boundary" inkscape:connector-curvature="0" />
	<path style="fill:none;stroke:red;stroke-width:1px;stroke-linecap:butt;stroke-linejoin:miter;stroke-opacity:1" d="M 716.613,637.041 734.296,637.041 z" id="boundary" inkscape:connector-curvature="0" />
	<path style="fill:none;stroke:red;stroke-width:1px;stroke-linecap:butt;stroke-linejoin:miter;stroke-opacity:1" d="M 734.296,637.041 751.979,637.041 z" id="boundary" inkscape:connector-curvature="0" />
	<path style="fill:none;stroke:red;stroke-width:1px;stroke-linecap:butt;stroke-linejoin:miter;stroke-opacity:1" d="M 769.661,637.041 751.979,637.041 z" id="boundary" inkscape:connector-curvature="0" />
	<path style="fill:none;stroke:red;stroke-width:1px;stroke-linecap:butt;stroke-linejoin:miter;stroke-opacity:1" d="M 499.116,672.406 509.725,654.724 z" id="boundary" inkscape:connector-curvature="0" />
	<path style="fill:none;stroke:red;stroke-width:1px;stroke-linecap:butt;stroke-linejoin:miter;stroke-opacity:1" d="M 769.661,637.041 785.576,645.882 z" id="boundary" inkscape:connector-curvature="0" />
	<path style="fill:none;stroke:red;stroke-width:1px;stroke-linecap:butt;stroke-linejoin:miter;stroke-opacity:1" d="M 801.49,654.724 785.576,645.882 z" id="boundary" inkscape:connector-curvature="0" />
	<path style="fill:none;stroke:red;stroke-width:1px;stroke-linecap:butt;stroke-linejoin:miter;stroke-opacity:1" d="M 817.405,663.565 801.49,654.724 z" id="boundary" inkscape:connector-curvature="0" />
	<path style="fill:none;stroke:red;stroke-width:1px;stroke-linecap:butt;stroke-linejoin:miter;stroke-opacity:1" d="M 872.221,637.041 875.758,654.724 z" id="boundary" inkscape:connector-curvature="0" />
	<path style="fill:none;stroke:red;stroke-width:1px;stroke-linecap:butt;stroke-linejoin:miter;stroke-opacity:1" d="M 875.758,654.724 893.44,661.797 z" id="boundary" inkscape:connector-curvature="0" />
	<path style="fill:none;stroke:red;stroke-width:1px;stroke-linecap:butt;stroke-linejoin:miter;stroke-opacity:1" d="M 872.221,637.041 888.135,628.2 z" id="boundary" inkscape:connector-curvature="0" />
	<path style="fill:none;stroke:red;stroke-width:1px;stroke-linecap:butt;stroke-linejoin:miter;stroke-opacity:1" d="M 822.709,681.248 817.405,663.565 z" id="boundary" inkscape:connector-curvature="0" />
	<path style="fill:none;stroke:red;stroke-width:1px;stroke-linecap:butt;stroke-linejoin:miter;stroke-opacity:1" d="M 822.709,681.248 836.856,693.626 z" id="boundary" inkscape:connector-curvature="0" />
	<path style="fill:none;stroke:red;stroke-width:1px;stroke-linecap:butt;stroke-linejoin:miter;stroke-opacity:1" d="M 849.234,707.772 836.856,693.626 z" id="boundary" inkscape:connector-curvature="0" />
	<path style="fill:none;stroke:red;stroke-width:1px;stroke-linecap:butt;stroke-linejoin:miter;stroke-opacity:1" d="M 518.567,813.868 500.884,813.868 z" id="boundary" inkscape:connector-curvature="0" />
	<path style="fill:none;stroke:red;stroke-width:1px;stroke-linecap:butt;stroke-linejoin:miter;stroke-opacity:1" d="M 507.957,780.271 523.872,789.112 z" id="boundary" inkscape:connector-curvature="0" />
	<path style="fill:none;stroke:red;stroke-width:1px;stroke-linecap:butt;stroke-linejoin:miter;stroke-opacity:1" d="M 523.872,789.112 536.25,803.258 z" id="boundary" inkscape:connector-curvature="0" />
	<path style="fill:none;stroke:red;stroke-width:1px;stroke-linecap:butt;stroke-linejoin:miter;stroke-opacity:1" d="M 518.567,813.868 536.25,803.258 z" id="boundary" inkscape:connector-curvature="0" />
	<path style="fill:none;stroke:red;stroke-width:1px;stroke-linecap:butt;stroke-linejoin:miter;stroke-opacity:1" d="M 863.38,720.15 879.294,728.991 z" id="boundary" inkscape:connector-curvature="0" />
	<path style="fill:none;stroke:red;stroke-width:1px;stroke-linecap:butt;stroke-linejoin:miter;stroke-opacity:1" d="M 879.294,728.991 896.977,734.296 z" id="boundary" inkscape:connector-curvature="0" />
	<path style="fill:none;stroke:red;stroke-width:1px;stroke-linecap:butt;stroke-linejoin:miter;stroke-opacity:1" d="M 849.234,707.772 863.38,720.15 z" id="boundary" inkscape:connector-curvature="0" />
	<path style="fill:none;stroke:red;stroke-width:1px;stroke-linecap:butt;stroke-linejoin:miter;stroke-opacity:1" d="M 888.135,628.2 898.745,642.346 z" id="boundary" inkscape:connector-curvature="0" />
	<path style="fill:none;stroke:red;stroke-width:1px;stroke-linecap:butt;stroke-linejoin:miter;stroke-opacity:1" d="M 916.428,649.419 898.745,642.346 z" id="boundary" inkscape:connector-curvature="0" />
	<path style="fill:none;stroke:red;stroke-width:1px;stroke-linecap:butt;stroke-linejoin:miter;stroke-opacity:1" d="M 934.111,654.724 916.428,649.419 z" id="boundary" inkscape:connector-curvature="0" />
	<path style="fill:none;stroke:red;stroke-width:1px;stroke-linecap:butt;stroke-linejoin:miter;stroke-opacity:1" d="M 934.111,622.895 948.257,635.273 z" id="boundary" inkscape:connector-curvature="0" />
	<path style="fill:none;stroke:red;stroke-width:1px;stroke-linecap:butt;stroke-linejoin:miter;stroke-opacity:1" d="M 898.745,679.48 893.44,661.797 z" id="boundary" inkscape:connector-curvature="0" />
	<path style="fill:none;stroke:red;stroke-width:1px;stroke-linecap:butt;stroke-linejoin:miter;stroke-opacity:1" d="M 912.891,690.089 898.745,679.48 z" id="boundary" inkscape:connector-curvature="0" />
	<path style="fill:none;stroke:red;stroke-width:1px;stroke-linecap:butt;stroke-linejoin:miter;stroke-opacity:1" d="M 934.111,654.724 950.025,663.565 z" id="boundary" inkscape:connector-curvature="0" />
	<path style="fill:none;stroke:red;stroke-width:1px;stroke-linecap:butt;stroke-linejoin:miter;stroke-opacity:1" d="M 960.635,649.419 948.257,635.273 z" id="boundary" inkscape:connector-curvature="0" />
	<path style="fill:none;stroke:red;stroke-width:1px;stroke-linecap:butt;stroke-linejoin:miter;stroke-opacity:1" d="M 978.317,605.212 981.854,626.431 z" id="boundary" inkscape:connector-curvature="0" />
	<path style="fill:none;stroke:red;stroke-width:1px;stroke-linecap:butt;stroke-linejoin:miter;stroke-opacity:1" d="M 960.635,649.419 976.549,658.26 z" id="boundary" inkscape:connector-curvature="0" />
	<path style="fill:none;stroke:red;stroke-width:1px;stroke-linecap:butt;stroke-linejoin:miter;stroke-opacity:1" d="M 965.939,672.406 950.025,663.565 z" id="boundary" inkscape:connector-curvature="0" />
	<path style="fill:none;stroke:red;stroke-width:1px;stroke-linecap:butt;stroke-linejoin:miter;stroke-opacity:1" d="M 950.025,663.565 960.635,649.419 z" id="boundary" inkscape:connector-curvature="0" />
	<path style="fill:none;stroke:red;stroke-width:1px;stroke-linecap:butt;stroke-linejoin:miter;stroke-opacity:1" d="M 976.549,658.26 965.939,672.406 z" id="boundary" inkscape:connector-curvature="0" />
	<path style="fill:none;stroke:red;stroke-width:1px;stroke-linecap:butt;stroke-linejoin:miter;stroke-opacity:1" d="M 976.549,658.26 994.232,665.333 z" id="boundary" inkscape:connector-curvature="0" />
	<path style="fill:none;stroke:red;stroke-width:1px;stroke-linecap:butt;stroke-linejoin:miter;stroke-opacity:1" d="M 978.317,686.553 965.939,672.406 z" id="boundary" inkscape:connector-curvature="0" />
	<path style="fill:none;stroke:red;stroke-width:1px;stroke-linecap:butt;stroke-linejoin:miter;stroke-opacity:1" d="M 994.232,665.333 996,683.016 z" id="boundary" inkscape:connector-curvature="0" />
	<path style="fill:none;stroke:red;stroke-width:1px;stroke-linecap:butt;stroke-linejoin:miter;stroke-opacity:1" d="M 912.891,690.089 925.269,704.235 z" id="boundary" inkscape:connector-curvature="0" />
	<path style="fill:none;stroke:red;stroke-width:1px;stroke-linecap:butt;stroke-linejoin:miter;stroke-opacity:1" d="M 934.111,720.15 925.269,704.235 z" id="boundary" inkscape:connector-curvature="0" />
	<path style="fill:none;stroke:red;stroke-width:1px;stroke-linecap:butt;stroke-linejoin:miter;stroke-opacity:1" d="M 948.257,732.528 934.111,720.15 z" id="boundary" inkscape:connector-curvature="0" />
	<path style="fill:none;stroke:red;stroke-width:1px;stroke-linecap:butt;stroke-linejoin:miter;stroke-opacity:1" d="M 948.257,732.528 960.635,746.674 z" id="boundary" inkscape:connector-curvature="0" />
	<path style="fill:none;stroke:red;stroke-width:1px;stroke-linecap:butt;stroke-linejoin:miter;stroke-opacity:1" d="M 916.428,764.357 902.282,751.979 z" id="boundary" inkscape:connector-curvature="0" />
	<path style="fill:none;stroke:red;stroke-width:1px;stroke-linecap:butt;stroke-linejoin:miter;stroke-opacity:1" d="M 916.428,764.357 928.806,778.503 z" id="boundary" inkscape:connector-curvature="0" />
	<path style="fill:none;stroke:red;stroke-width:1px;stroke-linecap:butt;stroke-linejoin:miter;stroke-opacity:1" d="M 902.282,751.979 896.977,734.296 z" id="boundary" inkscape:connector-curvature="0" />
	<path style="fill:none;stroke:red;stroke-width:1px;stroke-linecap:butt;stroke-linejoin:miter;stroke-opacity:1" d="M 944.72,787.344 928.806,778.503 z" id="boundary" inkscape:connector-curvature="0" />
	<path style="fill:none;stroke:red;stroke-width:1px;stroke-linecap:butt;stroke-linejoin:miter;stroke-opacity:1" d="M 944.72,787.344 958.866,797.954 z" id="boundary" inkscape:connector-curvature="0" />
	<path style="fill:none;stroke:red;stroke-width:1px;stroke-linecap:butt;stroke-linejoin:miter;stroke-opacity:1" d="M 976.549,755.515 960.635,746.674 z" id="boundary" inkscape:connector-curvature="0" />
	<path style="fill:none;stroke:red;stroke-width:1px;stroke-linecap:butt;stroke-linejoin:miter;stroke-opacity:1" d="M 978.317,686.553 996,683.016 z" id="boundary" inkscape:connector-curvature="0" />
	<path style="fill:none;stroke:red;stroke-width:1px;stroke-linecap:butt;stroke-linejoin:miter;stroke-opacity:1" d="M 987.159,789.112 978.317,773.198 z" id="boundary" inkscape:connector-curvature="0" />
	<path style="fill:none;stroke:red;stroke-width:1px;stroke-linecap:butt;stroke-linejoin:miter;stroke-opacity:1" d="M 976.549,755.515 978.317,773.198 z" id="boundary" inkscape:connector-curvature="0" />
	<path style="fill:none;stroke:red;stroke-width:1px;stroke-linecap:butt;stroke-linejoin:miter;stroke-opacity:1" d="M 987.159,789.112 976.549,805.027 z" id="boundary" inkscape:connector-curvature="0" />
	<path style="fill:none;stroke:red;stroke-width:1px;stroke-linecap:butt;stroke-linejoin:miter;stroke-opacity:1" d="M 976.549,805.027 958.866,797.954 z" id="boundary" inkscape:connector-curvature="0" />
	<circle cx="4" cy="101.255" r="4" fill="#0" id="circle0"/>
	<circle cx="4" cy="118.938" r="4" fill="#0" id="circle1"/>
	<circle cx="21.6827" cy="95.9501" r="4" fill="#0" id="circle2"/>
	<circle cx="21.6827" cy="124.242" r="4" fill="#0" id="circle3"/>
	<circle cx="37.5971" cy="87.1087" r="4" fill="#0" id="circle4"/>
	<circle cx="39.3654" cy="124.242" r="4" fill="#0" id="circle5"/>
	<circle cx="53.5116" cy="78.2674" r="4" fill="#0" id="circle6"/>
	<circle cx="57.0481" cy="124.242" r="4" fill="#0" id="circle7"/>
	<circle cx="71.1943" cy="69.426" r="4" fill="#0" id="circle8"/>
	<circle cx="74.7308" cy="124.242" r="4" fill="#0" id="circle9"/>
	<circle cx="85.3405" cy="55.2799" r="4" fill="#0" id="circle10"/>
	<circle cx="92.4135" cy="124.242" r="4" fill="#0" id="circle11"/>
	<circle cx="94.1818" cy="37.5971" r="4" fill="#0" id="circle12"/>
	<circle cx="108.328" cy="133.084" r="4" fill="#0" id="circle13"/>
	<circle cx="111.865" cy="34.0606" r="4" fill="#0" id="circle14"/>
	<circle cx="118.938" cy="147.23" r="4" fill="#0" id="circle15"/>
	<circle cx="118.938" cy="164.913" r="4" fill="#0" id="circle16"/>
	<circle cx="118.938" cy="182.595" r="4" fill="#0" id="circle17"/>
	<circle cx="118.938" cy="200.278" r="4" fill="#0" id="circle18"/>
	<circle cx="118.938" cy="217.961" r="4" fill="#0" id="circle19"/>
	<circle cx="118.938" cy="235.643" r="4" fill="#0" id="circle20"/>
	<circle cx="127.779" cy="21.6827" r="4" fill="#0" id="circle21"/>
	<circle cx="127.779" cy="251.558" r="4" fill="#0" id="circle22"/>
	<circle cx="136.62" cy="267.472" r="4" fill="#0" id="circle23"/>
	<circle cx="136.62" cy="285.155" r="4" fill="#0" id="circle24"/>
	<circle cx="145.462" cy="12.8414" r="4" fill="#0" id="circle25"/>
	<circle cx="145.462" cy="301.07" r="4" fill="#0" id="circle26"/>
	<circle cx="150.766" cy="318.752" r="4" fill="#0" id="circle27"/>
	<circle cx="163.144" cy="7.53654" r="4" fill="#0" id="circle28"/>
	<circle cx="164.913" cy="331.13" r="4" fill="#0" id="circle29"/>
	<circle cx="177.291" cy="345.276" r="4" fill="#0" id="circle30"/>
	<circle cx="180.827" cy="4" r="4" fill="#0" id="circle31"/>
	<circle cx="194.973" cy="352.349" r="4" fill="#0" id="circle32"/>
	<circle cx="198.51" cy="7.53654" r="4" fill="#0" id="circle33"/>
	<circle cx="198.51" cy="370.032" r="4" fill="#0" id="circle34"/>
	<circle cx="207.351" cy="385.947" r="4" fill="#0" id="circle35"/>
	<circle cx="214.424" cy="16.3779" r="4" fill="#0" id="circle36"/>
	<circle cx="216.193" cy="401.861" r="4" fill="#0" id="circle37"/>
	<circle cx="225.034" cy="417.775" r="4" fill="#0" id="circle38"/>
	<circle cx="230.339" cy="25.2193" r="4" fill="#0" id="circle39"/>
	<circle cx="233.875" cy="433.69" r="4" fill="#0" id="circle40"/>
	<circle cx="239.18" cy="451.373" r="4" fill="#0" id="circle41"/>
	<circle cx="246.253" cy="34.0606" r="4" fill="#0" id="circle42"/>
	<circle cx="248.021" cy="467.287" r="4" fill="#0" id="circle43"/>
	<circle cx="251.558" cy="484.97" r="4" fill="#0" id="circle44"/>
	<circle cx="255.094" cy="502.652" r="4" fill="#0" id="circle45"/>
	<circle cx="263.936" cy="34.0606" r="4" fill="#0" id="circle46"/>
	<circle cx="269.241" cy="513.262" r="4" fill="#0" id="circle47"/>
	<circle cx="274.545" cy="530.945" r="4" fill="#0" id="circle48"/>
	<circle cx="278.082" cy="46.4385" r="4" fill="#0" id="circle49"/>
	<circle cx="278.082" cy="799.722" r="4" fill="#0" id="circle50"/>
	<circle cx="283.387" cy="546.859" r="4" fill="#0" id="circle51"/>
	<circle cx="285.155" cy="64.1212" r="4" fill="#0" id="circle52"/>
	<circle cx="288.692" cy="813.868" r="4" fill="#0" id="circle53"/>
	<circle cx="292.228" cy="785.576" r="4" fill="#0" id="circle54"/>
	<circle cx="293.996" cy="80.0357" r="4" fill="#0" id="circle55"/>
	<circle cx="295.765" cy="561.005" r="4" fill="#0" id="circle56"/>
	<circle cx="306.374" cy="94.1818" r="4" fill="#0" id="circle57"/>
	<circle cx="306.374" cy="813.868" r="4" fill="#0" id="circle58"/>
	<circle cx="309.911" cy="785.576" r="4" fill="#0" id="circle59"/>
	<circle cx="313.447" cy="566.31" r="4" fill="#0" id="circle60"/>
	<circle cx="320.52" cy="106.56" r="4" fill="#0" id="circle61"/>
	<circle cx="324.057" cy="580.456" r="4" fill="#0" id="circle62"/>
	<circle cx="324.057" cy="813.868" r="4" fill="#0" id="circle63"/>
	<circle cx="327.594" cy="785.576" r="4" fill="#0" id="circle64"/>
	<circle cx="336.435" cy="115.401" r="4" fill="#0" id="circle65"/>
	<circle cx="341.74" cy="587.529" r="4" fill="#0" id="circle66"/>
	<circle cx="341.74" cy="813.868" r="4" fill="#0" id="circle67"/>
	<circle cx="345.276" cy="785.576" r="4" fill="#0" id="circle68"/>
	<circle cx="348.813" cy="605.212" r="4" fill="#0" id="circle69"/>
	<circle cx="350.581" cy="127.779" r="4" fill="#0" id="circle70"/>
	<circle cx="357.654" cy="145.462" r="4" fill="#0" id="circle71"/>
	<circle cx="359.422" cy="813.868" r="4" fill="#0" id="circle72"/>
	<circle cx="361.191" cy="776.734" r="4" fill="#0" id="circle73"/>
	<circle cx="362.959" cy="617.59" r="4" fill="#0" id="circle74"/>
	<circle cx="375.337" cy="152.535" r="4" fill="#0" id="circle75"/>
	<circle cx="375.337" cy="631.736" r="4" fill="#0" id="circle76"/>
	<circle cx="377.105" cy="785.576" r="4" fill="#0" id="circle77"/>
	<circle cx="377.105" cy="813.868" r="4" fill="#0" id="circle78"/>
	<circle cx="393.02" cy="157.84" r="4" fill="#0" id="circle79"/>
	<circle cx="393.02" cy="637.041" r="4" fill="#0" id="circle80"/>
	<circle cx="394.788" cy="780.271" r="4" fill="#0" id="circle81"/>
	<circle cx="394.788" cy="813.868" r="4" fill="#0" id="circle82"/>
	<circle cx="408.934" cy="166.681" r="4" fill="#0" id="circle83"/>
	<circle cx="408.934" cy="645.882" r="4" fill="#0" id="circle84"/>
	<circle cx="408.934" cy="767.893" r="4" fill="#0" id="circle85"/>
	<circle cx="412.471" cy="813.868" r="4" fill="#0" id="circle86"/>
	<circle cx="421.312" cy="753.747" r="4" fill="#0" id="circle87"/>
	<circle cx="424.848" cy="175.522" r="4" fill="#0" id="circle88"/>
	<circle cx="426.617" cy="645.882" r="4" fill="#0" id="circle89"/>
	<circle cx="428.385" cy="728.991" r="4" fill="#0" id="circle90"/>
	<circle cx="430.153" cy="193.205" r="4" fill="#0" id="circle91"/>
	<circle cx="430.153" cy="813.868" r="4" fill="#0" id="circle92"/>
	<circle cx="438.995" cy="751.979" r="4" fill="#0" id="circle93"/>
	<circle cx="442.531" cy="654.724" r="4" fill="#0" id="circle94"/>
	<circle cx="442.531" cy="714.845" r="4" fill="#0" id="circle95"/>
	<circle cx="442.531" cy="769.661" r="4" fill="#0" id="circle96"/>
	<circle cx="446.068" cy="693.626" r="4" fill="#0" id="circle97"/>
	<circle cx="447.836" cy="193.205" r="4" fill="#0" id="circle98"/>
	<circle cx="447.836" cy="813.868" r="4" fill="#0" id="circle99"/>
	<circle cx="453.141" cy="739.601" r="4" fill="#0" id="circle100"/>
	<circle cx="454.909" cy="675.943" r="4" fill="#0" id="circle101"/>
	<circle cx="456.677" cy="782.039" r="4" fill="#0" id="circle102"/>
	<circle cx="460.214" cy="652.955" r="4" fill="#0" id="circle103"/>
	<circle cx="461.982" cy="203.815" r="4" fill="#0" id="circle104"/>
	<circle cx="465.519" cy="725.455" r="4" fill="#0" id="circle105"/>
	<circle cx="465.519" cy="813.868" r="4" fill="#0" id="circle106"/>
	<circle cx="474.36" cy="698.93" r="4" fill="#0" id="circle107"/>
	<circle cx="474.36" cy="785.576" r="4" fill="#0" id="circle108"/>
	<circle cx="477.897" cy="212.656" r="4" fill="#0" id="circle109"/>
	<circle cx="483.201" cy="813.868" r="4" fill="#0" id="circle110"/>
	<circle cx="488.506" cy="686.553" r="4" fill="#0" id="circle111"/>
	<circle cx="490.275" cy="776.734" r="4" fill="#0" id="circle112"/>
	<circle cx="495.579" cy="219.729" r="4" fill="#0" id="circle113"/>
	<circle cx="499.116" cy="672.406" r="4" fill="#0" id="circle114"/>
	<circle cx="500.884" cy="813.868" r="4" fill="#0" id="circle115"/>
	<circle cx="507.957" cy="233.875" r="4" fill="#0" id="circle116"/>
	<circle cx="507.957" cy="780.271" r="4" fill="#0" id="circle117"/>
	<circle cx="509.725" cy="654.724" r="4" fill="#0" id="circle118"/>
	<circle cx="518.567" cy="813.868" r="4" fill="#0" id="circle119"/>
	<circle cx="522.103" cy="246.253" r="4" fill="#0" id="circle120"/>
	<circle cx="523.872" cy="642.346" r="4" fill="#0" id="circle121"/>
	<circle cx="523.872" cy="789.112" r="4" fill="#0" id="circle122"/>
	<circle cx="527.408" cy="619.358" r="4" fill="#0" id="circle123"/>
	<circle cx="534.481" cy="260.399" r="4" fill="#0" id="circle124"/>
	<circle cx="536.25" cy="803.258" r="4" fill="#0" id="circle125"/>
	<circle cx="543.323" cy="610.517" r="4" fill="#0" id="circle126"/>
	<circle cx="552.164" cy="267.472" r="4" fill="#0" id="circle127"/>
	<circle cx="559.237" cy="601.676" r="4" fill="#0" id="circle128"/>
	<circle cx="562.774" cy="281.619" r="4" fill="#0" id="circle129"/>
	<circle cx="576.92" cy="292.228" r="4" fill="#0" id="circle130"/>
	<circle cx="576.92" cy="598.139" r="4" fill="#0" id="circle131"/>
	<circle cx="589.298" cy="306.374" r="4" fill="#0" id="circle132"/>
	<circle cx="589.298" cy="583.993" r="4" fill="#0" id="circle133"/>
	<circle cx="598.139" cy="322.289" r="4" fill="#0" id="circle134"/>
	<circle cx="606.98" cy="583.993" r="4" fill="#0" id="circle135"/>
	<circle cx="610.517" cy="336.435" r="4" fill="#0" id="circle136"/>
	<circle cx="624.663" cy="587.529" r="4" fill="#0" id="circle137"/>
	<circle cx="628.2" cy="343.508" r="4" fill="#0" id="circle138"/>
	<circle cx="642.346" cy="592.834" r="4" fill="#0" id="circle139"/>
	<circle cx="644.114" cy="352.349" r="4" fill="#0" id="circle140"/>
	<circle cx="660.029" cy="361.191" r="4" fill="#0" id="circle141"/>
	<circle cx="660.029" cy="596.371" r="4" fill="#0" id="circle142"/>
	<circle cx="667.102" cy="614.053" r="4" fill="#0" id="circle143"/>
	<circle cx="668.87" cy="377.105" r="4" fill="#0" id="circle144"/>
	<circle cx="683.016" cy="389.483" r="4" fill="#0" id="circle145"/>
	<circle cx="684.784" cy="619.358" r="4" fill="#0" id="circle146"/>
	<circle cx="695.394" cy="403.629" r="4" fill="#0" id="circle147"/>
	<circle cx="700.699" cy="628.2" r="4" fill="#0" id="circle148"/>
	<circle cx="713.077" cy="410.702" r="4" fill="#0" id="circle149"/>
	<circle cx="716.613" cy="637.041" r="4" fill="#0" id="circle150"/>
	<circle cx="727.223" cy="423.08" r="4" fill="#0" id="circle151"/>
	<circle cx="734.296" cy="637.041" r="4" fill="#0" id="circle152"/>
	<circle cx="743.137" cy="431.922" r="4" fill="#0" id="circle153"/>
	<circle cx="751.979" cy="637.041" r="4" fill="#0" id="circle154"/>
	<circle cx="757.283" cy="442.531" r="4" fill="#0" id="circle155"/>
	<circle cx="766.125" cy="458.446" r="4" fill="#0" id="circle156"/>
	<circle cx="769.661" cy="637.041" r="4" fill="#0" id="circle157"/>
	<circle cx="780.271" cy="469.055" r="4" fill="#0" id="circle158"/>
	<circle cx="785.576" cy="645.882" r="4" fill="#0" id="circle159"/>
	<circle cx="796.185" cy="477.897" r="4" fill="#0" id="circle160"/>
	<circle cx="801.49" cy="654.724" r="4" fill="#0" id="circle161"/>
	<circle cx="805.027" cy="493.811" r="4" fill="#0" id="circle162"/>
	<circle cx="817.405" cy="663.565" r="4" fill="#0" id="circle163"/>
	<circle cx="820.941" cy="502.652" r="4" fill="#0" id="circle164"/>
	<circle cx="822.709" cy="681.248" r="4" fill="#0" id="circle165"/>
	<circle cx="836.856" cy="511.494" r="4" fill="#0" id="circle166"/>
	<circle cx="836.856" cy="693.626" r="4" fill="#0" id="circle167"/>
	<circle cx="849.234" cy="707.772" r="4" fill="#0" id="circle168"/>
	<circle cx="851.002" cy="522.103" r="4" fill="#0" id="circle169"/>
	<circle cx="863.38" cy="536.25" r="4" fill="#0" id="circle170"/>
	<circle cx="863.38" cy="720.15" r="4" fill="#0" id="circle171"/>
	<circle cx="872.221" cy="637.041" r="4" fill="#0" id="circle172"/>
	<circle cx="875.758" cy="654.724" r="4" fill="#0" id="circle173"/>
	<circle cx="879.294" cy="728.991" r="4" fill="#0" id="circle174"/>
	<circle cx="881.062" cy="538.018" r="4" fill="#0" id="circle175"/>
	<circle cx="881.062" cy="575.152" r="4" fill="#0" id="circle176"/>
	<circle cx="888.135" cy="628.2" r="4" fill="#0" id="circle177"/>
	<circle cx="889.904" cy="591.066" r="4" fill="#0" id="circle178"/>
	<circle cx="893.44" cy="661.797" r="4" fill="#0" id="circle179"/>
	<circle cx="896.977" cy="734.296" r="4" fill="#0" id="circle180"/>
	<circle cx="898.745" cy="543.323" r="4" fill="#0" id="circle181"/>
	<circle cx="898.745" cy="642.346" r="4" fill="#0" id="circle182"/>
	<circle cx="898.745" cy="679.48" r="4" fill="#0" id="circle183"/>
	<circle cx="902.282" cy="751.979" r="4" fill="#0" id="circle184"/>
	<circle cx="904.05" cy="601.676" r="4" fill="#0" id="circle185"/>
	<circle cx="907.586" cy="583.993" r="4" fill="#0" id="circle186"/>
	<circle cx="912.891" cy="555.701" r="4" fill="#0" id="circle187"/>
	<circle cx="912.891" cy="690.089" r="4" fill="#0" id="circle188"/>
	<circle cx="916.428" cy="649.419" r="4" fill="#0" id="circle189"/>
	<circle cx="916.428" cy="764.357" r="4" fill="#0" id="circle190"/>
	<circle cx="919.964" cy="610.517" r="4" fill="#0" id="circle191"/>
	<circle cx="925.269" cy="587.529" r="4" fill="#0" id="circle192"/>
	<circle cx="925.269" cy="704.235" r="4" fill="#0" id="circle193"/>
	<circle cx="928.806" cy="564.542" r="4" fill="#0" id="circle194"/>
	<circle cx="928.806" cy="778.503" r="4" fill="#0" id="circle195"/>
	<circle cx="934.111" cy="622.895" r="4" fill="#0" id="circle196"/>
	<circle cx="934.111" cy="654.724" r="4" fill="#0" id="circle197"/>
	<circle cx="934.111" cy="720.15" r="4" fill="#0" id="circle198"/>
	<circle cx="942.952" cy="592.834" r="4" fill="#0" id="circle199"/>
	<circle cx="944.72" cy="573.383" r="4" fill="#0" id="circle200"/>
	<circle cx="944.72" cy="787.344" r="4" fill="#0" id="circle201"/>
	<circle cx="948.257" cy="635.273" r="4" fill="#0" id="circle202"/>
	<circle cx="948.257" cy="732.528" r="4" fill="#0" id="circle203"/>
	<circle cx="950.025" cy="663.565" r="4" fill="#0" id="circle204"/>
	<circle cx="958.866" cy="601.676" r="4" fill="#0" id="circle205"/>
	<circle cx="958.866" cy="797.954" r="4" fill="#0" id="circle206"/>
	<circle cx="960.635" cy="582.225" r="4" fill="#0" id="circle207"/>
	<circle cx="960.635" cy="649.419" r="4" fill="#0" id="circle208"/>
	<circle cx="960.635" cy="746.674" r="4" fill="#0" id="circle209"/>
	<circle cx="964.171" cy="619.358" r="4" fill="#0" id="circle210"/>
	<circle cx="965.939" cy="672.406" r="4" fill="#0" id="circle211"/>
	<circle cx="976.549" cy="658.26" r="4" fill="#0" id="circle212"/>
	<circle cx="976.549" cy="755.515" r="4" fill="#0" id="circle213"/>
	<circle cx="976.549" cy="805.027" r="4" fill="#0" id="circle214"/>
	<circle cx="978.317" cy="587.529" r="4" fill="#0" id="circle215"/>
	<circle cx="978.317" cy="605.212" r="4" fill="#0" id="circle216"/>
	<circle cx="978.317" cy="686.553" r="4" fill="#0" id="circle217"/>
	<circle cx="978.317" cy="773.198" r="4" fill="#0" id="circle218"/>
	<circle cx="981.854" cy="626.431" r="4" fill="#0" id="circle219"/>
	<circle cx="987.159" cy="789.112" r="4" fill="#0" id="circle220"/>
	<circle cx="994.232" cy="665.333" r="4" fill="#0" id="circle221"/>
	<circle cx="996" cy="683.016" r="4" fill="#0" id="circle222"/>
	</g>
</svg>