<?xml version="1.0" encoding="UTF-8" standalone="no"?>
<!-- Created with CurveBenchmark -->
<svg
	xmlns:dc="http://purl.org/dc/elements/1.1/"
	xmlns:cc="http://creativecommons.org/ns#"
	xmlns:rdf="http://www.w3.org/1999/02/22-rdf-syntax-ns#"
	xmlns:svg="http://www.w3.org/2000/svg"
	xmlns="http://www.w3.org/2000/svg"
	xmlns:sodipodi="http://sodipodi.sourceforge.net/DTD/sodipodi-0.dtd"
	xmlns:inkscape="http://www.inkscape.org/namespaces/inkscape"
	width="1000"
	height="1000"
	id="svg2"
	version="1.1"
	sodipodi:docname="manifold/crust-lmfish-19.png.txt">
<defs
	id="defs4" />
<metadata
	id="metadata7">
	<rdf:RDF>
		<cc:Work
			rdf:about="">
			<dc:format>image/svg+xml</dc:format>
			<dc:type
				rdf:resource="http://purl.org/dc/dcmitype/StillImage" />
			<dc:title></dc:title>
		</cc:Work>
	</rdf:RDF>
</metadata>
<g
	inkscape:label="Layer 1"
	inkscape:groupmode="layer"
	id="layer1">
	<path style="fill:none;stroke:red;stroke-width:1px;stroke-linecap:butt;stroke-linejoin:miter;stroke-opacity:1" d="M 20.4071,29.2417 30.5038,19.145 z" id="boundary" inkscape:connector-curvature="0" />
	<path style="fill:none;stroke:red;stroke-width:1px;stroke-linecap:butt;stroke-linejoin:miter;stroke-opacity:1" d="M 10.3104,39.3384 20.4071,29.2417 z" id="boundary" inkscape:connector-curvature="0" />
	<path style="fill:none;stroke:red;stroke-width:1px;stroke-linecap:butt;stroke-linejoin:miter;stroke-opacity:1" d="M 4,51.9593 10.3104,39.3384 z" id="boundary" inkscape:connector-curvature="0" />
	<path style="fill:none;stroke:red;stroke-width:1px;stroke-linecap:butt;stroke-linejoin:miter;stroke-opacity:1" d="M 51.9593,4 64.5802,4 z" id="boundary" inkscape:connector-curvature="0" />
	<path style="fill:none;stroke:red;stroke-width:1px;stroke-linecap:butt;stroke-linejoin:miter;stroke-opacity:1" d="M 77.201,4 64.5802,4 z" id="boundary" inkscape:connector-curvature="0" />
	<path style="fill:none;stroke:red;stroke-width:1px;stroke-linecap:butt;stroke-linejoin:miter;stroke-opacity:1" d="M 40.6005,10.3104 51.9593,4 z" id="boundary" inkscape:connector-curvature="0" />
	<path style="fill:none;stroke:red;stroke-width:1px;stroke-linecap:butt;stroke-linejoin:miter;stroke-opacity:1" d="M 30.5038,19.145 40.6005,10.3104 z" id="boundary" inkscape:connector-curvature="0" />
	<path style="fill:none;stroke:red;stroke-width:1px;stroke-linecap:butt;stroke-linejoin:miter;stroke-opacity:1" d="M 4,51.9593 10.3104,63.3181 z" id="boundary" inkscape:connector-curvature="0" />
	<path style="fill:none;stroke:red;stroke-width:1px;stroke-linecap:butt;stroke-linejoin:miter;stroke-opacity:1" d="M 10.3104,63.3181 10.3104,75.9389 z" id="boundary" inkscape:connector-curvature="0" />
	<path style="fill:none;stroke:red;stroke-width:1px;stroke-linecap:butt;stroke-linejoin:miter;stroke-opacity:1" d="M 16.6209,87.2977 10.3104,75.9389 z" id="boundary" inkscape:connector-curvature="0" />
	<path style="fill:none;stroke:red;stroke-width:1px;stroke-linecap:butt;stroke-linejoin:miter;stroke-opacity:1" d="M 101.181,10.3104 89.8219,4 z" id="boundary" inkscape:connector-curvature="0" />
	<path style="fill:none;stroke:red;stroke-width:1px;stroke-linecap:butt;stroke-linejoin:miter;stroke-opacity:1" d="M 89.8219,4 77.201,4 z" id="boundary" inkscape:connector-curvature="0" />
	<path style="fill:none;stroke:red;stroke-width:1px;stroke-linecap:butt;stroke-linejoin:miter;stroke-opacity:1" d="M 113.802,10.3104 101.181,10.3104 z" id="boundary" inkscape:connector-curvature="0" />
	<path style="fill:none;stroke:red;stroke-width:1px;stroke-linecap:butt;stroke-linejoin:miter;stroke-opacity:1" d="M 126.422,10.3104 113.802,10.3104 z" id="boundary" inkscape:connector-curvature="0" />
	<path style="fill:none;stroke:red;stroke-width:1px;stroke-linecap:butt;stroke-linejoin:miter;stroke-opacity:1" d="M 137.781,16.6209 126.422,10.3104 z" id="boundary" inkscape:connector-curvature="0" />
	<path style="fill:none;stroke:red;stroke-width:1px;stroke-linecap:butt;stroke-linejoin:miter;stroke-opacity:1" d="M 150.402,20.4071 137.781,16.6209 z" id="boundary" inkscape:connector-curvature="0" />
	<path style="fill:none;stroke:red;stroke-width:1px;stroke-linecap:butt;stroke-linejoin:miter;stroke-opacity:1" d="M 159.237,30.5038 150.402,20.4071 z" id="boundary" inkscape:connector-curvature="0" />
	<path style="fill:none;stroke:red;stroke-width:1px;stroke-linecap:butt;stroke-linejoin:miter;stroke-opacity:1" d="M 174.382,51.9593 165.547,41.8626 z" id="boundary" inkscape:connector-curvature="0" />
	<path style="fill:none;stroke:red;stroke-width:1px;stroke-linecap:butt;stroke-linejoin:miter;stroke-opacity:1" d="M 165.547,41.8626 159.237,30.5038 z" id="boundary" inkscape:connector-curvature="0" />
	<path style="fill:none;stroke:red;stroke-width:1px;stroke-linecap:butt;stroke-linejoin:miter;stroke-opacity:1" d="M 187.003,57.0076 194.575,67.1043 z" id="boundary" inkscape:connector-curvature="0" />
	<path style="fill:none;stroke:red;stroke-width:1px;stroke-linecap:butt;stroke-linejoin:miter;stroke-opacity:1" d="M 174.382,51.9593 187.003,57.0076 z" id="boundary" inkscape:connector-curvature="0" />
	<path style="fill:none;stroke:red;stroke-width:1px;stroke-linecap:butt;stroke-linejoin:miter;stroke-opacity:1" d="M 16.6209,87.2977 22.9313,98.6565 z" id="boundary" inkscape:connector-curvature="0" />
	<path style="fill:none;stroke:red;stroke-width:1px;stroke-linecap:butt;stroke-linejoin:miter;stroke-opacity:1" d="M 22.9313,98.6565 29.2417,110.015 z" id="boundary" inkscape:connector-curvature="0" />
	<path style="fill:none;stroke:red;stroke-width:1px;stroke-linecap:butt;stroke-linejoin:miter;stroke-opacity:1" d="M 29.2417,110.015 30.5038,122.636 z" id="boundary" inkscape:connector-curvature="0" />
	<path style="fill:none;stroke:red;stroke-width:1px;stroke-linecap:butt;stroke-linejoin:miter;stroke-opacity:1" d="M 36.8142,133.995 30.5038,122.636 z" id="boundary" inkscape:connector-curvature="0" />
	<path style="fill:none;stroke:red;stroke-width:1px;stroke-linecap:butt;stroke-linejoin:miter;stroke-opacity:1" d="M 45.6489,144.092 36.8142,133.995 z" id="boundary" inkscape:connector-curvature="0" />
	<path style="fill:none;stroke:red;stroke-width:1px;stroke-linecap:butt;stroke-linejoin:miter;stroke-opacity:1" d="M 45.6489,144.092 57.0076,150.402 z" id="boundary" inkscape:connector-curvature="0" />
	<path style="fill:none;stroke:red;stroke-width:1px;stroke-linecap:butt;stroke-linejoin:miter;stroke-opacity:1" d="M 57.0076,150.402 63.3181,161.761 z" id="boundary" inkscape:connector-curvature="0" />
	<path style="fill:none;stroke:red;stroke-width:1px;stroke-linecap:butt;stroke-linejoin:miter;stroke-opacity:1" d="M 69.6285,173.12 63.3181,161.761 z" id="boundary" inkscape:connector-curvature="0" />
	<path style="fill:none;stroke:red;stroke-width:1px;stroke-linecap:butt;stroke-linejoin:miter;stroke-opacity:1" d="M 79.7252,181.954 69.6285,173.12 z" id="boundary" inkscape:connector-curvature="0" />
	<path style="fill:none;stroke:red;stroke-width:1px;stroke-linecap:butt;stroke-linejoin:miter;stroke-opacity:1" d="M 87.2977,192.051 79.7252,181.954 z" id="boundary" inkscape:connector-curvature="0" />
	<path style="fill:none;stroke:red;stroke-width:1px;stroke-linecap:butt;stroke-linejoin:miter;stroke-opacity:1" d="M 97.3944,200.885 87.2977,192.051 z" id="boundary" inkscape:connector-curvature="0" />
	<path style="fill:none;stroke:red;stroke-width:1px;stroke-linecap:butt;stroke-linejoin:miter;stroke-opacity:1" d="M 97.3944,200.885 106.229,210.982 z" id="boundary" inkscape:connector-curvature="0" />
	<path style="fill:none;stroke:red;stroke-width:1px;stroke-linecap:butt;stroke-linejoin:miter;stroke-opacity:1" d="M 106.229,210.982 116.326,219.817 z" id="boundary" inkscape:connector-curvature="0" />
	<path style="fill:none;stroke:red;stroke-width:1px;stroke-linecap:butt;stroke-linejoin:miter;stroke-opacity:1" d="M 135.257,238.748 125.16,229.913 z" id="boundary" inkscape:connector-curvature="0" />
	<path style="fill:none;stroke:red;stroke-width:1px;stroke-linecap:butt;stroke-linejoin:miter;stroke-opacity:1" d="M 116.326,219.817 125.16,229.913 z" id="boundary" inkscape:connector-curvature="0" />
	<path style="fill:none;stroke:red;stroke-width:1px;stroke-linecap:butt;stroke-linejoin:miter;stroke-opacity:1" d="M 135.257,238.748 144.092,248.845 z" id="boundary" inkscape:connector-curvature="0" />
	<path style="fill:none;stroke:red;stroke-width:1px;stroke-linecap:butt;stroke-linejoin:miter;stroke-opacity:1" d="M 149.14,261.466 144.092,248.845 z" id="boundary" inkscape:connector-curvature="0" />
	<path style="fill:none;stroke:red;stroke-width:1px;stroke-linecap:butt;stroke-linejoin:miter;stroke-opacity:1" d="M 194.575,67.1043 207.196,70.8906 z" id="boundary" inkscape:connector-curvature="0" />
	<path style="fill:none;stroke:red;stroke-width:1px;stroke-linecap:butt;stroke-linejoin:miter;stroke-opacity:1" d="M 216.031,80.9873 207.196,70.8906 z" id="boundary" inkscape:connector-curvature="0" />
	<path style="fill:none;stroke:red;stroke-width:1px;stroke-linecap:butt;stroke-linejoin:miter;stroke-opacity:1" d="M 226.127,89.8219 216.031,80.9873 z" id="boundary" inkscape:connector-curvature="0" />
	<path style="fill:none;stroke:red;stroke-width:1px;stroke-linecap:butt;stroke-linejoin:miter;stroke-opacity:1" d="M 226.127,89.8219 236.224,98.6565 z" id="boundary" inkscape:connector-curvature="0" />
	<path style="fill:none;stroke:red;stroke-width:1px;stroke-linecap:butt;stroke-linejoin:miter;stroke-opacity:1" d="M 247.583,104.967 236.224,98.6565 z" id="boundary" inkscape:connector-curvature="0" />
	<path style="fill:none;stroke:red;stroke-width:1px;stroke-linecap:butt;stroke-linejoin:miter;stroke-opacity:1" d="M 247.583,104.967 257.679,112.539 z" id="boundary" inkscape:connector-curvature="0" />
	<path style="fill:none;stroke:red;stroke-width:1px;stroke-linecap:butt;stroke-linejoin:miter;stroke-opacity:1" d="M 267.776,120.112 257.679,112.539 z" id="boundary" inkscape:connector-curvature="0" />
	<path style="fill:none;stroke:red;stroke-width:1px;stroke-linecap:butt;stroke-linejoin:miter;stroke-opacity:1" d="M 267.776,120.112 274.087,131.471 z" id="boundary" inkscape:connector-curvature="0" />
	<path style="fill:none;stroke:red;stroke-width:1px;stroke-linecap:butt;stroke-linejoin:miter;stroke-opacity:1" d="M 274.087,131.471 282.921,141.567 z" id="boundary" inkscape:connector-curvature="0" />
	<path style="fill:none;stroke:red;stroke-width:1px;stroke-linecap:butt;stroke-linejoin:miter;stroke-opacity:1" d="M 293.018,149.14 282.921,141.567 z" id="boundary" inkscape:connector-curvature="0" />
	<path style="fill:none;stroke:red;stroke-width:1px;stroke-linecap:butt;stroke-linejoin:miter;stroke-opacity:1" d="M 301.852,159.237 293.018,149.14 z" id="boundary" inkscape:connector-curvature="0" />
	<path style="fill:none;stroke:red;stroke-width:1px;stroke-linecap:butt;stroke-linejoin:miter;stroke-opacity:1" d="M 301.852,159.237 313.211,165.547 z" id="boundary" inkscape:connector-curvature="0" />
	<path style="fill:none;stroke:red;stroke-width:1px;stroke-linecap:butt;stroke-linejoin:miter;stroke-opacity:1" d="M 323.308,174.382 313.211,165.547 z" id="boundary" inkscape:connector-curvature="0" />
	<path style="fill:none;stroke:red;stroke-width:1px;stroke-linecap:butt;stroke-linejoin:miter;stroke-opacity:1" d="M 392.723,180.692 380.102,180.692 z" id="boundary" inkscape:connector-curvature="0" />
	<path style="fill:none;stroke:red;stroke-width:1px;stroke-linecap:butt;stroke-linejoin:miter;stroke-opacity:1" d="M 417.964,174.382 405.344,174.382 z" id="boundary" inkscape:connector-curvature="0" />
	<path style="fill:none;stroke:red;stroke-width:1px;stroke-linecap:butt;stroke-linejoin:miter;stroke-opacity:1" d="M 441.944,180.692 430.585,174.382 z" id="boundary" inkscape:connector-curvature="0" />
	<path style="fill:none;stroke:red;stroke-width:1px;stroke-linecap:butt;stroke-linejoin:miter;stroke-opacity:1" d="M 392.723,180.692 405.344,174.382 z" id="boundary" inkscape:connector-curvature="0" />
	<path style="fill:none;stroke:red;stroke-width:1px;stroke-linecap:butt;stroke-linejoin:miter;stroke-opacity:1" d="M 430.585,174.382 417.964,174.382 z" id="boundary" inkscape:connector-curvature="0" />
	<path style="fill:none;stroke:red;stroke-width:1px;stroke-linecap:butt;stroke-linejoin:miter;stroke-opacity:1" d="M 380.102,180.692 367.481,187.003 z" id="boundary" inkscape:connector-curvature="0" />
	<path style="fill:none;stroke:red;stroke-width:1px;stroke-linecap:butt;stroke-linejoin:miter;stroke-opacity:1" d="M 323.308,174.382 332.142,184.478 z" id="boundary" inkscape:connector-curvature="0" />
	<path style="fill:none;stroke:red;stroke-width:1px;stroke-linecap:butt;stroke-linejoin:miter;stroke-opacity:1" d="M 332.142,184.478 342.239,193.313 z" id="boundary" inkscape:connector-curvature="0" />
	<path style="fill:none;stroke:red;stroke-width:1px;stroke-linecap:butt;stroke-linejoin:miter;stroke-opacity:1" d="M 367.481,187.003 354.86,187.003 z" id="boundary" inkscape:connector-curvature="0" />
	<path style="fill:none;stroke:red;stroke-width:1px;stroke-linecap:butt;stroke-linejoin:miter;stroke-opacity:1" d="M 342.239,193.313 354.86,187.003 z" id="boundary" inkscape:connector-curvature="0" />
	<path style="fill:none;stroke:red;stroke-width:1px;stroke-linecap:butt;stroke-linejoin:miter;stroke-opacity:1" d="M 441.944,180.692 454.565,180.692 z" id="boundary" inkscape:connector-curvature="0" />
	<path style="fill:none;stroke:red;stroke-width:1px;stroke-linecap:butt;stroke-linejoin:miter;stroke-opacity:1" d="M 454.565,180.692 467.186,180.692 z" id="boundary" inkscape:connector-curvature="0" />
	<path style="fill:none;stroke:red;stroke-width:1px;stroke-linecap:butt;stroke-linejoin:miter;stroke-opacity:1" d="M 467.186,180.692 478.545,187.003 z" id="boundary" inkscape:connector-curvature="0" />
	<path style="fill:none;stroke:red;stroke-width:1px;stroke-linecap:butt;stroke-linejoin:miter;stroke-opacity:1" d="M 478.545,187.003 491.165,187.003 z" id="boundary" inkscape:connector-curvature="0" />
	<path style="fill:none;stroke:red;stroke-width:1px;stroke-linecap:butt;stroke-linejoin:miter;stroke-opacity:1" d="M 501.262,194.575 491.165,187.003 z" id="boundary" inkscape:connector-curvature="0" />
	<path style="fill:none;stroke:red;stroke-width:1px;stroke-linecap:butt;stroke-linejoin:miter;stroke-opacity:1" d="M 501.262,194.575 510.097,204.672 z" id="boundary" inkscape:connector-curvature="0" />
	<path style="fill:none;stroke:red;stroke-width:1px;stroke-linecap:butt;stroke-linejoin:miter;stroke-opacity:1" d="M 520.193,213.506 510.097,204.672 z" id="boundary" inkscape:connector-curvature="0" />
	<path style="fill:none;stroke:red;stroke-width:1px;stroke-linecap:butt;stroke-linejoin:miter;stroke-opacity:1" d="M 516.407,232.438 513.883,255.155 z" id="boundary" inkscape:connector-curvature="0" />
	<path style="fill:none;stroke:red;stroke-width:1px;stroke-linecap:butt;stroke-linejoin:miter;stroke-opacity:1" d="M 520.193,213.506 516.407,232.438 z" id="boundary" inkscape:connector-curvature="0" />
	<path style="fill:none;stroke:red;stroke-width:1px;stroke-linecap:butt;stroke-linejoin:miter;stroke-opacity:1" d="M 513.883,255.155 503.786,263.99 z" id="boundary" inkscape:connector-curvature="0" />
	<path style="fill:none;stroke:red;stroke-width:1px;stroke-linecap:butt;stroke-linejoin:miter;stroke-opacity:1" d="M 149.14,261.466 149.14,274.087 z" id="boundary" inkscape:connector-curvature="0" />
	<path style="fill:none;stroke:red;stroke-width:1px;stroke-linecap:butt;stroke-linejoin:miter;stroke-opacity:1" d="M 155.45,285.445 149.14,274.087 z" id="boundary" inkscape:connector-curvature="0" />
	<path style="fill:none;stroke:red;stroke-width:1px;stroke-linecap:butt;stroke-linejoin:miter;stroke-opacity:1" d="M 155.45,285.445 165.547,294.28 z" id="boundary" inkscape:connector-curvature="0" />
	<path style="fill:none;stroke:red;stroke-width:1px;stroke-linecap:butt;stroke-linejoin:miter;stroke-opacity:1" d="M 174.382,304.377 165.547,294.28 z" id="boundary" inkscape:connector-curvature="0" />
	<path style="fill:none;stroke:red;stroke-width:1px;stroke-linecap:butt;stroke-linejoin:miter;stroke-opacity:1" d="M 180.692,315.735 174.382,304.377 z" id="boundary" inkscape:connector-curvature="0" />
	<path style="fill:none;stroke:red;stroke-width:1px;stroke-linecap:butt;stroke-linejoin:miter;stroke-opacity:1" d="M 187.003,327.094 180.692,315.735 z" id="boundary" inkscape:connector-curvature="0" />
	<path style="fill:none;stroke:red;stroke-width:1px;stroke-linecap:butt;stroke-linejoin:miter;stroke-opacity:1" d="M 194.575,337.191 187.003,327.094 z" id="boundary" inkscape:connector-curvature="0" />
	<path style="fill:none;stroke:red;stroke-width:1px;stroke-linecap:butt;stroke-linejoin:miter;stroke-opacity:1" d="M 194.575,337.191 200.885,348.55 z" id="boundary" inkscape:connector-curvature="0" />
	<path style="fill:none;stroke:red;stroke-width:1px;stroke-linecap:butt;stroke-linejoin:miter;stroke-opacity:1" d="M 209.72,358.646 200.885,348.55 z" id="boundary" inkscape:connector-curvature="0" />
	<path style="fill:none;stroke:red;stroke-width:1px;stroke-linecap:butt;stroke-linejoin:miter;stroke-opacity:1" d="M 219.817,367.481 209.72,358.646 z" id="boundary" inkscape:connector-curvature="0" />
	<path style="fill:none;stroke:red;stroke-width:1px;stroke-linecap:butt;stroke-linejoin:miter;stroke-opacity:1" d="M 296.804,396.509 285.445,390.198 z" id="boundary" inkscape:connector-curvature="0" />
	<path style="fill:none;stroke:red;stroke-width:1px;stroke-linecap:butt;stroke-linejoin:miter;stroke-opacity:1" d="M 238.748,386.412 228.651,377.578 z" id="boundary" inkscape:connector-curvature="0" />
	<path style="fill:none;stroke:red;stroke-width:1px;stroke-linecap:butt;stroke-linejoin:miter;stroke-opacity:1" d="M 228.651,377.578 219.817,367.481 z" id="boundary" inkscape:connector-curvature="0" />
	<path style="fill:none;stroke:red;stroke-width:1px;stroke-linecap:butt;stroke-linejoin:miter;stroke-opacity:1" d="M 247.583,396.509 238.748,386.412 z" id="boundary" inkscape:connector-curvature="0" />
	<path style="fill:none;stroke:red;stroke-width:1px;stroke-linecap:butt;stroke-linejoin:miter;stroke-opacity:1" d="M 263.99,377.578 276.611,380.102 z" id="boundary" inkscape:connector-curvature="0" />
	<path style="fill:none;stroke:red;stroke-width:1px;stroke-linecap:butt;stroke-linejoin:miter;stroke-opacity:1" d="M 263.99,390.198 263.99,377.578 z" id="boundary" inkscape:connector-curvature="0" />
	<path style="fill:none;stroke:red;stroke-width:1px;stroke-linecap:butt;stroke-linejoin:miter;stroke-opacity:1" d="M 276.611,380.102 285.445,390.198 z" id="boundary" inkscape:connector-curvature="0" />
	<path style="fill:none;stroke:red;stroke-width:1px;stroke-linecap:butt;stroke-linejoin:miter;stroke-opacity:1" d="M 257.679,405.344 247.583,396.509 z" id="boundary" inkscape:connector-curvature="0" />
	<path style="fill:none;stroke:red;stroke-width:1px;stroke-linecap:butt;stroke-linejoin:miter;stroke-opacity:1" d="M 306.901,404.081 296.804,396.509 z" id="boundary" inkscape:connector-curvature="0" />
	<path style="fill:none;stroke:red;stroke-width:1px;stroke-linecap:butt;stroke-linejoin:miter;stroke-opacity:1" d="M 319.522,409.13 306.901,404.081 z" id="boundary" inkscape:connector-curvature="0" />
	<path style="fill:none;stroke:red;stroke-width:1px;stroke-linecap:butt;stroke-linejoin:miter;stroke-opacity:1" d="M 319.522,409.13 323.308,421.751 z" id="boundary" inkscape:connector-curvature="0" />
	<path style="fill:none;stroke:red;stroke-width:1px;stroke-linecap:butt;stroke-linejoin:miter;stroke-opacity:1" d="M 323.308,421.751 333.405,430.585 z" id="boundary" inkscape:connector-curvature="0" />
	<path style="fill:none;stroke:red;stroke-width:1px;stroke-linecap:butt;stroke-linejoin:miter;stroke-opacity:1" d="M 465.924,314.473 476.02,305.639 z" id="boundary" inkscape:connector-curvature="0" />
	<path style="fill:none;stroke:red;stroke-width:1px;stroke-linecap:butt;stroke-linejoin:miter;stroke-opacity:1" d="M 465.924,314.473 468.448,327.094 z" id="boundary" inkscape:connector-curvature="0" />
	<path style="fill:none;stroke:red;stroke-width:1px;stroke-linecap:butt;stroke-linejoin:miter;stroke-opacity:1" d="M 468.448,327.094 481.069,332.142 z" id="boundary" inkscape:connector-curvature="0" />
	<path style="fill:none;stroke:red;stroke-width:1px;stroke-linecap:butt;stroke-linejoin:miter;stroke-opacity:1" d="M 342.239,440.682 333.405,430.585 z" id="boundary" inkscape:connector-curvature="0" />
	<path style="fill:none;stroke:red;stroke-width:1px;stroke-linecap:butt;stroke-linejoin:miter;stroke-opacity:1" d="M 352.336,449.517 342.239,440.682 z" id="boundary" inkscape:connector-curvature="0" />
	<path style="fill:none;stroke:red;stroke-width:1px;stroke-linecap:butt;stroke-linejoin:miter;stroke-opacity:1" d="M 361.17,459.613 352.336,449.517 z" id="boundary" inkscape:connector-curvature="0" />
	<path style="fill:none;stroke:red;stroke-width:1px;stroke-linecap:butt;stroke-linejoin:miter;stroke-opacity:1" d="M 371.267,468.448 361.17,459.613 z" id="boundary" inkscape:connector-curvature="0" />
	<path style="fill:none;stroke:red;stroke-width:1px;stroke-linecap:butt;stroke-linejoin:miter;stroke-opacity:1" d="M 380.102,478.545 371.267,468.448 z" id="boundary" inkscape:connector-curvature="0" />
	<path style="fill:none;stroke:red;stroke-width:1px;stroke-linecap:butt;stroke-linejoin:miter;stroke-opacity:1" d="M 503.786,276.611 494.952,286.707 z" id="boundary" inkscape:connector-curvature="0" />
	<path style="fill:none;stroke:red;stroke-width:1px;stroke-linecap:butt;stroke-linejoin:miter;stroke-opacity:1" d="M 494.952,286.707 484.855,295.542 z" id="boundary" inkscape:connector-curvature="0" />
	<path style="fill:none;stroke:red;stroke-width:1px;stroke-linecap:butt;stroke-linejoin:miter;stroke-opacity:1" d="M 503.786,263.99 503.786,276.611 z" id="boundary" inkscape:connector-curvature="0" />
	<path style="fill:none;stroke:red;stroke-width:1px;stroke-linecap:butt;stroke-linejoin:miter;stroke-opacity:1" d="M 476.02,305.639 484.855,295.542 z" id="boundary" inkscape:connector-curvature="0" />
	<path style="fill:none;stroke:red;stroke-width:1px;stroke-linecap:butt;stroke-linejoin:miter;stroke-opacity:1" d="M 493.69,332.142 506.31,332.142 z" id="boundary" inkscape:connector-curvature="0" />
	<path style="fill:none;stroke:red;stroke-width:1px;stroke-linecap:butt;stroke-linejoin:miter;stroke-opacity:1" d="M 493.69,332.142 481.069,332.142 z" id="boundary" inkscape:connector-curvature="0" />
	<path style="fill:none;stroke:red;stroke-width:1px;stroke-linecap:butt;stroke-linejoin:miter;stroke-opacity:1" d="M 506.31,332.142 518.931,332.142 z" id="boundary" inkscape:connector-curvature="0" />
	<path style="fill:none;stroke:red;stroke-width:1px;stroke-linecap:butt;stroke-linejoin:miter;stroke-opacity:1" d="M 531.552,332.142 518.931,332.142 z" id="boundary" inkscape:connector-curvature="0" />
	<path style="fill:none;stroke:red;stroke-width:1px;stroke-linecap:butt;stroke-linejoin:miter;stroke-opacity:1" d="M 386.412,489.903 382.626,512.621 z" id="boundary" inkscape:connector-curvature="0" />
	<path style="fill:none;stroke:red;stroke-width:1px;stroke-linecap:butt;stroke-linejoin:miter;stroke-opacity:1" d="M 382.626,512.621 382.626,525.242 z" id="boundary" inkscape:connector-curvature="0" />
	<path style="fill:none;stroke:red;stroke-width:1px;stroke-linecap:butt;stroke-linejoin:miter;stroke-opacity:1" d="M 380.102,478.545 386.412,489.903 z" id="boundary" inkscape:connector-curvature="0" />
	<path style="fill:none;stroke:red;stroke-width:1px;stroke-linecap:butt;stroke-linejoin:miter;stroke-opacity:1" d="M 388.936,536.601 382.626,525.242 z" id="boundary" inkscape:connector-curvature="0" />
	<path style="fill:none;stroke:red;stroke-width:1px;stroke-linecap:butt;stroke-linejoin:miter;stroke-opacity:1" d="M 395.247,547.959 388.936,536.601 z" id="boundary" inkscape:connector-curvature="0" />
	<path style="fill:none;stroke:red;stroke-width:1px;stroke-linecap:butt;stroke-linejoin:miter;stroke-opacity:1" d="M 395.247,547.959 395.247,560.58 z" id="boundary" inkscape:connector-curvature="0" />
	<path style="fill:none;stroke:red;stroke-width:1px;stroke-linecap:butt;stroke-linejoin:miter;stroke-opacity:1" d="M 399.033,573.201 395.247,560.58 z" id="boundary" inkscape:connector-curvature="0" />
	<path style="fill:none;stroke:red;stroke-width:1px;stroke-linecap:butt;stroke-linejoin:miter;stroke-opacity:1" d="M 399.033,573.201 405.344,584.56 z" id="boundary" inkscape:connector-curvature="0" />
	<path style="fill:none;stroke:red;stroke-width:1px;stroke-linecap:butt;stroke-linejoin:miter;stroke-opacity:1" d="M 410.392,597.181 405.344,584.56 z" id="boundary" inkscape:connector-curvature="0" />
	<path style="fill:none;stroke:red;stroke-width:1px;stroke-linecap:butt;stroke-linejoin:miter;stroke-opacity:1" d="M 420.489,604.753 410.392,597.181 z" id="boundary" inkscape:connector-curvature="0" />
	<path style="fill:none;stroke:red;stroke-width:1px;stroke-linecap:butt;stroke-linejoin:miter;stroke-opacity:1" d="M 428.061,614.85 420.489,604.753 z" id="boundary" inkscape:connector-curvature="0" />
	<path style="fill:none;stroke:red;stroke-width:1px;stroke-linecap:butt;stroke-linejoin:miter;stroke-opacity:1" d="M 438.158,623.684 428.061,614.85 z" id="boundary" inkscape:connector-curvature="0" />
	<path style="fill:none;stroke:red;stroke-width:1px;stroke-linecap:butt;stroke-linejoin:miter;stroke-opacity:1" d="M 438.158,623.684 446.992,633.781 z" id="boundary" inkscape:connector-curvature="0" />
	<path style="fill:none;stroke:red;stroke-width:1px;stroke-linecap:butt;stroke-linejoin:miter;stroke-opacity:1" d="M 457.089,642.616 446.992,633.781 z" id="boundary" inkscape:connector-curvature="0" />
	<path style="fill:none;stroke:red;stroke-width:1px;stroke-linecap:butt;stroke-linejoin:miter;stroke-opacity:1" d="M 465.924,652.712 457.089,642.616 z" id="boundary" inkscape:connector-curvature="0" />
	<path style="fill:none;stroke:red;stroke-width:1px;stroke-linecap:butt;stroke-linejoin:miter;stroke-opacity:1" d="M 465.924,652.712 478.545,657.761 z" id="boundary" inkscape:connector-curvature="0" />
	<path style="fill:none;stroke:red;stroke-width:1px;stroke-linecap:butt;stroke-linejoin:miter;stroke-opacity:1" d="M 478.545,657.761 489.903,664.071 z" id="boundary" inkscape:connector-curvature="0" />
	<path style="fill:none;stroke:red;stroke-width:1px;stroke-linecap:butt;stroke-linejoin:miter;stroke-opacity:1" d="M 510.097,680.478 500,672.906 z" id="boundary" inkscape:connector-curvature="0" />
	<path style="fill:none;stroke:red;stroke-width:1px;stroke-linecap:butt;stroke-linejoin:miter;stroke-opacity:1" d="M 500,672.906 489.903,664.071 z" id="boundary" inkscape:connector-curvature="0" />
	<path style="fill:none;stroke:red;stroke-width:1px;stroke-linecap:butt;stroke-linejoin:miter;stroke-opacity:1" d="M 510.097,680.478 521.455,686.789 z" id="boundary" inkscape:connector-curvature="0" />
	<path style="fill:none;stroke:red;stroke-width:1px;stroke-linecap:butt;stroke-linejoin:miter;stroke-opacity:1" d="M 521.455,686.789 532.814,693.099 z" id="boundary" inkscape:connector-curvature="0" />
	<path style="fill:none;stroke:red;stroke-width:1px;stroke-linecap:butt;stroke-linejoin:miter;stroke-opacity:1" d="M 544.173,332.142 531.552,332.142 z" id="boundary" inkscape:connector-curvature="0" />
	<path style="fill:none;stroke:red;stroke-width:1px;stroke-linecap:butt;stroke-linejoin:miter;stroke-opacity:1" d="M 556.794,325.832 544.173,332.142 z" id="boundary" inkscape:connector-curvature="0" />
	<path style="fill:none;stroke:red;stroke-width:1px;stroke-linecap:butt;stroke-linejoin:miter;stroke-opacity:1" d="M 568.153,332.142 556.794,325.832 z" id="boundary" inkscape:connector-curvature="0" />
	<path style="fill:none;stroke:red;stroke-width:1px;stroke-linecap:butt;stroke-linejoin:miter;stroke-opacity:1" d="M 579.511,338.453 568.153,332.142 z" id="boundary" inkscape:connector-curvature="0" />
	<path style="fill:none;stroke:red;stroke-width:1px;stroke-linecap:butt;stroke-linejoin:miter;stroke-opacity:1" d="M 592.132,342.239 579.511,338.453 z" id="boundary" inkscape:connector-curvature="0" />
	<path style="fill:none;stroke:red;stroke-width:1px;stroke-linecap:butt;stroke-linejoin:miter;stroke-opacity:1" d="M 592.132,342.239 603.491,348.55 z" id="boundary" inkscape:connector-curvature="0" />
	<path style="fill:none;stroke:red;stroke-width:1px;stroke-linecap:butt;stroke-linejoin:miter;stroke-opacity:1" d="M 603.491,348.55 613.588,357.384 z" id="boundary" inkscape:connector-curvature="0" />
	<path style="fill:none;stroke:red;stroke-width:1px;stroke-linecap:butt;stroke-linejoin:miter;stroke-opacity:1" d="M 622.422,367.481 613.588,357.384 z" id="boundary" inkscape:connector-curvature="0" />
	<path style="fill:none;stroke:red;stroke-width:1px;stroke-linecap:butt;stroke-linejoin:miter;stroke-opacity:1" d="M 632.519,376.316 622.422,367.481 z" id="boundary" inkscape:connector-curvature="0" />
	<path style="fill:none;stroke:red;stroke-width:1px;stroke-linecap:butt;stroke-linejoin:miter;stroke-opacity:1" d="M 643.878,382.626 632.519,376.316 z" id="boundary" inkscape:connector-curvature="0" />
	<path style="fill:none;stroke:red;stroke-width:1px;stroke-linecap:butt;stroke-linejoin:miter;stroke-opacity:1" d="M 653.975,391.461 643.878,382.626 z" id="boundary" inkscape:connector-curvature="0" />
	<path style="fill:none;stroke:red;stroke-width:1px;stroke-linecap:butt;stroke-linejoin:miter;stroke-opacity:1" d="M 653.975,391.461 661.547,401.557 z" id="boundary" inkscape:connector-curvature="0" />
	<path style="fill:none;stroke:red;stroke-width:1px;stroke-linecap:butt;stroke-linejoin:miter;stroke-opacity:1" d="M 671.644,409.13 680.478,419.226 z" id="boundary" inkscape:connector-curvature="0" />
	<path style="fill:none;stroke:red;stroke-width:1px;stroke-linecap:butt;stroke-linejoin:miter;stroke-opacity:1" d="M 680.478,419.226 686.789,430.585 z" id="boundary" inkscape:connector-curvature="0" />
	<path style="fill:none;stroke:red;stroke-width:1px;stroke-linecap:butt;stroke-linejoin:miter;stroke-opacity:1" d="M 695.623,440.682 701.934,452.041 z" id="boundary" inkscape:connector-curvature="0" />
	<path style="fill:none;stroke:red;stroke-width:1px;stroke-linecap:butt;stroke-linejoin:miter;stroke-opacity:1" d="M 686.789,430.585 695.623,440.682 z" id="boundary" inkscape:connector-curvature="0" />
	<path style="fill:none;stroke:red;stroke-width:1px;stroke-linecap:butt;stroke-linejoin:miter;stroke-opacity:1" d="M 661.547,401.557 671.644,409.13 z" id="boundary" inkscape:connector-curvature="0" />
	<path style="fill:none;stroke:red;stroke-width:1px;stroke-linecap:butt;stroke-linejoin:miter;stroke-opacity:1" d="M 701.934,452.041 713.293,458.351 z" id="boundary" inkscape:connector-curvature="0" />
	<path style="fill:none;stroke:red;stroke-width:1px;stroke-linecap:butt;stroke-linejoin:miter;stroke-opacity:1" d="M 544.173,699.41 532.814,693.099 z" id="boundary" inkscape:connector-curvature="0" />
	<path style="fill:none;stroke:red;stroke-width:1px;stroke-linecap:butt;stroke-linejoin:miter;stroke-opacity:1" d="M 550.483,710.768 544.173,699.41 z" id="boundary" inkscape:connector-curvature="0" />
	<path style="fill:none;stroke:red;stroke-width:1px;stroke-linecap:butt;stroke-linejoin:miter;stroke-opacity:1" d="M 705.72,621.16 699.41,609.802 z" id="boundary" inkscape:connector-curvature="0" />
	<path style="fill:none;stroke:red;stroke-width:1px;stroke-linecap:butt;stroke-linejoin:miter;stroke-opacity:1" d="M 699.41,609.802 693.099,598.443 z" id="boundary" inkscape:connector-curvature="0" />
	<path style="fill:none;stroke:red;stroke-width:1px;stroke-linecap:butt;stroke-linejoin:miter;stroke-opacity:1" d="M 693.099,598.443 704.458,592.132 z" id="boundary" inkscape:connector-curvature="0" />
	<path style="fill:none;stroke:red;stroke-width:1px;stroke-linecap:butt;stroke-linejoin:miter;stroke-opacity:1" d="M 648.926,693.099 636.305,693.099 z" id="boundary" inkscape:connector-curvature="0" />
	<path style="fill:none;stroke:red;stroke-width:1px;stroke-linecap:butt;stroke-linejoin:miter;stroke-opacity:1" d="M 660.285,699.41 648.926,693.099 z" id="boundary" inkscape:connector-curvature="0" />
	<path style="fill:none;stroke:red;stroke-width:1px;stroke-linecap:butt;stroke-linejoin:miter;stroke-opacity:1" d="M 705.72,621.16 712.031,632.519 z" id="boundary" inkscape:connector-curvature="0" />
	<path style="fill:none;stroke:red;stroke-width:1px;stroke-linecap:butt;stroke-linejoin:miter;stroke-opacity:1" d="M 723.389,467.186 713.293,458.351 z" id="boundary" inkscape:connector-curvature="0" />
	<path style="fill:none;stroke:red;stroke-width:1px;stroke-linecap:butt;stroke-linejoin:miter;stroke-opacity:1" d="M 728.438,479.807 734.748,491.165 z" id="boundary" inkscape:connector-curvature="0" />
	<path style="fill:none;stroke:red;stroke-width:1px;stroke-linecap:butt;stroke-linejoin:miter;stroke-opacity:1" d="M 728.438,479.807 723.389,467.186 z" id="boundary" inkscape:connector-curvature="0" />
	<path style="fill:none;stroke:red;stroke-width:1px;stroke-linecap:butt;stroke-linejoin:miter;stroke-opacity:1" d="M 743.583,501.262 734.748,491.165 z" id="boundary" inkscape:connector-curvature="0" />
	<path style="fill:none;stroke:red;stroke-width:1px;stroke-linecap:butt;stroke-linejoin:miter;stroke-opacity:1" d="M 753.679,510.097 743.583,501.262 z" id="boundary" inkscape:connector-curvature="0" />
	<path style="fill:none;stroke:red;stroke-width:1px;stroke-linecap:butt;stroke-linejoin:miter;stroke-opacity:1" d="M 768.824,531.552 758.728,522.718 z" id="boundary" inkscape:connector-curvature="0" />
	<path style="fill:none;stroke:red;stroke-width:1px;stroke-linecap:butt;stroke-linejoin:miter;stroke-opacity:1" d="M 758.728,522.718 753.679,510.097 z" id="boundary" inkscape:connector-curvature="0" />
	<path style="fill:none;stroke:red;stroke-width:1px;stroke-linecap:butt;stroke-linejoin:miter;stroke-opacity:1" d="M 773.873,544.173 768.824,531.552 z" id="boundary" inkscape:connector-curvature="0" />
	<path style="fill:none;stroke:red;stroke-width:1px;stroke-linecap:butt;stroke-linejoin:miter;stroke-opacity:1" d="M 717.079,592.132 704.458,592.132 z" id="boundary" inkscape:connector-curvature="0" />
	<path style="fill:none;stroke:red;stroke-width:1px;stroke-linecap:butt;stroke-linejoin:miter;stroke-opacity:1" d="M 773.873,544.173 781.445,554.27 z" id="boundary" inkscape:connector-curvature="0" />
	<path style="fill:none;stroke:red;stroke-width:1px;stroke-linecap:butt;stroke-linejoin:miter;stroke-opacity:1" d="M 787.756,565.628 787.756,578.249 z" id="boundary" inkscape:connector-curvature="0" />
	<path style="fill:none;stroke:red;stroke-width:1px;stroke-linecap:butt;stroke-linejoin:miter;stroke-opacity:1" d="M 787.756,565.628 781.445,554.27 z" id="boundary" inkscape:connector-curvature="0" />
	<path style="fill:none;stroke:red;stroke-width:1px;stroke-linecap:butt;stroke-linejoin:miter;stroke-opacity:1" d="M 794.066,589.608 787.756,578.249 z" id="boundary" inkscape:connector-curvature="0" />
	<path style="fill:none;stroke:red;stroke-width:1px;stroke-linecap:butt;stroke-linejoin:miter;stroke-opacity:1" d="M 717.079,592.132 728.438,598.443 z" id="boundary" inkscape:connector-curvature="0" />
	<path style="fill:none;stroke:red;stroke-width:1px;stroke-linecap:butt;stroke-linejoin:miter;stroke-opacity:1" d="M 728.438,598.443 741.059,598.443 z" id="boundary" inkscape:connector-curvature="0" />
	<path style="fill:none;stroke:red;stroke-width:1px;stroke-linecap:butt;stroke-linejoin:miter;stroke-opacity:1" d="M 752.417,604.753 741.059,598.443 z" id="boundary" inkscape:connector-curvature="0" />
	<path style="fill:none;stroke:red;stroke-width:1px;stroke-linecap:butt;stroke-linejoin:miter;stroke-opacity:1" d="M 723.389,638.83 733.486,647.664 z" id="boundary" inkscape:connector-curvature="0" />
	<path style="fill:none;stroke:red;stroke-width:1px;stroke-linecap:butt;stroke-linejoin:miter;stroke-opacity:1" d="M 723.389,638.83 712.031,632.519 z" id="boundary" inkscape:connector-curvature="0" />
	<path style="fill:none;stroke:red;stroke-width:1px;stroke-linecap:butt;stroke-linejoin:miter;stroke-opacity:1" d="M 733.486,647.664 742.321,657.761 z" id="boundary" inkscape:connector-curvature="0" />
	<path style="fill:none;stroke:red;stroke-width:1px;stroke-linecap:butt;stroke-linejoin:miter;stroke-opacity:1" d="M 754.941,662.809 762.514,672.906 z" id="boundary" inkscape:connector-curvature="0" />
	<path style="fill:none;stroke:red;stroke-width:1px;stroke-linecap:butt;stroke-linejoin:miter;stroke-opacity:1" d="M 754.941,662.809 742.321,657.761 z" id="boundary" inkscape:connector-curvature="0" />
	<path style="fill:none;stroke:red;stroke-width:1px;stroke-linecap:butt;stroke-linejoin:miter;stroke-opacity:1" d="M 762.514,672.906 772.611,680.478 z" id="boundary" inkscape:connector-curvature="0" />
	<path style="fill:none;stroke:red;stroke-width:1px;stroke-linecap:butt;stroke-linejoin:miter;stroke-opacity:1" d="M 752.417,604.753 763.776,611.064 z" id="boundary" inkscape:connector-curvature="0" />
	<path style="fill:none;stroke:red;stroke-width:1px;stroke-linecap:butt;stroke-linejoin:miter;stroke-opacity:1" d="M 776.397,611.064 763.776,611.064 z" id="boundary" inkscape:connector-curvature="0" />
	<path style="fill:none;stroke:red;stroke-width:1px;stroke-linecap:butt;stroke-linejoin:miter;stroke-opacity:1" d="M 786.494,600.967 776.397,611.064 z" id="boundary" inkscape:connector-curvature="0" />
	<path style="fill:none;stroke:red;stroke-width:1px;stroke-linecap:butt;stroke-linejoin:miter;stroke-opacity:1" d="M 786.494,600.967 794.066,589.608 z" id="boundary" inkscape:connector-curvature="0" />
	<path style="fill:none;stroke:red;stroke-width:1px;stroke-linecap:butt;stroke-linejoin:miter;stroke-opacity:1" d="M 772.611,680.478 783.969,686.789 z" id="boundary" inkscape:connector-curvature="0" />
	<path style="fill:none;stroke:red;stroke-width:1px;stroke-linecap:butt;stroke-linejoin:miter;stroke-opacity:1" d="M 794.066,695.623 783.969,686.789 z" id="boundary" inkscape:connector-curvature="0" />
	<path style="fill:none;stroke:red;stroke-width:1px;stroke-linecap:butt;stroke-linejoin:miter;stroke-opacity:1" d="M 805.425,701.934 794.066,695.623 z" id="boundary" inkscape:connector-curvature="0" />
	<path style="fill:none;stroke:red;stroke-width:1px;stroke-linecap:butt;stroke-linejoin:miter;stroke-opacity:1" d="M 561.842,717.079 550.483,710.768 z" id="boundary" inkscape:connector-curvature="0" />
	<path style="fill:none;stroke:red;stroke-width:1px;stroke-linecap:butt;stroke-linejoin:miter;stroke-opacity:1" d="M 574.463,722.127 561.842,717.079 z" id="boundary" inkscape:connector-curvature="0" />
	<path style="fill:none;stroke:red;stroke-width:1px;stroke-linecap:butt;stroke-linejoin:miter;stroke-opacity:1" d="M 584.56,730.962 574.463,722.127 z" id="boundary" inkscape:connector-curvature="0" />
	<path style="fill:none;stroke:red;stroke-width:1px;stroke-linecap:butt;stroke-linejoin:miter;stroke-opacity:1" d="M 642.616,717.079 636.305,705.72 z" id="boundary" inkscape:connector-curvature="0" />
	<path style="fill:none;stroke:red;stroke-width:1px;stroke-linecap:butt;stroke-linejoin:miter;stroke-opacity:1" d="M 648.926,728.438 642.616,717.079 z" id="boundary" inkscape:connector-curvature="0" />
	<path style="fill:none;stroke:red;stroke-width:1px;stroke-linecap:butt;stroke-linejoin:miter;stroke-opacity:1" d="M 636.305,693.099 636.305,705.72 z" id="boundary" inkscape:connector-curvature="0" />
	<path style="fill:none;stroke:red;stroke-width:1px;stroke-linecap:butt;stroke-linejoin:miter;stroke-opacity:1" d="M 595.919,737.272 584.56,730.962 z" id="boundary" inkscape:connector-curvature="0" />
	<path style="fill:none;stroke:red;stroke-width:1px;stroke-linecap:butt;stroke-linejoin:miter;stroke-opacity:1" d="M 595.919,737.272 607.277,743.583 z" id="boundary" inkscape:connector-curvature="0" />
	<path style="fill:none;stroke:red;stroke-width:1px;stroke-linecap:butt;stroke-linejoin:miter;stroke-opacity:1" d="M 618.636,749.893 607.277,743.583 z" id="boundary" inkscape:connector-curvature="0" />
	<path style="fill:none;stroke:red;stroke-width:1px;stroke-linecap:butt;stroke-linejoin:miter;stroke-opacity:1" d="M 631.257,749.893 618.636,749.893 z" id="boundary" inkscape:connector-curvature="0" />
	<path style="fill:none;stroke:red;stroke-width:1px;stroke-linecap:butt;stroke-linejoin:miter;stroke-opacity:1" d="M 642.616,743.583 631.257,749.893 z" id="boundary" inkscape:connector-curvature="0" />
	<path style="fill:none;stroke:red;stroke-width:1px;stroke-linecap:butt;stroke-linejoin:miter;stroke-opacity:1" d="M 648.926,728.438 642.616,743.583 z" id="boundary" inkscape:connector-curvature="0" />
	<path style="fill:none;stroke:red;stroke-width:1px;stroke-linecap:butt;stroke-linejoin:miter;stroke-opacity:1" d="M 667.858,709.506 660.285,699.41 z" id="boundary" inkscape:connector-curvature="0" />
	<path style="fill:none;stroke:red;stroke-width:1px;stroke-linecap:butt;stroke-linejoin:miter;stroke-opacity:1" d="M 677.954,718.341 667.858,709.506 z" id="boundary" inkscape:connector-curvature="0" />
	<path style="fill:none;stroke:red;stroke-width:1px;stroke-linecap:butt;stroke-linejoin:miter;stroke-opacity:1" d="M 686.789,728.438 677.954,718.341 z" id="boundary" inkscape:connector-curvature="0" />
	<path style="fill:none;stroke:red;stroke-width:1px;stroke-linecap:butt;stroke-linejoin:miter;stroke-opacity:1" d="M 805.425,701.934 818.046,704.458 z" id="boundary" inkscape:connector-curvature="0" />
	<path style="fill:none;stroke:red;stroke-width:1px;stroke-linecap:butt;stroke-linejoin:miter;stroke-opacity:1" d="M 829.405,710.768 818.046,704.458 z" id="boundary" inkscape:connector-curvature="0" />
	<path style="fill:none;stroke:red;stroke-width:1px;stroke-linecap:butt;stroke-linejoin:miter;stroke-opacity:1" d="M 686.789,728.438 696.885,737.272 z" id="boundary" inkscape:connector-curvature="0" />
	<path style="fill:none;stroke:red;stroke-width:1px;stroke-linecap:butt;stroke-linejoin:miter;stroke-opacity:1" d="M 705.72,747.369 696.885,737.272 z" id="boundary" inkscape:connector-curvature="0" />
	<path style="fill:none;stroke:red;stroke-width:1px;stroke-linecap:butt;stroke-linejoin:miter;stroke-opacity:1" d="M 715.817,756.204 705.72,747.369 z" id="boundary" inkscape:connector-curvature="0" />
	<path style="fill:none;stroke:red;stroke-width:1px;stroke-linecap:butt;stroke-linejoin:miter;stroke-opacity:1" d="M 724.651,766.3 715.817,756.204 z" id="boundary" inkscape:connector-curvature="0" />
	<path style="fill:none;stroke:red;stroke-width:1px;stroke-linecap:butt;stroke-linejoin:miter;stroke-opacity:1" d="M 736.01,790.28 730.962,777.659 z" id="boundary" inkscape:connector-curvature="0" />
	<path style="fill:none;stroke:red;stroke-width:1px;stroke-linecap:butt;stroke-linejoin:miter;stroke-opacity:1" d="M 724.651,766.3 730.962,777.659 z" id="boundary" inkscape:connector-curvature="0" />
	<path style="fill:none;stroke:red;stroke-width:1px;stroke-linecap:butt;stroke-linejoin:miter;stroke-opacity:1" d="M 746.107,799.115 736.01,790.28 z" id="boundary" inkscape:connector-curvature="0" />
	<path style="fill:none;stroke:red;stroke-width:1px;stroke-linecap:butt;stroke-linejoin:miter;stroke-opacity:1" d="M 746.107,799.115 751.155,811.735 z" id="boundary" inkscape:connector-curvature="0" />
	<path style="fill:none;stroke:red;stroke-width:1px;stroke-linecap:butt;stroke-linejoin:miter;stroke-opacity:1" d="M 751.155,811.735 761.252,819.308 z" id="boundary" inkscape:connector-curvature="0" />
	<path style="fill:none;stroke:red;stroke-width:1px;stroke-linecap:butt;stroke-linejoin:miter;stroke-opacity:1" d="M 765.038,831.929 761.252,819.308 z" id="boundary" inkscape:connector-curvature="0" />
	<path style="fill:none;stroke:red;stroke-width:1px;stroke-linecap:butt;stroke-linejoin:miter;stroke-opacity:1" d="M 773.873,842.025 765.038,831.929 z" id="boundary" inkscape:connector-curvature="0" />
	<path style="fill:none;stroke:red;stroke-width:1px;stroke-linecap:butt;stroke-linejoin:miter;stroke-opacity:1" d="M 780.183,853.384 786.494,864.743 z" id="boundary" inkscape:connector-curvature="0" />
	<path style="fill:none;stroke:red;stroke-width:1px;stroke-linecap:butt;stroke-linejoin:miter;stroke-opacity:1" d="M 773.873,842.025 780.183,853.384 z" id="boundary" inkscape:connector-curvature="0" />
	<path style="fill:none;stroke:red;stroke-width:1px;stroke-linecap:butt;stroke-linejoin:miter;stroke-opacity:1" d="M 795.328,874.84 786.494,864.743 z" id="boundary" inkscape:connector-curvature="0" />
	<path style="fill:none;stroke:red;stroke-width:1px;stroke-linecap:butt;stroke-linejoin:miter;stroke-opacity:1" d="M 812.997,892.509 805.425,882.412 z" id="boundary" inkscape:connector-curvature="0" />
	<path style="fill:none;stroke:red;stroke-width:1px;stroke-linecap:butt;stroke-linejoin:miter;stroke-opacity:1" d="M 812.997,892.509 823.094,901.344 z" id="boundary" inkscape:connector-curvature="0" />
	<path style="fill:none;stroke:red;stroke-width:1px;stroke-linecap:butt;stroke-linejoin:miter;stroke-opacity:1" d="M 805.425,882.412 795.328,874.84 z" id="boundary" inkscape:connector-curvature="0" />
	<path style="fill:none;stroke:red;stroke-width:1px;stroke-linecap:butt;stroke-linejoin:miter;stroke-opacity:1" d="M 823.094,901.344 831.929,911.44 z" id="boundary" inkscape:connector-curvature="0" />
	<path style="fill:none;stroke:red;stroke-width:1px;stroke-linecap:butt;stroke-linejoin:miter;stroke-opacity:1" d="M 829.405,710.768 840.763,717.079 z" id="boundary" inkscape:connector-curvature="0" />
	<path style="fill:none;stroke:red;stroke-width:1px;stroke-linecap:butt;stroke-linejoin:miter;stroke-opacity:1" d="M 840.763,717.079 852.122,723.389 z" id="boundary" inkscape:connector-curvature="0" />
	<path style="fill:none;stroke:red;stroke-width:1px;stroke-linecap:butt;stroke-linejoin:miter;stroke-opacity:1" d="M 873.578,738.534 862.219,732.224 z" id="boundary" inkscape:connector-curvature="0" />
	<path style="fill:none;stroke:red;stroke-width:1px;stroke-linecap:butt;stroke-linejoin:miter;stroke-opacity:1" d="M 862.219,732.224 852.122,723.389 z" id="boundary" inkscape:connector-curvature="0" />
	<path style="fill:none;stroke:red;stroke-width:1px;stroke-linecap:butt;stroke-linejoin:miter;stroke-opacity:1" d="M 873.578,738.534 882.412,748.631 z" id="boundary" inkscape:connector-curvature="0" />
	<path style="fill:none;stroke:red;stroke-width:1px;stroke-linecap:butt;stroke-linejoin:miter;stroke-opacity:1" d="M 892.509,756.204 901.344,766.3 z" id="boundary" inkscape:connector-curvature="0" />
	<path style="fill:none;stroke:red;stroke-width:1px;stroke-linecap:butt;stroke-linejoin:miter;stroke-opacity:1" d="M 892.509,756.204 882.412,748.631 z" id="boundary" inkscape:connector-curvature="0" />
	<path style="fill:none;stroke:red;stroke-width:1px;stroke-linecap:butt;stroke-linejoin:miter;stroke-opacity:1" d="M 901.344,766.3 911.44,775.135 z" id="boundary" inkscape:connector-curvature="0" />
	<path style="fill:none;stroke:red;stroke-width:1px;stroke-linecap:butt;stroke-linejoin:miter;stroke-opacity:1" d="M 922.799,781.445 911.44,775.135 z" id="boundary" inkscape:connector-curvature="0" />
	<path style="fill:none;stroke:red;stroke-width:1px;stroke-linecap:butt;stroke-linejoin:miter;stroke-opacity:1" d="M 935.42,786.494 922.799,781.445 z" id="boundary" inkscape:connector-curvature="0" />
	<path style="fill:none;stroke:red;stroke-width:1px;stroke-linecap:butt;stroke-linejoin:miter;stroke-opacity:1" d="M 939.206,799.115 935.42,786.494 z" id="boundary" inkscape:connector-curvature="0" />
	<path style="fill:none;stroke:red;stroke-width:1px;stroke-linecap:butt;stroke-linejoin:miter;stroke-opacity:1" d="M 939.206,799.115 945.517,810.473 z" id="boundary" inkscape:connector-curvature="0" />
	<path style="fill:none;stroke:red;stroke-width:1px;stroke-linecap:butt;stroke-linejoin:miter;stroke-opacity:1" d="M 945.517,810.473 955.613,819.308 z" id="boundary" inkscape:connector-curvature="0" />
	<path style="fill:none;stroke:red;stroke-width:1px;stroke-linecap:butt;stroke-linejoin:miter;stroke-opacity:1" d="M 955.613,819.308 964.448,829.405 z" id="boundary" inkscape:connector-curvature="0" />
	<path style="fill:none;stroke:red;stroke-width:1px;stroke-linecap:butt;stroke-linejoin:miter;stroke-opacity:1" d="M 970.758,840.763 977.069,852.122 z" id="boundary" inkscape:connector-curvature="0" />
	<path style="fill:none;stroke:red;stroke-width:1px;stroke-linecap:butt;stroke-linejoin:miter;stroke-opacity:1" d="M 970.758,840.763 964.448,829.405 z" id="boundary" inkscape:connector-curvature="0" />
	<path style="fill:none;stroke:red;stroke-width:1px;stroke-linecap:butt;stroke-linejoin:miter;stroke-opacity:1" d="M 977.069,852.122 977.069,864.743 z" id="boundary" inkscape:connector-curvature="0" />
	<path style="fill:none;stroke:red;stroke-width:1px;stroke-linecap:butt;stroke-linejoin:miter;stroke-opacity:1" d="M 983.379,876.102 977.069,864.743 z" id="boundary" inkscape:connector-curvature="0" />
	<path style="fill:none;stroke:red;stroke-width:1px;stroke-linecap:butt;stroke-linejoin:miter;stroke-opacity:1" d="M 842.025,920.275 831.929,911.44 z" id="boundary" inkscape:connector-curvature="0" />
	<path style="fill:none;stroke:red;stroke-width:1px;stroke-linecap:butt;stroke-linejoin:miter;stroke-opacity:1" d="M 850.86,930.372 842.025,920.275 z" id="boundary" inkscape:connector-curvature="0" />
	<path style="fill:none;stroke:red;stroke-width:1px;stroke-linecap:butt;stroke-linejoin:miter;stroke-opacity:1" d="M 860.957,939.206 850.86,930.372 z" id="boundary" inkscape:connector-curvature="0" />
	<path style="fill:none;stroke:red;stroke-width:1px;stroke-linecap:butt;stroke-linejoin:miter;stroke-opacity:1" d="M 860.957,939.206 872.316,945.517 z" id="boundary" inkscape:connector-curvature="0" />
	<path style="fill:none;stroke:red;stroke-width:1px;stroke-linecap:butt;stroke-linejoin:miter;stroke-opacity:1" d="M 872.316,945.517 884.936,945.517 z" id="boundary" inkscape:connector-curvature="0" />
	<path style="fill:none;stroke:red;stroke-width:1px;stroke-linecap:butt;stroke-linejoin:miter;stroke-opacity:1" d="M 896.295,951.827 884.936,945.517 z" id="boundary" inkscape:connector-curvature="0" />
	<path style="fill:none;stroke:red;stroke-width:1px;stroke-linecap:butt;stroke-linejoin:miter;stroke-opacity:1" d="M 896.295,951.827 908.916,955.613 z" id="boundary" inkscape:connector-curvature="0" />
	<path style="fill:none;stroke:red;stroke-width:1px;stroke-linecap:butt;stroke-linejoin:miter;stroke-opacity:1" d="M 908.916,955.613 921.537,958.137 z" id="boundary" inkscape:connector-curvature="0" />
	<path style="fill:none;stroke:red;stroke-width:1px;stroke-linecap:butt;stroke-linejoin:miter;stroke-opacity:1" d="M 921.537,958.137 934.158,958.137 z" id="boundary" inkscape:connector-curvature="0" />
	<path style="fill:none;stroke:red;stroke-width:1px;stroke-linecap:butt;stroke-linejoin:miter;stroke-opacity:1" d="M 946.779,958.137 934.158,958.137 z" id="boundary" inkscape:connector-curvature="0" />
	<path style="fill:none;stroke:red;stroke-width:1px;stroke-linecap:butt;stroke-linejoin:miter;stroke-opacity:1" d="M 983.379,888.723 983.379,876.102 z" id="boundary" inkscape:connector-curvature="0" />
	<path style="fill:none;stroke:red;stroke-width:1px;stroke-linecap:butt;stroke-linejoin:miter;stroke-opacity:1" d="M 989.69,900.081 983.379,888.723 z" id="boundary" inkscape:connector-curvature="0" />
	<path style="fill:none;stroke:red;stroke-width:1px;stroke-linecap:butt;stroke-linejoin:miter;stroke-opacity:1" d="M 996,911.44 996,924.061 z" id="boundary" inkscape:connector-curvature="0" />
	<path style="fill:none;stroke:red;stroke-width:1px;stroke-linecap:butt;stroke-linejoin:miter;stroke-opacity:1" d="M 996,911.44 989.69,900.081 z" id="boundary" inkscape:connector-curvature="0" />
	<path style="fill:none;stroke:red;stroke-width:1px;stroke-linecap:butt;stroke-linejoin:miter;stroke-opacity:1" d="M 970.758,964.448 958.137,964.448 z" id="boundary" inkscape:connector-curvature="0" />
	<path style="fill:none;stroke:red;stroke-width:1px;stroke-linecap:butt;stroke-linejoin:miter;stroke-opacity:1" d="M 946.779,958.137 958.137,964.448 z" id="boundary" inkscape:connector-curvature="0" />
	<path style="fill:none;stroke:red;stroke-width:1px;stroke-linecap:butt;stroke-linejoin:miter;stroke-opacity:1" d="M 996,936.682 993.476,955.613 z" id="boundary" inkscape:connector-curvature="0" />
	<path style="fill:none;stroke:red;stroke-width:1px;stroke-linecap:butt;stroke-linejoin:miter;stroke-opacity:1" d="M 983.379,964.448 970.758,964.448 z" id="boundary" inkscape:connector-curvature="0" />
	<path style="fill:none;stroke:red;stroke-width:1px;stroke-linecap:butt;stroke-linejoin:miter;stroke-opacity:1" d="M 993.476,955.613 983.379,964.448 z" id="boundary" inkscape:connector-curvature="0" />
	<path style="fill:none;stroke:red;stroke-width:1px;stroke-linecap:butt;stroke-linejoin:miter;stroke-opacity:1" d="M 996,936.682 996,924.061 z" id="boundary" inkscape:connector-curvature="0" />
	<circle cx="4" cy="51.9593" r="4" fill="#0" id="circle0"/>
	<circle cx="10.3104" cy="39.3384" r="4" fill="#0" id="circle1"/>
	<circle cx="10.3104" cy="63.3181" r="4" fill="#0" id="circle2"/>
	<circle cx="10.3104" cy="75.9389" r="4" fill="#0" id="circle3"/>
	<circle cx="16.6209" cy="87.2977" r="4" fill="#0" id="circle4"/>
	<circle cx="20.4071" cy="29.2417" r="4" fill="#0" id="circle5"/>
	<circle cx="22.9313" cy="98.6565" r="4" fill="#0" id="circle6"/>
	<circle cx="29.2417" cy="110.015" r="4" fill="#0" id="circle7"/>
	<circle cx="30.5038" cy="19.145" r="4" fill="#0" id="circle8"/>
	<circle cx="30.5038" cy="122.636" r="4" fill="#0" id="circle9"/>
	<circle cx="36.8142" cy="133.995" r="4" fill="#0" id="circle10"/>
	<circle cx="40.6005" cy="10.3104" r="4" fill="#0" id="circle11"/>
	<circle cx="45.6489" cy="144.092" r="4" fill="#0" id="circle12"/>
	<circle cx="51.9593" cy="4" r="4" fill="#0" id="circle13"/>
	<circle cx="57.0076" cy="150.402" r="4" fill="#0" id="circle14"/>
	<circle cx="63.3181" cy="161.761" r="4" fill="#0" id="circle15"/>
	<circle cx="64.5802" cy="4" r="4" fill="#0" id="circle16"/>
	<circle cx="69.6285" cy="173.12" r="4" fill="#0" id="circle17"/>
	<circle cx="77.201" cy="4" r="4" fill="#0" id="circle18"/>
	<circle cx="79.7252" cy="181.954" r="4" fill="#0" id="circle19"/>
	<circle cx="87.2977" cy="192.051" r="4" fill="#0" id="circle20"/>
	<circle cx="89.8219" cy="4" r="4" fill="#0" id="circle21"/>
	<circle cx="97.3944" cy="200.885" r="4" fill="#0" id="circle22"/>
	<circle cx="101.181" cy="10.3104" r="4" fill="#0" id="circle23"/>
	<circle cx="106.229" cy="210.982" r="4" fill="#0" id="circle24"/>
	<circle cx="113.802" cy="10.3104" r="4" fill="#0" id="circle25"/>
	<circle cx="116.326" cy="219.817" r="4" fill="#0" id="circle26"/>
	<circle cx="125.16" cy="229.913" r="4" fill="#0" id="circle27"/>
	<circle cx="126.422" cy="10.3104" r="4" fill="#0" id="circle28"/>
	<circle cx="135.257" cy="238.748" r="4" fill="#0" id="circle29"/>
	<circle cx="137.781" cy="16.6209" r="4" fill="#0" id="circle30"/>
	<circle cx="144.092" cy="248.845" r="4" fill="#0" id="circle31"/>
	<circle cx="149.14" cy="261.466" r="4" fill="#0" id="circle32"/>
	<circle cx="149.14" cy="274.087" r="4" fill="#0" id="circle33"/>
	<circle cx="150.402" cy="20.4071" r="4" fill="#0" id="circle34"/>
	<circle cx="155.45" cy="285.445" r="4" fill="#0" id="circle35"/>
	<circle cx="159.237" cy="30.5038" r="4" fill="#0" id="circle36"/>
	<circle cx="165.547" cy="41.8626" r="4" fill="#0" id="circle37"/>
	<circle cx="165.547" cy="294.28" r="4" fill="#0" id="circle38"/>
	<circle cx="174.382" cy="51.9593" r="4" fill="#0" id="circle39"/>
	<circle cx="174.382" cy="304.377" r="4" fill="#0" id="circle40"/>
	<circle cx="180.692" cy="315.735" r="4" fill="#0" id="circle41"/>
	<circle cx="187.003" cy="57.0076" r="4" fill="#0" id="circle42"/>
	<circle cx="187.003" cy="327.094" r="4" fill="#0" id="circle43"/>
	<circle cx="194.575" cy="67.1043" r="4" fill="#0" id="circle44"/>
	<circle cx="194.575" cy="337.191" r="4" fill="#0" id="circle45"/>
	<circle cx="200.885" cy="348.55" r="4" fill="#0" id="circle46"/>
	<circle cx="207.196" cy="70.8906" r="4" fill="#0" id="circle47"/>
	<circle cx="209.72" cy="358.646" r="4" fill="#0" id="circle48"/>
	<circle cx="216.031" cy="80.9873" r="4" fill="#0" id="circle49"/>
	<circle cx="219.817" cy="367.481" r="4" fill="#0" id="circle50"/>
	<circle cx="226.127" cy="89.8219" r="4" fill="#0" id="circle51"/>
	<circle cx="228.651" cy="377.578" r="4" fill="#0" id="circle52"/>
	<circle cx="236.224" cy="98.6565" r="4" fill="#0" id="circle53"/>
	<circle cx="238.748" cy="386.412" r="4" fill="#0" id="circle54"/>
	<circle cx="247.583" cy="104.967" r="4" fill="#0" id="circle55"/>
	<circle cx="247.583" cy="396.509" r="4" fill="#0" id="circle56"/>
	<circle cx="257.679" cy="112.539" r="4" fill="#0" id="circle57"/>
	<circle cx="257.679" cy="405.344" r="4" fill="#0" id="circle58"/>
	<circle cx="263.99" cy="377.578" r="4" fill="#0" id="circle59"/>
	<circle cx="263.99" cy="390.198" r="4" fill="#0" id="circle60"/>
	<circle cx="267.776" cy="120.112" r="4" fill="#0" id="circle61"/>
	<circle cx="274.087" cy="131.471" r="4" fill="#0" id="circle62"/>
	<circle cx="276.611" cy="380.102" r="4" fill="#0" id="circle63"/>
	<circle cx="282.921" cy="141.567" r="4" fill="#0" id="circle64"/>
	<circle cx="285.445" cy="390.198" r="4" fill="#0" id="circle65"/>
	<circle cx="293.018" cy="149.14" r="4" fill="#0" id="circle66"/>
	<circle cx="296.804" cy="396.509" r="4" fill="#0" id="circle67"/>
	<circle cx="301.852" cy="159.237" r="4" fill="#0" id="circle68"/>
	<circle cx="306.901" cy="404.081" r="4" fill="#0" id="circle69"/>
	<circle cx="313.211" cy="165.547" r="4" fill="#0" id="circle70"/>
	<circle cx="319.522" cy="409.13" r="4" fill="#0" id="circle71"/>
	<circle cx="323.308" cy="174.382" r="4" fill="#0" id="circle72"/>
	<circle cx="323.308" cy="421.751" r="4" fill="#0" id="circle73"/>
	<circle cx="332.142" cy="184.478" r="4" fill="#0" id="circle74"/>
	<circle cx="333.405" cy="430.585" r="4" fill="#0" id="circle75"/>
	<circle cx="342.239" cy="193.313" r="4" fill="#0" id="circle76"/>
	<circle cx="342.239" cy="440.682" r="4" fill="#0" id="circle77"/>
	<circle cx="352.336" cy="449.517" r="4" fill="#0" id="circle78"/>
	<circle cx="354.86" cy="187.003" r="4" fill="#0" id="circle79"/>
	<circle cx="361.17" cy="459.613" r="4" fill="#0" id="circle80"/>
	<circle cx="367.481" cy="187.003" r="4" fill="#0" id="circle81"/>
	<circle cx="371.267" cy="468.448" r="4" fill="#0" id="circle82"/>
	<circle cx="380.102" cy="180.692" r="4" fill="#0" id="circle83"/>
	<circle cx="380.102" cy="478.545" r="4" fill="#0" id="circle84"/>
	<circle cx="382.626" cy="512.621" r="4" fill="#0" id="circle85"/>
	<circle cx="382.626" cy="525.242" r="4" fill="#0" id="circle86"/>
	<circle cx="386.412" cy="489.903" r="4" fill="#0" id="circle87"/>
	<circle cx="388.936" cy="536.601" r="4" fill="#0" id="circle88"/>
	<circle cx="392.723" cy="180.692" r="4" fill="#0" id="circle89"/>
	<circle cx="395.247" cy="547.959" r="4" fill="#0" id="circle90"/>
	<circle cx="395.247" cy="560.58" r="4" fill="#0" id="circle91"/>
	<circle cx="399.033" cy="573.201" r="4" fill="#0" id="circle92"/>
	<circle cx="405.344" cy="174.382" r="4" fill="#0" id="circle93"/>
	<circle cx="405.344" cy="584.56" r="4" fill="#0" id="circle94"/>
	<circle cx="410.392" cy="597.181" r="4" fill="#0" id="circle95"/>
	<circle cx="417.964" cy="174.382" r="4" fill="#0" id="circle96"/>
	<circle cx="420.489" cy="604.753" r="4" fill="#0" id="circle97"/>
	<circle cx="428.061" cy="614.85" r="4" fill="#0" id="circle98"/>
	<circle cx="430.585" cy="174.382" r="4" fill="#0" id="circle99"/>
	<circle cx="438.158" cy="623.684" r="4" fill="#0" id="circle100"/>
	<circle cx="441.944" cy="180.692" r="4" fill="#0" id="circle101"/>
	<circle cx="446.992" cy="633.781" r="4" fill="#0" id="circle102"/>
	<circle cx="454.565" cy="180.692" r="4" fill="#0" id="circle103"/>
	<circle cx="457.089" cy="642.616" r="4" fill="#0" id="circle104"/>
	<circle cx="465.924" cy="314.473" r="4" fill="#0" id="circle105"/>
	<circle cx="465.924" cy="652.712" r="4" fill="#0" id="circle106"/>
	<circle cx="467.186" cy="180.692" r="4" fill="#0" id="circle107"/>
	<circle cx="468.448" cy="327.094" r="4" fill="#0" id="circle108"/>
	<circle cx="476.02" cy="305.639" r="4" fill="#0" id="circle109"/>
	<circle cx="478.545" cy="187.003" r="4" fill="#0" id="circle110"/>
	<circle cx="478.545" cy="657.761" r="4" fill="#0" id="circle111"/>
	<circle cx="481.069" cy="332.142" r="4" fill="#0" id="circle112"/>
	<circle cx="484.855" cy="295.542" r="4" fill="#0" id="circle113"/>
	<circle cx="489.903" cy="664.071" r="4" fill="#0" id="circle114"/>
	<circle cx="491.165" cy="187.003" r="4" fill="#0" id="circle115"/>
	<circle cx="493.69" cy="332.142" r="4" fill="#0" id="circle116"/>
	<circle cx="494.952" cy="286.707" r="4" fill="#0" id="circle117"/>
	<circle cx="500" cy="672.906" r="4" fill="#0" id="circle118"/>
	<circle cx="501.262" cy="194.575" r="4" fill="#0" id="circle119"/>
	<circle cx="503.786" cy="263.99" r="4" fill="#0" id="circle120"/>
	<circle cx="503.786" cy="276.611" r="4" fill="#0" id="circle121"/>
	<circle cx="506.31" cy="332.142" r="4" fill="#0" id="circle122"/>
	<circle cx="510.097" cy="204.672" r="4" fill="#0" id="circle123"/>
	<circle cx="510.097" cy="680.478" r="4" fill="#0" id="circle124"/>
	<circle cx="513.883" cy="255.155" r="4" fill="#0" id="circle125"/>
	<circle cx="516.407" cy="232.438" r="4" fill="#0" id="circle126"/>
	<circle cx="518.931" cy="332.142" r="4" fill="#0" id="circle127"/>
	<circle cx="520.193" cy="213.506" r="4" fill="#0" id="circle128"/>
	<circle cx="521.455" cy="686.789" r="4" fill="#0" id="circle129"/>
	<circle cx="531.552" cy="332.142" r="4" fill="#0" id="circle130"/>
	<circle cx="532.814" cy="693.099" r="4" fill="#0" id="circle131"/>
	<circle cx="544.173" cy="332.142" r="4" fill="#0" id="circle132"/>
	<circle cx="544.173" cy="699.41" r="4" fill="#0" id="circle133"/>
	<circle cx="550.483" cy="710.768" r="4" fill="#0" id="circle134"/>
	<circle cx="556.794" cy="325.832" r="4" fill="#0" id="circle135"/>
	<circle cx="561.842" cy="717.079" r="4" fill="#0" id="circle136"/>
	<circle cx="568.153" cy="332.142" r="4" fill="#0" id="circle137"/>
	<circle cx="574.463" cy="722.127" r="4" fill="#0" id="circle138"/>
	<circle cx="579.511" cy="338.453" r="4" fill="#0" id="circle139"/>
	<circle cx="584.56" cy="730.962" r="4" fill="#0" id="circle140"/>
	<circle cx="592.132" cy="342.239" r="4" fill="#0" id="circle141"/>
	<circle cx="595.919" cy="737.272" r="4" fill="#0" id="circle142"/>
	<circle cx="603.491" cy="348.55" r="4" fill="#0" id="circle143"/>
	<circle cx="607.277" cy="743.583" r="4" fill="#0" id="circle144"/>
	<circle cx="613.588" cy="357.384" r="4" fill="#0" id="circle145"/>
	<circle cx="618.636" cy="749.893" r="4" fill="#0" id="circle146"/>
	<circle cx="622.422" cy="367.481" r="4" fill="#0" id="circle147"/>
	<circle cx="631.257" cy="749.893" r="4" fill="#0" id="circle148"/>
	<circle cx="632.519" cy="376.316" r="4" fill="#0" id="circle149"/>
	<circle cx="636.305" cy="693.099" r="4" fill="#0" id="circle150"/>
	<circle cx="636.305" cy="705.72" r="4" fill="#0" id="circle151"/>
	<circle cx="642.616" cy="717.079" r="4" fill="#0" id="circle152"/>
	<circle cx="642.616" cy="743.583" r="4" fill="#0" id="circle153"/>
	<circle cx="643.878" cy="382.626" r="4" fill="#0" id="circle154"/>
	<circle cx="648.926" cy="693.099" r="4" fill="#0" id="circle155"/>
	<circle cx="648.926" cy="728.438" r="4" fill="#0" id="circle156"/>
	<circle cx="653.975" cy="391.461" r="4" fill="#0" id="circle157"/>
	<circle cx="660.285" cy="699.41" r="4" fill="#0" id="circle158"/>
	<circle cx="661.547" cy="401.557" r="4" fill="#0" id="circle159"/>
	<circle cx="667.858" cy="709.506" r="4" fill="#0" id="circle160"/>
	<circle cx="671.644" cy="409.13" r="4" fill="#0" id="circle161"/>
	<circle cx="677.954" cy="718.341" r="4" fill="#0" id="circle162"/>
	<circle cx="680.478" cy="419.226" r="4" fill="#0" id="circle163"/>
	<circle cx="686.789" cy="430.585" r="4" fill="#0" id="circle164"/>
	<circle cx="686.789" cy="728.438" r="4" fill="#0" id="circle165"/>
	<circle cx="693.099" cy="598.443" r="4" fill="#0" id="circle166"/>
	<circle cx="695.623" cy="440.682" r="4" fill="#0" id="circle167"/>
	<circle cx="696.885" cy="737.272" r="4" fill="#0" id="circle168"/>
	<circle cx="699.41" cy="609.802" r="4" fill="#0" id="circle169"/>
	<circle cx="701.934" cy="452.041" r="4" fill="#0" id="circle170"/>
	<circle cx="704.458" cy="592.132" r="4" fill="#0" id="circle171"/>
	<circle cx="705.72" cy="621.16" r="4" fill="#0" id="circle172"/>
	<circle cx="705.72" cy="747.369" r="4" fill="#0" id="circle173"/>
	<circle cx="712.031" cy="632.519" r="4" fill="#0" id="circle174"/>
	<circle cx="713.293" cy="458.351" r="4" fill="#0" id="circle175"/>
	<circle cx="715.817" cy="756.204" r="4" fill="#0" id="circle176"/>
	<circle cx="717.079" cy="592.132" r="4" fill="#0" id="circle177"/>
	<circle cx="723.389" cy="467.186" r="4" fill="#0" id="circle178"/>
	<circle cx="723.389" cy="638.83" r="4" fill="#0" id="circle179"/>
	<circle cx="724.651" cy="766.3" r="4" fill="#0" id="circle180"/>
	<circle cx="728.438" cy="479.807" r="4" fill="#0" id="circle181"/>
	<circle cx="728.438" cy="598.443" r="4" fill="#0" id="circle182"/>
	<circle cx="730.962" cy="777.659" r="4" fill="#0" id="circle183"/>
	<circle cx="733.486" cy="647.664" r="4" fill="#0" id="circle184"/>
	<circle cx="734.748" cy="491.165" r="4" fill="#0" id="circle185"/>
	<circle cx="736.01" cy="790.28" r="4" fill="#0" id="circle186"/>
	<circle cx="741.059" cy="598.443" r="4" fill="#0" id="circle187"/>
	<circle cx="742.321" cy="657.761" r="4" fill="#0" id="circle188"/>
	<circle cx="743.583" cy="501.262" r="4" fill="#0" id="circle189"/>
	<circle cx="746.107" cy="799.115" r="4" fill="#0" id="circle190"/>
	<circle cx="751.155" cy="811.735" r="4" fill="#0" id="circle191"/>
	<circle cx="752.417" cy="604.753" r="4" fill="#0" id="circle192"/>
	<circle cx="753.679" cy="510.097" r="4" fill="#0" id="circle193"/>
	<circle cx="754.941" cy="662.809" r="4" fill="#0" id="circle194"/>
	<circle cx="758.728" cy="522.718" r="4" fill="#0" id="circle195"/>
	<circle cx="761.252" cy="819.308" r="4" fill="#0" id="circle196"/>
	<circle cx="762.514" cy="672.906" r="4" fill="#0" id="circle197"/>
	<circle cx="763.776" cy="611.064" r="4" fill="#0" id="circle198"/>
	<circle cx="765.038" cy="831.929" r="4" fill="#0" id="circle199"/>
	<circle cx="768.824" cy="531.552" r="4" fill="#0" id="circle200"/>
	<circle cx="772.611" cy="680.478" r="4" fill="#0" id="circle201"/>
	<circle cx="773.873" cy="544.173" r="4" fill="#0" id="circle202"/>
	<circle cx="773.873" cy="842.025" r="4" fill="#0" id="circle203"/>
	<circle cx="776.397" cy="611.064" r="4" fill="#0" id="circle204"/>
	<circle cx="780.183" cy="853.384" r="4" fill="#0" id="circle205"/>
	<circle cx="781.445" cy="554.27" r="4" fill="#0" id="circle206"/>
	<circle cx="783.969" cy="686.789" r="4" fill="#0" id="circle207"/>
	<circle cx="786.494" cy="600.967" r="4" fill="#0" id="circle208"/>
	<circle cx="786.494" cy="864.743" r="4" fill="#0" id="circle209"/>
	<circle cx="787.756" cy="565.628" r="4" fill="#0" id="circle210"/>
	<circle cx="787.756" cy="578.249" r="4" fill="#0" id="circle211"/>
	<circle cx="794.066" cy="589.608" r="4" fill="#0" id="circle212"/>
	<circle cx="794.066" cy="695.623" r="4" fill="#0" id="circle213"/>
	<circle cx="795.328" cy="874.84" r="4" fill="#0" id="circle214"/>
	<circle cx="805.425" cy="701.934" r="4" fill="#0" id="circle215"/>
	<circle cx="805.425" cy="882.412" r="4" fill="#0" id="circle216"/>
	<circle cx="812.997" cy="892.509" r="4" fill="#0" id="circle217"/>
	<circle cx="818.046" cy="704.458" r="4" fill="#0" id="circle218"/>
	<circle cx="823.094" cy="901.344" r="4" fill="#0" id="circle219"/>
	<circle cx="829.405" cy="710.768" r="4" fill="#0" id="circle220"/>
	<circle cx="831.929" cy="911.44" r="4" fill="#0" id="circle221"/>
	<circle cx="840.763" cy="717.079" r="4" fill="#0" id="circle222"/>
	<circle cx="842.025" cy="920.275" r="4" fill="#0" id="circle223"/>
	<circle cx="850.86" cy="930.372" r="4" fill="#0" id="circle224"/>
	<circle cx="852.122" cy="723.389" r="4" fill="#0" id="circle225"/>
	<circle cx="860.957" cy="939.206" r="4" fill="#0" id="circle226"/>
	<circle cx="862.219" cy="732.224" r="4" fill="#0" id="circle227"/>
	<circle cx="872.316" cy="945.517" r="4" fill="#0" id="circle228"/>
	<circle cx="873.578" cy="738.534" r="4" fill="#0" id="circle229"/>
	<circle cx="882.412" cy="748.631" r="4" fill="#0" id="circle230"/>
	<circle cx="884.936" cy="945.517" r="4" fill="#0" id="circle231"/>
	<circle cx="892.509" cy="756.204" r="4" fill="#0" id="circle232"/>
	<circle cx="896.295" cy="951.827" r="4" fill="#0" id="circle233"/>
	<circle cx="901.344" cy="766.3" r="4" fill="#0" id="circle234"/>
	<circle cx="908.916" cy="955.613" r="4" fill="#0" id="circle235"/>
	<circle cx="911.44" cy="775.135" r="4" fill="#0" id="circle236"/>
	<circle cx="921.537" cy="958.137" r="4" fill="#0" id="circle237"/>
	<circle cx="922.799" cy="781.445" r="4" fill="#0" id="circle238"/>
	<circle cx="934.158" cy="958.137" r="4" fill="#0" id="circle239"/>
	<circle cx="935.42" cy="786.494" r="4" fill="#0" id="circle240"/>
	<circle cx="939.206" cy="799.115" r="4" fill="#0" id="circle241"/>
	<circle cx="945.517" cy="810.473" r="4" fill="#0" id="circle242"/>
	<circle cx="946.779" cy="958.137" r="4" fill="#0" id="circle243"/>
	<circle cx="955.613" cy="819.308" r="4" fill="#0" id="circle244"/>
	<circle cx="958.137" cy="964.448" r="4" fill="#0" id="circle245"/>
	<circle cx="964.448" cy="829.405" r="4" fill="#0" id="circle246"/>
	<circle cx="970.758" cy="840.763" r="4" fill="#0" id="circle247"/>
	<circle cx="970.758" cy="964.448" r="4" fill="#0" id="circle248"/>
	<circle cx="977.069" cy="852.122" r="4" fill="#0" id="circle249"/>
	<circle cx="977.069" cy="864.743" r="4" fill="#0" id="circle250"/>
	<circle cx="983.379" cy="876.102" r="4" fill="#0" id="circle251"/>
	<circle cx="983.379" cy="888.723" r="4" fill="#0" id="circle252"/>
	<circle cx="983.379" cy="964.448" r="4" fill="#0" id="circle253"/>
	<circle cx="989.69" cy="900.081" r="4" fill="#0" id="circle254"/>
	<circle cx="993.476" cy="955.613" r="4" fill="#0" id="circle255"/>
	<circle cx="996" cy="911.44" r="4" fill="#0" id="circle256"/>
	<circle cx="996" cy="924.061" r="4" fill="#0" id="circle257"/>
	<circle cx="996" cy="936.682" r="4" fill="#0" id="circle258"/>
	</g>
</svg>