<?xml version="1.0" encoding="UTF-8" standalone="no"?>
<!-- Created with CurveBenchmark -->
<svg
	xmlns:dc="http://purl.org/dc/elements/1.1/"
	xmlns:cc="http://creativecommons.org/ns#"
	xmlns:rdf="http://www.w3.org/1999/02/22-rdf-syntax-ns#"
	xmlns:svg="http://www.w3.org/2000/svg"
	xmlns="http://www.w3.org/2000/svg"
	xmlns:sodipodi="http://sodipodi.sourceforge.net/DTD/sodipodi-0.dtd"
	xmlns:inkscape="http://www.inkscape.org/namespaces/inkscape"
	width="1000"
	height="1000"
	id="svg2"
	version="1.1"
	sodipodi:docname="manifold/crust-ray18.png.txt">
<defs
	id="defs4" />
<metadata
	id="metadata7">
	<rdf:RDF>
		<cc:Work
			rdf:about="">
			<dc:format>image/svg+xml</dc:format>
			<dc:type
				rdf:resource="http://purl.org/dc/dcmitype/StillImage" />
			<dc:title></dc:title>
		</cc:Work>
	</rdf:RDF>
</metadata>
<g
	inkscape:label="Layer 1"
	inkscape:groupmode="layer"
	id="layer1">
	<path style="fill:none;stroke:red;stroke-width:1px;stroke-linecap:butt;stroke-linejoin:miter;stroke-opacity:1" d="M 53.9674,275.881 42.2104,286.169 z" id="boundary" inkscape:connector-curvature="0" />
	<path style="fill:none;stroke:red;stroke-width:1px;stroke-linecap:butt;stroke-linejoin:miter;stroke-opacity:1" d="M 30.4533,297.926 42.2104,286.169 z" id="boundary" inkscape:connector-curvature="0" />
	<path style="fill:none;stroke:red;stroke-width:1px;stroke-linecap:butt;stroke-linejoin:miter;stroke-opacity:1" d="M 30.4533,297.926 18.6963,309.683 z" id="boundary" inkscape:connector-curvature="0" />
	<path style="fill:none;stroke:red;stroke-width:1px;stroke-linecap:butt;stroke-linejoin:miter;stroke-opacity:1" d="M 134.797,202.4 123.04,212.687 z" id="boundary" inkscape:connector-curvature="0" />
	<path style="fill:none;stroke:red;stroke-width:1px;stroke-linecap:butt;stroke-linejoin:miter;stroke-opacity:1" d="M 148.024,195.052 134.797,202.4 z" id="boundary" inkscape:connector-curvature="0" />
	<path style="fill:none;stroke:red;stroke-width:1px;stroke-linecap:butt;stroke-linejoin:miter;stroke-opacity:1" d="M 173.007,177.416 161.25,187.704 z" id="boundary" inkscape:connector-curvature="0" />
	<path style="fill:none;stroke:red;stroke-width:1px;stroke-linecap:butt;stroke-linejoin:miter;stroke-opacity:1" d="M 161.25,187.704 148.024,195.052 z" id="boundary" inkscape:connector-curvature="0" />
	<path style="fill:none;stroke:red;stroke-width:1px;stroke-linecap:butt;stroke-linejoin:miter;stroke-opacity:1" d="M 187.704,170.068 173.007,177.416 z" id="boundary" inkscape:connector-curvature="0" />
	<path style="fill:none;stroke:red;stroke-width:1px;stroke-linecap:butt;stroke-linejoin:miter;stroke-opacity:1" d="M 67.1941,268.533 78.9511,256.776 z" id="boundary" inkscape:connector-curvature="0" />
	<path style="fill:none;stroke:red;stroke-width:1px;stroke-linecap:butt;stroke-linejoin:miter;stroke-opacity:1" d="M 90.7081,246.489 78.9511,256.776 z" id="boundary" inkscape:connector-curvature="0" />
	<path style="fill:none;stroke:red;stroke-width:1px;stroke-linecap:butt;stroke-linejoin:miter;stroke-opacity:1" d="M 53.9674,275.881 67.1941,268.533 z" id="boundary" inkscape:connector-curvature="0" />
	<path style="fill:none;stroke:red;stroke-width:1px;stroke-linecap:butt;stroke-linejoin:miter;stroke-opacity:1" d="M 112.753,224.444 123.04,212.687 z" id="boundary" inkscape:connector-curvature="0" />
	<path style="fill:none;stroke:red;stroke-width:1px;stroke-linecap:butt;stroke-linejoin:miter;stroke-opacity:1" d="M 112.753,224.444 100.996,234.732 z" id="boundary" inkscape:connector-curvature="0" />
	<path style="fill:none;stroke:red;stroke-width:1px;stroke-linecap:butt;stroke-linejoin:miter;stroke-opacity:1" d="M 90.7081,246.489 100.996,234.732 z" id="boundary" inkscape:connector-curvature="0" />
	<path style="fill:none;stroke:red;stroke-width:1px;stroke-linecap:butt;stroke-linejoin:miter;stroke-opacity:1" d="M 4,353.772 4,339.076 z" id="boundary" inkscape:connector-curvature="0" />
	<path style="fill:none;stroke:red;stroke-width:1px;stroke-linecap:butt;stroke-linejoin:miter;stroke-opacity:1" d="M 11.3481,324.379 4,339.076 z" id="boundary" inkscape:connector-curvature="0" />
	<path style="fill:none;stroke:red;stroke-width:1px;stroke-linecap:butt;stroke-linejoin:miter;stroke-opacity:1" d="M 4,353.772 4,368.468 z" id="boundary" inkscape:connector-curvature="0" />
	<path style="fill:none;stroke:red;stroke-width:1px;stroke-linecap:butt;stroke-linejoin:miter;stroke-opacity:1" d="M 11.3481,324.379 18.6963,309.683 z" id="boundary" inkscape:connector-curvature="0" />
	<path style="fill:none;stroke:red;stroke-width:1px;stroke-linecap:butt;stroke-linejoin:miter;stroke-opacity:1" d="M 11.3481,381.695 4,368.468 z" id="boundary" inkscape:connector-curvature="0" />
	<path style="fill:none;stroke:red;stroke-width:1px;stroke-linecap:butt;stroke-linejoin:miter;stroke-opacity:1" d="M 11.3481,381.695 11.3481,396.391 z" id="boundary" inkscape:connector-curvature="0" />
	<path style="fill:none;stroke:red;stroke-width:1px;stroke-linecap:butt;stroke-linejoin:miter;stroke-opacity:1" d="M 11.3481,396.391 18.6963,409.618 z" id="boundary" inkscape:connector-curvature="0" />
	<path style="fill:none;stroke:red;stroke-width:1px;stroke-linecap:butt;stroke-linejoin:miter;stroke-opacity:1" d="M 39.2711,431.662 27.5141,421.375 z" id="boundary" inkscape:connector-curvature="0" />
	<path style="fill:none;stroke:red;stroke-width:1px;stroke-linecap:butt;stroke-linejoin:miter;stroke-opacity:1" d="M 27.5141,421.375 18.6963,409.618 z" id="boundary" inkscape:connector-curvature="0" />
	<path style="fill:none;stroke:red;stroke-width:1px;stroke-linecap:butt;stroke-linejoin:miter;stroke-opacity:1" d="M 49.5585,443.419 39.2711,431.662 z" id="boundary" inkscape:connector-curvature="0" />
	<path style="fill:none;stroke:red;stroke-width:1px;stroke-linecap:butt;stroke-linejoin:miter;stroke-opacity:1" d="M 61.3156,453.707 49.5585,443.419 z" id="boundary" inkscape:connector-curvature="0" />
	<path style="fill:none;stroke:red;stroke-width:1px;stroke-linecap:butt;stroke-linejoin:miter;stroke-opacity:1" d="M 325.849,70.1333 336.136,58.3763 z" id="boundary" inkscape:connector-curvature="0" />
	<path style="fill:none;stroke:red;stroke-width:1px;stroke-linecap:butt;stroke-linejoin:miter;stroke-opacity:1" d="M 347.893,48.0889 336.136,58.3763 z" id="boundary" inkscape:connector-curvature="0" />
	<path style="fill:none;stroke:red;stroke-width:1px;stroke-linecap:butt;stroke-linejoin:miter;stroke-opacity:1" d="M 303.804,92.1778 314.092,80.4207 z" id="boundary" inkscape:connector-curvature="0" />
	<path style="fill:none;stroke:red;stroke-width:1px;stroke-linecap:butt;stroke-linejoin:miter;stroke-opacity:1" d="M 325.849,70.1333 314.092,80.4207 z" id="boundary" inkscape:connector-curvature="0" />
	<path style="fill:none;stroke:red;stroke-width:1px;stroke-linecap:butt;stroke-linejoin:miter;stroke-opacity:1" d="M 358.181,36.3319 347.893,48.0889 z" id="boundary" inkscape:connector-curvature="0" />
	<path style="fill:none;stroke:red;stroke-width:1px;stroke-linecap:butt;stroke-linejoin:miter;stroke-opacity:1" d="M 267.064,121.57 255.307,131.858 z" id="boundary" inkscape:connector-curvature="0" />
	<path style="fill:none;stroke:red;stroke-width:1px;stroke-linecap:butt;stroke-linejoin:miter;stroke-opacity:1" d="M 245.019,143.615 255.307,131.858 z" id="boundary" inkscape:connector-curvature="0" />
	<path style="fill:none;stroke:red;stroke-width:1px;stroke-linecap:butt;stroke-linejoin:miter;stroke-opacity:1" d="M 245.019,143.615 231.793,150.963 z" id="boundary" inkscape:connector-curvature="0" />
	<path style="fill:none;stroke:red;stroke-width:1px;stroke-linecap:butt;stroke-linejoin:miter;stroke-opacity:1" d="M 280.29,114.222 292.047,102.465 z" id="boundary" inkscape:connector-curvature="0" />
	<path style="fill:none;stroke:red;stroke-width:1px;stroke-linecap:butt;stroke-linejoin:miter;stroke-opacity:1" d="M 280.29,114.222 267.064,121.57 z" id="boundary" inkscape:connector-curvature="0" />
	<path style="fill:none;stroke:red;stroke-width:1px;stroke-linecap:butt;stroke-linejoin:miter;stroke-opacity:1" d="M 292.047,102.465 303.804,92.1778 z" id="boundary" inkscape:connector-curvature="0" />
	<path style="fill:none;stroke:red;stroke-width:1px;stroke-linecap:butt;stroke-linejoin:miter;stroke-opacity:1" d="M 369.938,26.0444 383.164,18.6963 z" id="boundary" inkscape:connector-curvature="0" />
	<path style="fill:none;stroke:red;stroke-width:1px;stroke-linecap:butt;stroke-linejoin:miter;stroke-opacity:1" d="M 396.391,11.3481 383.164,18.6963 z" id="boundary" inkscape:connector-curvature="0" />
	<path style="fill:none;stroke:red;stroke-width:1px;stroke-linecap:butt;stroke-linejoin:miter;stroke-opacity:1" d="M 358.181,36.3319 369.938,26.0444 z" id="boundary" inkscape:connector-curvature="0" />
	<path style="fill:none;stroke:red;stroke-width:1px;stroke-linecap:butt;stroke-linejoin:miter;stroke-opacity:1" d="M 409.618,4 424.314,4 z" id="boundary" inkscape:connector-curvature="0" />
	<path style="fill:none;stroke:red;stroke-width:1px;stroke-linecap:butt;stroke-linejoin:miter;stroke-opacity:1" d="M 396.391,11.3481 409.618,4 z" id="boundary" inkscape:connector-curvature="0" />
	<path style="fill:none;stroke:red;stroke-width:1px;stroke-linecap:butt;stroke-linejoin:miter;stroke-opacity:1" d="M 187.704,170.068 202.4,162.72 z" id="boundary" inkscape:connector-curvature="0" />
	<path style="fill:none;stroke:red;stroke-width:1px;stroke-linecap:butt;stroke-linejoin:miter;stroke-opacity:1" d="M 202.4,162.72 217.096,155.372 z" id="boundary" inkscape:connector-curvature="0" />
	<path style="fill:none;stroke:red;stroke-width:1px;stroke-linecap:butt;stroke-linejoin:miter;stroke-opacity:1" d="M 231.793,150.963 217.096,155.372 z" id="boundary" inkscape:connector-curvature="0" />
	<path style="fill:none;stroke:red;stroke-width:1px;stroke-linecap:butt;stroke-linejoin:miter;stroke-opacity:1" d="M 424.314,4 439.01,8.40889 z" id="boundary" inkscape:connector-curvature="0" />
	<path style="fill:none;stroke:red;stroke-width:1px;stroke-linecap:butt;stroke-linejoin:miter;stroke-opacity:1" d="M 83.36,475.751 71.603,465.464 z" id="boundary" inkscape:connector-curvature="0" />
	<path style="fill:none;stroke:red;stroke-width:1px;stroke-linecap:butt;stroke-linejoin:miter;stroke-opacity:1" d="M 61.3156,453.707 71.603,465.464 z" id="boundary" inkscape:connector-curvature="0" />
	<path style="fill:none;stroke:red;stroke-width:1px;stroke-linecap:butt;stroke-linejoin:miter;stroke-opacity:1" d="M 108.344,493.387 93.6474,487.508 z" id="boundary" inkscape:connector-curvature="0" />
	<path style="fill:none;stroke:red;stroke-width:1px;stroke-linecap:butt;stroke-linejoin:miter;stroke-opacity:1" d="M 93.6474,487.508 83.36,475.751 z" id="boundary" inkscape:connector-curvature="0" />
	<path style="fill:none;stroke:red;stroke-width:1px;stroke-linecap:butt;stroke-linejoin:miter;stroke-opacity:1" d="M 118.631,505.144 108.344,493.387 z" id="boundary" inkscape:connector-curvature="0" />
	<path style="fill:none;stroke:red;stroke-width:1px;stroke-linecap:butt;stroke-linejoin:miter;stroke-opacity:1" d="M 130.388,515.431 118.631,505.144 z" id="boundary" inkscape:connector-curvature="0" />
	<path style="fill:none;stroke:red;stroke-width:1px;stroke-linecap:butt;stroke-linejoin:miter;stroke-opacity:1" d="M 143.615,522.779 158.311,527.188 z" id="boundary" inkscape:connector-curvature="0" />
	<path style="fill:none;stroke:red;stroke-width:1px;stroke-linecap:butt;stroke-linejoin:miter;stroke-opacity:1" d="M 143.615,522.779 130.388,515.431 z" id="boundary" inkscape:connector-curvature="0" />
	<path style="fill:none;stroke:red;stroke-width:1px;stroke-linecap:butt;stroke-linejoin:miter;stroke-opacity:1" d="M 158.311,527.188 167.129,538.945 z" id="boundary" inkscape:connector-curvature="0" />
	<path style="fill:none;stroke:red;stroke-width:1px;stroke-linecap:butt;stroke-linejoin:miter;stroke-opacity:1" d="M 181.825,544.824 192.113,556.581 z" id="boundary" inkscape:connector-curvature="0" />
	<path style="fill:none;stroke:red;stroke-width:1px;stroke-linecap:butt;stroke-linejoin:miter;stroke-opacity:1" d="M 181.825,544.824 167.129,538.945 z" id="boundary" inkscape:connector-curvature="0" />
	<path style="fill:none;stroke:red;stroke-width:1px;stroke-linecap:butt;stroke-linejoin:miter;stroke-opacity:1" d="M 206.809,562.459 192.113,556.581 z" id="boundary" inkscape:connector-curvature="0" />
	<path style="fill:none;stroke:red;stroke-width:1px;stroke-linecap:butt;stroke-linejoin:miter;stroke-opacity:1" d="M 220.036,569.807 234.732,575.686 z" id="boundary" inkscape:connector-curvature="0" />
	<path style="fill:none;stroke:red;stroke-width:1px;stroke-linecap:butt;stroke-linejoin:miter;stroke-opacity:1" d="M 220.036,569.807 206.809,562.459 z" id="boundary" inkscape:connector-curvature="0" />
	<path style="fill:none;stroke:red;stroke-width:1px;stroke-linecap:butt;stroke-linejoin:miter;stroke-opacity:1" d="M 234.732,575.686 246.489,585.973 z" id="boundary" inkscape:connector-curvature="0" />
	<path style="fill:none;stroke:red;stroke-width:1px;stroke-linecap:butt;stroke-linejoin:miter;stroke-opacity:1" d="M 286.169,608.018 272.942,600.67 z" id="boundary" inkscape:connector-curvature="0" />
	<path style="fill:none;stroke:red;stroke-width:1px;stroke-linecap:butt;stroke-linejoin:miter;stroke-opacity:1" d="M 272.942,600.67 259.716,593.321 z" id="boundary" inkscape:connector-curvature="0" />
	<path style="fill:none;stroke:red;stroke-width:1px;stroke-linecap:butt;stroke-linejoin:miter;stroke-opacity:1" d="M 259.716,593.321 246.489,585.973 z" id="boundary" inkscape:connector-curvature="0" />
	<path style="fill:none;stroke:red;stroke-width:1px;stroke-linecap:butt;stroke-linejoin:miter;stroke-opacity:1" d="M 300.865,612.427 286.169,608.018 z" id="boundary" inkscape:connector-curvature="0" />
	<path style="fill:none;stroke:red;stroke-width:1px;stroke-linecap:butt;stroke-linejoin:miter;stroke-opacity:1" d="M 300.865,612.427 315.561,615.366 z" id="boundary" inkscape:connector-curvature="0" />
	<path style="fill:none;stroke:red;stroke-width:1px;stroke-linecap:butt;stroke-linejoin:miter;stroke-opacity:1" d="M 328.788,622.714 315.561,615.366 z" id="boundary" inkscape:connector-curvature="0" />
	<path style="fill:none;stroke:red;stroke-width:1px;stroke-linecap:butt;stroke-linejoin:miter;stroke-opacity:1" d="M 342.015,630.062 328.788,622.714 z" id="boundary" inkscape:connector-curvature="0" />
	<path style="fill:none;stroke:red;stroke-width:1px;stroke-linecap:butt;stroke-linejoin:miter;stroke-opacity:1" d="M 342.015,630.062 342.015,644.759 z" id="boundary" inkscape:connector-curvature="0" />
	<path style="fill:none;stroke:red;stroke-width:1px;stroke-linecap:butt;stroke-linejoin:miter;stroke-opacity:1" d="M 342.015,644.759 342.015,659.455 z" id="boundary" inkscape:connector-curvature="0" />
	<path style="fill:none;stroke:red;stroke-width:1px;stroke-linecap:butt;stroke-linejoin:miter;stroke-opacity:1" d="M 346.424,674.151 342.015,659.455 z" id="boundary" inkscape:connector-curvature="0" />
	<path style="fill:none;stroke:red;stroke-width:1px;stroke-linecap:butt;stroke-linejoin:miter;stroke-opacity:1" d="M 346.424,674.151 358.181,684.439 z" id="boundary" inkscape:connector-curvature="0" />
	<path style="fill:none;stroke:red;stroke-width:1px;stroke-linecap:butt;stroke-linejoin:miter;stroke-opacity:1" d="M 368.468,696.196 358.181,684.439 z" id="boundary" inkscape:connector-curvature="0" />
	<path style="fill:none;stroke:red;stroke-width:1px;stroke-linecap:butt;stroke-linejoin:miter;stroke-opacity:1" d="M 380.225,706.483 368.468,696.196 z" id="boundary" inkscape:connector-curvature="0" />
	<path style="fill:none;stroke:red;stroke-width:1px;stroke-linecap:butt;stroke-linejoin:miter;stroke-opacity:1" d="M 390.513,718.24 400.8,729.997 z" id="boundary" inkscape:connector-curvature="0" />
	<path style="fill:none;stroke:red;stroke-width:1px;stroke-linecap:butt;stroke-linejoin:miter;stroke-opacity:1" d="M 400.8,729.997 400.8,744.693 z" id="boundary" inkscape:connector-curvature="0" />
	<path style="fill:none;stroke:red;stroke-width:1px;stroke-linecap:butt;stroke-linejoin:miter;stroke-opacity:1" d="M 380.225,706.483 390.513,718.24 z" id="boundary" inkscape:connector-curvature="0" />
	<path style="fill:none;stroke:red;stroke-width:1px;stroke-linecap:butt;stroke-linejoin:miter;stroke-opacity:1" d="M 400.8,759.39 400.8,744.693 z" id="boundary" inkscape:connector-curvature="0" />
	<path style="fill:none;stroke:red;stroke-width:1px;stroke-linecap:butt;stroke-linejoin:miter;stroke-opacity:1" d="M 400.8,774.086 400.8,788.782 z" id="boundary" inkscape:connector-curvature="0" />
	<path style="fill:none;stroke:red;stroke-width:1px;stroke-linecap:butt;stroke-linejoin:miter;stroke-opacity:1" d="M 400.8,759.39 400.8,774.086 z" id="boundary" inkscape:connector-curvature="0" />
	<path style="fill:none;stroke:red;stroke-width:1px;stroke-linecap:butt;stroke-linejoin:miter;stroke-opacity:1" d="M 400.8,788.782 400.8,803.479 z" id="boundary" inkscape:connector-curvature="0" />
	<path style="fill:none;stroke:red;stroke-width:1px;stroke-linecap:butt;stroke-linejoin:miter;stroke-opacity:1" d="M 400.8,818.175 400.8,803.479 z" id="boundary" inkscape:connector-curvature="0" />
	<path style="fill:none;stroke:red;stroke-width:1px;stroke-linecap:butt;stroke-linejoin:miter;stroke-opacity:1" d="M 400.8,847.567 400.8,832.871 z" id="boundary" inkscape:connector-curvature="0" />
	<path style="fill:none;stroke:red;stroke-width:1px;stroke-linecap:butt;stroke-linejoin:miter;stroke-opacity:1" d="M 400.8,832.871 400.8,818.175 z" id="boundary" inkscape:connector-curvature="0" />
	<path style="fill:none;stroke:red;stroke-width:1px;stroke-linecap:butt;stroke-linejoin:miter;stroke-opacity:1" d="M 400.8,847.567 408.148,860.794 z" id="boundary" inkscape:connector-curvature="0" />
	<path style="fill:none;stroke:red;stroke-width:1px;stroke-linecap:butt;stroke-linejoin:miter;stroke-opacity:1" d="M 408.148,860.794 408.148,875.49 z" id="boundary" inkscape:connector-curvature="0" />
	<path style="fill:none;stroke:red;stroke-width:1px;stroke-linecap:butt;stroke-linejoin:miter;stroke-opacity:1" d="M 408.148,890.187 408.148,875.49 z" id="boundary" inkscape:connector-curvature="0" />
	<path style="fill:none;stroke:red;stroke-width:1px;stroke-linecap:butt;stroke-linejoin:miter;stroke-opacity:1" d="M 408.148,890.187 415.496,903.413 z" id="boundary" inkscape:connector-curvature="0" />
	<path style="fill:none;stroke:red;stroke-width:1px;stroke-linecap:butt;stroke-linejoin:miter;stroke-opacity:1" d="M 415.496,903.413 422.844,916.64 z" id="boundary" inkscape:connector-curvature="0" />
	<path style="fill:none;stroke:red;stroke-width:1px;stroke-linecap:butt;stroke-linejoin:miter;stroke-opacity:1" d="M 422.844,916.64 430.193,929.867 z" id="boundary" inkscape:connector-curvature="0" />
	<path style="fill:none;stroke:red;stroke-width:1px;stroke-linecap:butt;stroke-linejoin:miter;stroke-opacity:1" d="M 430.193,929.867 439.01,941.624 z" id="boundary" inkscape:connector-curvature="0" />
	<path style="fill:none;stroke:red;stroke-width:1px;stroke-linecap:butt;stroke-linejoin:miter;stroke-opacity:1" d="M 466.933,21.6356 452.237,15.757 z" id="boundary" inkscape:connector-curvature="0" />
	<path style="fill:none;stroke:red;stroke-width:1px;stroke-linecap:butt;stroke-linejoin:miter;stroke-opacity:1" d="M 475.751,33.3926 466.933,21.6356 z" id="boundary" inkscape:connector-curvature="0" />
	<path style="fill:none;stroke:red;stroke-width:1px;stroke-linecap:butt;stroke-linejoin:miter;stroke-opacity:1" d="M 452.237,15.757 439.01,8.40889 z" id="boundary" inkscape:connector-curvature="0" />
	<path style="fill:none;stroke:red;stroke-width:1px;stroke-linecap:butt;stroke-linejoin:miter;stroke-opacity:1" d="M 487.508,42.2104 475.751,33.3926 z" id="boundary" inkscape:connector-curvature="0" />
	<path style="fill:none;stroke:red;stroke-width:1px;stroke-linecap:butt;stroke-linejoin:miter;stroke-opacity:1" d="M 487.508,42.2104 497.796,53.9674 z" id="boundary" inkscape:connector-curvature="0" />
	<path style="fill:none;stroke:red;stroke-width:1px;stroke-linecap:butt;stroke-linejoin:miter;stroke-opacity:1" d="M 497.796,53.9674 509.553,62.7852 z" id="boundary" inkscape:connector-curvature="0" />
	<path style="fill:none;stroke:red;stroke-width:1px;stroke-linecap:butt;stroke-linejoin:miter;stroke-opacity:1" d="M 509.553,62.7852 522.779,70.1333 z" id="boundary" inkscape:connector-curvature="0" />
	<path style="fill:none;stroke:red;stroke-width:1px;stroke-linecap:butt;stroke-linejoin:miter;stroke-opacity:1" d="M 522.779,70.1333 536.006,77.4815 z" id="boundary" inkscape:connector-curvature="0" />
	<path style="fill:none;stroke:red;stroke-width:1px;stroke-linecap:butt;stroke-linejoin:miter;stroke-opacity:1" d="M 549.233,84.8296 536.006,77.4815 z" id="boundary" inkscape:connector-curvature="0" />
	<path style="fill:none;stroke:red;stroke-width:1px;stroke-linecap:butt;stroke-linejoin:miter;stroke-opacity:1" d="M 577.156,96.5867 563.929,89.2385 z" id="boundary" inkscape:connector-curvature="0" />
	<path style="fill:none;stroke:red;stroke-width:1px;stroke-linecap:butt;stroke-linejoin:miter;stroke-opacity:1" d="M 563.929,89.2385 549.233,84.8296 z" id="boundary" inkscape:connector-curvature="0" />
	<path style="fill:none;stroke:red;stroke-width:1px;stroke-linecap:butt;stroke-linejoin:miter;stroke-opacity:1" d="M 577.156,96.5867 591.852,102.465 z" id="boundary" inkscape:connector-curvature="0" />
	<path style="fill:none;stroke:red;stroke-width:1px;stroke-linecap:butt;stroke-linejoin:miter;stroke-opacity:1" d="M 591.852,102.465 600.67,114.222 z" id="boundary" inkscape:connector-curvature="0" />
	<path style="fill:none;stroke:red;stroke-width:1px;stroke-linecap:butt;stroke-linejoin:miter;stroke-opacity:1" d="M 600.67,114.222 615.366,118.631 z" id="boundary" inkscape:connector-curvature="0" />
	<path style="fill:none;stroke:red;stroke-width:1px;stroke-linecap:butt;stroke-linejoin:miter;stroke-opacity:1" d="M 627.123,128.919 615.366,118.631 z" id="boundary" inkscape:connector-curvature="0" />
	<path style="fill:none;stroke:red;stroke-width:1px;stroke-linecap:butt;stroke-linejoin:miter;stroke-opacity:1" d="M 627.123,128.919 640.35,136.267 z" id="boundary" inkscape:connector-curvature="0" />
	<path style="fill:none;stroke:red;stroke-width:1px;stroke-linecap:butt;stroke-linejoin:miter;stroke-opacity:1" d="M 653.576,143.615 640.35,136.267 z" id="boundary" inkscape:connector-curvature="0" />
	<path style="fill:none;stroke:red;stroke-width:1px;stroke-linecap:butt;stroke-linejoin:miter;stroke-opacity:1" d="M 666.803,150.963 653.576,143.615 z" id="boundary" inkscape:connector-curvature="0" />
	<path style="fill:none;stroke:red;stroke-width:1px;stroke-linecap:butt;stroke-linejoin:miter;stroke-opacity:1" d="M 666.803,150.963 681.499,155.372 z" id="boundary" inkscape:connector-curvature="0" />
	<path style="fill:none;stroke:red;stroke-width:1px;stroke-linecap:butt;stroke-linejoin:miter;stroke-opacity:1" d="M 681.499,155.372 693.256,165.659 z" id="boundary" inkscape:connector-curvature="0" />
	<path style="fill:none;stroke:red;stroke-width:1px;stroke-linecap:butt;stroke-linejoin:miter;stroke-opacity:1" d="M 706.483,173.007 693.256,165.659 z" id="boundary" inkscape:connector-curvature="0" />
	<path style="fill:none;stroke:red;stroke-width:1px;stroke-linecap:butt;stroke-linejoin:miter;stroke-opacity:1" d="M 719.71,180.356 706.483,173.007 z" id="boundary" inkscape:connector-curvature="0" />
	<path style="fill:none;stroke:red;stroke-width:1px;stroke-linecap:butt;stroke-linejoin:miter;stroke-opacity:1" d="M 732.936,187.704 719.71,180.356 z" id="boundary" inkscape:connector-curvature="0" />
	<path style="fill:none;stroke:red;stroke-width:1px;stroke-linecap:butt;stroke-linejoin:miter;stroke-opacity:1" d="M 732.936,187.704 746.163,195.052 z" id="boundary" inkscape:connector-curvature="0" />
	<path style="fill:none;stroke:red;stroke-width:1px;stroke-linecap:butt;stroke-linejoin:miter;stroke-opacity:1" d="M 746.163,195.052 757.92,203.87 z" id="boundary" inkscape:connector-curvature="0" />
	<path style="fill:none;stroke:red;stroke-width:1px;stroke-linecap:butt;stroke-linejoin:miter;stroke-opacity:1" d="M 769.677,214.157 782.904,221.505 z" id="boundary" inkscape:connector-curvature="0" />
	<path style="fill:none;stroke:red;stroke-width:1px;stroke-linecap:butt;stroke-linejoin:miter;stroke-opacity:1" d="M 797.6,227.384 806.418,239.141 z" id="boundary" inkscape:connector-curvature="0" />
	<path style="fill:none;stroke:red;stroke-width:1px;stroke-linecap:butt;stroke-linejoin:miter;stroke-opacity:1" d="M 782.904,221.505 797.6,227.384 z" id="boundary" inkscape:connector-curvature="0" />
	<path style="fill:none;stroke:red;stroke-width:1px;stroke-linecap:butt;stroke-linejoin:miter;stroke-opacity:1" d="M 769.677,214.157 757.92,203.87 z" id="boundary" inkscape:connector-curvature="0" />
	<path style="fill:none;stroke:red;stroke-width:1px;stroke-linecap:butt;stroke-linejoin:miter;stroke-opacity:1" d="M 818.175,247.959 806.418,239.141 z" id="boundary" inkscape:connector-curvature="0" />
	<path style="fill:none;stroke:red;stroke-width:1px;stroke-linecap:butt;stroke-linejoin:miter;stroke-opacity:1" d="M 828.462,259.716 818.175,247.959 z" id="boundary" inkscape:connector-curvature="0" />
	<path style="fill:none;stroke:red;stroke-width:1px;stroke-linecap:butt;stroke-linejoin:miter;stroke-opacity:1" d="M 828.462,259.716 843.159,265.594 z" id="boundary" inkscape:connector-curvature="0" />
	<path style="fill:none;stroke:red;stroke-width:1px;stroke-linecap:butt;stroke-linejoin:miter;stroke-opacity:1" d="M 853.446,277.351 843.159,265.594 z" id="boundary" inkscape:connector-curvature="0" />
	<path style="fill:none;stroke:red;stroke-width:1px;stroke-linecap:butt;stroke-linejoin:miter;stroke-opacity:1" d="M 860.794,290.578 853.446,277.351 z" id="boundary" inkscape:connector-curvature="0" />
	<path style="fill:none;stroke:red;stroke-width:1px;stroke-linecap:butt;stroke-linejoin:miter;stroke-opacity:1" d="M 766.738,465.464 754.981,475.751 z" id="boundary" inkscape:connector-curvature="0" />
	<path style="fill:none;stroke:red;stroke-width:1px;stroke-linecap:butt;stroke-linejoin:miter;stroke-opacity:1" d="M 743.224,488.978 754.981,475.751 z" id="boundary" inkscape:connector-curvature="0" />
	<path style="fill:none;stroke:red;stroke-width:1px;stroke-linecap:butt;stroke-linejoin:miter;stroke-opacity:1" d="M 788.782,443.419 777.025,453.707 z" id="boundary" inkscape:connector-curvature="0" />
	<path style="fill:none;stroke:red;stroke-width:1px;stroke-linecap:butt;stroke-linejoin:miter;stroke-opacity:1" d="M 766.738,465.464 777.025,453.707 z" id="boundary" inkscape:connector-curvature="0" />
	<path style="fill:none;stroke:red;stroke-width:1px;stroke-linecap:butt;stroke-linejoin:miter;stroke-opacity:1" d="M 860.794,290.578 865.203,305.274 z" id="boundary" inkscape:connector-curvature="0" />
	<path style="fill:none;stroke:red;stroke-width:1px;stroke-linecap:butt;stroke-linejoin:miter;stroke-opacity:1" d="M 865.203,305.274 865.203,319.97 z" id="boundary" inkscape:connector-curvature="0" />
	<path style="fill:none;stroke:red;stroke-width:1px;stroke-linecap:butt;stroke-linejoin:miter;stroke-opacity:1" d="M 865.203,319.97 857.855,336.136 z" id="boundary" inkscape:connector-curvature="0" />
	<path style="fill:none;stroke:red;stroke-width:1px;stroke-linecap:butt;stroke-linejoin:miter;stroke-opacity:1" d="M 810.827,421.375 821.114,409.618 z" id="boundary" inkscape:connector-curvature="0" />
	<path style="fill:none;stroke:red;stroke-width:1px;stroke-linecap:butt;stroke-linejoin:miter;stroke-opacity:1" d="M 810.827,421.375 799.07,431.662 z" id="boundary" inkscape:connector-curvature="0" />
	<path style="fill:none;stroke:red;stroke-width:1px;stroke-linecap:butt;stroke-linejoin:miter;stroke-opacity:1" d="M 788.782,443.419 799.07,431.662 z" id="boundary" inkscape:connector-curvature="0" />
	<path style="fill:none;stroke:red;stroke-width:1px;stroke-linecap:butt;stroke-linejoin:miter;stroke-opacity:1" d="M 850.507,358.181 857.855,336.136 z" id="boundary" inkscape:connector-curvature="0" />
	<path style="fill:none;stroke:red;stroke-width:1px;stroke-linecap:butt;stroke-linejoin:miter;stroke-opacity:1" d="M 843.159,380.225 835.81,394.921 z" id="boundary" inkscape:connector-curvature="0" />
	<path style="fill:none;stroke:red;stroke-width:1px;stroke-linecap:butt;stroke-linejoin:miter;stroke-opacity:1" d="M 835.81,394.921 821.114,409.618 z" id="boundary" inkscape:connector-curvature="0" />
	<path style="fill:none;stroke:red;stroke-width:1px;stroke-linecap:butt;stroke-linejoin:miter;stroke-opacity:1" d="M 843.159,380.225 850.507,358.181 z" id="boundary" inkscape:connector-curvature="0" />
	<path style="fill:none;stroke:red;stroke-width:1px;stroke-linecap:butt;stroke-linejoin:miter;stroke-opacity:1" d="M 743.224,488.978 731.467,497.796 z" id="boundary" inkscape:connector-curvature="0" />
	<path style="fill:none;stroke:red;stroke-width:1px;stroke-linecap:butt;stroke-linejoin:miter;stroke-opacity:1" d="M 483.099,718.24 472.812,737.345 z" id="boundary" inkscape:connector-curvature="0" />
	<path style="fill:none;stroke:red;stroke-width:1px;stroke-linecap:butt;stroke-linejoin:miter;stroke-opacity:1" d="M 461.055,747.633 461.055,762.329 z" id="boundary" inkscape:connector-curvature="0" />
	<path style="fill:none;stroke:red;stroke-width:1px;stroke-linecap:butt;stroke-linejoin:miter;stroke-opacity:1" d="M 472.812,737.345 461.055,747.633 z" id="boundary" inkscape:connector-curvature="0" />
	<path style="fill:none;stroke:red;stroke-width:1px;stroke-linecap:butt;stroke-linejoin:miter;stroke-opacity:1" d="M 461.055,762.329 461.055,777.025 z" id="boundary" inkscape:connector-curvature="0" />
	<path style="fill:none;stroke:red;stroke-width:1px;stroke-linecap:butt;stroke-linejoin:miter;stroke-opacity:1" d="M 461.055,791.721 461.055,777.025 z" id="boundary" inkscape:connector-curvature="0" />
	<path style="fill:none;stroke:red;stroke-width:1px;stroke-linecap:butt;stroke-linejoin:miter;stroke-opacity:1" d="M 461.055,806.418 461.055,821.114 z" id="boundary" inkscape:connector-curvature="0" />
	<path style="fill:none;stroke:red;stroke-width:1px;stroke-linecap:butt;stroke-linejoin:miter;stroke-opacity:1" d="M 461.055,806.418 461.055,791.721 z" id="boundary" inkscape:connector-curvature="0" />
	<path style="fill:none;stroke:red;stroke-width:1px;stroke-linecap:butt;stroke-linejoin:miter;stroke-opacity:1" d="M 461.055,835.81 461.055,850.507 z" id="boundary" inkscape:connector-curvature="0" />
	<path style="fill:none;stroke:red;stroke-width:1px;stroke-linecap:butt;stroke-linejoin:miter;stroke-opacity:1" d="M 461.055,821.114 461.055,835.81 z" id="boundary" inkscape:connector-curvature="0" />
	<path style="fill:none;stroke:red;stroke-width:1px;stroke-linecap:butt;stroke-linejoin:miter;stroke-opacity:1" d="M 461.055,850.507 461.055,865.203 z" id="boundary" inkscape:connector-curvature="0" />
	<path style="fill:none;stroke:red;stroke-width:1px;stroke-linecap:butt;stroke-linejoin:miter;stroke-opacity:1" d="M 468.403,878.43 461.055,865.203 z" id="boundary" inkscape:connector-curvature="0" />
	<path style="fill:none;stroke:red;stroke-width:1px;stroke-linecap:butt;stroke-linejoin:miter;stroke-opacity:1" d="M 534.536,643.289 527.188,630.062 z" id="boundary" inkscape:connector-curvature="0" />
	<path style="fill:none;stroke:red;stroke-width:1px;stroke-linecap:butt;stroke-linejoin:miter;stroke-opacity:1" d="M 534.536,643.289 534.536,657.985 z" id="boundary" inkscape:connector-curvature="0" />
	<path style="fill:none;stroke:red;stroke-width:1px;stroke-linecap:butt;stroke-linejoin:miter;stroke-opacity:1" d="M 530.127,680.03 534.536,657.985 z" id="boundary" inkscape:connector-curvature="0" />
	<path style="fill:none;stroke:red;stroke-width:1px;stroke-linecap:butt;stroke-linejoin:miter;stroke-opacity:1" d="M 490.447,703.544 483.099,718.24 z" id="boundary" inkscape:connector-curvature="0" />
	<path style="fill:none;stroke:red;stroke-width:1px;stroke-linecap:butt;stroke-linejoin:miter;stroke-opacity:1" d="M 515.431,687.378 530.127,680.03 z" id="boundary" inkscape:connector-curvature="0" />
	<path style="fill:none;stroke:red;stroke-width:1px;stroke-linecap:butt;stroke-linejoin:miter;stroke-opacity:1" d="M 503.674,696.196 515.431,687.378 z" id="boundary" inkscape:connector-curvature="0" />
	<path style="fill:none;stroke:red;stroke-width:1px;stroke-linecap:butt;stroke-linejoin:miter;stroke-opacity:1" d="M 490.447,703.544 503.674,696.196 z" id="boundary" inkscape:connector-curvature="0" />
	<path style="fill:none;stroke:red;stroke-width:1px;stroke-linecap:butt;stroke-linejoin:miter;stroke-opacity:1" d="M 538.945,619.775 527.188,630.062 z" id="boundary" inkscape:connector-curvature="0" />
	<path style="fill:none;stroke:red;stroke-width:1px;stroke-linecap:butt;stroke-linejoin:miter;stroke-opacity:1" d="M 468.403,878.43 468.403,893.126 z" id="boundary" inkscape:connector-curvature="0" />
	<path style="fill:none;stroke:red;stroke-width:1px;stroke-linecap:butt;stroke-linejoin:miter;stroke-opacity:1" d="M 449.298,953.381 439.01,941.624 z" id="boundary" inkscape:connector-curvature="0" />
	<path style="fill:none;stroke:red;stroke-width:1px;stroke-linecap:butt;stroke-linejoin:miter;stroke-opacity:1" d="M 449.298,953.381 456.646,966.607 z" id="boundary" inkscape:connector-curvature="0" />
	<path style="fill:none;stroke:red;stroke-width:1px;stroke-linecap:butt;stroke-linejoin:miter;stroke-opacity:1" d="M 466.933,978.364 456.646,966.607 z" id="boundary" inkscape:connector-curvature="0" />
	<path style="fill:none;stroke:red;stroke-width:1px;stroke-linecap:butt;stroke-linejoin:miter;stroke-opacity:1" d="M 468.403,893.126 475.751,906.353 z" id="boundary" inkscape:connector-curvature="0" />
	<path style="fill:none;stroke:red;stroke-width:1px;stroke-linecap:butt;stroke-linejoin:miter;stroke-opacity:1" d="M 483.099,919.579 490.447,932.806 z" id="boundary" inkscape:connector-curvature="0" />
	<path style="fill:none;stroke:red;stroke-width:1px;stroke-linecap:butt;stroke-linejoin:miter;stroke-opacity:1" d="M 483.099,919.579 475.751,906.353 z" id="boundary" inkscape:connector-curvature="0" />
	<path style="fill:none;stroke:red;stroke-width:1px;stroke-linecap:butt;stroke-linejoin:miter;stroke-opacity:1" d="M 499.265,944.563 490.447,932.806 z" id="boundary" inkscape:connector-curvature="0" />
	<path style="fill:none;stroke:red;stroke-width:1px;stroke-linecap:butt;stroke-linejoin:miter;stroke-opacity:1" d="M 511.022,954.85 499.265,944.563 z" id="boundary" inkscape:connector-curvature="0" />
	<path style="fill:none;stroke:red;stroke-width:1px;stroke-linecap:butt;stroke-linejoin:miter;stroke-opacity:1" d="M 516.901,969.547 511.022,954.85 z" id="boundary" inkscape:connector-curvature="0" />
	<path style="fill:none;stroke:red;stroke-width:1px;stroke-linecap:butt;stroke-linejoin:miter;stroke-opacity:1" d="M 478.69,988.652 491.917,996 z" id="boundary" inkscape:connector-curvature="0" />
	<path style="fill:none;stroke:red;stroke-width:1px;stroke-linecap:butt;stroke-linejoin:miter;stroke-opacity:1" d="M 478.69,988.652 466.933,978.364 z" id="boundary" inkscape:connector-curvature="0" />
	<path style="fill:none;stroke:red;stroke-width:1px;stroke-linecap:butt;stroke-linejoin:miter;stroke-opacity:1" d="M 516.901,969.547 506.613,990.121 z" id="boundary" inkscape:connector-curvature="0" />
	<path style="fill:none;stroke:red;stroke-width:1px;stroke-linecap:butt;stroke-linejoin:miter;stroke-opacity:1" d="M 506.613,990.121 491.917,996 z" id="boundary" inkscape:connector-curvature="0" />
	<path style="fill:none;stroke:red;stroke-width:1px;stroke-linecap:butt;stroke-linejoin:miter;stroke-opacity:1" d="M 553.641,615.366 538.945,619.775 z" id="boundary" inkscape:connector-curvature="0" />
	<path style="fill:none;stroke:red;stroke-width:1px;stroke-linecap:butt;stroke-linejoin:miter;stroke-opacity:1" d="M 635.941,578.625 622.714,585.973 z" id="boundary" inkscape:connector-curvature="0" />
	<path style="fill:none;stroke:red;stroke-width:1px;stroke-linecap:butt;stroke-linejoin:miter;stroke-opacity:1" d="M 610.957,599.2 622.714,585.973 z" id="boundary" inkscape:connector-curvature="0" />
	<path style="fill:none;stroke:red;stroke-width:1px;stroke-linecap:butt;stroke-linejoin:miter;stroke-opacity:1" d="M 647.698,569.807 635.941,578.625 z" id="boundary" inkscape:connector-curvature="0" />
	<path style="fill:none;stroke:red;stroke-width:1px;stroke-linecap:butt;stroke-linejoin:miter;stroke-opacity:1" d="M 610.957,599.2 596.261,606.548 z" id="boundary" inkscape:connector-curvature="0" />
	<path style="fill:none;stroke:red;stroke-width:1px;stroke-linecap:butt;stroke-linejoin:miter;stroke-opacity:1" d="M 553.641,615.366 568.338,615.366 z" id="boundary" inkscape:connector-curvature="0" />
	<path style="fill:none;stroke:red;stroke-width:1px;stroke-linecap:butt;stroke-linejoin:miter;stroke-opacity:1" d="M 581.564,608.018 596.261,606.548 z" id="boundary" inkscape:connector-curvature="0" />
	<path style="fill:none;stroke:red;stroke-width:1px;stroke-linecap:butt;stroke-linejoin:miter;stroke-opacity:1" d="M 568.338,615.366 581.564,608.018 z" id="boundary" inkscape:connector-curvature="0" />
	<path style="fill:none;stroke:red;stroke-width:1px;stroke-linecap:butt;stroke-linejoin:miter;stroke-opacity:1" d="M 707.953,516.901 718.24,505.144 z" id="boundary" inkscape:connector-curvature="0" />
	<path style="fill:none;stroke:red;stroke-width:1px;stroke-linecap:butt;stroke-linejoin:miter;stroke-opacity:1" d="M 696.196,527.188 685.908,538.945 z" id="boundary" inkscape:connector-curvature="0" />
	<path style="fill:none;stroke:red;stroke-width:1px;stroke-linecap:butt;stroke-linejoin:miter;stroke-opacity:1" d="M 674.151,549.233 659.455,556.581 z" id="boundary" inkscape:connector-curvature="0" />
	<path style="fill:none;stroke:red;stroke-width:1px;stroke-linecap:butt;stroke-linejoin:miter;stroke-opacity:1" d="M 696.196,527.188 707.953,516.901 z" id="boundary" inkscape:connector-curvature="0" />
	<path style="fill:none;stroke:red;stroke-width:1px;stroke-linecap:butt;stroke-linejoin:miter;stroke-opacity:1" d="M 685.908,538.945 674.151,549.233 z" id="boundary" inkscape:connector-curvature="0" />
	<path style="fill:none;stroke:red;stroke-width:1px;stroke-linecap:butt;stroke-linejoin:miter;stroke-opacity:1" d="M 718.24,505.144 731.467,497.796 z" id="boundary" inkscape:connector-curvature="0" />
	<path style="fill:none;stroke:red;stroke-width:1px;stroke-linecap:butt;stroke-linejoin:miter;stroke-opacity:1" d="M 647.698,569.807 659.455,556.581 z" id="boundary" inkscape:connector-curvature="0" />
	<circle cx="4" cy="339.076" r="4" fill="#0" id="circle0"/>
	<circle cx="4" cy="353.772" r="4" fill="#0" id="circle1"/>
	<circle cx="4" cy="368.468" r="4" fill="#0" id="circle2"/>
	<circle cx="11.3481" cy="324.379" r="4" fill="#0" id="circle3"/>
	<circle cx="11.3481" cy="381.695" r="4" fill="#0" id="circle4"/>
	<circle cx="11.3481" cy="396.391" r="4" fill="#0" id="circle5"/>
	<circle cx="18.6963" cy="309.683" r="4" fill="#0" id="circle6"/>
	<circle cx="18.6963" cy="409.618" r="4" fill="#0" id="circle7"/>
	<circle cx="27.5141" cy="421.375" r="4" fill="#0" id="circle8"/>
	<circle cx="30.4533" cy="297.926" r="4" fill="#0" id="circle9"/>
	<circle cx="39.2711" cy="431.662" r="4" fill="#0" id="circle10"/>
	<circle cx="42.2104" cy="286.169" r="4" fill="#0" id="circle11"/>
	<circle cx="49.5585" cy="443.419" r="4" fill="#0" id="circle12"/>
	<circle cx="53.9674" cy="275.881" r="4" fill="#0" id="circle13"/>
	<circle cx="61.3156" cy="453.707" r="4" fill="#0" id="circle14"/>
	<circle cx="67.1941" cy="268.533" r="4" fill="#0" id="circle15"/>
	<circle cx="71.603" cy="465.464" r="4" fill="#0" id="circle16"/>
	<circle cx="78.9511" cy="256.776" r="4" fill="#0" id="circle17"/>
	<circle cx="83.36" cy="475.751" r="4" fill="#0" id="circle18"/>
	<circle cx="90.7081" cy="246.489" r="4" fill="#0" id="circle19"/>
	<circle cx="93.6474" cy="487.508" r="4" fill="#0" id="circle20"/>
	<circle cx="100.996" cy="234.732" r="4" fill="#0" id="circle21"/>
	<circle cx="108.344" cy="493.387" r="4" fill="#0" id="circle22"/>
	<circle cx="112.753" cy="224.444" r="4" fill="#0" id="circle23"/>
	<circle cx="118.631" cy="505.144" r="4" fill="#0" id="circle24"/>
	<circle cx="123.04" cy="212.687" r="4" fill="#0" id="circle25"/>
	<circle cx="130.388" cy="515.431" r="4" fill="#0" id="circle26"/>
	<circle cx="134.797" cy="202.4" r="4" fill="#0" id="circle27"/>
	<circle cx="143.615" cy="522.779" r="4" fill="#0" id="circle28"/>
	<circle cx="148.024" cy="195.052" r="4" fill="#0" id="circle29"/>
	<circle cx="158.311" cy="527.188" r="4" fill="#0" id="circle30"/>
	<circle cx="161.25" cy="187.704" r="4" fill="#0" id="circle31"/>
	<circle cx="167.129" cy="538.945" r="4" fill="#0" id="circle32"/>
	<circle cx="173.007" cy="177.416" r="4" fill="#0" id="circle33"/>
	<circle cx="181.825" cy="544.824" r="4" fill="#0" id="circle34"/>
	<circle cx="187.704" cy="170.068" r="4" fill="#0" id="circle35"/>
	<circle cx="192.113" cy="556.581" r="4" fill="#0" id="circle36"/>
	<circle cx="202.4" cy="162.72" r="4" fill="#0" id="circle37"/>
	<circle cx="206.809" cy="562.459" r="4" fill="#0" id="circle38"/>
	<circle cx="217.096" cy="155.372" r="4" fill="#0" id="circle39"/>
	<circle cx="220.036" cy="569.807" r="4" fill="#0" id="circle40"/>
	<circle cx="231.793" cy="150.963" r="4" fill="#0" id="circle41"/>
	<circle cx="234.732" cy="575.686" r="4" fill="#0" id="circle42"/>
	<circle cx="245.019" cy="143.615" r="4" fill="#0" id="circle43"/>
	<circle cx="246.489" cy="585.973" r="4" fill="#0" id="circle44"/>
	<circle cx="255.307" cy="131.858" r="4" fill="#0" id="circle45"/>
	<circle cx="259.716" cy="593.321" r="4" fill="#0" id="circle46"/>
	<circle cx="267.064" cy="121.57" r="4" fill="#0" id="circle47"/>
	<circle cx="272.942" cy="600.67" r="4" fill="#0" id="circle48"/>
	<circle cx="280.29" cy="114.222" r="4" fill="#0" id="circle49"/>
	<circle cx="286.169" cy="608.018" r="4" fill="#0" id="circle50"/>
	<circle cx="292.047" cy="102.465" r="4" fill="#0" id="circle51"/>
	<circle cx="300.865" cy="612.427" r="4" fill="#0" id="circle52"/>
	<circle cx="303.804" cy="92.1778" r="4" fill="#0" id="circle53"/>
	<circle cx="314.092" cy="80.4207" r="4" fill="#0" id="circle54"/>
	<circle cx="315.561" cy="615.366" r="4" fill="#0" id="circle55"/>
	<circle cx="325.849" cy="70.1333" r="4" fill="#0" id="circle56"/>
	<circle cx="328.788" cy="622.714" r="4" fill="#0" id="circle57"/>
	<circle cx="336.136" cy="58.3763" r="4" fill="#0" id="circle58"/>
	<circle cx="342.015" cy="630.062" r="4" fill="#0" id="circle59"/>
	<circle cx="342.015" cy="644.759" r="4" fill="#0" id="circle60"/>
	<circle cx="342.015" cy="659.455" r="4" fill="#0" id="circle61"/>
	<circle cx="346.424" cy="674.151" r="4" fill="#0" id="circle62"/>
	<circle cx="347.893" cy="48.0889" r="4" fill="#0" id="circle63"/>
	<circle cx="358.181" cy="36.3319" r="4" fill="#0" id="circle64"/>
	<circle cx="358.181" cy="684.439" r="4" fill="#0" id="circle65"/>
	<circle cx="368.468" cy="696.196" r="4" fill="#0" id="circle66"/>
	<circle cx="369.938" cy="26.0444" r="4" fill="#0" id="circle67"/>
	<circle cx="380.225" cy="706.483" r="4" fill="#0" id="circle68"/>
	<circle cx="383.164" cy="18.6963" r="4" fill="#0" id="circle69"/>
	<circle cx="390.513" cy="718.24" r="4" fill="#0" id="circle70"/>
	<circle cx="396.391" cy="11.3481" r="4" fill="#0" id="circle71"/>
	<circle cx="400.8" cy="729.997" r="4" fill="#0" id="circle72"/>
	<circle cx="400.8" cy="744.693" r="4" fill="#0" id="circle73"/>
	<circle cx="400.8" cy="759.39" r="4" fill="#0" id="circle74"/>
	<circle cx="400.8" cy="774.086" r="4" fill="#0" id="circle75"/>
	<circle cx="400.8" cy="788.782" r="4" fill="#0" id="circle76"/>
	<circle cx="400.8" cy="803.479" r="4" fill="#0" id="circle77"/>
	<circle cx="400.8" cy="818.175" r="4" fill="#0" id="circle78"/>
	<circle cx="400.8" cy="832.871" r="4" fill="#0" id="circle79"/>
	<circle cx="400.8" cy="847.567" r="4" fill="#0" id="circle80"/>
	<circle cx="408.148" cy="860.794" r="4" fill="#0" id="circle81"/>
	<circle cx="408.148" cy="875.49" r="4" fill="#0" id="circle82"/>
	<circle cx="408.148" cy="890.187" r="4" fill="#0" id="circle83"/>
	<circle cx="409.618" cy="4" r="4" fill="#0" id="circle84"/>
	<circle cx="415.496" cy="903.413" r="4" fill="#0" id="circle85"/>
	<circle cx="422.844" cy="916.64" r="4" fill="#0" id="circle86"/>
	<circle cx="424.314" cy="4" r="4" fill="#0" id="circle87"/>
	<circle cx="430.193" cy="929.867" r="4" fill="#0" id="circle88"/>
	<circle cx="439.01" cy="8.40889" r="4" fill="#0" id="circle89"/>
	<circle cx="439.01" cy="941.624" r="4" fill="#0" id="circle90"/>
	<circle cx="449.298" cy="953.381" r="4" fill="#0" id="circle91"/>
	<circle cx="452.237" cy="15.757" r="4" fill="#0" id="circle92"/>
	<circle cx="456.646" cy="966.607" r="4" fill="#0" id="circle93"/>
	<circle cx="461.055" cy="747.633" r="4" fill="#0" id="circle94"/>
	<circle cx="461.055" cy="762.329" r="4" fill="#0" id="circle95"/>
	<circle cx="461.055" cy="777.025" r="4" fill="#0" id="circle96"/>
	<circle cx="461.055" cy="791.721" r="4" fill="#0" id="circle97"/>
	<circle cx="461.055" cy="806.418" r="4" fill="#0" id="circle98"/>
	<circle cx="461.055" cy="821.114" r="4" fill="#0" id="circle99"/>
	<circle cx="461.055" cy="835.81" r="4" fill="#0" id="circle100"/>
	<circle cx="461.055" cy="850.507" r="4" fill="#0" id="circle101"/>
	<circle cx="461.055" cy="865.203" r="4" fill="#0" id="circle102"/>
	<circle cx="466.933" cy="21.6356" r="4" fill="#0" id="circle103"/>
	<circle cx="466.933" cy="978.364" r="4" fill="#0" id="circle104"/>
	<circle cx="468.403" cy="878.43" r="4" fill="#0" id="circle105"/>
	<circle cx="468.403" cy="893.126" r="4" fill="#0" id="circle106"/>
	<circle cx="472.812" cy="737.345" r="4" fill="#0" id="circle107"/>
	<circle cx="475.751" cy="33.3926" r="4" fill="#0" id="circle108"/>
	<circle cx="475.751" cy="906.353" r="4" fill="#0" id="circle109"/>
	<circle cx="478.69" cy="988.652" r="4" fill="#0" id="circle110"/>
	<circle cx="483.099" cy="718.24" r="4" fill="#0" id="circle111"/>
	<circle cx="483.099" cy="919.579" r="4" fill="#0" id="circle112"/>
	<circle cx="487.508" cy="42.2104" r="4" fill="#0" id="circle113"/>
	<circle cx="490.447" cy="703.544" r="4" fill="#0" id="circle114"/>
	<circle cx="490.447" cy="932.806" r="4" fill="#0" id="circle115"/>
	<circle cx="491.917" cy="996" r="4" fill="#0" id="circle116"/>
	<circle cx="497.796" cy="53.9674" r="4" fill="#0" id="circle117"/>
	<circle cx="499.265" cy="944.563" r="4" fill="#0" id="circle118"/>
	<circle cx="503.674" cy="696.196" r="4" fill="#0" id="circle119"/>
	<circle cx="506.613" cy="990.121" r="4" fill="#0" id="circle120"/>
	<circle cx="509.553" cy="62.7852" r="4" fill="#0" id="circle121"/>
	<circle cx="511.022" cy="954.85" r="4" fill="#0" id="circle122"/>
	<circle cx="515.431" cy="687.378" r="4" fill="#0" id="circle123"/>
	<circle cx="516.901" cy="969.547" r="4" fill="#0" id="circle124"/>
	<circle cx="522.779" cy="70.1333" r="4" fill="#0" id="circle125"/>
	<circle cx="527.188" cy="630.062" r="4" fill="#0" id="circle126"/>
	<circle cx="530.127" cy="680.03" r="4" fill="#0" id="circle127"/>
	<circle cx="534.536" cy="643.289" r="4" fill="#0" id="circle128"/>
	<circle cx="534.536" cy="657.985" r="4" fill="#0" id="circle129"/>
	<circle cx="536.006" cy="77.4815" r="4" fill="#0" id="circle130"/>
	<circle cx="538.945" cy="619.775" r="4" fill="#0" id="circle131"/>
	<circle cx="549.233" cy="84.8296" r="4" fill="#0" id="circle132"/>
	<circle cx="553.641" cy="615.366" r="4" fill="#0" id="circle133"/>
	<circle cx="563.929" cy="89.2385" r="4" fill="#0" id="circle134"/>
	<circle cx="568.338" cy="615.366" r="4" fill="#0" id="circle135"/>
	<circle cx="577.156" cy="96.5867" r="4" fill="#0" id="circle136"/>
	<circle cx="581.564" cy="608.018" r="4" fill="#0" id="circle137"/>
	<circle cx="591.852" cy="102.465" r="4" fill="#0" id="circle138"/>
	<circle cx="596.261" cy="606.548" r="4" fill="#0" id="circle139"/>
	<circle cx="600.67" cy="114.222" r="4" fill="#0" id="circle140"/>
	<circle cx="610.957" cy="599.2" r="4" fill="#0" id="circle141"/>
	<circle cx="615.366" cy="118.631" r="4" fill="#0" id="circle142"/>
	<circle cx="622.714" cy="585.973" r="4" fill="#0" id="circle143"/>
	<circle cx="627.123" cy="128.919" r="4" fill="#0" id="circle144"/>
	<circle cx="635.941" cy="578.625" r="4" fill="#0" id="circle145"/>
	<circle cx="640.35" cy="136.267" r="4" fill="#0" id="circle146"/>
	<circle cx="647.698" cy="569.807" r="4" fill="#0" id="circle147"/>
	<circle cx="653.576" cy="143.615" r="4" fill="#0" id="circle148"/>
	<circle cx="659.455" cy="556.581" r="4" fill="#0" id="circle149"/>
	<circle cx="666.803" cy="150.963" r="4" fill="#0" id="circle150"/>
	<circle cx="674.151" cy="549.233" r="4" fill="#0" id="circle151"/>
	<circle cx="681.499" cy="155.372" r="4" fill="#0" id="circle152"/>
	<circle cx="685.908" cy="538.945" r="4" fill="#0" id="circle153"/>
	<circle cx="693.256" cy="165.659" r="4" fill="#0" id="circle154"/>
	<circle cx="696.196" cy="527.188" r="4" fill="#0" id="circle155"/>
	<circle cx="706.483" cy="173.007" r="4" fill="#0" id="circle156"/>
	<circle cx="707.953" cy="516.901" r="4" fill="#0" id="circle157"/>
	<circle cx="718.24" cy="505.144" r="4" fill="#0" id="circle158"/>
	<circle cx="719.71" cy="180.356" r="4" fill="#0" id="circle159"/>
	<circle cx="731.467" cy="497.796" r="4" fill="#0" id="circle160"/>
	<circle cx="732.936" cy="187.704" r="4" fill="#0" id="circle161"/>
	<circle cx="743.224" cy="488.978" r="4" fill="#0" id="circle162"/>
	<circle cx="746.163" cy="195.052" r="4" fill="#0" id="circle163"/>
	<circle cx="754.981" cy="475.751" r="4" fill="#0" id="circle164"/>
	<circle cx="757.92" cy="203.87" r="4" fill="#0" id="circle165"/>
	<circle cx="766.738" cy="465.464" r="4" fill="#0" id="circle166"/>
	<circle cx="769.677" cy="214.157" r="4" fill="#0" id="circle167"/>
	<circle cx="777.025" cy="453.707" r="4" fill="#0" id="circle168"/>
	<circle cx="782.904" cy="221.505" r="4" fill="#0" id="circle169"/>
	<circle cx="788.782" cy="443.419" r="4" fill="#0" id="circle170"/>
	<circle cx="797.6" cy="227.384" r="4" fill="#0" id="circle171"/>
	<circle cx="799.07" cy="431.662" r="4" fill="#0" id="circle172"/>
	<circle cx="806.418" cy="239.141" r="4" fill="#0" id="circle173"/>
	<circle cx="810.827" cy="421.375" r="4" fill="#0" id="circle174"/>
	<circle cx="818.175" cy="247.959" r="4" fill="#0" id="circle175"/>
	<circle cx="821.114" cy="409.618" r="4" fill="#0" id="circle176"/>
	<circle cx="828.462" cy="259.716" r="4" fill="#0" id="circle177"/>
	<circle cx="835.81" cy="394.921" r="4" fill="#0" id="circle178"/>
	<circle cx="843.159" cy="265.594" r="4" fill="#0" id="circle179"/>
	<circle cx="843.159" cy="380.225" r="4" fill="#0" id="circle180"/>
	<circle cx="850.507" cy="358.181" r="4" fill="#0" id="circle181"/>
	<circle cx="853.446" cy="277.351" r="4" fill="#0" id="circle182"/>
	<circle cx="857.855" cy="336.136" r="4" fill="#0" id="circle183"/>
	<circle cx="860.794" cy="290.578" r="4" fill="#0" id="circle184"/>
	<circle cx="865.203" cy="305.274" r="4" fill="#0" id="circle185"/>
	<circle cx="865.203" cy="319.97" r="4" fill="#0" id="circle186"/>
	</g>
</svg>