<?xml version="1.0" encoding="UTF-8" standalone="no"?>
<!-- Created with CurveBenchmark -->
<svg
	xmlns:dc="http://purl.org/dc/elements/1.1/"
	xmlns:cc="http://creativecommons.org/ns#"
	xmlns:rdf="http://www.w3.org/1999/02/22-rdf-syntax-ns#"
	xmlns:svg="http://www.w3.org/2000/svg"
	xmlns="http://www.w3.org/2000/svg"
	xmlns:sodipodi="http://sodipodi.sourceforge.net/DTD/sodipodi-0.dtd"
	xmlns:inkscape="http://www.inkscape.org/namespaces/inkscape"
	width="1000"
	height="1000"
	id="svg2"
	version="1.1"
	sodipodi:docname="manifold/crust-bed135.png.txt">
<defs
	id="defs4" />
<metadata
	id="metadata7">
	<rdf:RDF>
		<cc:Work
			rdf:about="">
			<dc:format>image/svg+xml</dc:format>
			<dc:type
				rdf:resource="http://purl.org/dc/dcmitype/StillImage" />
			<dc:title></dc:title>
		</cc:Work>
	</rdf:RDF>
</metadata>
<g
	inkscape:label="Layer 1"
	inkscape:groupmode="layer"
	id="layer1">
	<path style="fill:none;stroke:red;stroke-width:1px;stroke-linecap:butt;stroke-linejoin:miter;stroke-opacity:1" d="M 42.0902,95.0851 58.6511,90.1169 z" id="boundary" inkscape:connector-curvature="0" />
	<path style="fill:none;stroke:red;stroke-width:1px;stroke-linecap:butt;stroke-linejoin:miter;stroke-opacity:1" d="M 42.0902,95.0851 27.1853,103.366 z" id="boundary" inkscape:connector-curvature="0" />
	<path style="fill:none;stroke:red;stroke-width:1px;stroke-linecap:butt;stroke-linejoin:miter;stroke-opacity:1" d="M 4,126.551 13.9366,113.302 z" id="boundary" inkscape:connector-curvature="0" />
	<path style="fill:none;stroke:red;stroke-width:1px;stroke-linecap:butt;stroke-linejoin:miter;stroke-opacity:1" d="M 27.1853,103.366 13.9366,113.302 z" id="boundary" inkscape:connector-curvature="0" />
	<path style="fill:none;stroke:red;stroke-width:1px;stroke-linecap:butt;stroke-linejoin:miter;stroke-opacity:1" d="M 4,143.112 4,126.551 z" id="boundary" inkscape:connector-curvature="0" />
	<path style="fill:none;stroke:red;stroke-width:1px;stroke-linecap:butt;stroke-linejoin:miter;stroke-opacity:1" d="M 8.96828,159.673 4,143.112 z" id="boundary" inkscape:connector-curvature="0" />
	<path style="fill:none;stroke:red;stroke-width:1px;stroke-linecap:butt;stroke-linejoin:miter;stroke-opacity:1" d="M 219.292,4 202.731,7.31219 z" id="boundary" inkscape:connector-curvature="0" />
	<path style="fill:none;stroke:red;stroke-width:1px;stroke-linecap:butt;stroke-linejoin:miter;stroke-opacity:1" d="M 202.731,7.31219 192.795,20.5609 z" id="boundary" inkscape:connector-curvature="0" />
	<path style="fill:none;stroke:red;stroke-width:1px;stroke-linecap:butt;stroke-linejoin:miter;stroke-opacity:1" d="M 192.795,20.5609 182.858,33.8097 z" id="boundary" inkscape:connector-curvature="0" />
	<path style="fill:none;stroke:red;stroke-width:1px;stroke-linecap:butt;stroke-linejoin:miter;stroke-opacity:1" d="M 182.858,33.8097 167.953,42.0902 z" id="boundary" inkscape:connector-curvature="0" />
	<path style="fill:none;stroke:red;stroke-width:1px;stroke-linecap:butt;stroke-linejoin:miter;stroke-opacity:1" d="M 91.773,76.8681 108.334,71.8998 z" id="boundary" inkscape:connector-curvature="0" />
	<path style="fill:none;stroke:red;stroke-width:1px;stroke-linecap:butt;stroke-linejoin:miter;stroke-opacity:1" d="M 124.895,66.9316 108.334,71.8998 z" id="boundary" inkscape:connector-curvature="0" />
	<path style="fill:none;stroke:red;stroke-width:1px;stroke-linecap:butt;stroke-linejoin:miter;stroke-opacity:1" d="M 75.212,83.4925 91.773,76.8681 z" id="boundary" inkscape:connector-curvature="0" />
	<path style="fill:none;stroke:red;stroke-width:1px;stroke-linecap:butt;stroke-linejoin:miter;stroke-opacity:1" d="M 153.048,50.3706 167.953,42.0902 z" id="boundary" inkscape:connector-curvature="0" />
	<path style="fill:none;stroke:red;stroke-width:1px;stroke-linecap:butt;stroke-linejoin:miter;stroke-opacity:1" d="M 153.048,50.3706 141.456,63.6194 z" id="boundary" inkscape:connector-curvature="0" />
	<path style="fill:none;stroke:red;stroke-width:1px;stroke-linecap:butt;stroke-linejoin:miter;stroke-opacity:1" d="M 124.895,66.9316 141.456,63.6194 z" id="boundary" inkscape:connector-curvature="0" />
	<path style="fill:none;stroke:red;stroke-width:1px;stroke-linecap:butt;stroke-linejoin:miter;stroke-opacity:1" d="M 58.6511,90.1169 75.212,83.4925 z" id="boundary" inkscape:connector-curvature="0" />
	<path style="fill:none;stroke:red;stroke-width:1px;stroke-linecap:butt;stroke-linejoin:miter;stroke-opacity:1" d="M 8.96828,159.673 10.6244,176.234 z" id="boundary" inkscape:connector-curvature="0" />
	<path style="fill:none;stroke:red;stroke-width:1px;stroke-linecap:butt;stroke-linejoin:miter;stroke-opacity:1" d="M 12.2805,192.795 10.6244,176.234 z" id="boundary" inkscape:connector-curvature="0" />
	<path style="fill:none;stroke:red;stroke-width:1px;stroke-linecap:butt;stroke-linejoin:miter;stroke-opacity:1" d="M 12.2805,192.795 13.9366,209.356 z" id="boundary" inkscape:connector-curvature="0" />
	<path style="fill:none;stroke:red;stroke-width:1px;stroke-linecap:butt;stroke-linejoin:miter;stroke-opacity:1" d="M 13.9366,225.917 13.9366,209.356 z" id="boundary" inkscape:connector-curvature="0" />
	<path style="fill:none;stroke:red;stroke-width:1px;stroke-linecap:butt;stroke-linejoin:miter;stroke-opacity:1" d="M 13.9366,242.477 10.6244,268.975 z" id="boundary" inkscape:connector-curvature="0" />
	<path style="fill:none;stroke:red;stroke-width:1px;stroke-linecap:butt;stroke-linejoin:miter;stroke-opacity:1" d="M 13.9366,242.477 13.9366,225.917 z" id="boundary" inkscape:connector-curvature="0" />
	<path style="fill:none;stroke:red;stroke-width:1px;stroke-linecap:butt;stroke-linejoin:miter;stroke-opacity:1" d="M 10.6244,268.975 7.31219,298.785 z" id="boundary" inkscape:connector-curvature="0" />
	<path style="fill:none;stroke:red;stroke-width:1px;stroke-linecap:butt;stroke-linejoin:miter;stroke-opacity:1" d="M 219.292,4 230.885,17.2487 z" id="boundary" inkscape:connector-curvature="0" />
	<path style="fill:none;stroke:red;stroke-width:1px;stroke-linecap:butt;stroke-linejoin:miter;stroke-opacity:1" d="M 240.821,30.4975 230.885,17.2487 z" id="boundary" inkscape:connector-curvature="0" />
	<path style="fill:none;stroke:red;stroke-width:1px;stroke-linecap:butt;stroke-linejoin:miter;stroke-opacity:1" d="M 255.726,38.778 240.821,30.4975 z" id="boundary" inkscape:connector-curvature="0" />
	<path style="fill:none;stroke:red;stroke-width:1px;stroke-linecap:butt;stroke-linejoin:miter;stroke-opacity:1" d="M 272.287,45.4023 255.726,38.778 z" id="boundary" inkscape:connector-curvature="0" />
	<path style="fill:none;stroke:red;stroke-width:1px;stroke-linecap:butt;stroke-linejoin:miter;stroke-opacity:1" d="M 272.287,45.4023 280.568,60.3072 z" id="boundary" inkscape:connector-curvature="0" />
	<path style="fill:none;stroke:red;stroke-width:1px;stroke-linecap:butt;stroke-linejoin:miter;stroke-opacity:1" d="M 297.129,66.9316 280.568,60.3072 z" id="boundary" inkscape:connector-curvature="0" />
	<path style="fill:none;stroke:red;stroke-width:1px;stroke-linecap:butt;stroke-linejoin:miter;stroke-opacity:1" d="M 416.367,128.207 406.431,114.958 z" id="boundary" inkscape:connector-curvature="0" />
	<path style="fill:none;stroke:red;stroke-width:1px;stroke-linecap:butt;stroke-linejoin:miter;stroke-opacity:1" d="M 297.129,66.9316 313.689,70.2437 z" id="boundary" inkscape:connector-curvature="0" />
	<path style="fill:none;stroke:red;stroke-width:1px;stroke-linecap:butt;stroke-linejoin:miter;stroke-opacity:1" d="M 313.689,70.2437 330.25,76.8681 z" id="boundary" inkscape:connector-curvature="0" />
	<path style="fill:none;stroke:red;stroke-width:1px;stroke-linecap:butt;stroke-linejoin:miter;stroke-opacity:1" d="M 346.811,83.4925 330.25,76.8681 z" id="boundary" inkscape:connector-curvature="0" />
	<path style="fill:none;stroke:red;stroke-width:1px;stroke-linecap:butt;stroke-linejoin:miter;stroke-opacity:1" d="M 363.372,86.8047 379.933,93.429 z" id="boundary" inkscape:connector-curvature="0" />
	<path style="fill:none;stroke:red;stroke-width:1px;stroke-linecap:butt;stroke-linejoin:miter;stroke-opacity:1" d="M 379.933,93.429 394.838,101.71 z" id="boundary" inkscape:connector-curvature="0" />
	<path style="fill:none;stroke:red;stroke-width:1px;stroke-linecap:butt;stroke-linejoin:miter;stroke-opacity:1" d="M 406.431,114.958 394.838,101.71 z" id="boundary" inkscape:connector-curvature="0" />
	<path style="fill:none;stroke:red;stroke-width:1px;stroke-linecap:butt;stroke-linejoin:miter;stroke-opacity:1" d="M 346.811,83.4925 363.372,86.8047 z" id="boundary" inkscape:connector-curvature="0" />
	<path style="fill:none;stroke:red;stroke-width:1px;stroke-linecap:butt;stroke-linejoin:miter;stroke-opacity:1" d="M 416.367,146.424 406.431,162.985 z" id="boundary" inkscape:connector-curvature="0" />
	<path style="fill:none;stroke:red;stroke-width:1px;stroke-linecap:butt;stroke-linejoin:miter;stroke-opacity:1" d="M 406.431,162.985 399.806,192.795 z" id="boundary" inkscape:connector-curvature="0" />
	<path style="fill:none;stroke:red;stroke-width:1px;stroke-linecap:butt;stroke-linejoin:miter;stroke-opacity:1" d="M 416.367,128.207 416.367,146.424 z" id="boundary" inkscape:connector-curvature="0" />
	<path style="fill:none;stroke:red;stroke-width:1px;stroke-linecap:butt;stroke-linejoin:miter;stroke-opacity:1" d="M 409.743,206.043 399.806,192.795 z" id="boundary" inkscape:connector-curvature="0" />
	<path style="fill:none;stroke:red;stroke-width:1px;stroke-linecap:butt;stroke-linejoin:miter;stroke-opacity:1" d="M 426.304,206.043 409.743,206.043 z" id="boundary" inkscape:connector-curvature="0" />
	<path style="fill:none;stroke:red;stroke-width:1px;stroke-linecap:butt;stroke-linejoin:miter;stroke-opacity:1" d="M 426.304,206.043 442.865,209.356 z" id="boundary" inkscape:connector-curvature="0" />
	<path style="fill:none;stroke:red;stroke-width:1px;stroke-linecap:butt;stroke-linejoin:miter;stroke-opacity:1" d="M 442.865,209.356 459.426,215.98 z" id="boundary" inkscape:connector-curvature="0" />
	<path style="fill:none;stroke:red;stroke-width:1px;stroke-linecap:butt;stroke-linejoin:miter;stroke-opacity:1" d="M 4,341.843 4,358.404 z" id="boundary" inkscape:connector-curvature="0" />
	<path style="fill:none;stroke:red;stroke-width:1px;stroke-linecap:butt;stroke-linejoin:miter;stroke-opacity:1" d="M 4,374.965 4,358.404 z" id="boundary" inkscape:connector-curvature="0" />
	<path style="fill:none;stroke:red;stroke-width:1px;stroke-linecap:butt;stroke-linejoin:miter;stroke-opacity:1" d="M 4,341.843 4,325.282 z" id="boundary" inkscape:connector-curvature="0" />
	<path style="fill:none;stroke:red;stroke-width:1px;stroke-linecap:butt;stroke-linejoin:miter;stroke-opacity:1" d="M 4,391.526 4,374.965 z" id="boundary" inkscape:connector-curvature="0" />
	<path style="fill:none;stroke:red;stroke-width:1px;stroke-linecap:butt;stroke-linejoin:miter;stroke-opacity:1" d="M 4,325.282 7.31219,298.785 z" id="boundary" inkscape:connector-curvature="0" />
	<path style="fill:none;stroke:red;stroke-width:1px;stroke-linecap:butt;stroke-linejoin:miter;stroke-opacity:1" d="M 4,408.087 4,424.648 z" id="boundary" inkscape:connector-curvature="0" />
	<path style="fill:none;stroke:red;stroke-width:1px;stroke-linecap:butt;stroke-linejoin:miter;stroke-opacity:1" d="M 4,441.209 4,424.648 z" id="boundary" inkscape:connector-curvature="0" />
	<path style="fill:none;stroke:red;stroke-width:1px;stroke-linecap:butt;stroke-linejoin:miter;stroke-opacity:1" d="M 65.2755,446.177 48.7145,446.177 z" id="boundary" inkscape:connector-curvature="0" />
	<path style="fill:none;stroke:red;stroke-width:1px;stroke-linecap:butt;stroke-linejoin:miter;stroke-opacity:1" d="M 4,408.087 4,391.526 z" id="boundary" inkscape:connector-curvature="0" />
	<path style="fill:none;stroke:red;stroke-width:1px;stroke-linecap:butt;stroke-linejoin:miter;stroke-opacity:1" d="M 48.7145,446.177 32.1536,447.833 z" id="boundary" inkscape:connector-curvature="0" />
	<path style="fill:none;stroke:red;stroke-width:1px;stroke-linecap:butt;stroke-linejoin:miter;stroke-opacity:1" d="M 197.763,446.177 181.202,446.177 z" id="boundary" inkscape:connector-curvature="0" />
	<path style="fill:none;stroke:red;stroke-width:1px;stroke-linecap:butt;stroke-linejoin:miter;stroke-opacity:1" d="M 98.3973,446.177 81.8364,446.177 z" id="boundary" inkscape:connector-curvature="0" />
	<path style="fill:none;stroke:red;stroke-width:1px;stroke-linecap:butt;stroke-linejoin:miter;stroke-opacity:1" d="M 65.2755,446.177 81.8364,446.177 z" id="boundary" inkscape:connector-curvature="0" />
	<path style="fill:none;stroke:red;stroke-width:1px;stroke-linecap:butt;stroke-linejoin:miter;stroke-opacity:1" d="M 98.3973,446.177 114.958,446.177 z" id="boundary" inkscape:connector-curvature="0" />
	<path style="fill:none;stroke:red;stroke-width:1px;stroke-linecap:butt;stroke-linejoin:miter;stroke-opacity:1" d="M 131.519,446.177 114.958,446.177 z" id="boundary" inkscape:connector-curvature="0" />
	<path style="fill:none;stroke:red;stroke-width:1px;stroke-linecap:butt;stroke-linejoin:miter;stroke-opacity:1" d="M 7.31219,474.331 7.31219,457.77 z" id="boundary" inkscape:connector-curvature="0" />
	<path style="fill:none;stroke:red;stroke-width:1px;stroke-linecap:butt;stroke-linejoin:miter;stroke-opacity:1" d="M 4,441.209 7.31219,457.77 z" id="boundary" inkscape:connector-curvature="0" />
	<path style="fill:none;stroke:red;stroke-width:1px;stroke-linecap:butt;stroke-linejoin:miter;stroke-opacity:1" d="M 10.6244,490.891 10.6244,507.452 z" id="boundary" inkscape:connector-curvature="0" />
	<path style="fill:none;stroke:red;stroke-width:1px;stroke-linecap:butt;stroke-linejoin:miter;stroke-opacity:1" d="M 7.31219,474.331 10.6244,490.891 z" id="boundary" inkscape:connector-curvature="0" />
	<path style="fill:none;stroke:red;stroke-width:1px;stroke-linecap:butt;stroke-linejoin:miter;stroke-opacity:1" d="M 10.6244,490.891 28.8414,494.204 z" id="boundary" inkscape:connector-curvature="0" />
	<path style="fill:none;stroke:red;stroke-width:1px;stroke-linecap:butt;stroke-linejoin:miter;stroke-opacity:1" d="M 27.1853,512.421 10.6244,507.452 z" id="boundary" inkscape:connector-curvature="0" />
	<path style="fill:none;stroke:red;stroke-width:1px;stroke-linecap:butt;stroke-linejoin:miter;stroke-opacity:1" d="M 28.8414,494.204 27.1853,512.421 z" id="boundary" inkscape:connector-curvature="0" />
	<path style="fill:none;stroke:red;stroke-width:1px;stroke-linecap:butt;stroke-linejoin:miter;stroke-opacity:1" d="M 32.1536,447.833 32.1536,464.394 z" id="boundary" inkscape:connector-curvature="0" />
	<path style="fill:none;stroke:red;stroke-width:1px;stroke-linecap:butt;stroke-linejoin:miter;stroke-opacity:1" d="M 148.08,446.177 131.519,446.177 z" id="boundary" inkscape:connector-curvature="0" />
	<path style="fill:none;stroke:red;stroke-width:1px;stroke-linecap:butt;stroke-linejoin:miter;stroke-opacity:1" d="M 148.08,446.177 164.641,446.177 z" id="boundary" inkscape:connector-curvature="0" />
	<path style="fill:none;stroke:red;stroke-width:1px;stroke-linecap:butt;stroke-linejoin:miter;stroke-opacity:1" d="M 181.202,446.177 164.641,446.177 z" id="boundary" inkscape:connector-curvature="0" />
	<path style="fill:none;stroke:red;stroke-width:1px;stroke-linecap:butt;stroke-linejoin:miter;stroke-opacity:1" d="M 214.324,446.177 197.763,446.177 z" id="boundary" inkscape:connector-curvature="0" />
	<path style="fill:none;stroke:red;stroke-width:1px;stroke-linecap:butt;stroke-linejoin:miter;stroke-opacity:1" d="M 214.324,446.177 230.885,446.177 z" id="boundary" inkscape:connector-curvature="0" />
	<path style="fill:none;stroke:red;stroke-width:1px;stroke-linecap:butt;stroke-linejoin:miter;stroke-opacity:1" d="M 247.446,446.177 230.885,446.177 z" id="boundary" inkscape:connector-curvature="0" />
	<path style="fill:none;stroke:red;stroke-width:1px;stroke-linecap:butt;stroke-linejoin:miter;stroke-opacity:1" d="M 247.446,446.177 264.007,446.177 z" id="boundary" inkscape:connector-curvature="0" />
	<path style="fill:none;stroke:red;stroke-width:1px;stroke-linecap:butt;stroke-linejoin:miter;stroke-opacity:1" d="M 280.568,446.177 297.129,446.177 z" id="boundary" inkscape:connector-curvature="0" />
	<path style="fill:none;stroke:red;stroke-width:1px;stroke-linecap:butt;stroke-linejoin:miter;stroke-opacity:1" d="M 280.568,446.177 264.007,446.177 z" id="boundary" inkscape:connector-curvature="0" />
	<path style="fill:none;stroke:red;stroke-width:1px;stroke-linecap:butt;stroke-linejoin:miter;stroke-opacity:1" d="M 313.689,446.177 330.25,446.177 z" id="boundary" inkscape:connector-curvature="0" />
	<path style="fill:none;stroke:red;stroke-width:1px;stroke-linecap:butt;stroke-linejoin:miter;stroke-opacity:1" d="M 346.811,446.177 363.372,446.177 z" id="boundary" inkscape:connector-curvature="0" />
	<path style="fill:none;stroke:red;stroke-width:1px;stroke-linecap:butt;stroke-linejoin:miter;stroke-opacity:1" d="M 346.811,446.177 330.25,446.177 z" id="boundary" inkscape:connector-curvature="0" />
	<path style="fill:none;stroke:red;stroke-width:1px;stroke-linecap:butt;stroke-linejoin:miter;stroke-opacity:1" d="M 313.689,446.177 297.129,446.177 z" id="boundary" inkscape:connector-curvature="0" />
	<path style="fill:none;stroke:red;stroke-width:1px;stroke-linecap:butt;stroke-linejoin:miter;stroke-opacity:1" d="M 389.87,459.426 379.933,446.177 z" id="boundary" inkscape:connector-curvature="0" />
	<path style="fill:none;stroke:red;stroke-width:1px;stroke-linecap:butt;stroke-linejoin:miter;stroke-opacity:1" d="M 411.399,446.177 427.96,446.177 z" id="boundary" inkscape:connector-curvature="0" />
	<path style="fill:none;stroke:red;stroke-width:1px;stroke-linecap:butt;stroke-linejoin:miter;stroke-opacity:1" d="M 363.372,446.177 379.933,446.177 z" id="boundary" inkscape:connector-curvature="0" />
	<path style="fill:none;stroke:red;stroke-width:1px;stroke-linecap:butt;stroke-linejoin:miter;stroke-opacity:1" d="M 444.521,446.177 427.96,446.177 z" id="boundary" inkscape:connector-curvature="0" />
	<path style="fill:none;stroke:red;stroke-width:1px;stroke-linecap:butt;stroke-linejoin:miter;stroke-opacity:1" d="M 444.521,446.177 461.082,446.177 z" id="boundary" inkscape:connector-curvature="0" />
	<path style="fill:none;stroke:red;stroke-width:1px;stroke-linecap:butt;stroke-linejoin:miter;stroke-opacity:1" d="M 413.055,462.738 411.399,446.177 z" id="boundary" inkscape:connector-curvature="0" />
	<path style="fill:none;stroke:red;stroke-width:1px;stroke-linecap:butt;stroke-linejoin:miter;stroke-opacity:1" d="M 389.87,459.426 394.838,475.987 z" id="boundary" inkscape:connector-curvature="0" />
	<path style="fill:none;stroke:red;stroke-width:1px;stroke-linecap:butt;stroke-linejoin:miter;stroke-opacity:1" d="M 394.838,475.987 394.838,492.548 z" id="boundary" inkscape:connector-curvature="0" />
	<path style="fill:none;stroke:red;stroke-width:1px;stroke-linecap:butt;stroke-linejoin:miter;stroke-opacity:1" d="M 411.399,512.421 394.838,509.109 z" id="boundary" inkscape:connector-curvature="0" />
	<path style="fill:none;stroke:red;stroke-width:1px;stroke-linecap:butt;stroke-linejoin:miter;stroke-opacity:1" d="M 394.838,509.109 394.838,492.548 z" id="boundary" inkscape:connector-curvature="0" />
	<path style="fill:none;stroke:red;stroke-width:1px;stroke-linecap:butt;stroke-linejoin:miter;stroke-opacity:1" d="M 411.399,489.235 411.399,512.421 z" id="boundary" inkscape:connector-curvature="0" />
	<path style="fill:none;stroke:red;stroke-width:1px;stroke-linecap:butt;stroke-linejoin:miter;stroke-opacity:1" d="M 472.674,225.917 485.923,235.853 z" id="boundary" inkscape:connector-curvature="0" />
	<path style="fill:none;stroke:red;stroke-width:1px;stroke-linecap:butt;stroke-linejoin:miter;stroke-opacity:1" d="M 472.674,225.917 459.426,215.98 z" id="boundary" inkscape:connector-curvature="0" />
	<path style="fill:none;stroke:red;stroke-width:1px;stroke-linecap:butt;stroke-linejoin:miter;stroke-opacity:1" d="M 485.923,235.853 499.172,245.79 z" id="boundary" inkscape:connector-curvature="0" />
	<path style="fill:none;stroke:red;stroke-width:1px;stroke-linecap:butt;stroke-linejoin:miter;stroke-opacity:1" d="M 512.421,255.726 499.172,245.79 z" id="boundary" inkscape:connector-curvature="0" />
	<path style="fill:none;stroke:red;stroke-width:1px;stroke-linecap:butt;stroke-linejoin:miter;stroke-opacity:1" d="M 692.935,259.038 706.184,249.102 z" id="boundary" inkscape:connector-curvature="0" />
	<path style="fill:none;stroke:red;stroke-width:1px;stroke-linecap:butt;stroke-linejoin:miter;stroke-opacity:1" d="M 722.745,242.477 706.184,249.102 z" id="boundary" inkscape:connector-curvature="0" />
	<path style="fill:none;stroke:red;stroke-width:1px;stroke-linecap:butt;stroke-linejoin:miter;stroke-opacity:1" d="M 735.993,232.541 722.745,242.477 z" id="boundary" inkscape:connector-curvature="0" />
	<path style="fill:none;stroke:red;stroke-width:1px;stroke-linecap:butt;stroke-linejoin:miter;stroke-opacity:1" d="M 512.421,255.726 522.357,268.975 z" id="boundary" inkscape:connector-curvature="0" />
	<path style="fill:none;stroke:red;stroke-width:1px;stroke-linecap:butt;stroke-linejoin:miter;stroke-opacity:1" d="M 543.886,295.472 533.95,282.224 z" id="boundary" inkscape:connector-curvature="0" />
	<path style="fill:none;stroke:red;stroke-width:1px;stroke-linecap:butt;stroke-linejoin:miter;stroke-opacity:1" d="M 533.95,282.224 522.357,268.975 z" id="boundary" inkscape:connector-curvature="0" />
	<path style="fill:none;stroke:red;stroke-width:1px;stroke-linecap:butt;stroke-linejoin:miter;stroke-opacity:1" d="M 593.569,278.912 577.008,282.224 z" id="boundary" inkscape:connector-curvature="0" />
	<path style="fill:none;stroke:red;stroke-width:1px;stroke-linecap:butt;stroke-linejoin:miter;stroke-opacity:1" d="M 560.447,288.848 577.008,282.224 z" id="boundary" inkscape:connector-curvature="0" />
	<path style="fill:none;stroke:red;stroke-width:1px;stroke-linecap:butt;stroke-linejoin:miter;stroke-opacity:1" d="M 560.447,288.848 543.886,295.472 z" id="boundary" inkscape:connector-curvature="0" />
	<path style="fill:none;stroke:red;stroke-width:1px;stroke-linecap:butt;stroke-linejoin:miter;stroke-opacity:1" d="M 626.691,268.975 643.252,268.975 z" id="boundary" inkscape:connector-curvature="0" />
	<path style="fill:none;stroke:red;stroke-width:1px;stroke-linecap:butt;stroke-linejoin:miter;stroke-opacity:1" d="M 610.13,272.287 626.691,268.975 z" id="boundary" inkscape:connector-curvature="0" />
	<path style="fill:none;stroke:red;stroke-width:1px;stroke-linecap:butt;stroke-linejoin:miter;stroke-opacity:1" d="M 610.13,272.287 593.569,278.912 z" id="boundary" inkscape:connector-curvature="0" />
	<path style="fill:none;stroke:red;stroke-width:1px;stroke-linecap:butt;stroke-linejoin:miter;stroke-opacity:1" d="M 676.374,265.663 659.813,265.663 z" id="boundary" inkscape:connector-curvature="0" />
	<path style="fill:none;stroke:red;stroke-width:1px;stroke-linecap:butt;stroke-linejoin:miter;stroke-opacity:1" d="M 643.252,268.975 659.813,265.663 z" id="boundary" inkscape:connector-curvature="0" />
	<path style="fill:none;stroke:red;stroke-width:1px;stroke-linecap:butt;stroke-linejoin:miter;stroke-opacity:1" d="M 676.374,265.663 692.935,259.038 z" id="boundary" inkscape:connector-curvature="0" />
	<path style="fill:none;stroke:red;stroke-width:1px;stroke-linecap:butt;stroke-linejoin:miter;stroke-opacity:1" d="M 735.993,232.541 750.898,224.26 z" id="boundary" inkscape:connector-curvature="0" />
	<path style="fill:none;stroke:red;stroke-width:1px;stroke-linecap:butt;stroke-linejoin:miter;stroke-opacity:1" d="M 767.459,222.604 750.898,224.26 z" id="boundary" inkscape:connector-curvature="0" />
	<path style="fill:none;stroke:red;stroke-width:1px;stroke-linecap:butt;stroke-linejoin:miter;stroke-opacity:1" d="M 780.708,232.541 767.459,222.604 z" id="boundary" inkscape:connector-curvature="0" />
	<path style="fill:none;stroke:red;stroke-width:1px;stroke-linecap:butt;stroke-linejoin:miter;stroke-opacity:1" d="M 795.613,240.821 780.708,232.541 z" id="boundary" inkscape:connector-curvature="0" />
	<path style="fill:none;stroke:red;stroke-width:1px;stroke-linecap:butt;stroke-linejoin:miter;stroke-opacity:1" d="M 873.449,268.975 856.888,265.663 z" id="boundary" inkscape:connector-curvature="0" />
	<path style="fill:none;stroke:red;stroke-width:1px;stroke-linecap:butt;stroke-linejoin:miter;stroke-opacity:1" d="M 795.613,240.821 810.518,249.102 z" id="boundary" inkscape:connector-curvature="0" />
	<path style="fill:none;stroke:red;stroke-width:1px;stroke-linecap:butt;stroke-linejoin:miter;stroke-opacity:1" d="M 823.766,259.038 810.518,249.102 z" id="boundary" inkscape:connector-curvature="0" />
	<path style="fill:none;stroke:red;stroke-width:1px;stroke-linecap:butt;stroke-linejoin:miter;stroke-opacity:1" d="M 823.766,259.038 840.327,265.663 z" id="boundary" inkscape:connector-curvature="0" />
	<path style="fill:none;stroke:red;stroke-width:1px;stroke-linecap:butt;stroke-linejoin:miter;stroke-opacity:1" d="M 856.888,265.663 840.327,265.663 z" id="boundary" inkscape:connector-curvature="0" />
	<path style="fill:none;stroke:red;stroke-width:1px;stroke-linecap:butt;stroke-linejoin:miter;stroke-opacity:1" d="M 906.571,272.287 890.01,268.975 z" id="boundary" inkscape:connector-curvature="0" />
	<path style="fill:none;stroke:red;stroke-width:1px;stroke-linecap:butt;stroke-linejoin:miter;stroke-opacity:1" d="M 873.449,268.975 890.01,268.975 z" id="boundary" inkscape:connector-curvature="0" />
	<path style="fill:none;stroke:red;stroke-width:1px;stroke-linecap:butt;stroke-linejoin:miter;stroke-opacity:1" d="M 939.693,282.224 923.132,275.599 z" id="boundary" inkscape:connector-curvature="0" />
	<path style="fill:none;stroke:red;stroke-width:1px;stroke-linecap:butt;stroke-linejoin:miter;stroke-opacity:1" d="M 923.132,275.599 906.571,272.287 z" id="boundary" inkscape:connector-curvature="0" />
	<path style="fill:none;stroke:red;stroke-width:1px;stroke-linecap:butt;stroke-linejoin:miter;stroke-opacity:1" d="M 939.693,282.224 956.254,285.536 z" id="boundary" inkscape:connector-curvature="0" />
	<path style="fill:none;stroke:red;stroke-width:1px;stroke-linecap:butt;stroke-linejoin:miter;stroke-opacity:1" d="M 956.254,285.536 969.503,295.472 z" id="boundary" inkscape:connector-curvature="0" />
	<path style="fill:none;stroke:red;stroke-width:1px;stroke-linecap:butt;stroke-linejoin:miter;stroke-opacity:1" d="M 969.503,295.472 984.407,303.753 z" id="boundary" inkscape:connector-curvature="0" />
	<path style="fill:none;stroke:red;stroke-width:1px;stroke-linecap:butt;stroke-linejoin:miter;stroke-opacity:1" d="M 996,317.002 992.688,341.843 z" id="boundary" inkscape:connector-curvature="0" />
	<path style="fill:none;stroke:red;stroke-width:1px;stroke-linecap:butt;stroke-linejoin:miter;stroke-opacity:1" d="M 984.407,303.753 996,317.002 z" id="boundary" inkscape:connector-curvature="0" />
	<path style="fill:none;stroke:red;stroke-width:1px;stroke-linecap:butt;stroke-linejoin:miter;stroke-opacity:1" d="M 982.751,355.092 992.688,341.843 z" id="boundary" inkscape:connector-curvature="0" />
	<path style="fill:none;stroke:red;stroke-width:1px;stroke-linecap:butt;stroke-linejoin:miter;stroke-opacity:1" d="M 982.751,355.092 979.439,381.589 z" id="boundary" inkscape:connector-curvature="0" />
	<path style="fill:none;stroke:red;stroke-width:1px;stroke-linecap:butt;stroke-linejoin:miter;stroke-opacity:1" d="M 477.643,446.177 461.082,446.177 z" id="boundary" inkscape:connector-curvature="0" />
	<path style="fill:none;stroke:red;stroke-width:1px;stroke-linecap:butt;stroke-linejoin:miter;stroke-opacity:1" d="M 494.204,446.177 477.643,446.177 z" id="boundary" inkscape:connector-curvature="0" />
	<path style="fill:none;stroke:red;stroke-width:1px;stroke-linecap:butt;stroke-linejoin:miter;stroke-opacity:1" d="M 527.326,446.177 510.765,446.177 z" id="boundary" inkscape:connector-curvature="0" />
	<path style="fill:none;stroke:red;stroke-width:1px;stroke-linecap:butt;stroke-linejoin:miter;stroke-opacity:1" d="M 510.765,446.177 494.204,446.177 z" id="boundary" inkscape:connector-curvature="0" />
	<path style="fill:none;stroke:red;stroke-width:1px;stroke-linecap:butt;stroke-linejoin:miter;stroke-opacity:1" d="M 527.326,446.177 533.95,462.738 z" id="boundary" inkscape:connector-curvature="0" />
	<path style="fill:none;stroke:red;stroke-width:1px;stroke-linecap:butt;stroke-linejoin:miter;stroke-opacity:1" d="M 533.95,462.738 533.95,479.299 z" id="boundary" inkscape:connector-curvature="0" />
	<path style="fill:none;stroke:red;stroke-width:1px;stroke-linecap:butt;stroke-linejoin:miter;stroke-opacity:1" d="M 581.977,456.114 565.416,457.77 z" id="boundary" inkscape:connector-curvature="0" />
	<path style="fill:none;stroke:red;stroke-width:1px;stroke-linecap:butt;stroke-linejoin:miter;stroke-opacity:1" d="M 598.538,459.426 581.977,456.114 z" id="boundary" inkscape:connector-curvature="0" />
	<path style="fill:none;stroke:red;stroke-width:1px;stroke-linecap:butt;stroke-linejoin:miter;stroke-opacity:1" d="M 678.03,456.114 661.469,452.801 z" id="boundary" inkscape:connector-curvature="0" />
	<path style="fill:none;stroke:red;stroke-width:1px;stroke-linecap:butt;stroke-linejoin:miter;stroke-opacity:1" d="M 615.098,462.738 598.538,459.426 z" id="boundary" inkscape:connector-curvature="0" />
	<path style="fill:none;stroke:red;stroke-width:1px;stroke-linecap:butt;stroke-linejoin:miter;stroke-opacity:1" d="M 644.908,456.114 631.659,467.706 z" id="boundary" inkscape:connector-curvature="0" />
	<path style="fill:none;stroke:red;stroke-width:1px;stroke-linecap:butt;stroke-linejoin:miter;stroke-opacity:1" d="M 631.659,467.706 615.098,462.738 z" id="boundary" inkscape:connector-curvature="0" />
	<path style="fill:none;stroke:red;stroke-width:1px;stroke-linecap:butt;stroke-linejoin:miter;stroke-opacity:1" d="M 678.03,456.114 694.591,462.738 z" id="boundary" inkscape:connector-curvature="0" />
	<path style="fill:none;stroke:red;stroke-width:1px;stroke-linecap:butt;stroke-linejoin:miter;stroke-opacity:1" d="M 709.496,471.018 694.591,462.738 z" id="boundary" inkscape:connector-curvature="0" />
	<path style="fill:none;stroke:red;stroke-width:1px;stroke-linecap:butt;stroke-linejoin:miter;stroke-opacity:1" d="M 644.908,456.114 661.469,452.801 z" id="boundary" inkscape:connector-curvature="0" />
	<path style="fill:none;stroke:red;stroke-width:1px;stroke-linecap:butt;stroke-linejoin:miter;stroke-opacity:1" d="M 724.401,479.299 709.496,471.018 z" id="boundary" inkscape:connector-curvature="0" />
	<path style="fill:none;stroke:red;stroke-width:1px;stroke-linecap:butt;stroke-linejoin:miter;stroke-opacity:1" d="M 533.95,479.299 537.262,495.86 z" id="boundary" inkscape:connector-curvature="0" />
	<path style="fill:none;stroke:red;stroke-width:1px;stroke-linecap:butt;stroke-linejoin:miter;stroke-opacity:1" d="M 537.262,495.86 540.574,512.421 z" id="boundary" inkscape:connector-curvature="0" />
	<path style="fill:none;stroke:red;stroke-width:1px;stroke-linecap:butt;stroke-linejoin:miter;stroke-opacity:1" d="M 557.135,512.421 540.574,512.421 z" id="boundary" inkscape:connector-curvature="0" />
	<path style="fill:none;stroke:red;stroke-width:1px;stroke-linecap:butt;stroke-linejoin:miter;stroke-opacity:1" d="M 562.104,487.579 557.135,512.421 z" id="boundary" inkscape:connector-curvature="0" />
	<path style="fill:none;stroke:red;stroke-width:1px;stroke-linecap:butt;stroke-linejoin:miter;stroke-opacity:1" d="M 740.962,482.611 724.401,479.299 z" id="boundary" inkscape:connector-curvature="0" />
	<path style="fill:none;stroke:red;stroke-width:1px;stroke-linecap:butt;stroke-linejoin:miter;stroke-opacity:1" d="M 757.523,485.923 740.962,482.611 z" id="boundary" inkscape:connector-curvature="0" />
	<path style="fill:none;stroke:red;stroke-width:1px;stroke-linecap:butt;stroke-linejoin:miter;stroke-opacity:1" d="M 855.232,452.801 838.671,459.426 z" id="boundary" inkscape:connector-curvature="0" />
	<path style="fill:none;stroke:red;stroke-width:1px;stroke-linecap:butt;stroke-linejoin:miter;stroke-opacity:1" d="M 871.793,452.801 855.232,452.801 z" id="boundary" inkscape:connector-curvature="0" />
	<path style="fill:none;stroke:red;stroke-width:1px;stroke-linecap:butt;stroke-linejoin:miter;stroke-opacity:1" d="M 838.671,459.426 822.11,466.05 z" id="boundary" inkscape:connector-curvature="0" />
	<path style="fill:none;stroke:red;stroke-width:1px;stroke-linecap:butt;stroke-linejoin:miter;stroke-opacity:1" d="M 936.381,456.114 919.82,459.426 z" id="boundary" inkscape:connector-curvature="0" />
	<path style="fill:none;stroke:red;stroke-width:1px;stroke-linecap:butt;stroke-linejoin:miter;stroke-opacity:1" d="M 919.82,459.426 903.259,466.05 z" id="boundary" inkscape:connector-curvature="0" />
	<path style="fill:none;stroke:red;stroke-width:1px;stroke-linecap:butt;stroke-linejoin:miter;stroke-opacity:1" d="M 903.259,466.05 886.698,461.082 z" id="boundary" inkscape:connector-curvature="0" />
	<path style="fill:none;stroke:red;stroke-width:1px;stroke-linecap:butt;stroke-linejoin:miter;stroke-opacity:1" d="M 886.698,461.082 871.793,452.801 z" id="boundary" inkscape:connector-curvature="0" />
	<path style="fill:none;stroke:red;stroke-width:1px;stroke-linecap:butt;stroke-linejoin:miter;stroke-opacity:1" d="M 952.942,456.114 936.381,456.114 z" id="boundary" inkscape:connector-curvature="0" />
	<path style="fill:none;stroke:red;stroke-width:1px;stroke-linecap:butt;stroke-linejoin:miter;stroke-opacity:1" d="M 774.083,485.923 757.523,485.923 z" id="boundary" inkscape:connector-curvature="0" />
	<path style="fill:none;stroke:red;stroke-width:1px;stroke-linecap:butt;stroke-linejoin:miter;stroke-opacity:1" d="M 979.439,398.15 979.439,381.589 z" id="boundary" inkscape:connector-curvature="0" />
	<path style="fill:none;stroke:red;stroke-width:1px;stroke-linecap:butt;stroke-linejoin:miter;stroke-opacity:1" d="M 979.439,414.711 979.439,431.272 z" id="boundary" inkscape:connector-curvature="0" />
	<path style="fill:none;stroke:red;stroke-width:1px;stroke-linecap:butt;stroke-linejoin:miter;stroke-opacity:1" d="M 979.439,414.711 979.439,398.15 z" id="boundary" inkscape:connector-curvature="0" />
	<path style="fill:none;stroke:red;stroke-width:1px;stroke-linecap:butt;stroke-linejoin:miter;stroke-opacity:1" d="M 967.846,464.394 952.942,456.114 z" id="boundary" inkscape:connector-curvature="0" />
	<path style="fill:none;stroke:red;stroke-width:1px;stroke-linecap:butt;stroke-linejoin:miter;stroke-opacity:1" d="M 981.095,447.833 979.439,431.272 z" id="boundary" inkscape:connector-curvature="0" />
	<path style="fill:none;stroke:red;stroke-width:1px;stroke-linecap:butt;stroke-linejoin:miter;stroke-opacity:1" d="M 981.095,447.833 987.72,464.394 z" id="boundary" inkscape:connector-curvature="0" />
	<path style="fill:none;stroke:red;stroke-width:1px;stroke-linecap:butt;stroke-linejoin:miter;stroke-opacity:1" d="M 807.205,474.331 822.11,466.05 z" id="boundary" inkscape:connector-curvature="0" />
	<path style="fill:none;stroke:red;stroke-width:1px;stroke-linecap:butt;stroke-linejoin:miter;stroke-opacity:1" d="M 807.205,474.331 790.644,480.955 z" id="boundary" inkscape:connector-curvature="0" />
	<path style="fill:none;stroke:red;stroke-width:1px;stroke-linecap:butt;stroke-linejoin:miter;stroke-opacity:1" d="M 774.083,485.923 790.644,480.955 z" id="boundary" inkscape:connector-curvature="0" />
	<path style="fill:none;stroke:red;stroke-width:1px;stroke-linecap:butt;stroke-linejoin:miter;stroke-opacity:1" d="M 987.72,464.394 984.407,492.548 z" id="boundary" inkscape:connector-curvature="0" />
	<path style="fill:none;stroke:red;stroke-width:1px;stroke-linecap:butt;stroke-linejoin:miter;stroke-opacity:1" d="M 964.534,494.204 967.846,510.765 z" id="boundary" inkscape:connector-curvature="0" />
	<path style="fill:none;stroke:red;stroke-width:1px;stroke-linecap:butt;stroke-linejoin:miter;stroke-opacity:1" d="M 967.846,510.765 984.407,512.421 z" id="boundary" inkscape:connector-curvature="0" />
	<path style="fill:none;stroke:red;stroke-width:1px;stroke-linecap:butt;stroke-linejoin:miter;stroke-opacity:1" d="M 984.407,492.548 984.407,512.421 z" id="boundary" inkscape:connector-curvature="0" />
	<circle cx="4" cy="126.551" r="4" fill="#0" id="circle0"/>
	<circle cx="4" cy="143.112" r="4" fill="#0" id="circle1"/>
	<circle cx="4" cy="325.282" r="4" fill="#0" id="circle2"/>
	<circle cx="4" cy="341.843" r="4" fill="#0" id="circle3"/>
	<circle cx="4" cy="358.404" r="4" fill="#0" id="circle4"/>
	<circle cx="4" cy="374.965" r="4" fill="#0" id="circle5"/>
	<circle cx="4" cy="391.526" r="4" fill="#0" id="circle6"/>
	<circle cx="4" cy="408.087" r="4" fill="#0" id="circle7"/>
	<circle cx="4" cy="424.648" r="4" fill="#0" id="circle8"/>
	<circle cx="4" cy="441.209" r="4" fill="#0" id="circle9"/>
	<circle cx="7.31219" cy="298.785" r="4" fill="#0" id="circle10"/>
	<circle cx="7.31219" cy="457.77" r="4" fill="#0" id="circle11"/>
	<circle cx="7.31219" cy="474.331" r="4" fill="#0" id="circle12"/>
	<circle cx="8.96828" cy="159.673" r="4" fill="#0" id="circle13"/>
	<circle cx="10.6244" cy="176.234" r="4" fill="#0" id="circle14"/>
	<circle cx="10.6244" cy="268.975" r="4" fill="#0" id="circle15"/>
	<circle cx="10.6244" cy="490.891" r="4" fill="#0" id="circle16"/>
	<circle cx="10.6244" cy="507.452" r="4" fill="#0" id="circle17"/>
	<circle cx="12.2805" cy="192.795" r="4" fill="#0" id="circle18"/>
	<circle cx="13.9366" cy="113.302" r="4" fill="#0" id="circle19"/>
	<circle cx="13.9366" cy="209.356" r="4" fill="#0" id="circle20"/>
	<circle cx="13.9366" cy="225.917" r="4" fill="#0" id="circle21"/>
	<circle cx="13.9366" cy="242.477" r="4" fill="#0" id="circle22"/>
	<circle cx="27.1853" cy="103.366" r="4" fill="#0" id="circle23"/>
	<circle cx="27.1853" cy="512.421" r="4" fill="#0" id="circle24"/>
	<circle cx="28.8414" cy="494.204" r="4" fill="#0" id="circle25"/>
	<circle cx="32.1536" cy="447.833" r="4" fill="#0" id="circle26"/>
	<circle cx="32.1536" cy="464.394" r="4" fill="#0" id="circle27"/>
	<circle cx="42.0902" cy="95.0851" r="4" fill="#0" id="circle28"/>
	<circle cx="48.7145" cy="446.177" r="4" fill="#0" id="circle29"/>
	<circle cx="58.6511" cy="90.1169" r="4" fill="#0" id="circle30"/>
	<circle cx="65.2755" cy="446.177" r="4" fill="#0" id="circle31"/>
	<circle cx="75.212" cy="83.4925" r="4" fill="#0" id="circle32"/>
	<circle cx="81.8364" cy="446.177" r="4" fill="#0" id="circle33"/>
	<circle cx="91.773" cy="76.8681" r="4" fill="#0" id="circle34"/>
	<circle cx="98.3973" cy="446.177" r="4" fill="#0" id="circle35"/>
	<circle cx="108.334" cy="71.8998" r="4" fill="#0" id="circle36"/>
	<circle cx="114.958" cy="446.177" r="4" fill="#0" id="circle37"/>
	<circle cx="124.895" cy="66.9316" r="4" fill="#0" id="circle38"/>
	<circle cx="131.519" cy="446.177" r="4" fill="#0" id="circle39"/>
	<circle cx="141.456" cy="63.6194" r="4" fill="#0" id="circle40"/>
	<circle cx="148.08" cy="446.177" r="4" fill="#0" id="circle41"/>
	<circle cx="153.048" cy="50.3706" r="4" fill="#0" id="circle42"/>
	<circle cx="164.641" cy="446.177" r="4" fill="#0" id="circle43"/>
	<circle cx="167.953" cy="42.0902" r="4" fill="#0" id="circle44"/>
	<circle cx="181.202" cy="446.177" r="4" fill="#0" id="circle45"/>
	<circle cx="182.858" cy="33.8097" r="4" fill="#0" id="circle46"/>
	<circle cx="192.795" cy="20.5609" r="4" fill="#0" id="circle47"/>
	<circle cx="197.763" cy="446.177" r="4" fill="#0" id="circle48"/>
	<circle cx="202.731" cy="7.31219" r="4" fill="#0" id="circle49"/>
	<circle cx="214.324" cy="446.177" r="4" fill="#0" id="circle50"/>
	<circle cx="219.292" cy="4" r="4" fill="#0" id="circle51"/>
	<circle cx="230.885" cy="17.2487" r="4" fill="#0" id="circle52"/>
	<circle cx="230.885" cy="446.177" r="4" fill="#0" id="circle53"/>
	<circle cx="240.821" cy="30.4975" r="4" fill="#0" id="circle54"/>
	<circle cx="247.446" cy="446.177" r="4" fill="#0" id="circle55"/>
	<circle cx="255.726" cy="38.778" r="4" fill="#0" id="circle56"/>
	<circle cx="264.007" cy="446.177" r="4" fill="#0" id="circle57"/>
	<circle cx="272.287" cy="45.4023" r="4" fill="#0" id="circle58"/>
	<circle cx="280.568" cy="60.3072" r="4" fill="#0" id="circle59"/>
	<circle cx="280.568" cy="446.177" r="4" fill="#0" id="circle60"/>
	<circle cx="297.129" cy="66.9316" r="4" fill="#0" id="circle61"/>
	<circle cx="297.129" cy="446.177" r="4" fill="#0" id="circle62"/>
	<circle cx="313.689" cy="70.2437" r="4" fill="#0" id="circle63"/>
	<circle cx="313.689" cy="446.177" r="4" fill="#0" id="circle64"/>
	<circle cx="330.25" cy="76.8681" r="4" fill="#0" id="circle65"/>
	<circle cx="330.25" cy="446.177" r="4" fill="#0" id="circle66"/>
	<circle cx="346.811" cy="83.4925" r="4" fill="#0" id="circle67"/>
	<circle cx="346.811" cy="446.177" r="4" fill="#0" id="circle68"/>
	<circle cx="363.372" cy="86.8047" r="4" fill="#0" id="circle69"/>
	<circle cx="363.372" cy="446.177" r="4" fill="#0" id="circle70"/>
	<circle cx="379.933" cy="93.429" r="4" fill="#0" id="circle71"/>
	<circle cx="379.933" cy="446.177" r="4" fill="#0" id="circle72"/>
	<circle cx="389.87" cy="459.426" r="4" fill="#0" id="circle73"/>
	<circle cx="394.838" cy="101.71" r="4" fill="#0" id="circle74"/>
	<circle cx="394.838" cy="475.987" r="4" fill="#0" id="circle75"/>
	<circle cx="394.838" cy="492.548" r="4" fill="#0" id="circle76"/>
	<circle cx="394.838" cy="509.109" r="4" fill="#0" id="circle77"/>
	<circle cx="399.806" cy="192.795" r="4" fill="#0" id="circle78"/>
	<circle cx="406.431" cy="114.958" r="4" fill="#0" id="circle79"/>
	<circle cx="406.431" cy="162.985" r="4" fill="#0" id="circle80"/>
	<circle cx="409.743" cy="206.043" r="4" fill="#0" id="circle81"/>
	<circle cx="411.399" cy="446.177" r="4" fill="#0" id="circle82"/>
	<circle cx="411.399" cy="489.235" r="4" fill="#0" id="circle83"/>
	<circle cx="411.399" cy="512.421" r="4" fill="#0" id="circle84"/>
	<circle cx="413.055" cy="462.738" r="4" fill="#0" id="circle85"/>
	<circle cx="416.367" cy="128.207" r="4" fill="#0" id="circle86"/>
	<circle cx="416.367" cy="146.424" r="4" fill="#0" id="circle87"/>
	<circle cx="426.304" cy="206.043" r="4" fill="#0" id="circle88"/>
	<circle cx="427.96" cy="446.177" r="4" fill="#0" id="circle89"/>
	<circle cx="442.865" cy="209.356" r="4" fill="#0" id="circle90"/>
	<circle cx="444.521" cy="446.177" r="4" fill="#0" id="circle91"/>
	<circle cx="459.426" cy="215.98" r="4" fill="#0" id="circle92"/>
	<circle cx="461.082" cy="446.177" r="4" fill="#0" id="circle93"/>
	<circle cx="472.674" cy="225.917" r="4" fill="#0" id="circle94"/>
	<circle cx="477.643" cy="446.177" r="4" fill="#0" id="circle95"/>
	<circle cx="485.923" cy="235.853" r="4" fill="#0" id="circle96"/>
	<circle cx="494.204" cy="446.177" r="4" fill="#0" id="circle97"/>
	<circle cx="499.172" cy="245.79" r="4" fill="#0" id="circle98"/>
	<circle cx="510.765" cy="446.177" r="4" fill="#0" id="circle99"/>
	<circle cx="512.421" cy="255.726" r="4" fill="#0" id="circle100"/>
	<circle cx="522.357" cy="268.975" r="4" fill="#0" id="circle101"/>
	<circle cx="527.326" cy="446.177" r="4" fill="#0" id="circle102"/>
	<circle cx="533.95" cy="282.224" r="4" fill="#0" id="circle103"/>
	<circle cx="533.95" cy="462.738" r="4" fill="#0" id="circle104"/>
	<circle cx="533.95" cy="479.299" r="4" fill="#0" id="circle105"/>
	<circle cx="537.262" cy="495.86" r="4" fill="#0" id="circle106"/>
	<circle cx="540.574" cy="512.421" r="4" fill="#0" id="circle107"/>
	<circle cx="543.886" cy="295.472" r="4" fill="#0" id="circle108"/>
	<circle cx="557.135" cy="512.421" r="4" fill="#0" id="circle109"/>
	<circle cx="560.447" cy="288.848" r="4" fill="#0" id="circle110"/>
	<circle cx="562.104" cy="487.579" r="4" fill="#0" id="circle111"/>
	<circle cx="565.416" cy="457.77" r="4" fill="#0" id="circle112"/>
	<circle cx="577.008" cy="282.224" r="4" fill="#0" id="circle113"/>
	<circle cx="581.977" cy="456.114" r="4" fill="#0" id="circle114"/>
	<circle cx="593.569" cy="278.912" r="4" fill="#0" id="circle115"/>
	<circle cx="598.538" cy="459.426" r="4" fill="#0" id="circle116"/>
	<circle cx="610.13" cy="272.287" r="4" fill="#0" id="circle117"/>
	<circle cx="615.098" cy="462.738" r="4" fill="#0" id="circle118"/>
	<circle cx="626.691" cy="268.975" r="4" fill="#0" id="circle119"/>
	<circle cx="631.659" cy="467.706" r="4" fill="#0" id="circle120"/>
	<circle cx="643.252" cy="268.975" r="4" fill="#0" id="circle121"/>
	<circle cx="644.908" cy="456.114" r="4" fill="#0" id="circle122"/>
	<circle cx="659.813" cy="265.663" r="4" fill="#0" id="circle123"/>
	<circle cx="661.469" cy="452.801" r="4" fill="#0" id="circle124"/>
	<circle cx="676.374" cy="265.663" r="4" fill="#0" id="circle125"/>
	<circle cx="678.03" cy="456.114" r="4" fill="#0" id="circle126"/>
	<circle cx="692.935" cy="259.038" r="4" fill="#0" id="circle127"/>
	<circle cx="694.591" cy="462.738" r="4" fill="#0" id="circle128"/>
	<circle cx="706.184" cy="249.102" r="4" fill="#0" id="circle129"/>
	<circle cx="709.496" cy="471.018" r="4" fill="#0" id="circle130"/>
	<circle cx="722.745" cy="242.477" r="4" fill="#0" id="circle131"/>
	<circle cx="724.401" cy="479.299" r="4" fill="#0" id="circle132"/>
	<circle cx="735.993" cy="232.541" r="4" fill="#0" id="circle133"/>
	<circle cx="740.962" cy="482.611" r="4" fill="#0" id="circle134"/>
	<circle cx="750.898" cy="224.26" r="4" fill="#0" id="circle135"/>
	<circle cx="757.523" cy="485.923" r="4" fill="#0" id="circle136"/>
	<circle cx="767.459" cy="222.604" r="4" fill="#0" id="circle137"/>
	<circle cx="774.083" cy="485.923" r="4" fill="#0" id="circle138"/>
	<circle cx="780.708" cy="232.541" r="4" fill="#0" id="circle139"/>
	<circle cx="790.644" cy="480.955" r="4" fill="#0" id="circle140"/>
	<circle cx="795.613" cy="240.821" r="4" fill="#0" id="circle141"/>
	<circle cx="807.205" cy="474.331" r="4" fill="#0" id="circle142"/>
	<circle cx="810.518" cy="249.102" r="4" fill="#0" id="circle143"/>
	<circle cx="822.11" cy="466.05" r="4" fill="#0" id="circle144"/>
	<circle cx="823.766" cy="259.038" r="4" fill="#0" id="circle145"/>
	<circle cx="838.671" cy="459.426" r="4" fill="#0" id="circle146"/>
	<circle cx="840.327" cy="265.663" r="4" fill="#0" id="circle147"/>
	<circle cx="855.232" cy="452.801" r="4" fill="#0" id="circle148"/>
	<circle cx="856.888" cy="265.663" r="4" fill="#0" id="circle149"/>
	<circle cx="871.793" cy="452.801" r="4" fill="#0" id="circle150"/>
	<circle cx="873.449" cy="268.975" r="4" fill="#0" id="circle151"/>
	<circle cx="886.698" cy="461.082" r="4" fill="#0" id="circle152"/>
	<circle cx="890.01" cy="268.975" r="4" fill="#0" id="circle153"/>
	<circle cx="903.259" cy="466.05" r="4" fill="#0" id="circle154"/>
	<circle cx="906.571" cy="272.287" r="4" fill="#0" id="circle155"/>
	<circle cx="919.82" cy="459.426" r="4" fill="#0" id="circle156"/>
	<circle cx="923.132" cy="275.599" r="4" fill="#0" id="circle157"/>
	<circle cx="936.381" cy="456.114" r="4" fill="#0" id="circle158"/>
	<circle cx="939.693" cy="282.224" r="4" fill="#0" id="circle159"/>
	<circle cx="952.942" cy="456.114" r="4" fill="#0" id="circle160"/>
	<circle cx="956.254" cy="285.536" r="4" fill="#0" id="circle161"/>
	<circle cx="964.534" cy="494.204" r="4" fill="#0" id="circle162"/>
	<circle cx="967.846" cy="464.394" r="4" fill="#0" id="circle163"/>
	<circle cx="967.846" cy="510.765" r="4" fill="#0" id="circle164"/>
	<circle cx="969.503" cy="295.472" r="4" fill="#0" id="circle165"/>
	<circle cx="979.439" cy="381.589" r="4" fill="#0" id="circle166"/>
	<circle cx="979.439" cy="398.15" r="4" fill="#0" id="circle167"/>
	<circle cx="979.439" cy="414.711" r="4" fill="#0" id="circle168"/>
	<circle cx="979.439" cy="431.272" r="4" fill="#0" id="circle169"/>
	<circle cx="981.095" cy="447.833" r="4" fill="#0" id="circle170"/>
	<circle cx="982.751" cy="355.092" r="4" fill="#0" id="circle171"/>
	<circle cx="984.407" cy="303.753" r="4" fill="#0" id="circle172"/>
	<circle cx="984.407" cy="492.548" r="4" fill="#0" id="circle173"/>
	<circle cx="984.407" cy="512.421" r="4" fill="#0" id="circle174"/>
	<circle cx="987.72" cy="464.394" r="4" fill="#0" id="circle175"/>
	<circle cx="992.688" cy="341.843" r="4" fill="#0" id="circle176"/>
	<circle cx="996" cy="317.002" r="4" fill="#0" id="circle177"/>
	</g>
</svg>