<?xml version="1.0" encoding="UTF-8" standalone="no"?>
<!-- Created with CurveBenchmark -->
<svg
	xmlns:dc="http://purl.org/dc/elements/1.1/"
	xmlns:cc="http://creativecommons.org/ns#"
	xmlns:rdf="http://www.w3.org/1999/02/22-rdf-syntax-ns#"
	xmlns:svg="http://www.w3.org/2000/svg"
	xmlns="http://www.w3.org/2000/svg"
	xmlns:sodipodi="http://sodipodi.sourceforge.net/DTD/sodipodi-0.dtd"
	xmlns:inkscape="http://www.inkscape.org/namespaces/inkscape"
	width="1000"
	height="1000"
	id="svg2"
	version="1.1"
	sodipodi:docname="manifold/crust-apple-2.png.txt">
<defs
	id="defs4" />
<metadata
	id="metadata7">
	<rdf:RDF>
		<cc:Work
			rdf:about="">
			<dc:format>image/svg+xml</dc:format>
			<dc:type
				rdf:resource="http://purl.org/dc/dcmitype/StillImage" />
			<dc:title></dc:title>
		</cc:Work>
	</rdf:RDF>
</metadata>
<g
	inkscape:label="Layer 1"
	inkscape:groupmode="layer"
	id="layer1">
	<path style="fill:none;stroke:red;stroke-width:1px;stroke-linecap:butt;stroke-linejoin:miter;stroke-opacity:1" d="M 145.321,210.475 151.745,203.134 z" id="boundary" inkscape:connector-curvature="0" />
	<path style="fill:none;stroke:red;stroke-width:1px;stroke-linecap:butt;stroke-linejoin:miter;stroke-opacity:1" d="M 145.321,210.475 137.98,216.899 z" id="boundary" inkscape:connector-curvature="0" />
	<path style="fill:none;stroke:red;stroke-width:1px;stroke-linecap:butt;stroke-linejoin:miter;stroke-opacity:1" d="M 159.086,196.71 151.745,203.134 z" id="boundary" inkscape:connector-curvature="0" />
	<path style="fill:none;stroke:red;stroke-width:1px;stroke-linecap:butt;stroke-linejoin:miter;stroke-opacity:1" d="M 198.546,169.18 190.287,173.769 z" id="boundary" inkscape:connector-curvature="0" />
	<path style="fill:none;stroke:red;stroke-width:1px;stroke-linecap:butt;stroke-linejoin:miter;stroke-opacity:1" d="M 198.546,169.18 205.887,162.757 z" id="boundary" inkscape:connector-curvature="0" />
	<path style="fill:none;stroke:red;stroke-width:1px;stroke-linecap:butt;stroke-linejoin:miter;stroke-opacity:1" d="M 215.064,158.168 205.887,162.757 z" id="boundary" inkscape:connector-curvature="0" />
	<path style="fill:none;stroke:red;stroke-width:1px;stroke-linecap:butt;stroke-linejoin:miter;stroke-opacity:1" d="M 182.028,178.357 190.287,173.769 z" id="boundary" inkscape:connector-curvature="0" />
	<path style="fill:none;stroke:red;stroke-width:1px;stroke-linecap:butt;stroke-linejoin:miter;stroke-opacity:1" d="M 167.345,192.122 159.086,196.71 z" id="boundary" inkscape:connector-curvature="0" />
	<path style="fill:none;stroke:red;stroke-width:1px;stroke-linecap:butt;stroke-linejoin:miter;stroke-opacity:1" d="M 174.686,184.781 182.028,178.357 z" id="boundary" inkscape:connector-curvature="0" />
	<path style="fill:none;stroke:red;stroke-width:1px;stroke-linecap:butt;stroke-linejoin:miter;stroke-opacity:1" d="M 174.686,184.781 167.345,192.122 z" id="boundary" inkscape:connector-curvature="0" />
	<path style="fill:none;stroke:red;stroke-width:1px;stroke-linecap:butt;stroke-linejoin:miter;stroke-opacity:1" d="M 294.901,119.626 285.724,123.297 z" id="boundary" inkscape:connector-curvature="0" />
	<path style="fill:none;stroke:red;stroke-width:1px;stroke-linecap:butt;stroke-linejoin:miter;stroke-opacity:1" d="M 285.724,123.297 277.465,127.885 z" id="boundary" inkscape:connector-curvature="0" />
	<path style="fill:none;stroke:red;stroke-width:1px;stroke-linecap:butt;stroke-linejoin:miter;stroke-opacity:1" d="M 304.078,118.709 294.901,119.626 z" id="boundary" inkscape:connector-curvature="0" />
	<path style="fill:none;stroke:red;stroke-width:1px;stroke-linecap:butt;stroke-linejoin:miter;stroke-opacity:1" d="M 312.337,114.12 304.078,118.709 z" id="boundary" inkscape:connector-curvature="0" />
	<path style="fill:none;stroke:red;stroke-width:1px;stroke-linecap:butt;stroke-linejoin:miter;stroke-opacity:1" d="M 222.405,150.827 231.582,146.239 z" id="boundary" inkscape:connector-curvature="0" />
	<path style="fill:none;stroke:red;stroke-width:1px;stroke-linecap:butt;stroke-linejoin:miter;stroke-opacity:1" d="M 240.759,141.65 231.582,146.239 z" id="boundary" inkscape:connector-curvature="0" />
	<path style="fill:none;stroke:red;stroke-width:1px;stroke-linecap:butt;stroke-linejoin:miter;stroke-opacity:1" d="M 215.064,158.168 222.405,150.827 z" id="boundary" inkscape:connector-curvature="0" />
	<path style="fill:none;stroke:red;stroke-width:1px;stroke-linecap:butt;stroke-linejoin:miter;stroke-opacity:1" d="M 249.935,137.062 259.112,132.474 z" id="boundary" inkscape:connector-curvature="0" />
	<path style="fill:none;stroke:red;stroke-width:1px;stroke-linecap:butt;stroke-linejoin:miter;stroke-opacity:1" d="M 259.112,132.474 268.289,127.885 z" id="boundary" inkscape:connector-curvature="0" />
	<path style="fill:none;stroke:red;stroke-width:1px;stroke-linecap:butt;stroke-linejoin:miter;stroke-opacity:1" d="M 277.465,127.885 268.289,127.885 z" id="boundary" inkscape:connector-curvature="0" />
	<path style="fill:none;stroke:red;stroke-width:1px;stroke-linecap:butt;stroke-linejoin:miter;stroke-opacity:1" d="M 240.759,141.65 249.935,137.062 z" id="boundary" inkscape:connector-curvature="0" />
	<path style="fill:none;stroke:red;stroke-width:1px;stroke-linecap:butt;stroke-linejoin:miter;stroke-opacity:1" d="M 54.4718,332.525 49.8834,341.702 z" id="boundary" inkscape:connector-curvature="0" />
	<path style="fill:none;stroke:red;stroke-width:1px;stroke-linecap:butt;stroke-linejoin:miter;stroke-opacity:1" d="M 59.0601,323.349 54.4718,332.525 z" id="boundary" inkscape:connector-curvature="0" />
	<path style="fill:none;stroke:red;stroke-width:1px;stroke-linecap:butt;stroke-linejoin:miter;stroke-opacity:1" d="M 40.7068,360.056 45.2951,350.879 z" id="boundary" inkscape:connector-curvature="0" />
	<path style="fill:none;stroke:red;stroke-width:1px;stroke-linecap:butt;stroke-linejoin:miter;stroke-opacity:1" d="M 49.8834,341.702 45.2951,350.879 z" id="boundary" inkscape:connector-curvature="0" />
	<path style="fill:none;stroke:red;stroke-width:1px;stroke-linecap:butt;stroke-linejoin:miter;stroke-opacity:1" d="M 31.5301,382.997 36.1184,369.232 z" id="boundary" inkscape:connector-curvature="0" />
	<path style="fill:none;stroke:red;stroke-width:1px;stroke-linecap:butt;stroke-linejoin:miter;stroke-opacity:1" d="M 36.1184,369.232 40.7068,360.056 z" id="boundary" inkscape:connector-curvature="0" />
	<path style="fill:none;stroke:red;stroke-width:1px;stroke-linecap:butt;stroke-linejoin:miter;stroke-opacity:1" d="M 86.5902,277.465 80.1665,288.477 z" id="boundary" inkscape:connector-curvature="0" />
	<path style="fill:none;stroke:red;stroke-width:1px;stroke-linecap:butt;stroke-linejoin:miter;stroke-opacity:1" d="M 93.9315,270.124 86.5902,277.465 z" id="boundary" inkscape:connector-curvature="0" />
	<path style="fill:none;stroke:red;stroke-width:1px;stroke-linecap:butt;stroke-linejoin:miter;stroke-opacity:1" d="M 75.5782,297.654 80.1665,288.477 z" id="boundary" inkscape:connector-curvature="0" />
	<path style="fill:none;stroke:red;stroke-width:1px;stroke-linecap:butt;stroke-linejoin:miter;stroke-opacity:1" d="M 59.0601,323.349 63.6485,314.172 z" id="boundary" inkscape:connector-curvature="0" />
	<path style="fill:none;stroke:red;stroke-width:1px;stroke-linecap:butt;stroke-linejoin:miter;stroke-opacity:1" d="M 63.6485,314.172 68.2368,304.995 z" id="boundary" inkscape:connector-curvature="0" />
	<path style="fill:none;stroke:red;stroke-width:1px;stroke-linecap:butt;stroke-linejoin:miter;stroke-opacity:1" d="M 75.5782,297.654 68.2368,304.995 z" id="boundary" inkscape:connector-curvature="0" />
	<path style="fill:none;stroke:red;stroke-width:1px;stroke-linecap:butt;stroke-linejoin:miter;stroke-opacity:1" d="M 17.765,438.057 13.1767,447.234 z" id="boundary" inkscape:connector-curvature="0" />
	<path style="fill:none;stroke:red;stroke-width:1px;stroke-linecap:butt;stroke-linejoin:miter;stroke-opacity:1" d="M 13.1767,447.234 13.1767,456.411 z" id="boundary" inkscape:connector-curvature="0" />
	<path style="fill:none;stroke:red;stroke-width:1px;stroke-linecap:butt;stroke-linejoin:miter;stroke-opacity:1" d="M 8.58834,470.176 13.1767,456.411 z" id="boundary" inkscape:connector-curvature="0" />
	<path style="fill:none;stroke:red;stroke-width:1px;stroke-linecap:butt;stroke-linejoin:miter;stroke-opacity:1" d="M 22.3534,419.704 17.765,428.881 z" id="boundary" inkscape:connector-curvature="0" />
	<path style="fill:none;stroke:red;stroke-width:1px;stroke-linecap:butt;stroke-linejoin:miter;stroke-opacity:1" d="M 22.3534,419.704 22.3534,410.527 z" id="boundary" inkscape:connector-curvature="0" />
	<path style="fill:none;stroke:red;stroke-width:1px;stroke-linecap:butt;stroke-linejoin:miter;stroke-opacity:1" d="M 22.3534,410.527 26.9417,396.762 z" id="boundary" inkscape:connector-curvature="0" />
	<path style="fill:none;stroke:red;stroke-width:1px;stroke-linecap:butt;stroke-linejoin:miter;stroke-opacity:1" d="M 26.9417,396.762 31.5301,382.997 z" id="boundary" inkscape:connector-curvature="0" />
	<path style="fill:none;stroke:red;stroke-width:1px;stroke-linecap:butt;stroke-linejoin:miter;stroke-opacity:1" d="M 17.765,428.881 17.765,438.057 z" id="boundary" inkscape:connector-curvature="0" />
	<path style="fill:none;stroke:red;stroke-width:1px;stroke-linecap:butt;stroke-linejoin:miter;stroke-opacity:1" d="M 131.556,224.241 124.215,230.664 z" id="boundary" inkscape:connector-curvature="0" />
	<path style="fill:none;stroke:red;stroke-width:1px;stroke-linecap:butt;stroke-linejoin:miter;stroke-opacity:1" d="M 116.873,238.006 124.215,230.664 z" id="boundary" inkscape:connector-curvature="0" />
	<path style="fill:none;stroke:red;stroke-width:1px;stroke-linecap:butt;stroke-linejoin:miter;stroke-opacity:1" d="M 98.5199,260.947 105.861,253.606 z" id="boundary" inkscape:connector-curvature="0" />
	<path style="fill:none;stroke:red;stroke-width:1px;stroke-linecap:butt;stroke-linejoin:miter;stroke-opacity:1" d="M 113.203,247.182 116.873,238.006 z" id="boundary" inkscape:connector-curvature="0" />
	<path style="fill:none;stroke:red;stroke-width:1px;stroke-linecap:butt;stroke-linejoin:miter;stroke-opacity:1" d="M 113.203,247.182 105.861,253.606 z" id="boundary" inkscape:connector-curvature="0" />
	<path style="fill:none;stroke:red;stroke-width:1px;stroke-linecap:butt;stroke-linejoin:miter;stroke-opacity:1" d="M 98.5199,260.947 93.9315,270.124 z" id="boundary" inkscape:connector-curvature="0" />
	<path style="fill:none;stroke:red;stroke-width:1px;stroke-linecap:butt;stroke-linejoin:miter;stroke-opacity:1" d="M 131.556,224.241 137.98,216.899 z" id="boundary" inkscape:connector-curvature="0" />
	<path style="fill:none;stroke:red;stroke-width:1px;stroke-linecap:butt;stroke-linejoin:miter;stroke-opacity:1" d="M 311.419,15.9297 318.76,8.58834 z" id="boundary" inkscape:connector-curvature="0" />
	<path style="fill:none;stroke:red;stroke-width:1px;stroke-linecap:butt;stroke-linejoin:miter;stroke-opacity:1" d="M 327.019,4 318.76,8.58834 z" id="boundary" inkscape:connector-curvature="0" />
	<path style="fill:none;stroke:red;stroke-width:1px;stroke-linecap:butt;stroke-linejoin:miter;stroke-opacity:1" d="M 327.019,4 336.196,4 z" id="boundary" inkscape:connector-curvature="0" />
	<path style="fill:none;stroke:red;stroke-width:1px;stroke-linecap:butt;stroke-linejoin:miter;stroke-opacity:1" d="M 311.419,25.1064 311.419,15.9297 z" id="boundary" inkscape:connector-curvature="0" />
	<path style="fill:none;stroke:red;stroke-width:1px;stroke-linecap:butt;stroke-linejoin:miter;stroke-opacity:1" d="M 336.196,4 345.373,4 z" id="boundary" inkscape:connector-curvature="0" />
	<path style="fill:none;stroke:red;stroke-width:1px;stroke-linecap:butt;stroke-linejoin:miter;stroke-opacity:1" d="M 354.549,4 345.373,4 z" id="boundary" inkscape:connector-curvature="0" />
	<path style="fill:none;stroke:red;stroke-width:1px;stroke-linecap:butt;stroke-linejoin:miter;stroke-opacity:1" d="M 354.549,4 363.726,4 z" id="boundary" inkscape:connector-curvature="0" />
	<path style="fill:none;stroke:red;stroke-width:1px;stroke-linecap:butt;stroke-linejoin:miter;stroke-opacity:1" d="M 372.903,4 363.726,4 z" id="boundary" inkscape:connector-curvature="0" />
	<path style="fill:none;stroke:red;stroke-width:1px;stroke-linecap:butt;stroke-linejoin:miter;stroke-opacity:1" d="M 311.419,25.1064 318.76,31.5301 z" id="boundary" inkscape:connector-curvature="0" />
	<path style="fill:none;stroke:red;stroke-width:1px;stroke-linecap:butt;stroke-linejoin:miter;stroke-opacity:1" d="M 325.184,38.8714 318.76,31.5301 z" id="boundary" inkscape:connector-curvature="0" />
	<path style="fill:none;stroke:red;stroke-width:1px;stroke-linecap:butt;stroke-linejoin:miter;stroke-opacity:1" d="M 329.772,47.1304 325.184,38.8714 z" id="boundary" inkscape:connector-curvature="0" />
	<path style="fill:none;stroke:red;stroke-width:1px;stroke-linecap:butt;stroke-linejoin:miter;stroke-opacity:1" d="M 329.772,47.1304 329.772,56.3071 z" id="boundary" inkscape:connector-curvature="0" />
	<path style="fill:none;stroke:red;stroke-width:1px;stroke-linecap:butt;stroke-linejoin:miter;stroke-opacity:1" d="M 336.196,63.6485 329.772,56.3071 z" id="boundary" inkscape:connector-curvature="0" />
	<path style="fill:none;stroke:red;stroke-width:1px;stroke-linecap:butt;stroke-linejoin:miter;stroke-opacity:1" d="M 391.256,4 382.08,4 z" id="boundary" inkscape:connector-curvature="0" />
	<path style="fill:none;stroke:red;stroke-width:1px;stroke-linecap:butt;stroke-linejoin:miter;stroke-opacity:1" d="M 382.08,4 372.903,4 z" id="boundary" inkscape:connector-curvature="0" />
	<path style="fill:none;stroke:red;stroke-width:1px;stroke-linecap:butt;stroke-linejoin:miter;stroke-opacity:1" d="M 399.515,8.58834 391.256,4 z" id="boundary" inkscape:connector-curvature="0" />
	<path style="fill:none;stroke:red;stroke-width:1px;stroke-linecap:butt;stroke-linejoin:miter;stroke-opacity:1" d="M 408.692,8.58834 416.033,14.0944 z" id="boundary" inkscape:connector-curvature="0" />
	<path style="fill:none;stroke:red;stroke-width:1px;stroke-linecap:butt;stroke-linejoin:miter;stroke-opacity:1" d="M 399.515,8.58834 408.692,8.58834 z" id="boundary" inkscape:connector-curvature="0" />
	<path style="fill:none;stroke:red;stroke-width:1px;stroke-linecap:butt;stroke-linejoin:miter;stroke-opacity:1" d="M 424.292,18.6827 431.634,25.1064 z" id="boundary" inkscape:connector-curvature="0" />
	<path style="fill:none;stroke:red;stroke-width:1px;stroke-linecap:butt;stroke-linejoin:miter;stroke-opacity:1" d="M 424.292,18.6827 416.033,14.0944 z" id="boundary" inkscape:connector-curvature="0" />
	<path style="fill:none;stroke:red;stroke-width:1px;stroke-linecap:butt;stroke-linejoin:miter;stroke-opacity:1" d="M 438.057,32.4477 431.634,25.1064 z" id="boundary" inkscape:connector-curvature="0" />
	<path style="fill:none;stroke:red;stroke-width:1px;stroke-linecap:butt;stroke-linejoin:miter;stroke-opacity:1" d="M 438.057,32.4477 445.399,38.8714 z" id="boundary" inkscape:connector-curvature="0" />
	<path style="fill:none;stroke:red;stroke-width:1px;stroke-linecap:butt;stroke-linejoin:miter;stroke-opacity:1" d="M 449.987,47.1304 445.399,38.8714 z" id="boundary" inkscape:connector-curvature="0" />
	<path style="fill:none;stroke:red;stroke-width:1px;stroke-linecap:butt;stroke-linejoin:miter;stroke-opacity:1" d="M 493.117,49.8834 484.858,54.4718 z" id="boundary" inkscape:connector-curvature="0" />
	<path style="fill:none;stroke:red;stroke-width:1px;stroke-linecap:butt;stroke-linejoin:miter;stroke-opacity:1" d="M 454.575,55.3895 449.987,47.1304 z" id="boundary" inkscape:connector-curvature="0" />
	<path style="fill:none;stroke:red;stroke-width:1px;stroke-linecap:butt;stroke-linejoin:miter;stroke-opacity:1" d="M 484.858,54.4718 477.517,60.8955 z" id="boundary" inkscape:connector-curvature="0" />
	<path style="fill:none;stroke:red;stroke-width:1px;stroke-linecap:butt;stroke-linejoin:miter;stroke-opacity:1" d="M 336.196,63.6485 343.537,69.1545 z" id="boundary" inkscape:connector-curvature="0" />
	<path style="fill:none;stroke:red;stroke-width:1px;stroke-linecap:butt;stroke-linejoin:miter;stroke-opacity:1" d="M 343.537,69.1545 346.29,78.3312 z" id="boundary" inkscape:connector-curvature="0" />
	<path style="fill:none;stroke:red;stroke-width:1px;stroke-linecap:butt;stroke-linejoin:miter;stroke-opacity:1" d="M 361.891,89.3432 353.632,84.7549 z" id="boundary" inkscape:connector-curvature="0" />
	<path style="fill:none;stroke:red;stroke-width:1px;stroke-linecap:butt;stroke-linejoin:miter;stroke-opacity:1" d="M 353.632,84.7549 346.29,78.3312 z" id="boundary" inkscape:connector-curvature="0" />
	<path style="fill:none;stroke:red;stroke-width:1px;stroke-linecap:butt;stroke-linejoin:miter;stroke-opacity:1" d="M 361.891,89.3432 371.068,92.0962 z" id="boundary" inkscape:connector-curvature="0" />
	<path style="fill:none;stroke:red;stroke-width:1px;stroke-linecap:butt;stroke-linejoin:miter;stroke-opacity:1" d="M 312.337,114.12 321.513,111.367 z" id="boundary" inkscape:connector-curvature="0" />
	<path style="fill:none;stroke:red;stroke-width:1px;stroke-linecap:butt;stroke-linejoin:miter;stroke-opacity:1" d="M 330.69,109.532 321.513,111.367 z" id="boundary" inkscape:connector-curvature="0" />
	<path style="fill:none;stroke:red;stroke-width:1px;stroke-linecap:butt;stroke-linejoin:miter;stroke-opacity:1" d="M 339.867,109.532 348.126,104.944 z" id="boundary" inkscape:connector-curvature="0" />
	<path style="fill:none;stroke:red;stroke-width:1px;stroke-linecap:butt;stroke-linejoin:miter;stroke-opacity:1" d="M 339.867,109.532 330.69,109.532 z" id="boundary" inkscape:connector-curvature="0" />
	<path style="fill:none;stroke:red;stroke-width:1px;stroke-linecap:butt;stroke-linejoin:miter;stroke-opacity:1" d="M 366.479,104.944 357.302,104.944 z" id="boundary" inkscape:connector-curvature="0" />
	<path style="fill:none;stroke:red;stroke-width:1px;stroke-linecap:butt;stroke-linejoin:miter;stroke-opacity:1" d="M 357.302,104.944 348.126,104.944 z" id="boundary" inkscape:connector-curvature="0" />
	<path style="fill:none;stroke:red;stroke-width:1px;stroke-linecap:butt;stroke-linejoin:miter;stroke-opacity:1" d="M 454.575,55.3895 456.411,64.5661 z" id="boundary" inkscape:connector-curvature="0" />
	<path style="fill:none;stroke:red;stroke-width:1px;stroke-linecap:butt;stroke-linejoin:miter;stroke-opacity:1" d="M 456.411,64.5661 460.999,72.8252 z" id="boundary" inkscape:connector-curvature="0" />
	<path style="fill:none;stroke:red;stroke-width:1px;stroke-linecap:butt;stroke-linejoin:miter;stroke-opacity:1" d="M 477.517,60.8955 470.176,68.2368 z" id="boundary" inkscape:connector-curvature="0" />
	<path style="fill:none;stroke:red;stroke-width:1px;stroke-linecap:butt;stroke-linejoin:miter;stroke-opacity:1" d="M 460.999,72.8252 470.176,68.2368 z" id="boundary" inkscape:connector-curvature="0" />
	<path style="fill:none;stroke:red;stroke-width:1px;stroke-linecap:butt;stroke-linejoin:miter;stroke-opacity:1" d="M 375.656,100.355 371.068,92.0962 z" id="boundary" inkscape:connector-curvature="0" />
	<path style="fill:none;stroke:red;stroke-width:1px;stroke-linecap:butt;stroke-linejoin:miter;stroke-opacity:1" d="M 384.833,96.6846 375.656,100.355 z" id="boundary" inkscape:connector-curvature="0" />
	<path style="fill:none;stroke:red;stroke-width:1px;stroke-linecap:butt;stroke-linejoin:miter;stroke-opacity:1" d="M 375.656,100.355 366.479,104.944 z" id="boundary" inkscape:connector-curvature="0" />
	<path style="fill:none;stroke:red;stroke-width:1px;stroke-linecap:butt;stroke-linejoin:miter;stroke-opacity:1" d="M 4,502.294 4,511.471 z" id="boundary" inkscape:connector-curvature="0" />
	<path style="fill:none;stroke:red;stroke-width:1px;stroke-linecap:butt;stroke-linejoin:miter;stroke-opacity:1" d="M 8.58834,488.529 4,502.294 z" id="boundary" inkscape:connector-curvature="0" />
	<path style="fill:none;stroke:red;stroke-width:1px;stroke-linecap:butt;stroke-linejoin:miter;stroke-opacity:1" d="M 4,511.471 4,520.648 z" id="boundary" inkscape:connector-curvature="0" />
	<path style="fill:none;stroke:red;stroke-width:1px;stroke-linecap:butt;stroke-linejoin:miter;stroke-opacity:1" d="M 4,520.648 4,529.824 z" id="boundary" inkscape:connector-curvature="0" />
	<path style="fill:none;stroke:red;stroke-width:1px;stroke-linecap:butt;stroke-linejoin:miter;stroke-opacity:1" d="M 4,539.001 4,548.178 z" id="boundary" inkscape:connector-curvature="0" />
	<path style="fill:none;stroke:red;stroke-width:1px;stroke-linecap:butt;stroke-linejoin:miter;stroke-opacity:1" d="M 4,539.001 4,529.824 z" id="boundary" inkscape:connector-curvature="0" />
	<path style="fill:none;stroke:red;stroke-width:1px;stroke-linecap:butt;stroke-linejoin:miter;stroke-opacity:1" d="M 4,566.531 4,557.354 z" id="boundary" inkscape:connector-curvature="0" />
	<path style="fill:none;stroke:red;stroke-width:1px;stroke-linecap:butt;stroke-linejoin:miter;stroke-opacity:1" d="M 8.58834,479.352 8.58834,488.529 z" id="boundary" inkscape:connector-curvature="0" />
	<path style="fill:none;stroke:red;stroke-width:1px;stroke-linecap:butt;stroke-linejoin:miter;stroke-opacity:1" d="M 4,575.708 4,566.531 z" id="boundary" inkscape:connector-curvature="0" />
	<path style="fill:none;stroke:red;stroke-width:1px;stroke-linecap:butt;stroke-linejoin:miter;stroke-opacity:1" d="M 4,584.884 4,575.708 z" id="boundary" inkscape:connector-curvature="0" />
	<path style="fill:none;stroke:red;stroke-width:1px;stroke-linecap:butt;stroke-linejoin:miter;stroke-opacity:1" d="M 8.58834,602.32 4,594.061 z" id="boundary" inkscape:connector-curvature="0" />
	<path style="fill:none;stroke:red;stroke-width:1px;stroke-linecap:butt;stroke-linejoin:miter;stroke-opacity:1" d="M 4,594.061 4,584.884 z" id="boundary" inkscape:connector-curvature="0" />
	<path style="fill:none;stroke:red;stroke-width:1px;stroke-linecap:butt;stroke-linejoin:miter;stroke-opacity:1" d="M 4,557.354 4,548.178 z" id="boundary" inkscape:connector-curvature="0" />
	<path style="fill:none;stroke:red;stroke-width:1px;stroke-linecap:butt;stroke-linejoin:miter;stroke-opacity:1" d="M 8.58834,470.176 8.58834,479.352 z" id="boundary" inkscape:connector-curvature="0" />
	<path style="fill:none;stroke:red;stroke-width:1px;stroke-linecap:butt;stroke-linejoin:miter;stroke-opacity:1" d="M 8.58834,602.32 8.58834,611.497 z" id="boundary" inkscape:connector-curvature="0" />
	<path style="fill:none;stroke:red;stroke-width:1px;stroke-linecap:butt;stroke-linejoin:miter;stroke-opacity:1" d="M 8.58834,620.673 8.58834,611.497 z" id="boundary" inkscape:connector-curvature="0" />
	<path style="fill:none;stroke:red;stroke-width:1px;stroke-linecap:butt;stroke-linejoin:miter;stroke-opacity:1" d="M 13.1767,628.932 13.1767,638.109 z" id="boundary" inkscape:connector-curvature="0" />
	<path style="fill:none;stroke:red;stroke-width:1px;stroke-linecap:butt;stroke-linejoin:miter;stroke-opacity:1" d="M 13.1767,628.932 8.58834,620.673 z" id="boundary" inkscape:connector-curvature="0" />
	<path style="fill:none;stroke:red;stroke-width:1px;stroke-linecap:butt;stroke-linejoin:miter;stroke-opacity:1" d="M 13.1767,647.286 17.765,655.545 z" id="boundary" inkscape:connector-curvature="0" />
	<path style="fill:none;stroke:red;stroke-width:1px;stroke-linecap:butt;stroke-linejoin:miter;stroke-opacity:1" d="M 13.1767,638.109 13.1767,647.286 z" id="boundary" inkscape:connector-curvature="0" />
	<path style="fill:none;stroke:red;stroke-width:1px;stroke-linecap:butt;stroke-linejoin:miter;stroke-opacity:1" d="M 17.765,655.545 17.765,664.722 z" id="boundary" inkscape:connector-curvature="0" />
	<path style="fill:none;stroke:red;stroke-width:1px;stroke-linecap:butt;stroke-linejoin:miter;stroke-opacity:1" d="M 22.3534,672.981 17.765,664.722 z" id="boundary" inkscape:connector-curvature="0" />
	<path style="fill:none;stroke:red;stroke-width:1px;stroke-linecap:butt;stroke-linejoin:miter;stroke-opacity:1" d="M 26.9417,690.416 22.3534,682.157 z" id="boundary" inkscape:connector-curvature="0" />
	<path style="fill:none;stroke:red;stroke-width:1px;stroke-linecap:butt;stroke-linejoin:miter;stroke-opacity:1" d="M 26.9417,699.593 26.9417,690.416 z" id="boundary" inkscape:connector-curvature="0" />
	<path style="fill:none;stroke:red;stroke-width:1px;stroke-linecap:butt;stroke-linejoin:miter;stroke-opacity:1" d="M 26.9417,699.593 31.5301,707.852 z" id="boundary" inkscape:connector-curvature="0" />
	<path style="fill:none;stroke:red;stroke-width:1px;stroke-linecap:butt;stroke-linejoin:miter;stroke-opacity:1" d="M 31.5301,707.852 36.1184,716.111 z" id="boundary" inkscape:connector-curvature="0" />
	<path style="fill:none;stroke:red;stroke-width:1px;stroke-linecap:butt;stroke-linejoin:miter;stroke-opacity:1" d="M 36.1184,716.111 36.1184,725.288 z" id="boundary" inkscape:connector-curvature="0" />
	<path style="fill:none;stroke:red;stroke-width:1px;stroke-linecap:butt;stroke-linejoin:miter;stroke-opacity:1" d="M 22.3534,682.157 22.3534,672.981 z" id="boundary" inkscape:connector-curvature="0" />
	<path style="fill:none;stroke:red;stroke-width:1px;stroke-linecap:butt;stroke-linejoin:miter;stroke-opacity:1" d="M 36.1184,725.288 40.7068,733.547 z" id="boundary" inkscape:connector-curvature="0" />
	<path style="fill:none;stroke:red;stroke-width:1px;stroke-linecap:butt;stroke-linejoin:miter;stroke-opacity:1" d="M 45.2951,741.806 40.7068,733.547 z" id="boundary" inkscape:connector-curvature="0" />
	<path style="fill:none;stroke:red;stroke-width:1px;stroke-linecap:butt;stroke-linejoin:miter;stroke-opacity:1" d="M 45.2951,741.806 49.8834,750.065 z" id="boundary" inkscape:connector-curvature="0" />
	<path style="fill:none;stroke:red;stroke-width:1px;stroke-linecap:butt;stroke-linejoin:miter;stroke-opacity:1" d="M 54.4718,758.324 49.8834,750.065 z" id="boundary" inkscape:connector-curvature="0" />
	<path style="fill:none;stroke:red;stroke-width:1px;stroke-linecap:butt;stroke-linejoin:miter;stroke-opacity:1" d="M 59.0601,766.583 54.4718,758.324 z" id="boundary" inkscape:connector-curvature="0" />
	<path style="fill:none;stroke:red;stroke-width:1px;stroke-linecap:butt;stroke-linejoin:miter;stroke-opacity:1" d="M 59.0601,766.583 61.8131,775.759 z" id="boundary" inkscape:connector-curvature="0" />
	<path style="fill:none;stroke:red;stroke-width:1px;stroke-linecap:butt;stroke-linejoin:miter;stroke-opacity:1" d="M 66.4015,784.019 61.8131,775.759 z" id="boundary" inkscape:connector-curvature="0" />
	<path style="fill:none;stroke:red;stroke-width:1px;stroke-linecap:butt;stroke-linejoin:miter;stroke-opacity:1" d="M 77.4135,798.701 70.0722,793.195 z" id="boundary" inkscape:connector-curvature="0" />
	<path style="fill:none;stroke:red;stroke-width:1px;stroke-linecap:butt;stroke-linejoin:miter;stroke-opacity:1" d="M 70.0722,793.195 66.4015,784.019 z" id="boundary" inkscape:connector-curvature="0" />
	<path style="fill:none;stroke:red;stroke-width:1px;stroke-linecap:butt;stroke-linejoin:miter;stroke-opacity:1" d="M 77.4135,798.701 80.1665,807.878 z" id="boundary" inkscape:connector-curvature="0" />
	<path style="fill:none;stroke:red;stroke-width:1px;stroke-linecap:butt;stroke-linejoin:miter;stroke-opacity:1" d="M 80.1665,807.878 86.5902,815.219 z" id="boundary" inkscape:connector-curvature="0" />
	<path style="fill:none;stroke:red;stroke-width:1px;stroke-linecap:butt;stroke-linejoin:miter;stroke-opacity:1" d="M 91.1785,823.478 86.5902,815.219 z" id="boundary" inkscape:connector-curvature="0" />
	<path style="fill:none;stroke:red;stroke-width:1px;stroke-linecap:butt;stroke-linejoin:miter;stroke-opacity:1" d="M 91.1785,823.478 95.7669,831.737 z" id="boundary" inkscape:connector-curvature="0" />
	<path style="fill:none;stroke:red;stroke-width:1px;stroke-linecap:butt;stroke-linejoin:miter;stroke-opacity:1" d="M 102.191,839.079 95.7669,831.737 z" id="boundary" inkscape:connector-curvature="0" />
	<path style="fill:none;stroke:red;stroke-width:1px;stroke-linecap:butt;stroke-linejoin:miter;stroke-opacity:1" d="M 109.532,844.585 114.12,852.844 z" id="boundary" inkscape:connector-curvature="0" />
	<path style="fill:none;stroke:red;stroke-width:1px;stroke-linecap:butt;stroke-linejoin:miter;stroke-opacity:1" d="M 109.532,844.585 102.191,839.079 z" id="boundary" inkscape:connector-curvature="0" />
	<path style="fill:none;stroke:red;stroke-width:1px;stroke-linecap:butt;stroke-linejoin:miter;stroke-opacity:1" d="M 114.12,852.844 119.626,860.185 z" id="boundary" inkscape:connector-curvature="0" />
	<path style="fill:none;stroke:red;stroke-width:1px;stroke-linecap:butt;stroke-linejoin:miter;stroke-opacity:1" d="M 119.626,860.185 126.05,867.526 z" id="boundary" inkscape:connector-curvature="0" />
	<path style="fill:none;stroke:red;stroke-width:1px;stroke-linecap:butt;stroke-linejoin:miter;stroke-opacity:1" d="M 126.05,867.526 133.391,873.95 z" id="boundary" inkscape:connector-curvature="0" />
	<path style="fill:none;stroke:red;stroke-width:1px;stroke-linecap:butt;stroke-linejoin:miter;stroke-opacity:1" d="M 147.156,887.715 139.815,881.291 z" id="boundary" inkscape:connector-curvature="0" />
	<path style="fill:none;stroke:red;stroke-width:1px;stroke-linecap:butt;stroke-linejoin:miter;stroke-opacity:1" d="M 139.815,881.291 133.391,873.95 z" id="boundary" inkscape:connector-curvature="0" />
	<path style="fill:none;stroke:red;stroke-width:1px;stroke-linecap:butt;stroke-linejoin:miter;stroke-opacity:1" d="M 147.156,887.715 153.58,895.056 z" id="boundary" inkscape:connector-curvature="0" />
	<path style="fill:none;stroke:red;stroke-width:1px;stroke-linecap:butt;stroke-linejoin:miter;stroke-opacity:1" d="M 153.58,895.056 161.839,899.645 z" id="boundary" inkscape:connector-curvature="0" />
	<path style="fill:none;stroke:red;stroke-width:1px;stroke-linecap:butt;stroke-linejoin:miter;stroke-opacity:1" d="M 169.18,905.151 175.604,912.492 z" id="boundary" inkscape:connector-curvature="0" />
	<path style="fill:none;stroke:red;stroke-width:1px;stroke-linecap:butt;stroke-linejoin:miter;stroke-opacity:1" d="M 169.18,905.151 161.839,899.645 z" id="boundary" inkscape:connector-curvature="0" />
	<path style="fill:none;stroke:red;stroke-width:1px;stroke-linecap:butt;stroke-linejoin:miter;stroke-opacity:1" d="M 182.945,917.998 175.604,912.492 z" id="boundary" inkscape:connector-curvature="0" />
	<path style="fill:none;stroke:red;stroke-width:1px;stroke-linecap:butt;stroke-linejoin:miter;stroke-opacity:1" d="M 182.945,917.998 191.204,922.586 z" id="boundary" inkscape:connector-curvature="0" />
	<path style="fill:none;stroke:red;stroke-width:1px;stroke-linecap:butt;stroke-linejoin:miter;stroke-opacity:1" d="M 191.204,922.586 199.463,927.175 z" id="boundary" inkscape:connector-curvature="0" />
	<path style="fill:none;stroke:red;stroke-width:1px;stroke-linecap:butt;stroke-linejoin:miter;stroke-opacity:1" d="M 206.805,933.599 199.463,927.175 z" id="boundary" inkscape:connector-curvature="0" />
	<path style="fill:none;stroke:red;stroke-width:1px;stroke-linecap:butt;stroke-linejoin:miter;stroke-opacity:1" d="M 215.064,938.187 206.805,933.599 z" id="boundary" inkscape:connector-curvature="0" />
	<path style="fill:none;stroke:red;stroke-width:1px;stroke-linecap:butt;stroke-linejoin:miter;stroke-opacity:1" d="M 215.064,938.187 222.405,944.611 z" id="boundary" inkscape:connector-curvature="0" />
	<path style="fill:none;stroke:red;stroke-width:1px;stroke-linecap:butt;stroke-linejoin:miter;stroke-opacity:1" d="M 230.664,949.199 222.405,944.611 z" id="boundary" inkscape:connector-curvature="0" />
	<path style="fill:none;stroke:red;stroke-width:1px;stroke-linecap:butt;stroke-linejoin:miter;stroke-opacity:1" d="M 239.841,952.87 230.664,949.199 z" id="boundary" inkscape:connector-curvature="0" />
	<path style="fill:none;stroke:red;stroke-width:1px;stroke-linecap:butt;stroke-linejoin:miter;stroke-opacity:1" d="M 248.1,957.458 257.277,961.129 z" id="boundary" inkscape:connector-curvature="0" />
	<path style="fill:none;stroke:red;stroke-width:1px;stroke-linecap:butt;stroke-linejoin:miter;stroke-opacity:1" d="M 274.712,968.47 265.536,965.717 z" id="boundary" inkscape:connector-curvature="0" />
	<path style="fill:none;stroke:red;stroke-width:1px;stroke-linecap:butt;stroke-linejoin:miter;stroke-opacity:1" d="M 265.536,965.717 257.277,961.129 z" id="boundary" inkscape:connector-curvature="0" />
	<path style="fill:none;stroke:red;stroke-width:1px;stroke-linecap:butt;stroke-linejoin:miter;stroke-opacity:1" d="M 248.1,957.458 239.841,952.87 z" id="boundary" inkscape:connector-curvature="0" />
	<path style="fill:none;stroke:red;stroke-width:1px;stroke-linecap:butt;stroke-linejoin:miter;stroke-opacity:1" d="M 274.712,968.47 282.971,973.058 z" id="boundary" inkscape:connector-curvature="0" />
	<path style="fill:none;stroke:red;stroke-width:1px;stroke-linecap:butt;stroke-linejoin:miter;stroke-opacity:1" d="M 282.971,973.058 292.148,973.058 z" id="boundary" inkscape:connector-curvature="0" />
	<path style="fill:none;stroke:red;stroke-width:1px;stroke-linecap:butt;stroke-linejoin:miter;stroke-opacity:1" d="M 300.407,977.647 309.584,981.317 z" id="boundary" inkscape:connector-curvature="0" />
	<path style="fill:none;stroke:red;stroke-width:1px;stroke-linecap:butt;stroke-linejoin:miter;stroke-opacity:1" d="M 300.407,977.647 292.148,973.058 z" id="boundary" inkscape:connector-curvature="0" />
	<path style="fill:none;stroke:red;stroke-width:1px;stroke-linecap:butt;stroke-linejoin:miter;stroke-opacity:1" d="M 309.584,981.317 318.76,982.235 z" id="boundary" inkscape:connector-curvature="0" />
	<path style="fill:none;stroke:red;stroke-width:1px;stroke-linecap:butt;stroke-linejoin:miter;stroke-opacity:1" d="M 318.76,982.235 327.019,986.823 z" id="boundary" inkscape:connector-curvature="0" />
	<path style="fill:none;stroke:red;stroke-width:1px;stroke-linecap:butt;stroke-linejoin:miter;stroke-opacity:1" d="M 336.196,986.823 345.373,989.576 z" id="boundary" inkscape:connector-curvature="0" />
	<path style="fill:none;stroke:red;stroke-width:1px;stroke-linecap:butt;stroke-linejoin:miter;stroke-opacity:1" d="M 354.549,991.412 363.726,991.412 z" id="boundary" inkscape:connector-curvature="0" />
	<path style="fill:none;stroke:red;stroke-width:1px;stroke-linecap:butt;stroke-linejoin:miter;stroke-opacity:1" d="M 354.549,991.412 345.373,989.576 z" id="boundary" inkscape:connector-curvature="0" />
	<path style="fill:none;stroke:red;stroke-width:1px;stroke-linecap:butt;stroke-linejoin:miter;stroke-opacity:1" d="M 327.019,986.823 336.196,986.823 z" id="boundary" inkscape:connector-curvature="0" />
	<path style="fill:none;stroke:red;stroke-width:1px;stroke-linecap:butt;stroke-linejoin:miter;stroke-opacity:1" d="M 482.105,991.412 472.929,991.412 z" id="boundary" inkscape:connector-curvature="0" />
	<path style="fill:none;stroke:red;stroke-width:1px;stroke-linecap:butt;stroke-linejoin:miter;stroke-opacity:1" d="M 472.929,991.412 463.752,991.412 z" id="boundary" inkscape:connector-curvature="0" />
	<path style="fill:none;stroke:red;stroke-width:1px;stroke-linecap:butt;stroke-linejoin:miter;stroke-opacity:1" d="M 372.903,994.165 363.726,991.412 z" id="boundary" inkscape:connector-curvature="0" />
	<path style="fill:none;stroke:red;stroke-width:1px;stroke-linecap:butt;stroke-linejoin:miter;stroke-opacity:1" d="M 463.752,991.412 455.493,996 z" id="boundary" inkscape:connector-curvature="0" />
	<path style="fill:none;stroke:red;stroke-width:1px;stroke-linecap:butt;stroke-linejoin:miter;stroke-opacity:1" d="M 382.08,996 372.903,994.165 z" id="boundary" inkscape:connector-curvature="0" />
	<path style="fill:none;stroke:red;stroke-width:1px;stroke-linecap:butt;stroke-linejoin:miter;stroke-opacity:1" d="M 391.256,996 382.08,996 z" id="boundary" inkscape:connector-curvature="0" />
	<path style="fill:none;stroke:red;stroke-width:1px;stroke-linecap:butt;stroke-linejoin:miter;stroke-opacity:1" d="M 400.433,996 409.61,996 z" id="boundary" inkscape:connector-curvature="0" />
	<path style="fill:none;stroke:red;stroke-width:1px;stroke-linecap:butt;stroke-linejoin:miter;stroke-opacity:1" d="M 400.433,996 391.256,996 z" id="boundary" inkscape:connector-curvature="0" />
	<path style="fill:none;stroke:red;stroke-width:1px;stroke-linecap:butt;stroke-linejoin:miter;stroke-opacity:1" d="M 418.786,996 427.963,996 z" id="boundary" inkscape:connector-curvature="0" />
	<path style="fill:none;stroke:red;stroke-width:1px;stroke-linecap:butt;stroke-linejoin:miter;stroke-opacity:1" d="M 446.316,996 437.14,996 z" id="boundary" inkscape:connector-curvature="0" />
	<path style="fill:none;stroke:red;stroke-width:1px;stroke-linecap:butt;stroke-linejoin:miter;stroke-opacity:1" d="M 437.14,996 427.963,996 z" id="boundary" inkscape:connector-curvature="0" />
	<path style="fill:none;stroke:red;stroke-width:1px;stroke-linecap:butt;stroke-linejoin:miter;stroke-opacity:1" d="M 418.786,996 409.61,996 z" id="boundary" inkscape:connector-curvature="0" />
	<path style="fill:none;stroke:red;stroke-width:1px;stroke-linecap:butt;stroke-linejoin:miter;stroke-opacity:1" d="M 446.316,996 455.493,996 z" id="boundary" inkscape:connector-curvature="0" />
	<path style="fill:none;stroke:red;stroke-width:1px;stroke-linecap:butt;stroke-linejoin:miter;stroke-opacity:1" d="M 490.364,986.823 482.105,991.412 z" id="boundary" inkscape:connector-curvature="0" />
	<path style="fill:none;stroke:red;stroke-width:1px;stroke-linecap:butt;stroke-linejoin:miter;stroke-opacity:1" d="M 548.178,40.7068 539.001,40.7068 z" id="boundary" inkscape:connector-curvature="0" />
	<path style="fill:none;stroke:red;stroke-width:1px;stroke-linecap:butt;stroke-linejoin:miter;stroke-opacity:1" d="M 511.471,45.2951 502.294,45.2951 z" id="boundary" inkscape:connector-curvature="0" />
	<path style="fill:none;stroke:red;stroke-width:1px;stroke-linecap:butt;stroke-linejoin:miter;stroke-opacity:1" d="M 511.471,45.2951 520.648,40.7068 z" id="boundary" inkscape:connector-curvature="0" />
	<path style="fill:none;stroke:red;stroke-width:1px;stroke-linecap:butt;stroke-linejoin:miter;stroke-opacity:1" d="M 529.824,40.7068 520.648,40.7068 z" id="boundary" inkscape:connector-curvature="0" />
	<path style="fill:none;stroke:red;stroke-width:1px;stroke-linecap:butt;stroke-linejoin:miter;stroke-opacity:1" d="M 502.294,45.2951 493.117,49.8834 z" id="boundary" inkscape:connector-curvature="0" />
	<path style="fill:none;stroke:red;stroke-width:1px;stroke-linecap:butt;stroke-linejoin:miter;stroke-opacity:1" d="M 539.001,40.7068 529.824,40.7068 z" id="boundary" inkscape:connector-curvature="0" />
	<path style="fill:none;stroke:red;stroke-width:1px;stroke-linecap:butt;stroke-linejoin:miter;stroke-opacity:1" d="M 508.718,64.5661 500.459,69.1545 z" id="boundary" inkscape:connector-curvature="0" />
	<path style="fill:none;stroke:red;stroke-width:1px;stroke-linecap:butt;stroke-linejoin:miter;stroke-opacity:1" d="M 500.459,69.1545 495.87,78.3312 z" id="boundary" inkscape:connector-curvature="0" />
	<path style="fill:none;stroke:red;stroke-width:1px;stroke-linecap:butt;stroke-linejoin:miter;stroke-opacity:1" d="M 534.413,55.3895 525.236,55.3895 z" id="boundary" inkscape:connector-curvature="0" />
	<path style="fill:none;stroke:red;stroke-width:1px;stroke-linecap:butt;stroke-linejoin:miter;stroke-opacity:1" d="M 525.236,55.3895 516.977,59.9778 z" id="boundary" inkscape:connector-curvature="0" />
	<path style="fill:none;stroke:red;stroke-width:1px;stroke-linecap:butt;stroke-linejoin:miter;stroke-opacity:1" d="M 508.718,64.5661 516.977,59.9778 z" id="boundary" inkscape:connector-curvature="0" />
	<path style="fill:none;stroke:red;stroke-width:1px;stroke-linecap:butt;stroke-linejoin:miter;stroke-opacity:1" d="M 543.589,55.3895 534.413,55.3895 z" id="boundary" inkscape:connector-curvature="0" />
	<path style="fill:none;stroke:red;stroke-width:1px;stroke-linecap:butt;stroke-linejoin:miter;stroke-opacity:1" d="M 557.354,40.7068 548.178,40.7068 z" id="boundary" inkscape:connector-curvature="0" />
	<path style="fill:none;stroke:red;stroke-width:1px;stroke-linecap:butt;stroke-linejoin:miter;stroke-opacity:1" d="M 566.531,40.7068 557.354,40.7068 z" id="boundary" inkscape:connector-curvature="0" />
	<path style="fill:none;stroke:red;stroke-width:1px;stroke-linecap:butt;stroke-linejoin:miter;stroke-opacity:1" d="M 566.531,40.7068 571.119,54.4718 z" id="boundary" inkscape:connector-curvature="0" />
	<path style="fill:none;stroke:red;stroke-width:1px;stroke-linecap:butt;stroke-linejoin:miter;stroke-opacity:1" d="M 552.766,55.3895 543.589,55.3895 z" id="boundary" inkscape:connector-curvature="0" />
	<path style="fill:none;stroke:red;stroke-width:1px;stroke-linecap:butt;stroke-linejoin:miter;stroke-opacity:1" d="M 552.766,55.3895 561.943,55.3895 z" id="boundary" inkscape:connector-curvature="0" />
	<path style="fill:none;stroke:red;stroke-width:1px;stroke-linecap:butt;stroke-linejoin:miter;stroke-opacity:1" d="M 561.943,55.3895 571.119,54.4718 z" id="boundary" inkscape:connector-curvature="0" />
	<path style="fill:none;stroke:red;stroke-width:1px;stroke-linecap:butt;stroke-linejoin:miter;stroke-opacity:1" d="M 495.87,87.5079 495.87,78.3312 z" id="boundary" inkscape:connector-curvature="0" />
	<path style="fill:none;stroke:red;stroke-width:1px;stroke-linecap:butt;stroke-linejoin:miter;stroke-opacity:1" d="M 550.013,91.1785 540.836,91.1785 z" id="boundary" inkscape:connector-curvature="0" />
	<path style="fill:none;stroke:red;stroke-width:1px;stroke-linecap:butt;stroke-linejoin:miter;stroke-opacity:1" d="M 540.836,91.1785 532.577,95.7669 z" id="boundary" inkscape:connector-curvature="0" />
	<path style="fill:none;stroke:red;stroke-width:1px;stroke-linecap:butt;stroke-linejoin:miter;stroke-opacity:1" d="M 514.224,95.7669 505.047,97.6022 z" id="boundary" inkscape:connector-curvature="0" />
	<path style="fill:none;stroke:red;stroke-width:1px;stroke-linecap:butt;stroke-linejoin:miter;stroke-opacity:1" d="M 523.401,95.7669 514.224,95.7669 z" id="boundary" inkscape:connector-curvature="0" />
	<path style="fill:none;stroke:red;stroke-width:1px;stroke-linecap:butt;stroke-linejoin:miter;stroke-opacity:1" d="M 495.87,96.6846 505.047,97.6022 z" id="boundary" inkscape:connector-curvature="0" />
	<path style="fill:none;stroke:red;stroke-width:1px;stroke-linecap:butt;stroke-linejoin:miter;stroke-opacity:1" d="M 495.87,96.6846 495.87,87.5079 z" id="boundary" inkscape:connector-curvature="0" />
	<path style="fill:none;stroke:red;stroke-width:1px;stroke-linecap:butt;stroke-linejoin:miter;stroke-opacity:1" d="M 532.577,95.7669 523.401,95.7669 z" id="boundary" inkscape:connector-curvature="0" />
	<path style="fill:none;stroke:red;stroke-width:1px;stroke-linecap:butt;stroke-linejoin:miter;stroke-opacity:1" d="M 550.013,91.1785 559.19,91.1785 z" id="boundary" inkscape:connector-curvature="0" />
	<path style="fill:none;stroke:red;stroke-width:1px;stroke-linecap:butt;stroke-linejoin:miter;stroke-opacity:1" d="M 568.366,91.1785 559.19,91.1785 z" id="boundary" inkscape:connector-curvature="0" />
	<path style="fill:none;stroke:red;stroke-width:1px;stroke-linecap:butt;stroke-linejoin:miter;stroke-opacity:1" d="M 568.366,91.1785 577.543,91.1785 z" id="boundary" inkscape:connector-curvature="0" />
	<path style="fill:none;stroke:red;stroke-width:1px;stroke-linecap:butt;stroke-linejoin:miter;stroke-opacity:1" d="M 577.543,91.1785 586.72,91.1785 z" id="boundary" inkscape:connector-curvature="0" />
	<path style="fill:none;stroke:red;stroke-width:1px;stroke-linecap:butt;stroke-linejoin:miter;stroke-opacity:1" d="M 586.72,91.1785 595.896,91.1785 z" id="boundary" inkscape:connector-curvature="0" />
	<path style="fill:none;stroke:red;stroke-width:1px;stroke-linecap:butt;stroke-linejoin:miter;stroke-opacity:1" d="M 605.073,91.1785 614.25,93.0139 z" id="boundary" inkscape:connector-curvature="0" />
	<path style="fill:none;stroke:red;stroke-width:1px;stroke-linecap:butt;stroke-linejoin:miter;stroke-opacity:1" d="M 632.603,95.7669 623.426,95.7669 z" id="boundary" inkscape:connector-curvature="0" />
	<path style="fill:none;stroke:red;stroke-width:1px;stroke-linecap:butt;stroke-linejoin:miter;stroke-opacity:1" d="M 623.426,95.7669 614.25,93.0139 z" id="boundary" inkscape:connector-curvature="0" />
	<path style="fill:none;stroke:red;stroke-width:1px;stroke-linecap:butt;stroke-linejoin:miter;stroke-opacity:1" d="M 595.896,91.1785 605.073,91.1785 z" id="boundary" inkscape:connector-curvature="0" />
	<path style="fill:none;stroke:red;stroke-width:1px;stroke-linecap:butt;stroke-linejoin:miter;stroke-opacity:1" d="M 641.78,95.7669 650.039,100.355 z" id="boundary" inkscape:connector-curvature="0" />
	<path style="fill:none;stroke:red;stroke-width:1px;stroke-linecap:butt;stroke-linejoin:miter;stroke-opacity:1" d="M 659.216,100.355 650.039,100.355 z" id="boundary" inkscape:connector-curvature="0" />
	<path style="fill:none;stroke:red;stroke-width:1px;stroke-linecap:butt;stroke-linejoin:miter;stroke-opacity:1" d="M 641.78,95.7669 632.603,95.7669 z" id="boundary" inkscape:connector-curvature="0" />
	<path style="fill:none;stroke:red;stroke-width:1px;stroke-linecap:butt;stroke-linejoin:miter;stroke-opacity:1" d="M 659.216,100.355 667.475,104.944 z" id="boundary" inkscape:connector-curvature="0" />
	<path style="fill:none;stroke:red;stroke-width:1px;stroke-linecap:butt;stroke-linejoin:miter;stroke-opacity:1" d="M 667.475,104.944 676.651,104.944 z" id="boundary" inkscape:connector-curvature="0" />
	<path style="fill:none;stroke:red;stroke-width:1px;stroke-linecap:butt;stroke-linejoin:miter;stroke-opacity:1" d="M 684.91,109.532 676.651,104.944 z" id="boundary" inkscape:connector-curvature="0" />
	<path style="fill:none;stroke:red;stroke-width:1px;stroke-linecap:butt;stroke-linejoin:miter;stroke-opacity:1" d="M 684.91,109.532 694.087,109.532 z" id="boundary" inkscape:connector-curvature="0" />
	<path style="fill:none;stroke:red;stroke-width:1px;stroke-linecap:butt;stroke-linejoin:miter;stroke-opacity:1" d="M 694.087,109.532 702.346,114.12 z" id="boundary" inkscape:connector-curvature="0" />
	<path style="fill:none;stroke:red;stroke-width:1px;stroke-linecap:butt;stroke-linejoin:miter;stroke-opacity:1" d="M 710.605,118.709 702.346,114.12 z" id="boundary" inkscape:connector-curvature="0" />
	<path style="fill:none;stroke:red;stroke-width:1px;stroke-linecap:butt;stroke-linejoin:miter;stroke-opacity:1" d="M 728.041,125.132 719.782,120.544 z" id="boundary" inkscape:connector-curvature="0" />
	<path style="fill:none;stroke:red;stroke-width:1px;stroke-linecap:butt;stroke-linejoin:miter;stroke-opacity:1" d="M 719.782,120.544 710.605,118.709 z" id="boundary" inkscape:connector-curvature="0" />
	<path style="fill:none;stroke:red;stroke-width:1px;stroke-linecap:butt;stroke-linejoin:miter;stroke-opacity:1" d="M 728.041,125.132 737.217,128.803 z" id="boundary" inkscape:connector-curvature="0" />
	<path style="fill:none;stroke:red;stroke-width:1px;stroke-linecap:butt;stroke-linejoin:miter;stroke-opacity:1" d="M 745.476,133.391 754.653,137.062 z" id="boundary" inkscape:connector-curvature="0" />
	<path style="fill:none;stroke:red;stroke-width:1px;stroke-linecap:butt;stroke-linejoin:miter;stroke-opacity:1" d="M 745.476,133.391 737.217,128.803 z" id="boundary" inkscape:connector-curvature="0" />
	<path style="fill:none;stroke:red;stroke-width:1px;stroke-linecap:butt;stroke-linejoin:miter;stroke-opacity:1" d="M 762.912,141.65 754.653,137.062 z" id="boundary" inkscape:connector-curvature="0" />
	<path style="fill:none;stroke:red;stroke-width:1px;stroke-linecap:butt;stroke-linejoin:miter;stroke-opacity:1" d="M 770.253,148.074 778.512,152.662 z" id="boundary" inkscape:connector-curvature="0" />
	<path style="fill:none;stroke:red;stroke-width:1px;stroke-linecap:butt;stroke-linejoin:miter;stroke-opacity:1" d="M 762.912,141.65 770.253,148.074 z" id="boundary" inkscape:connector-curvature="0" />
	<path style="fill:none;stroke:red;stroke-width:1px;stroke-linecap:butt;stroke-linejoin:miter;stroke-opacity:1" d="M 778.512,152.662 784.936,160.004 z" id="boundary" inkscape:connector-curvature="0" />
	<path style="fill:none;stroke:red;stroke-width:1px;stroke-linecap:butt;stroke-linejoin:miter;stroke-opacity:1" d="M 794.113,162.757 801.454,169.18 z" id="boundary" inkscape:connector-curvature="0" />
	<path style="fill:none;stroke:red;stroke-width:1px;stroke-linecap:butt;stroke-linejoin:miter;stroke-opacity:1" d="M 794.113,162.757 784.936,160.004 z" id="boundary" inkscape:connector-curvature="0" />
	<path style="fill:none;stroke:red;stroke-width:1px;stroke-linecap:butt;stroke-linejoin:miter;stroke-opacity:1" d="M 801.454,169.18 809.713,173.769 z" id="boundary" inkscape:connector-curvature="0" />
	<path style="fill:none;stroke:red;stroke-width:1px;stroke-linecap:butt;stroke-linejoin:miter;stroke-opacity:1" d="M 823.478,187.534 816.137,181.11 z" id="boundary" inkscape:connector-curvature="0" />
	<path style="fill:none;stroke:red;stroke-width:1px;stroke-linecap:butt;stroke-linejoin:miter;stroke-opacity:1" d="M 809.713,173.769 816.137,181.11 z" id="boundary" inkscape:connector-curvature="0" />
	<path style="fill:none;stroke:red;stroke-width:1px;stroke-linecap:butt;stroke-linejoin:miter;stroke-opacity:1" d="M 823.478,187.534 829.902,194.875 z" id="boundary" inkscape:connector-curvature="0" />
	<path style="fill:none;stroke:red;stroke-width:1px;stroke-linecap:butt;stroke-linejoin:miter;stroke-opacity:1" d="M 829.902,194.875 837.243,201.299 z" id="boundary" inkscape:connector-curvature="0" />
	<path style="fill:none;stroke:red;stroke-width:1px;stroke-linecap:butt;stroke-linejoin:miter;stroke-opacity:1" d="M 845.502,205.887 837.243,201.299 z" id="boundary" inkscape:connector-curvature="0" />
	<path style="fill:none;stroke:red;stroke-width:1px;stroke-linecap:butt;stroke-linejoin:miter;stroke-opacity:1" d="M 862.938,227.911 856.514,220.57 z" id="boundary" inkscape:connector-curvature="0" />
	<path style="fill:none;stroke:red;stroke-width:1px;stroke-linecap:butt;stroke-linejoin:miter;stroke-opacity:1" d="M 845.502,205.887 849.173,215.064 z" id="boundary" inkscape:connector-curvature="0" />
	<path style="fill:none;stroke:red;stroke-width:1px;stroke-linecap:butt;stroke-linejoin:miter;stroke-opacity:1" d="M 856.514,220.57 849.173,215.064 z" id="boundary" inkscape:connector-curvature="0" />
	<path style="fill:none;stroke:red;stroke-width:1px;stroke-linecap:butt;stroke-linejoin:miter;stroke-opacity:1" d="M 870.279,234.335 876.703,241.676 z" id="boundary" inkscape:connector-curvature="0" />
	<path style="fill:none;stroke:red;stroke-width:1px;stroke-linecap:butt;stroke-linejoin:miter;stroke-opacity:1" d="M 870.279,234.335 862.938,227.911 z" id="boundary" inkscape:connector-curvature="0" />
	<path style="fill:none;stroke:red;stroke-width:1px;stroke-linecap:butt;stroke-linejoin:miter;stroke-opacity:1" d="M 876.703,241.676 881.291,249.935 z" id="boundary" inkscape:connector-curvature="0" />
	<path style="fill:none;stroke:red;stroke-width:1px;stroke-linecap:butt;stroke-linejoin:miter;stroke-opacity:1" d="M 887.715,257.277 881.291,249.935 z" id="boundary" inkscape:connector-curvature="0" />
	<path style="fill:none;stroke:red;stroke-width:1px;stroke-linecap:butt;stroke-linejoin:miter;stroke-opacity:1" d="M 887.715,257.277 892.303,265.536 z" id="boundary" inkscape:connector-curvature="0" />
	<path style="fill:none;stroke:red;stroke-width:1px;stroke-linecap:butt;stroke-linejoin:miter;stroke-opacity:1" d="M 898.727,272.877 892.303,265.536 z" id="boundary" inkscape:connector-curvature="0" />
	<path style="fill:none;stroke:red;stroke-width:1px;stroke-linecap:butt;stroke-linejoin:miter;stroke-opacity:1" d="M 908.821,288.477 903.315,281.136 z" id="boundary" inkscape:connector-curvature="0" />
	<path style="fill:none;stroke:red;stroke-width:1px;stroke-linecap:butt;stroke-linejoin:miter;stroke-opacity:1" d="M 898.727,272.877 903.315,281.136 z" id="boundary" inkscape:connector-curvature="0" />
	<path style="fill:none;stroke:red;stroke-width:1px;stroke-linecap:butt;stroke-linejoin:miter;stroke-opacity:1" d="M 908.821,288.477 913.41,296.736 z" id="boundary" inkscape:connector-curvature="0" />
	<path style="fill:none;stroke:red;stroke-width:1px;stroke-linecap:butt;stroke-linejoin:miter;stroke-opacity:1" d="M 913.41,296.736 917.998,304.995 z" id="boundary" inkscape:connector-curvature="0" />
	<path style="fill:none;stroke:red;stroke-width:1px;stroke-linecap:butt;stroke-linejoin:miter;stroke-opacity:1" d="M 922.586,313.254 917.998,304.995 z" id="boundary" inkscape:connector-curvature="0" />
	<path style="fill:none;stroke:red;stroke-width:1px;stroke-linecap:butt;stroke-linejoin:miter;stroke-opacity:1" d="M 922.586,313.254 927.175,321.513 z" id="boundary" inkscape:connector-curvature="0" />
	<path style="fill:none;stroke:red;stroke-width:1px;stroke-linecap:butt;stroke-linejoin:miter;stroke-opacity:1" d="M 927.175,321.513 931.763,329.772 z" id="boundary" inkscape:connector-curvature="0" />
	<path style="fill:none;stroke:red;stroke-width:1px;stroke-linecap:butt;stroke-linejoin:miter;stroke-opacity:1" d="M 931.763,329.772 936.352,338.031 z" id="boundary" inkscape:connector-curvature="0" />
	<path style="fill:none;stroke:red;stroke-width:1px;stroke-linecap:butt;stroke-linejoin:miter;stroke-opacity:1" d="M 936.352,347.208 936.352,338.031 z" id="boundary" inkscape:connector-curvature="0" />
	<path style="fill:none;stroke:red;stroke-width:1px;stroke-linecap:butt;stroke-linejoin:miter;stroke-opacity:1" d="M 936.352,347.208 940.94,355.467 z" id="boundary" inkscape:connector-curvature="0" />
	<path style="fill:none;stroke:red;stroke-width:1px;stroke-linecap:butt;stroke-linejoin:miter;stroke-opacity:1" d="M 945.528,363.726 940.94,355.467 z" id="boundary" inkscape:connector-curvature="0" />
	<path style="fill:none;stroke:red;stroke-width:1px;stroke-linecap:butt;stroke-linejoin:miter;stroke-opacity:1" d="M 952.87,381.162 948.281,372.903 z" id="boundary" inkscape:connector-curvature="0" />
	<path style="fill:none;stroke:red;stroke-width:1px;stroke-linecap:butt;stroke-linejoin:miter;stroke-opacity:1" d="M 948.281,372.903 945.528,363.726 z" id="boundary" inkscape:connector-curvature="0" />
	<path style="fill:none;stroke:red;stroke-width:1px;stroke-linecap:butt;stroke-linejoin:miter;stroke-opacity:1" d="M 954.705,390.339 956.54,399.515 z" id="boundary" inkscape:connector-curvature="0" />
	<path style="fill:none;stroke:red;stroke-width:1px;stroke-linecap:butt;stroke-linejoin:miter;stroke-opacity:1" d="M 952.87,381.162 954.705,390.339 z" id="boundary" inkscape:connector-curvature="0" />
	<path style="fill:none;stroke:red;stroke-width:1px;stroke-linecap:butt;stroke-linejoin:miter;stroke-opacity:1" d="M 959.293,408.692 963.882,416.951 z" id="boundary" inkscape:connector-curvature="0" />
	<path style="fill:none;stroke:red;stroke-width:1px;stroke-linecap:butt;stroke-linejoin:miter;stroke-opacity:1" d="M 959.293,408.692 956.54,399.515 z" id="boundary" inkscape:connector-curvature="0" />
	<path style="fill:none;stroke:red;stroke-width:1px;stroke-linecap:butt;stroke-linejoin:miter;stroke-opacity:1" d="M 963.882,416.951 963.882,426.128 z" id="boundary" inkscape:connector-curvature="0" />
	<path style="fill:none;stroke:red;stroke-width:1px;stroke-linecap:butt;stroke-linejoin:miter;stroke-opacity:1" d="M 968.47,434.387 963.882,426.128 z" id="boundary" inkscape:connector-curvature="0" />
	<path style="fill:none;stroke:red;stroke-width:1px;stroke-linecap:butt;stroke-linejoin:miter;stroke-opacity:1" d="M 968.47,434.387 968.47,443.563 z" id="boundary" inkscape:connector-curvature="0" />
	<path style="fill:none;stroke:red;stroke-width:1px;stroke-linecap:butt;stroke-linejoin:miter;stroke-opacity:1" d="M 774.842,927.175 766.583,931.763 z" id="boundary" inkscape:connector-curvature="0" />
	<path style="fill:none;stroke:red;stroke-width:1px;stroke-linecap:butt;stroke-linejoin:miter;stroke-opacity:1" d="M 782.183,921.669 774.842,927.175 z" id="boundary" inkscape:connector-curvature="0" />
	<path style="fill:none;stroke:red;stroke-width:1px;stroke-linecap:butt;stroke-linejoin:miter;stroke-opacity:1" d="M 791.36,917.08 782.183,921.669 z" id="boundary" inkscape:connector-curvature="0" />
	<path style="fill:none;stroke:red;stroke-width:1px;stroke-linecap:butt;stroke-linejoin:miter;stroke-opacity:1" d="M 757.406,936.352 766.583,931.763 z" id="boundary" inkscape:connector-curvature="0" />
	<path style="fill:none;stroke:red;stroke-width:1px;stroke-linecap:butt;stroke-linejoin:miter;stroke-opacity:1" d="M 527.071,982.235 517.895,982.235 z" id="boundary" inkscape:connector-curvature="0" />
	<path style="fill:none;stroke:red;stroke-width:1px;stroke-linecap:butt;stroke-linejoin:miter;stroke-opacity:1" d="M 536.248,982.235 527.071,982.235 z" id="boundary" inkscape:connector-curvature="0" />
	<path style="fill:none;stroke:red;stroke-width:1px;stroke-linecap:butt;stroke-linejoin:miter;stroke-opacity:1" d="M 508.718,984.07 517.895,982.235 z" id="boundary" inkscape:connector-curvature="0" />
	<path style="fill:none;stroke:red;stroke-width:1px;stroke-linecap:butt;stroke-linejoin:miter;stroke-opacity:1" d="M 490.364,986.823 499.541,986.823 z" id="boundary" inkscape:connector-curvature="0" />
	<path style="fill:none;stroke:red;stroke-width:1px;stroke-linecap:butt;stroke-linejoin:miter;stroke-opacity:1" d="M 499.541,986.823 508.718,984.07 z" id="boundary" inkscape:connector-curvature="0" />
	<path style="fill:none;stroke:red;stroke-width:1px;stroke-linecap:butt;stroke-linejoin:miter;stroke-opacity:1" d="M 553.684,986.823 544.507,986.823 z" id="boundary" inkscape:connector-curvature="0" />
	<path style="fill:none;stroke:red;stroke-width:1px;stroke-linecap:butt;stroke-linejoin:miter;stroke-opacity:1" d="M 544.507,986.823 536.248,982.235 z" id="boundary" inkscape:connector-curvature="0" />
	<path style="fill:none;stroke:red;stroke-width:1px;stroke-linecap:butt;stroke-linejoin:miter;stroke-opacity:1" d="M 553.684,986.823 562.86,986.823 z" id="boundary" inkscape:connector-curvature="0" />
	<path style="fill:none;stroke:red;stroke-width:1px;stroke-linecap:butt;stroke-linejoin:miter;stroke-opacity:1" d="M 572.037,986.823 581.214,986.823 z" id="boundary" inkscape:connector-curvature="0" />
	<path style="fill:none;stroke:red;stroke-width:1px;stroke-linecap:butt;stroke-linejoin:miter;stroke-opacity:1" d="M 572.037,986.823 562.86,986.823 z" id="boundary" inkscape:connector-curvature="0" />
	<path style="fill:none;stroke:red;stroke-width:1px;stroke-linecap:butt;stroke-linejoin:miter;stroke-opacity:1" d="M 590.39,986.823 581.214,986.823 z" id="boundary" inkscape:connector-curvature="0" />
	<path style="fill:none;stroke:red;stroke-width:1px;stroke-linecap:butt;stroke-linejoin:miter;stroke-opacity:1" d="M 599.567,986.823 590.39,986.823 z" id="boundary" inkscape:connector-curvature="0" />
	<path style="fill:none;stroke:red;stroke-width:1px;stroke-linecap:butt;stroke-linejoin:miter;stroke-opacity:1" d="M 608.744,986.823 599.567,986.823 z" id="boundary" inkscape:connector-curvature="0" />
	<path style="fill:none;stroke:red;stroke-width:1px;stroke-linecap:butt;stroke-linejoin:miter;stroke-opacity:1" d="M 672.063,973.058 681.24,972.141 z" id="boundary" inkscape:connector-curvature="0" />
	<path style="fill:none;stroke:red;stroke-width:1px;stroke-linecap:butt;stroke-linejoin:miter;stroke-opacity:1" d="M 690.416,968.47 698.675,963.882 z" id="boundary" inkscape:connector-curvature="0" />
	<path style="fill:none;stroke:red;stroke-width:1px;stroke-linecap:butt;stroke-linejoin:miter;stroke-opacity:1" d="M 690.416,968.47 681.24,972.141 z" id="boundary" inkscape:connector-curvature="0" />
	<path style="fill:none;stroke:red;stroke-width:1px;stroke-linecap:butt;stroke-linejoin:miter;stroke-opacity:1" d="M 672.063,973.058 662.886,976.729 z" id="boundary" inkscape:connector-curvature="0" />
	<path style="fill:none;stroke:red;stroke-width:1px;stroke-linecap:butt;stroke-linejoin:miter;stroke-opacity:1" d="M 740.888,945.528 732.629,950.117 z" id="boundary" inkscape:connector-curvature="0" />
	<path style="fill:none;stroke:red;stroke-width:1px;stroke-linecap:butt;stroke-linejoin:miter;stroke-opacity:1" d="M 740.888,945.528 749.147,940.94 z" id="boundary" inkscape:connector-curvature="0" />
	<path style="fill:none;stroke:red;stroke-width:1px;stroke-linecap:butt;stroke-linejoin:miter;stroke-opacity:1" d="M 698.675,963.882 706.934,959.293 z" id="boundary" inkscape:connector-curvature="0" />
	<path style="fill:none;stroke:red;stroke-width:1px;stroke-linecap:butt;stroke-linejoin:miter;stroke-opacity:1" d="M 716.111,959.293 706.934,959.293 z" id="boundary" inkscape:connector-curvature="0" />
	<path style="fill:none;stroke:red;stroke-width:1px;stroke-linecap:butt;stroke-linejoin:miter;stroke-opacity:1" d="M 724.37,954.705 732.629,950.117 z" id="boundary" inkscape:connector-curvature="0" />
	<path style="fill:none;stroke:red;stroke-width:1px;stroke-linecap:butt;stroke-linejoin:miter;stroke-opacity:1" d="M 724.37,954.705 716.111,959.293 z" id="boundary" inkscape:connector-curvature="0" />
	<path style="fill:none;stroke:red;stroke-width:1px;stroke-linecap:butt;stroke-linejoin:miter;stroke-opacity:1" d="M 617.003,982.235 626.179,982.235 z" id="boundary" inkscape:connector-curvature="0" />
	<path style="fill:none;stroke:red;stroke-width:1px;stroke-linecap:butt;stroke-linejoin:miter;stroke-opacity:1" d="M 635.356,982.235 626.179,982.235 z" id="boundary" inkscape:connector-curvature="0" />
	<path style="fill:none;stroke:red;stroke-width:1px;stroke-linecap:butt;stroke-linejoin:miter;stroke-opacity:1" d="M 608.744,986.823 617.003,982.235 z" id="boundary" inkscape:connector-curvature="0" />
	<path style="fill:none;stroke:red;stroke-width:1px;stroke-linecap:butt;stroke-linejoin:miter;stroke-opacity:1" d="M 635.356,982.235 644.533,981.317 z" id="boundary" inkscape:connector-curvature="0" />
	<path style="fill:none;stroke:red;stroke-width:1px;stroke-linecap:butt;stroke-linejoin:miter;stroke-opacity:1" d="M 644.533,981.317 653.71,977.647 z" id="boundary" inkscape:connector-curvature="0" />
	<path style="fill:none;stroke:red;stroke-width:1px;stroke-linecap:butt;stroke-linejoin:miter;stroke-opacity:1" d="M 653.71,977.647 662.886,976.729 z" id="boundary" inkscape:connector-curvature="0" />
	<path style="fill:none;stroke:red;stroke-width:1px;stroke-linecap:butt;stroke-linejoin:miter;stroke-opacity:1" d="M 749.147,940.94 757.406,936.352 z" id="boundary" inkscape:connector-curvature="0" />
	<path style="fill:none;stroke:red;stroke-width:1px;stroke-linecap:butt;stroke-linejoin:miter;stroke-opacity:1" d="M 968.47,452.74 968.47,443.563 z" id="boundary" inkscape:connector-curvature="0" />
	<path style="fill:none;stroke:red;stroke-width:1px;stroke-linecap:butt;stroke-linejoin:miter;stroke-opacity:1" d="M 963.882,647.286 963.882,656.463 z" id="boundary" inkscape:connector-curvature="0" />
	<path style="fill:none;stroke:red;stroke-width:1px;stroke-linecap:butt;stroke-linejoin:miter;stroke-opacity:1" d="M 968.47,638.109 963.882,647.286 z" id="boundary" inkscape:connector-curvature="0" />
	<path style="fill:none;stroke:red;stroke-width:1px;stroke-linecap:butt;stroke-linejoin:miter;stroke-opacity:1" d="M 968.47,619.756 968.47,628.932 z" id="boundary" inkscape:connector-curvature="0" />
	<path style="fill:none;stroke:red;stroke-width:1px;stroke-linecap:butt;stroke-linejoin:miter;stroke-opacity:1" d="M 954.705,679.404 954.705,688.581 z" id="boundary" inkscape:connector-curvature="0" />
	<path style="fill:none;stroke:red;stroke-width:1px;stroke-linecap:butt;stroke-linejoin:miter;stroke-opacity:1" d="M 954.705,679.404 959.293,665.639 z" id="boundary" inkscape:connector-curvature="0" />
	<path style="fill:none;stroke:red;stroke-width:1px;stroke-linecap:butt;stroke-linejoin:miter;stroke-opacity:1" d="M 963.882,656.463 959.293,665.639 z" id="boundary" inkscape:connector-curvature="0" />
	<path style="fill:none;stroke:red;stroke-width:1px;stroke-linecap:butt;stroke-linejoin:miter;stroke-opacity:1" d="M 968.47,628.932 968.47,638.109 z" id="boundary" inkscape:connector-curvature="0" />
	<path style="fill:none;stroke:red;stroke-width:1px;stroke-linecap:butt;stroke-linejoin:miter;stroke-opacity:1" d="M 973.058,605.991 968.47,619.756 z" id="boundary" inkscape:connector-curvature="0" />
	<path style="fill:none;stroke:red;stroke-width:1px;stroke-linecap:butt;stroke-linejoin:miter;stroke-opacity:1" d="M 954.705,688.581 950.117,697.758 z" id="boundary" inkscape:connector-curvature="0" />
	<path style="fill:none;stroke:red;stroke-width:1px;stroke-linecap:butt;stroke-linejoin:miter;stroke-opacity:1" d="M 968.47,452.74 973.058,460.999 z" id="boundary" inkscape:connector-curvature="0" />
	<path style="fill:none;stroke:red;stroke-width:1px;stroke-linecap:butt;stroke-linejoin:miter;stroke-opacity:1" d="M 973.058,470.176 973.058,479.352 z" id="boundary" inkscape:connector-curvature="0" />
	<path style="fill:none;stroke:red;stroke-width:1px;stroke-linecap:butt;stroke-linejoin:miter;stroke-opacity:1" d="M 973.058,488.529 973.058,479.352 z" id="boundary" inkscape:connector-curvature="0" />
	<path style="fill:none;stroke:red;stroke-width:1px;stroke-linecap:butt;stroke-linejoin:miter;stroke-opacity:1" d="M 977.647,496.788 977.647,505.965 z" id="boundary" inkscape:connector-curvature="0" />
	<path style="fill:none;stroke:red;stroke-width:1px;stroke-linecap:butt;stroke-linejoin:miter;stroke-opacity:1" d="M 977.647,496.788 973.058,488.529 z" id="boundary" inkscape:connector-curvature="0" />
	<path style="fill:none;stroke:red;stroke-width:1px;stroke-linecap:butt;stroke-linejoin:miter;stroke-opacity:1" d="M 977.647,505.965 977.647,515.142 z" id="boundary" inkscape:connector-curvature="0" />
	<path style="fill:none;stroke:red;stroke-width:1px;stroke-linecap:butt;stroke-linejoin:miter;stroke-opacity:1" d="M 977.647,515.142 977.647,524.318 z" id="boundary" inkscape:connector-curvature="0" />
	<path style="fill:none;stroke:red;stroke-width:1px;stroke-linecap:butt;stroke-linejoin:miter;stroke-opacity:1" d="M 973.058,470.176 973.058,460.999 z" id="boundary" inkscape:connector-curvature="0" />
	<path style="fill:none;stroke:red;stroke-width:1px;stroke-linecap:butt;stroke-linejoin:miter;stroke-opacity:1" d="M 977.647,524.318 977.647,533.495 z" id="boundary" inkscape:connector-curvature="0" />
	<path style="fill:none;stroke:red;stroke-width:1px;stroke-linecap:butt;stroke-linejoin:miter;stroke-opacity:1" d="M 977.647,542.672 977.647,533.495 z" id="boundary" inkscape:connector-curvature="0" />
	<path style="fill:none;stroke:red;stroke-width:1px;stroke-linecap:butt;stroke-linejoin:miter;stroke-opacity:1" d="M 977.647,542.672 977.647,551.848 z" id="boundary" inkscape:connector-curvature="0" />
	<path style="fill:none;stroke:red;stroke-width:1px;stroke-linecap:butt;stroke-linejoin:miter;stroke-opacity:1" d="M 977.647,561.025 977.647,570.202 z" id="boundary" inkscape:connector-curvature="0" />
	<path style="fill:none;stroke:red;stroke-width:1px;stroke-linecap:butt;stroke-linejoin:miter;stroke-opacity:1" d="M 977.647,561.025 977.647,551.848 z" id="boundary" inkscape:connector-curvature="0" />
	<path style="fill:none;stroke:red;stroke-width:1px;stroke-linecap:butt;stroke-linejoin:miter;stroke-opacity:1" d="M 977.647,570.202 977.647,579.378 z" id="boundary" inkscape:connector-curvature="0" />
	<path style="fill:none;stroke:red;stroke-width:1px;stroke-linecap:butt;stroke-linejoin:miter;stroke-opacity:1" d="M 973.058,596.814 973.058,605.991 z" id="boundary" inkscape:connector-curvature="0" />
	<path style="fill:none;stroke:red;stroke-width:1px;stroke-linecap:butt;stroke-linejoin:miter;stroke-opacity:1" d="M 973.058,587.637 973.058,596.814 z" id="boundary" inkscape:connector-curvature="0" />
	<path style="fill:none;stroke:red;stroke-width:1px;stroke-linecap:butt;stroke-linejoin:miter;stroke-opacity:1" d="M 977.647,579.378 973.058,587.637 z" id="boundary" inkscape:connector-curvature="0" />
	<path style="fill:none;stroke:red;stroke-width:1px;stroke-linecap:butt;stroke-linejoin:miter;stroke-opacity:1" d="M 888.633,819.808 881.291,826.231 z" id="boundary" inkscape:connector-curvature="0" />
	<path style="fill:none;stroke:red;stroke-width:1px;stroke-linecap:butt;stroke-linejoin:miter;stroke-opacity:1" d="M 870.279,842.749 876.703,835.408 z" id="boundary" inkscape:connector-curvature="0" />
	<path style="fill:none;stroke:red;stroke-width:1px;stroke-linecap:butt;stroke-linejoin:miter;stroke-opacity:1" d="M 881.291,826.231 876.703,835.408 z" id="boundary" inkscape:connector-curvature="0" />
	<path style="fill:none;stroke:red;stroke-width:1px;stroke-linecap:butt;stroke-linejoin:miter;stroke-opacity:1" d="M 849.173,862.938 856.514,856.514 z" id="boundary" inkscape:connector-curvature="0" />
	<path style="fill:none;stroke:red;stroke-width:1px;stroke-linecap:butt;stroke-linejoin:miter;stroke-opacity:1" d="M 856.514,856.514 862.938,849.173 z" id="boundary" inkscape:connector-curvature="0" />
	<path style="fill:none;stroke:red;stroke-width:1px;stroke-linecap:butt;stroke-linejoin:miter;stroke-opacity:1" d="M 870.279,842.749 862.938,849.173 z" id="boundary" inkscape:connector-curvature="0" />
	<path style="fill:none;stroke:red;stroke-width:1px;stroke-linecap:butt;stroke-linejoin:miter;stroke-opacity:1" d="M 849.173,862.938 844.585,872.115 z" id="boundary" inkscape:connector-curvature="0" />
	<path style="fill:none;stroke:red;stroke-width:1px;stroke-linecap:butt;stroke-linejoin:miter;stroke-opacity:1" d="M 815.219,897.809 807.878,904.233 z" id="boundary" inkscape:connector-curvature="0" />
	<path style="fill:none;stroke:red;stroke-width:1px;stroke-linecap:butt;stroke-linejoin:miter;stroke-opacity:1" d="M 807.878,904.233 798.701,908.821 z" id="boundary" inkscape:connector-curvature="0" />
	<path style="fill:none;stroke:red;stroke-width:1px;stroke-linecap:butt;stroke-linejoin:miter;stroke-opacity:1" d="M 791.36,917.08 798.701,908.821 z" id="boundary" inkscape:connector-curvature="0" />
	<path style="fill:none;stroke:red;stroke-width:1px;stroke-linecap:butt;stroke-linejoin:miter;stroke-opacity:1" d="M 815.219,897.809 821.643,890.468 z" id="boundary" inkscape:connector-curvature="0" />
	<path style="fill:none;stroke:red;stroke-width:1px;stroke-linecap:butt;stroke-linejoin:miter;stroke-opacity:1" d="M 828.984,884.044 835.408,876.703 z" id="boundary" inkscape:connector-curvature="0" />
	<path style="fill:none;stroke:red;stroke-width:1px;stroke-linecap:butt;stroke-linejoin:miter;stroke-opacity:1" d="M 828.984,884.044 821.643,890.468 z" id="boundary" inkscape:connector-curvature="0" />
	<path style="fill:none;stroke:red;stroke-width:1px;stroke-linecap:butt;stroke-linejoin:miter;stroke-opacity:1" d="M 835.408,876.703 844.585,872.115 z" id="boundary" inkscape:connector-curvature="0" />
	<path style="fill:none;stroke:red;stroke-width:1px;stroke-linecap:butt;stroke-linejoin:miter;stroke-opacity:1" d="M 922.586,761.994 927.175,752.818 z" id="boundary" inkscape:connector-curvature="0" />
	<path style="fill:none;stroke:red;stroke-width:1px;stroke-linecap:butt;stroke-linejoin:miter;stroke-opacity:1" d="M 927.175,752.818 931.763,743.641 z" id="boundary" inkscape:connector-curvature="0" />
	<path style="fill:none;stroke:red;stroke-width:1px;stroke-linecap:butt;stroke-linejoin:miter;stroke-opacity:1" d="M 906.986,792.278 899.645,798.701 z" id="boundary" inkscape:connector-curvature="0" />
	<path style="fill:none;stroke:red;stroke-width:1px;stroke-linecap:butt;stroke-linejoin:miter;stroke-opacity:1" d="M 911.574,783.101 906.986,792.278 z" id="boundary" inkscape:connector-curvature="0" />
	<path style="fill:none;stroke:red;stroke-width:1px;stroke-linecap:butt;stroke-linejoin:miter;stroke-opacity:1" d="M 917.998,771.171 911.574,783.101 z" id="boundary" inkscape:connector-curvature="0" />
	<path style="fill:none;stroke:red;stroke-width:1px;stroke-linecap:butt;stroke-linejoin:miter;stroke-opacity:1" d="M 922.586,761.994 917.998,771.171 z" id="boundary" inkscape:connector-curvature="0" />
	<path style="fill:none;stroke:red;stroke-width:1px;stroke-linecap:butt;stroke-linejoin:miter;stroke-opacity:1" d="M 936.352,729.876 940.94,720.699 z" id="boundary" inkscape:connector-curvature="0" />
	<path style="fill:none;stroke:red;stroke-width:1px;stroke-linecap:butt;stroke-linejoin:miter;stroke-opacity:1" d="M 940.94,720.699 945.528,706.934 z" id="boundary" inkscape:connector-curvature="0" />
	<path style="fill:none;stroke:red;stroke-width:1px;stroke-linecap:butt;stroke-linejoin:miter;stroke-opacity:1" d="M 936.352,729.876 931.763,743.641 z" id="boundary" inkscape:connector-curvature="0" />
	<path style="fill:none;stroke:red;stroke-width:1px;stroke-linecap:butt;stroke-linejoin:miter;stroke-opacity:1" d="M 945.528,706.934 950.117,697.758 z" id="boundary" inkscape:connector-curvature="0" />
	<path style="fill:none;stroke:red;stroke-width:1px;stroke-linecap:butt;stroke-linejoin:miter;stroke-opacity:1" d="M 888.633,819.808 893.221,810.631 z" id="boundary" inkscape:connector-curvature="0" />
	<path style="fill:none;stroke:red;stroke-width:1px;stroke-linecap:butt;stroke-linejoin:miter;stroke-opacity:1" d="M 899.645,798.701 893.221,810.631 z" id="boundary" inkscape:connector-curvature="0" />
	<circle cx="4" cy="502.294" r="4" fill="#0" id="circle0"/>
	<circle cx="4" cy="511.471" r="4" fill="#0" id="circle1"/>
	<circle cx="4" cy="520.648" r="4" fill="#0" id="circle2"/>
	<circle cx="4" cy="529.824" r="4" fill="#0" id="circle3"/>
	<circle cx="4" cy="539.001" r="4" fill="#0" id="circle4"/>
	<circle cx="4" cy="548.178" r="4" fill="#0" id="circle5"/>
	<circle cx="4" cy="557.354" r="4" fill="#0" id="circle6"/>
	<circle cx="4" cy="566.531" r="4" fill="#0" id="circle7"/>
	<circle cx="4" cy="575.708" r="4" fill="#0" id="circle8"/>
	<circle cx="4" cy="584.884" r="4" fill="#0" id="circle9"/>
	<circle cx="4" cy="594.061" r="4" fill="#0" id="circle10"/>
	<circle cx="8.58834" cy="470.176" r="4" fill="#0" id="circle11"/>
	<circle cx="8.58834" cy="479.352" r="4" fill="#0" id="circle12"/>
	<circle cx="8.58834" cy="488.529" r="4" fill="#0" id="circle13"/>
	<circle cx="8.58834" cy="602.32" r="4" fill="#0" id="circle14"/>
	<circle cx="8.58834" cy="611.497" r="4" fill="#0" id="circle15"/>
	<circle cx="8.58834" cy="620.673" r="4" fill="#0" id="circle16"/>
	<circle cx="13.1767" cy="447.234" r="4" fill="#0" id="circle17"/>
	<circle cx="13.1767" cy="456.411" r="4" fill="#0" id="circle18"/>
	<circle cx="13.1767" cy="628.932" r="4" fill="#0" id="circle19"/>
	<circle cx="13.1767" cy="638.109" r="4" fill="#0" id="circle20"/>
	<circle cx="13.1767" cy="647.286" r="4" fill="#0" id="circle21"/>
	<circle cx="17.765" cy="428.881" r="4" fill="#0" id="circle22"/>
	<circle cx="17.765" cy="438.057" r="4" fill="#0" id="circle23"/>
	<circle cx="17.765" cy="655.545" r="4" fill="#0" id="circle24"/>
	<circle cx="17.765" cy="664.722" r="4" fill="#0" id="circle25"/>
	<circle cx="22.3534" cy="410.527" r="4" fill="#0" id="circle26"/>
	<circle cx="22.3534" cy="419.704" r="4" fill="#0" id="circle27"/>
	<circle cx="22.3534" cy="672.981" r="4" fill="#0" id="circle28"/>
	<circle cx="22.3534" cy="682.157" r="4" fill="#0" id="circle29"/>
	<circle cx="26.9417" cy="396.762" r="4" fill="#0" id="circle30"/>
	<circle cx="26.9417" cy="690.416" r="4" fill="#0" id="circle31"/>
	<circle cx="26.9417" cy="699.593" r="4" fill="#0" id="circle32"/>
	<circle cx="31.5301" cy="382.997" r="4" fill="#0" id="circle33"/>
	<circle cx="31.5301" cy="707.852" r="4" fill="#0" id="circle34"/>
	<circle cx="36.1184" cy="369.232" r="4" fill="#0" id="circle35"/>
	<circle cx="36.1184" cy="716.111" r="4" fill="#0" id="circle36"/>
	<circle cx="36.1184" cy="725.288" r="4" fill="#0" id="circle37"/>
	<circle cx="40.7068" cy="360.056" r="4" fill="#0" id="circle38"/>
	<circle cx="40.7068" cy="733.547" r="4" fill="#0" id="circle39"/>
	<circle cx="45.2951" cy="350.879" r="4" fill="#0" id="circle40"/>
	<circle cx="45.2951" cy="741.806" r="4" fill="#0" id="circle41"/>
	<circle cx="49.8834" cy="341.702" r="4" fill="#0" id="circle42"/>
	<circle cx="49.8834" cy="750.065" r="4" fill="#0" id="circle43"/>
	<circle cx="54.4718" cy="332.525" r="4" fill="#0" id="circle44"/>
	<circle cx="54.4718" cy="758.324" r="4" fill="#0" id="circle45"/>
	<circle cx="59.0601" cy="323.349" r="4" fill="#0" id="circle46"/>
	<circle cx="59.0601" cy="766.583" r="4" fill="#0" id="circle47"/>
	<circle cx="61.8131" cy="775.759" r="4" fill="#0" id="circle48"/>
	<circle cx="63.6485" cy="314.172" r="4" fill="#0" id="circle49"/>
	<circle cx="66.4015" cy="784.019" r="4" fill="#0" id="circle50"/>
	<circle cx="68.2368" cy="304.995" r="4" fill="#0" id="circle51"/>
	<circle cx="70.0722" cy="793.195" r="4" fill="#0" id="circle52"/>
	<circle cx="75.5782" cy="297.654" r="4" fill="#0" id="circle53"/>
	<circle cx="77.4135" cy="798.701" r="4" fill="#0" id="circle54"/>
	<circle cx="80.1665" cy="288.477" r="4" fill="#0" id="circle55"/>
	<circle cx="80.1665" cy="807.878" r="4" fill="#0" id="circle56"/>
	<circle cx="86.5902" cy="277.465" r="4" fill="#0" id="circle57"/>
	<circle cx="86.5902" cy="815.219" r="4" fill="#0" id="circle58"/>
	<circle cx="91.1785" cy="823.478" r="4" fill="#0" id="circle59"/>
	<circle cx="93.9315" cy="270.124" r="4" fill="#0" id="circle60"/>
	<circle cx="95.7669" cy="831.737" r="4" fill="#0" id="circle61"/>
	<circle cx="98.5199" cy="260.947" r="4" fill="#0" id="circle62"/>
	<circle cx="102.191" cy="839.079" r="4" fill="#0" id="circle63"/>
	<circle cx="105.861" cy="253.606" r="4" fill="#0" id="circle64"/>
	<circle cx="109.532" cy="844.585" r="4" fill="#0" id="circle65"/>
	<circle cx="113.203" cy="247.182" r="4" fill="#0" id="circle66"/>
	<circle cx="114.12" cy="852.844" r="4" fill="#0" id="circle67"/>
	<circle cx="116.873" cy="238.006" r="4" fill="#0" id="circle68"/>
	<circle cx="119.626" cy="860.185" r="4" fill="#0" id="circle69"/>
	<circle cx="124.215" cy="230.664" r="4" fill="#0" id="circle70"/>
	<circle cx="126.05" cy="867.526" r="4" fill="#0" id="circle71"/>
	<circle cx="131.556" cy="224.241" r="4" fill="#0" id="circle72"/>
	<circle cx="133.391" cy="873.95" r="4" fill="#0" id="circle73"/>
	<circle cx="137.98" cy="216.899" r="4" fill="#0" id="circle74"/>
	<circle cx="139.815" cy="881.291" r="4" fill="#0" id="circle75"/>
	<circle cx="145.321" cy="210.475" r="4" fill="#0" id="circle76"/>
	<circle cx="147.156" cy="887.715" r="4" fill="#0" id="circle77"/>
	<circle cx="151.745" cy="203.134" r="4" fill="#0" id="circle78"/>
	<circle cx="153.58" cy="895.056" r="4" fill="#0" id="circle79"/>
	<circle cx="159.086" cy="196.71" r="4" fill="#0" id="circle80"/>
	<circle cx="161.839" cy="899.645" r="4" fill="#0" id="circle81"/>
	<circle cx="167.345" cy="192.122" r="4" fill="#0" id="circle82"/>
	<circle cx="169.18" cy="905.151" r="4" fill="#0" id="circle83"/>
	<circle cx="174.686" cy="184.781" r="4" fill="#0" id="circle84"/>
	<circle cx="175.604" cy="912.492" r="4" fill="#0" id="circle85"/>
	<circle cx="182.028" cy="178.357" r="4" fill="#0" id="circle86"/>
	<circle cx="182.945" cy="917.998" r="4" fill="#0" id="circle87"/>
	<circle cx="190.287" cy="173.769" r="4" fill="#0" id="circle88"/>
	<circle cx="191.204" cy="922.586" r="4" fill="#0" id="circle89"/>
	<circle cx="198.546" cy="169.18" r="4" fill="#0" id="circle90"/>
	<circle cx="199.463" cy="927.175" r="4" fill="#0" id="circle91"/>
	<circle cx="205.887" cy="162.757" r="4" fill="#0" id="circle92"/>
	<circle cx="206.805" cy="933.599" r="4" fill="#0" id="circle93"/>
	<circle cx="215.064" cy="158.168" r="4" fill="#0" id="circle94"/>
	<circle cx="215.064" cy="938.187" r="4" fill="#0" id="circle95"/>
	<circle cx="222.405" cy="150.827" r="4" fill="#0" id="circle96"/>
	<circle cx="222.405" cy="944.611" r="4" fill="#0" id="circle97"/>
	<circle cx="230.664" cy="949.199" r="4" fill="#0" id="circle98"/>
	<circle cx="231.582" cy="146.239" r="4" fill="#0" id="circle99"/>
	<circle cx="239.841" cy="952.87" r="4" fill="#0" id="circle100"/>
	<circle cx="240.759" cy="141.65" r="4" fill="#0" id="circle101"/>
	<circle cx="248.1" cy="957.458" r="4" fill="#0" id="circle102"/>
	<circle cx="249.935" cy="137.062" r="4" fill="#0" id="circle103"/>
	<circle cx="257.277" cy="961.129" r="4" fill="#0" id="circle104"/>
	<circle cx="259.112" cy="132.474" r="4" fill="#0" id="circle105"/>
	<circle cx="265.536" cy="965.717" r="4" fill="#0" id="circle106"/>
	<circle cx="268.289" cy="127.885" r="4" fill="#0" id="circle107"/>
	<circle cx="274.712" cy="968.47" r="4" fill="#0" id="circle108"/>
	<circle cx="277.465" cy="127.885" r="4" fill="#0" id="circle109"/>
	<circle cx="282.971" cy="973.058" r="4" fill="#0" id="circle110"/>
	<circle cx="285.724" cy="123.297" r="4" fill="#0" id="circle111"/>
	<circle cx="292.148" cy="973.058" r="4" fill="#0" id="circle112"/>
	<circle cx="294.901" cy="119.626" r="4" fill="#0" id="circle113"/>
	<circle cx="300.407" cy="977.647" r="4" fill="#0" id="circle114"/>
	<circle cx="304.078" cy="118.709" r="4" fill="#0" id="circle115"/>
	<circle cx="309.584" cy="981.317" r="4" fill="#0" id="circle116"/>
	<circle cx="311.419" cy="15.9297" r="4" fill="#0" id="circle117"/>
	<circle cx="311.419" cy="25.1064" r="4" fill="#0" id="circle118"/>
	<circle cx="312.337" cy="114.12" r="4" fill="#0" id="circle119"/>
	<circle cx="318.76" cy="8.58834" r="4" fill="#0" id="circle120"/>
	<circle cx="318.76" cy="31.5301" r="4" fill="#0" id="circle121"/>
	<circle cx="318.76" cy="982.235" r="4" fill="#0" id="circle122"/>
	<circle cx="321.513" cy="111.367" r="4" fill="#0" id="circle123"/>
	<circle cx="325.184" cy="38.8714" r="4" fill="#0" id="circle124"/>
	<circle cx="327.019" cy="4" r="4" fill="#0" id="circle125"/>
	<circle cx="327.019" cy="986.823" r="4" fill="#0" id="circle126"/>
	<circle cx="329.772" cy="47.1304" r="4" fill="#0" id="circle127"/>
	<circle cx="329.772" cy="56.3071" r="4" fill="#0" id="circle128"/>
	<circle cx="330.69" cy="109.532" r="4" fill="#0" id="circle129"/>
	<circle cx="336.196" cy="4" r="4" fill="#0" id="circle130"/>
	<circle cx="336.196" cy="63.6485" r="4" fill="#0" id="circle131"/>
	<circle cx="336.196" cy="986.823" r="4" fill="#0" id="circle132"/>
	<circle cx="339.867" cy="109.532" r="4" fill="#0" id="circle133"/>
	<circle cx="343.537" cy="69.1545" r="4" fill="#0" id="circle134"/>
	<circle cx="345.373" cy="4" r="4" fill="#0" id="circle135"/>
	<circle cx="345.373" cy="989.576" r="4" fill="#0" id="circle136"/>
	<circle cx="346.29" cy="78.3312" r="4" fill="#0" id="circle137"/>
	<circle cx="348.126" cy="104.944" r="4" fill="#0" id="circle138"/>
	<circle cx="353.632" cy="84.7549" r="4" fill="#0" id="circle139"/>
	<circle cx="354.549" cy="4" r="4" fill="#0" id="circle140"/>
	<circle cx="354.549" cy="991.412" r="4" fill="#0" id="circle141"/>
	<circle cx="357.302" cy="104.944" r="4" fill="#0" id="circle142"/>
	<circle cx="361.891" cy="89.3432" r="4" fill="#0" id="circle143"/>
	<circle cx="363.726" cy="4" r="4" fill="#0" id="circle144"/>
	<circle cx="363.726" cy="991.412" r="4" fill="#0" id="circle145"/>
	<circle cx="366.479" cy="104.944" r="4" fill="#0" id="circle146"/>
	<circle cx="371.068" cy="92.0962" r="4" fill="#0" id="circle147"/>
	<circle cx="372.903" cy="4" r="4" fill="#0" id="circle148"/>
	<circle cx="372.903" cy="994.165" r="4" fill="#0" id="circle149"/>
	<circle cx="375.656" cy="100.355" r="4" fill="#0" id="circle150"/>
	<circle cx="382.08" cy="4" r="4" fill="#0" id="circle151"/>
	<circle cx="382.08" cy="996" r="4" fill="#0" id="circle152"/>
	<circle cx="384.833" cy="96.6846" r="4" fill="#0" id="circle153"/>
	<circle cx="391.256" cy="4" r="4" fill="#0" id="circle154"/>
	<circle cx="391.256" cy="996" r="4" fill="#0" id="circle155"/>
	<circle cx="399.515" cy="8.58834" r="4" fill="#0" id="circle156"/>
	<circle cx="400.433" cy="996" r="4" fill="#0" id="circle157"/>
	<circle cx="408.692" cy="8.58834" r="4" fill="#0" id="circle158"/>
	<circle cx="409.61" cy="996" r="4" fill="#0" id="circle159"/>
	<circle cx="416.033" cy="14.0944" r="4" fill="#0" id="circle160"/>
	<circle cx="418.786" cy="996" r="4" fill="#0" id="circle161"/>
	<circle cx="424.292" cy="18.6827" r="4" fill="#0" id="circle162"/>
	<circle cx="427.963" cy="996" r="4" fill="#0" id="circle163"/>
	<circle cx="431.634" cy="25.1064" r="4" fill="#0" id="circle164"/>
	<circle cx="437.14" cy="996" r="4" fill="#0" id="circle165"/>
	<circle cx="438.057" cy="32.4477" r="4" fill="#0" id="circle166"/>
	<circle cx="445.399" cy="38.8714" r="4" fill="#0" id="circle167"/>
	<circle cx="446.316" cy="996" r="4" fill="#0" id="circle168"/>
	<circle cx="449.987" cy="47.1304" r="4" fill="#0" id="circle169"/>
	<circle cx="454.575" cy="55.3895" r="4" fill="#0" id="circle170"/>
	<circle cx="455.493" cy="996" r="4" fill="#0" id="circle171"/>
	<circle cx="456.411" cy="64.5661" r="4" fill="#0" id="circle172"/>
	<circle cx="460.999" cy="72.8252" r="4" fill="#0" id="circle173"/>
	<circle cx="463.752" cy="991.412" r="4" fill="#0" id="circle174"/>
	<circle cx="470.176" cy="68.2368" r="4" fill="#0" id="circle175"/>
	<circle cx="472.929" cy="991.412" r="4" fill="#0" id="circle176"/>
	<circle cx="477.517" cy="60.8955" r="4" fill="#0" id="circle177"/>
	<circle cx="482.105" cy="991.412" r="4" fill="#0" id="circle178"/>
	<circle cx="484.858" cy="54.4718" r="4" fill="#0" id="circle179"/>
	<circle cx="490.364" cy="986.823" r="4" fill="#0" id="circle180"/>
	<circle cx="493.117" cy="49.8834" r="4" fill="#0" id="circle181"/>
	<circle cx="495.87" cy="78.3312" r="4" fill="#0" id="circle182"/>
	<circle cx="495.87" cy="87.5079" r="4" fill="#0" id="circle183"/>
	<circle cx="495.87" cy="96.6846" r="4" fill="#0" id="circle184"/>
	<circle cx="499.541" cy="986.823" r="4" fill="#0" id="circle185"/>
	<circle cx="500.459" cy="69.1545" r="4" fill="#0" id="circle186"/>
	<circle cx="502.294" cy="45.2951" r="4" fill="#0" id="circle187"/>
	<circle cx="505.047" cy="97.6022" r="4" fill="#0" id="circle188"/>
	<circle cx="508.718" cy="64.5661" r="4" fill="#0" id="circle189"/>
	<circle cx="508.718" cy="984.07" r="4" fill="#0" id="circle190"/>
	<circle cx="511.471" cy="45.2951" r="4" fill="#0" id="circle191"/>
	<circle cx="514.224" cy="95.7669" r="4" fill="#0" id="circle192"/>
	<circle cx="516.977" cy="59.9778" r="4" fill="#0" id="circle193"/>
	<circle cx="517.895" cy="982.235" r="4" fill="#0" id="circle194"/>
	<circle cx="520.648" cy="40.7068" r="4" fill="#0" id="circle195"/>
	<circle cx="523.401" cy="95.7669" r="4" fill="#0" id="circle196"/>
	<circle cx="525.236" cy="55.3895" r="4" fill="#0" id="circle197"/>
	<circle cx="527.071" cy="982.235" r="4" fill="#0" id="circle198"/>
	<circle cx="529.824" cy="40.7068" r="4" fill="#0" id="circle199"/>
	<circle cx="532.577" cy="95.7669" r="4" fill="#0" id="circle200"/>
	<circle cx="534.413" cy="55.3895" r="4" fill="#0" id="circle201"/>
	<circle cx="536.248" cy="982.235" r="4" fill="#0" id="circle202"/>
	<circle cx="539.001" cy="40.7068" r="4" fill="#0" id="circle203"/>
	<circle cx="540.836" cy="91.1785" r="4" fill="#0" id="circle204"/>
	<circle cx="543.589" cy="55.3895" r="4" fill="#0" id="circle205"/>
	<circle cx="544.507" cy="986.823" r="4" fill="#0" id="circle206"/>
	<circle cx="548.178" cy="40.7068" r="4" fill="#0" id="circle207"/>
	<circle cx="550.013" cy="91.1785" r="4" fill="#0" id="circle208"/>
	<circle cx="552.766" cy="55.3895" r="4" fill="#0" id="circle209"/>
	<circle cx="553.684" cy="986.823" r="4" fill="#0" id="circle210"/>
	<circle cx="557.354" cy="40.7068" r="4" fill="#0" id="circle211"/>
	<circle cx="559.19" cy="91.1785" r="4" fill="#0" id="circle212"/>
	<circle cx="561.943" cy="55.3895" r="4" fill="#0" id="circle213"/>
	<circle cx="562.86" cy="986.823" r="4" fill="#0" id="circle214"/>
	<circle cx="566.531" cy="40.7068" r="4" fill="#0" id="circle215"/>
	<circle cx="568.366" cy="91.1785" r="4" fill="#0" id="circle216"/>
	<circle cx="571.119" cy="54.4718" r="4" fill="#0" id="circle217"/>
	<circle cx="572.037" cy="986.823" r="4" fill="#0" id="circle218"/>
	<circle cx="577.543" cy="91.1785" r="4" fill="#0" id="circle219"/>
	<circle cx="581.214" cy="986.823" r="4" fill="#0" id="circle220"/>
	<circle cx="586.72" cy="91.1785" r="4" fill="#0" id="circle221"/>
	<circle cx="590.39" cy="986.823" r="4" fill="#0" id="circle222"/>
	<circle cx="595.896" cy="91.1785" r="4" fill="#0" id="circle223"/>
	<circle cx="599.567" cy="986.823" r="4" fill="#0" id="circle224"/>
	<circle cx="605.073" cy="91.1785" r="4" fill="#0" id="circle225"/>
	<circle cx="608.744" cy="986.823" r="4" fill="#0" id="circle226"/>
	<circle cx="614.25" cy="93.0139" r="4" fill="#0" id="circle227"/>
	<circle cx="617.003" cy="982.235" r="4" fill="#0" id="circle228"/>
	<circle cx="623.426" cy="95.7669" r="4" fill="#0" id="circle229"/>
	<circle cx="626.179" cy="982.235" r="4" fill="#0" id="circle230"/>
	<circle cx="632.603" cy="95.7669" r="4" fill="#0" id="circle231"/>
	<circle cx="635.356" cy="982.235" r="4" fill="#0" id="circle232"/>
	<circle cx="641.78" cy="95.7669" r="4" fill="#0" id="circle233"/>
	<circle cx="644.533" cy="981.317" r="4" fill="#0" id="circle234"/>
	<circle cx="650.039" cy="100.355" r="4" fill="#0" id="circle235"/>
	<circle cx="653.71" cy="977.647" r="4" fill="#0" id="circle236"/>
	<circle cx="659.216" cy="100.355" r="4" fill="#0" id="circle237"/>
	<circle cx="662.886" cy="976.729" r="4" fill="#0" id="circle238"/>
	<circle cx="667.475" cy="104.944" r="4" fill="#0" id="circle239"/>
	<circle cx="672.063" cy="973.058" r="4" fill="#0" id="circle240"/>
	<circle cx="676.651" cy="104.944" r="4" fill="#0" id="circle241"/>
	<circle cx="681.24" cy="972.141" r="4" fill="#0" id="circle242"/>
	<circle cx="684.91" cy="109.532" r="4" fill="#0" id="circle243"/>
	<circle cx="690.416" cy="968.47" r="4" fill="#0" id="circle244"/>
	<circle cx="694.087" cy="109.532" r="4" fill="#0" id="circle245"/>
	<circle cx="698.675" cy="963.882" r="4" fill="#0" id="circle246"/>
	<circle cx="702.346" cy="114.12" r="4" fill="#0" id="circle247"/>
	<circle cx="706.934" cy="959.293" r="4" fill="#0" id="circle248"/>
	<circle cx="710.605" cy="118.709" r="4" fill="#0" id="circle249"/>
	<circle cx="716.111" cy="959.293" r="4" fill="#0" id="circle250"/>
	<circle cx="719.782" cy="120.544" r="4" fill="#0" id="circle251"/>
	<circle cx="724.37" cy="954.705" r="4" fill="#0" id="circle252"/>
	<circle cx="728.041" cy="125.132" r="4" fill="#0" id="circle253"/>
	<circle cx="732.629" cy="950.117" r="4" fill="#0" id="circle254"/>
	<circle cx="737.217" cy="128.803" r="4" fill="#0" id="circle255"/>
	<circle cx="740.888" cy="945.528" r="4" fill="#0" id="circle256"/>
	<circle cx="745.476" cy="133.391" r="4" fill="#0" id="circle257"/>
	<circle cx="749.147" cy="940.94" r="4" fill="#0" id="circle258"/>
	<circle cx="754.653" cy="137.062" r="4" fill="#0" id="circle259"/>
	<circle cx="757.406" cy="936.352" r="4" fill="#0" id="circle260"/>
	<circle cx="762.912" cy="141.65" r="4" fill="#0" id="circle261"/>
	<circle cx="766.583" cy="931.763" r="4" fill="#0" id="circle262"/>
	<circle cx="770.253" cy="148.074" r="4" fill="#0" id="circle263"/>
	<circle cx="774.842" cy="927.175" r="4" fill="#0" id="circle264"/>
	<circle cx="778.512" cy="152.662" r="4" fill="#0" id="circle265"/>
	<circle cx="782.183" cy="921.669" r="4" fill="#0" id="circle266"/>
	<circle cx="784.936" cy="160.004" r="4" fill="#0" id="circle267"/>
	<circle cx="791.36" cy="917.08" r="4" fill="#0" id="circle268"/>
	<circle cx="794.113" cy="162.757" r="4" fill="#0" id="circle269"/>
	<circle cx="798.701" cy="908.821" r="4" fill="#0" id="circle270"/>
	<circle cx="801.454" cy="169.18" r="4" fill="#0" id="circle271"/>
	<circle cx="807.878" cy="904.233" r="4" fill="#0" id="circle272"/>
	<circle cx="809.713" cy="173.769" r="4" fill="#0" id="circle273"/>
	<circle cx="815.219" cy="897.809" r="4" fill="#0" id="circle274"/>
	<circle cx="816.137" cy="181.11" r="4" fill="#0" id="circle275"/>
	<circle cx="821.643" cy="890.468" r="4" fill="#0" id="circle276"/>
	<circle cx="823.478" cy="187.534" r="4" fill="#0" id="circle277"/>
	<circle cx="828.984" cy="884.044" r="4" fill="#0" id="circle278"/>
	<circle cx="829.902" cy="194.875" r="4" fill="#0" id="circle279"/>
	<circle cx="835.408" cy="876.703" r="4" fill="#0" id="circle280"/>
	<circle cx="837.243" cy="201.299" r="4" fill="#0" id="circle281"/>
	<circle cx="844.585" cy="872.115" r="4" fill="#0" id="circle282"/>
	<circle cx="845.502" cy="205.887" r="4" fill="#0" id="circle283"/>
	<circle cx="849.173" cy="215.064" r="4" fill="#0" id="circle284"/>
	<circle cx="849.173" cy="862.938" r="4" fill="#0" id="circle285"/>
	<circle cx="856.514" cy="220.57" r="4" fill="#0" id="circle286"/>
	<circle cx="856.514" cy="856.514" r="4" fill="#0" id="circle287"/>
	<circle cx="862.938" cy="227.911" r="4" fill="#0" id="circle288"/>
	<circle cx="862.938" cy="849.173" r="4" fill="#0" id="circle289"/>
	<circle cx="870.279" cy="234.335" r="4" fill="#0" id="circle290"/>
	<circle cx="870.279" cy="842.749" r="4" fill="#0" id="circle291"/>
	<circle cx="876.703" cy="241.676" r="4" fill="#0" id="circle292"/>
	<circle cx="876.703" cy="835.408" r="4" fill="#0" id="circle293"/>
	<circle cx="881.291" cy="249.935" r="4" fill="#0" id="circle294"/>
	<circle cx="881.291" cy="826.231" r="4" fill="#0" id="circle295"/>
	<circle cx="887.715" cy="257.277" r="4" fill="#0" id="circle296"/>
	<circle cx="888.633" cy="819.808" r="4" fill="#0" id="circle297"/>
	<circle cx="892.303" cy="265.536" r="4" fill="#0" id="circle298"/>
	<circle cx="893.221" cy="810.631" r="4" fill="#0" id="circle299"/>
	<circle cx="898.727" cy="272.877" r="4" fill="#0" id="circle300"/>
	<circle cx="899.645" cy="798.701" r="4" fill="#0" id="circle301"/>
	<circle cx="903.315" cy="281.136" r="4" fill="#0" id="circle302"/>
	<circle cx="906.986" cy="792.278" r="4" fill="#0" id="circle303"/>
	<circle cx="908.821" cy="288.477" r="4" fill="#0" id="circle304"/>
	<circle cx="911.574" cy="783.101" r="4" fill="#0" id="circle305"/>
	<circle cx="913.41" cy="296.736" r="4" fill="#0" id="circle306"/>
	<circle cx="917.998" cy="304.995" r="4" fill="#0" id="circle307"/>
	<circle cx="917.998" cy="771.171" r="4" fill="#0" id="circle308"/>
	<circle cx="922.586" cy="313.254" r="4" fill="#0" id="circle309"/>
	<circle cx="922.586" cy="761.994" r="4" fill="#0" id="circle310"/>
	<circle cx="927.175" cy="321.513" r="4" fill="#0" id="circle311"/>
	<circle cx="927.175" cy="752.818" r="4" fill="#0" id="circle312"/>
	<circle cx="931.763" cy="329.772" r="4" fill="#0" id="circle313"/>
	<circle cx="931.763" cy="743.641" r="4" fill="#0" id="circle314"/>
	<circle cx="936.352" cy="338.031" r="4" fill="#0" id="circle315"/>
	<circle cx="936.352" cy="347.208" r="4" fill="#0" id="circle316"/>
	<circle cx="936.352" cy="729.876" r="4" fill="#0" id="circle317"/>
	<circle cx="940.94" cy="355.467" r="4" fill="#0" id="circle318"/>
	<circle cx="940.94" cy="720.699" r="4" fill="#0" id="circle319"/>
	<circle cx="945.528" cy="363.726" r="4" fill="#0" id="circle320"/>
	<circle cx="945.528" cy="706.934" r="4" fill="#0" id="circle321"/>
	<circle cx="948.281" cy="372.903" r="4" fill="#0" id="circle322"/>
	<circle cx="950.117" cy="697.758" r="4" fill="#0" id="circle323"/>
	<circle cx="952.87" cy="381.162" r="4" fill="#0" id="circle324"/>
	<circle cx="954.705" cy="390.339" r="4" fill="#0" id="circle325"/>
	<circle cx="954.705" cy="679.404" r="4" fill="#0" id="circle326"/>
	<circle cx="954.705" cy="688.581" r="4" fill="#0" id="circle327"/>
	<circle cx="956.54" cy="399.515" r="4" fill="#0" id="circle328"/>
	<circle cx="959.293" cy="408.692" r="4" fill="#0" id="circle329"/>
	<circle cx="959.293" cy="665.639" r="4" fill="#0" id="circle330"/>
	<circle cx="963.882" cy="416.951" r="4" fill="#0" id="circle331"/>
	<circle cx="963.882" cy="426.128" r="4" fill="#0" id="circle332"/>
	<circle cx="963.882" cy="647.286" r="4" fill="#0" id="circle333"/>
	<circle cx="963.882" cy="656.463" r="4" fill="#0" id="circle334"/>
	<circle cx="968.47" cy="434.387" r="4" fill="#0" id="circle335"/>
	<circle cx="968.47" cy="443.563" r="4" fill="#0" id="circle336"/>
	<circle cx="968.47" cy="452.74" r="4" fill="#0" id="circle337"/>
	<circle cx="968.47" cy="619.756" r="4" fill="#0" id="circle338"/>
	<circle cx="968.47" cy="628.932" r="4" fill="#0" id="circle339"/>
	<circle cx="968.47" cy="638.109" r="4" fill="#0" id="circle340"/>
	<circle cx="973.058" cy="460.999" r="4" fill="#0" id="circle341"/>
	<circle cx="973.058" cy="470.176" r="4" fill="#0" id="circle342"/>
	<circle cx="973.058" cy="479.352" r="4" fill="#0" id="circle343"/>
	<circle cx="973.058" cy="488.529" r="4" fill="#0" id="circle344"/>
	<circle cx="973.058" cy="587.637" r="4" fill="#0" id="circle345"/>
	<circle cx="973.058" cy="596.814" r="4" fill="#0" id="circle346"/>
	<circle cx="973.058" cy="605.991" r="4" fill="#0" id="circle347"/>
	<circle cx="977.647" cy="496.788" r="4" fill="#0" id="circle348"/>
	<circle cx="977.647" cy="505.965" r="4" fill="#0" id="circle349"/>
	<circle cx="977.647" cy="515.142" r="4" fill="#0" id="circle350"/>
	<circle cx="977.647" cy="524.318" r="4" fill="#0" id="circle351"/>
	<circle cx="977.647" cy="533.495" r="4" fill="#0" id="circle352"/>
	<circle cx="977.647" cy="542.672" r="4" fill="#0" id="circle353"/>
	<circle cx="977.647" cy="551.848" r="4" fill="#0" id="circle354"/>
	<circle cx="977.647" cy="561.025" r="4" fill="#0" id="circle355"/>
	<circle cx="977.647" cy="570.202" r="4" fill="#0" id="circle356"/>
	<circle cx="977.647" cy="579.378" r="4" fill="#0" id="circle357"/>
	</g>
</svg>