<?xml version="1.0" encoding="UTF-8" standalone="no"?>
<!-- Created with CurveBenchmark -->
<svg
	xmlns:dc="http://purl.org/dc/elements/1.1/"
	xmlns:cc="http://creativecommons.org/ns#"
	xmlns:rdf="http://www.w3.org/1999/02/22-rdf-syntax-ns#"
	xmlns:svg="http://www.w3.org/2000/svg"
	xmlns="http://www.w3.org/2000/svg"
	xmlns:sodipodi="http://sodipodi.sourceforge.net/DTD/sodipodi-0.dtd"
	xmlns:inkscape="http://www.inkscape.org/namespaces/inkscape"
	width="1000"
	height="1000"
	id="svg2"
	version="1.1"
	sodipodi:docname="manifold/crust-cthand07.png.txt">
<defs
	id="defs4" />
<metadata
	id="metadata7">
	<rdf:RDF>
		<cc:Work
			rdf:about="">
			<dc:format>image/svg+xml</dc:format>
			<dc:type
				rdf:resource="http://purl.org/dc/dcmitype/StillImage" />
			<dc:title></dc:title>
		</cc:Work>
	</rdf:RDF>
</metadata>
<g
	inkscape:label="Layer 1"
	inkscape:groupmode="layer"
	id="layer1">
	<path style="fill:none;stroke:red;stroke-width:1px;stroke-linecap:butt;stroke-linejoin:miter;stroke-opacity:1" d="M 176.587,113.555 176.587,128.563 z" id="boundary" inkscape:connector-curvature="0" />
	<path style="fill:none;stroke:red;stroke-width:1px;stroke-linecap:butt;stroke-linejoin:miter;stroke-opacity:1" d="M 176.587,143.57 176.587,128.563 z" id="boundary" inkscape:connector-curvature="0" />
	<path style="fill:none;stroke:red;stroke-width:1px;stroke-linecap:butt;stroke-linejoin:miter;stroke-opacity:1" d="M 176.587,143.57 176.587,158.578 z" id="boundary" inkscape:connector-curvature="0" />
	<path style="fill:none;stroke:red;stroke-width:1px;stroke-linecap:butt;stroke-linejoin:miter;stroke-opacity:1" d="M 176.587,188.593 176.587,173.585 z" id="boundary" inkscape:connector-curvature="0" />
	<path style="fill:none;stroke:red;stroke-width:1px;stroke-linecap:butt;stroke-linejoin:miter;stroke-opacity:1" d="M 176.587,173.585 176.587,158.578 z" id="boundary" inkscape:connector-curvature="0" />
	<path style="fill:none;stroke:red;stroke-width:1px;stroke-linecap:butt;stroke-linejoin:miter;stroke-opacity:1" d="M 47.5219,266.632 34.0151,259.129 z" id="boundary" inkscape:connector-curvature="0" />
	<path style="fill:none;stroke:red;stroke-width:1px;stroke-linecap:butt;stroke-linejoin:miter;stroke-opacity:1" d="M 184.091,217.107 176.587,203.601 z" id="boundary" inkscape:connector-curvature="0" />
	<path style="fill:none;stroke:red;stroke-width:1px;stroke-linecap:butt;stroke-linejoin:miter;stroke-opacity:1" d="M 176.587,203.601 176.587,188.593 z" id="boundary" inkscape:connector-curvature="0" />
	<path style="fill:none;stroke:red;stroke-width:1px;stroke-linecap:butt;stroke-linejoin:miter;stroke-opacity:1" d="M 184.091,217.107 184.091,232.115 z" id="boundary" inkscape:connector-curvature="0" />
	<path style="fill:none;stroke:red;stroke-width:1px;stroke-linecap:butt;stroke-linejoin:miter;stroke-opacity:1" d="M 184.091,232.115 184.091,247.123 z" id="boundary" inkscape:connector-curvature="0" />
	<path style="fill:none;stroke:red;stroke-width:1px;stroke-linecap:butt;stroke-linejoin:miter;stroke-opacity:1" d="M 188.593,101.549 176.587,113.555 z" id="boundary" inkscape:connector-curvature="0" />
	<path style="fill:none;stroke:red;stroke-width:1px;stroke-linecap:butt;stroke-linejoin:miter;stroke-opacity:1" d="M 34.0151,259.129 19.0076,263.631 z" id="boundary" inkscape:connector-curvature="0" />
	<path style="fill:none;stroke:red;stroke-width:1px;stroke-linecap:butt;stroke-linejoin:miter;stroke-opacity:1" d="M 203.601,94.0454 188.593,101.549 z" id="boundary" inkscape:connector-curvature="0" />
	<path style="fill:none;stroke:red;stroke-width:1px;stroke-linecap:butt;stroke-linejoin:miter;stroke-opacity:1" d="M 227.613,73.0348 215.607,82.0393 z" id="boundary" inkscape:connector-curvature="0" />
	<path style="fill:none;stroke:red;stroke-width:1px;stroke-linecap:butt;stroke-linejoin:miter;stroke-opacity:1" d="M 215.607,82.0393 203.601,94.0454 z" id="boundary" inkscape:connector-curvature="0" />
	<path style="fill:none;stroke:red;stroke-width:1px;stroke-linecap:butt;stroke-linejoin:miter;stroke-opacity:1" d="M 184.091,247.123 184.091,262.13 z" id="boundary" inkscape:connector-curvature="0" />
	<path style="fill:none;stroke:red;stroke-width:1px;stroke-linecap:butt;stroke-linejoin:miter;stroke-opacity:1" d="M 11.5038,278.638 19.0076,263.631 z" id="boundary" inkscape:connector-curvature="0" />
	<path style="fill:none;stroke:red;stroke-width:1px;stroke-linecap:butt;stroke-linejoin:miter;stroke-opacity:1" d="M 11.5038,278.638 11.5038,293.646 z" id="boundary" inkscape:connector-curvature="0" />
	<path style="fill:none;stroke:red;stroke-width:1px;stroke-linecap:butt;stroke-linejoin:miter;stroke-opacity:1" d="M 11.5038,293.646 4,308.654 z" id="boundary" inkscape:connector-curvature="0" />
	<path style="fill:none;stroke:red;stroke-width:1px;stroke-linecap:butt;stroke-linejoin:miter;stroke-opacity:1" d="M 61.0287,274.136 47.5219,266.632 z" id="boundary" inkscape:connector-curvature="0" />
	<path style="fill:none;stroke:red;stroke-width:1px;stroke-linecap:butt;stroke-linejoin:miter;stroke-opacity:1" d="M 61.0287,274.136 71.534,286.142 z" id="boundary" inkscape:connector-curvature="0" />
	<path style="fill:none;stroke:red;stroke-width:1px;stroke-linecap:butt;stroke-linejoin:miter;stroke-opacity:1" d="M 71.534,286.142 73.0348,301.15 z" id="boundary" inkscape:connector-curvature="0" />
	<path style="fill:none;stroke:red;stroke-width:1px;stroke-linecap:butt;stroke-linejoin:miter;stroke-opacity:1" d="M 4,323.661 16.0061,334.166 z" id="boundary" inkscape:connector-curvature="0" />
	<path style="fill:none;stroke:red;stroke-width:1px;stroke-linecap:butt;stroke-linejoin:miter;stroke-opacity:1" d="M 22.0091,349.174 16.0061,334.166 z" id="boundary" inkscape:connector-curvature="0" />
	<path style="fill:none;stroke:red;stroke-width:1px;stroke-linecap:butt;stroke-linejoin:miter;stroke-opacity:1" d="M 4,323.661 4,308.654 z" id="boundary" inkscape:connector-curvature="0" />
	<path style="fill:none;stroke:red;stroke-width:1px;stroke-linecap:butt;stroke-linejoin:miter;stroke-opacity:1" d="M 34.0151,358.179 22.0091,349.174 z" id="boundary" inkscape:connector-curvature="0" />
	<path style="fill:none;stroke:red;stroke-width:1px;stroke-linecap:butt;stroke-linejoin:miter;stroke-opacity:1" d="M 73.0348,301.15 80.5386,314.657 z" id="boundary" inkscape:connector-curvature="0" />
	<path style="fill:none;stroke:red;stroke-width:1px;stroke-linecap:butt;stroke-linejoin:miter;stroke-opacity:1" d="M 184.091,277.138 176.587,301.15 z" id="boundary" inkscape:connector-curvature="0" />
	<path style="fill:none;stroke:red;stroke-width:1px;stroke-linecap:butt;stroke-linejoin:miter;stroke-opacity:1" d="M 176.587,301.15 176.587,316.157 z" id="boundary" inkscape:connector-curvature="0" />
	<path style="fill:none;stroke:red;stroke-width:1px;stroke-linecap:butt;stroke-linejoin:miter;stroke-opacity:1" d="M 184.091,277.138 184.091,262.13 z" id="boundary" inkscape:connector-curvature="0" />
	<path style="fill:none;stroke:red;stroke-width:1px;stroke-linecap:butt;stroke-linejoin:miter;stroke-opacity:1" d="M 85.0408,329.664 80.5386,314.657 z" id="boundary" inkscape:connector-curvature="0" />
	<path style="fill:none;stroke:red;stroke-width:1px;stroke-linecap:butt;stroke-linejoin:miter;stroke-opacity:1" d="M 85.0408,329.664 95.5461,341.67 z" id="boundary" inkscape:connector-curvature="0" />
	<path style="fill:none;stroke:red;stroke-width:1px;stroke-linecap:butt;stroke-linejoin:miter;stroke-opacity:1" d="M 95.5461,341.67 95.5461,356.678 z" id="boundary" inkscape:connector-curvature="0" />
	<path style="fill:none;stroke:red;stroke-width:1px;stroke-linecap:butt;stroke-linejoin:miter;stroke-opacity:1" d="M 191.595,358.179 184.091,344.672 z" id="boundary" inkscape:connector-curvature="0" />
	<path style="fill:none;stroke:red;stroke-width:1px;stroke-linecap:butt;stroke-linejoin:miter;stroke-opacity:1" d="M 184.091,344.672 176.587,331.165 z" id="boundary" inkscape:connector-curvature="0" />
	<path style="fill:none;stroke:red;stroke-width:1px;stroke-linecap:butt;stroke-linejoin:miter;stroke-opacity:1" d="M 176.587,331.165 176.587,316.157 z" id="boundary" inkscape:connector-curvature="0" />
	<path style="fill:none;stroke:red;stroke-width:1px;stroke-linecap:butt;stroke-linejoin:miter;stroke-opacity:1" d="M 227.613,73.0348 238.118,85.0408 z" id="boundary" inkscape:connector-curvature="0" />
	<path style="fill:none;stroke:red;stroke-width:1px;stroke-linecap:butt;stroke-linejoin:miter;stroke-opacity:1" d="M 238.118,85.0408 245.622,98.5477 z" id="boundary" inkscape:connector-curvature="0" />
	<path style="fill:none;stroke:red;stroke-width:1px;stroke-linecap:butt;stroke-linejoin:miter;stroke-opacity:1" d="M 253.126,112.054 245.622,98.5477 z" id="boundary" inkscape:connector-curvature="0" />
	<path style="fill:none;stroke:red;stroke-width:1px;stroke-linecap:butt;stroke-linejoin:miter;stroke-opacity:1" d="M 253.126,112.054 253.126,127.062 z" id="boundary" inkscape:connector-curvature="0" />
	<path style="fill:none;stroke:red;stroke-width:1px;stroke-linecap:butt;stroke-linejoin:miter;stroke-opacity:1" d="M 260.629,140.569 253.126,127.062 z" id="boundary" inkscape:connector-curvature="0" />
	<path style="fill:none;stroke:red;stroke-width:1px;stroke-linecap:butt;stroke-linejoin:miter;stroke-opacity:1" d="M 260.629,140.569 260.629,155.576 z" id="boundary" inkscape:connector-curvature="0" />
	<path style="fill:none;stroke:red;stroke-width:1px;stroke-linecap:butt;stroke-linejoin:miter;stroke-opacity:1" d="M 260.629,155.576 260.629,170.584 z" id="boundary" inkscape:connector-curvature="0" />
	<path style="fill:none;stroke:red;stroke-width:1px;stroke-linecap:butt;stroke-linejoin:miter;stroke-opacity:1" d="M 260.629,170.584 260.629,185.592 z" id="boundary" inkscape:connector-curvature="0" />
	<path style="fill:none;stroke:red;stroke-width:1px;stroke-linecap:butt;stroke-linejoin:miter;stroke-opacity:1" d="M 260.629,185.592 260.629,200.599 z" id="boundary" inkscape:connector-curvature="0" />
	<path style="fill:none;stroke:red;stroke-width:1px;stroke-linecap:butt;stroke-linejoin:miter;stroke-opacity:1" d="M 260.629,215.607 260.629,200.599 z" id="boundary" inkscape:connector-curvature="0" />
	<path style="fill:none;stroke:red;stroke-width:1px;stroke-linecap:butt;stroke-linejoin:miter;stroke-opacity:1" d="M 260.629,215.607 260.629,230.614 z" id="boundary" inkscape:connector-curvature="0" />
	<path style="fill:none;stroke:red;stroke-width:1px;stroke-linecap:butt;stroke-linejoin:miter;stroke-opacity:1" d="M 334.166,46.0212 334.166,61.0287 z" id="boundary" inkscape:connector-curvature="0" />
	<path style="fill:none;stroke:red;stroke-width:1px;stroke-linecap:butt;stroke-linejoin:miter;stroke-opacity:1" d="M 349.174,38.5174 334.166,46.0212 z" id="boundary" inkscape:connector-curvature="0" />
	<path style="fill:none;stroke:red;stroke-width:1px;stroke-linecap:butt;stroke-linejoin:miter;stroke-opacity:1" d="M 334.166,61.0287 334.166,76.0363 z" id="boundary" inkscape:connector-curvature="0" />
	<path style="fill:none;stroke:red;stroke-width:1px;stroke-linecap:butt;stroke-linejoin:miter;stroke-opacity:1" d="M 334.166,91.0439 334.166,106.051 z" id="boundary" inkscape:connector-curvature="0" />
	<path style="fill:none;stroke:red;stroke-width:1px;stroke-linecap:butt;stroke-linejoin:miter;stroke-opacity:1" d="M 334.166,76.0363 334.166,91.0439 z" id="boundary" inkscape:connector-curvature="0" />
	<path style="fill:none;stroke:red;stroke-width:1px;stroke-linecap:butt;stroke-linejoin:miter;stroke-opacity:1" d="M 356.678,16.0061 349.174,38.5174 z" id="boundary" inkscape:connector-curvature="0" />
	<path style="fill:none;stroke:red;stroke-width:1px;stroke-linecap:butt;stroke-linejoin:miter;stroke-opacity:1" d="M 334.166,121.059 334.166,106.051 z" id="boundary" inkscape:connector-curvature="0" />
	<path style="fill:none;stroke:red;stroke-width:1px;stroke-linecap:butt;stroke-linejoin:miter;stroke-opacity:1" d="M 334.166,121.059 334.166,136.067 z" id="boundary" inkscape:connector-curvature="0" />
	<path style="fill:none;stroke:red;stroke-width:1px;stroke-linecap:butt;stroke-linejoin:miter;stroke-opacity:1" d="M 334.166,151.074 334.166,136.067 z" id="boundary" inkscape:connector-curvature="0" />
	<path style="fill:none;stroke:red;stroke-width:1px;stroke-linecap:butt;stroke-linejoin:miter;stroke-opacity:1" d="M 368.684,4 356.678,16.0061 z" id="boundary" inkscape:connector-curvature="0" />
	<path style="fill:none;stroke:red;stroke-width:1px;stroke-linecap:butt;stroke-linejoin:miter;stroke-opacity:1" d="M 334.166,151.074 326.663,166.082 z" id="boundary" inkscape:connector-curvature="0" />
	<path style="fill:none;stroke:red;stroke-width:1px;stroke-linecap:butt;stroke-linejoin:miter;stroke-opacity:1" d="M 326.663,166.082 326.663,181.089 z" id="boundary" inkscape:connector-curvature="0" />
	<path style="fill:none;stroke:red;stroke-width:1px;stroke-linecap:butt;stroke-linejoin:miter;stroke-opacity:1" d="M 326.663,181.089 326.663,196.097 z" id="boundary" inkscape:connector-curvature="0" />
	<path style="fill:none;stroke:red;stroke-width:1px;stroke-linecap:butt;stroke-linejoin:miter;stroke-opacity:1" d="M 326.663,211.104 326.663,196.097 z" id="boundary" inkscape:connector-curvature="0" />
	<path style="fill:none;stroke:red;stroke-width:1px;stroke-linecap:butt;stroke-linejoin:miter;stroke-opacity:1" d="M 326.663,211.104 319.159,233.616 z" id="boundary" inkscape:connector-curvature="0" />
	<path style="fill:none;stroke:red;stroke-width:1px;stroke-linecap:butt;stroke-linejoin:miter;stroke-opacity:1" d="M 260.629,245.622 260.629,230.614 z" id="boundary" inkscape:connector-curvature="0" />
	<path style="fill:none;stroke:red;stroke-width:1px;stroke-linecap:butt;stroke-linejoin:miter;stroke-opacity:1" d="M 260.629,260.629 260.629,245.622 z" id="boundary" inkscape:connector-curvature="0" />
	<path style="fill:none;stroke:red;stroke-width:1px;stroke-linecap:butt;stroke-linejoin:miter;stroke-opacity:1" d="M 260.629,275.637 260.629,290.644 z" id="boundary" inkscape:connector-curvature="0" />
	<path style="fill:none;stroke:red;stroke-width:1px;stroke-linecap:butt;stroke-linejoin:miter;stroke-opacity:1" d="M 260.629,275.637 260.629,260.629 z" id="boundary" inkscape:connector-curvature="0" />
	<path style="fill:none;stroke:red;stroke-width:1px;stroke-linecap:butt;stroke-linejoin:miter;stroke-opacity:1" d="M 260.629,290.644 260.629,305.652 z" id="boundary" inkscape:connector-curvature="0" />
	<path style="fill:none;stroke:red;stroke-width:1px;stroke-linecap:butt;stroke-linejoin:miter;stroke-opacity:1" d="M 268.133,319.159 260.629,305.652 z" id="boundary" inkscape:connector-curvature="0" />
	<path style="fill:none;stroke:red;stroke-width:1px;stroke-linecap:butt;stroke-linejoin:miter;stroke-opacity:1" d="M 283.141,346.172 275.637,332.666 z" id="boundary" inkscape:connector-curvature="0" />
	<path style="fill:none;stroke:red;stroke-width:1px;stroke-linecap:butt;stroke-linejoin:miter;stroke-opacity:1" d="M 268.133,319.159 275.637,332.666 z" id="boundary" inkscape:connector-curvature="0" />
	<path style="fill:none;stroke:red;stroke-width:1px;stroke-linecap:butt;stroke-linejoin:miter;stroke-opacity:1" d="M 311.655,248.623 319.159,233.616 z" id="boundary" inkscape:connector-curvature="0" />
	<path style="fill:none;stroke:red;stroke-width:1px;stroke-linecap:butt;stroke-linejoin:miter;stroke-opacity:1" d="M 311.655,263.631 311.655,248.623 z" id="boundary" inkscape:connector-curvature="0" />
	<path style="fill:none;stroke:red;stroke-width:1px;stroke-linecap:butt;stroke-linejoin:miter;stroke-opacity:1" d="M 311.655,278.638 319.159,292.145 z" id="boundary" inkscape:connector-curvature="0" />
	<path style="fill:none;stroke:red;stroke-width:1px;stroke-linecap:butt;stroke-linejoin:miter;stroke-opacity:1" d="M 311.655,278.638 311.655,263.631 z" id="boundary" inkscape:connector-curvature="0" />
	<path style="fill:none;stroke:red;stroke-width:1px;stroke-linecap:butt;stroke-linejoin:miter;stroke-opacity:1" d="M 319.159,292.145 319.159,307.153 z" id="boundary" inkscape:connector-curvature="0" />
	<path style="fill:none;stroke:red;stroke-width:1px;stroke-linecap:butt;stroke-linejoin:miter;stroke-opacity:1" d="M 319.159,307.153 319.159,322.16 z" id="boundary" inkscape:connector-curvature="0" />
	<path style="fill:none;stroke:red;stroke-width:1px;stroke-linecap:butt;stroke-linejoin:miter;stroke-opacity:1" d="M 319.159,322.16 311.655,338.669 z" id="boundary" inkscape:connector-curvature="0" />
	<path style="fill:none;stroke:red;stroke-width:1px;stroke-linecap:butt;stroke-linejoin:miter;stroke-opacity:1" d="M 311.655,338.669 311.655,353.676 z" id="boundary" inkscape:connector-curvature="0" />
	<path style="fill:none;stroke:red;stroke-width:1px;stroke-linecap:butt;stroke-linejoin:miter;stroke-opacity:1" d="M 289.144,361.18 283.141,346.172 z" id="boundary" inkscape:connector-curvature="0" />
	<path style="fill:none;stroke:red;stroke-width:1px;stroke-linecap:butt;stroke-linejoin:miter;stroke-opacity:1" d="M 34.0151,358.179 34.0151,373.186 z" id="boundary" inkscape:connector-curvature="0" />
	<path style="fill:none;stroke:red;stroke-width:1px;stroke-linecap:butt;stroke-linejoin:miter;stroke-opacity:1" d="M 38.5174,388.194 41.5189,403.201 z" id="boundary" inkscape:connector-curvature="0" />
	<path style="fill:none;stroke:red;stroke-width:1px;stroke-linecap:butt;stroke-linejoin:miter;stroke-opacity:1" d="M 38.5174,388.194 34.0151,373.186 z" id="boundary" inkscape:connector-curvature="0" />
	<path style="fill:none;stroke:red;stroke-width:1px;stroke-linecap:butt;stroke-linejoin:miter;stroke-opacity:1" d="M 49.0227,416.708 41.5189,403.201 z" id="boundary" inkscape:connector-curvature="0" />
	<path style="fill:none;stroke:red;stroke-width:1px;stroke-linecap:butt;stroke-linejoin:miter;stroke-opacity:1" d="M 49.0227,416.708 56.5265,430.215 z" id="boundary" inkscape:connector-curvature="0" />
	<path style="fill:none;stroke:red;stroke-width:1px;stroke-linecap:butt;stroke-linejoin:miter;stroke-opacity:1" d="M 64.0303,443.722 56.5265,430.215 z" id="boundary" inkscape:connector-curvature="0" />
	<path style="fill:none;stroke:red;stroke-width:1px;stroke-linecap:butt;stroke-linejoin:miter;stroke-opacity:1" d="M 71.534,457.228 64.0303,443.722 z" id="boundary" inkscape:connector-curvature="0" />
	<path style="fill:none;stroke:red;stroke-width:1px;stroke-linecap:butt;stroke-linejoin:miter;stroke-opacity:1" d="M 71.534,457.228 71.534,472.236 z" id="boundary" inkscape:connector-curvature="0" />
	<path style="fill:none;stroke:red;stroke-width:1px;stroke-linecap:butt;stroke-linejoin:miter;stroke-opacity:1" d="M 82.0393,484.242 71.534,472.236 z" id="boundary" inkscape:connector-curvature="0" />
	<path style="fill:none;stroke:red;stroke-width:1px;stroke-linecap:butt;stroke-linejoin:miter;stroke-opacity:1" d="M 82.0393,484.242 94.0454,493.247 z" id="boundary" inkscape:connector-curvature="0" />
	<path style="fill:none;stroke:red;stroke-width:1px;stroke-linecap:butt;stroke-linejoin:miter;stroke-opacity:1" d="M 115.056,380.69 103.05,370.185 z" id="boundary" inkscape:connector-curvature="0" />
	<path style="fill:none;stroke:red;stroke-width:1px;stroke-linecap:butt;stroke-linejoin:miter;stroke-opacity:1" d="M 103.05,370.185 95.5461,356.678 z" id="boundary" inkscape:connector-curvature="0" />
	<path style="fill:none;stroke:red;stroke-width:1px;stroke-linecap:butt;stroke-linejoin:miter;stroke-opacity:1" d="M 115.056,380.69 125.561,392.696 z" id="boundary" inkscape:connector-curvature="0" />
	<path style="fill:none;stroke:red;stroke-width:1px;stroke-linecap:butt;stroke-linejoin:miter;stroke-opacity:1" d="M 133.065,406.203 139.068,421.21 z" id="boundary" inkscape:connector-curvature="0" />
	<path style="fill:none;stroke:red;stroke-width:1px;stroke-linecap:butt;stroke-linejoin:miter;stroke-opacity:1" d="M 133.065,406.203 125.561,392.696 z" id="boundary" inkscape:connector-curvature="0" />
	<path style="fill:none;stroke:red;stroke-width:1px;stroke-linecap:butt;stroke-linejoin:miter;stroke-opacity:1" d="M 148.073,433.216 139.068,421.21 z" id="boundary" inkscape:connector-curvature="0" />
	<path style="fill:none;stroke:red;stroke-width:1px;stroke-linecap:butt;stroke-linejoin:miter;stroke-opacity:1" d="M 98.5477,508.254 94.0454,493.247 z" id="boundary" inkscape:connector-curvature="0" />
	<path style="fill:none;stroke:red;stroke-width:1px;stroke-linecap:butt;stroke-linejoin:miter;stroke-opacity:1" d="M 148.073,433.216 155.576,446.723 z" id="boundary" inkscape:connector-curvature="0" />
	<path style="fill:none;stroke:red;stroke-width:1px;stroke-linecap:butt;stroke-linejoin:miter;stroke-opacity:1" d="M 101.549,523.262 98.5477,508.254 z" id="boundary" inkscape:connector-curvature="0" />
	<path style="fill:none;stroke:red;stroke-width:1px;stroke-linecap:butt;stroke-linejoin:miter;stroke-opacity:1" d="M 155.576,446.723 169.083,454.227 z" id="boundary" inkscape:connector-curvature="0" />
	<path style="fill:none;stroke:red;stroke-width:1px;stroke-linecap:butt;stroke-linejoin:miter;stroke-opacity:1" d="M 106.051,538.269 101.549,523.262 z" id="boundary" inkscape:connector-curvature="0" />
	<path style="fill:none;stroke:red;stroke-width:1px;stroke-linecap:butt;stroke-linejoin:miter;stroke-opacity:1" d="M 127.062,580.29 119.558,566.784 z" id="boundary" inkscape:connector-curvature="0" />
	<path style="fill:none;stroke:red;stroke-width:1px;stroke-linecap:butt;stroke-linejoin:miter;stroke-opacity:1" d="M 113.555,551.776 119.558,566.784 z" id="boundary" inkscape:connector-curvature="0" />
	<path style="fill:none;stroke:red;stroke-width:1px;stroke-linecap:butt;stroke-linejoin:miter;stroke-opacity:1" d="M 106.051,538.269 113.555,551.776 z" id="boundary" inkscape:connector-curvature="0" />
	<path style="fill:none;stroke:red;stroke-width:1px;stroke-linecap:butt;stroke-linejoin:miter;stroke-opacity:1" d="M 127.062,580.29 131.564,595.298 z" id="boundary" inkscape:connector-curvature="0" />
	<path style="fill:none;stroke:red;stroke-width:1px;stroke-linecap:butt;stroke-linejoin:miter;stroke-opacity:1" d="M 131.564,610.306 131.564,625.313 z" id="boundary" inkscape:connector-curvature="0" />
	<path style="fill:none;stroke:red;stroke-width:1px;stroke-linecap:butt;stroke-linejoin:miter;stroke-opacity:1" d="M 131.564,610.306 131.564,595.298 z" id="boundary" inkscape:connector-curvature="0" />
	<path style="fill:none;stroke:red;stroke-width:1px;stroke-linecap:butt;stroke-linejoin:miter;stroke-opacity:1" d="M 139.068,638.82 139.068,653.828 z" id="boundary" inkscape:connector-curvature="0" />
	<path style="fill:none;stroke:red;stroke-width:1px;stroke-linecap:butt;stroke-linejoin:miter;stroke-opacity:1" d="M 139.068,638.82 131.564,625.313 z" id="boundary" inkscape:connector-curvature="0" />
	<path style="fill:none;stroke:red;stroke-width:1px;stroke-linecap:butt;stroke-linejoin:miter;stroke-opacity:1" d="M 139.068,653.828 146.572,667.334 z" id="boundary" inkscape:connector-curvature="0" />
	<path style="fill:none;stroke:red;stroke-width:1px;stroke-linecap:butt;stroke-linejoin:miter;stroke-opacity:1" d="M 146.572,682.342 146.572,667.334 z" id="boundary" inkscape:connector-curvature="0" />
	<path style="fill:none;stroke:red;stroke-width:1px;stroke-linecap:butt;stroke-linejoin:miter;stroke-opacity:1" d="M 146.572,682.342 154.076,695.849 z" id="boundary" inkscape:connector-curvature="0" />
	<path style="fill:none;stroke:red;stroke-width:1px;stroke-linecap:butt;stroke-linejoin:miter;stroke-opacity:1" d="M 154.076,695.849 154.076,710.856 z" id="boundary" inkscape:connector-curvature="0" />
	<path style="fill:none;stroke:red;stroke-width:1px;stroke-linecap:butt;stroke-linejoin:miter;stroke-opacity:1" d="M 161.579,739.371 154.076,725.864 z" id="boundary" inkscape:connector-curvature="0" />
	<path style="fill:none;stroke:red;stroke-width:1px;stroke-linecap:butt;stroke-linejoin:miter;stroke-opacity:1" d="M 154.076,725.864 154.076,710.856 z" id="boundary" inkscape:connector-curvature="0" />
	<path style="fill:none;stroke:red;stroke-width:1px;stroke-linecap:butt;stroke-linejoin:miter;stroke-opacity:1" d="M 161.579,739.371 161.579,754.378 z" id="boundary" inkscape:connector-curvature="0" />
	<path style="fill:none;stroke:red;stroke-width:1px;stroke-linecap:butt;stroke-linejoin:miter;stroke-opacity:1" d="M 161.579,769.386 161.579,784.393 z" id="boundary" inkscape:connector-curvature="0" />
	<path style="fill:none;stroke:red;stroke-width:1px;stroke-linecap:butt;stroke-linejoin:miter;stroke-opacity:1" d="M 161.579,754.378 161.579,769.386 z" id="boundary" inkscape:connector-curvature="0" />
	<path style="fill:none;stroke:red;stroke-width:1px;stroke-linecap:butt;stroke-linejoin:miter;stroke-opacity:1" d="M 161.579,784.393 164.581,799.401 z" id="boundary" inkscape:connector-curvature="0" />
	<path style="fill:none;stroke:red;stroke-width:1px;stroke-linecap:butt;stroke-linejoin:miter;stroke-opacity:1" d="M 196.097,388.194 191.595,373.186 z" id="boundary" inkscape:connector-curvature="0" />
	<path style="fill:none;stroke:red;stroke-width:1px;stroke-linecap:butt;stroke-linejoin:miter;stroke-opacity:1" d="M 199.098,403.201 196.097,388.194 z" id="boundary" inkscape:connector-curvature="0" />
	<path style="fill:none;stroke:red;stroke-width:1px;stroke-linecap:butt;stroke-linejoin:miter;stroke-opacity:1" d="M 199.098,433.216 199.098,418.209 z" id="boundary" inkscape:connector-curvature="0" />
	<path style="fill:none;stroke:red;stroke-width:1px;stroke-linecap:butt;stroke-linejoin:miter;stroke-opacity:1" d="M 199.098,403.201 199.098,418.209 z" id="boundary" inkscape:connector-curvature="0" />
	<path style="fill:none;stroke:red;stroke-width:1px;stroke-linecap:butt;stroke-linejoin:miter;stroke-opacity:1" d="M 191.595,373.186 191.595,358.179 z" id="boundary" inkscape:connector-curvature="0" />
	<path style="fill:none;stroke:red;stroke-width:1px;stroke-linecap:butt;stroke-linejoin:miter;stroke-opacity:1" d="M 169.083,454.227 184.091,457.228 z" id="boundary" inkscape:connector-curvature="0" />
	<path style="fill:none;stroke:red;stroke-width:1px;stroke-linecap:butt;stroke-linejoin:miter;stroke-opacity:1" d="M 199.098,433.216 199.098,448.224 z" id="boundary" inkscape:connector-curvature="0" />
	<path style="fill:none;stroke:red;stroke-width:1px;stroke-linecap:butt;stroke-linejoin:miter;stroke-opacity:1" d="M 199.098,448.224 184.091,457.228 z" id="boundary" inkscape:connector-curvature="0" />
	<path style="fill:none;stroke:red;stroke-width:1px;stroke-linecap:butt;stroke-linejoin:miter;stroke-opacity:1" d="M 289.144,361.18 290.644,376.188 z" id="boundary" inkscape:connector-curvature="0" />
	<path style="fill:none;stroke:red;stroke-width:1px;stroke-linecap:butt;stroke-linejoin:miter;stroke-opacity:1" d="M 311.655,353.676 311.655,368.684 z" id="boundary" inkscape:connector-curvature="0" />
	<path style="fill:none;stroke:red;stroke-width:1px;stroke-linecap:butt;stroke-linejoin:miter;stroke-opacity:1" d="M 311.655,368.684 302.651,386.693 z" id="boundary" inkscape:connector-curvature="0" />
	<path style="fill:none;stroke:red;stroke-width:1px;stroke-linecap:butt;stroke-linejoin:miter;stroke-opacity:1" d="M 302.651,386.693 290.644,376.188 z" id="boundary" inkscape:connector-curvature="0" />
	<path style="fill:none;stroke:red;stroke-width:1px;stroke-linecap:butt;stroke-linejoin:miter;stroke-opacity:1" d="M 176.587,808.405 164.581,799.401 z" id="boundary" inkscape:connector-curvature="0" />
	<path style="fill:none;stroke:red;stroke-width:1px;stroke-linecap:butt;stroke-linejoin:miter;stroke-opacity:1" d="M 181.089,823.413 176.587,808.405 z" id="boundary" inkscape:connector-curvature="0" />
	<path style="fill:none;stroke:red;stroke-width:1px;stroke-linecap:butt;stroke-linejoin:miter;stroke-opacity:1" d="M 181.089,823.413 188.593,836.92 z" id="boundary" inkscape:connector-curvature="0" />
	<path style="fill:none;stroke:red;stroke-width:1px;stroke-linecap:butt;stroke-linejoin:miter;stroke-opacity:1" d="M 199.098,848.926 188.593,836.92 z" id="boundary" inkscape:connector-curvature="0" />
	<path style="fill:none;stroke:red;stroke-width:1px;stroke-linecap:butt;stroke-linejoin:miter;stroke-opacity:1" d="M 199.098,878.941 199.098,863.933 z" id="boundary" inkscape:connector-curvature="0" />
	<path style="fill:none;stroke:red;stroke-width:1px;stroke-linecap:butt;stroke-linejoin:miter;stroke-opacity:1" d="M 199.098,848.926 199.098,863.933 z" id="boundary" inkscape:connector-curvature="0" />
	<path style="fill:none;stroke:red;stroke-width:1px;stroke-linecap:butt;stroke-linejoin:miter;stroke-opacity:1" d="M 199.098,893.949 199.098,878.941 z" id="boundary" inkscape:connector-curvature="0" />
	<path style="fill:none;stroke:red;stroke-width:1px;stroke-linecap:butt;stroke-linejoin:miter;stroke-opacity:1" d="M 199.098,893.949 199.098,908.956 z" id="boundary" inkscape:connector-curvature="0" />
	<path style="fill:none;stroke:red;stroke-width:1px;stroke-linecap:butt;stroke-linejoin:miter;stroke-opacity:1" d="M 199.098,923.964 199.098,908.956 z" id="boundary" inkscape:connector-curvature="0" />
	<path style="fill:none;stroke:red;stroke-width:1px;stroke-linecap:butt;stroke-linejoin:miter;stroke-opacity:1" d="M 199.098,923.964 199.098,938.971 z" id="boundary" inkscape:connector-curvature="0" />
	<path style="fill:none;stroke:red;stroke-width:1px;stroke-linecap:butt;stroke-linejoin:miter;stroke-opacity:1" d="M 199.098,938.971 199.098,953.979 z" id="boundary" inkscape:connector-curvature="0" />
	<path style="fill:none;stroke:red;stroke-width:1px;stroke-linecap:butt;stroke-linejoin:miter;stroke-opacity:1" d="M 184.091,991.498 191.595,968.986 z" id="boundary" inkscape:connector-curvature="0" />
	<path style="fill:none;stroke:red;stroke-width:1px;stroke-linecap:butt;stroke-linejoin:miter;stroke-opacity:1" d="M 191.595,968.986 199.098,953.979 z" id="boundary" inkscape:connector-curvature="0" />
	<path style="fill:none;stroke:red;stroke-width:1px;stroke-linecap:butt;stroke-linejoin:miter;stroke-opacity:1" d="M 199.098,996 184.091,991.498 z" id="boundary" inkscape:connector-curvature="0" />
	<path style="fill:none;stroke:red;stroke-width:1px;stroke-linecap:butt;stroke-linejoin:miter;stroke-opacity:1" d="M 244.121,996 229.113,996 z" id="boundary" inkscape:connector-curvature="0" />
	<path style="fill:none;stroke:red;stroke-width:1px;stroke-linecap:butt;stroke-linejoin:miter;stroke-opacity:1" d="M 214.106,996 199.098,996 z" id="boundary" inkscape:connector-curvature="0" />
	<path style="fill:none;stroke:red;stroke-width:1px;stroke-linecap:butt;stroke-linejoin:miter;stroke-opacity:1" d="M 229.113,996 214.106,996 z" id="boundary" inkscape:connector-curvature="0" />
	<path style="fill:none;stroke:red;stroke-width:1px;stroke-linecap:butt;stroke-linejoin:miter;stroke-opacity:1" d="M 364.182,996 349.174,996 z" id="boundary" inkscape:connector-curvature="0" />
	<path style="fill:none;stroke:red;stroke-width:1px;stroke-linecap:butt;stroke-linejoin:miter;stroke-opacity:1" d="M 289.144,996 274.136,996 z" id="boundary" inkscape:connector-curvature="0" />
	<path style="fill:none;stroke:red;stroke-width:1px;stroke-linecap:butt;stroke-linejoin:miter;stroke-opacity:1" d="M 259.129,996 244.121,996 z" id="boundary" inkscape:connector-curvature="0" />
	<path style="fill:none;stroke:red;stroke-width:1px;stroke-linecap:butt;stroke-linejoin:miter;stroke-opacity:1" d="M 274.136,996 259.129,996 z" id="boundary" inkscape:connector-curvature="0" />
	<path style="fill:none;stroke:red;stroke-width:1px;stroke-linecap:butt;stroke-linejoin:miter;stroke-opacity:1" d="M 304.151,996 289.144,996 z" id="boundary" inkscape:connector-curvature="0" />
	<path style="fill:none;stroke:red;stroke-width:1px;stroke-linecap:butt;stroke-linejoin:miter;stroke-opacity:1" d="M 319.159,996 304.151,996 z" id="boundary" inkscape:connector-curvature="0" />
	<path style="fill:none;stroke:red;stroke-width:1px;stroke-linecap:butt;stroke-linejoin:miter;stroke-opacity:1" d="M 319.159,996 334.166,996 z" id="boundary" inkscape:connector-curvature="0" />
	<path style="fill:none;stroke:red;stroke-width:1px;stroke-linecap:butt;stroke-linejoin:miter;stroke-opacity:1" d="M 349.174,996 334.166,996 z" id="boundary" inkscape:connector-curvature="0" />
	<path style="fill:none;stroke:red;stroke-width:1px;stroke-linecap:butt;stroke-linejoin:miter;stroke-opacity:1" d="M 383.691,4 388.194,19.0076 z" id="boundary" inkscape:connector-curvature="0" />
	<path style="fill:none;stroke:red;stroke-width:1px;stroke-linecap:butt;stroke-linejoin:miter;stroke-opacity:1" d="M 368.684,4 383.691,4 z" id="boundary" inkscape:connector-curvature="0" />
	<path style="fill:none;stroke:red;stroke-width:1px;stroke-linecap:butt;stroke-linejoin:miter;stroke-opacity:1" d="M 395.697,32.5144 388.194,19.0076 z" id="boundary" inkscape:connector-curvature="0" />
	<path style="fill:none;stroke:red;stroke-width:1px;stroke-linecap:butt;stroke-linejoin:miter;stroke-opacity:1" d="M 395.697,32.5144 407.703,43.0197 z" id="boundary" inkscape:connector-curvature="0" />
	<path style="fill:none;stroke:red;stroke-width:1px;stroke-linecap:butt;stroke-linejoin:miter;stroke-opacity:1" d="M 407.703,43.0197 410.705,58.0272 z" id="boundary" inkscape:connector-curvature="0" />
	<path style="fill:none;stroke:red;stroke-width:1px;stroke-linecap:butt;stroke-linejoin:miter;stroke-opacity:1" d="M 410.705,73.0348 410.705,58.0272 z" id="boundary" inkscape:connector-curvature="0" />
	<path style="fill:none;stroke:red;stroke-width:1px;stroke-linecap:butt;stroke-linejoin:miter;stroke-opacity:1" d="M 410.705,73.0348 410.705,88.0424 z" id="boundary" inkscape:connector-curvature="0" />
	<path style="fill:none;stroke:red;stroke-width:1px;stroke-linecap:butt;stroke-linejoin:miter;stroke-opacity:1" d="M 410.705,103.05 410.705,88.0424 z" id="boundary" inkscape:connector-curvature="0" />
	<path style="fill:none;stroke:red;stroke-width:1px;stroke-linecap:butt;stroke-linejoin:miter;stroke-opacity:1" d="M 410.705,133.065 410.705,118.057 z" id="boundary" inkscape:connector-curvature="0" />
	<path style="fill:none;stroke:red;stroke-width:1px;stroke-linecap:butt;stroke-linejoin:miter;stroke-opacity:1" d="M 410.705,148.073 410.705,133.065 z" id="boundary" inkscape:connector-curvature="0" />
	<path style="fill:none;stroke:red;stroke-width:1px;stroke-linecap:butt;stroke-linejoin:miter;stroke-opacity:1" d="M 410.705,148.073 410.705,163.08 z" id="boundary" inkscape:connector-curvature="0" />
	<path style="fill:none;stroke:red;stroke-width:1px;stroke-linecap:butt;stroke-linejoin:miter;stroke-opacity:1" d="M 410.705,163.08 410.705,178.088 z" id="boundary" inkscape:connector-curvature="0" />
	<path style="fill:none;stroke:red;stroke-width:1px;stroke-linecap:butt;stroke-linejoin:miter;stroke-opacity:1" d="M 410.705,118.057 410.705,103.05 z" id="boundary" inkscape:connector-curvature="0" />
	<path style="fill:none;stroke:red;stroke-width:1px;stroke-linecap:butt;stroke-linejoin:miter;stroke-opacity:1" d="M 410.705,208.103 403.201,230.614 z" id="boundary" inkscape:connector-curvature="0" />
	<path style="fill:none;stroke:red;stroke-width:1px;stroke-linecap:butt;stroke-linejoin:miter;stroke-opacity:1" d="M 403.201,230.614 403.201,245.622 z" id="boundary" inkscape:connector-curvature="0" />
	<path style="fill:none;stroke:red;stroke-width:1px;stroke-linecap:butt;stroke-linejoin:miter;stroke-opacity:1" d="M 410.705,193.095 410.705,208.103 z" id="boundary" inkscape:connector-curvature="0" />
	<path style="fill:none;stroke:red;stroke-width:1px;stroke-linecap:butt;stroke-linejoin:miter;stroke-opacity:1" d="M 403.201,245.622 403.201,260.629 z" id="boundary" inkscape:connector-curvature="0" />
	<path style="fill:none;stroke:red;stroke-width:1px;stroke-linecap:butt;stroke-linejoin:miter;stroke-opacity:1" d="M 403.201,275.637 403.201,260.629 z" id="boundary" inkscape:connector-curvature="0" />
	<path style="fill:none;stroke:red;stroke-width:1px;stroke-linecap:butt;stroke-linejoin:miter;stroke-opacity:1" d="M 403.201,275.637 403.201,290.644 z" id="boundary" inkscape:connector-curvature="0" />
	<path style="fill:none;stroke:red;stroke-width:1px;stroke-linecap:butt;stroke-linejoin:miter;stroke-opacity:1" d="M 403.201,305.652 403.201,290.644 z" id="boundary" inkscape:connector-curvature="0" />
	<path style="fill:none;stroke:red;stroke-width:1px;stroke-linecap:butt;stroke-linejoin:miter;stroke-opacity:1" d="M 410.705,178.088 410.705,193.095 z" id="boundary" inkscape:connector-curvature="0" />
	<path style="fill:none;stroke:red;stroke-width:1px;stroke-linecap:butt;stroke-linejoin:miter;stroke-opacity:1" d="M 403.201,320.66 403.201,335.667 z" id="boundary" inkscape:connector-curvature="0" />
	<path style="fill:none;stroke:red;stroke-width:1px;stroke-linecap:butt;stroke-linejoin:miter;stroke-opacity:1" d="M 403.201,350.675 403.201,335.667 z" id="boundary" inkscape:connector-curvature="0" />
	<path style="fill:none;stroke:red;stroke-width:1px;stroke-linecap:butt;stroke-linejoin:miter;stroke-opacity:1" d="M 403.201,350.675 410.705,364.182 z" id="boundary" inkscape:connector-curvature="0" />
	<path style="fill:none;stroke:red;stroke-width:1px;stroke-linecap:butt;stroke-linejoin:miter;stroke-opacity:1" d="M 410.705,364.182 410.705,379.189 z" id="boundary" inkscape:connector-curvature="0" />
	<path style="fill:none;stroke:red;stroke-width:1px;stroke-linecap:butt;stroke-linejoin:miter;stroke-opacity:1" d="M 403.201,320.66 403.201,305.652 z" id="boundary" inkscape:connector-curvature="0" />
	<path style="fill:none;stroke:red;stroke-width:1px;stroke-linecap:butt;stroke-linejoin:miter;stroke-opacity:1" d="M 433.216,359.679 424.212,371.685 z" id="boundary" inkscape:connector-curvature="0" />
	<path style="fill:none;stroke:red;stroke-width:1px;stroke-linecap:butt;stroke-linejoin:miter;stroke-opacity:1" d="M 424.212,371.685 410.705,379.189 z" id="boundary" inkscape:connector-curvature="0" />
	<path style="fill:none;stroke:red;stroke-width:1px;stroke-linecap:butt;stroke-linejoin:miter;stroke-opacity:1" d="M 454.227,248.623 454.227,263.631 z" id="boundary" inkscape:connector-curvature="0" />
	<path style="fill:none;stroke:red;stroke-width:1px;stroke-linecap:butt;stroke-linejoin:miter;stroke-opacity:1" d="M 461.731,226.112 454.227,248.623 z" id="boundary" inkscape:connector-curvature="0" />
	<path style="fill:none;stroke:red;stroke-width:1px;stroke-linecap:butt;stroke-linejoin:miter;stroke-opacity:1" d="M 454.227,278.638 454.227,263.631 z" id="boundary" inkscape:connector-curvature="0" />
	<path style="fill:none;stroke:red;stroke-width:1px;stroke-linecap:butt;stroke-linejoin:miter;stroke-opacity:1" d="M 469.234,211.104 461.731,226.112 z" id="boundary" inkscape:connector-curvature="0" />
	<path style="fill:none;stroke:red;stroke-width:1px;stroke-linecap:butt;stroke-linejoin:miter;stroke-opacity:1" d="M 454.227,278.638 454.227,293.646 z" id="boundary" inkscape:connector-curvature="0" />
	<path style="fill:none;stroke:red;stroke-width:1px;stroke-linecap:butt;stroke-linejoin:miter;stroke-opacity:1" d="M 454.227,293.646 446.723,316.157 z" id="boundary" inkscape:connector-curvature="0" />
	<path style="fill:none;stroke:red;stroke-width:1px;stroke-linecap:butt;stroke-linejoin:miter;stroke-opacity:1" d="M 445.222,349.174 433.216,359.679 z" id="boundary" inkscape:connector-curvature="0" />
	<path style="fill:none;stroke:red;stroke-width:1px;stroke-linecap:butt;stroke-linejoin:miter;stroke-opacity:1" d="M 446.723,331.165 445.222,349.174 z" id="boundary" inkscape:connector-curvature="0" />
	<path style="fill:none;stroke:red;stroke-width:1px;stroke-linecap:butt;stroke-linejoin:miter;stroke-opacity:1" d="M 446.723,331.165 446.723,316.157 z" id="boundary" inkscape:connector-curvature="0" />
	<path style="fill:none;stroke:red;stroke-width:1px;stroke-linecap:butt;stroke-linejoin:miter;stroke-opacity:1" d="M 523.262,52.0242 511.256,64.0303 z" id="boundary" inkscape:connector-curvature="0" />
	<path style="fill:none;stroke:red;stroke-width:1px;stroke-linecap:butt;stroke-linejoin:miter;stroke-opacity:1" d="M 484.242,83.5401 484.242,98.5477 z" id="boundary" inkscape:connector-curvature="0" />
	<path style="fill:none;stroke:red;stroke-width:1px;stroke-linecap:butt;stroke-linejoin:miter;stroke-opacity:1" d="M 484.242,113.555 484.242,98.5477 z" id="boundary" inkscape:connector-curvature="0" />
	<path style="fill:none;stroke:red;stroke-width:1px;stroke-linecap:butt;stroke-linejoin:miter;stroke-opacity:1" d="M 496.248,71.534 484.242,83.5401 z" id="boundary" inkscape:connector-curvature="0" />
	<path style="fill:none;stroke:red;stroke-width:1px;stroke-linecap:butt;stroke-linejoin:miter;stroke-opacity:1" d="M 484.242,113.555 476.738,136.067 z" id="boundary" inkscape:connector-curvature="0" />
	<path style="fill:none;stroke:red;stroke-width:1px;stroke-linecap:butt;stroke-linejoin:miter;stroke-opacity:1" d="M 496.248,71.534 511.256,64.0303 z" id="boundary" inkscape:connector-curvature="0" />
	<path style="fill:none;stroke:red;stroke-width:1px;stroke-linecap:butt;stroke-linejoin:miter;stroke-opacity:1" d="M 476.738,151.074 476.738,166.082 z" id="boundary" inkscape:connector-curvature="0" />
	<path style="fill:none;stroke:red;stroke-width:1px;stroke-linecap:butt;stroke-linejoin:miter;stroke-opacity:1" d="M 476.738,166.082 469.234,181.089 z" id="boundary" inkscape:connector-curvature="0" />
	<path style="fill:none;stroke:red;stroke-width:1px;stroke-linecap:butt;stroke-linejoin:miter;stroke-opacity:1" d="M 469.234,181.089 469.234,196.097 z" id="boundary" inkscape:connector-curvature="0" />
	<path style="fill:none;stroke:red;stroke-width:1px;stroke-linecap:butt;stroke-linejoin:miter;stroke-opacity:1" d="M 469.234,211.104 469.234,196.097 z" id="boundary" inkscape:connector-curvature="0" />
	<path style="fill:none;stroke:red;stroke-width:1px;stroke-linecap:butt;stroke-linejoin:miter;stroke-opacity:1" d="M 476.738,151.074 476.738,136.067 z" id="boundary" inkscape:connector-curvature="0" />
	<path style="fill:none;stroke:red;stroke-width:1px;stroke-linecap:butt;stroke-linejoin:miter;stroke-opacity:1" d="M 523.262,52.0242 535.268,41.5189 z" id="boundary" inkscape:connector-curvature="0" />
	<path style="fill:none;stroke:red;stroke-width:1px;stroke-linecap:butt;stroke-linejoin:miter;stroke-opacity:1" d="M 535.268,41.5189 545.773,53.525 z" id="boundary" inkscape:connector-curvature="0" />
	<path style="fill:none;stroke:red;stroke-width:1px;stroke-linecap:butt;stroke-linejoin:miter;stroke-opacity:1" d="M 545.773,68.5325 553.277,82.0393 z" id="boundary" inkscape:connector-curvature="0" />
	<path style="fill:none;stroke:red;stroke-width:1px;stroke-linecap:butt;stroke-linejoin:miter;stroke-opacity:1" d="M 545.773,68.5325 545.773,53.525 z" id="boundary" inkscape:connector-curvature="0" />
	<path style="fill:none;stroke:red;stroke-width:1px;stroke-linecap:butt;stroke-linejoin:miter;stroke-opacity:1" d="M 553.277,82.0393 553.277,97.0469 z" id="boundary" inkscape:connector-curvature="0" />
	<path style="fill:none;stroke:red;stroke-width:1px;stroke-linecap:butt;stroke-linejoin:miter;stroke-opacity:1" d="M 560.781,125.561 553.277,112.054 z" id="boundary" inkscape:connector-curvature="0" />
	<path style="fill:none;stroke:red;stroke-width:1px;stroke-linecap:butt;stroke-linejoin:miter;stroke-opacity:1" d="M 553.277,112.054 553.277,97.0469 z" id="boundary" inkscape:connector-curvature="0" />
	<path style="fill:none;stroke:red;stroke-width:1px;stroke-linecap:butt;stroke-linejoin:miter;stroke-opacity:1" d="M 553.277,163.08 553.277,178.088 z" id="boundary" inkscape:connector-curvature="0" />
	<path style="fill:none;stroke:red;stroke-width:1px;stroke-linecap:butt;stroke-linejoin:miter;stroke-opacity:1" d="M 560.781,140.569 553.277,163.08 z" id="boundary" inkscape:connector-curvature="0" />
	<path style="fill:none;stroke:red;stroke-width:1px;stroke-linecap:butt;stroke-linejoin:miter;stroke-opacity:1" d="M 553.277,178.088 553.277,193.095 z" id="boundary" inkscape:connector-curvature="0" />
	<path style="fill:none;stroke:red;stroke-width:1px;stroke-linecap:butt;stroke-linejoin:miter;stroke-opacity:1" d="M 560.781,125.561 560.781,140.569 z" id="boundary" inkscape:connector-curvature="0" />
	<path style="fill:none;stroke:red;stroke-width:1px;stroke-linecap:butt;stroke-linejoin:miter;stroke-opacity:1" d="M 553.277,208.103 553.277,193.095 z" id="boundary" inkscape:connector-curvature="0" />
	<path style="fill:none;stroke:red;stroke-width:1px;stroke-linecap:butt;stroke-linejoin:miter;stroke-opacity:1" d="M 530.766,358.179 530.766,373.186 z" id="boundary" inkscape:connector-curvature="0" />
	<path style="fill:none;stroke:red;stroke-width:1px;stroke-linecap:butt;stroke-linejoin:miter;stroke-opacity:1" d="M 538.269,335.667 530.766,358.179 z" id="boundary" inkscape:connector-curvature="0" />
	<path style="fill:none;stroke:red;stroke-width:1px;stroke-linecap:butt;stroke-linejoin:miter;stroke-opacity:1" d="M 530.766,373.186 530.766,388.194 z" id="boundary" inkscape:connector-curvature="0" />
	<path style="fill:none;stroke:red;stroke-width:1px;stroke-linecap:butt;stroke-linejoin:miter;stroke-opacity:1" d="M 553.277,223.11 553.277,238.118 z" id="boundary" inkscape:connector-curvature="0" />
	<path style="fill:none;stroke:red;stroke-width:1px;stroke-linecap:butt;stroke-linejoin:miter;stroke-opacity:1" d="M 553.277,223.11 553.277,208.103 z" id="boundary" inkscape:connector-curvature="0" />
	<path style="fill:none;stroke:red;stroke-width:1px;stroke-linecap:butt;stroke-linejoin:miter;stroke-opacity:1" d="M 553.277,238.118 545.773,260.629 z" id="boundary" inkscape:connector-curvature="0" />
	<path style="fill:none;stroke:red;stroke-width:1px;stroke-linecap:butt;stroke-linejoin:miter;stroke-opacity:1" d="M 545.773,275.637 545.773,290.644 z" id="boundary" inkscape:connector-curvature="0" />
	<path style="fill:none;stroke:red;stroke-width:1px;stroke-linecap:butt;stroke-linejoin:miter;stroke-opacity:1" d="M 545.773,275.637 545.773,260.629 z" id="boundary" inkscape:connector-curvature="0" />
	<path style="fill:none;stroke:red;stroke-width:1px;stroke-linecap:butt;stroke-linejoin:miter;stroke-opacity:1" d="M 545.773,290.644 538.269,305.652 z" id="boundary" inkscape:connector-curvature="0" />
	<path style="fill:none;stroke:red;stroke-width:1px;stroke-linecap:butt;stroke-linejoin:miter;stroke-opacity:1" d="M 764.884,401.7 749.876,401.7 z" id="boundary" inkscape:connector-curvature="0" />
	<path style="fill:none;stroke:red;stroke-width:1px;stroke-linecap:butt;stroke-linejoin:miter;stroke-opacity:1" d="M 538.269,320.66 538.269,305.652 z" id="boundary" inkscape:connector-curvature="0" />
	<path style="fill:none;stroke:red;stroke-width:1px;stroke-linecap:butt;stroke-linejoin:miter;stroke-opacity:1" d="M 538.269,335.667 538.269,320.66 z" id="boundary" inkscape:connector-curvature="0" />
	<path style="fill:none;stroke:red;stroke-width:1px;stroke-linecap:butt;stroke-linejoin:miter;stroke-opacity:1" d="M 530.766,388.194 523.262,403.201 z" id="boundary" inkscape:connector-curvature="0" />
	<path style="fill:none;stroke:red;stroke-width:1px;stroke-linecap:butt;stroke-linejoin:miter;stroke-opacity:1" d="M 749.876,401.7 736.369,409.204 z" id="boundary" inkscape:connector-curvature="0" />
	<path style="fill:none;stroke:red;stroke-width:1px;stroke-linecap:butt;stroke-linejoin:miter;stroke-opacity:1" d="M 523.262,433.216 523.262,418.209 z" id="boundary" inkscape:connector-curvature="0" />
	<path style="fill:none;stroke:red;stroke-width:1px;stroke-linecap:butt;stroke-linejoin:miter;stroke-opacity:1" d="M 530.766,446.723 523.262,433.216 z" id="boundary" inkscape:connector-curvature="0" />
	<path style="fill:none;stroke:red;stroke-width:1px;stroke-linecap:butt;stroke-linejoin:miter;stroke-opacity:1" d="M 530.766,446.723 530.766,461.731 z" id="boundary" inkscape:connector-curvature="0" />
	<path style="fill:none;stroke:red;stroke-width:1px;stroke-linecap:butt;stroke-linejoin:miter;stroke-opacity:1" d="M 530.766,476.738 530.766,461.731 z" id="boundary" inkscape:connector-curvature="0" />
	<path style="fill:none;stroke:red;stroke-width:1px;stroke-linecap:butt;stroke-linejoin:miter;stroke-opacity:1" d="M 538.269,490.245 530.766,476.738 z" id="boundary" inkscape:connector-curvature="0" />
	<path style="fill:none;stroke:red;stroke-width:1px;stroke-linecap:butt;stroke-linejoin:miter;stroke-opacity:1" d="M 523.262,418.209 523.262,403.201 z" id="boundary" inkscape:connector-curvature="0" />
	<path style="fill:none;stroke:red;stroke-width:1px;stroke-linecap:butt;stroke-linejoin:miter;stroke-opacity:1" d="M 538.269,490.245 538.269,505.253 z" id="boundary" inkscape:connector-curvature="0" />
	<path style="fill:none;stroke:red;stroke-width:1px;stroke-linecap:butt;stroke-linejoin:miter;stroke-opacity:1" d="M 538.269,505.253 538.269,520.26 z" id="boundary" inkscape:connector-curvature="0" />
	<path style="fill:none;stroke:red;stroke-width:1px;stroke-linecap:butt;stroke-linejoin:miter;stroke-opacity:1" d="M 538.269,520.26 550.275,530.766 z" id="boundary" inkscape:connector-curvature="0" />
	<path style="fill:none;stroke:red;stroke-width:1px;stroke-linecap:butt;stroke-linejoin:miter;stroke-opacity:1" d="M 553.277,545.773 550.275,530.766 z" id="boundary" inkscape:connector-curvature="0" />
	<path style="fill:none;stroke:red;stroke-width:1px;stroke-linecap:butt;stroke-linejoin:miter;stroke-opacity:1" d="M 560.781,559.28 553.277,545.773 z" id="boundary" inkscape:connector-curvature="0" />
	<path style="fill:none;stroke:red;stroke-width:1px;stroke-linecap:butt;stroke-linejoin:miter;stroke-opacity:1" d="M 572.787,568.284 578.79,583.292 z" id="boundary" inkscape:connector-curvature="0" />
	<path style="fill:none;stroke:red;stroke-width:1px;stroke-linecap:butt;stroke-linejoin:miter;stroke-opacity:1" d="M 572.787,568.284 560.781,559.28 z" id="boundary" inkscape:connector-curvature="0" />
	<path style="fill:none;stroke:red;stroke-width:1px;stroke-linecap:butt;stroke-linejoin:miter;stroke-opacity:1" d="M 578.79,583.292 586.293,596.799 z" id="boundary" inkscape:connector-curvature="0" />
	<path style="fill:none;stroke:red;stroke-width:1px;stroke-linecap:butt;stroke-linejoin:miter;stroke-opacity:1" d="M 586.293,596.799 601.301,589.295 z" id="boundary" inkscape:connector-curvature="0" />
	<path style="fill:none;stroke:red;stroke-width:1px;stroke-linecap:butt;stroke-linejoin:miter;stroke-opacity:1" d="M 379.189,996 364.182,996 z" id="boundary" inkscape:connector-curvature="0" />
	<path style="fill:none;stroke:red;stroke-width:1px;stroke-linecap:butt;stroke-linejoin:miter;stroke-opacity:1" d="M 379.189,996 394.197,996 z" id="boundary" inkscape:connector-curvature="0" />
	<path style="fill:none;stroke:red;stroke-width:1px;stroke-linecap:butt;stroke-linejoin:miter;stroke-opacity:1" d="M 409.204,996 424.212,996 z" id="boundary" inkscape:connector-curvature="0" />
	<path style="fill:none;stroke:red;stroke-width:1px;stroke-linecap:butt;stroke-linejoin:miter;stroke-opacity:1" d="M 409.204,996 394.197,996 z" id="boundary" inkscape:connector-curvature="0" />
	<path style="fill:none;stroke:red;stroke-width:1px;stroke-linecap:butt;stroke-linejoin:miter;stroke-opacity:1" d="M 439.219,996 424.212,996 z" id="boundary" inkscape:connector-curvature="0" />
	<path style="fill:none;stroke:red;stroke-width:1px;stroke-linecap:butt;stroke-linejoin:miter;stroke-opacity:1" d="M 439.219,996 454.227,996 z" id="boundary" inkscape:connector-curvature="0" />
	<path style="fill:none;stroke:red;stroke-width:1px;stroke-linecap:butt;stroke-linejoin:miter;stroke-opacity:1" d="M 469.234,996 454.227,996 z" id="boundary" inkscape:connector-curvature="0" />
	<path style="fill:none;stroke:red;stroke-width:1px;stroke-linecap:butt;stroke-linejoin:miter;stroke-opacity:1" d="M 538.269,890.947 527.764,902.953 z" id="boundary" inkscape:connector-curvature="0" />
	<path style="fill:none;stroke:red;stroke-width:1px;stroke-linecap:butt;stroke-linejoin:miter;stroke-opacity:1" d="M 550.275,880.442 559.28,868.436 z" id="boundary" inkscape:connector-curvature="0" />
	<path style="fill:none;stroke:red;stroke-width:1px;stroke-linecap:butt;stroke-linejoin:miter;stroke-opacity:1" d="M 550.275,880.442 538.269,890.947 z" id="boundary" inkscape:connector-curvature="0" />
	<path style="fill:none;stroke:red;stroke-width:1px;stroke-linecap:butt;stroke-linejoin:miter;stroke-opacity:1" d="M 571.286,859.431 559.28,868.436 z" id="boundary" inkscape:connector-curvature="0" />
	<path style="fill:none;stroke:red;stroke-width:1px;stroke-linecap:butt;stroke-linejoin:miter;stroke-opacity:1" d="M 590.796,823.413 598.3,808.405 z" id="boundary" inkscape:connector-curvature="0" />
	<path style="fill:none;stroke:red;stroke-width:1px;stroke-linecap:butt;stroke-linejoin:miter;stroke-opacity:1" d="M 571.286,859.431 583.292,838.421 z" id="boundary" inkscape:connector-curvature="0" />
	<path style="fill:none;stroke:red;stroke-width:1px;stroke-linecap:butt;stroke-linejoin:miter;stroke-opacity:1" d="M 583.292,838.421 590.796,823.413 z" id="boundary" inkscape:connector-curvature="0" />
	<path style="fill:none;stroke:red;stroke-width:1px;stroke-linecap:butt;stroke-linejoin:miter;stroke-opacity:1" d="M 613.307,800.902 598.3,808.405 z" id="boundary" inkscape:connector-curvature="0" />
	<path style="fill:none;stroke:red;stroke-width:1px;stroke-linecap:butt;stroke-linejoin:miter;stroke-opacity:1" d="M 505.253,940.472 497.749,955.48 z" id="boundary" inkscape:connector-curvature="0" />
	<path style="fill:none;stroke:red;stroke-width:1px;stroke-linecap:butt;stroke-linejoin:miter;stroke-opacity:1" d="M 515.758,928.466 505.253,940.472 z" id="boundary" inkscape:connector-curvature="0" />
	<path style="fill:none;stroke:red;stroke-width:1px;stroke-linecap:butt;stroke-linejoin:miter;stroke-opacity:1" d="M 497.749,955.48 485.743,965.985 z" id="boundary" inkscape:connector-curvature="0" />
	<path style="fill:none;stroke:red;stroke-width:1px;stroke-linecap:butt;stroke-linejoin:miter;stroke-opacity:1" d="M 484.242,991.498 469.234,996 z" id="boundary" inkscape:connector-curvature="0" />
	<path style="fill:none;stroke:red;stroke-width:1px;stroke-linecap:butt;stroke-linejoin:miter;stroke-opacity:1" d="M 485.743,965.985 484.242,991.498 z" id="boundary" inkscape:connector-curvature="0" />
	<path style="fill:none;stroke:red;stroke-width:1px;stroke-linecap:butt;stroke-linejoin:miter;stroke-opacity:1" d="M 515.758,913.458 527.764,902.953 z" id="boundary" inkscape:connector-curvature="0" />
	<path style="fill:none;stroke:red;stroke-width:1px;stroke-linecap:butt;stroke-linejoin:miter;stroke-opacity:1" d="M 515.758,928.466 515.758,913.458 z" id="boundary" inkscape:connector-curvature="0" />
	<path style="fill:none;stroke:red;stroke-width:1px;stroke-linecap:butt;stroke-linejoin:miter;stroke-opacity:1" d="M 691.346,454.227 679.34,466.233 z" id="boundary" inkscape:connector-curvature="0" />
	<path style="fill:none;stroke:red;stroke-width:1px;stroke-linecap:butt;stroke-linejoin:miter;stroke-opacity:1" d="M 679.34,481.241 671.837,496.248 z" id="boundary" inkscape:connector-curvature="0" />
	<path style="fill:none;stroke:red;stroke-width:1px;stroke-linecap:butt;stroke-linejoin:miter;stroke-opacity:1" d="M 679.34,466.233 679.34,481.241 z" id="boundary" inkscape:connector-curvature="0" />
	<path style="fill:none;stroke:red;stroke-width:1px;stroke-linecap:butt;stroke-linejoin:miter;stroke-opacity:1" d="M 671.837,496.248 664.333,518.759 z" id="boundary" inkscape:connector-curvature="0" />
	<path style="fill:none;stroke:red;stroke-width:1px;stroke-linecap:butt;stroke-linejoin:miter;stroke-opacity:1" d="M 703.352,442.221 691.346,454.227 z" id="boundary" inkscape:connector-curvature="0" />
	<path style="fill:none;stroke:red;stroke-width:1px;stroke-linecap:butt;stroke-linejoin:miter;stroke-opacity:1" d="M 710.856,427.213 703.352,442.221 z" id="boundary" inkscape:connector-curvature="0" />
	<path style="fill:none;stroke:red;stroke-width:1px;stroke-linecap:butt;stroke-linejoin:miter;stroke-opacity:1" d="M 722.862,416.708 710.856,427.213 z" id="boundary" inkscape:connector-curvature="0" />
	<path style="fill:none;stroke:red;stroke-width:1px;stroke-linecap:butt;stroke-linejoin:miter;stroke-opacity:1" d="M 664.333,518.759 661.331,536.769 z" id="boundary" inkscape:connector-curvature="0" />
	<path style="fill:none;stroke:red;stroke-width:1px;stroke-linecap:butt;stroke-linejoin:miter;stroke-opacity:1" d="M 661.331,536.769 653.828,551.776 z" id="boundary" inkscape:connector-curvature="0" />
	<path style="fill:none;stroke:red;stroke-width:1px;stroke-linecap:butt;stroke-linejoin:miter;stroke-opacity:1" d="M 616.309,589.295 601.301,589.295 z" id="boundary" inkscape:connector-curvature="0" />
	<path style="fill:none;stroke:red;stroke-width:1px;stroke-linecap:butt;stroke-linejoin:miter;stroke-opacity:1" d="M 641.821,563.782 653.828,551.776 z" id="boundary" inkscape:connector-curvature="0" />
	<path style="fill:none;stroke:red;stroke-width:1px;stroke-linecap:butt;stroke-linejoin:miter;stroke-opacity:1" d="M 641.821,563.782 629.815,581.791 z" id="boundary" inkscape:connector-curvature="0" />
	<path style="fill:none;stroke:red;stroke-width:1px;stroke-linecap:butt;stroke-linejoin:miter;stroke-opacity:1" d="M 722.862,416.708 736.369,409.204 z" id="boundary" inkscape:connector-curvature="0" />
	<path style="fill:none;stroke:red;stroke-width:1px;stroke-linecap:butt;stroke-linejoin:miter;stroke-opacity:1" d="M 764.884,401.7 770.887,416.708 z" id="boundary" inkscape:connector-curvature="0" />
	<path style="fill:none;stroke:red;stroke-width:1px;stroke-linecap:butt;stroke-linejoin:miter;stroke-opacity:1" d="M 770.887,431.716 770.887,455.728 z" id="boundary" inkscape:connector-curvature="0" />
	<path style="fill:none;stroke:red;stroke-width:1px;stroke-linecap:butt;stroke-linejoin:miter;stroke-opacity:1" d="M 770.887,416.708 770.887,431.716 z" id="boundary" inkscape:connector-curvature="0" />
	<path style="fill:none;stroke:red;stroke-width:1px;stroke-linecap:butt;stroke-linejoin:miter;stroke-opacity:1" d="M 770.887,455.728 770.887,470.735 z" id="boundary" inkscape:connector-curvature="0" />
	<path style="fill:none;stroke:red;stroke-width:1px;stroke-linecap:butt;stroke-linejoin:miter;stroke-opacity:1" d="M 763.383,523.262 755.879,538.269 z" id="boundary" inkscape:connector-curvature="0" />
	<path style="fill:none;stroke:red;stroke-width:1px;stroke-linecap:butt;stroke-linejoin:miter;stroke-opacity:1" d="M 755.879,553.277 748.375,568.284 z" id="boundary" inkscape:connector-curvature="0" />
	<path style="fill:none;stroke:red;stroke-width:1px;stroke-linecap:butt;stroke-linejoin:miter;stroke-opacity:1" d="M 755.879,538.269 755.879,553.277 z" id="boundary" inkscape:connector-curvature="0" />
	<path style="fill:none;stroke:red;stroke-width:1px;stroke-linecap:butt;stroke-linejoin:miter;stroke-opacity:1" d="M 763.383,493.247 770.887,470.735 z" id="boundary" inkscape:connector-curvature="0" />
	<path style="fill:none;stroke:red;stroke-width:1px;stroke-linecap:butt;stroke-linejoin:miter;stroke-opacity:1" d="M 763.383,508.254 763.383,493.247 z" id="boundary" inkscape:connector-curvature="0" />
	<path style="fill:none;stroke:red;stroke-width:1px;stroke-linecap:butt;stroke-linejoin:miter;stroke-opacity:1" d="M 763.383,508.254 763.383,523.262 z" id="boundary" inkscape:connector-curvature="0" />
	<path style="fill:none;stroke:red;stroke-width:1px;stroke-linecap:butt;stroke-linejoin:miter;stroke-opacity:1" d="M 748.375,568.284 740.871,583.292 z" id="boundary" inkscape:connector-curvature="0" />
	<path style="fill:none;stroke:red;stroke-width:1px;stroke-linecap:butt;stroke-linejoin:miter;stroke-opacity:1" d="M 629.815,581.791 616.309,589.295 z" id="boundary" inkscape:connector-curvature="0" />
	<path style="fill:none;stroke:red;stroke-width:1px;stroke-linecap:butt;stroke-linejoin:miter;stroke-opacity:1" d="M 688.345,673.337 680.841,688.345 z" id="boundary" inkscape:connector-curvature="0" />
	<path style="fill:none;stroke:red;stroke-width:1px;stroke-linecap:butt;stroke-linejoin:miter;stroke-opacity:1" d="M 680.841,688.345 677.84,715.359 z" id="boundary" inkscape:connector-curvature="0" />
	<path style="fill:none;stroke:red;stroke-width:1px;stroke-linecap:butt;stroke-linejoin:miter;stroke-opacity:1" d="M 613.307,785.894 626.814,778.39 z" id="boundary" inkscape:connector-curvature="0" />
	<path style="fill:none;stroke:red;stroke-width:1px;stroke-linecap:butt;stroke-linejoin:miter;stroke-opacity:1" d="M 613.307,800.902 613.307,785.894 z" id="boundary" inkscape:connector-curvature="0" />
	<path style="fill:none;stroke:red;stroke-width:1px;stroke-linecap:butt;stroke-linejoin:miter;stroke-opacity:1" d="M 655.328,737.87 665.834,725.864 z" id="boundary" inkscape:connector-curvature="0" />
	<path style="fill:none;stroke:red;stroke-width:1px;stroke-linecap:butt;stroke-linejoin:miter;stroke-opacity:1" d="M 655.328,737.87 643.322,748.375 z" id="boundary" inkscape:connector-curvature="0" />
	<path style="fill:none;stroke:red;stroke-width:1px;stroke-linecap:butt;stroke-linejoin:miter;stroke-opacity:1" d="M 677.84,715.359 665.834,725.864 z" id="boundary" inkscape:connector-curvature="0" />
	<path style="fill:none;stroke:red;stroke-width:1px;stroke-linecap:butt;stroke-linejoin:miter;stroke-opacity:1" d="M 635.818,763.383 643.322,748.375 z" id="boundary" inkscape:connector-curvature="0" />
	<path style="fill:none;stroke:red;stroke-width:1px;stroke-linecap:butt;stroke-linejoin:miter;stroke-opacity:1" d="M 635.818,763.383 626.814,778.39 z" id="boundary" inkscape:connector-curvature="0" />
	<path style="fill:none;stroke:red;stroke-width:1px;stroke-linecap:butt;stroke-linejoin:miter;stroke-opacity:1" d="M 718.36,613.307 710.856,628.315 z" id="boundary" inkscape:connector-curvature="0" />
	<path style="fill:none;stroke:red;stroke-width:1px;stroke-linecap:butt;stroke-linejoin:miter;stroke-opacity:1" d="M 695.849,658.33 688.345,673.337 z" id="boundary" inkscape:connector-curvature="0" />
	<path style="fill:none;stroke:red;stroke-width:1px;stroke-linecap:butt;stroke-linejoin:miter;stroke-opacity:1" d="M 707.855,647.825 695.849,658.33 z" id="boundary" inkscape:connector-curvature="0" />
	<path style="fill:none;stroke:red;stroke-width:1px;stroke-linecap:butt;stroke-linejoin:miter;stroke-opacity:1" d="M 710.856,628.315 707.855,647.825 z" id="boundary" inkscape:connector-curvature="0" />
	<path style="fill:none;stroke:red;stroke-width:1px;stroke-linecap:butt;stroke-linejoin:miter;stroke-opacity:1" d="M 733.368,598.3 718.36,613.307 z" id="boundary" inkscape:connector-curvature="0" />
	<path style="fill:none;stroke:red;stroke-width:1px;stroke-linecap:butt;stroke-linejoin:miter;stroke-opacity:1" d="M 740.871,583.292 733.368,598.3 z" id="boundary" inkscape:connector-curvature="0" />
	<circle cx="4" cy="308.654" r="4" fill="#0" id="circle0"/>
	<circle cx="4" cy="323.661" r="4" fill="#0" id="circle1"/>
	<circle cx="11.5038" cy="278.638" r="4" fill="#0" id="circle2"/>
	<circle cx="11.5038" cy="293.646" r="4" fill="#0" id="circle3"/>
	<circle cx="16.0061" cy="334.166" r="4" fill="#0" id="circle4"/>
	<circle cx="19.0076" cy="263.631" r="4" fill="#0" id="circle5"/>
	<circle cx="22.0091" cy="349.174" r="4" fill="#0" id="circle6"/>
	<circle cx="34.0151" cy="259.129" r="4" fill="#0" id="circle7"/>
	<circle cx="34.0151" cy="358.179" r="4" fill="#0" id="circle8"/>
	<circle cx="34.0151" cy="373.186" r="4" fill="#0" id="circle9"/>
	<circle cx="38.5174" cy="388.194" r="4" fill="#0" id="circle10"/>
	<circle cx="41.5189" cy="403.201" r="4" fill="#0" id="circle11"/>
	<circle cx="47.5219" cy="266.632" r="4" fill="#0" id="circle12"/>
	<circle cx="49.0227" cy="416.708" r="4" fill="#0" id="circle13"/>
	<circle cx="56.5265" cy="430.215" r="4" fill="#0" id="circle14"/>
	<circle cx="61.0287" cy="274.136" r="4" fill="#0" id="circle15"/>
	<circle cx="64.0303" cy="443.722" r="4" fill="#0" id="circle16"/>
	<circle cx="71.534" cy="286.142" r="4" fill="#0" id="circle17"/>
	<circle cx="71.534" cy="457.228" r="4" fill="#0" id="circle18"/>
	<circle cx="71.534" cy="472.236" r="4" fill="#0" id="circle19"/>
	<circle cx="73.0348" cy="301.15" r="4" fill="#0" id="circle20"/>
	<circle cx="80.5386" cy="314.657" r="4" fill="#0" id="circle21"/>
	<circle cx="82.0393" cy="484.242" r="4" fill="#0" id="circle22"/>
	<circle cx="85.0408" cy="329.664" r="4" fill="#0" id="circle23"/>
	<circle cx="94.0454" cy="493.247" r="4" fill="#0" id="circle24"/>
	<circle cx="95.5461" cy="341.67" r="4" fill="#0" id="circle25"/>
	<circle cx="95.5461" cy="356.678" r="4" fill="#0" id="circle26"/>
	<circle cx="98.5477" cy="508.254" r="4" fill="#0" id="circle27"/>
	<circle cx="101.549" cy="523.262" r="4" fill="#0" id="circle28"/>
	<circle cx="103.05" cy="370.185" r="4" fill="#0" id="circle29"/>
	<circle cx="106.051" cy="538.269" r="4" fill="#0" id="circle30"/>
	<circle cx="113.555" cy="551.776" r="4" fill="#0" id="circle31"/>
	<circle cx="115.056" cy="380.69" r="4" fill="#0" id="circle32"/>
	<circle cx="119.558" cy="566.784" r="4" fill="#0" id="circle33"/>
	<circle cx="125.561" cy="392.696" r="4" fill="#0" id="circle34"/>
	<circle cx="127.062" cy="580.29" r="4" fill="#0" id="circle35"/>
	<circle cx="131.564" cy="595.298" r="4" fill="#0" id="circle36"/>
	<circle cx="131.564" cy="610.306" r="4" fill="#0" id="circle37"/>
	<circle cx="131.564" cy="625.313" r="4" fill="#0" id="circle38"/>
	<circle cx="133.065" cy="406.203" r="4" fill="#0" id="circle39"/>
	<circle cx="139.068" cy="421.21" r="4" fill="#0" id="circle40"/>
	<circle cx="139.068" cy="638.82" r="4" fill="#0" id="circle41"/>
	<circle cx="139.068" cy="653.828" r="4" fill="#0" id="circle42"/>
	<circle cx="146.572" cy="667.334" r="4" fill="#0" id="circle43"/>
	<circle cx="146.572" cy="682.342" r="4" fill="#0" id="circle44"/>
	<circle cx="148.073" cy="433.216" r="4" fill="#0" id="circle45"/>
	<circle cx="154.076" cy="695.849" r="4" fill="#0" id="circle46"/>
	<circle cx="154.076" cy="710.856" r="4" fill="#0" id="circle47"/>
	<circle cx="154.076" cy="725.864" r="4" fill="#0" id="circle48"/>
	<circle cx="155.576" cy="446.723" r="4" fill="#0" id="circle49"/>
	<circle cx="161.579" cy="739.371" r="4" fill="#0" id="circle50"/>
	<circle cx="161.579" cy="754.378" r="4" fill="#0" id="circle51"/>
	<circle cx="161.579" cy="769.386" r="4" fill="#0" id="circle52"/>
	<circle cx="161.579" cy="784.393" r="4" fill="#0" id="circle53"/>
	<circle cx="164.581" cy="799.401" r="4" fill="#0" id="circle54"/>
	<circle cx="169.083" cy="454.227" r="4" fill="#0" id="circle55"/>
	<circle cx="176.587" cy="113.555" r="4" fill="#0" id="circle56"/>
	<circle cx="176.587" cy="128.563" r="4" fill="#0" id="circle57"/>
	<circle cx="176.587" cy="143.57" r="4" fill="#0" id="circle58"/>
	<circle cx="176.587" cy="158.578" r="4" fill="#0" id="circle59"/>
	<circle cx="176.587" cy="173.585" r="4" fill="#0" id="circle60"/>
	<circle cx="176.587" cy="188.593" r="4" fill="#0" id="circle61"/>
	<circle cx="176.587" cy="203.601" r="4" fill="#0" id="circle62"/>
	<circle cx="176.587" cy="301.15" r="4" fill="#0" id="circle63"/>
	<circle cx="176.587" cy="316.157" r="4" fill="#0" id="circle64"/>
	<circle cx="176.587" cy="331.165" r="4" fill="#0" id="circle65"/>
	<circle cx="176.587" cy="808.405" r="4" fill="#0" id="circle66"/>
	<circle cx="181.089" cy="823.413" r="4" fill="#0" id="circle67"/>
	<circle cx="184.091" cy="217.107" r="4" fill="#0" id="circle68"/>
	<circle cx="184.091" cy="232.115" r="4" fill="#0" id="circle69"/>
	<circle cx="184.091" cy="247.123" r="4" fill="#0" id="circle70"/>
	<circle cx="184.091" cy="262.13" r="4" fill="#0" id="circle71"/>
	<circle cx="184.091" cy="277.138" r="4" fill="#0" id="circle72"/>
	<circle cx="184.091" cy="344.672" r="4" fill="#0" id="circle73"/>
	<circle cx="184.091" cy="457.228" r="4" fill="#0" id="circle74"/>
	<circle cx="184.091" cy="991.498" r="4" fill="#0" id="circle75"/>
	<circle cx="188.593" cy="101.549" r="4" fill="#0" id="circle76"/>
	<circle cx="188.593" cy="836.92" r="4" fill="#0" id="circle77"/>
	<circle cx="191.595" cy="358.179" r="4" fill="#0" id="circle78"/>
	<circle cx="191.595" cy="373.186" r="4" fill="#0" id="circle79"/>
	<circle cx="191.595" cy="968.986" r="4" fill="#0" id="circle80"/>
	<circle cx="196.097" cy="388.194" r="4" fill="#0" id="circle81"/>
	<circle cx="199.098" cy="403.201" r="4" fill="#0" id="circle82"/>
	<circle cx="199.098" cy="418.209" r="4" fill="#0" id="circle83"/>
	<circle cx="199.098" cy="433.216" r="4" fill="#0" id="circle84"/>
	<circle cx="199.098" cy="448.224" r="4" fill="#0" id="circle85"/>
	<circle cx="199.098" cy="848.926" r="4" fill="#0" id="circle86"/>
	<circle cx="199.098" cy="863.933" r="4" fill="#0" id="circle87"/>
	<circle cx="199.098" cy="878.941" r="4" fill="#0" id="circle88"/>
	<circle cx="199.098" cy="893.949" r="4" fill="#0" id="circle89"/>
	<circle cx="199.098" cy="908.956" r="4" fill="#0" id="circle90"/>
	<circle cx="199.098" cy="923.964" r="4" fill="#0" id="circle91"/>
	<circle cx="199.098" cy="938.971" r="4" fill="#0" id="circle92"/>
	<circle cx="199.098" cy="953.979" r="4" fill="#0" id="circle93"/>
	<circle cx="199.098" cy="996" r="4" fill="#0" id="circle94"/>
	<circle cx="203.601" cy="94.0454" r="4" fill="#0" id="circle95"/>
	<circle cx="214.106" cy="996" r="4" fill="#0" id="circle96"/>
	<circle cx="215.607" cy="82.0393" r="4" fill="#0" id="circle97"/>
	<circle cx="227.613" cy="73.0348" r="4" fill="#0" id="circle98"/>
	<circle cx="229.113" cy="996" r="4" fill="#0" id="circle99"/>
	<circle cx="238.118" cy="85.0408" r="4" fill="#0" id="circle100"/>
	<circle cx="244.121" cy="996" r="4" fill="#0" id="circle101"/>
	<circle cx="245.622" cy="98.5477" r="4" fill="#0" id="circle102"/>
	<circle cx="253.126" cy="112.054" r="4" fill="#0" id="circle103"/>
	<circle cx="253.126" cy="127.062" r="4" fill="#0" id="circle104"/>
	<circle cx="259.129" cy="996" r="4" fill="#0" id="circle105"/>
	<circle cx="260.629" cy="140.569" r="4" fill="#0" id="circle106"/>
	<circle cx="260.629" cy="155.576" r="4" fill="#0" id="circle107"/>
	<circle cx="260.629" cy="170.584" r="4" fill="#0" id="circle108"/>
	<circle cx="260.629" cy="185.592" r="4" fill="#0" id="circle109"/>
	<circle cx="260.629" cy="200.599" r="4" fill="#0" id="circle110"/>
	<circle cx="260.629" cy="215.607" r="4" fill="#0" id="circle111"/>
	<circle cx="260.629" cy="230.614" r="4" fill="#0" id="circle112"/>
	<circle cx="260.629" cy="245.622" r="4" fill="#0" id="circle113"/>
	<circle cx="260.629" cy="260.629" r="4" fill="#0" id="circle114"/>
	<circle cx="260.629" cy="275.637" r="4" fill="#0" id="circle115"/>
	<circle cx="260.629" cy="290.644" r="4" fill="#0" id="circle116"/>
	<circle cx="260.629" cy="305.652" r="4" fill="#0" id="circle117"/>
	<circle cx="268.133" cy="319.159" r="4" fill="#0" id="circle118"/>
	<circle cx="274.136" cy="996" r="4" fill="#0" id="circle119"/>
	<circle cx="275.637" cy="332.666" r="4" fill="#0" id="circle120"/>
	<circle cx="283.141" cy="346.172" r="4" fill="#0" id="circle121"/>
	<circle cx="289.144" cy="361.18" r="4" fill="#0" id="circle122"/>
	<circle cx="289.144" cy="996" r="4" fill="#0" id="circle123"/>
	<circle cx="290.644" cy="376.188" r="4" fill="#0" id="circle124"/>
	<circle cx="302.651" cy="386.693" r="4" fill="#0" id="circle125"/>
	<circle cx="304.151" cy="996" r="4" fill="#0" id="circle126"/>
	<circle cx="311.655" cy="248.623" r="4" fill="#0" id="circle127"/>
	<circle cx="311.655" cy="263.631" r="4" fill="#0" id="circle128"/>
	<circle cx="311.655" cy="278.638" r="4" fill="#0" id="circle129"/>
	<circle cx="311.655" cy="338.669" r="4" fill="#0" id="circle130"/>
	<circle cx="311.655" cy="353.676" r="4" fill="#0" id="circle131"/>
	<circle cx="311.655" cy="368.684" r="4" fill="#0" id="circle132"/>
	<circle cx="319.159" cy="233.616" r="4" fill="#0" id="circle133"/>
	<circle cx="319.159" cy="292.145" r="4" fill="#0" id="circle134"/>
	<circle cx="319.159" cy="307.153" r="4" fill="#0" id="circle135"/>
	<circle cx="319.159" cy="322.16" r="4" fill="#0" id="circle136"/>
	<circle cx="319.159" cy="996" r="4" fill="#0" id="circle137"/>
	<circle cx="326.663" cy="166.082" r="4" fill="#0" id="circle138"/>
	<circle cx="326.663" cy="181.089" r="4" fill="#0" id="circle139"/>
	<circle cx="326.663" cy="196.097" r="4" fill="#0" id="circle140"/>
	<circle cx="326.663" cy="211.104" r="4" fill="#0" id="circle141"/>
	<circle cx="334.166" cy="46.0212" r="4" fill="#0" id="circle142"/>
	<circle cx="334.166" cy="61.0287" r="4" fill="#0" id="circle143"/>
	<circle cx="334.166" cy="76.0363" r="4" fill="#0" id="circle144"/>
	<circle cx="334.166" cy="91.0439" r="4" fill="#0" id="circle145"/>
	<circle cx="334.166" cy="106.051" r="4" fill="#0" id="circle146"/>
	<circle cx="334.166" cy="121.059" r="4" fill="#0" id="circle147"/>
	<circle cx="334.166" cy="136.067" r="4" fill="#0" id="circle148"/>
	<circle cx="334.166" cy="151.074" r="4" fill="#0" id="circle149"/>
	<circle cx="334.166" cy="996" r="4" fill="#0" id="circle150"/>
	<circle cx="349.174" cy="38.5174" r="4" fill="#0" id="circle151"/>
	<circle cx="349.174" cy="996" r="4" fill="#0" id="circle152"/>
	<circle cx="356.678" cy="16.0061" r="4" fill="#0" id="circle153"/>
	<circle cx="364.182" cy="996" r="4" fill="#0" id="circle154"/>
	<circle cx="368.684" cy="4" r="4" fill="#0" id="circle155"/>
	<circle cx="379.189" cy="996" r="4" fill="#0" id="circle156"/>
	<circle cx="383.691" cy="4" r="4" fill="#0" id="circle157"/>
	<circle cx="388.194" cy="19.0076" r="4" fill="#0" id="circle158"/>
	<circle cx="394.197" cy="996" r="4" fill="#0" id="circle159"/>
	<circle cx="395.697" cy="32.5144" r="4" fill="#0" id="circle160"/>
	<circle cx="403.201" cy="230.614" r="4" fill="#0" id="circle161"/>
	<circle cx="403.201" cy="245.622" r="4" fill="#0" id="circle162"/>
	<circle cx="403.201" cy="260.629" r="4" fill="#0" id="circle163"/>
	<circle cx="403.201" cy="275.637" r="4" fill="#0" id="circle164"/>
	<circle cx="403.201" cy="290.644" r="4" fill="#0" id="circle165"/>
	<circle cx="403.201" cy="305.652" r="4" fill="#0" id="circle166"/>
	<circle cx="403.201" cy="320.66" r="4" fill="#0" id="circle167"/>
	<circle cx="403.201" cy="335.667" r="4" fill="#0" id="circle168"/>
	<circle cx="403.201" cy="350.675" r="4" fill="#0" id="circle169"/>
	<circle cx="407.703" cy="43.0197" r="4" fill="#0" id="circle170"/>
	<circle cx="409.204" cy="996" r="4" fill="#0" id="circle171"/>
	<circle cx="410.705" cy="58.0272" r="4" fill="#0" id="circle172"/>
	<circle cx="410.705" cy="73.0348" r="4" fill="#0" id="circle173"/>
	<circle cx="410.705" cy="88.0424" r="4" fill="#0" id="circle174"/>
	<circle cx="410.705" cy="103.05" r="4" fill="#0" id="circle175"/>
	<circle cx="410.705" cy="118.057" r="4" fill="#0" id="circle176"/>
	<circle cx="410.705" cy="133.065" r="4" fill="#0" id="circle177"/>
	<circle cx="410.705" cy="148.073" r="4" fill="#0" id="circle178"/>
	<circle cx="410.705" cy="163.08" r="4" fill="#0" id="circle179"/>
	<circle cx="410.705" cy="178.088" r="4" fill="#0" id="circle180"/>
	<circle cx="410.705" cy="193.095" r="4" fill="#0" id="circle181"/>
	<circle cx="410.705" cy="208.103" r="4" fill="#0" id="circle182"/>
	<circle cx="410.705" cy="364.182" r="4" fill="#0" id="circle183"/>
	<circle cx="410.705" cy="379.189" r="4" fill="#0" id="circle184"/>
	<circle cx="424.212" cy="371.685" r="4" fill="#0" id="circle185"/>
	<circle cx="424.212" cy="996" r="4" fill="#0" id="circle186"/>
	<circle cx="433.216" cy="359.679" r="4" fill="#0" id="circle187"/>
	<circle cx="439.219" cy="996" r="4" fill="#0" id="circle188"/>
	<circle cx="445.222" cy="349.174" r="4" fill="#0" id="circle189"/>
	<circle cx="446.723" cy="316.157" r="4" fill="#0" id="circle190"/>
	<circle cx="446.723" cy="331.165" r="4" fill="#0" id="circle191"/>
	<circle cx="454.227" cy="248.623" r="4" fill="#0" id="circle192"/>
	<circle cx="454.227" cy="263.631" r="4" fill="#0" id="circle193"/>
	<circle cx="454.227" cy="278.638" r="4" fill="#0" id="circle194"/>
	<circle cx="454.227" cy="293.646" r="4" fill="#0" id="circle195"/>
	<circle cx="454.227" cy="996" r="4" fill="#0" id="circle196"/>
	<circle cx="461.731" cy="226.112" r="4" fill="#0" id="circle197"/>
	<circle cx="469.234" cy="181.089" r="4" fill="#0" id="circle198"/>
	<circle cx="469.234" cy="196.097" r="4" fill="#0" id="circle199"/>
	<circle cx="469.234" cy="211.104" r="4" fill="#0" id="circle200"/>
	<circle cx="469.234" cy="996" r="4" fill="#0" id="circle201"/>
	<circle cx="476.738" cy="136.067" r="4" fill="#0" id="circle202"/>
	<circle cx="476.738" cy="151.074" r="4" fill="#0" id="circle203"/>
	<circle cx="476.738" cy="166.082" r="4" fill="#0" id="circle204"/>
	<circle cx="484.242" cy="83.5401" r="4" fill="#0" id="circle205"/>
	<circle cx="484.242" cy="98.5477" r="4" fill="#0" id="circle206"/>
	<circle cx="484.242" cy="113.555" r="4" fill="#0" id="circle207"/>
	<circle cx="484.242" cy="991.498" r="4" fill="#0" id="circle208"/>
	<circle cx="485.743" cy="965.985" r="4" fill="#0" id="circle209"/>
	<circle cx="496.248" cy="71.534" r="4" fill="#0" id="circle210"/>
	<circle cx="497.749" cy="955.48" r="4" fill="#0" id="circle211"/>
	<circle cx="505.253" cy="940.472" r="4" fill="#0" id="circle212"/>
	<circle cx="511.256" cy="64.0303" r="4" fill="#0" id="circle213"/>
	<circle cx="515.758" cy="913.458" r="4" fill="#0" id="circle214"/>
	<circle cx="515.758" cy="928.466" r="4" fill="#0" id="circle215"/>
	<circle cx="523.262" cy="52.0242" r="4" fill="#0" id="circle216"/>
	<circle cx="523.262" cy="403.201" r="4" fill="#0" id="circle217"/>
	<circle cx="523.262" cy="418.209" r="4" fill="#0" id="circle218"/>
	<circle cx="523.262" cy="433.216" r="4" fill="#0" id="circle219"/>
	<circle cx="527.764" cy="902.953" r="4" fill="#0" id="circle220"/>
	<circle cx="530.766" cy="358.179" r="4" fill="#0" id="circle221"/>
	<circle cx="530.766" cy="373.186" r="4" fill="#0" id="circle222"/>
	<circle cx="530.766" cy="388.194" r="4" fill="#0" id="circle223"/>
	<circle cx="530.766" cy="446.723" r="4" fill="#0" id="circle224"/>
	<circle cx="530.766" cy="461.731" r="4" fill="#0" id="circle225"/>
	<circle cx="530.766" cy="476.738" r="4" fill="#0" id="circle226"/>
	<circle cx="535.268" cy="41.5189" r="4" fill="#0" id="circle227"/>
	<circle cx="538.269" cy="305.652" r="4" fill="#0" id="circle228"/>
	<circle cx="538.269" cy="320.66" r="4" fill="#0" id="circle229"/>
	<circle cx="538.269" cy="335.667" r="4" fill="#0" id="circle230"/>
	<circle cx="538.269" cy="490.245" r="4" fill="#0" id="circle231"/>
	<circle cx="538.269" cy="505.253" r="4" fill="#0" id="circle232"/>
	<circle cx="538.269" cy="520.26" r="4" fill="#0" id="circle233"/>
	<circle cx="538.269" cy="890.947" r="4" fill="#0" id="circle234"/>
	<circle cx="545.773" cy="53.525" r="4" fill="#0" id="circle235"/>
	<circle cx="545.773" cy="68.5325" r="4" fill="#0" id="circle236"/>
	<circle cx="545.773" cy="260.629" r="4" fill="#0" id="circle237"/>
	<circle cx="545.773" cy="275.637" r="4" fill="#0" id="circle238"/>
	<circle cx="545.773" cy="290.644" r="4" fill="#0" id="circle239"/>
	<circle cx="550.275" cy="530.766" r="4" fill="#0" id="circle240"/>
	<circle cx="550.275" cy="880.442" r="4" fill="#0" id="circle241"/>
	<circle cx="553.277" cy="82.0393" r="4" fill="#0" id="circle242"/>
	<circle cx="553.277" cy="97.0469" r="4" fill="#0" id="circle243"/>
	<circle cx="553.277" cy="112.054" r="4" fill="#0" id="circle244"/>
	<circle cx="553.277" cy="163.08" r="4" fill="#0" id="circle245"/>
	<circle cx="553.277" cy="178.088" r="4" fill="#0" id="circle246"/>
	<circle cx="553.277" cy="193.095" r="4" fill="#0" id="circle247"/>
	<circle cx="553.277" cy="208.103" r="4" fill="#0" id="circle248"/>
	<circle cx="553.277" cy="223.11" r="4" fill="#0" id="circle249"/>
	<circle cx="553.277" cy="238.118" r="4" fill="#0" id="circle250"/>
	<circle cx="553.277" cy="545.773" r="4" fill="#0" id="circle251"/>
	<circle cx="559.28" cy="868.436" r="4" fill="#0" id="circle252"/>
	<circle cx="560.781" cy="125.561" r="4" fill="#0" id="circle253"/>
	<circle cx="560.781" cy="140.569" r="4" fill="#0" id="circle254"/>
	<circle cx="560.781" cy="559.28" r="4" fill="#0" id="circle255"/>
	<circle cx="571.286" cy="859.431" r="4" fill="#0" id="circle256"/>
	<circle cx="572.787" cy="568.284" r="4" fill="#0" id="circle257"/>
	<circle cx="578.79" cy="583.292" r="4" fill="#0" id="circle258"/>
	<circle cx="583.292" cy="838.421" r="4" fill="#0" id="circle259"/>
	<circle cx="586.293" cy="596.799" r="4" fill="#0" id="circle260"/>
	<circle cx="590.796" cy="823.413" r="4" fill="#0" id="circle261"/>
	<circle cx="598.3" cy="808.405" r="4" fill="#0" id="circle262"/>
	<circle cx="601.301" cy="589.295" r="4" fill="#0" id="circle263"/>
	<circle cx="613.307" cy="785.894" r="4" fill="#0" id="circle264"/>
	<circle cx="613.307" cy="800.902" r="4" fill="#0" id="circle265"/>
	<circle cx="616.309" cy="589.295" r="4" fill="#0" id="circle266"/>
	<circle cx="626.814" cy="778.39" r="4" fill="#0" id="circle267"/>
	<circle cx="629.815" cy="581.791" r="4" fill="#0" id="circle268"/>
	<circle cx="635.818" cy="763.383" r="4" fill="#0" id="circle269"/>
	<circle cx="641.821" cy="563.782" r="4" fill="#0" id="circle270"/>
	<circle cx="643.322" cy="748.375" r="4" fill="#0" id="circle271"/>
	<circle cx="653.828" cy="551.776" r="4" fill="#0" id="circle272"/>
	<circle cx="655.328" cy="737.87" r="4" fill="#0" id="circle273"/>
	<circle cx="661.331" cy="536.769" r="4" fill="#0" id="circle274"/>
	<circle cx="664.333" cy="518.759" r="4" fill="#0" id="circle275"/>
	<circle cx="665.834" cy="725.864" r="4" fill="#0" id="circle276"/>
	<circle cx="671.837" cy="496.248" r="4" fill="#0" id="circle277"/>
	<circle cx="677.84" cy="715.359" r="4" fill="#0" id="circle278"/>
	<circle cx="679.34" cy="466.233" r="4" fill="#0" id="circle279"/>
	<circle cx="679.34" cy="481.241" r="4" fill="#0" id="circle280"/>
	<circle cx="680.841" cy="688.345" r="4" fill="#0" id="circle281"/>
	<circle cx="688.345" cy="673.337" r="4" fill="#0" id="circle282"/>
	<circle cx="691.346" cy="454.227" r="4" fill="#0" id="circle283"/>
	<circle cx="695.849" cy="658.33" r="4" fill="#0" id="circle284"/>
	<circle cx="703.352" cy="442.221" r="4" fill="#0" id="circle285"/>
	<circle cx="707.855" cy="647.825" r="4" fill="#0" id="circle286"/>
	<circle cx="710.856" cy="427.213" r="4" fill="#0" id="circle287"/>
	<circle cx="710.856" cy="628.315" r="4" fill="#0" id="circle288"/>
	<circle cx="718.36" cy="613.307" r="4" fill="#0" id="circle289"/>
	<circle cx="722.862" cy="416.708" r="4" fill="#0" id="circle290"/>
	<circle cx="733.368" cy="598.3" r="4" fill="#0" id="circle291"/>
	<circle cx="736.369" cy="409.204" r="4" fill="#0" id="circle292"/>
	<circle cx="740.871" cy="583.292" r="4" fill="#0" id="circle293"/>
	<circle cx="748.375" cy="568.284" r="4" fill="#0" id="circle294"/>
	<circle cx="749.876" cy="401.7" r="4" fill="#0" id="circle295"/>
	<circle cx="755.879" cy="538.269" r="4" fill="#0" id="circle296"/>
	<circle cx="755.879" cy="553.277" r="4" fill="#0" id="circle297"/>
	<circle cx="763.383" cy="493.247" r="4" fill="#0" id="circle298"/>
	<circle cx="763.383" cy="508.254" r="4" fill="#0" id="circle299"/>
	<circle cx="763.383" cy="523.262" r="4" fill="#0" id="circle300"/>
	<circle cx="764.884" cy="401.7" r="4" fill="#0" id="circle301"/>
	<circle cx="770.887" cy="416.708" r="4" fill="#0" id="circle302"/>
	<circle cx="770.887" cy="431.716" r="4" fill="#0" id="circle303"/>
	<circle cx="770.887" cy="455.728" r="4" fill="#0" id="circle304"/>
	<circle cx="770.887" cy="470.735" r="4" fill="#0" id="circle305"/>
	</g>
</svg>