<?xml version="1.0" encoding="UTF-8" standalone="no"?>
<!-- Created with CurveBenchmark -->
<svg
	xmlns:dc="http://purl.org/dc/elements/1.1/"
	xmlns:cc="http://creativecommons.org/ns#"
	xmlns:rdf="http://www.w3.org/1999/02/22-rdf-syntax-ns#"
	xmlns:svg="http://www.w3.org/2000/svg"
	xmlns="http://www.w3.org/2000/svg"
	xmlns:sodipodi="http://sodipodi.sourceforge.net/DTD/sodipodi-0.dtd"
	xmlns:inkscape="http://www.inkscape.org/namespaces/inkscape"
	width="1000"
	height="1000"
	id="svg2"
	version="1.1"
	sodipodi:docname="manifold/crust-bed275.png.txt">
<defs
	id="defs4" />
<metadata
	id="metadata7">
	<rdf:RDF>
		<cc:Work
			rdf:about="">
			<dc:format>image/svg+xml</dc:format>
			<dc:type
				rdf:resource="http://purl.org/dc/dcmitype/StillImage" />
			<dc:title></dc:title>
		</cc:Work>
	</rdf:RDF>
</metadata>
<g
	inkscape:label="Layer 1"
	inkscape:groupmode="layer"
	id="layer1">
	<path style="fill:none;stroke:red;stroke-width:1px;stroke-linecap:butt;stroke-linejoin:miter;stroke-opacity:1" d="M 34.348,277.132 41.935,258.164 z" id="boundary" inkscape:connector-curvature="0" />
	<path style="fill:none;stroke:red;stroke-width:1px;stroke-linecap:butt;stroke-linejoin:miter;stroke-opacity:1" d="M 41.935,258.164 55.2122,273.338 z" id="boundary" inkscape:connector-curvature="0" />
	<path style="fill:none;stroke:red;stroke-width:1px;stroke-linecap:butt;stroke-linejoin:miter;stroke-opacity:1" d="M 34.348,277.132 30.5545,299.893 z" id="boundary" inkscape:connector-curvature="0" />
	<path style="fill:none;stroke:red;stroke-width:1px;stroke-linecap:butt;stroke-linejoin:miter;stroke-opacity:1" d="M 17.2772,320.757 30.5545,299.893 z" id="boundary" inkscape:connector-curvature="0" />
	<path style="fill:none;stroke:red;stroke-width:1px;stroke-linecap:butt;stroke-linejoin:miter;stroke-opacity:1" d="M 55.2122,273.338 59.0057,292.306 z" id="boundary" inkscape:connector-curvature="0" />
	<path style="fill:none;stroke:red;stroke-width:1px;stroke-linecap:butt;stroke-linejoin:miter;stroke-opacity:1" d="M 59.0057,292.306 68.4895,309.377 z" id="boundary" inkscape:connector-curvature="0" />
	<path style="fill:none;stroke:red;stroke-width:1px;stroke-linecap:butt;stroke-linejoin:miter;stroke-opacity:1" d="M 17.2772,320.757 7.7935,337.828 z" id="boundary" inkscape:connector-curvature="0" />
	<path style="fill:none;stroke:red;stroke-width:1px;stroke-linecap:butt;stroke-linejoin:miter;stroke-opacity:1" d="M 275.235,345.415 256.268,345.415 z" id="boundary" inkscape:connector-curvature="0" />
	<path style="fill:none;stroke:red;stroke-width:1px;stroke-linecap:butt;stroke-linejoin:miter;stroke-opacity:1" d="M 81.7667,324.551 68.4895,309.377 z" id="boundary" inkscape:connector-curvature="0" />
	<path style="fill:none;stroke:red;stroke-width:1px;stroke-linecap:butt;stroke-linejoin:miter;stroke-opacity:1" d="M 4,356.795 7.7935,337.828 z" id="boundary" inkscape:connector-curvature="0" />
	<path style="fill:none;stroke:red;stroke-width:1px;stroke-linecap:butt;stroke-linejoin:miter;stroke-opacity:1" d="M 4,375.763 4,356.795 z" id="boundary" inkscape:connector-curvature="0" />
	<path style="fill:none;stroke:red;stroke-width:1px;stroke-linecap:butt;stroke-linejoin:miter;stroke-opacity:1" d="M 4,375.763 4,398.524 z" id="boundary" inkscape:connector-curvature="0" />
	<path style="fill:none;stroke:red;stroke-width:1px;stroke-linecap:butt;stroke-linejoin:miter;stroke-opacity:1" d="M 7.7935,417.491 4,398.524 z" id="boundary" inkscape:connector-curvature="0" />
	<path style="fill:none;stroke:red;stroke-width:1px;stroke-linecap:butt;stroke-linejoin:miter;stroke-opacity:1" d="M 7.7935,417.491 7.7935,436.459 z" id="boundary" inkscape:connector-curvature="0" />
	<path style="fill:none;stroke:red;stroke-width:1px;stroke-linecap:butt;stroke-linejoin:miter;stroke-opacity:1" d="M 104.528,356.795 89.3537,343.518 z" id="boundary" inkscape:connector-curvature="0" />
	<path style="fill:none;stroke:red;stroke-width:1px;stroke-linecap:butt;stroke-linejoin:miter;stroke-opacity:1" d="M 81.7667,324.551 89.3537,343.518 z" id="boundary" inkscape:connector-curvature="0" />
	<path style="fill:none;stroke:red;stroke-width:1px;stroke-linecap:butt;stroke-linejoin:miter;stroke-opacity:1" d="M 161.43,349.208 142.463,353.002 z" id="boundary" inkscape:connector-curvature="0" />
	<path style="fill:none;stroke:red;stroke-width:1px;stroke-linecap:butt;stroke-linejoin:miter;stroke-opacity:1" d="M 142.463,353.002 123.495,353.002 z" id="boundary" inkscape:connector-curvature="0" />
	<path style="fill:none;stroke:red;stroke-width:1px;stroke-linecap:butt;stroke-linejoin:miter;stroke-opacity:1" d="M 218.333,349.208 199.365,349.208 z" id="boundary" inkscape:connector-curvature="0" />
	<path style="fill:none;stroke:red;stroke-width:1px;stroke-linecap:butt;stroke-linejoin:miter;stroke-opacity:1" d="M 237.3,345.415 218.333,349.208 z" id="boundary" inkscape:connector-curvature="0" />
	<path style="fill:none;stroke:red;stroke-width:1px;stroke-linecap:butt;stroke-linejoin:miter;stroke-opacity:1" d="M 180.398,349.208 199.365,349.208 z" id="boundary" inkscape:connector-curvature="0" />
	<path style="fill:none;stroke:red;stroke-width:1px;stroke-linecap:butt;stroke-linejoin:miter;stroke-opacity:1" d="M 180.398,349.208 161.43,349.208 z" id="boundary" inkscape:connector-curvature="0" />
	<path style="fill:none;stroke:red;stroke-width:1px;stroke-linecap:butt;stroke-linejoin:miter;stroke-opacity:1" d="M 237.3,345.415 256.268,345.415 z" id="boundary" inkscape:connector-curvature="0" />
	<path style="fill:none;stroke:red;stroke-width:1px;stroke-linecap:butt;stroke-linejoin:miter;stroke-opacity:1" d="M 104.528,356.795 123.495,353.002 z" id="boundary" inkscape:connector-curvature="0" />
	<path style="fill:none;stroke:red;stroke-width:1px;stroke-linecap:butt;stroke-linejoin:miter;stroke-opacity:1" d="M 313.17,345.415 294.203,345.415 z" id="boundary" inkscape:connector-curvature="0" />
	<path style="fill:none;stroke:red;stroke-width:1px;stroke-linecap:butt;stroke-linejoin:miter;stroke-opacity:1" d="M 275.235,345.415 294.203,345.415 z" id="boundary" inkscape:connector-curvature="0" />
	<path style="fill:none;stroke:red;stroke-width:1px;stroke-linecap:butt;stroke-linejoin:miter;stroke-opacity:1" d="M 313.17,345.415 332.138,345.415 z" id="boundary" inkscape:connector-curvature="0" />
	<path style="fill:none;stroke:red;stroke-width:1px;stroke-linecap:butt;stroke-linejoin:miter;stroke-opacity:1" d="M 351.105,345.415 370.073,345.415 z" id="boundary" inkscape:connector-curvature="0" />
	<path style="fill:none;stroke:red;stroke-width:1px;stroke-linecap:butt;stroke-linejoin:miter;stroke-opacity:1" d="M 351.105,345.415 332.138,345.415 z" id="boundary" inkscape:connector-curvature="0" />
	<path style="fill:none;stroke:red;stroke-width:1px;stroke-linecap:butt;stroke-linejoin:miter;stroke-opacity:1" d="M 389.04,345.415 370.073,345.415 z" id="boundary" inkscape:connector-curvature="0" />
	<path style="fill:none;stroke:red;stroke-width:1px;stroke-linecap:butt;stroke-linejoin:miter;stroke-opacity:1" d="M 389.04,345.415 408.008,345.415 z" id="boundary" inkscape:connector-curvature="0" />
	<path style="fill:none;stroke:red;stroke-width:1px;stroke-linecap:butt;stroke-linejoin:miter;stroke-opacity:1" d="M 426.975,345.415 408.008,345.415 z" id="boundary" inkscape:connector-curvature="0" />
	<path style="fill:none;stroke:red;stroke-width:1px;stroke-linecap:butt;stroke-linejoin:miter;stroke-opacity:1" d="M 426.975,345.415 445.943,345.415 z" id="boundary" inkscape:connector-curvature="0" />
	<path style="fill:none;stroke:red;stroke-width:1px;stroke-linecap:butt;stroke-linejoin:miter;stroke-opacity:1" d="M 464.91,345.415 445.943,345.415 z" id="boundary" inkscape:connector-curvature="0" />
	<path style="fill:none;stroke:red;stroke-width:1px;stroke-linecap:butt;stroke-linejoin:miter;stroke-opacity:1" d="M 483.878,345.415 502.845,345.415 z" id="boundary" inkscape:connector-curvature="0" />
	<path style="fill:none;stroke:red;stroke-width:1px;stroke-linecap:butt;stroke-linejoin:miter;stroke-opacity:1" d="M 521.813,345.415 540.78,345.415 z" id="boundary" inkscape:connector-curvature="0" />
	<path style="fill:none;stroke:red;stroke-width:1px;stroke-linecap:butt;stroke-linejoin:miter;stroke-opacity:1" d="M 521.813,345.415 502.845,345.415 z" id="boundary" inkscape:connector-curvature="0" />
	<path style="fill:none;stroke:red;stroke-width:1px;stroke-linecap:butt;stroke-linejoin:miter;stroke-opacity:1" d="M 483.878,345.415 464.91,345.415 z" id="boundary" inkscape:connector-curvature="0" />
	<path style="fill:none;stroke:red;stroke-width:1px;stroke-linecap:butt;stroke-linejoin:miter;stroke-opacity:1" d="M 540.78,345.415 559.748,345.415 z" id="boundary" inkscape:connector-curvature="0" />
	<path style="fill:none;stroke:red;stroke-width:1px;stroke-linecap:butt;stroke-linejoin:miter;stroke-opacity:1" d="M 7.7935,436.459 4,459.22 z" id="boundary" inkscape:connector-curvature="0" />
	<path style="fill:none;stroke:red;stroke-width:1px;stroke-linecap:butt;stroke-linejoin:miter;stroke-opacity:1" d="M 4,478.187 4,459.22 z" id="boundary" inkscape:connector-curvature="0" />
	<path style="fill:none;stroke:red;stroke-width:1px;stroke-linecap:butt;stroke-linejoin:miter;stroke-opacity:1" d="M 4,478.187 7.7935,497.155 z" id="boundary" inkscape:connector-curvature="0" />
	<path style="fill:none;stroke:red;stroke-width:1px;stroke-linecap:butt;stroke-linejoin:miter;stroke-opacity:1" d="M 7.7935,516.122 4,535.09 z" id="boundary" inkscape:connector-curvature="0" />
	<path style="fill:none;stroke:red;stroke-width:1px;stroke-linecap:butt;stroke-linejoin:miter;stroke-opacity:1" d="M 7.7935,497.155 7.7935,516.122 z" id="boundary" inkscape:connector-curvature="0" />
	<path style="fill:none;stroke:red;stroke-width:1px;stroke-linecap:butt;stroke-linejoin:miter;stroke-opacity:1" d="M 108.321,510.432 89.3537,512.329 z" id="boundary" inkscape:connector-curvature="0" />
	<path style="fill:none;stroke:red;stroke-width:1px;stroke-linecap:butt;stroke-linejoin:miter;stroke-opacity:1" d="M 89.3537,512.329 85.5602,535.09 z" id="boundary" inkscape:connector-curvature="0" />
	<path style="fill:none;stroke:red;stroke-width:1px;stroke-linecap:butt;stroke-linejoin:miter;stroke-opacity:1" d="M 127.289,510.432 108.321,510.432 z" id="boundary" inkscape:connector-curvature="0" />
	<path style="fill:none;stroke:red;stroke-width:1px;stroke-linecap:butt;stroke-linejoin:miter;stroke-opacity:1" d="M 127.289,510.432 146.256,510.432 z" id="boundary" inkscape:connector-curvature="0" />
	<path style="fill:none;stroke:red;stroke-width:1px;stroke-linecap:butt;stroke-linejoin:miter;stroke-opacity:1" d="M 165.224,510.432 146.256,510.432 z" id="boundary" inkscape:connector-curvature="0" />
	<path style="fill:none;stroke:red;stroke-width:1px;stroke-linecap:butt;stroke-linejoin:miter;stroke-opacity:1" d="M 184.191,510.432 165.224,510.432 z" id="boundary" inkscape:connector-curvature="0" />
	<path style="fill:none;stroke:red;stroke-width:1px;stroke-linecap:butt;stroke-linejoin:miter;stroke-opacity:1" d="M 4,554.057 4,535.09 z" id="boundary" inkscape:connector-curvature="0" />
	<path style="fill:none;stroke:red;stroke-width:1px;stroke-linecap:butt;stroke-linejoin:miter;stroke-opacity:1" d="M 4,584.405 4,554.057 z" id="boundary" inkscape:connector-curvature="0" />
	<path style="fill:none;stroke:red;stroke-width:1px;stroke-linecap:butt;stroke-linejoin:miter;stroke-opacity:1" d="M 22.9675,582.509 4,584.405 z" id="boundary" inkscape:connector-curvature="0" />
	<path style="fill:none;stroke:red;stroke-width:1px;stroke-linecap:butt;stroke-linejoin:miter;stroke-opacity:1" d="M 24.8642,557.851 43.8317,555.954 z" id="boundary" inkscape:connector-curvature="0" />
	<path style="fill:none;stroke:red;stroke-width:1px;stroke-linecap:butt;stroke-linejoin:miter;stroke-opacity:1" d="M 85.5602,554.057 85.5602,535.09 z" id="boundary" inkscape:connector-curvature="0" />
	<path style="fill:none;stroke:red;stroke-width:1px;stroke-linecap:butt;stroke-linejoin:miter;stroke-opacity:1" d="M 64.696,555.954 68.4895,576.818 z" id="boundary" inkscape:connector-curvature="0" />
	<path style="fill:none;stroke:red;stroke-width:1px;stroke-linecap:butt;stroke-linejoin:miter;stroke-opacity:1" d="M 184.191,510.432 203.159,510.432 z" id="boundary" inkscape:connector-curvature="0" />
	<path style="fill:none;stroke:red;stroke-width:1px;stroke-linecap:butt;stroke-linejoin:miter;stroke-opacity:1" d="M 222.126,510.432 203.159,510.432 z" id="boundary" inkscape:connector-curvature="0" />
	<path style="fill:none;stroke:red;stroke-width:1px;stroke-linecap:butt;stroke-linejoin:miter;stroke-opacity:1" d="M 222.126,510.432 241.094,510.432 z" id="boundary" inkscape:connector-curvature="0" />
	<path style="fill:none;stroke:red;stroke-width:1px;stroke-linecap:butt;stroke-linejoin:miter;stroke-opacity:1" d="M 260.061,510.432 279.029,510.432 z" id="boundary" inkscape:connector-curvature="0" />
	<path style="fill:none;stroke:red;stroke-width:1px;stroke-linecap:butt;stroke-linejoin:miter;stroke-opacity:1" d="M 260.061,510.432 241.094,510.432 z" id="boundary" inkscape:connector-curvature="0" />
	<path style="fill:none;stroke:red;stroke-width:1px;stroke-linecap:butt;stroke-linejoin:miter;stroke-opacity:1" d="M 297.996,510.432 316.964,510.432 z" id="boundary" inkscape:connector-curvature="0" />
	<path style="fill:none;stroke:red;stroke-width:1px;stroke-linecap:butt;stroke-linejoin:miter;stroke-opacity:1" d="M 297.996,510.432 279.029,510.432 z" id="boundary" inkscape:connector-curvature="0" />
	<path style="fill:none;stroke:red;stroke-width:1px;stroke-linecap:butt;stroke-linejoin:miter;stroke-opacity:1" d="M 335.931,510.432 354.899,510.432 z" id="boundary" inkscape:connector-curvature="0" />
	<path style="fill:none;stroke:red;stroke-width:1px;stroke-linecap:butt;stroke-linejoin:miter;stroke-opacity:1" d="M 335.931,510.432 316.964,510.432 z" id="boundary" inkscape:connector-curvature="0" />
	<path style="fill:none;stroke:red;stroke-width:1px;stroke-linecap:butt;stroke-linejoin:miter;stroke-opacity:1" d="M 487.671,510.432 468.704,510.432 z" id="boundary" inkscape:connector-curvature="0" />
	<path style="fill:none;stroke:red;stroke-width:1px;stroke-linecap:butt;stroke-linejoin:miter;stroke-opacity:1" d="M 373.866,510.432 392.834,510.432 z" id="boundary" inkscape:connector-curvature="0" />
	<path style="fill:none;stroke:red;stroke-width:1px;stroke-linecap:butt;stroke-linejoin:miter;stroke-opacity:1" d="M 411.801,510.432 430.769,510.432 z" id="boundary" inkscape:connector-curvature="0" />
	<path style="fill:none;stroke:red;stroke-width:1px;stroke-linecap:butt;stroke-linejoin:miter;stroke-opacity:1" d="M 411.801,510.432 392.834,510.432 z" id="boundary" inkscape:connector-curvature="0" />
	<path style="fill:none;stroke:red;stroke-width:1px;stroke-linecap:butt;stroke-linejoin:miter;stroke-opacity:1" d="M 449.736,510.432 468.704,510.432 z" id="boundary" inkscape:connector-curvature="0" />
	<path style="fill:none;stroke:red;stroke-width:1px;stroke-linecap:butt;stroke-linejoin:miter;stroke-opacity:1" d="M 449.736,510.432 430.769,510.432 z" id="boundary" inkscape:connector-curvature="0" />
	<path style="fill:none;stroke:red;stroke-width:1px;stroke-linecap:butt;stroke-linejoin:miter;stroke-opacity:1" d="M 373.866,510.432 354.899,510.432 z" id="boundary" inkscape:connector-curvature="0" />
	<path style="fill:none;stroke:red;stroke-width:1px;stroke-linecap:butt;stroke-linejoin:miter;stroke-opacity:1" d="M 506.639,510.432 487.671,510.432 z" id="boundary" inkscape:connector-curvature="0" />
	<path style="fill:none;stroke:red;stroke-width:1px;stroke-linecap:butt;stroke-linejoin:miter;stroke-opacity:1" d="M 544.574,510.432 525.606,510.432 z" id="boundary" inkscape:connector-curvature="0" />
	<path style="fill:none;stroke:red;stroke-width:1px;stroke-linecap:butt;stroke-linejoin:miter;stroke-opacity:1" d="M 506.639,510.432 525.606,510.432 z" id="boundary" inkscape:connector-curvature="0" />
	<path style="fill:none;stroke:red;stroke-width:1px;stroke-linecap:butt;stroke-linejoin:miter;stroke-opacity:1" d="M 563.541,510.432 544.574,510.432 z" id="boundary" inkscape:connector-curvature="0" />
	<path style="fill:none;stroke:red;stroke-width:1px;stroke-linecap:butt;stroke-linejoin:miter;stroke-opacity:1" d="M 925.82,68.4895 918.233,98.8375 z" id="boundary" inkscape:connector-curvature="0" />
	<path style="fill:none;stroke:red;stroke-width:1px;stroke-linecap:butt;stroke-linejoin:miter;stroke-opacity:1" d="M 777.874,239.197 758.906,239.197 z" id="boundary" inkscape:connector-curvature="0" />
	<path style="fill:none;stroke:red;stroke-width:1px;stroke-linecap:butt;stroke-linejoin:miter;stroke-opacity:1" d="M 758.906,239.197 739.939,242.99 z" id="boundary" inkscape:connector-curvature="0" />
	<path style="fill:none;stroke:red;stroke-width:1px;stroke-linecap:butt;stroke-linejoin:miter;stroke-opacity:1" d="M 910.646,148.153 910.646,129.185 z" id="boundary" inkscape:connector-curvature="0" />
	<path style="fill:none;stroke:red;stroke-width:1px;stroke-linecap:butt;stroke-linejoin:miter;stroke-opacity:1" d="M 918.233,98.8375 910.646,129.185 z" id="boundary" inkscape:connector-curvature="0" />
	<path style="fill:none;stroke:red;stroke-width:1px;stroke-linecap:butt;stroke-linejoin:miter;stroke-opacity:1" d="M 910.646,148.153 910.646,167.12 z" id="boundary" inkscape:connector-curvature="0" />
	<path style="fill:none;stroke:red;stroke-width:1px;stroke-linecap:butt;stroke-linejoin:miter;stroke-opacity:1" d="M 914.44,186.088 910.646,167.12 z" id="boundary" inkscape:connector-curvature="0" />
	<path style="fill:none;stroke:red;stroke-width:1px;stroke-linecap:butt;stroke-linejoin:miter;stroke-opacity:1" d="M 885.989,212.642 867.021,214.539 z" id="boundary" inkscape:connector-curvature="0" />
	<path style="fill:none;stroke:red;stroke-width:1px;stroke-linecap:butt;stroke-linejoin:miter;stroke-opacity:1" d="M 867.021,214.539 848.054,224.023 z" id="boundary" inkscape:connector-curvature="0" />
	<path style="fill:none;stroke:red;stroke-width:1px;stroke-linecap:butt;stroke-linejoin:miter;stroke-opacity:1" d="M 829.086,229.713 848.054,224.023 z" id="boundary" inkscape:connector-curvature="0" />
	<path style="fill:none;stroke:red;stroke-width:1px;stroke-linecap:butt;stroke-linejoin:miter;stroke-opacity:1" d="M 914.44,186.088 904.956,216.436 z" id="boundary" inkscape:connector-curvature="0" />
	<path style="fill:none;stroke:red;stroke-width:1px;stroke-linecap:butt;stroke-linejoin:miter;stroke-opacity:1" d="M 904.956,216.436 885.989,212.642 z" id="boundary" inkscape:connector-curvature="0" />
	<path style="fill:none;stroke:red;stroke-width:1px;stroke-linecap:butt;stroke-linejoin:miter;stroke-opacity:1" d="M 829.086,229.713 813.912,241.094 z" id="boundary" inkscape:connector-curvature="0" />
	<path style="fill:none;stroke:red;stroke-width:1px;stroke-linecap:butt;stroke-linejoin:miter;stroke-opacity:1" d="M 652.688,292.306 637.514,307.48 z" id="boundary" inkscape:connector-curvature="0" />
	<path style="fill:none;stroke:red;stroke-width:1px;stroke-linecap:butt;stroke-linejoin:miter;stroke-opacity:1" d="M 578.715,345.415 559.748,345.415 z" id="boundary" inkscape:connector-curvature="0" />
	<path style="fill:none;stroke:red;stroke-width:1px;stroke-linecap:butt;stroke-linejoin:miter;stroke-opacity:1" d="M 667.862,273.338 684.933,263.855 z" id="boundary" inkscape:connector-curvature="0" />
	<path style="fill:none;stroke:red;stroke-width:1px;stroke-linecap:butt;stroke-linejoin:miter;stroke-opacity:1" d="M 652.688,292.306 667.862,273.338 z" id="boundary" inkscape:connector-curvature="0" />
	<path style="fill:none;stroke:red;stroke-width:1px;stroke-linecap:butt;stroke-linejoin:miter;stroke-opacity:1" d="M 702.004,254.371 684.933,263.855 z" id="boundary" inkscape:connector-curvature="0" />
	<path style="fill:none;stroke:red;stroke-width:1px;stroke-linecap:butt;stroke-linejoin:miter;stroke-opacity:1" d="M 578.715,345.415 597.683,345.415 z" id="boundary" inkscape:connector-curvature="0" />
	<path style="fill:none;stroke:red;stroke-width:1px;stroke-linecap:butt;stroke-linejoin:miter;stroke-opacity:1" d="M 616.65,343.518 597.683,345.415 z" id="boundary" inkscape:connector-curvature="0" />
	<path style="fill:none;stroke:red;stroke-width:1px;stroke-linecap:butt;stroke-linejoin:miter;stroke-opacity:1" d="M 637.514,307.48 631.824,328.344 z" id="boundary" inkscape:connector-curvature="0" />
	<path style="fill:none;stroke:red;stroke-width:1px;stroke-linecap:butt;stroke-linejoin:miter;stroke-opacity:1" d="M 616.65,343.518 631.824,328.344 z" id="boundary" inkscape:connector-curvature="0" />
	<path style="fill:none;stroke:red;stroke-width:1px;stroke-linecap:butt;stroke-linejoin:miter;stroke-opacity:1" d="M 702.004,254.371 720.971,246.784 z" id="boundary" inkscape:connector-curvature="0" />
	<path style="fill:none;stroke:red;stroke-width:1px;stroke-linecap:butt;stroke-linejoin:miter;stroke-opacity:1" d="M 720.971,246.784 739.939,242.99 z" id="boundary" inkscape:connector-curvature="0" />
	<path style="fill:none;stroke:red;stroke-width:1px;stroke-linecap:butt;stroke-linejoin:miter;stroke-opacity:1" d="M 794.945,248.681 813.912,241.094 z" id="boundary" inkscape:connector-curvature="0" />
	<path style="fill:none;stroke:red;stroke-width:1px;stroke-linecap:butt;stroke-linejoin:miter;stroke-opacity:1" d="M 794.945,248.681 777.874,239.197 z" id="boundary" inkscape:connector-curvature="0" />
	<path style="fill:none;stroke:red;stroke-width:1px;stroke-linecap:butt;stroke-linejoin:miter;stroke-opacity:1" d="M 925.82,49.522 929.614,19.174 z" id="boundary" inkscape:connector-curvature="0" />
	<path style="fill:none;stroke:red;stroke-width:1px;stroke-linecap:butt;stroke-linejoin:miter;stroke-opacity:1" d="M 929.614,19.174 940.994,4 z" id="boundary" inkscape:connector-curvature="0" />
	<path style="fill:none;stroke:red;stroke-width:1px;stroke-linecap:butt;stroke-linejoin:miter;stroke-opacity:1" d="M 925.82,68.4895 925.82,49.522 z" id="boundary" inkscape:connector-curvature="0" />
	<path style="fill:none;stroke:red;stroke-width:1px;stroke-linecap:butt;stroke-linejoin:miter;stroke-opacity:1" d="M 940.994,4 950.478,21.0707 z" id="boundary" inkscape:connector-curvature="0" />
	<path style="fill:none;stroke:red;stroke-width:1px;stroke-linecap:butt;stroke-linejoin:miter;stroke-opacity:1" d="M 958.065,59.0057 950.478,40.0382 z" id="boundary" inkscape:connector-curvature="0" />
	<path style="fill:none;stroke:red;stroke-width:1px;stroke-linecap:butt;stroke-linejoin:miter;stroke-opacity:1" d="M 950.478,40.0382 950.478,21.0707 z" id="boundary" inkscape:connector-curvature="0" />
	<path style="fill:none;stroke:red;stroke-width:1px;stroke-linecap:butt;stroke-linejoin:miter;stroke-opacity:1" d="M 958.065,59.0057 969.446,74.1797 z" id="boundary" inkscape:connector-curvature="0" />
	<path style="fill:none;stroke:red;stroke-width:1px;stroke-linecap:butt;stroke-linejoin:miter;stroke-opacity:1" d="M 980.826,89.3537 969.446,74.1797 z" id="boundary" inkscape:connector-curvature="0" />
	<path style="fill:none;stroke:red;stroke-width:1px;stroke-linecap:butt;stroke-linejoin:miter;stroke-opacity:1" d="M 980.826,89.3537 984.62,108.321 z" id="boundary" inkscape:connector-curvature="0" />
	<path style="fill:none;stroke:red;stroke-width:1px;stroke-linecap:butt;stroke-linejoin:miter;stroke-opacity:1" d="M 984.62,108.321 988.413,127.289 z" id="boundary" inkscape:connector-curvature="0" />
	<path style="fill:none;stroke:red;stroke-width:1px;stroke-linecap:butt;stroke-linejoin:miter;stroke-opacity:1" d="M 992.207,146.256 992.207,165.224 z" id="boundary" inkscape:connector-curvature="0" />
	<path style="fill:none;stroke:red;stroke-width:1px;stroke-linecap:butt;stroke-linejoin:miter;stroke-opacity:1" d="M 992.207,146.256 988.413,127.289 z" id="boundary" inkscape:connector-curvature="0" />
	<path style="fill:none;stroke:red;stroke-width:1px;stroke-linecap:butt;stroke-linejoin:miter;stroke-opacity:1" d="M 992.207,184.191 992.207,165.224 z" id="boundary" inkscape:connector-curvature="0" />
	<path style="fill:none;stroke:red;stroke-width:1px;stroke-linecap:butt;stroke-linejoin:miter;stroke-opacity:1" d="M 992.207,184.191 992.207,203.159 z" id="boundary" inkscape:connector-curvature="0" />
	<path style="fill:none;stroke:red;stroke-width:1px;stroke-linecap:butt;stroke-linejoin:miter;stroke-opacity:1" d="M 992.207,222.126 992.207,241.094 z" id="boundary" inkscape:connector-curvature="0" />
	<path style="fill:none;stroke:red;stroke-width:1px;stroke-linecap:butt;stroke-linejoin:miter;stroke-opacity:1" d="M 992.207,203.159 992.207,222.126 z" id="boundary" inkscape:connector-curvature="0" />
	<path style="fill:none;stroke:red;stroke-width:1px;stroke-linecap:butt;stroke-linejoin:miter;stroke-opacity:1" d="M 992.207,241.094 992.207,260.061 z" id="boundary" inkscape:connector-curvature="0" />
	<path style="fill:none;stroke:red;stroke-width:1px;stroke-linecap:butt;stroke-linejoin:miter;stroke-opacity:1" d="M 992.207,279.029 992.207,297.996 z" id="boundary" inkscape:connector-curvature="0" />
	<path style="fill:none;stroke:red;stroke-width:1px;stroke-linecap:butt;stroke-linejoin:miter;stroke-opacity:1" d="M 992.207,316.964 992.207,335.931 z" id="boundary" inkscape:connector-curvature="0" />
	<path style="fill:none;stroke:red;stroke-width:1px;stroke-linecap:butt;stroke-linejoin:miter;stroke-opacity:1" d="M 992.207,316.964 992.207,297.996 z" id="boundary" inkscape:connector-curvature="0" />
	<path style="fill:none;stroke:red;stroke-width:1px;stroke-linecap:butt;stroke-linejoin:miter;stroke-opacity:1" d="M 992.207,279.029 992.207,260.061 z" id="boundary" inkscape:connector-curvature="0" />
	<path style="fill:none;stroke:red;stroke-width:1px;stroke-linecap:butt;stroke-linejoin:miter;stroke-opacity:1" d="M 992.207,335.931 992.207,354.899 z" id="boundary" inkscape:connector-curvature="0" />
	<path style="fill:none;stroke:red;stroke-width:1px;stroke-linecap:butt;stroke-linejoin:miter;stroke-opacity:1" d="M 563.541,510.432 582.509,510.432 z" id="boundary" inkscape:connector-curvature="0" />
	<path style="fill:none;stroke:red;stroke-width:1px;stroke-linecap:butt;stroke-linejoin:miter;stroke-opacity:1" d="M 601.476,510.432 582.509,510.432 z" id="boundary" inkscape:connector-curvature="0" />
	<path style="fill:none;stroke:red;stroke-width:1px;stroke-linecap:butt;stroke-linejoin:miter;stroke-opacity:1" d="M 620.444,510.432 601.476,510.432 z" id="boundary" inkscape:connector-curvature="0" />
	<path style="fill:none;stroke:red;stroke-width:1px;stroke-linecap:butt;stroke-linejoin:miter;stroke-opacity:1" d="M 639.411,510.432 620.444,510.432 z" id="boundary" inkscape:connector-curvature="0" />
	<path style="fill:none;stroke:red;stroke-width:1px;stroke-linecap:butt;stroke-linejoin:miter;stroke-opacity:1" d="M 639.411,510.432 658.379,510.432 z" id="boundary" inkscape:connector-curvature="0" />
	<path style="fill:none;stroke:red;stroke-width:1px;stroke-linecap:butt;stroke-linejoin:miter;stroke-opacity:1" d="M 677.346,510.432 658.379,510.432 z" id="boundary" inkscape:connector-curvature="0" />
	<path style="fill:none;stroke:red;stroke-width:1px;stroke-linecap:butt;stroke-linejoin:miter;stroke-opacity:1" d="M 677.346,510.432 696.314,510.432 z" id="boundary" inkscape:connector-curvature="0" />
	<path style="fill:none;stroke:red;stroke-width:1px;stroke-linecap:butt;stroke-linejoin:miter;stroke-opacity:1" d="M 715.281,510.432 696.314,510.432 z" id="boundary" inkscape:connector-curvature="0" />
	<path style="fill:none;stroke:red;stroke-width:1px;stroke-linecap:butt;stroke-linejoin:miter;stroke-opacity:1" d="M 734.249,510.432 753.216,510.432 z" id="boundary" inkscape:connector-curvature="0" />
	<path style="fill:none;stroke:red;stroke-width:1px;stroke-linecap:butt;stroke-linejoin:miter;stroke-opacity:1" d="M 772.184,510.432 753.216,510.432 z" id="boundary" inkscape:connector-curvature="0" />
	<path style="fill:none;stroke:red;stroke-width:1px;stroke-linecap:butt;stroke-linejoin:miter;stroke-opacity:1" d="M 791.151,510.432 810.119,510.432 z" id="boundary" inkscape:connector-curvature="0" />
	<path style="fill:none;stroke:red;stroke-width:1px;stroke-linecap:butt;stroke-linejoin:miter;stroke-opacity:1" d="M 829.086,510.432 848.054,510.432 z" id="boundary" inkscape:connector-curvature="0" />
	<path style="fill:none;stroke:red;stroke-width:1px;stroke-linecap:butt;stroke-linejoin:miter;stroke-opacity:1" d="M 829.086,510.432 810.119,510.432 z" id="boundary" inkscape:connector-curvature="0" />
	<path style="fill:none;stroke:red;stroke-width:1px;stroke-linecap:butt;stroke-linejoin:miter;stroke-opacity:1" d="M 791.151,510.432 772.184,510.432 z" id="boundary" inkscape:connector-curvature="0" />
	<path style="fill:none;stroke:red;stroke-width:1px;stroke-linecap:butt;stroke-linejoin:miter;stroke-opacity:1" d="M 715.281,510.432 734.249,510.432 z" id="boundary" inkscape:connector-curvature="0" />
	<path style="fill:none;stroke:red;stroke-width:1px;stroke-linecap:butt;stroke-linejoin:miter;stroke-opacity:1" d="M 867.021,510.432 848.054,510.432 z" id="boundary" inkscape:connector-curvature="0" />
	<path style="fill:none;stroke:red;stroke-width:1px;stroke-linecap:butt;stroke-linejoin:miter;stroke-opacity:1" d="M 867.021,510.432 885.989,510.432 z" id="boundary" inkscape:connector-curvature="0" />
	<path style="fill:none;stroke:red;stroke-width:1px;stroke-linecap:butt;stroke-linejoin:miter;stroke-opacity:1" d="M 904.956,510.432 910.646,529.4 z" id="boundary" inkscape:connector-curvature="0" />
	<path style="fill:none;stroke:red;stroke-width:1px;stroke-linecap:butt;stroke-linejoin:miter;stroke-opacity:1" d="M 885.989,510.432 904.956,510.432 z" id="boundary" inkscape:connector-curvature="0" />
	<path style="fill:none;stroke:red;stroke-width:1px;stroke-linecap:butt;stroke-linejoin:miter;stroke-opacity:1" d="M 948.581,510.432 931.511,519.916 z" id="boundary" inkscape:connector-curvature="0" />
	<path style="fill:none;stroke:red;stroke-width:1px;stroke-linecap:butt;stroke-linejoin:miter;stroke-opacity:1" d="M 996,373.866 996,392.834 z" id="boundary" inkscape:connector-curvature="0" />
	<path style="fill:none;stroke:red;stroke-width:1px;stroke-linecap:butt;stroke-linejoin:miter;stroke-opacity:1" d="M 992.207,354.899 996,373.866 z" id="boundary" inkscape:connector-curvature="0" />
	<path style="fill:none;stroke:red;stroke-width:1px;stroke-linecap:butt;stroke-linejoin:miter;stroke-opacity:1" d="M 996,392.834 996,411.801 z" id="boundary" inkscape:connector-curvature="0" />
	<path style="fill:none;stroke:red;stroke-width:1px;stroke-linecap:butt;stroke-linejoin:miter;stroke-opacity:1" d="M 996,411.801 996,430.769 z" id="boundary" inkscape:connector-curvature="0" />
	<path style="fill:none;stroke:red;stroke-width:1px;stroke-linecap:butt;stroke-linejoin:miter;stroke-opacity:1" d="M 996,430.769 996,449.736 z" id="boundary" inkscape:connector-curvature="0" />
	<path style="fill:none;stroke:red;stroke-width:1px;stroke-linecap:butt;stroke-linejoin:miter;stroke-opacity:1" d="M 963.755,527.503 948.581,510.432 z" id="boundary" inkscape:connector-curvature="0" />
	<path style="fill:none;stroke:red;stroke-width:1px;stroke-linecap:butt;stroke-linejoin:miter;stroke-opacity:1" d="M 992.207,497.155 996,468.704 z" id="boundary" inkscape:connector-curvature="0" />
	<path style="fill:none;stroke:red;stroke-width:1px;stroke-linecap:butt;stroke-linejoin:miter;stroke-opacity:1" d="M 984.62,531.296 963.755,527.503 z" id="boundary" inkscape:connector-curvature="0" />
	<path style="fill:none;stroke:red;stroke-width:1px;stroke-linecap:butt;stroke-linejoin:miter;stroke-opacity:1" d="M 996,449.736 996,468.704 z" id="boundary" inkscape:connector-curvature="0" />
	<path style="fill:none;stroke:red;stroke-width:1px;stroke-linecap:butt;stroke-linejoin:miter;stroke-opacity:1" d="M 992.207,497.155 984.62,531.296 z" id="boundary" inkscape:connector-curvature="0" />
	<path style="fill:none;stroke:red;stroke-width:1px;stroke-linecap:butt;stroke-linejoin:miter;stroke-opacity:1" d="M 910.646,529.4 910.646,548.367 z" id="boundary" inkscape:connector-curvature="0" />
	<path style="fill:none;stroke:red;stroke-width:1px;stroke-linecap:butt;stroke-linejoin:miter;stroke-opacity:1" d="M 927.717,538.883 927.717,557.851 z" id="boundary" inkscape:connector-curvature="0" />
	<path style="fill:none;stroke:red;stroke-width:1px;stroke-linecap:butt;stroke-linejoin:miter;stroke-opacity:1" d="M 931.511,519.916 927.717,538.883 z" id="boundary" inkscape:connector-curvature="0" />
	<path style="fill:none;stroke:red;stroke-width:1px;stroke-linecap:butt;stroke-linejoin:miter;stroke-opacity:1" d="M 963.755,527.503 963.755,546.47 z" id="boundary" inkscape:connector-curvature="0" />
	<path style="fill:none;stroke:red;stroke-width:1px;stroke-linecap:butt;stroke-linejoin:miter;stroke-opacity:1" d="M 984.62,550.264 963.755,546.47 z" id="boundary" inkscape:connector-curvature="0" />
	<path style="fill:none;stroke:red;stroke-width:1px;stroke-linecap:butt;stroke-linejoin:miter;stroke-opacity:1" d="M 984.62,531.296 984.62,550.264 z" id="boundary" inkscape:connector-curvature="0" />
	<path style="fill:none;stroke:red;stroke-width:1px;stroke-linecap:butt;stroke-linejoin:miter;stroke-opacity:1" d="M 982.723,582.509 963.755,580.612 z" id="boundary" inkscape:connector-curvature="0" />
	<path style="fill:none;stroke:red;stroke-width:1px;stroke-linecap:butt;stroke-linejoin:miter;stroke-opacity:1" d="M 982.723,582.509 984.62,550.264 z" id="boundary" inkscape:connector-curvature="0" />
	<circle cx="4" cy="356.795" r="4" fill="#0" id="circle0"/>
	<circle cx="4" cy="375.763" r="4" fill="#0" id="circle1"/>
	<circle cx="4" cy="398.524" r="4" fill="#0" id="circle2"/>
	<circle cx="4" cy="459.22" r="4" fill="#0" id="circle3"/>
	<circle cx="4" cy="478.187" r="4" fill="#0" id="circle4"/>
	<circle cx="4" cy="535.09" r="4" fill="#0" id="circle5"/>
	<circle cx="4" cy="554.057" r="4" fill="#0" id="circle6"/>
	<circle cx="4" cy="584.405" r="4" fill="#0" id="circle7"/>
	<circle cx="7.7935" cy="337.828" r="4" fill="#0" id="circle8"/>
	<circle cx="7.7935" cy="417.491" r="4" fill="#0" id="circle9"/>
	<circle cx="7.7935" cy="436.459" r="4" fill="#0" id="circle10"/>
	<circle cx="7.7935" cy="497.155" r="4" fill="#0" id="circle11"/>
	<circle cx="7.7935" cy="516.122" r="4" fill="#0" id="circle12"/>
	<circle cx="17.2772" cy="320.757" r="4" fill="#0" id="circle13"/>
	<circle cx="22.9675" cy="582.509" r="4" fill="#0" id="circle14"/>
	<circle cx="24.8642" cy="538.883" r="4" fill="#0" id="circle15"/>
	<circle cx="24.8642" cy="557.851" r="4" fill="#0" id="circle16"/>
	<circle cx="30.5545" cy="299.893" r="4" fill="#0" id="circle17"/>
	<circle cx="34.348" cy="277.132" r="4" fill="#0" id="circle18"/>
	<circle cx="41.935" cy="258.164" r="4" fill="#0" id="circle19"/>
	<circle cx="43.8317" cy="555.954" r="4" fill="#0" id="circle20"/>
	<circle cx="55.2122" cy="273.338" r="4" fill="#0" id="circle21"/>
	<circle cx="55.2122" cy="538.883" r="4" fill="#0" id="circle22"/>
	<circle cx="59.0057" cy="292.306" r="4" fill="#0" id="circle23"/>
	<circle cx="64.696" cy="555.954" r="4" fill="#0" id="circle24"/>
	<circle cx="68.4895" cy="309.377" r="4" fill="#0" id="circle25"/>
	<circle cx="68.4895" cy="576.818" r="4" fill="#0" id="circle26"/>
	<circle cx="81.7667" cy="324.551" r="4" fill="#0" id="circle27"/>
	<circle cx="85.5602" cy="535.09" r="4" fill="#0" id="circle28"/>
	<circle cx="85.5602" cy="554.057" r="4" fill="#0" id="circle29"/>
	<circle cx="89.3537" cy="343.518" r="4" fill="#0" id="circle30"/>
	<circle cx="89.3537" cy="512.329" r="4" fill="#0" id="circle31"/>
	<circle cx="104.528" cy="356.795" r="4" fill="#0" id="circle32"/>
	<circle cx="108.321" cy="510.432" r="4" fill="#0" id="circle33"/>
	<circle cx="123.495" cy="353.002" r="4" fill="#0" id="circle34"/>
	<circle cx="127.289" cy="510.432" r="4" fill="#0" id="circle35"/>
	<circle cx="142.463" cy="353.002" r="4" fill="#0" id="circle36"/>
	<circle cx="146.256" cy="510.432" r="4" fill="#0" id="circle37"/>
	<circle cx="161.43" cy="349.208" r="4" fill="#0" id="circle38"/>
	<circle cx="165.224" cy="510.432" r="4" fill="#0" id="circle39"/>
	<circle cx="180.398" cy="349.208" r="4" fill="#0" id="circle40"/>
	<circle cx="184.191" cy="510.432" r="4" fill="#0" id="circle41"/>
	<circle cx="199.365" cy="349.208" r="4" fill="#0" id="circle42"/>
	<circle cx="203.159" cy="510.432" r="4" fill="#0" id="circle43"/>
	<circle cx="218.333" cy="349.208" r="4" fill="#0" id="circle44"/>
	<circle cx="222.126" cy="510.432" r="4" fill="#0" id="circle45"/>
	<circle cx="237.3" cy="345.415" r="4" fill="#0" id="circle46"/>
	<circle cx="241.094" cy="510.432" r="4" fill="#0" id="circle47"/>
	<circle cx="256.268" cy="345.415" r="4" fill="#0" id="circle48"/>
	<circle cx="260.061" cy="510.432" r="4" fill="#0" id="circle49"/>
	<circle cx="275.235" cy="345.415" r="4" fill="#0" id="circle50"/>
	<circle cx="279.029" cy="510.432" r="4" fill="#0" id="circle51"/>
	<circle cx="294.203" cy="345.415" r="4" fill="#0" id="circle52"/>
	<circle cx="297.996" cy="510.432" r="4" fill="#0" id="circle53"/>
	<circle cx="313.17" cy="345.415" r="4" fill="#0" id="circle54"/>
	<circle cx="316.964" cy="510.432" r="4" fill="#0" id="circle55"/>
	<circle cx="332.138" cy="345.415" r="4" fill="#0" id="circle56"/>
	<circle cx="335.931" cy="510.432" r="4" fill="#0" id="circle57"/>
	<circle cx="351.105" cy="345.415" r="4" fill="#0" id="circle58"/>
	<circle cx="354.899" cy="510.432" r="4" fill="#0" id="circle59"/>
	<circle cx="370.073" cy="345.415" r="4" fill="#0" id="circle60"/>
	<circle cx="373.866" cy="510.432" r="4" fill="#0" id="circle61"/>
	<circle cx="389.04" cy="345.415" r="4" fill="#0" id="circle62"/>
	<circle cx="392.834" cy="510.432" r="4" fill="#0" id="circle63"/>
	<circle cx="408.008" cy="345.415" r="4" fill="#0" id="circle64"/>
	<circle cx="411.801" cy="510.432" r="4" fill="#0" id="circle65"/>
	<circle cx="426.975" cy="345.415" r="4" fill="#0" id="circle66"/>
	<circle cx="430.769" cy="510.432" r="4" fill="#0" id="circle67"/>
	<circle cx="445.943" cy="345.415" r="4" fill="#0" id="circle68"/>
	<circle cx="449.736" cy="510.432" r="4" fill="#0" id="circle69"/>
	<circle cx="464.91" cy="345.415" r="4" fill="#0" id="circle70"/>
	<circle cx="468.704" cy="510.432" r="4" fill="#0" id="circle71"/>
	<circle cx="483.878" cy="345.415" r="4" fill="#0" id="circle72"/>
	<circle cx="487.671" cy="510.432" r="4" fill="#0" id="circle73"/>
	<circle cx="502.845" cy="345.415" r="4" fill="#0" id="circle74"/>
	<circle cx="506.639" cy="510.432" r="4" fill="#0" id="circle75"/>
	<circle cx="521.813" cy="345.415" r="4" fill="#0" id="circle76"/>
	<circle cx="525.606" cy="510.432" r="4" fill="#0" id="circle77"/>
	<circle cx="540.78" cy="345.415" r="4" fill="#0" id="circle78"/>
	<circle cx="544.574" cy="510.432" r="4" fill="#0" id="circle79"/>
	<circle cx="559.748" cy="345.415" r="4" fill="#0" id="circle80"/>
	<circle cx="563.541" cy="510.432" r="4" fill="#0" id="circle81"/>
	<circle cx="578.715" cy="345.415" r="4" fill="#0" id="circle82"/>
	<circle cx="582.509" cy="510.432" r="4" fill="#0" id="circle83"/>
	<circle cx="597.683" cy="345.415" r="4" fill="#0" id="circle84"/>
	<circle cx="601.476" cy="510.432" r="4" fill="#0" id="circle85"/>
	<circle cx="616.65" cy="343.518" r="4" fill="#0" id="circle86"/>
	<circle cx="620.444" cy="510.432" r="4" fill="#0" id="circle87"/>
	<circle cx="631.824" cy="328.344" r="4" fill="#0" id="circle88"/>
	<circle cx="637.514" cy="307.48" r="4" fill="#0" id="circle89"/>
	<circle cx="639.411" cy="510.432" r="4" fill="#0" id="circle90"/>
	<circle cx="652.688" cy="292.306" r="4" fill="#0" id="circle91"/>
	<circle cx="658.379" cy="510.432" r="4" fill="#0" id="circle92"/>
	<circle cx="667.862" cy="273.338" r="4" fill="#0" id="circle93"/>
	<circle cx="677.346" cy="510.432" r="4" fill="#0" id="circle94"/>
	<circle cx="684.933" cy="263.855" r="4" fill="#0" id="circle95"/>
	<circle cx="696.314" cy="510.432" r="4" fill="#0" id="circle96"/>
	<circle cx="702.004" cy="254.371" r="4" fill="#0" id="circle97"/>
	<circle cx="715.281" cy="510.432" r="4" fill="#0" id="circle98"/>
	<circle cx="720.971" cy="246.784" r="4" fill="#0" id="circle99"/>
	<circle cx="734.249" cy="510.432" r="4" fill="#0" id="circle100"/>
	<circle cx="739.939" cy="242.99" r="4" fill="#0" id="circle101"/>
	<circle cx="753.216" cy="510.432" r="4" fill="#0" id="circle102"/>
	<circle cx="758.906" cy="239.197" r="4" fill="#0" id="circle103"/>
	<circle cx="772.184" cy="510.432" r="4" fill="#0" id="circle104"/>
	<circle cx="777.874" cy="239.197" r="4" fill="#0" id="circle105"/>
	<circle cx="791.151" cy="510.432" r="4" fill="#0" id="circle106"/>
	<circle cx="794.945" cy="248.681" r="4" fill="#0" id="circle107"/>
	<circle cx="810.119" cy="510.432" r="4" fill="#0" id="circle108"/>
	<circle cx="813.912" cy="241.094" r="4" fill="#0" id="circle109"/>
	<circle cx="829.086" cy="229.713" r="4" fill="#0" id="circle110"/>
	<circle cx="829.086" cy="510.432" r="4" fill="#0" id="circle111"/>
	<circle cx="848.054" cy="224.023" r="4" fill="#0" id="circle112"/>
	<circle cx="848.054" cy="510.432" r="4" fill="#0" id="circle113"/>
	<circle cx="867.021" cy="214.539" r="4" fill="#0" id="circle114"/>
	<circle cx="867.021" cy="510.432" r="4" fill="#0" id="circle115"/>
	<circle cx="885.989" cy="212.642" r="4" fill="#0" id="circle116"/>
	<circle cx="885.989" cy="510.432" r="4" fill="#0" id="circle117"/>
	<circle cx="904.956" cy="216.436" r="4" fill="#0" id="circle118"/>
	<circle cx="904.956" cy="510.432" r="4" fill="#0" id="circle119"/>
	<circle cx="910.646" cy="129.185" r="4" fill="#0" id="circle120"/>
	<circle cx="910.646" cy="148.153" r="4" fill="#0" id="circle121"/>
	<circle cx="910.646" cy="167.12" r="4" fill="#0" id="circle122"/>
	<circle cx="910.646" cy="529.4" r="4" fill="#0" id="circle123"/>
	<circle cx="910.646" cy="548.367" r="4" fill="#0" id="circle124"/>
	<circle cx="910.646" cy="580.612" r="4" fill="#0" id="circle125"/>
	<circle cx="914.44" cy="186.088" r="4" fill="#0" id="circle126"/>
	<circle cx="918.233" cy="98.8375" r="4" fill="#0" id="circle127"/>
	<circle cx="925.82" cy="49.522" r="4" fill="#0" id="circle128"/>
	<circle cx="925.82" cy="68.4895" r="4" fill="#0" id="circle129"/>
	<circle cx="927.717" cy="538.883" r="4" fill="#0" id="circle130"/>
	<circle cx="927.717" cy="557.851" r="4" fill="#0" id="circle131"/>
	<circle cx="929.614" cy="19.174" r="4" fill="#0" id="circle132"/>
	<circle cx="931.511" cy="519.916" r="4" fill="#0" id="circle133"/>
	<circle cx="940.994" cy="4" r="4" fill="#0" id="circle134"/>
	<circle cx="948.581" cy="510.432" r="4" fill="#0" id="circle135"/>
	<circle cx="950.478" cy="21.0707" r="4" fill="#0" id="circle136"/>
	<circle cx="950.478" cy="40.0382" r="4" fill="#0" id="circle137"/>
	<circle cx="958.065" cy="59.0057" r="4" fill="#0" id="circle138"/>
	<circle cx="963.755" cy="527.503" r="4" fill="#0" id="circle139"/>
	<circle cx="963.755" cy="546.47" r="4" fill="#0" id="circle140"/>
	<circle cx="963.755" cy="580.612" r="4" fill="#0" id="circle141"/>
	<circle cx="969.446" cy="74.1797" r="4" fill="#0" id="circle142"/>
	<circle cx="980.826" cy="89.3537" r="4" fill="#0" id="circle143"/>
	<circle cx="982.723" cy="582.509" r="4" fill="#0" id="circle144"/>
	<circle cx="984.62" cy="108.321" r="4" fill="#0" id="circle145"/>
	<circle cx="984.62" cy="531.296" r="4" fill="#0" id="circle146"/>
	<circle cx="984.62" cy="550.264" r="4" fill="#0" id="circle147"/>
	<circle cx="988.413" cy="127.289" r="4" fill="#0" id="circle148"/>
	<circle cx="992.207" cy="146.256" r="4" fill="#0" id="circle149"/>
	<circle cx="992.207" cy="165.224" r="4" fill="#0" id="circle150"/>
	<circle cx="992.207" cy="184.191" r="4" fill="#0" id="circle151"/>
	<circle cx="992.207" cy="203.159" r="4" fill="#0" id="circle152"/>
	<circle cx="992.207" cy="222.126" r="4" fill="#0" id="circle153"/>
	<circle cx="992.207" cy="241.094" r="4" fill="#0" id="circle154"/>
	<circle cx="992.207" cy="260.061" r="4" fill="#0" id="circle155"/>
	<circle cx="992.207" cy="279.029" r="4" fill="#0" id="circle156"/>
	<circle cx="992.207" cy="297.996" r="4" fill="#0" id="circle157"/>
	<circle cx="992.207" cy="316.964" r="4" fill="#0" id="circle158"/>
	<circle cx="992.207" cy="335.931" r="4" fill="#0" id="circle159"/>
	<circle cx="992.207" cy="354.899" r="4" fill="#0" id="circle160"/>
	<circle cx="992.207" cy="497.155" r="4" fill="#0" id="circle161"/>
	<circle cx="996" cy="373.866" r="4" fill="#0" id="circle162"/>
	<circle cx="996" cy="392.834" r="4" fill="#0" id="circle163"/>
	<circle cx="996" cy="411.801" r="4" fill="#0" id="circle164"/>
	<circle cx="996" cy="430.769" r="4" fill="#0" id="circle165"/>
	<circle cx="996" cy="449.736" r="4" fill="#0" id="circle166"/>
	<circle cx="996" cy="468.704" r="4" fill="#0" id="circle167"/>
	</g>
</svg>