<?xml version="1.0" encoding="UTF-8" standalone="no"?>
<!-- Created with CurveBenchmark -->
<svg
	xmlns:dc="http://purl.org/dc/elements/1.1/"
	xmlns:cc="http://creativecommons.org/ns#"
	xmlns:rdf="http://www.w3.org/1999/02/22-rdf-syntax-ns#"
	xmlns:svg="http://www.w3.org/2000/svg"
	xmlns="http://www.w3.org/2000/svg"
	xmlns:sodipodi="http://sodipodi.sourceforge.net/DTD/sodipodi-0.dtd"
	xmlns:inkscape="http://www.inkscape.org/namespaces/inkscape"
	width="1000"
	height="1000"
	id="svg2"
	version="1.1"
	sodipodi:docname="manifold/crust-key09.png.txt">
<defs
	id="defs4" />
<metadata
	id="metadata7">
	<rdf:RDF>
		<cc:Work
			rdf:about="">
			<dc:format>image/svg+xml</dc:format>
			<dc:type
				rdf:resource="http://purl.org/dc/dcmitype/StillImage" />
			<dc:title></dc:title>
		</cc:Work>
	</rdf:RDF>
</metadata>
<g
	inkscape:label="Layer 1"
	inkscape:groupmode="layer"
	id="layer1">
	<path style="fill:none;stroke:red;stroke-width:1px;stroke-linecap:butt;stroke-linejoin:miter;stroke-opacity:1" d="M 88.3475,44.3401 70.0111,53.5083 z" id="boundary" inkscape:connector-curvature="0" />
	<path style="fill:none;stroke:red;stroke-width:1px;stroke-linecap:butt;stroke-linejoin:miter;stroke-opacity:1" d="M 103.017,31.5046 88.3475,44.3401 z" id="boundary" inkscape:connector-curvature="0" />
	<path style="fill:none;stroke:red;stroke-width:1px;stroke-linecap:butt;stroke-linejoin:miter;stroke-opacity:1" d="M 119.519,22.3364 103.017,31.5046 z" id="boundary" inkscape:connector-curvature="0" />
	<path style="fill:none;stroke:red;stroke-width:1px;stroke-linecap:butt;stroke-linejoin:miter;stroke-opacity:1" d="M 137.856,22.3364 119.519,22.3364 z" id="boundary" inkscape:connector-curvature="0" />
	<path style="fill:none;stroke:red;stroke-width:1px;stroke-linecap:butt;stroke-linejoin:miter;stroke-opacity:1" d="M 31.5046,101.183 22.3364,119.519 z" id="boundary" inkscape:connector-curvature="0" />
	<path style="fill:none;stroke:red;stroke-width:1px;stroke-linecap:butt;stroke-linejoin:miter;stroke-opacity:1" d="M 46.1738,86.5139 31.5046,101.183 z" id="boundary" inkscape:connector-curvature="0" />
	<path style="fill:none;stroke:red;stroke-width:1px;stroke-linecap:butt;stroke-linejoin:miter;stroke-opacity:1" d="M 46.1738,86.5139 55.342,68.1774 z" id="boundary" inkscape:connector-curvature="0" />
	<path style="fill:none;stroke:red;stroke-width:1px;stroke-linecap:butt;stroke-linejoin:miter;stroke-opacity:1" d="M 70.0111,53.5083 55.342,68.1774 z" id="boundary" inkscape:connector-curvature="0" />
	<path style="fill:none;stroke:red;stroke-width:1px;stroke-linecap:butt;stroke-linejoin:miter;stroke-opacity:1" d="M 172.695,13.1682 154.359,13.1682 z" id="boundary" inkscape:connector-curvature="0" />
	<path style="fill:none;stroke:red;stroke-width:1px;stroke-linecap:butt;stroke-linejoin:miter;stroke-opacity:1" d="M 154.359,13.1682 137.856,22.3364 z" id="boundary" inkscape:connector-curvature="0" />
	<path style="fill:none;stroke:red;stroke-width:1px;stroke-linecap:butt;stroke-linejoin:miter;stroke-opacity:1" d="M 172.695,13.1682 189.198,4 z" id="boundary" inkscape:connector-curvature="0" />
	<path style="fill:none;stroke:red;stroke-width:1px;stroke-linecap:butt;stroke-linejoin:miter;stroke-opacity:1" d="M 207.534,4 189.198,4 z" id="boundary" inkscape:connector-curvature="0" />
	<path style="fill:none;stroke:red;stroke-width:1px;stroke-linecap:butt;stroke-linejoin:miter;stroke-opacity:1" d="M 13.1682,147.024 13.1682,165.36 z" id="boundary" inkscape:connector-curvature="0" />
	<path style="fill:none;stroke:red;stroke-width:1px;stroke-linecap:butt;stroke-linejoin:miter;stroke-opacity:1" d="M 22.3364,119.519 13.1682,147.024 z" id="boundary" inkscape:connector-curvature="0" />
	<path style="fill:none;stroke:red;stroke-width:1px;stroke-linecap:butt;stroke-linejoin:miter;stroke-opacity:1" d="M 4,183.697 4,202.033 z" id="boundary" inkscape:connector-curvature="0" />
	<path style="fill:none;stroke:red;stroke-width:1px;stroke-linecap:butt;stroke-linejoin:miter;stroke-opacity:1" d="M 4,183.697 13.1682,165.36 z" id="boundary" inkscape:connector-curvature="0" />
	<path style="fill:none;stroke:red;stroke-width:1px;stroke-linecap:butt;stroke-linejoin:miter;stroke-opacity:1" d="M 4,202.033 4,220.37 z" id="boundary" inkscape:connector-curvature="0" />
	<path style="fill:none;stroke:red;stroke-width:1px;stroke-linecap:butt;stroke-linejoin:miter;stroke-opacity:1" d="M 207.534,4 225.871,9.50092 z" id="boundary" inkscape:connector-curvature="0" />
	<path style="fill:none;stroke:red;stroke-width:1px;stroke-linecap:butt;stroke-linejoin:miter;stroke-opacity:1" d="M 244.207,13.1682 262.543,18.6691 z" id="boundary" inkscape:connector-curvature="0" />
	<path style="fill:none;stroke:red;stroke-width:1px;stroke-linecap:butt;stroke-linejoin:miter;stroke-opacity:1" d="M 244.207,13.1682 225.871,9.50092 z" id="boundary" inkscape:connector-curvature="0" />
	<path style="fill:none;stroke:red;stroke-width:1px;stroke-linecap:butt;stroke-linejoin:miter;stroke-opacity:1" d="M 279.046,27.8373 262.543,18.6691 z" id="boundary" inkscape:connector-curvature="0" />
	<path style="fill:none;stroke:red;stroke-width:1px;stroke-linecap:butt;stroke-linejoin:miter;stroke-opacity:1" d="M 297.383,35.1719 279.046,27.8373 z" id="boundary" inkscape:connector-curvature="0" />
	<path style="fill:none;stroke:red;stroke-width:1px;stroke-linecap:butt;stroke-linejoin:miter;stroke-opacity:1" d="M 297.383,35.1719 313.885,44.3401 z" id="boundary" inkscape:connector-curvature="0" />
	<path style="fill:none;stroke:red;stroke-width:1px;stroke-linecap:butt;stroke-linejoin:miter;stroke-opacity:1" d="M 341.39,70.0111 326.721,59.0092 z" id="boundary" inkscape:connector-curvature="0" />
	<path style="fill:none;stroke:red;stroke-width:1px;stroke-linecap:butt;stroke-linejoin:miter;stroke-opacity:1" d="M 326.721,59.0092 313.885,44.3401 z" id="boundary" inkscape:connector-curvature="0" />
	<path style="fill:none;stroke:red;stroke-width:1px;stroke-linecap:butt;stroke-linejoin:miter;stroke-opacity:1" d="M 354.226,84.6802 341.39,70.0111 z" id="boundary" inkscape:connector-curvature="0" />
	<path style="fill:none;stroke:red;stroke-width:1px;stroke-linecap:butt;stroke-linejoin:miter;stroke-opacity:1" d="M 510.085,132.355 491.749,132.355 z" id="boundary" inkscape:connector-curvature="0" />
	<path style="fill:none;stroke:red;stroke-width:1px;stroke-linecap:butt;stroke-linejoin:miter;stroke-opacity:1" d="M 354.226,84.6802 354.226,103.017 z" id="boundary" inkscape:connector-curvature="0" />
	<path style="fill:none;stroke:red;stroke-width:1px;stroke-linecap:butt;stroke-linejoin:miter;stroke-opacity:1" d="M 368.895,115.852 354.226,103.017 z" id="boundary" inkscape:connector-curvature="0" />
	<path style="fill:none;stroke:red;stroke-width:1px;stroke-linecap:butt;stroke-linejoin:miter;stroke-opacity:1" d="M 400.067,132.355 381.73,130.521 z" id="boundary" inkscape:connector-curvature="0" />
	<path style="fill:none;stroke:red;stroke-width:1px;stroke-linecap:butt;stroke-linejoin:miter;stroke-opacity:1" d="M 381.73,130.521 368.895,115.852 z" id="boundary" inkscape:connector-curvature="0" />
	<path style="fill:none;stroke:red;stroke-width:1px;stroke-linecap:butt;stroke-linejoin:miter;stroke-opacity:1" d="M 400.067,132.355 418.403,132.355 z" id="boundary" inkscape:connector-curvature="0" />
	<path style="fill:none;stroke:red;stroke-width:1px;stroke-linecap:butt;stroke-linejoin:miter;stroke-opacity:1" d="M 418.403,132.355 436.739,132.355 z" id="boundary" inkscape:connector-curvature="0" />
	<path style="fill:none;stroke:red;stroke-width:1px;stroke-linecap:butt;stroke-linejoin:miter;stroke-opacity:1" d="M 455.076,132.355 473.412,132.355 z" id="boundary" inkscape:connector-curvature="0" />
	<path style="fill:none;stroke:red;stroke-width:1px;stroke-linecap:butt;stroke-linejoin:miter;stroke-opacity:1" d="M 455.076,132.355 436.739,132.355 z" id="boundary" inkscape:connector-curvature="0" />
	<path style="fill:none;stroke:red;stroke-width:1px;stroke-linecap:butt;stroke-linejoin:miter;stroke-opacity:1" d="M 473.412,132.355 491.749,132.355 z" id="boundary" inkscape:connector-curvature="0" />
	<path style="fill:none;stroke:red;stroke-width:1px;stroke-linecap:butt;stroke-linejoin:miter;stroke-opacity:1" d="M 4,238.706 4,220.37 z" id="boundary" inkscape:connector-curvature="0" />
	<path style="fill:none;stroke:red;stroke-width:1px;stroke-linecap:butt;stroke-linejoin:miter;stroke-opacity:1" d="M 13.1682,255.209 4,238.706 z" id="boundary" inkscape:connector-curvature="0" />
	<path style="fill:none;stroke:red;stroke-width:1px;stroke-linecap:butt;stroke-linejoin:miter;stroke-opacity:1" d="M 13.1682,255.209 22.3364,271.712 z" id="boundary" inkscape:connector-curvature="0" />
	<path style="fill:none;stroke:red;stroke-width:1px;stroke-linecap:butt;stroke-linejoin:miter;stroke-opacity:1" d="M 42.5065,302.884 31.5046,288.214 z" id="boundary" inkscape:connector-curvature="0" />
	<path style="fill:none;stroke:red;stroke-width:1px;stroke-linecap:butt;stroke-linejoin:miter;stroke-opacity:1" d="M 31.5046,288.214 22.3364,271.712 z" id="boundary" inkscape:connector-curvature="0" />
	<path style="fill:none;stroke:red;stroke-width:1px;stroke-linecap:butt;stroke-linejoin:miter;stroke-opacity:1" d="M 49.841,321.22 42.5065,302.884 z" id="boundary" inkscape:connector-curvature="0" />
	<path style="fill:none;stroke:red;stroke-width:1px;stroke-linecap:butt;stroke-linejoin:miter;stroke-opacity:1" d="M 68.1774,326.721 79.1793,341.39 z" id="boundary" inkscape:connector-curvature="0" />
	<path style="fill:none;stroke:red;stroke-width:1px;stroke-linecap:butt;stroke-linejoin:miter;stroke-opacity:1" d="M 49.841,321.22 68.1774,326.721 z" id="boundary" inkscape:connector-curvature="0" />
	<path style="fill:none;stroke:red;stroke-width:1px;stroke-linecap:butt;stroke-linejoin:miter;stroke-opacity:1" d="M 93.8484,354.226 79.1793,341.39 z" id="boundary" inkscape:connector-curvature="0" />
	<path style="fill:none;stroke:red;stroke-width:1px;stroke-linecap:butt;stroke-linejoin:miter;stroke-opacity:1" d="M 93.8484,354.226 110.351,363.394 z" id="boundary" inkscape:connector-curvature="0" />
	<path style="fill:none;stroke:red;stroke-width:1px;stroke-linecap:butt;stroke-linejoin:miter;stroke-opacity:1" d="M 110.351,363.394 128.688,370.728 z" id="boundary" inkscape:connector-curvature="0" />
	<path style="fill:none;stroke:red;stroke-width:1px;stroke-linecap:butt;stroke-linejoin:miter;stroke-opacity:1" d="M 163.527,381.73 145.19,379.896 z" id="boundary" inkscape:connector-curvature="0" />
	<path style="fill:none;stroke:red;stroke-width:1px;stroke-linecap:butt;stroke-linejoin:miter;stroke-opacity:1" d="M 145.19,379.896 128.688,370.728 z" id="boundary" inkscape:connector-curvature="0" />
	<path style="fill:none;stroke:red;stroke-width:1px;stroke-linecap:butt;stroke-linejoin:miter;stroke-opacity:1" d="M 181.863,381.73 163.527,381.73 z" id="boundary" inkscape:connector-curvature="0" />
	<path style="fill:none;stroke:red;stroke-width:1px;stroke-linecap:butt;stroke-linejoin:miter;stroke-opacity:1" d="M 181.863,381.73 198.366,390.898 z" id="boundary" inkscape:connector-curvature="0" />
	<path style="fill:none;stroke:red;stroke-width:1px;stroke-linecap:butt;stroke-linejoin:miter;stroke-opacity:1" d="M 198.366,390.898 216.702,390.898 z" id="boundary" inkscape:connector-curvature="0" />
	<path style="fill:none;stroke:red;stroke-width:1px;stroke-linecap:butt;stroke-linejoin:miter;stroke-opacity:1" d="M 216.702,390.898 233.205,381.73 z" id="boundary" inkscape:connector-curvature="0" />
	<path style="fill:none;stroke:red;stroke-width:1px;stroke-linecap:butt;stroke-linejoin:miter;stroke-opacity:1" d="M 233.205,381.73 251.542,381.73 z" id="boundary" inkscape:connector-curvature="0" />
	<path style="fill:none;stroke:red;stroke-width:1px;stroke-linecap:butt;stroke-linejoin:miter;stroke-opacity:1" d="M 345.057,317.553 363.394,317.553 z" id="boundary" inkscape:connector-curvature="0" />
	<path style="fill:none;stroke:red;stroke-width:1px;stroke-linecap:butt;stroke-linejoin:miter;stroke-opacity:1" d="M 363.394,317.553 381.73,317.553 z" id="boundary" inkscape:connector-curvature="0" />
	<path style="fill:none;stroke:red;stroke-width:1px;stroke-linecap:butt;stroke-linejoin:miter;stroke-opacity:1" d="M 400.067,317.553 381.73,317.553 z" id="boundary" inkscape:connector-curvature="0" />
	<path style="fill:none;stroke:red;stroke-width:1px;stroke-linecap:butt;stroke-linejoin:miter;stroke-opacity:1" d="M 469.745,304.717 482.58,290.048 z" id="boundary" inkscape:connector-curvature="0" />
	<path style="fill:none;stroke:red;stroke-width:1px;stroke-linecap:butt;stroke-linejoin:miter;stroke-opacity:1" d="M 455.076,317.553 469.745,304.717 z" id="boundary" inkscape:connector-curvature="0" />
	<path style="fill:none;stroke:red;stroke-width:1px;stroke-linecap:butt;stroke-linejoin:miter;stroke-opacity:1" d="M 500.917,280.88 482.58,290.048 z" id="boundary" inkscape:connector-curvature="0" />
	<path style="fill:none;stroke:red;stroke-width:1px;stroke-linecap:butt;stroke-linejoin:miter;stroke-opacity:1" d="M 317.553,345.057 299.216,345.057 z" id="boundary" inkscape:connector-curvature="0" />
	<path style="fill:none;stroke:red;stroke-width:1px;stroke-linecap:butt;stroke-linejoin:miter;stroke-opacity:1" d="M 299.216,345.057 284.547,361.56 z" id="boundary" inkscape:connector-curvature="0" />
	<path style="fill:none;stroke:red;stroke-width:1px;stroke-linecap:butt;stroke-linejoin:miter;stroke-opacity:1" d="M 317.553,345.057 332.222,332.222 z" id="boundary" inkscape:connector-curvature="0" />
	<path style="fill:none;stroke:red;stroke-width:1px;stroke-linecap:butt;stroke-linejoin:miter;stroke-opacity:1" d="M 332.222,332.222 345.057,317.553 z" id="boundary" inkscape:connector-curvature="0" />
	<path style="fill:none;stroke:red;stroke-width:1px;stroke-linecap:butt;stroke-linejoin:miter;stroke-opacity:1" d="M 266.211,370.728 251.542,381.73 z" id="boundary" inkscape:connector-curvature="0" />
	<path style="fill:none;stroke:red;stroke-width:1px;stroke-linecap:butt;stroke-linejoin:miter;stroke-opacity:1" d="M 284.547,361.56 266.211,370.728 z" id="boundary" inkscape:connector-curvature="0" />
	<path style="fill:none;stroke:red;stroke-width:1px;stroke-linecap:butt;stroke-linejoin:miter;stroke-opacity:1" d="M 418.403,317.553 436.739,317.553 z" id="boundary" inkscape:connector-curvature="0" />
	<path style="fill:none;stroke:red;stroke-width:1px;stroke-linecap:butt;stroke-linejoin:miter;stroke-opacity:1" d="M 400.067,317.553 418.403,317.553 z" id="boundary" inkscape:connector-curvature="0" />
	<path style="fill:none;stroke:red;stroke-width:1px;stroke-linecap:butt;stroke-linejoin:miter;stroke-opacity:1" d="M 455.076,317.553 436.739,317.553 z" id="boundary" inkscape:connector-curvature="0" />
	<path style="fill:none;stroke:red;stroke-width:1px;stroke-linecap:butt;stroke-linejoin:miter;stroke-opacity:1" d="M 601.767,132.355 583.431,132.355 z" id="boundary" inkscape:connector-curvature="0" />
	<path style="fill:none;stroke:red;stroke-width:1px;stroke-linecap:butt;stroke-linejoin:miter;stroke-opacity:1" d="M 638.44,132.355 620.104,132.355 z" id="boundary" inkscape:connector-curvature="0" />
	<path style="fill:none;stroke:red;stroke-width:1px;stroke-linecap:butt;stroke-linejoin:miter;stroke-opacity:1" d="M 510.085,132.355 528.421,132.355 z" id="boundary" inkscape:connector-curvature="0" />
	<path style="fill:none;stroke:red;stroke-width:1px;stroke-linecap:butt;stroke-linejoin:miter;stroke-opacity:1" d="M 546.758,132.355 565.094,132.355 z" id="boundary" inkscape:connector-curvature="0" />
	<path style="fill:none;stroke:red;stroke-width:1px;stroke-linecap:butt;stroke-linejoin:miter;stroke-opacity:1" d="M 583.431,132.355 565.094,132.355 z" id="boundary" inkscape:connector-curvature="0" />
	<path style="fill:none;stroke:red;stroke-width:1px;stroke-linecap:butt;stroke-linejoin:miter;stroke-opacity:1" d="M 546.758,132.355 528.421,132.355 z" id="boundary" inkscape:connector-curvature="0" />
	<path style="fill:none;stroke:red;stroke-width:1px;stroke-linecap:butt;stroke-linejoin:miter;stroke-opacity:1" d="M 620.104,132.355 601.767,132.355 z" id="boundary" inkscape:connector-curvature="0" />
	<path style="fill:none;stroke:red;stroke-width:1px;stroke-linecap:butt;stroke-linejoin:miter;stroke-opacity:1" d="M 638.44,132.355 656.776,132.355 z" id="boundary" inkscape:connector-curvature="0" />
	<path style="fill:none;stroke:red;stroke-width:1px;stroke-linecap:butt;stroke-linejoin:miter;stroke-opacity:1" d="M 656.776,132.355 675.113,132.355 z" id="boundary" inkscape:connector-curvature="0" />
	<path style="fill:none;stroke:red;stroke-width:1px;stroke-linecap:butt;stroke-linejoin:miter;stroke-opacity:1" d="M 675.113,132.355 693.449,132.355 z" id="boundary" inkscape:connector-curvature="0" />
	<path style="fill:none;stroke:red;stroke-width:1px;stroke-linecap:butt;stroke-linejoin:miter;stroke-opacity:1" d="M 711.786,132.355 693.449,132.355 z" id="boundary" inkscape:connector-curvature="0" />
	<path style="fill:none;stroke:red;stroke-width:1px;stroke-linecap:butt;stroke-linejoin:miter;stroke-opacity:1" d="M 730.122,132.355 711.786,132.355 z" id="boundary" inkscape:connector-curvature="0" />
	<path style="fill:none;stroke:red;stroke-width:1px;stroke-linecap:butt;stroke-linejoin:miter;stroke-opacity:1" d="M 730.122,132.355 748.458,132.355 z" id="boundary" inkscape:connector-curvature="0" />
	<path style="fill:none;stroke:red;stroke-width:1px;stroke-linecap:butt;stroke-linejoin:miter;stroke-opacity:1" d="M 766.795,132.355 748.458,132.355 z" id="boundary" inkscape:connector-curvature="0" />
	<path style="fill:none;stroke:red;stroke-width:1px;stroke-linecap:butt;stroke-linejoin:miter;stroke-opacity:1" d="M 766.795,132.355 785.131,132.355 z" id="boundary" inkscape:connector-curvature="0" />
	<path style="fill:none;stroke:red;stroke-width:1px;stroke-linecap:butt;stroke-linejoin:miter;stroke-opacity:1" d="M 803.468,132.355 785.131,132.355 z" id="boundary" inkscape:connector-curvature="0" />
	<path style="fill:none;stroke:red;stroke-width:1px;stroke-linecap:butt;stroke-linejoin:miter;stroke-opacity:1" d="M 821.804,132.355 803.468,132.355 z" id="boundary" inkscape:connector-curvature="0" />
	<path style="fill:none;stroke:red;stroke-width:1px;stroke-linecap:butt;stroke-linejoin:miter;stroke-opacity:1" d="M 994.166,202.033 986.832,183.697 z" id="boundary" inkscape:connector-curvature="0" />
	<path style="fill:none;stroke:red;stroke-width:1px;stroke-linecap:butt;stroke-linejoin:miter;stroke-opacity:1" d="M 821.804,132.355 840.14,132.355 z" id="boundary" inkscape:connector-curvature="0" />
	<path style="fill:none;stroke:red;stroke-width:1px;stroke-linecap:butt;stroke-linejoin:miter;stroke-opacity:1" d="M 840.14,132.355 858.477,132.355 z" id="boundary" inkscape:connector-curvature="0" />
	<path style="fill:none;stroke:red;stroke-width:1px;stroke-linecap:butt;stroke-linejoin:miter;stroke-opacity:1" d="M 874.98,141.523 858.477,132.355 z" id="boundary" inkscape:connector-curvature="0" />
	<path style="fill:none;stroke:red;stroke-width:1px;stroke-linecap:butt;stroke-linejoin:miter;stroke-opacity:1" d="M 893.316,141.523 911.652,141.523 z" id="boundary" inkscape:connector-curvature="0" />
	<path style="fill:none;stroke:red;stroke-width:1px;stroke-linecap:butt;stroke-linejoin:miter;stroke-opacity:1" d="M 893.316,141.523 874.98,141.523 z" id="boundary" inkscape:connector-curvature="0" />
	<path style="fill:none;stroke:red;stroke-width:1px;stroke-linecap:butt;stroke-linejoin:miter;stroke-opacity:1" d="M 911.652,141.523 929.989,141.523 z" id="boundary" inkscape:connector-curvature="0" />
	<path style="fill:none;stroke:red;stroke-width:1px;stroke-linecap:butt;stroke-linejoin:miter;stroke-opacity:1" d="M 929.989,141.523 948.325,141.523 z" id="boundary" inkscape:connector-curvature="0" />
	<path style="fill:none;stroke:red;stroke-width:1px;stroke-linecap:butt;stroke-linejoin:miter;stroke-opacity:1" d="M 948.325,141.523 959.327,156.192 z" id="boundary" inkscape:connector-curvature="0" />
	<path style="fill:none;stroke:red;stroke-width:1px;stroke-linecap:butt;stroke-linejoin:miter;stroke-opacity:1" d="M 972.163,170.861 959.327,156.192 z" id="boundary" inkscape:connector-curvature="0" />
	<path style="fill:none;stroke:red;stroke-width:1px;stroke-linecap:butt;stroke-linejoin:miter;stroke-opacity:1" d="M 986.832,183.697 972.163,170.861 z" id="boundary" inkscape:connector-curvature="0" />
	<path style="fill:none;stroke:red;stroke-width:1px;stroke-linecap:butt;stroke-linejoin:miter;stroke-opacity:1" d="M 537.59,271.712 519.253,280.88 z" id="boundary" inkscape:connector-curvature="0" />
	<path style="fill:none;stroke:red;stroke-width:1px;stroke-linecap:butt;stroke-linejoin:miter;stroke-opacity:1" d="M 590.765,262.543 572.429,262.543 z" id="boundary" inkscape:connector-curvature="0" />
	<path style="fill:none;stroke:red;stroke-width:1px;stroke-linecap:butt;stroke-linejoin:miter;stroke-opacity:1" d="M 572.429,262.543 555.926,271.712 z" id="boundary" inkscape:connector-curvature="0" />
	<path style="fill:none;stroke:red;stroke-width:1px;stroke-linecap:butt;stroke-linejoin:miter;stroke-opacity:1" d="M 555.926,271.712 537.59,271.712 z" id="boundary" inkscape:connector-curvature="0" />
	<path style="fill:none;stroke:red;stroke-width:1px;stroke-linecap:butt;stroke-linejoin:miter;stroke-opacity:1" d="M 607.268,253.375 590.765,262.543 z" id="boundary" inkscape:connector-curvature="0" />
	<path style="fill:none;stroke:red;stroke-width:1px;stroke-linecap:butt;stroke-linejoin:miter;stroke-opacity:1" d="M 607.268,253.375 625.604,253.375 z" id="boundary" inkscape:connector-curvature="0" />
	<path style="fill:none;stroke:red;stroke-width:1px;stroke-linecap:butt;stroke-linejoin:miter;stroke-opacity:1" d="M 643.941,253.375 625.604,253.375 z" id="boundary" inkscape:connector-curvature="0" />
	<path style="fill:none;stroke:red;stroke-width:1px;stroke-linecap:butt;stroke-linejoin:miter;stroke-opacity:1" d="M 662.277,253.375 643.941,253.375 z" id="boundary" inkscape:connector-curvature="0" />
	<path style="fill:none;stroke:red;stroke-width:1px;stroke-linecap:butt;stroke-linejoin:miter;stroke-opacity:1" d="M 680.614,253.375 662.277,253.375 z" id="boundary" inkscape:connector-curvature="0" />
	<path style="fill:none;stroke:red;stroke-width:1px;stroke-linecap:butt;stroke-linejoin:miter;stroke-opacity:1" d="M 680.614,253.375 698.95,253.375 z" id="boundary" inkscape:connector-curvature="0" />
	<path style="fill:none;stroke:red;stroke-width:1px;stroke-linecap:butt;stroke-linejoin:miter;stroke-opacity:1" d="M 717.287,253.375 698.95,253.375 z" id="boundary" inkscape:connector-curvature="0" />
	<path style="fill:none;stroke:red;stroke-width:1px;stroke-linecap:butt;stroke-linejoin:miter;stroke-opacity:1" d="M 733.789,262.543 750.292,253.375 z" id="boundary" inkscape:connector-curvature="0" />
	<path style="fill:none;stroke:red;stroke-width:1px;stroke-linecap:butt;stroke-linejoin:miter;stroke-opacity:1" d="M 733.789,262.543 717.287,253.375 z" id="boundary" inkscape:connector-curvature="0" />
	<path style="fill:none;stroke:red;stroke-width:1px;stroke-linecap:butt;stroke-linejoin:miter;stroke-opacity:1" d="M 750.292,253.375 768.628,253.375 z" id="boundary" inkscape:connector-curvature="0" />
	<path style="fill:none;stroke:red;stroke-width:1px;stroke-linecap:butt;stroke-linejoin:miter;stroke-opacity:1" d="M 500.917,280.88 519.253,280.88 z" id="boundary" inkscape:connector-curvature="0" />
	<path style="fill:none;stroke:red;stroke-width:1px;stroke-linecap:butt;stroke-linejoin:miter;stroke-opacity:1" d="M 768.628,253.375 786.965,258.876 z" id="boundary" inkscape:connector-curvature="0" />
	<path style="fill:none;stroke:red;stroke-width:1px;stroke-linecap:butt;stroke-linejoin:miter;stroke-opacity:1" d="M 996,220.37 977.664,235.039 z" id="boundary" inkscape:connector-curvature="0" />
	<path style="fill:none;stroke:red;stroke-width:1px;stroke-linecap:butt;stroke-linejoin:miter;stroke-opacity:1" d="M 977.664,235.039 959.327,244.207 z" id="boundary" inkscape:connector-curvature="0" />
	<path style="fill:none;stroke:red;stroke-width:1px;stroke-linecap:butt;stroke-linejoin:miter;stroke-opacity:1" d="M 994.166,202.033 996,220.37 z" id="boundary" inkscape:connector-curvature="0" />
	<path style="fill:none;stroke:red;stroke-width:1px;stroke-linecap:butt;stroke-linejoin:miter;stroke-opacity:1" d="M 959.327,244.207 940.991,253.375 z" id="boundary" inkscape:connector-curvature="0" />
	<path style="fill:none;stroke:red;stroke-width:1px;stroke-linecap:butt;stroke-linejoin:miter;stroke-opacity:1" d="M 801.634,271.712 786.965,258.876 z" id="boundary" inkscape:connector-curvature="0" />
	<path style="fill:none;stroke:red;stroke-width:1px;stroke-linecap:butt;stroke-linejoin:miter;stroke-opacity:1" d="M 836.473,280.88 819.97,271.712 z" id="boundary" inkscape:connector-curvature="0" />
	<path style="fill:none;stroke:red;stroke-width:1px;stroke-linecap:butt;stroke-linejoin:miter;stroke-opacity:1" d="M 819.97,271.712 801.634,271.712 z" id="boundary" inkscape:connector-curvature="0" />
	<path style="fill:none;stroke:red;stroke-width:1px;stroke-linecap:butt;stroke-linejoin:miter;stroke-opacity:1" d="M 836.473,280.88 854.81,280.88 z" id="boundary" inkscape:connector-curvature="0" />
	<path style="fill:none;stroke:red;stroke-width:1px;stroke-linecap:butt;stroke-linejoin:miter;stroke-opacity:1" d="M 891.482,280.88 873.146,280.88 z" id="boundary" inkscape:connector-curvature="0" />
	<path style="fill:none;stroke:red;stroke-width:1px;stroke-linecap:butt;stroke-linejoin:miter;stroke-opacity:1" d="M 873.146,280.88 854.81,280.88 z" id="boundary" inkscape:connector-curvature="0" />
	<path style="fill:none;stroke:red;stroke-width:1px;stroke-linecap:butt;stroke-linejoin:miter;stroke-opacity:1" d="M 926.322,269.878 907.985,271.712 z" id="boundary" inkscape:connector-curvature="0" />
	<path style="fill:none;stroke:red;stroke-width:1px;stroke-linecap:butt;stroke-linejoin:miter;stroke-opacity:1" d="M 926.322,269.878 940.991,253.375 z" id="boundary" inkscape:connector-curvature="0" />
	<path style="fill:none;stroke:red;stroke-width:1px;stroke-linecap:butt;stroke-linejoin:miter;stroke-opacity:1" d="M 907.985,271.712 891.482,280.88 z" id="boundary" inkscape:connector-curvature="0" />
	<circle cx="4" cy="183.697" r="4" fill="#0" id="circle0"/>
	<circle cx="4" cy="202.033" r="4" fill="#0" id="circle1"/>
	<circle cx="4" cy="220.37" r="4" fill="#0" id="circle2"/>
	<circle cx="4" cy="238.706" r="4" fill="#0" id="circle3"/>
	<circle cx="13.1682" cy="147.024" r="4" fill="#0" id="circle4"/>
	<circle cx="13.1682" cy="165.36" r="4" fill="#0" id="circle5"/>
	<circle cx="13.1682" cy="255.209" r="4" fill="#0" id="circle6"/>
	<circle cx="22.3364" cy="119.519" r="4" fill="#0" id="circle7"/>
	<circle cx="22.3364" cy="271.712" r="4" fill="#0" id="circle8"/>
	<circle cx="31.5046" cy="101.183" r="4" fill="#0" id="circle9"/>
	<circle cx="31.5046" cy="288.214" r="4" fill="#0" id="circle10"/>
	<circle cx="42.5065" cy="302.884" r="4" fill="#0" id="circle11"/>
	<circle cx="46.1738" cy="86.5139" r="4" fill="#0" id="circle12"/>
	<circle cx="49.841" cy="321.22" r="4" fill="#0" id="circle13"/>
	<circle cx="55.342" cy="68.1774" r="4" fill="#0" id="circle14"/>
	<circle cx="68.1774" cy="326.721" r="4" fill="#0" id="circle15"/>
	<circle cx="70.0111" cy="53.5083" r="4" fill="#0" id="circle16"/>
	<circle cx="79.1793" cy="341.39" r="4" fill="#0" id="circle17"/>
	<circle cx="88.3475" cy="44.3401" r="4" fill="#0" id="circle18"/>
	<circle cx="93.8484" cy="354.226" r="4" fill="#0" id="circle19"/>
	<circle cx="103.017" cy="31.5046" r="4" fill="#0" id="circle20"/>
	<circle cx="110.351" cy="363.394" r="4" fill="#0" id="circle21"/>
	<circle cx="119.519" cy="22.3364" r="4" fill="#0" id="circle22"/>
	<circle cx="128.688" cy="370.728" r="4" fill="#0" id="circle23"/>
	<circle cx="137.856" cy="22.3364" r="4" fill="#0" id="circle24"/>
	<circle cx="145.19" cy="379.896" r="4" fill="#0" id="circle25"/>
	<circle cx="154.359" cy="13.1682" r="4" fill="#0" id="circle26"/>
	<circle cx="163.527" cy="381.73" r="4" fill="#0" id="circle27"/>
	<circle cx="172.695" cy="13.1682" r="4" fill="#0" id="circle28"/>
	<circle cx="181.863" cy="381.73" r="4" fill="#0" id="circle29"/>
	<circle cx="189.198" cy="4" r="4" fill="#0" id="circle30"/>
	<circle cx="198.366" cy="390.898" r="4" fill="#0" id="circle31"/>
	<circle cx="207.534" cy="4" r="4" fill="#0" id="circle32"/>
	<circle cx="216.702" cy="390.898" r="4" fill="#0" id="circle33"/>
	<circle cx="225.871" cy="9.50092" r="4" fill="#0" id="circle34"/>
	<circle cx="233.205" cy="381.73" r="4" fill="#0" id="circle35"/>
	<circle cx="244.207" cy="13.1682" r="4" fill="#0" id="circle36"/>
	<circle cx="251.542" cy="381.73" r="4" fill="#0" id="circle37"/>
	<circle cx="262.543" cy="18.6691" r="4" fill="#0" id="circle38"/>
	<circle cx="266.211" cy="370.728" r="4" fill="#0" id="circle39"/>
	<circle cx="279.046" cy="27.8373" r="4" fill="#0" id="circle40"/>
	<circle cx="284.547" cy="361.56" r="4" fill="#0" id="circle41"/>
	<circle cx="297.383" cy="35.1719" r="4" fill="#0" id="circle42"/>
	<circle cx="299.216" cy="345.057" r="4" fill="#0" id="circle43"/>
	<circle cx="313.885" cy="44.3401" r="4" fill="#0" id="circle44"/>
	<circle cx="317.553" cy="345.057" r="4" fill="#0" id="circle45"/>
	<circle cx="326.721" cy="59.0092" r="4" fill="#0" id="circle46"/>
	<circle cx="332.222" cy="332.222" r="4" fill="#0" id="circle47"/>
	<circle cx="341.39" cy="70.0111" r="4" fill="#0" id="circle48"/>
	<circle cx="345.057" cy="317.553" r="4" fill="#0" id="circle49"/>
	<circle cx="354.226" cy="84.6802" r="4" fill="#0" id="circle50"/>
	<circle cx="354.226" cy="103.017" r="4" fill="#0" id="circle51"/>
	<circle cx="363.394" cy="317.553" r="4" fill="#0" id="circle52"/>
	<circle cx="368.895" cy="115.852" r="4" fill="#0" id="circle53"/>
	<circle cx="381.73" cy="130.521" r="4" fill="#0" id="circle54"/>
	<circle cx="381.73" cy="317.553" r="4" fill="#0" id="circle55"/>
	<circle cx="400.067" cy="132.355" r="4" fill="#0" id="circle56"/>
	<circle cx="400.067" cy="317.553" r="4" fill="#0" id="circle57"/>
	<circle cx="418.403" cy="132.355" r="4" fill="#0" id="circle58"/>
	<circle cx="418.403" cy="317.553" r="4" fill="#0" id="circle59"/>
	<circle cx="436.739" cy="132.355" r="4" fill="#0" id="circle60"/>
	<circle cx="436.739" cy="317.553" r="4" fill="#0" id="circle61"/>
	<circle cx="455.076" cy="132.355" r="4" fill="#0" id="circle62"/>
	<circle cx="455.076" cy="317.553" r="4" fill="#0" id="circle63"/>
	<circle cx="469.745" cy="304.717" r="4" fill="#0" id="circle64"/>
	<circle cx="473.412" cy="132.355" r="4" fill="#0" id="circle65"/>
	<circle cx="482.58" cy="290.048" r="4" fill="#0" id="circle66"/>
	<circle cx="491.749" cy="132.355" r="4" fill="#0" id="circle67"/>
	<circle cx="500.917" cy="280.88" r="4" fill="#0" id="circle68"/>
	<circle cx="510.085" cy="132.355" r="4" fill="#0" id="circle69"/>
	<circle cx="519.253" cy="280.88" r="4" fill="#0" id="circle70"/>
	<circle cx="528.421" cy="132.355" r="4" fill="#0" id="circle71"/>
	<circle cx="537.59" cy="271.712" r="4" fill="#0" id="circle72"/>
	<circle cx="546.758" cy="132.355" r="4" fill="#0" id="circle73"/>
	<circle cx="555.926" cy="271.712" r="4" fill="#0" id="circle74"/>
	<circle cx="565.094" cy="132.355" r="4" fill="#0" id="circle75"/>
	<circle cx="572.429" cy="262.543" r="4" fill="#0" id="circle76"/>
	<circle cx="583.431" cy="132.355" r="4" fill="#0" id="circle77"/>
	<circle cx="590.765" cy="262.543" r="4" fill="#0" id="circle78"/>
	<circle cx="601.767" cy="132.355" r="4" fill="#0" id="circle79"/>
	<circle cx="607.268" cy="253.375" r="4" fill="#0" id="circle80"/>
	<circle cx="620.104" cy="132.355" r="4" fill="#0" id="circle81"/>
	<circle cx="625.604" cy="253.375" r="4" fill="#0" id="circle82"/>
	<circle cx="638.44" cy="132.355" r="4" fill="#0" id="circle83"/>
	<circle cx="643.941" cy="253.375" r="4" fill="#0" id="circle84"/>
	<circle cx="656.776" cy="132.355" r="4" fill="#0" id="circle85"/>
	<circle cx="662.277" cy="253.375" r="4" fill="#0" id="circle86"/>
	<circle cx="675.113" cy="132.355" r="4" fill="#0" id="circle87"/>
	<circle cx="680.614" cy="253.375" r="4" fill="#0" id="circle88"/>
	<circle cx="693.449" cy="132.355" r="4" fill="#0" id="circle89"/>
	<circle cx="698.95" cy="253.375" r="4" fill="#0" id="circle90"/>
	<circle cx="711.786" cy="132.355" r="4" fill="#0" id="circle91"/>
	<circle cx="717.287" cy="253.375" r="4" fill="#0" id="circle92"/>
	<circle cx="730.122" cy="132.355" r="4" fill="#0" id="circle93"/>
	<circle cx="733.789" cy="262.543" r="4" fill="#0" id="circle94"/>
	<circle cx="748.458" cy="132.355" r="4" fill="#0" id="circle95"/>
	<circle cx="750.292" cy="253.375" r="4" fill="#0" id="circle96"/>
	<circle cx="766.795" cy="132.355" r="4" fill="#0" id="circle97"/>
	<circle cx="768.628" cy="253.375" r="4" fill="#0" id="circle98"/>
	<circle cx="785.131" cy="132.355" r="4" fill="#0" id="circle99"/>
	<circle cx="786.965" cy="258.876" r="4" fill="#0" id="circle100"/>
	<circle cx="801.634" cy="271.712" r="4" fill="#0" id="circle101"/>
	<circle cx="803.468" cy="132.355" r="4" fill="#0" id="circle102"/>
	<circle cx="819.97" cy="271.712" r="4" fill="#0" id="circle103"/>
	<circle cx="821.804" cy="132.355" r="4" fill="#0" id="circle104"/>
	<circle cx="836.473" cy="280.88" r="4" fill="#0" id="circle105"/>
	<circle cx="840.14" cy="132.355" r="4" fill="#0" id="circle106"/>
	<circle cx="854.81" cy="280.88" r="4" fill="#0" id="circle107"/>
	<circle cx="858.477" cy="132.355" r="4" fill="#0" id="circle108"/>
	<circle cx="873.146" cy="280.88" r="4" fill="#0" id="circle109"/>
	<circle cx="874.98" cy="141.523" r="4" fill="#0" id="circle110"/>
	<circle cx="891.482" cy="280.88" r="4" fill="#0" id="circle111"/>
	<circle cx="893.316" cy="141.523" r="4" fill="#0" id="circle112"/>
	<circle cx="907.985" cy="271.712" r="4" fill="#0" id="circle113"/>
	<circle cx="911.652" cy="141.523" r="4" fill="#0" id="circle114"/>
	<circle cx="926.322" cy="269.878" r="4" fill="#0" id="circle115"/>
	<circle cx="929.989" cy="141.523" r="4" fill="#0" id="circle116"/>
	<circle cx="940.991" cy="253.375" r="4" fill="#0" id="circle117"/>
	<circle cx="948.325" cy="141.523" r="4" fill="#0" id="circle118"/>
	<circle cx="959.327" cy="156.192" r="4" fill="#0" id="circle119"/>
	<circle cx="959.327" cy="244.207" r="4" fill="#0" id="circle120"/>
	<circle cx="972.163" cy="170.861" r="4" fill="#0" id="circle121"/>
	<circle cx="977.664" cy="235.039" r="4" fill="#0" id="circle122"/>
	<circle cx="986.832" cy="183.697" r="4" fill="#0" id="circle123"/>
	<circle cx="994.166" cy="202.033" r="4" fill="#0" id="circle124"/>
	<circle cx="996" cy="220.37" r="4" fill="#0" id="circle125"/>
	</g>
</svg>