<?xml version="1.0" encoding="UTF-8" standalone="no"?>
<!-- Created with CurveBenchmark -->
<svg
	xmlns:dc="http://purl.org/dc/elements/1.1/"
	xmlns:cc="http://creativecommons.org/ns#"
	xmlns:rdf="http://www.w3.org/1999/02/22-rdf-syntax-ns#"
	xmlns:svg="http://www.w3.org/2000/svg"
	xmlns="http://www.w3.org/2000/svg"
	xmlns:sodipodi="http://sodipodi.sourceforge.net/DTD/sodipodi-0.dtd"
	xmlns:inkscape="http://www.inkscape.org/namespaces/inkscape"
	width="1000"
	height="1000"
	id="svg2"
	version="1.1"
	sodipodi:docname="manifold/crust-fish0107.png.txt">
<defs
	id="defs4" />
<metadata
	id="metadata7">
	<rdf:RDF>
		<cc:Work
			rdf:about="">
			<dc:format>image/svg+xml</dc:format>
			<dc:type
				rdf:resource="http://purl.org/dc/dcmitype/StillImage" />
			<dc:title></dc:title>
		</cc:Work>
	</rdf:RDF>
</metadata>
<g
	inkscape:label="Layer 1"
	inkscape:groupmode="layer"
	id="layer1">
	<path style="fill:none;stroke:red;stroke-width:1px;stroke-linecap:butt;stroke-linejoin:miter;stroke-opacity:1" d="M 98.4762,118.023 82.1872,118.023 z" id="boundary" inkscape:connector-curvature="0" />
	<path style="fill:none;stroke:red;stroke-width:1px;stroke-linecap:butt;stroke-linejoin:miter;stroke-opacity:1" d="M 82.1872,118.023 65.8982,126.167 z" id="boundary" inkscape:connector-curvature="0" />
	<path style="fill:none;stroke:red;stroke-width:1px;stroke-linecap:butt;stroke-linejoin:miter;stroke-opacity:1" d="M 129.425,109.878 113.136,109.878 z" id="boundary" inkscape:connector-curvature="0" />
	<path style="fill:none;stroke:red;stroke-width:1px;stroke-linecap:butt;stroke-linejoin:miter;stroke-opacity:1" d="M 98.4762,118.023 113.136,109.878 z" id="boundary" inkscape:connector-curvature="0" />
	<path style="fill:none;stroke:red;stroke-width:1px;stroke-linecap:butt;stroke-linejoin:miter;stroke-opacity:1" d="M 129.425,109.878 144.085,101.734 z" id="boundary" inkscape:connector-curvature="0" />
	<path style="fill:none;stroke:red;stroke-width:1px;stroke-linecap:butt;stroke-linejoin:miter;stroke-opacity:1" d="M 249.964,85.445 233.675,85.445 z" id="boundary" inkscape:connector-curvature="0" />
	<path style="fill:none;stroke:red;stroke-width:1px;stroke-linecap:butt;stroke-linejoin:miter;stroke-opacity:1" d="M 233.675,85.445 217.386,88.7028 z" id="boundary" inkscape:connector-curvature="0" />
	<path style="fill:none;stroke:red;stroke-width:1px;stroke-linecap:butt;stroke-linejoin:miter;stroke-opacity:1" d="M 160.374,101.734 144.085,101.734 z" id="boundary" inkscape:connector-curvature="0" />
	<path style="fill:none;stroke:red;stroke-width:1px;stroke-linecap:butt;stroke-linejoin:miter;stroke-opacity:1" d="M 176.663,101.734 160.374,101.734 z" id="boundary" inkscape:connector-curvature="0" />
	<path style="fill:none;stroke:red;stroke-width:1px;stroke-linecap:butt;stroke-linejoin:miter;stroke-opacity:1" d="M 191.323,93.5895 176.663,101.734 z" id="boundary" inkscape:connector-curvature="0" />
	<path style="fill:none;stroke:red;stroke-width:1px;stroke-linecap:butt;stroke-linejoin:miter;stroke-opacity:1" d="M 191.323,93.5895 205.984,101.734 z" id="boundary" inkscape:connector-curvature="0" />
	<path style="fill:none;stroke:red;stroke-width:1px;stroke-linecap:butt;stroke-linejoin:miter;stroke-opacity:1" d="M 217.386,88.7028 205.984,101.734 z" id="boundary" inkscape:connector-curvature="0" />
	<path style="fill:none;stroke:red;stroke-width:1px;stroke-linecap:butt;stroke-linejoin:miter;stroke-opacity:1" d="M 4,155.488 17.0312,142.456 z" id="boundary" inkscape:connector-curvature="0" />
	<path style="fill:none;stroke:red;stroke-width:1px;stroke-linecap:butt;stroke-linejoin:miter;stroke-opacity:1" d="M 17.0312,142.456 33.3202,134.312 z" id="boundary" inkscape:connector-curvature="0" />
	<path style="fill:none;stroke:red;stroke-width:1px;stroke-linecap:butt;stroke-linejoin:miter;stroke-opacity:1" d="M 4,171.777 4,155.488 z" id="boundary" inkscape:connector-curvature="0" />
	<path style="fill:none;stroke:red;stroke-width:1px;stroke-linecap:butt;stroke-linejoin:miter;stroke-opacity:1" d="M 49.6092,126.167 65.8982,126.167 z" id="boundary" inkscape:connector-curvature="0" />
	<path style="fill:none;stroke:red;stroke-width:1px;stroke-linecap:butt;stroke-linejoin:miter;stroke-opacity:1" d="M 33.3202,134.312 49.6092,126.167 z" id="boundary" inkscape:connector-curvature="0" />
	<path style="fill:none;stroke:red;stroke-width:1px;stroke-linecap:butt;stroke-linejoin:miter;stroke-opacity:1" d="M 23.5468,199.468 12.1445,186.437 z" id="boundary" inkscape:connector-curvature="0" />
	<path style="fill:none;stroke:red;stroke-width:1px;stroke-linecap:butt;stroke-linejoin:miter;stroke-opacity:1" d="M 4,171.777 12.1445,186.437 z" id="boundary" inkscape:connector-curvature="0" />
	<path style="fill:none;stroke:red;stroke-width:1px;stroke-linecap:butt;stroke-linejoin:miter;stroke-opacity:1" d="M 432.401,44.7225 440.545,28.4335 z" id="boundary" inkscape:connector-curvature="0" />
	<path style="fill:none;stroke:red;stroke-width:1px;stroke-linecap:butt;stroke-linejoin:miter;stroke-opacity:1" d="M 453.576,15.4023 440.545,28.4335 z" id="boundary" inkscape:connector-curvature="0" />
	<path style="fill:none;stroke:red;stroke-width:1px;stroke-linecap:butt;stroke-linejoin:miter;stroke-opacity:1" d="M 419.369,57.7537 432.401,44.7225 z" id="boundary" inkscape:connector-curvature="0" />
	<path style="fill:none;stroke:red;stroke-width:1px;stroke-linecap:butt;stroke-linejoin:miter;stroke-opacity:1" d="M 466.608,4 453.576,15.4023 z" id="boundary" inkscape:connector-curvature="0" />
	<path style="fill:none;stroke:red;stroke-width:1px;stroke-linecap:butt;stroke-linejoin:miter;stroke-opacity:1" d="M 466.608,4 481.268,12.1445 z" id="boundary" inkscape:connector-curvature="0" />
	<path style="fill:none;stroke:red;stroke-width:1px;stroke-linecap:butt;stroke-linejoin:miter;stroke-opacity:1" d="M 481.268,12.1445 486.154,28.4335 z" id="boundary" inkscape:connector-curvature="0" />
	<path style="fill:none;stroke:red;stroke-width:1px;stroke-linecap:butt;stroke-linejoin:miter;stroke-opacity:1" d="M 486.154,28.4335 494.299,43.0936 z" id="boundary" inkscape:connector-curvature="0" />
	<path style="fill:none;stroke:red;stroke-width:1px;stroke-linecap:butt;stroke-linejoin:miter;stroke-opacity:1" d="M 502.443,57.7537 494.299,43.0936 z" id="boundary" inkscape:connector-curvature="0" />
	<path style="fill:none;stroke:red;stroke-width:1px;stroke-linecap:butt;stroke-linejoin:miter;stroke-opacity:1" d="M 282.542,85.445 266.253,85.445 z" id="boundary" inkscape:connector-curvature="0" />
	<path style="fill:none;stroke:red;stroke-width:1px;stroke-linecap:butt;stroke-linejoin:miter;stroke-opacity:1" d="M 266.253,85.445 249.964,85.445 z" id="boundary" inkscape:connector-curvature="0" />
	<path style="fill:none;stroke:red;stroke-width:1px;stroke-linecap:butt;stroke-linejoin:miter;stroke-opacity:1" d="M 297.202,93.5895 282.542,85.445 z" id="boundary" inkscape:connector-curvature="0" />
	<path style="fill:none;stroke:red;stroke-width:1px;stroke-linecap:butt;stroke-linejoin:miter;stroke-opacity:1" d="M 328.151,85.445 311.862,85.445 z" id="boundary" inkscape:connector-curvature="0" />
	<path style="fill:none;stroke:red;stroke-width:1px;stroke-linecap:butt;stroke-linejoin:miter;stroke-opacity:1" d="M 328.151,85.445 344.44,85.445 z" id="boundary" inkscape:connector-curvature="0" />
	<path style="fill:none;stroke:red;stroke-width:1px;stroke-linecap:butt;stroke-linejoin:miter;stroke-opacity:1" d="M 360.729,85.445 344.44,85.445 z" id="boundary" inkscape:connector-curvature="0" />
	<path style="fill:none;stroke:red;stroke-width:1px;stroke-linecap:butt;stroke-linejoin:miter;stroke-opacity:1" d="M 311.862,85.445 297.202,93.5895 z" id="boundary" inkscape:connector-curvature="0" />
	<path style="fill:none;stroke:red;stroke-width:1px;stroke-linecap:butt;stroke-linejoin:miter;stroke-opacity:1" d="M 360.729,85.445 377.018,85.445 z" id="boundary" inkscape:connector-curvature="0" />
	<path style="fill:none;stroke:red;stroke-width:1px;stroke-linecap:butt;stroke-linejoin:miter;stroke-opacity:1" d="M 393.307,85.445 377.018,85.445 z" id="boundary" inkscape:connector-curvature="0" />
	<path style="fill:none;stroke:red;stroke-width:1px;stroke-linecap:butt;stroke-linejoin:miter;stroke-opacity:1" d="M 393.307,85.445 404.709,72.4138 z" id="boundary" inkscape:connector-curvature="0" />
	<path style="fill:none;stroke:red;stroke-width:1px;stroke-linecap:butt;stroke-linejoin:miter;stroke-opacity:1" d="M 404.709,72.4138 419.369,57.7537 z" id="boundary" inkscape:connector-curvature="0" />
	<path style="fill:none;stroke:red;stroke-width:1px;stroke-linecap:butt;stroke-linejoin:miter;stroke-opacity:1" d="M 502.443,57.7537 502.443,74.0427 z" id="boundary" inkscape:connector-curvature="0" />
	<path style="fill:none;stroke:red;stroke-width:1px;stroke-linecap:butt;stroke-linejoin:miter;stroke-opacity:1" d="M 515.475,85.445 502.443,74.0427 z" id="boundary" inkscape:connector-curvature="0" />
	<path style="fill:none;stroke:red;stroke-width:1px;stroke-linecap:butt;stroke-linejoin:miter;stroke-opacity:1" d="M 548.053,85.445 564.342,85.445 z" id="boundary" inkscape:connector-curvature="0" />
	<path style="fill:none;stroke:red;stroke-width:1px;stroke-linecap:butt;stroke-linejoin:miter;stroke-opacity:1" d="M 548.053,85.445 531.764,87.0739 z" id="boundary" inkscape:connector-curvature="0" />
	<path style="fill:none;stroke:red;stroke-width:1px;stroke-linecap:butt;stroke-linejoin:miter;stroke-opacity:1" d="M 515.475,85.445 531.764,87.0739 z" id="boundary" inkscape:connector-curvature="0" />
	<path style="fill:none;stroke:red;stroke-width:1px;stroke-linecap:butt;stroke-linejoin:miter;stroke-opacity:1" d="M 23.5468,199.468 36.578,209.241 z" id="boundary" inkscape:connector-curvature="0" />
	<path style="fill:none;stroke:red;stroke-width:1px;stroke-linecap:butt;stroke-linejoin:miter;stroke-opacity:1" d="M 46.3514,222.273 36.578,209.241 z" id="boundary" inkscape:connector-curvature="0" />
	<path style="fill:none;stroke:red;stroke-width:1px;stroke-linecap:butt;stroke-linejoin:miter;stroke-opacity:1" d="M 46.3514,222.273 62.6404,225.53 z" id="boundary" inkscape:connector-curvature="0" />
	<path style="fill:none;stroke:red;stroke-width:1px;stroke-linecap:butt;stroke-linejoin:miter;stroke-opacity:1" d="M 77.3005,233.675 62.6404,225.53 z" id="boundary" inkscape:connector-curvature="0" />
	<path style="fill:none;stroke:red;stroke-width:1px;stroke-linecap:butt;stroke-linejoin:miter;stroke-opacity:1" d="M 91.9606,241.819 77.3005,233.675 z" id="boundary" inkscape:connector-curvature="0" />
	<path style="fill:none;stroke:red;stroke-width:1px;stroke-linecap:butt;stroke-linejoin:miter;stroke-opacity:1" d="M 91.9606,241.819 106.621,249.964 z" id="boundary" inkscape:connector-curvature="0" />
	<path style="fill:none;stroke:red;stroke-width:1px;stroke-linecap:butt;stroke-linejoin:miter;stroke-opacity:1" d="M 106.621,249.964 122.91,249.964 z" id="boundary" inkscape:connector-curvature="0" />
	<path style="fill:none;stroke:red;stroke-width:1px;stroke-linecap:butt;stroke-linejoin:miter;stroke-opacity:1" d="M 139.199,249.964 152.23,261.366 z" id="boundary" inkscape:connector-curvature="0" />
	<path style="fill:none;stroke:red;stroke-width:1px;stroke-linecap:butt;stroke-linejoin:miter;stroke-opacity:1" d="M 122.91,249.964 139.199,249.964 z" id="boundary" inkscape:connector-curvature="0" />
	<path style="fill:none;stroke:red;stroke-width:1px;stroke-linecap:butt;stroke-linejoin:miter;stroke-opacity:1" d="M 168.519,266.253 152.23,261.366 z" id="boundary" inkscape:connector-curvature="0" />
	<path style="fill:none;stroke:red;stroke-width:1px;stroke-linecap:butt;stroke-linejoin:miter;stroke-opacity:1" d="M 168.519,266.253 184.808,269.511 z" id="boundary" inkscape:connector-curvature="0" />
	<path style="fill:none;stroke:red;stroke-width:1px;stroke-linecap:butt;stroke-linejoin:miter;stroke-opacity:1" d="M 215.757,282.542 201.097,274.397 z" id="boundary" inkscape:connector-curvature="0" />
	<path style="fill:none;stroke:red;stroke-width:1px;stroke-linecap:butt;stroke-linejoin:miter;stroke-opacity:1" d="M 201.097,274.397 184.808,269.511 z" id="boundary" inkscape:connector-curvature="0" />
	<path style="fill:none;stroke:red;stroke-width:1px;stroke-linecap:butt;stroke-linejoin:miter;stroke-opacity:1" d="M 215.757,282.542 232.046,282.542 z" id="boundary" inkscape:connector-curvature="0" />
	<path style="fill:none;stroke:red;stroke-width:1px;stroke-linecap:butt;stroke-linejoin:miter;stroke-opacity:1" d="M 248.335,282.542 262.995,290.686 z" id="boundary" inkscape:connector-curvature="0" />
	<path style="fill:none;stroke:red;stroke-width:1px;stroke-linecap:butt;stroke-linejoin:miter;stroke-opacity:1" d="M 232.046,282.542 248.335,282.542 z" id="boundary" inkscape:connector-curvature="0" />
	<path style="fill:none;stroke:red;stroke-width:1px;stroke-linecap:butt;stroke-linejoin:miter;stroke-opacity:1" d="M 262.995,290.686 277.655,298.831 z" id="boundary" inkscape:connector-curvature="0" />
	<path style="fill:none;stroke:red;stroke-width:1px;stroke-linecap:butt;stroke-linejoin:miter;stroke-opacity:1" d="M 277.655,298.831 293.944,305.346 z" id="boundary" inkscape:connector-curvature="0" />
	<path style="fill:none;stroke:red;stroke-width:1px;stroke-linecap:butt;stroke-linejoin:miter;stroke-opacity:1" d="M 305.346,318.378 305.346,334.667 z" id="boundary" inkscape:connector-curvature="0" />
	<path style="fill:none;stroke:red;stroke-width:1px;stroke-linecap:butt;stroke-linejoin:miter;stroke-opacity:1" d="M 293.944,305.346 305.346,318.378 z" id="boundary" inkscape:connector-curvature="0" />
	<path style="fill:none;stroke:red;stroke-width:1px;stroke-linecap:butt;stroke-linejoin:miter;stroke-opacity:1" d="M 305.346,334.667 318.378,346.069 z" id="boundary" inkscape:connector-curvature="0" />
	<path style="fill:none;stroke:red;stroke-width:1px;stroke-linecap:butt;stroke-linejoin:miter;stroke-opacity:1" d="M 329.78,359.1 318.378,346.069 z" id="boundary" inkscape:connector-curvature="0" />
	<path style="fill:none;stroke:red;stroke-width:1px;stroke-linecap:butt;stroke-linejoin:miter;stroke-opacity:1" d="M 329.78,359.1 337.924,373.76 z" id="boundary" inkscape:connector-curvature="0" />
	<path style="fill:none;stroke:red;stroke-width:1px;stroke-linecap:butt;stroke-linejoin:miter;stroke-opacity:1" d="M 337.924,373.76 354.213,380.276 z" id="boundary" inkscape:connector-curvature="0" />
	<path style="fill:none;stroke:red;stroke-width:1px;stroke-linecap:butt;stroke-linejoin:miter;stroke-opacity:1" d="M 411.225,306.975 396.565,315.12 z" id="boundary" inkscape:connector-curvature="0" />
	<path style="fill:none;stroke:red;stroke-width:1px;stroke-linecap:butt;stroke-linejoin:miter;stroke-opacity:1" d="M 427.514,306.975 443.803,306.975 z" id="boundary" inkscape:connector-curvature="0" />
	<path style="fill:none;stroke:red;stroke-width:1px;stroke-linecap:butt;stroke-linejoin:miter;stroke-opacity:1" d="M 427.514,306.975 411.225,306.975 z" id="boundary" inkscape:connector-curvature="0" />
	<path style="fill:none;stroke:red;stroke-width:1px;stroke-linecap:butt;stroke-linejoin:miter;stroke-opacity:1" d="M 460.092,306.975 443.803,306.975 z" id="boundary" inkscape:connector-curvature="0" />
	<path style="fill:none;stroke:red;stroke-width:1px;stroke-linecap:butt;stroke-linejoin:miter;stroke-opacity:1" d="M 492.67,306.975 476.381,306.975 z" id="boundary" inkscape:connector-curvature="0" />
	<path style="fill:none;stroke:red;stroke-width:1px;stroke-linecap:butt;stroke-linejoin:miter;stroke-opacity:1" d="M 476.381,306.975 460.092,306.975 z" id="boundary" inkscape:connector-curvature="0" />
	<path style="fill:none;stroke:red;stroke-width:1px;stroke-linecap:butt;stroke-linejoin:miter;stroke-opacity:1" d="M 508.959,306.975 492.67,306.975 z" id="boundary" inkscape:connector-curvature="0" />
	<path style="fill:none;stroke:red;stroke-width:1px;stroke-linecap:butt;stroke-linejoin:miter;stroke-opacity:1" d="M 523.619,298.831 508.959,306.975 z" id="boundary" inkscape:connector-curvature="0" />
	<path style="fill:none;stroke:red;stroke-width:1px;stroke-linecap:butt;stroke-linejoin:miter;stroke-opacity:1" d="M 539.908,295.573 556.197,290.686 z" id="boundary" inkscape:connector-curvature="0" />
	<path style="fill:none;stroke:red;stroke-width:1px;stroke-linecap:butt;stroke-linejoin:miter;stroke-opacity:1" d="M 539.908,295.573 523.619,298.831 z" id="boundary" inkscape:connector-curvature="0" />
	<path style="fill:none;stroke:red;stroke-width:1px;stroke-linecap:butt;stroke-linejoin:miter;stroke-opacity:1" d="M 393.307,344.44 396.565,315.12 z" id="boundary" inkscape:connector-curvature="0" />
	<path style="fill:none;stroke:red;stroke-width:1px;stroke-linecap:butt;stroke-linejoin:miter;stroke-opacity:1" d="M 393.307,344.44 380.276,355.842 z" id="boundary" inkscape:connector-curvature="0" />
	<path style="fill:none;stroke:red;stroke-width:1px;stroke-linecap:butt;stroke-linejoin:miter;stroke-opacity:1" d="M 367.245,370.502 354.213,380.276 z" id="boundary" inkscape:connector-curvature="0" />
	<path style="fill:none;stroke:red;stroke-width:1px;stroke-linecap:butt;stroke-linejoin:miter;stroke-opacity:1" d="M 367.245,370.502 380.276,355.842 z" id="boundary" inkscape:connector-curvature="0" />
	<path style="fill:none;stroke:red;stroke-width:1px;stroke-linecap:butt;stroke-linejoin:miter;stroke-opacity:1" d="M 572.486,290.686 556.197,290.686 z" id="boundary" inkscape:connector-curvature="0" />
	<path style="fill:none;stroke:red;stroke-width:1px;stroke-linecap:butt;stroke-linejoin:miter;stroke-opacity:1" d="M 681.622,36.578 665.333,39.8358 z" id="boundary" inkscape:connector-curvature="0" />
	<path style="fill:none;stroke:red;stroke-width:1px;stroke-linecap:butt;stroke-linejoin:miter;stroke-opacity:1" d="M 653.931,52.867 665.333,39.8358 z" id="boundary" inkscape:connector-curvature="0" />
	<path style="fill:none;stroke:red;stroke-width:1px;stroke-linecap:butt;stroke-linejoin:miter;stroke-opacity:1" d="M 653.931,52.867 640.9,64.2693 z" id="boundary" inkscape:connector-curvature="0" />
	<path style="fill:none;stroke:red;stroke-width:1px;stroke-linecap:butt;stroke-linejoin:miter;stroke-opacity:1" d="M 640.9,64.2693 627.869,77.3005 z" id="boundary" inkscape:connector-curvature="0" />
	<path style="fill:none;stroke:red;stroke-width:1px;stroke-linecap:butt;stroke-linejoin:miter;stroke-opacity:1" d="M 580.631,85.445 564.342,85.445 z" id="boundary" inkscape:connector-curvature="0" />
	<path style="fill:none;stroke:red;stroke-width:1px;stroke-linecap:butt;stroke-linejoin:miter;stroke-opacity:1" d="M 681.622,36.578 697.911,33.3202 z" id="boundary" inkscape:connector-curvature="0" />
	<path style="fill:none;stroke:red;stroke-width:1px;stroke-linecap:butt;stroke-linejoin:miter;stroke-opacity:1" d="M 697.911,33.3202 697.911,49.6092 z" id="boundary" inkscape:connector-curvature="0" />
	<path style="fill:none;stroke:red;stroke-width:1px;stroke-linecap:butt;stroke-linejoin:miter;stroke-opacity:1" d="M 697.911,49.6092 697.911,65.8982 z" id="boundary" inkscape:connector-curvature="0" />
	<path style="fill:none;stroke:red;stroke-width:1px;stroke-linecap:butt;stroke-linejoin:miter;stroke-opacity:1" d="M 697.911,65.8982 697.911,82.1872 z" id="boundary" inkscape:connector-curvature="0" />
	<path style="fill:none;stroke:red;stroke-width:1px;stroke-linecap:butt;stroke-linejoin:miter;stroke-opacity:1" d="M 580.631,85.445 596.92,85.445 z" id="boundary" inkscape:connector-curvature="0" />
	<path style="fill:none;stroke:red;stroke-width:1px;stroke-linecap:butt;stroke-linejoin:miter;stroke-opacity:1" d="M 613.209,85.445 596.92,85.445 z" id="boundary" inkscape:connector-curvature="0" />
	<path style="fill:none;stroke:red;stroke-width:1px;stroke-linecap:butt;stroke-linejoin:miter;stroke-opacity:1" d="M 613.209,85.445 627.869,77.3005 z" id="boundary" inkscape:connector-curvature="0" />
	<path style="fill:none;stroke:red;stroke-width:1px;stroke-linecap:butt;stroke-linejoin:miter;stroke-opacity:1" d="M 714.2,111.507 704.427,98.4762 z" id="boundary" inkscape:connector-curvature="0" />
	<path style="fill:none;stroke:red;stroke-width:1px;stroke-linecap:butt;stroke-linejoin:miter;stroke-opacity:1" d="M 704.427,98.4762 697.911,82.1872 z" id="boundary" inkscape:connector-curvature="0" />
	<path style="fill:none;stroke:red;stroke-width:1px;stroke-linecap:butt;stroke-linejoin:miter;stroke-opacity:1" d="M 714.2,111.507 727.232,121.281 z" id="boundary" inkscape:connector-curvature="0" />
	<path style="fill:none;stroke:red;stroke-width:1px;stroke-linecap:butt;stroke-linejoin:miter;stroke-opacity:1" d="M 787.501,137.57 771.212,139.199 z" id="boundary" inkscape:connector-curvature="0" />
	<path style="fill:none;stroke:red;stroke-width:1px;stroke-linecap:butt;stroke-linejoin:miter;stroke-opacity:1" d="M 738.634,134.312 727.232,121.281 z" id="boundary" inkscape:connector-curvature="0" />
	<path style="fill:none;stroke:red;stroke-width:1px;stroke-linecap:butt;stroke-linejoin:miter;stroke-opacity:1" d="M 738.634,134.312 754.923,134.312 z" id="boundary" inkscape:connector-curvature="0" />
	<path style="fill:none;stroke:red;stroke-width:1px;stroke-linecap:butt;stroke-linejoin:miter;stroke-opacity:1" d="M 754.923,134.312 771.212,139.199 z" id="boundary" inkscape:connector-curvature="0" />
	<path style="fill:none;stroke:red;stroke-width:1px;stroke-linecap:butt;stroke-linejoin:miter;stroke-opacity:1" d="M 927.586,85.445 911.297,85.445 z" id="boundary" inkscape:connector-curvature="0" />
	<path style="fill:none;stroke:red;stroke-width:1px;stroke-linecap:butt;stroke-linejoin:miter;stroke-opacity:1" d="M 911.297,85.445 896.637,93.5895 z" id="boundary" inkscape:connector-curvature="0" />
	<path style="fill:none;stroke:red;stroke-width:1px;stroke-linecap:butt;stroke-linejoin:miter;stroke-opacity:1" d="M 940.617,74.0427 927.586,85.445 z" id="boundary" inkscape:connector-curvature="0" />
	<path style="fill:none;stroke:red;stroke-width:1px;stroke-linecap:butt;stroke-linejoin:miter;stroke-opacity:1" d="M 896.637,93.5895 880.348,101.734 z" id="boundary" inkscape:connector-curvature="0" />
	<path style="fill:none;stroke:red;stroke-width:1px;stroke-linecap:butt;stroke-linejoin:miter;stroke-opacity:1" d="M 956.906,65.8982 940.617,74.0427 z" id="boundary" inkscape:connector-curvature="0" />
	<path style="fill:none;stroke:red;stroke-width:1px;stroke-linecap:butt;stroke-linejoin:miter;stroke-opacity:1" d="M 973.195,65.8982 956.906,65.8982 z" id="boundary" inkscape:connector-curvature="0" />
	<path style="fill:none;stroke:red;stroke-width:1px;stroke-linecap:butt;stroke-linejoin:miter;stroke-opacity:1" d="M 989.484,61.0115 973.195,65.8982 z" id="boundary" inkscape:connector-curvature="0" />
	<path style="fill:none;stroke:red;stroke-width:1px;stroke-linecap:butt;stroke-linejoin:miter;stroke-opacity:1" d="M 989.484,61.0115 996,77.3005 z" id="boundary" inkscape:connector-curvature="0" />
	<path style="fill:none;stroke:red;stroke-width:1px;stroke-linecap:butt;stroke-linejoin:miter;stroke-opacity:1" d="M 996,77.3005 982.969,87.0739 z" id="boundary" inkscape:connector-curvature="0" />
	<path style="fill:none;stroke:red;stroke-width:1px;stroke-linecap:butt;stroke-linejoin:miter;stroke-opacity:1" d="M 982.969,87.0739 971.567,100.105 z" id="boundary" inkscape:connector-curvature="0" />
	<path style="fill:none;stroke:red;stroke-width:1px;stroke-linecap:butt;stroke-linejoin:miter;stroke-opacity:1" d="M 803.79,134.312 818.45,126.167 z" id="boundary" inkscape:connector-curvature="0" />
	<path style="fill:none;stroke:red;stroke-width:1px;stroke-linecap:butt;stroke-linejoin:miter;stroke-opacity:1" d="M 803.79,134.312 787.501,137.57 z" id="boundary" inkscape:connector-curvature="0" />
	<path style="fill:none;stroke:red;stroke-width:1px;stroke-linecap:butt;stroke-linejoin:miter;stroke-opacity:1" d="M 834.739,122.91 818.45,126.167 z" id="boundary" inkscape:connector-curvature="0" />
	<path style="fill:none;stroke:red;stroke-width:1px;stroke-linecap:butt;stroke-linejoin:miter;stroke-opacity:1" d="M 865.688,109.878 880.348,101.734 z" id="boundary" inkscape:connector-curvature="0" />
	<path style="fill:none;stroke:red;stroke-width:1px;stroke-linecap:butt;stroke-linejoin:miter;stroke-opacity:1" d="M 865.688,109.878 851.028,118.023 z" id="boundary" inkscape:connector-curvature="0" />
	<path style="fill:none;stroke:red;stroke-width:1px;stroke-linecap:butt;stroke-linejoin:miter;stroke-opacity:1" d="M 834.739,122.91 851.028,118.023 z" id="boundary" inkscape:connector-curvature="0" />
	<path style="fill:none;stroke:red;stroke-width:1px;stroke-linecap:butt;stroke-linejoin:miter;stroke-opacity:1" d="M 950.391,127.796 963.422,116.394 z" id="boundary" inkscape:connector-curvature="0" />
	<path style="fill:none;stroke:red;stroke-width:1px;stroke-linecap:butt;stroke-linejoin:miter;stroke-opacity:1" d="M 963.422,116.394 971.567,100.105 z" id="boundary" inkscape:connector-curvature="0" />
	<path style="fill:none;stroke:red;stroke-width:1px;stroke-linecap:butt;stroke-linejoin:miter;stroke-opacity:1" d="M 950.391,127.796 942.246,144.085 z" id="boundary" inkscape:connector-curvature="0" />
	<path style="fill:none;stroke:red;stroke-width:1px;stroke-linecap:butt;stroke-linejoin:miter;stroke-opacity:1" d="M 942.246,144.085 934.102,160.374 z" id="boundary" inkscape:connector-curvature="0" />
	<path style="fill:none;stroke:red;stroke-width:1px;stroke-linecap:butt;stroke-linejoin:miter;stroke-opacity:1" d="M 925.957,176.663 934.102,160.374 z" id="boundary" inkscape:connector-curvature="0" />
	<path style="fill:none;stroke:red;stroke-width:1px;stroke-linecap:butt;stroke-linejoin:miter;stroke-opacity:1" d="M 925.957,176.663 925.957,192.952 z" id="boundary" inkscape:connector-curvature="0" />
	<path style="fill:none;stroke:red;stroke-width:1px;stroke-linecap:butt;stroke-linejoin:miter;stroke-opacity:1" d="M 720.716,249.964 710.943,262.995 z" id="boundary" inkscape:connector-curvature="0" />
	<path style="fill:none;stroke:red;stroke-width:1px;stroke-linecap:butt;stroke-linejoin:miter;stroke-opacity:1" d="M 730.489,233.675 720.716,249.964 z" id="boundary" inkscape:connector-curvature="0" />
	<path style="fill:none;stroke:red;stroke-width:1px;stroke-linecap:butt;stroke-linejoin:miter;stroke-opacity:1" d="M 710.943,262.995 697.911,274.397 z" id="boundary" inkscape:connector-curvature="0" />
	<path style="fill:none;stroke:red;stroke-width:1px;stroke-linecap:butt;stroke-linejoin:miter;stroke-opacity:1" d="M 572.486,290.686 587.146,282.542 z" id="boundary" inkscape:connector-curvature="0" />
	<path style="fill:none;stroke:red;stroke-width:1px;stroke-linecap:butt;stroke-linejoin:miter;stroke-opacity:1" d="M 595.291,297.202 587.146,282.542 z" id="boundary" inkscape:connector-curvature="0" />
	<path style="fill:none;stroke:red;stroke-width:1px;stroke-linecap:butt;stroke-linejoin:miter;stroke-opacity:1" d="M 697.911,274.397 694.654,295.573 z" id="boundary" inkscape:connector-curvature="0" />
	<path style="fill:none;stroke:red;stroke-width:1px;stroke-linecap:butt;stroke-linejoin:miter;stroke-opacity:1" d="M 730.489,233.675 746.778,233.675 z" id="boundary" inkscape:connector-curvature="0" />
	<path style="fill:none;stroke:red;stroke-width:1px;stroke-linecap:butt;stroke-linejoin:miter;stroke-opacity:1" d="M 763.067,233.675 746.778,233.675 z" id="boundary" inkscape:connector-curvature="0" />
	<path style="fill:none;stroke:red;stroke-width:1px;stroke-linecap:butt;stroke-linejoin:miter;stroke-opacity:1" d="M 779.356,236.933 763.067,233.675 z" id="boundary" inkscape:connector-curvature="0" />
	<path style="fill:none;stroke:red;stroke-width:1px;stroke-linecap:butt;stroke-linejoin:miter;stroke-opacity:1" d="M 795.645,236.933 779.356,236.933 z" id="boundary" inkscape:connector-curvature="0" />
	<path style="fill:none;stroke:red;stroke-width:1px;stroke-linecap:butt;stroke-linejoin:miter;stroke-opacity:1" d="M 795.645,236.933 807.048,249.964 z" id="boundary" inkscape:connector-curvature="0" />
	<path style="fill:none;stroke:red;stroke-width:1px;stroke-linecap:butt;stroke-linejoin:miter;stroke-opacity:1" d="M 606.693,310.233 595.291,297.202 z" id="boundary" inkscape:connector-curvature="0" />
	<path style="fill:none;stroke:red;stroke-width:1px;stroke-linecap:butt;stroke-linejoin:miter;stroke-opacity:1" d="M 631.126,334.667 619.724,321.635 z" id="boundary" inkscape:connector-curvature="0" />
	<path style="fill:none;stroke:red;stroke-width:1px;stroke-linecap:butt;stroke-linejoin:miter;stroke-opacity:1" d="M 619.724,321.635 606.693,310.233 z" id="boundary" inkscape:connector-curvature="0" />
	<path style="fill:none;stroke:red;stroke-width:1px;stroke-linecap:butt;stroke-linejoin:miter;stroke-opacity:1" d="M 644.158,346.069 657.189,355.842 z" id="boundary" inkscape:connector-curvature="0" />
	<path style="fill:none;stroke:red;stroke-width:1px;stroke-linecap:butt;stroke-linejoin:miter;stroke-opacity:1" d="M 631.126,334.667 644.158,346.069 z" id="boundary" inkscape:connector-curvature="0" />
	<path style="fill:none;stroke:red;stroke-width:1px;stroke-linecap:butt;stroke-linejoin:miter;stroke-opacity:1" d="M 671.849,363.987 657.189,355.842 z" id="boundary" inkscape:connector-curvature="0" />
	<path style="fill:none;stroke:red;stroke-width:1px;stroke-linecap:butt;stroke-linejoin:miter;stroke-opacity:1" d="M 681.622,323.264 681.622,306.975 z" id="boundary" inkscape:connector-curvature="0" />
	<path style="fill:none;stroke:red;stroke-width:1px;stroke-linecap:butt;stroke-linejoin:miter;stroke-opacity:1" d="M 681.622,306.975 694.654,295.573 z" id="boundary" inkscape:connector-curvature="0" />
	<path style="fill:none;stroke:red;stroke-width:1px;stroke-linecap:butt;stroke-linejoin:miter;stroke-opacity:1" d="M 681.622,323.264 681.622,339.553 z" id="boundary" inkscape:connector-curvature="0" />
	<path style="fill:none;stroke:red;stroke-width:1px;stroke-linecap:butt;stroke-linejoin:miter;stroke-opacity:1" d="M 671.849,363.987 681.622,339.553 z" id="boundary" inkscape:connector-curvature="0" />
	<path style="fill:none;stroke:red;stroke-width:1px;stroke-linecap:butt;stroke-linejoin:miter;stroke-opacity:1" d="M 807.048,249.964 821.708,258.108 z" id="boundary" inkscape:connector-curvature="0" />
	<path style="fill:none;stroke:red;stroke-width:1px;stroke-linecap:butt;stroke-linejoin:miter;stroke-opacity:1" d="M 837.997,258.108 821.708,258.108 z" id="boundary" inkscape:connector-curvature="0" />
	<path style="fill:none;stroke:red;stroke-width:1px;stroke-linecap:butt;stroke-linejoin:miter;stroke-opacity:1" d="M 925.957,192.952 925.957,209.241 z" id="boundary" inkscape:connector-curvature="0" />
	<path style="fill:none;stroke:red;stroke-width:1px;stroke-linecap:butt;stroke-linejoin:miter;stroke-opacity:1" d="M 925.957,209.241 929.215,225.53 z" id="boundary" inkscape:connector-curvature="0" />
	<path style="fill:none;stroke:red;stroke-width:1px;stroke-linecap:butt;stroke-linejoin:miter;stroke-opacity:1" d="M 942.246,236.933 929.215,225.53 z" id="boundary" inkscape:connector-curvature="0" />
	<path style="fill:none;stroke:red;stroke-width:1px;stroke-linecap:butt;stroke-linejoin:miter;stroke-opacity:1" d="M 942.246,236.933 942.246,253.222 z" id="boundary" inkscape:connector-curvature="0" />
	<path style="fill:none;stroke:red;stroke-width:1px;stroke-linecap:butt;stroke-linejoin:miter;stroke-opacity:1" d="M 953.649,266.253 942.246,253.222 z" id="boundary" inkscape:connector-curvature="0" />
	<path style="fill:none;stroke:red;stroke-width:1px;stroke-linecap:butt;stroke-linejoin:miter;stroke-opacity:1" d="M 837.997,258.108 852.657,266.253 z" id="boundary" inkscape:connector-curvature="0" />
	<path style="fill:none;stroke:red;stroke-width:1px;stroke-linecap:butt;stroke-linejoin:miter;stroke-opacity:1" d="M 880.348,282.542 868.946,269.511 z" id="boundary" inkscape:connector-curvature="0" />
	<path style="fill:none;stroke:red;stroke-width:1px;stroke-linecap:butt;stroke-linejoin:miter;stroke-opacity:1" d="M 868.946,269.511 852.657,266.253 z" id="boundary" inkscape:connector-curvature="0" />
	<path style="fill:none;stroke:red;stroke-width:1px;stroke-linecap:butt;stroke-linejoin:miter;stroke-opacity:1" d="M 895.008,290.686 880.348,282.542 z" id="boundary" inkscape:connector-curvature="0" />
	<path style="fill:none;stroke:red;stroke-width:1px;stroke-linecap:butt;stroke-linejoin:miter;stroke-opacity:1" d="M 908.039,300.46 895.008,290.686 z" id="boundary" inkscape:connector-curvature="0" />
	<path style="fill:none;stroke:red;stroke-width:1px;stroke-linecap:butt;stroke-linejoin:miter;stroke-opacity:1" d="M 908.039,300.46 924.328,306.975 z" id="boundary" inkscape:connector-curvature="0" />
	<path style="fill:none;stroke:red;stroke-width:1px;stroke-linecap:butt;stroke-linejoin:miter;stroke-opacity:1" d="M 924.328,306.975 938.989,315.12 z" id="boundary" inkscape:connector-curvature="0" />
	<path style="fill:none;stroke:red;stroke-width:1px;stroke-linecap:butt;stroke-linejoin:miter;stroke-opacity:1" d="M 961.793,280.913 953.649,266.253 z" id="boundary" inkscape:connector-curvature="0" />
	<path style="fill:none;stroke:red;stroke-width:1px;stroke-linecap:butt;stroke-linejoin:miter;stroke-opacity:1" d="M 961.793,280.913 973.195,293.944 z" id="boundary" inkscape:connector-curvature="0" />
	<path style="fill:none;stroke:red;stroke-width:1px;stroke-linecap:butt;stroke-linejoin:miter;stroke-opacity:1" d="M 938.989,315.12 953.649,323.264 z" id="boundary" inkscape:connector-curvature="0" />
	<path style="fill:none;stroke:red;stroke-width:1px;stroke-linecap:butt;stroke-linejoin:miter;stroke-opacity:1" d="M 969.938,329.78 953.649,323.264 z" id="boundary" inkscape:connector-curvature="0" />
	<path style="fill:none;stroke:red;stroke-width:1px;stroke-linecap:butt;stroke-linejoin:miter;stroke-opacity:1" d="M 982.969,306.975 969.938,329.78 z" id="boundary" inkscape:connector-curvature="0" />
	<path style="fill:none;stroke:red;stroke-width:1px;stroke-linecap:butt;stroke-linejoin:miter;stroke-opacity:1" d="M 973.195,293.944 982.969,306.975 z" id="boundary" inkscape:connector-curvature="0" />
	<circle cx="4" cy="155.488" r="4" fill="#0" id="circle0"/>
	<circle cx="4" cy="171.777" r="4" fill="#0" id="circle1"/>
	<circle cx="12.1445" cy="186.437" r="4" fill="#0" id="circle2"/>
	<circle cx="17.0312" cy="142.456" r="4" fill="#0" id="circle3"/>
	<circle cx="23.5468" cy="199.468" r="4" fill="#0" id="circle4"/>
	<circle cx="33.3202" cy="134.312" r="4" fill="#0" id="circle5"/>
	<circle cx="36.578" cy="209.241" r="4" fill="#0" id="circle6"/>
	<circle cx="46.3514" cy="222.273" r="4" fill="#0" id="circle7"/>
	<circle cx="49.6092" cy="126.167" r="4" fill="#0" id="circle8"/>
	<circle cx="62.6404" cy="225.53" r="4" fill="#0" id="circle9"/>
	<circle cx="65.8982" cy="126.167" r="4" fill="#0" id="circle10"/>
	<circle cx="77.3005" cy="233.675" r="4" fill="#0" id="circle11"/>
	<circle cx="82.1872" cy="118.023" r="4" fill="#0" id="circle12"/>
	<circle cx="91.9606" cy="241.819" r="4" fill="#0" id="circle13"/>
	<circle cx="98.4762" cy="118.023" r="4" fill="#0" id="circle14"/>
	<circle cx="106.621" cy="249.964" r="4" fill="#0" id="circle15"/>
	<circle cx="113.136" cy="109.878" r="4" fill="#0" id="circle16"/>
	<circle cx="122.91" cy="249.964" r="4" fill="#0" id="circle17"/>
	<circle cx="129.425" cy="109.878" r="4" fill="#0" id="circle18"/>
	<circle cx="139.199" cy="249.964" r="4" fill="#0" id="circle19"/>
	<circle cx="144.085" cy="101.734" r="4" fill="#0" id="circle20"/>
	<circle cx="152.23" cy="261.366" r="4" fill="#0" id="circle21"/>
	<circle cx="160.374" cy="101.734" r="4" fill="#0" id="circle22"/>
	<circle cx="168.519" cy="266.253" r="4" fill="#0" id="circle23"/>
	<circle cx="176.663" cy="101.734" r="4" fill="#0" id="circle24"/>
	<circle cx="184.808" cy="269.511" r="4" fill="#0" id="circle25"/>
	<circle cx="191.323" cy="93.5895" r="4" fill="#0" id="circle26"/>
	<circle cx="201.097" cy="274.397" r="4" fill="#0" id="circle27"/>
	<circle cx="205.984" cy="101.734" r="4" fill="#0" id="circle28"/>
	<circle cx="215.757" cy="282.542" r="4" fill="#0" id="circle29"/>
	<circle cx="217.386" cy="88.7028" r="4" fill="#0" id="circle30"/>
	<circle cx="232.046" cy="282.542" r="4" fill="#0" id="circle31"/>
	<circle cx="233.675" cy="85.445" r="4" fill="#0" id="circle32"/>
	<circle cx="248.335" cy="282.542" r="4" fill="#0" id="circle33"/>
	<circle cx="249.964" cy="85.445" r="4" fill="#0" id="circle34"/>
	<circle cx="262.995" cy="290.686" r="4" fill="#0" id="circle35"/>
	<circle cx="266.253" cy="85.445" r="4" fill="#0" id="circle36"/>
	<circle cx="277.655" cy="298.831" r="4" fill="#0" id="circle37"/>
	<circle cx="282.542" cy="85.445" r="4" fill="#0" id="circle38"/>
	<circle cx="293.944" cy="305.346" r="4" fill="#0" id="circle39"/>
	<circle cx="297.202" cy="93.5895" r="4" fill="#0" id="circle40"/>
	<circle cx="305.346" cy="318.378" r="4" fill="#0" id="circle41"/>
	<circle cx="305.346" cy="334.667" r="4" fill="#0" id="circle42"/>
	<circle cx="311.862" cy="85.445" r="4" fill="#0" id="circle43"/>
	<circle cx="318.378" cy="346.069" r="4" fill="#0" id="circle44"/>
	<circle cx="328.151" cy="85.445" r="4" fill="#0" id="circle45"/>
	<circle cx="329.78" cy="359.1" r="4" fill="#0" id="circle46"/>
	<circle cx="337.924" cy="373.76" r="4" fill="#0" id="circle47"/>
	<circle cx="344.44" cy="85.445" r="4" fill="#0" id="circle48"/>
	<circle cx="354.213" cy="380.276" r="4" fill="#0" id="circle49"/>
	<circle cx="360.729" cy="85.445" r="4" fill="#0" id="circle50"/>
	<circle cx="367.245" cy="370.502" r="4" fill="#0" id="circle51"/>
	<circle cx="377.018" cy="85.445" r="4" fill="#0" id="circle52"/>
	<circle cx="380.276" cy="355.842" r="4" fill="#0" id="circle53"/>
	<circle cx="393.307" cy="85.445" r="4" fill="#0" id="circle54"/>
	<circle cx="393.307" cy="344.44" r="4" fill="#0" id="circle55"/>
	<circle cx="396.565" cy="315.12" r="4" fill="#0" id="circle56"/>
	<circle cx="404.709" cy="72.4138" r="4" fill="#0" id="circle57"/>
	<circle cx="411.225" cy="306.975" r="4" fill="#0" id="circle58"/>
	<circle cx="419.369" cy="57.7537" r="4" fill="#0" id="circle59"/>
	<circle cx="427.514" cy="306.975" r="4" fill="#0" id="circle60"/>
	<circle cx="432.401" cy="44.7225" r="4" fill="#0" id="circle61"/>
	<circle cx="440.545" cy="28.4335" r="4" fill="#0" id="circle62"/>
	<circle cx="443.803" cy="306.975" r="4" fill="#0" id="circle63"/>
	<circle cx="453.576" cy="15.4023" r="4" fill="#0" id="circle64"/>
	<circle cx="460.092" cy="306.975" r="4" fill="#0" id="circle65"/>
	<circle cx="466.608" cy="4" r="4" fill="#0" id="circle66"/>
	<circle cx="476.381" cy="306.975" r="4" fill="#0" id="circle67"/>
	<circle cx="481.268" cy="12.1445" r="4" fill="#0" id="circle68"/>
	<circle cx="486.154" cy="28.4335" r="4" fill="#0" id="circle69"/>
	<circle cx="492.67" cy="306.975" r="4" fill="#0" id="circle70"/>
	<circle cx="494.299" cy="43.0936" r="4" fill="#0" id="circle71"/>
	<circle cx="502.443" cy="57.7537" r="4" fill="#0" id="circle72"/>
	<circle cx="502.443" cy="74.0427" r="4" fill="#0" id="circle73"/>
	<circle cx="508.959" cy="306.975" r="4" fill="#0" id="circle74"/>
	<circle cx="515.475" cy="85.445" r="4" fill="#0" id="circle75"/>
	<circle cx="523.619" cy="298.831" r="4" fill="#0" id="circle76"/>
	<circle cx="531.764" cy="87.0739" r="4" fill="#0" id="circle77"/>
	<circle cx="539.908" cy="295.573" r="4" fill="#0" id="circle78"/>
	<circle cx="548.053" cy="85.445" r="4" fill="#0" id="circle79"/>
	<circle cx="556.197" cy="290.686" r="4" fill="#0" id="circle80"/>
	<circle cx="564.342" cy="85.445" r="4" fill="#0" id="circle81"/>
	<circle cx="572.486" cy="290.686" r="4" fill="#0" id="circle82"/>
	<circle cx="580.631" cy="85.445" r="4" fill="#0" id="circle83"/>
	<circle cx="587.146" cy="282.542" r="4" fill="#0" id="circle84"/>
	<circle cx="595.291" cy="297.202" r="4" fill="#0" id="circle85"/>
	<circle cx="596.92" cy="85.445" r="4" fill="#0" id="circle86"/>
	<circle cx="606.693" cy="310.233" r="4" fill="#0" id="circle87"/>
	<circle cx="613.209" cy="85.445" r="4" fill="#0" id="circle88"/>
	<circle cx="619.724" cy="321.635" r="4" fill="#0" id="circle89"/>
	<circle cx="627.869" cy="77.3005" r="4" fill="#0" id="circle90"/>
	<circle cx="631.126" cy="334.667" r="4" fill="#0" id="circle91"/>
	<circle cx="640.9" cy="64.2693" r="4" fill="#0" id="circle92"/>
	<circle cx="644.158" cy="346.069" r="4" fill="#0" id="circle93"/>
	<circle cx="653.931" cy="52.867" r="4" fill="#0" id="circle94"/>
	<circle cx="657.189" cy="355.842" r="4" fill="#0" id="circle95"/>
	<circle cx="665.333" cy="39.8358" r="4" fill="#0" id="circle96"/>
	<circle cx="671.849" cy="363.987" r="4" fill="#0" id="circle97"/>
	<circle cx="681.622" cy="36.578" r="4" fill="#0" id="circle98"/>
	<circle cx="681.622" cy="306.975" r="4" fill="#0" id="circle99"/>
	<circle cx="681.622" cy="323.264" r="4" fill="#0" id="circle100"/>
	<circle cx="681.622" cy="339.553" r="4" fill="#0" id="circle101"/>
	<circle cx="694.654" cy="295.573" r="4" fill="#0" id="circle102"/>
	<circle cx="697.911" cy="33.3202" r="4" fill="#0" id="circle103"/>
	<circle cx="697.911" cy="49.6092" r="4" fill="#0" id="circle104"/>
	<circle cx="697.911" cy="65.8982" r="4" fill="#0" id="circle105"/>
	<circle cx="697.911" cy="82.1872" r="4" fill="#0" id="circle106"/>
	<circle cx="697.911" cy="274.397" r="4" fill="#0" id="circle107"/>
	<circle cx="704.427" cy="98.4762" r="4" fill="#0" id="circle108"/>
	<circle cx="710.943" cy="262.995" r="4" fill="#0" id="circle109"/>
	<circle cx="714.2" cy="111.507" r="4" fill="#0" id="circle110"/>
	<circle cx="720.716" cy="249.964" r="4" fill="#0" id="circle111"/>
	<circle cx="727.232" cy="121.281" r="4" fill="#0" id="circle112"/>
	<circle cx="730.489" cy="233.675" r="4" fill="#0" id="circle113"/>
	<circle cx="738.634" cy="134.312" r="4" fill="#0" id="circle114"/>
	<circle cx="746.778" cy="233.675" r="4" fill="#0" id="circle115"/>
	<circle cx="754.923" cy="134.312" r="4" fill="#0" id="circle116"/>
	<circle cx="763.067" cy="233.675" r="4" fill="#0" id="circle117"/>
	<circle cx="771.212" cy="139.199" r="4" fill="#0" id="circle118"/>
	<circle cx="779.356" cy="236.933" r="4" fill="#0" id="circle119"/>
	<circle cx="787.501" cy="137.57" r="4" fill="#0" id="circle120"/>
	<circle cx="795.645" cy="236.933" r="4" fill="#0" id="circle121"/>
	<circle cx="803.79" cy="134.312" r="4" fill="#0" id="circle122"/>
	<circle cx="807.048" cy="249.964" r="4" fill="#0" id="circle123"/>
	<circle cx="818.45" cy="126.167" r="4" fill="#0" id="circle124"/>
	<circle cx="821.708" cy="258.108" r="4" fill="#0" id="circle125"/>
	<circle cx="834.739" cy="122.91" r="4" fill="#0" id="circle126"/>
	<circle cx="837.997" cy="258.108" r="4" fill="#0" id="circle127"/>
	<circle cx="851.028" cy="118.023" r="4" fill="#0" id="circle128"/>
	<circle cx="852.657" cy="266.253" r="4" fill="#0" id="circle129"/>
	<circle cx="865.688" cy="109.878" r="4" fill="#0" id="circle130"/>
	<circle cx="868.946" cy="269.511" r="4" fill="#0" id="circle131"/>
	<circle cx="880.348" cy="101.734" r="4" fill="#0" id="circle132"/>
	<circle cx="880.348" cy="282.542" r="4" fill="#0" id="circle133"/>
	<circle cx="895.008" cy="290.686" r="4" fill="#0" id="circle134"/>
	<circle cx="896.637" cy="93.5895" r="4" fill="#0" id="circle135"/>
	<circle cx="908.039" cy="300.46" r="4" fill="#0" id="circle136"/>
	<circle cx="911.297" cy="85.445" r="4" fill="#0" id="circle137"/>
	<circle cx="924.328" cy="306.975" r="4" fill="#0" id="circle138"/>
	<circle cx="925.957" cy="176.663" r="4" fill="#0" id="circle139"/>
	<circle cx="925.957" cy="192.952" r="4" fill="#0" id="circle140"/>
	<circle cx="925.957" cy="209.241" r="4" fill="#0" id="circle141"/>
	<circle cx="927.586" cy="85.445" r="4" fill="#0" id="circle142"/>
	<circle cx="929.215" cy="225.53" r="4" fill="#0" id="circle143"/>
	<circle cx="934.102" cy="160.374" r="4" fill="#0" id="circle144"/>
	<circle cx="938.989" cy="315.12" r="4" fill="#0" id="circle145"/>
	<circle cx="940.617" cy="74.0427" r="4" fill="#0" id="circle146"/>
	<circle cx="942.246" cy="144.085" r="4" fill="#0" id="circle147"/>
	<circle cx="942.246" cy="236.933" r="4" fill="#0" id="circle148"/>
	<circle cx="942.246" cy="253.222" r="4" fill="#0" id="circle149"/>
	<circle cx="950.391" cy="127.796" r="4" fill="#0" id="circle150"/>
	<circle cx="953.649" cy="266.253" r="4" fill="#0" id="circle151"/>
	<circle cx="953.649" cy="323.264" r="4" fill="#0" id="circle152"/>
	<circle cx="956.906" cy="65.8982" r="4" fill="#0" id="circle153"/>
	<circle cx="961.793" cy="280.913" r="4" fill="#0" id="circle154"/>
	<circle cx="963.422" cy="116.394" r="4" fill="#0" id="circle155"/>
	<circle cx="969.938" cy="329.78" r="4" fill="#0" id="circle156"/>
	<circle cx="971.567" cy="100.105" r="4" fill="#0" id="circle157"/>
	<circle cx="973.195" cy="65.8982" r="4" fill="#0" id="circle158"/>
	<circle cx="973.195" cy="293.944" r="4" fill="#0" id="circle159"/>
	<circle cx="982.969" cy="87.0739" r="4" fill="#0" id="circle160"/>
	<circle cx="982.969" cy="306.975" r="4" fill="#0" id="circle161"/>
	<circle cx="989.484" cy="61.0115" r="4" fill="#0" id="circle162"/>
	<circle cx="996" cy="77.3005" r="4" fill="#0" id="circle163"/>
	</g>
</svg>