<?xml version="1.0" encoding="UTF-8" standalone="no"?>
<!-- Created with CurveBenchmark -->
<svg
	xmlns:dc="http://purl.org/dc/elements/1.1/"
	xmlns:cc="http://creativecommons.org/ns#"
	xmlns:rdf="http://www.w3.org/1999/02/22-rdf-syntax-ns#"
	xmlns:svg="http://www.w3.org/2000/svg"
	xmlns="http://www.w3.org/2000/svg"
	xmlns:sodipodi="http://sodipodi.sourceforge.net/DTD/sodipodi-0.dtd"
	xmlns:inkscape="http://www.inkscape.org/namespaces/inkscape"
	width="1000"
	height="1000"
	id="svg2"
	version="1.1"
	sodipodi:docname="manifold/crust-bird200.png.txt">
<defs
	id="defs4" />
<metadata
	id="metadata7">
	<rdf:RDF>
		<cc:Work
			rdf:about="">
			<dc:format>image/svg+xml</dc:format>
			<dc:type
				rdf:resource="http://purl.org/dc/dcmitype/StillImage" />
			<dc:title></dc:title>
		</cc:Work>
	</rdf:RDF>
</metadata>
<g
	inkscape:label="Layer 1"
	inkscape:groupmode="layer"
	id="layer1">
	<path style="fill:none;stroke:red;stroke-width:1px;stroke-linecap:butt;stroke-linejoin:miter;stroke-opacity:1" d="M 97,112.5 81.5,159 z" id="boundary" inkscape:connector-curvature="0" />
	<path style="fill:none;stroke:red;stroke-width:1px;stroke-linecap:butt;stroke-linejoin:miter;stroke-opacity:1" d="M 128,89.25 97,112.5 z" id="boundary" inkscape:connector-curvature="0" />
	<path style="fill:none;stroke:red;stroke-width:1px;stroke-linecap:butt;stroke-linejoin:miter;stroke-opacity:1" d="M 166.75,73.75 128,89.25 z" id="boundary" inkscape:connector-curvature="0" />
	<path style="fill:none;stroke:red;stroke-width:1px;stroke-linecap:butt;stroke-linejoin:miter;stroke-opacity:1" d="M 205.5,73.75 166.75,73.75 z" id="boundary" inkscape:connector-curvature="0" />
	<path style="fill:none;stroke:red;stroke-width:1px;stroke-linecap:butt;stroke-linejoin:miter;stroke-opacity:1" d="M 205.5,73.75 244.25,81.5 z" id="boundary" inkscape:connector-curvature="0" />
	<path style="fill:none;stroke:red;stroke-width:1px;stroke-linecap:butt;stroke-linejoin:miter;stroke-opacity:1" d="M 58.25,190 81.5,159 z" id="boundary" inkscape:connector-curvature="0" />
	<path style="fill:none;stroke:red;stroke-width:1px;stroke-linecap:butt;stroke-linejoin:miter;stroke-opacity:1" d="M 58.25,190 27.25,228.75 z" id="boundary" inkscape:connector-curvature="0" />
	<path style="fill:none;stroke:red;stroke-width:1px;stroke-linecap:butt;stroke-linejoin:miter;stroke-opacity:1" d="M 128,224.875 93.125,244.25 z" id="boundary" inkscape:connector-curvature="0" />
	<path style="fill:none;stroke:red;stroke-width:1px;stroke-linecap:butt;stroke-linejoin:miter;stroke-opacity:1" d="M 93.125,244.25 62.125,275.25 z" id="boundary" inkscape:connector-curvature="0" />
	<path style="fill:none;stroke:red;stroke-width:1px;stroke-linecap:butt;stroke-linejoin:miter;stroke-opacity:1" d="M 201.625,190 166.75,209.375 z" id="boundary" inkscape:connector-curvature="0" />
	<path style="fill:none;stroke:red;stroke-width:1px;stroke-linecap:butt;stroke-linejoin:miter;stroke-opacity:1" d="M 128,224.875 166.75,209.375 z" id="boundary" inkscape:connector-curvature="0" />
	<path style="fill:none;stroke:red;stroke-width:1px;stroke-linecap:butt;stroke-linejoin:miter;stroke-opacity:1" d="M 236.5,228.75 228.75,283 z" id="boundary" inkscape:connector-curvature="0" />
	<path style="fill:none;stroke:red;stroke-width:1px;stroke-linecap:butt;stroke-linejoin:miter;stroke-opacity:1" d="M 201.625,190 236.5,228.75 z" id="boundary" inkscape:connector-curvature="0" />
	<path style="fill:none;stroke:red;stroke-width:1px;stroke-linecap:butt;stroke-linejoin:miter;stroke-opacity:1" d="M 27.25,228.75 4,259.75 z" id="boundary" inkscape:connector-curvature="0" />
	<path style="fill:none;stroke:red;stroke-width:1px;stroke-linecap:butt;stroke-linejoin:miter;stroke-opacity:1" d="M 279.125,100.875 244.25,81.5 z" id="boundary" inkscape:connector-curvature="0" />
	<path style="fill:none;stroke:red;stroke-width:1px;stroke-linecap:butt;stroke-linejoin:miter;stroke-opacity:1" d="M 302.375,131.875 279.125,100.875 z" id="boundary" inkscape:connector-curvature="0" />
	<path style="fill:none;stroke:red;stroke-width:1px;stroke-linecap:butt;stroke-linejoin:miter;stroke-opacity:1" d="M 422.5,35 461.25,19.5 z" id="boundary" inkscape:connector-curvature="0" />
	<path style="fill:none;stroke:red;stroke-width:1px;stroke-linecap:butt;stroke-linejoin:miter;stroke-opacity:1" d="M 538.75,4 500,11.75 z" id="boundary" inkscape:connector-curvature="0" />
	<path style="fill:none;stroke:red;stroke-width:1px;stroke-linecap:butt;stroke-linejoin:miter;stroke-opacity:1" d="M 500,11.75 461.25,19.5 z" id="boundary" inkscape:connector-curvature="0" />
	<path style="fill:none;stroke:red;stroke-width:1px;stroke-linecap:butt;stroke-linejoin:miter;stroke-opacity:1" d="M 345,120.25 364.375,85.375 z" id="boundary" inkscape:connector-curvature="0" />
	<path style="fill:none;stroke:red;stroke-width:1px;stroke-linecap:butt;stroke-linejoin:miter;stroke-opacity:1" d="M 364.375,85.375 387.625,54.375 z" id="boundary" inkscape:connector-curvature="0" />
	<path style="fill:none;stroke:red;stroke-width:1px;stroke-linecap:butt;stroke-linejoin:miter;stroke-opacity:1" d="M 387.625,54.375 422.5,35 z" id="boundary" inkscape:connector-curvature="0" />
	<path style="fill:none;stroke:red;stroke-width:1px;stroke-linecap:butt;stroke-linejoin:miter;stroke-opacity:1" d="M 577.5,4 538.75,4 z" id="boundary" inkscape:connector-curvature="0" />
	<path style="fill:none;stroke:red;stroke-width:1px;stroke-linecap:butt;stroke-linejoin:miter;stroke-opacity:1" d="M 321.75,166.75 302.375,131.875 z" id="boundary" inkscape:connector-curvature="0" />
	<path style="fill:none;stroke:red;stroke-width:1px;stroke-linecap:butt;stroke-linejoin:miter;stroke-opacity:1" d="M 426.375,221 461.25,240.375 z" id="boundary" inkscape:connector-curvature="0" />
	<path style="fill:none;stroke:red;stroke-width:1px;stroke-linecap:butt;stroke-linejoin:miter;stroke-opacity:1" d="M 426.375,221 403.125,252 z" id="boundary" inkscape:connector-curvature="0" />
	<path style="fill:none;stroke:red;stroke-width:1px;stroke-linecap:butt;stroke-linejoin:miter;stroke-opacity:1" d="M 492.25,267.5 461.25,240.375 z" id="boundary" inkscape:connector-curvature="0" />
	<path style="fill:none;stroke:red;stroke-width:1px;stroke-linecap:butt;stroke-linejoin:miter;stroke-opacity:1" d="M 23.375,294.625 4,259.75 z" id="boundary" inkscape:connector-curvature="0" />
	<path style="fill:none;stroke:red;stroke-width:1px;stroke-linecap:butt;stroke-linejoin:miter;stroke-opacity:1" d="M 23.375,294.625 62.125,275.25 z" id="boundary" inkscape:connector-curvature="0" />
	<path style="fill:none;stroke:red;stroke-width:1px;stroke-linecap:butt;stroke-linejoin:miter;stroke-opacity:1" d="M 228.75,283 240.375,321.75 z" id="boundary" inkscape:connector-curvature="0" />
	<path style="fill:none;stroke:red;stroke-width:1px;stroke-linecap:butt;stroke-linejoin:miter;stroke-opacity:1" d="M 263.625,352.75 240.375,321.75 z" id="boundary" inkscape:connector-curvature="0" />
	<path style="fill:none;stroke:red;stroke-width:1px;stroke-linecap:butt;stroke-linejoin:miter;stroke-opacity:1" d="M 372.125,352.75 337.25,372.125 z" id="boundary" inkscape:connector-curvature="0" />
	<path style="fill:none;stroke:red;stroke-width:1px;stroke-linecap:butt;stroke-linejoin:miter;stroke-opacity:1" d="M 298.5,372.125 263.625,352.75 z" id="boundary" inkscape:connector-curvature="0" />
	<path style="fill:none;stroke:red;stroke-width:1px;stroke-linecap:butt;stroke-linejoin:miter;stroke-opacity:1" d="M 298.5,372.125 337.25,372.125 z" id="boundary" inkscape:connector-curvature="0" />
	<path style="fill:none;stroke:red;stroke-width:1px;stroke-linecap:butt;stroke-linejoin:miter;stroke-opacity:1" d="M 372.125,352.75 395.375,306.25 z" id="boundary" inkscape:connector-curvature="0" />
	<path style="fill:none;stroke:red;stroke-width:1px;stroke-linecap:butt;stroke-linejoin:miter;stroke-opacity:1" d="M 395.375,306.25 403.125,252 z" id="boundary" inkscape:connector-curvature="0" />
	<path style="fill:none;stroke:red;stroke-width:1px;stroke-linecap:butt;stroke-linejoin:miter;stroke-opacity:1" d="M 492.25,267.5 507.75,306.25 z" id="boundary" inkscape:connector-curvature="0" />
	<path style="fill:none;stroke:red;stroke-width:1px;stroke-linecap:butt;stroke-linejoin:miter;stroke-opacity:1" d="M 511.625,345 515.5,383.75 z" id="boundary" inkscape:connector-curvature="0" />
	<path style="fill:none;stroke:red;stroke-width:1px;stroke-linecap:butt;stroke-linejoin:miter;stroke-opacity:1" d="M 507.75,306.25 511.625,345 z" id="boundary" inkscape:connector-curvature="0" />
	<path style="fill:none;stroke:red;stroke-width:1px;stroke-linecap:butt;stroke-linejoin:miter;stroke-opacity:1" d="M 515.5,383.75 523.25,422.5 z" id="boundary" inkscape:connector-curvature="0" />
	<path style="fill:none;stroke:red;stroke-width:1px;stroke-linecap:butt;stroke-linejoin:miter;stroke-opacity:1" d="M 523.25,422.5 531,461.25 z" id="boundary" inkscape:connector-curvature="0" />
	<path style="fill:none;stroke:red;stroke-width:1px;stroke-linecap:butt;stroke-linejoin:miter;stroke-opacity:1" d="M 445.75,984.375 414.75,957.25 z" id="boundary" inkscape:connector-curvature="0" />
	<path style="fill:none;stroke:red;stroke-width:1px;stroke-linecap:butt;stroke-linejoin:miter;stroke-opacity:1" d="M 503.875,941.75 465.125,949.5 z" id="boundary" inkscape:connector-curvature="0" />
	<path style="fill:none;stroke:red;stroke-width:1px;stroke-linecap:butt;stroke-linejoin:miter;stroke-opacity:1" d="M 484.5,992.125 445.75,984.375 z" id="boundary" inkscape:connector-curvature="0" />
	<path style="fill:none;stroke:red;stroke-width:1px;stroke-linecap:butt;stroke-linejoin:miter;stroke-opacity:1" d="M 523.25,992.125 484.5,992.125 z" id="boundary" inkscape:connector-curvature="0" />
	<path style="fill:none;stroke:red;stroke-width:1px;stroke-linecap:butt;stroke-linejoin:miter;stroke-opacity:1" d="M 538.75,918.5 503.875,941.75 z" id="boundary" inkscape:connector-curvature="0" />
	<path style="fill:none;stroke:red;stroke-width:1px;stroke-linecap:butt;stroke-linejoin:miter;stroke-opacity:1" d="M 531,461.25 542.625,500 z" id="boundary" inkscape:connector-curvature="0" />
	<path style="fill:none;stroke:red;stroke-width:1px;stroke-linecap:butt;stroke-linejoin:miter;stroke-opacity:1" d="M 577.5,4 616.25,4 z" id="boundary" inkscape:connector-curvature="0" />
	<path style="fill:none;stroke:red;stroke-width:1px;stroke-linecap:butt;stroke-linejoin:miter;stroke-opacity:1" d="M 616.25,4 655,19.5 z" id="boundary" inkscape:connector-curvature="0" />
	<path style="fill:none;stroke:red;stroke-width:1px;stroke-linecap:butt;stroke-linejoin:miter;stroke-opacity:1" d="M 693.75,35 728.625,54.375 z" id="boundary" inkscape:connector-curvature="0" />
	<path style="fill:none;stroke:red;stroke-width:1px;stroke-linecap:butt;stroke-linejoin:miter;stroke-opacity:1" d="M 655,19.5 693.75,35 z" id="boundary" inkscape:connector-curvature="0" />
	<path style="fill:none;stroke:red;stroke-width:1px;stroke-linecap:butt;stroke-linejoin:miter;stroke-opacity:1" d="M 697.625,364.375 658.875,368.25 z" id="boundary" inkscape:connector-curvature="0" />
	<path style="fill:none;stroke:red;stroke-width:1px;stroke-linecap:butt;stroke-linejoin:miter;stroke-opacity:1" d="M 658.875,368.25 658.875,407 z" id="boundary" inkscape:connector-curvature="0" />
	<path style="fill:none;stroke:red;stroke-width:1px;stroke-linecap:butt;stroke-linejoin:miter;stroke-opacity:1" d="M 732.5,383.75 697.625,364.375 z" id="boundary" inkscape:connector-curvature="0" />
	<path style="fill:none;stroke:red;stroke-width:1px;stroke-linecap:butt;stroke-linejoin:miter;stroke-opacity:1" d="M 658.875,445.75 658.875,407 z" id="boundary" inkscape:connector-curvature="0" />
	<path style="fill:none;stroke:red;stroke-width:1px;stroke-linecap:butt;stroke-linejoin:miter;stroke-opacity:1" d="M 732.5,383.75 767.375,403.125 z" id="boundary" inkscape:connector-curvature="0" />
	<path style="fill:none;stroke:red;stroke-width:1px;stroke-linecap:butt;stroke-linejoin:miter;stroke-opacity:1" d="M 728.625,54.375 763.5,73.75 z" id="boundary" inkscape:connector-curvature="0" />
	<path style="fill:none;stroke:red;stroke-width:1px;stroke-linecap:butt;stroke-linejoin:miter;stroke-opacity:1" d="M 794.5,100.875 821.625,131.875 z" id="boundary" inkscape:connector-curvature="0" />
	<path style="fill:none;stroke:red;stroke-width:1px;stroke-linecap:butt;stroke-linejoin:miter;stroke-opacity:1" d="M 821.625,131.875 852.625,159 z" id="boundary" inkscape:connector-curvature="0" />
	<path style="fill:none;stroke:red;stroke-width:1px;stroke-linecap:butt;stroke-linejoin:miter;stroke-opacity:1" d="M 794.5,100.875 763.5,73.75 z" id="boundary" inkscape:connector-curvature="0" />
	<path style="fill:none;stroke:red;stroke-width:1px;stroke-linecap:butt;stroke-linejoin:miter;stroke-opacity:1" d="M 879.75,190 910.75,217.125 z" id="boundary" inkscape:connector-curvature="0" />
	<path style="fill:none;stroke:red;stroke-width:1px;stroke-linecap:butt;stroke-linejoin:miter;stroke-opacity:1" d="M 879.75,190 852.625,159 z" id="boundary" inkscape:connector-curvature="0" />
	<path style="fill:none;stroke:red;stroke-width:1px;stroke-linecap:butt;stroke-linejoin:miter;stroke-opacity:1" d="M 910.75,217.125 937.875,248.125 z" id="boundary" inkscape:connector-curvature="0" />
	<path style="fill:none;stroke:red;stroke-width:1px;stroke-linecap:butt;stroke-linejoin:miter;stroke-opacity:1" d="M 957.25,283 937.875,248.125 z" id="boundary" inkscape:connector-curvature="0" />
	<path style="fill:none;stroke:red;stroke-width:1px;stroke-linecap:butt;stroke-linejoin:miter;stroke-opacity:1" d="M 976.625,317.875 957.25,283 z" id="boundary" inkscape:connector-curvature="0" />
	<path style="fill:none;stroke:red;stroke-width:1px;stroke-linecap:butt;stroke-linejoin:miter;stroke-opacity:1" d="M 918.5,414.75 883.625,434.125 z" id="boundary" inkscape:connector-curvature="0" />
	<path style="fill:none;stroke:red;stroke-width:1px;stroke-linecap:butt;stroke-linejoin:miter;stroke-opacity:1" d="M 806.125,418.625 767.375,403.125 z" id="boundary" inkscape:connector-curvature="0" />
	<path style="fill:none;stroke:red;stroke-width:1px;stroke-linecap:butt;stroke-linejoin:miter;stroke-opacity:1" d="M 806.125,418.625 844.875,434.125 z" id="boundary" inkscape:connector-curvature="0" />
	<path style="fill:none;stroke:red;stroke-width:1px;stroke-linecap:butt;stroke-linejoin:miter;stroke-opacity:1" d="M 883.625,434.125 844.875,434.125 z" id="boundary" inkscape:connector-curvature="0" />
	<path style="fill:none;stroke:red;stroke-width:1px;stroke-linecap:butt;stroke-linejoin:miter;stroke-opacity:1" d="M 976.625,317.875 996,352.75 z" id="boundary" inkscape:connector-curvature="0" />
	<path style="fill:none;stroke:red;stroke-width:1px;stroke-linecap:butt;stroke-linejoin:miter;stroke-opacity:1" d="M 953.375,434.125 918.5,414.75 z" id="boundary" inkscape:connector-curvature="0" />
	<path style="fill:none;stroke:red;stroke-width:1px;stroke-linecap:butt;stroke-linejoin:miter;stroke-opacity:1" d="M 992.125,426.375 953.375,434.125 z" id="boundary" inkscape:connector-curvature="0" />
	<path style="fill:none;stroke:red;stroke-width:1px;stroke-linecap:butt;stroke-linejoin:miter;stroke-opacity:1" d="M 996,352.75 992.125,426.375 z" id="boundary" inkscape:connector-curvature="0" />
	<path style="fill:none;stroke:red;stroke-width:1px;stroke-linecap:butt;stroke-linejoin:miter;stroke-opacity:1" d="M 554.25,538.75 562,577.5 z" id="boundary" inkscape:connector-curvature="0" />
	<path style="fill:none;stroke:red;stroke-width:1px;stroke-linecap:butt;stroke-linejoin:miter;stroke-opacity:1" d="M 554.25,538.75 542.625,500 z" id="boundary" inkscape:connector-curvature="0" />
	<path style="fill:none;stroke:red;stroke-width:1px;stroke-linecap:butt;stroke-linejoin:miter;stroke-opacity:1" d="M 569.75,616.25 569.75,655 z" id="boundary" inkscape:connector-curvature="0" />
	<path style="fill:none;stroke:red;stroke-width:1px;stroke-linecap:butt;stroke-linejoin:miter;stroke-opacity:1" d="M 569.75,616.25 562,577.5 z" id="boundary" inkscape:connector-curvature="0" />
	<path style="fill:none;stroke:red;stroke-width:1px;stroke-linecap:butt;stroke-linejoin:miter;stroke-opacity:1" d="M 569.75,655 569.75,717 z" id="boundary" inkscape:connector-curvature="0" />
	<path style="fill:none;stroke:red;stroke-width:1px;stroke-linecap:butt;stroke-linejoin:miter;stroke-opacity:1" d="M 569.75,717 562,771.25 z" id="boundary" inkscape:connector-curvature="0" />
	<path style="fill:none;stroke:red;stroke-width:1px;stroke-linecap:butt;stroke-linejoin:miter;stroke-opacity:1" d="M 546.5,864.25 538.75,918.5 z" id="boundary" inkscape:connector-curvature="0" />
	<path style="fill:none;stroke:red;stroke-width:1px;stroke-linecap:butt;stroke-linejoin:miter;stroke-opacity:1" d="M 562,771.25 554.25,817.75 z" id="boundary" inkscape:connector-curvature="0" />
	<path style="fill:none;stroke:red;stroke-width:1px;stroke-linecap:butt;stroke-linejoin:miter;stroke-opacity:1" d="M 554.25,817.75 546.5,864.25 z" id="boundary" inkscape:connector-curvature="0" />
	<path style="fill:none;stroke:red;stroke-width:1px;stroke-linecap:butt;stroke-linejoin:miter;stroke-opacity:1" d="M 562,992.125 523.25,992.125 z" id="boundary" inkscape:connector-curvature="0" />
	<path style="fill:none;stroke:red;stroke-width:1px;stroke-linecap:butt;stroke-linejoin:miter;stroke-opacity:1" d="M 620.125,934 600.75,992.125 z" id="boundary" inkscape:connector-curvature="0" />
	<path style="fill:none;stroke:red;stroke-width:1px;stroke-linecap:butt;stroke-linejoin:miter;stroke-opacity:1" d="M 600.75,992.125 562,992.125 z" id="boundary" inkscape:connector-curvature="0" />
	<path style="fill:none;stroke:red;stroke-width:1px;stroke-linecap:butt;stroke-linejoin:miter;stroke-opacity:1" d="M 658.875,484.5 658.875,523.25 z" id="boundary" inkscape:connector-curvature="0" />
	<path style="fill:none;stroke:red;stroke-width:1px;stroke-linecap:butt;stroke-linejoin:miter;stroke-opacity:1" d="M 658.875,484.5 658.875,445.75 z" id="boundary" inkscape:connector-curvature="0" />
	<path style="fill:none;stroke:red;stroke-width:1px;stroke-linecap:butt;stroke-linejoin:miter;stroke-opacity:1" d="M 658.875,562 658.875,523.25 z" id="boundary" inkscape:connector-curvature="0" />
	<path style="fill:none;stroke:red;stroke-width:1px;stroke-linecap:butt;stroke-linejoin:miter;stroke-opacity:1" d="M 658.875,562 658.875,600.75 z" id="boundary" inkscape:connector-curvature="0" />
	<path style="fill:none;stroke:red;stroke-width:1px;stroke-linecap:butt;stroke-linejoin:miter;stroke-opacity:1" d="M 658.875,600.75 658.875,639.5 z" id="boundary" inkscape:connector-curvature="0" />
	<path style="fill:none;stroke:red;stroke-width:1px;stroke-linecap:butt;stroke-linejoin:miter;stroke-opacity:1" d="M 651.125,717 643.375,771.25 z" id="boundary" inkscape:connector-curvature="0" />
	<path style="fill:none;stroke:red;stroke-width:1px;stroke-linecap:butt;stroke-linejoin:miter;stroke-opacity:1" d="M 658.875,678.25 651.125,717 z" id="boundary" inkscape:connector-curvature="0" />
	<path style="fill:none;stroke:red;stroke-width:1px;stroke-linecap:butt;stroke-linejoin:miter;stroke-opacity:1" d="M 658.875,639.5 658.875,678.25 z" id="boundary" inkscape:connector-curvature="0" />
	<path style="fill:none;stroke:red;stroke-width:1px;stroke-linecap:butt;stroke-linejoin:miter;stroke-opacity:1" d="M 620.125,934 627.875,872 z" id="boundary" inkscape:connector-curvature="0" />
	<path style="fill:none;stroke:red;stroke-width:1px;stroke-linecap:butt;stroke-linejoin:miter;stroke-opacity:1" d="M 627.875,872 635.625,817.75 z" id="boundary" inkscape:connector-curvature="0" />
	<path style="fill:none;stroke:red;stroke-width:1px;stroke-linecap:butt;stroke-linejoin:miter;stroke-opacity:1" d="M 643.375,771.25 635.625,817.75 z" id="boundary" inkscape:connector-curvature="0" />
	<circle cx="4" cy="259.75" r="4" fill="#0" id="circle0"/>
	<circle cx="23.375" cy="294.625" r="4" fill="#0" id="circle1"/>
	<circle cx="27.25" cy="228.75" r="4" fill="#0" id="circle2"/>
	<circle cx="58.25" cy="190" r="4" fill="#0" id="circle3"/>
	<circle cx="62.125" cy="275.25" r="4" fill="#0" id="circle4"/>
	<circle cx="81.5" cy="159" r="4" fill="#0" id="circle5"/>
	<circle cx="93.125" cy="244.25" r="4" fill="#0" id="circle6"/>
	<circle cx="97" cy="112.5" r="4" fill="#0" id="circle7"/>
	<circle cx="128" cy="89.25" r="4" fill="#0" id="circle8"/>
	<circle cx="128" cy="224.875" r="4" fill="#0" id="circle9"/>
	<circle cx="166.75" cy="73.75" r="4" fill="#0" id="circle10"/>
	<circle cx="166.75" cy="209.375" r="4" fill="#0" id="circle11"/>
	<circle cx="201.625" cy="190" r="4" fill="#0" id="circle12"/>
	<circle cx="205.5" cy="73.75" r="4" fill="#0" id="circle13"/>
	<circle cx="228.75" cy="283" r="4" fill="#0" id="circle14"/>
	<circle cx="236.5" cy="228.75" r="4" fill="#0" id="circle15"/>
	<circle cx="240.375" cy="321.75" r="4" fill="#0" id="circle16"/>
	<circle cx="244.25" cy="81.5" r="4" fill="#0" id="circle17"/>
	<circle cx="263.625" cy="352.75" r="4" fill="#0" id="circle18"/>
	<circle cx="279.125" cy="100.875" r="4" fill="#0" id="circle19"/>
	<circle cx="298.5" cy="372.125" r="4" fill="#0" id="circle20"/>
	<circle cx="302.375" cy="131.875" r="4" fill="#0" id="circle21"/>
	<circle cx="321.75" cy="166.75" r="4" fill="#0" id="circle22"/>
	<circle cx="337.25" cy="372.125" r="4" fill="#0" id="circle23"/>
	<circle cx="345" cy="120.25" r="4" fill="#0" id="circle24"/>
	<circle cx="364.375" cy="85.375" r="4" fill="#0" id="circle25"/>
	<circle cx="372.125" cy="352.75" r="4" fill="#0" id="circle26"/>
	<circle cx="387.625" cy="54.375" r="4" fill="#0" id="circle27"/>
	<circle cx="395.375" cy="306.25" r="4" fill="#0" id="circle28"/>
	<circle cx="403.125" cy="252" r="4" fill="#0" id="circle29"/>
	<circle cx="414.75" cy="957.25" r="4" fill="#0" id="circle30"/>
	<circle cx="422.5" cy="35" r="4" fill="#0" id="circle31"/>
	<circle cx="426.375" cy="221" r="4" fill="#0" id="circle32"/>
	<circle cx="445.75" cy="984.375" r="4" fill="#0" id="circle33"/>
	<circle cx="461.25" cy="19.5" r="4" fill="#0" id="circle34"/>
	<circle cx="461.25" cy="240.375" r="4" fill="#0" id="circle35"/>
	<circle cx="465.125" cy="949.5" r="4" fill="#0" id="circle36"/>
	<circle cx="484.5" cy="992.125" r="4" fill="#0" id="circle37"/>
	<circle cx="492.25" cy="267.5" r="4" fill="#0" id="circle38"/>
	<circle cx="500" cy="11.75" r="4" fill="#0" id="circle39"/>
	<circle cx="503.875" cy="941.75" r="4" fill="#0" id="circle40"/>
	<circle cx="507.75" cy="306.25" r="4" fill="#0" id="circle41"/>
	<circle cx="511.625" cy="345" r="4" fill="#0" id="circle42"/>
	<circle cx="515.5" cy="383.75" r="4" fill="#0" id="circle43"/>
	<circle cx="523.25" cy="422.5" r="4" fill="#0" id="circle44"/>
	<circle cx="523.25" cy="992.125" r="4" fill="#0" id="circle45"/>
	<circle cx="531" cy="461.25" r="4" fill="#0" id="circle46"/>
	<circle cx="538.75" cy="4" r="4" fill="#0" id="circle47"/>
	<circle cx="538.75" cy="918.5" r="4" fill="#0" id="circle48"/>
	<circle cx="542.625" cy="500" r="4" fill="#0" id="circle49"/>
	<circle cx="546.5" cy="864.25" r="4" fill="#0" id="circle50"/>
	<circle cx="554.25" cy="538.75" r="4" fill="#0" id="circle51"/>
	<circle cx="554.25" cy="817.75" r="4" fill="#0" id="circle52"/>
	<circle cx="562" cy="577.5" r="4" fill="#0" id="circle53"/>
	<circle cx="562" cy="771.25" r="4" fill="#0" id="circle54"/>
	<circle cx="562" cy="992.125" r="4" fill="#0" id="circle55"/>
	<circle cx="569.75" cy="616.25" r="4" fill="#0" id="circle56"/>
	<circle cx="569.75" cy="655" r="4" fill="#0" id="circle57"/>
	<circle cx="569.75" cy="717" r="4" fill="#0" id="circle58"/>
	<circle cx="577.5" cy="4" r="4" fill="#0" id="circle59"/>
	<circle cx="600.75" cy="992.125" r="4" fill="#0" id="circle60"/>
	<circle cx="616.25" cy="4" r="4" fill="#0" id="circle61"/>
	<circle cx="620.125" cy="934" r="4" fill="#0" id="circle62"/>
	<circle cx="627.875" cy="872" r="4" fill="#0" id="circle63"/>
	<circle cx="635.625" cy="817.75" r="4" fill="#0" id="circle64"/>
	<circle cx="643.375" cy="771.25" r="4" fill="#0" id="circle65"/>
	<circle cx="651.125" cy="717" r="4" fill="#0" id="circle66"/>
	<circle cx="655" cy="19.5" r="4" fill="#0" id="circle67"/>
	<circle cx="658.875" cy="368.25" r="4" fill="#0" id="circle68"/>
	<circle cx="658.875" cy="407" r="4" fill="#0" id="circle69"/>
	<circle cx="658.875" cy="445.75" r="4" fill="#0" id="circle70"/>
	<circle cx="658.875" cy="484.5" r="4" fill="#0" id="circle71"/>
	<circle cx="658.875" cy="523.25" r="4" fill="#0" id="circle72"/>
	<circle cx="658.875" cy="562" r="4" fill="#0" id="circle73"/>
	<circle cx="658.875" cy="600.75" r="4" fill="#0" id="circle74"/>
	<circle cx="658.875" cy="639.5" r="4" fill="#0" id="circle75"/>
	<circle cx="658.875" cy="678.25" r="4" fill="#0" id="circle76"/>
	<circle cx="693.75" cy="35" r="4" fill="#0" id="circle77"/>
	<circle cx="697.625" cy="364.375" r="4" fill="#0" id="circle78"/>
	<circle cx="728.625" cy="54.375" r="4" fill="#0" id="circle79"/>
	<circle cx="732.5" cy="383.75" r="4" fill="#0" id="circle80"/>
	<circle cx="763.5" cy="73.75" r="4" fill="#0" id="circle81"/>
	<circle cx="767.375" cy="403.125" r="4" fill="#0" id="circle82"/>
	<circle cx="794.5" cy="100.875" r="4" fill="#0" id="circle83"/>
	<circle cx="806.125" cy="418.625" r="4" fill="#0" id="circle84"/>
	<circle cx="821.625" cy="131.875" r="4" fill="#0" id="circle85"/>
	<circle cx="844.875" cy="434.125" r="4" fill="#0" id="circle86"/>
	<circle cx="852.625" cy="159" r="4" fill="#0" id="circle87"/>
	<circle cx="879.75" cy="190" r="4" fill="#0" id="circle88"/>
	<circle cx="883.625" cy="434.125" r="4" fill="#0" id="circle89"/>
	<circle cx="910.75" cy="217.125" r="4" fill="#0" id="circle90"/>
	<circle cx="918.5" cy="414.75" r="4" fill="#0" id="circle91"/>
	<circle cx="937.875" cy="248.125" r="4" fill="#0" id="circle92"/>
	<circle cx="953.375" cy="434.125" r="4" fill="#0" id="circle93"/>
	<circle cx="957.25" cy="283" r="4" fill="#0" id="circle94"/>
	<circle cx="976.625" cy="317.875" r="4" fill="#0" id="circle95"/>
	<circle cx="992.125" cy="426.375" r="4" fill="#0" id="circle96"/>
	<circle cx="996" cy="352.75" r="4" fill="#0" id="circle97"/>
	</g>
</svg>