<?xml version="1.0" encoding="UTF-8" standalone="no"?>
<!-- Created with CurveBenchmark -->
<svg
	xmlns:dc="http://purl.org/dc/elements/1.1/"
	xmlns:cc="http://creativecommons.org/ns#"
	xmlns:rdf="http://www.w3.org/1999/02/22-rdf-syntax-ns#"
	xmlns:svg="http://www.w3.org/2000/svg"
	xmlns="http://www.w3.org/2000/svg"
	xmlns:sodipodi="http://sodipodi.sourceforge.net/DTD/sodipodi-0.dtd"
	xmlns:inkscape="http://www.inkscape.org/namespaces/inkscape"
	width="1000"
	height="1000"
	id="svg2"
	version="1.1"
	sodipodi:docname="manifold/crust-mulletsocc4.png.txt">
<defs
	id="defs4" />
<metadata
	id="metadata7">
	<rdf:RDF>
		<cc:Work
			rdf:about="">
			<dc:format>image/svg+xml</dc:format>
			<dc:type
				rdf:resource="http://purl.org/dc/dcmitype/StillImage" />
			<dc:title></dc:title>
		</cc:Work>
	</rdf:RDF>
</metadata>
<g
	inkscape:label="Layer 1"
	inkscape:groupmode="layer"
	id="layer1">
	<path style="fill:none;stroke:red;stroke-width:1px;stroke-linecap:butt;stroke-linejoin:miter;stroke-opacity:1" d="M 4,37.6271 18.9454,22.6817 z" id="boundary" inkscape:connector-curvature="0" />
	<path style="fill:none;stroke:red;stroke-width:1px;stroke-linecap:butt;stroke-linejoin:miter;stroke-opacity:1" d="M 4,56.3089 4,37.6271 z" id="boundary" inkscape:connector-curvature="0" />
	<path style="fill:none;stroke:red;stroke-width:1px;stroke-linecap:butt;stroke-linejoin:miter;stroke-opacity:1" d="M 33.8908,7.73635 52.5725,4 z" id="boundary" inkscape:connector-curvature="0" />
	<path style="fill:none;stroke:red;stroke-width:1px;stroke-linecap:butt;stroke-linejoin:miter;stroke-opacity:1" d="M 18.9454,22.6817 33.8908,7.73635 z" id="boundary" inkscape:connector-curvature="0" />
	<path style="fill:none;stroke:red;stroke-width:1px;stroke-linecap:butt;stroke-linejoin:miter;stroke-opacity:1" d="M 4,74.9906 4,56.3089 z" id="boundary" inkscape:connector-curvature="0" />
	<path style="fill:none;stroke:red;stroke-width:1px;stroke-linecap:butt;stroke-linejoin:miter;stroke-opacity:1" d="M 18.9454,88.0678 4,74.9906 z" id="boundary" inkscape:connector-curvature="0" />
	<path style="fill:none;stroke:red;stroke-width:1px;stroke-linecap:butt;stroke-linejoin:miter;stroke-opacity:1" d="M 52.5725,4 71.2542,4 z" id="boundary" inkscape:connector-curvature="0" />
	<path style="fill:none;stroke:red;stroke-width:1px;stroke-linecap:butt;stroke-linejoin:miter;stroke-opacity:1" d="M 108.618,13.3409 89.936,9.60452 z" id="boundary" inkscape:connector-curvature="0" />
	<path style="fill:none;stroke:red;stroke-width:1px;stroke-linecap:butt;stroke-linejoin:miter;stroke-opacity:1" d="M 89.936,9.60452 71.2542,4 z" id="boundary" inkscape:connector-curvature="0" />
	<path style="fill:none;stroke:red;stroke-width:1px;stroke-linecap:butt;stroke-linejoin:miter;stroke-opacity:1" d="M 127.299,18.9454 108.618,13.3409 z" id="boundary" inkscape:connector-curvature="0" />
	<path style="fill:none;stroke:red;stroke-width:1px;stroke-linecap:butt;stroke-linejoin:miter;stroke-opacity:1" d="M 144.113,28.2863 127.299,18.9454 z" id="boundary" inkscape:connector-curvature="0" />
	<path style="fill:none;stroke:red;stroke-width:1px;stroke-linecap:butt;stroke-linejoin:miter;stroke-opacity:1" d="M 144.113,28.2863 162.795,32.0226 z" id="boundary" inkscape:connector-curvature="0" />
	<path style="fill:none;stroke:red;stroke-width:1px;stroke-linecap:butt;stroke-linejoin:miter;stroke-opacity:1" d="M 162.795,32.0226 179.608,41.3635 z" id="boundary" inkscape:connector-curvature="0" />
	<path style="fill:none;stroke:red;stroke-width:1px;stroke-linecap:butt;stroke-linejoin:miter;stroke-opacity:1" d="M 196.422,50.7043 179.608,41.3635 z" id="boundary" inkscape:connector-curvature="0" />
	<path style="fill:none;stroke:red;stroke-width:1px;stroke-linecap:butt;stroke-linejoin:miter;stroke-opacity:1" d="M 196.422,50.7043 215.104,50.7043 z" id="boundary" inkscape:connector-curvature="0" />
	<path style="fill:none;stroke:red;stroke-width:1px;stroke-linecap:butt;stroke-linejoin:miter;stroke-opacity:1" d="M 26.4181,106.75 18.9454,88.0678 z" id="boundary" inkscape:connector-curvature="0" />
	<path style="fill:none;stroke:red;stroke-width:1px;stroke-linecap:butt;stroke-linejoin:miter;stroke-opacity:1" d="M 41.3635,117.959 26.4181,106.75 z" id="boundary" inkscape:connector-curvature="0" />
	<path style="fill:none;stroke:red;stroke-width:1px;stroke-linecap:butt;stroke-linejoin:miter;stroke-opacity:1" d="M 41.3635,117.959 52.5725,132.904 z" id="boundary" inkscape:connector-curvature="0" />
	<path style="fill:none;stroke:red;stroke-width:1px;stroke-linecap:butt;stroke-linejoin:miter;stroke-opacity:1" d="M 67.5179,145.981 80.5951,160.927 z" id="boundary" inkscape:connector-curvature="0" />
	<path style="fill:none;stroke:red;stroke-width:1px;stroke-linecap:butt;stroke-linejoin:miter;stroke-opacity:1" d="M 80.5951,160.927 95.5405,174.004 z" id="boundary" inkscape:connector-curvature="0" />
	<path style="fill:none;stroke:red;stroke-width:1px;stroke-linecap:butt;stroke-linejoin:miter;stroke-opacity:1" d="M 67.5179,145.981 52.5725,132.904 z" id="boundary" inkscape:connector-curvature="0" />
	<path style="fill:none;stroke:red;stroke-width:1px;stroke-linecap:butt;stroke-linejoin:miter;stroke-opacity:1" d="M 108.618,188.949 95.5405,174.004 z" id="boundary" inkscape:connector-curvature="0" />
	<path style="fill:none;stroke:red;stroke-width:1px;stroke-linecap:butt;stroke-linejoin:miter;stroke-opacity:1" d="M 123.563,202.026 108.618,188.949 z" id="boundary" inkscape:connector-curvature="0" />
	<path style="fill:none;stroke:red;stroke-width:1px;stroke-linecap:butt;stroke-linejoin:miter;stroke-opacity:1" d="M 136.64,216.972 123.563,202.026 z" id="boundary" inkscape:connector-curvature="0" />
	<path style="fill:none;stroke:red;stroke-width:1px;stroke-linecap:butt;stroke-linejoin:miter;stroke-opacity:1" d="M 231.917,60.0452 215.104,50.7043 z" id="boundary" inkscape:connector-curvature="0" />
	<path style="fill:none;stroke:red;stroke-width:1px;stroke-linecap:butt;stroke-linejoin:miter;stroke-opacity:1" d="M 248.731,69.3861 265.544,78.7269 z" id="boundary" inkscape:connector-curvature="0" />
	<path style="fill:none;stroke:red;stroke-width:1px;stroke-linecap:butt;stroke-linejoin:miter;stroke-opacity:1" d="M 248.731,69.3861 231.917,60.0452 z" id="boundary" inkscape:connector-curvature="0" />
	<path style="fill:none;stroke:red;stroke-width:1px;stroke-linecap:butt;stroke-linejoin:miter;stroke-opacity:1" d="M 282.358,88.0678 299.171,97.4087 z" id="boundary" inkscape:connector-curvature="0" />
	<path style="fill:none;stroke:red;stroke-width:1px;stroke-linecap:butt;stroke-linejoin:miter;stroke-opacity:1" d="M 315.985,106.75 332.798,116.09 z" id="boundary" inkscape:connector-curvature="0" />
	<path style="fill:none;stroke:red;stroke-width:1px;stroke-linecap:butt;stroke-linejoin:miter;stroke-opacity:1" d="M 315.985,106.75 299.171,97.4087 z" id="boundary" inkscape:connector-curvature="0" />
	<path style="fill:none;stroke:red;stroke-width:1px;stroke-linecap:butt;stroke-linejoin:miter;stroke-opacity:1" d="M 282.358,88.0678 265.544,78.7269 z" id="boundary" inkscape:connector-curvature="0" />
	<path style="fill:none;stroke:red;stroke-width:1px;stroke-linecap:butt;stroke-linejoin:miter;stroke-opacity:1" d="M 349.612,125.431 332.798,116.09 z" id="boundary" inkscape:connector-curvature="0" />
	<path style="fill:none;stroke:red;stroke-width:1px;stroke-linecap:butt;stroke-linejoin:miter;stroke-opacity:1" d="M 508.407,103.013 489.725,112.354 z" id="boundary" inkscape:connector-curvature="0" />
	<path style="fill:none;stroke:red;stroke-width:1px;stroke-linecap:butt;stroke-linejoin:miter;stroke-opacity:1" d="M 508.407,103.013 527.089,110.486 z" id="boundary" inkscape:connector-curvature="0" />
	<path style="fill:none;stroke:red;stroke-width:1px;stroke-linecap:butt;stroke-linejoin:miter;stroke-opacity:1" d="M 489.725,112.354 471.043,121.695 z" id="boundary" inkscape:connector-curvature="0" />
	<path style="fill:none;stroke:red;stroke-width:1px;stroke-linecap:butt;stroke-linejoin:miter;stroke-opacity:1" d="M 383.239,144.113 366.426,134.772 z" id="boundary" inkscape:connector-curvature="0" />
	<path style="fill:none;stroke:red;stroke-width:1px;stroke-linecap:butt;stroke-linejoin:miter;stroke-opacity:1" d="M 366.426,134.772 349.612,125.431 z" id="boundary" inkscape:connector-curvature="0" />
	<path style="fill:none;stroke:red;stroke-width:1px;stroke-linecap:butt;stroke-linejoin:miter;stroke-opacity:1" d="M 400.053,153.454 383.239,144.113 z" id="boundary" inkscape:connector-curvature="0" />
	<path style="fill:none;stroke:red;stroke-width:1px;stroke-linecap:butt;stroke-linejoin:miter;stroke-opacity:1" d="M 418.734,153.454 400.053,153.454 z" id="boundary" inkscape:connector-curvature="0" />
	<path style="fill:none;stroke:red;stroke-width:1px;stroke-linecap:butt;stroke-linejoin:miter;stroke-opacity:1" d="M 456.098,136.64 437.416,145.981 z" id="boundary" inkscape:connector-curvature="0" />
	<path style="fill:none;stroke:red;stroke-width:1px;stroke-linecap:butt;stroke-linejoin:miter;stroke-opacity:1" d="M 437.416,145.981 418.734,153.454 z" id="boundary" inkscape:connector-curvature="0" />
	<path style="fill:none;stroke:red;stroke-width:1px;stroke-linecap:butt;stroke-linejoin:miter;stroke-opacity:1" d="M 456.098,136.64 471.043,121.695 z" id="boundary" inkscape:connector-curvature="0" />
	<path style="fill:none;stroke:red;stroke-width:1px;stroke-linecap:butt;stroke-linejoin:miter;stroke-opacity:1" d="M 528.957,183.345 519.616,202.026 z" id="boundary" inkscape:connector-curvature="0" />
	<path style="fill:none;stroke:red;stroke-width:1px;stroke-linecap:butt;stroke-linejoin:miter;stroke-opacity:1" d="M 519.616,202.026 528.957,218.84 z" id="boundary" inkscape:connector-curvature="0" />
	<path style="fill:none;stroke:red;stroke-width:1px;stroke-linecap:butt;stroke-linejoin:miter;stroke-opacity:1" d="M 136.64,216.972 151.586,230.049 z" id="boundary" inkscape:connector-curvature="0" />
	<path style="fill:none;stroke:red;stroke-width:1px;stroke-linecap:butt;stroke-linejoin:miter;stroke-opacity:1" d="M 151.586,230.049 164.663,244.994 z" id="boundary" inkscape:connector-curvature="0" />
	<path style="fill:none;stroke:red;stroke-width:1px;stroke-linecap:butt;stroke-linejoin:miter;stroke-opacity:1" d="M 179.608,258.072 192.685,273.017 z" id="boundary" inkscape:connector-curvature="0" />
	<path style="fill:none;stroke:red;stroke-width:1px;stroke-linecap:butt;stroke-linejoin:miter;stroke-opacity:1" d="M 179.608,258.072 164.663,244.994 z" id="boundary" inkscape:connector-curvature="0" />
	<path style="fill:none;stroke:red;stroke-width:1px;stroke-linecap:butt;stroke-linejoin:miter;stroke-opacity:1" d="M 192.685,273.017 200.158,291.699 z" id="boundary" inkscape:connector-curvature="0" />
	<path style="fill:none;stroke:red;stroke-width:1px;stroke-linecap:butt;stroke-linejoin:miter;stroke-opacity:1" d="M 200.158,310.38 200.158,291.699 z" id="boundary" inkscape:connector-curvature="0" />
	<path style="fill:none;stroke:red;stroke-width:1px;stroke-linecap:butt;stroke-linejoin:miter;stroke-opacity:1" d="M 200.158,310.38 200.158,329.062 z" id="boundary" inkscape:connector-curvature="0" />
	<path style="fill:none;stroke:red;stroke-width:1px;stroke-linecap:butt;stroke-linejoin:miter;stroke-opacity:1" d="M 200.158,347.744 200.158,329.062 z" id="boundary" inkscape:connector-curvature="0" />
	<path style="fill:none;stroke:red;stroke-width:1px;stroke-linecap:butt;stroke-linejoin:miter;stroke-opacity:1" d="M 200.158,347.744 200.158,366.426 z" id="boundary" inkscape:connector-curvature="0" />
	<path style="fill:none;stroke:red;stroke-width:1px;stroke-linecap:butt;stroke-linejoin:miter;stroke-opacity:1" d="M 293.567,351.48 276.753,360.821 z" id="boundary" inkscape:connector-curvature="0" />
	<path style="fill:none;stroke:red;stroke-width:1px;stroke-linecap:butt;stroke-linejoin:miter;stroke-opacity:1" d="M 209.499,383.239 218.84,400.053 z" id="boundary" inkscape:connector-curvature="0" />
	<path style="fill:none;stroke:red;stroke-width:1px;stroke-linecap:butt;stroke-linejoin:miter;stroke-opacity:1" d="M 209.499,383.239 200.158,366.426 z" id="boundary" inkscape:connector-curvature="0" />
	<path style="fill:none;stroke:red;stroke-width:1px;stroke-linecap:butt;stroke-linejoin:miter;stroke-opacity:1" d="M 228.181,416.866 218.84,400.053 z" id="boundary" inkscape:connector-curvature="0" />
	<path style="fill:none;stroke:red;stroke-width:1px;stroke-linecap:butt;stroke-linejoin:miter;stroke-opacity:1" d="M 261.808,405.657 271.149,386.976 z" id="boundary" inkscape:connector-curvature="0" />
	<path style="fill:none;stroke:red;stroke-width:1px;stroke-linecap:butt;stroke-linejoin:miter;stroke-opacity:1" d="M 271.149,386.976 276.753,360.821 z" id="boundary" inkscape:connector-curvature="0" />
	<path style="fill:none;stroke:red;stroke-width:1px;stroke-linecap:butt;stroke-linejoin:miter;stroke-opacity:1" d="M 246.863,416.866 228.181,416.866 z" id="boundary" inkscape:connector-curvature="0" />
	<path style="fill:none;stroke:red;stroke-width:1px;stroke-linecap:butt;stroke-linejoin:miter;stroke-opacity:1" d="M 261.808,405.657 246.863,416.866 z" id="boundary" inkscape:connector-curvature="0" />
	<path style="fill:none;stroke:red;stroke-width:1px;stroke-linecap:butt;stroke-linejoin:miter;stroke-opacity:1" d="M 293.567,351.48 310.38,360.821 z" id="boundary" inkscape:connector-curvature="0" />
	<path style="fill:none;stroke:red;stroke-width:1px;stroke-linecap:butt;stroke-linejoin:miter;stroke-opacity:1" d="M 310.38,360.821 327.194,370.162 z" id="boundary" inkscape:connector-curvature="0" />
	<path style="fill:none;stroke:red;stroke-width:1px;stroke-linecap:butt;stroke-linejoin:miter;stroke-opacity:1" d="M 327.194,370.162 342.139,383.239 z" id="boundary" inkscape:connector-curvature="0" />
	<path style="fill:none;stroke:red;stroke-width:1px;stroke-linecap:butt;stroke-linejoin:miter;stroke-opacity:1" d="M 355.217,398.185 342.139,383.239 z" id="boundary" inkscape:connector-curvature="0" />
	<path style="fill:none;stroke:red;stroke-width:1px;stroke-linecap:butt;stroke-linejoin:miter;stroke-opacity:1" d="M 373.898,405.657 355.217,398.185 z" id="boundary" inkscape:connector-curvature="0" />
	<path style="fill:none;stroke:red;stroke-width:1px;stroke-linecap:butt;stroke-linejoin:miter;stroke-opacity:1" d="M 373.898,405.657 390.712,414.998 z" id="boundary" inkscape:connector-curvature="0" />
	<path style="fill:none;stroke:red;stroke-width:1px;stroke-linecap:butt;stroke-linejoin:miter;stroke-opacity:1" d="M 409.394,422.471 426.207,431.812 z" id="boundary" inkscape:connector-curvature="0" />
	<path style="fill:none;stroke:red;stroke-width:1px;stroke-linecap:butt;stroke-linejoin:miter;stroke-opacity:1" d="M 426.207,431.812 444.889,439.284 z" id="boundary" inkscape:connector-curvature="0" />
	<path style="fill:none;stroke:red;stroke-width:1px;stroke-linecap:butt;stroke-linejoin:miter;stroke-opacity:1" d="M 461.702,448.625 476.648,461.702 z" id="boundary" inkscape:connector-curvature="0" />
	<path style="fill:none;stroke:red;stroke-width:1px;stroke-linecap:butt;stroke-linejoin:miter;stroke-opacity:1" d="M 461.702,448.625 444.889,439.284 z" id="boundary" inkscape:connector-curvature="0" />
	<path style="fill:none;stroke:red;stroke-width:1px;stroke-linecap:butt;stroke-linejoin:miter;stroke-opacity:1" d="M 476.648,461.702 484.121,480.384 z" id="boundary" inkscape:connector-curvature="0" />
	<path style="fill:none;stroke:red;stroke-width:1px;stroke-linecap:butt;stroke-linejoin:miter;stroke-opacity:1" d="M 484.121,480.384 493.461,497.198 z" id="boundary" inkscape:connector-curvature="0" />
	<path style="fill:none;stroke:red;stroke-width:1px;stroke-linecap:butt;stroke-linejoin:miter;stroke-opacity:1" d="M 515.879,528.957 500.934,515.879 z" id="boundary" inkscape:connector-curvature="0" />
	<path style="fill:none;stroke:red;stroke-width:1px;stroke-linecap:butt;stroke-linejoin:miter;stroke-opacity:1" d="M 515.879,528.957 527.089,543.902 z" id="boundary" inkscape:connector-curvature="0" />
	<path style="fill:none;stroke:red;stroke-width:1px;stroke-linecap:butt;stroke-linejoin:miter;stroke-opacity:1" d="M 500.934,515.879 493.461,497.198 z" id="boundary" inkscape:connector-curvature="0" />
	<path style="fill:none;stroke:red;stroke-width:1px;stroke-linecap:butt;stroke-linejoin:miter;stroke-opacity:1" d="M 527.089,543.902 542.034,556.979 z" id="boundary" inkscape:connector-curvature="0" />
	<path style="fill:none;stroke:red;stroke-width:1px;stroke-linecap:butt;stroke-linejoin:miter;stroke-opacity:1" d="M 390.712,414.998 409.394,422.471 z" id="boundary" inkscape:connector-curvature="0" />
	<path style="fill:none;stroke:red;stroke-width:1px;stroke-linecap:butt;stroke-linejoin:miter;stroke-opacity:1" d="M 527.089,110.486 538.298,125.431 z" id="boundary" inkscape:connector-curvature="0" />
	<path style="fill:none;stroke:red;stroke-width:1px;stroke-linecap:butt;stroke-linejoin:miter;stroke-opacity:1" d="M 538.298,155.322 528.957,183.345 z" id="boundary" inkscape:connector-curvature="0" />
	<path style="fill:none;stroke:red;stroke-width:1px;stroke-linecap:butt;stroke-linejoin:miter;stroke-opacity:1" d="M 538.298,125.431 538.298,155.322 z" id="boundary" inkscape:connector-curvature="0" />
	<path style="fill:none;stroke:red;stroke-width:1px;stroke-linecap:butt;stroke-linejoin:miter;stroke-opacity:1" d="M 538.298,235.653 528.957,218.84 z" id="boundary" inkscape:connector-curvature="0" />
	<path style="fill:none;stroke:red;stroke-width:1px;stroke-linecap:butt;stroke-linejoin:miter;stroke-opacity:1" d="M 538.298,235.653 553.243,248.731 z" id="boundary" inkscape:connector-curvature="0" />
	<path style="fill:none;stroke:red;stroke-width:1px;stroke-linecap:butt;stroke-linejoin:miter;stroke-opacity:1" d="M 570.056,258.072 585.002,271.149 z" id="boundary" inkscape:connector-curvature="0" />
	<path style="fill:none;stroke:red;stroke-width:1px;stroke-linecap:butt;stroke-linejoin:miter;stroke-opacity:1" d="M 570.056,258.072 553.243,248.731 z" id="boundary" inkscape:connector-curvature="0" />
	<path style="fill:none;stroke:red;stroke-width:1px;stroke-linecap:butt;stroke-linejoin:miter;stroke-opacity:1" d="M 639.179,261.808 620.497,265.544 z" id="boundary" inkscape:connector-curvature="0" />
	<path style="fill:none;stroke:red;stroke-width:1px;stroke-linecap:butt;stroke-linejoin:miter;stroke-opacity:1" d="M 639.179,261.808 657.861,256.203 z" id="boundary" inkscape:connector-curvature="0" />
	<path style="fill:none;stroke:red;stroke-width:1px;stroke-linecap:butt;stroke-linejoin:miter;stroke-opacity:1" d="M 657.861,256.203 676.542,256.203 z" id="boundary" inkscape:connector-curvature="0" />
	<path style="fill:none;stroke:red;stroke-width:1px;stroke-linecap:butt;stroke-linejoin:miter;stroke-opacity:1" d="M 695.224,256.203 676.542,256.203 z" id="boundary" inkscape:connector-curvature="0" />
	<path style="fill:none;stroke:red;stroke-width:1px;stroke-linecap:butt;stroke-linejoin:miter;stroke-opacity:1" d="M 695.224,256.203 712.038,265.544 z" id="boundary" inkscape:connector-curvature="0" />
	<path style="fill:none;stroke:red;stroke-width:1px;stroke-linecap:butt;stroke-linejoin:miter;stroke-opacity:1" d="M 620.497,265.544 603.684,274.885 z" id="boundary" inkscape:connector-curvature="0" />
	<path style="fill:none;stroke:red;stroke-width:1px;stroke-linecap:butt;stroke-linejoin:miter;stroke-opacity:1" d="M 603.684,274.885 585.002,271.149 z" id="boundary" inkscape:connector-curvature="0" />
	<path style="fill:none;stroke:red;stroke-width:1px;stroke-linecap:butt;stroke-linejoin:miter;stroke-opacity:1" d="M 715.774,314.117 715.774,332.798 z" id="boundary" inkscape:connector-curvature="0" />
	<path style="fill:none;stroke:red;stroke-width:1px;stroke-linecap:butt;stroke-linejoin:miter;stroke-opacity:1" d="M 725.115,280.49 715.774,314.117 z" id="boundary" inkscape:connector-curvature="0" />
	<path style="fill:none;stroke:red;stroke-width:1px;stroke-linecap:butt;stroke-linejoin:miter;stroke-opacity:1" d="M 715.774,332.798 715.774,351.48 z" id="boundary" inkscape:connector-curvature="0" />
	<path style="fill:none;stroke:red;stroke-width:1px;stroke-linecap:butt;stroke-linejoin:miter;stroke-opacity:1" d="M 725.115,280.49 712.038,265.544 z" id="boundary" inkscape:connector-curvature="0" />
	<path style="fill:none;stroke:red;stroke-width:1px;stroke-linecap:butt;stroke-linejoin:miter;stroke-opacity:1" d="M 715.774,370.162 715.774,351.48 z" id="boundary" inkscape:connector-curvature="0" />
	<path style="fill:none;stroke:red;stroke-width:1px;stroke-linecap:butt;stroke-linejoin:miter;stroke-opacity:1" d="M 715.774,370.162 715.774,388.844 z" id="boundary" inkscape:connector-curvature="0" />
	<path style="fill:none;stroke:red;stroke-width:1px;stroke-linecap:butt;stroke-linejoin:miter;stroke-opacity:1" d="M 740.06,416.866 725.115,405.657 z" id="boundary" inkscape:connector-curvature="0" />
	<path style="fill:none;stroke:red;stroke-width:1px;stroke-linecap:butt;stroke-linejoin:miter;stroke-opacity:1" d="M 725.115,405.657 715.774,388.844 z" id="boundary" inkscape:connector-curvature="0" />
	<path style="fill:none;stroke:red;stroke-width:1px;stroke-linecap:butt;stroke-linejoin:miter;stroke-opacity:1" d="M 753.137,431.812 740.06,416.866 z" id="boundary" inkscape:connector-curvature="0" />
	<path style="fill:none;stroke:red;stroke-width:1px;stroke-linecap:butt;stroke-linejoin:miter;stroke-opacity:1" d="M 753.137,431.812 771.819,439.284 z" id="boundary" inkscape:connector-curvature="0" />
	<path style="fill:none;stroke:red;stroke-width:1px;stroke-linecap:butt;stroke-linejoin:miter;stroke-opacity:1" d="M 790.501,443.021 771.819,439.284 z" id="boundary" inkscape:connector-curvature="0" />
	<path style="fill:none;stroke:red;stroke-width:1px;stroke-linecap:butt;stroke-linejoin:miter;stroke-opacity:1" d="M 807.315,452.362 790.501,443.021 z" id="boundary" inkscape:connector-curvature="0" />
	<path style="fill:none;stroke:red;stroke-width:1px;stroke-linecap:butt;stroke-linejoin:miter;stroke-opacity:1" d="M 844.678,452.362 825.996,452.362 z" id="boundary" inkscape:connector-curvature="0" />
	<path style="fill:none;stroke:red;stroke-width:1px;stroke-linecap:butt;stroke-linejoin:miter;stroke-opacity:1" d="M 863.36,452.362 844.678,452.362 z" id="boundary" inkscape:connector-curvature="0" />
	<path style="fill:none;stroke:red;stroke-width:1px;stroke-linecap:butt;stroke-linejoin:miter;stroke-opacity:1" d="M 825.996,452.362 807.315,452.362 z" id="boundary" inkscape:connector-curvature="0" />
	<path style="fill:none;stroke:red;stroke-width:1px;stroke-linecap:butt;stroke-linejoin:miter;stroke-opacity:1" d="M 900.723,461.702 882.041,456.098 z" id="boundary" inkscape:connector-curvature="0" />
	<path style="fill:none;stroke:red;stroke-width:1px;stroke-linecap:butt;stroke-linejoin:miter;stroke-opacity:1" d="M 882.041,456.098 863.36,452.362 z" id="boundary" inkscape:connector-curvature="0" />
	<path style="fill:none;stroke:red;stroke-width:1px;stroke-linecap:butt;stroke-linejoin:miter;stroke-opacity:1" d="M 900.723,461.702 919.405,461.702 z" id="boundary" inkscape:connector-curvature="0" />
	<path style="fill:none;stroke:red;stroke-width:1px;stroke-linecap:butt;stroke-linejoin:miter;stroke-opacity:1" d="M 938.087,465.439 919.405,461.702 z" id="boundary" inkscape:connector-curvature="0" />
	<path style="fill:none;stroke:red;stroke-width:1px;stroke-linecap:butt;stroke-linejoin:miter;stroke-opacity:1" d="M 956.768,471.043 973.582,480.384 z" id="boundary" inkscape:connector-curvature="0" />
	<path style="fill:none;stroke:red;stroke-width:1px;stroke-linecap:butt;stroke-linejoin:miter;stroke-opacity:1" d="M 992.264,482.252 996,510.275 z" id="boundary" inkscape:connector-curvature="0" />
	<path style="fill:none;stroke:red;stroke-width:1px;stroke-linecap:butt;stroke-linejoin:miter;stroke-opacity:1" d="M 973.582,480.384 992.264,482.252 z" id="boundary" inkscape:connector-curvature="0" />
	<path style="fill:none;stroke:red;stroke-width:1px;stroke-linecap:butt;stroke-linejoin:miter;stroke-opacity:1" d="M 938.087,465.439 956.768,471.043 z" id="boundary" inkscape:connector-curvature="0" />
	<path style="fill:none;stroke:red;stroke-width:1px;stroke-linecap:butt;stroke-linejoin:miter;stroke-opacity:1" d="M 590.606,525.22 575.661,538.298 z" id="boundary" inkscape:connector-curvature="0" />
	<path style="fill:none;stroke:red;stroke-width:1px;stroke-linecap:butt;stroke-linejoin:miter;stroke-opacity:1" d="M 609.288,515.879 627.97,506.539 z" id="boundary" inkscape:connector-curvature="0" />
	<path style="fill:none;stroke:red;stroke-width:1px;stroke-linecap:butt;stroke-linejoin:miter;stroke-opacity:1" d="M 609.288,515.879 590.606,525.22 z" id="boundary" inkscape:connector-curvature="0" />
	<path style="fill:none;stroke:red;stroke-width:1px;stroke-linecap:butt;stroke-linejoin:miter;stroke-opacity:1" d="M 646.652,500.934 627.97,506.539 z" id="boundary" inkscape:connector-curvature="0" />
	<path style="fill:none;stroke:red;stroke-width:1px;stroke-linecap:butt;stroke-linejoin:miter;stroke-opacity:1" d="M 560.716,555.111 542.034,556.979 z" id="boundary" inkscape:connector-curvature="0" />
	<path style="fill:none;stroke:red;stroke-width:1px;stroke-linecap:butt;stroke-linejoin:miter;stroke-opacity:1" d="M 575.661,538.298 560.716,555.111 z" id="boundary" inkscape:connector-curvature="0" />
	<path style="fill:none;stroke:red;stroke-width:1px;stroke-linecap:butt;stroke-linejoin:miter;stroke-opacity:1" d="M 646.652,500.934 665.333,500.934 z" id="boundary" inkscape:connector-curvature="0" />
	<path style="fill:none;stroke:red;stroke-width:1px;stroke-linecap:butt;stroke-linejoin:miter;stroke-opacity:1" d="M 682.147,510.275 697.092,523.352 z" id="boundary" inkscape:connector-curvature="0" />
	<path style="fill:none;stroke:red;stroke-width:1px;stroke-linecap:butt;stroke-linejoin:miter;stroke-opacity:1" d="M 682.147,510.275 665.333,500.934 z" id="boundary" inkscape:connector-curvature="0" />
	<path style="fill:none;stroke:red;stroke-width:1px;stroke-linecap:butt;stroke-linejoin:miter;stroke-opacity:1" d="M 697.092,523.352 710.169,538.298 z" id="boundary" inkscape:connector-curvature="0" />
	<path style="fill:none;stroke:red;stroke-width:1px;stroke-linecap:butt;stroke-linejoin:miter;stroke-opacity:1" d="M 725.115,551.375 710.169,538.298 z" id="boundary" inkscape:connector-curvature="0" />
	<path style="fill:none;stroke:red;stroke-width:1px;stroke-linecap:butt;stroke-linejoin:miter;stroke-opacity:1" d="M 738.192,566.32 725.115,551.375 z" id="boundary" inkscape:connector-curvature="0" />
	<path style="fill:none;stroke:red;stroke-width:1px;stroke-linecap:butt;stroke-linejoin:miter;stroke-opacity:1" d="M 769.951,613.024 755.006,601.815 z" id="boundary" inkscape:connector-curvature="0" />
	<path style="fill:none;stroke:red;stroke-width:1px;stroke-linecap:butt;stroke-linejoin:miter;stroke-opacity:1" d="M 755.006,601.815 747.533,583.134 z" id="boundary" inkscape:connector-curvature="0" />
	<path style="fill:none;stroke:red;stroke-width:1px;stroke-linecap:butt;stroke-linejoin:miter;stroke-opacity:1" d="M 781.16,627.97 769.951,613.024 z" id="boundary" inkscape:connector-curvature="0" />
	<path style="fill:none;stroke:red;stroke-width:1px;stroke-linecap:butt;stroke-linejoin:miter;stroke-opacity:1" d="M 738.192,566.32 747.533,583.134 z" id="boundary" inkscape:connector-curvature="0" />
	<path style="fill:none;stroke:red;stroke-width:1px;stroke-linecap:butt;stroke-linejoin:miter;stroke-opacity:1" d="M 781.16,627.97 790.501,644.783 z" id="boundary" inkscape:connector-curvature="0" />
	<path style="fill:none;stroke:red;stroke-width:1px;stroke-linecap:butt;stroke-linejoin:miter;stroke-opacity:1" d="M 803.578,659.729 812.919,676.542 z" id="boundary" inkscape:connector-curvature="0" />
	<path style="fill:none;stroke:red;stroke-width:1px;stroke-linecap:butt;stroke-linejoin:miter;stroke-opacity:1" d="M 812.919,676.542 825.996,691.488 z" id="boundary" inkscape:connector-curvature="0" />
	<path style="fill:none;stroke:red;stroke-width:1px;stroke-linecap:butt;stroke-linejoin:miter;stroke-opacity:1" d="M 790.501,644.783 803.578,659.729 z" id="boundary" inkscape:connector-curvature="0" />
	<path style="fill:none;stroke:red;stroke-width:1px;stroke-linecap:butt;stroke-linejoin:miter;stroke-opacity:1" d="M 825.996,691.488 840.942,704.565 z" id="boundary" inkscape:connector-curvature="0" />
	<path style="fill:none;stroke:red;stroke-width:1px;stroke-linecap:butt;stroke-linejoin:miter;stroke-opacity:1" d="M 874.569,575.661 874.569,594.343 z" id="boundary" inkscape:connector-curvature="0" />
	<path style="fill:none;stroke:red;stroke-width:1px;stroke-linecap:butt;stroke-linejoin:miter;stroke-opacity:1" d="M 874.569,594.343 874.569,613.024 z" id="boundary" inkscape:connector-curvature="0" />
	<path style="fill:none;stroke:red;stroke-width:1px;stroke-linecap:butt;stroke-linejoin:miter;stroke-opacity:1" d="M 889.514,562.584 908.196,556.979 z" id="boundary" inkscape:connector-curvature="0" />
	<path style="fill:none;stroke:red;stroke-width:1px;stroke-linecap:butt;stroke-linejoin:miter;stroke-opacity:1" d="M 889.514,562.584 874.569,575.661 z" id="boundary" inkscape:connector-curvature="0" />
	<path style="fill:none;stroke:red;stroke-width:1px;stroke-linecap:butt;stroke-linejoin:miter;stroke-opacity:1" d="M 925.009,547.638 908.196,556.979 z" id="boundary" inkscape:connector-curvature="0" />
	<path style="fill:none;stroke:red;stroke-width:1px;stroke-linecap:butt;stroke-linejoin:miter;stroke-opacity:1" d="M 925.009,547.638 943.691,545.77 z" id="boundary" inkscape:connector-curvature="0" />
	<path style="fill:none;stroke:red;stroke-width:1px;stroke-linecap:butt;stroke-linejoin:miter;stroke-opacity:1" d="M 943.691,545.77 962.373,536.429 z" id="boundary" inkscape:connector-curvature="0" />
	<path style="fill:none;stroke:red;stroke-width:1px;stroke-linecap:butt;stroke-linejoin:miter;stroke-opacity:1" d="M 996,510.275 981.055,527.089 z" id="boundary" inkscape:connector-curvature="0" />
	<path style="fill:none;stroke:red;stroke-width:1px;stroke-linecap:butt;stroke-linejoin:miter;stroke-opacity:1" d="M 962.373,536.429 981.055,527.089 z" id="boundary" inkscape:connector-curvature="0" />
	<path style="fill:none;stroke:red;stroke-width:1px;stroke-linecap:butt;stroke-linejoin:miter;stroke-opacity:1" d="M 874.569,631.706 874.569,613.024 z" id="boundary" inkscape:connector-curvature="0" />
	<path style="fill:none;stroke:red;stroke-width:1px;stroke-linecap:butt;stroke-linejoin:miter;stroke-opacity:1" d="M 874.569,706.433 855.887,715.774 z" id="boundary" inkscape:connector-curvature="0" />
	<path style="fill:none;stroke:red;stroke-width:1px;stroke-linecap:butt;stroke-linejoin:miter;stroke-opacity:1" d="M 855.887,715.774 840.942,704.565 z" id="boundary" inkscape:connector-curvature="0" />
	<path style="fill:none;stroke:red;stroke-width:1px;stroke-linecap:butt;stroke-linejoin:miter;stroke-opacity:1" d="M 874.569,631.706 874.569,650.388 z" id="boundary" inkscape:connector-curvature="0" />
	<path style="fill:none;stroke:red;stroke-width:1px;stroke-linecap:butt;stroke-linejoin:miter;stroke-opacity:1" d="M 874.569,669.07 874.569,650.388 z" id="boundary" inkscape:connector-curvature="0" />
	<path style="fill:none;stroke:red;stroke-width:1px;stroke-linecap:butt;stroke-linejoin:miter;stroke-opacity:1" d="M 874.569,669.07 874.569,687.751 z" id="boundary" inkscape:connector-curvature="0" />
	<path style="fill:none;stroke:red;stroke-width:1px;stroke-linecap:butt;stroke-linejoin:miter;stroke-opacity:1" d="M 874.569,706.433 874.569,687.751 z" id="boundary" inkscape:connector-curvature="0" />
	<circle cx="4" cy="37.6271" r="4" fill="#0" id="circle0"/>
	<circle cx="4" cy="56.3089" r="4" fill="#0" id="circle1"/>
	<circle cx="4" cy="74.9906" r="4" fill="#0" id="circle2"/>
	<circle cx="18.9454" cy="22.6817" r="4" fill="#0" id="circle3"/>
	<circle cx="18.9454" cy="88.0678" r="4" fill="#0" id="circle4"/>
	<circle cx="26.4181" cy="106.75" r="4" fill="#0" id="circle5"/>
	<circle cx="33.8908" cy="7.73635" r="4" fill="#0" id="circle6"/>
	<circle cx="41.3635" cy="117.959" r="4" fill="#0" id="circle7"/>
	<circle cx="52.5725" cy="4" r="4" fill="#0" id="circle8"/>
	<circle cx="52.5725" cy="132.904" r="4" fill="#0" id="circle9"/>
	<circle cx="67.5179" cy="145.981" r="4" fill="#0" id="circle10"/>
	<circle cx="71.2542" cy="4" r="4" fill="#0" id="circle11"/>
	<circle cx="80.5951" cy="160.927" r="4" fill="#0" id="circle12"/>
	<circle cx="89.936" cy="9.60452" r="4" fill="#0" id="circle13"/>
	<circle cx="95.5405" cy="174.004" r="4" fill="#0" id="circle14"/>
	<circle cx="108.618" cy="13.3409" r="4" fill="#0" id="circle15"/>
	<circle cx="108.618" cy="188.949" r="4" fill="#0" id="circle16"/>
	<circle cx="123.563" cy="202.026" r="4" fill="#0" id="circle17"/>
	<circle cx="127.299" cy="18.9454" r="4" fill="#0" id="circle18"/>
	<circle cx="136.64" cy="216.972" r="4" fill="#0" id="circle19"/>
	<circle cx="144.113" cy="28.2863" r="4" fill="#0" id="circle20"/>
	<circle cx="151.586" cy="230.049" r="4" fill="#0" id="circle21"/>
	<circle cx="162.795" cy="32.0226" r="4" fill="#0" id="circle22"/>
	<circle cx="164.663" cy="244.994" r="4" fill="#0" id="circle23"/>
	<circle cx="179.608" cy="41.3635" r="4" fill="#0" id="circle24"/>
	<circle cx="179.608" cy="258.072" r="4" fill="#0" id="circle25"/>
	<circle cx="192.685" cy="273.017" r="4" fill="#0" id="circle26"/>
	<circle cx="196.422" cy="50.7043" r="4" fill="#0" id="circle27"/>
	<circle cx="200.158" cy="291.699" r="4" fill="#0" id="circle28"/>
	<circle cx="200.158" cy="310.38" r="4" fill="#0" id="circle29"/>
	<circle cx="200.158" cy="329.062" r="4" fill="#0" id="circle30"/>
	<circle cx="200.158" cy="347.744" r="4" fill="#0" id="circle31"/>
	<circle cx="200.158" cy="366.426" r="4" fill="#0" id="circle32"/>
	<circle cx="209.499" cy="383.239" r="4" fill="#0" id="circle33"/>
	<circle cx="215.104" cy="50.7043" r="4" fill="#0" id="circle34"/>
	<circle cx="218.84" cy="400.053" r="4" fill="#0" id="circle35"/>
	<circle cx="228.181" cy="416.866" r="4" fill="#0" id="circle36"/>
	<circle cx="231.917" cy="60.0452" r="4" fill="#0" id="circle37"/>
	<circle cx="246.863" cy="416.866" r="4" fill="#0" id="circle38"/>
	<circle cx="248.731" cy="69.3861" r="4" fill="#0" id="circle39"/>
	<circle cx="261.808" cy="405.657" r="4" fill="#0" id="circle40"/>
	<circle cx="265.544" cy="78.7269" r="4" fill="#0" id="circle41"/>
	<circle cx="271.149" cy="386.976" r="4" fill="#0" id="circle42"/>
	<circle cx="276.753" cy="360.821" r="4" fill="#0" id="circle43"/>
	<circle cx="282.358" cy="88.0678" r="4" fill="#0" id="circle44"/>
	<circle cx="293.567" cy="351.48" r="4" fill="#0" id="circle45"/>
	<circle cx="299.171" cy="97.4087" r="4" fill="#0" id="circle46"/>
	<circle cx="310.38" cy="360.821" r="4" fill="#0" id="circle47"/>
	<circle cx="315.985" cy="106.75" r="4" fill="#0" id="circle48"/>
	<circle cx="327.194" cy="370.162" r="4" fill="#0" id="circle49"/>
	<circle cx="332.798" cy="116.09" r="4" fill="#0" id="circle50"/>
	<circle cx="342.139" cy="383.239" r="4" fill="#0" id="circle51"/>
	<circle cx="349.612" cy="125.431" r="4" fill="#0" id="circle52"/>
	<circle cx="355.217" cy="398.185" r="4" fill="#0" id="circle53"/>
	<circle cx="366.426" cy="134.772" r="4" fill="#0" id="circle54"/>
	<circle cx="373.898" cy="405.657" r="4" fill="#0" id="circle55"/>
	<circle cx="383.239" cy="144.113" r="4" fill="#0" id="circle56"/>
	<circle cx="390.712" cy="414.998" r="4" fill="#0" id="circle57"/>
	<circle cx="400.053" cy="153.454" r="4" fill="#0" id="circle58"/>
	<circle cx="409.394" cy="422.471" r="4" fill="#0" id="circle59"/>
	<circle cx="418.734" cy="153.454" r="4" fill="#0" id="circle60"/>
	<circle cx="426.207" cy="431.812" r="4" fill="#0" id="circle61"/>
	<circle cx="437.416" cy="145.981" r="4" fill="#0" id="circle62"/>
	<circle cx="444.889" cy="439.284" r="4" fill="#0" id="circle63"/>
	<circle cx="456.098" cy="136.64" r="4" fill="#0" id="circle64"/>
	<circle cx="461.702" cy="448.625" r="4" fill="#0" id="circle65"/>
	<circle cx="471.043" cy="121.695" r="4" fill="#0" id="circle66"/>
	<circle cx="476.648" cy="461.702" r="4" fill="#0" id="circle67"/>
	<circle cx="484.121" cy="480.384" r="4" fill="#0" id="circle68"/>
	<circle cx="489.725" cy="112.354" r="4" fill="#0" id="circle69"/>
	<circle cx="493.461" cy="497.198" r="4" fill="#0" id="circle70"/>
	<circle cx="500.934" cy="515.879" r="4" fill="#0" id="circle71"/>
	<circle cx="508.407" cy="103.013" r="4" fill="#0" id="circle72"/>
	<circle cx="515.879" cy="528.957" r="4" fill="#0" id="circle73"/>
	<circle cx="519.616" cy="202.026" r="4" fill="#0" id="circle74"/>
	<circle cx="527.089" cy="110.486" r="4" fill="#0" id="circle75"/>
	<circle cx="527.089" cy="543.902" r="4" fill="#0" id="circle76"/>
	<circle cx="528.957" cy="183.345" r="4" fill="#0" id="circle77"/>
	<circle cx="528.957" cy="218.84" r="4" fill="#0" id="circle78"/>
	<circle cx="538.298" cy="125.431" r="4" fill="#0" id="circle79"/>
	<circle cx="538.298" cy="155.322" r="4" fill="#0" id="circle80"/>
	<circle cx="538.298" cy="235.653" r="4" fill="#0" id="circle81"/>
	<circle cx="542.034" cy="556.979" r="4" fill="#0" id="circle82"/>
	<circle cx="553.243" cy="248.731" r="4" fill="#0" id="circle83"/>
	<circle cx="560.716" cy="555.111" r="4" fill="#0" id="circle84"/>
	<circle cx="570.056" cy="258.072" r="4" fill="#0" id="circle85"/>
	<circle cx="575.661" cy="538.298" r="4" fill="#0" id="circle86"/>
	<circle cx="585.002" cy="271.149" r="4" fill="#0" id="circle87"/>
	<circle cx="590.606" cy="525.22" r="4" fill="#0" id="circle88"/>
	<circle cx="603.684" cy="274.885" r="4" fill="#0" id="circle89"/>
	<circle cx="609.288" cy="515.879" r="4" fill="#0" id="circle90"/>
	<circle cx="620.497" cy="265.544" r="4" fill="#0" id="circle91"/>
	<circle cx="627.97" cy="506.539" r="4" fill="#0" id="circle92"/>
	<circle cx="639.179" cy="261.808" r="4" fill="#0" id="circle93"/>
	<circle cx="646.652" cy="500.934" r="4" fill="#0" id="circle94"/>
	<circle cx="657.861" cy="256.203" r="4" fill="#0" id="circle95"/>
	<circle cx="665.333" cy="500.934" r="4" fill="#0" id="circle96"/>
	<circle cx="676.542" cy="256.203" r="4" fill="#0" id="circle97"/>
	<circle cx="682.147" cy="510.275" r="4" fill="#0" id="circle98"/>
	<circle cx="695.224" cy="256.203" r="4" fill="#0" id="circle99"/>
	<circle cx="697.092" cy="523.352" r="4" fill="#0" id="circle100"/>
	<circle cx="710.169" cy="538.298" r="4" fill="#0" id="circle101"/>
	<circle cx="712.038" cy="265.544" r="4" fill="#0" id="circle102"/>
	<circle cx="715.774" cy="314.117" r="4" fill="#0" id="circle103"/>
	<circle cx="715.774" cy="332.798" r="4" fill="#0" id="circle104"/>
	<circle cx="715.774" cy="351.48" r="4" fill="#0" id="circle105"/>
	<circle cx="715.774" cy="370.162" r="4" fill="#0" id="circle106"/>
	<circle cx="715.774" cy="388.844" r="4" fill="#0" id="circle107"/>
	<circle cx="725.115" cy="280.49" r="4" fill="#0" id="circle108"/>
	<circle cx="725.115" cy="405.657" r="4" fill="#0" id="circle109"/>
	<circle cx="725.115" cy="551.375" r="4" fill="#0" id="circle110"/>
	<circle cx="738.192" cy="566.32" r="4" fill="#0" id="circle111"/>
	<circle cx="740.06" cy="416.866" r="4" fill="#0" id="circle112"/>
	<circle cx="747.533" cy="583.134" r="4" fill="#0" id="circle113"/>
	<circle cx="753.137" cy="431.812" r="4" fill="#0" id="circle114"/>
	<circle cx="755.006" cy="601.815" r="4" fill="#0" id="circle115"/>
	<circle cx="769.951" cy="613.024" r="4" fill="#0" id="circle116"/>
	<circle cx="771.819" cy="439.284" r="4" fill="#0" id="circle117"/>
	<circle cx="781.16" cy="627.97" r="4" fill="#0" id="circle118"/>
	<circle cx="790.501" cy="443.021" r="4" fill="#0" id="circle119"/>
	<circle cx="790.501" cy="644.783" r="4" fill="#0" id="circle120"/>
	<circle cx="803.578" cy="659.729" r="4" fill="#0" id="circle121"/>
	<circle cx="807.315" cy="452.362" r="4" fill="#0" id="circle122"/>
	<circle cx="812.919" cy="676.542" r="4" fill="#0" id="circle123"/>
	<circle cx="825.996" cy="452.362" r="4" fill="#0" id="circle124"/>
	<circle cx="825.996" cy="691.488" r="4" fill="#0" id="circle125"/>
	<circle cx="840.942" cy="704.565" r="4" fill="#0" id="circle126"/>
	<circle cx="844.678" cy="452.362" r="4" fill="#0" id="circle127"/>
	<circle cx="855.887" cy="715.774" r="4" fill="#0" id="circle128"/>
	<circle cx="863.36" cy="452.362" r="4" fill="#0" id="circle129"/>
	<circle cx="874.569" cy="575.661" r="4" fill="#0" id="circle130"/>
	<circle cx="874.569" cy="594.343" r="4" fill="#0" id="circle131"/>
	<circle cx="874.569" cy="613.024" r="4" fill="#0" id="circle132"/>
	<circle cx="874.569" cy="631.706" r="4" fill="#0" id="circle133"/>
	<circle cx="874.569" cy="650.388" r="4" fill="#0" id="circle134"/>
	<circle cx="874.569" cy="669.07" r="4" fill="#0" id="circle135"/>
	<circle cx="874.569" cy="687.751" r="4" fill="#0" id="circle136"/>
	<circle cx="874.569" cy="706.433" r="4" fill="#0" id="circle137"/>
	<circle cx="882.041" cy="456.098" r="4" fill="#0" id="circle138"/>
	<circle cx="889.514" cy="562.584" r="4" fill="#0" id="circle139"/>
	<circle cx="900.723" cy="461.702" r="4" fill="#0" id="circle140"/>
	<circle cx="908.196" cy="556.979" r="4" fill="#0" id="circle141"/>
	<circle cx="919.405" cy="461.702" r="4" fill="#0" id="circle142"/>
	<circle cx="925.009" cy="547.638" r="4" fill="#0" id="circle143"/>
	<circle cx="938.087" cy="465.439" r="4" fill="#0" id="circle144"/>
	<circle cx="943.691" cy="545.77" r="4" fill="#0" id="circle145"/>
	<circle cx="956.768" cy="471.043" r="4" fill="#0" id="circle146"/>
	<circle cx="962.373" cy="536.429" r="4" fill="#0" id="circle147"/>
	<circle cx="973.582" cy="480.384" r="4" fill="#0" id="circle148"/>
	<circle cx="981.055" cy="527.089" r="4" fill="#0" id="circle149"/>
	<circle cx="992.264" cy="482.252" r="4" fill="#0" id="circle150"/>
	<circle cx="996" cy="510.275" r="4" fill="#0" id="circle151"/>
	</g>
</svg>