<?xml version="1.0" encoding="UTF-8" standalone="no"?>
<!-- Created with CurveBenchmark -->
<svg
	xmlns:dc="http://purl.org/dc/elements/1.1/"
	xmlns:cc="http://creativecommons.org/ns#"
	xmlns:rdf="http://www.w3.org/1999/02/22-rdf-syntax-ns#"
	xmlns:svg="http://www.w3.org/2000/svg"
	xmlns="http://www.w3.org/2000/svg"
	xmlns:sodipodi="http://sodipodi.sourceforge.net/DTD/sodipodi-0.dtd"
	xmlns:inkscape="http://www.inkscape.org/namespaces/inkscape"
	width="1000"
	height="1000"
	id="svg2"
	version="1.1"
	sodipodi:docname="manifold/crust-teddy205.png.txt">
<defs
	id="defs4" />
<metadata
	id="metadata7">
	<rdf:RDF>
		<cc:Work
			rdf:about="">
			<dc:format>image/svg+xml</dc:format>
			<dc:type
				rdf:resource="http://purl.org/dc/dcmitype/StillImage" />
			<dc:title></dc:title>
		</cc:Work>
	</rdf:RDF>
</metadata>
<g
	inkscape:label="Layer 1"
	inkscape:groupmode="layer"
	id="layer1">
	<path style="fill:none;stroke:red;stroke-width:1px;stroke-linecap:butt;stroke-linejoin:miter;stroke-opacity:1" d="M 125.527,88.7863 122.701,60.5242 z" id="boundary" inkscape:connector-curvature="0" />
	<path style="fill:none;stroke:red;stroke-width:1px;stroke-linecap:butt;stroke-linejoin:miter;stroke-opacity:1" d="M 145.311,37.9145 122.701,60.5242 z" id="boundary" inkscape:connector-curvature="0" />
	<path style="fill:none;stroke:red;stroke-width:1px;stroke-linecap:butt;stroke-linejoin:miter;stroke-opacity:1" d="M 145.311,37.9145 167.92,20.9573 z" id="boundary" inkscape:connector-curvature="0" />
	<path style="fill:none;stroke:red;stroke-width:1px;stroke-linecap:butt;stroke-linejoin:miter;stroke-opacity:1" d="M 196.182,9.65242 167.92,20.9573 z" id="boundary" inkscape:connector-curvature="0" />
	<path style="fill:none;stroke:red;stroke-width:1px;stroke-linecap:butt;stroke-linejoin:miter;stroke-opacity:1" d="M 128.353,117.048 125.527,88.7863 z" id="boundary" inkscape:connector-curvature="0" />
	<path style="fill:none;stroke:red;stroke-width:1px;stroke-linecap:butt;stroke-linejoin:miter;stroke-opacity:1" d="M 139.658,145.311 128.353,117.048 z" id="boundary" inkscape:connector-curvature="0" />
	<path style="fill:none;stroke:red;stroke-width:1px;stroke-linecap:butt;stroke-linejoin:miter;stroke-opacity:1" d="M 153.789,170.746 139.658,145.311 z" id="boundary" inkscape:connector-curvature="0" />
	<path style="fill:none;stroke:red;stroke-width:1px;stroke-linecap:butt;stroke-linejoin:miter;stroke-opacity:1" d="M 153.789,170.746 162.268,199.009 z" id="boundary" inkscape:connector-curvature="0" />
	<path style="fill:none;stroke:red;stroke-width:1px;stroke-linecap:butt;stroke-linejoin:miter;stroke-opacity:1" d="M 167.92,227.271 167.92,255.533 z" id="boundary" inkscape:connector-curvature="0" />
	<path style="fill:none;stroke:red;stroke-width:1px;stroke-linecap:butt;stroke-linejoin:miter;stroke-opacity:1" d="M 167.92,227.271 162.268,199.009 z" id="boundary" inkscape:connector-curvature="0" />
	<path style="fill:none;stroke:red;stroke-width:1px;stroke-linecap:butt;stroke-linejoin:miter;stroke-opacity:1" d="M 167.92,283.795 167.92,255.533 z" id="boundary" inkscape:connector-curvature="0" />
	<path style="fill:none;stroke:red;stroke-width:1px;stroke-linecap:butt;stroke-linejoin:miter;stroke-opacity:1" d="M 4,524.023 15.3048,495.761 z" id="boundary" inkscape:connector-curvature="0" />
	<path style="fill:none;stroke:red;stroke-width:1px;stroke-linecap:butt;stroke-linejoin:miter;stroke-opacity:1" d="M 29.4359,470.325 15.3048,495.761 z" id="boundary" inkscape:connector-curvature="0" />
	<path style="fill:none;stroke:red;stroke-width:1px;stroke-linecap:butt;stroke-linejoin:miter;stroke-opacity:1" d="M 74.6553,430.758 52.0456,447.715 z" id="boundary" inkscape:connector-curvature="0" />
	<path style="fill:none;stroke:red;stroke-width:1px;stroke-linecap:butt;stroke-linejoin:miter;stroke-opacity:1" d="M 91.6125,408.148 74.6553,430.758 z" id="boundary" inkscape:connector-curvature="0" />
	<path style="fill:none;stroke:red;stroke-width:1px;stroke-linecap:butt;stroke-linejoin:miter;stroke-opacity:1" d="M 29.4359,470.325 52.0456,447.715 z" id="boundary" inkscape:connector-curvature="0" />
	<path style="fill:none;stroke:red;stroke-width:1px;stroke-linecap:butt;stroke-linejoin:miter;stroke-opacity:1" d="M 119.875,396.843 91.6125,408.148 z" id="boundary" inkscape:connector-curvature="0" />
	<path style="fill:none;stroke:red;stroke-width:1px;stroke-linecap:butt;stroke-linejoin:miter;stroke-opacity:1" d="M 167.92,283.795 173.573,312.057 z" id="boundary" inkscape:connector-curvature="0" />
	<path style="fill:none;stroke:red;stroke-width:1px;stroke-linecap:butt;stroke-linejoin:miter;stroke-opacity:1" d="M 179.225,340.319 176.399,382.712 z" id="boundary" inkscape:connector-curvature="0" />
	<path style="fill:none;stroke:red;stroke-width:1px;stroke-linecap:butt;stroke-linejoin:miter;stroke-opacity:1" d="M 179.225,340.319 173.573,312.057 z" id="boundary" inkscape:connector-curvature="0" />
	<path style="fill:none;stroke:red;stroke-width:1px;stroke-linecap:butt;stroke-linejoin:miter;stroke-opacity:1" d="M 176.399,382.712 148.137,385.538 z" id="boundary" inkscape:connector-curvature="0" />
	<path style="fill:none;stroke:red;stroke-width:1px;stroke-linecap:butt;stroke-linejoin:miter;stroke-opacity:1" d="M 119.875,396.843 148.137,385.538 z" id="boundary" inkscape:connector-curvature="0" />
	<path style="fill:none;stroke:red;stroke-width:1px;stroke-linecap:butt;stroke-linejoin:miter;stroke-opacity:1" d="M 224.444,4 252.707,9.65242 z" id="boundary" inkscape:connector-curvature="0" />
	<path style="fill:none;stroke:red;stroke-width:1px;stroke-linecap:butt;stroke-linejoin:miter;stroke-opacity:1" d="M 280.969,18.1311 252.707,9.65242 z" id="boundary" inkscape:connector-curvature="0" />
	<path style="fill:none;stroke:red;stroke-width:1px;stroke-linecap:butt;stroke-linejoin:miter;stroke-opacity:1" d="M 362.929,43.567 334.667,43.567 z" id="boundary" inkscape:connector-curvature="0" />
	<path style="fill:none;stroke:red;stroke-width:1px;stroke-linecap:butt;stroke-linejoin:miter;stroke-opacity:1" d="M 306.405,32.2621 280.969,18.1311 z" id="boundary" inkscape:connector-curvature="0" />
	<path style="fill:none;stroke:red;stroke-width:1px;stroke-linecap:butt;stroke-linejoin:miter;stroke-opacity:1" d="M 334.667,43.567 306.405,32.2621 z" id="boundary" inkscape:connector-curvature="0" />
	<path style="fill:none;stroke:red;stroke-width:1px;stroke-linecap:butt;stroke-linejoin:miter;stroke-opacity:1" d="M 196.182,9.65242 224.444,4 z" id="boundary" inkscape:connector-curvature="0" />
	<path style="fill:none;stroke:red;stroke-width:1px;stroke-linecap:butt;stroke-linejoin:miter;stroke-opacity:1" d="M 391.191,43.567 362.929,43.567 z" id="boundary" inkscape:connector-curvature="0" />
	<path style="fill:none;stroke:red;stroke-width:1px;stroke-linecap:butt;stroke-linejoin:miter;stroke-opacity:1" d="M 419.453,43.567 391.191,43.567 z" id="boundary" inkscape:connector-curvature="0" />
	<path style="fill:none;stroke:red;stroke-width:1px;stroke-linecap:butt;stroke-linejoin:miter;stroke-opacity:1" d="M 447.715,43.567 419.453,43.567 z" id="boundary" inkscape:connector-curvature="0" />
	<path style="fill:none;stroke:red;stroke-width:1px;stroke-linecap:butt;stroke-linejoin:miter;stroke-opacity:1" d="M 475.977,37.9145 447.715,43.567 z" id="boundary" inkscape:connector-curvature="0" />
	<path style="fill:none;stroke:red;stroke-width:1px;stroke-linecap:butt;stroke-linejoin:miter;stroke-opacity:1" d="M 12.4786,552.285 23.7835,580.547 z" id="boundary" inkscape:connector-curvature="0" />
	<path style="fill:none;stroke:red;stroke-width:1px;stroke-linecap:butt;stroke-linejoin:miter;stroke-opacity:1" d="M 46.3932,600.33 23.7835,580.547 z" id="boundary" inkscape:connector-curvature="0" />
	<path style="fill:none;stroke:red;stroke-width:1px;stroke-linecap:butt;stroke-linejoin:miter;stroke-opacity:1" d="M 66.1766,622.94 46.3932,600.33 z" id="boundary" inkscape:connector-curvature="0" />
	<path style="fill:none;stroke:red;stroke-width:1px;stroke-linecap:butt;stroke-linejoin:miter;stroke-opacity:1" d="M 4,524.023 12.4786,552.285 z" id="boundary" inkscape:connector-curvature="0" />
	<path style="fill:none;stroke:red;stroke-width:1px;stroke-linecap:butt;stroke-linejoin:miter;stroke-opacity:1" d="M 66.1766,622.94 91.6125,637.071 z" id="boundary" inkscape:connector-curvature="0" />
	<path style="fill:none;stroke:red;stroke-width:1px;stroke-linecap:butt;stroke-linejoin:miter;stroke-opacity:1" d="M 91.6125,637.071 117.048,651.202 z" id="boundary" inkscape:connector-curvature="0" />
	<path style="fill:none;stroke:red;stroke-width:1px;stroke-linecap:butt;stroke-linejoin:miter;stroke-opacity:1" d="M 162.268,727.51 134.006,733.162 z" id="boundary" inkscape:connector-curvature="0" />
	<path style="fill:none;stroke:red;stroke-width:1px;stroke-linecap:butt;stroke-linejoin:miter;stroke-opacity:1" d="M 117.048,651.202 145.311,662.507 z" id="boundary" inkscape:connector-curvature="0" />
	<path style="fill:none;stroke:red;stroke-width:1px;stroke-linecap:butt;stroke-linejoin:miter;stroke-opacity:1" d="M 66.1766,846.211 66.1766,874.473 z" id="boundary" inkscape:connector-curvature="0" />
	<path style="fill:none;stroke:red;stroke-width:1px;stroke-linecap:butt;stroke-linejoin:miter;stroke-opacity:1" d="M 66.1766,902.735 66.1766,874.473 z" id="boundary" inkscape:connector-curvature="0" />
	<path style="fill:none;stroke:red;stroke-width:1px;stroke-linecap:butt;stroke-linejoin:miter;stroke-opacity:1" d="M 74.6553,959.259 66.1766,930.997 z" id="boundary" inkscape:connector-curvature="0" />
	<path style="fill:none;stroke:red;stroke-width:1px;stroke-linecap:butt;stroke-linejoin:miter;stroke-opacity:1" d="M 66.1766,930.997 66.1766,902.735 z" id="boundary" inkscape:connector-curvature="0" />
	<path style="fill:none;stroke:red;stroke-width:1px;stroke-linecap:butt;stroke-linejoin:miter;stroke-opacity:1" d="M 77.4815,806.644 88.7863,772.729 z" id="boundary" inkscape:connector-curvature="0" />
	<path style="fill:none;stroke:red;stroke-width:1px;stroke-linecap:butt;stroke-linejoin:miter;stroke-opacity:1" d="M 77.4815,806.644 66.1766,846.211 z" id="boundary" inkscape:connector-curvature="0" />
	<path style="fill:none;stroke:red;stroke-width:1px;stroke-linecap:butt;stroke-linejoin:miter;stroke-opacity:1" d="M 111.396,750.12 134.006,733.162 z" id="boundary" inkscape:connector-curvature="0" />
	<path style="fill:none;stroke:red;stroke-width:1px;stroke-linecap:butt;stroke-linejoin:miter;stroke-opacity:1" d="M 88.7863,772.729 111.396,750.12 z" id="boundary" inkscape:connector-curvature="0" />
	<path style="fill:none;stroke:red;stroke-width:1px;stroke-linecap:butt;stroke-linejoin:miter;stroke-opacity:1" d="M 119.875,996 97.265,979.043 z" id="boundary" inkscape:connector-curvature="0" />
	<path style="fill:none;stroke:red;stroke-width:1px;stroke-linecap:butt;stroke-linejoin:miter;stroke-opacity:1" d="M 97.265,979.043 74.6553,959.259 z" id="boundary" inkscape:connector-curvature="0" />
	<path style="fill:none;stroke:red;stroke-width:1px;stroke-linecap:butt;stroke-linejoin:miter;stroke-opacity:1" d="M 176.399,996 148.137,996 z" id="boundary" inkscape:connector-curvature="0" />
	<path style="fill:none;stroke:red;stroke-width:1px;stroke-linecap:butt;stroke-linejoin:miter;stroke-opacity:1" d="M 148.137,996 119.875,996 z" id="boundary" inkscape:connector-curvature="0" />
	<path style="fill:none;stroke:red;stroke-width:1px;stroke-linecap:butt;stroke-linejoin:miter;stroke-opacity:1" d="M 145.311,662.507 173.573,668.16 z" id="boundary" inkscape:connector-curvature="0" />
	<path style="fill:none;stroke:red;stroke-width:1px;stroke-linecap:butt;stroke-linejoin:miter;stroke-opacity:1" d="M 201.835,665.333 173.573,668.16 z" id="boundary" inkscape:connector-curvature="0" />
	<path style="fill:none;stroke:red;stroke-width:1px;stroke-linecap:butt;stroke-linejoin:miter;stroke-opacity:1" d="M 187.704,713.379 162.268,727.51 z" id="boundary" inkscape:connector-curvature="0" />
	<path style="fill:none;stroke:red;stroke-width:1px;stroke-linecap:butt;stroke-linejoin:miter;stroke-opacity:1" d="M 187.704,713.379 201.835,665.333 z" id="boundary" inkscape:connector-curvature="0" />
	<path style="fill:none;stroke:red;stroke-width:1px;stroke-linecap:butt;stroke-linejoin:miter;stroke-opacity:1" d="M 204.661,996 176.399,996 z" id="boundary" inkscape:connector-curvature="0" />
	<path style="fill:none;stroke:red;stroke-width:1px;stroke-linecap:butt;stroke-linejoin:miter;stroke-opacity:1" d="M 232.923,996 204.661,996 z" id="boundary" inkscape:connector-curvature="0" />
	<path style="fill:none;stroke:red;stroke-width:1px;stroke-linecap:butt;stroke-linejoin:miter;stroke-opacity:1" d="M 261.185,987.521 232.923,996 z" id="boundary" inkscape:connector-curvature="0" />
	<path style="fill:none;stroke:red;stroke-width:1px;stroke-linecap:butt;stroke-linejoin:miter;stroke-opacity:1" d="M 289.447,990.348 261.185,987.521 z" id="boundary" inkscape:connector-curvature="0" />
	<path style="fill:none;stroke:red;stroke-width:1px;stroke-linecap:butt;stroke-linejoin:miter;stroke-opacity:1" d="M 317.709,990.348 289.447,990.348 z" id="boundary" inkscape:connector-curvature="0" />
	<path style="fill:none;stroke:red;stroke-width:1px;stroke-linecap:butt;stroke-linejoin:miter;stroke-opacity:1" d="M 345.972,996 317.709,990.348 z" id="boundary" inkscape:connector-curvature="0" />
	<path style="fill:none;stroke:red;stroke-width:1px;stroke-linecap:butt;stroke-linejoin:miter;stroke-opacity:1" d="M 374.234,996 345.972,996 z" id="boundary" inkscape:connector-curvature="0" />
	<path style="fill:none;stroke:red;stroke-width:1px;stroke-linecap:butt;stroke-linejoin:miter;stroke-opacity:1" d="M 374.234,996 402.496,996 z" id="boundary" inkscape:connector-curvature="0" />
	<path style="fill:none;stroke:red;stroke-width:1px;stroke-linecap:butt;stroke-linejoin:miter;stroke-opacity:1" d="M 430.758,996 402.496,996 z" id="boundary" inkscape:connector-curvature="0" />
	<path style="fill:none;stroke:red;stroke-width:1px;stroke-linecap:butt;stroke-linejoin:miter;stroke-opacity:1" d="M 459.02,993.174 430.758,996 z" id="boundary" inkscape:connector-curvature="0" />
	<path style="fill:none;stroke:red;stroke-width:1px;stroke-linecap:butt;stroke-linejoin:miter;stroke-opacity:1" d="M 475.977,37.9145 501.413,20.9573 z" id="boundary" inkscape:connector-curvature="0" />
	<path style="fill:none;stroke:red;stroke-width:1px;stroke-linecap:butt;stroke-linejoin:miter;stroke-opacity:1" d="M 501.413,20.9573 529.675,9.65242 z" id="boundary" inkscape:connector-curvature="0" />
	<path style="fill:none;stroke:red;stroke-width:1px;stroke-linecap:butt;stroke-linejoin:miter;stroke-opacity:1" d="M 557.937,4 529.675,9.65242 z" id="boundary" inkscape:connector-curvature="0" />
	<path style="fill:none;stroke:red;stroke-width:1px;stroke-linecap:butt;stroke-linejoin:miter;stroke-opacity:1" d="M 586.199,4 614.462,15.3048 z" id="boundary" inkscape:connector-curvature="0" />
	<path style="fill:none;stroke:red;stroke-width:1px;stroke-linecap:butt;stroke-linejoin:miter;stroke-opacity:1" d="M 614.462,15.3048 639.897,29.4359 z" id="boundary" inkscape:connector-curvature="0" />
	<path style="fill:none;stroke:red;stroke-width:1px;stroke-linecap:butt;stroke-linejoin:miter;stroke-opacity:1" d="M 662.507,49.2194 668.16,77.4815 z" id="boundary" inkscape:connector-curvature="0" />
	<path style="fill:none;stroke:red;stroke-width:1px;stroke-linecap:butt;stroke-linejoin:miter;stroke-opacity:1" d="M 662.507,49.2194 639.897,29.4359 z" id="boundary" inkscape:connector-curvature="0" />
	<path style="fill:none;stroke:red;stroke-width:1px;stroke-linecap:butt;stroke-linejoin:miter;stroke-opacity:1" d="M 668.16,77.4815 656.855,122.701 z" id="boundary" inkscape:connector-curvature="0" />
	<path style="fill:none;stroke:red;stroke-width:1px;stroke-linecap:butt;stroke-linejoin:miter;stroke-opacity:1" d="M 634.245,190.53 645.55,156.615 z" id="boundary" inkscape:connector-curvature="0" />
	<path style="fill:none;stroke:red;stroke-width:1px;stroke-linecap:butt;stroke-linejoin:miter;stroke-opacity:1" d="M 656.855,122.701 645.55,156.615 z" id="boundary" inkscape:connector-curvature="0" />
	<path style="fill:none;stroke:red;stroke-width:1px;stroke-linecap:butt;stroke-linejoin:miter;stroke-opacity:1" d="M 557.937,4 586.199,4 z" id="boundary" inkscape:connector-curvature="0" />
	<path style="fill:none;stroke:red;stroke-width:1px;stroke-linecap:butt;stroke-linejoin:miter;stroke-opacity:1" d="M 622.94,343.145 608.809,368.581 z" id="boundary" inkscape:connector-curvature="0" />
	<path style="fill:none;stroke:red;stroke-width:1px;stroke-linecap:butt;stroke-linejoin:miter;stroke-opacity:1" d="M 637.071,317.709 622.94,343.145 z" id="boundary" inkscape:connector-curvature="0" />
	<path style="fill:none;stroke:red;stroke-width:1px;stroke-linecap:butt;stroke-linejoin:miter;stroke-opacity:1" d="M 639.897,286.621 637.071,317.709 z" id="boundary" inkscape:connector-curvature="0" />
	<path style="fill:none;stroke:red;stroke-width:1px;stroke-linecap:butt;stroke-linejoin:miter;stroke-opacity:1" d="M 634.245,190.53 639.897,218.792 z" id="boundary" inkscape:connector-curvature="0" />
	<path style="fill:none;stroke:red;stroke-width:1px;stroke-linecap:butt;stroke-linejoin:miter;stroke-opacity:1" d="M 634.245,382.712 608.809,368.581 z" id="boundary" inkscape:connector-curvature="0" />
	<path style="fill:none;stroke:red;stroke-width:1px;stroke-linecap:butt;stroke-linejoin:miter;stroke-opacity:1" d="M 639.897,218.792 642.724,247.054 z" id="boundary" inkscape:connector-curvature="0" />
	<path style="fill:none;stroke:red;stroke-width:1px;stroke-linecap:butt;stroke-linejoin:miter;stroke-opacity:1" d="M 642.724,247.054 639.897,286.621 z" id="boundary" inkscape:connector-curvature="0" />
	<path style="fill:none;stroke:red;stroke-width:1px;stroke-linecap:butt;stroke-linejoin:miter;stroke-opacity:1" d="M 662.507,382.712 634.245,382.712 z" id="boundary" inkscape:connector-curvature="0" />
	<path style="fill:none;stroke:red;stroke-width:1px;stroke-linecap:butt;stroke-linejoin:miter;stroke-opacity:1" d="M 662.507,382.712 690.769,394.017 z" id="boundary" inkscape:connector-curvature="0" />
	<path style="fill:none;stroke:red;stroke-width:1px;stroke-linecap:butt;stroke-linejoin:miter;stroke-opacity:1" d="M 690.769,394.017 719.031,405.322 z" id="boundary" inkscape:connector-curvature="0" />
	<path style="fill:none;stroke:red;stroke-width:1px;stroke-linecap:butt;stroke-linejoin:miter;stroke-opacity:1" d="M 685.117,656.855 656.855,668.16 z" id="boundary" inkscape:connector-curvature="0" />
	<path style="fill:none;stroke:red;stroke-width:1px;stroke-linecap:butt;stroke-linejoin:miter;stroke-opacity:1" d="M 851.863,450.541 823.601,444.889 z" id="boundary" inkscape:connector-curvature="0" />
	<path style="fill:none;stroke:red;stroke-width:1px;stroke-linecap:butt;stroke-linejoin:miter;stroke-opacity:1" d="M 738.815,427.932 719.031,405.322 z" id="boundary" inkscape:connector-curvature="0" />
	<path style="fill:none;stroke:red;stroke-width:1px;stroke-linecap:butt;stroke-linejoin:miter;stroke-opacity:1" d="M 767.077,433.584 738.815,427.932 z" id="boundary" inkscape:connector-curvature="0" />
	<path style="fill:none;stroke:red;stroke-width:1px;stroke-linecap:butt;stroke-linejoin:miter;stroke-opacity:1" d="M 767.077,433.584 795.339,433.584 z" id="boundary" inkscape:connector-curvature="0" />
	<path style="fill:none;stroke:red;stroke-width:1px;stroke-linecap:butt;stroke-linejoin:miter;stroke-opacity:1" d="M 795.339,433.584 823.601,444.889 z" id="boundary" inkscape:connector-curvature="0" />
	<path style="fill:none;stroke:red;stroke-width:1px;stroke-linecap:butt;stroke-linejoin:miter;stroke-opacity:1" d="M 894.256,524.023 888.604,495.761 z" id="boundary" inkscape:connector-curvature="0" />
	<path style="fill:none;stroke:red;stroke-width:1px;stroke-linecap:butt;stroke-linejoin:miter;stroke-opacity:1" d="M 874.473,470.325 851.863,450.541 z" id="boundary" inkscape:connector-curvature="0" />
	<path style="fill:none;stroke:red;stroke-width:1px;stroke-linecap:butt;stroke-linejoin:miter;stroke-opacity:1" d="M 888.604,495.761 874.473,470.325 z" id="boundary" inkscape:connector-curvature="0" />
	<path style="fill:none;stroke:red;stroke-width:1px;stroke-linecap:butt;stroke-linejoin:miter;stroke-opacity:1" d="M 798.165,634.245 769.903,645.55 z" id="boundary" inkscape:connector-curvature="0" />
	<path style="fill:none;stroke:red;stroke-width:1px;stroke-linecap:butt;stroke-linejoin:miter;stroke-opacity:1" d="M 713.379,662.507 685.117,656.855 z" id="boundary" inkscape:connector-curvature="0" />
	<path style="fill:none;stroke:red;stroke-width:1px;stroke-linecap:butt;stroke-linejoin:miter;stroke-opacity:1" d="M 741.641,654.028 713.379,662.507 z" id="boundary" inkscape:connector-curvature="0" />
	<path style="fill:none;stroke:red;stroke-width:1px;stroke-linecap:butt;stroke-linejoin:miter;stroke-opacity:1" d="M 769.903,645.55 741.641,654.028 z" id="boundary" inkscape:connector-curvature="0" />
	<path style="fill:none;stroke:red;stroke-width:1px;stroke-linecap:butt;stroke-linejoin:miter;stroke-opacity:1" d="M 894.256,524.023 882.952,552.285 z" id="boundary" inkscape:connector-curvature="0" />
	<path style="fill:none;stroke:red;stroke-width:1px;stroke-linecap:butt;stroke-linejoin:miter;stroke-opacity:1" d="M 823.601,617.288 798.165,634.245 z" id="boundary" inkscape:connector-curvature="0" />
	<path style="fill:none;stroke:red;stroke-width:1px;stroke-linecap:butt;stroke-linejoin:miter;stroke-opacity:1" d="M 849.037,603.157 823.601,617.288 z" id="boundary" inkscape:connector-curvature="0" />
	<path style="fill:none;stroke:red;stroke-width:1px;stroke-linecap:butt;stroke-linejoin:miter;stroke-opacity:1" d="M 871.647,580.547 849.037,603.157 z" id="boundary" inkscape:connector-curvature="0" />
	<path style="fill:none;stroke:red;stroke-width:1px;stroke-linecap:butt;stroke-linejoin:miter;stroke-opacity:1" d="M 871.647,580.547 882.952,552.285 z" id="boundary" inkscape:connector-curvature="0" />
	<path style="fill:none;stroke:red;stroke-width:1px;stroke-linecap:butt;stroke-linejoin:miter;stroke-opacity:1" d="M 634.245,693.595 628.593,665.333 z" id="boundary" inkscape:connector-curvature="0" />
	<path style="fill:none;stroke:red;stroke-width:1px;stroke-linecap:butt;stroke-linejoin:miter;stroke-opacity:1" d="M 628.593,665.333 656.855,668.16 z" id="boundary" inkscape:connector-curvature="0" />
	<path style="fill:none;stroke:red;stroke-width:1px;stroke-linecap:butt;stroke-linejoin:miter;stroke-opacity:1" d="M 634.245,693.595 654.028,716.205 z" id="boundary" inkscape:connector-curvature="0" />
	<path style="fill:none;stroke:red;stroke-width:1px;stroke-linecap:butt;stroke-linejoin:miter;stroke-opacity:1" d="M 654.028,716.205 682.291,719.031 z" id="boundary" inkscape:connector-curvature="0" />
	<path style="fill:none;stroke:red;stroke-width:1px;stroke-linecap:butt;stroke-linejoin:miter;stroke-opacity:1" d="M 682.291,719.031 710.553,730.336 z" id="boundary" inkscape:connector-curvature="0" />
	<path style="fill:none;stroke:red;stroke-width:1px;stroke-linecap:butt;stroke-linejoin:miter;stroke-opacity:1" d="M 738.815,727.51 710.553,730.336 z" id="boundary" inkscape:connector-curvature="0" />
	<path style="fill:none;stroke:red;stroke-width:1px;stroke-linecap:butt;stroke-linejoin:miter;stroke-opacity:1" d="M 487.282,990.348 459.02,993.174 z" id="boundary" inkscape:connector-curvature="0" />
	<path style="fill:none;stroke:red;stroke-width:1px;stroke-linecap:butt;stroke-linejoin:miter;stroke-opacity:1" d="M 515.544,984.695 487.282,990.348 z" id="boundary" inkscape:connector-curvature="0" />
	<path style="fill:none;stroke:red;stroke-width:1px;stroke-linecap:butt;stroke-linejoin:miter;stroke-opacity:1" d="M 600.33,973.39 572.068,979.043 z" id="boundary" inkscape:connector-curvature="0" />
	<path style="fill:none;stroke:red;stroke-width:1px;stroke-linecap:butt;stroke-linejoin:miter;stroke-opacity:1" d="M 572.068,979.043 543.806,981.869 z" id="boundary" inkscape:connector-curvature="0" />
	<path style="fill:none;stroke:red;stroke-width:1px;stroke-linecap:butt;stroke-linejoin:miter;stroke-opacity:1" d="M 543.806,981.869 515.544,984.695 z" id="boundary" inkscape:connector-curvature="0" />
	<path style="fill:none;stroke:red;stroke-width:1px;stroke-linecap:butt;stroke-linejoin:miter;stroke-opacity:1" d="M 656.855,973.39 628.593,973.39 z" id="boundary" inkscape:connector-curvature="0" />
	<path style="fill:none;stroke:red;stroke-width:1px;stroke-linecap:butt;stroke-linejoin:miter;stroke-opacity:1" d="M 679.464,990.348 656.855,973.39 z" id="boundary" inkscape:connector-curvature="0" />
	<path style="fill:none;stroke:red;stroke-width:1px;stroke-linecap:butt;stroke-linejoin:miter;stroke-opacity:1" d="M 628.593,973.39 600.33,973.39 z" id="boundary" inkscape:connector-curvature="0" />
	<path style="fill:none;stroke:red;stroke-width:1px;stroke-linecap:butt;stroke-linejoin:miter;stroke-opacity:1" d="M 764.251,996 735.989,996 z" id="boundary" inkscape:connector-curvature="0" />
	<path style="fill:none;stroke:red;stroke-width:1px;stroke-linecap:butt;stroke-linejoin:miter;stroke-opacity:1" d="M 707.726,996 679.464,990.348 z" id="boundary" inkscape:connector-curvature="0" />
	<path style="fill:none;stroke:red;stroke-width:1px;stroke-linecap:butt;stroke-linejoin:miter;stroke-opacity:1" d="M 735.989,996 707.726,996 z" id="boundary" inkscape:connector-curvature="0" />
	<path style="fill:none;stroke:red;stroke-width:1px;stroke-linecap:butt;stroke-linejoin:miter;stroke-opacity:1" d="M 738.815,727.51 767.077,727.51 z" id="boundary" inkscape:connector-curvature="0" />
	<path style="fill:none;stroke:red;stroke-width:1px;stroke-linecap:butt;stroke-linejoin:miter;stroke-opacity:1" d="M 795.339,727.51 767.077,727.51 z" id="boundary" inkscape:connector-curvature="0" />
	<path style="fill:none;stroke:red;stroke-width:1px;stroke-linecap:butt;stroke-linejoin:miter;stroke-opacity:1" d="M 795.339,727.51 823.601,730.336 z" id="boundary" inkscape:connector-curvature="0" />
	<path style="fill:none;stroke:red;stroke-width:1px;stroke-linecap:butt;stroke-linejoin:miter;stroke-opacity:1" d="M 823.601,730.336 846.211,747.293 z" id="boundary" inkscape:connector-curvature="0" />
	<path style="fill:none;stroke:red;stroke-width:1px;stroke-linecap:butt;stroke-linejoin:miter;stroke-opacity:1" d="M 868.821,764.251 846.211,747.293 z" id="boundary" inkscape:connector-curvature="0" />
	<path style="fill:none;stroke:red;stroke-width:1px;stroke-linecap:butt;stroke-linejoin:miter;stroke-opacity:1" d="M 877.299,792.513 868.821,764.251 z" id="boundary" inkscape:connector-curvature="0" />
	<path style="fill:none;stroke:red;stroke-width:1px;stroke-linecap:butt;stroke-linejoin:miter;stroke-opacity:1" d="M 792.513,996 764.251,996 z" id="boundary" inkscape:connector-curvature="0" />
	<path style="fill:none;stroke:red;stroke-width:1px;stroke-linecap:butt;stroke-linejoin:miter;stroke-opacity:1" d="M 820.775,990.348 792.513,996 z" id="boundary" inkscape:connector-curvature="0" />
	<path style="fill:none;stroke:red;stroke-width:1px;stroke-linecap:butt;stroke-linejoin:miter;stroke-opacity:1" d="M 894.256,849.037 888.604,897.083 z" id="boundary" inkscape:connector-curvature="0" />
	<path style="fill:none;stroke:red;stroke-width:1px;stroke-linecap:butt;stroke-linejoin:miter;stroke-opacity:1" d="M 882.952,820.775 877.299,792.513 z" id="boundary" inkscape:connector-curvature="0" />
	<path style="fill:none;stroke:red;stroke-width:1px;stroke-linecap:butt;stroke-linejoin:miter;stroke-opacity:1" d="M 882.952,820.775 894.256,849.037 z" id="boundary" inkscape:connector-curvature="0" />
	<path style="fill:none;stroke:red;stroke-width:1px;stroke-linecap:butt;stroke-linejoin:miter;stroke-opacity:1" d="M 846.211,973.39 820.775,990.348 z" id="boundary" inkscape:connector-curvature="0" />
	<path style="fill:none;stroke:red;stroke-width:1px;stroke-linecap:butt;stroke-linejoin:miter;stroke-opacity:1" d="M 868.821,956.433 846.211,973.39 z" id="boundary" inkscape:connector-curvature="0" />
	<path style="fill:none;stroke:red;stroke-width:1px;stroke-linecap:butt;stroke-linejoin:miter;stroke-opacity:1" d="M 868.821,956.433 888.604,925.345 z" id="boundary" inkscape:connector-curvature="0" />
	<path style="fill:none;stroke:red;stroke-width:1px;stroke-linecap:butt;stroke-linejoin:miter;stroke-opacity:1" d="M 888.604,897.083 888.604,925.345 z" id="boundary" inkscape:connector-curvature="0" />
	<circle cx="4" cy="524.023" r="4" fill="#0" id="circle0"/>
	<circle cx="12.4786" cy="552.285" r="4" fill="#0" id="circle1"/>
	<circle cx="15.3048" cy="495.761" r="4" fill="#0" id="circle2"/>
	<circle cx="23.7835" cy="580.547" r="4" fill="#0" id="circle3"/>
	<circle cx="29.4359" cy="470.325" r="4" fill="#0" id="circle4"/>
	<circle cx="46.3932" cy="600.33" r="4" fill="#0" id="circle5"/>
	<circle cx="52.0456" cy="447.715" r="4" fill="#0" id="circle6"/>
	<circle cx="66.1766" cy="622.94" r="4" fill="#0" id="circle7"/>
	<circle cx="66.1766" cy="846.211" r="4" fill="#0" id="circle8"/>
	<circle cx="66.1766" cy="874.473" r="4" fill="#0" id="circle9"/>
	<circle cx="66.1766" cy="902.735" r="4" fill="#0" id="circle10"/>
	<circle cx="66.1766" cy="930.997" r="4" fill="#0" id="circle11"/>
	<circle cx="74.6553" cy="430.758" r="4" fill="#0" id="circle12"/>
	<circle cx="74.6553" cy="959.259" r="4" fill="#0" id="circle13"/>
	<circle cx="77.4815" cy="806.644" r="4" fill="#0" id="circle14"/>
	<circle cx="88.7863" cy="772.729" r="4" fill="#0" id="circle15"/>
	<circle cx="91.6125" cy="408.148" r="4" fill="#0" id="circle16"/>
	<circle cx="91.6125" cy="637.071" r="4" fill="#0" id="circle17"/>
	<circle cx="97.265" cy="979.043" r="4" fill="#0" id="circle18"/>
	<circle cx="111.396" cy="750.12" r="4" fill="#0" id="circle19"/>
	<circle cx="117.048" cy="651.202" r="4" fill="#0" id="circle20"/>
	<circle cx="119.875" cy="396.843" r="4" fill="#0" id="circle21"/>
	<circle cx="119.875" cy="996" r="4" fill="#0" id="circle22"/>
	<circle cx="122.701" cy="60.5242" r="4" fill="#0" id="circle23"/>
	<circle cx="125.527" cy="88.7863" r="4" fill="#0" id="circle24"/>
	<circle cx="128.353" cy="117.048" r="4" fill="#0" id="circle25"/>
	<circle cx="134.006" cy="733.162" r="4" fill="#0" id="circle26"/>
	<circle cx="139.658" cy="145.311" r="4" fill="#0" id="circle27"/>
	<circle cx="145.311" cy="37.9145" r="4" fill="#0" id="circle28"/>
	<circle cx="145.311" cy="662.507" r="4" fill="#0" id="circle29"/>
	<circle cx="148.137" cy="385.538" r="4" fill="#0" id="circle30"/>
	<circle cx="148.137" cy="996" r="4" fill="#0" id="circle31"/>
	<circle cx="153.789" cy="170.746" r="4" fill="#0" id="circle32"/>
	<circle cx="162.268" cy="199.009" r="4" fill="#0" id="circle33"/>
	<circle cx="162.268" cy="727.51" r="4" fill="#0" id="circle34"/>
	<circle cx="167.92" cy="20.9573" r="4" fill="#0" id="circle35"/>
	<circle cx="167.92" cy="227.271" r="4" fill="#0" id="circle36"/>
	<circle cx="167.92" cy="255.533" r="4" fill="#0" id="circle37"/>
	<circle cx="167.92" cy="283.795" r="4" fill="#0" id="circle38"/>
	<circle cx="173.573" cy="312.057" r="4" fill="#0" id="circle39"/>
	<circle cx="173.573" cy="668.16" r="4" fill="#0" id="circle40"/>
	<circle cx="176.399" cy="382.712" r="4" fill="#0" id="circle41"/>
	<circle cx="176.399" cy="996" r="4" fill="#0" id="circle42"/>
	<circle cx="179.225" cy="340.319" r="4" fill="#0" id="circle43"/>
	<circle cx="187.704" cy="713.379" r="4" fill="#0" id="circle44"/>
	<circle cx="196.182" cy="9.65242" r="4" fill="#0" id="circle45"/>
	<circle cx="201.835" cy="665.333" r="4" fill="#0" id="circle46"/>
	<circle cx="204.661" cy="996" r="4" fill="#0" id="circle47"/>
	<circle cx="224.444" cy="4" r="4" fill="#0" id="circle48"/>
	<circle cx="232.923" cy="996" r="4" fill="#0" id="circle49"/>
	<circle cx="252.707" cy="9.65242" r="4" fill="#0" id="circle50"/>
	<circle cx="261.185" cy="987.521" r="4" fill="#0" id="circle51"/>
	<circle cx="280.969" cy="18.1311" r="4" fill="#0" id="circle52"/>
	<circle cx="289.447" cy="990.348" r="4" fill="#0" id="circle53"/>
	<circle cx="306.405" cy="32.2621" r="4" fill="#0" id="circle54"/>
	<circle cx="317.709" cy="990.348" r="4" fill="#0" id="circle55"/>
	<circle cx="334.667" cy="43.567" r="4" fill="#0" id="circle56"/>
	<circle cx="345.972" cy="996" r="4" fill="#0" id="circle57"/>
	<circle cx="362.929" cy="43.567" r="4" fill="#0" id="circle58"/>
	<circle cx="374.234" cy="996" r="4" fill="#0" id="circle59"/>
	<circle cx="391.191" cy="43.567" r="4" fill="#0" id="circle60"/>
	<circle cx="402.496" cy="996" r="4" fill="#0" id="circle61"/>
	<circle cx="419.453" cy="43.567" r="4" fill="#0" id="circle62"/>
	<circle cx="430.758" cy="996" r="4" fill="#0" id="circle63"/>
	<circle cx="447.715" cy="43.567" r="4" fill="#0" id="circle64"/>
	<circle cx="459.02" cy="993.174" r="4" fill="#0" id="circle65"/>
	<circle cx="475.977" cy="37.9145" r="4" fill="#0" id="circle66"/>
	<circle cx="487.282" cy="990.348" r="4" fill="#0" id="circle67"/>
	<circle cx="501.413" cy="20.9573" r="4" fill="#0" id="circle68"/>
	<circle cx="515.544" cy="984.695" r="4" fill="#0" id="circle69"/>
	<circle cx="529.675" cy="9.65242" r="4" fill="#0" id="circle70"/>
	<circle cx="543.806" cy="981.869" r="4" fill="#0" id="circle71"/>
	<circle cx="557.937" cy="4" r="4" fill="#0" id="circle72"/>
	<circle cx="572.068" cy="979.043" r="4" fill="#0" id="circle73"/>
	<circle cx="586.199" cy="4" r="4" fill="#0" id="circle74"/>
	<circle cx="600.33" cy="973.39" r="4" fill="#0" id="circle75"/>
	<circle cx="608.809" cy="368.581" r="4" fill="#0" id="circle76"/>
	<circle cx="614.462" cy="15.3048" r="4" fill="#0" id="circle77"/>
	<circle cx="622.94" cy="343.145" r="4" fill="#0" id="circle78"/>
	<circle cx="628.593" cy="665.333" r="4" fill="#0" id="circle79"/>
	<circle cx="628.593" cy="973.39" r="4" fill="#0" id="circle80"/>
	<circle cx="634.245" cy="190.53" r="4" fill="#0" id="circle81"/>
	<circle cx="634.245" cy="382.712" r="4" fill="#0" id="circle82"/>
	<circle cx="634.245" cy="693.595" r="4" fill="#0" id="circle83"/>
	<circle cx="637.071" cy="317.709" r="4" fill="#0" id="circle84"/>
	<circle cx="639.897" cy="29.4359" r="4" fill="#0" id="circle85"/>
	<circle cx="639.897" cy="218.792" r="4" fill="#0" id="circle86"/>
	<circle cx="639.897" cy="286.621" r="4" fill="#0" id="circle87"/>
	<circle cx="642.724" cy="247.054" r="4" fill="#0" id="circle88"/>
	<circle cx="645.55" cy="156.615" r="4" fill="#0" id="circle89"/>
	<circle cx="654.028" cy="716.205" r="4" fill="#0" id="circle90"/>
	<circle cx="656.855" cy="122.701" r="4" fill="#0" id="circle91"/>
	<circle cx="656.855" cy="668.16" r="4" fill="#0" id="circle92"/>
	<circle cx="656.855" cy="973.39" r="4" fill="#0" id="circle93"/>
	<circle cx="662.507" cy="49.2194" r="4" fill="#0" id="circle94"/>
	<circle cx="662.507" cy="382.712" r="4" fill="#0" id="circle95"/>
	<circle cx="668.16" cy="77.4815" r="4" fill="#0" id="circle96"/>
	<circle cx="679.464" cy="990.348" r="4" fill="#0" id="circle97"/>
	<circle cx="682.291" cy="719.031" r="4" fill="#0" id="circle98"/>
	<circle cx="685.117" cy="656.855" r="4" fill="#0" id="circle99"/>
	<circle cx="690.769" cy="394.017" r="4" fill="#0" id="circle100"/>
	<circle cx="707.726" cy="996" r="4" fill="#0" id="circle101"/>
	<circle cx="710.553" cy="730.336" r="4" fill="#0" id="circle102"/>
	<circle cx="713.379" cy="662.507" r="4" fill="#0" id="circle103"/>
	<circle cx="719.031" cy="405.322" r="4" fill="#0" id="circle104"/>
	<circle cx="735.989" cy="996" r="4" fill="#0" id="circle105"/>
	<circle cx="738.815" cy="427.932" r="4" fill="#0" id="circle106"/>
	<circle cx="738.815" cy="727.51" r="4" fill="#0" id="circle107"/>
	<circle cx="741.641" cy="654.028" r="4" fill="#0" id="circle108"/>
	<circle cx="764.251" cy="996" r="4" fill="#0" id="circle109"/>
	<circle cx="767.077" cy="433.584" r="4" fill="#0" id="circle110"/>
	<circle cx="767.077" cy="727.51" r="4" fill="#0" id="circle111"/>
	<circle cx="769.903" cy="645.55" r="4" fill="#0" id="circle112"/>
	<circle cx="792.513" cy="996" r="4" fill="#0" id="circle113"/>
	<circle cx="795.339" cy="433.584" r="4" fill="#0" id="circle114"/>
	<circle cx="795.339" cy="727.51" r="4" fill="#0" id="circle115"/>
	<circle cx="798.165" cy="634.245" r="4" fill="#0" id="circle116"/>
	<circle cx="820.775" cy="990.348" r="4" fill="#0" id="circle117"/>
	<circle cx="823.601" cy="444.889" r="4" fill="#0" id="circle118"/>
	<circle cx="823.601" cy="617.288" r="4" fill="#0" id="circle119"/>
	<circle cx="823.601" cy="730.336" r="4" fill="#0" id="circle120"/>
	<circle cx="846.211" cy="747.293" r="4" fill="#0" id="circle121"/>
	<circle cx="846.211" cy="973.39" r="4" fill="#0" id="circle122"/>
	<circle cx="849.037" cy="603.157" r="4" fill="#0" id="circle123"/>
	<circle cx="851.863" cy="450.541" r="4" fill="#0" id="circle124"/>
	<circle cx="868.821" cy="764.251" r="4" fill="#0" id="circle125"/>
	<circle cx="868.821" cy="956.433" r="4" fill="#0" id="circle126"/>
	<circle cx="871.647" cy="580.547" r="4" fill="#0" id="circle127"/>
	<circle cx="874.473" cy="470.325" r="4" fill="#0" id="circle128"/>
	<circle cx="877.299" cy="792.513" r="4" fill="#0" id="circle129"/>
	<circle cx="882.952" cy="552.285" r="4" fill="#0" id="circle130"/>
	<circle cx="882.952" cy="820.775" r="4" fill="#0" id="circle131"/>
	<circle cx="888.604" cy="495.761" r="4" fill="#0" id="circle132"/>
	<circle cx="888.604" cy="897.083" r="4" fill="#0" id="circle133"/>
	<circle cx="888.604" cy="925.345" r="4" fill="#0" id="circle134"/>
	<circle cx="894.256" cy="524.023" r="4" fill="#0" id="circle135"/>
	<circle cx="894.256" cy="849.037" r="4" fill="#0" id="circle136"/>
	</g>
</svg>