<?xml version="1.0" encoding="UTF-8" standalone="no"?>
<!-- Created with CurveBenchmark -->
<svg
	xmlns:dc="http://purl.org/dc/elements/1.1/"
	xmlns:cc="http://creativecommons.org/ns#"
	xmlns:rdf="http://www.w3.org/1999/02/22-rdf-syntax-ns#"
	xmlns:svg="http://www.w3.org/2000/svg"
	xmlns="http://www.w3.org/2000/svg"
	xmlns:sodipodi="http://sodipodi.sourceforge.net/DTD/sodipodi-0.dtd"
	xmlns:inkscape="http://www.inkscape.org/namespaces/inkscape"
	width="1000"
	height="1000"
	id="svg2"
	version="1.1"
	sodipodi:docname="manifold/crust-hammer39.png.txt">
<defs
	id="defs4" />
<metadata
	id="metadata7">
	<rdf:RDF>
		<cc:Work
			rdf:about="">
			<dc:format>image/svg+xml</dc:format>
			<dc:type
				rdf:resource="http://purl.org/dc/dcmitype/StillImage" />
			<dc:title></dc:title>
		</cc:Work>
	</rdf:RDF>
</metadata>
<g
	inkscape:label="Layer 1"
	inkscape:groupmode="layer"
	id="layer1">
	<path style="fill:none;stroke:red;stroke-width:1px;stroke-linecap:butt;stroke-linejoin:miter;stroke-opacity:1" d="M 85.9083,163.266 74.5321,186.018 z" id="boundary" inkscape:connector-curvature="0" />
	<path style="fill:none;stroke:red;stroke-width:1px;stroke-linecap:butt;stroke-linejoin:miter;stroke-opacity:1" d="M 74.5321,186.018 56.3303,204.22 z" id="boundary" inkscape:connector-curvature="0" />
	<path style="fill:none;stroke:red;stroke-width:1px;stroke-linecap:butt;stroke-linejoin:miter;stroke-opacity:1" d="M 126.862,135.963 108.661,151.89 z" id="boundary" inkscape:connector-curvature="0" />
	<path style="fill:none;stroke:red;stroke-width:1px;stroke-linecap:butt;stroke-linejoin:miter;stroke-opacity:1" d="M 108.661,151.89 85.9083,163.266 z" id="boundary" inkscape:connector-curvature="0" />
	<path style="fill:none;stroke:red;stroke-width:1px;stroke-linecap:butt;stroke-linejoin:miter;stroke-opacity:1" d="M 126.862,135.963 135.963,113.211 z" id="boundary" inkscape:connector-curvature="0" />
	<path style="fill:none;stroke:red;stroke-width:1px;stroke-linecap:butt;stroke-linejoin:miter;stroke-opacity:1" d="M 156.44,101.835 135.963,113.211 z" id="boundary" inkscape:connector-curvature="0" />
	<path style="fill:none;stroke:red;stroke-width:1px;stroke-linecap:butt;stroke-linejoin:miter;stroke-opacity:1" d="M 192.844,56.3303 174.642,74.5321 z" id="boundary" inkscape:connector-curvature="0" />
	<path style="fill:none;stroke:red;stroke-width:1px;stroke-linecap:butt;stroke-linejoin:miter;stroke-opacity:1" d="M 213.321,44.9541 192.844,56.3303 z" id="boundary" inkscape:connector-curvature="0" />
	<path style="fill:none;stroke:red;stroke-width:1px;stroke-linecap:butt;stroke-linejoin:miter;stroke-opacity:1" d="M 213.321,44.9541 224.697,24.4771 z" id="boundary" inkscape:connector-curvature="0" />
	<path style="fill:none;stroke:red;stroke-width:1px;stroke-linecap:butt;stroke-linejoin:miter;stroke-opacity:1" d="M 242.899,10.8257 224.697,24.4771 z" id="boundary" inkscape:connector-curvature="0" />
	<path style="fill:none;stroke:red;stroke-width:1px;stroke-linecap:butt;stroke-linejoin:miter;stroke-opacity:1" d="M 156.44,101.835 174.642,74.5321 z" id="boundary" inkscape:connector-curvature="0" />
	<path style="fill:none;stroke:red;stroke-width:1px;stroke-linecap:butt;stroke-linejoin:miter;stroke-opacity:1" d="M 4,256.55 4,279.303 z" id="boundary" inkscape:connector-curvature="0" />
	<path style="fill:none;stroke:red;stroke-width:1px;stroke-linecap:butt;stroke-linejoin:miter;stroke-opacity:1" d="M 26.7523,245.174 4,256.55 z" id="boundary" inkscape:connector-curvature="0" />
	<path style="fill:none;stroke:red;stroke-width:1px;stroke-linecap:butt;stroke-linejoin:miter;stroke-opacity:1" d="M 26.7523,245.174 38.1284,222.422 z" id="boundary" inkscape:connector-curvature="0" />
	<path style="fill:none;stroke:red;stroke-width:1px;stroke-linecap:butt;stroke-linejoin:miter;stroke-opacity:1" d="M 56.3303,204.22 38.1284,222.422 z" id="boundary" inkscape:connector-curvature="0" />
	<path style="fill:none;stroke:red;stroke-width:1px;stroke-linecap:butt;stroke-linejoin:miter;stroke-opacity:1" d="M 17.6514,297.505 4,279.303 z" id="boundary" inkscape:connector-curvature="0" />
	<path style="fill:none;stroke:red;stroke-width:1px;stroke-linecap:butt;stroke-linejoin:miter;stroke-opacity:1" d="M 265.651,4 288.404,10.8257 z" id="boundary" inkscape:connector-curvature="0" />
	<path style="fill:none;stroke:red;stroke-width:1px;stroke-linecap:butt;stroke-linejoin:miter;stroke-opacity:1" d="M 311.156,10.8257 288.404,10.8257 z" id="boundary" inkscape:connector-curvature="0" />
	<path style="fill:none;stroke:red;stroke-width:1px;stroke-linecap:butt;stroke-linejoin:miter;stroke-opacity:1" d="M 311.156,10.8257 333.908,15.3761 z" id="boundary" inkscape:connector-curvature="0" />
	<path style="fill:none;stroke:red;stroke-width:1px;stroke-linecap:butt;stroke-linejoin:miter;stroke-opacity:1" d="M 265.651,4 242.899,10.8257 z" id="boundary" inkscape:connector-curvature="0" />
	<path style="fill:none;stroke:red;stroke-width:1px;stroke-linecap:butt;stroke-linejoin:miter;stroke-opacity:1" d="M 356.661,22.2018 374.862,35.8532 z" id="boundary" inkscape:connector-curvature="0" />
	<path style="fill:none;stroke:red;stroke-width:1px;stroke-linecap:butt;stroke-linejoin:miter;stroke-opacity:1" d="M 356.661,22.2018 333.908,15.3761 z" id="boundary" inkscape:connector-curvature="0" />
	<path style="fill:none;stroke:red;stroke-width:1px;stroke-linecap:butt;stroke-linejoin:miter;stroke-opacity:1" d="M 397.615,44.9541 374.862,35.8532 z" id="boundary" inkscape:connector-curvature="0" />
	<path style="fill:none;stroke:red;stroke-width:1px;stroke-linecap:butt;stroke-linejoin:miter;stroke-opacity:1" d="M 413.541,63.156 397.615,44.9541 z" id="boundary" inkscape:connector-curvature="0" />
	<path style="fill:none;stroke:red;stroke-width:1px;stroke-linecap:butt;stroke-linejoin:miter;stroke-opacity:1" d="M 413.541,63.156 415.817,85.9083 z" id="boundary" inkscape:connector-curvature="0" />
	<path style="fill:none;stroke:red;stroke-width:1px;stroke-linecap:butt;stroke-linejoin:miter;stroke-opacity:1" d="M 404.44,126.862 415.817,85.9083 z" id="boundary" inkscape:connector-curvature="0" />
	<path style="fill:none;stroke:red;stroke-width:1px;stroke-linecap:butt;stroke-linejoin:miter;stroke-opacity:1" d="M 393.064,149.615 370.312,160.991 z" id="boundary" inkscape:connector-curvature="0" />
	<path style="fill:none;stroke:red;stroke-width:1px;stroke-linecap:butt;stroke-linejoin:miter;stroke-opacity:1" d="M 370.312,160.991 358.936,183.743 z" id="boundary" inkscape:connector-curvature="0" />
	<path style="fill:none;stroke:red;stroke-width:1px;stroke-linecap:butt;stroke-linejoin:miter;stroke-opacity:1" d="M 358.936,183.743 363.486,206.495 z" id="boundary" inkscape:connector-curvature="0" />
	<path style="fill:none;stroke:red;stroke-width:1px;stroke-linecap:butt;stroke-linejoin:miter;stroke-opacity:1" d="M 363.486,206.495 374.862,226.972 z" id="boundary" inkscape:connector-curvature="0" />
	<path style="fill:none;stroke:red;stroke-width:1px;stroke-linecap:butt;stroke-linejoin:miter;stroke-opacity:1" d="M 393.064,149.615 404.44,126.862 z" id="boundary" inkscape:connector-curvature="0" />
	<path style="fill:none;stroke:red;stroke-width:1px;stroke-linecap:butt;stroke-linejoin:miter;stroke-opacity:1" d="M 395.339,238.349 374.862,226.972 z" id="boundary" inkscape:connector-curvature="0" />
	<path style="fill:none;stroke:red;stroke-width:1px;stroke-linecap:butt;stroke-linejoin:miter;stroke-opacity:1" d="M 413.541,254.275 395.339,238.349 z" id="boundary" inkscape:connector-curvature="0" />
	<path style="fill:none;stroke:red;stroke-width:1px;stroke-linecap:butt;stroke-linejoin:miter;stroke-opacity:1" d="M 427.193,272.477 413.541,254.275 z" id="boundary" inkscape:connector-curvature="0" />
	<path style="fill:none;stroke:red;stroke-width:1px;stroke-linecap:butt;stroke-linejoin:miter;stroke-opacity:1" d="M 445.394,286.128 427.193,272.477 z" id="boundary" inkscape:connector-curvature="0" />
	<path style="fill:none;stroke:red;stroke-width:1px;stroke-linecap:butt;stroke-linejoin:miter;stroke-opacity:1" d="M 465.872,297.505 445.394,286.128 z" id="boundary" inkscape:connector-curvature="0" />
	<path style="fill:none;stroke:red;stroke-width:1px;stroke-linecap:butt;stroke-linejoin:miter;stroke-opacity:1" d="M 17.6514,297.505 38.1284,308.881 z" id="boundary" inkscape:connector-curvature="0" />
	<path style="fill:none;stroke:red;stroke-width:1px;stroke-linecap:butt;stroke-linejoin:miter;stroke-opacity:1" d="M 44.9541,331.633 38.1284,308.881 z" id="boundary" inkscape:connector-curvature="0" />
	<path style="fill:none;stroke:red;stroke-width:1px;stroke-linecap:butt;stroke-linejoin:miter;stroke-opacity:1" d="M 110.936,354.385 88.1835,349.835 z" id="boundary" inkscape:connector-curvature="0" />
	<path style="fill:none;stroke:red;stroke-width:1px;stroke-linecap:butt;stroke-linejoin:miter;stroke-opacity:1" d="M 65.4312,343.009 44.9541,331.633 z" id="boundary" inkscape:connector-curvature="0" />
	<path style="fill:none;stroke:red;stroke-width:1px;stroke-linecap:butt;stroke-linejoin:miter;stroke-opacity:1" d="M 88.1835,349.835 65.4312,343.009 z" id="boundary" inkscape:connector-curvature="0" />
	<path style="fill:none;stroke:red;stroke-width:1px;stroke-linecap:butt;stroke-linejoin:miter;stroke-opacity:1" d="M 110.936,354.385 129.138,368.037 z" id="boundary" inkscape:connector-curvature="0" />
	<path style="fill:none;stroke:red;stroke-width:1px;stroke-linecap:butt;stroke-linejoin:miter;stroke-opacity:1" d="M 145.064,386.239 129.138,368.037 z" id="boundary" inkscape:connector-curvature="0" />
	<path style="fill:none;stroke:red;stroke-width:1px;stroke-linecap:butt;stroke-linejoin:miter;stroke-opacity:1" d="M 217.872,338.459 222.422,308.881 z" id="boundary" inkscape:connector-curvature="0" />
	<path style="fill:none;stroke:red;stroke-width:1px;stroke-linecap:butt;stroke-linejoin:miter;stroke-opacity:1" d="M 217.872,338.459 195.119,349.835 z" id="boundary" inkscape:connector-curvature="0" />
	<path style="fill:none;stroke:red;stroke-width:1px;stroke-linecap:butt;stroke-linejoin:miter;stroke-opacity:1" d="M 167.817,388.514 145.064,386.239 z" id="boundary" inkscape:connector-curvature="0" />
	<path style="fill:none;stroke:red;stroke-width:1px;stroke-linecap:butt;stroke-linejoin:miter;stroke-opacity:1" d="M 176.917,365.761 167.817,388.514 z" id="boundary" inkscape:connector-curvature="0" />
	<path style="fill:none;stroke:red;stroke-width:1px;stroke-linecap:butt;stroke-linejoin:miter;stroke-opacity:1" d="M 176.917,365.761 195.119,349.835 z" id="boundary" inkscape:connector-curvature="0" />
	<path style="fill:none;stroke:red;stroke-width:1px;stroke-linecap:butt;stroke-linejoin:miter;stroke-opacity:1" d="M 222.422,308.881 245.174,313.431 z" id="boundary" inkscape:connector-curvature="0" />
	<path style="fill:none;stroke:red;stroke-width:1px;stroke-linecap:butt;stroke-linejoin:miter;stroke-opacity:1" d="M 265.651,324.807 245.174,313.431 z" id="boundary" inkscape:connector-curvature="0" />
	<path style="fill:none;stroke:red;stroke-width:1px;stroke-linecap:butt;stroke-linejoin:miter;stroke-opacity:1" d="M 279.303,343.009 265.651,324.807 z" id="boundary" inkscape:connector-curvature="0" />
	<path style="fill:none;stroke:red;stroke-width:1px;stroke-linecap:butt;stroke-linejoin:miter;stroke-opacity:1" d="M 299.78,354.385 279.303,343.009 z" id="boundary" inkscape:connector-curvature="0" />
	<path style="fill:none;stroke:red;stroke-width:1px;stroke-linecap:butt;stroke-linejoin:miter;stroke-opacity:1" d="M 322.532,395.339 313.431,372.587 z" id="boundary" inkscape:connector-curvature="0" />
	<path style="fill:none;stroke:red;stroke-width:1px;stroke-linecap:butt;stroke-linejoin:miter;stroke-opacity:1" d="M 313.431,372.587 299.78,354.385 z" id="boundary" inkscape:connector-curvature="0" />
	<path style="fill:none;stroke:red;stroke-width:1px;stroke-linecap:butt;stroke-linejoin:miter;stroke-opacity:1" d="M 333.908,415.817 322.532,395.339 z" id="boundary" inkscape:connector-curvature="0" />
	<path style="fill:none;stroke:red;stroke-width:1px;stroke-linecap:butt;stroke-linejoin:miter;stroke-opacity:1" d="M 333.908,415.817 356.661,422.642 z" id="boundary" inkscape:connector-curvature="0" />
	<path style="fill:none;stroke:red;stroke-width:1px;stroke-linecap:butt;stroke-linejoin:miter;stroke-opacity:1" d="M 388.514,456.771 370.312,440.844 z" id="boundary" inkscape:connector-curvature="0" />
	<path style="fill:none;stroke:red;stroke-width:1px;stroke-linecap:butt;stroke-linejoin:miter;stroke-opacity:1" d="M 356.661,422.642 370.312,440.844 z" id="boundary" inkscape:connector-curvature="0" />
	<path style="fill:none;stroke:red;stroke-width:1px;stroke-linecap:butt;stroke-linejoin:miter;stroke-opacity:1" d="M 404.44,474.972 388.514,456.771 z" id="boundary" inkscape:connector-curvature="0" />
	<path style="fill:none;stroke:red;stroke-width:1px;stroke-linecap:butt;stroke-linejoin:miter;stroke-opacity:1" d="M 445.394,490.899 422.642,490.899 z" id="boundary" inkscape:connector-curvature="0" />
	<path style="fill:none;stroke:red;stroke-width:1px;stroke-linecap:butt;stroke-linejoin:miter;stroke-opacity:1" d="M 422.642,490.899 404.44,474.972 z" id="boundary" inkscape:connector-curvature="0" />
	<path style="fill:none;stroke:red;stroke-width:1px;stroke-linecap:butt;stroke-linejoin:miter;stroke-opacity:1" d="M 459.046,509.101 445.394,490.899 z" id="boundary" inkscape:connector-curvature="0" />
	<path style="fill:none;stroke:red;stroke-width:1px;stroke-linecap:butt;stroke-linejoin:miter;stroke-opacity:1" d="M 459.046,509.101 461.321,531.853 z" id="boundary" inkscape:connector-curvature="0" />
	<path style="fill:none;stroke:red;stroke-width:1px;stroke-linecap:butt;stroke-linejoin:miter;stroke-opacity:1" d="M 461.321,531.853 484.073,540.954 z" id="boundary" inkscape:connector-curvature="0" />
	<path style="fill:none;stroke:red;stroke-width:1px;stroke-linecap:butt;stroke-linejoin:miter;stroke-opacity:1" d="M 465.872,297.505 484.073,313.431 z" id="boundary" inkscape:connector-curvature="0" />
	<path style="fill:none;stroke:red;stroke-width:1px;stroke-linecap:butt;stroke-linejoin:miter;stroke-opacity:1" d="M 504.55,324.807 522.752,340.734 z" id="boundary" inkscape:connector-curvature="0" />
	<path style="fill:none;stroke:red;stroke-width:1px;stroke-linecap:butt;stroke-linejoin:miter;stroke-opacity:1" d="M 504.55,324.807 484.073,313.431 z" id="boundary" inkscape:connector-curvature="0" />
	<path style="fill:none;stroke:red;stroke-width:1px;stroke-linecap:butt;stroke-linejoin:miter;stroke-opacity:1" d="M 522.752,340.734 543.229,352.11 z" id="boundary" inkscape:connector-curvature="0" />
	<path style="fill:none;stroke:red;stroke-width:1px;stroke-linecap:butt;stroke-linejoin:miter;stroke-opacity:1" d="M 543.229,352.11 563.706,363.486 z" id="boundary" inkscape:connector-curvature="0" />
	<path style="fill:none;stroke:red;stroke-width:1px;stroke-linecap:butt;stroke-linejoin:miter;stroke-opacity:1" d="M 581.908,377.138 563.706,363.486 z" id="boundary" inkscape:connector-curvature="0" />
	<path style="fill:none;stroke:red;stroke-width:1px;stroke-linecap:butt;stroke-linejoin:miter;stroke-opacity:1" d="M 581.908,377.138 597.835,395.339 z" id="boundary" inkscape:connector-curvature="0" />
	<path style="fill:none;stroke:red;stroke-width:1px;stroke-linecap:butt;stroke-linejoin:miter;stroke-opacity:1" d="M 597.835,395.339 620.587,397.615 z" id="boundary" inkscape:connector-curvature="0" />
	<path style="fill:none;stroke:red;stroke-width:1px;stroke-linecap:butt;stroke-linejoin:miter;stroke-opacity:1" d="M 638.789,411.266 654.716,429.468 z" id="boundary" inkscape:connector-curvature="0" />
	<path style="fill:none;stroke:red;stroke-width:1px;stroke-linecap:butt;stroke-linejoin:miter;stroke-opacity:1" d="M 638.789,411.266 620.587,397.615 z" id="boundary" inkscape:connector-curvature="0" />
	<path style="fill:none;stroke:red;stroke-width:1px;stroke-linecap:butt;stroke-linejoin:miter;stroke-opacity:1" d="M 484.073,540.954 500,559.156 z" id="boundary" inkscape:connector-curvature="0" />
	<path style="fill:none;stroke:red;stroke-width:1px;stroke-linecap:butt;stroke-linejoin:miter;stroke-opacity:1" d="M 522.752,568.257 538.679,586.459 z" id="boundary" inkscape:connector-curvature="0" />
	<path style="fill:none;stroke:red;stroke-width:1px;stroke-linecap:butt;stroke-linejoin:miter;stroke-opacity:1" d="M 522.752,568.257 500,559.156 z" id="boundary" inkscape:connector-curvature="0" />
	<path style="fill:none;stroke:red;stroke-width:1px;stroke-linecap:butt;stroke-linejoin:miter;stroke-opacity:1" d="M 538.679,586.459 550.055,606.936 z" id="boundary" inkscape:connector-curvature="0" />
	<path style="fill:none;stroke:red;stroke-width:1px;stroke-linecap:butt;stroke-linejoin:miter;stroke-opacity:1" d="M 550.055,606.936 561.431,627.413 z" id="boundary" inkscape:connector-curvature="0" />
	<path style="fill:none;stroke:red;stroke-width:1px;stroke-linecap:butt;stroke-linejoin:miter;stroke-opacity:1" d="M 693.394,454.495 672.917,443.119 z" id="boundary" inkscape:connector-curvature="0" />
	<path style="fill:none;stroke:red;stroke-width:1px;stroke-linecap:butt;stroke-linejoin:miter;stroke-opacity:1" d="M 672.917,443.119 654.716,429.468 z" id="boundary" inkscape:connector-curvature="0" />
	<path style="fill:none;stroke:red;stroke-width:1px;stroke-linecap:butt;stroke-linejoin:miter;stroke-opacity:1" d="M 718.422,490.899 734.349,509.101 z" id="boundary" inkscape:connector-curvature="0" />
	<path style="fill:none;stroke:red;stroke-width:1px;stroke-linecap:butt;stroke-linejoin:miter;stroke-opacity:1" d="M 700.22,477.248 718.422,490.899 z" id="boundary" inkscape:connector-curvature="0" />
	<path style="fill:none;stroke:red;stroke-width:1px;stroke-linecap:butt;stroke-linejoin:miter;stroke-opacity:1" d="M 693.394,454.495 700.22,477.248 z" id="boundary" inkscape:connector-curvature="0" />
	<path style="fill:none;stroke:red;stroke-width:1px;stroke-linecap:butt;stroke-linejoin:miter;stroke-opacity:1" d="M 752.55,525.028 734.349,509.101 z" id="boundary" inkscape:connector-curvature="0" />
	<path style="fill:none;stroke:red;stroke-width:1px;stroke-linecap:butt;stroke-linejoin:miter;stroke-opacity:1" d="M 791.229,552.33 773.028,536.404 z" id="boundary" inkscape:connector-curvature="0" />
	<path style="fill:none;stroke:red;stroke-width:1px;stroke-linecap:butt;stroke-linejoin:miter;stroke-opacity:1" d="M 773.028,536.404 752.55,525.028 z" id="boundary" inkscape:connector-curvature="0" />
	<path style="fill:none;stroke:red;stroke-width:1px;stroke-linecap:butt;stroke-linejoin:miter;stroke-opacity:1" d="M 807.156,570.532 791.229,552.33 z" id="boundary" inkscape:connector-curvature="0" />
	<path style="fill:none;stroke:red;stroke-width:1px;stroke-linecap:butt;stroke-linejoin:miter;stroke-opacity:1" d="M 825.358,586.459 807.156,570.532 z" id="boundary" inkscape:connector-curvature="0" />
	<path style="fill:none;stroke:red;stroke-width:1px;stroke-linecap:butt;stroke-linejoin:miter;stroke-opacity:1" d="M 843.56,602.385 825.358,586.459 z" id="boundary" inkscape:connector-curvature="0" />
	<path style="fill:none;stroke:red;stroke-width:1px;stroke-linecap:butt;stroke-linejoin:miter;stroke-opacity:1" d="M 864.037,613.761 843.56,602.385 z" id="boundary" inkscape:connector-curvature="0" />
	<path style="fill:none;stroke:red;stroke-width:1px;stroke-linecap:butt;stroke-linejoin:miter;stroke-opacity:1" d="M 879.963,631.963 864.037,613.761 z" id="boundary" inkscape:connector-curvature="0" />
	<path style="fill:none;stroke:red;stroke-width:1px;stroke-linecap:butt;stroke-linejoin:miter;stroke-opacity:1" d="M 584.183,627.413 597.835,645.615 z" id="boundary" inkscape:connector-curvature="0" />
	<path style="fill:none;stroke:red;stroke-width:1px;stroke-linecap:butt;stroke-linejoin:miter;stroke-opacity:1" d="M 561.431,627.413 584.183,627.413 z" id="boundary" inkscape:connector-curvature="0" />
	<path style="fill:none;stroke:red;stroke-width:1px;stroke-linecap:butt;stroke-linejoin:miter;stroke-opacity:1" d="M 597.835,645.615 609.211,666.092 z" id="boundary" inkscape:connector-curvature="0" />
	<path style="fill:none;stroke:red;stroke-width:1px;stroke-linecap:butt;stroke-linejoin:miter;stroke-opacity:1" d="M 609.211,666.092 625.138,684.294 z" id="boundary" inkscape:connector-curvature="0" />
	<path style="fill:none;stroke:red;stroke-width:1px;stroke-linecap:butt;stroke-linejoin:miter;stroke-opacity:1" d="M 666.092,707.046 643.339,700.22 z" id="boundary" inkscape:connector-curvature="0" />
	<path style="fill:none;stroke:red;stroke-width:1px;stroke-linecap:butt;stroke-linejoin:miter;stroke-opacity:1" d="M 643.339,700.22 625.138,684.294 z" id="boundary" inkscape:connector-curvature="0" />
	<path style="fill:none;stroke:red;stroke-width:1px;stroke-linecap:butt;stroke-linejoin:miter;stroke-opacity:1" d="M 686.569,718.422 666.092,707.046 z" id="boundary" inkscape:connector-curvature="0" />
	<path style="fill:none;stroke:red;stroke-width:1px;stroke-linecap:butt;stroke-linejoin:miter;stroke-opacity:1" d="M 700.22,759.376 686.569,741.174 z" id="boundary" inkscape:connector-curvature="0" />
	<path style="fill:none;stroke:red;stroke-width:1px;stroke-linecap:butt;stroke-linejoin:miter;stroke-opacity:1" d="M 686.569,718.422 686.569,741.174 z" id="boundary" inkscape:connector-curvature="0" />
	<path style="fill:none;stroke:red;stroke-width:1px;stroke-linecap:butt;stroke-linejoin:miter;stroke-opacity:1" d="M 700.22,759.376 718.422,775.303 z" id="boundary" inkscape:connector-curvature="0" />
	<path style="fill:none;stroke:red;stroke-width:1px;stroke-linecap:butt;stroke-linejoin:miter;stroke-opacity:1" d="M 741.174,775.303 718.422,775.303 z" id="boundary" inkscape:connector-curvature="0" />
	<path style="fill:none;stroke:red;stroke-width:1px;stroke-linecap:butt;stroke-linejoin:miter;stroke-opacity:1" d="M 741.174,775.303 761.651,786.679 z" id="boundary" inkscape:connector-curvature="0" />
	<path style="fill:none;stroke:red;stroke-width:1px;stroke-linecap:butt;stroke-linejoin:miter;stroke-opacity:1" d="M 761.651,786.679 773.028,807.156 z" id="boundary" inkscape:connector-curvature="0" />
	<path style="fill:none;stroke:red;stroke-width:1px;stroke-linecap:butt;stroke-linejoin:miter;stroke-opacity:1" d="M 773.028,807.156 782.128,829.908 z" id="boundary" inkscape:connector-curvature="0" />
	<path style="fill:none;stroke:red;stroke-width:1px;stroke-linecap:butt;stroke-linejoin:miter;stroke-opacity:1" d="M 782.128,829.908 800.33,843.56 z" id="boundary" inkscape:connector-curvature="0" />
	<path style="fill:none;stroke:red;stroke-width:1px;stroke-linecap:butt;stroke-linejoin:miter;stroke-opacity:1" d="M 813.982,861.761 800.33,843.56 z" id="boundary" inkscape:connector-curvature="0" />
	<path style="fill:none;stroke:red;stroke-width:1px;stroke-linecap:butt;stroke-linejoin:miter;stroke-opacity:1" d="M 813.982,861.761 836.734,870.862 z" id="boundary" inkscape:connector-curvature="0" />
	<path style="fill:none;stroke:red;stroke-width:1px;stroke-linecap:butt;stroke-linejoin:miter;stroke-opacity:1" d="M 891.339,652.44 904.991,670.642 z" id="boundary" inkscape:connector-curvature="0" />
	<path style="fill:none;stroke:red;stroke-width:1px;stroke-linecap:butt;stroke-linejoin:miter;stroke-opacity:1" d="M 879.963,631.963 891.339,652.44 z" id="boundary" inkscape:connector-curvature="0" />
	<path style="fill:none;stroke:red;stroke-width:1px;stroke-linecap:butt;stroke-linejoin:miter;stroke-opacity:1" d="M 916.367,691.119 904.991,670.642 z" id="boundary" inkscape:connector-curvature="0" />
	<path style="fill:none;stroke:red;stroke-width:1px;stroke-linecap:butt;stroke-linejoin:miter;stroke-opacity:1" d="M 916.367,691.119 927.743,711.596 z" id="boundary" inkscape:connector-curvature="0" />
	<path style="fill:none;stroke:red;stroke-width:1px;stroke-linecap:butt;stroke-linejoin:miter;stroke-opacity:1" d="M 927.743,711.596 939.119,732.073 z" id="boundary" inkscape:connector-curvature="0" />
	<path style="fill:none;stroke:red;stroke-width:1px;stroke-linecap:butt;stroke-linejoin:miter;stroke-opacity:1" d="M 959.596,743.45 939.119,732.073 z" id="boundary" inkscape:connector-curvature="0" />
	<path style="fill:none;stroke:red;stroke-width:1px;stroke-linecap:butt;stroke-linejoin:miter;stroke-opacity:1" d="M 959.596,743.45 968.697,766.202 z" id="boundary" inkscape:connector-curvature="0" />
	<path style="fill:none;stroke:red;stroke-width:1px;stroke-linecap:butt;stroke-linejoin:miter;stroke-opacity:1" d="M 968.697,766.202 991.45,775.303 z" id="boundary" inkscape:connector-curvature="0" />
	<path style="fill:none;stroke:red;stroke-width:1px;stroke-linecap:butt;stroke-linejoin:miter;stroke-opacity:1" d="M 996,798.055 991.45,775.303 z" id="boundary" inkscape:connector-curvature="0" />
	<path style="fill:none;stroke:red;stroke-width:1px;stroke-linecap:butt;stroke-linejoin:miter;stroke-opacity:1" d="M 996,798.055 984.624,832.183 z" id="boundary" inkscape:connector-curvature="0" />
	<path style="fill:none;stroke:red;stroke-width:1px;stroke-linecap:butt;stroke-linejoin:miter;stroke-opacity:1" d="M 852.661,889.064 836.734,870.862 z" id="boundary" inkscape:connector-curvature="0" />
	<path style="fill:none;stroke:red;stroke-width:1px;stroke-linecap:butt;stroke-linejoin:miter;stroke-opacity:1" d="M 870.862,904.991 886.789,923.193 z" id="boundary" inkscape:connector-curvature="0" />
	<path style="fill:none;stroke:red;stroke-width:1px;stroke-linecap:butt;stroke-linejoin:miter;stroke-opacity:1" d="M 870.862,904.991 852.661,889.064 z" id="boundary" inkscape:connector-curvature="0" />
	<path style="fill:none;stroke:red;stroke-width:1px;stroke-linecap:butt;stroke-linejoin:miter;stroke-opacity:1" d="M 907.266,911.817 886.789,923.193 z" id="boundary" inkscape:connector-curvature="0" />
	<path style="fill:none;stroke:red;stroke-width:1px;stroke-linecap:butt;stroke-linejoin:miter;stroke-opacity:1" d="M 966.422,852.661 948.22,866.312 z" id="boundary" inkscape:connector-curvature="0" />
	<path style="fill:none;stroke:red;stroke-width:1px;stroke-linecap:butt;stroke-linejoin:miter;stroke-opacity:1" d="M 948.22,866.312 927.743,877.688 z" id="boundary" inkscape:connector-curvature="0" />
	<path style="fill:none;stroke:red;stroke-width:1px;stroke-linecap:butt;stroke-linejoin:miter;stroke-opacity:1" d="M 984.624,832.183 966.422,852.661 z" id="boundary" inkscape:connector-curvature="0" />
	<path style="fill:none;stroke:red;stroke-width:1px;stroke-linecap:butt;stroke-linejoin:miter;stroke-opacity:1" d="M 927.743,877.688 927.743,900.44 z" id="boundary" inkscape:connector-curvature="0" />
	<path style="fill:none;stroke:red;stroke-width:1px;stroke-linecap:butt;stroke-linejoin:miter;stroke-opacity:1" d="M 907.266,911.817 927.743,900.44 z" id="boundary" inkscape:connector-curvature="0" />
	<circle cx="4" cy="256.55" r="4" fill="#0" id="circle0"/>
	<circle cx="4" cy="279.303" r="4" fill="#0" id="circle1"/>
	<circle cx="17.6514" cy="297.505" r="4" fill="#0" id="circle2"/>
	<circle cx="26.7523" cy="245.174" r="4" fill="#0" id="circle3"/>
	<circle cx="38.1284" cy="222.422" r="4" fill="#0" id="circle4"/>
	<circle cx="38.1284" cy="308.881" r="4" fill="#0" id="circle5"/>
	<circle cx="44.9541" cy="331.633" r="4" fill="#0" id="circle6"/>
	<circle cx="56.3303" cy="204.22" r="4" fill="#0" id="circle7"/>
	<circle cx="65.4312" cy="343.009" r="4" fill="#0" id="circle8"/>
	<circle cx="74.5321" cy="186.018" r="4" fill="#0" id="circle9"/>
	<circle cx="85.9083" cy="163.266" r="4" fill="#0" id="circle10"/>
	<circle cx="88.1835" cy="349.835" r="4" fill="#0" id="circle11"/>
	<circle cx="108.661" cy="151.89" r="4" fill="#0" id="circle12"/>
	<circle cx="110.936" cy="354.385" r="4" fill="#0" id="circle13"/>
	<circle cx="126.862" cy="135.963" r="4" fill="#0" id="circle14"/>
	<circle cx="129.138" cy="368.037" r="4" fill="#0" id="circle15"/>
	<circle cx="135.963" cy="113.211" r="4" fill="#0" id="circle16"/>
	<circle cx="145.064" cy="386.239" r="4" fill="#0" id="circle17"/>
	<circle cx="156.44" cy="101.835" r="4" fill="#0" id="circle18"/>
	<circle cx="167.817" cy="388.514" r="4" fill="#0" id="circle19"/>
	<circle cx="174.642" cy="74.5321" r="4" fill="#0" id="circle20"/>
	<circle cx="176.917" cy="365.761" r="4" fill="#0" id="circle21"/>
	<circle cx="192.844" cy="56.3303" r="4" fill="#0" id="circle22"/>
	<circle cx="195.119" cy="349.835" r="4" fill="#0" id="circle23"/>
	<circle cx="213.321" cy="44.9541" r="4" fill="#0" id="circle24"/>
	<circle cx="217.872" cy="338.459" r="4" fill="#0" id="circle25"/>
	<circle cx="222.422" cy="308.881" r="4" fill="#0" id="circle26"/>
	<circle cx="224.697" cy="24.4771" r="4" fill="#0" id="circle27"/>
	<circle cx="242.899" cy="10.8257" r="4" fill="#0" id="circle28"/>
	<circle cx="245.174" cy="313.431" r="4" fill="#0" id="circle29"/>
	<circle cx="265.651" cy="4" r="4" fill="#0" id="circle30"/>
	<circle cx="265.651" cy="324.807" r="4" fill="#0" id="circle31"/>
	<circle cx="279.303" cy="343.009" r="4" fill="#0" id="circle32"/>
	<circle cx="288.404" cy="10.8257" r="4" fill="#0" id="circle33"/>
	<circle cx="299.78" cy="354.385" r="4" fill="#0" id="circle34"/>
	<circle cx="311.156" cy="10.8257" r="4" fill="#0" id="circle35"/>
	<circle cx="313.431" cy="372.587" r="4" fill="#0" id="circle36"/>
	<circle cx="322.532" cy="395.339" r="4" fill="#0" id="circle37"/>
	<circle cx="333.908" cy="15.3761" r="4" fill="#0" id="circle38"/>
	<circle cx="333.908" cy="415.817" r="4" fill="#0" id="circle39"/>
	<circle cx="356.661" cy="22.2018" r="4" fill="#0" id="circle40"/>
	<circle cx="356.661" cy="422.642" r="4" fill="#0" id="circle41"/>
	<circle cx="358.936" cy="183.743" r="4" fill="#0" id="circle42"/>
	<circle cx="363.486" cy="206.495" r="4" fill="#0" id="circle43"/>
	<circle cx="370.312" cy="160.991" r="4" fill="#0" id="circle44"/>
	<circle cx="370.312" cy="440.844" r="4" fill="#0" id="circle45"/>
	<circle cx="374.862" cy="35.8532" r="4" fill="#0" id="circle46"/>
	<circle cx="374.862" cy="226.972" r="4" fill="#0" id="circle47"/>
	<circle cx="388.514" cy="456.771" r="4" fill="#0" id="circle48"/>
	<circle cx="393.064" cy="149.615" r="4" fill="#0" id="circle49"/>
	<circle cx="395.339" cy="238.349" r="4" fill="#0" id="circle50"/>
	<circle cx="397.615" cy="44.9541" r="4" fill="#0" id="circle51"/>
	<circle cx="404.44" cy="126.862" r="4" fill="#0" id="circle52"/>
	<circle cx="404.44" cy="474.972" r="4" fill="#0" id="circle53"/>
	<circle cx="413.541" cy="63.156" r="4" fill="#0" id="circle54"/>
	<circle cx="413.541" cy="254.275" r="4" fill="#0" id="circle55"/>
	<circle cx="415.817" cy="85.9083" r="4" fill="#0" id="circle56"/>
	<circle cx="422.642" cy="490.899" r="4" fill="#0" id="circle57"/>
	<circle cx="427.193" cy="272.477" r="4" fill="#0" id="circle58"/>
	<circle cx="445.394" cy="286.128" r="4" fill="#0" id="circle59"/>
	<circle cx="445.394" cy="490.899" r="4" fill="#0" id="circle60"/>
	<circle cx="459.046" cy="509.101" r="4" fill="#0" id="circle61"/>
	<circle cx="461.321" cy="531.853" r="4" fill="#0" id="circle62"/>
	<circle cx="465.872" cy="297.505" r="4" fill="#0" id="circle63"/>
	<circle cx="484.073" cy="313.431" r="4" fill="#0" id="circle64"/>
	<circle cx="484.073" cy="540.954" r="4" fill="#0" id="circle65"/>
	<circle cx="500" cy="559.156" r="4" fill="#0" id="circle66"/>
	<circle cx="504.55" cy="324.807" r="4" fill="#0" id="circle67"/>
	<circle cx="522.752" cy="340.734" r="4" fill="#0" id="circle68"/>
	<circle cx="522.752" cy="568.257" r="4" fill="#0" id="circle69"/>
	<circle cx="538.679" cy="586.459" r="4" fill="#0" id="circle70"/>
	<circle cx="543.229" cy="352.11" r="4" fill="#0" id="circle71"/>
	<circle cx="550.055" cy="606.936" r="4" fill="#0" id="circle72"/>
	<circle cx="561.431" cy="627.413" r="4" fill="#0" id="circle73"/>
	<circle cx="563.706" cy="363.486" r="4" fill="#0" id="circle74"/>
	<circle cx="581.908" cy="377.138" r="4" fill="#0" id="circle75"/>
	<circle cx="584.183" cy="627.413" r="4" fill="#0" id="circle76"/>
	<circle cx="597.835" cy="395.339" r="4" fill="#0" id="circle77"/>
	<circle cx="597.835" cy="645.615" r="4" fill="#0" id="circle78"/>
	<circle cx="609.211" cy="666.092" r="4" fill="#0" id="circle79"/>
	<circle cx="620.587" cy="397.615" r="4" fill="#0" id="circle80"/>
	<circle cx="625.138" cy="684.294" r="4" fill="#0" id="circle81"/>
	<circle cx="638.789" cy="411.266" r="4" fill="#0" id="circle82"/>
	<circle cx="643.339" cy="700.22" r="4" fill="#0" id="circle83"/>
	<circle cx="654.716" cy="429.468" r="4" fill="#0" id="circle84"/>
	<circle cx="666.092" cy="707.046" r="4" fill="#0" id="circle85"/>
	<circle cx="672.917" cy="443.119" r="4" fill="#0" id="circle86"/>
	<circle cx="686.569" cy="718.422" r="4" fill="#0" id="circle87"/>
	<circle cx="686.569" cy="741.174" r="4" fill="#0" id="circle88"/>
	<circle cx="693.394" cy="454.495" r="4" fill="#0" id="circle89"/>
	<circle cx="700.22" cy="477.248" r="4" fill="#0" id="circle90"/>
	<circle cx="700.22" cy="759.376" r="4" fill="#0" id="circle91"/>
	<circle cx="718.422" cy="490.899" r="4" fill="#0" id="circle92"/>
	<circle cx="718.422" cy="775.303" r="4" fill="#0" id="circle93"/>
	<circle cx="734.349" cy="509.101" r="4" fill="#0" id="circle94"/>
	<circle cx="741.174" cy="775.303" r="4" fill="#0" id="circle95"/>
	<circle cx="752.55" cy="525.028" r="4" fill="#0" id="circle96"/>
	<circle cx="761.651" cy="786.679" r="4" fill="#0" id="circle97"/>
	<circle cx="773.028" cy="536.404" r="4" fill="#0" id="circle98"/>
	<circle cx="773.028" cy="807.156" r="4" fill="#0" id="circle99"/>
	<circle cx="782.128" cy="829.908" r="4" fill="#0" id="circle100"/>
	<circle cx="791.229" cy="552.33" r="4" fill="#0" id="circle101"/>
	<circle cx="800.33" cy="843.56" r="4" fill="#0" id="circle102"/>
	<circle cx="807.156" cy="570.532" r="4" fill="#0" id="circle103"/>
	<circle cx="813.982" cy="861.761" r="4" fill="#0" id="circle104"/>
	<circle cx="825.358" cy="586.459" r="4" fill="#0" id="circle105"/>
	<circle cx="836.734" cy="870.862" r="4" fill="#0" id="circle106"/>
	<circle cx="843.56" cy="602.385" r="4" fill="#0" id="circle107"/>
	<circle cx="852.661" cy="889.064" r="4" fill="#0" id="circle108"/>
	<circle cx="864.037" cy="613.761" r="4" fill="#0" id="circle109"/>
	<circle cx="870.862" cy="904.991" r="4" fill="#0" id="circle110"/>
	<circle cx="879.963" cy="631.963" r="4" fill="#0" id="circle111"/>
	<circle cx="886.789" cy="923.193" r="4" fill="#0" id="circle112"/>
	<circle cx="891.339" cy="652.44" r="4" fill="#0" id="circle113"/>
	<circle cx="904.991" cy="670.642" r="4" fill="#0" id="circle114"/>
	<circle cx="907.266" cy="911.817" r="4" fill="#0" id="circle115"/>
	<circle cx="916.367" cy="691.119" r="4" fill="#0" id="circle116"/>
	<circle cx="927.743" cy="711.596" r="4" fill="#0" id="circle117"/>
	<circle cx="927.743" cy="877.688" r="4" fill="#0" id="circle118"/>
	<circle cx="927.743" cy="900.44" r="4" fill="#0" id="circle119"/>
	<circle cx="939.119" cy="732.073" r="4" fill="#0" id="circle120"/>
	<circle cx="948.22" cy="866.312" r="4" fill="#0" id="circle121"/>
	<circle cx="959.596" cy="743.45" r="4" fill="#0" id="circle122"/>
	<circle cx="966.422" cy="852.661" r="4" fill="#0" id="circle123"/>
	<circle cx="968.697" cy="766.202" r="4" fill="#0" id="circle124"/>
	<circle cx="984.624" cy="832.183" r="4" fill="#0" id="circle125"/>
	<circle cx="991.45" cy="775.303" r="4" fill="#0" id="circle126"/>
	<circle cx="996" cy="798.055" r="4" fill="#0" id="circle127"/>
	</g>
</svg>