<?xml version="1.0" encoding="UTF-8" standalone="no"?>
<!-- Created with CurveBenchmark -->
<svg
	xmlns:dc="http://purl.org/dc/elements/1.1/"
	xmlns:cc="http://creativecommons.org/ns#"
	xmlns:rdf="http://www.w3.org/1999/02/22-rdf-syntax-ns#"
	xmlns:svg="http://www.w3.org/2000/svg"
	xmlns="http://www.w3.org/2000/svg"
	xmlns:sodipodi="http://sodipodi.sourceforge.net/DTD/sodipodi-0.dtd"
	xmlns:inkscape="http://www.inkscape.org/namespaces/inkscape"
	width="1000"
	height="1000"
	id="svg2"
	version="1.1"
	sodipodi:docname="manifold/crust-fountain07.png.txt">
<defs
	id="defs4" />
<metadata
	id="metadata7">
	<rdf:RDF>
		<cc:Work
			rdf:about="">
			<dc:format>image/svg+xml</dc:format>
			<dc:type
				rdf:resource="http://purl.org/dc/dcmitype/StillImage" />
			<dc:title></dc:title>
		</cc:Work>
	</rdf:RDF>
</metadata>
<g
	inkscape:label="Layer 1"
	inkscape:groupmode="layer"
	id="layer1">
	<path style="fill:none;stroke:red;stroke-width:1px;stroke-linecap:butt;stroke-linejoin:miter;stroke-opacity:1" d="M 380.208,138.643 360.407,148.543 z" id="boundary" inkscape:connector-curvature="0" />
	<path style="fill:none;stroke:red;stroke-width:1px;stroke-linecap:butt;stroke-linejoin:miter;stroke-opacity:1" d="M 400.008,132.703 380.208,138.643 z" id="boundary" inkscape:connector-curvature="0" />
	<path style="fill:none;stroke:red;stroke-width:1px;stroke-linecap:butt;stroke-linejoin:miter;stroke-opacity:1" d="M 370.307,166.363 360.407,148.543 z" id="boundary" inkscape:connector-curvature="0" />
	<path style="fill:none;stroke:red;stroke-width:1px;stroke-linecap:butt;stroke-linejoin:miter;stroke-opacity:1" d="M 390.108,174.283 370.307,166.363 z" id="boundary" inkscape:connector-curvature="0" />
	<path style="fill:none;stroke:red;stroke-width:1px;stroke-linecap:butt;stroke-linejoin:miter;stroke-opacity:1" d="M 409.908,174.283 390.108,174.283 z" id="boundary" inkscape:connector-curvature="0" />
	<path style="fill:none;stroke:red;stroke-width:1px;stroke-linecap:butt;stroke-linejoin:miter;stroke-opacity:1" d="M 301.006,366.347 320.806,360.407 z" id="boundary" inkscape:connector-curvature="0" />
	<path style="fill:none;stroke:red;stroke-width:1px;stroke-linecap:butt;stroke-linejoin:miter;stroke-opacity:1" d="M 301.006,366.347 281.206,370.307 z" id="boundary" inkscape:connector-curvature="0" />
	<path style="fill:none;stroke:red;stroke-width:1px;stroke-linecap:butt;stroke-linejoin:miter;stroke-opacity:1" d="M 261.405,376.248 281.206,370.307 z" id="boundary" inkscape:connector-curvature="0" />
	<path style="fill:none;stroke:red;stroke-width:1px;stroke-linecap:butt;stroke-linejoin:miter;stroke-opacity:1" d="M 261.405,376.248 241.605,386.148 z" id="boundary" inkscape:connector-curvature="0" />
	<path style="fill:none;stroke:red;stroke-width:1px;stroke-linecap:butt;stroke-linejoin:miter;stroke-opacity:1" d="M 360.407,350.507 340.607,356.447 z" id="boundary" inkscape:connector-curvature="0" />
	<path style="fill:none;stroke:red;stroke-width:1px;stroke-linecap:butt;stroke-linejoin:miter;stroke-opacity:1" d="M 340.607,356.447 320.806,360.407 z" id="boundary" inkscape:connector-curvature="0" />
	<path style="fill:none;stroke:red;stroke-width:1px;stroke-linecap:butt;stroke-linejoin:miter;stroke-opacity:1" d="M 380.208,350.507 360.407,350.507 z" id="boundary" inkscape:connector-curvature="0" />
	<path style="fill:none;stroke:red;stroke-width:1px;stroke-linecap:butt;stroke-linejoin:miter;stroke-opacity:1" d="M 380.208,350.507 398.028,340.607 z" id="boundary" inkscape:connector-curvature="0" />
	<path style="fill:none;stroke:red;stroke-width:1px;stroke-linecap:butt;stroke-linejoin:miter;stroke-opacity:1" d="M 417.828,340.607 398.028,340.607 z" id="boundary" inkscape:connector-curvature="0" />
	<path style="fill:none;stroke:red;stroke-width:1px;stroke-linecap:butt;stroke-linejoin:miter;stroke-opacity:1" d="M 459.409,19.8403 459.409,39.6407 z" id="boundary" inkscape:connector-curvature="0" />
	<path style="fill:none;stroke:red;stroke-width:1px;stroke-linecap:butt;stroke-linejoin:miter;stroke-opacity:1" d="M 459.409,39.6407 459.409,59.4411 z" id="boundary" inkscape:connector-curvature="0" />
	<path style="fill:none;stroke:red;stroke-width:1px;stroke-linecap:butt;stroke-linejoin:miter;stroke-opacity:1" d="M 459.409,79.2415 459.409,59.4411 z" id="boundary" inkscape:connector-curvature="0" />
	<path style="fill:none;stroke:red;stroke-width:1px;stroke-linecap:butt;stroke-linejoin:miter;stroke-opacity:1" d="M 459.409,79.2415 459.409,99.0419 z" id="boundary" inkscape:connector-curvature="0" />
	<path style="fill:none;stroke:red;stroke-width:1px;stroke-linecap:butt;stroke-linejoin:miter;stroke-opacity:1" d="M 419.808,128.743 439.609,122.802 z" id="boundary" inkscape:connector-curvature="0" />
	<path style="fill:none;stroke:red;stroke-width:1px;stroke-linecap:butt;stroke-linejoin:miter;stroke-opacity:1" d="M 459.409,118.842 439.609,122.802 z" id="boundary" inkscape:connector-curvature="0" />
	<path style="fill:none;stroke:red;stroke-width:1px;stroke-linecap:butt;stroke-linejoin:miter;stroke-opacity:1" d="M 459.409,99.0419 459.409,118.842 z" id="boundary" inkscape:connector-curvature="0" />
	<path style="fill:none;stroke:red;stroke-width:1px;stroke-linecap:butt;stroke-linejoin:miter;stroke-opacity:1" d="M 400.008,132.703 419.808,128.743 z" id="boundary" inkscape:connector-curvature="0" />
	<path style="fill:none;stroke:red;stroke-width:1px;stroke-linecap:butt;stroke-linejoin:miter;stroke-opacity:1" d="M 475.25,4 493.07,13.9002 z" id="boundary" inkscape:connector-curvature="0" />
	<path style="fill:none;stroke:red;stroke-width:1px;stroke-linecap:butt;stroke-linejoin:miter;stroke-opacity:1" d="M 459.409,19.8403 475.25,4 z" id="boundary" inkscape:connector-curvature="0" />
	<path style="fill:none;stroke:red;stroke-width:1px;stroke-linecap:butt;stroke-linejoin:miter;stroke-opacity:1" d="M 429.709,174.283 409.908,174.283 z" id="boundary" inkscape:connector-curvature="0" />
	<path style="fill:none;stroke:red;stroke-width:1px;stroke-linecap:butt;stroke-linejoin:miter;stroke-opacity:1" d="M 429.709,174.283 449.509,174.283 z" id="boundary" inkscape:connector-curvature="0" />
	<path style="fill:none;stroke:red;stroke-width:1px;stroke-linecap:butt;stroke-linejoin:miter;stroke-opacity:1" d="M 449.509,174.283 449.509,194.084 z" id="boundary" inkscape:connector-curvature="0" />
	<path style="fill:none;stroke:red;stroke-width:1px;stroke-linecap:butt;stroke-linejoin:miter;stroke-opacity:1" d="M 425.749,320.806 417.828,340.607 z" id="boundary" inkscape:connector-curvature="0" />
	<path style="fill:none;stroke:red;stroke-width:1px;stroke-linecap:butt;stroke-linejoin:miter;stroke-opacity:1" d="M 449.509,194.084 449.509,213.884 z" id="boundary" inkscape:connector-curvature="0" />
	<path style="fill:none;stroke:red;stroke-width:1px;stroke-linecap:butt;stroke-linejoin:miter;stroke-opacity:1" d="M 445.549,281.206 435.649,301.006 z" id="boundary" inkscape:connector-curvature="0" />
	<path style="fill:none;stroke:red;stroke-width:1px;stroke-linecap:butt;stroke-linejoin:miter;stroke-opacity:1" d="M 435.649,301.006 425.749,320.806 z" id="boundary" inkscape:connector-curvature="0" />
	<path style="fill:none;stroke:red;stroke-width:1px;stroke-linecap:butt;stroke-linejoin:miter;stroke-opacity:1" d="M 449.509,253.485 445.549,281.206 z" id="boundary" inkscape:connector-curvature="0" />
	<path style="fill:none;stroke:red;stroke-width:1px;stroke-linecap:butt;stroke-linejoin:miter;stroke-opacity:1" d="M 449.509,233.685 449.509,213.884 z" id="boundary" inkscape:connector-curvature="0" />
	<path style="fill:none;stroke:red;stroke-width:1px;stroke-linecap:butt;stroke-linejoin:miter;stroke-opacity:1" d="M 449.509,253.485 449.509,233.685 z" id="boundary" inkscape:connector-curvature="0" />
	<path style="fill:none;stroke:red;stroke-width:1px;stroke-linecap:butt;stroke-linejoin:miter;stroke-opacity:1" d="M 493.07,13.9002 500.99,33.7006 z" id="boundary" inkscape:connector-curvature="0" />
	<path style="fill:none;stroke:red;stroke-width:1px;stroke-linecap:butt;stroke-linejoin:miter;stroke-opacity:1" d="M 89.1417,499.01 71.3214,508.91 z" id="boundary" inkscape:connector-curvature="0" />
	<path style="fill:none;stroke:red;stroke-width:1px;stroke-linecap:butt;stroke-linejoin:miter;stroke-opacity:1" d="M 71.3214,508.91 55.481,522.77 z" id="boundary" inkscape:connector-curvature="0" />
	<path style="fill:none;stroke:red;stroke-width:1px;stroke-linecap:butt;stroke-linejoin:miter;stroke-opacity:1" d="M 106.962,489.11 89.1417,499.01 z" id="boundary" inkscape:connector-curvature="0" />
	<path style="fill:none;stroke:red;stroke-width:1px;stroke-linecap:butt;stroke-linejoin:miter;stroke-opacity:1" d="M 122.802,465.349 106.962,489.11 z" id="boundary" inkscape:connector-curvature="0" />
	<path style="fill:none;stroke:red;stroke-width:1px;stroke-linecap:butt;stroke-linejoin:miter;stroke-opacity:1" d="M 4,594.052 13.9002,574.251 z" id="boundary" inkscape:connector-curvature="0" />
	<path style="fill:none;stroke:red;stroke-width:1px;stroke-linecap:butt;stroke-linejoin:miter;stroke-opacity:1" d="M 23.8004,554.451 13.9002,574.251 z" id="boundary" inkscape:connector-curvature="0" />
	<path style="fill:none;stroke:red;stroke-width:1px;stroke-linecap:butt;stroke-linejoin:miter;stroke-opacity:1" d="M 39.6407,538.611 55.481,522.77 z" id="boundary" inkscape:connector-curvature="0" />
	<path style="fill:none;stroke:red;stroke-width:1px;stroke-linecap:butt;stroke-linejoin:miter;stroke-opacity:1" d="M 23.8004,554.451 39.6407,538.611 z" id="boundary" inkscape:connector-curvature="0" />
	<path style="fill:none;stroke:red;stroke-width:1px;stroke-linecap:butt;stroke-linejoin:miter;stroke-opacity:1" d="M 162.403,449.509 142.603,455.449 z" id="boundary" inkscape:connector-curvature="0" />
	<path style="fill:none;stroke:red;stroke-width:1px;stroke-linecap:butt;stroke-linejoin:miter;stroke-opacity:1" d="M 142.603,455.449 122.802,465.349 z" id="boundary" inkscape:connector-curvature="0" />
	<path style="fill:none;stroke:red;stroke-width:1px;stroke-linecap:butt;stroke-linejoin:miter;stroke-opacity:1" d="M 182.204,445.549 162.403,449.509 z" id="boundary" inkscape:connector-curvature="0" />
	<path style="fill:none;stroke:red;stroke-width:1px;stroke-linecap:butt;stroke-linejoin:miter;stroke-opacity:1" d="M 192.104,425.749 182.204,445.549 z" id="boundary" inkscape:connector-curvature="0" />
	<path style="fill:none;stroke:red;stroke-width:1px;stroke-linecap:butt;stroke-linejoin:miter;stroke-opacity:1" d="M 202.004,405.948 192.104,425.749 z" id="boundary" inkscape:connector-curvature="0" />
	<path style="fill:none;stroke:red;stroke-width:1px;stroke-linecap:butt;stroke-linejoin:miter;stroke-opacity:1" d="M 13.9002,631.673 4,613.852 z" id="boundary" inkscape:connector-curvature="0" />
	<path style="fill:none;stroke:red;stroke-width:1px;stroke-linecap:butt;stroke-linejoin:miter;stroke-opacity:1" d="M 4,613.852 4,594.052 z" id="boundary" inkscape:connector-curvature="0" />
	<path style="fill:none;stroke:red;stroke-width:1px;stroke-linecap:butt;stroke-linejoin:miter;stroke-opacity:1" d="M 23.8004,649.493 13.9002,631.673 z" id="boundary" inkscape:connector-curvature="0" />
	<path style="fill:none;stroke:red;stroke-width:1px;stroke-linecap:butt;stroke-linejoin:miter;stroke-opacity:1" d="M 23.8004,649.493 35.6806,665.333 z" id="boundary" inkscape:connector-curvature="0" />
	<path style="fill:none;stroke:red;stroke-width:1px;stroke-linecap:butt;stroke-linejoin:miter;stroke-opacity:1" d="M 35.6806,665.333 51.521,679.194 z" id="boundary" inkscape:connector-curvature="0" />
	<path style="fill:none;stroke:red;stroke-width:1px;stroke-linecap:butt;stroke-linejoin:miter;stroke-opacity:1" d="M 69.3413,689.094 89.1417,697.014 z" id="boundary" inkscape:connector-curvature="0" />
	<path style="fill:none;stroke:red;stroke-width:1px;stroke-linecap:butt;stroke-linejoin:miter;stroke-opacity:1" d="M 89.1417,697.014 106.962,706.914 z" id="boundary" inkscape:connector-curvature="0" />
	<path style="fill:none;stroke:red;stroke-width:1px;stroke-linecap:butt;stroke-linejoin:miter;stroke-opacity:1" d="M 69.3413,689.094 51.521,679.194 z" id="boundary" inkscape:connector-curvature="0" />
	<path style="fill:none;stroke:red;stroke-width:1px;stroke-linecap:butt;stroke-linejoin:miter;stroke-opacity:1" d="M 106.962,706.914 126.762,714.834 z" id="boundary" inkscape:connector-curvature="0" />
	<path style="fill:none;stroke:red;stroke-width:1px;stroke-linecap:butt;stroke-linejoin:miter;stroke-opacity:1" d="M 144.583,724.735 164.383,732.655 z" id="boundary" inkscape:connector-curvature="0" />
	<path style="fill:none;stroke:red;stroke-width:1px;stroke-linecap:butt;stroke-linejoin:miter;stroke-opacity:1" d="M 182.204,742.555 202.004,748.495 z" id="boundary" inkscape:connector-curvature="0" />
	<path style="fill:none;stroke:red;stroke-width:1px;stroke-linecap:butt;stroke-linejoin:miter;stroke-opacity:1" d="M 164.383,732.655 182.204,742.555 z" id="boundary" inkscape:connector-curvature="0" />
	<path style="fill:none;stroke:red;stroke-width:1px;stroke-linecap:butt;stroke-linejoin:miter;stroke-opacity:1" d="M 126.762,714.834 144.583,724.735 z" id="boundary" inkscape:connector-curvature="0" />
	<path style="fill:none;stroke:red;stroke-width:1px;stroke-linecap:butt;stroke-linejoin:miter;stroke-opacity:1" d="M 221.804,396.048 241.605,386.148 z" id="boundary" inkscape:connector-curvature="0" />
	<path style="fill:none;stroke:red;stroke-width:1px;stroke-linecap:butt;stroke-linejoin:miter;stroke-opacity:1" d="M 221.804,396.048 202.004,405.948 z" id="boundary" inkscape:connector-curvature="0" />
	<path style="fill:none;stroke:red;stroke-width:1px;stroke-linecap:butt;stroke-linejoin:miter;stroke-opacity:1" d="M 219.824,758.395 202.004,748.495 z" id="boundary" inkscape:connector-curvature="0" />
	<path style="fill:none;stroke:red;stroke-width:1px;stroke-linecap:butt;stroke-linejoin:miter;stroke-opacity:1" d="M 314.866,778.196 295.066,778.196 z" id="boundary" inkscape:connector-curvature="0" />
	<path style="fill:none;stroke:red;stroke-width:1px;stroke-linecap:butt;stroke-linejoin:miter;stroke-opacity:1" d="M 219.824,758.395 237.645,768.295 z" id="boundary" inkscape:connector-curvature="0" />
	<path style="fill:none;stroke:red;stroke-width:1px;stroke-linecap:butt;stroke-linejoin:miter;stroke-opacity:1" d="M 237.645,768.295 257.445,768.295 z" id="boundary" inkscape:connector-curvature="0" />
	<path style="fill:none;stroke:red;stroke-width:1px;stroke-linecap:butt;stroke-linejoin:miter;stroke-opacity:1" d="M 275.265,778.196 257.445,768.295 z" id="boundary" inkscape:connector-curvature="0" />
	<path style="fill:none;stroke:red;stroke-width:1px;stroke-linecap:butt;stroke-linejoin:miter;stroke-opacity:1" d="M 275.265,778.196 295.066,778.196 z" id="boundary" inkscape:connector-curvature="0" />
	<path style="fill:none;stroke:red;stroke-width:1px;stroke-linecap:butt;stroke-linejoin:miter;stroke-opacity:1" d="M 332.687,788.096 314.866,778.196 z" id="boundary" inkscape:connector-curvature="0" />
	<path style="fill:none;stroke:red;stroke-width:1px;stroke-linecap:butt;stroke-linejoin:miter;stroke-opacity:1" d="M 352.487,788.096 332.687,788.096 z" id="boundary" inkscape:connector-curvature="0" />
	<path style="fill:none;stroke:red;stroke-width:1px;stroke-linecap:butt;stroke-linejoin:miter;stroke-opacity:1" d="M 372.287,788.096 352.487,788.096 z" id="boundary" inkscape:connector-curvature="0" />
	<path style="fill:none;stroke:red;stroke-width:1px;stroke-linecap:butt;stroke-linejoin:miter;stroke-opacity:1" d="M 392.088,788.096 372.287,788.096 z" id="boundary" inkscape:connector-curvature="0" />
	<path style="fill:none;stroke:red;stroke-width:1px;stroke-linecap:butt;stroke-linejoin:miter;stroke-opacity:1" d="M 392.088,788.096 411.888,788.096 z" id="boundary" inkscape:connector-curvature="0" />
	<path style="fill:none;stroke:red;stroke-width:1px;stroke-linecap:butt;stroke-linejoin:miter;stroke-opacity:1" d="M 411.888,788.096 431.689,788.096 z" id="boundary" inkscape:connector-curvature="0" />
	<path style="fill:none;stroke:red;stroke-width:1px;stroke-linecap:butt;stroke-linejoin:miter;stroke-opacity:1" d="M 431.689,788.096 451.489,788.096 z" id="boundary" inkscape:connector-curvature="0" />
	<path style="fill:none;stroke:red;stroke-width:1px;stroke-linecap:butt;stroke-linejoin:miter;stroke-opacity:1" d="M 471.289,788.096 491.09,788.096 z" id="boundary" inkscape:connector-curvature="0" />
	<path style="fill:none;stroke:red;stroke-width:1px;stroke-linecap:butt;stroke-linejoin:miter;stroke-opacity:1" d="M 471.289,788.096 451.489,788.096 z" id="boundary" inkscape:connector-curvature="0" />
	<path style="fill:none;stroke:red;stroke-width:1px;stroke-linecap:butt;stroke-linejoin:miter;stroke-opacity:1" d="M 510.89,788.096 491.09,788.096 z" id="boundary" inkscape:connector-curvature="0" />
	<path style="fill:none;stroke:red;stroke-width:1px;stroke-linecap:butt;stroke-linejoin:miter;stroke-opacity:1" d="M 510.89,51.521 510.89,71.3214 z" id="boundary" inkscape:connector-curvature="0" />
	<path style="fill:none;stroke:red;stroke-width:1px;stroke-linecap:butt;stroke-linejoin:miter;stroke-opacity:1" d="M 510.89,51.521 500.99,33.7006 z" id="boundary" inkscape:connector-curvature="0" />
	<path style="fill:none;stroke:red;stroke-width:1px;stroke-linecap:butt;stroke-linejoin:miter;stroke-opacity:1" d="M 510.89,71.3214 520.79,89.1417 z" id="boundary" inkscape:connector-curvature="0" />
	<path style="fill:none;stroke:red;stroke-width:1px;stroke-linecap:butt;stroke-linejoin:miter;stroke-opacity:1" d="M 530.691,106.962 520.79,89.1417 z" id="boundary" inkscape:connector-curvature="0" />
	<path style="fill:none;stroke:red;stroke-width:1px;stroke-linecap:butt;stroke-linejoin:miter;stroke-opacity:1" d="M 542.571,122.802 530.691,106.962 z" id="boundary" inkscape:connector-curvature="0" />
	<path style="fill:none;stroke:red;stroke-width:1px;stroke-linecap:butt;stroke-linejoin:miter;stroke-opacity:1" d="M 542.571,122.802 560.391,132.703 z" id="boundary" inkscape:connector-curvature="0" />
	<path style="fill:none;stroke:red;stroke-width:1px;stroke-linecap:butt;stroke-linejoin:miter;stroke-opacity:1" d="M 580.192,132.703 560.391,132.703 z" id="boundary" inkscape:connector-curvature="0" />
	<path style="fill:none;stroke:red;stroke-width:1px;stroke-linecap:butt;stroke-linejoin:miter;stroke-opacity:1" d="M 619.792,132.703 599.992,132.703 z" id="boundary" inkscape:connector-curvature="0" />
	<path style="fill:none;stroke:red;stroke-width:1px;stroke-linecap:butt;stroke-linejoin:miter;stroke-opacity:1" d="M 580.192,132.703 599.992,132.703 z" id="boundary" inkscape:connector-curvature="0" />
	<path style="fill:none;stroke:red;stroke-width:1px;stroke-linecap:butt;stroke-linejoin:miter;stroke-opacity:1" d="M 540.591,194.084 530.691,213.884 z" id="boundary" inkscape:connector-curvature="0" />
	<path style="fill:none;stroke:red;stroke-width:1px;stroke-linecap:butt;stroke-linejoin:miter;stroke-opacity:1" d="M 560.391,194.084 540.591,194.084 z" id="boundary" inkscape:connector-curvature="0" />
	<path style="fill:none;stroke:red;stroke-width:1px;stroke-linecap:butt;stroke-linejoin:miter;stroke-opacity:1" d="M 530.691,213.884 530.691,233.685 z" id="boundary" inkscape:connector-curvature="0" />
	<path style="fill:none;stroke:red;stroke-width:1px;stroke-linecap:butt;stroke-linejoin:miter;stroke-opacity:1" d="M 560.391,194.084 580.192,184.184 z" id="boundary" inkscape:connector-curvature="0" />
	<path style="fill:none;stroke:red;stroke-width:1px;stroke-linecap:butt;stroke-linejoin:miter;stroke-opacity:1" d="M 550.491,308.926 566.331,320.806 z" id="boundary" inkscape:connector-curvature="0" />
	<path style="fill:none;stroke:red;stroke-width:1px;stroke-linecap:butt;stroke-linejoin:miter;stroke-opacity:1" d="M 530.691,233.685 530.691,253.485 z" id="boundary" inkscape:connector-curvature="0" />
	<path style="fill:none;stroke:red;stroke-width:1px;stroke-linecap:butt;stroke-linejoin:miter;stroke-opacity:1" d="M 540.591,271.305 540.591,291.106 z" id="boundary" inkscape:connector-curvature="0" />
	<path style="fill:none;stroke:red;stroke-width:1px;stroke-linecap:butt;stroke-linejoin:miter;stroke-opacity:1" d="M 540.591,291.106 550.491,308.926 z" id="boundary" inkscape:connector-curvature="0" />
	<path style="fill:none;stroke:red;stroke-width:1px;stroke-linecap:butt;stroke-linejoin:miter;stroke-opacity:1" d="M 530.691,253.485 540.591,271.305 z" id="boundary" inkscape:connector-curvature="0" />
	<path style="fill:none;stroke:red;stroke-width:1px;stroke-linecap:butt;stroke-linejoin:miter;stroke-opacity:1" d="M 580.192,184.184 599.992,174.283 z" id="boundary" inkscape:connector-curvature="0" />
	<path style="fill:none;stroke:red;stroke-width:1px;stroke-linecap:butt;stroke-linejoin:miter;stroke-opacity:1" d="M 566.331,320.806 586.132,322.786 z" id="boundary" inkscape:connector-curvature="0" />
	<path style="fill:none;stroke:red;stroke-width:1px;stroke-linecap:butt;stroke-linejoin:miter;stroke-opacity:1" d="M 605.932,330.707 586.132,322.786 z" id="boundary" inkscape:connector-curvature="0" />
	<path style="fill:none;stroke:red;stroke-width:1px;stroke-linecap:butt;stroke-linejoin:miter;stroke-opacity:1" d="M 605.932,330.707 625.733,332.687 z" id="boundary" inkscape:connector-curvature="0" />
	<path style="fill:none;stroke:red;stroke-width:1px;stroke-linecap:butt;stroke-linejoin:miter;stroke-opacity:1" d="M 619.792,164.383 599.992,174.283 z" id="boundary" inkscape:connector-curvature="0" />
	<path style="fill:none;stroke:red;stroke-width:1px;stroke-linecap:butt;stroke-linejoin:miter;stroke-opacity:1" d="M 639.593,138.643 619.792,132.703 z" id="boundary" inkscape:connector-curvature="0" />
	<path style="fill:none;stroke:red;stroke-width:1px;stroke-linecap:butt;stroke-linejoin:miter;stroke-opacity:1" d="M 639.593,158.443 639.593,138.643 z" id="boundary" inkscape:connector-curvature="0" />
	<path style="fill:none;stroke:red;stroke-width:1px;stroke-linecap:butt;stroke-linejoin:miter;stroke-opacity:1" d="M 619.792,164.383 639.593,158.443 z" id="boundary" inkscape:connector-curvature="0" />
	<path style="fill:none;stroke:red;stroke-width:1px;stroke-linecap:butt;stroke-linejoin:miter;stroke-opacity:1" d="M 645.533,340.607 625.733,332.687 z" id="boundary" inkscape:connector-curvature="0" />
	<path style="fill:none;stroke:red;stroke-width:1px;stroke-linecap:butt;stroke-linejoin:miter;stroke-opacity:1" d="M 665.333,342.587 645.533,340.607 z" id="boundary" inkscape:connector-curvature="0" />
	<path style="fill:none;stroke:red;stroke-width:1px;stroke-linecap:butt;stroke-linejoin:miter;stroke-opacity:1" d="M 665.333,342.587 685.134,350.507 z" id="boundary" inkscape:connector-curvature="0" />
	<path style="fill:none;stroke:red;stroke-width:1px;stroke-linecap:butt;stroke-linejoin:miter;stroke-opacity:1" d="M 685.134,350.507 702.954,360.407 z" id="boundary" inkscape:connector-curvature="0" />
	<path style="fill:none;stroke:red;stroke-width:1px;stroke-linecap:butt;stroke-linejoin:miter;stroke-opacity:1" d="M 702.954,360.407 722.754,360.407 z" id="boundary" inkscape:connector-curvature="0" />
	<path style="fill:none;stroke:red;stroke-width:1px;stroke-linecap:butt;stroke-linejoin:miter;stroke-opacity:1" d="M 722.754,360.407 740.575,370.307 z" id="boundary" inkscape:connector-curvature="0" />
	<path style="fill:none;stroke:red;stroke-width:1px;stroke-linecap:butt;stroke-linejoin:miter;stroke-opacity:1" d="M 760.375,370.307 740.575,370.307 z" id="boundary" inkscape:connector-curvature="0" />
	<path style="fill:none;stroke:red;stroke-width:1px;stroke-linecap:butt;stroke-linejoin:miter;stroke-opacity:1" d="M 780.176,370.307 760.375,370.307 z" id="boundary" inkscape:connector-curvature="0" />
	<path style="fill:none;stroke:red;stroke-width:1px;stroke-linecap:butt;stroke-linejoin:miter;stroke-opacity:1" d="M 797.996,380.208 780.176,370.307 z" id="boundary" inkscape:connector-curvature="0" />
	<path style="fill:none;stroke:red;stroke-width:1px;stroke-linecap:butt;stroke-linejoin:miter;stroke-opacity:1" d="M 797.996,380.208 807.896,398.028 z" id="boundary" inkscape:connector-curvature="0" />
	<path style="fill:none;stroke:red;stroke-width:1px;stroke-linecap:butt;stroke-linejoin:miter;stroke-opacity:1" d="M 807.896,398.028 807.896,417.828 z" id="boundary" inkscape:connector-curvature="0" />
	<path style="fill:none;stroke:red;stroke-width:1px;stroke-linecap:butt;stroke-linejoin:miter;stroke-opacity:1" d="M 807.896,417.828 823.737,429.709 z" id="boundary" inkscape:connector-curvature="0" />
	<path style="fill:none;stroke:red;stroke-width:1px;stroke-linecap:butt;stroke-linejoin:miter;stroke-opacity:1" d="M 510.89,788.096 530.691,788.096 z" id="boundary" inkscape:connector-curvature="0" />
	<path style="fill:none;stroke:red;stroke-width:1px;stroke-linecap:butt;stroke-linejoin:miter;stroke-opacity:1" d="M 550.491,788.096 530.691,788.096 z" id="boundary" inkscape:connector-curvature="0" />
	<path style="fill:none;stroke:red;stroke-width:1px;stroke-linecap:butt;stroke-linejoin:miter;stroke-opacity:1" d="M 590.092,788.096 570.291,788.096 z" id="boundary" inkscape:connector-curvature="0" />
	<path style="fill:none;stroke:red;stroke-width:1px;stroke-linecap:butt;stroke-linejoin:miter;stroke-opacity:1" d="M 570.291,788.096 550.491,788.096 z" id="boundary" inkscape:connector-curvature="0" />
	<path style="fill:none;stroke:red;stroke-width:1px;stroke-linecap:butt;stroke-linejoin:miter;stroke-opacity:1" d="M 590.092,788.096 609.892,788.096 z" id="boundary" inkscape:connector-curvature="0" />
	<path style="fill:none;stroke:red;stroke-width:1px;stroke-linecap:butt;stroke-linejoin:miter;stroke-opacity:1" d="M 629.693,788.096 609.892,788.096 z" id="boundary" inkscape:connector-curvature="0" />
	<path style="fill:none;stroke:red;stroke-width:1px;stroke-linecap:butt;stroke-linejoin:miter;stroke-opacity:1" d="M 649.493,788.096 669.293,788.096 z" id="boundary" inkscape:connector-curvature="0" />
	<path style="fill:none;stroke:red;stroke-width:1px;stroke-linecap:butt;stroke-linejoin:miter;stroke-opacity:1" d="M 689.094,788.096 708.894,788.096 z" id="boundary" inkscape:connector-curvature="0" />
	<path style="fill:none;stroke:red;stroke-width:1px;stroke-linecap:butt;stroke-linejoin:miter;stroke-opacity:1" d="M 689.094,788.096 669.293,788.096 z" id="boundary" inkscape:connector-curvature="0" />
	<path style="fill:none;stroke:red;stroke-width:1px;stroke-linecap:butt;stroke-linejoin:miter;stroke-opacity:1" d="M 649.493,788.096 629.693,788.096 z" id="boundary" inkscape:connector-curvature="0" />
	<path style="fill:none;stroke:red;stroke-width:1px;stroke-linecap:butt;stroke-linejoin:miter;stroke-opacity:1" d="M 726.715,778.196 708.894,788.096 z" id="boundary" inkscape:connector-curvature="0" />
	<path style="fill:none;stroke:red;stroke-width:1px;stroke-linecap:butt;stroke-linejoin:miter;stroke-opacity:1" d="M 819.776,748.495 801.956,758.395 z" id="boundary" inkscape:connector-curvature="0" />
	<path style="fill:none;stroke:red;stroke-width:1px;stroke-linecap:butt;stroke-linejoin:miter;stroke-opacity:1" d="M 726.715,778.196 746.515,778.196 z" id="boundary" inkscape:connector-curvature="0" />
	<path style="fill:none;stroke:red;stroke-width:1px;stroke-linecap:butt;stroke-linejoin:miter;stroke-opacity:1" d="M 746.515,778.196 766.315,778.196 z" id="boundary" inkscape:connector-curvature="0" />
	<path style="fill:none;stroke:red;stroke-width:1px;stroke-linecap:butt;stroke-linejoin:miter;stroke-opacity:1" d="M 784.136,768.295 801.956,758.395 z" id="boundary" inkscape:connector-curvature="0" />
	<path style="fill:none;stroke:red;stroke-width:1px;stroke-linecap:butt;stroke-linejoin:miter;stroke-opacity:1" d="M 784.136,768.295 766.315,778.196 z" id="boundary" inkscape:connector-curvature="0" />
	<path style="fill:none;stroke:red;stroke-width:1px;stroke-linecap:butt;stroke-linejoin:miter;stroke-opacity:1" d="M 859.377,449.509 841.557,439.609 z" id="boundary" inkscape:connector-curvature="0" />
	<path style="fill:none;stroke:red;stroke-width:1px;stroke-linecap:butt;stroke-linejoin:miter;stroke-opacity:1" d="M 896.998,465.349 877.198,459.409 z" id="boundary" inkscape:connector-curvature="0" />
	<path style="fill:none;stroke:red;stroke-width:1px;stroke-linecap:butt;stroke-linejoin:miter;stroke-opacity:1" d="M 877.198,459.409 859.377,449.509 z" id="boundary" inkscape:connector-curvature="0" />
	<path style="fill:none;stroke:red;stroke-width:1px;stroke-linecap:butt;stroke-linejoin:miter;stroke-opacity:1" d="M 904.918,485.15 896.998,465.349 z" id="boundary" inkscape:connector-curvature="0" />
	<path style="fill:none;stroke:red;stroke-width:1px;stroke-linecap:butt;stroke-linejoin:miter;stroke-opacity:1" d="M 841.557,439.609 823.737,429.709 z" id="boundary" inkscape:connector-curvature="0" />
	<path style="fill:none;stroke:red;stroke-width:1px;stroke-linecap:butt;stroke-linejoin:miter;stroke-opacity:1" d="M 904.918,485.15 924.719,493.07 z" id="boundary" inkscape:connector-curvature="0" />
	<path style="fill:none;stroke:red;stroke-width:1px;stroke-linecap:butt;stroke-linejoin:miter;stroke-opacity:1" d="M 932.639,512.87 924.719,493.07 z" id="boundary" inkscape:connector-curvature="0" />
	<path style="fill:none;stroke:red;stroke-width:1px;stroke-linecap:butt;stroke-linejoin:miter;stroke-opacity:1" d="M 952.439,520.79 932.639,512.87 z" id="boundary" inkscape:connector-curvature="0" />
	<path style="fill:none;stroke:red;stroke-width:1px;stroke-linecap:butt;stroke-linejoin:miter;stroke-opacity:1" d="M 966.299,536.631 952.439,520.79 z" id="boundary" inkscape:connector-curvature="0" />
	<path style="fill:none;stroke:red;stroke-width:1px;stroke-linecap:butt;stroke-linejoin:miter;stroke-opacity:1" d="M 982.14,548.511 966.299,536.631 z" id="boundary" inkscape:connector-curvature="0" />
	<path style="fill:none;stroke:red;stroke-width:1px;stroke-linecap:butt;stroke-linejoin:miter;stroke-opacity:1" d="M 982.14,548.511 996,564.351 z" id="boundary" inkscape:connector-curvature="0" />
	<path style="fill:none;stroke:red;stroke-width:1px;stroke-linecap:butt;stroke-linejoin:miter;stroke-opacity:1" d="M 996,564.351 996,584.152 z" id="boundary" inkscape:connector-curvature="0" />
	<path style="fill:none;stroke:red;stroke-width:1px;stroke-linecap:butt;stroke-linejoin:miter;stroke-opacity:1" d="M 996,584.152 986.1,609.892 z" id="boundary" inkscape:connector-curvature="0" />
	<path style="fill:none;stroke:red;stroke-width:1px;stroke-linecap:butt;stroke-linejoin:miter;stroke-opacity:1" d="M 952.439,675.234 932.639,685.134 z" id="boundary" inkscape:connector-curvature="0" />
	<path style="fill:none;stroke:red;stroke-width:1px;stroke-linecap:butt;stroke-linejoin:miter;stroke-opacity:1" d="M 932.639,685.134 912.838,695.034 z" id="boundary" inkscape:connector-curvature="0" />
	<path style="fill:none;stroke:red;stroke-width:1px;stroke-linecap:butt;stroke-linejoin:miter;stroke-opacity:1" d="M 819.776,748.495 837.597,738.595 z" id="boundary" inkscape:connector-curvature="0" />
	<path style="fill:none;stroke:red;stroke-width:1px;stroke-linecap:butt;stroke-linejoin:miter;stroke-opacity:1" d="M 857.397,728.695 837.597,738.595 z" id="boundary" inkscape:connector-curvature="0" />
	<path style="fill:none;stroke:red;stroke-width:1px;stroke-linecap:butt;stroke-linejoin:miter;stroke-opacity:1" d="M 893.038,704.934 912.838,695.034 z" id="boundary" inkscape:connector-curvature="0" />
	<path style="fill:none;stroke:red;stroke-width:1px;stroke-linecap:butt;stroke-linejoin:miter;stroke-opacity:1" d="M 857.397,728.695 877.198,718.794 z" id="boundary" inkscape:connector-curvature="0" />
	<path style="fill:none;stroke:red;stroke-width:1px;stroke-linecap:butt;stroke-linejoin:miter;stroke-opacity:1" d="M 877.198,718.794 893.038,704.934 z" id="boundary" inkscape:connector-curvature="0" />
	<path style="fill:none;stroke:red;stroke-width:1px;stroke-linecap:butt;stroke-linejoin:miter;stroke-opacity:1" d="M 952.439,675.234 966.299,659.393 z" id="boundary" inkscape:connector-curvature="0" />
	<path style="fill:none;stroke:red;stroke-width:1px;stroke-linecap:butt;stroke-linejoin:miter;stroke-opacity:1" d="M 982.14,645.533 966.299,659.393 z" id="boundary" inkscape:connector-curvature="0" />
	<path style="fill:none;stroke:red;stroke-width:1px;stroke-linecap:butt;stroke-linejoin:miter;stroke-opacity:1" d="M 982.14,645.533 986.1,609.892 z" id="boundary" inkscape:connector-curvature="0" />
	<circle cx="4" cy="594.052" r="4" fill="#0" id="circle0"/>
	<circle cx="4" cy="613.852" r="4" fill="#0" id="circle1"/>
	<circle cx="13.9002" cy="574.251" r="4" fill="#0" id="circle2"/>
	<circle cx="13.9002" cy="631.673" r="4" fill="#0" id="circle3"/>
	<circle cx="23.8004" cy="554.451" r="4" fill="#0" id="circle4"/>
	<circle cx="23.8004" cy="649.493" r="4" fill="#0" id="circle5"/>
	<circle cx="35.6806" cy="665.333" r="4" fill="#0" id="circle6"/>
	<circle cx="39.6407" cy="538.611" r="4" fill="#0" id="circle7"/>
	<circle cx="51.521" cy="679.194" r="4" fill="#0" id="circle8"/>
	<circle cx="55.481" cy="522.77" r="4" fill="#0" id="circle9"/>
	<circle cx="69.3413" cy="689.094" r="4" fill="#0" id="circle10"/>
	<circle cx="71.3214" cy="508.91" r="4" fill="#0" id="circle11"/>
	<circle cx="89.1417" cy="499.01" r="4" fill="#0" id="circle12"/>
	<circle cx="89.1417" cy="697.014" r="4" fill="#0" id="circle13"/>
	<circle cx="106.962" cy="489.11" r="4" fill="#0" id="circle14"/>
	<circle cx="106.962" cy="706.914" r="4" fill="#0" id="circle15"/>
	<circle cx="122.802" cy="465.349" r="4" fill="#0" id="circle16"/>
	<circle cx="126.762" cy="714.834" r="4" fill="#0" id="circle17"/>
	<circle cx="142.603" cy="455.449" r="4" fill="#0" id="circle18"/>
	<circle cx="144.583" cy="724.735" r="4" fill="#0" id="circle19"/>
	<circle cx="162.403" cy="449.509" r="4" fill="#0" id="circle20"/>
	<circle cx="164.383" cy="732.655" r="4" fill="#0" id="circle21"/>
	<circle cx="182.204" cy="445.549" r="4" fill="#0" id="circle22"/>
	<circle cx="182.204" cy="742.555" r="4" fill="#0" id="circle23"/>
	<circle cx="192.104" cy="425.749" r="4" fill="#0" id="circle24"/>
	<circle cx="202.004" cy="405.948" r="4" fill="#0" id="circle25"/>
	<circle cx="202.004" cy="748.495" r="4" fill="#0" id="circle26"/>
	<circle cx="219.824" cy="758.395" r="4" fill="#0" id="circle27"/>
	<circle cx="221.804" cy="396.048" r="4" fill="#0" id="circle28"/>
	<circle cx="237.645" cy="768.295" r="4" fill="#0" id="circle29"/>
	<circle cx="241.605" cy="386.148" r="4" fill="#0" id="circle30"/>
	<circle cx="257.445" cy="768.295" r="4" fill="#0" id="circle31"/>
	<circle cx="261.405" cy="376.248" r="4" fill="#0" id="circle32"/>
	<circle cx="275.265" cy="778.196" r="4" fill="#0" id="circle33"/>
	<circle cx="281.206" cy="370.307" r="4" fill="#0" id="circle34"/>
	<circle cx="295.066" cy="778.196" r="4" fill="#0" id="circle35"/>
	<circle cx="301.006" cy="366.347" r="4" fill="#0" id="circle36"/>
	<circle cx="314.866" cy="778.196" r="4" fill="#0" id="circle37"/>
	<circle cx="320.806" cy="360.407" r="4" fill="#0" id="circle38"/>
	<circle cx="332.687" cy="788.096" r="4" fill="#0" id="circle39"/>
	<circle cx="340.607" cy="356.447" r="4" fill="#0" id="circle40"/>
	<circle cx="352.487" cy="788.096" r="4" fill="#0" id="circle41"/>
	<circle cx="360.407" cy="148.543" r="4" fill="#0" id="circle42"/>
	<circle cx="360.407" cy="350.507" r="4" fill="#0" id="circle43"/>
	<circle cx="370.307" cy="166.363" r="4" fill="#0" id="circle44"/>
	<circle cx="372.287" cy="788.096" r="4" fill="#0" id="circle45"/>
	<circle cx="380.208" cy="138.643" r="4" fill="#0" id="circle46"/>
	<circle cx="380.208" cy="350.507" r="4" fill="#0" id="circle47"/>
	<circle cx="390.108" cy="174.283" r="4" fill="#0" id="circle48"/>
	<circle cx="392.088" cy="788.096" r="4" fill="#0" id="circle49"/>
	<circle cx="398.028" cy="340.607" r="4" fill="#0" id="circle50"/>
	<circle cx="400.008" cy="132.703" r="4" fill="#0" id="circle51"/>
	<circle cx="409.908" cy="174.283" r="4" fill="#0" id="circle52"/>
	<circle cx="411.888" cy="788.096" r="4" fill="#0" id="circle53"/>
	<circle cx="417.828" cy="340.607" r="4" fill="#0" id="circle54"/>
	<circle cx="419.808" cy="128.743" r="4" fill="#0" id="circle55"/>
	<circle cx="425.749" cy="320.806" r="4" fill="#0" id="circle56"/>
	<circle cx="429.709" cy="174.283" r="4" fill="#0" id="circle57"/>
	<circle cx="431.689" cy="788.096" r="4" fill="#0" id="circle58"/>
	<circle cx="435.649" cy="301.006" r="4" fill="#0" id="circle59"/>
	<circle cx="439.609" cy="122.802" r="4" fill="#0" id="circle60"/>
	<circle cx="445.549" cy="281.206" r="4" fill="#0" id="circle61"/>
	<circle cx="449.509" cy="174.283" r="4" fill="#0" id="circle62"/>
	<circle cx="449.509" cy="194.084" r="4" fill="#0" id="circle63"/>
	<circle cx="449.509" cy="213.884" r="4" fill="#0" id="circle64"/>
	<circle cx="449.509" cy="233.685" r="4" fill="#0" id="circle65"/>
	<circle cx="449.509" cy="253.485" r="4" fill="#0" id="circle66"/>
	<circle cx="451.489" cy="788.096" r="4" fill="#0" id="circle67"/>
	<circle cx="459.409" cy="19.8403" r="4" fill="#0" id="circle68"/>
	<circle cx="459.409" cy="39.6407" r="4" fill="#0" id="circle69"/>
	<circle cx="459.409" cy="59.4411" r="4" fill="#0" id="circle70"/>
	<circle cx="459.409" cy="79.2415" r="4" fill="#0" id="circle71"/>
	<circle cx="459.409" cy="99.0419" r="4" fill="#0" id="circle72"/>
	<circle cx="459.409" cy="118.842" r="4" fill="#0" id="circle73"/>
	<circle cx="471.289" cy="788.096" r="4" fill="#0" id="circle74"/>
	<circle cx="475.25" cy="4" r="4" fill="#0" id="circle75"/>
	<circle cx="491.09" cy="788.096" r="4" fill="#0" id="circle76"/>
	<circle cx="493.07" cy="13.9002" r="4" fill="#0" id="circle77"/>
	<circle cx="500.99" cy="33.7006" r="4" fill="#0" id="circle78"/>
	<circle cx="510.89" cy="51.521" r="4" fill="#0" id="circle79"/>
	<circle cx="510.89" cy="71.3214" r="4" fill="#0" id="circle80"/>
	<circle cx="510.89" cy="788.096" r="4" fill="#0" id="circle81"/>
	<circle cx="520.79" cy="89.1417" r="4" fill="#0" id="circle82"/>
	<circle cx="530.691" cy="106.962" r="4" fill="#0" id="circle83"/>
	<circle cx="530.691" cy="213.884" r="4" fill="#0" id="circle84"/>
	<circle cx="530.691" cy="233.685" r="4" fill="#0" id="circle85"/>
	<circle cx="530.691" cy="253.485" r="4" fill="#0" id="circle86"/>
	<circle cx="530.691" cy="788.096" r="4" fill="#0" id="circle87"/>
	<circle cx="540.591" cy="194.084" r="4" fill="#0" id="circle88"/>
	<circle cx="540.591" cy="271.305" r="4" fill="#0" id="circle89"/>
	<circle cx="540.591" cy="291.106" r="4" fill="#0" id="circle90"/>
	<circle cx="542.571" cy="122.802" r="4" fill="#0" id="circle91"/>
	<circle cx="550.491" cy="308.926" r="4" fill="#0" id="circle92"/>
	<circle cx="550.491" cy="788.096" r="4" fill="#0" id="circle93"/>
	<circle cx="560.391" cy="132.703" r="4" fill="#0" id="circle94"/>
	<circle cx="560.391" cy="194.084" r="4" fill="#0" id="circle95"/>
	<circle cx="566.331" cy="320.806" r="4" fill="#0" id="circle96"/>
	<circle cx="570.291" cy="788.096" r="4" fill="#0" id="circle97"/>
	<circle cx="580.192" cy="132.703" r="4" fill="#0" id="circle98"/>
	<circle cx="580.192" cy="184.184" r="4" fill="#0" id="circle99"/>
	<circle cx="586.132" cy="322.786" r="4" fill="#0" id="circle100"/>
	<circle cx="590.092" cy="788.096" r="4" fill="#0" id="circle101"/>
	<circle cx="599.992" cy="132.703" r="4" fill="#0" id="circle102"/>
	<circle cx="599.992" cy="174.283" r="4" fill="#0" id="circle103"/>
	<circle cx="605.932" cy="330.707" r="4" fill="#0" id="circle104"/>
	<circle cx="609.892" cy="788.096" r="4" fill="#0" id="circle105"/>
	<circle cx="619.792" cy="132.703" r="4" fill="#0" id="circle106"/>
	<circle cx="619.792" cy="164.383" r="4" fill="#0" id="circle107"/>
	<circle cx="625.733" cy="332.687" r="4" fill="#0" id="circle108"/>
	<circle cx="629.693" cy="788.096" r="4" fill="#0" id="circle109"/>
	<circle cx="639.593" cy="138.643" r="4" fill="#0" id="circle110"/>
	<circle cx="639.593" cy="158.443" r="4" fill="#0" id="circle111"/>
	<circle cx="645.533" cy="340.607" r="4" fill="#0" id="circle112"/>
	<circle cx="649.493" cy="788.096" r="4" fill="#0" id="circle113"/>
	<circle cx="665.333" cy="342.587" r="4" fill="#0" id="circle114"/>
	<circle cx="669.293" cy="788.096" r="4" fill="#0" id="circle115"/>
	<circle cx="685.134" cy="350.507" r="4" fill="#0" id="circle116"/>
	<circle cx="689.094" cy="788.096" r="4" fill="#0" id="circle117"/>
	<circle cx="702.954" cy="360.407" r="4" fill="#0" id="circle118"/>
	<circle cx="708.894" cy="788.096" r="4" fill="#0" id="circle119"/>
	<circle cx="722.754" cy="360.407" r="4" fill="#0" id="circle120"/>
	<circle cx="726.715" cy="778.196" r="4" fill="#0" id="circle121"/>
	<circle cx="740.575" cy="370.307" r="4" fill="#0" id="circle122"/>
	<circle cx="746.515" cy="778.196" r="4" fill="#0" id="circle123"/>
	<circle cx="760.375" cy="370.307" r="4" fill="#0" id="circle124"/>
	<circle cx="766.315" cy="778.196" r="4" fill="#0" id="circle125"/>
	<circle cx="780.176" cy="370.307" r="4" fill="#0" id="circle126"/>
	<circle cx="784.136" cy="768.295" r="4" fill="#0" id="circle127"/>
	<circle cx="797.996" cy="380.208" r="4" fill="#0" id="circle128"/>
	<circle cx="801.956" cy="758.395" r="4" fill="#0" id="circle129"/>
	<circle cx="807.896" cy="398.028" r="4" fill="#0" id="circle130"/>
	<circle cx="807.896" cy="417.828" r="4" fill="#0" id="circle131"/>
	<circle cx="819.776" cy="748.495" r="4" fill="#0" id="circle132"/>
	<circle cx="823.737" cy="429.709" r="4" fill="#0" id="circle133"/>
	<circle cx="837.597" cy="738.595" r="4" fill="#0" id="circle134"/>
	<circle cx="841.557" cy="439.609" r="4" fill="#0" id="circle135"/>
	<circle cx="857.397" cy="728.695" r="4" fill="#0" id="circle136"/>
	<circle cx="859.377" cy="449.509" r="4" fill="#0" id="circle137"/>
	<circle cx="877.198" cy="459.409" r="4" fill="#0" id="circle138"/>
	<circle cx="877.198" cy="718.794" r="4" fill="#0" id="circle139"/>
	<circle cx="893.038" cy="704.934" r="4" fill="#0" id="circle140"/>
	<circle cx="896.998" cy="465.349" r="4" fill="#0" id="circle141"/>
	<circle cx="904.918" cy="485.15" r="4" fill="#0" id="circle142"/>
	<circle cx="912.838" cy="695.034" r="4" fill="#0" id="circle143"/>
	<circle cx="924.719" cy="493.07" r="4" fill="#0" id="circle144"/>
	<circle cx="932.639" cy="512.87" r="4" fill="#0" id="circle145"/>
	<circle cx="932.639" cy="685.134" r="4" fill="#0" id="circle146"/>
	<circle cx="952.439" cy="520.79" r="4" fill="#0" id="circle147"/>
	<circle cx="952.439" cy="675.234" r="4" fill="#0" id="circle148"/>
	<circle cx="966.299" cy="536.631" r="4" fill="#0" id="circle149"/>
	<circle cx="966.299" cy="659.393" r="4" fill="#0" id="circle150"/>
	<circle cx="982.14" cy="548.511" r="4" fill="#0" id="circle151"/>
	<circle cx="982.14" cy="645.533" r="4" fill="#0" id="circle152"/>
	<circle cx="986.1" cy="609.892" r="4" fill="#0" id="circle153"/>
	<circle cx="996" cy="564.351" r="4" fill="#0" id="circle154"/>
	<circle cx="996" cy="584.152" r="4" fill="#0" id="circle155"/>
	</g>
</svg>