<?xml version="1.0" encoding="UTF-8" standalone="no"?>
<!-- Created with CurveBenchmark -->
<svg
	xmlns:dc="http://purl.org/dc/elements/1.1/"
	xmlns:cc="http://creativecommons.org/ns#"
	xmlns:rdf="http://www.w3.org/1999/02/22-rdf-syntax-ns#"
	xmlns:svg="http://www.w3.org/2000/svg"
	xmlns="http://www.w3.org/2000/svg"
	xmlns:sodipodi="http://sodipodi.sourceforge.net/DTD/sodipodi-0.dtd"
	xmlns:inkscape="http://www.inkscape.org/namespaces/inkscape"
	width="1000"
	height="1000"
	id="svg2"
	version="1.1"
	sodipodi:docname="manifold/crust-teddy130.png.txt">
<defs
	id="defs4" />
<metadata
	id="metadata7">
	<rdf:RDF>
		<cc:Work
			rdf:about="">
			<dc:format>image/svg+xml</dc:format>
			<dc:type
				rdf:resource="http://purl.org/dc/dcmitype/StillImage" />
			<dc:title></dc:title>
		</cc:Work>
	</rdf:RDF>
</metadata>
<g
	inkscape:label="Layer 1"
	inkscape:groupmode="layer"
	id="layer1">
	<path style="fill:none;stroke:red;stroke-width:1px;stroke-linecap:butt;stroke-linejoin:miter;stroke-opacity:1" d="M 49.2194,105.744 32.2621,128.353 z" id="boundary" inkscape:connector-curvature="0" />
	<path style="fill:none;stroke:red;stroke-width:1px;stroke-linecap:butt;stroke-linejoin:miter;stroke-opacity:1" d="M 32.2621,128.353 20.9573,156.615 z" id="boundary" inkscape:connector-curvature="0" />
	<path style="fill:none;stroke:red;stroke-width:1px;stroke-linecap:butt;stroke-linejoin:miter;stroke-opacity:1" d="M 71.8291,83.1339 49.2194,105.744 z" id="boundary" inkscape:connector-curvature="0" />
	<path style="fill:none;stroke:red;stroke-width:1px;stroke-linecap:butt;stroke-linejoin:miter;stroke-opacity:1" d="M 4,218.792 4,247.054 z" id="boundary" inkscape:connector-curvature="0" />
	<path style="fill:none;stroke:red;stroke-width:1px;stroke-linecap:butt;stroke-linejoin:miter;stroke-opacity:1" d="M 4,218.792 9.65242,190.53 z" id="boundary" inkscape:connector-curvature="0" />
	<path style="fill:none;stroke:red;stroke-width:1px;stroke-linecap:butt;stroke-linejoin:miter;stroke-opacity:1" d="M 9.65242,190.53 20.9573,156.615 z" id="boundary" inkscape:connector-curvature="0" />
	<path style="fill:none;stroke:red;stroke-width:1px;stroke-linecap:butt;stroke-linejoin:miter;stroke-opacity:1" d="M 128.353,60.5242 100.091,71.8291 z" id="boundary" inkscape:connector-curvature="0" />
	<path style="fill:none;stroke:red;stroke-width:1px;stroke-linecap:butt;stroke-linejoin:miter;stroke-opacity:1" d="M 100.091,71.8291 71.8291,83.1339 z" id="boundary" inkscape:connector-curvature="0" />
	<path style="fill:none;stroke:red;stroke-width:1px;stroke-linecap:butt;stroke-linejoin:miter;stroke-opacity:1" d="M 139.658,26.6097 128.353,60.5242 z" id="boundary" inkscape:connector-curvature="0" />
	<path style="fill:none;stroke:red;stroke-width:1px;stroke-linecap:butt;stroke-linejoin:miter;stroke-opacity:1" d="M 162.268,9.65242 139.658,26.6097 z" id="boundary" inkscape:connector-curvature="0" />
	<path style="fill:none;stroke:red;stroke-width:1px;stroke-linecap:butt;stroke-linejoin:miter;stroke-opacity:1" d="M 4,275.316 9.65242,303.578 z" id="boundary" inkscape:connector-curvature="0" />
	<path style="fill:none;stroke:red;stroke-width:1px;stroke-linecap:butt;stroke-linejoin:miter;stroke-opacity:1" d="M 4,247.054 4,275.316 z" id="boundary" inkscape:connector-curvature="0" />
	<path style="fill:none;stroke:red;stroke-width:1px;stroke-linecap:butt;stroke-linejoin:miter;stroke-opacity:1" d="M 23.7835,329.014 40.7407,351.624 z" id="boundary" inkscape:connector-curvature="0" />
	<path style="fill:none;stroke:red;stroke-width:1px;stroke-linecap:butt;stroke-linejoin:miter;stroke-opacity:1" d="M 23.7835,329.014 9.65242,303.578 z" id="boundary" inkscape:connector-curvature="0" />
	<path style="fill:none;stroke:red;stroke-width:1px;stroke-linecap:butt;stroke-linejoin:miter;stroke-opacity:1" d="M 57.698,374.234 40.7407,351.624 z" id="boundary" inkscape:connector-curvature="0" />
	<path style="fill:none;stroke:red;stroke-width:1px;stroke-linecap:butt;stroke-linejoin:miter;stroke-opacity:1" d="M 66.1766,416.627 71.8291,444.889 z" id="boundary" inkscape:connector-curvature="0" />
	<path style="fill:none;stroke:red;stroke-width:1px;stroke-linecap:butt;stroke-linejoin:miter;stroke-opacity:1" d="M 71.8291,444.889 71.8291,473.151 z" id="boundary" inkscape:connector-curvature="0" />
	<path style="fill:none;stroke:red;stroke-width:1px;stroke-linecap:butt;stroke-linejoin:miter;stroke-opacity:1" d="M 66.1766,416.627 57.698,374.234 z" id="boundary" inkscape:connector-curvature="0" />
	<path style="fill:none;stroke:red;stroke-width:1px;stroke-linecap:butt;stroke-linejoin:miter;stroke-opacity:1" d="M 71.8291,473.151 71.8291,501.413 z" id="boundary" inkscape:connector-curvature="0" />
	<path style="fill:none;stroke:red;stroke-width:1px;stroke-linecap:butt;stroke-linejoin:miter;stroke-opacity:1" d="M 162.268,9.65242 190.53,4 z" id="boundary" inkscape:connector-curvature="0" />
	<path style="fill:none;stroke:red;stroke-width:1px;stroke-linecap:butt;stroke-linejoin:miter;stroke-opacity:1" d="M 190.53,4 218.792,12.4786 z" id="boundary" inkscape:connector-curvature="0" />
	<path style="fill:none;stroke:red;stroke-width:1px;stroke-linecap:butt;stroke-linejoin:miter;stroke-opacity:1" d="M 232.923,37.9145 218.792,12.4786 z" id="boundary" inkscape:connector-curvature="0" />
	<path style="fill:none;stroke:red;stroke-width:1px;stroke-linecap:butt;stroke-linejoin:miter;stroke-opacity:1" d="M 261.185,43.567 232.923,37.9145 z" id="boundary" inkscape:connector-curvature="0" />
	<path style="fill:none;stroke:red;stroke-width:1px;stroke-linecap:butt;stroke-linejoin:miter;stroke-opacity:1" d="M 283.795,60.5242 261.185,43.567 z" id="boundary" inkscape:connector-curvature="0" />
	<path style="fill:none;stroke:red;stroke-width:1px;stroke-linecap:butt;stroke-linejoin:miter;stroke-opacity:1" d="M 60.5242,608.809 54.8718,637.071 z" id="boundary" inkscape:connector-curvature="0" />
	<path style="fill:none;stroke:red;stroke-width:1px;stroke-linecap:butt;stroke-linejoin:miter;stroke-opacity:1" d="M 60.5242,608.809 60.5242,580.547 z" id="boundary" inkscape:connector-curvature="0" />
	<path style="fill:none;stroke:red;stroke-width:1px;stroke-linecap:butt;stroke-linejoin:miter;stroke-opacity:1" d="M 60.5242,580.547 66.1766,535.328 z" id="boundary" inkscape:connector-curvature="0" />
	<path style="fill:none;stroke:red;stroke-width:1px;stroke-linecap:butt;stroke-linejoin:miter;stroke-opacity:1" d="M 54.8718,721.858 54.8718,693.595 z" id="boundary" inkscape:connector-curvature="0" />
	<path style="fill:none;stroke:red;stroke-width:1px;stroke-linecap:butt;stroke-linejoin:miter;stroke-opacity:1" d="M 54.8718,637.071 54.8718,665.333 z" id="boundary" inkscape:connector-curvature="0" />
	<path style="fill:none;stroke:red;stroke-width:1px;stroke-linecap:butt;stroke-linejoin:miter;stroke-opacity:1" d="M 54.8718,750.12 54.8718,721.858 z" id="boundary" inkscape:connector-curvature="0" />
	<path style="fill:none;stroke:red;stroke-width:1px;stroke-linecap:butt;stroke-linejoin:miter;stroke-opacity:1" d="M 54.8718,693.595 54.8718,665.333 z" id="boundary" inkscape:connector-curvature="0" />
	<path style="fill:none;stroke:red;stroke-width:1px;stroke-linecap:butt;stroke-linejoin:miter;stroke-opacity:1" d="M 71.8291,501.413 66.1766,535.328 z" id="boundary" inkscape:connector-curvature="0" />
	<path style="fill:none;stroke:red;stroke-width:1px;stroke-linecap:butt;stroke-linejoin:miter;stroke-opacity:1" d="M 54.8718,778.382 71.8291,800.991 z" id="boundary" inkscape:connector-curvature="0" />
	<path style="fill:none;stroke:red;stroke-width:1px;stroke-linecap:butt;stroke-linejoin:miter;stroke-opacity:1" d="M 54.8718,750.12 54.8718,778.382 z" id="boundary" inkscape:connector-curvature="0" />
	<path style="fill:none;stroke:red;stroke-width:1px;stroke-linecap:butt;stroke-linejoin:miter;stroke-opacity:1" d="M 71.8291,829.254 71.8291,857.516 z" id="boundary" inkscape:connector-curvature="0" />
	<path style="fill:none;stroke:red;stroke-width:1px;stroke-linecap:butt;stroke-linejoin:miter;stroke-opacity:1" d="M 71.8291,885.778 77.4815,914.04 z" id="boundary" inkscape:connector-curvature="0" />
	<path style="fill:none;stroke:red;stroke-width:1px;stroke-linecap:butt;stroke-linejoin:miter;stroke-opacity:1" d="M 71.8291,885.778 71.8291,857.516 z" id="boundary" inkscape:connector-curvature="0" />
	<path style="fill:none;stroke:red;stroke-width:1px;stroke-linecap:butt;stroke-linejoin:miter;stroke-opacity:1" d="M 83.1339,942.302 91.6125,970.564 z" id="boundary" inkscape:connector-curvature="0" />
	<path style="fill:none;stroke:red;stroke-width:1px;stroke-linecap:butt;stroke-linejoin:miter;stroke-opacity:1" d="M 77.4815,914.04 83.1339,942.302 z" id="boundary" inkscape:connector-curvature="0" />
	<path style="fill:none;stroke:red;stroke-width:1px;stroke-linecap:butt;stroke-linejoin:miter;stroke-opacity:1" d="M 91.6125,970.564 119.875,979.043 z" id="boundary" inkscape:connector-curvature="0" />
	<path style="fill:none;stroke:red;stroke-width:1px;stroke-linecap:butt;stroke-linejoin:miter;stroke-opacity:1" d="M 71.8291,829.254 71.8291,800.991 z" id="boundary" inkscape:connector-curvature="0" />
	<path style="fill:none;stroke:red;stroke-width:1px;stroke-linecap:butt;stroke-linejoin:miter;stroke-opacity:1" d="M 201.835,990.348 173.573,996 z" id="boundary" inkscape:connector-curvature="0" />
	<path style="fill:none;stroke:red;stroke-width:1px;stroke-linecap:butt;stroke-linejoin:miter;stroke-opacity:1" d="M 145.311,993.174 119.875,979.043 z" id="boundary" inkscape:connector-curvature="0" />
	<path style="fill:none;stroke:red;stroke-width:1px;stroke-linecap:butt;stroke-linejoin:miter;stroke-opacity:1" d="M 145.311,993.174 173.573,996 z" id="boundary" inkscape:connector-curvature="0" />
	<path style="fill:none;stroke:red;stroke-width:1px;stroke-linecap:butt;stroke-linejoin:miter;stroke-opacity:1" d="M 201.835,990.348 230.097,990.348 z" id="boundary" inkscape:connector-curvature="0" />
	<path style="fill:none;stroke:red;stroke-width:1px;stroke-linecap:butt;stroke-linejoin:miter;stroke-opacity:1" d="M 258.359,984.695 230.097,990.348 z" id="boundary" inkscape:connector-curvature="0" />
	<path style="fill:none;stroke:red;stroke-width:1px;stroke-linecap:butt;stroke-linejoin:miter;stroke-opacity:1" d="M 309.231,74.6553 326.188,97.265 z" id="boundary" inkscape:connector-curvature="0" />
	<path style="fill:none;stroke:red;stroke-width:1px;stroke-linecap:butt;stroke-linejoin:miter;stroke-opacity:1" d="M 309.231,74.6553 283.795,60.5242 z" id="boundary" inkscape:connector-curvature="0" />
	<path style="fill:none;stroke:red;stroke-width:1px;stroke-linecap:butt;stroke-linejoin:miter;stroke-opacity:1" d="M 326.188,97.265 343.145,119.875 z" id="boundary" inkscape:connector-curvature="0" />
	<path style="fill:none;stroke:red;stroke-width:1px;stroke-linecap:butt;stroke-linejoin:miter;stroke-opacity:1" d="M 374.234,167.92 357.276,145.311 z" id="boundary" inkscape:connector-curvature="0" />
	<path style="fill:none;stroke:red;stroke-width:1px;stroke-linecap:butt;stroke-linejoin:miter;stroke-opacity:1" d="M 374.234,167.92 399.67,182.051 z" id="boundary" inkscape:connector-curvature="0" />
	<path style="fill:none;stroke:red;stroke-width:1px;stroke-linecap:butt;stroke-linejoin:miter;stroke-opacity:1" d="M 357.276,145.311 343.145,119.875 z" id="boundary" inkscape:connector-curvature="0" />
	<path style="fill:none;stroke:red;stroke-width:1px;stroke-linecap:butt;stroke-linejoin:miter;stroke-opacity:1" d="M 456.194,196.182 427.932,190.53 z" id="boundary" inkscape:connector-curvature="0" />
	<path style="fill:none;stroke:red;stroke-width:1px;stroke-linecap:butt;stroke-linejoin:miter;stroke-opacity:1" d="M 399.67,182.051 427.932,190.53 z" id="boundary" inkscape:connector-curvature="0" />
	<path style="fill:none;stroke:red;stroke-width:1px;stroke-linecap:butt;stroke-linejoin:miter;stroke-opacity:1" d="M 416.627,379.886 394.017,396.843 z" id="boundary" inkscape:connector-curvature="0" />
	<path style="fill:none;stroke:red;stroke-width:1px;stroke-linecap:butt;stroke-linejoin:miter;stroke-opacity:1" d="M 394.017,396.843 410.974,419.453 z" id="boundary" inkscape:connector-curvature="0" />
	<path style="fill:none;stroke:red;stroke-width:1px;stroke-linecap:butt;stroke-linejoin:miter;stroke-opacity:1" d="M 410.974,419.453 427.932,442.063 z" id="boundary" inkscape:connector-curvature="0" />
	<path style="fill:none;stroke:red;stroke-width:1px;stroke-linecap:butt;stroke-linejoin:miter;stroke-opacity:1" d="M 442.063,365.755 416.627,379.886 z" id="boundary" inkscape:connector-curvature="0" />
	<path style="fill:none;stroke:red;stroke-width:1px;stroke-linecap:butt;stroke-linejoin:miter;stroke-opacity:1" d="M 450.541,459.02 427.932,442.063 z" id="boundary" inkscape:connector-curvature="0" />
	<path style="fill:none;stroke:red;stroke-width:1px;stroke-linecap:butt;stroke-linejoin:miter;stroke-opacity:1" d="M 470.325,357.276 442.063,365.755 z" id="boundary" inkscape:connector-curvature="0" />
	<path style="fill:none;stroke:red;stroke-width:1px;stroke-linecap:butt;stroke-linejoin:miter;stroke-opacity:1" d="M 450.541,459.02 470.325,481.63 z" id="boundary" inkscape:connector-curvature="0" />
	<path style="fill:none;stroke:red;stroke-width:1px;stroke-linecap:butt;stroke-linejoin:miter;stroke-opacity:1" d="M 478.803,215.966 456.194,196.182 z" id="boundary" inkscape:connector-curvature="0" />
	<path style="fill:none;stroke:red;stroke-width:1px;stroke-linecap:butt;stroke-linejoin:miter;stroke-opacity:1" d="M 504.239,230.097 478.803,215.966 z" id="boundary" inkscape:connector-curvature="0" />
	<path style="fill:none;stroke:red;stroke-width:1px;stroke-linecap:butt;stroke-linejoin:miter;stroke-opacity:1" d="M 504.239,230.097 509.892,258.359 z" id="boundary" inkscape:connector-curvature="0" />
	<path style="fill:none;stroke:red;stroke-width:1px;stroke-linecap:butt;stroke-linejoin:miter;stroke-opacity:1" d="M 509.892,258.359 492.934,280.969 z" id="boundary" inkscape:connector-curvature="0" />
	<path style="fill:none;stroke:red;stroke-width:1px;stroke-linecap:butt;stroke-linejoin:miter;stroke-opacity:1" d="M 492.934,280.969 490.108,334.667 z" id="boundary" inkscape:connector-curvature="0" />
	<path style="fill:none;stroke:red;stroke-width:1px;stroke-linecap:butt;stroke-linejoin:miter;stroke-opacity:1" d="M 490.108,334.667 470.325,357.276 z" id="boundary" inkscape:connector-curvature="0" />
	<path style="fill:none;stroke:red;stroke-width:1px;stroke-linecap:butt;stroke-linejoin:miter;stroke-opacity:1" d="M 475.977,535.328 481.63,563.59 z" id="boundary" inkscape:connector-curvature="0" />
	<path style="fill:none;stroke:red;stroke-width:1px;stroke-linecap:butt;stroke-linejoin:miter;stroke-opacity:1" d="M 475.977,535.328 470.325,481.63 z" id="boundary" inkscape:connector-curvature="0" />
	<path style="fill:none;stroke:red;stroke-width:1px;stroke-linecap:butt;stroke-linejoin:miter;stroke-opacity:1" d="M 481.63,563.59 487.282,591.852 z" id="boundary" inkscape:connector-curvature="0" />
	<path style="fill:none;stroke:red;stroke-width:1px;stroke-linecap:butt;stroke-linejoin:miter;stroke-opacity:1" d="M 286.621,984.695 258.359,984.695 z" id="boundary" inkscape:connector-curvature="0" />
	<path style="fill:none;stroke:red;stroke-width:1px;stroke-linecap:butt;stroke-linejoin:miter;stroke-opacity:1" d="M 286.621,984.695 314.883,979.043 z" id="boundary" inkscape:connector-curvature="0" />
	<path style="fill:none;stroke:red;stroke-width:1px;stroke-linecap:butt;stroke-linejoin:miter;stroke-opacity:1" d="M 343.145,973.39 314.883,979.043 z" id="boundary" inkscape:connector-curvature="0" />
	<path style="fill:none;stroke:red;stroke-width:1px;stroke-linecap:butt;stroke-linejoin:miter;stroke-opacity:1" d="M 371.407,973.39 399.67,979.043 z" id="boundary" inkscape:connector-curvature="0" />
	<path style="fill:none;stroke:red;stroke-width:1px;stroke-linecap:butt;stroke-linejoin:miter;stroke-opacity:1" d="M 371.407,973.39 343.145,973.39 z" id="boundary" inkscape:connector-curvature="0" />
	<path style="fill:none;stroke:red;stroke-width:1px;stroke-linecap:butt;stroke-linejoin:miter;stroke-opacity:1" d="M 427.932,990.348 399.67,979.043 z" id="boundary" inkscape:connector-curvature="0" />
	<path style="fill:none;stroke:red;stroke-width:1px;stroke-linecap:butt;stroke-linejoin:miter;stroke-opacity:1" d="M 427.932,990.348 456.194,996 z" id="boundary" inkscape:connector-curvature="0" />
	<path style="fill:none;stroke:red;stroke-width:1px;stroke-linecap:butt;stroke-linejoin:miter;stroke-opacity:1" d="M 456.194,996 484.456,996 z" id="boundary" inkscape:connector-curvature="0" />
	<path style="fill:none;stroke:red;stroke-width:1px;stroke-linecap:butt;stroke-linejoin:miter;stroke-opacity:1" d="M 492.934,620.114 492.934,648.376 z" id="boundary" inkscape:connector-curvature="0" />
	<path style="fill:none;stroke:red;stroke-width:1px;stroke-linecap:butt;stroke-linejoin:miter;stroke-opacity:1" d="M 492.934,620.114 487.282,591.852 z" id="boundary" inkscape:connector-curvature="0" />
	<path style="fill:none;stroke:red;stroke-width:1px;stroke-linecap:butt;stroke-linejoin:miter;stroke-opacity:1" d="M 487.282,676.638 492.934,648.376 z" id="boundary" inkscape:connector-curvature="0" />
	<path style="fill:none;stroke:red;stroke-width:1px;stroke-linecap:butt;stroke-linejoin:miter;stroke-opacity:1" d="M 481.63,716.205 487.282,676.638 z" id="boundary" inkscape:connector-curvature="0" />
	<path style="fill:none;stroke:red;stroke-width:1px;stroke-linecap:butt;stroke-linejoin:miter;stroke-opacity:1" d="M 509.892,727.51 481.63,716.205 z" id="boundary" inkscape:connector-curvature="0" />
	<path style="fill:none;stroke:red;stroke-width:1px;stroke-linecap:butt;stroke-linejoin:miter;stroke-opacity:1" d="M 560.764,784.034 557.937,755.772 z" id="boundary" inkscape:connector-curvature="0" />
	<path style="fill:none;stroke:red;stroke-width:1px;stroke-linecap:butt;stroke-linejoin:miter;stroke-opacity:1" d="M 538.154,733.162 557.937,755.772 z" id="boundary" inkscape:connector-curvature="0" />
	<path style="fill:none;stroke:red;stroke-width:1px;stroke-linecap:butt;stroke-linejoin:miter;stroke-opacity:1" d="M 509.892,727.51 538.154,733.162 z" id="boundary" inkscape:connector-curvature="0" />
	<path style="fill:none;stroke:red;stroke-width:1px;stroke-linecap:butt;stroke-linejoin:miter;stroke-opacity:1" d="M 512.718,996 484.456,996 z" id="boundary" inkscape:connector-curvature="0" />
	<path style="fill:none;stroke:red;stroke-width:1px;stroke-linecap:butt;stroke-linejoin:miter;stroke-opacity:1" d="M 538.154,981.869 512.718,996 z" id="boundary" inkscape:connector-curvature="0" />
	<path style="fill:none;stroke:red;stroke-width:1px;stroke-linecap:butt;stroke-linejoin:miter;stroke-opacity:1" d="M 560.764,812.296 560.764,840.558 z" id="boundary" inkscape:connector-curvature="0" />
	<path style="fill:none;stroke:red;stroke-width:1px;stroke-linecap:butt;stroke-linejoin:miter;stroke-opacity:1" d="M 560.764,812.296 560.764,784.034 z" id="boundary" inkscape:connector-curvature="0" />
	<path style="fill:none;stroke:red;stroke-width:1px;stroke-linecap:butt;stroke-linejoin:miter;stroke-opacity:1" d="M 560.764,868.821 555.111,897.083 z" id="boundary" inkscape:connector-curvature="0" />
	<path style="fill:none;stroke:red;stroke-width:1px;stroke-linecap:butt;stroke-linejoin:miter;stroke-opacity:1" d="M 560.764,868.821 560.764,840.558 z" id="boundary" inkscape:connector-curvature="0" />
	<path style="fill:none;stroke:red;stroke-width:1px;stroke-linecap:butt;stroke-linejoin:miter;stroke-opacity:1" d="M 538.154,981.869 549.459,942.302 z" id="boundary" inkscape:connector-curvature="0" />
	<path style="fill:none;stroke:red;stroke-width:1px;stroke-linecap:butt;stroke-linejoin:miter;stroke-opacity:1" d="M 549.459,942.302 555.111,897.083 z" id="boundary" inkscape:connector-curvature="0" />
	<circle cx="4" cy="218.792" r="4" fill="#0" id="circle0"/>
	<circle cx="4" cy="247.054" r="4" fill="#0" id="circle1"/>
	<circle cx="4" cy="275.316" r="4" fill="#0" id="circle2"/>
	<circle cx="9.65242" cy="190.53" r="4" fill="#0" id="circle3"/>
	<circle cx="9.65242" cy="303.578" r="4" fill="#0" id="circle4"/>
	<circle cx="20.9573" cy="156.615" r="4" fill="#0" id="circle5"/>
	<circle cx="23.7835" cy="329.014" r="4" fill="#0" id="circle6"/>
	<circle cx="32.2621" cy="128.353" r="4" fill="#0" id="circle7"/>
	<circle cx="40.7407" cy="351.624" r="4" fill="#0" id="circle8"/>
	<circle cx="49.2194" cy="105.744" r="4" fill="#0" id="circle9"/>
	<circle cx="54.8718" cy="637.071" r="4" fill="#0" id="circle10"/>
	<circle cx="54.8718" cy="665.333" r="4" fill="#0" id="circle11"/>
	<circle cx="54.8718" cy="693.595" r="4" fill="#0" id="circle12"/>
	<circle cx="54.8718" cy="721.858" r="4" fill="#0" id="circle13"/>
	<circle cx="54.8718" cy="750.12" r="4" fill="#0" id="circle14"/>
	<circle cx="54.8718" cy="778.382" r="4" fill="#0" id="circle15"/>
	<circle cx="57.698" cy="374.234" r="4" fill="#0" id="circle16"/>
	<circle cx="60.5242" cy="580.547" r="4" fill="#0" id="circle17"/>
	<circle cx="60.5242" cy="608.809" r="4" fill="#0" id="circle18"/>
	<circle cx="66.1766" cy="416.627" r="4" fill="#0" id="circle19"/>
	<circle cx="66.1766" cy="535.328" r="4" fill="#0" id="circle20"/>
	<circle cx="71.8291" cy="83.1339" r="4" fill="#0" id="circle21"/>
	<circle cx="71.8291" cy="444.889" r="4" fill="#0" id="circle22"/>
	<circle cx="71.8291" cy="473.151" r="4" fill="#0" id="circle23"/>
	<circle cx="71.8291" cy="501.413" r="4" fill="#0" id="circle24"/>
	<circle cx="71.8291" cy="800.991" r="4" fill="#0" id="circle25"/>
	<circle cx="71.8291" cy="829.254" r="4" fill="#0" id="circle26"/>
	<circle cx="71.8291" cy="857.516" r="4" fill="#0" id="circle27"/>
	<circle cx="71.8291" cy="885.778" r="4" fill="#0" id="circle28"/>
	<circle cx="77.4815" cy="914.04" r="4" fill="#0" id="circle29"/>
	<circle cx="83.1339" cy="942.302" r="4" fill="#0" id="circle30"/>
	<circle cx="91.6125" cy="970.564" r="4" fill="#0" id="circle31"/>
	<circle cx="100.091" cy="71.8291" r="4" fill="#0" id="circle32"/>
	<circle cx="119.875" cy="979.043" r="4" fill="#0" id="circle33"/>
	<circle cx="128.353" cy="60.5242" r="4" fill="#0" id="circle34"/>
	<circle cx="139.658" cy="26.6097" r="4" fill="#0" id="circle35"/>
	<circle cx="145.311" cy="993.174" r="4" fill="#0" id="circle36"/>
	<circle cx="162.268" cy="9.65242" r="4" fill="#0" id="circle37"/>
	<circle cx="173.573" cy="996" r="4" fill="#0" id="circle38"/>
	<circle cx="190.53" cy="4" r="4" fill="#0" id="circle39"/>
	<circle cx="201.835" cy="990.348" r="4" fill="#0" id="circle40"/>
	<circle cx="218.792" cy="12.4786" r="4" fill="#0" id="circle41"/>
	<circle cx="230.097" cy="990.348" r="4" fill="#0" id="circle42"/>
	<circle cx="232.923" cy="37.9145" r="4" fill="#0" id="circle43"/>
	<circle cx="258.359" cy="984.695" r="4" fill="#0" id="circle44"/>
	<circle cx="261.185" cy="43.567" r="4" fill="#0" id="circle45"/>
	<circle cx="283.795" cy="60.5242" r="4" fill="#0" id="circle46"/>
	<circle cx="286.621" cy="984.695" r="4" fill="#0" id="circle47"/>
	<circle cx="309.231" cy="74.6553" r="4" fill="#0" id="circle48"/>
	<circle cx="314.883" cy="979.043" r="4" fill="#0" id="circle49"/>
	<circle cx="326.188" cy="97.265" r="4" fill="#0" id="circle50"/>
	<circle cx="343.145" cy="119.875" r="4" fill="#0" id="circle51"/>
	<circle cx="343.145" cy="973.39" r="4" fill="#0" id="circle52"/>
	<circle cx="357.276" cy="145.311" r="4" fill="#0" id="circle53"/>
	<circle cx="371.407" cy="973.39" r="4" fill="#0" id="circle54"/>
	<circle cx="374.234" cy="167.92" r="4" fill="#0" id="circle55"/>
	<circle cx="394.017" cy="396.843" r="4" fill="#0" id="circle56"/>
	<circle cx="399.67" cy="182.051" r="4" fill="#0" id="circle57"/>
	<circle cx="399.67" cy="979.043" r="4" fill="#0" id="circle58"/>
	<circle cx="410.974" cy="419.453" r="4" fill="#0" id="circle59"/>
	<circle cx="416.627" cy="379.886" r="4" fill="#0" id="circle60"/>
	<circle cx="427.932" cy="190.53" r="4" fill="#0" id="circle61"/>
	<circle cx="427.932" cy="442.063" r="4" fill="#0" id="circle62"/>
	<circle cx="427.932" cy="990.348" r="4" fill="#0" id="circle63"/>
	<circle cx="442.063" cy="365.755" r="4" fill="#0" id="circle64"/>
	<circle cx="450.541" cy="459.02" r="4" fill="#0" id="circle65"/>
	<circle cx="456.194" cy="196.182" r="4" fill="#0" id="circle66"/>
	<circle cx="456.194" cy="996" r="4" fill="#0" id="circle67"/>
	<circle cx="470.325" cy="357.276" r="4" fill="#0" id="circle68"/>
	<circle cx="470.325" cy="481.63" r="4" fill="#0" id="circle69"/>
	<circle cx="475.977" cy="535.328" r="4" fill="#0" id="circle70"/>
	<circle cx="478.803" cy="215.966" r="4" fill="#0" id="circle71"/>
	<circle cx="481.63" cy="563.59" r="4" fill="#0" id="circle72"/>
	<circle cx="481.63" cy="716.205" r="4" fill="#0" id="circle73"/>
	<circle cx="484.456" cy="996" r="4" fill="#0" id="circle74"/>
	<circle cx="487.282" cy="591.852" r="4" fill="#0" id="circle75"/>
	<circle cx="487.282" cy="676.638" r="4" fill="#0" id="circle76"/>
	<circle cx="490.108" cy="334.667" r="4" fill="#0" id="circle77"/>
	<circle cx="492.934" cy="280.969" r="4" fill="#0" id="circle78"/>
	<circle cx="492.934" cy="620.114" r="4" fill="#0" id="circle79"/>
	<circle cx="492.934" cy="648.376" r="4" fill="#0" id="circle80"/>
	<circle cx="504.239" cy="230.097" r="4" fill="#0" id="circle81"/>
	<circle cx="509.892" cy="258.359" r="4" fill="#0" id="circle82"/>
	<circle cx="509.892" cy="727.51" r="4" fill="#0" id="circle83"/>
	<circle cx="512.718" cy="996" r="4" fill="#0" id="circle84"/>
	<circle cx="538.154" cy="733.162" r="4" fill="#0" id="circle85"/>
	<circle cx="538.154" cy="981.869" r="4" fill="#0" id="circle86"/>
	<circle cx="549.459" cy="942.302" r="4" fill="#0" id="circle87"/>
	<circle cx="555.111" cy="897.083" r="4" fill="#0" id="circle88"/>
	<circle cx="557.937" cy="755.772" r="4" fill="#0" id="circle89"/>
	<circle cx="560.764" cy="784.034" r="4" fill="#0" id="circle90"/>
	<circle cx="560.764" cy="812.296" r="4" fill="#0" id="circle91"/>
	<circle cx="560.764" cy="840.558" r="4" fill="#0" id="circle92"/>
	<circle cx="560.764" cy="868.821" r="4" fill="#0" id="circle93"/>
	</g>
</svg>