<?xml version="1.0" encoding="UTF-8" standalone="no"?>
<!-- Created with CurveBenchmark -->
<svg
	xmlns:dc="http://purl.org/dc/elements/1.1/"
	xmlns:cc="http://creativecommons.org/ns#"
	xmlns:rdf="http://www.w3.org/1999/02/22-rdf-syntax-ns#"
	xmlns:svg="http://www.w3.org/2000/svg"
	xmlns="http://www.w3.org/2000/svg"
	xmlns:sodipodi="http://sodipodi.sourceforge.net/DTD/sodipodi-0.dtd"
	xmlns:inkscape="http://www.inkscape.org/namespaces/inkscape"
	width="1000"
	height="1000"
	id="svg2"
	version="1.1"
	sodipodi:docname="manifold/crust-elephant27.png.txt">
<defs
	id="defs4" />
<metadata
	id="metadata7">
	<rdf:RDF>
		<cc:Work
			rdf:about="">
			<dc:format>image/svg+xml</dc:format>
			<dc:type
				rdf:resource="http://purl.org/dc/dcmitype/StillImage" />
			<dc:title></dc:title>
		</cc:Work>
	</rdf:RDF>
</metadata>
<g
	inkscape:label="Layer 1"
	inkscape:groupmode="layer"
	id="layer1">
	<path style="fill:none;stroke:red;stroke-width:1px;stroke-linecap:butt;stroke-linejoin:miter;stroke-opacity:1" d="M 110.626,360.054 91.5854,365.766 z" id="boundary" inkscape:connector-curvature="0" />
	<path style="fill:none;stroke:red;stroke-width:1px;stroke-linecap:butt;stroke-linejoin:miter;stroke-opacity:1" d="M 72.5451,369.574 57.3129,384.806 z" id="boundary" inkscape:connector-curvature="0" />
	<path style="fill:none;stroke:red;stroke-width:1px;stroke-linecap:butt;stroke-linejoin:miter;stroke-opacity:1" d="M 57.3129,384.806 47.7927,403.846 z" id="boundary" inkscape:connector-curvature="0" />
	<path style="fill:none;stroke:red;stroke-width:1px;stroke-linecap:butt;stroke-linejoin:miter;stroke-opacity:1" d="M 120.146,377.19 106.818,392.422 z" id="boundary" inkscape:connector-curvature="0" />
	<path style="fill:none;stroke:red;stroke-width:1px;stroke-linecap:butt;stroke-linejoin:miter;stroke-opacity:1" d="M 72.5451,369.574 91.5854,365.766 z" id="boundary" inkscape:connector-curvature="0" />
	<path style="fill:none;stroke:red;stroke-width:1px;stroke-linecap:butt;stroke-linejoin:miter;stroke-opacity:1" d="M 106.818,392.422 87.7774,401.942 z" id="boundary" inkscape:connector-curvature="0" />
	<path style="fill:none;stroke:red;stroke-width:1px;stroke-linecap:butt;stroke-linejoin:miter;stroke-opacity:1" d="M 129.666,356.246 110.626,360.054 z" id="boundary" inkscape:connector-curvature="0" />
	<path style="fill:none;stroke:red;stroke-width:1px;stroke-linecap:butt;stroke-linejoin:miter;stroke-opacity:1" d="M 222.964,276.276 213.443,304.837 z" id="boundary" inkscape:connector-curvature="0" />
	<path style="fill:none;stroke:red;stroke-width:1px;stroke-linecap:butt;stroke-linejoin:miter;stroke-opacity:1" d="M 203.923,323.877 190.595,346.726 z" id="boundary" inkscape:connector-curvature="0" />
	<path style="fill:none;stroke:red;stroke-width:1px;stroke-linecap:butt;stroke-linejoin:miter;stroke-opacity:1" d="M 213.443,304.837 203.923,323.877 z" id="boundary" inkscape:connector-curvature="0" />
	<path style="fill:none;stroke:red;stroke-width:1px;stroke-linecap:butt;stroke-linejoin:miter;stroke-opacity:1" d="M 190.595,346.726 175.363,361.958 z" id="boundary" inkscape:connector-curvature="0" />
	<path style="fill:none;stroke:red;stroke-width:1px;stroke-linecap:butt;stroke-linejoin:miter;stroke-opacity:1" d="M 175.363,361.958 165.843,390.518 z" id="boundary" inkscape:connector-curvature="0" />
	<path style="fill:none;stroke:red;stroke-width:1px;stroke-linecap:butt;stroke-linejoin:miter;stroke-opacity:1" d="M 165.843,390.518 156.322,409.559 z" id="boundary" inkscape:connector-curvature="0" />
	<path style="fill:none;stroke:red;stroke-width:1px;stroke-linecap:butt;stroke-linejoin:miter;stroke-opacity:1" d="M 23.0403,438.119 38.2726,422.887 z" id="boundary" inkscape:connector-curvature="0" />
	<path style="fill:none;stroke:red;stroke-width:1px;stroke-linecap:butt;stroke-linejoin:miter;stroke-opacity:1" d="M 13.5202,466.679 23.0403,438.119 z" id="boundary" inkscape:connector-curvature="0" />
	<path style="fill:none;stroke:red;stroke-width:1px;stroke-linecap:butt;stroke-linejoin:miter;stroke-opacity:1" d="M 87.7774,401.942 72.5451,415.271 z" id="boundary" inkscape:connector-curvature="0" />
	<path style="fill:none;stroke:red;stroke-width:1px;stroke-linecap:butt;stroke-linejoin:miter;stroke-opacity:1" d="M 72.5451,415.271 63.025,434.311 z" id="boundary" inkscape:connector-curvature="0" />
	<path style="fill:none;stroke:red;stroke-width:1px;stroke-linecap:butt;stroke-linejoin:miter;stroke-opacity:1" d="M 38.2726,422.887 47.7927,403.846 z" id="boundary" inkscape:connector-curvature="0" />
	<path style="fill:none;stroke:red;stroke-width:1px;stroke-linecap:butt;stroke-linejoin:miter;stroke-opacity:1" d="M 63.025,434.311 53.5048,462.871 z" id="boundary" inkscape:connector-curvature="0" />
	<path style="fill:none;stroke:red;stroke-width:1px;stroke-linecap:butt;stroke-linejoin:miter;stroke-opacity:1" d="M 13.5202,466.679 13.5202,485.72 z" id="boundary" inkscape:connector-curvature="0" />
	<path style="fill:none;stroke:red;stroke-width:1px;stroke-linecap:butt;stroke-linejoin:miter;stroke-opacity:1" d="M 13.5202,485.72 4,504.76 z" id="boundary" inkscape:connector-curvature="0" />
	<path style="fill:none;stroke:red;stroke-width:1px;stroke-linecap:butt;stroke-linejoin:miter;stroke-opacity:1" d="M 43.9846,481.912 53.5048,462.871 z" id="boundary" inkscape:connector-curvature="0" />
	<path style="fill:none;stroke:red;stroke-width:1px;stroke-linecap:butt;stroke-linejoin:miter;stroke-opacity:1" d="M 43.9846,481.912 43.9846,500.952 z" id="boundary" inkscape:connector-curvature="0" />
	<path style="fill:none;stroke:red;stroke-width:1px;stroke-linecap:butt;stroke-linejoin:miter;stroke-opacity:1" d="M 224.868,434.311 211.539,449.543 z" id="boundary" inkscape:connector-curvature="0" />
	<path style="fill:none;stroke:red;stroke-width:1px;stroke-linecap:butt;stroke-linejoin:miter;stroke-opacity:1" d="M 146.802,438.119 156.322,409.559 z" id="boundary" inkscape:connector-curvature="0" />
	<path style="fill:none;stroke:red;stroke-width:1px;stroke-linecap:butt;stroke-linejoin:miter;stroke-opacity:1" d="M 146.802,438.119 146.802,457.159 z" id="boundary" inkscape:connector-curvature="0" />
	<path style="fill:none;stroke:red;stroke-width:1px;stroke-linecap:butt;stroke-linejoin:miter;stroke-opacity:1" d="M 146.802,457.159 137.282,476.2 z" id="boundary" inkscape:connector-curvature="0" />
	<path style="fill:none;stroke:red;stroke-width:1px;stroke-linecap:butt;stroke-linejoin:miter;stroke-opacity:1" d="M 137.282,476.2 133.474,499.048 z" id="boundary" inkscape:connector-curvature="0" />
	<path style="fill:none;stroke:red;stroke-width:1px;stroke-linecap:butt;stroke-linejoin:miter;stroke-opacity:1" d="M 211.539,449.543 202.019,468.583 z" id="boundary" inkscape:connector-curvature="0" />
	<path style="fill:none;stroke:red;stroke-width:1px;stroke-linecap:butt;stroke-linejoin:miter;stroke-opacity:1" d="M 202.019,468.583 192.499,487.624 z" id="boundary" inkscape:connector-curvature="0" />
	<path style="fill:none;stroke:red;stroke-width:1px;stroke-linecap:butt;stroke-linejoin:miter;stroke-opacity:1" d="M 192.499,487.624 177.267,500.952 z" id="boundary" inkscape:connector-curvature="0" />
	<path style="fill:none;stroke:red;stroke-width:1px;stroke-linecap:butt;stroke-linejoin:miter;stroke-opacity:1" d="M 314.357,118.242 304.837,137.282 z" id="boundary" inkscape:connector-curvature="0" />
	<path style="fill:none;stroke:red;stroke-width:1px;stroke-linecap:butt;stroke-linejoin:miter;stroke-opacity:1" d="M 304.837,137.282 289.605,152.514 z" id="boundary" inkscape:connector-curvature="0" />
	<path style="fill:none;stroke:red;stroke-width:1px;stroke-linecap:butt;stroke-linejoin:miter;stroke-opacity:1" d="M 371.478,108.722 352.438,108.722 z" id="boundary" inkscape:connector-curvature="0" />
	<path style="fill:none;stroke:red;stroke-width:1px;stroke-linecap:butt;stroke-linejoin:miter;stroke-opacity:1" d="M 352.438,108.722 333.397,118.242 z" id="boundary" inkscape:connector-curvature="0" />
	<path style="fill:none;stroke:red;stroke-width:1px;stroke-linecap:butt;stroke-linejoin:miter;stroke-opacity:1" d="M 314.357,118.242 333.397,118.242 z" id="boundary" inkscape:connector-curvature="0" />
	<path style="fill:none;stroke:red;stroke-width:1px;stroke-linecap:butt;stroke-linejoin:miter;stroke-opacity:1" d="M 238.196,242.004 242.004,219.155 z" id="boundary" inkscape:connector-curvature="0" />
	<path style="fill:none;stroke:red;stroke-width:1px;stroke-linecap:butt;stroke-linejoin:miter;stroke-opacity:1" d="M 251.524,200.115 242.004,219.155 z" id="boundary" inkscape:connector-curvature="0" />
	<path style="fill:none;stroke:red;stroke-width:1px;stroke-linecap:butt;stroke-linejoin:miter;stroke-opacity:1" d="M 261.044,181.075 251.524,200.115 z" id="boundary" inkscape:connector-curvature="0" />
	<path style="fill:none;stroke:red;stroke-width:1px;stroke-linecap:butt;stroke-linejoin:miter;stroke-opacity:1" d="M 222.964,257.236 238.196,242.004 z" id="boundary" inkscape:connector-curvature="0" />
	<path style="fill:none;stroke:red;stroke-width:1px;stroke-linecap:butt;stroke-linejoin:miter;stroke-opacity:1" d="M 222.964,276.276 222.964,257.236 z" id="boundary" inkscape:connector-curvature="0" />
	<path style="fill:none;stroke:red;stroke-width:1px;stroke-linecap:butt;stroke-linejoin:miter;stroke-opacity:1" d="M 270.564,162.035 289.605,152.514 z" id="boundary" inkscape:connector-curvature="0" />
	<path style="fill:none;stroke:red;stroke-width:1px;stroke-linecap:butt;stroke-linejoin:miter;stroke-opacity:1" d="M 261.044,181.075 270.564,162.035 z" id="boundary" inkscape:connector-curvature="0" />
	<path style="fill:none;stroke:red;stroke-width:1px;stroke-linecap:butt;stroke-linejoin:miter;stroke-opacity:1" d="M 371.478,108.722 390.518,108.722 z" id="boundary" inkscape:connector-curvature="0" />
	<path style="fill:none;stroke:red;stroke-width:1px;stroke-linecap:butt;stroke-linejoin:miter;stroke-opacity:1" d="M 485.72,99.2015 466.679,99.2015 z" id="boundary" inkscape:connector-curvature="0" />
	<path style="fill:none;stroke:red;stroke-width:1px;stroke-linecap:butt;stroke-linejoin:miter;stroke-opacity:1" d="M 504.76,89.6814 485.72,99.2015 z" id="boundary" inkscape:connector-curvature="0" />
	<path style="fill:none;stroke:red;stroke-width:1px;stroke-linecap:butt;stroke-linejoin:miter;stroke-opacity:1" d="M 466.679,99.2015 447.639,108.722 z" id="boundary" inkscape:connector-curvature="0" />
	<path style="fill:none;stroke:red;stroke-width:1px;stroke-linecap:butt;stroke-linejoin:miter;stroke-opacity:1" d="M 390.518,108.722 409.559,108.722 z" id="boundary" inkscape:connector-curvature="0" />
	<path style="fill:none;stroke:red;stroke-width:1px;stroke-linecap:butt;stroke-linejoin:miter;stroke-opacity:1" d="M 409.559,108.722 428.599,108.722 z" id="boundary" inkscape:connector-curvature="0" />
	<path style="fill:none;stroke:red;stroke-width:1px;stroke-linecap:butt;stroke-linejoin:miter;stroke-opacity:1" d="M 447.639,108.722 428.599,108.722 z" id="boundary" inkscape:connector-curvature="0" />
	<path style="fill:none;stroke:red;stroke-width:1px;stroke-linecap:butt;stroke-linejoin:miter;stroke-opacity:1" d="M 242.004,424.791 224.868,434.311 z" id="boundary" inkscape:connector-curvature="0" />
	<path style="fill:none;stroke:red;stroke-width:1px;stroke-linecap:butt;stroke-linejoin:miter;stroke-opacity:1" d="M 247.716,443.831 242.004,424.791 z" id="boundary" inkscape:connector-curvature="0" />
	<path style="fill:none;stroke:red;stroke-width:1px;stroke-linecap:butt;stroke-linejoin:miter;stroke-opacity:1" d="M 291.509,443.831 276.276,460.967 z" id="boundary" inkscape:connector-curvature="0" />
	<path style="fill:none;stroke:red;stroke-width:1px;stroke-linecap:butt;stroke-linejoin:miter;stroke-opacity:1" d="M 247.716,443.831 232.484,457.159 z" id="boundary" inkscape:connector-curvature="0" />
	<path style="fill:none;stroke:red;stroke-width:1px;stroke-linecap:butt;stroke-linejoin:miter;stroke-opacity:1" d="M 232.484,457.159 242.004,474.296 z" id="boundary" inkscape:connector-curvature="0" />
	<path style="fill:none;stroke:red;stroke-width:1px;stroke-linecap:butt;stroke-linejoin:miter;stroke-opacity:1" d="M 261.044,476.2 242.004,474.296 z" id="boundary" inkscape:connector-curvature="0" />
	<path style="fill:none;stroke:red;stroke-width:1px;stroke-linecap:butt;stroke-linejoin:miter;stroke-opacity:1" d="M 276.276,460.967 261.044,476.2 z" id="boundary" inkscape:connector-curvature="0" />
	<path style="fill:none;stroke:red;stroke-width:1px;stroke-linecap:butt;stroke-linejoin:miter;stroke-opacity:1" d="M 346.726,419.079 327.685,424.791 z" id="boundary" inkscape:connector-curvature="0" />
	<path style="fill:none;stroke:red;stroke-width:1px;stroke-linecap:butt;stroke-linejoin:miter;stroke-opacity:1" d="M 327.685,424.791 310.549,434.311 z" id="boundary" inkscape:connector-curvature="0" />
	<path style="fill:none;stroke:red;stroke-width:1px;stroke-linecap:butt;stroke-linejoin:miter;stroke-opacity:1" d="M 365.766,415.271 346.726,419.079 z" id="boundary" inkscape:connector-curvature="0" />
	<path style="fill:none;stroke:red;stroke-width:1px;stroke-linecap:butt;stroke-linejoin:miter;stroke-opacity:1" d="M 375.286,432.407 365.766,415.271 z" id="boundary" inkscape:connector-curvature="0" />
	<path style="fill:none;stroke:red;stroke-width:1px;stroke-linecap:butt;stroke-linejoin:miter;stroke-opacity:1" d="M 291.509,443.831 310.549,434.311 z" id="boundary" inkscape:connector-curvature="0" />
	<path style="fill:none;stroke:red;stroke-width:1px;stroke-linecap:butt;stroke-linejoin:miter;stroke-opacity:1" d="M 375.286,432.407 375.286,451.447 z" id="boundary" inkscape:connector-curvature="0" />
	<path style="fill:none;stroke:red;stroke-width:1px;stroke-linecap:butt;stroke-linejoin:miter;stroke-opacity:1" d="M 375.286,451.447 365.766,485.72 z" id="boundary" inkscape:connector-curvature="0" />
	<path style="fill:none;stroke:red;stroke-width:1px;stroke-linecap:butt;stroke-linejoin:miter;stroke-opacity:1" d="M 365.766,485.72 356.246,514.28 z" id="boundary" inkscape:connector-curvature="0" />
	<path style="fill:none;stroke:red;stroke-width:1px;stroke-linecap:butt;stroke-linejoin:miter;stroke-opacity:1" d="M 4,523.8 4,504.76 z" id="boundary" inkscape:connector-curvature="0" />
	<path style="fill:none;stroke:red;stroke-width:1px;stroke-linecap:butt;stroke-linejoin:miter;stroke-opacity:1" d="M 4,523.8 4,542.841 z" id="boundary" inkscape:connector-curvature="0" />
	<path style="fill:none;stroke:red;stroke-width:1px;stroke-linecap:butt;stroke-linejoin:miter;stroke-opacity:1" d="M 53.5048,518.088 53.5048,537.129 z" id="boundary" inkscape:connector-curvature="0" />
	<path style="fill:none;stroke:red;stroke-width:1px;stroke-linecap:butt;stroke-linejoin:miter;stroke-opacity:1" d="M 53.5048,518.088 43.9846,500.952 z" id="boundary" inkscape:connector-curvature="0" />
	<path style="fill:none;stroke:red;stroke-width:1px;stroke-linecap:butt;stroke-linejoin:miter;stroke-opacity:1" d="M 13.5202,559.977 4,542.841 z" id="boundary" inkscape:connector-curvature="0" />
	<path style="fill:none;stroke:red;stroke-width:1px;stroke-linecap:butt;stroke-linejoin:miter;stroke-opacity:1" d="M 23.0403,577.113 13.5202,559.977 z" id="boundary" inkscape:connector-curvature="0" />
	<path style="fill:none;stroke:red;stroke-width:1px;stroke-linecap:butt;stroke-linejoin:miter;stroke-opacity:1" d="M 72.5451,537.129 53.5048,537.129 z" id="boundary" inkscape:connector-curvature="0" />
	<path style="fill:none;stroke:red;stroke-width:1px;stroke-linecap:butt;stroke-linejoin:miter;stroke-opacity:1" d="M 89.6814,527.608 72.5451,537.129 z" id="boundary" inkscape:connector-curvature="0" />
	<path style="fill:none;stroke:red;stroke-width:1px;stroke-linecap:butt;stroke-linejoin:miter;stroke-opacity:1" d="M 89.6814,527.608 106.818,537.129 z" id="boundary" inkscape:connector-curvature="0" />
	<path style="fill:none;stroke:red;stroke-width:1px;stroke-linecap:butt;stroke-linejoin:miter;stroke-opacity:1" d="M 118.242,514.28 106.818,537.129 z" id="boundary" inkscape:connector-curvature="0" />
	<path style="fill:none;stroke:red;stroke-width:1px;stroke-linecap:butt;stroke-linejoin:miter;stroke-opacity:1" d="M 118.242,514.28 133.474,499.048 z" id="boundary" inkscape:connector-curvature="0" />
	<path style="fill:none;stroke:red;stroke-width:1px;stroke-linecap:butt;stroke-linejoin:miter;stroke-opacity:1" d="M 177.267,500.952 177.267,519.992 z" id="boundary" inkscape:connector-curvature="0" />
	<path style="fill:none;stroke:red;stroke-width:1px;stroke-linecap:butt;stroke-linejoin:miter;stroke-opacity:1" d="M 177.267,519.992 163.939,535.225 z" id="boundary" inkscape:connector-curvature="0" />
	<path style="fill:none;stroke:red;stroke-width:1px;stroke-linecap:butt;stroke-linejoin:miter;stroke-opacity:1" d="M 148.706,548.553 129.666,558.073 z" id="boundary" inkscape:connector-curvature="0" />
	<path style="fill:none;stroke:red;stroke-width:1px;stroke-linecap:butt;stroke-linejoin:miter;stroke-opacity:1" d="M 163.939,535.225 148.706,548.553 z" id="boundary" inkscape:connector-curvature="0" />
	<path style="fill:none;stroke:red;stroke-width:1px;stroke-linecap:butt;stroke-linejoin:miter;stroke-opacity:1" d="M 129.666,558.073 112.53,567.593 z" id="boundary" inkscape:connector-curvature="0" />
	<path style="fill:none;stroke:red;stroke-width:1px;stroke-linecap:butt;stroke-linejoin:miter;stroke-opacity:1" d="M 40.1766,586.633 23.0403,577.113 z" id="boundary" inkscape:connector-curvature="0" />
	<path style="fill:none;stroke:red;stroke-width:1px;stroke-linecap:butt;stroke-linejoin:miter;stroke-opacity:1" d="M 59.2169,586.633 40.1766,586.633 z" id="boundary" inkscape:connector-curvature="0" />
	<path style="fill:none;stroke:red;stroke-width:1px;stroke-linecap:butt;stroke-linejoin:miter;stroke-opacity:1" d="M 78.2572,586.633 59.2169,586.633 z" id="boundary" inkscape:connector-curvature="0" />
	<path style="fill:none;stroke:red;stroke-width:1px;stroke-linecap:butt;stroke-linejoin:miter;stroke-opacity:1" d="M 112.53,567.593 95.3935,577.113 z" id="boundary" inkscape:connector-curvature="0" />
	<path style="fill:none;stroke:red;stroke-width:1px;stroke-linecap:butt;stroke-linejoin:miter;stroke-opacity:1" d="M 95.3935,577.113 78.2572,586.633 z" id="boundary" inkscape:connector-curvature="0" />
	<path style="fill:none;stroke:red;stroke-width:1px;stroke-linecap:butt;stroke-linejoin:miter;stroke-opacity:1" d="M 306.741,727.532 291.509,740.86 z" id="boundary" inkscape:connector-curvature="0" />
	<path style="fill:none;stroke:red;stroke-width:1px;stroke-linecap:butt;stroke-linejoin:miter;stroke-opacity:1" d="M 257.236,765.612 272.468,750.38 z" id="boundary" inkscape:connector-curvature="0" />
	<path style="fill:none;stroke:red;stroke-width:1px;stroke-linecap:butt;stroke-linejoin:miter;stroke-opacity:1" d="M 291.509,740.86 272.468,750.38 z" id="boundary" inkscape:connector-curvature="0" />
	<path style="fill:none;stroke:red;stroke-width:1px;stroke-linecap:butt;stroke-linejoin:miter;stroke-opacity:1" d="M 257.236,765.612 242.004,780.845 z" id="boundary" inkscape:connector-curvature="0" />
	<path style="fill:none;stroke:red;stroke-width:1px;stroke-linecap:butt;stroke-linejoin:miter;stroke-opacity:1" d="M 251.524,797.981 242.004,780.845 z" id="boundary" inkscape:connector-curvature="0" />
	<path style="fill:none;stroke:red;stroke-width:1px;stroke-linecap:butt;stroke-linejoin:miter;stroke-opacity:1" d="M 270.564,805.597 251.524,797.981 z" id="boundary" inkscape:connector-curvature="0" />
	<path style="fill:none;stroke:red;stroke-width:1px;stroke-linecap:butt;stroke-linejoin:miter;stroke-opacity:1" d="M 270.564,805.597 287.701,815.117 z" id="boundary" inkscape:connector-curvature="0" />
	<path style="fill:none;stroke:red;stroke-width:1px;stroke-linecap:butt;stroke-linejoin:miter;stroke-opacity:1" d="M 306.741,815.117 287.701,815.117 z" id="boundary" inkscape:connector-curvature="0" />
	<path style="fill:none;stroke:red;stroke-width:1px;stroke-linecap:butt;stroke-linejoin:miter;stroke-opacity:1" d="M 346.726,542.841 346.726,561.881 z" id="boundary" inkscape:connector-curvature="0" />
	<path style="fill:none;stroke:red;stroke-width:1px;stroke-linecap:butt;stroke-linejoin:miter;stroke-opacity:1" d="M 356.246,514.28 346.726,542.841 z" id="boundary" inkscape:connector-curvature="0" />
	<path style="fill:none;stroke:red;stroke-width:1px;stroke-linecap:butt;stroke-linejoin:miter;stroke-opacity:1" d="M 346.726,580.921 337.205,609.482 z" id="boundary" inkscape:connector-curvature="0" />
	<path style="fill:none;stroke:red;stroke-width:1px;stroke-linecap:butt;stroke-linejoin:miter;stroke-opacity:1" d="M 346.726,561.881 346.726,580.921 z" id="boundary" inkscape:connector-curvature="0" />
	<path style="fill:none;stroke:red;stroke-width:1px;stroke-linecap:butt;stroke-linejoin:miter;stroke-opacity:1" d="M 337.205,609.482 327.685,638.042 z" id="boundary" inkscape:connector-curvature="0" />
	<path style="fill:none;stroke:red;stroke-width:1px;stroke-linecap:butt;stroke-linejoin:miter;stroke-opacity:1" d="M 327.685,657.083 327.685,638.042 z" id="boundary" inkscape:connector-curvature="0" />
	<path style="fill:none;stroke:red;stroke-width:1px;stroke-linecap:butt;stroke-linejoin:miter;stroke-opacity:1" d="M 327.685,676.123 327.685,657.083 z" id="boundary" inkscape:connector-curvature="0" />
	<path style="fill:none;stroke:red;stroke-width:1px;stroke-linecap:butt;stroke-linejoin:miter;stroke-opacity:1" d="M 424.791,653.274 415.271,681.835 z" id="boundary" inkscape:connector-curvature="0" />
	<path style="fill:none;stroke:red;stroke-width:1px;stroke-linecap:butt;stroke-linejoin:miter;stroke-opacity:1" d="M 440.023,639.946 424.791,653.274 z" id="boundary" inkscape:connector-curvature="0" />
	<path style="fill:none;stroke:red;stroke-width:1px;stroke-linecap:butt;stroke-linejoin:miter;stroke-opacity:1" d="M 327.685,676.123 318.165,695.163 z" id="boundary" inkscape:connector-curvature="0" />
	<path style="fill:none;stroke:red;stroke-width:1px;stroke-linecap:butt;stroke-linejoin:miter;stroke-opacity:1" d="M 487.624,567.593 470.488,577.113 z" id="boundary" inkscape:connector-curvature="0" />
	<path style="fill:none;stroke:red;stroke-width:1px;stroke-linecap:butt;stroke-linejoin:miter;stroke-opacity:1" d="M 470.488,577.113 453.351,586.633 z" id="boundary" inkscape:connector-curvature="0" />
	<path style="fill:none;stroke:red;stroke-width:1px;stroke-linecap:butt;stroke-linejoin:miter;stroke-opacity:1" d="M 443.831,615.194 453.351,586.633 z" id="boundary" inkscape:connector-curvature="0" />
	<path style="fill:none;stroke:red;stroke-width:1px;stroke-linecap:butt;stroke-linejoin:miter;stroke-opacity:1" d="M 487.624,567.593 489.528,586.633 z" id="boundary" inkscape:connector-curvature="0" />
	<path style="fill:none;stroke:red;stroke-width:1px;stroke-linecap:butt;stroke-linejoin:miter;stroke-opacity:1" d="M 495.24,605.674 489.528,586.633 z" id="boundary" inkscape:connector-curvature="0" />
	<path style="fill:none;stroke:red;stroke-width:1px;stroke-linecap:butt;stroke-linejoin:miter;stroke-opacity:1" d="M 443.831,615.194 440.023,639.946 z" id="boundary" inkscape:connector-curvature="0" />
	<path style="fill:none;stroke:red;stroke-width:1px;stroke-linecap:butt;stroke-linejoin:miter;stroke-opacity:1" d="M 499.048,643.754 499.048,662.795 z" id="boundary" inkscape:connector-curvature="0" />
	<path style="fill:none;stroke:red;stroke-width:1px;stroke-linecap:butt;stroke-linejoin:miter;stroke-opacity:1" d="M 499.048,624.714 499.048,643.754 z" id="boundary" inkscape:connector-curvature="0" />
	<path style="fill:none;stroke:red;stroke-width:1px;stroke-linecap:butt;stroke-linejoin:miter;stroke-opacity:1" d="M 495.24,605.674 499.048,624.714 z" id="boundary" inkscape:connector-curvature="0" />
	<path style="fill:none;stroke:red;stroke-width:1px;stroke-linecap:butt;stroke-linejoin:miter;stroke-opacity:1" d="M 499.048,662.795 499.048,681.835 z" id="boundary" inkscape:connector-curvature="0" />
	<path style="fill:none;stroke:red;stroke-width:1px;stroke-linecap:butt;stroke-linejoin:miter;stroke-opacity:1" d="M 318.165,695.163 306.741,727.532 z" id="boundary" inkscape:connector-curvature="0" />
	<path style="fill:none;stroke:red;stroke-width:1px;stroke-linecap:butt;stroke-linejoin:miter;stroke-opacity:1" d="M 405.75,710.395 396.23,729.436 z" id="boundary" inkscape:connector-curvature="0" />
	<path style="fill:none;stroke:red;stroke-width:1px;stroke-linecap:butt;stroke-linejoin:miter;stroke-opacity:1" d="M 396.23,729.436 384.806,761.804 z" id="boundary" inkscape:connector-curvature="0" />
	<path style="fill:none;stroke:red;stroke-width:1px;stroke-linecap:butt;stroke-linejoin:miter;stroke-opacity:1" d="M 375.286,780.845 384.806,761.804 z" id="boundary" inkscape:connector-curvature="0" />
	<path style="fill:none;stroke:red;stroke-width:1px;stroke-linecap:butt;stroke-linejoin:miter;stroke-opacity:1" d="M 306.741,815.117 323.877,805.597 z" id="boundary" inkscape:connector-curvature="0" />
	<path style="fill:none;stroke:red;stroke-width:1px;stroke-linecap:butt;stroke-linejoin:miter;stroke-opacity:1" d="M 323.877,805.597 342.917,805.597 z" id="boundary" inkscape:connector-curvature="0" />
	<path style="fill:none;stroke:red;stroke-width:1px;stroke-linecap:butt;stroke-linejoin:miter;stroke-opacity:1" d="M 360.054,796.077 342.917,805.597 z" id="boundary" inkscape:connector-curvature="0" />
	<path style="fill:none;stroke:red;stroke-width:1px;stroke-linecap:butt;stroke-linejoin:miter;stroke-opacity:1" d="M 375.286,780.845 360.054,796.077 z" id="boundary" inkscape:connector-curvature="0" />
	<path style="fill:none;stroke:red;stroke-width:1px;stroke-linecap:butt;stroke-linejoin:miter;stroke-opacity:1" d="M 415.271,681.835 405.75,710.395 z" id="boundary" inkscape:connector-curvature="0" />
	<path style="fill:none;stroke:red;stroke-width:1px;stroke-linecap:butt;stroke-linejoin:miter;stroke-opacity:1" d="M 500.952,759.9 485.72,775.132 z" id="boundary" inkscape:connector-curvature="0" />
	<path style="fill:none;stroke:red;stroke-width:1px;stroke-linecap:butt;stroke-linejoin:miter;stroke-opacity:1" d="M 485.72,775.132 470.488,790.365 z" id="boundary" inkscape:connector-curvature="0" />
	<path style="fill:none;stroke:red;stroke-width:1px;stroke-linecap:butt;stroke-linejoin:miter;stroke-opacity:1" d="M 470.488,790.365 470.488,809.405 z" id="boundary" inkscape:connector-curvature="0" />
	<path style="fill:none;stroke:red;stroke-width:1px;stroke-linecap:butt;stroke-linejoin:miter;stroke-opacity:1" d="M 470.488,809.405 480.008,826.541 z" id="boundary" inkscape:connector-curvature="0" />
	<path style="fill:none;stroke:red;stroke-width:1px;stroke-linecap:butt;stroke-linejoin:miter;stroke-opacity:1" d="M 480.008,826.541 499.048,824.637 z" id="boundary" inkscape:connector-curvature="0" />
	<path style="fill:none;stroke:red;stroke-width:1px;stroke-linecap:butt;stroke-linejoin:miter;stroke-opacity:1" d="M 499.048,681.835 508.568,698.971 z" id="boundary" inkscape:connector-curvature="0" />
	<path style="fill:none;stroke:red;stroke-width:1px;stroke-linecap:butt;stroke-linejoin:miter;stroke-opacity:1" d="M 499.048,824.637 516.184,834.157 z" id="boundary" inkscape:connector-curvature="0" />
	<path style="fill:none;stroke:red;stroke-width:1px;stroke-linecap:butt;stroke-linejoin:miter;stroke-opacity:1" d="M 647.562,13.5202 628.522,13.5202 z" id="boundary" inkscape:connector-curvature="0" />
	<path style="fill:none;stroke:red;stroke-width:1px;stroke-linecap:butt;stroke-linejoin:miter;stroke-opacity:1" d="M 628.522,13.5202 609.482,23.0403 z" id="boundary" inkscape:connector-curvature="0" />
	<path style="fill:none;stroke:red;stroke-width:1px;stroke-linecap:butt;stroke-linejoin:miter;stroke-opacity:1" d="M 590.441,32.5605 609.482,23.0403 z" id="boundary" inkscape:connector-curvature="0" />
	<path style="fill:none;stroke:red;stroke-width:1px;stroke-linecap:butt;stroke-linejoin:miter;stroke-opacity:1" d="M 590.441,32.5605 571.401,42.0806 z" id="boundary" inkscape:connector-curvature="0" />
	<path style="fill:none;stroke:red;stroke-width:1px;stroke-linecap:butt;stroke-linejoin:miter;stroke-opacity:1" d="M 702.779,4 683.739,4 z" id="boundary" inkscape:connector-curvature="0" />
	<path style="fill:none;stroke:red;stroke-width:1px;stroke-linecap:butt;stroke-linejoin:miter;stroke-opacity:1" d="M 721.82,4 702.779,4 z" id="boundary" inkscape:connector-curvature="0" />
	<path style="fill:none;stroke:red;stroke-width:1px;stroke-linecap:butt;stroke-linejoin:miter;stroke-opacity:1" d="M 666.603,13.5202 683.739,4 z" id="boundary" inkscape:connector-curvature="0" />
	<path style="fill:none;stroke:red;stroke-width:1px;stroke-linecap:butt;stroke-linejoin:miter;stroke-opacity:1" d="M 738.956,13.5202 721.82,4 z" id="boundary" inkscape:connector-curvature="0" />
	<path style="fill:none;stroke:red;stroke-width:1px;stroke-linecap:butt;stroke-linejoin:miter;stroke-opacity:1" d="M 647.562,13.5202 666.603,13.5202 z" id="boundary" inkscape:connector-curvature="0" />
	<path style="fill:none;stroke:red;stroke-width:1px;stroke-linecap:butt;stroke-linejoin:miter;stroke-opacity:1" d="M 537.129,66.833 552.361,51.6008 z" id="boundary" inkscape:connector-curvature="0" />
	<path style="fill:none;stroke:red;stroke-width:1px;stroke-linecap:butt;stroke-linejoin:miter;stroke-opacity:1" d="M 537.129,66.833 521.896,80.1612 z" id="boundary" inkscape:connector-curvature="0" />
	<path style="fill:none;stroke:red;stroke-width:1px;stroke-linecap:butt;stroke-linejoin:miter;stroke-opacity:1" d="M 571.401,42.0806 552.361,51.6008 z" id="boundary" inkscape:connector-curvature="0" />
	<path style="fill:none;stroke:red;stroke-width:1px;stroke-linecap:butt;stroke-linejoin:miter;stroke-opacity:1" d="M 504.76,89.6814 521.896,80.1612 z" id="boundary" inkscape:connector-curvature="0" />
	<path style="fill:none;stroke:red;stroke-width:1px;stroke-linecap:butt;stroke-linejoin:miter;stroke-opacity:1" d="M 757.996,13.5202 777.036,13.5202 z" id="boundary" inkscape:connector-curvature="0" />
	<path style="fill:none;stroke:red;stroke-width:1px;stroke-linecap:butt;stroke-linejoin:miter;stroke-opacity:1" d="M 796.077,19.2322 777.036,13.5202 z" id="boundary" inkscape:connector-curvature="0" />
	<path style="fill:none;stroke:red;stroke-width:1px;stroke-linecap:butt;stroke-linejoin:miter;stroke-opacity:1" d="M 738.956,13.5202 757.996,13.5202 z" id="boundary" inkscape:connector-curvature="0" />
	<path style="fill:none;stroke:red;stroke-width:1px;stroke-linecap:butt;stroke-linejoin:miter;stroke-opacity:1" d="M 830.349,34.4645 811.309,32.5605 z" id="boundary" inkscape:connector-curvature="0" />
	<path style="fill:none;stroke:red;stroke-width:1px;stroke-linecap:butt;stroke-linejoin:miter;stroke-opacity:1" d="M 811.309,32.5605 796.077,19.2322 z" id="boundary" inkscape:connector-curvature="0" />
	<path style="fill:none;stroke:red;stroke-width:1px;stroke-linecap:butt;stroke-linejoin:miter;stroke-opacity:1" d="M 843.678,49.6967 858.91,63.025 z" id="boundary" inkscape:connector-curvature="0" />
	<path style="fill:none;stroke:red;stroke-width:1px;stroke-linecap:butt;stroke-linejoin:miter;stroke-opacity:1" d="M 830.349,34.4645 843.678,49.6967 z" id="boundary" inkscape:connector-curvature="0" />
	<path style="fill:none;stroke:red;stroke-width:1px;stroke-linecap:butt;stroke-linejoin:miter;stroke-opacity:1" d="M 872.238,78.2572 858.91,63.025 z" id="boundary" inkscape:connector-curvature="0" />
	<path style="fill:none;stroke:red;stroke-width:1px;stroke-linecap:butt;stroke-linejoin:miter;stroke-opacity:1" d="M 891.278,80.1612 872.238,78.2572 z" id="boundary" inkscape:connector-curvature="0" />
	<path style="fill:none;stroke:red;stroke-width:1px;stroke-linecap:butt;stroke-linejoin:miter;stroke-opacity:1" d="M 891.278,80.1612 900.798,97.2975 z" id="boundary" inkscape:connector-curvature="0" />
	<path style="fill:none;stroke:red;stroke-width:1px;stroke-linecap:butt;stroke-linejoin:miter;stroke-opacity:1" d="M 653.274,539.033 634.234,539.033 z" id="boundary" inkscape:connector-curvature="0" />
	<path style="fill:none;stroke:red;stroke-width:1px;stroke-linecap:butt;stroke-linejoin:miter;stroke-opacity:1" d="M 653.274,539.033 660.891,558.073 z" id="boundary" inkscape:connector-curvature="0" />
	<path style="fill:none;stroke:red;stroke-width:1px;stroke-linecap:butt;stroke-linejoin:miter;stroke-opacity:1" d="M 624.714,567.593 634.234,539.033 z" id="boundary" inkscape:connector-curvature="0" />
	<path style="fill:none;stroke:red;stroke-width:1px;stroke-linecap:butt;stroke-linejoin:miter;stroke-opacity:1" d="M 784.653,567.593 767.516,558.073 z" id="boundary" inkscape:connector-curvature="0" />
	<path style="fill:none;stroke:red;stroke-width:1px;stroke-linecap:butt;stroke-linejoin:miter;stroke-opacity:1" d="M 910.319,500.952 900.798,519.992 z" id="boundary" inkscape:connector-curvature="0" />
	<path style="fill:none;stroke:red;stroke-width:1px;stroke-linecap:butt;stroke-linejoin:miter;stroke-opacity:1" d="M 904.607,539.033 900.798,519.992 z" id="boundary" inkscape:connector-curvature="0" />
	<path style="fill:none;stroke:red;stroke-width:1px;stroke-linecap:butt;stroke-linejoin:miter;stroke-opacity:1" d="M 767.516,558.073 757.996,586.633 z" id="boundary" inkscape:connector-curvature="0" />
	<path style="fill:none;stroke:red;stroke-width:1px;stroke-linecap:butt;stroke-linejoin:miter;stroke-opacity:1" d="M 900.798,97.2975 916.031,110.626 z" id="boundary" inkscape:connector-curvature="0" />
	<path style="fill:none;stroke:red;stroke-width:1px;stroke-linecap:butt;stroke-linejoin:miter;stroke-opacity:1" d="M 929.359,125.858 916.031,110.626 z" id="boundary" inkscape:connector-curvature="0" />
	<path style="fill:none;stroke:red;stroke-width:1px;stroke-linecap:butt;stroke-linejoin:miter;stroke-opacity:1" d="M 938.879,142.994 946.495,162.035 z" id="boundary" inkscape:connector-curvature="0" />
	<path style="fill:none;stroke:red;stroke-width:1px;stroke-linecap:butt;stroke-linejoin:miter;stroke-opacity:1" d="M 929.359,125.858 938.879,142.994 z" id="boundary" inkscape:connector-curvature="0" />
	<path style="fill:none;stroke:red;stroke-width:1px;stroke-linecap:butt;stroke-linejoin:miter;stroke-opacity:1" d="M 946.495,162.035 956.015,179.171 z" id="boundary" inkscape:connector-curvature="0" />
	<path style="fill:none;stroke:red;stroke-width:1px;stroke-linecap:butt;stroke-linejoin:miter;stroke-opacity:1" d="M 956.015,179.171 963.631,198.211 z" id="boundary" inkscape:connector-curvature="0" />
	<path style="fill:none;stroke:red;stroke-width:1px;stroke-linecap:butt;stroke-linejoin:miter;stroke-opacity:1" d="M 965.536,348.63 948.399,358.15 z" id="boundary" inkscape:connector-curvature="0" />
	<path style="fill:none;stroke:red;stroke-width:1px;stroke-linecap:butt;stroke-linejoin:miter;stroke-opacity:1" d="M 948.399,377.19 948.399,358.15 z" id="boundary" inkscape:connector-curvature="0" />
	<path style="fill:none;stroke:red;stroke-width:1px;stroke-linecap:butt;stroke-linejoin:miter;stroke-opacity:1" d="M 948.399,377.19 948.399,396.23 z" id="boundary" inkscape:connector-curvature="0" />
	<path style="fill:none;stroke:red;stroke-width:1px;stroke-linecap:butt;stroke-linejoin:miter;stroke-opacity:1" d="M 965.536,348.63 957.919,329.589 z" id="boundary" inkscape:connector-curvature="0" />
	<path style="fill:none;stroke:red;stroke-width:1px;stroke-linecap:butt;stroke-linejoin:miter;stroke-opacity:1" d="M 965.536,348.63 975.056,365.766 z" id="boundary" inkscape:connector-curvature="0" />
	<path style="fill:none;stroke:red;stroke-width:1px;stroke-linecap:butt;stroke-linejoin:miter;stroke-opacity:1" d="M 963.631,198.211 967.44,217.251 z" id="boundary" inkscape:connector-curvature="0" />
	<path style="fill:none;stroke:red;stroke-width:1px;stroke-linecap:butt;stroke-linejoin:miter;stroke-opacity:1" d="M 976.96,234.388 980.768,253.428 z" id="boundary" inkscape:connector-curvature="0" />
	<path style="fill:none;stroke:red;stroke-width:1px;stroke-linecap:butt;stroke-linejoin:miter;stroke-opacity:1" d="M 976.96,234.388 967.44,217.251 z" id="boundary" inkscape:connector-curvature="0" />
	<path style="fill:none;stroke:red;stroke-width:1px;stroke-linecap:butt;stroke-linejoin:miter;stroke-opacity:1" d="M 980.768,253.428 990.288,270.564 z" id="boundary" inkscape:connector-curvature="0" />
	<path style="fill:none;stroke:red;stroke-width:1px;stroke-linecap:butt;stroke-linejoin:miter;stroke-opacity:1" d="M 990.288,270.564 996,289.605 z" id="boundary" inkscape:connector-curvature="0" />
	<path style="fill:none;stroke:red;stroke-width:1px;stroke-linecap:butt;stroke-linejoin:miter;stroke-opacity:1" d="M 996,308.645 996,289.605 z" id="boundary" inkscape:connector-curvature="0" />
	<path style="fill:none;stroke:red;stroke-width:1px;stroke-linecap:butt;stroke-linejoin:miter;stroke-opacity:1" d="M 996,327.685 996,308.645 z" id="boundary" inkscape:connector-curvature="0" />
	<path style="fill:none;stroke:red;stroke-width:1px;stroke-linecap:butt;stroke-linejoin:miter;stroke-opacity:1" d="M 996,327.685 996,346.726 z" id="boundary" inkscape:connector-curvature="0" />
	<path style="fill:none;stroke:red;stroke-width:1px;stroke-linecap:butt;stroke-linejoin:miter;stroke-opacity:1" d="M 996,346.726 996,365.766 z" id="boundary" inkscape:connector-curvature="0" />
	<path style="fill:none;stroke:red;stroke-width:1px;stroke-linecap:butt;stroke-linejoin:miter;stroke-opacity:1" d="M 996,365.766 996,384.806 z" id="boundary" inkscape:connector-curvature="0" />
	<path style="fill:none;stroke:red;stroke-width:1px;stroke-linecap:butt;stroke-linejoin:miter;stroke-opacity:1" d="M 938.879,434.311 929.359,453.351 z" id="boundary" inkscape:connector-curvature="0" />
	<path style="fill:none;stroke:red;stroke-width:1px;stroke-linecap:butt;stroke-linejoin:miter;stroke-opacity:1" d="M 938.879,434.311 956.015,443.831 z" id="boundary" inkscape:connector-curvature="0" />
	<path style="fill:none;stroke:red;stroke-width:1px;stroke-linecap:butt;stroke-linejoin:miter;stroke-opacity:1" d="M 919.839,481.912 929.359,453.351 z" id="boundary" inkscape:connector-curvature="0" />
	<path style="fill:none;stroke:red;stroke-width:1px;stroke-linecap:butt;stroke-linejoin:miter;stroke-opacity:1" d="M 938.879,434.311 938.879,415.271 z" id="boundary" inkscape:connector-curvature="0" />
	<path style="fill:none;stroke:red;stroke-width:1px;stroke-linecap:butt;stroke-linejoin:miter;stroke-opacity:1" d="M 938.879,415.271 948.399,396.23 z" id="boundary" inkscape:connector-curvature="0" />
	<path style="fill:none;stroke:red;stroke-width:1px;stroke-linecap:butt;stroke-linejoin:miter;stroke-opacity:1" d="M 910.319,500.952 919.839,481.912 z" id="boundary" inkscape:connector-curvature="0" />
	<path style="fill:none;stroke:red;stroke-width:1px;stroke-linecap:butt;stroke-linejoin:miter;stroke-opacity:1" d="M 936.975,504.76 936.975,523.8 z" id="boundary" inkscape:connector-curvature="0" />
	<path style="fill:none;stroke:red;stroke-width:1px;stroke-linecap:butt;stroke-linejoin:miter;stroke-opacity:1" d="M 956.015,523.8 936.975,523.8 z" id="boundary" inkscape:connector-curvature="0" />
	<path style="fill:none;stroke:red;stroke-width:1px;stroke-linecap:butt;stroke-linejoin:miter;stroke-opacity:1" d="M 965.536,424.791 965.536,405.75 z" id="boundary" inkscape:connector-curvature="0" />
	<path style="fill:none;stroke:red;stroke-width:1px;stroke-linecap:butt;stroke-linejoin:miter;stroke-opacity:1" d="M 996,384.806 986.48,405.75 z" id="boundary" inkscape:connector-curvature="0" />
	<path style="fill:none;stroke:red;stroke-width:1px;stroke-linecap:butt;stroke-linejoin:miter;stroke-opacity:1" d="M 986.48,405.75 986.48,434.311 z" id="boundary" inkscape:connector-curvature="0" />
	<path style="fill:none;stroke:red;stroke-width:1px;stroke-linecap:butt;stroke-linejoin:miter;stroke-opacity:1" d="M 986.48,453.351 986.48,434.311 z" id="boundary" inkscape:connector-curvature="0" />
	<path style="fill:none;stroke:red;stroke-width:1px;stroke-linecap:butt;stroke-linejoin:miter;stroke-opacity:1" d="M 976.96,472.392 967.44,500.952 z" id="boundary" inkscape:connector-curvature="0" />
	<path style="fill:none;stroke:red;stroke-width:1px;stroke-linecap:butt;stroke-linejoin:miter;stroke-opacity:1" d="M 967.44,500.952 956.015,523.8 z" id="boundary" inkscape:connector-curvature="0" />
	<path style="fill:none;stroke:red;stroke-width:1px;stroke-linecap:butt;stroke-linejoin:miter;stroke-opacity:1" d="M 986.48,453.351 976.96,472.392 z" id="boundary" inkscape:connector-curvature="0" />
	<path style="fill:none;stroke:red;stroke-width:1px;stroke-linecap:butt;stroke-linejoin:miter;stroke-opacity:1" d="M 910.319,558.073 904.607,539.033 z" id="boundary" inkscape:connector-curvature="0" />
	<path style="fill:none;stroke:red;stroke-width:1px;stroke-linecap:butt;stroke-linejoin:miter;stroke-opacity:1" d="M 624.714,567.593 624.714,586.633 z" id="boundary" inkscape:connector-curvature="0" />
	<path style="fill:none;stroke:red;stroke-width:1px;stroke-linecap:butt;stroke-linejoin:miter;stroke-opacity:1" d="M 624.714,586.633 615.194,605.674 z" id="boundary" inkscape:connector-curvature="0" />
	<path style="fill:none;stroke:red;stroke-width:1px;stroke-linecap:butt;stroke-linejoin:miter;stroke-opacity:1" d="M 615.194,624.714 615.194,605.674 z" id="boundary" inkscape:connector-curvature="0" />
	<path style="fill:none;stroke:red;stroke-width:1px;stroke-linecap:butt;stroke-linejoin:miter;stroke-opacity:1" d="M 615.194,643.754 615.194,624.714 z" id="boundary" inkscape:connector-curvature="0" />
	<path style="fill:none;stroke:red;stroke-width:1px;stroke-linecap:butt;stroke-linejoin:miter;stroke-opacity:1" d="M 605.674,672.315 615.194,643.754 z" id="boundary" inkscape:connector-curvature="0" />
	<path style="fill:none;stroke:red;stroke-width:1px;stroke-linecap:butt;stroke-linejoin:miter;stroke-opacity:1" d="M 605.674,672.315 605.674,691.355 z" id="boundary" inkscape:connector-curvature="0" />
	<path style="fill:none;stroke:red;stroke-width:1px;stroke-linecap:butt;stroke-linejoin:miter;stroke-opacity:1" d="M 660.891,577.113 660.891,596.154 z" id="boundary" inkscape:connector-curvature="0" />
	<path style="fill:none;stroke:red;stroke-width:1px;stroke-linecap:butt;stroke-linejoin:miter;stroke-opacity:1" d="M 660.891,558.073 660.891,577.113 z" id="boundary" inkscape:connector-curvature="0" />
	<path style="fill:none;stroke:red;stroke-width:1px;stroke-linecap:butt;stroke-linejoin:miter;stroke-opacity:1" d="M 670.411,613.29 660.891,596.154 z" id="boundary" inkscape:connector-curvature="0" />
	<path style="fill:none;stroke:red;stroke-width:1px;stroke-linecap:butt;stroke-linejoin:miter;stroke-opacity:1" d="M 670.411,613.29 670.411,632.33 z" id="boundary" inkscape:connector-curvature="0" />
	<path style="fill:none;stroke:red;stroke-width:1px;stroke-linecap:butt;stroke-linejoin:miter;stroke-opacity:1" d="M 670.411,632.33 670.411,651.37 z" id="boundary" inkscape:connector-curvature="0" />
	<path style="fill:none;stroke:red;stroke-width:1px;stroke-linecap:butt;stroke-linejoin:miter;stroke-opacity:1" d="M 670.411,651.37 670.411,670.411 z" id="boundary" inkscape:connector-curvature="0" />
	<path style="fill:none;stroke:red;stroke-width:1px;stroke-linecap:butt;stroke-linejoin:miter;stroke-opacity:1" d="M 670.411,670.411 670.411,689.451 z" id="boundary" inkscape:connector-curvature="0" />
	<path style="fill:none;stroke:red;stroke-width:1px;stroke-linecap:butt;stroke-linejoin:miter;stroke-opacity:1" d="M 508.568,718.012 508.568,737.052 z" id="boundary" inkscape:connector-curvature="0" />
	<path style="fill:none;stroke:red;stroke-width:1px;stroke-linecap:butt;stroke-linejoin:miter;stroke-opacity:1" d="M 500.952,759.9 508.568,737.052 z" id="boundary" inkscape:connector-curvature="0" />
	<path style="fill:none;stroke:red;stroke-width:1px;stroke-linecap:butt;stroke-linejoin:miter;stroke-opacity:1" d="M 508.568,718.012 508.568,698.971 z" id="boundary" inkscape:connector-curvature="0" />
	<path style="fill:none;stroke:red;stroke-width:1px;stroke-linecap:butt;stroke-linejoin:miter;stroke-opacity:1" d="M 605.674,729.436 596.154,757.996 z" id="boundary" inkscape:connector-curvature="0" />
	<path style="fill:none;stroke:red;stroke-width:1px;stroke-linecap:butt;stroke-linejoin:miter;stroke-opacity:1" d="M 535.225,834.157 516.184,834.157 z" id="boundary" inkscape:connector-curvature="0" />
	<path style="fill:none;stroke:red;stroke-width:1px;stroke-linecap:butt;stroke-linejoin:miter;stroke-opacity:1" d="M 552.361,824.637 535.225,834.157 z" id="boundary" inkscape:connector-curvature="0" />
	<path style="fill:none;stroke:red;stroke-width:1px;stroke-linecap:butt;stroke-linejoin:miter;stroke-opacity:1" d="M 552.361,824.637 569.497,815.117 z" id="boundary" inkscape:connector-curvature="0" />
	<path style="fill:none;stroke:red;stroke-width:1px;stroke-linecap:butt;stroke-linejoin:miter;stroke-opacity:1" d="M 586.633,805.597 569.497,815.117 z" id="boundary" inkscape:connector-curvature="0" />
	<path style="fill:none;stroke:red;stroke-width:1px;stroke-linecap:butt;stroke-linejoin:miter;stroke-opacity:1" d="M 596.154,777.036 586.633,805.597 z" id="boundary" inkscape:connector-curvature="0" />
	<path style="fill:none;stroke:red;stroke-width:1px;stroke-linecap:butt;stroke-linejoin:miter;stroke-opacity:1" d="M 596.154,757.996 596.154,777.036 z" id="boundary" inkscape:connector-curvature="0" />
	<path style="fill:none;stroke:red;stroke-width:1px;stroke-linecap:butt;stroke-linejoin:miter;stroke-opacity:1" d="M 605.674,710.395 605.674,691.355 z" id="boundary" inkscape:connector-curvature="0" />
	<path style="fill:none;stroke:red;stroke-width:1px;stroke-linecap:butt;stroke-linejoin:miter;stroke-opacity:1" d="M 605.674,729.436 605.674,710.395 z" id="boundary" inkscape:connector-curvature="0" />
	<path style="fill:none;stroke:red;stroke-width:1px;stroke-linecap:butt;stroke-linejoin:miter;stroke-opacity:1" d="M 670.411,689.451 660.891,723.724 z" id="boundary" inkscape:connector-curvature="0" />
	<path style="fill:none;stroke:red;stroke-width:1px;stroke-linecap:butt;stroke-linejoin:miter;stroke-opacity:1" d="M 727.532,742.764 708.491,748.476 z" id="boundary" inkscape:connector-curvature="0" />
	<path style="fill:none;stroke:red;stroke-width:1px;stroke-linecap:butt;stroke-linejoin:miter;stroke-opacity:1" d="M 689.451,748.476 672.315,738.956 z" id="boundary" inkscape:connector-curvature="0" />
	<path style="fill:none;stroke:red;stroke-width:1px;stroke-linecap:butt;stroke-linejoin:miter;stroke-opacity:1" d="M 672.315,738.956 660.891,723.724 z" id="boundary" inkscape:connector-curvature="0" />
	<path style="fill:none;stroke:red;stroke-width:1px;stroke-linecap:butt;stroke-linejoin:miter;stroke-opacity:1" d="M 689.451,748.476 708.491,748.476 z" id="boundary" inkscape:connector-curvature="0" />
	<path style="fill:none;stroke:red;stroke-width:1px;stroke-linecap:butt;stroke-linejoin:miter;stroke-opacity:1" d="M 757.996,586.633 757.996,605.674 z" id="boundary" inkscape:connector-curvature="0" />
	<path style="fill:none;stroke:red;stroke-width:1px;stroke-linecap:butt;stroke-linejoin:miter;stroke-opacity:1" d="M 757.996,605.674 757.996,624.714 z" id="boundary" inkscape:connector-curvature="0" />
	<path style="fill:none;stroke:red;stroke-width:1px;stroke-linecap:butt;stroke-linejoin:miter;stroke-opacity:1" d="M 784.653,567.593 796.077,582.825 z" id="boundary" inkscape:connector-curvature="0" />
	<path style="fill:none;stroke:red;stroke-width:1px;stroke-linecap:butt;stroke-linejoin:miter;stroke-opacity:1" d="M 796.077,582.825 805.597,599.962 z" id="boundary" inkscape:connector-curvature="0" />
	<path style="fill:none;stroke:red;stroke-width:1px;stroke-linecap:butt;stroke-linejoin:miter;stroke-opacity:1" d="M 757.996,624.714 748.476,653.274 z" id="boundary" inkscape:connector-curvature="0" />
	<path style="fill:none;stroke:red;stroke-width:1px;stroke-linecap:butt;stroke-linejoin:miter;stroke-opacity:1" d="M 757.996,670.411 748.476,653.274 z" id="boundary" inkscape:connector-curvature="0" />
	<path style="fill:none;stroke:red;stroke-width:1px;stroke-linecap:butt;stroke-linejoin:miter;stroke-opacity:1" d="M 805.597,599.962 813.213,619.002 z" id="boundary" inkscape:connector-curvature="0" />
	<path style="fill:none;stroke:red;stroke-width:1px;stroke-linecap:butt;stroke-linejoin:miter;stroke-opacity:1" d="M 813.213,619.002 813.213,638.042 z" id="boundary" inkscape:connector-curvature="0" />
	<path style="fill:none;stroke:red;stroke-width:1px;stroke-linecap:butt;stroke-linejoin:miter;stroke-opacity:1" d="M 813.213,638.042 813.213,657.083 z" id="boundary" inkscape:connector-curvature="0" />
	<path style="fill:none;stroke:red;stroke-width:1px;stroke-linecap:butt;stroke-linejoin:miter;stroke-opacity:1" d="M 813.213,657.083 799.885,679.931 z" id="boundary" inkscape:connector-curvature="0" />
	<path style="fill:none;stroke:red;stroke-width:1px;stroke-linecap:butt;stroke-linejoin:miter;stroke-opacity:1" d="M 910.319,577.113 910.319,558.073 z" id="boundary" inkscape:connector-curvature="0" />
	<path style="fill:none;stroke:red;stroke-width:1px;stroke-linecap:butt;stroke-linejoin:miter;stroke-opacity:1" d="M 910.319,577.113 910.319,596.154 z" id="boundary" inkscape:connector-curvature="0" />
	<path style="fill:none;stroke:red;stroke-width:1px;stroke-linecap:butt;stroke-linejoin:miter;stroke-opacity:1" d="M 910.319,615.194 910.319,596.154 z" id="boundary" inkscape:connector-curvature="0" />
	<path style="fill:none;stroke:red;stroke-width:1px;stroke-linecap:butt;stroke-linejoin:miter;stroke-opacity:1" d="M 919.839,632.33 910.319,615.194 z" id="boundary" inkscape:connector-curvature="0" />
	<path style="fill:none;stroke:red;stroke-width:1px;stroke-linecap:butt;stroke-linejoin:miter;stroke-opacity:1" d="M 919.839,651.37 919.839,632.33 z" id="boundary" inkscape:connector-curvature="0" />
	<path style="fill:none;stroke:red;stroke-width:1px;stroke-linecap:butt;stroke-linejoin:miter;stroke-opacity:1" d="M 919.839,651.37 910.319,681.835 z" id="boundary" inkscape:connector-curvature="0" />
	<path style="fill:none;stroke:red;stroke-width:1px;stroke-linecap:butt;stroke-linejoin:miter;stroke-opacity:1" d="M 757.996,670.411 748.476,700.875 z" id="boundary" inkscape:connector-curvature="0" />
	<path style="fill:none;stroke:red;stroke-width:1px;stroke-linecap:butt;stroke-linejoin:miter;stroke-opacity:1" d="M 748.476,700.875 742.764,727.532 z" id="boundary" inkscape:connector-curvature="0" />
	<path style="fill:none;stroke:red;stroke-width:1px;stroke-linecap:butt;stroke-linejoin:miter;stroke-opacity:1" d="M 799.885,679.931 790.365,698.971 z" id="boundary" inkscape:connector-curvature="0" />
	<path style="fill:none;stroke:red;stroke-width:1px;stroke-linecap:butt;stroke-linejoin:miter;stroke-opacity:1" d="M 790.365,698.971 775.132,714.203 z" id="boundary" inkscape:connector-curvature="0" />
	<path style="fill:none;stroke:red;stroke-width:1px;stroke-linecap:butt;stroke-linejoin:miter;stroke-opacity:1" d="M 784.653,731.34 775.132,714.203 z" id="boundary" inkscape:connector-curvature="0" />
	<path style="fill:none;stroke:red;stroke-width:1px;stroke-linecap:butt;stroke-linejoin:miter;stroke-opacity:1" d="M 727.532,742.764 742.764,727.532 z" id="boundary" inkscape:connector-curvature="0" />
	<path style="fill:none;stroke:red;stroke-width:1px;stroke-linecap:butt;stroke-linejoin:miter;stroke-opacity:1" d="M 797.981,746.572 784.653,731.34 z" id="boundary" inkscape:connector-curvature="0" />
	<path style="fill:none;stroke:red;stroke-width:1px;stroke-linecap:butt;stroke-linejoin:miter;stroke-opacity:1" d="M 817.021,744.668 797.981,746.572 z" id="boundary" inkscape:connector-curvature="0" />
	<path style="fill:none;stroke:red;stroke-width:1px;stroke-linecap:butt;stroke-linejoin:miter;stroke-opacity:1" d="M 836.061,738.956 817.021,744.668 z" id="boundary" inkscape:connector-curvature="0" />
	<path style="fill:none;stroke:red;stroke-width:1px;stroke-linecap:butt;stroke-linejoin:miter;stroke-opacity:1" d="M 910.319,681.835 906.511,706.587 z" id="boundary" inkscape:connector-curvature="0" />
	<path style="fill:none;stroke:red;stroke-width:1px;stroke-linecap:butt;stroke-linejoin:miter;stroke-opacity:1" d="M 891.278,719.916 906.511,706.587 z" id="boundary" inkscape:connector-curvature="0" />
	<path style="fill:none;stroke:red;stroke-width:1px;stroke-linecap:butt;stroke-linejoin:miter;stroke-opacity:1" d="M 891.278,719.916 872.238,729.436 z" id="boundary" inkscape:connector-curvature="0" />
	<path style="fill:none;stroke:red;stroke-width:1px;stroke-linecap:butt;stroke-linejoin:miter;stroke-opacity:1" d="M 855.102,738.956 836.061,738.956 z" id="boundary" inkscape:connector-curvature="0" />
	<path style="fill:none;stroke:red;stroke-width:1px;stroke-linecap:butt;stroke-linejoin:miter;stroke-opacity:1" d="M 872.238,729.436 855.102,738.956 z" id="boundary" inkscape:connector-curvature="0" />
	<circle cx="4" cy="504.76" r="4" fill="#0" id="circle0"/>
	<circle cx="4" cy="523.8" r="4" fill="#0" id="circle1"/>
	<circle cx="4" cy="542.841" r="4" fill="#0" id="circle2"/>
	<circle cx="13.5202" cy="466.679" r="4" fill="#0" id="circle3"/>
	<circle cx="13.5202" cy="485.72" r="4" fill="#0" id="circle4"/>
	<circle cx="13.5202" cy="559.977" r="4" fill="#0" id="circle5"/>
	<circle cx="23.0403" cy="438.119" r="4" fill="#0" id="circle6"/>
	<circle cx="23.0403" cy="577.113" r="4" fill="#0" id="circle7"/>
	<circle cx="38.2726" cy="422.887" r="4" fill="#0" id="circle8"/>
	<circle cx="40.1766" cy="586.633" r="4" fill="#0" id="circle9"/>
	<circle cx="43.9846" cy="481.912" r="4" fill="#0" id="circle10"/>
	<circle cx="43.9846" cy="500.952" r="4" fill="#0" id="circle11"/>
	<circle cx="47.7927" cy="403.846" r="4" fill="#0" id="circle12"/>
	<circle cx="53.5048" cy="462.871" r="4" fill="#0" id="circle13"/>
	<circle cx="53.5048" cy="518.088" r="4" fill="#0" id="circle14"/>
	<circle cx="53.5048" cy="537.129" r="4" fill="#0" id="circle15"/>
	<circle cx="57.3129" cy="384.806" r="4" fill="#0" id="circle16"/>
	<circle cx="59.2169" cy="586.633" r="4" fill="#0" id="circle17"/>
	<circle cx="63.025" cy="434.311" r="4" fill="#0" id="circle18"/>
	<circle cx="72.5451" cy="369.574" r="4" fill="#0" id="circle19"/>
	<circle cx="72.5451" cy="415.271" r="4" fill="#0" id="circle20"/>
	<circle cx="72.5451" cy="537.129" r="4" fill="#0" id="circle21"/>
	<circle cx="78.2572" cy="586.633" r="4" fill="#0" id="circle22"/>
	<circle cx="87.7774" cy="401.942" r="4" fill="#0" id="circle23"/>
	<circle cx="89.6814" cy="527.608" r="4" fill="#0" id="circle24"/>
	<circle cx="91.5854" cy="365.766" r="4" fill="#0" id="circle25"/>
	<circle cx="95.3935" cy="577.113" r="4" fill="#0" id="circle26"/>
	<circle cx="106.818" cy="392.422" r="4" fill="#0" id="circle27"/>
	<circle cx="106.818" cy="537.129" r="4" fill="#0" id="circle28"/>
	<circle cx="110.626" cy="360.054" r="4" fill="#0" id="circle29"/>
	<circle cx="112.53" cy="567.593" r="4" fill="#0" id="circle30"/>
	<circle cx="118.242" cy="514.28" r="4" fill="#0" id="circle31"/>
	<circle cx="120.146" cy="377.19" r="4" fill="#0" id="circle32"/>
	<circle cx="129.666" cy="356.246" r="4" fill="#0" id="circle33"/>
	<circle cx="129.666" cy="558.073" r="4" fill="#0" id="circle34"/>
	<circle cx="133.474" cy="499.048" r="4" fill="#0" id="circle35"/>
	<circle cx="137.282" cy="476.2" r="4" fill="#0" id="circle36"/>
	<circle cx="146.802" cy="438.119" r="4" fill="#0" id="circle37"/>
	<circle cx="146.802" cy="457.159" r="4" fill="#0" id="circle38"/>
	<circle cx="148.706" cy="548.553" r="4" fill="#0" id="circle39"/>
	<circle cx="156.322" cy="409.559" r="4" fill="#0" id="circle40"/>
	<circle cx="163.939" cy="535.225" r="4" fill="#0" id="circle41"/>
	<circle cx="165.843" cy="390.518" r="4" fill="#0" id="circle42"/>
	<circle cx="175.363" cy="361.958" r="4" fill="#0" id="circle43"/>
	<circle cx="177.267" cy="500.952" r="4" fill="#0" id="circle44"/>
	<circle cx="177.267" cy="519.992" r="4" fill="#0" id="circle45"/>
	<circle cx="190.595" cy="346.726" r="4" fill="#0" id="circle46"/>
	<circle cx="192.499" cy="487.624" r="4" fill="#0" id="circle47"/>
	<circle cx="202.019" cy="468.583" r="4" fill="#0" id="circle48"/>
	<circle cx="203.923" cy="323.877" r="4" fill="#0" id="circle49"/>
	<circle cx="211.539" cy="449.543" r="4" fill="#0" id="circle50"/>
	<circle cx="213.443" cy="304.837" r="4" fill="#0" id="circle51"/>
	<circle cx="222.964" cy="257.236" r="4" fill="#0" id="circle52"/>
	<circle cx="222.964" cy="276.276" r="4" fill="#0" id="circle53"/>
	<circle cx="224.868" cy="434.311" r="4" fill="#0" id="circle54"/>
	<circle cx="232.484" cy="457.159" r="4" fill="#0" id="circle55"/>
	<circle cx="238.196" cy="242.004" r="4" fill="#0" id="circle56"/>
	<circle cx="242.004" cy="219.155" r="4" fill="#0" id="circle57"/>
	<circle cx="242.004" cy="424.791" r="4" fill="#0" id="circle58"/>
	<circle cx="242.004" cy="474.296" r="4" fill="#0" id="circle59"/>
	<circle cx="242.004" cy="780.845" r="4" fill="#0" id="circle60"/>
	<circle cx="247.716" cy="443.831" r="4" fill="#0" id="circle61"/>
	<circle cx="251.524" cy="200.115" r="4" fill="#0" id="circle62"/>
	<circle cx="251.524" cy="797.981" r="4" fill="#0" id="circle63"/>
	<circle cx="257.236" cy="765.612" r="4" fill="#0" id="circle64"/>
	<circle cx="261.044" cy="181.075" r="4" fill="#0" id="circle65"/>
	<circle cx="261.044" cy="476.2" r="4" fill="#0" id="circle66"/>
	<circle cx="270.564" cy="162.035" r="4" fill="#0" id="circle67"/>
	<circle cx="270.564" cy="805.597" r="4" fill="#0" id="circle68"/>
	<circle cx="272.468" cy="750.38" r="4" fill="#0" id="circle69"/>
	<circle cx="276.276" cy="460.967" r="4" fill="#0" id="circle70"/>
	<circle cx="287.701" cy="815.117" r="4" fill="#0" id="circle71"/>
	<circle cx="289.605" cy="152.514" r="4" fill="#0" id="circle72"/>
	<circle cx="291.509" cy="443.831" r="4" fill="#0" id="circle73"/>
	<circle cx="291.509" cy="740.86" r="4" fill="#0" id="circle74"/>
	<circle cx="304.837" cy="137.282" r="4" fill="#0" id="circle75"/>
	<circle cx="306.741" cy="727.532" r="4" fill="#0" id="circle76"/>
	<circle cx="306.741" cy="815.117" r="4" fill="#0" id="circle77"/>
	<circle cx="310.549" cy="434.311" r="4" fill="#0" id="circle78"/>
	<circle cx="314.357" cy="118.242" r="4" fill="#0" id="circle79"/>
	<circle cx="318.165" cy="695.163" r="4" fill="#0" id="circle80"/>
	<circle cx="323.877" cy="805.597" r="4" fill="#0" id="circle81"/>
	<circle cx="327.685" cy="424.791" r="4" fill="#0" id="circle82"/>
	<circle cx="327.685" cy="638.042" r="4" fill="#0" id="circle83"/>
	<circle cx="327.685" cy="657.083" r="4" fill="#0" id="circle84"/>
	<circle cx="327.685" cy="676.123" r="4" fill="#0" id="circle85"/>
	<circle cx="333.397" cy="118.242" r="4" fill="#0" id="circle86"/>
	<circle cx="337.205" cy="609.482" r="4" fill="#0" id="circle87"/>
	<circle cx="342.917" cy="805.597" r="4" fill="#0" id="circle88"/>
	<circle cx="346.726" cy="419.079" r="4" fill="#0" id="circle89"/>
	<circle cx="346.726" cy="542.841" r="4" fill="#0" id="circle90"/>
	<circle cx="346.726" cy="561.881" r="4" fill="#0" id="circle91"/>
	<circle cx="346.726" cy="580.921" r="4" fill="#0" id="circle92"/>
	<circle cx="352.438" cy="108.722" r="4" fill="#0" id="circle93"/>
	<circle cx="356.246" cy="514.28" r="4" fill="#0" id="circle94"/>
	<circle cx="360.054" cy="796.077" r="4" fill="#0" id="circle95"/>
	<circle cx="365.766" cy="415.271" r="4" fill="#0" id="circle96"/>
	<circle cx="365.766" cy="485.72" r="4" fill="#0" id="circle97"/>
	<circle cx="371.478" cy="108.722" r="4" fill="#0" id="circle98"/>
	<circle cx="375.286" cy="432.407" r="4" fill="#0" id="circle99"/>
	<circle cx="375.286" cy="451.447" r="4" fill="#0" id="circle100"/>
	<circle cx="375.286" cy="780.845" r="4" fill="#0" id="circle101"/>
	<circle cx="384.806" cy="761.804" r="4" fill="#0" id="circle102"/>
	<circle cx="390.518" cy="108.722" r="4" fill="#0" id="circle103"/>
	<circle cx="396.23" cy="729.436" r="4" fill="#0" id="circle104"/>
	<circle cx="405.75" cy="710.395" r="4" fill="#0" id="circle105"/>
	<circle cx="409.559" cy="108.722" r="4" fill="#0" id="circle106"/>
	<circle cx="415.271" cy="681.835" r="4" fill="#0" id="circle107"/>
	<circle cx="424.791" cy="653.274" r="4" fill="#0" id="circle108"/>
	<circle cx="428.599" cy="108.722" r="4" fill="#0" id="circle109"/>
	<circle cx="440.023" cy="639.946" r="4" fill="#0" id="circle110"/>
	<circle cx="443.831" cy="615.194" r="4" fill="#0" id="circle111"/>
	<circle cx="447.639" cy="108.722" r="4" fill="#0" id="circle112"/>
	<circle cx="453.351" cy="586.633" r="4" fill="#0" id="circle113"/>
	<circle cx="466.679" cy="99.2015" r="4" fill="#0" id="circle114"/>
	<circle cx="470.488" cy="577.113" r="4" fill="#0" id="circle115"/>
	<circle cx="470.488" cy="790.365" r="4" fill="#0" id="circle116"/>
	<circle cx="470.488" cy="809.405" r="4" fill="#0" id="circle117"/>
	<circle cx="480.008" cy="826.541" r="4" fill="#0" id="circle118"/>
	<circle cx="485.72" cy="99.2015" r="4" fill="#0" id="circle119"/>
	<circle cx="485.72" cy="775.132" r="4" fill="#0" id="circle120"/>
	<circle cx="487.624" cy="567.593" r="4" fill="#0" id="circle121"/>
	<circle cx="489.528" cy="586.633" r="4" fill="#0" id="circle122"/>
	<circle cx="495.24" cy="605.674" r="4" fill="#0" id="circle123"/>
	<circle cx="499.048" cy="624.714" r="4" fill="#0" id="circle124"/>
	<circle cx="499.048" cy="643.754" r="4" fill="#0" id="circle125"/>
	<circle cx="499.048" cy="662.795" r="4" fill="#0" id="circle126"/>
	<circle cx="499.048" cy="681.835" r="4" fill="#0" id="circle127"/>
	<circle cx="499.048" cy="824.637" r="4" fill="#0" id="circle128"/>
	<circle cx="500.952" cy="759.9" r="4" fill="#0" id="circle129"/>
	<circle cx="504.76" cy="89.6814" r="4" fill="#0" id="circle130"/>
	<circle cx="508.568" cy="698.971" r="4" fill="#0" id="circle131"/>
	<circle cx="508.568" cy="718.012" r="4" fill="#0" id="circle132"/>
	<circle cx="508.568" cy="737.052" r="4" fill="#0" id="circle133"/>
	<circle cx="516.184" cy="834.157" r="4" fill="#0" id="circle134"/>
	<circle cx="521.896" cy="80.1612" r="4" fill="#0" id="circle135"/>
	<circle cx="535.225" cy="834.157" r="4" fill="#0" id="circle136"/>
	<circle cx="537.129" cy="66.833" r="4" fill="#0" id="circle137"/>
	<circle cx="552.361" cy="51.6008" r="4" fill="#0" id="circle138"/>
	<circle cx="552.361" cy="824.637" r="4" fill="#0" id="circle139"/>
	<circle cx="569.497" cy="815.117" r="4" fill="#0" id="circle140"/>
	<circle cx="571.401" cy="42.0806" r="4" fill="#0" id="circle141"/>
	<circle cx="586.633" cy="805.597" r="4" fill="#0" id="circle142"/>
	<circle cx="590.441" cy="32.5605" r="4" fill="#0" id="circle143"/>
	<circle cx="596.154" cy="757.996" r="4" fill="#0" id="circle144"/>
	<circle cx="596.154" cy="777.036" r="4" fill="#0" id="circle145"/>
	<circle cx="605.674" cy="672.315" r="4" fill="#0" id="circle146"/>
	<circle cx="605.674" cy="691.355" r="4" fill="#0" id="circle147"/>
	<circle cx="605.674" cy="710.395" r="4" fill="#0" id="circle148"/>
	<circle cx="605.674" cy="729.436" r="4" fill="#0" id="circle149"/>
	<circle cx="609.482" cy="23.0403" r="4" fill="#0" id="circle150"/>
	<circle cx="615.194" cy="605.674" r="4" fill="#0" id="circle151"/>
	<circle cx="615.194" cy="624.714" r="4" fill="#0" id="circle152"/>
	<circle cx="615.194" cy="643.754" r="4" fill="#0" id="circle153"/>
	<circle cx="624.714" cy="567.593" r="4" fill="#0" id="circle154"/>
	<circle cx="624.714" cy="586.633" r="4" fill="#0" id="circle155"/>
	<circle cx="628.522" cy="13.5202" r="4" fill="#0" id="circle156"/>
	<circle cx="634.234" cy="539.033" r="4" fill="#0" id="circle157"/>
	<circle cx="647.562" cy="13.5202" r="4" fill="#0" id="circle158"/>
	<circle cx="653.274" cy="539.033" r="4" fill="#0" id="circle159"/>
	<circle cx="660.891" cy="558.073" r="4" fill="#0" id="circle160"/>
	<circle cx="660.891" cy="577.113" r="4" fill="#0" id="circle161"/>
	<circle cx="660.891" cy="596.154" r="4" fill="#0" id="circle162"/>
	<circle cx="660.891" cy="723.724" r="4" fill="#0" id="circle163"/>
	<circle cx="666.603" cy="13.5202" r="4" fill="#0" id="circle164"/>
	<circle cx="670.411" cy="613.29" r="4" fill="#0" id="circle165"/>
	<circle cx="670.411" cy="632.33" r="4" fill="#0" id="circle166"/>
	<circle cx="670.411" cy="651.37" r="4" fill="#0" id="circle167"/>
	<circle cx="670.411" cy="670.411" r="4" fill="#0" id="circle168"/>
	<circle cx="670.411" cy="689.451" r="4" fill="#0" id="circle169"/>
	<circle cx="672.315" cy="738.956" r="4" fill="#0" id="circle170"/>
	<circle cx="683.739" cy="4" r="4" fill="#0" id="circle171"/>
	<circle cx="689.451" cy="748.476" r="4" fill="#0" id="circle172"/>
	<circle cx="702.779" cy="4" r="4" fill="#0" id="circle173"/>
	<circle cx="708.491" cy="748.476" r="4" fill="#0" id="circle174"/>
	<circle cx="721.82" cy="4" r="4" fill="#0" id="circle175"/>
	<circle cx="727.532" cy="742.764" r="4" fill="#0" id="circle176"/>
	<circle cx="738.956" cy="13.5202" r="4" fill="#0" id="circle177"/>
	<circle cx="742.764" cy="727.532" r="4" fill="#0" id="circle178"/>
	<circle cx="748.476" cy="653.274" r="4" fill="#0" id="circle179"/>
	<circle cx="748.476" cy="700.875" r="4" fill="#0" id="circle180"/>
	<circle cx="757.996" cy="13.5202" r="4" fill="#0" id="circle181"/>
	<circle cx="757.996" cy="586.633" r="4" fill="#0" id="circle182"/>
	<circle cx="757.996" cy="605.674" r="4" fill="#0" id="circle183"/>
	<circle cx="757.996" cy="624.714" r="4" fill="#0" id="circle184"/>
	<circle cx="757.996" cy="670.411" r="4" fill="#0" id="circle185"/>
	<circle cx="767.516" cy="558.073" r="4" fill="#0" id="circle186"/>
	<circle cx="775.132" cy="714.203" r="4" fill="#0" id="circle187"/>
	<circle cx="777.036" cy="13.5202" r="4" fill="#0" id="circle188"/>
	<circle cx="784.653" cy="567.593" r="4" fill="#0" id="circle189"/>
	<circle cx="784.653" cy="731.34" r="4" fill="#0" id="circle190"/>
	<circle cx="790.365" cy="698.971" r="4" fill="#0" id="circle191"/>
	<circle cx="796.077" cy="19.2322" r="4" fill="#0" id="circle192"/>
	<circle cx="796.077" cy="582.825" r="4" fill="#0" id="circle193"/>
	<circle cx="797.981" cy="746.572" r="4" fill="#0" id="circle194"/>
	<circle cx="799.885" cy="679.931" r="4" fill="#0" id="circle195"/>
	<circle cx="805.597" cy="599.962" r="4" fill="#0" id="circle196"/>
	<circle cx="811.309" cy="32.5605" r="4" fill="#0" id="circle197"/>
	<circle cx="813.213" cy="619.002" r="4" fill="#0" id="circle198"/>
	<circle cx="813.213" cy="638.042" r="4" fill="#0" id="circle199"/>
	<circle cx="813.213" cy="657.083" r="4" fill="#0" id="circle200"/>
	<circle cx="817.021" cy="744.668" r="4" fill="#0" id="circle201"/>
	<circle cx="830.349" cy="34.4645" r="4" fill="#0" id="circle202"/>
	<circle cx="836.061" cy="738.956" r="4" fill="#0" id="circle203"/>
	<circle cx="843.678" cy="49.6967" r="4" fill="#0" id="circle204"/>
	<circle cx="855.102" cy="738.956" r="4" fill="#0" id="circle205"/>
	<circle cx="858.91" cy="63.025" r="4" fill="#0" id="circle206"/>
	<circle cx="872.238" cy="78.2572" r="4" fill="#0" id="circle207"/>
	<circle cx="872.238" cy="729.436" r="4" fill="#0" id="circle208"/>
	<circle cx="891.278" cy="80.1612" r="4" fill="#0" id="circle209"/>
	<circle cx="891.278" cy="719.916" r="4" fill="#0" id="circle210"/>
	<circle cx="900.798" cy="97.2975" r="4" fill="#0" id="circle211"/>
	<circle cx="900.798" cy="519.992" r="4" fill="#0" id="circle212"/>
	<circle cx="904.607" cy="539.033" r="4" fill="#0" id="circle213"/>
	<circle cx="906.511" cy="706.587" r="4" fill="#0" id="circle214"/>
	<circle cx="910.319" cy="500.952" r="4" fill="#0" id="circle215"/>
	<circle cx="910.319" cy="558.073" r="4" fill="#0" id="circle216"/>
	<circle cx="910.319" cy="577.113" r="4" fill="#0" id="circle217"/>
	<circle cx="910.319" cy="596.154" r="4" fill="#0" id="circle218"/>
	<circle cx="910.319" cy="615.194" r="4" fill="#0" id="circle219"/>
	<circle cx="910.319" cy="681.835" r="4" fill="#0" id="circle220"/>
	<circle cx="916.031" cy="110.626" r="4" fill="#0" id="circle221"/>
	<circle cx="919.839" cy="481.912" r="4" fill="#0" id="circle222"/>
	<circle cx="919.839" cy="632.33" r="4" fill="#0" id="circle223"/>
	<circle cx="919.839" cy="651.37" r="4" fill="#0" id="circle224"/>
	<circle cx="929.359" cy="125.858" r="4" fill="#0" id="circle225"/>
	<circle cx="929.359" cy="453.351" r="4" fill="#0" id="circle226"/>
	<circle cx="936.975" cy="504.76" r="4" fill="#0" id="circle227"/>
	<circle cx="936.975" cy="523.8" r="4" fill="#0" id="circle228"/>
	<circle cx="938.879" cy="142.994" r="4" fill="#0" id="circle229"/>
	<circle cx="938.879" cy="415.271" r="4" fill="#0" id="circle230"/>
	<circle cx="938.879" cy="434.311" r="4" fill="#0" id="circle231"/>
	<circle cx="946.495" cy="162.035" r="4" fill="#0" id="circle232"/>
	<circle cx="946.495" cy="476.2" r="4" fill="#0" id="circle233"/>
	<circle cx="948.399" cy="358.15" r="4" fill="#0" id="circle234"/>
	<circle cx="948.399" cy="377.19" r="4" fill="#0" id="circle235"/>
	<circle cx="948.399" cy="396.23" r="4" fill="#0" id="circle236"/>
	<circle cx="956.015" cy="179.171" r="4" fill="#0" id="circle237"/>
	<circle cx="956.015" cy="443.831" r="4" fill="#0" id="circle238"/>
	<circle cx="956.015" cy="523.8" r="4" fill="#0" id="circle239"/>
	<circle cx="957.919" cy="329.589" r="4" fill="#0" id="circle240"/>
	<circle cx="963.631" cy="198.211" r="4" fill="#0" id="circle241"/>
	<circle cx="965.536" cy="348.63" r="4" fill="#0" id="circle242"/>
	<circle cx="965.536" cy="386.71" r="4" fill="#0" id="circle243"/>
	<circle cx="965.536" cy="405.75" r="4" fill="#0" id="circle244"/>
	<circle cx="965.536" cy="424.791" r="4" fill="#0" id="circle245"/>
	<circle cx="967.44" cy="217.251" r="4" fill="#0" id="circle246"/>
	<circle cx="967.44" cy="500.952" r="4" fill="#0" id="circle247"/>
	<circle cx="975.056" cy="365.766" r="4" fill="#0" id="circle248"/>
	<circle cx="976.96" cy="234.388" r="4" fill="#0" id="circle249"/>
	<circle cx="976.96" cy="472.392" r="4" fill="#0" id="circle250"/>
	<circle cx="980.768" cy="253.428" r="4" fill="#0" id="circle251"/>
	<circle cx="986.48" cy="405.75" r="4" fill="#0" id="circle252"/>
	<circle cx="986.48" cy="434.311" r="4" fill="#0" id="circle253"/>
	<circle cx="986.48" cy="453.351" r="4" fill="#0" id="circle254"/>
	<circle cx="990.288" cy="270.564" r="4" fill="#0" id="circle255"/>
	<circle cx="996" cy="289.605" r="4" fill="#0" id="circle256"/>
	<circle cx="996" cy="308.645" r="4" fill="#0" id="circle257"/>
	<circle cx="996" cy="327.685" r="4" fill="#0" id="circle258"/>
	<circle cx="996" cy="346.726" r="4" fill="#0" id="circle259"/>
	<circle cx="996" cy="365.766" r="4" fill="#0" id="circle260"/>
	<circle cx="996" cy="384.806" r="4" fill="#0" id="circle261"/>
	</g>
</svg>