<?xml version="1.0" encoding="UTF-8" standalone="no"?>
<!-- Created with CurveBenchmark -->
<svg
	xmlns:dc="http://purl.org/dc/elements/1.1/"
	xmlns:cc="http://creativecommons.org/ns#"
	xmlns:rdf="http://www.w3.org/1999/02/22-rdf-syntax-ns#"
	xmlns:svg="http://www.w3.org/2000/svg"
	xmlns="http://www.w3.org/2000/svg"
	xmlns:sodipodi="http://sodipodi.sourceforge.net/DTD/sodipodi-0.dtd"
	xmlns:inkscape="http://www.inkscape.org/namespaces/inkscape"
	width="1000"
	height="1000"
	id="svg2"
	version="1.1"
	sodipodi:docname="manifold/crust-bunny08occ1.png.txt">
<defs
	id="defs4" />
<metadata
	id="metadata7">
	<rdf:RDF>
		<cc:Work
			rdf:about="">
			<dc:format>image/svg+xml</dc:format>
			<dc:type
				rdf:resource="http://purl.org/dc/dcmitype/StillImage" />
			<dc:title></dc:title>
		</cc:Work>
	</rdf:RDF>
</metadata>
<g
	inkscape:label="Layer 1"
	inkscape:groupmode="layer"
	id="layer1">
	<path style="fill:none;stroke:red;stroke-width:1px;stroke-linecap:butt;stroke-linejoin:miter;stroke-opacity:1" d="M 265.651,4 242.899,4 z" id="boundary" inkscape:connector-curvature="0" />
	<path style="fill:none;stroke:red;stroke-width:1px;stroke-linecap:butt;stroke-linejoin:miter;stroke-opacity:1" d="M 220.147,4 197.394,10.8257 z" id="boundary" inkscape:connector-curvature="0" />
	<path style="fill:none;stroke:red;stroke-width:1px;stroke-linecap:butt;stroke-linejoin:miter;stroke-opacity:1" d="M 197.394,10.8257 197.394,33.578 z" id="boundary" inkscape:connector-curvature="0" />
	<path style="fill:none;stroke:red;stroke-width:1px;stroke-linecap:butt;stroke-linejoin:miter;stroke-opacity:1" d="M 220.147,4 242.899,4 z" id="boundary" inkscape:connector-curvature="0" />
	<path style="fill:none;stroke:red;stroke-width:1px;stroke-linecap:butt;stroke-linejoin:miter;stroke-opacity:1" d="M 197.394,56.3303 197.394,33.578 z" id="boundary" inkscape:connector-curvature="0" />
	<path style="fill:none;stroke:red;stroke-width:1px;stroke-linecap:butt;stroke-linejoin:miter;stroke-opacity:1" d="M 197.394,56.3303 197.394,79.0826 z" id="boundary" inkscape:connector-curvature="0" />
	<path style="fill:none;stroke:red;stroke-width:1px;stroke-linecap:butt;stroke-linejoin:miter;stroke-opacity:1" d="M 197.394,101.835 197.394,79.0826 z" id="boundary" inkscape:connector-curvature="0" />
	<path style="fill:none;stroke:red;stroke-width:1px;stroke-linecap:butt;stroke-linejoin:miter;stroke-opacity:1" d="M 97.2844,156.44 85.9083,179.193 z" id="boundary" inkscape:connector-curvature="0" />
	<path style="fill:none;stroke:red;stroke-width:1px;stroke-linecap:butt;stroke-linejoin:miter;stroke-opacity:1" d="M 115.486,140.514 97.2844,156.44 z" id="boundary" inkscape:connector-curvature="0" />
	<path style="fill:none;stroke:red;stroke-width:1px;stroke-linecap:butt;stroke-linejoin:miter;stroke-opacity:1" d="M 85.9083,179.193 67.7064,197.394 z" id="boundary" inkscape:connector-curvature="0" />
	<path style="fill:none;stroke:red;stroke-width:1px;stroke-linecap:butt;stroke-linejoin:miter;stroke-opacity:1" d="M 38.1284,238.349 26.7523,272.477 z" id="boundary" inkscape:connector-curvature="0" />
	<path style="fill:none;stroke:red;stroke-width:1px;stroke-linecap:butt;stroke-linejoin:miter;stroke-opacity:1" d="M 56.3303,220.147 67.7064,197.394 z" id="boundary" inkscape:connector-curvature="0" />
	<path style="fill:none;stroke:red;stroke-width:1px;stroke-linecap:butt;stroke-linejoin:miter;stroke-opacity:1" d="M 56.3303,220.147 38.1284,238.349 z" id="boundary" inkscape:connector-curvature="0" />
	<path style="fill:none;stroke:red;stroke-width:1px;stroke-linecap:butt;stroke-linejoin:miter;stroke-opacity:1" d="M 135.963,129.138 156.44,117.761 z" id="boundary" inkscape:connector-curvature="0" />
	<path style="fill:none;stroke:red;stroke-width:1px;stroke-linecap:butt;stroke-linejoin:miter;stroke-opacity:1" d="M 197.394,101.835 179.193,117.761 z" id="boundary" inkscape:connector-curvature="0" />
	<path style="fill:none;stroke:red;stroke-width:1px;stroke-linecap:butt;stroke-linejoin:miter;stroke-opacity:1" d="M 179.193,117.761 156.44,117.761 z" id="boundary" inkscape:connector-curvature="0" />
	<path style="fill:none;stroke:red;stroke-width:1px;stroke-linecap:butt;stroke-linejoin:miter;stroke-opacity:1" d="M 135.963,129.138 115.486,140.514 z" id="boundary" inkscape:connector-curvature="0" />
	<path style="fill:none;stroke:red;stroke-width:1px;stroke-linecap:butt;stroke-linejoin:miter;stroke-opacity:1" d="M 288.404,4 265.651,4 z" id="boundary" inkscape:connector-curvature="0" />
	<path style="fill:none;stroke:red;stroke-width:1px;stroke-linecap:butt;stroke-linejoin:miter;stroke-opacity:1" d="M 311.156,4 333.908,4 z" id="boundary" inkscape:connector-curvature="0" />
	<path style="fill:none;stroke:red;stroke-width:1px;stroke-linecap:butt;stroke-linejoin:miter;stroke-opacity:1" d="M 333.908,4 356.661,4 z" id="boundary" inkscape:connector-curvature="0" />
	<path style="fill:none;stroke:red;stroke-width:1px;stroke-linecap:butt;stroke-linejoin:miter;stroke-opacity:1" d="M 288.404,4 311.156,4 z" id="boundary" inkscape:connector-curvature="0" />
	<path style="fill:none;stroke:red;stroke-width:1px;stroke-linecap:butt;stroke-linejoin:miter;stroke-opacity:1" d="M 356.661,4 379.413,4 z" id="boundary" inkscape:connector-curvature="0" />
	<path style="fill:none;stroke:red;stroke-width:1px;stroke-linecap:butt;stroke-linejoin:miter;stroke-opacity:1" d="M 402.165,4 424.917,4 z" id="boundary" inkscape:connector-curvature="0" />
	<path style="fill:none;stroke:red;stroke-width:1px;stroke-linecap:butt;stroke-linejoin:miter;stroke-opacity:1" d="M 424.917,4 427.193,29.0275 z" id="boundary" inkscape:connector-curvature="0" />
	<path style="fill:none;stroke:red;stroke-width:1px;stroke-linecap:butt;stroke-linejoin:miter;stroke-opacity:1" d="M 379.413,4 402.165,4 z" id="boundary" inkscape:connector-curvature="0" />
	<path style="fill:none;stroke:red;stroke-width:1px;stroke-linecap:butt;stroke-linejoin:miter;stroke-opacity:1" d="M 427.193,29.0275 427.193,51.7798 z" id="boundary" inkscape:connector-curvature="0" />
	<path style="fill:none;stroke:red;stroke-width:1px;stroke-linecap:butt;stroke-linejoin:miter;stroke-opacity:1" d="M 415.817,74.5321 427.193,51.7798 z" id="boundary" inkscape:connector-curvature="0" />
	<path style="fill:none;stroke:red;stroke-width:1px;stroke-linecap:butt;stroke-linejoin:miter;stroke-opacity:1" d="M 358.936,120.037 336.183,120.037 z" id="boundary" inkscape:connector-curvature="0" />
	<path style="fill:none;stroke:red;stroke-width:1px;stroke-linecap:butt;stroke-linejoin:miter;stroke-opacity:1" d="M 336.183,120.037 347.56,140.514 z" id="boundary" inkscape:connector-curvature="0" />
	<path style="fill:none;stroke:red;stroke-width:1px;stroke-linecap:butt;stroke-linejoin:miter;stroke-opacity:1" d="M 347.56,140.514 370.312,140.514 z" id="boundary" inkscape:connector-curvature="0" />
	<path style="fill:none;stroke:red;stroke-width:1px;stroke-linecap:butt;stroke-linejoin:miter;stroke-opacity:1" d="M 381.688,108.661 399.89,92.7339 z" id="boundary" inkscape:connector-curvature="0" />
	<path style="fill:none;stroke:red;stroke-width:1px;stroke-linecap:butt;stroke-linejoin:miter;stroke-opacity:1" d="M 381.688,108.661 358.936,120.037 z" id="boundary" inkscape:connector-curvature="0" />
	<path style="fill:none;stroke:red;stroke-width:1px;stroke-linecap:butt;stroke-linejoin:miter;stroke-opacity:1" d="M 399.89,92.7339 415.817,74.5321 z" id="boundary" inkscape:connector-curvature="0" />
	<path style="fill:none;stroke:red;stroke-width:1px;stroke-linecap:butt;stroke-linejoin:miter;stroke-opacity:1" d="M 393.064,147.339 370.312,140.514 z" id="boundary" inkscape:connector-curvature="0" />
	<path style="fill:none;stroke:red;stroke-width:1px;stroke-linecap:butt;stroke-linejoin:miter;stroke-opacity:1" d="M 413.541,158.716 436.294,163.266 z" id="boundary" inkscape:connector-curvature="0" />
	<path style="fill:none;stroke:red;stroke-width:1px;stroke-linecap:butt;stroke-linejoin:miter;stroke-opacity:1" d="M 393.064,147.339 413.541,158.716 z" id="boundary" inkscape:connector-curvature="0" />
	<path style="fill:none;stroke:red;stroke-width:1px;stroke-linecap:butt;stroke-linejoin:miter;stroke-opacity:1" d="M 4,295.229 4,317.982 z" id="boundary" inkscape:connector-curvature="0" />
	<path style="fill:none;stroke:red;stroke-width:1px;stroke-linecap:butt;stroke-linejoin:miter;stroke-opacity:1" d="M 4,295.229 26.7523,272.477 z" id="boundary" inkscape:connector-curvature="0" />
	<path style="fill:none;stroke:red;stroke-width:1px;stroke-linecap:butt;stroke-linejoin:miter;stroke-opacity:1" d="M 26.7523,324.807 4,317.982 z" id="boundary" inkscape:connector-curvature="0" />
	<path style="fill:none;stroke:red;stroke-width:1px;stroke-linecap:butt;stroke-linejoin:miter;stroke-opacity:1" d="M 33.578,370.312 26.7523,347.56 z" id="boundary" inkscape:connector-curvature="0" />
	<path style="fill:none;stroke:red;stroke-width:1px;stroke-linecap:butt;stroke-linejoin:miter;stroke-opacity:1" d="M 26.7523,347.56 26.7523,324.807 z" id="boundary" inkscape:connector-curvature="0" />
	<path style="fill:none;stroke:red;stroke-width:1px;stroke-linecap:butt;stroke-linejoin:miter;stroke-opacity:1" d="M 56.3303,379.413 33.578,370.312 z" id="boundary" inkscape:connector-curvature="0" />
	<path style="fill:none;stroke:red;stroke-width:1px;stroke-linecap:butt;stroke-linejoin:miter;stroke-opacity:1" d="M 74.5321,393.064 56.3303,379.413 z" id="boundary" inkscape:connector-curvature="0" />
	<path style="fill:none;stroke:red;stroke-width:1px;stroke-linecap:butt;stroke-linejoin:miter;stroke-opacity:1" d="M 74.5321,393.064 97.2844,397.615 z" id="boundary" inkscape:connector-curvature="0" />
	<path style="fill:none;stroke:red;stroke-width:1px;stroke-linecap:butt;stroke-linejoin:miter;stroke-opacity:1" d="M 120.037,404.44 140.514,415.817 z" id="boundary" inkscape:connector-curvature="0" />
	<path style="fill:none;stroke:red;stroke-width:1px;stroke-linecap:butt;stroke-linejoin:miter;stroke-opacity:1" d="M 160.991,427.193 176.917,445.394 z" id="boundary" inkscape:connector-curvature="0" />
	<path style="fill:none;stroke:red;stroke-width:1px;stroke-linecap:butt;stroke-linejoin:miter;stroke-opacity:1" d="M 186.018,468.147 176.917,445.394 z" id="boundary" inkscape:connector-curvature="0" />
	<path style="fill:none;stroke:red;stroke-width:1px;stroke-linecap:butt;stroke-linejoin:miter;stroke-opacity:1" d="M 140.514,415.817 160.991,427.193 z" id="boundary" inkscape:connector-curvature="0" />
	<path style="fill:none;stroke:red;stroke-width:1px;stroke-linecap:butt;stroke-linejoin:miter;stroke-opacity:1" d="M 174.642,568.257 174.642,545.505 z" id="boundary" inkscape:connector-curvature="0" />
	<path style="fill:none;stroke:red;stroke-width:1px;stroke-linecap:butt;stroke-linejoin:miter;stroke-opacity:1" d="M 192.844,527.303 174.642,545.505 z" id="boundary" inkscape:connector-curvature="0" />
	<path style="fill:none;stroke:red;stroke-width:1px;stroke-linecap:butt;stroke-linejoin:miter;stroke-opacity:1" d="M 186.018,468.147 197.394,488.624 z" id="boundary" inkscape:connector-curvature="0" />
	<path style="fill:none;stroke:red;stroke-width:1px;stroke-linecap:butt;stroke-linejoin:miter;stroke-opacity:1" d="M 97.2844,397.615 120.037,404.44 z" id="boundary" inkscape:connector-curvature="0" />
	<path style="fill:none;stroke:red;stroke-width:1px;stroke-linecap:butt;stroke-linejoin:miter;stroke-opacity:1" d="M 208.771,509.101 192.844,527.303 z" id="boundary" inkscape:connector-curvature="0" />
	<path style="fill:none;stroke:red;stroke-width:1px;stroke-linecap:butt;stroke-linejoin:miter;stroke-opacity:1" d="M 197.394,488.624 208.771,509.101 z" id="boundary" inkscape:connector-curvature="0" />
	<path style="fill:none;stroke:red;stroke-width:1px;stroke-linecap:butt;stroke-linejoin:miter;stroke-opacity:1" d="M 174.642,568.257 192.844,584.183 z" id="boundary" inkscape:connector-curvature="0" />
	<path style="fill:none;stroke:red;stroke-width:1px;stroke-linecap:butt;stroke-linejoin:miter;stroke-opacity:1" d="M 211.046,597.835 233.798,597.835 z" id="boundary" inkscape:connector-curvature="0" />
	<path style="fill:none;stroke:red;stroke-width:1px;stroke-linecap:butt;stroke-linejoin:miter;stroke-opacity:1" d="M 211.046,597.835 192.844,584.183 z" id="boundary" inkscape:connector-curvature="0" />
	<path style="fill:none;stroke:red;stroke-width:1px;stroke-linecap:butt;stroke-linejoin:miter;stroke-opacity:1" d="M 233.798,597.835 254.275,609.211 z" id="boundary" inkscape:connector-curvature="0" />
	<path style="fill:none;stroke:red;stroke-width:1px;stroke-linecap:butt;stroke-linejoin:miter;stroke-opacity:1" d="M 254.275,609.211 274.752,620.587 z" id="boundary" inkscape:connector-curvature="0" />
	<path style="fill:none;stroke:red;stroke-width:1px;stroke-linecap:butt;stroke-linejoin:miter;stroke-opacity:1" d="M 297.505,620.587 274.752,620.587 z" id="boundary" inkscape:connector-curvature="0" />
	<path style="fill:none;stroke:red;stroke-width:1px;stroke-linecap:butt;stroke-linejoin:miter;stroke-opacity:1" d="M 297.505,620.587 320.257,620.587 z" id="boundary" inkscape:connector-curvature="0" />
	<path style="fill:none;stroke:red;stroke-width:1px;stroke-linecap:butt;stroke-linejoin:miter;stroke-opacity:1" d="M 343.009,620.587 320.257,620.587 z" id="boundary" inkscape:connector-curvature="0" />
	<path style="fill:none;stroke:red;stroke-width:1px;stroke-linecap:butt;stroke-linejoin:miter;stroke-opacity:1" d="M 343.009,620.587 365.761,620.587 z" id="boundary" inkscape:connector-curvature="0" />
	<path style="fill:none;stroke:red;stroke-width:1px;stroke-linecap:butt;stroke-linejoin:miter;stroke-opacity:1" d="M 388.514,620.587 365.761,620.587 z" id="boundary" inkscape:connector-curvature="0" />
	<path style="fill:none;stroke:red;stroke-width:1px;stroke-linecap:butt;stroke-linejoin:miter;stroke-opacity:1" d="M 411.266,620.587 388.514,620.587 z" id="boundary" inkscape:connector-curvature="0" />
	<path style="fill:none;stroke:red;stroke-width:1px;stroke-linecap:butt;stroke-linejoin:miter;stroke-opacity:1" d="M 431.743,609.211 411.266,620.587 z" id="boundary" inkscape:connector-curvature="0" />
	<path style="fill:none;stroke:red;stroke-width:1px;stroke-linecap:butt;stroke-linejoin:miter;stroke-opacity:1" d="M 565.982,131.413 588.734,120.037 z" id="boundary" inkscape:connector-curvature="0" />
	<path style="fill:none;stroke:red;stroke-width:1px;stroke-linecap:butt;stroke-linejoin:miter;stroke-opacity:1" d="M 588.734,120.037 611.486,117.761 z" id="boundary" inkscape:connector-curvature="0" />
	<path style="fill:none;stroke:red;stroke-width:1px;stroke-linecap:butt;stroke-linejoin:miter;stroke-opacity:1" d="M 634.239,117.761 611.486,117.761 z" id="boundary" inkscape:connector-curvature="0" />
	<path style="fill:none;stroke:red;stroke-width:1px;stroke-linecap:butt;stroke-linejoin:miter;stroke-opacity:1" d="M 656.991,117.761 634.239,117.761 z" id="boundary" inkscape:connector-curvature="0" />
	<path style="fill:none;stroke:red;stroke-width:1px;stroke-linecap:butt;stroke-linejoin:miter;stroke-opacity:1" d="M 565.982,131.413 543.229,140.514 z" id="boundary" inkscape:connector-curvature="0" />
	<path style="fill:none;stroke:red;stroke-width:1px;stroke-linecap:butt;stroke-linejoin:miter;stroke-opacity:1" d="M 456.771,174.642 479.523,174.642 z" id="boundary" inkscape:connector-curvature="0" />
	<path style="fill:none;stroke:red;stroke-width:1px;stroke-linecap:butt;stroke-linejoin:miter;stroke-opacity:1" d="M 456.771,174.642 436.294,163.266 z" id="boundary" inkscape:connector-curvature="0" />
	<path style="fill:none;stroke:red;stroke-width:1px;stroke-linecap:butt;stroke-linejoin:miter;stroke-opacity:1" d="M 500,163.266 479.523,174.642 z" id="boundary" inkscape:connector-curvature="0" />
	<path style="fill:none;stroke:red;stroke-width:1px;stroke-linecap:butt;stroke-linejoin:miter;stroke-opacity:1" d="M 522.752,151.89 500,163.266 z" id="boundary" inkscape:connector-curvature="0" />
	<path style="fill:none;stroke:red;stroke-width:1px;stroke-linecap:butt;stroke-linejoin:miter;stroke-opacity:1" d="M 522.752,151.89 543.229,140.514 z" id="boundary" inkscape:connector-curvature="0" />
	<path style="fill:none;stroke:red;stroke-width:1px;stroke-linecap:butt;stroke-linejoin:miter;stroke-opacity:1" d="M 679.743,117.761 656.991,117.761 z" id="boundary" inkscape:connector-curvature="0" />
	<path style="fill:none;stroke:red;stroke-width:1px;stroke-linecap:butt;stroke-linejoin:miter;stroke-opacity:1" d="M 722.972,129.138 702.495,117.761 z" id="boundary" inkscape:connector-curvature="0" />
	<path style="fill:none;stroke:red;stroke-width:1px;stroke-linecap:butt;stroke-linejoin:miter;stroke-opacity:1" d="M 702.495,117.761 679.743,117.761 z" id="boundary" inkscape:connector-curvature="0" />
	<path style="fill:none;stroke:red;stroke-width:1px;stroke-linecap:butt;stroke-linejoin:miter;stroke-opacity:1" d="M 745.725,135.963 722.972,129.138 z" id="boundary" inkscape:connector-curvature="0" />
	<path style="fill:none;stroke:red;stroke-width:1px;stroke-linecap:butt;stroke-linejoin:miter;stroke-opacity:1" d="M 768.477,140.514 788.954,151.89 z" id="boundary" inkscape:connector-curvature="0" />
	<path style="fill:none;stroke:red;stroke-width:1px;stroke-linecap:butt;stroke-linejoin:miter;stroke-opacity:1" d="M 768.477,140.514 745.725,135.963 z" id="boundary" inkscape:connector-curvature="0" />
	<path style="fill:none;stroke:red;stroke-width:1px;stroke-linecap:butt;stroke-linejoin:miter;stroke-opacity:1" d="M 788.954,151.89 807.156,165.541 z" id="boundary" inkscape:connector-curvature="0" />
	<path style="fill:none;stroke:red;stroke-width:1px;stroke-linecap:butt;stroke-linejoin:miter;stroke-opacity:1" d="M 825.358,181.468 807.156,165.541 z" id="boundary" inkscape:connector-curvature="0" />
	<path style="fill:none;stroke:red;stroke-width:1px;stroke-linecap:butt;stroke-linejoin:miter;stroke-opacity:1" d="M 859.486,215.596 841.284,199.67 z" id="boundary" inkscape:connector-curvature="0" />
	<path style="fill:none;stroke:red;stroke-width:1px;stroke-linecap:butt;stroke-linejoin:miter;stroke-opacity:1" d="M 841.284,199.67 825.358,181.468 z" id="boundary" inkscape:connector-curvature="0" />
	<path style="fill:none;stroke:red;stroke-width:1px;stroke-linecap:butt;stroke-linejoin:miter;stroke-opacity:1" d="M 875.413,233.798 859.486,215.596 z" id="boundary" inkscape:connector-curvature="0" />
	<path style="fill:none;stroke:red;stroke-width:1px;stroke-linecap:butt;stroke-linejoin:miter;stroke-opacity:1" d="M 893.615,249.725 875.413,233.798 z" id="boundary" inkscape:connector-curvature="0" />
	<path style="fill:none;stroke:red;stroke-width:1px;stroke-linecap:butt;stroke-linejoin:miter;stroke-opacity:1" d="M 996,383.963 984.624,363.486 z" id="boundary" inkscape:connector-curvature="0" />
	<path style="fill:none;stroke:red;stroke-width:1px;stroke-linecap:butt;stroke-linejoin:miter;stroke-opacity:1" d="M 893.615,249.725 902.716,272.477 z" id="boundary" inkscape:connector-curvature="0" />
	<path style="fill:none;stroke:red;stroke-width:1px;stroke-linecap:butt;stroke-linejoin:miter;stroke-opacity:1" d="M 916.367,290.679 916.367,313.431 z" id="boundary" inkscape:connector-curvature="0" />
	<path style="fill:none;stroke:red;stroke-width:1px;stroke-linecap:butt;stroke-linejoin:miter;stroke-opacity:1" d="M 916.367,290.679 902.716,272.477 z" id="boundary" inkscape:connector-curvature="0" />
	<path style="fill:none;stroke:red;stroke-width:1px;stroke-linecap:butt;stroke-linejoin:miter;stroke-opacity:1" d="M 939.119,322.532 916.367,313.431 z" id="boundary" inkscape:connector-curvature="0" />
	<path style="fill:none;stroke:red;stroke-width:1px;stroke-linecap:butt;stroke-linejoin:miter;stroke-opacity:1" d="M 939.119,322.532 961.872,322.532 z" id="boundary" inkscape:connector-curvature="0" />
	<path style="fill:none;stroke:red;stroke-width:1px;stroke-linecap:butt;stroke-linejoin:miter;stroke-opacity:1" d="M 961.872,322.532 973.248,343.009 z" id="boundary" inkscape:connector-curvature="0" />
	<path style="fill:none;stroke:red;stroke-width:1px;stroke-linecap:butt;stroke-linejoin:miter;stroke-opacity:1" d="M 973.248,343.009 984.624,363.486 z" id="boundary" inkscape:connector-curvature="0" />
	<path style="fill:none;stroke:red;stroke-width:1px;stroke-linecap:butt;stroke-linejoin:miter;stroke-opacity:1" d="M 520.477,609.211 500,597.835 z" id="boundary" inkscape:connector-curvature="0" />
	<path style="fill:none;stroke:red;stroke-width:1px;stroke-linecap:butt;stroke-linejoin:miter;stroke-opacity:1" d="M 500,597.835 477.248,606.936 z" id="boundary" inkscape:connector-curvature="0" />
	<path style="fill:none;stroke:red;stroke-width:1px;stroke-linecap:butt;stroke-linejoin:miter;stroke-opacity:1" d="M 431.743,609.211 454.495,609.211 z" id="boundary" inkscape:connector-curvature="0" />
	<path style="fill:none;stroke:red;stroke-width:1px;stroke-linecap:butt;stroke-linejoin:miter;stroke-opacity:1" d="M 543.229,609.211 520.477,609.211 z" id="boundary" inkscape:connector-curvature="0" />
	<path style="fill:none;stroke:red;stroke-width:1px;stroke-linecap:butt;stroke-linejoin:miter;stroke-opacity:1" d="M 454.495,609.211 477.248,606.936 z" id="boundary" inkscape:connector-curvature="0" />
	<path style="fill:none;stroke:red;stroke-width:1px;stroke-linecap:butt;stroke-linejoin:miter;stroke-opacity:1" d="M 565.982,609.211 543.229,609.211 z" id="boundary" inkscape:connector-curvature="0" />
	<path style="fill:none;stroke:red;stroke-width:1px;stroke-linecap:butt;stroke-linejoin:miter;stroke-opacity:1" d="M 565.982,609.211 588.734,609.211 z" id="boundary" inkscape:connector-curvature="0" />
	<path style="fill:none;stroke:red;stroke-width:1px;stroke-linecap:butt;stroke-linejoin:miter;stroke-opacity:1" d="M 588.734,609.211 609.211,620.587 z" id="boundary" inkscape:connector-curvature="0" />
	<path style="fill:none;stroke:red;stroke-width:1px;stroke-linecap:butt;stroke-linejoin:miter;stroke-opacity:1" d="M 631.963,620.587 654.716,620.587 z" id="boundary" inkscape:connector-curvature="0" />
	<path style="fill:none;stroke:red;stroke-width:1px;stroke-linecap:butt;stroke-linejoin:miter;stroke-opacity:1" d="M 631.963,620.587 609.211,620.587 z" id="boundary" inkscape:connector-curvature="0" />
	<path style="fill:none;stroke:red;stroke-width:1px;stroke-linecap:butt;stroke-linejoin:miter;stroke-opacity:1" d="M 745.725,609.211 722.972,609.211 z" id="boundary" inkscape:connector-curvature="0" />
	<path style="fill:none;stroke:red;stroke-width:1px;stroke-linecap:butt;stroke-linejoin:miter;stroke-opacity:1" d="M 768.477,609.211 745.725,609.211 z" id="boundary" inkscape:connector-curvature="0" />
	<path style="fill:none;stroke:red;stroke-width:1px;stroke-linecap:butt;stroke-linejoin:miter;stroke-opacity:1" d="M 654.716,620.587 677.468,620.587 z" id="boundary" inkscape:connector-curvature="0" />
	<path style="fill:none;stroke:red;stroke-width:1px;stroke-linecap:butt;stroke-linejoin:miter;stroke-opacity:1" d="M 700.22,620.587 677.468,620.587 z" id="boundary" inkscape:connector-curvature="0" />
	<path style="fill:none;stroke:red;stroke-width:1px;stroke-linecap:butt;stroke-linejoin:miter;stroke-opacity:1" d="M 700.22,620.587 722.972,609.211 z" id="boundary" inkscape:connector-curvature="0" />
	<path style="fill:none;stroke:red;stroke-width:1px;stroke-linecap:butt;stroke-linejoin:miter;stroke-opacity:1" d="M 768.477,609.211 791.229,609.211 z" id="boundary" inkscape:connector-curvature="0" />
	<path style="fill:none;stroke:red;stroke-width:1px;stroke-linecap:butt;stroke-linejoin:miter;stroke-opacity:1" d="M 932.294,506.826 927.743,484.073 z" id="boundary" inkscape:connector-curvature="0" />
	<path style="fill:none;stroke:red;stroke-width:1px;stroke-linecap:butt;stroke-linejoin:miter;stroke-opacity:1" d="M 932.294,506.826 923.193,536.404 z" id="boundary" inkscape:connector-curvature="0" />
	<path style="fill:none;stroke:red;stroke-width:1px;stroke-linecap:butt;stroke-linejoin:miter;stroke-opacity:1" d="M 996,383.963 996,406.716 z" id="boundary" inkscape:connector-curvature="0" />
	<path style="fill:none;stroke:red;stroke-width:1px;stroke-linecap:butt;stroke-linejoin:miter;stroke-opacity:1" d="M 996,429.468 996,406.716 z" id="boundary" inkscape:connector-curvature="0" />
	<path style="fill:none;stroke:red;stroke-width:1px;stroke-linecap:butt;stroke-linejoin:miter;stroke-opacity:1" d="M 927.743,484.073 950.495,484.073 z" id="boundary" inkscape:connector-curvature="0" />
	<path style="fill:none;stroke:red;stroke-width:1px;stroke-linecap:butt;stroke-linejoin:miter;stroke-opacity:1" d="M 991.45,456.771 973.248,472.697 z" id="boundary" inkscape:connector-curvature="0" />
	<path style="fill:none;stroke:red;stroke-width:1px;stroke-linecap:butt;stroke-linejoin:miter;stroke-opacity:1" d="M 996,429.468 991.45,456.771 z" id="boundary" inkscape:connector-curvature="0" />
	<path style="fill:none;stroke:red;stroke-width:1px;stroke-linecap:butt;stroke-linejoin:miter;stroke-opacity:1" d="M 973.248,472.697 950.495,484.073 z" id="boundary" inkscape:connector-curvature="0" />
	<path style="fill:none;stroke:red;stroke-width:1px;stroke-linecap:butt;stroke-linejoin:miter;stroke-opacity:1" d="M 813.982,609.211 836.734,609.211 z" id="boundary" inkscape:connector-curvature="0" />
	<path style="fill:none;stroke:red;stroke-width:1px;stroke-linecap:butt;stroke-linejoin:miter;stroke-opacity:1" d="M 813.982,609.211 791.229,609.211 z" id="boundary" inkscape:connector-curvature="0" />
	<path style="fill:none;stroke:red;stroke-width:1px;stroke-linecap:butt;stroke-linejoin:miter;stroke-opacity:1" d="M 859.486,609.211 836.734,609.211 z" id="boundary" inkscape:connector-curvature="0" />
	<path style="fill:none;stroke:red;stroke-width:1px;stroke-linecap:butt;stroke-linejoin:miter;stroke-opacity:1" d="M 882.239,597.835 859.486,609.211 z" id="boundary" inkscape:connector-curvature="0" />
	<path style="fill:none;stroke:red;stroke-width:1px;stroke-linecap:butt;stroke-linejoin:miter;stroke-opacity:1" d="M 911.817,559.156 893.615,575.083 z" id="boundary" inkscape:connector-curvature="0" />
	<path style="fill:none;stroke:red;stroke-width:1px;stroke-linecap:butt;stroke-linejoin:miter;stroke-opacity:1" d="M 923.193,536.404 911.817,559.156 z" id="boundary" inkscape:connector-curvature="0" />
	<path style="fill:none;stroke:red;stroke-width:1px;stroke-linecap:butt;stroke-linejoin:miter;stroke-opacity:1" d="M 882.239,597.835 893.615,575.083 z" id="boundary" inkscape:connector-curvature="0" />
	<circle cx="4" cy="295.229" r="4" fill="#0" id="circle0"/>
	<circle cx="4" cy="317.982" r="4" fill="#0" id="circle1"/>
	<circle cx="26.7523" cy="272.477" r="4" fill="#0" id="circle2"/>
	<circle cx="26.7523" cy="324.807" r="4" fill="#0" id="circle3"/>
	<circle cx="26.7523" cy="347.56" r="4" fill="#0" id="circle4"/>
	<circle cx="33.578" cy="370.312" r="4" fill="#0" id="circle5"/>
	<circle cx="38.1284" cy="238.349" r="4" fill="#0" id="circle6"/>
	<circle cx="56.3303" cy="220.147" r="4" fill="#0" id="circle7"/>
	<circle cx="56.3303" cy="379.413" r="4" fill="#0" id="circle8"/>
	<circle cx="67.7064" cy="197.394" r="4" fill="#0" id="circle9"/>
	<circle cx="74.5321" cy="393.064" r="4" fill="#0" id="circle10"/>
	<circle cx="85.9083" cy="179.193" r="4" fill="#0" id="circle11"/>
	<circle cx="97.2844" cy="156.44" r="4" fill="#0" id="circle12"/>
	<circle cx="97.2844" cy="397.615" r="4" fill="#0" id="circle13"/>
	<circle cx="115.486" cy="140.514" r="4" fill="#0" id="circle14"/>
	<circle cx="120.037" cy="404.44" r="4" fill="#0" id="circle15"/>
	<circle cx="135.963" cy="129.138" r="4" fill="#0" id="circle16"/>
	<circle cx="140.514" cy="415.817" r="4" fill="#0" id="circle17"/>
	<circle cx="156.44" cy="117.761" r="4" fill="#0" id="circle18"/>
	<circle cx="160.991" cy="427.193" r="4" fill="#0" id="circle19"/>
	<circle cx="174.642" cy="545.505" r="4" fill="#0" id="circle20"/>
	<circle cx="174.642" cy="568.257" r="4" fill="#0" id="circle21"/>
	<circle cx="176.917" cy="445.394" r="4" fill="#0" id="circle22"/>
	<circle cx="179.193" cy="117.761" r="4" fill="#0" id="circle23"/>
	<circle cx="186.018" cy="468.147" r="4" fill="#0" id="circle24"/>
	<circle cx="192.844" cy="527.303" r="4" fill="#0" id="circle25"/>
	<circle cx="192.844" cy="584.183" r="4" fill="#0" id="circle26"/>
	<circle cx="197.394" cy="10.8257" r="4" fill="#0" id="circle27"/>
	<circle cx="197.394" cy="33.578" r="4" fill="#0" id="circle28"/>
	<circle cx="197.394" cy="56.3303" r="4" fill="#0" id="circle29"/>
	<circle cx="197.394" cy="79.0826" r="4" fill="#0" id="circle30"/>
	<circle cx="197.394" cy="101.835" r="4" fill="#0" id="circle31"/>
	<circle cx="197.394" cy="488.624" r="4" fill="#0" id="circle32"/>
	<circle cx="208.771" cy="509.101" r="4" fill="#0" id="circle33"/>
	<circle cx="211.046" cy="597.835" r="4" fill="#0" id="circle34"/>
	<circle cx="220.147" cy="4" r="4" fill="#0" id="circle35"/>
	<circle cx="233.798" cy="597.835" r="4" fill="#0" id="circle36"/>
	<circle cx="242.899" cy="4" r="4" fill="#0" id="circle37"/>
	<circle cx="254.275" cy="609.211" r="4" fill="#0" id="circle38"/>
	<circle cx="265.651" cy="4" r="4" fill="#0" id="circle39"/>
	<circle cx="274.752" cy="620.587" r="4" fill="#0" id="circle40"/>
	<circle cx="288.404" cy="4" r="4" fill="#0" id="circle41"/>
	<circle cx="297.505" cy="620.587" r="4" fill="#0" id="circle42"/>
	<circle cx="311.156" cy="4" r="4" fill="#0" id="circle43"/>
	<circle cx="320.257" cy="620.587" r="4" fill="#0" id="circle44"/>
	<circle cx="333.908" cy="4" r="4" fill="#0" id="circle45"/>
	<circle cx="336.183" cy="120.037" r="4" fill="#0" id="circle46"/>
	<circle cx="343.009" cy="620.587" r="4" fill="#0" id="circle47"/>
	<circle cx="347.56" cy="140.514" r="4" fill="#0" id="circle48"/>
	<circle cx="356.661" cy="4" r="4" fill="#0" id="circle49"/>
	<circle cx="358.936" cy="120.037" r="4" fill="#0" id="circle50"/>
	<circle cx="365.761" cy="620.587" r="4" fill="#0" id="circle51"/>
	<circle cx="370.312" cy="140.514" r="4" fill="#0" id="circle52"/>
	<circle cx="379.413" cy="4" r="4" fill="#0" id="circle53"/>
	<circle cx="381.688" cy="108.661" r="4" fill="#0" id="circle54"/>
	<circle cx="388.514" cy="620.587" r="4" fill="#0" id="circle55"/>
	<circle cx="393.064" cy="147.339" r="4" fill="#0" id="circle56"/>
	<circle cx="399.89" cy="92.7339" r="4" fill="#0" id="circle57"/>
	<circle cx="402.165" cy="4" r="4" fill="#0" id="circle58"/>
	<circle cx="411.266" cy="620.587" r="4" fill="#0" id="circle59"/>
	<circle cx="413.541" cy="158.716" r="4" fill="#0" id="circle60"/>
	<circle cx="415.817" cy="74.5321" r="4" fill="#0" id="circle61"/>
	<circle cx="424.917" cy="4" r="4" fill="#0" id="circle62"/>
	<circle cx="427.193" cy="29.0275" r="4" fill="#0" id="circle63"/>
	<circle cx="427.193" cy="51.7798" r="4" fill="#0" id="circle64"/>
	<circle cx="431.743" cy="609.211" r="4" fill="#0" id="circle65"/>
	<circle cx="436.294" cy="163.266" r="4" fill="#0" id="circle66"/>
	<circle cx="454.495" cy="609.211" r="4" fill="#0" id="circle67"/>
	<circle cx="456.771" cy="174.642" r="4" fill="#0" id="circle68"/>
	<circle cx="477.248" cy="606.936" r="4" fill="#0" id="circle69"/>
	<circle cx="479.523" cy="174.642" r="4" fill="#0" id="circle70"/>
	<circle cx="500" cy="163.266" r="4" fill="#0" id="circle71"/>
	<circle cx="500" cy="597.835" r="4" fill="#0" id="circle72"/>
	<circle cx="520.477" cy="609.211" r="4" fill="#0" id="circle73"/>
	<circle cx="522.752" cy="151.89" r="4" fill="#0" id="circle74"/>
	<circle cx="543.229" cy="140.514" r="4" fill="#0" id="circle75"/>
	<circle cx="543.229" cy="609.211" r="4" fill="#0" id="circle76"/>
	<circle cx="565.982" cy="131.413" r="4" fill="#0" id="circle77"/>
	<circle cx="565.982" cy="609.211" r="4" fill="#0" id="circle78"/>
	<circle cx="588.734" cy="120.037" r="4" fill="#0" id="circle79"/>
	<circle cx="588.734" cy="609.211" r="4" fill="#0" id="circle80"/>
	<circle cx="609.211" cy="620.587" r="4" fill="#0" id="circle81"/>
	<circle cx="611.486" cy="117.761" r="4" fill="#0" id="circle82"/>
	<circle cx="631.963" cy="620.587" r="4" fill="#0" id="circle83"/>
	<circle cx="634.239" cy="117.761" r="4" fill="#0" id="circle84"/>
	<circle cx="654.716" cy="620.587" r="4" fill="#0" id="circle85"/>
	<circle cx="656.991" cy="117.761" r="4" fill="#0" id="circle86"/>
	<circle cx="677.468" cy="620.587" r="4" fill="#0" id="circle87"/>
	<circle cx="679.743" cy="117.761" r="4" fill="#0" id="circle88"/>
	<circle cx="700.22" cy="620.587" r="4" fill="#0" id="circle89"/>
	<circle cx="702.495" cy="117.761" r="4" fill="#0" id="circle90"/>
	<circle cx="722.972" cy="129.138" r="4" fill="#0" id="circle91"/>
	<circle cx="722.972" cy="609.211" r="4" fill="#0" id="circle92"/>
	<circle cx="745.725" cy="135.963" r="4" fill="#0" id="circle93"/>
	<circle cx="745.725" cy="609.211" r="4" fill="#0" id="circle94"/>
	<circle cx="768.477" cy="140.514" r="4" fill="#0" id="circle95"/>
	<circle cx="768.477" cy="609.211" r="4" fill="#0" id="circle96"/>
	<circle cx="788.954" cy="151.89" r="4" fill="#0" id="circle97"/>
	<circle cx="791.229" cy="609.211" r="4" fill="#0" id="circle98"/>
	<circle cx="807.156" cy="165.541" r="4" fill="#0" id="circle99"/>
	<circle cx="813.982" cy="609.211" r="4" fill="#0" id="circle100"/>
	<circle cx="825.358" cy="181.468" r="4" fill="#0" id="circle101"/>
	<circle cx="836.734" cy="609.211" r="4" fill="#0" id="circle102"/>
	<circle cx="841.284" cy="199.67" r="4" fill="#0" id="circle103"/>
	<circle cx="859.486" cy="215.596" r="4" fill="#0" id="circle104"/>
	<circle cx="859.486" cy="609.211" r="4" fill="#0" id="circle105"/>
	<circle cx="875.413" cy="233.798" r="4" fill="#0" id="circle106"/>
	<circle cx="882.239" cy="597.835" r="4" fill="#0" id="circle107"/>
	<circle cx="893.615" cy="249.725" r="4" fill="#0" id="circle108"/>
	<circle cx="893.615" cy="575.083" r="4" fill="#0" id="circle109"/>
	<circle cx="902.716" cy="272.477" r="4" fill="#0" id="circle110"/>
	<circle cx="911.817" cy="559.156" r="4" fill="#0" id="circle111"/>
	<circle cx="916.367" cy="290.679" r="4" fill="#0" id="circle112"/>
	<circle cx="916.367" cy="313.431" r="4" fill="#0" id="circle113"/>
	<circle cx="923.193" cy="536.404" r="4" fill="#0" id="circle114"/>
	<circle cx="927.743" cy="484.073" r="4" fill="#0" id="circle115"/>
	<circle cx="932.294" cy="506.826" r="4" fill="#0" id="circle116"/>
	<circle cx="939.119" cy="322.532" r="4" fill="#0" id="circle117"/>
	<circle cx="950.495" cy="484.073" r="4" fill="#0" id="circle118"/>
	<circle cx="961.872" cy="322.532" r="4" fill="#0" id="circle119"/>
	<circle cx="973.248" cy="343.009" r="4" fill="#0" id="circle120"/>
	<circle cx="973.248" cy="472.697" r="4" fill="#0" id="circle121"/>
	<circle cx="984.624" cy="363.486" r="4" fill="#0" id="circle122"/>
	<circle cx="991.45" cy="456.771" r="4" fill="#0" id="circle123"/>
	<circle cx="996" cy="383.963" r="4" fill="#0" id="circle124"/>
	<circle cx="996" cy="406.716" r="4" fill="#0" id="circle125"/>
	<circle cx="996" cy="429.468" r="4" fill="#0" id="circle126"/>
	</g>
</svg>