<?xml version="1.0" encoding="UTF-8" standalone="no"?>
<!-- Created with CurveBenchmark -->
<svg
	xmlns:dc="http://purl.org/dc/elements/1.1/"
	xmlns:cc="http://creativecommons.org/ns#"
	xmlns:rdf="http://www.w3.org/1999/02/22-rdf-syntax-ns#"
	xmlns:svg="http://www.w3.org/2000/svg"
	xmlns="http://www.w3.org/2000/svg"
	xmlns:sodipodi="http://sodipodi.sourceforge.net/DTD/sodipodi-0.dtd"
	xmlns:inkscape="http://www.inkscape.org/namespaces/inkscape"
	width="1000"
	height="1000"
	id="svg2"
	version="1.1"
	sodipodi:docname="manifold/crust-harrieraff1.png.txt">
<defs
	id="defs4" />
<metadata
	id="metadata7">
	<rdf:RDF>
		<cc:Work
			rdf:about="">
			<dc:format>image/svg+xml</dc:format>
			<dc:type
				rdf:resource="http://purl.org/dc/dcmitype/StillImage" />
			<dc:title></dc:title>
		</cc:Work>
	</rdf:RDF>
</metadata>
<g
	inkscape:label="Layer 1"
	inkscape:groupmode="layer"
	id="layer1">
	<path style="fill:none;stroke:red;stroke-width:1px;stroke-linecap:butt;stroke-linejoin:miter;stroke-opacity:1" d="M 138.112,4 116.824,14.6438 z" id="boundary" inkscape:connector-curvature="0" />
	<path style="fill:none;stroke:red;stroke-width:1px;stroke-linecap:butt;stroke-linejoin:miter;stroke-opacity:1" d="M 116.824,46.5751 99.794,31.6738 z" id="boundary" inkscape:connector-curvature="0" />
	<path style="fill:none;stroke:red;stroke-width:1px;stroke-linecap:butt;stroke-linejoin:miter;stroke-opacity:1" d="M 99.794,31.6738 116.824,14.6438 z" id="boundary" inkscape:connector-curvature="0" />
	<path style="fill:none;stroke:red;stroke-width:1px;stroke-linecap:butt;stroke-linejoin:miter;stroke-opacity:1" d="M 178.558,14.6438 159.399,4 z" id="boundary" inkscape:connector-curvature="0" />
	<path style="fill:none;stroke:red;stroke-width:1px;stroke-linecap:butt;stroke-linejoin:miter;stroke-opacity:1" d="M 138.112,4 159.399,4 z" id="boundary" inkscape:connector-curvature="0" />
	<path style="fill:none;stroke:red;stroke-width:1px;stroke-linecap:butt;stroke-linejoin:miter;stroke-opacity:1" d="M 148.755,78.5064 131.725,63.6052 z" id="boundary" inkscape:connector-curvature="0" />
	<path style="fill:none;stroke:red;stroke-width:1px;stroke-linecap:butt;stroke-linejoin:miter;stroke-opacity:1" d="M 116.824,46.5751 131.725,63.6052 z" id="boundary" inkscape:connector-curvature="0" />
	<path style="fill:none;stroke:red;stroke-width:1px;stroke-linecap:butt;stroke-linejoin:miter;stroke-opacity:1" d="M 165.785,91.279 184.944,101.923 z" id="boundary" inkscape:connector-curvature="0" />
	<path style="fill:none;stroke:red;stroke-width:1px;stroke-linecap:butt;stroke-linejoin:miter;stroke-opacity:1" d="M 148.755,78.5064 165.785,91.279 z" id="boundary" inkscape:connector-curvature="0" />
	<path style="fill:none;stroke:red;stroke-width:1px;stroke-linecap:butt;stroke-linejoin:miter;stroke-opacity:1" d="M 178.558,14.6438 199.845,14.6438 z" id="boundary" inkscape:connector-curvature="0" />
	<path style="fill:none;stroke:red;stroke-width:1px;stroke-linecap:butt;stroke-linejoin:miter;stroke-opacity:1" d="M 219.004,25.2876 199.845,14.6438 z" id="boundary" inkscape:connector-curvature="0" />
	<path style="fill:none;stroke:red;stroke-width:1px;stroke-linecap:butt;stroke-linejoin:miter;stroke-opacity:1" d="M 219.004,25.2876 240.292,25.2876 z" id="boundary" inkscape:connector-curvature="0" />
	<path style="fill:none;stroke:red;stroke-width:1px;stroke-linecap:butt;stroke-linejoin:miter;stroke-opacity:1" d="M 184.944,101.923 195.588,121.082 z" id="boundary" inkscape:connector-curvature="0" />
	<path style="fill:none;stroke:red;stroke-width:1px;stroke-linecap:butt;stroke-linejoin:miter;stroke-opacity:1" d="M 229.648,148.755 212.618,133.854 z" id="boundary" inkscape:connector-curvature="0" />
	<path style="fill:none;stroke:red;stroke-width:1px;stroke-linecap:butt;stroke-linejoin:miter;stroke-opacity:1" d="M 212.618,133.854 195.588,121.082 z" id="boundary" inkscape:connector-curvature="0" />
	<path style="fill:none;stroke:red;stroke-width:1px;stroke-linecap:butt;stroke-linejoin:miter;stroke-opacity:1" d="M 4,340.343 4,319.056 z" id="boundary" inkscape:connector-curvature="0" />
	<path style="fill:none;stroke:red;stroke-width:1px;stroke-linecap:butt;stroke-linejoin:miter;stroke-opacity:1" d="M 4,319.056 25.2876,312.67 z" id="boundary" inkscape:connector-curvature="0" />
	<path style="fill:none;stroke:red;stroke-width:1px;stroke-linecap:butt;stroke-linejoin:miter;stroke-opacity:1" d="M 21.03,355.245 4,340.343 z" id="boundary" inkscape:connector-curvature="0" />
	<path style="fill:none;stroke:red;stroke-width:1px;stroke-linecap:butt;stroke-linejoin:miter;stroke-opacity:1" d="M 65.7339,325.442 44.4464,323.313 z" id="boundary" inkscape:connector-curvature="0" />
	<path style="fill:none;stroke:red;stroke-width:1px;stroke-linecap:butt;stroke-linejoin:miter;stroke-opacity:1" d="M 25.2876,312.67 44.4464,323.313 z" id="boundary" inkscape:connector-curvature="0" />
	<path style="fill:none;stroke:red;stroke-width:1px;stroke-linecap:butt;stroke-linejoin:miter;stroke-opacity:1" d="M 80.6352,342.472 65.7339,325.442 z" id="boundary" inkscape:connector-curvature="0" />
	<path style="fill:none;stroke:red;stroke-width:1px;stroke-linecap:butt;stroke-linejoin:miter;stroke-opacity:1" d="M 244.549,165.785 244.549,195.588 z" id="boundary" inkscape:connector-curvature="0" />
	<path style="fill:none;stroke:red;stroke-width:1px;stroke-linecap:butt;stroke-linejoin:miter;stroke-opacity:1" d="M 244.549,165.785 229.648,148.755 z" id="boundary" inkscape:connector-curvature="0" />
	<path style="fill:none;stroke:red;stroke-width:1px;stroke-linecap:butt;stroke-linejoin:miter;stroke-opacity:1" d="M 238.163,231.777 227.519,212.618 z" id="boundary" inkscape:connector-curvature="0" />
	<path style="fill:none;stroke:red;stroke-width:1px;stroke-linecap:butt;stroke-linejoin:miter;stroke-opacity:1" d="M 244.549,195.588 227.519,212.618 z" id="boundary" inkscape:connector-curvature="0" />
	<path style="fill:none;stroke:red;stroke-width:1px;stroke-linecap:butt;stroke-linejoin:miter;stroke-opacity:1" d="M 238.163,231.777 259.451,240.292 z" id="boundary" inkscape:connector-curvature="0" />
	<path style="fill:none;stroke:red;stroke-width:1px;stroke-linecap:butt;stroke-linejoin:miter;stroke-opacity:1" d="M 240.292,25.2876 261.579,25.2876 z" id="boundary" inkscape:connector-curvature="0" />
	<path style="fill:none;stroke:red;stroke-width:1px;stroke-linecap:butt;stroke-linejoin:miter;stroke-opacity:1" d="M 261.579,25.2876 280.738,14.6438 z" id="boundary" inkscape:connector-curvature="0" />
	<path style="fill:none;stroke:red;stroke-width:1px;stroke-linecap:butt;stroke-linejoin:miter;stroke-opacity:1" d="M 272.223,44.4464 261.579,25.2876 z" id="boundary" inkscape:connector-curvature="0" />
	<path style="fill:none;stroke:red;stroke-width:1px;stroke-linecap:butt;stroke-linejoin:miter;stroke-opacity:1" d="M 280.738,14.6438 302.026,8.25751 z" id="boundary" inkscape:connector-curvature="0" />
	<path style="fill:none;stroke:red;stroke-width:1px;stroke-linecap:butt;stroke-linejoin:miter;stroke-opacity:1" d="M 272.223,44.4464 289.253,59.3476 z" id="boundary" inkscape:connector-curvature="0" />
	<path style="fill:none;stroke:red;stroke-width:1px;stroke-linecap:butt;stroke-linejoin:miter;stroke-opacity:1" d="M 310.541,67.8627 289.253,59.3476 z" id="boundary" inkscape:connector-curvature="0" />
	<path style="fill:none;stroke:red;stroke-width:1px;stroke-linecap:butt;stroke-linejoin:miter;stroke-opacity:1" d="M 331.828,67.8627 310.541,67.8627 z" id="boundary" inkscape:connector-curvature="0" />
	<path style="fill:none;stroke:red;stroke-width:1px;stroke-linecap:butt;stroke-linejoin:miter;stroke-opacity:1" d="M 357.373,78.5064 350.987,57.2189 z" id="boundary" inkscape:connector-curvature="0" />
	<path style="fill:none;stroke:red;stroke-width:1px;stroke-linecap:butt;stroke-linejoin:miter;stroke-opacity:1" d="M 350.987,57.2189 331.828,67.8627 z" id="boundary" inkscape:connector-curvature="0" />
	<path style="fill:none;stroke:red;stroke-width:1px;stroke-linecap:butt;stroke-linejoin:miter;stroke-opacity:1" d="M 357.373,78.5064 368.017,97.6652 z" id="boundary" inkscape:connector-curvature="0" />
	<path style="fill:none;stroke:red;stroke-width:1px;stroke-linecap:butt;stroke-linejoin:miter;stroke-opacity:1" d="M 385.047,110.438 368.017,97.6652 z" id="boundary" inkscape:connector-curvature="0" />
	<path style="fill:none;stroke:red;stroke-width:1px;stroke-linecap:butt;stroke-linejoin:miter;stroke-opacity:1" d="M 404.206,121.082 385.047,110.438 z" id="boundary" inkscape:connector-curvature="0" />
	<path style="fill:none;stroke:red;stroke-width:1px;stroke-linecap:butt;stroke-linejoin:miter;stroke-opacity:1" d="M 446.781,110.438 425.494,121.082 z" id="boundary" inkscape:connector-curvature="0" />
	<path style="fill:none;stroke:red;stroke-width:1px;stroke-linecap:butt;stroke-linejoin:miter;stroke-opacity:1" d="M 465.94,99.794 446.781,110.438 z" id="boundary" inkscape:connector-curvature="0" />
	<path style="fill:none;stroke:red;stroke-width:1px;stroke-linecap:butt;stroke-linejoin:miter;stroke-opacity:1" d="M 272.223,257.322 259.451,240.292 z" id="boundary" inkscape:connector-curvature="0" />
	<path style="fill:none;stroke:red;stroke-width:1px;stroke-linecap:butt;stroke-linejoin:miter;stroke-opacity:1" d="M 314.798,255.193 293.511,250.936 z" id="boundary" inkscape:connector-curvature="0" />
	<path style="fill:none;stroke:red;stroke-width:1px;stroke-linecap:butt;stroke-linejoin:miter;stroke-opacity:1" d="M 293.511,250.936 272.223,257.322 z" id="boundary" inkscape:connector-curvature="0" />
	<path style="fill:none;stroke:red;stroke-width:1px;stroke-linecap:butt;stroke-linejoin:miter;stroke-opacity:1" d="M 331.828,323.313 314.798,338.215 z" id="boundary" inkscape:connector-curvature="0" />
	<path style="fill:none;stroke:red;stroke-width:1px;stroke-linecap:butt;stroke-linejoin:miter;stroke-opacity:1" d="M 314.798,255.193 329.7,272.223 z" id="boundary" inkscape:connector-curvature="0" />
	<path style="fill:none;stroke:red;stroke-width:1px;stroke-linecap:butt;stroke-linejoin:miter;stroke-opacity:1" d="M 404.206,121.082 425.494,121.082 z" id="boundary" inkscape:connector-curvature="0" />
	<path style="fill:none;stroke:red;stroke-width:1px;stroke-linecap:butt;stroke-linejoin:miter;stroke-opacity:1" d="M 344.601,289.253 331.828,323.313 z" id="boundary" inkscape:connector-curvature="0" />
	<path style="fill:none;stroke:red;stroke-width:1px;stroke-linecap:butt;stroke-linejoin:miter;stroke-opacity:1" d="M 344.601,289.253 329.7,272.223 z" id="boundary" inkscape:connector-curvature="0" />
	<path style="fill:none;stroke:red;stroke-width:1px;stroke-linecap:butt;stroke-linejoin:miter;stroke-opacity:1" d="M 314.798,338.215 293.511,348.858 z" id="boundary" inkscape:connector-curvature="0" />
	<path style="fill:none;stroke:red;stroke-width:1px;stroke-linecap:butt;stroke-linejoin:miter;stroke-opacity:1" d="M 21.03,355.245 40.1888,365.888 z" id="boundary" inkscape:connector-curvature="0" />
	<path style="fill:none;stroke:red;stroke-width:1px;stroke-linecap:butt;stroke-linejoin:miter;stroke-opacity:1" d="M 101.923,344.601 80.6352,342.472 z" id="boundary" inkscape:connector-curvature="0" />
	<path style="fill:none;stroke:red;stroke-width:1px;stroke-linecap:butt;stroke-linejoin:miter;stroke-opacity:1" d="M 57.2189,378.661 40.1888,365.888 z" id="boundary" inkscape:connector-curvature="0" />
	<path style="fill:none;stroke:red;stroke-width:1px;stroke-linecap:butt;stroke-linejoin:miter;stroke-opacity:1" d="M 57.2189,378.661 69.9914,395.691 z" id="boundary" inkscape:connector-curvature="0" />
	<path style="fill:none;stroke:red;stroke-width:1px;stroke-linecap:butt;stroke-linejoin:miter;stroke-opacity:1" d="M 87.0215,410.592 69.9914,395.691 z" id="boundary" inkscape:connector-curvature="0" />
	<path style="fill:none;stroke:red;stroke-width:1px;stroke-linecap:butt;stroke-linejoin:miter;stroke-opacity:1" d="M 101.923,344.601 121.082,355.245 z" id="boundary" inkscape:connector-curvature="0" />
	<path style="fill:none;stroke:red;stroke-width:1px;stroke-linecap:butt;stroke-linejoin:miter;stroke-opacity:1" d="M 121.082,355.245 140.24,365.888 z" id="boundary" inkscape:connector-curvature="0" />
	<path style="fill:none;stroke:red;stroke-width:1px;stroke-linecap:butt;stroke-linejoin:miter;stroke-opacity:1" d="M 140.24,365.888 159.399,376.532 z" id="boundary" inkscape:connector-curvature="0" />
	<path style="fill:none;stroke:red;stroke-width:1px;stroke-linecap:butt;stroke-linejoin:miter;stroke-opacity:1" d="M 199.845,387.176 178.558,387.176 z" id="boundary" inkscape:connector-curvature="0" />
	<path style="fill:none;stroke:red;stroke-width:1px;stroke-linecap:butt;stroke-linejoin:miter;stroke-opacity:1" d="M 219.004,397.82 199.845,387.176 z" id="boundary" inkscape:connector-curvature="0" />
	<path style="fill:none;stroke:red;stroke-width:1px;stroke-linecap:butt;stroke-linejoin:miter;stroke-opacity:1" d="M 159.399,376.532 178.558,387.176 z" id="boundary" inkscape:connector-curvature="0" />
	<path style="fill:none;stroke:red;stroke-width:1px;stroke-linecap:butt;stroke-linejoin:miter;stroke-opacity:1" d="M 240.292,391.433 219.004,397.82 z" id="boundary" inkscape:connector-curvature="0" />
	<path style="fill:none;stroke:red;stroke-width:1px;stroke-linecap:butt;stroke-linejoin:miter;stroke-opacity:1" d="M 112.567,446.781 101.923,427.622 z" id="boundary" inkscape:connector-curvature="0" />
	<path style="fill:none;stroke:red;stroke-width:1px;stroke-linecap:butt;stroke-linejoin:miter;stroke-opacity:1" d="M 101.923,427.622 87.0215,410.592 z" id="boundary" inkscape:connector-curvature="0" />
	<path style="fill:none;stroke:red;stroke-width:1px;stroke-linecap:butt;stroke-linejoin:miter;stroke-opacity:1" d="M 112.567,446.781 110.438,468.069 z" id="boundary" inkscape:connector-curvature="0" />
	<path style="fill:none;stroke:red;stroke-width:1px;stroke-linecap:butt;stroke-linejoin:miter;stroke-opacity:1" d="M 89.1502,478.712 110.438,468.069 z" id="boundary" inkscape:connector-curvature="0" />
	<path style="fill:none;stroke:red;stroke-width:1px;stroke-linecap:butt;stroke-linejoin:miter;stroke-opacity:1" d="M 106.18,493.614 89.1502,478.712 z" id="boundary" inkscape:connector-curvature="0" />
	<path style="fill:none;stroke:red;stroke-width:1px;stroke-linecap:butt;stroke-linejoin:miter;stroke-opacity:1" d="M 127.468,495.742 106.18,493.614 z" id="boundary" inkscape:connector-curvature="0" />
	<path style="fill:none;stroke:red;stroke-width:1px;stroke-linecap:butt;stroke-linejoin:miter;stroke-opacity:1" d="M 146.627,485.099 127.468,495.742 z" id="boundary" inkscape:connector-curvature="0" />
	<path style="fill:none;stroke:red;stroke-width:1px;stroke-linecap:butt;stroke-linejoin:miter;stroke-opacity:1" d="M 146.627,485.099 163.657,497.871 z" id="boundary" inkscape:connector-curvature="0" />
	<path style="fill:none;stroke:red;stroke-width:1px;stroke-linecap:butt;stroke-linejoin:miter;stroke-opacity:1" d="M 178.558,514.901 163.657,497.871 z" id="boundary" inkscape:connector-curvature="0" />
	<path style="fill:none;stroke:red;stroke-width:1px;stroke-linecap:butt;stroke-linejoin:miter;stroke-opacity:1" d="M 178.558,514.901 189.202,534.06 z" id="boundary" inkscape:connector-curvature="0" />
	<path style="fill:none;stroke:red;stroke-width:1px;stroke-linecap:butt;stroke-linejoin:miter;stroke-opacity:1" d="M 206.232,548.961 189.202,534.06 z" id="boundary" inkscape:connector-curvature="0" />
	<path style="fill:none;stroke:red;stroke-width:1px;stroke-linecap:butt;stroke-linejoin:miter;stroke-opacity:1" d="M 216.876,568.12 206.232,548.961 z" id="boundary" inkscape:connector-curvature="0" />
	<path style="fill:none;stroke:red;stroke-width:1px;stroke-linecap:butt;stroke-linejoin:miter;stroke-opacity:1" d="M 229.648,585.15 216.876,568.12 z" id="boundary" inkscape:connector-curvature="0" />
	<path style="fill:none;stroke:red;stroke-width:1px;stroke-linecap:butt;stroke-linejoin:miter;stroke-opacity:1" d="M 229.648,585.15 244.549,602.18 z" id="boundary" inkscape:connector-curvature="0" />
	<path style="fill:none;stroke:red;stroke-width:1px;stroke-linecap:butt;stroke-linejoin:miter;stroke-opacity:1" d="M 276.481,365.888 257.322,376.532 z" id="boundary" inkscape:connector-curvature="0" />
	<path style="fill:none;stroke:red;stroke-width:1px;stroke-linecap:butt;stroke-linejoin:miter;stroke-opacity:1" d="M 240.292,391.433 257.322,376.532 z" id="boundary" inkscape:connector-curvature="0" />
	<path style="fill:none;stroke:red;stroke-width:1px;stroke-linecap:butt;stroke-linejoin:miter;stroke-opacity:1" d="M 333.957,446.781 312.67,453.167 z" id="boundary" inkscape:connector-curvature="0" />
	<path style="fill:none;stroke:red;stroke-width:1px;stroke-linecap:butt;stroke-linejoin:miter;stroke-opacity:1" d="M 276.481,365.888 293.511,348.858 z" id="boundary" inkscape:connector-curvature="0" />
	<path style="fill:none;stroke:red;stroke-width:1px;stroke-linecap:butt;stroke-linejoin:miter;stroke-opacity:1" d="M 272.223,463.811 272.223,485.099 z" id="boundary" inkscape:connector-curvature="0" />
	<path style="fill:none;stroke:red;stroke-width:1px;stroke-linecap:butt;stroke-linejoin:miter;stroke-opacity:1" d="M 291.382,453.167 272.223,463.811 z" id="boundary" inkscape:connector-curvature="0" />
	<path style="fill:none;stroke:red;stroke-width:1px;stroke-linecap:butt;stroke-linejoin:miter;stroke-opacity:1" d="M 272.223,485.099 272.223,506.386 z" id="boundary" inkscape:connector-curvature="0" />
	<path style="fill:none;stroke:red;stroke-width:1px;stroke-linecap:butt;stroke-linejoin:miter;stroke-opacity:1" d="M 291.382,453.167 312.67,453.167 z" id="boundary" inkscape:connector-curvature="0" />
	<path style="fill:none;stroke:red;stroke-width:1px;stroke-linecap:butt;stroke-linejoin:miter;stroke-opacity:1" d="M 374.403,431.88 395.691,431.88 z" id="boundary" inkscape:connector-curvature="0" />
	<path style="fill:none;stroke:red;stroke-width:1px;stroke-linecap:butt;stroke-linejoin:miter;stroke-opacity:1" d="M 416.979,431.88 395.691,431.88 z" id="boundary" inkscape:connector-curvature="0" />
	<path style="fill:none;stroke:red;stroke-width:1px;stroke-linecap:butt;stroke-linejoin:miter;stroke-opacity:1" d="M 438.266,431.88 416.979,431.88 z" id="boundary" inkscape:connector-curvature="0" />
	<path style="fill:none;stroke:red;stroke-width:1px;stroke-linecap:butt;stroke-linejoin:miter;stroke-opacity:1" d="M 374.403,431.88 355.245,442.524 z" id="boundary" inkscape:connector-curvature="0" />
	<path style="fill:none;stroke:red;stroke-width:1px;stroke-linecap:butt;stroke-linejoin:miter;stroke-opacity:1" d="M 333.957,446.781 355.245,442.524 z" id="boundary" inkscape:connector-curvature="0" />
	<path style="fill:none;stroke:red;stroke-width:1px;stroke-linecap:butt;stroke-linejoin:miter;stroke-opacity:1" d="M 438.266,431.88 457.425,442.524 z" id="boundary" inkscape:connector-curvature="0" />
	<path style="fill:none;stroke:red;stroke-width:1px;stroke-linecap:butt;stroke-linejoin:miter;stroke-opacity:1" d="M 272.223,527.674 272.223,548.961 z" id="boundary" inkscape:connector-curvature="0" />
	<path style="fill:none;stroke:red;stroke-width:1px;stroke-linecap:butt;stroke-linejoin:miter;stroke-opacity:1" d="M 282.867,591.536 276.481,570.249 z" id="boundary" inkscape:connector-curvature="0" />
	<path style="fill:none;stroke:red;stroke-width:1px;stroke-linecap:butt;stroke-linejoin:miter;stroke-opacity:1" d="M 272.223,548.961 276.481,570.249 z" id="boundary" inkscape:connector-curvature="0" />
	<path style="fill:none;stroke:red;stroke-width:1px;stroke-linecap:butt;stroke-linejoin:miter;stroke-opacity:1" d="M 272.223,506.386 272.223,527.674 z" id="boundary" inkscape:connector-curvature="0" />
	<path style="fill:none;stroke:red;stroke-width:1px;stroke-linecap:butt;stroke-linejoin:miter;stroke-opacity:1" d="M 255.193,621.339 244.549,602.18 z" id="boundary" inkscape:connector-curvature="0" />
	<path style="fill:none;stroke:red;stroke-width:1px;stroke-linecap:butt;stroke-linejoin:miter;stroke-opacity:1" d="M 255.193,621.339 276.481,621.339 z" id="boundary" inkscape:connector-curvature="0" />
	<path style="fill:none;stroke:red;stroke-width:1px;stroke-linecap:butt;stroke-linejoin:miter;stroke-opacity:1" d="M 282.867,591.536 276.481,621.339 z" id="boundary" inkscape:connector-curvature="0" />
	<path style="fill:none;stroke:red;stroke-width:1px;stroke-linecap:butt;stroke-linejoin:miter;stroke-opacity:1" d="M 457.425,442.524 472.326,459.554 z" id="boundary" inkscape:connector-curvature="0" />
	<path style="fill:none;stroke:red;stroke-width:1px;stroke-linecap:butt;stroke-linejoin:miter;stroke-opacity:1" d="M 508.515,89.1502 487.227,91.279 z" id="boundary" inkscape:connector-curvature="0" />
	<path style="fill:none;stroke:red;stroke-width:1px;stroke-linecap:butt;stroke-linejoin:miter;stroke-opacity:1" d="M 527.674,78.5064 508.515,89.1502 z" id="boundary" inkscape:connector-curvature="0" />
	<path style="fill:none;stroke:red;stroke-width:1px;stroke-linecap:butt;stroke-linejoin:miter;stroke-opacity:1" d="M 465.94,99.794 487.227,91.279 z" id="boundary" inkscape:connector-curvature="0" />
	<path style="fill:none;stroke:red;stroke-width:1px;stroke-linecap:butt;stroke-linejoin:miter;stroke-opacity:1" d="M 548.961,78.5064 527.674,78.5064 z" id="boundary" inkscape:connector-curvature="0" />
	<path style="fill:none;stroke:red;stroke-width:1px;stroke-linecap:butt;stroke-linejoin:miter;stroke-opacity:1" d="M 570.249,78.5064 548.961,78.5064 z" id="boundary" inkscape:connector-curvature="0" />
	<path style="fill:none;stroke:red;stroke-width:1px;stroke-linecap:butt;stroke-linejoin:miter;stroke-opacity:1" d="M 546.833,133.854 527.674,144.498 z" id="boundary" inkscape:connector-curvature="0" />
	<path style="fill:none;stroke:red;stroke-width:1px;stroke-linecap:butt;stroke-linejoin:miter;stroke-opacity:1" d="M 563.863,121.082 546.833,133.854 z" id="boundary" inkscape:connector-curvature="0" />
	<path style="fill:none;stroke:red;stroke-width:1px;stroke-linecap:butt;stroke-linejoin:miter;stroke-opacity:1" d="M 527.674,144.498 506.386,155.142 z" id="boundary" inkscape:connector-curvature="0" />
	<path style="fill:none;stroke:red;stroke-width:1px;stroke-linecap:butt;stroke-linejoin:miter;stroke-opacity:1" d="M 580.893,97.6652 570.249,78.5064 z" id="boundary" inkscape:connector-curvature="0" />
	<path style="fill:none;stroke:red;stroke-width:1px;stroke-linecap:butt;stroke-linejoin:miter;stroke-opacity:1" d="M 580.893,97.6652 563.863,121.082 z" id="boundary" inkscape:connector-curvature="0" />
	<path style="fill:none;stroke:red;stroke-width:1px;stroke-linecap:butt;stroke-linejoin:miter;stroke-opacity:1" d="M 697.974,131.725 719.262,131.725 z" id="boundary" inkscape:connector-curvature="0" />
	<path style="fill:none;stroke:red;stroke-width:1px;stroke-linecap:butt;stroke-linejoin:miter;stroke-opacity:1" d="M 697.974,131.725 676.687,135.983 z" id="boundary" inkscape:connector-curvature="0" />
	<path style="fill:none;stroke:red;stroke-width:1px;stroke-linecap:butt;stroke-linejoin:miter;stroke-opacity:1" d="M 676.687,135.983 655.399,146.627 z" id="boundary" inkscape:connector-curvature="0" />
	<path style="fill:none;stroke:red;stroke-width:1px;stroke-linecap:butt;stroke-linejoin:miter;stroke-opacity:1" d="M 740.549,138.112 719.262,131.725 z" id="boundary" inkscape:connector-curvature="0" />
	<path style="fill:none;stroke:red;stroke-width:1px;stroke-linecap:butt;stroke-linejoin:miter;stroke-opacity:1" d="M 749.064,159.399 740.549,138.112 z" id="boundary" inkscape:connector-curvature="0" />
	<path style="fill:none;stroke:red;stroke-width:1px;stroke-linecap:butt;stroke-linejoin:miter;stroke-opacity:1" d="M 517.03,174.3 506.386,155.142 z" id="boundary" inkscape:connector-curvature="0" />
	<path style="fill:none;stroke:red;stroke-width:1px;stroke-linecap:butt;stroke-linejoin:miter;stroke-opacity:1" d="M 536.189,184.944 517.03,174.3 z" id="boundary" inkscape:connector-curvature="0" />
	<path style="fill:none;stroke:red;stroke-width:1px;stroke-linecap:butt;stroke-linejoin:miter;stroke-opacity:1" d="M 576.635,174.3 557.476,184.944 z" id="boundary" inkscape:connector-curvature="0" />
	<path style="fill:none;stroke:red;stroke-width:1px;stroke-linecap:butt;stroke-linejoin:miter;stroke-opacity:1" d="M 557.476,184.944 536.189,184.944 z" id="boundary" inkscape:connector-curvature="0" />
	<path style="fill:none;stroke:red;stroke-width:1px;stroke-linecap:butt;stroke-linejoin:miter;stroke-opacity:1" d="M 576.635,174.3 597.923,174.3 z" id="boundary" inkscape:connector-curvature="0" />
	<path style="fill:none;stroke:red;stroke-width:1px;stroke-linecap:butt;stroke-linejoin:miter;stroke-opacity:1" d="M 638.369,163.657 617.082,163.657 z" id="boundary" inkscape:connector-curvature="0" />
	<path style="fill:none;stroke:red;stroke-width:1px;stroke-linecap:butt;stroke-linejoin:miter;stroke-opacity:1" d="M 617.082,163.657 597.923,174.3 z" id="boundary" inkscape:connector-curvature="0" />
	<path style="fill:none;stroke:red;stroke-width:1px;stroke-linecap:butt;stroke-linejoin:miter;stroke-opacity:1" d="M 638.369,163.657 655.399,146.627 z" id="boundary" inkscape:connector-curvature="0" />
	<path style="fill:none;stroke:red;stroke-width:1px;stroke-linecap:butt;stroke-linejoin:miter;stroke-opacity:1" d="M 910.85,114.695 889.562,121.082 z" id="boundary" inkscape:connector-curvature="0" />
	<path style="fill:none;stroke:red;stroke-width:1px;stroke-linecap:butt;stroke-linejoin:miter;stroke-opacity:1" d="M 889.562,121.082 870.403,131.725 z" id="boundary" inkscape:connector-curvature="0" />
	<path style="fill:none;stroke:red;stroke-width:1px;stroke-linecap:butt;stroke-linejoin:miter;stroke-opacity:1" d="M 749.064,159.399 770.352,163.657 z" id="boundary" inkscape:connector-curvature="0" />
	<path style="fill:none;stroke:red;stroke-width:1px;stroke-linecap:butt;stroke-linejoin:miter;stroke-opacity:1" d="M 791.639,163.657 770.352,163.657 z" id="boundary" inkscape:connector-curvature="0" />
	<path style="fill:none;stroke:red;stroke-width:1px;stroke-linecap:butt;stroke-linejoin:miter;stroke-opacity:1" d="M 851.245,142.369 829.957,142.369 z" id="boundary" inkscape:connector-curvature="0" />
	<path style="fill:none;stroke:red;stroke-width:1px;stroke-linecap:butt;stroke-linejoin:miter;stroke-opacity:1" d="M 791.639,163.657 810.798,153.013 z" id="boundary" inkscape:connector-curvature="0" />
	<path style="fill:none;stroke:red;stroke-width:1px;stroke-linecap:butt;stroke-linejoin:miter;stroke-opacity:1" d="M 810.798,153.013 829.957,142.369 z" id="boundary" inkscape:connector-curvature="0" />
	<path style="fill:none;stroke:red;stroke-width:1px;stroke-linecap:butt;stroke-linejoin:miter;stroke-opacity:1" d="M 851.245,142.369 870.403,131.725 z" id="boundary" inkscape:connector-curvature="0" />
	<path style="fill:none;stroke:red;stroke-width:1px;stroke-linecap:butt;stroke-linejoin:miter;stroke-opacity:1" d="M 953.425,110.438 932.137,110.438 z" id="boundary" inkscape:connector-curvature="0" />
	<path style="fill:none;stroke:red;stroke-width:1px;stroke-linecap:butt;stroke-linejoin:miter;stroke-opacity:1" d="M 910.85,114.695 932.137,110.438 z" id="boundary" inkscape:connector-curvature="0" />
	<path style="fill:none;stroke:red;stroke-width:1px;stroke-linecap:butt;stroke-linejoin:miter;stroke-opacity:1" d="M 974.712,110.438 953.425,110.438 z" id="boundary" inkscape:connector-curvature="0" />
	<path style="fill:none;stroke:red;stroke-width:1px;stroke-linecap:butt;stroke-linejoin:miter;stroke-opacity:1" d="M 974.712,110.438 996,116.824 z" id="boundary" inkscape:connector-curvature="0" />
	<path style="fill:none;stroke:red;stroke-width:1px;stroke-linecap:butt;stroke-linejoin:miter;stroke-opacity:1" d="M 996,116.824 985.356,144.498 z" id="boundary" inkscape:connector-curvature="0" />
	<path style="fill:none;stroke:red;stroke-width:1px;stroke-linecap:butt;stroke-linejoin:miter;stroke-opacity:1" d="M 985.356,144.498 970.455,161.528 z" id="boundary" inkscape:connector-curvature="0" />
	<path style="fill:none;stroke:red;stroke-width:1px;stroke-linecap:butt;stroke-linejoin:miter;stroke-opacity:1" d="M 970.455,161.528 953.425,176.429 z" id="boundary" inkscape:connector-curvature="0" />
	<path style="fill:none;stroke:red;stroke-width:1px;stroke-linecap:butt;stroke-linejoin:miter;stroke-opacity:1" d="M 857.631,229.648 836.343,240.292 z" id="boundary" inkscape:connector-curvature="0" />
	<path style="fill:none;stroke:red;stroke-width:1px;stroke-linecap:butt;stroke-linejoin:miter;stroke-opacity:1" d="M 840.601,261.579 836.343,240.292 z" id="boundary" inkscape:connector-curvature="0" />
	<path style="fill:none;stroke:red;stroke-width:1px;stroke-linecap:butt;stroke-linejoin:miter;stroke-opacity:1" d="M 840.601,261.579 857.631,276.481 z" id="boundary" inkscape:connector-curvature="0" />
	<path style="fill:none;stroke:red;stroke-width:1px;stroke-linecap:butt;stroke-linejoin:miter;stroke-opacity:1" d="M 776.738,336.086 795.897,325.442 z" id="boundary" inkscape:connector-curvature="0" />
	<path style="fill:none;stroke:red;stroke-width:1px;stroke-linecap:butt;stroke-linejoin:miter;stroke-opacity:1" d="M 817.185,325.442 795.897,325.442 z" id="boundary" inkscape:connector-curvature="0" />
	<path style="fill:none;stroke:red;stroke-width:1px;stroke-linecap:butt;stroke-linejoin:miter;stroke-opacity:1" d="M 836.343,314.798 817.185,325.442 z" id="boundary" inkscape:connector-curvature="0" />
	<path style="fill:none;stroke:red;stroke-width:1px;stroke-linecap:butt;stroke-linejoin:miter;stroke-opacity:1" d="M 853.373,299.897 836.343,314.798 z" id="boundary" inkscape:connector-curvature="0" />
	<path style="fill:none;stroke:red;stroke-width:1px;stroke-linecap:butt;stroke-linejoin:miter;stroke-opacity:1" d="M 857.631,276.481 853.373,299.897 z" id="boundary" inkscape:connector-curvature="0" />
	<path style="fill:none;stroke:red;stroke-width:1px;stroke-linecap:butt;stroke-linejoin:miter;stroke-opacity:1" d="M 900.206,219.004 878.918,219.004 z" id="boundary" inkscape:connector-curvature="0" />
	<path style="fill:none;stroke:red;stroke-width:1px;stroke-linecap:butt;stroke-linejoin:miter;stroke-opacity:1" d="M 878.918,219.004 857.631,229.648 z" id="boundary" inkscape:connector-curvature="0" />
	<path style="fill:none;stroke:red;stroke-width:1px;stroke-linecap:butt;stroke-linejoin:miter;stroke-opacity:1" d="M 938.524,197.717 919.365,208.361 z" id="boundary" inkscape:connector-curvature="0" />
	<path style="fill:none;stroke:red;stroke-width:1px;stroke-linecap:butt;stroke-linejoin:miter;stroke-opacity:1" d="M 938.524,197.717 953.425,176.429 z" id="boundary" inkscape:connector-curvature="0" />
	<path style="fill:none;stroke:red;stroke-width:1px;stroke-linecap:butt;stroke-linejoin:miter;stroke-opacity:1" d="M 919.365,208.361 900.206,219.004 z" id="boundary" inkscape:connector-curvature="0" />
	<path style="fill:none;stroke:red;stroke-width:1px;stroke-linecap:butt;stroke-linejoin:miter;stroke-opacity:1" d="M 776.738,336.086 757.579,346.73 z" id="boundary" inkscape:connector-curvature="0" />
	<path style="fill:none;stroke:red;stroke-width:1px;stroke-linecap:butt;stroke-linejoin:miter;stroke-opacity:1" d="M 474.455,502.129 472.326,480.841 z" id="boundary" inkscape:connector-curvature="0" />
	<path style="fill:none;stroke:red;stroke-width:1px;stroke-linecap:butt;stroke-linejoin:miter;stroke-opacity:1" d="M 472.326,480.841 472.326,459.554 z" id="boundary" inkscape:connector-curvature="0" />
	<path style="fill:none;stroke:red;stroke-width:1px;stroke-linecap:butt;stroke-linejoin:miter;stroke-opacity:1" d="M 491.485,517.03 510.644,527.674 z" id="boundary" inkscape:connector-curvature="0" />
	<path style="fill:none;stroke:red;stroke-width:1px;stroke-linecap:butt;stroke-linejoin:miter;stroke-opacity:1" d="M 491.485,517.03 474.455,502.129 z" id="boundary" inkscape:connector-curvature="0" />
	<path style="fill:none;stroke:red;stroke-width:1px;stroke-linecap:butt;stroke-linejoin:miter;stroke-opacity:1" d="M 570.249,531.931 548.961,527.674 z" id="boundary" inkscape:connector-curvature="0" />
	<path style="fill:none;stroke:red;stroke-width:1px;stroke-linecap:butt;stroke-linejoin:miter;stroke-opacity:1" d="M 548.961,527.674 529.803,538.318 z" id="boundary" inkscape:connector-curvature="0" />
	<path style="fill:none;stroke:red;stroke-width:1px;stroke-linecap:butt;stroke-linejoin:miter;stroke-opacity:1" d="M 529.803,538.318 510.644,527.674 z" id="boundary" inkscape:connector-curvature="0" />
	<path style="fill:none;stroke:red;stroke-width:1px;stroke-linecap:butt;stroke-linejoin:miter;stroke-opacity:1" d="M 749.064,453.167 729.906,463.811 z" id="boundary" inkscape:connector-curvature="0" />
	<path style="fill:none;stroke:red;stroke-width:1px;stroke-linecap:butt;stroke-linejoin:miter;stroke-opacity:1" d="M 738.421,357.373 749.064,376.532 z" id="boundary" inkscape:connector-curvature="0" />
	<path style="fill:none;stroke:red;stroke-width:1px;stroke-linecap:butt;stroke-linejoin:miter;stroke-opacity:1" d="M 719.262,368.017 738.421,357.373 z" id="boundary" inkscape:connector-curvature="0" />
	<path style="fill:none;stroke:red;stroke-width:1px;stroke-linecap:butt;stroke-linejoin:miter;stroke-opacity:1" d="M 768.223,442.524 749.064,453.167 z" id="boundary" inkscape:connector-curvature="0" />
	<path style="fill:none;stroke:red;stroke-width:1px;stroke-linecap:butt;stroke-linejoin:miter;stroke-opacity:1" d="M 729.906,463.811 729.906,485.099 z" id="boundary" inkscape:connector-curvature="0" />
	<path style="fill:none;stroke:red;stroke-width:1px;stroke-linecap:butt;stroke-linejoin:miter;stroke-opacity:1" d="M 729.906,485.099 740.549,504.258 z" id="boundary" inkscape:connector-curvature="0" />
	<path style="fill:none;stroke:red;stroke-width:1px;stroke-linecap:butt;stroke-linejoin:miter;stroke-opacity:1" d="M 585.15,548.961 570.249,531.931 z" id="boundary" inkscape:connector-curvature="0" />
	<path style="fill:none;stroke:red;stroke-width:1px;stroke-linecap:butt;stroke-linejoin:miter;stroke-opacity:1" d="M 740.549,504.258 761.837,504.258 z" id="boundary" inkscape:connector-curvature="0" />
	<path style="fill:none;stroke:red;stroke-width:1px;stroke-linecap:butt;stroke-linejoin:miter;stroke-opacity:1" d="M 759.708,538.318 740.549,548.961 z" id="boundary" inkscape:connector-curvature="0" />
	<path style="fill:none;stroke:red;stroke-width:1px;stroke-linecap:butt;stroke-linejoin:miter;stroke-opacity:1" d="M 602.18,563.863 585.15,548.961 z" id="boundary" inkscape:connector-curvature="0" />
	<path style="fill:none;stroke:red;stroke-width:1px;stroke-linecap:butt;stroke-linejoin:miter;stroke-opacity:1" d="M 610.695,585.15 602.18,563.863 z" id="boundary" inkscape:connector-curvature="0" />
	<path style="fill:none;stroke:red;stroke-width:1px;stroke-linecap:butt;stroke-linejoin:miter;stroke-opacity:1" d="M 627.725,600.052 610.695,585.15 z" id="boundary" inkscape:connector-curvature="0" />
	<path style="fill:none;stroke:red;stroke-width:1px;stroke-linecap:butt;stroke-linejoin:miter;stroke-opacity:1" d="M 642.627,617.082 653.27,636.24 z" id="boundary" inkscape:connector-curvature="0" />
	<path style="fill:none;stroke:red;stroke-width:1px;stroke-linecap:butt;stroke-linejoin:miter;stroke-opacity:1" d="M 642.627,617.082 627.725,600.052 z" id="boundary" inkscape:connector-curvature="0" />
	<path style="fill:none;stroke:red;stroke-width:1px;stroke-linecap:butt;stroke-linejoin:miter;stroke-opacity:1" d="M 663.914,655.399 653.27,636.24 z" id="boundary" inkscape:connector-curvature="0" />
	<path style="fill:none;stroke:red;stroke-width:1px;stroke-linecap:butt;stroke-linejoin:miter;stroke-opacity:1" d="M 663.914,655.399 676.687,672.429 z" id="boundary" inkscape:connector-curvature="0" />
	<path style="fill:none;stroke:red;stroke-width:1px;stroke-linecap:butt;stroke-linejoin:miter;stroke-opacity:1" d="M 676.687,672.429 693.717,687.33 z" id="boundary" inkscape:connector-curvature="0" />
	<path style="fill:none;stroke:red;stroke-width:1px;stroke-linecap:butt;stroke-linejoin:miter;stroke-opacity:1" d="M 744.807,570.249 740.549,548.961 z" id="boundary" inkscape:connector-curvature="0" />
	<path style="fill:none;stroke:red;stroke-width:1px;stroke-linecap:butt;stroke-linejoin:miter;stroke-opacity:1" d="M 770.352,612.824 751.193,623.468 z" id="boundary" inkscape:connector-curvature="0" />
	<path style="fill:none;stroke:red;stroke-width:1px;stroke-linecap:butt;stroke-linejoin:miter;stroke-opacity:1" d="M 744.807,570.249 766.094,578.764 z" id="boundary" inkscape:connector-curvature="0" />
	<path style="fill:none;stroke:red;stroke-width:1px;stroke-linecap:butt;stroke-linejoin:miter;stroke-opacity:1" d="M 712.876,697.974 693.717,687.33 z" id="boundary" inkscape:connector-curvature="0" />
	<path style="fill:none;stroke:red;stroke-width:1px;stroke-linecap:butt;stroke-linejoin:miter;stroke-opacity:1" d="M 751.193,676.687 734.163,697.974 z" id="boundary" inkscape:connector-curvature="0" />
	<path style="fill:none;stroke:red;stroke-width:1px;stroke-linecap:butt;stroke-linejoin:miter;stroke-opacity:1" d="M 734.163,697.974 712.876,697.974 z" id="boundary" inkscape:connector-curvature="0" />
	<path style="fill:none;stroke:red;stroke-width:1px;stroke-linecap:butt;stroke-linejoin:miter;stroke-opacity:1" d="M 761.837,642.627 751.193,676.687 z" id="boundary" inkscape:connector-curvature="0" />
	<path style="fill:none;stroke:red;stroke-width:1px;stroke-linecap:butt;stroke-linejoin:miter;stroke-opacity:1" d="M 751.193,623.468 761.837,642.627 z" id="boundary" inkscape:connector-curvature="0" />
	<path style="fill:none;stroke:red;stroke-width:1px;stroke-linecap:butt;stroke-linejoin:miter;stroke-opacity:1" d="M 738.421,357.373 757.579,346.73 z" id="boundary" inkscape:connector-curvature="0" />
	<path style="fill:none;stroke:red;stroke-width:1px;stroke-linecap:butt;stroke-linejoin:miter;stroke-opacity:1" d="M 770.352,372.275 749.064,376.532 z" id="boundary" inkscape:connector-curvature="0" />
	<path style="fill:none;stroke:red;stroke-width:1px;stroke-linecap:butt;stroke-linejoin:miter;stroke-opacity:1" d="M 791.639,365.888 770.352,372.275 z" id="boundary" inkscape:connector-curvature="0" />
	<path style="fill:none;stroke:red;stroke-width:1px;stroke-linecap:butt;stroke-linejoin:miter;stroke-opacity:1" d="M 789.511,438.266 768.223,442.524 z" id="boundary" inkscape:connector-curvature="0" />
	<path style="fill:none;stroke:red;stroke-width:1px;stroke-linecap:butt;stroke-linejoin:miter;stroke-opacity:1" d="M 810.798,427.622 789.511,438.266 z" id="boundary" inkscape:connector-curvature="0" />
	<path style="fill:none;stroke:red;stroke-width:1px;stroke-linecap:butt;stroke-linejoin:miter;stroke-opacity:1" d="M 812.927,365.888 791.639,365.888 z" id="boundary" inkscape:connector-curvature="0" />
	<path style="fill:none;stroke:red;stroke-width:1px;stroke-linecap:butt;stroke-linejoin:miter;stroke-opacity:1" d="M 812.927,365.888 834.215,365.888 z" id="boundary" inkscape:connector-curvature="0" />
	<path style="fill:none;stroke:red;stroke-width:1px;stroke-linecap:butt;stroke-linejoin:miter;stroke-opacity:1" d="M 851.245,378.661 834.215,365.888 z" id="boundary" inkscape:connector-curvature="0" />
	<path style="fill:none;stroke:red;stroke-width:1px;stroke-linecap:butt;stroke-linejoin:miter;stroke-opacity:1" d="M 825.7,410.592 810.798,427.622 z" id="boundary" inkscape:connector-curvature="0" />
	<path style="fill:none;stroke:red;stroke-width:1px;stroke-linecap:butt;stroke-linejoin:miter;stroke-opacity:1" d="M 846.987,399.948 825.7,410.592 z" id="boundary" inkscape:connector-curvature="0" />
	<path style="fill:none;stroke:red;stroke-width:1px;stroke-linecap:butt;stroke-linejoin:miter;stroke-opacity:1" d="M 851.245,378.661 846.987,399.948 z" id="boundary" inkscape:connector-curvature="0" />
	<path style="fill:none;stroke:red;stroke-width:1px;stroke-linecap:butt;stroke-linejoin:miter;stroke-opacity:1" d="M 776.738,525.545 759.708,538.318 z" id="boundary" inkscape:connector-curvature="0" />
	<path style="fill:none;stroke:red;stroke-width:1px;stroke-linecap:butt;stroke-linejoin:miter;stroke-opacity:1" d="M 776.738,525.545 761.837,504.258 z" id="boundary" inkscape:connector-curvature="0" />
	<path style="fill:none;stroke:red;stroke-width:1px;stroke-linecap:butt;stroke-linejoin:miter;stroke-opacity:1" d="M 804.412,561.734 787.382,578.764 z" id="boundary" inkscape:connector-curvature="0" />
	<path style="fill:none;stroke:red;stroke-width:1px;stroke-linecap:butt;stroke-linejoin:miter;stroke-opacity:1" d="M 789.511,602.18 770.352,612.824 z" id="boundary" inkscape:connector-curvature="0" />
	<path style="fill:none;stroke:red;stroke-width:1px;stroke-linecap:butt;stroke-linejoin:miter;stroke-opacity:1" d="M 766.094,578.764 787.382,578.764 z" id="boundary" inkscape:connector-curvature="0" />
	<path style="fill:none;stroke:red;stroke-width:1px;stroke-linecap:butt;stroke-linejoin:miter;stroke-opacity:1" d="M 825.7,563.863 804.412,561.734 z" id="boundary" inkscape:connector-curvature="0" />
	<path style="fill:none;stroke:red;stroke-width:1px;stroke-linecap:butt;stroke-linejoin:miter;stroke-opacity:1" d="M 789.511,602.18 808.67,589.408 z" id="boundary" inkscape:connector-curvature="0" />
	<path style="fill:none;stroke:red;stroke-width:1px;stroke-linecap:butt;stroke-linejoin:miter;stroke-opacity:1" d="M 825.7,563.863 808.67,589.408 z" id="boundary" inkscape:connector-curvature="0" />
	<circle cx="4" cy="319.056" r="4" fill="#0" id="circle0"/>
	<circle cx="4" cy="340.343" r="4" fill="#0" id="circle1"/>
	<circle cx="21.03" cy="355.245" r="4" fill="#0" id="circle2"/>
	<circle cx="25.2876" cy="312.67" r="4" fill="#0" id="circle3"/>
	<circle cx="40.1888" cy="365.888" r="4" fill="#0" id="circle4"/>
	<circle cx="44.4464" cy="323.313" r="4" fill="#0" id="circle5"/>
	<circle cx="57.2189" cy="378.661" r="4" fill="#0" id="circle6"/>
	<circle cx="65.7339" cy="325.442" r="4" fill="#0" id="circle7"/>
	<circle cx="69.9914" cy="395.691" r="4" fill="#0" id="circle8"/>
	<circle cx="80.6352" cy="342.472" r="4" fill="#0" id="circle9"/>
	<circle cx="87.0215" cy="410.592" r="4" fill="#0" id="circle10"/>
	<circle cx="89.1502" cy="478.712" r="4" fill="#0" id="circle11"/>
	<circle cx="99.794" cy="31.6738" r="4" fill="#0" id="circle12"/>
	<circle cx="101.923" cy="344.601" r="4" fill="#0" id="circle13"/>
	<circle cx="101.923" cy="427.622" r="4" fill="#0" id="circle14"/>
	<circle cx="106.18" cy="493.614" r="4" fill="#0" id="circle15"/>
	<circle cx="110.438" cy="468.069" r="4" fill="#0" id="circle16"/>
	<circle cx="112.567" cy="446.781" r="4" fill="#0" id="circle17"/>
	<circle cx="116.824" cy="14.6438" r="4" fill="#0" id="circle18"/>
	<circle cx="116.824" cy="46.5751" r="4" fill="#0" id="circle19"/>
	<circle cx="121.082" cy="355.245" r="4" fill="#0" id="circle20"/>
	<circle cx="127.468" cy="495.742" r="4" fill="#0" id="circle21"/>
	<circle cx="131.725" cy="63.6052" r="4" fill="#0" id="circle22"/>
	<circle cx="138.112" cy="4" r="4" fill="#0" id="circle23"/>
	<circle cx="140.24" cy="365.888" r="4" fill="#0" id="circle24"/>
	<circle cx="146.627" cy="485.099" r="4" fill="#0" id="circle25"/>
	<circle cx="148.755" cy="78.5064" r="4" fill="#0" id="circle26"/>
	<circle cx="159.399" cy="4" r="4" fill="#0" id="circle27"/>
	<circle cx="159.399" cy="376.532" r="4" fill="#0" id="circle28"/>
	<circle cx="163.657" cy="497.871" r="4" fill="#0" id="circle29"/>
	<circle cx="165.785" cy="91.279" r="4" fill="#0" id="circle30"/>
	<circle cx="178.558" cy="14.6438" r="4" fill="#0" id="circle31"/>
	<circle cx="178.558" cy="387.176" r="4" fill="#0" id="circle32"/>
	<circle cx="178.558" cy="514.901" r="4" fill="#0" id="circle33"/>
	<circle cx="184.944" cy="101.923" r="4" fill="#0" id="circle34"/>
	<circle cx="189.202" cy="534.06" r="4" fill="#0" id="circle35"/>
	<circle cx="195.588" cy="121.082" r="4" fill="#0" id="circle36"/>
	<circle cx="199.845" cy="14.6438" r="4" fill="#0" id="circle37"/>
	<circle cx="199.845" cy="387.176" r="4" fill="#0" id="circle38"/>
	<circle cx="206.232" cy="548.961" r="4" fill="#0" id="circle39"/>
	<circle cx="212.618" cy="133.854" r="4" fill="#0" id="circle40"/>
	<circle cx="216.876" cy="568.12" r="4" fill="#0" id="circle41"/>
	<circle cx="219.004" cy="25.2876" r="4" fill="#0" id="circle42"/>
	<circle cx="219.004" cy="397.82" r="4" fill="#0" id="circle43"/>
	<circle cx="227.519" cy="212.618" r="4" fill="#0" id="circle44"/>
	<circle cx="229.648" cy="148.755" r="4" fill="#0" id="circle45"/>
	<circle cx="229.648" cy="585.15" r="4" fill="#0" id="circle46"/>
	<circle cx="238.163" cy="231.777" r="4" fill="#0" id="circle47"/>
	<circle cx="240.292" cy="25.2876" r="4" fill="#0" id="circle48"/>
	<circle cx="240.292" cy="391.433" r="4" fill="#0" id="circle49"/>
	<circle cx="244.549" cy="165.785" r="4" fill="#0" id="circle50"/>
	<circle cx="244.549" cy="195.588" r="4" fill="#0" id="circle51"/>
	<circle cx="244.549" cy="602.18" r="4" fill="#0" id="circle52"/>
	<circle cx="255.193" cy="621.339" r="4" fill="#0" id="circle53"/>
	<circle cx="257.322" cy="376.532" r="4" fill="#0" id="circle54"/>
	<circle cx="259.451" cy="240.292" r="4" fill="#0" id="circle55"/>
	<circle cx="261.579" cy="25.2876" r="4" fill="#0" id="circle56"/>
	<circle cx="272.223" cy="44.4464" r="4" fill="#0" id="circle57"/>
	<circle cx="272.223" cy="257.322" r="4" fill="#0" id="circle58"/>
	<circle cx="272.223" cy="463.811" r="4" fill="#0" id="circle59"/>
	<circle cx="272.223" cy="485.099" r="4" fill="#0" id="circle60"/>
	<circle cx="272.223" cy="506.386" r="4" fill="#0" id="circle61"/>
	<circle cx="272.223" cy="527.674" r="4" fill="#0" id="circle62"/>
	<circle cx="272.223" cy="548.961" r="4" fill="#0" id="circle63"/>
	<circle cx="276.481" cy="365.888" r="4" fill="#0" id="circle64"/>
	<circle cx="276.481" cy="570.249" r="4" fill="#0" id="circle65"/>
	<circle cx="276.481" cy="621.339" r="4" fill="#0" id="circle66"/>
	<circle cx="280.738" cy="14.6438" r="4" fill="#0" id="circle67"/>
	<circle cx="282.867" cy="591.536" r="4" fill="#0" id="circle68"/>
	<circle cx="289.253" cy="59.3476" r="4" fill="#0" id="circle69"/>
	<circle cx="291.382" cy="453.167" r="4" fill="#0" id="circle70"/>
	<circle cx="293.511" cy="38.0601" r="4" fill="#0" id="circle71"/>
	<circle cx="293.511" cy="250.936" r="4" fill="#0" id="circle72"/>
	<circle cx="293.511" cy="348.858" r="4" fill="#0" id="circle73"/>
	<circle cx="302.026" cy="8.25751" r="4" fill="#0" id="circle74"/>
	<circle cx="310.541" cy="67.8627" r="4" fill="#0" id="circle75"/>
	<circle cx="312.67" cy="453.167" r="4" fill="#0" id="circle76"/>
	<circle cx="314.798" cy="255.193" r="4" fill="#0" id="circle77"/>
	<circle cx="314.798" cy="338.215" r="4" fill="#0" id="circle78"/>
	<circle cx="329.7" cy="272.223" r="4" fill="#0" id="circle79"/>
	<circle cx="331.828" cy="67.8627" r="4" fill="#0" id="circle80"/>
	<circle cx="331.828" cy="323.313" r="4" fill="#0" id="circle81"/>
	<circle cx="333.957" cy="446.781" r="4" fill="#0" id="circle82"/>
	<circle cx="344.601" cy="289.253" r="4" fill="#0" id="circle83"/>
	<circle cx="350.987" cy="57.2189" r="4" fill="#0" id="circle84"/>
	<circle cx="355.245" cy="442.524" r="4" fill="#0" id="circle85"/>
	<circle cx="357.373" cy="78.5064" r="4" fill="#0" id="circle86"/>
	<circle cx="368.017" cy="97.6652" r="4" fill="#0" id="circle87"/>
	<circle cx="374.403" cy="431.88" r="4" fill="#0" id="circle88"/>
	<circle cx="385.047" cy="110.438" r="4" fill="#0" id="circle89"/>
	<circle cx="395.691" cy="431.88" r="4" fill="#0" id="circle90"/>
	<circle cx="404.206" cy="121.082" r="4" fill="#0" id="circle91"/>
	<circle cx="416.979" cy="431.88" r="4" fill="#0" id="circle92"/>
	<circle cx="425.494" cy="121.082" r="4" fill="#0" id="circle93"/>
	<circle cx="438.266" cy="431.88" r="4" fill="#0" id="circle94"/>
	<circle cx="446.781" cy="110.438" r="4" fill="#0" id="circle95"/>
	<circle cx="457.425" cy="442.524" r="4" fill="#0" id="circle96"/>
	<circle cx="465.94" cy="99.794" r="4" fill="#0" id="circle97"/>
	<circle cx="472.326" cy="459.554" r="4" fill="#0" id="circle98"/>
	<circle cx="472.326" cy="480.841" r="4" fill="#0" id="circle99"/>
	<circle cx="474.455" cy="502.129" r="4" fill="#0" id="circle100"/>
	<circle cx="487.227" cy="91.279" r="4" fill="#0" id="circle101"/>
	<circle cx="491.485" cy="517.03" r="4" fill="#0" id="circle102"/>
	<circle cx="506.386" cy="155.142" r="4" fill="#0" id="circle103"/>
	<circle cx="508.515" cy="89.1502" r="4" fill="#0" id="circle104"/>
	<circle cx="510.644" cy="527.674" r="4" fill="#0" id="circle105"/>
	<circle cx="517.03" cy="174.3" r="4" fill="#0" id="circle106"/>
	<circle cx="527.674" cy="78.5064" r="4" fill="#0" id="circle107"/>
	<circle cx="527.674" cy="144.498" r="4" fill="#0" id="circle108"/>
	<circle cx="529.803" cy="538.318" r="4" fill="#0" id="circle109"/>
	<circle cx="536.189" cy="184.944" r="4" fill="#0" id="circle110"/>
	<circle cx="546.833" cy="133.854" r="4" fill="#0" id="circle111"/>
	<circle cx="548.961" cy="78.5064" r="4" fill="#0" id="circle112"/>
	<circle cx="548.961" cy="527.674" r="4" fill="#0" id="circle113"/>
	<circle cx="557.476" cy="184.944" r="4" fill="#0" id="circle114"/>
	<circle cx="563.863" cy="121.082" r="4" fill="#0" id="circle115"/>
	<circle cx="570.249" cy="78.5064" r="4" fill="#0" id="circle116"/>
	<circle cx="570.249" cy="531.931" r="4" fill="#0" id="circle117"/>
	<circle cx="576.635" cy="174.3" r="4" fill="#0" id="circle118"/>
	<circle cx="580.893" cy="97.6652" r="4" fill="#0" id="circle119"/>
	<circle cx="585.15" cy="548.961" r="4" fill="#0" id="circle120"/>
	<circle cx="597.923" cy="174.3" r="4" fill="#0" id="circle121"/>
	<circle cx="602.18" cy="563.863" r="4" fill="#0" id="circle122"/>
	<circle cx="610.695" cy="585.15" r="4" fill="#0" id="circle123"/>
	<circle cx="617.082" cy="163.657" r="4" fill="#0" id="circle124"/>
	<circle cx="627.725" cy="600.052" r="4" fill="#0" id="circle125"/>
	<circle cx="638.369" cy="163.657" r="4" fill="#0" id="circle126"/>
	<circle cx="642.627" cy="617.082" r="4" fill="#0" id="circle127"/>
	<circle cx="653.27" cy="636.24" r="4" fill="#0" id="circle128"/>
	<circle cx="655.399" cy="146.627" r="4" fill="#0" id="circle129"/>
	<circle cx="663.914" cy="655.399" r="4" fill="#0" id="circle130"/>
	<circle cx="676.687" cy="135.983" r="4" fill="#0" id="circle131"/>
	<circle cx="676.687" cy="672.429" r="4" fill="#0" id="circle132"/>
	<circle cx="693.717" cy="687.33" r="4" fill="#0" id="circle133"/>
	<circle cx="697.974" cy="131.725" r="4" fill="#0" id="circle134"/>
	<circle cx="712.876" cy="697.974" r="4" fill="#0" id="circle135"/>
	<circle cx="719.262" cy="131.725" r="4" fill="#0" id="circle136"/>
	<circle cx="719.262" cy="368.017" r="4" fill="#0" id="circle137"/>
	<circle cx="729.906" cy="463.811" r="4" fill="#0" id="circle138"/>
	<circle cx="729.906" cy="485.099" r="4" fill="#0" id="circle139"/>
	<circle cx="734.163" cy="697.974" r="4" fill="#0" id="circle140"/>
	<circle cx="738.421" cy="357.373" r="4" fill="#0" id="circle141"/>
	<circle cx="740.549" cy="138.112" r="4" fill="#0" id="circle142"/>
	<circle cx="740.549" cy="504.258" r="4" fill="#0" id="circle143"/>
	<circle cx="740.549" cy="548.961" r="4" fill="#0" id="circle144"/>
	<circle cx="744.807" cy="570.249" r="4" fill="#0" id="circle145"/>
	<circle cx="749.064" cy="159.399" r="4" fill="#0" id="circle146"/>
	<circle cx="749.064" cy="376.532" r="4" fill="#0" id="circle147"/>
	<circle cx="749.064" cy="453.167" r="4" fill="#0" id="circle148"/>
	<circle cx="751.193" cy="623.468" r="4" fill="#0" id="circle149"/>
	<circle cx="751.193" cy="676.687" r="4" fill="#0" id="circle150"/>
	<circle cx="757.579" cy="346.73" r="4" fill="#0" id="circle151"/>
	<circle cx="759.708" cy="538.318" r="4" fill="#0" id="circle152"/>
	<circle cx="761.837" cy="504.258" r="4" fill="#0" id="circle153"/>
	<circle cx="761.837" cy="642.627" r="4" fill="#0" id="circle154"/>
	<circle cx="766.094" cy="578.764" r="4" fill="#0" id="circle155"/>
	<circle cx="768.223" cy="442.524" r="4" fill="#0" id="circle156"/>
	<circle cx="770.352" cy="163.657" r="4" fill="#0" id="circle157"/>
	<circle cx="770.352" cy="372.275" r="4" fill="#0" id="circle158"/>
	<circle cx="770.352" cy="612.824" r="4" fill="#0" id="circle159"/>
	<circle cx="776.738" cy="336.086" r="4" fill="#0" id="circle160"/>
	<circle cx="776.738" cy="525.545" r="4" fill="#0" id="circle161"/>
	<circle cx="787.382" cy="578.764" r="4" fill="#0" id="circle162"/>
	<circle cx="789.511" cy="438.266" r="4" fill="#0" id="circle163"/>
	<circle cx="789.511" cy="602.18" r="4" fill="#0" id="circle164"/>
	<circle cx="791.639" cy="163.657" r="4" fill="#0" id="circle165"/>
	<circle cx="791.639" cy="365.888" r="4" fill="#0" id="circle166"/>
	<circle cx="795.897" cy="325.442" r="4" fill="#0" id="circle167"/>
	<circle cx="804.412" cy="561.734" r="4" fill="#0" id="circle168"/>
	<circle cx="808.67" cy="589.408" r="4" fill="#0" id="circle169"/>
	<circle cx="810.798" cy="153.013" r="4" fill="#0" id="circle170"/>
	<circle cx="810.798" cy="427.622" r="4" fill="#0" id="circle171"/>
	<circle cx="812.927" cy="365.888" r="4" fill="#0" id="circle172"/>
	<circle cx="817.185" cy="325.442" r="4" fill="#0" id="circle173"/>
	<circle cx="825.7" cy="410.592" r="4" fill="#0" id="circle174"/>
	<circle cx="825.7" cy="563.863" r="4" fill="#0" id="circle175"/>
	<circle cx="829.957" cy="142.369" r="4" fill="#0" id="circle176"/>
	<circle cx="834.215" cy="365.888" r="4" fill="#0" id="circle177"/>
	<circle cx="836.343" cy="240.292" r="4" fill="#0" id="circle178"/>
	<circle cx="836.343" cy="314.798" r="4" fill="#0" id="circle179"/>
	<circle cx="840.601" cy="261.579" r="4" fill="#0" id="circle180"/>
	<circle cx="846.987" cy="399.948" r="4" fill="#0" id="circle181"/>
	<circle cx="851.245" cy="142.369" r="4" fill="#0" id="circle182"/>
	<circle cx="851.245" cy="378.661" r="4" fill="#0" id="circle183"/>
	<circle cx="853.373" cy="299.897" r="4" fill="#0" id="circle184"/>
	<circle cx="857.631" cy="229.648" r="4" fill="#0" id="circle185"/>
	<circle cx="857.631" cy="276.481" r="4" fill="#0" id="circle186"/>
	<circle cx="870.403" cy="131.725" r="4" fill="#0" id="circle187"/>
	<circle cx="878.918" cy="219.004" r="4" fill="#0" id="circle188"/>
	<circle cx="889.562" cy="121.082" r="4" fill="#0" id="circle189"/>
	<circle cx="900.206" cy="219.004" r="4" fill="#0" id="circle190"/>
	<circle cx="910.85" cy="114.695" r="4" fill="#0" id="circle191"/>
	<circle cx="919.365" cy="208.361" r="4" fill="#0" id="circle192"/>
	<circle cx="932.137" cy="110.438" r="4" fill="#0" id="circle193"/>
	<circle cx="938.524" cy="197.717" r="4" fill="#0" id="circle194"/>
	<circle cx="953.425" cy="110.438" r="4" fill="#0" id="circle195"/>
	<circle cx="953.425" cy="176.429" r="4" fill="#0" id="circle196"/>
	<circle cx="970.455" cy="161.528" r="4" fill="#0" id="circle197"/>
	<circle cx="974.712" cy="110.438" r="4" fill="#0" id="circle198"/>
	<circle cx="985.356" cy="144.498" r="4" fill="#0" id="circle199"/>
	<circle cx="996" cy="116.824" r="4" fill="#0" id="circle200"/>
	</g>
</svg>