<?xml version="1.0" encoding="UTF-8" standalone="no"?>
<!-- Created with CurveBenchmark -->
<svg
	xmlns:dc="http://purl.org/dc/elements/1.1/"
	xmlns:cc="http://creativecommons.org/ns#"
	xmlns:rdf="http://www.w3.org/1999/02/22-rdf-syntax-ns#"
	xmlns:svg="http://www.w3.org/2000/svg"
	xmlns="http://www.w3.org/2000/svg"
	xmlns:sodipodi="http://sodipodi.sourceforge.net/DTD/sodipodi-0.dtd"
	xmlns:inkscape="http://www.inkscape.org/namespaces/inkscape"
	width="1000"
	height="1000"
	id="svg2"
	version="1.1"
	sodipodi:docname="manifold/crust-breadknifebinary1.png.txt">
<defs
	id="defs4" />
<metadata
	id="metadata7">
	<rdf:RDF>
		<cc:Work
			rdf:about="">
			<dc:format>image/svg+xml</dc:format>
			<dc:type
				rdf:resource="http://purl.org/dc/dcmitype/StillImage" />
			<dc:title></dc:title>
		</cc:Work>
	</rdf:RDF>
</metadata>
<g
	inkscape:label="Layer 1"
	inkscape:groupmode="layer"
	id="layer1">
	<path style="fill:none;stroke:red;stroke-width:1px;stroke-linecap:butt;stroke-linejoin:miter;stroke-opacity:1" d="M 60.3408,88.5112 60.3408,68.3895 z" id="boundary" inkscape:connector-curvature="0" />
	<path style="fill:none;stroke:red;stroke-width:1px;stroke-linecap:butt;stroke-linejoin:miter;stroke-opacity:1" d="M 60.3408,108.633 60.3408,88.5112 z" id="boundary" inkscape:connector-curvature="0" />
	<path style="fill:none;stroke:red;stroke-width:1px;stroke-linecap:butt;stroke-linejoin:miter;stroke-opacity:1" d="M 60.3408,128.755 60.3408,148.876 z" id="boundary" inkscape:connector-curvature="0" />
	<path style="fill:none;stroke:red;stroke-width:1px;stroke-linecap:butt;stroke-linejoin:miter;stroke-opacity:1" d="M 60.3408,108.633 60.3408,128.755 z" id="boundary" inkscape:connector-curvature="0" />
	<path style="fill:none;stroke:red;stroke-width:1px;stroke-linecap:butt;stroke-linejoin:miter;stroke-opacity:1" d="M 60.3408,148.876 60.3408,168.998 z" id="boundary" inkscape:connector-curvature="0" />
	<path style="fill:none;stroke:red;stroke-width:1px;stroke-linecap:butt;stroke-linejoin:miter;stroke-opacity:1" d="M 60.3408,168.998 60.3408,189.12 z" id="boundary" inkscape:connector-curvature="0" />
	<path style="fill:none;stroke:red;stroke-width:1px;stroke-linecap:butt;stroke-linejoin:miter;stroke-opacity:1" d="M 60.3408,68.3895 62.3529,40.2191 z" id="boundary" inkscape:connector-curvature="0" />
	<path style="fill:none;stroke:red;stroke-width:1px;stroke-linecap:butt;stroke-linejoin:miter;stroke-opacity:1" d="M 62.3529,40.2191 62.3529,20.0974 z" id="boundary" inkscape:connector-curvature="0" />
	<path style="fill:none;stroke:red;stroke-width:1px;stroke-linecap:butt;stroke-linejoin:miter;stroke-opacity:1" d="M 62.3529,20.0974 76.4381,4 z" id="boundary" inkscape:connector-curvature="0" />
	<path style="fill:none;stroke:red;stroke-width:1px;stroke-linecap:butt;stroke-linejoin:miter;stroke-opacity:1" d="M 76.4381,4 96.5598,6.01217 z" id="boundary" inkscape:connector-curvature="0" />
	<path style="fill:none;stroke:red;stroke-width:1px;stroke-linecap:butt;stroke-linejoin:miter;stroke-opacity:1" d="M 60.3408,189.12 60.3408,209.241 z" id="boundary" inkscape:connector-curvature="0" />
	<path style="fill:none;stroke:red;stroke-width:1px;stroke-linecap:butt;stroke-linejoin:miter;stroke-opacity:1" d="M 60.3408,229.363 60.3408,249.485 z" id="boundary" inkscape:connector-curvature="0" />
	<path style="fill:none;stroke:red;stroke-width:1px;stroke-linecap:butt;stroke-linejoin:miter;stroke-opacity:1" d="M 60.3408,229.363 60.3408,209.241 z" id="boundary" inkscape:connector-curvature="0" />
	<path style="fill:none;stroke:red;stroke-width:1px;stroke-linecap:butt;stroke-linejoin:miter;stroke-opacity:1" d="M 58.3286,352.105 58.3286,331.984 z" id="boundary" inkscape:connector-curvature="0" />
	<path style="fill:none;stroke:red;stroke-width:1px;stroke-linecap:butt;stroke-linejoin:miter;stroke-opacity:1" d="M 60.3408,249.485 58.3286,271.619 z" id="boundary" inkscape:connector-curvature="0" />
	<path style="fill:none;stroke:red;stroke-width:1px;stroke-linecap:butt;stroke-linejoin:miter;stroke-opacity:1" d="M 54.3043,456.738 52.2921,480.884 z" id="boundary" inkscape:connector-curvature="0" />
	<path style="fill:none;stroke:red;stroke-width:1px;stroke-linecap:butt;stroke-linejoin:miter;stroke-opacity:1" d="M 54.3043,436.617 54.3043,456.738 z" id="boundary" inkscape:connector-curvature="0" />
	<path style="fill:none;stroke:red;stroke-width:1px;stroke-linecap:butt;stroke-linejoin:miter;stroke-opacity:1" d="M 56.3164,414.483 54.3043,436.617 z" id="boundary" inkscape:connector-curvature="0" />
	<path style="fill:none;stroke:red;stroke-width:1px;stroke-linecap:butt;stroke-linejoin:miter;stroke-opacity:1" d="M 48.2677,543.262 50.2799,513.079 z" id="boundary" inkscape:connector-curvature="0" />
	<path style="fill:none;stroke:red;stroke-width:1px;stroke-linecap:butt;stroke-linejoin:miter;stroke-opacity:1" d="M 48.2677,543.262 46.2556,575.456 z" id="boundary" inkscape:connector-curvature="0" />
	<path style="fill:none;stroke:red;stroke-width:1px;stroke-linecap:butt;stroke-linejoin:miter;stroke-opacity:1" d="M 52.2921,480.884 50.2799,513.079 z" id="boundary" inkscape:connector-curvature="0" />
	<path style="fill:none;stroke:red;stroke-width:1px;stroke-linecap:butt;stroke-linejoin:miter;stroke-opacity:1" d="M 58.3286,291.74 58.3286,311.862 z" id="boundary" inkscape:connector-curvature="0" />
	<path style="fill:none;stroke:red;stroke-width:1px;stroke-linecap:butt;stroke-linejoin:miter;stroke-opacity:1" d="M 58.3286,291.74 58.3286,271.619 z" id="boundary" inkscape:connector-curvature="0" />
	<path style="fill:none;stroke:red;stroke-width:1px;stroke-linecap:butt;stroke-linejoin:miter;stroke-opacity:1" d="M 58.3286,331.984 58.3286,311.862 z" id="boundary" inkscape:connector-curvature="0" />
	<path style="fill:none;stroke:red;stroke-width:1px;stroke-linecap:butt;stroke-linejoin:miter;stroke-opacity:1" d="M 56.3164,374.239 56.3164,394.361 z" id="boundary" inkscape:connector-curvature="0" />
	<path style="fill:none;stroke:red;stroke-width:1px;stroke-linecap:butt;stroke-linejoin:miter;stroke-opacity:1" d="M 56.3164,414.483 56.3164,394.361 z" id="boundary" inkscape:connector-curvature="0" />
	<path style="fill:none;stroke:red;stroke-width:1px;stroke-linecap:butt;stroke-linejoin:miter;stroke-opacity:1" d="M 58.3286,352.105 56.3164,374.239 z" id="boundary" inkscape:connector-curvature="0" />
	<path style="fill:none;stroke:red;stroke-width:1px;stroke-linecap:butt;stroke-linejoin:miter;stroke-opacity:1" d="M 46.2556,575.456 32.1704,605.639 z" id="boundary" inkscape:connector-curvature="0" />
	<path style="fill:none;stroke:red;stroke-width:1px;stroke-linecap:butt;stroke-linejoin:miter;stroke-opacity:1" d="M 12.0487,728.381 8.02434,754.54 z" id="boundary" inkscape:connector-curvature="0" />
	<path style="fill:none;stroke:red;stroke-width:1px;stroke-linecap:butt;stroke-linejoin:miter;stroke-opacity:1" d="M 16.073,706.247 12.0487,728.381 z" id="boundary" inkscape:connector-curvature="0" />
	<path style="fill:none;stroke:red;stroke-width:1px;stroke-linecap:butt;stroke-linejoin:miter;stroke-opacity:1" d="M 6.01217,774.661 8.02434,754.54 z" id="boundary" inkscape:connector-curvature="0" />
	<path style="fill:none;stroke:red;stroke-width:1px;stroke-linecap:butt;stroke-linejoin:miter;stroke-opacity:1" d="M 4,796.795 4,816.917 z" id="boundary" inkscape:connector-curvature="0" />
	<path style="fill:none;stroke:red;stroke-width:1px;stroke-linecap:butt;stroke-linejoin:miter;stroke-opacity:1" d="M 4,837.039 4,816.917 z" id="boundary" inkscape:connector-curvature="0" />
	<path style="fill:none;stroke:red;stroke-width:1px;stroke-linecap:butt;stroke-linejoin:miter;stroke-opacity:1" d="M 4,796.795 6.01217,774.661 z" id="boundary" inkscape:connector-curvature="0" />
	<path style="fill:none;stroke:red;stroke-width:1px;stroke-linecap:butt;stroke-linejoin:miter;stroke-opacity:1" d="M 16.073,706.247 20.0974,686.126 z" id="boundary" inkscape:connector-curvature="0" />
	<path style="fill:none;stroke:red;stroke-width:1px;stroke-linecap:butt;stroke-linejoin:miter;stroke-opacity:1" d="M 24.1217,663.992 20.0974,686.126 z" id="boundary" inkscape:connector-curvature="0" />
	<path style="fill:none;stroke:red;stroke-width:1px;stroke-linecap:butt;stroke-linejoin:miter;stroke-opacity:1" d="M 32.1704,605.639 28.146,625.761 z" id="boundary" inkscape:connector-curvature="0" />
	<path style="fill:none;stroke:red;stroke-width:1px;stroke-linecap:butt;stroke-linejoin:miter;stroke-opacity:1" d="M 24.1217,663.992 28.146,625.761 z" id="boundary" inkscape:connector-curvature="0" />
	<path style="fill:none;stroke:red;stroke-width:1px;stroke-linecap:butt;stroke-linejoin:miter;stroke-opacity:1" d="M 4,857.16 4,877.282 z" id="boundary" inkscape:connector-curvature="0" />
	<path style="fill:none;stroke:red;stroke-width:1px;stroke-linecap:butt;stroke-linejoin:miter;stroke-opacity:1" d="M 6.01217,897.404 4,877.282 z" id="boundary" inkscape:connector-curvature="0" />
	<path style="fill:none;stroke:red;stroke-width:1px;stroke-linecap:butt;stroke-linejoin:miter;stroke-opacity:1" d="M 6.01217,897.404 8.02434,917.525 z" id="boundary" inkscape:connector-curvature="0" />
	<path style="fill:none;stroke:red;stroke-width:1px;stroke-linecap:butt;stroke-linejoin:miter;stroke-opacity:1" d="M 10.0365,937.647 8.02434,917.525 z" id="boundary" inkscape:connector-curvature="0" />
	<path style="fill:none;stroke:red;stroke-width:1px;stroke-linecap:butt;stroke-linejoin:miter;stroke-opacity:1" d="M 10.0365,937.647 14.0609,957.769 z" id="boundary" inkscape:connector-curvature="0" />
	<path style="fill:none;stroke:red;stroke-width:1px;stroke-linecap:butt;stroke-linejoin:miter;stroke-opacity:1" d="M 20.0974,977.89 14.0609,957.769 z" id="boundary" inkscape:connector-curvature="0" />
	<path style="fill:none;stroke:red;stroke-width:1px;stroke-linecap:butt;stroke-linejoin:miter;stroke-opacity:1" d="M 20.0974,977.89 36.1947,991.976 z" id="boundary" inkscape:connector-curvature="0" />
	<path style="fill:none;stroke:red;stroke-width:1px;stroke-linecap:butt;stroke-linejoin:miter;stroke-opacity:1" d="M 4,857.16 4,837.039 z" id="boundary" inkscape:connector-curvature="0" />
	<path style="fill:none;stroke:red;stroke-width:1px;stroke-linecap:butt;stroke-linejoin:miter;stroke-opacity:1" d="M 76.4381,901.428 76.4381,921.55 z" id="boundary" inkscape:connector-curvature="0" />
	<path style="fill:none;stroke:red;stroke-width:1px;stroke-linecap:butt;stroke-linejoin:miter;stroke-opacity:1" d="M 88.5112,808.868 84.4868,831.002 z" id="boundary" inkscape:connector-curvature="0" />
	<path style="fill:none;stroke:red;stroke-width:1px;stroke-linecap:butt;stroke-linejoin:miter;stroke-opacity:1" d="M 56.3164,996 36.1947,991.976 z" id="boundary" inkscape:connector-curvature="0" />
	<path style="fill:none;stroke:red;stroke-width:1px;stroke-linecap:butt;stroke-linejoin:miter;stroke-opacity:1" d="M 76.4381,921.55 88.5112,937.647 z" id="boundary" inkscape:connector-curvature="0" />
	<path style="fill:none;stroke:red;stroke-width:1px;stroke-linecap:butt;stroke-linejoin:miter;stroke-opacity:1" d="M 80.4625,865.209 76.4381,901.428 z" id="boundary" inkscape:connector-curvature="0" />
	<path style="fill:none;stroke:red;stroke-width:1px;stroke-linecap:butt;stroke-linejoin:miter;stroke-opacity:1" d="M 76.4381,993.988 56.3164,996 z" id="boundary" inkscape:connector-curvature="0" />
	<path style="fill:none;stroke:red;stroke-width:1px;stroke-linecap:butt;stroke-linejoin:miter;stroke-opacity:1" d="M 92.5355,981.915 76.4381,993.988 z" id="boundary" inkscape:connector-curvature="0" />
	<path style="fill:none;stroke:red;stroke-width:1px;stroke-linecap:butt;stroke-linejoin:miter;stroke-opacity:1" d="M 80.4625,865.209 84.4868,831.002 z" id="boundary" inkscape:connector-curvature="0" />
	<path style="fill:none;stroke:red;stroke-width:1px;stroke-linecap:butt;stroke-linejoin:miter;stroke-opacity:1" d="M 96.5598,6.01217 108.633,22.1095 z" id="boundary" inkscape:connector-curvature="0" />
	<path style="fill:none;stroke:red;stroke-width:1px;stroke-linecap:butt;stroke-linejoin:miter;stroke-opacity:1" d="M 110.645,42.2312 112.657,62.3529 z" id="boundary" inkscape:connector-curvature="0" />
	<path style="fill:none;stroke:red;stroke-width:1px;stroke-linecap:butt;stroke-linejoin:miter;stroke-opacity:1" d="M 116.682,82.4746 112.657,62.3529 z" id="boundary" inkscape:connector-curvature="0" />
	<path style="fill:none;stroke:red;stroke-width:1px;stroke-linecap:butt;stroke-linejoin:miter;stroke-opacity:1" d="M 116.682,82.4746 118.694,102.596 z" id="boundary" inkscape:connector-curvature="0" />
	<path style="fill:none;stroke:red;stroke-width:1px;stroke-linecap:butt;stroke-linejoin:miter;stroke-opacity:1" d="M 120.706,122.718 122.718,142.84 z" id="boundary" inkscape:connector-curvature="0" />
	<path style="fill:none;stroke:red;stroke-width:1px;stroke-linecap:butt;stroke-linejoin:miter;stroke-opacity:1" d="M 120.706,122.718 118.694,102.596 z" id="boundary" inkscape:connector-curvature="0" />
	<path style="fill:none;stroke:red;stroke-width:1px;stroke-linecap:butt;stroke-linejoin:miter;stroke-opacity:1" d="M 110.645,42.2312 108.633,22.1095 z" id="boundary" inkscape:connector-curvature="0" />
	<path style="fill:none;stroke:red;stroke-width:1px;stroke-linecap:butt;stroke-linejoin:miter;stroke-opacity:1" d="M 122.718,142.84 124.73,162.961 z" id="boundary" inkscape:connector-curvature="0" />
	<path style="fill:none;stroke:red;stroke-width:1px;stroke-linecap:butt;stroke-linejoin:miter;stroke-opacity:1" d="M 126.742,183.083 128.755,203.205 z" id="boundary" inkscape:connector-curvature="0" />
	<path style="fill:none;stroke:red;stroke-width:1px;stroke-linecap:butt;stroke-linejoin:miter;stroke-opacity:1" d="M 126.742,183.083 124.73,162.961 z" id="boundary" inkscape:connector-curvature="0" />
	<path style="fill:none;stroke:red;stroke-width:1px;stroke-linecap:butt;stroke-linejoin:miter;stroke-opacity:1" d="M 128.755,223.327 128.755,203.205 z" id="boundary" inkscape:connector-curvature="0" />
	<path style="fill:none;stroke:red;stroke-width:1px;stroke-linecap:butt;stroke-linejoin:miter;stroke-opacity:1" d="M 130.767,243.448 132.779,263.57 z" id="boundary" inkscape:connector-curvature="0" />
	<path style="fill:none;stroke:red;stroke-width:1px;stroke-linecap:butt;stroke-linejoin:miter;stroke-opacity:1" d="M 130.767,243.448 128.755,223.327 z" id="boundary" inkscape:connector-curvature="0" />
	<path style="fill:none;stroke:red;stroke-width:1px;stroke-linecap:butt;stroke-linejoin:miter;stroke-opacity:1" d="M 132.779,263.57 134.791,283.692 z" id="boundary" inkscape:connector-curvature="0" />
	<path style="fill:none;stroke:red;stroke-width:1px;stroke-linecap:butt;stroke-linejoin:miter;stroke-opacity:1" d="M 134.791,283.692 134.791,303.813 z" id="boundary" inkscape:connector-curvature="0" />
	<path style="fill:none;stroke:red;stroke-width:1px;stroke-linecap:butt;stroke-linejoin:miter;stroke-opacity:1" d="M 136.803,323.935 134.791,303.813 z" id="boundary" inkscape:connector-curvature="0" />
	<path style="fill:none;stroke:red;stroke-width:1px;stroke-linecap:butt;stroke-linejoin:miter;stroke-opacity:1" d="M 136.803,323.935 136.803,344.057 z" id="boundary" inkscape:connector-curvature="0" />
	<path style="fill:none;stroke:red;stroke-width:1px;stroke-linecap:butt;stroke-linejoin:miter;stroke-opacity:1" d="M 138.815,364.178 138.815,384.3 z" id="boundary" inkscape:connector-curvature="0" />
	<path style="fill:none;stroke:red;stroke-width:1px;stroke-linecap:butt;stroke-linejoin:miter;stroke-opacity:1" d="M 138.815,364.178 136.803,344.057 z" id="boundary" inkscape:connector-curvature="0" />
	<path style="fill:none;stroke:red;stroke-width:1px;stroke-linecap:butt;stroke-linejoin:miter;stroke-opacity:1" d="M 86.499,708.26 86.499,728.381 z" id="boundary" inkscape:connector-curvature="0" />
	<path style="fill:none;stroke:red;stroke-width:1px;stroke-linecap:butt;stroke-linejoin:miter;stroke-opacity:1" d="M 88.5112,748.503 86.499,728.381 z" id="boundary" inkscape:connector-curvature="0" />
	<path style="fill:none;stroke:red;stroke-width:1px;stroke-linecap:butt;stroke-linejoin:miter;stroke-opacity:1" d="M 94.5477,688.138 86.499,708.26 z" id="boundary" inkscape:connector-curvature="0" />
	<path style="fill:none;stroke:red;stroke-width:1px;stroke-linecap:butt;stroke-linejoin:miter;stroke-opacity:1" d="M 88.5112,748.503 88.5112,768.625 z" id="boundary" inkscape:connector-curvature="0" />
	<path style="fill:none;stroke:red;stroke-width:1px;stroke-linecap:butt;stroke-linejoin:miter;stroke-opacity:1" d="M 88.5112,768.625 88.5112,788.746 z" id="boundary" inkscape:connector-curvature="0" />
	<path style="fill:none;stroke:red;stroke-width:1px;stroke-linecap:butt;stroke-linejoin:miter;stroke-opacity:1" d="M 88.5112,808.868 88.5112,788.746 z" id="boundary" inkscape:connector-curvature="0" />
	<path style="fill:none;stroke:red;stroke-width:1px;stroke-linecap:butt;stroke-linejoin:miter;stroke-opacity:1" d="M 128.755,666.004 112.657,678.077 z" id="boundary" inkscape:connector-curvature="0" />
	<path style="fill:none;stroke:red;stroke-width:1px;stroke-linecap:butt;stroke-linejoin:miter;stroke-opacity:1" d="M 112.657,678.077 94.5477,688.138 z" id="boundary" inkscape:connector-curvature="0" />
	<path style="fill:none;stroke:red;stroke-width:1px;stroke-linecap:butt;stroke-linejoin:miter;stroke-opacity:1" d="M 100.584,953.744 88.5112,937.647 z" id="boundary" inkscape:connector-curvature="0" />
	<path style="fill:none;stroke:red;stroke-width:1px;stroke-linecap:butt;stroke-linejoin:miter;stroke-opacity:1" d="M 100.584,953.744 92.5355,981.915 z" id="boundary" inkscape:connector-curvature="0" />
	<path style="fill:none;stroke:red;stroke-width:1px;stroke-linecap:butt;stroke-linejoin:miter;stroke-opacity:1" d="M 136.803,511.067 136.803,490.945 z" id="boundary" inkscape:connector-curvature="0" />
	<path style="fill:none;stroke:red;stroke-width:1px;stroke-linecap:butt;stroke-linejoin:miter;stroke-opacity:1" d="M 136.803,533.201 136.803,511.067 z" id="boundary" inkscape:connector-curvature="0" />
	<path style="fill:none;stroke:red;stroke-width:1px;stroke-linecap:butt;stroke-linejoin:miter;stroke-opacity:1" d="M 134.791,611.675 126.742,645.882 z" id="boundary" inkscape:connector-curvature="0" />
	<path style="fill:none;stroke:red;stroke-width:1px;stroke-linecap:butt;stroke-linejoin:miter;stroke-opacity:1" d="M 134.791,611.675 134.791,591.554 z" id="boundary" inkscape:connector-curvature="0" />
	<path style="fill:none;stroke:red;stroke-width:1px;stroke-linecap:butt;stroke-linejoin:miter;stroke-opacity:1" d="M 136.803,553.323 134.791,591.554 z" id="boundary" inkscape:connector-curvature="0" />
	<path style="fill:none;stroke:red;stroke-width:1px;stroke-linecap:butt;stroke-linejoin:miter;stroke-opacity:1" d="M 136.803,553.323 136.803,533.201 z" id="boundary" inkscape:connector-curvature="0" />
	<path style="fill:none;stroke:red;stroke-width:1px;stroke-linecap:butt;stroke-linejoin:miter;stroke-opacity:1" d="M 138.815,404.422 138.815,424.544 z" id="boundary" inkscape:connector-curvature="0" />
	<path style="fill:none;stroke:red;stroke-width:1px;stroke-linecap:butt;stroke-linejoin:miter;stroke-opacity:1" d="M 138.815,424.544 138.815,446.677 z" id="boundary" inkscape:connector-curvature="0" />
	<path style="fill:none;stroke:red;stroke-width:1px;stroke-linecap:butt;stroke-linejoin:miter;stroke-opacity:1" d="M 138.815,466.799 136.803,490.945 z" id="boundary" inkscape:connector-curvature="0" />
	<path style="fill:none;stroke:red;stroke-width:1px;stroke-linecap:butt;stroke-linejoin:miter;stroke-opacity:1" d="M 138.815,466.799 138.815,446.677 z" id="boundary" inkscape:connector-curvature="0" />
	<path style="fill:none;stroke:red;stroke-width:1px;stroke-linecap:butt;stroke-linejoin:miter;stroke-opacity:1" d="M 138.815,404.422 138.815,384.3 z" id="boundary" inkscape:connector-curvature="0" />
	<path style="fill:none;stroke:red;stroke-width:1px;stroke-linecap:butt;stroke-linejoin:miter;stroke-opacity:1" d="M 126.742,645.882 128.755,666.004 z" id="boundary" inkscape:connector-curvature="0" />
	<circle cx="4" cy="796.795" r="4" fill="#0" id="circle0"/>
	<circle cx="4" cy="816.917" r="4" fill="#0" id="circle1"/>
	<circle cx="4" cy="837.039" r="4" fill="#0" id="circle2"/>
	<circle cx="4" cy="857.16" r="4" fill="#0" id="circle3"/>
	<circle cx="4" cy="877.282" r="4" fill="#0" id="circle4"/>
	<circle cx="6.01217" cy="774.661" r="4" fill="#0" id="circle5"/>
	<circle cx="6.01217" cy="897.404" r="4" fill="#0" id="circle6"/>
	<circle cx="8.02434" cy="754.54" r="4" fill="#0" id="circle7"/>
	<circle cx="8.02434" cy="917.525" r="4" fill="#0" id="circle8"/>
	<circle cx="10.0365" cy="937.647" r="4" fill="#0" id="circle9"/>
	<circle cx="12.0487" cy="728.381" r="4" fill="#0" id="circle10"/>
	<circle cx="14.0609" cy="957.769" r="4" fill="#0" id="circle11"/>
	<circle cx="16.073" cy="706.247" r="4" fill="#0" id="circle12"/>
	<circle cx="20.0974" cy="686.126" r="4" fill="#0" id="circle13"/>
	<circle cx="20.0974" cy="977.89" r="4" fill="#0" id="circle14"/>
	<circle cx="24.1217" cy="663.992" r="4" fill="#0" id="circle15"/>
	<circle cx="28.146" cy="625.761" r="4" fill="#0" id="circle16"/>
	<circle cx="32.1704" cy="605.639" r="4" fill="#0" id="circle17"/>
	<circle cx="36.1947" cy="991.976" r="4" fill="#0" id="circle18"/>
	<circle cx="46.2556" cy="575.456" r="4" fill="#0" id="circle19"/>
	<circle cx="48.2677" cy="543.262" r="4" fill="#0" id="circle20"/>
	<circle cx="50.2799" cy="513.079" r="4" fill="#0" id="circle21"/>
	<circle cx="52.2921" cy="480.884" r="4" fill="#0" id="circle22"/>
	<circle cx="54.3043" cy="436.617" r="4" fill="#0" id="circle23"/>
	<circle cx="54.3043" cy="456.738" r="4" fill="#0" id="circle24"/>
	<circle cx="56.3164" cy="374.239" r="4" fill="#0" id="circle25"/>
	<circle cx="56.3164" cy="394.361" r="4" fill="#0" id="circle26"/>
	<circle cx="56.3164" cy="414.483" r="4" fill="#0" id="circle27"/>
	<circle cx="56.3164" cy="996" r="4" fill="#0" id="circle28"/>
	<circle cx="58.3286" cy="271.619" r="4" fill="#0" id="circle29"/>
	<circle cx="58.3286" cy="291.74" r="4" fill="#0" id="circle30"/>
	<circle cx="58.3286" cy="311.862" r="4" fill="#0" id="circle31"/>
	<circle cx="58.3286" cy="331.984" r="4" fill="#0" id="circle32"/>
	<circle cx="58.3286" cy="352.105" r="4" fill="#0" id="circle33"/>
	<circle cx="60.3408" cy="68.3895" r="4" fill="#0" id="circle34"/>
	<circle cx="60.3408" cy="88.5112" r="4" fill="#0" id="circle35"/>
	<circle cx="60.3408" cy="108.633" r="4" fill="#0" id="circle36"/>
	<circle cx="60.3408" cy="128.755" r="4" fill="#0" id="circle37"/>
	<circle cx="60.3408" cy="148.876" r="4" fill="#0" id="circle38"/>
	<circle cx="60.3408" cy="168.998" r="4" fill="#0" id="circle39"/>
	<circle cx="60.3408" cy="189.12" r="4" fill="#0" id="circle40"/>
	<circle cx="60.3408" cy="209.241" r="4" fill="#0" id="circle41"/>
	<circle cx="60.3408" cy="229.363" r="4" fill="#0" id="circle42"/>
	<circle cx="60.3408" cy="249.485" r="4" fill="#0" id="circle43"/>
	<circle cx="62.3529" cy="20.0974" r="4" fill="#0" id="circle44"/>
	<circle cx="62.3529" cy="40.2191" r="4" fill="#0" id="circle45"/>
	<circle cx="76.4381" cy="4" r="4" fill="#0" id="circle46"/>
	<circle cx="76.4381" cy="901.428" r="4" fill="#0" id="circle47"/>
	<circle cx="76.4381" cy="921.55" r="4" fill="#0" id="circle48"/>
	<circle cx="76.4381" cy="993.988" r="4" fill="#0" id="circle49"/>
	<circle cx="80.4625" cy="865.209" r="4" fill="#0" id="circle50"/>
	<circle cx="84.4868" cy="831.002" r="4" fill="#0" id="circle51"/>
	<circle cx="86.499" cy="708.26" r="4" fill="#0" id="circle52"/>
	<circle cx="86.499" cy="728.381" r="4" fill="#0" id="circle53"/>
	<circle cx="88.5112" cy="748.503" r="4" fill="#0" id="circle54"/>
	<circle cx="88.5112" cy="768.625" r="4" fill="#0" id="circle55"/>
	<circle cx="88.5112" cy="788.746" r="4" fill="#0" id="circle56"/>
	<circle cx="88.5112" cy="808.868" r="4" fill="#0" id="circle57"/>
	<circle cx="88.5112" cy="937.647" r="4" fill="#0" id="circle58"/>
	<circle cx="92.5355" cy="981.915" r="4" fill="#0" id="circle59"/>
	<circle cx="94.5477" cy="688.138" r="4" fill="#0" id="circle60"/>
	<circle cx="96.5598" cy="6.01217" r="4" fill="#0" id="circle61"/>
	<circle cx="100.584" cy="953.744" r="4" fill="#0" id="circle62"/>
	<circle cx="108.633" cy="22.1095" r="4" fill="#0" id="circle63"/>
	<circle cx="110.645" cy="42.2312" r="4" fill="#0" id="circle64"/>
	<circle cx="112.657" cy="62.3529" r="4" fill="#0" id="circle65"/>
	<circle cx="112.657" cy="678.077" r="4" fill="#0" id="circle66"/>
	<circle cx="116.682" cy="82.4746" r="4" fill="#0" id="circle67"/>
	<circle cx="118.694" cy="102.596" r="4" fill="#0" id="circle68"/>
	<circle cx="120.706" cy="122.718" r="4" fill="#0" id="circle69"/>
	<circle cx="122.718" cy="142.84" r="4" fill="#0" id="circle70"/>
	<circle cx="124.73" cy="162.961" r="4" fill="#0" id="circle71"/>
	<circle cx="126.742" cy="183.083" r="4" fill="#0" id="circle72"/>
	<circle cx="126.742" cy="645.882" r="4" fill="#0" id="circle73"/>
	<circle cx="128.755" cy="203.205" r="4" fill="#0" id="circle74"/>
	<circle cx="128.755" cy="223.327" r="4" fill="#0" id="circle75"/>
	<circle cx="128.755" cy="666.004" r="4" fill="#0" id="circle76"/>
	<circle cx="130.767" cy="243.448" r="4" fill="#0" id="circle77"/>
	<circle cx="132.779" cy="263.57" r="4" fill="#0" id="circle78"/>
	<circle cx="134.791" cy="283.692" r="4" fill="#0" id="circle79"/>
	<circle cx="134.791" cy="303.813" r="4" fill="#0" id="circle80"/>
	<circle cx="134.791" cy="591.554" r="4" fill="#0" id="circle81"/>
	<circle cx="134.791" cy="611.675" r="4" fill="#0" id="circle82"/>
	<circle cx="136.803" cy="323.935" r="4" fill="#0" id="circle83"/>
	<circle cx="136.803" cy="344.057" r="4" fill="#0" id="circle84"/>
	<circle cx="136.803" cy="490.945" r="4" fill="#0" id="circle85"/>
	<circle cx="136.803" cy="511.067" r="4" fill="#0" id="circle86"/>
	<circle cx="136.803" cy="533.201" r="4" fill="#0" id="circle87"/>
	<circle cx="136.803" cy="553.323" r="4" fill="#0" id="circle88"/>
	<circle cx="138.815" cy="364.178" r="4" fill="#0" id="circle89"/>
	<circle cx="138.815" cy="384.3" r="4" fill="#0" id="circle90"/>
	<circle cx="138.815" cy="404.422" r="4" fill="#0" id="circle91"/>
	<circle cx="138.815" cy="424.544" r="4" fill="#0" id="circle92"/>
	<circle cx="138.815" cy="446.677" r="4" fill="#0" id="circle93"/>
	<circle cx="138.815" cy="466.799" r="4" fill="#0" id="circle94"/>
	</g>
</svg>