<?xml version="1.0" encoding="UTF-8" standalone="no"?>
<!-- Created with CurveBenchmark -->
<svg
	xmlns:dc="http://purl.org/dc/elements/1.1/"
	xmlns:cc="http://creativecommons.org/ns#"
	xmlns:rdf="http://www.w3.org/1999/02/22-rdf-syntax-ns#"
	xmlns:svg="http://www.w3.org/2000/svg"
	xmlns="http://www.w3.org/2000/svg"
	xmlns:sodipodi="http://sodipodi.sourceforge.net/DTD/sodipodi-0.dtd"
	xmlns:inkscape="http://www.inkscape.org/namespaces/inkscape"
	width="1000"
	height="1000"
	id="svg2"
	version="1.1"
	sodipodi:docname="manifold/crust-bed160.png.txt">
<defs
	id="defs4" />
<metadata
	id="metadata7">
	<rdf:RDF>
		<cc:Work
			rdf:about="">
			<dc:format>image/svg+xml</dc:format>
			<dc:type
				rdf:resource="http://purl.org/dc/dcmitype/StillImage" />
			<dc:title></dc:title>
		</cc:Work>
	</rdf:RDF>
</metadata>
<g
	inkscape:label="Layer 1"
	inkscape:groupmode="layer"
	id="layer1">
	<path style="fill:none;stroke:red;stroke-width:1px;stroke-linecap:butt;stroke-linejoin:miter;stroke-opacity:1" d="M 50.9586,113.57 33.3491,123.353 z" id="boundary" inkscape:connector-curvature="0" />
	<path style="fill:none;stroke:red;stroke-width:1px;stroke-linecap:butt;stroke-linejoin:miter;stroke-opacity:1" d="M 50.9586,113.57 70.5247,105.744 z" id="boundary" inkscape:connector-curvature="0" />
	<path style="fill:none;stroke:red;stroke-width:1px;stroke-linecap:butt;stroke-linejoin:miter;stroke-opacity:1" d="M 33.3491,123.353 15.7396,133.136 z" id="boundary" inkscape:connector-curvature="0" />
	<path style="fill:none;stroke:red;stroke-width:1px;stroke-linecap:butt;stroke-linejoin:miter;stroke-opacity:1" d="M 4,168.355 4,148.789 z" id="boundary" inkscape:connector-curvature="0" />
	<path style="fill:none;stroke:red;stroke-width:1px;stroke-linecap:butt;stroke-linejoin:miter;stroke-opacity:1" d="M 4,148.789 15.7396,133.136 z" id="boundary" inkscape:connector-curvature="0" />
	<path style="fill:none;stroke:red;stroke-width:1px;stroke-linecap:butt;stroke-linejoin:miter;stroke-opacity:1" d="M 13.783,185.964 4,168.355 z" id="boundary" inkscape:connector-curvature="0" />
	<path style="fill:none;stroke:red;stroke-width:1px;stroke-linecap:butt;stroke-linejoin:miter;stroke-opacity:1" d="M 207.487,74.4379 187.921,78.3511 z" id="boundary" inkscape:connector-curvature="0" />
	<path style="fill:none;stroke:red;stroke-width:1px;stroke-linecap:butt;stroke-linejoin:miter;stroke-opacity:1" d="M 187.921,78.3511 168.355,82.2643 z" id="boundary" inkscape:connector-curvature="0" />
	<path style="fill:none;stroke:red;stroke-width:1px;stroke-linecap:butt;stroke-linejoin:miter;stroke-opacity:1" d="M 90.0907,101.83 70.5247,105.744 z" id="boundary" inkscape:connector-curvature="0" />
	<path style="fill:none;stroke:red;stroke-width:1px;stroke-linecap:butt;stroke-linejoin:miter;stroke-opacity:1" d="M 90.0907,101.83 109.657,97.9172 z" id="boundary" inkscape:connector-curvature="0" />
	<path style="fill:none;stroke:red;stroke-width:1px;stroke-linecap:butt;stroke-linejoin:miter;stroke-opacity:1" d="M 129.223,90.0907 148.789,86.1775 z" id="boundary" inkscape:connector-curvature="0" />
	<path style="fill:none;stroke:red;stroke-width:1px;stroke-linecap:butt;stroke-linejoin:miter;stroke-opacity:1" d="M 168.355,82.2643 148.789,86.1775 z" id="boundary" inkscape:connector-curvature="0" />
	<path style="fill:none;stroke:red;stroke-width:1px;stroke-linecap:butt;stroke-linejoin:miter;stroke-opacity:1" d="M 109.657,97.9172 129.223,90.0907 z" id="boundary" inkscape:connector-curvature="0" />
	<path style="fill:none;stroke:red;stroke-width:1px;stroke-linecap:butt;stroke-linejoin:miter;stroke-opacity:1" d="M 13.783,185.964 15.7396,205.531 z" id="boundary" inkscape:connector-curvature="0" />
	<path style="fill:none;stroke:red;stroke-width:1px;stroke-linecap:butt;stroke-linejoin:miter;stroke-opacity:1" d="M 19.6529,303.361 15.7396,328.797 z" id="boundary" inkscape:connector-curvature="0" />
	<path style="fill:none;stroke:red;stroke-width:1px;stroke-linecap:butt;stroke-linejoin:miter;stroke-opacity:1" d="M 11.8264,356.189 15.7396,328.797 z" id="boundary" inkscape:connector-curvature="0" />
	<path style="fill:none;stroke:red;stroke-width:1px;stroke-linecap:butt;stroke-linejoin:miter;stroke-opacity:1" d="M 15.7396,205.531 19.6529,225.097 z" id="boundary" inkscape:connector-curvature="0" />
	<path style="fill:none;stroke:red;stroke-width:1px;stroke-linecap:butt;stroke-linejoin:miter;stroke-opacity:1" d="M 19.6529,244.663 19.6529,225.097 z" id="boundary" inkscape:connector-curvature="0" />
	<path style="fill:none;stroke:red;stroke-width:1px;stroke-linecap:butt;stroke-linejoin:miter;stroke-opacity:1" d="M 19.6529,244.663 19.6529,264.229 z" id="boundary" inkscape:connector-curvature="0" />
	<path style="fill:none;stroke:red;stroke-width:1px;stroke-linecap:butt;stroke-linejoin:miter;stroke-opacity:1" d="M 19.6529,283.795 19.6529,264.229 z" id="boundary" inkscape:connector-curvature="0" />
	<path style="fill:none;stroke:red;stroke-width:1px;stroke-linecap:butt;stroke-linejoin:miter;stroke-opacity:1" d="M 19.6529,303.361 19.6529,283.795 z" id="boundary" inkscape:connector-curvature="0" />
	<path style="fill:none;stroke:red;stroke-width:1px;stroke-linecap:butt;stroke-linejoin:miter;stroke-opacity:1" d="M 324.884,4 305.318,7.91321 z" id="boundary" inkscape:connector-curvature="0" />
	<path style="fill:none;stroke:red;stroke-width:1px;stroke-linecap:butt;stroke-linejoin:miter;stroke-opacity:1" d="M 293.578,23.5661 305.318,7.91321 z" id="boundary" inkscape:connector-curvature="0" />
	<path style="fill:none;stroke:red;stroke-width:1px;stroke-linecap:butt;stroke-linejoin:miter;stroke-opacity:1" d="M 293.578,23.5661 279.882,39.2189 z" id="boundary" inkscape:connector-curvature="0" />
	<path style="fill:none;stroke:red;stroke-width:1px;stroke-linecap:butt;stroke-linejoin:miter;stroke-opacity:1" d="M 225.097,64.6548 207.487,74.4379 z" id="boundary" inkscape:connector-curvature="0" />
	<path style="fill:none;stroke:red;stroke-width:1px;stroke-linecap:butt;stroke-linejoin:miter;stroke-opacity:1" d="M 240.75,52.9152 225.097,64.6548 z" id="boundary" inkscape:connector-curvature="0" />
	<path style="fill:none;stroke:red;stroke-width:1px;stroke-linecap:butt;stroke-linejoin:miter;stroke-opacity:1" d="M 240.75,52.9152 260.316,47.0454 z" id="boundary" inkscape:connector-curvature="0" />
	<path style="fill:none;stroke:red;stroke-width:1px;stroke-linecap:butt;stroke-linejoin:miter;stroke-opacity:1" d="M 260.316,47.0454 279.882,39.2189 z" id="boundary" inkscape:connector-curvature="0" />
	<path style="fill:none;stroke:red;stroke-width:1px;stroke-linecap:butt;stroke-linejoin:miter;stroke-opacity:1" d="M 356.189,29.4359 340.536,17.6963 z" id="boundary" inkscape:connector-curvature="0" />
	<path style="fill:none;stroke:red;stroke-width:1px;stroke-linecap:butt;stroke-linejoin:miter;stroke-opacity:1" d="M 340.536,17.6963 324.884,4 z" id="boundary" inkscape:connector-curvature="0" />
	<path style="fill:none;stroke:red;stroke-width:1px;stroke-linecap:butt;stroke-linejoin:miter;stroke-opacity:1" d="M 371.842,41.1755 356.189,29.4359 z" id="boundary" inkscape:connector-curvature="0" />
	<path style="fill:none;stroke:red;stroke-width:1px;stroke-linecap:butt;stroke-linejoin:miter;stroke-opacity:1" d="M 391.408,47.0454 371.842,41.1755 z" id="boundary" inkscape:connector-curvature="0" />
	<path style="fill:none;stroke:red;stroke-width:1px;stroke-linecap:butt;stroke-linejoin:miter;stroke-opacity:1" d="M 481.412,86.1775 461.846,80.3077 z" id="boundary" inkscape:connector-curvature="0" />
	<path style="fill:none;stroke:red;stroke-width:1px;stroke-linecap:butt;stroke-linejoin:miter;stroke-opacity:1" d="M 391.408,47.0454 407.061,58.785 z" id="boundary" inkscape:connector-curvature="0" />
	<path style="fill:none;stroke:red;stroke-width:1px;stroke-linecap:butt;stroke-linejoin:miter;stroke-opacity:1" d="M 422.714,72.4813 407.061,58.785 z" id="boundary" inkscape:connector-curvature="0" />
	<path style="fill:none;stroke:red;stroke-width:1px;stroke-linecap:butt;stroke-linejoin:miter;stroke-opacity:1" d="M 422.714,72.4813 442.28,76.3945 z" id="boundary" inkscape:connector-curvature="0" />
	<path style="fill:none;stroke:red;stroke-width:1px;stroke-linecap:butt;stroke-linejoin:miter;stroke-opacity:1" d="M 461.846,80.3077 442.28,76.3945 z" id="boundary" inkscape:connector-curvature="0" />
	<path style="fill:none;stroke:red;stroke-width:1px;stroke-linecap:butt;stroke-linejoin:miter;stroke-opacity:1" d="M 7.91321,422.714 4,442.28 z" id="boundary" inkscape:connector-curvature="0" />
	<path style="fill:none;stroke:red;stroke-width:1px;stroke-linecap:butt;stroke-linejoin:miter;stroke-opacity:1" d="M 4,442.28 4,461.846 z" id="boundary" inkscape:connector-curvature="0" />
	<path style="fill:none;stroke:red;stroke-width:1px;stroke-linecap:butt;stroke-linejoin:miter;stroke-opacity:1" d="M 7.91321,383.582 7.91321,403.148 z" id="boundary" inkscape:connector-curvature="0" />
	<path style="fill:none;stroke:red;stroke-width:1px;stroke-linecap:butt;stroke-linejoin:miter;stroke-opacity:1" d="M 7.91321,422.714 7.91321,403.148 z" id="boundary" inkscape:connector-curvature="0" />
	<path style="fill:none;stroke:red;stroke-width:1px;stroke-linecap:butt;stroke-linejoin:miter;stroke-opacity:1" d="M 11.8264,356.189 7.91321,383.582 z" id="boundary" inkscape:connector-curvature="0" />
	<path style="fill:none;stroke:red;stroke-width:1px;stroke-linecap:butt;stroke-linejoin:miter;stroke-opacity:1" d="M 4,461.846 4,481.412 z" id="boundary" inkscape:connector-curvature="0" />
	<path style="fill:none;stroke:red;stroke-width:1px;stroke-linecap:butt;stroke-linejoin:miter;stroke-opacity:1" d="M 4,500.978 4,481.412 z" id="boundary" inkscape:connector-curvature="0" />
	<path style="fill:none;stroke:red;stroke-width:1px;stroke-linecap:butt;stroke-linejoin:miter;stroke-opacity:1" d="M 7.91321,520.544 4,500.978 z" id="boundary" inkscape:connector-curvature="0" />
	<path style="fill:none;stroke:red;stroke-width:1px;stroke-linecap:butt;stroke-linejoin:miter;stroke-opacity:1" d="M 154.659,526.414 135.093,526.414 z" id="boundary" inkscape:connector-curvature="0" />
	<path style="fill:none;stroke:red;stroke-width:1px;stroke-linecap:butt;stroke-linejoin:miter;stroke-opacity:1" d="M 76.3945,526.414 56.8284,526.414 z" id="boundary" inkscape:connector-curvature="0" />
	<path style="fill:none;stroke:red;stroke-width:1px;stroke-linecap:butt;stroke-linejoin:miter;stroke-opacity:1" d="M 76.3945,526.414 95.9606,526.414 z" id="boundary" inkscape:connector-curvature="0" />
	<path style="fill:none;stroke:red;stroke-width:1px;stroke-linecap:butt;stroke-linejoin:miter;stroke-opacity:1" d="M 115.527,526.414 95.9606,526.414 z" id="boundary" inkscape:connector-curvature="0" />
	<path style="fill:none;stroke:red;stroke-width:1px;stroke-linecap:butt;stroke-linejoin:miter;stroke-opacity:1" d="M 56.8284,526.414 37.2623,528.371 z" id="boundary" inkscape:connector-curvature="0" />
	<path style="fill:none;stroke:red;stroke-width:1px;stroke-linecap:butt;stroke-linejoin:miter;stroke-opacity:1" d="M 7.91321,520.544 7.91321,540.11 z" id="boundary" inkscape:connector-curvature="0" />
	<path style="fill:none;stroke:red;stroke-width:1px;stroke-linecap:butt;stroke-linejoin:miter;stroke-opacity:1" d="M 7.91321,540.11 7.91321,559.677 z" id="boundary" inkscape:connector-curvature="0" />
	<path style="fill:none;stroke:red;stroke-width:1px;stroke-linecap:butt;stroke-linejoin:miter;stroke-opacity:1" d="M 7.91321,559.677 7.91321,579.243 z" id="boundary" inkscape:connector-curvature="0" />
	<path style="fill:none;stroke:red;stroke-width:1px;stroke-linecap:butt;stroke-linejoin:miter;stroke-opacity:1" d="M 7.91321,579.243 11.8264,598.809 z" id="boundary" inkscape:connector-curvature="0" />
	<path style="fill:none;stroke:red;stroke-width:1px;stroke-linecap:butt;stroke-linejoin:miter;stroke-opacity:1" d="M 31.3925,600.765 11.8264,598.809 z" id="boundary" inkscape:connector-curvature="0" />
	<path style="fill:none;stroke:red;stroke-width:1px;stroke-linecap:butt;stroke-linejoin:miter;stroke-opacity:1" d="M 37.2623,547.937 37.2623,528.371 z" id="boundary" inkscape:connector-curvature="0" />
	<path style="fill:none;stroke:red;stroke-width:1px;stroke-linecap:butt;stroke-linejoin:miter;stroke-opacity:1" d="M 37.2623,547.937 33.3491,575.329 z" id="boundary" inkscape:connector-curvature="0" />
	<path style="fill:none;stroke:red;stroke-width:1px;stroke-linecap:butt;stroke-linejoin:miter;stroke-opacity:1" d="M 135.093,526.414 115.527,526.414 z" id="boundary" inkscape:connector-curvature="0" />
	<path style="fill:none;stroke:red;stroke-width:1px;stroke-linecap:butt;stroke-linejoin:miter;stroke-opacity:1" d="M 31.3925,600.765 33.3491,575.329 z" id="boundary" inkscape:connector-curvature="0" />
	<path style="fill:none;stroke:red;stroke-width:1px;stroke-linecap:butt;stroke-linejoin:miter;stroke-opacity:1" d="M 174.225,526.414 154.659,526.414 z" id="boundary" inkscape:connector-curvature="0" />
	<path style="fill:none;stroke:red;stroke-width:1px;stroke-linecap:butt;stroke-linejoin:miter;stroke-opacity:1" d="M 213.357,526.414 193.791,526.414 z" id="boundary" inkscape:connector-curvature="0" />
	<path style="fill:none;stroke:red;stroke-width:1px;stroke-linecap:butt;stroke-linejoin:miter;stroke-opacity:1" d="M 193.791,526.414 174.225,526.414 z" id="boundary" inkscape:connector-curvature="0" />
	<path style="fill:none;stroke:red;stroke-width:1px;stroke-linecap:butt;stroke-linejoin:miter;stroke-opacity:1" d="M 213.357,526.414 232.923,526.414 z" id="boundary" inkscape:connector-curvature="0" />
	<path style="fill:none;stroke:red;stroke-width:1px;stroke-linecap:butt;stroke-linejoin:miter;stroke-opacity:1" d="M 252.489,526.414 232.923,526.414 z" id="boundary" inkscape:connector-curvature="0" />
	<path style="fill:none;stroke:red;stroke-width:1px;stroke-linecap:butt;stroke-linejoin:miter;stroke-opacity:1" d="M 272.055,526.414 285.751,542.067 z" id="boundary" inkscape:connector-curvature="0" />
	<path style="fill:none;stroke:red;stroke-width:1px;stroke-linecap:butt;stroke-linejoin:miter;stroke-opacity:1" d="M 285.751,542.067 285.751,561.633 z" id="boundary" inkscape:connector-curvature="0" />
	<path style="fill:none;stroke:red;stroke-width:1px;stroke-linecap:butt;stroke-linejoin:miter;stroke-opacity:1" d="M 252.489,526.414 272.055,526.414 z" id="boundary" inkscape:connector-curvature="0" />
	<path style="fill:none;stroke:red;stroke-width:1px;stroke-linecap:butt;stroke-linejoin:miter;stroke-opacity:1" d="M 477.499,532.284 457.933,534.241 z" id="boundary" inkscape:connector-curvature="0" />
	<path style="fill:none;stroke:red;stroke-width:1px;stroke-linecap:butt;stroke-linejoin:miter;stroke-opacity:1" d="M 457.933,534.241 438.367,542.067 z" id="boundary" inkscape:connector-curvature="0" />
	<path style="fill:none;stroke:red;stroke-width:1px;stroke-linecap:butt;stroke-linejoin:miter;stroke-opacity:1" d="M 322.927,540.11 319.014,559.677 z" id="boundary" inkscape:connector-curvature="0" />
	<path style="fill:none;stroke:red;stroke-width:1px;stroke-linecap:butt;stroke-linejoin:miter;stroke-opacity:1" d="M 342.493,538.154 322.927,540.11 z" id="boundary" inkscape:connector-curvature="0" />
	<path style="fill:none;stroke:red;stroke-width:1px;stroke-linecap:butt;stroke-linejoin:miter;stroke-opacity:1" d="M 342.493,538.154 362.059,538.154 z" id="boundary" inkscape:connector-curvature="0" />
	<path style="fill:none;stroke:red;stroke-width:1px;stroke-linecap:butt;stroke-linejoin:miter;stroke-opacity:1" d="M 381.625,542.067 362.059,538.154 z" id="boundary" inkscape:connector-curvature="0" />
	<path style="fill:none;stroke:red;stroke-width:1px;stroke-linecap:butt;stroke-linejoin:miter;stroke-opacity:1" d="M 438.367,542.067 420.757,553.807 z" id="boundary" inkscape:connector-curvature="0" />
	<path style="fill:none;stroke:red;stroke-width:1px;stroke-linecap:butt;stroke-linejoin:miter;stroke-opacity:1" d="M 401.191,545.98 381.625,542.067 z" id="boundary" inkscape:connector-curvature="0" />
	<path style="fill:none;stroke:red;stroke-width:1px;stroke-linecap:butt;stroke-linejoin:miter;stroke-opacity:1" d="M 420.757,553.807 401.191,545.98 z" id="boundary" inkscape:connector-curvature="0" />
	<path style="fill:none;stroke:red;stroke-width:1px;stroke-linecap:butt;stroke-linejoin:miter;stroke-opacity:1" d="M 289.665,581.199 285.751,561.633 z" id="boundary" inkscape:connector-curvature="0" />
	<path style="fill:none;stroke:red;stroke-width:1px;stroke-linecap:butt;stroke-linejoin:miter;stroke-opacity:1" d="M 289.665,581.199 289.665,600.765 z" id="boundary" inkscape:connector-curvature="0" />
	<path style="fill:none;stroke:red;stroke-width:1px;stroke-linecap:butt;stroke-linejoin:miter;stroke-opacity:1" d="M 289.665,600.765 309.231,604.679 z" id="boundary" inkscape:connector-curvature="0" />
	<path style="fill:none;stroke:red;stroke-width:1px;stroke-linecap:butt;stroke-linejoin:miter;stroke-opacity:1" d="M 319.014,559.677 319.014,579.243 z" id="boundary" inkscape:connector-curvature="0" />
	<path style="fill:none;stroke:red;stroke-width:1px;stroke-linecap:butt;stroke-linejoin:miter;stroke-opacity:1" d="M 319.014,579.243 309.231,604.679 z" id="boundary" inkscape:connector-curvature="0" />
	<path style="fill:none;stroke:red;stroke-width:1px;stroke-linecap:butt;stroke-linejoin:miter;stroke-opacity:1" d="M 500.978,90.0907 481.412,86.1775 z" id="boundary" inkscape:connector-curvature="0" />
	<path style="fill:none;stroke:red;stroke-width:1px;stroke-linecap:butt;stroke-linejoin:miter;stroke-opacity:1" d="M 500.978,90.0907 520.544,94.0039 z" id="boundary" inkscape:connector-curvature="0" />
	<path style="fill:none;stroke:red;stroke-width:1px;stroke-linecap:butt;stroke-linejoin:miter;stroke-opacity:1" d="M 520.544,94.0039 540.11,97.9172 z" id="boundary" inkscape:connector-curvature="0" />
	<path style="fill:none;stroke:red;stroke-width:1px;stroke-linecap:butt;stroke-linejoin:miter;stroke-opacity:1" d="M 540.11,97.9172 559.677,105.744 z" id="boundary" inkscape:connector-curvature="0" />
	<path style="fill:none;stroke:red;stroke-width:1px;stroke-linecap:butt;stroke-linejoin:miter;stroke-opacity:1" d="M 579.243,109.657 559.677,105.744 z" id="boundary" inkscape:connector-curvature="0" />
	<path style="fill:none;stroke:red;stroke-width:1px;stroke-linecap:butt;stroke-linejoin:miter;stroke-opacity:1" d="M 598.809,117.483 579.243,109.657 z" id="boundary" inkscape:connector-curvature="0" />
	<path style="fill:none;stroke:red;stroke-width:1px;stroke-linecap:butt;stroke-linejoin:miter;stroke-opacity:1" d="M 632.071,139.006 616.418,127.266 z" id="boundary" inkscape:connector-curvature="0" />
	<path style="fill:none;stroke:red;stroke-width:1px;stroke-linecap:butt;stroke-linejoin:miter;stroke-opacity:1" d="M 616.418,127.266 598.809,117.483 z" id="boundary" inkscape:connector-curvature="0" />
	<path style="fill:none;stroke:red;stroke-width:1px;stroke-linecap:butt;stroke-linejoin:miter;stroke-opacity:1" d="M 635.984,176.181 632.071,139.006 z" id="boundary" inkscape:connector-curvature="0" />
	<path style="fill:none;stroke:red;stroke-width:1px;stroke-linecap:butt;stroke-linejoin:miter;stroke-opacity:1" d="M 620.331,191.834 635.984,176.181 z" id="boundary" inkscape:connector-curvature="0" />
	<path style="fill:none;stroke:red;stroke-width:1px;stroke-linecap:butt;stroke-linejoin:miter;stroke-opacity:1" d="M 620.331,191.834 616.418,227.053 z" id="boundary" inkscape:connector-curvature="0" />
	<path style="fill:none;stroke:red;stroke-width:1px;stroke-linecap:butt;stroke-linejoin:miter;stroke-opacity:1" d="M 616.418,246.619 618.375,266.185 z" id="boundary" inkscape:connector-curvature="0" />
	<path style="fill:none;stroke:red;stroke-width:1px;stroke-linecap:butt;stroke-linejoin:miter;stroke-opacity:1" d="M 616.418,246.619 616.418,227.053 z" id="boundary" inkscape:connector-curvature="0" />
	<path style="fill:none;stroke:red;stroke-width:1px;stroke-linecap:butt;stroke-linejoin:miter;stroke-opacity:1" d="M 637.941,262.272 618.375,266.185 z" id="boundary" inkscape:connector-curvature="0" />
	<path style="fill:none;stroke:red;stroke-width:1px;stroke-linecap:butt;stroke-linejoin:miter;stroke-opacity:1" d="M 655.55,272.055 637.941,262.272 z" id="boundary" inkscape:connector-curvature="0" />
	<path style="fill:none;stroke:red;stroke-width:1px;stroke-linecap:butt;stroke-linejoin:miter;stroke-opacity:1" d="M 675.116,277.925 655.55,272.055 z" id="boundary" inkscape:connector-curvature="0" />
	<path style="fill:none;stroke:red;stroke-width:1px;stroke-linecap:butt;stroke-linejoin:miter;stroke-opacity:1" d="M 690.769,289.665 675.116,277.925 z" id="boundary" inkscape:connector-curvature="0" />
	<path style="fill:none;stroke:red;stroke-width:1px;stroke-linecap:butt;stroke-linejoin:miter;stroke-opacity:1" d="M 690.769,289.665 710.335,293.578 z" id="boundary" inkscape:connector-curvature="0" />
	<path style="fill:none;stroke:red;stroke-width:1px;stroke-linecap:butt;stroke-linejoin:miter;stroke-opacity:1" d="M 725.988,305.318 710.335,293.578 z" id="boundary" inkscape:connector-curvature="0" />
	<path style="fill:none;stroke:red;stroke-width:1px;stroke-linecap:butt;stroke-linejoin:miter;stroke-opacity:1" d="M 745.554,309.231 725.988,305.318 z" id="boundary" inkscape:connector-curvature="0" />
	<path style="fill:none;stroke:red;stroke-width:1px;stroke-linecap:butt;stroke-linejoin:miter;stroke-opacity:1" d="M 745.554,309.231 765.12,313.144 z" id="boundary" inkscape:connector-curvature="0" />
	<path style="fill:none;stroke:red;stroke-width:1px;stroke-linecap:butt;stroke-linejoin:miter;stroke-opacity:1" d="M 765.12,313.144 784.686,313.144 z" id="boundary" inkscape:connector-curvature="0" />
	<path style="fill:none;stroke:red;stroke-width:1px;stroke-linecap:butt;stroke-linejoin:miter;stroke-opacity:1" d="M 784.686,313.144 804.252,317.057 z" id="boundary" inkscape:connector-curvature="0" />
	<path style="fill:none;stroke:red;stroke-width:1px;stroke-linecap:butt;stroke-linejoin:miter;stroke-opacity:1" d="M 823.819,320.97 804.252,317.057 z" id="boundary" inkscape:connector-curvature="0" />
	<path style="fill:none;stroke:red;stroke-width:1px;stroke-linecap:butt;stroke-linejoin:miter;stroke-opacity:1" d="M 843.385,320.97 823.819,320.97 z" id="boundary" inkscape:connector-curvature="0" />
	<path style="fill:none;stroke:red;stroke-width:1px;stroke-linecap:butt;stroke-linejoin:miter;stroke-opacity:1" d="M 843.385,320.97 862.951,324.884 z" id="boundary" inkscape:connector-curvature="0" />
	<path style="fill:none;stroke:red;stroke-width:1px;stroke-linecap:butt;stroke-linejoin:miter;stroke-opacity:1" d="M 862.951,324.884 882.517,324.884 z" id="boundary" inkscape:connector-curvature="0" />
	<path style="fill:none;stroke:red;stroke-width:1px;stroke-linecap:butt;stroke-linejoin:miter;stroke-opacity:1" d="M 902.083,328.797 882.517,324.884 z" id="boundary" inkscape:connector-curvature="0" />
	<path style="fill:none;stroke:red;stroke-width:1px;stroke-linecap:butt;stroke-linejoin:miter;stroke-opacity:1" d="M 921.649,336.623 941.215,340.536 z" id="boundary" inkscape:connector-curvature="0" />
	<path style="fill:none;stroke:red;stroke-width:1px;stroke-linecap:butt;stroke-linejoin:miter;stroke-opacity:1" d="M 921.649,336.623 902.083,328.797 z" id="boundary" inkscape:connector-curvature="0" />
	<path style="fill:none;stroke:red;stroke-width:1px;stroke-linecap:butt;stroke-linejoin:miter;stroke-opacity:1" d="M 960.781,348.363 941.215,340.536 z" id="boundary" inkscape:connector-curvature="0" />
	<path style="fill:none;stroke:red;stroke-width:1px;stroke-linecap:butt;stroke-linejoin:miter;stroke-opacity:1" d="M 978.391,358.146 994.043,369.886 z" id="boundary" inkscape:connector-curvature="0" />
	<path style="fill:none;stroke:red;stroke-width:1px;stroke-linecap:butt;stroke-linejoin:miter;stroke-opacity:1" d="M 994.043,369.886 996,391.408 z" id="boundary" inkscape:connector-curvature="0" />
	<path style="fill:none;stroke:red;stroke-width:1px;stroke-linecap:butt;stroke-linejoin:miter;stroke-opacity:1" d="M 960.781,348.363 978.391,358.146 z" id="boundary" inkscape:connector-curvature="0" />
	<path style="fill:none;stroke:red;stroke-width:1px;stroke-linecap:butt;stroke-linejoin:miter;stroke-opacity:1" d="M 988.174,410.974 976.434,426.627 z" id="boundary" inkscape:connector-curvature="0" />
	<path style="fill:none;stroke:red;stroke-width:1px;stroke-linecap:butt;stroke-linejoin:miter;stroke-opacity:1" d="M 996,391.408 988.174,410.974 z" id="boundary" inkscape:connector-curvature="0" />
	<path style="fill:none;stroke:red;stroke-width:1px;stroke-linecap:butt;stroke-linejoin:miter;stroke-opacity:1" d="M 976.434,426.627 976.434,446.193 z" id="boundary" inkscape:connector-curvature="0" />
	<path style="fill:none;stroke:red;stroke-width:1px;stroke-linecap:butt;stroke-linejoin:miter;stroke-opacity:1" d="M 477.499,532.284 497.065,536.197 z" id="boundary" inkscape:connector-curvature="0" />
	<path style="fill:none;stroke:red;stroke-width:1px;stroke-linecap:butt;stroke-linejoin:miter;stroke-opacity:1" d="M 516.631,542.067 497.065,536.197 z" id="boundary" inkscape:connector-curvature="0" />
	<path style="fill:none;stroke:red;stroke-width:1px;stroke-linecap:butt;stroke-linejoin:miter;stroke-opacity:1" d="M 536.197,549.893 516.631,542.067 z" id="boundary" inkscape:connector-curvature="0" />
	<path style="fill:none;stroke:red;stroke-width:1px;stroke-linecap:butt;stroke-linejoin:miter;stroke-opacity:1" d="M 536.197,549.893 555.763,557.72 z" id="boundary" inkscape:connector-curvature="0" />
	<path style="fill:none;stroke:red;stroke-width:1px;stroke-linecap:butt;stroke-linejoin:miter;stroke-opacity:1" d="M 575.329,565.546 555.763,557.72 z" id="boundary" inkscape:connector-curvature="0" />
	<path style="fill:none;stroke:red;stroke-width:1px;stroke-linecap:butt;stroke-linejoin:miter;stroke-opacity:1" d="M 610.548,581.199 594.895,569.46 z" id="boundary" inkscape:connector-curvature="0" />
	<path style="fill:none;stroke:red;stroke-width:1px;stroke-linecap:butt;stroke-linejoin:miter;stroke-opacity:1" d="M 594.895,569.46 575.329,565.546 z" id="boundary" inkscape:connector-curvature="0" />
	<path style="fill:none;stroke:red;stroke-width:1px;stroke-linecap:butt;stroke-linejoin:miter;stroke-opacity:1" d="M 610.548,581.199 630.114,581.199 z" id="boundary" inkscape:connector-curvature="0" />
	<path style="fill:none;stroke:red;stroke-width:1px;stroke-linecap:butt;stroke-linejoin:miter;stroke-opacity:1" d="M 649.68,573.373 630.114,581.199 z" id="boundary" inkscape:connector-curvature="0" />
	<path style="fill:none;stroke:red;stroke-width:1px;stroke-linecap:butt;stroke-linejoin:miter;stroke-opacity:1" d="M 786.643,534.241 767.077,538.154 z" id="boundary" inkscape:connector-curvature="0" />
	<path style="fill:none;stroke:red;stroke-width:1px;stroke-linecap:butt;stroke-linejoin:miter;stroke-opacity:1" d="M 806.209,534.241 786.643,534.241 z" id="boundary" inkscape:connector-curvature="0" />
	<path style="fill:none;stroke:red;stroke-width:1px;stroke-linecap:butt;stroke-linejoin:miter;stroke-opacity:1" d="M 767.077,538.154 747.511,542.067 z" id="boundary" inkscape:connector-curvature="0" />
	<path style="fill:none;stroke:red;stroke-width:1px;stroke-linecap:butt;stroke-linejoin:miter;stroke-opacity:1" d="M 747.511,542.067 727.945,549.893 z" id="boundary" inkscape:connector-curvature="0" />
	<path style="fill:none;stroke:red;stroke-width:1px;stroke-linecap:butt;stroke-linejoin:miter;stroke-opacity:1" d="M 649.68,573.373 669.247,569.46 z" id="boundary" inkscape:connector-curvature="0" />
	<path style="fill:none;stroke:red;stroke-width:1px;stroke-linecap:butt;stroke-linejoin:miter;stroke-opacity:1" d="M 688.813,565.546 669.247,569.46 z" id="boundary" inkscape:connector-curvature="0" />
	<path style="fill:none;stroke:red;stroke-width:1px;stroke-linecap:butt;stroke-linejoin:miter;stroke-opacity:1" d="M 727.945,549.893 708.379,557.72 z" id="boundary" inkscape:connector-curvature="0" />
	<path style="fill:none;stroke:red;stroke-width:1px;stroke-linecap:butt;stroke-linejoin:miter;stroke-opacity:1" d="M 688.813,565.546 708.379,557.72 z" id="boundary" inkscape:connector-curvature="0" />
	<path style="fill:none;stroke:red;stroke-width:1px;stroke-linecap:butt;stroke-linejoin:miter;stroke-opacity:1" d="M 610.548,581.199 610.548,600.765 z" id="boundary" inkscape:connector-curvature="0" />
	<path style="fill:none;stroke:red;stroke-width:1px;stroke-linecap:butt;stroke-linejoin:miter;stroke-opacity:1" d="M 610.548,600.765 630.114,604.679 z" id="boundary" inkscape:connector-curvature="0" />
	<path style="fill:none;stroke:red;stroke-width:1px;stroke-linecap:butt;stroke-linejoin:miter;stroke-opacity:1" d="M 806.209,534.241 825.775,542.067 z" id="boundary" inkscape:connector-curvature="0" />
	<path style="fill:none;stroke:red;stroke-width:1px;stroke-linecap:butt;stroke-linejoin:miter;stroke-opacity:1" d="M 972.521,473.586 976.434,446.193 z" id="boundary" inkscape:connector-curvature="0" />
	<path style="fill:none;stroke:red;stroke-width:1px;stroke-linecap:butt;stroke-linejoin:miter;stroke-opacity:1" d="M 972.521,493.152 972.521,473.586 z" id="boundary" inkscape:connector-curvature="0" />
	<path style="fill:none;stroke:red;stroke-width:1px;stroke-linecap:butt;stroke-linejoin:miter;stroke-opacity:1" d="M 972.521,512.718 976.434,532.284 z" id="boundary" inkscape:connector-curvature="0" />
	<path style="fill:none;stroke:red;stroke-width:1px;stroke-linecap:butt;stroke-linejoin:miter;stroke-opacity:1" d="M 972.521,512.718 972.521,493.152 z" id="boundary" inkscape:connector-curvature="0" />
	<path style="fill:none;stroke:red;stroke-width:1px;stroke-linecap:butt;stroke-linejoin:miter;stroke-opacity:1" d="M 841.428,553.807 825.775,542.067 z" id="boundary" inkscape:connector-curvature="0" />
	<path style="fill:none;stroke:red;stroke-width:1px;stroke-linecap:butt;stroke-linejoin:miter;stroke-opacity:1" d="M 860.994,545.98 841.428,553.807 z" id="boundary" inkscape:connector-curvature="0" />
	<path style="fill:none;stroke:red;stroke-width:1px;stroke-linecap:butt;stroke-linejoin:miter;stroke-opacity:1" d="M 880.56,542.067 900.126,538.154 z" id="boundary" inkscape:connector-curvature="0" />
	<path style="fill:none;stroke:red;stroke-width:1px;stroke-linecap:butt;stroke-linejoin:miter;stroke-opacity:1" d="M 919.692,538.154 900.126,538.154 z" id="boundary" inkscape:connector-curvature="0" />
	<path style="fill:none;stroke:red;stroke-width:1px;stroke-linecap:butt;stroke-linejoin:miter;stroke-opacity:1" d="M 860.994,545.98 880.56,542.067 z" id="boundary" inkscape:connector-curvature="0" />
	<path style="fill:none;stroke:red;stroke-width:1px;stroke-linecap:butt;stroke-linejoin:miter;stroke-opacity:1" d="M 939.258,538.154 954.911,549.893 z" id="boundary" inkscape:connector-curvature="0" />
	<path style="fill:none;stroke:red;stroke-width:1px;stroke-linecap:butt;stroke-linejoin:miter;stroke-opacity:1" d="M 919.692,538.154 939.258,538.154 z" id="boundary" inkscape:connector-curvature="0" />
	<path style="fill:none;stroke:red;stroke-width:1px;stroke-linecap:butt;stroke-linejoin:miter;stroke-opacity:1" d="M 954.911,549.893 958.824,569.46 z" id="boundary" inkscape:connector-curvature="0" />
	<path style="fill:none;stroke:red;stroke-width:1px;stroke-linecap:butt;stroke-linejoin:miter;stroke-opacity:1" d="M 976.434,532.284 984.26,551.85 z" id="boundary" inkscape:connector-curvature="0" />
	<path style="fill:none;stroke:red;stroke-width:1px;stroke-linecap:butt;stroke-linejoin:miter;stroke-opacity:1" d="M 958.824,589.026 958.824,569.46 z" id="boundary" inkscape:connector-curvature="0" />
	<path style="fill:none;stroke:red;stroke-width:1px;stroke-linecap:butt;stroke-linejoin:miter;stroke-opacity:1" d="M 984.26,551.85 978.391,581.199 z" id="boundary" inkscape:connector-curvature="0" />
	<path style="fill:none;stroke:red;stroke-width:1px;stroke-linecap:butt;stroke-linejoin:miter;stroke-opacity:1" d="M 966.651,608.592 958.824,589.026 z" id="boundary" inkscape:connector-curvature="0" />
	<circle cx="4" cy="148.789" r="4" fill="#0" id="circle0"/>
	<circle cx="4" cy="168.355" r="4" fill="#0" id="circle1"/>
	<circle cx="4" cy="442.28" r="4" fill="#0" id="circle2"/>
	<circle cx="4" cy="461.846" r="4" fill="#0" id="circle3"/>
	<circle cx="4" cy="481.412" r="4" fill="#0" id="circle4"/>
	<circle cx="4" cy="500.978" r="4" fill="#0" id="circle5"/>
	<circle cx="7.91321" cy="383.582" r="4" fill="#0" id="circle6"/>
	<circle cx="7.91321" cy="403.148" r="4" fill="#0" id="circle7"/>
	<circle cx="7.91321" cy="422.714" r="4" fill="#0" id="circle8"/>
	<circle cx="7.91321" cy="520.544" r="4" fill="#0" id="circle9"/>
	<circle cx="7.91321" cy="540.11" r="4" fill="#0" id="circle10"/>
	<circle cx="7.91321" cy="559.677" r="4" fill="#0" id="circle11"/>
	<circle cx="7.91321" cy="579.243" r="4" fill="#0" id="circle12"/>
	<circle cx="11.8264" cy="356.189" r="4" fill="#0" id="circle13"/>
	<circle cx="11.8264" cy="598.809" r="4" fill="#0" id="circle14"/>
	<circle cx="13.783" cy="185.964" r="4" fill="#0" id="circle15"/>
	<circle cx="15.7396" cy="133.136" r="4" fill="#0" id="circle16"/>
	<circle cx="15.7396" cy="205.531" r="4" fill="#0" id="circle17"/>
	<circle cx="15.7396" cy="328.797" r="4" fill="#0" id="circle18"/>
	<circle cx="19.6529" cy="225.097" r="4" fill="#0" id="circle19"/>
	<circle cx="19.6529" cy="244.663" r="4" fill="#0" id="circle20"/>
	<circle cx="19.6529" cy="264.229" r="4" fill="#0" id="circle21"/>
	<circle cx="19.6529" cy="283.795" r="4" fill="#0" id="circle22"/>
	<circle cx="19.6529" cy="303.361" r="4" fill="#0" id="circle23"/>
	<circle cx="31.3925" cy="600.765" r="4" fill="#0" id="circle24"/>
	<circle cx="33.3491" cy="123.353" r="4" fill="#0" id="circle25"/>
	<circle cx="33.3491" cy="575.329" r="4" fill="#0" id="circle26"/>
	<circle cx="37.2623" cy="528.371" r="4" fill="#0" id="circle27"/>
	<circle cx="37.2623" cy="547.937" r="4" fill="#0" id="circle28"/>
	<circle cx="50.9586" cy="113.57" r="4" fill="#0" id="circle29"/>
	<circle cx="56.8284" cy="526.414" r="4" fill="#0" id="circle30"/>
	<circle cx="70.5247" cy="105.744" r="4" fill="#0" id="circle31"/>
	<circle cx="76.3945" cy="526.414" r="4" fill="#0" id="circle32"/>
	<circle cx="90.0907" cy="101.83" r="4" fill="#0" id="circle33"/>
	<circle cx="95.9606" cy="526.414" r="4" fill="#0" id="circle34"/>
	<circle cx="109.657" cy="97.9172" r="4" fill="#0" id="circle35"/>
	<circle cx="115.527" cy="526.414" r="4" fill="#0" id="circle36"/>
	<circle cx="129.223" cy="90.0907" r="4" fill="#0" id="circle37"/>
	<circle cx="135.093" cy="526.414" r="4" fill="#0" id="circle38"/>
	<circle cx="148.789" cy="86.1775" r="4" fill="#0" id="circle39"/>
	<circle cx="154.659" cy="526.414" r="4" fill="#0" id="circle40"/>
	<circle cx="168.355" cy="82.2643" r="4" fill="#0" id="circle41"/>
	<circle cx="174.225" cy="526.414" r="4" fill="#0" id="circle42"/>
	<circle cx="187.921" cy="78.3511" r="4" fill="#0" id="circle43"/>
	<circle cx="193.791" cy="526.414" r="4" fill="#0" id="circle44"/>
	<circle cx="207.487" cy="74.4379" r="4" fill="#0" id="circle45"/>
	<circle cx="213.357" cy="526.414" r="4" fill="#0" id="circle46"/>
	<circle cx="225.097" cy="64.6548" r="4" fill="#0" id="circle47"/>
	<circle cx="232.923" cy="526.414" r="4" fill="#0" id="circle48"/>
	<circle cx="240.75" cy="52.9152" r="4" fill="#0" id="circle49"/>
	<circle cx="252.489" cy="526.414" r="4" fill="#0" id="circle50"/>
	<circle cx="260.316" cy="47.0454" r="4" fill="#0" id="circle51"/>
	<circle cx="272.055" cy="526.414" r="4" fill="#0" id="circle52"/>
	<circle cx="279.882" cy="39.2189" r="4" fill="#0" id="circle53"/>
	<circle cx="285.751" cy="542.067" r="4" fill="#0" id="circle54"/>
	<circle cx="285.751" cy="561.633" r="4" fill="#0" id="circle55"/>
	<circle cx="289.665" cy="581.199" r="4" fill="#0" id="circle56"/>
	<circle cx="289.665" cy="600.765" r="4" fill="#0" id="circle57"/>
	<circle cx="293.578" cy="23.5661" r="4" fill="#0" id="circle58"/>
	<circle cx="305.318" cy="7.91321" r="4" fill="#0" id="circle59"/>
	<circle cx="309.231" cy="604.679" r="4" fill="#0" id="circle60"/>
	<circle cx="319.014" cy="559.677" r="4" fill="#0" id="circle61"/>
	<circle cx="319.014" cy="579.243" r="4" fill="#0" id="circle62"/>
	<circle cx="322.927" cy="540.11" r="4" fill="#0" id="circle63"/>
	<circle cx="324.884" cy="4" r="4" fill="#0" id="circle64"/>
	<circle cx="340.536" cy="17.6963" r="4" fill="#0" id="circle65"/>
	<circle cx="342.493" cy="538.154" r="4" fill="#0" id="circle66"/>
	<circle cx="356.189" cy="29.4359" r="4" fill="#0" id="circle67"/>
	<circle cx="362.059" cy="538.154" r="4" fill="#0" id="circle68"/>
	<circle cx="371.842" cy="41.1755" r="4" fill="#0" id="circle69"/>
	<circle cx="381.625" cy="542.067" r="4" fill="#0" id="circle70"/>
	<circle cx="391.408" cy="47.0454" r="4" fill="#0" id="circle71"/>
	<circle cx="401.191" cy="545.98" r="4" fill="#0" id="circle72"/>
	<circle cx="407.061" cy="58.785" r="4" fill="#0" id="circle73"/>
	<circle cx="420.757" cy="553.807" r="4" fill="#0" id="circle74"/>
	<circle cx="422.714" cy="72.4813" r="4" fill="#0" id="circle75"/>
	<circle cx="438.367" cy="542.067" r="4" fill="#0" id="circle76"/>
	<circle cx="442.28" cy="76.3945" r="4" fill="#0" id="circle77"/>
	<circle cx="457.933" cy="534.241" r="4" fill="#0" id="circle78"/>
	<circle cx="461.846" cy="80.3077" r="4" fill="#0" id="circle79"/>
	<circle cx="477.499" cy="532.284" r="4" fill="#0" id="circle80"/>
	<circle cx="481.412" cy="86.1775" r="4" fill="#0" id="circle81"/>
	<circle cx="497.065" cy="536.197" r="4" fill="#0" id="circle82"/>
	<circle cx="500.978" cy="90.0907" r="4" fill="#0" id="circle83"/>
	<circle cx="516.631" cy="542.067" r="4" fill="#0" id="circle84"/>
	<circle cx="520.544" cy="94.0039" r="4" fill="#0" id="circle85"/>
	<circle cx="536.197" cy="549.893" r="4" fill="#0" id="circle86"/>
	<circle cx="540.11" cy="97.9172" r="4" fill="#0" id="circle87"/>
	<circle cx="555.763" cy="557.72" r="4" fill="#0" id="circle88"/>
	<circle cx="559.677" cy="105.744" r="4" fill="#0" id="circle89"/>
	<circle cx="575.329" cy="565.546" r="4" fill="#0" id="circle90"/>
	<circle cx="579.243" cy="109.657" r="4" fill="#0" id="circle91"/>
	<circle cx="594.895" cy="569.46" r="4" fill="#0" id="circle92"/>
	<circle cx="598.809" cy="117.483" r="4" fill="#0" id="circle93"/>
	<circle cx="610.548" cy="581.199" r="4" fill="#0" id="circle94"/>
	<circle cx="610.548" cy="600.765" r="4" fill="#0" id="circle95"/>
	<circle cx="616.418" cy="127.266" r="4" fill="#0" id="circle96"/>
	<circle cx="616.418" cy="227.053" r="4" fill="#0" id="circle97"/>
	<circle cx="616.418" cy="246.619" r="4" fill="#0" id="circle98"/>
	<circle cx="618.375" cy="266.185" r="4" fill="#0" id="circle99"/>
	<circle cx="620.331" cy="191.834" r="4" fill="#0" id="circle100"/>
	<circle cx="630.114" cy="581.199" r="4" fill="#0" id="circle101"/>
	<circle cx="630.114" cy="604.679" r="4" fill="#0" id="circle102"/>
	<circle cx="632.071" cy="139.006" r="4" fill="#0" id="circle103"/>
	<circle cx="635.984" cy="176.181" r="4" fill="#0" id="circle104"/>
	<circle cx="637.941" cy="262.272" r="4" fill="#0" id="circle105"/>
	<circle cx="649.68" cy="573.373" r="4" fill="#0" id="circle106"/>
	<circle cx="655.55" cy="272.055" r="4" fill="#0" id="circle107"/>
	<circle cx="669.247" cy="569.46" r="4" fill="#0" id="circle108"/>
	<circle cx="675.116" cy="277.925" r="4" fill="#0" id="circle109"/>
	<circle cx="688.813" cy="565.546" r="4" fill="#0" id="circle110"/>
	<circle cx="690.769" cy="289.665" r="4" fill="#0" id="circle111"/>
	<circle cx="708.379" cy="557.72" r="4" fill="#0" id="circle112"/>
	<circle cx="710.335" cy="293.578" r="4" fill="#0" id="circle113"/>
	<circle cx="725.988" cy="305.318" r="4" fill="#0" id="circle114"/>
	<circle cx="727.945" cy="549.893" r="4" fill="#0" id="circle115"/>
	<circle cx="745.554" cy="309.231" r="4" fill="#0" id="circle116"/>
	<circle cx="747.511" cy="542.067" r="4" fill="#0" id="circle117"/>
	<circle cx="765.12" cy="313.144" r="4" fill="#0" id="circle118"/>
	<circle cx="767.077" cy="538.154" r="4" fill="#0" id="circle119"/>
	<circle cx="784.686" cy="313.144" r="4" fill="#0" id="circle120"/>
	<circle cx="786.643" cy="534.241" r="4" fill="#0" id="circle121"/>
	<circle cx="804.252" cy="317.057" r="4" fill="#0" id="circle122"/>
	<circle cx="806.209" cy="534.241" r="4" fill="#0" id="circle123"/>
	<circle cx="823.819" cy="320.97" r="4" fill="#0" id="circle124"/>
	<circle cx="825.775" cy="542.067" r="4" fill="#0" id="circle125"/>
	<circle cx="841.428" cy="553.807" r="4" fill="#0" id="circle126"/>
	<circle cx="843.385" cy="320.97" r="4" fill="#0" id="circle127"/>
	<circle cx="860.994" cy="545.98" r="4" fill="#0" id="circle128"/>
	<circle cx="862.951" cy="324.884" r="4" fill="#0" id="circle129"/>
	<circle cx="880.56" cy="542.067" r="4" fill="#0" id="circle130"/>
	<circle cx="882.517" cy="324.884" r="4" fill="#0" id="circle131"/>
	<circle cx="900.126" cy="538.154" r="4" fill="#0" id="circle132"/>
	<circle cx="902.083" cy="328.797" r="4" fill="#0" id="circle133"/>
	<circle cx="919.692" cy="538.154" r="4" fill="#0" id="circle134"/>
	<circle cx="921.649" cy="336.623" r="4" fill="#0" id="circle135"/>
	<circle cx="939.258" cy="538.154" r="4" fill="#0" id="circle136"/>
	<circle cx="941.215" cy="340.536" r="4" fill="#0" id="circle137"/>
	<circle cx="954.911" cy="549.893" r="4" fill="#0" id="circle138"/>
	<circle cx="958.824" cy="569.46" r="4" fill="#0" id="circle139"/>
	<circle cx="958.824" cy="589.026" r="4" fill="#0" id="circle140"/>
	<circle cx="960.781" cy="348.363" r="4" fill="#0" id="circle141"/>
	<circle cx="966.651" cy="608.592" r="4" fill="#0" id="circle142"/>
	<circle cx="972.521" cy="473.586" r="4" fill="#0" id="circle143"/>
	<circle cx="972.521" cy="493.152" r="4" fill="#0" id="circle144"/>
	<circle cx="972.521" cy="512.718" r="4" fill="#0" id="circle145"/>
	<circle cx="976.434" cy="426.627" r="4" fill="#0" id="circle146"/>
	<circle cx="976.434" cy="446.193" r="4" fill="#0" id="circle147"/>
	<circle cx="976.434" cy="532.284" r="4" fill="#0" id="circle148"/>
	<circle cx="978.391" cy="358.146" r="4" fill="#0" id="circle149"/>
	<circle cx="978.391" cy="581.199" r="4" fill="#0" id="circle150"/>
	<circle cx="984.26" cy="551.85" r="4" fill="#0" id="circle151"/>
	<circle cx="988.174" cy="410.974" r="4" fill="#0" id="circle152"/>
	<circle cx="994.043" cy="369.886" r="4" fill="#0" id="circle153"/>
	<circle cx="996" cy="391.408" r="4" fill="#0" id="circle154"/>
	</g>
</svg>