<?xml version="1.0" encoding="UTF-8" standalone="no"?>
<!-- Created with CurveBenchmark -->
<svg
	xmlns:dc="http://purl.org/dc/elements/1.1/"
	xmlns:cc="http://creativecommons.org/ns#"
	xmlns:rdf="http://www.w3.org/1999/02/22-rdf-syntax-ns#"
	xmlns:svg="http://www.w3.org/2000/svg"
	xmlns="http://www.w3.org/2000/svg"
	xmlns:sodipodi="http://sodipodi.sourceforge.net/DTD/sodipodi-0.dtd"
	xmlns:inkscape="http://www.inkscape.org/namespaces/inkscape"
	width="1000"
	height="1000"
	id="svg2"
	version="1.1"
	sodipodi:docname="manifold/crust-stef05.png.txt">
<defs
	id="defs4" />
<metadata
	id="metadata7">
	<rdf:RDF>
		<cc:Work
			rdf:about="">
			<dc:format>image/svg+xml</dc:format>
			<dc:type
				rdf:resource="http://purl.org/dc/dcmitype/StillImage" />
			<dc:title></dc:title>
		</cc:Work>
	</rdf:RDF>
</metadata>
<g
	inkscape:label="Layer 1"
	inkscape:groupmode="layer"
	id="layer1">
	<path style="fill:none;stroke:red;stroke-width:1px;stroke-linecap:butt;stroke-linejoin:miter;stroke-opacity:1" d="M 14.9978,43.592 32.5942,25.9956 z" id="boundary" inkscape:connector-curvature="0" />
	<path style="fill:none;stroke:red;stroke-width:1px;stroke-linecap:butt;stroke-linejoin:miter;stroke-opacity:1" d="M 52.3902,14.9978 32.5942,25.9956 z" id="boundary" inkscape:connector-curvature="0" />
	<path style="fill:none;stroke:red;stroke-width:1px;stroke-linecap:butt;stroke-linejoin:miter;stroke-opacity:1" d="M 4,65.5876 14.9978,43.592 z" id="boundary" inkscape:connector-curvature="0" />
	<path style="fill:none;stroke:red;stroke-width:1px;stroke-linecap:butt;stroke-linejoin:miter;stroke-opacity:1" d="M 72.1863,4 94.1818,4 z" id="boundary" inkscape:connector-curvature="0" />
	<path style="fill:none;stroke:red;stroke-width:1px;stroke-linecap:butt;stroke-linejoin:miter;stroke-opacity:1" d="M 52.3902,14.9978 72.1863,4 z" id="boundary" inkscape:connector-curvature="0" />
	<path style="fill:none;stroke:red;stroke-width:1px;stroke-linecap:butt;stroke-linejoin:miter;stroke-opacity:1" d="M 21.5965,102.98 4,87.5831 z" id="boundary" inkscape:connector-curvature="0" />
	<path style="fill:none;stroke:red;stroke-width:1px;stroke-linecap:butt;stroke-linejoin:miter;stroke-opacity:1" d="M 4,87.5831 4,65.5876 z" id="boundary" inkscape:connector-curvature="0" />
	<path style="fill:none;stroke:red;stroke-width:1px;stroke-linecap:butt;stroke-linejoin:miter;stroke-opacity:1" d="M 36.9933,120.576 21.5965,102.98 z" id="boundary" inkscape:connector-curvature="0" />
	<path style="fill:none;stroke:red;stroke-width:1px;stroke-linecap:butt;stroke-linejoin:miter;stroke-opacity:1" d="M 58.9889,127.175 36.9933,120.576 z" id="boundary" inkscape:connector-curvature="0" />
	<path style="fill:none;stroke:red;stroke-width:1px;stroke-linecap:butt;stroke-linejoin:miter;stroke-opacity:1" d="M 94.1818,4 116.177,4 z" id="boundary" inkscape:connector-curvature="0" />
	<path style="fill:none;stroke:red;stroke-width:1px;stroke-linecap:butt;stroke-linejoin:miter;stroke-opacity:1" d="M 116.177,4 138.173,4 z" id="boundary" inkscape:connector-curvature="0" />
	<path style="fill:none;stroke:red;stroke-width:1px;stroke-linecap:butt;stroke-linejoin:miter;stroke-opacity:1" d="M 157.969,14.9978 171.166,32.5942 z" id="boundary" inkscape:connector-curvature="0" />
	<path style="fill:none;stroke:red;stroke-width:1px;stroke-linecap:butt;stroke-linejoin:miter;stroke-opacity:1" d="M 157.969,14.9978 138.173,4 z" id="boundary" inkscape:connector-curvature="0" />
	<path style="fill:none;stroke:red;stroke-width:1px;stroke-linecap:butt;stroke-linejoin:miter;stroke-opacity:1" d="M 171.166,32.5942 182.164,52.3902 z" id="boundary" inkscape:connector-curvature="0" />
	<path style="fill:none;stroke:red;stroke-width:1px;stroke-linecap:butt;stroke-linejoin:miter;stroke-opacity:1" d="M 193.162,72.1863 197.561,94.1818 z" id="boundary" inkscape:connector-curvature="0" />
	<path style="fill:none;stroke:red;stroke-width:1px;stroke-linecap:butt;stroke-linejoin:miter;stroke-opacity:1" d="M 182.164,52.3902 193.162,72.1863 z" id="boundary" inkscape:connector-curvature="0" />
	<path style="fill:none;stroke:red;stroke-width:1px;stroke-linecap:butt;stroke-linejoin:miter;stroke-opacity:1" d="M 58.9889,127.175 78.7849,138.173 z" id="boundary" inkscape:connector-curvature="0" />
	<path style="fill:none;stroke:red;stroke-width:1px;stroke-linecap:butt;stroke-linejoin:miter;stroke-opacity:1" d="M 78.7849,138.173 100.78,138.173 z" id="boundary" inkscape:connector-curvature="0" />
	<path style="fill:none;stroke:red;stroke-width:1px;stroke-linecap:butt;stroke-linejoin:miter;stroke-opacity:1" d="M 100.78,138.173 102.98,160.169 z" id="boundary" inkscape:connector-curvature="0" />
	<path style="fill:none;stroke:red;stroke-width:1px;stroke-linecap:butt;stroke-linejoin:miter;stroke-opacity:1" d="M 102.98,197.561 102.98,160.169 z" id="boundary" inkscape:connector-curvature="0" />
	<path style="fill:none;stroke:red;stroke-width:1px;stroke-linecap:butt;stroke-linejoin:miter;stroke-opacity:1" d="M 113.978,217.357 102.98,197.561 z" id="boundary" inkscape:connector-curvature="0" />
	<path style="fill:none;stroke:red;stroke-width:1px;stroke-linecap:butt;stroke-linejoin:miter;stroke-opacity:1" d="M 113.978,217.357 129.375,234.953 z" id="boundary" inkscape:connector-curvature="0" />
	<path style="fill:none;stroke:red;stroke-width:1px;stroke-linecap:butt;stroke-linejoin:miter;stroke-opacity:1" d="M 151.37,243.752 129.375,234.953 z" id="boundary" inkscape:connector-curvature="0" />
	<path style="fill:none;stroke:red;stroke-width:1px;stroke-linecap:butt;stroke-linejoin:miter;stroke-opacity:1" d="M 151.37,243.752 173.366,248.151 z" id="boundary" inkscape:connector-curvature="0" />
	<path style="fill:none;stroke:red;stroke-width:1px;stroke-linecap:butt;stroke-linejoin:miter;stroke-opacity:1" d="M 190.962,261.348 173.366,248.151 z" id="boundary" inkscape:connector-curvature="0" />
	<path style="fill:none;stroke:red;stroke-width:1px;stroke-linecap:butt;stroke-linejoin:miter;stroke-opacity:1" d="M 190.962,261.348 212.958,270.146 z" id="boundary" inkscape:connector-curvature="0" />
	<path style="fill:none;stroke:red;stroke-width:1px;stroke-linecap:butt;stroke-linejoin:miter;stroke-opacity:1" d="M 197.561,94.1818 215.157,109.579 z" id="boundary" inkscape:connector-curvature="0" />
	<path style="fill:none;stroke:red;stroke-width:1px;stroke-linecap:butt;stroke-linejoin:miter;stroke-opacity:1" d="M 215.157,109.579 237.153,113.978 z" id="boundary" inkscape:connector-curvature="0" />
	<path style="fill:none;stroke:red;stroke-width:1px;stroke-linecap:butt;stroke-linejoin:miter;stroke-opacity:1" d="M 300.94,118.377 278.945,118.377 z" id="boundary" inkscape:connector-curvature="0" />
	<path style="fill:none;stroke:red;stroke-width:1px;stroke-linecap:butt;stroke-linejoin:miter;stroke-opacity:1" d="M 256.949,124.976 237.153,113.978 z" id="boundary" inkscape:connector-curvature="0" />
	<path style="fill:none;stroke:red;stroke-width:1px;stroke-linecap:butt;stroke-linejoin:miter;stroke-opacity:1" d="M 278.945,118.377 256.949,124.976 z" id="boundary" inkscape:connector-curvature="0" />
	<path style="fill:none;stroke:red;stroke-width:1px;stroke-linecap:butt;stroke-linejoin:miter;stroke-opacity:1" d="M 322.936,124.976 300.94,118.377 z" id="boundary" inkscape:connector-curvature="0" />
	<path style="fill:none;stroke:red;stroke-width:1px;stroke-linecap:butt;stroke-linejoin:miter;stroke-opacity:1" d="M 344.931,129.375 322.936,124.976 z" id="boundary" inkscape:connector-curvature="0" />
	<path style="fill:none;stroke:red;stroke-width:1px;stroke-linecap:butt;stroke-linejoin:miter;stroke-opacity:1" d="M 358.129,146.971 344.931,129.375 z" id="boundary" inkscape:connector-curvature="0" />
	<path style="fill:none;stroke:red;stroke-width:1px;stroke-linecap:butt;stroke-linejoin:miter;stroke-opacity:1" d="M 358.129,146.971 380.124,153.57 z" id="boundary" inkscape:connector-curvature="0" />
	<path style="fill:none;stroke:red;stroke-width:1px;stroke-linecap:butt;stroke-linejoin:miter;stroke-opacity:1" d="M 232.754,281.144 212.958,270.146 z" id="boundary" inkscape:connector-curvature="0" />
	<path style="fill:none;stroke:red;stroke-width:1px;stroke-linecap:butt;stroke-linejoin:miter;stroke-opacity:1" d="M 252.55,292.142 272.346,303.14 z" id="boundary" inkscape:connector-curvature="0" />
	<path style="fill:none;stroke:red;stroke-width:1px;stroke-linecap:butt;stroke-linejoin:miter;stroke-opacity:1" d="M 252.55,292.142 232.754,281.144 z" id="boundary" inkscape:connector-curvature="0" />
	<path style="fill:none;stroke:red;stroke-width:1px;stroke-linecap:butt;stroke-linejoin:miter;stroke-opacity:1" d="M 289.942,316.337 311.938,325.135 z" id="boundary" inkscape:connector-curvature="0" />
	<path style="fill:none;stroke:red;stroke-width:1px;stroke-linecap:butt;stroke-linejoin:miter;stroke-opacity:1" d="M 289.942,316.337 272.346,303.14 z" id="boundary" inkscape:connector-curvature="0" />
	<path style="fill:none;stroke:red;stroke-width:1px;stroke-linecap:butt;stroke-linejoin:miter;stroke-opacity:1" d="M 296.541,465.907 278.945,483.503 z" id="boundary" inkscape:connector-curvature="0" />
	<path style="fill:none;stroke:red;stroke-width:1px;stroke-linecap:butt;stroke-linejoin:miter;stroke-opacity:1" d="M 307.539,443.911 296.541,465.907 z" id="boundary" inkscape:connector-curvature="0" />
	<path style="fill:none;stroke:red;stroke-width:1px;stroke-linecap:butt;stroke-linejoin:miter;stroke-opacity:1" d="M 329.534,432.914 307.539,443.911 z" id="boundary" inkscape:connector-curvature="0" />
	<path style="fill:none;stroke:red;stroke-width:1px;stroke-linecap:butt;stroke-linejoin:miter;stroke-opacity:1" d="M 278.945,483.503 267.947,505.499 z" id="boundary" inkscape:connector-curvature="0" />
	<path style="fill:none;stroke:red;stroke-width:1px;stroke-linecap:butt;stroke-linejoin:miter;stroke-opacity:1" d="M 311.938,325.135 331.734,336.133 z" id="boundary" inkscape:connector-curvature="0" />
	<path style="fill:none;stroke:red;stroke-width:1px;stroke-linecap:butt;stroke-linejoin:miter;stroke-opacity:1" d="M 331.734,336.133 351.53,347.131 z" id="boundary" inkscape:connector-curvature="0" />
	<path style="fill:none;stroke:red;stroke-width:1px;stroke-linecap:butt;stroke-linejoin:miter;stroke-opacity:1" d="M 371.326,358.129 351.53,347.131 z" id="boundary" inkscape:connector-curvature="0" />
	<path style="fill:none;stroke:red;stroke-width:1px;stroke-linecap:butt;stroke-linejoin:miter;stroke-opacity:1" d="M 377.925,395.521 371.326,421.916 z" id="boundary" inkscape:connector-curvature="0" />
	<path style="fill:none;stroke:red;stroke-width:1px;stroke-linecap:butt;stroke-linejoin:miter;stroke-opacity:1" d="M 351.53,432.914 371.326,421.916 z" id="boundary" inkscape:connector-curvature="0" />
	<path style="fill:none;stroke:red;stroke-width:1px;stroke-linecap:butt;stroke-linejoin:miter;stroke-opacity:1" d="M 329.534,432.914 351.53,432.914 z" id="boundary" inkscape:connector-curvature="0" />
	<path style="fill:none;stroke:red;stroke-width:1px;stroke-linecap:butt;stroke-linejoin:miter;stroke-opacity:1" d="M 380.124,490.102 369.126,512.098 z" id="boundary" inkscape:connector-curvature="0" />
	<path style="fill:none;stroke:red;stroke-width:1px;stroke-linecap:butt;stroke-linejoin:miter;stroke-opacity:1" d="M 371.326,358.129 377.925,395.521 z" id="boundary" inkscape:connector-curvature="0" />
	<path style="fill:none;stroke:red;stroke-width:1px;stroke-linecap:butt;stroke-linejoin:miter;stroke-opacity:1" d="M 223.956,571.486 234.953,549.49 z" id="boundary" inkscape:connector-curvature="0" />
	<path style="fill:none;stroke:red;stroke-width:1px;stroke-linecap:butt;stroke-linejoin:miter;stroke-opacity:1" d="M 252.55,531.894 234.953,549.49 z" id="boundary" inkscape:connector-curvature="0" />
	<path style="fill:none;stroke:red;stroke-width:1px;stroke-linecap:butt;stroke-linejoin:miter;stroke-opacity:1" d="M 223.956,593.481 223.956,571.486 z" id="boundary" inkscape:connector-curvature="0" />
	<path style="fill:none;stroke:red;stroke-width:1px;stroke-linecap:butt;stroke-linejoin:miter;stroke-opacity:1" d="M 223.956,615.477 223.956,593.481 z" id="boundary" inkscape:connector-curvature="0" />
	<path style="fill:none;stroke:red;stroke-width:1px;stroke-linecap:butt;stroke-linejoin:miter;stroke-opacity:1" d="M 223.956,615.477 223.956,637.472 z" id="boundary" inkscape:connector-curvature="0" />
	<path style="fill:none;stroke:red;stroke-width:1px;stroke-linecap:butt;stroke-linejoin:miter;stroke-opacity:1" d="M 223.956,637.472 234.953,657.268 z" id="boundary" inkscape:connector-curvature="0" />
	<path style="fill:none;stroke:red;stroke-width:1px;stroke-linecap:butt;stroke-linejoin:miter;stroke-opacity:1" d="M 234.953,657.268 245.951,677.064 z" id="boundary" inkscape:connector-curvature="0" />
	<path style="fill:none;stroke:red;stroke-width:1px;stroke-linecap:butt;stroke-linejoin:miter;stroke-opacity:1" d="M 245.951,677.064 256.949,696.86 z" id="boundary" inkscape:connector-curvature="0" />
	<path style="fill:none;stroke:red;stroke-width:1px;stroke-linecap:butt;stroke-linejoin:miter;stroke-opacity:1" d="M 274.545,710.058 256.949,696.86 z" id="boundary" inkscape:connector-curvature="0" />
	<path style="fill:none;stroke:red;stroke-width:1px;stroke-linecap:butt;stroke-linejoin:miter;stroke-opacity:1" d="M 278.945,732.053 274.545,710.058 z" id="boundary" inkscape:connector-curvature="0" />
	<path style="fill:none;stroke:red;stroke-width:1px;stroke-linecap:butt;stroke-linejoin:miter;stroke-opacity:1" d="M 252.55,531.894 267.947,505.499 z" id="boundary" inkscape:connector-curvature="0" />
	<path style="fill:none;stroke:red;stroke-width:1px;stroke-linecap:butt;stroke-linejoin:miter;stroke-opacity:1" d="M 201.96,923.415 201.96,945.41 z" id="boundary" inkscape:connector-curvature="0" />
	<path style="fill:none;stroke:red;stroke-width:1px;stroke-linecap:butt;stroke-linejoin:miter;stroke-opacity:1" d="M 201.96,923.415 219.557,905.818 z" id="boundary" inkscape:connector-curvature="0" />
	<path style="fill:none;stroke:red;stroke-width:1px;stroke-linecap:butt;stroke-linejoin:miter;stroke-opacity:1" d="M 223.956,941.011 201.96,945.41 z" id="boundary" inkscape:connector-curvature="0" />
	<path style="fill:none;stroke:red;stroke-width:1px;stroke-linecap:butt;stroke-linejoin:miter;stroke-opacity:1" d="M 241.552,894.82 219.557,905.818 z" id="boundary" inkscape:connector-curvature="0" />
	<path style="fill:none;stroke:red;stroke-width:1px;stroke-linecap:butt;stroke-linejoin:miter;stroke-opacity:1" d="M 263.548,883.823 241.552,894.82 z" id="boundary" inkscape:connector-curvature="0" />
	<path style="fill:none;stroke:red;stroke-width:1px;stroke-linecap:butt;stroke-linejoin:miter;stroke-opacity:1" d="M 263.548,883.823 285.543,883.823 z" id="boundary" inkscape:connector-curvature="0" />
	<path style="fill:none;stroke:red;stroke-width:1px;stroke-linecap:butt;stroke-linejoin:miter;stroke-opacity:1" d="M 278.945,732.053 289.942,751.849 z" id="boundary" inkscape:connector-curvature="0" />
	<path style="fill:none;stroke:red;stroke-width:1px;stroke-linecap:butt;stroke-linejoin:miter;stroke-opacity:1" d="M 243.752,952.009 223.956,941.011 z" id="boundary" inkscape:connector-curvature="0" />
	<path style="fill:none;stroke:red;stroke-width:1px;stroke-linecap:butt;stroke-linejoin:miter;stroke-opacity:1" d="M 243.752,952.009 265.747,952.009 z" id="boundary" inkscape:connector-curvature="0" />
	<path style="fill:none;stroke:red;stroke-width:1px;stroke-linecap:butt;stroke-linejoin:miter;stroke-opacity:1" d="M 265.747,952.009 285.543,963.007 z" id="boundary" inkscape:connector-curvature="0" />
	<path style="fill:none;stroke:red;stroke-width:1px;stroke-linecap:butt;stroke-linejoin:miter;stroke-opacity:1" d="M 292.142,567.086 292.142,589.082 z" id="boundary" inkscape:connector-curvature="0" />
	<path style="fill:none;stroke:red;stroke-width:1px;stroke-linecap:butt;stroke-linejoin:miter;stroke-opacity:1" d="M 311.938,556.089 292.142,567.086 z" id="boundary" inkscape:connector-curvature="0" />
	<path style="fill:none;stroke:red;stroke-width:1px;stroke-linecap:butt;stroke-linejoin:miter;stroke-opacity:1" d="M 292.142,589.082 303.14,608.878 z" id="boundary" inkscape:connector-curvature="0" />
	<path style="fill:none;stroke:red;stroke-width:1px;stroke-linecap:butt;stroke-linejoin:miter;stroke-opacity:1" d="M 331.734,545.091 311.938,556.089 z" id="boundary" inkscape:connector-curvature="0" />
	<path style="fill:none;stroke:red;stroke-width:1px;stroke-linecap:butt;stroke-linejoin:miter;stroke-opacity:1" d="M 303.14,630.874 314.137,650.67 z" id="boundary" inkscape:connector-curvature="0" />
	<path style="fill:none;stroke:red;stroke-width:1px;stroke-linecap:butt;stroke-linejoin:miter;stroke-opacity:1" d="M 303.14,608.878 303.14,630.874 z" id="boundary" inkscape:connector-curvature="0" />
	<path style="fill:none;stroke:red;stroke-width:1px;stroke-linecap:butt;stroke-linejoin:miter;stroke-opacity:1" d="M 314.137,650.67 314.137,672.665 z" id="boundary" inkscape:connector-curvature="0" />
	<path style="fill:none;stroke:red;stroke-width:1px;stroke-linecap:butt;stroke-linejoin:miter;stroke-opacity:1" d="M 289.942,751.849 294.341,773.845 z" id="boundary" inkscape:connector-curvature="0" />
	<path style="fill:none;stroke:red;stroke-width:1px;stroke-linecap:butt;stroke-linejoin:miter;stroke-opacity:1" d="M 331.734,545.091 351.53,531.894 z" id="boundary" inkscape:connector-curvature="0" />
	<path style="fill:none;stroke:red;stroke-width:1px;stroke-linecap:butt;stroke-linejoin:miter;stroke-opacity:1" d="M 351.53,531.894 369.126,512.098 z" id="boundary" inkscape:connector-curvature="0" />
	<path style="fill:none;stroke:red;stroke-width:1px;stroke-linecap:butt;stroke-linejoin:miter;stroke-opacity:1" d="M 336.133,710.058 336.133,732.053 z" id="boundary" inkscape:connector-curvature="0" />
	<path style="fill:none;stroke:red;stroke-width:1px;stroke-linecap:butt;stroke-linejoin:miter;stroke-opacity:1" d="M 314.137,672.665 331.734,688.062 z" id="boundary" inkscape:connector-curvature="0" />
	<path style="fill:none;stroke:red;stroke-width:1px;stroke-linecap:butt;stroke-linejoin:miter;stroke-opacity:1" d="M 336.133,710.058 331.734,688.062 z" id="boundary" inkscape:connector-curvature="0" />
	<path style="fill:none;stroke:red;stroke-width:1px;stroke-linecap:butt;stroke-linejoin:miter;stroke-opacity:1" d="M 347.131,751.849 336.133,732.053 z" id="boundary" inkscape:connector-curvature="0" />
	<path style="fill:none;stroke:red;stroke-width:1px;stroke-linecap:butt;stroke-linejoin:miter;stroke-opacity:1" d="M 347.131,751.849 347.131,773.845 z" id="boundary" inkscape:connector-curvature="0" />
	<path style="fill:none;stroke:red;stroke-width:1px;stroke-linecap:butt;stroke-linejoin:miter;stroke-opacity:1" d="M 300.94,795.84 300.94,817.836 z" id="boundary" inkscape:connector-curvature="0" />
	<path style="fill:none;stroke:red;stroke-width:1px;stroke-linecap:butt;stroke-linejoin:miter;stroke-opacity:1" d="M 300.94,795.84 294.341,773.845 z" id="boundary" inkscape:connector-curvature="0" />
	<path style="fill:none;stroke:red;stroke-width:1px;stroke-linecap:butt;stroke-linejoin:miter;stroke-opacity:1" d="M 300.94,817.836 300.94,839.831 z" id="boundary" inkscape:connector-curvature="0" />
	<path style="fill:none;stroke:red;stroke-width:1px;stroke-linecap:butt;stroke-linejoin:miter;stroke-opacity:1" d="M 300.94,839.831 300.94,861.827 z" id="boundary" inkscape:connector-curvature="0" />
	<path style="fill:none;stroke:red;stroke-width:1px;stroke-linecap:butt;stroke-linejoin:miter;stroke-opacity:1" d="M 300.94,861.827 285.543,883.823 z" id="boundary" inkscape:connector-curvature="0" />
	<path style="fill:none;stroke:red;stroke-width:1px;stroke-linecap:butt;stroke-linejoin:miter;stroke-opacity:1" d="M 307.539,963.007 285.543,963.007 z" id="boundary" inkscape:connector-curvature="0" />
	<path style="fill:none;stroke:red;stroke-width:1px;stroke-linecap:butt;stroke-linejoin:miter;stroke-opacity:1" d="M 347.131,773.845 347.131,798.04 z" id="boundary" inkscape:connector-curvature="0" />
	<path style="fill:none;stroke:red;stroke-width:1px;stroke-linecap:butt;stroke-linejoin:miter;stroke-opacity:1" d="M 358.129,817.836 358.129,839.831 z" id="boundary" inkscape:connector-curvature="0" />
	<path style="fill:none;stroke:red;stroke-width:1px;stroke-linecap:butt;stroke-linejoin:miter;stroke-opacity:1" d="M 358.129,817.836 347.131,798.04 z" id="boundary" inkscape:connector-curvature="0" />
	<path style="fill:none;stroke:red;stroke-width:1px;stroke-linecap:butt;stroke-linejoin:miter;stroke-opacity:1" d="M 369.126,859.627 358.129,839.831 z" id="boundary" inkscape:connector-curvature="0" />
	<path style="fill:none;stroke:red;stroke-width:1px;stroke-linecap:butt;stroke-linejoin:miter;stroke-opacity:1" d="M 329.534,963.007 307.539,963.007 z" id="boundary" inkscape:connector-curvature="0" />
	<path style="fill:none;stroke:red;stroke-width:1px;stroke-linecap:butt;stroke-linejoin:miter;stroke-opacity:1" d="M 369.126,903.619 369.126,881.623 z" id="boundary" inkscape:connector-curvature="0" />
	<path style="fill:none;stroke:red;stroke-width:1px;stroke-linecap:butt;stroke-linejoin:miter;stroke-opacity:1" d="M 369.126,925.614 351.53,960.807 z" id="boundary" inkscape:connector-curvature="0" />
	<path style="fill:none;stroke:red;stroke-width:1px;stroke-linecap:butt;stroke-linejoin:miter;stroke-opacity:1" d="M 369.126,903.619 369.126,925.614 z" id="boundary" inkscape:connector-curvature="0" />
	<path style="fill:none;stroke:red;stroke-width:1px;stroke-linecap:butt;stroke-linejoin:miter;stroke-opacity:1" d="M 351.53,960.807 329.534,963.007 z" id="boundary" inkscape:connector-curvature="0" />
	<path style="fill:none;stroke:red;stroke-width:1px;stroke-linecap:butt;stroke-linejoin:miter;stroke-opacity:1" d="M 369.126,859.627 369.126,881.623 z" id="boundary" inkscape:connector-curvature="0" />
	<path style="fill:none;stroke:red;stroke-width:1px;stroke-linecap:butt;stroke-linejoin:miter;stroke-opacity:1" d="M 380.124,153.57 397.721,168.967 z" id="boundary" inkscape:connector-curvature="0" />
	<path style="fill:none;stroke:red;stroke-width:1px;stroke-linecap:butt;stroke-linejoin:miter;stroke-opacity:1" d="M 413.118,186.563 397.721,168.967 z" id="boundary" inkscape:connector-curvature="0" />
	<path style="fill:none;stroke:red;stroke-width:1px;stroke-linecap:butt;stroke-linejoin:miter;stroke-opacity:1" d="M 413.118,186.563 432.914,197.561 z" id="boundary" inkscape:connector-curvature="0" />
	<path style="fill:none;stroke:red;stroke-width:1px;stroke-linecap:butt;stroke-linejoin:miter;stroke-opacity:1" d="M 450.51,212.958 432.914,197.561 z" id="boundary" inkscape:connector-curvature="0" />
	<path style="fill:none;stroke:red;stroke-width:1px;stroke-linecap:butt;stroke-linejoin:miter;stroke-opacity:1" d="M 450.51,212.958 457.109,234.953 z" id="boundary" inkscape:connector-curvature="0" />
	<path style="fill:none;stroke:red;stroke-width:1px;stroke-linecap:butt;stroke-linejoin:miter;stroke-opacity:1" d="M 474.705,248.151 457.109,234.953 z" id="boundary" inkscape:connector-curvature="0" />
	<path style="fill:none;stroke:red;stroke-width:1px;stroke-linecap:butt;stroke-linejoin:miter;stroke-opacity:1" d="M 474.705,248.151 494.501,259.149 z" id="boundary" inkscape:connector-curvature="0" />
	<path style="fill:none;stroke:red;stroke-width:1px;stroke-linecap:butt;stroke-linejoin:miter;stroke-opacity:1" d="M 516.497,267.947 494.501,259.149 z" id="boundary" inkscape:connector-curvature="0" />
	<path style="fill:none;stroke:red;stroke-width:1px;stroke-linecap:butt;stroke-linejoin:miter;stroke-opacity:1" d="M 531.894,285.543 516.497,267.947 z" id="boundary" inkscape:connector-curvature="0" />
	<path style="fill:none;stroke:red;stroke-width:1px;stroke-linecap:butt;stroke-linejoin:miter;stroke-opacity:1" d="M 545.091,303.14 531.894,285.543 z" id="boundary" inkscape:connector-curvature="0" />
	<path style="fill:none;stroke:red;stroke-width:1px;stroke-linecap:butt;stroke-linejoin:miter;stroke-opacity:1" d="M 545.091,303.14 549.49,325.135 z" id="boundary" inkscape:connector-curvature="0" />
	<path style="fill:none;stroke:red;stroke-width:1px;stroke-linecap:butt;stroke-linejoin:miter;stroke-opacity:1" d="M 560.488,344.931 549.49,325.135 z" id="boundary" inkscape:connector-curvature="0" />
	<path style="fill:none;stroke:red;stroke-width:1px;stroke-linecap:butt;stroke-linejoin:miter;stroke-opacity:1" d="M 567.086,366.927 560.488,344.931 z" id="boundary" inkscape:connector-curvature="0" />
	<path style="fill:none;stroke:red;stroke-width:1px;stroke-linecap:butt;stroke-linejoin:miter;stroke-opacity:1" d="M 399.92,479.104 380.124,490.102 z" id="boundary" inkscape:connector-curvature="0" />
	<path style="fill:none;stroke:red;stroke-width:1px;stroke-linecap:butt;stroke-linejoin:miter;stroke-opacity:1" d="M 410.918,498.9 399.92,479.104 z" id="boundary" inkscape:connector-curvature="0" />
	<path style="fill:none;stroke:red;stroke-width:1px;stroke-linecap:butt;stroke-linejoin:miter;stroke-opacity:1" d="M 421.916,540.692 410.918,520.896 z" id="boundary" inkscape:connector-curvature="0" />
	<path style="fill:none;stroke:red;stroke-width:1px;stroke-linecap:butt;stroke-linejoin:miter;stroke-opacity:1" d="M 410.918,498.9 410.918,520.896 z" id="boundary" inkscape:connector-curvature="0" />
	<path style="fill:none;stroke:red;stroke-width:1px;stroke-linecap:butt;stroke-linejoin:miter;stroke-opacity:1" d="M 421.916,540.692 432.914,560.488 z" id="boundary" inkscape:connector-curvature="0" />
	<path style="fill:none;stroke:red;stroke-width:1px;stroke-linecap:butt;stroke-linejoin:miter;stroke-opacity:1" d="M 443.911,580.284 432.914,560.488 z" id="boundary" inkscape:connector-curvature="0" />
	<path style="fill:none;stroke:red;stroke-width:1px;stroke-linecap:butt;stroke-linejoin:miter;stroke-opacity:1" d="M 567.086,366.927 567.086,388.922 z" id="boundary" inkscape:connector-curvature="0" />
	<path style="fill:none;stroke:red;stroke-width:1px;stroke-linecap:butt;stroke-linejoin:miter;stroke-opacity:1" d="M 567.086,410.918 567.086,388.922 z" id="boundary" inkscape:connector-curvature="0" />
	<path style="fill:none;stroke:red;stroke-width:1px;stroke-linecap:butt;stroke-linejoin:miter;stroke-opacity:1" d="M 567.086,410.918 567.086,432.914 z" id="boundary" inkscape:connector-curvature="0" />
	<path style="fill:none;stroke:red;stroke-width:1px;stroke-linecap:butt;stroke-linejoin:miter;stroke-opacity:1" d="M 567.086,454.909 567.086,476.905 z" id="boundary" inkscape:connector-curvature="0" />
	<path style="fill:none;stroke:red;stroke-width:1px;stroke-linecap:butt;stroke-linejoin:miter;stroke-opacity:1" d="M 567.086,498.9 567.086,476.905 z" id="boundary" inkscape:connector-curvature="0" />
	<path style="fill:none;stroke:red;stroke-width:1px;stroke-linecap:butt;stroke-linejoin:miter;stroke-opacity:1" d="M 567.086,454.909 567.086,432.914 z" id="boundary" inkscape:connector-curvature="0" />
	<path style="fill:none;stroke:red;stroke-width:1px;stroke-linecap:butt;stroke-linejoin:miter;stroke-opacity:1" d="M 883.823,494.501 905.818,492.302 z" id="boundary" inkscape:connector-curvature="0" />
	<path style="fill:none;stroke:red;stroke-width:1px;stroke-linecap:butt;stroke-linejoin:miter;stroke-opacity:1" d="M 883.823,494.501 861.827,505.499 z" id="boundary" inkscape:connector-curvature="0" />
	<path style="fill:none;stroke:red;stroke-width:1px;stroke-linecap:butt;stroke-linejoin:miter;stroke-opacity:1" d="M 925.614,503.299 905.818,492.302 z" id="boundary" inkscape:connector-curvature="0" />
	<path style="fill:none;stroke:red;stroke-width:1px;stroke-linecap:butt;stroke-linejoin:miter;stroke-opacity:1" d="M 567.086,520.896 567.086,498.9 z" id="boundary" inkscape:connector-curvature="0" />
	<path style="fill:none;stroke:red;stroke-width:1px;stroke-linecap:butt;stroke-linejoin:miter;stroke-opacity:1" d="M 861.827,505.499 839.831,516.497 z" id="boundary" inkscape:connector-curvature="0" />
	<path style="fill:none;stroke:red;stroke-width:1px;stroke-linecap:butt;stroke-linejoin:miter;stroke-opacity:1" d="M 817.836,538.492 839.831,516.497 z" id="boundary" inkscape:connector-curvature="0" />
	<path style="fill:none;stroke:red;stroke-width:1px;stroke-linecap:butt;stroke-linejoin:miter;stroke-opacity:1" d="M 567.086,542.891 567.086,520.896 z" id="boundary" inkscape:connector-curvature="0" />
	<path style="fill:none;stroke:red;stroke-width:1px;stroke-linecap:butt;stroke-linejoin:miter;stroke-opacity:1" d="M 567.086,564.887 567.086,586.882 z" id="boundary" inkscape:connector-curvature="0" />
	<path style="fill:none;stroke:red;stroke-width:1px;stroke-linecap:butt;stroke-linejoin:miter;stroke-opacity:1" d="M 567.086,564.887 567.086,542.891 z" id="boundary" inkscape:connector-curvature="0" />
	<path style="fill:none;stroke:red;stroke-width:1px;stroke-linecap:butt;stroke-linejoin:miter;stroke-opacity:1" d="M 795.84,560.488 776.044,580.284 z" id="boundary" inkscape:connector-curvature="0" />
	<path style="fill:none;stroke:red;stroke-width:1px;stroke-linecap:butt;stroke-linejoin:miter;stroke-opacity:1" d="M 795.84,560.488 817.836,538.492 z" id="boundary" inkscape:connector-curvature="0" />
	<path style="fill:none;stroke:red;stroke-width:1px;stroke-linecap:butt;stroke-linejoin:miter;stroke-opacity:1" d="M 925.614,503.299 941.011,520.896 z" id="boundary" inkscape:connector-curvature="0" />
	<path style="fill:none;stroke:red;stroke-width:1px;stroke-linecap:butt;stroke-linejoin:miter;stroke-opacity:1" d="M 952.009,540.692 941.011,520.896 z" id="boundary" inkscape:connector-curvature="0" />
	<path style="fill:none;stroke:red;stroke-width:1px;stroke-linecap:butt;stroke-linejoin:miter;stroke-opacity:1" d="M 969.605,556.089 952.009,540.692 z" id="boundary" inkscape:connector-curvature="0" />
	<path style="fill:none;stroke:red;stroke-width:1px;stroke-linecap:butt;stroke-linejoin:miter;stroke-opacity:1" d="M 969.605,556.089 974.004,578.084 z" id="boundary" inkscape:connector-curvature="0" />
	<path style="fill:none;stroke:red;stroke-width:1px;stroke-linecap:butt;stroke-linejoin:miter;stroke-opacity:1" d="M 985.002,597.88 974.004,578.084 z" id="boundary" inkscape:connector-curvature="0" />
	<path style="fill:none;stroke:red;stroke-width:1px;stroke-linecap:butt;stroke-linejoin:miter;stroke-opacity:1" d="M 443.911,580.284 443.911,615.477 z" id="boundary" inkscape:connector-curvature="0" />
	<path style="fill:none;stroke:red;stroke-width:1px;stroke-linecap:butt;stroke-linejoin:miter;stroke-opacity:1" d="M 454.909,635.273 443.911,615.477 z" id="boundary" inkscape:connector-curvature="0" />
	<path style="fill:none;stroke:red;stroke-width:1px;stroke-linecap:butt;stroke-linejoin:miter;stroke-opacity:1" d="M 454.909,635.273 465.907,655.069 z" id="boundary" inkscape:connector-curvature="0" />
	<path style="fill:none;stroke:red;stroke-width:1px;stroke-linecap:butt;stroke-linejoin:miter;stroke-opacity:1" d="M 472.506,677.064 465.907,655.069 z" id="boundary" inkscape:connector-curvature="0" />
	<path style="fill:none;stroke:red;stroke-width:1px;stroke-linecap:butt;stroke-linejoin:miter;stroke-opacity:1" d="M 483.503,696.86 472.506,677.064 z" id="boundary" inkscape:connector-curvature="0" />
	<path style="fill:none;stroke:red;stroke-width:1px;stroke-linecap:butt;stroke-linejoin:miter;stroke-opacity:1" d="M 567.086,586.882 567.086,608.878 z" id="boundary" inkscape:connector-curvature="0" />
	<path style="fill:none;stroke:red;stroke-width:1px;stroke-linecap:butt;stroke-linejoin:miter;stroke-opacity:1" d="M 586.882,641.871 567.086,630.874 z" id="boundary" inkscape:connector-curvature="0" />
	<path style="fill:none;stroke:red;stroke-width:1px;stroke-linecap:butt;stroke-linejoin:miter;stroke-opacity:1" d="M 567.086,630.874 567.086,608.878 z" id="boundary" inkscape:connector-curvature="0" />
	<path style="fill:none;stroke:red;stroke-width:1px;stroke-linecap:butt;stroke-linejoin:miter;stroke-opacity:1" d="M 630.874,630.874 608.878,637.472 z" id="boundary" inkscape:connector-curvature="0" />
	<path style="fill:none;stroke:red;stroke-width:1px;stroke-linecap:butt;stroke-linejoin:miter;stroke-opacity:1" d="M 586.882,641.871 608.878,637.472 z" id="boundary" inkscape:connector-curvature="0" />
	<path style="fill:none;stroke:red;stroke-width:1px;stroke-linecap:butt;stroke-linejoin:miter;stroke-opacity:1" d="M 630.874,630.874 652.869,630.874 z" id="boundary" inkscape:connector-curvature="0" />
	<path style="fill:none;stroke:red;stroke-width:1px;stroke-linecap:butt;stroke-linejoin:miter;stroke-opacity:1" d="M 650.67,677.064 630.874,688.062 z" id="boundary" inkscape:connector-curvature="0" />
	<path style="fill:none;stroke:red;stroke-width:1px;stroke-linecap:butt;stroke-linejoin:miter;stroke-opacity:1" d="M 483.503,696.86 492.302,718.856 z" id="boundary" inkscape:connector-curvature="0" />
	<path style="fill:none;stroke:red;stroke-width:1px;stroke-linecap:butt;stroke-linejoin:miter;stroke-opacity:1" d="M 492.302,718.856 509.898,732.053 z" id="boundary" inkscape:connector-curvature="0" />
	<path style="fill:none;stroke:red;stroke-width:1px;stroke-linecap:butt;stroke-linejoin:miter;stroke-opacity:1" d="M 593.481,718.856 611.078,699.06 z" id="boundary" inkscape:connector-curvature="0" />
	<path style="fill:none;stroke:red;stroke-width:1px;stroke-linecap:butt;stroke-linejoin:miter;stroke-opacity:1" d="M 630.874,688.062 611.078,699.06 z" id="boundary" inkscape:connector-curvature="0" />
	<path style="fill:none;stroke:red;stroke-width:1px;stroke-linecap:butt;stroke-linejoin:miter;stroke-opacity:1" d="M 529.694,743.051 509.898,732.053 z" id="boundary" inkscape:connector-curvature="0" />
	<path style="fill:none;stroke:red;stroke-width:1px;stroke-linecap:butt;stroke-linejoin:miter;stroke-opacity:1" d="M 529.694,743.051 551.69,743.051 z" id="boundary" inkscape:connector-curvature="0" />
	<path style="fill:none;stroke:red;stroke-width:1px;stroke-linecap:butt;stroke-linejoin:miter;stroke-opacity:1" d="M 571.486,729.854 551.69,743.051 z" id="boundary" inkscape:connector-curvature="0" />
	<path style="fill:none;stroke:red;stroke-width:1px;stroke-linecap:butt;stroke-linejoin:miter;stroke-opacity:1" d="M 593.481,718.856 571.486,729.854 z" id="boundary" inkscape:connector-curvature="0" />
	<path style="fill:none;stroke:red;stroke-width:1px;stroke-linecap:butt;stroke-linejoin:miter;stroke-opacity:1" d="M 738.652,608.878 716.656,608.878 z" id="boundary" inkscape:connector-curvature="0" />
	<path style="fill:none;stroke:red;stroke-width:1px;stroke-linecap:butt;stroke-linejoin:miter;stroke-opacity:1" d="M 716.656,608.878 696.86,619.876 z" id="boundary" inkscape:connector-curvature="0" />
	<path style="fill:none;stroke:red;stroke-width:1px;stroke-linecap:butt;stroke-linejoin:miter;stroke-opacity:1" d="M 754.049,591.282 738.652,608.878 z" id="boundary" inkscape:connector-curvature="0" />
	<path style="fill:none;stroke:red;stroke-width:1px;stroke-linecap:butt;stroke-linejoin:miter;stroke-opacity:1" d="M 696.86,619.876 674.865,626.475 z" id="boundary" inkscape:connector-curvature="0" />
	<path style="fill:none;stroke:red;stroke-width:1px;stroke-linecap:butt;stroke-linejoin:miter;stroke-opacity:1" d="M 754.049,591.282 776.044,580.284 z" id="boundary" inkscape:connector-curvature="0" />
	<path style="fill:none;stroke:red;stroke-width:1px;stroke-linecap:butt;stroke-linejoin:miter;stroke-opacity:1" d="M 780.443,644.071 758.448,644.071 z" id="boundary" inkscape:connector-curvature="0" />
	<path style="fill:none;stroke:red;stroke-width:1px;stroke-linecap:butt;stroke-linejoin:miter;stroke-opacity:1" d="M 758.448,644.071 736.452,644.071 z" id="boundary" inkscape:connector-curvature="0" />
	<path style="fill:none;stroke:red;stroke-width:1px;stroke-linecap:butt;stroke-linejoin:miter;stroke-opacity:1" d="M 736.452,644.071 716.656,655.069 z" id="boundary" inkscape:connector-curvature="0" />
	<path style="fill:none;stroke:red;stroke-width:1px;stroke-linecap:butt;stroke-linejoin:miter;stroke-opacity:1" d="M 674.865,626.475 652.869,630.874 z" id="boundary" inkscape:connector-curvature="0" />
	<path style="fill:none;stroke:red;stroke-width:1px;stroke-linecap:butt;stroke-linejoin:miter;stroke-opacity:1" d="M 824.435,644.071 802.439,644.071 z" id="boundary" inkscape:connector-curvature="0" />
	<path style="fill:none;stroke:red;stroke-width:1px;stroke-linecap:butt;stroke-linejoin:miter;stroke-opacity:1" d="M 780.443,644.071 802.439,644.071 z" id="boundary" inkscape:connector-curvature="0" />
	<path style="fill:none;stroke:red;stroke-width:1px;stroke-linecap:butt;stroke-linejoin:miter;stroke-opacity:1" d="M 996,617.676 978.404,641.871 z" id="boundary" inkscape:connector-curvature="0" />
	<path style="fill:none;stroke:red;stroke-width:1px;stroke-linecap:butt;stroke-linejoin:miter;stroke-opacity:1" d="M 985.002,597.88 996,617.676 z" id="boundary" inkscape:connector-curvature="0" />
	<path style="fill:none;stroke:red;stroke-width:1px;stroke-linecap:butt;stroke-linejoin:miter;stroke-opacity:1" d="M 978.404,641.871 956.408,644.071 z" id="boundary" inkscape:connector-curvature="0" />
	<path style="fill:none;stroke:red;stroke-width:1px;stroke-linecap:butt;stroke-linejoin:miter;stroke-opacity:1" d="M 650.67,677.064 672.665,672.665 z" id="boundary" inkscape:connector-curvature="0" />
	<path style="fill:none;stroke:red;stroke-width:1px;stroke-linecap:butt;stroke-linejoin:miter;stroke-opacity:1" d="M 694.661,661.667 672.665,672.665 z" id="boundary" inkscape:connector-curvature="0" />
	<path style="fill:none;stroke:red;stroke-width:1px;stroke-linecap:butt;stroke-linejoin:miter;stroke-opacity:1" d="M 694.661,661.667 716.656,655.069 z" id="boundary" inkscape:connector-curvature="0" />
	<path style="fill:none;stroke:red;stroke-width:1px;stroke-linecap:butt;stroke-linejoin:miter;stroke-opacity:1" d="M 846.43,644.071 868.426,644.071 z" id="boundary" inkscape:connector-curvature="0" />
	<path style="fill:none;stroke:red;stroke-width:1px;stroke-linecap:butt;stroke-linejoin:miter;stroke-opacity:1" d="M 846.43,644.071 824.435,644.071 z" id="boundary" inkscape:connector-curvature="0" />
	<path style="fill:none;stroke:red;stroke-width:1px;stroke-linecap:butt;stroke-linejoin:miter;stroke-opacity:1" d="M 890.421,644.071 912.417,644.071 z" id="boundary" inkscape:connector-curvature="0" />
	<path style="fill:none;stroke:red;stroke-width:1px;stroke-linecap:butt;stroke-linejoin:miter;stroke-opacity:1" d="M 868.426,644.071 890.421,644.071 z" id="boundary" inkscape:connector-curvature="0" />
	<path style="fill:none;stroke:red;stroke-width:1px;stroke-linecap:butt;stroke-linejoin:miter;stroke-opacity:1" d="M 912.417,644.071 934.412,644.071 z" id="boundary" inkscape:connector-curvature="0" />
	<path style="fill:none;stroke:red;stroke-width:1px;stroke-linecap:butt;stroke-linejoin:miter;stroke-opacity:1" d="M 956.408,644.071 934.412,644.071 z" id="boundary" inkscape:connector-curvature="0" />
	<circle cx="4" cy="65.5876" r="4" fill="#0" id="circle0"/>
	<circle cx="4" cy="87.5831" r="4" fill="#0" id="circle1"/>
	<circle cx="14.9978" cy="43.592" r="4" fill="#0" id="circle2"/>
	<circle cx="21.5965" cy="102.98" r="4" fill="#0" id="circle3"/>
	<circle cx="32.5942" cy="25.9956" r="4" fill="#0" id="circle4"/>
	<circle cx="36.9933" cy="120.576" r="4" fill="#0" id="circle5"/>
	<circle cx="52.3902" cy="14.9978" r="4" fill="#0" id="circle6"/>
	<circle cx="58.9889" cy="127.175" r="4" fill="#0" id="circle7"/>
	<circle cx="72.1863" cy="4" r="4" fill="#0" id="circle8"/>
	<circle cx="78.7849" cy="138.173" r="4" fill="#0" id="circle9"/>
	<circle cx="94.1818" cy="4" r="4" fill="#0" id="circle10"/>
	<circle cx="100.78" cy="138.173" r="4" fill="#0" id="circle11"/>
	<circle cx="102.98" cy="160.169" r="4" fill="#0" id="circle12"/>
	<circle cx="102.98" cy="197.561" r="4" fill="#0" id="circle13"/>
	<circle cx="113.978" cy="217.357" r="4" fill="#0" id="circle14"/>
	<circle cx="116.177" cy="4" r="4" fill="#0" id="circle15"/>
	<circle cx="129.375" cy="234.953" r="4" fill="#0" id="circle16"/>
	<circle cx="138.173" cy="4" r="4" fill="#0" id="circle17"/>
	<circle cx="151.37" cy="243.752" r="4" fill="#0" id="circle18"/>
	<circle cx="157.969" cy="14.9978" r="4" fill="#0" id="circle19"/>
	<circle cx="171.166" cy="32.5942" r="4" fill="#0" id="circle20"/>
	<circle cx="173.366" cy="248.151" r="4" fill="#0" id="circle21"/>
	<circle cx="182.164" cy="52.3902" r="4" fill="#0" id="circle22"/>
	<circle cx="190.962" cy="261.348" r="4" fill="#0" id="circle23"/>
	<circle cx="193.162" cy="72.1863" r="4" fill="#0" id="circle24"/>
	<circle cx="197.561" cy="94.1818" r="4" fill="#0" id="circle25"/>
	<circle cx="201.96" cy="923.415" r="4" fill="#0" id="circle26"/>
	<circle cx="201.96" cy="945.41" r="4" fill="#0" id="circle27"/>
	<circle cx="212.958" cy="270.146" r="4" fill="#0" id="circle28"/>
	<circle cx="215.157" cy="109.579" r="4" fill="#0" id="circle29"/>
	<circle cx="219.557" cy="905.818" r="4" fill="#0" id="circle30"/>
	<circle cx="223.956" cy="571.486" r="4" fill="#0" id="circle31"/>
	<circle cx="223.956" cy="593.481" r="4" fill="#0" id="circle32"/>
	<circle cx="223.956" cy="615.477" r="4" fill="#0" id="circle33"/>
	<circle cx="223.956" cy="637.472" r="4" fill="#0" id="circle34"/>
	<circle cx="223.956" cy="941.011" r="4" fill="#0" id="circle35"/>
	<circle cx="232.754" cy="281.144" r="4" fill="#0" id="circle36"/>
	<circle cx="234.953" cy="549.49" r="4" fill="#0" id="circle37"/>
	<circle cx="234.953" cy="657.268" r="4" fill="#0" id="circle38"/>
	<circle cx="237.153" cy="113.978" r="4" fill="#0" id="circle39"/>
	<circle cx="241.552" cy="894.82" r="4" fill="#0" id="circle40"/>
	<circle cx="243.752" cy="952.009" r="4" fill="#0" id="circle41"/>
	<circle cx="245.951" cy="677.064" r="4" fill="#0" id="circle42"/>
	<circle cx="252.55" cy="292.142" r="4" fill="#0" id="circle43"/>
	<circle cx="252.55" cy="531.894" r="4" fill="#0" id="circle44"/>
	<circle cx="256.949" cy="124.976" r="4" fill="#0" id="circle45"/>
	<circle cx="256.949" cy="696.86" r="4" fill="#0" id="circle46"/>
	<circle cx="263.548" cy="883.823" r="4" fill="#0" id="circle47"/>
	<circle cx="265.747" cy="952.009" r="4" fill="#0" id="circle48"/>
	<circle cx="267.947" cy="505.499" r="4" fill="#0" id="circle49"/>
	<circle cx="272.346" cy="303.14" r="4" fill="#0" id="circle50"/>
	<circle cx="274.545" cy="710.058" r="4" fill="#0" id="circle51"/>
	<circle cx="278.945" cy="118.377" r="4" fill="#0" id="circle52"/>
	<circle cx="278.945" cy="483.503" r="4" fill="#0" id="circle53"/>
	<circle cx="278.945" cy="732.053" r="4" fill="#0" id="circle54"/>
	<circle cx="285.543" cy="883.823" r="4" fill="#0" id="circle55"/>
	<circle cx="285.543" cy="963.007" r="4" fill="#0" id="circle56"/>
	<circle cx="289.942" cy="316.337" r="4" fill="#0" id="circle57"/>
	<circle cx="289.942" cy="751.849" r="4" fill="#0" id="circle58"/>
	<circle cx="292.142" cy="567.086" r="4" fill="#0" id="circle59"/>
	<circle cx="292.142" cy="589.082" r="4" fill="#0" id="circle60"/>
	<circle cx="294.341" cy="773.845" r="4" fill="#0" id="circle61"/>
	<circle cx="296.541" cy="465.907" r="4" fill="#0" id="circle62"/>
	<circle cx="300.94" cy="118.377" r="4" fill="#0" id="circle63"/>
	<circle cx="300.94" cy="795.84" r="4" fill="#0" id="circle64"/>
	<circle cx="300.94" cy="817.836" r="4" fill="#0" id="circle65"/>
	<circle cx="300.94" cy="839.831" r="4" fill="#0" id="circle66"/>
	<circle cx="300.94" cy="861.827" r="4" fill="#0" id="circle67"/>
	<circle cx="303.14" cy="608.878" r="4" fill="#0" id="circle68"/>
	<circle cx="303.14" cy="630.874" r="4" fill="#0" id="circle69"/>
	<circle cx="307.539" cy="443.911" r="4" fill="#0" id="circle70"/>
	<circle cx="307.539" cy="963.007" r="4" fill="#0" id="circle71"/>
	<circle cx="311.938" cy="325.135" r="4" fill="#0" id="circle72"/>
	<circle cx="311.938" cy="556.089" r="4" fill="#0" id="circle73"/>
	<circle cx="314.137" cy="650.67" r="4" fill="#0" id="circle74"/>
	<circle cx="314.137" cy="672.665" r="4" fill="#0" id="circle75"/>
	<circle cx="322.936" cy="124.976" r="4" fill="#0" id="circle76"/>
	<circle cx="329.534" cy="432.914" r="4" fill="#0" id="circle77"/>
	<circle cx="329.534" cy="963.007" r="4" fill="#0" id="circle78"/>
	<circle cx="331.734" cy="336.133" r="4" fill="#0" id="circle79"/>
	<circle cx="331.734" cy="545.091" r="4" fill="#0" id="circle80"/>
	<circle cx="331.734" cy="688.062" r="4" fill="#0" id="circle81"/>
	<circle cx="336.133" cy="710.058" r="4" fill="#0" id="circle82"/>
	<circle cx="336.133" cy="732.053" r="4" fill="#0" id="circle83"/>
	<circle cx="344.931" cy="129.375" r="4" fill="#0" id="circle84"/>
	<circle cx="347.131" cy="751.849" r="4" fill="#0" id="circle85"/>
	<circle cx="347.131" cy="773.845" r="4" fill="#0" id="circle86"/>
	<circle cx="347.131" cy="798.04" r="4" fill="#0" id="circle87"/>
	<circle cx="351.53" cy="347.131" r="4" fill="#0" id="circle88"/>
	<circle cx="351.53" cy="432.914" r="4" fill="#0" id="circle89"/>
	<circle cx="351.53" cy="531.894" r="4" fill="#0" id="circle90"/>
	<circle cx="351.53" cy="960.807" r="4" fill="#0" id="circle91"/>
	<circle cx="358.129" cy="146.971" r="4" fill="#0" id="circle92"/>
	<circle cx="358.129" cy="817.836" r="4" fill="#0" id="circle93"/>
	<circle cx="358.129" cy="839.831" r="4" fill="#0" id="circle94"/>
	<circle cx="369.126" cy="512.098" r="4" fill="#0" id="circle95"/>
	<circle cx="369.126" cy="859.627" r="4" fill="#0" id="circle96"/>
	<circle cx="369.126" cy="881.623" r="4" fill="#0" id="circle97"/>
	<circle cx="369.126" cy="903.619" r="4" fill="#0" id="circle98"/>
	<circle cx="369.126" cy="925.614" r="4" fill="#0" id="circle99"/>
	<circle cx="371.326" cy="358.129" r="4" fill="#0" id="circle100"/>
	<circle cx="371.326" cy="421.916" r="4" fill="#0" id="circle101"/>
	<circle cx="377.925" cy="395.521" r="4" fill="#0" id="circle102"/>
	<circle cx="380.124" cy="153.57" r="4" fill="#0" id="circle103"/>
	<circle cx="380.124" cy="490.102" r="4" fill="#0" id="circle104"/>
	<circle cx="397.721" cy="168.967" r="4" fill="#0" id="circle105"/>
	<circle cx="399.92" cy="479.104" r="4" fill="#0" id="circle106"/>
	<circle cx="410.918" cy="498.9" r="4" fill="#0" id="circle107"/>
	<circle cx="410.918" cy="520.896" r="4" fill="#0" id="circle108"/>
	<circle cx="413.118" cy="186.563" r="4" fill="#0" id="circle109"/>
	<circle cx="421.916" cy="540.692" r="4" fill="#0" id="circle110"/>
	<circle cx="432.914" cy="197.561" r="4" fill="#0" id="circle111"/>
	<circle cx="432.914" cy="560.488" r="4" fill="#0" id="circle112"/>
	<circle cx="443.911" cy="580.284" r="4" fill="#0" id="circle113"/>
	<circle cx="443.911" cy="615.477" r="4" fill="#0" id="circle114"/>
	<circle cx="450.51" cy="212.958" r="4" fill="#0" id="circle115"/>
	<circle cx="454.909" cy="635.273" r="4" fill="#0" id="circle116"/>
	<circle cx="457.109" cy="234.953" r="4" fill="#0" id="circle117"/>
	<circle cx="465.907" cy="655.069" r="4" fill="#0" id="circle118"/>
	<circle cx="472.506" cy="677.064" r="4" fill="#0" id="circle119"/>
	<circle cx="474.705" cy="248.151" r="4" fill="#0" id="circle120"/>
	<circle cx="483.503" cy="696.86" r="4" fill="#0" id="circle121"/>
	<circle cx="492.302" cy="718.856" r="4" fill="#0" id="circle122"/>
	<circle cx="494.501" cy="259.149" r="4" fill="#0" id="circle123"/>
	<circle cx="509.898" cy="732.053" r="4" fill="#0" id="circle124"/>
	<circle cx="516.497" cy="267.947" r="4" fill="#0" id="circle125"/>
	<circle cx="529.694" cy="743.051" r="4" fill="#0" id="circle126"/>
	<circle cx="531.894" cy="285.543" r="4" fill="#0" id="circle127"/>
	<circle cx="545.091" cy="303.14" r="4" fill="#0" id="circle128"/>
	<circle cx="549.49" cy="325.135" r="4" fill="#0" id="circle129"/>
	<circle cx="551.69" cy="743.051" r="4" fill="#0" id="circle130"/>
	<circle cx="560.488" cy="344.931" r="4" fill="#0" id="circle131"/>
	<circle cx="567.086" cy="366.927" r="4" fill="#0" id="circle132"/>
	<circle cx="567.086" cy="388.922" r="4" fill="#0" id="circle133"/>
	<circle cx="567.086" cy="410.918" r="4" fill="#0" id="circle134"/>
	<circle cx="567.086" cy="432.914" r="4" fill="#0" id="circle135"/>
	<circle cx="567.086" cy="454.909" r="4" fill="#0" id="circle136"/>
	<circle cx="567.086" cy="476.905" r="4" fill="#0" id="circle137"/>
	<circle cx="567.086" cy="498.9" r="4" fill="#0" id="circle138"/>
	<circle cx="567.086" cy="520.896" r="4" fill="#0" id="circle139"/>
	<circle cx="567.086" cy="542.891" r="4" fill="#0" id="circle140"/>
	<circle cx="567.086" cy="564.887" r="4" fill="#0" id="circle141"/>
	<circle cx="567.086" cy="586.882" r="4" fill="#0" id="circle142"/>
	<circle cx="567.086" cy="608.878" r="4" fill="#0" id="circle143"/>
	<circle cx="567.086" cy="630.874" r="4" fill="#0" id="circle144"/>
	<circle cx="571.486" cy="729.854" r="4" fill="#0" id="circle145"/>
	<circle cx="586.882" cy="641.871" r="4" fill="#0" id="circle146"/>
	<circle cx="593.481" cy="718.856" r="4" fill="#0" id="circle147"/>
	<circle cx="608.878" cy="637.472" r="4" fill="#0" id="circle148"/>
	<circle cx="611.078" cy="699.06" r="4" fill="#0" id="circle149"/>
	<circle cx="630.874" cy="630.874" r="4" fill="#0" id="circle150"/>
	<circle cx="630.874" cy="688.062" r="4" fill="#0" id="circle151"/>
	<circle cx="650.67" cy="677.064" r="4" fill="#0" id="circle152"/>
	<circle cx="652.869" cy="630.874" r="4" fill="#0" id="circle153"/>
	<circle cx="672.665" cy="672.665" r="4" fill="#0" id="circle154"/>
	<circle cx="674.865" cy="626.475" r="4" fill="#0" id="circle155"/>
	<circle cx="694.661" cy="661.667" r="4" fill="#0" id="circle156"/>
	<circle cx="696.86" cy="619.876" r="4" fill="#0" id="circle157"/>
	<circle cx="716.656" cy="608.878" r="4" fill="#0" id="circle158"/>
	<circle cx="716.656" cy="655.069" r="4" fill="#0" id="circle159"/>
	<circle cx="736.452" cy="644.071" r="4" fill="#0" id="circle160"/>
	<circle cx="738.652" cy="608.878" r="4" fill="#0" id="circle161"/>
	<circle cx="754.049" cy="591.282" r="4" fill="#0" id="circle162"/>
	<circle cx="758.448" cy="644.071" r="4" fill="#0" id="circle163"/>
	<circle cx="776.044" cy="580.284" r="4" fill="#0" id="circle164"/>
	<circle cx="780.443" cy="644.071" r="4" fill="#0" id="circle165"/>
	<circle cx="795.84" cy="560.488" r="4" fill="#0" id="circle166"/>
	<circle cx="802.439" cy="644.071" r="4" fill="#0" id="circle167"/>
	<circle cx="817.836" cy="538.492" r="4" fill="#0" id="circle168"/>
	<circle cx="824.435" cy="644.071" r="4" fill="#0" id="circle169"/>
	<circle cx="839.831" cy="516.497" r="4" fill="#0" id="circle170"/>
	<circle cx="846.43" cy="644.071" r="4" fill="#0" id="circle171"/>
	<circle cx="861.827" cy="505.499" r="4" fill="#0" id="circle172"/>
	<circle cx="868.426" cy="644.071" r="4" fill="#0" id="circle173"/>
	<circle cx="883.823" cy="494.501" r="4" fill="#0" id="circle174"/>
	<circle cx="890.421" cy="644.071" r="4" fill="#0" id="circle175"/>
	<circle cx="905.818" cy="492.302" r="4" fill="#0" id="circle176"/>
	<circle cx="912.417" cy="644.071" r="4" fill="#0" id="circle177"/>
	<circle cx="925.614" cy="503.299" r="4" fill="#0" id="circle178"/>
	<circle cx="934.412" cy="644.071" r="4" fill="#0" id="circle179"/>
	<circle cx="941.011" cy="520.896" r="4" fill="#0" id="circle180"/>
	<circle cx="952.009" cy="540.692" r="4" fill="#0" id="circle181"/>
	<circle cx="956.408" cy="644.071" r="4" fill="#0" id="circle182"/>
	<circle cx="969.605" cy="556.089" r="4" fill="#0" id="circle183"/>
	<circle cx="974.004" cy="578.084" r="4" fill="#0" id="circle184"/>
	<circle cx="978.404" cy="641.871" r="4" fill="#0" id="circle185"/>
	<circle cx="985.002" cy="597.88" r="4" fill="#0" id="circle186"/>
	<circle cx="996" cy="617.676" r="4" fill="#0" id="circle187"/>
	</g>
</svg>