<?xml version="1.0" encoding="UTF-8" standalone="no"?>
<!-- Created with CurveBenchmark -->
<svg
	xmlns:dc="http://purl.org/dc/elements/1.1/"
	xmlns:cc="http://creativecommons.org/ns#"
	xmlns:rdf="http://www.w3.org/1999/02/22-rdf-syntax-ns#"
	xmlns:svg="http://www.w3.org/2000/svg"
	xmlns="http://www.w3.org/2000/svg"
	xmlns:sodipodi="http://sodipodi.sourceforge.net/DTD/sodipodi-0.dtd"
	xmlns:inkscape="http://www.inkscape.org/namespaces/inkscape"
	width="1000"
	height="1000"
	id="svg2"
	version="1.1"
	sodipodi:docname="manifold/crust-bird220.png.txt">
<defs
	id="defs4" />
<metadata
	id="metadata7">
	<rdf:RDF>
		<cc:Work
			rdf:about="">
			<dc:format>image/svg+xml</dc:format>
			<dc:type
				rdf:resource="http://purl.org/dc/dcmitype/StillImage" />
			<dc:title></dc:title>
		</cc:Work>
	</rdf:RDF>
</metadata>
<g
	inkscape:label="Layer 1"
	inkscape:groupmode="layer"
	id="layer1">
	<path style="fill:none;stroke:red;stroke-width:1px;stroke-linecap:butt;stroke-linejoin:miter;stroke-opacity:1" d="M 66.2431,128.486 50.6824,175.169 z" id="boundary" inkscape:connector-curvature="0" />
	<path style="fill:none;stroke:red;stroke-width:1px;stroke-linecap:butt;stroke-linejoin:miter;stroke-opacity:1" d="M 89.5843,97.3647 66.2431,128.486 z" id="boundary" inkscape:connector-curvature="0" />
	<path style="fill:none;stroke:red;stroke-width:1px;stroke-linecap:butt;stroke-linejoin:miter;stroke-opacity:1" d="M 124.596,77.9137 89.5843,97.3647 z" id="boundary" inkscape:connector-curvature="0" />
	<path style="fill:none;stroke:red;stroke-width:1px;stroke-linecap:butt;stroke-linejoin:miter;stroke-opacity:1" d="M 50.6824,175.169 27.3412,214.071 z" id="boundary" inkscape:connector-curvature="0" />
	<path style="fill:none;stroke:red;stroke-width:1px;stroke-linecap:butt;stroke-linejoin:miter;stroke-opacity:1" d="M 124.596,77.9137 163.498,74.0235 z" id="boundary" inkscape:connector-curvature="0" />
	<path style="fill:none;stroke:red;stroke-width:1px;stroke-linecap:butt;stroke-linejoin:miter;stroke-opacity:1" d="M 163.498,74.0235 202.4,81.8039 z" id="boundary" inkscape:connector-curvature="0" />
	<path style="fill:none;stroke:red;stroke-width:1px;stroke-linecap:butt;stroke-linejoin:miter;stroke-opacity:1" d="M 4,252.973 27.3412,214.071 z" id="boundary" inkscape:connector-curvature="0" />
	<path style="fill:none;stroke:red;stroke-width:1px;stroke-linecap:butt;stroke-linejoin:miter;stroke-opacity:1" d="M 105.145,225.741 74.0235,256.863 z" id="boundary" inkscape:connector-curvature="0" />
	<path style="fill:none;stroke:red;stroke-width:1px;stroke-linecap:butt;stroke-linejoin:miter;stroke-opacity:1" d="M 4,252.973 4,291.875 z" id="boundary" inkscape:connector-curvature="0" />
	<path style="fill:none;stroke:red;stroke-width:1px;stroke-linecap:butt;stroke-linejoin:miter;stroke-opacity:1" d="M 74.0235,256.863 42.902,287.984 z" id="boundary" inkscape:connector-curvature="0" />
	<path style="fill:none;stroke:red;stroke-width:1px;stroke-linecap:butt;stroke-linejoin:miter;stroke-opacity:1" d="M 140.157,206.29 105.145,225.741 z" id="boundary" inkscape:connector-curvature="0" />
	<path style="fill:none;stroke:red;stroke-width:1px;stroke-linecap:butt;stroke-linejoin:miter;stroke-opacity:1" d="M 171.278,182.949 190.729,217.961 z" id="boundary" inkscape:connector-curvature="0" />
	<path style="fill:none;stroke:red;stroke-width:1px;stroke-linecap:butt;stroke-linejoin:miter;stroke-opacity:1" d="M 140.157,206.29 171.278,182.949 z" id="boundary" inkscape:connector-curvature="0" />
	<path style="fill:none;stroke:red;stroke-width:1px;stroke-linecap:butt;stroke-linejoin:miter;stroke-opacity:1" d="M 202.4,81.8039 237.412,101.255 z" id="boundary" inkscape:connector-curvature="0" />
	<path style="fill:none;stroke:red;stroke-width:1px;stroke-linecap:butt;stroke-linejoin:miter;stroke-opacity:1" d="M 256.863,136.267 237.412,101.255 z" id="boundary" inkscape:connector-curvature="0" />
	<path style="fill:none;stroke:red;stroke-width:1px;stroke-linecap:butt;stroke-linejoin:miter;stroke-opacity:1" d="M 307.435,66.2431 338.557,35.1216 z" id="boundary" inkscape:connector-curvature="0" />
	<path style="fill:none;stroke:red;stroke-width:1px;stroke-linecap:butt;stroke-linejoin:miter;stroke-opacity:1" d="M 307.435,66.2431 284.094,97.3647 z" id="boundary" inkscape:connector-curvature="0" />
	<path style="fill:none;stroke:red;stroke-width:1px;stroke-linecap:butt;stroke-linejoin:miter;stroke-opacity:1" d="M 338.557,35.1216 377.459,19.5608 z" id="boundary" inkscape:connector-curvature="0" />
	<path style="fill:none;stroke:red;stroke-width:1px;stroke-linecap:butt;stroke-linejoin:miter;stroke-opacity:1" d="M 416.361,4 377.459,19.5608 z" id="boundary" inkscape:connector-curvature="0" />
	<path style="fill:none;stroke:red;stroke-width:1px;stroke-linecap:butt;stroke-linejoin:miter;stroke-opacity:1" d="M 256.863,136.267 284.094,97.3647 z" id="boundary" inkscape:connector-curvature="0" />
	<path style="fill:none;stroke:red;stroke-width:1px;stroke-linecap:butt;stroke-linejoin:miter;stroke-opacity:1" d="M 416.361,4 455.263,4 z" id="boundary" inkscape:connector-curvature="0" />
	<path style="fill:none;stroke:red;stroke-width:1px;stroke-linecap:butt;stroke-linejoin:miter;stroke-opacity:1" d="M 182.949,276.314 190.729,217.961 z" id="boundary" inkscape:connector-curvature="0" />
	<path style="fill:none;stroke:red;stroke-width:1px;stroke-linecap:butt;stroke-linejoin:miter;stroke-opacity:1" d="M 190.729,315.216 182.949,276.314 z" id="boundary" inkscape:connector-curvature="0" />
	<path style="fill:none;stroke:red;stroke-width:1px;stroke-linecap:butt;stroke-linejoin:miter;stroke-opacity:1" d="M 334.667,252.973 334.667,291.875 z" id="boundary" inkscape:connector-curvature="0" />
	<path style="fill:none;stroke:red;stroke-width:1px;stroke-linecap:butt;stroke-linejoin:miter;stroke-opacity:1" d="M 334.667,252.973 369.678,272.424 z" id="boundary" inkscape:connector-curvature="0" />
	<path style="fill:none;stroke:red;stroke-width:1px;stroke-linecap:butt;stroke-linejoin:miter;stroke-opacity:1" d="M 377.459,311.325 369.678,272.424 z" id="boundary" inkscape:connector-curvature="0" />
	<path style="fill:none;stroke:red;stroke-width:1px;stroke-linecap:butt;stroke-linejoin:miter;stroke-opacity:1" d="M 4,291.875 42.902,287.984 z" id="boundary" inkscape:connector-curvature="0" />
	<path style="fill:none;stroke:red;stroke-width:1px;stroke-linecap:butt;stroke-linejoin:miter;stroke-opacity:1" d="M 214.071,346.337 245.192,369.678 z" id="boundary" inkscape:connector-curvature="0" />
	<path style="fill:none;stroke:red;stroke-width:1px;stroke-linecap:butt;stroke-linejoin:miter;stroke-opacity:1" d="M 190.729,315.216 214.071,346.337 z" id="boundary" inkscape:connector-curvature="0" />
	<path style="fill:none;stroke:red;stroke-width:1px;stroke-linecap:butt;stroke-linejoin:miter;stroke-opacity:1" d="M 334.667,291.875 315.216,342.447 z" id="boundary" inkscape:connector-curvature="0" />
	<path style="fill:none;stroke:red;stroke-width:1px;stroke-linecap:butt;stroke-linejoin:miter;stroke-opacity:1" d="M 284.094,373.569 245.192,369.678 z" id="boundary" inkscape:connector-curvature="0" />
	<path style="fill:none;stroke:red;stroke-width:1px;stroke-linecap:butt;stroke-linejoin:miter;stroke-opacity:1" d="M 284.094,373.569 315.216,342.447 z" id="boundary" inkscape:connector-curvature="0" />
	<path style="fill:none;stroke:red;stroke-width:1px;stroke-linecap:butt;stroke-linejoin:miter;stroke-opacity:1" d="M 377.459,311.325 385.239,350.227 z" id="boundary" inkscape:connector-curvature="0" />
	<path style="fill:none;stroke:red;stroke-width:1px;stroke-linecap:butt;stroke-linejoin:miter;stroke-opacity:1" d="M 385.239,350.227 393.02,389.129 z" id="boundary" inkscape:connector-curvature="0" />
	<path style="fill:none;stroke:red;stroke-width:1px;stroke-linecap:butt;stroke-linejoin:miter;stroke-opacity:1" d="M 393.02,389.129 400.8,428.031 z" id="boundary" inkscape:connector-curvature="0" />
	<path style="fill:none;stroke:red;stroke-width:1px;stroke-linecap:butt;stroke-linejoin:miter;stroke-opacity:1" d="M 408.58,466.933 416.361,505.835 z" id="boundary" inkscape:connector-curvature="0" />
	<path style="fill:none;stroke:red;stroke-width:1px;stroke-linecap:butt;stroke-linejoin:miter;stroke-opacity:1" d="M 408.58,466.933 400.8,428.031 z" id="boundary" inkscape:connector-curvature="0" />
	<path style="fill:none;stroke:red;stroke-width:1px;stroke-linecap:butt;stroke-linejoin:miter;stroke-opacity:1" d="M 424.141,544.737 439.702,583.639 z" id="boundary" inkscape:connector-curvature="0" />
	<path style="fill:none;stroke:red;stroke-width:1px;stroke-linecap:butt;stroke-linejoin:miter;stroke-opacity:1" d="M 424.141,544.737 416.361,505.835 z" id="boundary" inkscape:connector-curvature="0" />
	<path style="fill:none;stroke:red;stroke-width:1px;stroke-linecap:butt;stroke-linejoin:miter;stroke-opacity:1" d="M 439.702,750.918 431.922,813.161 z" id="boundary" inkscape:connector-curvature="0" />
	<path style="fill:none;stroke:red;stroke-width:1px;stroke-linecap:butt;stroke-linejoin:miter;stroke-opacity:1" d="M 447.482,700.345 439.702,750.918 z" id="boundary" inkscape:connector-curvature="0" />
	<path style="fill:none;stroke:red;stroke-width:1px;stroke-linecap:butt;stroke-linejoin:miter;stroke-opacity:1" d="M 439.702,583.639 447.482,622.541 z" id="boundary" inkscape:connector-curvature="0" />
	<path style="fill:none;stroke:red;stroke-width:1px;stroke-linecap:butt;stroke-linejoin:miter;stroke-opacity:1" d="M 424.141,867.624 431.922,813.161 z" id="boundary" inkscape:connector-curvature="0" />
	<path style="fill:none;stroke:red;stroke-width:1px;stroke-linecap:butt;stroke-linejoin:miter;stroke-opacity:1" d="M 361.898,953.208 400.8,945.427 z" id="boundary" inkscape:connector-curvature="0" />
	<path style="fill:none;stroke:red;stroke-width:1px;stroke-linecap:butt;stroke-linejoin:miter;stroke-opacity:1" d="M 381.349,996 342.447,988.22 z" id="boundary" inkscape:connector-curvature="0" />
	<path style="fill:none;stroke:red;stroke-width:1px;stroke-linecap:butt;stroke-linejoin:miter;stroke-opacity:1" d="M 342.447,988.22 307.435,968.769 z" id="boundary" inkscape:connector-curvature="0" />
	<path style="fill:none;stroke:red;stroke-width:1px;stroke-linecap:butt;stroke-linejoin:miter;stroke-opacity:1" d="M 424.141,906.525 400.8,945.427 z" id="boundary" inkscape:connector-curvature="0" />
	<path style="fill:none;stroke:red;stroke-width:1px;stroke-linecap:butt;stroke-linejoin:miter;stroke-opacity:1" d="M 424.141,906.525 424.141,867.624 z" id="boundary" inkscape:connector-curvature="0" />
	<path style="fill:none;stroke:red;stroke-width:1px;stroke-linecap:butt;stroke-linejoin:miter;stroke-opacity:1" d="M 459.153,996 420.251,996 z" id="boundary" inkscape:connector-curvature="0" />
	<path style="fill:none;stroke:red;stroke-width:1px;stroke-linecap:butt;stroke-linejoin:miter;stroke-opacity:1" d="M 420.251,996 381.349,996 z" id="boundary" inkscape:connector-curvature="0" />
	<path style="fill:none;stroke:red;stroke-width:1px;stroke-linecap:butt;stroke-linejoin:miter;stroke-opacity:1" d="M 455.263,4 494.165,4 z" id="boundary" inkscape:connector-curvature="0" />
	<path style="fill:none;stroke:red;stroke-width:1px;stroke-linecap:butt;stroke-linejoin:miter;stroke-opacity:1" d="M 494.165,4 533.067,15.6706 z" id="boundary" inkscape:connector-curvature="0" />
	<path style="fill:none;stroke:red;stroke-width:1px;stroke-linecap:butt;stroke-linejoin:miter;stroke-opacity:1" d="M 568.078,35.1216 603.09,54.5725 z" id="boundary" inkscape:connector-curvature="0" />
	<path style="fill:none;stroke:red;stroke-width:1px;stroke-linecap:butt;stroke-linejoin:miter;stroke-opacity:1" d="M 533.067,15.6706 568.078,35.1216 z" id="boundary" inkscape:connector-curvature="0" />
	<path style="fill:none;stroke:red;stroke-width:1px;stroke-linecap:butt;stroke-linejoin:miter;stroke-opacity:1" d="M 568.078,424.141 568.078,463.043 z" id="boundary" inkscape:connector-curvature="0" />
	<path style="fill:none;stroke:red;stroke-width:1px;stroke-linecap:butt;stroke-linejoin:miter;stroke-opacity:1" d="M 568.078,424.141 568.078,385.239 z" id="boundary" inkscape:connector-curvature="0" />
	<path style="fill:none;stroke:red;stroke-width:1px;stroke-linecap:butt;stroke-linejoin:miter;stroke-opacity:1" d="M 568.078,385.239 606.98,396.91 z" id="boundary" inkscape:connector-curvature="0" />
	<path style="fill:none;stroke:red;stroke-width:1px;stroke-linecap:butt;stroke-linejoin:miter;stroke-opacity:1" d="M 568.078,463.043 560.298,509.725 z" id="boundary" inkscape:connector-curvature="0" />
	<path style="fill:none;stroke:red;stroke-width:1px;stroke-linecap:butt;stroke-linejoin:miter;stroke-opacity:1" d="M 603.09,54.5725 634.212,77.9137 z" id="boundary" inkscape:connector-curvature="0" />
	<path style="fill:none;stroke:red;stroke-width:1px;stroke-linecap:butt;stroke-linejoin:miter;stroke-opacity:1" d="M 661.443,109.035 684.784,140.157 z" id="boundary" inkscape:connector-curvature="0" />
	<path style="fill:none;stroke:red;stroke-width:1px;stroke-linecap:butt;stroke-linejoin:miter;stroke-opacity:1" d="M 634.212,77.9137 661.443,109.035 z" id="boundary" inkscape:connector-curvature="0" />
	<path style="fill:none;stroke:red;stroke-width:1px;stroke-linecap:butt;stroke-linejoin:miter;stroke-opacity:1" d="M 684.784,140.157 708.125,171.278 z" id="boundary" inkscape:connector-curvature="0" />
	<path style="fill:none;stroke:red;stroke-width:1px;stroke-linecap:butt;stroke-linejoin:miter;stroke-opacity:1" d="M 731.467,202.4 754.808,233.522 z" id="boundary" inkscape:connector-curvature="0" />
	<path style="fill:none;stroke:red;stroke-width:1px;stroke-linecap:butt;stroke-linejoin:miter;stroke-opacity:1" d="M 731.467,202.4 708.125,171.278 z" id="boundary" inkscape:connector-curvature="0" />
	<path style="fill:none;stroke:red;stroke-width:1px;stroke-linecap:butt;stroke-linejoin:miter;stroke-opacity:1" d="M 754.808,233.522 778.149,264.643 z" id="boundary" inkscape:connector-curvature="0" />
	<path style="fill:none;stroke:red;stroke-width:1px;stroke-linecap:butt;stroke-linejoin:miter;stroke-opacity:1" d="M 778.149,264.643 797.6,299.655 z" id="boundary" inkscape:connector-curvature="0" />
	<path style="fill:none;stroke:red;stroke-width:1px;stroke-linecap:butt;stroke-linejoin:miter;stroke-opacity:1" d="M 817.051,334.667 797.6,299.655 z" id="boundary" inkscape:connector-curvature="0" />
	<path style="fill:none;stroke:red;stroke-width:1px;stroke-linecap:butt;stroke-linejoin:miter;stroke-opacity:1" d="M 638.102,420.251 606.98,396.91 z" id="boundary" inkscape:connector-curvature="0" />
	<path style="fill:none;stroke:red;stroke-width:1px;stroke-linecap:butt;stroke-linejoin:miter;stroke-opacity:1" d="M 677.004,435.812 638.102,420.251 z" id="boundary" inkscape:connector-curvature="0" />
	<path style="fill:none;stroke:red;stroke-width:1px;stroke-linecap:butt;stroke-linejoin:miter;stroke-opacity:1" d="M 715.906,428.031 677.004,435.812 z" id="boundary" inkscape:connector-curvature="0" />
	<path style="fill:none;stroke:red;stroke-width:1px;stroke-linecap:butt;stroke-linejoin:miter;stroke-opacity:1" d="M 754.808,431.922 715.906,428.031 z" id="boundary" inkscape:connector-curvature="0" />
	<path style="fill:none;stroke:red;stroke-width:1px;stroke-linecap:butt;stroke-linejoin:miter;stroke-opacity:1" d="M 793.71,435.812 754.808,431.922 z" id="boundary" inkscape:connector-curvature="0" />
	<path style="fill:none;stroke:red;stroke-width:1px;stroke-linecap:butt;stroke-linejoin:miter;stroke-opacity:1" d="M 832.612,424.141 793.71,435.812 z" id="boundary" inkscape:connector-curvature="0" />
	<path style="fill:none;stroke:red;stroke-width:1px;stroke-linecap:butt;stroke-linejoin:miter;stroke-opacity:1" d="M 832.612,373.569 832.612,424.141 z" id="boundary" inkscape:connector-curvature="0" />
	<path style="fill:none;stroke:red;stroke-width:1px;stroke-linecap:butt;stroke-linejoin:miter;stroke-opacity:1" d="M 817.051,334.667 832.612,373.569 z" id="boundary" inkscape:connector-curvature="0" />
	<path style="fill:none;stroke:red;stroke-width:1px;stroke-linecap:butt;stroke-linejoin:miter;stroke-opacity:1" d="M 560.298,548.627 560.298,509.725 z" id="boundary" inkscape:connector-curvature="0" />
	<path style="fill:none;stroke:red;stroke-width:1px;stroke-linecap:butt;stroke-linejoin:miter;stroke-opacity:1" d="M 447.482,661.443 447.482,622.541 z" id="boundary" inkscape:connector-curvature="0" />
	<path style="fill:none;stroke:red;stroke-width:1px;stroke-linecap:butt;stroke-linejoin:miter;stroke-opacity:1" d="M 447.482,661.443 447.482,700.345 z" id="boundary" inkscape:connector-curvature="0" />
	<path style="fill:none;stroke:red;stroke-width:1px;stroke-linecap:butt;stroke-linejoin:miter;stroke-opacity:1" d="M 498.055,587.529 498.055,626.431 z" id="boundary" inkscape:connector-curvature="0" />
	<path style="fill:none;stroke:red;stroke-width:1px;stroke-linecap:butt;stroke-linejoin:miter;stroke-opacity:1" d="M 498.055,665.333 498.055,626.431 z" id="boundary" inkscape:connector-curvature="0" />
	<path style="fill:none;stroke:red;stroke-width:1px;stroke-linecap:butt;stroke-linejoin:miter;stroke-opacity:1" d="M 466.933,898.745 466.933,937.647 z" id="boundary" inkscape:connector-curvature="0" />
	<path style="fill:none;stroke:red;stroke-width:1px;stroke-linecap:butt;stroke-linejoin:miter;stroke-opacity:1" d="M 529.176,945.427 498.055,996 z" id="boundary" inkscape:connector-curvature="0" />
	<path style="fill:none;stroke:red;stroke-width:1px;stroke-linecap:butt;stroke-linejoin:miter;stroke-opacity:1" d="M 498.055,996 459.153,996 z" id="boundary" inkscape:connector-curvature="0" />
	<path style="fill:none;stroke:red;stroke-width:1px;stroke-linecap:butt;stroke-linejoin:miter;stroke-opacity:1" d="M 560.298,548.627 560.298,587.529 z" id="boundary" inkscape:connector-curvature="0" />
	<path style="fill:none;stroke:red;stroke-width:1px;stroke-linecap:butt;stroke-linejoin:miter;stroke-opacity:1" d="M 560.298,626.431 560.298,665.333 z" id="boundary" inkscape:connector-curvature="0" />
	<path style="fill:none;stroke:red;stroke-width:1px;stroke-linecap:butt;stroke-linejoin:miter;stroke-opacity:1" d="M 560.298,587.529 560.298,626.431 z" id="boundary" inkscape:connector-curvature="0" />
	<path style="fill:none;stroke:red;stroke-width:1px;stroke-linecap:butt;stroke-linejoin:miter;stroke-opacity:1" d="M 552.518,727.576 560.298,665.333 z" id="boundary" inkscape:connector-curvature="0" />
	<path style="fill:none;stroke:red;stroke-width:1px;stroke-linecap:butt;stroke-linejoin:miter;stroke-opacity:1" d="M 536.957,867.624 536.957,906.525 z" id="boundary" inkscape:connector-curvature="0" />
	<path style="fill:none;stroke:red;stroke-width:1px;stroke-linecap:butt;stroke-linejoin:miter;stroke-opacity:1" d="M 536.957,906.525 529.176,945.427 z" id="boundary" inkscape:connector-curvature="0" />
	<path style="fill:none;stroke:red;stroke-width:1px;stroke-linecap:butt;stroke-linejoin:miter;stroke-opacity:1" d="M 544.737,797.6 536.957,867.624 z" id="boundary" inkscape:connector-curvature="0" />
	<path style="fill:none;stroke:red;stroke-width:1px;stroke-linecap:butt;stroke-linejoin:miter;stroke-opacity:1" d="M 544.737,797.6 552.518,727.576 z" id="boundary" inkscape:connector-curvature="0" />
	<circle cx="4" cy="252.973" r="4" fill="#0" id="circle0"/>
	<circle cx="4" cy="291.875" r="4" fill="#0" id="circle1"/>
	<circle cx="27.3412" cy="214.071" r="4" fill="#0" id="circle2"/>
	<circle cx="42.902" cy="287.984" r="4" fill="#0" id="circle3"/>
	<circle cx="50.6824" cy="175.169" r="4" fill="#0" id="circle4"/>
	<circle cx="66.2431" cy="128.486" r="4" fill="#0" id="circle5"/>
	<circle cx="74.0235" cy="256.863" r="4" fill="#0" id="circle6"/>
	<circle cx="89.5843" cy="97.3647" r="4" fill="#0" id="circle7"/>
	<circle cx="105.145" cy="225.741" r="4" fill="#0" id="circle8"/>
	<circle cx="124.596" cy="77.9137" r="4" fill="#0" id="circle9"/>
	<circle cx="140.157" cy="206.29" r="4" fill="#0" id="circle10"/>
	<circle cx="163.498" cy="74.0235" r="4" fill="#0" id="circle11"/>
	<circle cx="171.278" cy="182.949" r="4" fill="#0" id="circle12"/>
	<circle cx="182.949" cy="276.314" r="4" fill="#0" id="circle13"/>
	<circle cx="190.729" cy="217.961" r="4" fill="#0" id="circle14"/>
	<circle cx="190.729" cy="315.216" r="4" fill="#0" id="circle15"/>
	<circle cx="202.4" cy="81.8039" r="4" fill="#0" id="circle16"/>
	<circle cx="214.071" cy="346.337" r="4" fill="#0" id="circle17"/>
	<circle cx="237.412" cy="101.255" r="4" fill="#0" id="circle18"/>
	<circle cx="245.192" cy="369.678" r="4" fill="#0" id="circle19"/>
	<circle cx="256.863" cy="136.267" r="4" fill="#0" id="circle20"/>
	<circle cx="284.094" cy="97.3647" r="4" fill="#0" id="circle21"/>
	<circle cx="284.094" cy="373.569" r="4" fill="#0" id="circle22"/>
	<circle cx="307.435" cy="66.2431" r="4" fill="#0" id="circle23"/>
	<circle cx="307.435" cy="968.769" r="4" fill="#0" id="circle24"/>
	<circle cx="315.216" cy="342.447" r="4" fill="#0" id="circle25"/>
	<circle cx="334.667" cy="252.973" r="4" fill="#0" id="circle26"/>
	<circle cx="334.667" cy="291.875" r="4" fill="#0" id="circle27"/>
	<circle cx="338.557" cy="35.1216" r="4" fill="#0" id="circle28"/>
	<circle cx="342.447" cy="988.22" r="4" fill="#0" id="circle29"/>
	<circle cx="361.898" cy="953.208" r="4" fill="#0" id="circle30"/>
	<circle cx="369.678" cy="272.424" r="4" fill="#0" id="circle31"/>
	<circle cx="377.459" cy="19.5608" r="4" fill="#0" id="circle32"/>
	<circle cx="377.459" cy="311.325" r="4" fill="#0" id="circle33"/>
	<circle cx="381.349" cy="996" r="4" fill="#0" id="circle34"/>
	<circle cx="385.239" cy="350.227" r="4" fill="#0" id="circle35"/>
	<circle cx="393.02" cy="389.129" r="4" fill="#0" id="circle36"/>
	<circle cx="400.8" cy="428.031" r="4" fill="#0" id="circle37"/>
	<circle cx="400.8" cy="945.427" r="4" fill="#0" id="circle38"/>
	<circle cx="408.58" cy="466.933" r="4" fill="#0" id="circle39"/>
	<circle cx="416.361" cy="4" r="4" fill="#0" id="circle40"/>
	<circle cx="416.361" cy="505.835" r="4" fill="#0" id="circle41"/>
	<circle cx="420.251" cy="996" r="4" fill="#0" id="circle42"/>
	<circle cx="424.141" cy="544.737" r="4" fill="#0" id="circle43"/>
	<circle cx="424.141" cy="867.624" r="4" fill="#0" id="circle44"/>
	<circle cx="424.141" cy="906.525" r="4" fill="#0" id="circle45"/>
	<circle cx="431.922" cy="813.161" r="4" fill="#0" id="circle46"/>
	<circle cx="439.702" cy="583.639" r="4" fill="#0" id="circle47"/>
	<circle cx="439.702" cy="750.918" r="4" fill="#0" id="circle48"/>
	<circle cx="447.482" cy="622.541" r="4" fill="#0" id="circle49"/>
	<circle cx="447.482" cy="661.443" r="4" fill="#0" id="circle50"/>
	<circle cx="447.482" cy="700.345" r="4" fill="#0" id="circle51"/>
	<circle cx="455.263" cy="4" r="4" fill="#0" id="circle52"/>
	<circle cx="459.153" cy="996" r="4" fill="#0" id="circle53"/>
	<circle cx="466.933" cy="898.745" r="4" fill="#0" id="circle54"/>
	<circle cx="466.933" cy="937.647" r="4" fill="#0" id="circle55"/>
	<circle cx="474.714" cy="844.282" r="4" fill="#0" id="circle56"/>
	<circle cx="482.494" cy="782.039" r="4" fill="#0" id="circle57"/>
	<circle cx="490.275" cy="727.576" r="4" fill="#0" id="circle58"/>
	<circle cx="494.165" cy="4" r="4" fill="#0" id="circle59"/>
	<circle cx="498.055" cy="587.529" r="4" fill="#0" id="circle60"/>
	<circle cx="498.055" cy="626.431" r="4" fill="#0" id="circle61"/>
	<circle cx="498.055" cy="665.333" r="4" fill="#0" id="circle62"/>
	<circle cx="498.055" cy="996" r="4" fill="#0" id="circle63"/>
	<circle cx="529.176" cy="945.427" r="4" fill="#0" id="circle64"/>
	<circle cx="533.067" cy="15.6706" r="4" fill="#0" id="circle65"/>
	<circle cx="536.957" cy="867.624" r="4" fill="#0" id="circle66"/>
	<circle cx="536.957" cy="906.525" r="4" fill="#0" id="circle67"/>
	<circle cx="544.737" cy="797.6" r="4" fill="#0" id="circle68"/>
	<circle cx="552.518" cy="727.576" r="4" fill="#0" id="circle69"/>
	<circle cx="560.298" cy="509.725" r="4" fill="#0" id="circle70"/>
	<circle cx="560.298" cy="548.627" r="4" fill="#0" id="circle71"/>
	<circle cx="560.298" cy="587.529" r="4" fill="#0" id="circle72"/>
	<circle cx="560.298" cy="626.431" r="4" fill="#0" id="circle73"/>
	<circle cx="560.298" cy="665.333" r="4" fill="#0" id="circle74"/>
	<circle cx="568.078" cy="35.1216" r="4" fill="#0" id="circle75"/>
	<circle cx="568.078" cy="385.239" r="4" fill="#0" id="circle76"/>
	<circle cx="568.078" cy="424.141" r="4" fill="#0" id="circle77"/>
	<circle cx="568.078" cy="463.043" r="4" fill="#0" id="circle78"/>
	<circle cx="603.09" cy="54.5725" r="4" fill="#0" id="circle79"/>
	<circle cx="606.98" cy="396.91" r="4" fill="#0" id="circle80"/>
	<circle cx="634.212" cy="77.9137" r="4" fill="#0" id="circle81"/>
	<circle cx="638.102" cy="420.251" r="4" fill="#0" id="circle82"/>
	<circle cx="661.443" cy="109.035" r="4" fill="#0" id="circle83"/>
	<circle cx="677.004" cy="435.812" r="4" fill="#0" id="circle84"/>
	<circle cx="684.784" cy="140.157" r="4" fill="#0" id="circle85"/>
	<circle cx="708.125" cy="171.278" r="4" fill="#0" id="circle86"/>
	<circle cx="715.906" cy="428.031" r="4" fill="#0" id="circle87"/>
	<circle cx="731.467" cy="202.4" r="4" fill="#0" id="circle88"/>
	<circle cx="754.808" cy="233.522" r="4" fill="#0" id="circle89"/>
	<circle cx="754.808" cy="431.922" r="4" fill="#0" id="circle90"/>
	<circle cx="778.149" cy="264.643" r="4" fill="#0" id="circle91"/>
	<circle cx="793.71" cy="435.812" r="4" fill="#0" id="circle92"/>
	<circle cx="797.6" cy="299.655" r="4" fill="#0" id="circle93"/>
	<circle cx="817.051" cy="334.667" r="4" fill="#0" id="circle94"/>
	<circle cx="832.612" cy="373.569" r="4" fill="#0" id="circle95"/>
	<circle cx="832.612" cy="424.141" r="4" fill="#0" id="circle96"/>
	</g>
</svg>