<?xml version="1.0" encoding="UTF-8" standalone="no"?>
<!-- Created with CurveBenchmark -->
<svg
	xmlns:dc="http://purl.org/dc/elements/1.1/"
	xmlns:cc="http://creativecommons.org/ns#"
	xmlns:rdf="http://www.w3.org/1999/02/22-rdf-syntax-ns#"
	xmlns:svg="http://www.w3.org/2000/svg"
	xmlns="http://www.w3.org/2000/svg"
	xmlns:sodipodi="http://sodipodi.sourceforge.net/DTD/sodipodi-0.dtd"
	xmlns:inkscape="http://www.inkscape.org/namespaces/inkscape"
	width="1000"
	height="1000"
	id="svg2"
	version="1.1"
	sodipodi:docname="manifold/crust-hammer22.png.txt">
<defs
	id="defs4" />
<metadata
	id="metadata7">
	<rdf:RDF>
		<cc:Work
			rdf:about="">
			<dc:format>image/svg+xml</dc:format>
			<dc:type
				rdf:resource="http://purl.org/dc/dcmitype/StillImage" />
			<dc:title></dc:title>
		</cc:Work>
	</rdf:RDF>
</metadata>
<g
	inkscape:label="Layer 1"
	inkscape:groupmode="layer"
	id="layer1">
	<path style="fill:none;stroke:red;stroke-width:1px;stroke-linecap:butt;stroke-linejoin:miter;stroke-opacity:1" d="M 415.317,501.1 404.319,523.095 z" id="boundary" inkscape:connector-curvature="0" />
	<path style="fill:none;stroke:red;stroke-width:1px;stroke-linecap:butt;stroke-linejoin:miter;stroke-opacity:1" d="M 404.319,523.095 393.322,545.091 z" id="boundary" inkscape:connector-curvature="0" />
	<path style="fill:none;stroke:red;stroke-width:1px;stroke-linecap:butt;stroke-linejoin:miter;stroke-opacity:1" d="M 322.936,604.479 300.94,615.477 z" id="boundary" inkscape:connector-curvature="0" />
	<path style="fill:none;stroke:red;stroke-width:1px;stroke-linecap:butt;stroke-linejoin:miter;stroke-opacity:1" d="M 340.532,586.882 322.936,604.479 z" id="boundary" inkscape:connector-curvature="0" />
	<path style="fill:none;stroke:red;stroke-width:1px;stroke-linecap:butt;stroke-linejoin:miter;stroke-opacity:1" d="M 300.94,615.477 285.543,652.869 z" id="boundary" inkscape:connector-curvature="0" />
	<path style="fill:none;stroke:red;stroke-width:1px;stroke-linecap:butt;stroke-linejoin:miter;stroke-opacity:1" d="M 245.951,670.466 223.956,692.461 z" id="boundary" inkscape:connector-curvature="0" />
	<path style="fill:none;stroke:red;stroke-width:1px;stroke-linecap:butt;stroke-linejoin:miter;stroke-opacity:1" d="M 285.543,652.869 263.548,652.869 z" id="boundary" inkscape:connector-curvature="0" />
	<path style="fill:none;stroke:red;stroke-width:1px;stroke-linecap:butt;stroke-linejoin:miter;stroke-opacity:1" d="M 263.548,652.869 245.951,670.466 z" id="boundary" inkscape:connector-curvature="0" />
	<path style="fill:none;stroke:red;stroke-width:1px;stroke-linecap:butt;stroke-linejoin:miter;stroke-opacity:1" d="M 340.532,586.882 351.53,564.887 z" id="boundary" inkscape:connector-curvature="0" />
	<path style="fill:none;stroke:red;stroke-width:1px;stroke-linecap:butt;stroke-linejoin:miter;stroke-opacity:1" d="M 351.53,564.887 371.326,553.889 z" id="boundary" inkscape:connector-curvature="0" />
	<path style="fill:none;stroke:red;stroke-width:1px;stroke-linecap:butt;stroke-linejoin:miter;stroke-opacity:1" d="M 371.326,553.889 393.322,545.091 z" id="boundary" inkscape:connector-curvature="0" />
	<path style="fill:none;stroke:red;stroke-width:1px;stroke-linecap:butt;stroke-linejoin:miter;stroke-opacity:1" d="M 470.306,454.909 450.51,465.907 z" id="boundary" inkscape:connector-curvature="0" />
	<path style="fill:none;stroke:red;stroke-width:1px;stroke-linecap:butt;stroke-linejoin:miter;stroke-opacity:1" d="M 450.51,465.907 432.914,483.503 z" id="boundary" inkscape:connector-curvature="0" />
	<path style="fill:none;stroke:red;stroke-width:1px;stroke-linecap:butt;stroke-linejoin:miter;stroke-opacity:1" d="M 470.306,454.909 487.902,428.514 z" id="boundary" inkscape:connector-curvature="0" />
	<path style="fill:none;stroke:red;stroke-width:1px;stroke-linecap:butt;stroke-linejoin:miter;stroke-opacity:1" d="M 509.898,417.517 487.902,428.514 z" id="boundary" inkscape:connector-curvature="0" />
	<path style="fill:none;stroke:red;stroke-width:1px;stroke-linecap:butt;stroke-linejoin:miter;stroke-opacity:1" d="M 527.494,399.92 509.898,417.517 z" id="boundary" inkscape:connector-curvature="0" />
	<path style="fill:none;stroke:red;stroke-width:1px;stroke-linecap:butt;stroke-linejoin:miter;stroke-opacity:1" d="M 545.091,382.324 527.494,399.92 z" id="boundary" inkscape:connector-curvature="0" />
	<path style="fill:none;stroke:red;stroke-width:1px;stroke-linecap:butt;stroke-linejoin:miter;stroke-opacity:1" d="M 562.687,366.927 545.091,382.324 z" id="boundary" inkscape:connector-curvature="0" />
	<path style="fill:none;stroke:red;stroke-width:1px;stroke-linecap:butt;stroke-linejoin:miter;stroke-opacity:1" d="M 415.317,501.1 432.914,483.503 z" id="boundary" inkscape:connector-curvature="0" />
	<path style="fill:none;stroke:red;stroke-width:1px;stroke-linecap:butt;stroke-linejoin:miter;stroke-opacity:1" d="M 490.102,622.075 479.104,644.071 z" id="boundary" inkscape:connector-curvature="0" />
	<path style="fill:none;stroke:red;stroke-width:1px;stroke-linecap:butt;stroke-linejoin:miter;stroke-opacity:1" d="M 479.104,644.071 457.109,655.069 z" id="boundary" inkscape:connector-curvature="0" />
	<path style="fill:none;stroke:red;stroke-width:1px;stroke-linecap:butt;stroke-linejoin:miter;stroke-opacity:1" d="M 507.698,606.678 490.102,622.075 z" id="boundary" inkscape:connector-curvature="0" />
	<path style="fill:none;stroke:red;stroke-width:1px;stroke-linecap:butt;stroke-linejoin:miter;stroke-opacity:1" d="M 523.095,589.082 507.698,606.678 z" id="boundary" inkscape:connector-curvature="0" />
	<path style="fill:none;stroke:red;stroke-width:1px;stroke-linecap:butt;stroke-linejoin:miter;stroke-opacity:1" d="M 523.095,589.082 540.692,573.685 z" id="boundary" inkscape:connector-curvature="0" />
	<path style="fill:none;stroke:red;stroke-width:1px;stroke-linecap:butt;stroke-linejoin:miter;stroke-opacity:1" d="M 540.692,573.685 556.089,556.089 z" id="boundary" inkscape:connector-curvature="0" />
	<path style="fill:none;stroke:red;stroke-width:1px;stroke-linecap:butt;stroke-linejoin:miter;stroke-opacity:1" d="M 578.084,545.091 556.089,556.089 z" id="boundary" inkscape:connector-curvature="0" />
	<path style="fill:none;stroke:red;stroke-width:1px;stroke-linecap:butt;stroke-linejoin:miter;stroke-opacity:1" d="M 457.109,655.069 441.712,672.665 z" id="boundary" inkscape:connector-curvature="0" />
	<path style="fill:none;stroke:red;stroke-width:1px;stroke-linecap:butt;stroke-linejoin:miter;stroke-opacity:1" d="M 67.7871,850.829 50.1907,866.226 z" id="boundary" inkscape:connector-curvature="0" />
	<path style="fill:none;stroke:red;stroke-width:1px;stroke-linecap:butt;stroke-linejoin:miter;stroke-opacity:1" d="M 87.5831,839.831 67.7871,850.829 z" id="boundary" inkscape:connector-curvature="0" />
	<path style="fill:none;stroke:red;stroke-width:1px;stroke-linecap:butt;stroke-linejoin:miter;stroke-opacity:1" d="M 102.98,813.437 87.5831,839.831 z" id="boundary" inkscape:connector-curvature="0" />
	<path style="fill:none;stroke:red;stroke-width:1px;stroke-linecap:butt;stroke-linejoin:miter;stroke-opacity:1" d="M 120.576,795.84 102.98,813.437 z" id="boundary" inkscape:connector-curvature="0" />
	<path style="fill:none;stroke:red;stroke-width:1px;stroke-linecap:butt;stroke-linejoin:miter;stroke-opacity:1" d="M 138.173,778.244 120.576,795.84 z" id="boundary" inkscape:connector-curvature="0" />
	<path style="fill:none;stroke:red;stroke-width:1px;stroke-linecap:butt;stroke-linejoin:miter;stroke-opacity:1" d="M 14.9978,901.419 32.5942,883.823 z" id="boundary" inkscape:connector-curvature="0" />
	<path style="fill:none;stroke:red;stroke-width:1px;stroke-linecap:butt;stroke-linejoin:miter;stroke-opacity:1" d="M 50.1907,866.226 32.5942,883.823 z" id="boundary" inkscape:connector-curvature="0" />
	<path style="fill:none;stroke:red;stroke-width:1px;stroke-linecap:butt;stroke-linejoin:miter;stroke-opacity:1" d="M 155.769,762.847 138.173,778.244 z" id="boundary" inkscape:connector-curvature="0" />
	<path style="fill:none;stroke:red;stroke-width:1px;stroke-linecap:butt;stroke-linejoin:miter;stroke-opacity:1" d="M 197.561,740.851 175.565,751.849 z" id="boundary" inkscape:connector-curvature="0" />
	<path style="fill:none;stroke:red;stroke-width:1px;stroke-linecap:butt;stroke-linejoin:miter;stroke-opacity:1" d="M 175.565,751.849 155.769,762.847 z" id="boundary" inkscape:connector-curvature="0" />
	<path style="fill:none;stroke:red;stroke-width:1px;stroke-linecap:butt;stroke-linejoin:miter;stroke-opacity:1" d="M 179.965,919.016 160.169,930.013 z" id="boundary" inkscape:connector-curvature="0" />
	<path style="fill:none;stroke:red;stroke-width:1px;stroke-linecap:butt;stroke-linejoin:miter;stroke-opacity:1" d="M 21.5965,949.809 4,934.412 z" id="boundary" inkscape:connector-curvature="0" />
	<path style="fill:none;stroke:red;stroke-width:1px;stroke-linecap:butt;stroke-linejoin:miter;stroke-opacity:1" d="M 4,934.412 14.9978,901.419 z" id="boundary" inkscape:connector-curvature="0" />
	<path style="fill:none;stroke:red;stroke-width:1px;stroke-linecap:butt;stroke-linejoin:miter;stroke-opacity:1" d="M 21.5965,949.809 30.3947,971.805 z" id="boundary" inkscape:connector-curvature="0" />
	<path style="fill:none;stroke:red;stroke-width:1px;stroke-linecap:butt;stroke-linejoin:miter;stroke-opacity:1" d="M 30.3947,971.805 47.9911,985.002 z" id="boundary" inkscape:connector-curvature="0" />
	<path style="fill:none;stroke:red;stroke-width:1px;stroke-linecap:butt;stroke-linejoin:miter;stroke-opacity:1" d="M 67.7871,996 47.9911,985.002 z" id="boundary" inkscape:connector-curvature="0" />
	<path style="fill:none;stroke:red;stroke-width:1px;stroke-linecap:butt;stroke-linejoin:miter;stroke-opacity:1" d="M 144.772,947.61 122.776,958.608 z" id="boundary" inkscape:connector-curvature="0" />
	<path style="fill:none;stroke:red;stroke-width:1px;stroke-linecap:butt;stroke-linejoin:miter;stroke-opacity:1" d="M 160.169,930.013 144.772,947.61 z" id="boundary" inkscape:connector-curvature="0" />
	<path style="fill:none;stroke:red;stroke-width:1px;stroke-linecap:butt;stroke-linejoin:miter;stroke-opacity:1" d="M 105.18,974.004 89.7827,996 z" id="boundary" inkscape:connector-curvature="0" />
	<path style="fill:none;stroke:red;stroke-width:1px;stroke-linecap:butt;stroke-linejoin:miter;stroke-opacity:1" d="M 89.7827,996 67.7871,996 z" id="boundary" inkscape:connector-curvature="0" />
	<path style="fill:none;stroke:red;stroke-width:1px;stroke-linecap:butt;stroke-linejoin:miter;stroke-opacity:1" d="M 105.18,974.004 122.776,958.608 z" id="boundary" inkscape:connector-curvature="0" />
	<path style="fill:none;stroke:red;stroke-width:1px;stroke-linecap:butt;stroke-linejoin:miter;stroke-opacity:1" d="M 208.559,718.856 223.956,692.461 z" id="boundary" inkscape:connector-curvature="0" />
	<path style="fill:none;stroke:red;stroke-width:1px;stroke-linecap:butt;stroke-linejoin:miter;stroke-opacity:1" d="M 197.561,740.851 208.559,718.856 z" id="boundary" inkscape:connector-curvature="0" />
	<path style="fill:none;stroke:red;stroke-width:1px;stroke-linecap:butt;stroke-linejoin:miter;stroke-opacity:1" d="M 424.115,688.062 402.12,699.06 z" id="boundary" inkscape:connector-curvature="0" />
	<path style="fill:none;stroke:red;stroke-width:1px;stroke-linecap:butt;stroke-linejoin:miter;stroke-opacity:1" d="M 424.115,688.062 441.712,672.665 z" id="boundary" inkscape:connector-curvature="0" />
	<path style="fill:none;stroke:red;stroke-width:1px;stroke-linecap:butt;stroke-linejoin:miter;stroke-opacity:1" d="M 402.12,699.06 386.723,727.654 z" id="boundary" inkscape:connector-curvature="0" />
	<path style="fill:none;stroke:red;stroke-width:1px;stroke-linecap:butt;stroke-linejoin:miter;stroke-opacity:1" d="M 369.126,743.051 347.131,754.049 z" id="boundary" inkscape:connector-curvature="0" />
	<path style="fill:none;stroke:red;stroke-width:1px;stroke-linecap:butt;stroke-linejoin:miter;stroke-opacity:1" d="M 386.723,727.654 369.126,743.051 z" id="boundary" inkscape:connector-curvature="0" />
	<path style="fill:none;stroke:red;stroke-width:1px;stroke-linecap:butt;stroke-linejoin:miter;stroke-opacity:1" d="M 347.131,754.049 331.734,771.645 z" id="boundary" inkscape:connector-curvature="0" />
	<path style="fill:none;stroke:red;stroke-width:1px;stroke-linecap:butt;stroke-linejoin:miter;stroke-opacity:1" d="M 245.951,853.029 226.155,864.027 z" id="boundary" inkscape:connector-curvature="0" />
	<path style="fill:none;stroke:red;stroke-width:1px;stroke-linecap:butt;stroke-linejoin:miter;stroke-opacity:1" d="M 197.561,905.818 179.965,919.016 z" id="boundary" inkscape:connector-curvature="0" />
	<path style="fill:none;stroke:red;stroke-width:1px;stroke-linecap:butt;stroke-linejoin:miter;stroke-opacity:1" d="M 208.559,883.823 197.561,905.818 z" id="boundary" inkscape:connector-curvature="0" />
	<path style="fill:none;stroke:red;stroke-width:1px;stroke-linecap:butt;stroke-linejoin:miter;stroke-opacity:1" d="M 226.155,864.027 208.559,883.823 z" id="boundary" inkscape:connector-curvature="0" />
	<path style="fill:none;stroke:red;stroke-width:1px;stroke-linecap:butt;stroke-linejoin:miter;stroke-opacity:1" d="M 281.144,820.035 263.548,839.831 z" id="boundary" inkscape:connector-curvature="0" />
	<path style="fill:none;stroke:red;stroke-width:1px;stroke-linecap:butt;stroke-linejoin:miter;stroke-opacity:1" d="M 298.741,804.639 309.738,782.643 z" id="boundary" inkscape:connector-curvature="0" />
	<path style="fill:none;stroke:red;stroke-width:1px;stroke-linecap:butt;stroke-linejoin:miter;stroke-opacity:1" d="M 281.144,820.035 298.741,804.639 z" id="boundary" inkscape:connector-curvature="0" />
	<path style="fill:none;stroke:red;stroke-width:1px;stroke-linecap:butt;stroke-linejoin:miter;stroke-opacity:1" d="M 309.738,782.643 331.734,771.645 z" id="boundary" inkscape:connector-curvature="0" />
	<path style="fill:none;stroke:red;stroke-width:1px;stroke-linecap:butt;stroke-linejoin:miter;stroke-opacity:1" d="M 245.951,853.029 263.548,839.831 z" id="boundary" inkscape:connector-curvature="0" />
	<path style="fill:none;stroke:red;stroke-width:1px;stroke-linecap:butt;stroke-linejoin:miter;stroke-opacity:1" d="M 586.882,87.5831 604.479,69.9867 z" id="boundary" inkscape:connector-curvature="0" />
	<path style="fill:none;stroke:red;stroke-width:1px;stroke-linecap:butt;stroke-linejoin:miter;stroke-opacity:1" d="M 624.275,58.9889 604.479,69.9867 z" id="boundary" inkscape:connector-curvature="0" />
	<path style="fill:none;stroke:red;stroke-width:1px;stroke-linecap:butt;stroke-linejoin:miter;stroke-opacity:1" d="M 641.871,43.592 624.275,58.9889 z" id="boundary" inkscape:connector-curvature="0" />
	<path style="fill:none;stroke:red;stroke-width:1px;stroke-linecap:butt;stroke-linejoin:miter;stroke-opacity:1" d="M 659.468,25.9956 641.871,43.592 z" id="boundary" inkscape:connector-curvature="0" />
	<path style="fill:none;stroke:red;stroke-width:1px;stroke-linecap:butt;stroke-linejoin:miter;stroke-opacity:1" d="M 600.08,127.175 586.882,109.579 z" id="boundary" inkscape:connector-curvature="0" />
	<path style="fill:none;stroke:red;stroke-width:1px;stroke-linecap:butt;stroke-linejoin:miter;stroke-opacity:1" d="M 586.882,109.579 586.882,87.5831 z" id="boundary" inkscape:connector-curvature="0" />
	<path style="fill:none;stroke:red;stroke-width:1px;stroke-linecap:butt;stroke-linejoin:miter;stroke-opacity:1" d="M 681.463,14.9978 703.459,4 z" id="boundary" inkscape:connector-curvature="0" />
	<path style="fill:none;stroke:red;stroke-width:1px;stroke-linecap:butt;stroke-linejoin:miter;stroke-opacity:1" d="M 703.459,4 725.455,4 z" id="boundary" inkscape:connector-curvature="0" />
	<path style="fill:none;stroke:red;stroke-width:1px;stroke-linecap:butt;stroke-linejoin:miter;stroke-opacity:1" d="M 659.468,25.9956 681.463,14.9978 z" id="boundary" inkscape:connector-curvature="0" />
	<path style="fill:none;stroke:red;stroke-width:1px;stroke-linecap:butt;stroke-linejoin:miter;stroke-opacity:1" d="M 600.08,127.175 619.876,138.173 z" id="boundary" inkscape:connector-curvature="0" />
	<path style="fill:none;stroke:red;stroke-width:1px;stroke-linecap:butt;stroke-linejoin:miter;stroke-opacity:1" d="M 633.073,155.769 619.876,138.173 z" id="boundary" inkscape:connector-curvature="0" />
	<path style="fill:none;stroke:red;stroke-width:1px;stroke-linecap:butt;stroke-linejoin:miter;stroke-opacity:1" d="M 633.073,155.769 655.069,160.169 z" id="boundary" inkscape:connector-curvature="0" />
	<path style="fill:none;stroke:red;stroke-width:1px;stroke-linecap:butt;stroke-linejoin:miter;stroke-opacity:1" d="M 655.069,160.169 674.865,171.166 z" id="boundary" inkscape:connector-curvature="0" />
	<path style="fill:none;stroke:red;stroke-width:1px;stroke-linecap:butt;stroke-linejoin:miter;stroke-opacity:1" d="M 688.062,188.763 674.865,171.166 z" id="boundary" inkscape:connector-curvature="0" />
	<path style="fill:none;stroke:red;stroke-width:1px;stroke-linecap:butt;stroke-linejoin:miter;stroke-opacity:1" d="M 685.863,219.557 688.062,188.763 z" id="boundary" inkscape:connector-curvature="0" />
	<path style="fill:none;stroke:red;stroke-width:1px;stroke-linecap:butt;stroke-linejoin:miter;stroke-opacity:1" d="M 672.665,245.951 655.069,261.348 z" id="boundary" inkscape:connector-curvature="0" />
	<path style="fill:none;stroke:red;stroke-width:1px;stroke-linecap:butt;stroke-linejoin:miter;stroke-opacity:1" d="M 685.863,219.557 672.665,245.951 z" id="boundary" inkscape:connector-curvature="0" />
	<path style="fill:none;stroke:red;stroke-width:1px;stroke-linecap:butt;stroke-linejoin:miter;stroke-opacity:1" d="M 655.069,261.348 639.672,278.945 z" id="boundary" inkscape:connector-curvature="0" />
	<path style="fill:none;stroke:red;stroke-width:1px;stroke-linecap:butt;stroke-linejoin:miter;stroke-opacity:1" d="M 725.455,4 740.851,21.5965 z" id="boundary" inkscape:connector-curvature="0" />
	<path style="fill:none;stroke:red;stroke-width:1px;stroke-linecap:butt;stroke-linejoin:miter;stroke-opacity:1" d="M 758.448,36.9933 778.244,47.9911 z" id="boundary" inkscape:connector-curvature="0" />
	<path style="fill:none;stroke:red;stroke-width:1px;stroke-linecap:butt;stroke-linejoin:miter;stroke-opacity:1" d="M 758.448,36.9933 740.851,21.5965 z" id="boundary" inkscape:connector-curvature="0" />
	<path style="fill:none;stroke:red;stroke-width:1px;stroke-linecap:butt;stroke-linejoin:miter;stroke-opacity:1" d="M 778.244,47.9911 795.84,63.388 z" id="boundary" inkscape:connector-curvature="0" />
	<path style="fill:none;stroke:red;stroke-width:1px;stroke-linecap:butt;stroke-linejoin:miter;stroke-opacity:1" d="M 795.84,63.388 809.038,80.9845 z" id="boundary" inkscape:connector-curvature="0" />
	<path style="fill:none;stroke:red;stroke-width:1px;stroke-linecap:butt;stroke-linejoin:miter;stroke-opacity:1" d="M 831.033,87.5831 809.038,80.9845 z" id="boundary" inkscape:connector-curvature="0" />
	<path style="fill:none;stroke:red;stroke-width:1px;stroke-linecap:butt;stroke-linejoin:miter;stroke-opacity:1" d="M 848.63,102.98 831.033,87.5831 z" id="boundary" inkscape:connector-curvature="0" />
	<path style="fill:none;stroke:red;stroke-width:1px;stroke-linecap:butt;stroke-linejoin:miter;stroke-opacity:1" d="M 848.63,102.98 868.426,113.978 z" id="boundary" inkscape:connector-curvature="0" />
	<path style="fill:none;stroke:red;stroke-width:1px;stroke-linecap:butt;stroke-linejoin:miter;stroke-opacity:1" d="M 883.823,131.574 868.426,113.978 z" id="boundary" inkscape:connector-curvature="0" />
	<path style="fill:none;stroke:red;stroke-width:1px;stroke-linecap:butt;stroke-linejoin:miter;stroke-opacity:1" d="M 908.018,168.967 894.82,151.37 z" id="boundary" inkscape:connector-curvature="0" />
	<path style="fill:none;stroke:red;stroke-width:1px;stroke-linecap:butt;stroke-linejoin:miter;stroke-opacity:1" d="M 894.82,151.37 883.823,131.574 z" id="boundary" inkscape:connector-curvature="0" />
	<path style="fill:none;stroke:red;stroke-width:1px;stroke-linecap:butt;stroke-linejoin:miter;stroke-opacity:1" d="M 809.038,274.545 787.042,270.146 z" id="boundary" inkscape:connector-curvature="0" />
	<path style="fill:none;stroke:red;stroke-width:1px;stroke-linecap:butt;stroke-linejoin:miter;stroke-opacity:1" d="M 908.018,168.967 925.614,182.164 z" id="boundary" inkscape:connector-curvature="0" />
	<path style="fill:none;stroke:red;stroke-width:1px;stroke-linecap:butt;stroke-linejoin:miter;stroke-opacity:1" d="M 941.011,199.761 925.614,182.164 z" id="boundary" inkscape:connector-curvature="0" />
	<path style="fill:none;stroke:red;stroke-width:1px;stroke-linecap:butt;stroke-linejoin:miter;stroke-opacity:1" d="M 952.009,219.557 941.011,199.761 z" id="boundary" inkscape:connector-curvature="0" />
	<path style="fill:none;stroke:red;stroke-width:1px;stroke-linecap:butt;stroke-linejoin:miter;stroke-opacity:1" d="M 952.009,219.557 963.007,248.151 z" id="boundary" inkscape:connector-curvature="0" />
	<path style="fill:none;stroke:red;stroke-width:1px;stroke-linecap:butt;stroke-linejoin:miter;stroke-opacity:1" d="M 974.004,267.947 963.007,248.151 z" id="boundary" inkscape:connector-curvature="0" />
	<path style="fill:none;stroke:red;stroke-width:1px;stroke-linecap:butt;stroke-linejoin:miter;stroke-opacity:1" d="M 963.007,303.14 974.004,267.947 z" id="boundary" inkscape:connector-curvature="0" />
	<path style="fill:none;stroke:red;stroke-width:1px;stroke-linecap:butt;stroke-linejoin:miter;stroke-opacity:1" d="M 593.481,333.933 604.479,311.938 z" id="boundary" inkscape:connector-curvature="0" />
	<path style="fill:none;stroke:red;stroke-width:1px;stroke-linecap:butt;stroke-linejoin:miter;stroke-opacity:1" d="M 593.481,333.933 582.483,355.929 z" id="boundary" inkscape:connector-curvature="0" />
	<path style="fill:none;stroke:red;stroke-width:1px;stroke-linecap:butt;stroke-linejoin:miter;stroke-opacity:1" d="M 639.672,278.945 622.075,294.341 z" id="boundary" inkscape:connector-curvature="0" />
	<path style="fill:none;stroke:red;stroke-width:1px;stroke-linecap:butt;stroke-linejoin:miter;stroke-opacity:1" d="M 604.479,311.938 622.075,294.341 z" id="boundary" inkscape:connector-curvature="0" />
	<path style="fill:none;stroke:red;stroke-width:1px;stroke-linecap:butt;stroke-linejoin:miter;stroke-opacity:1" d="M 562.687,366.927 582.483,355.929 z" id="boundary" inkscape:connector-curvature="0" />
	<path style="fill:none;stroke:red;stroke-width:1px;stroke-linecap:butt;stroke-linejoin:miter;stroke-opacity:1" d="M 760.647,331.734 743.051,347.131 z" id="boundary" inkscape:connector-curvature="0" />
	<path style="fill:none;stroke:red;stroke-width:1px;stroke-linecap:butt;stroke-linejoin:miter;stroke-opacity:1" d="M 688.062,391.122 705.659,375.725 z" id="boundary" inkscape:connector-curvature="0" />
	<path style="fill:none;stroke:red;stroke-width:1px;stroke-linecap:butt;stroke-linejoin:miter;stroke-opacity:1" d="M 721.055,358.129 705.659,375.725 z" id="boundary" inkscape:connector-curvature="0" />
	<path style="fill:none;stroke:red;stroke-width:1px;stroke-linecap:butt;stroke-linejoin:miter;stroke-opacity:1" d="M 743.051,347.131 721.055,358.129 z" id="boundary" inkscape:connector-curvature="0" />
	<path style="fill:none;stroke:red;stroke-width:1px;stroke-linecap:butt;stroke-linejoin:miter;stroke-opacity:1" d="M 589.082,512.098 578.084,545.091 z" id="boundary" inkscape:connector-curvature="0" />
	<path style="fill:none;stroke:red;stroke-width:1px;stroke-linecap:butt;stroke-linejoin:miter;stroke-opacity:1" d="M 589.082,512.098 606.678,496.701 z" id="boundary" inkscape:connector-curvature="0" />
	<path style="fill:none;stroke:red;stroke-width:1px;stroke-linecap:butt;stroke-linejoin:miter;stroke-opacity:1" d="M 622.075,468.106 606.678,496.701 z" id="boundary" inkscape:connector-curvature="0" />
	<path style="fill:none;stroke:red;stroke-width:1px;stroke-linecap:butt;stroke-linejoin:miter;stroke-opacity:1" d="M 641.871,457.109 622.075,468.106 z" id="boundary" inkscape:connector-curvature="0" />
	<path style="fill:none;stroke:red;stroke-width:1px;stroke-linecap:butt;stroke-linejoin:miter;stroke-opacity:1" d="M 641.871,457.109 655.069,435.113 z" id="boundary" inkscape:connector-curvature="0" />
	<path style="fill:none;stroke:red;stroke-width:1px;stroke-linecap:butt;stroke-linejoin:miter;stroke-opacity:1" d="M 655.069,435.113 672.665,419.716 z" id="boundary" inkscape:connector-curvature="0" />
	<path style="fill:none;stroke:red;stroke-width:1px;stroke-linecap:butt;stroke-linejoin:miter;stroke-opacity:1" d="M 672.665,419.716 688.062,391.122 z" id="boundary" inkscape:connector-curvature="0" />
	<path style="fill:none;stroke:red;stroke-width:1px;stroke-linecap:butt;stroke-linejoin:miter;stroke-opacity:1" d="M 787.042,292.142 771.645,309.738 z" id="boundary" inkscape:connector-curvature="0" />
	<path style="fill:none;stroke:red;stroke-width:1px;stroke-linecap:butt;stroke-linejoin:miter;stroke-opacity:1" d="M 787.042,270.146 787.042,292.142 z" id="boundary" inkscape:connector-curvature="0" />
	<path style="fill:none;stroke:red;stroke-width:1px;stroke-linecap:butt;stroke-linejoin:miter;stroke-opacity:1" d="M 809.038,274.545 824.435,292.142 z" id="boundary" inkscape:connector-curvature="0" />
	<path style="fill:none;stroke:red;stroke-width:1px;stroke-linecap:butt;stroke-linejoin:miter;stroke-opacity:1" d="M 771.645,309.738 760.647,331.734 z" id="boundary" inkscape:connector-curvature="0" />
	<path style="fill:none;stroke:red;stroke-width:1px;stroke-linecap:butt;stroke-linejoin:miter;stroke-opacity:1" d="M 824.435,292.142 835.432,311.938 z" id="boundary" inkscape:connector-curvature="0" />
	<path style="fill:none;stroke:red;stroke-width:1px;stroke-linecap:butt;stroke-linejoin:miter;stroke-opacity:1" d="M 835.432,311.938 853.029,325.135 z" id="boundary" inkscape:connector-curvature="0" />
	<path style="fill:none;stroke:red;stroke-width:1px;stroke-linecap:butt;stroke-linejoin:miter;stroke-opacity:1" d="M 872.825,336.133 853.029,325.135 z" id="boundary" inkscape:connector-curvature="0" />
	<path style="fill:none;stroke:red;stroke-width:1px;stroke-linecap:butt;stroke-linejoin:miter;stroke-opacity:1" d="M 892.621,347.131 872.825,336.133 z" id="boundary" inkscape:connector-curvature="0" />
	<path style="fill:none;stroke:red;stroke-width:1px;stroke-linecap:butt;stroke-linejoin:miter;stroke-opacity:1" d="M 963.007,303.14 949.809,329.534 z" id="boundary" inkscape:connector-curvature="0" />
	<path style="fill:none;stroke:red;stroke-width:1px;stroke-linecap:butt;stroke-linejoin:miter;stroke-opacity:1" d="M 912.417,358.129 892.621,347.131 z" id="boundary" inkscape:connector-curvature="0" />
	<path style="fill:none;stroke:red;stroke-width:1px;stroke-linecap:butt;stroke-linejoin:miter;stroke-opacity:1" d="M 949.809,329.534 932.213,347.131 z" id="boundary" inkscape:connector-curvature="0" />
	<path style="fill:none;stroke:red;stroke-width:1px;stroke-linecap:butt;stroke-linejoin:miter;stroke-opacity:1" d="M 912.417,358.129 932.213,347.131 z" id="boundary" inkscape:connector-curvature="0" />
	<circle cx="4" cy="934.412" r="4" fill="#0" id="circle0"/>
	<circle cx="14.9978" cy="901.419" r="4" fill="#0" id="circle1"/>
	<circle cx="21.5965" cy="949.809" r="4" fill="#0" id="circle2"/>
	<circle cx="30.3947" cy="971.805" r="4" fill="#0" id="circle3"/>
	<circle cx="32.5942" cy="883.823" r="4" fill="#0" id="circle4"/>
	<circle cx="47.9911" cy="985.002" r="4" fill="#0" id="circle5"/>
	<circle cx="50.1907" cy="866.226" r="4" fill="#0" id="circle6"/>
	<circle cx="67.7871" cy="850.829" r="4" fill="#0" id="circle7"/>
	<circle cx="67.7871" cy="996" r="4" fill="#0" id="circle8"/>
	<circle cx="87.5831" cy="839.831" r="4" fill="#0" id="circle9"/>
	<circle cx="89.7827" cy="996" r="4" fill="#0" id="circle10"/>
	<circle cx="102.98" cy="813.437" r="4" fill="#0" id="circle11"/>
	<circle cx="105.18" cy="974.004" r="4" fill="#0" id="circle12"/>
	<circle cx="120.576" cy="795.84" r="4" fill="#0" id="circle13"/>
	<circle cx="122.776" cy="958.608" r="4" fill="#0" id="circle14"/>
	<circle cx="138.173" cy="778.244" r="4" fill="#0" id="circle15"/>
	<circle cx="144.772" cy="947.61" r="4" fill="#0" id="circle16"/>
	<circle cx="155.769" cy="762.847" r="4" fill="#0" id="circle17"/>
	<circle cx="160.169" cy="930.013" r="4" fill="#0" id="circle18"/>
	<circle cx="175.565" cy="751.849" r="4" fill="#0" id="circle19"/>
	<circle cx="179.965" cy="919.016" r="4" fill="#0" id="circle20"/>
	<circle cx="197.561" cy="740.851" r="4" fill="#0" id="circle21"/>
	<circle cx="197.561" cy="905.818" r="4" fill="#0" id="circle22"/>
	<circle cx="208.559" cy="718.856" r="4" fill="#0" id="circle23"/>
	<circle cx="208.559" cy="883.823" r="4" fill="#0" id="circle24"/>
	<circle cx="223.956" cy="692.461" r="4" fill="#0" id="circle25"/>
	<circle cx="226.155" cy="864.027" r="4" fill="#0" id="circle26"/>
	<circle cx="245.951" cy="670.466" r="4" fill="#0" id="circle27"/>
	<circle cx="245.951" cy="853.029" r="4" fill="#0" id="circle28"/>
	<circle cx="263.548" cy="652.869" r="4" fill="#0" id="circle29"/>
	<circle cx="263.548" cy="839.831" r="4" fill="#0" id="circle30"/>
	<circle cx="281.144" cy="820.035" r="4" fill="#0" id="circle31"/>
	<circle cx="285.543" cy="652.869" r="4" fill="#0" id="circle32"/>
	<circle cx="298.741" cy="804.639" r="4" fill="#0" id="circle33"/>
	<circle cx="300.94" cy="615.477" r="4" fill="#0" id="circle34"/>
	<circle cx="309.738" cy="782.643" r="4" fill="#0" id="circle35"/>
	<circle cx="322.936" cy="604.479" r="4" fill="#0" id="circle36"/>
	<circle cx="331.734" cy="771.645" r="4" fill="#0" id="circle37"/>
	<circle cx="340.532" cy="586.882" r="4" fill="#0" id="circle38"/>
	<circle cx="347.131" cy="754.049" r="4" fill="#0" id="circle39"/>
	<circle cx="351.53" cy="564.887" r="4" fill="#0" id="circle40"/>
	<circle cx="369.126" cy="743.051" r="4" fill="#0" id="circle41"/>
	<circle cx="371.326" cy="553.889" r="4" fill="#0" id="circle42"/>
	<circle cx="386.723" cy="727.654" r="4" fill="#0" id="circle43"/>
	<circle cx="393.322" cy="545.091" r="4" fill="#0" id="circle44"/>
	<circle cx="402.12" cy="699.06" r="4" fill="#0" id="circle45"/>
	<circle cx="404.319" cy="523.095" r="4" fill="#0" id="circle46"/>
	<circle cx="415.317" cy="501.1" r="4" fill="#0" id="circle47"/>
	<circle cx="424.115" cy="688.062" r="4" fill="#0" id="circle48"/>
	<circle cx="432.914" cy="483.503" r="4" fill="#0" id="circle49"/>
	<circle cx="441.712" cy="672.665" r="4" fill="#0" id="circle50"/>
	<circle cx="450.51" cy="465.907" r="4" fill="#0" id="circle51"/>
	<circle cx="457.109" cy="655.069" r="4" fill="#0" id="circle52"/>
	<circle cx="470.306" cy="454.909" r="4" fill="#0" id="circle53"/>
	<circle cx="479.104" cy="644.071" r="4" fill="#0" id="circle54"/>
	<circle cx="487.902" cy="428.514" r="4" fill="#0" id="circle55"/>
	<circle cx="490.102" cy="622.075" r="4" fill="#0" id="circle56"/>
	<circle cx="507.698" cy="606.678" r="4" fill="#0" id="circle57"/>
	<circle cx="509.898" cy="417.517" r="4" fill="#0" id="circle58"/>
	<circle cx="523.095" cy="589.082" r="4" fill="#0" id="circle59"/>
	<circle cx="527.494" cy="399.92" r="4" fill="#0" id="circle60"/>
	<circle cx="540.692" cy="573.685" r="4" fill="#0" id="circle61"/>
	<circle cx="545.091" cy="382.324" r="4" fill="#0" id="circle62"/>
	<circle cx="556.089" cy="556.089" r="4" fill="#0" id="circle63"/>
	<circle cx="562.687" cy="366.927" r="4" fill="#0" id="circle64"/>
	<circle cx="578.084" cy="545.091" r="4" fill="#0" id="circle65"/>
	<circle cx="582.483" cy="355.929" r="4" fill="#0" id="circle66"/>
	<circle cx="586.882" cy="87.5831" r="4" fill="#0" id="circle67"/>
	<circle cx="586.882" cy="109.579" r="4" fill="#0" id="circle68"/>
	<circle cx="589.082" cy="512.098" r="4" fill="#0" id="circle69"/>
	<circle cx="593.481" cy="333.933" r="4" fill="#0" id="circle70"/>
	<circle cx="600.08" cy="127.175" r="4" fill="#0" id="circle71"/>
	<circle cx="604.479" cy="69.9867" r="4" fill="#0" id="circle72"/>
	<circle cx="604.479" cy="311.938" r="4" fill="#0" id="circle73"/>
	<circle cx="606.678" cy="496.701" r="4" fill="#0" id="circle74"/>
	<circle cx="619.876" cy="138.173" r="4" fill="#0" id="circle75"/>
	<circle cx="622.075" cy="294.341" r="4" fill="#0" id="circle76"/>
	<circle cx="622.075" cy="468.106" r="4" fill="#0" id="circle77"/>
	<circle cx="624.275" cy="58.9889" r="4" fill="#0" id="circle78"/>
	<circle cx="633.073" cy="155.769" r="4" fill="#0" id="circle79"/>
	<circle cx="639.672" cy="278.945" r="4" fill="#0" id="circle80"/>
	<circle cx="641.871" cy="43.592" r="4" fill="#0" id="circle81"/>
	<circle cx="641.871" cy="457.109" r="4" fill="#0" id="circle82"/>
	<circle cx="655.069" cy="160.169" r="4" fill="#0" id="circle83"/>
	<circle cx="655.069" cy="261.348" r="4" fill="#0" id="circle84"/>
	<circle cx="655.069" cy="435.113" r="4" fill="#0" id="circle85"/>
	<circle cx="659.468" cy="25.9956" r="4" fill="#0" id="circle86"/>
	<circle cx="672.665" cy="245.951" r="4" fill="#0" id="circle87"/>
	<circle cx="672.665" cy="419.716" r="4" fill="#0" id="circle88"/>
	<circle cx="674.865" cy="171.166" r="4" fill="#0" id="circle89"/>
	<circle cx="681.463" cy="14.9978" r="4" fill="#0" id="circle90"/>
	<circle cx="685.863" cy="219.557" r="4" fill="#0" id="circle91"/>
	<circle cx="688.062" cy="188.763" r="4" fill="#0" id="circle92"/>
	<circle cx="688.062" cy="391.122" r="4" fill="#0" id="circle93"/>
	<circle cx="703.459" cy="4" r="4" fill="#0" id="circle94"/>
	<circle cx="705.659" cy="375.725" r="4" fill="#0" id="circle95"/>
	<circle cx="721.055" cy="358.129" r="4" fill="#0" id="circle96"/>
	<circle cx="725.455" cy="4" r="4" fill="#0" id="circle97"/>
	<circle cx="740.851" cy="21.5965" r="4" fill="#0" id="circle98"/>
	<circle cx="743.051" cy="347.131" r="4" fill="#0" id="circle99"/>
	<circle cx="758.448" cy="36.9933" r="4" fill="#0" id="circle100"/>
	<circle cx="760.647" cy="331.734" r="4" fill="#0" id="circle101"/>
	<circle cx="771.645" cy="309.738" r="4" fill="#0" id="circle102"/>
	<circle cx="778.244" cy="47.9911" r="4" fill="#0" id="circle103"/>
	<circle cx="787.042" cy="270.146" r="4" fill="#0" id="circle104"/>
	<circle cx="787.042" cy="292.142" r="4" fill="#0" id="circle105"/>
	<circle cx="795.84" cy="63.388" r="4" fill="#0" id="circle106"/>
	<circle cx="809.038" cy="80.9845" r="4" fill="#0" id="circle107"/>
	<circle cx="809.038" cy="274.545" r="4" fill="#0" id="circle108"/>
	<circle cx="824.435" cy="292.142" r="4" fill="#0" id="circle109"/>
	<circle cx="831.033" cy="87.5831" r="4" fill="#0" id="circle110"/>
	<circle cx="835.432" cy="311.938" r="4" fill="#0" id="circle111"/>
	<circle cx="848.63" cy="102.98" r="4" fill="#0" id="circle112"/>
	<circle cx="853.029" cy="325.135" r="4" fill="#0" id="circle113"/>
	<circle cx="868.426" cy="113.978" r="4" fill="#0" id="circle114"/>
	<circle cx="872.825" cy="336.133" r="4" fill="#0" id="circle115"/>
	<circle cx="883.823" cy="131.574" r="4" fill="#0" id="circle116"/>
	<circle cx="892.621" cy="347.131" r="4" fill="#0" id="circle117"/>
	<circle cx="894.82" cy="151.37" r="4" fill="#0" id="circle118"/>
	<circle cx="908.018" cy="168.967" r="4" fill="#0" id="circle119"/>
	<circle cx="912.417" cy="358.129" r="4" fill="#0" id="circle120"/>
	<circle cx="925.614" cy="182.164" r="4" fill="#0" id="circle121"/>
	<circle cx="932.213" cy="347.131" r="4" fill="#0" id="circle122"/>
	<circle cx="941.011" cy="199.761" r="4" fill="#0" id="circle123"/>
	<circle cx="949.809" cy="329.534" r="4" fill="#0" id="circle124"/>
	<circle cx="952.009" cy="219.557" r="4" fill="#0" id="circle125"/>
	<circle cx="963.007" cy="248.151" r="4" fill="#0" id="circle126"/>
	<circle cx="963.007" cy="303.14" r="4" fill="#0" id="circle127"/>
	<circle cx="974.004" cy="267.947" r="4" fill="#0" id="circle128"/>
	</g>
</svg>