<?xml version="1.0" encoding="UTF-8" standalone="no"?>
<!-- Created with CurveBenchmark -->
<svg
	xmlns:dc="http://purl.org/dc/elements/1.1/"
	xmlns:cc="http://creativecommons.org/ns#"
	xmlns:rdf="http://www.w3.org/1999/02/22-rdf-syntax-ns#"
	xmlns:svg="http://www.w3.org/2000/svg"
	xmlns="http://www.w3.org/2000/svg"
	xmlns:sodipodi="http://sodipodi.sourceforge.net/DTD/sodipodi-0.dtd"
	xmlns:inkscape="http://www.inkscape.org/namespaces/inkscape"
	width="1000"
	height="1000"
	id="svg2"
	version="1.1"
	sodipodi:docname="manifold/crust-guitar265.png.txt">
<defs
	id="defs4" />
<metadata
	id="metadata7">
	<rdf:RDF>
		<cc:Work
			rdf:about="">
			<dc:format>image/svg+xml</dc:format>
			<dc:type
				rdf:resource="http://purl.org/dc/dcmitype/StillImage" />
			<dc:title></dc:title>
		</cc:Work>
	</rdf:RDF>
</metadata>
<g
	inkscape:label="Layer 1"
	inkscape:groupmode="layer"
	id="layer1">
	<path style="fill:none;stroke:red;stroke-width:1px;stroke-linecap:butt;stroke-linejoin:miter;stroke-opacity:1" d="M 32.6498,39.8123 18.3249,82.787 z" id="boundary" inkscape:connector-curvature="0" />
	<path style="fill:none;stroke:red;stroke-width:1px;stroke-linecap:butt;stroke-linejoin:miter;stroke-opacity:1" d="M 18.3249,118.599 11.1625,161.574 z" id="boundary" inkscape:connector-curvature="0" />
	<path style="fill:none;stroke:red;stroke-width:1px;stroke-linecap:butt;stroke-linejoin:miter;stroke-opacity:1" d="M 11.1625,161.574 11.1625,197.386 z" id="boundary" inkscape:connector-curvature="0" />
	<path style="fill:none;stroke:red;stroke-width:1px;stroke-linecap:butt;stroke-linejoin:miter;stroke-opacity:1" d="M 11.1625,233.199 11.1625,197.386 z" id="boundary" inkscape:connector-curvature="0" />
	<path style="fill:none;stroke:red;stroke-width:1px;stroke-linecap:butt;stroke-linejoin:miter;stroke-opacity:1" d="M 18.3249,82.787 18.3249,118.599 z" id="boundary" inkscape:connector-curvature="0" />
	<path style="fill:none;stroke:red;stroke-width:1px;stroke-linecap:butt;stroke-linejoin:miter;stroke-opacity:1" d="M 11.1625,233.199 11.1625,269.011 z" id="boundary" inkscape:connector-curvature="0" />
	<path style="fill:none;stroke:red;stroke-width:1px;stroke-linecap:butt;stroke-linejoin:miter;stroke-opacity:1" d="M 11.1625,304.823 11.1625,269.011 z" id="boundary" inkscape:connector-curvature="0" />
	<path style="fill:none;stroke:red;stroke-width:1px;stroke-linecap:butt;stroke-linejoin:miter;stroke-opacity:1" d="M 11.1625,340.635 11.1625,376.448 z" id="boundary" inkscape:connector-curvature="0" />
	<path style="fill:none;stroke:red;stroke-width:1px;stroke-linecap:butt;stroke-linejoin:miter;stroke-opacity:1" d="M 11.1625,340.635 11.1625,304.823 z" id="boundary" inkscape:connector-curvature="0" />
	<path style="fill:none;stroke:red;stroke-width:1px;stroke-linecap:butt;stroke-linejoin:miter;stroke-opacity:1" d="M 61.2996,61.2996 50.556,100.693 z" id="boundary" inkscape:connector-curvature="0" />
	<path style="fill:none;stroke:red;stroke-width:1px;stroke-linecap:butt;stroke-linejoin:miter;stroke-opacity:1" d="M 43.3935,286.917 43.3935,251.105 z" id="boundary" inkscape:connector-curvature="0" />
	<path style="fill:none;stroke:red;stroke-width:1px;stroke-linecap:butt;stroke-linejoin:miter;stroke-opacity:1" d="M 32.6498,39.8123 46.9747,4 z" id="boundary" inkscape:connector-curvature="0" />
	<path style="fill:none;stroke:red;stroke-width:1px;stroke-linecap:butt;stroke-linejoin:miter;stroke-opacity:1" d="M 43.3935,322.729 43.3935,286.917 z" id="boundary" inkscape:connector-curvature="0" />
	<path style="fill:none;stroke:red;stroke-width:1px;stroke-linecap:butt;stroke-linejoin:miter;stroke-opacity:1" d="M 43.3935,322.729 43.3935,358.542 z" id="boundary" inkscape:connector-curvature="0" />
	<path style="fill:none;stroke:red;stroke-width:1px;stroke-linecap:butt;stroke-linejoin:miter;stroke-opacity:1" d="M 43.3935,358.542 43.3935,394.354 z" id="boundary" inkscape:connector-curvature="0" />
	<path style="fill:none;stroke:red;stroke-width:1px;stroke-linecap:butt;stroke-linejoin:miter;stroke-opacity:1" d="M 50.556,100.693 18.3249,118.599 z" id="boundary" inkscape:connector-curvature="0" />
	<path style="fill:none;stroke:red;stroke-width:1px;stroke-linecap:butt;stroke-linejoin:miter;stroke-opacity:1" d="M 11.1625,448.072 11.1625,412.26 z" id="boundary" inkscape:connector-curvature="0" />
	<path style="fill:none;stroke:red;stroke-width:1px;stroke-linecap:butt;stroke-linejoin:miter;stroke-opacity:1" d="M 11.1625,376.448 11.1625,412.26 z" id="boundary" inkscape:connector-curvature="0" />
	<path style="fill:none;stroke:red;stroke-width:1px;stroke-linecap:butt;stroke-linejoin:miter;stroke-opacity:1" d="M 4,748.895 4,784.708 z" id="boundary" inkscape:connector-curvature="0" />
	<path style="fill:none;stroke:red;stroke-width:1px;stroke-linecap:butt;stroke-linejoin:miter;stroke-opacity:1" d="M 4,820.52 4,856.332 z" id="boundary" inkscape:connector-curvature="0" />
	<path style="fill:none;stroke:red;stroke-width:1px;stroke-linecap:butt;stroke-linejoin:miter;stroke-opacity:1" d="M 4,892.144 4,856.332 z" id="boundary" inkscape:connector-curvature="0" />
	<path style="fill:none;stroke:red;stroke-width:1px;stroke-linecap:butt;stroke-linejoin:miter;stroke-opacity:1" d="M 11.1625,927.957 4,892.144 z" id="boundary" inkscape:connector-curvature="0" />
	<path style="fill:none;stroke:red;stroke-width:1px;stroke-linecap:butt;stroke-linejoin:miter;stroke-opacity:1" d="M 4,784.708 4,820.52 z" id="boundary" inkscape:connector-curvature="0" />
	<path style="fill:none;stroke:red;stroke-width:1px;stroke-linecap:butt;stroke-linejoin:miter;stroke-opacity:1" d="M 11.1625,698.758 4,748.895 z" id="boundary" inkscape:connector-curvature="0" />
	<path style="fill:none;stroke:red;stroke-width:1px;stroke-linecap:butt;stroke-linejoin:miter;stroke-opacity:1" d="M 11.1625,448.072 11.1625,483.884 z" id="boundary" inkscape:connector-curvature="0" />
	<path style="fill:none;stroke:red;stroke-width:1px;stroke-linecap:butt;stroke-linejoin:miter;stroke-opacity:1" d="M 43.3935,430.166 61.2996,462.397 z" id="boundary" inkscape:connector-curvature="0" />
	<path style="fill:none;stroke:red;stroke-width:1px;stroke-linecap:butt;stroke-linejoin:miter;stroke-opacity:1" d="M 43.3935,430.166 43.3935,394.354 z" id="boundary" inkscape:connector-curvature="0" />
	<path style="fill:none;stroke:red;stroke-width:1px;stroke-linecap:butt;stroke-linejoin:miter;stroke-opacity:1" d="M 11.1625,519.697 11.1625,483.884 z" id="boundary" inkscape:connector-curvature="0" />
	<path style="fill:none;stroke:red;stroke-width:1px;stroke-linecap:butt;stroke-linejoin:miter;stroke-opacity:1" d="M 11.1625,519.697 11.1625,555.509 z" id="boundary" inkscape:connector-curvature="0" />
	<path style="fill:none;stroke:red;stroke-width:1px;stroke-linecap:butt;stroke-linejoin:miter;stroke-opacity:1" d="M 11.1625,591.321 11.1625,627.134 z" id="boundary" inkscape:connector-curvature="0" />
	<path style="fill:none;stroke:red;stroke-width:1px;stroke-linecap:butt;stroke-linejoin:miter;stroke-opacity:1" d="M 11.1625,591.321 11.1625,555.509 z" id="boundary" inkscape:connector-curvature="0" />
	<path style="fill:none;stroke:red;stroke-width:1px;stroke-linecap:butt;stroke-linejoin:miter;stroke-opacity:1" d="M 11.1625,662.946 11.1625,698.758 z" id="boundary" inkscape:connector-curvature="0" />
	<path style="fill:none;stroke:red;stroke-width:1px;stroke-linecap:butt;stroke-linejoin:miter;stroke-opacity:1" d="M 39.8123,988.838 11.1625,963.769 z" id="boundary" inkscape:connector-curvature="0" />
	<path style="fill:none;stroke:red;stroke-width:1px;stroke-linecap:butt;stroke-linejoin:miter;stroke-opacity:1" d="M 11.1625,963.769 11.1625,927.957 z" id="boundary" inkscape:connector-curvature="0" />
	<path style="fill:none;stroke:red;stroke-width:1px;stroke-linecap:butt;stroke-linejoin:miter;stroke-opacity:1" d="M 11.1625,662.946 11.1625,627.134 z" id="boundary" inkscape:connector-curvature="0" />
	<path style="fill:none;stroke:red;stroke-width:1px;stroke-linecap:butt;stroke-linejoin:miter;stroke-opacity:1" d="M 39.8123,988.838 75.6245,996 z" id="boundary" inkscape:connector-curvature="0" />
	<path style="fill:none;stroke:red;stroke-width:1px;stroke-linecap:butt;stroke-linejoin:miter;stroke-opacity:1" d="M 75.6245,25.4874 61.2996,61.2996 z" id="boundary" inkscape:connector-curvature="0" />
	<path style="fill:none;stroke:red;stroke-width:1px;stroke-linecap:butt;stroke-linejoin:miter;stroke-opacity:1" d="M 97.1119,469.56 61.2996,462.397 z" id="boundary" inkscape:connector-curvature="0" />
	<path style="fill:none;stroke:red;stroke-width:1px;stroke-linecap:butt;stroke-linejoin:miter;stroke-opacity:1" d="M 46.9747,4 75.6245,25.4874 z" id="boundary" inkscape:connector-curvature="0" />
	<path style="fill:none;stroke:red;stroke-width:1px;stroke-linecap:butt;stroke-linejoin:miter;stroke-opacity:1" d="M 97.1119,469.56 129.343,487.466 z" id="boundary" inkscape:connector-curvature="0" />
	<path style="fill:none;stroke:red;stroke-width:1px;stroke-linecap:butt;stroke-linejoin:miter;stroke-opacity:1" d="M 129.343,487.466 136.505,523.278 z" id="boundary" inkscape:connector-curvature="0" />
	<path style="fill:none;stroke:red;stroke-width:1px;stroke-linecap:butt;stroke-linejoin:miter;stroke-opacity:1" d="M 136.505,523.278 136.505,559.09 z" id="boundary" inkscape:connector-curvature="0" />
	<path style="fill:none;stroke:red;stroke-width:1px;stroke-linecap:butt;stroke-linejoin:miter;stroke-opacity:1" d="M 136.505,559.09 136.505,594.903 z" id="boundary" inkscape:connector-curvature="0" />
	<path style="fill:none;stroke:red;stroke-width:1px;stroke-linecap:butt;stroke-linejoin:miter;stroke-opacity:1" d="M 136.505,594.903 136.505,630.715 z" id="boundary" inkscape:connector-curvature="0" />
	<path style="fill:none;stroke:red;stroke-width:1px;stroke-linecap:butt;stroke-linejoin:miter;stroke-opacity:1" d="M 136.505,666.527 136.505,702.339 z" id="boundary" inkscape:connector-curvature="0" />
	<path style="fill:none;stroke:red;stroke-width:1px;stroke-linecap:butt;stroke-linejoin:miter;stroke-opacity:1" d="M 136.505,666.527 136.505,630.715 z" id="boundary" inkscape:connector-curvature="0" />
	<path style="fill:none;stroke:red;stroke-width:1px;stroke-linecap:butt;stroke-linejoin:miter;stroke-opacity:1" d="M 136.505,738.152 143.668,773.964 z" id="boundary" inkscape:connector-curvature="0" />
	<path style="fill:none;stroke:red;stroke-width:1px;stroke-linecap:butt;stroke-linejoin:miter;stroke-opacity:1" d="M 136.505,738.152 136.505,702.339 z" id="boundary" inkscape:connector-curvature="0" />
	<path style="fill:none;stroke:red;stroke-width:1px;stroke-linecap:butt;stroke-linejoin:miter;stroke-opacity:1" d="M 143.668,809.776 143.668,773.964 z" id="boundary" inkscape:connector-curvature="0" />
	<path style="fill:none;stroke:red;stroke-width:1px;stroke-linecap:butt;stroke-linejoin:miter;stroke-opacity:1" d="M 136.505,949.444 111.437,988.838 z" id="boundary" inkscape:connector-curvature="0" />
	<path style="fill:none;stroke:red;stroke-width:1px;stroke-linecap:butt;stroke-linejoin:miter;stroke-opacity:1" d="M 75.6245,996 111.437,988.838 z" id="boundary" inkscape:connector-curvature="0" />
	<path style="fill:none;stroke:red;stroke-width:1px;stroke-linecap:butt;stroke-linejoin:miter;stroke-opacity:1" d="M 143.668,845.588 136.505,913.632 z" id="boundary" inkscape:connector-curvature="0" />
	<path style="fill:none;stroke:red;stroke-width:1px;stroke-linecap:butt;stroke-linejoin:miter;stroke-opacity:1" d="M 143.668,845.588 143.668,809.776 z" id="boundary" inkscape:connector-curvature="0" />
	<path style="fill:none;stroke:red;stroke-width:1px;stroke-linecap:butt;stroke-linejoin:miter;stroke-opacity:1" d="M 136.505,949.444 136.505,913.632 z" id="boundary" inkscape:connector-curvature="0" />
	<circle cx="4" cy="748.895" r="4" fill="#0" id="circle0"/>
	<circle cx="4" cy="784.708" r="4" fill="#0" id="circle1"/>
	<circle cx="4" cy="820.52" r="4" fill="#0" id="circle2"/>
	<circle cx="4" cy="856.332" r="4" fill="#0" id="circle3"/>
	<circle cx="4" cy="892.144" r="4" fill="#0" id="circle4"/>
	<circle cx="11.1625" cy="161.574" r="4" fill="#0" id="circle5"/>
	<circle cx="11.1625" cy="197.386" r="4" fill="#0" id="circle6"/>
	<circle cx="11.1625" cy="233.199" r="4" fill="#0" id="circle7"/>
	<circle cx="11.1625" cy="269.011" r="4" fill="#0" id="circle8"/>
	<circle cx="11.1625" cy="304.823" r="4" fill="#0" id="circle9"/>
	<circle cx="11.1625" cy="340.635" r="4" fill="#0" id="circle10"/>
	<circle cx="11.1625" cy="376.448" r="4" fill="#0" id="circle11"/>
	<circle cx="11.1625" cy="412.26" r="4" fill="#0" id="circle12"/>
	<circle cx="11.1625" cy="448.072" r="4" fill="#0" id="circle13"/>
	<circle cx="11.1625" cy="483.884" r="4" fill="#0" id="circle14"/>
	<circle cx="11.1625" cy="519.697" r="4" fill="#0" id="circle15"/>
	<circle cx="11.1625" cy="555.509" r="4" fill="#0" id="circle16"/>
	<circle cx="11.1625" cy="591.321" r="4" fill="#0" id="circle17"/>
	<circle cx="11.1625" cy="627.134" r="4" fill="#0" id="circle18"/>
	<circle cx="11.1625" cy="662.946" r="4" fill="#0" id="circle19"/>
	<circle cx="11.1625" cy="698.758" r="4" fill="#0" id="circle20"/>
	<circle cx="11.1625" cy="927.957" r="4" fill="#0" id="circle21"/>
	<circle cx="11.1625" cy="963.769" r="4" fill="#0" id="circle22"/>
	<circle cx="18.3249" cy="82.787" r="4" fill="#0" id="circle23"/>
	<circle cx="18.3249" cy="118.599" r="4" fill="#0" id="circle24"/>
	<circle cx="32.6498" cy="39.8123" r="4" fill="#0" id="circle25"/>
	<circle cx="39.8123" cy="988.838" r="4" fill="#0" id="circle26"/>
	<circle cx="43.3935" cy="251.105" r="4" fill="#0" id="circle27"/>
	<circle cx="43.3935" cy="286.917" r="4" fill="#0" id="circle28"/>
	<circle cx="43.3935" cy="322.729" r="4" fill="#0" id="circle29"/>
	<circle cx="43.3935" cy="358.542" r="4" fill="#0" id="circle30"/>
	<circle cx="43.3935" cy="394.354" r="4" fill="#0" id="circle31"/>
	<circle cx="43.3935" cy="430.166" r="4" fill="#0" id="circle32"/>
	<circle cx="46.9747" cy="4" r="4" fill="#0" id="circle33"/>
	<circle cx="50.556" cy="100.693" r="4" fill="#0" id="circle34"/>
	<circle cx="61.2996" cy="61.2996" r="4" fill="#0" id="circle35"/>
	<circle cx="61.2996" cy="462.397" r="4" fill="#0" id="circle36"/>
	<circle cx="75.6245" cy="25.4874" r="4" fill="#0" id="circle37"/>
	<circle cx="75.6245" cy="996" r="4" fill="#0" id="circle38"/>
	<circle cx="97.1119" cy="469.56" r="4" fill="#0" id="circle39"/>
	<circle cx="111.437" cy="988.838" r="4" fill="#0" id="circle40"/>
	<circle cx="129.343" cy="487.466" r="4" fill="#0" id="circle41"/>
	<circle cx="136.505" cy="523.278" r="4" fill="#0" id="circle42"/>
	<circle cx="136.505" cy="559.09" r="4" fill="#0" id="circle43"/>
	<circle cx="136.505" cy="594.903" r="4" fill="#0" id="circle44"/>
	<circle cx="136.505" cy="630.715" r="4" fill="#0" id="circle45"/>
	<circle cx="136.505" cy="666.527" r="4" fill="#0" id="circle46"/>
	<circle cx="136.505" cy="702.339" r="4" fill="#0" id="circle47"/>
	<circle cx="136.505" cy="738.152" r="4" fill="#0" id="circle48"/>
	<circle cx="136.505" cy="913.632" r="4" fill="#0" id="circle49"/>
	<circle cx="136.505" cy="949.444" r="4" fill="#0" id="circle50"/>
	<circle cx="143.668" cy="773.964" r="4" fill="#0" id="circle51"/>
	<circle cx="143.668" cy="809.776" r="4" fill="#0" id="circle52"/>
	<circle cx="143.668" cy="845.588" r="4" fill="#0" id="circle53"/>
	</g>
</svg>