<?xml version="1.0" encoding="UTF-8" standalone="no"?>
<!-- Created with CurveBenchmark -->
<svg
	xmlns:dc="http://purl.org/dc/elements/1.1/"
	xmlns:cc="http://creativecommons.org/ns#"
	xmlns:rdf="http://www.w3.org/1999/02/22-rdf-syntax-ns#"
	xmlns:svg="http://www.w3.org/2000/svg"
	xmlns="http://www.w3.org/2000/svg"
	xmlns:sodipodi="http://sodipodi.sourceforge.net/DTD/sodipodi-0.dtd"
	xmlns:inkscape="http://www.inkscape.org/namespaces/inkscape"
	width="1000"
	height="1000"
	id="svg2"
	version="1.1"
	sodipodi:docname="manifold/crust-brick18.png.txt">
<defs
	id="defs4" />
<metadata
	id="metadata7">
	<rdf:RDF>
		<cc:Work
			rdf:about="">
			<dc:format>image/svg+xml</dc:format>
			<dc:type
				rdf:resource="http://purl.org/dc/dcmitype/StillImage" />
			<dc:title></dc:title>
		</cc:Work>
	</rdf:RDF>
</metadata>
<g
	inkscape:label="Layer 1"
	inkscape:groupmode="layer"
	id="layer1">
	<path style="fill:none;stroke:red;stroke-width:1px;stroke-linecap:butt;stroke-linejoin:miter;stroke-opacity:1" d="M 116.09,13.3409 97.4087,18.9454 z" id="boundary" inkscape:connector-curvature="0" />
	<path style="fill:none;stroke:red;stroke-width:1px;stroke-linecap:butt;stroke-linejoin:miter;stroke-opacity:1" d="M 132.904,4 116.09,13.3409 z" id="boundary" inkscape:connector-curvature="0" />
	<path style="fill:none;stroke:red;stroke-width:1px;stroke-linecap:butt;stroke-linejoin:miter;stroke-opacity:1" d="M 97.4087,18.9454 88.0678,37.6271 z" id="boundary" inkscape:connector-curvature="0" />
	<path style="fill:none;stroke:red;stroke-width:1px;stroke-linecap:butt;stroke-linejoin:miter;stroke-opacity:1" d="M 97.4087,73.1224 88.0678,56.3089 z" id="boundary" inkscape:connector-curvature="0" />
	<path style="fill:none;stroke:red;stroke-width:1px;stroke-linecap:butt;stroke-linejoin:miter;stroke-opacity:1" d="M 88.0678,56.3089 88.0678,37.6271 z" id="boundary" inkscape:connector-curvature="0" />
	<path style="fill:none;stroke:red;stroke-width:1px;stroke-linecap:butt;stroke-linejoin:miter;stroke-opacity:1" d="M 132.904,4 151.586,4 z" id="boundary" inkscape:connector-curvature="0" />
	<path style="fill:none;stroke:red;stroke-width:1px;stroke-linecap:butt;stroke-linejoin:miter;stroke-opacity:1" d="M 170.267,4 188.949,4 z" id="boundary" inkscape:connector-curvature="0" />
	<path style="fill:none;stroke:red;stroke-width:1px;stroke-linecap:butt;stroke-linejoin:miter;stroke-opacity:1" d="M 207.631,4 188.949,4 z" id="boundary" inkscape:connector-curvature="0" />
	<path style="fill:none;stroke:red;stroke-width:1px;stroke-linecap:butt;stroke-linejoin:miter;stroke-opacity:1" d="M 170.267,4 151.586,4 z" id="boundary" inkscape:connector-curvature="0" />
	<path style="fill:none;stroke:red;stroke-width:1px;stroke-linecap:butt;stroke-linejoin:miter;stroke-opacity:1" d="M 97.4087,91.8041 97.4087,73.1224 z" id="boundary" inkscape:connector-curvature="0" />
	<path style="fill:none;stroke:red;stroke-width:1px;stroke-linecap:butt;stroke-linejoin:miter;stroke-opacity:1" d="M 207.631,4 226.313,4 z" id="boundary" inkscape:connector-curvature="0" />
	<path style="fill:none;stroke:red;stroke-width:1px;stroke-linecap:butt;stroke-linejoin:miter;stroke-opacity:1" d="M 4,187.081 18.9454,172.136 z" id="boundary" inkscape:connector-curvature="0" />
	<path style="fill:none;stroke:red;stroke-width:1px;stroke-linecap:butt;stroke-linejoin:miter;stroke-opacity:1" d="M 37.6271,162.795 18.9454,172.136 z" id="boundary" inkscape:connector-curvature="0" />
	<path style="fill:none;stroke:red;stroke-width:1px;stroke-linecap:butt;stroke-linejoin:miter;stroke-opacity:1" d="M 71.2542,138.508 52.5725,147.849 z" id="boundary" inkscape:connector-curvature="0" />
	<path style="fill:none;stroke:red;stroke-width:1px;stroke-linecap:butt;stroke-linejoin:miter;stroke-opacity:1" d="M 52.5725,147.849 37.6271,162.795 z" id="boundary" inkscape:connector-curvature="0" />
	<path style="fill:none;stroke:red;stroke-width:1px;stroke-linecap:butt;stroke-linejoin:miter;stroke-opacity:1" d="M 89.936,129.168 71.2542,138.508 z" id="boundary" inkscape:connector-curvature="0" />
	<path style="fill:none;stroke:red;stroke-width:1px;stroke-linecap:butt;stroke-linejoin:miter;stroke-opacity:1" d="M 97.4087,110.486 97.4087,91.8041 z" id="boundary" inkscape:connector-curvature="0" />
	<path style="fill:none;stroke:red;stroke-width:1px;stroke-linecap:butt;stroke-linejoin:miter;stroke-opacity:1" d="M 89.936,129.168 97.4087,110.486 z" id="boundary" inkscape:connector-curvature="0" />
	<path style="fill:none;stroke:red;stroke-width:1px;stroke-linecap:butt;stroke-linejoin:miter;stroke-opacity:1" d="M 243.126,13.3409 259.94,22.6817 z" id="boundary" inkscape:connector-curvature="0" />
	<path style="fill:none;stroke:red;stroke-width:1px;stroke-linecap:butt;stroke-linejoin:miter;stroke-opacity:1" d="M 243.126,13.3409 226.313,4 z" id="boundary" inkscape:connector-curvature="0" />
	<path style="fill:none;stroke:red;stroke-width:1px;stroke-linecap:butt;stroke-linejoin:miter;stroke-opacity:1" d="M 259.94,22.6817 276.753,32.0226 z" id="boundary" inkscape:connector-curvature="0" />
	<path style="fill:none;stroke:red;stroke-width:1px;stroke-linecap:butt;stroke-linejoin:miter;stroke-opacity:1" d="M 276.753,32.0226 295.435,32.0226 z" id="boundary" inkscape:connector-curvature="0" />
	<path style="fill:none;stroke:red;stroke-width:1px;stroke-linecap:butt;stroke-linejoin:miter;stroke-opacity:1" d="M 295.435,32.0226 314.117,37.6271 z" id="boundary" inkscape:connector-curvature="0" />
	<path style="fill:none;stroke:red;stroke-width:1px;stroke-linecap:butt;stroke-linejoin:miter;stroke-opacity:1" d="M 330.93,46.968 314.117,37.6271 z" id="boundary" inkscape:connector-curvature="0" />
	<path style="fill:none;stroke:red;stroke-width:1px;stroke-linecap:butt;stroke-linejoin:miter;stroke-opacity:1" d="M 349.612,50.7043 330.93,46.968 z" id="boundary" inkscape:connector-curvature="0" />
	<path style="fill:none;stroke:red;stroke-width:1px;stroke-linecap:butt;stroke-linejoin:miter;stroke-opacity:1" d="M 368.294,50.7043 349.612,50.7043 z" id="boundary" inkscape:connector-curvature="0" />
	<path style="fill:none;stroke:red;stroke-width:1px;stroke-linecap:butt;stroke-linejoin:miter;stroke-opacity:1" d="M 386.976,50.7043 405.657,50.7043 z" id="boundary" inkscape:connector-curvature="0" />
	<path style="fill:none;stroke:red;stroke-width:1px;stroke-linecap:butt;stroke-linejoin:miter;stroke-opacity:1" d="M 424.339,50.7043 405.657,50.7043 z" id="boundary" inkscape:connector-curvature="0" />
	<path style="fill:none;stroke:red;stroke-width:1px;stroke-linecap:butt;stroke-linejoin:miter;stroke-opacity:1" d="M 461.702,50.7043 443.021,50.7043 z" id="boundary" inkscape:connector-curvature="0" />
	<path style="fill:none;stroke:red;stroke-width:1px;stroke-linecap:butt;stroke-linejoin:miter;stroke-opacity:1" d="M 443.021,50.7043 424.339,50.7043 z" id="boundary" inkscape:connector-curvature="0" />
	<path style="fill:none;stroke:red;stroke-width:1px;stroke-linecap:butt;stroke-linejoin:miter;stroke-opacity:1" d="M 497.198,41.3635 478.516,41.3635 z" id="boundary" inkscape:connector-curvature="0" />
	<path style="fill:none;stroke:red;stroke-width:1px;stroke-linecap:butt;stroke-linejoin:miter;stroke-opacity:1" d="M 386.976,50.7043 368.294,50.7043 z" id="boundary" inkscape:connector-curvature="0" />
	<path style="fill:none;stroke:red;stroke-width:1px;stroke-linecap:butt;stroke-linejoin:miter;stroke-opacity:1" d="M 461.702,50.7043 478.516,41.3635 z" id="boundary" inkscape:connector-curvature="0" />
	<path style="fill:none;stroke:red;stroke-width:1px;stroke-linecap:butt;stroke-linejoin:miter;stroke-opacity:1" d="M 497.198,41.3635 515.879,41.3635 z" id="boundary" inkscape:connector-curvature="0" />
	<path style="fill:none;stroke:red;stroke-width:1px;stroke-linecap:butt;stroke-linejoin:miter;stroke-opacity:1" d="M 4,205.763 13.3409,222.576 z" id="boundary" inkscape:connector-curvature="0" />
	<path style="fill:none;stroke:red;stroke-width:1px;stroke-linecap:butt;stroke-linejoin:miter;stroke-opacity:1" d="M 22.6817,239.39 13.3409,222.576 z" id="boundary" inkscape:connector-curvature="0" />
	<path style="fill:none;stroke:red;stroke-width:1px;stroke-linecap:butt;stroke-linejoin:miter;stroke-opacity:1" d="M 4,205.763 4,187.081 z" id="boundary" inkscape:connector-curvature="0" />
	<path style="fill:none;stroke:red;stroke-width:1px;stroke-linecap:butt;stroke-linejoin:miter;stroke-opacity:1" d="M 22.6817,239.39 22.6817,258.072 z" id="boundary" inkscape:connector-curvature="0" />
	<path style="fill:none;stroke:red;stroke-width:1px;stroke-linecap:butt;stroke-linejoin:miter;stroke-opacity:1" d="M 22.6817,258.072 28.2863,276.753 z" id="boundary" inkscape:connector-curvature="0" />
	<path style="fill:none;stroke:red;stroke-width:1px;stroke-linecap:butt;stroke-linejoin:miter;stroke-opacity:1" d="M 28.2863,276.753 43.2316,289.831 z" id="boundary" inkscape:connector-curvature="0" />
	<path style="fill:none;stroke:red;stroke-width:1px;stroke-linecap:butt;stroke-linejoin:miter;stroke-opacity:1" d="M 80.5951,286.094 99.2768,286.094 z" id="boundary" inkscape:connector-curvature="0" />
	<path style="fill:none;stroke:red;stroke-width:1px;stroke-linecap:butt;stroke-linejoin:miter;stroke-opacity:1" d="M 80.5951,286.094 61.9134,295.435 z" id="boundary" inkscape:connector-curvature="0" />
	<path style="fill:none;stroke:red;stroke-width:1px;stroke-linecap:butt;stroke-linejoin:miter;stroke-opacity:1" d="M 117.959,286.094 99.2768,286.094 z" id="boundary" inkscape:connector-curvature="0" />
	<path style="fill:none;stroke:red;stroke-width:1px;stroke-linecap:butt;stroke-linejoin:miter;stroke-opacity:1" d="M 43.2316,289.831 61.9134,295.435 z" id="boundary" inkscape:connector-curvature="0" />
	<path style="fill:none;stroke:red;stroke-width:1px;stroke-linecap:butt;stroke-linejoin:miter;stroke-opacity:1" d="M 136.64,286.094 117.959,286.094 z" id="boundary" inkscape:connector-curvature="0" />
	<path style="fill:none;stroke:red;stroke-width:1px;stroke-linecap:butt;stroke-linejoin:miter;stroke-opacity:1" d="M 136.64,286.094 155.322,276.753 z" id="boundary" inkscape:connector-curvature="0" />
	<path style="fill:none;stroke:red;stroke-width:1px;stroke-linecap:butt;stroke-linejoin:miter;stroke-opacity:1" d="M 174.004,276.753 190.817,286.094 z" id="boundary" inkscape:connector-curvature="0" />
	<path style="fill:none;stroke:red;stroke-width:1px;stroke-linecap:butt;stroke-linejoin:miter;stroke-opacity:1" d="M 155.322,276.753 174.004,276.753 z" id="boundary" inkscape:connector-curvature="0" />
	<path style="fill:none;stroke:red;stroke-width:1px;stroke-linecap:butt;stroke-linejoin:miter;stroke-opacity:1" d="M 209.499,286.094 190.817,286.094 z" id="boundary" inkscape:connector-curvature="0" />
	<path style="fill:none;stroke:red;stroke-width:1px;stroke-linecap:butt;stroke-linejoin:miter;stroke-opacity:1" d="M 209.499,286.094 228.181,286.094 z" id="boundary" inkscape:connector-curvature="0" />
	<path style="fill:none;stroke:red;stroke-width:1px;stroke-linecap:butt;stroke-linejoin:miter;stroke-opacity:1" d="M 228.181,286.094 246.863,286.094 z" id="boundary" inkscape:connector-curvature="0" />
	<path style="fill:none;stroke:red;stroke-width:1px;stroke-linecap:butt;stroke-linejoin:miter;stroke-opacity:1" d="M 258.072,301.04 246.863,286.094 z" id="boundary" inkscape:connector-curvature="0" />
	<path style="fill:none;stroke:red;stroke-width:1px;stroke-linecap:butt;stroke-linejoin:miter;stroke-opacity:1" d="M 273.017,314.117 258.072,301.04 z" id="boundary" inkscape:connector-curvature="0" />
	<path style="fill:none;stroke:red;stroke-width:1px;stroke-linecap:butt;stroke-linejoin:miter;stroke-opacity:1" d="M 273.017,314.117 289.831,323.458 z" id="boundary" inkscape:connector-curvature="0" />
	<path style="fill:none;stroke:red;stroke-width:1px;stroke-linecap:butt;stroke-linejoin:miter;stroke-opacity:1" d="M 308.512,330.93 289.831,323.458 z" id="boundary" inkscape:connector-curvature="0" />
	<path style="fill:none;stroke:red;stroke-width:1px;stroke-linecap:butt;stroke-linejoin:miter;stroke-opacity:1" d="M 327.194,332.798 308.512,330.93 z" id="boundary" inkscape:connector-curvature="0" />
	<path style="fill:none;stroke:red;stroke-width:1px;stroke-linecap:butt;stroke-linejoin:miter;stroke-opacity:1" d="M 345.876,332.798 327.194,332.798 z" id="boundary" inkscape:connector-curvature="0" />
	<path style="fill:none;stroke:red;stroke-width:1px;stroke-linecap:butt;stroke-linejoin:miter;stroke-opacity:1" d="M 345.876,332.798 364.557,332.798 z" id="boundary" inkscape:connector-curvature="0" />
	<path style="fill:none;stroke:red;stroke-width:1px;stroke-linecap:butt;stroke-linejoin:miter;stroke-opacity:1" d="M 401.921,330.93 420.603,323.458 z" id="boundary" inkscape:connector-curvature="0" />
	<path style="fill:none;stroke:red;stroke-width:1px;stroke-linecap:butt;stroke-linejoin:miter;stroke-opacity:1" d="M 401.921,330.93 383.239,332.798 z" id="boundary" inkscape:connector-curvature="0" />
	<path style="fill:none;stroke:red;stroke-width:1px;stroke-linecap:butt;stroke-linejoin:miter;stroke-opacity:1" d="M 439.284,323.458 420.603,323.458 z" id="boundary" inkscape:connector-curvature="0" />
	<path style="fill:none;stroke:red;stroke-width:1px;stroke-linecap:butt;stroke-linejoin:miter;stroke-opacity:1" d="M 476.648,323.458 457.966,323.458 z" id="boundary" inkscape:connector-curvature="0" />
	<path style="fill:none;stroke:red;stroke-width:1px;stroke-linecap:butt;stroke-linejoin:miter;stroke-opacity:1" d="M 457.966,323.458 439.284,323.458 z" id="boundary" inkscape:connector-curvature="0" />
	<path style="fill:none;stroke:red;stroke-width:1px;stroke-linecap:butt;stroke-linejoin:miter;stroke-opacity:1" d="M 364.557,332.798 383.239,332.798 z" id="boundary" inkscape:connector-curvature="0" />
	<path style="fill:none;stroke:red;stroke-width:1px;stroke-linecap:butt;stroke-linejoin:miter;stroke-opacity:1" d="M 476.648,323.458 495.33,321.589 z" id="boundary" inkscape:connector-curvature="0" />
	<path style="fill:none;stroke:red;stroke-width:1px;stroke-linecap:butt;stroke-linejoin:miter;stroke-opacity:1" d="M 644.783,22.6817 626.102,22.6817 z" id="boundary" inkscape:connector-curvature="0" />
	<path style="fill:none;stroke:red;stroke-width:1px;stroke-linecap:butt;stroke-linejoin:miter;stroke-opacity:1" d="M 626.102,22.6817 607.42,32.0226 z" id="boundary" inkscape:connector-curvature="0" />
	<path style="fill:none;stroke:red;stroke-width:1px;stroke-linecap:butt;stroke-linejoin:miter;stroke-opacity:1" d="M 534.561,41.3635 515.879,41.3635 z" id="boundary" inkscape:connector-curvature="0" />
	<path style="fill:none;stroke:red;stroke-width:1px;stroke-linecap:butt;stroke-linejoin:miter;stroke-opacity:1" d="M 551.375,32.0226 534.561,41.3635 z" id="boundary" inkscape:connector-curvature="0" />
	<path style="fill:none;stroke:red;stroke-width:1px;stroke-linecap:butt;stroke-linejoin:miter;stroke-opacity:1" d="M 551.375,32.0226 570.056,32.0226 z" id="boundary" inkscape:connector-curvature="0" />
	<path style="fill:none;stroke:red;stroke-width:1px;stroke-linecap:butt;stroke-linejoin:miter;stroke-opacity:1" d="M 588.738,32.0226 570.056,32.0226 z" id="boundary" inkscape:connector-curvature="0" />
	<path style="fill:none;stroke:red;stroke-width:1px;stroke-linecap:butt;stroke-linejoin:miter;stroke-opacity:1" d="M 607.42,32.0226 588.738,32.0226 z" id="boundary" inkscape:connector-curvature="0" />
	<path style="fill:none;stroke:red;stroke-width:1px;stroke-linecap:butt;stroke-linejoin:miter;stroke-opacity:1" d="M 663.465,22.6817 644.783,22.6817 z" id="boundary" inkscape:connector-curvature="0" />
	<path style="fill:none;stroke:red;stroke-width:1px;stroke-linecap:butt;stroke-linejoin:miter;stroke-opacity:1" d="M 680.279,32.0226 663.465,22.6817 z" id="boundary" inkscape:connector-curvature="0" />
	<path style="fill:none;stroke:red;stroke-width:1px;stroke-linecap:butt;stroke-linejoin:miter;stroke-opacity:1" d="M 680.279,32.0226 697.092,41.3635 z" id="boundary" inkscape:connector-curvature="0" />
	<path style="fill:none;stroke:red;stroke-width:1px;stroke-linecap:butt;stroke-linejoin:miter;stroke-opacity:1" d="M 728.851,61.9134 715.774,46.968 z" id="boundary" inkscape:connector-curvature="0" />
	<path style="fill:none;stroke:red;stroke-width:1px;stroke-linecap:butt;stroke-linejoin:miter;stroke-opacity:1" d="M 715.774,46.968 697.092,41.3635 z" id="boundary" inkscape:connector-curvature="0" />
	<path style="fill:none;stroke:red;stroke-width:1px;stroke-linecap:butt;stroke-linejoin:miter;stroke-opacity:1" d="M 747.533,69.3861 728.851,61.9134 z" id="boundary" inkscape:connector-curvature="0" />
	<path style="fill:none;stroke:red;stroke-width:1px;stroke-linecap:butt;stroke-linejoin:miter;stroke-opacity:1" d="M 775.556,97.4087 760.61,84.3315 z" id="boundary" inkscape:connector-curvature="0" />
	<path style="fill:none;stroke:red;stroke-width:1px;stroke-linecap:butt;stroke-linejoin:miter;stroke-opacity:1" d="M 760.61,84.3315 747.533,69.3861 z" id="boundary" inkscape:connector-curvature="0" />
	<path style="fill:none;stroke:red;stroke-width:1px;stroke-linecap:butt;stroke-linejoin:miter;stroke-opacity:1" d="M 794.237,97.4087 775.556,97.4087 z" id="boundary" inkscape:connector-curvature="0" />
	<path style="fill:none;stroke:red;stroke-width:1px;stroke-linecap:butt;stroke-linejoin:miter;stroke-opacity:1" d="M 850.282,88.0678 831.601,97.4087 z" id="boundary" inkscape:connector-curvature="0" />
	<path style="fill:none;stroke:red;stroke-width:1px;stroke-linecap:butt;stroke-linejoin:miter;stroke-opacity:1" d="M 958.637,69.3861 939.955,69.3861 z" id="boundary" inkscape:connector-curvature="0" />
	<path style="fill:none;stroke:red;stroke-width:1px;stroke-linecap:butt;stroke-linejoin:miter;stroke-opacity:1" d="M 939.955,69.3861 923.141,78.7269 z" id="boundary" inkscape:connector-curvature="0" />
	<path style="fill:none;stroke:red;stroke-width:1px;stroke-linecap:butt;stroke-linejoin:miter;stroke-opacity:1" d="M 973.582,80.5951 958.637,69.3861 z" id="boundary" inkscape:connector-curvature="0" />
	<path style="fill:none;stroke:red;stroke-width:1px;stroke-linecap:butt;stroke-linejoin:miter;stroke-opacity:1" d="M 868.964,88.0678 850.282,88.0678 z" id="boundary" inkscape:connector-curvature="0" />
	<path style="fill:none;stroke:red;stroke-width:1px;stroke-linecap:butt;stroke-linejoin:miter;stroke-opacity:1" d="M 887.646,88.0678 868.964,88.0678 z" id="boundary" inkscape:connector-curvature="0" />
	<path style="fill:none;stroke:red;stroke-width:1px;stroke-linecap:butt;stroke-linejoin:miter;stroke-opacity:1" d="M 904.46,78.7269 887.646,88.0678 z" id="boundary" inkscape:connector-curvature="0" />
	<path style="fill:none;stroke:red;stroke-width:1px;stroke-linecap:butt;stroke-linejoin:miter;stroke-opacity:1" d="M 973.582,80.5951 977.318,99.2768 z" id="boundary" inkscape:connector-curvature="0" />
	<path style="fill:none;stroke:red;stroke-width:1px;stroke-linecap:butt;stroke-linejoin:miter;stroke-opacity:1" d="M 904.46,78.7269 923.141,78.7269 z" id="boundary" inkscape:connector-curvature="0" />
	<path style="fill:none;stroke:red;stroke-width:1px;stroke-linecap:butt;stroke-linejoin:miter;stroke-opacity:1" d="M 794.237,97.4087 812.919,97.4087 z" id="boundary" inkscape:connector-curvature="0" />
	<path style="fill:none;stroke:red;stroke-width:1px;stroke-linecap:butt;stroke-linejoin:miter;stroke-opacity:1" d="M 812.919,97.4087 831.601,97.4087 z" id="boundary" inkscape:connector-curvature="0" />
	<path style="fill:none;stroke:red;stroke-width:1px;stroke-linecap:butt;stroke-linejoin:miter;stroke-opacity:1" d="M 981.055,117.959 977.318,99.2768 z" id="boundary" inkscape:connector-curvature="0" />
	<path style="fill:none;stroke:red;stroke-width:1px;stroke-linecap:butt;stroke-linejoin:miter;stroke-opacity:1" d="M 990.395,134.772 981.055,117.959 z" id="boundary" inkscape:connector-curvature="0" />
	<path style="fill:none;stroke:red;stroke-width:1px;stroke-linecap:butt;stroke-linejoin:miter;stroke-opacity:1" d="M 990.395,134.772 996,153.454 z" id="boundary" inkscape:connector-curvature="0" />
	<path style="fill:none;stroke:red;stroke-width:1px;stroke-linecap:butt;stroke-linejoin:miter;stroke-opacity:1" d="M 996,153.454 982.923,179.608 z" id="boundary" inkscape:connector-curvature="0" />
	<path style="fill:none;stroke:red;stroke-width:1px;stroke-linecap:butt;stroke-linejoin:miter;stroke-opacity:1" d="M 549.507,304.776 532.693,314.117 z" id="boundary" inkscape:connector-curvature="0" />
	<path style="fill:none;stroke:red;stroke-width:1px;stroke-linecap:butt;stroke-linejoin:miter;stroke-opacity:1" d="M 568.188,304.776 549.507,304.776 z" id="boundary" inkscape:connector-curvature="0" />
	<path style="fill:none;stroke:red;stroke-width:1px;stroke-linecap:butt;stroke-linejoin:miter;stroke-opacity:1" d="M 568.188,304.776 586.87,304.776 z" id="boundary" inkscape:connector-curvature="0" />
	<path style="fill:none;stroke:red;stroke-width:1px;stroke-linecap:butt;stroke-linejoin:miter;stroke-opacity:1" d="M 605.552,304.776 586.87,304.776 z" id="boundary" inkscape:connector-curvature="0" />
	<path style="fill:none;stroke:red;stroke-width:1px;stroke-linecap:butt;stroke-linejoin:miter;stroke-opacity:1" d="M 624.234,304.776 605.552,304.776 z" id="boundary" inkscape:connector-curvature="0" />
	<path style="fill:none;stroke:red;stroke-width:1px;stroke-linecap:butt;stroke-linejoin:miter;stroke-opacity:1" d="M 532.693,314.117 514.011,314.117 z" id="boundary" inkscape:connector-curvature="0" />
	<path style="fill:none;stroke:red;stroke-width:1px;stroke-linecap:butt;stroke-linejoin:miter;stroke-opacity:1" d="M 642.915,304.776 657.861,315.985 z" id="boundary" inkscape:connector-curvature="0" />
	<path style="fill:none;stroke:red;stroke-width:1px;stroke-linecap:butt;stroke-linejoin:miter;stroke-opacity:1" d="M 624.234,304.776 642.915,304.776 z" id="boundary" inkscape:connector-curvature="0" />
	<path style="fill:none;stroke:red;stroke-width:1px;stroke-linecap:butt;stroke-linejoin:miter;stroke-opacity:1" d="M 657.861,315.985 670.938,330.93 z" id="boundary" inkscape:connector-curvature="0" />
	<path style="fill:none;stroke:red;stroke-width:1px;stroke-linecap:butt;stroke-linejoin:miter;stroke-opacity:1" d="M 514.011,314.117 495.33,321.589 z" id="boundary" inkscape:connector-curvature="0" />
	<path style="fill:none;stroke:red;stroke-width:1px;stroke-linecap:butt;stroke-linejoin:miter;stroke-opacity:1" d="M 689.62,338.403 670.938,330.93 z" id="boundary" inkscape:connector-curvature="0" />
	<path style="fill:none;stroke:red;stroke-width:1px;stroke-linecap:butt;stroke-linejoin:miter;stroke-opacity:1" d="M 689.62,338.403 704.565,351.48 z" id="boundary" inkscape:connector-curvature="0" />
	<path style="fill:none;stroke:red;stroke-width:1px;stroke-linecap:butt;stroke-linejoin:miter;stroke-opacity:1" d="M 721.379,360.821 704.565,351.48 z" id="boundary" inkscape:connector-curvature="0" />
	<path style="fill:none;stroke:red;stroke-width:1px;stroke-linecap:butt;stroke-linejoin:miter;stroke-opacity:1" d="M 738.192,370.162 721.379,360.821 z" id="boundary" inkscape:connector-curvature="0" />
	<path style="fill:none;stroke:red;stroke-width:1px;stroke-linecap:butt;stroke-linejoin:miter;stroke-opacity:1" d="M 755.006,379.503 771.819,388.844 z" id="boundary" inkscape:connector-curvature="0" />
	<path style="fill:none;stroke:red;stroke-width:1px;stroke-linecap:butt;stroke-linejoin:miter;stroke-opacity:1" d="M 755.006,379.503 738.192,370.162 z" id="boundary" inkscape:connector-curvature="0" />
	<path style="fill:none;stroke:red;stroke-width:1px;stroke-linecap:butt;stroke-linejoin:miter;stroke-opacity:1" d="M 771.819,388.844 788.633,398.185 z" id="boundary" inkscape:connector-curvature="0" />
	<path style="fill:none;stroke:red;stroke-width:1px;stroke-linecap:butt;stroke-linejoin:miter;stroke-opacity:1" d="M 925.009,276.753 921.273,258.072 z" id="boundary" inkscape:connector-curvature="0" />
	<path style="fill:none;stroke:red;stroke-width:1px;stroke-linecap:butt;stroke-linejoin:miter;stroke-opacity:1" d="M 921.273,239.39 921.273,258.072 z" id="boundary" inkscape:connector-curvature="0" />
	<path style="fill:none;stroke:red;stroke-width:1px;stroke-linecap:butt;stroke-linejoin:miter;stroke-opacity:1" d="M 954.9,216.972 939.955,230.049 z" id="boundary" inkscape:connector-curvature="0" />
	<path style="fill:none;stroke:red;stroke-width:1px;stroke-linecap:butt;stroke-linejoin:miter;stroke-opacity:1" d="M 967.977,192.685 982.923,179.608 z" id="boundary" inkscape:connector-curvature="0" />
	<path style="fill:none;stroke:red;stroke-width:1px;stroke-linecap:butt;stroke-linejoin:miter;stroke-opacity:1" d="M 967.977,192.685 954.9,216.972 z" id="boundary" inkscape:connector-curvature="0" />
	<path style="fill:none;stroke:red;stroke-width:1px;stroke-linecap:butt;stroke-linejoin:miter;stroke-opacity:1" d="M 939.955,230.049 921.273,239.39 z" id="boundary" inkscape:connector-curvature="0" />
	<path style="fill:none;stroke:red;stroke-width:1px;stroke-linecap:butt;stroke-linejoin:miter;stroke-opacity:1" d="M 939.955,312.249 930.614,295.435 z" id="boundary" inkscape:connector-curvature="0" />
	<path style="fill:none;stroke:red;stroke-width:1px;stroke-linecap:butt;stroke-linejoin:miter;stroke-opacity:1" d="M 930.614,295.435 925.009,276.753 z" id="boundary" inkscape:connector-curvature="0" />
	<path style="fill:none;stroke:red;stroke-width:1px;stroke-linecap:butt;stroke-linejoin:miter;stroke-opacity:1" d="M 880.173,370.162 863.36,379.503 z" id="boundary" inkscape:connector-curvature="0" />
	<path style="fill:none;stroke:red;stroke-width:1px;stroke-linecap:butt;stroke-linejoin:miter;stroke-opacity:1" d="M 807.315,392.58 825.996,383.239 z" id="boundary" inkscape:connector-curvature="0" />
	<path style="fill:none;stroke:red;stroke-width:1px;stroke-linecap:butt;stroke-linejoin:miter;stroke-opacity:1" d="M 844.678,379.503 825.996,383.239 z" id="boundary" inkscape:connector-curvature="0" />
	<path style="fill:none;stroke:red;stroke-width:1px;stroke-linecap:butt;stroke-linejoin:miter;stroke-opacity:1" d="M 844.678,379.503 863.36,379.503 z" id="boundary" inkscape:connector-curvature="0" />
	<path style="fill:none;stroke:red;stroke-width:1px;stroke-linecap:butt;stroke-linejoin:miter;stroke-opacity:1" d="M 788.633,398.185 807.315,392.58 z" id="boundary" inkscape:connector-curvature="0" />
	<path style="fill:none;stroke:red;stroke-width:1px;stroke-linecap:butt;stroke-linejoin:miter;stroke-opacity:1" d="M 939.955,312.249 930.614,342.139 z" id="boundary" inkscape:connector-curvature="0" />
	<path style="fill:none;stroke:red;stroke-width:1px;stroke-linecap:butt;stroke-linejoin:miter;stroke-opacity:1" d="M 930.614,342.139 913.8,351.48 z" id="boundary" inkscape:connector-curvature="0" />
	<path style="fill:none;stroke:red;stroke-width:1px;stroke-linecap:butt;stroke-linejoin:miter;stroke-opacity:1" d="M 896.987,360.821 913.8,351.48 z" id="boundary" inkscape:connector-curvature="0" />
	<path style="fill:none;stroke:red;stroke-width:1px;stroke-linecap:butt;stroke-linejoin:miter;stroke-opacity:1" d="M 896.987,360.821 880.173,370.162 z" id="boundary" inkscape:connector-curvature="0" />
	<circle cx="4" cy="187.081" r="4" fill="#0" id="circle0"/>
	<circle cx="4" cy="205.763" r="4" fill="#0" id="circle1"/>
	<circle cx="13.3409" cy="222.576" r="4" fill="#0" id="circle2"/>
	<circle cx="18.9454" cy="172.136" r="4" fill="#0" id="circle3"/>
	<circle cx="22.6817" cy="239.39" r="4" fill="#0" id="circle4"/>
	<circle cx="22.6817" cy="258.072" r="4" fill="#0" id="circle5"/>
	<circle cx="28.2863" cy="276.753" r="4" fill="#0" id="circle6"/>
	<circle cx="37.6271" cy="162.795" r="4" fill="#0" id="circle7"/>
	<circle cx="43.2316" cy="289.831" r="4" fill="#0" id="circle8"/>
	<circle cx="52.5725" cy="147.849" r="4" fill="#0" id="circle9"/>
	<circle cx="61.9134" cy="295.435" r="4" fill="#0" id="circle10"/>
	<circle cx="71.2542" cy="138.508" r="4" fill="#0" id="circle11"/>
	<circle cx="80.5951" cy="286.094" r="4" fill="#0" id="circle12"/>
	<circle cx="88.0678" cy="37.6271" r="4" fill="#0" id="circle13"/>
	<circle cx="88.0678" cy="56.3089" r="4" fill="#0" id="circle14"/>
	<circle cx="89.936" cy="129.168" r="4" fill="#0" id="circle15"/>
	<circle cx="97.4087" cy="18.9454" r="4" fill="#0" id="circle16"/>
	<circle cx="97.4087" cy="73.1224" r="4" fill="#0" id="circle17"/>
	<circle cx="97.4087" cy="91.8041" r="4" fill="#0" id="circle18"/>
	<circle cx="97.4087" cy="110.486" r="4" fill="#0" id="circle19"/>
	<circle cx="99.2768" cy="286.094" r="4" fill="#0" id="circle20"/>
	<circle cx="116.09" cy="13.3409" r="4" fill="#0" id="circle21"/>
	<circle cx="117.959" cy="286.094" r="4" fill="#0" id="circle22"/>
	<circle cx="132.904" cy="4" r="4" fill="#0" id="circle23"/>
	<circle cx="136.64" cy="286.094" r="4" fill="#0" id="circle24"/>
	<circle cx="151.586" cy="4" r="4" fill="#0" id="circle25"/>
	<circle cx="155.322" cy="276.753" r="4" fill="#0" id="circle26"/>
	<circle cx="170.267" cy="4" r="4" fill="#0" id="circle27"/>
	<circle cx="174.004" cy="276.753" r="4" fill="#0" id="circle28"/>
	<circle cx="188.949" cy="4" r="4" fill="#0" id="circle29"/>
	<circle cx="190.817" cy="286.094" r="4" fill="#0" id="circle30"/>
	<circle cx="207.631" cy="4" r="4" fill="#0" id="circle31"/>
	<circle cx="209.499" cy="286.094" r="4" fill="#0" id="circle32"/>
	<circle cx="226.313" cy="4" r="4" fill="#0" id="circle33"/>
	<circle cx="228.181" cy="286.094" r="4" fill="#0" id="circle34"/>
	<circle cx="243.126" cy="13.3409" r="4" fill="#0" id="circle35"/>
	<circle cx="246.863" cy="286.094" r="4" fill="#0" id="circle36"/>
	<circle cx="258.072" cy="301.04" r="4" fill="#0" id="circle37"/>
	<circle cx="259.94" cy="22.6817" r="4" fill="#0" id="circle38"/>
	<circle cx="273.017" cy="314.117" r="4" fill="#0" id="circle39"/>
	<circle cx="276.753" cy="32.0226" r="4" fill="#0" id="circle40"/>
	<circle cx="289.831" cy="323.458" r="4" fill="#0" id="circle41"/>
	<circle cx="295.435" cy="32.0226" r="4" fill="#0" id="circle42"/>
	<circle cx="308.512" cy="330.93" r="4" fill="#0" id="circle43"/>
	<circle cx="314.117" cy="37.6271" r="4" fill="#0" id="circle44"/>
	<circle cx="327.194" cy="332.798" r="4" fill="#0" id="circle45"/>
	<circle cx="330.93" cy="46.968" r="4" fill="#0" id="circle46"/>
	<circle cx="345.876" cy="332.798" r="4" fill="#0" id="circle47"/>
	<circle cx="349.612" cy="50.7043" r="4" fill="#0" id="circle48"/>
	<circle cx="364.557" cy="332.798" r="4" fill="#0" id="circle49"/>
	<circle cx="368.294" cy="50.7043" r="4" fill="#0" id="circle50"/>
	<circle cx="383.239" cy="332.798" r="4" fill="#0" id="circle51"/>
	<circle cx="386.976" cy="50.7043" r="4" fill="#0" id="circle52"/>
	<circle cx="401.921" cy="330.93" r="4" fill="#0" id="circle53"/>
	<circle cx="405.657" cy="50.7043" r="4" fill="#0" id="circle54"/>
	<circle cx="420.603" cy="323.458" r="4" fill="#0" id="circle55"/>
	<circle cx="424.339" cy="50.7043" r="4" fill="#0" id="circle56"/>
	<circle cx="439.284" cy="323.458" r="4" fill="#0" id="circle57"/>
	<circle cx="443.021" cy="50.7043" r="4" fill="#0" id="circle58"/>
	<circle cx="457.966" cy="323.458" r="4" fill="#0" id="circle59"/>
	<circle cx="461.702" cy="50.7043" r="4" fill="#0" id="circle60"/>
	<circle cx="476.648" cy="323.458" r="4" fill="#0" id="circle61"/>
	<circle cx="478.516" cy="41.3635" r="4" fill="#0" id="circle62"/>
	<circle cx="495.33" cy="321.589" r="4" fill="#0" id="circle63"/>
	<circle cx="497.198" cy="41.3635" r="4" fill="#0" id="circle64"/>
	<circle cx="514.011" cy="314.117" r="4" fill="#0" id="circle65"/>
	<circle cx="515.879" cy="41.3635" r="4" fill="#0" id="circle66"/>
	<circle cx="532.693" cy="314.117" r="4" fill="#0" id="circle67"/>
	<circle cx="534.561" cy="41.3635" r="4" fill="#0" id="circle68"/>
	<circle cx="549.507" cy="304.776" r="4" fill="#0" id="circle69"/>
	<circle cx="551.375" cy="32.0226" r="4" fill="#0" id="circle70"/>
	<circle cx="568.188" cy="304.776" r="4" fill="#0" id="circle71"/>
	<circle cx="570.056" cy="32.0226" r="4" fill="#0" id="circle72"/>
	<circle cx="586.87" cy="304.776" r="4" fill="#0" id="circle73"/>
	<circle cx="588.738" cy="32.0226" r="4" fill="#0" id="circle74"/>
	<circle cx="605.552" cy="304.776" r="4" fill="#0" id="circle75"/>
	<circle cx="607.42" cy="32.0226" r="4" fill="#0" id="circle76"/>
	<circle cx="624.234" cy="304.776" r="4" fill="#0" id="circle77"/>
	<circle cx="626.102" cy="22.6817" r="4" fill="#0" id="circle78"/>
	<circle cx="642.915" cy="304.776" r="4" fill="#0" id="circle79"/>
	<circle cx="644.783" cy="22.6817" r="4" fill="#0" id="circle80"/>
	<circle cx="657.861" cy="315.985" r="4" fill="#0" id="circle81"/>
	<circle cx="663.465" cy="22.6817" r="4" fill="#0" id="circle82"/>
	<circle cx="670.938" cy="330.93" r="4" fill="#0" id="circle83"/>
	<circle cx="680.279" cy="32.0226" r="4" fill="#0" id="circle84"/>
	<circle cx="689.62" cy="338.403" r="4" fill="#0" id="circle85"/>
	<circle cx="697.092" cy="41.3635" r="4" fill="#0" id="circle86"/>
	<circle cx="704.565" cy="351.48" r="4" fill="#0" id="circle87"/>
	<circle cx="715.774" cy="46.968" r="4" fill="#0" id="circle88"/>
	<circle cx="721.379" cy="360.821" r="4" fill="#0" id="circle89"/>
	<circle cx="728.851" cy="61.9134" r="4" fill="#0" id="circle90"/>
	<circle cx="738.192" cy="370.162" r="4" fill="#0" id="circle91"/>
	<circle cx="747.533" cy="69.3861" r="4" fill="#0" id="circle92"/>
	<circle cx="755.006" cy="379.503" r="4" fill="#0" id="circle93"/>
	<circle cx="760.61" cy="84.3315" r="4" fill="#0" id="circle94"/>
	<circle cx="771.819" cy="388.844" r="4" fill="#0" id="circle95"/>
	<circle cx="775.556" cy="97.4087" r="4" fill="#0" id="circle96"/>
	<circle cx="788.633" cy="398.185" r="4" fill="#0" id="circle97"/>
	<circle cx="794.237" cy="97.4087" r="4" fill="#0" id="circle98"/>
	<circle cx="807.315" cy="392.58" r="4" fill="#0" id="circle99"/>
	<circle cx="812.919" cy="97.4087" r="4" fill="#0" id="circle100"/>
	<circle cx="825.996" cy="383.239" r="4" fill="#0" id="circle101"/>
	<circle cx="831.601" cy="97.4087" r="4" fill="#0" id="circle102"/>
	<circle cx="844.678" cy="379.503" r="4" fill="#0" id="circle103"/>
	<circle cx="850.282" cy="88.0678" r="4" fill="#0" id="circle104"/>
	<circle cx="863.36" cy="379.503" r="4" fill="#0" id="circle105"/>
	<circle cx="868.964" cy="88.0678" r="4" fill="#0" id="circle106"/>
	<circle cx="880.173" cy="370.162" r="4" fill="#0" id="circle107"/>
	<circle cx="887.646" cy="88.0678" r="4" fill="#0" id="circle108"/>
	<circle cx="896.987" cy="360.821" r="4" fill="#0" id="circle109"/>
	<circle cx="904.46" cy="78.7269" r="4" fill="#0" id="circle110"/>
	<circle cx="913.8" cy="351.48" r="4" fill="#0" id="circle111"/>
	<circle cx="921.273" cy="239.39" r="4" fill="#0" id="circle112"/>
	<circle cx="921.273" cy="258.072" r="4" fill="#0" id="circle113"/>
	<circle cx="923.141" cy="78.7269" r="4" fill="#0" id="circle114"/>
	<circle cx="925.009" cy="276.753" r="4" fill="#0" id="circle115"/>
	<circle cx="930.614" cy="295.435" r="4" fill="#0" id="circle116"/>
	<circle cx="930.614" cy="342.139" r="4" fill="#0" id="circle117"/>
	<circle cx="939.955" cy="69.3861" r="4" fill="#0" id="circle118"/>
	<circle cx="939.955" cy="230.049" r="4" fill="#0" id="circle119"/>
	<circle cx="939.955" cy="312.249" r="4" fill="#0" id="circle120"/>
	<circle cx="954.9" cy="216.972" r="4" fill="#0" id="circle121"/>
	<circle cx="958.637" cy="69.3861" r="4" fill="#0" id="circle122"/>
	<circle cx="967.977" cy="192.685" r="4" fill="#0" id="circle123"/>
	<circle cx="973.582" cy="80.5951" r="4" fill="#0" id="circle124"/>
	<circle cx="977.318" cy="99.2768" r="4" fill="#0" id="circle125"/>
	<circle cx="981.055" cy="117.959" r="4" fill="#0" id="circle126"/>
	<circle cx="982.923" cy="179.608" r="4" fill="#0" id="circle127"/>
	<circle cx="990.395" cy="134.772" r="4" fill="#0" id="circle128"/>
	<circle cx="996" cy="153.454" r="4" fill="#0" id="circle129"/>
	</g>
</svg>