<?xml version="1.0" encoding="UTF-8" standalone="no"?>
<!-- Created with CurveBenchmark -->
<svg
	xmlns:dc="http://purl.org/dc/elements/1.1/"
	xmlns:cc="http://creativecommons.org/ns#"
	xmlns:rdf="http://www.w3.org/1999/02/22-rdf-syntax-ns#"
	xmlns:svg="http://www.w3.org/2000/svg"
	xmlns="http://www.w3.org/2000/svg"
	xmlns:sodipodi="http://sodipodi.sourceforge.net/DTD/sodipodi-0.dtd"
	xmlns:inkscape="http://www.inkscape.org/namespaces/inkscape"
	width="1000"
	height="1000"
	id="svg2"
	version="1.1"
	sodipodi:docname="manifold/crust-fish220.png.txt">
<defs
	id="defs4" />
<metadata
	id="metadata7">
	<rdf:RDF>
		<cc:Work
			rdf:about="">
			<dc:format>image/svg+xml</dc:format>
			<dc:type
				rdf:resource="http://purl.org/dc/dcmitype/StillImage" />
			<dc:title></dc:title>
		</cc:Work>
	</rdf:RDF>
</metadata>
<g
	inkscape:label="Layer 1"
	inkscape:groupmode="layer"
	id="layer1">
	<path style="fill:none;stroke:red;stroke-width:1px;stroke-linecap:butt;stroke-linejoin:miter;stroke-opacity:1" d="M 4,162.145 39.942,154.957 z" id="boundary" inkscape:connector-curvature="0" />
	<path style="fill:none;stroke:red;stroke-width:1px;stroke-linecap:butt;stroke-linejoin:miter;stroke-opacity:1" d="M 11.1884,198.087 4,162.145 z" id="boundary" inkscape:connector-curvature="0" />
	<path style="fill:none;stroke:red;stroke-width:1px;stroke-linecap:butt;stroke-linejoin:miter;stroke-opacity:1" d="M 75.8841,169.333 39.942,154.957 z" id="boundary" inkscape:connector-curvature="0" />
	<path style="fill:none;stroke:red;stroke-width:1px;stroke-linecap:butt;stroke-linejoin:miter;stroke-opacity:1" d="M 108.232,187.304 75.8841,169.333 z" id="boundary" inkscape:connector-curvature="0" />
	<path style="fill:none;stroke:red;stroke-width:1px;stroke-linecap:butt;stroke-linejoin:miter;stroke-opacity:1" d="M 11.1884,198.087 18.3768,234.029 z" id="boundary" inkscape:connector-curvature="0" />
	<path style="fill:none;stroke:red;stroke-width:1px;stroke-linecap:butt;stroke-linejoin:miter;stroke-opacity:1" d="M 25.5652,269.971 18.3768,234.029 z" id="boundary" inkscape:connector-curvature="0" />
	<path style="fill:none;stroke:red;stroke-width:1px;stroke-linecap:butt;stroke-linejoin:miter;stroke-opacity:1" d="M 25.5652,269.971 25.5652,305.913 z" id="boundary" inkscape:connector-curvature="0" />
	<path style="fill:none;stroke:red;stroke-width:1px;stroke-linecap:butt;stroke-linejoin:miter;stroke-opacity:1" d="M 140.58,205.275 108.232,187.304 z" id="boundary" inkscape:connector-curvature="0" />
	<path style="fill:none;stroke:red;stroke-width:1px;stroke-linecap:butt;stroke-linejoin:miter;stroke-opacity:1" d="M 140.58,205.275 172.928,223.246 z" id="boundary" inkscape:connector-curvature="0" />
	<path style="fill:none;stroke:red;stroke-width:1px;stroke-linecap:butt;stroke-linejoin:miter;stroke-opacity:1" d="M 370.609,108.232 334.667,97.4493 z" id="boundary" inkscape:connector-curvature="0" />
	<path style="fill:none;stroke:red;stroke-width:1px;stroke-linecap:butt;stroke-linejoin:miter;stroke-opacity:1" d="M 298.725,111.826 334.667,97.4493 z" id="boundary" inkscape:connector-curvature="0" />
	<path style="fill:none;stroke:red;stroke-width:1px;stroke-linecap:butt;stroke-linejoin:miter;stroke-opacity:1" d="M 298.725,111.826 269.971,140.58 z" id="boundary" inkscape:connector-curvature="0" />
	<path style="fill:none;stroke:red;stroke-width:1px;stroke-linecap:butt;stroke-linejoin:miter;stroke-opacity:1" d="M 269.971,140.58 248.406,169.333 z" id="boundary" inkscape:connector-curvature="0" />
	<path style="fill:none;stroke:red;stroke-width:1px;stroke-linecap:butt;stroke-linejoin:miter;stroke-opacity:1" d="M 402.957,126.203 370.609,108.232 z" id="boundary" inkscape:connector-curvature="0" />
	<path style="fill:none;stroke:red;stroke-width:1px;stroke-linecap:butt;stroke-linejoin:miter;stroke-opacity:1" d="M 438.899,108.232 402.957,126.203 z" id="boundary" inkscape:connector-curvature="0" />
	<path style="fill:none;stroke:red;stroke-width:1px;stroke-linecap:butt;stroke-linejoin:miter;stroke-opacity:1" d="M 467.652,86.6667 438.899,108.232 z" id="boundary" inkscape:connector-curvature="0" />
	<path style="fill:none;stroke:red;stroke-width:1px;stroke-linecap:butt;stroke-linejoin:miter;stroke-opacity:1" d="M 248.406,169.333 226.841,198.087 z" id="boundary" inkscape:connector-curvature="0" />
	<path style="fill:none;stroke:red;stroke-width:1px;stroke-linecap:butt;stroke-linejoin:miter;stroke-opacity:1" d="M 208.87,230.435 226.841,198.087 z" id="boundary" inkscape:connector-curvature="0" />
	<path style="fill:none;stroke:red;stroke-width:1px;stroke-linecap:butt;stroke-linejoin:miter;stroke-opacity:1" d="M 208.87,230.435 172.928,223.246 z" id="boundary" inkscape:connector-curvature="0" />
	<path style="fill:none;stroke:red;stroke-width:1px;stroke-linecap:butt;stroke-linejoin:miter;stroke-opacity:1" d="M 18.3768,341.855 4,406.551 z" id="boundary" inkscape:connector-curvature="0" />
	<path style="fill:none;stroke:red;stroke-width:1px;stroke-linecap:butt;stroke-linejoin:miter;stroke-opacity:1" d="M 25.5652,305.913 18.3768,341.855 z" id="boundary" inkscape:connector-curvature="0" />
	<path style="fill:none;stroke:red;stroke-width:1px;stroke-linecap:butt;stroke-linejoin:miter;stroke-opacity:1" d="M 201.681,352.638 165.739,367.014 z" id="boundary" inkscape:connector-curvature="0" />
	<path style="fill:none;stroke:red;stroke-width:1px;stroke-linecap:butt;stroke-linejoin:miter;stroke-opacity:1" d="M 165.739,367.014 136.986,392.174 z" id="boundary" inkscape:connector-curvature="0" />
	<path style="fill:none;stroke:red;stroke-width:1px;stroke-linecap:butt;stroke-linejoin:miter;stroke-opacity:1" d="M 32.7536,431.71 4,406.551 z" id="boundary" inkscape:connector-curvature="0" />
	<path style="fill:none;stroke:red;stroke-width:1px;stroke-linecap:butt;stroke-linejoin:miter;stroke-opacity:1" d="M 68.6957,424.522 32.7536,431.71 z" id="boundary" inkscape:connector-curvature="0" />
	<path style="fill:none;stroke:red;stroke-width:1px;stroke-linecap:butt;stroke-linejoin:miter;stroke-opacity:1" d="M 104.638,410.145 136.986,392.174 z" id="boundary" inkscape:connector-curvature="0" />
	<path style="fill:none;stroke:red;stroke-width:1px;stroke-linecap:butt;stroke-linejoin:miter;stroke-opacity:1" d="M 104.638,410.145 68.6957,424.522 z" id="boundary" inkscape:connector-curvature="0" />
	<path style="fill:none;stroke:red;stroke-width:1px;stroke-linecap:butt;stroke-linejoin:miter;stroke-opacity:1" d="M 219.652,384.986 201.681,352.638 z" id="boundary" inkscape:connector-curvature="0" />
	<path style="fill:none;stroke:red;stroke-width:1px;stroke-linecap:butt;stroke-linejoin:miter;stroke-opacity:1" d="M 219.652,384.986 226.841,420.928 z" id="boundary" inkscape:connector-curvature="0" />
	<path style="fill:none;stroke:red;stroke-width:1px;stroke-linecap:butt;stroke-linejoin:miter;stroke-opacity:1" d="M 241.217,456.87 226.841,420.928 z" id="boundary" inkscape:connector-curvature="0" />
	<path style="fill:none;stroke:red;stroke-width:1px;stroke-linecap:butt;stroke-linejoin:miter;stroke-opacity:1" d="M 277.159,467.652 241.217,456.87 z" id="boundary" inkscape:connector-curvature="0" />
	<path style="fill:none;stroke:red;stroke-width:1px;stroke-linecap:butt;stroke-linejoin:miter;stroke-opacity:1" d="M 313.101,467.652 277.159,467.652 z" id="boundary" inkscape:connector-curvature="0" />
	<path style="fill:none;stroke:red;stroke-width:1px;stroke-linecap:butt;stroke-linejoin:miter;stroke-opacity:1" d="M 349.043,453.275 384.986,438.899 z" id="boundary" inkscape:connector-curvature="0" />
	<path style="fill:none;stroke:red;stroke-width:1px;stroke-linecap:butt;stroke-linejoin:miter;stroke-opacity:1" d="M 349.043,453.275 313.101,467.652 z" id="boundary" inkscape:connector-curvature="0" />
	<path style="fill:none;stroke:red;stroke-width:1px;stroke-linecap:butt;stroke-linejoin:miter;stroke-opacity:1" d="M 384.986,438.899 420.928,446.087 z" id="boundary" inkscape:connector-curvature="0" />
	<path style="fill:none;stroke:red;stroke-width:1px;stroke-linecap:butt;stroke-linejoin:miter;stroke-opacity:1" d="M 456.87,446.087 420.928,446.087 z" id="boundary" inkscape:connector-curvature="0" />
	<path style="fill:none;stroke:red;stroke-width:1px;stroke-linecap:butt;stroke-linejoin:miter;stroke-opacity:1" d="M 600.638,18.3768 568.29,36.3478 z" id="boundary" inkscape:connector-curvature="0" />
	<path style="fill:none;stroke:red;stroke-width:1px;stroke-linecap:butt;stroke-linejoin:miter;stroke-opacity:1" d="M 636.58,4 600.638,18.3768 z" id="boundary" inkscape:connector-curvature="0" />
	<path style="fill:none;stroke:red;stroke-width:1px;stroke-linecap:butt;stroke-linejoin:miter;stroke-opacity:1" d="M 568.29,36.3478 532.348,50.7246 z" id="boundary" inkscape:connector-curvature="0" />
	<path style="fill:none;stroke:red;stroke-width:1px;stroke-linecap:butt;stroke-linejoin:miter;stroke-opacity:1" d="M 467.652,86.6667 496.406,61.5072 z" id="boundary" inkscape:connector-curvature="0" />
	<path style="fill:none;stroke:red;stroke-width:1px;stroke-linecap:butt;stroke-linejoin:miter;stroke-opacity:1" d="M 532.348,50.7246 496.406,61.5072 z" id="boundary" inkscape:connector-curvature="0" />
	<path style="fill:none;stroke:red;stroke-width:1px;stroke-linecap:butt;stroke-linejoin:miter;stroke-opacity:1" d="M 636.58,4 665.333,29.1594 z" id="boundary" inkscape:connector-curvature="0" />
	<path style="fill:none;stroke:red;stroke-width:1px;stroke-linecap:butt;stroke-linejoin:miter;stroke-opacity:1" d="M 665.333,29.1594 676.116,65.1014 z" id="boundary" inkscape:connector-curvature="0" />
	<path style="fill:none;stroke:red;stroke-width:1px;stroke-linecap:butt;stroke-linejoin:miter;stroke-opacity:1" d="M 676.116,65.1014 701.275,115.42 z" id="boundary" inkscape:connector-curvature="0" />
	<path style="fill:none;stroke:red;stroke-width:1px;stroke-linecap:butt;stroke-linejoin:miter;stroke-opacity:1" d="M 701.275,115.42 733.623,133.391 z" id="boundary" inkscape:connector-curvature="0" />
	<path style="fill:none;stroke:red;stroke-width:1px;stroke-linecap:butt;stroke-linejoin:miter;stroke-opacity:1" d="M 769.565,140.58 733.623,133.391 z" id="boundary" inkscape:connector-curvature="0" />
	<path style="fill:none;stroke:red;stroke-width:1px;stroke-linecap:butt;stroke-linejoin:miter;stroke-opacity:1" d="M 805.507,154.957 769.565,140.58 z" id="boundary" inkscape:connector-curvature="0" />
	<path style="fill:none;stroke:red;stroke-width:1px;stroke-linecap:butt;stroke-linejoin:miter;stroke-opacity:1" d="M 841.449,169.333 805.507,154.957 z" id="boundary" inkscape:connector-curvature="0" />
	<path style="fill:none;stroke:red;stroke-width:1px;stroke-linecap:butt;stroke-linejoin:miter;stroke-opacity:1" d="M 877.391,183.71 841.449,169.333 z" id="boundary" inkscape:connector-curvature="0" />
	<path style="fill:none;stroke:red;stroke-width:1px;stroke-linecap:butt;stroke-linejoin:miter;stroke-opacity:1" d="M 877.391,183.71 913.333,198.087 z" id="boundary" inkscape:connector-curvature="0" />
	<path style="fill:none;stroke:red;stroke-width:1px;stroke-linecap:butt;stroke-linejoin:miter;stroke-opacity:1" d="M 938.493,226.841 913.333,198.087 z" id="boundary" inkscape:connector-curvature="0" />
	<path style="fill:none;stroke:red;stroke-width:1px;stroke-linecap:butt;stroke-linejoin:miter;stroke-opacity:1" d="M 970.841,244.812 938.493,226.841 z" id="boundary" inkscape:connector-curvature="0" />
	<path style="fill:none;stroke:red;stroke-width:1px;stroke-linecap:butt;stroke-linejoin:miter;stroke-opacity:1" d="M 970.841,244.812 996,295.13 z" id="boundary" inkscape:connector-curvature="0" />
	<path style="fill:none;stroke:red;stroke-width:1px;stroke-linecap:butt;stroke-linejoin:miter;stroke-opacity:1" d="M 996,295.13 974.435,323.884 z" id="boundary" inkscape:connector-curvature="0" />
	<path style="fill:none;stroke:red;stroke-width:1px;stroke-linecap:butt;stroke-linejoin:miter;stroke-opacity:1" d="M 456.87,446.087 492.812,453.275 z" id="boundary" inkscape:connector-curvature="0" />
	<path style="fill:none;stroke:red;stroke-width:1px;stroke-linecap:butt;stroke-linejoin:miter;stroke-opacity:1" d="M 492.812,453.275 532.348,453.275 z" id="boundary" inkscape:connector-curvature="0" />
	<path style="fill:none;stroke:red;stroke-width:1px;stroke-linecap:butt;stroke-linejoin:miter;stroke-opacity:1" d="M 514.377,485.623 492.812,453.275 z" id="boundary" inkscape:connector-curvature="0" />
	<path style="fill:none;stroke:red;stroke-width:1px;stroke-linecap:butt;stroke-linejoin:miter;stroke-opacity:1" d="M 514.377,485.623 507.188,521.565 z" id="boundary" inkscape:connector-curvature="0" />
	<path style="fill:none;stroke:red;stroke-width:1px;stroke-linecap:butt;stroke-linejoin:miter;stroke-opacity:1" d="M 532.348,453.275 514.377,485.623 z" id="boundary" inkscape:connector-curvature="0" />
	<path style="fill:none;stroke:red;stroke-width:1px;stroke-linecap:butt;stroke-linejoin:miter;stroke-opacity:1" d="M 507.188,564.696 507.188,521.565 z" id="boundary" inkscape:connector-curvature="0" />
	<path style="fill:none;stroke:red;stroke-width:1px;stroke-linecap:butt;stroke-linejoin:miter;stroke-opacity:1" d="M 535.942,586.261 507.188,564.696 z" id="boundary" inkscape:connector-curvature="0" />
	<path style="fill:none;stroke:red;stroke-width:1px;stroke-linecap:butt;stroke-linejoin:miter;stroke-opacity:1" d="M 571.884,568.29 535.942,586.261 z" id="boundary" inkscape:connector-curvature="0" />
	<path style="fill:none;stroke:red;stroke-width:1px;stroke-linecap:butt;stroke-linejoin:miter;stroke-opacity:1" d="M 604.232,550.319 571.884,568.29 z" id="boundary" inkscape:connector-curvature="0" />
	<path style="fill:none;stroke:red;stroke-width:1px;stroke-linecap:butt;stroke-linejoin:miter;stroke-opacity:1" d="M 604.232,550.319 636.58,568.29 z" id="boundary" inkscape:connector-curvature="0" />
	<path style="fill:none;stroke:red;stroke-width:1px;stroke-linecap:butt;stroke-linejoin:miter;stroke-opacity:1" d="M 636.58,568.29 668.928,586.261 z" id="boundary" inkscape:connector-curvature="0" />
	<path style="fill:none;stroke:red;stroke-width:1px;stroke-linecap:butt;stroke-linejoin:miter;stroke-opacity:1" d="M 801.913,446.087 765.971,453.275 z" id="boundary" inkscape:connector-curvature="0" />
	<path style="fill:none;stroke:red;stroke-width:1px;stroke-linecap:butt;stroke-linejoin:miter;stroke-opacity:1" d="M 830.667,424.522 801.913,446.087 z" id="boundary" inkscape:connector-curvature="0" />
	<path style="fill:none;stroke:red;stroke-width:1px;stroke-linecap:butt;stroke-linejoin:miter;stroke-opacity:1" d="M 765.971,453.275 733.623,471.246 z" id="boundary" inkscape:connector-curvature="0" />
	<path style="fill:none;stroke:red;stroke-width:1px;stroke-linecap:butt;stroke-linejoin:miter;stroke-opacity:1" d="M 974.435,323.884 952.87,352.638 z" id="boundary" inkscape:connector-curvature="0" />
	<path style="fill:none;stroke:red;stroke-width:1px;stroke-linecap:butt;stroke-linejoin:miter;stroke-opacity:1" d="M 952.87,352.638 931.304,381.391 z" id="boundary" inkscape:connector-curvature="0" />
	<path style="fill:none;stroke:red;stroke-width:1px;stroke-linecap:butt;stroke-linejoin:miter;stroke-opacity:1" d="M 830.667,424.522 866.609,417.333 z" id="boundary" inkscape:connector-curvature="0" />
	<path style="fill:none;stroke:red;stroke-width:1px;stroke-linecap:butt;stroke-linejoin:miter;stroke-opacity:1" d="M 902.551,402.957 866.609,417.333 z" id="boundary" inkscape:connector-curvature="0" />
	<path style="fill:none;stroke:red;stroke-width:1px;stroke-linecap:butt;stroke-linejoin:miter;stroke-opacity:1" d="M 931.304,381.391 902.551,402.957 z" id="boundary" inkscape:connector-curvature="0" />
	<path style="fill:none;stroke:red;stroke-width:1px;stroke-linecap:butt;stroke-linejoin:miter;stroke-opacity:1" d="M 733.623,471.246 719.246,535.942 z" id="boundary" inkscape:connector-curvature="0" />
	<path style="fill:none;stroke:red;stroke-width:1px;stroke-linecap:butt;stroke-linejoin:miter;stroke-opacity:1" d="M 701.275,568.29 668.928,586.261 z" id="boundary" inkscape:connector-curvature="0" />
	<path style="fill:none;stroke:red;stroke-width:1px;stroke-linecap:butt;stroke-linejoin:miter;stroke-opacity:1" d="M 719.246,535.942 701.275,568.29 z" id="boundary" inkscape:connector-curvature="0" />
	<circle cx="4" cy="162.145" r="4" fill="#0" id="circle0"/>
	<circle cx="4" cy="406.551" r="4" fill="#0" id="circle1"/>
	<circle cx="11.1884" cy="198.087" r="4" fill="#0" id="circle2"/>
	<circle cx="18.3768" cy="234.029" r="4" fill="#0" id="circle3"/>
	<circle cx="18.3768" cy="341.855" r="4" fill="#0" id="circle4"/>
	<circle cx="25.5652" cy="269.971" r="4" fill="#0" id="circle5"/>
	<circle cx="25.5652" cy="305.913" r="4" fill="#0" id="circle6"/>
	<circle cx="32.7536" cy="431.71" r="4" fill="#0" id="circle7"/>
	<circle cx="39.942" cy="154.957" r="4" fill="#0" id="circle8"/>
	<circle cx="68.6957" cy="424.522" r="4" fill="#0" id="circle9"/>
	<circle cx="75.8841" cy="169.333" r="4" fill="#0" id="circle10"/>
	<circle cx="104.638" cy="410.145" r="4" fill="#0" id="circle11"/>
	<circle cx="108.232" cy="187.304" r="4" fill="#0" id="circle12"/>
	<circle cx="136.986" cy="392.174" r="4" fill="#0" id="circle13"/>
	<circle cx="140.58" cy="205.275" r="4" fill="#0" id="circle14"/>
	<circle cx="165.739" cy="367.014" r="4" fill="#0" id="circle15"/>
	<circle cx="172.928" cy="223.246" r="4" fill="#0" id="circle16"/>
	<circle cx="201.681" cy="352.638" r="4" fill="#0" id="circle17"/>
	<circle cx="208.87" cy="230.435" r="4" fill="#0" id="circle18"/>
	<circle cx="219.652" cy="384.986" r="4" fill="#0" id="circle19"/>
	<circle cx="226.841" cy="198.087" r="4" fill="#0" id="circle20"/>
	<circle cx="226.841" cy="420.928" r="4" fill="#0" id="circle21"/>
	<circle cx="241.217" cy="456.87" r="4" fill="#0" id="circle22"/>
	<circle cx="248.406" cy="169.333" r="4" fill="#0" id="circle23"/>
	<circle cx="269.971" cy="140.58" r="4" fill="#0" id="circle24"/>
	<circle cx="277.159" cy="467.652" r="4" fill="#0" id="circle25"/>
	<circle cx="298.725" cy="111.826" r="4" fill="#0" id="circle26"/>
	<circle cx="313.101" cy="467.652" r="4" fill="#0" id="circle27"/>
	<circle cx="334.667" cy="97.4493" r="4" fill="#0" id="circle28"/>
	<circle cx="349.043" cy="453.275" r="4" fill="#0" id="circle29"/>
	<circle cx="370.609" cy="108.232" r="4" fill="#0" id="circle30"/>
	<circle cx="384.986" cy="438.899" r="4" fill="#0" id="circle31"/>
	<circle cx="402.957" cy="126.203" r="4" fill="#0" id="circle32"/>
	<circle cx="420.928" cy="446.087" r="4" fill="#0" id="circle33"/>
	<circle cx="438.899" cy="108.232" r="4" fill="#0" id="circle34"/>
	<circle cx="456.87" cy="446.087" r="4" fill="#0" id="circle35"/>
	<circle cx="467.652" cy="86.6667" r="4" fill="#0" id="circle36"/>
	<circle cx="492.812" cy="453.275" r="4" fill="#0" id="circle37"/>
	<circle cx="496.406" cy="61.5072" r="4" fill="#0" id="circle38"/>
	<circle cx="507.188" cy="521.565" r="4" fill="#0" id="circle39"/>
	<circle cx="507.188" cy="564.696" r="4" fill="#0" id="circle40"/>
	<circle cx="514.377" cy="485.623" r="4" fill="#0" id="circle41"/>
	<circle cx="532.348" cy="50.7246" r="4" fill="#0" id="circle42"/>
	<circle cx="532.348" cy="453.275" r="4" fill="#0" id="circle43"/>
	<circle cx="535.942" cy="586.261" r="4" fill="#0" id="circle44"/>
	<circle cx="568.29" cy="36.3478" r="4" fill="#0" id="circle45"/>
	<circle cx="571.884" cy="568.29" r="4" fill="#0" id="circle46"/>
	<circle cx="600.638" cy="18.3768" r="4" fill="#0" id="circle47"/>
	<circle cx="604.232" cy="550.319" r="4" fill="#0" id="circle48"/>
	<circle cx="636.58" cy="4" r="4" fill="#0" id="circle49"/>
	<circle cx="636.58" cy="568.29" r="4" fill="#0" id="circle50"/>
	<circle cx="665.333" cy="29.1594" r="4" fill="#0" id="circle51"/>
	<circle cx="668.928" cy="586.261" r="4" fill="#0" id="circle52"/>
	<circle cx="676.116" cy="65.1014" r="4" fill="#0" id="circle53"/>
	<circle cx="701.275" cy="115.42" r="4" fill="#0" id="circle54"/>
	<circle cx="701.275" cy="568.29" r="4" fill="#0" id="circle55"/>
	<circle cx="719.246" cy="535.942" r="4" fill="#0" id="circle56"/>
	<circle cx="733.623" cy="133.391" r="4" fill="#0" id="circle57"/>
	<circle cx="733.623" cy="471.246" r="4" fill="#0" id="circle58"/>
	<circle cx="765.971" cy="453.275" r="4" fill="#0" id="circle59"/>
	<circle cx="769.565" cy="140.58" r="4" fill="#0" id="circle60"/>
	<circle cx="801.913" cy="446.087" r="4" fill="#0" id="circle61"/>
	<circle cx="805.507" cy="154.957" r="4" fill="#0" id="circle62"/>
	<circle cx="830.667" cy="424.522" r="4" fill="#0" id="circle63"/>
	<circle cx="841.449" cy="169.333" r="4" fill="#0" id="circle64"/>
	<circle cx="866.609" cy="417.333" r="4" fill="#0" id="circle65"/>
	<circle cx="877.391" cy="183.71" r="4" fill="#0" id="circle66"/>
	<circle cx="902.551" cy="402.957" r="4" fill="#0" id="circle67"/>
	<circle cx="913.333" cy="198.087" r="4" fill="#0" id="circle68"/>
	<circle cx="931.304" cy="381.391" r="4" fill="#0" id="circle69"/>
	<circle cx="938.493" cy="226.841" r="4" fill="#0" id="circle70"/>
	<circle cx="952.87" cy="352.638" r="4" fill="#0" id="circle71"/>
	<circle cx="970.841" cy="244.812" r="4" fill="#0" id="circle72"/>
	<circle cx="974.435" cy="323.884" r="4" fill="#0" id="circle73"/>
	<circle cx="996" cy="295.13" r="4" fill="#0" id="circle74"/>
	</g>
</svg>