<?xml version="1.0" encoding="UTF-8" standalone="no"?>
<!-- Created with CurveBenchmark -->
<svg
	xmlns:dc="http://purl.org/dc/elements/1.1/"
	xmlns:cc="http://creativecommons.org/ns#"
	xmlns:rdf="http://www.w3.org/1999/02/22-rdf-syntax-ns#"
	xmlns:svg="http://www.w3.org/2000/svg"
	xmlns="http://www.w3.org/2000/svg"
	xmlns:sodipodi="http://sodipodi.sourceforge.net/DTD/sodipodi-0.dtd"
	xmlns:inkscape="http://www.inkscape.org/namespaces/inkscape"
	width="1000"
	height="1000"
	id="svg2"
	version="1.1"
	sodipodi:docname="manifold/crust-brick02.png.txt">
<defs
	id="defs4" />
<metadata
	id="metadata7">
	<rdf:RDF>
		<cc:Work
			rdf:about="">
			<dc:format>image/svg+xml</dc:format>
			<dc:type
				rdf:resource="http://purl.org/dc/dcmitype/StillImage" />
			<dc:title></dc:title>
		</cc:Work>
	</rdf:RDF>
</metadata>
<g
	inkscape:label="Layer 1"
	inkscape:groupmode="layer"
	id="layer1">
	<path style="fill:none;stroke:red;stroke-width:1px;stroke-linecap:butt;stroke-linejoin:miter;stroke-opacity:1" d="M 106.75,46.968 116.09,28.2863 z" id="boundary" inkscape:connector-curvature="0" />
	<path style="fill:none;stroke:red;stroke-width:1px;stroke-linecap:butt;stroke-linejoin:miter;stroke-opacity:1" d="M 134.772,18.9454 116.09,28.2863 z" id="boundary" inkscape:connector-curvature="0" />
	<path style="fill:none;stroke:red;stroke-width:1px;stroke-linecap:butt;stroke-linejoin:miter;stroke-opacity:1" d="M 106.75,46.968 97.4087,65.6497 z" id="boundary" inkscape:connector-curvature="0" />
	<path style="fill:none;stroke:red;stroke-width:1px;stroke-linecap:butt;stroke-linejoin:miter;stroke-opacity:1" d="M 97.4087,84.3315 97.4087,65.6497 z" id="boundary" inkscape:connector-curvature="0" />
	<path style="fill:none;stroke:red;stroke-width:1px;stroke-linecap:butt;stroke-linejoin:miter;stroke-opacity:1" d="M 97.4087,103.013 97.4087,84.3315 z" id="boundary" inkscape:connector-curvature="0" />
	<path style="fill:none;stroke:red;stroke-width:1px;stroke-linecap:butt;stroke-linejoin:miter;stroke-opacity:1" d="M 134.772,18.9454 153.454,13.3409 z" id="boundary" inkscape:connector-curvature="0" />
	<path style="fill:none;stroke:red;stroke-width:1px;stroke-linecap:butt;stroke-linejoin:miter;stroke-opacity:1" d="M 246.863,4 228.181,4 z" id="boundary" inkscape:connector-curvature="0" />
	<path style="fill:none;stroke:red;stroke-width:1px;stroke-linecap:butt;stroke-linejoin:miter;stroke-opacity:1" d="M 190.817,9.60452 209.499,4 z" id="boundary" inkscape:connector-curvature="0" />
	<path style="fill:none;stroke:red;stroke-width:1px;stroke-linecap:butt;stroke-linejoin:miter;stroke-opacity:1" d="M 228.181,4 209.499,4 z" id="boundary" inkscape:connector-curvature="0" />
	<path style="fill:none;stroke:red;stroke-width:1px;stroke-linecap:butt;stroke-linejoin:miter;stroke-opacity:1" d="M 190.817,9.60452 172.136,13.3409 z" id="boundary" inkscape:connector-curvature="0" />
	<path style="fill:none;stroke:red;stroke-width:1px;stroke-linecap:butt;stroke-linejoin:miter;stroke-opacity:1" d="M 153.454,13.3409 172.136,13.3409 z" id="boundary" inkscape:connector-curvature="0" />
	<path style="fill:none;stroke:red;stroke-width:1px;stroke-linecap:butt;stroke-linejoin:miter;stroke-opacity:1" d="M 97.4087,121.695 84.3315,153.454 z" id="boundary" inkscape:connector-curvature="0" />
	<path style="fill:none;stroke:red;stroke-width:1px;stroke-linecap:butt;stroke-linejoin:miter;stroke-opacity:1" d="M 84.3315,153.454 69.3861,168.399 z" id="boundary" inkscape:connector-curvature="0" />
	<path style="fill:none;stroke:red;stroke-width:1px;stroke-linecap:butt;stroke-linejoin:miter;stroke-opacity:1" d="M 32.0226,215.104 13.3409,224.444 z" id="boundary" inkscape:connector-curvature="0" />
	<path style="fill:none;stroke:red;stroke-width:1px;stroke-linecap:butt;stroke-linejoin:miter;stroke-opacity:1" d="M 50.7043,205.763 32.0226,215.104 z" id="boundary" inkscape:connector-curvature="0" />
	<path style="fill:none;stroke:red;stroke-width:1px;stroke-linecap:butt;stroke-linejoin:miter;stroke-opacity:1" d="M 50.7043,205.763 60.0452,187.081 z" id="boundary" inkscape:connector-curvature="0" />
	<path style="fill:none;stroke:red;stroke-width:1px;stroke-linecap:butt;stroke-linejoin:miter;stroke-opacity:1" d="M 69.3861,168.399 60.0452,187.081 z" id="boundary" inkscape:connector-curvature="0" />
	<path style="fill:none;stroke:red;stroke-width:1px;stroke-linecap:butt;stroke-linejoin:miter;stroke-opacity:1" d="M 97.4087,121.695 97.4087,103.013 z" id="boundary" inkscape:connector-curvature="0" />
	<path style="fill:none;stroke:red;stroke-width:1px;stroke-linecap:butt;stroke-linejoin:miter;stroke-opacity:1" d="M 13.3409,224.444 4,243.126 z" id="boundary" inkscape:connector-curvature="0" />
	<path style="fill:none;stroke:red;stroke-width:1px;stroke-linecap:butt;stroke-linejoin:miter;stroke-opacity:1" d="M 246.863,4 265.544,4 z" id="boundary" inkscape:connector-curvature="0" />
	<path style="fill:none;stroke:red;stroke-width:1px;stroke-linecap:butt;stroke-linejoin:miter;stroke-opacity:1" d="M 284.226,4 265.544,4 z" id="boundary" inkscape:connector-curvature="0" />
	<path style="fill:none;stroke:red;stroke-width:1px;stroke-linecap:butt;stroke-linejoin:miter;stroke-opacity:1" d="M 301.04,13.3409 284.226,4 z" id="boundary" inkscape:connector-curvature="0" />
	<path style="fill:none;stroke:red;stroke-width:1px;stroke-linecap:butt;stroke-linejoin:miter;stroke-opacity:1" d="M 301.04,13.3409 314.117,28.2863 z" id="boundary" inkscape:connector-curvature="0" />
	<path style="fill:none;stroke:red;stroke-width:1px;stroke-linecap:butt;stroke-linejoin:miter;stroke-opacity:1" d="M 345.876,50.7043 329.062,41.3635 z" id="boundary" inkscape:connector-curvature="0" />
	<path style="fill:none;stroke:red;stroke-width:1px;stroke-linecap:butt;stroke-linejoin:miter;stroke-opacity:1" d="M 329.062,41.3635 314.117,28.2863 z" id="boundary" inkscape:connector-curvature="0" />
	<path style="fill:none;stroke:red;stroke-width:1px;stroke-linecap:butt;stroke-linejoin:miter;stroke-opacity:1" d="M 358.953,65.6497 345.876,50.7043 z" id="boundary" inkscape:connector-curvature="0" />
	<path style="fill:none;stroke:red;stroke-width:1px;stroke-linecap:butt;stroke-linejoin:miter;stroke-opacity:1" d="M 527.089,60.0452 508.407,65.6497 z" id="boundary" inkscape:connector-curvature="0" />
	<path style="fill:none;stroke:red;stroke-width:1px;stroke-linecap:butt;stroke-linejoin:miter;stroke-opacity:1" d="M 396.316,78.7269 377.635,73.1224 z" id="boundary" inkscape:connector-curvature="0" />
	<path style="fill:none;stroke:red;stroke-width:1px;stroke-linecap:butt;stroke-linejoin:miter;stroke-opacity:1" d="M 377.635,73.1224 358.953,65.6497 z" id="boundary" inkscape:connector-curvature="0" />
	<path style="fill:none;stroke:red;stroke-width:1px;stroke-linecap:butt;stroke-linejoin:miter;stroke-opacity:1" d="M 433.68,78.7269 414.998,78.7269 z" id="boundary" inkscape:connector-curvature="0" />
	<path style="fill:none;stroke:red;stroke-width:1px;stroke-linecap:butt;stroke-linejoin:miter;stroke-opacity:1" d="M 489.725,69.3861 471.043,74.9906 z" id="boundary" inkscape:connector-curvature="0" />
	<path style="fill:none;stroke:red;stroke-width:1px;stroke-linecap:butt;stroke-linejoin:miter;stroke-opacity:1" d="M 471.043,74.9906 452.362,78.7269 z" id="boundary" inkscape:connector-curvature="0" />
	<path style="fill:none;stroke:red;stroke-width:1px;stroke-linecap:butt;stroke-linejoin:miter;stroke-opacity:1" d="M 396.316,78.7269 414.998,78.7269 z" id="boundary" inkscape:connector-curvature="0" />
	<path style="fill:none;stroke:red;stroke-width:1px;stroke-linecap:butt;stroke-linejoin:miter;stroke-opacity:1" d="M 433.68,78.7269 452.362,78.7269 z" id="boundary" inkscape:connector-curvature="0" />
	<path style="fill:none;stroke:red;stroke-width:1px;stroke-linecap:butt;stroke-linejoin:miter;stroke-opacity:1" d="M 508.407,65.6497 489.725,69.3861 z" id="boundary" inkscape:connector-curvature="0" />
	<path style="fill:none;stroke:red;stroke-width:1px;stroke-linecap:butt;stroke-linejoin:miter;stroke-opacity:1" d="M 4,243.126 4,261.808 z" id="boundary" inkscape:connector-curvature="0" />
	<path style="fill:none;stroke:red;stroke-width:1px;stroke-linecap:butt;stroke-linejoin:miter;stroke-opacity:1" d="M 4,280.49 4,261.808 z" id="boundary" inkscape:connector-curvature="0" />
	<path style="fill:none;stroke:red;stroke-width:1px;stroke-linecap:butt;stroke-linejoin:miter;stroke-opacity:1" d="M 4,280.49 13.3409,297.303 z" id="boundary" inkscape:connector-curvature="0" />
	<path style="fill:none;stroke:red;stroke-width:1px;stroke-linecap:butt;stroke-linejoin:miter;stroke-opacity:1" d="M 13.3409,297.303 13.3409,315.985 z" id="boundary" inkscape:connector-curvature="0" />
	<path style="fill:none;stroke:red;stroke-width:1px;stroke-linecap:butt;stroke-linejoin:miter;stroke-opacity:1" d="M 26.4181,330.93 13.3409,315.985 z" id="boundary" inkscape:connector-curvature="0" />
	<path style="fill:none;stroke:red;stroke-width:1px;stroke-linecap:butt;stroke-linejoin:miter;stroke-opacity:1" d="M 41.3635,342.139 26.4181,330.93 z" id="boundary" inkscape:connector-curvature="0" />
	<path style="fill:none;stroke:red;stroke-width:1px;stroke-linecap:butt;stroke-linejoin:miter;stroke-opacity:1" d="M 41.3635,342.139 58.177,332.798 z" id="boundary" inkscape:connector-curvature="0" />
	<path style="fill:none;stroke:red;stroke-width:1px;stroke-linecap:butt;stroke-linejoin:miter;stroke-opacity:1" d="M 58.177,332.798 76.8588,332.798 z" id="boundary" inkscape:connector-curvature="0" />
	<path style="fill:none;stroke:red;stroke-width:1px;stroke-linecap:butt;stroke-linejoin:miter;stroke-opacity:1" d="M 95.5405,332.798 76.8588,332.798 z" id="boundary" inkscape:connector-curvature="0" />
	<path style="fill:none;stroke:red;stroke-width:1px;stroke-linecap:butt;stroke-linejoin:miter;stroke-opacity:1" d="M 114.222,332.798 95.5405,332.798 z" id="boundary" inkscape:connector-curvature="0" />
	<path style="fill:none;stroke:red;stroke-width:1px;stroke-linecap:butt;stroke-linejoin:miter;stroke-opacity:1" d="M 114.222,332.798 132.904,332.798 z" id="boundary" inkscape:connector-curvature="0" />
	<path style="fill:none;stroke:red;stroke-width:1px;stroke-linecap:butt;stroke-linejoin:miter;stroke-opacity:1" d="M 132.904,332.798 151.586,332.798 z" id="boundary" inkscape:connector-curvature="0" />
	<path style="fill:none;stroke:red;stroke-width:1px;stroke-linecap:butt;stroke-linejoin:miter;stroke-opacity:1" d="M 170.267,332.798 151.586,332.798 z" id="boundary" inkscape:connector-curvature="0" />
	<path style="fill:none;stroke:red;stroke-width:1px;stroke-linecap:butt;stroke-linejoin:miter;stroke-opacity:1" d="M 188.949,332.798 207.631,332.798 z" id="boundary" inkscape:connector-curvature="0" />
	<path style="fill:none;stroke:red;stroke-width:1px;stroke-linecap:butt;stroke-linejoin:miter;stroke-opacity:1" d="M 170.267,332.798 188.949,332.798 z" id="boundary" inkscape:connector-curvature="0" />
	<path style="fill:none;stroke:red;stroke-width:1px;stroke-linecap:butt;stroke-linejoin:miter;stroke-opacity:1" d="M 239.39,355.217 252.467,370.162 z" id="boundary" inkscape:connector-curvature="0" />
	<path style="fill:none;stroke:red;stroke-width:1px;stroke-linecap:butt;stroke-linejoin:miter;stroke-opacity:1" d="M 239.39,355.217 224.444,342.139 z" id="boundary" inkscape:connector-curvature="0" />
	<path style="fill:none;stroke:red;stroke-width:1px;stroke-linecap:butt;stroke-linejoin:miter;stroke-opacity:1" d="M 287.962,386.976 271.149,377.635 z" id="boundary" inkscape:connector-curvature="0" />
	<path style="fill:none;stroke:red;stroke-width:1px;stroke-linecap:butt;stroke-linejoin:miter;stroke-opacity:1" d="M 271.149,377.635 252.467,370.162 z" id="boundary" inkscape:connector-curvature="0" />
	<path style="fill:none;stroke:red;stroke-width:1px;stroke-linecap:butt;stroke-linejoin:miter;stroke-opacity:1" d="M 224.444,342.139 207.631,332.798 z" id="boundary" inkscape:connector-curvature="0" />
	<path style="fill:none;stroke:red;stroke-width:1px;stroke-linecap:butt;stroke-linejoin:miter;stroke-opacity:1" d="M 287.962,386.976 302.908,398.185 z" id="boundary" inkscape:connector-curvature="0" />
	<path style="fill:none;stroke:red;stroke-width:1px;stroke-linecap:butt;stroke-linejoin:miter;stroke-opacity:1" d="M 319.721,407.525 302.908,398.185 z" id="boundary" inkscape:connector-curvature="0" />
	<path style="fill:none;stroke:red;stroke-width:1px;stroke-linecap:butt;stroke-linejoin:miter;stroke-opacity:1" d="M 338.403,407.525 319.721,407.525 z" id="boundary" inkscape:connector-curvature="0" />
	<path style="fill:none;stroke:red;stroke-width:1px;stroke-linecap:butt;stroke-linejoin:miter;stroke-opacity:1" d="M 357.085,407.525 338.403,407.525 z" id="boundary" inkscape:connector-curvature="0" />
	<path style="fill:none;stroke:red;stroke-width:1px;stroke-linecap:butt;stroke-linejoin:miter;stroke-opacity:1" d="M 392.58,398.185 375.766,407.525 z" id="boundary" inkscape:connector-curvature="0" />
	<path style="fill:none;stroke:red;stroke-width:1px;stroke-linecap:butt;stroke-linejoin:miter;stroke-opacity:1" d="M 375.766,407.525 357.085,407.525 z" id="boundary" inkscape:connector-curvature="0" />
	<path style="fill:none;stroke:red;stroke-width:1px;stroke-linecap:butt;stroke-linejoin:miter;stroke-opacity:1" d="M 448.625,396.316 429.944,398.185 z" id="boundary" inkscape:connector-curvature="0" />
	<path style="fill:none;stroke:red;stroke-width:1px;stroke-linecap:butt;stroke-linejoin:miter;stroke-opacity:1" d="M 429.944,398.185 411.262,398.185 z" id="boundary" inkscape:connector-curvature="0" />
	<path style="fill:none;stroke:red;stroke-width:1px;stroke-linecap:butt;stroke-linejoin:miter;stroke-opacity:1" d="M 448.625,396.316 467.307,388.844 z" id="boundary" inkscape:connector-curvature="0" />
	<path style="fill:none;stroke:red;stroke-width:1px;stroke-linecap:butt;stroke-linejoin:miter;stroke-opacity:1" d="M 485.989,388.844 467.307,388.844 z" id="boundary" inkscape:connector-curvature="0" />
	<path style="fill:none;stroke:red;stroke-width:1px;stroke-linecap:butt;stroke-linejoin:miter;stroke-opacity:1" d="M 411.262,398.185 392.58,398.185 z" id="boundary" inkscape:connector-curvature="0" />
	<path style="fill:none;stroke:red;stroke-width:1px;stroke-linecap:butt;stroke-linejoin:miter;stroke-opacity:1" d="M 485.989,388.844 504.67,388.844 z" id="boundary" inkscape:connector-curvature="0" />
	<path style="fill:none;stroke:red;stroke-width:1px;stroke-linecap:butt;stroke-linejoin:miter;stroke-opacity:1" d="M 521.484,379.503 504.67,388.844 z" id="boundary" inkscape:connector-curvature="0" />
	<path style="fill:none;stroke:red;stroke-width:1px;stroke-linecap:butt;stroke-linejoin:miter;stroke-opacity:1" d="M 618.629,50.7043 599.947,50.7043 z" id="boundary" inkscape:connector-curvature="0" />
	<path style="fill:none;stroke:red;stroke-width:1px;stroke-linecap:butt;stroke-linejoin:miter;stroke-opacity:1" d="M 527.089,60.0452 543.902,50.7043 z" id="boundary" inkscape:connector-curvature="0" />
	<path style="fill:none;stroke:red;stroke-width:1px;stroke-linecap:butt;stroke-linejoin:miter;stroke-opacity:1" d="M 562.584,50.7043 543.902,50.7043 z" id="boundary" inkscape:connector-curvature="0" />
	<path style="fill:none;stroke:red;stroke-width:1px;stroke-linecap:butt;stroke-linejoin:miter;stroke-opacity:1" d="M 562.584,50.7043 581.266,50.7043 z" id="boundary" inkscape:connector-curvature="0" />
	<path style="fill:none;stroke:red;stroke-width:1px;stroke-linecap:butt;stroke-linejoin:miter;stroke-opacity:1" d="M 599.947,50.7043 581.266,50.7043 z" id="boundary" inkscape:connector-curvature="0" />
	<path style="fill:none;stroke:red;stroke-width:1px;stroke-linecap:butt;stroke-linejoin:miter;stroke-opacity:1" d="M 637.311,50.7043 618.629,50.7043 z" id="boundary" inkscape:connector-curvature="0" />
	<path style="fill:none;stroke:red;stroke-width:1px;stroke-linecap:butt;stroke-linejoin:miter;stroke-opacity:1" d="M 655.992,50.7043 637.311,50.7043 z" id="boundary" inkscape:connector-curvature="0" />
	<path style="fill:none;stroke:red;stroke-width:1px;stroke-linecap:butt;stroke-linejoin:miter;stroke-opacity:1" d="M 674.674,50.7043 655.992,50.7043 z" id="boundary" inkscape:connector-curvature="0" />
	<path style="fill:none;stroke:red;stroke-width:1px;stroke-linecap:butt;stroke-linejoin:miter;stroke-opacity:1" d="M 693.356,50.7043 674.674,50.7043 z" id="boundary" inkscape:connector-curvature="0" />
	<path style="fill:none;stroke:red;stroke-width:1px;stroke-linecap:butt;stroke-linejoin:miter;stroke-opacity:1" d="M 728.851,61.9134 712.038,52.5725 z" id="boundary" inkscape:connector-curvature="0" />
	<path style="fill:none;stroke:red;stroke-width:1px;stroke-linecap:butt;stroke-linejoin:miter;stroke-opacity:1" d="M 743.797,74.9906 728.851,61.9134 z" id="boundary" inkscape:connector-curvature="0" />
	<path style="fill:none;stroke:red;stroke-width:1px;stroke-linecap:butt;stroke-linejoin:miter;stroke-opacity:1" d="M 693.356,50.7043 712.038,52.5725 z" id="boundary" inkscape:connector-curvature="0" />
	<path style="fill:none;stroke:red;stroke-width:1px;stroke-linecap:butt;stroke-linejoin:miter;stroke-opacity:1" d="M 743.797,74.9906 758.742,88.0678 z" id="boundary" inkscape:connector-curvature="0" />
	<path style="fill:none;stroke:red;stroke-width:1px;stroke-linecap:butt;stroke-linejoin:miter;stroke-opacity:1" d="M 758.742,88.0678 777.424,89.936 z" id="boundary" inkscape:connector-curvature="0" />
	<path style="fill:none;stroke:red;stroke-width:1px;stroke-linecap:butt;stroke-linejoin:miter;stroke-opacity:1" d="M 796.105,97.4087 777.424,89.936 z" id="boundary" inkscape:connector-curvature="0" />
	<path style="fill:none;stroke:red;stroke-width:1px;stroke-linecap:butt;stroke-linejoin:miter;stroke-opacity:1" d="M 814.787,97.4087 833.469,97.4087 z" id="boundary" inkscape:connector-curvature="0" />
	<path style="fill:none;stroke:red;stroke-width:1px;stroke-linecap:butt;stroke-linejoin:miter;stroke-opacity:1" d="M 850.282,106.75 833.469,97.4087 z" id="boundary" inkscape:connector-curvature="0" />
	<path style="fill:none;stroke:red;stroke-width:1px;stroke-linecap:butt;stroke-linejoin:miter;stroke-opacity:1" d="M 887.646,106.75 868.964,106.75 z" id="boundary" inkscape:connector-curvature="0" />
	<path style="fill:none;stroke:red;stroke-width:1px;stroke-linecap:butt;stroke-linejoin:miter;stroke-opacity:1" d="M 906.328,106.75 887.646,106.75 z" id="boundary" inkscape:connector-curvature="0" />
	<path style="fill:none;stroke:red;stroke-width:1px;stroke-linecap:butt;stroke-linejoin:miter;stroke-opacity:1" d="M 868.964,106.75 850.282,106.75 z" id="boundary" inkscape:connector-curvature="0" />
	<path style="fill:none;stroke:red;stroke-width:1px;stroke-linecap:butt;stroke-linejoin:miter;stroke-opacity:1" d="M 796.105,97.4087 814.787,97.4087 z" id="boundary" inkscape:connector-curvature="0" />
	<path style="fill:none;stroke:red;stroke-width:1px;stroke-linecap:butt;stroke-linejoin:miter;stroke-opacity:1" d="M 925.009,106.75 906.328,106.75 z" id="boundary" inkscape:connector-curvature="0" />
	<path style="fill:none;stroke:red;stroke-width:1px;stroke-linecap:butt;stroke-linejoin:miter;stroke-opacity:1" d="M 943.691,106.75 925.009,106.75 z" id="boundary" inkscape:connector-curvature="0" />
	<path style="fill:none;stroke:red;stroke-width:1px;stroke-linecap:butt;stroke-linejoin:miter;stroke-opacity:1" d="M 962.373,106.75 943.691,106.75 z" id="boundary" inkscape:connector-curvature="0" />
	<path style="fill:none;stroke:red;stroke-width:1px;stroke-linecap:butt;stroke-linejoin:miter;stroke-opacity:1" d="M 962.373,106.75 967.977,125.431 z" id="boundary" inkscape:connector-curvature="0" />
	<path style="fill:none;stroke:red;stroke-width:1px;stroke-linecap:butt;stroke-linejoin:miter;stroke-opacity:1" d="M 967.977,125.431 977.318,142.245 z" id="boundary" inkscape:connector-curvature="0" />
	<path style="fill:none;stroke:red;stroke-width:1px;stroke-linecap:butt;stroke-linejoin:miter;stroke-opacity:1" d="M 986.659,159.058 977.318,142.245 z" id="boundary" inkscape:connector-curvature="0" />
	<path style="fill:none;stroke:red;stroke-width:1px;stroke-linecap:butt;stroke-linejoin:miter;stroke-opacity:1" d="M 996,196.422 992.264,216.972 z" id="boundary" inkscape:connector-curvature="0" />
	<path style="fill:none;stroke:red;stroke-width:1px;stroke-linecap:butt;stroke-linejoin:miter;stroke-opacity:1" d="M 994.132,177.74 996,196.422 z" id="boundary" inkscape:connector-curvature="0" />
	<path style="fill:none;stroke:red;stroke-width:1px;stroke-linecap:butt;stroke-linejoin:miter;stroke-opacity:1" d="M 986.659,159.058 994.132,177.74 z" id="boundary" inkscape:connector-curvature="0" />
	<path style="fill:none;stroke:red;stroke-width:1px;stroke-linecap:butt;stroke-linejoin:miter;stroke-opacity:1" d="M 992.264,216.972 977.318,230.049 z" id="boundary" inkscape:connector-curvature="0" />
	<path style="fill:none;stroke:red;stroke-width:1px;stroke-linecap:butt;stroke-linejoin:miter;stroke-opacity:1" d="M 521.484,379.503 540.166,379.503 z" id="boundary" inkscape:connector-curvature="0" />
	<path style="fill:none;stroke:red;stroke-width:1px;stroke-linecap:butt;stroke-linejoin:miter;stroke-opacity:1" d="M 558.847,379.503 540.166,379.503 z" id="boundary" inkscape:connector-curvature="0" />
	<path style="fill:none;stroke:red;stroke-width:1px;stroke-linecap:butt;stroke-linejoin:miter;stroke-opacity:1" d="M 577.529,379.503 596.211,379.503 z" id="boundary" inkscape:connector-curvature="0" />
	<path style="fill:none;stroke:red;stroke-width:1px;stroke-linecap:butt;stroke-linejoin:miter;stroke-opacity:1" d="M 596.211,379.503 614.893,379.503 z" id="boundary" inkscape:connector-curvature="0" />
	<path style="fill:none;stroke:red;stroke-width:1px;stroke-linecap:butt;stroke-linejoin:miter;stroke-opacity:1" d="M 577.529,379.503 558.847,379.503 z" id="boundary" inkscape:connector-curvature="0" />
	<path style="fill:none;stroke:red;stroke-width:1px;stroke-linecap:butt;stroke-linejoin:miter;stroke-opacity:1" d="M 633.574,379.503 652.256,379.503 z" id="boundary" inkscape:connector-curvature="0" />
	<path style="fill:none;stroke:red;stroke-width:1px;stroke-linecap:butt;stroke-linejoin:miter;stroke-opacity:1" d="M 670.938,379.503 652.256,379.503 z" id="boundary" inkscape:connector-curvature="0" />
	<path style="fill:none;stroke:red;stroke-width:1px;stroke-linecap:butt;stroke-linejoin:miter;stroke-opacity:1" d="M 689.62,385.107 670.938,379.503 z" id="boundary" inkscape:connector-curvature="0" />
	<path style="fill:none;stroke:red;stroke-width:1px;stroke-linecap:butt;stroke-linejoin:miter;stroke-opacity:1" d="M 614.893,379.503 633.574,379.503 z" id="boundary" inkscape:connector-curvature="0" />
	<path style="fill:none;stroke:red;stroke-width:1px;stroke-linecap:butt;stroke-linejoin:miter;stroke-opacity:1" d="M 706.433,394.448 721.379,407.525 z" id="boundary" inkscape:connector-curvature="0" />
	<path style="fill:none;stroke:red;stroke-width:1px;stroke-linecap:butt;stroke-linejoin:miter;stroke-opacity:1" d="M 734.456,422.471 721.379,407.525 z" id="boundary" inkscape:connector-curvature="0" />
	<path style="fill:none;stroke:red;stroke-width:1px;stroke-linecap:butt;stroke-linejoin:miter;stroke-opacity:1" d="M 753.137,429.944 734.456,422.471 z" id="boundary" inkscape:connector-curvature="0" />
	<path style="fill:none;stroke:red;stroke-width:1px;stroke-linecap:butt;stroke-linejoin:miter;stroke-opacity:1" d="M 766.215,444.889 753.137,429.944 z" id="boundary" inkscape:connector-curvature="0" />
	<path style="fill:none;stroke:red;stroke-width:1px;stroke-linecap:butt;stroke-linejoin:miter;stroke-opacity:1" d="M 689.62,385.107 706.433,394.448 z" id="boundary" inkscape:connector-curvature="0" />
	<path style="fill:none;stroke:red;stroke-width:1px;stroke-linecap:butt;stroke-linejoin:miter;stroke-opacity:1" d="M 766.215,444.889 784.896,444.889 z" id="boundary" inkscape:connector-curvature="0" />
	<path style="fill:none;stroke:red;stroke-width:1px;stroke-linecap:butt;stroke-linejoin:miter;stroke-opacity:1" d="M 803.578,444.889 784.896,444.889 z" id="boundary" inkscape:connector-curvature="0" />
	<path style="fill:none;stroke:red;stroke-width:1px;stroke-linecap:butt;stroke-linejoin:miter;stroke-opacity:1" d="M 911.932,332.798 911.932,351.48 z" id="boundary" inkscape:connector-curvature="0" />
	<path style="fill:none;stroke:red;stroke-width:1px;stroke-linecap:butt;stroke-linejoin:miter;stroke-opacity:1" d="M 958.637,267.412 949.296,286.094 z" id="boundary" inkscape:connector-curvature="0" />
	<path style="fill:none;stroke:red;stroke-width:1px;stroke-linecap:butt;stroke-linejoin:miter;stroke-opacity:1" d="M 967.977,248.731 958.637,267.412 z" id="boundary" inkscape:connector-curvature="0" />
	<path style="fill:none;stroke:red;stroke-width:1px;stroke-linecap:butt;stroke-linejoin:miter;stroke-opacity:1" d="M 949.296,286.094 939.955,304.776 z" id="boundary" inkscape:connector-curvature="0" />
	<path style="fill:none;stroke:red;stroke-width:1px;stroke-linecap:butt;stroke-linejoin:miter;stroke-opacity:1" d="M 967.977,248.731 977.318,230.049 z" id="boundary" inkscape:connector-curvature="0" />
	<path style="fill:none;stroke:red;stroke-width:1px;stroke-linecap:butt;stroke-linejoin:miter;stroke-opacity:1" d="M 921.273,314.117 939.955,304.776 z" id="boundary" inkscape:connector-curvature="0" />
	<path style="fill:none;stroke:red;stroke-width:1px;stroke-linecap:butt;stroke-linejoin:miter;stroke-opacity:1" d="M 911.932,332.798 921.273,314.117 z" id="boundary" inkscape:connector-curvature="0" />
	<path style="fill:none;stroke:red;stroke-width:1px;stroke-linecap:butt;stroke-linejoin:miter;stroke-opacity:1" d="M 840.942,443.021 822.26,444.889 z" id="boundary" inkscape:connector-curvature="0" />
	<path style="fill:none;stroke:red;stroke-width:1px;stroke-linecap:butt;stroke-linejoin:miter;stroke-opacity:1" d="M 822.26,444.889 803.578,444.889 z" id="boundary" inkscape:connector-curvature="0" />
	<path style="fill:none;stroke:red;stroke-width:1px;stroke-linecap:butt;stroke-linejoin:miter;stroke-opacity:1" d="M 859.623,433.68 878.305,424.339 z" id="boundary" inkscape:connector-curvature="0" />
	<path style="fill:none;stroke:red;stroke-width:1px;stroke-linecap:butt;stroke-linejoin:miter;stroke-opacity:1" d="M 859.623,433.68 840.942,443.021 z" id="boundary" inkscape:connector-curvature="0" />
	<path style="fill:none;stroke:red;stroke-width:1px;stroke-linecap:butt;stroke-linejoin:miter;stroke-opacity:1" d="M 896.987,416.866 878.305,424.339 z" id="boundary" inkscape:connector-curvature="0" />
	<path style="fill:none;stroke:red;stroke-width:1px;stroke-linecap:butt;stroke-linejoin:miter;stroke-opacity:1" d="M 921.273,386.976 915.669,414.998 z" id="boundary" inkscape:connector-curvature="0" />
	<path style="fill:none;stroke:red;stroke-width:1px;stroke-linecap:butt;stroke-linejoin:miter;stroke-opacity:1" d="M 911.932,370.162 921.273,386.976 z" id="boundary" inkscape:connector-curvature="0" />
	<path style="fill:none;stroke:red;stroke-width:1px;stroke-linecap:butt;stroke-linejoin:miter;stroke-opacity:1" d="M 896.987,416.866 915.669,414.998 z" id="boundary" inkscape:connector-curvature="0" />
	<path style="fill:none;stroke:red;stroke-width:1px;stroke-linecap:butt;stroke-linejoin:miter;stroke-opacity:1" d="M 911.932,351.48 911.932,370.162 z" id="boundary" inkscape:connector-curvature="0" />
	<circle cx="4" cy="243.126" r="4" fill="#0" id="circle0"/>
	<circle cx="4" cy="261.808" r="4" fill="#0" id="circle1"/>
	<circle cx="4" cy="280.49" r="4" fill="#0" id="circle2"/>
	<circle cx="13.3409" cy="224.444" r="4" fill="#0" id="circle3"/>
	<circle cx="13.3409" cy="297.303" r="4" fill="#0" id="circle4"/>
	<circle cx="13.3409" cy="315.985" r="4" fill="#0" id="circle5"/>
	<circle cx="26.4181" cy="330.93" r="4" fill="#0" id="circle6"/>
	<circle cx="32.0226" cy="215.104" r="4" fill="#0" id="circle7"/>
	<circle cx="41.3635" cy="342.139" r="4" fill="#0" id="circle8"/>
	<circle cx="50.7043" cy="205.763" r="4" fill="#0" id="circle9"/>
	<circle cx="58.177" cy="332.798" r="4" fill="#0" id="circle10"/>
	<circle cx="60.0452" cy="187.081" r="4" fill="#0" id="circle11"/>
	<circle cx="69.3861" cy="168.399" r="4" fill="#0" id="circle12"/>
	<circle cx="76.8588" cy="332.798" r="4" fill="#0" id="circle13"/>
	<circle cx="84.3315" cy="153.454" r="4" fill="#0" id="circle14"/>
	<circle cx="95.5405" cy="332.798" r="4" fill="#0" id="circle15"/>
	<circle cx="97.4087" cy="65.6497" r="4" fill="#0" id="circle16"/>
	<circle cx="97.4087" cy="84.3315" r="4" fill="#0" id="circle17"/>
	<circle cx="97.4087" cy="103.013" r="4" fill="#0" id="circle18"/>
	<circle cx="97.4087" cy="121.695" r="4" fill="#0" id="circle19"/>
	<circle cx="106.75" cy="46.968" r="4" fill="#0" id="circle20"/>
	<circle cx="114.222" cy="332.798" r="4" fill="#0" id="circle21"/>
	<circle cx="116.09" cy="28.2863" r="4" fill="#0" id="circle22"/>
	<circle cx="132.904" cy="332.798" r="4" fill="#0" id="circle23"/>
	<circle cx="134.772" cy="18.9454" r="4" fill="#0" id="circle24"/>
	<circle cx="151.586" cy="332.798" r="4" fill="#0" id="circle25"/>
	<circle cx="153.454" cy="13.3409" r="4" fill="#0" id="circle26"/>
	<circle cx="170.267" cy="332.798" r="4" fill="#0" id="circle27"/>
	<circle cx="172.136" cy="13.3409" r="4" fill="#0" id="circle28"/>
	<circle cx="188.949" cy="332.798" r="4" fill="#0" id="circle29"/>
	<circle cx="190.817" cy="9.60452" r="4" fill="#0" id="circle30"/>
	<circle cx="207.631" cy="332.798" r="4" fill="#0" id="circle31"/>
	<circle cx="209.499" cy="4" r="4" fill="#0" id="circle32"/>
	<circle cx="224.444" cy="342.139" r="4" fill="#0" id="circle33"/>
	<circle cx="228.181" cy="4" r="4" fill="#0" id="circle34"/>
	<circle cx="239.39" cy="355.217" r="4" fill="#0" id="circle35"/>
	<circle cx="246.863" cy="4" r="4" fill="#0" id="circle36"/>
	<circle cx="252.467" cy="370.162" r="4" fill="#0" id="circle37"/>
	<circle cx="265.544" cy="4" r="4" fill="#0" id="circle38"/>
	<circle cx="271.149" cy="377.635" r="4" fill="#0" id="circle39"/>
	<circle cx="284.226" cy="4" r="4" fill="#0" id="circle40"/>
	<circle cx="287.962" cy="386.976" r="4" fill="#0" id="circle41"/>
	<circle cx="301.04" cy="13.3409" r="4" fill="#0" id="circle42"/>
	<circle cx="302.908" cy="398.185" r="4" fill="#0" id="circle43"/>
	<circle cx="314.117" cy="28.2863" r="4" fill="#0" id="circle44"/>
	<circle cx="319.721" cy="407.525" r="4" fill="#0" id="circle45"/>
	<circle cx="329.062" cy="41.3635" r="4" fill="#0" id="circle46"/>
	<circle cx="338.403" cy="407.525" r="4" fill="#0" id="circle47"/>
	<circle cx="345.876" cy="50.7043" r="4" fill="#0" id="circle48"/>
	<circle cx="357.085" cy="407.525" r="4" fill="#0" id="circle49"/>
	<circle cx="358.953" cy="65.6497" r="4" fill="#0" id="circle50"/>
	<circle cx="375.766" cy="407.525" r="4" fill="#0" id="circle51"/>
	<circle cx="377.635" cy="73.1224" r="4" fill="#0" id="circle52"/>
	<circle cx="392.58" cy="398.185" r="4" fill="#0" id="circle53"/>
	<circle cx="396.316" cy="78.7269" r="4" fill="#0" id="circle54"/>
	<circle cx="411.262" cy="398.185" r="4" fill="#0" id="circle55"/>
	<circle cx="414.998" cy="78.7269" r="4" fill="#0" id="circle56"/>
	<circle cx="429.944" cy="398.185" r="4" fill="#0" id="circle57"/>
	<circle cx="433.68" cy="78.7269" r="4" fill="#0" id="circle58"/>
	<circle cx="448.625" cy="396.316" r="4" fill="#0" id="circle59"/>
	<circle cx="452.362" cy="78.7269" r="4" fill="#0" id="circle60"/>
	<circle cx="467.307" cy="388.844" r="4" fill="#0" id="circle61"/>
	<circle cx="471.043" cy="74.9906" r="4" fill="#0" id="circle62"/>
	<circle cx="485.989" cy="388.844" r="4" fill="#0" id="circle63"/>
	<circle cx="489.725" cy="69.3861" r="4" fill="#0" id="circle64"/>
	<circle cx="504.67" cy="388.844" r="4" fill="#0" id="circle65"/>
	<circle cx="508.407" cy="65.6497" r="4" fill="#0" id="circle66"/>
	<circle cx="521.484" cy="379.503" r="4" fill="#0" id="circle67"/>
	<circle cx="527.089" cy="60.0452" r="4" fill="#0" id="circle68"/>
	<circle cx="540.166" cy="379.503" r="4" fill="#0" id="circle69"/>
	<circle cx="543.902" cy="50.7043" r="4" fill="#0" id="circle70"/>
	<circle cx="558.847" cy="379.503" r="4" fill="#0" id="circle71"/>
	<circle cx="562.584" cy="50.7043" r="4" fill="#0" id="circle72"/>
	<circle cx="577.529" cy="379.503" r="4" fill="#0" id="circle73"/>
	<circle cx="581.266" cy="50.7043" r="4" fill="#0" id="circle74"/>
	<circle cx="596.211" cy="379.503" r="4" fill="#0" id="circle75"/>
	<circle cx="599.947" cy="50.7043" r="4" fill="#0" id="circle76"/>
	<circle cx="614.893" cy="379.503" r="4" fill="#0" id="circle77"/>
	<circle cx="618.629" cy="50.7043" r="4" fill="#0" id="circle78"/>
	<circle cx="633.574" cy="379.503" r="4" fill="#0" id="circle79"/>
	<circle cx="637.311" cy="50.7043" r="4" fill="#0" id="circle80"/>
	<circle cx="652.256" cy="379.503" r="4" fill="#0" id="circle81"/>
	<circle cx="655.992" cy="50.7043" r="4" fill="#0" id="circle82"/>
	<circle cx="670.938" cy="379.503" r="4" fill="#0" id="circle83"/>
	<circle cx="674.674" cy="50.7043" r="4" fill="#0" id="circle84"/>
	<circle cx="689.62" cy="385.107" r="4" fill="#0" id="circle85"/>
	<circle cx="693.356" cy="50.7043" r="4" fill="#0" id="circle86"/>
	<circle cx="706.433" cy="394.448" r="4" fill="#0" id="circle87"/>
	<circle cx="712.038" cy="52.5725" r="4" fill="#0" id="circle88"/>
	<circle cx="721.379" cy="407.525" r="4" fill="#0" id="circle89"/>
	<circle cx="728.851" cy="61.9134" r="4" fill="#0" id="circle90"/>
	<circle cx="734.456" cy="422.471" r="4" fill="#0" id="circle91"/>
	<circle cx="743.797" cy="74.9906" r="4" fill="#0" id="circle92"/>
	<circle cx="753.137" cy="429.944" r="4" fill="#0" id="circle93"/>
	<circle cx="758.742" cy="88.0678" r="4" fill="#0" id="circle94"/>
	<circle cx="766.215" cy="444.889" r="4" fill="#0" id="circle95"/>
	<circle cx="777.424" cy="89.936" r="4" fill="#0" id="circle96"/>
	<circle cx="784.896" cy="444.889" r="4" fill="#0" id="circle97"/>
	<circle cx="796.105" cy="97.4087" r="4" fill="#0" id="circle98"/>
	<circle cx="803.578" cy="444.889" r="4" fill="#0" id="circle99"/>
	<circle cx="814.787" cy="97.4087" r="4" fill="#0" id="circle100"/>
	<circle cx="822.26" cy="444.889" r="4" fill="#0" id="circle101"/>
	<circle cx="833.469" cy="97.4087" r="4" fill="#0" id="circle102"/>
	<circle cx="840.942" cy="443.021" r="4" fill="#0" id="circle103"/>
	<circle cx="850.282" cy="106.75" r="4" fill="#0" id="circle104"/>
	<circle cx="859.623" cy="433.68" r="4" fill="#0" id="circle105"/>
	<circle cx="868.964" cy="106.75" r="4" fill="#0" id="circle106"/>
	<circle cx="878.305" cy="424.339" r="4" fill="#0" id="circle107"/>
	<circle cx="887.646" cy="106.75" r="4" fill="#0" id="circle108"/>
	<circle cx="896.987" cy="416.866" r="4" fill="#0" id="circle109"/>
	<circle cx="906.328" cy="106.75" r="4" fill="#0" id="circle110"/>
	<circle cx="911.932" cy="332.798" r="4" fill="#0" id="circle111"/>
	<circle cx="911.932" cy="351.48" r="4" fill="#0" id="circle112"/>
	<circle cx="911.932" cy="370.162" r="4" fill="#0" id="circle113"/>
	<circle cx="915.669" cy="414.998" r="4" fill="#0" id="circle114"/>
	<circle cx="921.273" cy="314.117" r="4" fill="#0" id="circle115"/>
	<circle cx="921.273" cy="386.976" r="4" fill="#0" id="circle116"/>
	<circle cx="925.009" cy="106.75" r="4" fill="#0" id="circle117"/>
	<circle cx="939.955" cy="304.776" r="4" fill="#0" id="circle118"/>
	<circle cx="943.691" cy="106.75" r="4" fill="#0" id="circle119"/>
	<circle cx="949.296" cy="286.094" r="4" fill="#0" id="circle120"/>
	<circle cx="958.637" cy="267.412" r="4" fill="#0" id="circle121"/>
	<circle cx="962.373" cy="106.75" r="4" fill="#0" id="circle122"/>
	<circle cx="967.977" cy="125.431" r="4" fill="#0" id="circle123"/>
	<circle cx="967.977" cy="248.731" r="4" fill="#0" id="circle124"/>
	<circle cx="977.318" cy="142.245" r="4" fill="#0" id="circle125"/>
	<circle cx="977.318" cy="230.049" r="4" fill="#0" id="circle126"/>
	<circle cx="986.659" cy="159.058" r="4" fill="#0" id="circle127"/>
	<circle cx="992.264" cy="216.972" r="4" fill="#0" id="circle128"/>
	<circle cx="994.132" cy="177.74" r="4" fill="#0" id="circle129"/>
	<circle cx="996" cy="196.422" r="4" fill="#0" id="circle130"/>
	</g>
</svg>