<?xml version="1.0" encoding="UTF-8" standalone="no"?>
<!-- Created with CurveBenchmark -->
<svg
	xmlns:dc="http://purl.org/dc/elements/1.1/"
	xmlns:cc="http://creativecommons.org/ns#"
	xmlns:rdf="http://www.w3.org/1999/02/22-rdf-syntax-ns#"
	xmlns:svg="http://www.w3.org/2000/svg"
	xmlns="http://www.w3.org/2000/svg"
	xmlns:sodipodi="http://sodipodi.sourceforge.net/DTD/sodipodi-0.dtd"
	xmlns:inkscape="http://www.inkscape.org/namespaces/inkscape"
	width="1000"
	height="1000"
	id="svg2"
	version="1.1"
	sodipodi:docname="manifold/crust-fountain01.png.txt">
<defs
	id="defs4" />
<metadata
	id="metadata7">
	<rdf:RDF>
		<cc:Work
			rdf:about="">
			<dc:format>image/svg+xml</dc:format>
			<dc:type
				rdf:resource="http://purl.org/dc/dcmitype/StillImage" />
			<dc:title></dc:title>
		</cc:Work>
	</rdf:RDF>
</metadata>
<g
	inkscape:label="Layer 1"
	inkscape:groupmode="layer"
	id="layer1">
	<path style="fill:none;stroke:red;stroke-width:1px;stroke-linecap:butt;stroke-linejoin:miter;stroke-opacity:1" d="M 400.008,152.503 380.208,158.443 z" id="boundary" inkscape:connector-curvature="0" />
	<path style="fill:none;stroke:red;stroke-width:1px;stroke-linecap:butt;stroke-linejoin:miter;stroke-opacity:1" d="M 380.208,158.443 360.407,168.343 z" id="boundary" inkscape:connector-curvature="0" />
	<path style="fill:none;stroke:red;stroke-width:1px;stroke-linecap:butt;stroke-linejoin:miter;stroke-opacity:1" d="M 370.307,186.164 360.407,168.343 z" id="boundary" inkscape:connector-curvature="0" />
	<path style="fill:none;stroke:red;stroke-width:1px;stroke-linecap:butt;stroke-linejoin:miter;stroke-opacity:1" d="M 370.307,186.164 384.168,202.004 z" id="boundary" inkscape:connector-curvature="0" />
	<path style="fill:none;stroke:red;stroke-width:1px;stroke-linecap:butt;stroke-linejoin:miter;stroke-opacity:1" d="M 400.008,213.884 384.168,202.004 z" id="boundary" inkscape:connector-curvature="0" />
	<path style="fill:none;stroke:red;stroke-width:1px;stroke-linecap:butt;stroke-linejoin:miter;stroke-opacity:1" d="M 400.008,213.884 417.828,223.784 z" id="boundary" inkscape:connector-curvature="0" />
	<path style="fill:none;stroke:red;stroke-width:1px;stroke-linecap:butt;stroke-linejoin:miter;stroke-opacity:1" d="M 336.647,370.307 316.846,380.208 z" id="boundary" inkscape:connector-curvature="0" />
	<path style="fill:none;stroke:red;stroke-width:1px;stroke-linecap:butt;stroke-linejoin:miter;stroke-opacity:1" d="M 259.425,400.008 243.585,413.868 z" id="boundary" inkscape:connector-curvature="0" />
	<path style="fill:none;stroke:red;stroke-width:1px;stroke-linecap:butt;stroke-linejoin:miter;stroke-opacity:1" d="M 243.585,413.868 223.784,423.768 z" id="boundary" inkscape:connector-curvature="0" />
	<path style="fill:none;stroke:red;stroke-width:1px;stroke-linecap:butt;stroke-linejoin:miter;stroke-opacity:1" d="M 277.246,390.108 297.046,380.208 z" id="boundary" inkscape:connector-curvature="0" />
	<path style="fill:none;stroke:red;stroke-width:1px;stroke-linecap:butt;stroke-linejoin:miter;stroke-opacity:1" d="M 259.425,400.008 277.246,390.108 z" id="boundary" inkscape:connector-curvature="0" />
	<path style="fill:none;stroke:red;stroke-width:1px;stroke-linecap:butt;stroke-linejoin:miter;stroke-opacity:1" d="M 316.846,380.208 297.046,380.208 z" id="boundary" inkscape:connector-curvature="0" />
	<path style="fill:none;stroke:red;stroke-width:1px;stroke-linecap:butt;stroke-linejoin:miter;stroke-opacity:1" d="M 336.647,370.307 356.447,370.307 z" id="boundary" inkscape:connector-curvature="0" />
	<path style="fill:none;stroke:red;stroke-width:1px;stroke-linecap:butt;stroke-linejoin:miter;stroke-opacity:1" d="M 376.248,360.407 396.048,360.407 z" id="boundary" inkscape:connector-curvature="0" />
	<path style="fill:none;stroke:red;stroke-width:1px;stroke-linecap:butt;stroke-linejoin:miter;stroke-opacity:1" d="M 356.447,370.307 376.248,360.407 z" id="boundary" inkscape:connector-curvature="0" />
	<path style="fill:none;stroke:red;stroke-width:1px;stroke-linecap:butt;stroke-linejoin:miter;stroke-opacity:1" d="M 396.048,360.407 415.848,360.407 z" id="boundary" inkscape:connector-curvature="0" />
	<path style="fill:none;stroke:red;stroke-width:1px;stroke-linecap:butt;stroke-linejoin:miter;stroke-opacity:1" d="M 419.808,152.503 400.008,152.503 z" id="boundary" inkscape:connector-curvature="0" />
	<path style="fill:none;stroke:red;stroke-width:1px;stroke-linecap:butt;stroke-linejoin:miter;stroke-opacity:1" d="M 459.409,39.6407 459.409,59.4411 z" id="boundary" inkscape:connector-curvature="0" />
	<path style="fill:none;stroke:red;stroke-width:1px;stroke-linecap:butt;stroke-linejoin:miter;stroke-opacity:1" d="M 459.409,39.6407 459.409,19.8403 z" id="boundary" inkscape:connector-curvature="0" />
	<path style="fill:none;stroke:red;stroke-width:1px;stroke-linecap:butt;stroke-linejoin:miter;stroke-opacity:1" d="M 459.409,118.842 457.429,142.603 z" id="boundary" inkscape:connector-curvature="0" />
	<path style="fill:none;stroke:red;stroke-width:1px;stroke-linecap:butt;stroke-linejoin:miter;stroke-opacity:1" d="M 439.609,152.503 419.808,152.503 z" id="boundary" inkscape:connector-curvature="0" />
	<path style="fill:none;stroke:red;stroke-width:1px;stroke-linecap:butt;stroke-linejoin:miter;stroke-opacity:1" d="M 439.609,152.503 457.429,142.603 z" id="boundary" inkscape:connector-curvature="0" />
	<path style="fill:none;stroke:red;stroke-width:1px;stroke-linecap:butt;stroke-linejoin:miter;stroke-opacity:1" d="M 459.409,59.4411 459.409,79.2415 z" id="boundary" inkscape:connector-curvature="0" />
	<path style="fill:none;stroke:red;stroke-width:1px;stroke-linecap:butt;stroke-linejoin:miter;stroke-opacity:1" d="M 459.409,19.8403 475.25,4 z" id="boundary" inkscape:connector-curvature="0" />
	<path style="fill:none;stroke:red;stroke-width:1px;stroke-linecap:butt;stroke-linejoin:miter;stroke-opacity:1" d="M 475.25,4 495.05,4 z" id="boundary" inkscape:connector-curvature="0" />
	<path style="fill:none;stroke:red;stroke-width:1px;stroke-linecap:butt;stroke-linejoin:miter;stroke-opacity:1" d="M 459.409,79.2415 459.409,99.0419 z" id="boundary" inkscape:connector-curvature="0" />
	<path style="fill:none;stroke:red;stroke-width:1px;stroke-linecap:butt;stroke-linejoin:miter;stroke-opacity:1" d="M 459.409,118.842 459.409,99.0419 z" id="boundary" inkscape:connector-curvature="0" />
	<path style="fill:none;stroke:red;stroke-width:1px;stroke-linecap:butt;stroke-linejoin:miter;stroke-opacity:1" d="M 437.629,223.784 417.828,223.784 z" id="boundary" inkscape:connector-curvature="0" />
	<path style="fill:none;stroke:red;stroke-width:1px;stroke-linecap:butt;stroke-linejoin:miter;stroke-opacity:1" d="M 437.629,223.784 449.509,239.625 z" id="boundary" inkscape:connector-curvature="0" />
	<path style="fill:none;stroke:red;stroke-width:1px;stroke-linecap:butt;stroke-linejoin:miter;stroke-opacity:1" d="M 449.509,239.625 449.509,259.425 z" id="boundary" inkscape:connector-curvature="0" />
	<path style="fill:none;stroke:red;stroke-width:1px;stroke-linecap:butt;stroke-linejoin:miter;stroke-opacity:1" d="M 435.649,350.507 439.609,316.846 z" id="boundary" inkscape:connector-curvature="0" />
	<path style="fill:none;stroke:red;stroke-width:1px;stroke-linecap:butt;stroke-linejoin:miter;stroke-opacity:1" d="M 415.848,360.407 435.649,350.507 z" id="boundary" inkscape:connector-curvature="0" />
	<path style="fill:none;stroke:red;stroke-width:1px;stroke-linecap:butt;stroke-linejoin:miter;stroke-opacity:1" d="M 449.509,259.425 449.509,279.226 z" id="boundary" inkscape:connector-curvature="0" />
	<path style="fill:none;stroke:red;stroke-width:1px;stroke-linecap:butt;stroke-linejoin:miter;stroke-opacity:1" d="M 449.509,299.026 439.609,316.846 z" id="boundary" inkscape:connector-curvature="0" />
	<path style="fill:none;stroke:red;stroke-width:1px;stroke-linecap:butt;stroke-linejoin:miter;stroke-opacity:1" d="M 449.509,299.026 449.509,279.226 z" id="boundary" inkscape:connector-curvature="0" />
	<path style="fill:none;stroke:red;stroke-width:1px;stroke-linecap:butt;stroke-linejoin:miter;stroke-opacity:1" d="M 53.501,544.551 33.7006,554.451 z" id="boundary" inkscape:connector-curvature="0" />
	<path style="fill:none;stroke:red;stroke-width:1px;stroke-linecap:butt;stroke-linejoin:miter;stroke-opacity:1" d="M 33.7006,554.451 13.9002,564.351 z" id="boundary" inkscape:connector-curvature="0" />
	<path style="fill:none;stroke:red;stroke-width:1px;stroke-linecap:butt;stroke-linejoin:miter;stroke-opacity:1" d="M 63.4012,524.75 53.501,544.551 z" id="boundary" inkscape:connector-curvature="0" />
	<path style="fill:none;stroke:red;stroke-width:1px;stroke-linecap:butt;stroke-linejoin:miter;stroke-opacity:1" d="M 79.2415,508.91 63.4012,524.75 z" id="boundary" inkscape:connector-curvature="0" />
	<path style="fill:none;stroke:red;stroke-width:1px;stroke-linecap:butt;stroke-linejoin:miter;stroke-opacity:1" d="M 97.0619,499.01 79.2415,508.91 z" id="boundary" inkscape:connector-curvature="0" />
	<path style="fill:none;stroke:red;stroke-width:1px;stroke-linecap:butt;stroke-linejoin:miter;stroke-opacity:1" d="M 13.9002,601.972 4,584.152 z" id="boundary" inkscape:connector-curvature="0" />
	<path style="fill:none;stroke:red;stroke-width:1px;stroke-linecap:butt;stroke-linejoin:miter;stroke-opacity:1" d="M 13.9002,564.351 4,584.152 z" id="boundary" inkscape:connector-curvature="0" />
	<path style="fill:none;stroke:red;stroke-width:1px;stroke-linecap:butt;stroke-linejoin:miter;stroke-opacity:1" d="M 23.8004,619.792 13.9002,601.972 z" id="boundary" inkscape:connector-curvature="0" />
	<path style="fill:none;stroke:red;stroke-width:1px;stroke-linecap:butt;stroke-linejoin:miter;stroke-opacity:1" d="M 97.0619,499.01 114.882,489.11 z" id="boundary" inkscape:connector-curvature="0" />
	<path style="fill:none;stroke:red;stroke-width:1px;stroke-linecap:butt;stroke-linejoin:miter;stroke-opacity:1" d="M 114.882,489.11 132.703,479.21 z" id="boundary" inkscape:connector-curvature="0" />
	<path style="fill:none;stroke:red;stroke-width:1px;stroke-linecap:butt;stroke-linejoin:miter;stroke-opacity:1" d="M 150.523,469.309 132.703,479.21 z" id="boundary" inkscape:connector-curvature="0" />
	<path style="fill:none;stroke:red;stroke-width:1px;stroke-linecap:butt;stroke-linejoin:miter;stroke-opacity:1" d="M 188.144,449.509 168.343,459.409 z" id="boundary" inkscape:connector-curvature="0" />
	<path style="fill:none;stroke:red;stroke-width:1px;stroke-linecap:butt;stroke-linejoin:miter;stroke-opacity:1" d="M 150.523,469.309 168.343,459.409 z" id="boundary" inkscape:connector-curvature="0" />
	<path style="fill:none;stroke:red;stroke-width:1px;stroke-linecap:butt;stroke-linejoin:miter;stroke-opacity:1" d="M 23.8004,619.792 29.7405,639.593 z" id="boundary" inkscape:connector-curvature="0" />
	<path style="fill:none;stroke:red;stroke-width:1px;stroke-linecap:butt;stroke-linejoin:miter;stroke-opacity:1" d="M 29.7405,639.593 39.6407,657.413 z" id="boundary" inkscape:connector-curvature="0" />
	<path style="fill:none;stroke:red;stroke-width:1px;stroke-linecap:butt;stroke-linejoin:miter;stroke-opacity:1" d="M 47.5609,677.214 39.6407,657.413 z" id="boundary" inkscape:connector-curvature="0" />
	<path style="fill:none;stroke:red;stroke-width:1px;stroke-linecap:butt;stroke-linejoin:miter;stroke-opacity:1" d="M 63.4012,689.094 47.5609,677.214 z" id="boundary" inkscape:connector-curvature="0" />
	<path style="fill:none;stroke:red;stroke-width:1px;stroke-linecap:butt;stroke-linejoin:miter;stroke-opacity:1" d="M 63.4012,689.094 81.2216,698.994 z" id="boundary" inkscape:connector-curvature="0" />
	<path style="fill:none;stroke:red;stroke-width:1px;stroke-linecap:butt;stroke-linejoin:miter;stroke-opacity:1" d="M 99.0419,708.894 81.2216,698.994 z" id="boundary" inkscape:connector-curvature="0" />
	<path style="fill:none;stroke:red;stroke-width:1px;stroke-linecap:butt;stroke-linejoin:miter;stroke-opacity:1" d="M 118.842,716.814 99.0419,708.894 z" id="boundary" inkscape:connector-curvature="0" />
	<path style="fill:none;stroke:red;stroke-width:1px;stroke-linecap:butt;stroke-linejoin:miter;stroke-opacity:1" d="M 136.663,726.715 118.842,716.814 z" id="boundary" inkscape:connector-curvature="0" />
	<path style="fill:none;stroke:red;stroke-width:1px;stroke-linecap:butt;stroke-linejoin:miter;stroke-opacity:1" d="M 136.663,726.715 156.463,734.635 z" id="boundary" inkscape:connector-curvature="0" />
	<path style="fill:none;stroke:red;stroke-width:1px;stroke-linecap:butt;stroke-linejoin:miter;stroke-opacity:1" d="M 172.303,748.495 156.463,734.635 z" id="boundary" inkscape:connector-curvature="0" />
	<path style="fill:none;stroke:red;stroke-width:1px;stroke-linecap:butt;stroke-linejoin:miter;stroke-opacity:1" d="M 172.303,748.495 190.124,758.395 z" id="boundary" inkscape:connector-curvature="0" />
	<path style="fill:none;stroke:red;stroke-width:1px;stroke-linecap:butt;stroke-linejoin:miter;stroke-opacity:1" d="M 203.984,433.669 223.784,423.768 z" id="boundary" inkscape:connector-curvature="0" />
	<path style="fill:none;stroke:red;stroke-width:1px;stroke-linecap:butt;stroke-linejoin:miter;stroke-opacity:1" d="M 203.984,433.669 188.144,449.509 z" id="boundary" inkscape:connector-curvature="0" />
	<path style="fill:none;stroke:red;stroke-width:1px;stroke-linecap:butt;stroke-linejoin:miter;stroke-opacity:1" d="M 209.924,758.395 190.124,758.395 z" id="boundary" inkscape:connector-curvature="0" />
	<path style="fill:none;stroke:red;stroke-width:1px;stroke-linecap:butt;stroke-linejoin:miter;stroke-opacity:1" d="M 209.924,758.395 227.745,768.295 z" id="boundary" inkscape:connector-curvature="0" />
	<path style="fill:none;stroke:red;stroke-width:1px;stroke-linecap:butt;stroke-linejoin:miter;stroke-opacity:1" d="M 227.745,768.295 247.545,776.216 z" id="boundary" inkscape:connector-curvature="0" />
	<path style="fill:none;stroke:red;stroke-width:1px;stroke-linecap:butt;stroke-linejoin:miter;stroke-opacity:1" d="M 265.365,786.116 285.166,794.036 z" id="boundary" inkscape:connector-curvature="0" />
	<path style="fill:none;stroke:red;stroke-width:1px;stroke-linecap:butt;stroke-linejoin:miter;stroke-opacity:1" d="M 265.365,786.116 247.545,776.216 z" id="boundary" inkscape:connector-curvature="0" />
	<path style="fill:none;stroke:red;stroke-width:1px;stroke-linecap:butt;stroke-linejoin:miter;stroke-opacity:1" d="M 285.166,794.036 304.966,797.996 z" id="boundary" inkscape:connector-curvature="0" />
	<path style="fill:none;stroke:red;stroke-width:1px;stroke-linecap:butt;stroke-linejoin:miter;stroke-opacity:1" d="M 324.766,803.936 304.966,797.996 z" id="boundary" inkscape:connector-curvature="0" />
	<path style="fill:none;stroke:red;stroke-width:1px;stroke-linecap:butt;stroke-linejoin:miter;stroke-opacity:1" d="M 364.367,807.896 344.567,807.896 z" id="boundary" inkscape:connector-curvature="0" />
	<path style="fill:none;stroke:red;stroke-width:1px;stroke-linecap:butt;stroke-linejoin:miter;stroke-opacity:1" d="M 344.567,807.896 324.766,803.936 z" id="boundary" inkscape:connector-curvature="0" />
	<path style="fill:none;stroke:red;stroke-width:1px;stroke-linecap:butt;stroke-linejoin:miter;stroke-opacity:1" d="M 364.367,807.896 384.168,807.896 z" id="boundary" inkscape:connector-curvature="0" />
	<path style="fill:none;stroke:red;stroke-width:1px;stroke-linecap:butt;stroke-linejoin:miter;stroke-opacity:1" d="M 403.968,807.896 384.168,807.896 z" id="boundary" inkscape:connector-curvature="0" />
	<path style="fill:none;stroke:red;stroke-width:1px;stroke-linecap:butt;stroke-linejoin:miter;stroke-opacity:1" d="M 423.768,807.896 443.569,807.896 z" id="boundary" inkscape:connector-curvature="0" />
	<path style="fill:none;stroke:red;stroke-width:1px;stroke-linecap:butt;stroke-linejoin:miter;stroke-opacity:1" d="M 463.369,807.896 483.17,807.896 z" id="boundary" inkscape:connector-curvature="0" />
	<path style="fill:none;stroke:red;stroke-width:1px;stroke-linecap:butt;stroke-linejoin:miter;stroke-opacity:1" d="M 463.369,807.896 443.569,807.896 z" id="boundary" inkscape:connector-curvature="0" />
	<path style="fill:none;stroke:red;stroke-width:1px;stroke-linecap:butt;stroke-linejoin:miter;stroke-opacity:1" d="M 423.768,807.896 403.968,807.896 z" id="boundary" inkscape:connector-curvature="0" />
	<path style="fill:none;stroke:red;stroke-width:1px;stroke-linecap:butt;stroke-linejoin:miter;stroke-opacity:1" d="M 532.671,13.9002 540.591,33.7006 z" id="boundary" inkscape:connector-curvature="0" />
	<path style="fill:none;stroke:red;stroke-width:1px;stroke-linecap:butt;stroke-linejoin:miter;stroke-opacity:1" d="M 532.671,13.9002 514.85,4 z" id="boundary" inkscape:connector-curvature="0" />
	<path style="fill:none;stroke:red;stroke-width:1px;stroke-linecap:butt;stroke-linejoin:miter;stroke-opacity:1" d="M 540.591,53.501 540.591,33.7006 z" id="boundary" inkscape:connector-curvature="0" />
	<path style="fill:none;stroke:red;stroke-width:1px;stroke-linecap:butt;stroke-linejoin:miter;stroke-opacity:1" d="M 495.05,4 514.85,4 z" id="boundary" inkscape:connector-curvature="0" />
	<path style="fill:none;stroke:red;stroke-width:1px;stroke-linecap:butt;stroke-linejoin:miter;stroke-opacity:1" d="M 540.591,73.3014 540.591,93.1018 z" id="boundary" inkscape:connector-curvature="0" />
	<path style="fill:none;stroke:red;stroke-width:1px;stroke-linecap:butt;stroke-linejoin:miter;stroke-opacity:1" d="M 540.591,53.501 540.591,73.3014 z" id="boundary" inkscape:connector-curvature="0" />
	<path style="fill:none;stroke:red;stroke-width:1px;stroke-linecap:butt;stroke-linejoin:miter;stroke-opacity:1" d="M 540.591,112.902 540.591,93.1018 z" id="boundary" inkscape:connector-curvature="0" />
	<path style="fill:none;stroke:red;stroke-width:1px;stroke-linecap:butt;stroke-linejoin:miter;stroke-opacity:1" d="M 540.591,132.703 540.591,112.902 z" id="boundary" inkscape:connector-curvature="0" />
	<path style="fill:none;stroke:red;stroke-width:1px;stroke-linecap:butt;stroke-linejoin:miter;stroke-opacity:1" d="M 550.491,150.523 540.591,132.703 z" id="boundary" inkscape:connector-curvature="0" />
	<path style="fill:none;stroke:red;stroke-width:1px;stroke-linecap:butt;stroke-linejoin:miter;stroke-opacity:1" d="M 570.291,152.503 550.491,150.523 z" id="boundary" inkscape:connector-curvature="0" />
	<path style="fill:none;stroke:red;stroke-width:1px;stroke-linecap:butt;stroke-linejoin:miter;stroke-opacity:1" d="M 590.092,152.503 607.912,162.403 z" id="boundary" inkscape:connector-curvature="0" />
	<path style="fill:none;stroke:red;stroke-width:1px;stroke-linecap:butt;stroke-linejoin:miter;stroke-opacity:1" d="M 570.291,152.503 590.092,152.503 z" id="boundary" inkscape:connector-curvature="0" />
	<path style="fill:none;stroke:red;stroke-width:1px;stroke-linecap:butt;stroke-linejoin:miter;stroke-opacity:1" d="M 560.391,223.784 550.491,243.585 z" id="boundary" inkscape:connector-curvature="0" />
	<path style="fill:none;stroke:red;stroke-width:1px;stroke-linecap:butt;stroke-linejoin:miter;stroke-opacity:1" d="M 550.491,243.585 550.491,263.385 z" id="boundary" inkscape:connector-curvature="0" />
	<path style="fill:none;stroke:red;stroke-width:1px;stroke-linecap:butt;stroke-linejoin:miter;stroke-opacity:1" d="M 550.491,283.186 550.491,263.385 z" id="boundary" inkscape:connector-curvature="0" />
	<path style="fill:none;stroke:red;stroke-width:1px;stroke-linecap:butt;stroke-linejoin:miter;stroke-opacity:1" d="M 550.491,302.986 540.591,322.786 z" id="boundary" inkscape:connector-curvature="0" />
	<path style="fill:none;stroke:red;stroke-width:1px;stroke-linecap:butt;stroke-linejoin:miter;stroke-opacity:1" d="M 540.591,322.786 544.551,342.587 z" id="boundary" inkscape:connector-curvature="0" />
	<path style="fill:none;stroke:red;stroke-width:1px;stroke-linecap:butt;stroke-linejoin:miter;stroke-opacity:1" d="M 544.551,342.587 554.451,360.407 z" id="boundary" inkscape:connector-curvature="0" />
	<path style="fill:none;stroke:red;stroke-width:1px;stroke-linecap:butt;stroke-linejoin:miter;stroke-opacity:1" d="M 550.491,302.986 550.491,283.186 z" id="boundary" inkscape:connector-curvature="0" />
	<path style="fill:none;stroke:red;stroke-width:1px;stroke-linecap:butt;stroke-linejoin:miter;stroke-opacity:1" d="M 580.192,213.884 560.391,223.784 z" id="boundary" inkscape:connector-curvature="0" />
	<path style="fill:none;stroke:red;stroke-width:1px;stroke-linecap:butt;stroke-linejoin:miter;stroke-opacity:1" d="M 599.992,203.984 580.192,213.884 z" id="boundary" inkscape:connector-curvature="0" />
	<path style="fill:none;stroke:red;stroke-width:1px;stroke-linecap:butt;stroke-linejoin:miter;stroke-opacity:1" d="M 594.052,360.407 574.251,360.407 z" id="boundary" inkscape:connector-curvature="0" />
	<path style="fill:none;stroke:red;stroke-width:1px;stroke-linecap:butt;stroke-linejoin:miter;stroke-opacity:1" d="M 594.052,360.407 613.852,360.407 z" id="boundary" inkscape:connector-curvature="0" />
	<path style="fill:none;stroke:red;stroke-width:1px;stroke-linecap:butt;stroke-linejoin:miter;stroke-opacity:1" d="M 554.451,360.407 574.251,360.407 z" id="boundary" inkscape:connector-curvature="0" />
	<path style="fill:none;stroke:red;stroke-width:1px;stroke-linecap:butt;stroke-linejoin:miter;stroke-opacity:1" d="M 619.792,194.084 599.992,203.984 z" id="boundary" inkscape:connector-curvature="0" />
	<path style="fill:none;stroke:red;stroke-width:1px;stroke-linecap:butt;stroke-linejoin:miter;stroke-opacity:1" d="M 627.713,162.403 607.912,162.403 z" id="boundary" inkscape:connector-curvature="0" />
	<path style="fill:none;stroke:red;stroke-width:1px;stroke-linecap:butt;stroke-linejoin:miter;stroke-opacity:1" d="M 627.713,162.403 639.593,184.184 z" id="boundary" inkscape:connector-curvature="0" />
	<path style="fill:none;stroke:red;stroke-width:1px;stroke-linecap:butt;stroke-linejoin:miter;stroke-opacity:1" d="M 619.792,194.084 639.593,184.184 z" id="boundary" inkscape:connector-curvature="0" />
	<path style="fill:none;stroke:red;stroke-width:1px;stroke-linecap:butt;stroke-linejoin:miter;stroke-opacity:1" d="M 631.673,370.307 613.852,360.407 z" id="boundary" inkscape:connector-curvature="0" />
	<path style="fill:none;stroke:red;stroke-width:1px;stroke-linecap:butt;stroke-linejoin:miter;stroke-opacity:1" d="M 651.473,370.307 631.673,370.307 z" id="boundary" inkscape:connector-curvature="0" />
	<path style="fill:none;stroke:red;stroke-width:1px;stroke-linecap:butt;stroke-linejoin:miter;stroke-opacity:1" d="M 651.473,370.307 671.273,370.307 z" id="boundary" inkscape:connector-curvature="0" />
	<path style="fill:none;stroke:red;stroke-width:1px;stroke-linecap:butt;stroke-linejoin:miter;stroke-opacity:1" d="M 691.074,370.307 708.894,380.208 z" id="boundary" inkscape:connector-curvature="0" />
	<path style="fill:none;stroke:red;stroke-width:1px;stroke-linecap:butt;stroke-linejoin:miter;stroke-opacity:1" d="M 671.273,370.307 691.074,370.307 z" id="boundary" inkscape:connector-curvature="0" />
	<path style="fill:none;stroke:red;stroke-width:1px;stroke-linecap:butt;stroke-linejoin:miter;stroke-opacity:1" d="M 728.695,380.208 708.894,380.208 z" id="boundary" inkscape:connector-curvature="0" />
	<path style="fill:none;stroke:red;stroke-width:1px;stroke-linecap:butt;stroke-linejoin:miter;stroke-opacity:1" d="M 746.515,390.108 728.695,380.208 z" id="boundary" inkscape:connector-curvature="0" />
	<path style="fill:none;stroke:red;stroke-width:1px;stroke-linecap:butt;stroke-linejoin:miter;stroke-opacity:1" d="M 764.335,400.008 746.515,390.108 z" id="boundary" inkscape:connector-curvature="0" />
	<path style="fill:none;stroke:red;stroke-width:1px;stroke-linecap:butt;stroke-linejoin:miter;stroke-opacity:1" d="M 782.156,409.908 764.335,400.008 z" id="boundary" inkscape:connector-curvature="0" />
	<path style="fill:none;stroke:red;stroke-width:1px;stroke-linecap:butt;stroke-linejoin:miter;stroke-opacity:1" d="M 807.896,439.609 797.996,421.788 z" id="boundary" inkscape:connector-curvature="0" />
	<path style="fill:none;stroke:red;stroke-width:1px;stroke-linecap:butt;stroke-linejoin:miter;stroke-opacity:1" d="M 797.996,421.788 782.156,409.908 z" id="boundary" inkscape:connector-curvature="0" />
	<path style="fill:none;stroke:red;stroke-width:1px;stroke-linecap:butt;stroke-linejoin:miter;stroke-opacity:1" d="M 823.737,451.489 807.896,439.609 z" id="boundary" inkscape:connector-curvature="0" />
	<path style="fill:none;stroke:red;stroke-width:1px;stroke-linecap:butt;stroke-linejoin:miter;stroke-opacity:1" d="M 502.97,807.896 522.77,807.896 z" id="boundary" inkscape:connector-curvature="0" />
	<path style="fill:none;stroke:red;stroke-width:1px;stroke-linecap:butt;stroke-linejoin:miter;stroke-opacity:1" d="M 542.571,807.896 522.77,807.896 z" id="boundary" inkscape:connector-curvature="0" />
	<path style="fill:none;stroke:red;stroke-width:1px;stroke-linecap:butt;stroke-linejoin:miter;stroke-opacity:1" d="M 698.994,797.996 679.194,797.996 z" id="boundary" inkscape:connector-curvature="0" />
	<path style="fill:none;stroke:red;stroke-width:1px;stroke-linecap:butt;stroke-linejoin:miter;stroke-opacity:1" d="M 562.371,807.896 542.571,807.896 z" id="boundary" inkscape:connector-curvature="0" />
	<path style="fill:none;stroke:red;stroke-width:1px;stroke-linecap:butt;stroke-linejoin:miter;stroke-opacity:1" d="M 679.194,797.996 661.373,807.896 z" id="boundary" inkscape:connector-curvature="0" />
	<path style="fill:none;stroke:red;stroke-width:1px;stroke-linecap:butt;stroke-linejoin:miter;stroke-opacity:1" d="M 562.371,807.896 582.172,807.896 z" id="boundary" inkscape:connector-curvature="0" />
	<path style="fill:none;stroke:red;stroke-width:1px;stroke-linecap:butt;stroke-linejoin:miter;stroke-opacity:1" d="M 601.972,807.896 582.172,807.896 z" id="boundary" inkscape:connector-curvature="0" />
	<path style="fill:none;stroke:red;stroke-width:1px;stroke-linecap:butt;stroke-linejoin:miter;stroke-opacity:1" d="M 621.772,807.896 641.573,807.896 z" id="boundary" inkscape:connector-curvature="0" />
	<path style="fill:none;stroke:red;stroke-width:1px;stroke-linecap:butt;stroke-linejoin:miter;stroke-opacity:1" d="M 641.573,807.896 661.373,807.896 z" id="boundary" inkscape:connector-curvature="0" />
	<path style="fill:none;stroke:red;stroke-width:1px;stroke-linecap:butt;stroke-linejoin:miter;stroke-opacity:1" d="M 601.972,807.896 621.772,807.896 z" id="boundary" inkscape:connector-curvature="0" />
	<path style="fill:none;stroke:red;stroke-width:1px;stroke-linecap:butt;stroke-linejoin:miter;stroke-opacity:1" d="M 774.236,778.196 794.036,778.196 z" id="boundary" inkscape:connector-curvature="0" />
	<path style="fill:none;stroke:red;stroke-width:1px;stroke-linecap:butt;stroke-linejoin:miter;stroke-opacity:1" d="M 774.236,778.196 756.415,788.096 z" id="boundary" inkscape:connector-curvature="0" />
	<path style="fill:none;stroke:red;stroke-width:1px;stroke-linecap:butt;stroke-linejoin:miter;stroke-opacity:1" d="M 718.794,797.996 738.595,797.996 z" id="boundary" inkscape:connector-curvature="0" />
	<path style="fill:none;stroke:red;stroke-width:1px;stroke-linecap:butt;stroke-linejoin:miter;stroke-opacity:1" d="M 718.794,797.996 698.994,797.996 z" id="boundary" inkscape:connector-curvature="0" />
	<path style="fill:none;stroke:red;stroke-width:1px;stroke-linecap:butt;stroke-linejoin:miter;stroke-opacity:1" d="M 738.595,797.996 756.415,788.096 z" id="boundary" inkscape:connector-curvature="0" />
	<path style="fill:none;stroke:red;stroke-width:1px;stroke-linecap:butt;stroke-linejoin:miter;stroke-opacity:1" d="M 502.97,807.896 483.17,807.896 z" id="boundary" inkscape:connector-curvature="0" />
	<path style="fill:none;stroke:red;stroke-width:1px;stroke-linecap:butt;stroke-linejoin:miter;stroke-opacity:1" d="M 851.457,479.21 831.657,471.289 z" id="boundary" inkscape:connector-curvature="0" />
	<path style="fill:none;stroke:red;stroke-width:1px;stroke-linecap:butt;stroke-linejoin:miter;stroke-opacity:1" d="M 823.737,451.489 831.657,471.289 z" id="boundary" inkscape:connector-curvature="0" />
	<path style="fill:none;stroke:red;stroke-width:1px;stroke-linecap:butt;stroke-linejoin:miter;stroke-opacity:1" d="M 869.277,489.11 851.457,479.21 z" id="boundary" inkscape:connector-curvature="0" />
	<path style="fill:none;stroke:red;stroke-width:1px;stroke-linecap:butt;stroke-linejoin:miter;stroke-opacity:1" d="M 869.277,489.11 887.098,499.01 z" id="boundary" inkscape:connector-curvature="0" />
	<path style="fill:none;stroke:red;stroke-width:1px;stroke-linecap:butt;stroke-linejoin:miter;stroke-opacity:1" d="M 887.098,499.01 896.998,516.83 z" id="boundary" inkscape:connector-curvature="0" />
	<path style="fill:none;stroke:red;stroke-width:1px;stroke-linecap:butt;stroke-linejoin:miter;stroke-opacity:1" d="M 912.838,530.691 926.699,546.531 z" id="boundary" inkscape:connector-curvature="0" />
	<path style="fill:none;stroke:red;stroke-width:1px;stroke-linecap:butt;stroke-linejoin:miter;stroke-opacity:1" d="M 912.838,530.691 896.998,516.83 z" id="boundary" inkscape:connector-curvature="0" />
	<path style="fill:none;stroke:red;stroke-width:1px;stroke-linecap:butt;stroke-linejoin:miter;stroke-opacity:1" d="M 960.359,570.291 942.539,560.391 z" id="boundary" inkscape:connector-curvature="0" />
	<path style="fill:none;stroke:red;stroke-width:1px;stroke-linecap:butt;stroke-linejoin:miter;stroke-opacity:1" d="M 942.539,560.391 926.699,546.531 z" id="boundary" inkscape:connector-curvature="0" />
	<path style="fill:none;stroke:red;stroke-width:1px;stroke-linecap:butt;stroke-linejoin:miter;stroke-opacity:1" d="M 976.2,584.152 990.06,599.992 z" id="boundary" inkscape:connector-curvature="0" />
	<path style="fill:none;stroke:red;stroke-width:1px;stroke-linecap:butt;stroke-linejoin:miter;stroke-opacity:1" d="M 976.2,584.152 960.359,570.291 z" id="boundary" inkscape:connector-curvature="0" />
	<path style="fill:none;stroke:red;stroke-width:1px;stroke-linecap:butt;stroke-linejoin:miter;stroke-opacity:1" d="M 996,619.792 990.06,599.992 z" id="boundary" inkscape:connector-curvature="0" />
	<path style="fill:none;stroke:red;stroke-width:1px;stroke-linecap:butt;stroke-linejoin:miter;stroke-opacity:1" d="M 902.938,714.834 883.138,724.735 z" id="boundary" inkscape:connector-curvature="0" />
	<path style="fill:none;stroke:red;stroke-width:1px;stroke-linecap:butt;stroke-linejoin:miter;stroke-opacity:1" d="M 883.138,724.735 863.337,734.635 z" id="boundary" inkscape:connector-curvature="0" />
	<path style="fill:none;stroke:red;stroke-width:1px;stroke-linecap:butt;stroke-linejoin:miter;stroke-opacity:1" d="M 922.739,704.934 902.938,714.834 z" id="boundary" inkscape:connector-curvature="0" />
	<path style="fill:none;stroke:red;stroke-width:1px;stroke-linecap:butt;stroke-linejoin:miter;stroke-opacity:1" d="M 811.856,768.295 794.036,778.196 z" id="boundary" inkscape:connector-curvature="0" />
	<path style="fill:none;stroke:red;stroke-width:1px;stroke-linecap:butt;stroke-linejoin:miter;stroke-opacity:1" d="M 847.497,748.495 863.337,734.635 z" id="boundary" inkscape:connector-curvature="0" />
	<path style="fill:none;stroke:red;stroke-width:1px;stroke-linecap:butt;stroke-linejoin:miter;stroke-opacity:1" d="M 847.497,748.495 829.677,758.395 z" id="boundary" inkscape:connector-curvature="0" />
	<path style="fill:none;stroke:red;stroke-width:1px;stroke-linecap:butt;stroke-linejoin:miter;stroke-opacity:1" d="M 811.856,768.295 829.677,758.395 z" id="boundary" inkscape:connector-curvature="0" />
	<path style="fill:none;stroke:red;stroke-width:1px;stroke-linecap:butt;stroke-linejoin:miter;stroke-opacity:1" d="M 922.739,704.934 942.539,695.034 z" id="boundary" inkscape:connector-curvature="0" />
	<path style="fill:none;stroke:red;stroke-width:1px;stroke-linecap:butt;stroke-linejoin:miter;stroke-opacity:1" d="M 962.339,685.134 942.539,695.034 z" id="boundary" inkscape:connector-curvature="0" />
	<path style="fill:none;stroke:red;stroke-width:1px;stroke-linecap:butt;stroke-linejoin:miter;stroke-opacity:1" d="M 976.2,669.293 992.04,655.433 z" id="boundary" inkscape:connector-curvature="0" />
	<path style="fill:none;stroke:red;stroke-width:1px;stroke-linecap:butt;stroke-linejoin:miter;stroke-opacity:1" d="M 962.339,685.134 976.2,669.293 z" id="boundary" inkscape:connector-curvature="0" />
	<path style="fill:none;stroke:red;stroke-width:1px;stroke-linecap:butt;stroke-linejoin:miter;stroke-opacity:1" d="M 992.04,655.433 996,619.792 z" id="boundary" inkscape:connector-curvature="0" />
	<circle cx="4" cy="584.152" r="4" fill="#0" id="circle0"/>
	<circle cx="13.9002" cy="564.351" r="4" fill="#0" id="circle1"/>
	<circle cx="13.9002" cy="601.972" r="4" fill="#0" id="circle2"/>
	<circle cx="23.8004" cy="619.792" r="4" fill="#0" id="circle3"/>
	<circle cx="29.7405" cy="639.593" r="4" fill="#0" id="circle4"/>
	<circle cx="33.7006" cy="554.451" r="4" fill="#0" id="circle5"/>
	<circle cx="39.6407" cy="657.413" r="4" fill="#0" id="circle6"/>
	<circle cx="47.5609" cy="677.214" r="4" fill="#0" id="circle7"/>
	<circle cx="53.501" cy="544.551" r="4" fill="#0" id="circle8"/>
	<circle cx="63.4012" cy="524.75" r="4" fill="#0" id="circle9"/>
	<circle cx="63.4012" cy="689.094" r="4" fill="#0" id="circle10"/>
	<circle cx="79.2415" cy="508.91" r="4" fill="#0" id="circle11"/>
	<circle cx="81.2216" cy="698.994" r="4" fill="#0" id="circle12"/>
	<circle cx="97.0619" cy="499.01" r="4" fill="#0" id="circle13"/>
	<circle cx="99.0419" cy="708.894" r="4" fill="#0" id="circle14"/>
	<circle cx="114.882" cy="489.11" r="4" fill="#0" id="circle15"/>
	<circle cx="118.842" cy="716.814" r="4" fill="#0" id="circle16"/>
	<circle cx="132.703" cy="479.21" r="4" fill="#0" id="circle17"/>
	<circle cx="136.663" cy="726.715" r="4" fill="#0" id="circle18"/>
	<circle cx="150.523" cy="469.309" r="4" fill="#0" id="circle19"/>
	<circle cx="156.463" cy="734.635" r="4" fill="#0" id="circle20"/>
	<circle cx="168.343" cy="459.409" r="4" fill="#0" id="circle21"/>
	<circle cx="172.303" cy="748.495" r="4" fill="#0" id="circle22"/>
	<circle cx="188.144" cy="449.509" r="4" fill="#0" id="circle23"/>
	<circle cx="190.124" cy="758.395" r="4" fill="#0" id="circle24"/>
	<circle cx="203.984" cy="433.669" r="4" fill="#0" id="circle25"/>
	<circle cx="209.924" cy="758.395" r="4" fill="#0" id="circle26"/>
	<circle cx="223.784" cy="423.768" r="4" fill="#0" id="circle27"/>
	<circle cx="227.745" cy="768.295" r="4" fill="#0" id="circle28"/>
	<circle cx="243.585" cy="413.868" r="4" fill="#0" id="circle29"/>
	<circle cx="247.545" cy="776.216" r="4" fill="#0" id="circle30"/>
	<circle cx="259.425" cy="400.008" r="4" fill="#0" id="circle31"/>
	<circle cx="265.365" cy="786.116" r="4" fill="#0" id="circle32"/>
	<circle cx="277.246" cy="390.108" r="4" fill="#0" id="circle33"/>
	<circle cx="285.166" cy="794.036" r="4" fill="#0" id="circle34"/>
	<circle cx="297.046" cy="380.208" r="4" fill="#0" id="circle35"/>
	<circle cx="304.966" cy="797.996" r="4" fill="#0" id="circle36"/>
	<circle cx="316.846" cy="380.208" r="4" fill="#0" id="circle37"/>
	<circle cx="324.766" cy="803.936" r="4" fill="#0" id="circle38"/>
	<circle cx="336.647" cy="370.307" r="4" fill="#0" id="circle39"/>
	<circle cx="344.567" cy="807.896" r="4" fill="#0" id="circle40"/>
	<circle cx="356.447" cy="370.307" r="4" fill="#0" id="circle41"/>
	<circle cx="360.407" cy="168.343" r="4" fill="#0" id="circle42"/>
	<circle cx="364.367" cy="807.896" r="4" fill="#0" id="circle43"/>
	<circle cx="370.307" cy="186.164" r="4" fill="#0" id="circle44"/>
	<circle cx="376.248" cy="360.407" r="4" fill="#0" id="circle45"/>
	<circle cx="380.208" cy="158.443" r="4" fill="#0" id="circle46"/>
	<circle cx="384.168" cy="202.004" r="4" fill="#0" id="circle47"/>
	<circle cx="384.168" cy="807.896" r="4" fill="#0" id="circle48"/>
	<circle cx="396.048" cy="360.407" r="4" fill="#0" id="circle49"/>
	<circle cx="400.008" cy="152.503" r="4" fill="#0" id="circle50"/>
	<circle cx="400.008" cy="213.884" r="4" fill="#0" id="circle51"/>
	<circle cx="403.968" cy="807.896" r="4" fill="#0" id="circle52"/>
	<circle cx="415.848" cy="360.407" r="4" fill="#0" id="circle53"/>
	<circle cx="417.828" cy="223.784" r="4" fill="#0" id="circle54"/>
	<circle cx="419.808" cy="152.503" r="4" fill="#0" id="circle55"/>
	<circle cx="423.768" cy="807.896" r="4" fill="#0" id="circle56"/>
	<circle cx="435.649" cy="350.507" r="4" fill="#0" id="circle57"/>
	<circle cx="437.629" cy="223.784" r="4" fill="#0" id="circle58"/>
	<circle cx="439.609" cy="152.503" r="4" fill="#0" id="circle59"/>
	<circle cx="439.609" cy="316.846" r="4" fill="#0" id="circle60"/>
	<circle cx="443.569" cy="807.896" r="4" fill="#0" id="circle61"/>
	<circle cx="449.509" cy="239.625" r="4" fill="#0" id="circle62"/>
	<circle cx="449.509" cy="259.425" r="4" fill="#0" id="circle63"/>
	<circle cx="449.509" cy="279.226" r="4" fill="#0" id="circle64"/>
	<circle cx="449.509" cy="299.026" r="4" fill="#0" id="circle65"/>
	<circle cx="457.429" cy="142.603" r="4" fill="#0" id="circle66"/>
	<circle cx="459.409" cy="19.8403" r="4" fill="#0" id="circle67"/>
	<circle cx="459.409" cy="39.6407" r="4" fill="#0" id="circle68"/>
	<circle cx="459.409" cy="59.4411" r="4" fill="#0" id="circle69"/>
	<circle cx="459.409" cy="79.2415" r="4" fill="#0" id="circle70"/>
	<circle cx="459.409" cy="99.0419" r="4" fill="#0" id="circle71"/>
	<circle cx="459.409" cy="118.842" r="4" fill="#0" id="circle72"/>
	<circle cx="463.369" cy="807.896" r="4" fill="#0" id="circle73"/>
	<circle cx="475.25" cy="4" r="4" fill="#0" id="circle74"/>
	<circle cx="483.17" cy="807.896" r="4" fill="#0" id="circle75"/>
	<circle cx="495.05" cy="4" r="4" fill="#0" id="circle76"/>
	<circle cx="502.97" cy="807.896" r="4" fill="#0" id="circle77"/>
	<circle cx="514.85" cy="4" r="4" fill="#0" id="circle78"/>
	<circle cx="522.77" cy="807.896" r="4" fill="#0" id="circle79"/>
	<circle cx="532.671" cy="13.9002" r="4" fill="#0" id="circle80"/>
	<circle cx="540.591" cy="33.7006" r="4" fill="#0" id="circle81"/>
	<circle cx="540.591" cy="53.501" r="4" fill="#0" id="circle82"/>
	<circle cx="540.591" cy="73.3014" r="4" fill="#0" id="circle83"/>
	<circle cx="540.591" cy="93.1018" r="4" fill="#0" id="circle84"/>
	<circle cx="540.591" cy="112.902" r="4" fill="#0" id="circle85"/>
	<circle cx="540.591" cy="132.703" r="4" fill="#0" id="circle86"/>
	<circle cx="540.591" cy="322.786" r="4" fill="#0" id="circle87"/>
	<circle cx="542.571" cy="807.896" r="4" fill="#0" id="circle88"/>
	<circle cx="544.551" cy="342.587" r="4" fill="#0" id="circle89"/>
	<circle cx="550.491" cy="150.523" r="4" fill="#0" id="circle90"/>
	<circle cx="550.491" cy="243.585" r="4" fill="#0" id="circle91"/>
	<circle cx="550.491" cy="263.385" r="4" fill="#0" id="circle92"/>
	<circle cx="550.491" cy="283.186" r="4" fill="#0" id="circle93"/>
	<circle cx="550.491" cy="302.986" r="4" fill="#0" id="circle94"/>
	<circle cx="554.451" cy="360.407" r="4" fill="#0" id="circle95"/>
	<circle cx="560.391" cy="223.784" r="4" fill="#0" id="circle96"/>
	<circle cx="562.371" cy="807.896" r="4" fill="#0" id="circle97"/>
	<circle cx="570.291" cy="152.503" r="4" fill="#0" id="circle98"/>
	<circle cx="574.251" cy="360.407" r="4" fill="#0" id="circle99"/>
	<circle cx="580.192" cy="213.884" r="4" fill="#0" id="circle100"/>
	<circle cx="582.172" cy="807.896" r="4" fill="#0" id="circle101"/>
	<circle cx="590.092" cy="152.503" r="4" fill="#0" id="circle102"/>
	<circle cx="594.052" cy="360.407" r="4" fill="#0" id="circle103"/>
	<circle cx="599.992" cy="203.984" r="4" fill="#0" id="circle104"/>
	<circle cx="601.972" cy="807.896" r="4" fill="#0" id="circle105"/>
	<circle cx="607.912" cy="162.403" r="4" fill="#0" id="circle106"/>
	<circle cx="613.852" cy="360.407" r="4" fill="#0" id="circle107"/>
	<circle cx="619.792" cy="194.084" r="4" fill="#0" id="circle108"/>
	<circle cx="621.772" cy="807.896" r="4" fill="#0" id="circle109"/>
	<circle cx="627.713" cy="162.403" r="4" fill="#0" id="circle110"/>
	<circle cx="631.673" cy="370.307" r="4" fill="#0" id="circle111"/>
	<circle cx="639.593" cy="184.184" r="4" fill="#0" id="circle112"/>
	<circle cx="641.573" cy="807.896" r="4" fill="#0" id="circle113"/>
	<circle cx="651.473" cy="370.307" r="4" fill="#0" id="circle114"/>
	<circle cx="661.373" cy="807.896" r="4" fill="#0" id="circle115"/>
	<circle cx="671.273" cy="370.307" r="4" fill="#0" id="circle116"/>
	<circle cx="679.194" cy="797.996" r="4" fill="#0" id="circle117"/>
	<circle cx="691.074" cy="370.307" r="4" fill="#0" id="circle118"/>
	<circle cx="698.994" cy="797.996" r="4" fill="#0" id="circle119"/>
	<circle cx="708.894" cy="380.208" r="4" fill="#0" id="circle120"/>
	<circle cx="718.794" cy="797.996" r="4" fill="#0" id="circle121"/>
	<circle cx="728.695" cy="380.208" r="4" fill="#0" id="circle122"/>
	<circle cx="738.595" cy="797.996" r="4" fill="#0" id="circle123"/>
	<circle cx="746.515" cy="390.108" r="4" fill="#0" id="circle124"/>
	<circle cx="756.415" cy="788.096" r="4" fill="#0" id="circle125"/>
	<circle cx="764.335" cy="400.008" r="4" fill="#0" id="circle126"/>
	<circle cx="774.236" cy="778.196" r="4" fill="#0" id="circle127"/>
	<circle cx="782.156" cy="409.908" r="4" fill="#0" id="circle128"/>
	<circle cx="794.036" cy="778.196" r="4" fill="#0" id="circle129"/>
	<circle cx="797.996" cy="421.788" r="4" fill="#0" id="circle130"/>
	<circle cx="807.896" cy="439.609" r="4" fill="#0" id="circle131"/>
	<circle cx="811.856" cy="768.295" r="4" fill="#0" id="circle132"/>
	<circle cx="823.737" cy="451.489" r="4" fill="#0" id="circle133"/>
	<circle cx="829.677" cy="758.395" r="4" fill="#0" id="circle134"/>
	<circle cx="831.657" cy="471.289" r="4" fill="#0" id="circle135"/>
	<circle cx="847.497" cy="748.495" r="4" fill="#0" id="circle136"/>
	<circle cx="851.457" cy="479.21" r="4" fill="#0" id="circle137"/>
	<circle cx="863.337" cy="734.635" r="4" fill="#0" id="circle138"/>
	<circle cx="869.277" cy="489.11" r="4" fill="#0" id="circle139"/>
	<circle cx="883.138" cy="724.735" r="4" fill="#0" id="circle140"/>
	<circle cx="887.098" cy="499.01" r="4" fill="#0" id="circle141"/>
	<circle cx="896.998" cy="516.83" r="4" fill="#0" id="circle142"/>
	<circle cx="902.938" cy="714.834" r="4" fill="#0" id="circle143"/>
	<circle cx="912.838" cy="530.691" r="4" fill="#0" id="circle144"/>
	<circle cx="922.739" cy="704.934" r="4" fill="#0" id="circle145"/>
	<circle cx="926.699" cy="546.531" r="4" fill="#0" id="circle146"/>
	<circle cx="942.539" cy="560.391" r="4" fill="#0" id="circle147"/>
	<circle cx="942.539" cy="695.034" r="4" fill="#0" id="circle148"/>
	<circle cx="960.359" cy="570.291" r="4" fill="#0" id="circle149"/>
	<circle cx="962.339" cy="685.134" r="4" fill="#0" id="circle150"/>
	<circle cx="976.2" cy="584.152" r="4" fill="#0" id="circle151"/>
	<circle cx="976.2" cy="669.293" r="4" fill="#0" id="circle152"/>
	<circle cx="990.06" cy="599.992" r="4" fill="#0" id="circle153"/>
	<circle cx="992.04" cy="655.433" r="4" fill="#0" id="circle154"/>
	<circle cx="996" cy="619.792" r="4" fill="#0" id="circle155"/>
	</g>
</svg>