<?xml version="1.0" encoding="UTF-8" standalone="no"?>
<!-- Created with CurveBenchmark -->
<svg
	xmlns:dc="http://purl.org/dc/elements/1.1/"
	xmlns:cc="http://creativecommons.org/ns#"
	xmlns:rdf="http://www.w3.org/1999/02/22-rdf-syntax-ns#"
	xmlns:svg="http://www.w3.org/2000/svg"
	xmlns="http://www.w3.org/2000/svg"
	xmlns:sodipodi="http://sodipodi.sourceforge.net/DTD/sodipodi-0.dtd"
	xmlns:inkscape="http://www.inkscape.org/namespaces/inkscape"
	width="1000"
	height="1000"
	id="svg2"
	version="1.1"
	sodipodi:docname="manifold/discur-ray16.png.txt">
<defs
	id="defs4" />
<metadata
	id="metadata7">
	<rdf:RDF>
		<cc:Work
			rdf:about="">
			<dc:format>image/svg+xml</dc:format>
			<dc:type
				rdf:resource="http://purl.org/dc/dcmitype/StillImage" />
			<dc:title></dc:title>
		</cc:Work>
	</rdf:RDF>
</metadata>
<g
	inkscape:label="Layer 1"
	inkscape:groupmode="layer"
	id="layer1">
	<path style="fill:none;stroke:red;stroke-width:1px;stroke-linecap:butt;stroke-linejoin:miter;stroke-opacity:1" d="M 4,325.075 4,340.22 z" id="boundary" inkscape:connector-curvature="0" />
	<path style="fill:none;stroke:red;stroke-width:1px;stroke-linecap:butt;stroke-linejoin:miter;stroke-opacity:1" d="M 4,325.075 11.5725,309.93 z" id="boundary" inkscape:connector-curvature="0" />
	<path style="fill:none;stroke:red;stroke-width:1px;stroke-linecap:butt;stroke-linejoin:miter;stroke-opacity:1" d="M 4,340.22 4,355.365 z" id="boundary" inkscape:connector-curvature="0" />
	<path style="fill:none;stroke:red;stroke-width:1px;stroke-linecap:butt;stroke-linejoin:miter;stroke-opacity:1" d="M 4,355.365 11.5725,368.995 z" id="boundary" inkscape:connector-curvature="0" />
	<path style="fill:none;stroke:red;stroke-width:1px;stroke-linecap:butt;stroke-linejoin:miter;stroke-opacity:1" d="M 11.5725,309.93 19.145,294.785 z" id="boundary" inkscape:connector-curvature="0" />
	<path style="fill:none;stroke:red;stroke-width:1px;stroke-linecap:butt;stroke-linejoin:miter;stroke-opacity:1" d="M 11.5725,368.995 19.145,382.626 z" id="boundary" inkscape:connector-curvature="0" />
	<path style="fill:none;stroke:red;stroke-width:1px;stroke-linecap:butt;stroke-linejoin:miter;stroke-opacity:1" d="M 19.145,294.785 31.2611,282.669 z" id="boundary" inkscape:connector-curvature="0" />
	<path style="fill:none;stroke:red;stroke-width:1px;stroke-linecap:butt;stroke-linejoin:miter;stroke-opacity:1" d="M 19.145,382.626 26.7176,396.256 z" id="boundary" inkscape:connector-curvature="0" />
	<path style="fill:none;stroke:red;stroke-width:1px;stroke-linecap:butt;stroke-linejoin:miter;stroke-opacity:1" d="M 26.7176,396.256 35.8046,408.373 z" id="boundary" inkscape:connector-curvature="0" />
	<path style="fill:none;stroke:red;stroke-width:1px;stroke-linecap:butt;stroke-linejoin:miter;stroke-opacity:1" d="M 31.2611,282.669 38.8336,267.524 z" id="boundary" inkscape:connector-curvature="0" />
	<path style="fill:none;stroke:red;stroke-width:1px;stroke-linecap:butt;stroke-linejoin:miter;stroke-opacity:1" d="M 35.8046,408.373 41.8626,423.518 z" id="boundary" inkscape:connector-curvature="0" />
	<path style="fill:none;stroke:red;stroke-width:1px;stroke-linecap:butt;stroke-linejoin:miter;stroke-opacity:1" d="M 38.8336,267.524 46.4061,252.379 z" id="boundary" inkscape:connector-curvature="0" />
	<path style="fill:none;stroke:red;stroke-width:1px;stroke-linecap:butt;stroke-linejoin:miter;stroke-opacity:1" d="M 41.8626,423.518 49.4351,437.148 z" id="boundary" inkscape:connector-curvature="0" />
	<path style="fill:none;stroke:red;stroke-width:1px;stroke-linecap:butt;stroke-linejoin:miter;stroke-opacity:1" d="M 41.8626,847.579 49.4351,832.434 z" id="boundary" inkscape:connector-curvature="0" />
	<path style="fill:none;stroke:red;stroke-width:1px;stroke-linecap:butt;stroke-linejoin:miter;stroke-opacity:1" d="M 41.8626,847.579 49.4351,861.209 z" id="boundary" inkscape:connector-curvature="0" />
	<path style="fill:none;stroke:red;stroke-width:1px;stroke-linecap:butt;stroke-linejoin:miter;stroke-opacity:1" d="M 46.4061,252.379 58.5221,240.263 z" id="boundary" inkscape:connector-curvature="0" />
	<path style="fill:none;stroke:red;stroke-width:1px;stroke-linecap:butt;stroke-linejoin:miter;stroke-opacity:1" d="M 49.4351,437.148 60.0366,449.264 z" id="boundary" inkscape:connector-curvature="0" />
	<path style="fill:none;stroke:red;stroke-width:1px;stroke-linecap:butt;stroke-linejoin:miter;stroke-opacity:1" d="M 49.4351,802.144 49.4351,817.289 z" id="boundary" inkscape:connector-curvature="0" />
	<path style="fill:none;stroke:red;stroke-width:1px;stroke-linecap:butt;stroke-linejoin:miter;stroke-opacity:1" d="M 49.4351,802.144 57.0076,786.998 z" id="boundary" inkscape:connector-curvature="0" />
	<path style="fill:none;stroke:red;stroke-width:1px;stroke-linecap:butt;stroke-linejoin:miter;stroke-opacity:1" d="M 49.4351,817.289 49.4351,832.434 z" id="boundary" inkscape:connector-curvature="0" />
	<path style="fill:none;stroke:red;stroke-width:1px;stroke-linecap:butt;stroke-linejoin:miter;stroke-opacity:1" d="M 49.4351,861.209 49.4351,876.354 z" id="boundary" inkscape:connector-curvature="0" />
	<path style="fill:none;stroke:red;stroke-width:1px;stroke-linecap:butt;stroke-linejoin:miter;stroke-opacity:1" d="M 49.4351,876.354 49.4351,891.499 z" id="boundary" inkscape:connector-curvature="0" />
	<path style="fill:none;stroke:red;stroke-width:1px;stroke-linecap:butt;stroke-linejoin:miter;stroke-opacity:1" d="M 49.4351,891.499 57.0076,905.13 z" id="boundary" inkscape:connector-curvature="0" />
	<path style="fill:none;stroke:red;stroke-width:1px;stroke-linecap:butt;stroke-linejoin:miter;stroke-opacity:1" d="M 57.0076,786.998 64.5802,764.281 z" id="boundary" inkscape:connector-curvature="0" />
	<path style="fill:none;stroke:red;stroke-width:1px;stroke-linecap:butt;stroke-linejoin:miter;stroke-opacity:1" d="M 57.0076,905.13 66.0947,917.246 z" id="boundary" inkscape:connector-curvature="0" />
	<path style="fill:none;stroke:red;stroke-width:1px;stroke-linecap:butt;stroke-linejoin:miter;stroke-opacity:1" d="M 58.5221,240.263 70.6382,229.661 z" id="boundary" inkscape:connector-curvature="0" />
	<path style="fill:none;stroke:red;stroke-width:1px;stroke-linecap:butt;stroke-linejoin:miter;stroke-opacity:1" d="M 60.0366,449.264 72.1527,458.351 z" id="boundary" inkscape:connector-curvature="0" />
	<path style="fill:none;stroke:red;stroke-width:1px;stroke-linecap:butt;stroke-linejoin:miter;stroke-opacity:1" d="M 64.5802,764.281 72.1527,749.136 z" id="boundary" inkscape:connector-curvature="0" />
	<path style="fill:none;stroke:red;stroke-width:1px;stroke-linecap:butt;stroke-linejoin:miter;stroke-opacity:1" d="M 66.0947,917.246 78.2107,927.847 z" id="boundary" inkscape:connector-curvature="0" />
	<path style="fill:none;stroke:red;stroke-width:1px;stroke-linecap:butt;stroke-linejoin:miter;stroke-opacity:1" d="M 70.6382,229.661 81.2397,217.545 z" id="boundary" inkscape:connector-curvature="0" />
	<path style="fill:none;stroke:red;stroke-width:1px;stroke-linecap:butt;stroke-linejoin:miter;stroke-opacity:1" d="M 72.1527,458.351 76.6962,473.496 z" id="boundary" inkscape:connector-curvature="0" />
	<path style="fill:none;stroke:red;stroke-width:1px;stroke-linecap:butt;stroke-linejoin:miter;stroke-opacity:1" d="M 72.1527,749.136 84.2687,737.02 z" id="boundary" inkscape:connector-curvature="0" />
	<path style="fill:none;stroke:red;stroke-width:1px;stroke-linecap:butt;stroke-linejoin:miter;stroke-opacity:1" d="M 76.6962,473.496 84.2687,487.127 z" id="boundary" inkscape:connector-curvature="0" />
	<path style="fill:none;stroke:red;stroke-width:1px;stroke-linecap:butt;stroke-linejoin:miter;stroke-opacity:1" d="M 78.2107,927.847 88.8122,939.963 z" id="boundary" inkscape:connector-curvature="0" />
	<path style="fill:none;stroke:red;stroke-width:1px;stroke-linecap:butt;stroke-linejoin:miter;stroke-opacity:1" d="M 81.2397,217.545 96.3847,209.973 z" id="boundary" inkscape:connector-curvature="0" />
	<path style="fill:none;stroke:red;stroke-width:1px;stroke-linecap:butt;stroke-linejoin:miter;stroke-opacity:1" d="M 84.2687,487.127 94.8702,499.243 z" id="boundary" inkscape:connector-curvature="0" />
	<path style="fill:none;stroke:red;stroke-width:1px;stroke-linecap:butt;stroke-linejoin:miter;stroke-opacity:1" d="M 84.2687,737.02 96.3847,724.904 z" id="boundary" inkscape:connector-curvature="0" />
	<path style="fill:none;stroke:red;stroke-width:1px;stroke-linecap:butt;stroke-linejoin:miter;stroke-opacity:1" d="M 88.8122,776.397 88.8122,791.542 z" id="boundary" inkscape:connector-curvature="0" />
	<path style="fill:none;stroke:red;stroke-width:1px;stroke-linecap:butt;stroke-linejoin:miter;stroke-opacity:1" d="M 88.8122,776.397 96.3847,753.679 z" id="boundary" inkscape:connector-curvature="0" />
	<path style="fill:none;stroke:red;stroke-width:1px;stroke-linecap:butt;stroke-linejoin:miter;stroke-opacity:1" d="M 88.8122,791.542 88.8122,806.687 z" id="boundary" inkscape:connector-curvature="0" />
	<path style="fill:none;stroke:red;stroke-width:1px;stroke-linecap:butt;stroke-linejoin:miter;stroke-opacity:1" d="M 88.8122,806.687 88.8122,821.832 z" id="boundary" inkscape:connector-curvature="0" />
	<path style="fill:none;stroke:red;stroke-width:1px;stroke-linecap:butt;stroke-linejoin:miter;stroke-opacity:1" d="M 88.8122,821.832 88.8122,836.977 z" id="boundary" inkscape:connector-curvature="0" />
	<path style="fill:none;stroke:red;stroke-width:1px;stroke-linecap:butt;stroke-linejoin:miter;stroke-opacity:1" d="M 88.8122,836.977 88.8122,852.122 z" id="boundary" inkscape:connector-curvature="0" />
	<path style="fill:none;stroke:red;stroke-width:1px;stroke-linecap:butt;stroke-linejoin:miter;stroke-opacity:1" d="M 88.8122,852.122 91.8412,867.267 z" id="boundary" inkscape:connector-curvature="0" />
	<path style="fill:none;stroke:red;stroke-width:1px;stroke-linecap:butt;stroke-linejoin:miter;stroke-opacity:1" d="M 88.8122,939.963 100.928,950.565 z" id="boundary" inkscape:connector-curvature="0" />
	<path style="fill:none;stroke:red;stroke-width:1px;stroke-linecap:butt;stroke-linejoin:miter;stroke-opacity:1" d="M 91.8412,867.267 99.4137,880.898 z" id="boundary" inkscape:connector-curvature="0" />
	<path style="fill:none;stroke:red;stroke-width:1px;stroke-linecap:butt;stroke-linejoin:miter;stroke-opacity:1" d="M 94.8702,499.243 102.443,512.873 z" id="boundary" inkscape:connector-curvature="0" />
	<path style="fill:none;stroke:red;stroke-width:1px;stroke-linecap:butt;stroke-linejoin:miter;stroke-opacity:1" d="M 96.3847,209.973 111.53,202.4 z" id="boundary" inkscape:connector-curvature="0" />
	<path style="fill:none;stroke:red;stroke-width:1px;stroke-linecap:butt;stroke-linejoin:miter;stroke-opacity:1" d="M 96.3847,724.904 103.957,738.534 z" id="boundary" inkscape:connector-curvature="0" />
	<path style="fill:none;stroke:red;stroke-width:1px;stroke-linecap:butt;stroke-linejoin:miter;stroke-opacity:1" d="M 96.3847,753.679 103.957,738.534 z" id="boundary" inkscape:connector-curvature="0" />
	<path style="fill:none;stroke:red;stroke-width:1px;stroke-linecap:butt;stroke-linejoin:miter;stroke-opacity:1" d="M 99.4137,880.898 103.957,896.043 z" id="boundary" inkscape:connector-curvature="0" />
	<path style="fill:none;stroke:red;stroke-width:1px;stroke-linecap:butt;stroke-linejoin:miter;stroke-opacity:1" d="M 100.928,950.565 111.53,962.681 z" id="boundary" inkscape:connector-curvature="0" />
	<path style="fill:none;stroke:red;stroke-width:1px;stroke-linecap:butt;stroke-linejoin:miter;stroke-opacity:1" d="M 102.443,512.873 110.015,526.504 z" id="boundary" inkscape:connector-curvature="0" />
	<path style="fill:none;stroke:red;stroke-width:1px;stroke-linecap:butt;stroke-linejoin:miter;stroke-opacity:1" d="M 103.957,896.043 116.073,905.13 z" id="boundary" inkscape:connector-curvature="0" />
	<path style="fill:none;stroke:red;stroke-width:1px;stroke-linecap:butt;stroke-linejoin:miter;stroke-opacity:1" d="M 110.015,526.504 119.102,538.62 z" id="boundary" inkscape:connector-curvature="0" />
	<path style="fill:none;stroke:red;stroke-width:1px;stroke-linecap:butt;stroke-linejoin:miter;stroke-opacity:1" d="M 111.53,202.4 126.675,199.371 z" id="boundary" inkscape:connector-curvature="0" />
	<path style="fill:none;stroke:red;stroke-width:1px;stroke-linecap:butt;stroke-linejoin:miter;stroke-opacity:1" d="M 111.53,962.681 123.646,973.282 z" id="boundary" inkscape:connector-curvature="0" />
	<path style="fill:none;stroke:red;stroke-width:1px;stroke-linecap:butt;stroke-linejoin:miter;stroke-opacity:1" d="M 116.073,905.13 122.131,920.275 z" id="boundary" inkscape:connector-curvature="0" />
	<path style="fill:none;stroke:red;stroke-width:1px;stroke-linecap:butt;stroke-linejoin:miter;stroke-opacity:1" d="M 119.102,538.62 131.218,549.221 z" id="boundary" inkscape:connector-curvature="0" />
	<path style="fill:none;stroke:red;stroke-width:1px;stroke-linecap:butt;stroke-linejoin:miter;stroke-opacity:1" d="M 122.131,920.275 137.276,926.333 z" id="boundary" inkscape:connector-curvature="0" />
	<path style="fill:none;stroke:red;stroke-width:1px;stroke-linecap:butt;stroke-linejoin:miter;stroke-opacity:1" d="M 123.646,973.282 137.276,980.855 z" id="boundary" inkscape:connector-curvature="0" />
	<path style="fill:none;stroke:red;stroke-width:1px;stroke-linecap:butt;stroke-linejoin:miter;stroke-opacity:1" d="M 126.675,199.371 140.305,191.798 z" id="boundary" inkscape:connector-curvature="0" />
	<path style="fill:none;stroke:red;stroke-width:1px;stroke-linecap:butt;stroke-linejoin:miter;stroke-opacity:1" d="M 131.218,549.221 137.276,564.366 z" id="boundary" inkscape:connector-curvature="0" />
	<path style="fill:none;stroke:red;stroke-width:1px;stroke-linecap:butt;stroke-linejoin:miter;stroke-opacity:1" d="M 137.276,564.366 144.849,577.997 z" id="boundary" inkscape:connector-curvature="0" />
	<path style="fill:none;stroke:red;stroke-width:1px;stroke-linecap:butt;stroke-linejoin:miter;stroke-opacity:1" d="M 137.276,926.333 147.878,938.449 z" id="boundary" inkscape:connector-curvature="0" />
	<path style="fill:none;stroke:red;stroke-width:1px;stroke-linecap:butt;stroke-linejoin:miter;stroke-opacity:1" d="M 137.276,980.855 152.421,986.913 z" id="boundary" inkscape:connector-curvature="0" />
	<path style="fill:none;stroke:red;stroke-width:1px;stroke-linecap:butt;stroke-linejoin:miter;stroke-opacity:1" d="M 140.305,191.798 155.45,188.769 z" id="boundary" inkscape:connector-curvature="0" />
	<path style="fill:none;stroke:red;stroke-width:1px;stroke-linecap:butt;stroke-linejoin:miter;stroke-opacity:1" d="M 144.849,577.997 155.45,590.113 z" id="boundary" inkscape:connector-curvature="0" />
	<path style="fill:none;stroke:red;stroke-width:1px;stroke-linecap:butt;stroke-linejoin:miter;stroke-opacity:1" d="M 147.878,938.449 163.023,941.478 z" id="boundary" inkscape:connector-curvature="0" />
	<path style="fill:none;stroke:red;stroke-width:1px;stroke-linecap:butt;stroke-linejoin:miter;stroke-opacity:1" d="M 152.421,986.913 167.566,988.427 z" id="boundary" inkscape:connector-curvature="0" />
	<path style="fill:none;stroke:red;stroke-width:1px;stroke-linecap:butt;stroke-linejoin:miter;stroke-opacity:1" d="M 155.45,188.769 170.595,181.197 z" id="boundary" inkscape:connector-curvature="0" />
	<path style="fill:none;stroke:red;stroke-width:1px;stroke-linecap:butt;stroke-linejoin:miter;stroke-opacity:1" d="M 155.45,590.113 167.566,600.715 z" id="boundary" inkscape:connector-curvature="0" />
	<path style="fill:none;stroke:red;stroke-width:1px;stroke-linecap:butt;stroke-linejoin:miter;stroke-opacity:1" d="M 163.023,941.478 178.168,941.478 z" id="boundary" inkscape:connector-curvature="0" />
	<path style="fill:none;stroke:red;stroke-width:1px;stroke-linecap:butt;stroke-linejoin:miter;stroke-opacity:1" d="M 167.566,600.715 173.624,615.86 z" id="boundary" inkscape:connector-curvature="0" />
	<path style="fill:none;stroke:red;stroke-width:1px;stroke-linecap:butt;stroke-linejoin:miter;stroke-opacity:1" d="M 167.566,988.427 181.197,996 z" id="boundary" inkscape:connector-curvature="0" />
	<path style="fill:none;stroke:red;stroke-width:1px;stroke-linecap:butt;stroke-linejoin:miter;stroke-opacity:1" d="M 170.595,181.197 185.74,173.624 z" id="boundary" inkscape:connector-curvature="0" />
	<path style="fill:none;stroke:red;stroke-width:1px;stroke-linecap:butt;stroke-linejoin:miter;stroke-opacity:1" d="M 173.624,615.86 185.74,624.947 z" id="boundary" inkscape:connector-curvature="0" />
	<path style="fill:none;stroke:red;stroke-width:1px;stroke-linecap:butt;stroke-linejoin:miter;stroke-opacity:1" d="M 178.168,941.478 193.313,944.507 z" id="boundary" inkscape:connector-curvature="0" />
	<path style="fill:none;stroke:red;stroke-width:1px;stroke-linecap:butt;stroke-linejoin:miter;stroke-opacity:1" d="M 181.197,996 196.342,996 z" id="boundary" inkscape:connector-curvature="0" />
	<path style="fill:none;stroke:red;stroke-width:1px;stroke-linecap:butt;stroke-linejoin:miter;stroke-opacity:1" d="M 185.74,173.624 197.856,161.508 z" id="boundary" inkscape:connector-curvature="0" />
	<path style="fill:none;stroke:red;stroke-width:1px;stroke-linecap:butt;stroke-linejoin:miter;stroke-opacity:1" d="M 185.74,624.947 199.371,632.519 z" id="boundary" inkscape:connector-curvature="0" />
	<path style="fill:none;stroke:red;stroke-width:1px;stroke-linecap:butt;stroke-linejoin:miter;stroke-opacity:1" d="M 193.313,944.507 208.458,949.05 z" id="boundary" inkscape:connector-curvature="0" />
	<path style="fill:none;stroke:red;stroke-width:1px;stroke-linecap:butt;stroke-linejoin:miter;stroke-opacity:1" d="M 196.342,996 211.487,996 z" id="boundary" inkscape:connector-curvature="0" />
	<path style="fill:none;stroke:red;stroke-width:1px;stroke-linecap:butt;stroke-linejoin:miter;stroke-opacity:1" d="M 197.856,161.508 213.002,153.936 z" id="boundary" inkscape:connector-curvature="0" />
	<path style="fill:none;stroke:red;stroke-width:1px;stroke-linecap:butt;stroke-linejoin:miter;stroke-opacity:1" d="M 199.371,632.519 209.973,644.635 z" id="boundary" inkscape:connector-curvature="0" />
	<path style="fill:none;stroke:red;stroke-width:1px;stroke-linecap:butt;stroke-linejoin:miter;stroke-opacity:1" d="M 208.458,949.05 223.603,949.05 z" id="boundary" inkscape:connector-curvature="0" />
	<path style="fill:none;stroke:red;stroke-width:1px;stroke-linecap:butt;stroke-linejoin:miter;stroke-opacity:1" d="M 209.973,644.635 222.089,655.237 z" id="boundary" inkscape:connector-curvature="0" />
	<path style="fill:none;stroke:red;stroke-width:1px;stroke-linecap:butt;stroke-linejoin:miter;stroke-opacity:1" d="M 211.487,996 226.632,996 z" id="boundary" inkscape:connector-curvature="0" />
	<path style="fill:none;stroke:red;stroke-width:1px;stroke-linecap:butt;stroke-linejoin:miter;stroke-opacity:1" d="M 213.002,153.936 228.147,153.936 z" id="boundary" inkscape:connector-curvature="0" />
	<path style="fill:none;stroke:red;stroke-width:1px;stroke-linecap:butt;stroke-linejoin:miter;stroke-opacity:1" d="M 222.089,655.237 235.719,662.809 z" id="boundary" inkscape:connector-curvature="0" />
	<path style="fill:none;stroke:red;stroke-width:1px;stroke-linecap:butt;stroke-linejoin:miter;stroke-opacity:1" d="M 223.603,949.05 237.234,941.478 z" id="boundary" inkscape:connector-curvature="0" />
	<path style="fill:none;stroke:red;stroke-width:1px;stroke-linecap:butt;stroke-linejoin:miter;stroke-opacity:1" d="M 226.632,996 241.777,996 z" id="boundary" inkscape:connector-curvature="0" />
	<path style="fill:none;stroke:red;stroke-width:1px;stroke-linecap:butt;stroke-linejoin:miter;stroke-opacity:1" d="M 228.147,153.936 241.777,146.363 z" id="boundary" inkscape:connector-curvature="0" />
	<path style="fill:none;stroke:red;stroke-width:1px;stroke-linecap:butt;stroke-linejoin:miter;stroke-opacity:1" d="M 235.719,662.809 247.835,673.411 z" id="boundary" inkscape:connector-curvature="0" />
	<path style="fill:none;stroke:red;stroke-width:1px;stroke-linecap:butt;stroke-linejoin:miter;stroke-opacity:1" d="M 237.234,941.478 252.379,941.478 z" id="boundary" inkscape:connector-curvature="0" />
	<path style="fill:none;stroke:red;stroke-width:1px;stroke-linecap:butt;stroke-linejoin:miter;stroke-opacity:1" d="M 241.777,146.363 255.408,138.791 z" id="boundary" inkscape:connector-curvature="0" />
	<path style="fill:none;stroke:red;stroke-width:1px;stroke-linecap:butt;stroke-linejoin:miter;stroke-opacity:1" d="M 241.777,996 256.922,996 z" id="boundary" inkscape:connector-curvature="0" />
	<path style="fill:none;stroke:red;stroke-width:1px;stroke-linecap:butt;stroke-linejoin:miter;stroke-opacity:1" d="M 247.835,673.411 261.466,680.983 z" id="boundary" inkscape:connector-curvature="0" />
	<path style="fill:none;stroke:red;stroke-width:1px;stroke-linecap:butt;stroke-linejoin:miter;stroke-opacity:1" d="M 252.379,941.478 266.009,933.905 z" id="boundary" inkscape:connector-curvature="0" />
	<path style="fill:none;stroke:red;stroke-width:1px;stroke-linecap:butt;stroke-linejoin:miter;stroke-opacity:1" d="M 255.408,138.791 269.038,128.189 z" id="boundary" inkscape:connector-curvature="0" />
	<path style="fill:none;stroke:red;stroke-width:1px;stroke-linecap:butt;stroke-linejoin:miter;stroke-opacity:1" d="M 256.922,996 272.067,996 z" id="boundary" inkscape:connector-curvature="0" />
	<path style="fill:none;stroke:red;stroke-width:1px;stroke-linecap:butt;stroke-linejoin:miter;stroke-opacity:1" d="M 261.466,680.983 276.611,685.527 z" id="boundary" inkscape:connector-curvature="0" />
	<path style="fill:none;stroke:red;stroke-width:1px;stroke-linecap:butt;stroke-linejoin:miter;stroke-opacity:1" d="M 266.009,933.905 281.154,926.333 z" id="boundary" inkscape:connector-curvature="0" />
	<path style="fill:none;stroke:red;stroke-width:1px;stroke-linecap:butt;stroke-linejoin:miter;stroke-opacity:1" d="M 269.038,128.189 284.183,120.617 z" id="boundary" inkscape:connector-curvature="0" />
	<path style="fill:none;stroke:red;stroke-width:1px;stroke-linecap:butt;stroke-linejoin:miter;stroke-opacity:1" d="M 272.067,996 287.212,996 z" id="boundary" inkscape:connector-curvature="0" />
	<path style="fill:none;stroke:red;stroke-width:1px;stroke-linecap:butt;stroke-linejoin:miter;stroke-opacity:1" d="M 276.611,685.527 284.183,699.157 z" id="boundary" inkscape:connector-curvature="0" />
	<path style="fill:none;stroke:red;stroke-width:1px;stroke-linecap:butt;stroke-linejoin:miter;stroke-opacity:1" d="M 276.611,733.991 284.183,714.302 z" id="boundary" inkscape:connector-curvature="0" />
	<path style="fill:none;stroke:red;stroke-width:1px;stroke-linecap:butt;stroke-linejoin:miter;stroke-opacity:1" d="M 276.611,733.991 284.183,747.621 z" id="boundary" inkscape:connector-curvature="0" />
	<path style="fill:none;stroke:red;stroke-width:1px;stroke-linecap:butt;stroke-linejoin:miter;stroke-opacity:1" d="M 281.154,926.333 296.299,918.76 z" id="boundary" inkscape:connector-curvature="0" />
	<path style="fill:none;stroke:red;stroke-width:1px;stroke-linecap:butt;stroke-linejoin:miter;stroke-opacity:1" d="M 284.183,120.617 299.328,113.044 z" id="boundary" inkscape:connector-curvature="0" />
	<path style="fill:none;stroke:red;stroke-width:1px;stroke-linecap:butt;stroke-linejoin:miter;stroke-opacity:1" d="M 284.183,699.157 284.183,714.302 z" id="boundary" inkscape:connector-curvature="0" />
	<path style="fill:none;stroke:red;stroke-width:1px;stroke-linecap:butt;stroke-linejoin:miter;stroke-opacity:1" d="M 284.183,747.621 291.756,761.252 z" id="boundary" inkscape:connector-curvature="0" />
	<path style="fill:none;stroke:red;stroke-width:1px;stroke-linecap:butt;stroke-linejoin:miter;stroke-opacity:1" d="M 287.212,996 300.843,988.427 z" id="boundary" inkscape:connector-curvature="0" />
	<path style="fill:none;stroke:red;stroke-width:1px;stroke-linecap:butt;stroke-linejoin:miter;stroke-opacity:1" d="M 291.756,761.252 305.386,768.824 z" id="boundary" inkscape:connector-curvature="0" />
	<path style="fill:none;stroke:red;stroke-width:1px;stroke-linecap:butt;stroke-linejoin:miter;stroke-opacity:1" d="M 296.299,918.76 311.444,911.188 z" id="boundary" inkscape:connector-curvature="0" />
	<path style="fill:none;stroke:red;stroke-width:1px;stroke-linecap:butt;stroke-linejoin:miter;stroke-opacity:1" d="M 299.328,113.044 311.444,100.928 z" id="boundary" inkscape:connector-curvature="0" />
	<path style="fill:none;stroke:red;stroke-width:1px;stroke-linecap:butt;stroke-linejoin:miter;stroke-opacity:1" d="M 300.843,988.427 315.988,988.427 z" id="boundary" inkscape:connector-curvature="0" />
	<path style="fill:none;stroke:red;stroke-width:1px;stroke-linecap:butt;stroke-linejoin:miter;stroke-opacity:1" d="M 305.386,768.824 319.017,776.397 z" id="boundary" inkscape:connector-curvature="0" />
	<path style="fill:none;stroke:red;stroke-width:1px;stroke-linecap:butt;stroke-linejoin:miter;stroke-opacity:1" d="M 311.444,100.928 323.56,88.8122 z" id="boundary" inkscape:connector-curvature="0" />
	<path style="fill:none;stroke:red;stroke-width:1px;stroke-linecap:butt;stroke-linejoin:miter;stroke-opacity:1" d="M 311.444,911.188 323.56,899.072 z" id="boundary" inkscape:connector-curvature="0" />
	<path style="fill:none;stroke:red;stroke-width:1px;stroke-linecap:butt;stroke-linejoin:miter;stroke-opacity:1" d="M 315.988,988.427 329.618,980.855 z" id="boundary" inkscape:connector-curvature="0" />
	<path style="fill:none;stroke:red;stroke-width:1px;stroke-linecap:butt;stroke-linejoin:miter;stroke-opacity:1" d="M 319.017,776.397 334.162,782.455 z" id="boundary" inkscape:connector-curvature="0" />
	<path style="fill:none;stroke:red;stroke-width:1px;stroke-linecap:butt;stroke-linejoin:miter;stroke-opacity:1" d="M 323.56,88.8122 335.676,78.2107 z" id="boundary" inkscape:connector-curvature="0" />
	<path style="fill:none;stroke:red;stroke-width:1px;stroke-linecap:butt;stroke-linejoin:miter;stroke-opacity:1" d="M 323.56,899.072 335.676,888.47 z" id="boundary" inkscape:connector-curvature="0" />
	<path style="fill:none;stroke:red;stroke-width:1px;stroke-linecap:butt;stroke-linejoin:miter;stroke-opacity:1" d="M 329.618,980.855 343.249,973.282 z" id="boundary" inkscape:connector-curvature="0" />
	<path style="fill:none;stroke:red;stroke-width:1px;stroke-linecap:butt;stroke-linejoin:miter;stroke-opacity:1" d="M 334.162,782.455 349.307,782.455 z" id="boundary" inkscape:connector-curvature="0" />
	<path style="fill:none;stroke:red;stroke-width:1px;stroke-linecap:butt;stroke-linejoin:miter;stroke-opacity:1" d="M 335.676,78.2107 349.307,70.6382 z" id="boundary" inkscape:connector-curvature="0" />
	<path style="fill:none;stroke:red;stroke-width:1px;stroke-linecap:butt;stroke-linejoin:miter;stroke-opacity:1" d="M 335.676,888.47 344.763,870.296 z" id="boundary" inkscape:connector-curvature="0" />
	<path style="fill:none;stroke:red;stroke-width:1px;stroke-linecap:butt;stroke-linejoin:miter;stroke-opacity:1" d="M 343.249,973.282 358.394,970.253 z" id="boundary" inkscape:connector-curvature="0" />
	<path style="fill:none;stroke:red;stroke-width:1px;stroke-linecap:butt;stroke-linejoin:miter;stroke-opacity:1" d="M 344.763,870.296 352.336,855.151 z" id="boundary" inkscape:connector-curvature="0" />
	<path style="fill:none;stroke:red;stroke-width:1px;stroke-linecap:butt;stroke-linejoin:miter;stroke-opacity:1" d="M 349.307,70.6382 361.423,58.5221 z" id="boundary" inkscape:connector-curvature="0" />
	<path style="fill:none;stroke:red;stroke-width:1px;stroke-linecap:butt;stroke-linejoin:miter;stroke-opacity:1" d="M 349.307,782.455 364.452,776.397 z" id="boundary" inkscape:connector-curvature="0" />
	<path style="fill:none;stroke:red;stroke-width:1px;stroke-linecap:butt;stroke-linejoin:miter;stroke-opacity:1" d="M 352.336,855.151 359.908,832.434 z" id="boundary" inkscape:connector-curvature="0" />
	<path style="fill:none;stroke:red;stroke-width:1px;stroke-linecap:butt;stroke-linejoin:miter;stroke-opacity:1" d="M 358.394,970.253 368.995,958.137 z" id="boundary" inkscape:connector-curvature="0" />
	<path style="fill:none;stroke:red;stroke-width:1px;stroke-linecap:butt;stroke-linejoin:miter;stroke-opacity:1" d="M 359.908,832.434 367.481,809.716 z" id="boundary" inkscape:connector-curvature="0" />
	<path style="fill:none;stroke:red;stroke-width:1px;stroke-linecap:butt;stroke-linejoin:miter;stroke-opacity:1" d="M 361.423,58.5221 368.995,43.3771 z" id="boundary" inkscape:connector-curvature="0" />
	<path style="fill:none;stroke:red;stroke-width:1px;stroke-linecap:butt;stroke-linejoin:miter;stroke-opacity:1" d="M 364.452,776.397 375.053,788.513 z" id="boundary" inkscape:connector-curvature="0" />
	<path style="fill:none;stroke:red;stroke-width:1px;stroke-linecap:butt;stroke-linejoin:miter;stroke-opacity:1" d="M 367.481,809.716 375.053,788.513 z" id="boundary" inkscape:connector-curvature="0" />
	<path style="fill:none;stroke:red;stroke-width:1px;stroke-linecap:butt;stroke-linejoin:miter;stroke-opacity:1" d="M 368.995,43.3771 381.111,32.7756 z" id="boundary" inkscape:connector-curvature="0" />
	<path style="fill:none;stroke:red;stroke-width:1px;stroke-linecap:butt;stroke-linejoin:miter;stroke-opacity:1" d="M 368.995,958.137 384.14,950.565 z" id="boundary" inkscape:connector-curvature="0" />
	<path style="fill:none;stroke:red;stroke-width:1px;stroke-linecap:butt;stroke-linejoin:miter;stroke-opacity:1" d="M 381.111,32.7756 391.713,20.6595 z" id="boundary" inkscape:connector-curvature="0" />
	<path style="fill:none;stroke:red;stroke-width:1px;stroke-linecap:butt;stroke-linejoin:miter;stroke-opacity:1" d="M 384.14,950.565 399.285,942.992 z" id="boundary" inkscape:connector-curvature="0" />
	<path style="fill:none;stroke:red;stroke-width:1px;stroke-linecap:butt;stroke-linejoin:miter;stroke-opacity:1" d="M 391.713,20.6595 406.858,13.087 z" id="boundary" inkscape:connector-curvature="0" />
	<path style="fill:none;stroke:red;stroke-width:1px;stroke-linecap:butt;stroke-linejoin:miter;stroke-opacity:1" d="M 399.285,942.992 411.402,932.391 z" id="boundary" inkscape:connector-curvature="0" />
	<path style="fill:none;stroke:red;stroke-width:1px;stroke-linecap:butt;stroke-linejoin:miter;stroke-opacity:1" d="M 406.858,13.087 418.974,4 z" id="boundary" inkscape:connector-curvature="0" />
	<path style="fill:none;stroke:red;stroke-width:1px;stroke-linecap:butt;stroke-linejoin:miter;stroke-opacity:1" d="M 411.402,932.391 422.003,920.275 z" id="boundary" inkscape:connector-curvature="0" />
	<path style="fill:none;stroke:red;stroke-width:1px;stroke-linecap:butt;stroke-linejoin:miter;stroke-opacity:1" d="M 418.974,4 432.605,11.5725 z" id="boundary" inkscape:connector-curvature="0" />
	<path style="fill:none;stroke:red;stroke-width:1px;stroke-linecap:butt;stroke-linejoin:miter;stroke-opacity:1" d="M 422.003,920.275 429.576,905.13 z" id="boundary" inkscape:connector-curvature="0" />
	<path style="fill:none;stroke:red;stroke-width:1px;stroke-linecap:butt;stroke-linejoin:miter;stroke-opacity:1" d="M 429.576,905.13 437.148,889.985 z" id="boundary" inkscape:connector-curvature="0" />
	<path style="fill:none;stroke:red;stroke-width:1px;stroke-linecap:butt;stroke-linejoin:miter;stroke-opacity:1" d="M 432.605,11.5725 447.75,17.6305 z" id="boundary" inkscape:connector-curvature="0" />
	<path style="fill:none;stroke:red;stroke-width:1px;stroke-linecap:butt;stroke-linejoin:miter;stroke-opacity:1" d="M 437.148,889.985 449.264,879.383 z" id="boundary" inkscape:connector-curvature="0" />
	<path style="fill:none;stroke:red;stroke-width:1px;stroke-linecap:butt;stroke-linejoin:miter;stroke-opacity:1" d="M 447.75,17.6305 458.351,29.7466 z" id="boundary" inkscape:connector-curvature="0" />
	<path style="fill:none;stroke:red;stroke-width:1px;stroke-linecap:butt;stroke-linejoin:miter;stroke-opacity:1" d="M 449.264,879.383 456.837,864.238 z" id="boundary" inkscape:connector-curvature="0" />
	<path style="fill:none;stroke:red;stroke-width:1px;stroke-linecap:butt;stroke-linejoin:miter;stroke-opacity:1" d="M 456.837,864.238 464.409,849.093 z" id="boundary" inkscape:connector-curvature="0" />
	<path style="fill:none;stroke:red;stroke-width:1px;stroke-linecap:butt;stroke-linejoin:miter;stroke-opacity:1" d="M 458.351,29.7466 473.496,35.8046 z" id="boundary" inkscape:connector-curvature="0" />
	<path style="fill:none;stroke:red;stroke-width:1px;stroke-linecap:butt;stroke-linejoin:miter;stroke-opacity:1" d="M 464.409,849.093 467.438,829.405 z" id="boundary" inkscape:connector-curvature="0" />
	<path style="fill:none;stroke:red;stroke-width:1px;stroke-linecap:butt;stroke-linejoin:miter;stroke-opacity:1" d="M 467.438,829.405 475.011,806.687 z" id="boundary" inkscape:connector-curvature="0" />
	<path style="fill:none;stroke:red;stroke-width:1px;stroke-linecap:butt;stroke-linejoin:miter;stroke-opacity:1" d="M 473.496,35.8046 487.127,43.3771 z" id="boundary" inkscape:connector-curvature="0" />
	<path style="fill:none;stroke:red;stroke-width:1px;stroke-linecap:butt;stroke-linejoin:miter;stroke-opacity:1" d="M 475.011,806.687 482.583,791.542 z" id="boundary" inkscape:connector-curvature="0" />
	<path style="fill:none;stroke:red;stroke-width:1px;stroke-linecap:butt;stroke-linejoin:miter;stroke-opacity:1" d="M 482.583,791.542 497.728,783.969 z" id="boundary" inkscape:connector-curvature="0" />
	<path style="fill:none;stroke:red;stroke-width:1px;stroke-linecap:butt;stroke-linejoin:miter;stroke-opacity:1" d="M 487.127,43.3771 497.728,55.4931 z" id="boundary" inkscape:connector-curvature="0" />
	<path style="fill:none;stroke:red;stroke-width:1px;stroke-linecap:butt;stroke-linejoin:miter;stroke-opacity:1" d="M 497.728,55.4931 509.844,64.5802 z" id="boundary" inkscape:connector-curvature="0" />
	<path style="fill:none;stroke:red;stroke-width:1px;stroke-linecap:butt;stroke-linejoin:miter;stroke-opacity:1" d="M 497.728,783.969 512.873,783.969 z" id="boundary" inkscape:connector-curvature="0" />
	<path style="fill:none;stroke:red;stroke-width:1px;stroke-linecap:butt;stroke-linejoin:miter;stroke-opacity:1" d="M 509.844,64.5802 520.446,76.6962 z" id="boundary" inkscape:connector-curvature="0" />
	<path style="fill:none;stroke:red;stroke-width:1px;stroke-linecap:butt;stroke-linejoin:miter;stroke-opacity:1" d="M 512.873,783.969 526.504,776.397 z" id="boundary" inkscape:connector-curvature="0" />
	<path style="fill:none;stroke:red;stroke-width:1px;stroke-linecap:butt;stroke-linejoin:miter;stroke-opacity:1" d="M 520.446,76.6962 528.018,90.3267 z" id="boundary" inkscape:connector-curvature="0" />
	<path style="fill:none;stroke:red;stroke-width:1px;stroke-linecap:butt;stroke-linejoin:miter;stroke-opacity:1" d="M 526.504,776.397 541.649,776.397 z" id="boundary" inkscape:connector-curvature="0" />
	<path style="fill:none;stroke:red;stroke-width:1px;stroke-linecap:butt;stroke-linejoin:miter;stroke-opacity:1" d="M 528.018,90.3267 540.134,100.928 z" id="boundary" inkscape:connector-curvature="0" />
	<path style="fill:none;stroke:red;stroke-width:1px;stroke-linecap:butt;stroke-linejoin:miter;stroke-opacity:1" d="M 540.134,100.928 553.765,108.501 z" id="boundary" inkscape:connector-curvature="0" />
	<path style="fill:none;stroke:red;stroke-width:1px;stroke-linecap:butt;stroke-linejoin:miter;stroke-opacity:1" d="M 541.649,776.397 556.794,776.397 z" id="boundary" inkscape:connector-curvature="0" />
	<path style="fill:none;stroke:red;stroke-width:1px;stroke-linecap:butt;stroke-linejoin:miter;stroke-opacity:1" d="M 553.765,108.501 564.366,120.617 z" id="boundary" inkscape:connector-curvature="0" />
	<path style="fill:none;stroke:red;stroke-width:1px;stroke-linecap:butt;stroke-linejoin:miter;stroke-opacity:1" d="M 556.794,776.397 571.939,776.397 z" id="boundary" inkscape:connector-curvature="0" />
	<path style="fill:none;stroke:red;stroke-width:1px;stroke-linecap:butt;stroke-linejoin:miter;stroke-opacity:1" d="M 564.366,120.617 576.482,131.218 z" id="boundary" inkscape:connector-curvature="0" />
	<path style="fill:none;stroke:red;stroke-width:1px;stroke-linecap:butt;stroke-linejoin:miter;stroke-opacity:1" d="M 571.939,776.397 585.569,768.824 z" id="boundary" inkscape:connector-curvature="0" />
	<path style="fill:none;stroke:red;stroke-width:1px;stroke-linecap:butt;stroke-linejoin:miter;stroke-opacity:1" d="M 576.482,131.218 591.627,131.218 z" id="boundary" inkscape:connector-curvature="0" />
	<path style="fill:none;stroke:red;stroke-width:1px;stroke-linecap:butt;stroke-linejoin:miter;stroke-opacity:1" d="M 585.569,768.824 599.2,759.737 z" id="boundary" inkscape:connector-curvature="0" />
	<path style="fill:none;stroke:red;stroke-width:1px;stroke-linecap:butt;stroke-linejoin:miter;stroke-opacity:1" d="M 591.627,131.218 605.258,138.791 z" id="boundary" inkscape:connector-curvature="0" />
	<path style="fill:none;stroke:red;stroke-width:1px;stroke-linecap:butt;stroke-linejoin:miter;stroke-opacity:1" d="M 596.171,700.672 596.171,715.817 z" id="boundary" inkscape:connector-curvature="0" />
	<path style="fill:none;stroke:red;stroke-width:1px;stroke-linecap:butt;stroke-linejoin:miter;stroke-opacity:1" d="M 596.171,700.672 609.802,693.099 z" id="boundary" inkscape:connector-curvature="0" />
	<path style="fill:none;stroke:red;stroke-width:1px;stroke-linecap:butt;stroke-linejoin:miter;stroke-opacity:1" d="M 596.171,715.817 603.744,729.447 z" id="boundary" inkscape:connector-curvature="0" />
	<path style="fill:none;stroke:red;stroke-width:1px;stroke-linecap:butt;stroke-linejoin:miter;stroke-opacity:1" d="M 599.2,759.737 603.744,744.592 z" id="boundary" inkscape:connector-curvature="0" />
	<path style="fill:none;stroke:red;stroke-width:1px;stroke-linecap:butt;stroke-linejoin:miter;stroke-opacity:1" d="M 603.744,729.447 603.744,744.592 z" id="boundary" inkscape:connector-curvature="0" />
	<path style="fill:none;stroke:red;stroke-width:1px;stroke-linecap:butt;stroke-linejoin:miter;stroke-opacity:1" d="M 605.258,138.791 618.889,146.363 z" id="boundary" inkscape:connector-curvature="0" />
	<path style="fill:none;stroke:red;stroke-width:1px;stroke-linecap:butt;stroke-linejoin:miter;stroke-opacity:1" d="M 609.802,693.099 621.918,684.012 z" id="boundary" inkscape:connector-curvature="0" />
	<path style="fill:none;stroke:red;stroke-width:1px;stroke-linecap:butt;stroke-linejoin:miter;stroke-opacity:1" d="M 618.889,146.363 631.005,155.45 z" id="boundary" inkscape:connector-curvature="0" />
	<path style="fill:none;stroke:red;stroke-width:1px;stroke-linecap:butt;stroke-linejoin:miter;stroke-opacity:1" d="M 621.918,684.012 634.034,670.382 z" id="boundary" inkscape:connector-curvature="0" />
	<path style="fill:none;stroke:red;stroke-width:1px;stroke-linecap:butt;stroke-linejoin:miter;stroke-opacity:1" d="M 631.005,155.45 646.15,161.508 z" id="boundary" inkscape:connector-curvature="0" />
	<path style="fill:none;stroke:red;stroke-width:1px;stroke-linecap:butt;stroke-linejoin:miter;stroke-opacity:1" d="M 634.034,670.382 647.664,662.809 z" id="boundary" inkscape:connector-curvature="0" />
	<path style="fill:none;stroke:red;stroke-width:1px;stroke-linecap:butt;stroke-linejoin:miter;stroke-opacity:1" d="M 646.15,161.508 659.78,169.081 z" id="boundary" inkscape:connector-curvature="0" />
	<path style="fill:none;stroke:red;stroke-width:1px;stroke-linecap:butt;stroke-linejoin:miter;stroke-opacity:1" d="M 647.664,662.809 659.78,653.722 z" id="boundary" inkscape:connector-curvature="0" />
	<path style="fill:none;stroke:red;stroke-width:1px;stroke-linecap:butt;stroke-linejoin:miter;stroke-opacity:1" d="M 659.78,169.081 674.925,169.081 z" id="boundary" inkscape:connector-curvature="0" />
	<path style="fill:none;stroke:red;stroke-width:1px;stroke-linecap:butt;stroke-linejoin:miter;stroke-opacity:1" d="M 659.78,653.722 671.896,640.092 z" id="boundary" inkscape:connector-curvature="0" />
	<path style="fill:none;stroke:red;stroke-width:1px;stroke-linecap:butt;stroke-linejoin:miter;stroke-opacity:1" d="M 671.896,640.092 684.012,629.49 z" id="boundary" inkscape:connector-curvature="0" />
	<path style="fill:none;stroke:red;stroke-width:1px;stroke-linecap:butt;stroke-linejoin:miter;stroke-opacity:1" d="M 674.925,169.081 688.556,176.653 z" id="boundary" inkscape:connector-curvature="0" />
	<path style="fill:none;stroke:red;stroke-width:1px;stroke-linecap:butt;stroke-linejoin:miter;stroke-opacity:1" d="M 684.012,629.49 694.614,617.374 z" id="boundary" inkscape:connector-curvature="0" />
	<path style="fill:none;stroke:red;stroke-width:1px;stroke-linecap:butt;stroke-linejoin:miter;stroke-opacity:1" d="M 688.556,176.653 702.186,184.226 z" id="boundary" inkscape:connector-curvature="0" />
	<path style="fill:none;stroke:red;stroke-width:1px;stroke-linecap:butt;stroke-linejoin:miter;stroke-opacity:1" d="M 694.614,617.374 706.73,606.773 z" id="boundary" inkscape:connector-curvature="0" />
	<path style="fill:none;stroke:red;stroke-width:1px;stroke-linecap:butt;stroke-linejoin:miter;stroke-opacity:1" d="M 702.186,184.226 717.331,188.769 z" id="boundary" inkscape:connector-curvature="0" />
	<path style="fill:none;stroke:red;stroke-width:1px;stroke-linecap:butt;stroke-linejoin:miter;stroke-opacity:1" d="M 706.73,606.773 717.331,587.084 z" id="boundary" inkscape:connector-curvature="0" />
	<path style="fill:none;stroke:red;stroke-width:1px;stroke-linecap:butt;stroke-linejoin:miter;stroke-opacity:1" d="M 717.331,188.769 732.476,191.798 z" id="boundary" inkscape:connector-curvature="0" />
	<path style="fill:none;stroke:red;stroke-width:1px;stroke-linecap:butt;stroke-linejoin:miter;stroke-opacity:1" d="M 717.331,587.084 724.904,571.939 z" id="boundary" inkscape:connector-curvature="0" />
	<path style="fill:none;stroke:red;stroke-width:1px;stroke-linecap:butt;stroke-linejoin:miter;stroke-opacity:1" d="M 724.904,571.939 737.02,561.337 z" id="boundary" inkscape:connector-curvature="0" />
	<path style="fill:none;stroke:red;stroke-width:1px;stroke-linecap:butt;stroke-linejoin:miter;stroke-opacity:1" d="M 732.476,191.798 746.107,199.371 z" id="boundary" inkscape:connector-curvature="0" />
	<path style="fill:none;stroke:red;stroke-width:1px;stroke-linecap:butt;stroke-linejoin:miter;stroke-opacity:1" d="M 737.02,561.337 747.621,549.221 z" id="boundary" inkscape:connector-curvature="0" />
	<path style="fill:none;stroke:red;stroke-width:1px;stroke-linecap:butt;stroke-linejoin:miter;stroke-opacity:1" d="M 746.107,199.371 761.252,202.4 z" id="boundary" inkscape:connector-curvature="0" />
	<path style="fill:none;stroke:red;stroke-width:1px;stroke-linecap:butt;stroke-linejoin:miter;stroke-opacity:1" d="M 747.621,534.076 747.621,549.221 z" id="boundary" inkscape:connector-curvature="0" />
	<path style="fill:none;stroke:red;stroke-width:1px;stroke-linecap:butt;stroke-linejoin:miter;stroke-opacity:1" d="M 747.621,534.076 755.194,518.931 z" id="boundary" inkscape:connector-curvature="0" />
	<path style="fill:none;stroke:red;stroke-width:1px;stroke-linecap:butt;stroke-linejoin:miter;stroke-opacity:1" d="M 755.194,518.931 767.31,508.33 z" id="boundary" inkscape:connector-curvature="0" />
	<path style="fill:none;stroke:red;stroke-width:1px;stroke-linecap:butt;stroke-linejoin:miter;stroke-opacity:1" d="M 761.252,202.4 776.397,206.944 z" id="boundary" inkscape:connector-curvature="0" />
	<path style="fill:none;stroke:red;stroke-width:1px;stroke-linecap:butt;stroke-linejoin:miter;stroke-opacity:1" d="M 767.31,508.33 774.882,493.185 z" id="boundary" inkscape:connector-curvature="0" />
	<path style="fill:none;stroke:red;stroke-width:1px;stroke-linecap:butt;stroke-linejoin:miter;stroke-opacity:1" d="M 774.882,493.185 782.455,478.04 z" id="boundary" inkscape:connector-curvature="0" />
	<path style="fill:none;stroke:red;stroke-width:1px;stroke-linecap:butt;stroke-linejoin:miter;stroke-opacity:1" d="M 776.397,206.944 791.542,209.973 z" id="boundary" inkscape:connector-curvature="0" />
	<path style="fill:none;stroke:red;stroke-width:1px;stroke-linecap:butt;stroke-linejoin:miter;stroke-opacity:1" d="M 782.455,478.04 793.056,465.924 z" id="boundary" inkscape:connector-curvature="0" />
	<path style="fill:none;stroke:red;stroke-width:1px;stroke-linecap:butt;stroke-linejoin:miter;stroke-opacity:1" d="M 791.542,209.973 805.173,217.545 z" id="boundary" inkscape:connector-curvature="0" />
	<path style="fill:none;stroke:red;stroke-width:1px;stroke-linecap:butt;stroke-linejoin:miter;stroke-opacity:1" d="M 793.056,465.924 805.173,455.322 z" id="boundary" inkscape:connector-curvature="0" />
	<path style="fill:none;stroke:red;stroke-width:1px;stroke-linecap:butt;stroke-linejoin:miter;stroke-opacity:1" d="M 805.173,217.545 815.774,229.661 z" id="boundary" inkscape:connector-curvature="0" />
	<path style="fill:none;stroke:red;stroke-width:1px;stroke-linecap:butt;stroke-linejoin:miter;stroke-opacity:1" d="M 805.173,455.322 812.745,440.177 z" id="boundary" inkscape:connector-curvature="0" />
	<path style="fill:none;stroke:red;stroke-width:1px;stroke-linecap:butt;stroke-linejoin:miter;stroke-opacity:1" d="M 812.745,440.177 820.318,425.032 z" id="boundary" inkscape:connector-curvature="0" />
	<path style="fill:none;stroke:red;stroke-width:1px;stroke-linecap:butt;stroke-linejoin:miter;stroke-opacity:1" d="M 815.774,229.661 827.89,238.748 z" id="boundary" inkscape:connector-curvature="0" />
	<path style="fill:none;stroke:red;stroke-width:1px;stroke-linecap:butt;stroke-linejoin:miter;stroke-opacity:1" d="M 820.318,425.032 830.919,405.344 z" id="boundary" inkscape:connector-curvature="0" />
	<path style="fill:none;stroke:red;stroke-width:1px;stroke-linecap:butt;stroke-linejoin:miter;stroke-opacity:1" d="M 827.89,238.748 838.492,250.864 z" id="boundary" inkscape:connector-curvature="0" />
	<path style="fill:none;stroke:red;stroke-width:1px;stroke-linecap:butt;stroke-linejoin:miter;stroke-opacity:1" d="M 830.919,405.344 838.492,390.198 z" id="boundary" inkscape:connector-curvature="0" />
	<path style="fill:none;stroke:red;stroke-width:1px;stroke-linecap:butt;stroke-linejoin:miter;stroke-opacity:1" d="M 838.492,250.864 846.064,264.495 z" id="boundary" inkscape:connector-curvature="0" />
	<path style="fill:none;stroke:red;stroke-width:1px;stroke-linecap:butt;stroke-linejoin:miter;stroke-opacity:1" d="M 838.492,390.198 846.064,367.481 z" id="boundary" inkscape:connector-curvature="0" />
	<path style="fill:none;stroke:red;stroke-width:1px;stroke-linecap:butt;stroke-linejoin:miter;stroke-opacity:1" d="M 846.064,264.495 853.637,278.125 z" id="boundary" inkscape:connector-curvature="0" />
	<path style="fill:none;stroke:red;stroke-width:1px;stroke-linecap:butt;stroke-linejoin:miter;stroke-opacity:1" d="M 846.064,367.481 853.637,344.763 z" id="boundary" inkscape:connector-curvature="0" />
	<path style="fill:none;stroke:red;stroke-width:1px;stroke-linecap:butt;stroke-linejoin:miter;stroke-opacity:1" d="M 853.637,278.125 861.209,291.756 z" id="boundary" inkscape:connector-curvature="0" />
	<path style="fill:none;stroke:red;stroke-width:1px;stroke-linecap:butt;stroke-linejoin:miter;stroke-opacity:1" d="M 853.637,344.763 861.209,322.046 z" id="boundary" inkscape:connector-curvature="0" />
	<path style="fill:none;stroke:red;stroke-width:1px;stroke-linecap:butt;stroke-linejoin:miter;stroke-opacity:1" d="M 861.209,291.756 861.209,306.901 z" id="boundary" inkscape:connector-curvature="0" />
	<path style="fill:none;stroke:red;stroke-width:1px;stroke-linecap:butt;stroke-linejoin:miter;stroke-opacity:1" d="M 861.209,306.901 861.209,322.046 z" id="boundary" inkscape:connector-curvature="0" />
	<circle cx="4" cy="325.075" r="4" fill="#0" id="circle0"/>
	<circle cx="4" cy="340.22" r="4" fill="#0" id="circle1"/>
	<circle cx="4" cy="355.365" r="4" fill="#0" id="circle2"/>
	<circle cx="11.5725" cy="309.93" r="4" fill="#0" id="circle3"/>
	<circle cx="11.5725" cy="368.995" r="4" fill="#0" id="circle4"/>
	<circle cx="19.145" cy="294.785" r="4" fill="#0" id="circle5"/>
	<circle cx="19.145" cy="382.626" r="4" fill="#0" id="circle6"/>
	<circle cx="26.7176" cy="396.256" r="4" fill="#0" id="circle7"/>
	<circle cx="31.2611" cy="282.669" r="4" fill="#0" id="circle8"/>
	<circle cx="35.8046" cy="408.373" r="4" fill="#0" id="circle9"/>
	<circle cx="38.8336" cy="267.524" r="4" fill="#0" id="circle10"/>
	<circle cx="41.8626" cy="423.518" r="4" fill="#0" id="circle11"/>
	<circle cx="41.8626" cy="847.579" r="4" fill="#0" id="circle12"/>
	<circle cx="46.4061" cy="252.379" r="4" fill="#0" id="circle13"/>
	<circle cx="49.4351" cy="437.148" r="4" fill="#0" id="circle14"/>
	<circle cx="49.4351" cy="802.144" r="4" fill="#0" id="circle15"/>
	<circle cx="49.4351" cy="817.289" r="4" fill="#0" id="circle16"/>
	<circle cx="49.4351" cy="832.434" r="4" fill="#0" id="circle17"/>
	<circle cx="49.4351" cy="861.209" r="4" fill="#0" id="circle18"/>
	<circle cx="49.4351" cy="876.354" r="4" fill="#0" id="circle19"/>
	<circle cx="49.4351" cy="891.499" r="4" fill="#0" id="circle20"/>
	<circle cx="57.0076" cy="786.998" r="4" fill="#0" id="circle21"/>
	<circle cx="57.0076" cy="905.13" r="4" fill="#0" id="circle22"/>
	<circle cx="58.5221" cy="240.263" r="4" fill="#0" id="circle23"/>
	<circle cx="60.0366" cy="449.264" r="4" fill="#0" id="circle24"/>
	<circle cx="64.5802" cy="764.281" r="4" fill="#0" id="circle25"/>
	<circle cx="66.0947" cy="917.246" r="4" fill="#0" id="circle26"/>
	<circle cx="70.6382" cy="229.661" r="4" fill="#0" id="circle27"/>
	<circle cx="72.1527" cy="458.351" r="4" fill="#0" id="circle28"/>
	<circle cx="72.1527" cy="749.136" r="4" fill="#0" id="circle29"/>
	<circle cx="76.6962" cy="473.496" r="4" fill="#0" id="circle30"/>
	<circle cx="78.2107" cy="927.847" r="4" fill="#0" id="circle31"/>
	<circle cx="81.2397" cy="217.545" r="4" fill="#0" id="circle32"/>
	<circle cx="84.2687" cy="487.127" r="4" fill="#0" id="circle33"/>
	<circle cx="84.2687" cy="737.02" r="4" fill="#0" id="circle34"/>
	<circle cx="88.8122" cy="776.397" r="4" fill="#0" id="circle35"/>
	<circle cx="88.8122" cy="791.542" r="4" fill="#0" id="circle36"/>
	<circle cx="88.8122" cy="806.687" r="4" fill="#0" id="circle37"/>
	<circle cx="88.8122" cy="821.832" r="4" fill="#0" id="circle38"/>
	<circle cx="88.8122" cy="836.977" r="4" fill="#0" id="circle39"/>
	<circle cx="88.8122" cy="852.122" r="4" fill="#0" id="circle40"/>
	<circle cx="88.8122" cy="939.963" r="4" fill="#0" id="circle41"/>
	<circle cx="91.8412" cy="867.267" r="4" fill="#0" id="circle42"/>
	<circle cx="94.8702" cy="499.243" r="4" fill="#0" id="circle43"/>
	<circle cx="96.3847" cy="209.973" r="4" fill="#0" id="circle44"/>
	<circle cx="96.3847" cy="724.904" r="4" fill="#0" id="circle45"/>
	<circle cx="96.3847" cy="753.679" r="4" fill="#0" id="circle46"/>
	<circle cx="99.4137" cy="880.898" r="4" fill="#0" id="circle47"/>
	<circle cx="100.928" cy="950.565" r="4" fill="#0" id="circle48"/>
	<circle cx="102.443" cy="512.873" r="4" fill="#0" id="circle49"/>
	<circle cx="103.957" cy="738.534" r="4" fill="#0" id="circle50"/>
	<circle cx="103.957" cy="896.043" r="4" fill="#0" id="circle51"/>
	<circle cx="110.015" cy="526.504" r="4" fill="#0" id="circle52"/>
	<circle cx="111.53" cy="202.4" r="4" fill="#0" id="circle53"/>
	<circle cx="111.53" cy="962.681" r="4" fill="#0" id="circle54"/>
	<circle cx="116.073" cy="905.13" r="4" fill="#0" id="circle55"/>
	<circle cx="119.102" cy="538.62" r="4" fill="#0" id="circle56"/>
	<circle cx="122.131" cy="920.275" r="4" fill="#0" id="circle57"/>
	<circle cx="123.646" cy="973.282" r="4" fill="#0" id="circle58"/>
	<circle cx="126.675" cy="199.371" r="4" fill="#0" id="circle59"/>
	<circle cx="131.218" cy="549.221" r="4" fill="#0" id="circle60"/>
	<circle cx="137.276" cy="564.366" r="4" fill="#0" id="circle61"/>
	<circle cx="137.276" cy="926.333" r="4" fill="#0" id="circle62"/>
	<circle cx="137.276" cy="980.855" r="4" fill="#0" id="circle63"/>
	<circle cx="140.305" cy="191.798" r="4" fill="#0" id="circle64"/>
	<circle cx="144.849" cy="577.997" r="4" fill="#0" id="circle65"/>
	<circle cx="147.878" cy="938.449" r="4" fill="#0" id="circle66"/>
	<circle cx="152.421" cy="986.913" r="4" fill="#0" id="circle67"/>
	<circle cx="155.45" cy="188.769" r="4" fill="#0" id="circle68"/>
	<circle cx="155.45" cy="590.113" r="4" fill="#0" id="circle69"/>
	<circle cx="163.023" cy="941.478" r="4" fill="#0" id="circle70"/>
	<circle cx="167.566" cy="600.715" r="4" fill="#0" id="circle71"/>
	<circle cx="167.566" cy="988.427" r="4" fill="#0" id="circle72"/>
	<circle cx="170.595" cy="181.197" r="4" fill="#0" id="circle73"/>
	<circle cx="173.624" cy="615.86" r="4" fill="#0" id="circle74"/>
	<circle cx="178.168" cy="941.478" r="4" fill="#0" id="circle75"/>
	<circle cx="181.197" cy="996" r="4" fill="#0" id="circle76"/>
	<circle cx="185.74" cy="173.624" r="4" fill="#0" id="circle77"/>
	<circle cx="185.74" cy="624.947" r="4" fill="#0" id="circle78"/>
	<circle cx="193.313" cy="944.507" r="4" fill="#0" id="circle79"/>
	<circle cx="196.342" cy="996" r="4" fill="#0" id="circle80"/>
	<circle cx="197.856" cy="161.508" r="4" fill="#0" id="circle81"/>
	<circle cx="199.371" cy="632.519" r="4" fill="#0" id="circle82"/>
	<circle cx="208.458" cy="949.05" r="4" fill="#0" id="circle83"/>
	<circle cx="209.973" cy="644.635" r="4" fill="#0" id="circle84"/>
	<circle cx="211.487" cy="996" r="4" fill="#0" id="circle85"/>
	<circle cx="213.002" cy="153.936" r="4" fill="#0" id="circle86"/>
	<circle cx="222.089" cy="655.237" r="4" fill="#0" id="circle87"/>
	<circle cx="223.603" cy="949.05" r="4" fill="#0" id="circle88"/>
	<circle cx="226.632" cy="996" r="4" fill="#0" id="circle89"/>
	<circle cx="228.147" cy="153.936" r="4" fill="#0" id="circle90"/>
	<circle cx="235.719" cy="662.809" r="4" fill="#0" id="circle91"/>
	<circle cx="237.234" cy="941.478" r="4" fill="#0" id="circle92"/>
	<circle cx="241.777" cy="146.363" r="4" fill="#0" id="circle93"/>
	<circle cx="241.777" cy="996" r="4" fill="#0" id="circle94"/>
	<circle cx="247.835" cy="673.411" r="4" fill="#0" id="circle95"/>
	<circle cx="252.379" cy="941.478" r="4" fill="#0" id="circle96"/>
	<circle cx="255.408" cy="138.791" r="4" fill="#0" id="circle97"/>
	<circle cx="256.922" cy="996" r="4" fill="#0" id="circle98"/>
	<circle cx="261.466" cy="680.983" r="4" fill="#0" id="circle99"/>
	<circle cx="266.009" cy="933.905" r="4" fill="#0" id="circle100"/>
	<circle cx="269.038" cy="128.189" r="4" fill="#0" id="circle101"/>
	<circle cx="272.067" cy="996" r="4" fill="#0" id="circle102"/>
	<circle cx="276.611" cy="685.527" r="4" fill="#0" id="circle103"/>
	<circle cx="276.611" cy="733.991" r="4" fill="#0" id="circle104"/>
	<circle cx="281.154" cy="926.333" r="4" fill="#0" id="circle105"/>
	<circle cx="284.183" cy="120.617" r="4" fill="#0" id="circle106"/>
	<circle cx="284.183" cy="699.157" r="4" fill="#0" id="circle107"/>
	<circle cx="284.183" cy="714.302" r="4" fill="#0" id="circle108"/>
	<circle cx="284.183" cy="747.621" r="4" fill="#0" id="circle109"/>
	<circle cx="287.212" cy="996" r="4" fill="#0" id="circle110"/>
	<circle cx="291.756" cy="761.252" r="4" fill="#0" id="circle111"/>
	<circle cx="296.299" cy="918.76" r="4" fill="#0" id="circle112"/>
	<circle cx="299.328" cy="113.044" r="4" fill="#0" id="circle113"/>
	<circle cx="300.843" cy="988.427" r="4" fill="#0" id="circle114"/>
	<circle cx="305.386" cy="768.824" r="4" fill="#0" id="circle115"/>
	<circle cx="311.444" cy="100.928" r="4" fill="#0" id="circle116"/>
	<circle cx="311.444" cy="911.188" r="4" fill="#0" id="circle117"/>
	<circle cx="315.988" cy="988.427" r="4" fill="#0" id="circle118"/>
	<circle cx="319.017" cy="776.397" r="4" fill="#0" id="circle119"/>
	<circle cx="323.56" cy="88.8122" r="4" fill="#0" id="circle120"/>
	<circle cx="323.56" cy="899.072" r="4" fill="#0" id="circle121"/>
	<circle cx="329.618" cy="980.855" r="4" fill="#0" id="circle122"/>
	<circle cx="334.162" cy="782.455" r="4" fill="#0" id="circle123"/>
	<circle cx="335.676" cy="78.2107" r="4" fill="#0" id="circle124"/>
	<circle cx="335.676" cy="888.47" r="4" fill="#0" id="circle125"/>
	<circle cx="343.249" cy="973.282" r="4" fill="#0" id="circle126"/>
	<circle cx="344.763" cy="870.296" r="4" fill="#0" id="circle127"/>
	<circle cx="349.307" cy="70.6382" r="4" fill="#0" id="circle128"/>
	<circle cx="349.307" cy="782.455" r="4" fill="#0" id="circle129"/>
	<circle cx="352.336" cy="855.151" r="4" fill="#0" id="circle130"/>
	<circle cx="358.394" cy="970.253" r="4" fill="#0" id="circle131"/>
	<circle cx="359.908" cy="832.434" r="4" fill="#0" id="circle132"/>
	<circle cx="361.423" cy="58.5221" r="4" fill="#0" id="circle133"/>
	<circle cx="364.452" cy="776.397" r="4" fill="#0" id="circle134"/>
	<circle cx="367.481" cy="809.716" r="4" fill="#0" id="circle135"/>
	<circle cx="368.995" cy="43.3771" r="4" fill="#0" id="circle136"/>
	<circle cx="368.995" cy="958.137" r="4" fill="#0" id="circle137"/>
	<circle cx="375.053" cy="788.513" r="4" fill="#0" id="circle138"/>
	<circle cx="381.111" cy="32.7756" r="4" fill="#0" id="circle139"/>
	<circle cx="384.14" cy="950.565" r="4" fill="#0" id="circle140"/>
	<circle cx="391.713" cy="20.6595" r="4" fill="#0" id="circle141"/>
	<circle cx="399.285" cy="942.992" r="4" fill="#0" id="circle142"/>
	<circle cx="406.858" cy="13.087" r="4" fill="#0" id="circle143"/>
	<circle cx="411.402" cy="932.391" r="4" fill="#0" id="circle144"/>
	<circle cx="418.974" cy="4" r="4" fill="#0" id="circle145"/>
	<circle cx="422.003" cy="920.275" r="4" fill="#0" id="circle146"/>
	<circle cx="429.576" cy="905.13" r="4" fill="#0" id="circle147"/>
	<circle cx="432.605" cy="11.5725" r="4" fill="#0" id="circle148"/>
	<circle cx="437.148" cy="889.985" r="4" fill="#0" id="circle149"/>
	<circle cx="447.75" cy="17.6305" r="4" fill="#0" id="circle150"/>
	<circle cx="449.264" cy="879.383" r="4" fill="#0" id="circle151"/>
	<circle cx="456.837" cy="864.238" r="4" fill="#0" id="circle152"/>
	<circle cx="458.351" cy="29.7466" r="4" fill="#0" id="circle153"/>
	<circle cx="464.409" cy="849.093" r="4" fill="#0" id="circle154"/>
	<circle cx="467.438" cy="829.405" r="4" fill="#0" id="circle155"/>
	<circle cx="473.496" cy="35.8046" r="4" fill="#0" id="circle156"/>
	<circle cx="475.011" cy="806.687" r="4" fill="#0" id="circle157"/>
	<circle cx="482.583" cy="791.542" r="4" fill="#0" id="circle158"/>
	<circle cx="487.127" cy="43.3771" r="4" fill="#0" id="circle159"/>
	<circle cx="497.728" cy="55.4931" r="4" fill="#0" id="circle160"/>
	<circle cx="497.728" cy="783.969" r="4" fill="#0" id="circle161"/>
	<circle cx="509.844" cy="64.5802" r="4" fill="#0" id="circle162"/>
	<circle cx="512.873" cy="783.969" r="4" fill="#0" id="circle163"/>
	<circle cx="520.446" cy="76.6962" r="4" fill="#0" id="circle164"/>
	<circle cx="526.504" cy="776.397" r="4" fill="#0" id="circle165"/>
	<circle cx="528.018" cy="90.3267" r="4" fill="#0" id="circle166"/>
	<circle cx="540.134" cy="100.928" r="4" fill="#0" id="circle167"/>
	<circle cx="541.649" cy="776.397" r="4" fill="#0" id="circle168"/>
	<circle cx="553.765" cy="108.501" r="4" fill="#0" id="circle169"/>
	<circle cx="556.794" cy="776.397" r="4" fill="#0" id="circle170"/>
	<circle cx="564.366" cy="120.617" r="4" fill="#0" id="circle171"/>
	<circle cx="571.939" cy="776.397" r="4" fill="#0" id="circle172"/>
	<circle cx="576.482" cy="131.218" r="4" fill="#0" id="circle173"/>
	<circle cx="585.569" cy="768.824" r="4" fill="#0" id="circle174"/>
	<circle cx="591.627" cy="131.218" r="4" fill="#0" id="circle175"/>
	<circle cx="596.171" cy="700.672" r="4" fill="#0" id="circle176"/>
	<circle cx="596.171" cy="715.817" r="4" fill="#0" id="circle177"/>
	<circle cx="599.2" cy="759.737" r="4" fill="#0" id="circle178"/>
	<circle cx="603.744" cy="729.447" r="4" fill="#0" id="circle179"/>
	<circle cx="603.744" cy="744.592" r="4" fill="#0" id="circle180"/>
	<circle cx="605.258" cy="138.791" r="4" fill="#0" id="circle181"/>
	<circle cx="609.802" cy="693.099" r="4" fill="#0" id="circle182"/>
	<circle cx="618.889" cy="146.363" r="4" fill="#0" id="circle183"/>
	<circle cx="621.918" cy="684.012" r="4" fill="#0" id="circle184"/>
	<circle cx="631.005" cy="155.45" r="4" fill="#0" id="circle185"/>
	<circle cx="634.034" cy="670.382" r="4" fill="#0" id="circle186"/>
	<circle cx="646.15" cy="161.508" r="4" fill="#0" id="circle187"/>
	<circle cx="647.664" cy="662.809" r="4" fill="#0" id="circle188"/>
	<circle cx="659.78" cy="169.081" r="4" fill="#0" id="circle189"/>
	<circle cx="659.78" cy="653.722" r="4" fill="#0" id="circle190"/>
	<circle cx="671.896" cy="640.092" r="4" fill="#0" id="circle191"/>
	<circle cx="674.925" cy="169.081" r="4" fill="#0" id="circle192"/>
	<circle cx="684.012" cy="629.49" r="4" fill="#0" id="circle193"/>
	<circle cx="688.556" cy="176.653" r="4" fill="#0" id="circle194"/>
	<circle cx="694.614" cy="617.374" r="4" fill="#0" id="circle195"/>
	<circle cx="702.186" cy="184.226" r="4" fill="#0" id="circle196"/>
	<circle cx="706.73" cy="606.773" r="4" fill="#0" id="circle197"/>
	<circle cx="717.331" cy="188.769" r="4" fill="#0" id="circle198"/>
	<circle cx="717.331" cy="587.084" r="4" fill="#0" id="circle199"/>
	<circle cx="724.904" cy="571.939" r="4" fill="#0" id="circle200"/>
	<circle cx="732.476" cy="191.798" r="4" fill="#0" id="circle201"/>
	<circle cx="737.02" cy="561.337" r="4" fill="#0" id="circle202"/>
	<circle cx="746.107" cy="199.371" r="4" fill="#0" id="circle203"/>
	<circle cx="747.621" cy="534.076" r="4" fill="#0" id="circle204"/>
	<circle cx="747.621" cy="549.221" r="4" fill="#0" id="circle205"/>
	<circle cx="755.194" cy="518.931" r="4" fill="#0" id="circle206"/>
	<circle cx="761.252" cy="202.4" r="4" fill="#0" id="circle207"/>
	<circle cx="767.31" cy="508.33" r="4" fill="#0" id="circle208"/>
	<circle cx="774.882" cy="493.185" r="4" fill="#0" id="circle209"/>
	<circle cx="776.397" cy="206.944" r="4" fill="#0" id="circle210"/>
	<circle cx="782.455" cy="478.04" r="4" fill="#0" id="circle211"/>
	<circle cx="791.542" cy="209.973" r="4" fill="#0" id="circle212"/>
	<circle cx="793.056" cy="465.924" r="4" fill="#0" id="circle213"/>
	<circle cx="805.173" cy="217.545" r="4" fill="#0" id="circle214"/>
	<circle cx="805.173" cy="455.322" r="4" fill="#0" id="circle215"/>
	<circle cx="812.745" cy="440.177" r="4" fill="#0" id="circle216"/>
	<circle cx="815.774" cy="229.661" r="4" fill="#0" id="circle217"/>
	<circle cx="820.318" cy="425.032" r="4" fill="#0" id="circle218"/>
	<circle cx="827.89" cy="238.748" r="4" fill="#0" id="circle219"/>
	<circle cx="830.919" cy="405.344" r="4" fill="#0" id="circle220"/>
	<circle cx="838.492" cy="250.864" r="4" fill="#0" id="circle221"/>
	<circle cx="838.492" cy="390.198" r="4" fill="#0" id="circle222"/>
	<circle cx="846.064" cy="264.495" r="4" fill="#0" id="circle223"/>
	<circle cx="846.064" cy="367.481" r="4" fill="#0" id="circle224"/>
	<circle cx="853.637" cy="278.125" r="4" fill="#0" id="circle225"/>
	<circle cx="853.637" cy="344.763" r="4" fill="#0" id="circle226"/>
	<circle cx="861.209" cy="291.756" r="4" fill="#0" id="circle227"/>
	<circle cx="861.209" cy="306.901" r="4" fill="#0" id="circle228"/>
	<circle cx="861.209" cy="322.046" r="4" fill="#0" id="circle229"/>
	</g>
</svg>