<?xml version="1.0" encoding="UTF-8" standalone="no"?>
<!-- Created with CurveBenchmark -->
<svg
	xmlns:dc="http://purl.org/dc/elements/1.1/"
	xmlns:cc="http://creativecommons.org/ns#"
	xmlns:rdf="http://www.w3.org/1999/02/22-rdf-syntax-ns#"
	xmlns:svg="http://www.w3.org/2000/svg"
	xmlns="http://www.w3.org/2000/svg"
	xmlns:sodipodi="http://sodipodi.sourceforge.net/DTD/sodipodi-0.dtd"
	xmlns:inkscape="http://www.inkscape.org/namespaces/inkscape"
	width="1000"
	height="1000"
	id="svg2"
	version="1.1"
	sodipodi:docname="manifold/discur-key15.png.txt">
<defs
	id="defs4" />
<metadata
	id="metadata7">
	<rdf:RDF>
		<cc:Work
			rdf:about="">
			<dc:format>image/svg+xml</dc:format>
			<dc:type
				rdf:resource="http://purl.org/dc/dcmitype/StillImage" />
			<dc:title></dc:title>
		</cc:Work>
	</rdf:RDF>
</metadata>
<g
	inkscape:label="Layer 1"
	inkscape:groupmode="layer"
	id="layer1">
	<path style="fill:none;stroke:red;stroke-width:1px;stroke-linecap:butt;stroke-linejoin:miter;stroke-opacity:1" d="M 4,198.726 4,217.096 z" id="boundary" inkscape:connector-curvature="0" />
	<path style="fill:none;stroke:red;stroke-width:1px;stroke-linecap:butt;stroke-linejoin:miter;stroke-opacity:1" d="M 4,198.726 13.1852,171.17 z" id="boundary" inkscape:connector-curvature="0" />
	<path style="fill:none;stroke:red;stroke-width:1px;stroke-linecap:butt;stroke-linejoin:miter;stroke-opacity:1" d="M 4,217.096 4,235.467 z" id="boundary" inkscape:connector-curvature="0" />
	<path style="fill:none;stroke:red;stroke-width:1px;stroke-linecap:butt;stroke-linejoin:miter;stroke-opacity:1" d="M 4,235.467 13.1852,252 z" id="boundary" inkscape:connector-curvature="0" />
	<path style="fill:none;stroke:red;stroke-width:1px;stroke-linecap:butt;stroke-linejoin:miter;stroke-opacity:1" d="M 13.1852,171.17 27.8815,156.474 z" id="boundary" inkscape:connector-curvature="0" />
	<path style="fill:none;stroke:red;stroke-width:1px;stroke-linecap:butt;stroke-linejoin:miter;stroke-opacity:1" d="M 13.1852,252 22.3704,268.533 z" id="boundary" inkscape:connector-curvature="0" />
	<path style="fill:none;stroke:red;stroke-width:1px;stroke-linecap:butt;stroke-linejoin:miter;stroke-opacity:1" d="M 22.3704,268.533 31.5556,285.067 z" id="boundary" inkscape:connector-curvature="0" />
	<path style="fill:none;stroke:red;stroke-width:1px;stroke-linecap:butt;stroke-linejoin:miter;stroke-opacity:1" d="M 27.8815,156.474 42.5778,141.778 z" id="boundary" inkscape:connector-curvature="0" />
	<path style="fill:none;stroke:red;stroke-width:1px;stroke-linecap:butt;stroke-linejoin:miter;stroke-opacity:1" d="M 31.5556,285.067 42.5778,299.763 z" id="boundary" inkscape:connector-curvature="0" />
	<path style="fill:none;stroke:red;stroke-width:1px;stroke-linecap:butt;stroke-linejoin:miter;stroke-opacity:1" d="M 42.5778,141.778 57.2741,128.919 z" id="boundary" inkscape:connector-curvature="0" />
	<path style="fill:none;stroke:red;stroke-width:1px;stroke-linecap:butt;stroke-linejoin:miter;stroke-opacity:1" d="M 42.5778,299.763 59.1111,308.948 z" id="boundary" inkscape:connector-curvature="0" />
	<path style="fill:none;stroke:red;stroke-width:1px;stroke-linecap:butt;stroke-linejoin:miter;stroke-opacity:1" d="M 57.2741,128.919 73.8074,119.733 z" id="boundary" inkscape:connector-curvature="0" />
	<path style="fill:none;stroke:red;stroke-width:1px;stroke-linecap:butt;stroke-linejoin:miter;stroke-opacity:1" d="M 59.1111,308.948 68.2963,325.481 z" id="boundary" inkscape:connector-curvature="0" />
	<path style="fill:none;stroke:red;stroke-width:1px;stroke-linecap:butt;stroke-linejoin:miter;stroke-opacity:1" d="M 68.2963,325.481 68.2963,343.852 z" id="boundary" inkscape:connector-curvature="0" />
	<path style="fill:none;stroke:red;stroke-width:1px;stroke-linecap:butt;stroke-linejoin:miter;stroke-opacity:1" d="M 68.2963,343.852 68.2963,362.222 z" id="boundary" inkscape:connector-curvature="0" />
	<path style="fill:none;stroke:red;stroke-width:1px;stroke-linecap:butt;stroke-linejoin:miter;stroke-opacity:1" d="M 68.2963,362.222 77.4815,378.756 z" id="boundary" inkscape:connector-curvature="0" />
	<path style="fill:none;stroke:red;stroke-width:1px;stroke-linecap:butt;stroke-linejoin:miter;stroke-opacity:1" d="M 73.8074,119.733 77.4815,88.5037 z" id="boundary" inkscape:connector-curvature="0" />
	<path style="fill:none;stroke:red;stroke-width:1px;stroke-linecap:butt;stroke-linejoin:miter;stroke-opacity:1" d="M 77.4815,70.1333 77.4815,88.5037 z" id="boundary" inkscape:connector-curvature="0" />
	<path style="fill:none;stroke:red;stroke-width:1px;stroke-linecap:butt;stroke-linejoin:miter;stroke-opacity:1" d="M 77.4815,70.1333 86.6667,42.5778 z" id="boundary" inkscape:connector-curvature="0" />
	<path style="fill:none;stroke:red;stroke-width:1px;stroke-linecap:butt;stroke-linejoin:miter;stroke-opacity:1" d="M 77.4815,378.756 82.9926,397.126 z" id="boundary" inkscape:connector-curvature="0" />
	<path style="fill:none;stroke:red;stroke-width:1px;stroke-linecap:butt;stroke-linejoin:miter;stroke-opacity:1" d="M 82.9926,397.126 101.363,404.474 z" id="boundary" inkscape:connector-curvature="0" />
	<path style="fill:none;stroke:red;stroke-width:1px;stroke-linecap:butt;stroke-linejoin:miter;stroke-opacity:1" d="M 86.6667,42.5778 101.363,27.8815 z" id="boundary" inkscape:connector-curvature="0" />
	<path style="fill:none;stroke:red;stroke-width:1px;stroke-linecap:butt;stroke-linejoin:miter;stroke-opacity:1" d="M 101.363,27.8815 117.896,18.6963 z" id="boundary" inkscape:connector-curvature="0" />
	<path style="fill:none;stroke:red;stroke-width:1px;stroke-linecap:butt;stroke-linejoin:miter;stroke-opacity:1" d="M 101.363,404.474 119.733,406.311 z" id="boundary" inkscape:connector-curvature="0" />
	<path style="fill:none;stroke:red;stroke-width:1px;stroke-linecap:butt;stroke-linejoin:miter;stroke-opacity:1" d="M 117.896,18.6963 134.43,9.51111 z" id="boundary" inkscape:connector-curvature="0" />
	<path style="fill:none;stroke:red;stroke-width:1px;stroke-linecap:butt;stroke-linejoin:miter;stroke-opacity:1" d="M 119.733,406.311 136.267,415.496 z" id="boundary" inkscape:connector-curvature="0" />
	<path style="fill:none;stroke:red;stroke-width:1px;stroke-linecap:butt;stroke-linejoin:miter;stroke-opacity:1" d="M 134.43,9.51111 152.8,9.51111 z" id="boundary" inkscape:connector-curvature="0" />
	<path style="fill:none;stroke:red;stroke-width:1px;stroke-linecap:butt;stroke-linejoin:miter;stroke-opacity:1" d="M 136.267,415.496 154.637,415.496 z" id="boundary" inkscape:connector-curvature="0" />
	<path style="fill:none;stroke:red;stroke-width:1px;stroke-linecap:butt;stroke-linejoin:miter;stroke-opacity:1" d="M 152.8,9.51111 171.17,4 z" id="boundary" inkscape:connector-curvature="0" />
	<path style="fill:none;stroke:red;stroke-width:1px;stroke-linecap:butt;stroke-linejoin:miter;stroke-opacity:1" d="M 154.637,415.496 173.007,415.496 z" id="boundary" inkscape:connector-curvature="0" />
	<path style="fill:none;stroke:red;stroke-width:1px;stroke-linecap:butt;stroke-linejoin:miter;stroke-opacity:1" d="M 171.17,4 189.541,5.83704 z" id="boundary" inkscape:connector-curvature="0" />
	<path style="fill:none;stroke:red;stroke-width:1px;stroke-linecap:butt;stroke-linejoin:miter;stroke-opacity:1" d="M 173.007,415.496 191.378,415.496 z" id="boundary" inkscape:connector-curvature="0" />
	<path style="fill:none;stroke:red;stroke-width:1px;stroke-linecap:butt;stroke-linejoin:miter;stroke-opacity:1" d="M 189.541,5.83704 207.911,9.51111 z" id="boundary" inkscape:connector-curvature="0" />
	<path style="fill:none;stroke:red;stroke-width:1px;stroke-linecap:butt;stroke-linejoin:miter;stroke-opacity:1" d="M 191.378,415.496 209.748,415.496 z" id="boundary" inkscape:connector-curvature="0" />
	<path style="fill:none;stroke:red;stroke-width:1px;stroke-linecap:butt;stroke-linejoin:miter;stroke-opacity:1" d="M 207.911,9.51111 226.281,9.51111 z" id="boundary" inkscape:connector-curvature="0" />
	<path style="fill:none;stroke:red;stroke-width:1px;stroke-linecap:butt;stroke-linejoin:miter;stroke-opacity:1" d="M 209.748,415.496 228.119,415.496 z" id="boundary" inkscape:connector-curvature="0" />
	<path style="fill:none;stroke:red;stroke-width:1px;stroke-linecap:butt;stroke-linejoin:miter;stroke-opacity:1" d="M 226.281,9.51111 244.652,9.51111 z" id="boundary" inkscape:connector-curvature="0" />
	<path style="fill:none;stroke:red;stroke-width:1px;stroke-linecap:butt;stroke-linejoin:miter;stroke-opacity:1" d="M 228.119,415.496 244.652,424.681 z" id="boundary" inkscape:connector-curvature="0" />
	<path style="fill:none;stroke:red;stroke-width:1px;stroke-linecap:butt;stroke-linejoin:miter;stroke-opacity:1" d="M 244.652,9.51111 263.022,9.51111 z" id="boundary" inkscape:connector-curvature="0" />
	<path style="fill:none;stroke:red;stroke-width:1px;stroke-linecap:butt;stroke-linejoin:miter;stroke-opacity:1" d="M 244.652,424.681 263.022,424.681 z" id="boundary" inkscape:connector-curvature="0" />
	<path style="fill:none;stroke:red;stroke-width:1px;stroke-linecap:butt;stroke-linejoin:miter;stroke-opacity:1" d="M 263.022,9.51111 281.393,9.51111 z" id="boundary" inkscape:connector-curvature="0" />
	<path style="fill:none;stroke:red;stroke-width:1px;stroke-linecap:butt;stroke-linejoin:miter;stroke-opacity:1" d="M 263.022,424.681 279.556,415.496 z" id="boundary" inkscape:connector-curvature="0" />
	<path style="fill:none;stroke:red;stroke-width:1px;stroke-linecap:butt;stroke-linejoin:miter;stroke-opacity:1" d="M 279.556,415.496 297.926,415.496 z" id="boundary" inkscape:connector-curvature="0" />
	<path style="fill:none;stroke:red;stroke-width:1px;stroke-linecap:butt;stroke-linejoin:miter;stroke-opacity:1" d="M 281.393,9.51111 299.763,15.0222 z" id="boundary" inkscape:connector-curvature="0" />
	<path style="fill:none;stroke:red;stroke-width:1px;stroke-linecap:butt;stroke-linejoin:miter;stroke-opacity:1" d="M 297.926,415.496 316.296,415.496 z" id="boundary" inkscape:connector-curvature="0" />
	<path style="fill:none;stroke:red;stroke-width:1px;stroke-linecap:butt;stroke-linejoin:miter;stroke-opacity:1" d="M 299.763,15.0222 318.133,18.6963 z" id="boundary" inkscape:connector-curvature="0" />
	<path style="fill:none;stroke:red;stroke-width:1px;stroke-linecap:butt;stroke-linejoin:miter;stroke-opacity:1" d="M 316.296,415.496 334.667,415.496 z" id="boundary" inkscape:connector-curvature="0" />
	<path style="fill:none;stroke:red;stroke-width:1px;stroke-linecap:butt;stroke-linejoin:miter;stroke-opacity:1" d="M 318.133,18.6963 336.504,18.6963 z" id="boundary" inkscape:connector-curvature="0" />
	<path style="fill:none;stroke:red;stroke-width:1px;stroke-linecap:butt;stroke-linejoin:miter;stroke-opacity:1" d="M 334.667,415.496 353.037,415.496 z" id="boundary" inkscape:connector-curvature="0" />
	<path style="fill:none;stroke:red;stroke-width:1px;stroke-linecap:butt;stroke-linejoin:miter;stroke-opacity:1" d="M 336.504,18.6963 354.874,18.6963 z" id="boundary" inkscape:connector-curvature="0" />
	<path style="fill:none;stroke:red;stroke-width:1px;stroke-linecap:butt;stroke-linejoin:miter;stroke-opacity:1" d="M 353.037,415.496 369.57,406.311 z" id="boundary" inkscape:connector-curvature="0" />
	<path style="fill:none;stroke:red;stroke-width:1px;stroke-linecap:butt;stroke-linejoin:miter;stroke-opacity:1" d="M 354.874,18.6963 373.244,24.2074 z" id="boundary" inkscape:connector-curvature="0" />
	<path style="fill:none;stroke:red;stroke-width:1px;stroke-linecap:butt;stroke-linejoin:miter;stroke-opacity:1" d="M 369.57,406.311 382.43,387.941 z" id="boundary" inkscape:connector-curvature="0" />
	<path style="fill:none;stroke:red;stroke-width:1px;stroke-linecap:butt;stroke-linejoin:miter;stroke-opacity:1" d="M 373.244,24.2074 389.778,33.3926 z" id="boundary" inkscape:connector-curvature="0" />
	<path style="fill:none;stroke:red;stroke-width:1px;stroke-linecap:butt;stroke-linejoin:miter;stroke-opacity:1" d="M 382.43,387.941 391.615,369.57 z" id="boundary" inkscape:connector-curvature="0" />
	<path style="fill:none;stroke:red;stroke-width:1px;stroke-linecap:butt;stroke-linejoin:miter;stroke-opacity:1" d="M 389.778,33.3926 404.474,46.2519 z" id="boundary" inkscape:connector-curvature="0" />
	<path style="fill:none;stroke:red;stroke-width:1px;stroke-linecap:butt;stroke-linejoin:miter;stroke-opacity:1" d="M 391.615,369.57 406.311,356.711 z" id="boundary" inkscape:connector-curvature="0" />
	<path style="fill:none;stroke:red;stroke-width:1px;stroke-linecap:butt;stroke-linejoin:miter;stroke-opacity:1" d="M 404.474,46.2519 409.985,64.6222 z" id="boundary" inkscape:connector-curvature="0" />
	<path style="fill:none;stroke:red;stroke-width:1px;stroke-linecap:butt;stroke-linejoin:miter;stroke-opacity:1" d="M 406.311,356.711 419.17,342.015 z" id="boundary" inkscape:connector-curvature="0" />
	<path style="fill:none;stroke:red;stroke-width:1px;stroke-linecap:butt;stroke-linejoin:miter;stroke-opacity:1" d="M 409.985,64.6222 419.17,81.1556 z" id="boundary" inkscape:connector-curvature="0" />
	<path style="fill:none;stroke:red;stroke-width:1px;stroke-linecap:butt;stroke-linejoin:miter;stroke-opacity:1" d="M 419.17,81.1556 419.17,99.5259 z" id="boundary" inkscape:connector-curvature="0" />
	<path style="fill:none;stroke:red;stroke-width:1px;stroke-linecap:butt;stroke-linejoin:miter;stroke-opacity:1" d="M 419.17,99.5259 433.867,110.548 z" id="boundary" inkscape:connector-curvature="0" />
	<path style="fill:none;stroke:red;stroke-width:1px;stroke-linecap:butt;stroke-linejoin:miter;stroke-opacity:1" d="M 419.17,342.015 435.704,332.83 z" id="boundary" inkscape:connector-curvature="0" />
	<path style="fill:none;stroke:red;stroke-width:1px;stroke-linecap:butt;stroke-linejoin:miter;stroke-opacity:1" d="M 433.867,110.548 452.237,112.385 z" id="boundary" inkscape:connector-curvature="0" />
	<path style="fill:none;stroke:red;stroke-width:1px;stroke-linecap:butt;stroke-linejoin:miter;stroke-opacity:1" d="M 435.704,332.83 454.074,332.83 z" id="boundary" inkscape:connector-curvature="0" />
	<path style="fill:none;stroke:red;stroke-width:1px;stroke-linecap:butt;stroke-linejoin:miter;stroke-opacity:1" d="M 452.237,112.385 470.607,119.733 z" id="boundary" inkscape:connector-curvature="0" />
	<path style="fill:none;stroke:red;stroke-width:1px;stroke-linecap:butt;stroke-linejoin:miter;stroke-opacity:1" d="M 454.074,332.83 465.096,314.459 z" id="boundary" inkscape:connector-curvature="0" />
	<path style="fill:none;stroke:red;stroke-width:1px;stroke-linecap:butt;stroke-linejoin:miter;stroke-opacity:1" d="M 465.096,296.089 465.096,314.459 z" id="boundary" inkscape:connector-curvature="0" />
	<path style="fill:none;stroke:red;stroke-width:1px;stroke-linecap:butt;stroke-linejoin:miter;stroke-opacity:1" d="M 465.096,296.089 483.467,296.089 z" id="boundary" inkscape:connector-curvature="0" />
	<path style="fill:none;stroke:red;stroke-width:1px;stroke-linecap:butt;stroke-linejoin:miter;stroke-opacity:1" d="M 470.607,119.733 488.978,119.733 z" id="boundary" inkscape:connector-curvature="0" />
	<path style="fill:none;stroke:red;stroke-width:1px;stroke-linecap:butt;stroke-linejoin:miter;stroke-opacity:1" d="M 483.467,296.089 501.837,296.089 z" id="boundary" inkscape:connector-curvature="0" />
	<path style="fill:none;stroke:red;stroke-width:1px;stroke-linecap:butt;stroke-linejoin:miter;stroke-opacity:1" d="M 488.978,119.733 507.348,121.57 z" id="boundary" inkscape:connector-curvature="0" />
	<path style="fill:none;stroke:red;stroke-width:1px;stroke-linecap:butt;stroke-linejoin:miter;stroke-opacity:1" d="M 501.837,296.089 520.207,296.089 z" id="boundary" inkscape:connector-curvature="0" />
	<path style="fill:none;stroke:red;stroke-width:1px;stroke-linecap:butt;stroke-linejoin:miter;stroke-opacity:1" d="M 507.348,121.57 514.696,139.941 z" id="boundary" inkscape:connector-curvature="0" />
	<path style="fill:none;stroke:red;stroke-width:1px;stroke-linecap:butt;stroke-linejoin:miter;stroke-opacity:1" d="M 514.696,139.941 520.207,158.311 z" id="boundary" inkscape:connector-curvature="0" />
	<path style="fill:none;stroke:red;stroke-width:1px;stroke-linecap:butt;stroke-linejoin:miter;stroke-opacity:1" d="M 520.207,158.311 529.393,174.844 z" id="boundary" inkscape:connector-curvature="0" />
	<path style="fill:none;stroke:red;stroke-width:1px;stroke-linecap:butt;stroke-linejoin:miter;stroke-opacity:1" d="M 520.207,296.089 538.578,296.089 z" id="boundary" inkscape:connector-curvature="0" />
	<path style="fill:none;stroke:red;stroke-width:1px;stroke-linecap:butt;stroke-linejoin:miter;stroke-opacity:1" d="M 529.393,174.844 545.926,165.659 z" id="boundary" inkscape:connector-curvature="0" />
	<path style="fill:none;stroke:red;stroke-width:1px;stroke-linecap:butt;stroke-linejoin:miter;stroke-opacity:1" d="M 538.578,296.089 556.948,296.089 z" id="boundary" inkscape:connector-curvature="0" />
	<path style="fill:none;stroke:red;stroke-width:1px;stroke-linecap:butt;stroke-linejoin:miter;stroke-opacity:1" d="M 545.926,165.659 562.459,174.844 z" id="boundary" inkscape:connector-curvature="0" />
	<path style="fill:none;stroke:red;stroke-width:1px;stroke-linecap:butt;stroke-linejoin:miter;stroke-opacity:1" d="M 556.948,296.089 575.319,299.763 z" id="boundary" inkscape:connector-curvature="0" />
	<path style="fill:none;stroke:red;stroke-width:1px;stroke-linecap:butt;stroke-linejoin:miter;stroke-opacity:1" d="M 562.459,174.844 578.993,184.03 z" id="boundary" inkscape:connector-curvature="0" />
	<path style="fill:none;stroke:red;stroke-width:1px;stroke-linecap:butt;stroke-linejoin:miter;stroke-opacity:1" d="M 575.319,299.763 593.689,305.274 z" id="boundary" inkscape:connector-curvature="0" />
	<path style="fill:none;stroke:red;stroke-width:1px;stroke-linecap:butt;stroke-linejoin:miter;stroke-opacity:1" d="M 578.993,184.03 597.363,174.844 z" id="boundary" inkscape:connector-curvature="0" />
	<path style="fill:none;stroke:red;stroke-width:1px;stroke-linecap:butt;stroke-linejoin:miter;stroke-opacity:1" d="M 593.689,305.274 612.059,305.274 z" id="boundary" inkscape:connector-curvature="0" />
	<path style="fill:none;stroke:red;stroke-width:1px;stroke-linecap:butt;stroke-linejoin:miter;stroke-opacity:1" d="M 597.363,174.844 615.733,174.844 z" id="boundary" inkscape:connector-curvature="0" />
	<path style="fill:none;stroke:red;stroke-width:1px;stroke-linecap:butt;stroke-linejoin:miter;stroke-opacity:1" d="M 612.059,305.274 630.43,305.274 z" id="boundary" inkscape:connector-curvature="0" />
	<path style="fill:none;stroke:red;stroke-width:1px;stroke-linecap:butt;stroke-linejoin:miter;stroke-opacity:1" d="M 615.733,174.844 634.104,174.844 z" id="boundary" inkscape:connector-curvature="0" />
	<path style="fill:none;stroke:red;stroke-width:1px;stroke-linecap:butt;stroke-linejoin:miter;stroke-opacity:1" d="M 630.43,305.274 648.8,305.274 z" id="boundary" inkscape:connector-curvature="0" />
	<path style="fill:none;stroke:red;stroke-width:1px;stroke-linecap:butt;stroke-linejoin:miter;stroke-opacity:1" d="M 634.104,174.844 652.474,174.844 z" id="boundary" inkscape:connector-curvature="0" />
	<path style="fill:none;stroke:red;stroke-width:1px;stroke-linecap:butt;stroke-linejoin:miter;stroke-opacity:1" d="M 648.8,305.274 667.17,305.274 z" id="boundary" inkscape:connector-curvature="0" />
	<path style="fill:none;stroke:red;stroke-width:1px;stroke-linecap:butt;stroke-linejoin:miter;stroke-opacity:1" d="M 652.474,174.844 669.007,184.03 z" id="boundary" inkscape:connector-curvature="0" />
	<path style="fill:none;stroke:red;stroke-width:1px;stroke-linecap:butt;stroke-linejoin:miter;stroke-opacity:1" d="M 667.17,305.274 685.541,305.274 z" id="boundary" inkscape:connector-curvature="0" />
	<path style="fill:none;stroke:red;stroke-width:1px;stroke-linecap:butt;stroke-linejoin:miter;stroke-opacity:1" d="M 669.007,184.03 685.541,193.215 z" id="boundary" inkscape:connector-curvature="0" />
	<path style="fill:none;stroke:red;stroke-width:1px;stroke-linecap:butt;stroke-linejoin:miter;stroke-opacity:1" d="M 685.541,193.215 702.074,202.4 z" id="boundary" inkscape:connector-curvature="0" />
	<path style="fill:none;stroke:red;stroke-width:1px;stroke-linecap:butt;stroke-linejoin:miter;stroke-opacity:1" d="M 685.541,305.274 703.911,305.274 z" id="boundary" inkscape:connector-curvature="0" />
	<path style="fill:none;stroke:red;stroke-width:1px;stroke-linecap:butt;stroke-linejoin:miter;stroke-opacity:1" d="M 702.074,202.4 720.444,202.4 z" id="boundary" inkscape:connector-curvature="0" />
	<path style="fill:none;stroke:red;stroke-width:1px;stroke-linecap:butt;stroke-linejoin:miter;stroke-opacity:1" d="M 703.911,305.274 722.281,305.274 z" id="boundary" inkscape:connector-curvature="0" />
	<path style="fill:none;stroke:red;stroke-width:1px;stroke-linecap:butt;stroke-linejoin:miter;stroke-opacity:1" d="M 720.444,202.4 736.978,193.215 z" id="boundary" inkscape:connector-curvature="0" />
	<path style="fill:none;stroke:red;stroke-width:1px;stroke-linecap:butt;stroke-linejoin:miter;stroke-opacity:1" d="M 722.281,305.274 740.652,305.274 z" id="boundary" inkscape:connector-curvature="0" />
	<path style="fill:none;stroke:red;stroke-width:1px;stroke-linecap:butt;stroke-linejoin:miter;stroke-opacity:1" d="M 736.978,193.215 753.511,184.03 z" id="boundary" inkscape:connector-curvature="0" />
	<path style="fill:none;stroke:red;stroke-width:1px;stroke-linecap:butt;stroke-linejoin:miter;stroke-opacity:1" d="M 740.652,305.274 759.022,305.274 z" id="boundary" inkscape:connector-curvature="0" />
	<path style="fill:none;stroke:red;stroke-width:1px;stroke-linecap:butt;stroke-linejoin:miter;stroke-opacity:1" d="M 753.511,184.03 771.881,184.03 z" id="boundary" inkscape:connector-curvature="0" />
	<path style="fill:none;stroke:red;stroke-width:1px;stroke-linecap:butt;stroke-linejoin:miter;stroke-opacity:1" d="M 759.022,305.274 777.393,305.274 z" id="boundary" inkscape:connector-curvature="0" />
	<path style="fill:none;stroke:red;stroke-width:1px;stroke-linecap:butt;stroke-linejoin:miter;stroke-opacity:1" d="M 771.881,184.03 790.252,184.03 z" id="boundary" inkscape:connector-curvature="0" />
	<path style="fill:none;stroke:red;stroke-width:1px;stroke-linecap:butt;stroke-linejoin:miter;stroke-opacity:1" d="M 777.393,305.274 795.763,305.274 z" id="boundary" inkscape:connector-curvature="0" />
	<path style="fill:none;stroke:red;stroke-width:1px;stroke-linecap:butt;stroke-linejoin:miter;stroke-opacity:1" d="M 790.252,184.03 806.785,193.215 z" id="boundary" inkscape:connector-curvature="0" />
	<path style="fill:none;stroke:red;stroke-width:1px;stroke-linecap:butt;stroke-linejoin:miter;stroke-opacity:1" d="M 795.763,305.274 814.133,305.274 z" id="boundary" inkscape:connector-curvature="0" />
	<path style="fill:none;stroke:red;stroke-width:1px;stroke-linecap:butt;stroke-linejoin:miter;stroke-opacity:1" d="M 806.785,193.215 825.156,193.215 z" id="boundary" inkscape:connector-curvature="0" />
	<path style="fill:none;stroke:red;stroke-width:1px;stroke-linecap:butt;stroke-linejoin:miter;stroke-opacity:1" d="M 814.133,305.274 832.504,305.274 z" id="boundary" inkscape:connector-curvature="0" />
	<path style="fill:none;stroke:red;stroke-width:1px;stroke-linecap:butt;stroke-linejoin:miter;stroke-opacity:1" d="M 825.156,193.215 839.852,206.074 z" id="boundary" inkscape:connector-curvature="0" />
	<path style="fill:none;stroke:red;stroke-width:1px;stroke-linecap:butt;stroke-linejoin:miter;stroke-opacity:1" d="M 832.504,305.274 850.874,305.274 z" id="boundary" inkscape:connector-curvature="0" />
	<path style="fill:none;stroke:red;stroke-width:1px;stroke-linecap:butt;stroke-linejoin:miter;stroke-opacity:1" d="M 839.852,206.074 858.222,207.911 z" id="boundary" inkscape:connector-curvature="0" />
	<path style="fill:none;stroke:red;stroke-width:1px;stroke-linecap:butt;stroke-linejoin:miter;stroke-opacity:1" d="M 850.874,305.274 869.244,305.274 z" id="boundary" inkscape:connector-curvature="0" />
	<path style="fill:none;stroke:red;stroke-width:1px;stroke-linecap:butt;stroke-linejoin:miter;stroke-opacity:1" d="M 858.222,207.911 876.593,202.4 z" id="boundary" inkscape:connector-curvature="0" />
	<path style="fill:none;stroke:red;stroke-width:1px;stroke-linecap:butt;stroke-linejoin:miter;stroke-opacity:1" d="M 869.244,305.274 887.615,305.274 z" id="boundary" inkscape:connector-curvature="0" />
	<path style="fill:none;stroke:red;stroke-width:1px;stroke-linecap:butt;stroke-linejoin:miter;stroke-opacity:1" d="M 876.593,202.4 894.963,202.4 z" id="boundary" inkscape:connector-curvature="0" />
	<path style="fill:none;stroke:red;stroke-width:1px;stroke-linecap:butt;stroke-linejoin:miter;stroke-opacity:1" d="M 887.615,305.274 905.985,305.274 z" id="boundary" inkscape:connector-curvature="0" />
	<path style="fill:none;stroke:red;stroke-width:1px;stroke-linecap:butt;stroke-linejoin:miter;stroke-opacity:1" d="M 894.963,202.4 913.333,202.4 z" id="boundary" inkscape:connector-curvature="0" />
	<path style="fill:none;stroke:red;stroke-width:1px;stroke-linecap:butt;stroke-linejoin:miter;stroke-opacity:1" d="M 905.985,305.274 924.356,305.274 z" id="boundary" inkscape:connector-curvature="0" />
	<path style="fill:none;stroke:red;stroke-width:1px;stroke-linecap:butt;stroke-linejoin:miter;stroke-opacity:1" d="M 913.333,202.4 931.704,202.4 z" id="boundary" inkscape:connector-curvature="0" />
	<path style="fill:none;stroke:red;stroke-width:1px;stroke-linecap:butt;stroke-linejoin:miter;stroke-opacity:1" d="M 924.356,305.274 942.726,305.274 z" id="boundary" inkscape:connector-curvature="0" />
	<path style="fill:none;stroke:red;stroke-width:1px;stroke-linecap:butt;stroke-linejoin:miter;stroke-opacity:1" d="M 931.704,202.4 950.074,202.4 z" id="boundary" inkscape:connector-curvature="0" />
	<path style="fill:none;stroke:red;stroke-width:1px;stroke-linecap:butt;stroke-linejoin:miter;stroke-opacity:1" d="M 942.726,305.274 961.096,305.274 z" id="boundary" inkscape:connector-curvature="0" />
	<path style="fill:none;stroke:red;stroke-width:1px;stroke-linecap:butt;stroke-linejoin:miter;stroke-opacity:1" d="M 950.074,202.4 961.096,217.096 z" id="boundary" inkscape:connector-curvature="0" />
	<path style="fill:none;stroke:red;stroke-width:1px;stroke-linecap:butt;stroke-linejoin:miter;stroke-opacity:1" d="M 961.096,217.096 973.956,231.793 z" id="boundary" inkscape:connector-curvature="0" />
	<path style="fill:none;stroke:red;stroke-width:1px;stroke-linecap:butt;stroke-linejoin:miter;stroke-opacity:1" d="M 961.096,305.274 979.467,296.089 z" id="boundary" inkscape:connector-curvature="0" />
	<path style="fill:none;stroke:red;stroke-width:1px;stroke-linecap:butt;stroke-linejoin:miter;stroke-opacity:1" d="M 973.956,231.793 983.141,248.326 z" id="boundary" inkscape:connector-curvature="0" />
	<path style="fill:none;stroke:red;stroke-width:1px;stroke-linecap:butt;stroke-linejoin:miter;stroke-opacity:1" d="M 979.467,296.089 996,286.904 z" id="boundary" inkscape:connector-curvature="0" />
	<path style="fill:none;stroke:red;stroke-width:1px;stroke-linecap:butt;stroke-linejoin:miter;stroke-opacity:1" d="M 983.141,248.326 996,263.022 z" id="boundary" inkscape:connector-curvature="0" />
	<path style="fill:none;stroke:red;stroke-width:1px;stroke-linecap:butt;stroke-linejoin:miter;stroke-opacity:1" d="M 996,263.022 996,286.904 z" id="boundary" inkscape:connector-curvature="0" />
	<circle cx="4" cy="198.726" r="4" fill="#0" id="circle0"/>
	<circle cx="4" cy="217.096" r="4" fill="#0" id="circle1"/>
	<circle cx="4" cy="235.467" r="4" fill="#0" id="circle2"/>
	<circle cx="13.1852" cy="171.17" r="4" fill="#0" id="circle3"/>
	<circle cx="13.1852" cy="252" r="4" fill="#0" id="circle4"/>
	<circle cx="22.3704" cy="268.533" r="4" fill="#0" id="circle5"/>
	<circle cx="27.8815" cy="156.474" r="4" fill="#0" id="circle6"/>
	<circle cx="31.5556" cy="285.067" r="4" fill="#0" id="circle7"/>
	<circle cx="42.5778" cy="141.778" r="4" fill="#0" id="circle8"/>
	<circle cx="42.5778" cy="299.763" r="4" fill="#0" id="circle9"/>
	<circle cx="57.2741" cy="128.919" r="4" fill="#0" id="circle10"/>
	<circle cx="59.1111" cy="308.948" r="4" fill="#0" id="circle11"/>
	<circle cx="68.2963" cy="325.481" r="4" fill="#0" id="circle12"/>
	<circle cx="68.2963" cy="343.852" r="4" fill="#0" id="circle13"/>
	<circle cx="68.2963" cy="362.222" r="4" fill="#0" id="circle14"/>
	<circle cx="73.8074" cy="119.733" r="4" fill="#0" id="circle15"/>
	<circle cx="77.4815" cy="70.1333" r="4" fill="#0" id="circle16"/>
	<circle cx="77.4815" cy="88.5037" r="4" fill="#0" id="circle17"/>
	<circle cx="77.4815" cy="378.756" r="4" fill="#0" id="circle18"/>
	<circle cx="82.9926" cy="397.126" r="4" fill="#0" id="circle19"/>
	<circle cx="86.6667" cy="42.5778" r="4" fill="#0" id="circle20"/>
	<circle cx="101.363" cy="27.8815" r="4" fill="#0" id="circle21"/>
	<circle cx="101.363" cy="404.474" r="4" fill="#0" id="circle22"/>
	<circle cx="117.896" cy="18.6963" r="4" fill="#0" id="circle23"/>
	<circle cx="119.733" cy="406.311" r="4" fill="#0" id="circle24"/>
	<circle cx="134.43" cy="9.51111" r="4" fill="#0" id="circle25"/>
	<circle cx="136.267" cy="415.496" r="4" fill="#0" id="circle26"/>
	<circle cx="152.8" cy="9.51111" r="4" fill="#0" id="circle27"/>
	<circle cx="154.637" cy="415.496" r="4" fill="#0" id="circle28"/>
	<circle cx="171.17" cy="4" r="4" fill="#0" id="circle29"/>
	<circle cx="173.007" cy="415.496" r="4" fill="#0" id="circle30"/>
	<circle cx="189.541" cy="5.83704" r="4" fill="#0" id="circle31"/>
	<circle cx="191.378" cy="415.496" r="4" fill="#0" id="circle32"/>
	<circle cx="207.911" cy="9.51111" r="4" fill="#0" id="circle33"/>
	<circle cx="209.748" cy="415.496" r="4" fill="#0" id="circle34"/>
	<circle cx="226.281" cy="9.51111" r="4" fill="#0" id="circle35"/>
	<circle cx="228.119" cy="415.496" r="4" fill="#0" id="circle36"/>
	<circle cx="244.652" cy="9.51111" r="4" fill="#0" id="circle37"/>
	<circle cx="244.652" cy="424.681" r="4" fill="#0" id="circle38"/>
	<circle cx="263.022" cy="9.51111" r="4" fill="#0" id="circle39"/>
	<circle cx="263.022" cy="424.681" r="4" fill="#0" id="circle40"/>
	<circle cx="279.556" cy="415.496" r="4" fill="#0" id="circle41"/>
	<circle cx="281.393" cy="9.51111" r="4" fill="#0" id="circle42"/>
	<circle cx="297.926" cy="415.496" r="4" fill="#0" id="circle43"/>
	<circle cx="299.763" cy="15.0222" r="4" fill="#0" id="circle44"/>
	<circle cx="316.296" cy="415.496" r="4" fill="#0" id="circle45"/>
	<circle cx="318.133" cy="18.6963" r="4" fill="#0" id="circle46"/>
	<circle cx="334.667" cy="415.496" r="4" fill="#0" id="circle47"/>
	<circle cx="336.504" cy="18.6963" r="4" fill="#0" id="circle48"/>
	<circle cx="353.037" cy="415.496" r="4" fill="#0" id="circle49"/>
	<circle cx="354.874" cy="18.6963" r="4" fill="#0" id="circle50"/>
	<circle cx="369.57" cy="406.311" r="4" fill="#0" id="circle51"/>
	<circle cx="373.244" cy="24.2074" r="4" fill="#0" id="circle52"/>
	<circle cx="382.43" cy="387.941" r="4" fill="#0" id="circle53"/>
	<circle cx="389.778" cy="33.3926" r="4" fill="#0" id="circle54"/>
	<circle cx="391.615" cy="369.57" r="4" fill="#0" id="circle55"/>
	<circle cx="404.474" cy="46.2519" r="4" fill="#0" id="circle56"/>
	<circle cx="406.311" cy="356.711" r="4" fill="#0" id="circle57"/>
	<circle cx="409.985" cy="64.6222" r="4" fill="#0" id="circle58"/>
	<circle cx="419.17" cy="81.1556" r="4" fill="#0" id="circle59"/>
	<circle cx="419.17" cy="99.5259" r="4" fill="#0" id="circle60"/>
	<circle cx="419.17" cy="342.015" r="4" fill="#0" id="circle61"/>
	<circle cx="433.867" cy="110.548" r="4" fill="#0" id="circle62"/>
	<circle cx="435.704" cy="332.83" r="4" fill="#0" id="circle63"/>
	<circle cx="452.237" cy="112.385" r="4" fill="#0" id="circle64"/>
	<circle cx="454.074" cy="332.83" r="4" fill="#0" id="circle65"/>
	<circle cx="465.096" cy="296.089" r="4" fill="#0" id="circle66"/>
	<circle cx="465.096" cy="314.459" r="4" fill="#0" id="circle67"/>
	<circle cx="470.607" cy="119.733" r="4" fill="#0" id="circle68"/>
	<circle cx="483.467" cy="296.089" r="4" fill="#0" id="circle69"/>
	<circle cx="488.978" cy="119.733" r="4" fill="#0" id="circle70"/>
	<circle cx="501.837" cy="296.089" r="4" fill="#0" id="circle71"/>
	<circle cx="507.348" cy="121.57" r="4" fill="#0" id="circle72"/>
	<circle cx="514.696" cy="139.941" r="4" fill="#0" id="circle73"/>
	<circle cx="520.207" cy="158.311" r="4" fill="#0" id="circle74"/>
	<circle cx="520.207" cy="296.089" r="4" fill="#0" id="circle75"/>
	<circle cx="529.393" cy="174.844" r="4" fill="#0" id="circle76"/>
	<circle cx="538.578" cy="296.089" r="4" fill="#0" id="circle77"/>
	<circle cx="545.926" cy="165.659" r="4" fill="#0" id="circle78"/>
	<circle cx="556.948" cy="296.089" r="4" fill="#0" id="circle79"/>
	<circle cx="562.459" cy="174.844" r="4" fill="#0" id="circle80"/>
	<circle cx="575.319" cy="299.763" r="4" fill="#0" id="circle81"/>
	<circle cx="578.993" cy="184.03" r="4" fill="#0" id="circle82"/>
	<circle cx="593.689" cy="305.274" r="4" fill="#0" id="circle83"/>
	<circle cx="597.363" cy="174.844" r="4" fill="#0" id="circle84"/>
	<circle cx="612.059" cy="305.274" r="4" fill="#0" id="circle85"/>
	<circle cx="615.733" cy="174.844" r="4" fill="#0" id="circle86"/>
	<circle cx="630.43" cy="305.274" r="4" fill="#0" id="circle87"/>
	<circle cx="634.104" cy="174.844" r="4" fill="#0" id="circle88"/>
	<circle cx="648.8" cy="305.274" r="4" fill="#0" id="circle89"/>
	<circle cx="652.474" cy="174.844" r="4" fill="#0" id="circle90"/>
	<circle cx="667.17" cy="305.274" r="4" fill="#0" id="circle91"/>
	<circle cx="669.007" cy="184.03" r="4" fill="#0" id="circle92"/>
	<circle cx="685.541" cy="193.215" r="4" fill="#0" id="circle93"/>
	<circle cx="685.541" cy="305.274" r="4" fill="#0" id="circle94"/>
	<circle cx="702.074" cy="202.4" r="4" fill="#0" id="circle95"/>
	<circle cx="703.911" cy="305.274" r="4" fill="#0" id="circle96"/>
	<circle cx="720.444" cy="202.4" r="4" fill="#0" id="circle97"/>
	<circle cx="722.281" cy="305.274" r="4" fill="#0" id="circle98"/>
	<circle cx="736.978" cy="193.215" r="4" fill="#0" id="circle99"/>
	<circle cx="740.652" cy="305.274" r="4" fill="#0" id="circle100"/>
	<circle cx="753.511" cy="184.03" r="4" fill="#0" id="circle101"/>
	<circle cx="759.022" cy="305.274" r="4" fill="#0" id="circle102"/>
	<circle cx="771.881" cy="184.03" r="4" fill="#0" id="circle103"/>
	<circle cx="777.393" cy="305.274" r="4" fill="#0" id="circle104"/>
	<circle cx="790.252" cy="184.03" r="4" fill="#0" id="circle105"/>
	<circle cx="795.763" cy="305.274" r="4" fill="#0" id="circle106"/>
	<circle cx="806.785" cy="193.215" r="4" fill="#0" id="circle107"/>
	<circle cx="814.133" cy="305.274" r="4" fill="#0" id="circle108"/>
	<circle cx="825.156" cy="193.215" r="4" fill="#0" id="circle109"/>
	<circle cx="832.504" cy="305.274" r="4" fill="#0" id="circle110"/>
	<circle cx="839.852" cy="206.074" r="4" fill="#0" id="circle111"/>
	<circle cx="850.874" cy="305.274" r="4" fill="#0" id="circle112"/>
	<circle cx="858.222" cy="207.911" r="4" fill="#0" id="circle113"/>
	<circle cx="869.244" cy="305.274" r="4" fill="#0" id="circle114"/>
	<circle cx="876.593" cy="202.4" r="4" fill="#0" id="circle115"/>
	<circle cx="887.615" cy="305.274" r="4" fill="#0" id="circle116"/>
	<circle cx="894.963" cy="202.4" r="4" fill="#0" id="circle117"/>
	<circle cx="905.985" cy="305.274" r="4" fill="#0" id="circle118"/>
	<circle cx="913.333" cy="202.4" r="4" fill="#0" id="circle119"/>
	<circle cx="924.356" cy="305.274" r="4" fill="#0" id="circle120"/>
	<circle cx="931.704" cy="202.4" r="4" fill="#0" id="circle121"/>
	<circle cx="942.726" cy="305.274" r="4" fill="#0" id="circle122"/>
	<circle cx="950.074" cy="202.4" r="4" fill="#0" id="circle123"/>
	<circle cx="961.096" cy="217.096" r="4" fill="#0" id="circle124"/>
	<circle cx="961.096" cy="305.274" r="4" fill="#0" id="circle125"/>
	<circle cx="973.956" cy="231.793" r="4" fill="#0" id="circle126"/>
	<circle cx="979.467" cy="296.089" r="4" fill="#0" id="circle127"/>
	<circle cx="983.141" cy="248.326" r="4" fill="#0" id="circle128"/>
	<circle cx="996" cy="263.022" r="4" fill="#0" id="circle129"/>
	<circle cx="996" cy="286.904" r="4" fill="#0" id="circle130"/>
	</g>
</svg>