<?xml version="1.0" encoding="UTF-8" standalone="no"?>
<!-- Created with CurveBenchmark -->
<svg
	xmlns:dc="http://purl.org/dc/elements/1.1/"
	xmlns:cc="http://creativecommons.org/ns#"
	xmlns:rdf="http://www.w3.org/1999/02/22-rdf-syntax-ns#"
	xmlns:svg="http://www.w3.org/2000/svg"
	xmlns="http://www.w3.org/2000/svg"
	xmlns:sodipodi="http://sodipodi.sourceforge.net/DTD/sodipodi-0.dtd"
	xmlns:inkscape="http://www.inkscape.org/namespaces/inkscape"
	width="1000"
	height="1000"
	id="svg2"
	version="1.1"
	sodipodi:docname="manifold/discur-carriage-16.png.txt">
<defs
	id="defs4" />
<metadata
	id="metadata7">
	<rdf:RDF>
		<cc:Work
			rdf:about="">
			<dc:format>image/svg+xml</dc:format>
			<dc:type
				rdf:resource="http://purl.org/dc/dcmitype/StillImage" />
			<dc:title></dc:title>
		</cc:Work>
	</rdf:RDF>
</metadata>
<g
	inkscape:label="Layer 1"
	inkscape:groupmode="layer"
	id="layer1">
	<path style="fill:none;stroke:red;stroke-width:1px;stroke-linecap:butt;stroke-linejoin:miter;stroke-opacity:1" d="M 4,118.753 4,128.237 z" id="boundary" inkscape:connector-curvature="0" />
	<path style="fill:none;stroke:red;stroke-width:1px;stroke-linecap:butt;stroke-linejoin:miter;stroke-opacity:1" d="M 4,118.753 8.74187,109.27 z" id="boundary" inkscape:connector-curvature="0" />
	<path style="fill:none;stroke:red;stroke-width:1px;stroke-linecap:butt;stroke-linejoin:miter;stroke-opacity:1" d="M 4,128.237 13.4837,145.308 z" id="boundary" inkscape:connector-curvature="0" />
	<path style="fill:none;stroke:red;stroke-width:1px;stroke-linecap:butt;stroke-linejoin:miter;stroke-opacity:1" d="M 8.74187,109.27 16.3289,101.683 z" id="boundary" inkscape:connector-curvature="0" />
	<path style="fill:none;stroke:red;stroke-width:1px;stroke-linecap:butt;stroke-linejoin:miter;stroke-opacity:1" d="M 13.4837,145.308 31.5029,148.153 z" id="boundary" inkscape:connector-curvature="0" />
	<path style="fill:none;stroke:red;stroke-width:1px;stroke-linecap:butt;stroke-linejoin:miter;stroke-opacity:1" d="M 16.3289,101.683 24.8642,96.9407 z" id="boundary" inkscape:connector-curvature="0" />
	<path style="fill:none;stroke:red;stroke-width:1px;stroke-linecap:butt;stroke-linejoin:miter;stroke-opacity:1" d="M 24.8642,96.9407 32.4512,90.3021 z" id="boundary" inkscape:connector-curvature="0" />
	<path style="fill:none;stroke:red;stroke-width:1px;stroke-linecap:butt;stroke-linejoin:miter;stroke-opacity:1" d="M 31.5029,148.153 40.9866,143.411 z" id="boundary" inkscape:connector-curvature="0" />
	<path style="fill:none;stroke:red;stroke-width:1px;stroke-linecap:butt;stroke-linejoin:miter;stroke-opacity:1" d="M 32.4512,90.3021 40.0382,82.7151 z" id="boundary" inkscape:connector-curvature="0" />
	<path style="fill:none;stroke:red;stroke-width:1px;stroke-linecap:butt;stroke-linejoin:miter;stroke-opacity:1" d="M 40.0382,82.7151 47.6252,75.1281 z" id="boundary" inkscape:connector-curvature="0" />
	<path style="fill:none;stroke:red;stroke-width:1px;stroke-linecap:butt;stroke-linejoin:miter;stroke-opacity:1" d="M 40.9866,143.411 45.7285,133.927 z" id="boundary" inkscape:connector-curvature="0" />
	<path style="fill:none;stroke:red;stroke-width:1px;stroke-linecap:butt;stroke-linejoin:miter;stroke-opacity:1" d="M 45.7285,133.927 55.2122,131.082 z" id="boundary" inkscape:connector-curvature="0" />
	<path style="fill:none;stroke:red;stroke-width:1px;stroke-linecap:butt;stroke-linejoin:miter;stroke-opacity:1" d="M 47.6252,75.1281 60.9025,57.109 z" id="boundary" inkscape:connector-curvature="0" />
	<path style="fill:none;stroke:red;stroke-width:1px;stroke-linecap:butt;stroke-linejoin:miter;stroke-opacity:1" d="M 55.2122,131.082 64.696,131.082 z" id="boundary" inkscape:connector-curvature="0" />
	<path style="fill:none;stroke:red;stroke-width:1px;stroke-linecap:butt;stroke-linejoin:miter;stroke-opacity:1" d="M 60.9025,57.109 70.3862,54.2639 z" id="boundary" inkscape:connector-curvature="0" />
	<path style="fill:none;stroke:red;stroke-width:1px;stroke-linecap:butt;stroke-linejoin:miter;stroke-opacity:1" d="M 64.696,131.082 74.1797,131.082 z" id="boundary" inkscape:connector-curvature="0" />
	<path style="fill:none;stroke:red;stroke-width:1px;stroke-linecap:butt;stroke-linejoin:miter;stroke-opacity:1" d="M 70.3862,54.2639 79.87,54.2639 z" id="boundary" inkscape:connector-curvature="0" />
	<path style="fill:none;stroke:red;stroke-width:1px;stroke-linecap:butt;stroke-linejoin:miter;stroke-opacity:1" d="M 74.1797,131.082 83.6635,131.082 z" id="boundary" inkscape:connector-curvature="0" />
	<path style="fill:none;stroke:red;stroke-width:1px;stroke-linecap:butt;stroke-linejoin:miter;stroke-opacity:1" d="M 79.87,54.2639 89.3537,56.1606 z" id="boundary" inkscape:connector-curvature="0" />
	<path style="fill:none;stroke:red;stroke-width:1px;stroke-linecap:butt;stroke-linejoin:miter;stroke-opacity:1" d="M 83.6635,131.082 93.1472,131.082 z" id="boundary" inkscape:connector-curvature="0" />
	<path style="fill:none;stroke:red;stroke-width:1px;stroke-linecap:butt;stroke-linejoin:miter;stroke-opacity:1" d="M 89.3537,56.1606 107.373,64.696 z" id="boundary" inkscape:connector-curvature="0" />
	<path style="fill:none;stroke:red;stroke-width:1px;stroke-linecap:butt;stroke-linejoin:miter;stroke-opacity:1" d="M 93.1472,131.082 102.631,131.082 z" id="boundary" inkscape:connector-curvature="0" />
	<path style="fill:none;stroke:red;stroke-width:1px;stroke-linecap:butt;stroke-linejoin:miter;stroke-opacity:1" d="M 102.631,131.082 113.063,145.308 z" id="boundary" inkscape:connector-curvature="0" />
	<path style="fill:none;stroke:red;stroke-width:1px;stroke-linecap:butt;stroke-linejoin:miter;stroke-opacity:1" d="M 103.579,351.105 103.579,360.589 z" id="boundary" inkscape:connector-curvature="0" />
	<path style="fill:none;stroke:red;stroke-width:1px;stroke-linecap:butt;stroke-linejoin:miter;stroke-opacity:1" d="M 103.579,351.105 108.321,341.621 z" id="boundary" inkscape:connector-curvature="0" />
	<path style="fill:none;stroke:red;stroke-width:1px;stroke-linecap:butt;stroke-linejoin:miter;stroke-opacity:1" d="M 103.579,360.589 103.579,370.073 z" id="boundary" inkscape:connector-curvature="0" />
	<path style="fill:none;stroke:red;stroke-width:1px;stroke-linecap:butt;stroke-linejoin:miter;stroke-opacity:1" d="M 103.579,370.073 113.063,372.918 z" id="boundary" inkscape:connector-curvature="0" />
	<path style="fill:none;stroke:red;stroke-width:1px;stroke-linecap:butt;stroke-linejoin:miter;stroke-opacity:1" d="M 107.373,64.696 125.392,73.2314 z" id="boundary" inkscape:connector-curvature="0" />
	<path style="fill:none;stroke:red;stroke-width:1px;stroke-linecap:butt;stroke-linejoin:miter;stroke-opacity:1" d="M 108.321,341.621 117.805,324.551 z" id="boundary" inkscape:connector-curvature="0" />
	<path style="fill:none;stroke:red;stroke-width:1px;stroke-linecap:butt;stroke-linejoin:miter;stroke-opacity:1" d="M 113.063,145.308 117.805,163.327 z" id="boundary" inkscape:connector-curvature="0" />
	<path style="fill:none;stroke:red;stroke-width:1px;stroke-linecap:butt;stroke-linejoin:miter;stroke-opacity:1" d="M 113.063,372.918 122.547,374.815 z" id="boundary" inkscape:connector-curvature="0" />
	<path style="fill:none;stroke:red;stroke-width:1px;stroke-linecap:butt;stroke-linejoin:miter;stroke-opacity:1" d="M 117.805,163.327 117.805,172.811 z" id="boundary" inkscape:connector-curvature="0" />
	<path style="fill:none;stroke:red;stroke-width:1px;stroke-linecap:butt;stroke-linejoin:miter;stroke-opacity:1" d="M 117.805,172.811 117.805,182.294 z" id="boundary" inkscape:connector-curvature="0" />
	<path style="fill:none;stroke:red;stroke-width:1px;stroke-linecap:butt;stroke-linejoin:miter;stroke-opacity:1" d="M 117.805,182.294 117.805,191.778 z" id="boundary" inkscape:connector-curvature="0" />
	<path style="fill:none;stroke:red;stroke-width:1px;stroke-linecap:butt;stroke-linejoin:miter;stroke-opacity:1" d="M 117.805,191.778 117.805,201.262 z" id="boundary" inkscape:connector-curvature="0" />
	<path style="fill:none;stroke:red;stroke-width:1px;stroke-linecap:butt;stroke-linejoin:miter;stroke-opacity:1" d="M 117.805,201.262 117.805,210.746 z" id="boundary" inkscape:connector-curvature="0" />
	<path style="fill:none;stroke:red;stroke-width:1px;stroke-linecap:butt;stroke-linejoin:miter;stroke-opacity:1" d="M 117.805,210.746 117.805,220.229 z" id="boundary" inkscape:connector-curvature="0" />
	<path style="fill:none;stroke:red;stroke-width:1px;stroke-linecap:butt;stroke-linejoin:miter;stroke-opacity:1" d="M 117.805,220.229 117.805,229.713 z" id="boundary" inkscape:connector-curvature="0" />
	<path style="fill:none;stroke:red;stroke-width:1px;stroke-linecap:butt;stroke-linejoin:miter;stroke-opacity:1" d="M 117.805,229.713 117.805,239.197 z" id="boundary" inkscape:connector-curvature="0" />
	<path style="fill:none;stroke:red;stroke-width:1px;stroke-linecap:butt;stroke-linejoin:miter;stroke-opacity:1" d="M 117.805,239.197 117.805,248.681 z" id="boundary" inkscape:connector-curvature="0" />
	<path style="fill:none;stroke:red;stroke-width:1px;stroke-linecap:butt;stroke-linejoin:miter;stroke-opacity:1" d="M 117.805,248.681 117.805,258.164 z" id="boundary" inkscape:connector-curvature="0" />
	<path style="fill:none;stroke:red;stroke-width:1px;stroke-linecap:butt;stroke-linejoin:miter;stroke-opacity:1" d="M 117.805,258.164 117.805,267.648 z" id="boundary" inkscape:connector-curvature="0" />
	<path style="fill:none;stroke:red;stroke-width:1px;stroke-linecap:butt;stroke-linejoin:miter;stroke-opacity:1" d="M 117.805,267.648 117.805,277.132 z" id="boundary" inkscape:connector-curvature="0" />
	<path style="fill:none;stroke:red;stroke-width:1px;stroke-linecap:butt;stroke-linejoin:miter;stroke-opacity:1" d="M 117.805,277.132 117.805,286.616 z" id="boundary" inkscape:connector-curvature="0" />
	<path style="fill:none;stroke:red;stroke-width:1px;stroke-linecap:butt;stroke-linejoin:miter;stroke-opacity:1" d="M 117.805,286.616 117.805,296.099 z" id="boundary" inkscape:connector-curvature="0" />
	<path style="fill:none;stroke:red;stroke-width:1px;stroke-linecap:butt;stroke-linejoin:miter;stroke-opacity:1" d="M 117.805,296.099 117.805,305.583 z" id="boundary" inkscape:connector-curvature="0" />
	<path style="fill:none;stroke:red;stroke-width:1px;stroke-linecap:butt;stroke-linejoin:miter;stroke-opacity:1" d="M 117.805,305.583 117.805,315.067 z" id="boundary" inkscape:connector-curvature="0" />
	<path style="fill:none;stroke:red;stroke-width:1px;stroke-linecap:butt;stroke-linejoin:miter;stroke-opacity:1" d="M 117.805,315.067 117.805,324.551 z" id="boundary" inkscape:connector-curvature="0" />
	<path style="fill:none;stroke:red;stroke-width:1px;stroke-linecap:butt;stroke-linejoin:miter;stroke-opacity:1" d="M 122.547,374.815 132.979,353.95 z" id="boundary" inkscape:connector-curvature="0" />
	<path style="fill:none;stroke:red;stroke-width:1px;stroke-linecap:butt;stroke-linejoin:miter;stroke-opacity:1" d="M 125.392,73.2314 133.927,77.9732 z" id="boundary" inkscape:connector-curvature="0" />
	<path style="fill:none;stroke:red;stroke-width:1px;stroke-linecap:butt;stroke-linejoin:miter;stroke-opacity:1" d="M 132.979,353.95 137.721,339.725 z" id="boundary" inkscape:connector-curvature="0" />
	<path style="fill:none;stroke:red;stroke-width:1px;stroke-linecap:butt;stroke-linejoin:miter;stroke-opacity:1" d="M 133.927,77.9732 150.05,89.3537 z" id="boundary" inkscape:connector-curvature="0" />
	<path style="fill:none;stroke:red;stroke-width:1px;stroke-linecap:butt;stroke-linejoin:miter;stroke-opacity:1" d="M 137.721,339.725 142.463,325.499 z" id="boundary" inkscape:connector-curvature="0" />
	<path style="fill:none;stroke:red;stroke-width:1px;stroke-linecap:butt;stroke-linejoin:miter;stroke-opacity:1" d="M 142.463,316.015 142.463,325.499 z" id="boundary" inkscape:connector-curvature="0" />
	<path style="fill:none;stroke:red;stroke-width:1px;stroke-linecap:butt;stroke-linejoin:miter;stroke-opacity:1" d="M 142.463,316.015 147.205,301.79 z" id="boundary" inkscape:connector-curvature="0" />
	<path style="fill:none;stroke:red;stroke-width:1px;stroke-linecap:butt;stroke-linejoin:miter;stroke-opacity:1" d="M 147.205,282.822 147.205,292.306 z" id="boundary" inkscape:connector-curvature="0" />
	<path style="fill:none;stroke:red;stroke-width:1px;stroke-linecap:butt;stroke-linejoin:miter;stroke-opacity:1" d="M 147.205,282.822 151.946,273.338 z" id="boundary" inkscape:connector-curvature="0" />
	<path style="fill:none;stroke:red;stroke-width:1px;stroke-linecap:butt;stroke-linejoin:miter;stroke-opacity:1" d="M 147.205,292.306 147.205,301.79 z" id="boundary" inkscape:connector-curvature="0" />
	<path style="fill:none;stroke:red;stroke-width:1px;stroke-linecap:butt;stroke-linejoin:miter;stroke-opacity:1" d="M 150.05,89.3537 166.172,99.7859 z" id="boundary" inkscape:connector-curvature="0" />
	<path style="fill:none;stroke:red;stroke-width:1px;stroke-linecap:butt;stroke-linejoin:miter;stroke-opacity:1" d="M 151.946,263.855 151.946,273.338 z" id="boundary" inkscape:connector-curvature="0" />
	<path style="fill:none;stroke:red;stroke-width:1px;stroke-linecap:butt;stroke-linejoin:miter;stroke-opacity:1" d="M 151.946,263.855 156.688,254.371 z" id="boundary" inkscape:connector-curvature="0" />
	<path style="fill:none;stroke:red;stroke-width:1px;stroke-linecap:butt;stroke-linejoin:miter;stroke-opacity:1" d="M 156.688,254.371 161.43,244.887 z" id="boundary" inkscape:connector-curvature="0" />
	<path style="fill:none;stroke:red;stroke-width:1px;stroke-linecap:butt;stroke-linejoin:miter;stroke-opacity:1" d="M 161.43,244.887 170.914,244.887 z" id="boundary" inkscape:connector-curvature="0" />
	<path style="fill:none;stroke:red;stroke-width:1px;stroke-linecap:butt;stroke-linejoin:miter;stroke-opacity:1" d="M 166.172,99.7859 173.759,106.424 z" id="boundary" inkscape:connector-curvature="0" />
	<path style="fill:none;stroke:red;stroke-width:1px;stroke-linecap:butt;stroke-linejoin:miter;stroke-opacity:1" d="M 170.914,244.887 180.398,244.887 z" id="boundary" inkscape:connector-curvature="0" />
	<path style="fill:none;stroke:red;stroke-width:1px;stroke-linecap:butt;stroke-linejoin:miter;stroke-opacity:1" d="M 173.759,106.424 190.83,115.908 z" id="boundary" inkscape:connector-curvature="0" />
	<path style="fill:none;stroke:red;stroke-width:1px;stroke-linecap:butt;stroke-linejoin:miter;stroke-opacity:1" d="M 180.398,244.887 189.881,244.887 z" id="boundary" inkscape:connector-curvature="0" />
	<path style="fill:none;stroke:red;stroke-width:1px;stroke-linecap:butt;stroke-linejoin:miter;stroke-opacity:1" d="M 189.881,244.887 199.365,244.887 z" id="boundary" inkscape:connector-curvature="0" />
	<path style="fill:none;stroke:red;stroke-width:1px;stroke-linecap:butt;stroke-linejoin:miter;stroke-opacity:1" d="M 190.83,115.908 200.314,115.908 z" id="boundary" inkscape:connector-curvature="0" />
	<path style="fill:none;stroke:red;stroke-width:1px;stroke-linecap:butt;stroke-linejoin:miter;stroke-opacity:1" d="M 199.365,244.887 208.849,244.887 z" id="boundary" inkscape:connector-curvature="0" />
	<path style="fill:none;stroke:red;stroke-width:1px;stroke-linecap:butt;stroke-linejoin:miter;stroke-opacity:1" d="M 200.314,115.908 209.797,115.908 z" id="boundary" inkscape:connector-curvature="0" />
	<path style="fill:none;stroke:red;stroke-width:1px;stroke-linecap:butt;stroke-linejoin:miter;stroke-opacity:1" d="M 208.849,244.887 218.333,244.887 z" id="boundary" inkscape:connector-curvature="0" />
	<path style="fill:none;stroke:red;stroke-width:1px;stroke-linecap:butt;stroke-linejoin:miter;stroke-opacity:1" d="M 209.797,115.908 227.816,120.65 z" id="boundary" inkscape:connector-curvature="0" />
	<path style="fill:none;stroke:red;stroke-width:1px;stroke-linecap:butt;stroke-linejoin:miter;stroke-opacity:1" d="M 218.333,244.887 227.816,244.887 z" id="boundary" inkscape:connector-curvature="0" />
	<path style="fill:none;stroke:red;stroke-width:1px;stroke-linecap:butt;stroke-linejoin:miter;stroke-opacity:1" d="M 227.816,120.65 236.352,125.392 z" id="boundary" inkscape:connector-curvature="0" />
	<path style="fill:none;stroke:red;stroke-width:1px;stroke-linecap:butt;stroke-linejoin:miter;stroke-opacity:1" d="M 227.816,244.887 237.3,244.887 z" id="boundary" inkscape:connector-curvature="0" />
	<path style="fill:none;stroke:red;stroke-width:1px;stroke-linecap:butt;stroke-linejoin:miter;stroke-opacity:1" d="M 236.352,125.392 245.836,125.392 z" id="boundary" inkscape:connector-curvature="0" />
	<path style="fill:none;stroke:red;stroke-width:1px;stroke-linecap:butt;stroke-linejoin:miter;stroke-opacity:1" d="M 237.3,244.887 246.784,244.887 z" id="boundary" inkscape:connector-curvature="0" />
	<path style="fill:none;stroke:red;stroke-width:1px;stroke-linecap:butt;stroke-linejoin:miter;stroke-opacity:1" d="M 245.836,125.392 255.319,125.392 z" id="boundary" inkscape:connector-curvature="0" />
	<path style="fill:none;stroke:red;stroke-width:1px;stroke-linecap:butt;stroke-linejoin:miter;stroke-opacity:1" d="M 246.784,244.887 256.268,244.887 z" id="boundary" inkscape:connector-curvature="0" />
	<path style="fill:none;stroke:red;stroke-width:1px;stroke-linecap:butt;stroke-linejoin:miter;stroke-opacity:1" d="M 255.319,125.392 264.803,125.392 z" id="boundary" inkscape:connector-curvature="0" />
	<path style="fill:none;stroke:red;stroke-width:1px;stroke-linecap:butt;stroke-linejoin:miter;stroke-opacity:1" d="M 256.268,244.887 265.751,244.887 z" id="boundary" inkscape:connector-curvature="0" />
	<path style="fill:none;stroke:red;stroke-width:1px;stroke-linecap:butt;stroke-linejoin:miter;stroke-opacity:1" d="M 264.803,125.392 273.338,130.134 z" id="boundary" inkscape:connector-curvature="0" />
	<path style="fill:none;stroke:red;stroke-width:1px;stroke-linecap:butt;stroke-linejoin:miter;stroke-opacity:1" d="M 265.751,244.887 275.235,244.887 z" id="boundary" inkscape:connector-curvature="0" />
	<path style="fill:none;stroke:red;stroke-width:1px;stroke-linecap:butt;stroke-linejoin:miter;stroke-opacity:1" d="M 273.338,130.134 282.822,130.134 z" id="boundary" inkscape:connector-curvature="0" />
	<path style="fill:none;stroke:red;stroke-width:1px;stroke-linecap:butt;stroke-linejoin:miter;stroke-opacity:1" d="M 275.235,244.887 284.719,244.887 z" id="boundary" inkscape:connector-curvature="0" />
	<path style="fill:none;stroke:red;stroke-width:1px;stroke-linecap:butt;stroke-linejoin:miter;stroke-opacity:1" d="M 282.822,130.134 300.841,134.876 z" id="boundary" inkscape:connector-curvature="0" />
	<path style="fill:none;stroke:red;stroke-width:1px;stroke-linecap:butt;stroke-linejoin:miter;stroke-opacity:1" d="M 284.719,244.887 294.203,244.887 z" id="boundary" inkscape:connector-curvature="0" />
	<path style="fill:none;stroke:red;stroke-width:1px;stroke-linecap:butt;stroke-linejoin:miter;stroke-opacity:1" d="M 294.203,244.887 302.738,249.629 z" id="boundary" inkscape:connector-curvature="0" />
	<path style="fill:none;stroke:red;stroke-width:1px;stroke-linecap:butt;stroke-linejoin:miter;stroke-opacity:1" d="M 300.841,134.876 310.325,134.876 z" id="boundary" inkscape:connector-curvature="0" />
	<path style="fill:none;stroke:red;stroke-width:1px;stroke-linecap:butt;stroke-linejoin:miter;stroke-opacity:1" d="M 302.738,249.629 307.48,267.648 z" id="boundary" inkscape:connector-curvature="0" />
	<path style="fill:none;stroke:red;stroke-width:1px;stroke-linecap:butt;stroke-linejoin:miter;stroke-opacity:1" d="M 307.48,267.648 307.48,277.132 z" id="boundary" inkscape:connector-curvature="0" />
	<path style="fill:none;stroke:red;stroke-width:1px;stroke-linecap:butt;stroke-linejoin:miter;stroke-opacity:1" d="M 307.48,277.132 307.48,286.616 z" id="boundary" inkscape:connector-curvature="0" />
	<path style="fill:none;stroke:red;stroke-width:1px;stroke-linecap:butt;stroke-linejoin:miter;stroke-opacity:1" d="M 307.48,286.616 307.48,296.099 z" id="boundary" inkscape:connector-curvature="0" />
	<path style="fill:none;stroke:red;stroke-width:1px;stroke-linecap:butt;stroke-linejoin:miter;stroke-opacity:1" d="M 307.48,296.099 307.48,305.583 z" id="boundary" inkscape:connector-curvature="0" />
	<path style="fill:none;stroke:red;stroke-width:1px;stroke-linecap:butt;stroke-linejoin:miter;stroke-opacity:1" d="M 307.48,305.583 307.48,315.067 z" id="boundary" inkscape:connector-curvature="0" />
	<path style="fill:none;stroke:red;stroke-width:1px;stroke-linecap:butt;stroke-linejoin:miter;stroke-opacity:1" d="M 307.48,315.067 307.48,324.551 z" id="boundary" inkscape:connector-curvature="0" />
	<path style="fill:none;stroke:red;stroke-width:1px;stroke-linecap:butt;stroke-linejoin:miter;stroke-opacity:1" d="M 307.48,324.551 307.48,334.034 z" id="boundary" inkscape:connector-curvature="0" />
	<path style="fill:none;stroke:red;stroke-width:1px;stroke-linecap:butt;stroke-linejoin:miter;stroke-opacity:1" d="M 307.48,334.034 307.48,343.518 z" id="boundary" inkscape:connector-curvature="0" />
	<path style="fill:none;stroke:red;stroke-width:1px;stroke-linecap:butt;stroke-linejoin:miter;stroke-opacity:1" d="M 307.48,343.518 309.377,353.002 z" id="boundary" inkscape:connector-curvature="0" />
	<path style="fill:none;stroke:red;stroke-width:1px;stroke-linecap:butt;stroke-linejoin:miter;stroke-opacity:1" d="M 309.377,353.002 314.119,361.537 z" id="boundary" inkscape:connector-curvature="0" />
	<path style="fill:none;stroke:red;stroke-width:1px;stroke-linecap:butt;stroke-linejoin:miter;stroke-opacity:1" d="M 310.325,134.876 319.809,134.876 z" id="boundary" inkscape:connector-curvature="0" />
	<path style="fill:none;stroke:red;stroke-width:1px;stroke-linecap:butt;stroke-linejoin:miter;stroke-opacity:1" d="M 314.119,361.537 332.138,368.176 z" id="boundary" inkscape:connector-curvature="0" />
	<path style="fill:none;stroke:red;stroke-width:1px;stroke-linecap:butt;stroke-linejoin:miter;stroke-opacity:1" d="M 319.809,134.876 329.293,134.876 z" id="boundary" inkscape:connector-curvature="0" />
	<path style="fill:none;stroke:red;stroke-width:1px;stroke-linecap:butt;stroke-linejoin:miter;stroke-opacity:1" d="M 329.293,134.876 338.776,134.876 z" id="boundary" inkscape:connector-curvature="0" />
	<path style="fill:none;stroke:red;stroke-width:1px;stroke-linecap:butt;stroke-linejoin:miter;stroke-opacity:1" d="M 332.138,368.176 340.673,363.434 z" id="boundary" inkscape:connector-curvature="0" />
	<path style="fill:none;stroke:red;stroke-width:1px;stroke-linecap:butt;stroke-linejoin:miter;stroke-opacity:1" d="M 338.776,134.876 348.26,134.876 z" id="boundary" inkscape:connector-curvature="0" />
	<path style="fill:none;stroke:red;stroke-width:1px;stroke-linecap:butt;stroke-linejoin:miter;stroke-opacity:1" d="M 340.673,363.434 346.363,353.95 z" id="boundary" inkscape:connector-curvature="0" />
	<path style="fill:none;stroke:red;stroke-width:1px;stroke-linecap:butt;stroke-linejoin:miter;stroke-opacity:1" d="M 346.363,353.95 351.105,339.725 z" id="boundary" inkscape:connector-curvature="0" />
	<path style="fill:none;stroke:red;stroke-width:1px;stroke-linecap:butt;stroke-linejoin:miter;stroke-opacity:1" d="M 348.26,134.876 357.744,134.876 z" id="boundary" inkscape:connector-curvature="0" />
	<path style="fill:none;stroke:red;stroke-width:1px;stroke-linecap:butt;stroke-linejoin:miter;stroke-opacity:1" d="M 351.105,339.725 355.847,325.499 z" id="boundary" inkscape:connector-curvature="0" />
	<path style="fill:none;stroke:red;stroke-width:1px;stroke-linecap:butt;stroke-linejoin:miter;stroke-opacity:1" d="M 355.847,278.08 355.847,287.564 z" id="boundary" inkscape:connector-curvature="0" />
	<path style="fill:none;stroke:red;stroke-width:1px;stroke-linecap:butt;stroke-linejoin:miter;stroke-opacity:1" d="M 355.847,278.08 365.331,278.08 z" id="boundary" inkscape:connector-curvature="0" />
	<path style="fill:none;stroke:red;stroke-width:1px;stroke-linecap:butt;stroke-linejoin:miter;stroke-opacity:1" d="M 355.847,287.564 355.847,297.048 z" id="boundary" inkscape:connector-curvature="0" />
	<path style="fill:none;stroke:red;stroke-width:1px;stroke-linecap:butt;stroke-linejoin:miter;stroke-opacity:1" d="M 355.847,297.048 355.847,306.532 z" id="boundary" inkscape:connector-curvature="0" />
	<path style="fill:none;stroke:red;stroke-width:1px;stroke-linecap:butt;stroke-linejoin:miter;stroke-opacity:1" d="M 355.847,306.532 355.847,316.015 z" id="boundary" inkscape:connector-curvature="0" />
	<path style="fill:none;stroke:red;stroke-width:1px;stroke-linecap:butt;stroke-linejoin:miter;stroke-opacity:1" d="M 355.847,316.015 355.847,325.499 z" id="boundary" inkscape:connector-curvature="0" />
	<path style="fill:none;stroke:red;stroke-width:1px;stroke-linecap:butt;stroke-linejoin:miter;stroke-opacity:1" d="M 357.744,134.876 366.279,139.618 z" id="boundary" inkscape:connector-curvature="0" />
	<path style="fill:none;stroke:red;stroke-width:1px;stroke-linecap:butt;stroke-linejoin:miter;stroke-opacity:1" d="M 365.331,278.08 374.815,278.08 z" id="boundary" inkscape:connector-curvature="0" />
	<path style="fill:none;stroke:red;stroke-width:1px;stroke-linecap:butt;stroke-linejoin:miter;stroke-opacity:1" d="M 366.279,139.618 377.66,155.74 z" id="boundary" inkscape:connector-curvature="0" />
	<path style="fill:none;stroke:red;stroke-width:1px;stroke-linecap:butt;stroke-linejoin:miter;stroke-opacity:1" d="M 374.815,278.08 384.298,278.08 z" id="boundary" inkscape:connector-curvature="0" />
	<path style="fill:none;stroke:red;stroke-width:1px;stroke-linecap:butt;stroke-linejoin:miter;stroke-opacity:1" d="M 377.66,155.74 379.556,165.224 z" id="boundary" inkscape:connector-curvature="0" />
	<path style="fill:none;stroke:red;stroke-width:1px;stroke-linecap:butt;stroke-linejoin:miter;stroke-opacity:1" d="M 379.556,165.224 384.298,183.243 z" id="boundary" inkscape:connector-curvature="0" />
	<path style="fill:none;stroke:red;stroke-width:1px;stroke-linecap:butt;stroke-linejoin:miter;stroke-opacity:1" d="M 384.298,183.243 384.298,192.727 z" id="boundary" inkscape:connector-curvature="0" />
	<path style="fill:none;stroke:red;stroke-width:1px;stroke-linecap:butt;stroke-linejoin:miter;stroke-opacity:1" d="M 384.298,192.727 384.298,202.21 z" id="boundary" inkscape:connector-curvature="0" />
	<path style="fill:none;stroke:red;stroke-width:1px;stroke-linecap:butt;stroke-linejoin:miter;stroke-opacity:1" d="M 384.298,202.21 384.298,211.694 z" id="boundary" inkscape:connector-curvature="0" />
	<path style="fill:none;stroke:red;stroke-width:1px;stroke-linecap:butt;stroke-linejoin:miter;stroke-opacity:1" d="M 384.298,211.694 398.524,220.229 z" id="boundary" inkscape:connector-curvature="0" />
	<path style="fill:none;stroke:red;stroke-width:1px;stroke-linecap:butt;stroke-linejoin:miter;stroke-opacity:1" d="M 384.298,278.08 393.782,278.08 z" id="boundary" inkscape:connector-curvature="0" />
	<path style="fill:none;stroke:red;stroke-width:1px;stroke-linecap:butt;stroke-linejoin:miter;stroke-opacity:1" d="M 393.782,278.08 403.266,278.08 z" id="boundary" inkscape:connector-curvature="0" />
	<path style="fill:none;stroke:red;stroke-width:1px;stroke-linecap:butt;stroke-linejoin:miter;stroke-opacity:1" d="M 398.524,220.229 408.008,220.229 z" id="boundary" inkscape:connector-curvature="0" />
	<path style="fill:none;stroke:red;stroke-width:1px;stroke-linecap:butt;stroke-linejoin:miter;stroke-opacity:1" d="M 403.266,278.08 421.285,282.822 z" id="boundary" inkscape:connector-curvature="0" />
	<path style="fill:none;stroke:red;stroke-width:1px;stroke-linecap:butt;stroke-linejoin:miter;stroke-opacity:1" d="M 408.008,220.229 417.491,220.229 z" id="boundary" inkscape:connector-curvature="0" />
	<path style="fill:none;stroke:red;stroke-width:1px;stroke-linecap:butt;stroke-linejoin:miter;stroke-opacity:1" d="M 417.491,220.229 426.975,220.229 z" id="boundary" inkscape:connector-curvature="0" />
	<path style="fill:none;stroke:red;stroke-width:1px;stroke-linecap:butt;stroke-linejoin:miter;stroke-opacity:1" d="M 421.285,282.822 429.82,287.564 z" id="boundary" inkscape:connector-curvature="0" />
	<path style="fill:none;stroke:red;stroke-width:1px;stroke-linecap:butt;stroke-linejoin:miter;stroke-opacity:1" d="M 426.975,220.229 444.994,215.488 z" id="boundary" inkscape:connector-curvature="0" />
	<path style="fill:none;stroke:red;stroke-width:1px;stroke-linecap:butt;stroke-linejoin:miter;stroke-opacity:1" d="M 429.82,287.564 435.511,304.635 z" id="boundary" inkscape:connector-curvature="0" />
	<path style="fill:none;stroke:red;stroke-width:1px;stroke-linecap:butt;stroke-linejoin:miter;stroke-opacity:1" d="M 435.511,304.635 436.459,314.119 z" id="boundary" inkscape:connector-curvature="0" />
	<path style="fill:none;stroke:red;stroke-width:1px;stroke-linecap:butt;stroke-linejoin:miter;stroke-opacity:1" d="M 436.459,314.119 440.252,323.602 z" id="boundary" inkscape:connector-curvature="0" />
	<path style="fill:none;stroke:red;stroke-width:1px;stroke-linecap:butt;stroke-linejoin:miter;stroke-opacity:1" d="M 440.252,323.602 440.252,333.086 z" id="boundary" inkscape:connector-curvature="0" />
	<path style="fill:none;stroke:red;stroke-width:1px;stroke-linecap:butt;stroke-linejoin:miter;stroke-opacity:1" d="M 440.252,333.086 440.252,342.57 z" id="boundary" inkscape:connector-curvature="0" />
	<path style="fill:none;stroke:red;stroke-width:1px;stroke-linecap:butt;stroke-linejoin:miter;stroke-opacity:1" d="M 440.252,342.57 440.252,352.054 z" id="boundary" inkscape:connector-curvature="0" />
	<path style="fill:none;stroke:red;stroke-width:1px;stroke-linecap:butt;stroke-linejoin:miter;stroke-opacity:1" d="M 440.252,352.054 449.736,369.124 z" id="boundary" inkscape:connector-curvature="0" />
	<path style="fill:none;stroke:red;stroke-width:1px;stroke-linecap:butt;stroke-linejoin:miter;stroke-opacity:1" d="M 444.994,215.488 454.478,215.488 z" id="boundary" inkscape:connector-curvature="0" />
	<path style="fill:none;stroke:red;stroke-width:1px;stroke-linecap:butt;stroke-linejoin:miter;stroke-opacity:1" d="M 449.736,369.124 454.478,377.66 z" id="boundary" inkscape:connector-curvature="0" />
	<path style="fill:none;stroke:red;stroke-width:1px;stroke-linecap:butt;stroke-linejoin:miter;stroke-opacity:1" d="M 454.478,215.488 463.962,215.488 z" id="boundary" inkscape:connector-curvature="0" />
	<path style="fill:none;stroke:red;stroke-width:1px;stroke-linecap:butt;stroke-linejoin:miter;stroke-opacity:1" d="M 454.478,377.66 469.652,389.04 z" id="boundary" inkscape:connector-curvature="0" />
	<path style="fill:none;stroke:red;stroke-width:1px;stroke-linecap:butt;stroke-linejoin:miter;stroke-opacity:1" d="M 463.962,215.488 473.446,215.488 z" id="boundary" inkscape:connector-curvature="0" />
	<path style="fill:none;stroke:red;stroke-width:1px;stroke-linecap:butt;stroke-linejoin:miter;stroke-opacity:1" d="M 469.652,389.04 478.187,393.782 z" id="boundary" inkscape:connector-curvature="0" />
	<path style="fill:none;stroke:red;stroke-width:1px;stroke-linecap:butt;stroke-linejoin:miter;stroke-opacity:1" d="M 473.446,215.488 482.929,215.488 z" id="boundary" inkscape:connector-curvature="0" />
	<path style="fill:none;stroke:red;stroke-width:1px;stroke-linecap:butt;stroke-linejoin:miter;stroke-opacity:1" d="M 478.187,393.782 487.671,396.627 z" id="boundary" inkscape:connector-curvature="0" />
	<path style="fill:none;stroke:red;stroke-width:1px;stroke-linecap:butt;stroke-linejoin:miter;stroke-opacity:1" d="M 482.929,215.488 492.413,213.591 z" id="boundary" inkscape:connector-curvature="0" />
	<path style="fill:none;stroke:red;stroke-width:1px;stroke-linecap:butt;stroke-linejoin:miter;stroke-opacity:1" d="M 487.671,396.627 497.155,396.627 z" id="boundary" inkscape:connector-curvature="0" />
	<path style="fill:none;stroke:red;stroke-width:1px;stroke-linecap:butt;stroke-linejoin:miter;stroke-opacity:1" d="M 492.413,213.591 501.897,204.107 z" id="boundary" inkscape:connector-curvature="0" />
	<path style="fill:none;stroke:red;stroke-width:1px;stroke-linecap:butt;stroke-linejoin:miter;stroke-opacity:1" d="M 497.155,396.627 515.174,401.369 z" id="boundary" inkscape:connector-curvature="0" />
	<path style="fill:none;stroke:red;stroke-width:1px;stroke-linecap:butt;stroke-linejoin:miter;stroke-opacity:1" d="M 501.897,204.107 506.639,194.623 z" id="boundary" inkscape:connector-curvature="0" />
	<path style="fill:none;stroke:red;stroke-width:1px;stroke-linecap:butt;stroke-linejoin:miter;stroke-opacity:1" d="M 506.639,137.721 506.639,147.205 z" id="boundary" inkscape:connector-curvature="0" />
	<path style="fill:none;stroke:red;stroke-width:1px;stroke-linecap:butt;stroke-linejoin:miter;stroke-opacity:1" d="M 506.639,137.721 511.38,128.237 z" id="boundary" inkscape:connector-curvature="0" />
	<path style="fill:none;stroke:red;stroke-width:1px;stroke-linecap:butt;stroke-linejoin:miter;stroke-opacity:1" d="M 506.639,147.205 506.639,156.688 z" id="boundary" inkscape:connector-curvature="0" />
	<path style="fill:none;stroke:red;stroke-width:1px;stroke-linecap:butt;stroke-linejoin:miter;stroke-opacity:1" d="M 506.639,156.688 506.639,166.172 z" id="boundary" inkscape:connector-curvature="0" />
	<path style="fill:none;stroke:red;stroke-width:1px;stroke-linecap:butt;stroke-linejoin:miter;stroke-opacity:1" d="M 506.639,166.172 506.639,175.656 z" id="boundary" inkscape:connector-curvature="0" />
	<path style="fill:none;stroke:red;stroke-width:1px;stroke-linecap:butt;stroke-linejoin:miter;stroke-opacity:1" d="M 506.639,175.656 506.639,185.14 z" id="boundary" inkscape:connector-curvature="0" />
	<path style="fill:none;stroke:red;stroke-width:1px;stroke-linecap:butt;stroke-linejoin:miter;stroke-opacity:1" d="M 506.639,185.14 506.639,194.623 z" id="boundary" inkscape:connector-curvature="0" />
	<path style="fill:none;stroke:red;stroke-width:1px;stroke-linecap:butt;stroke-linejoin:miter;stroke-opacity:1" d="M 511.38,128.237 523.709,111.166 z" id="boundary" inkscape:connector-curvature="0" />
	<path style="fill:none;stroke:red;stroke-width:1px;stroke-linecap:butt;stroke-linejoin:miter;stroke-opacity:1" d="M 515.174,401.369 524.658,401.369 z" id="boundary" inkscape:connector-curvature="0" />
	<path style="fill:none;stroke:red;stroke-width:1px;stroke-linecap:butt;stroke-linejoin:miter;stroke-opacity:1" d="M 523.709,111.166 533.193,106.424 z" id="boundary" inkscape:connector-curvature="0" />
	<path style="fill:none;stroke:red;stroke-width:1px;stroke-linecap:butt;stroke-linejoin:miter;stroke-opacity:1" d="M 524.658,401.369 534.141,401.369 z" id="boundary" inkscape:connector-curvature="0" />
	<path style="fill:none;stroke:red;stroke-width:1px;stroke-linecap:butt;stroke-linejoin:miter;stroke-opacity:1" d="M 533.193,106.424 542.677,106.424 z" id="boundary" inkscape:connector-curvature="0" />
	<path style="fill:none;stroke:red;stroke-width:1px;stroke-linecap:butt;stroke-linejoin:miter;stroke-opacity:1" d="M 534.141,401.369 551.212,391.885 z" id="boundary" inkscape:connector-curvature="0" />
	<path style="fill:none;stroke:red;stroke-width:1px;stroke-linecap:butt;stroke-linejoin:miter;stroke-opacity:1" d="M 542.677,106.424 549.315,95.044 z" id="boundary" inkscape:connector-curvature="0" />
	<path style="fill:none;stroke:red;stroke-width:1px;stroke-linecap:butt;stroke-linejoin:miter;stroke-opacity:1" d="M 549.315,38.1415 549.315,47.6252 z" id="boundary" inkscape:connector-curvature="0" />
	<path style="fill:none;stroke:red;stroke-width:1px;stroke-linecap:butt;stroke-linejoin:miter;stroke-opacity:1" d="M 549.315,38.1415 554.057,28.6577 z" id="boundary" inkscape:connector-curvature="0" />
	<path style="fill:none;stroke:red;stroke-width:1px;stroke-linecap:butt;stroke-linejoin:miter;stroke-opacity:1" d="M 549.315,47.6252 549.315,57.109 z" id="boundary" inkscape:connector-curvature="0" />
	<path style="fill:none;stroke:red;stroke-width:1px;stroke-linecap:butt;stroke-linejoin:miter;stroke-opacity:1" d="M 549.315,57.109 549.315,66.5927 z" id="boundary" inkscape:connector-curvature="0" />
	<path style="fill:none;stroke:red;stroke-width:1px;stroke-linecap:butt;stroke-linejoin:miter;stroke-opacity:1" d="M 549.315,66.5927 549.315,76.0765 z" id="boundary" inkscape:connector-curvature="0" />
	<path style="fill:none;stroke:red;stroke-width:1px;stroke-linecap:butt;stroke-linejoin:miter;stroke-opacity:1" d="M 549.315,76.0765 549.315,85.5602 z" id="boundary" inkscape:connector-curvature="0" />
	<path style="fill:none;stroke:red;stroke-width:1px;stroke-linecap:butt;stroke-linejoin:miter;stroke-opacity:1" d="M 549.315,85.5602 549.315,95.044 z" id="boundary" inkscape:connector-curvature="0" />
	<path style="fill:none;stroke:red;stroke-width:1px;stroke-linecap:butt;stroke-linejoin:miter;stroke-opacity:1" d="M 551.212,391.885 568.283,382.402 z" id="boundary" inkscape:connector-curvature="0" />
	<path style="fill:none;stroke:red;stroke-width:1px;stroke-linecap:butt;stroke-linejoin:miter;stroke-opacity:1" d="M 554.057,19.174 554.057,28.6577 z" id="boundary" inkscape:connector-curvature="0" />
	<path style="fill:none;stroke:red;stroke-width:1px;stroke-linecap:butt;stroke-linejoin:miter;stroke-opacity:1" d="M 554.057,19.174 558.799,9.69025 z" id="boundary" inkscape:connector-curvature="0" />
	<path style="fill:none;stroke:red;stroke-width:1px;stroke-linecap:butt;stroke-linejoin:miter;stroke-opacity:1" d="M 558.799,9.69025 568.283,4.94837 z" id="boundary" inkscape:connector-curvature="0" />
	<path style="fill:none;stroke:red;stroke-width:1px;stroke-linecap:butt;stroke-linejoin:miter;stroke-opacity:1" d="M 568.283,4.94837 577.767,4 z" id="boundary" inkscape:connector-curvature="0" />
	<path style="fill:none;stroke:red;stroke-width:1px;stroke-linecap:butt;stroke-linejoin:miter;stroke-opacity:1" d="M 568.283,382.402 573.973,372.918 z" id="boundary" inkscape:connector-curvature="0" />
	<path style="fill:none;stroke:red;stroke-width:1px;stroke-linecap:butt;stroke-linejoin:miter;stroke-opacity:1" d="M 573.973,230.662 573.973,240.145 z" id="boundary" inkscape:connector-curvature="0" />
	<path style="fill:none;stroke:red;stroke-width:1px;stroke-linecap:butt;stroke-linejoin:miter;stroke-opacity:1" d="M 573.973,230.662 591.992,225.92 z" id="boundary" inkscape:connector-curvature="0" />
	<path style="fill:none;stroke:red;stroke-width:1px;stroke-linecap:butt;stroke-linejoin:miter;stroke-opacity:1" d="M 573.973,240.145 578.715,248.681 z" id="boundary" inkscape:connector-curvature="0" />
	<path style="fill:none;stroke:red;stroke-width:1px;stroke-linecap:butt;stroke-linejoin:miter;stroke-opacity:1" d="M 573.973,372.918 586.302,356.795 z" id="boundary" inkscape:connector-curvature="0" />
	<path style="fill:none;stroke:red;stroke-width:1px;stroke-linecap:butt;stroke-linejoin:miter;stroke-opacity:1" d="M 577.767,4 586.302,8.74187 z" id="boundary" inkscape:connector-curvature="0" />
	<path style="fill:none;stroke:red;stroke-width:1px;stroke-linecap:butt;stroke-linejoin:miter;stroke-opacity:1" d="M 578.715,248.681 583.457,257.216 z" id="boundary" inkscape:connector-curvature="0" />
	<path style="fill:none;stroke:red;stroke-width:1px;stroke-linecap:butt;stroke-linejoin:miter;stroke-opacity:1" d="M 583.457,257.216 594.837,273.338 z" id="boundary" inkscape:connector-curvature="0" />
	<path style="fill:none;stroke:red;stroke-width:1px;stroke-linecap:butt;stroke-linejoin:miter;stroke-opacity:1" d="M 586.302,8.74187 594.837,26.761 z" id="boundary" inkscape:connector-curvature="0" />
	<path style="fill:none;stroke:red;stroke-width:1px;stroke-linecap:butt;stroke-linejoin:miter;stroke-opacity:1" d="M 586.302,356.795 591.044,347.312 z" id="boundary" inkscape:connector-curvature="0" />
	<path style="fill:none;stroke:red;stroke-width:1px;stroke-linecap:butt;stroke-linejoin:miter;stroke-opacity:1" d="M 591.044,347.312 595.786,337.828 z" id="boundary" inkscape:connector-curvature="0" />
	<path style="fill:none;stroke:red;stroke-width:1px;stroke-linecap:butt;stroke-linejoin:miter;stroke-opacity:1" d="M 591.992,225.92 601.476,225.92 z" id="boundary" inkscape:connector-curvature="0" />
	<path style="fill:none;stroke:red;stroke-width:1px;stroke-linecap:butt;stroke-linejoin:miter;stroke-opacity:1" d="M 594.837,26.761 597.683,36.2447 z" id="boundary" inkscape:connector-curvature="0" />
	<path style="fill:none;stroke:red;stroke-width:1px;stroke-linecap:butt;stroke-linejoin:miter;stroke-opacity:1" d="M 594.837,273.338 597.683,282.822 z" id="boundary" inkscape:connector-curvature="0" />
	<path style="fill:none;stroke:red;stroke-width:1px;stroke-linecap:butt;stroke-linejoin:miter;stroke-opacity:1" d="M 595.786,337.828 597.683,320.757 z" id="boundary" inkscape:connector-curvature="0" />
	<path style="fill:none;stroke:red;stroke-width:1px;stroke-linecap:butt;stroke-linejoin:miter;stroke-opacity:1" d="M 597.683,36.2447 602.424,54.2639 z" id="boundary" inkscape:connector-curvature="0" />
	<path style="fill:none;stroke:red;stroke-width:1px;stroke-linecap:butt;stroke-linejoin:miter;stroke-opacity:1" d="M 597.683,282.822 597.683,292.306 z" id="boundary" inkscape:connector-curvature="0" />
	<path style="fill:none;stroke:red;stroke-width:1px;stroke-linecap:butt;stroke-linejoin:miter;stroke-opacity:1" d="M 597.683,292.306 597.683,301.79 z" id="boundary" inkscape:connector-curvature="0" />
	<path style="fill:none;stroke:red;stroke-width:1px;stroke-linecap:butt;stroke-linejoin:miter;stroke-opacity:1" d="M 597.683,301.79 597.683,311.273 z" id="boundary" inkscape:connector-curvature="0" />
	<path style="fill:none;stroke:red;stroke-width:1px;stroke-linecap:butt;stroke-linejoin:miter;stroke-opacity:1" d="M 597.683,311.273 597.683,320.757 z" id="boundary" inkscape:connector-curvature="0" />
	<path style="fill:none;stroke:red;stroke-width:1px;stroke-linecap:butt;stroke-linejoin:miter;stroke-opacity:1" d="M 601.476,225.92 610.96,225.92 z" id="boundary" inkscape:connector-curvature="0" />
	<path style="fill:none;stroke:red;stroke-width:1px;stroke-linecap:butt;stroke-linejoin:miter;stroke-opacity:1" d="M 602.424,54.2639 607.166,62.7992 z" id="boundary" inkscape:connector-curvature="0" />
	<path style="fill:none;stroke:red;stroke-width:1px;stroke-linecap:butt;stroke-linejoin:miter;stroke-opacity:1" d="M 607.166,62.7992 615.702,80.8184 z" id="boundary" inkscape:connector-curvature="0" />
	<path style="fill:none;stroke:red;stroke-width:1px;stroke-linecap:butt;stroke-linejoin:miter;stroke-opacity:1" d="M 610.96,225.92 619.495,230.662 z" id="boundary" inkscape:connector-curvature="0" />
	<path style="fill:none;stroke:red;stroke-width:1px;stroke-linecap:butt;stroke-linejoin:miter;stroke-opacity:1" d="M 615.702,80.8184 620.444,89.3537 z" id="boundary" inkscape:connector-curvature="0" />
	<path style="fill:none;stroke:red;stroke-width:1px;stroke-linecap:butt;stroke-linejoin:miter;stroke-opacity:1" d="M 619.495,230.662 629.927,246.784 z" id="boundary" inkscape:connector-curvature="0" />
	<path style="fill:none;stroke:red;stroke-width:1px;stroke-linecap:butt;stroke-linejoin:miter;stroke-opacity:1" d="M 620.444,89.3537 624.237,98.8375 z" id="boundary" inkscape:connector-curvature="0" />
	<path style="fill:none;stroke:red;stroke-width:1px;stroke-linecap:butt;stroke-linejoin:miter;stroke-opacity:1" d="M 624.237,98.8375 626.134,108.321 z" id="boundary" inkscape:connector-curvature="0" />
	<path style="fill:none;stroke:red;stroke-width:1px;stroke-linecap:butt;stroke-linejoin:miter;stroke-opacity:1" d="M 626.134,108.321 626.134,117.805 z" id="boundary" inkscape:connector-curvature="0" />
	<path style="fill:none;stroke:red;stroke-width:1px;stroke-linecap:butt;stroke-linejoin:miter;stroke-opacity:1" d="M 626.134,117.805 626.134,127.289 z" id="boundary" inkscape:connector-curvature="0" />
	<path style="fill:none;stroke:red;stroke-width:1px;stroke-linecap:butt;stroke-linejoin:miter;stroke-opacity:1" d="M 626.134,127.289 626.134,136.772 z" id="boundary" inkscape:connector-curvature="0" />
	<path style="fill:none;stroke:red;stroke-width:1px;stroke-linecap:butt;stroke-linejoin:miter;stroke-opacity:1" d="M 626.134,136.772 626.134,146.256 z" id="boundary" inkscape:connector-curvature="0" />
	<path style="fill:none;stroke:red;stroke-width:1px;stroke-linecap:butt;stroke-linejoin:miter;stroke-opacity:1" d="M 626.134,146.256 628.979,155.74 z" id="boundary" inkscape:connector-curvature="0" />
	<path style="fill:none;stroke:red;stroke-width:1px;stroke-linecap:butt;stroke-linejoin:miter;stroke-opacity:1" d="M 628.979,155.74 630.876,165.224 z" id="boundary" inkscape:connector-curvature="0" />
	<path style="fill:none;stroke:red;stroke-width:1px;stroke-linecap:butt;stroke-linejoin:miter;stroke-opacity:1" d="M 629.927,246.784 634.669,255.319 z" id="boundary" inkscape:connector-curvature="0" />
	<path style="fill:none;stroke:red;stroke-width:1px;stroke-linecap:butt;stroke-linejoin:miter;stroke-opacity:1" d="M 630.876,165.224 633.721,174.707 z" id="boundary" inkscape:connector-curvature="0" />
	<path style="fill:none;stroke:red;stroke-width:1px;stroke-linecap:butt;stroke-linejoin:miter;stroke-opacity:1" d="M 633.721,174.707 638.463,183.243 z" id="boundary" inkscape:connector-curvature="0" />
	<path style="fill:none;stroke:red;stroke-width:1px;stroke-linecap:butt;stroke-linejoin:miter;stroke-opacity:1" d="M 634.669,255.319 644.153,272.39 z" id="boundary" inkscape:connector-curvature="0" />
	<path style="fill:none;stroke:red;stroke-width:1px;stroke-linecap:butt;stroke-linejoin:miter;stroke-opacity:1" d="M 638.463,183.243 642.256,192.727 z" id="boundary" inkscape:connector-curvature="0" />
	<path style="fill:none;stroke:red;stroke-width:1px;stroke-linecap:butt;stroke-linejoin:miter;stroke-opacity:1" d="M 642.256,192.727 653.637,208.849 z" id="boundary" inkscape:connector-curvature="0" />
	<path style="fill:none;stroke:red;stroke-width:1px;stroke-linecap:butt;stroke-linejoin:miter;stroke-opacity:1" d="M 644.153,272.39 648.895,290.409 z" id="boundary" inkscape:connector-curvature="0" />
	<path style="fill:none;stroke:red;stroke-width:1px;stroke-linecap:butt;stroke-linejoin:miter;stroke-opacity:1" d="M 648.895,290.409 649.843,299.893 z" id="boundary" inkscape:connector-curvature="0" />
	<path style="fill:none;stroke:red;stroke-width:1px;stroke-linecap:butt;stroke-linejoin:miter;stroke-opacity:1" d="M 649.843,299.893 657.43,306.532 z" id="boundary" inkscape:connector-curvature="0" />
	<path style="fill:none;stroke:red;stroke-width:1px;stroke-linecap:butt;stroke-linejoin:miter;stroke-opacity:1" d="M 653.637,208.849 661.224,215.488 z" id="boundary" inkscape:connector-curvature="0" />
	<path style="fill:none;stroke:red;stroke-width:1px;stroke-linecap:butt;stroke-linejoin:miter;stroke-opacity:1" d="M 657.43,306.532 675.449,315.067 z" id="boundary" inkscape:connector-curvature="0" />
	<path style="fill:none;stroke:red;stroke-width:1px;stroke-linecap:butt;stroke-linejoin:miter;stroke-opacity:1" d="M 661.224,215.488 677.346,224.971 z" id="boundary" inkscape:connector-curvature="0" />
	<path style="fill:none;stroke:red;stroke-width:1px;stroke-linecap:butt;stroke-linejoin:miter;stroke-opacity:1" d="M 675.449,315.067 683.985,319.809 z" id="boundary" inkscape:connector-curvature="0" />
	<path style="fill:none;stroke:red;stroke-width:1px;stroke-linecap:butt;stroke-linejoin:miter;stroke-opacity:1" d="M 677.346,224.971 686.83,224.971 z" id="boundary" inkscape:connector-curvature="0" />
	<path style="fill:none;stroke:red;stroke-width:1px;stroke-linecap:butt;stroke-linejoin:miter;stroke-opacity:1" d="M 683.985,319.809 693.468,323.602 z" id="boundary" inkscape:connector-curvature="0" />
	<path style="fill:none;stroke:red;stroke-width:1px;stroke-linecap:butt;stroke-linejoin:miter;stroke-opacity:1" d="M 686.83,224.971 696.314,224.971 z" id="boundary" inkscape:connector-curvature="0" />
	<path style="fill:none;stroke:red;stroke-width:1px;stroke-linecap:butt;stroke-linejoin:miter;stroke-opacity:1" d="M 693.468,323.602 702.952,325.499 z" id="boundary" inkscape:connector-curvature="0" />
	<path style="fill:none;stroke:red;stroke-width:1px;stroke-linecap:butt;stroke-linejoin:miter;stroke-opacity:1" d="M 696.314,224.971 704.849,220.229 z" id="boundary" inkscape:connector-curvature="0" />
	<path style="fill:none;stroke:red;stroke-width:1px;stroke-linecap:butt;stroke-linejoin:miter;stroke-opacity:1" d="M 702.952,325.499 712.436,325.499 z" id="boundary" inkscape:connector-curvature="0" />
	<path style="fill:none;stroke:red;stroke-width:1px;stroke-linecap:butt;stroke-linejoin:miter;stroke-opacity:1" d="M 704.849,220.229 714.333,220.229 z" id="boundary" inkscape:connector-curvature="0" />
	<path style="fill:none;stroke:red;stroke-width:1px;stroke-linecap:butt;stroke-linejoin:miter;stroke-opacity:1" d="M 712.436,325.499 721.92,325.499 z" id="boundary" inkscape:connector-curvature="0" />
	<path style="fill:none;stroke:red;stroke-width:1px;stroke-linecap:butt;stroke-linejoin:miter;stroke-opacity:1" d="M 714.333,220.229 731.403,210.746 z" id="boundary" inkscape:connector-curvature="0" />
	<path style="fill:none;stroke:red;stroke-width:1px;stroke-linecap:butt;stroke-linejoin:miter;stroke-opacity:1" d="M 721.92,325.499 731.403,325.499 z" id="boundary" inkscape:connector-curvature="0" />
	<path style="fill:none;stroke:red;stroke-width:1px;stroke-linecap:butt;stroke-linejoin:miter;stroke-opacity:1" d="M 731.403,210.746 734.249,194.623 z" id="boundary" inkscape:connector-curvature="0" />
	<path style="fill:none;stroke:red;stroke-width:1px;stroke-linecap:butt;stroke-linejoin:miter;stroke-opacity:1" d="M 731.403,325.499 740.887,325.499 z" id="boundary" inkscape:connector-curvature="0" />
	<path style="fill:none;stroke:red;stroke-width:1px;stroke-linecap:butt;stroke-linejoin:miter;stroke-opacity:1" d="M 734.249,175.656 734.249,185.14 z" id="boundary" inkscape:connector-curvature="0" />
	<path style="fill:none;stroke:red;stroke-width:1px;stroke-linecap:butt;stroke-linejoin:miter;stroke-opacity:1" d="M 734.249,175.656 738.99,161.43 z" id="boundary" inkscape:connector-curvature="0" />
	<path style="fill:none;stroke:red;stroke-width:1px;stroke-linecap:butt;stroke-linejoin:miter;stroke-opacity:1" d="M 734.249,185.14 734.249,194.623 z" id="boundary" inkscape:connector-curvature="0" />
	<path style="fill:none;stroke:red;stroke-width:1px;stroke-linecap:butt;stroke-linejoin:miter;stroke-opacity:1" d="M 738.99,161.43 743.732,151.946 z" id="boundary" inkscape:connector-curvature="0" />
	<path style="fill:none;stroke:red;stroke-width:1px;stroke-linecap:butt;stroke-linejoin:miter;stroke-opacity:1" d="M 740.887,325.499 750.371,325.499 z" id="boundary" inkscape:connector-curvature="0" />
	<path style="fill:none;stroke:red;stroke-width:1px;stroke-linecap:butt;stroke-linejoin:miter;stroke-opacity:1" d="M 743.732,151.946 753.216,147.205 z" id="boundary" inkscape:connector-curvature="0" />
	<path style="fill:none;stroke:red;stroke-width:1px;stroke-linecap:butt;stroke-linejoin:miter;stroke-opacity:1" d="M 750.371,325.499 759.855,325.499 z" id="boundary" inkscape:connector-curvature="0" />
	<path style="fill:none;stroke:red;stroke-width:1px;stroke-linecap:butt;stroke-linejoin:miter;stroke-opacity:1" d="M 753.216,147.205 762.7,144.359 z" id="boundary" inkscape:connector-curvature="0" />
	<path style="fill:none;stroke:red;stroke-width:1px;stroke-linecap:butt;stroke-linejoin:miter;stroke-opacity:1" d="M 759.855,325.499 772.184,339.725 z" id="boundary" inkscape:connector-curvature="0" />
	<path style="fill:none;stroke:red;stroke-width:1px;stroke-linecap:butt;stroke-linejoin:miter;stroke-opacity:1" d="M 762.7,144.359 772.184,137.721 z" id="boundary" inkscape:connector-curvature="0" />
	<path style="fill:none;stroke:red;stroke-width:1px;stroke-linecap:butt;stroke-linejoin:miter;stroke-opacity:1" d="M 772.184,99.7859 772.184,109.27 z" id="boundary" inkscape:connector-curvature="0" />
	<path style="fill:none;stroke:red;stroke-width:1px;stroke-linecap:butt;stroke-linejoin:miter;stroke-opacity:1" d="M 772.184,99.7859 776.925,90.3021 z" id="boundary" inkscape:connector-curvature="0" />
	<path style="fill:none;stroke:red;stroke-width:1px;stroke-linecap:butt;stroke-linejoin:miter;stroke-opacity:1" d="M 772.184,109.27 772.184,118.753 z" id="boundary" inkscape:connector-curvature="0" />
	<path style="fill:none;stroke:red;stroke-width:1px;stroke-linecap:butt;stroke-linejoin:miter;stroke-opacity:1" d="M 772.184,118.753 772.184,128.237 z" id="boundary" inkscape:connector-curvature="0" />
	<path style="fill:none;stroke:red;stroke-width:1px;stroke-linecap:butt;stroke-linejoin:miter;stroke-opacity:1" d="M 772.184,128.237 772.184,137.721 z" id="boundary" inkscape:connector-curvature="0" />
	<path style="fill:none;stroke:red;stroke-width:1px;stroke-linecap:butt;stroke-linejoin:miter;stroke-opacity:1" d="M 772.184,339.725 782.616,355.847 z" id="boundary" inkscape:connector-curvature="0" />
	<path style="fill:none;stroke:red;stroke-width:1px;stroke-linecap:butt;stroke-linejoin:miter;stroke-opacity:1" d="M 776.925,90.3021 781.667,80.8184 z" id="boundary" inkscape:connector-curvature="0" />
	<path style="fill:none;stroke:red;stroke-width:1px;stroke-linecap:butt;stroke-linejoin:miter;stroke-opacity:1" d="M 781.667,80.8184 798.738,68.4895 z" id="boundary" inkscape:connector-curvature="0" />
	<path style="fill:none;stroke:red;stroke-width:1px;stroke-linecap:butt;stroke-linejoin:miter;stroke-opacity:1" d="M 782.616,355.847 786.409,365.331 z" id="boundary" inkscape:connector-curvature="0" />
	<path style="fill:none;stroke:red;stroke-width:1px;stroke-linecap:butt;stroke-linejoin:miter;stroke-opacity:1" d="M 786.409,365.331 793.996,371.969 z" id="boundary" inkscape:connector-curvature="0" />
	<path style="fill:none;stroke:red;stroke-width:1px;stroke-linecap:butt;stroke-linejoin:miter;stroke-opacity:1" d="M 793.996,371.969 800.635,379.556 z" id="boundary" inkscape:connector-curvature="0" />
	<path style="fill:none;stroke:red;stroke-width:1px;stroke-linecap:butt;stroke-linejoin:miter;stroke-opacity:1" d="M 798.738,68.4895 807.273,73.2314 z" id="boundary" inkscape:connector-curvature="0" />
	<path style="fill:none;stroke:red;stroke-width:1px;stroke-linecap:butt;stroke-linejoin:miter;stroke-opacity:1" d="M 800.635,379.556 808.222,386.195 z" id="boundary" inkscape:connector-curvature="0" />
	<path style="fill:none;stroke:red;stroke-width:1px;stroke-linecap:butt;stroke-linejoin:miter;stroke-opacity:1" d="M 807.273,73.2314 825.293,80.8184 z" id="boundary" inkscape:connector-curvature="0" />
	<path style="fill:none;stroke:red;stroke-width:1px;stroke-linecap:butt;stroke-linejoin:miter;stroke-opacity:1" d="M 824.344,396.627 830.034,404.214 z" id="boundary" inkscape:connector-curvature="0" />
	<path style="fill:none;stroke:red;stroke-width:1px;stroke-linecap:butt;stroke-linejoin:miter;stroke-opacity:1" d="M 824.344,396.627 837.621,410.853 z" id="boundary" inkscape:connector-curvature="0" />
	<path style="fill:none;stroke:red;stroke-width:1px;stroke-linecap:butt;stroke-linejoin:miter;stroke-opacity:1" d="M 825.293,80.8184 829.086,90.3021 z" id="boundary" inkscape:connector-curvature="0" />
	<path style="fill:none;stroke:red;stroke-width:1px;stroke-linecap:butt;stroke-linejoin:miter;stroke-opacity:1" d="M 829.086,90.3021 830.034,99.7859 z" id="boundary" inkscape:connector-curvature="0" />
	<path style="fill:none;stroke:red;stroke-width:1px;stroke-linecap:butt;stroke-linejoin:miter;stroke-opacity:1" d="M 830.034,99.7859 838.57,104.528 z" id="boundary" inkscape:connector-curvature="0" />
	<path style="fill:none;stroke:red;stroke-width:1px;stroke-linecap:butt;stroke-linejoin:miter;stroke-opacity:1" d="M 830.034,404.214 837.621,410.853 z" id="boundary" inkscape:connector-curvature="0" />
	<path style="fill:none;stroke:red;stroke-width:1px;stroke-linecap:butt;stroke-linejoin:miter;stroke-opacity:1" d="M 838.57,104.528 854.692,115.908 z" id="boundary" inkscape:connector-curvature="0" />
	<path style="fill:none;stroke:red;stroke-width:1px;stroke-linecap:butt;stroke-linejoin:miter;stroke-opacity:1" d="M 854.692,115.908 872.711,120.65 z" id="boundary" inkscape:connector-curvature="0" />
	<path style="fill:none;stroke:red;stroke-width:1px;stroke-linecap:butt;stroke-linejoin:miter;stroke-opacity:1" d="M 854.692,420.337 871.763,429.82 z" id="boundary" inkscape:connector-curvature="0" />
	<path style="fill:none;stroke:red;stroke-width:1px;stroke-linecap:butt;stroke-linejoin:miter;stroke-opacity:1" d="M 871.763,429.82 889.782,434.562 z" id="boundary" inkscape:connector-curvature="0" />
	<path style="fill:none;stroke:red;stroke-width:1px;stroke-linecap:butt;stroke-linejoin:miter;stroke-opacity:1" d="M 872.711,120.65 882.195,120.65 z" id="boundary" inkscape:connector-curvature="0" />
	<path style="fill:none;stroke:red;stroke-width:1px;stroke-linecap:butt;stroke-linejoin:miter;stroke-opacity:1" d="M 882.195,120.65 900.214,127.289 z" id="boundary" inkscape:connector-curvature="0" />
	<path style="fill:none;stroke:red;stroke-width:1px;stroke-linecap:butt;stroke-linejoin:miter;stroke-opacity:1" d="M 889.782,434.562 898.317,439.304 z" id="boundary" inkscape:connector-curvature="0" />
	<path style="fill:none;stroke:red;stroke-width:1px;stroke-linecap:butt;stroke-linejoin:miter;stroke-opacity:1" d="M 898.317,439.304 907.801,443.098 z" id="boundary" inkscape:connector-curvature="0" />
	<path style="fill:none;stroke:red;stroke-width:1px;stroke-linecap:butt;stroke-linejoin:miter;stroke-opacity:1" d="M 900.214,127.289 908.75,132.031 z" id="boundary" inkscape:connector-curvature="0" />
	<path style="fill:none;stroke:red;stroke-width:1px;stroke-linecap:butt;stroke-linejoin:miter;stroke-opacity:1" d="M 908.75,132.031 918.233,135.824 z" id="boundary" inkscape:connector-curvature="0" />
	<path style="fill:none;stroke:red;stroke-width:1px;stroke-linecap:butt;stroke-linejoin:miter;stroke-opacity:1" d="M 918.233,135.824 927.717,139.618 z" id="boundary" inkscape:connector-curvature="0" />
	<path style="fill:none;stroke:red;stroke-width:1px;stroke-linecap:butt;stroke-linejoin:miter;stroke-opacity:1" d="M 925.82,448.788 935.304,448.788 z" id="boundary" inkscape:connector-curvature="0" />
	<path style="fill:none;stroke:red;stroke-width:1px;stroke-linecap:butt;stroke-linejoin:miter;stroke-opacity:1" d="M 925.82,448.788 944.788,448.788 z" id="boundary" inkscape:connector-curvature="0" />
	<path style="fill:none;stroke:red;stroke-width:1px;stroke-linecap:butt;stroke-linejoin:miter;stroke-opacity:1" d="M 927.717,139.618 936.252,144.359 z" id="boundary" inkscape:connector-curvature="0" />
	<path style="fill:none;stroke:red;stroke-width:1px;stroke-linecap:butt;stroke-linejoin:miter;stroke-opacity:1" d="M 935.304,448.788 944.788,448.788 z" id="boundary" inkscape:connector-curvature="0" />
	<path style="fill:none;stroke:red;stroke-width:1px;stroke-linecap:butt;stroke-linejoin:miter;stroke-opacity:1" d="M 936.252,144.359 943.839,161.43 z" id="boundary" inkscape:connector-curvature="0" />
	<path style="fill:none;stroke:red;stroke-width:1px;stroke-linecap:butt;stroke-linejoin:miter;stroke-opacity:1" d="M 943.839,161.43 943.839,170.914 z" id="boundary" inkscape:connector-curvature="0" />
	<path style="fill:none;stroke:red;stroke-width:1px;stroke-linecap:butt;stroke-linejoin:miter;stroke-opacity:1" d="M 943.839,170.914 943.839,180.398 z" id="boundary" inkscape:connector-curvature="0" />
	<path style="fill:none;stroke:red;stroke-width:1px;stroke-linecap:butt;stroke-linejoin:miter;stroke-opacity:1" d="M 943.839,180.398 943.839,189.881 z" id="boundary" inkscape:connector-curvature="0" />
	<path style="fill:none;stroke:red;stroke-width:1px;stroke-linecap:butt;stroke-linejoin:miter;stroke-opacity:1" d="M 943.839,189.881 943.839,199.365 z" id="boundary" inkscape:connector-curvature="0" />
	<path style="fill:none;stroke:red;stroke-width:1px;stroke-linecap:butt;stroke-linejoin:miter;stroke-opacity:1" d="M 943.839,199.365 943.839,208.849 z" id="boundary" inkscape:connector-curvature="0" />
	<path style="fill:none;stroke:red;stroke-width:1px;stroke-linecap:butt;stroke-linejoin:miter;stroke-opacity:1" d="M 943.839,208.849 943.839,218.333 z" id="boundary" inkscape:connector-curvature="0" />
	<path style="fill:none;stroke:red;stroke-width:1px;stroke-linecap:butt;stroke-linejoin:miter;stroke-opacity:1" d="M 943.839,218.333 943.839,227.816 z" id="boundary" inkscape:connector-curvature="0" />
	<path style="fill:none;stroke:red;stroke-width:1px;stroke-linecap:butt;stroke-linejoin:miter;stroke-opacity:1" d="M 943.839,227.816 948.581,236.352 z" id="boundary" inkscape:connector-curvature="0" />
	<path style="fill:none;stroke:red;stroke-width:1px;stroke-linecap:butt;stroke-linejoin:miter;stroke-opacity:1" d="M 948.581,236.352 958.065,239.197 z" id="boundary" inkscape:connector-curvature="0" />
	<path style="fill:none;stroke:red;stroke-width:1px;stroke-linecap:butt;stroke-linejoin:miter;stroke-opacity:1" d="M 958.065,239.197 976.084,245.836 z" id="boundary" inkscape:connector-curvature="0" />
	<path style="fill:none;stroke:red;stroke-width:1px;stroke-linecap:butt;stroke-linejoin:miter;stroke-opacity:1" d="M 962.807,439.304 975.136,423.182 z" id="boundary" inkscape:connector-curvature="0" />
	<path style="fill:none;stroke:red;stroke-width:1px;stroke-linecap:butt;stroke-linejoin:miter;stroke-opacity:1" d="M 975.136,423.182 979.878,413.698 z" id="boundary" inkscape:connector-curvature="0" />
	<path style="fill:none;stroke:red;stroke-width:1px;stroke-linecap:butt;stroke-linejoin:miter;stroke-opacity:1" d="M 976.084,245.836 984.62,250.577 z" id="boundary" inkscape:connector-curvature="0" />
	<path style="fill:none;stroke:red;stroke-width:1px;stroke-linecap:butt;stroke-linejoin:miter;stroke-opacity:1" d="M 979.878,413.698 984.62,404.214 z" id="boundary" inkscape:connector-curvature="0" />
	<path style="fill:none;stroke:red;stroke-width:1px;stroke-linecap:butt;stroke-linejoin:miter;stroke-opacity:1" d="M 984.62,250.577 996,266.7 z" id="boundary" inkscape:connector-curvature="0" />
	<path style="fill:none;stroke:red;stroke-width:1px;stroke-linecap:butt;stroke-linejoin:miter;stroke-opacity:1" d="M 984.62,404.214 989.361,394.73 z" id="boundary" inkscape:connector-curvature="0" />
	<path style="fill:none;stroke:red;stroke-width:1px;stroke-linecap:butt;stroke-linejoin:miter;stroke-opacity:1" d="M 989.361,394.73 991.258,377.66 z" id="boundary" inkscape:connector-curvature="0" />
	<path style="fill:none;stroke:red;stroke-width:1px;stroke-linecap:butt;stroke-linejoin:miter;stroke-opacity:1" d="M 991.258,377.66 996,361.537 z" id="boundary" inkscape:connector-curvature="0" />
	<path style="fill:none;stroke:red;stroke-width:1px;stroke-linecap:butt;stroke-linejoin:miter;stroke-opacity:1" d="M 996,266.7 996,276.184 z" id="boundary" inkscape:connector-curvature="0" />
	<path style="fill:none;stroke:red;stroke-width:1px;stroke-linecap:butt;stroke-linejoin:miter;stroke-opacity:1" d="M 996,276.184 996,285.667 z" id="boundary" inkscape:connector-curvature="0" />
	<path style="fill:none;stroke:red;stroke-width:1px;stroke-linecap:butt;stroke-linejoin:miter;stroke-opacity:1" d="M 996,285.667 996,295.151 z" id="boundary" inkscape:connector-curvature="0" />
	<path style="fill:none;stroke:red;stroke-width:1px;stroke-linecap:butt;stroke-linejoin:miter;stroke-opacity:1" d="M 996,295.151 996,304.635 z" id="boundary" inkscape:connector-curvature="0" />
	<path style="fill:none;stroke:red;stroke-width:1px;stroke-linecap:butt;stroke-linejoin:miter;stroke-opacity:1" d="M 996,304.635 996,314.119 z" id="boundary" inkscape:connector-curvature="0" />
	<path style="fill:none;stroke:red;stroke-width:1px;stroke-linecap:butt;stroke-linejoin:miter;stroke-opacity:1" d="M 996,314.119 996,323.602 z" id="boundary" inkscape:connector-curvature="0" />
	<path style="fill:none;stroke:red;stroke-width:1px;stroke-linecap:butt;stroke-linejoin:miter;stroke-opacity:1" d="M 996,323.602 996,333.086 z" id="boundary" inkscape:connector-curvature="0" />
	<path style="fill:none;stroke:red;stroke-width:1px;stroke-linecap:butt;stroke-linejoin:miter;stroke-opacity:1" d="M 996,333.086 996,342.57 z" id="boundary" inkscape:connector-curvature="0" />
	<path style="fill:none;stroke:red;stroke-width:1px;stroke-linecap:butt;stroke-linejoin:miter;stroke-opacity:1" d="M 996,342.57 996,352.054 z" id="boundary" inkscape:connector-curvature="0" />
	<path style="fill:none;stroke:red;stroke-width:1px;stroke-linecap:butt;stroke-linejoin:miter;stroke-opacity:1" d="M 996,352.054 996,361.537 z" id="boundary" inkscape:connector-curvature="0" />
	<circle cx="4" cy="118.753" r="4" fill="#0" id="circle0"/>
	<circle cx="4" cy="128.237" r="4" fill="#0" id="circle1"/>
	<circle cx="8.74187" cy="109.27" r="4" fill="#0" id="circle2"/>
	<circle cx="8.74187" cy="136.772" r="4" fill="#0" id="circle3"/>
	<circle cx="13.4837" cy="145.308" r="4" fill="#0" id="circle4"/>
	<circle cx="16.3289" cy="101.683" r="4" fill="#0" id="circle5"/>
	<circle cx="22.0191" cy="150.05" r="4" fill="#0" id="circle6"/>
	<circle cx="24.8642" cy="96.9407" r="4" fill="#0" id="circle7"/>
	<circle cx="31.5029" cy="148.153" r="4" fill="#0" id="circle8"/>
	<circle cx="32.4512" cy="90.3021" r="4" fill="#0" id="circle9"/>
	<circle cx="40.0382" cy="82.7151" r="4" fill="#0" id="circle10"/>
	<circle cx="40.9866" cy="143.411" r="4" fill="#0" id="circle11"/>
	<circle cx="45.7285" cy="133.927" r="4" fill="#0" id="circle12"/>
	<circle cx="47.6252" cy="75.1281" r="4" fill="#0" id="circle13"/>
	<circle cx="55.2122" cy="68.4895" r="4" fill="#0" id="circle14"/>
	<circle cx="55.2122" cy="131.082" r="4" fill="#0" id="circle15"/>
	<circle cx="60.9025" cy="57.109" r="4" fill="#0" id="circle16"/>
	<circle cx="64.696" cy="131.082" r="4" fill="#0" id="circle17"/>
	<circle cx="70.3862" cy="54.2639" r="4" fill="#0" id="circle18"/>
	<circle cx="74.1797" cy="131.082" r="4" fill="#0" id="circle19"/>
	<circle cx="79.87" cy="54.2639" r="4" fill="#0" id="circle20"/>
	<circle cx="83.6635" cy="131.082" r="4" fill="#0" id="circle21"/>
	<circle cx="89.3537" cy="56.1606" r="4" fill="#0" id="circle22"/>
	<circle cx="93.1472" cy="131.082" r="4" fill="#0" id="circle23"/>
	<circle cx="97.8891" cy="60.9025" r="4" fill="#0" id="circle24"/>
	<circle cx="102.631" cy="131.082" r="4" fill="#0" id="circle25"/>
	<circle cx="103.579" cy="351.105" r="4" fill="#0" id="circle26"/>
	<circle cx="103.579" cy="360.589" r="4" fill="#0" id="circle27"/>
	<circle cx="103.579" cy="370.073" r="4" fill="#0" id="circle28"/>
	<circle cx="107.373" cy="64.696" r="4" fill="#0" id="circle29"/>
	<circle cx="108.321" cy="341.621" r="4" fill="#0" id="circle30"/>
	<circle cx="111.166" cy="135.824" r="4" fill="#0" id="circle31"/>
	<circle cx="113.063" cy="145.308" r="4" fill="#0" id="circle32"/>
	<circle cx="113.063" cy="372.918" r="4" fill="#0" id="circle33"/>
	<circle cx="115.908" cy="69.4379" r="4" fill="#0" id="circle34"/>
	<circle cx="115.908" cy="334.034" r="4" fill="#0" id="circle35"/>
	<circle cx="117.805" cy="153.843" r="4" fill="#0" id="circle36"/>
	<circle cx="117.805" cy="163.327" r="4" fill="#0" id="circle37"/>
	<circle cx="117.805" cy="172.811" r="4" fill="#0" id="circle38"/>
	<circle cx="117.805" cy="182.294" r="4" fill="#0" id="circle39"/>
	<circle cx="117.805" cy="191.778" r="4" fill="#0" id="circle40"/>
	<circle cx="117.805" cy="201.262" r="4" fill="#0" id="circle41"/>
	<circle cx="117.805" cy="210.746" r="4" fill="#0" id="circle42"/>
	<circle cx="117.805" cy="220.229" r="4" fill="#0" id="circle43"/>
	<circle cx="117.805" cy="229.713" r="4" fill="#0" id="circle44"/>
	<circle cx="117.805" cy="239.197" r="4" fill="#0" id="circle45"/>
	<circle cx="117.805" cy="248.681" r="4" fill="#0" id="circle46"/>
	<circle cx="117.805" cy="258.164" r="4" fill="#0" id="circle47"/>
	<circle cx="117.805" cy="267.648" r="4" fill="#0" id="circle48"/>
	<circle cx="117.805" cy="277.132" r="4" fill="#0" id="circle49"/>
	<circle cx="117.805" cy="286.616" r="4" fill="#0" id="circle50"/>
	<circle cx="117.805" cy="296.099" r="4" fill="#0" id="circle51"/>
	<circle cx="117.805" cy="305.583" r="4" fill="#0" id="circle52"/>
	<circle cx="117.805" cy="315.067" r="4" fill="#0" id="circle53"/>
	<circle cx="117.805" cy="324.551" r="4" fill="#0" id="circle54"/>
	<circle cx="122.547" cy="374.815" r="4" fill="#0" id="circle55"/>
	<circle cx="125.392" cy="73.2314" r="4" fill="#0" id="circle56"/>
	<circle cx="130.134" cy="367.228" r="4" fill="#0" id="circle57"/>
	<circle cx="132.979" cy="353.95" r="4" fill="#0" id="circle58"/>
	<circle cx="133.927" cy="77.9732" r="4" fill="#0" id="circle59"/>
	<circle cx="137.721" cy="339.725" r="4" fill="#0" id="circle60"/>
	<circle cx="141.514" cy="84.6119" r="4" fill="#0" id="circle61"/>
	<circle cx="142.463" cy="316.015" r="4" fill="#0" id="circle62"/>
	<circle cx="142.463" cy="325.499" r="4" fill="#0" id="circle63"/>
	<circle cx="147.205" cy="282.822" r="4" fill="#0" id="circle64"/>
	<circle cx="147.205" cy="292.306" r="4" fill="#0" id="circle65"/>
	<circle cx="147.205" cy="301.79" r="4" fill="#0" id="circle66"/>
	<circle cx="150.05" cy="89.3537" r="4" fill="#0" id="circle67"/>
	<circle cx="151.946" cy="263.855" r="4" fill="#0" id="circle68"/>
	<circle cx="151.946" cy="273.338" r="4" fill="#0" id="circle69"/>
	<circle cx="156.688" cy="96.9407" r="4" fill="#0" id="circle70"/>
	<circle cx="156.688" cy="254.371" r="4" fill="#0" id="circle71"/>
	<circle cx="161.43" cy="244.887" r="4" fill="#0" id="circle72"/>
	<circle cx="166.172" cy="99.7859" r="4" fill="#0" id="circle73"/>
	<circle cx="170.914" cy="244.887" r="4" fill="#0" id="circle74"/>
	<circle cx="173.759" cy="106.424" r="4" fill="#0" id="circle75"/>
	<circle cx="180.398" cy="244.887" r="4" fill="#0" id="circle76"/>
	<circle cx="182.294" cy="111.166" r="4" fill="#0" id="circle77"/>
	<circle cx="189.881" cy="244.887" r="4" fill="#0" id="circle78"/>
	<circle cx="190.83" cy="115.908" r="4" fill="#0" id="circle79"/>
	<circle cx="199.365" cy="244.887" r="4" fill="#0" id="circle80"/>
	<circle cx="200.314" cy="115.908" r="4" fill="#0" id="circle81"/>
	<circle cx="208.849" cy="244.887" r="4" fill="#0" id="circle82"/>
	<circle cx="209.797" cy="115.908" r="4" fill="#0" id="circle83"/>
	<circle cx="218.333" cy="120.65" r="4" fill="#0" id="circle84"/>
	<circle cx="218.333" cy="244.887" r="4" fill="#0" id="circle85"/>
	<circle cx="227.816" cy="120.65" r="4" fill="#0" id="circle86"/>
	<circle cx="227.816" cy="244.887" r="4" fill="#0" id="circle87"/>
	<circle cx="236.352" cy="125.392" r="4" fill="#0" id="circle88"/>
	<circle cx="237.3" cy="244.887" r="4" fill="#0" id="circle89"/>
	<circle cx="245.836" cy="125.392" r="4" fill="#0" id="circle90"/>
	<circle cx="246.784" cy="244.887" r="4" fill="#0" id="circle91"/>
	<circle cx="255.319" cy="125.392" r="4" fill="#0" id="circle92"/>
	<circle cx="256.268" cy="244.887" r="4" fill="#0" id="circle93"/>
	<circle cx="264.803" cy="125.392" r="4" fill="#0" id="circle94"/>
	<circle cx="265.751" cy="244.887" r="4" fill="#0" id="circle95"/>
	<circle cx="273.338" cy="130.134" r="4" fill="#0" id="circle96"/>
	<circle cx="275.235" cy="244.887" r="4" fill="#0" id="circle97"/>
	<circle cx="282.822" cy="130.134" r="4" fill="#0" id="circle98"/>
	<circle cx="284.719" cy="244.887" r="4" fill="#0" id="circle99"/>
	<circle cx="291.358" cy="134.876" r="4" fill="#0" id="circle100"/>
	<circle cx="294.203" cy="244.887" r="4" fill="#0" id="circle101"/>
	<circle cx="300.841" cy="134.876" r="4" fill="#0" id="circle102"/>
	<circle cx="302.738" cy="249.629" r="4" fill="#0" id="circle103"/>
	<circle cx="307.48" cy="258.164" r="4" fill="#0" id="circle104"/>
	<circle cx="307.48" cy="267.648" r="4" fill="#0" id="circle105"/>
	<circle cx="307.48" cy="277.132" r="4" fill="#0" id="circle106"/>
	<circle cx="307.48" cy="286.616" r="4" fill="#0" id="circle107"/>
	<circle cx="307.48" cy="296.099" r="4" fill="#0" id="circle108"/>
	<circle cx="307.48" cy="305.583" r="4" fill="#0" id="circle109"/>
	<circle cx="307.48" cy="315.067" r="4" fill="#0" id="circle110"/>
	<circle cx="307.48" cy="324.551" r="4" fill="#0" id="circle111"/>
	<circle cx="307.48" cy="334.034" r="4" fill="#0" id="circle112"/>
	<circle cx="307.48" cy="343.518" r="4" fill="#0" id="circle113"/>
	<circle cx="309.377" cy="353.002" r="4" fill="#0" id="circle114"/>
	<circle cx="310.325" cy="134.876" r="4" fill="#0" id="circle115"/>
	<circle cx="314.119" cy="361.537" r="4" fill="#0" id="circle116"/>
	<circle cx="319.809" cy="134.876" r="4" fill="#0" id="circle117"/>
	<circle cx="322.654" cy="366.279" r="4" fill="#0" id="circle118"/>
	<circle cx="329.293" cy="134.876" r="4" fill="#0" id="circle119"/>
	<circle cx="332.138" cy="368.176" r="4" fill="#0" id="circle120"/>
	<circle cx="338.776" cy="134.876" r="4" fill="#0" id="circle121"/>
	<circle cx="340.673" cy="363.434" r="4" fill="#0" id="circle122"/>
	<circle cx="346.363" cy="353.95" r="4" fill="#0" id="circle123"/>
	<circle cx="348.26" cy="134.876" r="4" fill="#0" id="circle124"/>
	<circle cx="351.105" cy="339.725" r="4" fill="#0" id="circle125"/>
	<circle cx="355.847" cy="278.08" r="4" fill="#0" id="circle126"/>
	<circle cx="355.847" cy="287.564" r="4" fill="#0" id="circle127"/>
	<circle cx="355.847" cy="297.048" r="4" fill="#0" id="circle128"/>
	<circle cx="355.847" cy="306.532" r="4" fill="#0" id="circle129"/>
	<circle cx="355.847" cy="316.015" r="4" fill="#0" id="circle130"/>
	<circle cx="355.847" cy="325.499" r="4" fill="#0" id="circle131"/>
	<circle cx="357.744" cy="134.876" r="4" fill="#0" id="circle132"/>
	<circle cx="365.331" cy="278.08" r="4" fill="#0" id="circle133"/>
	<circle cx="366.279" cy="139.618" r="4" fill="#0" id="circle134"/>
	<circle cx="373.866" cy="146.256" r="4" fill="#0" id="circle135"/>
	<circle cx="374.815" cy="278.08" r="4" fill="#0" id="circle136"/>
	<circle cx="377.66" cy="155.74" r="4" fill="#0" id="circle137"/>
	<circle cx="379.556" cy="165.224" r="4" fill="#0" id="circle138"/>
	<circle cx="384.298" cy="173.759" r="4" fill="#0" id="circle139"/>
	<circle cx="384.298" cy="183.243" r="4" fill="#0" id="circle140"/>
	<circle cx="384.298" cy="192.727" r="4" fill="#0" id="circle141"/>
	<circle cx="384.298" cy="202.21" r="4" fill="#0" id="circle142"/>
	<circle cx="384.298" cy="211.694" r="4" fill="#0" id="circle143"/>
	<circle cx="384.298" cy="278.08" r="4" fill="#0" id="circle144"/>
	<circle cx="389.04" cy="220.229" r="4" fill="#0" id="circle145"/>
	<circle cx="393.782" cy="278.08" r="4" fill="#0" id="circle146"/>
	<circle cx="398.524" cy="220.229" r="4" fill="#0" id="circle147"/>
	<circle cx="403.266" cy="278.08" r="4" fill="#0" id="circle148"/>
	<circle cx="408.008" cy="220.229" r="4" fill="#0" id="circle149"/>
	<circle cx="411.801" cy="282.822" r="4" fill="#0" id="circle150"/>
	<circle cx="417.491" cy="220.229" r="4" fill="#0" id="circle151"/>
	<circle cx="421.285" cy="282.822" r="4" fill="#0" id="circle152"/>
	<circle cx="426.975" cy="220.229" r="4" fill="#0" id="circle153"/>
	<circle cx="429.82" cy="287.564" r="4" fill="#0" id="circle154"/>
	<circle cx="435.511" cy="215.488" r="4" fill="#0" id="circle155"/>
	<circle cx="435.511" cy="295.151" r="4" fill="#0" id="circle156"/>
	<circle cx="435.511" cy="304.635" r="4" fill="#0" id="circle157"/>
	<circle cx="436.459" cy="314.119" r="4" fill="#0" id="circle158"/>
	<circle cx="440.252" cy="323.602" r="4" fill="#0" id="circle159"/>
	<circle cx="440.252" cy="333.086" r="4" fill="#0" id="circle160"/>
	<circle cx="440.252" cy="342.57" r="4" fill="#0" id="circle161"/>
	<circle cx="440.252" cy="352.054" r="4" fill="#0" id="circle162"/>
	<circle cx="444.994" cy="215.488" r="4" fill="#0" id="circle163"/>
	<circle cx="444.994" cy="360.589" r="4" fill="#0" id="circle164"/>
	<circle cx="449.736" cy="369.124" r="4" fill="#0" id="circle165"/>
	<circle cx="454.478" cy="215.488" r="4" fill="#0" id="circle166"/>
	<circle cx="454.478" cy="377.66" r="4" fill="#0" id="circle167"/>
	<circle cx="460.168" cy="385.247" r="4" fill="#0" id="circle168"/>
	<circle cx="463.962" cy="215.488" r="4" fill="#0" id="circle169"/>
	<circle cx="469.652" cy="389.04" r="4" fill="#0" id="circle170"/>
	<circle cx="473.446" cy="215.488" r="4" fill="#0" id="circle171"/>
	<circle cx="478.187" cy="393.782" r="4" fill="#0" id="circle172"/>
	<circle cx="482.929" cy="215.488" r="4" fill="#0" id="circle173"/>
	<circle cx="487.671" cy="396.627" r="4" fill="#0" id="circle174"/>
	<circle cx="492.413" cy="213.591" r="4" fill="#0" id="circle175"/>
	<circle cx="497.155" cy="396.627" r="4" fill="#0" id="circle176"/>
	<circle cx="501.897" cy="204.107" r="4" fill="#0" id="circle177"/>
	<circle cx="505.69" cy="401.369" r="4" fill="#0" id="circle178"/>
	<circle cx="506.639" cy="137.721" r="4" fill="#0" id="circle179"/>
	<circle cx="506.639" cy="147.205" r="4" fill="#0" id="circle180"/>
	<circle cx="506.639" cy="156.688" r="4" fill="#0" id="circle181"/>
	<circle cx="506.639" cy="166.172" r="4" fill="#0" id="circle182"/>
	<circle cx="506.639" cy="175.656" r="4" fill="#0" id="circle183"/>
	<circle cx="506.639" cy="185.14" r="4" fill="#0" id="circle184"/>
	<circle cx="506.639" cy="194.623" r="4" fill="#0" id="circle185"/>
	<circle cx="511.38" cy="128.237" r="4" fill="#0" id="circle186"/>
	<circle cx="515.174" cy="401.369" r="4" fill="#0" id="circle187"/>
	<circle cx="518.967" cy="120.65" r="4" fill="#0" id="circle188"/>
	<circle cx="523.709" cy="111.166" r="4" fill="#0" id="circle189"/>
	<circle cx="524.658" cy="401.369" r="4" fill="#0" id="circle190"/>
	<circle cx="533.193" cy="106.424" r="4" fill="#0" id="circle191"/>
	<circle cx="534.141" cy="401.369" r="4" fill="#0" id="circle192"/>
	<circle cx="542.677" cy="106.424" r="4" fill="#0" id="circle193"/>
	<circle cx="542.677" cy="396.627" r="4" fill="#0" id="circle194"/>
	<circle cx="549.315" cy="38.1415" r="4" fill="#0" id="circle195"/>
	<circle cx="549.315" cy="47.6252" r="4" fill="#0" id="circle196"/>
	<circle cx="549.315" cy="57.109" r="4" fill="#0" id="circle197"/>
	<circle cx="549.315" cy="66.5927" r="4" fill="#0" id="circle198"/>
	<circle cx="549.315" cy="76.0765" r="4" fill="#0" id="circle199"/>
	<circle cx="549.315" cy="85.5602" r="4" fill="#0" id="circle200"/>
	<circle cx="549.315" cy="95.044" r="4" fill="#0" id="circle201"/>
	<circle cx="551.212" cy="391.885" r="4" fill="#0" id="circle202"/>
	<circle cx="554.057" cy="19.174" r="4" fill="#0" id="circle203"/>
	<circle cx="554.057" cy="28.6577" r="4" fill="#0" id="circle204"/>
	<circle cx="558.799" cy="9.69025" r="4" fill="#0" id="circle205"/>
	<circle cx="559.748" cy="387.143" r="4" fill="#0" id="circle206"/>
	<circle cx="568.283" cy="4.94837" r="4" fill="#0" id="circle207"/>
	<circle cx="568.283" cy="382.402" r="4" fill="#0" id="circle208"/>
	<circle cx="573.973" cy="230.662" r="4" fill="#0" id="circle209"/>
	<circle cx="573.973" cy="240.145" r="4" fill="#0" id="circle210"/>
	<circle cx="573.973" cy="372.918" r="4" fill="#0" id="circle211"/>
	<circle cx="577.767" cy="4" r="4" fill="#0" id="circle212"/>
	<circle cx="578.715" cy="248.681" r="4" fill="#0" id="circle213"/>
	<circle cx="581.56" cy="366.279" r="4" fill="#0" id="circle214"/>
	<circle cx="582.509" cy="225.92" r="4" fill="#0" id="circle215"/>
	<circle cx="583.457" cy="257.216" r="4" fill="#0" id="circle216"/>
	<circle cx="586.302" cy="8.74187" r="4" fill="#0" id="circle217"/>
	<circle cx="586.302" cy="356.795" r="4" fill="#0" id="circle218"/>
	<circle cx="591.044" cy="17.2772" r="4" fill="#0" id="circle219"/>
	<circle cx="591.044" cy="263.855" r="4" fill="#0" id="circle220"/>
	<circle cx="591.044" cy="347.312" r="4" fill="#0" id="circle221"/>
	<circle cx="591.992" cy="225.92" r="4" fill="#0" id="circle222"/>
	<circle cx="594.837" cy="26.761" r="4" fill="#0" id="circle223"/>
	<circle cx="594.837" cy="273.338" r="4" fill="#0" id="circle224"/>
	<circle cx="595.786" cy="337.828" r="4" fill="#0" id="circle225"/>
	<circle cx="597.683" cy="36.2447" r="4" fill="#0" id="circle226"/>
	<circle cx="597.683" cy="282.822" r="4" fill="#0" id="circle227"/>
	<circle cx="597.683" cy="292.306" r="4" fill="#0" id="circle228"/>
	<circle cx="597.683" cy="301.79" r="4" fill="#0" id="circle229"/>
	<circle cx="597.683" cy="311.273" r="4" fill="#0" id="circle230"/>
	<circle cx="597.683" cy="320.757" r="4" fill="#0" id="circle231"/>
	<circle cx="601.476" cy="225.92" r="4" fill="#0" id="circle232"/>
	<circle cx="602.424" cy="44.7801" r="4" fill="#0" id="circle233"/>
	<circle cx="602.424" cy="54.2639" r="4" fill="#0" id="circle234"/>
	<circle cx="607.166" cy="62.7992" r="4" fill="#0" id="circle235"/>
	<circle cx="610.96" cy="225.92" r="4" fill="#0" id="circle236"/>
	<circle cx="611.908" cy="71.3346" r="4" fill="#0" id="circle237"/>
	<circle cx="615.702" cy="80.8184" r="4" fill="#0" id="circle238"/>
	<circle cx="619.495" cy="230.662" r="4" fill="#0" id="circle239"/>
	<circle cx="620.444" cy="89.3537" r="4" fill="#0" id="circle240"/>
	<circle cx="624.237" cy="98.8375" r="4" fill="#0" id="circle241"/>
	<circle cx="625.185" cy="238.249" r="4" fill="#0" id="circle242"/>
	<circle cx="626.134" cy="108.321" r="4" fill="#0" id="circle243"/>
	<circle cx="626.134" cy="117.805" r="4" fill="#0" id="circle244"/>
	<circle cx="626.134" cy="127.289" r="4" fill="#0" id="circle245"/>
	<circle cx="626.134" cy="136.772" r="4" fill="#0" id="circle246"/>
	<circle cx="626.134" cy="146.256" r="4" fill="#0" id="circle247"/>
	<circle cx="628.979" cy="155.74" r="4" fill="#0" id="circle248"/>
	<circle cx="629.927" cy="246.784" r="4" fill="#0" id="circle249"/>
	<circle cx="630.876" cy="165.224" r="4" fill="#0" id="circle250"/>
	<circle cx="633.721" cy="174.707" r="4" fill="#0" id="circle251"/>
	<circle cx="634.669" cy="255.319" r="4" fill="#0" id="circle252"/>
	<circle cx="638.463" cy="183.243" r="4" fill="#0" id="circle253"/>
	<circle cx="639.411" cy="263.855" r="4" fill="#0" id="circle254"/>
	<circle cx="642.256" cy="192.727" r="4" fill="#0" id="circle255"/>
	<circle cx="644.153" cy="272.39" r="4" fill="#0" id="circle256"/>
	<circle cx="648.895" cy="280.925" r="4" fill="#0" id="circle257"/>
	<circle cx="648.895" cy="290.409" r="4" fill="#0" id="circle258"/>
	<circle cx="649.843" cy="199.365" r="4" fill="#0" id="circle259"/>
	<circle cx="649.843" cy="299.893" r="4" fill="#0" id="circle260"/>
	<circle cx="653.637" cy="208.849" r="4" fill="#0" id="circle261"/>
	<circle cx="657.43" cy="306.532" r="4" fill="#0" id="circle262"/>
	<circle cx="661.224" cy="215.488" r="4" fill="#0" id="circle263"/>
	<circle cx="665.966" cy="311.273" r="4" fill="#0" id="circle264"/>
	<circle cx="667.862" cy="223.075" r="4" fill="#0" id="circle265"/>
	<circle cx="675.449" cy="315.067" r="4" fill="#0" id="circle266"/>
	<circle cx="677.346" cy="224.971" r="4" fill="#0" id="circle267"/>
	<circle cx="683.985" cy="319.809" r="4" fill="#0" id="circle268"/>
	<circle cx="686.83" cy="224.971" r="4" fill="#0" id="circle269"/>
	<circle cx="693.468" cy="323.602" r="4" fill="#0" id="circle270"/>
	<circle cx="696.314" cy="224.971" r="4" fill="#0" id="circle271"/>
	<circle cx="702.952" cy="325.499" r="4" fill="#0" id="circle272"/>
	<circle cx="704.849" cy="220.229" r="4" fill="#0" id="circle273"/>
	<circle cx="712.436" cy="325.499" r="4" fill="#0" id="circle274"/>
	<circle cx="714.333" cy="220.229" r="4" fill="#0" id="circle275"/>
	<circle cx="721.92" cy="325.499" r="4" fill="#0" id="circle276"/>
	<circle cx="722.868" cy="215.488" r="4" fill="#0" id="circle277"/>
	<circle cx="731.403" cy="210.746" r="4" fill="#0" id="circle278"/>
	<circle cx="731.403" cy="325.499" r="4" fill="#0" id="circle279"/>
	<circle cx="734.249" cy="175.656" r="4" fill="#0" id="circle280"/>
	<circle cx="734.249" cy="185.14" r="4" fill="#0" id="circle281"/>
	<circle cx="734.249" cy="194.623" r="4" fill="#0" id="circle282"/>
	<circle cx="738.99" cy="161.43" r="4" fill="#0" id="circle283"/>
	<circle cx="740.887" cy="325.499" r="4" fill="#0" id="circle284"/>
	<circle cx="743.732" cy="151.946" r="4" fill="#0" id="circle285"/>
	<circle cx="750.371" cy="325.499" r="4" fill="#0" id="circle286"/>
	<circle cx="753.216" cy="147.205" r="4" fill="#0" id="circle287"/>
	<circle cx="759.855" cy="325.499" r="4" fill="#0" id="circle288"/>
	<circle cx="762.7" cy="144.359" r="4" fill="#0" id="circle289"/>
	<circle cx="767.442" cy="331.189" r="4" fill="#0" id="circle290"/>
	<circle cx="772.184" cy="99.7859" r="4" fill="#0" id="circle291"/>
	<circle cx="772.184" cy="109.27" r="4" fill="#0" id="circle292"/>
	<circle cx="772.184" cy="118.753" r="4" fill="#0" id="circle293"/>
	<circle cx="772.184" cy="128.237" r="4" fill="#0" id="circle294"/>
	<circle cx="772.184" cy="137.721" r="4" fill="#0" id="circle295"/>
	<circle cx="772.184" cy="339.725" r="4" fill="#0" id="circle296"/>
	<circle cx="776.925" cy="90.3021" r="4" fill="#0" id="circle297"/>
	<circle cx="777.874" cy="347.312" r="4" fill="#0" id="circle298"/>
	<circle cx="781.667" cy="80.8184" r="4" fill="#0" id="circle299"/>
	<circle cx="782.616" cy="355.847" r="4" fill="#0" id="circle300"/>
	<circle cx="786.409" cy="365.331" r="4" fill="#0" id="circle301"/>
	<circle cx="789.254" cy="73.2314" r="4" fill="#0" id="circle302"/>
	<circle cx="793.996" cy="371.969" r="4" fill="#0" id="circle303"/>
	<circle cx="798.738" cy="68.4895" r="4" fill="#0" id="circle304"/>
	<circle cx="800.635" cy="379.556" r="4" fill="#0" id="circle305"/>
	<circle cx="807.273" cy="73.2314" r="4" fill="#0" id="circle306"/>
	<circle cx="808.222" cy="386.195" r="4" fill="#0" id="circle307"/>
	<circle cx="815.809" cy="77.9732" r="4" fill="#0" id="circle308"/>
	<circle cx="815.809" cy="391.885" r="4" fill="#0" id="circle309"/>
	<circle cx="824.344" cy="396.627" r="4" fill="#0" id="circle310"/>
	<circle cx="825.293" cy="80.8184" r="4" fill="#0" id="circle311"/>
	<circle cx="829.086" cy="90.3021" r="4" fill="#0" id="circle312"/>
	<circle cx="830.034" cy="99.7859" r="4" fill="#0" id="circle313"/>
	<circle cx="830.034" cy="404.214" r="4" fill="#0" id="circle314"/>
	<circle cx="837.621" cy="410.853" r="4" fill="#0" id="circle315"/>
	<circle cx="838.57" cy="104.528" r="4" fill="#0" id="circle316"/>
	<circle cx="846.157" cy="111.166" r="4" fill="#0" id="circle317"/>
	<circle cx="846.157" cy="415.595" r="4" fill="#0" id="circle318"/>
	<circle cx="854.692" cy="115.908" r="4" fill="#0" id="circle319"/>
	<circle cx="854.692" cy="420.337" r="4" fill="#0" id="circle320"/>
	<circle cx="863.228" cy="120.65" r="4" fill="#0" id="circle321"/>
	<circle cx="863.228" cy="425.078" r="4" fill="#0" id="circle322"/>
	<circle cx="871.763" cy="429.82" r="4" fill="#0" id="circle323"/>
	<circle cx="872.711" cy="120.65" r="4" fill="#0" id="circle324"/>
	<circle cx="880.298" cy="434.562" r="4" fill="#0" id="circle325"/>
	<circle cx="882.195" cy="120.65" r="4" fill="#0" id="circle326"/>
	<circle cx="889.782" cy="434.562" r="4" fill="#0" id="circle327"/>
	<circle cx="890.73" cy="125.392" r="4" fill="#0" id="circle328"/>
	<circle cx="898.317" cy="439.304" r="4" fill="#0" id="circle329"/>
	<circle cx="900.214" cy="127.289" r="4" fill="#0" id="circle330"/>
	<circle cx="907.801" cy="443.098" r="4" fill="#0" id="circle331"/>
	<circle cx="908.75" cy="132.031" r="4" fill="#0" id="circle332"/>
	<circle cx="916.337" cy="447.839" r="4" fill="#0" id="circle333"/>
	<circle cx="918.233" cy="135.824" r="4" fill="#0" id="circle334"/>
	<circle cx="925.82" cy="448.788" r="4" fill="#0" id="circle335"/>
	<circle cx="927.717" cy="139.618" r="4" fill="#0" id="circle336"/>
	<circle cx="935.304" cy="448.788" r="4" fill="#0" id="circle337"/>
	<circle cx="936.252" cy="144.359" r="4" fill="#0" id="circle338"/>
	<circle cx="942.891" cy="151.946" r="4" fill="#0" id="circle339"/>
	<circle cx="943.839" cy="161.43" r="4" fill="#0" id="circle340"/>
	<circle cx="943.839" cy="170.914" r="4" fill="#0" id="circle341"/>
	<circle cx="943.839" cy="180.398" r="4" fill="#0" id="circle342"/>
	<circle cx="943.839" cy="189.881" r="4" fill="#0" id="circle343"/>
	<circle cx="943.839" cy="199.365" r="4" fill="#0" id="circle344"/>
	<circle cx="943.839" cy="208.849" r="4" fill="#0" id="circle345"/>
	<circle cx="943.839" cy="218.333" r="4" fill="#0" id="circle346"/>
	<circle cx="943.839" cy="227.816" r="4" fill="#0" id="circle347"/>
	<circle cx="944.788" cy="448.788" r="4" fill="#0" id="circle348"/>
	<circle cx="948.581" cy="236.352" r="4" fill="#0" id="circle349"/>
	<circle cx="953.323" cy="444.046" r="4" fill="#0" id="circle350"/>
	<circle cx="958.065" cy="239.197" r="4" fill="#0" id="circle351"/>
	<circle cx="962.807" cy="439.304" r="4" fill="#0" id="circle352"/>
	<circle cx="966.6" cy="243.939" r="4" fill="#0" id="circle353"/>
	<circle cx="970.394" cy="432.665" r="4" fill="#0" id="circle354"/>
	<circle cx="975.136" cy="423.182" r="4" fill="#0" id="circle355"/>
	<circle cx="976.084" cy="245.836" r="4" fill="#0" id="circle356"/>
	<circle cx="979.878" cy="413.698" r="4" fill="#0" id="circle357"/>
	<circle cx="984.62" cy="250.577" r="4" fill="#0" id="circle358"/>
	<circle cx="984.62" cy="404.214" r="4" fill="#0" id="circle359"/>
	<circle cx="989.361" cy="394.73" r="4" fill="#0" id="circle360"/>
	<circle cx="991.258" cy="258.164" r="4" fill="#0" id="circle361"/>
	<circle cx="991.258" cy="377.66" r="4" fill="#0" id="circle362"/>
	<circle cx="996" cy="266.7" r="4" fill="#0" id="circle363"/>
	<circle cx="996" cy="276.184" r="4" fill="#0" id="circle364"/>
	<circle cx="996" cy="285.667" r="4" fill="#0" id="circle365"/>
	<circle cx="996" cy="295.151" r="4" fill="#0" id="circle366"/>
	<circle cx="996" cy="304.635" r="4" fill="#0" id="circle367"/>
	<circle cx="996" cy="314.119" r="4" fill="#0" id="circle368"/>
	<circle cx="996" cy="323.602" r="4" fill="#0" id="circle369"/>
	<circle cx="996" cy="333.086" r="4" fill="#0" id="circle370"/>
	<circle cx="996" cy="342.57" r="4" fill="#0" id="circle371"/>
	<circle cx="996" cy="352.054" r="4" fill="#0" id="circle372"/>
	<circle cx="996" cy="361.537" r="4" fill="#0" id="circle373"/>
	</g>
</svg>