<?xml version="1.0" encoding="UTF-8" standalone="no"?>
<!-- Created with CurveBenchmark -->
<svg
	xmlns:dc="http://purl.org/dc/elements/1.1/"
	xmlns:cc="http://creativecommons.org/ns#"
	xmlns:rdf="http://www.w3.org/1999/02/22-rdf-syntax-ns#"
	xmlns:svg="http://www.w3.org/2000/svg"
	xmlns="http://www.w3.org/2000/svg"
	xmlns:sodipodi="http://sodipodi.sourceforge.net/DTD/sodipodi-0.dtd"
	xmlns:inkscape="http://www.inkscape.org/namespaces/inkscape"
	width="1000"
	height="1000"
	id="svg2"
	version="1.1"
	sodipodi:docname="manifold/discur-children-12.png.txt">
<defs
	id="defs4" />
<metadata
	id="metadata7">
	<rdf:RDF>
		<cc:Work
			rdf:about="">
			<dc:format>image/svg+xml</dc:format>
			<dc:type
				rdf:resource="http://purl.org/dc/dcmitype/StillImage" />
			<dc:title></dc:title>
		</cc:Work>
	</rdf:RDF>
</metadata>
<g
	inkscape:label="Layer 1"
	inkscape:groupmode="layer"
	id="layer1">
	<path style="fill:none;stroke:red;stroke-width:1px;stroke-linecap:butt;stroke-linejoin:miter;stroke-opacity:1" d="M 4,311.986 4,323.923 z" id="boundary" inkscape:connector-curvature="0" />
	<path style="fill:none;stroke:red;stroke-width:1px;stroke-linecap:butt;stroke-linejoin:miter;stroke-opacity:1" d="M 4,311.986 9.96871,300.048 z" id="boundary" inkscape:connector-curvature="0" />
	<path style="fill:none;stroke:red;stroke-width:1px;stroke-linecap:butt;stroke-linejoin:miter;stroke-opacity:1" d="M 4,323.923 4,335.86 z" id="boundary" inkscape:connector-curvature="0" />
	<path style="fill:none;stroke:red;stroke-width:1px;stroke-linecap:butt;stroke-linejoin:miter;stroke-opacity:1" d="M 4,335.86 9.96871,346.604 z" id="boundary" inkscape:connector-curvature="0" />
	<path style="fill:none;stroke:red;stroke-width:1px;stroke-linecap:butt;stroke-linejoin:miter;stroke-opacity:1" d="M 9.96871,300.048 15.9374,288.111 z" id="boundary" inkscape:connector-curvature="0" />
	<path style="fill:none;stroke:red;stroke-width:1px;stroke-linecap:butt;stroke-linejoin:miter;stroke-opacity:1" d="M 9.96871,346.604 9.96871,358.542 z" id="boundary" inkscape:connector-curvature="0" />
	<path style="fill:none;stroke:red;stroke-width:1px;stroke-linecap:butt;stroke-linejoin:miter;stroke-opacity:1" d="M 9.96871,358.542 9.96871,370.479 z" id="boundary" inkscape:connector-curvature="0" />
	<path style="fill:none;stroke:red;stroke-width:1px;stroke-linecap:butt;stroke-linejoin:miter;stroke-opacity:1" d="M 9.96871,370.479 15.9374,381.223 z" id="boundary" inkscape:connector-curvature="0" />
	<path style="fill:none;stroke:red;stroke-width:1px;stroke-linecap:butt;stroke-linejoin:miter;stroke-opacity:1" d="M 15.9374,288.111 21.9061,276.173 z" id="boundary" inkscape:connector-curvature="0" />
	<path style="fill:none;stroke:red;stroke-width:1px;stroke-linecap:butt;stroke-linejoin:miter;stroke-opacity:1" d="M 15.9374,381.223 15.9374,393.16 z" id="boundary" inkscape:connector-curvature="0" />
	<path style="fill:none;stroke:red;stroke-width:1px;stroke-linecap:butt;stroke-linejoin:miter;stroke-opacity:1" d="M 15.9374,393.16 21.9061,403.904 z" id="boundary" inkscape:connector-curvature="0" />
	<path style="fill:none;stroke:red;stroke-width:1px;stroke-linecap:butt;stroke-linejoin:miter;stroke-opacity:1" d="M 21.9061,276.173 31.4561,266.623 z" id="boundary" inkscape:connector-curvature="0" />
	<path style="fill:none;stroke:red;stroke-width:1px;stroke-linecap:butt;stroke-linejoin:miter;stroke-opacity:1" d="M 21.9061,403.904 21.9061,415.841 z" id="boundary" inkscape:connector-curvature="0" />
	<path style="fill:none;stroke:red;stroke-width:1px;stroke-linecap:butt;stroke-linejoin:miter;stroke-opacity:1" d="M 21.9061,415.841 21.9061,427.779 z" id="boundary" inkscape:connector-curvature="0" />
	<path style="fill:none;stroke:red;stroke-width:1px;stroke-linecap:butt;stroke-linejoin:miter;stroke-opacity:1" d="M 21.9061,427.779 21.9061,439.716 z" id="boundary" inkscape:connector-curvature="0" />
	<path style="fill:none;stroke:red;stroke-width:1px;stroke-linecap:butt;stroke-linejoin:miter;stroke-opacity:1" d="M 21.9061,439.716 21.9061,451.653 z" id="boundary" inkscape:connector-curvature="0" />
	<path style="fill:none;stroke:red;stroke-width:1px;stroke-linecap:butt;stroke-linejoin:miter;stroke-opacity:1" d="M 21.9061,451.653 21.9061,463.591 z" id="boundary" inkscape:connector-curvature="0" />
	<path style="fill:none;stroke:red;stroke-width:1px;stroke-linecap:butt;stroke-linejoin:miter;stroke-opacity:1" d="M 21.9061,463.591 27.8748,474.335 z" id="boundary" inkscape:connector-curvature="0" />
	<path style="fill:none;stroke:red;stroke-width:1px;stroke-linecap:butt;stroke-linejoin:miter;stroke-opacity:1" d="M 27.8748,67.2684 27.8748,79.2058 z" id="boundary" inkscape:connector-curvature="0" />
	<path style="fill:none;stroke:red;stroke-width:1px;stroke-linecap:butt;stroke-linejoin:miter;stroke-opacity:1" d="M 27.8748,67.2684 33.8436,55.3309 z" id="boundary" inkscape:connector-curvature="0" />
	<path style="fill:none;stroke:red;stroke-width:1px;stroke-linecap:butt;stroke-linejoin:miter;stroke-opacity:1" d="M 27.8748,79.2058 27.8748,91.1432 z" id="boundary" inkscape:connector-curvature="0" />
	<path style="fill:none;stroke:red;stroke-width:1px;stroke-linecap:butt;stroke-linejoin:miter;stroke-opacity:1" d="M 27.8748,91.1432 27.8748,103.081 z" id="boundary" inkscape:connector-curvature="0" />
	<path style="fill:none;stroke:red;stroke-width:1px;stroke-linecap:butt;stroke-linejoin:miter;stroke-opacity:1" d="M 27.8748,103.081 27.8748,115.018 z" id="boundary" inkscape:connector-curvature="0" />
	<path style="fill:none;stroke:red;stroke-width:1px;stroke-linecap:butt;stroke-linejoin:miter;stroke-opacity:1" d="M 27.8748,115.018 27.8748,126.955 z" id="boundary" inkscape:connector-curvature="0" />
	<path style="fill:none;stroke:red;stroke-width:1px;stroke-linecap:butt;stroke-linejoin:miter;stroke-opacity:1" d="M 27.8748,126.955 33.8436,137.699 z" id="boundary" inkscape:connector-curvature="0" />
	<path style="fill:none;stroke:red;stroke-width:1px;stroke-linecap:butt;stroke-linejoin:miter;stroke-opacity:1" d="M 27.8748,474.335 27.8748,486.272 z" id="boundary" inkscape:connector-curvature="0" />
	<path style="fill:none;stroke:red;stroke-width:1px;stroke-linecap:butt;stroke-linejoin:miter;stroke-opacity:1" d="M 27.8748,486.272 33.8436,497.016 z" id="boundary" inkscape:connector-curvature="0" />
	<path style="fill:none;stroke:red;stroke-width:1px;stroke-linecap:butt;stroke-linejoin:miter;stroke-opacity:1" d="M 31.4561,266.623 41.006,257.073 z" id="boundary" inkscape:connector-curvature="0" />
	<path style="fill:none;stroke:red;stroke-width:1px;stroke-linecap:butt;stroke-linejoin:miter;stroke-opacity:1" d="M 33.8436,55.3309 43.3935,45.781 z" id="boundary" inkscape:connector-curvature="0" />
	<path style="fill:none;stroke:red;stroke-width:1px;stroke-linecap:butt;stroke-linejoin:miter;stroke-opacity:1" d="M 33.8436,137.699 39.8123,148.443 z" id="boundary" inkscape:connector-curvature="0" />
	<path style="fill:none;stroke:red;stroke-width:1px;stroke-linecap:butt;stroke-linejoin:miter;stroke-opacity:1" d="M 33.8436,497.016 33.8436,508.953 z" id="boundary" inkscape:connector-curvature="0" />
	<path style="fill:none;stroke:red;stroke-width:1px;stroke-linecap:butt;stroke-linejoin:miter;stroke-opacity:1" d="M 33.8436,508.953 39.8123,519.697 z" id="boundary" inkscape:connector-curvature="0" />
	<path style="fill:none;stroke:red;stroke-width:1px;stroke-linecap:butt;stroke-linejoin:miter;stroke-opacity:1" d="M 39.8123,148.443 43.3935,160.38 z" id="boundary" inkscape:connector-curvature="0" />
	<path style="fill:none;stroke:red;stroke-width:1px;stroke-linecap:butt;stroke-linejoin:miter;stroke-opacity:1" d="M 39.8123,519.697 39.8123,531.634 z" id="boundary" inkscape:connector-curvature="0" />
	<path style="fill:none;stroke:red;stroke-width:1px;stroke-linecap:butt;stroke-linejoin:miter;stroke-opacity:1" d="M 39.8123,531.634 39.8123,543.572 z" id="boundary" inkscape:connector-curvature="0" />
	<path style="fill:none;stroke:red;stroke-width:1px;stroke-linecap:butt;stroke-linejoin:miter;stroke-opacity:1" d="M 39.8123,543.572 39.8123,555.509 z" id="boundary" inkscape:connector-curvature="0" />
	<path style="fill:none;stroke:red;stroke-width:1px;stroke-linecap:butt;stroke-linejoin:miter;stroke-opacity:1" d="M 39.8123,555.509 39.8123,567.446 z" id="boundary" inkscape:connector-curvature="0" />
	<path style="fill:none;stroke:red;stroke-width:1px;stroke-linecap:butt;stroke-linejoin:miter;stroke-opacity:1" d="M 39.8123,567.446 39.8123,579.384 z" id="boundary" inkscape:connector-curvature="0" />
	<path style="fill:none;stroke:red;stroke-width:1px;stroke-linecap:butt;stroke-linejoin:miter;stroke-opacity:1" d="M 39.8123,579.384 45.781,590.128 z" id="boundary" inkscape:connector-curvature="0" />
	<path style="fill:none;stroke:red;stroke-width:1px;stroke-linecap:butt;stroke-linejoin:miter;stroke-opacity:1" d="M 41.006,257.073 50.556,248.717 z" id="boundary" inkscape:connector-curvature="0" />
	<path style="fill:none;stroke:red;stroke-width:1px;stroke-linecap:butt;stroke-linejoin:miter;stroke-opacity:1" d="M 43.3935,45.781 52.9434,36.231 z" id="boundary" inkscape:connector-curvature="0" />
	<path style="fill:none;stroke:red;stroke-width:1px;stroke-linecap:butt;stroke-linejoin:miter;stroke-opacity:1" d="M 43.3935,160.38 52.9434,168.736 z" id="boundary" inkscape:connector-curvature="0" />
	<path style="fill:none;stroke:red;stroke-width:1px;stroke-linecap:butt;stroke-linejoin:miter;stroke-opacity:1" d="M 45.781,590.128 45.781,602.065 z" id="boundary" inkscape:connector-curvature="0" />
	<path style="fill:none;stroke:red;stroke-width:1px;stroke-linecap:butt;stroke-linejoin:miter;stroke-opacity:1" d="M 45.781,602.065 51.7497,612.809 z" id="boundary" inkscape:connector-curvature="0" />
	<path style="fill:none;stroke:red;stroke-width:1px;stroke-linecap:butt;stroke-linejoin:miter;stroke-opacity:1" d="M 50.556,248.717 61.2996,242.748 z" id="boundary" inkscape:connector-curvature="0" />
	<path style="fill:none;stroke:red;stroke-width:1px;stroke-linecap:butt;stroke-linejoin:miter;stroke-opacity:1" d="M 51.7497,612.809 54.1372,624.746 z" id="boundary" inkscape:connector-curvature="0" />
	<path style="fill:none;stroke:red;stroke-width:1px;stroke-linecap:butt;stroke-linejoin:miter;stroke-opacity:1" d="M 52.9434,36.231 62.4934,27.8748 z" id="boundary" inkscape:connector-curvature="0" />
	<path style="fill:none;stroke:red;stroke-width:1px;stroke-linecap:butt;stroke-linejoin:miter;stroke-opacity:1" d="M 52.9434,168.736 61.2996,178.286 z" id="boundary" inkscape:connector-curvature="0" />
	<path style="fill:none;stroke:red;stroke-width:1px;stroke-linecap:butt;stroke-linejoin:miter;stroke-opacity:1" d="M 54.1372,624.746 57.7184,636.684 z" id="boundary" inkscape:connector-curvature="0" />
	<path style="fill:none;stroke:red;stroke-width:1px;stroke-linecap:butt;stroke-linejoin:miter;stroke-opacity:1" d="M 57.7184,636.684 57.7184,648.621 z" id="boundary" inkscape:connector-curvature="0" />
	<path style="fill:none;stroke:red;stroke-width:1px;stroke-linecap:butt;stroke-linejoin:miter;stroke-opacity:1" d="M 57.7184,648.621 63.6871,659.365 z" id="boundary" inkscape:connector-curvature="0" />
	<path style="fill:none;stroke:red;stroke-width:1px;stroke-linecap:butt;stroke-linejoin:miter;stroke-opacity:1" d="M 61.2996,178.286 69.6558,187.836 z" id="boundary" inkscape:connector-curvature="0" />
	<path style="fill:none;stroke:red;stroke-width:1px;stroke-linecap:butt;stroke-linejoin:miter;stroke-opacity:1" d="M 61.2996,242.748 69.6558,228.424 z" id="boundary" inkscape:connector-curvature="0" />
	<path style="fill:none;stroke:red;stroke-width:1px;stroke-linecap:butt;stroke-linejoin:miter;stroke-opacity:1" d="M 62.4934,27.8748 73.2371,21.9061 z" id="boundary" inkscape:connector-curvature="0" />
	<path style="fill:none;stroke:red;stroke-width:1px;stroke-linecap:butt;stroke-linejoin:miter;stroke-opacity:1" d="M 63.6871,659.365 69.6558,670.108 z" id="boundary" inkscape:connector-curvature="0" />
	<path style="fill:none;stroke:red;stroke-width:1px;stroke-linecap:butt;stroke-linejoin:miter;stroke-opacity:1" d="M 69.6558,187.836 75.6245,198.58 z" id="boundary" inkscape:connector-curvature="0" />
	<path style="fill:none;stroke:red;stroke-width:1px;stroke-linecap:butt;stroke-linejoin:miter;stroke-opacity:1" d="M 69.6558,228.424 75.6245,210.517 z" id="boundary" inkscape:connector-curvature="0" />
	<path style="fill:none;stroke:red;stroke-width:1px;stroke-linecap:butt;stroke-linejoin:miter;stroke-opacity:1" d="M 69.6558,670.108 75.6245,680.852 z" id="boundary" inkscape:connector-curvature="0" />
	<path style="fill:none;stroke:red;stroke-width:1px;stroke-linecap:butt;stroke-linejoin:miter;stroke-opacity:1" d="M 73.2371,21.9061 82.787,12.3562 z" id="boundary" inkscape:connector-curvature="0" />
	<path style="fill:none;stroke:red;stroke-width:1px;stroke-linecap:butt;stroke-linejoin:miter;stroke-opacity:1" d="M 75.6245,198.58 75.6245,210.517 z" id="boundary" inkscape:connector-curvature="0" />
	<path style="fill:none;stroke:red;stroke-width:1px;stroke-linecap:butt;stroke-linejoin:miter;stroke-opacity:1" d="M 75.6245,680.852 83.9807,690.402 z" id="boundary" inkscape:connector-curvature="0" />
	<path style="fill:none;stroke:red;stroke-width:1px;stroke-linecap:butt;stroke-linejoin:miter;stroke-opacity:1" d="M 82.787,12.3562 94.7244,6.38748 z" id="boundary" inkscape:connector-curvature="0" />
	<path style="fill:none;stroke:red;stroke-width:1px;stroke-linecap:butt;stroke-linejoin:miter;stroke-opacity:1" d="M 83.9807,690.402 93.5307,697.564 z" id="boundary" inkscape:connector-curvature="0" />
	<path style="fill:none;stroke:red;stroke-width:1px;stroke-linecap:butt;stroke-linejoin:miter;stroke-opacity:1" d="M 87.562,789.483 87.562,801.42 z" id="boundary" inkscape:connector-curvature="0" />
	<path style="fill:none;stroke:red;stroke-width:1px;stroke-linecap:butt;stroke-linejoin:miter;stroke-opacity:1" d="M 87.562,789.483 93.5307,777.545 z" id="boundary" inkscape:connector-curvature="0" />
	<path style="fill:none;stroke:red;stroke-width:1px;stroke-linecap:butt;stroke-linejoin:miter;stroke-opacity:1" d="M 87.562,801.42 87.562,813.357 z" id="boundary" inkscape:connector-curvature="0" />
	<path style="fill:none;stroke:red;stroke-width:1px;stroke-linecap:butt;stroke-linejoin:miter;stroke-opacity:1" d="M 87.562,813.357 87.562,825.295 z" id="boundary" inkscape:connector-curvature="0" />
	<path style="fill:none;stroke:red;stroke-width:1px;stroke-linecap:butt;stroke-linejoin:miter;stroke-opacity:1" d="M 87.562,825.295 87.562,837.232 z" id="boundary" inkscape:connector-curvature="0" />
	<path style="fill:none;stroke:red;stroke-width:1px;stroke-linecap:butt;stroke-linejoin:miter;stroke-opacity:1" d="M 87.562,837.232 93.5307,847.976 z" id="boundary" inkscape:connector-curvature="0" />
	<path style="fill:none;stroke:red;stroke-width:1px;stroke-linecap:butt;stroke-linejoin:miter;stroke-opacity:1" d="M 93.5307,697.564 100.693,707.114 z" id="boundary" inkscape:connector-curvature="0" />
	<path style="fill:none;stroke:red;stroke-width:1px;stroke-linecap:butt;stroke-linejoin:miter;stroke-opacity:1" d="M 93.5307,777.545 99.4994,759.639 z" id="boundary" inkscape:connector-curvature="0" />
	<path style="fill:none;stroke:red;stroke-width:1px;stroke-linecap:butt;stroke-linejoin:miter;stroke-opacity:1" d="M 93.5307,847.976 99.4994,858.72 z" id="boundary" inkscape:connector-curvature="0" />
	<path style="fill:none;stroke:red;stroke-width:1px;stroke-linecap:butt;stroke-linejoin:miter;stroke-opacity:1" d="M 94.7244,6.38748 106.662,4 z" id="boundary" inkscape:connector-curvature="0" />
	<path style="fill:none;stroke:red;stroke-width:1px;stroke-linecap:butt;stroke-linejoin:miter;stroke-opacity:1" d="M 99.4994,759.639 105.468,747.702 z" id="boundary" inkscape:connector-curvature="0" />
	<path style="fill:none;stroke:red;stroke-width:1px;stroke-linecap:butt;stroke-linejoin:miter;stroke-opacity:1" d="M 99.4994,858.72 103.081,870.657 z" id="boundary" inkscape:connector-curvature="0" />
	<path style="fill:none;stroke:red;stroke-width:1px;stroke-linecap:butt;stroke-linejoin:miter;stroke-opacity:1" d="M 99.4994,938.7 99.4994,950.638 z" id="boundary" inkscape:connector-curvature="0" />
	<path style="fill:none;stroke:red;stroke-width:1px;stroke-linecap:butt;stroke-linejoin:miter;stroke-opacity:1" d="M 99.4994,938.7 105.468,926.763 z" id="boundary" inkscape:connector-curvature="0" />
	<path style="fill:none;stroke:red;stroke-width:1px;stroke-linecap:butt;stroke-linejoin:miter;stroke-opacity:1" d="M 99.4994,950.638 99.4994,962.575 z" id="boundary" inkscape:connector-curvature="0" />
	<path style="fill:none;stroke:red;stroke-width:1px;stroke-linecap:butt;stroke-linejoin:miter;stroke-opacity:1" d="M 99.4994,962.575 109.049,970.931 z" id="boundary" inkscape:connector-curvature="0" />
	<path style="fill:none;stroke:red;stroke-width:1px;stroke-linecap:butt;stroke-linejoin:miter;stroke-opacity:1" d="M 100.693,707.114 106.662,717.858 z" id="boundary" inkscape:connector-curvature="0" />
	<path style="fill:none;stroke:red;stroke-width:1px;stroke-linecap:butt;stroke-linejoin:miter;stroke-opacity:1" d="M 103.081,870.657 105.468,882.594 z" id="boundary" inkscape:connector-curvature="0" />
	<path style="fill:none;stroke:red;stroke-width:1px;stroke-linecap:butt;stroke-linejoin:miter;stroke-opacity:1" d="M 105.468,747.702 111.437,729.795 z" id="boundary" inkscape:connector-curvature="0" />
	<path style="fill:none;stroke:red;stroke-width:1px;stroke-linecap:butt;stroke-linejoin:miter;stroke-opacity:1" d="M 105.468,882.594 109.049,894.532 z" id="boundary" inkscape:connector-curvature="0" />
	<path style="fill:none;stroke:red;stroke-width:1px;stroke-linecap:butt;stroke-linejoin:miter;stroke-opacity:1" d="M 105.468,914.826 105.468,926.763 z" id="boundary" inkscape:connector-curvature="0" />
	<path style="fill:none;stroke:red;stroke-width:1px;stroke-linecap:butt;stroke-linejoin:miter;stroke-opacity:1" d="M 105.468,914.826 109.049,894.532 z" id="boundary" inkscape:connector-curvature="0" />
	<path style="fill:none;stroke:red;stroke-width:1px;stroke-linecap:butt;stroke-linejoin:miter;stroke-opacity:1" d="M 106.662,4 118.599,4 z" id="boundary" inkscape:connector-curvature="0" />
	<path style="fill:none;stroke:red;stroke-width:1px;stroke-linecap:butt;stroke-linejoin:miter;stroke-opacity:1" d="M 106.662,717.858 111.437,729.795 z" id="boundary" inkscape:connector-curvature="0" />
	<path style="fill:none;stroke:red;stroke-width:1px;stroke-linecap:butt;stroke-linejoin:miter;stroke-opacity:1" d="M 109.049,970.931 117.406,980.481 z" id="boundary" inkscape:connector-curvature="0" />
	<path style="fill:none;stroke:red;stroke-width:1px;stroke-linecap:butt;stroke-linejoin:miter;stroke-opacity:1" d="M 117.406,980.481 129.343,984.063 z" id="boundary" inkscape:connector-curvature="0" />
	<path style="fill:none;stroke:red;stroke-width:1px;stroke-linecap:butt;stroke-linejoin:miter;stroke-opacity:1" d="M 118.599,4 130.537,4 z" id="boundary" inkscape:connector-curvature="0" />
	<path style="fill:none;stroke:red;stroke-width:1px;stroke-linecap:butt;stroke-linejoin:miter;stroke-opacity:1" d="M 129.343,984.063 141.28,984.063 z" id="boundary" inkscape:connector-curvature="0" />
	<path style="fill:none;stroke:red;stroke-width:1px;stroke-linecap:butt;stroke-linejoin:miter;stroke-opacity:1" d="M 130.537,4 142.474,4 z" id="boundary" inkscape:connector-curvature="0" />
	<path style="fill:none;stroke:red;stroke-width:1px;stroke-linecap:butt;stroke-linejoin:miter;stroke-opacity:1" d="M 141.28,984.063 152.024,990.031 z" id="boundary" inkscape:connector-curvature="0" />
	<path style="fill:none;stroke:red;stroke-width:1px;stroke-linecap:butt;stroke-linejoin:miter;stroke-opacity:1" d="M 142.474,4 154.412,4 z" id="boundary" inkscape:connector-curvature="0" />
	<path style="fill:none;stroke:red;stroke-width:1px;stroke-linecap:butt;stroke-linejoin:miter;stroke-opacity:1" d="M 152.024,990.031 163.961,990.031 z" id="boundary" inkscape:connector-curvature="0" />
	<path style="fill:none;stroke:red;stroke-width:1px;stroke-linecap:butt;stroke-linejoin:miter;stroke-opacity:1" d="M 154.412,4 166.349,4 z" id="boundary" inkscape:connector-curvature="0" />
	<path style="fill:none;stroke:red;stroke-width:1px;stroke-linecap:butt;stroke-linejoin:miter;stroke-opacity:1" d="M 163.961,990.031 174.705,996 z" id="boundary" inkscape:connector-curvature="0" />
	<path style="fill:none;stroke:red;stroke-width:1px;stroke-linecap:butt;stroke-linejoin:miter;stroke-opacity:1" d="M 166.349,4 178.286,4 z" id="boundary" inkscape:connector-curvature="0" />
	<path style="fill:none;stroke:red;stroke-width:1px;stroke-linecap:butt;stroke-linejoin:miter;stroke-opacity:1" d="M 174.705,996 186.643,996 z" id="boundary" inkscape:connector-curvature="0" />
	<path style="fill:none;stroke:red;stroke-width:1px;stroke-linecap:butt;stroke-linejoin:miter;stroke-opacity:1" d="M 178.286,4 189.03,9.96871 z" id="boundary" inkscape:connector-curvature="0" />
	<path style="fill:none;stroke:red;stroke-width:1px;stroke-linecap:butt;stroke-linejoin:miter;stroke-opacity:1" d="M 186.643,996 198.58,996 z" id="boundary" inkscape:connector-curvature="0" />
	<path style="fill:none;stroke:red;stroke-width:1px;stroke-linecap:butt;stroke-linejoin:miter;stroke-opacity:1" d="M 189.03,9.96871 200.968,12.3562 z" id="boundary" inkscape:connector-curvature="0" />
	<path style="fill:none;stroke:red;stroke-width:1px;stroke-linecap:butt;stroke-linejoin:miter;stroke-opacity:1" d="M 198.58,996 210.517,996 z" id="boundary" inkscape:connector-curvature="0" />
	<path style="fill:none;stroke:red;stroke-width:1px;stroke-linecap:butt;stroke-linejoin:miter;stroke-opacity:1" d="M 200.968,12.3562 211.711,18.3249 z" id="boundary" inkscape:connector-curvature="0" />
	<path style="fill:none;stroke:red;stroke-width:1px;stroke-linecap:butt;stroke-linejoin:miter;stroke-opacity:1" d="M 210.517,996 222.455,996 z" id="boundary" inkscape:connector-curvature="0" />
	<path style="fill:none;stroke:red;stroke-width:1px;stroke-linecap:butt;stroke-linejoin:miter;stroke-opacity:1" d="M 211.711,18.3249 223.649,23.0999 z" id="boundary" inkscape:connector-curvature="0" />
	<path style="fill:none;stroke:red;stroke-width:1px;stroke-linecap:butt;stroke-linejoin:miter;stroke-opacity:1" d="M 222.455,996 234.392,996 z" id="boundary" inkscape:connector-curvature="0" />
	<path style="fill:none;stroke:red;stroke-width:1px;stroke-linecap:butt;stroke-linejoin:miter;stroke-opacity:1" d="M 223.649,23.0999 232.005,32.6498 z" id="boundary" inkscape:connector-curvature="0" />
	<path style="fill:none;stroke:red;stroke-width:1px;stroke-linecap:butt;stroke-linejoin:miter;stroke-opacity:1" d="M 232.005,32.6498 243.942,37.4248 z" id="boundary" inkscape:connector-curvature="0" />
	<path style="fill:none;stroke:red;stroke-width:1px;stroke-linecap:butt;stroke-linejoin:miter;stroke-opacity:1" d="M 234.392,996 246.33,996 z" id="boundary" inkscape:connector-curvature="0" />
	<path style="fill:none;stroke:red;stroke-width:1px;stroke-linecap:butt;stroke-linejoin:miter;stroke-opacity:1" d="M 243.942,37.4248 252.298,46.9747 z" id="boundary" inkscape:connector-curvature="0" />
	<path style="fill:none;stroke:red;stroke-width:1px;stroke-linecap:butt;stroke-linejoin:miter;stroke-opacity:1" d="M 246.33,996 258.267,996 z" id="boundary" inkscape:connector-curvature="0" />
	<path style="fill:none;stroke:red;stroke-width:1px;stroke-linecap:butt;stroke-linejoin:miter;stroke-opacity:1" d="M 249.911,870.657 249.911,882.594 z" id="boundary" inkscape:connector-curvature="0" />
	<path style="fill:none;stroke:red;stroke-width:1px;stroke-linecap:butt;stroke-linejoin:miter;stroke-opacity:1" d="M 249.911,870.657 255.88,852.751 z" id="boundary" inkscape:connector-curvature="0" />
	<path style="fill:none;stroke:red;stroke-width:1px;stroke-linecap:butt;stroke-linejoin:miter;stroke-opacity:1" d="M 249.911,882.594 252.298,894.532 z" id="boundary" inkscape:connector-curvature="0" />
	<path style="fill:none;stroke:red;stroke-width:1px;stroke-linecap:butt;stroke-linejoin:miter;stroke-opacity:1" d="M 252.298,46.9747 261.848,55.3309 z" id="boundary" inkscape:connector-curvature="0" />
	<path style="fill:none;stroke:red;stroke-width:1px;stroke-linecap:butt;stroke-linejoin:miter;stroke-opacity:1" d="M 252.298,894.532 261.848,902.888 z" id="boundary" inkscape:connector-curvature="0" />
	<path style="fill:none;stroke:red;stroke-width:1px;stroke-linecap:butt;stroke-linejoin:miter;stroke-opacity:1" d="M 255.88,220.067 255.88,232.005 z" id="boundary" inkscape:connector-curvature="0" />
	<path style="fill:none;stroke:red;stroke-width:1px;stroke-linecap:butt;stroke-linejoin:miter;stroke-opacity:1" d="M 255.88,220.067 261.848,208.13 z" id="boundary" inkscape:connector-curvature="0" />
	<path style="fill:none;stroke:red;stroke-width:1px;stroke-linecap:butt;stroke-linejoin:miter;stroke-opacity:1" d="M 255.88,232.005 258.267,243.942 z" id="boundary" inkscape:connector-curvature="0" />
	<path style="fill:none;stroke:red;stroke-width:1px;stroke-linecap:butt;stroke-linejoin:miter;stroke-opacity:1" d="M 255.88,852.751 261.848,834.845 z" id="boundary" inkscape:connector-curvature="0" />
	<path style="fill:none;stroke:red;stroke-width:1px;stroke-linecap:butt;stroke-linejoin:miter;stroke-opacity:1" d="M 258.267,243.942 264.236,254.686 z" id="boundary" inkscape:connector-curvature="0" />
	<path style="fill:none;stroke:red;stroke-width:1px;stroke-linecap:butt;stroke-linejoin:miter;stroke-opacity:1" d="M 258.267,996 270.205,994.806 z" id="boundary" inkscape:connector-curvature="0" />
	<path style="fill:none;stroke:red;stroke-width:1px;stroke-linecap:butt;stroke-linejoin:miter;stroke-opacity:1" d="M 261.848,55.3309 267.817,66.0746 z" id="boundary" inkscape:connector-curvature="0" />
	<path style="fill:none;stroke:red;stroke-width:1px;stroke-linecap:butt;stroke-linejoin:miter;stroke-opacity:1" d="M 261.848,196.193 261.848,208.13 z" id="boundary" inkscape:connector-curvature="0" />
	<path style="fill:none;stroke:red;stroke-width:1px;stroke-linecap:butt;stroke-linejoin:miter;stroke-opacity:1" d="M 261.848,196.193 267.817,184.255 z" id="boundary" inkscape:connector-curvature="0" />
	<path style="fill:none;stroke:red;stroke-width:1px;stroke-linecap:butt;stroke-linejoin:miter;stroke-opacity:1" d="M 261.848,834.845 267.817,822.907 z" id="boundary" inkscape:connector-curvature="0" />
	<path style="fill:none;stroke:red;stroke-width:1px;stroke-linecap:butt;stroke-linejoin:miter;stroke-opacity:1" d="M 261.848,902.888 271.398,911.244 z" id="boundary" inkscape:connector-curvature="0" />
	<path style="fill:none;stroke:red;stroke-width:1px;stroke-linecap:butt;stroke-linejoin:miter;stroke-opacity:1" d="M 264.236,254.686 272.592,264.236 z" id="boundary" inkscape:connector-curvature="0" />
	<path style="fill:none;stroke:red;stroke-width:1px;stroke-linecap:butt;stroke-linejoin:miter;stroke-opacity:1" d="M 267.817,66.0746 273.786,76.8183 z" id="boundary" inkscape:connector-curvature="0" />
	<path style="fill:none;stroke:red;stroke-width:1px;stroke-linecap:butt;stroke-linejoin:miter;stroke-opacity:1" d="M 267.817,184.255 273.786,166.349 z" id="boundary" inkscape:connector-curvature="0" />
	<path style="fill:none;stroke:red;stroke-width:1px;stroke-linecap:butt;stroke-linejoin:miter;stroke-opacity:1" d="M 267.817,810.97 267.817,822.907 z" id="boundary" inkscape:connector-curvature="0" />
	<path style="fill:none;stroke:red;stroke-width:1px;stroke-linecap:butt;stroke-linejoin:miter;stroke-opacity:1" d="M 267.817,810.97 273.786,793.064 z" id="boundary" inkscape:connector-curvature="0" />
	<path style="fill:none;stroke:red;stroke-width:1px;stroke-linecap:butt;stroke-linejoin:miter;stroke-opacity:1" d="M 270.205,994.806 282.142,988.838 z" id="boundary" inkscape:connector-curvature="0" />
	<path style="fill:none;stroke:red;stroke-width:1px;stroke-linecap:butt;stroke-linejoin:miter;stroke-opacity:1" d="M 271.398,911.244 282.142,917.213 z" id="boundary" inkscape:connector-curvature="0" />
	<path style="fill:none;stroke:red;stroke-width:1px;stroke-linecap:butt;stroke-linejoin:miter;stroke-opacity:1" d="M 272.592,264.236 279.755,273.786 z" id="boundary" inkscape:connector-curvature="0" />
	<path style="fill:none;stroke:red;stroke-width:1px;stroke-linecap:butt;stroke-linejoin:miter;stroke-opacity:1" d="M 273.786,76.8183 276.173,88.7557 z" id="boundary" inkscape:connector-curvature="0" />
	<path style="fill:none;stroke:red;stroke-width:1px;stroke-linecap:butt;stroke-linejoin:miter;stroke-opacity:1" d="M 273.786,106.662 273.786,118.599 z" id="boundary" inkscape:connector-curvature="0" />
	<path style="fill:none;stroke:red;stroke-width:1px;stroke-linecap:butt;stroke-linejoin:miter;stroke-opacity:1" d="M 273.786,106.662 276.173,88.7557 z" id="boundary" inkscape:connector-curvature="0" />
	<path style="fill:none;stroke:red;stroke-width:1px;stroke-linecap:butt;stroke-linejoin:miter;stroke-opacity:1" d="M 273.786,118.599 273.786,130.537 z" id="boundary" inkscape:connector-curvature="0" />
	<path style="fill:none;stroke:red;stroke-width:1px;stroke-linecap:butt;stroke-linejoin:miter;stroke-opacity:1" d="M 273.786,130.537 273.786,142.474 z" id="boundary" inkscape:connector-curvature="0" />
	<path style="fill:none;stroke:red;stroke-width:1px;stroke-linecap:butt;stroke-linejoin:miter;stroke-opacity:1" d="M 273.786,142.474 273.786,154.412 z" id="boundary" inkscape:connector-curvature="0" />
	<path style="fill:none;stroke:red;stroke-width:1px;stroke-linecap:butt;stroke-linejoin:miter;stroke-opacity:1" d="M 273.786,154.412 273.786,166.349 z" id="boundary" inkscape:connector-curvature="0" />
	<path style="fill:none;stroke:red;stroke-width:1px;stroke-linecap:butt;stroke-linejoin:miter;stroke-opacity:1" d="M 273.786,769.189 273.786,781.126 z" id="boundary" inkscape:connector-curvature="0" />
	<path style="fill:none;stroke:red;stroke-width:1px;stroke-linecap:butt;stroke-linejoin:miter;stroke-opacity:1" d="M 273.786,769.189 279.755,757.252 z" id="boundary" inkscape:connector-curvature="0" />
	<path style="fill:none;stroke:red;stroke-width:1px;stroke-linecap:butt;stroke-linejoin:miter;stroke-opacity:1" d="M 273.786,781.126 273.786,793.064 z" id="boundary" inkscape:connector-curvature="0" />
	<path style="fill:none;stroke:red;stroke-width:1px;stroke-linecap:butt;stroke-linejoin:miter;stroke-opacity:1" d="M 279.755,273.786 285.723,284.529 z" id="boundary" inkscape:connector-curvature="0" />
	<path style="fill:none;stroke:red;stroke-width:1px;stroke-linecap:butt;stroke-linejoin:miter;stroke-opacity:1" d="M 279.755,757.252 285.723,745.314 z" id="boundary" inkscape:connector-curvature="0" />
	<path style="fill:none;stroke:red;stroke-width:1px;stroke-linecap:butt;stroke-linejoin:miter;stroke-opacity:1" d="M 282.142,917.213 290.498,926.763 z" id="boundary" inkscape:connector-curvature="0" />
	<path style="fill:none;stroke:red;stroke-width:1px;stroke-linecap:butt;stroke-linejoin:miter;stroke-opacity:1" d="M 282.142,988.838 294.079,984.063 z" id="boundary" inkscape:connector-curvature="0" />
	<path style="fill:none;stroke:red;stroke-width:1px;stroke-linecap:butt;stroke-linejoin:miter;stroke-opacity:1" d="M 285.723,284.529 285.723,296.467 z" id="boundary" inkscape:connector-curvature="0" />
	<path style="fill:none;stroke:red;stroke-width:1px;stroke-linecap:butt;stroke-linejoin:miter;stroke-opacity:1" d="M 285.723,296.467 285.723,308.404 z" id="boundary" inkscape:connector-curvature="0" />
	<path style="fill:none;stroke:red;stroke-width:1px;stroke-linecap:butt;stroke-linejoin:miter;stroke-opacity:1" d="M 285.723,308.404 291.692,319.148 z" id="boundary" inkscape:connector-curvature="0" />
	<path style="fill:none;stroke:red;stroke-width:1px;stroke-linecap:butt;stroke-linejoin:miter;stroke-opacity:1" d="M 285.723,745.314 291.692,733.377 z" id="boundary" inkscape:connector-curvature="0" />
	<path style="fill:none;stroke:red;stroke-width:1px;stroke-linecap:butt;stroke-linejoin:miter;stroke-opacity:1" d="M 290.498,926.763 302.436,931.538 z" id="boundary" inkscape:connector-curvature="0" />
	<path style="fill:none;stroke:red;stroke-width:1px;stroke-linecap:butt;stroke-linejoin:miter;stroke-opacity:1" d="M 291.692,319.148 291.692,331.085 z" id="boundary" inkscape:connector-curvature="0" />
	<path style="fill:none;stroke:red;stroke-width:1px;stroke-linecap:butt;stroke-linejoin:miter;stroke-opacity:1" d="M 291.692,331.085 297.661,341.829 z" id="boundary" inkscape:connector-curvature="0" />
	<path style="fill:none;stroke:red;stroke-width:1px;stroke-linecap:butt;stroke-linejoin:miter;stroke-opacity:1" d="M 291.692,375.254 291.692,387.191 z" id="boundary" inkscape:connector-curvature="0" />
	<path style="fill:none;stroke:red;stroke-width:1px;stroke-linecap:butt;stroke-linejoin:miter;stroke-opacity:1" d="M 291.692,375.254 297.661,353.767 z" id="boundary" inkscape:connector-curvature="0" />
	<path style="fill:none;stroke:red;stroke-width:1px;stroke-linecap:butt;stroke-linejoin:miter;stroke-opacity:1" d="M 291.692,387.191 297.661,397.935 z" id="boundary" inkscape:connector-curvature="0" />
	<path style="fill:none;stroke:red;stroke-width:1px;stroke-linecap:butt;stroke-linejoin:miter;stroke-opacity:1" d="M 291.692,673.69 291.692,685.627 z" id="boundary" inkscape:connector-curvature="0" />
	<path style="fill:none;stroke:red;stroke-width:1px;stroke-linecap:butt;stroke-linejoin:miter;stroke-opacity:1" d="M 291.692,673.69 301.242,665.333 z" id="boundary" inkscape:connector-curvature="0" />
	<path style="fill:none;stroke:red;stroke-width:1px;stroke-linecap:butt;stroke-linejoin:miter;stroke-opacity:1" d="M 291.692,685.627 291.692,697.564 z" id="boundary" inkscape:connector-curvature="0" />
	<path style="fill:none;stroke:red;stroke-width:1px;stroke-linecap:butt;stroke-linejoin:miter;stroke-opacity:1" d="M 291.692,697.564 291.692,709.502 z" id="boundary" inkscape:connector-curvature="0" />
	<path style="fill:none;stroke:red;stroke-width:1px;stroke-linecap:butt;stroke-linejoin:miter;stroke-opacity:1" d="M 291.692,709.502 291.692,721.439 z" id="boundary" inkscape:connector-curvature="0" />
	<path style="fill:none;stroke:red;stroke-width:1px;stroke-linecap:butt;stroke-linejoin:miter;stroke-opacity:1" d="M 291.692,721.439 291.692,733.377 z" id="boundary" inkscape:connector-curvature="0" />
	<path style="fill:none;stroke:red;stroke-width:1px;stroke-linecap:butt;stroke-linejoin:miter;stroke-opacity:1" d="M 294.079,984.063 304.823,978.094 z" id="boundary" inkscape:connector-curvature="0" />
	<path style="fill:none;stroke:red;stroke-width:1px;stroke-linecap:butt;stroke-linejoin:miter;stroke-opacity:1" d="M 297.661,341.829 297.661,353.767 z" id="boundary" inkscape:connector-curvature="0" />
	<path style="fill:none;stroke:red;stroke-width:1px;stroke-linecap:butt;stroke-linejoin:miter;stroke-opacity:1" d="M 297.661,397.935 303.629,408.679 z" id="boundary" inkscape:connector-curvature="0" />
	<path style="fill:none;stroke:red;stroke-width:1px;stroke-linecap:butt;stroke-linejoin:miter;stroke-opacity:1" d="M 301.242,665.333 313.179,659.365 z" id="boundary" inkscape:connector-curvature="0" />
	<path style="fill:none;stroke:red;stroke-width:1px;stroke-linecap:butt;stroke-linejoin:miter;stroke-opacity:1" d="M 302.436,931.538 314.373,935.119 z" id="boundary" inkscape:connector-curvature="0" />
	<path style="fill:none;stroke:red;stroke-width:1px;stroke-linecap:butt;stroke-linejoin:miter;stroke-opacity:1" d="M 303.629,408.679 309.598,419.422 z" id="boundary" inkscape:connector-curvature="0" />
	<path style="fill:none;stroke:red;stroke-width:1px;stroke-linecap:butt;stroke-linejoin:miter;stroke-opacity:1" d="M 304.823,978.094 316.761,978.094 z" id="boundary" inkscape:connector-curvature="0" />
	<path style="fill:none;stroke:red;stroke-width:1px;stroke-linecap:butt;stroke-linejoin:miter;stroke-opacity:1" d="M 309.598,419.422 314.373,431.36 z" id="boundary" inkscape:connector-curvature="0" />
	<path style="fill:none;stroke:red;stroke-width:1px;stroke-linecap:butt;stroke-linejoin:miter;stroke-opacity:1" d="M 313.179,659.365 321.535,643.846 z" id="boundary" inkscape:connector-curvature="0" />
	<path style="fill:none;stroke:red;stroke-width:1px;stroke-linecap:butt;stroke-linejoin:miter;stroke-opacity:1" d="M 314.373,431.36 315.567,443.297 z" id="boundary" inkscape:connector-curvature="0" />
	<path style="fill:none;stroke:red;stroke-width:1px;stroke-linecap:butt;stroke-linejoin:miter;stroke-opacity:1" d="M 314.373,935.119 326.31,937.507 z" id="boundary" inkscape:connector-curvature="0" />
	<path style="fill:none;stroke:red;stroke-width:1px;stroke-linecap:butt;stroke-linejoin:miter;stroke-opacity:1" d="M 315.567,443.297 320.342,455.235 z" id="boundary" inkscape:connector-curvature="0" />
	<path style="fill:none;stroke:red;stroke-width:1px;stroke-linecap:butt;stroke-linejoin:miter;stroke-opacity:1" d="M 316.761,978.094 327.504,972.125 z" id="boundary" inkscape:connector-curvature="0" />
	<path style="fill:none;stroke:red;stroke-width:1px;stroke-linecap:butt;stroke-linejoin:miter;stroke-opacity:1" d="M 320.342,455.235 321.535,467.172 z" id="boundary" inkscape:connector-curvature="0" />
	<path style="fill:none;stroke:red;stroke-width:1px;stroke-linecap:butt;stroke-linejoin:miter;stroke-opacity:1" d="M 321.535,467.172 327.504,477.916 z" id="boundary" inkscape:connector-curvature="0" />
	<path style="fill:none;stroke:red;stroke-width:1px;stroke-linecap:butt;stroke-linejoin:miter;stroke-opacity:1" d="M 321.535,619.971 321.535,631.909 z" id="boundary" inkscape:connector-curvature="0" />
	<path style="fill:none;stroke:red;stroke-width:1px;stroke-linecap:butt;stroke-linejoin:miter;stroke-opacity:1" d="M 321.535,619.971 327.504,608.034 z" id="boundary" inkscape:connector-curvature="0" />
	<path style="fill:none;stroke:red;stroke-width:1px;stroke-linecap:butt;stroke-linejoin:miter;stroke-opacity:1" d="M 321.535,631.909 321.535,643.846 z" id="boundary" inkscape:connector-curvature="0" />
	<path style="fill:none;stroke:red;stroke-width:1px;stroke-linecap:butt;stroke-linejoin:miter;stroke-opacity:1" d="M 326.31,937.507 333.473,947.057 z" id="boundary" inkscape:connector-curvature="0" />
	<path style="fill:none;stroke:red;stroke-width:1px;stroke-linecap:butt;stroke-linejoin:miter;stroke-opacity:1" d="M 327.504,477.916 331.085,489.853 z" id="boundary" inkscape:connector-curvature="0" />
	<path style="fill:none;stroke:red;stroke-width:1px;stroke-linecap:butt;stroke-linejoin:miter;stroke-opacity:1" d="M 327.504,608.034 338.248,602.065 z" id="boundary" inkscape:connector-curvature="0" />
	<path style="fill:none;stroke:red;stroke-width:1px;stroke-linecap:butt;stroke-linejoin:miter;stroke-opacity:1" d="M 327.504,972.125 337.054,963.769 z" id="boundary" inkscape:connector-curvature="0" />
	<path style="fill:none;stroke:red;stroke-width:1px;stroke-linecap:butt;stroke-linejoin:miter;stroke-opacity:1" d="M 331.085,489.853 337.054,500.597 z" id="boundary" inkscape:connector-curvature="0" />
	<path style="fill:none;stroke:red;stroke-width:1px;stroke-linecap:butt;stroke-linejoin:miter;stroke-opacity:1" d="M 333.473,947.057 337.054,963.769 z" id="boundary" inkscape:connector-curvature="0" />
	<path style="fill:none;stroke:red;stroke-width:1px;stroke-linecap:butt;stroke-linejoin:miter;stroke-opacity:1" d="M 337.054,500.597 339.442,512.534 z" id="boundary" inkscape:connector-curvature="0" />
	<path style="fill:none;stroke:red;stroke-width:1px;stroke-linecap:butt;stroke-linejoin:miter;stroke-opacity:1" d="M 338.248,602.065 347.798,594.903 z" id="boundary" inkscape:connector-curvature="0" />
	<path style="fill:none;stroke:red;stroke-width:1px;stroke-linecap:butt;stroke-linejoin:miter;stroke-opacity:1" d="M 339.442,512.534 339.442,524.472 z" id="boundary" inkscape:connector-curvature="0" />
	<path style="fill:none;stroke:red;stroke-width:1px;stroke-linecap:butt;stroke-linejoin:miter;stroke-opacity:1" d="M 339.442,524.472 345.41,535.215 z" id="boundary" inkscape:connector-curvature="0" />
	<path style="fill:none;stroke:red;stroke-width:1px;stroke-linecap:butt;stroke-linejoin:miter;stroke-opacity:1" d="M 345.41,535.215 351.379,545.959 z" id="boundary" inkscape:connector-curvature="0" />
	<path style="fill:none;stroke:red;stroke-width:1px;stroke-linecap:butt;stroke-linejoin:miter;stroke-opacity:1" d="M 347.798,594.903 353.767,582.965 z" id="boundary" inkscape:connector-curvature="0" />
	<path style="fill:none;stroke:red;stroke-width:1px;stroke-linecap:butt;stroke-linejoin:miter;stroke-opacity:1" d="M 351.379,545.959 351.379,557.897 z" id="boundary" inkscape:connector-curvature="0" />
	<path style="fill:none;stroke:red;stroke-width:1px;stroke-linecap:butt;stroke-linejoin:miter;stroke-opacity:1" d="M 351.379,557.897 357.348,568.64 z" id="boundary" inkscape:connector-curvature="0" />
	<path style="fill:none;stroke:red;stroke-width:1px;stroke-linecap:butt;stroke-linejoin:miter;stroke-opacity:1" d="M 353.767,582.965 357.348,568.64 z" id="boundary" inkscape:connector-curvature="0" />
	<circle cx="4" cy="311.986" r="4" fill="#0" id="circle0"/>
	<circle cx="4" cy="323.923" r="4" fill="#0" id="circle1"/>
	<circle cx="4" cy="335.86" r="4" fill="#0" id="circle2"/>
	<circle cx="9.96871" cy="300.048" r="4" fill="#0" id="circle3"/>
	<circle cx="9.96871" cy="346.604" r="4" fill="#0" id="circle4"/>
	<circle cx="9.96871" cy="358.542" r="4" fill="#0" id="circle5"/>
	<circle cx="9.96871" cy="370.479" r="4" fill="#0" id="circle6"/>
	<circle cx="15.9374" cy="288.111" r="4" fill="#0" id="circle7"/>
	<circle cx="15.9374" cy="381.223" r="4" fill="#0" id="circle8"/>
	<circle cx="15.9374" cy="393.16" r="4" fill="#0" id="circle9"/>
	<circle cx="21.9061" cy="276.173" r="4" fill="#0" id="circle10"/>
	<circle cx="21.9061" cy="403.904" r="4" fill="#0" id="circle11"/>
	<circle cx="21.9061" cy="415.841" r="4" fill="#0" id="circle12"/>
	<circle cx="21.9061" cy="427.779" r="4" fill="#0" id="circle13"/>
	<circle cx="21.9061" cy="439.716" r="4" fill="#0" id="circle14"/>
	<circle cx="21.9061" cy="451.653" r="4" fill="#0" id="circle15"/>
	<circle cx="21.9061" cy="463.591" r="4" fill="#0" id="circle16"/>
	<circle cx="27.8748" cy="67.2684" r="4" fill="#0" id="circle17"/>
	<circle cx="27.8748" cy="79.2058" r="4" fill="#0" id="circle18"/>
	<circle cx="27.8748" cy="91.1432" r="4" fill="#0" id="circle19"/>
	<circle cx="27.8748" cy="103.081" r="4" fill="#0" id="circle20"/>
	<circle cx="27.8748" cy="115.018" r="4" fill="#0" id="circle21"/>
	<circle cx="27.8748" cy="126.955" r="4" fill="#0" id="circle22"/>
	<circle cx="27.8748" cy="474.335" r="4" fill="#0" id="circle23"/>
	<circle cx="27.8748" cy="486.272" r="4" fill="#0" id="circle24"/>
	<circle cx="31.4561" cy="266.623" r="4" fill="#0" id="circle25"/>
	<circle cx="33.8436" cy="55.3309" r="4" fill="#0" id="circle26"/>
	<circle cx="33.8436" cy="137.699" r="4" fill="#0" id="circle27"/>
	<circle cx="33.8436" cy="497.016" r="4" fill="#0" id="circle28"/>
	<circle cx="33.8436" cy="508.953" r="4" fill="#0" id="circle29"/>
	<circle cx="39.8123" cy="148.443" r="4" fill="#0" id="circle30"/>
	<circle cx="39.8123" cy="519.697" r="4" fill="#0" id="circle31"/>
	<circle cx="39.8123" cy="531.634" r="4" fill="#0" id="circle32"/>
	<circle cx="39.8123" cy="543.572" r="4" fill="#0" id="circle33"/>
	<circle cx="39.8123" cy="555.509" r="4" fill="#0" id="circle34"/>
	<circle cx="39.8123" cy="567.446" r="4" fill="#0" id="circle35"/>
	<circle cx="39.8123" cy="579.384" r="4" fill="#0" id="circle36"/>
	<circle cx="41.006" cy="257.073" r="4" fill="#0" id="circle37"/>
	<circle cx="43.3935" cy="45.781" r="4" fill="#0" id="circle38"/>
	<circle cx="43.3935" cy="160.38" r="4" fill="#0" id="circle39"/>
	<circle cx="45.781" cy="590.128" r="4" fill="#0" id="circle40"/>
	<circle cx="45.781" cy="602.065" r="4" fill="#0" id="circle41"/>
	<circle cx="50.556" cy="248.717" r="4" fill="#0" id="circle42"/>
	<circle cx="51.7497" cy="612.809" r="4" fill="#0" id="circle43"/>
	<circle cx="52.9434" cy="36.231" r="4" fill="#0" id="circle44"/>
	<circle cx="52.9434" cy="168.736" r="4" fill="#0" id="circle45"/>
	<circle cx="54.1372" cy="624.746" r="4" fill="#0" id="circle46"/>
	<circle cx="57.7184" cy="636.684" r="4" fill="#0" id="circle47"/>
	<circle cx="57.7184" cy="648.621" r="4" fill="#0" id="circle48"/>
	<circle cx="61.2996" cy="178.286" r="4" fill="#0" id="circle49"/>
	<circle cx="61.2996" cy="242.748" r="4" fill="#0" id="circle50"/>
	<circle cx="62.4934" cy="27.8748" r="4" fill="#0" id="circle51"/>
	<circle cx="63.6871" cy="659.365" r="4" fill="#0" id="circle52"/>
	<circle cx="69.6558" cy="187.836" r="4" fill="#0" id="circle53"/>
	<circle cx="69.6558" cy="228.424" r="4" fill="#0" id="circle54"/>
	<circle cx="69.6558" cy="670.108" r="4" fill="#0" id="circle55"/>
	<circle cx="73.2371" cy="21.9061" r="4" fill="#0" id="circle56"/>
	<circle cx="75.6245" cy="198.58" r="4" fill="#0" id="circle57"/>
	<circle cx="75.6245" cy="210.517" r="4" fill="#0" id="circle58"/>
	<circle cx="75.6245" cy="680.852" r="4" fill="#0" id="circle59"/>
	<circle cx="82.787" cy="12.3562" r="4" fill="#0" id="circle60"/>
	<circle cx="83.9807" cy="690.402" r="4" fill="#0" id="circle61"/>
	<circle cx="87.562" cy="789.483" r="4" fill="#0" id="circle62"/>
	<circle cx="87.562" cy="801.42" r="4" fill="#0" id="circle63"/>
	<circle cx="87.562" cy="813.357" r="4" fill="#0" id="circle64"/>
	<circle cx="87.562" cy="825.295" r="4" fill="#0" id="circle65"/>
	<circle cx="87.562" cy="837.232" r="4" fill="#0" id="circle66"/>
	<circle cx="93.5307" cy="697.564" r="4" fill="#0" id="circle67"/>
	<circle cx="93.5307" cy="777.545" r="4" fill="#0" id="circle68"/>
	<circle cx="93.5307" cy="847.976" r="4" fill="#0" id="circle69"/>
	<circle cx="94.7244" cy="6.38748" r="4" fill="#0" id="circle70"/>
	<circle cx="99.4994" cy="759.639" r="4" fill="#0" id="circle71"/>
	<circle cx="99.4994" cy="858.72" r="4" fill="#0" id="circle72"/>
	<circle cx="99.4994" cy="938.7" r="4" fill="#0" id="circle73"/>
	<circle cx="99.4994" cy="950.638" r="4" fill="#0" id="circle74"/>
	<circle cx="99.4994" cy="962.575" r="4" fill="#0" id="circle75"/>
	<circle cx="100.693" cy="707.114" r="4" fill="#0" id="circle76"/>
	<circle cx="103.081" cy="870.657" r="4" fill="#0" id="circle77"/>
	<circle cx="105.468" cy="747.702" r="4" fill="#0" id="circle78"/>
	<circle cx="105.468" cy="882.594" r="4" fill="#0" id="circle79"/>
	<circle cx="105.468" cy="914.826" r="4" fill="#0" id="circle80"/>
	<circle cx="105.468" cy="926.763" r="4" fill="#0" id="circle81"/>
	<circle cx="106.662" cy="4" r="4" fill="#0" id="circle82"/>
	<circle cx="106.662" cy="717.858" r="4" fill="#0" id="circle83"/>
	<circle cx="109.049" cy="894.532" r="4" fill="#0" id="circle84"/>
	<circle cx="109.049" cy="970.931" r="4" fill="#0" id="circle85"/>
	<circle cx="111.437" cy="729.795" r="4" fill="#0" id="circle86"/>
	<circle cx="117.406" cy="980.481" r="4" fill="#0" id="circle87"/>
	<circle cx="118.599" cy="4" r="4" fill="#0" id="circle88"/>
	<circle cx="129.343" cy="984.063" r="4" fill="#0" id="circle89"/>
	<circle cx="130.537" cy="4" r="4" fill="#0" id="circle90"/>
	<circle cx="141.28" cy="984.063" r="4" fill="#0" id="circle91"/>
	<circle cx="142.474" cy="4" r="4" fill="#0" id="circle92"/>
	<circle cx="152.024" cy="990.031" r="4" fill="#0" id="circle93"/>
	<circle cx="154.412" cy="4" r="4" fill="#0" id="circle94"/>
	<circle cx="163.961" cy="990.031" r="4" fill="#0" id="circle95"/>
	<circle cx="166.349" cy="4" r="4" fill="#0" id="circle96"/>
	<circle cx="174.705" cy="996" r="4" fill="#0" id="circle97"/>
	<circle cx="178.286" cy="4" r="4" fill="#0" id="circle98"/>
	<circle cx="186.643" cy="996" r="4" fill="#0" id="circle99"/>
	<circle cx="189.03" cy="9.96871" r="4" fill="#0" id="circle100"/>
	<circle cx="198.58" cy="996" r="4" fill="#0" id="circle101"/>
	<circle cx="200.968" cy="12.3562" r="4" fill="#0" id="circle102"/>
	<circle cx="210.517" cy="996" r="4" fill="#0" id="circle103"/>
	<circle cx="211.711" cy="18.3249" r="4" fill="#0" id="circle104"/>
	<circle cx="222.455" cy="996" r="4" fill="#0" id="circle105"/>
	<circle cx="223.649" cy="23.0999" r="4" fill="#0" id="circle106"/>
	<circle cx="232.005" cy="32.6498" r="4" fill="#0" id="circle107"/>
	<circle cx="234.392" cy="996" r="4" fill="#0" id="circle108"/>
	<circle cx="243.942" cy="37.4248" r="4" fill="#0" id="circle109"/>
	<circle cx="246.33" cy="996" r="4" fill="#0" id="circle110"/>
	<circle cx="249.911" cy="870.657" r="4" fill="#0" id="circle111"/>
	<circle cx="249.911" cy="882.594" r="4" fill="#0" id="circle112"/>
	<circle cx="252.298" cy="46.9747" r="4" fill="#0" id="circle113"/>
	<circle cx="252.298" cy="894.532" r="4" fill="#0" id="circle114"/>
	<circle cx="255.88" cy="220.067" r="4" fill="#0" id="circle115"/>
	<circle cx="255.88" cy="232.005" r="4" fill="#0" id="circle116"/>
	<circle cx="255.88" cy="852.751" r="4" fill="#0" id="circle117"/>
	<circle cx="258.267" cy="243.942" r="4" fill="#0" id="circle118"/>
	<circle cx="258.267" cy="996" r="4" fill="#0" id="circle119"/>
	<circle cx="261.848" cy="55.3309" r="4" fill="#0" id="circle120"/>
	<circle cx="261.848" cy="196.193" r="4" fill="#0" id="circle121"/>
	<circle cx="261.848" cy="208.13" r="4" fill="#0" id="circle122"/>
	<circle cx="261.848" cy="834.845" r="4" fill="#0" id="circle123"/>
	<circle cx="261.848" cy="902.888" r="4" fill="#0" id="circle124"/>
	<circle cx="264.236" cy="254.686" r="4" fill="#0" id="circle125"/>
	<circle cx="267.817" cy="66.0746" r="4" fill="#0" id="circle126"/>
	<circle cx="267.817" cy="184.255" r="4" fill="#0" id="circle127"/>
	<circle cx="267.817" cy="810.97" r="4" fill="#0" id="circle128"/>
	<circle cx="267.817" cy="822.907" r="4" fill="#0" id="circle129"/>
	<circle cx="270.205" cy="994.806" r="4" fill="#0" id="circle130"/>
	<circle cx="271.398" cy="911.244" r="4" fill="#0" id="circle131"/>
	<circle cx="272.592" cy="264.236" r="4" fill="#0" id="circle132"/>
	<circle cx="273.786" cy="76.8183" r="4" fill="#0" id="circle133"/>
	<circle cx="273.786" cy="106.662" r="4" fill="#0" id="circle134"/>
	<circle cx="273.786" cy="118.599" r="4" fill="#0" id="circle135"/>
	<circle cx="273.786" cy="130.537" r="4" fill="#0" id="circle136"/>
	<circle cx="273.786" cy="142.474" r="4" fill="#0" id="circle137"/>
	<circle cx="273.786" cy="154.412" r="4" fill="#0" id="circle138"/>
	<circle cx="273.786" cy="166.349" r="4" fill="#0" id="circle139"/>
	<circle cx="273.786" cy="769.189" r="4" fill="#0" id="circle140"/>
	<circle cx="273.786" cy="781.126" r="4" fill="#0" id="circle141"/>
	<circle cx="273.786" cy="793.064" r="4" fill="#0" id="circle142"/>
	<circle cx="276.173" cy="88.7557" r="4" fill="#0" id="circle143"/>
	<circle cx="279.755" cy="273.786" r="4" fill="#0" id="circle144"/>
	<circle cx="279.755" cy="757.252" r="4" fill="#0" id="circle145"/>
	<circle cx="282.142" cy="917.213" r="4" fill="#0" id="circle146"/>
	<circle cx="282.142" cy="988.838" r="4" fill="#0" id="circle147"/>
	<circle cx="285.723" cy="284.529" r="4" fill="#0" id="circle148"/>
	<circle cx="285.723" cy="296.467" r="4" fill="#0" id="circle149"/>
	<circle cx="285.723" cy="308.404" r="4" fill="#0" id="circle150"/>
	<circle cx="285.723" cy="745.314" r="4" fill="#0" id="circle151"/>
	<circle cx="290.498" cy="926.763" r="4" fill="#0" id="circle152"/>
	<circle cx="291.692" cy="319.148" r="4" fill="#0" id="circle153"/>
	<circle cx="291.692" cy="331.085" r="4" fill="#0" id="circle154"/>
	<circle cx="291.692" cy="375.254" r="4" fill="#0" id="circle155"/>
	<circle cx="291.692" cy="387.191" r="4" fill="#0" id="circle156"/>
	<circle cx="291.692" cy="673.69" r="4" fill="#0" id="circle157"/>
	<circle cx="291.692" cy="685.627" r="4" fill="#0" id="circle158"/>
	<circle cx="291.692" cy="697.564" r="4" fill="#0" id="circle159"/>
	<circle cx="291.692" cy="709.502" r="4" fill="#0" id="circle160"/>
	<circle cx="291.692" cy="721.439" r="4" fill="#0" id="circle161"/>
	<circle cx="291.692" cy="733.377" r="4" fill="#0" id="circle162"/>
	<circle cx="294.079" cy="984.063" r="4" fill="#0" id="circle163"/>
	<circle cx="297.661" cy="341.829" r="4" fill="#0" id="circle164"/>
	<circle cx="297.661" cy="353.767" r="4" fill="#0" id="circle165"/>
	<circle cx="297.661" cy="397.935" r="4" fill="#0" id="circle166"/>
	<circle cx="301.242" cy="665.333" r="4" fill="#0" id="circle167"/>
	<circle cx="302.436" cy="931.538" r="4" fill="#0" id="circle168"/>
	<circle cx="303.629" cy="408.679" r="4" fill="#0" id="circle169"/>
	<circle cx="304.823" cy="978.094" r="4" fill="#0" id="circle170"/>
	<circle cx="309.598" cy="419.422" r="4" fill="#0" id="circle171"/>
	<circle cx="313.179" cy="659.365" r="4" fill="#0" id="circle172"/>
	<circle cx="314.373" cy="431.36" r="4" fill="#0" id="circle173"/>
	<circle cx="314.373" cy="935.119" r="4" fill="#0" id="circle174"/>
	<circle cx="315.567" cy="443.297" r="4" fill="#0" id="circle175"/>
	<circle cx="316.761" cy="978.094" r="4" fill="#0" id="circle176"/>
	<circle cx="320.342" cy="455.235" r="4" fill="#0" id="circle177"/>
	<circle cx="321.535" cy="467.172" r="4" fill="#0" id="circle178"/>
	<circle cx="321.535" cy="619.971" r="4" fill="#0" id="circle179"/>
	<circle cx="321.535" cy="631.909" r="4" fill="#0" id="circle180"/>
	<circle cx="321.535" cy="643.846" r="4" fill="#0" id="circle181"/>
	<circle cx="326.31" cy="937.507" r="4" fill="#0" id="circle182"/>
	<circle cx="327.504" cy="477.916" r="4" fill="#0" id="circle183"/>
	<circle cx="327.504" cy="608.034" r="4" fill="#0" id="circle184"/>
	<circle cx="327.504" cy="972.125" r="4" fill="#0" id="circle185"/>
	<circle cx="331.085" cy="489.853" r="4" fill="#0" id="circle186"/>
	<circle cx="333.473" cy="947.057" r="4" fill="#0" id="circle187"/>
	<circle cx="337.054" cy="500.597" r="4" fill="#0" id="circle188"/>
	<circle cx="337.054" cy="963.769" r="4" fill="#0" id="circle189"/>
	<circle cx="338.248" cy="602.065" r="4" fill="#0" id="circle190"/>
	<circle cx="339.442" cy="512.534" r="4" fill="#0" id="circle191"/>
	<circle cx="339.442" cy="524.472" r="4" fill="#0" id="circle192"/>
	<circle cx="345.41" cy="535.215" r="4" fill="#0" id="circle193"/>
	<circle cx="347.798" cy="594.903" r="4" fill="#0" id="circle194"/>
	<circle cx="351.379" cy="545.959" r="4" fill="#0" id="circle195"/>
	<circle cx="351.379" cy="557.897" r="4" fill="#0" id="circle196"/>
	<circle cx="353.767" cy="582.965" r="4" fill="#0" id="circle197"/>
	<circle cx="357.348" cy="568.64" r="4" fill="#0" id="circle198"/>
	</g>
</svg>