<?xml version="1.0" encoding="UTF-8" standalone="no"?>
<!-- Created with CurveBenchmark -->
<svg
	xmlns:dc="http://purl.org/dc/elements/1.1/"
	xmlns:cc="http://creativecommons.org/ns#"
	xmlns:rdf="http://www.w3.org/1999/02/22-rdf-syntax-ns#"
	xmlns:svg="http://www.w3.org/2000/svg"
	xmlns="http://www.w3.org/2000/svg"
	xmlns:sodipodi="http://sodipodi.sourceforge.net/DTD/sodipodi-0.dtd"
	xmlns:inkscape="http://www.inkscape.org/namespaces/inkscape"
	width="1000"
	height="1000"
	id="svg2"
	version="1.1"
	sodipodi:docname="manifold/discur-fish0709.png.txt">
<defs
	id="defs4" />
<metadata
	id="metadata7">
	<rdf:RDF>
		<cc:Work
			rdf:about="">
			<dc:format>image/svg+xml</dc:format>
			<dc:type
				rdf:resource="http://purl.org/dc/dcmitype/StillImage" />
			<dc:title></dc:title>
		</cc:Work>
	</rdf:RDF>
</metadata>
<g
	inkscape:label="Layer 1"
	inkscape:groupmode="layer"
	id="layer1">
	<path style="fill:none;stroke:red;stroke-width:1px;stroke-linecap:butt;stroke-linejoin:miter;stroke-opacity:1" d="M 4,155.08 4,169.333 z" id="boundary" inkscape:connector-curvature="0" />
	<path style="fill:none;stroke:red;stroke-width:1px;stroke-linecap:butt;stroke-linejoin:miter;stroke-opacity:1" d="M 4,155.08 15.4023,143.678 z" id="boundary" inkscape:connector-curvature="0" />
	<path style="fill:none;stroke:red;stroke-width:1px;stroke-linecap:butt;stroke-linejoin:miter;stroke-opacity:1" d="M 4,169.333 15.4023,179.31 z" id="boundary" inkscape:connector-curvature="0" />
	<path style="fill:none;stroke:red;stroke-width:1px;stroke-linecap:butt;stroke-linejoin:miter;stroke-opacity:1" d="M 15.4023,143.678 29.6552,136.552 z" id="boundary" inkscape:connector-curvature="0" />
	<path style="fill:none;stroke:red;stroke-width:1px;stroke-linecap:butt;stroke-linejoin:miter;stroke-opacity:1" d="M 15.4023,179.31 28.2299,186.437 z" id="boundary" inkscape:connector-curvature="0" />
	<path style="fill:none;stroke:red;stroke-width:1px;stroke-linecap:butt;stroke-linejoin:miter;stroke-opacity:1" d="M 28.2299,186.437 42.4828,192.138 z" id="boundary" inkscape:connector-curvature="0" />
	<path style="fill:none;stroke:red;stroke-width:1px;stroke-linecap:butt;stroke-linejoin:miter;stroke-opacity:1" d="M 29.6552,136.552 43.908,129.425 z" id="boundary" inkscape:connector-curvature="0" />
	<path style="fill:none;stroke:red;stroke-width:1px;stroke-linecap:butt;stroke-linejoin:miter;stroke-opacity:1" d="M 42.4828,192.138 55.3103,199.264 z" id="boundary" inkscape:connector-curvature="0" />
	<path style="fill:none;stroke:red;stroke-width:1px;stroke-linecap:butt;stroke-linejoin:miter;stroke-opacity:1" d="M 43.908,129.425 58.1609,129.425 z" id="boundary" inkscape:connector-curvature="0" />
	<path style="fill:none;stroke:red;stroke-width:1px;stroke-linecap:butt;stroke-linejoin:miter;stroke-opacity:1" d="M 55.3103,199.264 69.5632,204.966 z" id="boundary" inkscape:connector-curvature="0" />
	<path style="fill:none;stroke:red;stroke-width:1px;stroke-linecap:butt;stroke-linejoin:miter;stroke-opacity:1" d="M 58.1609,129.425 70.9885,122.299 z" id="boundary" inkscape:connector-curvature="0" />
	<path style="fill:none;stroke:red;stroke-width:1px;stroke-linecap:butt;stroke-linejoin:miter;stroke-opacity:1" d="M 69.5632,204.966 79.5402,216.368 z" id="boundary" inkscape:connector-curvature="0" />
	<path style="fill:none;stroke:red;stroke-width:1px;stroke-linecap:butt;stroke-linejoin:miter;stroke-opacity:1" d="M 70.9885,122.299 85.2414,116.598 z" id="boundary" inkscape:connector-curvature="0" />
	<path style="fill:none;stroke:red;stroke-width:1px;stroke-linecap:butt;stroke-linejoin:miter;stroke-opacity:1" d="M 79.5402,216.368 92.3678,223.494 z" id="boundary" inkscape:connector-curvature="0" />
	<path style="fill:none;stroke:red;stroke-width:1px;stroke-linecap:butt;stroke-linejoin:miter;stroke-opacity:1" d="M 85.2414,116.598 99.4943,115.172 z" id="boundary" inkscape:connector-curvature="0" />
	<path style="fill:none;stroke:red;stroke-width:1px;stroke-linecap:butt;stroke-linejoin:miter;stroke-opacity:1" d="M 92.3678,223.494 105.195,230.621 z" id="boundary" inkscape:connector-curvature="0" />
	<path style="fill:none;stroke:red;stroke-width:1px;stroke-linecap:butt;stroke-linejoin:miter;stroke-opacity:1" d="M 99.4943,115.172 113.747,109.471 z" id="boundary" inkscape:connector-curvature="0" />
	<path style="fill:none;stroke:red;stroke-width:1px;stroke-linecap:butt;stroke-linejoin:miter;stroke-opacity:1" d="M 105.195,230.621 118.023,237.747 z" id="boundary" inkscape:connector-curvature="0" />
	<path style="fill:none;stroke:red;stroke-width:1px;stroke-linecap:butt;stroke-linejoin:miter;stroke-opacity:1" d="M 113.747,109.471 128,108.046 z" id="boundary" inkscape:connector-curvature="0" />
	<path style="fill:none;stroke:red;stroke-width:1px;stroke-linecap:butt;stroke-linejoin:miter;stroke-opacity:1" d="M 118.023,237.747 132.276,237.747 z" id="boundary" inkscape:connector-curvature="0" />
	<path style="fill:none;stroke:red;stroke-width:1px;stroke-linecap:butt;stroke-linejoin:miter;stroke-opacity:1" d="M 128,108.046 142.253,102.345 z" id="boundary" inkscape:connector-curvature="0" />
	<path style="fill:none;stroke:red;stroke-width:1px;stroke-linecap:butt;stroke-linejoin:miter;stroke-opacity:1" d="M 132.276,237.747 145.103,244.874 z" id="boundary" inkscape:connector-curvature="0" />
	<path style="fill:none;stroke:red;stroke-width:1px;stroke-linecap:butt;stroke-linejoin:miter;stroke-opacity:1" d="M 142.253,102.345 156.506,100.92 z" id="boundary" inkscape:connector-curvature="0" />
	<path style="fill:none;stroke:red;stroke-width:1px;stroke-linecap:butt;stroke-linejoin:miter;stroke-opacity:1" d="M 145.103,244.874 157.931,252 z" id="boundary" inkscape:connector-curvature="0" />
	<path style="fill:none;stroke:red;stroke-width:1px;stroke-linecap:butt;stroke-linejoin:miter;stroke-opacity:1" d="M 156.506,100.92 170.759,100.92 z" id="boundary" inkscape:connector-curvature="0" />
	<path style="fill:none;stroke:red;stroke-width:1px;stroke-linecap:butt;stroke-linejoin:miter;stroke-opacity:1" d="M 157.931,252 172.184,252 z" id="boundary" inkscape:connector-curvature="0" />
	<path style="fill:none;stroke:red;stroke-width:1px;stroke-linecap:butt;stroke-linejoin:miter;stroke-opacity:1" d="M 170.759,100.92 185.011,100.92 z" id="boundary" inkscape:connector-curvature="0" />
	<path style="fill:none;stroke:red;stroke-width:1px;stroke-linecap:butt;stroke-linejoin:miter;stroke-opacity:1" d="M 172.184,252 185.011,259.126 z" id="boundary" inkscape:connector-curvature="0" />
	<path style="fill:none;stroke:red;stroke-width:1px;stroke-linecap:butt;stroke-linejoin:miter;stroke-opacity:1" d="M 185.011,100.92 199.264,95.2184 z" id="boundary" inkscape:connector-curvature="0" />
	<path style="fill:none;stroke:red;stroke-width:1px;stroke-linecap:butt;stroke-linejoin:miter;stroke-opacity:1" d="M 185.011,259.126 199.264,263.402 z" id="boundary" inkscape:connector-curvature="0" />
	<path style="fill:none;stroke:red;stroke-width:1px;stroke-linecap:butt;stroke-linejoin:miter;stroke-opacity:1" d="M 199.264,95.2184 213.517,93.7931 z" id="boundary" inkscape:connector-curvature="0" />
	<path style="fill:none;stroke:red;stroke-width:1px;stroke-linecap:butt;stroke-linejoin:miter;stroke-opacity:1" d="M 199.264,263.402 213.517,266.253 z" id="boundary" inkscape:connector-curvature="0" />
	<path style="fill:none;stroke:red;stroke-width:1px;stroke-linecap:butt;stroke-linejoin:miter;stroke-opacity:1" d="M 213.517,93.7931 226.345,86.6667 z" id="boundary" inkscape:connector-curvature="0" />
	<path style="fill:none;stroke:red;stroke-width:1px;stroke-linecap:butt;stroke-linejoin:miter;stroke-opacity:1" d="M 213.517,266.253 227.77,270.529 z" id="boundary" inkscape:connector-curvature="0" />
	<path style="fill:none;stroke:red;stroke-width:1px;stroke-linecap:butt;stroke-linejoin:miter;stroke-opacity:1" d="M 226.345,86.6667 240.598,86.6667 z" id="boundary" inkscape:connector-curvature="0" />
	<path style="fill:none;stroke:red;stroke-width:1px;stroke-linecap:butt;stroke-linejoin:miter;stroke-opacity:1" d="M 227.77,270.529 242.023,273.379 z" id="boundary" inkscape:connector-curvature="0" />
	<path style="fill:none;stroke:red;stroke-width:1px;stroke-linecap:butt;stroke-linejoin:miter;stroke-opacity:1" d="M 240.598,86.6667 254.851,86.6667 z" id="boundary" inkscape:connector-curvature="0" />
	<path style="fill:none;stroke:red;stroke-width:1px;stroke-linecap:butt;stroke-linejoin:miter;stroke-opacity:1" d="M 242.023,273.379 254.851,280.506 z" id="boundary" inkscape:connector-curvature="0" />
	<path style="fill:none;stroke:red;stroke-width:1px;stroke-linecap:butt;stroke-linejoin:miter;stroke-opacity:1" d="M 254.851,86.6667 269.103,86.6667 z" id="boundary" inkscape:connector-curvature="0" />
	<path style="fill:none;stroke:red;stroke-width:1px;stroke-linecap:butt;stroke-linejoin:miter;stroke-opacity:1" d="M 254.851,280.506 269.103,283.356 z" id="boundary" inkscape:connector-curvature="0" />
	<path style="fill:none;stroke:red;stroke-width:1px;stroke-linecap:butt;stroke-linejoin:miter;stroke-opacity:1" d="M 269.103,86.6667 281.931,79.5402 z" id="boundary" inkscape:connector-curvature="0" />
	<path style="fill:none;stroke:red;stroke-width:1px;stroke-linecap:butt;stroke-linejoin:miter;stroke-opacity:1" d="M 269.103,283.356 281.931,290.483 z" id="boundary" inkscape:connector-curvature="0" />
	<path style="fill:none;stroke:red;stroke-width:1px;stroke-linecap:butt;stroke-linejoin:miter;stroke-opacity:1" d="M 281.931,79.5402 296.184,79.5402 z" id="boundary" inkscape:connector-curvature="0" />
	<path style="fill:none;stroke:red;stroke-width:1px;stroke-linecap:butt;stroke-linejoin:miter;stroke-opacity:1" d="M 281.931,290.483 293.333,300.46 z" id="boundary" inkscape:connector-curvature="0" />
	<path style="fill:none;stroke:red;stroke-width:1px;stroke-linecap:butt;stroke-linejoin:miter;stroke-opacity:1" d="M 293.333,300.46 303.31,311.862 z" id="boundary" inkscape:connector-curvature="0" />
	<path style="fill:none;stroke:red;stroke-width:1px;stroke-linecap:butt;stroke-linejoin:miter;stroke-opacity:1" d="M 296.184,79.5402 310.437,79.5402 z" id="boundary" inkscape:connector-curvature="0" />
	<path style="fill:none;stroke:red;stroke-width:1px;stroke-linecap:butt;stroke-linejoin:miter;stroke-opacity:1" d="M 303.31,311.862 310.437,324.69 z" id="boundary" inkscape:connector-curvature="0" />
	<path style="fill:none;stroke:red;stroke-width:1px;stroke-linecap:butt;stroke-linejoin:miter;stroke-opacity:1" d="M 310.437,79.5402 324.69,79.5402 z" id="boundary" inkscape:connector-curvature="0" />
	<path style="fill:none;stroke:red;stroke-width:1px;stroke-linecap:butt;stroke-linejoin:miter;stroke-opacity:1" d="M 310.437,324.69 320.414,336.092 z" id="boundary" inkscape:connector-curvature="0" />
	<path style="fill:none;stroke:red;stroke-width:1px;stroke-linecap:butt;stroke-linejoin:miter;stroke-opacity:1" d="M 320.414,336.092 331.816,344.644 z" id="boundary" inkscape:connector-curvature="0" />
	<path style="fill:none;stroke:red;stroke-width:1px;stroke-linecap:butt;stroke-linejoin:miter;stroke-opacity:1" d="M 324.69,79.5402 338.943,79.5402 z" id="boundary" inkscape:connector-curvature="0" />
	<path style="fill:none;stroke:red;stroke-width:1px;stroke-linecap:butt;stroke-linejoin:miter;stroke-opacity:1" d="M 331.816,344.644 340.368,356.046 z" id="boundary" inkscape:connector-curvature="0" />
	<path style="fill:none;stroke:red;stroke-width:1px;stroke-linecap:butt;stroke-linejoin:miter;stroke-opacity:1" d="M 338.943,79.5402 353.195,79.5402 z" id="boundary" inkscape:connector-curvature="0" />
	<path style="fill:none;stroke:red;stroke-width:1px;stroke-linecap:butt;stroke-linejoin:miter;stroke-opacity:1" d="M 340.368,356.046 351.77,366.023 z" id="boundary" inkscape:connector-curvature="0" />
	<path style="fill:none;stroke:red;stroke-width:1px;stroke-linecap:butt;stroke-linejoin:miter;stroke-opacity:1" d="M 351.77,366.023 361.747,377.425 z" id="boundary" inkscape:connector-curvature="0" />
	<path style="fill:none;stroke:red;stroke-width:1px;stroke-linecap:butt;stroke-linejoin:miter;stroke-opacity:1" d="M 353.195,79.5402 367.448,79.5402 z" id="boundary" inkscape:connector-curvature="0" />
	<path style="fill:none;stroke:red;stroke-width:1px;stroke-linecap:butt;stroke-linejoin:miter;stroke-opacity:1" d="M 361.747,377.425 373.149,387.402 z" id="boundary" inkscape:connector-curvature="0" />
	<path style="fill:none;stroke:red;stroke-width:1px;stroke-linecap:butt;stroke-linejoin:miter;stroke-opacity:1" d="M 367.448,79.5402 381.701,76.6897 z" id="boundary" inkscape:connector-curvature="0" />
	<path style="fill:none;stroke:red;stroke-width:1px;stroke-linecap:butt;stroke-linejoin:miter;stroke-opacity:1" d="M 373.149,387.402 385.977,394.529 z" id="boundary" inkscape:connector-curvature="0" />
	<path style="fill:none;stroke:red;stroke-width:1px;stroke-linecap:butt;stroke-linejoin:miter;stroke-opacity:1" d="M 381.701,76.6897 395.954,69.5632 z" id="boundary" inkscape:connector-curvature="0" />
	<path style="fill:none;stroke:red;stroke-width:1px;stroke-linecap:butt;stroke-linejoin:miter;stroke-opacity:1" d="M 385.977,394.529 398.805,401.655 z" id="boundary" inkscape:connector-curvature="0" />
	<path style="fill:none;stroke:red;stroke-width:1px;stroke-linecap:butt;stroke-linejoin:miter;stroke-opacity:1" d="M 395.954,69.5632 407.356,58.1609 z" id="boundary" inkscape:connector-curvature="0" />
	<path style="fill:none;stroke:red;stroke-width:1px;stroke-linecap:butt;stroke-linejoin:miter;stroke-opacity:1" d="M 397.379,316.138 400.23,330.391 z" id="boundary" inkscape:connector-curvature="0" />
	<path style="fill:none;stroke:red;stroke-width:1px;stroke-linecap:butt;stroke-linejoin:miter;stroke-opacity:1" d="M 397.379,316.138 408.782,306.161 z" id="boundary" inkscape:connector-curvature="0" />
	<path style="fill:none;stroke:red;stroke-width:1px;stroke-linecap:butt;stroke-linejoin:miter;stroke-opacity:1" d="M 398.805,401.655 411.632,408.782 z" id="boundary" inkscape:connector-curvature="0" />
	<path style="fill:none;stroke:red;stroke-width:1px;stroke-linecap:butt;stroke-linejoin:miter;stroke-opacity:1" d="M 400.23,330.391 404.506,344.644 z" id="boundary" inkscape:connector-curvature="0" />
	<path style="fill:none;stroke:red;stroke-width:1px;stroke-linecap:butt;stroke-linejoin:miter;stroke-opacity:1" d="M 404.506,344.644 411.632,357.471 z" id="boundary" inkscape:connector-curvature="0" />
	<path style="fill:none;stroke:red;stroke-width:1px;stroke-linecap:butt;stroke-linejoin:miter;stroke-opacity:1" d="M 407.356,58.1609 421.609,51.0345 z" id="boundary" inkscape:connector-curvature="0" />
	<path style="fill:none;stroke:red;stroke-width:1px;stroke-linecap:butt;stroke-linejoin:miter;stroke-opacity:1" d="M 408.782,306.161 423.034,301.885 z" id="boundary" inkscape:connector-curvature="0" />
	<path style="fill:none;stroke:red;stroke-width:1px;stroke-linecap:butt;stroke-linejoin:miter;stroke-opacity:1" d="M 411.632,357.471 418.759,370.299 z" id="boundary" inkscape:connector-curvature="0" />
	<path style="fill:none;stroke:red;stroke-width:1px;stroke-linecap:butt;stroke-linejoin:miter;stroke-opacity:1" d="M 411.632,408.782 423.034,398.805 z" id="boundary" inkscape:connector-curvature="0" />
	<path style="fill:none;stroke:red;stroke-width:1px;stroke-linecap:butt;stroke-linejoin:miter;stroke-opacity:1" d="M 418.759,370.299 418.759,384.552 z" id="boundary" inkscape:connector-curvature="0" />
	<path style="fill:none;stroke:red;stroke-width:1px;stroke-linecap:butt;stroke-linejoin:miter;stroke-opacity:1" d="M 418.759,384.552 423.034,398.805 z" id="boundary" inkscape:connector-curvature="0" />
	<path style="fill:none;stroke:red;stroke-width:1px;stroke-linecap:butt;stroke-linejoin:miter;stroke-opacity:1" d="M 421.609,51.0345 431.586,33.931 z" id="boundary" inkscape:connector-curvature="0" />
	<path style="fill:none;stroke:red;stroke-width:1px;stroke-linecap:butt;stroke-linejoin:miter;stroke-opacity:1" d="M 423.034,301.885 437.287,301.885 z" id="boundary" inkscape:connector-curvature="0" />
	<path style="fill:none;stroke:red;stroke-width:1px;stroke-linecap:butt;stroke-linejoin:miter;stroke-opacity:1" d="M 431.586,33.931 442.989,22.5287 z" id="boundary" inkscape:connector-curvature="0" />
	<path style="fill:none;stroke:red;stroke-width:1px;stroke-linecap:butt;stroke-linejoin:miter;stroke-opacity:1" d="M 437.287,301.885 451.54,301.885 z" id="boundary" inkscape:connector-curvature="0" />
	<path style="fill:none;stroke:red;stroke-width:1px;stroke-linecap:butt;stroke-linejoin:miter;stroke-opacity:1" d="M 442.989,22.5287 454.391,11.1264 z" id="boundary" inkscape:connector-curvature="0" />
	<path style="fill:none;stroke:red;stroke-width:1px;stroke-linecap:butt;stroke-linejoin:miter;stroke-opacity:1" d="M 451.54,301.885 464.368,294.759 z" id="boundary" inkscape:connector-curvature="0" />
	<path style="fill:none;stroke:red;stroke-width:1px;stroke-linecap:butt;stroke-linejoin:miter;stroke-opacity:1" d="M 454.391,11.1264 468.644,4 z" id="boundary" inkscape:connector-curvature="0" />
	<path style="fill:none;stroke:red;stroke-width:1px;stroke-linecap:butt;stroke-linejoin:miter;stroke-opacity:1" d="M 464.368,294.759 478.621,293.333 z" id="boundary" inkscape:connector-curvature="0" />
	<path style="fill:none;stroke:red;stroke-width:1px;stroke-linecap:butt;stroke-linejoin:miter;stroke-opacity:1" d="M 468.644,4 482.897,5.42529 z" id="boundary" inkscape:connector-curvature="0" />
	<path style="fill:none;stroke:red;stroke-width:1px;stroke-linecap:butt;stroke-linejoin:miter;stroke-opacity:1" d="M 478.621,293.333 492.874,287.632 z" id="boundary" inkscape:connector-curvature="0" />
	<path style="fill:none;stroke:red;stroke-width:1px;stroke-linecap:butt;stroke-linejoin:miter;stroke-opacity:1" d="M 482.897,5.42529 488.598,19.6782 z" id="boundary" inkscape:connector-curvature="0" />
	<path style="fill:none;stroke:red;stroke-width:1px;stroke-linecap:butt;stroke-linejoin:miter;stroke-opacity:1" d="M 488.598,19.6782 490.023,33.931 z" id="boundary" inkscape:connector-curvature="0" />
	<path style="fill:none;stroke:red;stroke-width:1px;stroke-linecap:butt;stroke-linejoin:miter;stroke-opacity:1" d="M 490.023,33.931 495.724,48.1839 z" id="boundary" inkscape:connector-curvature="0" />
	<path style="fill:none;stroke:red;stroke-width:1px;stroke-linecap:butt;stroke-linejoin:miter;stroke-opacity:1" d="M 492.874,287.632 507.126,287.632 z" id="boundary" inkscape:connector-curvature="0" />
	<path style="fill:none;stroke:red;stroke-width:1px;stroke-linecap:butt;stroke-linejoin:miter;stroke-opacity:1" d="M 495.724,48.1839 502.851,61.0115 z" id="boundary" inkscape:connector-curvature="0" />
	<path style="fill:none;stroke:red;stroke-width:1px;stroke-linecap:butt;stroke-linejoin:miter;stroke-opacity:1" d="M 502.851,61.0115 508.552,75.2644 z" id="boundary" inkscape:connector-curvature="0" />
	<path style="fill:none;stroke:red;stroke-width:1px;stroke-linecap:butt;stroke-linejoin:miter;stroke-opacity:1" d="M 507.126,287.632 519.954,280.506 z" id="boundary" inkscape:connector-curvature="0" />
	<path style="fill:none;stroke:red;stroke-width:1px;stroke-linecap:butt;stroke-linejoin:miter;stroke-opacity:1" d="M 508.552,75.2644 515.678,88.092 z" id="boundary" inkscape:connector-curvature="0" />
	<path style="fill:none;stroke:red;stroke-width:1px;stroke-linecap:butt;stroke-linejoin:miter;stroke-opacity:1" d="M 515.678,88.092 525.655,99.4943 z" id="boundary" inkscape:connector-curvature="0" />
	<path style="fill:none;stroke:red;stroke-width:1px;stroke-linecap:butt;stroke-linejoin:miter;stroke-opacity:1" d="M 519.954,280.506 534.207,280.506 z" id="boundary" inkscape:connector-curvature="0" />
	<path style="fill:none;stroke:red;stroke-width:1px;stroke-linecap:butt;stroke-linejoin:miter;stroke-opacity:1" d="M 525.655,99.4943 532.782,112.322 z" id="boundary" inkscape:connector-curvature="0" />
	<path style="fill:none;stroke:red;stroke-width:1px;stroke-linecap:butt;stroke-linejoin:miter;stroke-opacity:1" d="M 532.782,112.322 547.034,115.172 z" id="boundary" inkscape:connector-curvature="0" />
	<path style="fill:none;stroke:red;stroke-width:1px;stroke-linecap:butt;stroke-linejoin:miter;stroke-opacity:1" d="M 534.207,280.506 547.034,273.379 z" id="boundary" inkscape:connector-curvature="0" />
	<path style="fill:none;stroke:red;stroke-width:1px;stroke-linecap:butt;stroke-linejoin:miter;stroke-opacity:1" d="M 547.034,115.172 559.862,122.299 z" id="boundary" inkscape:connector-curvature="0" />
	<path style="fill:none;stroke:red;stroke-width:1px;stroke-linecap:butt;stroke-linejoin:miter;stroke-opacity:1" d="M 547.034,273.379 561.287,273.379 z" id="boundary" inkscape:connector-curvature="0" />
	<path style="fill:none;stroke:red;stroke-width:1px;stroke-linecap:butt;stroke-linejoin:miter;stroke-opacity:1" d="M 559.862,122.299 574.115,122.299 z" id="boundary" inkscape:connector-curvature="0" />
	<path style="fill:none;stroke:red;stroke-width:1px;stroke-linecap:butt;stroke-linejoin:miter;stroke-opacity:1" d="M 561.287,273.379 574.115,266.253 z" id="boundary" inkscape:connector-curvature="0" />
	<path style="fill:none;stroke:red;stroke-width:1px;stroke-linecap:butt;stroke-linejoin:miter;stroke-opacity:1" d="M 574.115,122.299 588.368,122.299 z" id="boundary" inkscape:connector-curvature="0" />
	<path style="fill:none;stroke:red;stroke-width:1px;stroke-linecap:butt;stroke-linejoin:miter;stroke-opacity:1" d="M 574.115,266.253 586.943,273.379 z" id="boundary" inkscape:connector-curvature="0" />
	<path style="fill:none;stroke:red;stroke-width:1px;stroke-linecap:butt;stroke-linejoin:miter;stroke-opacity:1" d="M 586.943,273.379 601.195,273.379 z" id="boundary" inkscape:connector-curvature="0" />
	<path style="fill:none;stroke:red;stroke-width:1px;stroke-linecap:butt;stroke-linejoin:miter;stroke-opacity:1" d="M 588.368,122.299 601.195,129.425 z" id="boundary" inkscape:connector-curvature="0" />
	<path style="fill:none;stroke:red;stroke-width:1px;stroke-linecap:butt;stroke-linejoin:miter;stroke-opacity:1" d="M 601.195,129.425 615.448,129.425 z" id="boundary" inkscape:connector-curvature="0" />
	<path style="fill:none;stroke:red;stroke-width:1px;stroke-linecap:butt;stroke-linejoin:miter;stroke-opacity:1" d="M 601.195,273.379 611.172,284.782 z" id="boundary" inkscape:connector-curvature="0" />
	<path style="fill:none;stroke:red;stroke-width:1px;stroke-linecap:butt;stroke-linejoin:miter;stroke-opacity:1" d="M 611.172,284.782 625.425,287.632 z" id="boundary" inkscape:connector-curvature="0" />
	<path style="fill:none;stroke:red;stroke-width:1px;stroke-linecap:butt;stroke-linejoin:miter;stroke-opacity:1" d="M 615.448,129.425 628.276,136.552 z" id="boundary" inkscape:connector-curvature="0" />
	<path style="fill:none;stroke:red;stroke-width:1px;stroke-linecap:butt;stroke-linejoin:miter;stroke-opacity:1" d="M 625.425,287.632 636.828,277.655 z" id="boundary" inkscape:connector-curvature="0" />
	<path style="fill:none;stroke:red;stroke-width:1px;stroke-linecap:butt;stroke-linejoin:miter;stroke-opacity:1" d="M 628.276,136.552 642.529,136.552 z" id="boundary" inkscape:connector-curvature="0" />
	<path style="fill:none;stroke:red;stroke-width:1px;stroke-linecap:butt;stroke-linejoin:miter;stroke-opacity:1" d="M 636.828,277.655 643.954,263.402 z" id="boundary" inkscape:connector-curvature="0" />
	<path style="fill:none;stroke:red;stroke-width:1px;stroke-linecap:butt;stroke-linejoin:miter;stroke-opacity:1" d="M 642.529,136.552 656.782,136.552 z" id="boundary" inkscape:connector-curvature="0" />
	<path style="fill:none;stroke:red;stroke-width:1px;stroke-linecap:butt;stroke-linejoin:miter;stroke-opacity:1" d="M 643.954,263.402 653.931,244.874 z" id="boundary" inkscape:connector-curvature="0" />
	<path style="fill:none;stroke:red;stroke-width:1px;stroke-linecap:butt;stroke-linejoin:miter;stroke-opacity:1" d="M 653.931,244.874 668.184,237.747 z" id="boundary" inkscape:connector-curvature="0" />
	<path style="fill:none;stroke:red;stroke-width:1px;stroke-linecap:butt;stroke-linejoin:miter;stroke-opacity:1" d="M 656.782,136.552 669.609,143.678 z" id="boundary" inkscape:connector-curvature="0" />
	<path style="fill:none;stroke:red;stroke-width:1px;stroke-linecap:butt;stroke-linejoin:miter;stroke-opacity:1" d="M 668.184,237.747 682.437,237.747 z" id="boundary" inkscape:connector-curvature="0" />
	<path style="fill:none;stroke:red;stroke-width:1px;stroke-linecap:butt;stroke-linejoin:miter;stroke-opacity:1" d="M 669.609,143.678 683.862,143.678 z" id="boundary" inkscape:connector-curvature="0" />
	<path style="fill:none;stroke:red;stroke-width:1px;stroke-linecap:butt;stroke-linejoin:miter;stroke-opacity:1" d="M 682.437,237.747 696.69,230.621 z" id="boundary" inkscape:connector-curvature="0" />
	<path style="fill:none;stroke:red;stroke-width:1px;stroke-linecap:butt;stroke-linejoin:miter;stroke-opacity:1" d="M 683.862,143.678 698.115,143.678 z" id="boundary" inkscape:connector-curvature="0" />
	<path style="fill:none;stroke:red;stroke-width:1px;stroke-linecap:butt;stroke-linejoin:miter;stroke-opacity:1" d="M 696.69,230.621 709.517,237.747 z" id="boundary" inkscape:connector-curvature="0" />
	<path style="fill:none;stroke:red;stroke-width:1px;stroke-linecap:butt;stroke-linejoin:miter;stroke-opacity:1" d="M 698.115,143.678 712.368,137.977 z" id="boundary" inkscape:connector-curvature="0" />
	<path style="fill:none;stroke:red;stroke-width:1px;stroke-linecap:butt;stroke-linejoin:miter;stroke-opacity:1" d="M 709.517,237.747 723.77,237.747 z" id="boundary" inkscape:connector-curvature="0" />
	<path style="fill:none;stroke:red;stroke-width:1px;stroke-linecap:butt;stroke-linejoin:miter;stroke-opacity:1" d="M 712.368,137.977 726.621,143.678 z" id="boundary" inkscape:connector-curvature="0" />
	<path style="fill:none;stroke:red;stroke-width:1px;stroke-linecap:butt;stroke-linejoin:miter;stroke-opacity:1" d="M 723.77,237.747 738.023,237.747 z" id="boundary" inkscape:connector-curvature="0" />
	<path style="fill:none;stroke:red;stroke-width:1px;stroke-linecap:butt;stroke-linejoin:miter;stroke-opacity:1" d="M 726.621,143.678 732.322,157.931 z" id="boundary" inkscape:connector-curvature="0" />
	<path style="fill:none;stroke:red;stroke-width:1px;stroke-linecap:butt;stroke-linejoin:miter;stroke-opacity:1" d="M 732.322,157.931 745.149,165.057 z" id="boundary" inkscape:connector-curvature="0" />
	<path style="fill:none;stroke:red;stroke-width:1px;stroke-linecap:butt;stroke-linejoin:miter;stroke-opacity:1" d="M 738.023,237.747 749.425,229.195 z" id="boundary" inkscape:connector-curvature="0" />
	<path style="fill:none;stroke:red;stroke-width:1px;stroke-linecap:butt;stroke-linejoin:miter;stroke-opacity:1" d="M 745.149,165.057 757.977,172.184 z" id="boundary" inkscape:connector-curvature="0" />
	<path style="fill:none;stroke:red;stroke-width:1px;stroke-linecap:butt;stroke-linejoin:miter;stroke-opacity:1" d="M 749.425,229.195 760.828,216.368 z" id="boundary" inkscape:connector-curvature="0" />
	<path style="fill:none;stroke:red;stroke-width:1px;stroke-linecap:butt;stroke-linejoin:miter;stroke-opacity:1" d="M 757.977,172.184 772.23,172.184 z" id="boundary" inkscape:connector-curvature="0" />
	<path style="fill:none;stroke:red;stroke-width:1px;stroke-linecap:butt;stroke-linejoin:miter;stroke-opacity:1" d="M 760.828,216.368 775.08,216.368 z" id="boundary" inkscape:connector-curvature="0" />
	<path style="fill:none;stroke:red;stroke-width:1px;stroke-linecap:butt;stroke-linejoin:miter;stroke-opacity:1" d="M 772.23,172.184 786.483,172.184 z" id="boundary" inkscape:connector-curvature="0" />
	<path style="fill:none;stroke:red;stroke-width:1px;stroke-linecap:butt;stroke-linejoin:miter;stroke-opacity:1" d="M 775.08,216.368 789.333,216.368 z" id="boundary" inkscape:connector-curvature="0" />
	<path style="fill:none;stroke:red;stroke-width:1px;stroke-linecap:butt;stroke-linejoin:miter;stroke-opacity:1" d="M 786.483,172.184 800.736,172.184 z" id="boundary" inkscape:connector-curvature="0" />
	<path style="fill:none;stroke:red;stroke-width:1px;stroke-linecap:butt;stroke-linejoin:miter;stroke-opacity:1" d="M 789.333,216.368 802.161,223.494 z" id="boundary" inkscape:connector-curvature="0" />
	<path style="fill:none;stroke:red;stroke-width:1px;stroke-linecap:butt;stroke-linejoin:miter;stroke-opacity:1" d="M 800.736,172.184 810.713,160.782 z" id="boundary" inkscape:connector-curvature="0" />
	<path style="fill:none;stroke:red;stroke-width:1px;stroke-linecap:butt;stroke-linejoin:miter;stroke-opacity:1" d="M 802.161,223.494 810.713,234.897 z" id="boundary" inkscape:connector-curvature="0" />
	<path style="fill:none;stroke:red;stroke-width:1px;stroke-linecap:butt;stroke-linejoin:miter;stroke-opacity:1" d="M 810.713,160.782 822.115,150.805 z" id="boundary" inkscape:connector-curvature="0" />
	<path style="fill:none;stroke:red;stroke-width:1px;stroke-linecap:butt;stroke-linejoin:miter;stroke-opacity:1" d="M 810.713,234.897 817.839,247.724 z" id="boundary" inkscape:connector-curvature="0" />
	<path style="fill:none;stroke:red;stroke-width:1px;stroke-linecap:butt;stroke-linejoin:miter;stroke-opacity:1" d="M 817.839,247.724 827.816,259.126 z" id="boundary" inkscape:connector-curvature="0" />
	<path style="fill:none;stroke:red;stroke-width:1px;stroke-linecap:butt;stroke-linejoin:miter;stroke-opacity:1" d="M 822.115,150.805 832.092,139.402 z" id="boundary" inkscape:connector-curvature="0" />
	<path style="fill:none;stroke:red;stroke-width:1px;stroke-linecap:butt;stroke-linejoin:miter;stroke-opacity:1" d="M 827.816,259.126 839.218,269.103 z" id="boundary" inkscape:connector-curvature="0" />
	<path style="fill:none;stroke:red;stroke-width:1px;stroke-linecap:butt;stroke-linejoin:miter;stroke-opacity:1" d="M 832.092,139.402 843.494,129.425 z" id="boundary" inkscape:connector-curvature="0" />
	<path style="fill:none;stroke:red;stroke-width:1px;stroke-linecap:butt;stroke-linejoin:miter;stroke-opacity:1" d="M 839.218,269.103 849.195,280.506 z" id="boundary" inkscape:connector-curvature="0" />
	<path style="fill:none;stroke:red;stroke-width:1px;stroke-linecap:butt;stroke-linejoin:miter;stroke-opacity:1" d="M 843.494,129.425 856.322,122.299 z" id="boundary" inkscape:connector-curvature="0" />
	<path style="fill:none;stroke:red;stroke-width:1px;stroke-linecap:butt;stroke-linejoin:miter;stroke-opacity:1" d="M 849.195,280.506 856.322,293.333 z" id="boundary" inkscape:connector-curvature="0" />
	<path style="fill:none;stroke:red;stroke-width:1px;stroke-linecap:butt;stroke-linejoin:miter;stroke-opacity:1" d="M 856.322,122.299 867.724,110.897 z" id="boundary" inkscape:connector-curvature="0" />
	<path style="fill:none;stroke:red;stroke-width:1px;stroke-linecap:butt;stroke-linejoin:miter;stroke-opacity:1" d="M 856.322,293.333 866.299,304.736 z" id="boundary" inkscape:connector-curvature="0" />
	<path style="fill:none;stroke:red;stroke-width:1px;stroke-linecap:butt;stroke-linejoin:miter;stroke-opacity:1" d="M 866.299,304.736 877.701,314.713 z" id="boundary" inkscape:connector-curvature="0" />
	<path style="fill:none;stroke:red;stroke-width:1px;stroke-linecap:butt;stroke-linejoin:miter;stroke-opacity:1" d="M 867.724,110.897 879.126,100.92 z" id="boundary" inkscape:connector-curvature="0" />
	<path style="fill:none;stroke:red;stroke-width:1px;stroke-linecap:butt;stroke-linejoin:miter;stroke-opacity:1" d="M 877.701,314.713 889.103,323.264 z" id="boundary" inkscape:connector-curvature="0" />
	<path style="fill:none;stroke:red;stroke-width:1px;stroke-linecap:butt;stroke-linejoin:miter;stroke-opacity:1" d="M 879.126,100.92 891.954,93.7931 z" id="boundary" inkscape:connector-curvature="0" />
	<path style="fill:none;stroke:red;stroke-width:1px;stroke-linecap:butt;stroke-linejoin:miter;stroke-opacity:1" d="M 889.103,323.264 901.931,330.391 z" id="boundary" inkscape:connector-curvature="0" />
	<path style="fill:none;stroke:red;stroke-width:1px;stroke-linecap:butt;stroke-linejoin:miter;stroke-opacity:1" d="M 891.954,93.7931 904.782,86.6667 z" id="boundary" inkscape:connector-curvature="0" />
	<path style="fill:none;stroke:red;stroke-width:1px;stroke-linecap:butt;stroke-linejoin:miter;stroke-opacity:1" d="M 901.931,330.391 916.184,330.391 z" id="boundary" inkscape:connector-curvature="0" />
	<path style="fill:none;stroke:red;stroke-width:1px;stroke-linecap:butt;stroke-linejoin:miter;stroke-opacity:1" d="M 903.356,209.241 903.356,223.494 z" id="boundary" inkscape:connector-curvature="0" />
	<path style="fill:none;stroke:red;stroke-width:1px;stroke-linecap:butt;stroke-linejoin:miter;stroke-opacity:1" d="M 903.356,209.241 910.483,187.862 z" id="boundary" inkscape:connector-curvature="0" />
	<path style="fill:none;stroke:red;stroke-width:1px;stroke-linecap:butt;stroke-linejoin:miter;stroke-opacity:1" d="M 903.356,223.494 910.483,236.322 z" id="boundary" inkscape:connector-curvature="0" />
	<path style="fill:none;stroke:red;stroke-width:1px;stroke-linecap:butt;stroke-linejoin:miter;stroke-opacity:1" d="M 904.782,86.6667 917.609,79.5402 z" id="boundary" inkscape:connector-curvature="0" />
	<path style="fill:none;stroke:red;stroke-width:1px;stroke-linecap:butt;stroke-linejoin:miter;stroke-opacity:1" d="M 910.483,187.862 917.609,173.609 z" id="boundary" inkscape:connector-curvature="0" />
	<path style="fill:none;stroke:red;stroke-width:1px;stroke-linecap:butt;stroke-linejoin:miter;stroke-opacity:1" d="M 910.483,236.322 910.483,250.575 z" id="boundary" inkscape:connector-curvature="0" />
	<path style="fill:none;stroke:red;stroke-width:1px;stroke-linecap:butt;stroke-linejoin:miter;stroke-opacity:1" d="M 910.483,250.575 917.609,263.402 z" id="boundary" inkscape:connector-curvature="0" />
	<path style="fill:none;stroke:red;stroke-width:1px;stroke-linecap:butt;stroke-linejoin:miter;stroke-opacity:1" d="M 916.184,330.391 929.011,337.517 z" id="boundary" inkscape:connector-curvature="0" />
	<path style="fill:none;stroke:red;stroke-width:1px;stroke-linecap:butt;stroke-linejoin:miter;stroke-opacity:1" d="M 917.609,79.5402 930.437,72.4138 z" id="boundary" inkscape:connector-curvature="0" />
	<path style="fill:none;stroke:red;stroke-width:1px;stroke-linecap:butt;stroke-linejoin:miter;stroke-opacity:1" d="M 917.609,173.609 929.011,163.632 z" id="boundary" inkscape:connector-curvature="0" />
	<path style="fill:none;stroke:red;stroke-width:1px;stroke-linecap:butt;stroke-linejoin:miter;stroke-opacity:1" d="M 917.609,263.402 917.609,277.655 z" id="boundary" inkscape:connector-curvature="0" />
	<path style="fill:none;stroke:red;stroke-width:1px;stroke-linecap:butt;stroke-linejoin:miter;stroke-opacity:1" d="M 917.609,277.655 924.736,290.483 z" id="boundary" inkscape:connector-curvature="0" />
	<path style="fill:none;stroke:red;stroke-width:1px;stroke-linecap:butt;stroke-linejoin:miter;stroke-opacity:1" d="M 924.736,290.483 930.437,304.736 z" id="boundary" inkscape:connector-curvature="0" />
	<path style="fill:none;stroke:red;stroke-width:1px;stroke-linecap:butt;stroke-linejoin:miter;stroke-opacity:1" d="M 929.011,163.632 936.138,149.379 z" id="boundary" inkscape:connector-curvature="0" />
	<path style="fill:none;stroke:red;stroke-width:1px;stroke-linecap:butt;stroke-linejoin:miter;stroke-opacity:1" d="M 929.011,337.517 931.862,318.989 z" id="boundary" inkscape:connector-curvature="0" />
	<path style="fill:none;stroke:red;stroke-width:1px;stroke-linecap:butt;stroke-linejoin:miter;stroke-opacity:1" d="M 930.437,72.4138 943.264,65.2874 z" id="boundary" inkscape:connector-curvature="0" />
	<path style="fill:none;stroke:red;stroke-width:1px;stroke-linecap:butt;stroke-linejoin:miter;stroke-opacity:1" d="M 930.437,304.736 931.862,318.989 z" id="boundary" inkscape:connector-curvature="0" />
	<path style="fill:none;stroke:red;stroke-width:1px;stroke-linecap:butt;stroke-linejoin:miter;stroke-opacity:1" d="M 936.138,149.379 943.264,135.126 z" id="boundary" inkscape:connector-curvature="0" />
	<path style="fill:none;stroke:red;stroke-width:1px;stroke-linecap:butt;stroke-linejoin:miter;stroke-opacity:1" d="M 943.264,65.2874 957.517,65.2874 z" id="boundary" inkscape:connector-curvature="0" />
	<path style="fill:none;stroke:red;stroke-width:1px;stroke-linecap:butt;stroke-linejoin:miter;stroke-opacity:1" d="M 943.264,135.126 953.241,116.598 z" id="boundary" inkscape:connector-curvature="0" />
	<path style="fill:none;stroke:red;stroke-width:1px;stroke-linecap:butt;stroke-linejoin:miter;stroke-opacity:1" d="M 953.241,116.598 967.494,109.471 z" id="boundary" inkscape:connector-curvature="0" />
	<path style="fill:none;stroke:red;stroke-width:1px;stroke-linecap:butt;stroke-linejoin:miter;stroke-opacity:1" d="M 957.517,65.2874 970.345,58.1609 z" id="boundary" inkscape:connector-curvature="0" />
	<path style="fill:none;stroke:red;stroke-width:1px;stroke-linecap:butt;stroke-linejoin:miter;stroke-opacity:1" d="M 967.494,109.471 978.897,99.4943 z" id="boundary" inkscape:connector-curvature="0" />
	<path style="fill:none;stroke:red;stroke-width:1px;stroke-linecap:butt;stroke-linejoin:miter;stroke-opacity:1" d="M 970.345,58.1609 984.598,58.1609 z" id="boundary" inkscape:connector-curvature="0" />
	<path style="fill:none;stroke:red;stroke-width:1px;stroke-linecap:butt;stroke-linejoin:miter;stroke-opacity:1" d="M 978.897,99.4943 988.874,88.092 z" id="boundary" inkscape:connector-curvature="0" />
	<path style="fill:none;stroke:red;stroke-width:1px;stroke-linecap:butt;stroke-linejoin:miter;stroke-opacity:1" d="M 984.598,58.1609 996,66.7126 z" id="boundary" inkscape:connector-curvature="0" />
	<path style="fill:none;stroke:red;stroke-width:1px;stroke-linecap:butt;stroke-linejoin:miter;stroke-opacity:1" d="M 988.874,88.092 996,66.7126 z" id="boundary" inkscape:connector-curvature="0" />
	<circle cx="4" cy="155.08" r="4" fill="#0" id="circle0"/>
	<circle cx="4" cy="169.333" r="4" fill="#0" id="circle1"/>
	<circle cx="15.4023" cy="143.678" r="4" fill="#0" id="circle2"/>
	<circle cx="15.4023" cy="179.31" r="4" fill="#0" id="circle3"/>
	<circle cx="28.2299" cy="186.437" r="4" fill="#0" id="circle4"/>
	<circle cx="29.6552" cy="136.552" r="4" fill="#0" id="circle5"/>
	<circle cx="42.4828" cy="192.138" r="4" fill="#0" id="circle6"/>
	<circle cx="43.908" cy="129.425" r="4" fill="#0" id="circle7"/>
	<circle cx="55.3103" cy="199.264" r="4" fill="#0" id="circle8"/>
	<circle cx="58.1609" cy="129.425" r="4" fill="#0" id="circle9"/>
	<circle cx="69.5632" cy="204.966" r="4" fill="#0" id="circle10"/>
	<circle cx="70.9885" cy="122.299" r="4" fill="#0" id="circle11"/>
	<circle cx="79.5402" cy="216.368" r="4" fill="#0" id="circle12"/>
	<circle cx="85.2414" cy="116.598" r="4" fill="#0" id="circle13"/>
	<circle cx="92.3678" cy="223.494" r="4" fill="#0" id="circle14"/>
	<circle cx="99.4943" cy="115.172" r="4" fill="#0" id="circle15"/>
	<circle cx="105.195" cy="230.621" r="4" fill="#0" id="circle16"/>
	<circle cx="113.747" cy="109.471" r="4" fill="#0" id="circle17"/>
	<circle cx="118.023" cy="237.747" r="4" fill="#0" id="circle18"/>
	<circle cx="128" cy="108.046" r="4" fill="#0" id="circle19"/>
	<circle cx="132.276" cy="237.747" r="4" fill="#0" id="circle20"/>
	<circle cx="142.253" cy="102.345" r="4" fill="#0" id="circle21"/>
	<circle cx="145.103" cy="244.874" r="4" fill="#0" id="circle22"/>
	<circle cx="156.506" cy="100.92" r="4" fill="#0" id="circle23"/>
	<circle cx="157.931" cy="252" r="4" fill="#0" id="circle24"/>
	<circle cx="170.759" cy="100.92" r="4" fill="#0" id="circle25"/>
	<circle cx="172.184" cy="252" r="4" fill="#0" id="circle26"/>
	<circle cx="185.011" cy="100.92" r="4" fill="#0" id="circle27"/>
	<circle cx="185.011" cy="259.126" r="4" fill="#0" id="circle28"/>
	<circle cx="199.264" cy="95.2184" r="4" fill="#0" id="circle29"/>
	<circle cx="199.264" cy="263.402" r="4" fill="#0" id="circle30"/>
	<circle cx="213.517" cy="93.7931" r="4" fill="#0" id="circle31"/>
	<circle cx="213.517" cy="266.253" r="4" fill="#0" id="circle32"/>
	<circle cx="226.345" cy="86.6667" r="4" fill="#0" id="circle33"/>
	<circle cx="227.77" cy="270.529" r="4" fill="#0" id="circle34"/>
	<circle cx="240.598" cy="86.6667" r="4" fill="#0" id="circle35"/>
	<circle cx="242.023" cy="273.379" r="4" fill="#0" id="circle36"/>
	<circle cx="254.851" cy="86.6667" r="4" fill="#0" id="circle37"/>
	<circle cx="254.851" cy="280.506" r="4" fill="#0" id="circle38"/>
	<circle cx="269.103" cy="86.6667" r="4" fill="#0" id="circle39"/>
	<circle cx="269.103" cy="283.356" r="4" fill="#0" id="circle40"/>
	<circle cx="281.931" cy="79.5402" r="4" fill="#0" id="circle41"/>
	<circle cx="281.931" cy="290.483" r="4" fill="#0" id="circle42"/>
	<circle cx="293.333" cy="300.46" r="4" fill="#0" id="circle43"/>
	<circle cx="296.184" cy="79.5402" r="4" fill="#0" id="circle44"/>
	<circle cx="303.31" cy="311.862" r="4" fill="#0" id="circle45"/>
	<circle cx="310.437" cy="79.5402" r="4" fill="#0" id="circle46"/>
	<circle cx="310.437" cy="324.69" r="4" fill="#0" id="circle47"/>
	<circle cx="320.414" cy="336.092" r="4" fill="#0" id="circle48"/>
	<circle cx="324.69" cy="79.5402" r="4" fill="#0" id="circle49"/>
	<circle cx="331.816" cy="344.644" r="4" fill="#0" id="circle50"/>
	<circle cx="338.943" cy="79.5402" r="4" fill="#0" id="circle51"/>
	<circle cx="340.368" cy="356.046" r="4" fill="#0" id="circle52"/>
	<circle cx="351.77" cy="366.023" r="4" fill="#0" id="circle53"/>
	<circle cx="353.195" cy="79.5402" r="4" fill="#0" id="circle54"/>
	<circle cx="361.747" cy="377.425" r="4" fill="#0" id="circle55"/>
	<circle cx="367.448" cy="79.5402" r="4" fill="#0" id="circle56"/>
	<circle cx="373.149" cy="387.402" r="4" fill="#0" id="circle57"/>
	<circle cx="381.701" cy="76.6897" r="4" fill="#0" id="circle58"/>
	<circle cx="385.977" cy="394.529" r="4" fill="#0" id="circle59"/>
	<circle cx="395.954" cy="69.5632" r="4" fill="#0" id="circle60"/>
	<circle cx="397.379" cy="316.138" r="4" fill="#0" id="circle61"/>
	<circle cx="398.805" cy="401.655" r="4" fill="#0" id="circle62"/>
	<circle cx="400.23" cy="330.391" r="4" fill="#0" id="circle63"/>
	<circle cx="404.506" cy="344.644" r="4" fill="#0" id="circle64"/>
	<circle cx="407.356" cy="58.1609" r="4" fill="#0" id="circle65"/>
	<circle cx="408.782" cy="306.161" r="4" fill="#0" id="circle66"/>
	<circle cx="411.632" cy="357.471" r="4" fill="#0" id="circle67"/>
	<circle cx="411.632" cy="408.782" r="4" fill="#0" id="circle68"/>
	<circle cx="418.759" cy="370.299" r="4" fill="#0" id="circle69"/>
	<circle cx="418.759" cy="384.552" r="4" fill="#0" id="circle70"/>
	<circle cx="421.609" cy="51.0345" r="4" fill="#0" id="circle71"/>
	<circle cx="423.034" cy="301.885" r="4" fill="#0" id="circle72"/>
	<circle cx="423.034" cy="398.805" r="4" fill="#0" id="circle73"/>
	<circle cx="431.586" cy="33.931" r="4" fill="#0" id="circle74"/>
	<circle cx="437.287" cy="301.885" r="4" fill="#0" id="circle75"/>
	<circle cx="442.989" cy="22.5287" r="4" fill="#0" id="circle76"/>
	<circle cx="451.54" cy="301.885" r="4" fill="#0" id="circle77"/>
	<circle cx="454.391" cy="11.1264" r="4" fill="#0" id="circle78"/>
	<circle cx="464.368" cy="294.759" r="4" fill="#0" id="circle79"/>
	<circle cx="468.644" cy="4" r="4" fill="#0" id="circle80"/>
	<circle cx="478.621" cy="293.333" r="4" fill="#0" id="circle81"/>
	<circle cx="482.897" cy="5.42529" r="4" fill="#0" id="circle82"/>
	<circle cx="488.598" cy="19.6782" r="4" fill="#0" id="circle83"/>
	<circle cx="490.023" cy="33.931" r="4" fill="#0" id="circle84"/>
	<circle cx="492.874" cy="287.632" r="4" fill="#0" id="circle85"/>
	<circle cx="495.724" cy="48.1839" r="4" fill="#0" id="circle86"/>
	<circle cx="502.851" cy="61.0115" r="4" fill="#0" id="circle87"/>
	<circle cx="507.126" cy="287.632" r="4" fill="#0" id="circle88"/>
	<circle cx="508.552" cy="75.2644" r="4" fill="#0" id="circle89"/>
	<circle cx="515.678" cy="88.092" r="4" fill="#0" id="circle90"/>
	<circle cx="519.954" cy="280.506" r="4" fill="#0" id="circle91"/>
	<circle cx="525.655" cy="99.4943" r="4" fill="#0" id="circle92"/>
	<circle cx="532.782" cy="112.322" r="4" fill="#0" id="circle93"/>
	<circle cx="534.207" cy="280.506" r="4" fill="#0" id="circle94"/>
	<circle cx="547.034" cy="115.172" r="4" fill="#0" id="circle95"/>
	<circle cx="547.034" cy="273.379" r="4" fill="#0" id="circle96"/>
	<circle cx="559.862" cy="122.299" r="4" fill="#0" id="circle97"/>
	<circle cx="561.287" cy="273.379" r="4" fill="#0" id="circle98"/>
	<circle cx="574.115" cy="122.299" r="4" fill="#0" id="circle99"/>
	<circle cx="574.115" cy="266.253" r="4" fill="#0" id="circle100"/>
	<circle cx="586.943" cy="273.379" r="4" fill="#0" id="circle101"/>
	<circle cx="588.368" cy="122.299" r="4" fill="#0" id="circle102"/>
	<circle cx="601.195" cy="129.425" r="4" fill="#0" id="circle103"/>
	<circle cx="601.195" cy="273.379" r="4" fill="#0" id="circle104"/>
	<circle cx="611.172" cy="284.782" r="4" fill="#0" id="circle105"/>
	<circle cx="615.448" cy="129.425" r="4" fill="#0" id="circle106"/>
	<circle cx="625.425" cy="287.632" r="4" fill="#0" id="circle107"/>
	<circle cx="628.276" cy="136.552" r="4" fill="#0" id="circle108"/>
	<circle cx="636.828" cy="277.655" r="4" fill="#0" id="circle109"/>
	<circle cx="642.529" cy="136.552" r="4" fill="#0" id="circle110"/>
	<circle cx="643.954" cy="263.402" r="4" fill="#0" id="circle111"/>
	<circle cx="653.931" cy="244.874" r="4" fill="#0" id="circle112"/>
	<circle cx="656.782" cy="136.552" r="4" fill="#0" id="circle113"/>
	<circle cx="668.184" cy="237.747" r="4" fill="#0" id="circle114"/>
	<circle cx="669.609" cy="143.678" r="4" fill="#0" id="circle115"/>
	<circle cx="682.437" cy="237.747" r="4" fill="#0" id="circle116"/>
	<circle cx="683.862" cy="143.678" r="4" fill="#0" id="circle117"/>
	<circle cx="696.69" cy="230.621" r="4" fill="#0" id="circle118"/>
	<circle cx="698.115" cy="143.678" r="4" fill="#0" id="circle119"/>
	<circle cx="709.517" cy="237.747" r="4" fill="#0" id="circle120"/>
	<circle cx="712.368" cy="137.977" r="4" fill="#0" id="circle121"/>
	<circle cx="723.77" cy="237.747" r="4" fill="#0" id="circle122"/>
	<circle cx="726.621" cy="143.678" r="4" fill="#0" id="circle123"/>
	<circle cx="732.322" cy="157.931" r="4" fill="#0" id="circle124"/>
	<circle cx="738.023" cy="237.747" r="4" fill="#0" id="circle125"/>
	<circle cx="745.149" cy="165.057" r="4" fill="#0" id="circle126"/>
	<circle cx="749.425" cy="229.195" r="4" fill="#0" id="circle127"/>
	<circle cx="757.977" cy="172.184" r="4" fill="#0" id="circle128"/>
	<circle cx="760.828" cy="216.368" r="4" fill="#0" id="circle129"/>
	<circle cx="772.23" cy="172.184" r="4" fill="#0" id="circle130"/>
	<circle cx="775.08" cy="216.368" r="4" fill="#0" id="circle131"/>
	<circle cx="786.483" cy="172.184" r="4" fill="#0" id="circle132"/>
	<circle cx="789.333" cy="216.368" r="4" fill="#0" id="circle133"/>
	<circle cx="800.736" cy="172.184" r="4" fill="#0" id="circle134"/>
	<circle cx="802.161" cy="223.494" r="4" fill="#0" id="circle135"/>
	<circle cx="810.713" cy="160.782" r="4" fill="#0" id="circle136"/>
	<circle cx="810.713" cy="234.897" r="4" fill="#0" id="circle137"/>
	<circle cx="817.839" cy="247.724" r="4" fill="#0" id="circle138"/>
	<circle cx="822.115" cy="150.805" r="4" fill="#0" id="circle139"/>
	<circle cx="827.816" cy="259.126" r="4" fill="#0" id="circle140"/>
	<circle cx="832.092" cy="139.402" r="4" fill="#0" id="circle141"/>
	<circle cx="839.218" cy="269.103" r="4" fill="#0" id="circle142"/>
	<circle cx="843.494" cy="129.425" r="4" fill="#0" id="circle143"/>
	<circle cx="849.195" cy="280.506" r="4" fill="#0" id="circle144"/>
	<circle cx="856.322" cy="122.299" r="4" fill="#0" id="circle145"/>
	<circle cx="856.322" cy="293.333" r="4" fill="#0" id="circle146"/>
	<circle cx="866.299" cy="304.736" r="4" fill="#0" id="circle147"/>
	<circle cx="867.724" cy="110.897" r="4" fill="#0" id="circle148"/>
	<circle cx="877.701" cy="314.713" r="4" fill="#0" id="circle149"/>
	<circle cx="879.126" cy="100.92" r="4" fill="#0" id="circle150"/>
	<circle cx="889.103" cy="323.264" r="4" fill="#0" id="circle151"/>
	<circle cx="891.954" cy="93.7931" r="4" fill="#0" id="circle152"/>
	<circle cx="901.931" cy="330.391" r="4" fill="#0" id="circle153"/>
	<circle cx="903.356" cy="209.241" r="4" fill="#0" id="circle154"/>
	<circle cx="903.356" cy="223.494" r="4" fill="#0" id="circle155"/>
	<circle cx="904.782" cy="86.6667" r="4" fill="#0" id="circle156"/>
	<circle cx="910.483" cy="187.862" r="4" fill="#0" id="circle157"/>
	<circle cx="910.483" cy="236.322" r="4" fill="#0" id="circle158"/>
	<circle cx="910.483" cy="250.575" r="4" fill="#0" id="circle159"/>
	<circle cx="916.184" cy="330.391" r="4" fill="#0" id="circle160"/>
	<circle cx="917.609" cy="79.5402" r="4" fill="#0" id="circle161"/>
	<circle cx="917.609" cy="173.609" r="4" fill="#0" id="circle162"/>
	<circle cx="917.609" cy="263.402" r="4" fill="#0" id="circle163"/>
	<circle cx="917.609" cy="277.655" r="4" fill="#0" id="circle164"/>
	<circle cx="924.736" cy="290.483" r="4" fill="#0" id="circle165"/>
	<circle cx="929.011" cy="163.632" r="4" fill="#0" id="circle166"/>
	<circle cx="929.011" cy="337.517" r="4" fill="#0" id="circle167"/>
	<circle cx="930.437" cy="72.4138" r="4" fill="#0" id="circle168"/>
	<circle cx="930.437" cy="304.736" r="4" fill="#0" id="circle169"/>
	<circle cx="931.862" cy="318.989" r="4" fill="#0" id="circle170"/>
	<circle cx="936.138" cy="149.379" r="4" fill="#0" id="circle171"/>
	<circle cx="943.264" cy="65.2874" r="4" fill="#0" id="circle172"/>
	<circle cx="943.264" cy="135.126" r="4" fill="#0" id="circle173"/>
	<circle cx="953.241" cy="116.598" r="4" fill="#0" id="circle174"/>
	<circle cx="957.517" cy="65.2874" r="4" fill="#0" id="circle175"/>
	<circle cx="967.494" cy="109.471" r="4" fill="#0" id="circle176"/>
	<circle cx="970.345" cy="58.1609" r="4" fill="#0" id="circle177"/>
	<circle cx="978.897" cy="99.4943" r="4" fill="#0" id="circle178"/>
	<circle cx="984.598" cy="58.1609" r="4" fill="#0" id="circle179"/>
	<circle cx="988.874" cy="88.092" r="4" fill="#0" id="circle180"/>
	<circle cx="996" cy="66.7126" r="4" fill="#0" id="circle181"/>
	</g>
</svg>