<?xml version="1.0" encoding="UTF-8" standalone="no"?>
<!-- Created with CurveBenchmark -->
<svg
	xmlns:dc="http://purl.org/dc/elements/1.1/"
	xmlns:cc="http://creativecommons.org/ns#"
	xmlns:rdf="http://www.w3.org/1999/02/22-rdf-syntax-ns#"
	xmlns:svg="http://www.w3.org/2000/svg"
	xmlns="http://www.w3.org/2000/svg"
	xmlns:sodipodi="http://sodipodi.sourceforge.net/DTD/sodipodi-0.dtd"
	xmlns:inkscape="http://www.inkscape.org/namespaces/inkscape"
	width="1000"
	height="1000"
	id="svg2"
	version="1.1"
	sodipodi:docname="manifold/discur-tree-16.png.txt">
<defs
	id="defs4" />
<metadata
	id="metadata7">
	<rdf:RDF>
		<cc:Work
			rdf:about="">
			<dc:format>image/svg+xml</dc:format>
			<dc:type
				rdf:resource="http://purl.org/dc/dcmitype/StillImage" />
			<dc:title></dc:title>
		</cc:Work>
	</rdf:RDF>
</metadata>
<g
	inkscape:label="Layer 1"
	inkscape:groupmode="layer"
	id="layer1">
	<path style="fill:none;stroke:red;stroke-width:1px;stroke-linecap:butt;stroke-linejoin:miter;stroke-opacity:1" d="M 4,617.22 10.9982,610.222 z" id="boundary" inkscape:connector-curvature="0" />
	<path style="fill:none;stroke:red;stroke-width:1px;stroke-linecap:butt;stroke-linejoin:miter;stroke-opacity:1" d="M 4,617.22 12.7478,619.845 z" id="boundary" inkscape:connector-curvature="0" />
	<path style="fill:none;stroke:red;stroke-width:1px;stroke-linecap:butt;stroke-linejoin:miter;stroke-opacity:1" d="M 10.9982,610.222 19.746,605.848 z" id="boundary" inkscape:connector-curvature="0" />
	<path style="fill:none;stroke:red;stroke-width:1px;stroke-linecap:butt;stroke-linejoin:miter;stroke-opacity:1" d="M 12.7478,619.845 21.4956,619.845 z" id="boundary" inkscape:connector-curvature="0" />
	<path style="fill:none;stroke:red;stroke-width:1px;stroke-linecap:butt;stroke-linejoin:miter;stroke-opacity:1" d="M 17.1217,429.143 21.4956,420.395 z" id="boundary" inkscape:connector-curvature="0" />
	<path style="fill:none;stroke:red;stroke-width:1px;stroke-linecap:butt;stroke-linejoin:miter;stroke-opacity:1" d="M 17.1217,429.143 25.8695,431.767 z" id="boundary" inkscape:connector-curvature="0" />
	<path style="fill:none;stroke:red;stroke-width:1px;stroke-linecap:butt;stroke-linejoin:miter;stroke-opacity:1" d="M 19.746,605.848 28.4938,601.474 z" id="boundary" inkscape:connector-curvature="0" />
	<path style="fill:none;stroke:red;stroke-width:1px;stroke-linecap:butt;stroke-linejoin:miter;stroke-opacity:1" d="M 21.4956,420.395 30.2434,416.021 z" id="boundary" inkscape:connector-curvature="0" />
	<path style="fill:none;stroke:red;stroke-width:1px;stroke-linecap:butt;stroke-linejoin:miter;stroke-opacity:1" d="M 21.4956,619.845 30.2434,619.845 z" id="boundary" inkscape:connector-curvature="0" />
	<path style="fill:none;stroke:red;stroke-width:1px;stroke-linecap:butt;stroke-linejoin:miter;stroke-opacity:1" d="M 25.8695,431.767 34.6173,431.767 z" id="boundary" inkscape:connector-curvature="0" />
	<path style="fill:none;stroke:red;stroke-width:1px;stroke-linecap:butt;stroke-linejoin:miter;stroke-opacity:1" d="M 28.4938,601.474 35.4921,594.476 z" id="boundary" inkscape:connector-curvature="0" />
	<path style="fill:none;stroke:red;stroke-width:1px;stroke-linecap:butt;stroke-linejoin:miter;stroke-opacity:1" d="M 30.2434,416.021 37.2416,409.023 z" id="boundary" inkscape:connector-curvature="0" />
	<path style="fill:none;stroke:red;stroke-width:1px;stroke-linecap:butt;stroke-linejoin:miter;stroke-opacity:1" d="M 30.2434,619.845 38.9912,619.845 z" id="boundary" inkscape:connector-curvature="0" />
	<path style="fill:none;stroke:red;stroke-width:1px;stroke-linecap:butt;stroke-linejoin:miter;stroke-opacity:1" d="M 34.6173,210.448 43.3651,206.074 z" id="boundary" inkscape:connector-curvature="0" />
	<path style="fill:none;stroke:red;stroke-width:1px;stroke-linecap:butt;stroke-linejoin:miter;stroke-opacity:1" d="M 34.6173,431.767 43.3651,429.143 z" id="boundary" inkscape:connector-curvature="0" />
	<path style="fill:none;stroke:red;stroke-width:1px;stroke-linecap:butt;stroke-linejoin:miter;stroke-opacity:1" d="M 35.4921,594.476 42.4903,588.353 z" id="boundary" inkscape:connector-curvature="0" />
	<path style="fill:none;stroke:red;stroke-width:1px;stroke-linecap:butt;stroke-linejoin:miter;stroke-opacity:1" d="M 37.2416,409.023 44.2399,402.025 z" id="boundary" inkscape:connector-curvature="0" />
	<path style="fill:none;stroke:red;stroke-width:1px;stroke-linecap:butt;stroke-linejoin:miter;stroke-opacity:1" d="M 38.9912,619.845 47.739,619.845 z" id="boundary" inkscape:connector-curvature="0" />
	<path style="fill:none;stroke:red;stroke-width:1px;stroke-linecap:butt;stroke-linejoin:miter;stroke-opacity:1" d="M 42.4903,588.353 55.612,575.231 z" id="boundary" inkscape:connector-curvature="0" />
	<path style="fill:none;stroke:red;stroke-width:1px;stroke-linecap:butt;stroke-linejoin:miter;stroke-opacity:1" d="M 43.3651,206.074 48.6138,213.072 z" id="boundary" inkscape:connector-curvature="0" />
	<path style="fill:none;stroke:red;stroke-width:1px;stroke-linecap:butt;stroke-linejoin:miter;stroke-opacity:1" d="M 43.3651,429.143 52.1129,427.393 z" id="boundary" inkscape:connector-curvature="0" />
	<path style="fill:none;stroke:red;stroke-width:1px;stroke-linecap:butt;stroke-linejoin:miter;stroke-opacity:1" d="M 44.2399,402.025 51.2381,395.901 z" id="boundary" inkscape:connector-curvature="0" />
	<path style="fill:none;stroke:red;stroke-width:1px;stroke-linecap:butt;stroke-linejoin:miter;stroke-opacity:1" d="M 47.739,619.845 56.4868,619.845 z" id="boundary" inkscape:connector-curvature="0" />
	<path style="fill:none;stroke:red;stroke-width:1px;stroke-linecap:butt;stroke-linejoin:miter;stroke-opacity:1" d="M 48.6138,213.072 57.3616,213.072 z" id="boundary" inkscape:connector-curvature="0" />
	<path style="fill:none;stroke:red;stroke-width:1px;stroke-linecap:butt;stroke-linejoin:miter;stroke-opacity:1" d="M 51.2381,395.901 59.1111,391.527 z" id="boundary" inkscape:connector-curvature="0" />
	<path style="fill:none;stroke:red;stroke-width:1px;stroke-linecap:butt;stroke-linejoin:miter;stroke-opacity:1" d="M 52.1129,201.7 60.8607,197.326 z" id="boundary" inkscape:connector-curvature="0" />
	<path style="fill:none;stroke:red;stroke-width:1px;stroke-linecap:butt;stroke-linejoin:miter;stroke-opacity:1" d="M 52.1129,427.393 60.8607,424.769 z" id="boundary" inkscape:connector-curvature="0" />
	<path style="fill:none;stroke:red;stroke-width:1px;stroke-linecap:butt;stroke-linejoin:miter;stroke-opacity:1" d="M 55.612,575.231 60.8607,564.734 z" id="boundary" inkscape:connector-curvature="0" />
	<path style="fill:none;stroke:red;stroke-width:1px;stroke-linecap:butt;stroke-linejoin:miter;stroke-opacity:1" d="M 56.4868,619.845 65.2346,619.845 z" id="boundary" inkscape:connector-curvature="0" />
	<path style="fill:none;stroke:red;stroke-width:1px;stroke-linecap:butt;stroke-linejoin:miter;stroke-opacity:1" d="M 57.3616,213.072 66.1093,213.072 z" id="boundary" inkscape:connector-curvature="0" />
	<path style="fill:none;stroke:red;stroke-width:1px;stroke-linecap:butt;stroke-linejoin:miter;stroke-opacity:1" d="M 59.1111,391.527 66.1093,384.529 z" id="boundary" inkscape:connector-curvature="0" />
	<path style="fill:none;stroke:red;stroke-width:1px;stroke-linecap:butt;stroke-linejoin:miter;stroke-opacity:1" d="M 60.8607,197.326 69.6085,194.702 z" id="boundary" inkscape:connector-curvature="0" />
	<path style="fill:none;stroke:red;stroke-width:1px;stroke-linecap:butt;stroke-linejoin:miter;stroke-opacity:1" d="M 60.8607,424.769 69.6085,420.395 z" id="boundary" inkscape:connector-curvature="0" />
	<path style="fill:none;stroke:red;stroke-width:1px;stroke-linecap:butt;stroke-linejoin:miter;stroke-opacity:1" d="M 60.8607,564.734 67.8589,557.735 z" id="boundary" inkscape:connector-curvature="0" />
	<path style="fill:none;stroke:red;stroke-width:1px;stroke-linecap:butt;stroke-linejoin:miter;stroke-opacity:1" d="M 65.2346,619.845 73.1076,624.219 z" id="boundary" inkscape:connector-curvature="0" />
	<path style="fill:none;stroke:red;stroke-width:1px;stroke-linecap:butt;stroke-linejoin:miter;stroke-opacity:1" d="M 66.1093,213.072 74.8571,208.698 z" id="boundary" inkscape:connector-curvature="0" />
	<path style="fill:none;stroke:red;stroke-width:1px;stroke-linecap:butt;stroke-linejoin:miter;stroke-opacity:1" d="M 66.1093,384.529 73.1076,378.406 z" id="boundary" inkscape:connector-curvature="0" />
	<path style="fill:none;stroke:red;stroke-width:1px;stroke-linecap:butt;stroke-linejoin:miter;stroke-opacity:1" d="M 67.8589,557.735 74.8571,550.737 z" id="boundary" inkscape:connector-curvature="0" />
	<path style="fill:none;stroke:red;stroke-width:1px;stroke-linecap:butt;stroke-linejoin:miter;stroke-opacity:1" d="M 69.6085,194.702 78.3563,192.952 z" id="boundary" inkscape:connector-curvature="0" />
	<path style="fill:none;stroke:red;stroke-width:1px;stroke-linecap:butt;stroke-linejoin:miter;stroke-opacity:1" d="M 69.6085,420.395 78.3563,418.646 z" id="boundary" inkscape:connector-curvature="0" />
	<path style="fill:none;stroke:red;stroke-width:1px;stroke-linecap:butt;stroke-linejoin:miter;stroke-opacity:1" d="M 73.1076,378.406 79.231,371.407 z" id="boundary" inkscape:connector-curvature="0" />
	<path style="fill:none;stroke:red;stroke-width:1px;stroke-linecap:butt;stroke-linejoin:miter;stroke-opacity:1" d="M 73.1076,624.219 81.8554,624.219 z" id="boundary" inkscape:connector-curvature="0" />
	<path style="fill:none;stroke:red;stroke-width:1px;stroke-linecap:butt;stroke-linejoin:miter;stroke-opacity:1" d="M 74.8571,208.698 83.6049,204.325 z" id="boundary" inkscape:connector-curvature="0" />
	<path style="fill:none;stroke:red;stroke-width:1px;stroke-linecap:butt;stroke-linejoin:miter;stroke-opacity:1" d="M 74.8571,550.737 79.231,541.989 z" id="boundary" inkscape:connector-curvature="0" />
	<path style="fill:none;stroke:red;stroke-width:1px;stroke-linecap:butt;stroke-linejoin:miter;stroke-opacity:1" d="M 78.3563,192.952 87.1041,188.578 z" id="boundary" inkscape:connector-curvature="0" />
	<path style="fill:none;stroke:red;stroke-width:1px;stroke-linecap:butt;stroke-linejoin:miter;stroke-opacity:1" d="M 78.3563,418.646 87.1041,416.021 z" id="boundary" inkscape:connector-curvature="0" />
	<path style="fill:none;stroke:red;stroke-width:1px;stroke-linecap:butt;stroke-linejoin:miter;stroke-opacity:1" d="M 79.231,371.407 86.2293,365.284 z" id="boundary" inkscape:connector-curvature="0" />
	<path style="fill:none;stroke:red;stroke-width:1px;stroke-linecap:butt;stroke-linejoin:miter;stroke-opacity:1" d="M 79.231,541.989 83.6049,533.242 z" id="boundary" inkscape:connector-curvature="0" />
	<path style="fill:none;stroke:red;stroke-width:1px;stroke-linecap:butt;stroke-linejoin:miter;stroke-opacity:1" d="M 81.8554,624.219 90.6032,624.219 z" id="boundary" inkscape:connector-curvature="0" />
	<path style="fill:none;stroke:red;stroke-width:1px;stroke-linecap:butt;stroke-linejoin:miter;stroke-opacity:1" d="M 83.6049,204.325 92.3527,204.325 z" id="boundary" inkscape:connector-curvature="0" />
	<path style="fill:none;stroke:red;stroke-width:1px;stroke-linecap:butt;stroke-linejoin:miter;stroke-opacity:1" d="M 83.6049,533.242 90.6032,527.118 z" id="boundary" inkscape:connector-curvature="0" />
	<path style="fill:none;stroke:red;stroke-width:1px;stroke-linecap:butt;stroke-linejoin:miter;stroke-opacity:1" d="M 86.2293,365.284 89.7284,356.536 z" id="boundary" inkscape:connector-curvature="0" />
	<path style="fill:none;stroke:red;stroke-width:1px;stroke-linecap:butt;stroke-linejoin:miter;stroke-opacity:1" d="M 87.1041,188.578 95.8519,184.205 z" id="boundary" inkscape:connector-curvature="0" />
	<path style="fill:none;stroke:red;stroke-width:1px;stroke-linecap:butt;stroke-linejoin:miter;stroke-opacity:1" d="M 87.1041,416.021 95.8519,414.272 z" id="boundary" inkscape:connector-curvature="0" />
	<path style="fill:none;stroke:red;stroke-width:1px;stroke-linecap:butt;stroke-linejoin:miter;stroke-opacity:1" d="M 89.7284,356.536 91.478,346.039 z" id="boundary" inkscape:connector-curvature="0" />
	<path style="fill:none;stroke:red;stroke-width:1px;stroke-linecap:butt;stroke-linejoin:miter;stroke-opacity:1" d="M 90.6032,527.118 95.8519,516.621 z" id="boundary" inkscape:connector-curvature="0" />
	<path style="fill:none;stroke:red;stroke-width:1px;stroke-linecap:butt;stroke-linejoin:miter;stroke-opacity:1" d="M 90.6032,624.219 99.351,624.219 z" id="boundary" inkscape:connector-curvature="0" />
	<path style="fill:none;stroke:red;stroke-width:1px;stroke-linecap:butt;stroke-linejoin:miter;stroke-opacity:1" d="M 91.478,346.039 98.4762,339.041 z" id="boundary" inkscape:connector-curvature="0" />
	<path style="fill:none;stroke:red;stroke-width:1px;stroke-linecap:butt;stroke-linejoin:miter;stroke-opacity:1" d="M 92.3527,204.325 101.101,204.325 z" id="boundary" inkscape:connector-curvature="0" />
	<path style="fill:none;stroke:red;stroke-width:1px;stroke-linecap:butt;stroke-linejoin:miter;stroke-opacity:1" d="M 95.8519,184.205 104.6,179.831 z" id="boundary" inkscape:connector-curvature="0" />
	<path style="fill:none;stroke:red;stroke-width:1px;stroke-linecap:butt;stroke-linejoin:miter;stroke-opacity:1" d="M 95.8519,414.272 104.6,411.647 z" id="boundary" inkscape:connector-curvature="0" />
	<path style="fill:none;stroke:red;stroke-width:1px;stroke-linecap:butt;stroke-linejoin:miter;stroke-opacity:1" d="M 95.8519,516.621 100.226,507.873 z" id="boundary" inkscape:connector-curvature="0" />
	<path style="fill:none;stroke:red;stroke-width:1px;stroke-linecap:butt;stroke-linejoin:miter;stroke-opacity:1" d="M 98.4762,339.041 100.226,324.169 z" id="boundary" inkscape:connector-curvature="0" />
	<path style="fill:none;stroke:red;stroke-width:1px;stroke-linecap:butt;stroke-linejoin:miter;stroke-opacity:1" d="M 99.351,624.219 108.099,624.219 z" id="boundary" inkscape:connector-curvature="0" />
	<path style="fill:none;stroke:red;stroke-width:1px;stroke-linecap:butt;stroke-linejoin:miter;stroke-opacity:1" d="M 100.226,324.169 104.6,315.422 z" id="boundary" inkscape:connector-curvature="0" />
	<path style="fill:none;stroke:red;stroke-width:1px;stroke-linecap:butt;stroke-linejoin:miter;stroke-opacity:1" d="M 100.226,507.873 114.222,493.877 z" id="boundary" inkscape:connector-curvature="0" />
	<path style="fill:none;stroke:red;stroke-width:1px;stroke-linecap:butt;stroke-linejoin:miter;stroke-opacity:1" d="M 101.101,204.325 109.848,204.325 z" id="boundary" inkscape:connector-curvature="0" />
	<path style="fill:none;stroke:red;stroke-width:1px;stroke-linecap:butt;stroke-linejoin:miter;stroke-opacity:1" d="M 104.6,179.831 113.347,175.457 z" id="boundary" inkscape:connector-curvature="0" />
	<path style="fill:none;stroke:red;stroke-width:1px;stroke-linecap:butt;stroke-linejoin:miter;stroke-opacity:1" d="M 104.6,315.422 111.598,308.423 z" id="boundary" inkscape:connector-curvature="0" />
	<path style="fill:none;stroke:red;stroke-width:1px;stroke-linecap:butt;stroke-linejoin:miter;stroke-opacity:1" d="M 104.6,411.647 113.347,409.898 z" id="boundary" inkscape:connector-curvature="0" />
	<path style="fill:none;stroke:red;stroke-width:1px;stroke-linecap:butt;stroke-linejoin:miter;stroke-opacity:1" d="M 108.099,624.219 115.972,628.593 z" id="boundary" inkscape:connector-curvature="0" />
	<path style="fill:none;stroke:red;stroke-width:1px;stroke-linecap:butt;stroke-linejoin:miter;stroke-opacity:1" d="M 109.848,204.325 117.721,199.951 z" id="boundary" inkscape:connector-curvature="0" />
	<path style="fill:none;stroke:red;stroke-width:1px;stroke-linecap:butt;stroke-linejoin:miter;stroke-opacity:1" d="M 111.598,308.423 115.972,299.675 z" id="boundary" inkscape:connector-curvature="0" />
	<path style="fill:none;stroke:red;stroke-width:1px;stroke-linecap:butt;stroke-linejoin:miter;stroke-opacity:1" d="M 113.347,175.457 120.346,168.459 z" id="boundary" inkscape:connector-curvature="0" />
	<path style="fill:none;stroke:red;stroke-width:1px;stroke-linecap:butt;stroke-linejoin:miter;stroke-opacity:1" d="M 113.347,409.898 122.095,409.898 z" id="boundary" inkscape:connector-curvature="0" />
	<path style="fill:none;stroke:red;stroke-width:1px;stroke-linecap:butt;stroke-linejoin:miter;stroke-opacity:1" d="M 114.222,493.877 118.596,485.129 z" id="boundary" inkscape:connector-curvature="0" />
	<path style="fill:none;stroke:red;stroke-width:1px;stroke-linecap:butt;stroke-linejoin:miter;stroke-opacity:1" d="M 115.972,299.675 120.346,290.928 z" id="boundary" inkscape:connector-curvature="0" />
	<path style="fill:none;stroke:red;stroke-width:1px;stroke-linecap:butt;stroke-linejoin:miter;stroke-opacity:1" d="M 115.972,628.593 124.72,628.593 z" id="boundary" inkscape:connector-curvature="0" />
	<path style="fill:none;stroke:red;stroke-width:1px;stroke-linecap:butt;stroke-linejoin:miter;stroke-opacity:1" d="M 117.721,199.951 126.469,199.951 z" id="boundary" inkscape:connector-curvature="0" />
	<path style="fill:none;stroke:red;stroke-width:1px;stroke-linecap:butt;stroke-linejoin:miter;stroke-opacity:1" d="M 118.596,485.129 125.594,479.005 z" id="boundary" inkscape:connector-curvature="0" />
	<path style="fill:none;stroke:red;stroke-width:1px;stroke-linecap:butt;stroke-linejoin:miter;stroke-opacity:1" d="M 120.346,168.459 128.219,164.085 z" id="boundary" inkscape:connector-curvature="0" />
	<path style="fill:none;stroke:red;stroke-width:1px;stroke-linecap:butt;stroke-linejoin:miter;stroke-opacity:1" d="M 120.346,290.928 124.72,282.18 z" id="boundary" inkscape:connector-curvature="0" />
	<path style="fill:none;stroke:red;stroke-width:1px;stroke-linecap:butt;stroke-linejoin:miter;stroke-opacity:1" d="M 122.095,409.898 130.843,409.898 z" id="boundary" inkscape:connector-curvature="0" />
	<path style="fill:none;stroke:red;stroke-width:1px;stroke-linecap:butt;stroke-linejoin:miter;stroke-opacity:1" d="M 124.72,282.18 129.093,273.432 z" id="boundary" inkscape:connector-curvature="0" />
	<path style="fill:none;stroke:red;stroke-width:1px;stroke-linecap:butt;stroke-linejoin:miter;stroke-opacity:1" d="M 124.72,628.593 133.467,628.593 z" id="boundary" inkscape:connector-curvature="0" />
	<path style="fill:none;stroke:red;stroke-width:1px;stroke-linecap:butt;stroke-linejoin:miter;stroke-opacity:1" d="M 125.594,479.005 130.843,468.508 z" id="boundary" inkscape:connector-curvature="0" />
	<path style="fill:none;stroke:red;stroke-width:1px;stroke-linecap:butt;stroke-linejoin:miter;stroke-opacity:1" d="M 126.469,199.951 135.217,199.951 z" id="boundary" inkscape:connector-curvature="0" />
	<path style="fill:none;stroke:red;stroke-width:1px;stroke-linecap:butt;stroke-linejoin:miter;stroke-opacity:1" d="M 128.219,164.085 135.217,157.961 z" id="boundary" inkscape:connector-curvature="0" />
	<path style="fill:none;stroke:red;stroke-width:1px;stroke-linecap:butt;stroke-linejoin:miter;stroke-opacity:1" d="M 129.093,273.432 133.467,264.684 z" id="boundary" inkscape:connector-curvature="0" />
	<path style="fill:none;stroke:red;stroke-width:1px;stroke-linecap:butt;stroke-linejoin:miter;stroke-opacity:1" d="M 130.843,409.898 138.716,414.272 z" id="boundary" inkscape:connector-curvature="0" />
	<path style="fill:none;stroke:red;stroke-width:1px;stroke-linecap:butt;stroke-linejoin:miter;stroke-opacity:1" d="M 130.843,468.508 135.217,459.76 z" id="boundary" inkscape:connector-curvature="0" />
	<path style="fill:none;stroke:red;stroke-width:1px;stroke-linecap:butt;stroke-linejoin:miter;stroke-opacity:1" d="M 133.467,264.684 137.841,255.937 z" id="boundary" inkscape:connector-curvature="0" />
	<path style="fill:none;stroke:red;stroke-width:1px;stroke-linecap:butt;stroke-linejoin:miter;stroke-opacity:1" d="M 133.467,628.593 142.215,628.593 z" id="boundary" inkscape:connector-curvature="0" />
	<path style="fill:none;stroke:red;stroke-width:1px;stroke-linecap:butt;stroke-linejoin:miter;stroke-opacity:1" d="M 135.217,157.961 150.088,146.589 z" id="boundary" inkscape:connector-curvature="0" />
	<path style="fill:none;stroke:red;stroke-width:1px;stroke-linecap:butt;stroke-linejoin:miter;stroke-opacity:1" d="M 135.217,199.951 143.09,204.325 z" id="boundary" inkscape:connector-curvature="0" />
	<path style="fill:none;stroke:red;stroke-width:1px;stroke-linecap:butt;stroke-linejoin:miter;stroke-opacity:1" d="M 135.217,459.76 139.591,451.012 z" id="boundary" inkscape:connector-curvature="0" />
	<path style="fill:none;stroke:red;stroke-width:1px;stroke-linecap:butt;stroke-linejoin:miter;stroke-opacity:1" d="M 137.841,255.937 142.215,247.189 z" id="boundary" inkscape:connector-curvature="0" />
	<path style="fill:none;stroke:red;stroke-width:1px;stroke-linecap:butt;stroke-linejoin:miter;stroke-opacity:1" d="M 138.716,414.272 143.965,421.27 z" id="boundary" inkscape:connector-curvature="0" />
	<path style="fill:none;stroke:red;stroke-width:1px;stroke-linecap:butt;stroke-linejoin:miter;stroke-opacity:1" d="M 139.591,451.012 143.965,438.765 z" id="boundary" inkscape:connector-curvature="0" />
	<path style="fill:none;stroke:red;stroke-width:1px;stroke-linecap:butt;stroke-linejoin:miter;stroke-opacity:1" d="M 142.215,247.189 146.589,238.441 z" id="boundary" inkscape:connector-curvature="0" />
	<path style="fill:none;stroke:red;stroke-width:1px;stroke-linecap:butt;stroke-linejoin:miter;stroke-opacity:1" d="M 142.215,628.593 150.963,632.092 z" id="boundary" inkscape:connector-curvature="0" />
	<path style="fill:none;stroke:red;stroke-width:1px;stroke-linecap:butt;stroke-linejoin:miter;stroke-opacity:1" d="M 143.09,204.325 148.339,211.323 z" id="boundary" inkscape:connector-curvature="0" />
	<path style="fill:none;stroke:red;stroke-width:1px;stroke-linecap:butt;stroke-linejoin:miter;stroke-opacity:1" d="M 143.965,421.27 143.965,430.018 z" id="boundary" inkscape:connector-curvature="0" />
	<path style="fill:none;stroke:red;stroke-width:1px;stroke-linecap:butt;stroke-linejoin:miter;stroke-opacity:1" d="M 143.965,430.018 143.965,438.765 z" id="boundary" inkscape:connector-curvature="0" />
	<path style="fill:none;stroke:red;stroke-width:1px;stroke-linecap:butt;stroke-linejoin:miter;stroke-opacity:1" d="M 146.589,238.441 148.339,228.818 z" id="boundary" inkscape:connector-curvature="0" />
	<path style="fill:none;stroke:red;stroke-width:1px;stroke-linecap:butt;stroke-linejoin:miter;stroke-opacity:1" d="M 148.339,211.323 148.339,220.071 z" id="boundary" inkscape:connector-curvature="0" />
	<path style="fill:none;stroke:red;stroke-width:1px;stroke-linecap:butt;stroke-linejoin:miter;stroke-opacity:1" d="M 148.339,220.071 148.339,228.818 z" id="boundary" inkscape:connector-curvature="0" />
	<path style="fill:none;stroke:red;stroke-width:1px;stroke-linecap:butt;stroke-linejoin:miter;stroke-opacity:1" d="M 150.088,146.589 157.086,140.466 z" id="boundary" inkscape:connector-curvature="0" />
	<path style="fill:none;stroke:red;stroke-width:1px;stroke-linecap:butt;stroke-linejoin:miter;stroke-opacity:1" d="M 150.963,632.092 158.836,636.466 z" id="boundary" inkscape:connector-curvature="0" />
	<path style="fill:none;stroke:red;stroke-width:1px;stroke-linecap:butt;stroke-linejoin:miter;stroke-opacity:1" d="M 157.086,140.466 164.085,133.467 z" id="boundary" inkscape:connector-curvature="0" />
	<path style="fill:none;stroke:red;stroke-width:1px;stroke-linecap:butt;stroke-linejoin:miter;stroke-opacity:1" d="M 158.836,636.466 167.584,637.34 z" id="boundary" inkscape:connector-curvature="0" />
	<path style="fill:none;stroke:red;stroke-width:1px;stroke-linecap:butt;stroke-linejoin:miter;stroke-opacity:1" d="M 164.085,133.467 171.083,126.469 z" id="boundary" inkscape:connector-curvature="0" />
	<path style="fill:none;stroke:red;stroke-width:1px;stroke-linecap:butt;stroke-linejoin:miter;stroke-opacity:1" d="M 167.584,637.34 176.332,639.965 z" id="boundary" inkscape:connector-curvature="0" />
	<path style="fill:none;stroke:red;stroke-width:1px;stroke-linecap:butt;stroke-linejoin:miter;stroke-opacity:1" d="M 171.083,126.469 178.081,120.346 z" id="boundary" inkscape:connector-curvature="0" />
	<path style="fill:none;stroke:red;stroke-width:1px;stroke-linecap:butt;stroke-linejoin:miter;stroke-opacity:1" d="M 176.332,639.965 183.33,646.088 z" id="boundary" inkscape:connector-curvature="0" />
	<path style="fill:none;stroke:red;stroke-width:1px;stroke-linecap:butt;stroke-linejoin:miter;stroke-opacity:1" d="M 178.081,120.346 184.205,113.347 z" id="boundary" inkscape:connector-curvature="0" />
	<path style="fill:none;stroke:red;stroke-width:1px;stroke-linecap:butt;stroke-linejoin:miter;stroke-opacity:1" d="M 183.33,646.088 183.33,654.836 z" id="boundary" inkscape:connector-curvature="0" />
	<path style="fill:none;stroke:red;stroke-width:1px;stroke-linecap:butt;stroke-linejoin:miter;stroke-opacity:1" d="M 183.33,654.836 185.954,663.584 z" id="boundary" inkscape:connector-curvature="0" />
	<path style="fill:none;stroke:red;stroke-width:1px;stroke-linecap:butt;stroke-linejoin:miter;stroke-opacity:1" d="M 184.205,113.347 191.203,107.224 z" id="boundary" inkscape:connector-curvature="0" />
	<path style="fill:none;stroke:red;stroke-width:1px;stroke-linecap:butt;stroke-linejoin:miter;stroke-opacity:1" d="M 185.954,663.584 187.704,672.332 z" id="boundary" inkscape:connector-curvature="0" />
	<path style="fill:none;stroke:red;stroke-width:1px;stroke-linecap:butt;stroke-linejoin:miter;stroke-opacity:1" d="M 187.704,672.332 190.328,681.079 z" id="boundary" inkscape:connector-curvature="0" />
	<path style="fill:none;stroke:red;stroke-width:1px;stroke-linecap:butt;stroke-linejoin:miter;stroke-opacity:1" d="M 190.328,681.079 192.078,689.827 z" id="boundary" inkscape:connector-curvature="0" />
	<path style="fill:none;stroke:red;stroke-width:1px;stroke-linecap:butt;stroke-linejoin:miter;stroke-opacity:1" d="M 191.203,107.224 194.702,98.4762 z" id="boundary" inkscape:connector-curvature="0" />
	<path style="fill:none;stroke:red;stroke-width:1px;stroke-linecap:butt;stroke-linejoin:miter;stroke-opacity:1" d="M 192.078,689.827 192.078,698.575 z" id="boundary" inkscape:connector-curvature="0" />
	<path style="fill:none;stroke:red;stroke-width:1px;stroke-linecap:butt;stroke-linejoin:miter;stroke-opacity:1" d="M 192.078,698.575 192.078,707.323 z" id="boundary" inkscape:connector-curvature="0" />
	<path style="fill:none;stroke:red;stroke-width:1px;stroke-linecap:butt;stroke-linejoin:miter;stroke-opacity:1" d="M 192.078,707.323 192.078,716.071 z" id="boundary" inkscape:connector-curvature="0" />
	<path style="fill:none;stroke:red;stroke-width:1px;stroke-linecap:butt;stroke-linejoin:miter;stroke-opacity:1" d="M 192.078,716.071 192.078,724.818 z" id="boundary" inkscape:connector-curvature="0" />
	<path style="fill:none;stroke:red;stroke-width:1px;stroke-linecap:butt;stroke-linejoin:miter;stroke-opacity:1" d="M 192.078,724.818 192.078,733.566 z" id="boundary" inkscape:connector-curvature="0" />
	<path style="fill:none;stroke:red;stroke-width:1px;stroke-linecap:butt;stroke-linejoin:miter;stroke-opacity:1" d="M 192.078,733.566 192.078,742.314 z" id="boundary" inkscape:connector-curvature="0" />
	<path style="fill:none;stroke:red;stroke-width:1px;stroke-linecap:butt;stroke-linejoin:miter;stroke-opacity:1" d="M 192.078,742.314 192.078,751.062 z" id="boundary" inkscape:connector-curvature="0" />
	<path style="fill:none;stroke:red;stroke-width:1px;stroke-linecap:butt;stroke-linejoin:miter;stroke-opacity:1" d="M 192.078,751.062 192.078,759.81 z" id="boundary" inkscape:connector-curvature="0" />
	<path style="fill:none;stroke:red;stroke-width:1px;stroke-linecap:butt;stroke-linejoin:miter;stroke-opacity:1" d="M 192.078,759.81 192.078,768.557 z" id="boundary" inkscape:connector-curvature="0" />
	<path style="fill:none;stroke:red;stroke-width:1px;stroke-linecap:butt;stroke-linejoin:miter;stroke-opacity:1" d="M 192.078,768.557 192.078,777.305 z" id="boundary" inkscape:connector-curvature="0" />
	<path style="fill:none;stroke:red;stroke-width:1px;stroke-linecap:butt;stroke-linejoin:miter;stroke-opacity:1" d="M 192.078,777.305 192.078,786.053 z" id="boundary" inkscape:connector-curvature="0" />
	<path style="fill:none;stroke:red;stroke-width:1px;stroke-linecap:butt;stroke-linejoin:miter;stroke-opacity:1" d="M 192.078,786.053 192.078,794.801 z" id="boundary" inkscape:connector-curvature="0" />
	<path style="fill:none;stroke:red;stroke-width:1px;stroke-linecap:butt;stroke-linejoin:miter;stroke-opacity:1" d="M 192.078,794.801 192.078,803.549 z" id="boundary" inkscape:connector-curvature="0" />
	<path style="fill:none;stroke:red;stroke-width:1px;stroke-linecap:butt;stroke-linejoin:miter;stroke-opacity:1" d="M 192.078,803.549 192.078,812.296 z" id="boundary" inkscape:connector-curvature="0" />
	<path style="fill:none;stroke:red;stroke-width:1px;stroke-linecap:butt;stroke-linejoin:miter;stroke-opacity:1" d="M 192.078,812.296 192.078,821.044 z" id="boundary" inkscape:connector-curvature="0" />
	<path style="fill:none;stroke:red;stroke-width:1px;stroke-linecap:butt;stroke-linejoin:miter;stroke-opacity:1" d="M 192.078,821.044 192.078,829.792 z" id="boundary" inkscape:connector-curvature="0" />
	<path style="fill:none;stroke:red;stroke-width:1px;stroke-linecap:butt;stroke-linejoin:miter;stroke-opacity:1" d="M 192.078,829.792 194.702,838.54 z" id="boundary" inkscape:connector-curvature="0" />
	<path style="fill:none;stroke:red;stroke-width:1px;stroke-linecap:butt;stroke-linejoin:miter;stroke-opacity:1" d="M 194.702,98.4762 200.825,87.9788 z" id="boundary" inkscape:connector-curvature="0" />
	<path style="fill:none;stroke:red;stroke-width:1px;stroke-linecap:butt;stroke-linejoin:miter;stroke-opacity:1" d="M 194.702,838.54 196.451,847.287 z" id="boundary" inkscape:connector-curvature="0" />
	<path style="fill:none;stroke:red;stroke-width:1px;stroke-linecap:butt;stroke-linejoin:miter;stroke-opacity:1" d="M 196.451,847.287 196.451,856.035 z" id="boundary" inkscape:connector-curvature="0" />
	<path style="fill:none;stroke:red;stroke-width:1px;stroke-linecap:butt;stroke-linejoin:miter;stroke-opacity:1" d="M 196.451,856.035 196.451,864.783 z" id="boundary" inkscape:connector-curvature="0" />
	<path style="fill:none;stroke:red;stroke-width:1px;stroke-linecap:butt;stroke-linejoin:miter;stroke-opacity:1" d="M 196.451,864.783 196.451,873.531 z" id="boundary" inkscape:connector-curvature="0" />
	<path style="fill:none;stroke:red;stroke-width:1px;stroke-linecap:butt;stroke-linejoin:miter;stroke-opacity:1" d="M 196.451,873.531 196.451,882.279 z" id="boundary" inkscape:connector-curvature="0" />
	<path style="fill:none;stroke:red;stroke-width:1px;stroke-linecap:butt;stroke-linejoin:miter;stroke-opacity:1" d="M 196.451,882.279 196.451,891.026 z" id="boundary" inkscape:connector-curvature="0" />
	<path style="fill:none;stroke:red;stroke-width:1px;stroke-linecap:butt;stroke-linejoin:miter;stroke-opacity:1" d="M 196.451,891.026 196.451,899.774 z" id="boundary" inkscape:connector-curvature="0" />
	<path style="fill:none;stroke:red;stroke-width:1px;stroke-linecap:butt;stroke-linejoin:miter;stroke-opacity:1" d="M 196.451,899.774 199.076,908.522 z" id="boundary" inkscape:connector-curvature="0" />
	<path style="fill:none;stroke:red;stroke-width:1px;stroke-linecap:butt;stroke-linejoin:miter;stroke-opacity:1" d="M 199.076,908.522 200.825,917.27 z" id="boundary" inkscape:connector-curvature="0" />
	<path style="fill:none;stroke:red;stroke-width:1px;stroke-linecap:butt;stroke-linejoin:miter;stroke-opacity:1" d="M 200.825,87.9788 205.199,79.231 z" id="boundary" inkscape:connector-curvature="0" />
	<path style="fill:none;stroke:red;stroke-width:1px;stroke-linecap:butt;stroke-linejoin:miter;stroke-opacity:1" d="M 200.825,917.27 205.199,925.143 z" id="boundary" inkscape:connector-curvature="0" />
	<path style="fill:none;stroke:red;stroke-width:1px;stroke-linecap:butt;stroke-linejoin:miter;stroke-opacity:1" d="M 205.199,79.231 209.573,70.4832 z" id="boundary" inkscape:connector-curvature="0" />
	<path style="fill:none;stroke:red;stroke-width:1px;stroke-linecap:butt;stroke-linejoin:miter;stroke-opacity:1" d="M 205.199,925.143 205.199,933.891 z" id="boundary" inkscape:connector-curvature="0" />
	<path style="fill:none;stroke:red;stroke-width:1px;stroke-linecap:butt;stroke-linejoin:miter;stroke-opacity:1" d="M 205.199,933.891 209.573,941.764 z" id="boundary" inkscape:connector-curvature="0" />
	<path style="fill:none;stroke:red;stroke-width:1px;stroke-linecap:butt;stroke-linejoin:miter;stroke-opacity:1" d="M 209.573,70.4832 213.947,61.7354 z" id="boundary" inkscape:connector-curvature="0" />
	<path style="fill:none;stroke:red;stroke-width:1px;stroke-linecap:butt;stroke-linejoin:miter;stroke-opacity:1" d="M 209.573,941.764 209.573,950.511 z" id="boundary" inkscape:connector-curvature="0" />
	<path style="fill:none;stroke:red;stroke-width:1px;stroke-linecap:butt;stroke-linejoin:miter;stroke-opacity:1" d="M 209.573,950.511 210.448,959.259 z" id="boundary" inkscape:connector-curvature="0" />
	<path style="fill:none;stroke:red;stroke-width:1px;stroke-linecap:butt;stroke-linejoin:miter;stroke-opacity:1" d="M 210.448,959.259 220.945,974.131 z" id="boundary" inkscape:connector-curvature="0" />
	<path style="fill:none;stroke:red;stroke-width:1px;stroke-linecap:butt;stroke-linejoin:miter;stroke-opacity:1" d="M 213.947,61.7354 220.945,54.7372 z" id="boundary" inkscape:connector-curvature="0" />
	<path style="fill:none;stroke:red;stroke-width:1px;stroke-linecap:butt;stroke-linejoin:miter;stroke-opacity:1" d="M 220.945,54.7372 227.944,47.739 z" id="boundary" inkscape:connector-curvature="0" />
	<path style="fill:none;stroke:red;stroke-width:1px;stroke-linecap:butt;stroke-linejoin:miter;stroke-opacity:1" d="M 220.945,974.131 227.944,980.254 z" id="boundary" inkscape:connector-curvature="0" />
	<path style="fill:none;stroke:red;stroke-width:1px;stroke-linecap:butt;stroke-linejoin:miter;stroke-opacity:1" d="M 227.944,47.739 232.317,38.9912 z" id="boundary" inkscape:connector-curvature="0" />
	<path style="fill:none;stroke:red;stroke-width:1px;stroke-linecap:butt;stroke-linejoin:miter;stroke-opacity:1" d="M 227.944,980.254 234.067,987.252 z" id="boundary" inkscape:connector-curvature="0" />
	<path style="fill:none;stroke:red;stroke-width:1px;stroke-linecap:butt;stroke-linejoin:miter;stroke-opacity:1" d="M 232.317,38.9912 236.691,30.2434 z" id="boundary" inkscape:connector-curvature="0" />
	<path style="fill:none;stroke:red;stroke-width:1px;stroke-linecap:butt;stroke-linejoin:miter;stroke-opacity:1" d="M 234.067,987.252 242.815,987.252 z" id="boundary" inkscape:connector-curvature="0" />
	<path style="fill:none;stroke:red;stroke-width:1px;stroke-linecap:butt;stroke-linejoin:miter;stroke-opacity:1" d="M 236.691,30.2434 241.065,21.4956 z" id="boundary" inkscape:connector-curvature="0" />
	<path style="fill:none;stroke:red;stroke-width:1px;stroke-linecap:butt;stroke-linejoin:miter;stroke-opacity:1" d="M 241.065,21.4956 244.564,4.87478 z" id="boundary" inkscape:connector-curvature="0" />
	<path style="fill:none;stroke:red;stroke-width:1px;stroke-linecap:butt;stroke-linejoin:miter;stroke-opacity:1" d="M 242.815,987.252 251.563,987.252 z" id="boundary" inkscape:connector-curvature="0" />
	<path style="fill:none;stroke:red;stroke-width:1px;stroke-linecap:butt;stroke-linejoin:miter;stroke-opacity:1" d="M 244.564,4.87478 253.312,4 z" id="boundary" inkscape:connector-curvature="0" />
	<path style="fill:none;stroke:red;stroke-width:1px;stroke-linecap:butt;stroke-linejoin:miter;stroke-opacity:1" d="M 251.563,987.252 260.31,987.252 z" id="boundary" inkscape:connector-curvature="0" />
	<path style="fill:none;stroke:red;stroke-width:1px;stroke-linecap:butt;stroke-linejoin:miter;stroke-opacity:1" d="M 253.312,4 258.561,10.9982 z" id="boundary" inkscape:connector-curvature="0" />
	<path style="fill:none;stroke:red;stroke-width:1px;stroke-linecap:butt;stroke-linejoin:miter;stroke-opacity:1" d="M 258.561,10.9982 262.935,18.8713 z" id="boundary" inkscape:connector-curvature="0" />
	<path style="fill:none;stroke:red;stroke-width:1px;stroke-linecap:butt;stroke-linejoin:miter;stroke-opacity:1" d="M 260.31,987.252 269.058,987.252 z" id="boundary" inkscape:connector-curvature="0" />
	<path style="fill:none;stroke:red;stroke-width:1px;stroke-linecap:butt;stroke-linejoin:miter;stroke-opacity:1" d="M 262.935,18.8713 262.935,27.619 z" id="boundary" inkscape:connector-curvature="0" />
	<path style="fill:none;stroke:red;stroke-width:1px;stroke-linecap:butt;stroke-linejoin:miter;stroke-opacity:1" d="M 262.935,27.619 267.309,35.4921 z" id="boundary" inkscape:connector-curvature="0" />
	<path style="fill:none;stroke:red;stroke-width:1px;stroke-linecap:butt;stroke-linejoin:miter;stroke-opacity:1" d="M 267.309,35.4921 270.808,44.2399 z" id="boundary" inkscape:connector-curvature="0" />
	<path style="fill:none;stroke:red;stroke-width:1px;stroke-linecap:butt;stroke-linejoin:miter;stroke-opacity:1" d="M 269.058,987.252 276.931,991.626 z" id="boundary" inkscape:connector-curvature="0" />
	<path style="fill:none;stroke:red;stroke-width:1px;stroke-linecap:butt;stroke-linejoin:miter;stroke-opacity:1" d="M 270.808,44.2399 276.056,51.2381 z" id="boundary" inkscape:connector-curvature="0" />
	<path style="fill:none;stroke:red;stroke-width:1px;stroke-linecap:butt;stroke-linejoin:miter;stroke-opacity:1" d="M 276.056,51.2381 280.43,59.1111 z" id="boundary" inkscape:connector-curvature="0" />
	<path style="fill:none;stroke:red;stroke-width:1px;stroke-linecap:butt;stroke-linejoin:miter;stroke-opacity:1" d="M 276.931,991.626 285.679,991.626 z" id="boundary" inkscape:connector-curvature="0" />
	<path style="fill:none;stroke:red;stroke-width:1px;stroke-linecap:butt;stroke-linejoin:miter;stroke-opacity:1" d="M 280.43,59.1111 284.804,66.9841 z" id="boundary" inkscape:connector-curvature="0" />
	<path style="fill:none;stroke:red;stroke-width:1px;stroke-linecap:butt;stroke-linejoin:miter;stroke-opacity:1" d="M 284.804,66.9841 289.178,74.8571 z" id="boundary" inkscape:connector-curvature="0" />
	<path style="fill:none;stroke:red;stroke-width:1px;stroke-linecap:butt;stroke-linejoin:miter;stroke-opacity:1" d="M 285.679,991.626 294.427,991.626 z" id="boundary" inkscape:connector-curvature="0" />
	<path style="fill:none;stroke:red;stroke-width:1px;stroke-linecap:butt;stroke-linejoin:miter;stroke-opacity:1" d="M 289.178,74.8571 293.552,82.7302 z" id="boundary" inkscape:connector-curvature="0" />
	<path style="fill:none;stroke:red;stroke-width:1px;stroke-linecap:butt;stroke-linejoin:miter;stroke-opacity:1" d="M 293.552,82.7302 296.176,91.478 z" id="boundary" inkscape:connector-curvature="0" />
	<path style="fill:none;stroke:red;stroke-width:1px;stroke-linecap:butt;stroke-linejoin:miter;stroke-opacity:1" d="M 294.427,991.626 303.175,991.626 z" id="boundary" inkscape:connector-curvature="0" />
	<path style="fill:none;stroke:red;stroke-width:1px;stroke-linecap:butt;stroke-linejoin:miter;stroke-opacity:1" d="M 296.176,91.478 302.3,98.4762 z" id="boundary" inkscape:connector-curvature="0" />
	<path style="fill:none;stroke:red;stroke-width:1px;stroke-linecap:butt;stroke-linejoin:miter;stroke-opacity:1" d="M 302.3,98.4762 306.674,106.349 z" id="boundary" inkscape:connector-curvature="0" />
	<path style="fill:none;stroke:red;stroke-width:1px;stroke-linecap:butt;stroke-linejoin:miter;stroke-opacity:1" d="M 303.175,991.626 311.922,991.626 z" id="boundary" inkscape:connector-curvature="0" />
	<path style="fill:none;stroke:red;stroke-width:1px;stroke-linecap:butt;stroke-linejoin:miter;stroke-opacity:1" d="M 306.674,106.349 313.672,112.473 z" id="boundary" inkscape:connector-curvature="0" />
	<path style="fill:none;stroke:red;stroke-width:1px;stroke-linecap:butt;stroke-linejoin:miter;stroke-opacity:1" d="M 306.674,191.203 306.674,199.951 z" id="boundary" inkscape:connector-curvature="0" />
	<path style="fill:none;stroke:red;stroke-width:1px;stroke-linecap:butt;stroke-linejoin:miter;stroke-opacity:1" d="M 306.674,191.203 313.672,185.079 z" id="boundary" inkscape:connector-curvature="0" />
	<path style="fill:none;stroke:red;stroke-width:1px;stroke-linecap:butt;stroke-linejoin:miter;stroke-opacity:1" d="M 306.674,199.951 306.674,208.698 z" id="boundary" inkscape:connector-curvature="0" />
	<path style="fill:none;stroke:red;stroke-width:1px;stroke-linecap:butt;stroke-linejoin:miter;stroke-opacity:1" d="M 306.674,208.698 311.048,216.571 z" id="boundary" inkscape:connector-curvature="0" />
	<path style="fill:none;stroke:red;stroke-width:1px;stroke-linecap:butt;stroke-linejoin:miter;stroke-opacity:1" d="M 311.048,216.571 311.048,225.319 z" id="boundary" inkscape:connector-curvature="0" />
	<path style="fill:none;stroke:red;stroke-width:1px;stroke-linecap:butt;stroke-linejoin:miter;stroke-opacity:1" d="M 311.048,225.319 315.422,233.192 z" id="boundary" inkscape:connector-curvature="0" />
	<path style="fill:none;stroke:red;stroke-width:1px;stroke-linecap:butt;stroke-linejoin:miter;stroke-opacity:1" d="M 311.922,991.626 319.795,996 z" id="boundary" inkscape:connector-curvature="0" />
	<path style="fill:none;stroke:red;stroke-width:1px;stroke-linecap:butt;stroke-linejoin:miter;stroke-opacity:1" d="M 313.672,112.473 319.795,119.471 z" id="boundary" inkscape:connector-curvature="0" />
	<path style="fill:none;stroke:red;stroke-width:1px;stroke-linecap:butt;stroke-linejoin:miter;stroke-opacity:1" d="M 313.672,185.079 322.42,182.455 z" id="boundary" inkscape:connector-curvature="0" />
	<path style="fill:none;stroke:red;stroke-width:1px;stroke-linecap:butt;stroke-linejoin:miter;stroke-opacity:1" d="M 315.422,233.192 319.795,241.065 z" id="boundary" inkscape:connector-curvature="0" />
	<path style="fill:none;stroke:red;stroke-width:1px;stroke-linecap:butt;stroke-linejoin:miter;stroke-opacity:1" d="M 319.795,119.471 326.794,125.594 z" id="boundary" inkscape:connector-curvature="0" />
	<path style="fill:none;stroke:red;stroke-width:1px;stroke-linecap:butt;stroke-linejoin:miter;stroke-opacity:1" d="M 319.795,241.065 319.795,249.813 z" id="boundary" inkscape:connector-curvature="0" />
	<path style="fill:none;stroke:red;stroke-width:1px;stroke-linecap:butt;stroke-linejoin:miter;stroke-opacity:1" d="M 319.795,249.813 323.295,258.561 z" id="boundary" inkscape:connector-curvature="0" />
	<path style="fill:none;stroke:red;stroke-width:1px;stroke-linecap:butt;stroke-linejoin:miter;stroke-opacity:1" d="M 319.795,996 328.543,996 z" id="boundary" inkscape:connector-curvature="0" />
	<path style="fill:none;stroke:red;stroke-width:1px;stroke-linecap:butt;stroke-linejoin:miter;stroke-opacity:1" d="M 322.42,182.455 331.168,182.455 z" id="boundary" inkscape:connector-curvature="0" />
	<path style="fill:none;stroke:red;stroke-width:1px;stroke-linecap:butt;stroke-linejoin:miter;stroke-opacity:1" d="M 323.295,258.561 327.668,266.434 z" id="boundary" inkscape:connector-curvature="0" />
	<path style="fill:none;stroke:red;stroke-width:1px;stroke-linecap:butt;stroke-linejoin:miter;stroke-opacity:1" d="M 326.794,125.594 332.917,132.593 z" id="boundary" inkscape:connector-curvature="0" />
	<path style="fill:none;stroke:red;stroke-width:1px;stroke-linecap:butt;stroke-linejoin:miter;stroke-opacity:1" d="M 327.668,266.434 331.168,275.182 z" id="boundary" inkscape:connector-curvature="0" />
	<path style="fill:none;stroke:red;stroke-width:1px;stroke-linecap:butt;stroke-linejoin:miter;stroke-opacity:1" d="M 328.543,431.767 328.543,440.515 z" id="boundary" inkscape:connector-curvature="0" />
	<path style="fill:none;stroke:red;stroke-width:1px;stroke-linecap:butt;stroke-linejoin:miter;stroke-opacity:1" d="M 328.543,431.767 335.541,425.644 z" id="boundary" inkscape:connector-curvature="0" />
	<path style="fill:none;stroke:red;stroke-width:1px;stroke-linecap:butt;stroke-linejoin:miter;stroke-opacity:1" d="M 328.543,440.515 328.543,449.263 z" id="boundary" inkscape:connector-curvature="0" />
	<path style="fill:none;stroke:red;stroke-width:1px;stroke-linecap:butt;stroke-linejoin:miter;stroke-opacity:1" d="M 328.543,449.263 332.917,457.136 z" id="boundary" inkscape:connector-curvature="0" />
	<path style="fill:none;stroke:red;stroke-width:1px;stroke-linecap:butt;stroke-linejoin:miter;stroke-opacity:1" d="M 328.543,996 337.291,996 z" id="boundary" inkscape:connector-curvature="0" />
	<path style="fill:none;stroke:red;stroke-width:1px;stroke-linecap:butt;stroke-linejoin:miter;stroke-opacity:1" d="M 331.168,182.455 339.041,186.829 z" id="boundary" inkscape:connector-curvature="0" />
	<path style="fill:none;stroke:red;stroke-width:1px;stroke-linecap:butt;stroke-linejoin:miter;stroke-opacity:1" d="M 331.168,275.182 335.541,283.055 z" id="boundary" inkscape:connector-curvature="0" />
	<path style="fill:none;stroke:red;stroke-width:1px;stroke-linecap:butt;stroke-linejoin:miter;stroke-opacity:1" d="M 332.917,132.593 346.039,145.714 z" id="boundary" inkscape:connector-curvature="0" />
	<path style="fill:none;stroke:red;stroke-width:1px;stroke-linecap:butt;stroke-linejoin:miter;stroke-opacity:1" d="M 332.917,457.136 332.917,465.884 z" id="boundary" inkscape:connector-curvature="0" />
	<path style="fill:none;stroke:red;stroke-width:1px;stroke-linecap:butt;stroke-linejoin:miter;stroke-opacity:1" d="M 332.917,465.884 343.414,479.88 z" id="boundary" inkscape:connector-curvature="0" />
	<path style="fill:none;stroke:red;stroke-width:1px;stroke-linecap:butt;stroke-linejoin:miter;stroke-opacity:1" d="M 335.541,283.055 339.041,291.802 z" id="boundary" inkscape:connector-curvature="0" />
	<path style="fill:none;stroke:red;stroke-width:1px;stroke-linecap:butt;stroke-linejoin:miter;stroke-opacity:1" d="M 335.541,425.644 344.289,423.019 z" id="boundary" inkscape:connector-curvature="0" />
	<path style="fill:none;stroke:red;stroke-width:1px;stroke-linecap:butt;stroke-linejoin:miter;stroke-opacity:1" d="M 337.291,646.088 337.291,654.836 z" id="boundary" inkscape:connector-curvature="0" />
	<path style="fill:none;stroke:red;stroke-width:1px;stroke-linecap:butt;stroke-linejoin:miter;stroke-opacity:1" d="M 337.291,646.088 341.665,637.34 z" id="boundary" inkscape:connector-curvature="0" />
	<path style="fill:none;stroke:red;stroke-width:1px;stroke-linecap:butt;stroke-linejoin:miter;stroke-opacity:1" d="M 337.291,654.836 337.291,663.584 z" id="boundary" inkscape:connector-curvature="0" />
	<path style="fill:none;stroke:red;stroke-width:1px;stroke-linecap:butt;stroke-linejoin:miter;stroke-opacity:1" d="M 337.291,663.584 341.665,671.457 z" id="boundary" inkscape:connector-curvature="0" />
	<path style="fill:none;stroke:red;stroke-width:1px;stroke-linecap:butt;stroke-linejoin:miter;stroke-opacity:1" d="M 337.291,996 346.039,996 z" id="boundary" inkscape:connector-curvature="0" />
	<path style="fill:none;stroke:red;stroke-width:1px;stroke-linecap:butt;stroke-linejoin:miter;stroke-opacity:1" d="M 339.041,186.829 346.914,191.203 z" id="boundary" inkscape:connector-curvature="0" />
	<path style="fill:none;stroke:red;stroke-width:1px;stroke-linecap:butt;stroke-linejoin:miter;stroke-opacity:1" d="M 339.041,291.802 343.414,299.675 z" id="boundary" inkscape:connector-curvature="0" />
	<path style="fill:none;stroke:red;stroke-width:1px;stroke-linecap:butt;stroke-linejoin:miter;stroke-opacity:1" d="M 341.665,637.34 348.663,631.217 z" id="boundary" inkscape:connector-curvature="0" />
	<path style="fill:none;stroke:red;stroke-width:1px;stroke-linecap:butt;stroke-linejoin:miter;stroke-opacity:1" d="M 341.665,671.457 341.665,680.205 z" id="boundary" inkscape:connector-curvature="0" />
	<path style="fill:none;stroke:red;stroke-width:1px;stroke-linecap:butt;stroke-linejoin:miter;stroke-opacity:1" d="M 341.665,680.205 346.039,688.078 z" id="boundary" inkscape:connector-curvature="0" />
	<path style="fill:none;stroke:red;stroke-width:1px;stroke-linecap:butt;stroke-linejoin:miter;stroke-opacity:1" d="M 343.414,299.675 349.538,306.674 z" id="boundary" inkscape:connector-curvature="0" />
	<path style="fill:none;stroke:red;stroke-width:1px;stroke-linecap:butt;stroke-linejoin:miter;stroke-opacity:1" d="M 343.414,479.88 347.788,487.753 z" id="boundary" inkscape:connector-curvature="0" />
	<path style="fill:none;stroke:red;stroke-width:1px;stroke-linecap:butt;stroke-linejoin:miter;stroke-opacity:1" d="M 344.289,423.019 353.037,423.019 z" id="boundary" inkscape:connector-curvature="0" />
	<path style="fill:none;stroke:red;stroke-width:1px;stroke-linecap:butt;stroke-linejoin:miter;stroke-opacity:1" d="M 346.039,145.714 353.037,151.838 z" id="boundary" inkscape:connector-curvature="0" />
	<path style="fill:none;stroke:red;stroke-width:1px;stroke-linecap:butt;stroke-linejoin:miter;stroke-opacity:1" d="M 346.039,688.078 346.039,696.825 z" id="boundary" inkscape:connector-curvature="0" />
	<path style="fill:none;stroke:red;stroke-width:1px;stroke-linecap:butt;stroke-linejoin:miter;stroke-opacity:1" d="M 346.039,696.825 346.039,705.573 z" id="boundary" inkscape:connector-curvature="0" />
	<path style="fill:none;stroke:red;stroke-width:1px;stroke-linecap:butt;stroke-linejoin:miter;stroke-opacity:1" d="M 346.039,705.573 346.039,714.321 z" id="boundary" inkscape:connector-curvature="0" />
	<path style="fill:none;stroke:red;stroke-width:1px;stroke-linecap:butt;stroke-linejoin:miter;stroke-opacity:1" d="M 346.039,714.321 350.413,722.194 z" id="boundary" inkscape:connector-curvature="0" />
	<path style="fill:none;stroke:red;stroke-width:1px;stroke-linecap:butt;stroke-linejoin:miter;stroke-opacity:1" d="M 346.039,996 354.787,996 z" id="boundary" inkscape:connector-curvature="0" />
	<path style="fill:none;stroke:red;stroke-width:1px;stroke-linecap:butt;stroke-linejoin:miter;stroke-opacity:1" d="M 346.914,191.203 354.787,195.577 z" id="boundary" inkscape:connector-curvature="0" />
	<path style="fill:none;stroke:red;stroke-width:1px;stroke-linecap:butt;stroke-linejoin:miter;stroke-opacity:1" d="M 347.788,487.753 353.912,494.751 z" id="boundary" inkscape:connector-curvature="0" />
	<path style="fill:none;stroke:red;stroke-width:1px;stroke-linecap:butt;stroke-linejoin:miter;stroke-opacity:1" d="M 348.663,631.217 357.411,628.593 z" id="boundary" inkscape:connector-curvature="0" />
	<path style="fill:none;stroke:red;stroke-width:1px;stroke-linecap:butt;stroke-linejoin:miter;stroke-opacity:1" d="M 349.538,306.674 354.787,313.672 z" id="boundary" inkscape:connector-curvature="0" />
	<path style="fill:none;stroke:red;stroke-width:1px;stroke-linecap:butt;stroke-linejoin:miter;stroke-opacity:1" d="M 350.413,722.194 350.413,730.942 z" id="boundary" inkscape:connector-curvature="0" />
	<path style="fill:none;stroke:red;stroke-width:1px;stroke-linecap:butt;stroke-linejoin:miter;stroke-opacity:1" d="M 350.413,730.942 350.413,739.69 z" id="boundary" inkscape:connector-curvature="0" />
	<path style="fill:none;stroke:red;stroke-width:1px;stroke-linecap:butt;stroke-linejoin:miter;stroke-opacity:1" d="M 350.413,739.69 350.413,748.437 z" id="boundary" inkscape:connector-curvature="0" />
	<path style="fill:none;stroke:red;stroke-width:1px;stroke-linecap:butt;stroke-linejoin:miter;stroke-opacity:1" d="M 350.413,748.437 350.413,757.185 z" id="boundary" inkscape:connector-curvature="0" />
	<path style="fill:none;stroke:red;stroke-width:1px;stroke-linecap:butt;stroke-linejoin:miter;stroke-opacity:1" d="M 350.413,757.185 350.413,765.933 z" id="boundary" inkscape:connector-curvature="0" />
	<path style="fill:none;stroke:red;stroke-width:1px;stroke-linecap:butt;stroke-linejoin:miter;stroke-opacity:1" d="M 350.413,765.933 350.413,774.681 z" id="boundary" inkscape:connector-curvature="0" />
	<path style="fill:none;stroke:red;stroke-width:1px;stroke-linecap:butt;stroke-linejoin:miter;stroke-opacity:1" d="M 350.413,774.681 350.413,783.429 z" id="boundary" inkscape:connector-curvature="0" />
	<path style="fill:none;stroke:red;stroke-width:1px;stroke-linecap:butt;stroke-linejoin:miter;stroke-opacity:1" d="M 350.413,783.429 350.413,792.176 z" id="boundary" inkscape:connector-curvature="0" />
	<path style="fill:none;stroke:red;stroke-width:1px;stroke-linecap:butt;stroke-linejoin:miter;stroke-opacity:1" d="M 350.413,792.176 350.413,800.924 z" id="boundary" inkscape:connector-curvature="0" />
	<path style="fill:none;stroke:red;stroke-width:1px;stroke-linecap:butt;stroke-linejoin:miter;stroke-opacity:1" d="M 350.413,800.924 350.413,809.672 z" id="boundary" inkscape:connector-curvature="0" />
	<path style="fill:none;stroke:red;stroke-width:1px;stroke-linecap:butt;stroke-linejoin:miter;stroke-opacity:1" d="M 350.413,809.672 350.413,818.42 z" id="boundary" inkscape:connector-curvature="0" />
	<path style="fill:none;stroke:red;stroke-width:1px;stroke-linecap:butt;stroke-linejoin:miter;stroke-opacity:1" d="M 350.413,818.42 350.413,827.168 z" id="boundary" inkscape:connector-curvature="0" />
	<path style="fill:none;stroke:red;stroke-width:1px;stroke-linecap:butt;stroke-linejoin:miter;stroke-opacity:1" d="M 350.413,827.168 350.413,835.915 z" id="boundary" inkscape:connector-curvature="0" />
	<path style="fill:none;stroke:red;stroke-width:1px;stroke-linecap:butt;stroke-linejoin:miter;stroke-opacity:1" d="M 350.413,835.915 354.787,843.788 z" id="boundary" inkscape:connector-curvature="0" />
	<path style="fill:none;stroke:red;stroke-width:1px;stroke-linecap:butt;stroke-linejoin:miter;stroke-opacity:1" d="M 353.037,151.838 359.16,158.836 z" id="boundary" inkscape:connector-curvature="0" />
	<path style="fill:none;stroke:red;stroke-width:1px;stroke-linecap:butt;stroke-linejoin:miter;stroke-opacity:1" d="M 353.037,423.019 360.91,427.393 z" id="boundary" inkscape:connector-curvature="0" />
	<path style="fill:none;stroke:red;stroke-width:1px;stroke-linecap:butt;stroke-linejoin:miter;stroke-opacity:1" d="M 353.912,494.751 363.534,509.623 z" id="boundary" inkscape:connector-curvature="0" />
	<path style="fill:none;stroke:red;stroke-width:1px;stroke-linecap:butt;stroke-linejoin:miter;stroke-opacity:1" d="M 354.787,195.577 362.66,199.951 z" id="boundary" inkscape:connector-curvature="0" />
	<path style="fill:none;stroke:red;stroke-width:1px;stroke-linecap:butt;stroke-linejoin:miter;stroke-opacity:1" d="M 354.787,313.672 359.16,321.545 z" id="boundary" inkscape:connector-curvature="0" />
	<path style="fill:none;stroke:red;stroke-width:1px;stroke-linecap:butt;stroke-linejoin:miter;stroke-opacity:1" d="M 354.787,843.788 354.787,852.536 z" id="boundary" inkscape:connector-curvature="0" />
	<path style="fill:none;stroke:red;stroke-width:1px;stroke-linecap:butt;stroke-linejoin:miter;stroke-opacity:1" d="M 354.787,852.536 357.411,861.284 z" id="boundary" inkscape:connector-curvature="0" />
	<path style="fill:none;stroke:red;stroke-width:1px;stroke-linecap:butt;stroke-linejoin:miter;stroke-opacity:1" d="M 354.787,996 361.785,989.877 z" id="boundary" inkscape:connector-curvature="0" />
	<path style="fill:none;stroke:red;stroke-width:1px;stroke-linecap:butt;stroke-linejoin:miter;stroke-opacity:1" d="M 357.411,628.593 366.159,628.593 z" id="boundary" inkscape:connector-curvature="0" />
	<path style="fill:none;stroke:red;stroke-width:1px;stroke-linecap:butt;stroke-linejoin:miter;stroke-opacity:1" d="M 357.411,861.284 359.16,870.032 z" id="boundary" inkscape:connector-curvature="0" />
	<path style="fill:none;stroke:red;stroke-width:1px;stroke-linecap:butt;stroke-linejoin:miter;stroke-opacity:1" d="M 359.16,158.836 366.159,164.959 z" id="boundary" inkscape:connector-curvature="0" />
	<path style="fill:none;stroke:red;stroke-width:1px;stroke-linecap:butt;stroke-linejoin:miter;stroke-opacity:1" d="M 359.16,321.545 363.534,329.418 z" id="boundary" inkscape:connector-curvature="0" />
	<path style="fill:none;stroke:red;stroke-width:1px;stroke-linecap:butt;stroke-linejoin:miter;stroke-opacity:1" d="M 359.16,870.032 359.16,878.78 z" id="boundary" inkscape:connector-curvature="0" />
	<path style="fill:none;stroke:red;stroke-width:1px;stroke-linecap:butt;stroke-linejoin:miter;stroke-opacity:1" d="M 359.16,878.78 363.534,886.653 z" id="boundary" inkscape:connector-curvature="0" />
	<path style="fill:none;stroke:red;stroke-width:1px;stroke-linecap:butt;stroke-linejoin:miter;stroke-opacity:1" d="M 360.91,427.393 369.658,430.892 z" id="boundary" inkscape:connector-curvature="0" />
	<path style="fill:none;stroke:red;stroke-width:1px;stroke-linecap:butt;stroke-linejoin:miter;stroke-opacity:1" d="M 361.785,989.877 367.908,978.504 z" id="boundary" inkscape:connector-curvature="0" />
	<path style="fill:none;stroke:red;stroke-width:1px;stroke-linecap:butt;stroke-linejoin:miter;stroke-opacity:1" d="M 362.66,199.951 367.908,206.949 z" id="boundary" inkscape:connector-curvature="0" />
	<path style="fill:none;stroke:red;stroke-width:1px;stroke-linecap:butt;stroke-linejoin:miter;stroke-opacity:1" d="M 363.534,329.418 367.908,337.291 z" id="boundary" inkscape:connector-curvature="0" />
	<path style="fill:none;stroke:red;stroke-width:1px;stroke-linecap:butt;stroke-linejoin:miter;stroke-opacity:1" d="M 363.534,509.623 367.908,517.496 z" id="boundary" inkscape:connector-curvature="0" />
	<path style="fill:none;stroke:red;stroke-width:1px;stroke-linecap:butt;stroke-linejoin:miter;stroke-opacity:1" d="M 363.534,886.653 365.284,895.4 z" id="boundary" inkscape:connector-curvature="0" />
	<path style="fill:none;stroke:red;stroke-width:1px;stroke-linecap:butt;stroke-linejoin:miter;stroke-opacity:1" d="M 365.284,895.4 367.908,904.148 z" id="boundary" inkscape:connector-curvature="0" />
	<path style="fill:none;stroke:red;stroke-width:1px;stroke-linecap:butt;stroke-linejoin:miter;stroke-opacity:1" d="M 366.159,164.959 372.282,171.958 z" id="boundary" inkscape:connector-curvature="0" />
	<path style="fill:none;stroke:red;stroke-width:1px;stroke-linecap:butt;stroke-linejoin:miter;stroke-opacity:1" d="M 366.159,628.593 374.907,628.593 z" id="boundary" inkscape:connector-curvature="0" />
	<path style="fill:none;stroke:red;stroke-width:1px;stroke-linecap:butt;stroke-linejoin:miter;stroke-opacity:1" d="M 367.908,206.949 376.656,210.448 z" id="boundary" inkscape:connector-curvature="0" />
	<path style="fill:none;stroke:red;stroke-width:1px;stroke-linecap:butt;stroke-linejoin:miter;stroke-opacity:1" d="M 367.908,337.291 371.407,346.039 z" id="boundary" inkscape:connector-curvature="0" />
	<path style="fill:none;stroke:red;stroke-width:1px;stroke-linecap:butt;stroke-linejoin:miter;stroke-opacity:1" d="M 367.908,517.496 374.907,523.619 z" id="boundary" inkscape:connector-curvature="0" />
	<path style="fill:none;stroke:red;stroke-width:1px;stroke-linecap:butt;stroke-linejoin:miter;stroke-opacity:1" d="M 367.908,904.148 369.658,912.896 z" id="boundary" inkscape:connector-curvature="0" />
	<path style="fill:none;stroke:red;stroke-width:1px;stroke-linecap:butt;stroke-linejoin:miter;stroke-opacity:1" d="M 367.908,969.757 367.908,978.504 z" id="boundary" inkscape:connector-curvature="0" />
	<path style="fill:none;stroke:red;stroke-width:1px;stroke-linecap:butt;stroke-linejoin:miter;stroke-opacity:1" d="M 367.908,969.757 372.282,956.635 z" id="boundary" inkscape:connector-curvature="0" />
	<path style="fill:none;stroke:red;stroke-width:1px;stroke-linecap:butt;stroke-linejoin:miter;stroke-opacity:1" d="M 369.658,430.892 377.531,435.266 z" id="boundary" inkscape:connector-curvature="0" />
	<path style="fill:none;stroke:red;stroke-width:1px;stroke-linecap:butt;stroke-linejoin:miter;stroke-opacity:1" d="M 369.658,912.896 372.282,921.644 z" id="boundary" inkscape:connector-curvature="0" />
	<path style="fill:none;stroke:red;stroke-width:1px;stroke-linecap:butt;stroke-linejoin:miter;stroke-opacity:1" d="M 371.407,346.039 378.406,352.162 z" id="boundary" inkscape:connector-curvature="0" />
	<path style="fill:none;stroke:red;stroke-width:1px;stroke-linecap:butt;stroke-linejoin:miter;stroke-opacity:1" d="M 372.282,171.958 379.28,178.081 z" id="boundary" inkscape:connector-curvature="0" />
	<path style="fill:none;stroke:red;stroke-width:1px;stroke-linecap:butt;stroke-linejoin:miter;stroke-opacity:1" d="M 372.282,921.644 372.282,930.392 z" id="boundary" inkscape:connector-curvature="0" />
	<path style="fill:none;stroke:red;stroke-width:1px;stroke-linecap:butt;stroke-linejoin:miter;stroke-opacity:1" d="M 372.282,930.392 372.282,939.139 z" id="boundary" inkscape:connector-curvature="0" />
	<path style="fill:none;stroke:red;stroke-width:1px;stroke-linecap:butt;stroke-linejoin:miter;stroke-opacity:1" d="M 372.282,939.139 372.282,947.887 z" id="boundary" inkscape:connector-curvature="0" />
	<path style="fill:none;stroke:red;stroke-width:1px;stroke-linecap:butt;stroke-linejoin:miter;stroke-opacity:1" d="M 372.282,947.887 372.282,956.635 z" id="boundary" inkscape:connector-curvature="0" />
	<path style="fill:none;stroke:red;stroke-width:1px;stroke-linecap:butt;stroke-linejoin:miter;stroke-opacity:1" d="M 374.907,523.619 388.028,536.741 z" id="boundary" inkscape:connector-curvature="0" />
	<path style="fill:none;stroke:red;stroke-width:1px;stroke-linecap:butt;stroke-linejoin:miter;stroke-opacity:1" d="M 374.907,628.593 382.78,632.966 z" id="boundary" inkscape:connector-curvature="0" />
	<path style="fill:none;stroke:red;stroke-width:1px;stroke-linecap:butt;stroke-linejoin:miter;stroke-opacity:1" d="M 376.656,210.448 385.404,213.072 z" id="boundary" inkscape:connector-curvature="0" />
	<path style="fill:none;stroke:red;stroke-width:1px;stroke-linecap:butt;stroke-linejoin:miter;stroke-opacity:1" d="M 377.531,435.266 386.279,438.765 z" id="boundary" inkscape:connector-curvature="0" />
	<path style="fill:none;stroke:red;stroke-width:1px;stroke-linecap:butt;stroke-linejoin:miter;stroke-opacity:1" d="M 378.406,352.162 381.03,360.91 z" id="boundary" inkscape:connector-curvature="0" />
	<path style="fill:none;stroke:red;stroke-width:1px;stroke-linecap:butt;stroke-linejoin:miter;stroke-opacity:1" d="M 379.28,178.081 385.404,185.079 z" id="boundary" inkscape:connector-curvature="0" />
	<path style="fill:none;stroke:red;stroke-width:1px;stroke-linecap:butt;stroke-linejoin:miter;stroke-opacity:1" d="M 381.03,360.91 388.028,366.159 z" id="boundary" inkscape:connector-curvature="0" />
	<path style="fill:none;stroke:red;stroke-width:1px;stroke-linecap:butt;stroke-linejoin:miter;stroke-opacity:1" d="M 382.78,632.966 390.653,637.34 z" id="boundary" inkscape:connector-curvature="0" />
	<path style="fill:none;stroke:red;stroke-width:1px;stroke-linecap:butt;stroke-linejoin:miter;stroke-opacity:1" d="M 385.404,185.079 389.778,192.952 z" id="boundary" inkscape:connector-curvature="0" />
	<path style="fill:none;stroke:red;stroke-width:1px;stroke-linecap:butt;stroke-linejoin:miter;stroke-opacity:1" d="M 385.404,213.072 394.152,214.822 z" id="boundary" inkscape:connector-curvature="0" />
	<path style="fill:none;stroke:red;stroke-width:1px;stroke-linecap:butt;stroke-linejoin:miter;stroke-opacity:1" d="M 386.279,438.765 395.026,440.515 z" id="boundary" inkscape:connector-curvature="0" />
	<path style="fill:none;stroke:red;stroke-width:1px;stroke-linecap:butt;stroke-linejoin:miter;stroke-opacity:1" d="M 388.028,366.159 401.15,379.28 z" id="boundary" inkscape:connector-curvature="0" />
	<path style="fill:none;stroke:red;stroke-width:1px;stroke-linecap:butt;stroke-linejoin:miter;stroke-opacity:1" d="M 388.028,536.741 394.152,543.739 z" id="boundary" inkscape:connector-curvature="0" />
	<path style="fill:none;stroke:red;stroke-width:1px;stroke-linecap:butt;stroke-linejoin:miter;stroke-opacity:1" d="M 389.778,192.952 396.776,199.076 z" id="boundary" inkscape:connector-curvature="0" />
	<path style="fill:none;stroke:red;stroke-width:1px;stroke-linecap:butt;stroke-linejoin:miter;stroke-opacity:1" d="M 390.653,637.34 399.4,637.34 z" id="boundary" inkscape:connector-curvature="0" />
	<path style="fill:none;stroke:red;stroke-width:1px;stroke-linecap:butt;stroke-linejoin:miter;stroke-opacity:1" d="M 394.152,214.822 402.899,217.446 z" id="boundary" inkscape:connector-curvature="0" />
	<path style="fill:none;stroke:red;stroke-width:1px;stroke-linecap:butt;stroke-linejoin:miter;stroke-opacity:1" d="M 394.152,543.739 401.15,549.862 z" id="boundary" inkscape:connector-curvature="0" />
	<path style="fill:none;stroke:red;stroke-width:1px;stroke-linecap:butt;stroke-linejoin:miter;stroke-opacity:1" d="M 395.026,440.515 403.774,443.139 z" id="boundary" inkscape:connector-curvature="0" />
	<path style="fill:none;stroke:red;stroke-width:1px;stroke-linecap:butt;stroke-linejoin:miter;stroke-opacity:1" d="M 396.776,199.076 404.649,203.45 z" id="boundary" inkscape:connector-curvature="0" />
	<path style="fill:none;stroke:red;stroke-width:1px;stroke-linecap:butt;stroke-linejoin:miter;stroke-opacity:1" d="M 399.4,637.34 408.148,637.34 z" id="boundary" inkscape:connector-curvature="0" />
	<path style="fill:none;stroke:red;stroke-width:1px;stroke-linecap:butt;stroke-linejoin:miter;stroke-opacity:1" d="M 401.15,379.28 407.273,386.279 z" id="boundary" inkscape:connector-curvature="0" />
	<path style="fill:none;stroke:red;stroke-width:1px;stroke-linecap:butt;stroke-linejoin:miter;stroke-opacity:1" d="M 401.15,549.862 407.273,556.861 z" id="boundary" inkscape:connector-curvature="0" />
	<path style="fill:none;stroke:red;stroke-width:1px;stroke-linecap:butt;stroke-linejoin:miter;stroke-opacity:1" d="M 402.899,217.446 404.649,203.45 z" id="boundary" inkscape:connector-curvature="0" />
	<path style="fill:none;stroke:red;stroke-width:1px;stroke-linecap:butt;stroke-linejoin:miter;stroke-opacity:1" d="M 403.774,443.139 412.522,444.889 z" id="boundary" inkscape:connector-curvature="0" />
	<path style="fill:none;stroke:red;stroke-width:1px;stroke-linecap:butt;stroke-linejoin:miter;stroke-opacity:1" d="M 407.273,386.279 414.272,392.402 z" id="boundary" inkscape:connector-curvature="0" />
	<path style="fill:none;stroke:red;stroke-width:1px;stroke-linecap:butt;stroke-linejoin:miter;stroke-opacity:1" d="M 407.273,556.861 414.272,562.984 z" id="boundary" inkscape:connector-curvature="0" />
	<path style="fill:none;stroke:red;stroke-width:1px;stroke-linecap:butt;stroke-linejoin:miter;stroke-opacity:1" d="M 408.148,637.34 416.896,637.34 z" id="boundary" inkscape:connector-curvature="0" />
	<path style="fill:none;stroke:red;stroke-width:1px;stroke-linecap:butt;stroke-linejoin:miter;stroke-opacity:1" d="M 412.522,444.889 421.27,444.889 z" id="boundary" inkscape:connector-curvature="0" />
	<path style="fill:none;stroke:red;stroke-width:1px;stroke-linecap:butt;stroke-linejoin:miter;stroke-opacity:1" d="M 414.272,392.402 420.395,399.4 z" id="boundary" inkscape:connector-curvature="0" />
	<path style="fill:none;stroke:red;stroke-width:1px;stroke-linecap:butt;stroke-linejoin:miter;stroke-opacity:1" d="M 414.272,562.984 420.395,569.982 z" id="boundary" inkscape:connector-curvature="0" />
	<path style="fill:none;stroke:red;stroke-width:1px;stroke-linecap:butt;stroke-linejoin:miter;stroke-opacity:1" d="M 416.896,637.34 425.644,637.34 z" id="boundary" inkscape:connector-curvature="0" />
	<path style="fill:none;stroke:red;stroke-width:1px;stroke-linecap:butt;stroke-linejoin:miter;stroke-opacity:1" d="M 420.395,399.4 433.517,412.522 z" id="boundary" inkscape:connector-curvature="0" />
	<path style="fill:none;stroke:red;stroke-width:1px;stroke-linecap:butt;stroke-linejoin:miter;stroke-opacity:1" d="M 420.395,569.982 427.393,576.106 z" id="boundary" inkscape:connector-curvature="0" />
	<path style="fill:none;stroke:red;stroke-width:1px;stroke-linecap:butt;stroke-linejoin:miter;stroke-opacity:1" d="M 421.27,444.889 429.143,449.263 z" id="boundary" inkscape:connector-curvature="0" />
	<path style="fill:none;stroke:red;stroke-width:1px;stroke-linecap:butt;stroke-linejoin:miter;stroke-opacity:1" d="M 425.644,637.34 434.392,637.34 z" id="boundary" inkscape:connector-curvature="0" />
	<path style="fill:none;stroke:red;stroke-width:1px;stroke-linecap:butt;stroke-linejoin:miter;stroke-opacity:1" d="M 427.393,576.106 440.515,589.228 z" id="boundary" inkscape:connector-curvature="0" />
	<path style="fill:none;stroke:red;stroke-width:1px;stroke-linecap:butt;stroke-linejoin:miter;stroke-opacity:1" d="M 429.143,449.263 437.891,449.263 z" id="boundary" inkscape:connector-curvature="0" />
	<path style="fill:none;stroke:red;stroke-width:1px;stroke-linecap:butt;stroke-linejoin:miter;stroke-opacity:1" d="M 433.517,412.522 440.515,417.771 z" id="boundary" inkscape:connector-curvature="0" />
	<path style="fill:none;stroke:red;stroke-width:1px;stroke-linecap:butt;stroke-linejoin:miter;stroke-opacity:1" d="M 434.392,637.34 443.139,637.34 z" id="boundary" inkscape:connector-curvature="0" />
	<path style="fill:none;stroke:red;stroke-width:1px;stroke-linecap:butt;stroke-linejoin:miter;stroke-opacity:1" d="M 437.891,449.263 446.638,449.263 z" id="boundary" inkscape:connector-curvature="0" />
	<path style="fill:none;stroke:red;stroke-width:1px;stroke-linecap:butt;stroke-linejoin:miter;stroke-opacity:1" d="M 440.515,417.771 448.388,422.145 z" id="boundary" inkscape:connector-curvature="0" />
	<path style="fill:none;stroke:red;stroke-width:1px;stroke-linecap:butt;stroke-linejoin:miter;stroke-opacity:1" d="M 440.515,589.228 446.638,596.226 z" id="boundary" inkscape:connector-curvature="0" />
	<path style="fill:none;stroke:red;stroke-width:1px;stroke-linecap:butt;stroke-linejoin:miter;stroke-opacity:1" d="M 443.139,637.34 451.887,637.34 z" id="boundary" inkscape:connector-curvature="0" />
	<path style="fill:none;stroke:red;stroke-width:1px;stroke-linecap:butt;stroke-linejoin:miter;stroke-opacity:1" d="M 446.638,449.263 455.386,449.263 z" id="boundary" inkscape:connector-curvature="0" />
	<path style="fill:none;stroke:red;stroke-width:1px;stroke-linecap:butt;stroke-linejoin:miter;stroke-opacity:1" d="M 446.638,596.226 453.637,602.349 z" id="boundary" inkscape:connector-curvature="0" />
	<path style="fill:none;stroke:red;stroke-width:1px;stroke-linecap:butt;stroke-linejoin:miter;stroke-opacity:1" d="M 448.388,422.145 456.261,426.519 z" id="boundary" inkscape:connector-curvature="0" />
	<path style="fill:none;stroke:red;stroke-width:1px;stroke-linecap:butt;stroke-linejoin:miter;stroke-opacity:1" d="M 451.887,637.34 460.635,637.34 z" id="boundary" inkscape:connector-curvature="0" />
	<path style="fill:none;stroke:red;stroke-width:1px;stroke-linecap:butt;stroke-linejoin:miter;stroke-opacity:1" d="M 453.637,602.349 459.76,609.347 z" id="boundary" inkscape:connector-curvature="0" />
	<path style="fill:none;stroke:red;stroke-width:1px;stroke-linecap:butt;stroke-linejoin:miter;stroke-opacity:1" d="M 455.386,449.263 464.134,449.263 z" id="boundary" inkscape:connector-curvature="0" />
	<path style="fill:none;stroke:red;stroke-width:1px;stroke-linecap:butt;stroke-linejoin:miter;stroke-opacity:1" d="M 456.261,426.519 464.134,430.892 z" id="boundary" inkscape:connector-curvature="0" />
	<path style="fill:none;stroke:red;stroke-width:1px;stroke-linecap:butt;stroke-linejoin:miter;stroke-opacity:1" d="M 459.76,609.347 466.758,615.471 z" id="boundary" inkscape:connector-curvature="0" />
	<path style="fill:none;stroke:red;stroke-width:1px;stroke-linecap:butt;stroke-linejoin:miter;stroke-opacity:1" d="M 460.635,637.34 469.383,637.34 z" id="boundary" inkscape:connector-curvature="0" />
	<path style="fill:none;stroke:red;stroke-width:1px;stroke-linecap:butt;stroke-linejoin:miter;stroke-opacity:1" d="M 464.134,430.892 472.882,433.517 z" id="boundary" inkscape:connector-curvature="0" />
	<path style="fill:none;stroke:red;stroke-width:1px;stroke-linecap:butt;stroke-linejoin:miter;stroke-opacity:1" d="M 464.134,449.263 472.007,444.889 z" id="boundary" inkscape:connector-curvature="0" />
	<path style="fill:none;stroke:red;stroke-width:1px;stroke-linecap:butt;stroke-linejoin:miter;stroke-opacity:1" d="M 466.758,615.471 474.631,619.845 z" id="boundary" inkscape:connector-curvature="0" />
	<path style="fill:none;stroke:red;stroke-width:1px;stroke-linecap:butt;stroke-linejoin:miter;stroke-opacity:1" d="M 469.383,637.34 478.131,637.34 z" id="boundary" inkscape:connector-curvature="0" />
	<path style="fill:none;stroke:red;stroke-width:1px;stroke-linecap:butt;stroke-linejoin:miter;stroke-opacity:1" d="M 472.007,444.889 472.882,433.517 z" id="boundary" inkscape:connector-curvature="0" />
	<path style="fill:none;stroke:red;stroke-width:1px;stroke-linecap:butt;stroke-linejoin:miter;stroke-opacity:1" d="M 474.631,619.845 481.63,625.968 z" id="boundary" inkscape:connector-curvature="0" />
	<path style="fill:none;stroke:red;stroke-width:1px;stroke-linecap:butt;stroke-linejoin:miter;stroke-opacity:1" d="M 478.131,637.34 481.63,625.968 z" id="boundary" inkscape:connector-curvature="0" />
	<circle cx="4" cy="617.22" r="4" fill="#0" id="circle0"/>
	<circle cx="10.9982" cy="610.222" r="4" fill="#0" id="circle1"/>
	<circle cx="12.7478" cy="619.845" r="4" fill="#0" id="circle2"/>
	<circle cx="17.1217" cy="429.143" r="4" fill="#0" id="circle3"/>
	<circle cx="19.746" cy="605.848" r="4" fill="#0" id="circle4"/>
	<circle cx="21.4956" cy="420.395" r="4" fill="#0" id="circle5"/>
	<circle cx="21.4956" cy="619.845" r="4" fill="#0" id="circle6"/>
	<circle cx="25.8695" cy="431.767" r="4" fill="#0" id="circle7"/>
	<circle cx="28.4938" cy="601.474" r="4" fill="#0" id="circle8"/>
	<circle cx="30.2434" cy="416.021" r="4" fill="#0" id="circle9"/>
	<circle cx="30.2434" cy="619.845" r="4" fill="#0" id="circle10"/>
	<circle cx="34.6173" cy="210.448" r="4" fill="#0" id="circle11"/>
	<circle cx="34.6173" cy="431.767" r="4" fill="#0" id="circle12"/>
	<circle cx="35.4921" cy="594.476" r="4" fill="#0" id="circle13"/>
	<circle cx="37.2416" cy="409.023" r="4" fill="#0" id="circle14"/>
	<circle cx="38.9912" cy="619.845" r="4" fill="#0" id="circle15"/>
	<circle cx="42.4903" cy="588.353" r="4" fill="#0" id="circle16"/>
	<circle cx="43.3651" cy="206.074" r="4" fill="#0" id="circle17"/>
	<circle cx="43.3651" cy="429.143" r="4" fill="#0" id="circle18"/>
	<circle cx="44.2399" cy="402.025" r="4" fill="#0" id="circle19"/>
	<circle cx="47.739" cy="619.845" r="4" fill="#0" id="circle20"/>
	<circle cx="48.6138" cy="213.072" r="4" fill="#0" id="circle21"/>
	<circle cx="48.6138" cy="581.354" r="4" fill="#0" id="circle22"/>
	<circle cx="51.2381" cy="395.901" r="4" fill="#0" id="circle23"/>
	<circle cx="52.1129" cy="201.7" r="4" fill="#0" id="circle24"/>
	<circle cx="52.1129" cy="427.393" r="4" fill="#0" id="circle25"/>
	<circle cx="55.612" cy="575.231" r="4" fill="#0" id="circle26"/>
	<circle cx="56.4868" cy="619.845" r="4" fill="#0" id="circle27"/>
	<circle cx="57.3616" cy="213.072" r="4" fill="#0" id="circle28"/>
	<circle cx="59.1111" cy="391.527" r="4" fill="#0" id="circle29"/>
	<circle cx="60.8607" cy="197.326" r="4" fill="#0" id="circle30"/>
	<circle cx="60.8607" cy="424.769" r="4" fill="#0" id="circle31"/>
	<circle cx="60.8607" cy="564.734" r="4" fill="#0" id="circle32"/>
	<circle cx="65.2346" cy="619.845" r="4" fill="#0" id="circle33"/>
	<circle cx="66.1093" cy="213.072" r="4" fill="#0" id="circle34"/>
	<circle cx="66.1093" cy="384.529" r="4" fill="#0" id="circle35"/>
	<circle cx="67.8589" cy="557.735" r="4" fill="#0" id="circle36"/>
	<circle cx="69.6085" cy="194.702" r="4" fill="#0" id="circle37"/>
	<circle cx="69.6085" cy="420.395" r="4" fill="#0" id="circle38"/>
	<circle cx="73.1076" cy="378.406" r="4" fill="#0" id="circle39"/>
	<circle cx="73.1076" cy="624.219" r="4" fill="#0" id="circle40"/>
	<circle cx="74.8571" cy="208.698" r="4" fill="#0" id="circle41"/>
	<circle cx="74.8571" cy="550.737" r="4" fill="#0" id="circle42"/>
	<circle cx="78.3563" cy="192.952" r="4" fill="#0" id="circle43"/>
	<circle cx="78.3563" cy="418.646" r="4" fill="#0" id="circle44"/>
	<circle cx="79.231" cy="371.407" r="4" fill="#0" id="circle45"/>
	<circle cx="79.231" cy="541.989" r="4" fill="#0" id="circle46"/>
	<circle cx="81.8554" cy="624.219" r="4" fill="#0" id="circle47"/>
	<circle cx="83.6049" cy="204.325" r="4" fill="#0" id="circle48"/>
	<circle cx="83.6049" cy="533.242" r="4" fill="#0" id="circle49"/>
	<circle cx="86.2293" cy="365.284" r="4" fill="#0" id="circle50"/>
	<circle cx="87.1041" cy="188.578" r="4" fill="#0" id="circle51"/>
	<circle cx="87.1041" cy="416.021" r="4" fill="#0" id="circle52"/>
	<circle cx="89.7284" cy="356.536" r="4" fill="#0" id="circle53"/>
	<circle cx="90.6032" cy="527.118" r="4" fill="#0" id="circle54"/>
	<circle cx="90.6032" cy="624.219" r="4" fill="#0" id="circle55"/>
	<circle cx="91.478" cy="346.039" r="4" fill="#0" id="circle56"/>
	<circle cx="92.3527" cy="204.325" r="4" fill="#0" id="circle57"/>
	<circle cx="95.8519" cy="184.205" r="4" fill="#0" id="circle58"/>
	<circle cx="95.8519" cy="414.272" r="4" fill="#0" id="circle59"/>
	<circle cx="95.8519" cy="516.621" r="4" fill="#0" id="circle60"/>
	<circle cx="98.4762" cy="339.041" r="4" fill="#0" id="circle61"/>
	<circle cx="99.351" cy="624.219" r="4" fill="#0" id="circle62"/>
	<circle cx="100.226" cy="324.169" r="4" fill="#0" id="circle63"/>
	<circle cx="100.226" cy="507.873" r="4" fill="#0" id="circle64"/>
	<circle cx="101.101" cy="204.325" r="4" fill="#0" id="circle65"/>
	<circle cx="104.6" cy="179.831" r="4" fill="#0" id="circle66"/>
	<circle cx="104.6" cy="315.422" r="4" fill="#0" id="circle67"/>
	<circle cx="104.6" cy="411.647" r="4" fill="#0" id="circle68"/>
	<circle cx="107.224" cy="500.875" r="4" fill="#0" id="circle69"/>
	<circle cx="108.099" cy="624.219" r="4" fill="#0" id="circle70"/>
	<circle cx="109.848" cy="204.325" r="4" fill="#0" id="circle71"/>
	<circle cx="111.598" cy="308.423" r="4" fill="#0" id="circle72"/>
	<circle cx="113.347" cy="175.457" r="4" fill="#0" id="circle73"/>
	<circle cx="113.347" cy="409.898" r="4" fill="#0" id="circle74"/>
	<circle cx="114.222" cy="493.877" r="4" fill="#0" id="circle75"/>
	<circle cx="115.972" cy="299.675" r="4" fill="#0" id="circle76"/>
	<circle cx="115.972" cy="628.593" r="4" fill="#0" id="circle77"/>
	<circle cx="117.721" cy="199.951" r="4" fill="#0" id="circle78"/>
	<circle cx="118.596" cy="485.129" r="4" fill="#0" id="circle79"/>
	<circle cx="120.346" cy="168.459" r="4" fill="#0" id="circle80"/>
	<circle cx="120.346" cy="290.928" r="4" fill="#0" id="circle81"/>
	<circle cx="122.095" cy="409.898" r="4" fill="#0" id="circle82"/>
	<circle cx="124.72" cy="282.18" r="4" fill="#0" id="circle83"/>
	<circle cx="124.72" cy="628.593" r="4" fill="#0" id="circle84"/>
	<circle cx="125.594" cy="479.005" r="4" fill="#0" id="circle85"/>
	<circle cx="126.469" cy="199.951" r="4" fill="#0" id="circle86"/>
	<circle cx="128.219" cy="164.085" r="4" fill="#0" id="circle87"/>
	<circle cx="129.093" cy="273.432" r="4" fill="#0" id="circle88"/>
	<circle cx="130.843" cy="409.898" r="4" fill="#0" id="circle89"/>
	<circle cx="130.843" cy="468.508" r="4" fill="#0" id="circle90"/>
	<circle cx="133.467" cy="264.684" r="4" fill="#0" id="circle91"/>
	<circle cx="133.467" cy="628.593" r="4" fill="#0" id="circle92"/>
	<circle cx="135.217" cy="157.961" r="4" fill="#0" id="circle93"/>
	<circle cx="135.217" cy="199.951" r="4" fill="#0" id="circle94"/>
	<circle cx="135.217" cy="459.76" r="4" fill="#0" id="circle95"/>
	<circle cx="137.841" cy="255.937" r="4" fill="#0" id="circle96"/>
	<circle cx="138.716" cy="414.272" r="4" fill="#0" id="circle97"/>
	<circle cx="139.591" cy="451.012" r="4" fill="#0" id="circle98"/>
	<circle cx="142.215" cy="150.963" r="4" fill="#0" id="circle99"/>
	<circle cx="142.215" cy="247.189" r="4" fill="#0" id="circle100"/>
	<circle cx="142.215" cy="628.593" r="4" fill="#0" id="circle101"/>
	<circle cx="143.09" cy="204.325" r="4" fill="#0" id="circle102"/>
	<circle cx="143.965" cy="421.27" r="4" fill="#0" id="circle103"/>
	<circle cx="143.965" cy="430.018" r="4" fill="#0" id="circle104"/>
	<circle cx="143.965" cy="438.765" r="4" fill="#0" id="circle105"/>
	<circle cx="146.589" cy="238.441" r="4" fill="#0" id="circle106"/>
	<circle cx="148.339" cy="211.323" r="4" fill="#0" id="circle107"/>
	<circle cx="148.339" cy="220.071" r="4" fill="#0" id="circle108"/>
	<circle cx="148.339" cy="228.818" r="4" fill="#0" id="circle109"/>
	<circle cx="150.088" cy="146.589" r="4" fill="#0" id="circle110"/>
	<circle cx="150.963" cy="632.092" r="4" fill="#0" id="circle111"/>
	<circle cx="157.086" cy="140.466" r="4" fill="#0" id="circle112"/>
	<circle cx="158.836" cy="636.466" r="4" fill="#0" id="circle113"/>
	<circle cx="164.085" cy="133.467" r="4" fill="#0" id="circle114"/>
	<circle cx="167.584" cy="637.34" r="4" fill="#0" id="circle115"/>
	<circle cx="171.083" cy="126.469" r="4" fill="#0" id="circle116"/>
	<circle cx="176.332" cy="639.965" r="4" fill="#0" id="circle117"/>
	<circle cx="178.081" cy="120.346" r="4" fill="#0" id="circle118"/>
	<circle cx="183.33" cy="646.088" r="4" fill="#0" id="circle119"/>
	<circle cx="183.33" cy="654.836" r="4" fill="#0" id="circle120"/>
	<circle cx="184.205" cy="113.347" r="4" fill="#0" id="circle121"/>
	<circle cx="185.954" cy="663.584" r="4" fill="#0" id="circle122"/>
	<circle cx="187.704" cy="672.332" r="4" fill="#0" id="circle123"/>
	<circle cx="190.328" cy="681.079" r="4" fill="#0" id="circle124"/>
	<circle cx="191.203" cy="107.224" r="4" fill="#0" id="circle125"/>
	<circle cx="192.078" cy="689.827" r="4" fill="#0" id="circle126"/>
	<circle cx="192.078" cy="698.575" r="4" fill="#0" id="circle127"/>
	<circle cx="192.078" cy="707.323" r="4" fill="#0" id="circle128"/>
	<circle cx="192.078" cy="716.071" r="4" fill="#0" id="circle129"/>
	<circle cx="192.078" cy="724.818" r="4" fill="#0" id="circle130"/>
	<circle cx="192.078" cy="733.566" r="4" fill="#0" id="circle131"/>
	<circle cx="192.078" cy="742.314" r="4" fill="#0" id="circle132"/>
	<circle cx="192.078" cy="751.062" r="4" fill="#0" id="circle133"/>
	<circle cx="192.078" cy="759.81" r="4" fill="#0" id="circle134"/>
	<circle cx="192.078" cy="768.557" r="4" fill="#0" id="circle135"/>
	<circle cx="192.078" cy="777.305" r="4" fill="#0" id="circle136"/>
	<circle cx="192.078" cy="786.053" r="4" fill="#0" id="circle137"/>
	<circle cx="192.078" cy="794.801" r="4" fill="#0" id="circle138"/>
	<circle cx="192.078" cy="803.549" r="4" fill="#0" id="circle139"/>
	<circle cx="192.078" cy="812.296" r="4" fill="#0" id="circle140"/>
	<circle cx="192.078" cy="821.044" r="4" fill="#0" id="circle141"/>
	<circle cx="192.078" cy="829.792" r="4" fill="#0" id="circle142"/>
	<circle cx="194.702" cy="98.4762" r="4" fill="#0" id="circle143"/>
	<circle cx="194.702" cy="838.54" r="4" fill="#0" id="circle144"/>
	<circle cx="196.451" cy="847.287" r="4" fill="#0" id="circle145"/>
	<circle cx="196.451" cy="856.035" r="4" fill="#0" id="circle146"/>
	<circle cx="196.451" cy="864.783" r="4" fill="#0" id="circle147"/>
	<circle cx="196.451" cy="873.531" r="4" fill="#0" id="circle148"/>
	<circle cx="196.451" cy="882.279" r="4" fill="#0" id="circle149"/>
	<circle cx="196.451" cy="891.026" r="4" fill="#0" id="circle150"/>
	<circle cx="196.451" cy="899.774" r="4" fill="#0" id="circle151"/>
	<circle cx="199.076" cy="908.522" r="4" fill="#0" id="circle152"/>
	<circle cx="200.825" cy="87.9788" r="4" fill="#0" id="circle153"/>
	<circle cx="200.825" cy="917.27" r="4" fill="#0" id="circle154"/>
	<circle cx="205.199" cy="79.231" r="4" fill="#0" id="circle155"/>
	<circle cx="205.199" cy="925.143" r="4" fill="#0" id="circle156"/>
	<circle cx="205.199" cy="933.891" r="4" fill="#0" id="circle157"/>
	<circle cx="209.573" cy="70.4832" r="4" fill="#0" id="circle158"/>
	<circle cx="209.573" cy="941.764" r="4" fill="#0" id="circle159"/>
	<circle cx="209.573" cy="950.511" r="4" fill="#0" id="circle160"/>
	<circle cx="210.448" cy="959.259" r="4" fill="#0" id="circle161"/>
	<circle cx="213.947" cy="61.7354" r="4" fill="#0" id="circle162"/>
	<circle cx="217.446" cy="965.383" r="4" fill="#0" id="circle163"/>
	<circle cx="220.945" cy="54.7372" r="4" fill="#0" id="circle164"/>
	<circle cx="220.945" cy="974.131" r="4" fill="#0" id="circle165"/>
	<circle cx="227.944" cy="47.739" r="4" fill="#0" id="circle166"/>
	<circle cx="227.944" cy="980.254" r="4" fill="#0" id="circle167"/>
	<circle cx="232.317" cy="38.9912" r="4" fill="#0" id="circle168"/>
	<circle cx="234.067" cy="987.252" r="4" fill="#0" id="circle169"/>
	<circle cx="236.691" cy="30.2434" r="4" fill="#0" id="circle170"/>
	<circle cx="241.065" cy="21.4956" r="4" fill="#0" id="circle171"/>
	<circle cx="242.815" cy="987.252" r="4" fill="#0" id="circle172"/>
	<circle cx="244.564" cy="4.87478" r="4" fill="#0" id="circle173"/>
	<circle cx="251.563" cy="987.252" r="4" fill="#0" id="circle174"/>
	<circle cx="253.312" cy="4" r="4" fill="#0" id="circle175"/>
	<circle cx="258.561" cy="10.9982" r="4" fill="#0" id="circle176"/>
	<circle cx="260.31" cy="987.252" r="4" fill="#0" id="circle177"/>
	<circle cx="262.935" cy="18.8713" r="4" fill="#0" id="circle178"/>
	<circle cx="262.935" cy="27.619" r="4" fill="#0" id="circle179"/>
	<circle cx="267.309" cy="35.4921" r="4" fill="#0" id="circle180"/>
	<circle cx="269.058" cy="987.252" r="4" fill="#0" id="circle181"/>
	<circle cx="270.808" cy="44.2399" r="4" fill="#0" id="circle182"/>
	<circle cx="276.056" cy="51.2381" r="4" fill="#0" id="circle183"/>
	<circle cx="276.931" cy="991.626" r="4" fill="#0" id="circle184"/>
	<circle cx="280.43" cy="59.1111" r="4" fill="#0" id="circle185"/>
	<circle cx="284.804" cy="66.9841" r="4" fill="#0" id="circle186"/>
	<circle cx="285.679" cy="991.626" r="4" fill="#0" id="circle187"/>
	<circle cx="289.178" cy="74.8571" r="4" fill="#0" id="circle188"/>
	<circle cx="293.552" cy="82.7302" r="4" fill="#0" id="circle189"/>
	<circle cx="294.427" cy="991.626" r="4" fill="#0" id="circle190"/>
	<circle cx="296.176" cy="91.478" r="4" fill="#0" id="circle191"/>
	<circle cx="302.3" cy="98.4762" r="4" fill="#0" id="circle192"/>
	<circle cx="303.175" cy="991.626" r="4" fill="#0" id="circle193"/>
	<circle cx="306.674" cy="106.349" r="4" fill="#0" id="circle194"/>
	<circle cx="306.674" cy="191.203" r="4" fill="#0" id="circle195"/>
	<circle cx="306.674" cy="199.951" r="4" fill="#0" id="circle196"/>
	<circle cx="306.674" cy="208.698" r="4" fill="#0" id="circle197"/>
	<circle cx="311.048" cy="216.571" r="4" fill="#0" id="circle198"/>
	<circle cx="311.048" cy="225.319" r="4" fill="#0" id="circle199"/>
	<circle cx="311.922" cy="991.626" r="4" fill="#0" id="circle200"/>
	<circle cx="313.672" cy="112.473" r="4" fill="#0" id="circle201"/>
	<circle cx="313.672" cy="185.079" r="4" fill="#0" id="circle202"/>
	<circle cx="315.422" cy="233.192" r="4" fill="#0" id="circle203"/>
	<circle cx="319.795" cy="119.471" r="4" fill="#0" id="circle204"/>
	<circle cx="319.795" cy="241.065" r="4" fill="#0" id="circle205"/>
	<circle cx="319.795" cy="249.813" r="4" fill="#0" id="circle206"/>
	<circle cx="319.795" cy="996" r="4" fill="#0" id="circle207"/>
	<circle cx="322.42" cy="182.455" r="4" fill="#0" id="circle208"/>
	<circle cx="323.295" cy="258.561" r="4" fill="#0" id="circle209"/>
	<circle cx="326.794" cy="125.594" r="4" fill="#0" id="circle210"/>
	<circle cx="327.668" cy="266.434" r="4" fill="#0" id="circle211"/>
	<circle cx="328.543" cy="431.767" r="4" fill="#0" id="circle212"/>
	<circle cx="328.543" cy="440.515" r="4" fill="#0" id="circle213"/>
	<circle cx="328.543" cy="449.263" r="4" fill="#0" id="circle214"/>
	<circle cx="328.543" cy="996" r="4" fill="#0" id="circle215"/>
	<circle cx="331.168" cy="182.455" r="4" fill="#0" id="circle216"/>
	<circle cx="331.168" cy="275.182" r="4" fill="#0" id="circle217"/>
	<circle cx="332.917" cy="132.593" r="4" fill="#0" id="circle218"/>
	<circle cx="332.917" cy="457.136" r="4" fill="#0" id="circle219"/>
	<circle cx="332.917" cy="465.884" r="4" fill="#0" id="circle220"/>
	<circle cx="335.541" cy="283.055" r="4" fill="#0" id="circle221"/>
	<circle cx="335.541" cy="425.644" r="4" fill="#0" id="circle222"/>
	<circle cx="337.291" cy="646.088" r="4" fill="#0" id="circle223"/>
	<circle cx="337.291" cy="654.836" r="4" fill="#0" id="circle224"/>
	<circle cx="337.291" cy="663.584" r="4" fill="#0" id="circle225"/>
	<circle cx="337.291" cy="996" r="4" fill="#0" id="circle226"/>
	<circle cx="339.041" cy="186.829" r="4" fill="#0" id="circle227"/>
	<circle cx="339.041" cy="291.802" r="4" fill="#0" id="circle228"/>
	<circle cx="339.915" cy="138.716" r="4" fill="#0" id="circle229"/>
	<circle cx="339.915" cy="471.132" r="4" fill="#0" id="circle230"/>
	<circle cx="341.665" cy="637.34" r="4" fill="#0" id="circle231"/>
	<circle cx="341.665" cy="671.457" r="4" fill="#0" id="circle232"/>
	<circle cx="341.665" cy="680.205" r="4" fill="#0" id="circle233"/>
	<circle cx="343.414" cy="299.675" r="4" fill="#0" id="circle234"/>
	<circle cx="343.414" cy="479.88" r="4" fill="#0" id="circle235"/>
	<circle cx="344.289" cy="423.019" r="4" fill="#0" id="circle236"/>
	<circle cx="346.039" cy="145.714" r="4" fill="#0" id="circle237"/>
	<circle cx="346.039" cy="688.078" r="4" fill="#0" id="circle238"/>
	<circle cx="346.039" cy="696.825" r="4" fill="#0" id="circle239"/>
	<circle cx="346.039" cy="705.573" r="4" fill="#0" id="circle240"/>
	<circle cx="346.039" cy="714.321" r="4" fill="#0" id="circle241"/>
	<circle cx="346.039" cy="996" r="4" fill="#0" id="circle242"/>
	<circle cx="346.914" cy="191.203" r="4" fill="#0" id="circle243"/>
	<circle cx="347.788" cy="487.753" r="4" fill="#0" id="circle244"/>
	<circle cx="348.663" cy="631.217" r="4" fill="#0" id="circle245"/>
	<circle cx="349.538" cy="306.674" r="4" fill="#0" id="circle246"/>
	<circle cx="350.413" cy="722.194" r="4" fill="#0" id="circle247"/>
	<circle cx="350.413" cy="730.942" r="4" fill="#0" id="circle248"/>
	<circle cx="350.413" cy="739.69" r="4" fill="#0" id="circle249"/>
	<circle cx="350.413" cy="748.437" r="4" fill="#0" id="circle250"/>
	<circle cx="350.413" cy="757.185" r="4" fill="#0" id="circle251"/>
	<circle cx="350.413" cy="765.933" r="4" fill="#0" id="circle252"/>
	<circle cx="350.413" cy="774.681" r="4" fill="#0" id="circle253"/>
	<circle cx="350.413" cy="783.429" r="4" fill="#0" id="circle254"/>
	<circle cx="350.413" cy="792.176" r="4" fill="#0" id="circle255"/>
	<circle cx="350.413" cy="800.924" r="4" fill="#0" id="circle256"/>
	<circle cx="350.413" cy="809.672" r="4" fill="#0" id="circle257"/>
	<circle cx="350.413" cy="818.42" r="4" fill="#0" id="circle258"/>
	<circle cx="350.413" cy="827.168" r="4" fill="#0" id="circle259"/>
	<circle cx="350.413" cy="835.915" r="4" fill="#0" id="circle260"/>
	<circle cx="353.037" cy="151.838" r="4" fill="#0" id="circle261"/>
	<circle cx="353.037" cy="423.019" r="4" fill="#0" id="circle262"/>
	<circle cx="353.912" cy="494.751" r="4" fill="#0" id="circle263"/>
	<circle cx="354.787" cy="195.577" r="4" fill="#0" id="circle264"/>
	<circle cx="354.787" cy="313.672" r="4" fill="#0" id="circle265"/>
	<circle cx="354.787" cy="843.788" r="4" fill="#0" id="circle266"/>
	<circle cx="354.787" cy="852.536" r="4" fill="#0" id="circle267"/>
	<circle cx="354.787" cy="996" r="4" fill="#0" id="circle268"/>
	<circle cx="357.411" cy="628.593" r="4" fill="#0" id="circle269"/>
	<circle cx="357.411" cy="861.284" r="4" fill="#0" id="circle270"/>
	<circle cx="359.16" cy="158.836" r="4" fill="#0" id="circle271"/>
	<circle cx="359.16" cy="321.545" r="4" fill="#0" id="circle272"/>
	<circle cx="359.16" cy="501.75" r="4" fill="#0" id="circle273"/>
	<circle cx="359.16" cy="870.032" r="4" fill="#0" id="circle274"/>
	<circle cx="359.16" cy="878.78" r="4" fill="#0" id="circle275"/>
	<circle cx="360.91" cy="427.393" r="4" fill="#0" id="circle276"/>
	<circle cx="361.785" cy="989.877" r="4" fill="#0" id="circle277"/>
	<circle cx="362.66" cy="199.951" r="4" fill="#0" id="circle278"/>
	<circle cx="363.534" cy="329.418" r="4" fill="#0" id="circle279"/>
	<circle cx="363.534" cy="509.623" r="4" fill="#0" id="circle280"/>
	<circle cx="363.534" cy="886.653" r="4" fill="#0" id="circle281"/>
	<circle cx="365.284" cy="895.4" r="4" fill="#0" id="circle282"/>
	<circle cx="366.159" cy="164.959" r="4" fill="#0" id="circle283"/>
	<circle cx="366.159" cy="628.593" r="4" fill="#0" id="circle284"/>
	<circle cx="367.908" cy="206.949" r="4" fill="#0" id="circle285"/>
	<circle cx="367.908" cy="337.291" r="4" fill="#0" id="circle286"/>
	<circle cx="367.908" cy="517.496" r="4" fill="#0" id="circle287"/>
	<circle cx="367.908" cy="904.148" r="4" fill="#0" id="circle288"/>
	<circle cx="367.908" cy="969.757" r="4" fill="#0" id="circle289"/>
	<circle cx="367.908" cy="978.504" r="4" fill="#0" id="circle290"/>
	<circle cx="369.658" cy="430.892" r="4" fill="#0" id="circle291"/>
	<circle cx="369.658" cy="912.896" r="4" fill="#0" id="circle292"/>
	<circle cx="371.407" cy="346.039" r="4" fill="#0" id="circle293"/>
	<circle cx="372.282" cy="171.958" r="4" fill="#0" id="circle294"/>
	<circle cx="372.282" cy="921.644" r="4" fill="#0" id="circle295"/>
	<circle cx="372.282" cy="930.392" r="4" fill="#0" id="circle296"/>
	<circle cx="372.282" cy="939.139" r="4" fill="#0" id="circle297"/>
	<circle cx="372.282" cy="947.887" r="4" fill="#0" id="circle298"/>
	<circle cx="372.282" cy="956.635" r="4" fill="#0" id="circle299"/>
	<circle cx="374.907" cy="523.619" r="4" fill="#0" id="circle300"/>
	<circle cx="374.907" cy="628.593" r="4" fill="#0" id="circle301"/>
	<circle cx="376.656" cy="210.448" r="4" fill="#0" id="circle302"/>
	<circle cx="377.531" cy="435.266" r="4" fill="#0" id="circle303"/>
	<circle cx="378.406" cy="352.162" r="4" fill="#0" id="circle304"/>
	<circle cx="379.28" cy="178.081" r="4" fill="#0" id="circle305"/>
	<circle cx="381.03" cy="360.91" r="4" fill="#0" id="circle306"/>
	<circle cx="381.03" cy="530.617" r="4" fill="#0" id="circle307"/>
	<circle cx="382.78" cy="632.966" r="4" fill="#0" id="circle308"/>
	<circle cx="385.404" cy="185.079" r="4" fill="#0" id="circle309"/>
	<circle cx="385.404" cy="213.072" r="4" fill="#0" id="circle310"/>
	<circle cx="386.279" cy="438.765" r="4" fill="#0" id="circle311"/>
	<circle cx="388.028" cy="366.159" r="4" fill="#0" id="circle312"/>
	<circle cx="388.028" cy="536.741" r="4" fill="#0" id="circle313"/>
	<circle cx="389.778" cy="192.952" r="4" fill="#0" id="circle314"/>
	<circle cx="390.653" cy="637.34" r="4" fill="#0" id="circle315"/>
	<circle cx="394.152" cy="214.822" r="4" fill="#0" id="circle316"/>
	<circle cx="394.152" cy="373.157" r="4" fill="#0" id="circle317"/>
	<circle cx="394.152" cy="543.739" r="4" fill="#0" id="circle318"/>
	<circle cx="395.026" cy="440.515" r="4" fill="#0" id="circle319"/>
	<circle cx="396.776" cy="199.076" r="4" fill="#0" id="circle320"/>
	<circle cx="399.4" cy="637.34" r="4" fill="#0" id="circle321"/>
	<circle cx="401.15" cy="379.28" r="4" fill="#0" id="circle322"/>
	<circle cx="401.15" cy="549.862" r="4" fill="#0" id="circle323"/>
	<circle cx="402.899" cy="217.446" r="4" fill="#0" id="circle324"/>
	<circle cx="403.774" cy="443.139" r="4" fill="#0" id="circle325"/>
	<circle cx="404.649" cy="203.45" r="4" fill="#0" id="circle326"/>
	<circle cx="407.273" cy="386.279" r="4" fill="#0" id="circle327"/>
	<circle cx="407.273" cy="556.861" r="4" fill="#0" id="circle328"/>
	<circle cx="408.148" cy="637.34" r="4" fill="#0" id="circle329"/>
	<circle cx="410.772" cy="210.448" r="4" fill="#0" id="circle330"/>
	<circle cx="412.522" cy="444.889" r="4" fill="#0" id="circle331"/>
	<circle cx="414.272" cy="392.402" r="4" fill="#0" id="circle332"/>
	<circle cx="414.272" cy="562.984" r="4" fill="#0" id="circle333"/>
	<circle cx="416.896" cy="637.34" r="4" fill="#0" id="circle334"/>
	<circle cx="420.395" cy="399.4" r="4" fill="#0" id="circle335"/>
	<circle cx="420.395" cy="569.982" r="4" fill="#0" id="circle336"/>
	<circle cx="421.27" cy="444.889" r="4" fill="#0" id="circle337"/>
	<circle cx="425.644" cy="637.34" r="4" fill="#0" id="circle338"/>
	<circle cx="427.393" cy="405.524" r="4" fill="#0" id="circle339"/>
	<circle cx="427.393" cy="576.106" r="4" fill="#0" id="circle340"/>
	<circle cx="429.143" cy="449.263" r="4" fill="#0" id="circle341"/>
	<circle cx="433.517" cy="412.522" r="4" fill="#0" id="circle342"/>
	<circle cx="433.517" cy="583.104" r="4" fill="#0" id="circle343"/>
	<circle cx="434.392" cy="637.34" r="4" fill="#0" id="circle344"/>
	<circle cx="437.891" cy="449.263" r="4" fill="#0" id="circle345"/>
	<circle cx="440.515" cy="417.771" r="4" fill="#0" id="circle346"/>
	<circle cx="440.515" cy="589.228" r="4" fill="#0" id="circle347"/>
	<circle cx="443.139" cy="637.34" r="4" fill="#0" id="circle348"/>
	<circle cx="446.638" cy="449.263" r="4" fill="#0" id="circle349"/>
	<circle cx="446.638" cy="596.226" r="4" fill="#0" id="circle350"/>
	<circle cx="448.388" cy="422.145" r="4" fill="#0" id="circle351"/>
	<circle cx="451.887" cy="637.34" r="4" fill="#0" id="circle352"/>
	<circle cx="453.637" cy="602.349" r="4" fill="#0" id="circle353"/>
	<circle cx="455.386" cy="449.263" r="4" fill="#0" id="circle354"/>
	<circle cx="456.261" cy="426.519" r="4" fill="#0" id="circle355"/>
	<circle cx="459.76" cy="609.347" r="4" fill="#0" id="circle356"/>
	<circle cx="460.635" cy="637.34" r="4" fill="#0" id="circle357"/>
	<circle cx="464.134" cy="430.892" r="4" fill="#0" id="circle358"/>
	<circle cx="464.134" cy="449.263" r="4" fill="#0" id="circle359"/>
	<circle cx="466.758" cy="615.471" r="4" fill="#0" id="circle360"/>
	<circle cx="469.383" cy="637.34" r="4" fill="#0" id="circle361"/>
	<circle cx="472.007" cy="444.889" r="4" fill="#0" id="circle362"/>
	<circle cx="472.882" cy="433.517" r="4" fill="#0" id="circle363"/>
	<circle cx="474.631" cy="619.845" r="4" fill="#0" id="circle364"/>
	<circle cx="478.131" cy="637.34" r="4" fill="#0" id="circle365"/>
	<circle cx="479.88" cy="438.765" r="4" fill="#0" id="circle366"/>
	<circle cx="481.63" cy="625.968" r="4" fill="#0" id="circle367"/>
	</g>
</svg>