<?xml version="1.0" encoding="UTF-8" standalone="no"?>
<!-- Created with CurveBenchmark -->
<svg
	xmlns:dc="http://purl.org/dc/elements/1.1/"
	xmlns:cc="http://creativecommons.org/ns#"
	xmlns:rdf="http://www.w3.org/1999/02/22-rdf-syntax-ns#"
	xmlns:svg="http://www.w3.org/2000/svg"
	xmlns="http://www.w3.org/2000/svg"
	xmlns:sodipodi="http://sodipodi.sourceforge.net/DTD/sodipodi-0.dtd"
	xmlns:inkscape="http://www.inkscape.org/namespaces/inkscape"
	width="1000"
	height="1000"
	id="svg2"
	version="1.1"
	sodipodi:docname="manifold/discur-Bone06.png.txt">
<defs
	id="defs4" />
<metadata
	id="metadata7">
	<rdf:RDF>
		<cc:Work
			rdf:about="">
			<dc:format>image/svg+xml</dc:format>
			<dc:type
				rdf:resource="http://purl.org/dc/dcmitype/StillImage" />
			<dc:title></dc:title>
		</cc:Work>
	</rdf:RDF>
</metadata>
<g
	inkscape:label="Layer 1"
	inkscape:groupmode="layer"
	id="layer1">
	<path style="fill:none;stroke:red;stroke-width:1px;stroke-linecap:butt;stroke-linejoin:miter;stroke-opacity:1" d="M 4,805.824 4,822.957 z" id="boundary" inkscape:connector-curvature="0" />
	<path style="fill:none;stroke:red;stroke-width:1px;stroke-linecap:butt;stroke-linejoin:miter;stroke-opacity:1" d="M 4,805.824 17.7064,792.117 z" id="boundary" inkscape:connector-curvature="0" />
	<path style="fill:none;stroke:red;stroke-width:1px;stroke-linecap:butt;stroke-linejoin:miter;stroke-opacity:1" d="M 4,822.957 4,840.09 z" id="boundary" inkscape:connector-curvature="0" />
	<path style="fill:none;stroke:red;stroke-width:1px;stroke-linecap:butt;stroke-linejoin:miter;stroke-opacity:1" d="M 4,840.09 12.5665,855.509 z" id="boundary" inkscape:connector-curvature="0" />
	<path style="fill:none;stroke:red;stroke-width:1px;stroke-linecap:butt;stroke-linejoin:miter;stroke-opacity:1" d="M 12.5665,855.509 12.5665,872.642 z" id="boundary" inkscape:connector-curvature="0" />
	<path style="fill:none;stroke:red;stroke-width:1px;stroke-linecap:butt;stroke-linejoin:miter;stroke-opacity:1" d="M 12.5665,872.642 21.133,888.062 z" id="boundary" inkscape:connector-curvature="0" />
	<path style="fill:none;stroke:red;stroke-width:1px;stroke-linecap:butt;stroke-linejoin:miter;stroke-opacity:1" d="M 17.7064,792.117 31.4128,778.411 z" id="boundary" inkscape:connector-curvature="0" />
	<path style="fill:none;stroke:red;stroke-width:1px;stroke-linecap:butt;stroke-linejoin:miter;stroke-opacity:1" d="M 21.133,888.062 21.133,905.195 z" id="boundary" inkscape:connector-curvature="0" />
	<path style="fill:none;stroke:red;stroke-width:1px;stroke-linecap:butt;stroke-linejoin:miter;stroke-opacity:1" d="M 21.133,905.195 26.2729,922.328 z" id="boundary" inkscape:connector-curvature="0" />
	<path style="fill:none;stroke:red;stroke-width:1px;stroke-linecap:butt;stroke-linejoin:miter;stroke-opacity:1" d="M 26.2729,922.328 34.8394,937.748 z" id="boundary" inkscape:connector-curvature="0" />
	<path style="fill:none;stroke:red;stroke-width:1px;stroke-linecap:butt;stroke-linejoin:miter;stroke-opacity:1" d="M 31.4128,778.411 45.1192,766.418 z" id="boundary" inkscape:connector-curvature="0" />
	<path style="fill:none;stroke:red;stroke-width:1px;stroke-linecap:butt;stroke-linejoin:miter;stroke-opacity:1" d="M 34.8394,937.748 46.8325,951.454 z" id="boundary" inkscape:connector-curvature="0" />
	<path style="fill:none;stroke:red;stroke-width:1px;stroke-linecap:butt;stroke-linejoin:miter;stroke-opacity:1" d="M 45.1192,766.418 60.5389,757.851 z" id="boundary" inkscape:connector-curvature="0" />
	<path style="fill:none;stroke:red;stroke-width:1px;stroke-linecap:butt;stroke-linejoin:miter;stroke-opacity:1" d="M 46.8325,951.454 63.9655,956.594 z" id="boundary" inkscape:connector-curvature="0" />
	<path style="fill:none;stroke:red;stroke-width:1px;stroke-linecap:butt;stroke-linejoin:miter;stroke-opacity:1" d="M 60.5389,757.851 77.6718,749.285 z" id="boundary" inkscape:connector-curvature="0" />
	<path style="fill:none;stroke:red;stroke-width:1px;stroke-linecap:butt;stroke-linejoin:miter;stroke-opacity:1" d="M 63.9655,956.594 79.3851,965.161 z" id="boundary" inkscape:connector-curvature="0" />
	<path style="fill:none;stroke:red;stroke-width:1px;stroke-linecap:butt;stroke-linejoin:miter;stroke-opacity:1" d="M 77.6718,749.285 93.0915,757.851 z" id="boundary" inkscape:connector-curvature="0" />
	<path style="fill:none;stroke:red;stroke-width:1px;stroke-linecap:butt;stroke-linejoin:miter;stroke-opacity:1" d="M 79.3851,965.161 94.8048,973.727 z" id="boundary" inkscape:connector-curvature="0" />
	<path style="fill:none;stroke:red;stroke-width:1px;stroke-linecap:butt;stroke-linejoin:miter;stroke-opacity:1" d="M 93.0915,757.851 106.798,769.845 z" id="boundary" inkscape:connector-curvature="0" />
	<path style="fill:none;stroke:red;stroke-width:1px;stroke-linecap:butt;stroke-linejoin:miter;stroke-opacity:1" d="M 94.8048,973.727 111.938,980.58 z" id="boundary" inkscape:connector-curvature="0" />
	<path style="fill:none;stroke:red;stroke-width:1px;stroke-linecap:butt;stroke-linejoin:miter;stroke-opacity:1" d="M 106.798,769.845 123.931,774.984 z" id="boundary" inkscape:connector-curvature="0" />
	<path style="fill:none;stroke:red;stroke-width:1px;stroke-linecap:butt;stroke-linejoin:miter;stroke-opacity:1" d="M 111.938,980.58 129.071,982.294 z" id="boundary" inkscape:connector-curvature="0" />
	<path style="fill:none;stroke:red;stroke-width:1px;stroke-linecap:butt;stroke-linejoin:miter;stroke-opacity:1" d="M 123.931,774.984 139.351,783.551 z" id="boundary" inkscape:connector-curvature="0" />
	<path style="fill:none;stroke:red;stroke-width:1px;stroke-linecap:butt;stroke-linejoin:miter;stroke-opacity:1" d="M 129.071,982.294 144.491,990.86 z" id="boundary" inkscape:connector-curvature="0" />
	<path style="fill:none;stroke:red;stroke-width:1px;stroke-linecap:butt;stroke-linejoin:miter;stroke-opacity:1" d="M 139.351,783.551 156.484,783.551 z" id="boundary" inkscape:connector-curvature="0" />
	<path style="fill:none;stroke:red;stroke-width:1px;stroke-linecap:butt;stroke-linejoin:miter;stroke-opacity:1" d="M 144.491,990.86 161.623,996 z" id="boundary" inkscape:connector-curvature="0" />
	<path style="fill:none;stroke:red;stroke-width:1px;stroke-linecap:butt;stroke-linejoin:miter;stroke-opacity:1" d="M 156.484,783.551 168.477,769.845 z" id="boundary" inkscape:connector-curvature="0" />
	<path style="fill:none;stroke:red;stroke-width:1px;stroke-linecap:butt;stroke-linejoin:miter;stroke-opacity:1" d="M 161.623,996 178.756,990.86 z" id="boundary" inkscape:connector-curvature="0" />
	<path style="fill:none;stroke:red;stroke-width:1px;stroke-linecap:butt;stroke-linejoin:miter;stroke-opacity:1" d="M 168.477,769.845 182.183,757.851 z" id="boundary" inkscape:connector-curvature="0" />
	<path style="fill:none;stroke:red;stroke-width:1px;stroke-linecap:butt;stroke-linejoin:miter;stroke-opacity:1" d="M 178.756,990.86 194.176,982.294 z" id="boundary" inkscape:connector-curvature="0" />
	<path style="fill:none;stroke:red;stroke-width:1px;stroke-linecap:butt;stroke-linejoin:miter;stroke-opacity:1" d="M 182.183,757.851 189.036,740.718 z" id="boundary" inkscape:connector-curvature="0" />
	<path style="fill:none;stroke:red;stroke-width:1px;stroke-linecap:butt;stroke-linejoin:miter;stroke-opacity:1" d="M 189.036,740.718 197.603,723.585 z" id="boundary" inkscape:connector-curvature="0" />
	<path style="fill:none;stroke:red;stroke-width:1px;stroke-linecap:butt;stroke-linejoin:miter;stroke-opacity:1" d="M 194.176,982.294 207.883,970.301 z" id="boundary" inkscape:connector-curvature="0" />
	<path style="fill:none;stroke:red;stroke-width:1px;stroke-linecap:butt;stroke-linejoin:miter;stroke-opacity:1" d="M 197.603,723.585 209.596,703.026 z" id="boundary" inkscape:connector-curvature="0" />
	<path style="fill:none;stroke:red;stroke-width:1px;stroke-linecap:butt;stroke-linejoin:miter;stroke-opacity:1" d="M 207.883,970.301 225.016,961.734 z" id="boundary" inkscape:connector-curvature="0" />
	<path style="fill:none;stroke:red;stroke-width:1px;stroke-linecap:butt;stroke-linejoin:miter;stroke-opacity:1" d="M 209.596,703.026 223.302,689.32 z" id="boundary" inkscape:connector-curvature="0" />
	<path style="fill:none;stroke:red;stroke-width:1px;stroke-linecap:butt;stroke-linejoin:miter;stroke-opacity:1" d="M 219.876,828.097 228.442,843.516 z" id="boundary" inkscape:connector-curvature="0" />
	<path style="fill:none;stroke:red;stroke-width:1px;stroke-linecap:butt;stroke-linejoin:miter;stroke-opacity:1" d="M 219.876,828.097 233.582,816.104 z" id="boundary" inkscape:connector-curvature="0" />
	<path style="fill:none;stroke:red;stroke-width:1px;stroke-linecap:butt;stroke-linejoin:miter;stroke-opacity:1" d="M 223.302,689.32 231.869,672.187 z" id="boundary" inkscape:connector-curvature="0" />
	<path style="fill:none;stroke:red;stroke-width:1px;stroke-linecap:butt;stroke-linejoin:miter;stroke-opacity:1" d="M 225.016,961.734 242.149,953.168 z" id="boundary" inkscape:connector-curvature="0" />
	<path style="fill:none;stroke:red;stroke-width:1px;stroke-linecap:butt;stroke-linejoin:miter;stroke-opacity:1" d="M 228.442,843.516 228.442,860.649 z" id="boundary" inkscape:connector-curvature="0" />
	<path style="fill:none;stroke:red;stroke-width:1px;stroke-linecap:butt;stroke-linejoin:miter;stroke-opacity:1" d="M 228.442,860.649 228.442,877.782 z" id="boundary" inkscape:connector-curvature="0" />
	<path style="fill:none;stroke:red;stroke-width:1px;stroke-linecap:butt;stroke-linejoin:miter;stroke-opacity:1" d="M 228.442,877.782 237.009,893.202 z" id="boundary" inkscape:connector-curvature="0" />
	<path style="fill:none;stroke:red;stroke-width:1px;stroke-linecap:butt;stroke-linejoin:miter;stroke-opacity:1" d="M 231.869,672.187 240.435,655.054 z" id="boundary" inkscape:connector-curvature="0" />
	<path style="fill:none;stroke:red;stroke-width:1px;stroke-linecap:butt;stroke-linejoin:miter;stroke-opacity:1" d="M 233.582,816.104 245.575,793.831 z" id="boundary" inkscape:connector-curvature="0" />
	<path style="fill:none;stroke:red;stroke-width:1px;stroke-linecap:butt;stroke-linejoin:miter;stroke-opacity:1" d="M 237.009,893.202 245.575,908.622 z" id="boundary" inkscape:connector-curvature="0" />
	<path style="fill:none;stroke:red;stroke-width:1px;stroke-linecap:butt;stroke-linejoin:miter;stroke-opacity:1" d="M 240.435,655.054 252.428,634.494 z" id="boundary" inkscape:connector-curvature="0" />
	<path style="fill:none;stroke:red;stroke-width:1px;stroke-linecap:butt;stroke-linejoin:miter;stroke-opacity:1" d="M 242.149,953.168 245.575,925.755 z" id="boundary" inkscape:connector-curvature="0" />
	<path style="fill:none;stroke:red;stroke-width:1px;stroke-linecap:butt;stroke-linejoin:miter;stroke-opacity:1" d="M 245.575,793.831 254.142,776.698 z" id="boundary" inkscape:connector-curvature="0" />
	<path style="fill:none;stroke:red;stroke-width:1px;stroke-linecap:butt;stroke-linejoin:miter;stroke-opacity:1" d="M 245.575,908.622 245.575,925.755 z" id="boundary" inkscape:connector-curvature="0" />
	<path style="fill:none;stroke:red;stroke-width:1px;stroke-linecap:butt;stroke-linejoin:miter;stroke-opacity:1" d="M 252.428,634.494 260.995,617.361 z" id="boundary" inkscape:connector-curvature="0" />
	<path style="fill:none;stroke:red;stroke-width:1px;stroke-linecap:butt;stroke-linejoin:miter;stroke-opacity:1" d="M 254.142,776.698 267.848,764.705 z" id="boundary" inkscape:connector-curvature="0" />
	<path style="fill:none;stroke:red;stroke-width:1px;stroke-linecap:butt;stroke-linejoin:miter;stroke-opacity:1" d="M 260.995,617.361 274.701,603.655 z" id="boundary" inkscape:connector-curvature="0" />
	<path style="fill:none;stroke:red;stroke-width:1px;stroke-linecap:butt;stroke-linejoin:miter;stroke-opacity:1" d="M 267.848,764.705 279.841,750.998 z" id="boundary" inkscape:connector-curvature="0" />
	<path style="fill:none;stroke:red;stroke-width:1px;stroke-linecap:butt;stroke-linejoin:miter;stroke-opacity:1" d="M 274.701,603.655 286.694,583.095 z" id="boundary" inkscape:connector-curvature="0" />
	<path style="fill:none;stroke:red;stroke-width:1px;stroke-linecap:butt;stroke-linejoin:miter;stroke-opacity:1" d="M 279.841,750.998 288.408,733.865 z" id="boundary" inkscape:connector-curvature="0" />
	<path style="fill:none;stroke:red;stroke-width:1px;stroke-linecap:butt;stroke-linejoin:miter;stroke-opacity:1" d="M 286.694,583.095 295.261,565.962 z" id="boundary" inkscape:connector-curvature="0" />
	<path style="fill:none;stroke:red;stroke-width:1px;stroke-linecap:butt;stroke-linejoin:miter;stroke-opacity:1" d="M 288.408,733.865 296.974,716.732 z" id="boundary" inkscape:connector-curvature="0" />
	<path style="fill:none;stroke:red;stroke-width:1px;stroke-linecap:butt;stroke-linejoin:miter;stroke-opacity:1" d="M 295.261,565.962 308.967,552.256 z" id="boundary" inkscape:connector-curvature="0" />
	<path style="fill:none;stroke:red;stroke-width:1px;stroke-linecap:butt;stroke-linejoin:miter;stroke-opacity:1" d="M 296.974,716.732 310.68,704.739 z" id="boundary" inkscape:connector-curvature="0" />
	<path style="fill:none;stroke:red;stroke-width:1px;stroke-linecap:butt;stroke-linejoin:miter;stroke-opacity:1" d="M 308.967,552.256 322.674,538.549 z" id="boundary" inkscape:connector-curvature="0" />
	<path style="fill:none;stroke:red;stroke-width:1px;stroke-linecap:butt;stroke-linejoin:miter;stroke-opacity:1" d="M 310.68,704.739 319.247,687.606 z" id="boundary" inkscape:connector-curvature="0" />
	<path style="fill:none;stroke:red;stroke-width:1px;stroke-linecap:butt;stroke-linejoin:miter;stroke-opacity:1" d="M 319.247,687.606 331.24,673.9 z" id="boundary" inkscape:connector-curvature="0" />
	<path style="fill:none;stroke:red;stroke-width:1px;stroke-linecap:butt;stroke-linejoin:miter;stroke-opacity:1" d="M 322.674,538.549 331.24,521.416 z" id="boundary" inkscape:connector-curvature="0" />
	<path style="fill:none;stroke:red;stroke-width:1px;stroke-linecap:butt;stroke-linejoin:miter;stroke-opacity:1" d="M 331.24,521.416 339.807,504.283 z" id="boundary" inkscape:connector-curvature="0" />
	<path style="fill:none;stroke:red;stroke-width:1px;stroke-linecap:butt;stroke-linejoin:miter;stroke-opacity:1" d="M 331.24,673.9 339.807,656.767 z" id="boundary" inkscape:connector-curvature="0" />
	<path style="fill:none;stroke:red;stroke-width:1px;stroke-linecap:butt;stroke-linejoin:miter;stroke-opacity:1" d="M 339.807,504.283 353.513,492.29 z" id="boundary" inkscape:connector-curvature="0" />
	<path style="fill:none;stroke:red;stroke-width:1px;stroke-linecap:butt;stroke-linejoin:miter;stroke-opacity:1" d="M 339.807,656.767 353.513,644.774 z" id="boundary" inkscape:connector-curvature="0" />
	<path style="fill:none;stroke:red;stroke-width:1px;stroke-linecap:butt;stroke-linejoin:miter;stroke-opacity:1" d="M 353.513,492.29 360.366,475.157 z" id="boundary" inkscape:connector-curvature="0" />
	<path style="fill:none;stroke:red;stroke-width:1px;stroke-linecap:butt;stroke-linejoin:miter;stroke-opacity:1" d="M 353.513,644.774 362.079,627.641 z" id="boundary" inkscape:connector-curvature="0" />
	<path style="fill:none;stroke:red;stroke-width:1px;stroke-linecap:butt;stroke-linejoin:miter;stroke-opacity:1" d="M 360.366,475.157 368.933,458.024 z" id="boundary" inkscape:connector-curvature="0" />
	<path style="fill:none;stroke:red;stroke-width:1px;stroke-linecap:butt;stroke-linejoin:miter;stroke-opacity:1" d="M 362.079,627.641 374.073,605.368 z" id="boundary" inkscape:connector-curvature="0" />
	<path style="fill:none;stroke:red;stroke-width:1px;stroke-linecap:butt;stroke-linejoin:miter;stroke-opacity:1" d="M 368.933,458.024 380.926,437.465 z" id="boundary" inkscape:connector-curvature="0" />
	<path style="fill:none;stroke:red;stroke-width:1px;stroke-linecap:butt;stroke-linejoin:miter;stroke-opacity:1" d="M 374.073,605.368 382.639,588.235 z" id="boundary" inkscape:connector-curvature="0" />
	<path style="fill:none;stroke:red;stroke-width:1px;stroke-linecap:butt;stroke-linejoin:miter;stroke-opacity:1" d="M 380.926,437.465 394.632,423.758 z" id="boundary" inkscape:connector-curvature="0" />
	<path style="fill:none;stroke:red;stroke-width:1px;stroke-linecap:butt;stroke-linejoin:miter;stroke-opacity:1" d="M 382.639,588.235 396.345,576.242 z" id="boundary" inkscape:connector-curvature="0" />
	<path style="fill:none;stroke:red;stroke-width:1px;stroke-linecap:butt;stroke-linejoin:miter;stroke-opacity:1" d="M 394.632,423.758 403.199,406.625 z" id="boundary" inkscape:connector-curvature="0" />
	<path style="fill:none;stroke:red;stroke-width:1px;stroke-linecap:butt;stroke-linejoin:miter;stroke-opacity:1" d="M 396.345,576.242 408.339,562.535 z" id="boundary" inkscape:connector-curvature="0" />
	<path style="fill:none;stroke:red;stroke-width:1px;stroke-linecap:butt;stroke-linejoin:miter;stroke-opacity:1" d="M 403.199,406.625 411.765,389.492 z" id="boundary" inkscape:connector-curvature="0" />
	<path style="fill:none;stroke:red;stroke-width:1px;stroke-linecap:butt;stroke-linejoin:miter;stroke-opacity:1" d="M 408.339,562.535 416.905,545.402 z" id="boundary" inkscape:connector-curvature="0" />
	<path style="fill:none;stroke:red;stroke-width:1px;stroke-linecap:butt;stroke-linejoin:miter;stroke-opacity:1" d="M 411.765,389.492 423.758,368.933 z" id="boundary" inkscape:connector-curvature="0" />
	<path style="fill:none;stroke:red;stroke-width:1px;stroke-linecap:butt;stroke-linejoin:miter;stroke-opacity:1" d="M 416.905,545.402 425.472,528.269 z" id="boundary" inkscape:connector-curvature="0" />
	<path style="fill:none;stroke:red;stroke-width:1px;stroke-linecap:butt;stroke-linejoin:miter;stroke-opacity:1" d="M 423.758,368.933 432.325,351.8 z" id="boundary" inkscape:connector-curvature="0" />
	<path style="fill:none;stroke:red;stroke-width:1px;stroke-linecap:butt;stroke-linejoin:miter;stroke-opacity:1" d="M 425.472,528.269 439.178,516.276 z" id="boundary" inkscape:connector-curvature="0" />
	<path style="fill:none;stroke:red;stroke-width:1px;stroke-linecap:butt;stroke-linejoin:miter;stroke-opacity:1" d="M 432.325,351.8 446.031,338.093 z" id="boundary" inkscape:connector-curvature="0" />
	<path style="fill:none;stroke:red;stroke-width:1px;stroke-linecap:butt;stroke-linejoin:miter;stroke-opacity:1" d="M 439.178,516.276 447.744,499.143 z" id="boundary" inkscape:connector-curvature="0" />
	<path style="fill:none;stroke:red;stroke-width:1px;stroke-linecap:butt;stroke-linejoin:miter;stroke-opacity:1" d="M 446.031,338.093 458.024,317.534 z" id="boundary" inkscape:connector-curvature="0" />
	<path style="fill:none;stroke:red;stroke-width:1px;stroke-linecap:butt;stroke-linejoin:miter;stroke-opacity:1" d="M 447.744,499.143 456.311,482.01 z" id="boundary" inkscape:connector-curvature="0" />
	<path style="fill:none;stroke:red;stroke-width:1px;stroke-linecap:butt;stroke-linejoin:miter;stroke-opacity:1" d="M 456.311,482.01 468.304,468.304 z" id="boundary" inkscape:connector-curvature="0" />
	<path style="fill:none;stroke:red;stroke-width:1px;stroke-linecap:butt;stroke-linejoin:miter;stroke-opacity:1" d="M 458.024,317.534 471.731,303.827 z" id="boundary" inkscape:connector-curvature="0" />
	<path style="fill:none;stroke:red;stroke-width:1px;stroke-linecap:butt;stroke-linejoin:miter;stroke-opacity:1" d="M 468.304,468.304 476.87,451.171 z" id="boundary" inkscape:connector-curvature="0" />
	<path style="fill:none;stroke:red;stroke-width:1px;stroke-linecap:butt;stroke-linejoin:miter;stroke-opacity:1" d="M 471.731,303.827 480.297,286.694 z" id="boundary" inkscape:connector-curvature="0" />
	<path style="fill:none;stroke:red;stroke-width:1px;stroke-linecap:butt;stroke-linejoin:miter;stroke-opacity:1" d="M 476.87,451.171 485.437,434.038 z" id="boundary" inkscape:connector-curvature="0" />
	<path style="fill:none;stroke:red;stroke-width:1px;stroke-linecap:butt;stroke-linejoin:miter;stroke-opacity:1" d="M 480.297,286.694 488.864,269.561 z" id="boundary" inkscape:connector-curvature="0" />
	<path style="fill:none;stroke:red;stroke-width:1px;stroke-linecap:butt;stroke-linejoin:miter;stroke-opacity:1" d="M 485.437,434.038 499.143,422.045 z" id="boundary" inkscape:connector-curvature="0" />
	<path style="fill:none;stroke:red;stroke-width:1px;stroke-linecap:butt;stroke-linejoin:miter;stroke-opacity:1" d="M 488.864,269.561 500.857,249.002 z" id="boundary" inkscape:connector-curvature="0" />
	<path style="fill:none;stroke:red;stroke-width:1px;stroke-linecap:butt;stroke-linejoin:miter;stroke-opacity:1" d="M 499.143,422.045 511.136,408.339 z" id="boundary" inkscape:connector-curvature="0" />
	<path style="fill:none;stroke:red;stroke-width:1px;stroke-linecap:butt;stroke-linejoin:miter;stroke-opacity:1" d="M 500.857,77.6718 509.423,93.0915 z" id="boundary" inkscape:connector-curvature="0" />
	<path style="fill:none;stroke:red;stroke-width:1px;stroke-linecap:butt;stroke-linejoin:miter;stroke-opacity:1" d="M 500.857,77.6718 514.563,63.9655 z" id="boundary" inkscape:connector-curvature="0" />
	<path style="fill:none;stroke:red;stroke-width:1px;stroke-linecap:butt;stroke-linejoin:miter;stroke-opacity:1" d="M 500.857,249.002 509.423,231.869 z" id="boundary" inkscape:connector-curvature="0" />
	<path style="fill:none;stroke:red;stroke-width:1px;stroke-linecap:butt;stroke-linejoin:miter;stroke-opacity:1" d="M 509.423,93.0915 517.99,108.511 z" id="boundary" inkscape:connector-curvature="0" />
	<path style="fill:none;stroke:red;stroke-width:1px;stroke-linecap:butt;stroke-linejoin:miter;stroke-opacity:1" d="M 509.423,231.869 523.13,218.162 z" id="boundary" inkscape:connector-curvature="0" />
	<path style="fill:none;stroke:red;stroke-width:1px;stroke-linecap:butt;stroke-linejoin:miter;stroke-opacity:1" d="M 511.136,408.339 519.703,391.206 z" id="boundary" inkscape:connector-curvature="0" />
	<path style="fill:none;stroke:red;stroke-width:1px;stroke-linecap:butt;stroke-linejoin:miter;stroke-opacity:1" d="M 514.563,63.9655 526.556,43.4059 z" id="boundary" inkscape:connector-curvature="0" />
	<path style="fill:none;stroke:red;stroke-width:1px;stroke-linecap:butt;stroke-linejoin:miter;stroke-opacity:1" d="M 517.99,108.511 523.13,125.644 z" id="boundary" inkscape:connector-curvature="0" />
	<path style="fill:none;stroke:red;stroke-width:1px;stroke-linecap:butt;stroke-linejoin:miter;stroke-opacity:1" d="M 519.703,391.206 528.269,374.073 z" id="boundary" inkscape:connector-curvature="0" />
	<path style="fill:none;stroke:red;stroke-width:1px;stroke-linecap:butt;stroke-linejoin:miter;stroke-opacity:1" d="M 523.13,125.644 526.556,142.777 z" id="boundary" inkscape:connector-curvature="0" />
	<path style="fill:none;stroke:red;stroke-width:1px;stroke-linecap:butt;stroke-linejoin:miter;stroke-opacity:1" d="M 523.13,218.162 535.123,192.463 z" id="boundary" inkscape:connector-curvature="0" />
	<path style="fill:none;stroke:red;stroke-width:1px;stroke-linecap:butt;stroke-linejoin:miter;stroke-opacity:1" d="M 526.556,43.4059 540.263,29.6995 z" id="boundary" inkscape:connector-curvature="0" />
	<path style="fill:none;stroke:red;stroke-width:1px;stroke-linecap:butt;stroke-linejoin:miter;stroke-opacity:1" d="M 526.556,142.777 535.123,158.197 z" id="boundary" inkscape:connector-curvature="0" />
	<path style="fill:none;stroke:red;stroke-width:1px;stroke-linecap:butt;stroke-linejoin:miter;stroke-opacity:1" d="M 528.269,374.073 541.976,362.079 z" id="boundary" inkscape:connector-curvature="0" />
	<path style="fill:none;stroke:red;stroke-width:1px;stroke-linecap:butt;stroke-linejoin:miter;stroke-opacity:1" d="M 535.123,158.197 535.123,175.33 z" id="boundary" inkscape:connector-curvature="0" />
	<path style="fill:none;stroke:red;stroke-width:1px;stroke-linecap:butt;stroke-linejoin:miter;stroke-opacity:1" d="M 535.123,175.33 535.123,192.463 z" id="boundary" inkscape:connector-curvature="0" />
	<path style="fill:none;stroke:red;stroke-width:1px;stroke-linecap:butt;stroke-linejoin:miter;stroke-opacity:1" d="M 540.263,29.6995 553.969,15.9931 z" id="boundary" inkscape:connector-curvature="0" />
	<path style="fill:none;stroke:red;stroke-width:1px;stroke-linecap:butt;stroke-linejoin:miter;stroke-opacity:1" d="M 541.976,362.079 550.542,344.946 z" id="boundary" inkscape:connector-curvature="0" />
	<path style="fill:none;stroke:red;stroke-width:1px;stroke-linecap:butt;stroke-linejoin:miter;stroke-opacity:1" d="M 550.542,344.946 562.535,331.24 z" id="boundary" inkscape:connector-curvature="0" />
	<path style="fill:none;stroke:red;stroke-width:1px;stroke-linecap:butt;stroke-linejoin:miter;stroke-opacity:1" d="M 553.969,15.9931 567.675,4 z" id="boundary" inkscape:connector-curvature="0" />
	<path style="fill:none;stroke:red;stroke-width:1px;stroke-linecap:butt;stroke-linejoin:miter;stroke-opacity:1" d="M 562.535,331.24 571.102,314.107 z" id="boundary" inkscape:connector-curvature="0" />
	<path style="fill:none;stroke:red;stroke-width:1px;stroke-linecap:butt;stroke-linejoin:miter;stroke-opacity:1" d="M 567.675,4 584.808,4 z" id="boundary" inkscape:connector-curvature="0" />
	<path style="fill:none;stroke:red;stroke-width:1px;stroke-linecap:butt;stroke-linejoin:miter;stroke-opacity:1" d="M 571.102,314.107 584.808,302.114 z" id="boundary" inkscape:connector-curvature="0" />
	<path style="fill:none;stroke:red;stroke-width:1px;stroke-linecap:butt;stroke-linejoin:miter;stroke-opacity:1" d="M 584.808,4 601.941,4 z" id="boundary" inkscape:connector-curvature="0" />
	<path style="fill:none;stroke:red;stroke-width:1px;stroke-linecap:butt;stroke-linejoin:miter;stroke-opacity:1" d="M 584.808,302.114 593.375,284.981 z" id="boundary" inkscape:connector-curvature="0" />
	<path style="fill:none;stroke:red;stroke-width:1px;stroke-linecap:butt;stroke-linejoin:miter;stroke-opacity:1" d="M 593.375,284.981 605.368,262.708 z" id="boundary" inkscape:connector-curvature="0" />
	<path style="fill:none;stroke:red;stroke-width:1px;stroke-linecap:butt;stroke-linejoin:miter;stroke-opacity:1" d="M 601.941,4 619.074,4 z" id="boundary" inkscape:connector-curvature="0" />
	<path style="fill:none;stroke:red;stroke-width:1px;stroke-linecap:butt;stroke-linejoin:miter;stroke-opacity:1" d="M 605.368,262.708 613.934,245.575 z" id="boundary" inkscape:connector-curvature="0" />
	<path style="fill:none;stroke:red;stroke-width:1px;stroke-linecap:butt;stroke-linejoin:miter;stroke-opacity:1" d="M 613.934,245.575 631.067,237.009 z" id="boundary" inkscape:connector-curvature="0" />
	<path style="fill:none;stroke:red;stroke-width:1px;stroke-linecap:butt;stroke-linejoin:miter;stroke-opacity:1" d="M 619.074,4 636.207,4 z" id="boundary" inkscape:connector-curvature="0" />
	<path style="fill:none;stroke:red;stroke-width:1px;stroke-linecap:butt;stroke-linejoin:miter;stroke-opacity:1" d="M 631.067,237.009 648.2,237.009 z" id="boundary" inkscape:connector-curvature="0" />
	<path style="fill:none;stroke:red;stroke-width:1px;stroke-linecap:butt;stroke-linejoin:miter;stroke-opacity:1" d="M 636.207,4 653.34,5.7133 z" id="boundary" inkscape:connector-curvature="0" />
	<path style="fill:none;stroke:red;stroke-width:1px;stroke-linecap:butt;stroke-linejoin:miter;stroke-opacity:1" d="M 648.2,237.009 665.333,237.009 z" id="boundary" inkscape:connector-curvature="0" />
	<path style="fill:none;stroke:red;stroke-width:1px;stroke-linecap:butt;stroke-linejoin:miter;stroke-opacity:1" d="M 653.34,5.7133 665.333,19.4197 z" id="boundary" inkscape:connector-curvature="0" />
	<path style="fill:none;stroke:red;stroke-width:1px;stroke-linecap:butt;stroke-linejoin:miter;stroke-opacity:1" d="M 665.333,19.4197 673.9,34.8394 z" id="boundary" inkscape:connector-curvature="0" />
	<path style="fill:none;stroke:red;stroke-width:1px;stroke-linecap:butt;stroke-linejoin:miter;stroke-opacity:1" d="M 665.333,237.009 680.753,245.575 z" id="boundary" inkscape:connector-curvature="0" />
	<path style="fill:none;stroke:red;stroke-width:1px;stroke-linecap:butt;stroke-linejoin:miter;stroke-opacity:1" d="M 673.9,34.8394 682.466,50.2591 z" id="boundary" inkscape:connector-curvature="0" />
	<path style="fill:none;stroke:red;stroke-width:1px;stroke-linecap:butt;stroke-linejoin:miter;stroke-opacity:1" d="M 680.753,245.575 696.173,254.142 z" id="boundary" inkscape:connector-curvature="0" />
	<path style="fill:none;stroke:red;stroke-width:1px;stroke-linecap:butt;stroke-linejoin:miter;stroke-opacity:1" d="M 682.466,50.2591 687.606,67.3921 z" id="boundary" inkscape:connector-curvature="0" />
	<path style="fill:none;stroke:red;stroke-width:1px;stroke-linecap:butt;stroke-linejoin:miter;stroke-opacity:1" d="M 687.606,67.3921 697.886,81.0984 z" id="boundary" inkscape:connector-curvature="0" />
	<path style="fill:none;stroke:red;stroke-width:1px;stroke-linecap:butt;stroke-linejoin:miter;stroke-opacity:1" d="M 696.173,254.142 713.306,254.142 z" id="boundary" inkscape:connector-curvature="0" />
	<path style="fill:none;stroke:red;stroke-width:1px;stroke-linecap:butt;stroke-linejoin:miter;stroke-opacity:1" d="M 697.886,81.0984 715.019,81.0984 z" id="boundary" inkscape:connector-curvature="0" />
	<path style="fill:none;stroke:red;stroke-width:1px;stroke-linecap:butt;stroke-linejoin:miter;stroke-opacity:1" d="M 713.306,254.142 730.439,254.142 z" id="boundary" inkscape:connector-curvature="0" />
	<path style="fill:none;stroke:red;stroke-width:1px;stroke-linecap:butt;stroke-linejoin:miter;stroke-opacity:1" d="M 715.019,81.0984 732.152,81.0984 z" id="boundary" inkscape:connector-curvature="0" />
	<path style="fill:none;stroke:red;stroke-width:1px;stroke-linecap:butt;stroke-linejoin:miter;stroke-opacity:1" d="M 730.439,254.142 745.858,262.708 z" id="boundary" inkscape:connector-curvature="0" />
	<path style="fill:none;stroke:red;stroke-width:1px;stroke-linecap:butt;stroke-linejoin:miter;stroke-opacity:1" d="M 732.152,81.0984 749.285,84.525 z" id="boundary" inkscape:connector-curvature="0" />
	<path style="fill:none;stroke:red;stroke-width:1px;stroke-linecap:butt;stroke-linejoin:miter;stroke-opacity:1" d="M 745.858,262.708 761.278,254.142 z" id="boundary" inkscape:connector-curvature="0" />
	<path style="fill:none;stroke:red;stroke-width:1px;stroke-linecap:butt;stroke-linejoin:miter;stroke-opacity:1" d="M 749.285,84.525 766.418,89.6649 z" id="boundary" inkscape:connector-curvature="0" />
	<path style="fill:none;stroke:red;stroke-width:1px;stroke-linecap:butt;stroke-linejoin:miter;stroke-opacity:1" d="M 761.278,254.142 774.984,240.435 z" id="boundary" inkscape:connector-curvature="0" />
	<path style="fill:none;stroke:red;stroke-width:1px;stroke-linecap:butt;stroke-linejoin:miter;stroke-opacity:1" d="M 766.418,89.6649 780.124,99.9447 z" id="boundary" inkscape:connector-curvature="0" />
	<path style="fill:none;stroke:red;stroke-width:1px;stroke-linecap:butt;stroke-linejoin:miter;stroke-opacity:1" d="M 774.984,240.435 783.551,223.302 z" id="boundary" inkscape:connector-curvature="0" />
	<path style="fill:none;stroke:red;stroke-width:1px;stroke-linecap:butt;stroke-linejoin:miter;stroke-opacity:1" d="M 780.124,99.9447 785.264,117.078 z" id="boundary" inkscape:connector-curvature="0" />
	<path style="fill:none;stroke:red;stroke-width:1px;stroke-linecap:butt;stroke-linejoin:miter;stroke-opacity:1" d="M 783.551,223.302 797.257,209.596 z" id="boundary" inkscape:connector-curvature="0" />
	<path style="fill:none;stroke:red;stroke-width:1px;stroke-linecap:butt;stroke-linejoin:miter;stroke-opacity:1" d="M 785.264,117.078 788.691,134.211 z" id="boundary" inkscape:connector-curvature="0" />
	<path style="fill:none;stroke:red;stroke-width:1px;stroke-linecap:butt;stroke-linejoin:miter;stroke-opacity:1" d="M 788.691,134.211 797.257,149.63 z" id="boundary" inkscape:connector-curvature="0" />
	<path style="fill:none;stroke:red;stroke-width:1px;stroke-linecap:butt;stroke-linejoin:miter;stroke-opacity:1" d="M 797.257,149.63 802.397,166.763 z" id="boundary" inkscape:connector-curvature="0" />
	<path style="fill:none;stroke:red;stroke-width:1px;stroke-linecap:butt;stroke-linejoin:miter;stroke-opacity:1" d="M 797.257,209.596 810.964,182.183 z" id="boundary" inkscape:connector-curvature="0" />
	<path style="fill:none;stroke:red;stroke-width:1px;stroke-linecap:butt;stroke-linejoin:miter;stroke-opacity:1" d="M 802.397,166.763 810.964,182.183 z" id="boundary" inkscape:connector-curvature="0" />
	<circle cx="4" cy="805.824" r="4" fill="#0" id="circle0"/>
	<circle cx="4" cy="822.957" r="4" fill="#0" id="circle1"/>
	<circle cx="4" cy="840.09" r="4" fill="#0" id="circle2"/>
	<circle cx="12.5665" cy="855.509" r="4" fill="#0" id="circle3"/>
	<circle cx="12.5665" cy="872.642" r="4" fill="#0" id="circle4"/>
	<circle cx="17.7064" cy="792.117" r="4" fill="#0" id="circle5"/>
	<circle cx="21.133" cy="888.062" r="4" fill="#0" id="circle6"/>
	<circle cx="21.133" cy="905.195" r="4" fill="#0" id="circle7"/>
	<circle cx="26.2729" cy="922.328" r="4" fill="#0" id="circle8"/>
	<circle cx="31.4128" cy="778.411" r="4" fill="#0" id="circle9"/>
	<circle cx="34.8394" cy="937.748" r="4" fill="#0" id="circle10"/>
	<circle cx="45.1192" cy="766.418" r="4" fill="#0" id="circle11"/>
	<circle cx="46.8325" cy="951.454" r="4" fill="#0" id="circle12"/>
	<circle cx="60.5389" cy="757.851" r="4" fill="#0" id="circle13"/>
	<circle cx="63.9655" cy="956.594" r="4" fill="#0" id="circle14"/>
	<circle cx="77.6718" cy="749.285" r="4" fill="#0" id="circle15"/>
	<circle cx="79.3851" cy="965.161" r="4" fill="#0" id="circle16"/>
	<circle cx="93.0915" cy="757.851" r="4" fill="#0" id="circle17"/>
	<circle cx="94.8048" cy="973.727" r="4" fill="#0" id="circle18"/>
	<circle cx="106.798" cy="769.845" r="4" fill="#0" id="circle19"/>
	<circle cx="111.938" cy="980.58" r="4" fill="#0" id="circle20"/>
	<circle cx="123.931" cy="774.984" r="4" fill="#0" id="circle21"/>
	<circle cx="129.071" cy="982.294" r="4" fill="#0" id="circle22"/>
	<circle cx="139.351" cy="783.551" r="4" fill="#0" id="circle23"/>
	<circle cx="144.491" cy="990.86" r="4" fill="#0" id="circle24"/>
	<circle cx="156.484" cy="783.551" r="4" fill="#0" id="circle25"/>
	<circle cx="161.623" cy="996" r="4" fill="#0" id="circle26"/>
	<circle cx="168.477" cy="769.845" r="4" fill="#0" id="circle27"/>
	<circle cx="178.756" cy="990.86" r="4" fill="#0" id="circle28"/>
	<circle cx="182.183" cy="757.851" r="4" fill="#0" id="circle29"/>
	<circle cx="189.036" cy="740.718" r="4" fill="#0" id="circle30"/>
	<circle cx="194.176" cy="982.294" r="4" fill="#0" id="circle31"/>
	<circle cx="197.603" cy="723.585" r="4" fill="#0" id="circle32"/>
	<circle cx="207.883" cy="970.301" r="4" fill="#0" id="circle33"/>
	<circle cx="209.596" cy="703.026" r="4" fill="#0" id="circle34"/>
	<circle cx="219.876" cy="828.097" r="4" fill="#0" id="circle35"/>
	<circle cx="223.302" cy="689.32" r="4" fill="#0" id="circle36"/>
	<circle cx="225.016" cy="961.734" r="4" fill="#0" id="circle37"/>
	<circle cx="228.442" cy="843.516" r="4" fill="#0" id="circle38"/>
	<circle cx="228.442" cy="860.649" r="4" fill="#0" id="circle39"/>
	<circle cx="228.442" cy="877.782" r="4" fill="#0" id="circle40"/>
	<circle cx="231.869" cy="672.187" r="4" fill="#0" id="circle41"/>
	<circle cx="233.582" cy="816.104" r="4" fill="#0" id="circle42"/>
	<circle cx="237.009" cy="893.202" r="4" fill="#0" id="circle43"/>
	<circle cx="240.435" cy="655.054" r="4" fill="#0" id="circle44"/>
	<circle cx="242.149" cy="953.168" r="4" fill="#0" id="circle45"/>
	<circle cx="245.575" cy="793.831" r="4" fill="#0" id="circle46"/>
	<circle cx="245.575" cy="908.622" r="4" fill="#0" id="circle47"/>
	<circle cx="245.575" cy="925.755" r="4" fill="#0" id="circle48"/>
	<circle cx="252.428" cy="634.494" r="4" fill="#0" id="circle49"/>
	<circle cx="254.142" cy="776.698" r="4" fill="#0" id="circle50"/>
	<circle cx="260.995" cy="617.361" r="4" fill="#0" id="circle51"/>
	<circle cx="267.848" cy="764.705" r="4" fill="#0" id="circle52"/>
	<circle cx="274.701" cy="603.655" r="4" fill="#0" id="circle53"/>
	<circle cx="279.841" cy="750.998" r="4" fill="#0" id="circle54"/>
	<circle cx="286.694" cy="583.095" r="4" fill="#0" id="circle55"/>
	<circle cx="288.408" cy="733.865" r="4" fill="#0" id="circle56"/>
	<circle cx="295.261" cy="565.962" r="4" fill="#0" id="circle57"/>
	<circle cx="296.974" cy="716.732" r="4" fill="#0" id="circle58"/>
	<circle cx="308.967" cy="552.256" r="4" fill="#0" id="circle59"/>
	<circle cx="310.68" cy="704.739" r="4" fill="#0" id="circle60"/>
	<circle cx="319.247" cy="687.606" r="4" fill="#0" id="circle61"/>
	<circle cx="322.674" cy="538.549" r="4" fill="#0" id="circle62"/>
	<circle cx="331.24" cy="521.416" r="4" fill="#0" id="circle63"/>
	<circle cx="331.24" cy="673.9" r="4" fill="#0" id="circle64"/>
	<circle cx="339.807" cy="504.283" r="4" fill="#0" id="circle65"/>
	<circle cx="339.807" cy="656.767" r="4" fill="#0" id="circle66"/>
	<circle cx="353.513" cy="492.29" r="4" fill="#0" id="circle67"/>
	<circle cx="353.513" cy="644.774" r="4" fill="#0" id="circle68"/>
	<circle cx="360.366" cy="475.157" r="4" fill="#0" id="circle69"/>
	<circle cx="362.079" cy="627.641" r="4" fill="#0" id="circle70"/>
	<circle cx="368.933" cy="458.024" r="4" fill="#0" id="circle71"/>
	<circle cx="374.073" cy="605.368" r="4" fill="#0" id="circle72"/>
	<circle cx="380.926" cy="437.465" r="4" fill="#0" id="circle73"/>
	<circle cx="382.639" cy="588.235" r="4" fill="#0" id="circle74"/>
	<circle cx="394.632" cy="423.758" r="4" fill="#0" id="circle75"/>
	<circle cx="396.345" cy="576.242" r="4" fill="#0" id="circle76"/>
	<circle cx="403.199" cy="406.625" r="4" fill="#0" id="circle77"/>
	<circle cx="408.339" cy="562.535" r="4" fill="#0" id="circle78"/>
	<circle cx="411.765" cy="389.492" r="4" fill="#0" id="circle79"/>
	<circle cx="416.905" cy="545.402" r="4" fill="#0" id="circle80"/>
	<circle cx="423.758" cy="368.933" r="4" fill="#0" id="circle81"/>
	<circle cx="425.472" cy="528.269" r="4" fill="#0" id="circle82"/>
	<circle cx="432.325" cy="351.8" r="4" fill="#0" id="circle83"/>
	<circle cx="439.178" cy="516.276" r="4" fill="#0" id="circle84"/>
	<circle cx="446.031" cy="338.093" r="4" fill="#0" id="circle85"/>
	<circle cx="447.744" cy="499.143" r="4" fill="#0" id="circle86"/>
	<circle cx="456.311" cy="482.01" r="4" fill="#0" id="circle87"/>
	<circle cx="458.024" cy="317.534" r="4" fill="#0" id="circle88"/>
	<circle cx="468.304" cy="468.304" r="4" fill="#0" id="circle89"/>
	<circle cx="471.731" cy="303.827" r="4" fill="#0" id="circle90"/>
	<circle cx="476.87" cy="451.171" r="4" fill="#0" id="circle91"/>
	<circle cx="480.297" cy="286.694" r="4" fill="#0" id="circle92"/>
	<circle cx="485.437" cy="434.038" r="4" fill="#0" id="circle93"/>
	<circle cx="488.864" cy="269.561" r="4" fill="#0" id="circle94"/>
	<circle cx="499.143" cy="422.045" r="4" fill="#0" id="circle95"/>
	<circle cx="500.857" cy="77.6718" r="4" fill="#0" id="circle96"/>
	<circle cx="500.857" cy="249.002" r="4" fill="#0" id="circle97"/>
	<circle cx="509.423" cy="93.0915" r="4" fill="#0" id="circle98"/>
	<circle cx="509.423" cy="231.869" r="4" fill="#0" id="circle99"/>
	<circle cx="511.136" cy="408.339" r="4" fill="#0" id="circle100"/>
	<circle cx="514.563" cy="63.9655" r="4" fill="#0" id="circle101"/>
	<circle cx="517.99" cy="108.511" r="4" fill="#0" id="circle102"/>
	<circle cx="519.703" cy="391.206" r="4" fill="#0" id="circle103"/>
	<circle cx="523.13" cy="125.644" r="4" fill="#0" id="circle104"/>
	<circle cx="523.13" cy="218.162" r="4" fill="#0" id="circle105"/>
	<circle cx="526.556" cy="43.4059" r="4" fill="#0" id="circle106"/>
	<circle cx="526.556" cy="142.777" r="4" fill="#0" id="circle107"/>
	<circle cx="528.269" cy="374.073" r="4" fill="#0" id="circle108"/>
	<circle cx="535.123" cy="158.197" r="4" fill="#0" id="circle109"/>
	<circle cx="535.123" cy="175.33" r="4" fill="#0" id="circle110"/>
	<circle cx="535.123" cy="192.463" r="4" fill="#0" id="circle111"/>
	<circle cx="540.263" cy="29.6995" r="4" fill="#0" id="circle112"/>
	<circle cx="541.976" cy="362.079" r="4" fill="#0" id="circle113"/>
	<circle cx="550.542" cy="344.946" r="4" fill="#0" id="circle114"/>
	<circle cx="553.969" cy="15.9931" r="4" fill="#0" id="circle115"/>
	<circle cx="562.535" cy="331.24" r="4" fill="#0" id="circle116"/>
	<circle cx="567.675" cy="4" r="4" fill="#0" id="circle117"/>
	<circle cx="571.102" cy="314.107" r="4" fill="#0" id="circle118"/>
	<circle cx="584.808" cy="4" r="4" fill="#0" id="circle119"/>
	<circle cx="584.808" cy="302.114" r="4" fill="#0" id="circle120"/>
	<circle cx="593.375" cy="284.981" r="4" fill="#0" id="circle121"/>
	<circle cx="601.941" cy="4" r="4" fill="#0" id="circle122"/>
	<circle cx="605.368" cy="262.708" r="4" fill="#0" id="circle123"/>
	<circle cx="613.934" cy="245.575" r="4" fill="#0" id="circle124"/>
	<circle cx="619.074" cy="4" r="4" fill="#0" id="circle125"/>
	<circle cx="631.067" cy="237.009" r="4" fill="#0" id="circle126"/>
	<circle cx="636.207" cy="4" r="4" fill="#0" id="circle127"/>
	<circle cx="648.2" cy="237.009" r="4" fill="#0" id="circle128"/>
	<circle cx="653.34" cy="5.7133" r="4" fill="#0" id="circle129"/>
	<circle cx="665.333" cy="19.4197" r="4" fill="#0" id="circle130"/>
	<circle cx="665.333" cy="237.009" r="4" fill="#0" id="circle131"/>
	<circle cx="673.9" cy="34.8394" r="4" fill="#0" id="circle132"/>
	<circle cx="680.753" cy="245.575" r="4" fill="#0" id="circle133"/>
	<circle cx="682.466" cy="50.2591" r="4" fill="#0" id="circle134"/>
	<circle cx="687.606" cy="67.3921" r="4" fill="#0" id="circle135"/>
	<circle cx="696.173" cy="254.142" r="4" fill="#0" id="circle136"/>
	<circle cx="697.886" cy="81.0984" r="4" fill="#0" id="circle137"/>
	<circle cx="713.306" cy="254.142" r="4" fill="#0" id="circle138"/>
	<circle cx="715.019" cy="81.0984" r="4" fill="#0" id="circle139"/>
	<circle cx="730.439" cy="254.142" r="4" fill="#0" id="circle140"/>
	<circle cx="732.152" cy="81.0984" r="4" fill="#0" id="circle141"/>
	<circle cx="745.858" cy="262.708" r="4" fill="#0" id="circle142"/>
	<circle cx="749.285" cy="84.525" r="4" fill="#0" id="circle143"/>
	<circle cx="761.278" cy="254.142" r="4" fill="#0" id="circle144"/>
	<circle cx="766.418" cy="89.6649" r="4" fill="#0" id="circle145"/>
	<circle cx="774.984" cy="240.435" r="4" fill="#0" id="circle146"/>
	<circle cx="780.124" cy="99.9447" r="4" fill="#0" id="circle147"/>
	<circle cx="783.551" cy="223.302" r="4" fill="#0" id="circle148"/>
	<circle cx="785.264" cy="117.078" r="4" fill="#0" id="circle149"/>
	<circle cx="788.691" cy="134.211" r="4" fill="#0" id="circle150"/>
	<circle cx="797.257" cy="149.63" r="4" fill="#0" id="circle151"/>
	<circle cx="797.257" cy="209.596" r="4" fill="#0" id="circle152"/>
	<circle cx="802.397" cy="166.763" r="4" fill="#0" id="circle153"/>
	<circle cx="810.964" cy="182.183" r="4" fill="#0" id="circle154"/>
	</g>
</svg>