<?xml version="1.0" encoding="UTF-8" standalone="no"?>
<!-- Created with CurveBenchmark -->
<svg
	xmlns:dc="http://purl.org/dc/elements/1.1/"
	xmlns:cc="http://creativecommons.org/ns#"
	xmlns:rdf="http://www.w3.org/1999/02/22-rdf-syntax-ns#"
	xmlns:svg="http://www.w3.org/2000/svg"
	xmlns="http://www.w3.org/2000/svg"
	xmlns:sodipodi="http://sodipodi.sourceforge.net/DTD/sodipodi-0.dtd"
	xmlns:inkscape="http://www.inkscape.org/namespaces/inkscape"
	width="1000"
	height="1000"
	id="svg2"
	version="1.1"
	sodipodi:docname="manifold/discur-ray0741.png.txt">
<defs
	id="defs4" />
<metadata
	id="metadata7">
	<rdf:RDF>
		<cc:Work
			rdf:about="">
			<dc:format>image/svg+xml</dc:format>
			<dc:type
				rdf:resource="http://purl.org/dc/dcmitype/StillImage" />
			<dc:title></dc:title>
		</cc:Work>
	</rdf:RDF>
</metadata>
<g
	inkscape:label="Layer 1"
	inkscape:groupmode="layer"
	id="layer1">
	<path style="fill:none;stroke:red;stroke-width:1px;stroke-linecap:butt;stroke-linejoin:miter;stroke-opacity:1" d="M 4,276.706 4,289.216 z" id="boundary" inkscape:connector-curvature="0" />
	<path style="fill:none;stroke:red;stroke-width:1px;stroke-linecap:butt;stroke-linejoin:miter;stroke-opacity:1" d="M 4,276.706 10.2547,264.197 z" id="boundary" inkscape:connector-curvature="0" />
	<path style="fill:none;stroke:red;stroke-width:1px;stroke-linecap:butt;stroke-linejoin:miter;stroke-opacity:1" d="M 4,289.216 4,301.725 z" id="boundary" inkscape:connector-curvature="0" />
	<path style="fill:none;stroke:red;stroke-width:1px;stroke-linecap:butt;stroke-linejoin:miter;stroke-opacity:1" d="M 4,301.725 4,314.235 z" id="boundary" inkscape:connector-curvature="0" />
	<path style="fill:none;stroke:red;stroke-width:1px;stroke-linecap:butt;stroke-linejoin:miter;stroke-opacity:1" d="M 4,314.235 10.2547,325.493 z" id="boundary" inkscape:connector-curvature="0" />
	<path style="fill:none;stroke:red;stroke-width:1px;stroke-linecap:butt;stroke-linejoin:miter;stroke-opacity:1" d="M 10.2547,264.197 20.2623,254.189 z" id="boundary" inkscape:connector-curvature="0" />
	<path style="fill:none;stroke:red;stroke-width:1px;stroke-linecap:butt;stroke-linejoin:miter;stroke-opacity:1" d="M 10.2547,325.493 16.5095,336.752 z" id="boundary" inkscape:connector-curvature="0" />
	<path style="fill:none;stroke:red;stroke-width:1px;stroke-linecap:butt;stroke-linejoin:miter;stroke-opacity:1" d="M 16.5095,336.752 24.0151,346.759 z" id="boundary" inkscape:connector-curvature="0" />
	<path style="fill:none;stroke:red;stroke-width:1px;stroke-linecap:butt;stroke-linejoin:miter;stroke-opacity:1" d="M 20.2623,254.189 30.2699,244.182 z" id="boundary" inkscape:connector-curvature="0" />
	<path style="fill:none;stroke:red;stroke-width:1px;stroke-linecap:butt;stroke-linejoin:miter;stroke-opacity:1" d="M 24.0151,346.759 30.2699,358.018 z" id="boundary" inkscape:connector-curvature="0" />
	<path style="fill:none;stroke:red;stroke-width:1px;stroke-linecap:butt;stroke-linejoin:miter;stroke-opacity:1" d="M 30.2699,244.182 36.5246,231.672 z" id="boundary" inkscape:connector-curvature="0" />
	<path style="fill:none;stroke:red;stroke-width:1px;stroke-linecap:butt;stroke-linejoin:miter;stroke-opacity:1" d="M 30.2699,358.018 35.2736,370.527 z" id="boundary" inkscape:connector-curvature="0" />
	<path style="fill:none;stroke:red;stroke-width:1px;stroke-linecap:butt;stroke-linejoin:miter;stroke-opacity:1" d="M 35.2736,370.527 45.2812,379.284 z" id="boundary" inkscape:connector-curvature="0" />
	<path style="fill:none;stroke:red;stroke-width:1px;stroke-linecap:butt;stroke-linejoin:miter;stroke-opacity:1" d="M 36.5246,231.672 46.5322,222.916 z" id="boundary" inkscape:connector-curvature="0" />
	<path style="fill:none;stroke:red;stroke-width:1px;stroke-linecap:butt;stroke-linejoin:miter;stroke-opacity:1" d="M 45.2812,379.284 54.0378,389.291 z" id="boundary" inkscape:connector-curvature="0" />
	<path style="fill:none;stroke:red;stroke-width:1px;stroke-linecap:butt;stroke-linejoin:miter;stroke-opacity:1" d="M 46.5322,222.916 57.7907,216.661 z" id="boundary" inkscape:connector-curvature="0" />
	<path style="fill:none;stroke:red;stroke-width:1px;stroke-linecap:butt;stroke-linejoin:miter;stroke-opacity:1" d="M 54.0378,389.291 60.2926,400.55 z" id="boundary" inkscape:connector-curvature="0" />
	<path style="fill:none;stroke:red;stroke-width:1px;stroke-linecap:butt;stroke-linejoin:miter;stroke-opacity:1" d="M 57.7907,216.661 67.7982,206.653 z" id="boundary" inkscape:connector-curvature="0" />
	<path style="fill:none;stroke:red;stroke-width:1px;stroke-linecap:butt;stroke-linejoin:miter;stroke-opacity:1" d="M 60.2926,400.55 69.0492,410.557 z" id="boundary" inkscape:connector-curvature="0" />
	<path style="fill:none;stroke:red;stroke-width:1px;stroke-linecap:butt;stroke-linejoin:miter;stroke-opacity:1" d="M 67.7982,206.653 77.8058,197.897 z" id="boundary" inkscape:connector-curvature="0" />
	<path style="fill:none;stroke:red;stroke-width:1px;stroke-linecap:butt;stroke-linejoin:miter;stroke-opacity:1" d="M 69.0492,410.557 79.0567,418.063 z" id="boundary" inkscape:connector-curvature="0" />
	<path style="fill:none;stroke:red;stroke-width:1px;stroke-linecap:butt;stroke-linejoin:miter;stroke-opacity:1" d="M 77.8058,197.897 89.0643,191.642 z" id="boundary" inkscape:connector-curvature="0" />
	<path style="fill:none;stroke:red;stroke-width:1px;stroke-linecap:butt;stroke-linejoin:miter;stroke-opacity:1" d="M 79.0567,418.063 90.3153,424.318 z" id="boundary" inkscape:connector-curvature="0" />
	<path style="fill:none;stroke:red;stroke-width:1px;stroke-linecap:butt;stroke-linejoin:miter;stroke-opacity:1" d="M 89.0643,191.642 100.323,185.387 z" id="boundary" inkscape:connector-curvature="0" />
	<path style="fill:none;stroke:red;stroke-width:1px;stroke-linecap:butt;stroke-linejoin:miter;stroke-opacity:1" d="M 90.3153,424.318 99.0719,434.325 z" id="boundary" inkscape:connector-curvature="0" />
	<path style="fill:none;stroke:red;stroke-width:1px;stroke-linecap:butt;stroke-linejoin:miter;stroke-opacity:1" d="M 99.0719,434.325 109.079,443.082 z" id="boundary" inkscape:connector-curvature="0" />
	<path style="fill:none;stroke:red;stroke-width:1px;stroke-linecap:butt;stroke-linejoin:miter;stroke-opacity:1" d="M 100.323,185.387 110.33,176.631 z" id="boundary" inkscape:connector-curvature="0" />
	<path style="fill:none;stroke:red;stroke-width:1px;stroke-linecap:butt;stroke-linejoin:miter;stroke-opacity:1" d="M 109.079,443.082 117.836,453.09 z" id="boundary" inkscape:connector-curvature="0" />
	<path style="fill:none;stroke:red;stroke-width:1px;stroke-linecap:butt;stroke-linejoin:miter;stroke-opacity:1" d="M 110.33,176.631 122.84,170.376 z" id="boundary" inkscape:connector-curvature="0" />
	<path style="fill:none;stroke:red;stroke-width:1px;stroke-linecap:butt;stroke-linejoin:miter;stroke-opacity:1" d="M 117.836,453.09 127.844,461.846 z" id="boundary" inkscape:connector-curvature="0" />
	<path style="fill:none;stroke:red;stroke-width:1px;stroke-linecap:butt;stroke-linejoin:miter;stroke-opacity:1" d="M 122.84,170.376 132.847,160.368 z" id="boundary" inkscape:connector-curvature="0" />
	<path style="fill:none;stroke:red;stroke-width:1px;stroke-linecap:butt;stroke-linejoin:miter;stroke-opacity:1" d="M 127.844,461.846 139.102,468.101 z" id="boundary" inkscape:connector-curvature="0" />
	<path style="fill:none;stroke:red;stroke-width:1px;stroke-linecap:butt;stroke-linejoin:miter;stroke-opacity:1" d="M 132.847,160.368 142.855,150.361 z" id="boundary" inkscape:connector-curvature="0" />
	<path style="fill:none;stroke:red;stroke-width:1px;stroke-linecap:butt;stroke-linejoin:miter;stroke-opacity:1" d="M 139.102,468.101 147.859,478.108 z" id="boundary" inkscape:connector-curvature="0" />
	<path style="fill:none;stroke:red;stroke-width:1px;stroke-linecap:butt;stroke-linejoin:miter;stroke-opacity:1" d="M 142.855,150.361 152.863,141.604 z" id="boundary" inkscape:connector-curvature="0" />
	<path style="fill:none;stroke:red;stroke-width:1px;stroke-linecap:butt;stroke-linejoin:miter;stroke-opacity:1" d="M 147.859,478.108 154.113,489.367 z" id="boundary" inkscape:connector-curvature="0" />
	<path style="fill:none;stroke:red;stroke-width:1px;stroke-linecap:butt;stroke-linejoin:miter;stroke-opacity:1" d="M 152.863,141.604 160.368,126.593 z" id="boundary" inkscape:connector-curvature="0" />
	<path style="fill:none;stroke:red;stroke-width:1px;stroke-linecap:butt;stroke-linejoin:miter;stroke-opacity:1" d="M 154.113,489.367 166.623,493.12 z" id="boundary" inkscape:connector-curvature="0" />
	<path style="fill:none;stroke:red;stroke-width:1px;stroke-linecap:butt;stroke-linejoin:miter;stroke-opacity:1" d="M 160.368,126.593 170.376,116.585 z" id="boundary" inkscape:connector-curvature="0" />
	<path style="fill:none;stroke:red;stroke-width:1px;stroke-linecap:butt;stroke-linejoin:miter;stroke-opacity:1" d="M 166.623,493.12 177.881,499.375 z" id="boundary" inkscape:connector-curvature="0" />
	<path style="fill:none;stroke:red;stroke-width:1px;stroke-linecap:butt;stroke-linejoin:miter;stroke-opacity:1" d="M 170.376,116.585 176.631,104.076 z" id="boundary" inkscape:connector-curvature="0" />
	<path style="fill:none;stroke:red;stroke-width:1px;stroke-linecap:butt;stroke-linejoin:miter;stroke-opacity:1" d="M 176.631,104.076 186.638,94.0681 z" id="boundary" inkscape:connector-curvature="0" />
	<path style="fill:none;stroke:red;stroke-width:1px;stroke-linecap:butt;stroke-linejoin:miter;stroke-opacity:1" d="M 177.881,499.375 189.14,505.629 z" id="boundary" inkscape:connector-curvature="0" />
	<path style="fill:none;stroke:red;stroke-width:1px;stroke-linecap:butt;stroke-linejoin:miter;stroke-opacity:1" d="M 186.638,94.0681 196.646,85.3115 z" id="boundary" inkscape:connector-curvature="0" />
	<path style="fill:none;stroke:red;stroke-width:1px;stroke-linecap:butt;stroke-linejoin:miter;stroke-opacity:1" d="M 189.14,505.629 201.649,510.633 z" id="boundary" inkscape:connector-curvature="0" />
	<path style="fill:none;stroke:red;stroke-width:1px;stroke-linecap:butt;stroke-linejoin:miter;stroke-opacity:1" d="M 196.646,85.3115 204.151,70.3001 z" id="boundary" inkscape:connector-curvature="0" />
	<path style="fill:none;stroke:red;stroke-width:1px;stroke-linecap:butt;stroke-linejoin:miter;stroke-opacity:1" d="M 201.649,510.633 214.159,511.884 z" id="boundary" inkscape:connector-curvature="0" />
	<path style="fill:none;stroke:red;stroke-width:1px;stroke-linecap:butt;stroke-linejoin:miter;stroke-opacity:1" d="M 204.151,70.3001 214.159,60.2926 z" id="boundary" inkscape:connector-curvature="0" />
	<path style="fill:none;stroke:red;stroke-width:1px;stroke-linecap:butt;stroke-linejoin:miter;stroke-opacity:1" d="M 214.159,60.2926 224.166,50.285 z" id="boundary" inkscape:connector-curvature="0" />
	<path style="fill:none;stroke:red;stroke-width:1px;stroke-linecap:butt;stroke-linejoin:miter;stroke-opacity:1" d="M 214.159,511.884 226.668,511.884 z" id="boundary" inkscape:connector-curvature="0" />
	<path style="fill:none;stroke:red;stroke-width:1px;stroke-linecap:butt;stroke-linejoin:miter;stroke-opacity:1" d="M 224.166,50.285 234.174,41.5284 z" id="boundary" inkscape:connector-curvature="0" />
	<path style="fill:none;stroke:red;stroke-width:1px;stroke-linecap:butt;stroke-linejoin:miter;stroke-opacity:1" d="M 226.668,511.884 239.178,511.884 z" id="boundary" inkscape:connector-curvature="0" />
	<path style="fill:none;stroke:red;stroke-width:1px;stroke-linecap:butt;stroke-linejoin:miter;stroke-opacity:1" d="M 234.174,41.5284 245.433,35.2736 z" id="boundary" inkscape:connector-curvature="0" />
	<path style="fill:none;stroke:red;stroke-width:1px;stroke-linecap:butt;stroke-linejoin:miter;stroke-opacity:1" d="M 239.178,511.884 247.934,521.892 z" id="boundary" inkscape:connector-curvature="0" />
	<path style="fill:none;stroke:red;stroke-width:1px;stroke-linecap:butt;stroke-linejoin:miter;stroke-opacity:1" d="M 245.433,35.2736 255.44,25.2661 z" id="boundary" inkscape:connector-curvature="0" />
	<path style="fill:none;stroke:red;stroke-width:1px;stroke-linecap:butt;stroke-linejoin:miter;stroke-opacity:1" d="M 247.934,521.892 247.934,534.401 z" id="boundary" inkscape:connector-curvature="0" />
	<path style="fill:none;stroke:red;stroke-width:1px;stroke-linecap:butt;stroke-linejoin:miter;stroke-opacity:1" d="M 247.934,534.401 247.934,546.91 z" id="boundary" inkscape:connector-curvature="0" />
	<path style="fill:none;stroke:red;stroke-width:1px;stroke-linecap:butt;stroke-linejoin:miter;stroke-opacity:1" d="M 247.934,546.91 247.934,559.42 z" id="boundary" inkscape:connector-curvature="0" />
	<path style="fill:none;stroke:red;stroke-width:1px;stroke-linecap:butt;stroke-linejoin:miter;stroke-opacity:1" d="M 247.934,559.42 257.942,568.177 z" id="boundary" inkscape:connector-curvature="0" />
	<path style="fill:none;stroke:red;stroke-width:1px;stroke-linecap:butt;stroke-linejoin:miter;stroke-opacity:1" d="M 255.44,25.2661 267.95,19.0113 z" id="boundary" inkscape:connector-curvature="0" />
	<path style="fill:none;stroke:red;stroke-width:1px;stroke-linecap:butt;stroke-linejoin:miter;stroke-opacity:1" d="M 257.942,568.177 267.95,576.933 z" id="boundary" inkscape:connector-curvature="0" />
	<path style="fill:none;stroke:red;stroke-width:1px;stroke-linecap:butt;stroke-linejoin:miter;stroke-opacity:1" d="M 267.95,19.0113 277.957,10.2547 z" id="boundary" inkscape:connector-curvature="0" />
	<path style="fill:none;stroke:red;stroke-width:1px;stroke-linecap:butt;stroke-linejoin:miter;stroke-opacity:1" d="M 267.95,576.933 280.459,580.686 z" id="boundary" inkscape:connector-curvature="0" />
	<path style="fill:none;stroke:red;stroke-width:1px;stroke-linecap:butt;stroke-linejoin:miter;stroke-opacity:1" d="M 277.957,10.2547 289.216,4 z" id="boundary" inkscape:connector-curvature="0" />
	<path style="fill:none;stroke:red;stroke-width:1px;stroke-linecap:butt;stroke-linejoin:miter;stroke-opacity:1" d="M 280.459,580.686 291.718,574.431 z" id="boundary" inkscape:connector-curvature="0" />
	<path style="fill:none;stroke:red;stroke-width:1px;stroke-linecap:butt;stroke-linejoin:miter;stroke-opacity:1" d="M 289.216,4 301.725,4 z" id="boundary" inkscape:connector-curvature="0" />
	<path style="fill:none;stroke:red;stroke-width:1px;stroke-linecap:butt;stroke-linejoin:miter;stroke-opacity:1" d="M 291.718,574.431 302.976,580.686 z" id="boundary" inkscape:connector-curvature="0" />
	<path style="fill:none;stroke:red;stroke-width:1px;stroke-linecap:butt;stroke-linejoin:miter;stroke-opacity:1" d="M 301.725,4 314.235,4 z" id="boundary" inkscape:connector-curvature="0" />
	<path style="fill:none;stroke:red;stroke-width:1px;stroke-linecap:butt;stroke-linejoin:miter;stroke-opacity:1" d="M 302.976,580.686 310.482,590.694 z" id="boundary" inkscape:connector-curvature="0" />
	<path style="fill:none;stroke:red;stroke-width:1px;stroke-linecap:butt;stroke-linejoin:miter;stroke-opacity:1" d="M 310.482,590.694 310.482,603.203 z" id="boundary" inkscape:connector-curvature="0" />
	<path style="fill:none;stroke:red;stroke-width:1px;stroke-linecap:butt;stroke-linejoin:miter;stroke-opacity:1" d="M 310.482,603.203 316.736,614.462 z" id="boundary" inkscape:connector-curvature="0" />
	<path style="fill:none;stroke:red;stroke-width:1px;stroke-linecap:butt;stroke-linejoin:miter;stroke-opacity:1" d="M 314.235,4 325.493,10.2547 z" id="boundary" inkscape:connector-curvature="0" />
	<path style="fill:none;stroke:red;stroke-width:1px;stroke-linecap:butt;stroke-linejoin:miter;stroke-opacity:1" d="M 316.736,614.462 316.736,626.971 z" id="boundary" inkscape:connector-curvature="0" />
	<path style="fill:none;stroke:red;stroke-width:1px;stroke-linecap:butt;stroke-linejoin:miter;stroke-opacity:1" d="M 316.736,626.971 316.736,639.48 z" id="boundary" inkscape:connector-curvature="0" />
	<path style="fill:none;stroke:red;stroke-width:1px;stroke-linecap:butt;stroke-linejoin:miter;stroke-opacity:1" d="M 316.736,639.48 316.736,651.99 z" id="boundary" inkscape:connector-curvature="0" />
	<path style="fill:none;stroke:red;stroke-width:1px;stroke-linecap:butt;stroke-linejoin:miter;stroke-opacity:1" d="M 316.736,651.99 316.736,664.499 z" id="boundary" inkscape:connector-curvature="0" />
	<path style="fill:none;stroke:red;stroke-width:1px;stroke-linecap:butt;stroke-linejoin:miter;stroke-opacity:1" d="M 316.736,664.499 316.736,677.009 z" id="boundary" inkscape:connector-curvature="0" />
	<path style="fill:none;stroke:red;stroke-width:1px;stroke-linecap:butt;stroke-linejoin:miter;stroke-opacity:1" d="M 316.736,677.009 316.736,689.518 z" id="boundary" inkscape:connector-curvature="0" />
	<path style="fill:none;stroke:red;stroke-width:1px;stroke-linecap:butt;stroke-linejoin:miter;stroke-opacity:1" d="M 316.736,689.518 322.991,700.777 z" id="boundary" inkscape:connector-curvature="0" />
	<path style="fill:none;stroke:red;stroke-width:1px;stroke-linecap:butt;stroke-linejoin:miter;stroke-opacity:1" d="M 322.991,700.777 322.991,713.286 z" id="boundary" inkscape:connector-curvature="0" />
	<path style="fill:none;stroke:red;stroke-width:1px;stroke-linecap:butt;stroke-linejoin:miter;stroke-opacity:1" d="M 322.991,713.286 322.991,725.796 z" id="boundary" inkscape:connector-curvature="0" />
	<path style="fill:none;stroke:red;stroke-width:1px;stroke-linecap:butt;stroke-linejoin:miter;stroke-opacity:1" d="M 322.991,725.796 322.991,738.305 z" id="boundary" inkscape:connector-curvature="0" />
	<path style="fill:none;stroke:red;stroke-width:1px;stroke-linecap:butt;stroke-linejoin:miter;stroke-opacity:1" d="M 322.991,738.305 322.991,750.815 z" id="boundary" inkscape:connector-curvature="0" />
	<path style="fill:none;stroke:red;stroke-width:1px;stroke-linecap:butt;stroke-linejoin:miter;stroke-opacity:1" d="M 322.991,750.815 322.991,763.324 z" id="boundary" inkscape:connector-curvature="0" />
	<path style="fill:none;stroke:red;stroke-width:1px;stroke-linecap:butt;stroke-linejoin:miter;stroke-opacity:1" d="M 322.991,763.324 322.991,775.834 z" id="boundary" inkscape:connector-curvature="0" />
	<path style="fill:none;stroke:red;stroke-width:1px;stroke-linecap:butt;stroke-linejoin:miter;stroke-opacity:1" d="M 322.991,775.834 322.991,788.343 z" id="boundary" inkscape:connector-curvature="0" />
	<path style="fill:none;stroke:red;stroke-width:1px;stroke-linecap:butt;stroke-linejoin:miter;stroke-opacity:1" d="M 322.991,788.343 322.991,800.852 z" id="boundary" inkscape:connector-curvature="0" />
	<path style="fill:none;stroke:red;stroke-width:1px;stroke-linecap:butt;stroke-linejoin:miter;stroke-opacity:1" d="M 322.991,800.852 329.246,812.111 z" id="boundary" inkscape:connector-curvature="0" />
	<path style="fill:none;stroke:red;stroke-width:1px;stroke-linecap:butt;stroke-linejoin:miter;stroke-opacity:1" d="M 325.493,10.2547 336.752,16.5095 z" id="boundary" inkscape:connector-curvature="0" />
	<path style="fill:none;stroke:red;stroke-width:1px;stroke-linecap:butt;stroke-linejoin:miter;stroke-opacity:1" d="M 329.246,812.111 329.246,824.62 z" id="boundary" inkscape:connector-curvature="0" />
	<path style="fill:none;stroke:red;stroke-width:1px;stroke-linecap:butt;stroke-linejoin:miter;stroke-opacity:1" d="M 329.246,824.62 329.246,837.13 z" id="boundary" inkscape:connector-curvature="0" />
	<path style="fill:none;stroke:red;stroke-width:1px;stroke-linecap:butt;stroke-linejoin:miter;stroke-opacity:1" d="M 329.246,837.13 329.246,849.639 z" id="boundary" inkscape:connector-curvature="0" />
	<path style="fill:none;stroke:red;stroke-width:1px;stroke-linecap:butt;stroke-linejoin:miter;stroke-opacity:1" d="M 329.246,849.639 329.246,862.149 z" id="boundary" inkscape:connector-curvature="0" />
	<path style="fill:none;stroke:red;stroke-width:1px;stroke-linecap:butt;stroke-linejoin:miter;stroke-opacity:1" d="M 329.246,862.149 329.246,874.658 z" id="boundary" inkscape:connector-curvature="0" />
	<path style="fill:none;stroke:red;stroke-width:1px;stroke-linecap:butt;stroke-linejoin:miter;stroke-opacity:1" d="M 329.246,874.658 329.246,887.168 z" id="boundary" inkscape:connector-curvature="0" />
	<path style="fill:none;stroke:red;stroke-width:1px;stroke-linecap:butt;stroke-linejoin:miter;stroke-opacity:1" d="M 329.246,887.168 329.246,899.677 z" id="boundary" inkscape:connector-curvature="0" />
	<path style="fill:none;stroke:red;stroke-width:1px;stroke-linecap:butt;stroke-linejoin:miter;stroke-opacity:1" d="M 329.246,899.677 329.246,912.187 z" id="boundary" inkscape:connector-curvature="0" />
	<path style="fill:none;stroke:red;stroke-width:1px;stroke-linecap:butt;stroke-linejoin:miter;stroke-opacity:1" d="M 329.246,912.187 329.246,924.696 z" id="boundary" inkscape:connector-curvature="0" />
	<path style="fill:none;stroke:red;stroke-width:1px;stroke-linecap:butt;stroke-linejoin:miter;stroke-opacity:1" d="M 329.246,924.696 329.246,937.206 z" id="boundary" inkscape:connector-curvature="0" />
	<path style="fill:none;stroke:red;stroke-width:1px;stroke-linecap:butt;stroke-linejoin:miter;stroke-opacity:1" d="M 329.246,937.206 329.246,949.715 z" id="boundary" inkscape:connector-curvature="0" />
	<path style="fill:none;stroke:red;stroke-width:1px;stroke-linecap:butt;stroke-linejoin:miter;stroke-opacity:1" d="M 329.246,949.715 335.501,960.974 z" id="boundary" inkscape:connector-curvature="0" />
	<path style="fill:none;stroke:red;stroke-width:1px;stroke-linecap:butt;stroke-linejoin:miter;stroke-opacity:1" d="M 335.501,960.974 338.003,973.483 z" id="boundary" inkscape:connector-curvature="0" />
	<path style="fill:none;stroke:red;stroke-width:1px;stroke-linecap:butt;stroke-linejoin:miter;stroke-opacity:1" d="M 336.752,16.5095 348.01,22.7642 z" id="boundary" inkscape:connector-curvature="0" />
	<path style="fill:none;stroke:red;stroke-width:1px;stroke-linecap:butt;stroke-linejoin:miter;stroke-opacity:1" d="M 338.003,973.483 341.755,985.992 z" id="boundary" inkscape:connector-curvature="0" />
	<path style="fill:none;stroke:red;stroke-width:1px;stroke-linecap:butt;stroke-linejoin:miter;stroke-opacity:1" d="M 341.755,985.992 349.261,996 z" id="boundary" inkscape:connector-curvature="0" />
	<path style="fill:none;stroke:red;stroke-width:1px;stroke-linecap:butt;stroke-linejoin:miter;stroke-opacity:1" d="M 348.01,22.7642 359.269,29.0189 z" id="boundary" inkscape:connector-curvature="0" />
	<path style="fill:none;stroke:red;stroke-width:1px;stroke-linecap:butt;stroke-linejoin:miter;stroke-opacity:1" d="M 349.261,996 360.52,989.745 z" id="boundary" inkscape:connector-curvature="0" />
	<path style="fill:none;stroke:red;stroke-width:1px;stroke-linecap:butt;stroke-linejoin:miter;stroke-opacity:1" d="M 359.269,29.0189 370.527,35.2736 z" id="boundary" inkscape:connector-curvature="0" />
	<path style="fill:none;stroke:red;stroke-width:1px;stroke-linecap:butt;stroke-linejoin:miter;stroke-opacity:1" d="M 360.52,989.745 361.77,968.479 z" id="boundary" inkscape:connector-curvature="0" />
	<path style="fill:none;stroke:red;stroke-width:1px;stroke-linecap:butt;stroke-linejoin:miter;stroke-opacity:1" d="M 361.77,630.724 361.77,643.233 z" id="boundary" inkscape:connector-curvature="0" />
	<path style="fill:none;stroke:red;stroke-width:1px;stroke-linecap:butt;stroke-linejoin:miter;stroke-opacity:1" d="M 361.77,630.724 368.025,618.214 z" id="boundary" inkscape:connector-curvature="0" />
	<path style="fill:none;stroke:red;stroke-width:1px;stroke-linecap:butt;stroke-linejoin:miter;stroke-opacity:1" d="M 361.77,643.233 361.77,655.743 z" id="boundary" inkscape:connector-curvature="0" />
	<path style="fill:none;stroke:red;stroke-width:1px;stroke-linecap:butt;stroke-linejoin:miter;stroke-opacity:1" d="M 361.77,655.743 361.77,668.252 z" id="boundary" inkscape:connector-curvature="0" />
	<path style="fill:none;stroke:red;stroke-width:1px;stroke-linecap:butt;stroke-linejoin:miter;stroke-opacity:1" d="M 361.77,668.252 361.77,680.762 z" id="boundary" inkscape:connector-curvature="0" />
	<path style="fill:none;stroke:red;stroke-width:1px;stroke-linecap:butt;stroke-linejoin:miter;stroke-opacity:1" d="M 361.77,680.762 361.77,693.271 z" id="boundary" inkscape:connector-curvature="0" />
	<path style="fill:none;stroke:red;stroke-width:1px;stroke-linecap:butt;stroke-linejoin:miter;stroke-opacity:1" d="M 361.77,693.271 361.77,705.781 z" id="boundary" inkscape:connector-curvature="0" />
	<path style="fill:none;stroke:red;stroke-width:1px;stroke-linecap:butt;stroke-linejoin:miter;stroke-opacity:1" d="M 361.77,705.781 361.77,718.29 z" id="boundary" inkscape:connector-curvature="0" />
	<path style="fill:none;stroke:red;stroke-width:1px;stroke-linecap:butt;stroke-linejoin:miter;stroke-opacity:1" d="M 361.77,718.29 361.77,730.799 z" id="boundary" inkscape:connector-curvature="0" />
	<path style="fill:none;stroke:red;stroke-width:1px;stroke-linecap:butt;stroke-linejoin:miter;stroke-opacity:1" d="M 361.77,730.799 361.77,743.309 z" id="boundary" inkscape:connector-curvature="0" />
	<path style="fill:none;stroke:red;stroke-width:1px;stroke-linecap:butt;stroke-linejoin:miter;stroke-opacity:1" d="M 361.77,743.309 361.77,755.818 z" id="boundary" inkscape:connector-curvature="0" />
	<path style="fill:none;stroke:red;stroke-width:1px;stroke-linecap:butt;stroke-linejoin:miter;stroke-opacity:1" d="M 361.77,755.818 361.77,768.328 z" id="boundary" inkscape:connector-curvature="0" />
	<path style="fill:none;stroke:red;stroke-width:1px;stroke-linecap:butt;stroke-linejoin:miter;stroke-opacity:1" d="M 361.77,768.328 361.77,780.837 z" id="boundary" inkscape:connector-curvature="0" />
	<path style="fill:none;stroke:red;stroke-width:1px;stroke-linecap:butt;stroke-linejoin:miter;stroke-opacity:1" d="M 361.77,780.837 361.77,793.347 z" id="boundary" inkscape:connector-curvature="0" />
	<path style="fill:none;stroke:red;stroke-width:1px;stroke-linecap:butt;stroke-linejoin:miter;stroke-opacity:1" d="M 361.77,793.347 361.77,805.856 z" id="boundary" inkscape:connector-curvature="0" />
	<path style="fill:none;stroke:red;stroke-width:1px;stroke-linecap:butt;stroke-linejoin:miter;stroke-opacity:1" d="M 361.77,805.856 361.77,818.366 z" id="boundary" inkscape:connector-curvature="0" />
	<path style="fill:none;stroke:red;stroke-width:1px;stroke-linecap:butt;stroke-linejoin:miter;stroke-opacity:1" d="M 361.77,818.366 361.77,830.875 z" id="boundary" inkscape:connector-curvature="0" />
	<path style="fill:none;stroke:red;stroke-width:1px;stroke-linecap:butt;stroke-linejoin:miter;stroke-opacity:1" d="M 361.77,830.875 361.77,843.385 z" id="boundary" inkscape:connector-curvature="0" />
	<path style="fill:none;stroke:red;stroke-width:1px;stroke-linecap:butt;stroke-linejoin:miter;stroke-opacity:1" d="M 361.77,843.385 361.77,855.894 z" id="boundary" inkscape:connector-curvature="0" />
	<path style="fill:none;stroke:red;stroke-width:1px;stroke-linecap:butt;stroke-linejoin:miter;stroke-opacity:1" d="M 361.77,855.894 361.77,868.404 z" id="boundary" inkscape:connector-curvature="0" />
	<path style="fill:none;stroke:red;stroke-width:1px;stroke-linecap:butt;stroke-linejoin:miter;stroke-opacity:1" d="M 361.77,868.404 361.77,880.913 z" id="boundary" inkscape:connector-curvature="0" />
	<path style="fill:none;stroke:red;stroke-width:1px;stroke-linecap:butt;stroke-linejoin:miter;stroke-opacity:1" d="M 361.77,880.913 361.77,893.422 z" id="boundary" inkscape:connector-curvature="0" />
	<path style="fill:none;stroke:red;stroke-width:1px;stroke-linecap:butt;stroke-linejoin:miter;stroke-opacity:1" d="M 361.77,893.422 361.77,905.932 z" id="boundary" inkscape:connector-curvature="0" />
	<path style="fill:none;stroke:red;stroke-width:1px;stroke-linecap:butt;stroke-linejoin:miter;stroke-opacity:1" d="M 361.77,905.932 361.77,918.441 z" id="boundary" inkscape:connector-curvature="0" />
	<path style="fill:none;stroke:red;stroke-width:1px;stroke-linecap:butt;stroke-linejoin:miter;stroke-opacity:1" d="M 361.77,918.441 361.77,930.951 z" id="boundary" inkscape:connector-curvature="0" />
	<path style="fill:none;stroke:red;stroke-width:1px;stroke-linecap:butt;stroke-linejoin:miter;stroke-opacity:1" d="M 361.77,930.951 361.77,943.46 z" id="boundary" inkscape:connector-curvature="0" />
	<path style="fill:none;stroke:red;stroke-width:1px;stroke-linecap:butt;stroke-linejoin:miter;stroke-opacity:1" d="M 361.77,943.46 361.77,955.97 z" id="boundary" inkscape:connector-curvature="0" />
	<path style="fill:none;stroke:red;stroke-width:1px;stroke-linecap:butt;stroke-linejoin:miter;stroke-opacity:1" d="M 361.77,955.97 361.77,968.479 z" id="boundary" inkscape:connector-curvature="0" />
	<path style="fill:none;stroke:red;stroke-width:1px;stroke-linecap:butt;stroke-linejoin:miter;stroke-opacity:1" d="M 368.025,605.705 368.025,618.214 z" id="boundary" inkscape:connector-curvature="0" />
	<path style="fill:none;stroke:red;stroke-width:1px;stroke-linecap:butt;stroke-linejoin:miter;stroke-opacity:1" d="M 368.025,605.705 374.28,593.195 z" id="boundary" inkscape:connector-curvature="0" />
	<path style="fill:none;stroke:red;stroke-width:1px;stroke-linecap:butt;stroke-linejoin:miter;stroke-opacity:1" d="M 370.527,35.2736 381.786,41.5284 z" id="boundary" inkscape:connector-curvature="0" />
	<path style="fill:none;stroke:red;stroke-width:1px;stroke-linecap:butt;stroke-linejoin:miter;stroke-opacity:1" d="M 374.28,593.195 386.789,593.195 z" id="boundary" inkscape:connector-curvature="0" />
	<path style="fill:none;stroke:red;stroke-width:1px;stroke-linecap:butt;stroke-linejoin:miter;stroke-opacity:1" d="M 381.786,41.5284 393.044,47.7831 z" id="boundary" inkscape:connector-curvature="0" />
	<path style="fill:none;stroke:red;stroke-width:1px;stroke-linecap:butt;stroke-linejoin:miter;stroke-opacity:1" d="M 386.789,593.195 399.299,593.195 z" id="boundary" inkscape:connector-curvature="0" />
	<path style="fill:none;stroke:red;stroke-width:1px;stroke-linecap:butt;stroke-linejoin:miter;stroke-opacity:1" d="M 393.044,47.7831 403.052,55.2888 z" id="boundary" inkscape:connector-curvature="0" />
	<path style="fill:none;stroke:red;stroke-width:1px;stroke-linecap:butt;stroke-linejoin:miter;stroke-opacity:1" d="M 399.299,593.195 409.306,584.439 z" id="boundary" inkscape:connector-curvature="0" />
	<path style="fill:none;stroke:red;stroke-width:1px;stroke-linecap:butt;stroke-linejoin:miter;stroke-opacity:1" d="M 403.052,55.2888 411.808,65.2963 z" id="boundary" inkscape:connector-curvature="0" />
	<path style="fill:none;stroke:red;stroke-width:1px;stroke-linecap:butt;stroke-linejoin:miter;stroke-opacity:1" d="M 409.306,584.439 418.063,574.431 z" id="boundary" inkscape:connector-curvature="0" />
	<path style="fill:none;stroke:red;stroke-width:1px;stroke-linecap:butt;stroke-linejoin:miter;stroke-opacity:1" d="M 411.808,65.2963 424.318,70.3001 z" id="boundary" inkscape:connector-curvature="0" />
	<path style="fill:none;stroke:red;stroke-width:1px;stroke-linecap:butt;stroke-linejoin:miter;stroke-opacity:1" d="M 418.063,574.431 424.318,561.922 z" id="boundary" inkscape:connector-curvature="0" />
	<path style="fill:none;stroke:red;stroke-width:1px;stroke-linecap:butt;stroke-linejoin:miter;stroke-opacity:1" d="M 424.318,70.3001 433.074,80.3077 z" id="boundary" inkscape:connector-curvature="0" />
	<path style="fill:none;stroke:red;stroke-width:1px;stroke-linecap:butt;stroke-linejoin:miter;stroke-opacity:1" d="M 424.318,536.903 424.318,549.412 z" id="boundary" inkscape:connector-curvature="0" />
	<path style="fill:none;stroke:red;stroke-width:1px;stroke-linecap:butt;stroke-linejoin:miter;stroke-opacity:1" d="M 424.318,536.903 434.325,528.146 z" id="boundary" inkscape:connector-curvature="0" />
	<path style="fill:none;stroke:red;stroke-width:1px;stroke-linecap:butt;stroke-linejoin:miter;stroke-opacity:1" d="M 424.318,549.412 424.318,561.922 z" id="boundary" inkscape:connector-curvature="0" />
	<path style="fill:none;stroke:red;stroke-width:1px;stroke-linecap:butt;stroke-linejoin:miter;stroke-opacity:1" d="M 433.074,80.3077 443.082,89.0643 z" id="boundary" inkscape:connector-curvature="0" />
	<path style="fill:none;stroke:red;stroke-width:1px;stroke-linecap:butt;stroke-linejoin:miter;stroke-opacity:1" d="M 434.325,528.146 443.082,518.139 z" id="boundary" inkscape:connector-curvature="0" />
	<path style="fill:none;stroke:red;stroke-width:1px;stroke-linecap:butt;stroke-linejoin:miter;stroke-opacity:1" d="M 443.082,89.0643 448.086,101.574 z" id="boundary" inkscape:connector-curvature="0" />
	<path style="fill:none;stroke:red;stroke-width:1px;stroke-linecap:butt;stroke-linejoin:miter;stroke-opacity:1" d="M 443.082,518.139 455.591,518.139 z" id="boundary" inkscape:connector-curvature="0" />
	<path style="fill:none;stroke:red;stroke-width:1px;stroke-linecap:butt;stroke-linejoin:miter;stroke-opacity:1" d="M 448.086,101.574 458.093,110.33 z" id="boundary" inkscape:connector-curvature="0" />
	<path style="fill:none;stroke:red;stroke-width:1px;stroke-linecap:butt;stroke-linejoin:miter;stroke-opacity:1" d="M 455.591,518.139 468.101,511.884 z" id="boundary" inkscape:connector-curvature="0" />
	<path style="fill:none;stroke:red;stroke-width:1px;stroke-linecap:butt;stroke-linejoin:miter;stroke-opacity:1" d="M 458.093,110.33 469.352,116.585 z" id="boundary" inkscape:connector-curvature="0" />
	<path style="fill:none;stroke:red;stroke-width:1px;stroke-linecap:butt;stroke-linejoin:miter;stroke-opacity:1" d="M 468.101,511.884 480.61,505.629 z" id="boundary" inkscape:connector-curvature="0" />
	<path style="fill:none;stroke:red;stroke-width:1px;stroke-linecap:butt;stroke-linejoin:miter;stroke-opacity:1" d="M 469.352,116.585 479.359,125.342 z" id="boundary" inkscape:connector-curvature="0" />
	<path style="fill:none;stroke:red;stroke-width:1px;stroke-linecap:butt;stroke-linejoin:miter;stroke-opacity:1" d="M 479.359,125.342 490.618,131.596 z" id="boundary" inkscape:connector-curvature="0" />
	<path style="fill:none;stroke:red;stroke-width:1px;stroke-linecap:butt;stroke-linejoin:miter;stroke-opacity:1" d="M 480.61,505.629 493.12,499.375 z" id="boundary" inkscape:connector-curvature="0" />
	<path style="fill:none;stroke:red;stroke-width:1px;stroke-linecap:butt;stroke-linejoin:miter;stroke-opacity:1" d="M 490.618,131.596 499.375,141.604 z" id="boundary" inkscape:connector-curvature="0" />
	<path style="fill:none;stroke:red;stroke-width:1px;stroke-linecap:butt;stroke-linejoin:miter;stroke-opacity:1" d="M 493.12,499.375 505.629,493.12 z" id="boundary" inkscape:connector-curvature="0" />
	<path style="fill:none;stroke:red;stroke-width:1px;stroke-linecap:butt;stroke-linejoin:miter;stroke-opacity:1" d="M 499.375,141.604 511.884,145.357 z" id="boundary" inkscape:connector-curvature="0" />
	<path style="fill:none;stroke:red;stroke-width:1px;stroke-linecap:butt;stroke-linejoin:miter;stroke-opacity:1" d="M 505.629,493.12 515.637,484.363 z" id="boundary" inkscape:connector-curvature="0" />
	<path style="fill:none;stroke:red;stroke-width:1px;stroke-linecap:butt;stroke-linejoin:miter;stroke-opacity:1" d="M 511.884,145.357 523.142,151.612 z" id="boundary" inkscape:connector-curvature="0" />
	<path style="fill:none;stroke:red;stroke-width:1px;stroke-linecap:butt;stroke-linejoin:miter;stroke-opacity:1" d="M 515.637,484.363 528.146,478.108 z" id="boundary" inkscape:connector-curvature="0" />
	<path style="fill:none;stroke:red;stroke-width:1px;stroke-linecap:butt;stroke-linejoin:miter;stroke-opacity:1" d="M 523.142,151.612 533.15,160.368 z" id="boundary" inkscape:connector-curvature="0" />
	<path style="fill:none;stroke:red;stroke-width:1px;stroke-linecap:butt;stroke-linejoin:miter;stroke-opacity:1" d="M 528.146,478.108 536.903,468.101 z" id="boundary" inkscape:connector-curvature="0" />
	<path style="fill:none;stroke:red;stroke-width:1px;stroke-linecap:butt;stroke-linejoin:miter;stroke-opacity:1" d="M 533.15,160.368 544.409,166.623 z" id="boundary" inkscape:connector-curvature="0" />
	<path style="fill:none;stroke:red;stroke-width:1px;stroke-linecap:butt;stroke-linejoin:miter;stroke-opacity:1" d="M 536.903,468.101 546.91,459.344 z" id="boundary" inkscape:connector-curvature="0" />
	<path style="fill:none;stroke:red;stroke-width:1px;stroke-linecap:butt;stroke-linejoin:miter;stroke-opacity:1" d="M 544.409,166.623 555.667,172.878 z" id="boundary" inkscape:connector-curvature="0" />
	<path style="fill:none;stroke:red;stroke-width:1px;stroke-linecap:butt;stroke-linejoin:miter;stroke-opacity:1" d="M 546.91,459.344 555.667,449.337 z" id="boundary" inkscape:connector-curvature="0" />
	<path style="fill:none;stroke:red;stroke-width:1px;stroke-linecap:butt;stroke-linejoin:miter;stroke-opacity:1" d="M 555.667,172.878 565.675,180.383 z" id="boundary" inkscape:connector-curvature="0" />
	<path style="fill:none;stroke:red;stroke-width:1px;stroke-linecap:butt;stroke-linejoin:miter;stroke-opacity:1" d="M 555.667,449.337 561.922,436.827 z" id="boundary" inkscape:connector-curvature="0" />
	<path style="fill:none;stroke:red;stroke-width:1px;stroke-linecap:butt;stroke-linejoin:miter;stroke-opacity:1" d="M 561.922,436.827 574.431,430.573 z" id="boundary" inkscape:connector-curvature="0" />
	<path style="fill:none;stroke:red;stroke-width:1px;stroke-linecap:butt;stroke-linejoin:miter;stroke-opacity:1" d="M 565.675,180.383 576.933,186.638 z" id="boundary" inkscape:connector-curvature="0" />
	<path style="fill:none;stroke:red;stroke-width:1px;stroke-linecap:butt;stroke-linejoin:miter;stroke-opacity:1" d="M 574.431,430.573 584.439,421.816 z" id="boundary" inkscape:connector-curvature="0" />
	<path style="fill:none;stroke:red;stroke-width:1px;stroke-linecap:butt;stroke-linejoin:miter;stroke-opacity:1" d="M 576.933,186.638 586.941,195.395 z" id="boundary" inkscape:connector-curvature="0" />
	<path style="fill:none;stroke:red;stroke-width:1px;stroke-linecap:butt;stroke-linejoin:miter;stroke-opacity:1" d="M 584.439,421.816 593.195,405.554 z" id="boundary" inkscape:connector-curvature="0" />
	<path style="fill:none;stroke:red;stroke-width:1px;stroke-linecap:butt;stroke-linejoin:miter;stroke-opacity:1" d="M 586.941,195.395 598.199,201.649 z" id="boundary" inkscape:connector-curvature="0" />
	<path style="fill:none;stroke:red;stroke-width:1px;stroke-linecap:butt;stroke-linejoin:miter;stroke-opacity:1" d="M 593.195,405.554 603.203,396.797 z" id="boundary" inkscape:connector-curvature="0" />
	<path style="fill:none;stroke:red;stroke-width:1px;stroke-linecap:butt;stroke-linejoin:miter;stroke-opacity:1" d="M 598.199,201.649 608.207,210.406 z" id="boundary" inkscape:connector-curvature="0" />
	<path style="fill:none;stroke:red;stroke-width:1px;stroke-linecap:butt;stroke-linejoin:miter;stroke-opacity:1" d="M 603.203,396.797 611.96,386.789 z" id="boundary" inkscape:connector-curvature="0" />
	<path style="fill:none;stroke:red;stroke-width:1px;stroke-linecap:butt;stroke-linejoin:miter;stroke-opacity:1" d="M 608.207,210.406 619.465,216.661 z" id="boundary" inkscape:connector-curvature="0" />
	<path style="fill:none;stroke:red;stroke-width:1px;stroke-linecap:butt;stroke-linejoin:miter;stroke-opacity:1" d="M 611.96,386.789 618.214,374.28 z" id="boundary" inkscape:connector-curvature="0" />
	<path style="fill:none;stroke:red;stroke-width:1px;stroke-linecap:butt;stroke-linejoin:miter;stroke-opacity:1" d="M 618.214,374.28 628.222,365.523 z" id="boundary" inkscape:connector-curvature="0" />
	<path style="fill:none;stroke:red;stroke-width:1px;stroke-linecap:butt;stroke-linejoin:miter;stroke-opacity:1" d="M 619.465,216.661 630.724,222.916 z" id="boundary" inkscape:connector-curvature="0" />
	<path style="fill:none;stroke:red;stroke-width:1px;stroke-linecap:butt;stroke-linejoin:miter;stroke-opacity:1" d="M 628.222,365.523 634.477,353.014 z" id="boundary" inkscape:connector-curvature="0" />
	<path style="fill:none;stroke:red;stroke-width:1px;stroke-linecap:butt;stroke-linejoin:miter;stroke-opacity:1" d="M 630.724,222.916 636.979,234.174 z" id="boundary" inkscape:connector-curvature="0" />
	<path style="fill:none;stroke:red;stroke-width:1px;stroke-linecap:butt;stroke-linejoin:miter;stroke-opacity:1" d="M 634.477,353.014 643.233,336.752 z" id="boundary" inkscape:connector-curvature="0" />
	<path style="fill:none;stroke:red;stroke-width:1px;stroke-linecap:butt;stroke-linejoin:miter;stroke-opacity:1" d="M 636.979,234.174 649.488,239.178 z" id="boundary" inkscape:connector-curvature="0" />
	<path style="fill:none;stroke:red;stroke-width:1px;stroke-linecap:butt;stroke-linejoin:miter;stroke-opacity:1" d="M 643.233,336.752 649.488,324.242 z" id="boundary" inkscape:connector-curvature="0" />
	<path style="fill:none;stroke:red;stroke-width:1px;stroke-linecap:butt;stroke-linejoin:miter;stroke-opacity:1" d="M 649.488,239.178 654.492,251.687 z" id="boundary" inkscape:connector-curvature="0" />
	<path style="fill:none;stroke:red;stroke-width:1px;stroke-linecap:butt;stroke-linejoin:miter;stroke-opacity:1" d="M 649.488,324.242 655.743,311.733 z" id="boundary" inkscape:connector-curvature="0" />
	<path style="fill:none;stroke:red;stroke-width:1px;stroke-linecap:butt;stroke-linejoin:miter;stroke-opacity:1" d="M 654.492,251.687 655.743,264.197 z" id="boundary" inkscape:connector-curvature="0" />
	<path style="fill:none;stroke:red;stroke-width:1px;stroke-linecap:butt;stroke-linejoin:miter;stroke-opacity:1" d="M 655.743,264.197 661.997,275.455 z" id="boundary" inkscape:connector-curvature="0" />
	<path style="fill:none;stroke:red;stroke-width:1px;stroke-linecap:butt;stroke-linejoin:miter;stroke-opacity:1" d="M 655.743,299.223 655.743,311.733 z" id="boundary" inkscape:connector-curvature="0" />
	<path style="fill:none;stroke:red;stroke-width:1px;stroke-linecap:butt;stroke-linejoin:miter;stroke-opacity:1" d="M 655.743,299.223 661.997,287.965 z" id="boundary" inkscape:connector-curvature="0" />
	<path style="fill:none;stroke:red;stroke-width:1px;stroke-linecap:butt;stroke-linejoin:miter;stroke-opacity:1" d="M 661.997,275.455 661.997,287.965 z" id="boundary" inkscape:connector-curvature="0" />
	<circle cx="4" cy="276.706" r="4" fill="#0" id="circle0"/>
	<circle cx="4" cy="289.216" r="4" fill="#0" id="circle1"/>
	<circle cx="4" cy="301.725" r="4" fill="#0" id="circle2"/>
	<circle cx="4" cy="314.235" r="4" fill="#0" id="circle3"/>
	<circle cx="10.2547" cy="264.197" r="4" fill="#0" id="circle4"/>
	<circle cx="10.2547" cy="325.493" r="4" fill="#0" id="circle5"/>
	<circle cx="16.5095" cy="336.752" r="4" fill="#0" id="circle6"/>
	<circle cx="20.2623" cy="254.189" r="4" fill="#0" id="circle7"/>
	<circle cx="24.0151" cy="346.759" r="4" fill="#0" id="circle8"/>
	<circle cx="30.2699" cy="244.182" r="4" fill="#0" id="circle9"/>
	<circle cx="30.2699" cy="358.018" r="4" fill="#0" id="circle10"/>
	<circle cx="35.2736" cy="370.527" r="4" fill="#0" id="circle11"/>
	<circle cx="36.5246" cy="231.672" r="4" fill="#0" id="circle12"/>
	<circle cx="45.2812" cy="379.284" r="4" fill="#0" id="circle13"/>
	<circle cx="46.5322" cy="222.916" r="4" fill="#0" id="circle14"/>
	<circle cx="54.0378" cy="389.291" r="4" fill="#0" id="circle15"/>
	<circle cx="57.7907" cy="216.661" r="4" fill="#0" id="circle16"/>
	<circle cx="60.2926" cy="400.55" r="4" fill="#0" id="circle17"/>
	<circle cx="67.7982" cy="206.653" r="4" fill="#0" id="circle18"/>
	<circle cx="69.0492" cy="410.557" r="4" fill="#0" id="circle19"/>
	<circle cx="77.8058" cy="197.897" r="4" fill="#0" id="circle20"/>
	<circle cx="79.0567" cy="418.063" r="4" fill="#0" id="circle21"/>
	<circle cx="89.0643" cy="191.642" r="4" fill="#0" id="circle22"/>
	<circle cx="90.3153" cy="424.318" r="4" fill="#0" id="circle23"/>
	<circle cx="99.0719" cy="434.325" r="4" fill="#0" id="circle24"/>
	<circle cx="100.323" cy="185.387" r="4" fill="#0" id="circle25"/>
	<circle cx="109.079" cy="443.082" r="4" fill="#0" id="circle26"/>
	<circle cx="110.33" cy="176.631" r="4" fill="#0" id="circle27"/>
	<circle cx="117.836" cy="453.09" r="4" fill="#0" id="circle28"/>
	<circle cx="122.84" cy="170.376" r="4" fill="#0" id="circle29"/>
	<circle cx="127.844" cy="461.846" r="4" fill="#0" id="circle30"/>
	<circle cx="132.847" cy="160.368" r="4" fill="#0" id="circle31"/>
	<circle cx="139.102" cy="468.101" r="4" fill="#0" id="circle32"/>
	<circle cx="142.855" cy="150.361" r="4" fill="#0" id="circle33"/>
	<circle cx="147.859" cy="478.108" r="4" fill="#0" id="circle34"/>
	<circle cx="152.863" cy="141.604" r="4" fill="#0" id="circle35"/>
	<circle cx="154.113" cy="489.367" r="4" fill="#0" id="circle36"/>
	<circle cx="160.368" cy="126.593" r="4" fill="#0" id="circle37"/>
	<circle cx="166.623" cy="493.12" r="4" fill="#0" id="circle38"/>
	<circle cx="170.376" cy="116.585" r="4" fill="#0" id="circle39"/>
	<circle cx="176.631" cy="104.076" r="4" fill="#0" id="circle40"/>
	<circle cx="177.881" cy="499.375" r="4" fill="#0" id="circle41"/>
	<circle cx="186.638" cy="94.0681" r="4" fill="#0" id="circle42"/>
	<circle cx="189.14" cy="505.629" r="4" fill="#0" id="circle43"/>
	<circle cx="196.646" cy="85.3115" r="4" fill="#0" id="circle44"/>
	<circle cx="201.649" cy="510.633" r="4" fill="#0" id="circle45"/>
	<circle cx="204.151" cy="70.3001" r="4" fill="#0" id="circle46"/>
	<circle cx="214.159" cy="60.2926" r="4" fill="#0" id="circle47"/>
	<circle cx="214.159" cy="511.884" r="4" fill="#0" id="circle48"/>
	<circle cx="224.166" cy="50.285" r="4" fill="#0" id="circle49"/>
	<circle cx="226.668" cy="511.884" r="4" fill="#0" id="circle50"/>
	<circle cx="234.174" cy="41.5284" r="4" fill="#0" id="circle51"/>
	<circle cx="239.178" cy="511.884" r="4" fill="#0" id="circle52"/>
	<circle cx="245.433" cy="35.2736" r="4" fill="#0" id="circle53"/>
	<circle cx="247.934" cy="521.892" r="4" fill="#0" id="circle54"/>
	<circle cx="247.934" cy="534.401" r="4" fill="#0" id="circle55"/>
	<circle cx="247.934" cy="546.91" r="4" fill="#0" id="circle56"/>
	<circle cx="247.934" cy="559.42" r="4" fill="#0" id="circle57"/>
	<circle cx="255.44" cy="25.2661" r="4" fill="#0" id="circle58"/>
	<circle cx="257.942" cy="568.177" r="4" fill="#0" id="circle59"/>
	<circle cx="267.95" cy="19.0113" r="4" fill="#0" id="circle60"/>
	<circle cx="267.95" cy="576.933" r="4" fill="#0" id="circle61"/>
	<circle cx="277.957" cy="10.2547" r="4" fill="#0" id="circle62"/>
	<circle cx="280.459" cy="580.686" r="4" fill="#0" id="circle63"/>
	<circle cx="289.216" cy="4" r="4" fill="#0" id="circle64"/>
	<circle cx="291.718" cy="574.431" r="4" fill="#0" id="circle65"/>
	<circle cx="301.725" cy="4" r="4" fill="#0" id="circle66"/>
	<circle cx="302.976" cy="580.686" r="4" fill="#0" id="circle67"/>
	<circle cx="310.482" cy="590.694" r="4" fill="#0" id="circle68"/>
	<circle cx="310.482" cy="603.203" r="4" fill="#0" id="circle69"/>
	<circle cx="314.235" cy="4" r="4" fill="#0" id="circle70"/>
	<circle cx="316.736" cy="614.462" r="4" fill="#0" id="circle71"/>
	<circle cx="316.736" cy="626.971" r="4" fill="#0" id="circle72"/>
	<circle cx="316.736" cy="639.48" r="4" fill="#0" id="circle73"/>
	<circle cx="316.736" cy="651.99" r="4" fill="#0" id="circle74"/>
	<circle cx="316.736" cy="664.499" r="4" fill="#0" id="circle75"/>
	<circle cx="316.736" cy="677.009" r="4" fill="#0" id="circle76"/>
	<circle cx="316.736" cy="689.518" r="4" fill="#0" id="circle77"/>
	<circle cx="322.991" cy="700.777" r="4" fill="#0" id="circle78"/>
	<circle cx="322.991" cy="713.286" r="4" fill="#0" id="circle79"/>
	<circle cx="322.991" cy="725.796" r="4" fill="#0" id="circle80"/>
	<circle cx="322.991" cy="738.305" r="4" fill="#0" id="circle81"/>
	<circle cx="322.991" cy="750.815" r="4" fill="#0" id="circle82"/>
	<circle cx="322.991" cy="763.324" r="4" fill="#0" id="circle83"/>
	<circle cx="322.991" cy="775.834" r="4" fill="#0" id="circle84"/>
	<circle cx="322.991" cy="788.343" r="4" fill="#0" id="circle85"/>
	<circle cx="322.991" cy="800.852" r="4" fill="#0" id="circle86"/>
	<circle cx="325.493" cy="10.2547" r="4" fill="#0" id="circle87"/>
	<circle cx="329.246" cy="812.111" r="4" fill="#0" id="circle88"/>
	<circle cx="329.246" cy="824.62" r="4" fill="#0" id="circle89"/>
	<circle cx="329.246" cy="837.13" r="4" fill="#0" id="circle90"/>
	<circle cx="329.246" cy="849.639" r="4" fill="#0" id="circle91"/>
	<circle cx="329.246" cy="862.149" r="4" fill="#0" id="circle92"/>
	<circle cx="329.246" cy="874.658" r="4" fill="#0" id="circle93"/>
	<circle cx="329.246" cy="887.168" r="4" fill="#0" id="circle94"/>
	<circle cx="329.246" cy="899.677" r="4" fill="#0" id="circle95"/>
	<circle cx="329.246" cy="912.187" r="4" fill="#0" id="circle96"/>
	<circle cx="329.246" cy="924.696" r="4" fill="#0" id="circle97"/>
	<circle cx="329.246" cy="937.206" r="4" fill="#0" id="circle98"/>
	<circle cx="329.246" cy="949.715" r="4" fill="#0" id="circle99"/>
	<circle cx="335.501" cy="960.974" r="4" fill="#0" id="circle100"/>
	<circle cx="336.752" cy="16.5095" r="4" fill="#0" id="circle101"/>
	<circle cx="338.003" cy="973.483" r="4" fill="#0" id="circle102"/>
	<circle cx="341.755" cy="985.992" r="4" fill="#0" id="circle103"/>
	<circle cx="348.01" cy="22.7642" r="4" fill="#0" id="circle104"/>
	<circle cx="349.261" cy="996" r="4" fill="#0" id="circle105"/>
	<circle cx="359.269" cy="29.0189" r="4" fill="#0" id="circle106"/>
	<circle cx="360.52" cy="989.745" r="4" fill="#0" id="circle107"/>
	<circle cx="361.77" cy="630.724" r="4" fill="#0" id="circle108"/>
	<circle cx="361.77" cy="643.233" r="4" fill="#0" id="circle109"/>
	<circle cx="361.77" cy="655.743" r="4" fill="#0" id="circle110"/>
	<circle cx="361.77" cy="668.252" r="4" fill="#0" id="circle111"/>
	<circle cx="361.77" cy="680.762" r="4" fill="#0" id="circle112"/>
	<circle cx="361.77" cy="693.271" r="4" fill="#0" id="circle113"/>
	<circle cx="361.77" cy="705.781" r="4" fill="#0" id="circle114"/>
	<circle cx="361.77" cy="718.29" r="4" fill="#0" id="circle115"/>
	<circle cx="361.77" cy="730.799" r="4" fill="#0" id="circle116"/>
	<circle cx="361.77" cy="743.309" r="4" fill="#0" id="circle117"/>
	<circle cx="361.77" cy="755.818" r="4" fill="#0" id="circle118"/>
	<circle cx="361.77" cy="768.328" r="4" fill="#0" id="circle119"/>
	<circle cx="361.77" cy="780.837" r="4" fill="#0" id="circle120"/>
	<circle cx="361.77" cy="793.347" r="4" fill="#0" id="circle121"/>
	<circle cx="361.77" cy="805.856" r="4" fill="#0" id="circle122"/>
	<circle cx="361.77" cy="818.366" r="4" fill="#0" id="circle123"/>
	<circle cx="361.77" cy="830.875" r="4" fill="#0" id="circle124"/>
	<circle cx="361.77" cy="843.385" r="4" fill="#0" id="circle125"/>
	<circle cx="361.77" cy="855.894" r="4" fill="#0" id="circle126"/>
	<circle cx="361.77" cy="868.404" r="4" fill="#0" id="circle127"/>
	<circle cx="361.77" cy="880.913" r="4" fill="#0" id="circle128"/>
	<circle cx="361.77" cy="893.422" r="4" fill="#0" id="circle129"/>
	<circle cx="361.77" cy="905.932" r="4" fill="#0" id="circle130"/>
	<circle cx="361.77" cy="918.441" r="4" fill="#0" id="circle131"/>
	<circle cx="361.77" cy="930.951" r="4" fill="#0" id="circle132"/>
	<circle cx="361.77" cy="943.46" r="4" fill="#0" id="circle133"/>
	<circle cx="361.77" cy="955.97" r="4" fill="#0" id="circle134"/>
	<circle cx="361.77" cy="968.479" r="4" fill="#0" id="circle135"/>
	<circle cx="368.025" cy="605.705" r="4" fill="#0" id="circle136"/>
	<circle cx="368.025" cy="618.214" r="4" fill="#0" id="circle137"/>
	<circle cx="370.527" cy="35.2736" r="4" fill="#0" id="circle138"/>
	<circle cx="374.28" cy="593.195" r="4" fill="#0" id="circle139"/>
	<circle cx="381.786" cy="41.5284" r="4" fill="#0" id="circle140"/>
	<circle cx="386.789" cy="593.195" r="4" fill="#0" id="circle141"/>
	<circle cx="393.044" cy="47.7831" r="4" fill="#0" id="circle142"/>
	<circle cx="399.299" cy="593.195" r="4" fill="#0" id="circle143"/>
	<circle cx="403.052" cy="55.2888" r="4" fill="#0" id="circle144"/>
	<circle cx="409.306" cy="584.439" r="4" fill="#0" id="circle145"/>
	<circle cx="411.808" cy="65.2963" r="4" fill="#0" id="circle146"/>
	<circle cx="418.063" cy="574.431" r="4" fill="#0" id="circle147"/>
	<circle cx="424.318" cy="70.3001" r="4" fill="#0" id="circle148"/>
	<circle cx="424.318" cy="536.903" r="4" fill="#0" id="circle149"/>
	<circle cx="424.318" cy="549.412" r="4" fill="#0" id="circle150"/>
	<circle cx="424.318" cy="561.922" r="4" fill="#0" id="circle151"/>
	<circle cx="433.074" cy="80.3077" r="4" fill="#0" id="circle152"/>
	<circle cx="434.325" cy="528.146" r="4" fill="#0" id="circle153"/>
	<circle cx="443.082" cy="89.0643" r="4" fill="#0" id="circle154"/>
	<circle cx="443.082" cy="518.139" r="4" fill="#0" id="circle155"/>
	<circle cx="448.086" cy="101.574" r="4" fill="#0" id="circle156"/>
	<circle cx="455.591" cy="518.139" r="4" fill="#0" id="circle157"/>
	<circle cx="458.093" cy="110.33" r="4" fill="#0" id="circle158"/>
	<circle cx="468.101" cy="511.884" r="4" fill="#0" id="circle159"/>
	<circle cx="469.352" cy="116.585" r="4" fill="#0" id="circle160"/>
	<circle cx="479.359" cy="125.342" r="4" fill="#0" id="circle161"/>
	<circle cx="480.61" cy="505.629" r="4" fill="#0" id="circle162"/>
	<circle cx="490.618" cy="131.596" r="4" fill="#0" id="circle163"/>
	<circle cx="493.12" cy="499.375" r="4" fill="#0" id="circle164"/>
	<circle cx="499.375" cy="141.604" r="4" fill="#0" id="circle165"/>
	<circle cx="505.629" cy="493.12" r="4" fill="#0" id="circle166"/>
	<circle cx="511.884" cy="145.357" r="4" fill="#0" id="circle167"/>
	<circle cx="515.637" cy="484.363" r="4" fill="#0" id="circle168"/>
	<circle cx="523.142" cy="151.612" r="4" fill="#0" id="circle169"/>
	<circle cx="528.146" cy="478.108" r="4" fill="#0" id="circle170"/>
	<circle cx="533.15" cy="160.368" r="4" fill="#0" id="circle171"/>
	<circle cx="536.903" cy="468.101" r="4" fill="#0" id="circle172"/>
	<circle cx="544.409" cy="166.623" r="4" fill="#0" id="circle173"/>
	<circle cx="546.91" cy="459.344" r="4" fill="#0" id="circle174"/>
	<circle cx="555.667" cy="172.878" r="4" fill="#0" id="circle175"/>
	<circle cx="555.667" cy="449.337" r="4" fill="#0" id="circle176"/>
	<circle cx="561.922" cy="436.827" r="4" fill="#0" id="circle177"/>
	<circle cx="565.675" cy="180.383" r="4" fill="#0" id="circle178"/>
	<circle cx="574.431" cy="430.573" r="4" fill="#0" id="circle179"/>
	<circle cx="576.933" cy="186.638" r="4" fill="#0" id="circle180"/>
	<circle cx="584.439" cy="421.816" r="4" fill="#0" id="circle181"/>
	<circle cx="586.941" cy="195.395" r="4" fill="#0" id="circle182"/>
	<circle cx="593.195" cy="405.554" r="4" fill="#0" id="circle183"/>
	<circle cx="598.199" cy="201.649" r="4" fill="#0" id="circle184"/>
	<circle cx="603.203" cy="396.797" r="4" fill="#0" id="circle185"/>
	<circle cx="608.207" cy="210.406" r="4" fill="#0" id="circle186"/>
	<circle cx="611.96" cy="386.789" r="4" fill="#0" id="circle187"/>
	<circle cx="618.214" cy="374.28" r="4" fill="#0" id="circle188"/>
	<circle cx="619.465" cy="216.661" r="4" fill="#0" id="circle189"/>
	<circle cx="628.222" cy="365.523" r="4" fill="#0" id="circle190"/>
	<circle cx="630.724" cy="222.916" r="4" fill="#0" id="circle191"/>
	<circle cx="634.477" cy="353.014" r="4" fill="#0" id="circle192"/>
	<circle cx="636.979" cy="234.174" r="4" fill="#0" id="circle193"/>
	<circle cx="643.233" cy="336.752" r="4" fill="#0" id="circle194"/>
	<circle cx="649.488" cy="239.178" r="4" fill="#0" id="circle195"/>
	<circle cx="649.488" cy="324.242" r="4" fill="#0" id="circle196"/>
	<circle cx="654.492" cy="251.687" r="4" fill="#0" id="circle197"/>
	<circle cx="655.743" cy="264.197" r="4" fill="#0" id="circle198"/>
	<circle cx="655.743" cy="299.223" r="4" fill="#0" id="circle199"/>
	<circle cx="655.743" cy="311.733" r="4" fill="#0" id="circle200"/>
	<circle cx="661.997" cy="275.455" r="4" fill="#0" id="circle201"/>
	<circle cx="661.997" cy="287.965" r="4" fill="#0" id="circle202"/>
	</g>
</svg>