<?xml version="1.0" encoding="UTF-8" standalone="no"?>
<!-- Created with CurveBenchmark -->
<svg
	xmlns:dc="http://purl.org/dc/elements/1.1/"
	xmlns:cc="http://creativecommons.org/ns#"
	xmlns:rdf="http://www.w3.org/1999/02/22-rdf-syntax-ns#"
	xmlns:svg="http://www.w3.org/2000/svg"
	xmlns="http://www.w3.org/2000/svg"
	xmlns:sodipodi="http://sodipodi.sourceforge.net/DTD/sodipodi-0.dtd"
	xmlns:inkscape="http://www.inkscape.org/namespaces/inkscape"
	width="1000"
	height="1000"
	id="svg2"
	version="1.1"
	sodipodi:docname="manifold/discur-guitar250.png.txt">
<defs
	id="defs4" />
<metadata
	id="metadata7">
	<rdf:RDF>
		<cc:Work
			rdf:about="">
			<dc:format>image/svg+xml</dc:format>
			<dc:type
				rdf:resource="http://purl.org/dc/dcmitype/StillImage" />
			<dc:title></dc:title>
		</cc:Work>
	</rdf:RDF>
</metadata>
<g
	inkscape:label="Layer 1"
	inkscape:groupmode="layer"
	id="layer1">
	<path style="fill:none;stroke:red;stroke-width:1px;stroke-linecap:butt;stroke-linejoin:miter;stroke-opacity:1" d="M 4,768.155 4,803.208 z" id="boundary" inkscape:connector-curvature="0" />
	<path style="fill:none;stroke:red;stroke-width:1px;stroke-linecap:butt;stroke-linejoin:miter;stroke-opacity:1" d="M 4,768.155 11.0106,733.102 z" id="boundary" inkscape:connector-curvature="0" />
	<path style="fill:none;stroke:red;stroke-width:1px;stroke-linecap:butt;stroke-linejoin:miter;stroke-opacity:1" d="M 4,803.208 4,838.261 z" id="boundary" inkscape:connector-curvature="0" />
	<path style="fill:none;stroke:red;stroke-width:1px;stroke-linecap:butt;stroke-linejoin:miter;stroke-opacity:1" d="M 4,838.261 4,873.314 z" id="boundary" inkscape:connector-curvature="0" />
	<path style="fill:none;stroke:red;stroke-width:1px;stroke-linecap:butt;stroke-linejoin:miter;stroke-opacity:1" d="M 4,873.314 7.5053,908.367 z" id="boundary" inkscape:connector-curvature="0" />
	<path style="fill:none;stroke:red;stroke-width:1px;stroke-linecap:butt;stroke-linejoin:miter;stroke-opacity:1" d="M 7.5053,908.367 18.0212,943.42 z" id="boundary" inkscape:connector-curvature="0" />
	<path style="fill:none;stroke:red;stroke-width:1px;stroke-linecap:butt;stroke-linejoin:miter;stroke-opacity:1" d="M 11.0106,733.102 18.0212,698.049 z" id="boundary" inkscape:connector-curvature="0" />
	<path style="fill:none;stroke:red;stroke-width:1px;stroke-linecap:butt;stroke-linejoin:miter;stroke-opacity:1" d="M 18.0212,543.816 18.0212,578.869 z" id="boundary" inkscape:connector-curvature="0" />
	<path style="fill:none;stroke:red;stroke-width:1px;stroke-linecap:butt;stroke-linejoin:miter;stroke-opacity:1" d="M 18.0212,543.816 46.0636,494.742 z" id="boundary" inkscape:connector-curvature="0" />
	<path style="fill:none;stroke:red;stroke-width:1px;stroke-linecap:butt;stroke-linejoin:miter;stroke-opacity:1" d="M 18.0212,578.869 18.0212,613.922 z" id="boundary" inkscape:connector-curvature="0" />
	<path style="fill:none;stroke:red;stroke-width:1px;stroke-linecap:butt;stroke-linejoin:miter;stroke-opacity:1" d="M 18.0212,613.922 25.0318,648.975 z" id="boundary" inkscape:connector-curvature="0" />
	<path style="fill:none;stroke:red;stroke-width:1px;stroke-linecap:butt;stroke-linejoin:miter;stroke-opacity:1" d="M 18.0212,698.049 25.0318,648.975 z" id="boundary" inkscape:connector-curvature="0" />
	<path style="fill:none;stroke:red;stroke-width:1px;stroke-linecap:butt;stroke-linejoin:miter;stroke-opacity:1" d="M 18.0212,943.42 35.5477,974.968 z" id="boundary" inkscape:connector-curvature="0" />
	<path style="fill:none;stroke:red;stroke-width:1px;stroke-linecap:butt;stroke-linejoin:miter;stroke-opacity:1" d="M 35.5477,974.968 70.6007,988.989 z" id="boundary" inkscape:connector-curvature="0" />
	<path style="fill:none;stroke:red;stroke-width:1px;stroke-linecap:butt;stroke-linejoin:miter;stroke-opacity:1" d="M 46.0636,424.636 46.0636,459.689 z" id="boundary" inkscape:connector-curvature="0" />
	<path style="fill:none;stroke:red;stroke-width:1px;stroke-linecap:butt;stroke-linejoin:miter;stroke-opacity:1" d="M 46.0636,424.636 53.0742,375.562 z" id="boundary" inkscape:connector-curvature="0" />
	<path style="fill:none;stroke:red;stroke-width:1px;stroke-linecap:butt;stroke-linejoin:miter;stroke-opacity:1" d="M 46.0636,459.689 46.0636,494.742 z" id="boundary" inkscape:connector-curvature="0" />
	<path style="fill:none;stroke:red;stroke-width:1px;stroke-linecap:butt;stroke-linejoin:miter;stroke-opacity:1" d="M 53.0742,130.191 53.0742,165.244 z" id="boundary" inkscape:connector-curvature="0" />
	<path style="fill:none;stroke:red;stroke-width:1px;stroke-linecap:butt;stroke-linejoin:miter;stroke-opacity:1" d="M 53.0742,130.191 84.6219,147.717 z" id="boundary" inkscape:connector-curvature="0" />
	<path style="fill:none;stroke:red;stroke-width:1px;stroke-linecap:butt;stroke-linejoin:miter;stroke-opacity:1" d="M 53.0742,165.244 53.0742,200.297 z" id="boundary" inkscape:connector-curvature="0" />
	<path style="fill:none;stroke:red;stroke-width:1px;stroke-linecap:butt;stroke-linejoin:miter;stroke-opacity:1" d="M 53.0742,200.297 53.0742,235.35 z" id="boundary" inkscape:connector-curvature="0" />
	<path style="fill:none;stroke:red;stroke-width:1px;stroke-linecap:butt;stroke-linejoin:miter;stroke-opacity:1" d="M 53.0742,235.35 53.0742,270.403 z" id="boundary" inkscape:connector-curvature="0" />
	<path style="fill:none;stroke:red;stroke-width:1px;stroke-linecap:butt;stroke-linejoin:miter;stroke-opacity:1" d="M 53.0742,270.403 53.0742,305.456 z" id="boundary" inkscape:connector-curvature="0" />
	<path style="fill:none;stroke:red;stroke-width:1px;stroke-linecap:butt;stroke-linejoin:miter;stroke-opacity:1" d="M 53.0742,305.456 53.0742,340.509 z" id="boundary" inkscape:connector-curvature="0" />
	<path style="fill:none;stroke:red;stroke-width:1px;stroke-linecap:butt;stroke-linejoin:miter;stroke-opacity:1" d="M 53.0742,340.509 53.0742,375.562 z" id="boundary" inkscape:connector-curvature="0" />
	<path style="fill:none;stroke:red;stroke-width:1px;stroke-linecap:butt;stroke-linejoin:miter;stroke-opacity:1" d="M 67.0954,67.0954 74.106,32.0424 z" id="boundary" inkscape:connector-curvature="0" />
	<path style="fill:none;stroke:red;stroke-width:1px;stroke-linecap:butt;stroke-linejoin:miter;stroke-opacity:1" d="M 67.0954,67.0954 98.6431,88.1272 z" id="boundary" inkscape:connector-curvature="0" />
	<path style="fill:none;stroke:red;stroke-width:1px;stroke-linecap:butt;stroke-linejoin:miter;stroke-opacity:1" d="M 70.6007,988.989 105.654,996 z" id="boundary" inkscape:connector-curvature="0" />
	<path style="fill:none;stroke:red;stroke-width:1px;stroke-linecap:butt;stroke-linejoin:miter;stroke-opacity:1" d="M 74.106,32.0424 95.1378,4 z" id="boundary" inkscape:connector-curvature="0" />
	<path style="fill:none;stroke:red;stroke-width:1px;stroke-linecap:butt;stroke-linejoin:miter;stroke-opacity:1" d="M 84.6219,147.717 84.6219,182.77 z" id="boundary" inkscape:connector-curvature="0" />
	<path style="fill:none;stroke:red;stroke-width:1px;stroke-linecap:butt;stroke-linejoin:miter;stroke-opacity:1" d="M 84.6219,182.77 84.6219,217.823 z" id="boundary" inkscape:connector-curvature="0" />
	<path style="fill:none;stroke:red;stroke-width:1px;stroke-linecap:butt;stroke-linejoin:miter;stroke-opacity:1" d="M 84.6219,217.823 84.6219,252.876 z" id="boundary" inkscape:connector-curvature="0" />
	<path style="fill:none;stroke:red;stroke-width:1px;stroke-linecap:butt;stroke-linejoin:miter;stroke-opacity:1" d="M 84.6219,252.876 84.6219,287.929 z" id="boundary" inkscape:connector-curvature="0" />
	<path style="fill:none;stroke:red;stroke-width:1px;stroke-linecap:butt;stroke-linejoin:miter;stroke-opacity:1" d="M 84.6219,287.929 84.6219,322.982 z" id="boundary" inkscape:connector-curvature="0" />
	<path style="fill:none;stroke:red;stroke-width:1px;stroke-linecap:butt;stroke-linejoin:miter;stroke-opacity:1" d="M 84.6219,322.982 84.6219,358.035 z" id="boundary" inkscape:connector-curvature="0" />
	<path style="fill:none;stroke:red;stroke-width:1px;stroke-linecap:butt;stroke-linejoin:miter;stroke-opacity:1" d="M 84.6219,358.035 84.6219,393.088 z" id="boundary" inkscape:connector-curvature="0" />
	<path style="fill:none;stroke:red;stroke-width:1px;stroke-linecap:butt;stroke-linejoin:miter;stroke-opacity:1" d="M 84.6219,393.088 91.6325,428.141 z" id="boundary" inkscape:connector-curvature="0" />
	<path style="fill:none;stroke:red;stroke-width:1px;stroke-linecap:butt;stroke-linejoin:miter;stroke-opacity:1" d="M 91.6325,428.141 91.6325,463.194 z" id="boundary" inkscape:connector-curvature="0" />
	<path style="fill:none;stroke:red;stroke-width:1px;stroke-linecap:butt;stroke-linejoin:miter;stroke-opacity:1" d="M 91.6325,463.194 123.18,480.721 z" id="boundary" inkscape:connector-curvature="0" />
	<path style="fill:none;stroke:red;stroke-width:1px;stroke-linecap:butt;stroke-linejoin:miter;stroke-opacity:1" d="M 95.1378,4 112.664,46.0636 z" id="boundary" inkscape:connector-curvature="0" />
	<path style="fill:none;stroke:red;stroke-width:1px;stroke-linecap:butt;stroke-linejoin:miter;stroke-opacity:1" d="M 98.6431,88.1272 112.664,46.0636 z" id="boundary" inkscape:connector-curvature="0" />
	<path style="fill:none;stroke:red;stroke-width:1px;stroke-linecap:butt;stroke-linejoin:miter;stroke-opacity:1" d="M 105.654,996 140.707,988.989 z" id="boundary" inkscape:connector-curvature="0" />
	<path style="fill:none;stroke:red;stroke-width:1px;stroke-linecap:butt;stroke-linejoin:miter;stroke-opacity:1" d="M 123.18,480.721 158.233,487.731 z" id="boundary" inkscape:connector-curvature="0" />
	<path style="fill:none;stroke:red;stroke-width:1px;stroke-linecap:butt;stroke-linejoin:miter;stroke-opacity:1" d="M 140.707,988.989 175.76,985.484 z" id="boundary" inkscape:connector-curvature="0" />
	<path style="fill:none;stroke:red;stroke-width:1px;stroke-linecap:butt;stroke-linejoin:miter;stroke-opacity:1" d="M 158.233,487.731 186.276,508.763 z" id="boundary" inkscape:connector-curvature="0" />
	<path style="fill:none;stroke:red;stroke-width:1px;stroke-linecap:butt;stroke-linejoin:miter;stroke-opacity:1" d="M 175.76,985.484 203.802,950.431 z" id="boundary" inkscape:connector-curvature="0" />
	<path style="fill:none;stroke:red;stroke-width:1px;stroke-linecap:butt;stroke-linejoin:miter;stroke-opacity:1" d="M 186.276,508.763 203.802,540.311 z" id="boundary" inkscape:connector-curvature="0" />
	<path style="fill:none;stroke:red;stroke-width:1px;stroke-linecap:butt;stroke-linejoin:miter;stroke-opacity:1" d="M 203.802,540.311 210.813,575.364 z" id="boundary" inkscape:connector-curvature="0" />
	<path style="fill:none;stroke:red;stroke-width:1px;stroke-linecap:butt;stroke-linejoin:miter;stroke-opacity:1" d="M 203.802,613.922 203.802,648.975 z" id="boundary" inkscape:connector-curvature="0" />
	<path style="fill:none;stroke:red;stroke-width:1px;stroke-linecap:butt;stroke-linejoin:miter;stroke-opacity:1" d="M 203.802,613.922 210.813,575.364 z" id="boundary" inkscape:connector-curvature="0" />
	<path style="fill:none;stroke:red;stroke-width:1px;stroke-linecap:butt;stroke-linejoin:miter;stroke-opacity:1" d="M 203.802,648.975 203.802,684.028 z" id="boundary" inkscape:connector-curvature="0" />
	<path style="fill:none;stroke:red;stroke-width:1px;stroke-linecap:butt;stroke-linejoin:miter;stroke-opacity:1" d="M 203.802,684.028 207.307,719.081 z" id="boundary" inkscape:connector-curvature="0" />
	<path style="fill:none;stroke:red;stroke-width:1px;stroke-linecap:butt;stroke-linejoin:miter;stroke-opacity:1" d="M 203.802,950.431 217.823,901.357 z" id="boundary" inkscape:connector-curvature="0" />
	<path style="fill:none;stroke:red;stroke-width:1px;stroke-linecap:butt;stroke-linejoin:miter;stroke-opacity:1" d="M 207.307,719.081 217.823,754.134 z" id="boundary" inkscape:connector-curvature="0" />
	<path style="fill:none;stroke:red;stroke-width:1px;stroke-linecap:butt;stroke-linejoin:miter;stroke-opacity:1" d="M 217.823,754.134 224.834,789.187 z" id="boundary" inkscape:connector-curvature="0" />
	<path style="fill:none;stroke:red;stroke-width:1px;stroke-linecap:butt;stroke-linejoin:miter;stroke-opacity:1" d="M 217.823,901.357 224.834,859.293 z" id="boundary" inkscape:connector-curvature="0" />
	<path style="fill:none;stroke:red;stroke-width:1px;stroke-linecap:butt;stroke-linejoin:miter;stroke-opacity:1" d="M 224.834,789.187 224.834,824.24 z" id="boundary" inkscape:connector-curvature="0" />
	<path style="fill:none;stroke:red;stroke-width:1px;stroke-linecap:butt;stroke-linejoin:miter;stroke-opacity:1" d="M 224.834,824.24 224.834,859.293 z" id="boundary" inkscape:connector-curvature="0" />
	<circle cx="4" cy="768.155" r="4" fill="#0" id="circle0"/>
	<circle cx="4" cy="803.208" r="4" fill="#0" id="circle1"/>
	<circle cx="4" cy="838.261" r="4" fill="#0" id="circle2"/>
	<circle cx="4" cy="873.314" r="4" fill="#0" id="circle3"/>
	<circle cx="7.5053" cy="908.367" r="4" fill="#0" id="circle4"/>
	<circle cx="11.0106" cy="733.102" r="4" fill="#0" id="circle5"/>
	<circle cx="18.0212" cy="543.816" r="4" fill="#0" id="circle6"/>
	<circle cx="18.0212" cy="578.869" r="4" fill="#0" id="circle7"/>
	<circle cx="18.0212" cy="613.922" r="4" fill="#0" id="circle8"/>
	<circle cx="18.0212" cy="698.049" r="4" fill="#0" id="circle9"/>
	<circle cx="18.0212" cy="943.42" r="4" fill="#0" id="circle10"/>
	<circle cx="25.0318" cy="648.975" r="4" fill="#0" id="circle11"/>
	<circle cx="35.5477" cy="974.968" r="4" fill="#0" id="circle12"/>
	<circle cx="46.0636" cy="424.636" r="4" fill="#0" id="circle13"/>
	<circle cx="46.0636" cy="459.689" r="4" fill="#0" id="circle14"/>
	<circle cx="46.0636" cy="494.742" r="4" fill="#0" id="circle15"/>
	<circle cx="53.0742" cy="130.191" r="4" fill="#0" id="circle16"/>
	<circle cx="53.0742" cy="165.244" r="4" fill="#0" id="circle17"/>
	<circle cx="53.0742" cy="200.297" r="4" fill="#0" id="circle18"/>
	<circle cx="53.0742" cy="235.35" r="4" fill="#0" id="circle19"/>
	<circle cx="53.0742" cy="270.403" r="4" fill="#0" id="circle20"/>
	<circle cx="53.0742" cy="305.456" r="4" fill="#0" id="circle21"/>
	<circle cx="53.0742" cy="340.509" r="4" fill="#0" id="circle22"/>
	<circle cx="53.0742" cy="375.562" r="4" fill="#0" id="circle23"/>
	<circle cx="67.0954" cy="67.0954" r="4" fill="#0" id="circle24"/>
	<circle cx="70.6007" cy="988.989" r="4" fill="#0" id="circle25"/>
	<circle cx="74.106" cy="32.0424" r="4" fill="#0" id="circle26"/>
	<circle cx="84.6219" cy="147.717" r="4" fill="#0" id="circle27"/>
	<circle cx="84.6219" cy="182.77" r="4" fill="#0" id="circle28"/>
	<circle cx="84.6219" cy="217.823" r="4" fill="#0" id="circle29"/>
	<circle cx="84.6219" cy="252.876" r="4" fill="#0" id="circle30"/>
	<circle cx="84.6219" cy="287.929" r="4" fill="#0" id="circle31"/>
	<circle cx="84.6219" cy="322.982" r="4" fill="#0" id="circle32"/>
	<circle cx="84.6219" cy="358.035" r="4" fill="#0" id="circle33"/>
	<circle cx="84.6219" cy="393.088" r="4" fill="#0" id="circle34"/>
	<circle cx="91.6325" cy="428.141" r="4" fill="#0" id="circle35"/>
	<circle cx="91.6325" cy="463.194" r="4" fill="#0" id="circle36"/>
	<circle cx="95.1378" cy="4" r="4" fill="#0" id="circle37"/>
	<circle cx="98.6431" cy="88.1272" r="4" fill="#0" id="circle38"/>
	<circle cx="105.654" cy="996" r="4" fill="#0" id="circle39"/>
	<circle cx="112.664" cy="46.0636" r="4" fill="#0" id="circle40"/>
	<circle cx="123.18" cy="480.721" r="4" fill="#0" id="circle41"/>
	<circle cx="140.707" cy="988.989" r="4" fill="#0" id="circle42"/>
	<circle cx="158.233" cy="487.731" r="4" fill="#0" id="circle43"/>
	<circle cx="175.76" cy="985.484" r="4" fill="#0" id="circle44"/>
	<circle cx="186.276" cy="508.763" r="4" fill="#0" id="circle45"/>
	<circle cx="203.802" cy="540.311" r="4" fill="#0" id="circle46"/>
	<circle cx="203.802" cy="613.922" r="4" fill="#0" id="circle47"/>
	<circle cx="203.802" cy="648.975" r="4" fill="#0" id="circle48"/>
	<circle cx="203.802" cy="684.028" r="4" fill="#0" id="circle49"/>
	<circle cx="203.802" cy="950.431" r="4" fill="#0" id="circle50"/>
	<circle cx="207.307" cy="719.081" r="4" fill="#0" id="circle51"/>
	<circle cx="210.813" cy="575.364" r="4" fill="#0" id="circle52"/>
	<circle cx="217.823" cy="754.134" r="4" fill="#0" id="circle53"/>
	<circle cx="217.823" cy="901.357" r="4" fill="#0" id="circle54"/>
	<circle cx="224.834" cy="789.187" r="4" fill="#0" id="circle55"/>
	<circle cx="224.834" cy="824.24" r="4" fill="#0" id="circle56"/>
	<circle cx="224.834" cy="859.293" r="4" fill="#0" id="circle57"/>
	</g>
</svg>