<?xml version="1.0" encoding="UTF-8" standalone="no"?>
<!-- Created with CurveBenchmark -->
<svg
	xmlns:dc="http://purl.org/dc/elements/1.1/"
	xmlns:cc="http://creativecommons.org/ns#"
	xmlns:rdf="http://www.w3.org/1999/02/22-rdf-syntax-ns#"
	xmlns:svg="http://www.w3.org/2000/svg"
	xmlns="http://www.w3.org/2000/svg"
	xmlns:sodipodi="http://sodipodi.sourceforge.net/DTD/sodipodi-0.dtd"
	xmlns:inkscape="http://www.inkscape.org/namespaces/inkscape"
	width="1000"
	height="1000"
	id="svg2"
	version="1.1"
	sodipodi:docname="manifold/discur-ray0746.png.txt">
<defs
	id="defs4" />
<metadata
	id="metadata7">
	<rdf:RDF>
		<cc:Work
			rdf:about="">
			<dc:format>image/svg+xml</dc:format>
			<dc:type
				rdf:resource="http://purl.org/dc/dcmitype/StillImage" />
			<dc:title></dc:title>
		</cc:Work>
	</rdf:RDF>
</metadata>
<g
	inkscape:label="Layer 1"
	inkscape:groupmode="layer"
	id="layer1">
	<path style="fill:none;stroke:red;stroke-width:1px;stroke-linecap:butt;stroke-linejoin:miter;stroke-opacity:1" d="M 4,303.286 4,317.337 z" id="boundary" inkscape:connector-curvature="0" />
	<path style="fill:none;stroke:red;stroke-width:1px;stroke-linecap:butt;stroke-linejoin:miter;stroke-opacity:1" d="M 4,303.286 15.2408,292.045 z" id="boundary" inkscape:connector-curvature="0" />
	<path style="fill:none;stroke:red;stroke-width:1px;stroke-linecap:butt;stroke-linejoin:miter;stroke-opacity:1" d="M 4,317.337 18.051,321.552 z" id="boundary" inkscape:connector-curvature="0" />
	<path style="fill:none;stroke:red;stroke-width:1px;stroke-linecap:butt;stroke-linejoin:miter;stroke-opacity:1" d="M 15.2408,292.045 25.0765,268.159 z" id="boundary" inkscape:connector-curvature="0" />
	<path style="fill:none;stroke:red;stroke-width:1px;stroke-linecap:butt;stroke-linejoin:miter;stroke-opacity:1" d="M 18.051,321.552 30.6969,328.578 z" id="boundary" inkscape:connector-curvature="0" />
	<path style="fill:none;stroke:red;stroke-width:1px;stroke-linecap:butt;stroke-linejoin:miter;stroke-opacity:1" d="M 25.0765,268.159 39.1275,254.108 z" id="boundary" inkscape:connector-curvature="0" />
	<path style="fill:none;stroke:red;stroke-width:1px;stroke-linecap:butt;stroke-linejoin:miter;stroke-opacity:1" d="M 30.6969,328.578 44.7479,328.578 z" id="boundary" inkscape:connector-curvature="0" />
	<path style="fill:none;stroke:red;stroke-width:1px;stroke-linecap:butt;stroke-linejoin:miter;stroke-opacity:1" d="M 39.1275,254.108 50.3683,242.867 z" id="boundary" inkscape:connector-curvature="0" />
	<path style="fill:none;stroke:red;stroke-width:1px;stroke-linecap:butt;stroke-linejoin:miter;stroke-opacity:1" d="M 44.7479,328.578 57.3938,335.603 z" id="boundary" inkscape:connector-curvature="0" />
	<path style="fill:none;stroke:red;stroke-width:1px;stroke-linecap:butt;stroke-linejoin:miter;stroke-opacity:1" d="M 50.3683,242.867 61.6091,231.626 z" id="boundary" inkscape:connector-curvature="0" />
	<path style="fill:none;stroke:red;stroke-width:1px;stroke-linecap:butt;stroke-linejoin:miter;stroke-opacity:1" d="M 57.3938,335.603 71.4448,335.603 z" id="boundary" inkscape:connector-curvature="0" />
	<path style="fill:none;stroke:red;stroke-width:1px;stroke-linecap:butt;stroke-linejoin:miter;stroke-opacity:1" d="M 61.6091,231.626 75.6601,224.601 z" id="boundary" inkscape:connector-curvature="0" />
	<path style="fill:none;stroke:red;stroke-width:1px;stroke-linecap:butt;stroke-linejoin:miter;stroke-opacity:1" d="M 71.4448,335.603 85.4958,341.224 z" id="boundary" inkscape:connector-curvature="0" />
	<path style="fill:none;stroke:red;stroke-width:1px;stroke-linecap:butt;stroke-linejoin:miter;stroke-opacity:1" d="M 75.6601,224.601 82.6856,210.55 z" id="boundary" inkscape:connector-curvature="0" />
	<path style="fill:none;stroke:red;stroke-width:1px;stroke-linecap:butt;stroke-linejoin:miter;stroke-opacity:1" d="M 82.6856,210.55 93.9263,200.714 z" id="boundary" inkscape:connector-curvature="0" />
	<path style="fill:none;stroke:red;stroke-width:1px;stroke-linecap:butt;stroke-linejoin:miter;stroke-opacity:1" d="M 85.4958,341.224 99.5467,342.629 z" id="boundary" inkscape:connector-curvature="0" />
	<path style="fill:none;stroke:red;stroke-width:1px;stroke-linecap:butt;stroke-linejoin:miter;stroke-opacity:1" d="M 93.9263,200.714 107.977,200.714 z" id="boundary" inkscape:connector-curvature="0" />
	<path style="fill:none;stroke:red;stroke-width:1px;stroke-linecap:butt;stroke-linejoin:miter;stroke-opacity:1" d="M 99.5467,342.629 113.598,348.249 z" id="boundary" inkscape:connector-curvature="0" />
	<path style="fill:none;stroke:red;stroke-width:1px;stroke-linecap:butt;stroke-linejoin:miter;stroke-opacity:1" d="M 107.977,200.714 117.813,189.473 z" id="boundary" inkscape:connector-curvature="0" />
	<path style="fill:none;stroke:red;stroke-width:1px;stroke-linecap:butt;stroke-linejoin:miter;stroke-opacity:1" d="M 113.598,348.249 127.649,349.654 z" id="boundary" inkscape:connector-curvature="0" />
	<path style="fill:none;stroke:red;stroke-width:1px;stroke-linecap:butt;stroke-linejoin:miter;stroke-opacity:1" d="M 117.813,189.473 131.864,182.448 z" id="boundary" inkscape:connector-curvature="0" />
	<path style="fill:none;stroke:red;stroke-width:1px;stroke-linecap:butt;stroke-linejoin:miter;stroke-opacity:1" d="M 127.649,349.654 141.7,355.275 z" id="boundary" inkscape:connector-curvature="0" />
	<path style="fill:none;stroke:red;stroke-width:1px;stroke-linecap:butt;stroke-linejoin:miter;stroke-opacity:1" d="M 131.864,182.448 143.105,172.612 z" id="boundary" inkscape:connector-curvature="0" />
	<path style="fill:none;stroke:red;stroke-width:1px;stroke-linecap:butt;stroke-linejoin:miter;stroke-opacity:1" d="M 141.7,355.275 155.751,356.68 z" id="boundary" inkscape:connector-curvature="0" />
	<path style="fill:none;stroke:red;stroke-width:1px;stroke-linecap:butt;stroke-linejoin:miter;stroke-opacity:1" d="M 143.105,172.612 157.156,172.612 z" id="boundary" inkscape:connector-curvature="0" />
	<path style="fill:none;stroke:red;stroke-width:1px;stroke-linecap:butt;stroke-linejoin:miter;stroke-opacity:1" d="M 155.751,356.68 168.397,363.705 z" id="boundary" inkscape:connector-curvature="0" />
	<path style="fill:none;stroke:red;stroke-width:1px;stroke-linecap:butt;stroke-linejoin:miter;stroke-opacity:1" d="M 157.156,172.612 166.992,161.371 z" id="boundary" inkscape:connector-curvature="0" />
	<path style="fill:none;stroke:red;stroke-width:1px;stroke-linecap:butt;stroke-linejoin:miter;stroke-opacity:1" d="M 166.992,161.371 178.232,151.535 z" id="boundary" inkscape:connector-curvature="0" />
	<path style="fill:none;stroke:red;stroke-width:1px;stroke-linecap:butt;stroke-linejoin:miter;stroke-opacity:1" d="M 168.397,363.705 181.042,370.731 z" id="boundary" inkscape:connector-curvature="0" />
	<path style="fill:none;stroke:red;stroke-width:1px;stroke-linecap:butt;stroke-linejoin:miter;stroke-opacity:1" d="M 178.232,151.535 190.878,144.51 z" id="boundary" inkscape:connector-curvature="0" />
	<path style="fill:none;stroke:red;stroke-width:1px;stroke-linecap:butt;stroke-linejoin:miter;stroke-opacity:1" d="M 181.042,370.731 195.093,373.541 z" id="boundary" inkscape:connector-curvature="0" />
	<path style="fill:none;stroke:red;stroke-width:1px;stroke-linecap:butt;stroke-linejoin:miter;stroke-opacity:1" d="M 190.878,144.51 204.929,144.51 z" id="boundary" inkscape:connector-curvature="0" />
	<path style="fill:none;stroke:red;stroke-width:1px;stroke-linecap:butt;stroke-linejoin:miter;stroke-opacity:1" d="M 195.093,373.541 209.144,377.756 z" id="boundary" inkscape:connector-curvature="0" />
	<path style="fill:none;stroke:red;stroke-width:1px;stroke-linecap:butt;stroke-linejoin:miter;stroke-opacity:1" d="M 204.929,144.51 218.98,137.484 z" id="boundary" inkscape:connector-curvature="0" />
	<path style="fill:none;stroke:red;stroke-width:1px;stroke-linecap:butt;stroke-linejoin:miter;stroke-opacity:1" d="M 209.144,377.756 223.195,380.567 z" id="boundary" inkscape:connector-curvature="0" />
	<path style="fill:none;stroke:red;stroke-width:1px;stroke-linecap:butt;stroke-linejoin:miter;stroke-opacity:1" d="M 218.98,137.484 233.031,130.459 z" id="boundary" inkscape:connector-curvature="0" />
	<path style="fill:none;stroke:red;stroke-width:1px;stroke-linecap:butt;stroke-linejoin:miter;stroke-opacity:1" d="M 223.195,380.567 233.031,391.807 z" id="boundary" inkscape:connector-curvature="0" />
	<path style="fill:none;stroke:red;stroke-width:1px;stroke-linecap:butt;stroke-linejoin:miter;stroke-opacity:1" d="M 233.031,130.459 245.677,123.433 z" id="boundary" inkscape:connector-curvature="0" />
	<path style="fill:none;stroke:red;stroke-width:1px;stroke-linecap:butt;stroke-linejoin:miter;stroke-opacity:1" d="M 233.031,391.807 245.677,398.833 z" id="boundary" inkscape:connector-curvature="0" />
	<path style="fill:none;stroke:red;stroke-width:1px;stroke-linecap:butt;stroke-linejoin:miter;stroke-opacity:1" d="M 245.677,123.433 258.323,116.408 z" id="boundary" inkscape:connector-curvature="0" />
	<path style="fill:none;stroke:red;stroke-width:1px;stroke-linecap:butt;stroke-linejoin:miter;stroke-opacity:1" d="M 245.677,398.833 256.918,407.263 z" id="boundary" inkscape:connector-curvature="0" />
	<path style="fill:none;stroke:red;stroke-width:1px;stroke-linecap:butt;stroke-linejoin:miter;stroke-opacity:1" d="M 256.918,407.263 270.969,412.884 z" id="boundary" inkscape:connector-curvature="0" />
	<path style="fill:none;stroke:red;stroke-width:1px;stroke-linecap:butt;stroke-linejoin:miter;stroke-opacity:1" d="M 258.323,116.408 272.374,116.408 z" id="boundary" inkscape:connector-curvature="0" />
	<path style="fill:none;stroke:red;stroke-width:1px;stroke-linecap:butt;stroke-linejoin:miter;stroke-opacity:1" d="M 270.969,412.884 279.399,424.125 z" id="boundary" inkscape:connector-curvature="0" />
	<path style="fill:none;stroke:red;stroke-width:1px;stroke-linecap:butt;stroke-linejoin:miter;stroke-opacity:1" d="M 272.374,116.408 285.02,106.572 z" id="boundary" inkscape:connector-curvature="0" />
	<path style="fill:none;stroke:red;stroke-width:1px;stroke-linecap:butt;stroke-linejoin:miter;stroke-opacity:1" d="M 279.399,424.125 290.64,433.96 z" id="boundary" inkscape:connector-curvature="0" />
	<path style="fill:none;stroke:red;stroke-width:1px;stroke-linecap:butt;stroke-linejoin:miter;stroke-opacity:1" d="M 285.02,106.572 299.071,99.5467 z" id="boundary" inkscape:connector-curvature="0" />
	<path style="fill:none;stroke:red;stroke-width:1px;stroke-linecap:butt;stroke-linejoin:miter;stroke-opacity:1" d="M 290.64,433.96 304.691,433.96 z" id="boundary" inkscape:connector-curvature="0" />
	<path style="fill:none;stroke:red;stroke-width:1px;stroke-linecap:butt;stroke-linejoin:miter;stroke-opacity:1" d="M 299.071,99.5467 313.122,92.5212 z" id="boundary" inkscape:connector-curvature="0" />
	<path style="fill:none;stroke:red;stroke-width:1px;stroke-linecap:butt;stroke-linejoin:miter;stroke-opacity:1" d="M 304.691,433.96 314.527,445.201 z" id="boundary" inkscape:connector-curvature="0" />
	<path style="fill:none;stroke:red;stroke-width:1px;stroke-linecap:butt;stroke-linejoin:miter;stroke-opacity:1" d="M 313.122,92.5212 327.173,88.3059 z" id="boundary" inkscape:connector-curvature="0" />
	<path style="fill:none;stroke:red;stroke-width:1px;stroke-linecap:butt;stroke-linejoin:miter;stroke-opacity:1" d="M 314.527,445.201 325.768,455.037 z" id="boundary" inkscape:connector-curvature="0" />
	<path style="fill:none;stroke:red;stroke-width:1px;stroke-linecap:butt;stroke-linejoin:miter;stroke-opacity:1" d="M 325.768,455.037 335.603,466.278 z" id="boundary" inkscape:connector-curvature="0" />
	<path style="fill:none;stroke:red;stroke-width:1px;stroke-linecap:butt;stroke-linejoin:miter;stroke-opacity:1" d="M 327.173,88.3059 339.819,81.2805 z" id="boundary" inkscape:connector-curvature="0" />
	<path style="fill:none;stroke:red;stroke-width:1px;stroke-linecap:butt;stroke-linejoin:miter;stroke-opacity:1" d="M 335.603,466.278 346.844,476.113 z" id="boundary" inkscape:connector-curvature="0" />
	<path style="fill:none;stroke:red;stroke-width:1px;stroke-linecap:butt;stroke-linejoin:miter;stroke-opacity:1" d="M 339.819,81.2805 349.654,70.0397 z" id="boundary" inkscape:connector-curvature="0" />
	<path style="fill:none;stroke:red;stroke-width:1px;stroke-linecap:butt;stroke-linejoin:miter;stroke-opacity:1" d="M 341.224,984.759 348.249,970.708 z" id="boundary" inkscape:connector-curvature="0" />
	<path style="fill:none;stroke:red;stroke-width:1px;stroke-linecap:butt;stroke-linejoin:miter;stroke-opacity:1" d="M 341.224,984.759 349.654,996 z" id="boundary" inkscape:connector-curvature="0" />
	<path style="fill:none;stroke:red;stroke-width:1px;stroke-linecap:butt;stroke-linejoin:miter;stroke-opacity:1" d="M 346.844,476.113 356.68,487.354 z" id="boundary" inkscape:connector-curvature="0" />
	<path style="fill:none;stroke:red;stroke-width:1px;stroke-linecap:butt;stroke-linejoin:miter;stroke-opacity:1" d="M 348.249,970.708 355.275,956.657 z" id="boundary" inkscape:connector-curvature="0" />
	<path style="fill:none;stroke:red;stroke-width:1px;stroke-linecap:butt;stroke-linejoin:miter;stroke-opacity:1" d="M 349.654,70.0397 360.895,60.204 z" id="boundary" inkscape:connector-curvature="0" />
	<path style="fill:none;stroke:red;stroke-width:1px;stroke-linecap:butt;stroke-linejoin:miter;stroke-opacity:1" d="M 349.654,996 360.895,986.164 z" id="boundary" inkscape:connector-curvature="0" />
	<path style="fill:none;stroke:red;stroke-width:1px;stroke-linecap:butt;stroke-linejoin:miter;stroke-opacity:1" d="M 355.275,956.657 367.921,972.113 z" id="boundary" inkscape:connector-curvature="0" />
	<path style="fill:none;stroke:red;stroke-width:1px;stroke-linecap:butt;stroke-linejoin:miter;stroke-opacity:1" d="M 356.68,487.354 367.921,497.19 z" id="boundary" inkscape:connector-curvature="0" />
	<path style="fill:none;stroke:red;stroke-width:1px;stroke-linecap:butt;stroke-linejoin:miter;stroke-opacity:1" d="M 360.895,60.204 369.326,43.3428 z" id="boundary" inkscape:connector-curvature="0" />
	<path style="fill:none;stroke:red;stroke-width:1px;stroke-linecap:butt;stroke-linejoin:miter;stroke-opacity:1" d="M 360.895,986.164 367.921,972.113 z" id="boundary" inkscape:connector-curvature="0" />
	<path style="fill:none;stroke:red;stroke-width:1px;stroke-linecap:butt;stroke-linejoin:miter;stroke-opacity:1" d="M 366.516,945.416 374.946,958.062 z" id="boundary" inkscape:connector-curvature="0" />
	<path style="fill:none;stroke:red;stroke-width:1px;stroke-linecap:butt;stroke-linejoin:miter;stroke-opacity:1" d="M 366.516,945.416 377.756,934.176 z" id="boundary" inkscape:connector-curvature="0" />
	<path style="fill:none;stroke:red;stroke-width:1px;stroke-linecap:butt;stroke-linejoin:miter;stroke-opacity:1" d="M 367.921,497.19 380.567,504.215 z" id="boundary" inkscape:connector-curvature="0" />
	<path style="fill:none;stroke:red;stroke-width:1px;stroke-linecap:butt;stroke-linejoin:miter;stroke-opacity:1" d="M 369.326,43.3428 380.567,32.102 z" id="boundary" inkscape:connector-curvature="0" />
	<path style="fill:none;stroke:red;stroke-width:1px;stroke-linecap:butt;stroke-linejoin:miter;stroke-opacity:1" d="M 374.946,958.062 384.782,946.822 z" id="boundary" inkscape:connector-curvature="0" />
	<path style="fill:none;stroke:red;stroke-width:1px;stroke-linecap:butt;stroke-linejoin:miter;stroke-opacity:1" d="M 380.567,32.102 394.618,25.0765 z" id="boundary" inkscape:connector-curvature="0" />
	<path style="fill:none;stroke:red;stroke-width:1px;stroke-linecap:butt;stroke-linejoin:miter;stroke-opacity:1" d="M 380.567,504.215 387.592,516.861 z" id="boundary" inkscape:connector-curvature="0" />
	<path style="fill:none;stroke:red;stroke-width:1px;stroke-linecap:butt;stroke-linejoin:miter;stroke-opacity:1" d="M 384.782,946.822 396.023,936.986 z" id="boundary" inkscape:connector-curvature="0" />
	<path style="fill:none;stroke:red;stroke-width:1px;stroke-linecap:butt;stroke-linejoin:miter;stroke-opacity:1" d="M 387.592,516.861 400.238,523.887 z" id="boundary" inkscape:connector-curvature="0" />
	<path style="fill:none;stroke:red;stroke-width:1px;stroke-linecap:butt;stroke-linejoin:miter;stroke-opacity:1" d="M 388.997,924.34 396.023,936.986 z" id="boundary" inkscape:connector-curvature="0" />
	<path style="fill:none;stroke:red;stroke-width:1px;stroke-linecap:butt;stroke-linejoin:miter;stroke-opacity:1" d="M 388.997,924.34 398.833,913.099 z" id="boundary" inkscape:connector-curvature="0" />
	<path style="fill:none;stroke:red;stroke-width:1px;stroke-linecap:butt;stroke-linejoin:miter;stroke-opacity:1" d="M 394.618,25.0765 401.643,11.0255 z" id="boundary" inkscape:connector-curvature="0" />
	<path style="fill:none;stroke:red;stroke-width:1px;stroke-linecap:butt;stroke-linejoin:miter;stroke-opacity:1" d="M 398.833,913.099 410.074,903.263 z" id="boundary" inkscape:connector-curvature="0" />
	<path style="fill:none;stroke:red;stroke-width:1px;stroke-linecap:butt;stroke-linejoin:miter;stroke-opacity:1" d="M 400.238,523.887 414.289,525.292 z" id="boundary" inkscape:connector-curvature="0" />
	<path style="fill:none;stroke:red;stroke-width:1px;stroke-linecap:butt;stroke-linejoin:miter;stroke-opacity:1" d="M 401.643,11.0255 414.289,4 z" id="boundary" inkscape:connector-curvature="0" />
	<path style="fill:none;stroke:red;stroke-width:1px;stroke-linecap:butt;stroke-linejoin:miter;stroke-opacity:1" d="M 410.074,903.263 422.72,896.238 z" id="boundary" inkscape:connector-curvature="0" />
	<path style="fill:none;stroke:red;stroke-width:1px;stroke-linecap:butt;stroke-linejoin:miter;stroke-opacity:1" d="M 410.074,929.96 419.909,918.72 z" id="boundary" inkscape:connector-curvature="0" />
	<path style="fill:none;stroke:red;stroke-width:1px;stroke-linecap:butt;stroke-linejoin:miter;stroke-opacity:1" d="M 414.289,4 428.34,4 z" id="boundary" inkscape:connector-curvature="0" />
	<path style="fill:none;stroke:red;stroke-width:1px;stroke-linecap:butt;stroke-linejoin:miter;stroke-opacity:1" d="M 414.289,525.292 425.53,533.722 z" id="boundary" inkscape:connector-curvature="0" />
	<path style="fill:none;stroke:red;stroke-width:1px;stroke-linecap:butt;stroke-linejoin:miter;stroke-opacity:1" d="M 419.909,918.72 431.15,908.884 z" id="boundary" inkscape:connector-curvature="0" />
	<path style="fill:none;stroke:red;stroke-width:1px;stroke-linecap:butt;stroke-linejoin:miter;stroke-opacity:1" d="M 422.72,896.238 431.15,908.884 z" id="boundary" inkscape:connector-curvature="0" />
	<path style="fill:none;stroke:red;stroke-width:1px;stroke-linecap:butt;stroke-linejoin:miter;stroke-opacity:1" d="M 425.53,533.722 432.555,546.368 z" id="boundary" inkscape:connector-curvature="0" />
	<path style="fill:none;stroke:red;stroke-width:1px;stroke-linecap:butt;stroke-linejoin:miter;stroke-opacity:1" d="M 428.34,4 442.391,4 z" id="boundary" inkscape:connector-curvature="0" />
	<path style="fill:none;stroke:red;stroke-width:1px;stroke-linecap:butt;stroke-linejoin:miter;stroke-opacity:1" d="M 432.555,546.368 440.986,557.609 z" id="boundary" inkscape:connector-curvature="0" />
	<path style="fill:none;stroke:red;stroke-width:1px;stroke-linecap:butt;stroke-linejoin:miter;stroke-opacity:1" d="M 433.96,884.997 440.986,897.643 z" id="boundary" inkscape:connector-curvature="0" />
	<path style="fill:none;stroke:red;stroke-width:1px;stroke-linecap:butt;stroke-linejoin:miter;stroke-opacity:1" d="M 433.96,884.997 448.011,877.972 z" id="boundary" inkscape:connector-curvature="0" />
	<path style="fill:none;stroke:red;stroke-width:1px;stroke-linecap:butt;stroke-linejoin:miter;stroke-opacity:1" d="M 440.986,557.609 448.011,570.255 z" id="boundary" inkscape:connector-curvature="0" />
	<path style="fill:none;stroke:red;stroke-width:1px;stroke-linecap:butt;stroke-linejoin:miter;stroke-opacity:1" d="M 440.986,897.643 455.037,897.643 z" id="boundary" inkscape:connector-curvature="0" />
	<path style="fill:none;stroke:red;stroke-width:1px;stroke-linecap:butt;stroke-linejoin:miter;stroke-opacity:1" d="M 442.391,4 456.442,4 z" id="boundary" inkscape:connector-curvature="0" />
	<path style="fill:none;stroke:red;stroke-width:1px;stroke-linecap:butt;stroke-linejoin:miter;stroke-opacity:1" d="M 448.011,570.255 457.847,581.496 z" id="boundary" inkscape:connector-curvature="0" />
	<path style="fill:none;stroke:red;stroke-width:1px;stroke-linecap:butt;stroke-linejoin:miter;stroke-opacity:1" d="M 448.011,877.972 459.252,868.136 z" id="boundary" inkscape:connector-curvature="0" />
	<path style="fill:none;stroke:red;stroke-width:1px;stroke-linecap:butt;stroke-linejoin:miter;stroke-opacity:1" d="M 455.037,897.643 467.683,890.618 z" id="boundary" inkscape:connector-curvature="0" />
	<path style="fill:none;stroke:red;stroke-width:1px;stroke-linecap:butt;stroke-linejoin:miter;stroke-opacity:1" d="M 456.442,4 467.683,13.8357 z" id="boundary" inkscape:connector-curvature="0" />
	<path style="fill:none;stroke:red;stroke-width:1px;stroke-linecap:butt;stroke-linejoin:miter;stroke-opacity:1" d="M 457.847,581.496 464.873,594.142 z" id="boundary" inkscape:connector-curvature="0" />
	<path style="fill:none;stroke:red;stroke-width:1px;stroke-linecap:butt;stroke-linejoin:miter;stroke-opacity:1" d="M 459.252,868.136 473.303,868.136 z" id="boundary" inkscape:connector-curvature="0" />
	<path style="fill:none;stroke:red;stroke-width:1px;stroke-linecap:butt;stroke-linejoin:miter;stroke-opacity:1" d="M 464.873,594.142 470.493,608.193 z" id="boundary" inkscape:connector-curvature="0" />
	<path style="fill:none;stroke:red;stroke-width:1px;stroke-linecap:butt;stroke-linejoin:miter;stroke-opacity:1" d="M 467.683,13.8357 476.113,25.0765 z" id="boundary" inkscape:connector-curvature="0" />
	<path style="fill:none;stroke:red;stroke-width:1px;stroke-linecap:butt;stroke-linejoin:miter;stroke-opacity:1" d="M 467.683,890.618 480.329,883.592 z" id="boundary" inkscape:connector-curvature="0" />
	<path style="fill:none;stroke:red;stroke-width:1px;stroke-linecap:butt;stroke-linejoin:miter;stroke-opacity:1" d="M 470.493,608.193 484.544,613.813 z" id="boundary" inkscape:connector-curvature="0" />
	<path style="fill:none;stroke:red;stroke-width:1px;stroke-linecap:butt;stroke-linejoin:miter;stroke-opacity:1" d="M 473.303,868.136 483.139,856.895 z" id="boundary" inkscape:connector-curvature="0" />
	<path style="fill:none;stroke:red;stroke-width:1px;stroke-linecap:butt;stroke-linejoin:miter;stroke-opacity:1" d="M 476.113,25.0765 487.354,33.5071 z" id="boundary" inkscape:connector-curvature="0" />
	<path style="fill:none;stroke:red;stroke-width:1px;stroke-linecap:butt;stroke-linejoin:miter;stroke-opacity:1" d="M 480.329,883.592 492.975,875.161 z" id="boundary" inkscape:connector-curvature="0" />
	<path style="fill:none;stroke:red;stroke-width:1px;stroke-linecap:butt;stroke-linejoin:miter;stroke-opacity:1" d="M 483.139,856.895 494.38,847.059 z" id="boundary" inkscape:connector-curvature="0" />
	<path style="fill:none;stroke:red;stroke-width:1px;stroke-linecap:butt;stroke-linejoin:miter;stroke-opacity:1" d="M 484.544,613.813 490.164,627.864 z" id="boundary" inkscape:connector-curvature="0" />
	<path style="fill:none;stroke:red;stroke-width:1px;stroke-linecap:butt;stroke-linejoin:miter;stroke-opacity:1" d="M 487.354,33.5071 490.164,47.5581 z" id="boundary" inkscape:connector-curvature="0" />
	<path style="fill:none;stroke:red;stroke-width:1px;stroke-linecap:butt;stroke-linejoin:miter;stroke-opacity:1" d="M 490.164,47.5581 497.19,60.204 z" id="boundary" inkscape:connector-curvature="0" />
	<path style="fill:none;stroke:red;stroke-width:1px;stroke-linecap:butt;stroke-linejoin:miter;stroke-opacity:1" d="M 490.164,627.864 501.405,637.7 z" id="boundary" inkscape:connector-curvature="0" />
	<path style="fill:none;stroke:red;stroke-width:1px;stroke-linecap:butt;stroke-linejoin:miter;stroke-opacity:1" d="M 492.975,875.161 507.025,869.541 z" id="boundary" inkscape:connector-curvature="0" />
	<path style="fill:none;stroke:red;stroke-width:1px;stroke-linecap:butt;stroke-linejoin:miter;stroke-opacity:1" d="M 494.38,847.059 507.025,840.034 z" id="boundary" inkscape:connector-curvature="0" />
	<path style="fill:none;stroke:red;stroke-width:1px;stroke-linecap:butt;stroke-linejoin:miter;stroke-opacity:1" d="M 497.19,60.204 508.431,68.6346 z" id="boundary" inkscape:connector-curvature="0" />
	<path style="fill:none;stroke:red;stroke-width:1px;stroke-linecap:butt;stroke-linejoin:miter;stroke-opacity:1" d="M 501.405,637.7 502.81,651.751 z" id="boundary" inkscape:connector-curvature="0" />
	<path style="fill:none;stroke:red;stroke-width:1px;stroke-linecap:butt;stroke-linejoin:miter;stroke-opacity:1" d="M 502.81,651.751 502.81,665.802 z" id="boundary" inkscape:connector-curvature="0" />
	<path style="fill:none;stroke:red;stroke-width:1px;stroke-linecap:butt;stroke-linejoin:miter;stroke-opacity:1" d="M 502.81,665.802 516.861,661.586 z" id="boundary" inkscape:connector-curvature="0" />
	<path style="fill:none;stroke:red;stroke-width:1px;stroke-linecap:butt;stroke-linejoin:miter;stroke-opacity:1" d="M 504.215,518.266 507.025,532.317 z" id="boundary" inkscape:connector-curvature="0" />
	<path style="fill:none;stroke:red;stroke-width:1px;stroke-linecap:butt;stroke-linejoin:miter;stroke-opacity:1" d="M 504.215,518.266 518.266,511.241 z" id="boundary" inkscape:connector-curvature="0" />
	<path style="fill:none;stroke:red;stroke-width:1px;stroke-linecap:butt;stroke-linejoin:miter;stroke-opacity:1" d="M 507.025,532.317 518.266,542.153 z" id="boundary" inkscape:connector-curvature="0" />
	<path style="fill:none;stroke:red;stroke-width:1px;stroke-linecap:butt;stroke-linejoin:miter;stroke-opacity:1" d="M 507.025,840.034 521.076,833.008 z" id="boundary" inkscape:connector-curvature="0" />
	<path style="fill:none;stroke:red;stroke-width:1px;stroke-linecap:butt;stroke-linejoin:miter;stroke-opacity:1" d="M 507.025,869.541 519.671,862.516 z" id="boundary" inkscape:connector-curvature="0" />
	<path style="fill:none;stroke:red;stroke-width:1px;stroke-linecap:butt;stroke-linejoin:miter;stroke-opacity:1" d="M 508.431,68.6346 518.266,79.8754 z" id="boundary" inkscape:connector-curvature="0" />
	<path style="fill:none;stroke:red;stroke-width:1px;stroke-linecap:butt;stroke-linejoin:miter;stroke-opacity:1" d="M 516.861,661.586 528.102,651.751 z" id="boundary" inkscape:connector-curvature="0" />
	<path style="fill:none;stroke:red;stroke-width:1px;stroke-linecap:butt;stroke-linejoin:miter;stroke-opacity:1" d="M 518.266,79.8754 532.317,85.4958 z" id="boundary" inkscape:connector-curvature="0" />
	<path style="fill:none;stroke:red;stroke-width:1px;stroke-linecap:butt;stroke-linejoin:miter;stroke-opacity:1" d="M 518.266,511.241 529.507,501.405 z" id="boundary" inkscape:connector-curvature="0" />
	<path style="fill:none;stroke:red;stroke-width:1px;stroke-linecap:butt;stroke-linejoin:miter;stroke-opacity:1" d="M 518.266,542.153 523.887,556.204 z" id="boundary" inkscape:connector-curvature="0" />
	<path style="fill:none;stroke:red;stroke-width:1px;stroke-linecap:butt;stroke-linejoin:miter;stroke-opacity:1" d="M 519.671,862.516 532.317,855.49 z" id="boundary" inkscape:connector-curvature="0" />
	<path style="fill:none;stroke:red;stroke-width:1px;stroke-linecap:butt;stroke-linejoin:miter;stroke-opacity:1" d="M 521.076,833.008 532.317,821.768 z" id="boundary" inkscape:connector-curvature="0" />
	<path style="fill:none;stroke:red;stroke-width:1px;stroke-linecap:butt;stroke-linejoin:miter;stroke-opacity:1" d="M 523.887,556.204 532.317,567.445 z" id="boundary" inkscape:connector-curvature="0" />
	<path style="fill:none;stroke:red;stroke-width:1px;stroke-linecap:butt;stroke-linejoin:miter;stroke-opacity:1" d="M 528.102,651.751 542.153,657.371 z" id="boundary" inkscape:connector-curvature="0" />
	<path style="fill:none;stroke:red;stroke-width:1px;stroke-linecap:butt;stroke-linejoin:miter;stroke-opacity:1" d="M 529.507,501.405 543.558,494.38 z" id="boundary" inkscape:connector-curvature="0" />
	<path style="fill:none;stroke:red;stroke-width:1px;stroke-linecap:butt;stroke-linejoin:miter;stroke-opacity:1" d="M 532.317,85.4958 546.368,88.3059 z" id="boundary" inkscape:connector-curvature="0" />
	<path style="fill:none;stroke:red;stroke-width:1px;stroke-linecap:butt;stroke-linejoin:miter;stroke-opacity:1" d="M 532.317,567.445 539.343,580.091 z" id="boundary" inkscape:connector-curvature="0" />
	<path style="fill:none;stroke:red;stroke-width:1px;stroke-linecap:butt;stroke-linejoin:miter;stroke-opacity:1" d="M 532.317,821.768 543.558,811.932 z" id="boundary" inkscape:connector-curvature="0" />
	<path style="fill:none;stroke:red;stroke-width:1px;stroke-linecap:butt;stroke-linejoin:miter;stroke-opacity:1" d="M 532.317,855.49 543.558,845.654 z" id="boundary" inkscape:connector-curvature="0" />
	<path style="fill:none;stroke:red;stroke-width:1px;stroke-linecap:butt;stroke-linejoin:miter;stroke-opacity:1" d="M 539.343,580.091 550.584,588.521 z" id="boundary" inkscape:connector-curvature="0" />
	<path style="fill:none;stroke:red;stroke-width:1px;stroke-linecap:butt;stroke-linejoin:miter;stroke-opacity:1" d="M 542.153,657.371 547.773,671.422 z" id="boundary" inkscape:connector-curvature="0" />
	<path style="fill:none;stroke:red;stroke-width:1px;stroke-linecap:butt;stroke-linejoin:miter;stroke-opacity:1" d="M 543.558,494.38 546.368,469.088 z" id="boundary" inkscape:connector-curvature="0" />
	<path style="fill:none;stroke:red;stroke-width:1px;stroke-linecap:butt;stroke-linejoin:miter;stroke-opacity:1" d="M 543.558,811.932 553.394,800.691 z" id="boundary" inkscape:connector-curvature="0" />
	<path style="fill:none;stroke:red;stroke-width:1px;stroke-linecap:butt;stroke-linejoin:miter;stroke-opacity:1" d="M 543.558,845.654 557.609,838.629 z" id="boundary" inkscape:connector-curvature="0" />
	<path style="fill:none;stroke:red;stroke-width:1px;stroke-linecap:butt;stroke-linejoin:miter;stroke-opacity:1" d="M 546.368,88.3059 560.419,88.3059 z" id="boundary" inkscape:connector-curvature="0" />
	<path style="fill:none;stroke:red;stroke-width:1px;stroke-linecap:butt;stroke-linejoin:miter;stroke-opacity:1" d="M 546.368,469.088 559.014,462.062 z" id="boundary" inkscape:connector-curvature="0" />
	<path style="fill:none;stroke:red;stroke-width:1px;stroke-linecap:butt;stroke-linejoin:miter;stroke-opacity:1" d="M 547.773,671.422 559.014,679.853 z" id="boundary" inkscape:connector-curvature="0" />
	<path style="fill:none;stroke:red;stroke-width:1px;stroke-linecap:butt;stroke-linejoin:miter;stroke-opacity:1" d="M 550.584,588.521 560.419,599.762 z" id="boundary" inkscape:connector-curvature="0" />
	<path style="fill:none;stroke:red;stroke-width:1px;stroke-linecap:butt;stroke-linejoin:miter;stroke-opacity:1" d="M 553.394,800.691 564.635,790.856 z" id="boundary" inkscape:connector-curvature="0" />
	<path style="fill:none;stroke:red;stroke-width:1px;stroke-linecap:butt;stroke-linejoin:miter;stroke-opacity:1" d="M 557.609,838.629 571.66,831.603 z" id="boundary" inkscape:connector-curvature="0" />
	<path style="fill:none;stroke:red;stroke-width:1px;stroke-linecap:butt;stroke-linejoin:miter;stroke-opacity:1" d="M 559.014,462.062 570.255,453.632 z" id="boundary" inkscape:connector-curvature="0" />
	<path style="fill:none;stroke:red;stroke-width:1px;stroke-linecap:butt;stroke-linejoin:miter;stroke-opacity:1" d="M 559.014,679.853 563.229,693.904 z" id="boundary" inkscape:connector-curvature="0" />
	<path style="fill:none;stroke:red;stroke-width:1px;stroke-linecap:butt;stroke-linejoin:miter;stroke-opacity:1" d="M 560.419,88.3059 574.47,92.5212 z" id="boundary" inkscape:connector-curvature="0" />
	<path style="fill:none;stroke:red;stroke-width:1px;stroke-linecap:butt;stroke-linejoin:miter;stroke-opacity:1" d="M 560.419,599.762 571.66,609.598 z" id="boundary" inkscape:connector-curvature="0" />
	<path style="fill:none;stroke:red;stroke-width:1px;stroke-linecap:butt;stroke-linejoin:miter;stroke-opacity:1" d="M 563.229,693.904 574.47,703.739 z" id="boundary" inkscape:connector-curvature="0" />
	<path style="fill:none;stroke:red;stroke-width:1px;stroke-linecap:butt;stroke-linejoin:miter;stroke-opacity:1" d="M 564.635,790.856 573.065,766.969 z" id="boundary" inkscape:connector-curvature="0" />
	<path style="fill:none;stroke:red;stroke-width:1px;stroke-linecap:butt;stroke-linejoin:miter;stroke-opacity:1" d="M 570.255,453.632 577.28,440.986 z" id="boundary" inkscape:connector-curvature="0" />
	<path style="fill:none;stroke:red;stroke-width:1px;stroke-linecap:butt;stroke-linejoin:miter;stroke-opacity:1" d="M 571.66,609.598 581.496,620.839 z" id="boundary" inkscape:connector-curvature="0" />
	<path style="fill:none;stroke:red;stroke-width:1px;stroke-linecap:butt;stroke-linejoin:miter;stroke-opacity:1" d="M 571.66,831.603 585.711,824.578 z" id="boundary" inkscape:connector-curvature="0" />
	<path style="fill:none;stroke:red;stroke-width:1px;stroke-linecap:butt;stroke-linejoin:miter;stroke-opacity:1" d="M 573.065,738.867 573.065,752.918 z" id="boundary" inkscape:connector-curvature="0" />
	<path style="fill:none;stroke:red;stroke-width:1px;stroke-linecap:butt;stroke-linejoin:miter;stroke-opacity:1" d="M 573.065,738.867 580.091,717.79 z" id="boundary" inkscape:connector-curvature="0" />
	<path style="fill:none;stroke:red;stroke-width:1px;stroke-linecap:butt;stroke-linejoin:miter;stroke-opacity:1" d="M 573.065,752.918 573.065,766.969 z" id="boundary" inkscape:connector-curvature="0" />
	<path style="fill:none;stroke:red;stroke-width:1px;stroke-linecap:butt;stroke-linejoin:miter;stroke-opacity:1" d="M 574.47,92.5212 587.116,99.5467 z" id="boundary" inkscape:connector-curvature="0" />
	<path style="fill:none;stroke:red;stroke-width:1px;stroke-linecap:butt;stroke-linejoin:miter;stroke-opacity:1" d="M 574.47,703.739 580.091,717.79 z" id="boundary" inkscape:connector-curvature="0" />
	<path style="fill:none;stroke:red;stroke-width:1px;stroke-linecap:butt;stroke-linejoin:miter;stroke-opacity:1" d="M 577.28,440.986 589.926,433.96 z" id="boundary" inkscape:connector-curvature="0" />
	<path style="fill:none;stroke:red;stroke-width:1px;stroke-linecap:butt;stroke-linejoin:miter;stroke-opacity:1" d="M 581.496,620.839 592.737,630.674 z" id="boundary" inkscape:connector-curvature="0" />
	<path style="fill:none;stroke:red;stroke-width:1px;stroke-linecap:butt;stroke-linejoin:miter;stroke-opacity:1" d="M 585.711,824.578 595.547,813.337 z" id="boundary" inkscape:connector-curvature="0" />
	<path style="fill:none;stroke:red;stroke-width:1px;stroke-linecap:butt;stroke-linejoin:miter;stroke-opacity:1" d="M 587.116,99.5467 601.167,102.357 z" id="boundary" inkscape:connector-curvature="0" />
	<path style="fill:none;stroke:red;stroke-width:1px;stroke-linecap:butt;stroke-linejoin:miter;stroke-opacity:1" d="M 589.926,433.96 602.572,419.909 z" id="boundary" inkscape:connector-curvature="0" />
	<path style="fill:none;stroke:red;stroke-width:1px;stroke-linecap:butt;stroke-linejoin:miter;stroke-opacity:1" d="M 592.737,630.674 602.572,641.915 z" id="boundary" inkscape:connector-curvature="0" />
	<path style="fill:none;stroke:red;stroke-width:1px;stroke-linecap:butt;stroke-linejoin:miter;stroke-opacity:1" d="M 595.547,813.337 602.572,792.261 z" id="boundary" inkscape:connector-curvature="0" />
	<path style="fill:none;stroke:red;stroke-width:1px;stroke-linecap:butt;stroke-linejoin:miter;stroke-opacity:1" d="M 601.167,102.357 613.813,109.382 z" id="boundary" inkscape:connector-curvature="0" />
	<path style="fill:none;stroke:red;stroke-width:1px;stroke-linecap:butt;stroke-linejoin:miter;stroke-opacity:1" d="M 602.572,419.909 613.813,410.074 z" id="boundary" inkscape:connector-curvature="0" />
	<path style="fill:none;stroke:red;stroke-width:1px;stroke-linecap:butt;stroke-linejoin:miter;stroke-opacity:1" d="M 602.572,641.915 609.598,654.561 z" id="boundary" inkscape:connector-curvature="0" />
	<path style="fill:none;stroke:red;stroke-width:1px;stroke-linecap:butt;stroke-linejoin:miter;stroke-opacity:1" d="M 602.572,792.261 613.813,782.425 z" id="boundary" inkscape:connector-curvature="0" />
	<path style="fill:none;stroke:red;stroke-width:1px;stroke-linecap:butt;stroke-linejoin:miter;stroke-opacity:1" d="M 609.598,654.561 615.218,668.612 z" id="boundary" inkscape:connector-curvature="0" />
	<path style="fill:none;stroke:red;stroke-width:1px;stroke-linecap:butt;stroke-linejoin:miter;stroke-opacity:1" d="M 613.813,109.382 627.864,110.788 z" id="boundary" inkscape:connector-curvature="0" />
	<path style="fill:none;stroke:red;stroke-width:1px;stroke-linecap:butt;stroke-linejoin:miter;stroke-opacity:1" d="M 613.813,410.074 627.864,403.048 z" id="boundary" inkscape:connector-curvature="0" />
	<path style="fill:none;stroke:red;stroke-width:1px;stroke-linecap:butt;stroke-linejoin:miter;stroke-opacity:1" d="M 613.813,782.425 616.623,757.133 z" id="boundary" inkscape:connector-curvature="0" />
	<path style="fill:none;stroke:red;stroke-width:1px;stroke-linecap:butt;stroke-linejoin:miter;stroke-opacity:1" d="M 615.218,668.612 616.623,682.663 z" id="boundary" inkscape:connector-curvature="0" />
	<path style="fill:none;stroke:red;stroke-width:1px;stroke-linecap:butt;stroke-linejoin:miter;stroke-opacity:1" d="M 616.623,682.663 623.649,695.309 z" id="boundary" inkscape:connector-curvature="0" />
	<path style="fill:none;stroke:red;stroke-width:1px;stroke-linecap:butt;stroke-linejoin:miter;stroke-opacity:1" d="M 616.623,757.133 623.649,737.462 z" id="boundary" inkscape:connector-curvature="0" />
	<path style="fill:none;stroke:red;stroke-width:1px;stroke-linecap:butt;stroke-linejoin:miter;stroke-opacity:1" d="M 623.649,695.309 623.649,709.36 z" id="boundary" inkscape:connector-curvature="0" />
	<path style="fill:none;stroke:red;stroke-width:1px;stroke-linecap:butt;stroke-linejoin:miter;stroke-opacity:1" d="M 623.649,709.36 623.649,723.411 z" id="boundary" inkscape:connector-curvature="0" />
	<path style="fill:none;stroke:red;stroke-width:1px;stroke-linecap:butt;stroke-linejoin:miter;stroke-opacity:1" d="M 623.649,723.411 623.649,737.462 z" id="boundary" inkscape:connector-curvature="0" />
	<path style="fill:none;stroke:red;stroke-width:1px;stroke-linecap:butt;stroke-linejoin:miter;stroke-opacity:1" d="M 627.864,110.788 641.915,116.408 z" id="boundary" inkscape:connector-curvature="0" />
	<path style="fill:none;stroke:red;stroke-width:1px;stroke-linecap:butt;stroke-linejoin:miter;stroke-opacity:1" d="M 627.864,403.048 636.295,391.807 z" id="boundary" inkscape:connector-curvature="0" />
	<path style="fill:none;stroke:red;stroke-width:1px;stroke-linecap:butt;stroke-linejoin:miter;stroke-opacity:1" d="M 636.295,391.807 647.535,383.377 z" id="boundary" inkscape:connector-curvature="0" />
	<path style="fill:none;stroke:red;stroke-width:1px;stroke-linecap:butt;stroke-linejoin:miter;stroke-opacity:1" d="M 641.915,116.408 655.966,117.813 z" id="boundary" inkscape:connector-curvature="0" />
	<path style="fill:none;stroke:red;stroke-width:1px;stroke-linecap:butt;stroke-linejoin:miter;stroke-opacity:1" d="M 647.535,383.377 658.776,370.731 z" id="boundary" inkscape:connector-curvature="0" />
	<path style="fill:none;stroke:red;stroke-width:1px;stroke-linecap:butt;stroke-linejoin:miter;stroke-opacity:1" d="M 655.966,117.813 668.612,124.839 z" id="boundary" inkscape:connector-curvature="0" />
	<path style="fill:none;stroke:red;stroke-width:1px;stroke-linecap:butt;stroke-linejoin:miter;stroke-opacity:1" d="M 658.776,370.731 672.827,363.705 z" id="boundary" inkscape:connector-curvature="0" />
	<path style="fill:none;stroke:red;stroke-width:1px;stroke-linecap:butt;stroke-linejoin:miter;stroke-opacity:1" d="M 668.612,124.839 682.663,130.459 z" id="boundary" inkscape:connector-curvature="0" />
	<path style="fill:none;stroke:red;stroke-width:1px;stroke-linecap:butt;stroke-linejoin:miter;stroke-opacity:1" d="M 672.827,363.705 684.068,353.87 z" id="boundary" inkscape:connector-curvature="0" />
	<path style="fill:none;stroke:red;stroke-width:1px;stroke-linecap:butt;stroke-linejoin:miter;stroke-opacity:1" d="M 682.663,130.459 692.499,141.7 z" id="boundary" inkscape:connector-curvature="0" />
	<path style="fill:none;stroke:red;stroke-width:1px;stroke-linecap:butt;stroke-linejoin:miter;stroke-opacity:1" d="M 684.068,353.87 698.119,346.844 z" id="boundary" inkscape:connector-curvature="0" />
	<path style="fill:none;stroke:red;stroke-width:1px;stroke-linecap:butt;stroke-linejoin:miter;stroke-opacity:1" d="M 692.499,141.7 706.55,144.51 z" id="boundary" inkscape:connector-curvature="0" />
	<path style="fill:none;stroke:red;stroke-width:1px;stroke-linecap:butt;stroke-linejoin:miter;stroke-opacity:1" d="M 698.119,346.844 712.17,339.819 z" id="boundary" inkscape:connector-curvature="0" />
	<path style="fill:none;stroke:red;stroke-width:1px;stroke-linecap:butt;stroke-linejoin:miter;stroke-opacity:1" d="M 706.55,144.51 720.601,147.32 z" id="boundary" inkscape:connector-curvature="0" />
	<path style="fill:none;stroke:red;stroke-width:1px;stroke-linecap:butt;stroke-linejoin:miter;stroke-opacity:1" d="M 712.17,339.819 722.006,328.578 z" id="boundary" inkscape:connector-curvature="0" />
	<path style="fill:none;stroke:red;stroke-width:1px;stroke-linecap:butt;stroke-linejoin:miter;stroke-opacity:1" d="M 720.601,147.32 733.246,154.346 z" id="boundary" inkscape:connector-curvature="0" />
	<path style="fill:none;stroke:red;stroke-width:1px;stroke-linecap:butt;stroke-linejoin:miter;stroke-opacity:1" d="M 722.006,328.578 736.057,321.552 z" id="boundary" inkscape:connector-curvature="0" />
	<path style="fill:none;stroke:red;stroke-width:1px;stroke-linecap:butt;stroke-linejoin:miter;stroke-opacity:1" d="M 733.246,154.346 747.297,159.966 z" id="boundary" inkscape:connector-curvature="0" />
	<path style="fill:none;stroke:red;stroke-width:1px;stroke-linecap:butt;stroke-linejoin:miter;stroke-opacity:1" d="M 736.057,321.552 750.108,321.552 z" id="boundary" inkscape:connector-curvature="0" />
	<path style="fill:none;stroke:red;stroke-width:1px;stroke-linecap:butt;stroke-linejoin:miter;stroke-opacity:1" d="M 747.297,159.966 757.133,171.207 z" id="boundary" inkscape:connector-curvature="0" />
	<path style="fill:none;stroke:red;stroke-width:1px;stroke-linecap:butt;stroke-linejoin:miter;stroke-opacity:1" d="M 750.108,321.552 764.159,314.527 z" id="boundary" inkscape:connector-curvature="0" />
	<path style="fill:none;stroke:red;stroke-width:1px;stroke-linecap:butt;stroke-linejoin:miter;stroke-opacity:1" d="M 757.133,171.207 771.184,172.612 z" id="boundary" inkscape:connector-curvature="0" />
	<path style="fill:none;stroke:red;stroke-width:1px;stroke-linecap:butt;stroke-linejoin:miter;stroke-opacity:1" d="M 764.159,314.527 778.21,307.501 z" id="boundary" inkscape:connector-curvature="0" />
	<path style="fill:none;stroke:red;stroke-width:1px;stroke-linecap:butt;stroke-linejoin:miter;stroke-opacity:1" d="M 771.184,172.612 778.21,185.258 z" id="boundary" inkscape:connector-curvature="0" />
	<path style="fill:none;stroke:red;stroke-width:1px;stroke-linecap:butt;stroke-linejoin:miter;stroke-opacity:1" d="M 778.21,185.258 789.45,193.688 z" id="boundary" inkscape:connector-curvature="0" />
	<path style="fill:none;stroke:red;stroke-width:1px;stroke-linecap:butt;stroke-linejoin:miter;stroke-opacity:1" d="M 778.21,307.501 792.261,307.501 z" id="boundary" inkscape:connector-curvature="0" />
	<path style="fill:none;stroke:red;stroke-width:1px;stroke-linecap:butt;stroke-linejoin:miter;stroke-opacity:1" d="M 789.45,193.688 802.096,200.714 z" id="boundary" inkscape:connector-curvature="0" />
	<path style="fill:none;stroke:red;stroke-width:1px;stroke-linecap:butt;stroke-linejoin:miter;stroke-opacity:1" d="M 792.261,307.501 804.907,300.476 z" id="boundary" inkscape:connector-curvature="0" />
	<path style="fill:none;stroke:red;stroke-width:1px;stroke-linecap:butt;stroke-linejoin:miter;stroke-opacity:1" d="M 802.096,200.714 814.742,207.739 z" id="boundary" inkscape:connector-curvature="0" />
	<path style="fill:none;stroke:red;stroke-width:1px;stroke-linecap:butt;stroke-linejoin:miter;stroke-opacity:1" d="M 804.907,300.476 818.958,300.476 z" id="boundary" inkscape:connector-curvature="0" />
	<path style="fill:none;stroke:red;stroke-width:1px;stroke-linecap:butt;stroke-linejoin:miter;stroke-opacity:1" d="M 814.742,207.739 825.983,217.575 z" id="boundary" inkscape:connector-curvature="0" />
	<path style="fill:none;stroke:red;stroke-width:1px;stroke-linecap:butt;stroke-linejoin:miter;stroke-opacity:1" d="M 818.958,300.476 831.603,293.45 z" id="boundary" inkscape:connector-curvature="0" />
	<path style="fill:none;stroke:red;stroke-width:1px;stroke-linecap:butt;stroke-linejoin:miter;stroke-opacity:1" d="M 825.983,217.575 834.414,228.816 z" id="boundary" inkscape:connector-curvature="0" />
	<path style="fill:none;stroke:red;stroke-width:1px;stroke-linecap:butt;stroke-linejoin:miter;stroke-opacity:1" d="M 831.603,293.45 845.654,293.45 z" id="boundary" inkscape:connector-curvature="0" />
	<path style="fill:none;stroke:red;stroke-width:1px;stroke-linecap:butt;stroke-linejoin:miter;stroke-opacity:1" d="M 834.414,228.816 847.059,235.841 z" id="boundary" inkscape:connector-curvature="0" />
	<path style="fill:none;stroke:red;stroke-width:1px;stroke-linecap:butt;stroke-linejoin:miter;stroke-opacity:1" d="M 845.654,293.45 858.3,285.02 z" id="boundary" inkscape:connector-curvature="0" />
	<path style="fill:none;stroke:red;stroke-width:1px;stroke-linecap:butt;stroke-linejoin:miter;stroke-opacity:1" d="M 847.059,235.841 855.49,247.082 z" id="boundary" inkscape:connector-curvature="0" />
	<path style="fill:none;stroke:red;stroke-width:1px;stroke-linecap:butt;stroke-linejoin:miter;stroke-opacity:1" d="M 855.49,247.082 861.11,261.133 z" id="boundary" inkscape:connector-curvature="0" />
	<path style="fill:none;stroke:red;stroke-width:1px;stroke-linecap:butt;stroke-linejoin:miter;stroke-opacity:1" d="M 858.3,285.02 861.11,261.133 z" id="boundary" inkscape:connector-curvature="0" />
	<circle cx="4" cy="303.286" r="4" fill="#0" id="circle0"/>
	<circle cx="4" cy="317.337" r="4" fill="#0" id="circle1"/>
	<circle cx="15.2408" cy="292.045" r="4" fill="#0" id="circle2"/>
	<circle cx="18.051" cy="321.552" r="4" fill="#0" id="circle3"/>
	<circle cx="25.0765" cy="268.159" r="4" fill="#0" id="circle4"/>
	<circle cx="30.6969" cy="328.578" r="4" fill="#0" id="circle5"/>
	<circle cx="39.1275" cy="254.108" r="4" fill="#0" id="circle6"/>
	<circle cx="44.7479" cy="328.578" r="4" fill="#0" id="circle7"/>
	<circle cx="50.3683" cy="242.867" r="4" fill="#0" id="circle8"/>
	<circle cx="57.3938" cy="335.603" r="4" fill="#0" id="circle9"/>
	<circle cx="61.6091" cy="231.626" r="4" fill="#0" id="circle10"/>
	<circle cx="71.4448" cy="335.603" r="4" fill="#0" id="circle11"/>
	<circle cx="75.6601" cy="224.601" r="4" fill="#0" id="circle12"/>
	<circle cx="82.6856" cy="210.55" r="4" fill="#0" id="circle13"/>
	<circle cx="85.4958" cy="341.224" r="4" fill="#0" id="circle14"/>
	<circle cx="93.9263" cy="200.714" r="4" fill="#0" id="circle15"/>
	<circle cx="99.5467" cy="342.629" r="4" fill="#0" id="circle16"/>
	<circle cx="107.977" cy="200.714" r="4" fill="#0" id="circle17"/>
	<circle cx="113.598" cy="348.249" r="4" fill="#0" id="circle18"/>
	<circle cx="117.813" cy="189.473" r="4" fill="#0" id="circle19"/>
	<circle cx="127.649" cy="349.654" r="4" fill="#0" id="circle20"/>
	<circle cx="131.864" cy="182.448" r="4" fill="#0" id="circle21"/>
	<circle cx="141.7" cy="355.275" r="4" fill="#0" id="circle22"/>
	<circle cx="143.105" cy="172.612" r="4" fill="#0" id="circle23"/>
	<circle cx="155.751" cy="356.68" r="4" fill="#0" id="circle24"/>
	<circle cx="157.156" cy="172.612" r="4" fill="#0" id="circle25"/>
	<circle cx="166.992" cy="161.371" r="4" fill="#0" id="circle26"/>
	<circle cx="168.397" cy="363.705" r="4" fill="#0" id="circle27"/>
	<circle cx="178.232" cy="151.535" r="4" fill="#0" id="circle28"/>
	<circle cx="181.042" cy="370.731" r="4" fill="#0" id="circle29"/>
	<circle cx="190.878" cy="144.51" r="4" fill="#0" id="circle30"/>
	<circle cx="195.093" cy="373.541" r="4" fill="#0" id="circle31"/>
	<circle cx="204.929" cy="144.51" r="4" fill="#0" id="circle32"/>
	<circle cx="209.144" cy="377.756" r="4" fill="#0" id="circle33"/>
	<circle cx="218.98" cy="137.484" r="4" fill="#0" id="circle34"/>
	<circle cx="223.195" cy="380.567" r="4" fill="#0" id="circle35"/>
	<circle cx="233.031" cy="130.459" r="4" fill="#0" id="circle36"/>
	<circle cx="233.031" cy="391.807" r="4" fill="#0" id="circle37"/>
	<circle cx="245.677" cy="123.433" r="4" fill="#0" id="circle38"/>
	<circle cx="245.677" cy="398.833" r="4" fill="#0" id="circle39"/>
	<circle cx="256.918" cy="407.263" r="4" fill="#0" id="circle40"/>
	<circle cx="258.323" cy="116.408" r="4" fill="#0" id="circle41"/>
	<circle cx="270.969" cy="412.884" r="4" fill="#0" id="circle42"/>
	<circle cx="272.374" cy="116.408" r="4" fill="#0" id="circle43"/>
	<circle cx="279.399" cy="424.125" r="4" fill="#0" id="circle44"/>
	<circle cx="285.02" cy="106.572" r="4" fill="#0" id="circle45"/>
	<circle cx="290.64" cy="433.96" r="4" fill="#0" id="circle46"/>
	<circle cx="299.071" cy="99.5467" r="4" fill="#0" id="circle47"/>
	<circle cx="304.691" cy="433.96" r="4" fill="#0" id="circle48"/>
	<circle cx="313.122" cy="92.5212" r="4" fill="#0" id="circle49"/>
	<circle cx="314.527" cy="445.201" r="4" fill="#0" id="circle50"/>
	<circle cx="325.768" cy="455.037" r="4" fill="#0" id="circle51"/>
	<circle cx="327.173" cy="88.3059" r="4" fill="#0" id="circle52"/>
	<circle cx="335.603" cy="466.278" r="4" fill="#0" id="circle53"/>
	<circle cx="339.819" cy="81.2805" r="4" fill="#0" id="circle54"/>
	<circle cx="341.224" cy="984.759" r="4" fill="#0" id="circle55"/>
	<circle cx="346.844" cy="476.113" r="4" fill="#0" id="circle56"/>
	<circle cx="348.249" cy="970.708" r="4" fill="#0" id="circle57"/>
	<circle cx="349.654" cy="70.0397" r="4" fill="#0" id="circle58"/>
	<circle cx="349.654" cy="996" r="4" fill="#0" id="circle59"/>
	<circle cx="355.275" cy="956.657" r="4" fill="#0" id="circle60"/>
	<circle cx="356.68" cy="487.354" r="4" fill="#0" id="circle61"/>
	<circle cx="360.895" cy="60.204" r="4" fill="#0" id="circle62"/>
	<circle cx="360.895" cy="986.164" r="4" fill="#0" id="circle63"/>
	<circle cx="366.516" cy="945.416" r="4" fill="#0" id="circle64"/>
	<circle cx="367.921" cy="497.19" r="4" fill="#0" id="circle65"/>
	<circle cx="367.921" cy="972.113" r="4" fill="#0" id="circle66"/>
	<circle cx="369.326" cy="43.3428" r="4" fill="#0" id="circle67"/>
	<circle cx="374.946" cy="958.062" r="4" fill="#0" id="circle68"/>
	<circle cx="377.756" cy="934.176" r="4" fill="#0" id="circle69"/>
	<circle cx="380.567" cy="32.102" r="4" fill="#0" id="circle70"/>
	<circle cx="380.567" cy="504.215" r="4" fill="#0" id="circle71"/>
	<circle cx="384.782" cy="946.822" r="4" fill="#0" id="circle72"/>
	<circle cx="387.592" cy="516.861" r="4" fill="#0" id="circle73"/>
	<circle cx="388.997" cy="924.34" r="4" fill="#0" id="circle74"/>
	<circle cx="394.618" cy="25.0765" r="4" fill="#0" id="circle75"/>
	<circle cx="396.023" cy="936.986" r="4" fill="#0" id="circle76"/>
	<circle cx="398.833" cy="913.099" r="4" fill="#0" id="circle77"/>
	<circle cx="400.238" cy="523.887" r="4" fill="#0" id="circle78"/>
	<circle cx="401.643" cy="11.0255" r="4" fill="#0" id="circle79"/>
	<circle cx="410.074" cy="903.263" r="4" fill="#0" id="circle80"/>
	<circle cx="410.074" cy="929.96" r="4" fill="#0" id="circle81"/>
	<circle cx="414.289" cy="4" r="4" fill="#0" id="circle82"/>
	<circle cx="414.289" cy="525.292" r="4" fill="#0" id="circle83"/>
	<circle cx="419.909" cy="918.72" r="4" fill="#0" id="circle84"/>
	<circle cx="422.72" cy="896.238" r="4" fill="#0" id="circle85"/>
	<circle cx="425.53" cy="533.722" r="4" fill="#0" id="circle86"/>
	<circle cx="428.34" cy="4" r="4" fill="#0" id="circle87"/>
	<circle cx="431.15" cy="908.884" r="4" fill="#0" id="circle88"/>
	<circle cx="432.555" cy="546.368" r="4" fill="#0" id="circle89"/>
	<circle cx="433.96" cy="884.997" r="4" fill="#0" id="circle90"/>
	<circle cx="440.986" cy="557.609" r="4" fill="#0" id="circle91"/>
	<circle cx="440.986" cy="897.643" r="4" fill="#0" id="circle92"/>
	<circle cx="442.391" cy="4" r="4" fill="#0" id="circle93"/>
	<circle cx="448.011" cy="570.255" r="4" fill="#0" id="circle94"/>
	<circle cx="448.011" cy="877.972" r="4" fill="#0" id="circle95"/>
	<circle cx="455.037" cy="897.643" r="4" fill="#0" id="circle96"/>
	<circle cx="456.442" cy="4" r="4" fill="#0" id="circle97"/>
	<circle cx="457.847" cy="581.496" r="4" fill="#0" id="circle98"/>
	<circle cx="459.252" cy="868.136" r="4" fill="#0" id="circle99"/>
	<circle cx="464.873" cy="594.142" r="4" fill="#0" id="circle100"/>
	<circle cx="467.683" cy="13.8357" r="4" fill="#0" id="circle101"/>
	<circle cx="467.683" cy="890.618" r="4" fill="#0" id="circle102"/>
	<circle cx="470.493" cy="608.193" r="4" fill="#0" id="circle103"/>
	<circle cx="473.303" cy="868.136" r="4" fill="#0" id="circle104"/>
	<circle cx="476.113" cy="25.0765" r="4" fill="#0" id="circle105"/>
	<circle cx="480.329" cy="883.592" r="4" fill="#0" id="circle106"/>
	<circle cx="483.139" cy="856.895" r="4" fill="#0" id="circle107"/>
	<circle cx="484.544" cy="613.813" r="4" fill="#0" id="circle108"/>
	<circle cx="487.354" cy="33.5071" r="4" fill="#0" id="circle109"/>
	<circle cx="490.164" cy="47.5581" r="4" fill="#0" id="circle110"/>
	<circle cx="490.164" cy="627.864" r="4" fill="#0" id="circle111"/>
	<circle cx="492.975" cy="875.161" r="4" fill="#0" id="circle112"/>
	<circle cx="494.38" cy="847.059" r="4" fill="#0" id="circle113"/>
	<circle cx="497.19" cy="60.204" r="4" fill="#0" id="circle114"/>
	<circle cx="501.405" cy="637.7" r="4" fill="#0" id="circle115"/>
	<circle cx="502.81" cy="651.751" r="4" fill="#0" id="circle116"/>
	<circle cx="502.81" cy="665.802" r="4" fill="#0" id="circle117"/>
	<circle cx="504.215" cy="518.266" r="4" fill="#0" id="circle118"/>
	<circle cx="507.025" cy="532.317" r="4" fill="#0" id="circle119"/>
	<circle cx="507.025" cy="840.034" r="4" fill="#0" id="circle120"/>
	<circle cx="507.025" cy="869.541" r="4" fill="#0" id="circle121"/>
	<circle cx="508.431" cy="68.6346" r="4" fill="#0" id="circle122"/>
	<circle cx="516.861" cy="661.586" r="4" fill="#0" id="circle123"/>
	<circle cx="518.266" cy="79.8754" r="4" fill="#0" id="circle124"/>
	<circle cx="518.266" cy="511.241" r="4" fill="#0" id="circle125"/>
	<circle cx="518.266" cy="542.153" r="4" fill="#0" id="circle126"/>
	<circle cx="519.671" cy="862.516" r="4" fill="#0" id="circle127"/>
	<circle cx="521.076" cy="833.008" r="4" fill="#0" id="circle128"/>
	<circle cx="523.887" cy="556.204" r="4" fill="#0" id="circle129"/>
	<circle cx="528.102" cy="651.751" r="4" fill="#0" id="circle130"/>
	<circle cx="529.507" cy="501.405" r="4" fill="#0" id="circle131"/>
	<circle cx="532.317" cy="85.4958" r="4" fill="#0" id="circle132"/>
	<circle cx="532.317" cy="567.445" r="4" fill="#0" id="circle133"/>
	<circle cx="532.317" cy="821.768" r="4" fill="#0" id="circle134"/>
	<circle cx="532.317" cy="855.49" r="4" fill="#0" id="circle135"/>
	<circle cx="539.343" cy="580.091" r="4" fill="#0" id="circle136"/>
	<circle cx="542.153" cy="657.371" r="4" fill="#0" id="circle137"/>
	<circle cx="543.558" cy="494.38" r="4" fill="#0" id="circle138"/>
	<circle cx="543.558" cy="811.932" r="4" fill="#0" id="circle139"/>
	<circle cx="543.558" cy="845.654" r="4" fill="#0" id="circle140"/>
	<circle cx="546.368" cy="88.3059" r="4" fill="#0" id="circle141"/>
	<circle cx="546.368" cy="469.088" r="4" fill="#0" id="circle142"/>
	<circle cx="547.773" cy="671.422" r="4" fill="#0" id="circle143"/>
	<circle cx="550.584" cy="588.521" r="4" fill="#0" id="circle144"/>
	<circle cx="553.394" cy="800.691" r="4" fill="#0" id="circle145"/>
	<circle cx="557.609" cy="838.629" r="4" fill="#0" id="circle146"/>
	<circle cx="559.014" cy="462.062" r="4" fill="#0" id="circle147"/>
	<circle cx="559.014" cy="679.853" r="4" fill="#0" id="circle148"/>
	<circle cx="560.419" cy="88.3059" r="4" fill="#0" id="circle149"/>
	<circle cx="560.419" cy="599.762" r="4" fill="#0" id="circle150"/>
	<circle cx="563.229" cy="693.904" r="4" fill="#0" id="circle151"/>
	<circle cx="564.635" cy="790.856" r="4" fill="#0" id="circle152"/>
	<circle cx="570.255" cy="453.632" r="4" fill="#0" id="circle153"/>
	<circle cx="571.66" cy="609.598" r="4" fill="#0" id="circle154"/>
	<circle cx="571.66" cy="831.603" r="4" fill="#0" id="circle155"/>
	<circle cx="573.065" cy="738.867" r="4" fill="#0" id="circle156"/>
	<circle cx="573.065" cy="752.918" r="4" fill="#0" id="circle157"/>
	<circle cx="573.065" cy="766.969" r="4" fill="#0" id="circle158"/>
	<circle cx="574.47" cy="92.5212" r="4" fill="#0" id="circle159"/>
	<circle cx="574.47" cy="703.739" r="4" fill="#0" id="circle160"/>
	<circle cx="577.28" cy="440.986" r="4" fill="#0" id="circle161"/>
	<circle cx="580.091" cy="717.79" r="4" fill="#0" id="circle162"/>
	<circle cx="581.496" cy="620.839" r="4" fill="#0" id="circle163"/>
	<circle cx="585.711" cy="824.578" r="4" fill="#0" id="circle164"/>
	<circle cx="587.116" cy="99.5467" r="4" fill="#0" id="circle165"/>
	<circle cx="589.926" cy="433.96" r="4" fill="#0" id="circle166"/>
	<circle cx="592.737" cy="630.674" r="4" fill="#0" id="circle167"/>
	<circle cx="595.547" cy="813.337" r="4" fill="#0" id="circle168"/>
	<circle cx="601.167" cy="102.357" r="4" fill="#0" id="circle169"/>
	<circle cx="602.572" cy="419.909" r="4" fill="#0" id="circle170"/>
	<circle cx="602.572" cy="641.915" r="4" fill="#0" id="circle171"/>
	<circle cx="602.572" cy="792.261" r="4" fill="#0" id="circle172"/>
	<circle cx="609.598" cy="654.561" r="4" fill="#0" id="circle173"/>
	<circle cx="613.813" cy="109.382" r="4" fill="#0" id="circle174"/>
	<circle cx="613.813" cy="410.074" r="4" fill="#0" id="circle175"/>
	<circle cx="613.813" cy="782.425" r="4" fill="#0" id="circle176"/>
	<circle cx="615.218" cy="668.612" r="4" fill="#0" id="circle177"/>
	<circle cx="616.623" cy="682.663" r="4" fill="#0" id="circle178"/>
	<circle cx="616.623" cy="757.133" r="4" fill="#0" id="circle179"/>
	<circle cx="623.649" cy="695.309" r="4" fill="#0" id="circle180"/>
	<circle cx="623.649" cy="709.36" r="4" fill="#0" id="circle181"/>
	<circle cx="623.649" cy="723.411" r="4" fill="#0" id="circle182"/>
	<circle cx="623.649" cy="737.462" r="4" fill="#0" id="circle183"/>
	<circle cx="627.864" cy="110.788" r="4" fill="#0" id="circle184"/>
	<circle cx="627.864" cy="403.048" r="4" fill="#0" id="circle185"/>
	<circle cx="636.295" cy="391.807" r="4" fill="#0" id="circle186"/>
	<circle cx="641.915" cy="116.408" r="4" fill="#0" id="circle187"/>
	<circle cx="647.535" cy="383.377" r="4" fill="#0" id="circle188"/>
	<circle cx="655.966" cy="117.813" r="4" fill="#0" id="circle189"/>
	<circle cx="658.776" cy="370.731" r="4" fill="#0" id="circle190"/>
	<circle cx="668.612" cy="124.839" r="4" fill="#0" id="circle191"/>
	<circle cx="672.827" cy="363.705" r="4" fill="#0" id="circle192"/>
	<circle cx="682.663" cy="130.459" r="4" fill="#0" id="circle193"/>
	<circle cx="684.068" cy="353.87" r="4" fill="#0" id="circle194"/>
	<circle cx="692.499" cy="141.7" r="4" fill="#0" id="circle195"/>
	<circle cx="698.119" cy="346.844" r="4" fill="#0" id="circle196"/>
	<circle cx="706.55" cy="144.51" r="4" fill="#0" id="circle197"/>
	<circle cx="712.17" cy="339.819" r="4" fill="#0" id="circle198"/>
	<circle cx="720.601" cy="147.32" r="4" fill="#0" id="circle199"/>
	<circle cx="722.006" cy="328.578" r="4" fill="#0" id="circle200"/>
	<circle cx="733.246" cy="154.346" r="4" fill="#0" id="circle201"/>
	<circle cx="736.057" cy="321.552" r="4" fill="#0" id="circle202"/>
	<circle cx="747.297" cy="159.966" r="4" fill="#0" id="circle203"/>
	<circle cx="750.108" cy="321.552" r="4" fill="#0" id="circle204"/>
	<circle cx="757.133" cy="171.207" r="4" fill="#0" id="circle205"/>
	<circle cx="764.159" cy="314.527" r="4" fill="#0" id="circle206"/>
	<circle cx="771.184" cy="172.612" r="4" fill="#0" id="circle207"/>
	<circle cx="778.21" cy="185.258" r="4" fill="#0" id="circle208"/>
	<circle cx="778.21" cy="307.501" r="4" fill="#0" id="circle209"/>
	<circle cx="789.45" cy="193.688" r="4" fill="#0" id="circle210"/>
	<circle cx="792.261" cy="307.501" r="4" fill="#0" id="circle211"/>
	<circle cx="802.096" cy="200.714" r="4" fill="#0" id="circle212"/>
	<circle cx="804.907" cy="300.476" r="4" fill="#0" id="circle213"/>
	<circle cx="814.742" cy="207.739" r="4" fill="#0" id="circle214"/>
	<circle cx="818.958" cy="300.476" r="4" fill="#0" id="circle215"/>
	<circle cx="825.983" cy="217.575" r="4" fill="#0" id="circle216"/>
	<circle cx="831.603" cy="293.45" r="4" fill="#0" id="circle217"/>
	<circle cx="834.414" cy="228.816" r="4" fill="#0" id="circle218"/>
	<circle cx="845.654" cy="293.45" r="4" fill="#0" id="circle219"/>
	<circle cx="847.059" cy="235.841" r="4" fill="#0" id="circle220"/>
	<circle cx="855.49" cy="247.082" r="4" fill="#0" id="circle221"/>
	<circle cx="858.3" cy="285.02" r="4" fill="#0" id="circle222"/>
	<circle cx="861.11" cy="261.133" r="4" fill="#0" id="circle223"/>
	</g>
</svg>