<?xml version="1.0" encoding="UTF-8" standalone="no"?>
<!-- Created with CurveBenchmark -->
<svg
	xmlns:dc="http://purl.org/dc/elements/1.1/"
	xmlns:cc="http://creativecommons.org/ns#"
	xmlns:rdf="http://www.w3.org/1999/02/22-rdf-syntax-ns#"
	xmlns:svg="http://www.w3.org/2000/svg"
	xmlns="http://www.w3.org/2000/svg"
	xmlns:sodipodi="http://sodipodi.sourceforge.net/DTD/sodipodi-0.dtd"
	xmlns:inkscape="http://www.inkscape.org/namespaces/inkscape"
	width="1000"
	height="1000"
	id="svg2"
	version="1.1"
	sodipodi:docname="manifold/discur-car19.png.txt">
<defs
	id="defs4" />
<metadata
	id="metadata7">
	<rdf:RDF>
		<cc:Work
			rdf:about="">
			<dc:format>image/svg+xml</dc:format>
			<dc:type
				rdf:resource="http://purl.org/dc/dcmitype/StillImage" />
			<dc:title></dc:title>
		</cc:Work>
	</rdf:RDF>
</metadata>
<g
	inkscape:label="Layer 1"
	inkscape:groupmode="layer"
	id="layer1">
	<path style="fill:none;stroke:red;stroke-width:1px;stroke-linecap:butt;stroke-linejoin:miter;stroke-opacity:1" d="M 4,248.894 12.873,264.866 z" id="boundary" inkscape:connector-curvature="0" />
	<path style="fill:none;stroke:red;stroke-width:1px;stroke-linecap:butt;stroke-linejoin:miter;stroke-opacity:1" d="M 4,248.894 18.1968,234.698 z" id="boundary" inkscape:connector-curvature="0" />
	<path style="fill:none;stroke:red;stroke-width:1px;stroke-linecap:butt;stroke-linejoin:miter;stroke-opacity:1" d="M 12.873,264.866 12.873,282.612 z" id="boundary" inkscape:connector-curvature="0" />
	<path style="fill:none;stroke:red;stroke-width:1px;stroke-linecap:butt;stroke-linejoin:miter;stroke-opacity:1" d="M 12.873,282.612 21.746,298.583 z" id="boundary" inkscape:connector-curvature="0" />
	<path style="fill:none;stroke:red;stroke-width:1px;stroke-linecap:butt;stroke-linejoin:miter;stroke-opacity:1" d="M 18.1968,234.698 35.9428,225.825 z" id="boundary" inkscape:connector-curvature="0" />
	<path style="fill:none;stroke:red;stroke-width:1px;stroke-linecap:butt;stroke-linejoin:miter;stroke-opacity:1" d="M 21.746,298.583 27.0698,316.329 z" id="boundary" inkscape:connector-curvature="0" />
	<path style="fill:none;stroke:red;stroke-width:1px;stroke-linecap:butt;stroke-linejoin:miter;stroke-opacity:1" d="M 27.0698,316.329 30.619,334.075 z" id="boundary" inkscape:connector-curvature="0" />
	<path style="fill:none;stroke:red;stroke-width:1px;stroke-linecap:butt;stroke-linejoin:miter;stroke-opacity:1" d="M 30.619,334.075 35.9428,351.821 z" id="boundary" inkscape:connector-curvature="0" />
	<path style="fill:none;stroke:red;stroke-width:1px;stroke-linecap:butt;stroke-linejoin:miter;stroke-opacity:1" d="M 30.619,390.862 30.619,408.608 z" id="boundary" inkscape:connector-curvature="0" />
	<path style="fill:none;stroke:red;stroke-width:1px;stroke-linecap:butt;stroke-linejoin:miter;stroke-opacity:1" d="M 30.619,390.862 39.4919,369.567 z" id="boundary" inkscape:connector-curvature="0" />
	<path style="fill:none;stroke:red;stroke-width:1px;stroke-linecap:butt;stroke-linejoin:miter;stroke-opacity:1" d="M 30.619,408.608 30.619,426.354 z" id="boundary" inkscape:connector-curvature="0" />
	<path style="fill:none;stroke:red;stroke-width:1px;stroke-linecap:butt;stroke-linejoin:miter;stroke-opacity:1" d="M 30.619,426.354 39.4919,442.326 z" id="boundary" inkscape:connector-curvature="0" />
	<path style="fill:none;stroke:red;stroke-width:1px;stroke-linecap:butt;stroke-linejoin:miter;stroke-opacity:1" d="M 35.9428,225.825 53.6887,216.952 z" id="boundary" inkscape:connector-curvature="0" />
	<path style="fill:none;stroke:red;stroke-width:1px;stroke-linecap:butt;stroke-linejoin:miter;stroke-opacity:1" d="M 35.9428,351.821 39.4919,369.567 z" id="boundary" inkscape:connector-curvature="0" />
	<path style="fill:none;stroke:red;stroke-width:1px;stroke-linecap:butt;stroke-linejoin:miter;stroke-opacity:1" d="M 39.4919,442.326 39.4919,460.072 z" id="boundary" inkscape:connector-curvature="0" />
	<path style="fill:none;stroke:red;stroke-width:1px;stroke-linecap:butt;stroke-linejoin:miter;stroke-opacity:1" d="M 39.4919,460.072 39.4919,477.818 z" id="boundary" inkscape:connector-curvature="0" />
	<path style="fill:none;stroke:red;stroke-width:1px;stroke-linecap:butt;stroke-linejoin:miter;stroke-opacity:1" d="M 39.4919,477.818 57.2379,484.916 z" id="boundary" inkscape:connector-curvature="0" />
	<path style="fill:none;stroke:red;stroke-width:1px;stroke-linecap:butt;stroke-linejoin:miter;stroke-opacity:1" d="M 53.6887,216.952 69.6601,208.079 z" id="boundary" inkscape:connector-curvature="0" />
	<path style="fill:none;stroke:red;stroke-width:1px;stroke-linecap:butt;stroke-linejoin:miter;stroke-opacity:1" d="M 57.2379,484.916 74.9839,484.916 z" id="boundary" inkscape:connector-curvature="0" />
	<path style="fill:none;stroke:red;stroke-width:1px;stroke-linecap:butt;stroke-linejoin:miter;stroke-opacity:1" d="M 69.6601,208.079 85.6315,199.206 z" id="boundary" inkscape:connector-curvature="0" />
	<path style="fill:none;stroke:red;stroke-width:1px;stroke-linecap:butt;stroke-linejoin:miter;stroke-opacity:1" d="M 74.9839,484.916 92.7299,484.916 z" id="boundary" inkscape:connector-curvature="0" />
	<path style="fill:none;stroke:red;stroke-width:1px;stroke-linecap:butt;stroke-linejoin:miter;stroke-opacity:1" d="M 85.6315,199.206 101.603,186.784 z" id="boundary" inkscape:connector-curvature="0" />
	<path style="fill:none;stroke:red;stroke-width:1px;stroke-linecap:butt;stroke-linejoin:miter;stroke-opacity:1" d="M 92.7299,484.916 110.476,479.592 z" id="boundary" inkscape:connector-curvature="0" />
	<path style="fill:none;stroke:red;stroke-width:1px;stroke-linecap:butt;stroke-linejoin:miter;stroke-opacity:1" d="M 101.603,186.784 119.349,181.46 z" id="boundary" inkscape:connector-curvature="0" />
	<path style="fill:none;stroke:red;stroke-width:1px;stroke-linecap:butt;stroke-linejoin:miter;stroke-opacity:1" d="M 110.476,479.592 128.222,470.719 z" id="boundary" inkscape:connector-curvature="0" />
	<path style="fill:none;stroke:red;stroke-width:1px;stroke-linecap:butt;stroke-linejoin:miter;stroke-opacity:1" d="M 119.349,181.46 137.095,177.911 z" id="boundary" inkscape:connector-curvature="0" />
	<path style="fill:none;stroke:red;stroke-width:1px;stroke-linecap:butt;stroke-linejoin:miter;stroke-opacity:1" d="M 128.222,470.719 145.968,467.17 z" id="boundary" inkscape:connector-curvature="0" />
	<path style="fill:none;stroke:red;stroke-width:1px;stroke-linecap:butt;stroke-linejoin:miter;stroke-opacity:1" d="M 137.095,177.911 154.841,181.46 z" id="boundary" inkscape:connector-curvature="0" />
	<path style="fill:none;stroke:red;stroke-width:1px;stroke-linecap:butt;stroke-linejoin:miter;stroke-opacity:1" d="M 145.968,467.17 156.615,449.424 z" id="boundary" inkscape:connector-curvature="0" />
	<path style="fill:none;stroke:red;stroke-width:1px;stroke-linecap:butt;stroke-linejoin:miter;stroke-opacity:1" d="M 154.841,181.46 172.587,176.136 z" id="boundary" inkscape:connector-curvature="0" />
	<path style="fill:none;stroke:red;stroke-width:1px;stroke-linecap:butt;stroke-linejoin:miter;stroke-opacity:1" d="M 156.615,449.424 174.361,440.551 z" id="boundary" inkscape:connector-curvature="0" />
	<path style="fill:none;stroke:red;stroke-width:1px;stroke-linecap:butt;stroke-linejoin:miter;stroke-opacity:1" d="M 172.587,176.136 190.333,172.587 z" id="boundary" inkscape:connector-curvature="0" />
	<path style="fill:none;stroke:red;stroke-width:1px;stroke-linecap:butt;stroke-linejoin:miter;stroke-opacity:1" d="M 174.361,440.551 185.009,454.748 z" id="boundary" inkscape:connector-curvature="0" />
	<path style="fill:none;stroke:red;stroke-width:1px;stroke-linecap:butt;stroke-linejoin:miter;stroke-opacity:1" d="M 185.009,454.748 195.657,440.551 z" id="boundary" inkscape:connector-curvature="0" />
	<path style="fill:none;stroke:red;stroke-width:1px;stroke-linecap:butt;stroke-linejoin:miter;stroke-opacity:1" d="M 190.333,172.587 208.079,172.587 z" id="boundary" inkscape:connector-curvature="0" />
	<path style="fill:none;stroke:red;stroke-width:1px;stroke-linecap:butt;stroke-linejoin:miter;stroke-opacity:1" d="M 195.657,440.551 211.628,449.424 z" id="boundary" inkscape:connector-curvature="0" />
	<path style="fill:none;stroke:red;stroke-width:1px;stroke-linecap:butt;stroke-linejoin:miter;stroke-opacity:1" d="M 208.079,172.587 225.825,172.587 z" id="boundary" inkscape:connector-curvature="0" />
	<path style="fill:none;stroke:red;stroke-width:1px;stroke-linecap:butt;stroke-linejoin:miter;stroke-opacity:1" d="M 211.628,449.424 229.374,454.748 z" id="boundary" inkscape:connector-curvature="0" />
	<path style="fill:none;stroke:red;stroke-width:1px;stroke-linecap:butt;stroke-linejoin:miter;stroke-opacity:1" d="M 225.825,172.587 243.571,172.587 z" id="boundary" inkscape:connector-curvature="0" />
	<path style="fill:none;stroke:red;stroke-width:1px;stroke-linecap:butt;stroke-linejoin:miter;stroke-opacity:1" d="M 229.374,454.748 240.021,440.551 z" id="boundary" inkscape:connector-curvature="0" />
	<path style="fill:none;stroke:red;stroke-width:1px;stroke-linecap:butt;stroke-linejoin:miter;stroke-opacity:1" d="M 240.021,440.551 257.767,440.551 z" id="boundary" inkscape:connector-curvature="0" />
	<path style="fill:none;stroke:red;stroke-width:1px;stroke-linecap:butt;stroke-linejoin:miter;stroke-opacity:1" d="M 243.571,172.587 261.317,169.038 z" id="boundary" inkscape:connector-curvature="0" />
	<path style="fill:none;stroke:red;stroke-width:1px;stroke-linecap:butt;stroke-linejoin:miter;stroke-opacity:1" d="M 248.894,456.522 257.767,440.551 z" id="boundary" inkscape:connector-curvature="0" />
	<path style="fill:none;stroke:red;stroke-width:1px;stroke-linecap:butt;stroke-linejoin:miter;stroke-opacity:1" d="M 248.894,456.522 266.64,456.522 z" id="boundary" inkscape:connector-curvature="0" />
	<path style="fill:none;stroke:red;stroke-width:1px;stroke-linecap:butt;stroke-linejoin:miter;stroke-opacity:1" d="M 261.317,151.292 261.317,169.038 z" id="boundary" inkscape:connector-curvature="0" />
	<path style="fill:none;stroke:red;stroke-width:1px;stroke-linecap:butt;stroke-linejoin:miter;stroke-opacity:1" d="M 261.317,151.292 270.19,133.546 z" id="boundary" inkscape:connector-curvature="0" />
	<path style="fill:none;stroke:red;stroke-width:1px;stroke-linecap:butt;stroke-linejoin:miter;stroke-opacity:1" d="M 266.64,456.522 284.386,449.424 z" id="boundary" inkscape:connector-curvature="0" />
	<path style="fill:none;stroke:red;stroke-width:1px;stroke-linecap:butt;stroke-linejoin:miter;stroke-opacity:1" d="M 270.19,133.546 284.386,119.349 z" id="boundary" inkscape:connector-curvature="0" />
	<path style="fill:none;stroke:red;stroke-width:1px;stroke-linecap:butt;stroke-linejoin:miter;stroke-opacity:1" d="M 284.386,119.349 302.132,119.349 z" id="boundary" inkscape:connector-curvature="0" />
	<path style="fill:none;stroke:red;stroke-width:1px;stroke-linecap:butt;stroke-linejoin:miter;stroke-opacity:1" d="M 284.386,449.424 300.358,440.551 z" id="boundary" inkscape:connector-curvature="0" />
	<path style="fill:none;stroke:red;stroke-width:1px;stroke-linecap:butt;stroke-linejoin:miter;stroke-opacity:1" d="M 300.358,440.551 309.231,456.522 z" id="boundary" inkscape:connector-curvature="0" />
	<path style="fill:none;stroke:red;stroke-width:1px;stroke-linecap:butt;stroke-linejoin:miter;stroke-opacity:1" d="M 302.132,119.349 319.878,119.349 z" id="boundary" inkscape:connector-curvature="0" />
	<path style="fill:none;stroke:red;stroke-width:1px;stroke-linecap:butt;stroke-linejoin:miter;stroke-opacity:1" d="M 309.231,456.522 326.977,456.522 z" id="boundary" inkscape:connector-curvature="0" />
	<path style="fill:none;stroke:red;stroke-width:1px;stroke-linecap:butt;stroke-linejoin:miter;stroke-opacity:1" d="M 318.104,440.551 326.977,456.522 z" id="boundary" inkscape:connector-curvature="0" />
	<path style="fill:none;stroke:red;stroke-width:1px;stroke-linecap:butt;stroke-linejoin:miter;stroke-opacity:1" d="M 318.104,440.551 335.85,440.551 z" id="boundary" inkscape:connector-curvature="0" />
	<path style="fill:none;stroke:red;stroke-width:1px;stroke-linecap:butt;stroke-linejoin:miter;stroke-opacity:1" d="M 319.878,119.349 337.624,119.349 z" id="boundary" inkscape:connector-curvature="0" />
	<path style="fill:none;stroke:red;stroke-width:1px;stroke-linecap:butt;stroke-linejoin:miter;stroke-opacity:1" d="M 335.85,440.551 351.821,449.424 z" id="boundary" inkscape:connector-curvature="0" />
	<path style="fill:none;stroke:red;stroke-width:1px;stroke-linecap:butt;stroke-linejoin:miter;stroke-opacity:1" d="M 337.624,119.349 355.37,110.476 z" id="boundary" inkscape:connector-curvature="0" />
	<path style="fill:none;stroke:red;stroke-width:1px;stroke-linecap:butt;stroke-linejoin:miter;stroke-opacity:1" d="M 351.821,449.424 369.567,452.973 z" id="boundary" inkscape:connector-curvature="0" />
	<path style="fill:none;stroke:red;stroke-width:1px;stroke-linecap:butt;stroke-linejoin:miter;stroke-opacity:1" d="M 355.37,110.476 373.116,101.603 z" id="boundary" inkscape:connector-curvature="0" />
	<path style="fill:none;stroke:red;stroke-width:1px;stroke-linecap:butt;stroke-linejoin:miter;stroke-opacity:1" d="M 369.567,452.973 383.764,440.551 z" id="boundary" inkscape:connector-curvature="0" />
	<path style="fill:none;stroke:red;stroke-width:1px;stroke-linecap:butt;stroke-linejoin:miter;stroke-opacity:1" d="M 373.116,101.603 390.862,101.603 z" id="boundary" inkscape:connector-curvature="0" />
	<path style="fill:none;stroke:red;stroke-width:1px;stroke-linecap:butt;stroke-linejoin:miter;stroke-opacity:1" d="M 383.764,440.551 399.735,449.424 z" id="boundary" inkscape:connector-curvature="0" />
	<path style="fill:none;stroke:red;stroke-width:1px;stroke-linecap:butt;stroke-linejoin:miter;stroke-opacity:1" d="M 390.862,101.603 405.059,112.25 z" id="boundary" inkscape:connector-curvature="0" />
	<path style="fill:none;stroke:red;stroke-width:1px;stroke-linecap:butt;stroke-linejoin:miter;stroke-opacity:1" d="M 399.735,449.424 405.059,422.805 z" id="boundary" inkscape:connector-curvature="0" />
	<path style="fill:none;stroke:red;stroke-width:1px;stroke-linecap:butt;stroke-linejoin:miter;stroke-opacity:1" d="M 405.059,112.25 419.256,122.898 z" id="boundary" inkscape:connector-curvature="0" />
	<path style="fill:none;stroke:red;stroke-width:1px;stroke-linecap:butt;stroke-linejoin:miter;stroke-opacity:1" d="M 405.059,422.805 419.256,410.383 z" id="boundary" inkscape:connector-curvature="0" />
	<path style="fill:none;stroke:red;stroke-width:1px;stroke-linecap:butt;stroke-linejoin:miter;stroke-opacity:1" d="M 419.256,122.898 437.002,128.222 z" id="boundary" inkscape:connector-curvature="0" />
	<path style="fill:none;stroke:red;stroke-width:1px;stroke-linecap:butt;stroke-linejoin:miter;stroke-opacity:1" d="M 419.256,410.383 431.678,396.186 z" id="boundary" inkscape:connector-curvature="0" />
	<path style="fill:none;stroke:red;stroke-width:1px;stroke-linecap:butt;stroke-linejoin:miter;stroke-opacity:1" d="M 431.678,396.186 449.424,399.735 z" id="boundary" inkscape:connector-curvature="0" />
	<path style="fill:none;stroke:red;stroke-width:1px;stroke-linecap:butt;stroke-linejoin:miter;stroke-opacity:1" d="M 437.002,128.222 444.1,110.476 z" id="boundary" inkscape:connector-curvature="0" />
	<path style="fill:none;stroke:red;stroke-width:1px;stroke-linecap:butt;stroke-linejoin:miter;stroke-opacity:1" d="M 444.1,110.476 447.649,89.1807 z" id="boundary" inkscape:connector-curvature="0" />
	<path style="fill:none;stroke:red;stroke-width:1px;stroke-linecap:butt;stroke-linejoin:miter;stroke-opacity:1" d="M 447.649,71.4347 447.649,89.1807 z" id="boundary" inkscape:connector-curvature="0" />
	<path style="fill:none;stroke:red;stroke-width:1px;stroke-linecap:butt;stroke-linejoin:miter;stroke-opacity:1" d="M 447.649,71.4347 456.522,53.6887 z" id="boundary" inkscape:connector-curvature="0" />
	<path style="fill:none;stroke:red;stroke-width:1px;stroke-linecap:butt;stroke-linejoin:miter;stroke-opacity:1" d="M 449.424,399.735 456.522,417.481 z" id="boundary" inkscape:connector-curvature="0" />
	<path style="fill:none;stroke:red;stroke-width:1px;stroke-linecap:butt;stroke-linejoin:miter;stroke-opacity:1" d="M 456.522,53.6887 465.395,35.9428 z" id="boundary" inkscape:connector-curvature="0" />
	<path style="fill:none;stroke:red;stroke-width:1px;stroke-linecap:butt;stroke-linejoin:miter;stroke-opacity:1" d="M 456.522,417.481 456.522,435.227 z" id="boundary" inkscape:connector-curvature="0" />
	<path style="fill:none;stroke:red;stroke-width:1px;stroke-linecap:butt;stroke-linejoin:miter;stroke-opacity:1" d="M 456.522,435.227 456.522,452.973 z" id="boundary" inkscape:connector-curvature="0" />
	<path style="fill:none;stroke:red;stroke-width:1px;stroke-linecap:butt;stroke-linejoin:miter;stroke-opacity:1" d="M 456.522,452.973 465.395,468.945 z" id="boundary" inkscape:connector-curvature="0" />
	<path style="fill:none;stroke:red;stroke-width:1px;stroke-linecap:butt;stroke-linejoin:miter;stroke-opacity:1" d="M 465.395,35.9428 479.592,21.746 z" id="boundary" inkscape:connector-curvature="0" />
	<path style="fill:none;stroke:red;stroke-width:1px;stroke-linecap:butt;stroke-linejoin:miter;stroke-opacity:1" d="M 465.395,468.945 477.818,483.141 z" id="boundary" inkscape:connector-curvature="0" />
	<path style="fill:none;stroke:red;stroke-width:1px;stroke-linecap:butt;stroke-linejoin:miter;stroke-opacity:1" d="M 477.818,483.141 492.014,493.789 z" id="boundary" inkscape:connector-curvature="0" />
	<path style="fill:none;stroke:red;stroke-width:1px;stroke-linecap:butt;stroke-linejoin:miter;stroke-opacity:1" d="M 479.592,21.746 497.338,12.873 z" id="boundary" inkscape:connector-curvature="0" />
	<path style="fill:none;stroke:red;stroke-width:1px;stroke-linecap:butt;stroke-linejoin:miter;stroke-opacity:1" d="M 492.014,493.789 507.986,502.662 z" id="boundary" inkscape:connector-curvature="0" />
	<path style="fill:none;stroke:red;stroke-width:1px;stroke-linecap:butt;stroke-linejoin:miter;stroke-opacity:1" d="M 497.338,12.873 515.084,12.873 z" id="boundary" inkscape:connector-curvature="0" />
	<path style="fill:none;stroke:red;stroke-width:1px;stroke-linecap:butt;stroke-linejoin:miter;stroke-opacity:1" d="M 507.986,502.662 525.732,499.113 z" id="boundary" inkscape:connector-curvature="0" />
	<path style="fill:none;stroke:red;stroke-width:1px;stroke-linecap:butt;stroke-linejoin:miter;stroke-opacity:1" d="M 515.084,12.873 531.055,4 z" id="boundary" inkscape:connector-curvature="0" />
	<path style="fill:none;stroke:red;stroke-width:1px;stroke-linecap:butt;stroke-linejoin:miter;stroke-opacity:1" d="M 525.732,499.113 538.154,484.916 z" id="boundary" inkscape:connector-curvature="0" />
	<path style="fill:none;stroke:red;stroke-width:1px;stroke-linecap:butt;stroke-linejoin:miter;stroke-opacity:1" d="M 531.055,4 548.801,4 z" id="boundary" inkscape:connector-curvature="0" />
	<path style="fill:none;stroke:red;stroke-width:1px;stroke-linecap:butt;stroke-linejoin:miter;stroke-opacity:1" d="M 538.154,484.916 552.351,472.494 z" id="boundary" inkscape:connector-curvature="0" />
	<path style="fill:none;stroke:red;stroke-width:1px;stroke-linecap:butt;stroke-linejoin:miter;stroke-opacity:1" d="M 548.801,4 566.547,4 z" id="boundary" inkscape:connector-curvature="0" />
	<path style="fill:none;stroke:red;stroke-width:1px;stroke-linecap:butt;stroke-linejoin:miter;stroke-opacity:1" d="M 552.351,472.494 564.773,449.424 z" id="boundary" inkscape:connector-curvature="0" />
	<path style="fill:none;stroke:red;stroke-width:1px;stroke-linecap:butt;stroke-linejoin:miter;stroke-opacity:1" d="M 564.773,422.805 564.773,449.424 z" id="boundary" inkscape:connector-curvature="0" />
	<path style="fill:none;stroke:red;stroke-width:1px;stroke-linecap:butt;stroke-linejoin:miter;stroke-opacity:1" d="M 564.773,422.805 582.519,413.932 z" id="boundary" inkscape:connector-curvature="0" />
	<path style="fill:none;stroke:red;stroke-width:1px;stroke-linecap:butt;stroke-linejoin:miter;stroke-opacity:1" d="M 566.547,4 584.293,4 z" id="boundary" inkscape:connector-curvature="0" />
	<path style="fill:none;stroke:red;stroke-width:1px;stroke-linecap:butt;stroke-linejoin:miter;stroke-opacity:1" d="M 582.519,413.932 600.265,413.932 z" id="boundary" inkscape:connector-curvature="0" />
	<path style="fill:none;stroke:red;stroke-width:1px;stroke-linecap:butt;stroke-linejoin:miter;stroke-opacity:1" d="M 584.293,4 602.039,4 z" id="boundary" inkscape:connector-curvature="0" />
	<path style="fill:none;stroke:red;stroke-width:1px;stroke-linecap:butt;stroke-linejoin:miter;stroke-opacity:1" d="M 600.265,413.932 618.011,413.932 z" id="boundary" inkscape:connector-curvature="0" />
	<path style="fill:none;stroke:red;stroke-width:1px;stroke-linecap:butt;stroke-linejoin:miter;stroke-opacity:1" d="M 602.039,4 619.785,4 z" id="boundary" inkscape:connector-curvature="0" />
	<path style="fill:none;stroke:red;stroke-width:1px;stroke-linecap:butt;stroke-linejoin:miter;stroke-opacity:1" d="M 618.011,413.932 635.757,413.932 z" id="boundary" inkscape:connector-curvature="0" />
	<path style="fill:none;stroke:red;stroke-width:1px;stroke-linecap:butt;stroke-linejoin:miter;stroke-opacity:1" d="M 619.785,4 637.531,4 z" id="boundary" inkscape:connector-curvature="0" />
	<path style="fill:none;stroke:red;stroke-width:1px;stroke-linecap:butt;stroke-linejoin:miter;stroke-opacity:1" d="M 635.757,413.932 653.503,413.932 z" id="boundary" inkscape:connector-curvature="0" />
	<path style="fill:none;stroke:red;stroke-width:1px;stroke-linecap:butt;stroke-linejoin:miter;stroke-opacity:1" d="M 637.531,4 655.277,4 z" id="boundary" inkscape:connector-curvature="0" />
	<path style="fill:none;stroke:red;stroke-width:1px;stroke-linecap:butt;stroke-linejoin:miter;stroke-opacity:1" d="M 653.503,413.932 671.249,405.059 z" id="boundary" inkscape:connector-curvature="0" />
	<path style="fill:none;stroke:red;stroke-width:1px;stroke-linecap:butt;stroke-linejoin:miter;stroke-opacity:1" d="M 655.277,4 671.249,12.873 z" id="boundary" inkscape:connector-curvature="0" />
	<path style="fill:none;stroke:red;stroke-width:1px;stroke-linecap:butt;stroke-linejoin:miter;stroke-opacity:1" d="M 671.249,12.873 688.995,7.54919 z" id="boundary" inkscape:connector-curvature="0" />
	<path style="fill:none;stroke:red;stroke-width:1px;stroke-linecap:butt;stroke-linejoin:miter;stroke-opacity:1" d="M 671.249,405.059 688.995,405.059 z" id="boundary" inkscape:connector-curvature="0" />
	<path style="fill:none;stroke:red;stroke-width:1px;stroke-linecap:butt;stroke-linejoin:miter;stroke-opacity:1" d="M 688.995,7.54919 706.741,12.873 z" id="boundary" inkscape:connector-curvature="0" />
	<path style="fill:none;stroke:red;stroke-width:1px;stroke-linecap:butt;stroke-linejoin:miter;stroke-opacity:1" d="M 688.995,405.059 706.741,405.059 z" id="boundary" inkscape:connector-curvature="0" />
	<path style="fill:none;stroke:red;stroke-width:1px;stroke-linecap:butt;stroke-linejoin:miter;stroke-opacity:1" d="M 706.741,12.873 724.487,12.873 z" id="boundary" inkscape:connector-curvature="0" />
	<path style="fill:none;stroke:red;stroke-width:1px;stroke-linecap:butt;stroke-linejoin:miter;stroke-opacity:1" d="M 706.741,405.059 724.487,405.059 z" id="boundary" inkscape:connector-curvature="0" />
	<path style="fill:none;stroke:red;stroke-width:1px;stroke-linecap:butt;stroke-linejoin:miter;stroke-opacity:1" d="M 724.487,12.873 742.233,12.873 z" id="boundary" inkscape:connector-curvature="0" />
	<path style="fill:none;stroke:red;stroke-width:1px;stroke-linecap:butt;stroke-linejoin:miter;stroke-opacity:1" d="M 724.487,405.059 742.233,405.059 z" id="boundary" inkscape:connector-curvature="0" />
	<path style="fill:none;stroke:red;stroke-width:1px;stroke-linecap:butt;stroke-linejoin:miter;stroke-opacity:1" d="M 742.233,12.873 756.429,23.5206 z" id="boundary" inkscape:connector-curvature="0" />
	<path style="fill:none;stroke:red;stroke-width:1px;stroke-linecap:butt;stroke-linejoin:miter;stroke-opacity:1" d="M 742.233,405.059 759.979,405.059 z" id="boundary" inkscape:connector-curvature="0" />
	<path style="fill:none;stroke:red;stroke-width:1px;stroke-linecap:butt;stroke-linejoin:miter;stroke-opacity:1" d="M 756.429,23.5206 768.852,37.7174 z" id="boundary" inkscape:connector-curvature="0" />
	<path style="fill:none;stroke:red;stroke-width:1px;stroke-linecap:butt;stroke-linejoin:miter;stroke-opacity:1" d="M 759.979,405.059 777.725,405.059 z" id="boundary" inkscape:connector-curvature="0" />
	<path style="fill:none;stroke:red;stroke-width:1px;stroke-linecap:butt;stroke-linejoin:miter;stroke-opacity:1" d="M 768.852,37.7174 783.048,50.1395 z" id="boundary" inkscape:connector-curvature="0" />
	<path style="fill:none;stroke:red;stroke-width:1px;stroke-linecap:butt;stroke-linejoin:miter;stroke-opacity:1" d="M 777.725,405.059 793.696,396.186 z" id="boundary" inkscape:connector-curvature="0" />
	<path style="fill:none;stroke:red;stroke-width:1px;stroke-linecap:butt;stroke-linejoin:miter;stroke-opacity:1" d="M 783.048,50.1395 786.597,67.8855 z" id="boundary" inkscape:connector-curvature="0" />
	<path style="fill:none;stroke:red;stroke-width:1px;stroke-linecap:butt;stroke-linejoin:miter;stroke-opacity:1" d="M 786.597,67.8855 786.597,85.6315 z" id="boundary" inkscape:connector-curvature="0" />
	<path style="fill:none;stroke:red;stroke-width:1px;stroke-linecap:butt;stroke-linejoin:miter;stroke-opacity:1" d="M 786.597,85.6315 786.597,103.377 z" id="boundary" inkscape:connector-curvature="0" />
	<path style="fill:none;stroke:red;stroke-width:1px;stroke-linecap:butt;stroke-linejoin:miter;stroke-opacity:1" d="M 786.597,103.377 795.47,119.349 z" id="boundary" inkscape:connector-curvature="0" />
	<path style="fill:none;stroke:red;stroke-width:1px;stroke-linecap:butt;stroke-linejoin:miter;stroke-opacity:1" d="M 793.696,396.186 811.442,396.186 z" id="boundary" inkscape:connector-curvature="0" />
	<path style="fill:none;stroke:red;stroke-width:1px;stroke-linecap:butt;stroke-linejoin:miter;stroke-opacity:1" d="M 795.47,119.349 804.343,135.32 z" id="boundary" inkscape:connector-curvature="0" />
	<path style="fill:none;stroke:red;stroke-width:1px;stroke-linecap:butt;stroke-linejoin:miter;stroke-opacity:1" d="M 804.343,135.32 822.089,133.546 z" id="boundary" inkscape:connector-curvature="0" />
	<path style="fill:none;stroke:red;stroke-width:1px;stroke-linecap:butt;stroke-linejoin:miter;stroke-opacity:1" d="M 811.442,396.186 820.315,412.157 z" id="boundary" inkscape:connector-curvature="0" />
	<path style="fill:none;stroke:red;stroke-width:1px;stroke-linecap:butt;stroke-linejoin:miter;stroke-opacity:1" d="M 811.442,435.227 820.315,412.157 z" id="boundary" inkscape:connector-curvature="0" />
	<path style="fill:none;stroke:red;stroke-width:1px;stroke-linecap:butt;stroke-linejoin:miter;stroke-opacity:1" d="M 811.442,435.227 825.639,447.649 z" id="boundary" inkscape:connector-curvature="0" />
	<path style="fill:none;stroke:red;stroke-width:1px;stroke-linecap:butt;stroke-linejoin:miter;stroke-opacity:1" d="M 822.089,133.546 836.286,145.968 z" id="boundary" inkscape:connector-curvature="0" />
	<path style="fill:none;stroke:red;stroke-width:1px;stroke-linecap:butt;stroke-linejoin:miter;stroke-opacity:1" d="M 825.639,447.649 839.835,458.297 z" id="boundary" inkscape:connector-curvature="0" />
	<path style="fill:none;stroke:red;stroke-width:1px;stroke-linecap:butt;stroke-linejoin:miter;stroke-opacity:1" d="M 836.286,145.968 852.258,154.841 z" id="boundary" inkscape:connector-curvature="0" />
	<path style="fill:none;stroke:red;stroke-width:1px;stroke-linecap:butt;stroke-linejoin:miter;stroke-opacity:1" d="M 839.835,458.297 857.581,458.297 z" id="boundary" inkscape:connector-curvature="0" />
	<path style="fill:none;stroke:red;stroke-width:1px;stroke-linecap:butt;stroke-linejoin:miter;stroke-opacity:1" d="M 852.258,154.841 868.229,145.968 z" id="boundary" inkscape:connector-curvature="0" />
	<path style="fill:none;stroke:red;stroke-width:1px;stroke-linecap:butt;stroke-linejoin:miter;stroke-opacity:1" d="M 857.581,458.297 871.778,445.875 z" id="boundary" inkscape:connector-curvature="0" />
	<path style="fill:none;stroke:red;stroke-width:1px;stroke-linecap:butt;stroke-linejoin:miter;stroke-opacity:1" d="M 868.229,145.968 884.2,154.841 z" id="boundary" inkscape:connector-curvature="0" />
	<path style="fill:none;stroke:red;stroke-width:1px;stroke-linecap:butt;stroke-linejoin:miter;stroke-opacity:1" d="M 871.778,445.875 882.426,431.678 z" id="boundary" inkscape:connector-curvature="0" />
	<path style="fill:none;stroke:red;stroke-width:1px;stroke-linecap:butt;stroke-linejoin:miter;stroke-opacity:1" d="M 882.426,431.678 893.073,413.932 z" id="boundary" inkscape:connector-curvature="0" />
	<path style="fill:none;stroke:red;stroke-width:1px;stroke-linecap:butt;stroke-linejoin:miter;stroke-opacity:1" d="M 884.2,154.841 901.946,151.292 z" id="boundary" inkscape:connector-curvature="0" />
	<path style="fill:none;stroke:red;stroke-width:1px;stroke-linecap:butt;stroke-linejoin:miter;stroke-opacity:1" d="M 893.073,413.932 901.946,387.313 z" id="boundary" inkscape:connector-curvature="0" />
	<path style="fill:none;stroke:red;stroke-width:1px;stroke-linecap:butt;stroke-linejoin:miter;stroke-opacity:1" d="M 901.946,151.292 919.692,154.841 z" id="boundary" inkscape:connector-curvature="0" />
	<path style="fill:none;stroke:red;stroke-width:1px;stroke-linecap:butt;stroke-linejoin:miter;stroke-opacity:1" d="M 901.946,387.313 917.918,378.44 z" id="boundary" inkscape:connector-curvature="0" />
	<path style="fill:none;stroke:red;stroke-width:1px;stroke-linecap:butt;stroke-linejoin:miter;stroke-opacity:1" d="M 917.918,378.44 932.114,367.792 z" id="boundary" inkscape:connector-curvature="0" />
	<path style="fill:none;stroke:red;stroke-width:1px;stroke-linecap:butt;stroke-linejoin:miter;stroke-opacity:1" d="M 919.692,154.841 937.438,160.165 z" id="boundary" inkscape:connector-curvature="0" />
	<path style="fill:none;stroke:red;stroke-width:1px;stroke-linecap:butt;stroke-linejoin:miter;stroke-opacity:1" d="M 932.114,367.792 946.311,351.821 z" id="boundary" inkscape:connector-curvature="0" />
	<path style="fill:none;stroke:red;stroke-width:1px;stroke-linecap:butt;stroke-linejoin:miter;stroke-opacity:1" d="M 937.438,160.165 955.184,163.714 z" id="boundary" inkscape:connector-curvature="0" />
	<path style="fill:none;stroke:red;stroke-width:1px;stroke-linecap:butt;stroke-linejoin:miter;stroke-opacity:1" d="M 946.311,351.821 960.508,339.399 z" id="boundary" inkscape:connector-curvature="0" />
	<path style="fill:none;stroke:red;stroke-width:1px;stroke-linecap:butt;stroke-linejoin:miter;stroke-opacity:1" d="M 955.184,163.714 972.93,169.038 z" id="boundary" inkscape:connector-curvature="0" />
	<path style="fill:none;stroke:red;stroke-width:1px;stroke-linecap:butt;stroke-linejoin:miter;stroke-opacity:1" d="M 960.508,339.399 972.93,325.202 z" id="boundary" inkscape:connector-curvature="0" />
	<path style="fill:none;stroke:red;stroke-width:1px;stroke-linecap:butt;stroke-linejoin:miter;stroke-opacity:1" d="M 972.93,169.038 985.352,183.234 z" id="boundary" inkscape:connector-curvature="0" />
	<path style="fill:none;stroke:red;stroke-width:1px;stroke-linecap:butt;stroke-linejoin:miter;stroke-opacity:1" d="M 972.93,280.837 972.93,307.456 z" id="boundary" inkscape:connector-curvature="0" />
	<path style="fill:none;stroke:red;stroke-width:1px;stroke-linecap:butt;stroke-linejoin:miter;stroke-opacity:1" d="M 972.93,280.837 981.803,263.091 z" id="boundary" inkscape:connector-curvature="0" />
	<path style="fill:none;stroke:red;stroke-width:1px;stroke-linecap:butt;stroke-linejoin:miter;stroke-opacity:1" d="M 972.93,307.456 972.93,325.202 z" id="boundary" inkscape:connector-curvature="0" />
	<path style="fill:none;stroke:red;stroke-width:1px;stroke-linecap:butt;stroke-linejoin:miter;stroke-opacity:1" d="M 981.803,263.091 996,250.669 z" id="boundary" inkscape:connector-curvature="0" />
	<path style="fill:none;stroke:red;stroke-width:1px;stroke-linecap:butt;stroke-linejoin:miter;stroke-opacity:1" d="M 985.352,183.234 990.676,200.98 z" id="boundary" inkscape:connector-curvature="0" />
	<path style="fill:none;stroke:red;stroke-width:1px;stroke-linecap:butt;stroke-linejoin:miter;stroke-opacity:1" d="M 990.676,200.98 990.676,218.726 z" id="boundary" inkscape:connector-curvature="0" />
	<path style="fill:none;stroke:red;stroke-width:1px;stroke-linecap:butt;stroke-linejoin:miter;stroke-opacity:1" d="M 990.676,218.726 996,250.669 z" id="boundary" inkscape:connector-curvature="0" />
	<circle cx="4" cy="248.894" r="4" fill="#0" id="circle0"/>
	<circle cx="12.873" cy="264.866" r="4" fill="#0" id="circle1"/>
	<circle cx="12.873" cy="282.612" r="4" fill="#0" id="circle2"/>
	<circle cx="18.1968" cy="234.698" r="4" fill="#0" id="circle3"/>
	<circle cx="21.746" cy="298.583" r="4" fill="#0" id="circle4"/>
	<circle cx="27.0698" cy="316.329" r="4" fill="#0" id="circle5"/>
	<circle cx="30.619" cy="334.075" r="4" fill="#0" id="circle6"/>
	<circle cx="30.619" cy="390.862" r="4" fill="#0" id="circle7"/>
	<circle cx="30.619" cy="408.608" r="4" fill="#0" id="circle8"/>
	<circle cx="30.619" cy="426.354" r="4" fill="#0" id="circle9"/>
	<circle cx="35.9428" cy="225.825" r="4" fill="#0" id="circle10"/>
	<circle cx="35.9428" cy="351.821" r="4" fill="#0" id="circle11"/>
	<circle cx="39.4919" cy="369.567" r="4" fill="#0" id="circle12"/>
	<circle cx="39.4919" cy="442.326" r="4" fill="#0" id="circle13"/>
	<circle cx="39.4919" cy="460.072" r="4" fill="#0" id="circle14"/>
	<circle cx="39.4919" cy="477.818" r="4" fill="#0" id="circle15"/>
	<circle cx="53.6887" cy="216.952" r="4" fill="#0" id="circle16"/>
	<circle cx="57.2379" cy="484.916" r="4" fill="#0" id="circle17"/>
	<circle cx="69.6601" cy="208.079" r="4" fill="#0" id="circle18"/>
	<circle cx="74.9839" cy="484.916" r="4" fill="#0" id="circle19"/>
	<circle cx="85.6315" cy="199.206" r="4" fill="#0" id="circle20"/>
	<circle cx="92.7299" cy="484.916" r="4" fill="#0" id="circle21"/>
	<circle cx="101.603" cy="186.784" r="4" fill="#0" id="circle22"/>
	<circle cx="110.476" cy="479.592" r="4" fill="#0" id="circle23"/>
	<circle cx="119.349" cy="181.46" r="4" fill="#0" id="circle24"/>
	<circle cx="128.222" cy="470.719" r="4" fill="#0" id="circle25"/>
	<circle cx="137.095" cy="177.911" r="4" fill="#0" id="circle26"/>
	<circle cx="145.968" cy="467.17" r="4" fill="#0" id="circle27"/>
	<circle cx="154.841" cy="181.46" r="4" fill="#0" id="circle28"/>
	<circle cx="156.615" cy="449.424" r="4" fill="#0" id="circle29"/>
	<circle cx="172.587" cy="176.136" r="4" fill="#0" id="circle30"/>
	<circle cx="174.361" cy="440.551" r="4" fill="#0" id="circle31"/>
	<circle cx="185.009" cy="454.748" r="4" fill="#0" id="circle32"/>
	<circle cx="190.333" cy="172.587" r="4" fill="#0" id="circle33"/>
	<circle cx="195.657" cy="440.551" r="4" fill="#0" id="circle34"/>
	<circle cx="208.079" cy="172.587" r="4" fill="#0" id="circle35"/>
	<circle cx="211.628" cy="449.424" r="4" fill="#0" id="circle36"/>
	<circle cx="225.825" cy="172.587" r="4" fill="#0" id="circle37"/>
	<circle cx="229.374" cy="454.748" r="4" fill="#0" id="circle38"/>
	<circle cx="240.021" cy="440.551" r="4" fill="#0" id="circle39"/>
	<circle cx="243.571" cy="172.587" r="4" fill="#0" id="circle40"/>
	<circle cx="248.894" cy="456.522" r="4" fill="#0" id="circle41"/>
	<circle cx="257.767" cy="440.551" r="4" fill="#0" id="circle42"/>
	<circle cx="261.317" cy="151.292" r="4" fill="#0" id="circle43"/>
	<circle cx="261.317" cy="169.038" r="4" fill="#0" id="circle44"/>
	<circle cx="266.64" cy="456.522" r="4" fill="#0" id="circle45"/>
	<circle cx="270.19" cy="133.546" r="4" fill="#0" id="circle46"/>
	<circle cx="284.386" cy="119.349" r="4" fill="#0" id="circle47"/>
	<circle cx="284.386" cy="449.424" r="4" fill="#0" id="circle48"/>
	<circle cx="300.358" cy="440.551" r="4" fill="#0" id="circle49"/>
	<circle cx="302.132" cy="119.349" r="4" fill="#0" id="circle50"/>
	<circle cx="309.231" cy="456.522" r="4" fill="#0" id="circle51"/>
	<circle cx="318.104" cy="440.551" r="4" fill="#0" id="circle52"/>
	<circle cx="319.878" cy="119.349" r="4" fill="#0" id="circle53"/>
	<circle cx="326.977" cy="456.522" r="4" fill="#0" id="circle54"/>
	<circle cx="335.85" cy="440.551" r="4" fill="#0" id="circle55"/>
	<circle cx="337.624" cy="119.349" r="4" fill="#0" id="circle56"/>
	<circle cx="351.821" cy="449.424" r="4" fill="#0" id="circle57"/>
	<circle cx="355.37" cy="110.476" r="4" fill="#0" id="circle58"/>
	<circle cx="369.567" cy="452.973" r="4" fill="#0" id="circle59"/>
	<circle cx="373.116" cy="101.603" r="4" fill="#0" id="circle60"/>
	<circle cx="383.764" cy="440.551" r="4" fill="#0" id="circle61"/>
	<circle cx="390.862" cy="101.603" r="4" fill="#0" id="circle62"/>
	<circle cx="399.735" cy="449.424" r="4" fill="#0" id="circle63"/>
	<circle cx="405.059" cy="112.25" r="4" fill="#0" id="circle64"/>
	<circle cx="405.059" cy="422.805" r="4" fill="#0" id="circle65"/>
	<circle cx="419.256" cy="122.898" r="4" fill="#0" id="circle66"/>
	<circle cx="419.256" cy="410.383" r="4" fill="#0" id="circle67"/>
	<circle cx="431.678" cy="396.186" r="4" fill="#0" id="circle68"/>
	<circle cx="437.002" cy="128.222" r="4" fill="#0" id="circle69"/>
	<circle cx="444.1" cy="110.476" r="4" fill="#0" id="circle70"/>
	<circle cx="447.649" cy="71.4347" r="4" fill="#0" id="circle71"/>
	<circle cx="447.649" cy="89.1807" r="4" fill="#0" id="circle72"/>
	<circle cx="449.424" cy="399.735" r="4" fill="#0" id="circle73"/>
	<circle cx="456.522" cy="53.6887" r="4" fill="#0" id="circle74"/>
	<circle cx="456.522" cy="417.481" r="4" fill="#0" id="circle75"/>
	<circle cx="456.522" cy="435.227" r="4" fill="#0" id="circle76"/>
	<circle cx="456.522" cy="452.973" r="4" fill="#0" id="circle77"/>
	<circle cx="465.395" cy="35.9428" r="4" fill="#0" id="circle78"/>
	<circle cx="465.395" cy="468.945" r="4" fill="#0" id="circle79"/>
	<circle cx="477.818" cy="483.141" r="4" fill="#0" id="circle80"/>
	<circle cx="479.592" cy="21.746" r="4" fill="#0" id="circle81"/>
	<circle cx="492.014" cy="493.789" r="4" fill="#0" id="circle82"/>
	<circle cx="497.338" cy="12.873" r="4" fill="#0" id="circle83"/>
	<circle cx="507.986" cy="502.662" r="4" fill="#0" id="circle84"/>
	<circle cx="515.084" cy="12.873" r="4" fill="#0" id="circle85"/>
	<circle cx="525.732" cy="499.113" r="4" fill="#0" id="circle86"/>
	<circle cx="531.055" cy="4" r="4" fill="#0" id="circle87"/>
	<circle cx="538.154" cy="484.916" r="4" fill="#0" id="circle88"/>
	<circle cx="548.801" cy="4" r="4" fill="#0" id="circle89"/>
	<circle cx="552.351" cy="472.494" r="4" fill="#0" id="circle90"/>
	<circle cx="564.773" cy="422.805" r="4" fill="#0" id="circle91"/>
	<circle cx="564.773" cy="449.424" r="4" fill="#0" id="circle92"/>
	<circle cx="566.547" cy="4" r="4" fill="#0" id="circle93"/>
	<circle cx="582.519" cy="413.932" r="4" fill="#0" id="circle94"/>
	<circle cx="584.293" cy="4" r="4" fill="#0" id="circle95"/>
	<circle cx="600.265" cy="413.932" r="4" fill="#0" id="circle96"/>
	<circle cx="602.039" cy="4" r="4" fill="#0" id="circle97"/>
	<circle cx="618.011" cy="413.932" r="4" fill="#0" id="circle98"/>
	<circle cx="619.785" cy="4" r="4" fill="#0" id="circle99"/>
	<circle cx="635.757" cy="413.932" r="4" fill="#0" id="circle100"/>
	<circle cx="637.531" cy="4" r="4" fill="#0" id="circle101"/>
	<circle cx="653.503" cy="413.932" r="4" fill="#0" id="circle102"/>
	<circle cx="655.277" cy="4" r="4" fill="#0" id="circle103"/>
	<circle cx="671.249" cy="12.873" r="4" fill="#0" id="circle104"/>
	<circle cx="671.249" cy="405.059" r="4" fill="#0" id="circle105"/>
	<circle cx="688.995" cy="7.54919" r="4" fill="#0" id="circle106"/>
	<circle cx="688.995" cy="405.059" r="4" fill="#0" id="circle107"/>
	<circle cx="706.741" cy="12.873" r="4" fill="#0" id="circle108"/>
	<circle cx="706.741" cy="405.059" r="4" fill="#0" id="circle109"/>
	<circle cx="724.487" cy="12.873" r="4" fill="#0" id="circle110"/>
	<circle cx="724.487" cy="405.059" r="4" fill="#0" id="circle111"/>
	<circle cx="742.233" cy="12.873" r="4" fill="#0" id="circle112"/>
	<circle cx="742.233" cy="405.059" r="4" fill="#0" id="circle113"/>
	<circle cx="756.429" cy="23.5206" r="4" fill="#0" id="circle114"/>
	<circle cx="759.979" cy="405.059" r="4" fill="#0" id="circle115"/>
	<circle cx="768.852" cy="37.7174" r="4" fill="#0" id="circle116"/>
	<circle cx="777.725" cy="405.059" r="4" fill="#0" id="circle117"/>
	<circle cx="783.048" cy="50.1395" r="4" fill="#0" id="circle118"/>
	<circle cx="786.597" cy="67.8855" r="4" fill="#0" id="circle119"/>
	<circle cx="786.597" cy="85.6315" r="4" fill="#0" id="circle120"/>
	<circle cx="786.597" cy="103.377" r="4" fill="#0" id="circle121"/>
	<circle cx="793.696" cy="396.186" r="4" fill="#0" id="circle122"/>
	<circle cx="795.47" cy="119.349" r="4" fill="#0" id="circle123"/>
	<circle cx="804.343" cy="135.32" r="4" fill="#0" id="circle124"/>
	<circle cx="811.442" cy="396.186" r="4" fill="#0" id="circle125"/>
	<circle cx="811.442" cy="435.227" r="4" fill="#0" id="circle126"/>
	<circle cx="820.315" cy="412.157" r="4" fill="#0" id="circle127"/>
	<circle cx="822.089" cy="133.546" r="4" fill="#0" id="circle128"/>
	<circle cx="825.639" cy="447.649" r="4" fill="#0" id="circle129"/>
	<circle cx="836.286" cy="145.968" r="4" fill="#0" id="circle130"/>
	<circle cx="839.835" cy="458.297" r="4" fill="#0" id="circle131"/>
	<circle cx="852.258" cy="154.841" r="4" fill="#0" id="circle132"/>
	<circle cx="857.581" cy="458.297" r="4" fill="#0" id="circle133"/>
	<circle cx="868.229" cy="145.968" r="4" fill="#0" id="circle134"/>
	<circle cx="871.778" cy="445.875" r="4" fill="#0" id="circle135"/>
	<circle cx="882.426" cy="431.678" r="4" fill="#0" id="circle136"/>
	<circle cx="884.2" cy="154.841" r="4" fill="#0" id="circle137"/>
	<circle cx="893.073" cy="413.932" r="4" fill="#0" id="circle138"/>
	<circle cx="901.946" cy="151.292" r="4" fill="#0" id="circle139"/>
	<circle cx="901.946" cy="387.313" r="4" fill="#0" id="circle140"/>
	<circle cx="917.918" cy="378.44" r="4" fill="#0" id="circle141"/>
	<circle cx="919.692" cy="154.841" r="4" fill="#0" id="circle142"/>
	<circle cx="932.114" cy="367.792" r="4" fill="#0" id="circle143"/>
	<circle cx="937.438" cy="160.165" r="4" fill="#0" id="circle144"/>
	<circle cx="946.311" cy="351.821" r="4" fill="#0" id="circle145"/>
	<circle cx="955.184" cy="163.714" r="4" fill="#0" id="circle146"/>
	<circle cx="960.508" cy="339.399" r="4" fill="#0" id="circle147"/>
	<circle cx="972.93" cy="169.038" r="4" fill="#0" id="circle148"/>
	<circle cx="972.93" cy="280.837" r="4" fill="#0" id="circle149"/>
	<circle cx="972.93" cy="307.456" r="4" fill="#0" id="circle150"/>
	<circle cx="972.93" cy="325.202" r="4" fill="#0" id="circle151"/>
	<circle cx="981.803" cy="263.091" r="4" fill="#0" id="circle152"/>
	<circle cx="985.352" cy="183.234" r="4" fill="#0" id="circle153"/>
	<circle cx="990.676" cy="200.98" r="4" fill="#0" id="circle154"/>
	<circle cx="990.676" cy="218.726" r="4" fill="#0" id="circle155"/>
	<circle cx="996" cy="250.669" r="4" fill="#0" id="circle156"/>
	</g>
</svg>