<?xml version="1.0" encoding="UTF-8" standalone="no"?>
<!-- Created with CurveBenchmark -->
<svg
	xmlns:dc="http://purl.org/dc/elements/1.1/"
	xmlns:cc="http://creativecommons.org/ns#"
	xmlns:rdf="http://www.w3.org/1999/02/22-rdf-syntax-ns#"
	xmlns:svg="http://www.w3.org/2000/svg"
	xmlns="http://www.w3.org/2000/svg"
	xmlns:sodipodi="http://sodipodi.sourceforge.net/DTD/sodipodi-0.dtd"
	xmlns:inkscape="http://www.inkscape.org/namespaces/inkscape"
	width="1000"
	height="1000"
	id="svg2"
	version="1.1"
	sodipodi:docname="manifold/discur-children-18.png.txt">
<defs
	id="defs4" />
<metadata
	id="metadata7">
	<rdf:RDF>
		<cc:Work
			rdf:about="">
			<dc:format>image/svg+xml</dc:format>
			<dc:type
				rdf:resource="http://purl.org/dc/dcmitype/StillImage" />
			<dc:title></dc:title>
		</cc:Work>
	</rdf:RDF>
</metadata>
<g
	inkscape:label="Layer 1"
	inkscape:groupmode="layer"
	id="layer1">
	<path style="fill:none;stroke:red;stroke-width:1px;stroke-linecap:butt;stroke-linejoin:miter;stroke-opacity:1" d="M 4,317.954 4,329.892 z" id="boundary" inkscape:connector-curvature="0" />
	<path style="fill:none;stroke:red;stroke-width:1px;stroke-linecap:butt;stroke-linejoin:miter;stroke-opacity:1" d="M 4,317.954 9.96871,306.017 z" id="boundary" inkscape:connector-curvature="0" />
	<path style="fill:none;stroke:red;stroke-width:1px;stroke-linecap:butt;stroke-linejoin:miter;stroke-opacity:1" d="M 4,329.892 9.96871,340.635 z" id="boundary" inkscape:connector-curvature="0" />
	<path style="fill:none;stroke:red;stroke-width:1px;stroke-linecap:butt;stroke-linejoin:miter;stroke-opacity:1" d="M 9.96871,306.017 15.9374,294.079 z" id="boundary" inkscape:connector-curvature="0" />
	<path style="fill:none;stroke:red;stroke-width:1px;stroke-linecap:butt;stroke-linejoin:miter;stroke-opacity:1" d="M 9.96871,340.635 15.9374,351.379 z" id="boundary" inkscape:connector-curvature="0" />
	<path style="fill:none;stroke:red;stroke-width:1px;stroke-linecap:butt;stroke-linejoin:miter;stroke-opacity:1" d="M 15.9374,294.079 21.9061,282.142 z" id="boundary" inkscape:connector-curvature="0" />
	<path style="fill:none;stroke:red;stroke-width:1px;stroke-linecap:butt;stroke-linejoin:miter;stroke-opacity:1" d="M 15.9374,351.379 15.9374,363.316 z" id="boundary" inkscape:connector-curvature="0" />
	<path style="fill:none;stroke:red;stroke-width:1px;stroke-linecap:butt;stroke-linejoin:miter;stroke-opacity:1" d="M 15.9374,363.316 19.5187,375.254 z" id="boundary" inkscape:connector-curvature="0" />
	<path style="fill:none;stroke:red;stroke-width:1px;stroke-linecap:butt;stroke-linejoin:miter;stroke-opacity:1" d="M 19.5187,375.254 21.9061,387.191 z" id="boundary" inkscape:connector-curvature="0" />
	<path style="fill:none;stroke:red;stroke-width:1px;stroke-linecap:butt;stroke-linejoin:miter;stroke-opacity:1" d="M 21.9061,73.2371 21.9061,85.1745 z" id="boundary" inkscape:connector-curvature="0" />
	<path style="fill:none;stroke:red;stroke-width:1px;stroke-linecap:butt;stroke-linejoin:miter;stroke-opacity:1" d="M 21.9061,73.2371 27.8748,61.2996 z" id="boundary" inkscape:connector-curvature="0" />
	<path style="fill:none;stroke:red;stroke-width:1px;stroke-linecap:butt;stroke-linejoin:miter;stroke-opacity:1" d="M 21.9061,85.1745 21.9061,97.1119 z" id="boundary" inkscape:connector-curvature="0" />
	<path style="fill:none;stroke:red;stroke-width:1px;stroke-linecap:butt;stroke-linejoin:miter;stroke-opacity:1" d="M 21.9061,97.1119 21.9061,109.049 z" id="boundary" inkscape:connector-curvature="0" />
	<path style="fill:none;stroke:red;stroke-width:1px;stroke-linecap:butt;stroke-linejoin:miter;stroke-opacity:1" d="M 21.9061,109.049 21.9061,120.987 z" id="boundary" inkscape:connector-curvature="0" />
	<path style="fill:none;stroke:red;stroke-width:1px;stroke-linecap:butt;stroke-linejoin:miter;stroke-opacity:1" d="M 21.9061,120.987 27.8748,131.73 z" id="boundary" inkscape:connector-curvature="0" />
	<path style="fill:none;stroke:red;stroke-width:1px;stroke-linecap:butt;stroke-linejoin:miter;stroke-opacity:1" d="M 21.9061,282.142 27.8748,270.205 z" id="boundary" inkscape:connector-curvature="0" />
	<path style="fill:none;stroke:red;stroke-width:1px;stroke-linecap:butt;stroke-linejoin:miter;stroke-opacity:1" d="M 21.9061,387.191 27.8748,397.935 z" id="boundary" inkscape:connector-curvature="0" />
	<path style="fill:none;stroke:red;stroke-width:1px;stroke-linecap:butt;stroke-linejoin:miter;stroke-opacity:1" d="M 27.8748,61.2996 33.8436,49.3622 z" id="boundary" inkscape:connector-curvature="0" />
	<path style="fill:none;stroke:red;stroke-width:1px;stroke-linecap:butt;stroke-linejoin:miter;stroke-opacity:1" d="M 27.8748,131.73 27.8748,143.668 z" id="boundary" inkscape:connector-curvature="0" />
	<path style="fill:none;stroke:red;stroke-width:1px;stroke-linecap:butt;stroke-linejoin:miter;stroke-opacity:1" d="M 27.8748,143.668 33.8436,154.412 z" id="boundary" inkscape:connector-curvature="0" />
	<path style="fill:none;stroke:red;stroke-width:1px;stroke-linecap:butt;stroke-linejoin:miter;stroke-opacity:1" d="M 27.8748,270.205 37.4248,260.655 z" id="boundary" inkscape:connector-curvature="0" />
	<path style="fill:none;stroke:red;stroke-width:1px;stroke-linecap:butt;stroke-linejoin:miter;stroke-opacity:1" d="M 27.8748,397.935 27.8748,409.872 z" id="boundary" inkscape:connector-curvature="0" />
	<path style="fill:none;stroke:red;stroke-width:1px;stroke-linecap:butt;stroke-linejoin:miter;stroke-opacity:1" d="M 27.8748,409.872 27.8748,421.81 z" id="boundary" inkscape:connector-curvature="0" />
	<path style="fill:none;stroke:red;stroke-width:1px;stroke-linecap:butt;stroke-linejoin:miter;stroke-opacity:1" d="M 27.8748,421.81 27.8748,433.747 z" id="boundary" inkscape:connector-curvature="0" />
	<path style="fill:none;stroke:red;stroke-width:1px;stroke-linecap:butt;stroke-linejoin:miter;stroke-opacity:1" d="M 27.8748,433.747 27.8748,445.685 z" id="boundary" inkscape:connector-curvature="0" />
	<path style="fill:none;stroke:red;stroke-width:1px;stroke-linecap:butt;stroke-linejoin:miter;stroke-opacity:1" d="M 27.8748,445.685 27.8748,457.622 z" id="boundary" inkscape:connector-curvature="0" />
	<path style="fill:none;stroke:red;stroke-width:1px;stroke-linecap:butt;stroke-linejoin:miter;stroke-opacity:1" d="M 27.8748,457.622 30.2623,469.56 z" id="boundary" inkscape:connector-curvature="0" />
	<path style="fill:none;stroke:red;stroke-width:1px;stroke-linecap:butt;stroke-linejoin:miter;stroke-opacity:1" d="M 30.2623,469.56 36.231,480.303 z" id="boundary" inkscape:connector-curvature="0" />
	<path style="fill:none;stroke:red;stroke-width:1px;stroke-linecap:butt;stroke-linejoin:miter;stroke-opacity:1" d="M 33.8436,49.3622 43.3935,39.8123 z" id="boundary" inkscape:connector-curvature="0" />
	<path style="fill:none;stroke:red;stroke-width:1px;stroke-linecap:butt;stroke-linejoin:miter;stroke-opacity:1" d="M 33.8436,154.412 41.006,163.961 z" id="boundary" inkscape:connector-curvature="0" />
	<path style="fill:none;stroke:red;stroke-width:1px;stroke-linecap:butt;stroke-linejoin:miter;stroke-opacity:1" d="M 36.231,480.303 39.8123,492.241 z" id="boundary" inkscape:connector-curvature="0" />
	<path style="fill:none;stroke:red;stroke-width:1px;stroke-linecap:butt;stroke-linejoin:miter;stroke-opacity:1" d="M 37.4248,260.655 48.1685,254.686 z" id="boundary" inkscape:connector-curvature="0" />
	<path style="fill:none;stroke:red;stroke-width:1px;stroke-linecap:butt;stroke-linejoin:miter;stroke-opacity:1" d="M 39.8123,492.241 41.006,504.178 z" id="boundary" inkscape:connector-curvature="0" />
	<path style="fill:none;stroke:red;stroke-width:1px;stroke-linecap:butt;stroke-linejoin:miter;stroke-opacity:1" d="M 41.006,163.961 50.556,172.318 z" id="boundary" inkscape:connector-curvature="0" />
	<path style="fill:none;stroke:red;stroke-width:1px;stroke-linecap:butt;stroke-linejoin:miter;stroke-opacity:1" d="M 41.006,504.178 46.9747,514.922 z" id="boundary" inkscape:connector-curvature="0" />
	<path style="fill:none;stroke:red;stroke-width:1px;stroke-linecap:butt;stroke-linejoin:miter;stroke-opacity:1" d="M 43.3935,39.8123 52.9434,30.2623 z" id="boundary" inkscape:connector-curvature="0" />
	<path style="fill:none;stroke:red;stroke-width:1px;stroke-linecap:butt;stroke-linejoin:miter;stroke-opacity:1" d="M 46.9747,514.922 51.7497,526.859 z" id="boundary" inkscape:connector-curvature="0" />
	<path style="fill:none;stroke:red;stroke-width:1px;stroke-linecap:butt;stroke-linejoin:miter;stroke-opacity:1" d="M 48.1685,254.686 57.7184,246.33 z" id="boundary" inkscape:connector-curvature="0" />
	<path style="fill:none;stroke:red;stroke-width:1px;stroke-linecap:butt;stroke-linejoin:miter;stroke-opacity:1" d="M 50.556,172.318 58.9122,181.868 z" id="boundary" inkscape:connector-curvature="0" />
	<path style="fill:none;stroke:red;stroke-width:1px;stroke-linecap:butt;stroke-linejoin:miter;stroke-opacity:1" d="M 51.7497,526.859 51.7497,538.797 z" id="boundary" inkscape:connector-curvature="0" />
	<path style="fill:none;stroke:red;stroke-width:1px;stroke-linecap:butt;stroke-linejoin:miter;stroke-opacity:1" d="M 51.7497,538.797 51.7497,550.734 z" id="boundary" inkscape:connector-curvature="0" />
	<path style="fill:none;stroke:red;stroke-width:1px;stroke-linecap:butt;stroke-linejoin:miter;stroke-opacity:1" d="M 51.7497,550.734 51.7497,562.671 z" id="boundary" inkscape:connector-curvature="0" />
	<path style="fill:none;stroke:red;stroke-width:1px;stroke-linecap:butt;stroke-linejoin:miter;stroke-opacity:1" d="M 51.7497,562.671 57.7184,573.415 z" id="boundary" inkscape:connector-curvature="0" />
	<path style="fill:none;stroke:red;stroke-width:1px;stroke-linecap:butt;stroke-linejoin:miter;stroke-opacity:1" d="M 52.9434,30.2623 64.8809,24.2936 z" id="boundary" inkscape:connector-curvature="0" />
	<path style="fill:none;stroke:red;stroke-width:1px;stroke-linecap:butt;stroke-linejoin:miter;stroke-opacity:1" d="M 57.7184,246.33 63.6871,234.392 z" id="boundary" inkscape:connector-curvature="0" />
	<path style="fill:none;stroke:red;stroke-width:1px;stroke-linecap:butt;stroke-linejoin:miter;stroke-opacity:1" d="M 57.7184,573.415 57.7184,585.353 z" id="boundary" inkscape:connector-curvature="0" />
	<path style="fill:none;stroke:red;stroke-width:1px;stroke-linecap:butt;stroke-linejoin:miter;stroke-opacity:1" d="M 57.7184,585.353 63.6871,596.096 z" id="boundary" inkscape:connector-curvature="0" />
	<path style="fill:none;stroke:red;stroke-width:1px;stroke-linecap:butt;stroke-linejoin:miter;stroke-opacity:1" d="M 58.9122,181.868 68.4621,190.224 z" id="boundary" inkscape:connector-curvature="0" />
	<path style="fill:none;stroke:red;stroke-width:1px;stroke-linecap:butt;stroke-linejoin:miter;stroke-opacity:1" d="M 63.6871,234.392 69.6558,214.099 z" id="boundary" inkscape:connector-curvature="0" />
	<path style="fill:none;stroke:red;stroke-width:1px;stroke-linecap:butt;stroke-linejoin:miter;stroke-opacity:1" d="M 63.6871,596.096 63.6871,608.034 z" id="boundary" inkscape:connector-curvature="0" />
	<path style="fill:none;stroke:red;stroke-width:1px;stroke-linecap:butt;stroke-linejoin:miter;stroke-opacity:1" d="M 63.6871,608.034 63.6871,619.971 z" id="boundary" inkscape:connector-curvature="0" />
	<path style="fill:none;stroke:red;stroke-width:1px;stroke-linecap:butt;stroke-linejoin:miter;stroke-opacity:1" d="M 63.6871,619.971 69.6558,630.715 z" id="boundary" inkscape:connector-curvature="0" />
	<path style="fill:none;stroke:red;stroke-width:1px;stroke-linecap:butt;stroke-linejoin:miter;stroke-opacity:1" d="M 64.8809,24.2936 74.4308,15.9374 z" id="boundary" inkscape:connector-curvature="0" />
	<path style="fill:none;stroke:red;stroke-width:1px;stroke-linecap:butt;stroke-linejoin:miter;stroke-opacity:1" d="M 68.4621,190.224 69.6558,202.161 z" id="boundary" inkscape:connector-curvature="0" />
	<path style="fill:none;stroke:red;stroke-width:1px;stroke-linecap:butt;stroke-linejoin:miter;stroke-opacity:1" d="M 69.6558,202.161 69.6558,214.099 z" id="boundary" inkscape:connector-curvature="0" />
	<path style="fill:none;stroke:red;stroke-width:1px;stroke-linecap:butt;stroke-linejoin:miter;stroke-opacity:1" d="M 69.6558,630.715 75.6245,641.458 z" id="boundary" inkscape:connector-curvature="0" />
	<path style="fill:none;stroke:red;stroke-width:1px;stroke-linecap:butt;stroke-linejoin:miter;stroke-opacity:1" d="M 74.4308,15.9374 85.1745,9.96871 z" id="boundary" inkscape:connector-curvature="0" />
	<path style="fill:none;stroke:red;stroke-width:1px;stroke-linecap:butt;stroke-linejoin:miter;stroke-opacity:1" d="M 75.6245,641.458 75.6245,653.396 z" id="boundary" inkscape:connector-curvature="0" />
	<path style="fill:none;stroke:red;stroke-width:1px;stroke-linecap:butt;stroke-linejoin:miter;stroke-opacity:1" d="M 75.6245,653.396 81.5933,664.14 z" id="boundary" inkscape:connector-curvature="0" />
	<path style="fill:none;stroke:red;stroke-width:1px;stroke-linecap:butt;stroke-linejoin:miter;stroke-opacity:1" d="M 81.5933,664.14 87.562,674.883 z" id="boundary" inkscape:connector-curvature="0" />
	<path style="fill:none;stroke:red;stroke-width:1px;stroke-linecap:butt;stroke-linejoin:miter;stroke-opacity:1" d="M 85.1745,9.96871 97.1119,4 z" id="boundary" inkscape:connector-curvature="0" />
	<path style="fill:none;stroke:red;stroke-width:1px;stroke-linecap:butt;stroke-linejoin:miter;stroke-opacity:1" d="M 87.562,674.883 93.5307,685.627 z" id="boundary" inkscape:connector-curvature="0" />
	<path style="fill:none;stroke:red;stroke-width:1px;stroke-linecap:butt;stroke-linejoin:miter;stroke-opacity:1" d="M 93.5307,685.627 104.274,691.596 z" id="boundary" inkscape:connector-curvature="0" />
	<path style="fill:none;stroke:red;stroke-width:1px;stroke-linecap:butt;stroke-linejoin:miter;stroke-opacity:1" d="M 93.5307,795.451 93.5307,807.389 z" id="boundary" inkscape:connector-curvature="0" />
	<path style="fill:none;stroke:red;stroke-width:1px;stroke-linecap:butt;stroke-linejoin:miter;stroke-opacity:1" d="M 93.5307,795.451 99.4994,777.545 z" id="boundary" inkscape:connector-curvature="0" />
	<path style="fill:none;stroke:red;stroke-width:1px;stroke-linecap:butt;stroke-linejoin:miter;stroke-opacity:1" d="M 93.5307,807.389 93.5307,819.326 z" id="boundary" inkscape:connector-curvature="0" />
	<path style="fill:none;stroke:red;stroke-width:1px;stroke-linecap:butt;stroke-linejoin:miter;stroke-opacity:1" d="M 93.5307,819.326 93.5307,831.264 z" id="boundary" inkscape:connector-curvature="0" />
	<path style="fill:none;stroke:red;stroke-width:1px;stroke-linecap:butt;stroke-linejoin:miter;stroke-opacity:1" d="M 93.5307,831.264 99.4994,842.007 z" id="boundary" inkscape:connector-curvature="0" />
	<path style="fill:none;stroke:red;stroke-width:1px;stroke-linecap:butt;stroke-linejoin:miter;stroke-opacity:1" d="M 93.5307,938.7 93.5307,950.638 z" id="boundary" inkscape:connector-curvature="0" />
	<path style="fill:none;stroke:red;stroke-width:1px;stroke-linecap:butt;stroke-linejoin:miter;stroke-opacity:1" d="M 93.5307,938.7 99.4994,926.763 z" id="boundary" inkscape:connector-curvature="0" />
	<path style="fill:none;stroke:red;stroke-width:1px;stroke-linecap:butt;stroke-linejoin:miter;stroke-opacity:1" d="M 93.5307,950.638 93.5307,962.575 z" id="boundary" inkscape:connector-curvature="0" />
	<path style="fill:none;stroke:red;stroke-width:1px;stroke-linecap:butt;stroke-linejoin:miter;stroke-opacity:1" d="M 93.5307,962.575 103.081,970.931 z" id="boundary" inkscape:connector-curvature="0" />
	<path style="fill:none;stroke:red;stroke-width:1px;stroke-linecap:butt;stroke-linejoin:miter;stroke-opacity:1" d="M 97.1119,4 109.049,4 z" id="boundary" inkscape:connector-curvature="0" />
	<path style="fill:none;stroke:red;stroke-width:1px;stroke-linecap:butt;stroke-linejoin:miter;stroke-opacity:1" d="M 99.4994,777.545 105.468,765.608 z" id="boundary" inkscape:connector-curvature="0" />
	<path style="fill:none;stroke:red;stroke-width:1px;stroke-linecap:butt;stroke-linejoin:miter;stroke-opacity:1" d="M 99.4994,842.007 99.4994,853.945 z" id="boundary" inkscape:connector-curvature="0" />
	<path style="fill:none;stroke:red;stroke-width:1px;stroke-linecap:butt;stroke-linejoin:miter;stroke-opacity:1" d="M 99.4994,853.945 105.468,864.688 z" id="boundary" inkscape:connector-curvature="0" />
	<path style="fill:none;stroke:red;stroke-width:1px;stroke-linecap:butt;stroke-linejoin:miter;stroke-opacity:1" d="M 99.4994,914.826 99.4994,926.763 z" id="boundary" inkscape:connector-curvature="0" />
	<path style="fill:none;stroke:red;stroke-width:1px;stroke-linecap:butt;stroke-linejoin:miter;stroke-opacity:1" d="M 99.4994,914.826 105.468,900.501 z" id="boundary" inkscape:connector-curvature="0" />
	<path style="fill:none;stroke:red;stroke-width:1px;stroke-linecap:butt;stroke-linejoin:miter;stroke-opacity:1" d="M 103.081,970.931 112.631,978.094 z" id="boundary" inkscape:connector-curvature="0" />
	<path style="fill:none;stroke:red;stroke-width:1px;stroke-linecap:butt;stroke-linejoin:miter;stroke-opacity:1" d="M 104.274,691.596 111.437,701.146 z" id="boundary" inkscape:connector-curvature="0" />
	<path style="fill:none;stroke:red;stroke-width:1px;stroke-linecap:butt;stroke-linejoin:miter;stroke-opacity:1" d="M 105.468,765.608 115.018,756.058 z" id="boundary" inkscape:connector-curvature="0" />
	<path style="fill:none;stroke:red;stroke-width:1px;stroke-linecap:butt;stroke-linejoin:miter;stroke-opacity:1" d="M 105.468,864.688 105.468,876.626 z" id="boundary" inkscape:connector-curvature="0" />
	<path style="fill:none;stroke:red;stroke-width:1px;stroke-linecap:butt;stroke-linejoin:miter;stroke-opacity:1" d="M 105.468,876.626 105.468,888.563 z" id="boundary" inkscape:connector-curvature="0" />
	<path style="fill:none;stroke:red;stroke-width:1px;stroke-linecap:butt;stroke-linejoin:miter;stroke-opacity:1" d="M 105.468,888.563 105.468,900.501 z" id="boundary" inkscape:connector-curvature="0" />
	<path style="fill:none;stroke:red;stroke-width:1px;stroke-linecap:butt;stroke-linejoin:miter;stroke-opacity:1" d="M 109.049,4 120.987,4 z" id="boundary" inkscape:connector-curvature="0" />
	<path style="fill:none;stroke:red;stroke-width:1px;stroke-linecap:butt;stroke-linejoin:miter;stroke-opacity:1" d="M 111.437,701.146 117.406,711.889 z" id="boundary" inkscape:connector-curvature="0" />
	<path style="fill:none;stroke:red;stroke-width:1px;stroke-linecap:butt;stroke-linejoin:miter;stroke-opacity:1" d="M 112.631,978.094 123.374,984.063 z" id="boundary" inkscape:connector-curvature="0" />
	<path style="fill:none;stroke:red;stroke-width:1px;stroke-linecap:butt;stroke-linejoin:miter;stroke-opacity:1" d="M 115.018,756.058 120.987,744.12 z" id="boundary" inkscape:connector-curvature="0" />
	<path style="fill:none;stroke:red;stroke-width:1px;stroke-linecap:butt;stroke-linejoin:miter;stroke-opacity:1" d="M 117.406,711.889 123.374,722.633 z" id="boundary" inkscape:connector-curvature="0" />
	<path style="fill:none;stroke:red;stroke-width:1px;stroke-linecap:butt;stroke-linejoin:miter;stroke-opacity:1" d="M 120.987,4 132.924,4 z" id="boundary" inkscape:connector-curvature="0" />
	<path style="fill:none;stroke:red;stroke-width:1px;stroke-linecap:butt;stroke-linejoin:miter;stroke-opacity:1" d="M 120.987,744.12 123.374,722.633 z" id="boundary" inkscape:connector-curvature="0" />
	<path style="fill:none;stroke:red;stroke-width:1px;stroke-linecap:butt;stroke-linejoin:miter;stroke-opacity:1" d="M 123.374,984.063 135.312,984.063 z" id="boundary" inkscape:connector-curvature="0" />
	<path style="fill:none;stroke:red;stroke-width:1px;stroke-linecap:butt;stroke-linejoin:miter;stroke-opacity:1" d="M 132.924,4 144.862,4 z" id="boundary" inkscape:connector-curvature="0" />
	<path style="fill:none;stroke:red;stroke-width:1px;stroke-linecap:butt;stroke-linejoin:miter;stroke-opacity:1" d="M 135.312,984.063 146.055,990.031 z" id="boundary" inkscape:connector-curvature="0" />
	<path style="fill:none;stroke:red;stroke-width:1px;stroke-linecap:butt;stroke-linejoin:miter;stroke-opacity:1" d="M 144.862,4 156.799,4 z" id="boundary" inkscape:connector-curvature="0" />
	<path style="fill:none;stroke:red;stroke-width:1px;stroke-linecap:butt;stroke-linejoin:miter;stroke-opacity:1" d="M 146.055,990.031 157.993,990.031 z" id="boundary" inkscape:connector-curvature="0" />
	<path style="fill:none;stroke:red;stroke-width:1px;stroke-linecap:butt;stroke-linejoin:miter;stroke-opacity:1" d="M 156.799,4 167.543,9.96871 z" id="boundary" inkscape:connector-curvature="0" />
	<path style="fill:none;stroke:red;stroke-width:1px;stroke-linecap:butt;stroke-linejoin:miter;stroke-opacity:1" d="M 157.993,990.031 168.736,996 z" id="boundary" inkscape:connector-curvature="0" />
	<path style="fill:none;stroke:red;stroke-width:1px;stroke-linecap:butt;stroke-linejoin:miter;stroke-opacity:1" d="M 167.543,9.96871 179.48,9.96871 z" id="boundary" inkscape:connector-curvature="0" />
	<path style="fill:none;stroke:red;stroke-width:1px;stroke-linecap:butt;stroke-linejoin:miter;stroke-opacity:1" d="M 168.736,996 180.674,996 z" id="boundary" inkscape:connector-curvature="0" />
	<path style="fill:none;stroke:red;stroke-width:1px;stroke-linecap:butt;stroke-linejoin:miter;stroke-opacity:1" d="M 179.48,9.96871 190.224,15.9374 z" id="boundary" inkscape:connector-curvature="0" />
	<path style="fill:none;stroke:red;stroke-width:1px;stroke-linecap:butt;stroke-linejoin:miter;stroke-opacity:1" d="M 180.674,996 192.611,996 z" id="boundary" inkscape:connector-curvature="0" />
	<path style="fill:none;stroke:red;stroke-width:1px;stroke-linecap:butt;stroke-linejoin:miter;stroke-opacity:1" d="M 190.224,15.9374 202.161,15.9374 z" id="boundary" inkscape:connector-curvature="0" />
	<path style="fill:none;stroke:red;stroke-width:1px;stroke-linecap:butt;stroke-linejoin:miter;stroke-opacity:1" d="M 192.611,996 204.549,996 z" id="boundary" inkscape:connector-curvature="0" />
	<path style="fill:none;stroke:red;stroke-width:1px;stroke-linecap:butt;stroke-linejoin:miter;stroke-opacity:1" d="M 202.161,15.9374 212.905,21.9061 z" id="boundary" inkscape:connector-curvature="0" />
	<path style="fill:none;stroke:red;stroke-width:1px;stroke-linecap:butt;stroke-linejoin:miter;stroke-opacity:1" d="M 204.549,996 216.486,996 z" id="boundary" inkscape:connector-curvature="0" />
	<path style="fill:none;stroke:red;stroke-width:1px;stroke-linecap:butt;stroke-linejoin:miter;stroke-opacity:1" d="M 212.905,21.9061 222.455,29.0686 z" id="boundary" inkscape:connector-curvature="0" />
	<path style="fill:none;stroke:red;stroke-width:1px;stroke-linecap:butt;stroke-linejoin:miter;stroke-opacity:1" d="M 216.486,996 228.424,996 z" id="boundary" inkscape:connector-curvature="0" />
	<path style="fill:none;stroke:red;stroke-width:1px;stroke-linecap:butt;stroke-linejoin:miter;stroke-opacity:1" d="M 222.455,29.0686 232.005,37.4248 z" id="boundary" inkscape:connector-curvature="0" />
	<path style="fill:none;stroke:red;stroke-width:1px;stroke-linecap:butt;stroke-linejoin:miter;stroke-opacity:1" d="M 228.424,996 240.361,996 z" id="boundary" inkscape:connector-curvature="0" />
	<path style="fill:none;stroke:red;stroke-width:1px;stroke-linecap:butt;stroke-linejoin:miter;stroke-opacity:1" d="M 232.005,37.4248 242.748,43.3935 z" id="boundary" inkscape:connector-curvature="0" />
	<path style="fill:none;stroke:red;stroke-width:1px;stroke-linecap:butt;stroke-linejoin:miter;stroke-opacity:1" d="M 237.974,876.626 240.361,888.563 z" id="boundary" inkscape:connector-curvature="0" />
	<path style="fill:none;stroke:red;stroke-width:1px;stroke-linecap:butt;stroke-linejoin:miter;stroke-opacity:1" d="M 237.974,876.626 243.942,858.72 z" id="boundary" inkscape:connector-curvature="0" />
	<path style="fill:none;stroke:red;stroke-width:1px;stroke-linecap:butt;stroke-linejoin:miter;stroke-opacity:1" d="M 240.361,888.563 249.911,896.919 z" id="boundary" inkscape:connector-curvature="0" />
	<path style="fill:none;stroke:red;stroke-width:1px;stroke-linecap:butt;stroke-linejoin:miter;stroke-opacity:1" d="M 240.361,996 252.298,996 z" id="boundary" inkscape:connector-curvature="0" />
	<path style="fill:none;stroke:red;stroke-width:1px;stroke-linecap:butt;stroke-linejoin:miter;stroke-opacity:1" d="M 242.748,43.3935 249.911,52.9434 z" id="boundary" inkscape:connector-curvature="0" />
	<path style="fill:none;stroke:red;stroke-width:1px;stroke-linecap:butt;stroke-linejoin:miter;stroke-opacity:1" d="M 243.942,232.005 249.911,214.099 z" id="boundary" inkscape:connector-curvature="0" />
	<path style="fill:none;stroke:red;stroke-width:1px;stroke-linecap:butt;stroke-linejoin:miter;stroke-opacity:1" d="M 243.942,232.005 249.911,242.748 z" id="boundary" inkscape:connector-curvature="0" />
	<path style="fill:none;stroke:red;stroke-width:1px;stroke-linecap:butt;stroke-linejoin:miter;stroke-opacity:1" d="M 243.942,858.72 249.911,840.813 z" id="boundary" inkscape:connector-curvature="0" />
	<path style="fill:none;stroke:red;stroke-width:1px;stroke-linecap:butt;stroke-linejoin:miter;stroke-opacity:1" d="M 249.911,52.9434 255.88,63.6871 z" id="boundary" inkscape:connector-curvature="0" />
	<path style="fill:none;stroke:red;stroke-width:1px;stroke-linecap:butt;stroke-linejoin:miter;stroke-opacity:1" d="M 249.911,214.099 255.88,196.193 z" id="boundary" inkscape:connector-curvature="0" />
	<path style="fill:none;stroke:red;stroke-width:1px;stroke-linecap:butt;stroke-linejoin:miter;stroke-opacity:1" d="M 249.911,242.748 255.88,253.492 z" id="boundary" inkscape:connector-curvature="0" />
	<path style="fill:none;stroke:red;stroke-width:1px;stroke-linecap:butt;stroke-linejoin:miter;stroke-opacity:1" d="M 249.911,840.813 255.88,828.876 z" id="boundary" inkscape:connector-curvature="0" />
	<path style="fill:none;stroke:red;stroke-width:1px;stroke-linecap:butt;stroke-linejoin:miter;stroke-opacity:1" d="M 249.911,896.919 258.267,906.469 z" id="boundary" inkscape:connector-curvature="0" />
	<path style="fill:none;stroke:red;stroke-width:1px;stroke-linecap:butt;stroke-linejoin:miter;stroke-opacity:1" d="M 252.298,996 264.236,994.806 z" id="boundary" inkscape:connector-curvature="0" />
	<path style="fill:none;stroke:red;stroke-width:1px;stroke-linecap:butt;stroke-linejoin:miter;stroke-opacity:1" d="M 255.88,63.6871 261.848,74.4308 z" id="boundary" inkscape:connector-curvature="0" />
	<path style="fill:none;stroke:red;stroke-width:1px;stroke-linecap:butt;stroke-linejoin:miter;stroke-opacity:1" d="M 255.88,196.193 261.848,184.255 z" id="boundary" inkscape:connector-curvature="0" />
	<path style="fill:none;stroke:red;stroke-width:1px;stroke-linecap:butt;stroke-linejoin:miter;stroke-opacity:1" d="M 255.88,253.492 265.43,261.848 z" id="boundary" inkscape:connector-curvature="0" />
	<path style="fill:none;stroke:red;stroke-width:1px;stroke-linecap:butt;stroke-linejoin:miter;stroke-opacity:1" d="M 255.88,816.939 255.88,828.876 z" id="boundary" inkscape:connector-curvature="0" />
	<path style="fill:none;stroke:red;stroke-width:1px;stroke-linecap:butt;stroke-linejoin:miter;stroke-opacity:1" d="M 255.88,816.939 261.848,805.001 z" id="boundary" inkscape:connector-curvature="0" />
	<path style="fill:none;stroke:red;stroke-width:1px;stroke-linecap:butt;stroke-linejoin:miter;stroke-opacity:1" d="M 258.267,906.469 267.817,914.826 z" id="boundary" inkscape:connector-curvature="0" />
	<path style="fill:none;stroke:red;stroke-width:1px;stroke-linecap:butt;stroke-linejoin:miter;stroke-opacity:1" d="M 261.848,74.4308 267.817,85.1745 z" id="boundary" inkscape:connector-curvature="0" />
	<path style="fill:none;stroke:red;stroke-width:1px;stroke-linecap:butt;stroke-linejoin:miter;stroke-opacity:1" d="M 261.848,142.474 261.848,154.412 z" id="boundary" inkscape:connector-curvature="0" />
	<path style="fill:none;stroke:red;stroke-width:1px;stroke-linecap:butt;stroke-linejoin:miter;stroke-opacity:1" d="M 261.848,142.474 267.817,120.987 z" id="boundary" inkscape:connector-curvature="0" />
	<path style="fill:none;stroke:red;stroke-width:1px;stroke-linecap:butt;stroke-linejoin:miter;stroke-opacity:1" d="M 261.848,154.412 267.817,165.155 z" id="boundary" inkscape:connector-curvature="0" />
	<path style="fill:none;stroke:red;stroke-width:1px;stroke-linecap:butt;stroke-linejoin:miter;stroke-opacity:1" d="M 261.848,184.255 267.817,165.155 z" id="boundary" inkscape:connector-curvature="0" />
	<path style="fill:none;stroke:red;stroke-width:1px;stroke-linecap:butt;stroke-linejoin:miter;stroke-opacity:1" d="M 261.848,769.189 261.848,781.126 z" id="boundary" inkscape:connector-curvature="0" />
	<path style="fill:none;stroke:red;stroke-width:1px;stroke-linecap:butt;stroke-linejoin:miter;stroke-opacity:1" d="M 261.848,769.189 267.817,757.252 z" id="boundary" inkscape:connector-curvature="0" />
	<path style="fill:none;stroke:red;stroke-width:1px;stroke-linecap:butt;stroke-linejoin:miter;stroke-opacity:1" d="M 261.848,781.126 261.848,793.064 z" id="boundary" inkscape:connector-curvature="0" />
	<path style="fill:none;stroke:red;stroke-width:1px;stroke-linecap:butt;stroke-linejoin:miter;stroke-opacity:1" d="M 261.848,793.064 261.848,805.001 z" id="boundary" inkscape:connector-curvature="0" />
	<path style="fill:none;stroke:red;stroke-width:1px;stroke-linecap:butt;stroke-linejoin:miter;stroke-opacity:1" d="M 264.236,994.806 273.786,984.063 z" id="boundary" inkscape:connector-curvature="0" />
	<path style="fill:none;stroke:red;stroke-width:1px;stroke-linecap:butt;stroke-linejoin:miter;stroke-opacity:1" d="M 265.43,261.848 273.786,271.398 z" id="boundary" inkscape:connector-curvature="0" />
	<path style="fill:none;stroke:red;stroke-width:1px;stroke-linecap:butt;stroke-linejoin:miter;stroke-opacity:1" d="M 267.817,85.1745 267.817,97.1119 z" id="boundary" inkscape:connector-curvature="0" />
	<path style="fill:none;stroke:red;stroke-width:1px;stroke-linecap:butt;stroke-linejoin:miter;stroke-opacity:1" d="M 267.817,97.1119 267.817,109.049 z" id="boundary" inkscape:connector-curvature="0" />
	<path style="fill:none;stroke:red;stroke-width:1px;stroke-linecap:butt;stroke-linejoin:miter;stroke-opacity:1" d="M 267.817,109.049 267.817,120.987 z" id="boundary" inkscape:connector-curvature="0" />
	<path style="fill:none;stroke:red;stroke-width:1px;stroke-linecap:butt;stroke-linejoin:miter;stroke-opacity:1" d="M 267.817,757.252 273.786,745.314 z" id="boundary" inkscape:connector-curvature="0" />
	<path style="fill:none;stroke:red;stroke-width:1px;stroke-linecap:butt;stroke-linejoin:miter;stroke-opacity:1" d="M 267.817,914.826 278.561,920.794 z" id="boundary" inkscape:connector-curvature="0" />
	<path style="fill:none;stroke:red;stroke-width:1px;stroke-linecap:butt;stroke-linejoin:miter;stroke-opacity:1" d="M 273.786,271.398 279.755,282.142 z" id="boundary" inkscape:connector-curvature="0" />
	<path style="fill:none;stroke:red;stroke-width:1px;stroke-linecap:butt;stroke-linejoin:miter;stroke-opacity:1" d="M 273.786,745.314 279.755,733.377 z" id="boundary" inkscape:connector-curvature="0" />
	<path style="fill:none;stroke:red;stroke-width:1px;stroke-linecap:butt;stroke-linejoin:miter;stroke-opacity:1" d="M 273.786,984.063 284.529,978.094 z" id="boundary" inkscape:connector-curvature="0" />
	<path style="fill:none;stroke:red;stroke-width:1px;stroke-linecap:butt;stroke-linejoin:miter;stroke-opacity:1" d="M 278.561,920.794 290.498,923.182 z" id="boundary" inkscape:connector-curvature="0" />
	<path style="fill:none;stroke:red;stroke-width:1px;stroke-linecap:butt;stroke-linejoin:miter;stroke-opacity:1" d="M 279.755,282.142 279.755,294.079 z" id="boundary" inkscape:connector-curvature="0" />
	<path style="fill:none;stroke:red;stroke-width:1px;stroke-linecap:butt;stroke-linejoin:miter;stroke-opacity:1" d="M 279.755,294.079 279.755,306.017 z" id="boundary" inkscape:connector-curvature="0" />
	<path style="fill:none;stroke:red;stroke-width:1px;stroke-linecap:butt;stroke-linejoin:miter;stroke-opacity:1" d="M 279.755,306.017 279.755,317.954 z" id="boundary" inkscape:connector-curvature="0" />
	<path style="fill:none;stroke:red;stroke-width:1px;stroke-linecap:butt;stroke-linejoin:miter;stroke-opacity:1" d="M 279.755,317.954 285.723,328.698 z" id="boundary" inkscape:connector-curvature="0" />
	<path style="fill:none;stroke:red;stroke-width:1px;stroke-linecap:butt;stroke-linejoin:miter;stroke-opacity:1" d="M 279.755,733.377 285.723,721.439 z" id="boundary" inkscape:connector-curvature="0" />
	<path style="fill:none;stroke:red;stroke-width:1px;stroke-linecap:butt;stroke-linejoin:miter;stroke-opacity:1" d="M 284.529,978.094 295.273,972.125 z" id="boundary" inkscape:connector-curvature="0" />
	<path style="fill:none;stroke:red;stroke-width:1px;stroke-linecap:butt;stroke-linejoin:miter;stroke-opacity:1" d="M 285.723,328.698 289.304,340.635 z" id="boundary" inkscape:connector-curvature="0" />
	<path style="fill:none;stroke:red;stroke-width:1px;stroke-linecap:butt;stroke-linejoin:miter;stroke-opacity:1" d="M 285.723,363.316 285.723,375.254 z" id="boundary" inkscape:connector-curvature="0" />
	<path style="fill:none;stroke:red;stroke-width:1px;stroke-linecap:butt;stroke-linejoin:miter;stroke-opacity:1" d="M 285.723,363.316 291.692,352.573 z" id="boundary" inkscape:connector-curvature="0" />
	<path style="fill:none;stroke:red;stroke-width:1px;stroke-linecap:butt;stroke-linejoin:miter;stroke-opacity:1" d="M 285.723,375.254 285.723,387.191 z" id="boundary" inkscape:connector-curvature="0" />
	<path style="fill:none;stroke:red;stroke-width:1px;stroke-linecap:butt;stroke-linejoin:miter;stroke-opacity:1" d="M 285.723,387.191 291.692,397.935 z" id="boundary" inkscape:connector-curvature="0" />
	<path style="fill:none;stroke:red;stroke-width:1px;stroke-linecap:butt;stroke-linejoin:miter;stroke-opacity:1" d="M 285.723,673.69 285.723,685.627 z" id="boundary" inkscape:connector-curvature="0" />
	<path style="fill:none;stroke:red;stroke-width:1px;stroke-linecap:butt;stroke-linejoin:miter;stroke-opacity:1" d="M 285.723,673.69 295.273,665.333 z" id="boundary" inkscape:connector-curvature="0" />
	<path style="fill:none;stroke:red;stroke-width:1px;stroke-linecap:butt;stroke-linejoin:miter;stroke-opacity:1" d="M 285.723,685.627 285.723,697.564 z" id="boundary" inkscape:connector-curvature="0" />
	<path style="fill:none;stroke:red;stroke-width:1px;stroke-linecap:butt;stroke-linejoin:miter;stroke-opacity:1" d="M 285.723,697.564 285.723,709.502 z" id="boundary" inkscape:connector-curvature="0" />
	<path style="fill:none;stroke:red;stroke-width:1px;stroke-linecap:butt;stroke-linejoin:miter;stroke-opacity:1" d="M 285.723,709.502 285.723,721.439 z" id="boundary" inkscape:connector-curvature="0" />
	<path style="fill:none;stroke:red;stroke-width:1px;stroke-linecap:butt;stroke-linejoin:miter;stroke-opacity:1" d="M 289.304,340.635 291.692,352.573 z" id="boundary" inkscape:connector-curvature="0" />
	<path style="fill:none;stroke:red;stroke-width:1px;stroke-linecap:butt;stroke-linejoin:miter;stroke-opacity:1" d="M 290.498,923.182 302.436,925.569 z" id="boundary" inkscape:connector-curvature="0" />
	<path style="fill:none;stroke:red;stroke-width:1px;stroke-linecap:butt;stroke-linejoin:miter;stroke-opacity:1" d="M 291.692,397.935 297.661,408.679 z" id="boundary" inkscape:connector-curvature="0" />
	<path style="fill:none;stroke:red;stroke-width:1px;stroke-linecap:butt;stroke-linejoin:miter;stroke-opacity:1" d="M 295.273,665.333 307.211,659.365 z" id="boundary" inkscape:connector-curvature="0" />
	<path style="fill:none;stroke:red;stroke-width:1px;stroke-linecap:butt;stroke-linejoin:miter;stroke-opacity:1" d="M 295.273,972.125 307.211,972.125 z" id="boundary" inkscape:connector-curvature="0" />
	<path style="fill:none;stroke:red;stroke-width:1px;stroke-linecap:butt;stroke-linejoin:miter;stroke-opacity:1" d="M 297.661,408.679 303.629,419.422 z" id="boundary" inkscape:connector-curvature="0" />
	<path style="fill:none;stroke:red;stroke-width:1px;stroke-linecap:butt;stroke-linejoin:miter;stroke-opacity:1" d="M 302.436,925.569 314.373,929.15 z" id="boundary" inkscape:connector-curvature="0" />
	<path style="fill:none;stroke:red;stroke-width:1px;stroke-linecap:butt;stroke-linejoin:miter;stroke-opacity:1" d="M 303.629,419.422 303.629,431.36 z" id="boundary" inkscape:connector-curvature="0" />
	<path style="fill:none;stroke:red;stroke-width:1px;stroke-linecap:butt;stroke-linejoin:miter;stroke-opacity:1" d="M 303.629,431.36 309.598,442.103 z" id="boundary" inkscape:connector-curvature="0" />
	<path style="fill:none;stroke:red;stroke-width:1px;stroke-linecap:butt;stroke-linejoin:miter;stroke-opacity:1" d="M 307.211,659.365 319.148,653.396 z" id="boundary" inkscape:connector-curvature="0" />
	<path style="fill:none;stroke:red;stroke-width:1px;stroke-linecap:butt;stroke-linejoin:miter;stroke-opacity:1" d="M 307.211,972.125 319.148,969.738 z" id="boundary" inkscape:connector-curvature="0" />
	<path style="fill:none;stroke:red;stroke-width:1px;stroke-linecap:butt;stroke-linejoin:miter;stroke-opacity:1" d="M 309.598,442.103 313.179,454.041 z" id="boundary" inkscape:connector-curvature="0" />
	<path style="fill:none;stroke:red;stroke-width:1px;stroke-linecap:butt;stroke-linejoin:miter;stroke-opacity:1" d="M 313.179,454.041 315.567,465.978 z" id="boundary" inkscape:connector-curvature="0" />
	<path style="fill:none;stroke:red;stroke-width:1px;stroke-linecap:butt;stroke-linejoin:miter;stroke-opacity:1" d="M 314.373,929.15 323.923,936.313 z" id="boundary" inkscape:connector-curvature="0" />
	<path style="fill:none;stroke:red;stroke-width:1px;stroke-linecap:butt;stroke-linejoin:miter;stroke-opacity:1" d="M 315.567,465.978 321.535,476.722 z" id="boundary" inkscape:connector-curvature="0" />
	<path style="fill:none;stroke:red;stroke-width:1px;stroke-linecap:butt;stroke-linejoin:miter;stroke-opacity:1" d="M 319.148,653.396 327.504,643.846 z" id="boundary" inkscape:connector-curvature="0" />
	<path style="fill:none;stroke:red;stroke-width:1px;stroke-linecap:butt;stroke-linejoin:miter;stroke-opacity:1" d="M 319.148,969.738 327.504,960.188 z" id="boundary" inkscape:connector-curvature="0" />
	<path style="fill:none;stroke:red;stroke-width:1px;stroke-linecap:butt;stroke-linejoin:miter;stroke-opacity:1" d="M 321.535,476.722 323.923,488.659 z" id="boundary" inkscape:connector-curvature="0" />
	<path style="fill:none;stroke:red;stroke-width:1px;stroke-linecap:butt;stroke-linejoin:miter;stroke-opacity:1" d="M 323.923,488.659 329.892,499.403 z" id="boundary" inkscape:connector-curvature="0" />
	<path style="fill:none;stroke:red;stroke-width:1px;stroke-linecap:butt;stroke-linejoin:miter;stroke-opacity:1" d="M 323.923,936.313 333.473,944.669 z" id="boundary" inkscape:connector-curvature="0" />
	<path style="fill:none;stroke:red;stroke-width:1px;stroke-linecap:butt;stroke-linejoin:miter;stroke-opacity:1" d="M 327.504,608.034 327.504,619.971 z" id="boundary" inkscape:connector-curvature="0" />
	<path style="fill:none;stroke:red;stroke-width:1px;stroke-linecap:butt;stroke-linejoin:miter;stroke-opacity:1" d="M 327.504,608.034 337.054,599.677 z" id="boundary" inkscape:connector-curvature="0" />
	<path style="fill:none;stroke:red;stroke-width:1px;stroke-linecap:butt;stroke-linejoin:miter;stroke-opacity:1" d="M 327.504,619.971 333.473,630.715 z" id="boundary" inkscape:connector-curvature="0" />
	<path style="fill:none;stroke:red;stroke-width:1px;stroke-linecap:butt;stroke-linejoin:miter;stroke-opacity:1" d="M 327.504,643.846 333.473,630.715 z" id="boundary" inkscape:connector-curvature="0" />
	<path style="fill:none;stroke:red;stroke-width:1px;stroke-linecap:butt;stroke-linejoin:miter;stroke-opacity:1" d="M 327.504,960.188 333.473,944.669 z" id="boundary" inkscape:connector-curvature="0" />
	<path style="fill:none;stroke:red;stroke-width:1px;stroke-linecap:butt;stroke-linejoin:miter;stroke-opacity:1" d="M 329.892,499.403 333.473,511.341 z" id="boundary" inkscape:connector-curvature="0" />
	<path style="fill:none;stroke:red;stroke-width:1px;stroke-linecap:butt;stroke-linejoin:miter;stroke-opacity:1" d="M 333.473,511.341 333.473,523.278 z" id="boundary" inkscape:connector-curvature="0" />
	<path style="fill:none;stroke:red;stroke-width:1px;stroke-linecap:butt;stroke-linejoin:miter;stroke-opacity:1" d="M 333.473,523.278 339.442,534.022 z" id="boundary" inkscape:connector-curvature="0" />
	<path style="fill:none;stroke:red;stroke-width:1px;stroke-linecap:butt;stroke-linejoin:miter;stroke-opacity:1" d="M 337.054,599.677 345.41,584.159 z" id="boundary" inkscape:connector-curvature="0" />
	<path style="fill:none;stroke:red;stroke-width:1px;stroke-linecap:butt;stroke-linejoin:miter;stroke-opacity:1" d="M 339.442,534.022 345.41,544.765 z" id="boundary" inkscape:connector-curvature="0" />
	<path style="fill:none;stroke:red;stroke-width:1px;stroke-linecap:butt;stroke-linejoin:miter;stroke-opacity:1" d="M 345.41,544.765 350.185,556.703 z" id="boundary" inkscape:connector-curvature="0" />
	<path style="fill:none;stroke:red;stroke-width:1px;stroke-linecap:butt;stroke-linejoin:miter;stroke-opacity:1" d="M 345.41,584.159 351.379,568.64 z" id="boundary" inkscape:connector-curvature="0" />
	<path style="fill:none;stroke:red;stroke-width:1px;stroke-linecap:butt;stroke-linejoin:miter;stroke-opacity:1" d="M 350.185,556.703 351.379,568.64 z" id="boundary" inkscape:connector-curvature="0" />
	<circle cx="4" cy="317.954" r="4" fill="#0" id="circle0"/>
	<circle cx="4" cy="329.892" r="4" fill="#0" id="circle1"/>
	<circle cx="9.96871" cy="306.017" r="4" fill="#0" id="circle2"/>
	<circle cx="9.96871" cy="340.635" r="4" fill="#0" id="circle3"/>
	<circle cx="15.9374" cy="294.079" r="4" fill="#0" id="circle4"/>
	<circle cx="15.9374" cy="351.379" r="4" fill="#0" id="circle5"/>
	<circle cx="15.9374" cy="363.316" r="4" fill="#0" id="circle6"/>
	<circle cx="19.5187" cy="375.254" r="4" fill="#0" id="circle7"/>
	<circle cx="21.9061" cy="73.2371" r="4" fill="#0" id="circle8"/>
	<circle cx="21.9061" cy="85.1745" r="4" fill="#0" id="circle9"/>
	<circle cx="21.9061" cy="97.1119" r="4" fill="#0" id="circle10"/>
	<circle cx="21.9061" cy="109.049" r="4" fill="#0" id="circle11"/>
	<circle cx="21.9061" cy="120.987" r="4" fill="#0" id="circle12"/>
	<circle cx="21.9061" cy="282.142" r="4" fill="#0" id="circle13"/>
	<circle cx="21.9061" cy="387.191" r="4" fill="#0" id="circle14"/>
	<circle cx="27.8748" cy="61.2996" r="4" fill="#0" id="circle15"/>
	<circle cx="27.8748" cy="131.73" r="4" fill="#0" id="circle16"/>
	<circle cx="27.8748" cy="143.668" r="4" fill="#0" id="circle17"/>
	<circle cx="27.8748" cy="270.205" r="4" fill="#0" id="circle18"/>
	<circle cx="27.8748" cy="397.935" r="4" fill="#0" id="circle19"/>
	<circle cx="27.8748" cy="409.872" r="4" fill="#0" id="circle20"/>
	<circle cx="27.8748" cy="421.81" r="4" fill="#0" id="circle21"/>
	<circle cx="27.8748" cy="433.747" r="4" fill="#0" id="circle22"/>
	<circle cx="27.8748" cy="445.685" r="4" fill="#0" id="circle23"/>
	<circle cx="27.8748" cy="457.622" r="4" fill="#0" id="circle24"/>
	<circle cx="30.2623" cy="469.56" r="4" fill="#0" id="circle25"/>
	<circle cx="33.8436" cy="49.3622" r="4" fill="#0" id="circle26"/>
	<circle cx="33.8436" cy="154.412" r="4" fill="#0" id="circle27"/>
	<circle cx="36.231" cy="480.303" r="4" fill="#0" id="circle28"/>
	<circle cx="37.4248" cy="260.655" r="4" fill="#0" id="circle29"/>
	<circle cx="39.8123" cy="492.241" r="4" fill="#0" id="circle30"/>
	<circle cx="41.006" cy="163.961" r="4" fill="#0" id="circle31"/>
	<circle cx="41.006" cy="504.178" r="4" fill="#0" id="circle32"/>
	<circle cx="43.3935" cy="39.8123" r="4" fill="#0" id="circle33"/>
	<circle cx="46.9747" cy="514.922" r="4" fill="#0" id="circle34"/>
	<circle cx="48.1685" cy="254.686" r="4" fill="#0" id="circle35"/>
	<circle cx="50.556" cy="172.318" r="4" fill="#0" id="circle36"/>
	<circle cx="51.7497" cy="526.859" r="4" fill="#0" id="circle37"/>
	<circle cx="51.7497" cy="538.797" r="4" fill="#0" id="circle38"/>
	<circle cx="51.7497" cy="550.734" r="4" fill="#0" id="circle39"/>
	<circle cx="51.7497" cy="562.671" r="4" fill="#0" id="circle40"/>
	<circle cx="52.9434" cy="30.2623" r="4" fill="#0" id="circle41"/>
	<circle cx="57.7184" cy="246.33" r="4" fill="#0" id="circle42"/>
	<circle cx="57.7184" cy="573.415" r="4" fill="#0" id="circle43"/>
	<circle cx="57.7184" cy="585.353" r="4" fill="#0" id="circle44"/>
	<circle cx="58.9122" cy="181.868" r="4" fill="#0" id="circle45"/>
	<circle cx="63.6871" cy="234.392" r="4" fill="#0" id="circle46"/>
	<circle cx="63.6871" cy="596.096" r="4" fill="#0" id="circle47"/>
	<circle cx="63.6871" cy="608.034" r="4" fill="#0" id="circle48"/>
	<circle cx="63.6871" cy="619.971" r="4" fill="#0" id="circle49"/>
	<circle cx="64.8809" cy="24.2936" r="4" fill="#0" id="circle50"/>
	<circle cx="68.4621" cy="190.224" r="4" fill="#0" id="circle51"/>
	<circle cx="69.6558" cy="202.161" r="4" fill="#0" id="circle52"/>
	<circle cx="69.6558" cy="214.099" r="4" fill="#0" id="circle53"/>
	<circle cx="69.6558" cy="630.715" r="4" fill="#0" id="circle54"/>
	<circle cx="74.4308" cy="15.9374" r="4" fill="#0" id="circle55"/>
	<circle cx="75.6245" cy="641.458" r="4" fill="#0" id="circle56"/>
	<circle cx="75.6245" cy="653.396" r="4" fill="#0" id="circle57"/>
	<circle cx="81.5933" cy="664.14" r="4" fill="#0" id="circle58"/>
	<circle cx="85.1745" cy="9.96871" r="4" fill="#0" id="circle59"/>
	<circle cx="87.562" cy="674.883" r="4" fill="#0" id="circle60"/>
	<circle cx="93.5307" cy="685.627" r="4" fill="#0" id="circle61"/>
	<circle cx="93.5307" cy="795.451" r="4" fill="#0" id="circle62"/>
	<circle cx="93.5307" cy="807.389" r="4" fill="#0" id="circle63"/>
	<circle cx="93.5307" cy="819.326" r="4" fill="#0" id="circle64"/>
	<circle cx="93.5307" cy="831.264" r="4" fill="#0" id="circle65"/>
	<circle cx="93.5307" cy="938.7" r="4" fill="#0" id="circle66"/>
	<circle cx="93.5307" cy="950.638" r="4" fill="#0" id="circle67"/>
	<circle cx="93.5307" cy="962.575" r="4" fill="#0" id="circle68"/>
	<circle cx="97.1119" cy="4" r="4" fill="#0" id="circle69"/>
	<circle cx="99.4994" cy="777.545" r="4" fill="#0" id="circle70"/>
	<circle cx="99.4994" cy="842.007" r="4" fill="#0" id="circle71"/>
	<circle cx="99.4994" cy="853.945" r="4" fill="#0" id="circle72"/>
	<circle cx="99.4994" cy="914.826" r="4" fill="#0" id="circle73"/>
	<circle cx="99.4994" cy="926.763" r="4" fill="#0" id="circle74"/>
	<circle cx="103.081" cy="970.931" r="4" fill="#0" id="circle75"/>
	<circle cx="104.274" cy="691.596" r="4" fill="#0" id="circle76"/>
	<circle cx="105.468" cy="765.608" r="4" fill="#0" id="circle77"/>
	<circle cx="105.468" cy="864.688" r="4" fill="#0" id="circle78"/>
	<circle cx="105.468" cy="876.626" r="4" fill="#0" id="circle79"/>
	<circle cx="105.468" cy="888.563" r="4" fill="#0" id="circle80"/>
	<circle cx="105.468" cy="900.501" r="4" fill="#0" id="circle81"/>
	<circle cx="109.049" cy="4" r="4" fill="#0" id="circle82"/>
	<circle cx="111.437" cy="701.146" r="4" fill="#0" id="circle83"/>
	<circle cx="112.631" cy="978.094" r="4" fill="#0" id="circle84"/>
	<circle cx="115.018" cy="756.058" r="4" fill="#0" id="circle85"/>
	<circle cx="117.406" cy="711.889" r="4" fill="#0" id="circle86"/>
	<circle cx="120.987" cy="4" r="4" fill="#0" id="circle87"/>
	<circle cx="120.987" cy="744.12" r="4" fill="#0" id="circle88"/>
	<circle cx="123.374" cy="722.633" r="4" fill="#0" id="circle89"/>
	<circle cx="123.374" cy="984.063" r="4" fill="#0" id="circle90"/>
	<circle cx="132.924" cy="4" r="4" fill="#0" id="circle91"/>
	<circle cx="135.312" cy="984.063" r="4" fill="#0" id="circle92"/>
	<circle cx="144.862" cy="4" r="4" fill="#0" id="circle93"/>
	<circle cx="146.055" cy="990.031" r="4" fill="#0" id="circle94"/>
	<circle cx="156.799" cy="4" r="4" fill="#0" id="circle95"/>
	<circle cx="157.993" cy="990.031" r="4" fill="#0" id="circle96"/>
	<circle cx="167.543" cy="9.96871" r="4" fill="#0" id="circle97"/>
	<circle cx="168.736" cy="996" r="4" fill="#0" id="circle98"/>
	<circle cx="179.48" cy="9.96871" r="4" fill="#0" id="circle99"/>
	<circle cx="180.674" cy="996" r="4" fill="#0" id="circle100"/>
	<circle cx="190.224" cy="15.9374" r="4" fill="#0" id="circle101"/>
	<circle cx="192.611" cy="996" r="4" fill="#0" id="circle102"/>
	<circle cx="202.161" cy="15.9374" r="4" fill="#0" id="circle103"/>
	<circle cx="204.549" cy="996" r="4" fill="#0" id="circle104"/>
	<circle cx="212.905" cy="21.9061" r="4" fill="#0" id="circle105"/>
	<circle cx="216.486" cy="996" r="4" fill="#0" id="circle106"/>
	<circle cx="222.455" cy="29.0686" r="4" fill="#0" id="circle107"/>
	<circle cx="228.424" cy="996" r="4" fill="#0" id="circle108"/>
	<circle cx="232.005" cy="37.4248" r="4" fill="#0" id="circle109"/>
	<circle cx="237.974" cy="876.626" r="4" fill="#0" id="circle110"/>
	<circle cx="240.361" cy="888.563" r="4" fill="#0" id="circle111"/>
	<circle cx="240.361" cy="996" r="4" fill="#0" id="circle112"/>
	<circle cx="242.748" cy="43.3935" r="4" fill="#0" id="circle113"/>
	<circle cx="243.942" cy="232.005" r="4" fill="#0" id="circle114"/>
	<circle cx="243.942" cy="858.72" r="4" fill="#0" id="circle115"/>
	<circle cx="249.911" cy="52.9434" r="4" fill="#0" id="circle116"/>
	<circle cx="249.911" cy="214.099" r="4" fill="#0" id="circle117"/>
	<circle cx="249.911" cy="242.748" r="4" fill="#0" id="circle118"/>
	<circle cx="249.911" cy="840.813" r="4" fill="#0" id="circle119"/>
	<circle cx="249.911" cy="896.919" r="4" fill="#0" id="circle120"/>
	<circle cx="252.298" cy="996" r="4" fill="#0" id="circle121"/>
	<circle cx="255.88" cy="63.6871" r="4" fill="#0" id="circle122"/>
	<circle cx="255.88" cy="196.193" r="4" fill="#0" id="circle123"/>
	<circle cx="255.88" cy="253.492" r="4" fill="#0" id="circle124"/>
	<circle cx="255.88" cy="816.939" r="4" fill="#0" id="circle125"/>
	<circle cx="255.88" cy="828.876" r="4" fill="#0" id="circle126"/>
	<circle cx="258.267" cy="906.469" r="4" fill="#0" id="circle127"/>
	<circle cx="261.848" cy="74.4308" r="4" fill="#0" id="circle128"/>
	<circle cx="261.848" cy="142.474" r="4" fill="#0" id="circle129"/>
	<circle cx="261.848" cy="154.412" r="4" fill="#0" id="circle130"/>
	<circle cx="261.848" cy="184.255" r="4" fill="#0" id="circle131"/>
	<circle cx="261.848" cy="769.189" r="4" fill="#0" id="circle132"/>
	<circle cx="261.848" cy="781.126" r="4" fill="#0" id="circle133"/>
	<circle cx="261.848" cy="793.064" r="4" fill="#0" id="circle134"/>
	<circle cx="261.848" cy="805.001" r="4" fill="#0" id="circle135"/>
	<circle cx="264.236" cy="994.806" r="4" fill="#0" id="circle136"/>
	<circle cx="265.43" cy="261.848" r="4" fill="#0" id="circle137"/>
	<circle cx="267.817" cy="85.1745" r="4" fill="#0" id="circle138"/>
	<circle cx="267.817" cy="97.1119" r="4" fill="#0" id="circle139"/>
	<circle cx="267.817" cy="109.049" r="4" fill="#0" id="circle140"/>
	<circle cx="267.817" cy="120.987" r="4" fill="#0" id="circle141"/>
	<circle cx="267.817" cy="165.155" r="4" fill="#0" id="circle142"/>
	<circle cx="267.817" cy="757.252" r="4" fill="#0" id="circle143"/>
	<circle cx="267.817" cy="914.826" r="4" fill="#0" id="circle144"/>
	<circle cx="273.786" cy="271.398" r="4" fill="#0" id="circle145"/>
	<circle cx="273.786" cy="745.314" r="4" fill="#0" id="circle146"/>
	<circle cx="273.786" cy="984.063" r="4" fill="#0" id="circle147"/>
	<circle cx="278.561" cy="920.794" r="4" fill="#0" id="circle148"/>
	<circle cx="279.755" cy="282.142" r="4" fill="#0" id="circle149"/>
	<circle cx="279.755" cy="294.079" r="4" fill="#0" id="circle150"/>
	<circle cx="279.755" cy="306.017" r="4" fill="#0" id="circle151"/>
	<circle cx="279.755" cy="317.954" r="4" fill="#0" id="circle152"/>
	<circle cx="279.755" cy="733.377" r="4" fill="#0" id="circle153"/>
	<circle cx="284.529" cy="978.094" r="4" fill="#0" id="circle154"/>
	<circle cx="285.723" cy="328.698" r="4" fill="#0" id="circle155"/>
	<circle cx="285.723" cy="363.316" r="4" fill="#0" id="circle156"/>
	<circle cx="285.723" cy="375.254" r="4" fill="#0" id="circle157"/>
	<circle cx="285.723" cy="387.191" r="4" fill="#0" id="circle158"/>
	<circle cx="285.723" cy="673.69" r="4" fill="#0" id="circle159"/>
	<circle cx="285.723" cy="685.627" r="4" fill="#0" id="circle160"/>
	<circle cx="285.723" cy="697.564" r="4" fill="#0" id="circle161"/>
	<circle cx="285.723" cy="709.502" r="4" fill="#0" id="circle162"/>
	<circle cx="285.723" cy="721.439" r="4" fill="#0" id="circle163"/>
	<circle cx="289.304" cy="340.635" r="4" fill="#0" id="circle164"/>
	<circle cx="290.498" cy="923.182" r="4" fill="#0" id="circle165"/>
	<circle cx="291.692" cy="352.573" r="4" fill="#0" id="circle166"/>
	<circle cx="291.692" cy="397.935" r="4" fill="#0" id="circle167"/>
	<circle cx="295.273" cy="665.333" r="4" fill="#0" id="circle168"/>
	<circle cx="295.273" cy="972.125" r="4" fill="#0" id="circle169"/>
	<circle cx="297.661" cy="408.679" r="4" fill="#0" id="circle170"/>
	<circle cx="302.436" cy="925.569" r="4" fill="#0" id="circle171"/>
	<circle cx="303.629" cy="419.422" r="4" fill="#0" id="circle172"/>
	<circle cx="303.629" cy="431.36" r="4" fill="#0" id="circle173"/>
	<circle cx="307.211" cy="659.365" r="4" fill="#0" id="circle174"/>
	<circle cx="307.211" cy="972.125" r="4" fill="#0" id="circle175"/>
	<circle cx="309.598" cy="442.103" r="4" fill="#0" id="circle176"/>
	<circle cx="313.179" cy="454.041" r="4" fill="#0" id="circle177"/>
	<circle cx="314.373" cy="929.15" r="4" fill="#0" id="circle178"/>
	<circle cx="315.567" cy="465.978" r="4" fill="#0" id="circle179"/>
	<circle cx="319.148" cy="653.396" r="4" fill="#0" id="circle180"/>
	<circle cx="319.148" cy="969.738" r="4" fill="#0" id="circle181"/>
	<circle cx="321.535" cy="476.722" r="4" fill="#0" id="circle182"/>
	<circle cx="323.923" cy="488.659" r="4" fill="#0" id="circle183"/>
	<circle cx="323.923" cy="936.313" r="4" fill="#0" id="circle184"/>
	<circle cx="327.504" cy="608.034" r="4" fill="#0" id="circle185"/>
	<circle cx="327.504" cy="619.971" r="4" fill="#0" id="circle186"/>
	<circle cx="327.504" cy="643.846" r="4" fill="#0" id="circle187"/>
	<circle cx="327.504" cy="960.188" r="4" fill="#0" id="circle188"/>
	<circle cx="329.892" cy="499.403" r="4" fill="#0" id="circle189"/>
	<circle cx="333.473" cy="511.341" r="4" fill="#0" id="circle190"/>
	<circle cx="333.473" cy="523.278" r="4" fill="#0" id="circle191"/>
	<circle cx="333.473" cy="630.715" r="4" fill="#0" id="circle192"/>
	<circle cx="333.473" cy="944.669" r="4" fill="#0" id="circle193"/>
	<circle cx="337.054" cy="599.677" r="4" fill="#0" id="circle194"/>
	<circle cx="339.442" cy="534.022" r="4" fill="#0" id="circle195"/>
	<circle cx="345.41" cy="544.765" r="4" fill="#0" id="circle196"/>
	<circle cx="345.41" cy="584.159" r="4" fill="#0" id="circle197"/>
	<circle cx="350.185" cy="556.703" r="4" fill="#0" id="circle198"/>
	<circle cx="351.379" cy="568.64" r="4" fill="#0" id="circle199"/>
	</g>
</svg>