<?xml version="1.0" encoding="UTF-8" standalone="no"?>
<!-- Created with CurveBenchmark -->
<svg
	xmlns:dc="http://purl.org/dc/elements/1.1/"
	xmlns:cc="http://creativecommons.org/ns#"
	xmlns:rdf="http://www.w3.org/1999/02/22-rdf-syntax-ns#"
	xmlns:svg="http://www.w3.org/2000/svg"
	xmlns="http://www.w3.org/2000/svg"
	xmlns:sodipodi="http://sodipodi.sourceforge.net/DTD/sodipodi-0.dtd"
	xmlns:inkscape="http://www.inkscape.org/namespaces/inkscape"
	width="1000"
	height="1000"
	id="svg2"
	version="1.1"
	sodipodi:docname="manifold/discur-children05.png.txt">
<defs
	id="defs4" />
<metadata
	id="metadata7">
	<rdf:RDF>
		<cc:Work
			rdf:about="">
			<dc:format>image/svg+xml</dc:format>
			<dc:type
				rdf:resource="http://purl.org/dc/dcmitype/StillImage" />
			<dc:title></dc:title>
		</cc:Work>
	</rdf:RDF>
</metadata>
<g
	inkscape:label="Layer 1"
	inkscape:groupmode="layer"
	id="layer1">
	<path style="fill:none;stroke:red;stroke-width:1px;stroke-linecap:butt;stroke-linejoin:miter;stroke-opacity:1" d="M 4,306.057 4,322.562 z" id="boundary" inkscape:connector-curvature="0" />
	<path style="fill:none;stroke:red;stroke-width:1px;stroke-linecap:butt;stroke-linejoin:miter;stroke-opacity:1" d="M 4,306.057 12.2529,289.551 z" id="boundary" inkscape:connector-curvature="0" />
	<path style="fill:none;stroke:red;stroke-width:1px;stroke-linecap:butt;stroke-linejoin:miter;stroke-opacity:1" d="M 4,322.562 4,339.068 z" id="boundary" inkscape:connector-curvature="0" />
	<path style="fill:none;stroke:red;stroke-width:1px;stroke-linecap:butt;stroke-linejoin:miter;stroke-opacity:1" d="M 4,339.068 4,355.574 z" id="boundary" inkscape:connector-curvature="0" />
	<path style="fill:none;stroke:red;stroke-width:1px;stroke-linecap:butt;stroke-linejoin:miter;stroke-opacity:1" d="M 4,355.574 4,372.08 z" id="boundary" inkscape:connector-curvature="0" />
	<path style="fill:none;stroke:red;stroke-width:1px;stroke-linecap:butt;stroke-linejoin:miter;stroke-opacity:1" d="M 4,372.08 4,388.586 z" id="boundary" inkscape:connector-curvature="0" />
	<path style="fill:none;stroke:red;stroke-width:1px;stroke-linecap:butt;stroke-linejoin:miter;stroke-opacity:1" d="M 4,388.586 12.2529,403.441 z" id="boundary" inkscape:connector-curvature="0" />
	<path style="fill:none;stroke:red;stroke-width:1px;stroke-linecap:butt;stroke-linejoin:miter;stroke-opacity:1" d="M 4,429.85 4,446.356 z" id="boundary" inkscape:connector-curvature="0" />
	<path style="fill:none;stroke:red;stroke-width:1px;stroke-linecap:butt;stroke-linejoin:miter;stroke-opacity:1" d="M 4,429.85 12.2529,403.441 z" id="boundary" inkscape:connector-curvature="0" />
	<path style="fill:none;stroke:red;stroke-width:1px;stroke-linecap:butt;stroke-linejoin:miter;stroke-opacity:1" d="M 4,446.356 12.2529,461.211 z" id="boundary" inkscape:connector-curvature="0" />
	<path style="fill:none;stroke:red;stroke-width:1px;stroke-linecap:butt;stroke-linejoin:miter;stroke-opacity:1" d="M 12.2529,289.551 20.5058,273.045 z" id="boundary" inkscape:connector-curvature="0" />
	<path style="fill:none;stroke:red;stroke-width:1px;stroke-linecap:butt;stroke-linejoin:miter;stroke-opacity:1" d="M 12.2529,461.211 12.2529,477.717 z" id="boundary" inkscape:connector-curvature="0" />
	<path style="fill:none;stroke:red;stroke-width:1px;stroke-linecap:butt;stroke-linejoin:miter;stroke-opacity:1" d="M 12.2529,477.717 12.2529,494.223 z" id="boundary" inkscape:connector-curvature="0" />
	<path style="fill:none;stroke:red;stroke-width:1px;stroke-linecap:butt;stroke-linejoin:miter;stroke-opacity:1" d="M 12.2529,494.223 20.5058,509.078 z" id="boundary" inkscape:connector-curvature="0" />
	<path style="fill:none;stroke:red;stroke-width:1px;stroke-linecap:butt;stroke-linejoin:miter;stroke-opacity:1" d="M 20.5058,83.228 20.5058,99.7338 z" id="boundary" inkscape:connector-curvature="0" />
	<path style="fill:none;stroke:red;stroke-width:1px;stroke-linecap:butt;stroke-linejoin:miter;stroke-opacity:1" d="M 20.5058,83.228 28.7587,66.7221 z" id="boundary" inkscape:connector-curvature="0" />
	<path style="fill:none;stroke:red;stroke-width:1px;stroke-linecap:butt;stroke-linejoin:miter;stroke-opacity:1" d="M 20.5058,99.7338 20.5058,116.24 z" id="boundary" inkscape:connector-curvature="0" />
	<path style="fill:none;stroke:red;stroke-width:1px;stroke-linecap:butt;stroke-linejoin:miter;stroke-opacity:1" d="M 20.5058,116.24 28.7587,131.095 z" id="boundary" inkscape:connector-curvature="0" />
	<path style="fill:none;stroke:red;stroke-width:1px;stroke-linecap:butt;stroke-linejoin:miter;stroke-opacity:1" d="M 20.5058,273.045 33.7105,259.84 z" id="boundary" inkscape:connector-curvature="0" />
	<path style="fill:none;stroke:red;stroke-width:1px;stroke-linecap:butt;stroke-linejoin:miter;stroke-opacity:1" d="M 20.5058,509.078 25.4576,525.584 z" id="boundary" inkscape:connector-curvature="0" />
	<path style="fill:none;stroke:red;stroke-width:1px;stroke-linecap:butt;stroke-linejoin:miter;stroke-opacity:1" d="M 25.4576,525.584 28.7587,542.09 z" id="boundary" inkscape:connector-curvature="0" />
	<path style="fill:none;stroke:red;stroke-width:1px;stroke-linecap:butt;stroke-linejoin:miter;stroke-opacity:1" d="M 28.7587,66.7221 37.0116,50.2163 z" id="boundary" inkscape:connector-curvature="0" />
	<path style="fill:none;stroke:red;stroke-width:1px;stroke-linecap:butt;stroke-linejoin:miter;stroke-opacity:1" d="M 28.7587,131.095 37.0116,145.95 z" id="boundary" inkscape:connector-curvature="0" />
	<path style="fill:none;stroke:red;stroke-width:1px;stroke-linecap:butt;stroke-linejoin:miter;stroke-opacity:1" d="M 28.7587,542.09 37.0116,556.945 z" id="boundary" inkscape:connector-curvature="0" />
	<path style="fill:none;stroke:red;stroke-width:1px;stroke-linecap:butt;stroke-linejoin:miter;stroke-opacity:1" d="M 33.7105,259.84 50.2163,251.587 z" id="boundary" inkscape:connector-curvature="0" />
	<path style="fill:none;stroke:red;stroke-width:1px;stroke-linecap:butt;stroke-linejoin:miter;stroke-opacity:1" d="M 37.0116,50.2163 50.2163,37.0116 z" id="boundary" inkscape:connector-curvature="0" />
	<path style="fill:none;stroke:red;stroke-width:1px;stroke-linecap:butt;stroke-linejoin:miter;stroke-opacity:1" d="M 37.0116,145.95 46.9151,159.155 z" id="boundary" inkscape:connector-curvature="0" />
	<path style="fill:none;stroke:red;stroke-width:1px;stroke-linecap:butt;stroke-linejoin:miter;stroke-opacity:1" d="M 37.0116,556.945 37.0116,573.451 z" id="boundary" inkscape:connector-curvature="0" />
	<path style="fill:none;stroke:red;stroke-width:1px;stroke-linecap:butt;stroke-linejoin:miter;stroke-opacity:1" d="M 37.0116,573.451 37.0116,589.957 z" id="boundary" inkscape:connector-curvature="0" />
	<path style="fill:none;stroke:red;stroke-width:1px;stroke-linecap:butt;stroke-linejoin:miter;stroke-opacity:1" d="M 37.0116,589.957 37.0116,606.463 z" id="boundary" inkscape:connector-curvature="0" />
	<path style="fill:none;stroke:red;stroke-width:1px;stroke-linecap:butt;stroke-linejoin:miter;stroke-opacity:1" d="M 37.0116,606.463 40.3128,622.968 z" id="boundary" inkscape:connector-curvature="0" />
	<path style="fill:none;stroke:red;stroke-width:1px;stroke-linecap:butt;stroke-linejoin:miter;stroke-opacity:1" d="M 40.3128,622.968 53.5175,632.872 z" id="boundary" inkscape:connector-curvature="0" />
	<path style="fill:none;stroke:red;stroke-width:1px;stroke-linecap:butt;stroke-linejoin:miter;stroke-opacity:1" d="M 46.9151,159.155 60.1198,170.709 z" id="boundary" inkscape:connector-curvature="0" />
	<path style="fill:none;stroke:red;stroke-width:1px;stroke-linecap:butt;stroke-linejoin:miter;stroke-opacity:1" d="M 50.2163,37.0116 66.7221,28.7587 z" id="boundary" inkscape:connector-curvature="0" />
	<path style="fill:none;stroke:red;stroke-width:1px;stroke-linecap:butt;stroke-linejoin:miter;stroke-opacity:1" d="M 50.2163,251.587 63.421,238.383 z" id="boundary" inkscape:connector-curvature="0" />
	<path style="fill:none;stroke:red;stroke-width:1px;stroke-linecap:butt;stroke-linejoin:miter;stroke-opacity:1" d="M 53.5175,632.872 53.5175,649.378 z" id="boundary" inkscape:connector-curvature="0" />
	<path style="fill:none;stroke:red;stroke-width:1px;stroke-linecap:butt;stroke-linejoin:miter;stroke-opacity:1" d="M 53.5175,649.378 61.7704,664.233 z" id="boundary" inkscape:connector-curvature="0" />
	<path style="fill:none;stroke:red;stroke-width:1px;stroke-linecap:butt;stroke-linejoin:miter;stroke-opacity:1" d="M 60.1198,170.709 71.6739,183.913 z" id="boundary" inkscape:connector-curvature="0" />
	<path style="fill:none;stroke:red;stroke-width:1px;stroke-linecap:butt;stroke-linejoin:miter;stroke-opacity:1" d="M 61.7704,664.233 71.6739,677.438 z" id="boundary" inkscape:connector-curvature="0" />
	<path style="fill:none;stroke:red;stroke-width:1px;stroke-linecap:butt;stroke-linejoin:miter;stroke-opacity:1" d="M 63.421,238.383 76.6256,226.829 z" id="boundary" inkscape:connector-curvature="0" />
	<path style="fill:none;stroke:red;stroke-width:1px;stroke-linecap:butt;stroke-linejoin:miter;stroke-opacity:1" d="M 66.7221,28.7587 79.9268,15.5541 z" id="boundary" inkscape:connector-curvature="0" />
	<path style="fill:none;stroke:red;stroke-width:1px;stroke-linecap:butt;stroke-linejoin:miter;stroke-opacity:1" d="M 71.6739,183.913 78.2762,200.419 z" id="boundary" inkscape:connector-curvature="0" />
	<path style="fill:none;stroke:red;stroke-width:1px;stroke-linecap:butt;stroke-linejoin:miter;stroke-opacity:1" d="M 71.6739,677.438 86.5291,685.691 z" id="boundary" inkscape:connector-curvature="0" />
	<path style="fill:none;stroke:red;stroke-width:1px;stroke-linecap:butt;stroke-linejoin:miter;stroke-opacity:1" d="M 76.6256,226.829 78.2762,200.419 z" id="boundary" inkscape:connector-curvature="0" />
	<path style="fill:none;stroke:red;stroke-width:1px;stroke-linecap:butt;stroke-linejoin:miter;stroke-opacity:1" d="M 79.9268,15.5541 96.4326,7.30116 z" id="boundary" inkscape:connector-curvature="0" />
	<path style="fill:none;stroke:red;stroke-width:1px;stroke-linecap:butt;stroke-linejoin:miter;stroke-opacity:1" d="M 86.5291,685.691 99.7338,697.245 z" id="boundary" inkscape:connector-curvature="0" />
	<path style="fill:none;stroke:red;stroke-width:1px;stroke-linecap:butt;stroke-linejoin:miter;stroke-opacity:1" d="M 86.5291,809.484 94.782,784.725 z" id="boundary" inkscape:connector-curvature="0" />
	<path style="fill:none;stroke:red;stroke-width:1px;stroke-linecap:butt;stroke-linejoin:miter;stroke-opacity:1" d="M 86.5291,809.484 94.782,824.339 z" id="boundary" inkscape:connector-curvature="0" />
	<path style="fill:none;stroke:red;stroke-width:1px;stroke-linecap:butt;stroke-linejoin:miter;stroke-opacity:1" d="M 94.782,768.22 94.782,784.725 z" id="boundary" inkscape:connector-curvature="0" />
	<path style="fill:none;stroke:red;stroke-width:1px;stroke-linecap:butt;stroke-linejoin:miter;stroke-opacity:1" d="M 94.782,768.22 103.035,746.762 z" id="boundary" inkscape:connector-curvature="0" />
	<path style="fill:none;stroke:red;stroke-width:1px;stroke-linecap:butt;stroke-linejoin:miter;stroke-opacity:1" d="M 94.782,824.339 103.035,839.195 z" id="boundary" inkscape:connector-curvature="0" />
	<path style="fill:none;stroke:red;stroke-width:1px;stroke-linecap:butt;stroke-linejoin:miter;stroke-opacity:1" d="M 96.4326,7.30116 112.938,4 z" id="boundary" inkscape:connector-curvature="0" />
	<path style="fill:none;stroke:red;stroke-width:1px;stroke-linecap:butt;stroke-linejoin:miter;stroke-opacity:1" d="M 99.7338,697.245 103.035,713.75 z" id="boundary" inkscape:connector-curvature="0" />
	<path style="fill:none;stroke:red;stroke-width:1px;stroke-linecap:butt;stroke-linejoin:miter;stroke-opacity:1" d="M 103.035,713.75 103.035,730.256 z" id="boundary" inkscape:connector-curvature="0" />
	<path style="fill:none;stroke:red;stroke-width:1px;stroke-linecap:butt;stroke-linejoin:miter;stroke-opacity:1" d="M 103.035,730.256 103.035,746.762 z" id="boundary" inkscape:connector-curvature="0" />
	<path style="fill:none;stroke:red;stroke-width:1px;stroke-linecap:butt;stroke-linejoin:miter;stroke-opacity:1" d="M 103.035,839.195 103.035,855.7 z" id="boundary" inkscape:connector-curvature="0" />
	<path style="fill:none;stroke:red;stroke-width:1px;stroke-linecap:butt;stroke-linejoin:miter;stroke-opacity:1" d="M 103.035,855.7 103.035,872.206 z" id="boundary" inkscape:connector-curvature="0" />
	<path style="fill:none;stroke:red;stroke-width:1px;stroke-linecap:butt;stroke-linejoin:miter;stroke-opacity:1" d="M 103.035,872.206 107.987,888.712 z" id="boundary" inkscape:connector-curvature="0" />
	<path style="fill:none;stroke:red;stroke-width:1px;stroke-linecap:butt;stroke-linejoin:miter;stroke-opacity:1" d="M 103.035,925.025 103.035,941.531 z" id="boundary" inkscape:connector-curvature="0" />
	<path style="fill:none;stroke:red;stroke-width:1px;stroke-linecap:butt;stroke-linejoin:miter;stroke-opacity:1" d="M 103.035,925.025 111.288,905.218 z" id="boundary" inkscape:connector-curvature="0" />
	<path style="fill:none;stroke:red;stroke-width:1px;stroke-linecap:butt;stroke-linejoin:miter;stroke-opacity:1" d="M 103.035,941.531 111.288,956.386 z" id="boundary" inkscape:connector-curvature="0" />
	<path style="fill:none;stroke:red;stroke-width:1px;stroke-linecap:butt;stroke-linejoin:miter;stroke-opacity:1" d="M 107.987,888.712 111.288,905.218 z" id="boundary" inkscape:connector-curvature="0" />
	<path style="fill:none;stroke:red;stroke-width:1px;stroke-linecap:butt;stroke-linejoin:miter;stroke-opacity:1" d="M 111.288,956.386 122.842,969.591 z" id="boundary" inkscape:connector-curvature="0" />
	<path style="fill:none;stroke:red;stroke-width:1px;stroke-linecap:butt;stroke-linejoin:miter;stroke-opacity:1" d="M 112.938,4 129.444,4 z" id="boundary" inkscape:connector-curvature="0" />
	<path style="fill:none;stroke:red;stroke-width:1px;stroke-linecap:butt;stroke-linejoin:miter;stroke-opacity:1" d="M 122.842,969.591 136.047,979.494 z" id="boundary" inkscape:connector-curvature="0" />
	<path style="fill:none;stroke:red;stroke-width:1px;stroke-linecap:butt;stroke-linejoin:miter;stroke-opacity:1" d="M 129.444,4 145.95,4 z" id="boundary" inkscape:connector-curvature="0" />
	<path style="fill:none;stroke:red;stroke-width:1px;stroke-linecap:butt;stroke-linejoin:miter;stroke-opacity:1" d="M 136.047,979.494 152.552,979.494 z" id="boundary" inkscape:connector-curvature="0" />
	<path style="fill:none;stroke:red;stroke-width:1px;stroke-linecap:butt;stroke-linejoin:miter;stroke-opacity:1" d="M 145.95,4 162.456,4 z" id="boundary" inkscape:connector-curvature="0" />
	<path style="fill:none;stroke:red;stroke-width:1px;stroke-linecap:butt;stroke-linejoin:miter;stroke-opacity:1" d="M 152.552,979.494 167.408,987.747 z" id="boundary" inkscape:connector-curvature="0" />
	<path style="fill:none;stroke:red;stroke-width:1px;stroke-linecap:butt;stroke-linejoin:miter;stroke-opacity:1" d="M 162.456,4 177.311,12.2529 z" id="boundary" inkscape:connector-curvature="0" />
	<path style="fill:none;stroke:red;stroke-width:1px;stroke-linecap:butt;stroke-linejoin:miter;stroke-opacity:1" d="M 167.408,987.747 182.263,996 z" id="boundary" inkscape:connector-curvature="0" />
	<path style="fill:none;stroke:red;stroke-width:1px;stroke-linecap:butt;stroke-linejoin:miter;stroke-opacity:1" d="M 177.311,12.2529 193.817,15.5541 z" id="boundary" inkscape:connector-curvature="0" />
	<path style="fill:none;stroke:red;stroke-width:1px;stroke-linecap:butt;stroke-linejoin:miter;stroke-opacity:1" d="M 182.263,996 198.769,996 z" id="boundary" inkscape:connector-curvature="0" />
	<path style="fill:none;stroke:red;stroke-width:1px;stroke-linecap:butt;stroke-linejoin:miter;stroke-opacity:1" d="M 193.817,15.5541 210.323,20.5058 z" id="boundary" inkscape:connector-curvature="0" />
	<path style="fill:none;stroke:red;stroke-width:1px;stroke-linecap:butt;stroke-linejoin:miter;stroke-opacity:1" d="M 198.769,996 215.275,996 z" id="boundary" inkscape:connector-curvature="0" />
	<path style="fill:none;stroke:red;stroke-width:1px;stroke-linecap:butt;stroke-linejoin:miter;stroke-opacity:1" d="M 210.323,20.5058 225.178,28.7587 z" id="boundary" inkscape:connector-curvature="0" />
	<path style="fill:none;stroke:red;stroke-width:1px;stroke-linecap:butt;stroke-linejoin:miter;stroke-opacity:1" d="M 215.275,996 231.78,996 z" id="boundary" inkscape:connector-curvature="0" />
	<path style="fill:none;stroke:red;stroke-width:1px;stroke-linecap:butt;stroke-linejoin:miter;stroke-opacity:1" d="M 225.178,28.7587 240.033,37.0116 z" id="boundary" inkscape:connector-curvature="0" />
	<path style="fill:none;stroke:red;stroke-width:1px;stroke-linecap:butt;stroke-linejoin:miter;stroke-opacity:1" d="M 231.78,996 248.286,996 z" id="boundary" inkscape:connector-curvature="0" />
	<path style="fill:none;stroke:red;stroke-width:1px;stroke-linecap:butt;stroke-linejoin:miter;stroke-opacity:1" d="M 240.033,37.0116 253.238,46.9151 z" id="boundary" inkscape:connector-curvature="0" />
	<path style="fill:none;stroke:red;stroke-width:1px;stroke-linecap:butt;stroke-linejoin:miter;stroke-opacity:1" d="M 244.985,863.953 248.286,880.459 z" id="boundary" inkscape:connector-curvature="0" />
	<path style="fill:none;stroke:red;stroke-width:1px;stroke-linecap:butt;stroke-linejoin:miter;stroke-opacity:1" d="M 244.985,863.953 253.238,847.448 z" id="boundary" inkscape:connector-curvature="0" />
	<path style="fill:none;stroke:red;stroke-width:1px;stroke-linecap:butt;stroke-linejoin:miter;stroke-opacity:1" d="M 248.286,880.459 256.539,895.314 z" id="boundary" inkscape:connector-curvature="0" />
	<path style="fill:none;stroke:red;stroke-width:1px;stroke-linecap:butt;stroke-linejoin:miter;stroke-opacity:1" d="M 248.286,996 264.792,996 z" id="boundary" inkscape:connector-curvature="0" />
	<path style="fill:none;stroke:red;stroke-width:1px;stroke-linecap:butt;stroke-linejoin:miter;stroke-opacity:1" d="M 253.238,46.9151 261.491,61.7704 z" id="boundary" inkscape:connector-curvature="0" />
	<path style="fill:none;stroke:red;stroke-width:1px;stroke-linecap:butt;stroke-linejoin:miter;stroke-opacity:1" d="M 253.238,211.973 256.539,228.479 z" id="boundary" inkscape:connector-curvature="0" />
	<path style="fill:none;stroke:red;stroke-width:1px;stroke-linecap:butt;stroke-linejoin:miter;stroke-opacity:1" d="M 253.238,211.973 261.491,195.468 z" id="boundary" inkscape:connector-curvature="0" />
	<path style="fill:none;stroke:red;stroke-width:1px;stroke-linecap:butt;stroke-linejoin:miter;stroke-opacity:1" d="M 253.238,847.448 261.491,822.689 z" id="boundary" inkscape:connector-curvature="0" />
	<path style="fill:none;stroke:red;stroke-width:1px;stroke-linecap:butt;stroke-linejoin:miter;stroke-opacity:1" d="M 256.539,228.479 264.792,243.334 z" id="boundary" inkscape:connector-curvature="0" />
	<path style="fill:none;stroke:red;stroke-width:1px;stroke-linecap:butt;stroke-linejoin:miter;stroke-opacity:1" d="M 256.539,895.314 271.394,903.567 z" id="boundary" inkscape:connector-curvature="0" />
	<path style="fill:none;stroke:red;stroke-width:1px;stroke-linecap:butt;stroke-linejoin:miter;stroke-opacity:1" d="M 261.491,61.7704 269.744,76.6256 z" id="boundary" inkscape:connector-curvature="0" />
	<path style="fill:none;stroke:red;stroke-width:1px;stroke-linecap:butt;stroke-linejoin:miter;stroke-opacity:1" d="M 261.491,195.468 269.744,175.661 z" id="boundary" inkscape:connector-curvature="0" />
	<path style="fill:none;stroke:red;stroke-width:1px;stroke-linecap:butt;stroke-linejoin:miter;stroke-opacity:1" d="M 261.491,822.689 269.744,797.93 z" id="boundary" inkscape:connector-curvature="0" />
	<path style="fill:none;stroke:red;stroke-width:1px;stroke-linecap:butt;stroke-linejoin:miter;stroke-opacity:1" d="M 264.792,243.334 269.744,259.84 z" id="boundary" inkscape:connector-curvature="0" />
	<path style="fill:none;stroke:red;stroke-width:1px;stroke-linecap:butt;stroke-linejoin:miter;stroke-opacity:1" d="M 264.792,996 279.647,987.747 z" id="boundary" inkscape:connector-curvature="0" />
	<path style="fill:none;stroke:red;stroke-width:1px;stroke-linecap:butt;stroke-linejoin:miter;stroke-opacity:1" d="M 269.744,76.6256 269.744,93.1314 z" id="boundary" inkscape:connector-curvature="0" />
	<path style="fill:none;stroke:red;stroke-width:1px;stroke-linecap:butt;stroke-linejoin:miter;stroke-opacity:1" d="M 269.744,93.1314 269.744,109.637 z" id="boundary" inkscape:connector-curvature="0" />
	<path style="fill:none;stroke:red;stroke-width:1px;stroke-linecap:butt;stroke-linejoin:miter;stroke-opacity:1" d="M 269.744,109.637 269.744,126.143 z" id="boundary" inkscape:connector-curvature="0" />
	<path style="fill:none;stroke:red;stroke-width:1px;stroke-linecap:butt;stroke-linejoin:miter;stroke-opacity:1" d="M 269.744,126.143 269.744,142.649 z" id="boundary" inkscape:connector-curvature="0" />
	<path style="fill:none;stroke:red;stroke-width:1px;stroke-linecap:butt;stroke-linejoin:miter;stroke-opacity:1" d="M 269.744,142.649 269.744,159.155 z" id="boundary" inkscape:connector-curvature="0" />
	<path style="fill:none;stroke:red;stroke-width:1px;stroke-linecap:butt;stroke-linejoin:miter;stroke-opacity:1" d="M 269.744,159.155 269.744,175.661 z" id="boundary" inkscape:connector-curvature="0" />
	<path style="fill:none;stroke:red;stroke-width:1px;stroke-linecap:butt;stroke-linejoin:miter;stroke-opacity:1" d="M 269.744,259.84 277.997,274.696 z" id="boundary" inkscape:connector-curvature="0" />
	<path style="fill:none;stroke:red;stroke-width:1px;stroke-linecap:butt;stroke-linejoin:miter;stroke-opacity:1" d="M 269.744,797.93 277.997,773.171 z" id="boundary" inkscape:connector-curvature="0" />
	<path style="fill:none;stroke:red;stroke-width:1px;stroke-linecap:butt;stroke-linejoin:miter;stroke-opacity:1" d="M 271.394,903.567 286.25,911.82 z" id="boundary" inkscape:connector-curvature="0" />
	<path style="fill:none;stroke:red;stroke-width:1px;stroke-linecap:butt;stroke-linejoin:miter;stroke-opacity:1" d="M 277.997,274.696 286.25,289.551 z" id="boundary" inkscape:connector-curvature="0" />
	<path style="fill:none;stroke:red;stroke-width:1px;stroke-linecap:butt;stroke-linejoin:miter;stroke-opacity:1" d="M 277.997,756.666 277.997,773.171 z" id="boundary" inkscape:connector-curvature="0" />
	<path style="fill:none;stroke:red;stroke-width:1px;stroke-linecap:butt;stroke-linejoin:miter;stroke-opacity:1" d="M 277.997,756.666 286.25,740.16 z" id="boundary" inkscape:connector-curvature="0" />
	<path style="fill:none;stroke:red;stroke-width:1px;stroke-linecap:butt;stroke-linejoin:miter;stroke-opacity:1" d="M 279.647,987.747 292.852,974.542 z" id="boundary" inkscape:connector-curvature="0" />
	<path style="fill:none;stroke:red;stroke-width:1px;stroke-linecap:butt;stroke-linejoin:miter;stroke-opacity:1" d="M 286.25,289.551 286.25,306.057 z" id="boundary" inkscape:connector-curvature="0" />
	<path style="fill:none;stroke:red;stroke-width:1px;stroke-linecap:butt;stroke-linejoin:miter;stroke-opacity:1" d="M 286.25,306.057 286.25,322.562 z" id="boundary" inkscape:connector-curvature="0" />
	<path style="fill:none;stroke:red;stroke-width:1px;stroke-linecap:butt;stroke-linejoin:miter;stroke-opacity:1" d="M 286.25,322.562 294.502,337.418 z" id="boundary" inkscape:connector-curvature="0" />
	<path style="fill:none;stroke:red;stroke-width:1px;stroke-linecap:butt;stroke-linejoin:miter;stroke-opacity:1" d="M 286.25,682.389 294.502,665.884 z" id="boundary" inkscape:connector-curvature="0" />
	<path style="fill:none;stroke:red;stroke-width:1px;stroke-linecap:butt;stroke-linejoin:miter;stroke-opacity:1" d="M 286.25,682.389 294.502,697.245 z" id="boundary" inkscape:connector-curvature="0" />
	<path style="fill:none;stroke:red;stroke-width:1px;stroke-linecap:butt;stroke-linejoin:miter;stroke-opacity:1" d="M 286.25,740.16 294.502,713.75 z" id="boundary" inkscape:connector-curvature="0" />
	<path style="fill:none;stroke:red;stroke-width:1px;stroke-linecap:butt;stroke-linejoin:miter;stroke-opacity:1" d="M 286.25,911.82 302.755,916.772 z" id="boundary" inkscape:connector-curvature="0" />
	<path style="fill:none;stroke:red;stroke-width:1px;stroke-linecap:butt;stroke-linejoin:miter;stroke-opacity:1" d="M 292.852,974.542 309.358,966.29 z" id="boundary" inkscape:connector-curvature="0" />
	<path style="fill:none;stroke:red;stroke-width:1px;stroke-linecap:butt;stroke-linejoin:miter;stroke-opacity:1" d="M 294.502,337.418 294.502,353.923 z" id="boundary" inkscape:connector-curvature="0" />
	<path style="fill:none;stroke:red;stroke-width:1px;stroke-linecap:butt;stroke-linejoin:miter;stroke-opacity:1" d="M 294.502,353.923 294.502,370.429 z" id="boundary" inkscape:connector-curvature="0" />
	<path style="fill:none;stroke:red;stroke-width:1px;stroke-linecap:butt;stroke-linejoin:miter;stroke-opacity:1" d="M 294.502,370.429 294.502,386.935 z" id="boundary" inkscape:connector-curvature="0" />
	<path style="fill:none;stroke:red;stroke-width:1px;stroke-linecap:butt;stroke-linejoin:miter;stroke-opacity:1" d="M 294.502,386.935 299.454,403.441 z" id="boundary" inkscape:connector-curvature="0" />
	<path style="fill:none;stroke:red;stroke-width:1px;stroke-linecap:butt;stroke-linejoin:miter;stroke-opacity:1" d="M 294.502,665.884 307.707,654.329 z" id="boundary" inkscape:connector-curvature="0" />
	<path style="fill:none;stroke:red;stroke-width:1px;stroke-linecap:butt;stroke-linejoin:miter;stroke-opacity:1" d="M 294.502,697.245 294.502,713.75 z" id="boundary" inkscape:connector-curvature="0" />
	<path style="fill:none;stroke:red;stroke-width:1px;stroke-linecap:butt;stroke-linejoin:miter;stroke-opacity:1" d="M 299.454,403.441 307.707,418.296 z" id="boundary" inkscape:connector-curvature="0" />
	<path style="fill:none;stroke:red;stroke-width:1px;stroke-linecap:butt;stroke-linejoin:miter;stroke-opacity:1" d="M 302.755,916.772 317.611,925.025 z" id="boundary" inkscape:connector-curvature="0" />
	<path style="fill:none;stroke:red;stroke-width:1px;stroke-linecap:butt;stroke-linejoin:miter;stroke-opacity:1" d="M 307.707,418.296 311.008,434.802 z" id="boundary" inkscape:connector-curvature="0" />
	<path style="fill:none;stroke:red;stroke-width:1px;stroke-linecap:butt;stroke-linejoin:miter;stroke-opacity:1" d="M 307.707,654.329 315.96,637.824 z" id="boundary" inkscape:connector-curvature="0" />
	<path style="fill:none;stroke:red;stroke-width:1px;stroke-linecap:butt;stroke-linejoin:miter;stroke-opacity:1" d="M 309.358,966.29 319.261,946.483 z" id="boundary" inkscape:connector-curvature="0" />
	<path style="fill:none;stroke:red;stroke-width:1px;stroke-linecap:butt;stroke-linejoin:miter;stroke-opacity:1" d="M 311.008,434.802 311.008,451.308 z" id="boundary" inkscape:connector-curvature="0" />
	<path style="fill:none;stroke:red;stroke-width:1px;stroke-linecap:butt;stroke-linejoin:miter;stroke-opacity:1" d="M 311.008,451.308 314.309,467.814 z" id="boundary" inkscape:connector-curvature="0" />
	<path style="fill:none;stroke:red;stroke-width:1px;stroke-linecap:butt;stroke-linejoin:miter;stroke-opacity:1" d="M 314.309,467.814 322.562,482.669 z" id="boundary" inkscape:connector-curvature="0" />
	<path style="fill:none;stroke:red;stroke-width:1px;stroke-linecap:butt;stroke-linejoin:miter;stroke-opacity:1" d="M 315.96,637.824 324.213,621.318 z" id="boundary" inkscape:connector-curvature="0" />
	<path style="fill:none;stroke:red;stroke-width:1px;stroke-linecap:butt;stroke-linejoin:miter;stroke-opacity:1" d="M 317.611,925.025 319.261,946.483 z" id="boundary" inkscape:connector-curvature="0" />
	<path style="fill:none;stroke:red;stroke-width:1px;stroke-linecap:butt;stroke-linejoin:miter;stroke-opacity:1" d="M 322.562,482.669 327.514,499.175 z" id="boundary" inkscape:connector-curvature="0" />
	<path style="fill:none;stroke:red;stroke-width:1px;stroke-linecap:butt;stroke-linejoin:miter;stroke-opacity:1" d="M 324.213,621.318 332.466,604.812 z" id="boundary" inkscape:connector-curvature="0" />
	<path style="fill:none;stroke:red;stroke-width:1px;stroke-linecap:butt;stroke-linejoin:miter;stroke-opacity:1" d="M 327.514,499.175 327.514,515.681 z" id="boundary" inkscape:connector-curvature="0" />
	<path style="fill:none;stroke:red;stroke-width:1px;stroke-linecap:butt;stroke-linejoin:miter;stroke-opacity:1" d="M 327.514,515.681 327.514,532.186 z" id="boundary" inkscape:connector-curvature="0" />
	<path style="fill:none;stroke:red;stroke-width:1px;stroke-linecap:butt;stroke-linejoin:miter;stroke-opacity:1" d="M 327.514,532.186 335.767,547.042 z" id="boundary" inkscape:connector-curvature="0" />
	<path style="fill:none;stroke:red;stroke-width:1px;stroke-linecap:butt;stroke-linejoin:miter;stroke-opacity:1" d="M 332.466,604.812 335.767,583.354 z" id="boundary" inkscape:connector-curvature="0" />
	<path style="fill:none;stroke:red;stroke-width:1px;stroke-linecap:butt;stroke-linejoin:miter;stroke-opacity:1" d="M 335.767,547.042 344.02,561.897 z" id="boundary" inkscape:connector-curvature="0" />
	<path style="fill:none;stroke:red;stroke-width:1px;stroke-linecap:butt;stroke-linejoin:miter;stroke-opacity:1" d="M 335.767,583.354 344.02,561.897 z" id="boundary" inkscape:connector-curvature="0" />
	<circle cx="4" cy="306.057" r="4" fill="#0" id="circle0"/>
	<circle cx="4" cy="322.562" r="4" fill="#0" id="circle1"/>
	<circle cx="4" cy="339.068" r="4" fill="#0" id="circle2"/>
	<circle cx="4" cy="355.574" r="4" fill="#0" id="circle3"/>
	<circle cx="4" cy="372.08" r="4" fill="#0" id="circle4"/>
	<circle cx="4" cy="388.586" r="4" fill="#0" id="circle5"/>
	<circle cx="4" cy="429.85" r="4" fill="#0" id="circle6"/>
	<circle cx="4" cy="446.356" r="4" fill="#0" id="circle7"/>
	<circle cx="12.2529" cy="289.551" r="4" fill="#0" id="circle8"/>
	<circle cx="12.2529" cy="403.441" r="4" fill="#0" id="circle9"/>
	<circle cx="12.2529" cy="461.211" r="4" fill="#0" id="circle10"/>
	<circle cx="12.2529" cy="477.717" r="4" fill="#0" id="circle11"/>
	<circle cx="12.2529" cy="494.223" r="4" fill="#0" id="circle12"/>
	<circle cx="20.5058" cy="83.228" r="4" fill="#0" id="circle13"/>
	<circle cx="20.5058" cy="99.7338" r="4" fill="#0" id="circle14"/>
	<circle cx="20.5058" cy="116.24" r="4" fill="#0" id="circle15"/>
	<circle cx="20.5058" cy="273.045" r="4" fill="#0" id="circle16"/>
	<circle cx="20.5058" cy="509.078" r="4" fill="#0" id="circle17"/>
	<circle cx="25.4576" cy="525.584" r="4" fill="#0" id="circle18"/>
	<circle cx="28.7587" cy="66.7221" r="4" fill="#0" id="circle19"/>
	<circle cx="28.7587" cy="131.095" r="4" fill="#0" id="circle20"/>
	<circle cx="28.7587" cy="542.09" r="4" fill="#0" id="circle21"/>
	<circle cx="33.7105" cy="259.84" r="4" fill="#0" id="circle22"/>
	<circle cx="37.0116" cy="50.2163" r="4" fill="#0" id="circle23"/>
	<circle cx="37.0116" cy="145.95" r="4" fill="#0" id="circle24"/>
	<circle cx="37.0116" cy="556.945" r="4" fill="#0" id="circle25"/>
	<circle cx="37.0116" cy="573.451" r="4" fill="#0" id="circle26"/>
	<circle cx="37.0116" cy="589.957" r="4" fill="#0" id="circle27"/>
	<circle cx="37.0116" cy="606.463" r="4" fill="#0" id="circle28"/>
	<circle cx="40.3128" cy="622.968" r="4" fill="#0" id="circle29"/>
	<circle cx="46.9151" cy="159.155" r="4" fill="#0" id="circle30"/>
	<circle cx="50.2163" cy="37.0116" r="4" fill="#0" id="circle31"/>
	<circle cx="50.2163" cy="251.587" r="4" fill="#0" id="circle32"/>
	<circle cx="53.5175" cy="632.872" r="4" fill="#0" id="circle33"/>
	<circle cx="53.5175" cy="649.378" r="4" fill="#0" id="circle34"/>
	<circle cx="60.1198" cy="170.709" r="4" fill="#0" id="circle35"/>
	<circle cx="61.7704" cy="664.233" r="4" fill="#0" id="circle36"/>
	<circle cx="63.421" cy="238.383" r="4" fill="#0" id="circle37"/>
	<circle cx="66.7221" cy="28.7587" r="4" fill="#0" id="circle38"/>
	<circle cx="71.6739" cy="183.913" r="4" fill="#0" id="circle39"/>
	<circle cx="71.6739" cy="677.438" r="4" fill="#0" id="circle40"/>
	<circle cx="76.6256" cy="226.829" r="4" fill="#0" id="circle41"/>
	<circle cx="78.2762" cy="200.419" r="4" fill="#0" id="circle42"/>
	<circle cx="79.9268" cy="15.5541" r="4" fill="#0" id="circle43"/>
	<circle cx="86.5291" cy="685.691" r="4" fill="#0" id="circle44"/>
	<circle cx="86.5291" cy="809.484" r="4" fill="#0" id="circle45"/>
	<circle cx="94.782" cy="768.22" r="4" fill="#0" id="circle46"/>
	<circle cx="94.782" cy="784.725" r="4" fill="#0" id="circle47"/>
	<circle cx="94.782" cy="824.339" r="4" fill="#0" id="circle48"/>
	<circle cx="96.4326" cy="7.30116" r="4" fill="#0" id="circle49"/>
	<circle cx="99.7338" cy="697.245" r="4" fill="#0" id="circle50"/>
	<circle cx="103.035" cy="713.75" r="4" fill="#0" id="circle51"/>
	<circle cx="103.035" cy="730.256" r="4" fill="#0" id="circle52"/>
	<circle cx="103.035" cy="746.762" r="4" fill="#0" id="circle53"/>
	<circle cx="103.035" cy="839.195" r="4" fill="#0" id="circle54"/>
	<circle cx="103.035" cy="855.7" r="4" fill="#0" id="circle55"/>
	<circle cx="103.035" cy="872.206" r="4" fill="#0" id="circle56"/>
	<circle cx="103.035" cy="925.025" r="4" fill="#0" id="circle57"/>
	<circle cx="103.035" cy="941.531" r="4" fill="#0" id="circle58"/>
	<circle cx="107.987" cy="888.712" r="4" fill="#0" id="circle59"/>
	<circle cx="111.288" cy="905.218" r="4" fill="#0" id="circle60"/>
	<circle cx="111.288" cy="956.386" r="4" fill="#0" id="circle61"/>
	<circle cx="112.938" cy="4" r="4" fill="#0" id="circle62"/>
	<circle cx="122.842" cy="969.591" r="4" fill="#0" id="circle63"/>
	<circle cx="129.444" cy="4" r="4" fill="#0" id="circle64"/>
	<circle cx="136.047" cy="979.494" r="4" fill="#0" id="circle65"/>
	<circle cx="145.95" cy="4" r="4" fill="#0" id="circle66"/>
	<circle cx="152.552" cy="979.494" r="4" fill="#0" id="circle67"/>
	<circle cx="162.456" cy="4" r="4" fill="#0" id="circle68"/>
	<circle cx="167.408" cy="987.747" r="4" fill="#0" id="circle69"/>
	<circle cx="177.311" cy="12.2529" r="4" fill="#0" id="circle70"/>
	<circle cx="182.263" cy="996" r="4" fill="#0" id="circle71"/>
	<circle cx="193.817" cy="15.5541" r="4" fill="#0" id="circle72"/>
	<circle cx="198.769" cy="996" r="4" fill="#0" id="circle73"/>
	<circle cx="210.323" cy="20.5058" r="4" fill="#0" id="circle74"/>
	<circle cx="215.275" cy="996" r="4" fill="#0" id="circle75"/>
	<circle cx="225.178" cy="28.7587" r="4" fill="#0" id="circle76"/>
	<circle cx="231.78" cy="996" r="4" fill="#0" id="circle77"/>
	<circle cx="240.033" cy="37.0116" r="4" fill="#0" id="circle78"/>
	<circle cx="244.985" cy="863.953" r="4" fill="#0" id="circle79"/>
	<circle cx="248.286" cy="880.459" r="4" fill="#0" id="circle80"/>
	<circle cx="248.286" cy="996" r="4" fill="#0" id="circle81"/>
	<circle cx="253.238" cy="46.9151" r="4" fill="#0" id="circle82"/>
	<circle cx="253.238" cy="211.973" r="4" fill="#0" id="circle83"/>
	<circle cx="253.238" cy="847.448" r="4" fill="#0" id="circle84"/>
	<circle cx="256.539" cy="228.479" r="4" fill="#0" id="circle85"/>
	<circle cx="256.539" cy="895.314" r="4" fill="#0" id="circle86"/>
	<circle cx="261.491" cy="61.7704" r="4" fill="#0" id="circle87"/>
	<circle cx="261.491" cy="195.468" r="4" fill="#0" id="circle88"/>
	<circle cx="261.491" cy="822.689" r="4" fill="#0" id="circle89"/>
	<circle cx="264.792" cy="243.334" r="4" fill="#0" id="circle90"/>
	<circle cx="264.792" cy="996" r="4" fill="#0" id="circle91"/>
	<circle cx="269.744" cy="76.6256" r="4" fill="#0" id="circle92"/>
	<circle cx="269.744" cy="93.1314" r="4" fill="#0" id="circle93"/>
	<circle cx="269.744" cy="109.637" r="4" fill="#0" id="circle94"/>
	<circle cx="269.744" cy="126.143" r="4" fill="#0" id="circle95"/>
	<circle cx="269.744" cy="142.649" r="4" fill="#0" id="circle96"/>
	<circle cx="269.744" cy="159.155" r="4" fill="#0" id="circle97"/>
	<circle cx="269.744" cy="175.661" r="4" fill="#0" id="circle98"/>
	<circle cx="269.744" cy="259.84" r="4" fill="#0" id="circle99"/>
	<circle cx="269.744" cy="797.93" r="4" fill="#0" id="circle100"/>
	<circle cx="271.394" cy="903.567" r="4" fill="#0" id="circle101"/>
	<circle cx="277.997" cy="274.696" r="4" fill="#0" id="circle102"/>
	<circle cx="277.997" cy="756.666" r="4" fill="#0" id="circle103"/>
	<circle cx="277.997" cy="773.171" r="4" fill="#0" id="circle104"/>
	<circle cx="279.647" cy="987.747" r="4" fill="#0" id="circle105"/>
	<circle cx="286.25" cy="289.551" r="4" fill="#0" id="circle106"/>
	<circle cx="286.25" cy="306.057" r="4" fill="#0" id="circle107"/>
	<circle cx="286.25" cy="322.562" r="4" fill="#0" id="circle108"/>
	<circle cx="286.25" cy="682.389" r="4" fill="#0" id="circle109"/>
	<circle cx="286.25" cy="740.16" r="4" fill="#0" id="circle110"/>
	<circle cx="286.25" cy="911.82" r="4" fill="#0" id="circle111"/>
	<circle cx="292.852" cy="974.542" r="4" fill="#0" id="circle112"/>
	<circle cx="294.502" cy="337.418" r="4" fill="#0" id="circle113"/>
	<circle cx="294.502" cy="353.923" r="4" fill="#0" id="circle114"/>
	<circle cx="294.502" cy="370.429" r="4" fill="#0" id="circle115"/>
	<circle cx="294.502" cy="386.935" r="4" fill="#0" id="circle116"/>
	<circle cx="294.502" cy="665.884" r="4" fill="#0" id="circle117"/>
	<circle cx="294.502" cy="697.245" r="4" fill="#0" id="circle118"/>
	<circle cx="294.502" cy="713.75" r="4" fill="#0" id="circle119"/>
	<circle cx="299.454" cy="403.441" r="4" fill="#0" id="circle120"/>
	<circle cx="302.755" cy="916.772" r="4" fill="#0" id="circle121"/>
	<circle cx="307.707" cy="418.296" r="4" fill="#0" id="circle122"/>
	<circle cx="307.707" cy="654.329" r="4" fill="#0" id="circle123"/>
	<circle cx="309.358" cy="966.29" r="4" fill="#0" id="circle124"/>
	<circle cx="311.008" cy="434.802" r="4" fill="#0" id="circle125"/>
	<circle cx="311.008" cy="451.308" r="4" fill="#0" id="circle126"/>
	<circle cx="314.309" cy="467.814" r="4" fill="#0" id="circle127"/>
	<circle cx="315.96" cy="637.824" r="4" fill="#0" id="circle128"/>
	<circle cx="317.611" cy="925.025" r="4" fill="#0" id="circle129"/>
	<circle cx="319.261" cy="946.483" r="4" fill="#0" id="circle130"/>
	<circle cx="322.562" cy="482.669" r="4" fill="#0" id="circle131"/>
	<circle cx="324.213" cy="621.318" r="4" fill="#0" id="circle132"/>
	<circle cx="327.514" cy="499.175" r="4" fill="#0" id="circle133"/>
	<circle cx="327.514" cy="515.681" r="4" fill="#0" id="circle134"/>
	<circle cx="327.514" cy="532.186" r="4" fill="#0" id="circle135"/>
	<circle cx="332.466" cy="604.812" r="4" fill="#0" id="circle136"/>
	<circle cx="335.767" cy="547.042" r="4" fill="#0" id="circle137"/>
	<circle cx="335.767" cy="583.354" r="4" fill="#0" id="circle138"/>
	<circle cx="344.02" cy="561.897" r="4" fill="#0" id="circle139"/>
	</g>
</svg>