<?xml version="1.0" encoding="UTF-8" standalone="no"?>
<!-- Created with CurveBenchmark -->
<svg
	xmlns:dc="http://purl.org/dc/elements/1.1/"
	xmlns:cc="http://creativecommons.org/ns#"
	xmlns:rdf="http://www.w3.org/1999/02/22-rdf-syntax-ns#"
	xmlns:svg="http://www.w3.org/2000/svg"
	xmlns="http://www.w3.org/2000/svg"
	xmlns:sodipodi="http://sodipodi.sourceforge.net/DTD/sodipodi-0.dtd"
	xmlns:inkscape="http://www.inkscape.org/namespaces/inkscape"
	width="1000"
	height="1000"
	id="svg2"
	version="1.1"
	sodipodi:docname="manifold/discur-fork11.png.txt">
<defs
	id="defs4" />
<metadata
	id="metadata7">
	<rdf:RDF>
		<cc:Work
			rdf:about="">
			<dc:format>image/svg+xml</dc:format>
			<dc:type
				rdf:resource="http://purl.org/dc/dcmitype/StillImage" />
			<dc:title></dc:title>
		</cc:Work>
	</rdf:RDF>
</metadata>
<g
	inkscape:label="Layer 1"
	inkscape:groupmode="layer"
	id="layer1">
	<path style="fill:none;stroke:red;stroke-width:1px;stroke-linecap:butt;stroke-linejoin:miter;stroke-opacity:1" d="M 4,105.654 12.7633,121.428 z" id="boundary" inkscape:connector-curvature="0" />
	<path style="fill:none;stroke:red;stroke-width:1px;stroke-linecap:butt;stroke-linejoin:miter;stroke-opacity:1" d="M 4,105.654 18.0212,91.6325 z" id="boundary" inkscape:connector-curvature="0" />
	<path style="fill:none;stroke:red;stroke-width:1px;stroke-linecap:butt;stroke-linejoin:miter;stroke-opacity:1" d="M 12.7633,18.0212 21.5265,33.7951 z" id="boundary" inkscape:connector-curvature="0" />
	<path style="fill:none;stroke:red;stroke-width:1px;stroke-linecap:butt;stroke-linejoin:miter;stroke-opacity:1" d="M 12.7633,18.0212 26.7845,4 z" id="boundary" inkscape:connector-curvature="0" />
	<path style="fill:none;stroke:red;stroke-width:1px;stroke-linecap:butt;stroke-linejoin:miter;stroke-opacity:1" d="M 12.7633,121.428 21.5265,137.201 z" id="boundary" inkscape:connector-curvature="0" />
	<path style="fill:none;stroke:red;stroke-width:1px;stroke-linecap:butt;stroke-linejoin:miter;stroke-opacity:1" d="M 12.7633,210.813 21.5265,226.587 z" id="boundary" inkscape:connector-curvature="0" />
	<path style="fill:none;stroke:red;stroke-width:1px;stroke-linecap:butt;stroke-linejoin:miter;stroke-opacity:1" d="M 12.7633,210.813 26.7845,196.792 z" id="boundary" inkscape:connector-curvature="0" />
	<path style="fill:none;stroke:red;stroke-width:1px;stroke-linecap:butt;stroke-linejoin:miter;stroke-opacity:1" d="M 18.0212,91.6325 35.5477,91.6325 z" id="boundary" inkscape:connector-curvature="0" />
	<path style="fill:none;stroke:red;stroke-width:1px;stroke-linecap:butt;stroke-linejoin:miter;stroke-opacity:1" d="M 21.5265,33.7951 33.7951,47.8163 z" id="boundary" inkscape:connector-curvature="0" />
	<path style="fill:none;stroke:red;stroke-width:1px;stroke-linecap:butt;stroke-linejoin:miter;stroke-opacity:1" d="M 21.5265,137.201 39.053,137.201 z" id="boundary" inkscape:connector-curvature="0" />
	<path style="fill:none;stroke:red;stroke-width:1px;stroke-linecap:butt;stroke-linejoin:miter;stroke-opacity:1" d="M 21.5265,226.587 33.7951,240.608 z" id="boundary" inkscape:connector-curvature="0" />
	<path style="fill:none;stroke:red;stroke-width:1px;stroke-linecap:butt;stroke-linejoin:miter;stroke-opacity:1" d="M 21.5265,298.445 30.2898,314.219 z" id="boundary" inkscape:connector-curvature="0" />
	<path style="fill:none;stroke:red;stroke-width:1px;stroke-linecap:butt;stroke-linejoin:miter;stroke-opacity:1" d="M 21.5265,298.445 35.5477,284.424 z" id="boundary" inkscape:connector-curvature="0" />
	<path style="fill:none;stroke:red;stroke-width:1px;stroke-linecap:butt;stroke-linejoin:miter;stroke-opacity:1" d="M 26.7845,4 44.311,4 z" id="boundary" inkscape:connector-curvature="0" />
	<path style="fill:none;stroke:red;stroke-width:1px;stroke-linecap:butt;stroke-linejoin:miter;stroke-opacity:1" d="M 26.7845,196.792 44.311,196.792 z" id="boundary" inkscape:connector-curvature="0" />
	<path style="fill:none;stroke:red;stroke-width:1px;stroke-linecap:butt;stroke-linejoin:miter;stroke-opacity:1" d="M 30.2898,314.219 42.5583,328.24 z" id="boundary" inkscape:connector-curvature="0" />
	<path style="fill:none;stroke:red;stroke-width:1px;stroke-linecap:butt;stroke-linejoin:miter;stroke-opacity:1" d="M 33.7951,47.8163 47.8163,58.3322 z" id="boundary" inkscape:connector-curvature="0" />
	<path style="fill:none;stroke:red;stroke-width:1px;stroke-linecap:butt;stroke-linejoin:miter;stroke-opacity:1" d="M 33.7951,240.608 51.3216,242.36 z" id="boundary" inkscape:connector-curvature="0" />
	<path style="fill:none;stroke:red;stroke-width:1px;stroke-linecap:butt;stroke-linejoin:miter;stroke-opacity:1" d="M 35.5477,91.6325 53.0742,91.6325 z" id="boundary" inkscape:connector-curvature="0" />
	<path style="fill:none;stroke:red;stroke-width:1px;stroke-linecap:butt;stroke-linejoin:miter;stroke-opacity:1" d="M 35.5477,284.424 53.0742,284.424 z" id="boundary" inkscape:connector-curvature="0" />
	<path style="fill:none;stroke:red;stroke-width:1px;stroke-linecap:butt;stroke-linejoin:miter;stroke-opacity:1" d="M 39.053,137.201 54.8269,145.965 z" id="boundary" inkscape:connector-curvature="0" />
	<path style="fill:none;stroke:red;stroke-width:1px;stroke-linecap:butt;stroke-linejoin:miter;stroke-opacity:1" d="M 42.5583,328.24 60.0848,329.993 z" id="boundary" inkscape:connector-curvature="0" />
	<path style="fill:none;stroke:red;stroke-width:1px;stroke-linecap:butt;stroke-linejoin:miter;stroke-opacity:1" d="M 44.311,4 61.8375,4 z" id="boundary" inkscape:connector-curvature="0" />
	<path style="fill:none;stroke:red;stroke-width:1px;stroke-linecap:butt;stroke-linejoin:miter;stroke-opacity:1" d="M 44.311,196.792 61.8375,188.028 z" id="boundary" inkscape:connector-curvature="0" />
	<path style="fill:none;stroke:red;stroke-width:1px;stroke-linecap:butt;stroke-linejoin:miter;stroke-opacity:1" d="M 47.8163,58.3322 65.3428,58.3322 z" id="boundary" inkscape:connector-curvature="0" />
	<path style="fill:none;stroke:red;stroke-width:1px;stroke-linecap:butt;stroke-linejoin:miter;stroke-opacity:1" d="M 51.3216,242.36 67.0954,251.124 z" id="boundary" inkscape:connector-curvature="0" />
	<path style="fill:none;stroke:red;stroke-width:1px;stroke-linecap:butt;stroke-linejoin:miter;stroke-opacity:1" d="M 53.0742,91.6325 70.6007,91.6325 z" id="boundary" inkscape:connector-curvature="0" />
	<path style="fill:none;stroke:red;stroke-width:1px;stroke-linecap:butt;stroke-linejoin:miter;stroke-opacity:1" d="M 53.0742,284.424 70.6007,284.424 z" id="boundary" inkscape:connector-curvature="0" />
	<path style="fill:none;stroke:red;stroke-width:1px;stroke-linecap:butt;stroke-linejoin:miter;stroke-opacity:1" d="M 54.8269,145.965 72.3534,145.965 z" id="boundary" inkscape:connector-curvature="0" />
	<path style="fill:none;stroke:red;stroke-width:1px;stroke-linecap:butt;stroke-linejoin:miter;stroke-opacity:1" d="M 60.0848,329.993 77.6113,329.993 z" id="boundary" inkscape:connector-curvature="0" />
	<path style="fill:none;stroke:red;stroke-width:1px;stroke-linecap:butt;stroke-linejoin:miter;stroke-opacity:1" d="M 61.8375,4 77.6113,12.7633 z" id="boundary" inkscape:connector-curvature="0" />
	<path style="fill:none;stroke:red;stroke-width:1px;stroke-linecap:butt;stroke-linejoin:miter;stroke-opacity:1" d="M 61.8375,188.028 79.364,188.028 z" id="boundary" inkscape:connector-curvature="0" />
	<path style="fill:none;stroke:red;stroke-width:1px;stroke-linecap:butt;stroke-linejoin:miter;stroke-opacity:1" d="M 65.3428,58.3322 81.1166,67.0954 z" id="boundary" inkscape:connector-curvature="0" />
	<path style="fill:none;stroke:red;stroke-width:1px;stroke-linecap:butt;stroke-linejoin:miter;stroke-opacity:1" d="M 67.0954,251.124 84.6219,251.124 z" id="boundary" inkscape:connector-curvature="0" />
	<path style="fill:none;stroke:red;stroke-width:1px;stroke-linecap:butt;stroke-linejoin:miter;stroke-opacity:1" d="M 70.6007,91.6325 86.3746,100.396 z" id="boundary" inkscape:connector-curvature="0" />
	<path style="fill:none;stroke:red;stroke-width:1px;stroke-linecap:butt;stroke-linejoin:miter;stroke-opacity:1" d="M 70.6007,284.424 88.1272,284.424 z" id="boundary" inkscape:connector-curvature="0" />
	<path style="fill:none;stroke:red;stroke-width:1px;stroke-linecap:butt;stroke-linejoin:miter;stroke-opacity:1" d="M 72.3534,145.965 89.8799,145.965 z" id="boundary" inkscape:connector-curvature="0" />
	<path style="fill:none;stroke:red;stroke-width:1px;stroke-linecap:butt;stroke-linejoin:miter;stroke-opacity:1" d="M 77.6113,12.7633 95.1378,12.7633 z" id="boundary" inkscape:connector-curvature="0" />
	<path style="fill:none;stroke:red;stroke-width:1px;stroke-linecap:butt;stroke-linejoin:miter;stroke-opacity:1" d="M 77.6113,329.993 95.1378,329.993 z" id="boundary" inkscape:connector-curvature="0" />
	<path style="fill:none;stroke:red;stroke-width:1px;stroke-linecap:butt;stroke-linejoin:miter;stroke-opacity:1" d="M 79.364,188.028 96.8905,188.028 z" id="boundary" inkscape:connector-curvature="0" />
	<path style="fill:none;stroke:red;stroke-width:1px;stroke-linecap:butt;stroke-linejoin:miter;stroke-opacity:1" d="M 81.1166,67.0954 98.6431,67.0954 z" id="boundary" inkscape:connector-curvature="0" />
	<path style="fill:none;stroke:red;stroke-width:1px;stroke-linecap:butt;stroke-linejoin:miter;stroke-opacity:1" d="M 84.6219,251.124 102.148,251.124 z" id="boundary" inkscape:connector-curvature="0" />
	<path style="fill:none;stroke:red;stroke-width:1px;stroke-linecap:butt;stroke-linejoin:miter;stroke-opacity:1" d="M 86.3746,100.396 103.901,100.396 z" id="boundary" inkscape:connector-curvature="0" />
	<path style="fill:none;stroke:red;stroke-width:1px;stroke-linecap:butt;stroke-linejoin:miter;stroke-opacity:1" d="M 88.1272,284.424 105.654,284.424 z" id="boundary" inkscape:connector-curvature="0" />
	<path style="fill:none;stroke:red;stroke-width:1px;stroke-linecap:butt;stroke-linejoin:miter;stroke-opacity:1" d="M 89.8799,145.965 107.406,145.965 z" id="boundary" inkscape:connector-curvature="0" />
	<path style="fill:none;stroke:red;stroke-width:1px;stroke-linecap:butt;stroke-linejoin:miter;stroke-opacity:1" d="M 95.1378,12.7633 112.664,12.7633 z" id="boundary" inkscape:connector-curvature="0" />
	<path style="fill:none;stroke:red;stroke-width:1px;stroke-linecap:butt;stroke-linejoin:miter;stroke-opacity:1" d="M 95.1378,329.993 112.664,335.251 z" id="boundary" inkscape:connector-curvature="0" />
	<path style="fill:none;stroke:red;stroke-width:1px;stroke-linecap:butt;stroke-linejoin:miter;stroke-opacity:1" d="M 96.8905,188.028 114.417,188.028 z" id="boundary" inkscape:connector-curvature="0" />
	<path style="fill:none;stroke:red;stroke-width:1px;stroke-linecap:butt;stroke-linejoin:miter;stroke-opacity:1" d="M 98.6431,67.0954 114.417,75.8587 z" id="boundary" inkscape:connector-curvature="0" />
	<path style="fill:none;stroke:red;stroke-width:1px;stroke-linecap:butt;stroke-linejoin:miter;stroke-opacity:1" d="M 102.148,251.124 119.675,251.124 z" id="boundary" inkscape:connector-curvature="0" />
	<path style="fill:none;stroke:red;stroke-width:1px;stroke-linecap:butt;stroke-linejoin:miter;stroke-opacity:1" d="M 103.901,100.396 119.675,109.159 z" id="boundary" inkscape:connector-curvature="0" />
	<path style="fill:none;stroke:red;stroke-width:1px;stroke-linecap:butt;stroke-linejoin:miter;stroke-opacity:1" d="M 105.654,284.424 123.18,284.424 z" id="boundary" inkscape:connector-curvature="0" />
	<path style="fill:none;stroke:red;stroke-width:1px;stroke-linecap:butt;stroke-linejoin:miter;stroke-opacity:1" d="M 107.406,145.965 123.18,154.728 z" id="boundary" inkscape:connector-curvature="0" />
	<path style="fill:none;stroke:red;stroke-width:1px;stroke-linecap:butt;stroke-linejoin:miter;stroke-opacity:1" d="M 112.664,12.7633 130.191,12.7633 z" id="boundary" inkscape:connector-curvature="0" />
	<path style="fill:none;stroke:red;stroke-width:1px;stroke-linecap:butt;stroke-linejoin:miter;stroke-opacity:1" d="M 112.664,335.251 130.191,338.756 z" id="boundary" inkscape:connector-curvature="0" />
	<path style="fill:none;stroke:red;stroke-width:1px;stroke-linecap:butt;stroke-linejoin:miter;stroke-opacity:1" d="M 114.417,75.8587 131.943,75.8587 z" id="boundary" inkscape:connector-curvature="0" />
	<path style="fill:none;stroke:red;stroke-width:1px;stroke-linecap:butt;stroke-linejoin:miter;stroke-opacity:1" d="M 114.417,188.028 131.943,188.028 z" id="boundary" inkscape:connector-curvature="0" />
	<path style="fill:none;stroke:red;stroke-width:1px;stroke-linecap:butt;stroke-linejoin:miter;stroke-opacity:1" d="M 119.675,109.159 137.201,109.159 z" id="boundary" inkscape:connector-curvature="0" />
	<path style="fill:none;stroke:red;stroke-width:1px;stroke-linecap:butt;stroke-linejoin:miter;stroke-opacity:1" d="M 119.675,251.124 135.449,242.36 z" id="boundary" inkscape:connector-curvature="0" />
	<path style="fill:none;stroke:red;stroke-width:1px;stroke-linecap:butt;stroke-linejoin:miter;stroke-opacity:1" d="M 123.18,154.728 140.707,154.728 z" id="boundary" inkscape:connector-curvature="0" />
	<path style="fill:none;stroke:red;stroke-width:1px;stroke-linecap:butt;stroke-linejoin:miter;stroke-opacity:1" d="M 123.18,284.424 140.707,284.424 z" id="boundary" inkscape:connector-curvature="0" />
	<path style="fill:none;stroke:red;stroke-width:1px;stroke-linecap:butt;stroke-linejoin:miter;stroke-opacity:1" d="M 130.191,12.7633 147.717,12.7633 z" id="boundary" inkscape:connector-curvature="0" />
	<path style="fill:none;stroke:red;stroke-width:1px;stroke-linecap:butt;stroke-linejoin:miter;stroke-opacity:1" d="M 130.191,338.756 147.717,338.756 z" id="boundary" inkscape:connector-curvature="0" />
	<path style="fill:none;stroke:red;stroke-width:1px;stroke-linecap:butt;stroke-linejoin:miter;stroke-opacity:1" d="M 131.943,75.8587 149.47,75.8587 z" id="boundary" inkscape:connector-curvature="0" />
	<path style="fill:none;stroke:red;stroke-width:1px;stroke-linecap:butt;stroke-linejoin:miter;stroke-opacity:1" d="M 131.943,188.028 147.717,196.792 z" id="boundary" inkscape:connector-curvature="0" />
	<path style="fill:none;stroke:red;stroke-width:1px;stroke-linecap:butt;stroke-linejoin:miter;stroke-opacity:1" d="M 135.449,242.36 152.975,242.36 z" id="boundary" inkscape:connector-curvature="0" />
	<path style="fill:none;stroke:red;stroke-width:1px;stroke-linecap:butt;stroke-linejoin:miter;stroke-opacity:1" d="M 137.201,109.159 154.728,109.159 z" id="boundary" inkscape:connector-curvature="0" />
	<path style="fill:none;stroke:red;stroke-width:1px;stroke-linecap:butt;stroke-linejoin:miter;stroke-opacity:1" d="M 140.707,154.728 158.233,154.728 z" id="boundary" inkscape:connector-curvature="0" />
	<path style="fill:none;stroke:red;stroke-width:1px;stroke-linecap:butt;stroke-linejoin:miter;stroke-opacity:1" d="M 140.707,284.424 158.233,284.424 z" id="boundary" inkscape:connector-curvature="0" />
	<path style="fill:none;stroke:red;stroke-width:1px;stroke-linecap:butt;stroke-linejoin:miter;stroke-opacity:1" d="M 147.717,12.7633 165.244,12.7633 z" id="boundary" inkscape:connector-curvature="0" />
	<path style="fill:none;stroke:red;stroke-width:1px;stroke-linecap:butt;stroke-linejoin:miter;stroke-opacity:1" d="M 147.717,196.792 165.244,196.792 z" id="boundary" inkscape:connector-curvature="0" />
	<path style="fill:none;stroke:red;stroke-width:1px;stroke-linecap:butt;stroke-linejoin:miter;stroke-opacity:1" d="M 147.717,338.756 165.244,338.756 z" id="boundary" inkscape:connector-curvature="0" />
	<path style="fill:none;stroke:red;stroke-width:1px;stroke-linecap:butt;stroke-linejoin:miter;stroke-opacity:1" d="M 149.47,75.8587 166.996,75.8587 z" id="boundary" inkscape:connector-curvature="0" />
	<path style="fill:none;stroke:red;stroke-width:1px;stroke-linecap:butt;stroke-linejoin:miter;stroke-opacity:1" d="M 152.975,242.36 170.502,242.36 z" id="boundary" inkscape:connector-curvature="0" />
	<path style="fill:none;stroke:red;stroke-width:1px;stroke-linecap:butt;stroke-linejoin:miter;stroke-opacity:1" d="M 154.728,109.159 172.254,109.159 z" id="boundary" inkscape:connector-curvature="0" />
	<path style="fill:none;stroke:red;stroke-width:1px;stroke-linecap:butt;stroke-linejoin:miter;stroke-opacity:1" d="M 158.233,154.728 175.76,154.728 z" id="boundary" inkscape:connector-curvature="0" />
	<path style="fill:none;stroke:red;stroke-width:1px;stroke-linecap:butt;stroke-linejoin:miter;stroke-opacity:1" d="M 158.233,284.424 174.007,293.187 z" id="boundary" inkscape:connector-curvature="0" />
	<path style="fill:none;stroke:red;stroke-width:1px;stroke-linecap:butt;stroke-linejoin:miter;stroke-opacity:1" d="M 165.244,12.7633 181.018,21.5265 z" id="boundary" inkscape:connector-curvature="0" />
	<path style="fill:none;stroke:red;stroke-width:1px;stroke-linecap:butt;stroke-linejoin:miter;stroke-opacity:1" d="M 165.244,196.792 182.77,196.792 z" id="boundary" inkscape:connector-curvature="0" />
	<path style="fill:none;stroke:red;stroke-width:1px;stroke-linecap:butt;stroke-linejoin:miter;stroke-opacity:1" d="M 165.244,338.756 182.77,338.756 z" id="boundary" inkscape:connector-curvature="0" />
	<path style="fill:none;stroke:red;stroke-width:1px;stroke-linecap:butt;stroke-linejoin:miter;stroke-opacity:1" d="M 166.996,75.8587 184.523,75.8587 z" id="boundary" inkscape:connector-curvature="0" />
	<path style="fill:none;stroke:red;stroke-width:1px;stroke-linecap:butt;stroke-linejoin:miter;stroke-opacity:1" d="M 170.502,242.36 188.028,242.36 z" id="boundary" inkscape:connector-curvature="0" />
	<path style="fill:none;stroke:red;stroke-width:1px;stroke-linecap:butt;stroke-linejoin:miter;stroke-opacity:1" d="M 172.254,109.159 189.781,109.159 z" id="boundary" inkscape:connector-curvature="0" />
	<path style="fill:none;stroke:red;stroke-width:1px;stroke-linecap:butt;stroke-linejoin:miter;stroke-opacity:1" d="M 174.007,293.187 191.534,293.187 z" id="boundary" inkscape:connector-curvature="0" />
	<path style="fill:none;stroke:red;stroke-width:1px;stroke-linecap:butt;stroke-linejoin:miter;stroke-opacity:1" d="M 175.76,154.728 193.286,161.739 z" id="boundary" inkscape:connector-curvature="0" />
	<path style="fill:none;stroke:red;stroke-width:1px;stroke-linecap:butt;stroke-linejoin:miter;stroke-opacity:1" d="M 181.018,21.5265 198.544,21.5265 z" id="boundary" inkscape:connector-curvature="0" />
	<path style="fill:none;stroke:red;stroke-width:1px;stroke-linecap:butt;stroke-linejoin:miter;stroke-opacity:1" d="M 182.77,196.792 200.297,196.792 z" id="boundary" inkscape:connector-curvature="0" />
	<path style="fill:none;stroke:red;stroke-width:1px;stroke-linecap:butt;stroke-linejoin:miter;stroke-opacity:1" d="M 182.77,338.756 200.297,344.014 z" id="boundary" inkscape:connector-curvature="0" />
	<path style="fill:none;stroke:red;stroke-width:1px;stroke-linecap:butt;stroke-linejoin:miter;stroke-opacity:1" d="M 184.523,75.8587 202.049,75.8587 z" id="boundary" inkscape:connector-curvature="0" />
	<path style="fill:none;stroke:red;stroke-width:1px;stroke-linecap:butt;stroke-linejoin:miter;stroke-opacity:1" d="M 188.028,242.36 203.802,251.124 z" id="boundary" inkscape:connector-curvature="0" />
	<path style="fill:none;stroke:red;stroke-width:1px;stroke-linecap:butt;stroke-linejoin:miter;stroke-opacity:1" d="M 189.781,109.159 205.555,117.922 z" id="boundary" inkscape:connector-curvature="0" />
	<path style="fill:none;stroke:red;stroke-width:1px;stroke-linecap:butt;stroke-linejoin:miter;stroke-opacity:1" d="M 191.534,293.187 209.06,293.187 z" id="boundary" inkscape:connector-curvature="0" />
	<path style="fill:none;stroke:red;stroke-width:1px;stroke-linecap:butt;stroke-linejoin:miter;stroke-opacity:1" d="M 193.286,161.739 210.813,163.491 z" id="boundary" inkscape:connector-curvature="0" />
	<path style="fill:none;stroke:red;stroke-width:1px;stroke-linecap:butt;stroke-linejoin:miter;stroke-opacity:1" d="M 198.544,21.5265 216.071,21.5265 z" id="boundary" inkscape:connector-curvature="0" />
	<path style="fill:none;stroke:red;stroke-width:1px;stroke-linecap:butt;stroke-linejoin:miter;stroke-opacity:1" d="M 200.297,196.792 217.823,196.792 z" id="boundary" inkscape:connector-curvature="0" />
	<path style="fill:none;stroke:red;stroke-width:1px;stroke-linecap:butt;stroke-linejoin:miter;stroke-opacity:1" d="M 200.297,344.014 217.823,347.519 z" id="boundary" inkscape:connector-curvature="0" />
	<path style="fill:none;stroke:red;stroke-width:1px;stroke-linecap:butt;stroke-linejoin:miter;stroke-opacity:1" d="M 202.049,75.8587 219.576,75.8587 z" id="boundary" inkscape:connector-curvature="0" />
	<path style="fill:none;stroke:red;stroke-width:1px;stroke-linecap:butt;stroke-linejoin:miter;stroke-opacity:1" d="M 203.802,251.124 221.329,251.124 z" id="boundary" inkscape:connector-curvature="0" />
	<path style="fill:none;stroke:red;stroke-width:1px;stroke-linecap:butt;stroke-linejoin:miter;stroke-opacity:1" d="M 205.555,117.922 223.081,117.922 z" id="boundary" inkscape:connector-curvature="0" />
	<path style="fill:none;stroke:red;stroke-width:1px;stroke-linecap:butt;stroke-linejoin:miter;stroke-opacity:1" d="M 209.06,293.187 226.587,293.187 z" id="boundary" inkscape:connector-curvature="0" />
	<path style="fill:none;stroke:red;stroke-width:1px;stroke-linecap:butt;stroke-linejoin:miter;stroke-opacity:1" d="M 210.813,163.491 226.587,172.254 z" id="boundary" inkscape:connector-curvature="0" />
	<path style="fill:none;stroke:red;stroke-width:1px;stroke-linecap:butt;stroke-linejoin:miter;stroke-opacity:1" d="M 216.071,21.5265 231.845,30.2898 z" id="boundary" inkscape:connector-curvature="0" />
	<path style="fill:none;stroke:red;stroke-width:1px;stroke-linecap:butt;stroke-linejoin:miter;stroke-opacity:1" d="M 217.823,196.792 235.35,196.792 z" id="boundary" inkscape:connector-curvature="0" />
	<path style="fill:none;stroke:red;stroke-width:1px;stroke-linecap:butt;stroke-linejoin:miter;stroke-opacity:1" d="M 217.823,347.519 235.35,347.519 z" id="boundary" inkscape:connector-curvature="0" />
	<path style="fill:none;stroke:red;stroke-width:1px;stroke-linecap:butt;stroke-linejoin:miter;stroke-opacity:1" d="M 219.576,75.8587 235.35,84.6219 z" id="boundary" inkscape:connector-curvature="0" />
	<path style="fill:none;stroke:red;stroke-width:1px;stroke-linecap:butt;stroke-linejoin:miter;stroke-opacity:1" d="M 221.329,251.124 238.855,251.124 z" id="boundary" inkscape:connector-curvature="0" />
	<path style="fill:none;stroke:red;stroke-width:1px;stroke-linecap:butt;stroke-linejoin:miter;stroke-opacity:1" d="M 223.081,117.922 240.608,117.922 z" id="boundary" inkscape:connector-curvature="0" />
	<path style="fill:none;stroke:red;stroke-width:1px;stroke-linecap:butt;stroke-linejoin:miter;stroke-opacity:1" d="M 226.587,172.254 244.113,172.254 z" id="boundary" inkscape:connector-curvature="0" />
	<path style="fill:none;stroke:red;stroke-width:1px;stroke-linecap:butt;stroke-linejoin:miter;stroke-opacity:1" d="M 226.587,293.187 244.113,293.187 z" id="boundary" inkscape:connector-curvature="0" />
	<path style="fill:none;stroke:red;stroke-width:1px;stroke-linecap:butt;stroke-linejoin:miter;stroke-opacity:1" d="M 231.845,30.2898 249.371,33.7951 z" id="boundary" inkscape:connector-curvature="0" />
	<path style="fill:none;stroke:red;stroke-width:1px;stroke-linecap:butt;stroke-linejoin:miter;stroke-opacity:1" d="M 235.35,84.6219 252.876,89.8799 z" id="boundary" inkscape:connector-curvature="0" />
	<path style="fill:none;stroke:red;stroke-width:1px;stroke-linecap:butt;stroke-linejoin:miter;stroke-opacity:1" d="M 235.35,196.792 252.876,196.792 z" id="boundary" inkscape:connector-curvature="0" />
	<path style="fill:none;stroke:red;stroke-width:1px;stroke-linecap:butt;stroke-linejoin:miter;stroke-opacity:1" d="M 235.35,347.519 251.124,338.756 z" id="boundary" inkscape:connector-curvature="0" />
	<path style="fill:none;stroke:red;stroke-width:1px;stroke-linecap:butt;stroke-linejoin:miter;stroke-opacity:1" d="M 238.855,251.124 256.382,251.124 z" id="boundary" inkscape:connector-curvature="0" />
	<path style="fill:none;stroke:red;stroke-width:1px;stroke-linecap:butt;stroke-linejoin:miter;stroke-opacity:1" d="M 240.608,117.922 258.134,121.428 z" id="boundary" inkscape:connector-curvature="0" />
	<path style="fill:none;stroke:red;stroke-width:1px;stroke-linecap:butt;stroke-linejoin:miter;stroke-opacity:1" d="M 244.113,172.254 261.64,172.254 z" id="boundary" inkscape:connector-curvature="0" />
	<path style="fill:none;stroke:red;stroke-width:1px;stroke-linecap:butt;stroke-linejoin:miter;stroke-opacity:1" d="M 244.113,293.187 261.64,293.187 z" id="boundary" inkscape:connector-curvature="0" />
	<path style="fill:none;stroke:red;stroke-width:1px;stroke-linecap:butt;stroke-linejoin:miter;stroke-opacity:1" d="M 249.371,33.7951 266.898,39.053 z" id="boundary" inkscape:connector-curvature="0" />
	<path style="fill:none;stroke:red;stroke-width:1px;stroke-linecap:butt;stroke-linejoin:miter;stroke-opacity:1" d="M 251.124,338.756 268.65,338.756 z" id="boundary" inkscape:connector-curvature="0" />
	<path style="fill:none;stroke:red;stroke-width:1px;stroke-linecap:butt;stroke-linejoin:miter;stroke-opacity:1" d="M 252.876,89.8799 270.403,93.3852 z" id="boundary" inkscape:connector-curvature="0" />
	<path style="fill:none;stroke:red;stroke-width:1px;stroke-linecap:butt;stroke-linejoin:miter;stroke-opacity:1" d="M 252.876,196.792 270.403,196.792 z" id="boundary" inkscape:connector-curvature="0" />
	<path style="fill:none;stroke:red;stroke-width:1px;stroke-linecap:butt;stroke-linejoin:miter;stroke-opacity:1" d="M 256.382,251.124 272.155,242.36 z" id="boundary" inkscape:connector-curvature="0" />
	<path style="fill:none;stroke:red;stroke-width:1px;stroke-linecap:butt;stroke-linejoin:miter;stroke-opacity:1" d="M 258.134,121.428 275.661,126.686 z" id="boundary" inkscape:connector-curvature="0" />
	<path style="fill:none;stroke:red;stroke-width:1px;stroke-linecap:butt;stroke-linejoin:miter;stroke-opacity:1" d="M 261.64,172.254 279.166,181.018 z" id="boundary" inkscape:connector-curvature="0" />
	<path style="fill:none;stroke:red;stroke-width:1px;stroke-linecap:butt;stroke-linejoin:miter;stroke-opacity:1" d="M 261.64,293.187 279.166,293.187 z" id="boundary" inkscape:connector-curvature="0" />
	<path style="fill:none;stroke:red;stroke-width:1px;stroke-linecap:butt;stroke-linejoin:miter;stroke-opacity:1" d="M 266.898,39.053 282.671,47.8163 z" id="boundary" inkscape:connector-curvature="0" />
	<path style="fill:none;stroke:red;stroke-width:1px;stroke-linecap:butt;stroke-linejoin:miter;stroke-opacity:1" d="M 268.65,338.756 284.424,329.993 z" id="boundary" inkscape:connector-curvature="0" />
	<path style="fill:none;stroke:red;stroke-width:1px;stroke-linecap:butt;stroke-linejoin:miter;stroke-opacity:1" d="M 270.403,93.3852 286.177,102.148 z" id="boundary" inkscape:connector-curvature="0" />
	<path style="fill:none;stroke:red;stroke-width:1px;stroke-linecap:butt;stroke-linejoin:miter;stroke-opacity:1" d="M 270.403,196.792 287.929,196.792 z" id="boundary" inkscape:connector-curvature="0" />
	<path style="fill:none;stroke:red;stroke-width:1px;stroke-linecap:butt;stroke-linejoin:miter;stroke-opacity:1" d="M 272.155,242.36 289.682,242.36 z" id="boundary" inkscape:connector-curvature="0" />
	<path style="fill:none;stroke:red;stroke-width:1px;stroke-linecap:butt;stroke-linejoin:miter;stroke-opacity:1" d="M 275.661,126.686 291.435,135.449 z" id="boundary" inkscape:connector-curvature="0" />
	<path style="fill:none;stroke:red;stroke-width:1px;stroke-linecap:butt;stroke-linejoin:miter;stroke-opacity:1" d="M 279.166,181.018 296.693,181.018 z" id="boundary" inkscape:connector-curvature="0" />
	<path style="fill:none;stroke:red;stroke-width:1px;stroke-linecap:butt;stroke-linejoin:miter;stroke-opacity:1" d="M 279.166,293.187 294.94,284.424 z" id="boundary" inkscape:connector-curvature="0" />
	<path style="fill:none;stroke:red;stroke-width:1px;stroke-linecap:butt;stroke-linejoin:miter;stroke-opacity:1" d="M 282.671,47.8163 298.445,56.5795 z" id="boundary" inkscape:connector-curvature="0" />
	<path style="fill:none;stroke:red;stroke-width:1px;stroke-linecap:butt;stroke-linejoin:miter;stroke-opacity:1" d="M 284.424,329.993 300.198,321.23 z" id="boundary" inkscape:connector-curvature="0" />
	<path style="fill:none;stroke:red;stroke-width:1px;stroke-linecap:butt;stroke-linejoin:miter;stroke-opacity:1" d="M 286.177,102.148 303.703,105.654 z" id="boundary" inkscape:connector-curvature="0" />
	<path style="fill:none;stroke:red;stroke-width:1px;stroke-linecap:butt;stroke-linejoin:miter;stroke-opacity:1" d="M 287.929,196.792 296.693,181.018 z" id="boundary" inkscape:connector-curvature="0" />
	<path style="fill:none;stroke:red;stroke-width:1px;stroke-linecap:butt;stroke-linejoin:miter;stroke-opacity:1" d="M 289.682,242.36 307.208,242.36 z" id="boundary" inkscape:connector-curvature="0" />
	<path style="fill:none;stroke:red;stroke-width:1px;stroke-linecap:butt;stroke-linejoin:miter;stroke-opacity:1" d="M 291.435,135.449 308.961,135.449 z" id="boundary" inkscape:connector-curvature="0" />
	<path style="fill:none;stroke:red;stroke-width:1px;stroke-linecap:butt;stroke-linejoin:miter;stroke-opacity:1" d="M 294.94,284.424 310.714,272.155 z" id="boundary" inkscape:connector-curvature="0" />
	<path style="fill:none;stroke:red;stroke-width:1px;stroke-linecap:butt;stroke-linejoin:miter;stroke-opacity:1" d="M 298.445,56.5795 314.219,65.3428 z" id="boundary" inkscape:connector-curvature="0" />
	<path style="fill:none;stroke:red;stroke-width:1px;stroke-linecap:butt;stroke-linejoin:miter;stroke-opacity:1" d="M 300.198,321.23 315.972,312.466 z" id="boundary" inkscape:connector-curvature="0" />
	<path style="fill:none;stroke:red;stroke-width:1px;stroke-linecap:butt;stroke-linejoin:miter;stroke-opacity:1" d="M 303.703,105.654 317.724,119.675 z" id="boundary" inkscape:connector-curvature="0" />
	<path style="fill:none;stroke:red;stroke-width:1px;stroke-linecap:butt;stroke-linejoin:miter;stroke-opacity:1" d="M 307.208,242.36 324.735,242.36 z" id="boundary" inkscape:connector-curvature="0" />
	<path style="fill:none;stroke:red;stroke-width:1px;stroke-linecap:butt;stroke-linejoin:miter;stroke-opacity:1" d="M 308.961,135.449 317.724,119.675 z" id="boundary" inkscape:connector-curvature="0" />
	<path style="fill:none;stroke:red;stroke-width:1px;stroke-linecap:butt;stroke-linejoin:miter;stroke-opacity:1" d="M 310.714,272.155 324.735,259.887 z" id="boundary" inkscape:connector-curvature="0" />
	<path style="fill:none;stroke:red;stroke-width:1px;stroke-linecap:butt;stroke-linejoin:miter;stroke-opacity:1" d="M 314.219,65.3428 329.993,74.106 z" id="boundary" inkscape:connector-curvature="0" />
	<path style="fill:none;stroke:red;stroke-width:1px;stroke-linecap:butt;stroke-linejoin:miter;stroke-opacity:1" d="M 315.972,312.466 331.746,303.703 z" id="boundary" inkscape:connector-curvature="0" />
	<path style="fill:none;stroke:red;stroke-width:1px;stroke-linecap:butt;stroke-linejoin:miter;stroke-opacity:1" d="M 324.735,242.36 324.735,259.887 z" id="boundary" inkscape:connector-curvature="0" />
	<path style="fill:none;stroke:red;stroke-width:1px;stroke-linecap:butt;stroke-linejoin:miter;stroke-opacity:1" d="M 329.993,74.106 344.014,84.6219 z" id="boundary" inkscape:connector-curvature="0" />
	<path style="fill:none;stroke:red;stroke-width:1px;stroke-linecap:butt;stroke-linejoin:miter;stroke-opacity:1" d="M 331.746,303.703 347.519,294.94 z" id="boundary" inkscape:connector-curvature="0" />
	<path style="fill:none;stroke:red;stroke-width:1px;stroke-linecap:butt;stroke-linejoin:miter;stroke-opacity:1" d="M 344.014,84.6219 356.283,98.6431 z" id="boundary" inkscape:connector-curvature="0" />
	<path style="fill:none;stroke:red;stroke-width:1px;stroke-linecap:butt;stroke-linejoin:miter;stroke-opacity:1" d="M 347.519,294.94 363.293,286.177 z" id="boundary" inkscape:connector-curvature="0" />
	<path style="fill:none;stroke:red;stroke-width:1px;stroke-linecap:butt;stroke-linejoin:miter;stroke-opacity:1" d="M 356.283,98.6431 373.809,100.396 z" id="boundary" inkscape:connector-curvature="0" />
	<path style="fill:none;stroke:red;stroke-width:1px;stroke-linecap:butt;stroke-linejoin:miter;stroke-opacity:1" d="M 363.293,286.177 379.067,277.413 z" id="boundary" inkscape:connector-curvature="0" />
	<path style="fill:none;stroke:red;stroke-width:1px;stroke-linecap:butt;stroke-linejoin:miter;stroke-opacity:1" d="M 373.809,100.396 391.336,100.396 z" id="boundary" inkscape:connector-curvature="0" />
	<path style="fill:none;stroke:red;stroke-width:1px;stroke-linecap:butt;stroke-linejoin:miter;stroke-opacity:1" d="M 379.067,277.413 396.594,273.908 z" id="boundary" inkscape:connector-curvature="0" />
	<path style="fill:none;stroke:red;stroke-width:1px;stroke-linecap:butt;stroke-linejoin:miter;stroke-opacity:1" d="M 391.336,100.396 408.862,100.396 z" id="boundary" inkscape:connector-curvature="0" />
	<path style="fill:none;stroke:red;stroke-width:1px;stroke-linecap:butt;stroke-linejoin:miter;stroke-opacity:1" d="M 396.594,273.908 414.12,268.65 z" id="boundary" inkscape:connector-curvature="0" />
	<path style="fill:none;stroke:red;stroke-width:1px;stroke-linecap:butt;stroke-linejoin:miter;stroke-opacity:1" d="M 408.862,100.396 426.389,100.396 z" id="boundary" inkscape:connector-curvature="0" />
	<path style="fill:none;stroke:red;stroke-width:1px;stroke-linecap:butt;stroke-linejoin:miter;stroke-opacity:1" d="M 414.12,268.65 431.647,268.65 z" id="boundary" inkscape:connector-curvature="0" />
	<path style="fill:none;stroke:red;stroke-width:1px;stroke-linecap:butt;stroke-linejoin:miter;stroke-opacity:1" d="M 426.389,100.396 443.915,100.396 z" id="boundary" inkscape:connector-curvature="0" />
	<path style="fill:none;stroke:red;stroke-width:1px;stroke-linecap:butt;stroke-linejoin:miter;stroke-opacity:1" d="M 431.647,268.65 449.173,268.65 z" id="boundary" inkscape:connector-curvature="0" />
	<path style="fill:none;stroke:red;stroke-width:1px;stroke-linecap:butt;stroke-linejoin:miter;stroke-opacity:1" d="M 443.915,100.396 459.689,109.159 z" id="boundary" inkscape:connector-curvature="0" />
	<path style="fill:none;stroke:red;stroke-width:1px;stroke-linecap:butt;stroke-linejoin:miter;stroke-opacity:1" d="M 449.173,268.65 466.7,268.65 z" id="boundary" inkscape:connector-curvature="0" />
	<path style="fill:none;stroke:red;stroke-width:1px;stroke-linecap:butt;stroke-linejoin:miter;stroke-opacity:1" d="M 459.689,109.159 477.216,109.159 z" id="boundary" inkscape:connector-curvature="0" />
	<path style="fill:none;stroke:red;stroke-width:1px;stroke-linecap:butt;stroke-linejoin:miter;stroke-opacity:1" d="M 466.7,268.65 484.226,268.65 z" id="boundary" inkscape:connector-curvature="0" />
	<path style="fill:none;stroke:red;stroke-width:1px;stroke-linecap:butt;stroke-linejoin:miter;stroke-opacity:1" d="M 477.216,109.159 494.742,109.159 z" id="boundary" inkscape:connector-curvature="0" />
	<path style="fill:none;stroke:red;stroke-width:1px;stroke-linecap:butt;stroke-linejoin:miter;stroke-opacity:1" d="M 484.226,268.65 501.753,268.65 z" id="boundary" inkscape:connector-curvature="0" />
	<path style="fill:none;stroke:red;stroke-width:1px;stroke-linecap:butt;stroke-linejoin:miter;stroke-opacity:1" d="M 494.742,109.159 512.269,109.159 z" id="boundary" inkscape:connector-curvature="0" />
	<path style="fill:none;stroke:red;stroke-width:1px;stroke-linecap:butt;stroke-linejoin:miter;stroke-opacity:1" d="M 501.753,268.65 519.279,268.65 z" id="boundary" inkscape:connector-curvature="0" />
	<path style="fill:none;stroke:red;stroke-width:1px;stroke-linecap:butt;stroke-linejoin:miter;stroke-opacity:1" d="M 512.269,109.159 529.795,109.159 z" id="boundary" inkscape:connector-curvature="0" />
	<path style="fill:none;stroke:red;stroke-width:1px;stroke-linecap:butt;stroke-linejoin:miter;stroke-opacity:1" d="M 519.279,268.65 536.806,268.65 z" id="boundary" inkscape:connector-curvature="0" />
	<path style="fill:none;stroke:red;stroke-width:1px;stroke-linecap:butt;stroke-linejoin:miter;stroke-opacity:1" d="M 529.795,109.159 547.322,109.159 z" id="boundary" inkscape:connector-curvature="0" />
	<path style="fill:none;stroke:red;stroke-width:1px;stroke-linecap:butt;stroke-linejoin:miter;stroke-opacity:1" d="M 536.806,268.65 554.332,268.65 z" id="boundary" inkscape:connector-curvature="0" />
	<path style="fill:none;stroke:red;stroke-width:1px;stroke-linecap:butt;stroke-linejoin:miter;stroke-opacity:1" d="M 547.322,109.159 564.848,109.159 z" id="boundary" inkscape:connector-curvature="0" />
	<path style="fill:none;stroke:red;stroke-width:1px;stroke-linecap:butt;stroke-linejoin:miter;stroke-opacity:1" d="M 554.332,268.65 571.859,268.65 z" id="boundary" inkscape:connector-curvature="0" />
	<path style="fill:none;stroke:red;stroke-width:1px;stroke-linecap:butt;stroke-linejoin:miter;stroke-opacity:1" d="M 564.848,109.159 582.375,109.159 z" id="boundary" inkscape:connector-curvature="0" />
	<path style="fill:none;stroke:red;stroke-width:1px;stroke-linecap:butt;stroke-linejoin:miter;stroke-opacity:1" d="M 571.859,268.65 589.385,268.65 z" id="boundary" inkscape:connector-curvature="0" />
	<path style="fill:none;stroke:red;stroke-width:1px;stroke-linecap:butt;stroke-linejoin:miter;stroke-opacity:1" d="M 582.375,109.159 599.901,109.159 z" id="boundary" inkscape:connector-curvature="0" />
	<path style="fill:none;stroke:red;stroke-width:1px;stroke-linecap:butt;stroke-linejoin:miter;stroke-opacity:1" d="M 589.385,268.65 606.912,268.65 z" id="boundary" inkscape:connector-curvature="0" />
	<path style="fill:none;stroke:red;stroke-width:1px;stroke-linecap:butt;stroke-linejoin:miter;stroke-opacity:1" d="M 599.901,109.159 617.428,109.159 z" id="boundary" inkscape:connector-curvature="0" />
	<path style="fill:none;stroke:red;stroke-width:1px;stroke-linecap:butt;stroke-linejoin:miter;stroke-opacity:1" d="M 606.912,268.65 622.686,277.413 z" id="boundary" inkscape:connector-curvature="0" />
	<path style="fill:none;stroke:red;stroke-width:1px;stroke-linecap:butt;stroke-linejoin:miter;stroke-opacity:1" d="M 617.428,109.159 634.954,109.159 z" id="boundary" inkscape:connector-curvature="0" />
	<path style="fill:none;stroke:red;stroke-width:1px;stroke-linecap:butt;stroke-linejoin:miter;stroke-opacity:1" d="M 622.686,277.413 640.212,277.413 z" id="boundary" inkscape:connector-curvature="0" />
	<path style="fill:none;stroke:red;stroke-width:1px;stroke-linecap:butt;stroke-linejoin:miter;stroke-opacity:1" d="M 634.954,109.159 650.728,117.922 z" id="boundary" inkscape:connector-curvature="0" />
	<path style="fill:none;stroke:red;stroke-width:1px;stroke-linecap:butt;stroke-linejoin:miter;stroke-opacity:1" d="M 640.212,277.413 657.739,277.413 z" id="boundary" inkscape:connector-curvature="0" />
	<path style="fill:none;stroke:red;stroke-width:1px;stroke-linecap:butt;stroke-linejoin:miter;stroke-opacity:1" d="M 650.728,117.922 668.254,117.922 z" id="boundary" inkscape:connector-curvature="0" />
	<path style="fill:none;stroke:red;stroke-width:1px;stroke-linecap:butt;stroke-linejoin:miter;stroke-opacity:1" d="M 657.739,277.413 675.265,277.413 z" id="boundary" inkscape:connector-curvature="0" />
	<path style="fill:none;stroke:red;stroke-width:1px;stroke-linecap:butt;stroke-linejoin:miter;stroke-opacity:1" d="M 668.254,117.922 685.781,117.922 z" id="boundary" inkscape:connector-curvature="0" />
	<path style="fill:none;stroke:red;stroke-width:1px;stroke-linecap:butt;stroke-linejoin:miter;stroke-opacity:1" d="M 675.265,277.413 692.792,277.413 z" id="boundary" inkscape:connector-curvature="0" />
	<path style="fill:none;stroke:red;stroke-width:1px;stroke-linecap:butt;stroke-linejoin:miter;stroke-opacity:1" d="M 685.781,117.922 703.307,117.922 z" id="boundary" inkscape:connector-curvature="0" />
	<path style="fill:none;stroke:red;stroke-width:1px;stroke-linecap:butt;stroke-linejoin:miter;stroke-opacity:1" d="M 692.792,277.413 710.318,284.424 z" id="boundary" inkscape:connector-curvature="0" />
	<path style="fill:none;stroke:red;stroke-width:1px;stroke-linecap:butt;stroke-linejoin:miter;stroke-opacity:1" d="M 703.307,117.922 720.834,119.675 z" id="boundary" inkscape:connector-curvature="0" />
	<path style="fill:none;stroke:red;stroke-width:1px;stroke-linecap:butt;stroke-linejoin:miter;stroke-opacity:1" d="M 710.318,284.424 727.845,286.177 z" id="boundary" inkscape:connector-curvature="0" />
	<path style="fill:none;stroke:red;stroke-width:1px;stroke-linecap:butt;stroke-linejoin:miter;stroke-opacity:1" d="M 720.834,119.675 738.36,126.686 z" id="boundary" inkscape:connector-curvature="0" />
	<path style="fill:none;stroke:red;stroke-width:1px;stroke-linecap:butt;stroke-linejoin:miter;stroke-opacity:1" d="M 727.845,286.177 745.371,286.177 z" id="boundary" inkscape:connector-curvature="0" />
	<path style="fill:none;stroke:red;stroke-width:1px;stroke-linecap:butt;stroke-linejoin:miter;stroke-opacity:1" d="M 738.36,126.686 755.887,126.686 z" id="boundary" inkscape:connector-curvature="0" />
	<path style="fill:none;stroke:red;stroke-width:1px;stroke-linecap:butt;stroke-linejoin:miter;stroke-opacity:1" d="M 745.371,286.177 761.145,294.94 z" id="boundary" inkscape:connector-curvature="0" />
	<path style="fill:none;stroke:red;stroke-width:1px;stroke-linecap:butt;stroke-linejoin:miter;stroke-opacity:1" d="M 755.887,126.686 773.413,126.686 z" id="boundary" inkscape:connector-curvature="0" />
	<path style="fill:none;stroke:red;stroke-width:1px;stroke-linecap:butt;stroke-linejoin:miter;stroke-opacity:1" d="M 761.145,294.94 778.671,294.94 z" id="boundary" inkscape:connector-curvature="0" />
	<path style="fill:none;stroke:red;stroke-width:1px;stroke-linecap:butt;stroke-linejoin:miter;stroke-opacity:1" d="M 773.413,126.686 790.94,128.438 z" id="boundary" inkscape:connector-curvature="0" />
	<path style="fill:none;stroke:red;stroke-width:1px;stroke-linecap:butt;stroke-linejoin:miter;stroke-opacity:1" d="M 778.671,294.94 796.198,294.94 z" id="boundary" inkscape:connector-curvature="0" />
	<path style="fill:none;stroke:red;stroke-width:1px;stroke-linecap:butt;stroke-linejoin:miter;stroke-opacity:1" d="M 790.94,128.438 808.466,135.449 z" id="boundary" inkscape:connector-curvature="0" />
	<path style="fill:none;stroke:red;stroke-width:1px;stroke-linecap:butt;stroke-linejoin:miter;stroke-opacity:1" d="M 796.198,294.94 813.724,294.94 z" id="boundary" inkscape:connector-curvature="0" />
	<path style="fill:none;stroke:red;stroke-width:1px;stroke-linecap:butt;stroke-linejoin:miter;stroke-opacity:1" d="M 808.466,135.449 825.993,135.449 z" id="boundary" inkscape:connector-curvature="0" />
	<path style="fill:none;stroke:red;stroke-width:1px;stroke-linecap:butt;stroke-linejoin:miter;stroke-opacity:1" d="M 813.724,294.94 831.251,294.94 z" id="boundary" inkscape:connector-curvature="0" />
	<path style="fill:none;stroke:red;stroke-width:1px;stroke-linecap:butt;stroke-linejoin:miter;stroke-opacity:1" d="M 825.993,135.449 843.519,137.201 z" id="boundary" inkscape:connector-curvature="0" />
	<path style="fill:none;stroke:red;stroke-width:1px;stroke-linecap:butt;stroke-linejoin:miter;stroke-opacity:1" d="M 831.251,294.94 848.777,294.94 z" id="boundary" inkscape:connector-curvature="0" />
	<path style="fill:none;stroke:red;stroke-width:1px;stroke-linecap:butt;stroke-linejoin:miter;stroke-opacity:1" d="M 843.519,137.201 861.046,144.212 z" id="boundary" inkscape:connector-curvature="0" />
	<path style="fill:none;stroke:red;stroke-width:1px;stroke-linecap:butt;stroke-linejoin:miter;stroke-opacity:1" d="M 848.777,294.94 866.304,294.94 z" id="boundary" inkscape:connector-curvature="0" />
	<path style="fill:none;stroke:red;stroke-width:1px;stroke-linecap:butt;stroke-linejoin:miter;stroke-opacity:1" d="M 861.046,144.212 876.82,152.975 z" id="boundary" inkscape:connector-curvature="0" />
	<path style="fill:none;stroke:red;stroke-width:1px;stroke-linecap:butt;stroke-linejoin:miter;stroke-opacity:1" d="M 866.304,294.94 883.83,294.94 z" id="boundary" inkscape:connector-curvature="0" />
	<path style="fill:none;stroke:red;stroke-width:1px;stroke-linecap:butt;stroke-linejoin:miter;stroke-opacity:1" d="M 876.82,152.975 894.346,152.975 z" id="boundary" inkscape:connector-curvature="0" />
	<path style="fill:none;stroke:red;stroke-width:1px;stroke-linecap:butt;stroke-linejoin:miter;stroke-opacity:1" d="M 883.83,294.94 901.357,294.94 z" id="boundary" inkscape:connector-curvature="0" />
	<path style="fill:none;stroke:red;stroke-width:1px;stroke-linecap:butt;stroke-linejoin:miter;stroke-opacity:1" d="M 894.346,152.975 910.12,161.739 z" id="boundary" inkscape:connector-curvature="0" />
	<path style="fill:none;stroke:red;stroke-width:1px;stroke-linecap:butt;stroke-linejoin:miter;stroke-opacity:1" d="M 901.357,294.94 918.883,294.94 z" id="boundary" inkscape:connector-curvature="0" />
	<path style="fill:none;stroke:red;stroke-width:1px;stroke-linecap:butt;stroke-linejoin:miter;stroke-opacity:1" d="M 910.12,161.739 925.894,170.502 z" id="boundary" inkscape:connector-curvature="0" />
	<path style="fill:none;stroke:red;stroke-width:1px;stroke-linecap:butt;stroke-linejoin:miter;stroke-opacity:1" d="M 918.883,294.94 934.657,286.177 z" id="boundary" inkscape:connector-curvature="0" />
	<path style="fill:none;stroke:red;stroke-width:1px;stroke-linecap:butt;stroke-linejoin:miter;stroke-opacity:1" d="M 925.894,170.502 943.42,170.502 z" id="boundary" inkscape:connector-curvature="0" />
	<path style="fill:none;stroke:red;stroke-width:1px;stroke-linecap:butt;stroke-linejoin:miter;stroke-opacity:1" d="M 934.657,286.177 952.184,286.177 z" id="boundary" inkscape:connector-curvature="0" />
	<path style="fill:none;stroke:red;stroke-width:1px;stroke-linecap:butt;stroke-linejoin:miter;stroke-opacity:1" d="M 943.42,170.502 960.947,170.502 z" id="boundary" inkscape:connector-curvature="0" />
	<path style="fill:none;stroke:red;stroke-width:1px;stroke-linecap:butt;stroke-linejoin:miter;stroke-opacity:1" d="M 952.184,286.177 969.71,286.177 z" id="boundary" inkscape:connector-curvature="0" />
	<path style="fill:none;stroke:red;stroke-width:1px;stroke-linecap:butt;stroke-linejoin:miter;stroke-opacity:1" d="M 960.947,170.502 978.473,175.76 z" id="boundary" inkscape:connector-curvature="0" />
	<path style="fill:none;stroke:red;stroke-width:1px;stroke-linecap:butt;stroke-linejoin:miter;stroke-opacity:1" d="M 969.71,286.177 987.237,268.65 z" id="boundary" inkscape:connector-curvature="0" />
	<path style="fill:none;stroke:red;stroke-width:1px;stroke-linecap:butt;stroke-linejoin:miter;stroke-opacity:1" d="M 978.473,175.76 990.742,189.781 z" id="boundary" inkscape:connector-curvature="0" />
	<path style="fill:none;stroke:red;stroke-width:1px;stroke-linecap:butt;stroke-linejoin:miter;stroke-opacity:1" d="M 987.237,207.307 990.742,189.781 z" id="boundary" inkscape:connector-curvature="0" />
	<path style="fill:none;stroke:red;stroke-width:1px;stroke-linecap:butt;stroke-linejoin:miter;stroke-opacity:1" d="M 987.237,207.307 996,223.081 z" id="boundary" inkscape:connector-curvature="0" />
	<path style="fill:none;stroke:red;stroke-width:1px;stroke-linecap:butt;stroke-linejoin:miter;stroke-opacity:1" d="M 987.237,268.65 996,240.608 z" id="boundary" inkscape:connector-curvature="0" />
	<path style="fill:none;stroke:red;stroke-width:1px;stroke-linecap:butt;stroke-linejoin:miter;stroke-opacity:1" d="M 996,223.081 996,240.608 z" id="boundary" inkscape:connector-curvature="0" />
	<circle cx="4" cy="105.654" r="4" fill="#0" id="circle0"/>
	<circle cx="12.7633" cy="18.0212" r="4" fill="#0" id="circle1"/>
	<circle cx="12.7633" cy="121.428" r="4" fill="#0" id="circle2"/>
	<circle cx="12.7633" cy="210.813" r="4" fill="#0" id="circle3"/>
	<circle cx="18.0212" cy="91.6325" r="4" fill="#0" id="circle4"/>
	<circle cx="21.5265" cy="33.7951" r="4" fill="#0" id="circle5"/>
	<circle cx="21.5265" cy="137.201" r="4" fill="#0" id="circle6"/>
	<circle cx="21.5265" cy="226.587" r="4" fill="#0" id="circle7"/>
	<circle cx="21.5265" cy="298.445" r="4" fill="#0" id="circle8"/>
	<circle cx="26.7845" cy="4" r="4" fill="#0" id="circle9"/>
	<circle cx="26.7845" cy="196.792" r="4" fill="#0" id="circle10"/>
	<circle cx="30.2898" cy="314.219" r="4" fill="#0" id="circle11"/>
	<circle cx="33.7951" cy="47.8163" r="4" fill="#0" id="circle12"/>
	<circle cx="33.7951" cy="240.608" r="4" fill="#0" id="circle13"/>
	<circle cx="35.5477" cy="91.6325" r="4" fill="#0" id="circle14"/>
	<circle cx="35.5477" cy="284.424" r="4" fill="#0" id="circle15"/>
	<circle cx="39.053" cy="137.201" r="4" fill="#0" id="circle16"/>
	<circle cx="42.5583" cy="328.24" r="4" fill="#0" id="circle17"/>
	<circle cx="44.311" cy="4" r="4" fill="#0" id="circle18"/>
	<circle cx="44.311" cy="196.792" r="4" fill="#0" id="circle19"/>
	<circle cx="47.8163" cy="58.3322" r="4" fill="#0" id="circle20"/>
	<circle cx="51.3216" cy="242.36" r="4" fill="#0" id="circle21"/>
	<circle cx="53.0742" cy="91.6325" r="4" fill="#0" id="circle22"/>
	<circle cx="53.0742" cy="284.424" r="4" fill="#0" id="circle23"/>
	<circle cx="54.8269" cy="145.965" r="4" fill="#0" id="circle24"/>
	<circle cx="60.0848" cy="329.993" r="4" fill="#0" id="circle25"/>
	<circle cx="61.8375" cy="4" r="4" fill="#0" id="circle26"/>
	<circle cx="61.8375" cy="188.028" r="4" fill="#0" id="circle27"/>
	<circle cx="65.3428" cy="58.3322" r="4" fill="#0" id="circle28"/>
	<circle cx="67.0954" cy="251.124" r="4" fill="#0" id="circle29"/>
	<circle cx="70.6007" cy="91.6325" r="4" fill="#0" id="circle30"/>
	<circle cx="70.6007" cy="284.424" r="4" fill="#0" id="circle31"/>
	<circle cx="72.3534" cy="145.965" r="4" fill="#0" id="circle32"/>
	<circle cx="77.6113" cy="12.7633" r="4" fill="#0" id="circle33"/>
	<circle cx="77.6113" cy="329.993" r="4" fill="#0" id="circle34"/>
	<circle cx="79.364" cy="188.028" r="4" fill="#0" id="circle35"/>
	<circle cx="81.1166" cy="67.0954" r="4" fill="#0" id="circle36"/>
	<circle cx="84.6219" cy="251.124" r="4" fill="#0" id="circle37"/>
	<circle cx="86.3746" cy="100.396" r="4" fill="#0" id="circle38"/>
	<circle cx="88.1272" cy="284.424" r="4" fill="#0" id="circle39"/>
	<circle cx="89.8799" cy="145.965" r="4" fill="#0" id="circle40"/>
	<circle cx="95.1378" cy="12.7633" r="4" fill="#0" id="circle41"/>
	<circle cx="95.1378" cy="329.993" r="4" fill="#0" id="circle42"/>
	<circle cx="96.8905" cy="188.028" r="4" fill="#0" id="circle43"/>
	<circle cx="98.6431" cy="67.0954" r="4" fill="#0" id="circle44"/>
	<circle cx="102.148" cy="251.124" r="4" fill="#0" id="circle45"/>
	<circle cx="103.901" cy="100.396" r="4" fill="#0" id="circle46"/>
	<circle cx="105.654" cy="284.424" r="4" fill="#0" id="circle47"/>
	<circle cx="107.406" cy="145.965" r="4" fill="#0" id="circle48"/>
	<circle cx="112.664" cy="12.7633" r="4" fill="#0" id="circle49"/>
	<circle cx="112.664" cy="335.251" r="4" fill="#0" id="circle50"/>
	<circle cx="114.417" cy="75.8587" r="4" fill="#0" id="circle51"/>
	<circle cx="114.417" cy="188.028" r="4" fill="#0" id="circle52"/>
	<circle cx="119.675" cy="109.159" r="4" fill="#0" id="circle53"/>
	<circle cx="119.675" cy="251.124" r="4" fill="#0" id="circle54"/>
	<circle cx="123.18" cy="154.728" r="4" fill="#0" id="circle55"/>
	<circle cx="123.18" cy="284.424" r="4" fill="#0" id="circle56"/>
	<circle cx="130.191" cy="12.7633" r="4" fill="#0" id="circle57"/>
	<circle cx="130.191" cy="338.756" r="4" fill="#0" id="circle58"/>
	<circle cx="131.943" cy="75.8587" r="4" fill="#0" id="circle59"/>
	<circle cx="131.943" cy="188.028" r="4" fill="#0" id="circle60"/>
	<circle cx="135.449" cy="242.36" r="4" fill="#0" id="circle61"/>
	<circle cx="137.201" cy="109.159" r="4" fill="#0" id="circle62"/>
	<circle cx="140.707" cy="154.728" r="4" fill="#0" id="circle63"/>
	<circle cx="140.707" cy="284.424" r="4" fill="#0" id="circle64"/>
	<circle cx="147.717" cy="12.7633" r="4" fill="#0" id="circle65"/>
	<circle cx="147.717" cy="196.792" r="4" fill="#0" id="circle66"/>
	<circle cx="147.717" cy="338.756" r="4" fill="#0" id="circle67"/>
	<circle cx="149.47" cy="75.8587" r="4" fill="#0" id="circle68"/>
	<circle cx="152.975" cy="242.36" r="4" fill="#0" id="circle69"/>
	<circle cx="154.728" cy="109.159" r="4" fill="#0" id="circle70"/>
	<circle cx="158.233" cy="154.728" r="4" fill="#0" id="circle71"/>
	<circle cx="158.233" cy="284.424" r="4" fill="#0" id="circle72"/>
	<circle cx="165.244" cy="12.7633" r="4" fill="#0" id="circle73"/>
	<circle cx="165.244" cy="196.792" r="4" fill="#0" id="circle74"/>
	<circle cx="165.244" cy="338.756" r="4" fill="#0" id="circle75"/>
	<circle cx="166.996" cy="75.8587" r="4" fill="#0" id="circle76"/>
	<circle cx="170.502" cy="242.36" r="4" fill="#0" id="circle77"/>
	<circle cx="172.254" cy="109.159" r="4" fill="#0" id="circle78"/>
	<circle cx="174.007" cy="293.187" r="4" fill="#0" id="circle79"/>
	<circle cx="175.76" cy="154.728" r="4" fill="#0" id="circle80"/>
	<circle cx="181.018" cy="21.5265" r="4" fill="#0" id="circle81"/>
	<circle cx="182.77" cy="196.792" r="4" fill="#0" id="circle82"/>
	<circle cx="182.77" cy="338.756" r="4" fill="#0" id="circle83"/>
	<circle cx="184.523" cy="75.8587" r="4" fill="#0" id="circle84"/>
	<circle cx="188.028" cy="242.36" r="4" fill="#0" id="circle85"/>
	<circle cx="189.781" cy="109.159" r="4" fill="#0" id="circle86"/>
	<circle cx="191.534" cy="293.187" r="4" fill="#0" id="circle87"/>
	<circle cx="193.286" cy="161.739" r="4" fill="#0" id="circle88"/>
	<circle cx="198.544" cy="21.5265" r="4" fill="#0" id="circle89"/>
	<circle cx="200.297" cy="196.792" r="4" fill="#0" id="circle90"/>
	<circle cx="200.297" cy="344.014" r="4" fill="#0" id="circle91"/>
	<circle cx="202.049" cy="75.8587" r="4" fill="#0" id="circle92"/>
	<circle cx="203.802" cy="251.124" r="4" fill="#0" id="circle93"/>
	<circle cx="205.555" cy="117.922" r="4" fill="#0" id="circle94"/>
	<circle cx="209.06" cy="293.187" r="4" fill="#0" id="circle95"/>
	<circle cx="210.813" cy="163.491" r="4" fill="#0" id="circle96"/>
	<circle cx="216.071" cy="21.5265" r="4" fill="#0" id="circle97"/>
	<circle cx="217.823" cy="196.792" r="4" fill="#0" id="circle98"/>
	<circle cx="217.823" cy="347.519" r="4" fill="#0" id="circle99"/>
	<circle cx="219.576" cy="75.8587" r="4" fill="#0" id="circle100"/>
	<circle cx="221.329" cy="251.124" r="4" fill="#0" id="circle101"/>
	<circle cx="223.081" cy="117.922" r="4" fill="#0" id="circle102"/>
	<circle cx="226.587" cy="172.254" r="4" fill="#0" id="circle103"/>
	<circle cx="226.587" cy="293.187" r="4" fill="#0" id="circle104"/>
	<circle cx="231.845" cy="30.2898" r="4" fill="#0" id="circle105"/>
	<circle cx="235.35" cy="84.6219" r="4" fill="#0" id="circle106"/>
	<circle cx="235.35" cy="196.792" r="4" fill="#0" id="circle107"/>
	<circle cx="235.35" cy="347.519" r="4" fill="#0" id="circle108"/>
	<circle cx="238.855" cy="251.124" r="4" fill="#0" id="circle109"/>
	<circle cx="240.608" cy="117.922" r="4" fill="#0" id="circle110"/>
	<circle cx="244.113" cy="172.254" r="4" fill="#0" id="circle111"/>
	<circle cx="244.113" cy="293.187" r="4" fill="#0" id="circle112"/>
	<circle cx="249.371" cy="33.7951" r="4" fill="#0" id="circle113"/>
	<circle cx="251.124" cy="338.756" r="4" fill="#0" id="circle114"/>
	<circle cx="252.876" cy="89.8799" r="4" fill="#0" id="circle115"/>
	<circle cx="252.876" cy="196.792" r="4" fill="#0" id="circle116"/>
	<circle cx="256.382" cy="251.124" r="4" fill="#0" id="circle117"/>
	<circle cx="258.134" cy="121.428" r="4" fill="#0" id="circle118"/>
	<circle cx="261.64" cy="172.254" r="4" fill="#0" id="circle119"/>
	<circle cx="261.64" cy="293.187" r="4" fill="#0" id="circle120"/>
	<circle cx="266.898" cy="39.053" r="4" fill="#0" id="circle121"/>
	<circle cx="268.65" cy="338.756" r="4" fill="#0" id="circle122"/>
	<circle cx="270.403" cy="93.3852" r="4" fill="#0" id="circle123"/>
	<circle cx="270.403" cy="196.792" r="4" fill="#0" id="circle124"/>
	<circle cx="272.155" cy="242.36" r="4" fill="#0" id="circle125"/>
	<circle cx="275.661" cy="126.686" r="4" fill="#0" id="circle126"/>
	<circle cx="279.166" cy="181.018" r="4" fill="#0" id="circle127"/>
	<circle cx="279.166" cy="293.187" r="4" fill="#0" id="circle128"/>
	<circle cx="282.671" cy="47.8163" r="4" fill="#0" id="circle129"/>
	<circle cx="284.424" cy="329.993" r="4" fill="#0" id="circle130"/>
	<circle cx="286.177" cy="102.148" r="4" fill="#0" id="circle131"/>
	<circle cx="287.929" cy="196.792" r="4" fill="#0" id="circle132"/>
	<circle cx="289.682" cy="242.36" r="4" fill="#0" id="circle133"/>
	<circle cx="291.435" cy="135.449" r="4" fill="#0" id="circle134"/>
	<circle cx="294.94" cy="284.424" r="4" fill="#0" id="circle135"/>
	<circle cx="296.693" cy="181.018" r="4" fill="#0" id="circle136"/>
	<circle cx="298.445" cy="56.5795" r="4" fill="#0" id="circle137"/>
	<circle cx="300.198" cy="321.23" r="4" fill="#0" id="circle138"/>
	<circle cx="303.703" cy="105.654" r="4" fill="#0" id="circle139"/>
	<circle cx="307.208" cy="242.36" r="4" fill="#0" id="circle140"/>
	<circle cx="308.961" cy="135.449" r="4" fill="#0" id="circle141"/>
	<circle cx="310.714" cy="272.155" r="4" fill="#0" id="circle142"/>
	<circle cx="314.219" cy="65.3428" r="4" fill="#0" id="circle143"/>
	<circle cx="315.972" cy="312.466" r="4" fill="#0" id="circle144"/>
	<circle cx="317.724" cy="119.675" r="4" fill="#0" id="circle145"/>
	<circle cx="324.735" cy="242.36" r="4" fill="#0" id="circle146"/>
	<circle cx="324.735" cy="259.887" r="4" fill="#0" id="circle147"/>
	<circle cx="329.993" cy="74.106" r="4" fill="#0" id="circle148"/>
	<circle cx="331.746" cy="303.703" r="4" fill="#0" id="circle149"/>
	<circle cx="344.014" cy="84.6219" r="4" fill="#0" id="circle150"/>
	<circle cx="347.519" cy="294.94" r="4" fill="#0" id="circle151"/>
	<circle cx="356.283" cy="98.6431" r="4" fill="#0" id="circle152"/>
	<circle cx="363.293" cy="286.177" r="4" fill="#0" id="circle153"/>
	<circle cx="373.809" cy="100.396" r="4" fill="#0" id="circle154"/>
	<circle cx="379.067" cy="277.413" r="4" fill="#0" id="circle155"/>
	<circle cx="391.336" cy="100.396" r="4" fill="#0" id="circle156"/>
	<circle cx="396.594" cy="273.908" r="4" fill="#0" id="circle157"/>
	<circle cx="408.862" cy="100.396" r="4" fill="#0" id="circle158"/>
	<circle cx="414.12" cy="268.65" r="4" fill="#0" id="circle159"/>
	<circle cx="426.389" cy="100.396" r="4" fill="#0" id="circle160"/>
	<circle cx="431.647" cy="268.65" r="4" fill="#0" id="circle161"/>
	<circle cx="443.915" cy="100.396" r="4" fill="#0" id="circle162"/>
	<circle cx="449.173" cy="268.65" r="4" fill="#0" id="circle163"/>
	<circle cx="459.689" cy="109.159" r="4" fill="#0" id="circle164"/>
	<circle cx="466.7" cy="268.65" r="4" fill="#0" id="circle165"/>
	<circle cx="477.216" cy="109.159" r="4" fill="#0" id="circle166"/>
	<circle cx="484.226" cy="268.65" r="4" fill="#0" id="circle167"/>
	<circle cx="494.742" cy="109.159" r="4" fill="#0" id="circle168"/>
	<circle cx="501.753" cy="268.65" r="4" fill="#0" id="circle169"/>
	<circle cx="512.269" cy="109.159" r="4" fill="#0" id="circle170"/>
	<circle cx="519.279" cy="268.65" r="4" fill="#0" id="circle171"/>
	<circle cx="529.795" cy="109.159" r="4" fill="#0" id="circle172"/>
	<circle cx="536.806" cy="268.65" r="4" fill="#0" id="circle173"/>
	<circle cx="547.322" cy="109.159" r="4" fill="#0" id="circle174"/>
	<circle cx="554.332" cy="268.65" r="4" fill="#0" id="circle175"/>
	<circle cx="564.848" cy="109.159" r="4" fill="#0" id="circle176"/>
	<circle cx="571.859" cy="268.65" r="4" fill="#0" id="circle177"/>
	<circle cx="582.375" cy="109.159" r="4" fill="#0" id="circle178"/>
	<circle cx="589.385" cy="268.65" r="4" fill="#0" id="circle179"/>
	<circle cx="599.901" cy="109.159" r="4" fill="#0" id="circle180"/>
	<circle cx="606.912" cy="268.65" r="4" fill="#0" id="circle181"/>
	<circle cx="617.428" cy="109.159" r="4" fill="#0" id="circle182"/>
	<circle cx="622.686" cy="277.413" r="4" fill="#0" id="circle183"/>
	<circle cx="634.954" cy="109.159" r="4" fill="#0" id="circle184"/>
	<circle cx="640.212" cy="277.413" r="4" fill="#0" id="circle185"/>
	<circle cx="650.728" cy="117.922" r="4" fill="#0" id="circle186"/>
	<circle cx="657.739" cy="277.413" r="4" fill="#0" id="circle187"/>
	<circle cx="668.254" cy="117.922" r="4" fill="#0" id="circle188"/>
	<circle cx="675.265" cy="277.413" r="4" fill="#0" id="circle189"/>
	<circle cx="685.781" cy="117.922" r="4" fill="#0" id="circle190"/>
	<circle cx="692.792" cy="277.413" r="4" fill="#0" id="circle191"/>
	<circle cx="703.307" cy="117.922" r="4" fill="#0" id="circle192"/>
	<circle cx="710.318" cy="284.424" r="4" fill="#0" id="circle193"/>
	<circle cx="720.834" cy="119.675" r="4" fill="#0" id="circle194"/>
	<circle cx="727.845" cy="286.177" r="4" fill="#0" id="circle195"/>
	<circle cx="738.36" cy="126.686" r="4" fill="#0" id="circle196"/>
	<circle cx="745.371" cy="286.177" r="4" fill="#0" id="circle197"/>
	<circle cx="755.887" cy="126.686" r="4" fill="#0" id="circle198"/>
	<circle cx="761.145" cy="294.94" r="4" fill="#0" id="circle199"/>
	<circle cx="773.413" cy="126.686" r="4" fill="#0" id="circle200"/>
	<circle cx="778.671" cy="294.94" r="4" fill="#0" id="circle201"/>
	<circle cx="790.94" cy="128.438" r="4" fill="#0" id="circle202"/>
	<circle cx="796.198" cy="294.94" r="4" fill="#0" id="circle203"/>
	<circle cx="808.466" cy="135.449" r="4" fill="#0" id="circle204"/>
	<circle cx="813.724" cy="294.94" r="4" fill="#0" id="circle205"/>
	<circle cx="825.993" cy="135.449" r="4" fill="#0" id="circle206"/>
	<circle cx="831.251" cy="294.94" r="4" fill="#0" id="circle207"/>
	<circle cx="843.519" cy="137.201" r="4" fill="#0" id="circle208"/>
	<circle cx="848.777" cy="294.94" r="4" fill="#0" id="circle209"/>
	<circle cx="861.046" cy="144.212" r="4" fill="#0" id="circle210"/>
	<circle cx="866.304" cy="294.94" r="4" fill="#0" id="circle211"/>
	<circle cx="876.82" cy="152.975" r="4" fill="#0" id="circle212"/>
	<circle cx="883.83" cy="294.94" r="4" fill="#0" id="circle213"/>
	<circle cx="894.346" cy="152.975" r="4" fill="#0" id="circle214"/>
	<circle cx="901.357" cy="294.94" r="4" fill="#0" id="circle215"/>
	<circle cx="910.12" cy="161.739" r="4" fill="#0" id="circle216"/>
	<circle cx="918.883" cy="294.94" r="4" fill="#0" id="circle217"/>
	<circle cx="925.894" cy="170.502" r="4" fill="#0" id="circle218"/>
	<circle cx="934.657" cy="286.177" r="4" fill="#0" id="circle219"/>
	<circle cx="943.42" cy="170.502" r="4" fill="#0" id="circle220"/>
	<circle cx="952.184" cy="286.177" r="4" fill="#0" id="circle221"/>
	<circle cx="960.947" cy="170.502" r="4" fill="#0" id="circle222"/>
	<circle cx="969.71" cy="286.177" r="4" fill="#0" id="circle223"/>
	<circle cx="978.473" cy="175.76" r="4" fill="#0" id="circle224"/>
	<circle cx="987.237" cy="207.307" r="4" fill="#0" id="circle225"/>
	<circle cx="987.237" cy="268.65" r="4" fill="#0" id="circle226"/>
	<circle cx="990.742" cy="189.781" r="4" fill="#0" id="circle227"/>
	<circle cx="996" cy="223.081" r="4" fill="#0" id="circle228"/>
	<circle cx="996" cy="240.608" r="4" fill="#0" id="circle229"/>
	</g>
</svg>