<?xml version="1.0" encoding="UTF-8" standalone="no"?>
<!-- Created with CurveBenchmark -->
<svg
	xmlns:dc="http://purl.org/dc/elements/1.1/"
	xmlns:cc="http://creativecommons.org/ns#"
	xmlns:rdf="http://www.w3.org/1999/02/22-rdf-syntax-ns#"
	xmlns:svg="http://www.w3.org/2000/svg"
	xmlns="http://www.w3.org/2000/svg"
	xmlns:sodipodi="http://sodipodi.sourceforge.net/DTD/sodipodi-0.dtd"
	xmlns:inkscape="http://www.inkscape.org/namespaces/inkscape"
	width="1000"
	height="1000"
	id="svg2"
	version="1.1"
	sodipodi:docname="manifold/discur-hammer04.png.txt">
<defs
	id="defs4" />
<metadata
	id="metadata7">
	<rdf:RDF>
		<cc:Work
			rdf:about="">
			<dc:format>image/svg+xml</dc:format>
			<dc:type
				rdf:resource="http://purl.org/dc/dcmitype/StillImage" />
			<dc:title></dc:title>
		</cc:Work>
	</rdf:RDF>
</metadata>
<g
	inkscape:label="Layer 1"
	inkscape:groupmode="layer"
	id="layer1">
	<path style="fill:none;stroke:red;stroke-width:1px;stroke-linecap:butt;stroke-linejoin:miter;stroke-opacity:1" d="M 4,361.56 4,379.896 z" id="boundary" inkscape:connector-curvature="0" />
	<path style="fill:none;stroke:red;stroke-width:1px;stroke-linecap:butt;stroke-linejoin:miter;stroke-opacity:1" d="M 4,379.896 4,407.401 z" id="boundary" inkscape:connector-curvature="0" />
	<path style="fill:none;stroke:red;stroke-width:1px;stroke-linecap:butt;stroke-linejoin:miter;stroke-opacity:1" d="M 4,407.401 4,434.906 z" id="boundary" inkscape:connector-curvature="0" />
	<path style="fill:none;stroke:red;stroke-width:1px;stroke-linecap:butt;stroke-linejoin:miter;stroke-opacity:1" d="M 4,434.906 4,453.242 z" id="boundary" inkscape:connector-curvature="0" />
	<path style="fill:none;stroke:red;stroke-width:1px;stroke-linecap:butt;stroke-linejoin:miter;stroke-opacity:1" d="M 4,453.242 22.3364,458.743 z" id="boundary" inkscape:connector-curvature="0" />
	<path style="fill:none;stroke:red;stroke-width:1px;stroke-linecap:butt;stroke-linejoin:miter;stroke-opacity:1" d="M 13.1682,343.224 22.3364,324.887 z" id="boundary" inkscape:connector-curvature="0" />
	<path style="fill:none;stroke:red;stroke-width:1px;stroke-linecap:butt;stroke-linejoin:miter;stroke-opacity:1" d="M 13.1682,343.224 31.5046,341.39 z" id="boundary" inkscape:connector-curvature="0" />
	<path style="fill:none;stroke:red;stroke-width:1px;stroke-linecap:butt;stroke-linejoin:miter;stroke-opacity:1" d="M 22.3364,251.542 31.5046,233.205 z" id="boundary" inkscape:connector-curvature="0" />
	<path style="fill:none;stroke:red;stroke-width:1px;stroke-linecap:butt;stroke-linejoin:miter;stroke-opacity:1" d="M 22.3364,251.542 31.5046,268.044 z" id="boundary" inkscape:connector-curvature="0" />
	<path style="fill:none;stroke:red;stroke-width:1px;stroke-linecap:butt;stroke-linejoin:miter;stroke-opacity:1" d="M 22.3364,288.214 31.5046,268.044 z" id="boundary" inkscape:connector-curvature="0" />
	<path style="fill:none;stroke:red;stroke-width:1px;stroke-linecap:butt;stroke-linejoin:miter;stroke-opacity:1" d="M 22.3364,288.214 31.5046,304.717 z" id="boundary" inkscape:connector-curvature="0" />
	<path style="fill:none;stroke:red;stroke-width:1px;stroke-linecap:butt;stroke-linejoin:miter;stroke-opacity:1" d="M 22.3364,324.887 31.5046,341.39 z" id="boundary" inkscape:connector-curvature="0" />
	<path style="fill:none;stroke:red;stroke-width:1px;stroke-linecap:butt;stroke-linejoin:miter;stroke-opacity:1" d="M 22.3364,458.743 40.6728,458.743 z" id="boundary" inkscape:connector-curvature="0" />
	<path style="fill:none;stroke:red;stroke-width:1px;stroke-linecap:butt;stroke-linejoin:miter;stroke-opacity:1" d="M 31.5046,196.532 31.5046,214.869 z" id="boundary" inkscape:connector-curvature="0" />
	<path style="fill:none;stroke:red;stroke-width:1px;stroke-linecap:butt;stroke-linejoin:miter;stroke-opacity:1" d="M 31.5046,196.532 40.6728,169.028 z" id="boundary" inkscape:connector-curvature="0" />
	<path style="fill:none;stroke:red;stroke-width:1px;stroke-linecap:butt;stroke-linejoin:miter;stroke-opacity:1" d="M 31.5046,214.869 31.5046,233.205 z" id="boundary" inkscape:connector-curvature="0" />
	<path style="fill:none;stroke:red;stroke-width:1px;stroke-linecap:butt;stroke-linejoin:miter;stroke-opacity:1" d="M 40.6728,169.028 55.342,154.359 z" id="boundary" inkscape:connector-curvature="0" />
	<path style="fill:none;stroke:red;stroke-width:1px;stroke-linecap:butt;stroke-linejoin:miter;stroke-opacity:1" d="M 40.6728,458.743 59.0092,458.743 z" id="boundary" inkscape:connector-curvature="0" />
	<path style="fill:none;stroke:red;stroke-width:1px;stroke-linecap:butt;stroke-linejoin:miter;stroke-opacity:1" d="M 55.342,154.359 64.5102,136.022 z" id="boundary" inkscape:connector-curvature="0" />
	<path style="fill:none;stroke:red;stroke-width:1px;stroke-linecap:butt;stroke-linejoin:miter;stroke-opacity:1" d="M 59.0092,458.743 77.3457,458.743 z" id="boundary" inkscape:connector-curvature="0" />
	<path style="fill:none;stroke:red;stroke-width:1px;stroke-linecap:butt;stroke-linejoin:miter;stroke-opacity:1" d="M 64.5102,136.022 77.3457,104.85 z" id="boundary" inkscape:connector-curvature="0" />
	<path style="fill:none;stroke:red;stroke-width:1px;stroke-linecap:butt;stroke-linejoin:miter;stroke-opacity:1" d="M 77.3457,104.85 95.6821,86.5139 z" id="boundary" inkscape:connector-curvature="0" />
	<path style="fill:none;stroke:red;stroke-width:1px;stroke-linecap:butt;stroke-linejoin:miter;stroke-opacity:1" d="M 77.3457,458.743 95.6821,458.743 z" id="boundary" inkscape:connector-curvature="0" />
	<path style="fill:none;stroke:red;stroke-width:1px;stroke-linecap:butt;stroke-linejoin:miter;stroke-opacity:1" d="M 95.6821,86.5139 110.351,71.8447 z" id="boundary" inkscape:connector-curvature="0" />
	<path style="fill:none;stroke:red;stroke-width:1px;stroke-linecap:butt;stroke-linejoin:miter;stroke-opacity:1" d="M 95.6821,458.743 114.018,458.743 z" id="boundary" inkscape:connector-curvature="0" />
	<path style="fill:none;stroke:red;stroke-width:1px;stroke-linecap:butt;stroke-linejoin:miter;stroke-opacity:1" d="M 110.351,71.8447 125.02,57.1756 z" id="boundary" inkscape:connector-curvature="0" />
	<path style="fill:none;stroke:red;stroke-width:1px;stroke-linecap:butt;stroke-linejoin:miter;stroke-opacity:1" d="M 114.018,458.743 132.355,458.743 z" id="boundary" inkscape:connector-curvature="0" />
	<path style="fill:none;stroke:red;stroke-width:1px;stroke-linecap:butt;stroke-linejoin:miter;stroke-opacity:1" d="M 125.02,57.1756 143.357,48.0074 z" id="boundary" inkscape:connector-curvature="0" />
	<path style="fill:none;stroke:red;stroke-width:1px;stroke-linecap:butt;stroke-linejoin:miter;stroke-opacity:1" d="M 132.355,458.743 150.691,458.743 z" id="boundary" inkscape:connector-curvature="0" />
	<path style="fill:none;stroke:red;stroke-width:1px;stroke-linecap:butt;stroke-linejoin:miter;stroke-opacity:1" d="M 143.357,48.0074 158.026,35.1719 z" id="boundary" inkscape:connector-curvature="0" />
	<path style="fill:none;stroke:red;stroke-width:1px;stroke-linecap:butt;stroke-linejoin:miter;stroke-opacity:1" d="M 150.691,458.743 169.028,458.743 z" id="boundary" inkscape:connector-curvature="0" />
	<path style="fill:none;stroke:red;stroke-width:1px;stroke-linecap:butt;stroke-linejoin:miter;stroke-opacity:1" d="M 158.026,35.1719 174.529,26.0037 z" id="boundary" inkscape:connector-curvature="0" />
	<path style="fill:none;stroke:red;stroke-width:1px;stroke-linecap:butt;stroke-linejoin:miter;stroke-opacity:1" d="M 169.028,458.743 187.364,458.743 z" id="boundary" inkscape:connector-curvature="0" />
	<path style="fill:none;stroke:red;stroke-width:1px;stroke-linecap:butt;stroke-linejoin:miter;stroke-opacity:1" d="M 174.529,26.0037 192.865,26.0037 z" id="boundary" inkscape:connector-curvature="0" />
	<path style="fill:none;stroke:red;stroke-width:1px;stroke-linecap:butt;stroke-linejoin:miter;stroke-opacity:1" d="M 187.364,458.743 205.701,458.743 z" id="boundary" inkscape:connector-curvature="0" />
	<path style="fill:none;stroke:red;stroke-width:1px;stroke-linecap:butt;stroke-linejoin:miter;stroke-opacity:1" d="M 192.865,26.0037 207.534,11.3346 z" id="boundary" inkscape:connector-curvature="0" />
	<path style="fill:none;stroke:red;stroke-width:1px;stroke-linecap:butt;stroke-linejoin:miter;stroke-opacity:1" d="M 205.701,458.743 224.037,458.743 z" id="boundary" inkscape:connector-curvature="0" />
	<path style="fill:none;stroke:red;stroke-width:1px;stroke-linecap:butt;stroke-linejoin:miter;stroke-opacity:1" d="M 207.534,11.3346 225.871,7.66728 z" id="boundary" inkscape:connector-curvature="0" />
	<path style="fill:none;stroke:red;stroke-width:1px;stroke-linecap:butt;stroke-linejoin:miter;stroke-opacity:1" d="M 207.534,137.856 207.534,165.36 z" id="boundary" inkscape:connector-curvature="0" />
	<path style="fill:none;stroke:red;stroke-width:1px;stroke-linecap:butt;stroke-linejoin:miter;stroke-opacity:1" d="M 207.534,137.856 216.702,110.351 z" id="boundary" inkscape:connector-curvature="0" />
	<path style="fill:none;stroke:red;stroke-width:1px;stroke-linecap:butt;stroke-linejoin:miter;stroke-opacity:1" d="M 207.534,165.36 207.534,183.697 z" id="boundary" inkscape:connector-curvature="0" />
	<path style="fill:none;stroke:red;stroke-width:1px;stroke-linecap:butt;stroke-linejoin:miter;stroke-opacity:1" d="M 207.534,183.697 207.534,202.033 z" id="boundary" inkscape:connector-curvature="0" />
	<path style="fill:none;stroke:red;stroke-width:1px;stroke-linecap:butt;stroke-linejoin:miter;stroke-opacity:1" d="M 207.534,202.033 225.871,209.368 z" id="boundary" inkscape:connector-curvature="0" />
	<path style="fill:none;stroke:red;stroke-width:1px;stroke-linecap:butt;stroke-linejoin:miter;stroke-opacity:1" d="M 207.534,330.388 216.702,346.891 z" id="boundary" inkscape:connector-curvature="0" />
	<path style="fill:none;stroke:red;stroke-width:1px;stroke-linecap:butt;stroke-linejoin:miter;stroke-opacity:1" d="M 207.534,330.388 224.037,321.22 z" id="boundary" inkscape:connector-curvature="0" />
	<path style="fill:none;stroke:red;stroke-width:1px;stroke-linecap:butt;stroke-linejoin:miter;stroke-opacity:1" d="M 216.702,92.0148 216.702,110.351 z" id="boundary" inkscape:connector-curvature="0" />
	<path style="fill:none;stroke:red;stroke-width:1px;stroke-linecap:butt;stroke-linejoin:miter;stroke-opacity:1" d="M 216.702,92.0148 225.871,64.5102 z" id="boundary" inkscape:connector-curvature="0" />
	<path style="fill:none;stroke:red;stroke-width:1px;stroke-linecap:butt;stroke-linejoin:miter;stroke-opacity:1" d="M 216.702,346.891 225.871,367.061 z" id="boundary" inkscape:connector-curvature="0" />
	<path style="fill:none;stroke:red;stroke-width:1px;stroke-linecap:butt;stroke-linejoin:miter;stroke-opacity:1" d="M 224.037,321.22 242.373,321.22 z" id="boundary" inkscape:connector-curvature="0" />
	<path style="fill:none;stroke:red;stroke-width:1px;stroke-linecap:butt;stroke-linejoin:miter;stroke-opacity:1" d="M 224.037,458.743 225.871,431.238 z" id="boundary" inkscape:connector-curvature="0" />
	<path style="fill:none;stroke:red;stroke-width:1px;stroke-linecap:butt;stroke-linejoin:miter;stroke-opacity:1" d="M 225.871,7.66728 244.207,4 z" id="boundary" inkscape:connector-curvature="0" />
	<path style="fill:none;stroke:red;stroke-width:1px;stroke-linecap:butt;stroke-linejoin:miter;stroke-opacity:1" d="M 225.871,46.1738 225.871,64.5102 z" id="boundary" inkscape:connector-curvature="0" />
	<path style="fill:none;stroke:red;stroke-width:1px;stroke-linecap:butt;stroke-linejoin:miter;stroke-opacity:1" d="M 225.871,46.1738 235.039,27.8373 z" id="boundary" inkscape:connector-curvature="0" />
	<path style="fill:none;stroke:red;stroke-width:1px;stroke-linecap:butt;stroke-linejoin:miter;stroke-opacity:1" d="M 225.871,209.368 244.207,209.368 z" id="boundary" inkscape:connector-curvature="0" />
	<path style="fill:none;stroke:red;stroke-width:1px;stroke-linecap:butt;stroke-linejoin:miter;stroke-opacity:1" d="M 225.871,367.061 225.871,385.397 z" id="boundary" inkscape:connector-curvature="0" />
	<path style="fill:none;stroke:red;stroke-width:1px;stroke-linecap:butt;stroke-linejoin:miter;stroke-opacity:1" d="M 225.871,385.397 225.871,403.734 z" id="boundary" inkscape:connector-curvature="0" />
	<path style="fill:none;stroke:red;stroke-width:1px;stroke-linecap:butt;stroke-linejoin:miter;stroke-opacity:1" d="M 225.871,403.734 225.871,431.238 z" id="boundary" inkscape:connector-curvature="0" />
	<path style="fill:none;stroke:red;stroke-width:1px;stroke-linecap:butt;stroke-linejoin:miter;stroke-opacity:1" d="M 235.039,27.8373 244.207,4 z" id="boundary" inkscape:connector-curvature="0" />
	<path style="fill:none;stroke:red;stroke-width:1px;stroke-linecap:butt;stroke-linejoin:miter;stroke-opacity:1" d="M 242.373,321.22 260.71,321.22 z" id="boundary" inkscape:connector-curvature="0" />
	<path style="fill:none;stroke:red;stroke-width:1px;stroke-linecap:butt;stroke-linejoin:miter;stroke-opacity:1" d="M 244.207,209.368 262.543,209.368 z" id="boundary" inkscape:connector-curvature="0" />
	<path style="fill:none;stroke:red;stroke-width:1px;stroke-linecap:butt;stroke-linejoin:miter;stroke-opacity:1" d="M 260.71,321.22 279.046,321.22 z" id="boundary" inkscape:connector-curvature="0" />
	<path style="fill:none;stroke:red;stroke-width:1px;stroke-linecap:butt;stroke-linejoin:miter;stroke-opacity:1" d="M 262.543,209.368 280.88,209.368 z" id="boundary" inkscape:connector-curvature="0" />
	<path style="fill:none;stroke:red;stroke-width:1px;stroke-linecap:butt;stroke-linejoin:miter;stroke-opacity:1" d="M 279.046,321.22 297.383,321.22 z" id="boundary" inkscape:connector-curvature="0" />
	<path style="fill:none;stroke:red;stroke-width:1px;stroke-linecap:butt;stroke-linejoin:miter;stroke-opacity:1" d="M 280.88,209.368 299.216,209.368 z" id="boundary" inkscape:connector-curvature="0" />
	<path style="fill:none;stroke:red;stroke-width:1px;stroke-linecap:butt;stroke-linejoin:miter;stroke-opacity:1" d="M 297.383,321.22 315.719,321.22 z" id="boundary" inkscape:connector-curvature="0" />
	<path style="fill:none;stroke:red;stroke-width:1px;stroke-linecap:butt;stroke-linejoin:miter;stroke-opacity:1" d="M 299.216,209.368 317.553,209.368 z" id="boundary" inkscape:connector-curvature="0" />
	<path style="fill:none;stroke:red;stroke-width:1px;stroke-linecap:butt;stroke-linejoin:miter;stroke-opacity:1" d="M 315.719,321.22 334.055,321.22 z" id="boundary" inkscape:connector-curvature="0" />
	<path style="fill:none;stroke:red;stroke-width:1px;stroke-linecap:butt;stroke-linejoin:miter;stroke-opacity:1" d="M 317.553,209.368 335.889,209.368 z" id="boundary" inkscape:connector-curvature="0" />
	<path style="fill:none;stroke:red;stroke-width:1px;stroke-linecap:butt;stroke-linejoin:miter;stroke-opacity:1" d="M 334.055,321.22 352.392,321.22 z" id="boundary" inkscape:connector-curvature="0" />
	<path style="fill:none;stroke:red;stroke-width:1px;stroke-linecap:butt;stroke-linejoin:miter;stroke-opacity:1" d="M 335.889,209.368 354.226,209.368 z" id="boundary" inkscape:connector-curvature="0" />
	<path style="fill:none;stroke:red;stroke-width:1px;stroke-linecap:butt;stroke-linejoin:miter;stroke-opacity:1" d="M 352.392,321.22 370.728,321.22 z" id="boundary" inkscape:connector-curvature="0" />
	<path style="fill:none;stroke:red;stroke-width:1px;stroke-linecap:butt;stroke-linejoin:miter;stroke-opacity:1" d="M 354.226,209.368 372.562,209.368 z" id="boundary" inkscape:connector-curvature="0" />
	<path style="fill:none;stroke:red;stroke-width:1px;stroke-linecap:butt;stroke-linejoin:miter;stroke-opacity:1" d="M 370.728,321.22 389.065,321.22 z" id="boundary" inkscape:connector-curvature="0" />
	<path style="fill:none;stroke:red;stroke-width:1px;stroke-linecap:butt;stroke-linejoin:miter;stroke-opacity:1" d="M 372.562,209.368 390.898,209.368 z" id="boundary" inkscape:connector-curvature="0" />
	<path style="fill:none;stroke:red;stroke-width:1px;stroke-linecap:butt;stroke-linejoin:miter;stroke-opacity:1" d="M 389.065,321.22 407.401,321.22 z" id="boundary" inkscape:connector-curvature="0" />
	<path style="fill:none;stroke:red;stroke-width:1px;stroke-linecap:butt;stroke-linejoin:miter;stroke-opacity:1" d="M 390.898,209.368 409.235,209.368 z" id="boundary" inkscape:connector-curvature="0" />
	<path style="fill:none;stroke:red;stroke-width:1px;stroke-linecap:butt;stroke-linejoin:miter;stroke-opacity:1" d="M 407.401,321.22 425.738,321.22 z" id="boundary" inkscape:connector-curvature="0" />
	<path style="fill:none;stroke:red;stroke-width:1px;stroke-linecap:butt;stroke-linejoin:miter;stroke-opacity:1" d="M 409.235,209.368 427.571,209.368 z" id="boundary" inkscape:connector-curvature="0" />
	<path style="fill:none;stroke:red;stroke-width:1px;stroke-linecap:butt;stroke-linejoin:miter;stroke-opacity:1" d="M 425.738,321.22 444.074,321.22 z" id="boundary" inkscape:connector-curvature="0" />
	<path style="fill:none;stroke:red;stroke-width:1px;stroke-linecap:butt;stroke-linejoin:miter;stroke-opacity:1" d="M 427.571,209.368 445.908,209.368 z" id="boundary" inkscape:connector-curvature="0" />
	<path style="fill:none;stroke:red;stroke-width:1px;stroke-linecap:butt;stroke-linejoin:miter;stroke-opacity:1" d="M 444.074,321.22 462.41,321.22 z" id="boundary" inkscape:connector-curvature="0" />
	<path style="fill:none;stroke:red;stroke-width:1px;stroke-linecap:butt;stroke-linejoin:miter;stroke-opacity:1" d="M 445.908,209.368 464.244,209.368 z" id="boundary" inkscape:connector-curvature="0" />
	<path style="fill:none;stroke:red;stroke-width:1px;stroke-linecap:butt;stroke-linejoin:miter;stroke-opacity:1" d="M 462.41,321.22 480.747,321.22 z" id="boundary" inkscape:connector-curvature="0" />
	<path style="fill:none;stroke:red;stroke-width:1px;stroke-linecap:butt;stroke-linejoin:miter;stroke-opacity:1" d="M 464.244,209.368 482.58,209.368 z" id="boundary" inkscape:connector-curvature="0" />
	<path style="fill:none;stroke:red;stroke-width:1px;stroke-linecap:butt;stroke-linejoin:miter;stroke-opacity:1" d="M 480.747,321.22 499.083,321.22 z" id="boundary" inkscape:connector-curvature="0" />
	<path style="fill:none;stroke:red;stroke-width:1px;stroke-linecap:butt;stroke-linejoin:miter;stroke-opacity:1" d="M 482.58,209.368 500.917,209.368 z" id="boundary" inkscape:connector-curvature="0" />
	<path style="fill:none;stroke:red;stroke-width:1px;stroke-linecap:butt;stroke-linejoin:miter;stroke-opacity:1" d="M 499.083,321.22 517.42,321.22 z" id="boundary" inkscape:connector-curvature="0" />
	<path style="fill:none;stroke:red;stroke-width:1px;stroke-linecap:butt;stroke-linejoin:miter;stroke-opacity:1" d="M 500.917,209.368 519.253,209.368 z" id="boundary" inkscape:connector-curvature="0" />
	<path style="fill:none;stroke:red;stroke-width:1px;stroke-linecap:butt;stroke-linejoin:miter;stroke-opacity:1" d="M 517.42,321.22 535.756,321.22 z" id="boundary" inkscape:connector-curvature="0" />
	<path style="fill:none;stroke:red;stroke-width:1px;stroke-linecap:butt;stroke-linejoin:miter;stroke-opacity:1" d="M 519.253,209.368 537.59,209.368 z" id="boundary" inkscape:connector-curvature="0" />
	<path style="fill:none;stroke:red;stroke-width:1px;stroke-linecap:butt;stroke-linejoin:miter;stroke-opacity:1" d="M 535.756,321.22 554.092,321.22 z" id="boundary" inkscape:connector-curvature="0" />
	<path style="fill:none;stroke:red;stroke-width:1px;stroke-linecap:butt;stroke-linejoin:miter;stroke-opacity:1" d="M 537.59,209.368 555.926,209.368 z" id="boundary" inkscape:connector-curvature="0" />
	<path style="fill:none;stroke:red;stroke-width:1px;stroke-linecap:butt;stroke-linejoin:miter;stroke-opacity:1" d="M 554.092,321.22 572.429,321.22 z" id="boundary" inkscape:connector-curvature="0" />
	<path style="fill:none;stroke:red;stroke-width:1px;stroke-linecap:butt;stroke-linejoin:miter;stroke-opacity:1" d="M 555.926,209.368 574.262,209.368 z" id="boundary" inkscape:connector-curvature="0" />
	<path style="fill:none;stroke:red;stroke-width:1px;stroke-linecap:butt;stroke-linejoin:miter;stroke-opacity:1" d="M 572.429,321.22 590.765,321.22 z" id="boundary" inkscape:connector-curvature="0" />
	<path style="fill:none;stroke:red;stroke-width:1px;stroke-linecap:butt;stroke-linejoin:miter;stroke-opacity:1" d="M 574.262,209.368 592.599,209.368 z" id="boundary" inkscape:connector-curvature="0" />
	<path style="fill:none;stroke:red;stroke-width:1px;stroke-linecap:butt;stroke-linejoin:miter;stroke-opacity:1" d="M 590.765,321.22 609.102,321.22 z" id="boundary" inkscape:connector-curvature="0" />
	<path style="fill:none;stroke:red;stroke-width:1px;stroke-linecap:butt;stroke-linejoin:miter;stroke-opacity:1" d="M 592.599,209.368 610.935,209.368 z" id="boundary" inkscape:connector-curvature="0" />
	<path style="fill:none;stroke:red;stroke-width:1px;stroke-linecap:butt;stroke-linejoin:miter;stroke-opacity:1" d="M 609.102,321.22 627.438,321.22 z" id="boundary" inkscape:connector-curvature="0" />
	<path style="fill:none;stroke:red;stroke-width:1px;stroke-linecap:butt;stroke-linejoin:miter;stroke-opacity:1" d="M 610.935,209.368 629.272,209.368 z" id="boundary" inkscape:connector-curvature="0" />
	<path style="fill:none;stroke:red;stroke-width:1px;stroke-linecap:butt;stroke-linejoin:miter;stroke-opacity:1" d="M 627.438,321.22 645.774,321.22 z" id="boundary" inkscape:connector-curvature="0" />
	<path style="fill:none;stroke:red;stroke-width:1px;stroke-linecap:butt;stroke-linejoin:miter;stroke-opacity:1" d="M 629.272,209.368 647.608,209.368 z" id="boundary" inkscape:connector-curvature="0" />
	<path style="fill:none;stroke:red;stroke-width:1px;stroke-linecap:butt;stroke-linejoin:miter;stroke-opacity:1" d="M 645.774,321.22 664.111,321.22 z" id="boundary" inkscape:connector-curvature="0" />
	<path style="fill:none;stroke:red;stroke-width:1px;stroke-linecap:butt;stroke-linejoin:miter;stroke-opacity:1" d="M 647.608,209.368 665.945,209.368 z" id="boundary" inkscape:connector-curvature="0" />
	<path style="fill:none;stroke:red;stroke-width:1px;stroke-linecap:butt;stroke-linejoin:miter;stroke-opacity:1" d="M 664.111,321.22 682.447,321.22 z" id="boundary" inkscape:connector-curvature="0" />
	<path style="fill:none;stroke:red;stroke-width:1px;stroke-linecap:butt;stroke-linejoin:miter;stroke-opacity:1" d="M 665.945,209.368 684.281,209.368 z" id="boundary" inkscape:connector-curvature="0" />
	<path style="fill:none;stroke:red;stroke-width:1px;stroke-linecap:butt;stroke-linejoin:miter;stroke-opacity:1" d="M 682.447,321.22 700.784,321.22 z" id="boundary" inkscape:connector-curvature="0" />
	<path style="fill:none;stroke:red;stroke-width:1px;stroke-linecap:butt;stroke-linejoin:miter;stroke-opacity:1" d="M 684.281,209.368 702.617,209.368 z" id="boundary" inkscape:connector-curvature="0" />
	<path style="fill:none;stroke:red;stroke-width:1px;stroke-linecap:butt;stroke-linejoin:miter;stroke-opacity:1" d="M 700.784,321.22 719.12,321.22 z" id="boundary" inkscape:connector-curvature="0" />
	<path style="fill:none;stroke:red;stroke-width:1px;stroke-linecap:butt;stroke-linejoin:miter;stroke-opacity:1" d="M 702.617,209.368 720.954,209.368 z" id="boundary" inkscape:connector-curvature="0" />
	<path style="fill:none;stroke:red;stroke-width:1px;stroke-linecap:butt;stroke-linejoin:miter;stroke-opacity:1" d="M 719.12,321.22 737.457,321.22 z" id="boundary" inkscape:connector-curvature="0" />
	<path style="fill:none;stroke:red;stroke-width:1px;stroke-linecap:butt;stroke-linejoin:miter;stroke-opacity:1" d="M 720.954,209.368 739.29,209.368 z" id="boundary" inkscape:connector-curvature="0" />
	<path style="fill:none;stroke:red;stroke-width:1px;stroke-linecap:butt;stroke-linejoin:miter;stroke-opacity:1" d="M 737.457,321.22 755.793,321.22 z" id="boundary" inkscape:connector-curvature="0" />
	<path style="fill:none;stroke:red;stroke-width:1px;stroke-linecap:butt;stroke-linejoin:miter;stroke-opacity:1" d="M 739.29,209.368 757.627,209.368 z" id="boundary" inkscape:connector-curvature="0" />
	<path style="fill:none;stroke:red;stroke-width:1px;stroke-linecap:butt;stroke-linejoin:miter;stroke-opacity:1" d="M 755.793,321.22 774.129,321.22 z" id="boundary" inkscape:connector-curvature="0" />
	<path style="fill:none;stroke:red;stroke-width:1px;stroke-linecap:butt;stroke-linejoin:miter;stroke-opacity:1" d="M 757.627,209.368 775.963,209.368 z" id="boundary" inkscape:connector-curvature="0" />
	<path style="fill:none;stroke:red;stroke-width:1px;stroke-linecap:butt;stroke-linejoin:miter;stroke-opacity:1" d="M 774.129,321.22 792.466,321.22 z" id="boundary" inkscape:connector-curvature="0" />
	<path style="fill:none;stroke:red;stroke-width:1px;stroke-linecap:butt;stroke-linejoin:miter;stroke-opacity:1" d="M 775.963,209.368 794.299,209.368 z" id="boundary" inkscape:connector-curvature="0" />
	<path style="fill:none;stroke:red;stroke-width:1px;stroke-linecap:butt;stroke-linejoin:miter;stroke-opacity:1" d="M 792.466,321.22 810.802,321.22 z" id="boundary" inkscape:connector-curvature="0" />
	<path style="fill:none;stroke:red;stroke-width:1px;stroke-linecap:butt;stroke-linejoin:miter;stroke-opacity:1" d="M 794.299,209.368 812.636,209.368 z" id="boundary" inkscape:connector-curvature="0" />
	<path style="fill:none;stroke:red;stroke-width:1px;stroke-linecap:butt;stroke-linejoin:miter;stroke-opacity:1" d="M 810.802,321.22 829.139,321.22 z" id="boundary" inkscape:connector-curvature="0" />
	<path style="fill:none;stroke:red;stroke-width:1px;stroke-linecap:butt;stroke-linejoin:miter;stroke-opacity:1" d="M 812.636,209.368 830.972,209.368 z" id="boundary" inkscape:connector-curvature="0" />
	<path style="fill:none;stroke:red;stroke-width:1px;stroke-linecap:butt;stroke-linejoin:miter;stroke-opacity:1" d="M 829.139,321.22 847.475,321.22 z" id="boundary" inkscape:connector-curvature="0" />
	<path style="fill:none;stroke:red;stroke-width:1px;stroke-linecap:butt;stroke-linejoin:miter;stroke-opacity:1" d="M 830.972,209.368 849.309,209.368 z" id="boundary" inkscape:connector-curvature="0" />
	<path style="fill:none;stroke:red;stroke-width:1px;stroke-linecap:butt;stroke-linejoin:miter;stroke-opacity:1" d="M 847.475,321.22 865.811,321.22 z" id="boundary" inkscape:connector-curvature="0" />
	<path style="fill:none;stroke:red;stroke-width:1px;stroke-linecap:butt;stroke-linejoin:miter;stroke-opacity:1" d="M 849.309,209.368 867.645,209.368 z" id="boundary" inkscape:connector-curvature="0" />
	<path style="fill:none;stroke:red;stroke-width:1px;stroke-linecap:butt;stroke-linejoin:miter;stroke-opacity:1" d="M 865.811,321.22 884.148,321.22 z" id="boundary" inkscape:connector-curvature="0" />
	<path style="fill:none;stroke:red;stroke-width:1px;stroke-linecap:butt;stroke-linejoin:miter;stroke-opacity:1" d="M 867.645,209.368 885.982,209.368 z" id="boundary" inkscape:connector-curvature="0" />
	<path style="fill:none;stroke:red;stroke-width:1px;stroke-linecap:butt;stroke-linejoin:miter;stroke-opacity:1" d="M 884.148,321.22 902.484,321.22 z" id="boundary" inkscape:connector-curvature="0" />
	<path style="fill:none;stroke:red;stroke-width:1px;stroke-linecap:butt;stroke-linejoin:miter;stroke-opacity:1" d="M 885.982,209.368 904.318,209.368 z" id="boundary" inkscape:connector-curvature="0" />
	<path style="fill:none;stroke:red;stroke-width:1px;stroke-linecap:butt;stroke-linejoin:miter;stroke-opacity:1" d="M 902.484,321.22 920.821,321.22 z" id="boundary" inkscape:connector-curvature="0" />
	<path style="fill:none;stroke:red;stroke-width:1px;stroke-linecap:butt;stroke-linejoin:miter;stroke-opacity:1" d="M 904.318,209.368 922.654,209.368 z" id="boundary" inkscape:connector-curvature="0" />
	<path style="fill:none;stroke:red;stroke-width:1px;stroke-linecap:butt;stroke-linejoin:miter;stroke-opacity:1" d="M 920.821,321.22 939.157,321.22 z" id="boundary" inkscape:connector-curvature="0" />
	<path style="fill:none;stroke:red;stroke-width:1px;stroke-linecap:butt;stroke-linejoin:miter;stroke-opacity:1" d="M 922.654,209.368 940.991,209.368 z" id="boundary" inkscape:connector-curvature="0" />
	<path style="fill:none;stroke:red;stroke-width:1px;stroke-linecap:butt;stroke-linejoin:miter;stroke-opacity:1" d="M 939.157,321.22 957.494,321.22 z" id="boundary" inkscape:connector-curvature="0" />
	<path style="fill:none;stroke:red;stroke-width:1px;stroke-linecap:butt;stroke-linejoin:miter;stroke-opacity:1" d="M 940.991,209.368 959.327,209.368 z" id="boundary" inkscape:connector-curvature="0" />
	<path style="fill:none;stroke:red;stroke-width:1px;stroke-linecap:butt;stroke-linejoin:miter;stroke-opacity:1" d="M 957.494,321.22 975.83,321.22 z" id="boundary" inkscape:connector-curvature="0" />
	<path style="fill:none;stroke:red;stroke-width:1px;stroke-linecap:butt;stroke-linejoin:miter;stroke-opacity:1" d="M 959.327,209.368 977.664,209.368 z" id="boundary" inkscape:connector-curvature="0" />
	<path style="fill:none;stroke:red;stroke-width:1px;stroke-linecap:butt;stroke-linejoin:miter;stroke-opacity:1" d="M 975.83,321.22 994.166,321.22 z" id="boundary" inkscape:connector-curvature="0" />
	<path style="fill:none;stroke:red;stroke-width:1px;stroke-linecap:butt;stroke-linejoin:miter;stroke-opacity:1" d="M 977.664,209.368 996,214.869 z" id="boundary" inkscape:connector-curvature="0" />
	<path style="fill:none;stroke:red;stroke-width:1px;stroke-linecap:butt;stroke-linejoin:miter;stroke-opacity:1" d="M 994.166,321.22 996,302.884 z" id="boundary" inkscape:connector-curvature="0" />
	<path style="fill:none;stroke:red;stroke-width:1px;stroke-linecap:butt;stroke-linejoin:miter;stroke-opacity:1" d="M 996,214.869 996,233.205 z" id="boundary" inkscape:connector-curvature="0" />
	<path style="fill:none;stroke:red;stroke-width:1px;stroke-linecap:butt;stroke-linejoin:miter;stroke-opacity:1" d="M 996,233.205 996,257.043 z" id="boundary" inkscape:connector-curvature="0" />
	<path style="fill:none;stroke:red;stroke-width:1px;stroke-linecap:butt;stroke-linejoin:miter;stroke-opacity:1" d="M 996,257.043 996,284.547 z" id="boundary" inkscape:connector-curvature="0" />
	<path style="fill:none;stroke:red;stroke-width:1px;stroke-linecap:butt;stroke-linejoin:miter;stroke-opacity:1" d="M 996,284.547 996,302.884 z" id="boundary" inkscape:connector-curvature="0" />
	<circle cx="4" cy="361.56" r="4" fill="#0" id="circle0"/>
	<circle cx="4" cy="379.896" r="4" fill="#0" id="circle1"/>
	<circle cx="4" cy="407.401" r="4" fill="#0" id="circle2"/>
	<circle cx="4" cy="434.906" r="4" fill="#0" id="circle3"/>
	<circle cx="4" cy="453.242" r="4" fill="#0" id="circle4"/>
	<circle cx="13.1682" cy="343.224" r="4" fill="#0" id="circle5"/>
	<circle cx="22.3364" cy="251.542" r="4" fill="#0" id="circle6"/>
	<circle cx="22.3364" cy="288.214" r="4" fill="#0" id="circle7"/>
	<circle cx="22.3364" cy="324.887" r="4" fill="#0" id="circle8"/>
	<circle cx="22.3364" cy="458.743" r="4" fill="#0" id="circle9"/>
	<circle cx="31.5046" cy="196.532" r="4" fill="#0" id="circle10"/>
	<circle cx="31.5046" cy="214.869" r="4" fill="#0" id="circle11"/>
	<circle cx="31.5046" cy="233.205" r="4" fill="#0" id="circle12"/>
	<circle cx="31.5046" cy="268.044" r="4" fill="#0" id="circle13"/>
	<circle cx="31.5046" cy="304.717" r="4" fill="#0" id="circle14"/>
	<circle cx="31.5046" cy="341.39" r="4" fill="#0" id="circle15"/>
	<circle cx="40.6728" cy="169.028" r="4" fill="#0" id="circle16"/>
	<circle cx="40.6728" cy="458.743" r="4" fill="#0" id="circle17"/>
	<circle cx="55.342" cy="154.359" r="4" fill="#0" id="circle18"/>
	<circle cx="59.0092" cy="458.743" r="4" fill="#0" id="circle19"/>
	<circle cx="64.5102" cy="136.022" r="4" fill="#0" id="circle20"/>
	<circle cx="77.3457" cy="104.85" r="4" fill="#0" id="circle21"/>
	<circle cx="77.3457" cy="458.743" r="4" fill="#0" id="circle22"/>
	<circle cx="95.6821" cy="86.5139" r="4" fill="#0" id="circle23"/>
	<circle cx="95.6821" cy="458.743" r="4" fill="#0" id="circle24"/>
	<circle cx="110.351" cy="71.8447" r="4" fill="#0" id="circle25"/>
	<circle cx="114.018" cy="458.743" r="4" fill="#0" id="circle26"/>
	<circle cx="125.02" cy="57.1756" r="4" fill="#0" id="circle27"/>
	<circle cx="132.355" cy="458.743" r="4" fill="#0" id="circle28"/>
	<circle cx="143.357" cy="48.0074" r="4" fill="#0" id="circle29"/>
	<circle cx="150.691" cy="458.743" r="4" fill="#0" id="circle30"/>
	<circle cx="158.026" cy="35.1719" r="4" fill="#0" id="circle31"/>
	<circle cx="169.028" cy="458.743" r="4" fill="#0" id="circle32"/>
	<circle cx="174.529" cy="26.0037" r="4" fill="#0" id="circle33"/>
	<circle cx="187.364" cy="458.743" r="4" fill="#0" id="circle34"/>
	<circle cx="192.865" cy="26.0037" r="4" fill="#0" id="circle35"/>
	<circle cx="205.701" cy="458.743" r="4" fill="#0" id="circle36"/>
	<circle cx="207.534" cy="11.3346" r="4" fill="#0" id="circle37"/>
	<circle cx="207.534" cy="137.856" r="4" fill="#0" id="circle38"/>
	<circle cx="207.534" cy="165.36" r="4" fill="#0" id="circle39"/>
	<circle cx="207.534" cy="183.697" r="4" fill="#0" id="circle40"/>
	<circle cx="207.534" cy="202.033" r="4" fill="#0" id="circle41"/>
	<circle cx="207.534" cy="330.388" r="4" fill="#0" id="circle42"/>
	<circle cx="216.702" cy="92.0148" r="4" fill="#0" id="circle43"/>
	<circle cx="216.702" cy="110.351" r="4" fill="#0" id="circle44"/>
	<circle cx="216.702" cy="346.891" r="4" fill="#0" id="circle45"/>
	<circle cx="224.037" cy="321.22" r="4" fill="#0" id="circle46"/>
	<circle cx="224.037" cy="458.743" r="4" fill="#0" id="circle47"/>
	<circle cx="225.871" cy="7.66728" r="4" fill="#0" id="circle48"/>
	<circle cx="225.871" cy="46.1738" r="4" fill="#0" id="circle49"/>
	<circle cx="225.871" cy="64.5102" r="4" fill="#0" id="circle50"/>
	<circle cx="225.871" cy="209.368" r="4" fill="#0" id="circle51"/>
	<circle cx="225.871" cy="367.061" r="4" fill="#0" id="circle52"/>
	<circle cx="225.871" cy="385.397" r="4" fill="#0" id="circle53"/>
	<circle cx="225.871" cy="403.734" r="4" fill="#0" id="circle54"/>
	<circle cx="225.871" cy="431.238" r="4" fill="#0" id="circle55"/>
	<circle cx="235.039" cy="27.8373" r="4" fill="#0" id="circle56"/>
	<circle cx="242.373" cy="321.22" r="4" fill="#0" id="circle57"/>
	<circle cx="244.207" cy="4" r="4" fill="#0" id="circle58"/>
	<circle cx="244.207" cy="209.368" r="4" fill="#0" id="circle59"/>
	<circle cx="260.71" cy="321.22" r="4" fill="#0" id="circle60"/>
	<circle cx="262.543" cy="209.368" r="4" fill="#0" id="circle61"/>
	<circle cx="279.046" cy="321.22" r="4" fill="#0" id="circle62"/>
	<circle cx="280.88" cy="209.368" r="4" fill="#0" id="circle63"/>
	<circle cx="297.383" cy="321.22" r="4" fill="#0" id="circle64"/>
	<circle cx="299.216" cy="209.368" r="4" fill="#0" id="circle65"/>
	<circle cx="315.719" cy="321.22" r="4" fill="#0" id="circle66"/>
	<circle cx="317.553" cy="209.368" r="4" fill="#0" id="circle67"/>
	<circle cx="334.055" cy="321.22" r="4" fill="#0" id="circle68"/>
	<circle cx="335.889" cy="209.368" r="4" fill="#0" id="circle69"/>
	<circle cx="352.392" cy="321.22" r="4" fill="#0" id="circle70"/>
	<circle cx="354.226" cy="209.368" r="4" fill="#0" id="circle71"/>
	<circle cx="370.728" cy="321.22" r="4" fill="#0" id="circle72"/>
	<circle cx="372.562" cy="209.368" r="4" fill="#0" id="circle73"/>
	<circle cx="389.065" cy="321.22" r="4" fill="#0" id="circle74"/>
	<circle cx="390.898" cy="209.368" r="4" fill="#0" id="circle75"/>
	<circle cx="407.401" cy="321.22" r="4" fill="#0" id="circle76"/>
	<circle cx="409.235" cy="209.368" r="4" fill="#0" id="circle77"/>
	<circle cx="425.738" cy="321.22" r="4" fill="#0" id="circle78"/>
	<circle cx="427.571" cy="209.368" r="4" fill="#0" id="circle79"/>
	<circle cx="444.074" cy="321.22" r="4" fill="#0" id="circle80"/>
	<circle cx="445.908" cy="209.368" r="4" fill="#0" id="circle81"/>
	<circle cx="462.41" cy="321.22" r="4" fill="#0" id="circle82"/>
	<circle cx="464.244" cy="209.368" r="4" fill="#0" id="circle83"/>
	<circle cx="480.747" cy="321.22" r="4" fill="#0" id="circle84"/>
	<circle cx="482.58" cy="209.368" r="4" fill="#0" id="circle85"/>
	<circle cx="499.083" cy="321.22" r="4" fill="#0" id="circle86"/>
	<circle cx="500.917" cy="209.368" r="4" fill="#0" id="circle87"/>
	<circle cx="517.42" cy="321.22" r="4" fill="#0" id="circle88"/>
	<circle cx="519.253" cy="209.368" r="4" fill="#0" id="circle89"/>
	<circle cx="535.756" cy="321.22" r="4" fill="#0" id="circle90"/>
	<circle cx="537.59" cy="209.368" r="4" fill="#0" id="circle91"/>
	<circle cx="554.092" cy="321.22" r="4" fill="#0" id="circle92"/>
	<circle cx="555.926" cy="209.368" r="4" fill="#0" id="circle93"/>
	<circle cx="572.429" cy="321.22" r="4" fill="#0" id="circle94"/>
	<circle cx="574.262" cy="209.368" r="4" fill="#0" id="circle95"/>
	<circle cx="590.765" cy="321.22" r="4" fill="#0" id="circle96"/>
	<circle cx="592.599" cy="209.368" r="4" fill="#0" id="circle97"/>
	<circle cx="609.102" cy="321.22" r="4" fill="#0" id="circle98"/>
	<circle cx="610.935" cy="209.368" r="4" fill="#0" id="circle99"/>
	<circle cx="627.438" cy="321.22" r="4" fill="#0" id="circle100"/>
	<circle cx="629.272" cy="209.368" r="4" fill="#0" id="circle101"/>
	<circle cx="645.774" cy="321.22" r="4" fill="#0" id="circle102"/>
	<circle cx="647.608" cy="209.368" r="4" fill="#0" id="circle103"/>
	<circle cx="664.111" cy="321.22" r="4" fill="#0" id="circle104"/>
	<circle cx="665.945" cy="209.368" r="4" fill="#0" id="circle105"/>
	<circle cx="682.447" cy="321.22" r="4" fill="#0" id="circle106"/>
	<circle cx="684.281" cy="209.368" r="4" fill="#0" id="circle107"/>
	<circle cx="700.784" cy="321.22" r="4" fill="#0" id="circle108"/>
	<circle cx="702.617" cy="209.368" r="4" fill="#0" id="circle109"/>
	<circle cx="719.12" cy="321.22" r="4" fill="#0" id="circle110"/>
	<circle cx="720.954" cy="209.368" r="4" fill="#0" id="circle111"/>
	<circle cx="737.457" cy="321.22" r="4" fill="#0" id="circle112"/>
	<circle cx="739.29" cy="209.368" r="4" fill="#0" id="circle113"/>
	<circle cx="755.793" cy="321.22" r="4" fill="#0" id="circle114"/>
	<circle cx="757.627" cy="209.368" r="4" fill="#0" id="circle115"/>
	<circle cx="774.129" cy="321.22" r="4" fill="#0" id="circle116"/>
	<circle cx="775.963" cy="209.368" r="4" fill="#0" id="circle117"/>
	<circle cx="792.466" cy="321.22" r="4" fill="#0" id="circle118"/>
	<circle cx="794.299" cy="209.368" r="4" fill="#0" id="circle119"/>
	<circle cx="810.802" cy="321.22" r="4" fill="#0" id="circle120"/>
	<circle cx="812.636" cy="209.368" r="4" fill="#0" id="circle121"/>
	<circle cx="829.139" cy="321.22" r="4" fill="#0" id="circle122"/>
	<circle cx="830.972" cy="209.368" r="4" fill="#0" id="circle123"/>
	<circle cx="847.475" cy="321.22" r="4" fill="#0" id="circle124"/>
	<circle cx="849.309" cy="209.368" r="4" fill="#0" id="circle125"/>
	<circle cx="865.811" cy="321.22" r="4" fill="#0" id="circle126"/>
	<circle cx="867.645" cy="209.368" r="4" fill="#0" id="circle127"/>
	<circle cx="884.148" cy="321.22" r="4" fill="#0" id="circle128"/>
	<circle cx="885.982" cy="209.368" r="4" fill="#0" id="circle129"/>
	<circle cx="902.484" cy="321.22" r="4" fill="#0" id="circle130"/>
	<circle cx="904.318" cy="209.368" r="4" fill="#0" id="circle131"/>
	<circle cx="920.821" cy="321.22" r="4" fill="#0" id="circle132"/>
	<circle cx="922.654" cy="209.368" r="4" fill="#0" id="circle133"/>
	<circle cx="939.157" cy="321.22" r="4" fill="#0" id="circle134"/>
	<circle cx="940.991" cy="209.368" r="4" fill="#0" id="circle135"/>
	<circle cx="957.494" cy="321.22" r="4" fill="#0" id="circle136"/>
	<circle cx="959.327" cy="209.368" r="4" fill="#0" id="circle137"/>
	<circle cx="975.83" cy="321.22" r="4" fill="#0" id="circle138"/>
	<circle cx="977.664" cy="209.368" r="4" fill="#0" id="circle139"/>
	<circle cx="994.166" cy="321.22" r="4" fill="#0" id="circle140"/>
	<circle cx="996" cy="214.869" r="4" fill="#0" id="circle141"/>
	<circle cx="996" cy="233.205" r="4" fill="#0" id="circle142"/>
	<circle cx="996" cy="257.043" r="4" fill="#0" id="circle143"/>
	<circle cx="996" cy="284.547" r="4" fill="#0" id="circle144"/>
	<circle cx="996" cy="302.884" r="4" fill="#0" id="circle145"/>
	</g>
</svg>