<?xml version="1.0" encoding="UTF-8" standalone="no"?>
<!-- Created with CurveBenchmark -->
<svg
	xmlns:dc="http://purl.org/dc/elements/1.1/"
	xmlns:cc="http://creativecommons.org/ns#"
	xmlns:rdf="http://www.w3.org/1999/02/22-rdf-syntax-ns#"
	xmlns:svg="http://www.w3.org/2000/svg"
	xmlns="http://www.w3.org/2000/svg"
	xmlns:sodipodi="http://sodipodi.sourceforge.net/DTD/sodipodi-0.dtd"
	xmlns:inkscape="http://www.inkscape.org/namespaces/inkscape"
	width="1000"
	height="1000"
	id="svg2"
	version="1.1"
	sodipodi:docname="manifold/discur-fish0707.png.txt">
<defs
	id="defs4" />
<metadata
	id="metadata7">
	<rdf:RDF>
		<cc:Work
			rdf:about="">
			<dc:format>image/svg+xml</dc:format>
			<dc:type
				rdf:resource="http://purl.org/dc/dcmitype/StillImage" />
			<dc:title></dc:title>
		</cc:Work>
	</rdf:RDF>
</metadata>
<g
	inkscape:label="Layer 1"
	inkscape:groupmode="layer"
	id="layer1">
	<path style="fill:none;stroke:red;stroke-width:1px;stroke-linecap:butt;stroke-linejoin:miter;stroke-opacity:1" d="M 4,174.636 4,189.096 z" id="boundary" inkscape:connector-curvature="0" />
	<path style="fill:none;stroke:red;stroke-width:1px;stroke-linecap:butt;stroke-linejoin:miter;stroke-opacity:1" d="M 4,174.636 18.4606,167.405 z" id="boundary" inkscape:connector-curvature="0" />
	<path style="fill:none;stroke:red;stroke-width:1px;stroke-linecap:butt;stroke-linejoin:miter;stroke-opacity:1" d="M 4,189.096 15.5685,199.219 z" id="boundary" inkscape:connector-curvature="0" />
	<path style="fill:none;stroke:red;stroke-width:1px;stroke-linecap:butt;stroke-linejoin:miter;stroke-opacity:1" d="M 15.5685,199.219 25.691,210.787 z" id="boundary" inkscape:connector-curvature="0" />
	<path style="fill:none;stroke:red;stroke-width:1px;stroke-linecap:butt;stroke-linejoin:miter;stroke-opacity:1" d="M 18.4606,167.405 32.9213,160.175 z" id="boundary" inkscape:connector-curvature="0" />
	<path style="fill:none;stroke:red;stroke-width:1px;stroke-linecap:butt;stroke-linejoin:miter;stroke-opacity:1" d="M 25.691,210.787 40.1516,215.125 z" id="boundary" inkscape:connector-curvature="0" />
	<path style="fill:none;stroke:red;stroke-width:1px;stroke-linecap:butt;stroke-linejoin:miter;stroke-opacity:1" d="M 32.9213,160.175 47.3819,155.837 z" id="boundary" inkscape:connector-curvature="0" />
	<path style="fill:none;stroke:red;stroke-width:1px;stroke-linecap:butt;stroke-linejoin:miter;stroke-opacity:1" d="M 40.1516,215.125 53.1662,222.356 z" id="boundary" inkscape:connector-curvature="0" />
	<path style="fill:none;stroke:red;stroke-width:1px;stroke-linecap:butt;stroke-linejoin:miter;stroke-opacity:1" d="M 47.3819,155.837 61.8426,152.945 z" id="boundary" inkscape:connector-curvature="0" />
	<path style="fill:none;stroke:red;stroke-width:1px;stroke-linecap:butt;stroke-linejoin:miter;stroke-opacity:1" d="M 53.1662,222.356 66.1808,229.586 z" id="boundary" inkscape:connector-curvature="0" />
	<path style="fill:none;stroke:red;stroke-width:1px;stroke-linecap:butt;stroke-linejoin:miter;stroke-opacity:1" d="M 61.8426,152.945 76.3032,148.606 z" id="boundary" inkscape:connector-curvature="0" />
	<path style="fill:none;stroke:red;stroke-width:1px;stroke-linecap:butt;stroke-linejoin:miter;stroke-opacity:1" d="M 66.1808,229.586 80.6414,235.37 z" id="boundary" inkscape:connector-curvature="0" />
	<path style="fill:none;stroke:red;stroke-width:1px;stroke-linecap:butt;stroke-linejoin:miter;stroke-opacity:1" d="M 76.3032,148.606 89.3178,141.376 z" id="boundary" inkscape:connector-curvature="0" />
	<path style="fill:none;stroke:red;stroke-width:1px;stroke-linecap:butt;stroke-linejoin:miter;stroke-opacity:1" d="M 80.6414,235.37 93.656,242.601 z" id="boundary" inkscape:connector-curvature="0" />
	<path style="fill:none;stroke:red;stroke-width:1px;stroke-linecap:butt;stroke-linejoin:miter;stroke-opacity:1" d="M 89.3178,141.376 103.778,141.376 z" id="boundary" inkscape:connector-curvature="0" />
	<path style="fill:none;stroke:red;stroke-width:1px;stroke-linecap:butt;stroke-linejoin:miter;stroke-opacity:1" d="M 93.656,242.601 108.117,244.047 z" id="boundary" inkscape:connector-curvature="0" />
	<path style="fill:none;stroke:red;stroke-width:1px;stroke-linecap:butt;stroke-linejoin:miter;stroke-opacity:1" d="M 103.778,141.376 116.793,134.146 z" id="boundary" inkscape:connector-curvature="0" />
	<path style="fill:none;stroke:red;stroke-width:1px;stroke-linecap:butt;stroke-linejoin:miter;stroke-opacity:1" d="M 108.117,244.047 121.131,251.277 z" id="boundary" inkscape:connector-curvature="0" />
	<path style="fill:none;stroke:red;stroke-width:1px;stroke-linecap:butt;stroke-linejoin:miter;stroke-opacity:1" d="M 116.793,134.146 131.254,126.915 z" id="boundary" inkscape:connector-curvature="0" />
	<path style="fill:none;stroke:red;stroke-width:1px;stroke-linecap:butt;stroke-linejoin:miter;stroke-opacity:1" d="M 121.131,251.277 135.592,254.169 z" id="boundary" inkscape:connector-curvature="0" />
	<path style="fill:none;stroke:red;stroke-width:1px;stroke-linecap:butt;stroke-linejoin:miter;stroke-opacity:1" d="M 131.254,126.915 145.714,126.915 z" id="boundary" inkscape:connector-curvature="0" />
	<path style="fill:none;stroke:red;stroke-width:1px;stroke-linecap:butt;stroke-linejoin:miter;stroke-opacity:1" d="M 135.592,254.169 148.606,261.399 z" id="boundary" inkscape:connector-curvature="0" />
	<path style="fill:none;stroke:red;stroke-width:1px;stroke-linecap:butt;stroke-linejoin:miter;stroke-opacity:1" d="M 145.714,126.915 160.175,119.685 z" id="boundary" inkscape:connector-curvature="0" />
	<path style="fill:none;stroke:red;stroke-width:1px;stroke-linecap:butt;stroke-linejoin:miter;stroke-opacity:1" d="M 148.606,261.399 163.067,265.738 z" id="boundary" inkscape:connector-curvature="0" />
	<path style="fill:none;stroke:red;stroke-width:1px;stroke-linecap:butt;stroke-linejoin:miter;stroke-opacity:1" d="M 160.175,119.685 174.636,119.685 z" id="boundary" inkscape:connector-curvature="0" />
	<path style="fill:none;stroke:red;stroke-width:1px;stroke-linecap:butt;stroke-linejoin:miter;stroke-opacity:1" d="M 163.067,265.738 176.082,272.968 z" id="boundary" inkscape:connector-curvature="0" />
	<path style="fill:none;stroke:red;stroke-width:1px;stroke-linecap:butt;stroke-linejoin:miter;stroke-opacity:1" d="M 174.636,119.685 187.65,112.455 z" id="boundary" inkscape:connector-curvature="0" />
	<path style="fill:none;stroke:red;stroke-width:1px;stroke-linecap:butt;stroke-linejoin:miter;stroke-opacity:1" d="M 176.082,272.968 189.096,280.198 z" id="boundary" inkscape:connector-curvature="0" />
	<path style="fill:none;stroke:red;stroke-width:1px;stroke-linecap:butt;stroke-linejoin:miter;stroke-opacity:1" d="M 187.65,112.455 202.111,112.455 z" id="boundary" inkscape:connector-curvature="0" />
	<path style="fill:none;stroke:red;stroke-width:1px;stroke-linecap:butt;stroke-linejoin:miter;stroke-opacity:1" d="M 189.096,280.198 203.557,285.983 z" id="boundary" inkscape:connector-curvature="0" />
	<path style="fill:none;stroke:red;stroke-width:1px;stroke-linecap:butt;stroke-linejoin:miter;stroke-opacity:1" d="M 202.111,112.455 216.571,112.455 z" id="boundary" inkscape:connector-curvature="0" />
	<path style="fill:none;stroke:red;stroke-width:1px;stroke-linecap:butt;stroke-linejoin:miter;stroke-opacity:1" d="M 203.557,285.983 218.017,287.429 z" id="boundary" inkscape:connector-curvature="0" />
	<path style="fill:none;stroke:red;stroke-width:1px;stroke-linecap:butt;stroke-linejoin:miter;stroke-opacity:1" d="M 216.571,112.455 231.032,106.671 z" id="boundary" inkscape:connector-curvature="0" />
	<path style="fill:none;stroke:red;stroke-width:1px;stroke-linecap:butt;stroke-linejoin:miter;stroke-opacity:1" d="M 218.017,287.429 232.478,293.213 z" id="boundary" inkscape:connector-curvature="0" />
	<path style="fill:none;stroke:red;stroke-width:1px;stroke-linecap:butt;stroke-linejoin:miter;stroke-opacity:1" d="M 231.032,106.671 245.493,105.224 z" id="boundary" inkscape:connector-curvature="0" />
	<path style="fill:none;stroke:red;stroke-width:1px;stroke-linecap:butt;stroke-linejoin:miter;stroke-opacity:1" d="M 232.478,293.213 242.601,304.781 z" id="boundary" inkscape:connector-curvature="0" />
	<path style="fill:none;stroke:red;stroke-width:1px;stroke-linecap:butt;stroke-linejoin:miter;stroke-opacity:1" d="M 242.601,304.781 242.601,319.242 z" id="boundary" inkscape:connector-curvature="0" />
	<path style="fill:none;stroke:red;stroke-width:1px;stroke-linecap:butt;stroke-linejoin:miter;stroke-opacity:1" d="M 242.601,319.242 249.831,332.257 z" id="boundary" inkscape:connector-curvature="0" />
	<path style="fill:none;stroke:red;stroke-width:1px;stroke-linecap:butt;stroke-linejoin:miter;stroke-opacity:1" d="M 245.493,105.224 259.953,105.224 z" id="boundary" inkscape:connector-curvature="0" />
	<path style="fill:none;stroke:red;stroke-width:1px;stroke-linecap:butt;stroke-linejoin:miter;stroke-opacity:1" d="M 249.831,332.257 249.831,346.717 z" id="boundary" inkscape:connector-curvature="0" />
	<path style="fill:none;stroke:red;stroke-width:1px;stroke-linecap:butt;stroke-linejoin:miter;stroke-opacity:1" d="M 249.831,346.717 257.061,359.732 z" id="boundary" inkscape:connector-curvature="0" />
	<path style="fill:none;stroke:red;stroke-width:1px;stroke-linecap:butt;stroke-linejoin:miter;stroke-opacity:1" d="M 257.061,359.732 257.061,374.192 z" id="boundary" inkscape:connector-curvature="0" />
	<path style="fill:none;stroke:red;stroke-width:1px;stroke-linecap:butt;stroke-linejoin:miter;stroke-opacity:1" d="M 257.061,374.192 257.061,388.653 z" id="boundary" inkscape:connector-curvature="0" />
	<path style="fill:none;stroke:red;stroke-width:1px;stroke-linecap:butt;stroke-linejoin:miter;stroke-opacity:1" d="M 257.061,388.653 264.292,401.668 z" id="boundary" inkscape:connector-curvature="0" />
	<path style="fill:none;stroke:red;stroke-width:1px;stroke-linecap:butt;stroke-linejoin:miter;stroke-opacity:1" d="M 259.953,105.224 274.414,105.224 z" id="boundary" inkscape:connector-curvature="0" />
	<path style="fill:none;stroke:red;stroke-width:1px;stroke-linecap:butt;stroke-linejoin:miter;stroke-opacity:1" d="M 264.292,401.668 267.184,416.128 z" id="boundary" inkscape:connector-curvature="0" />
	<path style="fill:none;stroke:red;stroke-width:1px;stroke-linecap:butt;stroke-linejoin:miter;stroke-opacity:1" d="M 267.184,416.128 274.414,429.143 z" id="boundary" inkscape:connector-curvature="0" />
	<path style="fill:none;stroke:red;stroke-width:1px;stroke-linecap:butt;stroke-linejoin:miter;stroke-opacity:1" d="M 274.414,105.224 288.875,105.224 z" id="boundary" inkscape:connector-curvature="0" />
	<path style="fill:none;stroke:red;stroke-width:1px;stroke-linecap:butt;stroke-linejoin:miter;stroke-opacity:1" d="M 274.414,429.143 280.198,443.603 z" id="boundary" inkscape:connector-curvature="0" />
	<path style="fill:none;stroke:red;stroke-width:1px;stroke-linecap:butt;stroke-linejoin:miter;stroke-opacity:1" d="M 280.198,443.603 291.767,453.726 z" id="boundary" inkscape:connector-curvature="0" />
	<path style="fill:none;stroke:red;stroke-width:1px;stroke-linecap:butt;stroke-linejoin:miter;stroke-opacity:1" d="M 288.875,105.224 303.335,99.4402 z" id="boundary" inkscape:connector-curvature="0" />
	<path style="fill:none;stroke:red;stroke-width:1px;stroke-linecap:butt;stroke-linejoin:miter;stroke-opacity:1" d="M 291.767,453.726 301.889,439.265 z" id="boundary" inkscape:connector-curvature="0" />
	<path style="fill:none;stroke:red;stroke-width:1px;stroke-linecap:butt;stroke-linejoin:miter;stroke-opacity:1" d="M 301.889,424.805 301.889,439.265 z" id="boundary" inkscape:connector-curvature="0" />
	<path style="fill:none;stroke:red;stroke-width:1px;stroke-linecap:butt;stroke-linejoin:miter;stroke-opacity:1" d="M 301.889,424.805 309.12,410.344 z" id="boundary" inkscape:connector-curvature="0" />
	<path style="fill:none;stroke:red;stroke-width:1px;stroke-linecap:butt;stroke-linejoin:miter;stroke-opacity:1" d="M 303.335,99.4402 317.796,92.2099 z" id="boundary" inkscape:connector-curvature="0" />
	<path style="fill:none;stroke:red;stroke-width:1px;stroke-linecap:butt;stroke-linejoin:miter;stroke-opacity:1" d="M 309.12,381.423 309.12,395.883 z" id="boundary" inkscape:connector-curvature="0" />
	<path style="fill:none;stroke:red;stroke-width:1px;stroke-linecap:butt;stroke-linejoin:miter;stroke-opacity:1" d="M 309.12,381.423 316.35,359.732 z" id="boundary" inkscape:connector-curvature="0" />
	<path style="fill:none;stroke:red;stroke-width:1px;stroke-linecap:butt;stroke-linejoin:miter;stroke-opacity:1" d="M 309.12,395.883 309.12,410.344 z" id="boundary" inkscape:connector-curvature="0" />
	<path style="fill:none;stroke:red;stroke-width:1px;stroke-linecap:butt;stroke-linejoin:miter;stroke-opacity:1" d="M 316.35,345.271 316.35,359.732 z" id="boundary" inkscape:connector-curvature="0" />
	<path style="fill:none;stroke:red;stroke-width:1px;stroke-linecap:butt;stroke-linejoin:miter;stroke-opacity:1" d="M 316.35,345.271 323.58,330.81 z" id="boundary" inkscape:connector-curvature="0" />
	<path style="fill:none;stroke:red;stroke-width:1px;stroke-linecap:butt;stroke-linejoin:miter;stroke-opacity:1" d="M 317.796,92.2099 329.364,73.4111 z" id="boundary" inkscape:connector-curvature="0" />
	<path style="fill:none;stroke:red;stroke-width:1px;stroke-linecap:butt;stroke-linejoin:miter;stroke-opacity:1" d="M 323.58,330.81 336.595,323.58 z" id="boundary" inkscape:connector-curvature="0" />
	<path style="fill:none;stroke:red;stroke-width:1px;stroke-linecap:butt;stroke-linejoin:miter;stroke-opacity:1" d="M 329.364,73.4111 340.933,61.8426 z" id="boundary" inkscape:connector-curvature="0" />
	<path style="fill:none;stroke:red;stroke-width:1px;stroke-linecap:butt;stroke-linejoin:miter;stroke-opacity:1" d="M 336.595,323.58 351.055,323.58 z" id="boundary" inkscape:connector-curvature="0" />
	<path style="fill:none;stroke:red;stroke-width:1px;stroke-linecap:butt;stroke-linejoin:miter;stroke-opacity:1" d="M 340.933,61.8426 348.163,47.3819 z" id="boundary" inkscape:connector-curvature="0" />
	<path style="fill:none;stroke:red;stroke-width:1px;stroke-linecap:butt;stroke-linejoin:miter;stroke-opacity:1" d="M 348.163,47.3819 359.732,35.8134 z" id="boundary" inkscape:connector-curvature="0" />
	<path style="fill:none;stroke:red;stroke-width:1px;stroke-linecap:butt;stroke-linejoin:miter;stroke-opacity:1" d="M 351.055,323.58 365.516,323.58 z" id="boundary" inkscape:connector-curvature="0" />
	<path style="fill:none;stroke:red;stroke-width:1px;stroke-linecap:butt;stroke-linejoin:miter;stroke-opacity:1" d="M 359.732,35.8134 371.3,25.691 z" id="boundary" inkscape:connector-curvature="0" />
	<path style="fill:none;stroke:red;stroke-width:1px;stroke-linecap:butt;stroke-linejoin:miter;stroke-opacity:1" d="M 365.516,323.58 379.977,323.58 z" id="boundary" inkscape:connector-curvature="0" />
	<path style="fill:none;stroke:red;stroke-width:1px;stroke-linecap:butt;stroke-linejoin:miter;stroke-opacity:1" d="M 371.3,25.691 384.315,18.4606 z" id="boundary" inkscape:connector-curvature="0" />
	<path style="fill:none;stroke:red;stroke-width:1px;stroke-linecap:butt;stroke-linejoin:miter;stroke-opacity:1" d="M 379.977,323.58 394.437,319.242 z" id="boundary" inkscape:connector-curvature="0" />
	<path style="fill:none;stroke:red;stroke-width:1px;stroke-linecap:butt;stroke-linejoin:miter;stroke-opacity:1" d="M 384.315,18.4606 397.329,11.2303 z" id="boundary" inkscape:connector-curvature="0" />
	<path style="fill:none;stroke:red;stroke-width:1px;stroke-linecap:butt;stroke-linejoin:miter;stroke-opacity:1" d="M 394.437,319.242 408.898,316.35 z" id="boundary" inkscape:connector-curvature="0" />
	<path style="fill:none;stroke:red;stroke-width:1px;stroke-linecap:butt;stroke-linejoin:miter;stroke-opacity:1" d="M 397.329,11.2303 410.344,4 z" id="boundary" inkscape:connector-curvature="0" />
	<path style="fill:none;stroke:red;stroke-width:1px;stroke-linecap:butt;stroke-linejoin:miter;stroke-opacity:1" d="M 408.898,316.35 423.359,316.35 z" id="boundary" inkscape:connector-curvature="0" />
	<path style="fill:none;stroke:red;stroke-width:1px;stroke-linecap:butt;stroke-linejoin:miter;stroke-opacity:1" d="M 410.344,4 417.574,17.0146 z" id="boundary" inkscape:connector-curvature="0" />
	<path style="fill:none;stroke:red;stroke-width:1px;stroke-linecap:butt;stroke-linejoin:miter;stroke-opacity:1" d="M 417.574,17.0146 417.574,31.4752 z" id="boundary" inkscape:connector-curvature="0" />
	<path style="fill:none;stroke:red;stroke-width:1px;stroke-linecap:butt;stroke-linejoin:miter;stroke-opacity:1" d="M 417.574,31.4752 424.805,44.4898 z" id="boundary" inkscape:connector-curvature="0" />
	<path style="fill:none;stroke:red;stroke-width:1px;stroke-linecap:butt;stroke-linejoin:miter;stroke-opacity:1" d="M 423.359,316.35 437.819,316.35 z" id="boundary" inkscape:connector-curvature="0" />
	<path style="fill:none;stroke:red;stroke-width:1px;stroke-linecap:butt;stroke-linejoin:miter;stroke-opacity:1" d="M 424.805,44.4898 424.805,58.9504 z" id="boundary" inkscape:connector-curvature="0" />
	<path style="fill:none;stroke:red;stroke-width:1px;stroke-linecap:butt;stroke-linejoin:miter;stroke-opacity:1" d="M 424.805,58.9504 430.589,73.4111 z" id="boundary" inkscape:connector-curvature="0" />
	<path style="fill:none;stroke:red;stroke-width:1px;stroke-linecap:butt;stroke-linejoin:miter;stroke-opacity:1" d="M 430.589,73.4111 439.265,84.9796 z" id="boundary" inkscape:connector-curvature="0" />
	<path style="fill:none;stroke:red;stroke-width:1px;stroke-linecap:butt;stroke-linejoin:miter;stroke-opacity:1" d="M 437.819,316.35 452.28,316.35 z" id="boundary" inkscape:connector-curvature="0" />
	<path style="fill:none;stroke:red;stroke-width:1px;stroke-linecap:butt;stroke-linejoin:miter;stroke-opacity:1" d="M 439.265,84.9796 450.834,93.656 z" id="boundary" inkscape:connector-curvature="0" />
	<path style="fill:none;stroke:red;stroke-width:1px;stroke-linecap:butt;stroke-linejoin:miter;stroke-opacity:1" d="M 450.834,93.656 460.956,105.224 z" id="boundary" inkscape:connector-curvature="0" />
	<path style="fill:none;stroke:red;stroke-width:1px;stroke-linecap:butt;stroke-linejoin:miter;stroke-opacity:1" d="M 452.28,316.35 466.741,312.012 z" id="boundary" inkscape:connector-curvature="0" />
	<path style="fill:none;stroke:red;stroke-width:1px;stroke-linecap:butt;stroke-linejoin:miter;stroke-opacity:1" d="M 460.956,105.224 460.956,119.685 z" id="boundary" inkscape:connector-curvature="0" />
	<path style="fill:none;stroke:red;stroke-width:1px;stroke-linecap:butt;stroke-linejoin:miter;stroke-opacity:1" d="M 460.956,119.685 475.417,124.023 z" id="boundary" inkscape:connector-curvature="0" />
	<path style="fill:none;stroke:red;stroke-width:1px;stroke-linecap:butt;stroke-linejoin:miter;stroke-opacity:1" d="M 466.741,312.012 481.201,309.12 z" id="boundary" inkscape:connector-curvature="0" />
	<path style="fill:none;stroke:red;stroke-width:1px;stroke-linecap:butt;stroke-linejoin:miter;stroke-opacity:1" d="M 475.417,124.023 489.878,126.915 z" id="boundary" inkscape:connector-curvature="0" />
	<path style="fill:none;stroke:red;stroke-width:1px;stroke-linecap:butt;stroke-linejoin:miter;stroke-opacity:1" d="M 481.201,309.12 495.662,304.781 z" id="boundary" inkscape:connector-curvature="0" />
	<path style="fill:none;stroke:red;stroke-width:1px;stroke-linecap:butt;stroke-linejoin:miter;stroke-opacity:1" d="M 489.878,126.915 504.338,126.915 z" id="boundary" inkscape:connector-curvature="0" />
	<path style="fill:none;stroke:red;stroke-width:1px;stroke-linecap:butt;stroke-linejoin:miter;stroke-opacity:1" d="M 495.662,304.781 510.122,301.889 z" id="boundary" inkscape:connector-curvature="0" />
	<path style="fill:none;stroke:red;stroke-width:1px;stroke-linecap:butt;stroke-linejoin:miter;stroke-opacity:1" d="M 504.338,126.915 517.353,134.146 z" id="boundary" inkscape:connector-curvature="0" />
	<path style="fill:none;stroke:red;stroke-width:1px;stroke-linecap:butt;stroke-linejoin:miter;stroke-opacity:1" d="M 510.122,301.889 524.583,301.889 z" id="boundary" inkscape:connector-curvature="0" />
	<path style="fill:none;stroke:red;stroke-width:1px;stroke-linecap:butt;stroke-linejoin:miter;stroke-opacity:1" d="M 517.353,134.146 531.813,134.146 z" id="boundary" inkscape:connector-curvature="0" />
	<path style="fill:none;stroke:red;stroke-width:1px;stroke-linecap:butt;stroke-linejoin:miter;stroke-opacity:1" d="M 524.583,301.889 539.044,301.889 z" id="boundary" inkscape:connector-curvature="0" />
	<path style="fill:none;stroke:red;stroke-width:1px;stroke-linecap:butt;stroke-linejoin:miter;stroke-opacity:1" d="M 531.813,134.146 544.828,141.376 z" id="boundary" inkscape:connector-curvature="0" />
	<path style="fill:none;stroke:red;stroke-width:1px;stroke-linecap:butt;stroke-linejoin:miter;stroke-opacity:1" d="M 539.044,301.889 553.504,301.889 z" id="boundary" inkscape:connector-curvature="0" />
	<path style="fill:none;stroke:red;stroke-width:1px;stroke-linecap:butt;stroke-linejoin:miter;stroke-opacity:1" d="M 544.828,141.376 557.843,148.606 z" id="boundary" inkscape:connector-curvature="0" />
	<path style="fill:none;stroke:red;stroke-width:1px;stroke-linecap:butt;stroke-linejoin:miter;stroke-opacity:1" d="M 553.504,301.889 566.519,309.12 z" id="boundary" inkscape:connector-curvature="0" />
	<path style="fill:none;stroke:red;stroke-width:1px;stroke-linecap:butt;stroke-linejoin:miter;stroke-opacity:1" d="M 557.843,148.606 572.303,148.606 z" id="boundary" inkscape:connector-curvature="0" />
	<path style="fill:none;stroke:red;stroke-width:1px;stroke-linecap:butt;stroke-linejoin:miter;stroke-opacity:1" d="M 566.519,309.12 580.98,306.227 z" id="boundary" inkscape:connector-curvature="0" />
	<path style="fill:none;stroke:red;stroke-width:1px;stroke-linecap:butt;stroke-linejoin:miter;stroke-opacity:1" d="M 572.303,148.606 585.318,155.837 z" id="boundary" inkscape:connector-curvature="0" />
	<path style="fill:none;stroke:red;stroke-width:1px;stroke-linecap:butt;stroke-linejoin:miter;stroke-opacity:1" d="M 580.98,306.227 591.102,294.659 z" id="boundary" inkscape:connector-curvature="0" />
	<path style="fill:none;stroke:red;stroke-width:1px;stroke-linecap:butt;stroke-linejoin:miter;stroke-opacity:1" d="M 585.318,155.837 599.778,155.837 z" id="boundary" inkscape:connector-curvature="0" />
	<path style="fill:none;stroke:red;stroke-width:1px;stroke-linecap:butt;stroke-linejoin:miter;stroke-opacity:1" d="M 591.102,294.659 604.117,287.429 z" id="boundary" inkscape:connector-curvature="0" />
	<path style="fill:none;stroke:red;stroke-width:1px;stroke-linecap:butt;stroke-linejoin:miter;stroke-opacity:1" d="M 599.778,155.837 612.793,163.067 z" id="boundary" inkscape:connector-curvature="0" />
	<path style="fill:none;stroke:red;stroke-width:1px;stroke-linecap:butt;stroke-linejoin:miter;stroke-opacity:1" d="M 604.117,287.429 617.131,280.198 z" id="boundary" inkscape:connector-curvature="0" />
	<path style="fill:none;stroke:red;stroke-width:1px;stroke-linecap:butt;stroke-linejoin:miter;stroke-opacity:1" d="M 612.793,163.067 627.254,167.405 z" id="boundary" inkscape:connector-curvature="0" />
	<path style="fill:none;stroke:red;stroke-width:1px;stroke-linecap:butt;stroke-linejoin:miter;stroke-opacity:1" d="M 617.131,280.198 631.592,277.306 z" id="boundary" inkscape:connector-curvature="0" />
	<path style="fill:none;stroke:red;stroke-width:1px;stroke-linecap:butt;stroke-linejoin:miter;stroke-opacity:1" d="M 627.254,167.405 640.268,174.636 z" id="boundary" inkscape:connector-curvature="0" />
	<path style="fill:none;stroke:red;stroke-width:1px;stroke-linecap:butt;stroke-linejoin:miter;stroke-opacity:1" d="M 631.592,277.306 646.052,272.968 z" id="boundary" inkscape:connector-curvature="0" />
	<path style="fill:none;stroke:red;stroke-width:1px;stroke-linecap:butt;stroke-linejoin:miter;stroke-opacity:1" d="M 640.268,174.636 654.729,177.528 z" id="boundary" inkscape:connector-curvature="0" />
	<path style="fill:none;stroke:red;stroke-width:1px;stroke-linecap:butt;stroke-linejoin:miter;stroke-opacity:1" d="M 646.052,272.968 660.513,272.968 z" id="boundary" inkscape:connector-curvature="0" />
	<path style="fill:none;stroke:red;stroke-width:1px;stroke-linecap:butt;stroke-linejoin:miter;stroke-opacity:1" d="M 654.729,177.528 667.743,184.758 z" id="boundary" inkscape:connector-curvature="0" />
	<path style="fill:none;stroke:red;stroke-width:1px;stroke-linecap:butt;stroke-linejoin:miter;stroke-opacity:1" d="M 660.513,272.968 673.528,280.198 z" id="boundary" inkscape:connector-curvature="0" />
	<path style="fill:none;stroke:red;stroke-width:1px;stroke-linecap:butt;stroke-linejoin:miter;stroke-opacity:1" d="M 667.743,184.758 680.758,177.528 z" id="boundary" inkscape:connector-curvature="0" />
	<path style="fill:none;stroke:red;stroke-width:1px;stroke-linecap:butt;stroke-linejoin:miter;stroke-opacity:1" d="M 673.528,280.198 687.988,280.198 z" id="boundary" inkscape:connector-curvature="0" />
	<path style="fill:none;stroke:red;stroke-width:1px;stroke-linecap:butt;stroke-linejoin:miter;stroke-opacity:1" d="M 680.758,177.528 695.219,177.528 z" id="boundary" inkscape:connector-curvature="0" />
	<path style="fill:none;stroke:red;stroke-width:1px;stroke-linecap:butt;stroke-linejoin:miter;stroke-opacity:1" d="M 687.988,280.198 701.003,272.968 z" id="boundary" inkscape:connector-curvature="0" />
	<path style="fill:none;stroke:red;stroke-width:1px;stroke-linecap:butt;stroke-linejoin:miter;stroke-opacity:1" d="M 695.219,177.528 708.233,184.758 z" id="boundary" inkscape:connector-curvature="0" />
	<path style="fill:none;stroke:red;stroke-width:1px;stroke-linecap:butt;stroke-linejoin:miter;stroke-opacity:1" d="M 701.003,272.968 714.017,265.738 z" id="boundary" inkscape:connector-curvature="0" />
	<path style="fill:none;stroke:red;stroke-width:1px;stroke-linecap:butt;stroke-linejoin:miter;stroke-opacity:1" d="M 708.233,184.758 719.802,194.88 z" id="boundary" inkscape:connector-curvature="0" />
	<path style="fill:none;stroke:red;stroke-width:1px;stroke-linecap:butt;stroke-linejoin:miter;stroke-opacity:1" d="M 714.017,265.738 727.032,258.507 z" id="boundary" inkscape:connector-curvature="0" />
	<path style="fill:none;stroke:red;stroke-width:1px;stroke-linecap:butt;stroke-linejoin:miter;stroke-opacity:1" d="M 719.802,194.88 728.478,206.449 z" id="boundary" inkscape:connector-curvature="0" />
	<path style="fill:none;stroke:red;stroke-width:1px;stroke-linecap:butt;stroke-linejoin:miter;stroke-opacity:1" d="M 727.032,258.507 741.493,258.507 z" id="boundary" inkscape:connector-curvature="0" />
	<path style="fill:none;stroke:red;stroke-width:1px;stroke-linecap:butt;stroke-linejoin:miter;stroke-opacity:1" d="M 728.478,206.449 741.493,213.679 z" id="boundary" inkscape:connector-curvature="0" />
	<path style="fill:none;stroke:red;stroke-width:1px;stroke-linecap:butt;stroke-linejoin:miter;stroke-opacity:1" d="M 741.493,213.679 755.953,213.679 z" id="boundary" inkscape:connector-curvature="0" />
	<path style="fill:none;stroke:red;stroke-width:1px;stroke-linecap:butt;stroke-linejoin:miter;stroke-opacity:1" d="M 741.493,258.507 755.953,258.507 z" id="boundary" inkscape:connector-curvature="0" />
	<path style="fill:none;stroke:red;stroke-width:1px;stroke-linecap:butt;stroke-linejoin:miter;stroke-opacity:1" d="M 755.953,213.679 770.414,213.679 z" id="boundary" inkscape:connector-curvature="0" />
	<path style="fill:none;stroke:red;stroke-width:1px;stroke-linecap:butt;stroke-linejoin:miter;stroke-opacity:1" d="M 755.953,258.507 770.414,258.507 z" id="boundary" inkscape:connector-curvature="0" />
	<path style="fill:none;stroke:red;stroke-width:1px;stroke-linecap:butt;stroke-linejoin:miter;stroke-opacity:1" d="M 770.414,213.679 783.429,206.449 z" id="boundary" inkscape:connector-curvature="0" />
	<path style="fill:none;stroke:red;stroke-width:1px;stroke-linecap:butt;stroke-linejoin:miter;stroke-opacity:1" d="M 770.414,258.507 779.09,270.076 z" id="boundary" inkscape:connector-curvature="0" />
	<path style="fill:none;stroke:red;stroke-width:1px;stroke-linecap:butt;stroke-linejoin:miter;stroke-opacity:1" d="M 779.09,270.076 790.659,280.198 z" id="boundary" inkscape:connector-curvature="0" />
	<path style="fill:none;stroke:red;stroke-width:1px;stroke-linecap:butt;stroke-linejoin:miter;stroke-opacity:1" d="M 783.429,206.449 796.443,199.219 z" id="boundary" inkscape:connector-curvature="0" />
	<path style="fill:none;stroke:red;stroke-width:1px;stroke-linecap:butt;stroke-linejoin:miter;stroke-opacity:1" d="M 790.659,280.198 796.443,294.659 z" id="boundary" inkscape:connector-curvature="0" />
	<path style="fill:none;stroke:red;stroke-width:1px;stroke-linecap:butt;stroke-linejoin:miter;stroke-opacity:1" d="M 796.443,199.219 808.012,187.65 z" id="boundary" inkscape:connector-curvature="0" />
	<path style="fill:none;stroke:red;stroke-width:1px;stroke-linecap:butt;stroke-linejoin:miter;stroke-opacity:1" d="M 796.443,294.659 806.566,306.227 z" id="boundary" inkscape:connector-curvature="0" />
	<path style="fill:none;stroke:red;stroke-width:1px;stroke-linecap:butt;stroke-linejoin:miter;stroke-opacity:1" d="M 806.566,306.227 813.796,319.242 z" id="boundary" inkscape:connector-curvature="0" />
	<path style="fill:none;stroke:red;stroke-width:1px;stroke-linecap:butt;stroke-linejoin:miter;stroke-opacity:1" d="M 808.012,187.65 819.58,177.528 z" id="boundary" inkscape:connector-curvature="0" />
	<path style="fill:none;stroke:red;stroke-width:1px;stroke-linecap:butt;stroke-linejoin:miter;stroke-opacity:1" d="M 813.796,319.242 821.026,332.257 z" id="boundary" inkscape:connector-curvature="0" />
	<path style="fill:none;stroke:red;stroke-width:1px;stroke-linecap:butt;stroke-linejoin:miter;stroke-opacity:1" d="M 819.58,177.528 832.595,170.297 z" id="boundary" inkscape:connector-curvature="0" />
	<path style="fill:none;stroke:red;stroke-width:1px;stroke-linecap:butt;stroke-linejoin:miter;stroke-opacity:1" d="M 821.026,332.257 831.149,343.825 z" id="boundary" inkscape:connector-curvature="0" />
	<path style="fill:none;stroke:red;stroke-width:1px;stroke-linecap:butt;stroke-linejoin:miter;stroke-opacity:1" d="M 831.149,343.825 842.717,352.501 z" id="boundary" inkscape:connector-curvature="0" />
	<path style="fill:none;stroke:red;stroke-width:1px;stroke-linecap:butt;stroke-linejoin:miter;stroke-opacity:1" d="M 832.595,170.297 844.163,158.729 z" id="boundary" inkscape:connector-curvature="0" />
	<path style="fill:none;stroke:red;stroke-width:1px;stroke-linecap:butt;stroke-linejoin:miter;stroke-opacity:1" d="M 842.717,352.501 847.055,366.962 z" id="boundary" inkscape:connector-curvature="0" />
	<path style="fill:none;stroke:red;stroke-width:1px;stroke-linecap:butt;stroke-linejoin:miter;stroke-opacity:1" d="M 844.163,158.729 858.624,151.499 z" id="boundary" inkscape:connector-curvature="0" />
	<path style="fill:none;stroke:red;stroke-width:1px;stroke-linecap:butt;stroke-linejoin:miter;stroke-opacity:1" d="M 847.055,366.962 861.516,372.746 z" id="boundary" inkscape:connector-curvature="0" />
	<path style="fill:none;stroke:red;stroke-width:1px;stroke-linecap:butt;stroke-linejoin:miter;stroke-opacity:1" d="M 858.624,151.499 873.085,144.268 z" id="boundary" inkscape:connector-curvature="0" />
	<path style="fill:none;stroke:red;stroke-width:1px;stroke-linecap:butt;stroke-linejoin:miter;stroke-opacity:1" d="M 861.516,372.746 873.085,381.423 z" id="boundary" inkscape:connector-curvature="0" />
	<path style="fill:none;stroke:red;stroke-width:1px;stroke-linecap:butt;stroke-linejoin:miter;stroke-opacity:1" d="M 873.085,144.268 887.545,137.038 z" id="boundary" inkscape:connector-curvature="0" />
	<path style="fill:none;stroke:red;stroke-width:1px;stroke-linecap:butt;stroke-linejoin:miter;stroke-opacity:1" d="M 873.085,244.047 873.085,258.507 z" id="boundary" inkscape:connector-curvature="0" />
	<path style="fill:none;stroke:red;stroke-width:1px;stroke-linecap:butt;stroke-linejoin:miter;stroke-opacity:1" d="M 873.085,244.047 880.315,229.586 z" id="boundary" inkscape:connector-curvature="0" />
	<path style="fill:none;stroke:red;stroke-width:1px;stroke-linecap:butt;stroke-linejoin:miter;stroke-opacity:1" d="M 873.085,258.507 873.085,272.968 z" id="boundary" inkscape:connector-curvature="0" />
	<path style="fill:none;stroke:red;stroke-width:1px;stroke-linecap:butt;stroke-linejoin:miter;stroke-opacity:1" d="M 873.085,272.968 873.085,287.429 z" id="boundary" inkscape:connector-curvature="0" />
	<path style="fill:none;stroke:red;stroke-width:1px;stroke-linecap:butt;stroke-linejoin:miter;stroke-opacity:1" d="M 873.085,287.429 873.085,301.889 z" id="boundary" inkscape:connector-curvature="0" />
	<path style="fill:none;stroke:red;stroke-width:1px;stroke-linecap:butt;stroke-linejoin:miter;stroke-opacity:1" d="M 873.085,301.889 880.315,314.904 z" id="boundary" inkscape:connector-curvature="0" />
	<path style="fill:none;stroke:red;stroke-width:1px;stroke-linecap:butt;stroke-linejoin:miter;stroke-opacity:1" d="M 873.085,381.423 887.545,371.3 z" id="boundary" inkscape:connector-curvature="0" />
	<path style="fill:none;stroke:red;stroke-width:1px;stroke-linecap:butt;stroke-linejoin:miter;stroke-opacity:1" d="M 880.315,229.586 891.883,219.464 z" id="boundary" inkscape:connector-curvature="0" />
	<path style="fill:none;stroke:red;stroke-width:1px;stroke-linecap:butt;stroke-linejoin:miter;stroke-opacity:1" d="M 880.315,314.904 880.315,329.364 z" id="boundary" inkscape:connector-curvature="0" />
	<path style="fill:none;stroke:red;stroke-width:1px;stroke-linecap:butt;stroke-linejoin:miter;stroke-opacity:1" d="M 880.315,329.364 880.315,343.825 z" id="boundary" inkscape:connector-curvature="0" />
	<path style="fill:none;stroke:red;stroke-width:1px;stroke-linecap:butt;stroke-linejoin:miter;stroke-opacity:1" d="M 880.315,343.825 887.545,356.84 z" id="boundary" inkscape:connector-curvature="0" />
	<path style="fill:none;stroke:red;stroke-width:1px;stroke-linecap:butt;stroke-linejoin:miter;stroke-opacity:1" d="M 887.545,137.038 902.006,129.808 z" id="boundary" inkscape:connector-curvature="0" />
	<path style="fill:none;stroke:red;stroke-width:1px;stroke-linecap:butt;stroke-linejoin:miter;stroke-opacity:1" d="M 887.545,356.84 887.545,371.3 z" id="boundary" inkscape:connector-curvature="0" />
	<path style="fill:none;stroke:red;stroke-width:1px;stroke-linecap:butt;stroke-linejoin:miter;stroke-opacity:1" d="M 891.883,219.464 902.006,200.665 z" id="boundary" inkscape:connector-curvature="0" />
	<path style="fill:none;stroke:red;stroke-width:1px;stroke-linecap:butt;stroke-linejoin:miter;stroke-opacity:1" d="M 902.006,129.808 916.466,122.577 z" id="boundary" inkscape:connector-curvature="0" />
	<path style="fill:none;stroke:red;stroke-width:1px;stroke-linecap:butt;stroke-linejoin:miter;stroke-opacity:1" d="M 902.006,200.665 913.574,190.542 z" id="boundary" inkscape:connector-curvature="0" />
	<path style="fill:none;stroke:red;stroke-width:1px;stroke-linecap:butt;stroke-linejoin:miter;stroke-opacity:1" d="M 913.574,190.542 923.697,178.974 z" id="boundary" inkscape:connector-curvature="0" />
	<path style="fill:none;stroke:red;stroke-width:1px;stroke-linecap:butt;stroke-linejoin:miter;stroke-opacity:1" d="M 916.466,122.577 930.927,115.347 z" id="boundary" inkscape:connector-curvature="0" />
	<path style="fill:none;stroke:red;stroke-width:1px;stroke-linecap:butt;stroke-linejoin:miter;stroke-opacity:1" d="M 923.697,178.974 935.265,168.851 z" id="boundary" inkscape:connector-curvature="0" />
	<path style="fill:none;stroke:red;stroke-width:1px;stroke-linecap:butt;stroke-linejoin:miter;stroke-opacity:1" d="M 930.927,115.347 945.388,112.455 z" id="boundary" inkscape:connector-curvature="0" />
	<path style="fill:none;stroke:red;stroke-width:1px;stroke-linecap:butt;stroke-linejoin:miter;stroke-opacity:1" d="M 935.265,168.851 945.388,157.283 z" id="boundary" inkscape:connector-curvature="0" />
	<path style="fill:none;stroke:red;stroke-width:1px;stroke-linecap:butt;stroke-linejoin:miter;stroke-opacity:1" d="M 945.388,112.455 959.848,108.117 z" id="boundary" inkscape:connector-curvature="0" />
	<path style="fill:none;stroke:red;stroke-width:1px;stroke-linecap:butt;stroke-linejoin:miter;stroke-opacity:1" d="M 945.388,157.283 959.848,150.052 z" id="boundary" inkscape:connector-curvature="0" />
	<path style="fill:none;stroke:red;stroke-width:1px;stroke-linecap:butt;stroke-linejoin:miter;stroke-opacity:1" d="M 959.848,108.117 974.309,105.224 z" id="boundary" inkscape:connector-curvature="0" />
	<path style="fill:none;stroke:red;stroke-width:1px;stroke-linecap:butt;stroke-linejoin:miter;stroke-opacity:1" d="M 959.848,150.052 974.309,142.822 z" id="boundary" inkscape:connector-curvature="0" />
	<path style="fill:none;stroke:red;stroke-width:1px;stroke-linecap:butt;stroke-linejoin:miter;stroke-opacity:1" d="M 974.309,105.224 988.77,105.224 z" id="boundary" inkscape:connector-curvature="0" />
	<path style="fill:none;stroke:red;stroke-width:1px;stroke-linecap:butt;stroke-linejoin:miter;stroke-opacity:1" d="M 974.309,142.822 985.878,132.7 z" id="boundary" inkscape:connector-curvature="0" />
	<path style="fill:none;stroke:red;stroke-width:1px;stroke-linecap:butt;stroke-linejoin:miter;stroke-opacity:1" d="M 985.878,132.7 996,121.131 z" id="boundary" inkscape:connector-curvature="0" />
	<path style="fill:none;stroke:red;stroke-width:1px;stroke-linecap:butt;stroke-linejoin:miter;stroke-opacity:1" d="M 988.77,105.224 996,121.131 z" id="boundary" inkscape:connector-curvature="0" />
	<circle cx="4" cy="174.636" r="4" fill="#0" id="circle0"/>
	<circle cx="4" cy="189.096" r="4" fill="#0" id="circle1"/>
	<circle cx="15.5685" cy="199.219" r="4" fill="#0" id="circle2"/>
	<circle cx="18.4606" cy="167.405" r="4" fill="#0" id="circle3"/>
	<circle cx="25.691" cy="210.787" r="4" fill="#0" id="circle4"/>
	<circle cx="32.9213" cy="160.175" r="4" fill="#0" id="circle5"/>
	<circle cx="40.1516" cy="215.125" r="4" fill="#0" id="circle6"/>
	<circle cx="47.3819" cy="155.837" r="4" fill="#0" id="circle7"/>
	<circle cx="53.1662" cy="222.356" r="4" fill="#0" id="circle8"/>
	<circle cx="61.8426" cy="152.945" r="4" fill="#0" id="circle9"/>
	<circle cx="66.1808" cy="229.586" r="4" fill="#0" id="circle10"/>
	<circle cx="76.3032" cy="148.606" r="4" fill="#0" id="circle11"/>
	<circle cx="80.6414" cy="235.37" r="4" fill="#0" id="circle12"/>
	<circle cx="89.3178" cy="141.376" r="4" fill="#0" id="circle13"/>
	<circle cx="93.656" cy="242.601" r="4" fill="#0" id="circle14"/>
	<circle cx="103.778" cy="141.376" r="4" fill="#0" id="circle15"/>
	<circle cx="108.117" cy="244.047" r="4" fill="#0" id="circle16"/>
	<circle cx="116.793" cy="134.146" r="4" fill="#0" id="circle17"/>
	<circle cx="121.131" cy="251.277" r="4" fill="#0" id="circle18"/>
	<circle cx="131.254" cy="126.915" r="4" fill="#0" id="circle19"/>
	<circle cx="135.592" cy="254.169" r="4" fill="#0" id="circle20"/>
	<circle cx="145.714" cy="126.915" r="4" fill="#0" id="circle21"/>
	<circle cx="148.606" cy="261.399" r="4" fill="#0" id="circle22"/>
	<circle cx="160.175" cy="119.685" r="4" fill="#0" id="circle23"/>
	<circle cx="163.067" cy="265.738" r="4" fill="#0" id="circle24"/>
	<circle cx="174.636" cy="119.685" r="4" fill="#0" id="circle25"/>
	<circle cx="176.082" cy="272.968" r="4" fill="#0" id="circle26"/>
	<circle cx="187.65" cy="112.455" r="4" fill="#0" id="circle27"/>
	<circle cx="189.096" cy="280.198" r="4" fill="#0" id="circle28"/>
	<circle cx="202.111" cy="112.455" r="4" fill="#0" id="circle29"/>
	<circle cx="203.557" cy="285.983" r="4" fill="#0" id="circle30"/>
	<circle cx="216.571" cy="112.455" r="4" fill="#0" id="circle31"/>
	<circle cx="218.017" cy="287.429" r="4" fill="#0" id="circle32"/>
	<circle cx="231.032" cy="106.671" r="4" fill="#0" id="circle33"/>
	<circle cx="232.478" cy="293.213" r="4" fill="#0" id="circle34"/>
	<circle cx="242.601" cy="304.781" r="4" fill="#0" id="circle35"/>
	<circle cx="242.601" cy="319.242" r="4" fill="#0" id="circle36"/>
	<circle cx="245.493" cy="105.224" r="4" fill="#0" id="circle37"/>
	<circle cx="249.831" cy="332.257" r="4" fill="#0" id="circle38"/>
	<circle cx="249.831" cy="346.717" r="4" fill="#0" id="circle39"/>
	<circle cx="257.061" cy="359.732" r="4" fill="#0" id="circle40"/>
	<circle cx="257.061" cy="374.192" r="4" fill="#0" id="circle41"/>
	<circle cx="257.061" cy="388.653" r="4" fill="#0" id="circle42"/>
	<circle cx="259.953" cy="105.224" r="4" fill="#0" id="circle43"/>
	<circle cx="264.292" cy="401.668" r="4" fill="#0" id="circle44"/>
	<circle cx="267.184" cy="416.128" r="4" fill="#0" id="circle45"/>
	<circle cx="274.414" cy="105.224" r="4" fill="#0" id="circle46"/>
	<circle cx="274.414" cy="429.143" r="4" fill="#0" id="circle47"/>
	<circle cx="280.198" cy="443.603" r="4" fill="#0" id="circle48"/>
	<circle cx="288.875" cy="105.224" r="4" fill="#0" id="circle49"/>
	<circle cx="291.767" cy="453.726" r="4" fill="#0" id="circle50"/>
	<circle cx="301.889" cy="424.805" r="4" fill="#0" id="circle51"/>
	<circle cx="301.889" cy="439.265" r="4" fill="#0" id="circle52"/>
	<circle cx="303.335" cy="99.4402" r="4" fill="#0" id="circle53"/>
	<circle cx="309.12" cy="381.423" r="4" fill="#0" id="circle54"/>
	<circle cx="309.12" cy="395.883" r="4" fill="#0" id="circle55"/>
	<circle cx="309.12" cy="410.344" r="4" fill="#0" id="circle56"/>
	<circle cx="316.35" cy="345.271" r="4" fill="#0" id="circle57"/>
	<circle cx="316.35" cy="359.732" r="4" fill="#0" id="circle58"/>
	<circle cx="317.796" cy="92.2099" r="4" fill="#0" id="circle59"/>
	<circle cx="323.58" cy="330.81" r="4" fill="#0" id="circle60"/>
	<circle cx="329.364" cy="73.4111" r="4" fill="#0" id="circle61"/>
	<circle cx="336.595" cy="323.58" r="4" fill="#0" id="circle62"/>
	<circle cx="340.933" cy="61.8426" r="4" fill="#0" id="circle63"/>
	<circle cx="348.163" cy="47.3819" r="4" fill="#0" id="circle64"/>
	<circle cx="351.055" cy="323.58" r="4" fill="#0" id="circle65"/>
	<circle cx="359.732" cy="35.8134" r="4" fill="#0" id="circle66"/>
	<circle cx="365.516" cy="323.58" r="4" fill="#0" id="circle67"/>
	<circle cx="371.3" cy="25.691" r="4" fill="#0" id="circle68"/>
	<circle cx="379.977" cy="323.58" r="4" fill="#0" id="circle69"/>
	<circle cx="384.315" cy="18.4606" r="4" fill="#0" id="circle70"/>
	<circle cx="394.437" cy="319.242" r="4" fill="#0" id="circle71"/>
	<circle cx="397.329" cy="11.2303" r="4" fill="#0" id="circle72"/>
	<circle cx="408.898" cy="316.35" r="4" fill="#0" id="circle73"/>
	<circle cx="410.344" cy="4" r="4" fill="#0" id="circle74"/>
	<circle cx="417.574" cy="17.0146" r="4" fill="#0" id="circle75"/>
	<circle cx="417.574" cy="31.4752" r="4" fill="#0" id="circle76"/>
	<circle cx="423.359" cy="316.35" r="4" fill="#0" id="circle77"/>
	<circle cx="424.805" cy="44.4898" r="4" fill="#0" id="circle78"/>
	<circle cx="424.805" cy="58.9504" r="4" fill="#0" id="circle79"/>
	<circle cx="430.589" cy="73.4111" r="4" fill="#0" id="circle80"/>
	<circle cx="437.819" cy="316.35" r="4" fill="#0" id="circle81"/>
	<circle cx="439.265" cy="84.9796" r="4" fill="#0" id="circle82"/>
	<circle cx="450.834" cy="93.656" r="4" fill="#0" id="circle83"/>
	<circle cx="452.28" cy="316.35" r="4" fill="#0" id="circle84"/>
	<circle cx="460.956" cy="105.224" r="4" fill="#0" id="circle85"/>
	<circle cx="460.956" cy="119.685" r="4" fill="#0" id="circle86"/>
	<circle cx="466.741" cy="312.012" r="4" fill="#0" id="circle87"/>
	<circle cx="475.417" cy="124.023" r="4" fill="#0" id="circle88"/>
	<circle cx="481.201" cy="309.12" r="4" fill="#0" id="circle89"/>
	<circle cx="489.878" cy="126.915" r="4" fill="#0" id="circle90"/>
	<circle cx="495.662" cy="304.781" r="4" fill="#0" id="circle91"/>
	<circle cx="504.338" cy="126.915" r="4" fill="#0" id="circle92"/>
	<circle cx="510.122" cy="301.889" r="4" fill="#0" id="circle93"/>
	<circle cx="517.353" cy="134.146" r="4" fill="#0" id="circle94"/>
	<circle cx="524.583" cy="301.889" r="4" fill="#0" id="circle95"/>
	<circle cx="531.813" cy="134.146" r="4" fill="#0" id="circle96"/>
	<circle cx="539.044" cy="301.889" r="4" fill="#0" id="circle97"/>
	<circle cx="544.828" cy="141.376" r="4" fill="#0" id="circle98"/>
	<circle cx="553.504" cy="301.889" r="4" fill="#0" id="circle99"/>
	<circle cx="557.843" cy="148.606" r="4" fill="#0" id="circle100"/>
	<circle cx="566.519" cy="309.12" r="4" fill="#0" id="circle101"/>
	<circle cx="572.303" cy="148.606" r="4" fill="#0" id="circle102"/>
	<circle cx="580.98" cy="306.227" r="4" fill="#0" id="circle103"/>
	<circle cx="585.318" cy="155.837" r="4" fill="#0" id="circle104"/>
	<circle cx="591.102" cy="294.659" r="4" fill="#0" id="circle105"/>
	<circle cx="599.778" cy="155.837" r="4" fill="#0" id="circle106"/>
	<circle cx="604.117" cy="287.429" r="4" fill="#0" id="circle107"/>
	<circle cx="612.793" cy="163.067" r="4" fill="#0" id="circle108"/>
	<circle cx="617.131" cy="280.198" r="4" fill="#0" id="circle109"/>
	<circle cx="627.254" cy="167.405" r="4" fill="#0" id="circle110"/>
	<circle cx="631.592" cy="277.306" r="4" fill="#0" id="circle111"/>
	<circle cx="640.268" cy="174.636" r="4" fill="#0" id="circle112"/>
	<circle cx="646.052" cy="272.968" r="4" fill="#0" id="circle113"/>
	<circle cx="654.729" cy="177.528" r="4" fill="#0" id="circle114"/>
	<circle cx="660.513" cy="272.968" r="4" fill="#0" id="circle115"/>
	<circle cx="667.743" cy="184.758" r="4" fill="#0" id="circle116"/>
	<circle cx="673.528" cy="280.198" r="4" fill="#0" id="circle117"/>
	<circle cx="680.758" cy="177.528" r="4" fill="#0" id="circle118"/>
	<circle cx="687.988" cy="280.198" r="4" fill="#0" id="circle119"/>
	<circle cx="695.219" cy="177.528" r="4" fill="#0" id="circle120"/>
	<circle cx="701.003" cy="272.968" r="4" fill="#0" id="circle121"/>
	<circle cx="708.233" cy="184.758" r="4" fill="#0" id="circle122"/>
	<circle cx="714.017" cy="265.738" r="4" fill="#0" id="circle123"/>
	<circle cx="719.802" cy="194.88" r="4" fill="#0" id="circle124"/>
	<circle cx="727.032" cy="258.507" r="4" fill="#0" id="circle125"/>
	<circle cx="728.478" cy="206.449" r="4" fill="#0" id="circle126"/>
	<circle cx="741.493" cy="213.679" r="4" fill="#0" id="circle127"/>
	<circle cx="741.493" cy="258.507" r="4" fill="#0" id="circle128"/>
	<circle cx="755.953" cy="213.679" r="4" fill="#0" id="circle129"/>
	<circle cx="755.953" cy="258.507" r="4" fill="#0" id="circle130"/>
	<circle cx="770.414" cy="213.679" r="4" fill="#0" id="circle131"/>
	<circle cx="770.414" cy="258.507" r="4" fill="#0" id="circle132"/>
	<circle cx="779.09" cy="270.076" r="4" fill="#0" id="circle133"/>
	<circle cx="783.429" cy="206.449" r="4" fill="#0" id="circle134"/>
	<circle cx="790.659" cy="280.198" r="4" fill="#0" id="circle135"/>
	<circle cx="796.443" cy="199.219" r="4" fill="#0" id="circle136"/>
	<circle cx="796.443" cy="294.659" r="4" fill="#0" id="circle137"/>
	<circle cx="806.566" cy="306.227" r="4" fill="#0" id="circle138"/>
	<circle cx="808.012" cy="187.65" r="4" fill="#0" id="circle139"/>
	<circle cx="813.796" cy="319.242" r="4" fill="#0" id="circle140"/>
	<circle cx="819.58" cy="177.528" r="4" fill="#0" id="circle141"/>
	<circle cx="821.026" cy="332.257" r="4" fill="#0" id="circle142"/>
	<circle cx="831.149" cy="343.825" r="4" fill="#0" id="circle143"/>
	<circle cx="832.595" cy="170.297" r="4" fill="#0" id="circle144"/>
	<circle cx="842.717" cy="352.501" r="4" fill="#0" id="circle145"/>
	<circle cx="844.163" cy="158.729" r="4" fill="#0" id="circle146"/>
	<circle cx="847.055" cy="366.962" r="4" fill="#0" id="circle147"/>
	<circle cx="858.624" cy="151.499" r="4" fill="#0" id="circle148"/>
	<circle cx="861.516" cy="372.746" r="4" fill="#0" id="circle149"/>
	<circle cx="873.085" cy="144.268" r="4" fill="#0" id="circle150"/>
	<circle cx="873.085" cy="244.047" r="4" fill="#0" id="circle151"/>
	<circle cx="873.085" cy="258.507" r="4" fill="#0" id="circle152"/>
	<circle cx="873.085" cy="272.968" r="4" fill="#0" id="circle153"/>
	<circle cx="873.085" cy="287.429" r="4" fill="#0" id="circle154"/>
	<circle cx="873.085" cy="301.889" r="4" fill="#0" id="circle155"/>
	<circle cx="873.085" cy="381.423" r="4" fill="#0" id="circle156"/>
	<circle cx="880.315" cy="229.586" r="4" fill="#0" id="circle157"/>
	<circle cx="880.315" cy="314.904" r="4" fill="#0" id="circle158"/>
	<circle cx="880.315" cy="329.364" r="4" fill="#0" id="circle159"/>
	<circle cx="880.315" cy="343.825" r="4" fill="#0" id="circle160"/>
	<circle cx="887.545" cy="137.038" r="4" fill="#0" id="circle161"/>
	<circle cx="887.545" cy="356.84" r="4" fill="#0" id="circle162"/>
	<circle cx="887.545" cy="371.3" r="4" fill="#0" id="circle163"/>
	<circle cx="891.883" cy="219.464" r="4" fill="#0" id="circle164"/>
	<circle cx="902.006" cy="129.808" r="4" fill="#0" id="circle165"/>
	<circle cx="902.006" cy="200.665" r="4" fill="#0" id="circle166"/>
	<circle cx="913.574" cy="190.542" r="4" fill="#0" id="circle167"/>
	<circle cx="916.466" cy="122.577" r="4" fill="#0" id="circle168"/>
	<circle cx="923.697" cy="178.974" r="4" fill="#0" id="circle169"/>
	<circle cx="930.927" cy="115.347" r="4" fill="#0" id="circle170"/>
	<circle cx="935.265" cy="168.851" r="4" fill="#0" id="circle171"/>
	<circle cx="945.388" cy="112.455" r="4" fill="#0" id="circle172"/>
	<circle cx="945.388" cy="157.283" r="4" fill="#0" id="circle173"/>
	<circle cx="959.848" cy="108.117" r="4" fill="#0" id="circle174"/>
	<circle cx="959.848" cy="150.052" r="4" fill="#0" id="circle175"/>
	<circle cx="974.309" cy="105.224" r="4" fill="#0" id="circle176"/>
	<circle cx="974.309" cy="142.822" r="4" fill="#0" id="circle177"/>
	<circle cx="985.878" cy="132.7" r="4" fill="#0" id="circle178"/>
	<circle cx="988.77" cy="105.224" r="4" fill="#0" id="circle179"/>
	<circle cx="996" cy="121.131" r="4" fill="#0" id="circle180"/>
	</g>
</svg>