<?xml version="1.0" encoding="UTF-8" standalone="no"?>
<!-- Created with CurveBenchmark -->
<svg
	xmlns:dc="http://purl.org/dc/elements/1.1/"
	xmlns:cc="http://creativecommons.org/ns#"
	xmlns:rdf="http://www.w3.org/1999/02/22-rdf-syntax-ns#"
	xmlns:svg="http://www.w3.org/2000/svg"
	xmlns="http://www.w3.org/2000/svg"
	xmlns:sodipodi="http://sodipodi.sourceforge.net/DTD/sodipodi-0.dtd"
	xmlns:inkscape="http://www.inkscape.org/namespaces/inkscape"
	width="1000"
	height="1000"
	id="svg2"
	version="1.1"
	sodipodi:docname="manifold/discur-television140.png.txt">
<defs
	id="defs4" />
<metadata
	id="metadata7">
	<rdf:RDF>
		<cc:Work
			rdf:about="">
			<dc:format>image/svg+xml</dc:format>
			<dc:type
				rdf:resource="http://purl.org/dc/dcmitype/StillImage" />
			<dc:title></dc:title>
		</cc:Work>
	</rdf:RDF>
</metadata>
<g
	inkscape:label="Layer 1"
	inkscape:groupmode="layer"
	id="layer1">
	<path style="fill:none;stroke:red;stroke-width:1px;stroke-linecap:butt;stroke-linejoin:miter;stroke-opacity:1" d="M 4,810.219 4,845.272 z" id="boundary" inkscape:connector-curvature="0" />
	<path style="fill:none;stroke:red;stroke-width:1px;stroke-linecap:butt;stroke-linejoin:miter;stroke-opacity:1" d="M 4,810.219 39.053,803.208 z" id="boundary" inkscape:connector-curvature="0" />
	<path style="fill:none;stroke:red;stroke-width:1px;stroke-linecap:butt;stroke-linejoin:miter;stroke-opacity:1" d="M 4,845.272 21.5265,876.82 z" id="boundary" inkscape:connector-curvature="0" />
	<path style="fill:none;stroke:red;stroke-width:1px;stroke-linecap:butt;stroke-linejoin:miter;stroke-opacity:1" d="M 21.5265,876.82 56.5795,890.841 z" id="boundary" inkscape:connector-curvature="0" />
	<path style="fill:none;stroke:red;stroke-width:1px;stroke-linecap:butt;stroke-linejoin:miter;stroke-opacity:1" d="M 39.053,803.208 74.106,803.208 z" id="boundary" inkscape:connector-curvature="0" />
	<path style="fill:none;stroke:red;stroke-width:1px;stroke-linecap:butt;stroke-linejoin:miter;stroke-opacity:1" d="M 46.0636,698.049 63.5901,729.597 z" id="boundary" inkscape:connector-curvature="0" />
	<path style="fill:none;stroke:red;stroke-width:1px;stroke-linecap:butt;stroke-linejoin:miter;stroke-opacity:1" d="M 46.0636,698.049 81.1166,698.049 z" id="boundary" inkscape:connector-curvature="0" />
	<path style="fill:none;stroke:red;stroke-width:1px;stroke-linecap:butt;stroke-linejoin:miter;stroke-opacity:1" d="M 56.5795,890.841 91.6325,876.82 z" id="boundary" inkscape:connector-curvature="0" />
	<path style="fill:none;stroke:red;stroke-width:1px;stroke-linecap:butt;stroke-linejoin:miter;stroke-opacity:1" d="M 63.5901,729.597 98.6431,729.597 z" id="boundary" inkscape:connector-curvature="0" />
	<path style="fill:none;stroke:red;stroke-width:1px;stroke-linecap:butt;stroke-linejoin:miter;stroke-opacity:1" d="M 74.106,617.428 91.6325,585.88 z" id="boundary" inkscape:connector-curvature="0" />
	<path style="fill:none;stroke:red;stroke-width:1px;stroke-linecap:butt;stroke-linejoin:miter;stroke-opacity:1" d="M 74.106,617.428 109.159,617.428 z" id="boundary" inkscape:connector-curvature="0" />
	<path style="fill:none;stroke:red;stroke-width:1px;stroke-linecap:butt;stroke-linejoin:miter;stroke-opacity:1" d="M 74.106,803.208 109.159,803.208 z" id="boundary" inkscape:connector-curvature="0" />
	<path style="fill:none;stroke:red;stroke-width:1px;stroke-linecap:butt;stroke-linejoin:miter;stroke-opacity:1" d="M 81.1166,698.049 116.17,698.049 z" id="boundary" inkscape:connector-curvature="0" />
	<path style="fill:none;stroke:red;stroke-width:1px;stroke-linecap:butt;stroke-linejoin:miter;stroke-opacity:1" d="M 91.6325,585.88 126.686,585.88 z" id="boundary" inkscape:connector-curvature="0" />
	<path style="fill:none;stroke:red;stroke-width:1px;stroke-linecap:butt;stroke-linejoin:miter;stroke-opacity:1" d="M 91.6325,876.82 126.686,876.82 z" id="boundary" inkscape:connector-curvature="0" />
	<path style="fill:none;stroke:red;stroke-width:1px;stroke-linecap:butt;stroke-linejoin:miter;stroke-opacity:1" d="M 98.6431,729.597 133.696,729.597 z" id="boundary" inkscape:connector-curvature="0" />
	<path style="fill:none;stroke:red;stroke-width:1px;stroke-linecap:butt;stroke-linejoin:miter;stroke-opacity:1" d="M 109.159,617.428 144.212,617.428 z" id="boundary" inkscape:connector-curvature="0" />
	<path style="fill:none;stroke:red;stroke-width:1px;stroke-linecap:butt;stroke-linejoin:miter;stroke-opacity:1" d="M 109.159,803.208 144.212,803.208 z" id="boundary" inkscape:connector-curvature="0" />
	<path style="fill:none;stroke:red;stroke-width:1px;stroke-linecap:butt;stroke-linejoin:miter;stroke-opacity:1" d="M 116.17,698.049 151.223,698.049 z" id="boundary" inkscape:connector-curvature="0" />
	<path style="fill:none;stroke:red;stroke-width:1px;stroke-linecap:butt;stroke-linejoin:miter;stroke-opacity:1" d="M 126.686,585.88 161.739,585.88 z" id="boundary" inkscape:connector-curvature="0" />
	<path style="fill:none;stroke:red;stroke-width:1px;stroke-linecap:butt;stroke-linejoin:miter;stroke-opacity:1" d="M 126.686,876.82 161.739,876.82 z" id="boundary" inkscape:connector-curvature="0" />
	<path style="fill:none;stroke:red;stroke-width:1px;stroke-linecap:butt;stroke-linejoin:miter;stroke-opacity:1" d="M 133.696,729.597 168.749,729.597 z" id="boundary" inkscape:connector-curvature="0" />
	<path style="fill:none;stroke:red;stroke-width:1px;stroke-linecap:butt;stroke-linejoin:miter;stroke-opacity:1" d="M 144.212,617.428 179.265,617.428 z" id="boundary" inkscape:connector-curvature="0" />
	<path style="fill:none;stroke:red;stroke-width:1px;stroke-linecap:butt;stroke-linejoin:miter;stroke-opacity:1" d="M 144.212,803.208 179.265,803.208 z" id="boundary" inkscape:connector-curvature="0" />
	<path style="fill:none;stroke:red;stroke-width:1px;stroke-linecap:butt;stroke-linejoin:miter;stroke-opacity:1" d="M 151.223,698.049 186.276,698.049 z" id="boundary" inkscape:connector-curvature="0" />
	<path style="fill:none;stroke:red;stroke-width:1px;stroke-linecap:butt;stroke-linejoin:miter;stroke-opacity:1" d="M 161.739,585.88 196.792,585.88 z" id="boundary" inkscape:connector-curvature="0" />
	<path style="fill:none;stroke:red;stroke-width:1px;stroke-linecap:butt;stroke-linejoin:miter;stroke-opacity:1" d="M 161.739,876.82 196.792,876.82 z" id="boundary" inkscape:connector-curvature="0" />
	<path style="fill:none;stroke:red;stroke-width:1px;stroke-linecap:butt;stroke-linejoin:miter;stroke-opacity:1" d="M 168.749,729.597 203.802,729.597 z" id="boundary" inkscape:connector-curvature="0" />
	<path style="fill:none;stroke:red;stroke-width:1px;stroke-linecap:butt;stroke-linejoin:miter;stroke-opacity:1" d="M 179.265,617.428 214.318,617.428 z" id="boundary" inkscape:connector-curvature="0" />
	<path style="fill:none;stroke:red;stroke-width:1px;stroke-linecap:butt;stroke-linejoin:miter;stroke-opacity:1" d="M 179.265,803.208 214.318,803.208 z" id="boundary" inkscape:connector-curvature="0" />
	<path style="fill:none;stroke:red;stroke-width:1px;stroke-linecap:butt;stroke-linejoin:miter;stroke-opacity:1" d="M 186.276,11.0106 186.276,46.0636 z" id="boundary" inkscape:connector-curvature="0" />
	<path style="fill:none;stroke:red;stroke-width:1px;stroke-linecap:butt;stroke-linejoin:miter;stroke-opacity:1" d="M 186.276,11.0106 221.329,4 z" id="boundary" inkscape:connector-curvature="0" />
	<path style="fill:none;stroke:red;stroke-width:1px;stroke-linecap:butt;stroke-linejoin:miter;stroke-opacity:1" d="M 186.276,46.0636 186.276,81.1166 z" id="boundary" inkscape:connector-curvature="0" />
	<path style="fill:none;stroke:red;stroke-width:1px;stroke-linecap:butt;stroke-linejoin:miter;stroke-opacity:1" d="M 186.276,81.1166 186.276,116.17 z" id="boundary" inkscape:connector-curvature="0" />
	<path style="fill:none;stroke:red;stroke-width:1px;stroke-linecap:butt;stroke-linejoin:miter;stroke-opacity:1" d="M 186.276,116.17 186.276,151.223 z" id="boundary" inkscape:connector-curvature="0" />
	<path style="fill:none;stroke:red;stroke-width:1px;stroke-linecap:butt;stroke-linejoin:miter;stroke-opacity:1" d="M 186.276,151.223 186.276,186.276 z" id="boundary" inkscape:connector-curvature="0" />
	<path style="fill:none;stroke:red;stroke-width:1px;stroke-linecap:butt;stroke-linejoin:miter;stroke-opacity:1" d="M 186.276,186.276 186.276,221.329 z" id="boundary" inkscape:connector-curvature="0" />
	<path style="fill:none;stroke:red;stroke-width:1px;stroke-linecap:butt;stroke-linejoin:miter;stroke-opacity:1" d="M 186.276,221.329 186.276,256.382 z" id="boundary" inkscape:connector-curvature="0" />
	<path style="fill:none;stroke:red;stroke-width:1px;stroke-linecap:butt;stroke-linejoin:miter;stroke-opacity:1" d="M 186.276,256.382 186.276,291.435 z" id="boundary" inkscape:connector-curvature="0" />
	<path style="fill:none;stroke:red;stroke-width:1px;stroke-linecap:butt;stroke-linejoin:miter;stroke-opacity:1" d="M 186.276,291.435 186.276,326.488 z" id="boundary" inkscape:connector-curvature="0" />
	<path style="fill:none;stroke:red;stroke-width:1px;stroke-linecap:butt;stroke-linejoin:miter;stroke-opacity:1" d="M 186.276,326.488 186.276,361.541 z" id="boundary" inkscape:connector-curvature="0" />
	<path style="fill:none;stroke:red;stroke-width:1px;stroke-linecap:butt;stroke-linejoin:miter;stroke-opacity:1" d="M 186.276,361.541 186.276,396.594 z" id="boundary" inkscape:connector-curvature="0" />
	<path style="fill:none;stroke:red;stroke-width:1px;stroke-linecap:butt;stroke-linejoin:miter;stroke-opacity:1" d="M 186.276,396.594 186.276,431.647 z" id="boundary" inkscape:connector-curvature="0" />
	<path style="fill:none;stroke:red;stroke-width:1px;stroke-linecap:butt;stroke-linejoin:miter;stroke-opacity:1" d="M 186.276,431.647 189.781,466.7 z" id="boundary" inkscape:connector-curvature="0" />
	<path style="fill:none;stroke:red;stroke-width:1px;stroke-linecap:butt;stroke-linejoin:miter;stroke-opacity:1" d="M 186.276,698.049 221.329,698.049 z" id="boundary" inkscape:connector-curvature="0" />
	<path style="fill:none;stroke:red;stroke-width:1px;stroke-linecap:butt;stroke-linejoin:miter;stroke-opacity:1" d="M 189.781,466.7 224.834,470.205 z" id="boundary" inkscape:connector-curvature="0" />
	<path style="fill:none;stroke:red;stroke-width:1px;stroke-linecap:butt;stroke-linejoin:miter;stroke-opacity:1" d="M 196.792,585.88 231.845,585.88 z" id="boundary" inkscape:connector-curvature="0" />
	<path style="fill:none;stroke:red;stroke-width:1px;stroke-linecap:butt;stroke-linejoin:miter;stroke-opacity:1" d="M 196.792,876.82 231.845,876.82 z" id="boundary" inkscape:connector-curvature="0" />
	<path style="fill:none;stroke:red;stroke-width:1px;stroke-linecap:butt;stroke-linejoin:miter;stroke-opacity:1" d="M 203.802,729.597 238.855,729.597 z" id="boundary" inkscape:connector-curvature="0" />
	<path style="fill:none;stroke:red;stroke-width:1px;stroke-linecap:butt;stroke-linejoin:miter;stroke-opacity:1" d="M 214.318,617.428 249.371,617.428 z" id="boundary" inkscape:connector-curvature="0" />
	<path style="fill:none;stroke:red;stroke-width:1px;stroke-linecap:butt;stroke-linejoin:miter;stroke-opacity:1" d="M 214.318,803.208 249.371,803.208 z" id="boundary" inkscape:connector-curvature="0" />
	<path style="fill:none;stroke:red;stroke-width:1px;stroke-linecap:butt;stroke-linejoin:miter;stroke-opacity:1" d="M 221.329,4 256.382,4 z" id="boundary" inkscape:connector-curvature="0" />
	<path style="fill:none;stroke:red;stroke-width:1px;stroke-linecap:butt;stroke-linejoin:miter;stroke-opacity:1" d="M 221.329,698.049 256.382,698.049 z" id="boundary" inkscape:connector-curvature="0" />
	<path style="fill:none;stroke:red;stroke-width:1px;stroke-linecap:butt;stroke-linejoin:miter;stroke-opacity:1" d="M 224.834,470.205 259.887,470.205 z" id="boundary" inkscape:connector-curvature="0" />
	<path style="fill:none;stroke:red;stroke-width:1px;stroke-linecap:butt;stroke-linejoin:miter;stroke-opacity:1" d="M 231.845,585.88 266.898,585.88 z" id="boundary" inkscape:connector-curvature="0" />
	<path style="fill:none;stroke:red;stroke-width:1px;stroke-linecap:butt;stroke-linejoin:miter;stroke-opacity:1" d="M 231.845,876.82 266.898,876.82 z" id="boundary" inkscape:connector-curvature="0" />
	<path style="fill:none;stroke:red;stroke-width:1px;stroke-linecap:butt;stroke-linejoin:miter;stroke-opacity:1" d="M 238.855,729.597 273.908,729.597 z" id="boundary" inkscape:connector-curvature="0" />
	<path style="fill:none;stroke:red;stroke-width:1px;stroke-linecap:butt;stroke-linejoin:miter;stroke-opacity:1" d="M 249.371,617.428 284.424,617.428 z" id="boundary" inkscape:connector-curvature="0" />
	<path style="fill:none;stroke:red;stroke-width:1px;stroke-linecap:butt;stroke-linejoin:miter;stroke-opacity:1" d="M 249.371,803.208 277.413,824.24 z" id="boundary" inkscape:connector-curvature="0" />
	<path style="fill:none;stroke:red;stroke-width:1px;stroke-linecap:butt;stroke-linejoin:miter;stroke-opacity:1" d="M 256.382,4 291.435,4 z" id="boundary" inkscape:connector-curvature="0" />
	<path style="fill:none;stroke:red;stroke-width:1px;stroke-linecap:butt;stroke-linejoin:miter;stroke-opacity:1" d="M 256.382,698.049 291.435,698.049 z" id="boundary" inkscape:connector-curvature="0" />
	<path style="fill:none;stroke:red;stroke-width:1px;stroke-linecap:butt;stroke-linejoin:miter;stroke-opacity:1" d="M 259.887,470.205 294.94,470.205 z" id="boundary" inkscape:connector-curvature="0" />
	<path style="fill:none;stroke:red;stroke-width:1px;stroke-linecap:butt;stroke-linejoin:miter;stroke-opacity:1" d="M 266.898,585.88 301.951,585.88 z" id="boundary" inkscape:connector-curvature="0" />
	<path style="fill:none;stroke:red;stroke-width:1px;stroke-linecap:butt;stroke-linejoin:miter;stroke-opacity:1" d="M 266.898,876.82 301.951,876.82 z" id="boundary" inkscape:connector-curvature="0" />
	<path style="fill:none;stroke:red;stroke-width:1px;stroke-linecap:butt;stroke-linejoin:miter;stroke-opacity:1" d="M 273.908,729.597 308.961,729.597 z" id="boundary" inkscape:connector-curvature="0" />
	<path style="fill:none;stroke:red;stroke-width:1px;stroke-linecap:butt;stroke-linejoin:miter;stroke-opacity:1" d="M 277.413,824.24 305.456,803.208 z" id="boundary" inkscape:connector-curvature="0" />
	<path style="fill:none;stroke:red;stroke-width:1px;stroke-linecap:butt;stroke-linejoin:miter;stroke-opacity:1" d="M 284.424,617.428 319.477,617.428 z" id="boundary" inkscape:connector-curvature="0" />
	<path style="fill:none;stroke:red;stroke-width:1px;stroke-linecap:butt;stroke-linejoin:miter;stroke-opacity:1" d="M 291.435,4 326.488,4 z" id="boundary" inkscape:connector-curvature="0" />
	<path style="fill:none;stroke:red;stroke-width:1px;stroke-linecap:butt;stroke-linejoin:miter;stroke-opacity:1" d="M 291.435,698.049 326.488,698.049 z" id="boundary" inkscape:connector-curvature="0" />
	<path style="fill:none;stroke:red;stroke-width:1px;stroke-linecap:butt;stroke-linejoin:miter;stroke-opacity:1" d="M 294.94,470.205 329.993,470.205 z" id="boundary" inkscape:connector-curvature="0" />
	<path style="fill:none;stroke:red;stroke-width:1px;stroke-linecap:butt;stroke-linejoin:miter;stroke-opacity:1" d="M 301.951,585.88 337.004,585.88 z" id="boundary" inkscape:connector-curvature="0" />
	<path style="fill:none;stroke:red;stroke-width:1px;stroke-linecap:butt;stroke-linejoin:miter;stroke-opacity:1" d="M 301.951,876.82 337.004,876.82 z" id="boundary" inkscape:connector-curvature="0" />
	<path style="fill:none;stroke:red;stroke-width:1px;stroke-linecap:butt;stroke-linejoin:miter;stroke-opacity:1" d="M 305.456,803.208 333.498,824.24 z" id="boundary" inkscape:connector-curvature="0" />
	<path style="fill:none;stroke:red;stroke-width:1px;stroke-linecap:butt;stroke-linejoin:miter;stroke-opacity:1" d="M 308.961,729.597 344.014,729.597 z" id="boundary" inkscape:connector-curvature="0" />
	<path style="fill:none;stroke:red;stroke-width:1px;stroke-linecap:butt;stroke-linejoin:miter;stroke-opacity:1" d="M 319.477,617.428 354.53,617.428 z" id="boundary" inkscape:connector-curvature="0" />
	<path style="fill:none;stroke:red;stroke-width:1px;stroke-linecap:butt;stroke-linejoin:miter;stroke-opacity:1" d="M 326.488,4 361.541,4 z" id="boundary" inkscape:connector-curvature="0" />
	<path style="fill:none;stroke:red;stroke-width:1px;stroke-linecap:butt;stroke-linejoin:miter;stroke-opacity:1" d="M 326.488,698.049 361.541,698.049 z" id="boundary" inkscape:connector-curvature="0" />
	<path style="fill:none;stroke:red;stroke-width:1px;stroke-linecap:butt;stroke-linejoin:miter;stroke-opacity:1" d="M 329.993,470.205 365.046,470.205 z" id="boundary" inkscape:connector-curvature="0" />
	<path style="fill:none;stroke:red;stroke-width:1px;stroke-linecap:butt;stroke-linejoin:miter;stroke-opacity:1" d="M 333.498,824.24 361.541,803.208 z" id="boundary" inkscape:connector-curvature="0" />
	<path style="fill:none;stroke:red;stroke-width:1px;stroke-linecap:butt;stroke-linejoin:miter;stroke-opacity:1" d="M 337.004,585.88 372.057,585.88 z" id="boundary" inkscape:connector-curvature="0" />
	<path style="fill:none;stroke:red;stroke-width:1px;stroke-linecap:butt;stroke-linejoin:miter;stroke-opacity:1" d="M 337.004,876.82 372.057,876.82 z" id="boundary" inkscape:connector-curvature="0" />
	<path style="fill:none;stroke:red;stroke-width:1px;stroke-linecap:butt;stroke-linejoin:miter;stroke-opacity:1" d="M 344.014,729.597 379.067,729.597 z" id="boundary" inkscape:connector-curvature="0" />
	<path style="fill:none;stroke:red;stroke-width:1px;stroke-linecap:butt;stroke-linejoin:miter;stroke-opacity:1" d="M 354.53,617.428 389.583,617.428 z" id="boundary" inkscape:connector-curvature="0" />
	<path style="fill:none;stroke:red;stroke-width:1px;stroke-linecap:butt;stroke-linejoin:miter;stroke-opacity:1" d="M 361.541,4 396.594,4 z" id="boundary" inkscape:connector-curvature="0" />
	<path style="fill:none;stroke:red;stroke-width:1px;stroke-linecap:butt;stroke-linejoin:miter;stroke-opacity:1" d="M 361.541,698.049 396.594,698.049 z" id="boundary" inkscape:connector-curvature="0" />
	<path style="fill:none;stroke:red;stroke-width:1px;stroke-linecap:butt;stroke-linejoin:miter;stroke-opacity:1" d="M 361.541,803.208 389.583,824.24 z" id="boundary" inkscape:connector-curvature="0" />
	<path style="fill:none;stroke:red;stroke-width:1px;stroke-linecap:butt;stroke-linejoin:miter;stroke-opacity:1" d="M 365.046,470.205 400.099,470.205 z" id="boundary" inkscape:connector-curvature="0" />
	<path style="fill:none;stroke:red;stroke-width:1px;stroke-linecap:butt;stroke-linejoin:miter;stroke-opacity:1" d="M 372.057,585.88 407.11,585.88 z" id="boundary" inkscape:connector-curvature="0" />
	<path style="fill:none;stroke:red;stroke-width:1px;stroke-linecap:butt;stroke-linejoin:miter;stroke-opacity:1" d="M 372.057,876.82 407.11,876.82 z" id="boundary" inkscape:connector-curvature="0" />
	<path style="fill:none;stroke:red;stroke-width:1px;stroke-linecap:butt;stroke-linejoin:miter;stroke-opacity:1" d="M 379.067,729.597 414.12,729.597 z" id="boundary" inkscape:connector-curvature="0" />
	<path style="fill:none;stroke:red;stroke-width:1px;stroke-linecap:butt;stroke-linejoin:miter;stroke-opacity:1" d="M 389.583,617.428 424.636,617.428 z" id="boundary" inkscape:connector-curvature="0" />
	<path style="fill:none;stroke:red;stroke-width:1px;stroke-linecap:butt;stroke-linejoin:miter;stroke-opacity:1" d="M 389.583,824.24 417.625,803.208 z" id="boundary" inkscape:connector-curvature="0" />
	<path style="fill:none;stroke:red;stroke-width:1px;stroke-linecap:butt;stroke-linejoin:miter;stroke-opacity:1" d="M 396.594,4 431.647,4 z" id="boundary" inkscape:connector-curvature="0" />
	<path style="fill:none;stroke:red;stroke-width:1px;stroke-linecap:butt;stroke-linejoin:miter;stroke-opacity:1" d="M 396.594,698.049 431.647,698.049 z" id="boundary" inkscape:connector-curvature="0" />
	<path style="fill:none;stroke:red;stroke-width:1px;stroke-linecap:butt;stroke-linejoin:miter;stroke-opacity:1" d="M 400.099,470.205 435.152,470.205 z" id="boundary" inkscape:connector-curvature="0" />
	<path style="fill:none;stroke:red;stroke-width:1px;stroke-linecap:butt;stroke-linejoin:miter;stroke-opacity:1" d="M 407.11,585.88 442.163,585.88 z" id="boundary" inkscape:connector-curvature="0" />
	<path style="fill:none;stroke:red;stroke-width:1px;stroke-linecap:butt;stroke-linejoin:miter;stroke-opacity:1" d="M 407.11,876.82 442.163,876.82 z" id="boundary" inkscape:connector-curvature="0" />
	<path style="fill:none;stroke:red;stroke-width:1px;stroke-linecap:butt;stroke-linejoin:miter;stroke-opacity:1" d="M 414.12,729.597 449.173,729.597 z" id="boundary" inkscape:connector-curvature="0" />
	<path style="fill:none;stroke:red;stroke-width:1px;stroke-linecap:butt;stroke-linejoin:miter;stroke-opacity:1" d="M 417.625,803.208 445.668,824.24 z" id="boundary" inkscape:connector-curvature="0" />
	<path style="fill:none;stroke:red;stroke-width:1px;stroke-linecap:butt;stroke-linejoin:miter;stroke-opacity:1" d="M 424.636,617.428 452.678,638.459 z" id="boundary" inkscape:connector-curvature="0" />
	<path style="fill:none;stroke:red;stroke-width:1px;stroke-linecap:butt;stroke-linejoin:miter;stroke-opacity:1" d="M 431.647,4 466.7,4 z" id="boundary" inkscape:connector-curvature="0" />
	<path style="fill:none;stroke:red;stroke-width:1px;stroke-linecap:butt;stroke-linejoin:miter;stroke-opacity:1" d="M 431.647,698.049 452.678,638.459 z" id="boundary" inkscape:connector-curvature="0" />
	<path style="fill:none;stroke:red;stroke-width:1px;stroke-linecap:butt;stroke-linejoin:miter;stroke-opacity:1" d="M 435.152,470.205 452.678,501.753 z" id="boundary" inkscape:connector-curvature="0" />
	<path style="fill:none;stroke:red;stroke-width:1px;stroke-linecap:butt;stroke-linejoin:miter;stroke-opacity:1" d="M 442.163,585.88 452.678,536.806 z" id="boundary" inkscape:connector-curvature="0" />
	<path style="fill:none;stroke:red;stroke-width:1px;stroke-linecap:butt;stroke-linejoin:miter;stroke-opacity:1" d="M 442.163,876.82 477.216,876.82 z" id="boundary" inkscape:connector-curvature="0" />
	<path style="fill:none;stroke:red;stroke-width:1px;stroke-linecap:butt;stroke-linejoin:miter;stroke-opacity:1" d="M 445.668,824.24 452.678,764.65 z" id="boundary" inkscape:connector-curvature="0" />
	<path style="fill:none;stroke:red;stroke-width:1px;stroke-linecap:butt;stroke-linejoin:miter;stroke-opacity:1" d="M 449.173,729.597 452.678,764.65 z" id="boundary" inkscape:connector-curvature="0" />
	<path style="fill:none;stroke:red;stroke-width:1px;stroke-linecap:butt;stroke-linejoin:miter;stroke-opacity:1" d="M 452.678,501.753 452.678,536.806 z" id="boundary" inkscape:connector-curvature="0" />
	<path style="fill:none;stroke:red;stroke-width:1px;stroke-linecap:butt;stroke-linejoin:miter;stroke-opacity:1" d="M 466.7,4 501.753,4 z" id="boundary" inkscape:connector-curvature="0" />
	<path style="fill:none;stroke:red;stroke-width:1px;stroke-linecap:butt;stroke-linejoin:miter;stroke-opacity:1" d="M 477.216,876.82 512.269,876.82 z" id="boundary" inkscape:connector-curvature="0" />
	<path style="fill:none;stroke:red;stroke-width:1px;stroke-linecap:butt;stroke-linejoin:miter;stroke-opacity:1" d="M 501.753,4 536.806,4 z" id="boundary" inkscape:connector-curvature="0" />
	<path style="fill:none;stroke:red;stroke-width:1px;stroke-linecap:butt;stroke-linejoin:miter;stroke-opacity:1" d="M 512.269,876.82 547.322,876.82 z" id="boundary" inkscape:connector-curvature="0" />
	<path style="fill:none;stroke:red;stroke-width:1px;stroke-linecap:butt;stroke-linejoin:miter;stroke-opacity:1" d="M 536.806,4 571.859,4 z" id="boundary" inkscape:connector-curvature="0" />
	<path style="fill:none;stroke:red;stroke-width:1px;stroke-linecap:butt;stroke-linejoin:miter;stroke-opacity:1" d="M 547.322,876.82 582.375,876.82 z" id="boundary" inkscape:connector-curvature="0" />
	<path style="fill:none;stroke:red;stroke-width:1px;stroke-linecap:butt;stroke-linejoin:miter;stroke-opacity:1" d="M 571.859,4 606.912,4 z" id="boundary" inkscape:connector-curvature="0" />
	<path style="fill:none;stroke:red;stroke-width:1px;stroke-linecap:butt;stroke-linejoin:miter;stroke-opacity:1" d="M 582.375,876.82 617.428,876.82 z" id="boundary" inkscape:connector-curvature="0" />
	<path style="fill:none;stroke:red;stroke-width:1px;stroke-linecap:butt;stroke-linejoin:miter;stroke-opacity:1" d="M 606.912,4 641.965,4 z" id="boundary" inkscape:connector-curvature="0" />
	<path style="fill:none;stroke:red;stroke-width:1px;stroke-linecap:butt;stroke-linejoin:miter;stroke-opacity:1" d="M 617.428,876.82 652.481,876.82 z" id="boundary" inkscape:connector-curvature="0" />
	<path style="fill:none;stroke:red;stroke-width:1px;stroke-linecap:butt;stroke-linejoin:miter;stroke-opacity:1" d="M 641.965,4 677.018,4 z" id="boundary" inkscape:connector-curvature="0" />
	<path style="fill:none;stroke:red;stroke-width:1px;stroke-linecap:butt;stroke-linejoin:miter;stroke-opacity:1" d="M 645.47,473.71 645.47,508.763 z" id="boundary" inkscape:connector-curvature="0" />
	<path style="fill:none;stroke:red;stroke-width:1px;stroke-linecap:butt;stroke-linejoin:miter;stroke-opacity:1" d="M 645.47,473.71 680.523,470.205 z" id="boundary" inkscape:connector-curvature="0" />
	<path style="fill:none;stroke:red;stroke-width:1px;stroke-linecap:butt;stroke-linejoin:miter;stroke-opacity:1" d="M 645.47,508.763 645.47,543.816 z" id="boundary" inkscape:connector-curvature="0" />
	<path style="fill:none;stroke:red;stroke-width:1px;stroke-linecap:butt;stroke-linejoin:miter;stroke-opacity:1" d="M 645.47,543.816 645.47,578.869 z" id="boundary" inkscape:connector-curvature="0" />
	<path style="fill:none;stroke:red;stroke-width:1px;stroke-linecap:butt;stroke-linejoin:miter;stroke-opacity:1" d="M 645.47,578.869 680.523,585.88 z" id="boundary" inkscape:connector-curvature="0" />
	<path style="fill:none;stroke:red;stroke-width:1px;stroke-linecap:butt;stroke-linejoin:miter;stroke-opacity:1" d="M 645.47,620.933 645.47,655.986 z" id="boundary" inkscape:connector-curvature="0" />
	<path style="fill:none;stroke:red;stroke-width:1px;stroke-linecap:butt;stroke-linejoin:miter;stroke-opacity:1" d="M 645.47,620.933 698.049,617.428 z" id="boundary" inkscape:connector-curvature="0" />
	<path style="fill:none;stroke:red;stroke-width:1px;stroke-linecap:butt;stroke-linejoin:miter;stroke-opacity:1" d="M 645.47,655.986 645.47,691.039 z" id="boundary" inkscape:connector-curvature="0" />
	<path style="fill:none;stroke:red;stroke-width:1px;stroke-linecap:butt;stroke-linejoin:miter;stroke-opacity:1" d="M 645.47,691.039 680.523,698.049 z" id="boundary" inkscape:connector-curvature="0" />
	<path style="fill:none;stroke:red;stroke-width:1px;stroke-linecap:butt;stroke-linejoin:miter;stroke-opacity:1" d="M 645.47,733.102 645.47,768.155 z" id="boundary" inkscape:connector-curvature="0" />
	<path style="fill:none;stroke:red;stroke-width:1px;stroke-linecap:butt;stroke-linejoin:miter;stroke-opacity:1" d="M 645.47,733.102 698.049,729.597 z" id="boundary" inkscape:connector-curvature="0" />
	<path style="fill:none;stroke:red;stroke-width:1px;stroke-linecap:butt;stroke-linejoin:miter;stroke-opacity:1" d="M 645.47,768.155 648.975,803.208 z" id="boundary" inkscape:connector-curvature="0" />
	<path style="fill:none;stroke:red;stroke-width:1px;stroke-linecap:butt;stroke-linejoin:miter;stroke-opacity:1" d="M 648.975,803.208 677.018,824.24 z" id="boundary" inkscape:connector-curvature="0" />
	<path style="fill:none;stroke:red;stroke-width:1px;stroke-linecap:butt;stroke-linejoin:miter;stroke-opacity:1" d="M 652.481,876.82 687.534,876.82 z" id="boundary" inkscape:connector-curvature="0" />
	<path style="fill:none;stroke:red;stroke-width:1px;stroke-linecap:butt;stroke-linejoin:miter;stroke-opacity:1" d="M 677.018,4 712.071,4 z" id="boundary" inkscape:connector-curvature="0" />
	<path style="fill:none;stroke:red;stroke-width:1px;stroke-linecap:butt;stroke-linejoin:miter;stroke-opacity:1" d="M 677.018,824.24 705.06,803.208 z" id="boundary" inkscape:connector-curvature="0" />
	<path style="fill:none;stroke:red;stroke-width:1px;stroke-linecap:butt;stroke-linejoin:miter;stroke-opacity:1" d="M 680.523,470.205 715.576,470.205 z" id="boundary" inkscape:connector-curvature="0" />
	<path style="fill:none;stroke:red;stroke-width:1px;stroke-linecap:butt;stroke-linejoin:miter;stroke-opacity:1" d="M 680.523,585.88 715.576,585.88 z" id="boundary" inkscape:connector-curvature="0" />
	<path style="fill:none;stroke:red;stroke-width:1px;stroke-linecap:butt;stroke-linejoin:miter;stroke-opacity:1" d="M 680.523,698.049 715.576,698.049 z" id="boundary" inkscape:connector-curvature="0" />
	<path style="fill:none;stroke:red;stroke-width:1px;stroke-linecap:butt;stroke-linejoin:miter;stroke-opacity:1" d="M 687.534,876.82 722.587,876.82 z" id="boundary" inkscape:connector-curvature="0" />
	<path style="fill:none;stroke:red;stroke-width:1px;stroke-linecap:butt;stroke-linejoin:miter;stroke-opacity:1" d="M 698.049,617.428 733.102,617.428 z" id="boundary" inkscape:connector-curvature="0" />
	<path style="fill:none;stroke:red;stroke-width:1px;stroke-linecap:butt;stroke-linejoin:miter;stroke-opacity:1" d="M 698.049,729.597 733.102,729.597 z" id="boundary" inkscape:connector-curvature="0" />
	<path style="fill:none;stroke:red;stroke-width:1px;stroke-linecap:butt;stroke-linejoin:miter;stroke-opacity:1" d="M 705.06,803.208 733.102,824.24 z" id="boundary" inkscape:connector-curvature="0" />
	<path style="fill:none;stroke:red;stroke-width:1px;stroke-linecap:butt;stroke-linejoin:miter;stroke-opacity:1" d="M 712.071,4 747.124,4 z" id="boundary" inkscape:connector-curvature="0" />
	<path style="fill:none;stroke:red;stroke-width:1px;stroke-linecap:butt;stroke-linejoin:miter;stroke-opacity:1" d="M 715.576,470.205 750.629,470.205 z" id="boundary" inkscape:connector-curvature="0" />
	<path style="fill:none;stroke:red;stroke-width:1px;stroke-linecap:butt;stroke-linejoin:miter;stroke-opacity:1" d="M 715.576,585.88 750.629,585.88 z" id="boundary" inkscape:connector-curvature="0" />
	<path style="fill:none;stroke:red;stroke-width:1px;stroke-linecap:butt;stroke-linejoin:miter;stroke-opacity:1" d="M 715.576,698.049 750.629,698.049 z" id="boundary" inkscape:connector-curvature="0" />
	<path style="fill:none;stroke:red;stroke-width:1px;stroke-linecap:butt;stroke-linejoin:miter;stroke-opacity:1" d="M 722.587,876.82 757.64,876.82 z" id="boundary" inkscape:connector-curvature="0" />
	<path style="fill:none;stroke:red;stroke-width:1px;stroke-linecap:butt;stroke-linejoin:miter;stroke-opacity:1" d="M 733.102,617.428 768.155,617.428 z" id="boundary" inkscape:connector-curvature="0" />
	<path style="fill:none;stroke:red;stroke-width:1px;stroke-linecap:butt;stroke-linejoin:miter;stroke-opacity:1" d="M 733.102,729.597 768.155,729.597 z" id="boundary" inkscape:connector-curvature="0" />
	<path style="fill:none;stroke:red;stroke-width:1px;stroke-linecap:butt;stroke-linejoin:miter;stroke-opacity:1" d="M 733.102,824.24 761.145,803.208 z" id="boundary" inkscape:connector-curvature="0" />
	<path style="fill:none;stroke:red;stroke-width:1px;stroke-linecap:butt;stroke-linejoin:miter;stroke-opacity:1" d="M 747.124,4 782.177,4 z" id="boundary" inkscape:connector-curvature="0" />
	<path style="fill:none;stroke:red;stroke-width:1px;stroke-linecap:butt;stroke-linejoin:miter;stroke-opacity:1" d="M 750.629,470.205 785.682,470.205 z" id="boundary" inkscape:connector-curvature="0" />
	<path style="fill:none;stroke:red;stroke-width:1px;stroke-linecap:butt;stroke-linejoin:miter;stroke-opacity:1" d="M 750.629,585.88 785.682,585.88 z" id="boundary" inkscape:connector-curvature="0" />
	<path style="fill:none;stroke:red;stroke-width:1px;stroke-linecap:butt;stroke-linejoin:miter;stroke-opacity:1" d="M 750.629,698.049 785.682,698.049 z" id="boundary" inkscape:connector-curvature="0" />
	<path style="fill:none;stroke:red;stroke-width:1px;stroke-linecap:butt;stroke-linejoin:miter;stroke-opacity:1" d="M 757.64,876.82 792.693,887.336 z" id="boundary" inkscape:connector-curvature="0" />
	<path style="fill:none;stroke:red;stroke-width:1px;stroke-linecap:butt;stroke-linejoin:miter;stroke-opacity:1" d="M 761.145,803.208 796.198,803.208 z" id="boundary" inkscape:connector-curvature="0" />
	<path style="fill:none;stroke:red;stroke-width:1px;stroke-linecap:butt;stroke-linejoin:miter;stroke-opacity:1" d="M 768.155,617.428 803.208,617.428 z" id="boundary" inkscape:connector-curvature="0" />
	<path style="fill:none;stroke:red;stroke-width:1px;stroke-linecap:butt;stroke-linejoin:miter;stroke-opacity:1" d="M 768.155,729.597 803.208,729.597 z" id="boundary" inkscape:connector-curvature="0" />
	<path style="fill:none;stroke:red;stroke-width:1px;stroke-linecap:butt;stroke-linejoin:miter;stroke-opacity:1" d="M 782.177,4 817.23,4 z" id="boundary" inkscape:connector-curvature="0" />
	<path style="fill:none;stroke:red;stroke-width:1px;stroke-linecap:butt;stroke-linejoin:miter;stroke-opacity:1" d="M 785.682,470.205 820.735,470.205 z" id="boundary" inkscape:connector-curvature="0" />
	<path style="fill:none;stroke:red;stroke-width:1px;stroke-linecap:butt;stroke-linejoin:miter;stroke-opacity:1" d="M 785.682,585.88 820.735,585.88 z" id="boundary" inkscape:connector-curvature="0" />
	<path style="fill:none;stroke:red;stroke-width:1px;stroke-linecap:butt;stroke-linejoin:miter;stroke-opacity:1" d="M 785.682,698.049 820.735,698.049 z" id="boundary" inkscape:connector-curvature="0" />
	<path style="fill:none;stroke:red;stroke-width:1px;stroke-linecap:butt;stroke-linejoin:miter;stroke-opacity:1" d="M 792.693,887.336 827.746,876.82 z" id="boundary" inkscape:connector-curvature="0" />
	<path style="fill:none;stroke:red;stroke-width:1px;stroke-linecap:butt;stroke-linejoin:miter;stroke-opacity:1" d="M 796.198,803.208 831.251,803.208 z" id="boundary" inkscape:connector-curvature="0" />
	<path style="fill:none;stroke:red;stroke-width:1px;stroke-linecap:butt;stroke-linejoin:miter;stroke-opacity:1" d="M 803.208,617.428 838.261,617.428 z" id="boundary" inkscape:connector-curvature="0" />
	<path style="fill:none;stroke:red;stroke-width:1px;stroke-linecap:butt;stroke-linejoin:miter;stroke-opacity:1" d="M 803.208,729.597 838.261,729.597 z" id="boundary" inkscape:connector-curvature="0" />
	<path style="fill:none;stroke:red;stroke-width:1px;stroke-linecap:butt;stroke-linejoin:miter;stroke-opacity:1" d="M 817.23,4 841.767,32.0424 z" id="boundary" inkscape:connector-curvature="0" />
	<path style="fill:none;stroke:red;stroke-width:1px;stroke-linecap:butt;stroke-linejoin:miter;stroke-opacity:1" d="M 820.735,470.205 841.767,417.625 z" id="boundary" inkscape:connector-curvature="0" />
	<path style="fill:none;stroke:red;stroke-width:1px;stroke-linecap:butt;stroke-linejoin:miter;stroke-opacity:1" d="M 820.735,585.88 855.788,585.88 z" id="boundary" inkscape:connector-curvature="0" />
	<path style="fill:none;stroke:red;stroke-width:1px;stroke-linecap:butt;stroke-linejoin:miter;stroke-opacity:1" d="M 820.735,698.049 855.788,698.049 z" id="boundary" inkscape:connector-curvature="0" />
	<path style="fill:none;stroke:red;stroke-width:1px;stroke-linecap:butt;stroke-linejoin:miter;stroke-opacity:1" d="M 827.746,876.82 862.799,876.82 z" id="boundary" inkscape:connector-curvature="0" />
	<path style="fill:none;stroke:red;stroke-width:1px;stroke-linecap:butt;stroke-linejoin:miter;stroke-opacity:1" d="M 831.251,803.208 866.304,803.208 z" id="boundary" inkscape:connector-curvature="0" />
	<path style="fill:none;stroke:red;stroke-width:1px;stroke-linecap:butt;stroke-linejoin:miter;stroke-opacity:1" d="M 838.261,617.428 873.314,617.428 z" id="boundary" inkscape:connector-curvature="0" />
	<path style="fill:none;stroke:red;stroke-width:1px;stroke-linecap:butt;stroke-linejoin:miter;stroke-opacity:1" d="M 838.261,729.597 873.314,729.597 z" id="boundary" inkscape:connector-curvature="0" />
	<path style="fill:none;stroke:red;stroke-width:1px;stroke-linecap:butt;stroke-linejoin:miter;stroke-opacity:1" d="M 841.767,32.0424 841.767,67.0954 z" id="boundary" inkscape:connector-curvature="0" />
	<path style="fill:none;stroke:red;stroke-width:1px;stroke-linecap:butt;stroke-linejoin:miter;stroke-opacity:1" d="M 841.767,67.0954 841.767,102.148 z" id="boundary" inkscape:connector-curvature="0" />
	<path style="fill:none;stroke:red;stroke-width:1px;stroke-linecap:butt;stroke-linejoin:miter;stroke-opacity:1" d="M 841.767,102.148 841.767,137.201 z" id="boundary" inkscape:connector-curvature="0" />
	<path style="fill:none;stroke:red;stroke-width:1px;stroke-linecap:butt;stroke-linejoin:miter;stroke-opacity:1" d="M 841.767,137.201 841.767,172.254 z" id="boundary" inkscape:connector-curvature="0" />
	<path style="fill:none;stroke:red;stroke-width:1px;stroke-linecap:butt;stroke-linejoin:miter;stroke-opacity:1" d="M 841.767,172.254 841.767,207.307 z" id="boundary" inkscape:connector-curvature="0" />
	<path style="fill:none;stroke:red;stroke-width:1px;stroke-linecap:butt;stroke-linejoin:miter;stroke-opacity:1" d="M 841.767,207.307 841.767,242.36 z" id="boundary" inkscape:connector-curvature="0" />
	<path style="fill:none;stroke:red;stroke-width:1px;stroke-linecap:butt;stroke-linejoin:miter;stroke-opacity:1" d="M 841.767,242.36 841.767,277.413 z" id="boundary" inkscape:connector-curvature="0" />
	<path style="fill:none;stroke:red;stroke-width:1px;stroke-linecap:butt;stroke-linejoin:miter;stroke-opacity:1" d="M 841.767,277.413 841.767,312.466 z" id="boundary" inkscape:connector-curvature="0" />
	<path style="fill:none;stroke:red;stroke-width:1px;stroke-linecap:butt;stroke-linejoin:miter;stroke-opacity:1" d="M 841.767,312.466 841.767,347.519 z" id="boundary" inkscape:connector-curvature="0" />
	<path style="fill:none;stroke:red;stroke-width:1px;stroke-linecap:butt;stroke-linejoin:miter;stroke-opacity:1" d="M 841.767,347.519 841.767,382.572 z" id="boundary" inkscape:connector-curvature="0" />
	<path style="fill:none;stroke:red;stroke-width:1px;stroke-linecap:butt;stroke-linejoin:miter;stroke-opacity:1" d="M 841.767,382.572 841.767,417.625 z" id="boundary" inkscape:connector-curvature="0" />
	<path style="fill:none;stroke:red;stroke-width:1px;stroke-linecap:butt;stroke-linejoin:miter;stroke-opacity:1" d="M 855.788,585.88 873.314,617.428 z" id="boundary" inkscape:connector-curvature="0" />
	<path style="fill:none;stroke:red;stroke-width:1px;stroke-linecap:butt;stroke-linejoin:miter;stroke-opacity:1" d="M 855.788,698.049 873.314,729.597 z" id="boundary" inkscape:connector-curvature="0" />
	<path style="fill:none;stroke:red;stroke-width:1px;stroke-linecap:butt;stroke-linejoin:miter;stroke-opacity:1" d="M 862.799,876.82 897.852,876.82 z" id="boundary" inkscape:connector-curvature="0" />
	<path style="fill:none;stroke:red;stroke-width:1px;stroke-linecap:butt;stroke-linejoin:miter;stroke-opacity:1" d="M 866.304,803.208 901.357,803.208 z" id="boundary" inkscape:connector-curvature="0" />
	<path style="fill:none;stroke:red;stroke-width:1px;stroke-linecap:butt;stroke-linejoin:miter;stroke-opacity:1" d="M 897.852,876.82 932.905,876.82 z" id="boundary" inkscape:connector-curvature="0" />
	<path style="fill:none;stroke:red;stroke-width:1px;stroke-linecap:butt;stroke-linejoin:miter;stroke-opacity:1" d="M 901.357,803.208 936.41,803.208 z" id="boundary" inkscape:connector-curvature="0" />
	<path style="fill:none;stroke:red;stroke-width:1px;stroke-linecap:butt;stroke-linejoin:miter;stroke-opacity:1" d="M 932.905,876.82 967.958,880.325 z" id="boundary" inkscape:connector-curvature="0" />
	<path style="fill:none;stroke:red;stroke-width:1px;stroke-linecap:butt;stroke-linejoin:miter;stroke-opacity:1" d="M 936.41,803.208 971.463,803.208 z" id="boundary" inkscape:connector-curvature="0" />
	<path style="fill:none;stroke:red;stroke-width:1px;stroke-linecap:butt;stroke-linejoin:miter;stroke-opacity:1" d="M 967.958,880.325 996,831.251 z" id="boundary" inkscape:connector-curvature="0" />
	<path style="fill:none;stroke:red;stroke-width:1px;stroke-linecap:butt;stroke-linejoin:miter;stroke-opacity:1" d="M 971.463,803.208 996,831.251 z" id="boundary" inkscape:connector-curvature="0" />
	<circle cx="4" cy="810.219" r="4" fill="#0" id="circle0"/>
	<circle cx="4" cy="845.272" r="4" fill="#0" id="circle1"/>
	<circle cx="21.5265" cy="876.82" r="4" fill="#0" id="circle2"/>
	<circle cx="39.053" cy="803.208" r="4" fill="#0" id="circle3"/>
	<circle cx="46.0636" cy="592.89" r="4" fill="#0" id="circle4"/>
	<circle cx="46.0636" cy="698.049" r="4" fill="#0" id="circle5"/>
	<circle cx="56.5795" cy="890.841" r="4" fill="#0" id="circle6"/>
	<circle cx="63.5901" cy="729.597" r="4" fill="#0" id="circle7"/>
	<circle cx="74.106" cy="617.428" r="4" fill="#0" id="circle8"/>
	<circle cx="74.106" cy="803.208" r="4" fill="#0" id="circle9"/>
	<circle cx="81.1166" cy="698.049" r="4" fill="#0" id="circle10"/>
	<circle cx="91.6325" cy="585.88" r="4" fill="#0" id="circle11"/>
	<circle cx="91.6325" cy="876.82" r="4" fill="#0" id="circle12"/>
	<circle cx="98.6431" cy="729.597" r="4" fill="#0" id="circle13"/>
	<circle cx="109.159" cy="617.428" r="4" fill="#0" id="circle14"/>
	<circle cx="109.159" cy="803.208" r="4" fill="#0" id="circle15"/>
	<circle cx="116.17" cy="698.049" r="4" fill="#0" id="circle16"/>
	<circle cx="126.686" cy="585.88" r="4" fill="#0" id="circle17"/>
	<circle cx="126.686" cy="876.82" r="4" fill="#0" id="circle18"/>
	<circle cx="133.696" cy="729.597" r="4" fill="#0" id="circle19"/>
	<circle cx="144.212" cy="617.428" r="4" fill="#0" id="circle20"/>
	<circle cx="144.212" cy="803.208" r="4" fill="#0" id="circle21"/>
	<circle cx="151.223" cy="698.049" r="4" fill="#0" id="circle22"/>
	<circle cx="161.739" cy="585.88" r="4" fill="#0" id="circle23"/>
	<circle cx="161.739" cy="876.82" r="4" fill="#0" id="circle24"/>
	<circle cx="168.749" cy="729.597" r="4" fill="#0" id="circle25"/>
	<circle cx="179.265" cy="617.428" r="4" fill="#0" id="circle26"/>
	<circle cx="179.265" cy="803.208" r="4" fill="#0" id="circle27"/>
	<circle cx="186.276" cy="11.0106" r="4" fill="#0" id="circle28"/>
	<circle cx="186.276" cy="46.0636" r="4" fill="#0" id="circle29"/>
	<circle cx="186.276" cy="81.1166" r="4" fill="#0" id="circle30"/>
	<circle cx="186.276" cy="116.17" r="4" fill="#0" id="circle31"/>
	<circle cx="186.276" cy="151.223" r="4" fill="#0" id="circle32"/>
	<circle cx="186.276" cy="186.276" r="4" fill="#0" id="circle33"/>
	<circle cx="186.276" cy="221.329" r="4" fill="#0" id="circle34"/>
	<circle cx="186.276" cy="256.382" r="4" fill="#0" id="circle35"/>
	<circle cx="186.276" cy="291.435" r="4" fill="#0" id="circle36"/>
	<circle cx="186.276" cy="326.488" r="4" fill="#0" id="circle37"/>
	<circle cx="186.276" cy="361.541" r="4" fill="#0" id="circle38"/>
	<circle cx="186.276" cy="396.594" r="4" fill="#0" id="circle39"/>
	<circle cx="186.276" cy="431.647" r="4" fill="#0" id="circle40"/>
	<circle cx="186.276" cy="698.049" r="4" fill="#0" id="circle41"/>
	<circle cx="189.781" cy="466.7" r="4" fill="#0" id="circle42"/>
	<circle cx="196.792" cy="585.88" r="4" fill="#0" id="circle43"/>
	<circle cx="196.792" cy="876.82" r="4" fill="#0" id="circle44"/>
	<circle cx="203.802" cy="729.597" r="4" fill="#0" id="circle45"/>
	<circle cx="214.318" cy="617.428" r="4" fill="#0" id="circle46"/>
	<circle cx="214.318" cy="803.208" r="4" fill="#0" id="circle47"/>
	<circle cx="221.329" cy="4" r="4" fill="#0" id="circle48"/>
	<circle cx="221.329" cy="698.049" r="4" fill="#0" id="circle49"/>
	<circle cx="224.834" cy="470.205" r="4" fill="#0" id="circle50"/>
	<circle cx="231.845" cy="585.88" r="4" fill="#0" id="circle51"/>
	<circle cx="231.845" cy="876.82" r="4" fill="#0" id="circle52"/>
	<circle cx="238.855" cy="729.597" r="4" fill="#0" id="circle53"/>
	<circle cx="249.371" cy="617.428" r="4" fill="#0" id="circle54"/>
	<circle cx="249.371" cy="803.208" r="4" fill="#0" id="circle55"/>
	<circle cx="256.382" cy="4" r="4" fill="#0" id="circle56"/>
	<circle cx="256.382" cy="698.049" r="4" fill="#0" id="circle57"/>
	<circle cx="259.887" cy="470.205" r="4" fill="#0" id="circle58"/>
	<circle cx="266.898" cy="585.88" r="4" fill="#0" id="circle59"/>
	<circle cx="266.898" cy="876.82" r="4" fill="#0" id="circle60"/>
	<circle cx="273.908" cy="729.597" r="4" fill="#0" id="circle61"/>
	<circle cx="277.413" cy="824.24" r="4" fill="#0" id="circle62"/>
	<circle cx="284.424" cy="617.428" r="4" fill="#0" id="circle63"/>
	<circle cx="291.435" cy="4" r="4" fill="#0" id="circle64"/>
	<circle cx="291.435" cy="698.049" r="4" fill="#0" id="circle65"/>
	<circle cx="294.94" cy="470.205" r="4" fill="#0" id="circle66"/>
	<circle cx="301.951" cy="585.88" r="4" fill="#0" id="circle67"/>
	<circle cx="301.951" cy="876.82" r="4" fill="#0" id="circle68"/>
	<circle cx="305.456" cy="803.208" r="4" fill="#0" id="circle69"/>
	<circle cx="308.961" cy="729.597" r="4" fill="#0" id="circle70"/>
	<circle cx="319.477" cy="617.428" r="4" fill="#0" id="circle71"/>
	<circle cx="326.488" cy="4" r="4" fill="#0" id="circle72"/>
	<circle cx="326.488" cy="698.049" r="4" fill="#0" id="circle73"/>
	<circle cx="329.993" cy="470.205" r="4" fill="#0" id="circle74"/>
	<circle cx="333.498" cy="824.24" r="4" fill="#0" id="circle75"/>
	<circle cx="337.004" cy="585.88" r="4" fill="#0" id="circle76"/>
	<circle cx="337.004" cy="876.82" r="4" fill="#0" id="circle77"/>
	<circle cx="344.014" cy="729.597" r="4" fill="#0" id="circle78"/>
	<circle cx="354.53" cy="617.428" r="4" fill="#0" id="circle79"/>
	<circle cx="361.541" cy="4" r="4" fill="#0" id="circle80"/>
	<circle cx="361.541" cy="698.049" r="4" fill="#0" id="circle81"/>
	<circle cx="361.541" cy="803.208" r="4" fill="#0" id="circle82"/>
	<circle cx="365.046" cy="470.205" r="4" fill="#0" id="circle83"/>
	<circle cx="372.057" cy="585.88" r="4" fill="#0" id="circle84"/>
	<circle cx="372.057" cy="876.82" r="4" fill="#0" id="circle85"/>
	<circle cx="379.067" cy="729.597" r="4" fill="#0" id="circle86"/>
	<circle cx="389.583" cy="617.428" r="4" fill="#0" id="circle87"/>
	<circle cx="389.583" cy="824.24" r="4" fill="#0" id="circle88"/>
	<circle cx="396.594" cy="4" r="4" fill="#0" id="circle89"/>
	<circle cx="396.594" cy="698.049" r="4" fill="#0" id="circle90"/>
	<circle cx="400.099" cy="470.205" r="4" fill="#0" id="circle91"/>
	<circle cx="407.11" cy="585.88" r="4" fill="#0" id="circle92"/>
	<circle cx="407.11" cy="876.82" r="4" fill="#0" id="circle93"/>
	<circle cx="414.12" cy="729.597" r="4" fill="#0" id="circle94"/>
	<circle cx="417.625" cy="803.208" r="4" fill="#0" id="circle95"/>
	<circle cx="424.636" cy="617.428" r="4" fill="#0" id="circle96"/>
	<circle cx="431.647" cy="4" r="4" fill="#0" id="circle97"/>
	<circle cx="431.647" cy="698.049" r="4" fill="#0" id="circle98"/>
	<circle cx="435.152" cy="470.205" r="4" fill="#0" id="circle99"/>
	<circle cx="442.163" cy="585.88" r="4" fill="#0" id="circle100"/>
	<circle cx="442.163" cy="876.82" r="4" fill="#0" id="circle101"/>
	<circle cx="445.668" cy="824.24" r="4" fill="#0" id="circle102"/>
	<circle cx="449.173" cy="729.597" r="4" fill="#0" id="circle103"/>
	<circle cx="452.678" cy="501.753" r="4" fill="#0" id="circle104"/>
	<circle cx="452.678" cy="536.806" r="4" fill="#0" id="circle105"/>
	<circle cx="452.678" cy="638.459" r="4" fill="#0" id="circle106"/>
	<circle cx="452.678" cy="764.65" r="4" fill="#0" id="circle107"/>
	<circle cx="466.7" cy="4" r="4" fill="#0" id="circle108"/>
	<circle cx="477.216" cy="876.82" r="4" fill="#0" id="circle109"/>
	<circle cx="501.753" cy="4" r="4" fill="#0" id="circle110"/>
	<circle cx="512.269" cy="876.82" r="4" fill="#0" id="circle111"/>
	<circle cx="536.806" cy="4" r="4" fill="#0" id="circle112"/>
	<circle cx="547.322" cy="876.82" r="4" fill="#0" id="circle113"/>
	<circle cx="571.859" cy="4" r="4" fill="#0" id="circle114"/>
	<circle cx="582.375" cy="876.82" r="4" fill="#0" id="circle115"/>
	<circle cx="606.912" cy="4" r="4" fill="#0" id="circle116"/>
	<circle cx="617.428" cy="876.82" r="4" fill="#0" id="circle117"/>
	<circle cx="641.965" cy="4" r="4" fill="#0" id="circle118"/>
	<circle cx="645.47" cy="473.71" r="4" fill="#0" id="circle119"/>
	<circle cx="645.47" cy="508.763" r="4" fill="#0" id="circle120"/>
	<circle cx="645.47" cy="543.816" r="4" fill="#0" id="circle121"/>
	<circle cx="645.47" cy="578.869" r="4" fill="#0" id="circle122"/>
	<circle cx="645.47" cy="620.933" r="4" fill="#0" id="circle123"/>
	<circle cx="645.47" cy="655.986" r="4" fill="#0" id="circle124"/>
	<circle cx="645.47" cy="691.039" r="4" fill="#0" id="circle125"/>
	<circle cx="645.47" cy="733.102" r="4" fill="#0" id="circle126"/>
	<circle cx="645.47" cy="768.155" r="4" fill="#0" id="circle127"/>
	<circle cx="648.975" cy="803.208" r="4" fill="#0" id="circle128"/>
	<circle cx="652.481" cy="876.82" r="4" fill="#0" id="circle129"/>
	<circle cx="677.018" cy="4" r="4" fill="#0" id="circle130"/>
	<circle cx="677.018" cy="824.24" r="4" fill="#0" id="circle131"/>
	<circle cx="680.523" cy="470.205" r="4" fill="#0" id="circle132"/>
	<circle cx="680.523" cy="585.88" r="4" fill="#0" id="circle133"/>
	<circle cx="680.523" cy="698.049" r="4" fill="#0" id="circle134"/>
	<circle cx="687.534" cy="876.82" r="4" fill="#0" id="circle135"/>
	<circle cx="698.049" cy="617.428" r="4" fill="#0" id="circle136"/>
	<circle cx="698.049" cy="729.597" r="4" fill="#0" id="circle137"/>
	<circle cx="705.06" cy="803.208" r="4" fill="#0" id="circle138"/>
	<circle cx="712.071" cy="4" r="4" fill="#0" id="circle139"/>
	<circle cx="715.576" cy="470.205" r="4" fill="#0" id="circle140"/>
	<circle cx="715.576" cy="585.88" r="4" fill="#0" id="circle141"/>
	<circle cx="715.576" cy="698.049" r="4" fill="#0" id="circle142"/>
	<circle cx="722.587" cy="876.82" r="4" fill="#0" id="circle143"/>
	<circle cx="733.102" cy="617.428" r="4" fill="#0" id="circle144"/>
	<circle cx="733.102" cy="729.597" r="4" fill="#0" id="circle145"/>
	<circle cx="733.102" cy="824.24" r="4" fill="#0" id="circle146"/>
	<circle cx="747.124" cy="4" r="4" fill="#0" id="circle147"/>
	<circle cx="750.629" cy="470.205" r="4" fill="#0" id="circle148"/>
	<circle cx="750.629" cy="585.88" r="4" fill="#0" id="circle149"/>
	<circle cx="750.629" cy="698.049" r="4" fill="#0" id="circle150"/>
	<circle cx="757.64" cy="876.82" r="4" fill="#0" id="circle151"/>
	<circle cx="761.145" cy="803.208" r="4" fill="#0" id="circle152"/>
	<circle cx="768.155" cy="617.428" r="4" fill="#0" id="circle153"/>
	<circle cx="768.155" cy="729.597" r="4" fill="#0" id="circle154"/>
	<circle cx="782.177" cy="4" r="4" fill="#0" id="circle155"/>
	<circle cx="785.682" cy="470.205" r="4" fill="#0" id="circle156"/>
	<circle cx="785.682" cy="585.88" r="4" fill="#0" id="circle157"/>
	<circle cx="785.682" cy="698.049" r="4" fill="#0" id="circle158"/>
	<circle cx="792.693" cy="887.336" r="4" fill="#0" id="circle159"/>
	<circle cx="796.198" cy="803.208" r="4" fill="#0" id="circle160"/>
	<circle cx="803.208" cy="617.428" r="4" fill="#0" id="circle161"/>
	<circle cx="803.208" cy="729.597" r="4" fill="#0" id="circle162"/>
	<circle cx="817.23" cy="4" r="4" fill="#0" id="circle163"/>
	<circle cx="820.735" cy="470.205" r="4" fill="#0" id="circle164"/>
	<circle cx="820.735" cy="585.88" r="4" fill="#0" id="circle165"/>
	<circle cx="820.735" cy="698.049" r="4" fill="#0" id="circle166"/>
	<circle cx="827.746" cy="876.82" r="4" fill="#0" id="circle167"/>
	<circle cx="831.251" cy="803.208" r="4" fill="#0" id="circle168"/>
	<circle cx="838.261" cy="617.428" r="4" fill="#0" id="circle169"/>
	<circle cx="838.261" cy="729.597" r="4" fill="#0" id="circle170"/>
	<circle cx="841.767" cy="32.0424" r="4" fill="#0" id="circle171"/>
	<circle cx="841.767" cy="67.0954" r="4" fill="#0" id="circle172"/>
	<circle cx="841.767" cy="102.148" r="4" fill="#0" id="circle173"/>
	<circle cx="841.767" cy="137.201" r="4" fill="#0" id="circle174"/>
	<circle cx="841.767" cy="172.254" r="4" fill="#0" id="circle175"/>
	<circle cx="841.767" cy="207.307" r="4" fill="#0" id="circle176"/>
	<circle cx="841.767" cy="242.36" r="4" fill="#0" id="circle177"/>
	<circle cx="841.767" cy="277.413" r="4" fill="#0" id="circle178"/>
	<circle cx="841.767" cy="312.466" r="4" fill="#0" id="circle179"/>
	<circle cx="841.767" cy="347.519" r="4" fill="#0" id="circle180"/>
	<circle cx="841.767" cy="382.572" r="4" fill="#0" id="circle181"/>
	<circle cx="841.767" cy="417.625" r="4" fill="#0" id="circle182"/>
	<circle cx="855.788" cy="585.88" r="4" fill="#0" id="circle183"/>
	<circle cx="855.788" cy="698.049" r="4" fill="#0" id="circle184"/>
	<circle cx="862.799" cy="876.82" r="4" fill="#0" id="circle185"/>
	<circle cx="866.304" cy="803.208" r="4" fill="#0" id="circle186"/>
	<circle cx="873.314" cy="617.428" r="4" fill="#0" id="circle187"/>
	<circle cx="873.314" cy="729.597" r="4" fill="#0" id="circle188"/>
	<circle cx="897.852" cy="876.82" r="4" fill="#0" id="circle189"/>
	<circle cx="901.357" cy="803.208" r="4" fill="#0" id="circle190"/>
	<circle cx="932.905" cy="876.82" r="4" fill="#0" id="circle191"/>
	<circle cx="936.41" cy="803.208" r="4" fill="#0" id="circle192"/>
	<circle cx="967.958" cy="880.325" r="4" fill="#0" id="circle193"/>
	<circle cx="971.463" cy="803.208" r="4" fill="#0" id="circle194"/>
	<circle cx="996" cy="831.251" r="4" fill="#0" id="circle195"/>
	</g>
</svg>