<?xml version="1.0" encoding="UTF-8" standalone="no"?>
<!-- Created with CurveBenchmark -->
<svg
	xmlns:dc="http://purl.org/dc/elements/1.1/"
	xmlns:cc="http://creativecommons.org/ns#"
	xmlns:rdf="http://www.w3.org/1999/02/22-rdf-syntax-ns#"
	xmlns:svg="http://www.w3.org/2000/svg"
	xmlns="http://www.w3.org/2000/svg"
	xmlns:sodipodi="http://sodipodi.sourceforge.net/DTD/sodipodi-0.dtd"
	xmlns:inkscape="http://www.inkscape.org/namespaces/inkscape"
	width="1000"
	height="1000"
	id="svg2"
	version="1.1"
	sodipodi:docname="manifold/discur-fgen3bp.png.txt">
<defs
	id="defs4" />
<metadata
	id="metadata7">
	<rdf:RDF>
		<cc:Work
			rdf:about="">
			<dc:format>image/svg+xml</dc:format>
			<dc:type
				rdf:resource="http://purl.org/dc/dcmitype/StillImage" />
			<dc:title></dc:title>
		</cc:Work>
	</rdf:RDF>
</metadata>
<g
	inkscape:label="Layer 1"
	inkscape:groupmode="layer"
	id="layer1">
	<path style="fill:none;stroke:red;stroke-width:1px;stroke-linecap:butt;stroke-linejoin:miter;stroke-opacity:1" d="M 4,644.783 4,663.465 z" id="boundary" inkscape:connector-curvature="0" />
	<path style="fill:none;stroke:red;stroke-width:1px;stroke-linecap:butt;stroke-linejoin:miter;stroke-opacity:1" d="M 4,644.783 13.3409,626.102 z" id="boundary" inkscape:connector-curvature="0" />
	<path style="fill:none;stroke:red;stroke-width:1px;stroke-linecap:butt;stroke-linejoin:miter;stroke-opacity:1" d="M 4,663.465 4,682.147 z" id="boundary" inkscape:connector-curvature="0" />
	<path style="fill:none;stroke:red;stroke-width:1px;stroke-linecap:butt;stroke-linejoin:miter;stroke-opacity:1" d="M 4,682.147 4,700.829 z" id="boundary" inkscape:connector-curvature="0" />
	<path style="fill:none;stroke:red;stroke-width:1px;stroke-linecap:butt;stroke-linejoin:miter;stroke-opacity:1" d="M 4,700.829 18.9454,713.906 z" id="boundary" inkscape:connector-curvature="0" />
	<path style="fill:none;stroke:red;stroke-width:1px;stroke-linecap:butt;stroke-linejoin:miter;stroke-opacity:1" d="M 13.3409,140.377 13.3409,159.058 z" id="boundary" inkscape:connector-curvature="0" />
	<path style="fill:none;stroke:red;stroke-width:1px;stroke-linecap:butt;stroke-linejoin:miter;stroke-opacity:1" d="M 13.3409,140.377 22.6817,121.695 z" id="boundary" inkscape:connector-curvature="0" />
	<path style="fill:none;stroke:red;stroke-width:1px;stroke-linecap:butt;stroke-linejoin:miter;stroke-opacity:1" d="M 13.3409,159.058 24.5499,174.004 z" id="boundary" inkscape:connector-curvature="0" />
	<path style="fill:none;stroke:red;stroke-width:1px;stroke-linecap:butt;stroke-linejoin:miter;stroke-opacity:1" d="M 13.3409,626.102 28.2863,611.156 z" id="boundary" inkscape:connector-curvature="0" />
	<path style="fill:none;stroke:red;stroke-width:1px;stroke-linecap:butt;stroke-linejoin:miter;stroke-opacity:1" d="M 18.9454,713.906 37.6271,715.774 z" id="boundary" inkscape:connector-curvature="0" />
	<path style="fill:none;stroke:red;stroke-width:1px;stroke-linecap:butt;stroke-linejoin:miter;stroke-opacity:1" d="M 22.6817,121.695 32.0226,103.013 z" id="boundary" inkscape:connector-curvature="0" />
	<path style="fill:none;stroke:red;stroke-width:1px;stroke-linecap:butt;stroke-linejoin:miter;stroke-opacity:1" d="M 24.5499,174.004 41.3635,183.345 z" id="boundary" inkscape:connector-curvature="0" />
	<path style="fill:none;stroke:red;stroke-width:1px;stroke-linecap:butt;stroke-linejoin:miter;stroke-opacity:1" d="M 28.2863,611.156 37.6271,592.475 z" id="boundary" inkscape:connector-curvature="0" />
	<path style="fill:none;stroke:red;stroke-width:1px;stroke-linecap:butt;stroke-linejoin:miter;stroke-opacity:1" d="M 32.0226,103.013 46.968,88.0678 z" id="boundary" inkscape:connector-curvature="0" />
	<path style="fill:none;stroke:red;stroke-width:1px;stroke-linecap:butt;stroke-linejoin:miter;stroke-opacity:1" d="M 37.6271,592.475 52.5725,577.529 z" id="boundary" inkscape:connector-curvature="0" />
	<path style="fill:none;stroke:red;stroke-width:1px;stroke-linecap:butt;stroke-linejoin:miter;stroke-opacity:1" d="M 37.6271,715.774 54.4407,706.433 z" id="boundary" inkscape:connector-curvature="0" />
	<path style="fill:none;stroke:red;stroke-width:1px;stroke-linecap:butt;stroke-linejoin:miter;stroke-opacity:1" d="M 41.3635,183.345 58.177,192.685 z" id="boundary" inkscape:connector-curvature="0" />
	<path style="fill:none;stroke:red;stroke-width:1px;stroke-linecap:butt;stroke-linejoin:miter;stroke-opacity:1" d="M 46.968,88.0678 65.6497,78.7269 z" id="boundary" inkscape:connector-curvature="0" />
	<path style="fill:none;stroke:red;stroke-width:1px;stroke-linecap:butt;stroke-linejoin:miter;stroke-opacity:1" d="M 52.5725,577.529 67.5179,564.452 z" id="boundary" inkscape:connector-curvature="0" />
	<path style="fill:none;stroke:red;stroke-width:1px;stroke-linecap:butt;stroke-linejoin:miter;stroke-opacity:1" d="M 54.4407,706.433 71.2542,697.092 z" id="boundary" inkscape:connector-curvature="0" />
	<path style="fill:none;stroke:red;stroke-width:1px;stroke-linecap:butt;stroke-linejoin:miter;stroke-opacity:1" d="M 58.177,192.685 76.8588,192.685 z" id="boundary" inkscape:connector-curvature="0" />
	<path style="fill:none;stroke:red;stroke-width:1px;stroke-linecap:butt;stroke-linejoin:miter;stroke-opacity:1" d="M 65.6497,78.7269 84.3315,69.3861 z" id="boundary" inkscape:connector-curvature="0" />
	<path style="fill:none;stroke:red;stroke-width:1px;stroke-linecap:butt;stroke-linejoin:miter;stroke-opacity:1" d="M 67.5179,564.452 80.5951,549.507 z" id="boundary" inkscape:connector-curvature="0" />
	<path style="fill:none;stroke:red;stroke-width:1px;stroke-linecap:butt;stroke-linejoin:miter;stroke-opacity:1" d="M 69.3861,373.898 69.3861,392.58 z" id="boundary" inkscape:connector-curvature="0" />
	<path style="fill:none;stroke:red;stroke-width:1px;stroke-linecap:butt;stroke-linejoin:miter;stroke-opacity:1" d="M 69.3861,373.898 78.7269,355.217 z" id="boundary" inkscape:connector-curvature="0" />
	<path style="fill:none;stroke:red;stroke-width:1px;stroke-linecap:butt;stroke-linejoin:miter;stroke-opacity:1" d="M 69.3861,392.58 69.3861,411.262 z" id="boundary" inkscape:connector-curvature="0" />
	<path style="fill:none;stroke:red;stroke-width:1px;stroke-linecap:butt;stroke-linejoin:miter;stroke-opacity:1" d="M 69.3861,411.262 69.3861,429.944 z" id="boundary" inkscape:connector-curvature="0" />
	<path style="fill:none;stroke:red;stroke-width:1px;stroke-linecap:butt;stroke-linejoin:miter;stroke-opacity:1" d="M 69.3861,429.944 78.7269,446.757 z" id="boundary" inkscape:connector-curvature="0" />
	<path style="fill:none;stroke:red;stroke-width:1px;stroke-linecap:butt;stroke-linejoin:miter;stroke-opacity:1" d="M 71.2542,697.092 86.1996,684.015 z" id="boundary" inkscape:connector-curvature="0" />
	<path style="fill:none;stroke:red;stroke-width:1px;stroke-linecap:butt;stroke-linejoin:miter;stroke-opacity:1" d="M 76.8588,192.685 93.6723,183.345 z" id="boundary" inkscape:connector-curvature="0" />
	<path style="fill:none;stroke:red;stroke-width:1px;stroke-linecap:butt;stroke-linejoin:miter;stroke-opacity:1" d="M 78.7269,336.535 78.7269,355.217 z" id="boundary" inkscape:connector-curvature="0" />
	<path style="fill:none;stroke:red;stroke-width:1px;stroke-linecap:butt;stroke-linejoin:miter;stroke-opacity:1" d="M 78.7269,336.535 88.0678,317.853 z" id="boundary" inkscape:connector-curvature="0" />
	<path style="fill:none;stroke:red;stroke-width:1px;stroke-linecap:butt;stroke-linejoin:miter;stroke-opacity:1" d="M 78.7269,446.757 78.7269,465.439 z" id="boundary" inkscape:connector-curvature="0" />
	<path style="fill:none;stroke:red;stroke-width:1px;stroke-linecap:butt;stroke-linejoin:miter;stroke-opacity:1" d="M 78.7269,465.439 88.0678,482.252 z" id="boundary" inkscape:connector-curvature="0" />
	<path style="fill:none;stroke:red;stroke-width:1px;stroke-linecap:butt;stroke-linejoin:miter;stroke-opacity:1" d="M 80.5951,549.507 89.936,530.825 z" id="boundary" inkscape:connector-curvature="0" />
	<path style="fill:none;stroke:red;stroke-width:1px;stroke-linecap:butt;stroke-linejoin:miter;stroke-opacity:1" d="M 84.3315,69.3861 103.013,60.0452 z" id="boundary" inkscape:connector-curvature="0" />
	<path style="fill:none;stroke:red;stroke-width:1px;stroke-linecap:butt;stroke-linejoin:miter;stroke-opacity:1" d="M 86.1996,684.015 99.2768,669.07 z" id="boundary" inkscape:connector-curvature="0" />
	<path style="fill:none;stroke:red;stroke-width:1px;stroke-linecap:butt;stroke-linejoin:miter;stroke-opacity:1" d="M 88.0678,317.853 97.4087,289.831 z" id="boundary" inkscape:connector-curvature="0" />
	<path style="fill:none;stroke:red;stroke-width:1px;stroke-linecap:butt;stroke-linejoin:miter;stroke-opacity:1" d="M 88.0678,482.252 93.6723,500.934 z" id="boundary" inkscape:connector-curvature="0" />
	<path style="fill:none;stroke:red;stroke-width:1px;stroke-linecap:butt;stroke-linejoin:miter;stroke-opacity:1" d="M 89.936,530.825 93.6723,500.934 z" id="boundary" inkscape:connector-curvature="0" />
	<path style="fill:none;stroke:red;stroke-width:1px;stroke-linecap:butt;stroke-linejoin:miter;stroke-opacity:1" d="M 93.6723,183.345 110.486,174.004 z" id="boundary" inkscape:connector-curvature="0" />
	<path style="fill:none;stroke:red;stroke-width:1px;stroke-linecap:butt;stroke-linejoin:miter;stroke-opacity:1" d="M 97.4087,252.467 97.4087,271.149 z" id="boundary" inkscape:connector-curvature="0" />
	<path style="fill:none;stroke:red;stroke-width:1px;stroke-linecap:butt;stroke-linejoin:miter;stroke-opacity:1" d="M 97.4087,252.467 106.75,224.444 z" id="boundary" inkscape:connector-curvature="0" />
	<path style="fill:none;stroke:red;stroke-width:1px;stroke-linecap:butt;stroke-linejoin:miter;stroke-opacity:1" d="M 97.4087,271.149 97.4087,289.831 z" id="boundary" inkscape:connector-curvature="0" />
	<path style="fill:none;stroke:red;stroke-width:1px;stroke-linecap:butt;stroke-linejoin:miter;stroke-opacity:1" d="M 99.2768,669.07 114.222,655.992 z" id="boundary" inkscape:connector-curvature="0" />
	<path style="fill:none;stroke:red;stroke-width:1px;stroke-linecap:butt;stroke-linejoin:miter;stroke-opacity:1" d="M 103.013,60.0452 121.695,60.0452 z" id="boundary" inkscape:connector-curvature="0" />
	<path style="fill:none;stroke:red;stroke-width:1px;stroke-linecap:butt;stroke-linejoin:miter;stroke-opacity:1" d="M 106.75,224.444 116.09,205.763 z" id="boundary" inkscape:connector-curvature="0" />
	<path style="fill:none;stroke:red;stroke-width:1px;stroke-linecap:butt;stroke-linejoin:miter;stroke-opacity:1" d="M 110.486,174.004 127.299,164.663 z" id="boundary" inkscape:connector-curvature="0" />
	<path style="fill:none;stroke:red;stroke-width:1px;stroke-linecap:butt;stroke-linejoin:miter;stroke-opacity:1" d="M 114.222,655.992 127.299,631.706 z" id="boundary" inkscape:connector-curvature="0" />
	<path style="fill:none;stroke:red;stroke-width:1px;stroke-linecap:butt;stroke-linejoin:miter;stroke-opacity:1" d="M 116.09,205.763 125.431,187.081 z" id="boundary" inkscape:connector-curvature="0" />
	<path style="fill:none;stroke:red;stroke-width:1px;stroke-linecap:butt;stroke-linejoin:miter;stroke-opacity:1" d="M 121.695,60.0452 138.508,50.7043 z" id="boundary" inkscape:connector-curvature="0" />
	<path style="fill:none;stroke:red;stroke-width:1px;stroke-linecap:butt;stroke-linejoin:miter;stroke-opacity:1" d="M 125.431,187.081 127.299,164.663 z" id="boundary" inkscape:connector-curvature="0" />
	<path style="fill:none;stroke:red;stroke-width:1px;stroke-linecap:butt;stroke-linejoin:miter;stroke-opacity:1" d="M 127.299,631.706 136.64,613.024 z" id="boundary" inkscape:connector-curvature="0" />
	<path style="fill:none;stroke:red;stroke-width:1px;stroke-linecap:butt;stroke-linejoin:miter;stroke-opacity:1" d="M 134.772,850.282 134.772,868.964 z" id="boundary" inkscape:connector-curvature="0" />
	<path style="fill:none;stroke:red;stroke-width:1px;stroke-linecap:butt;stroke-linejoin:miter;stroke-opacity:1" d="M 134.772,850.282 144.113,831.601 z" id="boundary" inkscape:connector-curvature="0" />
	<path style="fill:none;stroke:red;stroke-width:1px;stroke-linecap:butt;stroke-linejoin:miter;stroke-opacity:1" d="M 134.772,868.964 134.772,887.646 z" id="boundary" inkscape:connector-curvature="0" />
	<path style="fill:none;stroke:red;stroke-width:1px;stroke-linecap:butt;stroke-linejoin:miter;stroke-opacity:1" d="M 134.772,887.646 144.113,904.46 z" id="boundary" inkscape:connector-curvature="0" />
	<path style="fill:none;stroke:red;stroke-width:1px;stroke-linecap:butt;stroke-linejoin:miter;stroke-opacity:1" d="M 136.64,613.024 155.322,616.761 z" id="boundary" inkscape:connector-curvature="0" />
	<path style="fill:none;stroke:red;stroke-width:1px;stroke-linecap:butt;stroke-linejoin:miter;stroke-opacity:1" d="M 138.508,50.7043 155.322,41.3635 z" id="boundary" inkscape:connector-curvature="0" />
	<path style="fill:none;stroke:red;stroke-width:1px;stroke-linecap:butt;stroke-linejoin:miter;stroke-opacity:1" d="M 144.113,831.601 153.454,812.919 z" id="boundary" inkscape:connector-curvature="0" />
	<path style="fill:none;stroke:red;stroke-width:1px;stroke-linecap:butt;stroke-linejoin:miter;stroke-opacity:1" d="M 144.113,904.46 157.19,919.405 z" id="boundary" inkscape:connector-curvature="0" />
	<path style="fill:none;stroke:red;stroke-width:1px;stroke-linecap:butt;stroke-linejoin:miter;stroke-opacity:1" d="M 153.454,812.919 168.399,797.974 z" id="boundary" inkscape:connector-curvature="0" />
	<path style="fill:none;stroke:red;stroke-width:1px;stroke-linecap:butt;stroke-linejoin:miter;stroke-opacity:1" d="M 155.322,41.3635 174.004,41.3635 z" id="boundary" inkscape:connector-curvature="0" />
	<path style="fill:none;stroke:red;stroke-width:1px;stroke-linecap:butt;stroke-linejoin:miter;stroke-opacity:1" d="M 155.322,616.761 162.795,635.443 z" id="boundary" inkscape:connector-curvature="0" />
	<path style="fill:none;stroke:red;stroke-width:1px;stroke-linecap:butt;stroke-linejoin:miter;stroke-opacity:1" d="M 157.19,919.405 172.136,930.614 z" id="boundary" inkscape:connector-curvature="0" />
	<path style="fill:none;stroke:red;stroke-width:1px;stroke-linecap:butt;stroke-linejoin:miter;stroke-opacity:1" d="M 162.795,635.443 177.74,648.52 z" id="boundary" inkscape:connector-curvature="0" />
	<path style="fill:none;stroke:red;stroke-width:1px;stroke-linecap:butt;stroke-linejoin:miter;stroke-opacity:1" d="M 168.399,797.974 177.74,779.292 z" id="boundary" inkscape:connector-curvature="0" />
	<path style="fill:none;stroke:red;stroke-width:1px;stroke-linecap:butt;stroke-linejoin:miter;stroke-opacity:1" d="M 172.136,930.614 183.345,945.559 z" id="boundary" inkscape:connector-curvature="0" />
	<path style="fill:none;stroke:red;stroke-width:1px;stroke-linecap:butt;stroke-linejoin:miter;stroke-opacity:1" d="M 174.004,41.3635 192.685,35.7589 z" id="boundary" inkscape:connector-curvature="0" />
	<path style="fill:none;stroke:red;stroke-width:1px;stroke-linecap:butt;stroke-linejoin:miter;stroke-opacity:1" d="M 177.74,648.52 185.213,667.202 z" id="boundary" inkscape:connector-curvature="0" />
	<path style="fill:none;stroke:red;stroke-width:1px;stroke-linecap:butt;stroke-linejoin:miter;stroke-opacity:1" d="M 177.74,779.292 187.081,760.61 z" id="boundary" inkscape:connector-curvature="0" />
	<path style="fill:none;stroke:red;stroke-width:1px;stroke-linecap:butt;stroke-linejoin:miter;stroke-opacity:1" d="M 183.345,945.559 198.29,958.637 z" id="boundary" inkscape:connector-curvature="0" />
	<path style="fill:none;stroke:red;stroke-width:1px;stroke-linecap:butt;stroke-linejoin:miter;stroke-opacity:1" d="M 185.213,667.202 200.158,678.411 z" id="boundary" inkscape:connector-curvature="0" />
	<path style="fill:none;stroke:red;stroke-width:1px;stroke-linecap:butt;stroke-linejoin:miter;stroke-opacity:1" d="M 187.081,760.61 190.817,738.192 z" id="boundary" inkscape:connector-curvature="0" />
	<path style="fill:none;stroke:red;stroke-width:1px;stroke-linecap:butt;stroke-linejoin:miter;stroke-opacity:1" d="M 190.817,738.192 200.158,715.774 z" id="boundary" inkscape:connector-curvature="0" />
	<path style="fill:none;stroke:red;stroke-width:1px;stroke-linecap:butt;stroke-linejoin:miter;stroke-opacity:1" d="M 192.685,35.7589 211.367,32.0226 z" id="boundary" inkscape:connector-curvature="0" />
	<path style="fill:none;stroke:red;stroke-width:1px;stroke-linecap:butt;stroke-linejoin:miter;stroke-opacity:1" d="M 198.29,958.637 215.104,967.977 z" id="boundary" inkscape:connector-curvature="0" />
	<path style="fill:none;stroke:red;stroke-width:1px;stroke-linecap:butt;stroke-linejoin:miter;stroke-opacity:1" d="M 200.158,678.411 200.158,697.092 z" id="boundary" inkscape:connector-curvature="0" />
	<path style="fill:none;stroke:red;stroke-width:1px;stroke-linecap:butt;stroke-linejoin:miter;stroke-opacity:1" d="M 200.158,697.092 200.158,715.774 z" id="boundary" inkscape:connector-curvature="0" />
	<path style="fill:none;stroke:red;stroke-width:1px;stroke-linecap:butt;stroke-linejoin:miter;stroke-opacity:1" d="M 211.367,32.0226 230.049,32.0226 z" id="boundary" inkscape:connector-curvature="0" />
	<path style="fill:none;stroke:red;stroke-width:1px;stroke-linecap:butt;stroke-linejoin:miter;stroke-opacity:1" d="M 215.104,967.977 233.785,975.45 z" id="boundary" inkscape:connector-curvature="0" />
	<path style="fill:none;stroke:red;stroke-width:1px;stroke-linecap:butt;stroke-linejoin:miter;stroke-opacity:1" d="M 230.049,32.0226 248.731,26.4181 z" id="boundary" inkscape:connector-curvature="0" />
	<path style="fill:none;stroke:red;stroke-width:1px;stroke-linecap:butt;stroke-linejoin:miter;stroke-opacity:1" d="M 233.785,975.45 250.599,984.791 z" id="boundary" inkscape:connector-curvature="0" />
	<path style="fill:none;stroke:red;stroke-width:1px;stroke-linecap:butt;stroke-linejoin:miter;stroke-opacity:1" d="M 248.731,26.4181 267.412,22.6817 z" id="boundary" inkscape:connector-curvature="0" />
	<path style="fill:none;stroke:red;stroke-width:1px;stroke-linecap:butt;stroke-linejoin:miter;stroke-opacity:1" d="M 250.599,984.791 269.281,986.659 z" id="boundary" inkscape:connector-curvature="0" />
	<path style="fill:none;stroke:red;stroke-width:1px;stroke-linecap:butt;stroke-linejoin:miter;stroke-opacity:1" d="M 267.412,22.6817 286.094,17.0772 z" id="boundary" inkscape:connector-curvature="0" />
	<path style="fill:none;stroke:red;stroke-width:1px;stroke-linecap:butt;stroke-linejoin:miter;stroke-opacity:1" d="M 269.281,986.659 287.962,992.264 z" id="boundary" inkscape:connector-curvature="0" />
	<path style="fill:none;stroke:red;stroke-width:1px;stroke-linecap:butt;stroke-linejoin:miter;stroke-opacity:1" d="M 286.094,17.0772 304.776,13.3409 z" id="boundary" inkscape:connector-curvature="0" />
	<path style="fill:none;stroke:red;stroke-width:1px;stroke-linecap:butt;stroke-linejoin:miter;stroke-opacity:1" d="M 287.962,992.264 306.644,996 z" id="boundary" inkscape:connector-curvature="0" />
	<path style="fill:none;stroke:red;stroke-width:1px;stroke-linecap:butt;stroke-linejoin:miter;stroke-opacity:1" d="M 304.776,13.3409 321.589,4 z" id="boundary" inkscape:connector-curvature="0" />
	<path style="fill:none;stroke:red;stroke-width:1px;stroke-linecap:butt;stroke-linejoin:miter;stroke-opacity:1" d="M 306.644,996 325.326,996 z" id="boundary" inkscape:connector-curvature="0" />
	<path style="fill:none;stroke:red;stroke-width:1px;stroke-linecap:butt;stroke-linejoin:miter;stroke-opacity:1" d="M 321.589,4 340.271,4 z" id="boundary" inkscape:connector-curvature="0" />
	<path style="fill:none;stroke:red;stroke-width:1px;stroke-linecap:butt;stroke-linejoin:miter;stroke-opacity:1" d="M 325.326,996 344.008,996 z" id="boundary" inkscape:connector-curvature="0" />
	<path style="fill:none;stroke:red;stroke-width:1px;stroke-linecap:butt;stroke-linejoin:miter;stroke-opacity:1" d="M 340.271,4 358.953,4 z" id="boundary" inkscape:connector-curvature="0" />
	<path style="fill:none;stroke:red;stroke-width:1px;stroke-linecap:butt;stroke-linejoin:miter;stroke-opacity:1" d="M 344.008,996 362.689,996 z" id="boundary" inkscape:connector-curvature="0" />
	<path style="fill:none;stroke:red;stroke-width:1px;stroke-linecap:butt;stroke-linejoin:miter;stroke-opacity:1" d="M 358.953,4 377.635,4 z" id="boundary" inkscape:connector-curvature="0" />
	<path style="fill:none;stroke:red;stroke-width:1px;stroke-linecap:butt;stroke-linejoin:miter;stroke-opacity:1" d="M 362.689,996 381.371,996 z" id="boundary" inkscape:connector-curvature="0" />
	<path style="fill:none;stroke:red;stroke-width:1px;stroke-linecap:butt;stroke-linejoin:miter;stroke-opacity:1" d="M 377.635,4 396.316,4 z" id="boundary" inkscape:connector-curvature="0" />
	<path style="fill:none;stroke:red;stroke-width:1px;stroke-linecap:butt;stroke-linejoin:miter;stroke-opacity:1" d="M 381.371,996 400.053,996 z" id="boundary" inkscape:connector-curvature="0" />
	<path style="fill:none;stroke:red;stroke-width:1px;stroke-linecap:butt;stroke-linejoin:miter;stroke-opacity:1" d="M 396.316,4 414.998,7.73635 z" id="boundary" inkscape:connector-curvature="0" />
	<path style="fill:none;stroke:red;stroke-width:1px;stroke-linecap:butt;stroke-linejoin:miter;stroke-opacity:1" d="M 400.053,996 418.734,996 z" id="boundary" inkscape:connector-curvature="0" />
	<path style="fill:none;stroke:red;stroke-width:1px;stroke-linecap:butt;stroke-linejoin:miter;stroke-opacity:1" d="M 414.998,7.73635 433.68,13.3409 z" id="boundary" inkscape:connector-curvature="0" />
	<path style="fill:none;stroke:red;stroke-width:1px;stroke-linecap:butt;stroke-linejoin:miter;stroke-opacity:1" d="M 418.734,996 437.416,996 z" id="boundary" inkscape:connector-curvature="0" />
	<path style="fill:none;stroke:red;stroke-width:1px;stroke-linecap:butt;stroke-linejoin:miter;stroke-opacity:1" d="M 433.68,13.3409 452.362,17.0772 z" id="boundary" inkscape:connector-curvature="0" />
	<path style="fill:none;stroke:red;stroke-width:1px;stroke-linecap:butt;stroke-linejoin:miter;stroke-opacity:1" d="M 437.416,996 454.23,986.659 z" id="boundary" inkscape:connector-curvature="0" />
	<path style="fill:none;stroke:red;stroke-width:1px;stroke-linecap:butt;stroke-linejoin:miter;stroke-opacity:1" d="M 452.362,17.0772 471.043,22.6817 z" id="boundary" inkscape:connector-curvature="0" />
	<path style="fill:none;stroke:red;stroke-width:1px;stroke-linecap:butt;stroke-linejoin:miter;stroke-opacity:1" d="M 454.23,986.659 472.911,986.659 z" id="boundary" inkscape:connector-curvature="0" />
	<path style="fill:none;stroke:red;stroke-width:1px;stroke-linecap:butt;stroke-linejoin:miter;stroke-opacity:1" d="M 471.043,22.6817 487.857,32.0226 z" id="boundary" inkscape:connector-curvature="0" />
	<path style="fill:none;stroke:red;stroke-width:1px;stroke-linecap:butt;stroke-linejoin:miter;stroke-opacity:1" d="M 472.911,986.659 489.725,977.318 z" id="boundary" inkscape:connector-curvature="0" />
	<path style="fill:none;stroke:red;stroke-width:1px;stroke-linecap:butt;stroke-linejoin:miter;stroke-opacity:1" d="M 487.857,32.0226 504.67,41.3635 z" id="boundary" inkscape:connector-curvature="0" />
	<path style="fill:none;stroke:red;stroke-width:1px;stroke-linecap:butt;stroke-linejoin:miter;stroke-opacity:1" d="M 489.725,977.318 508.407,971.714 z" id="boundary" inkscape:connector-curvature="0" />
	<path style="fill:none;stroke:red;stroke-width:1px;stroke-linecap:butt;stroke-linejoin:miter;stroke-opacity:1" d="M 504.67,41.3635 521.484,50.7043 z" id="boundary" inkscape:connector-curvature="0" />
	<path style="fill:none;stroke:red;stroke-width:1px;stroke-linecap:butt;stroke-linejoin:miter;stroke-opacity:1" d="M 508.407,971.714 527.089,962.373 z" id="boundary" inkscape:connector-curvature="0" />
	<path style="fill:none;stroke:red;stroke-width:1px;stroke-linecap:butt;stroke-linejoin:miter;stroke-opacity:1" d="M 521.484,50.7043 536.429,63.7815 z" id="boundary" inkscape:connector-curvature="0" />
	<path style="fill:none;stroke:red;stroke-width:1px;stroke-linecap:butt;stroke-linejoin:miter;stroke-opacity:1" d="M 527.089,962.373 542.034,949.296 z" id="boundary" inkscape:connector-curvature="0" />
	<path style="fill:none;stroke:red;stroke-width:1px;stroke-linecap:butt;stroke-linejoin:miter;stroke-opacity:1" d="M 528.957,687.751 528.957,706.433 z" id="boundary" inkscape:connector-curvature="0" />
	<path style="fill:none;stroke:red;stroke-width:1px;stroke-linecap:butt;stroke-linejoin:miter;stroke-opacity:1" d="M 528.957,687.751 538.298,669.07 z" id="boundary" inkscape:connector-curvature="0" />
	<path style="fill:none;stroke:red;stroke-width:1px;stroke-linecap:butt;stroke-linejoin:miter;stroke-opacity:1" d="M 528.957,706.433 532.693,725.115 z" id="boundary" inkscape:connector-curvature="0" />
	<path style="fill:none;stroke:red;stroke-width:1px;stroke-linecap:butt;stroke-linejoin:miter;stroke-opacity:1" d="M 532.693,725.115 538.298,743.797 z" id="boundary" inkscape:connector-curvature="0" />
	<path style="fill:none;stroke:red;stroke-width:1px;stroke-linecap:butt;stroke-linejoin:miter;stroke-opacity:1" d="M 536.429,63.7815 553.243,73.1224 z" id="boundary" inkscape:connector-curvature="0" />
	<path style="fill:none;stroke:red;stroke-width:1px;stroke-linecap:butt;stroke-linejoin:miter;stroke-opacity:1" d="M 538.298,669.07 547.638,650.388 z" id="boundary" inkscape:connector-curvature="0" />
	<path style="fill:none;stroke:red;stroke-width:1px;stroke-linecap:butt;stroke-linejoin:miter;stroke-opacity:1" d="M 538.298,743.797 542.034,762.478 z" id="boundary" inkscape:connector-curvature="0" />
	<path style="fill:none;stroke:red;stroke-width:1px;stroke-linecap:butt;stroke-linejoin:miter;stroke-opacity:1" d="M 542.034,762.478 551.375,779.292 z" id="boundary" inkscape:connector-curvature="0" />
	<path style="fill:none;stroke:red;stroke-width:1px;stroke-linecap:butt;stroke-linejoin:miter;stroke-opacity:1" d="M 542.034,949.296 558.847,939.955 z" id="boundary" inkscape:connector-curvature="0" />
	<path style="fill:none;stroke:red;stroke-width:1px;stroke-linecap:butt;stroke-linejoin:miter;stroke-opacity:1" d="M 547.638,650.388 562.584,637.311 z" id="boundary" inkscape:connector-curvature="0" />
	<path style="fill:none;stroke:red;stroke-width:1px;stroke-linecap:butt;stroke-linejoin:miter;stroke-opacity:1" d="M 551.375,779.292 556.979,797.974 z" id="boundary" inkscape:connector-curvature="0" />
	<path style="fill:none;stroke:red;stroke-width:1px;stroke-linecap:butt;stroke-linejoin:miter;stroke-opacity:1" d="M 553.243,73.1224 571.925,80.5951 z" id="boundary" inkscape:connector-curvature="0" />
	<path style="fill:none;stroke:red;stroke-width:1px;stroke-linecap:butt;stroke-linejoin:miter;stroke-opacity:1" d="M 556.979,797.974 566.32,814.787 z" id="boundary" inkscape:connector-curvature="0" />
	<path style="fill:none;stroke:red;stroke-width:1px;stroke-linecap:butt;stroke-linejoin:miter;stroke-opacity:1" d="M 558.847,939.955 573.793,925.009 z" id="boundary" inkscape:connector-curvature="0" />
	<path style="fill:none;stroke:red;stroke-width:1px;stroke-linecap:butt;stroke-linejoin:miter;stroke-opacity:1" d="M 562.584,637.311 575.661,613.024 z" id="boundary" inkscape:connector-curvature="0" />
	<path style="fill:none;stroke:red;stroke-width:1px;stroke-linecap:butt;stroke-linejoin:miter;stroke-opacity:1" d="M 566.32,814.787 575.661,831.601 z" id="boundary" inkscape:connector-curvature="0" />
	<path style="fill:none;stroke:red;stroke-width:1px;stroke-linecap:butt;stroke-linejoin:miter;stroke-opacity:1" d="M 571.925,80.5951 588.738,89.936 z" id="boundary" inkscape:connector-curvature="0" />
	<path style="fill:none;stroke:red;stroke-width:1px;stroke-linecap:butt;stroke-linejoin:miter;stroke-opacity:1" d="M 573.793,925.009 583.134,906.328 z" id="boundary" inkscape:connector-curvature="0" />
	<path style="fill:none;stroke:red;stroke-width:1px;stroke-linecap:butt;stroke-linejoin:miter;stroke-opacity:1" d="M 575.661,613.024 590.606,599.947 z" id="boundary" inkscape:connector-curvature="0" />
	<path style="fill:none;stroke:red;stroke-width:1px;stroke-linecap:butt;stroke-linejoin:miter;stroke-opacity:1" d="M 575.661,831.601 588.738,846.546 z" id="boundary" inkscape:connector-curvature="0" />
	<path style="fill:none;stroke:red;stroke-width:1px;stroke-linecap:butt;stroke-linejoin:miter;stroke-opacity:1" d="M 583.134,906.328 594.343,883.91 z" id="boundary" inkscape:connector-curvature="0" />
	<path style="fill:none;stroke:red;stroke-width:1px;stroke-linecap:butt;stroke-linejoin:miter;stroke-opacity:1" d="M 588.738,89.936 607.42,97.4087 z" id="boundary" inkscape:connector-curvature="0" />
	<path style="fill:none;stroke:red;stroke-width:1px;stroke-linecap:butt;stroke-linejoin:miter;stroke-opacity:1" d="M 588.738,846.546 594.343,865.228 z" id="boundary" inkscape:connector-curvature="0" />
	<path style="fill:none;stroke:red;stroke-width:1px;stroke-linecap:butt;stroke-linejoin:miter;stroke-opacity:1" d="M 590.606,599.947 599.947,581.266 z" id="boundary" inkscape:connector-curvature="0" />
	<path style="fill:none;stroke:red;stroke-width:1px;stroke-linecap:butt;stroke-linejoin:miter;stroke-opacity:1" d="M 594.343,865.228 594.343,883.91 z" id="boundary" inkscape:connector-curvature="0" />
	<path style="fill:none;stroke:red;stroke-width:1px;stroke-linecap:butt;stroke-linejoin:miter;stroke-opacity:1" d="M 599.947,581.266 613.024,556.979 z" id="boundary" inkscape:connector-curvature="0" />
	<path style="fill:none;stroke:red;stroke-width:1px;stroke-linecap:butt;stroke-linejoin:miter;stroke-opacity:1" d="M 607.42,97.4087 620.497,112.354 z" id="boundary" inkscape:connector-curvature="0" />
	<path style="fill:none;stroke:red;stroke-width:1px;stroke-linecap:butt;stroke-linejoin:miter;stroke-opacity:1" d="M 613.024,556.979 627.97,543.902 z" id="boundary" inkscape:connector-curvature="0" />
	<path style="fill:none;stroke:red;stroke-width:1px;stroke-linecap:butt;stroke-linejoin:miter;stroke-opacity:1" d="M 620.497,112.354 639.179,119.827 z" id="boundary" inkscape:connector-curvature="0" />
	<path style="fill:none;stroke:red;stroke-width:1px;stroke-linecap:butt;stroke-linejoin:miter;stroke-opacity:1" d="M 622.365,258.072 626.102,276.753 z" id="boundary" inkscape:connector-curvature="0" />
	<path style="fill:none;stroke:red;stroke-width:1px;stroke-linecap:butt;stroke-linejoin:miter;stroke-opacity:1" d="M 622.365,258.072 642.915,267.412 z" id="boundary" inkscape:connector-curvature="0" />
	<path style="fill:none;stroke:red;stroke-width:1px;stroke-linecap:butt;stroke-linejoin:miter;stroke-opacity:1" d="M 626.102,276.753 635.443,293.567 z" id="boundary" inkscape:connector-curvature="0" />
	<path style="fill:none;stroke:red;stroke-width:1px;stroke-linecap:butt;stroke-linejoin:miter;stroke-opacity:1" d="M 627.97,543.902 637.311,525.22 z" id="boundary" inkscape:connector-curvature="0" />
	<path style="fill:none;stroke:red;stroke-width:1px;stroke-linecap:butt;stroke-linejoin:miter;stroke-opacity:1" d="M 635.443,293.567 641.047,312.249 z" id="boundary" inkscape:connector-curvature="0" />
	<path style="fill:none;stroke:red;stroke-width:1px;stroke-linecap:butt;stroke-linejoin:miter;stroke-opacity:1" d="M 637.311,525.22 646.652,506.539 z" id="boundary" inkscape:connector-curvature="0" />
	<path style="fill:none;stroke:red;stroke-width:1px;stroke-linecap:butt;stroke-linejoin:miter;stroke-opacity:1" d="M 639.179,119.827 655.992,129.168 z" id="boundary" inkscape:connector-curvature="0" />
	<path style="fill:none;stroke:red;stroke-width:1px;stroke-linecap:butt;stroke-linejoin:miter;stroke-opacity:1" d="M 641.047,312.249 650.388,329.062 z" id="boundary" inkscape:connector-curvature="0" />
	<path style="fill:none;stroke:red;stroke-width:1px;stroke-linecap:butt;stroke-linejoin:miter;stroke-opacity:1" d="M 642.915,267.412 657.861,278.621 z" id="boundary" inkscape:connector-curvature="0" />
	<path style="fill:none;stroke:red;stroke-width:1px;stroke-linecap:butt;stroke-linejoin:miter;stroke-opacity:1" d="M 646.652,506.539 650.388,472.911 z" id="boundary" inkscape:connector-curvature="0" />
	<path style="fill:none;stroke:red;stroke-width:1px;stroke-linecap:butt;stroke-linejoin:miter;stroke-opacity:1" d="M 650.388,329.062 650.388,347.744 z" id="boundary" inkscape:connector-curvature="0" />
	<path style="fill:none;stroke:red;stroke-width:1px;stroke-linecap:butt;stroke-linejoin:miter;stroke-opacity:1" d="M 650.388,347.744 659.729,364.557 z" id="boundary" inkscape:connector-curvature="0" />
	<path style="fill:none;stroke:red;stroke-width:1px;stroke-linecap:butt;stroke-linejoin:miter;stroke-opacity:1" d="M 650.388,472.911 659.729,439.284 z" id="boundary" inkscape:connector-curvature="0" />
	<path style="fill:none;stroke:red;stroke-width:1px;stroke-linecap:butt;stroke-linejoin:miter;stroke-opacity:1" d="M 655.992,129.168 669.07,144.113 z" id="boundary" inkscape:connector-curvature="0" />
	<path style="fill:none;stroke:red;stroke-width:1px;stroke-linecap:butt;stroke-linejoin:miter;stroke-opacity:1" d="M 657.861,278.621 676.542,286.094 z" id="boundary" inkscape:connector-curvature="0" />
	<path style="fill:none;stroke:red;stroke-width:1px;stroke-linecap:butt;stroke-linejoin:miter;stroke-opacity:1" d="M 659.729,364.557 659.729,383.239 z" id="boundary" inkscape:connector-curvature="0" />
	<path style="fill:none;stroke:red;stroke-width:1px;stroke-linecap:butt;stroke-linejoin:miter;stroke-opacity:1" d="M 659.729,383.239 659.729,401.921 z" id="boundary" inkscape:connector-curvature="0" />
	<path style="fill:none;stroke:red;stroke-width:1px;stroke-linecap:butt;stroke-linejoin:miter;stroke-opacity:1" d="M 659.729,401.921 659.729,420.603 z" id="boundary" inkscape:connector-curvature="0" />
	<path style="fill:none;stroke:red;stroke-width:1px;stroke-linecap:butt;stroke-linejoin:miter;stroke-opacity:1" d="M 659.729,420.603 659.729,439.284 z" id="boundary" inkscape:connector-curvature="0" />
	<path style="fill:none;stroke:red;stroke-width:1px;stroke-linecap:butt;stroke-linejoin:miter;stroke-opacity:1" d="M 669.07,144.113 685.883,153.454 z" id="boundary" inkscape:connector-curvature="0" />
	<path style="fill:none;stroke:red;stroke-width:1px;stroke-linecap:butt;stroke-linejoin:miter;stroke-opacity:1" d="M 676.542,286.094 687.751,301.04 z" id="boundary" inkscape:connector-curvature="0" />
	<path style="fill:none;stroke:red;stroke-width:1px;stroke-linecap:butt;stroke-linejoin:miter;stroke-opacity:1" d="M 685.883,153.454 700.829,164.663 z" id="boundary" inkscape:connector-curvature="0" />
	<path style="fill:none;stroke:red;stroke-width:1px;stroke-linecap:butt;stroke-linejoin:miter;stroke-opacity:1" d="M 687.751,301.04 702.697,314.117 z" id="boundary" inkscape:connector-curvature="0" />
	<path style="fill:none;stroke:red;stroke-width:1px;stroke-linecap:butt;stroke-linejoin:miter;stroke-opacity:1" d="M 700.829,164.663 719.51,172.136 z" id="boundary" inkscape:connector-curvature="0" />
	<path style="fill:none;stroke:red;stroke-width:1px;stroke-linecap:butt;stroke-linejoin:miter;stroke-opacity:1" d="M 702.697,314.117 719.51,323.458 z" id="boundary" inkscape:connector-curvature="0" />
	<path style="fill:none;stroke:red;stroke-width:1px;stroke-linecap:butt;stroke-linejoin:miter;stroke-opacity:1" d="M 719.51,172.136 732.588,187.081 z" id="boundary" inkscape:connector-curvature="0" />
	<path style="fill:none;stroke:red;stroke-width:1px;stroke-linecap:butt;stroke-linejoin:miter;stroke-opacity:1" d="M 719.51,323.458 736.324,332.798 z" id="boundary" inkscape:connector-curvature="0" />
	<path style="fill:none;stroke:red;stroke-width:1px;stroke-linecap:butt;stroke-linejoin:miter;stroke-opacity:1" d="M 732.588,187.081 751.269,194.554 z" id="boundary" inkscape:connector-curvature="0" />
	<path style="fill:none;stroke:red;stroke-width:1px;stroke-linecap:butt;stroke-linejoin:miter;stroke-opacity:1" d="M 736.324,332.798 753.137,323.458 z" id="boundary" inkscape:connector-curvature="0" />
	<path style="fill:none;stroke:red;stroke-width:1px;stroke-linecap:butt;stroke-linejoin:miter;stroke-opacity:1" d="M 751.269,194.554 762.478,209.499 z" id="boundary" inkscape:connector-curvature="0" />
	<path style="fill:none;stroke:red;stroke-width:1px;stroke-linecap:butt;stroke-linejoin:miter;stroke-opacity:1" d="M 753.137,323.458 768.083,310.38 z" id="boundary" inkscape:connector-curvature="0" />
	<path style="fill:none;stroke:red;stroke-width:1px;stroke-linecap:butt;stroke-linejoin:miter;stroke-opacity:1" d="M 762.478,209.499 771.819,226.313 z" id="boundary" inkscape:connector-curvature="0" />
	<path style="fill:none;stroke:red;stroke-width:1px;stroke-linecap:butt;stroke-linejoin:miter;stroke-opacity:1" d="M 768.083,310.38 786.765,301.04 z" id="boundary" inkscape:connector-curvature="0" />
	<path style="fill:none;stroke:red;stroke-width:1px;stroke-linecap:butt;stroke-linejoin:miter;stroke-opacity:1" d="M 771.819,226.313 781.16,243.126 z" id="boundary" inkscape:connector-curvature="0" />
	<path style="fill:none;stroke:red;stroke-width:1px;stroke-linecap:butt;stroke-linejoin:miter;stroke-opacity:1" d="M 781.16,243.126 788.633,261.808 z" id="boundary" inkscape:connector-curvature="0" />
	<path style="fill:none;stroke:red;stroke-width:1px;stroke-linecap:butt;stroke-linejoin:miter;stroke-opacity:1" d="M 786.765,301.04 790.501,280.49 z" id="boundary" inkscape:connector-curvature="0" />
	<path style="fill:none;stroke:red;stroke-width:1px;stroke-linecap:butt;stroke-linejoin:miter;stroke-opacity:1" d="M 788.633,261.808 790.501,280.49 z" id="boundary" inkscape:connector-curvature="0" />
	<circle cx="4" cy="644.783" r="4" fill="#0" id="circle0"/>
	<circle cx="4" cy="663.465" r="4" fill="#0" id="circle1"/>
	<circle cx="4" cy="682.147" r="4" fill="#0" id="circle2"/>
	<circle cx="4" cy="700.829" r="4" fill="#0" id="circle3"/>
	<circle cx="13.3409" cy="140.377" r="4" fill="#0" id="circle4"/>
	<circle cx="13.3409" cy="159.058" r="4" fill="#0" id="circle5"/>
	<circle cx="13.3409" cy="626.102" r="4" fill="#0" id="circle6"/>
	<circle cx="18.9454" cy="713.906" r="4" fill="#0" id="circle7"/>
	<circle cx="22.6817" cy="121.695" r="4" fill="#0" id="circle8"/>
	<circle cx="24.5499" cy="174.004" r="4" fill="#0" id="circle9"/>
	<circle cx="28.2863" cy="611.156" r="4" fill="#0" id="circle10"/>
	<circle cx="32.0226" cy="103.013" r="4" fill="#0" id="circle11"/>
	<circle cx="37.6271" cy="592.475" r="4" fill="#0" id="circle12"/>
	<circle cx="37.6271" cy="715.774" r="4" fill="#0" id="circle13"/>
	<circle cx="41.3635" cy="183.345" r="4" fill="#0" id="circle14"/>
	<circle cx="46.968" cy="88.0678" r="4" fill="#0" id="circle15"/>
	<circle cx="52.5725" cy="577.529" r="4" fill="#0" id="circle16"/>
	<circle cx="54.4407" cy="706.433" r="4" fill="#0" id="circle17"/>
	<circle cx="58.177" cy="192.685" r="4" fill="#0" id="circle18"/>
	<circle cx="65.6497" cy="78.7269" r="4" fill="#0" id="circle19"/>
	<circle cx="67.5179" cy="564.452" r="4" fill="#0" id="circle20"/>
	<circle cx="69.3861" cy="373.898" r="4" fill="#0" id="circle21"/>
	<circle cx="69.3861" cy="392.58" r="4" fill="#0" id="circle22"/>
	<circle cx="69.3861" cy="411.262" r="4" fill="#0" id="circle23"/>
	<circle cx="69.3861" cy="429.944" r="4" fill="#0" id="circle24"/>
	<circle cx="71.2542" cy="697.092" r="4" fill="#0" id="circle25"/>
	<circle cx="76.8588" cy="192.685" r="4" fill="#0" id="circle26"/>
	<circle cx="78.7269" cy="336.535" r="4" fill="#0" id="circle27"/>
	<circle cx="78.7269" cy="355.217" r="4" fill="#0" id="circle28"/>
	<circle cx="78.7269" cy="446.757" r="4" fill="#0" id="circle29"/>
	<circle cx="78.7269" cy="465.439" r="4" fill="#0" id="circle30"/>
	<circle cx="80.5951" cy="549.507" r="4" fill="#0" id="circle31"/>
	<circle cx="84.3315" cy="69.3861" r="4" fill="#0" id="circle32"/>
	<circle cx="86.1996" cy="684.015" r="4" fill="#0" id="circle33"/>
	<circle cx="88.0678" cy="317.853" r="4" fill="#0" id="circle34"/>
	<circle cx="88.0678" cy="482.252" r="4" fill="#0" id="circle35"/>
	<circle cx="89.936" cy="530.825" r="4" fill="#0" id="circle36"/>
	<circle cx="93.6723" cy="183.345" r="4" fill="#0" id="circle37"/>
	<circle cx="93.6723" cy="500.934" r="4" fill="#0" id="circle38"/>
	<circle cx="97.4087" cy="252.467" r="4" fill="#0" id="circle39"/>
	<circle cx="97.4087" cy="271.149" r="4" fill="#0" id="circle40"/>
	<circle cx="97.4087" cy="289.831" r="4" fill="#0" id="circle41"/>
	<circle cx="99.2768" cy="669.07" r="4" fill="#0" id="circle42"/>
	<circle cx="103.013" cy="60.0452" r="4" fill="#0" id="circle43"/>
	<circle cx="106.75" cy="224.444" r="4" fill="#0" id="circle44"/>
	<circle cx="110.486" cy="174.004" r="4" fill="#0" id="circle45"/>
	<circle cx="114.222" cy="655.992" r="4" fill="#0" id="circle46"/>
	<circle cx="116.09" cy="205.763" r="4" fill="#0" id="circle47"/>
	<circle cx="121.695" cy="60.0452" r="4" fill="#0" id="circle48"/>
	<circle cx="125.431" cy="187.081" r="4" fill="#0" id="circle49"/>
	<circle cx="127.299" cy="164.663" r="4" fill="#0" id="circle50"/>
	<circle cx="127.299" cy="631.706" r="4" fill="#0" id="circle51"/>
	<circle cx="134.772" cy="850.282" r="4" fill="#0" id="circle52"/>
	<circle cx="134.772" cy="868.964" r="4" fill="#0" id="circle53"/>
	<circle cx="134.772" cy="887.646" r="4" fill="#0" id="circle54"/>
	<circle cx="136.64" cy="613.024" r="4" fill="#0" id="circle55"/>
	<circle cx="138.508" cy="50.7043" r="4" fill="#0" id="circle56"/>
	<circle cx="144.113" cy="831.601" r="4" fill="#0" id="circle57"/>
	<circle cx="144.113" cy="904.46" r="4" fill="#0" id="circle58"/>
	<circle cx="153.454" cy="812.919" r="4" fill="#0" id="circle59"/>
	<circle cx="155.322" cy="41.3635" r="4" fill="#0" id="circle60"/>
	<circle cx="155.322" cy="616.761" r="4" fill="#0" id="circle61"/>
	<circle cx="157.19" cy="919.405" r="4" fill="#0" id="circle62"/>
	<circle cx="162.795" cy="635.443" r="4" fill="#0" id="circle63"/>
	<circle cx="168.399" cy="797.974" r="4" fill="#0" id="circle64"/>
	<circle cx="172.136" cy="930.614" r="4" fill="#0" id="circle65"/>
	<circle cx="174.004" cy="41.3635" r="4" fill="#0" id="circle66"/>
	<circle cx="177.74" cy="648.52" r="4" fill="#0" id="circle67"/>
	<circle cx="177.74" cy="779.292" r="4" fill="#0" id="circle68"/>
	<circle cx="183.345" cy="945.559" r="4" fill="#0" id="circle69"/>
	<circle cx="185.213" cy="667.202" r="4" fill="#0" id="circle70"/>
	<circle cx="187.081" cy="760.61" r="4" fill="#0" id="circle71"/>
	<circle cx="190.817" cy="738.192" r="4" fill="#0" id="circle72"/>
	<circle cx="192.685" cy="35.7589" r="4" fill="#0" id="circle73"/>
	<circle cx="198.29" cy="958.637" r="4" fill="#0" id="circle74"/>
	<circle cx="200.158" cy="678.411" r="4" fill="#0" id="circle75"/>
	<circle cx="200.158" cy="697.092" r="4" fill="#0" id="circle76"/>
	<circle cx="200.158" cy="715.774" r="4" fill="#0" id="circle77"/>
	<circle cx="211.367" cy="32.0226" r="4" fill="#0" id="circle78"/>
	<circle cx="215.104" cy="967.977" r="4" fill="#0" id="circle79"/>
	<circle cx="230.049" cy="32.0226" r="4" fill="#0" id="circle80"/>
	<circle cx="233.785" cy="975.45" r="4" fill="#0" id="circle81"/>
	<circle cx="248.731" cy="26.4181" r="4" fill="#0" id="circle82"/>
	<circle cx="250.599" cy="984.791" r="4" fill="#0" id="circle83"/>
	<circle cx="267.412" cy="22.6817" r="4" fill="#0" id="circle84"/>
	<circle cx="269.281" cy="986.659" r="4" fill="#0" id="circle85"/>
	<circle cx="286.094" cy="17.0772" r="4" fill="#0" id="circle86"/>
	<circle cx="287.962" cy="992.264" r="4" fill="#0" id="circle87"/>
	<circle cx="304.776" cy="13.3409" r="4" fill="#0" id="circle88"/>
	<circle cx="306.644" cy="996" r="4" fill="#0" id="circle89"/>
	<circle cx="321.589" cy="4" r="4" fill="#0" id="circle90"/>
	<circle cx="325.326" cy="996" r="4" fill="#0" id="circle91"/>
	<circle cx="340.271" cy="4" r="4" fill="#0" id="circle92"/>
	<circle cx="344.008" cy="996" r="4" fill="#0" id="circle93"/>
	<circle cx="358.953" cy="4" r="4" fill="#0" id="circle94"/>
	<circle cx="362.689" cy="996" r="4" fill="#0" id="circle95"/>
	<circle cx="377.635" cy="4" r="4" fill="#0" id="circle96"/>
	<circle cx="381.371" cy="996" r="4" fill="#0" id="circle97"/>
	<circle cx="396.316" cy="4" r="4" fill="#0" id="circle98"/>
	<circle cx="400.053" cy="996" r="4" fill="#0" id="circle99"/>
	<circle cx="414.998" cy="7.73635" r="4" fill="#0" id="circle100"/>
	<circle cx="418.734" cy="996" r="4" fill="#0" id="circle101"/>
	<circle cx="433.68" cy="13.3409" r="4" fill="#0" id="circle102"/>
	<circle cx="437.416" cy="996" r="4" fill="#0" id="circle103"/>
	<circle cx="452.362" cy="17.0772" r="4" fill="#0" id="circle104"/>
	<circle cx="454.23" cy="986.659" r="4" fill="#0" id="circle105"/>
	<circle cx="471.043" cy="22.6817" r="4" fill="#0" id="circle106"/>
	<circle cx="472.911" cy="986.659" r="4" fill="#0" id="circle107"/>
	<circle cx="487.857" cy="32.0226" r="4" fill="#0" id="circle108"/>
	<circle cx="489.725" cy="977.318" r="4" fill="#0" id="circle109"/>
	<circle cx="504.67" cy="41.3635" r="4" fill="#0" id="circle110"/>
	<circle cx="508.407" cy="971.714" r="4" fill="#0" id="circle111"/>
	<circle cx="521.484" cy="50.7043" r="4" fill="#0" id="circle112"/>
	<circle cx="527.089" cy="962.373" r="4" fill="#0" id="circle113"/>
	<circle cx="528.957" cy="687.751" r="4" fill="#0" id="circle114"/>
	<circle cx="528.957" cy="706.433" r="4" fill="#0" id="circle115"/>
	<circle cx="532.693" cy="725.115" r="4" fill="#0" id="circle116"/>
	<circle cx="536.429" cy="63.7815" r="4" fill="#0" id="circle117"/>
	<circle cx="538.298" cy="669.07" r="4" fill="#0" id="circle118"/>
	<circle cx="538.298" cy="743.797" r="4" fill="#0" id="circle119"/>
	<circle cx="542.034" cy="762.478" r="4" fill="#0" id="circle120"/>
	<circle cx="542.034" cy="949.296" r="4" fill="#0" id="circle121"/>
	<circle cx="547.638" cy="650.388" r="4" fill="#0" id="circle122"/>
	<circle cx="551.375" cy="779.292" r="4" fill="#0" id="circle123"/>
	<circle cx="553.243" cy="73.1224" r="4" fill="#0" id="circle124"/>
	<circle cx="556.979" cy="797.974" r="4" fill="#0" id="circle125"/>
	<circle cx="558.847" cy="939.955" r="4" fill="#0" id="circle126"/>
	<circle cx="562.584" cy="637.311" r="4" fill="#0" id="circle127"/>
	<circle cx="566.32" cy="814.787" r="4" fill="#0" id="circle128"/>
	<circle cx="571.925" cy="80.5951" r="4" fill="#0" id="circle129"/>
	<circle cx="573.793" cy="925.009" r="4" fill="#0" id="circle130"/>
	<circle cx="575.661" cy="613.024" r="4" fill="#0" id="circle131"/>
	<circle cx="575.661" cy="831.601" r="4" fill="#0" id="circle132"/>
	<circle cx="583.134" cy="906.328" r="4" fill="#0" id="circle133"/>
	<circle cx="588.738" cy="89.936" r="4" fill="#0" id="circle134"/>
	<circle cx="588.738" cy="846.546" r="4" fill="#0" id="circle135"/>
	<circle cx="590.606" cy="599.947" r="4" fill="#0" id="circle136"/>
	<circle cx="594.343" cy="865.228" r="4" fill="#0" id="circle137"/>
	<circle cx="594.343" cy="883.91" r="4" fill="#0" id="circle138"/>
	<circle cx="599.947" cy="581.266" r="4" fill="#0" id="circle139"/>
	<circle cx="607.42" cy="97.4087" r="4" fill="#0" id="circle140"/>
	<circle cx="613.024" cy="556.979" r="4" fill="#0" id="circle141"/>
	<circle cx="620.497" cy="112.354" r="4" fill="#0" id="circle142"/>
	<circle cx="622.365" cy="258.072" r="4" fill="#0" id="circle143"/>
	<circle cx="626.102" cy="276.753" r="4" fill="#0" id="circle144"/>
	<circle cx="627.97" cy="543.902" r="4" fill="#0" id="circle145"/>
	<circle cx="635.443" cy="293.567" r="4" fill="#0" id="circle146"/>
	<circle cx="637.311" cy="525.22" r="4" fill="#0" id="circle147"/>
	<circle cx="639.179" cy="119.827" r="4" fill="#0" id="circle148"/>
	<circle cx="641.047" cy="312.249" r="4" fill="#0" id="circle149"/>
	<circle cx="642.915" cy="267.412" r="4" fill="#0" id="circle150"/>
	<circle cx="646.652" cy="506.539" r="4" fill="#0" id="circle151"/>
	<circle cx="650.388" cy="329.062" r="4" fill="#0" id="circle152"/>
	<circle cx="650.388" cy="347.744" r="4" fill="#0" id="circle153"/>
	<circle cx="650.388" cy="472.911" r="4" fill="#0" id="circle154"/>
	<circle cx="655.992" cy="129.168" r="4" fill="#0" id="circle155"/>
	<circle cx="657.861" cy="278.621" r="4" fill="#0" id="circle156"/>
	<circle cx="659.729" cy="364.557" r="4" fill="#0" id="circle157"/>
	<circle cx="659.729" cy="383.239" r="4" fill="#0" id="circle158"/>
	<circle cx="659.729" cy="401.921" r="4" fill="#0" id="circle159"/>
	<circle cx="659.729" cy="420.603" r="4" fill="#0" id="circle160"/>
	<circle cx="659.729" cy="439.284" r="4" fill="#0" id="circle161"/>
	<circle cx="669.07" cy="144.113" r="4" fill="#0" id="circle162"/>
	<circle cx="676.542" cy="286.094" r="4" fill="#0" id="circle163"/>
	<circle cx="685.883" cy="153.454" r="4" fill="#0" id="circle164"/>
	<circle cx="687.751" cy="301.04" r="4" fill="#0" id="circle165"/>
	<circle cx="700.829" cy="164.663" r="4" fill="#0" id="circle166"/>
	<circle cx="702.697" cy="314.117" r="4" fill="#0" id="circle167"/>
	<circle cx="719.51" cy="172.136" r="4" fill="#0" id="circle168"/>
	<circle cx="719.51" cy="323.458" r="4" fill="#0" id="circle169"/>
	<circle cx="732.588" cy="187.081" r="4" fill="#0" id="circle170"/>
	<circle cx="736.324" cy="332.798" r="4" fill="#0" id="circle171"/>
	<circle cx="751.269" cy="194.554" r="4" fill="#0" id="circle172"/>
	<circle cx="753.137" cy="323.458" r="4" fill="#0" id="circle173"/>
	<circle cx="762.478" cy="209.499" r="4" fill="#0" id="circle174"/>
	<circle cx="768.083" cy="310.38" r="4" fill="#0" id="circle175"/>
	<circle cx="771.819" cy="226.313" r="4" fill="#0" id="circle176"/>
	<circle cx="781.16" cy="243.126" r="4" fill="#0" id="circle177"/>
	<circle cx="786.765" cy="301.04" r="4" fill="#0" id="circle178"/>
	<circle cx="788.633" cy="261.808" r="4" fill="#0" id="circle179"/>
	<circle cx="790.501" cy="280.49" r="4" fill="#0" id="circle180"/>
	</g>
</svg>