<?xml version="1.0" encoding="UTF-8" standalone="no"?>
<!-- Created with CurveBenchmark -->
<svg
	xmlns:dc="http://purl.org/dc/elements/1.1/"
	xmlns:cc="http://creativecommons.org/ns#"
	xmlns:rdf="http://www.w3.org/1999/02/22-rdf-syntax-ns#"
	xmlns:svg="http://www.w3.org/2000/svg"
	xmlns="http://www.w3.org/2000/svg"
	xmlns:sodipodi="http://sodipodi.sourceforge.net/DTD/sodipodi-0.dtd"
	xmlns:inkscape="http://www.inkscape.org/namespaces/inkscape"
	width="1000"
	height="1000"
	id="svg2"
	version="1.1"
	sodipodi:docname="manifold/discur-stef-03.png.txt">
<defs
	id="defs4" />
<metadata
	id="metadata7">
	<rdf:RDF>
		<cc:Work
			rdf:about="">
			<dc:format>image/svg+xml</dc:format>
			<dc:type
				rdf:resource="http://purl.org/dc/dcmitype/StillImage" />
			<dc:title></dc:title>
		</cc:Work>
	</rdf:RDF>
</metadata>
<g
	inkscape:label="Layer 1"
	inkscape:groupmode="layer"
	id="layer1">
	<path style="fill:none;stroke:red;stroke-width:1px;stroke-linecap:butt;stroke-linejoin:miter;stroke-opacity:1" d="M 4,33.4653 4,49.835 z" id="boundary" inkscape:connector-curvature="0" />
	<path style="fill:none;stroke:red;stroke-width:1px;stroke-linecap:butt;stroke-linejoin:miter;stroke-opacity:1" d="M 4,33.4653 12.1848,17.0957 z" id="boundary" inkscape:connector-curvature="0" />
	<path style="fill:none;stroke:red;stroke-width:1px;stroke-linecap:butt;stroke-linejoin:miter;stroke-opacity:1" d="M 4,49.835 17.0957,61.2937 z" id="boundary" inkscape:connector-curvature="0" />
	<path style="fill:none;stroke:red;stroke-width:1px;stroke-linecap:butt;stroke-linejoin:miter;stroke-opacity:1" d="M 12.1848,17.0957 28.5545,8.91089 z" id="boundary" inkscape:connector-curvature="0" />
	<path style="fill:none;stroke:red;stroke-width:1px;stroke-linecap:butt;stroke-linejoin:miter;stroke-opacity:1" d="M 17.0957,61.2937 30.1914,71.1155 z" id="boundary" inkscape:connector-curvature="0" />
	<path style="fill:none;stroke:red;stroke-width:1px;stroke-linecap:butt;stroke-linejoin:miter;stroke-opacity:1" d="M 28.5545,8.91089 44.9241,4 z" id="boundary" inkscape:connector-curvature="0" />
	<path style="fill:none;stroke:red;stroke-width:1px;stroke-linecap:butt;stroke-linejoin:miter;stroke-opacity:1" d="M 30.1914,71.1155 44.9241,79.3003 z" id="boundary" inkscape:connector-curvature="0" />
	<path style="fill:none;stroke:red;stroke-width:1px;stroke-linecap:butt;stroke-linejoin:miter;stroke-opacity:1" d="M 44.9241,4 61.2937,4 z" id="boundary" inkscape:connector-curvature="0" />
	<path style="fill:none;stroke:red;stroke-width:1px;stroke-linecap:butt;stroke-linejoin:miter;stroke-opacity:1" d="M 44.9241,79.3003 59.6568,87.4851 z" id="boundary" inkscape:connector-curvature="0" />
	<path style="fill:none;stroke:red;stroke-width:1px;stroke-linecap:butt;stroke-linejoin:miter;stroke-opacity:1" d="M 44.9241,770.099 44.9241,786.469 z" id="boundary" inkscape:connector-curvature="0" />
	<path style="fill:none;stroke:red;stroke-width:1px;stroke-linecap:butt;stroke-linejoin:miter;stroke-opacity:1" d="M 44.9241,770.099 58.0198,757.003 z" id="boundary" inkscape:connector-curvature="0" />
	<path style="fill:none;stroke:red;stroke-width:1px;stroke-linecap:butt;stroke-linejoin:miter;stroke-opacity:1" d="M 44.9241,786.469 61.2937,791.38 z" id="boundary" inkscape:connector-curvature="0" />
	<path style="fill:none;stroke:red;stroke-width:1px;stroke-linecap:butt;stroke-linejoin:miter;stroke-opacity:1" d="M 58.0198,757.003 72.7525,748.818 z" id="boundary" inkscape:connector-curvature="0" />
	<path style="fill:none;stroke:red;stroke-width:1px;stroke-linecap:butt;stroke-linejoin:miter;stroke-opacity:1" d="M 59.6568,87.4851 76.0264,87.4851 z" id="boundary" inkscape:connector-curvature="0" />
	<path style="fill:none;stroke:red;stroke-width:1px;stroke-linecap:butt;stroke-linejoin:miter;stroke-opacity:1" d="M 61.2937,4 77.6634,7.27393 z" id="boundary" inkscape:connector-curvature="0" />
	<path style="fill:none;stroke:red;stroke-width:1px;stroke-linecap:butt;stroke-linejoin:miter;stroke-opacity:1" d="M 61.2937,791.38 76.0264,799.564 z" id="boundary" inkscape:connector-curvature="0" />
	<path style="fill:none;stroke:red;stroke-width:1px;stroke-linecap:butt;stroke-linejoin:miter;stroke-opacity:1" d="M 72.7525,748.818 102.218,720.99 z" id="boundary" inkscape:connector-curvature="0" />
	<path style="fill:none;stroke:red;stroke-width:1px;stroke-linecap:butt;stroke-linejoin:miter;stroke-opacity:1" d="M 76.0264,87.4851 87.4851,100.581 z" id="boundary" inkscape:connector-curvature="0" />
	<path style="fill:none;stroke:red;stroke-width:1px;stroke-linecap:butt;stroke-linejoin:miter;stroke-opacity:1" d="M 76.0264,799.564 87.4851,812.66 z" id="boundary" inkscape:connector-curvature="0" />
	<path style="fill:none;stroke:red;stroke-width:1px;stroke-linecap:butt;stroke-linejoin:miter;stroke-opacity:1" d="M 77.6634,7.27393 94.033,12.1848 z" id="boundary" inkscape:connector-curvature="0" />
	<path style="fill:none;stroke:red;stroke-width:1px;stroke-linecap:butt;stroke-linejoin:miter;stroke-opacity:1" d="M 87.4851,100.581 94.033,116.95 z" id="boundary" inkscape:connector-curvature="0" />
	<path style="fill:none;stroke:red;stroke-width:1px;stroke-linecap:butt;stroke-linejoin:miter;stroke-opacity:1" d="M 87.4851,812.66 100.581,824.119 z" id="boundary" inkscape:connector-curvature="0" />
	<path style="fill:none;stroke:red;stroke-width:1px;stroke-linecap:butt;stroke-linejoin:miter;stroke-opacity:1" d="M 94.033,12.1848 108.766,20.3696 z" id="boundary" inkscape:connector-curvature="0" />
	<path style="fill:none;stroke:red;stroke-width:1px;stroke-linecap:butt;stroke-linejoin:miter;stroke-opacity:1" d="M 94.033,116.95 94.033,133.32 z" id="boundary" inkscape:connector-curvature="0" />
	<path style="fill:none;stroke:red;stroke-width:1px;stroke-linecap:butt;stroke-linejoin:miter;stroke-opacity:1" d="M 94.033,133.32 94.033,149.69 z" id="boundary" inkscape:connector-curvature="0" />
	<path style="fill:none;stroke:red;stroke-width:1px;stroke-linecap:butt;stroke-linejoin:miter;stroke-opacity:1" d="M 94.033,149.69 94.033,166.059 z" id="boundary" inkscape:connector-curvature="0" />
	<path style="fill:none;stroke:red;stroke-width:1px;stroke-linecap:butt;stroke-linejoin:miter;stroke-opacity:1" d="M 94.033,166.059 102.218,180.792 z" id="boundary" inkscape:connector-curvature="0" />
	<path style="fill:none;stroke:red;stroke-width:1px;stroke-linecap:butt;stroke-linejoin:miter;stroke-opacity:1" d="M 100.581,824.119 115.314,832.304 z" id="boundary" inkscape:connector-curvature="0" />
	<path style="fill:none;stroke:red;stroke-width:1px;stroke-linecap:butt;stroke-linejoin:miter;stroke-opacity:1" d="M 102.218,180.792 110.403,195.525 z" id="boundary" inkscape:connector-curvature="0" />
	<path style="fill:none;stroke:red;stroke-width:1px;stroke-linecap:butt;stroke-linejoin:miter;stroke-opacity:1" d="M 102.218,720.99 110.403,696.436 z" id="boundary" inkscape:connector-curvature="0" />
	<path style="fill:none;stroke:red;stroke-width:1px;stroke-linecap:butt;stroke-linejoin:miter;stroke-opacity:1" d="M 108.766,20.3696 123.498,28.5545 z" id="boundary" inkscape:connector-curvature="0" />
	<path style="fill:none;stroke:red;stroke-width:1px;stroke-linecap:butt;stroke-linejoin:miter;stroke-opacity:1" d="M 110.403,195.525 121.861,208.62 z" id="boundary" inkscape:connector-curvature="0" />
	<path style="fill:none;stroke:red;stroke-width:1px;stroke-linecap:butt;stroke-linejoin:miter;stroke-opacity:1" d="M 110.403,696.436 118.587,647.327 z" id="boundary" inkscape:connector-curvature="0" />
	<path style="fill:none;stroke:red;stroke-width:1px;stroke-linecap:butt;stroke-linejoin:miter;stroke-opacity:1" d="M 115.314,832.304 128.409,843.762 z" id="boundary" inkscape:connector-curvature="0" />
	<path style="fill:none;stroke:red;stroke-width:1px;stroke-linecap:butt;stroke-linejoin:miter;stroke-opacity:1" d="M 121.861,208.62 134.957,218.442 z" id="boundary" inkscape:connector-curvature="0" />
	<path style="fill:none;stroke:red;stroke-width:1px;stroke-linecap:butt;stroke-linejoin:miter;stroke-opacity:1" d="M 123.498,28.5545 136.594,38.3762 z" id="boundary" inkscape:connector-curvature="0" />
	<path style="fill:none;stroke:red;stroke-width:1px;stroke-linecap:butt;stroke-linejoin:miter;stroke-opacity:1" d="M 126.772,532.739 126.772,549.109 z" id="boundary" inkscape:connector-curvature="0" />
	<path style="fill:none;stroke:red;stroke-width:1px;stroke-linecap:butt;stroke-linejoin:miter;stroke-opacity:1" d="M 126.772,532.739 134.957,491.815 z" id="boundary" inkscape:connector-curvature="0" />
	<path style="fill:none;stroke:red;stroke-width:1px;stroke-linecap:butt;stroke-linejoin:miter;stroke-opacity:1" d="M 126.772,549.109 126.772,565.479 z" id="boundary" inkscape:connector-curvature="0" />
	<path style="fill:none;stroke:red;stroke-width:1px;stroke-linecap:butt;stroke-linejoin:miter;stroke-opacity:1" d="M 126.772,565.479 126.772,581.848 z" id="boundary" inkscape:connector-curvature="0" />
	<path style="fill:none;stroke:red;stroke-width:1px;stroke-linecap:butt;stroke-linejoin:miter;stroke-opacity:1" d="M 126.772,581.848 126.772,598.218 z" id="boundary" inkscape:connector-curvature="0" />
	<path style="fill:none;stroke:red;stroke-width:1px;stroke-linecap:butt;stroke-linejoin:miter;stroke-opacity:1" d="M 128.409,843.762 144.779,848.673 z" id="boundary" inkscape:connector-curvature="0" />
	<path style="fill:none;stroke:red;stroke-width:1px;stroke-linecap:butt;stroke-linejoin:miter;stroke-opacity:1" d="M 134.957,218.442 149.69,226.627 z" id="boundary" inkscape:connector-curvature="0" />
	<path style="fill:none;stroke:red;stroke-width:1px;stroke-linecap:butt;stroke-linejoin:miter;stroke-opacity:1" d="M 134.957,491.815 143.142,475.446 z" id="boundary" inkscape:connector-curvature="0" />
	<path style="fill:none;stroke:red;stroke-width:1px;stroke-linecap:butt;stroke-linejoin:miter;stroke-opacity:1" d="M 136.594,38.3762 144.779,53.1089 z" id="boundary" inkscape:connector-curvature="0" />
	<path style="fill:none;stroke:red;stroke-width:1px;stroke-linecap:butt;stroke-linejoin:miter;stroke-opacity:1" d="M 143.142,475.446 156.238,462.35 z" id="boundary" inkscape:connector-curvature="0" />
	<path style="fill:none;stroke:red;stroke-width:1px;stroke-linecap:butt;stroke-linejoin:miter;stroke-opacity:1" d="M 144.779,53.1089 161.149,69.4785 z" id="boundary" inkscape:connector-curvature="0" />
	<path style="fill:none;stroke:red;stroke-width:1px;stroke-linecap:butt;stroke-linejoin:miter;stroke-opacity:1" d="M 144.779,848.673 161.149,840.488 z" id="boundary" inkscape:connector-curvature="0" />
	<path style="fill:none;stroke:red;stroke-width:1px;stroke-linecap:butt;stroke-linejoin:miter;stroke-opacity:1" d="M 149.69,226.627 166.059,226.627 z" id="boundary" inkscape:connector-curvature="0" />
	<path style="fill:none;stroke:red;stroke-width:1px;stroke-linecap:butt;stroke-linejoin:miter;stroke-opacity:1" d="M 156.238,462.35 172.607,454.165 z" id="boundary" inkscape:connector-curvature="0" />
	<path style="fill:none;stroke:red;stroke-width:1px;stroke-linecap:butt;stroke-linejoin:miter;stroke-opacity:1" d="M 161.149,69.4785 177.518,74.3894 z" id="boundary" inkscape:connector-curvature="0" />
	<path style="fill:none;stroke:red;stroke-width:1px;stroke-linecap:butt;stroke-linejoin:miter;stroke-opacity:1" d="M 161.149,840.488 177.518,783.195 z" id="boundary" inkscape:connector-curvature="0" />
	<path style="fill:none;stroke:red;stroke-width:1px;stroke-linecap:butt;stroke-linejoin:miter;stroke-opacity:1" d="M 166.059,226.627 177.518,239.723 z" id="boundary" inkscape:connector-curvature="0" />
	<path style="fill:none;stroke:red;stroke-width:1px;stroke-linecap:butt;stroke-linejoin:miter;stroke-opacity:1" d="M 172.607,454.165 187.34,445.98 z" id="boundary" inkscape:connector-curvature="0" />
	<path style="fill:none;stroke:red;stroke-width:1px;stroke-linecap:butt;stroke-linejoin:miter;stroke-opacity:1" d="M 177.518,74.3894 193.888,77.6634 z" id="boundary" inkscape:connector-curvature="0" />
	<path style="fill:none;stroke:red;stroke-width:1px;stroke-linecap:butt;stroke-linejoin:miter;stroke-opacity:1" d="M 177.518,239.723 193.888,246.271 z" id="boundary" inkscape:connector-curvature="0" />
	<path style="fill:none;stroke:red;stroke-width:1px;stroke-linecap:butt;stroke-linejoin:miter;stroke-opacity:1" d="M 177.518,783.195 185.703,734.086 z" id="boundary" inkscape:connector-curvature="0" />
	<path style="fill:none;stroke:red;stroke-width:1px;stroke-linecap:butt;stroke-linejoin:miter;stroke-opacity:1" d="M 187.34,445.98 200.436,434.521 z" id="boundary" inkscape:connector-curvature="0" />
	<path style="fill:none;stroke:red;stroke-width:1px;stroke-linecap:butt;stroke-linejoin:miter;stroke-opacity:1" d="M 193.888,77.6634 210.257,77.6634 z" id="boundary" inkscape:connector-curvature="0" />
	<path style="fill:none;stroke:red;stroke-width:1px;stroke-linecap:butt;stroke-linejoin:miter;stroke-opacity:1" d="M 193.888,246.271 208.62,254.455 z" id="boundary" inkscape:connector-curvature="0" />
	<path style="fill:none;stroke:red;stroke-width:1px;stroke-linecap:butt;stroke-linejoin:miter;stroke-opacity:1" d="M 193.888,660.422 193.888,676.792 z" id="boundary" inkscape:connector-curvature="0" />
	<path style="fill:none;stroke:red;stroke-width:1px;stroke-linecap:butt;stroke-linejoin:miter;stroke-opacity:1" d="M 193.888,676.792 193.888,693.162 z" id="boundary" inkscape:connector-curvature="0" />
	<path style="fill:none;stroke:red;stroke-width:1px;stroke-linecap:butt;stroke-linejoin:miter;stroke-opacity:1" d="M 200.436,434.521 213.531,421.426 z" id="boundary" inkscape:connector-curvature="0" />
	<path style="fill:none;stroke:red;stroke-width:1px;stroke-linecap:butt;stroke-linejoin:miter;stroke-opacity:1" d="M 202.073,603.129 202.073,619.498 z" id="boundary" inkscape:connector-curvature="0" />
	<path style="fill:none;stroke:red;stroke-width:1px;stroke-linecap:butt;stroke-linejoin:miter;stroke-opacity:1" d="M 208.62,254.455 224.99,259.366 z" id="boundary" inkscape:connector-curvature="0" />
	<path style="fill:none;stroke:red;stroke-width:1px;stroke-linecap:butt;stroke-linejoin:miter;stroke-opacity:1" d="M 210.257,77.6634 226.627,82.5743 z" id="boundary" inkscape:connector-curvature="0" />
	<path style="fill:none;stroke:red;stroke-width:1px;stroke-linecap:butt;stroke-linejoin:miter;stroke-opacity:1" d="M 210.257,529.465 210.257,545.835 z" id="boundary" inkscape:connector-curvature="0" />
	<path style="fill:none;stroke:red;stroke-width:1px;stroke-linecap:butt;stroke-linejoin:miter;stroke-opacity:1" d="M 210.257,529.465 218.442,504.911 z" id="boundary" inkscape:connector-curvature="0" />
	<path style="fill:none;stroke:red;stroke-width:1px;stroke-linecap:butt;stroke-linejoin:miter;stroke-opacity:1" d="M 210.257,545.835 210.257,562.205 z" id="boundary" inkscape:connector-curvature="0" />
	<path style="fill:none;stroke:red;stroke-width:1px;stroke-linecap:butt;stroke-linejoin:miter;stroke-opacity:1" d="M 213.531,421.426 228.264,413.241 z" id="boundary" inkscape:connector-curvature="0" />
	<path style="fill:none;stroke:red;stroke-width:1px;stroke-linecap:butt;stroke-linejoin:miter;stroke-opacity:1" d="M 218.442,504.911 234.812,504.911 z" id="boundary" inkscape:connector-curvature="0" />
	<path style="fill:none;stroke:red;stroke-width:1px;stroke-linecap:butt;stroke-linejoin:miter;stroke-opacity:1" d="M 224.99,259.366 239.723,267.551 z" id="boundary" inkscape:connector-curvature="0" />
	<path style="fill:none;stroke:red;stroke-width:1px;stroke-linecap:butt;stroke-linejoin:miter;stroke-opacity:1" d="M 226.627,82.5743 242.997,85.8482 z" id="boundary" inkscape:connector-curvature="0" />
	<path style="fill:none;stroke:red;stroke-width:1px;stroke-linecap:butt;stroke-linejoin:miter;stroke-opacity:1" d="M 228.264,413.241 241.36,401.782 z" id="boundary" inkscape:connector-curvature="0" />
	<path style="fill:none;stroke:red;stroke-width:1px;stroke-linecap:butt;stroke-linejoin:miter;stroke-opacity:1" d="M 234.812,504.911 249.545,496.726 z" id="boundary" inkscape:connector-curvature="0" />
	<path style="fill:none;stroke:red;stroke-width:1px;stroke-linecap:butt;stroke-linejoin:miter;stroke-opacity:1" d="M 239.723,267.551 251.182,280.647 z" id="boundary" inkscape:connector-curvature="0" />
	<path style="fill:none;stroke:red;stroke-width:1px;stroke-linecap:butt;stroke-linejoin:miter;stroke-opacity:1" d="M 241.36,401.782 257.729,393.597 z" id="boundary" inkscape:connector-curvature="0" />
	<path style="fill:none;stroke:red;stroke-width:1px;stroke-linecap:butt;stroke-linejoin:miter;stroke-opacity:1" d="M 242.997,85.8482 259.366,90.7591 z" id="boundary" inkscape:connector-curvature="0" />
	<path style="fill:none;stroke:red;stroke-width:1px;stroke-linecap:butt;stroke-linejoin:miter;stroke-opacity:1" d="M 249.545,496.726 262.64,486.904 z" id="boundary" inkscape:connector-curvature="0" />
	<path style="fill:none;stroke:red;stroke-width:1px;stroke-linecap:butt;stroke-linejoin:miter;stroke-opacity:1" d="M 251.182,280.647 264.277,292.106 z" id="boundary" inkscape:connector-curvature="0" />
	<path style="fill:none;stroke:red;stroke-width:1px;stroke-linecap:butt;stroke-linejoin:miter;stroke-opacity:1" d="M 257.729,393.597 270.825,380.502 z" id="boundary" inkscape:connector-curvature="0" />
	<path style="fill:none;stroke:red;stroke-width:1px;stroke-linecap:butt;stroke-linejoin:miter;stroke-opacity:1" d="M 259.366,90.7591 270.825,103.855 z" id="boundary" inkscape:connector-curvature="0" />
	<path style="fill:none;stroke:red;stroke-width:1px;stroke-linecap:butt;stroke-linejoin:miter;stroke-opacity:1" d="M 262.64,486.904 279.01,478.719 z" id="boundary" inkscape:connector-curvature="0" />
	<path style="fill:none;stroke:red;stroke-width:1px;stroke-linecap:butt;stroke-linejoin:miter;stroke-opacity:1" d="M 264.277,292.106 274.099,305.201 z" id="boundary" inkscape:connector-curvature="0" />
	<path style="fill:none;stroke:red;stroke-width:1px;stroke-linecap:butt;stroke-linejoin:miter;stroke-opacity:1" d="M 270.825,103.855 283.921,115.314 z" id="boundary" inkscape:connector-curvature="0" />
	<path style="fill:none;stroke:red;stroke-width:1px;stroke-linecap:butt;stroke-linejoin:miter;stroke-opacity:1" d="M 274.099,305.201 282.284,319.934 z" id="boundary" inkscape:connector-curvature="0" />
	<path style="fill:none;stroke:red;stroke-width:1px;stroke-linecap:butt;stroke-linejoin:miter;stroke-opacity:1" d="M 279.01,478.719 292.106,463.987 z" id="boundary" inkscape:connector-curvature="0" />
	<path style="fill:none;stroke:red;stroke-width:1px;stroke-linecap:butt;stroke-linejoin:miter;stroke-opacity:1" d="M 282.284,319.934 295.38,331.393 z" id="boundary" inkscape:connector-curvature="0" />
	<path style="fill:none;stroke:red;stroke-width:1px;stroke-linecap:butt;stroke-linejoin:miter;stroke-opacity:1" d="M 283.921,115.314 295.38,128.409 z" id="boundary" inkscape:connector-curvature="0" />
	<path style="fill:none;stroke:red;stroke-width:1px;stroke-linecap:butt;stroke-linejoin:miter;stroke-opacity:1" d="M 292.106,463.987 308.475,463.987 z" id="boundary" inkscape:connector-curvature="0" />
	<path style="fill:none;stroke:red;stroke-width:1px;stroke-linecap:butt;stroke-linejoin:miter;stroke-opacity:1" d="M 295.38,128.409 311.749,134.957 z" id="boundary" inkscape:connector-curvature="0" />
	<path style="fill:none;stroke:red;stroke-width:1px;stroke-linecap:butt;stroke-linejoin:miter;stroke-opacity:1" d="M 308.475,463.987 324.845,463.987 z" id="boundary" inkscape:connector-curvature="0" />
	<path style="fill:none;stroke:red;stroke-width:1px;stroke-linecap:butt;stroke-linejoin:miter;stroke-opacity:1" d="M 311.749,134.957 323.208,148.053 z" id="boundary" inkscape:connector-curvature="0" />
	<path style="fill:none;stroke:red;stroke-width:1px;stroke-linecap:butt;stroke-linejoin:miter;stroke-opacity:1" d="M 323.208,148.053 336.304,159.512 z" id="boundary" inkscape:connector-curvature="0" />
	<path style="fill:none;stroke:red;stroke-width:1px;stroke-linecap:butt;stroke-linejoin:miter;stroke-opacity:1" d="M 324.845,463.987 341.215,463.987 z" id="boundary" inkscape:connector-curvature="0" />
	<path style="fill:none;stroke:red;stroke-width:1px;stroke-linecap:butt;stroke-linejoin:miter;stroke-opacity:1" d="M 336.304,159.512 347.762,172.607 z" id="boundary" inkscape:connector-curvature="0" />
	<path style="fill:none;stroke:red;stroke-width:1px;stroke-linecap:butt;stroke-linejoin:miter;stroke-opacity:1" d="M 341.215,463.987 357.584,463.987 z" id="boundary" inkscape:connector-curvature="0" />
	<path style="fill:none;stroke:red;stroke-width:1px;stroke-linecap:butt;stroke-linejoin:miter;stroke-opacity:1" d="M 347.762,172.607 364.132,179.155 z" id="boundary" inkscape:connector-curvature="0" />
	<path style="fill:none;stroke:red;stroke-width:1px;stroke-linecap:butt;stroke-linejoin:miter;stroke-opacity:1" d="M 357.584,463.987 373.954,467.261 z" id="boundary" inkscape:connector-curvature="0" />
	<path style="fill:none;stroke:red;stroke-width:1px;stroke-linecap:butt;stroke-linejoin:miter;stroke-opacity:1" d="M 364.132,179.155 373.954,192.251 z" id="boundary" inkscape:connector-curvature="0" />
	<path style="fill:none;stroke:red;stroke-width:1px;stroke-linecap:butt;stroke-linejoin:miter;stroke-opacity:1" d="M 373.954,192.251 382.139,206.983 z" id="boundary" inkscape:connector-curvature="0" />
	<path style="fill:none;stroke:red;stroke-width:1px;stroke-linecap:butt;stroke-linejoin:miter;stroke-opacity:1" d="M 373.954,467.261 385.413,480.356 z" id="boundary" inkscape:connector-curvature="0" />
	<path style="fill:none;stroke:red;stroke-width:1px;stroke-linecap:butt;stroke-linejoin:miter;stroke-opacity:1" d="M 382.139,206.983 390.323,221.716 z" id="boundary" inkscape:connector-curvature="0" />
	<path style="fill:none;stroke:red;stroke-width:1px;stroke-linecap:butt;stroke-linejoin:miter;stroke-opacity:1" d="M 385.413,480.356 396.871,493.452 z" id="boundary" inkscape:connector-curvature="0" />
	<path style="fill:none;stroke:red;stroke-width:1px;stroke-linecap:butt;stroke-linejoin:miter;stroke-opacity:1" d="M 390.323,221.716 398.508,236.449 z" id="boundary" inkscape:connector-curvature="0" />
	<path style="fill:none;stroke:red;stroke-width:1px;stroke-linecap:butt;stroke-linejoin:miter;stroke-opacity:1" d="M 396.871,493.452 409.967,504.911 z" id="boundary" inkscape:connector-curvature="0" />
	<path style="fill:none;stroke:red;stroke-width:1px;stroke-linecap:butt;stroke-linejoin:miter;stroke-opacity:1" d="M 398.508,236.449 406.693,251.182 z" id="boundary" inkscape:connector-curvature="0" />
	<path style="fill:none;stroke:red;stroke-width:1px;stroke-linecap:butt;stroke-linejoin:miter;stroke-opacity:1" d="M 406.693,251.182 414.878,265.914 z" id="boundary" inkscape:connector-curvature="0" />
	<path style="fill:none;stroke:red;stroke-width:1px;stroke-linecap:butt;stroke-linejoin:miter;stroke-opacity:1" d="M 409.967,504.911 423.063,516.37 z" id="boundary" inkscape:connector-curvature="0" />
	<path style="fill:none;stroke:red;stroke-width:1px;stroke-linecap:butt;stroke-linejoin:miter;stroke-opacity:1" d="M 414.878,265.914 423.063,280.647 z" id="boundary" inkscape:connector-curvature="0" />
	<path style="fill:none;stroke:red;stroke-width:1px;stroke-linecap:butt;stroke-linejoin:miter;stroke-opacity:1" d="M 423.063,280.647 436.158,292.106 z" id="boundary" inkscape:connector-curvature="0" />
	<path style="fill:none;stroke:red;stroke-width:1px;stroke-linecap:butt;stroke-linejoin:miter;stroke-opacity:1" d="M 423.063,516.37 429.611,532.739 z" id="boundary" inkscape:connector-curvature="0" />
	<path style="fill:none;stroke:red;stroke-width:1px;stroke-linecap:butt;stroke-linejoin:miter;stroke-opacity:1" d="M 429.611,532.739 442.706,544.198 z" id="boundary" inkscape:connector-curvature="0" />
	<path style="fill:none;stroke:red;stroke-width:1px;stroke-linecap:butt;stroke-linejoin:miter;stroke-opacity:1" d="M 436.158,292.106 447.617,305.201 z" id="boundary" inkscape:connector-curvature="0" />
	<path style="fill:none;stroke:red;stroke-width:1px;stroke-linecap:butt;stroke-linejoin:miter;stroke-opacity:1" d="M 442.706,544.198 454.165,557.294 z" id="boundary" inkscape:connector-curvature="0" />
	<path style="fill:none;stroke:red;stroke-width:1px;stroke-linecap:butt;stroke-linejoin:miter;stroke-opacity:1" d="M 447.617,305.201 460.713,316.66 z" id="boundary" inkscape:connector-curvature="0" />
	<path style="fill:none;stroke:red;stroke-width:1px;stroke-linecap:butt;stroke-linejoin:miter;stroke-opacity:1" d="M 454.165,557.294 463.987,570.389 z" id="boundary" inkscape:connector-curvature="0" />
	<path style="fill:none;stroke:red;stroke-width:1px;stroke-linecap:butt;stroke-linejoin:miter;stroke-opacity:1" d="M 460.713,316.66 467.261,333.03 z" id="boundary" inkscape:connector-curvature="0" />
	<path style="fill:none;stroke:red;stroke-width:1px;stroke-linecap:butt;stroke-linejoin:miter;stroke-opacity:1" d="M 463.987,570.389 478.719,578.574 z" id="boundary" inkscape:connector-curvature="0" />
	<path style="fill:none;stroke:red;stroke-width:1px;stroke-linecap:butt;stroke-linejoin:miter;stroke-opacity:1" d="M 467.261,333.03 480.356,344.488 z" id="boundary" inkscape:connector-curvature="0" />
	<path style="fill:none;stroke:red;stroke-width:1px;stroke-linecap:butt;stroke-linejoin:miter;stroke-opacity:1" d="M 478.719,578.574 488.541,591.67 z" id="boundary" inkscape:connector-curvature="0" />
	<path style="fill:none;stroke:red;stroke-width:1px;stroke-linecap:butt;stroke-linejoin:miter;stroke-opacity:1" d="M 480.356,344.488 486.904,360.858 z" id="boundary" inkscape:connector-curvature="0" />
	<path style="fill:none;stroke:red;stroke-width:1px;stroke-linecap:butt;stroke-linejoin:miter;stroke-opacity:1" d="M 486.904,360.858 496.726,373.954 z" id="boundary" inkscape:connector-curvature="0" />
	<path style="fill:none;stroke:red;stroke-width:1px;stroke-linecap:butt;stroke-linejoin:miter;stroke-opacity:1" d="M 488.541,591.67 504.911,598.218 z" id="boundary" inkscape:connector-curvature="0" />
	<path style="fill:none;stroke:red;stroke-width:1px;stroke-linecap:butt;stroke-linejoin:miter;stroke-opacity:1" d="M 496.726,373.954 504.911,388.686 z" id="boundary" inkscape:connector-curvature="0" />
	<path style="fill:none;stroke:red;stroke-width:1px;stroke-linecap:butt;stroke-linejoin:miter;stroke-opacity:1" d="M 504.911,388.686 513.096,403.419 z" id="boundary" inkscape:connector-curvature="0" />
	<path style="fill:none;stroke:red;stroke-width:1px;stroke-linecap:butt;stroke-linejoin:miter;stroke-opacity:1" d="M 504.911,598.218 519.644,606.403 z" id="boundary" inkscape:connector-curvature="0" />
	<path style="fill:none;stroke:red;stroke-width:1px;stroke-linecap:butt;stroke-linejoin:miter;stroke-opacity:1" d="M 513.096,403.419 521.281,418.152 z" id="boundary" inkscape:connector-curvature="0" />
	<path style="fill:none;stroke:red;stroke-width:1px;stroke-linecap:butt;stroke-linejoin:miter;stroke-opacity:1" d="M 519.644,606.403 536.013,611.314 z" id="boundary" inkscape:connector-curvature="0" />
	<path style="fill:none;stroke:red;stroke-width:1px;stroke-linecap:butt;stroke-linejoin:miter;stroke-opacity:1" d="M 521.281,418.152 532.739,431.248 z" id="boundary" inkscape:connector-curvature="0" />
	<path style="fill:none;stroke:red;stroke-width:1px;stroke-linecap:butt;stroke-linejoin:miter;stroke-opacity:1" d="M 532.739,431.248 540.924,445.98 z" id="boundary" inkscape:connector-curvature="0" />
	<path style="fill:none;stroke:red;stroke-width:1px;stroke-linecap:butt;stroke-linejoin:miter;stroke-opacity:1" d="M 536.013,611.314 550.746,619.498 z" id="boundary" inkscape:connector-curvature="0" />
	<path style="fill:none;stroke:red;stroke-width:1px;stroke-linecap:butt;stroke-linejoin:miter;stroke-opacity:1" d="M 540.924,445.98 552.383,459.076 z" id="boundary" inkscape:connector-curvature="0" />
	<path style="fill:none;stroke:red;stroke-width:1px;stroke-linecap:butt;stroke-linejoin:miter;stroke-opacity:1" d="M 550.746,619.498 567.116,619.498 z" id="boundary" inkscape:connector-curvature="0" />
	<path style="fill:none;stroke:red;stroke-width:1px;stroke-linecap:butt;stroke-linejoin:miter;stroke-opacity:1" d="M 552.383,459.076 560.568,473.809 z" id="boundary" inkscape:connector-curvature="0" />
	<path style="fill:none;stroke:red;stroke-width:1px;stroke-linecap:butt;stroke-linejoin:miter;stroke-opacity:1" d="M 560.568,473.809 567.116,490.178 z" id="boundary" inkscape:connector-curvature="0" />
	<path style="fill:none;stroke:red;stroke-width:1px;stroke-linecap:butt;stroke-linejoin:miter;stroke-opacity:1" d="M 567.116,490.178 578.574,503.274 z" id="boundary" inkscape:connector-curvature="0" />
	<path style="fill:none;stroke:red;stroke-width:1px;stroke-linecap:butt;stroke-linejoin:miter;stroke-opacity:1" d="M 567.116,619.498 583.485,619.498 z" id="boundary" inkscape:connector-curvature="0" />
	<path style="fill:none;stroke:red;stroke-width:1px;stroke-linecap:butt;stroke-linejoin:miter;stroke-opacity:1" d="M 578.574,503.274 586.759,518.007 z" id="boundary" inkscape:connector-curvature="0" />
	<path style="fill:none;stroke:red;stroke-width:1px;stroke-linecap:butt;stroke-linejoin:miter;stroke-opacity:1" d="M 583.485,619.498 599.855,619.498 z" id="boundary" inkscape:connector-curvature="0" />
	<path style="fill:none;stroke:red;stroke-width:1px;stroke-linecap:butt;stroke-linejoin:miter;stroke-opacity:1" d="M 586.759,518.007 599.855,529.465 z" id="boundary" inkscape:connector-curvature="0" />
	<path style="fill:none;stroke:red;stroke-width:1px;stroke-linecap:butt;stroke-linejoin:miter;stroke-opacity:1" d="M 599.855,529.465 611.314,542.561 z" id="boundary" inkscape:connector-curvature="0" />
	<path style="fill:none;stroke:red;stroke-width:1px;stroke-linecap:butt;stroke-linejoin:miter;stroke-opacity:1" d="M 599.855,619.498 616.224,619.498 z" id="boundary" inkscape:connector-curvature="0" />
	<path style="fill:none;stroke:red;stroke-width:1px;stroke-linecap:butt;stroke-linejoin:miter;stroke-opacity:1" d="M 611.314,542.561 627.683,544.198 z" id="boundary" inkscape:connector-curvature="0" />
	<path style="fill:none;stroke:red;stroke-width:1px;stroke-linecap:butt;stroke-linejoin:miter;stroke-opacity:1" d="M 616.224,619.498 632.594,619.498 z" id="boundary" inkscape:connector-curvature="0" />
	<path style="fill:none;stroke:red;stroke-width:1px;stroke-linecap:butt;stroke-linejoin:miter;stroke-opacity:1" d="M 627.683,544.198 644.053,544.198 z" id="boundary" inkscape:connector-curvature="0" />
	<path style="fill:none;stroke:red;stroke-width:1px;stroke-linecap:butt;stroke-linejoin:miter;stroke-opacity:1" d="M 632.594,619.498 648.964,619.498 z" id="boundary" inkscape:connector-curvature="0" />
	<path style="fill:none;stroke:red;stroke-width:1px;stroke-linecap:butt;stroke-linejoin:miter;stroke-opacity:1" d="M 644.053,544.198 658.785,552.383 z" id="boundary" inkscape:connector-curvature="0" />
	<path style="fill:none;stroke:red;stroke-width:1px;stroke-linecap:butt;stroke-linejoin:miter;stroke-opacity:1" d="M 648.964,619.498 665.333,619.498 z" id="boundary" inkscape:connector-curvature="0" />
	<path style="fill:none;stroke:red;stroke-width:1px;stroke-linecap:butt;stroke-linejoin:miter;stroke-opacity:1" d="M 658.785,552.383 675.155,555.657 z" id="boundary" inkscape:connector-curvature="0" />
	<path style="fill:none;stroke:red;stroke-width:1px;stroke-linecap:butt;stroke-linejoin:miter;stroke-opacity:1" d="M 665.333,619.498 680.066,627.683 z" id="boundary" inkscape:connector-curvature="0" />
	<path style="fill:none;stroke:red;stroke-width:1px;stroke-linecap:butt;stroke-linejoin:miter;stroke-opacity:1" d="M 675.155,555.657 691.525,560.568 z" id="boundary" inkscape:connector-curvature="0" />
	<path style="fill:none;stroke:red;stroke-width:1px;stroke-linecap:butt;stroke-linejoin:miter;stroke-opacity:1" d="M 680.066,627.683 696.436,627.683 z" id="boundary" inkscape:connector-curvature="0" />
	<path style="fill:none;stroke:red;stroke-width:1px;stroke-linecap:butt;stroke-linejoin:miter;stroke-opacity:1" d="M 691.525,560.568 706.257,568.752 z" id="boundary" inkscape:connector-curvature="0" />
	<path style="fill:none;stroke:red;stroke-width:1px;stroke-linecap:butt;stroke-linejoin:miter;stroke-opacity:1" d="M 696.436,627.683 712.805,634.231 z" id="boundary" inkscape:connector-curvature="0" />
	<path style="fill:none;stroke:red;stroke-width:1px;stroke-linecap:butt;stroke-linejoin:miter;stroke-opacity:1" d="M 706.257,568.752 722.627,568.752 z" id="boundary" inkscape:connector-curvature="0" />
	<path style="fill:none;stroke:red;stroke-width:1px;stroke-linecap:butt;stroke-linejoin:miter;stroke-opacity:1" d="M 712.805,634.231 729.175,635.868 z" id="boundary" inkscape:connector-curvature="0" />
	<path style="fill:none;stroke:red;stroke-width:1px;stroke-linecap:butt;stroke-linejoin:miter;stroke-opacity:1" d="M 722.627,568.752 737.36,576.937 z" id="boundary" inkscape:connector-curvature="0" />
	<path style="fill:none;stroke:red;stroke-width:1px;stroke-linecap:butt;stroke-linejoin:miter;stroke-opacity:1" d="M 729.175,635.868 745.545,635.868 z" id="boundary" inkscape:connector-curvature="0" />
	<path style="fill:none;stroke:red;stroke-width:1px;stroke-linecap:butt;stroke-linejoin:miter;stroke-opacity:1" d="M 737.36,576.937 753.729,576.937 z" id="boundary" inkscape:connector-curvature="0" />
	<path style="fill:none;stroke:red;stroke-width:1px;stroke-linecap:butt;stroke-linejoin:miter;stroke-opacity:1" d="M 745.545,635.868 760.277,644.053 z" id="boundary" inkscape:connector-curvature="0" />
	<path style="fill:none;stroke:red;stroke-width:1px;stroke-linecap:butt;stroke-linejoin:miter;stroke-opacity:1" d="M 753.729,576.937 768.462,585.122 z" id="boundary" inkscape:connector-curvature="0" />
	<path style="fill:none;stroke:red;stroke-width:1px;stroke-linecap:butt;stroke-linejoin:miter;stroke-opacity:1" d="M 760.277,644.053 776.647,644.053 z" id="boundary" inkscape:connector-curvature="0" />
	<path style="fill:none;stroke:red;stroke-width:1px;stroke-linecap:butt;stroke-linejoin:miter;stroke-opacity:1" d="M 768.462,585.122 784.832,585.122 z" id="boundary" inkscape:connector-curvature="0" />
	<path style="fill:none;stroke:red;stroke-width:1px;stroke-linecap:butt;stroke-linejoin:miter;stroke-opacity:1" d="M 776.647,644.053 793.017,648.964 z" id="boundary" inkscape:connector-curvature="0" />
	<path style="fill:none;stroke:red;stroke-width:1px;stroke-linecap:butt;stroke-linejoin:miter;stroke-opacity:1" d="M 784.832,585.122 799.564,593.307 z" id="boundary" inkscape:connector-curvature="0" />
	<path style="fill:none;stroke:red;stroke-width:1px;stroke-linecap:butt;stroke-linejoin:miter;stroke-opacity:1" d="M 793.017,648.964 809.386,652.238 z" id="boundary" inkscape:connector-curvature="0" />
	<path style="fill:none;stroke:red;stroke-width:1px;stroke-linecap:butt;stroke-linejoin:miter;stroke-opacity:1" d="M 799.564,593.307 815.934,593.307 z" id="boundary" inkscape:connector-curvature="0" />
	<path style="fill:none;stroke:red;stroke-width:1px;stroke-linecap:butt;stroke-linejoin:miter;stroke-opacity:1" d="M 809.386,652.238 825.756,657.149 z" id="boundary" inkscape:connector-curvature="0" />
	<path style="fill:none;stroke:red;stroke-width:1px;stroke-linecap:butt;stroke-linejoin:miter;stroke-opacity:1" d="M 815.934,593.307 832.304,593.307 z" id="boundary" inkscape:connector-curvature="0" />
	<path style="fill:none;stroke:red;stroke-width:1px;stroke-linecap:butt;stroke-linejoin:miter;stroke-opacity:1" d="M 825.756,657.149 842.125,660.422 z" id="boundary" inkscape:connector-curvature="0" />
	<path style="fill:none;stroke:red;stroke-width:1px;stroke-linecap:butt;stroke-linejoin:miter;stroke-opacity:1" d="M 832.304,593.307 848.673,593.307 z" id="boundary" inkscape:connector-curvature="0" />
	<path style="fill:none;stroke:red;stroke-width:1px;stroke-linecap:butt;stroke-linejoin:miter;stroke-opacity:1" d="M 842.125,660.422 858.495,665.333 z" id="boundary" inkscape:connector-curvature="0" />
	<path style="fill:none;stroke:red;stroke-width:1px;stroke-linecap:butt;stroke-linejoin:miter;stroke-opacity:1" d="M 848.673,593.307 865.043,593.307 z" id="boundary" inkscape:connector-curvature="0" />
	<path style="fill:none;stroke:red;stroke-width:1px;stroke-linecap:butt;stroke-linejoin:miter;stroke-opacity:1" d="M 858.495,665.333 874.865,668.607 z" id="boundary" inkscape:connector-curvature="0" />
	<path style="fill:none;stroke:red;stroke-width:1px;stroke-linecap:butt;stroke-linejoin:miter;stroke-opacity:1" d="M 865.043,593.307 881.413,593.307 z" id="boundary" inkscape:connector-curvature="0" />
	<path style="fill:none;stroke:red;stroke-width:1px;stroke-linecap:butt;stroke-linejoin:miter;stroke-opacity:1" d="M 874.865,668.607 891.234,668.607 z" id="boundary" inkscape:connector-curvature="0" />
	<path style="fill:none;stroke:red;stroke-width:1px;stroke-linecap:butt;stroke-linejoin:miter;stroke-opacity:1" d="M 881.413,593.307 897.782,593.307 z" id="boundary" inkscape:connector-curvature="0" />
	<path style="fill:none;stroke:red;stroke-width:1px;stroke-linecap:butt;stroke-linejoin:miter;stroke-opacity:1" d="M 891.234,668.607 907.604,668.607 z" id="boundary" inkscape:connector-curvature="0" />
	<path style="fill:none;stroke:red;stroke-width:1px;stroke-linecap:butt;stroke-linejoin:miter;stroke-opacity:1" d="M 897.782,593.307 914.152,593.307 z" id="boundary" inkscape:connector-curvature="0" />
	<path style="fill:none;stroke:red;stroke-width:1px;stroke-linecap:butt;stroke-linejoin:miter;stroke-opacity:1" d="M 907.604,668.607 920.7,678.429 z" id="boundary" inkscape:connector-curvature="0" />
	<path style="fill:none;stroke:red;stroke-width:1px;stroke-linecap:butt;stroke-linejoin:miter;stroke-opacity:1" d="M 914.152,593.307 930.521,593.307 z" id="boundary" inkscape:connector-curvature="0" />
	<path style="fill:none;stroke:red;stroke-width:1px;stroke-linecap:butt;stroke-linejoin:miter;stroke-opacity:1" d="M 920.7,678.429 932.158,691.525 z" id="boundary" inkscape:connector-curvature="0" />
	<path style="fill:none;stroke:red;stroke-width:1px;stroke-linecap:butt;stroke-linejoin:miter;stroke-opacity:1" d="M 930.521,593.307 946.891,593.307 z" id="boundary" inkscape:connector-curvature="0" />
	<path style="fill:none;stroke:red;stroke-width:1px;stroke-linecap:butt;stroke-linejoin:miter;stroke-opacity:1" d="M 932.158,691.525 948.528,698.073 z" id="boundary" inkscape:connector-curvature="0" />
	<path style="fill:none;stroke:red;stroke-width:1px;stroke-linecap:butt;stroke-linejoin:miter;stroke-opacity:1" d="M 946.891,593.307 963.261,598.218 z" id="boundary" inkscape:connector-curvature="0" />
	<path style="fill:none;stroke:red;stroke-width:1px;stroke-linecap:butt;stroke-linejoin:miter;stroke-opacity:1" d="M 948.528,698.073 961.624,709.531 z" id="boundary" inkscape:connector-curvature="0" />
	<path style="fill:none;stroke:red;stroke-width:1px;stroke-linecap:butt;stroke-linejoin:miter;stroke-opacity:1" d="M 961.624,709.531 976.356,717.716 z" id="boundary" inkscape:connector-curvature="0" />
	<path style="fill:none;stroke:red;stroke-width:1px;stroke-linecap:butt;stroke-linejoin:miter;stroke-opacity:1" d="M 963.261,598.218 977.993,606.403 z" id="boundary" inkscape:connector-curvature="0" />
	<path style="fill:none;stroke:red;stroke-width:1px;stroke-linecap:butt;stroke-linejoin:miter;stroke-opacity:1" d="M 976.356,717.716 986.178,730.812 z" id="boundary" inkscape:connector-curvature="0" />
	<path style="fill:none;stroke:red;stroke-width:1px;stroke-linecap:butt;stroke-linejoin:miter;stroke-opacity:1" d="M 977.993,606.403 986.178,621.135 z" id="boundary" inkscape:connector-curvature="0" />
	<path style="fill:none;stroke:red;stroke-width:1px;stroke-linecap:butt;stroke-linejoin:miter;stroke-opacity:1" d="M 986.178,621.135 996,634.231 z" id="boundary" inkscape:connector-curvature="0" />
	<path style="fill:none;stroke:red;stroke-width:1px;stroke-linecap:butt;stroke-linejoin:miter;stroke-opacity:1" d="M 996,634.231 996,650.601 z" id="boundary" inkscape:connector-curvature="0" />
	<path style="fill:none;stroke:red;stroke-width:1px;stroke-linecap:butt;stroke-linejoin:miter;stroke-opacity:1" d="M 996,650.601 996,666.97 z" id="boundary" inkscape:connector-curvature="0" />
	<path style="fill:none;stroke:red;stroke-width:1px;stroke-linecap:butt;stroke-linejoin:miter;stroke-opacity:1" d="M 996,666.97 996,683.34 z" id="boundary" inkscape:connector-curvature="0" />
	<circle cx="4" cy="33.4653" r="4" fill="#0" id="circle0"/>
	<circle cx="4" cy="49.835" r="4" fill="#0" id="circle1"/>
	<circle cx="12.1848" cy="17.0957" r="4" fill="#0" id="circle2"/>
	<circle cx="17.0957" cy="61.2937" r="4" fill="#0" id="circle3"/>
	<circle cx="28.5545" cy="8.91089" r="4" fill="#0" id="circle4"/>
	<circle cx="30.1914" cy="71.1155" r="4" fill="#0" id="circle5"/>
	<circle cx="44.9241" cy="4" r="4" fill="#0" id="circle6"/>
	<circle cx="44.9241" cy="79.3003" r="4" fill="#0" id="circle7"/>
	<circle cx="44.9241" cy="770.099" r="4" fill="#0" id="circle8"/>
	<circle cx="44.9241" cy="786.469" r="4" fill="#0" id="circle9"/>
	<circle cx="58.0198" cy="757.003" r="4" fill="#0" id="circle10"/>
	<circle cx="59.6568" cy="87.4851" r="4" fill="#0" id="circle11"/>
	<circle cx="61.2937" cy="4" r="4" fill="#0" id="circle12"/>
	<circle cx="61.2937" cy="791.38" r="4" fill="#0" id="circle13"/>
	<circle cx="72.7525" cy="748.818" r="4" fill="#0" id="circle14"/>
	<circle cx="76.0264" cy="87.4851" r="4" fill="#0" id="circle15"/>
	<circle cx="76.0264" cy="799.564" r="4" fill="#0" id="circle16"/>
	<circle cx="77.6634" cy="7.27393" r="4" fill="#0" id="circle17"/>
	<circle cx="87.4851" cy="100.581" r="4" fill="#0" id="circle18"/>
	<circle cx="87.4851" cy="740.634" r="4" fill="#0" id="circle19"/>
	<circle cx="87.4851" cy="812.66" r="4" fill="#0" id="circle20"/>
	<circle cx="94.033" cy="12.1848" r="4" fill="#0" id="circle21"/>
	<circle cx="94.033" cy="116.95" r="4" fill="#0" id="circle22"/>
	<circle cx="94.033" cy="133.32" r="4" fill="#0" id="circle23"/>
	<circle cx="94.033" cy="149.69" r="4" fill="#0" id="circle24"/>
	<circle cx="94.033" cy="166.059" r="4" fill="#0" id="circle25"/>
	<circle cx="100.581" cy="824.119" r="4" fill="#0" id="circle26"/>
	<circle cx="102.218" cy="180.792" r="4" fill="#0" id="circle27"/>
	<circle cx="102.218" cy="720.99" r="4" fill="#0" id="circle28"/>
	<circle cx="108.766" cy="20.3696" r="4" fill="#0" id="circle29"/>
	<circle cx="110.403" cy="195.525" r="4" fill="#0" id="circle30"/>
	<circle cx="110.403" cy="696.436" r="4" fill="#0" id="circle31"/>
	<circle cx="115.314" cy="832.304" r="4" fill="#0" id="circle32"/>
	<circle cx="118.587" cy="647.327" r="4" fill="#0" id="circle33"/>
	<circle cx="118.587" cy="663.696" r="4" fill="#0" id="circle34"/>
	<circle cx="118.587" cy="680.066" r="4" fill="#0" id="circle35"/>
	<circle cx="121.861" cy="208.62" r="4" fill="#0" id="circle36"/>
	<circle cx="123.498" cy="28.5545" r="4" fill="#0" id="circle37"/>
	<circle cx="126.772" cy="532.739" r="4" fill="#0" id="circle38"/>
	<circle cx="126.772" cy="549.109" r="4" fill="#0" id="circle39"/>
	<circle cx="126.772" cy="565.479" r="4" fill="#0" id="circle40"/>
	<circle cx="126.772" cy="581.848" r="4" fill="#0" id="circle41"/>
	<circle cx="126.772" cy="598.218" r="4" fill="#0" id="circle42"/>
	<circle cx="126.772" cy="614.587" r="4" fill="#0" id="circle43"/>
	<circle cx="126.772" cy="630.957" r="4" fill="#0" id="circle44"/>
	<circle cx="128.409" cy="843.762" r="4" fill="#0" id="circle45"/>
	<circle cx="134.957" cy="218.442" r="4" fill="#0" id="circle46"/>
	<circle cx="134.957" cy="491.815" r="4" fill="#0" id="circle47"/>
	<circle cx="134.957" cy="508.185" r="4" fill="#0" id="circle48"/>
	<circle cx="136.594" cy="38.3762" r="4" fill="#0" id="circle49"/>
	<circle cx="143.142" cy="475.446" r="4" fill="#0" id="circle50"/>
	<circle cx="144.779" cy="53.1089" r="4" fill="#0" id="circle51"/>
	<circle cx="144.779" cy="69.4785" r="4" fill="#0" id="circle52"/>
	<circle cx="144.779" cy="848.673" r="4" fill="#0" id="circle53"/>
	<circle cx="149.69" cy="226.627" r="4" fill="#0" id="circle54"/>
	<circle cx="156.238" cy="462.35" r="4" fill="#0" id="circle55"/>
	<circle cx="161.149" cy="69.4785" r="4" fill="#0" id="circle56"/>
	<circle cx="161.149" cy="840.488" r="4" fill="#0" id="circle57"/>
	<circle cx="166.059" cy="226.627" r="4" fill="#0" id="circle58"/>
	<circle cx="169.333" cy="824.119" r="4" fill="#0" id="circle59"/>
	<circle cx="172.607" cy="454.165" r="4" fill="#0" id="circle60"/>
	<circle cx="177.518" cy="74.3894" r="4" fill="#0" id="circle61"/>
	<circle cx="177.518" cy="239.723" r="4" fill="#0" id="circle62"/>
	<circle cx="177.518" cy="783.195" r="4" fill="#0" id="circle63"/>
	<circle cx="177.518" cy="799.564" r="4" fill="#0" id="circle64"/>
	<circle cx="185.703" cy="734.086" r="4" fill="#0" id="circle65"/>
	<circle cx="185.703" cy="750.455" r="4" fill="#0" id="circle66"/>
	<circle cx="185.703" cy="766.825" r="4" fill="#0" id="circle67"/>
	<circle cx="187.34" cy="445.98" r="4" fill="#0" id="circle68"/>
	<circle cx="193.888" cy="77.6634" r="4" fill="#0" id="circle69"/>
	<circle cx="193.888" cy="246.271" r="4" fill="#0" id="circle70"/>
	<circle cx="193.888" cy="660.422" r="4" fill="#0" id="circle71"/>
	<circle cx="193.888" cy="676.792" r="4" fill="#0" id="circle72"/>
	<circle cx="193.888" cy="693.162" r="4" fill="#0" id="circle73"/>
	<circle cx="193.888" cy="709.531" r="4" fill="#0" id="circle74"/>
	<circle cx="200.436" cy="434.521" r="4" fill="#0" id="circle75"/>
	<circle cx="202.073" cy="603.129" r="4" fill="#0" id="circle76"/>
	<circle cx="202.073" cy="619.498" r="4" fill="#0" id="circle77"/>
	<circle cx="202.073" cy="635.868" r="4" fill="#0" id="circle78"/>
	<circle cx="208.62" cy="254.455" r="4" fill="#0" id="circle79"/>
	<circle cx="210.257" cy="77.6634" r="4" fill="#0" id="circle80"/>
	<circle cx="210.257" cy="529.465" r="4" fill="#0" id="circle81"/>
	<circle cx="210.257" cy="545.835" r="4" fill="#0" id="circle82"/>
	<circle cx="210.257" cy="562.205" r="4" fill="#0" id="circle83"/>
	<circle cx="210.257" cy="578.574" r="4" fill="#0" id="circle84"/>
	<circle cx="213.531" cy="421.426" r="4" fill="#0" id="circle85"/>
	<circle cx="218.442" cy="504.911" r="4" fill="#0" id="circle86"/>
	<circle cx="224.99" cy="259.366" r="4" fill="#0" id="circle87"/>
	<circle cx="226.627" cy="82.5743" r="4" fill="#0" id="circle88"/>
	<circle cx="228.264" cy="413.241" r="4" fill="#0" id="circle89"/>
	<circle cx="234.812" cy="504.911" r="4" fill="#0" id="circle90"/>
	<circle cx="239.723" cy="267.551" r="4" fill="#0" id="circle91"/>
	<circle cx="241.36" cy="401.782" r="4" fill="#0" id="circle92"/>
	<circle cx="242.997" cy="85.8482" r="4" fill="#0" id="circle93"/>
	<circle cx="249.545" cy="496.726" r="4" fill="#0" id="circle94"/>
	<circle cx="251.182" cy="280.647" r="4" fill="#0" id="circle95"/>
	<circle cx="257.729" cy="393.597" r="4" fill="#0" id="circle96"/>
	<circle cx="259.366" cy="90.7591" r="4" fill="#0" id="circle97"/>
	<circle cx="262.64" cy="486.904" r="4" fill="#0" id="circle98"/>
	<circle cx="264.277" cy="292.106" r="4" fill="#0" id="circle99"/>
	<circle cx="270.825" cy="103.855" r="4" fill="#0" id="circle100"/>
	<circle cx="270.825" cy="380.502" r="4" fill="#0" id="circle101"/>
	<circle cx="274.099" cy="305.201" r="4" fill="#0" id="circle102"/>
	<circle cx="279.01" cy="478.719" r="4" fill="#0" id="circle103"/>
	<circle cx="282.284" cy="319.934" r="4" fill="#0" id="circle104"/>
	<circle cx="283.921" cy="115.314" r="4" fill="#0" id="circle105"/>
	<circle cx="283.921" cy="367.406" r="4" fill="#0" id="circle106"/>
	<circle cx="292.106" cy="463.987" r="4" fill="#0" id="circle107"/>
	<circle cx="295.38" cy="128.409" r="4" fill="#0" id="circle108"/>
	<circle cx="295.38" cy="331.393" r="4" fill="#0" id="circle109"/>
	<circle cx="298.653" cy="347.762" r="4" fill="#0" id="circle110"/>
	<circle cx="308.475" cy="463.987" r="4" fill="#0" id="circle111"/>
	<circle cx="311.749" cy="134.957" r="4" fill="#0" id="circle112"/>
	<circle cx="323.208" cy="148.053" r="4" fill="#0" id="circle113"/>
	<circle cx="324.845" cy="463.987" r="4" fill="#0" id="circle114"/>
	<circle cx="336.304" cy="159.512" r="4" fill="#0" id="circle115"/>
	<circle cx="341.215" cy="463.987" r="4" fill="#0" id="circle116"/>
	<circle cx="347.762" cy="172.607" r="4" fill="#0" id="circle117"/>
	<circle cx="357.584" cy="463.987" r="4" fill="#0" id="circle118"/>
	<circle cx="364.132" cy="179.155" r="4" fill="#0" id="circle119"/>
	<circle cx="373.954" cy="192.251" r="4" fill="#0" id="circle120"/>
	<circle cx="373.954" cy="467.261" r="4" fill="#0" id="circle121"/>
	<circle cx="382.139" cy="206.983" r="4" fill="#0" id="circle122"/>
	<circle cx="385.413" cy="480.356" r="4" fill="#0" id="circle123"/>
	<circle cx="390.323" cy="221.716" r="4" fill="#0" id="circle124"/>
	<circle cx="396.871" cy="493.452" r="4" fill="#0" id="circle125"/>
	<circle cx="398.508" cy="236.449" r="4" fill="#0" id="circle126"/>
	<circle cx="406.693" cy="251.182" r="4" fill="#0" id="circle127"/>
	<circle cx="409.967" cy="504.911" r="4" fill="#0" id="circle128"/>
	<circle cx="414.878" cy="265.914" r="4" fill="#0" id="circle129"/>
	<circle cx="423.063" cy="280.647" r="4" fill="#0" id="circle130"/>
	<circle cx="423.063" cy="516.37" r="4" fill="#0" id="circle131"/>
	<circle cx="429.611" cy="532.739" r="4" fill="#0" id="circle132"/>
	<circle cx="436.158" cy="292.106" r="4" fill="#0" id="circle133"/>
	<circle cx="442.706" cy="544.198" r="4" fill="#0" id="circle134"/>
	<circle cx="447.617" cy="305.201" r="4" fill="#0" id="circle135"/>
	<circle cx="454.165" cy="557.294" r="4" fill="#0" id="circle136"/>
	<circle cx="460.713" cy="316.66" r="4" fill="#0" id="circle137"/>
	<circle cx="463.987" cy="570.389" r="4" fill="#0" id="circle138"/>
	<circle cx="467.261" cy="333.03" r="4" fill="#0" id="circle139"/>
	<circle cx="478.719" cy="578.574" r="4" fill="#0" id="circle140"/>
	<circle cx="480.356" cy="344.488" r="4" fill="#0" id="circle141"/>
	<circle cx="486.904" cy="360.858" r="4" fill="#0" id="circle142"/>
	<circle cx="488.541" cy="591.67" r="4" fill="#0" id="circle143"/>
	<circle cx="496.726" cy="373.954" r="4" fill="#0" id="circle144"/>
	<circle cx="504.911" cy="388.686" r="4" fill="#0" id="circle145"/>
	<circle cx="504.911" cy="598.218" r="4" fill="#0" id="circle146"/>
	<circle cx="513.096" cy="403.419" r="4" fill="#0" id="circle147"/>
	<circle cx="519.644" cy="606.403" r="4" fill="#0" id="circle148"/>
	<circle cx="521.281" cy="418.152" r="4" fill="#0" id="circle149"/>
	<circle cx="532.739" cy="431.248" r="4" fill="#0" id="circle150"/>
	<circle cx="536.013" cy="611.314" r="4" fill="#0" id="circle151"/>
	<circle cx="540.924" cy="445.98" r="4" fill="#0" id="circle152"/>
	<circle cx="550.746" cy="619.498" r="4" fill="#0" id="circle153"/>
	<circle cx="552.383" cy="459.076" r="4" fill="#0" id="circle154"/>
	<circle cx="560.568" cy="473.809" r="4" fill="#0" id="circle155"/>
	<circle cx="567.116" cy="490.178" r="4" fill="#0" id="circle156"/>
	<circle cx="567.116" cy="619.498" r="4" fill="#0" id="circle157"/>
	<circle cx="578.574" cy="503.274" r="4" fill="#0" id="circle158"/>
	<circle cx="583.485" cy="619.498" r="4" fill="#0" id="circle159"/>
	<circle cx="586.759" cy="518.007" r="4" fill="#0" id="circle160"/>
	<circle cx="599.855" cy="529.465" r="4" fill="#0" id="circle161"/>
	<circle cx="599.855" cy="619.498" r="4" fill="#0" id="circle162"/>
	<circle cx="611.314" cy="542.561" r="4" fill="#0" id="circle163"/>
	<circle cx="616.224" cy="619.498" r="4" fill="#0" id="circle164"/>
	<circle cx="627.683" cy="544.198" r="4" fill="#0" id="circle165"/>
	<circle cx="632.594" cy="619.498" r="4" fill="#0" id="circle166"/>
	<circle cx="644.053" cy="544.198" r="4" fill="#0" id="circle167"/>
	<circle cx="648.964" cy="619.498" r="4" fill="#0" id="circle168"/>
	<circle cx="658.785" cy="552.383" r="4" fill="#0" id="circle169"/>
	<circle cx="665.333" cy="619.498" r="4" fill="#0" id="circle170"/>
	<circle cx="675.155" cy="555.657" r="4" fill="#0" id="circle171"/>
	<circle cx="680.066" cy="627.683" r="4" fill="#0" id="circle172"/>
	<circle cx="691.525" cy="560.568" r="4" fill="#0" id="circle173"/>
	<circle cx="696.436" cy="627.683" r="4" fill="#0" id="circle174"/>
	<circle cx="706.257" cy="568.752" r="4" fill="#0" id="circle175"/>
	<circle cx="712.805" cy="634.231" r="4" fill="#0" id="circle176"/>
	<circle cx="722.627" cy="568.752" r="4" fill="#0" id="circle177"/>
	<circle cx="729.175" cy="635.868" r="4" fill="#0" id="circle178"/>
	<circle cx="737.36" cy="576.937" r="4" fill="#0" id="circle179"/>
	<circle cx="745.545" cy="635.868" r="4" fill="#0" id="circle180"/>
	<circle cx="753.729" cy="576.937" r="4" fill="#0" id="circle181"/>
	<circle cx="760.277" cy="644.053" r="4" fill="#0" id="circle182"/>
	<circle cx="768.462" cy="585.122" r="4" fill="#0" id="circle183"/>
	<circle cx="776.647" cy="644.053" r="4" fill="#0" id="circle184"/>
	<circle cx="784.832" cy="585.122" r="4" fill="#0" id="circle185"/>
	<circle cx="793.017" cy="648.964" r="4" fill="#0" id="circle186"/>
	<circle cx="799.564" cy="593.307" r="4" fill="#0" id="circle187"/>
	<circle cx="809.386" cy="652.238" r="4" fill="#0" id="circle188"/>
	<circle cx="815.934" cy="593.307" r="4" fill="#0" id="circle189"/>
	<circle cx="825.756" cy="657.149" r="4" fill="#0" id="circle190"/>
	<circle cx="832.304" cy="593.307" r="4" fill="#0" id="circle191"/>
	<circle cx="842.125" cy="660.422" r="4" fill="#0" id="circle192"/>
	<circle cx="848.673" cy="593.307" r="4" fill="#0" id="circle193"/>
	<circle cx="858.495" cy="665.333" r="4" fill="#0" id="circle194"/>
	<circle cx="865.043" cy="593.307" r="4" fill="#0" id="circle195"/>
	<circle cx="874.865" cy="668.607" r="4" fill="#0" id="circle196"/>
	<circle cx="881.413" cy="593.307" r="4" fill="#0" id="circle197"/>
	<circle cx="891.234" cy="668.607" r="4" fill="#0" id="circle198"/>
	<circle cx="897.782" cy="593.307" r="4" fill="#0" id="circle199"/>
	<circle cx="907.604" cy="668.607" r="4" fill="#0" id="circle200"/>
	<circle cx="914.152" cy="593.307" r="4" fill="#0" id="circle201"/>
	<circle cx="920.7" cy="678.429" r="4" fill="#0" id="circle202"/>
	<circle cx="930.521" cy="593.307" r="4" fill="#0" id="circle203"/>
	<circle cx="932.158" cy="691.525" r="4" fill="#0" id="circle204"/>
	<circle cx="946.891" cy="593.307" r="4" fill="#0" id="circle205"/>
	<circle cx="948.528" cy="698.073" r="4" fill="#0" id="circle206"/>
	<circle cx="961.624" cy="709.531" r="4" fill="#0" id="circle207"/>
	<circle cx="963.261" cy="598.218" r="4" fill="#0" id="circle208"/>
	<circle cx="976.356" cy="717.716" r="4" fill="#0" id="circle209"/>
	<circle cx="977.993" cy="606.403" r="4" fill="#0" id="circle210"/>
	<circle cx="986.178" cy="621.135" r="4" fill="#0" id="circle211"/>
	<circle cx="986.178" cy="730.812" r="4" fill="#0" id="circle212"/>
	<circle cx="996" cy="634.231" r="4" fill="#0" id="circle213"/>
	<circle cx="996" cy="650.601" r="4" fill="#0" id="circle214"/>
	<circle cx="996" cy="666.97" r="4" fill="#0" id="circle215"/>
	<circle cx="996" cy="683.34" r="4" fill="#0" id="circle216"/>
	<circle cx="996" cy="699.71" r="4" fill="#0" id="circle217"/>
	<circle cx="996" cy="716.079" r="4" fill="#0" id="circle218"/>
	</g>
</svg>