<?xml version="1.0" encoding="UTF-8" standalone="no"?>
<!-- Created with CurveBenchmark -->
<svg
	xmlns:dc="http://purl.org/dc/elements/1.1/"
	xmlns:cc="http://creativecommons.org/ns#"
	xmlns:rdf="http://www.w3.org/1999/02/22-rdf-syntax-ns#"
	xmlns:svg="http://www.w3.org/2000/svg"
	xmlns="http://www.w3.org/2000/svg"
	xmlns:sodipodi="http://sodipodi.sourceforge.net/DTD/sodipodi-0.dtd"
	xmlns:inkscape="http://www.inkscape.org/namespaces/inkscape"
	width="1000"
	height="1000"
	id="svg2"
	version="1.1"
	sodipodi:docname="manifold/discur-bird53.png.txt">
<defs
	id="defs4" />
<metadata
	id="metadata7">
	<rdf:RDF>
		<cc:Work
			rdf:about="">
			<dc:format>image/svg+xml</dc:format>
			<dc:type
				rdf:resource="http://purl.org/dc/dcmitype/StillImage" />
			<dc:title></dc:title>
		</cc:Work>
	</rdf:RDF>
</metadata>
<g
	inkscape:label="Layer 1"
	inkscape:groupmode="layer"
	id="layer1">
	<path style="fill:none;stroke:red;stroke-width:1px;stroke-linecap:butt;stroke-linejoin:miter;stroke-opacity:1" d="M 4,569.348 4,582.557 z" id="boundary" inkscape:connector-curvature="0" />
	<path style="fill:none;stroke:red;stroke-width:1px;stroke-linecap:butt;stroke-linejoin:miter;stroke-opacity:1" d="M 4,569.348 14.5672,558.78 z" id="boundary" inkscape:connector-curvature="0" />
	<path style="fill:none;stroke:red;stroke-width:1px;stroke-linecap:butt;stroke-linejoin:miter;stroke-opacity:1" d="M 4,582.557 17.2091,582.557 z" id="boundary" inkscape:connector-curvature="0" />
	<path style="fill:none;stroke:red;stroke-width:1px;stroke-linecap:butt;stroke-linejoin:miter;stroke-opacity:1" d="M 14.5672,558.78 25.1345,566.706 z" id="boundary" inkscape:connector-curvature="0" />
	<path style="fill:none;stroke:red;stroke-width:1px;stroke-linecap:butt;stroke-linejoin:miter;stroke-opacity:1" d="M 23.8136,536.325 30.4181,523.116 z" id="boundary" inkscape:connector-curvature="0" />
	<path style="fill:none;stroke:red;stroke-width:1px;stroke-linecap:butt;stroke-linejoin:miter;stroke-opacity:1" d="M 25.1345,566.706 35.7017,557.459 z" id="boundary" inkscape:connector-curvature="0" />
	<path style="fill:none;stroke:red;stroke-width:1px;stroke-linecap:butt;stroke-linejoin:miter;stroke-opacity:1" d="M 30.4181,523.116 40.9854,512.549 z" id="boundary" inkscape:connector-curvature="0" />
	<path style="fill:none;stroke:red;stroke-width:1px;stroke-linecap:butt;stroke-linejoin:miter;stroke-opacity:1" d="M 35.7017,557.459 44.9481,546.892 z" id="boundary" inkscape:connector-curvature="0" />
	<path style="fill:none;stroke:red;stroke-width:1px;stroke-linecap:butt;stroke-linejoin:miter;stroke-opacity:1" d="M 40.9854,512.549 47.5899,499.34 z" id="boundary" inkscape:connector-curvature="0" />
	<path style="fill:none;stroke:red;stroke-width:1px;stroke-linecap:butt;stroke-linejoin:miter;stroke-opacity:1" d="M 44.9481,533.683 44.9481,546.892 z" id="boundary" inkscape:connector-curvature="0" />
	<path style="fill:none;stroke:red;stroke-width:1px;stroke-linecap:butt;stroke-linejoin:miter;stroke-opacity:1" d="M 44.9481,533.683 58.1571,520.474 z" id="boundary" inkscape:connector-curvature="0" />
	<path style="fill:none;stroke:red;stroke-width:1px;stroke-linecap:butt;stroke-linejoin:miter;stroke-opacity:1" d="M 47.5899,499.34 54.1944,486.13 z" id="boundary" inkscape:connector-curvature="0" />
	<path style="fill:none;stroke:red;stroke-width:1px;stroke-linecap:butt;stroke-linejoin:miter;stroke-opacity:1" d="M 54.1944,486.13 63.4407,463.675 z" id="boundary" inkscape:connector-curvature="0" />
	<path style="fill:none;stroke:red;stroke-width:1px;stroke-linecap:butt;stroke-linejoin:miter;stroke-opacity:1" d="M 58.1571,520.474 64.7617,507.265 z" id="boundary" inkscape:connector-curvature="0" />
	<path style="fill:none;stroke:red;stroke-width:1px;stroke-linecap:butt;stroke-linejoin:miter;stroke-opacity:1" d="M 63.4407,463.675 70.0453,443.862 z" id="boundary" inkscape:connector-curvature="0" />
	<path style="fill:none;stroke:red;stroke-width:1px;stroke-linecap:butt;stroke-linejoin:miter;stroke-opacity:1" d="M 64.7617,507.265 75.3289,498.019 z" id="boundary" inkscape:connector-curvature="0" />
	<path style="fill:none;stroke:red;stroke-width:1px;stroke-linecap:butt;stroke-linejoin:miter;stroke-opacity:1" d="M 70.0453,443.862 76.6498,430.652 z" id="boundary" inkscape:connector-curvature="0" />
	<path style="fill:none;stroke:red;stroke-width:1px;stroke-linecap:butt;stroke-linejoin:miter;stroke-opacity:1" d="M 75.3289,498.019 81.9334,484.81 z" id="boundary" inkscape:connector-curvature="0" />
	<path style="fill:none;stroke:red;stroke-width:1px;stroke-linecap:butt;stroke-linejoin:miter;stroke-opacity:1" d="M 76.6498,430.652 83.2543,410.839 z" id="boundary" inkscape:connector-curvature="0" />
	<path style="fill:none;stroke:red;stroke-width:1px;stroke-linecap:butt;stroke-linejoin:miter;stroke-opacity:1" d="M 81.9334,484.81 88.5379,471.601 z" id="boundary" inkscape:connector-curvature="0" />
	<path style="fill:none;stroke:red;stroke-width:1px;stroke-linecap:butt;stroke-linejoin:miter;stroke-opacity:1" d="M 83.2543,410.839 89.8589,391.025 z" id="boundary" inkscape:connector-curvature="0" />
	<path style="fill:none;stroke:red;stroke-width:1px;stroke-linecap:butt;stroke-linejoin:miter;stroke-opacity:1" d="M 88.5379,471.601 95.1425,458.391 z" id="boundary" inkscape:connector-curvature="0" />
	<path style="fill:none;stroke:red;stroke-width:1px;stroke-linecap:butt;stroke-linejoin:miter;stroke-opacity:1" d="M 89.8589,391.025 96.4634,371.212 z" id="boundary" inkscape:connector-curvature="0" />
	<path style="fill:none;stroke:red;stroke-width:1px;stroke-linecap:butt;stroke-linejoin:miter;stroke-opacity:1" d="M 95.1425,458.391 101.747,445.182 z" id="boundary" inkscape:connector-curvature="0" />
	<path style="fill:none;stroke:red;stroke-width:1px;stroke-linecap:butt;stroke-linejoin:miter;stroke-opacity:1" d="M 96.4634,252.33 103.068,232.517 z" id="boundary" inkscape:connector-curvature="0" />
	<path style="fill:none;stroke:red;stroke-width:1px;stroke-linecap:butt;stroke-linejoin:miter;stroke-opacity:1" d="M 96.4634,252.33 103.068,264.218 z" id="boundary" inkscape:connector-curvature="0" />
	<path style="fill:none;stroke:red;stroke-width:1px;stroke-linecap:butt;stroke-linejoin:miter;stroke-opacity:1" d="M 96.4634,371.212 103.068,358.003 z" id="boundary" inkscape:connector-curvature="0" />
	<path style="fill:none;stroke:red;stroke-width:1px;stroke-linecap:butt;stroke-linejoin:miter;stroke-opacity:1" d="M 101.747,445.182 108.352,431.973 z" id="boundary" inkscape:connector-curvature="0" />
	<path style="fill:none;stroke:red;stroke-width:1px;stroke-linecap:butt;stroke-linejoin:miter;stroke-opacity:1" d="M 103.068,232.517 113.635,221.949 z" id="boundary" inkscape:connector-curvature="0" />
	<path style="fill:none;stroke:red;stroke-width:1px;stroke-linecap:butt;stroke-linejoin:miter;stroke-opacity:1" d="M 103.068,264.218 103.068,277.427 z" id="boundary" inkscape:connector-curvature="0" />
	<path style="fill:none;stroke:red;stroke-width:1px;stroke-linecap:butt;stroke-linejoin:miter;stroke-opacity:1" d="M 103.068,277.427 109.672,289.316 z" id="boundary" inkscape:connector-curvature="0" />
	<path style="fill:none;stroke:red;stroke-width:1px;stroke-linecap:butt;stroke-linejoin:miter;stroke-opacity:1" d="M 103.068,358.003 109.672,344.794 z" id="boundary" inkscape:connector-curvature="0" />
	<path style="fill:none;stroke:red;stroke-width:1px;stroke-linecap:butt;stroke-linejoin:miter;stroke-opacity:1" d="M 108.352,431.973 114.956,418.764 z" id="boundary" inkscape:connector-curvature="0" />
	<path style="fill:none;stroke:red;stroke-width:1px;stroke-linecap:butt;stroke-linejoin:miter;stroke-opacity:1" d="M 109.672,289.316 113.635,302.525 z" id="boundary" inkscape:connector-curvature="0" />
	<path style="fill:none;stroke:red;stroke-width:1px;stroke-linecap:butt;stroke-linejoin:miter;stroke-opacity:1" d="M 109.672,344.794 116.277,328.943 z" id="boundary" inkscape:connector-curvature="0" />
	<path style="fill:none;stroke:red;stroke-width:1px;stroke-linecap:butt;stroke-linejoin:miter;stroke-opacity:1" d="M 113.635,221.949 120.24,208.74 z" id="boundary" inkscape:connector-curvature="0" />
	<path style="fill:none;stroke:red;stroke-width:1px;stroke-linecap:butt;stroke-linejoin:miter;stroke-opacity:1" d="M 113.635,302.525 116.277,315.734 z" id="boundary" inkscape:connector-curvature="0" />
	<path style="fill:none;stroke:red;stroke-width:1px;stroke-linecap:butt;stroke-linejoin:miter;stroke-opacity:1" d="M 114.956,418.764 121.561,405.555 z" id="boundary" inkscape:connector-curvature="0" />
	<path style="fill:none;stroke:red;stroke-width:1px;stroke-linecap:butt;stroke-linejoin:miter;stroke-opacity:1" d="M 116.277,315.734 116.277,328.943 z" id="boundary" inkscape:connector-curvature="0" />
	<path style="fill:none;stroke:red;stroke-width:1px;stroke-linecap:butt;stroke-linejoin:miter;stroke-opacity:1" d="M 120.24,208.74 132.128,202.136 z" id="boundary" inkscape:connector-curvature="0" />
	<path style="fill:none;stroke:red;stroke-width:1px;stroke-linecap:butt;stroke-linejoin:miter;stroke-opacity:1" d="M 121.561,405.555 128.165,392.346 z" id="boundary" inkscape:connector-curvature="0" />
	<path style="fill:none;stroke:red;stroke-width:1px;stroke-linecap:butt;stroke-linejoin:miter;stroke-opacity:1" d="M 128.165,392.346 134.77,379.137 z" id="boundary" inkscape:connector-curvature="0" />
	<path style="fill:none;stroke:red;stroke-width:1px;stroke-linecap:butt;stroke-linejoin:miter;stroke-opacity:1" d="M 132.128,202.136 138.732,190.248 z" id="boundary" inkscape:connector-curvature="0" />
	<path style="fill:none;stroke:red;stroke-width:1px;stroke-linecap:butt;stroke-linejoin:miter;stroke-opacity:1" d="M 134.77,379.137 141.374,365.928 z" id="boundary" inkscape:connector-curvature="0" />
	<path style="fill:none;stroke:red;stroke-width:1px;stroke-linecap:butt;stroke-linejoin:miter;stroke-opacity:1" d="M 138.732,190.248 149.3,182.322 z" id="boundary" inkscape:connector-curvature="0" />
	<path style="fill:none;stroke:red;stroke-width:1px;stroke-linecap:butt;stroke-linejoin:miter;stroke-opacity:1" d="M 141.374,365.928 147.979,352.719 z" id="boundary" inkscape:connector-curvature="0" />
	<path style="fill:none;stroke:red;stroke-width:1px;stroke-linecap:butt;stroke-linejoin:miter;stroke-opacity:1" d="M 147.979,352.719 161.188,346.115 z" id="boundary" inkscape:connector-curvature="0" />
	<path style="fill:none;stroke:red;stroke-width:1px;stroke-linecap:butt;stroke-linejoin:miter;stroke-opacity:1" d="M 149.3,182.322 161.188,175.718 z" id="boundary" inkscape:connector-curvature="0" />
	<path style="fill:none;stroke:red;stroke-width:1px;stroke-linecap:butt;stroke-linejoin:miter;stroke-opacity:1" d="M 161.188,175.718 174.397,175.718 z" id="boundary" inkscape:connector-curvature="0" />
	<path style="fill:none;stroke:red;stroke-width:1px;stroke-linecap:butt;stroke-linejoin:miter;stroke-opacity:1" d="M 161.188,346.115 174.397,339.51 z" id="boundary" inkscape:connector-curvature="0" />
	<path style="fill:none;stroke:red;stroke-width:1px;stroke-linecap:butt;stroke-linejoin:miter;stroke-opacity:1" d="M 174.397,175.718 187.606,175.718 z" id="boundary" inkscape:connector-curvature="0" />
	<path style="fill:none;stroke:red;stroke-width:1px;stroke-linecap:butt;stroke-linejoin:miter;stroke-opacity:1" d="M 174.397,339.51 183.643,328.943 z" id="boundary" inkscape:connector-curvature="0" />
	<path style="fill:none;stroke:red;stroke-width:1px;stroke-linecap:butt;stroke-linejoin:miter;stroke-opacity:1" d="M 183.643,328.943 194.21,319.696 z" id="boundary" inkscape:connector-curvature="0" />
	<path style="fill:none;stroke:red;stroke-width:1px;stroke-linecap:butt;stroke-linejoin:miter;stroke-opacity:1" d="M 187.606,175.718 200.815,175.718 z" id="boundary" inkscape:connector-curvature="0" />
	<path style="fill:none;stroke:red;stroke-width:1px;stroke-linecap:butt;stroke-linejoin:miter;stroke-opacity:1" d="M 194.21,319.696 203.457,309.129 z" id="boundary" inkscape:connector-curvature="0" />
	<path style="fill:none;stroke:red;stroke-width:1px;stroke-linecap:butt;stroke-linejoin:miter;stroke-opacity:1" d="M 200.815,175.718 214.024,175.718 z" id="boundary" inkscape:connector-curvature="0" />
	<path style="fill:none;stroke:red;stroke-width:1px;stroke-linecap:butt;stroke-linejoin:miter;stroke-opacity:1" d="M 203.457,309.129 216.666,309.129 z" id="boundary" inkscape:connector-curvature="0" />
	<path style="fill:none;stroke:red;stroke-width:1px;stroke-linecap:butt;stroke-linejoin:miter;stroke-opacity:1" d="M 214.024,175.718 227.233,177.039 z" id="boundary" inkscape:connector-curvature="0" />
	<path style="fill:none;stroke:red;stroke-width:1px;stroke-linecap:butt;stroke-linejoin:miter;stroke-opacity:1" d="M 216.666,309.129 228.554,302.525 z" id="boundary" inkscape:connector-curvature="0" />
	<path style="fill:none;stroke:red;stroke-width:1px;stroke-linecap:butt;stroke-linejoin:miter;stroke-opacity:1" d="M 227.233,177.039 240.442,182.322 z" id="boundary" inkscape:connector-curvature="0" />
	<path style="fill:none;stroke:red;stroke-width:1px;stroke-linecap:butt;stroke-linejoin:miter;stroke-opacity:1" d="M 228.554,302.525 241.763,302.525 z" id="boundary" inkscape:connector-curvature="0" />
	<path style="fill:none;stroke:red;stroke-width:1px;stroke-linecap:butt;stroke-linejoin:miter;stroke-opacity:1" d="M 240.442,182.322 253.651,182.322 z" id="boundary" inkscape:connector-curvature="0" />
	<path style="fill:none;stroke:red;stroke-width:1px;stroke-linecap:butt;stroke-linejoin:miter;stroke-opacity:1" d="M 241.763,302.525 254.972,302.525 z" id="boundary" inkscape:connector-curvature="0" />
	<path style="fill:none;stroke:red;stroke-width:1px;stroke-linecap:butt;stroke-linejoin:miter;stroke-opacity:1" d="M 253.651,182.322 266.86,182.322 z" id="boundary" inkscape:connector-curvature="0" />
	<path style="fill:none;stroke:red;stroke-width:1px;stroke-linecap:butt;stroke-linejoin:miter;stroke-opacity:1" d="M 254.972,302.525 268.181,302.525 z" id="boundary" inkscape:connector-curvature="0" />
	<path style="fill:none;stroke:red;stroke-width:1px;stroke-linecap:butt;stroke-linejoin:miter;stroke-opacity:1" d="M 266.86,182.322 280.069,182.322 z" id="boundary" inkscape:connector-curvature="0" />
	<path style="fill:none;stroke:red;stroke-width:1px;stroke-linecap:butt;stroke-linejoin:miter;stroke-opacity:1" d="M 268.181,302.525 280.069,295.92 z" id="boundary" inkscape:connector-curvature="0" />
	<path style="fill:none;stroke:red;stroke-width:1px;stroke-linecap:butt;stroke-linejoin:miter;stroke-opacity:1" d="M 280.069,182.322 291.957,175.718 z" id="boundary" inkscape:connector-curvature="0" />
	<path style="fill:none;stroke:red;stroke-width:1px;stroke-linecap:butt;stroke-linejoin:miter;stroke-opacity:1" d="M 280.069,295.92 293.278,293.278 z" id="boundary" inkscape:connector-curvature="0" />
	<path style="fill:none;stroke:red;stroke-width:1px;stroke-linecap:butt;stroke-linejoin:miter;stroke-opacity:1" d="M 291.957,175.718 301.204,153.262 z" id="boundary" inkscape:connector-curvature="0" />
	<path style="fill:none;stroke:red;stroke-width:1px;stroke-linecap:butt;stroke-linejoin:miter;stroke-opacity:1" d="M 293.278,293.278 302.525,282.711 z" id="boundary" inkscape:connector-curvature="0" />
	<path style="fill:none;stroke:red;stroke-width:1px;stroke-linecap:butt;stroke-linejoin:miter;stroke-opacity:1" d="M 301.204,126.844 301.204,140.053 z" id="boundary" inkscape:connector-curvature="0" />
	<path style="fill:none;stroke:red;stroke-width:1px;stroke-linecap:butt;stroke-linejoin:miter;stroke-opacity:1" d="M 301.204,126.844 307.808,113.635 z" id="boundary" inkscape:connector-curvature="0" />
	<path style="fill:none;stroke:red;stroke-width:1px;stroke-linecap:butt;stroke-linejoin:miter;stroke-opacity:1" d="M 301.204,140.053 301.204,153.262 z" id="boundary" inkscape:connector-curvature="0" />
	<path style="fill:none;stroke:red;stroke-width:1px;stroke-linecap:butt;stroke-linejoin:miter;stroke-opacity:1" d="M 302.525,282.711 315.734,276.107 z" id="boundary" inkscape:connector-curvature="0" />
	<path style="fill:none;stroke:red;stroke-width:1px;stroke-linecap:butt;stroke-linejoin:miter;stroke-opacity:1" d="M 307.808,100.426 307.808,113.635 z" id="boundary" inkscape:connector-curvature="0" />
	<path style="fill:none;stroke:red;stroke-width:1px;stroke-linecap:butt;stroke-linejoin:miter;stroke-opacity:1" d="M 307.808,100.426 314.413,80.6125 z" id="boundary" inkscape:connector-curvature="0" />
	<path style="fill:none;stroke:red;stroke-width:1px;stroke-linecap:butt;stroke-linejoin:miter;stroke-opacity:1" d="M 314.413,80.6125 324.98,70.0453 z" id="boundary" inkscape:connector-curvature="0" />
	<path style="fill:none;stroke:red;stroke-width:1px;stroke-linecap:butt;stroke-linejoin:miter;stroke-opacity:1" d="M 315.734,276.107 328.943,269.502 z" id="boundary" inkscape:connector-curvature="0" />
	<path style="fill:none;stroke:red;stroke-width:1px;stroke-linecap:butt;stroke-linejoin:miter;stroke-opacity:1" d="M 324.98,70.0453 335.547,59.478 z" id="boundary" inkscape:connector-curvature="0" />
	<path style="fill:none;stroke:red;stroke-width:1px;stroke-linecap:butt;stroke-linejoin:miter;stroke-opacity:1" d="M 328.943,269.502 340.831,262.897 z" id="boundary" inkscape:connector-curvature="0" />
	<path style="fill:none;stroke:red;stroke-width:1px;stroke-linecap:butt;stroke-linejoin:miter;stroke-opacity:1" d="M 335.547,59.478 348.756,52.8735 z" id="boundary" inkscape:connector-curvature="0" />
	<path style="fill:none;stroke:red;stroke-width:1px;stroke-linecap:butt;stroke-linejoin:miter;stroke-opacity:1" d="M 340.831,262.897 348.756,249.688 z" id="boundary" inkscape:connector-curvature="0" />
	<path style="fill:none;stroke:red;stroke-width:1px;stroke-linecap:butt;stroke-linejoin:miter;stroke-opacity:1" d="M 348.756,52.8735 359.324,43.6272 z" id="boundary" inkscape:connector-curvature="0" />
	<path style="fill:none;stroke:red;stroke-width:1px;stroke-linecap:butt;stroke-linejoin:miter;stroke-opacity:1" d="M 348.756,249.688 355.361,229.875 z" id="boundary" inkscape:connector-curvature="0" />
	<path style="fill:none;stroke:red;stroke-width:1px;stroke-linecap:butt;stroke-linejoin:miter;stroke-opacity:1" d="M 355.361,229.875 368.57,223.27 z" id="boundary" inkscape:connector-curvature="0" />
	<path style="fill:none;stroke:red;stroke-width:1px;stroke-linecap:butt;stroke-linejoin:miter;stroke-opacity:1" d="M 359.324,43.6272 371.212,37.0226 z" id="boundary" inkscape:connector-curvature="0" />
	<path style="fill:none;stroke:red;stroke-width:1px;stroke-linecap:butt;stroke-linejoin:miter;stroke-opacity:1" d="M 368.57,223.27 381.779,225.912 z" id="boundary" inkscape:connector-curvature="0" />
	<path style="fill:none;stroke:red;stroke-width:1px;stroke-linecap:butt;stroke-linejoin:miter;stroke-opacity:1" d="M 371.212,37.0226 384.421,37.0226 z" id="boundary" inkscape:connector-curvature="0" />
	<path style="fill:none;stroke:red;stroke-width:1px;stroke-linecap:butt;stroke-linejoin:miter;stroke-opacity:1" d="M 381.779,225.912 394.988,229.875 z" id="boundary" inkscape:connector-curvature="0" />
	<path style="fill:none;stroke:red;stroke-width:1px;stroke-linecap:butt;stroke-linejoin:miter;stroke-opacity:1" d="M 384.421,37.0226 396.309,30.4181 z" id="boundary" inkscape:connector-curvature="0" />
	<path style="fill:none;stroke:red;stroke-width:1px;stroke-linecap:butt;stroke-linejoin:miter;stroke-opacity:1" d="M 394.988,229.875 406.876,236.479 z" id="boundary" inkscape:connector-curvature="0" />
	<path style="fill:none;stroke:red;stroke-width:1px;stroke-linecap:butt;stroke-linejoin:miter;stroke-opacity:1" d="M 396.309,30.4181 409.518,25.1345 z" id="boundary" inkscape:connector-curvature="0" />
	<path style="fill:none;stroke:red;stroke-width:1px;stroke-linecap:butt;stroke-linejoin:miter;stroke-opacity:1" d="M 406.876,236.479 418.764,243.084 z" id="boundary" inkscape:connector-curvature="0" />
	<path style="fill:none;stroke:red;stroke-width:1px;stroke-linecap:butt;stroke-linejoin:miter;stroke-opacity:1" d="M 409.518,25.1345 422.727,18.53 z" id="boundary" inkscape:connector-curvature="0" />
	<path style="fill:none;stroke:red;stroke-width:1px;stroke-linecap:butt;stroke-linejoin:miter;stroke-opacity:1" d="M 418.764,243.084 431.973,243.084 z" id="boundary" inkscape:connector-curvature="0" />
	<path style="fill:none;stroke:red;stroke-width:1px;stroke-linecap:butt;stroke-linejoin:miter;stroke-opacity:1" d="M 422.727,18.53 435.936,17.2091 z" id="boundary" inkscape:connector-curvature="0" />
	<path style="fill:none;stroke:red;stroke-width:1px;stroke-linecap:butt;stroke-linejoin:miter;stroke-opacity:1" d="M 431.973,243.084 443.862,249.688 z" id="boundary" inkscape:connector-curvature="0" />
	<path style="fill:none;stroke:red;stroke-width:1px;stroke-linecap:butt;stroke-linejoin:miter;stroke-opacity:1" d="M 435.936,17.2091 449.145,11.9254 z" id="boundary" inkscape:connector-curvature="0" />
	<path style="fill:none;stroke:red;stroke-width:1px;stroke-linecap:butt;stroke-linejoin:miter;stroke-opacity:1" d="M 443.862,249.688 457.071,254.972 z" id="boundary" inkscape:connector-curvature="0" />
	<path style="fill:none;stroke:red;stroke-width:1px;stroke-linecap:butt;stroke-linejoin:miter;stroke-opacity:1" d="M 449.145,11.9254 462.354,10.6045 z" id="boundary" inkscape:connector-curvature="0" />
	<path style="fill:none;stroke:red;stroke-width:1px;stroke-linecap:butt;stroke-linejoin:miter;stroke-opacity:1" d="M 453.108,681.625 461.033,692.192 z" id="boundary" inkscape:connector-curvature="0" />
	<path style="fill:none;stroke:red;stroke-width:1px;stroke-linecap:butt;stroke-linejoin:miter;stroke-opacity:1" d="M 453.108,681.625 466.317,675.02 z" id="boundary" inkscape:connector-curvature="0" />
	<path style="fill:none;stroke:red;stroke-width:1px;stroke-linecap:butt;stroke-linejoin:miter;stroke-opacity:1" d="M 457.071,254.972 470.28,256.293 z" id="boundary" inkscape:connector-curvature="0" />
	<path style="fill:none;stroke:red;stroke-width:1px;stroke-linecap:butt;stroke-linejoin:miter;stroke-opacity:1" d="M 461.033,692.192 474.242,692.192 z" id="boundary" inkscape:connector-curvature="0" />
	<path style="fill:none;stroke:red;stroke-width:1px;stroke-linecap:butt;stroke-linejoin:miter;stroke-opacity:1" d="M 462.354,10.6045 475.563,5.32091 z" id="boundary" inkscape:connector-curvature="0" />
	<path style="fill:none;stroke:red;stroke-width:1px;stroke-linecap:butt;stroke-linejoin:miter;stroke-opacity:1" d="M 466.317,675.02 476.884,664.453 z" id="boundary" inkscape:connector-curvature="0" />
	<path style="fill:none;stroke:red;stroke-width:1px;stroke-linecap:butt;stroke-linejoin:miter;stroke-opacity:1" d="M 470.28,256.293 483.489,261.577 z" id="boundary" inkscape:connector-curvature="0" />
	<path style="fill:none;stroke:red;stroke-width:1px;stroke-linecap:butt;stroke-linejoin:miter;stroke-opacity:1" d="M 474.242,692.192 487.451,685.587 z" id="boundary" inkscape:connector-curvature="0" />
	<path style="fill:none;stroke:red;stroke-width:1px;stroke-linecap:butt;stroke-linejoin:miter;stroke-opacity:1" d="M 475.563,5.32091 488.772,4 z" id="boundary" inkscape:connector-curvature="0" />
	<path style="fill:none;stroke:red;stroke-width:1px;stroke-linecap:butt;stroke-linejoin:miter;stroke-opacity:1" d="M 476.884,664.453 490.093,657.848 z" id="boundary" inkscape:connector-curvature="0" />
	<path style="fill:none;stroke:red;stroke-width:1px;stroke-linecap:butt;stroke-linejoin:miter;stroke-opacity:1" d="M 483.489,261.577 496.698,262.897 z" id="boundary" inkscape:connector-curvature="0" />
	<path style="fill:none;stroke:red;stroke-width:1px;stroke-linecap:butt;stroke-linejoin:miter;stroke-opacity:1" d="M 487.451,685.587 499.34,678.983 z" id="boundary" inkscape:connector-curvature="0" />
	<path style="fill:none;stroke:red;stroke-width:1px;stroke-linecap:butt;stroke-linejoin:miter;stroke-opacity:1" d="M 488.772,4 501.981,4 z" id="boundary" inkscape:connector-curvature="0" />
	<path style="fill:none;stroke:red;stroke-width:1px;stroke-linecap:butt;stroke-linejoin:miter;stroke-opacity:1" d="M 490.093,657.848 499.34,641.997 z" id="boundary" inkscape:connector-curvature="0" />
	<path style="fill:none;stroke:red;stroke-width:1px;stroke-linecap:butt;stroke-linejoin:miter;stroke-opacity:1" d="M 496.698,262.897 509.907,262.897 z" id="boundary" inkscape:connector-curvature="0" />
	<path style="fill:none;stroke:red;stroke-width:1px;stroke-linecap:butt;stroke-linejoin:miter;stroke-opacity:1" d="M 499.34,641.997 509.907,631.43 z" id="boundary" inkscape:connector-curvature="0" />
	<path style="fill:none;stroke:red;stroke-width:1px;stroke-linecap:butt;stroke-linejoin:miter;stroke-opacity:1" d="M 499.34,678.983 509.907,671.057 z" id="boundary" inkscape:connector-curvature="0" />
	<path style="fill:none;stroke:red;stroke-width:1px;stroke-linecap:butt;stroke-linejoin:miter;stroke-opacity:1" d="M 501.981,4 515.19,4 z" id="boundary" inkscape:connector-curvature="0" />
	<path style="fill:none;stroke:red;stroke-width:1px;stroke-linecap:butt;stroke-linejoin:miter;stroke-opacity:1" d="M 509.907,262.897 523.116,262.897 z" id="boundary" inkscape:connector-curvature="0" />
	<path style="fill:none;stroke:red;stroke-width:1px;stroke-linecap:butt;stroke-linejoin:miter;stroke-opacity:1" d="M 509.907,631.43 512.549,608.975 z" id="boundary" inkscape:connector-curvature="0" />
	<path style="fill:none;stroke:red;stroke-width:1px;stroke-linecap:butt;stroke-linejoin:miter;stroke-opacity:1" d="M 509.907,671.057 520.474,659.169 z" id="boundary" inkscape:connector-curvature="0" />
	<path style="fill:none;stroke:red;stroke-width:1px;stroke-linecap:butt;stroke-linejoin:miter;stroke-opacity:1" d="M 512.549,608.975 519.153,595.766 z" id="boundary" inkscape:connector-curvature="0" />
	<path style="fill:none;stroke:red;stroke-width:1px;stroke-linecap:butt;stroke-linejoin:miter;stroke-opacity:1" d="M 515.19,4 528.399,4 z" id="boundary" inkscape:connector-curvature="0" />
	<path style="fill:none;stroke:red;stroke-width:1px;stroke-linecap:butt;stroke-linejoin:miter;stroke-opacity:1" d="M 519.153,595.766 525.758,582.557 z" id="boundary" inkscape:connector-curvature="0" />
	<path style="fill:none;stroke:red;stroke-width:1px;stroke-linecap:butt;stroke-linejoin:miter;stroke-opacity:1" d="M 520.474,659.169 531.041,649.923 z" id="boundary" inkscape:connector-curvature="0" />
	<path style="fill:none;stroke:red;stroke-width:1px;stroke-linecap:butt;stroke-linejoin:miter;stroke-opacity:1" d="M 523.116,262.897 536.325,262.897 z" id="boundary" inkscape:connector-curvature="0" />
	<path style="fill:none;stroke:red;stroke-width:1px;stroke-linecap:butt;stroke-linejoin:miter;stroke-opacity:1" d="M 525.758,582.557 532.362,569.348 z" id="boundary" inkscape:connector-curvature="0" />
	<path style="fill:none;stroke:red;stroke-width:1px;stroke-linecap:butt;stroke-linejoin:miter;stroke-opacity:1" d="M 528.399,4 541.609,4 z" id="boundary" inkscape:connector-curvature="0" />
	<path style="fill:none;stroke:red;stroke-width:1px;stroke-linecap:butt;stroke-linejoin:miter;stroke-opacity:1" d="M 531.041,649.923 536.325,632.751 z" id="boundary" inkscape:connector-curvature="0" />
	<path style="fill:none;stroke:red;stroke-width:1px;stroke-linecap:butt;stroke-linejoin:miter;stroke-opacity:1" d="M 532.362,556.138 532.362,569.348 z" id="boundary" inkscape:connector-curvature="0" />
	<path style="fill:none;stroke:red;stroke-width:1px;stroke-linecap:butt;stroke-linejoin:miter;stroke-opacity:1" d="M 532.362,556.138 538.967,542.929 z" id="boundary" inkscape:connector-curvature="0" />
	<path style="fill:none;stroke:red;stroke-width:1px;stroke-linecap:butt;stroke-linejoin:miter;stroke-opacity:1" d="M 533.683,619.542 536.325,632.751 z" id="boundary" inkscape:connector-curvature="0" />
	<path style="fill:none;stroke:red;stroke-width:1px;stroke-linecap:butt;stroke-linejoin:miter;stroke-opacity:1" d="M 533.683,619.542 544.25,610.296 z" id="boundary" inkscape:connector-curvature="0" />
	<path style="fill:none;stroke:red;stroke-width:1px;stroke-linecap:butt;stroke-linejoin:miter;stroke-opacity:1" d="M 536.325,262.897 549.534,262.897 z" id="boundary" inkscape:connector-curvature="0" />
	<path style="fill:none;stroke:red;stroke-width:1px;stroke-linecap:butt;stroke-linejoin:miter;stroke-opacity:1" d="M 538.967,542.929 549.534,532.362 z" id="boundary" inkscape:connector-curvature="0" />
	<path style="fill:none;stroke:red;stroke-width:1px;stroke-linecap:butt;stroke-linejoin:miter;stroke-opacity:1" d="M 541.609,4 554.818,4 z" id="boundary" inkscape:connector-curvature="0" />
	<path style="fill:none;stroke:red;stroke-width:1px;stroke-linecap:butt;stroke-linejoin:miter;stroke-opacity:1" d="M 544.25,610.296 546.892,593.124 z" id="boundary" inkscape:connector-curvature="0" />
	<path style="fill:none;stroke:red;stroke-width:1px;stroke-linecap:butt;stroke-linejoin:miter;stroke-opacity:1" d="M 546.892,593.124 553.497,579.915 z" id="boundary" inkscape:connector-curvature="0" />
	<path style="fill:none;stroke:red;stroke-width:1px;stroke-linecap:butt;stroke-linejoin:miter;stroke-opacity:1" d="M 549.534,262.897 562.743,268.181 z" id="boundary" inkscape:connector-curvature="0" />
	<path style="fill:none;stroke:red;stroke-width:1px;stroke-linecap:butt;stroke-linejoin:miter;stroke-opacity:1" d="M 549.534,532.362 552.176,516.511 z" id="boundary" inkscape:connector-curvature="0" />
	<path style="fill:none;stroke:red;stroke-width:1px;stroke-linecap:butt;stroke-linejoin:miter;stroke-opacity:1" d="M 552.176,516.511 558.78,503.302 z" id="boundary" inkscape:connector-curvature="0" />
	<path style="fill:none;stroke:red;stroke-width:1px;stroke-linecap:butt;stroke-linejoin:miter;stroke-opacity:1" d="M 553.497,566.706 553.497,579.915 z" id="boundary" inkscape:connector-curvature="0" />
	<path style="fill:none;stroke:red;stroke-width:1px;stroke-linecap:butt;stroke-linejoin:miter;stroke-opacity:1" d="M 553.497,566.706 560.101,553.497 z" id="boundary" inkscape:connector-curvature="0" />
	<path style="fill:none;stroke:red;stroke-width:1px;stroke-linecap:butt;stroke-linejoin:miter;stroke-opacity:1" d="M 554.818,4 568.027,4 z" id="boundary" inkscape:connector-curvature="0" />
	<path style="fill:none;stroke:red;stroke-width:1px;stroke-linecap:butt;stroke-linejoin:miter;stroke-opacity:1" d="M 558.78,503.302 565.385,483.489 z" id="boundary" inkscape:connector-curvature="0" />
	<path style="fill:none;stroke:red;stroke-width:1px;stroke-linecap:butt;stroke-linejoin:miter;stroke-opacity:1" d="M 560.101,553.497 566.706,540.288 z" id="boundary" inkscape:connector-curvature="0" />
	<path style="fill:none;stroke:red;stroke-width:1px;stroke-linecap:butt;stroke-linejoin:miter;stroke-opacity:1" d="M 562.743,268.181 571.989,278.748 z" id="boundary" inkscape:connector-curvature="0" />
	<path style="fill:none;stroke:red;stroke-width:1px;stroke-linecap:butt;stroke-linejoin:miter;stroke-opacity:1" d="M 565.385,483.489 571.989,470.28 z" id="boundary" inkscape:connector-curvature="0" />
	<path style="fill:none;stroke:red;stroke-width:1px;stroke-linecap:butt;stroke-linejoin:miter;stroke-opacity:1" d="M 566.706,540.288 573.31,527.079 z" id="boundary" inkscape:connector-curvature="0" />
	<path style="fill:none;stroke:red;stroke-width:1px;stroke-linecap:butt;stroke-linejoin:miter;stroke-opacity:1" d="M 568.027,4 579.915,10.6045 z" id="boundary" inkscape:connector-curvature="0" />
	<path style="fill:none;stroke:red;stroke-width:1px;stroke-linecap:butt;stroke-linejoin:miter;stroke-opacity:1" d="M 571.989,278.748 571.989,291.957 z" id="boundary" inkscape:connector-curvature="0" />
	<path style="fill:none;stroke:red;stroke-width:1px;stroke-linecap:butt;stroke-linejoin:miter;stroke-opacity:1" d="M 571.989,291.957 578.594,303.846 z" id="boundary" inkscape:connector-curvature="0" />
	<path style="fill:none;stroke:red;stroke-width:1px;stroke-linecap:butt;stroke-linejoin:miter;stroke-opacity:1" d="M 571.989,470.28 578.594,450.466 z" id="boundary" inkscape:connector-curvature="0" />
	<path style="fill:none;stroke:red;stroke-width:1px;stroke-linecap:butt;stroke-linejoin:miter;stroke-opacity:1" d="M 573.31,513.87 573.31,527.079 z" id="boundary" inkscape:connector-curvature="0" />
	<path style="fill:none;stroke:red;stroke-width:1px;stroke-linecap:butt;stroke-linejoin:miter;stroke-opacity:1" d="M 573.31,513.87 579.915,500.66 z" id="boundary" inkscape:connector-curvature="0" />
	<path style="fill:none;stroke:red;stroke-width:1px;stroke-linecap:butt;stroke-linejoin:miter;stroke-opacity:1" d="M 578.594,303.846 585.198,315.734 z" id="boundary" inkscape:connector-curvature="0" />
	<path style="fill:none;stroke:red;stroke-width:1px;stroke-linecap:butt;stroke-linejoin:miter;stroke-opacity:1" d="M 578.594,450.466 585.198,430.652 z" id="boundary" inkscape:connector-curvature="0" />
	<path style="fill:none;stroke:red;stroke-width:1px;stroke-linecap:butt;stroke-linejoin:miter;stroke-opacity:1" d="M 579.915,10.6045 593.124,10.6045 z" id="boundary" inkscape:connector-curvature="0" />
	<path style="fill:none;stroke:red;stroke-width:1px;stroke-linecap:butt;stroke-linejoin:miter;stroke-opacity:1" d="M 579.915,500.66 586.519,487.451 z" id="boundary" inkscape:connector-curvature="0" />
	<path style="fill:none;stroke:red;stroke-width:1px;stroke-linecap:butt;stroke-linejoin:miter;stroke-opacity:1" d="M 585.198,315.734 589.161,328.943 z" id="boundary" inkscape:connector-curvature="0" />
	<path style="fill:none;stroke:red;stroke-width:1px;stroke-linecap:butt;stroke-linejoin:miter;stroke-opacity:1" d="M 585.198,430.652 591.803,417.443 z" id="boundary" inkscape:connector-curvature="0" />
	<path style="fill:none;stroke:red;stroke-width:1px;stroke-linecap:butt;stroke-linejoin:miter;stroke-opacity:1" d="M 586.519,487.451 593.124,467.638 z" id="boundary" inkscape:connector-curvature="0" />
	<path style="fill:none;stroke:red;stroke-width:1px;stroke-linecap:butt;stroke-linejoin:miter;stroke-opacity:1" d="M 589.161,328.943 591.803,342.152 z" id="boundary" inkscape:connector-curvature="0" />
	<path style="fill:none;stroke:red;stroke-width:1px;stroke-linecap:butt;stroke-linejoin:miter;stroke-opacity:1" d="M 591.803,342.152 595.766,355.361 z" id="boundary" inkscape:connector-curvature="0" />
	<path style="fill:none;stroke:red;stroke-width:1px;stroke-linecap:butt;stroke-linejoin:miter;stroke-opacity:1" d="M 591.803,417.443 612.937,414.802 z" id="boundary" inkscape:connector-curvature="0" />
	<path style="fill:none;stroke:red;stroke-width:1px;stroke-linecap:butt;stroke-linejoin:miter;stroke-opacity:1" d="M 593.124,10.6045 605.012,17.2091 z" id="boundary" inkscape:connector-curvature="0" />
	<path style="fill:none;stroke:red;stroke-width:1px;stroke-linecap:butt;stroke-linejoin:miter;stroke-opacity:1" d="M 593.124,256.293 593.124,269.502 z" id="boundary" inkscape:connector-curvature="0" />
	<path style="fill:none;stroke:red;stroke-width:1px;stroke-linecap:butt;stroke-linejoin:miter;stroke-opacity:1" d="M 593.124,256.293 606.333,249.688 z" id="boundary" inkscape:connector-curvature="0" />
	<path style="fill:none;stroke:red;stroke-width:1px;stroke-linecap:butt;stroke-linejoin:miter;stroke-opacity:1" d="M 593.124,269.502 593.124,282.711 z" id="boundary" inkscape:connector-curvature="0" />
	<path style="fill:none;stroke:red;stroke-width:1px;stroke-linecap:butt;stroke-linejoin:miter;stroke-opacity:1" d="M 593.124,282.711 595.766,295.92 z" id="boundary" inkscape:connector-curvature="0" />
	<path style="fill:none;stroke:red;stroke-width:1px;stroke-linecap:butt;stroke-linejoin:miter;stroke-opacity:1" d="M 593.124,467.638 599.728,447.824 z" id="boundary" inkscape:connector-curvature="0" />
	<path style="fill:none;stroke:red;stroke-width:1px;stroke-linecap:butt;stroke-linejoin:miter;stroke-opacity:1" d="M 595.766,295.92 602.37,307.808 z" id="boundary" inkscape:connector-curvature="0" />
	<path style="fill:none;stroke:red;stroke-width:1px;stroke-linecap:butt;stroke-linejoin:miter;stroke-opacity:1" d="M 595.766,355.361 598.407,368.57 z" id="boundary" inkscape:connector-curvature="0" />
	<path style="fill:none;stroke:red;stroke-width:1px;stroke-linecap:butt;stroke-linejoin:miter;stroke-opacity:1" d="M 598.407,368.57 598.407,381.779 z" id="boundary" inkscape:connector-curvature="0" />
	<path style="fill:none;stroke:red;stroke-width:1px;stroke-linecap:butt;stroke-linejoin:miter;stroke-opacity:1" d="M 598.407,381.779 598.407,394.988 z" id="boundary" inkscape:connector-curvature="0" />
	<path style="fill:none;stroke:red;stroke-width:1px;stroke-linecap:butt;stroke-linejoin:miter;stroke-opacity:1" d="M 599.728,447.824 610.296,438.578 z" id="boundary" inkscape:connector-curvature="0" />
	<path style="fill:none;stroke:red;stroke-width:1px;stroke-linecap:butt;stroke-linejoin:miter;stroke-opacity:1" d="M 602.37,307.808 606.333,321.017 z" id="boundary" inkscape:connector-curvature="0" />
	<path style="fill:none;stroke:red;stroke-width:1px;stroke-linecap:butt;stroke-linejoin:miter;stroke-opacity:1" d="M 605.012,17.2091 618.221,17.2091 z" id="boundary" inkscape:connector-curvature="0" />
	<path style="fill:none;stroke:red;stroke-width:1px;stroke-linecap:butt;stroke-linejoin:miter;stroke-opacity:1" d="M 606.333,249.688 619.542,249.688 z" id="boundary" inkscape:connector-curvature="0" />
	<path style="fill:none;stroke:red;stroke-width:1px;stroke-linecap:butt;stroke-linejoin:miter;stroke-opacity:1" d="M 606.333,321.017 612.937,332.905 z" id="boundary" inkscape:connector-curvature="0" />
	<path style="fill:none;stroke:red;stroke-width:1px;stroke-linecap:butt;stroke-linejoin:miter;stroke-opacity:1" d="M 612.937,332.905 612.937,346.115 z" id="boundary" inkscape:connector-curvature="0" />
	<path style="fill:none;stroke:red;stroke-width:1px;stroke-linecap:butt;stroke-linejoin:miter;stroke-opacity:1" d="M 612.937,346.115 619.542,358.003 z" id="boundary" inkscape:connector-curvature="0" />
	<path style="fill:none;stroke:red;stroke-width:1px;stroke-linecap:butt;stroke-linejoin:miter;stroke-opacity:1" d="M 612.937,414.802 623.505,405.555 z" id="boundary" inkscape:connector-curvature="0" />
	<path style="fill:none;stroke:red;stroke-width:1px;stroke-linecap:butt;stroke-linejoin:miter;stroke-opacity:1" d="M 618.221,17.2091 631.43,19.8509 z" id="boundary" inkscape:connector-curvature="0" />
	<path style="fill:none;stroke:red;stroke-width:1px;stroke-linecap:butt;stroke-linejoin:miter;stroke-opacity:1" d="M 619.542,249.688 631.43,243.084 z" id="boundary" inkscape:connector-curvature="0" />
	<path style="fill:none;stroke:red;stroke-width:1px;stroke-linecap:butt;stroke-linejoin:miter;stroke-opacity:1" d="M 619.542,358.003 626.146,369.891 z" id="boundary" inkscape:connector-curvature="0" />
	<path style="fill:none;stroke:red;stroke-width:1px;stroke-linecap:butt;stroke-linejoin:miter;stroke-opacity:1" d="M 623.505,405.555 626.146,383.1 z" id="boundary" inkscape:connector-curvature="0" />
	<path style="fill:none;stroke:red;stroke-width:1px;stroke-linecap:butt;stroke-linejoin:miter;stroke-opacity:1" d="M 626.146,369.891 626.146,383.1 z" id="boundary" inkscape:connector-curvature="0" />
	<path style="fill:none;stroke:red;stroke-width:1px;stroke-linecap:butt;stroke-linejoin:miter;stroke-opacity:1" d="M 631.43,19.8509 644.639,23.8136 z" id="boundary" inkscape:connector-curvature="0" />
	<path style="fill:none;stroke:red;stroke-width:1px;stroke-linecap:butt;stroke-linejoin:miter;stroke-opacity:1" d="M 631.43,243.084 644.639,239.121 z" id="boundary" inkscape:connector-curvature="0" />
	<path style="fill:none;stroke:red;stroke-width:1px;stroke-linecap:butt;stroke-linejoin:miter;stroke-opacity:1" d="M 644.639,23.8136 657.848,23.8136 z" id="boundary" inkscape:connector-curvature="0" />
	<path style="fill:none;stroke:red;stroke-width:1px;stroke-linecap:butt;stroke-linejoin:miter;stroke-opacity:1" d="M 644.639,239.121 657.848,232.517 z" id="boundary" inkscape:connector-curvature="0" />
	<path style="fill:none;stroke:red;stroke-width:1px;stroke-linecap:butt;stroke-linejoin:miter;stroke-opacity:1" d="M 651.244,324.98 651.244,338.189 z" id="boundary" inkscape:connector-curvature="0" />
	<path style="fill:none;stroke:red;stroke-width:1px;stroke-linecap:butt;stroke-linejoin:miter;stroke-opacity:1" d="M 651.244,324.98 657.848,311.771 z" id="boundary" inkscape:connector-curvature="0" />
	<path style="fill:none;stroke:red;stroke-width:1px;stroke-linecap:butt;stroke-linejoin:miter;stroke-opacity:1" d="M 651.244,338.189 651.244,351.398 z" id="boundary" inkscape:connector-curvature="0" />
	<path style="fill:none;stroke:red;stroke-width:1px;stroke-linecap:butt;stroke-linejoin:miter;stroke-opacity:1" d="M 651.244,351.398 651.244,364.607 z" id="boundary" inkscape:connector-curvature="0" />
	<path style="fill:none;stroke:red;stroke-width:1px;stroke-linecap:butt;stroke-linejoin:miter;stroke-opacity:1" d="M 651.244,364.607 651.244,377.816 z" id="boundary" inkscape:connector-curvature="0" />
	<path style="fill:none;stroke:red;stroke-width:1px;stroke-linecap:butt;stroke-linejoin:miter;stroke-opacity:1" d="M 651.244,377.816 661.811,387.063 z" id="boundary" inkscape:connector-curvature="0" />
	<path style="fill:none;stroke:red;stroke-width:1px;stroke-linecap:butt;stroke-linejoin:miter;stroke-opacity:1" d="M 657.848,23.8136 671.057,26.4554 z" id="boundary" inkscape:connector-curvature="0" />
	<path style="fill:none;stroke:red;stroke-width:1px;stroke-linecap:butt;stroke-linejoin:miter;stroke-opacity:1" d="M 657.848,232.517 671.057,229.875 z" id="boundary" inkscape:connector-curvature="0" />
	<path style="fill:none;stroke:red;stroke-width:1px;stroke-linecap:butt;stroke-linejoin:miter;stroke-opacity:1" d="M 657.848,311.771 664.453,298.562 z" id="boundary" inkscape:connector-curvature="0" />
	<path style="fill:none;stroke:red;stroke-width:1px;stroke-linecap:butt;stroke-linejoin:miter;stroke-opacity:1" d="M 661.811,387.063 664.453,400.272 z" id="boundary" inkscape:connector-curvature="0" />
	<path style="fill:none;stroke:red;stroke-width:1px;stroke-linecap:butt;stroke-linejoin:miter;stroke-opacity:1" d="M 664.453,298.562 675.02,287.995 z" id="boundary" inkscape:connector-curvature="0" />
	<path style="fill:none;stroke:red;stroke-width:1px;stroke-linecap:butt;stroke-linejoin:miter;stroke-opacity:1" d="M 664.453,400.272 675.02,408.197 z" id="boundary" inkscape:connector-curvature="0" />
	<path style="fill:none;stroke:red;stroke-width:1px;stroke-linecap:butt;stroke-linejoin:miter;stroke-opacity:1" d="M 671.057,26.4554 684.266,30.4181 z" id="boundary" inkscape:connector-curvature="0" />
	<path style="fill:none;stroke:red;stroke-width:1px;stroke-linecap:butt;stroke-linejoin:miter;stroke-opacity:1" d="M 671.057,229.875 682.945,223.27 z" id="boundary" inkscape:connector-curvature="0" />
	<path style="fill:none;stroke:red;stroke-width:1px;stroke-linecap:butt;stroke-linejoin:miter;stroke-opacity:1" d="M 672.378,328.943 672.378,342.152 z" id="boundary" inkscape:connector-curvature="0" />
	<path style="fill:none;stroke:red;stroke-width:1px;stroke-linecap:butt;stroke-linejoin:miter;stroke-opacity:1" d="M 672.378,328.943 682.945,319.696 z" id="boundary" inkscape:connector-curvature="0" />
	<path style="fill:none;stroke:red;stroke-width:1px;stroke-linecap:butt;stroke-linejoin:miter;stroke-opacity:1" d="M 672.378,342.152 672.378,355.361 z" id="boundary" inkscape:connector-curvature="0" />
	<path style="fill:none;stroke:red;stroke-width:1px;stroke-linecap:butt;stroke-linejoin:miter;stroke-opacity:1" d="M 672.378,355.361 678.983,367.249 z" id="boundary" inkscape:connector-curvature="0" />
	<path style="fill:none;stroke:red;stroke-width:1px;stroke-linecap:butt;stroke-linejoin:miter;stroke-opacity:1" d="M 675.02,287.995 684.266,272.144 z" id="boundary" inkscape:connector-curvature="0" />
	<path style="fill:none;stroke:red;stroke-width:1px;stroke-linecap:butt;stroke-linejoin:miter;stroke-opacity:1" d="M 675.02,408.197 681.625,420.085 z" id="boundary" inkscape:connector-curvature="0" />
	<path style="fill:none;stroke:red;stroke-width:1px;stroke-linecap:butt;stroke-linejoin:miter;stroke-opacity:1" d="M 678.983,367.249 685.587,379.137 z" id="boundary" inkscape:connector-curvature="0" />
	<path style="fill:none;stroke:red;stroke-width:1px;stroke-linecap:butt;stroke-linejoin:miter;stroke-opacity:1" d="M 681.625,420.085 686.908,433.294 z" id="boundary" inkscape:connector-curvature="0" />
	<path style="fill:none;stroke:red;stroke-width:1px;stroke-linecap:butt;stroke-linejoin:miter;stroke-opacity:1" d="M 682.945,223.27 696.154,220.628 z" id="boundary" inkscape:connector-curvature="0" />
	<path style="fill:none;stroke:red;stroke-width:1px;stroke-linecap:butt;stroke-linejoin:miter;stroke-opacity:1" d="M 682.945,319.696 689.55,306.487 z" id="boundary" inkscape:connector-curvature="0" />
	<path style="fill:none;stroke:red;stroke-width:1px;stroke-linecap:butt;stroke-linejoin:miter;stroke-opacity:1" d="M 684.266,30.4181 697.475,30.4181 z" id="boundary" inkscape:connector-curvature="0" />
	<path style="fill:none;stroke:red;stroke-width:1px;stroke-linecap:butt;stroke-linejoin:miter;stroke-opacity:1" d="M 684.266,272.144 694.834,261.577 z" id="boundary" inkscape:connector-curvature="0" />
	<path style="fill:none;stroke:red;stroke-width:1px;stroke-linecap:butt;stroke-linejoin:miter;stroke-opacity:1" d="M 685.587,379.137 696.154,388.383 z" id="boundary" inkscape:connector-curvature="0" />
	<path style="fill:none;stroke:red;stroke-width:1px;stroke-linecap:butt;stroke-linejoin:miter;stroke-opacity:1" d="M 686.908,433.294 700.117,434.615 z" id="boundary" inkscape:connector-curvature="0" />
	<path style="fill:none;stroke:red;stroke-width:1px;stroke-linecap:butt;stroke-linejoin:miter;stroke-opacity:1" d="M 689.55,306.487 698.796,289.316 z" id="boundary" inkscape:connector-curvature="0" />
	<path style="fill:none;stroke:red;stroke-width:1px;stroke-linecap:butt;stroke-linejoin:miter;stroke-opacity:1" d="M 694.834,261.577 701.438,248.368 z" id="boundary" inkscape:connector-curvature="0" />
	<path style="fill:none;stroke:red;stroke-width:1px;stroke-linecap:butt;stroke-linejoin:miter;stroke-opacity:1" d="M 696.154,220.628 704.08,231.196 z" id="boundary" inkscape:connector-curvature="0" />
	<path style="fill:none;stroke:red;stroke-width:1px;stroke-linecap:butt;stroke-linejoin:miter;stroke-opacity:1" d="M 696.154,388.383 701.438,401.593 z" id="boundary" inkscape:connector-curvature="0" />
	<path style="fill:none;stroke:red;stroke-width:1px;stroke-linecap:butt;stroke-linejoin:miter;stroke-opacity:1" d="M 697.475,30.4181 709.364,37.0226 z" id="boundary" inkscape:connector-curvature="0" />
	<path style="fill:none;stroke:red;stroke-width:1px;stroke-linecap:butt;stroke-linejoin:miter;stroke-opacity:1" d="M 698.796,289.316 705.401,276.107 z" id="boundary" inkscape:connector-curvature="0" />
	<path style="fill:none;stroke:red;stroke-width:1px;stroke-linecap:butt;stroke-linejoin:miter;stroke-opacity:1" d="M 700.117,434.615 705.401,414.802 z" id="boundary" inkscape:connector-curvature="0" />
	<path style="fill:none;stroke:red;stroke-width:1px;stroke-linecap:butt;stroke-linejoin:miter;stroke-opacity:1" d="M 701.438,248.368 704.08,231.196 z" id="boundary" inkscape:connector-curvature="0" />
	<path style="fill:none;stroke:red;stroke-width:1px;stroke-linecap:butt;stroke-linejoin:miter;stroke-opacity:1" d="M 701.438,401.593 705.401,414.802 z" id="boundary" inkscape:connector-curvature="0" />
	<path style="fill:none;stroke:red;stroke-width:1px;stroke-linecap:butt;stroke-linejoin:miter;stroke-opacity:1" d="M 705.401,276.107 712.005,262.897 z" id="boundary" inkscape:connector-curvature="0" />
	<path style="fill:none;stroke:red;stroke-width:1px;stroke-linecap:butt;stroke-linejoin:miter;stroke-opacity:1" d="M 709.364,37.0226 722.573,37.0226 z" id="boundary" inkscape:connector-curvature="0" />
	<path style="fill:none;stroke:red;stroke-width:1px;stroke-linecap:butt;stroke-linejoin:miter;stroke-opacity:1" d="M 712.005,262.897 718.61,249.688 z" id="boundary" inkscape:connector-curvature="0" />
	<path style="fill:none;stroke:red;stroke-width:1px;stroke-linecap:butt;stroke-linejoin:miter;stroke-opacity:1" d="M 718.61,249.688 729.177,240.442 z" id="boundary" inkscape:connector-curvature="0" />
	<path style="fill:none;stroke:red;stroke-width:1px;stroke-linecap:butt;stroke-linejoin:miter;stroke-opacity:1" d="M 722.573,37.0226 735.782,37.0226 z" id="boundary" inkscape:connector-curvature="0" />
	<path style="fill:none;stroke:red;stroke-width:1px;stroke-linecap:butt;stroke-linejoin:miter;stroke-opacity:1" d="M 729.177,240.442 731.819,223.27 z" id="boundary" inkscape:connector-curvature="0" />
	<path style="fill:none;stroke:red;stroke-width:1px;stroke-linecap:butt;stroke-linejoin:miter;stroke-opacity:1" d="M 731.819,223.27 738.423,210.061 z" id="boundary" inkscape:connector-curvature="0" />
	<path style="fill:none;stroke:red;stroke-width:1px;stroke-linecap:butt;stroke-linejoin:miter;stroke-opacity:1" d="M 735.782,37.0226 748.991,37.0226 z" id="boundary" inkscape:connector-curvature="0" />
	<path style="fill:none;stroke:red;stroke-width:1px;stroke-linecap:butt;stroke-linejoin:miter;stroke-opacity:1" d="M 738.423,210.061 750.312,203.457 z" id="boundary" inkscape:connector-curvature="0" />
	<path style="fill:none;stroke:red;stroke-width:1px;stroke-linecap:butt;stroke-linejoin:miter;stroke-opacity:1" d="M 748.991,37.0226 760.879,43.6272 z" id="boundary" inkscape:connector-curvature="0" />
	<path style="fill:none;stroke:red;stroke-width:1px;stroke-linecap:butt;stroke-linejoin:miter;stroke-opacity:1" d="M 750.312,203.457 760.879,195.531 z" id="boundary" inkscape:connector-curvature="0" />
	<path style="fill:none;stroke:red;stroke-width:1px;stroke-linecap:butt;stroke-linejoin:miter;stroke-opacity:1" d="M 760.879,43.6272 774.088,43.6272 z" id="boundary" inkscape:connector-curvature="0" />
	<path style="fill:none;stroke:red;stroke-width:1px;stroke-linecap:butt;stroke-linejoin:miter;stroke-opacity:1" d="M 760.879,195.531 774.088,188.927 z" id="boundary" inkscape:connector-curvature="0" />
	<path style="fill:none;stroke:red;stroke-width:1px;stroke-linecap:butt;stroke-linejoin:miter;stroke-opacity:1" d="M 774.088,43.6272 787.297,43.6272 z" id="boundary" inkscape:connector-curvature="0" />
	<path style="fill:none;stroke:red;stroke-width:1px;stroke-linecap:butt;stroke-linejoin:miter;stroke-opacity:1" d="M 774.088,188.927 784.655,170.434 z" id="boundary" inkscape:connector-curvature="0" />
	<path style="fill:none;stroke:red;stroke-width:1px;stroke-linecap:butt;stroke-linejoin:miter;stroke-opacity:1" d="M 784.655,170.434 797.864,157.225 z" id="boundary" inkscape:connector-curvature="0" />
	<path style="fill:none;stroke:red;stroke-width:1px;stroke-linecap:butt;stroke-linejoin:miter;stroke-opacity:1" d="M 787.297,43.6272 800.506,43.6272 z" id="boundary" inkscape:connector-curvature="0" />
	<path style="fill:none;stroke:red;stroke-width:1px;stroke-linecap:butt;stroke-linejoin:miter;stroke-opacity:1" d="M 797.864,157.225 811.073,157.225 z" id="boundary" inkscape:connector-curvature="0" />
	<path style="fill:none;stroke:red;stroke-width:1px;stroke-linecap:butt;stroke-linejoin:miter;stroke-opacity:1" d="M 800.506,43.6272 813.715,43.6272 z" id="boundary" inkscape:connector-curvature="0" />
	<path style="fill:none;stroke:red;stroke-width:1px;stroke-linecap:butt;stroke-linejoin:miter;stroke-opacity:1" d="M 811.073,157.225 822.961,150.621 z" id="boundary" inkscape:connector-curvature="0" />
	<path style="fill:none;stroke:red;stroke-width:1px;stroke-linecap:butt;stroke-linejoin:miter;stroke-opacity:1" d="M 813.715,43.6272 826.924,43.6272 z" id="boundary" inkscape:connector-curvature="0" />
	<path style="fill:none;stroke:red;stroke-width:1px;stroke-linecap:butt;stroke-linejoin:miter;stroke-opacity:1" d="M 822.961,150.621 836.17,146.658 z" id="boundary" inkscape:connector-curvature="0" />
	<path style="fill:none;stroke:red;stroke-width:1px;stroke-linecap:butt;stroke-linejoin:miter;stroke-opacity:1" d="M 826.924,43.6272 840.133,43.6272 z" id="boundary" inkscape:connector-curvature="0" />
	<path style="fill:none;stroke:red;stroke-width:1px;stroke-linecap:butt;stroke-linejoin:miter;stroke-opacity:1" d="M 836.17,146.658 846.738,137.411 z" id="boundary" inkscape:connector-curvature="0" />
	<path style="fill:none;stroke:red;stroke-width:1px;stroke-linecap:butt;stroke-linejoin:miter;stroke-opacity:1" d="M 840.133,43.6272 853.342,43.6272 z" id="boundary" inkscape:connector-curvature="0" />
	<path style="fill:none;stroke:red;stroke-width:1px;stroke-linecap:butt;stroke-linejoin:miter;stroke-opacity:1" d="M 846.738,137.411 858.626,130.807 z" id="boundary" inkscape:connector-curvature="0" />
	<path style="fill:none;stroke:red;stroke-width:1px;stroke-linecap:butt;stroke-linejoin:miter;stroke-opacity:1" d="M 853.342,43.6272 866.551,43.6272 z" id="boundary" inkscape:connector-curvature="0" />
	<path style="fill:none;stroke:red;stroke-width:1px;stroke-linecap:butt;stroke-linejoin:miter;stroke-opacity:1" d="M 858.626,130.807 871.835,130.807 z" id="boundary" inkscape:connector-curvature="0" />
	<path style="fill:none;stroke:red;stroke-width:1px;stroke-linecap:butt;stroke-linejoin:miter;stroke-opacity:1" d="M 866.551,43.6272 879.76,43.6272 z" id="boundary" inkscape:connector-curvature="0" />
	<path style="fill:none;stroke:red;stroke-width:1px;stroke-linecap:butt;stroke-linejoin:miter;stroke-opacity:1" d="M 871.835,130.807 883.723,124.202 z" id="boundary" inkscape:connector-curvature="0" />
	<path style="fill:none;stroke:red;stroke-width:1px;stroke-linecap:butt;stroke-linejoin:miter;stroke-opacity:1" d="M 879.76,43.6272 892.969,43.6272 z" id="boundary" inkscape:connector-curvature="0" />
	<path style="fill:none;stroke:red;stroke-width:1px;stroke-linecap:butt;stroke-linejoin:miter;stroke-opacity:1" d="M 883.723,124.202 895.611,117.598 z" id="boundary" inkscape:connector-curvature="0" />
	<path style="fill:none;stroke:red;stroke-width:1px;stroke-linecap:butt;stroke-linejoin:miter;stroke-opacity:1" d="M 892.969,43.6272 906.178,43.6272 z" id="boundary" inkscape:connector-curvature="0" />
	<path style="fill:none;stroke:red;stroke-width:1px;stroke-linecap:butt;stroke-linejoin:miter;stroke-opacity:1" d="M 895.611,117.598 907.499,110.993 z" id="boundary" inkscape:connector-curvature="0" />
	<path style="fill:none;stroke:red;stroke-width:1px;stroke-linecap:butt;stroke-linejoin:miter;stroke-opacity:1" d="M 906.178,43.6272 919.387,43.6272 z" id="boundary" inkscape:connector-curvature="0" />
	<path style="fill:none;stroke:red;stroke-width:1px;stroke-linecap:butt;stroke-linejoin:miter;stroke-opacity:1" d="M 907.499,110.993 920.708,108.352 z" id="boundary" inkscape:connector-curvature="0" />
	<path style="fill:none;stroke:red;stroke-width:1px;stroke-linecap:butt;stroke-linejoin:miter;stroke-opacity:1" d="M 919.387,43.6272 932.597,43.6272 z" id="boundary" inkscape:connector-curvature="0" />
	<path style="fill:none;stroke:red;stroke-width:1px;stroke-linecap:butt;stroke-linejoin:miter;stroke-opacity:1" d="M 920.708,108.352 933.917,104.389 z" id="boundary" inkscape:connector-curvature="0" />
	<path style="fill:none;stroke:red;stroke-width:1px;stroke-linecap:butt;stroke-linejoin:miter;stroke-opacity:1" d="M 932.597,43.6272 945.806,43.6272 z" id="boundary" inkscape:connector-curvature="0" />
	<path style="fill:none;stroke:red;stroke-width:1px;stroke-linecap:butt;stroke-linejoin:miter;stroke-opacity:1" d="M 933.917,104.389 945.806,97.7843 z" id="boundary" inkscape:connector-curvature="0" />
	<path style="fill:none;stroke:red;stroke-width:1px;stroke-linecap:butt;stroke-linejoin:miter;stroke-opacity:1" d="M 945.806,43.6272 959.015,43.6272 z" id="boundary" inkscape:connector-curvature="0" />
	<path style="fill:none;stroke:red;stroke-width:1px;stroke-linecap:butt;stroke-linejoin:miter;stroke-opacity:1" d="M 945.806,97.7843 959.015,97.7843 z" id="boundary" inkscape:connector-curvature="0" />
	<path style="fill:none;stroke:red;stroke-width:1px;stroke-linecap:butt;stroke-linejoin:miter;stroke-opacity:1" d="M 959.015,43.6272 972.224,43.6272 z" id="boundary" inkscape:connector-curvature="0" />
	<path style="fill:none;stroke:red;stroke-width:1px;stroke-linecap:butt;stroke-linejoin:miter;stroke-opacity:1" d="M 959.015,97.7843 972.224,97.7843 z" id="boundary" inkscape:connector-curvature="0" />
	<path style="fill:none;stroke:red;stroke-width:1px;stroke-linecap:butt;stroke-linejoin:miter;stroke-opacity:1" d="M 972.224,43.6272 985.433,43.6272 z" id="boundary" inkscape:connector-curvature="0" />
	<path style="fill:none;stroke:red;stroke-width:1px;stroke-linecap:butt;stroke-linejoin:miter;stroke-opacity:1" d="M 972.224,97.7843 985.433,96.4634 z" id="boundary" inkscape:connector-curvature="0" />
	<path style="fill:none;stroke:red;stroke-width:1px;stroke-linecap:butt;stroke-linejoin:miter;stroke-opacity:1" d="M 985.433,43.6272 989.395,56.8362 z" id="boundary" inkscape:connector-curvature="0" />
	<path style="fill:none;stroke:red;stroke-width:1px;stroke-linecap:butt;stroke-linejoin:miter;stroke-opacity:1" d="M 985.433,96.4634 996,81.9334 z" id="boundary" inkscape:connector-curvature="0" />
	<path style="fill:none;stroke:red;stroke-width:1px;stroke-linecap:butt;stroke-linejoin:miter;stroke-opacity:1" d="M 989.395,56.8362 989.395,70.0453 z" id="boundary" inkscape:connector-curvature="0" />
	<path style="fill:none;stroke:red;stroke-width:1px;stroke-linecap:butt;stroke-linejoin:miter;stroke-opacity:1" d="M 989.395,70.0453 996,81.9334 z" id="boundary" inkscape:connector-curvature="0" />
	<circle cx="4" cy="569.348" r="4" fill="#0" id="circle0"/>
	<circle cx="4" cy="582.557" r="4" fill="#0" id="circle1"/>
	<circle cx="14.5672" cy="558.78" r="4" fill="#0" id="circle2"/>
	<circle cx="17.2091" cy="582.557" r="4" fill="#0" id="circle3"/>
	<circle cx="23.8136" cy="536.325" r="4" fill="#0" id="circle4"/>
	<circle cx="25.1345" cy="566.706" r="4" fill="#0" id="circle5"/>
	<circle cx="30.4181" cy="523.116" r="4" fill="#0" id="circle6"/>
	<circle cx="35.7017" cy="557.459" r="4" fill="#0" id="circle7"/>
	<circle cx="40.9854" cy="512.549" r="4" fill="#0" id="circle8"/>
	<circle cx="44.9481" cy="533.683" r="4" fill="#0" id="circle9"/>
	<circle cx="44.9481" cy="546.892" r="4" fill="#0" id="circle10"/>
	<circle cx="47.5899" cy="499.34" r="4" fill="#0" id="circle11"/>
	<circle cx="54.1944" cy="486.13" r="4" fill="#0" id="circle12"/>
	<circle cx="58.1571" cy="520.474" r="4" fill="#0" id="circle13"/>
	<circle cx="63.4407" cy="463.675" r="4" fill="#0" id="circle14"/>
	<circle cx="64.7617" cy="507.265" r="4" fill="#0" id="circle15"/>
	<circle cx="70.0453" cy="443.862" r="4" fill="#0" id="circle16"/>
	<circle cx="75.3289" cy="498.019" r="4" fill="#0" id="circle17"/>
	<circle cx="76.6498" cy="430.652" r="4" fill="#0" id="circle18"/>
	<circle cx="81.9334" cy="484.81" r="4" fill="#0" id="circle19"/>
	<circle cx="83.2543" cy="410.839" r="4" fill="#0" id="circle20"/>
	<circle cx="88.5379" cy="471.601" r="4" fill="#0" id="circle21"/>
	<circle cx="89.8589" cy="391.025" r="4" fill="#0" id="circle22"/>
	<circle cx="95.1425" cy="458.391" r="4" fill="#0" id="circle23"/>
	<circle cx="96.4634" cy="252.33" r="4" fill="#0" id="circle24"/>
	<circle cx="96.4634" cy="371.212" r="4" fill="#0" id="circle25"/>
	<circle cx="101.747" cy="445.182" r="4" fill="#0" id="circle26"/>
	<circle cx="103.068" cy="232.517" r="4" fill="#0" id="circle27"/>
	<circle cx="103.068" cy="264.218" r="4" fill="#0" id="circle28"/>
	<circle cx="103.068" cy="277.427" r="4" fill="#0" id="circle29"/>
	<circle cx="103.068" cy="358.003" r="4" fill="#0" id="circle30"/>
	<circle cx="108.352" cy="431.973" r="4" fill="#0" id="circle31"/>
	<circle cx="109.672" cy="289.316" r="4" fill="#0" id="circle32"/>
	<circle cx="109.672" cy="344.794" r="4" fill="#0" id="circle33"/>
	<circle cx="113.635" cy="221.949" r="4" fill="#0" id="circle34"/>
	<circle cx="113.635" cy="302.525" r="4" fill="#0" id="circle35"/>
	<circle cx="114.956" cy="418.764" r="4" fill="#0" id="circle36"/>
	<circle cx="116.277" cy="315.734" r="4" fill="#0" id="circle37"/>
	<circle cx="116.277" cy="328.943" r="4" fill="#0" id="circle38"/>
	<circle cx="120.24" cy="208.74" r="4" fill="#0" id="circle39"/>
	<circle cx="121.561" cy="405.555" r="4" fill="#0" id="circle40"/>
	<circle cx="128.165" cy="392.346" r="4" fill="#0" id="circle41"/>
	<circle cx="132.128" cy="202.136" r="4" fill="#0" id="circle42"/>
	<circle cx="134.77" cy="379.137" r="4" fill="#0" id="circle43"/>
	<circle cx="138.732" cy="190.248" r="4" fill="#0" id="circle44"/>
	<circle cx="141.374" cy="365.928" r="4" fill="#0" id="circle45"/>
	<circle cx="147.979" cy="352.719" r="4" fill="#0" id="circle46"/>
	<circle cx="149.3" cy="182.322" r="4" fill="#0" id="circle47"/>
	<circle cx="161.188" cy="175.718" r="4" fill="#0" id="circle48"/>
	<circle cx="161.188" cy="346.115" r="4" fill="#0" id="circle49"/>
	<circle cx="174.397" cy="175.718" r="4" fill="#0" id="circle50"/>
	<circle cx="174.397" cy="339.51" r="4" fill="#0" id="circle51"/>
	<circle cx="183.643" cy="328.943" r="4" fill="#0" id="circle52"/>
	<circle cx="187.606" cy="175.718" r="4" fill="#0" id="circle53"/>
	<circle cx="194.21" cy="319.696" r="4" fill="#0" id="circle54"/>
	<circle cx="200.815" cy="175.718" r="4" fill="#0" id="circle55"/>
	<circle cx="203.457" cy="309.129" r="4" fill="#0" id="circle56"/>
	<circle cx="214.024" cy="175.718" r="4" fill="#0" id="circle57"/>
	<circle cx="216.666" cy="309.129" r="4" fill="#0" id="circle58"/>
	<circle cx="227.233" cy="177.039" r="4" fill="#0" id="circle59"/>
	<circle cx="228.554" cy="302.525" r="4" fill="#0" id="circle60"/>
	<circle cx="240.442" cy="182.322" r="4" fill="#0" id="circle61"/>
	<circle cx="241.763" cy="302.525" r="4" fill="#0" id="circle62"/>
	<circle cx="253.651" cy="182.322" r="4" fill="#0" id="circle63"/>
	<circle cx="254.972" cy="302.525" r="4" fill="#0" id="circle64"/>
	<circle cx="266.86" cy="182.322" r="4" fill="#0" id="circle65"/>
	<circle cx="268.181" cy="302.525" r="4" fill="#0" id="circle66"/>
	<circle cx="280.069" cy="182.322" r="4" fill="#0" id="circle67"/>
	<circle cx="280.069" cy="295.92" r="4" fill="#0" id="circle68"/>
	<circle cx="291.957" cy="175.718" r="4" fill="#0" id="circle69"/>
	<circle cx="293.278" cy="293.278" r="4" fill="#0" id="circle70"/>
	<circle cx="301.204" cy="126.844" r="4" fill="#0" id="circle71"/>
	<circle cx="301.204" cy="140.053" r="4" fill="#0" id="circle72"/>
	<circle cx="301.204" cy="153.262" r="4" fill="#0" id="circle73"/>
	<circle cx="302.525" cy="282.711" r="4" fill="#0" id="circle74"/>
	<circle cx="307.808" cy="100.426" r="4" fill="#0" id="circle75"/>
	<circle cx="307.808" cy="113.635" r="4" fill="#0" id="circle76"/>
	<circle cx="314.413" cy="80.6125" r="4" fill="#0" id="circle77"/>
	<circle cx="315.734" cy="276.107" r="4" fill="#0" id="circle78"/>
	<circle cx="324.98" cy="70.0453" r="4" fill="#0" id="circle79"/>
	<circle cx="328.943" cy="269.502" r="4" fill="#0" id="circle80"/>
	<circle cx="335.547" cy="59.478" r="4" fill="#0" id="circle81"/>
	<circle cx="340.831" cy="262.897" r="4" fill="#0" id="circle82"/>
	<circle cx="348.756" cy="52.8735" r="4" fill="#0" id="circle83"/>
	<circle cx="348.756" cy="249.688" r="4" fill="#0" id="circle84"/>
	<circle cx="355.361" cy="229.875" r="4" fill="#0" id="circle85"/>
	<circle cx="359.324" cy="43.6272" r="4" fill="#0" id="circle86"/>
	<circle cx="368.57" cy="223.27" r="4" fill="#0" id="circle87"/>
	<circle cx="371.212" cy="37.0226" r="4" fill="#0" id="circle88"/>
	<circle cx="381.779" cy="225.912" r="4" fill="#0" id="circle89"/>
	<circle cx="384.421" cy="37.0226" r="4" fill="#0" id="circle90"/>
	<circle cx="394.988" cy="229.875" r="4" fill="#0" id="circle91"/>
	<circle cx="396.309" cy="30.4181" r="4" fill="#0" id="circle92"/>
	<circle cx="406.876" cy="236.479" r="4" fill="#0" id="circle93"/>
	<circle cx="409.518" cy="25.1345" r="4" fill="#0" id="circle94"/>
	<circle cx="418.764" cy="243.084" r="4" fill="#0" id="circle95"/>
	<circle cx="422.727" cy="18.53" r="4" fill="#0" id="circle96"/>
	<circle cx="431.973" cy="243.084" r="4" fill="#0" id="circle97"/>
	<circle cx="435.936" cy="17.2091" r="4" fill="#0" id="circle98"/>
	<circle cx="443.862" cy="249.688" r="4" fill="#0" id="circle99"/>
	<circle cx="449.145" cy="11.9254" r="4" fill="#0" id="circle100"/>
	<circle cx="453.108" cy="681.625" r="4" fill="#0" id="circle101"/>
	<circle cx="457.071" cy="254.972" r="4" fill="#0" id="circle102"/>
	<circle cx="461.033" cy="692.192" r="4" fill="#0" id="circle103"/>
	<circle cx="462.354" cy="10.6045" r="4" fill="#0" id="circle104"/>
	<circle cx="466.317" cy="675.02" r="4" fill="#0" id="circle105"/>
	<circle cx="470.28" cy="256.293" r="4" fill="#0" id="circle106"/>
	<circle cx="474.242" cy="692.192" r="4" fill="#0" id="circle107"/>
	<circle cx="475.563" cy="5.32091" r="4" fill="#0" id="circle108"/>
	<circle cx="476.884" cy="664.453" r="4" fill="#0" id="circle109"/>
	<circle cx="483.489" cy="261.577" r="4" fill="#0" id="circle110"/>
	<circle cx="487.451" cy="685.587" r="4" fill="#0" id="circle111"/>
	<circle cx="488.772" cy="4" r="4" fill="#0" id="circle112"/>
	<circle cx="490.093" cy="657.848" r="4" fill="#0" id="circle113"/>
	<circle cx="496.698" cy="262.897" r="4" fill="#0" id="circle114"/>
	<circle cx="499.34" cy="641.997" r="4" fill="#0" id="circle115"/>
	<circle cx="499.34" cy="678.983" r="4" fill="#0" id="circle116"/>
	<circle cx="501.981" cy="4" r="4" fill="#0" id="circle117"/>
	<circle cx="509.907" cy="262.897" r="4" fill="#0" id="circle118"/>
	<circle cx="509.907" cy="631.43" r="4" fill="#0" id="circle119"/>
	<circle cx="509.907" cy="671.057" r="4" fill="#0" id="circle120"/>
	<circle cx="512.549" cy="608.975" r="4" fill="#0" id="circle121"/>
	<circle cx="515.19" cy="4" r="4" fill="#0" id="circle122"/>
	<circle cx="519.153" cy="595.766" r="4" fill="#0" id="circle123"/>
	<circle cx="520.474" cy="659.169" r="4" fill="#0" id="circle124"/>
	<circle cx="523.116" cy="262.897" r="4" fill="#0" id="circle125"/>
	<circle cx="525.758" cy="582.557" r="4" fill="#0" id="circle126"/>
	<circle cx="528.399" cy="4" r="4" fill="#0" id="circle127"/>
	<circle cx="531.041" cy="649.923" r="4" fill="#0" id="circle128"/>
	<circle cx="532.362" cy="556.138" r="4" fill="#0" id="circle129"/>
	<circle cx="532.362" cy="569.348" r="4" fill="#0" id="circle130"/>
	<circle cx="533.683" cy="619.542" r="4" fill="#0" id="circle131"/>
	<circle cx="536.325" cy="262.897" r="4" fill="#0" id="circle132"/>
	<circle cx="536.325" cy="632.751" r="4" fill="#0" id="circle133"/>
	<circle cx="538.967" cy="542.929" r="4" fill="#0" id="circle134"/>
	<circle cx="541.609" cy="4" r="4" fill="#0" id="circle135"/>
	<circle cx="544.25" cy="610.296" r="4" fill="#0" id="circle136"/>
	<circle cx="546.892" cy="593.124" r="4" fill="#0" id="circle137"/>
	<circle cx="549.534" cy="262.897" r="4" fill="#0" id="circle138"/>
	<circle cx="549.534" cy="532.362" r="4" fill="#0" id="circle139"/>
	<circle cx="552.176" cy="516.511" r="4" fill="#0" id="circle140"/>
	<circle cx="553.497" cy="566.706" r="4" fill="#0" id="circle141"/>
	<circle cx="553.497" cy="579.915" r="4" fill="#0" id="circle142"/>
	<circle cx="554.818" cy="4" r="4" fill="#0" id="circle143"/>
	<circle cx="558.78" cy="503.302" r="4" fill="#0" id="circle144"/>
	<circle cx="560.101" cy="553.497" r="4" fill="#0" id="circle145"/>
	<circle cx="562.743" cy="268.181" r="4" fill="#0" id="circle146"/>
	<circle cx="565.385" cy="483.489" r="4" fill="#0" id="circle147"/>
	<circle cx="566.706" cy="540.288" r="4" fill="#0" id="circle148"/>
	<circle cx="568.027" cy="4" r="4" fill="#0" id="circle149"/>
	<circle cx="571.989" cy="278.748" r="4" fill="#0" id="circle150"/>
	<circle cx="571.989" cy="291.957" r="4" fill="#0" id="circle151"/>
	<circle cx="571.989" cy="470.28" r="4" fill="#0" id="circle152"/>
	<circle cx="573.31" cy="513.87" r="4" fill="#0" id="circle153"/>
	<circle cx="573.31" cy="527.079" r="4" fill="#0" id="circle154"/>
	<circle cx="578.594" cy="303.846" r="4" fill="#0" id="circle155"/>
	<circle cx="578.594" cy="450.466" r="4" fill="#0" id="circle156"/>
	<circle cx="579.915" cy="10.6045" r="4" fill="#0" id="circle157"/>
	<circle cx="579.915" cy="500.66" r="4" fill="#0" id="circle158"/>
	<circle cx="585.198" cy="315.734" r="4" fill="#0" id="circle159"/>
	<circle cx="585.198" cy="430.652" r="4" fill="#0" id="circle160"/>
	<circle cx="586.519" cy="487.451" r="4" fill="#0" id="circle161"/>
	<circle cx="589.161" cy="328.943" r="4" fill="#0" id="circle162"/>
	<circle cx="591.803" cy="342.152" r="4" fill="#0" id="circle163"/>
	<circle cx="591.803" cy="417.443" r="4" fill="#0" id="circle164"/>
	<circle cx="593.124" cy="10.6045" r="4" fill="#0" id="circle165"/>
	<circle cx="593.124" cy="256.293" r="4" fill="#0" id="circle166"/>
	<circle cx="593.124" cy="269.502" r="4" fill="#0" id="circle167"/>
	<circle cx="593.124" cy="282.711" r="4" fill="#0" id="circle168"/>
	<circle cx="593.124" cy="467.638" r="4" fill="#0" id="circle169"/>
	<circle cx="595.766" cy="295.92" r="4" fill="#0" id="circle170"/>
	<circle cx="595.766" cy="355.361" r="4" fill="#0" id="circle171"/>
	<circle cx="598.407" cy="368.57" r="4" fill="#0" id="circle172"/>
	<circle cx="598.407" cy="381.779" r="4" fill="#0" id="circle173"/>
	<circle cx="598.407" cy="394.988" r="4" fill="#0" id="circle174"/>
	<circle cx="599.728" cy="447.824" r="4" fill="#0" id="circle175"/>
	<circle cx="602.37" cy="307.808" r="4" fill="#0" id="circle176"/>
	<circle cx="605.012" cy="17.2091" r="4" fill="#0" id="circle177"/>
	<circle cx="606.333" cy="249.688" r="4" fill="#0" id="circle178"/>
	<circle cx="606.333" cy="321.017" r="4" fill="#0" id="circle179"/>
	<circle cx="610.296" cy="438.578" r="4" fill="#0" id="circle180"/>
	<circle cx="612.937" cy="332.905" r="4" fill="#0" id="circle181"/>
	<circle cx="612.937" cy="346.115" r="4" fill="#0" id="circle182"/>
	<circle cx="612.937" cy="414.802" r="4" fill="#0" id="circle183"/>
	<circle cx="618.221" cy="17.2091" r="4" fill="#0" id="circle184"/>
	<circle cx="619.542" cy="249.688" r="4" fill="#0" id="circle185"/>
	<circle cx="619.542" cy="358.003" r="4" fill="#0" id="circle186"/>
	<circle cx="623.505" cy="405.555" r="4" fill="#0" id="circle187"/>
	<circle cx="626.146" cy="369.891" r="4" fill="#0" id="circle188"/>
	<circle cx="626.146" cy="383.1" r="4" fill="#0" id="circle189"/>
	<circle cx="631.43" cy="19.8509" r="4" fill="#0" id="circle190"/>
	<circle cx="631.43" cy="243.084" r="4" fill="#0" id="circle191"/>
	<circle cx="644.639" cy="23.8136" r="4" fill="#0" id="circle192"/>
	<circle cx="644.639" cy="239.121" r="4" fill="#0" id="circle193"/>
	<circle cx="651.244" cy="324.98" r="4" fill="#0" id="circle194"/>
	<circle cx="651.244" cy="338.189" r="4" fill="#0" id="circle195"/>
	<circle cx="651.244" cy="351.398" r="4" fill="#0" id="circle196"/>
	<circle cx="651.244" cy="364.607" r="4" fill="#0" id="circle197"/>
	<circle cx="651.244" cy="377.816" r="4" fill="#0" id="circle198"/>
	<circle cx="657.848" cy="23.8136" r="4" fill="#0" id="circle199"/>
	<circle cx="657.848" cy="232.517" r="4" fill="#0" id="circle200"/>
	<circle cx="657.848" cy="311.771" r="4" fill="#0" id="circle201"/>
	<circle cx="661.811" cy="387.063" r="4" fill="#0" id="circle202"/>
	<circle cx="664.453" cy="298.562" r="4" fill="#0" id="circle203"/>
	<circle cx="664.453" cy="400.272" r="4" fill="#0" id="circle204"/>
	<circle cx="671.057" cy="26.4554" r="4" fill="#0" id="circle205"/>
	<circle cx="671.057" cy="229.875" r="4" fill="#0" id="circle206"/>
	<circle cx="672.378" cy="328.943" r="4" fill="#0" id="circle207"/>
	<circle cx="672.378" cy="342.152" r="4" fill="#0" id="circle208"/>
	<circle cx="672.378" cy="355.361" r="4" fill="#0" id="circle209"/>
	<circle cx="675.02" cy="287.995" r="4" fill="#0" id="circle210"/>
	<circle cx="675.02" cy="408.197" r="4" fill="#0" id="circle211"/>
	<circle cx="678.983" cy="367.249" r="4" fill="#0" id="circle212"/>
	<circle cx="681.625" cy="420.085" r="4" fill="#0" id="circle213"/>
	<circle cx="682.945" cy="223.27" r="4" fill="#0" id="circle214"/>
	<circle cx="682.945" cy="319.696" r="4" fill="#0" id="circle215"/>
	<circle cx="684.266" cy="30.4181" r="4" fill="#0" id="circle216"/>
	<circle cx="684.266" cy="272.144" r="4" fill="#0" id="circle217"/>
	<circle cx="685.587" cy="379.137" r="4" fill="#0" id="circle218"/>
	<circle cx="686.908" cy="433.294" r="4" fill="#0" id="circle219"/>
	<circle cx="689.55" cy="306.487" r="4" fill="#0" id="circle220"/>
	<circle cx="694.834" cy="261.577" r="4" fill="#0" id="circle221"/>
	<circle cx="696.154" cy="220.628" r="4" fill="#0" id="circle222"/>
	<circle cx="696.154" cy="388.383" r="4" fill="#0" id="circle223"/>
	<circle cx="697.475" cy="30.4181" r="4" fill="#0" id="circle224"/>
	<circle cx="698.796" cy="289.316" r="4" fill="#0" id="circle225"/>
	<circle cx="700.117" cy="434.615" r="4" fill="#0" id="circle226"/>
	<circle cx="701.438" cy="248.368" r="4" fill="#0" id="circle227"/>
	<circle cx="701.438" cy="401.593" r="4" fill="#0" id="circle228"/>
	<circle cx="704.08" cy="231.196" r="4" fill="#0" id="circle229"/>
	<circle cx="705.401" cy="276.107" r="4" fill="#0" id="circle230"/>
	<circle cx="705.401" cy="414.802" r="4" fill="#0" id="circle231"/>
	<circle cx="709.364" cy="37.0226" r="4" fill="#0" id="circle232"/>
	<circle cx="712.005" cy="262.897" r="4" fill="#0" id="circle233"/>
	<circle cx="718.61" cy="249.688" r="4" fill="#0" id="circle234"/>
	<circle cx="722.573" cy="37.0226" r="4" fill="#0" id="circle235"/>
	<circle cx="729.177" cy="240.442" r="4" fill="#0" id="circle236"/>
	<circle cx="731.819" cy="223.27" r="4" fill="#0" id="circle237"/>
	<circle cx="735.782" cy="37.0226" r="4" fill="#0" id="circle238"/>
	<circle cx="738.423" cy="210.061" r="4" fill="#0" id="circle239"/>
	<circle cx="748.991" cy="37.0226" r="4" fill="#0" id="circle240"/>
	<circle cx="750.312" cy="203.457" r="4" fill="#0" id="circle241"/>
	<circle cx="760.879" cy="43.6272" r="4" fill="#0" id="circle242"/>
	<circle cx="760.879" cy="195.531" r="4" fill="#0" id="circle243"/>
	<circle cx="774.088" cy="43.6272" r="4" fill="#0" id="circle244"/>
	<circle cx="774.088" cy="188.927" r="4" fill="#0" id="circle245"/>
	<circle cx="784.655" cy="170.434" r="4" fill="#0" id="circle246"/>
	<circle cx="787.297" cy="43.6272" r="4" fill="#0" id="circle247"/>
	<circle cx="797.864" cy="157.225" r="4" fill="#0" id="circle248"/>
	<circle cx="800.506" cy="43.6272" r="4" fill="#0" id="circle249"/>
	<circle cx="811.073" cy="157.225" r="4" fill="#0" id="circle250"/>
	<circle cx="813.715" cy="43.6272" r="4" fill="#0" id="circle251"/>
	<circle cx="822.961" cy="150.621" r="4" fill="#0" id="circle252"/>
	<circle cx="826.924" cy="43.6272" r="4" fill="#0" id="circle253"/>
	<circle cx="836.17" cy="146.658" r="4" fill="#0" id="circle254"/>
	<circle cx="840.133" cy="43.6272" r="4" fill="#0" id="circle255"/>
	<circle cx="846.738" cy="137.411" r="4" fill="#0" id="circle256"/>
	<circle cx="853.342" cy="43.6272" r="4" fill="#0" id="circle257"/>
	<circle cx="858.626" cy="130.807" r="4" fill="#0" id="circle258"/>
	<circle cx="866.551" cy="43.6272" r="4" fill="#0" id="circle259"/>
	<circle cx="871.835" cy="130.807" r="4" fill="#0" id="circle260"/>
	<circle cx="879.76" cy="43.6272" r="4" fill="#0" id="circle261"/>
	<circle cx="883.723" cy="124.202" r="4" fill="#0" id="circle262"/>
	<circle cx="892.969" cy="43.6272" r="4" fill="#0" id="circle263"/>
	<circle cx="895.611" cy="117.598" r="4" fill="#0" id="circle264"/>
	<circle cx="906.178" cy="43.6272" r="4" fill="#0" id="circle265"/>
	<circle cx="907.499" cy="110.993" r="4" fill="#0" id="circle266"/>
	<circle cx="919.387" cy="43.6272" r="4" fill="#0" id="circle267"/>
	<circle cx="920.708" cy="108.352" r="4" fill="#0" id="circle268"/>
	<circle cx="932.597" cy="43.6272" r="4" fill="#0" id="circle269"/>
	<circle cx="933.917" cy="104.389" r="4" fill="#0" id="circle270"/>
	<circle cx="945.806" cy="43.6272" r="4" fill="#0" id="circle271"/>
	<circle cx="945.806" cy="97.7843" r="4" fill="#0" id="circle272"/>
	<circle cx="959.015" cy="43.6272" r="4" fill="#0" id="circle273"/>
	<circle cx="959.015" cy="97.7843" r="4" fill="#0" id="circle274"/>
	<circle cx="972.224" cy="43.6272" r="4" fill="#0" id="circle275"/>
	<circle cx="972.224" cy="97.7843" r="4" fill="#0" id="circle276"/>
	<circle cx="985.433" cy="43.6272" r="4" fill="#0" id="circle277"/>
	<circle cx="985.433" cy="96.4634" r="4" fill="#0" id="circle278"/>
	<circle cx="989.395" cy="56.8362" r="4" fill="#0" id="circle279"/>
	<circle cx="989.395" cy="70.0453" r="4" fill="#0" id="circle280"/>
	<circle cx="996" cy="81.9334" r="4" fill="#0" id="circle281"/>
	</g>
</svg>