<?xml version="1.0" encoding="UTF-8" standalone="no"?>
<!-- Created with CurveBenchmark -->
<svg
	xmlns:dc="http://purl.org/dc/elements/1.1/"
	xmlns:cc="http://creativecommons.org/ns#"
	xmlns:rdf="http://www.w3.org/1999/02/22-rdf-syntax-ns#"
	xmlns:svg="http://www.w3.org/2000/svg"
	xmlns="http://www.w3.org/2000/svg"
	xmlns:sodipodi="http://sodipodi.sourceforge.net/DTD/sodipodi-0.dtd"
	xmlns:inkscape="http://www.inkscape.org/namespaces/inkscape"
	width="1000"
	height="1000"
	id="svg2"
	version="1.1"
	sodipodi:docname="manifold/discur-bed340.png.txt">
<defs
	id="defs4" />
<metadata
	id="metadata7">
	<rdf:RDF>
		<cc:Work
			rdf:about="">
			<dc:format>image/svg+xml</dc:format>
			<dc:type
				rdf:resource="http://purl.org/dc/dcmitype/StillImage" />
			<dc:title></dc:title>
		</cc:Work>
	</rdf:RDF>
</metadata>
<g
	inkscape:label="Layer 1"
	inkscape:groupmode="layer"
	id="layer1">
	<path style="fill:none;stroke:red;stroke-width:1px;stroke-linecap:butt;stroke-linejoin:miter;stroke-opacity:1" d="M 4,373.833 5.92621,393.095 z" id="boundary" inkscape:connector-curvature="0" />
	<path style="fill:none;stroke:red;stroke-width:1px;stroke-linecap:butt;stroke-linejoin:miter;stroke-opacity:1" d="M 4,373.833 13.6311,356.497 z" id="boundary" inkscape:connector-curvature="0" />
	<path style="fill:none;stroke:red;stroke-width:1px;stroke-linecap:butt;stroke-linejoin:miter;stroke-opacity:1" d="M 5.92621,393.095 17.4835,408.505 z" id="boundary" inkscape:connector-curvature="0" />
	<path style="fill:none;stroke:red;stroke-width:1px;stroke-linecap:butt;stroke-linejoin:miter;stroke-opacity:1" d="M 13.6311,356.497 30.967,346.866 z" id="boundary" inkscape:connector-curvature="0" />
	<path style="fill:none;stroke:red;stroke-width:1px;stroke-linecap:butt;stroke-linejoin:miter;stroke-opacity:1" d="M 15.5573,543.34 19.4097,562.602 z" id="boundary" inkscape:connector-curvature="0" />
	<path style="fill:none;stroke:red;stroke-width:1px;stroke-linecap:butt;stroke-linejoin:miter;stroke-opacity:1" d="M 15.5573,543.34 23.2621,520.225 z" id="boundary" inkscape:connector-curvature="0" />
	<path style="fill:none;stroke:red;stroke-width:1px;stroke-linecap:butt;stroke-linejoin:miter;stroke-opacity:1" d="M 15.5573,585.717 19.4097,562.602 z" id="boundary" inkscape:connector-curvature="0" />
	<path style="fill:none;stroke:red;stroke-width:1px;stroke-linecap:butt;stroke-linejoin:miter;stroke-opacity:1" d="M 15.5573,585.717 30.967,599.2 z" id="boundary" inkscape:connector-curvature="0" />
	<path style="fill:none;stroke:red;stroke-width:1px;stroke-linecap:butt;stroke-linejoin:miter;stroke-opacity:1" d="M 17.4835,408.505 23.2621,427.767 z" id="boundary" inkscape:connector-curvature="0" />
	<path style="fill:none;stroke:red;stroke-width:1px;stroke-linecap:butt;stroke-linejoin:miter;stroke-opacity:1" d="M 23.2621,427.767 27.1146,447.029 z" id="boundary" inkscape:connector-curvature="0" />
	<path style="fill:none;stroke:red;stroke-width:1px;stroke-linecap:butt;stroke-linejoin:miter;stroke-opacity:1" d="M 23.2621,520.225 27.1146,485.553 z" id="boundary" inkscape:connector-curvature="0" />
	<path style="fill:none;stroke:red;stroke-width:1px;stroke-linecap:butt;stroke-linejoin:miter;stroke-opacity:1" d="M 27.1146,447.029 27.1146,466.291 z" id="boundary" inkscape:connector-curvature="0" />
	<path style="fill:none;stroke:red;stroke-width:1px;stroke-linecap:butt;stroke-linejoin:miter;stroke-opacity:1" d="M 27.1146,466.291 27.1146,485.553 z" id="boundary" inkscape:connector-curvature="0" />
	<path style="fill:none;stroke:red;stroke-width:1px;stroke-linecap:butt;stroke-linejoin:miter;stroke-opacity:1" d="M 30.967,346.866 50.2291,339.161 z" id="boundary" inkscape:connector-curvature="0" />
	<path style="fill:none;stroke:red;stroke-width:1px;stroke-linecap:butt;stroke-linejoin:miter;stroke-opacity:1" d="M 30.967,599.2 46.3767,587.643 z" id="boundary" inkscape:connector-curvature="0" />
	<path style="fill:none;stroke:red;stroke-width:1px;stroke-linecap:butt;stroke-linejoin:miter;stroke-opacity:1" d="M 44.4505,554.897 46.3767,587.643 z" id="boundary" inkscape:connector-curvature="0" />
	<path style="fill:none;stroke:red;stroke-width:1px;stroke-linecap:butt;stroke-linejoin:miter;stroke-opacity:1" d="M 44.4505,554.897 52.1553,531.783 z" id="boundary" inkscape:connector-curvature="0" />
	<path style="fill:none;stroke:red;stroke-width:1px;stroke-linecap:butt;stroke-linejoin:miter;stroke-opacity:1" d="M 50.2291,339.161 69.4913,331.456 z" id="boundary" inkscape:connector-curvature="0" />
	<path style="fill:none;stroke:red;stroke-width:1px;stroke-linecap:butt;stroke-linejoin:miter;stroke-opacity:1" d="M 52.1553,531.783 71.4175,529.856 z" id="boundary" inkscape:connector-curvature="0" />
	<path style="fill:none;stroke:red;stroke-width:1px;stroke-linecap:butt;stroke-linejoin:miter;stroke-opacity:1" d="M 69.4913,331.456 88.7534,327.604 z" id="boundary" inkscape:connector-curvature="0" />
	<path style="fill:none;stroke:red;stroke-width:1px;stroke-linecap:butt;stroke-linejoin:miter;stroke-opacity:1" d="M 71.4175,529.856 90.6796,529.856 z" id="boundary" inkscape:connector-curvature="0" />
	<path style="fill:none;stroke:red;stroke-width:1px;stroke-linecap:butt;stroke-linejoin:miter;stroke-opacity:1" d="M 88.7534,327.604 108.016,323.751 z" id="boundary" inkscape:connector-curvature="0" />
	<path style="fill:none;stroke:red;stroke-width:1px;stroke-linecap:butt;stroke-linejoin:miter;stroke-opacity:1" d="M 90.6796,529.856 109.942,533.709 z" id="boundary" inkscape:connector-curvature="0" />
	<path style="fill:none;stroke:red;stroke-width:1px;stroke-linecap:butt;stroke-linejoin:miter;stroke-opacity:1" d="M 108.016,323.751 127.278,319.899 z" id="boundary" inkscape:connector-curvature="0" />
	<path style="fill:none;stroke:red;stroke-width:1px;stroke-linecap:butt;stroke-linejoin:miter;stroke-opacity:1" d="M 109.942,533.709 129.204,537.561 z" id="boundary" inkscape:connector-curvature="0" />
	<path style="fill:none;stroke:red;stroke-width:1px;stroke-linecap:butt;stroke-linejoin:miter;stroke-opacity:1" d="M 127.278,319.899 146.54,316.047 z" id="boundary" inkscape:connector-curvature="0" />
	<path style="fill:none;stroke:red;stroke-width:1px;stroke-linecap:butt;stroke-linejoin:miter;stroke-opacity:1" d="M 129.204,537.561 148.466,545.266 z" id="boundary" inkscape:connector-curvature="0" />
	<path style="fill:none;stroke:red;stroke-width:1px;stroke-linecap:butt;stroke-linejoin:miter;stroke-opacity:1" d="M 146.54,316.047 165.802,312.194 z" id="boundary" inkscape:connector-curvature="0" />
	<path style="fill:none;stroke:red;stroke-width:1px;stroke-linecap:butt;stroke-linejoin:miter;stroke-opacity:1" d="M 148.466,545.266 167.728,535.635 z" id="boundary" inkscape:connector-curvature="0" />
	<path style="fill:none;stroke:red;stroke-width:1px;stroke-linecap:butt;stroke-linejoin:miter;stroke-opacity:1" d="M 165.802,312.194 185.064,312.194 z" id="boundary" inkscape:connector-curvature="0" />
	<path style="fill:none;stroke:red;stroke-width:1px;stroke-linecap:butt;stroke-linejoin:miter;stroke-opacity:1" d="M 167.728,535.635 185.064,526.004 z" id="boundary" inkscape:connector-curvature="0" />
	<path style="fill:none;stroke:red;stroke-width:1px;stroke-linecap:butt;stroke-linejoin:miter;stroke-opacity:1" d="M 185.064,312.194 204.326,308.342 z" id="boundary" inkscape:connector-curvature="0" />
	<path style="fill:none;stroke:red;stroke-width:1px;stroke-linecap:butt;stroke-linejoin:miter;stroke-opacity:1" d="M 185.064,526.004 204.326,526.004 z" id="boundary" inkscape:connector-curvature="0" />
	<path style="fill:none;stroke:red;stroke-width:1px;stroke-linecap:butt;stroke-linejoin:miter;stroke-opacity:1" d="M 204.326,308.342 223.588,308.342 z" id="boundary" inkscape:connector-curvature="0" />
	<path style="fill:none;stroke:red;stroke-width:1px;stroke-linecap:butt;stroke-linejoin:miter;stroke-opacity:1" d="M 204.326,526.004 223.588,529.856 z" id="boundary" inkscape:connector-curvature="0" />
	<path style="fill:none;stroke:red;stroke-width:1px;stroke-linecap:butt;stroke-linejoin:miter;stroke-opacity:1" d="M 223.588,308.342 242.85,304.489 z" id="boundary" inkscape:connector-curvature="0" />
	<path style="fill:none;stroke:red;stroke-width:1px;stroke-linecap:butt;stroke-linejoin:miter;stroke-opacity:1" d="M 223.588,529.856 242.85,533.709 z" id="boundary" inkscape:connector-curvature="0" />
	<path style="fill:none;stroke:red;stroke-width:1px;stroke-linecap:butt;stroke-linejoin:miter;stroke-opacity:1" d="M 242.85,304.489 262.113,304.489 z" id="boundary" inkscape:connector-curvature="0" />
	<path style="fill:none;stroke:red;stroke-width:1px;stroke-linecap:butt;stroke-linejoin:miter;stroke-opacity:1" d="M 242.85,533.709 262.113,541.414 z" id="boundary" inkscape:connector-curvature="0" />
	<path style="fill:none;stroke:red;stroke-width:1px;stroke-linecap:butt;stroke-linejoin:miter;stroke-opacity:1" d="M 262.113,304.489 277.522,289.08 z" id="boundary" inkscape:connector-curvature="0" />
	<path style="fill:none;stroke:red;stroke-width:1px;stroke-linecap:butt;stroke-linejoin:miter;stroke-opacity:1" d="M 262.113,541.414 281.375,549.118 z" id="boundary" inkscape:connector-curvature="0" />
	<path style="fill:none;stroke:red;stroke-width:1px;stroke-linecap:butt;stroke-linejoin:miter;stroke-opacity:1" d="M 277.522,289.08 296.784,289.08 z" id="boundary" inkscape:connector-curvature="0" />
	<path style="fill:none;stroke:red;stroke-width:1px;stroke-linecap:butt;stroke-linejoin:miter;stroke-opacity:1" d="M 281.375,549.118 300.637,554.897 z" id="boundary" inkscape:connector-curvature="0" />
	<path style="fill:none;stroke:red;stroke-width:1px;stroke-linecap:butt;stroke-linejoin:miter;stroke-opacity:1" d="M 296.784,289.08 312.194,277.522 z" id="boundary" inkscape:connector-curvature="0" />
	<path style="fill:none;stroke:red;stroke-width:1px;stroke-linecap:butt;stroke-linejoin:miter;stroke-opacity:1" d="M 300.637,554.897 319.899,560.676 z" id="boundary" inkscape:connector-curvature="0" />
	<path style="fill:none;stroke:red;stroke-width:1px;stroke-linecap:butt;stroke-linejoin:miter;stroke-opacity:1" d="M 312.194,277.522 331.456,269.817 z" id="boundary" inkscape:connector-curvature="0" />
	<path style="fill:none;stroke:red;stroke-width:1px;stroke-linecap:butt;stroke-linejoin:miter;stroke-opacity:1" d="M 319.899,560.676 339.161,564.528 z" id="boundary" inkscape:connector-curvature="0" />
	<path style="fill:none;stroke:red;stroke-width:1px;stroke-linecap:butt;stroke-linejoin:miter;stroke-opacity:1" d="M 331.456,269.817 350.718,262.113 z" id="boundary" inkscape:connector-curvature="0" />
	<path style="fill:none;stroke:red;stroke-width:1px;stroke-linecap:butt;stroke-linejoin:miter;stroke-opacity:1" d="M 339.161,564.528 358.423,564.528 z" id="boundary" inkscape:connector-curvature="0" />
	<path style="fill:none;stroke:red;stroke-width:1px;stroke-linecap:butt;stroke-linejoin:miter;stroke-opacity:1" d="M 350.718,262.113 369.981,258.26 z" id="boundary" inkscape:connector-curvature="0" />
	<path style="fill:none;stroke:red;stroke-width:1px;stroke-linecap:butt;stroke-linejoin:miter;stroke-opacity:1" d="M 358.423,564.528 362.276,585.717 z" id="boundary" inkscape:connector-curvature="0" />
	<path style="fill:none;stroke:red;stroke-width:1px;stroke-linecap:butt;stroke-linejoin:miter;stroke-opacity:1" d="M 362.276,142.687 362.276,161.95 z" id="boundary" inkscape:connector-curvature="0" />
	<path style="fill:none;stroke:red;stroke-width:1px;stroke-linecap:butt;stroke-linejoin:miter;stroke-opacity:1" d="M 362.276,142.687 373.833,127.278 z" id="boundary" inkscape:connector-curvature="0" />
	<path style="fill:none;stroke:red;stroke-width:1px;stroke-linecap:butt;stroke-linejoin:miter;stroke-opacity:1" d="M 362.276,161.95 368.054,181.212 z" id="boundary" inkscape:connector-curvature="0" />
	<path style="fill:none;stroke:red;stroke-width:1px;stroke-linecap:butt;stroke-linejoin:miter;stroke-opacity:1" d="M 362.276,585.717 377.685,599.2 z" id="boundary" inkscape:connector-curvature="0" />
	<path style="fill:none;stroke:red;stroke-width:1px;stroke-linecap:butt;stroke-linejoin:miter;stroke-opacity:1" d="M 368.054,181.212 377.685,198.548 z" id="boundary" inkscape:connector-curvature="0" />
	<path style="fill:none;stroke:red;stroke-width:1px;stroke-linecap:butt;stroke-linejoin:miter;stroke-opacity:1" d="M 369.981,258.26 381.538,237.072 z" id="boundary" inkscape:connector-curvature="0" />
	<path style="fill:none;stroke:red;stroke-width:1px;stroke-linecap:butt;stroke-linejoin:miter;stroke-opacity:1" d="M 373.833,127.278 393.095,119.573 z" id="boundary" inkscape:connector-curvature="0" />
	<path style="fill:none;stroke:red;stroke-width:1px;stroke-linecap:butt;stroke-linejoin:miter;stroke-opacity:1" d="M 377.685,198.548 377.685,217.81 z" id="boundary" inkscape:connector-curvature="0" />
	<path style="fill:none;stroke:red;stroke-width:1px;stroke-linecap:butt;stroke-linejoin:miter;stroke-opacity:1" d="M 377.685,217.81 381.538,237.072 z" id="boundary" inkscape:connector-curvature="0" />
	<path style="fill:none;stroke:red;stroke-width:1px;stroke-linecap:butt;stroke-linejoin:miter;stroke-opacity:1" d="M 377.685,599.2 391.169,581.864 z" id="boundary" inkscape:connector-curvature="0" />
	<path style="fill:none;stroke:red;stroke-width:1px;stroke-linecap:butt;stroke-linejoin:miter;stroke-opacity:1" d="M 391.169,562.602 391.169,581.864 z" id="boundary" inkscape:connector-curvature="0" />
	<path style="fill:none;stroke:red;stroke-width:1px;stroke-linecap:butt;stroke-linejoin:miter;stroke-opacity:1" d="M 391.169,562.602 410.431,556.823 z" id="boundary" inkscape:connector-curvature="0" />
	<path style="fill:none;stroke:red;stroke-width:1px;stroke-linecap:butt;stroke-linejoin:miter;stroke-opacity:1" d="M 393.095,119.573 410.431,109.942 z" id="boundary" inkscape:connector-curvature="0" />
	<path style="fill:none;stroke:red;stroke-width:1px;stroke-linecap:butt;stroke-linejoin:miter;stroke-opacity:1" d="M 410.431,109.942 429.693,104.163 z" id="boundary" inkscape:connector-curvature="0" />
	<path style="fill:none;stroke:red;stroke-width:1px;stroke-linecap:butt;stroke-linejoin:miter;stroke-opacity:1" d="M 410.431,556.823 429.693,552.971 z" id="boundary" inkscape:connector-curvature="0" />
	<path style="fill:none;stroke:red;stroke-width:1px;stroke-linecap:butt;stroke-linejoin:miter;stroke-opacity:1" d="M 429.693,104.163 448.955,96.4583 z" id="boundary" inkscape:connector-curvature="0" />
	<path style="fill:none;stroke:red;stroke-width:1px;stroke-linecap:butt;stroke-linejoin:miter;stroke-opacity:1" d="M 429.693,552.971 448.955,545.266 z" id="boundary" inkscape:connector-curvature="0" />
	<path style="fill:none;stroke:red;stroke-width:1px;stroke-linecap:butt;stroke-linejoin:miter;stroke-opacity:1" d="M 448.955,96.4583 468.217,92.6058 z" id="boundary" inkscape:connector-curvature="0" />
	<path style="fill:none;stroke:red;stroke-width:1px;stroke-linecap:butt;stroke-linejoin:miter;stroke-opacity:1" d="M 448.955,545.266 468.217,537.561 z" id="boundary" inkscape:connector-curvature="0" />
	<path style="fill:none;stroke:red;stroke-width:1px;stroke-linecap:butt;stroke-linejoin:miter;stroke-opacity:1" d="M 468.217,92.6058 487.48,86.8272 z" id="boundary" inkscape:connector-curvature="0" />
	<path style="fill:none;stroke:red;stroke-width:1px;stroke-linecap:butt;stroke-linejoin:miter;stroke-opacity:1" d="M 468.217,537.561 487.48,529.856 z" id="boundary" inkscape:connector-curvature="0" />
	<path style="fill:none;stroke:red;stroke-width:1px;stroke-linecap:butt;stroke-linejoin:miter;stroke-opacity:1" d="M 487.48,86.8272 506.742,82.9748 z" id="boundary" inkscape:connector-curvature="0" />
	<path style="fill:none;stroke:red;stroke-width:1px;stroke-linecap:butt;stroke-linejoin:miter;stroke-opacity:1" d="M 487.48,529.856 506.742,526.004 z" id="boundary" inkscape:connector-curvature="0" />
	<path style="fill:none;stroke:red;stroke-width:1px;stroke-linecap:butt;stroke-linejoin:miter;stroke-opacity:1" d="M 506.742,82.9748 526.004,79.1223 z" id="boundary" inkscape:connector-curvature="0" />
	<path style="fill:none;stroke:red;stroke-width:1px;stroke-linecap:butt;stroke-linejoin:miter;stroke-opacity:1" d="M 506.742,526.004 526.004,526.004 z" id="boundary" inkscape:connector-curvature="0" />
	<path style="fill:none;stroke:red;stroke-width:1px;stroke-linecap:butt;stroke-linejoin:miter;stroke-opacity:1" d="M 526.004,79.1223 545.266,75.2699 z" id="boundary" inkscape:connector-curvature="0" />
	<path style="fill:none;stroke:red;stroke-width:1px;stroke-linecap:butt;stroke-linejoin:miter;stroke-opacity:1" d="M 526.004,526.004 545.266,529.856 z" id="boundary" inkscape:connector-curvature="0" />
	<path style="fill:none;stroke:red;stroke-width:1px;stroke-linecap:butt;stroke-linejoin:miter;stroke-opacity:1" d="M 545.266,75.2699 564.528,73.3437 z" id="boundary" inkscape:connector-curvature="0" />
	<path style="fill:none;stroke:red;stroke-width:1px;stroke-linecap:butt;stroke-linejoin:miter;stroke-opacity:1" d="M 545.266,529.856 562.602,539.487 z" id="boundary" inkscape:connector-curvature="0" />
	<path style="fill:none;stroke:red;stroke-width:1px;stroke-linecap:butt;stroke-linejoin:miter;stroke-opacity:1" d="M 562.602,539.487 581.864,541.414 z" id="boundary" inkscape:connector-curvature="0" />
	<path style="fill:none;stroke:red;stroke-width:1px;stroke-linecap:butt;stroke-linejoin:miter;stroke-opacity:1" d="M 564.528,73.3437 579.938,59.8602 z" id="boundary" inkscape:connector-curvature="0" />
	<path style="fill:none;stroke:red;stroke-width:1px;stroke-linecap:butt;stroke-linejoin:miter;stroke-opacity:1" d="M 579.938,59.8602 597.274,50.2291 z" id="boundary" inkscape:connector-curvature="0" />
	<path style="fill:none;stroke:red;stroke-width:1px;stroke-linecap:butt;stroke-linejoin:miter;stroke-opacity:1" d="M 581.864,541.414 601.126,537.561 z" id="boundary" inkscape:connector-curvature="0" />
	<path style="fill:none;stroke:red;stroke-width:1px;stroke-linecap:butt;stroke-linejoin:miter;stroke-opacity:1" d="M 597.274,50.2291 616.536,42.5243 z" id="boundary" inkscape:connector-curvature="0" />
	<path style="fill:none;stroke:red;stroke-width:1px;stroke-linecap:butt;stroke-linejoin:miter;stroke-opacity:1" d="M 601.126,537.561 620.388,533.709 z" id="boundary" inkscape:connector-curvature="0" />
	<path style="fill:none;stroke:red;stroke-width:1px;stroke-linecap:butt;stroke-linejoin:miter;stroke-opacity:1" d="M 616.536,42.5243 635.798,30.967 z" id="boundary" inkscape:connector-curvature="0" />
	<path style="fill:none;stroke:red;stroke-width:1px;stroke-linecap:butt;stroke-linejoin:miter;stroke-opacity:1" d="M 620.388,533.709 639.65,529.856 z" id="boundary" inkscape:connector-curvature="0" />
	<path style="fill:none;stroke:red;stroke-width:1px;stroke-linecap:butt;stroke-linejoin:miter;stroke-opacity:1" d="M 635.798,30.967 651.208,15.5573 z" id="boundary" inkscape:connector-curvature="0" />
	<path style="fill:none;stroke:red;stroke-width:1px;stroke-linecap:butt;stroke-linejoin:miter;stroke-opacity:1" d="M 639.65,529.856 658.913,529.856 z" id="boundary" inkscape:connector-curvature="0" />
	<path style="fill:none;stroke:red;stroke-width:1px;stroke-linecap:butt;stroke-linejoin:miter;stroke-opacity:1" d="M 651.208,15.5573 666.617,4 z" id="boundary" inkscape:connector-curvature="0" />
	<path style="fill:none;stroke:red;stroke-width:1px;stroke-linecap:butt;stroke-linejoin:miter;stroke-opacity:1" d="M 658.913,529.856 678.175,535.635 z" id="boundary" inkscape:connector-curvature="0" />
	<path style="fill:none;stroke:red;stroke-width:1px;stroke-linecap:butt;stroke-linejoin:miter;stroke-opacity:1" d="M 666.617,4 685.88,4 z" id="boundary" inkscape:connector-curvature="0" />
	<path style="fill:none;stroke:red;stroke-width:1px;stroke-linecap:butt;stroke-linejoin:miter;stroke-opacity:1" d="M 678.175,535.635 680.101,554.897 z" id="boundary" inkscape:connector-curvature="0" />
	<path style="fill:none;stroke:red;stroke-width:1px;stroke-linecap:butt;stroke-linejoin:miter;stroke-opacity:1" d="M 680.101,554.897 682.027,574.159 z" id="boundary" inkscape:connector-curvature="0" />
	<path style="fill:none;stroke:red;stroke-width:1px;stroke-linecap:butt;stroke-linejoin:miter;stroke-opacity:1" d="M 682.027,574.159 685.88,593.421 z" id="boundary" inkscape:connector-curvature="0" />
	<path style="fill:none;stroke:red;stroke-width:1px;stroke-linecap:butt;stroke-linejoin:miter;stroke-opacity:1" d="M 685.88,4 701.289,17.4835 z" id="boundary" inkscape:connector-curvature="0" />
	<path style="fill:none;stroke:red;stroke-width:1px;stroke-linecap:butt;stroke-linejoin:miter;stroke-opacity:1" d="M 685.88,593.421 705.142,595.348 z" id="boundary" inkscape:connector-curvature="0" />
	<path style="fill:none;stroke:red;stroke-width:1px;stroke-linecap:butt;stroke-linejoin:miter;stroke-opacity:1" d="M 701.289,17.4835 710.92,34.8194 z" id="boundary" inkscape:connector-curvature="0" />
	<path style="fill:none;stroke:red;stroke-width:1px;stroke-linecap:butt;stroke-linejoin:miter;stroke-opacity:1" d="M 705.142,595.348 707.068,574.159 z" id="boundary" inkscape:connector-curvature="0" />
	<path style="fill:none;stroke:red;stroke-width:1px;stroke-linecap:butt;stroke-linejoin:miter;stroke-opacity:1" d="M 707.068,574.159 714.773,543.34 z" id="boundary" inkscape:connector-curvature="0" />
	<path style="fill:none;stroke:red;stroke-width:1px;stroke-linecap:butt;stroke-linejoin:miter;stroke-opacity:1" d="M 710.92,34.8194 730.183,42.5243 z" id="boundary" inkscape:connector-curvature="0" />
	<path style="fill:none;stroke:red;stroke-width:1px;stroke-linecap:butt;stroke-linejoin:miter;stroke-opacity:1" d="M 710.92,524.078 714.773,543.34 z" id="boundary" inkscape:connector-curvature="0" />
	<path style="fill:none;stroke:red;stroke-width:1px;stroke-linecap:butt;stroke-linejoin:miter;stroke-opacity:1" d="M 710.92,524.078 730.183,522.151 z" id="boundary" inkscape:connector-curvature="0" />
	<path style="fill:none;stroke:red;stroke-width:1px;stroke-linecap:butt;stroke-linejoin:miter;stroke-opacity:1" d="M 730.183,42.5243 749.445,46.3767 z" id="boundary" inkscape:connector-curvature="0" />
	<path style="fill:none;stroke:red;stroke-width:1px;stroke-linecap:butt;stroke-linejoin:miter;stroke-opacity:1" d="M 730.183,522.151 749.445,522.151 z" id="boundary" inkscape:connector-curvature="0" />
	<path style="fill:none;stroke:red;stroke-width:1px;stroke-linecap:butt;stroke-linejoin:miter;stroke-opacity:1" d="M 749.445,46.3767 766.781,56.0078 z" id="boundary" inkscape:connector-curvature="0" />
	<path style="fill:none;stroke:red;stroke-width:1px;stroke-linecap:butt;stroke-linejoin:miter;stroke-opacity:1" d="M 749.445,522.151 768.707,522.151 z" id="boundary" inkscape:connector-curvature="0" />
	<path style="fill:none;stroke:red;stroke-width:1px;stroke-linecap:butt;stroke-linejoin:miter;stroke-opacity:1" d="M 766.781,56.0078 782.19,69.4913 z" id="boundary" inkscape:connector-curvature="0" />
	<path style="fill:none;stroke:red;stroke-width:1px;stroke-linecap:butt;stroke-linejoin:miter;stroke-opacity:1" d="M 768.707,522.151 787.969,522.151 z" id="boundary" inkscape:connector-curvature="0" />
	<path style="fill:none;stroke:red;stroke-width:1px;stroke-linecap:butt;stroke-linejoin:miter;stroke-opacity:1" d="M 782.19,69.4913 801.452,73.3437 z" id="boundary" inkscape:connector-curvature="0" />
	<path style="fill:none;stroke:red;stroke-width:1px;stroke-linecap:butt;stroke-linejoin:miter;stroke-opacity:1" d="M 787.969,522.151 807.231,522.151 z" id="boundary" inkscape:connector-curvature="0" />
	<path style="fill:none;stroke:red;stroke-width:1px;stroke-linecap:butt;stroke-linejoin:miter;stroke-opacity:1" d="M 801.452,73.3437 820.715,77.1961 z" id="boundary" inkscape:connector-curvature="0" />
	<path style="fill:none;stroke:red;stroke-width:1px;stroke-linecap:butt;stroke-linejoin:miter;stroke-opacity:1" d="M 807.231,522.151 826.493,522.151 z" id="boundary" inkscape:connector-curvature="0" />
	<path style="fill:none;stroke:red;stroke-width:1px;stroke-linecap:butt;stroke-linejoin:miter;stroke-opacity:1" d="M 820.715,77.1961 839.977,81.0485 z" id="boundary" inkscape:connector-curvature="0" />
	<path style="fill:none;stroke:red;stroke-width:1px;stroke-linecap:butt;stroke-linejoin:miter;stroke-opacity:1" d="M 826.493,522.151 845.755,522.151 z" id="boundary" inkscape:connector-curvature="0" />
	<path style="fill:none;stroke:red;stroke-width:1px;stroke-linecap:butt;stroke-linejoin:miter;stroke-opacity:1" d="M 839.977,81.0485 859.239,84.901 z" id="boundary" inkscape:connector-curvature="0" />
	<path style="fill:none;stroke:red;stroke-width:1px;stroke-linecap:butt;stroke-linejoin:miter;stroke-opacity:1" d="M 845.755,522.151 865.017,522.151 z" id="boundary" inkscape:connector-curvature="0" />
	<path style="fill:none;stroke:red;stroke-width:1px;stroke-linecap:butt;stroke-linejoin:miter;stroke-opacity:1" d="M 859.239,84.901 878.501,88.7534 z" id="boundary" inkscape:connector-curvature="0" />
	<path style="fill:none;stroke:red;stroke-width:1px;stroke-linecap:butt;stroke-linejoin:miter;stroke-opacity:1" d="M 865.017,522.151 884.28,522.151 z" id="boundary" inkscape:connector-curvature="0" />
	<path style="fill:none;stroke:red;stroke-width:1px;stroke-linecap:butt;stroke-linejoin:miter;stroke-opacity:1" d="M 878.501,88.7534 897.763,94.532 z" id="boundary" inkscape:connector-curvature="0" />
	<path style="fill:none;stroke:red;stroke-width:1px;stroke-linecap:butt;stroke-linejoin:miter;stroke-opacity:1" d="M 884.28,522.151 903.542,522.151 z" id="boundary" inkscape:connector-curvature="0" />
	<path style="fill:none;stroke:red;stroke-width:1px;stroke-linecap:butt;stroke-linejoin:miter;stroke-opacity:1" d="M 897.763,94.532 917.025,100.311 z" id="boundary" inkscape:connector-curvature="0" />
	<path style="fill:none;stroke:red;stroke-width:1px;stroke-linecap:butt;stroke-linejoin:miter;stroke-opacity:1" d="M 903.542,522.151 922.804,522.151 z" id="boundary" inkscape:connector-curvature="0" />
	<path style="fill:none;stroke:red;stroke-width:1px;stroke-linecap:butt;stroke-linejoin:miter;stroke-opacity:1" d="M 917.025,100.311 936.287,108.016 z" id="boundary" inkscape:connector-curvature="0" />
	<path style="fill:none;stroke:red;stroke-width:1px;stroke-linecap:butt;stroke-linejoin:miter;stroke-opacity:1" d="M 922.804,522.151 942.066,520.225 z" id="boundary" inkscape:connector-curvature="0" />
	<path style="fill:none;stroke:red;stroke-width:1px;stroke-linecap:butt;stroke-linejoin:miter;stroke-opacity:1" d="M 936.287,108.016 955.55,113.794 z" id="boundary" inkscape:connector-curvature="0" />
	<path style="fill:none;stroke:red;stroke-width:1px;stroke-linecap:butt;stroke-linejoin:miter;stroke-opacity:1" d="M 942.066,520.225 959.402,529.856 z" id="boundary" inkscape:connector-curvature="0" />
	<path style="fill:none;stroke:red;stroke-width:1px;stroke-linecap:butt;stroke-linejoin:miter;stroke-opacity:1" d="M 955.55,113.794 972.885,123.425 z" id="boundary" inkscape:connector-curvature="0" />
	<path style="fill:none;stroke:red;stroke-width:1px;stroke-linecap:butt;stroke-linejoin:miter;stroke-opacity:1" d="M 959.402,529.856 959.402,549.118 z" id="boundary" inkscape:connector-curvature="0" />
	<path style="fill:none;stroke:red;stroke-width:1px;stroke-linecap:butt;stroke-linejoin:miter;stroke-opacity:1" d="M 959.402,549.118 963.254,568.381 z" id="boundary" inkscape:connector-curvature="0" />
	<path style="fill:none;stroke:red;stroke-width:1px;stroke-linecap:butt;stroke-linejoin:miter;stroke-opacity:1" d="M 963.254,568.381 963.254,587.643 z" id="boundary" inkscape:connector-curvature="0" />
	<path style="fill:none;stroke:red;stroke-width:1px;stroke-linecap:butt;stroke-linejoin:miter;stroke-opacity:1" d="M 963.254,587.643 978.664,599.2 z" id="boundary" inkscape:connector-curvature="0" />
	<path style="fill:none;stroke:red;stroke-width:1px;stroke-linecap:butt;stroke-linejoin:miter;stroke-opacity:1" d="M 972.885,123.425 988.295,134.983 z" id="boundary" inkscape:connector-curvature="0" />
	<path style="fill:none;stroke:red;stroke-width:1px;stroke-linecap:butt;stroke-linejoin:miter;stroke-opacity:1" d="M 976.738,219.736 976.738,238.998 z" id="boundary" inkscape:connector-curvature="0" />
	<path style="fill:none;stroke:red;stroke-width:1px;stroke-linecap:butt;stroke-linejoin:miter;stroke-opacity:1" d="M 976.738,219.736 980.59,185.064 z" id="boundary" inkscape:connector-curvature="0" />
	<path style="fill:none;stroke:red;stroke-width:1px;stroke-linecap:butt;stroke-linejoin:miter;stroke-opacity:1" d="M 976.738,238.998 976.738,258.26 z" id="boundary" inkscape:connector-curvature="0" />
	<path style="fill:none;stroke:red;stroke-width:1px;stroke-linecap:butt;stroke-linejoin:miter;stroke-opacity:1" d="M 976.738,258.26 976.738,277.522 z" id="boundary" inkscape:connector-curvature="0" />
	<path style="fill:none;stroke:red;stroke-width:1px;stroke-linecap:butt;stroke-linejoin:miter;stroke-opacity:1" d="M 976.738,277.522 976.738,296.784 z" id="boundary" inkscape:connector-curvature="0" />
	<path style="fill:none;stroke:red;stroke-width:1px;stroke-linecap:butt;stroke-linejoin:miter;stroke-opacity:1" d="M 976.738,296.784 978.664,316.047 z" id="boundary" inkscape:connector-curvature="0" />
	<path style="fill:none;stroke:red;stroke-width:1px;stroke-linecap:butt;stroke-linejoin:miter;stroke-opacity:1" d="M 978.664,316.047 980.59,335.309 z" id="boundary" inkscape:connector-curvature="0" />
	<path style="fill:none;stroke:red;stroke-width:1px;stroke-linecap:butt;stroke-linejoin:miter;stroke-opacity:1" d="M 978.664,599.2 984.443,578.012 z" id="boundary" inkscape:connector-curvature="0" />
	<path style="fill:none;stroke:red;stroke-width:1px;stroke-linecap:butt;stroke-linejoin:miter;stroke-opacity:1" d="M 980.59,185.064 996,154.245 z" id="boundary" inkscape:connector-curvature="0" />
	<path style="fill:none;stroke:red;stroke-width:1px;stroke-linecap:butt;stroke-linejoin:miter;stroke-opacity:1" d="M 980.59,335.309 984.443,354.571 z" id="boundary" inkscape:connector-curvature="0" />
	<path style="fill:none;stroke:red;stroke-width:1px;stroke-linecap:butt;stroke-linejoin:miter;stroke-opacity:1" d="M 984.443,354.571 986.369,373.833 z" id="boundary" inkscape:connector-curvature="0" />
	<path style="fill:none;stroke:red;stroke-width:1px;stroke-linecap:butt;stroke-linejoin:miter;stroke-opacity:1" d="M 984.443,578.012 988.295,543.34 z" id="boundary" inkscape:connector-curvature="0" />
	<path style="fill:none;stroke:red;stroke-width:1px;stroke-linecap:butt;stroke-linejoin:miter;stroke-opacity:1" d="M 986.369,373.833 988.295,393.095 z" id="boundary" inkscape:connector-curvature="0" />
	<path style="fill:none;stroke:red;stroke-width:1px;stroke-linecap:butt;stroke-linejoin:miter;stroke-opacity:1" d="M 988.295,134.983 996,154.245 z" id="boundary" inkscape:connector-curvature="0" />
	<path style="fill:none;stroke:red;stroke-width:1px;stroke-linecap:butt;stroke-linejoin:miter;stroke-opacity:1" d="M 988.295,393.095 988.295,412.357 z" id="boundary" inkscape:connector-curvature="0" />
	<path style="fill:none;stroke:red;stroke-width:1px;stroke-linecap:butt;stroke-linejoin:miter;stroke-opacity:1" d="M 988.295,412.357 992.148,431.619 z" id="boundary" inkscape:connector-curvature="0" />
	<path style="fill:none;stroke:red;stroke-width:1px;stroke-linecap:butt;stroke-linejoin:miter;stroke-opacity:1" d="M 988.295,504.816 988.295,524.078 z" id="boundary" inkscape:connector-curvature="0" />
	<path style="fill:none;stroke:red;stroke-width:1px;stroke-linecap:butt;stroke-linejoin:miter;stroke-opacity:1" d="M 988.295,504.816 992.148,470.144 z" id="boundary" inkscape:connector-curvature="0" />
	<path style="fill:none;stroke:red;stroke-width:1px;stroke-linecap:butt;stroke-linejoin:miter;stroke-opacity:1" d="M 988.295,524.078 988.295,543.34 z" id="boundary" inkscape:connector-curvature="0" />
	<path style="fill:none;stroke:red;stroke-width:1px;stroke-linecap:butt;stroke-linejoin:miter;stroke-opacity:1" d="M 992.148,431.619 992.148,450.882 z" id="boundary" inkscape:connector-curvature="0" />
	<path style="fill:none;stroke:red;stroke-width:1px;stroke-linecap:butt;stroke-linejoin:miter;stroke-opacity:1" d="M 992.148,450.882 992.148,470.144 z" id="boundary" inkscape:connector-curvature="0" />
	<circle cx="4" cy="373.833" r="4" fill="#0" id="circle0"/>
	<circle cx="5.92621" cy="393.095" r="4" fill="#0" id="circle1"/>
	<circle cx="13.6311" cy="356.497" r="4" fill="#0" id="circle2"/>
	<circle cx="15.5573" cy="543.34" r="4" fill="#0" id="circle3"/>
	<circle cx="15.5573" cy="585.717" r="4" fill="#0" id="circle4"/>
	<circle cx="17.4835" cy="408.505" r="4" fill="#0" id="circle5"/>
	<circle cx="19.4097" cy="562.602" r="4" fill="#0" id="circle6"/>
	<circle cx="23.2621" cy="427.767" r="4" fill="#0" id="circle7"/>
	<circle cx="23.2621" cy="520.225" r="4" fill="#0" id="circle8"/>
	<circle cx="27.1146" cy="447.029" r="4" fill="#0" id="circle9"/>
	<circle cx="27.1146" cy="466.291" r="4" fill="#0" id="circle10"/>
	<circle cx="27.1146" cy="485.553" r="4" fill="#0" id="circle11"/>
	<circle cx="30.967" cy="346.866" r="4" fill="#0" id="circle12"/>
	<circle cx="30.967" cy="599.2" r="4" fill="#0" id="circle13"/>
	<circle cx="44.4505" cy="554.897" r="4" fill="#0" id="circle14"/>
	<circle cx="46.3767" cy="587.643" r="4" fill="#0" id="circle15"/>
	<circle cx="50.2291" cy="339.161" r="4" fill="#0" id="circle16"/>
	<circle cx="52.1553" cy="531.783" r="4" fill="#0" id="circle17"/>
	<circle cx="69.4913" cy="331.456" r="4" fill="#0" id="circle18"/>
	<circle cx="71.4175" cy="529.856" r="4" fill="#0" id="circle19"/>
	<circle cx="88.7534" cy="327.604" r="4" fill="#0" id="circle20"/>
	<circle cx="90.6796" cy="529.856" r="4" fill="#0" id="circle21"/>
	<circle cx="108.016" cy="323.751" r="4" fill="#0" id="circle22"/>
	<circle cx="109.942" cy="533.709" r="4" fill="#0" id="circle23"/>
	<circle cx="127.278" cy="319.899" r="4" fill="#0" id="circle24"/>
	<circle cx="129.204" cy="537.561" r="4" fill="#0" id="circle25"/>
	<circle cx="146.54" cy="316.047" r="4" fill="#0" id="circle26"/>
	<circle cx="148.466" cy="545.266" r="4" fill="#0" id="circle27"/>
	<circle cx="165.802" cy="312.194" r="4" fill="#0" id="circle28"/>
	<circle cx="167.728" cy="535.635" r="4" fill="#0" id="circle29"/>
	<circle cx="185.064" cy="312.194" r="4" fill="#0" id="circle30"/>
	<circle cx="185.064" cy="526.004" r="4" fill="#0" id="circle31"/>
	<circle cx="204.326" cy="308.342" r="4" fill="#0" id="circle32"/>
	<circle cx="204.326" cy="526.004" r="4" fill="#0" id="circle33"/>
	<circle cx="223.588" cy="308.342" r="4" fill="#0" id="circle34"/>
	<circle cx="223.588" cy="529.856" r="4" fill="#0" id="circle35"/>
	<circle cx="242.85" cy="304.489" r="4" fill="#0" id="circle36"/>
	<circle cx="242.85" cy="533.709" r="4" fill="#0" id="circle37"/>
	<circle cx="262.113" cy="304.489" r="4" fill="#0" id="circle38"/>
	<circle cx="262.113" cy="541.414" r="4" fill="#0" id="circle39"/>
	<circle cx="277.522" cy="289.08" r="4" fill="#0" id="circle40"/>
	<circle cx="281.375" cy="549.118" r="4" fill="#0" id="circle41"/>
	<circle cx="296.784" cy="289.08" r="4" fill="#0" id="circle42"/>
	<circle cx="300.637" cy="554.897" r="4" fill="#0" id="circle43"/>
	<circle cx="312.194" cy="277.522" r="4" fill="#0" id="circle44"/>
	<circle cx="319.899" cy="560.676" r="4" fill="#0" id="circle45"/>
	<circle cx="331.456" cy="269.817" r="4" fill="#0" id="circle46"/>
	<circle cx="339.161" cy="564.528" r="4" fill="#0" id="circle47"/>
	<circle cx="350.718" cy="262.113" r="4" fill="#0" id="circle48"/>
	<circle cx="358.423" cy="564.528" r="4" fill="#0" id="circle49"/>
	<circle cx="362.276" cy="142.687" r="4" fill="#0" id="circle50"/>
	<circle cx="362.276" cy="161.95" r="4" fill="#0" id="circle51"/>
	<circle cx="362.276" cy="585.717" r="4" fill="#0" id="circle52"/>
	<circle cx="368.054" cy="181.212" r="4" fill="#0" id="circle53"/>
	<circle cx="369.981" cy="258.26" r="4" fill="#0" id="circle54"/>
	<circle cx="373.833" cy="127.278" r="4" fill="#0" id="circle55"/>
	<circle cx="377.685" cy="198.548" r="4" fill="#0" id="circle56"/>
	<circle cx="377.685" cy="217.81" r="4" fill="#0" id="circle57"/>
	<circle cx="377.685" cy="599.2" r="4" fill="#0" id="circle58"/>
	<circle cx="381.538" cy="237.072" r="4" fill="#0" id="circle59"/>
	<circle cx="391.169" cy="562.602" r="4" fill="#0" id="circle60"/>
	<circle cx="391.169" cy="581.864" r="4" fill="#0" id="circle61"/>
	<circle cx="393.095" cy="119.573" r="4" fill="#0" id="circle62"/>
	<circle cx="410.431" cy="109.942" r="4" fill="#0" id="circle63"/>
	<circle cx="410.431" cy="556.823" r="4" fill="#0" id="circle64"/>
	<circle cx="429.693" cy="104.163" r="4" fill="#0" id="circle65"/>
	<circle cx="429.693" cy="552.971" r="4" fill="#0" id="circle66"/>
	<circle cx="448.955" cy="96.4583" r="4" fill="#0" id="circle67"/>
	<circle cx="448.955" cy="545.266" r="4" fill="#0" id="circle68"/>
	<circle cx="468.217" cy="92.6058" r="4" fill="#0" id="circle69"/>
	<circle cx="468.217" cy="537.561" r="4" fill="#0" id="circle70"/>
	<circle cx="487.48" cy="86.8272" r="4" fill="#0" id="circle71"/>
	<circle cx="487.48" cy="529.856" r="4" fill="#0" id="circle72"/>
	<circle cx="506.742" cy="82.9748" r="4" fill="#0" id="circle73"/>
	<circle cx="506.742" cy="526.004" r="4" fill="#0" id="circle74"/>
	<circle cx="526.004" cy="79.1223" r="4" fill="#0" id="circle75"/>
	<circle cx="526.004" cy="526.004" r="4" fill="#0" id="circle76"/>
	<circle cx="545.266" cy="75.2699" r="4" fill="#0" id="circle77"/>
	<circle cx="545.266" cy="529.856" r="4" fill="#0" id="circle78"/>
	<circle cx="562.602" cy="539.487" r="4" fill="#0" id="circle79"/>
	<circle cx="564.528" cy="73.3437" r="4" fill="#0" id="circle80"/>
	<circle cx="579.938" cy="59.8602" r="4" fill="#0" id="circle81"/>
	<circle cx="581.864" cy="541.414" r="4" fill="#0" id="circle82"/>
	<circle cx="597.274" cy="50.2291" r="4" fill="#0" id="circle83"/>
	<circle cx="601.126" cy="537.561" r="4" fill="#0" id="circle84"/>
	<circle cx="616.536" cy="42.5243" r="4" fill="#0" id="circle85"/>
	<circle cx="620.388" cy="533.709" r="4" fill="#0" id="circle86"/>
	<circle cx="635.798" cy="30.967" r="4" fill="#0" id="circle87"/>
	<circle cx="639.65" cy="529.856" r="4" fill="#0" id="circle88"/>
	<circle cx="651.208" cy="15.5573" r="4" fill="#0" id="circle89"/>
	<circle cx="658.913" cy="529.856" r="4" fill="#0" id="circle90"/>
	<circle cx="666.617" cy="4" r="4" fill="#0" id="circle91"/>
	<circle cx="678.175" cy="535.635" r="4" fill="#0" id="circle92"/>
	<circle cx="680.101" cy="554.897" r="4" fill="#0" id="circle93"/>
	<circle cx="682.027" cy="574.159" r="4" fill="#0" id="circle94"/>
	<circle cx="685.88" cy="4" r="4" fill="#0" id="circle95"/>
	<circle cx="685.88" cy="593.421" r="4" fill="#0" id="circle96"/>
	<circle cx="701.289" cy="17.4835" r="4" fill="#0" id="circle97"/>
	<circle cx="705.142" cy="595.348" r="4" fill="#0" id="circle98"/>
	<circle cx="707.068" cy="574.159" r="4" fill="#0" id="circle99"/>
	<circle cx="710.92" cy="34.8194" r="4" fill="#0" id="circle100"/>
	<circle cx="710.92" cy="524.078" r="4" fill="#0" id="circle101"/>
	<circle cx="714.773" cy="543.34" r="4" fill="#0" id="circle102"/>
	<circle cx="730.183" cy="42.5243" r="4" fill="#0" id="circle103"/>
	<circle cx="730.183" cy="522.151" r="4" fill="#0" id="circle104"/>
	<circle cx="749.445" cy="46.3767" r="4" fill="#0" id="circle105"/>
	<circle cx="749.445" cy="522.151" r="4" fill="#0" id="circle106"/>
	<circle cx="766.781" cy="56.0078" r="4" fill="#0" id="circle107"/>
	<circle cx="768.707" cy="522.151" r="4" fill="#0" id="circle108"/>
	<circle cx="782.19" cy="69.4913" r="4" fill="#0" id="circle109"/>
	<circle cx="787.969" cy="522.151" r="4" fill="#0" id="circle110"/>
	<circle cx="801.452" cy="73.3437" r="4" fill="#0" id="circle111"/>
	<circle cx="807.231" cy="522.151" r="4" fill="#0" id="circle112"/>
	<circle cx="820.715" cy="77.1961" r="4" fill="#0" id="circle113"/>
	<circle cx="826.493" cy="522.151" r="4" fill="#0" id="circle114"/>
	<circle cx="839.977" cy="81.0485" r="4" fill="#0" id="circle115"/>
	<circle cx="845.755" cy="522.151" r="4" fill="#0" id="circle116"/>
	<circle cx="859.239" cy="84.901" r="4" fill="#0" id="circle117"/>
	<circle cx="865.017" cy="522.151" r="4" fill="#0" id="circle118"/>
	<circle cx="878.501" cy="88.7534" r="4" fill="#0" id="circle119"/>
	<circle cx="884.28" cy="522.151" r="4" fill="#0" id="circle120"/>
	<circle cx="897.763" cy="94.532" r="4" fill="#0" id="circle121"/>
	<circle cx="903.542" cy="522.151" r="4" fill="#0" id="circle122"/>
	<circle cx="917.025" cy="100.311" r="4" fill="#0" id="circle123"/>
	<circle cx="922.804" cy="522.151" r="4" fill="#0" id="circle124"/>
	<circle cx="936.287" cy="108.016" r="4" fill="#0" id="circle125"/>
	<circle cx="942.066" cy="520.225" r="4" fill="#0" id="circle126"/>
	<circle cx="955.55" cy="113.794" r="4" fill="#0" id="circle127"/>
	<circle cx="959.402" cy="529.856" r="4" fill="#0" id="circle128"/>
	<circle cx="959.402" cy="549.118" r="4" fill="#0" id="circle129"/>
	<circle cx="963.254" cy="568.381" r="4" fill="#0" id="circle130"/>
	<circle cx="963.254" cy="587.643" r="4" fill="#0" id="circle131"/>
	<circle cx="972.885" cy="123.425" r="4" fill="#0" id="circle132"/>
	<circle cx="976.738" cy="219.736" r="4" fill="#0" id="circle133"/>
	<circle cx="976.738" cy="238.998" r="4" fill="#0" id="circle134"/>
	<circle cx="976.738" cy="258.26" r="4" fill="#0" id="circle135"/>
	<circle cx="976.738" cy="277.522" r="4" fill="#0" id="circle136"/>
	<circle cx="976.738" cy="296.784" r="4" fill="#0" id="circle137"/>
	<circle cx="978.664" cy="316.047" r="4" fill="#0" id="circle138"/>
	<circle cx="978.664" cy="599.2" r="4" fill="#0" id="circle139"/>
	<circle cx="980.59" cy="185.064" r="4" fill="#0" id="circle140"/>
	<circle cx="980.59" cy="335.309" r="4" fill="#0" id="circle141"/>
	<circle cx="984.443" cy="354.571" r="4" fill="#0" id="circle142"/>
	<circle cx="984.443" cy="578.012" r="4" fill="#0" id="circle143"/>
	<circle cx="986.369" cy="373.833" r="4" fill="#0" id="circle144"/>
	<circle cx="988.295" cy="134.983" r="4" fill="#0" id="circle145"/>
	<circle cx="988.295" cy="393.095" r="4" fill="#0" id="circle146"/>
	<circle cx="988.295" cy="412.357" r="4" fill="#0" id="circle147"/>
	<circle cx="988.295" cy="504.816" r="4" fill="#0" id="circle148"/>
	<circle cx="988.295" cy="524.078" r="4" fill="#0" id="circle149"/>
	<circle cx="988.295" cy="543.34" r="4" fill="#0" id="circle150"/>
	<circle cx="992.148" cy="431.619" r="4" fill="#0" id="circle151"/>
	<circle cx="992.148" cy="450.882" r="4" fill="#0" id="circle152"/>
	<circle cx="992.148" cy="470.144" r="4" fill="#0" id="circle153"/>
	<circle cx="996" cy="154.245" r="4" fill="#0" id="circle154"/>
	</g>
</svg>