<?xml version="1.0" encoding="UTF-8" standalone="no"?>
<!-- Created with CurveBenchmark -->
<svg
	xmlns:dc="http://purl.org/dc/elements/1.1/"
	xmlns:cc="http://creativecommons.org/ns#"
	xmlns:rdf="http://www.w3.org/1999/02/22-rdf-syntax-ns#"
	xmlns:svg="http://www.w3.org/2000/svg"
	xmlns="http://www.w3.org/2000/svg"
	xmlns:sodipodi="http://sodipodi.sourceforge.net/DTD/sodipodi-0.dtd"
	xmlns:inkscape="http://www.inkscape.org/namespaces/inkscape"
	width="1000"
	height="1000"
	id="svg2"
	version="1.1"
	sodipodi:docname="manifold/discur-bird075.png.txt">
<defs
	id="defs4" />
<metadata
	id="metadata7">
	<rdf:RDF>
		<cc:Work
			rdf:about="">
			<dc:format>image/svg+xml</dc:format>
			<dc:type
				rdf:resource="http://purl.org/dc/dcmitype/StillImage" />
			<dc:title></dc:title>
		</cc:Work>
	</rdf:RDF>
</metadata>
<g
	inkscape:label="Layer 1"
	inkscape:groupmode="layer"
	id="layer1">
	<path style="fill:none;stroke:red;stroke-width:1px;stroke-linecap:butt;stroke-linejoin:miter;stroke-opacity:1" d="M 4,260.753 4,299.655 z" id="boundary" inkscape:connector-curvature="0" />
	<path style="fill:none;stroke:red;stroke-width:1px;stroke-linecap:butt;stroke-linejoin:miter;stroke-opacity:1" d="M 4,260.753 11.7804,206.29 z" id="boundary" inkscape:connector-curvature="0" />
	<path style="fill:none;stroke:red;stroke-width:1px;stroke-linecap:butt;stroke-linejoin:miter;stroke-opacity:1" d="M 4,299.655 4,338.557 z" id="boundary" inkscape:connector-curvature="0" />
	<path style="fill:none;stroke:red;stroke-width:1px;stroke-linecap:butt;stroke-linejoin:miter;stroke-opacity:1" d="M 4,338.557 19.5608,377.459 z" id="boundary" inkscape:connector-curvature="0" />
	<path style="fill:none;stroke:red;stroke-width:1px;stroke-linecap:butt;stroke-linejoin:miter;stroke-opacity:1" d="M 11.7804,206.29 19.5608,159.608 z" id="boundary" inkscape:connector-curvature="0" />
	<path style="fill:none;stroke:red;stroke-width:1px;stroke-linecap:butt;stroke-linejoin:miter;stroke-opacity:1" d="M 19.5608,159.608 27.3412,120.706 z" id="boundary" inkscape:connector-curvature="0" />
	<path style="fill:none;stroke:red;stroke-width:1px;stroke-linecap:butt;stroke-linejoin:miter;stroke-opacity:1" d="M 19.5608,377.459 19.5608,416.361 z" id="boundary" inkscape:connector-curvature="0" />
	<path style="fill:none;stroke:red;stroke-width:1px;stroke-linecap:butt;stroke-linejoin:miter;stroke-opacity:1" d="M 19.5608,416.361 54.5725,435.812 z" id="boundary" inkscape:connector-curvature="0" />
	<path style="fill:none;stroke:red;stroke-width:1px;stroke-linecap:butt;stroke-linejoin:miter;stroke-opacity:1" d="M 27.3412,120.706 42.902,81.8039 z" id="boundary" inkscape:connector-curvature="0" />
	<path style="fill:none;stroke:red;stroke-width:1px;stroke-linecap:butt;stroke-linejoin:miter;stroke-opacity:1" d="M 42.902,81.8039 66.2431,50.6824 z" id="boundary" inkscape:connector-curvature="0" />
	<path style="fill:none;stroke:red;stroke-width:1px;stroke-linecap:butt;stroke-linejoin:miter;stroke-opacity:1" d="M 54.5725,435.812 74.0235,470.824 z" id="boundary" inkscape:connector-curvature="0" />
	<path style="fill:none;stroke:red;stroke-width:1px;stroke-linecap:butt;stroke-linejoin:miter;stroke-opacity:1" d="M 66.2431,50.6824 97.3647,27.3412 z" id="boundary" inkscape:connector-curvature="0" />
	<path style="fill:none;stroke:red;stroke-width:1px;stroke-linecap:butt;stroke-linejoin:miter;stroke-opacity:1" d="M 74.0235,470.824 81.8039,509.725 z" id="boundary" inkscape:connector-curvature="0" />
	<path style="fill:none;stroke:red;stroke-width:1px;stroke-linecap:butt;stroke-linejoin:miter;stroke-opacity:1" d="M 81.8039,509.725 81.8039,548.627 z" id="boundary" inkscape:connector-curvature="0" />
	<path style="fill:none;stroke:red;stroke-width:1px;stroke-linecap:butt;stroke-linejoin:miter;stroke-opacity:1" d="M 81.8039,548.627 81.8039,587.529 z" id="boundary" inkscape:connector-curvature="0" />
	<path style="fill:none;stroke:red;stroke-width:1px;stroke-linecap:butt;stroke-linejoin:miter;stroke-opacity:1" d="M 81.8039,587.529 89.5843,626.431 z" id="boundary" inkscape:connector-curvature="0" />
	<path style="fill:none;stroke:red;stroke-width:1px;stroke-linecap:butt;stroke-linejoin:miter;stroke-opacity:1" d="M 89.5843,626.431 89.5843,665.333 z" id="boundary" inkscape:connector-curvature="0" />
	<path style="fill:none;stroke:red;stroke-width:1px;stroke-linecap:butt;stroke-linejoin:miter;stroke-opacity:1" d="M 89.5843,665.333 89.5843,704.235 z" id="boundary" inkscape:connector-curvature="0" />
	<path style="fill:none;stroke:red;stroke-width:1px;stroke-linecap:butt;stroke-linejoin:miter;stroke-opacity:1" d="M 89.5843,704.235 89.5843,743.137 z" id="boundary" inkscape:connector-curvature="0" />
	<path style="fill:none;stroke:red;stroke-width:1px;stroke-linecap:butt;stroke-linejoin:miter;stroke-opacity:1" d="M 89.5843,743.137 89.5843,782.039 z" id="boundary" inkscape:connector-curvature="0" />
	<path style="fill:none;stroke:red;stroke-width:1px;stroke-linecap:butt;stroke-linejoin:miter;stroke-opacity:1" d="M 89.5843,782.039 89.5843,820.941 z" id="boundary" inkscape:connector-curvature="0" />
	<path style="fill:none;stroke:red;stroke-width:1px;stroke-linecap:butt;stroke-linejoin:miter;stroke-opacity:1" d="M 89.5843,820.941 89.5843,859.843 z" id="boundary" inkscape:connector-curvature="0" />
	<path style="fill:none;stroke:red;stroke-width:1px;stroke-linecap:butt;stroke-linejoin:miter;stroke-opacity:1" d="M 89.5843,859.843 97.3647,898.745 z" id="boundary" inkscape:connector-curvature="0" />
	<path style="fill:none;stroke:red;stroke-width:1px;stroke-linecap:butt;stroke-linejoin:miter;stroke-opacity:1" d="M 89.5843,968.769 120.706,996 z" id="boundary" inkscape:connector-curvature="0" />
	<path style="fill:none;stroke:red;stroke-width:1px;stroke-linecap:butt;stroke-linejoin:miter;stroke-opacity:1" d="M 97.3647,27.3412 136.267,11.7804 z" id="boundary" inkscape:connector-curvature="0" />
	<path style="fill:none;stroke:red;stroke-width:1px;stroke-linecap:butt;stroke-linejoin:miter;stroke-opacity:1" d="M 97.3647,898.745 140.157,937.647 z" id="boundary" inkscape:connector-curvature="0" />
	<path style="fill:none;stroke:red;stroke-width:1px;stroke-linecap:butt;stroke-linejoin:miter;stroke-opacity:1" d="M 120.706,996 159.608,988.22 z" id="boundary" inkscape:connector-curvature="0" />
	<path style="fill:none;stroke:red;stroke-width:1px;stroke-linecap:butt;stroke-linejoin:miter;stroke-opacity:1" d="M 132.376,509.725 132.376,548.627 z" id="boundary" inkscape:connector-curvature="0" />
	<path style="fill:none;stroke:red;stroke-width:1px;stroke-linecap:butt;stroke-linejoin:miter;stroke-opacity:1" d="M 132.376,509.725 140.157,470.824 z" id="boundary" inkscape:connector-curvature="0" />
	<path style="fill:none;stroke:red;stroke-width:1px;stroke-linecap:butt;stroke-linejoin:miter;stroke-opacity:1" d="M 132.376,548.627 132.376,587.529 z" id="boundary" inkscape:connector-curvature="0" />
	<path style="fill:none;stroke:red;stroke-width:1px;stroke-linecap:butt;stroke-linejoin:miter;stroke-opacity:1" d="M 132.376,587.529 132.376,626.431 z" id="boundary" inkscape:connector-curvature="0" />
	<path style="fill:none;stroke:red;stroke-width:1px;stroke-linecap:butt;stroke-linejoin:miter;stroke-opacity:1" d="M 132.376,626.431 132.376,665.333 z" id="boundary" inkscape:connector-curvature="0" />
	<path style="fill:none;stroke:red;stroke-width:1px;stroke-linecap:butt;stroke-linejoin:miter;stroke-opacity:1" d="M 132.376,665.333 132.376,704.235 z" id="boundary" inkscape:connector-curvature="0" />
	<path style="fill:none;stroke:red;stroke-width:1px;stroke-linecap:butt;stroke-linejoin:miter;stroke-opacity:1" d="M 132.376,704.235 132.376,743.137 z" id="boundary" inkscape:connector-curvature="0" />
	<path style="fill:none;stroke:red;stroke-width:1px;stroke-linecap:butt;stroke-linejoin:miter;stroke-opacity:1" d="M 132.376,743.137 132.376,782.039 z" id="boundary" inkscape:connector-curvature="0" />
	<path style="fill:none;stroke:red;stroke-width:1px;stroke-linecap:butt;stroke-linejoin:miter;stroke-opacity:1" d="M 132.376,782.039 132.376,820.941 z" id="boundary" inkscape:connector-curvature="0" />
	<path style="fill:none;stroke:red;stroke-width:1px;stroke-linecap:butt;stroke-linejoin:miter;stroke-opacity:1" d="M 132.376,820.941 140.157,859.843 z" id="boundary" inkscape:connector-curvature="0" />
	<path style="fill:none;stroke:red;stroke-width:1px;stroke-linecap:butt;stroke-linejoin:miter;stroke-opacity:1" d="M 136.267,11.7804 175.169,4 z" id="boundary" inkscape:connector-curvature="0" />
	<path style="fill:none;stroke:red;stroke-width:1px;stroke-linecap:butt;stroke-linejoin:miter;stroke-opacity:1" d="M 140.157,431.922 140.157,470.824 z" id="boundary" inkscape:connector-curvature="0" />
	<path style="fill:none;stroke:red;stroke-width:1px;stroke-linecap:butt;stroke-linejoin:miter;stroke-opacity:1" d="M 140.157,431.922 171.278,400.8 z" id="boundary" inkscape:connector-curvature="0" />
	<path style="fill:none;stroke:red;stroke-width:1px;stroke-linecap:butt;stroke-linejoin:miter;stroke-opacity:1" d="M 140.157,859.843 140.157,898.745 z" id="boundary" inkscape:connector-curvature="0" />
	<path style="fill:none;stroke:red;stroke-width:1px;stroke-linecap:butt;stroke-linejoin:miter;stroke-opacity:1" d="M 140.157,898.745 140.157,937.647 z" id="boundary" inkscape:connector-curvature="0" />
	<path style="fill:none;stroke:red;stroke-width:1px;stroke-linecap:butt;stroke-linejoin:miter;stroke-opacity:1" d="M 159.608,988.22 190.729,953.208 z" id="boundary" inkscape:connector-curvature="0" />
	<path style="fill:none;stroke:red;stroke-width:1px;stroke-linecap:butt;stroke-linejoin:miter;stroke-opacity:1" d="M 171.278,400.8 182.949,439.702 z" id="boundary" inkscape:connector-curvature="0" />
	<path style="fill:none;stroke:red;stroke-width:1px;stroke-linecap:butt;stroke-linejoin:miter;stroke-opacity:1" d="M 175.169,4 214.071,11.7804 z" id="boundary" inkscape:connector-curvature="0" />
	<path style="fill:none;stroke:red;stroke-width:1px;stroke-linecap:butt;stroke-linejoin:miter;stroke-opacity:1" d="M 182.949,439.702 182.949,478.604 z" id="boundary" inkscape:connector-curvature="0" />
	<path style="fill:none;stroke:red;stroke-width:1px;stroke-linecap:butt;stroke-linejoin:miter;stroke-opacity:1" d="M 182.949,478.604 182.949,517.506 z" id="boundary" inkscape:connector-curvature="0" />
	<path style="fill:none;stroke:red;stroke-width:1px;stroke-linecap:butt;stroke-linejoin:miter;stroke-opacity:1" d="M 182.949,517.506 182.949,556.408 z" id="boundary" inkscape:connector-curvature="0" />
	<path style="fill:none;stroke:red;stroke-width:1px;stroke-linecap:butt;stroke-linejoin:miter;stroke-opacity:1" d="M 182.949,556.408 182.949,595.31 z" id="boundary" inkscape:connector-curvature="0" />
	<path style="fill:none;stroke:red;stroke-width:1px;stroke-linecap:butt;stroke-linejoin:miter;stroke-opacity:1" d="M 182.949,595.31 182.949,634.212 z" id="boundary" inkscape:connector-curvature="0" />
	<path style="fill:none;stroke:red;stroke-width:1px;stroke-linecap:butt;stroke-linejoin:miter;stroke-opacity:1" d="M 182.949,634.212 182.949,673.114 z" id="boundary" inkscape:connector-curvature="0" />
	<path style="fill:none;stroke:red;stroke-width:1px;stroke-linecap:butt;stroke-linejoin:miter;stroke-opacity:1" d="M 182.949,673.114 182.949,712.016 z" id="boundary" inkscape:connector-curvature="0" />
	<path style="fill:none;stroke:red;stroke-width:1px;stroke-linecap:butt;stroke-linejoin:miter;stroke-opacity:1" d="M 182.949,712.016 182.949,750.918 z" id="boundary" inkscape:connector-curvature="0" />
	<path style="fill:none;stroke:red;stroke-width:1px;stroke-linecap:butt;stroke-linejoin:miter;stroke-opacity:1" d="M 182.949,750.918 190.729,789.82 z" id="boundary" inkscape:connector-curvature="0" />
	<path style="fill:none;stroke:red;stroke-width:1px;stroke-linecap:butt;stroke-linejoin:miter;stroke-opacity:1" d="M 190.729,789.82 190.729,828.722 z" id="boundary" inkscape:connector-curvature="0" />
	<path style="fill:none;stroke:red;stroke-width:1px;stroke-linecap:butt;stroke-linejoin:miter;stroke-opacity:1" d="M 190.729,828.722 190.729,867.624 z" id="boundary" inkscape:connector-curvature="0" />
	<path style="fill:none;stroke:red;stroke-width:1px;stroke-linecap:butt;stroke-linejoin:miter;stroke-opacity:1" d="M 190.729,867.624 194.62,906.525 z" id="boundary" inkscape:connector-curvature="0" />
	<path style="fill:none;stroke:red;stroke-width:1px;stroke-linecap:butt;stroke-linejoin:miter;stroke-opacity:1" d="M 190.729,953.208 198.51,992.11 z" id="boundary" inkscape:connector-curvature="0" />
	<path style="fill:none;stroke:red;stroke-width:1px;stroke-linecap:butt;stroke-linejoin:miter;stroke-opacity:1" d="M 198.51,992.11 237.412,996 z" id="boundary" inkscape:connector-curvature="0" />
	<path style="fill:none;stroke:red;stroke-width:1px;stroke-linecap:butt;stroke-linejoin:miter;stroke-opacity:1" d="M 214.071,11.7804 252.973,23.451 z" id="boundary" inkscape:connector-curvature="0" />
	<path style="fill:none;stroke:red;stroke-width:1px;stroke-linecap:butt;stroke-linejoin:miter;stroke-opacity:1" d="M 225.741,634.212 225.741,673.114 z" id="boundary" inkscape:connector-curvature="0" />
	<path style="fill:none;stroke:red;stroke-width:1px;stroke-linecap:butt;stroke-linejoin:miter;stroke-opacity:1" d="M 225.741,634.212 233.522,571.969 z" id="boundary" inkscape:connector-curvature="0" />
	<path style="fill:none;stroke:red;stroke-width:1px;stroke-linecap:butt;stroke-linejoin:miter;stroke-opacity:1" d="M 225.741,673.114 225.741,712.016 z" id="boundary" inkscape:connector-curvature="0" />
	<path style="fill:none;stroke:red;stroke-width:1px;stroke-linecap:butt;stroke-linejoin:miter;stroke-opacity:1" d="M 225.741,712.016 225.741,750.918 z" id="boundary" inkscape:connector-curvature="0" />
	<path style="fill:none;stroke:red;stroke-width:1px;stroke-linecap:butt;stroke-linejoin:miter;stroke-opacity:1" d="M 225.741,750.918 233.522,789.82 z" id="boundary" inkscape:connector-curvature="0" />
	<path style="fill:none;stroke:red;stroke-width:1px;stroke-linecap:butt;stroke-linejoin:miter;stroke-opacity:1" d="M 233.522,571.969 241.302,517.506 z" id="boundary" inkscape:connector-curvature="0" />
	<path style="fill:none;stroke:red;stroke-width:1px;stroke-linecap:butt;stroke-linejoin:miter;stroke-opacity:1" d="M 233.522,789.82 233.522,828.722 z" id="boundary" inkscape:connector-curvature="0" />
	<path style="fill:none;stroke:red;stroke-width:1px;stroke-linecap:butt;stroke-linejoin:miter;stroke-opacity:1" d="M 233.522,828.722 233.522,867.624 z" id="boundary" inkscape:connector-curvature="0" />
	<path style="fill:none;stroke:red;stroke-width:1px;stroke-linecap:butt;stroke-linejoin:miter;stroke-opacity:1" d="M 233.522,867.624 241.302,906.525 z" id="boundary" inkscape:connector-curvature="0" />
	<path style="fill:none;stroke:red;stroke-width:1px;stroke-linecap:butt;stroke-linejoin:miter;stroke-opacity:1" d="M 237.412,996 276.314,988.22 z" id="boundary" inkscape:connector-curvature="0" />
	<path style="fill:none;stroke:red;stroke-width:1px;stroke-linecap:butt;stroke-linejoin:miter;stroke-opacity:1" d="M 241.302,517.506 249.082,455.263 z" id="boundary" inkscape:connector-curvature="0" />
	<path style="fill:none;stroke:red;stroke-width:1px;stroke-linecap:butt;stroke-linejoin:miter;stroke-opacity:1" d="M 241.302,906.525 245.192,945.427 z" id="boundary" inkscape:connector-curvature="0" />
	<path style="fill:none;stroke:red;stroke-width:1px;stroke-linecap:butt;stroke-linejoin:miter;stroke-opacity:1" d="M 245.192,945.427 276.314,988.22 z" id="boundary" inkscape:connector-curvature="0" />
	<path style="fill:none;stroke:red;stroke-width:1px;stroke-linecap:butt;stroke-linejoin:miter;stroke-opacity:1" d="M 249.082,455.263 256.863,393.02 z" id="boundary" inkscape:connector-curvature="0" />
	<path style="fill:none;stroke:red;stroke-width:1px;stroke-linecap:butt;stroke-linejoin:miter;stroke-opacity:1" d="M 252.973,23.451 287.984,42.902 z" id="boundary" inkscape:connector-curvature="0" />
	<path style="fill:none;stroke:red;stroke-width:1px;stroke-linecap:butt;stroke-linejoin:miter;stroke-opacity:1" d="M 256.863,393.02 272.424,346.337 z" id="boundary" inkscape:connector-curvature="0" />
	<path style="fill:none;stroke:red;stroke-width:1px;stroke-linecap:butt;stroke-linejoin:miter;stroke-opacity:1" d="M 272.424,346.337 287.984,284.094 z" id="boundary" inkscape:connector-curvature="0" />
	<path style="fill:none;stroke:red;stroke-width:1px;stroke-linecap:butt;stroke-linejoin:miter;stroke-opacity:1" d="M 287.984,42.902 307.435,77.9137 z" id="boundary" inkscape:connector-curvature="0" />
	<path style="fill:none;stroke:red;stroke-width:1px;stroke-linecap:butt;stroke-linejoin:miter;stroke-opacity:1" d="M 287.984,284.094 326.886,295.765 z" id="boundary" inkscape:connector-curvature="0" />
	<path style="fill:none;stroke:red;stroke-width:1px;stroke-linecap:butt;stroke-linejoin:miter;stroke-opacity:1" d="M 307.435,77.9137 326.886,112.925 z" id="boundary" inkscape:connector-curvature="0" />
	<path style="fill:none;stroke:red;stroke-width:1px;stroke-linecap:butt;stroke-linejoin:miter;stroke-opacity:1" d="M 326.886,112.925 334.667,151.827 z" id="boundary" inkscape:connector-curvature="0" />
	<path style="fill:none;stroke:red;stroke-width:1px;stroke-linecap:butt;stroke-linejoin:miter;stroke-opacity:1" d="M 326.886,295.765 342.447,229.631 z" id="boundary" inkscape:connector-curvature="0" />
	<path style="fill:none;stroke:red;stroke-width:1px;stroke-linecap:butt;stroke-linejoin:miter;stroke-opacity:1" d="M 334.667,151.827 334.667,190.729 z" id="boundary" inkscape:connector-curvature="0" />
	<path style="fill:none;stroke:red;stroke-width:1px;stroke-linecap:butt;stroke-linejoin:miter;stroke-opacity:1" d="M 334.667,190.729 342.447,229.631 z" id="boundary" inkscape:connector-curvature="0" />
	<circle cx="4" cy="260.753" r="4" fill="#0" id="circle0"/>
	<circle cx="4" cy="299.655" r="4" fill="#0" id="circle1"/>
	<circle cx="4" cy="338.557" r="4" fill="#0" id="circle2"/>
	<circle cx="11.7804" cy="206.29" r="4" fill="#0" id="circle3"/>
	<circle cx="19.5608" cy="159.608" r="4" fill="#0" id="circle4"/>
	<circle cx="19.5608" cy="377.459" r="4" fill="#0" id="circle5"/>
	<circle cx="19.5608" cy="416.361" r="4" fill="#0" id="circle6"/>
	<circle cx="27.3412" cy="120.706" r="4" fill="#0" id="circle7"/>
	<circle cx="42.902" cy="81.8039" r="4" fill="#0" id="circle8"/>
	<circle cx="54.5725" cy="435.812" r="4" fill="#0" id="circle9"/>
	<circle cx="66.2431" cy="50.6824" r="4" fill="#0" id="circle10"/>
	<circle cx="74.0235" cy="470.824" r="4" fill="#0" id="circle11"/>
	<circle cx="81.8039" cy="509.725" r="4" fill="#0" id="circle12"/>
	<circle cx="81.8039" cy="548.627" r="4" fill="#0" id="circle13"/>
	<circle cx="81.8039" cy="587.529" r="4" fill="#0" id="circle14"/>
	<circle cx="89.5843" cy="626.431" r="4" fill="#0" id="circle15"/>
	<circle cx="89.5843" cy="665.333" r="4" fill="#0" id="circle16"/>
	<circle cx="89.5843" cy="704.235" r="4" fill="#0" id="circle17"/>
	<circle cx="89.5843" cy="743.137" r="4" fill="#0" id="circle18"/>
	<circle cx="89.5843" cy="782.039" r="4" fill="#0" id="circle19"/>
	<circle cx="89.5843" cy="820.941" r="4" fill="#0" id="circle20"/>
	<circle cx="89.5843" cy="859.843" r="4" fill="#0" id="circle21"/>
	<circle cx="89.5843" cy="968.769" r="4" fill="#0" id="circle22"/>
	<circle cx="97.3647" cy="27.3412" r="4" fill="#0" id="circle23"/>
	<circle cx="97.3647" cy="898.745" r="4" fill="#0" id="circle24"/>
	<circle cx="120.706" cy="996" r="4" fill="#0" id="circle25"/>
	<circle cx="132.376" cy="509.725" r="4" fill="#0" id="circle26"/>
	<circle cx="132.376" cy="548.627" r="4" fill="#0" id="circle27"/>
	<circle cx="132.376" cy="587.529" r="4" fill="#0" id="circle28"/>
	<circle cx="132.376" cy="626.431" r="4" fill="#0" id="circle29"/>
	<circle cx="132.376" cy="665.333" r="4" fill="#0" id="circle30"/>
	<circle cx="132.376" cy="704.235" r="4" fill="#0" id="circle31"/>
	<circle cx="132.376" cy="743.137" r="4" fill="#0" id="circle32"/>
	<circle cx="132.376" cy="782.039" r="4" fill="#0" id="circle33"/>
	<circle cx="132.376" cy="820.941" r="4" fill="#0" id="circle34"/>
	<circle cx="136.267" cy="11.7804" r="4" fill="#0" id="circle35"/>
	<circle cx="140.157" cy="431.922" r="4" fill="#0" id="circle36"/>
	<circle cx="140.157" cy="470.824" r="4" fill="#0" id="circle37"/>
	<circle cx="140.157" cy="859.843" r="4" fill="#0" id="circle38"/>
	<circle cx="140.157" cy="898.745" r="4" fill="#0" id="circle39"/>
	<circle cx="140.157" cy="937.647" r="4" fill="#0" id="circle40"/>
	<circle cx="159.608" cy="988.22" r="4" fill="#0" id="circle41"/>
	<circle cx="171.278" cy="400.8" r="4" fill="#0" id="circle42"/>
	<circle cx="175.169" cy="4" r="4" fill="#0" id="circle43"/>
	<circle cx="182.949" cy="439.702" r="4" fill="#0" id="circle44"/>
	<circle cx="182.949" cy="478.604" r="4" fill="#0" id="circle45"/>
	<circle cx="182.949" cy="517.506" r="4" fill="#0" id="circle46"/>
	<circle cx="182.949" cy="556.408" r="4" fill="#0" id="circle47"/>
	<circle cx="182.949" cy="595.31" r="4" fill="#0" id="circle48"/>
	<circle cx="182.949" cy="634.212" r="4" fill="#0" id="circle49"/>
	<circle cx="182.949" cy="673.114" r="4" fill="#0" id="circle50"/>
	<circle cx="182.949" cy="712.016" r="4" fill="#0" id="circle51"/>
	<circle cx="182.949" cy="750.918" r="4" fill="#0" id="circle52"/>
	<circle cx="190.729" cy="789.82" r="4" fill="#0" id="circle53"/>
	<circle cx="190.729" cy="828.722" r="4" fill="#0" id="circle54"/>
	<circle cx="190.729" cy="867.624" r="4" fill="#0" id="circle55"/>
	<circle cx="190.729" cy="953.208" r="4" fill="#0" id="circle56"/>
	<circle cx="194.62" cy="906.525" r="4" fill="#0" id="circle57"/>
	<circle cx="198.51" cy="992.11" r="4" fill="#0" id="circle58"/>
	<circle cx="214.071" cy="11.7804" r="4" fill="#0" id="circle59"/>
	<circle cx="225.741" cy="634.212" r="4" fill="#0" id="circle60"/>
	<circle cx="225.741" cy="673.114" r="4" fill="#0" id="circle61"/>
	<circle cx="225.741" cy="712.016" r="4" fill="#0" id="circle62"/>
	<circle cx="225.741" cy="750.918" r="4" fill="#0" id="circle63"/>
	<circle cx="233.522" cy="571.969" r="4" fill="#0" id="circle64"/>
	<circle cx="233.522" cy="789.82" r="4" fill="#0" id="circle65"/>
	<circle cx="233.522" cy="828.722" r="4" fill="#0" id="circle66"/>
	<circle cx="233.522" cy="867.624" r="4" fill="#0" id="circle67"/>
	<circle cx="237.412" cy="996" r="4" fill="#0" id="circle68"/>
	<circle cx="241.302" cy="517.506" r="4" fill="#0" id="circle69"/>
	<circle cx="241.302" cy="906.525" r="4" fill="#0" id="circle70"/>
	<circle cx="245.192" cy="945.427" r="4" fill="#0" id="circle71"/>
	<circle cx="249.082" cy="455.263" r="4" fill="#0" id="circle72"/>
	<circle cx="252.973" cy="23.451" r="4" fill="#0" id="circle73"/>
	<circle cx="256.863" cy="393.02" r="4" fill="#0" id="circle74"/>
	<circle cx="272.424" cy="346.337" r="4" fill="#0" id="circle75"/>
	<circle cx="276.314" cy="988.22" r="4" fill="#0" id="circle76"/>
	<circle cx="287.984" cy="42.902" r="4" fill="#0" id="circle77"/>
	<circle cx="287.984" cy="284.094" r="4" fill="#0" id="circle78"/>
	<circle cx="307.435" cy="77.9137" r="4" fill="#0" id="circle79"/>
	<circle cx="326.886" cy="112.925" r="4" fill="#0" id="circle80"/>
	<circle cx="326.886" cy="295.765" r="4" fill="#0" id="circle81"/>
	<circle cx="334.667" cy="151.827" r="4" fill="#0" id="circle82"/>
	<circle cx="334.667" cy="190.729" r="4" fill="#0" id="circle83"/>
	<circle cx="342.447" cy="229.631" r="4" fill="#0" id="circle84"/>
	</g>
</svg>