<?xml version="1.0" encoding="UTF-8" standalone="no"?>
<!-- Created with CurveBenchmark -->
<svg
	xmlns:dc="http://purl.org/dc/elements/1.1/"
	xmlns:cc="http://creativecommons.org/ns#"
	xmlns:rdf="http://www.w3.org/1999/02/22-rdf-syntax-ns#"
	xmlns:svg="http://www.w3.org/2000/svg"
	xmlns="http://www.w3.org/2000/svg"
	xmlns:sodipodi="http://sodipodi.sourceforge.net/DTD/sodipodi-0.dtd"
	xmlns:inkscape="http://www.inkscape.org/namespaces/inkscape"
	width="1000"
	height="1000"
	id="svg2"
	version="1.1"
	sodipodi:docname="manifold/discur-sink270.png.txt">
<defs
	id="defs4" />
<metadata
	id="metadata7">
	<rdf:RDF>
		<cc:Work
			rdf:about="">
			<dc:format>image/svg+xml</dc:format>
			<dc:type
				rdf:resource="http://purl.org/dc/dcmitype/StillImage" />
			<dc:title></dc:title>
		</cc:Work>
	</rdf:RDF>
</metadata>
<g
	inkscape:label="Layer 1"
	inkscape:groupmode="layer"
	id="layer1">
	<path style="fill:none;stroke:red;stroke-width:1px;stroke-linecap:butt;stroke-linejoin:miter;stroke-opacity:1" d="M 4,304.02 33.0341,265.307 z" id="boundary" inkscape:connector-curvature="0" />
	<path style="fill:none;stroke:red;stroke-width:1px;stroke-linecap:butt;stroke-linejoin:miter;stroke-opacity:1" d="M 4,304.02 52.3902,318.537 z" id="boundary" inkscape:connector-curvature="0" />
	<path style="fill:none;stroke:red;stroke-width:1px;stroke-linecap:butt;stroke-linejoin:miter;stroke-opacity:1" d="M 33.0341,265.307 81.4244,265.307 z" id="boundary" inkscape:connector-curvature="0" />
	<path style="fill:none;stroke:red;stroke-width:1px;stroke-linecap:butt;stroke-linejoin:miter;stroke-opacity:1" d="M 52.3902,318.537 100.78,318.537 z" id="boundary" inkscape:connector-curvature="0" />
	<path style="fill:none;stroke:red;stroke-width:1px;stroke-linecap:butt;stroke-linejoin:miter;stroke-opacity:1" d="M 81.4244,265.307 129.815,236.273 z" id="boundary" inkscape:connector-curvature="0" />
	<path style="fill:none;stroke:red;stroke-width:1px;stroke-linecap:butt;stroke-linejoin:miter;stroke-opacity:1" d="M 100.78,318.537 149.171,318.537 z" id="boundary" inkscape:connector-curvature="0" />
	<path style="fill:none;stroke:red;stroke-width:1px;stroke-linecap:butt;stroke-linejoin:miter;stroke-opacity:1" d="M 129.815,236.273 139.493,168.527 z" id="boundary" inkscape:connector-curvature="0" />
	<path style="fill:none;stroke:red;stroke-width:1px;stroke-linecap:butt;stroke-linejoin:miter;stroke-opacity:1" d="M 139.493,168.527 187.883,168.527 z" id="boundary" inkscape:connector-curvature="0" />
	<path style="fill:none;stroke:red;stroke-width:1px;stroke-linecap:butt;stroke-linejoin:miter;stroke-opacity:1" d="M 149.171,318.537 187.883,352.41 z" id="boundary" inkscape:connector-curvature="0" />
	<path style="fill:none;stroke:red;stroke-width:1px;stroke-linecap:butt;stroke-linejoin:miter;stroke-opacity:1" d="M 187.883,168.527 236.273,168.527 z" id="boundary" inkscape:connector-curvature="0" />
	<path style="fill:none;stroke:red;stroke-width:1px;stroke-linecap:butt;stroke-linejoin:miter;stroke-opacity:1" d="M 187.883,352.41 216.917,391.122 z" id="boundary" inkscape:connector-curvature="0" />
	<path style="fill:none;stroke:red;stroke-width:1px;stroke-linecap:butt;stroke-linejoin:miter;stroke-opacity:1" d="M 216.917,391.122 255.629,420.156 z" id="boundary" inkscape:connector-curvature="0" />
	<path style="fill:none;stroke:red;stroke-width:1px;stroke-linecap:butt;stroke-linejoin:miter;stroke-opacity:1" d="M 226.595,952.449 250.79,996 z" id="boundary" inkscape:connector-curvature="0" />
	<path style="fill:none;stroke:red;stroke-width:1px;stroke-linecap:butt;stroke-linejoin:miter;stroke-opacity:1" d="M 226.595,952.449 265.307,894.38 z" id="boundary" inkscape:connector-curvature="0" />
	<path style="fill:none;stroke:red;stroke-width:1px;stroke-linecap:butt;stroke-linejoin:miter;stroke-opacity:1" d="M 236.273,168.527 284.663,168.527 z" id="boundary" inkscape:connector-curvature="0" />
	<path style="fill:none;stroke:red;stroke-width:1px;stroke-linecap:butt;stroke-linejoin:miter;stroke-opacity:1" d="M 250.79,996 299.18,996 z" id="boundary" inkscape:connector-curvature="0" />
	<path style="fill:none;stroke:red;stroke-width:1px;stroke-linecap:butt;stroke-linejoin:miter;stroke-opacity:1" d="M 255.629,420.156 284.663,458.868 z" id="boundary" inkscape:connector-curvature="0" />
	<path style="fill:none;stroke:red;stroke-width:1px;stroke-linecap:butt;stroke-linejoin:miter;stroke-opacity:1" d="M 265.307,894.38 284.663,845.99 z" id="boundary" inkscape:connector-curvature="0" />
	<path style="fill:none;stroke:red;stroke-width:1px;stroke-linecap:butt;stroke-linejoin:miter;stroke-opacity:1" d="M 284.663,168.527 333.054,168.527 z" id="boundary" inkscape:connector-curvature="0" />
	<path style="fill:none;stroke:red;stroke-width:1px;stroke-linecap:butt;stroke-linejoin:miter;stroke-opacity:1" d="M 284.663,458.868 284.663,507.259 z" id="boundary" inkscape:connector-curvature="0" />
	<path style="fill:none;stroke:red;stroke-width:1px;stroke-linecap:butt;stroke-linejoin:miter;stroke-opacity:1" d="M 284.663,507.259 284.663,555.649 z" id="boundary" inkscape:connector-curvature="0" />
	<path style="fill:none;stroke:red;stroke-width:1px;stroke-linecap:butt;stroke-linejoin:miter;stroke-opacity:1" d="M 284.663,555.649 284.663,604.039 z" id="boundary" inkscape:connector-curvature="0" />
	<path style="fill:none;stroke:red;stroke-width:1px;stroke-linecap:butt;stroke-linejoin:miter;stroke-opacity:1" d="M 284.663,604.039 284.663,652.429 z" id="boundary" inkscape:connector-curvature="0" />
	<path style="fill:none;stroke:red;stroke-width:1px;stroke-linecap:butt;stroke-linejoin:miter;stroke-opacity:1" d="M 284.663,652.429 284.663,700.82 z" id="boundary" inkscape:connector-curvature="0" />
	<path style="fill:none;stroke:red;stroke-width:1px;stroke-linecap:butt;stroke-linejoin:miter;stroke-opacity:1" d="M 284.663,700.82 284.663,749.21 z" id="boundary" inkscape:connector-curvature="0" />
	<path style="fill:none;stroke:red;stroke-width:1px;stroke-linecap:butt;stroke-linejoin:miter;stroke-opacity:1" d="M 284.663,749.21 284.663,797.6 z" id="boundary" inkscape:connector-curvature="0" />
	<path style="fill:none;stroke:red;stroke-width:1px;stroke-linecap:butt;stroke-linejoin:miter;stroke-opacity:1" d="M 284.663,797.6 284.663,845.99 z" id="boundary" inkscape:connector-curvature="0" />
	<path style="fill:none;stroke:red;stroke-width:1px;stroke-linecap:butt;stroke-linejoin:miter;stroke-opacity:1" d="M 299.18,996 347.571,996 z" id="boundary" inkscape:connector-curvature="0" />
	<path style="fill:none;stroke:red;stroke-width:1px;stroke-linecap:butt;stroke-linejoin:miter;stroke-opacity:1" d="M 333.054,168.527 381.444,168.527 z" id="boundary" inkscape:connector-curvature="0" />
	<path style="fill:none;stroke:red;stroke-width:1px;stroke-linecap:butt;stroke-linejoin:miter;stroke-opacity:1" d="M 347.571,996 395.961,996 z" id="boundary" inkscape:connector-curvature="0" />
	<path style="fill:none;stroke:red;stroke-width:1px;stroke-linecap:butt;stroke-linejoin:miter;stroke-opacity:1" d="M 381.444,168.527 429.834,168.527 z" id="boundary" inkscape:connector-curvature="0" />
	<path style="fill:none;stroke:red;stroke-width:1px;stroke-linecap:butt;stroke-linejoin:miter;stroke-opacity:1" d="M 395.961,996 444.351,996 z" id="boundary" inkscape:connector-curvature="0" />
	<path style="fill:none;stroke:red;stroke-width:1px;stroke-linecap:butt;stroke-linejoin:miter;stroke-opacity:1" d="M 410.478,33.0341 410.478,81.4244 z" id="boundary" inkscape:connector-curvature="0" />
	<path style="fill:none;stroke:red;stroke-width:1px;stroke-linecap:butt;stroke-linejoin:miter;stroke-opacity:1" d="M 410.478,33.0341 449.19,4 z" id="boundary" inkscape:connector-curvature="0" />
	<path style="fill:none;stroke:red;stroke-width:1px;stroke-linecap:butt;stroke-linejoin:miter;stroke-opacity:1" d="M 410.478,81.4244 429.834,168.527 z" id="boundary" inkscape:connector-curvature="0" />
	<path style="fill:none;stroke:red;stroke-width:1px;stroke-linecap:butt;stroke-linejoin:miter;stroke-opacity:1" d="M 444.351,996 492.741,996 z" id="boundary" inkscape:connector-curvature="0" />
	<path style="fill:none;stroke:red;stroke-width:1px;stroke-linecap:butt;stroke-linejoin:miter;stroke-opacity:1" d="M 449.19,4 473.385,47.5512 z" id="boundary" inkscape:connector-curvature="0" />
	<path style="fill:none;stroke:red;stroke-width:1px;stroke-linecap:butt;stroke-linejoin:miter;stroke-opacity:1" d="M 454.029,458.868 454.029,507.259 z" id="boundary" inkscape:connector-curvature="0" />
	<path style="fill:none;stroke:red;stroke-width:1px;stroke-linecap:butt;stroke-linejoin:miter;stroke-opacity:1" d="M 454.029,458.868 502.42,449.19 z" id="boundary" inkscape:connector-curvature="0" />
	<path style="fill:none;stroke:red;stroke-width:1px;stroke-linecap:butt;stroke-linejoin:miter;stroke-opacity:1" d="M 454.029,507.259 454.029,555.649 z" id="boundary" inkscape:connector-curvature="0" />
	<path style="fill:none;stroke:red;stroke-width:1px;stroke-linecap:butt;stroke-linejoin:miter;stroke-opacity:1" d="M 454.029,555.649 454.029,604.039 z" id="boundary" inkscape:connector-curvature="0" />
	<path style="fill:none;stroke:red;stroke-width:1px;stroke-linecap:butt;stroke-linejoin:miter;stroke-opacity:1" d="M 454.029,604.039 454.029,652.429 z" id="boundary" inkscape:connector-curvature="0" />
	<path style="fill:none;stroke:red;stroke-width:1px;stroke-linecap:butt;stroke-linejoin:miter;stroke-opacity:1" d="M 454.029,652.429 454.029,700.82 z" id="boundary" inkscape:connector-curvature="0" />
	<path style="fill:none;stroke:red;stroke-width:1px;stroke-linecap:butt;stroke-linejoin:miter;stroke-opacity:1" d="M 454.029,700.82 454.029,749.21 z" id="boundary" inkscape:connector-curvature="0" />
	<path style="fill:none;stroke:red;stroke-width:1px;stroke-linecap:butt;stroke-linejoin:miter;stroke-opacity:1" d="M 454.029,749.21 454.029,797.6 z" id="boundary" inkscape:connector-curvature="0" />
	<path style="fill:none;stroke:red;stroke-width:1px;stroke-linecap:butt;stroke-linejoin:miter;stroke-opacity:1" d="M 454.029,797.6 454.029,845.99 z" id="boundary" inkscape:connector-curvature="0" />
	<path style="fill:none;stroke:red;stroke-width:1px;stroke-linecap:butt;stroke-linejoin:miter;stroke-opacity:1" d="M 454.029,845.99 468.546,894.38 z" id="boundary" inkscape:connector-curvature="0" />
	<path style="fill:none;stroke:red;stroke-width:1px;stroke-linecap:butt;stroke-linejoin:miter;stroke-opacity:1" d="M 468.546,894.38 492.741,937.932 z" id="boundary" inkscape:connector-curvature="0" />
	<path style="fill:none;stroke:red;stroke-width:1px;stroke-linecap:butt;stroke-linejoin:miter;stroke-opacity:1" d="M 473.385,47.5512 478.224,95.9415 z" id="boundary" inkscape:connector-curvature="0" />
	<path style="fill:none;stroke:red;stroke-width:1px;stroke-linecap:butt;stroke-linejoin:miter;stroke-opacity:1" d="M 478.224,95.9415 478.224,144.332 z" id="boundary" inkscape:connector-curvature="0" />
	<path style="fill:none;stroke:red;stroke-width:1px;stroke-linecap:butt;stroke-linejoin:miter;stroke-opacity:1" d="M 478.224,144.332 521.776,168.527 z" id="boundary" inkscape:connector-curvature="0" />
	<path style="fill:none;stroke:red;stroke-width:1px;stroke-linecap:butt;stroke-linejoin:miter;stroke-opacity:1" d="M 492.741,937.932 492.741,996 z" id="boundary" inkscape:connector-curvature="0" />
	<path style="fill:none;stroke:red;stroke-width:1px;stroke-linecap:butt;stroke-linejoin:miter;stroke-opacity:1" d="M 502.42,449.19 550.81,429.834 z" id="boundary" inkscape:connector-curvature="0" />
	<path style="fill:none;stroke:red;stroke-width:1px;stroke-linecap:butt;stroke-linejoin:miter;stroke-opacity:1" d="M 521.776,168.527 570.166,168.527 z" id="boundary" inkscape:connector-curvature="0" />
	<path style="fill:none;stroke:red;stroke-width:1px;stroke-linecap:butt;stroke-linejoin:miter;stroke-opacity:1" d="M 550.81,429.834 589.522,400.8 z" id="boundary" inkscape:connector-curvature="0" />
	<path style="fill:none;stroke:red;stroke-width:1px;stroke-linecap:butt;stroke-linejoin:miter;stroke-opacity:1" d="M 570.166,168.527 618.556,168.527 z" id="boundary" inkscape:connector-curvature="0" />
	<path style="fill:none;stroke:red;stroke-width:1px;stroke-linecap:butt;stroke-linejoin:miter;stroke-opacity:1" d="M 589.522,400.8 618.556,362.088 z" id="boundary" inkscape:connector-curvature="0" />
	<path style="fill:none;stroke:red;stroke-width:1px;stroke-linecap:butt;stroke-linejoin:miter;stroke-opacity:1" d="M 618.556,168.527 666.946,168.527 z" id="boundary" inkscape:connector-curvature="0" />
	<path style="fill:none;stroke:red;stroke-width:1px;stroke-linecap:butt;stroke-linejoin:miter;stroke-opacity:1" d="M 618.556,362.088 642.751,318.537 z" id="boundary" inkscape:connector-curvature="0" />
	<path style="fill:none;stroke:red;stroke-width:1px;stroke-linecap:butt;stroke-linejoin:miter;stroke-opacity:1" d="M 642.751,318.537 691.141,318.537 z" id="boundary" inkscape:connector-curvature="0" />
	<path style="fill:none;stroke:red;stroke-width:1px;stroke-linecap:butt;stroke-linejoin:miter;stroke-opacity:1" d="M 666.946,168.527 715.337,168.527 z" id="boundary" inkscape:connector-curvature="0" />
	<path style="fill:none;stroke:red;stroke-width:1px;stroke-linecap:butt;stroke-linejoin:miter;stroke-opacity:1" d="M 691.141,318.537 739.532,318.537 z" id="boundary" inkscape:connector-curvature="0" />
	<path style="fill:none;stroke:red;stroke-width:1px;stroke-linecap:butt;stroke-linejoin:miter;stroke-opacity:1" d="M 715.337,168.527 763.727,168.527 z" id="boundary" inkscape:connector-curvature="0" />
	<path style="fill:none;stroke:red;stroke-width:1px;stroke-linecap:butt;stroke-linejoin:miter;stroke-opacity:1" d="M 739.532,318.537 787.922,318.537 z" id="boundary" inkscape:connector-curvature="0" />
	<path style="fill:none;stroke:red;stroke-width:1px;stroke-linecap:butt;stroke-linejoin:miter;stroke-opacity:1" d="M 763.727,168.527 812.117,168.527 z" id="boundary" inkscape:connector-curvature="0" />
	<path style="fill:none;stroke:red;stroke-width:1px;stroke-linecap:butt;stroke-linejoin:miter;stroke-opacity:1" d="M 787.922,318.537 821.795,265.307 z" id="boundary" inkscape:connector-curvature="0" />
	<path style="fill:none;stroke:red;stroke-width:1px;stroke-linecap:butt;stroke-linejoin:miter;stroke-opacity:1" d="M 812.117,168.527 821.795,216.917 z" id="boundary" inkscape:connector-curvature="0" />
	<path style="fill:none;stroke:red;stroke-width:1px;stroke-linecap:butt;stroke-linejoin:miter;stroke-opacity:1" d="M 821.795,216.917 821.795,265.307 z" id="boundary" inkscape:connector-curvature="0" />
	<circle cx="4" cy="304.02" r="4" fill="#0" id="circle0"/>
	<circle cx="33.0341" cy="265.307" r="4" fill="#0" id="circle1"/>
	<circle cx="52.3902" cy="318.537" r="4" fill="#0" id="circle2"/>
	<circle cx="81.4244" cy="265.307" r="4" fill="#0" id="circle3"/>
	<circle cx="100.78" cy="318.537" r="4" fill="#0" id="circle4"/>
	<circle cx="129.815" cy="236.273" r="4" fill="#0" id="circle5"/>
	<circle cx="139.493" cy="168.527" r="4" fill="#0" id="circle6"/>
	<circle cx="149.171" cy="318.537" r="4" fill="#0" id="circle7"/>
	<circle cx="187.883" cy="168.527" r="4" fill="#0" id="circle8"/>
	<circle cx="187.883" cy="352.41" r="4" fill="#0" id="circle9"/>
	<circle cx="216.917" cy="391.122" r="4" fill="#0" id="circle10"/>
	<circle cx="226.595" cy="952.449" r="4" fill="#0" id="circle11"/>
	<circle cx="236.273" cy="168.527" r="4" fill="#0" id="circle12"/>
	<circle cx="250.79" cy="996" r="4" fill="#0" id="circle13"/>
	<circle cx="255.629" cy="420.156" r="4" fill="#0" id="circle14"/>
	<circle cx="265.307" cy="894.38" r="4" fill="#0" id="circle15"/>
	<circle cx="284.663" cy="168.527" r="4" fill="#0" id="circle16"/>
	<circle cx="284.663" cy="458.868" r="4" fill="#0" id="circle17"/>
	<circle cx="284.663" cy="507.259" r="4" fill="#0" id="circle18"/>
	<circle cx="284.663" cy="555.649" r="4" fill="#0" id="circle19"/>
	<circle cx="284.663" cy="604.039" r="4" fill="#0" id="circle20"/>
	<circle cx="284.663" cy="652.429" r="4" fill="#0" id="circle21"/>
	<circle cx="284.663" cy="700.82" r="4" fill="#0" id="circle22"/>
	<circle cx="284.663" cy="749.21" r="4" fill="#0" id="circle23"/>
	<circle cx="284.663" cy="797.6" r="4" fill="#0" id="circle24"/>
	<circle cx="284.663" cy="845.99" r="4" fill="#0" id="circle25"/>
	<circle cx="299.18" cy="996" r="4" fill="#0" id="circle26"/>
	<circle cx="333.054" cy="168.527" r="4" fill="#0" id="circle27"/>
	<circle cx="347.571" cy="996" r="4" fill="#0" id="circle28"/>
	<circle cx="381.444" cy="168.527" r="4" fill="#0" id="circle29"/>
	<circle cx="395.961" cy="996" r="4" fill="#0" id="circle30"/>
	<circle cx="410.478" cy="33.0341" r="4" fill="#0" id="circle31"/>
	<circle cx="410.478" cy="81.4244" r="4" fill="#0" id="circle32"/>
	<circle cx="429.834" cy="168.527" r="4" fill="#0" id="circle33"/>
	<circle cx="444.351" cy="996" r="4" fill="#0" id="circle34"/>
	<circle cx="449.19" cy="4" r="4" fill="#0" id="circle35"/>
	<circle cx="454.029" cy="458.868" r="4" fill="#0" id="circle36"/>
	<circle cx="454.029" cy="507.259" r="4" fill="#0" id="circle37"/>
	<circle cx="454.029" cy="555.649" r="4" fill="#0" id="circle38"/>
	<circle cx="454.029" cy="604.039" r="4" fill="#0" id="circle39"/>
	<circle cx="454.029" cy="652.429" r="4" fill="#0" id="circle40"/>
	<circle cx="454.029" cy="700.82" r="4" fill="#0" id="circle41"/>
	<circle cx="454.029" cy="749.21" r="4" fill="#0" id="circle42"/>
	<circle cx="454.029" cy="797.6" r="4" fill="#0" id="circle43"/>
	<circle cx="454.029" cy="845.99" r="4" fill="#0" id="circle44"/>
	<circle cx="468.546" cy="894.38" r="4" fill="#0" id="circle45"/>
	<circle cx="473.385" cy="47.5512" r="4" fill="#0" id="circle46"/>
	<circle cx="478.224" cy="95.9415" r="4" fill="#0" id="circle47"/>
	<circle cx="478.224" cy="144.332" r="4" fill="#0" id="circle48"/>
	<circle cx="492.741" cy="937.932" r="4" fill="#0" id="circle49"/>
	<circle cx="492.741" cy="996" r="4" fill="#0" id="circle50"/>
	<circle cx="502.42" cy="449.19" r="4" fill="#0" id="circle51"/>
	<circle cx="521.776" cy="168.527" r="4" fill="#0" id="circle52"/>
	<circle cx="550.81" cy="429.834" r="4" fill="#0" id="circle53"/>
	<circle cx="570.166" cy="168.527" r="4" fill="#0" id="circle54"/>
	<circle cx="589.522" cy="400.8" r="4" fill="#0" id="circle55"/>
	<circle cx="618.556" cy="168.527" r="4" fill="#0" id="circle56"/>
	<circle cx="618.556" cy="362.088" r="4" fill="#0" id="circle57"/>
	<circle cx="642.751" cy="318.537" r="4" fill="#0" id="circle58"/>
	<circle cx="666.946" cy="168.527" r="4" fill="#0" id="circle59"/>
	<circle cx="691.141" cy="318.537" r="4" fill="#0" id="circle60"/>
	<circle cx="715.337" cy="168.527" r="4" fill="#0" id="circle61"/>
	<circle cx="739.532" cy="318.537" r="4" fill="#0" id="circle62"/>
	<circle cx="763.727" cy="168.527" r="4" fill="#0" id="circle63"/>
	<circle cx="787.922" cy="318.537" r="4" fill="#0" id="circle64"/>
	<circle cx="812.117" cy="168.527" r="4" fill="#0" id="circle65"/>
	<circle cx="821.795" cy="216.917" r="4" fill="#0" id="circle66"/>
	<circle cx="821.795" cy="265.307" r="4" fill="#0" id="circle67"/>
	</g>
</svg>