<?xml version="1.0" encoding="UTF-8" standalone="no"?>
<!-- Created with CurveBenchmark -->
<svg
	xmlns:dc="http://purl.org/dc/elements/1.1/"
	xmlns:cc="http://creativecommons.org/ns#"
	xmlns:rdf="http://www.w3.org/1999/02/22-rdf-syntax-ns#"
	xmlns:svg="http://www.w3.org/2000/svg"
	xmlns="http://www.w3.org/2000/svg"
	xmlns:sodipodi="http://sodipodi.sourceforge.net/DTD/sodipodi-0.dtd"
	xmlns:inkscape="http://www.inkscape.org/namespaces/inkscape"
	width="1000"
	height="1000"
	id="svg2"
	version="1.1"
	sodipodi:docname="manifold/discur-apple-7.png.txt">
<defs
	id="defs4" />
<metadata
	id="metadata7">
	<rdf:RDF>
		<cc:Work
			rdf:about="">
			<dc:format>image/svg+xml</dc:format>
			<dc:type
				rdf:resource="http://purl.org/dc/dcmitype/StillImage" />
			<dc:title></dc:title>
		</cc:Work>
	</rdf:RDF>
</metadata>
<g
	inkscape:label="Layer 1"
	inkscape:groupmode="layer"
	id="layer1">
	<path style="fill:none;stroke:red;stroke-width:1px;stroke-linecap:butt;stroke-linejoin:miter;stroke-opacity:1" d="M 4,550.433 4,559.204 z" id="boundary" inkscape:connector-curvature="0" />
	<path style="fill:none;stroke:red;stroke-width:1px;stroke-linecap:butt;stroke-linejoin:miter;stroke-opacity:1" d="M 4,550.433 8.3855,541.662 z" id="boundary" inkscape:connector-curvature="0" />
	<path style="fill:none;stroke:red;stroke-width:1px;stroke-linecap:butt;stroke-linejoin:miter;stroke-opacity:1" d="M 4,559.204 4,567.975 z" id="boundary" inkscape:connector-curvature="0" />
	<path style="fill:none;stroke:red;stroke-width:1px;stroke-linecap:butt;stroke-linejoin:miter;stroke-opacity:1" d="M 4,567.975 4,576.746 z" id="boundary" inkscape:connector-curvature="0" />
	<path style="fill:none;stroke:red;stroke-width:1px;stroke-linecap:butt;stroke-linejoin:miter;stroke-opacity:1" d="M 4,576.746 4,585.517 z" id="boundary" inkscape:connector-curvature="0" />
	<path style="fill:none;stroke:red;stroke-width:1px;stroke-linecap:butt;stroke-linejoin:miter;stroke-opacity:1" d="M 4,585.517 4,594.288 z" id="boundary" inkscape:connector-curvature="0" />
	<path style="fill:none;stroke:red;stroke-width:1px;stroke-linecap:butt;stroke-linejoin:miter;stroke-opacity:1" d="M 4,594.288 4,603.059 z" id="boundary" inkscape:connector-curvature="0" />
	<path style="fill:none;stroke:red;stroke-width:1px;stroke-linecap:butt;stroke-linejoin:miter;stroke-opacity:1" d="M 4,603.059 4,611.83 z" id="boundary" inkscape:connector-curvature="0" />
	<path style="fill:none;stroke:red;stroke-width:1px;stroke-linecap:butt;stroke-linejoin:miter;stroke-opacity:1" d="M 4,611.83 4,620.601 z" id="boundary" inkscape:connector-curvature="0" />
	<path style="fill:none;stroke:red;stroke-width:1px;stroke-linecap:butt;stroke-linejoin:miter;stroke-opacity:1" d="M 4,620.601 4,629.372 z" id="boundary" inkscape:connector-curvature="0" />
	<path style="fill:none;stroke:red;stroke-width:1px;stroke-linecap:butt;stroke-linejoin:miter;stroke-opacity:1" d="M 4,629.372 8.3855,637.266 z" id="boundary" inkscape:connector-curvature="0" />
	<path style="fill:none;stroke:red;stroke-width:1px;stroke-linecap:butt;stroke-linejoin:miter;stroke-opacity:1" d="M 8.3855,524.12 8.3855,532.891 z" id="boundary" inkscape:connector-curvature="0" />
	<path style="fill:none;stroke:red;stroke-width:1px;stroke-linecap:butt;stroke-linejoin:miter;stroke-opacity:1" d="M 8.3855,524.12 12.771,510.964 z" id="boundary" inkscape:connector-curvature="0" />
	<path style="fill:none;stroke:red;stroke-width:1px;stroke-linecap:butt;stroke-linejoin:miter;stroke-opacity:1" d="M 8.3855,532.891 8.3855,541.662 z" id="boundary" inkscape:connector-curvature="0" />
	<path style="fill:none;stroke:red;stroke-width:1px;stroke-linecap:butt;stroke-linejoin:miter;stroke-opacity:1" d="M 8.3855,637.266 8.3855,646.037 z" id="boundary" inkscape:connector-curvature="0" />
	<path style="fill:none;stroke:red;stroke-width:1px;stroke-linecap:butt;stroke-linejoin:miter;stroke-opacity:1" d="M 8.3855,646.037 8.3855,654.808 z" id="boundary" inkscape:connector-curvature="0" />
	<path style="fill:none;stroke:red;stroke-width:1px;stroke-linecap:butt;stroke-linejoin:miter;stroke-opacity:1" d="M 8.3855,654.808 12.771,662.702 z" id="boundary" inkscape:connector-curvature="0" />
	<path style="fill:none;stroke:red;stroke-width:1px;stroke-linecap:butt;stroke-linejoin:miter;stroke-opacity:1" d="M 12.771,502.193 12.771,510.964 z" id="boundary" inkscape:connector-curvature="0" />
	<path style="fill:none;stroke:red;stroke-width:1px;stroke-linecap:butt;stroke-linejoin:miter;stroke-opacity:1" d="M 12.771,502.193 17.1565,489.036 z" id="boundary" inkscape:connector-curvature="0" />
	<path style="fill:none;stroke:red;stroke-width:1px;stroke-linecap:butt;stroke-linejoin:miter;stroke-opacity:1" d="M 12.771,662.702 12.771,671.473 z" id="boundary" inkscape:connector-curvature="0" />
	<path style="fill:none;stroke:red;stroke-width:1px;stroke-linecap:butt;stroke-linejoin:miter;stroke-opacity:1" d="M 12.771,671.473 15.4023,680.244 z" id="boundary" inkscape:connector-curvature="0" />
	<path style="fill:none;stroke:red;stroke-width:1px;stroke-linecap:butt;stroke-linejoin:miter;stroke-opacity:1" d="M 15.4023,680.244 17.1565,689.015 z" id="boundary" inkscape:connector-curvature="0" />
	<path style="fill:none;stroke:red;stroke-width:1px;stroke-linecap:butt;stroke-linejoin:miter;stroke-opacity:1" d="M 17.1565,489.036 21.542,475.88 z" id="boundary" inkscape:connector-curvature="0" />
	<path style="fill:none;stroke:red;stroke-width:1px;stroke-linecap:butt;stroke-linejoin:miter;stroke-opacity:1" d="M 17.1565,689.015 21.542,696.909 z" id="boundary" inkscape:connector-curvature="0" />
	<path style="fill:none;stroke:red;stroke-width:1px;stroke-linecap:butt;stroke-linejoin:miter;stroke-opacity:1" d="M 21.542,475.88 25.9275,462.723 z" id="boundary" inkscape:connector-curvature="0" />
	<path style="fill:none;stroke:red;stroke-width:1px;stroke-linecap:butt;stroke-linejoin:miter;stroke-opacity:1" d="M 21.542,696.909 23.2962,705.68 z" id="boundary" inkscape:connector-curvature="0" />
	<path style="fill:none;stroke:red;stroke-width:1px;stroke-linecap:butt;stroke-linejoin:miter;stroke-opacity:1" d="M 23.2962,705.68 25.9275,714.451 z" id="boundary" inkscape:connector-curvature="0" />
	<path style="fill:none;stroke:red;stroke-width:1px;stroke-linecap:butt;stroke-linejoin:miter;stroke-opacity:1" d="M 25.9275,462.723 30.313,449.567 z" id="boundary" inkscape:connector-curvature="0" />
	<path style="fill:none;stroke:red;stroke-width:1px;stroke-linecap:butt;stroke-linejoin:miter;stroke-opacity:1" d="M 25.9275,714.451 30.313,722.345 z" id="boundary" inkscape:connector-curvature="0" />
	<path style="fill:none;stroke:red;stroke-width:1px;stroke-linecap:butt;stroke-linejoin:miter;stroke-opacity:1" d="M 30.313,449.567 34.6985,440.796 z" id="boundary" inkscape:connector-curvature="0" />
	<path style="fill:none;stroke:red;stroke-width:1px;stroke-linecap:butt;stroke-linejoin:miter;stroke-opacity:1" d="M 30.313,722.345 31.1901,731.116 z" id="boundary" inkscape:connector-curvature="0" />
	<path style="fill:none;stroke:red;stroke-width:1px;stroke-linecap:butt;stroke-linejoin:miter;stroke-opacity:1" d="M 31.1901,731.116 35.5756,739.01 z" id="boundary" inkscape:connector-curvature="0" />
	<path style="fill:none;stroke:red;stroke-width:1px;stroke-linecap:butt;stroke-linejoin:miter;stroke-opacity:1" d="M 34.6985,440.796 39.084,432.025 z" id="boundary" inkscape:connector-curvature="0" />
	<path style="fill:none;stroke:red;stroke-width:1px;stroke-linecap:butt;stroke-linejoin:miter;stroke-opacity:1" d="M 35.5756,739.01 39.084,747.781 z" id="boundary" inkscape:connector-curvature="0" />
	<path style="fill:none;stroke:red;stroke-width:1px;stroke-linecap:butt;stroke-linejoin:miter;stroke-opacity:1" d="M 39.084,432.025 43.4695,423.254 z" id="boundary" inkscape:connector-curvature="0" />
	<path style="fill:none;stroke:red;stroke-width:1px;stroke-linecap:butt;stroke-linejoin:miter;stroke-opacity:1" d="M 39.084,747.781 43.4695,755.675 z" id="boundary" inkscape:connector-curvature="0" />
	<path style="fill:none;stroke:red;stroke-width:1px;stroke-linecap:butt;stroke-linejoin:miter;stroke-opacity:1" d="M 43.4695,423.254 47.855,414.483 z" id="boundary" inkscape:connector-curvature="0" />
	<path style="fill:none;stroke:red;stroke-width:1px;stroke-linecap:butt;stroke-linejoin:miter;stroke-opacity:1" d="M 43.4695,755.675 47.855,763.569 z" id="boundary" inkscape:connector-curvature="0" />
	<path style="fill:none;stroke:red;stroke-width:1px;stroke-linecap:butt;stroke-linejoin:miter;stroke-opacity:1" d="M 47.855,414.483 52.2405,405.712 z" id="boundary" inkscape:connector-curvature="0" />
	<path style="fill:none;stroke:red;stroke-width:1px;stroke-linecap:butt;stroke-linejoin:miter;stroke-opacity:1" d="M 47.855,763.569 52.2405,771.462 z" id="boundary" inkscape:connector-curvature="0" />
	<path style="fill:none;stroke:red;stroke-width:1px;stroke-linecap:butt;stroke-linejoin:miter;stroke-opacity:1" d="M 52.2405,405.712 59.2573,398.695 z" id="boundary" inkscape:connector-curvature="0" />
	<path style="fill:none;stroke:red;stroke-width:1px;stroke-linecap:butt;stroke-linejoin:miter;stroke-opacity:1" d="M 52.2405,771.462 61.0115,787.25 z" id="boundary" inkscape:connector-curvature="0" />
	<path style="fill:none;stroke:red;stroke-width:1px;stroke-linecap:butt;stroke-linejoin:miter;stroke-opacity:1" d="M 59.2573,398.695 63.6428,389.924 z" id="boundary" inkscape:connector-curvature="0" />
	<path style="fill:none;stroke:red;stroke-width:1px;stroke-linecap:butt;stroke-linejoin:miter;stroke-opacity:1" d="M 61.0115,787.25 65.397,795.144 z" id="boundary" inkscape:connector-curvature="0" />
	<path style="fill:none;stroke:red;stroke-width:1px;stroke-linecap:butt;stroke-linejoin:miter;stroke-opacity:1" d="M 63.6428,389.924 68.0283,381.153 z" id="boundary" inkscape:connector-curvature="0" />
	<path style="fill:none;stroke:red;stroke-width:1px;stroke-linecap:butt;stroke-linejoin:miter;stroke-opacity:1" d="M 65.397,795.144 71.5367,802.161 z" id="boundary" inkscape:connector-curvature="0" />
	<path style="fill:none;stroke:red;stroke-width:1px;stroke-linecap:butt;stroke-linejoin:miter;stroke-opacity:1" d="M 68.0283,381.153 75.0451,374.136 z" id="boundary" inkscape:connector-curvature="0" />
	<path style="fill:none;stroke:red;stroke-width:1px;stroke-linecap:butt;stroke-linejoin:miter;stroke-opacity:1" d="M 71.5367,802.161 78.5535,807.424 z" id="boundary" inkscape:connector-curvature="0" />
	<path style="fill:none;stroke:red;stroke-width:1px;stroke-linecap:butt;stroke-linejoin:miter;stroke-opacity:1" d="M 75.0451,374.136 79.4306,365.365 z" id="boundary" inkscape:connector-curvature="0" />
	<path style="fill:none;stroke:red;stroke-width:1px;stroke-linecap:butt;stroke-linejoin:miter;stroke-opacity:1" d="M 78.5535,807.424 81.1848,816.195 z" id="boundary" inkscape:connector-curvature="0" />
	<path style="fill:none;stroke:red;stroke-width:1px;stroke-linecap:butt;stroke-linejoin:miter;stroke-opacity:1" d="M 79.4306,365.365 86.4474,359.225 z" id="boundary" inkscape:connector-curvature="0" />
	<path style="fill:none;stroke:red;stroke-width:1px;stroke-linecap:butt;stroke-linejoin:miter;stroke-opacity:1" d="M 81.1848,816.195 91.71,831.105 z" id="boundary" inkscape:connector-curvature="0" />
	<path style="fill:none;stroke:red;stroke-width:1px;stroke-linecap:butt;stroke-linejoin:miter;stroke-opacity:1" d="M 86.4474,359.225 91.71,348.7 z" id="boundary" inkscape:connector-curvature="0" />
	<path style="fill:none;stroke:red;stroke-width:1px;stroke-linecap:butt;stroke-linejoin:miter;stroke-opacity:1" d="M 91.71,348.7 98.7268,341.683 z" id="boundary" inkscape:connector-curvature="0" />
	<path style="fill:none;stroke:red;stroke-width:1px;stroke-linecap:butt;stroke-linejoin:miter;stroke-opacity:1" d="M 91.71,831.105 104.866,844.262 z" id="boundary" inkscape:connector-curvature="0" />
	<path style="fill:none;stroke:red;stroke-width:1px;stroke-linecap:butt;stroke-linejoin:miter;stroke-opacity:1" d="M 98.7268,341.683 105.744,334.667 z" id="boundary" inkscape:connector-curvature="0" />
	<path style="fill:none;stroke:red;stroke-width:1px;stroke-linecap:butt;stroke-linejoin:miter;stroke-opacity:1" d="M 104.866,844.262 111.883,850.401 z" id="boundary" inkscape:connector-curvature="0" />
	<path style="fill:none;stroke:red;stroke-width:1px;stroke-linecap:butt;stroke-linejoin:miter;stroke-opacity:1" d="M 105.744,334.667 112.76,328.527 z" id="boundary" inkscape:connector-curvature="0" />
	<path style="fill:none;stroke:red;stroke-width:1px;stroke-linecap:butt;stroke-linejoin:miter;stroke-opacity:1" d="M 111.883,850.401 125.04,863.558 z" id="boundary" inkscape:connector-curvature="0" />
	<path style="fill:none;stroke:red;stroke-width:1px;stroke-linecap:butt;stroke-linejoin:miter;stroke-opacity:1" d="M 112.76,328.527 118.9,321.51 z" id="boundary" inkscape:connector-curvature="0" />
	<path style="fill:none;stroke:red;stroke-width:1px;stroke-linecap:butt;stroke-linejoin:miter;stroke-opacity:1" d="M 118.9,321.51 125.917,315.37 z" id="boundary" inkscape:connector-curvature="0" />
	<path style="fill:none;stroke:red;stroke-width:1px;stroke-linecap:butt;stroke-linejoin:miter;stroke-opacity:1" d="M 125.04,863.558 131.179,870.575 z" id="boundary" inkscape:connector-curvature="0" />
	<path style="fill:none;stroke:red;stroke-width:1px;stroke-linecap:butt;stroke-linejoin:miter;stroke-opacity:1" d="M 125.917,315.37 139.073,302.214 z" id="boundary" inkscape:connector-curvature="0" />
	<path style="fill:none;stroke:red;stroke-width:1px;stroke-linecap:butt;stroke-linejoin:miter;stroke-opacity:1" d="M 131.179,870.575 144.336,883.731 z" id="boundary" inkscape:connector-curvature="0" />
	<path style="fill:none;stroke:red;stroke-width:1px;stroke-linecap:butt;stroke-linejoin:miter;stroke-opacity:1" d="M 139.073,302.214 145.213,295.197 z" id="boundary" inkscape:connector-curvature="0" />
	<path style="fill:none;stroke:red;stroke-width:1px;stroke-linecap:butt;stroke-linejoin:miter;stroke-opacity:1" d="M 144.336,883.731 153.107,886.363 z" id="boundary" inkscape:connector-curvature="0" />
	<path style="fill:none;stroke:red;stroke-width:1px;stroke-linecap:butt;stroke-linejoin:miter;stroke-opacity:1" d="M 145.213,295.197 153.984,290.812 z" id="boundary" inkscape:connector-curvature="0" />
	<path style="fill:none;stroke:red;stroke-width:1px;stroke-linecap:butt;stroke-linejoin:miter;stroke-opacity:1" d="M 153.107,886.363 158.37,893.379 z" id="boundary" inkscape:connector-curvature="0" />
	<path style="fill:none;stroke:red;stroke-width:1px;stroke-linecap:butt;stroke-linejoin:miter;stroke-opacity:1" d="M 153.984,290.812 168.895,280.286 z" id="boundary" inkscape:connector-curvature="0" />
	<path style="fill:none;stroke:red;stroke-width:1px;stroke-linecap:butt;stroke-linejoin:miter;stroke-opacity:1" d="M 158.37,893.379 165.386,899.519 z" id="boundary" inkscape:connector-curvature="0" />
	<path style="fill:none;stroke:red;stroke-width:1px;stroke-linecap:butt;stroke-linejoin:miter;stroke-opacity:1" d="M 165.386,899.519 173.28,903.905 z" id="boundary" inkscape:connector-curvature="0" />
	<path style="fill:none;stroke:red;stroke-width:1px;stroke-linecap:butt;stroke-linejoin:miter;stroke-opacity:1" d="M 168.895,280.286 175.912,273.27 z" id="boundary" inkscape:connector-curvature="0" />
	<path style="fill:none;stroke:red;stroke-width:1px;stroke-linecap:butt;stroke-linejoin:miter;stroke-opacity:1" d="M 173.28,903.905 180.297,910.044 z" id="boundary" inkscape:connector-curvature="0" />
	<path style="fill:none;stroke:red;stroke-width:1px;stroke-linecap:butt;stroke-linejoin:miter;stroke-opacity:1" d="M 175.912,273.27 190.822,262.744 z" id="boundary" inkscape:connector-curvature="0" />
	<path style="fill:none;stroke:red;stroke-width:1px;stroke-linecap:butt;stroke-linejoin:miter;stroke-opacity:1" d="M 180.297,910.044 188.191,914.43 z" id="boundary" inkscape:connector-curvature="0" />
	<path style="fill:none;stroke:red;stroke-width:1px;stroke-linecap:butt;stroke-linejoin:miter;stroke-opacity:1" d="M 188.191,914.43 195.208,920.569 z" id="boundary" inkscape:connector-curvature="0" />
	<path style="fill:none;stroke:red;stroke-width:1px;stroke-linecap:butt;stroke-linejoin:miter;stroke-opacity:1" d="M 190.822,262.744 198.716,258.359 z" id="boundary" inkscape:connector-curvature="0" />
	<path style="fill:none;stroke:red;stroke-width:1px;stroke-linecap:butt;stroke-linejoin:miter;stroke-opacity:1" d="M 195.208,920.569 203.102,924.955 z" id="boundary" inkscape:connector-curvature="0" />
	<path style="fill:none;stroke:red;stroke-width:1px;stroke-linecap:butt;stroke-linejoin:miter;stroke-opacity:1" d="M 198.716,258.359 206.61,253.973 z" id="boundary" inkscape:connector-curvature="0" />
	<path style="fill:none;stroke:red;stroke-width:1px;stroke-linecap:butt;stroke-linejoin:miter;stroke-opacity:1" d="M 203.102,924.955 211.873,928.463 z" id="boundary" inkscape:connector-curvature="0" />
	<path style="fill:none;stroke:red;stroke-width:1px;stroke-linecap:butt;stroke-linejoin:miter;stroke-opacity:1" d="M 206.61,253.973 214.504,247.834 z" id="boundary" inkscape:connector-curvature="0" />
	<path style="fill:none;stroke:red;stroke-width:1px;stroke-linecap:butt;stroke-linejoin:miter;stroke-opacity:1" d="M 211.873,928.463 218.889,934.603 z" id="boundary" inkscape:connector-curvature="0" />
	<path style="fill:none;stroke:red;stroke-width:1px;stroke-linecap:butt;stroke-linejoin:miter;stroke-opacity:1" d="M 214.504,247.834 223.275,243.448 z" id="boundary" inkscape:connector-curvature="0" />
	<path style="fill:none;stroke:red;stroke-width:1px;stroke-linecap:butt;stroke-linejoin:miter;stroke-opacity:1" d="M 218.889,934.603 226.783,938.989 z" id="boundary" inkscape:connector-curvature="0" />
	<path style="fill:none;stroke:red;stroke-width:1px;stroke-linecap:butt;stroke-linejoin:miter;stroke-opacity:1" d="M 223.275,243.448 232.046,239.063 z" id="boundary" inkscape:connector-curvature="0" />
	<path style="fill:none;stroke:red;stroke-width:1px;stroke-linecap:butt;stroke-linejoin:miter;stroke-opacity:1" d="M 226.783,938.989 234.677,943.374 z" id="boundary" inkscape:connector-curvature="0" />
	<path style="fill:none;stroke:red;stroke-width:1px;stroke-linecap:butt;stroke-linejoin:miter;stroke-opacity:1" d="M 232.046,239.063 240.817,234.677 z" id="boundary" inkscape:connector-curvature="0" />
	<path style="fill:none;stroke:red;stroke-width:1px;stroke-linecap:butt;stroke-linejoin:miter;stroke-opacity:1" d="M 234.677,943.374 243.448,946.882 z" id="boundary" inkscape:connector-curvature="0" />
	<path style="fill:none;stroke:red;stroke-width:1px;stroke-linecap:butt;stroke-linejoin:miter;stroke-opacity:1" d="M 240.817,234.677 249.588,230.292 z" id="boundary" inkscape:connector-curvature="0" />
	<path style="fill:none;stroke:red;stroke-width:1px;stroke-linecap:butt;stroke-linejoin:miter;stroke-opacity:1" d="M 243.448,946.882 251.342,951.268 z" id="boundary" inkscape:connector-curvature="0" />
	<path style="fill:none;stroke:red;stroke-width:1px;stroke-linecap:butt;stroke-linejoin:miter;stroke-opacity:1" d="M 249.588,230.292 258.359,225.906 z" id="boundary" inkscape:connector-curvature="0" />
	<path style="fill:none;stroke:red;stroke-width:1px;stroke-linecap:butt;stroke-linejoin:miter;stroke-opacity:1" d="M 251.342,951.268 260.113,954.776 z" id="boundary" inkscape:connector-curvature="0" />
	<path style="fill:none;stroke:red;stroke-width:1px;stroke-linecap:butt;stroke-linejoin:miter;stroke-opacity:1" d="M 258.359,225.906 267.13,223.275 z" id="boundary" inkscape:connector-curvature="0" />
	<path style="fill:none;stroke:red;stroke-width:1px;stroke-linecap:butt;stroke-linejoin:miter;stroke-opacity:1" d="M 260.113,954.776 268.884,956.531 z" id="boundary" inkscape:connector-curvature="0" />
	<path style="fill:none;stroke:red;stroke-width:1px;stroke-linecap:butt;stroke-linejoin:miter;stroke-opacity:1" d="M 267.13,15.4023 267.13,24.1733 z" id="boundary" inkscape:connector-curvature="0" />
	<path style="fill:none;stroke:red;stroke-width:1px;stroke-linecap:butt;stroke-linejoin:miter;stroke-opacity:1" d="M 267.13,15.4023 274.147,8.3855 z" id="boundary" inkscape:connector-curvature="0" />
	<path style="fill:none;stroke:red;stroke-width:1px;stroke-linecap:butt;stroke-linejoin:miter;stroke-opacity:1" d="M 267.13,24.1733 267.13,32.9443 z" id="boundary" inkscape:connector-curvature="0" />
	<path style="fill:none;stroke:red;stroke-width:1px;stroke-linecap:butt;stroke-linejoin:miter;stroke-opacity:1" d="M 267.13,32.9443 267.13,41.7153 z" id="boundary" inkscape:connector-curvature="0" />
	<path style="fill:none;stroke:red;stroke-width:1px;stroke-linecap:butt;stroke-linejoin:miter;stroke-opacity:1" d="M 267.13,41.7153 267.13,50.4863 z" id="boundary" inkscape:connector-curvature="0" />
	<path style="fill:none;stroke:red;stroke-width:1px;stroke-linecap:butt;stroke-linejoin:miter;stroke-opacity:1" d="M 267.13,50.4863 267.13,59.2573 z" id="boundary" inkscape:connector-curvature="0" />
	<path style="fill:none;stroke:red;stroke-width:1px;stroke-linecap:butt;stroke-linejoin:miter;stroke-opacity:1" d="M 267.13,59.2573 271.515,67.1512 z" id="boundary" inkscape:connector-curvature="0" />
	<path style="fill:none;stroke:red;stroke-width:1px;stroke-linecap:butt;stroke-linejoin:miter;stroke-opacity:1" d="M 267.13,223.275 275.024,218.889 z" id="boundary" inkscape:connector-curvature="0" />
	<path style="fill:none;stroke:red;stroke-width:1px;stroke-linecap:butt;stroke-linejoin:miter;stroke-opacity:1" d="M 268.884,956.531 276.778,960.916 z" id="boundary" inkscape:connector-curvature="0" />
	<path style="fill:none;stroke:red;stroke-width:1px;stroke-linecap:butt;stroke-linejoin:miter;stroke-opacity:1" d="M 271.515,67.1512 275.901,75.0451 z" id="boundary" inkscape:connector-curvature="0" />
	<path style="fill:none;stroke:red;stroke-width:1px;stroke-linecap:butt;stroke-linejoin:miter;stroke-opacity:1" d="M 274.147,8.3855 282.041,4 z" id="boundary" inkscape:connector-curvature="0" />
	<path style="fill:none;stroke:red;stroke-width:1px;stroke-linecap:butt;stroke-linejoin:miter;stroke-opacity:1" d="M 275.024,218.889 282.918,214.504 z" id="boundary" inkscape:connector-curvature="0" />
	<path style="fill:none;stroke:red;stroke-width:1px;stroke-linecap:butt;stroke-linejoin:miter;stroke-opacity:1" d="M 275.901,75.0451 278.532,83.8161 z" id="boundary" inkscape:connector-curvature="0" />
	<path style="fill:none;stroke:red;stroke-width:1px;stroke-linecap:butt;stroke-linejoin:miter;stroke-opacity:1" d="M 276.778,960.916 284.672,965.302 z" id="boundary" inkscape:connector-curvature="0" />
	<path style="fill:none;stroke:red;stroke-width:1px;stroke-linecap:butt;stroke-linejoin:miter;stroke-opacity:1" d="M 278.532,83.8161 285.549,89.9558 z" id="boundary" inkscape:connector-curvature="0" />
	<path style="fill:none;stroke:red;stroke-width:1px;stroke-linecap:butt;stroke-linejoin:miter;stroke-opacity:1" d="M 282.041,4 290.812,4 z" id="boundary" inkscape:connector-curvature="0" />
	<path style="fill:none;stroke:red;stroke-width:1px;stroke-linecap:butt;stroke-linejoin:miter;stroke-opacity:1" d="M 282.918,214.504 291.689,214.504 z" id="boundary" inkscape:connector-curvature="0" />
	<path style="fill:none;stroke:red;stroke-width:1px;stroke-linecap:butt;stroke-linejoin:miter;stroke-opacity:1" d="M 284.672,965.302 293.443,965.302 z" id="boundary" inkscape:connector-curvature="0" />
	<path style="fill:none;stroke:red;stroke-width:1px;stroke-linecap:butt;stroke-linejoin:miter;stroke-opacity:1" d="M 285.549,89.9558 289.057,98.7268 z" id="boundary" inkscape:connector-curvature="0" />
	<path style="fill:none;stroke:red;stroke-width:1px;stroke-linecap:butt;stroke-linejoin:miter;stroke-opacity:1" d="M 289.057,98.7268 293.443,106.621 z" id="boundary" inkscape:connector-curvature="0" />
	<path style="fill:none;stroke:red;stroke-width:1px;stroke-linecap:butt;stroke-linejoin:miter;stroke-opacity:1" d="M 290.812,4 299.583,4 z" id="boundary" inkscape:connector-curvature="0" />
	<path style="fill:none;stroke:red;stroke-width:1px;stroke-linecap:butt;stroke-linejoin:miter;stroke-opacity:1" d="M 291.689,214.504 299.583,210.118 z" id="boundary" inkscape:connector-curvature="0" />
	<path style="fill:none;stroke:red;stroke-width:1px;stroke-linecap:butt;stroke-linejoin:miter;stroke-opacity:1" d="M 293.443,106.621 299.583,113.637 z" id="boundary" inkscape:connector-curvature="0" />
	<path style="fill:none;stroke:red;stroke-width:1px;stroke-linecap:butt;stroke-linejoin:miter;stroke-opacity:1" d="M 293.443,965.302 301.337,969.687 z" id="boundary" inkscape:connector-curvature="0" />
	<path style="fill:none;stroke:red;stroke-width:1px;stroke-linecap:butt;stroke-linejoin:miter;stroke-opacity:1" d="M 299.583,4 307.477,8.3855 z" id="boundary" inkscape:connector-curvature="0" />
	<path style="fill:none;stroke:red;stroke-width:1px;stroke-linecap:butt;stroke-linejoin:miter;stroke-opacity:1" d="M 299.583,113.637 303.968,121.531 z" id="boundary" inkscape:connector-curvature="0" />
	<path style="fill:none;stroke:red;stroke-width:1px;stroke-linecap:butt;stroke-linejoin:miter;stroke-opacity:1" d="M 299.583,210.118 308.354,206.61 z" id="boundary" inkscape:connector-curvature="0" />
	<path style="fill:none;stroke:red;stroke-width:1px;stroke-linecap:butt;stroke-linejoin:miter;stroke-opacity:1" d="M 301.337,969.687 309.231,974.073 z" id="boundary" inkscape:connector-curvature="0" />
	<path style="fill:none;stroke:red;stroke-width:1px;stroke-linecap:butt;stroke-linejoin:miter;stroke-opacity:1" d="M 303.968,121.531 313.616,136.442 z" id="boundary" inkscape:connector-curvature="0" />
	<path style="fill:none;stroke:red;stroke-width:1px;stroke-linecap:butt;stroke-linejoin:miter;stroke-opacity:1" d="M 307.477,8.3855 315.37,12.771 z" id="boundary" inkscape:connector-curvature="0" />
	<path style="fill:none;stroke:red;stroke-width:1px;stroke-linecap:butt;stroke-linejoin:miter;stroke-opacity:1" d="M 308.354,206.61 317.125,205.733 z" id="boundary" inkscape:connector-curvature="0" />
	<path style="fill:none;stroke:red;stroke-width:1px;stroke-linecap:butt;stroke-linejoin:miter;stroke-opacity:1" d="M 309.231,974.073 318.002,974.073 z" id="boundary" inkscape:connector-curvature="0" />
	<path style="fill:none;stroke:red;stroke-width:1px;stroke-linecap:butt;stroke-linejoin:miter;stroke-opacity:1" d="M 313.616,136.442 318.002,144.336 z" id="boundary" inkscape:connector-curvature="0" />
	<path style="fill:none;stroke:red;stroke-width:1px;stroke-linecap:butt;stroke-linejoin:miter;stroke-opacity:1" d="M 315.37,12.771 324.141,14.5252 z" id="boundary" inkscape:connector-curvature="0" />
	<path style="fill:none;stroke:red;stroke-width:1px;stroke-linecap:butt;stroke-linejoin:miter;stroke-opacity:1" d="M 317.125,205.733 325.019,201.347 z" id="boundary" inkscape:connector-curvature="0" />
	<path style="fill:none;stroke:red;stroke-width:1px;stroke-linecap:butt;stroke-linejoin:miter;stroke-opacity:1" d="M 318.002,144.336 324.141,151.353 z" id="boundary" inkscape:connector-curvature="0" />
	<path style="fill:none;stroke:red;stroke-width:1px;stroke-linecap:butt;stroke-linejoin:miter;stroke-opacity:1" d="M 318.002,974.073 325.896,978.458 z" id="boundary" inkscape:connector-curvature="0" />
	<path style="fill:none;stroke:red;stroke-width:1px;stroke-linecap:butt;stroke-linejoin:miter;stroke-opacity:1" d="M 324.141,14.5252 332.035,18.9107 z" id="boundary" inkscape:connector-curvature="0" />
	<path style="fill:none;stroke:red;stroke-width:1px;stroke-linecap:butt;stroke-linejoin:miter;stroke-opacity:1" d="M 324.141,151.353 331.158,157.492 z" id="boundary" inkscape:connector-curvature="0" />
	<path style="fill:none;stroke:red;stroke-width:1px;stroke-linecap:butt;stroke-linejoin:miter;stroke-opacity:1" d="M 325.019,201.347 333.79,201.347 z" id="boundary" inkscape:connector-curvature="0" />
	<path style="fill:none;stroke:red;stroke-width:1px;stroke-linecap:butt;stroke-linejoin:miter;stroke-opacity:1" d="M 325.896,978.458 334.667,978.458 z" id="boundary" inkscape:connector-curvature="0" />
	<path style="fill:none;stroke:red;stroke-width:1px;stroke-linecap:butt;stroke-linejoin:miter;stroke-opacity:1" d="M 331.158,157.492 339.052,161.878 z" id="boundary" inkscape:connector-curvature="0" />
	<path style="fill:none;stroke:red;stroke-width:1px;stroke-linecap:butt;stroke-linejoin:miter;stroke-opacity:1" d="M 332.035,18.9107 340.806,22.4191 z" id="boundary" inkscape:connector-curvature="0" />
	<path style="fill:none;stroke:red;stroke-width:1px;stroke-linecap:butt;stroke-linejoin:miter;stroke-opacity:1" d="M 333.79,201.347 341.683,196.962 z" id="boundary" inkscape:connector-curvature="0" />
	<path style="fill:none;stroke:red;stroke-width:1px;stroke-linecap:butt;stroke-linejoin:miter;stroke-opacity:1" d="M 334.667,978.458 342.561,982.844 z" id="boundary" inkscape:connector-curvature="0" />
	<path style="fill:none;stroke:red;stroke-width:1px;stroke-linecap:butt;stroke-linejoin:miter;stroke-opacity:1" d="M 339.052,161.878 346.069,167.141 z" id="boundary" inkscape:connector-curvature="0" />
	<path style="fill:none;stroke:red;stroke-width:1px;stroke-linecap:butt;stroke-linejoin:miter;stroke-opacity:1" d="M 340.806,22.4191 346.946,29.4359 z" id="boundary" inkscape:connector-curvature="0" />
	<path style="fill:none;stroke:red;stroke-width:1px;stroke-linecap:butt;stroke-linejoin:miter;stroke-opacity:1" d="M 341.683,196.962 350.454,196.962 z" id="boundary" inkscape:connector-curvature="0" />
	<path style="fill:none;stroke:red;stroke-width:1px;stroke-linecap:butt;stroke-linejoin:miter;stroke-opacity:1" d="M 342.561,982.844 351.332,982.844 z" id="boundary" inkscape:connector-curvature="0" />
	<path style="fill:none;stroke:red;stroke-width:1px;stroke-linecap:butt;stroke-linejoin:miter;stroke-opacity:1" d="M 346.069,167.141 353.963,171.526 z" id="boundary" inkscape:connector-curvature="0" />
	<path style="fill:none;stroke:red;stroke-width:1px;stroke-linecap:butt;stroke-linejoin:miter;stroke-opacity:1" d="M 346.946,29.4359 355.717,32.9443 z" id="boundary" inkscape:connector-curvature="0" />
	<path style="fill:none;stroke:red;stroke-width:1px;stroke-linecap:butt;stroke-linejoin:miter;stroke-opacity:1" d="M 350.454,196.962 358.348,192.576 z" id="boundary" inkscape:connector-curvature="0" />
	<path style="fill:none;stroke:red;stroke-width:1px;stroke-linecap:butt;stroke-linejoin:miter;stroke-opacity:1" d="M 351.332,982.844 359.225,987.229 z" id="boundary" inkscape:connector-curvature="0" />
	<path style="fill:none;stroke:red;stroke-width:1px;stroke-linecap:butt;stroke-linejoin:miter;stroke-opacity:1" d="M 353.963,171.526 360.103,178.543 z" id="boundary" inkscape:connector-curvature="0" />
	<path style="fill:none;stroke:red;stroke-width:1px;stroke-linecap:butt;stroke-linejoin:miter;stroke-opacity:1" d="M 355.717,32.9443 362.734,39.084 z" id="boundary" inkscape:connector-curvature="0" />
	<path style="fill:none;stroke:red;stroke-width:1px;stroke-linecap:butt;stroke-linejoin:miter;stroke-opacity:1" d="M 358.348,192.576 367.119,192.576 z" id="boundary" inkscape:connector-curvature="0" />
	<path style="fill:none;stroke:red;stroke-width:1px;stroke-linecap:butt;stroke-linejoin:miter;stroke-opacity:1" d="M 359.225,987.229 367.996,987.229 z" id="boundary" inkscape:connector-curvature="0" />
	<path style="fill:none;stroke:red;stroke-width:1px;stroke-linecap:butt;stroke-linejoin:miter;stroke-opacity:1" d="M 360.103,178.543 368.874,180.297 z" id="boundary" inkscape:connector-curvature="0" />
	<path style="fill:none;stroke:red;stroke-width:1px;stroke-linecap:butt;stroke-linejoin:miter;stroke-opacity:1" d="M 362.734,39.084 370.628,43.4695 z" id="boundary" inkscape:connector-curvature="0" />
	<path style="fill:none;stroke:red;stroke-width:1px;stroke-linecap:butt;stroke-linejoin:miter;stroke-opacity:1" d="M 367.119,192.576 375.89,192.576 z" id="boundary" inkscape:connector-curvature="0" />
	<path style="fill:none;stroke:red;stroke-width:1px;stroke-linecap:butt;stroke-linejoin:miter;stroke-opacity:1" d="M 367.996,987.229 376.767,987.229 z" id="boundary" inkscape:connector-curvature="0" />
	<path style="fill:none;stroke:red;stroke-width:1px;stroke-linecap:butt;stroke-linejoin:miter;stroke-opacity:1" d="M 368.874,180.297 375.89,192.576 z" id="boundary" inkscape:connector-curvature="0" />
	<path style="fill:none;stroke:red;stroke-width:1px;stroke-linecap:butt;stroke-linejoin:miter;stroke-opacity:1" d="M 370.628,43.4695 376.767,50.4863 z" id="boundary" inkscape:connector-curvature="0" />
	<path style="fill:none;stroke:red;stroke-width:1px;stroke-linecap:butt;stroke-linejoin:miter;stroke-opacity:1" d="M 376.767,50.4863 389.924,63.6428 z" id="boundary" inkscape:connector-curvature="0" />
	<path style="fill:none;stroke:red;stroke-width:1px;stroke-linecap:butt;stroke-linejoin:miter;stroke-opacity:1" d="M 376.767,987.229 384.661,991.615 z" id="boundary" inkscape:connector-curvature="0" />
	<path style="fill:none;stroke:red;stroke-width:1px;stroke-linecap:butt;stroke-linejoin:miter;stroke-opacity:1" d="M 384.661,991.615 393.432,991.615 z" id="boundary" inkscape:connector-curvature="0" />
	<path style="fill:none;stroke:red;stroke-width:1px;stroke-linecap:butt;stroke-linejoin:miter;stroke-opacity:1" d="M 389.924,63.6428 396.941,69.7825 z" id="boundary" inkscape:connector-curvature="0" />
	<path style="fill:none;stroke:red;stroke-width:1px;stroke-linecap:butt;stroke-linejoin:miter;stroke-opacity:1" d="M 393.432,991.615 402.203,991.615 z" id="boundary" inkscape:connector-curvature="0" />
	<path style="fill:none;stroke:red;stroke-width:1px;stroke-linecap:butt;stroke-linejoin:miter;stroke-opacity:1" d="M 396.941,69.7825 404.835,74.168 z" id="boundary" inkscape:connector-curvature="0" />
	<path style="fill:none;stroke:red;stroke-width:1px;stroke-linecap:butt;stroke-linejoin:miter;stroke-opacity:1" d="M 402.203,991.615 410.974,991.615 z" id="boundary" inkscape:connector-curvature="0" />
	<path style="fill:none;stroke:red;stroke-width:1px;stroke-linecap:butt;stroke-linejoin:miter;stroke-opacity:1" d="M 404.835,74.168 411.851,80.3077 z" id="boundary" inkscape:connector-curvature="0" />
	<path style="fill:none;stroke:red;stroke-width:1px;stroke-linecap:butt;stroke-linejoin:miter;stroke-opacity:1" d="M 410.974,991.615 418.868,996 z" id="boundary" inkscape:connector-curvature="0" />
	<path style="fill:none;stroke:red;stroke-width:1px;stroke-linecap:butt;stroke-linejoin:miter;stroke-opacity:1" d="M 411.851,80.3077 421.5,95.2184 z" id="boundary" inkscape:connector-curvature="0" />
	<path style="fill:none;stroke:red;stroke-width:1px;stroke-linecap:butt;stroke-linejoin:miter;stroke-opacity:1" d="M 418.868,996 427.639,996 z" id="boundary" inkscape:connector-curvature="0" />
	<path style="fill:none;stroke:red;stroke-width:1px;stroke-linecap:butt;stroke-linejoin:miter;stroke-opacity:1" d="M 421.5,95.2184 425.885,103.112 z" id="boundary" inkscape:connector-curvature="0" />
	<path style="fill:none;stroke:red;stroke-width:1px;stroke-linecap:butt;stroke-linejoin:miter;stroke-opacity:1" d="M 425.885,103.112 432.025,110.129 z" id="boundary" inkscape:connector-curvature="0" />
	<path style="fill:none;stroke:red;stroke-width:1px;stroke-linecap:butt;stroke-linejoin:miter;stroke-opacity:1" d="M 427.639,996 436.41,996 z" id="boundary" inkscape:connector-curvature="0" />
	<path style="fill:none;stroke:red;stroke-width:1px;stroke-linecap:butt;stroke-linejoin:miter;stroke-opacity:1" d="M 432.025,110.129 439.042,125.04 z" id="boundary" inkscape:connector-curvature="0" />
	<path style="fill:none;stroke:red;stroke-width:1px;stroke-linecap:butt;stroke-linejoin:miter;stroke-opacity:1" d="M 436.41,996 445.181,996 z" id="boundary" inkscape:connector-curvature="0" />
	<path style="fill:none;stroke:red;stroke-width:1px;stroke-linecap:butt;stroke-linejoin:miter;stroke-opacity:1" d="M 439.042,125.04 443.427,132.934 z" id="boundary" inkscape:connector-curvature="0" />
	<path style="fill:none;stroke:red;stroke-width:1px;stroke-linecap:butt;stroke-linejoin:miter;stroke-opacity:1" d="M 443.427,132.934 456.584,137.319 z" id="boundary" inkscape:connector-curvature="0" />
	<path style="fill:none;stroke:red;stroke-width:1px;stroke-linecap:butt;stroke-linejoin:miter;stroke-opacity:1" d="M 443.427,141.705 443.427,150.476 z" id="boundary" inkscape:connector-curvature="0" />
	<path style="fill:none;stroke:red;stroke-width:1px;stroke-linecap:butt;stroke-linejoin:miter;stroke-opacity:1" d="M 443.427,141.705 452.198,146.09 z" id="boundary" inkscape:connector-curvature="0" />
	<path style="fill:none;stroke:red;stroke-width:1px;stroke-linecap:butt;stroke-linejoin:miter;stroke-opacity:1" d="M 443.427,150.476 443.427,159.247 z" id="boundary" inkscape:connector-curvature="0" />
	<path style="fill:none;stroke:red;stroke-width:1px;stroke-linecap:butt;stroke-linejoin:miter;stroke-opacity:1" d="M 443.427,159.247 451.321,154.861 z" id="boundary" inkscape:connector-curvature="0" />
	<path style="fill:none;stroke:red;stroke-width:1px;stroke-linecap:butt;stroke-linejoin:miter;stroke-opacity:1" d="M 445.181,996 453.952,996 z" id="boundary" inkscape:connector-curvature="0" />
	<path style="fill:none;stroke:red;stroke-width:1px;stroke-linecap:butt;stroke-linejoin:miter;stroke-opacity:1" d="M 451.321,154.861 452.198,146.09 z" id="boundary" inkscape:connector-curvature="0" />
	<path style="fill:none;stroke:red;stroke-width:1px;stroke-linecap:butt;stroke-linejoin:miter;stroke-opacity:1" d="M 453.952,996 462.723,996 z" id="boundary" inkscape:connector-curvature="0" />
	<path style="fill:none;stroke:red;stroke-width:1px;stroke-linecap:butt;stroke-linejoin:miter;stroke-opacity:1" d="M 456.584,137.319 463.6,131.179 z" id="boundary" inkscape:connector-curvature="0" />
	<path style="fill:none;stroke:red;stroke-width:1px;stroke-linecap:butt;stroke-linejoin:miter;stroke-opacity:1" d="M 462.723,996 471.494,996 z" id="boundary" inkscape:connector-curvature="0" />
	<path style="fill:none;stroke:red;stroke-width:1px;stroke-linecap:butt;stroke-linejoin:miter;stroke-opacity:1" d="M 463.6,131.179 467.109,122.408 z" id="boundary" inkscape:connector-curvature="0" />
	<path style="fill:none;stroke:red;stroke-width:1px;stroke-linecap:butt;stroke-linejoin:miter;stroke-opacity:1" d="M 467.109,122.408 471.494,113.637 z" id="boundary" inkscape:connector-curvature="0" />
	<path style="fill:none;stroke:red;stroke-width:1px;stroke-linecap:butt;stroke-linejoin:miter;stroke-opacity:1" d="M 471.494,113.637 473.248,103.112 z" id="boundary" inkscape:connector-curvature="0" />
	<path style="fill:none;stroke:red;stroke-width:1px;stroke-linecap:butt;stroke-linejoin:miter;stroke-opacity:1" d="M 471.494,996 480.265,996 z" id="boundary" inkscape:connector-curvature="0" />
	<path style="fill:none;stroke:red;stroke-width:1px;stroke-linecap:butt;stroke-linejoin:miter;stroke-opacity:1" d="M 473.248,103.112 480.265,96.0955 z" id="boundary" inkscape:connector-curvature="0" />
	<path style="fill:none;stroke:red;stroke-width:1px;stroke-linecap:butt;stroke-linejoin:miter;stroke-opacity:1" d="M 480.265,96.0955 487.282,89.0787 z" id="boundary" inkscape:connector-curvature="0" />
	<path style="fill:none;stroke:red;stroke-width:1px;stroke-linecap:butt;stroke-linejoin:miter;stroke-opacity:1" d="M 480.265,996 489.036,996 z" id="boundary" inkscape:connector-curvature="0" />
	<path style="fill:none;stroke:red;stroke-width:1px;stroke-linecap:butt;stroke-linejoin:miter;stroke-opacity:1" d="M 487.282,89.0787 491.668,80.3077 z" id="boundary" inkscape:connector-curvature="0" />
	<path style="fill:none;stroke:red;stroke-width:1px;stroke-linecap:butt;stroke-linejoin:miter;stroke-opacity:1" d="M 487.282,158.37 487.282,167.141 z" id="boundary" inkscape:connector-curvature="0" />
	<path style="fill:none;stroke:red;stroke-width:1px;stroke-linecap:butt;stroke-linejoin:miter;stroke-opacity:1" d="M 487.282,158.37 491.668,145.213 z" id="boundary" inkscape:connector-curvature="0" />
	<path style="fill:none;stroke:red;stroke-width:1px;stroke-linecap:butt;stroke-linejoin:miter;stroke-opacity:1" d="M 487.282,167.141 487.282,175.912 z" id="boundary" inkscape:connector-curvature="0" />
	<path style="fill:none;stroke:red;stroke-width:1px;stroke-linecap:butt;stroke-linejoin:miter;stroke-opacity:1" d="M 487.282,175.912 491.668,183.805 z" id="boundary" inkscape:connector-curvature="0" />
	<path style="fill:none;stroke:red;stroke-width:1px;stroke-linecap:butt;stroke-linejoin:miter;stroke-opacity:1" d="M 489.036,996 497.807,996 z" id="boundary" inkscape:connector-curvature="0" />
	<path style="fill:none;stroke:red;stroke-width:1px;stroke-linecap:butt;stroke-linejoin:miter;stroke-opacity:1" d="M 491.668,80.3077 498.684,74.168 z" id="boundary" inkscape:connector-curvature="0" />
	<path style="fill:none;stroke:red;stroke-width:1px;stroke-linecap:butt;stroke-linejoin:miter;stroke-opacity:1" d="M 491.668,136.442 491.668,145.213 z" id="boundary" inkscape:connector-curvature="0" />
	<path style="fill:none;stroke:red;stroke-width:1px;stroke-linecap:butt;stroke-linejoin:miter;stroke-opacity:1" d="M 491.668,136.442 496.053,123.286 z" id="boundary" inkscape:connector-curvature="0" />
	<path style="fill:none;stroke:red;stroke-width:1px;stroke-linecap:butt;stroke-linejoin:miter;stroke-opacity:1" d="M 491.668,183.805 500.439,183.805 z" id="boundary" inkscape:connector-curvature="0" />
	<path style="fill:none;stroke:red;stroke-width:1px;stroke-linecap:butt;stroke-linejoin:miter;stroke-opacity:1" d="M 496.053,123.286 503.07,117.146 z" id="boundary" inkscape:connector-curvature="0" />
	<path style="fill:none;stroke:red;stroke-width:1px;stroke-linecap:butt;stroke-linejoin:miter;stroke-opacity:1" d="M 497.807,996 506.578,995.123 z" id="boundary" inkscape:connector-curvature="0" />
	<path style="fill:none;stroke:red;stroke-width:1px;stroke-linecap:butt;stroke-linejoin:miter;stroke-opacity:1" d="M 498.684,74.168 506.578,69.7825 z" id="boundary" inkscape:connector-curvature="0" />
	<path style="fill:none;stroke:red;stroke-width:1px;stroke-linecap:butt;stroke-linejoin:miter;stroke-opacity:1" d="M 500.439,183.805 509.21,186.437 z" id="boundary" inkscape:connector-curvature="0" />
	<path style="fill:none;stroke:red;stroke-width:1px;stroke-linecap:butt;stroke-linejoin:miter;stroke-opacity:1" d="M 503.07,117.146 507.455,108.375 z" id="boundary" inkscape:connector-curvature="0" />
	<path style="fill:none;stroke:red;stroke-width:1px;stroke-linecap:butt;stroke-linejoin:miter;stroke-opacity:1" d="M 506.578,69.7825 513.595,62.7657 z" id="boundary" inkscape:connector-curvature="0" />
	<path style="fill:none;stroke:red;stroke-width:1px;stroke-linecap:butt;stroke-linejoin:miter;stroke-opacity:1" d="M 506.578,995.123 515.349,991.615 z" id="boundary" inkscape:connector-curvature="0" />
	<path style="fill:none;stroke:red;stroke-width:1px;stroke-linecap:butt;stroke-linejoin:miter;stroke-opacity:1" d="M 507.455,108.375 513.595,101.358 z" id="boundary" inkscape:connector-curvature="0" />
	<path style="fill:none;stroke:red;stroke-width:1px;stroke-linecap:butt;stroke-linejoin:miter;stroke-opacity:1" d="M 509.21,186.437 517.981,188.191 z" id="boundary" inkscape:connector-curvature="0" />
	<path style="fill:none;stroke:red;stroke-width:1px;stroke-linecap:butt;stroke-linejoin:miter;stroke-opacity:1" d="M 513.595,62.7657 522.366,58.3802 z" id="boundary" inkscape:connector-curvature="0" />
	<path style="fill:none;stroke:red;stroke-width:1px;stroke-linecap:butt;stroke-linejoin:miter;stroke-opacity:1" d="M 513.595,101.358 517.981,92.5871 z" id="boundary" inkscape:connector-curvature="0" />
	<path style="fill:none;stroke:red;stroke-width:1px;stroke-linecap:butt;stroke-linejoin:miter;stroke-opacity:1" d="M 515.349,991.615 524.12,991.615 z" id="boundary" inkscape:connector-curvature="0" />
	<path style="fill:none;stroke:red;stroke-width:1px;stroke-linecap:butt;stroke-linejoin:miter;stroke-opacity:1" d="M 517.981,92.5871 524.997,86.4474 z" id="boundary" inkscape:connector-curvature="0" />
	<path style="fill:none;stroke:red;stroke-width:1px;stroke-linecap:butt;stroke-linejoin:miter;stroke-opacity:1" d="M 517.981,188.191 526.752,188.191 z" id="boundary" inkscape:connector-curvature="0" />
	<path style="fill:none;stroke:red;stroke-width:1px;stroke-linecap:butt;stroke-linejoin:miter;stroke-opacity:1" d="M 522.366,58.3802 531.137,53.9947 z" id="boundary" inkscape:connector-curvature="0" />
	<path style="fill:none;stroke:red;stroke-width:1px;stroke-linecap:butt;stroke-linejoin:miter;stroke-opacity:1" d="M 524.12,991.615 532.891,991.615 z" id="boundary" inkscape:connector-curvature="0" />
	<path style="fill:none;stroke:red;stroke-width:1px;stroke-linecap:butt;stroke-linejoin:miter;stroke-opacity:1" d="M 524.997,86.4474 533.768,82.0619 z" id="boundary" inkscape:connector-curvature="0" />
	<path style="fill:none;stroke:red;stroke-width:1px;stroke-linecap:butt;stroke-linejoin:miter;stroke-opacity:1" d="M 526.752,188.191 535.523,188.191 z" id="boundary" inkscape:connector-curvature="0" />
	<path style="fill:none;stroke:red;stroke-width:1px;stroke-linecap:butt;stroke-linejoin:miter;stroke-opacity:1" d="M 531.137,53.9947 539.908,52.2405 z" id="boundary" inkscape:connector-curvature="0" />
	<path style="fill:none;stroke:red;stroke-width:1px;stroke-linecap:butt;stroke-linejoin:miter;stroke-opacity:1" d="M 532.891,991.615 541.662,990.737 z" id="boundary" inkscape:connector-curvature="0" />
	<path style="fill:none;stroke:red;stroke-width:1px;stroke-linecap:butt;stroke-linejoin:miter;stroke-opacity:1" d="M 533.768,82.0619 539.031,75.0451 z" id="boundary" inkscape:connector-curvature="0" />
	<path style="fill:none;stroke:red;stroke-width:1px;stroke-linecap:butt;stroke-linejoin:miter;stroke-opacity:1" d="M 535.523,188.191 544.294,190.822 z" id="boundary" inkscape:connector-curvature="0" />
	<path style="fill:none;stroke:red;stroke-width:1px;stroke-linecap:butt;stroke-linejoin:miter;stroke-opacity:1" d="M 539.031,75.0451 554.819,65.397 z" id="boundary" inkscape:connector-curvature="0" />
	<path style="fill:none;stroke:red;stroke-width:1px;stroke-linecap:butt;stroke-linejoin:miter;stroke-opacity:1" d="M 539.908,52.2405 547.802,47.855 z" id="boundary" inkscape:connector-curvature="0" />
	<path style="fill:none;stroke:red;stroke-width:1px;stroke-linecap:butt;stroke-linejoin:miter;stroke-opacity:1" d="M 541.662,990.737 550.433,987.229 z" id="boundary" inkscape:connector-curvature="0" />
	<path style="fill:none;stroke:red;stroke-width:1px;stroke-linecap:butt;stroke-linejoin:miter;stroke-opacity:1" d="M 544.294,190.822 553.065,192.576 z" id="boundary" inkscape:connector-curvature="0" />
	<path style="fill:none;stroke:red;stroke-width:1px;stroke-linecap:butt;stroke-linejoin:miter;stroke-opacity:1" d="M 547.802,47.855 555.696,43.4695 z" id="boundary" inkscape:connector-curvature="0" />
	<path style="fill:none;stroke:red;stroke-width:1px;stroke-linecap:butt;stroke-linejoin:miter;stroke-opacity:1" d="M 550.433,987.229 559.204,987.229 z" id="boundary" inkscape:connector-curvature="0" />
	<path style="fill:none;stroke:red;stroke-width:1px;stroke-linecap:butt;stroke-linejoin:miter;stroke-opacity:1" d="M 553.065,192.576 561.836,192.576 z" id="boundary" inkscape:connector-curvature="0" />
	<path style="fill:none;stroke:red;stroke-width:1px;stroke-linecap:butt;stroke-linejoin:miter;stroke-opacity:1" d="M 554.819,65.397 563.59,61.8886 z" id="boundary" inkscape:connector-curvature="0" />
	<path style="fill:none;stroke:red;stroke-width:1px;stroke-linecap:butt;stroke-linejoin:miter;stroke-opacity:1" d="M 555.696,43.4695 564.467,43.4695 z" id="boundary" inkscape:connector-curvature="0" />
	<path style="fill:none;stroke:red;stroke-width:1px;stroke-linecap:butt;stroke-linejoin:miter;stroke-opacity:1" d="M 559.204,987.229 567.975,986.352 z" id="boundary" inkscape:connector-curvature="0" />
	<path style="fill:none;stroke:red;stroke-width:1px;stroke-linecap:butt;stroke-linejoin:miter;stroke-opacity:1" d="M 561.836,192.576 570.607,195.208 z" id="boundary" inkscape:connector-curvature="0" />
	<path style="fill:none;stroke:red;stroke-width:1px;stroke-linecap:butt;stroke-linejoin:miter;stroke-opacity:1" d="M 563.59,61.8886 571.484,57.5031 z" id="boundary" inkscape:connector-curvature="0" />
	<path style="fill:none;stroke:red;stroke-width:1px;stroke-linecap:butt;stroke-linejoin:miter;stroke-opacity:1" d="M 564.467,43.4695 573.238,43.4695 z" id="boundary" inkscape:connector-curvature="0" />
	<path style="fill:none;stroke:red;stroke-width:1px;stroke-linecap:butt;stroke-linejoin:miter;stroke-opacity:1" d="M 567.975,986.352 576.746,982.844 z" id="boundary" inkscape:connector-curvature="0" />
	<path style="fill:none;stroke:red;stroke-width:1px;stroke-linecap:butt;stroke-linejoin:miter;stroke-opacity:1" d="M 570.607,195.208 579.378,196.962 z" id="boundary" inkscape:connector-curvature="0" />
	<path style="fill:none;stroke:red;stroke-width:1px;stroke-linecap:butt;stroke-linejoin:miter;stroke-opacity:1" d="M 571.484,57.5031 580.255,57.5031 z" id="boundary" inkscape:connector-curvature="0" />
	<path style="fill:none;stroke:red;stroke-width:1px;stroke-linecap:butt;stroke-linejoin:miter;stroke-opacity:1" d="M 573.238,43.4695 582.009,43.4695 z" id="boundary" inkscape:connector-curvature="0" />
	<path style="fill:none;stroke:red;stroke-width:1px;stroke-linecap:butt;stroke-linejoin:miter;stroke-opacity:1" d="M 576.746,982.844 585.517,981.966 z" id="boundary" inkscape:connector-curvature="0" />
	<path style="fill:none;stroke:red;stroke-width:1px;stroke-linecap:butt;stroke-linejoin:miter;stroke-opacity:1" d="M 579.378,196.962 588.149,199.593 z" id="boundary" inkscape:connector-curvature="0" />
	<path style="fill:none;stroke:red;stroke-width:1px;stroke-linecap:butt;stroke-linejoin:miter;stroke-opacity:1" d="M 580.255,57.5031 588.149,53.1176 z" id="boundary" inkscape:connector-curvature="0" />
	<path style="fill:none;stroke:red;stroke-width:1px;stroke-linecap:butt;stroke-linejoin:miter;stroke-opacity:1" d="M 582.009,43.4695 590.78,43.4695 z" id="boundary" inkscape:connector-curvature="0" />
	<path style="fill:none;stroke:red;stroke-width:1px;stroke-linecap:butt;stroke-linejoin:miter;stroke-opacity:1" d="M 585.517,981.966 594.288,978.458 z" id="boundary" inkscape:connector-curvature="0" />
	<path style="fill:none;stroke:red;stroke-width:1px;stroke-linecap:butt;stroke-linejoin:miter;stroke-opacity:1" d="M 588.149,53.1176 596.92,53.1176 z" id="boundary" inkscape:connector-curvature="0" />
	<path style="fill:none;stroke:red;stroke-width:1px;stroke-linecap:butt;stroke-linejoin:miter;stroke-opacity:1" d="M 588.149,199.593 596.92,201.347 z" id="boundary" inkscape:connector-curvature="0" />
	<path style="fill:none;stroke:red;stroke-width:1px;stroke-linecap:butt;stroke-linejoin:miter;stroke-opacity:1" d="M 590.78,43.4695 599.551,43.4695 z" id="boundary" inkscape:connector-curvature="0" />
	<path style="fill:none;stroke:red;stroke-width:1px;stroke-linecap:butt;stroke-linejoin:miter;stroke-opacity:1" d="M 594.288,978.458 603.059,977.581 z" id="boundary" inkscape:connector-curvature="0" />
	<path style="fill:none;stroke:red;stroke-width:1px;stroke-linecap:butt;stroke-linejoin:miter;stroke-opacity:1" d="M 596.92,53.1176 605.691,50.4863 z" id="boundary" inkscape:connector-curvature="0" />
	<path style="fill:none;stroke:red;stroke-width:1px;stroke-linecap:butt;stroke-linejoin:miter;stroke-opacity:1" d="M 596.92,201.347 605.691,203.979 z" id="boundary" inkscape:connector-curvature="0" />
	<path style="fill:none;stroke:red;stroke-width:1px;stroke-linecap:butt;stroke-linejoin:miter;stroke-opacity:1" d="M 599.551,43.4695 610.953,43.4695 z" id="boundary" inkscape:connector-curvature="0" />
	<path style="fill:none;stroke:red;stroke-width:1px;stroke-linecap:butt;stroke-linejoin:miter;stroke-opacity:1" d="M 603.059,977.581 611.83,974.073 z" id="boundary" inkscape:connector-curvature="0" />
	<path style="fill:none;stroke:red;stroke-width:1px;stroke-linecap:butt;stroke-linejoin:miter;stroke-opacity:1" d="M 605.691,50.4863 610.953,43.4695 z" id="boundary" inkscape:connector-curvature="0" />
	<path style="fill:none;stroke:red;stroke-width:1px;stroke-linecap:butt;stroke-linejoin:miter;stroke-opacity:1" d="M 605.691,203.979 614.462,205.733 z" id="boundary" inkscape:connector-curvature="0" />
	<path style="fill:none;stroke:red;stroke-width:1px;stroke-linecap:butt;stroke-linejoin:miter;stroke-opacity:1" d="M 611.83,974.073 619.724,969.687 z" id="boundary" inkscape:connector-curvature="0" />
	<path style="fill:none;stroke:red;stroke-width:1px;stroke-linecap:butt;stroke-linejoin:miter;stroke-opacity:1" d="M 614.462,205.733 622.355,210.118 z" id="boundary" inkscape:connector-curvature="0" />
	<path style="fill:none;stroke:red;stroke-width:1px;stroke-linecap:butt;stroke-linejoin:miter;stroke-opacity:1" d="M 619.724,969.687 628.495,969.687 z" id="boundary" inkscape:connector-curvature="0" />
	<path style="fill:none;stroke:red;stroke-width:1px;stroke-linecap:butt;stroke-linejoin:miter;stroke-opacity:1" d="M 622.355,210.118 631.126,211.873 z" id="boundary" inkscape:connector-curvature="0" />
	<path style="fill:none;stroke:red;stroke-width:1px;stroke-linecap:butt;stroke-linejoin:miter;stroke-opacity:1" d="M 628.495,969.687 636.389,965.302 z" id="boundary" inkscape:connector-curvature="0" />
	<path style="fill:none;stroke:red;stroke-width:1px;stroke-linecap:butt;stroke-linejoin:miter;stroke-opacity:1" d="M 631.126,211.873 639.897,214.504 z" id="boundary" inkscape:connector-curvature="0" />
	<path style="fill:none;stroke:red;stroke-width:1px;stroke-linecap:butt;stroke-linejoin:miter;stroke-opacity:1" d="M 636.389,965.302 645.16,960.916 z" id="boundary" inkscape:connector-curvature="0" />
	<path style="fill:none;stroke:red;stroke-width:1px;stroke-linecap:butt;stroke-linejoin:miter;stroke-opacity:1" d="M 639.897,214.504 647.791,218.889 z" id="boundary" inkscape:connector-curvature="0" />
	<path style="fill:none;stroke:red;stroke-width:1px;stroke-linecap:butt;stroke-linejoin:miter;stroke-opacity:1" d="M 645.16,960.916 653.931,956.531 z" id="boundary" inkscape:connector-curvature="0" />
	<path style="fill:none;stroke:red;stroke-width:1px;stroke-linecap:butt;stroke-linejoin:miter;stroke-opacity:1" d="M 647.791,218.889 655.685,223.275 z" id="boundary" inkscape:connector-curvature="0" />
	<path style="fill:none;stroke:red;stroke-width:1px;stroke-linecap:butt;stroke-linejoin:miter;stroke-opacity:1" d="M 653.931,956.531 662.702,956.531 z" id="boundary" inkscape:connector-curvature="0" />
	<path style="fill:none;stroke:red;stroke-width:1px;stroke-linecap:butt;stroke-linejoin:miter;stroke-opacity:1" d="M 655.685,223.275 664.456,223.275 z" id="boundary" inkscape:connector-curvature="0" />
	<path style="fill:none;stroke:red;stroke-width:1px;stroke-linecap:butt;stroke-linejoin:miter;stroke-opacity:1" d="M 662.702,956.531 670.596,952.145 z" id="boundary" inkscape:connector-curvature="0" />
	<path style="fill:none;stroke:red;stroke-width:1px;stroke-linecap:butt;stroke-linejoin:miter;stroke-opacity:1" d="M 664.456,223.275 672.35,227.66 z" id="boundary" inkscape:connector-curvature="0" />
	<path style="fill:none;stroke:red;stroke-width:1px;stroke-linecap:butt;stroke-linejoin:miter;stroke-opacity:1" d="M 670.596,952.145 678.49,947.76 z" id="boundary" inkscape:connector-curvature="0" />
	<path style="fill:none;stroke:red;stroke-width:1px;stroke-linecap:butt;stroke-linejoin:miter;stroke-opacity:1" d="M 672.35,227.66 680.244,232.046 z" id="boundary" inkscape:connector-curvature="0" />
	<path style="fill:none;stroke:red;stroke-width:1px;stroke-linecap:butt;stroke-linejoin:miter;stroke-opacity:1" d="M 678.49,947.76 686.384,943.374 z" id="boundary" inkscape:connector-curvature="0" />
	<path style="fill:none;stroke:red;stroke-width:1px;stroke-linecap:butt;stroke-linejoin:miter;stroke-opacity:1" d="M 680.244,232.046 688.138,236.431 z" id="boundary" inkscape:connector-curvature="0" />
	<path style="fill:none;stroke:red;stroke-width:1px;stroke-linecap:butt;stroke-linejoin:miter;stroke-opacity:1" d="M 686.384,943.374 694.278,938.989 z" id="boundary" inkscape:connector-curvature="0" />
	<path style="fill:none;stroke:red;stroke-width:1px;stroke-linecap:butt;stroke-linejoin:miter;stroke-opacity:1" d="M 688.138,236.431 696.032,240.817 z" id="boundary" inkscape:connector-curvature="0" />
	<path style="fill:none;stroke:red;stroke-width:1px;stroke-linecap:butt;stroke-linejoin:miter;stroke-opacity:1" d="M 694.278,938.989 702.172,934.603 z" id="boundary" inkscape:connector-curvature="0" />
	<path style="fill:none;stroke:red;stroke-width:1px;stroke-linecap:butt;stroke-linejoin:miter;stroke-opacity:1" d="M 696.032,240.817 703.926,245.202 z" id="boundary" inkscape:connector-curvature="0" />
	<path style="fill:none;stroke:red;stroke-width:1px;stroke-linecap:butt;stroke-linejoin:miter;stroke-opacity:1" d="M 702.172,934.603 710.943,930.218 z" id="boundary" inkscape:connector-curvature="0" />
	<path style="fill:none;stroke:red;stroke-width:1px;stroke-linecap:butt;stroke-linejoin:miter;stroke-opacity:1" d="M 703.926,245.202 711.82,249.588 z" id="boundary" inkscape:connector-curvature="0" />
	<path style="fill:none;stroke:red;stroke-width:1px;stroke-linecap:butt;stroke-linejoin:miter;stroke-opacity:1" d="M 710.943,930.218 718.836,925.832 z" id="boundary" inkscape:connector-curvature="0" />
	<path style="fill:none;stroke:red;stroke-width:1px;stroke-linecap:butt;stroke-linejoin:miter;stroke-opacity:1" d="M 711.82,249.588 719.714,253.973 z" id="boundary" inkscape:connector-curvature="0" />
	<path style="fill:none;stroke:red;stroke-width:1px;stroke-linecap:butt;stroke-linejoin:miter;stroke-opacity:1" d="M 718.836,925.832 726.73,921.447 z" id="boundary" inkscape:connector-curvature="0" />
	<path style="fill:none;stroke:red;stroke-width:1px;stroke-linecap:butt;stroke-linejoin:miter;stroke-opacity:1" d="M 719.714,253.973 727.607,258.359 z" id="boundary" inkscape:connector-curvature="0" />
	<path style="fill:none;stroke:red;stroke-width:1px;stroke-linecap:butt;stroke-linejoin:miter;stroke-opacity:1" d="M 726.73,921.447 734.624,916.184 z" id="boundary" inkscape:connector-curvature="0" />
	<path style="fill:none;stroke:red;stroke-width:1px;stroke-linecap:butt;stroke-linejoin:miter;stroke-opacity:1" d="M 727.607,258.359 743.395,267.13 z" id="boundary" inkscape:connector-curvature="0" />
	<path style="fill:none;stroke:red;stroke-width:1px;stroke-linecap:butt;stroke-linejoin:miter;stroke-opacity:1" d="M 734.624,916.184 743.395,911.798 z" id="boundary" inkscape:connector-curvature="0" />
	<path style="fill:none;stroke:red;stroke-width:1px;stroke-linecap:butt;stroke-linejoin:miter;stroke-opacity:1" d="M 743.395,267.13 749.535,274.147 z" id="boundary" inkscape:connector-curvature="0" />
	<path style="fill:none;stroke:red;stroke-width:1px;stroke-linecap:butt;stroke-linejoin:miter;stroke-opacity:1" d="M 743.395,911.798 750.412,903.905 z" id="boundary" inkscape:connector-curvature="0" />
	<path style="fill:none;stroke:red;stroke-width:1px;stroke-linecap:butt;stroke-linejoin:miter;stroke-opacity:1" d="M 749.535,274.147 756.552,280.286 z" id="boundary" inkscape:connector-curvature="0" />
	<path style="fill:none;stroke:red;stroke-width:1px;stroke-linecap:butt;stroke-linejoin:miter;stroke-opacity:1" d="M 750.412,903.905 758.306,899.519 z" id="boundary" inkscape:connector-curvature="0" />
	<path style="fill:none;stroke:red;stroke-width:1px;stroke-linecap:butt;stroke-linejoin:miter;stroke-opacity:1" d="M 756.552,280.286 764.446,284.672 z" id="boundary" inkscape:connector-curvature="0" />
	<path style="fill:none;stroke:red;stroke-width:1px;stroke-linecap:butt;stroke-linejoin:miter;stroke-opacity:1" d="M 758.306,899.519 765.323,894.256 z" id="boundary" inkscape:connector-curvature="0" />
	<path style="fill:none;stroke:red;stroke-width:1px;stroke-linecap:butt;stroke-linejoin:miter;stroke-opacity:1" d="M 764.446,284.672 771.462,290.812 z" id="boundary" inkscape:connector-curvature="0" />
	<path style="fill:none;stroke:red;stroke-width:1px;stroke-linecap:butt;stroke-linejoin:miter;stroke-opacity:1" d="M 765.323,894.256 772.34,886.363 z" id="boundary" inkscape:connector-curvature="0" />
	<path style="fill:none;stroke:red;stroke-width:1px;stroke-linecap:butt;stroke-linejoin:miter;stroke-opacity:1" d="M 771.462,290.812 779.356,295.197 z" id="boundary" inkscape:connector-curvature="0" />
	<path style="fill:none;stroke:red;stroke-width:1px;stroke-linecap:butt;stroke-linejoin:miter;stroke-opacity:1" d="M 772.34,886.363 781.111,881.977 z" id="boundary" inkscape:connector-curvature="0" />
	<path style="fill:none;stroke:red;stroke-width:1px;stroke-linecap:butt;stroke-linejoin:miter;stroke-opacity:1" d="M 779.356,295.197 785.496,302.214 z" id="boundary" inkscape:connector-curvature="0" />
	<path style="fill:none;stroke:red;stroke-width:1px;stroke-linecap:butt;stroke-linejoin:miter;stroke-opacity:1" d="M 781.111,881.977 788.127,875.837 z" id="boundary" inkscape:connector-curvature="0" />
	<path style="fill:none;stroke:red;stroke-width:1px;stroke-linecap:butt;stroke-linejoin:miter;stroke-opacity:1" d="M 785.496,302.214 792.513,307.477 z" id="boundary" inkscape:connector-curvature="0" />
	<path style="fill:none;stroke:red;stroke-width:1px;stroke-linecap:butt;stroke-linejoin:miter;stroke-opacity:1" d="M 788.127,875.837 794.267,868.821 z" id="boundary" inkscape:connector-curvature="0" />
	<path style="fill:none;stroke:red;stroke-width:1px;stroke-linecap:butt;stroke-linejoin:miter;stroke-opacity:1" d="M 792.513,307.477 798.653,314.493 z" id="boundary" inkscape:connector-curvature="0" />
	<path style="fill:none;stroke:red;stroke-width:1px;stroke-linecap:butt;stroke-linejoin:miter;stroke-opacity:1" d="M 794.267,868.821 801.284,862.681 z" id="boundary" inkscape:connector-curvature="0" />
	<path style="fill:none;stroke:red;stroke-width:1px;stroke-linecap:butt;stroke-linejoin:miter;stroke-opacity:1" d="M 798.653,314.493 805.669,320.633 z" id="boundary" inkscape:connector-curvature="0" />
	<path style="fill:none;stroke:red;stroke-width:1px;stroke-linecap:butt;stroke-linejoin:miter;stroke-opacity:1" d="M 801.284,862.681 814.44,849.524 z" id="boundary" inkscape:connector-curvature="0" />
	<path style="fill:none;stroke:red;stroke-width:1px;stroke-linecap:butt;stroke-linejoin:miter;stroke-opacity:1" d="M 805.669,320.633 811.809,327.65 z" id="boundary" inkscape:connector-curvature="0" />
	<path style="fill:none;stroke:red;stroke-width:1px;stroke-linecap:butt;stroke-linejoin:miter;stroke-opacity:1" d="M 811.809,327.65 824.966,340.806 z" id="boundary" inkscape:connector-curvature="0" />
	<path style="fill:none;stroke:red;stroke-width:1px;stroke-linecap:butt;stroke-linejoin:miter;stroke-opacity:1" d="M 814.44,849.524 820.58,842.508 z" id="boundary" inkscape:connector-curvature="0" />
	<path style="fill:none;stroke:red;stroke-width:1px;stroke-linecap:butt;stroke-linejoin:miter;stroke-opacity:1" d="M 820.58,842.508 827.597,836.368 z" id="boundary" inkscape:connector-curvature="0" />
	<path style="fill:none;stroke:red;stroke-width:1px;stroke-linecap:butt;stroke-linejoin:miter;stroke-opacity:1" d="M 824.966,340.806 831.982,346.946 z" id="boundary" inkscape:connector-curvature="0" />
	<path style="fill:none;stroke:red;stroke-width:1px;stroke-linecap:butt;stroke-linejoin:miter;stroke-opacity:1" d="M 827.597,836.368 833.737,824.966 z" id="boundary" inkscape:connector-curvature="0" />
	<path style="fill:none;stroke:red;stroke-width:1px;stroke-linecap:butt;stroke-linejoin:miter;stroke-opacity:1" d="M 831.982,346.946 835.491,355.717 z" id="boundary" inkscape:connector-curvature="0" />
	<path style="fill:none;stroke:red;stroke-width:1px;stroke-linecap:butt;stroke-linejoin:miter;stroke-opacity:1" d="M 833.737,824.966 846.893,807.424 z" id="boundary" inkscape:connector-curvature="0" />
	<path style="fill:none;stroke:red;stroke-width:1px;stroke-linecap:butt;stroke-linejoin:miter;stroke-opacity:1" d="M 835.491,355.717 842.508,361.857 z" id="boundary" inkscape:connector-curvature="0" />
	<path style="fill:none;stroke:red;stroke-width:1px;stroke-linecap:butt;stroke-linejoin:miter;stroke-opacity:1" d="M 842.508,361.857 846.893,369.751 z" id="boundary" inkscape:connector-curvature="0" />
	<path style="fill:none;stroke:red;stroke-width:1px;stroke-linecap:butt;stroke-linejoin:miter;stroke-opacity:1" d="M 846.893,369.751 859.172,382.907 z" id="boundary" inkscape:connector-curvature="0" />
	<path style="fill:none;stroke:red;stroke-width:1px;stroke-linecap:butt;stroke-linejoin:miter;stroke-opacity:1" d="M 846.893,807.424 853.91,801.284 z" id="boundary" inkscape:connector-curvature="0" />
	<path style="fill:none;stroke:red;stroke-width:1px;stroke-linecap:butt;stroke-linejoin:miter;stroke-opacity:1" d="M 853.91,801.284 860.05,789.882 z" id="boundary" inkscape:connector-curvature="0" />
	<path style="fill:none;stroke:red;stroke-width:1px;stroke-linecap:butt;stroke-linejoin:miter;stroke-opacity:1" d="M 859.172,382.907 862.681,391.678 z" id="boundary" inkscape:connector-curvature="0" />
	<path style="fill:none;stroke:red;stroke-width:1px;stroke-linecap:butt;stroke-linejoin:miter;stroke-opacity:1" d="M 860.05,789.882 864.435,781.111 z" id="boundary" inkscape:connector-curvature="0" />
	<path style="fill:none;stroke:red;stroke-width:1px;stroke-linecap:butt;stroke-linejoin:miter;stroke-opacity:1" d="M 862.681,391.678 867.066,399.572 z" id="boundary" inkscape:connector-curvature="0" />
	<path style="fill:none;stroke:red;stroke-width:1px;stroke-linecap:butt;stroke-linejoin:miter;stroke-opacity:1" d="M 864.435,781.111 871.452,774.971 z" id="boundary" inkscape:connector-curvature="0" />
	<path style="fill:none;stroke:red;stroke-width:1px;stroke-linecap:butt;stroke-linejoin:miter;stroke-opacity:1" d="M 867.066,399.572 873.206,406.589 z" id="boundary" inkscape:connector-curvature="0" />
	<path style="fill:none;stroke:red;stroke-width:1px;stroke-linecap:butt;stroke-linejoin:miter;stroke-opacity:1" d="M 871.452,774.971 875.837,766.2 z" id="boundary" inkscape:connector-curvature="0" />
	<path style="fill:none;stroke:red;stroke-width:1px;stroke-linecap:butt;stroke-linejoin:miter;stroke-opacity:1" d="M 873.206,406.589 877.592,414.483 z" id="boundary" inkscape:connector-curvature="0" />
	<path style="fill:none;stroke:red;stroke-width:1px;stroke-linecap:butt;stroke-linejoin:miter;stroke-opacity:1" d="M 875.837,766.2 880.223,757.429 z" id="boundary" inkscape:connector-curvature="0" />
	<path style="fill:none;stroke:red;stroke-width:1px;stroke-linecap:butt;stroke-linejoin:miter;stroke-opacity:1" d="M 877.592,414.483 881.1,423.254 z" id="boundary" inkscape:connector-curvature="0" />
	<path style="fill:none;stroke:red;stroke-width:1px;stroke-linecap:butt;stroke-linejoin:miter;stroke-opacity:1" d="M 880.223,757.429 884.608,748.658 z" id="boundary" inkscape:connector-curvature="0" />
	<path style="fill:none;stroke:red;stroke-width:1px;stroke-linecap:butt;stroke-linejoin:miter;stroke-opacity:1" d="M 881.1,423.254 885.485,431.148 z" id="boundary" inkscape:connector-curvature="0" />
	<path style="fill:none;stroke:red;stroke-width:1px;stroke-linecap:butt;stroke-linejoin:miter;stroke-opacity:1" d="M 884.608,748.658 888.994,739.887 z" id="boundary" inkscape:connector-curvature="0" />
	<path style="fill:none;stroke:red;stroke-width:1px;stroke-linecap:butt;stroke-linejoin:miter;stroke-opacity:1" d="M 885.485,431.148 888.994,439.919 z" id="boundary" inkscape:connector-curvature="0" />
	<path style="fill:none;stroke:red;stroke-width:1px;stroke-linecap:butt;stroke-linejoin:miter;stroke-opacity:1" d="M 888.994,439.919 893.379,447.813 z" id="boundary" inkscape:connector-curvature="0" />
	<path style="fill:none;stroke:red;stroke-width:1px;stroke-linecap:butt;stroke-linejoin:miter;stroke-opacity:1" d="M 888.994,739.887 893.379,731.116 z" id="boundary" inkscape:connector-curvature="0" />
	<path style="fill:none;stroke:red;stroke-width:1px;stroke-linecap:butt;stroke-linejoin:miter;stroke-opacity:1" d="M 893.379,447.813 895.134,456.584 z" id="boundary" inkscape:connector-curvature="0" />
	<path style="fill:none;stroke:red;stroke-width:1px;stroke-linecap:butt;stroke-linejoin:miter;stroke-opacity:1" d="M 893.379,731.116 895.134,719.714 z" id="boundary" inkscape:connector-curvature="0" />
	<path style="fill:none;stroke:red;stroke-width:1px;stroke-linecap:butt;stroke-linejoin:miter;stroke-opacity:1" d="M 895.134,456.584 899.519,464.477 z" id="boundary" inkscape:connector-curvature="0" />
	<path style="fill:none;stroke:red;stroke-width:1px;stroke-linecap:butt;stroke-linejoin:miter;stroke-opacity:1" d="M 895.134,719.714 899.519,706.557 z" id="boundary" inkscape:connector-curvature="0" />
	<path style="fill:none;stroke:red;stroke-width:1px;stroke-linecap:butt;stroke-linejoin:miter;stroke-opacity:1" d="M 899.519,464.477 899.519,473.248 z" id="boundary" inkscape:connector-curvature="0" />
	<path style="fill:none;stroke:red;stroke-width:1px;stroke-linecap:butt;stroke-linejoin:miter;stroke-opacity:1" d="M 899.519,473.248 903.905,481.142 z" id="boundary" inkscape:connector-curvature="0" />
	<path style="fill:none;stroke:red;stroke-width:1px;stroke-linecap:butt;stroke-linejoin:miter;stroke-opacity:1" d="M 899.519,706.557 903.905,693.401 z" id="boundary" inkscape:connector-curvature="0" />
	<path style="fill:none;stroke:red;stroke-width:1px;stroke-linecap:butt;stroke-linejoin:miter;stroke-opacity:1" d="M 903.905,481.142 908.29,489.036 z" id="boundary" inkscape:connector-curvature="0" />
	<path style="fill:none;stroke:red;stroke-width:1px;stroke-linecap:butt;stroke-linejoin:miter;stroke-opacity:1" d="M 903.905,693.401 908.29,680.244 z" id="boundary" inkscape:connector-curvature="0" />
	<path style="fill:none;stroke:red;stroke-width:1px;stroke-linecap:butt;stroke-linejoin:miter;stroke-opacity:1" d="M 908.29,489.036 908.29,497.807 z" id="boundary" inkscape:connector-curvature="0" />
	<path style="fill:none;stroke:red;stroke-width:1px;stroke-linecap:butt;stroke-linejoin:miter;stroke-opacity:1" d="M 908.29,497.807 912.676,505.701 z" id="boundary" inkscape:connector-curvature="0" />
	<path style="fill:none;stroke:red;stroke-width:1px;stroke-linecap:butt;stroke-linejoin:miter;stroke-opacity:1" d="M 908.29,680.244 912.676,667.088 z" id="boundary" inkscape:connector-curvature="0" />
	<path style="fill:none;stroke:red;stroke-width:1px;stroke-linecap:butt;stroke-linejoin:miter;stroke-opacity:1" d="M 912.676,505.701 912.676,514.472 z" id="boundary" inkscape:connector-curvature="0" />
	<path style="fill:none;stroke:red;stroke-width:1px;stroke-linecap:butt;stroke-linejoin:miter;stroke-opacity:1" d="M 912.676,514.472 915.307,523.243 z" id="boundary" inkscape:connector-curvature="0" />
	<path style="fill:none;stroke:red;stroke-width:1px;stroke-linecap:butt;stroke-linejoin:miter;stroke-opacity:1" d="M 912.676,658.317 912.676,667.088 z" id="boundary" inkscape:connector-curvature="0" />
	<path style="fill:none;stroke:red;stroke-width:1px;stroke-linecap:butt;stroke-linejoin:miter;stroke-opacity:1" d="M 912.676,658.317 917.061,649.546 z" id="boundary" inkscape:connector-curvature="0" />
	<path style="fill:none;stroke:red;stroke-width:1px;stroke-linecap:butt;stroke-linejoin:miter;stroke-opacity:1" d="M 915.307,523.243 917.061,532.014 z" id="boundary" inkscape:connector-curvature="0" />
	<path style="fill:none;stroke:red;stroke-width:1px;stroke-linecap:butt;stroke-linejoin:miter;stroke-opacity:1" d="M 917.061,532.014 917.061,540.785 z" id="boundary" inkscape:connector-curvature="0" />
	<path style="fill:none;stroke:red;stroke-width:1px;stroke-linecap:butt;stroke-linejoin:miter;stroke-opacity:1" d="M 917.061,540.785 919.692,549.556 z" id="boundary" inkscape:connector-curvature="0" />
	<path style="fill:none;stroke:red;stroke-width:1px;stroke-linecap:butt;stroke-linejoin:miter;stroke-opacity:1" d="M 917.061,632.004 917.061,640.775 z" id="boundary" inkscape:connector-curvature="0" />
	<path style="fill:none;stroke:red;stroke-width:1px;stroke-linecap:butt;stroke-linejoin:miter;stroke-opacity:1" d="M 917.061,632.004 921.447,619.724 z" id="boundary" inkscape:connector-curvature="0" />
	<path style="fill:none;stroke:red;stroke-width:1px;stroke-linecap:butt;stroke-linejoin:miter;stroke-opacity:1" d="M 917.061,640.775 917.061,649.546 z" id="boundary" inkscape:connector-curvature="0" />
	<path style="fill:none;stroke:red;stroke-width:1px;stroke-linecap:butt;stroke-linejoin:miter;stroke-opacity:1" d="M 919.692,549.556 921.447,558.327 z" id="boundary" inkscape:connector-curvature="0" />
	<path style="fill:none;stroke:red;stroke-width:1px;stroke-linecap:butt;stroke-linejoin:miter;stroke-opacity:1" d="M 921.447,558.327 921.447,567.098 z" id="boundary" inkscape:connector-curvature="0" />
	<path style="fill:none;stroke:red;stroke-width:1px;stroke-linecap:butt;stroke-linejoin:miter;stroke-opacity:1" d="M 921.447,567.098 921.447,575.869 z" id="boundary" inkscape:connector-curvature="0" />
	<path style="fill:none;stroke:red;stroke-width:1px;stroke-linecap:butt;stroke-linejoin:miter;stroke-opacity:1" d="M 921.447,575.869 921.447,584.64 z" id="boundary" inkscape:connector-curvature="0" />
	<path style="fill:none;stroke:red;stroke-width:1px;stroke-linecap:butt;stroke-linejoin:miter;stroke-opacity:1" d="M 921.447,584.64 921.447,593.411 z" id="boundary" inkscape:connector-curvature="0" />
	<path style="fill:none;stroke:red;stroke-width:1px;stroke-linecap:butt;stroke-linejoin:miter;stroke-opacity:1" d="M 921.447,593.411 921.447,602.182 z" id="boundary" inkscape:connector-curvature="0" />
	<path style="fill:none;stroke:red;stroke-width:1px;stroke-linecap:butt;stroke-linejoin:miter;stroke-opacity:1" d="M 921.447,602.182 921.447,610.953 z" id="boundary" inkscape:connector-curvature="0" />
	<path style="fill:none;stroke:red;stroke-width:1px;stroke-linecap:butt;stroke-linejoin:miter;stroke-opacity:1" d="M 921.447,610.953 921.447,619.724 z" id="boundary" inkscape:connector-curvature="0" />
	<circle cx="4" cy="550.433" r="4" fill="#0" id="circle0"/>
	<circle cx="4" cy="559.204" r="4" fill="#0" id="circle1"/>
	<circle cx="4" cy="567.975" r="4" fill="#0" id="circle2"/>
	<circle cx="4" cy="576.746" r="4" fill="#0" id="circle3"/>
	<circle cx="4" cy="585.517" r="4" fill="#0" id="circle4"/>
	<circle cx="4" cy="594.288" r="4" fill="#0" id="circle5"/>
	<circle cx="4" cy="603.059" r="4" fill="#0" id="circle6"/>
	<circle cx="4" cy="611.83" r="4" fill="#0" id="circle7"/>
	<circle cx="4" cy="620.601" r="4" fill="#0" id="circle8"/>
	<circle cx="4" cy="629.372" r="4" fill="#0" id="circle9"/>
	<circle cx="8.3855" cy="524.12" r="4" fill="#0" id="circle10"/>
	<circle cx="8.3855" cy="532.891" r="4" fill="#0" id="circle11"/>
	<circle cx="8.3855" cy="541.662" r="4" fill="#0" id="circle12"/>
	<circle cx="8.3855" cy="637.266" r="4" fill="#0" id="circle13"/>
	<circle cx="8.3855" cy="646.037" r="4" fill="#0" id="circle14"/>
	<circle cx="8.3855" cy="654.808" r="4" fill="#0" id="circle15"/>
	<circle cx="12.771" cy="502.193" r="4" fill="#0" id="circle16"/>
	<circle cx="12.771" cy="510.964" r="4" fill="#0" id="circle17"/>
	<circle cx="12.771" cy="662.702" r="4" fill="#0" id="circle18"/>
	<circle cx="12.771" cy="671.473" r="4" fill="#0" id="circle19"/>
	<circle cx="15.4023" cy="680.244" r="4" fill="#0" id="circle20"/>
	<circle cx="17.1565" cy="489.036" r="4" fill="#0" id="circle21"/>
	<circle cx="17.1565" cy="689.015" r="4" fill="#0" id="circle22"/>
	<circle cx="21.542" cy="475.88" r="4" fill="#0" id="circle23"/>
	<circle cx="21.542" cy="696.909" r="4" fill="#0" id="circle24"/>
	<circle cx="23.2962" cy="705.68" r="4" fill="#0" id="circle25"/>
	<circle cx="25.9275" cy="462.723" r="4" fill="#0" id="circle26"/>
	<circle cx="25.9275" cy="714.451" r="4" fill="#0" id="circle27"/>
	<circle cx="30.313" cy="449.567" r="4" fill="#0" id="circle28"/>
	<circle cx="30.313" cy="722.345" r="4" fill="#0" id="circle29"/>
	<circle cx="31.1901" cy="731.116" r="4" fill="#0" id="circle30"/>
	<circle cx="34.6985" cy="440.796" r="4" fill="#0" id="circle31"/>
	<circle cx="35.5756" cy="739.01" r="4" fill="#0" id="circle32"/>
	<circle cx="39.084" cy="432.025" r="4" fill="#0" id="circle33"/>
	<circle cx="39.084" cy="747.781" r="4" fill="#0" id="circle34"/>
	<circle cx="43.4695" cy="423.254" r="4" fill="#0" id="circle35"/>
	<circle cx="43.4695" cy="755.675" r="4" fill="#0" id="circle36"/>
	<circle cx="47.855" cy="414.483" r="4" fill="#0" id="circle37"/>
	<circle cx="47.855" cy="763.569" r="4" fill="#0" id="circle38"/>
	<circle cx="52.2405" cy="405.712" r="4" fill="#0" id="circle39"/>
	<circle cx="52.2405" cy="771.462" r="4" fill="#0" id="circle40"/>
	<circle cx="57.5031" cy="778.479" r="4" fill="#0" id="circle41"/>
	<circle cx="59.2573" cy="398.695" r="4" fill="#0" id="circle42"/>
	<circle cx="61.0115" cy="787.25" r="4" fill="#0" id="circle43"/>
	<circle cx="63.6428" cy="389.924" r="4" fill="#0" id="circle44"/>
	<circle cx="65.397" cy="795.144" r="4" fill="#0" id="circle45"/>
	<circle cx="68.0283" cy="381.153" r="4" fill="#0" id="circle46"/>
	<circle cx="71.5367" cy="802.161" r="4" fill="#0" id="circle47"/>
	<circle cx="75.0451" cy="374.136" r="4" fill="#0" id="circle48"/>
	<circle cx="78.5535" cy="807.424" r="4" fill="#0" id="circle49"/>
	<circle cx="79.4306" cy="365.365" r="4" fill="#0" id="circle50"/>
	<circle cx="81.1848" cy="816.195" r="4" fill="#0" id="circle51"/>
	<circle cx="86.4474" cy="359.225" r="4" fill="#0" id="circle52"/>
	<circle cx="88.2016" cy="822.334" r="4" fill="#0" id="circle53"/>
	<circle cx="91.71" cy="348.7" r="4" fill="#0" id="circle54"/>
	<circle cx="91.71" cy="831.105" r="4" fill="#0" id="circle55"/>
	<circle cx="98.7268" cy="341.683" r="4" fill="#0" id="circle56"/>
	<circle cx="98.7268" cy="837.245" r="4" fill="#0" id="circle57"/>
	<circle cx="104.866" cy="844.262" r="4" fill="#0" id="circle58"/>
	<circle cx="105.744" cy="334.667" r="4" fill="#0" id="circle59"/>
	<circle cx="111.883" cy="850.401" r="4" fill="#0" id="circle60"/>
	<circle cx="112.76" cy="328.527" r="4" fill="#0" id="circle61"/>
	<circle cx="118.023" cy="857.418" r="4" fill="#0" id="circle62"/>
	<circle cx="118.9" cy="321.51" r="4" fill="#0" id="circle63"/>
	<circle cx="125.04" cy="863.558" r="4" fill="#0" id="circle64"/>
	<circle cx="125.917" cy="315.37" r="4" fill="#0" id="circle65"/>
	<circle cx="131.179" cy="870.575" r="4" fill="#0" id="circle66"/>
	<circle cx="132.057" cy="308.354" r="4" fill="#0" id="circle67"/>
	<circle cx="138.196" cy="876.714" r="4" fill="#0" id="circle68"/>
	<circle cx="139.073" cy="302.214" r="4" fill="#0" id="circle69"/>
	<circle cx="144.336" cy="883.731" r="4" fill="#0" id="circle70"/>
	<circle cx="145.213" cy="295.197" r="4" fill="#0" id="circle71"/>
	<circle cx="153.107" cy="886.363" r="4" fill="#0" id="circle72"/>
	<circle cx="153.984" cy="290.812" r="4" fill="#0" id="circle73"/>
	<circle cx="158.37" cy="893.379" r="4" fill="#0" id="circle74"/>
	<circle cx="161.001" cy="284.672" r="4" fill="#0" id="circle75"/>
	<circle cx="165.386" cy="899.519" r="4" fill="#0" id="circle76"/>
	<circle cx="168.895" cy="280.286" r="4" fill="#0" id="circle77"/>
	<circle cx="173.28" cy="903.905" r="4" fill="#0" id="circle78"/>
	<circle cx="175.912" cy="273.27" r="4" fill="#0" id="circle79"/>
	<circle cx="180.297" cy="910.044" r="4" fill="#0" id="circle80"/>
	<circle cx="182.928" cy="267.13" r="4" fill="#0" id="circle81"/>
	<circle cx="188.191" cy="914.43" r="4" fill="#0" id="circle82"/>
	<circle cx="190.822" cy="262.744" r="4" fill="#0" id="circle83"/>
	<circle cx="195.208" cy="920.569" r="4" fill="#0" id="circle84"/>
	<circle cx="198.716" cy="258.359" r="4" fill="#0" id="circle85"/>
	<circle cx="203.102" cy="924.955" r="4" fill="#0" id="circle86"/>
	<circle cx="206.61" cy="253.973" r="4" fill="#0" id="circle87"/>
	<circle cx="211.873" cy="928.463" r="4" fill="#0" id="circle88"/>
	<circle cx="214.504" cy="247.834" r="4" fill="#0" id="circle89"/>
	<circle cx="218.889" cy="934.603" r="4" fill="#0" id="circle90"/>
	<circle cx="223.275" cy="243.448" r="4" fill="#0" id="circle91"/>
	<circle cx="226.783" cy="938.989" r="4" fill="#0" id="circle92"/>
	<circle cx="232.046" cy="239.063" r="4" fill="#0" id="circle93"/>
	<circle cx="234.677" cy="943.374" r="4" fill="#0" id="circle94"/>
	<circle cx="240.817" cy="234.677" r="4" fill="#0" id="circle95"/>
	<circle cx="243.448" cy="946.882" r="4" fill="#0" id="circle96"/>
	<circle cx="249.588" cy="230.292" r="4" fill="#0" id="circle97"/>
	<circle cx="251.342" cy="951.268" r="4" fill="#0" id="circle98"/>
	<circle cx="258.359" cy="225.906" r="4" fill="#0" id="circle99"/>
	<circle cx="260.113" cy="954.776" r="4" fill="#0" id="circle100"/>
	<circle cx="267.13" cy="15.4023" r="4" fill="#0" id="circle101"/>
	<circle cx="267.13" cy="24.1733" r="4" fill="#0" id="circle102"/>
	<circle cx="267.13" cy="32.9443" r="4" fill="#0" id="circle103"/>
	<circle cx="267.13" cy="41.7153" r="4" fill="#0" id="circle104"/>
	<circle cx="267.13" cy="50.4863" r="4" fill="#0" id="circle105"/>
	<circle cx="267.13" cy="59.2573" r="4" fill="#0" id="circle106"/>
	<circle cx="267.13" cy="223.275" r="4" fill="#0" id="circle107"/>
	<circle cx="268.884" cy="956.531" r="4" fill="#0" id="circle108"/>
	<circle cx="271.515" cy="67.1512" r="4" fill="#0" id="circle109"/>
	<circle cx="274.147" cy="8.3855" r="4" fill="#0" id="circle110"/>
	<circle cx="275.024" cy="218.889" r="4" fill="#0" id="circle111"/>
	<circle cx="275.901" cy="75.0451" r="4" fill="#0" id="circle112"/>
	<circle cx="276.778" cy="960.916" r="4" fill="#0" id="circle113"/>
	<circle cx="278.532" cy="83.8161" r="4" fill="#0" id="circle114"/>
	<circle cx="282.041" cy="4" r="4" fill="#0" id="circle115"/>
	<circle cx="282.918" cy="214.504" r="4" fill="#0" id="circle116"/>
	<circle cx="284.672" cy="965.302" r="4" fill="#0" id="circle117"/>
	<circle cx="285.549" cy="89.9558" r="4" fill="#0" id="circle118"/>
	<circle cx="289.057" cy="98.7268" r="4" fill="#0" id="circle119"/>
	<circle cx="290.812" cy="4" r="4" fill="#0" id="circle120"/>
	<circle cx="291.689" cy="214.504" r="4" fill="#0" id="circle121"/>
	<circle cx="293.443" cy="106.621" r="4" fill="#0" id="circle122"/>
	<circle cx="293.443" cy="965.302" r="4" fill="#0" id="circle123"/>
	<circle cx="299.583" cy="4" r="4" fill="#0" id="circle124"/>
	<circle cx="299.583" cy="113.637" r="4" fill="#0" id="circle125"/>
	<circle cx="299.583" cy="210.118" r="4" fill="#0" id="circle126"/>
	<circle cx="301.337" cy="969.687" r="4" fill="#0" id="circle127"/>
	<circle cx="303.968" cy="121.531" r="4" fill="#0" id="circle128"/>
	<circle cx="307.477" cy="8.3855" r="4" fill="#0" id="circle129"/>
	<circle cx="308.354" cy="206.61" r="4" fill="#0" id="circle130"/>
	<circle cx="309.231" cy="974.073" r="4" fill="#0" id="circle131"/>
	<circle cx="310.985" cy="127.671" r="4" fill="#0" id="circle132"/>
	<circle cx="313.616" cy="136.442" r="4" fill="#0" id="circle133"/>
	<circle cx="315.37" cy="12.771" r="4" fill="#0" id="circle134"/>
	<circle cx="317.125" cy="205.733" r="4" fill="#0" id="circle135"/>
	<circle cx="318.002" cy="144.336" r="4" fill="#0" id="circle136"/>
	<circle cx="318.002" cy="974.073" r="4" fill="#0" id="circle137"/>
	<circle cx="324.141" cy="14.5252" r="4" fill="#0" id="circle138"/>
	<circle cx="324.141" cy="151.353" r="4" fill="#0" id="circle139"/>
	<circle cx="325.019" cy="201.347" r="4" fill="#0" id="circle140"/>
	<circle cx="325.896" cy="978.458" r="4" fill="#0" id="circle141"/>
	<circle cx="331.158" cy="157.492" r="4" fill="#0" id="circle142"/>
	<circle cx="332.035" cy="18.9107" r="4" fill="#0" id="circle143"/>
	<circle cx="333.79" cy="201.347" r="4" fill="#0" id="circle144"/>
	<circle cx="334.667" cy="978.458" r="4" fill="#0" id="circle145"/>
	<circle cx="339.052" cy="161.878" r="4" fill="#0" id="circle146"/>
	<circle cx="340.806" cy="22.4191" r="4" fill="#0" id="circle147"/>
	<circle cx="341.683" cy="196.962" r="4" fill="#0" id="circle148"/>
	<circle cx="342.561" cy="982.844" r="4" fill="#0" id="circle149"/>
	<circle cx="346.069" cy="167.141" r="4" fill="#0" id="circle150"/>
	<circle cx="346.946" cy="29.4359" r="4" fill="#0" id="circle151"/>
	<circle cx="350.454" cy="196.962" r="4" fill="#0" id="circle152"/>
	<circle cx="351.332" cy="982.844" r="4" fill="#0" id="circle153"/>
	<circle cx="353.963" cy="171.526" r="4" fill="#0" id="circle154"/>
	<circle cx="355.717" cy="32.9443" r="4" fill="#0" id="circle155"/>
	<circle cx="358.348" cy="192.576" r="4" fill="#0" id="circle156"/>
	<circle cx="359.225" cy="987.229" r="4" fill="#0" id="circle157"/>
	<circle cx="360.103" cy="178.543" r="4" fill="#0" id="circle158"/>
	<circle cx="362.734" cy="39.084" r="4" fill="#0" id="circle159"/>
	<circle cx="367.119" cy="192.576" r="4" fill="#0" id="circle160"/>
	<circle cx="367.996" cy="987.229" r="4" fill="#0" id="circle161"/>
	<circle cx="368.874" cy="180.297" r="4" fill="#0" id="circle162"/>
	<circle cx="370.628" cy="43.4695" r="4" fill="#0" id="circle163"/>
	<circle cx="375.89" cy="192.576" r="4" fill="#0" id="circle164"/>
	<circle cx="376.767" cy="50.4863" r="4" fill="#0" id="circle165"/>
	<circle cx="376.767" cy="987.229" r="4" fill="#0" id="circle166"/>
	<circle cx="383.784" cy="56.626" r="4" fill="#0" id="circle167"/>
	<circle cx="384.661" cy="991.615" r="4" fill="#0" id="circle168"/>
	<circle cx="389.924" cy="63.6428" r="4" fill="#0" id="circle169"/>
	<circle cx="393.432" cy="991.615" r="4" fill="#0" id="circle170"/>
	<circle cx="396.941" cy="69.7825" r="4" fill="#0" id="circle171"/>
	<circle cx="402.203" cy="991.615" r="4" fill="#0" id="circle172"/>
	<circle cx="404.835" cy="74.168" r="4" fill="#0" id="circle173"/>
	<circle cx="410.974" cy="991.615" r="4" fill="#0" id="circle174"/>
	<circle cx="411.851" cy="80.3077" r="4" fill="#0" id="circle175"/>
	<circle cx="417.114" cy="87.3245" r="4" fill="#0" id="circle176"/>
	<circle cx="418.868" cy="996" r="4" fill="#0" id="circle177"/>
	<circle cx="421.5" cy="95.2184" r="4" fill="#0" id="circle178"/>
	<circle cx="425.885" cy="103.112" r="4" fill="#0" id="circle179"/>
	<circle cx="427.639" cy="996" r="4" fill="#0" id="circle180"/>
	<circle cx="432.025" cy="110.129" r="4" fill="#0" id="circle181"/>
	<circle cx="436.41" cy="996" r="4" fill="#0" id="circle182"/>
	<circle cx="439.042" cy="116.269" r="4" fill="#0" id="circle183"/>
	<circle cx="439.042" cy="125.04" r="4" fill="#0" id="circle184"/>
	<circle cx="443.427" cy="132.934" r="4" fill="#0" id="circle185"/>
	<circle cx="443.427" cy="141.705" r="4" fill="#0" id="circle186"/>
	<circle cx="443.427" cy="150.476" r="4" fill="#0" id="circle187"/>
	<circle cx="443.427" cy="159.247" r="4" fill="#0" id="circle188"/>
	<circle cx="445.181" cy="996" r="4" fill="#0" id="circle189"/>
	<circle cx="451.321" cy="154.861" r="4" fill="#0" id="circle190"/>
	<circle cx="452.198" cy="146.09" r="4" fill="#0" id="circle191"/>
	<circle cx="453.952" cy="996" r="4" fill="#0" id="circle192"/>
	<circle cx="456.584" cy="137.319" r="4" fill="#0" id="circle193"/>
	<circle cx="462.723" cy="996" r="4" fill="#0" id="circle194"/>
	<circle cx="463.6" cy="131.179" r="4" fill="#0" id="circle195"/>
	<circle cx="467.109" cy="122.408" r="4" fill="#0" id="circle196"/>
	<circle cx="471.494" cy="113.637" r="4" fill="#0" id="circle197"/>
	<circle cx="471.494" cy="996" r="4" fill="#0" id="circle198"/>
	<circle cx="473.248" cy="103.112" r="4" fill="#0" id="circle199"/>
	<circle cx="480.265" cy="96.0955" r="4" fill="#0" id="circle200"/>
	<circle cx="480.265" cy="996" r="4" fill="#0" id="circle201"/>
	<circle cx="487.282" cy="89.0787" r="4" fill="#0" id="circle202"/>
	<circle cx="487.282" cy="158.37" r="4" fill="#0" id="circle203"/>
	<circle cx="487.282" cy="167.141" r="4" fill="#0" id="circle204"/>
	<circle cx="487.282" cy="175.912" r="4" fill="#0" id="circle205"/>
	<circle cx="489.036" cy="996" r="4" fill="#0" id="circle206"/>
	<circle cx="491.668" cy="80.3077" r="4" fill="#0" id="circle207"/>
	<circle cx="491.668" cy="136.442" r="4" fill="#0" id="circle208"/>
	<circle cx="491.668" cy="145.213" r="4" fill="#0" id="circle209"/>
	<circle cx="491.668" cy="183.805" r="4" fill="#0" id="circle210"/>
	<circle cx="496.053" cy="123.286" r="4" fill="#0" id="circle211"/>
	<circle cx="497.807" cy="996" r="4" fill="#0" id="circle212"/>
	<circle cx="498.684" cy="74.168" r="4" fill="#0" id="circle213"/>
	<circle cx="500.439" cy="183.805" r="4" fill="#0" id="circle214"/>
	<circle cx="503.07" cy="117.146" r="4" fill="#0" id="circle215"/>
	<circle cx="506.578" cy="69.7825" r="4" fill="#0" id="circle216"/>
	<circle cx="506.578" cy="995.123" r="4" fill="#0" id="circle217"/>
	<circle cx="507.455" cy="108.375" r="4" fill="#0" id="circle218"/>
	<circle cx="509.21" cy="186.437" r="4" fill="#0" id="circle219"/>
	<circle cx="513.595" cy="62.7657" r="4" fill="#0" id="circle220"/>
	<circle cx="513.595" cy="101.358" r="4" fill="#0" id="circle221"/>
	<circle cx="515.349" cy="991.615" r="4" fill="#0" id="circle222"/>
	<circle cx="517.981" cy="92.5871" r="4" fill="#0" id="circle223"/>
	<circle cx="517.981" cy="188.191" r="4" fill="#0" id="circle224"/>
	<circle cx="522.366" cy="58.3802" r="4" fill="#0" id="circle225"/>
	<circle cx="524.12" cy="991.615" r="4" fill="#0" id="circle226"/>
	<circle cx="524.997" cy="86.4474" r="4" fill="#0" id="circle227"/>
	<circle cx="526.752" cy="188.191" r="4" fill="#0" id="circle228"/>
	<circle cx="531.137" cy="53.9947" r="4" fill="#0" id="circle229"/>
	<circle cx="532.891" cy="991.615" r="4" fill="#0" id="circle230"/>
	<circle cx="533.768" cy="82.0619" r="4" fill="#0" id="circle231"/>
	<circle cx="535.523" cy="188.191" r="4" fill="#0" id="circle232"/>
	<circle cx="539.031" cy="75.0451" r="4" fill="#0" id="circle233"/>
	<circle cx="539.908" cy="52.2405" r="4" fill="#0" id="circle234"/>
	<circle cx="541.662" cy="990.737" r="4" fill="#0" id="circle235"/>
	<circle cx="544.294" cy="190.822" r="4" fill="#0" id="circle236"/>
	<circle cx="546.048" cy="69.7825" r="4" fill="#0" id="circle237"/>
	<circle cx="547.802" cy="47.855" r="4" fill="#0" id="circle238"/>
	<circle cx="550.433" cy="987.229" r="4" fill="#0" id="circle239"/>
	<circle cx="553.065" cy="192.576" r="4" fill="#0" id="circle240"/>
	<circle cx="554.819" cy="65.397" r="4" fill="#0" id="circle241"/>
	<circle cx="555.696" cy="43.4695" r="4" fill="#0" id="circle242"/>
	<circle cx="559.204" cy="987.229" r="4" fill="#0" id="circle243"/>
	<circle cx="561.836" cy="192.576" r="4" fill="#0" id="circle244"/>
	<circle cx="563.59" cy="61.8886" r="4" fill="#0" id="circle245"/>
	<circle cx="564.467" cy="43.4695" r="4" fill="#0" id="circle246"/>
	<circle cx="567.975" cy="986.352" r="4" fill="#0" id="circle247"/>
	<circle cx="570.607" cy="195.208" r="4" fill="#0" id="circle248"/>
	<circle cx="571.484" cy="57.5031" r="4" fill="#0" id="circle249"/>
	<circle cx="573.238" cy="43.4695" r="4" fill="#0" id="circle250"/>
	<circle cx="576.746" cy="982.844" r="4" fill="#0" id="circle251"/>
	<circle cx="579.378" cy="196.962" r="4" fill="#0" id="circle252"/>
	<circle cx="580.255" cy="57.5031" r="4" fill="#0" id="circle253"/>
	<circle cx="582.009" cy="43.4695" r="4" fill="#0" id="circle254"/>
	<circle cx="585.517" cy="981.966" r="4" fill="#0" id="circle255"/>
	<circle cx="588.149" cy="53.1176" r="4" fill="#0" id="circle256"/>
	<circle cx="588.149" cy="199.593" r="4" fill="#0" id="circle257"/>
	<circle cx="590.78" cy="43.4695" r="4" fill="#0" id="circle258"/>
	<circle cx="594.288" cy="978.458" r="4" fill="#0" id="circle259"/>
	<circle cx="596.92" cy="53.1176" r="4" fill="#0" id="circle260"/>
	<circle cx="596.92" cy="201.347" r="4" fill="#0" id="circle261"/>
	<circle cx="599.551" cy="43.4695" r="4" fill="#0" id="circle262"/>
	<circle cx="603.059" cy="977.581" r="4" fill="#0" id="circle263"/>
	<circle cx="605.691" cy="50.4863" r="4" fill="#0" id="circle264"/>
	<circle cx="605.691" cy="203.979" r="4" fill="#0" id="circle265"/>
	<circle cx="610.953" cy="43.4695" r="4" fill="#0" id="circle266"/>
	<circle cx="611.83" cy="974.073" r="4" fill="#0" id="circle267"/>
	<circle cx="614.462" cy="205.733" r="4" fill="#0" id="circle268"/>
	<circle cx="619.724" cy="969.687" r="4" fill="#0" id="circle269"/>
	<circle cx="622.355" cy="210.118" r="4" fill="#0" id="circle270"/>
	<circle cx="628.495" cy="969.687" r="4" fill="#0" id="circle271"/>
	<circle cx="631.126" cy="211.873" r="4" fill="#0" id="circle272"/>
	<circle cx="636.389" cy="965.302" r="4" fill="#0" id="circle273"/>
	<circle cx="639.897" cy="214.504" r="4" fill="#0" id="circle274"/>
	<circle cx="645.16" cy="960.916" r="4" fill="#0" id="circle275"/>
	<circle cx="647.791" cy="218.889" r="4" fill="#0" id="circle276"/>
	<circle cx="653.931" cy="956.531" r="4" fill="#0" id="circle277"/>
	<circle cx="655.685" cy="223.275" r="4" fill="#0" id="circle278"/>
	<circle cx="662.702" cy="956.531" r="4" fill="#0" id="circle279"/>
	<circle cx="664.456" cy="223.275" r="4" fill="#0" id="circle280"/>
	<circle cx="670.596" cy="952.145" r="4" fill="#0" id="circle281"/>
	<circle cx="672.35" cy="227.66" r="4" fill="#0" id="circle282"/>
	<circle cx="678.49" cy="947.76" r="4" fill="#0" id="circle283"/>
	<circle cx="680.244" cy="232.046" r="4" fill="#0" id="circle284"/>
	<circle cx="686.384" cy="943.374" r="4" fill="#0" id="circle285"/>
	<circle cx="688.138" cy="236.431" r="4" fill="#0" id="circle286"/>
	<circle cx="694.278" cy="938.989" r="4" fill="#0" id="circle287"/>
	<circle cx="696.032" cy="240.817" r="4" fill="#0" id="circle288"/>
	<circle cx="702.172" cy="934.603" r="4" fill="#0" id="circle289"/>
	<circle cx="703.926" cy="245.202" r="4" fill="#0" id="circle290"/>
	<circle cx="710.943" cy="930.218" r="4" fill="#0" id="circle291"/>
	<circle cx="711.82" cy="249.588" r="4" fill="#0" id="circle292"/>
	<circle cx="718.836" cy="925.832" r="4" fill="#0" id="circle293"/>
	<circle cx="719.714" cy="253.973" r="4" fill="#0" id="circle294"/>
	<circle cx="726.73" cy="921.447" r="4" fill="#0" id="circle295"/>
	<circle cx="727.607" cy="258.359" r="4" fill="#0" id="circle296"/>
	<circle cx="734.624" cy="263.622" r="4" fill="#0" id="circle297"/>
	<circle cx="734.624" cy="916.184" r="4" fill="#0" id="circle298"/>
	<circle cx="743.395" cy="267.13" r="4" fill="#0" id="circle299"/>
	<circle cx="743.395" cy="911.798" r="4" fill="#0" id="circle300"/>
	<circle cx="749.535" cy="274.147" r="4" fill="#0" id="circle301"/>
	<circle cx="750.412" cy="903.905" r="4" fill="#0" id="circle302"/>
	<circle cx="756.552" cy="280.286" r="4" fill="#0" id="circle303"/>
	<circle cx="758.306" cy="899.519" r="4" fill="#0" id="circle304"/>
	<circle cx="764.446" cy="284.672" r="4" fill="#0" id="circle305"/>
	<circle cx="765.323" cy="894.256" r="4" fill="#0" id="circle306"/>
	<circle cx="771.462" cy="290.812" r="4" fill="#0" id="circle307"/>
	<circle cx="772.34" cy="886.363" r="4" fill="#0" id="circle308"/>
	<circle cx="779.356" cy="295.197" r="4" fill="#0" id="circle309"/>
	<circle cx="781.111" cy="881.977" r="4" fill="#0" id="circle310"/>
	<circle cx="785.496" cy="302.214" r="4" fill="#0" id="circle311"/>
	<circle cx="788.127" cy="875.837" r="4" fill="#0" id="circle312"/>
	<circle cx="792.513" cy="307.477" r="4" fill="#0" id="circle313"/>
	<circle cx="794.267" cy="868.821" r="4" fill="#0" id="circle314"/>
	<circle cx="798.653" cy="314.493" r="4" fill="#0" id="circle315"/>
	<circle cx="801.284" cy="862.681" r="4" fill="#0" id="circle316"/>
	<circle cx="805.669" cy="320.633" r="4" fill="#0" id="circle317"/>
	<circle cx="807.424" cy="855.664" r="4" fill="#0" id="circle318"/>
	<circle cx="811.809" cy="327.65" r="4" fill="#0" id="circle319"/>
	<circle cx="814.44" cy="849.524" r="4" fill="#0" id="circle320"/>
	<circle cx="818.826" cy="333.79" r="4" fill="#0" id="circle321"/>
	<circle cx="820.58" cy="842.508" r="4" fill="#0" id="circle322"/>
	<circle cx="824.966" cy="340.806" r="4" fill="#0" id="circle323"/>
	<circle cx="827.597" cy="836.368" r="4" fill="#0" id="circle324"/>
	<circle cx="831.982" cy="346.946" r="4" fill="#0" id="circle325"/>
	<circle cx="833.737" cy="824.966" r="4" fill="#0" id="circle326"/>
	<circle cx="835.491" cy="355.717" r="4" fill="#0" id="circle327"/>
	<circle cx="840.753" cy="818.826" r="4" fill="#0" id="circle328"/>
	<circle cx="842.508" cy="361.857" r="4" fill="#0" id="circle329"/>
	<circle cx="846.893" cy="369.751" r="4" fill="#0" id="circle330"/>
	<circle cx="846.893" cy="807.424" r="4" fill="#0" id="circle331"/>
	<circle cx="852.156" cy="376.767" r="4" fill="#0" id="circle332"/>
	<circle cx="853.91" cy="801.284" r="4" fill="#0" id="circle333"/>
	<circle cx="859.172" cy="382.907" r="4" fill="#0" id="circle334"/>
	<circle cx="860.05" cy="789.882" r="4" fill="#0" id="circle335"/>
	<circle cx="862.681" cy="391.678" r="4" fill="#0" id="circle336"/>
	<circle cx="864.435" cy="781.111" r="4" fill="#0" id="circle337"/>
	<circle cx="867.066" cy="399.572" r="4" fill="#0" id="circle338"/>
	<circle cx="871.452" cy="774.971" r="4" fill="#0" id="circle339"/>
	<circle cx="873.206" cy="406.589" r="4" fill="#0" id="circle340"/>
	<circle cx="875.837" cy="766.2" r="4" fill="#0" id="circle341"/>
	<circle cx="877.592" cy="414.483" r="4" fill="#0" id="circle342"/>
	<circle cx="880.223" cy="757.429" r="4" fill="#0" id="circle343"/>
	<circle cx="881.1" cy="423.254" r="4" fill="#0" id="circle344"/>
	<circle cx="884.608" cy="748.658" r="4" fill="#0" id="circle345"/>
	<circle cx="885.485" cy="431.148" r="4" fill="#0" id="circle346"/>
	<circle cx="888.994" cy="439.919" r="4" fill="#0" id="circle347"/>
	<circle cx="888.994" cy="739.887" r="4" fill="#0" id="circle348"/>
	<circle cx="893.379" cy="447.813" r="4" fill="#0" id="circle349"/>
	<circle cx="893.379" cy="731.116" r="4" fill="#0" id="circle350"/>
	<circle cx="895.134" cy="456.584" r="4" fill="#0" id="circle351"/>
	<circle cx="895.134" cy="719.714" r="4" fill="#0" id="circle352"/>
	<circle cx="899.519" cy="464.477" r="4" fill="#0" id="circle353"/>
	<circle cx="899.519" cy="473.248" r="4" fill="#0" id="circle354"/>
	<circle cx="899.519" cy="706.557" r="4" fill="#0" id="circle355"/>
	<circle cx="903.905" cy="481.142" r="4" fill="#0" id="circle356"/>
	<circle cx="903.905" cy="693.401" r="4" fill="#0" id="circle357"/>
	<circle cx="908.29" cy="489.036" r="4" fill="#0" id="circle358"/>
	<circle cx="908.29" cy="497.807" r="4" fill="#0" id="circle359"/>
	<circle cx="908.29" cy="680.244" r="4" fill="#0" id="circle360"/>
	<circle cx="912.676" cy="505.701" r="4" fill="#0" id="circle361"/>
	<circle cx="912.676" cy="514.472" r="4" fill="#0" id="circle362"/>
	<circle cx="912.676" cy="658.317" r="4" fill="#0" id="circle363"/>
	<circle cx="912.676" cy="667.088" r="4" fill="#0" id="circle364"/>
	<circle cx="915.307" cy="523.243" r="4" fill="#0" id="circle365"/>
	<circle cx="917.061" cy="532.014" r="4" fill="#0" id="circle366"/>
	<circle cx="917.061" cy="540.785" r="4" fill="#0" id="circle367"/>
	<circle cx="917.061" cy="632.004" r="4" fill="#0" id="circle368"/>
	<circle cx="917.061" cy="640.775" r="4" fill="#0" id="circle369"/>
	<circle cx="917.061" cy="649.546" r="4" fill="#0" id="circle370"/>
	<circle cx="919.692" cy="549.556" r="4" fill="#0" id="circle371"/>
	<circle cx="921.447" cy="558.327" r="4" fill="#0" id="circle372"/>
	<circle cx="921.447" cy="567.098" r="4" fill="#0" id="circle373"/>
	<circle cx="921.447" cy="575.869" r="4" fill="#0" id="circle374"/>
	<circle cx="921.447" cy="584.64" r="4" fill="#0" id="circle375"/>
	<circle cx="921.447" cy="593.411" r="4" fill="#0" id="circle376"/>
	<circle cx="921.447" cy="602.182" r="4" fill="#0" id="circle377"/>
	<circle cx="921.447" cy="610.953" r="4" fill="#0" id="circle378"/>
	<circle cx="921.447" cy="619.724" r="4" fill="#0" id="circle379"/>
	</g>
</svg>