<?xml version="1.0" encoding="UTF-8" standalone="no"?>
<!-- Created with CurveBenchmark -->
<svg
	xmlns:dc="http://purl.org/dc/elements/1.1/"
	xmlns:cc="http://creativecommons.org/ns#"
	xmlns:rdf="http://www.w3.org/1999/02/22-rdf-syntax-ns#"
	xmlns:svg="http://www.w3.org/2000/svg"
	xmlns="http://www.w3.org/2000/svg"
	xmlns:sodipodi="http://sodipodi.sourceforge.net/DTD/sodipodi-0.dtd"
	xmlns:inkscape="http://www.inkscape.org/namespaces/inkscape"
	width="1000"
	height="1000"
	id="svg2"
	version="1.1"
	sodipodi:docname="manifold/discur-television190.png.txt">
<defs
	id="defs4" />
<metadata
	id="metadata7">
	<rdf:RDF>
		<cc:Work
			rdf:about="">
			<dc:format>image/svg+xml</dc:format>
			<dc:type
				rdf:resource="http://purl.org/dc/dcmitype/StillImage" />
			<dc:title></dc:title>
		</cc:Work>
	</rdf:RDF>
</metadata>
<g
	inkscape:label="Layer 1"
	inkscape:groupmode="layer"
	id="layer1">
	<path style="fill:none;stroke:red;stroke-width:1px;stroke-linecap:butt;stroke-linejoin:miter;stroke-opacity:1" d="M 4,757.003 4,789.743 z" id="boundary" inkscape:connector-curvature="0" />
	<path style="fill:none;stroke:red;stroke-width:1px;stroke-linecap:butt;stroke-linejoin:miter;stroke-opacity:1" d="M 4,757.003 36.7393,750.455 z" id="boundary" inkscape:connector-curvature="0" />
	<path style="fill:none;stroke:red;stroke-width:1px;stroke-linecap:butt;stroke-linejoin:miter;stroke-opacity:1" d="M 4,789.743 20.3696,819.208 z" id="boundary" inkscape:connector-curvature="0" />
	<path style="fill:none;stroke:red;stroke-width:1px;stroke-linecap:butt;stroke-linejoin:miter;stroke-opacity:1" d="M 20.3696,819.208 53.1089,819.208 z" id="boundary" inkscape:connector-curvature="0" />
	<path style="fill:none;stroke:red;stroke-width:1px;stroke-linecap:butt;stroke-linejoin:miter;stroke-opacity:1" d="M 36.7393,750.455 69.4785,750.455 z" id="boundary" inkscape:connector-curvature="0" />
	<path style="fill:none;stroke:red;stroke-width:1px;stroke-linecap:butt;stroke-linejoin:miter;stroke-opacity:1" d="M 53.1089,819.208 85.8482,832.304 z" id="boundary" inkscape:connector-curvature="0" />
	<path style="fill:none;stroke:red;stroke-width:1px;stroke-linecap:butt;stroke-linejoin:miter;stroke-opacity:1" d="M 69.4785,554.02 95.67,576.937 z" id="boundary" inkscape:connector-curvature="0" />
	<path style="fill:none;stroke:red;stroke-width:1px;stroke-linecap:butt;stroke-linejoin:miter;stroke-opacity:1" d="M 69.4785,652.238 85.8482,681.703 z" id="boundary" inkscape:connector-curvature="0" />
	<path style="fill:none;stroke:red;stroke-width:1px;stroke-linecap:butt;stroke-linejoin:miter;stroke-opacity:1" d="M 69.4785,652.238 102.218,652.238 z" id="boundary" inkscape:connector-curvature="0" />
	<path style="fill:none;stroke:red;stroke-width:1px;stroke-linecap:butt;stroke-linejoin:miter;stroke-opacity:1" d="M 69.4785,750.455 102.218,750.455 z" id="boundary" inkscape:connector-curvature="0" />
	<path style="fill:none;stroke:red;stroke-width:1px;stroke-linecap:butt;stroke-linejoin:miter;stroke-opacity:1" d="M 85.8482,681.703 118.587,681.703 z" id="boundary" inkscape:connector-curvature="0" />
	<path style="fill:none;stroke:red;stroke-width:1px;stroke-linecap:butt;stroke-linejoin:miter;stroke-opacity:1" d="M 85.8482,832.304 118.587,819.208 z" id="boundary" inkscape:connector-curvature="0" />
	<path style="fill:none;stroke:red;stroke-width:1px;stroke-linecap:butt;stroke-linejoin:miter;stroke-opacity:1" d="M 95.67,576.937 128.409,576.937 z" id="boundary" inkscape:connector-curvature="0" />
	<path style="fill:none;stroke:red;stroke-width:1px;stroke-linecap:butt;stroke-linejoin:miter;stroke-opacity:1" d="M 102.218,652.238 134.957,652.238 z" id="boundary" inkscape:connector-curvature="0" />
	<path style="fill:none;stroke:red;stroke-width:1px;stroke-linecap:butt;stroke-linejoin:miter;stroke-opacity:1" d="M 102.218,750.455 134.957,750.455 z" id="boundary" inkscape:connector-curvature="0" />
	<path style="fill:none;stroke:red;stroke-width:1px;stroke-linecap:butt;stroke-linejoin:miter;stroke-opacity:1" d="M 108.766,17.0957 108.766,49.835 z" id="boundary" inkscape:connector-curvature="0" />
	<path style="fill:none;stroke:red;stroke-width:1px;stroke-linecap:butt;stroke-linejoin:miter;stroke-opacity:1" d="M 108.766,17.0957 141.505,4 z" id="boundary" inkscape:connector-curvature="0" />
	<path style="fill:none;stroke:red;stroke-width:1px;stroke-linecap:butt;stroke-linejoin:miter;stroke-opacity:1" d="M 108.766,49.835 108.766,82.5743 z" id="boundary" inkscape:connector-curvature="0" />
	<path style="fill:none;stroke:red;stroke-width:1px;stroke-linecap:butt;stroke-linejoin:miter;stroke-opacity:1" d="M 108.766,82.5743 108.766,115.314 z" id="boundary" inkscape:connector-curvature="0" />
	<path style="fill:none;stroke:red;stroke-width:1px;stroke-linecap:butt;stroke-linejoin:miter;stroke-opacity:1" d="M 108.766,115.314 108.766,148.053 z" id="boundary" inkscape:connector-curvature="0" />
	<path style="fill:none;stroke:red;stroke-width:1px;stroke-linecap:butt;stroke-linejoin:miter;stroke-opacity:1" d="M 108.766,148.053 108.766,180.792 z" id="boundary" inkscape:connector-curvature="0" />
	<path style="fill:none;stroke:red;stroke-width:1px;stroke-linecap:butt;stroke-linejoin:miter;stroke-opacity:1" d="M 108.766,180.792 108.766,213.531 z" id="boundary" inkscape:connector-curvature="0" />
	<path style="fill:none;stroke:red;stroke-width:1px;stroke-linecap:butt;stroke-linejoin:miter;stroke-opacity:1" d="M 108.766,213.531 108.766,246.271 z" id="boundary" inkscape:connector-curvature="0" />
	<path style="fill:none;stroke:red;stroke-width:1px;stroke-linecap:butt;stroke-linejoin:miter;stroke-opacity:1" d="M 108.766,246.271 108.766,279.01 z" id="boundary" inkscape:connector-curvature="0" />
	<path style="fill:none;stroke:red;stroke-width:1px;stroke-linecap:butt;stroke-linejoin:miter;stroke-opacity:1" d="M 108.766,279.01 108.766,311.749 z" id="boundary" inkscape:connector-curvature="0" />
	<path style="fill:none;stroke:red;stroke-width:1px;stroke-linecap:butt;stroke-linejoin:miter;stroke-opacity:1" d="M 108.766,311.749 108.766,344.488 z" id="boundary" inkscape:connector-curvature="0" />
	<path style="fill:none;stroke:red;stroke-width:1px;stroke-linecap:butt;stroke-linejoin:miter;stroke-opacity:1" d="M 108.766,344.488 108.766,377.228 z" id="boundary" inkscape:connector-curvature="0" />
	<path style="fill:none;stroke:red;stroke-width:1px;stroke-linecap:butt;stroke-linejoin:miter;stroke-opacity:1" d="M 108.766,377.228 108.766,409.967 z" id="boundary" inkscape:connector-curvature="0" />
	<path style="fill:none;stroke:red;stroke-width:1px;stroke-linecap:butt;stroke-linejoin:miter;stroke-opacity:1" d="M 108.766,409.967 125.135,439.432 z" id="boundary" inkscape:connector-curvature="0" />
	<path style="fill:none;stroke:red;stroke-width:1px;stroke-linecap:butt;stroke-linejoin:miter;stroke-opacity:1" d="M 112.04,547.472 128.409,576.937 z" id="boundary" inkscape:connector-curvature="0" />
	<path style="fill:none;stroke:red;stroke-width:1px;stroke-linecap:butt;stroke-linejoin:miter;stroke-opacity:1" d="M 112.04,547.472 144.779,547.472 z" id="boundary" inkscape:connector-curvature="0" />
	<path style="fill:none;stroke:red;stroke-width:1px;stroke-linecap:butt;stroke-linejoin:miter;stroke-opacity:1" d="M 118.587,681.703 151.327,681.703 z" id="boundary" inkscape:connector-curvature="0" />
	<path style="fill:none;stroke:red;stroke-width:1px;stroke-linecap:butt;stroke-linejoin:miter;stroke-opacity:1" d="M 118.587,819.208 151.327,819.208 z" id="boundary" inkscape:connector-curvature="0" />
	<path style="fill:none;stroke:red;stroke-width:1px;stroke-linecap:butt;stroke-linejoin:miter;stroke-opacity:1" d="M 125.135,439.432 157.875,439.432 z" id="boundary" inkscape:connector-curvature="0" />
	<path style="fill:none;stroke:red;stroke-width:1px;stroke-linecap:butt;stroke-linejoin:miter;stroke-opacity:1" d="M 134.957,652.238 167.696,652.238 z" id="boundary" inkscape:connector-curvature="0" />
	<path style="fill:none;stroke:red;stroke-width:1px;stroke-linecap:butt;stroke-linejoin:miter;stroke-opacity:1" d="M 134.957,750.455 167.696,750.455 z" id="boundary" inkscape:connector-curvature="0" />
	<path style="fill:none;stroke:red;stroke-width:1px;stroke-linecap:butt;stroke-linejoin:miter;stroke-opacity:1" d="M 141.505,4 174.244,4 z" id="boundary" inkscape:connector-curvature="0" />
	<path style="fill:none;stroke:red;stroke-width:1px;stroke-linecap:butt;stroke-linejoin:miter;stroke-opacity:1" d="M 144.779,547.472 177.518,547.472 z" id="boundary" inkscape:connector-curvature="0" />
	<path style="fill:none;stroke:red;stroke-width:1px;stroke-linecap:butt;stroke-linejoin:miter;stroke-opacity:1" d="M 151.327,681.703 184.066,681.703 z" id="boundary" inkscape:connector-curvature="0" />
	<path style="fill:none;stroke:red;stroke-width:1px;stroke-linecap:butt;stroke-linejoin:miter;stroke-opacity:1" d="M 151.327,819.208 184.066,819.208 z" id="boundary" inkscape:connector-curvature="0" />
	<path style="fill:none;stroke:red;stroke-width:1px;stroke-linecap:butt;stroke-linejoin:miter;stroke-opacity:1" d="M 157.875,439.432 190.614,439.432 z" id="boundary" inkscape:connector-curvature="0" />
	<path style="fill:none;stroke:red;stroke-width:1px;stroke-linecap:butt;stroke-linejoin:miter;stroke-opacity:1" d="M 161.149,576.937 193.888,576.937 z" id="boundary" inkscape:connector-curvature="0" />
	<path style="fill:none;stroke:red;stroke-width:1px;stroke-linecap:butt;stroke-linejoin:miter;stroke-opacity:1" d="M 167.696,652.238 200.436,652.238 z" id="boundary" inkscape:connector-curvature="0" />
	<path style="fill:none;stroke:red;stroke-width:1px;stroke-linecap:butt;stroke-linejoin:miter;stroke-opacity:1" d="M 167.696,750.455 200.436,750.455 z" id="boundary" inkscape:connector-curvature="0" />
	<path style="fill:none;stroke:red;stroke-width:1px;stroke-linecap:butt;stroke-linejoin:miter;stroke-opacity:1" d="M 174.244,4 206.983,4 z" id="boundary" inkscape:connector-curvature="0" />
	<path style="fill:none;stroke:red;stroke-width:1px;stroke-linecap:butt;stroke-linejoin:miter;stroke-opacity:1" d="M 177.518,547.472 210.257,547.472 z" id="boundary" inkscape:connector-curvature="0" />
	<path style="fill:none;stroke:red;stroke-width:1px;stroke-linecap:butt;stroke-linejoin:miter;stroke-opacity:1" d="M 184.066,681.703 216.805,681.703 z" id="boundary" inkscape:connector-curvature="0" />
	<path style="fill:none;stroke:red;stroke-width:1px;stroke-linecap:butt;stroke-linejoin:miter;stroke-opacity:1" d="M 184.066,819.208 216.805,819.208 z" id="boundary" inkscape:connector-curvature="0" />
	<path style="fill:none;stroke:red;stroke-width:1px;stroke-linecap:butt;stroke-linejoin:miter;stroke-opacity:1" d="M 190.614,439.432 223.353,439.432 z" id="boundary" inkscape:connector-curvature="0" />
	<path style="fill:none;stroke:red;stroke-width:1px;stroke-linecap:butt;stroke-linejoin:miter;stroke-opacity:1" d="M 193.888,576.937 226.627,576.937 z" id="boundary" inkscape:connector-curvature="0" />
	<path style="fill:none;stroke:red;stroke-width:1px;stroke-linecap:butt;stroke-linejoin:miter;stroke-opacity:1" d="M 200.436,652.238 233.175,652.238 z" id="boundary" inkscape:connector-curvature="0" />
	<path style="fill:none;stroke:red;stroke-width:1px;stroke-linecap:butt;stroke-linejoin:miter;stroke-opacity:1" d="M 200.436,750.455 233.175,750.455 z" id="boundary" inkscape:connector-curvature="0" />
	<path style="fill:none;stroke:red;stroke-width:1px;stroke-linecap:butt;stroke-linejoin:miter;stroke-opacity:1" d="M 206.983,4 239.723,4 z" id="boundary" inkscape:connector-curvature="0" />
	<path style="fill:none;stroke:red;stroke-width:1px;stroke-linecap:butt;stroke-linejoin:miter;stroke-opacity:1" d="M 210.257,547.472 242.997,547.472 z" id="boundary" inkscape:connector-curvature="0" />
	<path style="fill:none;stroke:red;stroke-width:1px;stroke-linecap:butt;stroke-linejoin:miter;stroke-opacity:1" d="M 216.805,681.703 249.545,681.703 z" id="boundary" inkscape:connector-curvature="0" />
	<path style="fill:none;stroke:red;stroke-width:1px;stroke-linecap:butt;stroke-linejoin:miter;stroke-opacity:1" d="M 216.805,819.208 249.545,819.208 z" id="boundary" inkscape:connector-curvature="0" />
	<path style="fill:none;stroke:red;stroke-width:1px;stroke-linecap:butt;stroke-linejoin:miter;stroke-opacity:1" d="M 223.353,439.432 256.092,439.432 z" id="boundary" inkscape:connector-curvature="0" />
	<path style="fill:none;stroke:red;stroke-width:1px;stroke-linecap:butt;stroke-linejoin:miter;stroke-opacity:1" d="M 226.627,576.937 259.366,576.937 z" id="boundary" inkscape:connector-curvature="0" />
	<path style="fill:none;stroke:red;stroke-width:1px;stroke-linecap:butt;stroke-linejoin:miter;stroke-opacity:1" d="M 233.175,652.238 265.914,652.238 z" id="boundary" inkscape:connector-curvature="0" />
	<path style="fill:none;stroke:red;stroke-width:1px;stroke-linecap:butt;stroke-linejoin:miter;stroke-opacity:1" d="M 233.175,750.455 265.914,750.455 z" id="boundary" inkscape:connector-curvature="0" />
	<path style="fill:none;stroke:red;stroke-width:1px;stroke-linecap:butt;stroke-linejoin:miter;stroke-opacity:1" d="M 239.723,4 272.462,4 z" id="boundary" inkscape:connector-curvature="0" />
	<path style="fill:none;stroke:red;stroke-width:1px;stroke-linecap:butt;stroke-linejoin:miter;stroke-opacity:1" d="M 242.997,547.472 275.736,547.472 z" id="boundary" inkscape:connector-curvature="0" />
	<path style="fill:none;stroke:red;stroke-width:1px;stroke-linecap:butt;stroke-linejoin:miter;stroke-opacity:1" d="M 249.545,681.703 282.284,681.703 z" id="boundary" inkscape:connector-curvature="0" />
	<path style="fill:none;stroke:red;stroke-width:1px;stroke-linecap:butt;stroke-linejoin:miter;stroke-opacity:1" d="M 249.545,819.208 282.284,819.208 z" id="boundary" inkscape:connector-curvature="0" />
	<path style="fill:none;stroke:red;stroke-width:1px;stroke-linecap:butt;stroke-linejoin:miter;stroke-opacity:1" d="M 256.092,439.432 288.832,439.432 z" id="boundary" inkscape:connector-curvature="0" />
	<path style="fill:none;stroke:red;stroke-width:1px;stroke-linecap:butt;stroke-linejoin:miter;stroke-opacity:1" d="M 259.366,576.937 292.106,576.937 z" id="boundary" inkscape:connector-curvature="0" />
	<path style="fill:none;stroke:red;stroke-width:1px;stroke-linecap:butt;stroke-linejoin:miter;stroke-opacity:1" d="M 265.914,652.238 298.653,652.238 z" id="boundary" inkscape:connector-curvature="0" />
	<path style="fill:none;stroke:red;stroke-width:1px;stroke-linecap:butt;stroke-linejoin:miter;stroke-opacity:1" d="M 265.914,750.455 298.653,750.455 z" id="boundary" inkscape:connector-curvature="0" />
	<path style="fill:none;stroke:red;stroke-width:1px;stroke-linecap:butt;stroke-linejoin:miter;stroke-opacity:1" d="M 272.462,4 305.201,4 z" id="boundary" inkscape:connector-curvature="0" />
	<path style="fill:none;stroke:red;stroke-width:1px;stroke-linecap:butt;stroke-linejoin:miter;stroke-opacity:1" d="M 275.736,547.472 308.475,547.472 z" id="boundary" inkscape:connector-curvature="0" />
	<path style="fill:none;stroke:red;stroke-width:1px;stroke-linecap:butt;stroke-linejoin:miter;stroke-opacity:1" d="M 282.284,681.703 315.023,681.703 z" id="boundary" inkscape:connector-curvature="0" />
	<path style="fill:none;stroke:red;stroke-width:1px;stroke-linecap:butt;stroke-linejoin:miter;stroke-opacity:1" d="M 282.284,819.208 315.023,819.208 z" id="boundary" inkscape:connector-curvature="0" />
	<path style="fill:none;stroke:red;stroke-width:1px;stroke-linecap:butt;stroke-linejoin:miter;stroke-opacity:1" d="M 288.832,439.432 321.571,439.432 z" id="boundary" inkscape:connector-curvature="0" />
	<path style="fill:none;stroke:red;stroke-width:1px;stroke-linecap:butt;stroke-linejoin:miter;stroke-opacity:1" d="M 292.106,576.937 324.845,576.937 z" id="boundary" inkscape:connector-curvature="0" />
	<path style="fill:none;stroke:red;stroke-width:1px;stroke-linecap:butt;stroke-linejoin:miter;stroke-opacity:1" d="M 298.653,652.238 331.393,652.238 z" id="boundary" inkscape:connector-curvature="0" />
	<path style="fill:none;stroke:red;stroke-width:1px;stroke-linecap:butt;stroke-linejoin:miter;stroke-opacity:1" d="M 298.653,750.455 331.393,750.455 z" id="boundary" inkscape:connector-curvature="0" />
	<path style="fill:none;stroke:red;stroke-width:1px;stroke-linecap:butt;stroke-linejoin:miter;stroke-opacity:1" d="M 305.201,4 337.941,4 z" id="boundary" inkscape:connector-curvature="0" />
	<path style="fill:none;stroke:red;stroke-width:1px;stroke-linecap:butt;stroke-linejoin:miter;stroke-opacity:1" d="M 308.475,547.472 341.215,547.472 z" id="boundary" inkscape:connector-curvature="0" />
	<path style="fill:none;stroke:red;stroke-width:1px;stroke-linecap:butt;stroke-linejoin:miter;stroke-opacity:1" d="M 315.023,681.703 347.762,681.703 z" id="boundary" inkscape:connector-curvature="0" />
	<path style="fill:none;stroke:red;stroke-width:1px;stroke-linecap:butt;stroke-linejoin:miter;stroke-opacity:1" d="M 315.023,819.208 347.762,819.208 z" id="boundary" inkscape:connector-curvature="0" />
	<path style="fill:none;stroke:red;stroke-width:1px;stroke-linecap:butt;stroke-linejoin:miter;stroke-opacity:1" d="M 321.571,439.432 354.31,439.432 z" id="boundary" inkscape:connector-curvature="0" />
	<path style="fill:none;stroke:red;stroke-width:1px;stroke-linecap:butt;stroke-linejoin:miter;stroke-opacity:1" d="M 331.393,652.238 364.132,652.238 z" id="boundary" inkscape:connector-curvature="0" />
	<path style="fill:none;stroke:red;stroke-width:1px;stroke-linecap:butt;stroke-linejoin:miter;stroke-opacity:1" d="M 331.393,750.455 357.584,770.099 z" id="boundary" inkscape:connector-curvature="0" />
	<path style="fill:none;stroke:red;stroke-width:1px;stroke-linecap:butt;stroke-linejoin:miter;stroke-opacity:1" d="M 337.941,4 370.68,4 z" id="boundary" inkscape:connector-curvature="0" />
	<path style="fill:none;stroke:red;stroke-width:1px;stroke-linecap:butt;stroke-linejoin:miter;stroke-opacity:1" d="M 341.215,547.472 373.954,547.472 z" id="boundary" inkscape:connector-curvature="0" />
	<path style="fill:none;stroke:red;stroke-width:1px;stroke-linecap:butt;stroke-linejoin:miter;stroke-opacity:1" d="M 347.762,681.703 380.502,681.703 z" id="boundary" inkscape:connector-curvature="0" />
	<path style="fill:none;stroke:red;stroke-width:1px;stroke-linecap:butt;stroke-linejoin:miter;stroke-opacity:1" d="M 347.762,819.208 380.502,819.208 z" id="boundary" inkscape:connector-curvature="0" />
	<path style="fill:none;stroke:red;stroke-width:1px;stroke-linecap:butt;stroke-linejoin:miter;stroke-opacity:1" d="M 354.31,439.432 387.05,439.432 z" id="boundary" inkscape:connector-curvature="0" />
	<path style="fill:none;stroke:red;stroke-width:1px;stroke-linecap:butt;stroke-linejoin:miter;stroke-opacity:1" d="M 357.584,576.937 373.954,547.472 z" id="boundary" inkscape:connector-curvature="0" />
	<path style="fill:none;stroke:red;stroke-width:1px;stroke-linecap:butt;stroke-linejoin:miter;stroke-opacity:1" d="M 357.584,576.937 390.323,580.211 z" id="boundary" inkscape:connector-curvature="0" />
	<path style="fill:none;stroke:red;stroke-width:1px;stroke-linecap:butt;stroke-linejoin:miter;stroke-opacity:1" d="M 357.584,770.099 383.776,750.455 z" id="boundary" inkscape:connector-curvature="0" />
	<path style="fill:none;stroke:red;stroke-width:1px;stroke-linecap:butt;stroke-linejoin:miter;stroke-opacity:1" d="M 364.132,652.238 390.323,612.95 z" id="boundary" inkscape:connector-curvature="0" />
	<path style="fill:none;stroke:red;stroke-width:1px;stroke-linecap:butt;stroke-linejoin:miter;stroke-opacity:1" d="M 370.68,4 403.419,4 z" id="boundary" inkscape:connector-curvature="0" />
	<path style="fill:none;stroke:red;stroke-width:1px;stroke-linecap:butt;stroke-linejoin:miter;stroke-opacity:1" d="M 380.502,681.703 390.323,714.442 z" id="boundary" inkscape:connector-curvature="0" />
	<path style="fill:none;stroke:red;stroke-width:1px;stroke-linecap:butt;stroke-linejoin:miter;stroke-opacity:1" d="M 380.502,819.208 413.241,819.208 z" id="boundary" inkscape:connector-curvature="0" />
	<path style="fill:none;stroke:red;stroke-width:1px;stroke-linecap:butt;stroke-linejoin:miter;stroke-opacity:1" d="M 383.776,750.455 390.323,714.442 z" id="boundary" inkscape:connector-curvature="0" />
	<path style="fill:none;stroke:red;stroke-width:1px;stroke-linecap:butt;stroke-linejoin:miter;stroke-opacity:1" d="M 387.05,439.432 390.323,472.172 z" id="boundary" inkscape:connector-curvature="0" />
	<path style="fill:none;stroke:red;stroke-width:1px;stroke-linecap:butt;stroke-linejoin:miter;stroke-opacity:1" d="M 390.323,472.172 390.323,504.911 z" id="boundary" inkscape:connector-curvature="0" />
	<path style="fill:none;stroke:red;stroke-width:1px;stroke-linecap:butt;stroke-linejoin:miter;stroke-opacity:1" d="M 390.323,580.211 390.323,612.95 z" id="boundary" inkscape:connector-curvature="0" />
	<path style="fill:none;stroke:red;stroke-width:1px;stroke-linecap:butt;stroke-linejoin:miter;stroke-opacity:1" d="M 403.419,4 436.158,4 z" id="boundary" inkscape:connector-curvature="0" />
	<path style="fill:none;stroke:red;stroke-width:1px;stroke-linecap:butt;stroke-linejoin:miter;stroke-opacity:1" d="M 413.241,819.208 445.98,819.208 z" id="boundary" inkscape:connector-curvature="0" />
	<path style="fill:none;stroke:red;stroke-width:1px;stroke-linecap:butt;stroke-linejoin:miter;stroke-opacity:1" d="M 436.158,4 468.898,4 z" id="boundary" inkscape:connector-curvature="0" />
	<path style="fill:none;stroke:red;stroke-width:1px;stroke-linecap:butt;stroke-linejoin:miter;stroke-opacity:1" d="M 445.98,819.208 478.719,819.208 z" id="boundary" inkscape:connector-curvature="0" />
	<path style="fill:none;stroke:red;stroke-width:1px;stroke-linecap:butt;stroke-linejoin:miter;stroke-opacity:1" d="M 468.898,4 501.637,4 z" id="boundary" inkscape:connector-curvature="0" />
	<path style="fill:none;stroke:red;stroke-width:1px;stroke-linecap:butt;stroke-linejoin:miter;stroke-opacity:1" d="M 478.719,819.208 511.459,819.208 z" id="boundary" inkscape:connector-curvature="0" />
	<path style="fill:none;stroke:red;stroke-width:1px;stroke-linecap:butt;stroke-linejoin:miter;stroke-opacity:1" d="M 501.637,4 534.376,4 z" id="boundary" inkscape:connector-curvature="0" />
	<path style="fill:none;stroke:red;stroke-width:1px;stroke-linecap:butt;stroke-linejoin:miter;stroke-opacity:1" d="M 511.459,819.208 544.198,819.208 z" id="boundary" inkscape:connector-curvature="0" />
	<path style="fill:none;stroke:red;stroke-width:1px;stroke-linecap:butt;stroke-linejoin:miter;stroke-opacity:1" d="M 534.376,4 567.116,4 z" id="boundary" inkscape:connector-curvature="0" />
	<path style="fill:none;stroke:red;stroke-width:1px;stroke-linecap:butt;stroke-linejoin:miter;stroke-opacity:1" d="M 544.198,819.208 576.937,819.208 z" id="boundary" inkscape:connector-curvature="0" />
	<path style="fill:none;stroke:red;stroke-width:1px;stroke-linecap:butt;stroke-linejoin:miter;stroke-opacity:1" d="M 567.116,4 599.855,4 z" id="boundary" inkscape:connector-curvature="0" />
	<path style="fill:none;stroke:red;stroke-width:1px;stroke-linecap:butt;stroke-linejoin:miter;stroke-opacity:1" d="M 576.937,819.208 609.677,819.208 z" id="boundary" inkscape:connector-curvature="0" />
	<path style="fill:none;stroke:red;stroke-width:1px;stroke-linecap:butt;stroke-linejoin:miter;stroke-opacity:1" d="M 583.485,442.706 583.485,475.446 z" id="boundary" inkscape:connector-curvature="0" />
	<path style="fill:none;stroke:red;stroke-width:1px;stroke-linecap:butt;stroke-linejoin:miter;stroke-opacity:1" d="M 583.485,442.706 616.224,439.432 z" id="boundary" inkscape:connector-curvature="0" />
	<path style="fill:none;stroke:red;stroke-width:1px;stroke-linecap:butt;stroke-linejoin:miter;stroke-opacity:1" d="M 583.485,475.446 583.485,508.185 z" id="boundary" inkscape:connector-curvature="0" />
	<path style="fill:none;stroke:red;stroke-width:1px;stroke-linecap:butt;stroke-linejoin:miter;stroke-opacity:1" d="M 583.485,508.185 583.485,540.924 z" id="boundary" inkscape:connector-curvature="0" />
	<path style="fill:none;stroke:red;stroke-width:1px;stroke-linecap:butt;stroke-linejoin:miter;stroke-opacity:1" d="M 583.485,540.924 616.224,547.472 z" id="boundary" inkscape:connector-curvature="0" />
	<path style="fill:none;stroke:red;stroke-width:1px;stroke-linecap:butt;stroke-linejoin:miter;stroke-opacity:1" d="M 583.485,580.211 583.485,612.95 z" id="boundary" inkscape:connector-curvature="0" />
	<path style="fill:none;stroke:red;stroke-width:1px;stroke-linecap:butt;stroke-linejoin:miter;stroke-opacity:1" d="M 583.485,580.211 632.594,576.937 z" id="boundary" inkscape:connector-curvature="0" />
	<path style="fill:none;stroke:red;stroke-width:1px;stroke-linecap:butt;stroke-linejoin:miter;stroke-opacity:1" d="M 583.485,612.95 583.485,645.69 z" id="boundary" inkscape:connector-curvature="0" />
	<path style="fill:none;stroke:red;stroke-width:1px;stroke-linecap:butt;stroke-linejoin:miter;stroke-opacity:1" d="M 583.485,645.69 616.224,652.238 z" id="boundary" inkscape:connector-curvature="0" />
	<path style="fill:none;stroke:red;stroke-width:1px;stroke-linecap:butt;stroke-linejoin:miter;stroke-opacity:1" d="M 583.485,684.977 583.485,717.716 z" id="boundary" inkscape:connector-curvature="0" />
	<path style="fill:none;stroke:red;stroke-width:1px;stroke-linecap:butt;stroke-linejoin:miter;stroke-opacity:1" d="M 583.485,684.977 632.594,681.703 z" id="boundary" inkscape:connector-curvature="0" />
	<path style="fill:none;stroke:red;stroke-width:1px;stroke-linecap:butt;stroke-linejoin:miter;stroke-opacity:1" d="M 583.485,717.716 586.759,750.455 z" id="boundary" inkscape:connector-curvature="0" />
	<path style="fill:none;stroke:red;stroke-width:1px;stroke-linecap:butt;stroke-linejoin:miter;stroke-opacity:1" d="M 586.759,750.455 612.95,770.099 z" id="boundary" inkscape:connector-curvature="0" />
	<path style="fill:none;stroke:red;stroke-width:1px;stroke-linecap:butt;stroke-linejoin:miter;stroke-opacity:1" d="M 599.855,4 632.594,4 z" id="boundary" inkscape:connector-curvature="0" />
	<path style="fill:none;stroke:red;stroke-width:1px;stroke-linecap:butt;stroke-linejoin:miter;stroke-opacity:1" d="M 609.677,819.208 642.416,819.208 z" id="boundary" inkscape:connector-curvature="0" />
	<path style="fill:none;stroke:red;stroke-width:1px;stroke-linecap:butt;stroke-linejoin:miter;stroke-opacity:1" d="M 612.95,770.099 639.142,750.455 z" id="boundary" inkscape:connector-curvature="0" />
	<path style="fill:none;stroke:red;stroke-width:1px;stroke-linecap:butt;stroke-linejoin:miter;stroke-opacity:1" d="M 616.224,439.432 648.964,439.432 z" id="boundary" inkscape:connector-curvature="0" />
	<path style="fill:none;stroke:red;stroke-width:1px;stroke-linecap:butt;stroke-linejoin:miter;stroke-opacity:1" d="M 616.224,547.472 648.964,547.472 z" id="boundary" inkscape:connector-curvature="0" />
	<path style="fill:none;stroke:red;stroke-width:1px;stroke-linecap:butt;stroke-linejoin:miter;stroke-opacity:1" d="M 616.224,652.238 648.964,652.238 z" id="boundary" inkscape:connector-curvature="0" />
	<path style="fill:none;stroke:red;stroke-width:1px;stroke-linecap:butt;stroke-linejoin:miter;stroke-opacity:1" d="M 632.594,4 665.333,4 z" id="boundary" inkscape:connector-curvature="0" />
	<path style="fill:none;stroke:red;stroke-width:1px;stroke-linecap:butt;stroke-linejoin:miter;stroke-opacity:1" d="M 632.594,576.937 665.333,576.937 z" id="boundary" inkscape:connector-curvature="0" />
	<path style="fill:none;stroke:red;stroke-width:1px;stroke-linecap:butt;stroke-linejoin:miter;stroke-opacity:1" d="M 632.594,681.703 665.333,681.703 z" id="boundary" inkscape:connector-curvature="0" />
	<path style="fill:none;stroke:red;stroke-width:1px;stroke-linecap:butt;stroke-linejoin:miter;stroke-opacity:1" d="M 639.142,750.455 671.881,750.455 z" id="boundary" inkscape:connector-curvature="0" />
	<path style="fill:none;stroke:red;stroke-width:1px;stroke-linecap:butt;stroke-linejoin:miter;stroke-opacity:1" d="M 642.416,819.208 675.155,819.208 z" id="boundary" inkscape:connector-curvature="0" />
	<path style="fill:none;stroke:red;stroke-width:1px;stroke-linecap:butt;stroke-linejoin:miter;stroke-opacity:1" d="M 648.964,439.432 681.703,439.432 z" id="boundary" inkscape:connector-curvature="0" />
	<path style="fill:none;stroke:red;stroke-width:1px;stroke-linecap:butt;stroke-linejoin:miter;stroke-opacity:1" d="M 648.964,547.472 681.703,547.472 z" id="boundary" inkscape:connector-curvature="0" />
	<path style="fill:none;stroke:red;stroke-width:1px;stroke-linecap:butt;stroke-linejoin:miter;stroke-opacity:1" d="M 648.964,652.238 681.703,652.238 z" id="boundary" inkscape:connector-curvature="0" />
	<path style="fill:none;stroke:red;stroke-width:1px;stroke-linecap:butt;stroke-linejoin:miter;stroke-opacity:1" d="M 665.333,4 698.073,4 z" id="boundary" inkscape:connector-curvature="0" />
	<path style="fill:none;stroke:red;stroke-width:1px;stroke-linecap:butt;stroke-linejoin:miter;stroke-opacity:1" d="M 665.333,576.937 698.073,576.937 z" id="boundary" inkscape:connector-curvature="0" />
	<path style="fill:none;stroke:red;stroke-width:1px;stroke-linecap:butt;stroke-linejoin:miter;stroke-opacity:1" d="M 665.333,681.703 698.073,681.703 z" id="boundary" inkscape:connector-curvature="0" />
	<path style="fill:none;stroke:red;stroke-width:1px;stroke-linecap:butt;stroke-linejoin:miter;stroke-opacity:1" d="M 671.881,750.455 704.62,750.455 z" id="boundary" inkscape:connector-curvature="0" />
	<path style="fill:none;stroke:red;stroke-width:1px;stroke-linecap:butt;stroke-linejoin:miter;stroke-opacity:1" d="M 675.155,819.208 707.894,819.208 z" id="boundary" inkscape:connector-curvature="0" />
	<path style="fill:none;stroke:red;stroke-width:1px;stroke-linecap:butt;stroke-linejoin:miter;stroke-opacity:1" d="M 681.703,439.432 714.442,439.432 z" id="boundary" inkscape:connector-curvature="0" />
	<path style="fill:none;stroke:red;stroke-width:1px;stroke-linecap:butt;stroke-linejoin:miter;stroke-opacity:1" d="M 681.703,547.472 714.442,547.472 z" id="boundary" inkscape:connector-curvature="0" />
	<path style="fill:none;stroke:red;stroke-width:1px;stroke-linecap:butt;stroke-linejoin:miter;stroke-opacity:1" d="M 681.703,652.238 714.442,652.238 z" id="boundary" inkscape:connector-curvature="0" />
	<path style="fill:none;stroke:red;stroke-width:1px;stroke-linecap:butt;stroke-linejoin:miter;stroke-opacity:1" d="M 698.073,4 730.812,4 z" id="boundary" inkscape:connector-curvature="0" />
	<path style="fill:none;stroke:red;stroke-width:1px;stroke-linecap:butt;stroke-linejoin:miter;stroke-opacity:1" d="M 698.073,576.937 730.812,576.937 z" id="boundary" inkscape:connector-curvature="0" />
	<path style="fill:none;stroke:red;stroke-width:1px;stroke-linecap:butt;stroke-linejoin:miter;stroke-opacity:1" d="M 698.073,681.703 730.812,681.703 z" id="boundary" inkscape:connector-curvature="0" />
	<path style="fill:none;stroke:red;stroke-width:1px;stroke-linecap:butt;stroke-linejoin:miter;stroke-opacity:1" d="M 704.62,750.455 737.36,750.455 z" id="boundary" inkscape:connector-curvature="0" />
	<path style="fill:none;stroke:red;stroke-width:1px;stroke-linecap:butt;stroke-linejoin:miter;stroke-opacity:1" d="M 707.894,819.208 740.634,819.208 z" id="boundary" inkscape:connector-curvature="0" />
	<path style="fill:none;stroke:red;stroke-width:1px;stroke-linecap:butt;stroke-linejoin:miter;stroke-opacity:1" d="M 714.442,439.432 747.182,439.432 z" id="boundary" inkscape:connector-curvature="0" />
	<path style="fill:none;stroke:red;stroke-width:1px;stroke-linecap:butt;stroke-linejoin:miter;stroke-opacity:1" d="M 714.442,547.472 747.182,547.472 z" id="boundary" inkscape:connector-curvature="0" />
	<path style="fill:none;stroke:red;stroke-width:1px;stroke-linecap:butt;stroke-linejoin:miter;stroke-opacity:1" d="M 714.442,652.238 747.182,652.238 z" id="boundary" inkscape:connector-curvature="0" />
	<path style="fill:none;stroke:red;stroke-width:1px;stroke-linecap:butt;stroke-linejoin:miter;stroke-opacity:1" d="M 730.812,4 763.551,4 z" id="boundary" inkscape:connector-curvature="0" />
	<path style="fill:none;stroke:red;stroke-width:1px;stroke-linecap:butt;stroke-linejoin:miter;stroke-opacity:1" d="M 730.812,576.937 763.551,576.937 z" id="boundary" inkscape:connector-curvature="0" />
	<path style="fill:none;stroke:red;stroke-width:1px;stroke-linecap:butt;stroke-linejoin:miter;stroke-opacity:1" d="M 730.812,681.703 763.551,681.703 z" id="boundary" inkscape:connector-curvature="0" />
	<path style="fill:none;stroke:red;stroke-width:1px;stroke-linecap:butt;stroke-linejoin:miter;stroke-opacity:1" d="M 737.36,750.455 770.099,750.455 z" id="boundary" inkscape:connector-curvature="0" />
	<path style="fill:none;stroke:red;stroke-width:1px;stroke-linecap:butt;stroke-linejoin:miter;stroke-opacity:1" d="M 740.634,819.208 773.373,819.208 z" id="boundary" inkscape:connector-curvature="0" />
	<path style="fill:none;stroke:red;stroke-width:1px;stroke-linecap:butt;stroke-linejoin:miter;stroke-opacity:1" d="M 747.182,439.432 779.921,439.432 z" id="boundary" inkscape:connector-curvature="0" />
	<path style="fill:none;stroke:red;stroke-width:1px;stroke-linecap:butt;stroke-linejoin:miter;stroke-opacity:1" d="M 747.182,547.472 779.921,547.472 z" id="boundary" inkscape:connector-curvature="0" />
	<path style="fill:none;stroke:red;stroke-width:1px;stroke-linecap:butt;stroke-linejoin:miter;stroke-opacity:1" d="M 747.182,652.238 779.921,652.238 z" id="boundary" inkscape:connector-curvature="0" />
	<path style="fill:none;stroke:red;stroke-width:1px;stroke-linecap:butt;stroke-linejoin:miter;stroke-opacity:1" d="M 763.551,4 796.29,4 z" id="boundary" inkscape:connector-curvature="0" />
	<path style="fill:none;stroke:red;stroke-width:1px;stroke-linecap:butt;stroke-linejoin:miter;stroke-opacity:1" d="M 763.551,576.937 796.29,576.937 z" id="boundary" inkscape:connector-curvature="0" />
	<path style="fill:none;stroke:red;stroke-width:1px;stroke-linecap:butt;stroke-linejoin:miter;stroke-opacity:1" d="M 763.551,681.703 796.29,681.703 z" id="boundary" inkscape:connector-curvature="0" />
	<path style="fill:none;stroke:red;stroke-width:1px;stroke-linecap:butt;stroke-linejoin:miter;stroke-opacity:1" d="M 770.099,750.455 802.838,750.455 z" id="boundary" inkscape:connector-curvature="0" />
	<path style="fill:none;stroke:red;stroke-width:1px;stroke-linecap:butt;stroke-linejoin:miter;stroke-opacity:1" d="M 773.373,819.208 806.112,819.208 z" id="boundary" inkscape:connector-curvature="0" />
	<path style="fill:none;stroke:red;stroke-width:1px;stroke-linecap:butt;stroke-linejoin:miter;stroke-opacity:1" d="M 779.921,439.432 812.66,439.432 z" id="boundary" inkscape:connector-curvature="0" />
	<path style="fill:none;stroke:red;stroke-width:1px;stroke-linecap:butt;stroke-linejoin:miter;stroke-opacity:1" d="M 779.921,547.472 812.66,547.472 z" id="boundary" inkscape:connector-curvature="0" />
	<path style="fill:none;stroke:red;stroke-width:1px;stroke-linecap:butt;stroke-linejoin:miter;stroke-opacity:1" d="M 779.921,652.238 812.66,652.238 z" id="boundary" inkscape:connector-curvature="0" />
	<path style="fill:none;stroke:red;stroke-width:1px;stroke-linecap:butt;stroke-linejoin:miter;stroke-opacity:1" d="M 796.29,4 829.03,4 z" id="boundary" inkscape:connector-curvature="0" />
	<path style="fill:none;stroke:red;stroke-width:1px;stroke-linecap:butt;stroke-linejoin:miter;stroke-opacity:1" d="M 796.29,576.937 829.03,576.937 z" id="boundary" inkscape:connector-curvature="0" />
	<path style="fill:none;stroke:red;stroke-width:1px;stroke-linecap:butt;stroke-linejoin:miter;stroke-opacity:1" d="M 796.29,681.703 829.03,681.703 z" id="boundary" inkscape:connector-curvature="0" />
	<path style="fill:none;stroke:red;stroke-width:1px;stroke-linecap:butt;stroke-linejoin:miter;stroke-opacity:1" d="M 802.838,750.455 835.578,750.455 z" id="boundary" inkscape:connector-curvature="0" />
	<path style="fill:none;stroke:red;stroke-width:1px;stroke-linecap:butt;stroke-linejoin:miter;stroke-opacity:1" d="M 806.112,819.208 838.851,819.208 z" id="boundary" inkscape:connector-curvature="0" />
	<path style="fill:none;stroke:red;stroke-width:1px;stroke-linecap:butt;stroke-linejoin:miter;stroke-opacity:1" d="M 812.66,439.432 845.399,439.432 z" id="boundary" inkscape:connector-curvature="0" />
	<path style="fill:none;stroke:red;stroke-width:1px;stroke-linecap:butt;stroke-linejoin:miter;stroke-opacity:1" d="M 812.66,547.472 845.399,547.472 z" id="boundary" inkscape:connector-curvature="0" />
	<path style="fill:none;stroke:red;stroke-width:1px;stroke-linecap:butt;stroke-linejoin:miter;stroke-opacity:1" d="M 812.66,652.238 845.399,652.238 z" id="boundary" inkscape:connector-curvature="0" />
	<path style="fill:none;stroke:red;stroke-width:1px;stroke-linecap:butt;stroke-linejoin:miter;stroke-opacity:1" d="M 829.03,4 861.769,4 z" id="boundary" inkscape:connector-curvature="0" />
	<path style="fill:none;stroke:red;stroke-width:1px;stroke-linecap:butt;stroke-linejoin:miter;stroke-opacity:1" d="M 829.03,576.937 861.769,576.937 z" id="boundary" inkscape:connector-curvature="0" />
	<path style="fill:none;stroke:red;stroke-width:1px;stroke-linecap:butt;stroke-linejoin:miter;stroke-opacity:1" d="M 829.03,681.703 861.769,681.703 z" id="boundary" inkscape:connector-curvature="0" />
	<path style="fill:none;stroke:red;stroke-width:1px;stroke-linecap:butt;stroke-linejoin:miter;stroke-opacity:1" d="M 835.578,750.455 868.317,750.455 z" id="boundary" inkscape:connector-curvature="0" />
	<path style="fill:none;stroke:red;stroke-width:1px;stroke-linecap:butt;stroke-linejoin:miter;stroke-opacity:1" d="M 838.851,819.208 871.591,819.208 z" id="boundary" inkscape:connector-curvature="0" />
	<path style="fill:none;stroke:red;stroke-width:1px;stroke-linecap:butt;stroke-linejoin:miter;stroke-opacity:1" d="M 845.399,439.432 878.139,439.432 z" id="boundary" inkscape:connector-curvature="0" />
	<path style="fill:none;stroke:red;stroke-width:1px;stroke-linecap:butt;stroke-linejoin:miter;stroke-opacity:1" d="M 845.399,547.472 878.139,547.472 z" id="boundary" inkscape:connector-curvature="0" />
	<path style="fill:none;stroke:red;stroke-width:1px;stroke-linecap:butt;stroke-linejoin:miter;stroke-opacity:1" d="M 845.399,652.238 878.139,652.238 z" id="boundary" inkscape:connector-curvature="0" />
	<path style="fill:none;stroke:red;stroke-width:1px;stroke-linecap:butt;stroke-linejoin:miter;stroke-opacity:1" d="M 861.769,4 891.234,20.3696 z" id="boundary" inkscape:connector-curvature="0" />
	<path style="fill:none;stroke:red;stroke-width:1px;stroke-linecap:butt;stroke-linejoin:miter;stroke-opacity:1" d="M 861.769,576.937 894.508,576.937 z" id="boundary" inkscape:connector-curvature="0" />
	<path style="fill:none;stroke:red;stroke-width:1px;stroke-linecap:butt;stroke-linejoin:miter;stroke-opacity:1" d="M 861.769,681.703 894.508,681.703 z" id="boundary" inkscape:connector-curvature="0" />
	<path style="fill:none;stroke:red;stroke-width:1px;stroke-linecap:butt;stroke-linejoin:miter;stroke-opacity:1" d="M 868.317,750.455 901.056,750.455 z" id="boundary" inkscape:connector-curvature="0" />
	<path style="fill:none;stroke:red;stroke-width:1px;stroke-linecap:butt;stroke-linejoin:miter;stroke-opacity:1" d="M 871.591,819.208 904.33,832.304 z" id="boundary" inkscape:connector-curvature="0" />
	<path style="fill:none;stroke:red;stroke-width:1px;stroke-linecap:butt;stroke-linejoin:miter;stroke-opacity:1" d="M 878.139,439.432 891.234,380.502 z" id="boundary" inkscape:connector-curvature="0" />
	<path style="fill:none;stroke:red;stroke-width:1px;stroke-linecap:butt;stroke-linejoin:miter;stroke-opacity:1" d="M 878.139,547.472 910.878,547.472 z" id="boundary" inkscape:connector-curvature="0" />
	<path style="fill:none;stroke:red;stroke-width:1px;stroke-linecap:butt;stroke-linejoin:miter;stroke-opacity:1" d="M 878.139,652.238 910.878,652.238 z" id="boundary" inkscape:connector-curvature="0" />
	<path style="fill:none;stroke:red;stroke-width:1px;stroke-linecap:butt;stroke-linejoin:miter;stroke-opacity:1" d="M 891.234,20.3696 891.234,53.1089 z" id="boundary" inkscape:connector-curvature="0" />
	<path style="fill:none;stroke:red;stroke-width:1px;stroke-linecap:butt;stroke-linejoin:miter;stroke-opacity:1" d="M 891.234,53.1089 891.234,85.8482 z" id="boundary" inkscape:connector-curvature="0" />
	<path style="fill:none;stroke:red;stroke-width:1px;stroke-linecap:butt;stroke-linejoin:miter;stroke-opacity:1" d="M 891.234,85.8482 891.234,118.587 z" id="boundary" inkscape:connector-curvature="0" />
	<path style="fill:none;stroke:red;stroke-width:1px;stroke-linecap:butt;stroke-linejoin:miter;stroke-opacity:1" d="M 891.234,118.587 891.234,151.327 z" id="boundary" inkscape:connector-curvature="0" />
	<path style="fill:none;stroke:red;stroke-width:1px;stroke-linecap:butt;stroke-linejoin:miter;stroke-opacity:1" d="M 891.234,151.327 891.234,184.066 z" id="boundary" inkscape:connector-curvature="0" />
	<path style="fill:none;stroke:red;stroke-width:1px;stroke-linecap:butt;stroke-linejoin:miter;stroke-opacity:1" d="M 891.234,184.066 891.234,216.805 z" id="boundary" inkscape:connector-curvature="0" />
	<path style="fill:none;stroke:red;stroke-width:1px;stroke-linecap:butt;stroke-linejoin:miter;stroke-opacity:1" d="M 891.234,216.805 891.234,249.545 z" id="boundary" inkscape:connector-curvature="0" />
	<path style="fill:none;stroke:red;stroke-width:1px;stroke-linecap:butt;stroke-linejoin:miter;stroke-opacity:1" d="M 891.234,249.545 891.234,282.284 z" id="boundary" inkscape:connector-curvature="0" />
	<path style="fill:none;stroke:red;stroke-width:1px;stroke-linecap:butt;stroke-linejoin:miter;stroke-opacity:1" d="M 891.234,282.284 891.234,315.023 z" id="boundary" inkscape:connector-curvature="0" />
	<path style="fill:none;stroke:red;stroke-width:1px;stroke-linecap:butt;stroke-linejoin:miter;stroke-opacity:1" d="M 891.234,315.023 891.234,347.762 z" id="boundary" inkscape:connector-curvature="0" />
	<path style="fill:none;stroke:red;stroke-width:1px;stroke-linecap:butt;stroke-linejoin:miter;stroke-opacity:1" d="M 891.234,347.762 891.234,380.502 z" id="boundary" inkscape:connector-curvature="0" />
	<path style="fill:none;stroke:red;stroke-width:1px;stroke-linecap:butt;stroke-linejoin:miter;stroke-opacity:1" d="M 894.508,576.937 927.248,576.937 z" id="boundary" inkscape:connector-curvature="0" />
	<path style="fill:none;stroke:red;stroke-width:1px;stroke-linecap:butt;stroke-linejoin:miter;stroke-opacity:1" d="M 894.508,681.703 927.248,681.703 z" id="boundary" inkscape:connector-curvature="0" />
	<path style="fill:none;stroke:red;stroke-width:1px;stroke-linecap:butt;stroke-linejoin:miter;stroke-opacity:1" d="M 901.056,750.455 933.795,750.455 z" id="boundary" inkscape:connector-curvature="0" />
	<path style="fill:none;stroke:red;stroke-width:1px;stroke-linecap:butt;stroke-linejoin:miter;stroke-opacity:1" d="M 904.33,832.304 937.069,825.756 z" id="boundary" inkscape:connector-curvature="0" />
	<path style="fill:none;stroke:red;stroke-width:1px;stroke-linecap:butt;stroke-linejoin:miter;stroke-opacity:1" d="M 910.878,547.472 927.248,576.937 z" id="boundary" inkscape:connector-curvature="0" />
	<path style="fill:none;stroke:red;stroke-width:1px;stroke-linecap:butt;stroke-linejoin:miter;stroke-opacity:1" d="M 910.878,652.238 943.617,652.238 z" id="boundary" inkscape:connector-curvature="0" />
	<path style="fill:none;stroke:red;stroke-width:1px;stroke-linecap:butt;stroke-linejoin:miter;stroke-opacity:1" d="M 927.248,681.703 943.617,652.238 z" id="boundary" inkscape:connector-curvature="0" />
	<path style="fill:none;stroke:red;stroke-width:1px;stroke-linecap:butt;stroke-linejoin:miter;stroke-opacity:1" d="M 933.795,750.455 959.987,770.099 z" id="boundary" inkscape:connector-curvature="0" />
	<path style="fill:none;stroke:red;stroke-width:1px;stroke-linecap:butt;stroke-linejoin:miter;stroke-opacity:1" d="M 937.069,825.756 969.809,822.482 z" id="boundary" inkscape:connector-curvature="0" />
	<path style="fill:none;stroke:red;stroke-width:1px;stroke-linecap:butt;stroke-linejoin:miter;stroke-opacity:1" d="M 959.987,770.099 986.178,750.455 z" id="boundary" inkscape:connector-curvature="0" />
	<path style="fill:none;stroke:red;stroke-width:1px;stroke-linecap:butt;stroke-linejoin:miter;stroke-opacity:1" d="M 969.809,822.482 996,783.195 z" id="boundary" inkscape:connector-curvature="0" />
	<path style="fill:none;stroke:red;stroke-width:1px;stroke-linecap:butt;stroke-linejoin:miter;stroke-opacity:1" d="M 986.178,750.455 996,783.195 z" id="boundary" inkscape:connector-curvature="0" />
	<circle cx="4" cy="757.003" r="4" fill="#0" id="circle0"/>
	<circle cx="4" cy="789.743" r="4" fill="#0" id="circle1"/>
	<circle cx="20.3696" cy="819.208" r="4" fill="#0" id="circle2"/>
	<circle cx="36.7393" cy="750.455" r="4" fill="#0" id="circle3"/>
	<circle cx="53.1089" cy="819.208" r="4" fill="#0" id="circle4"/>
	<circle cx="69.4785" cy="554.02" r="4" fill="#0" id="circle5"/>
	<circle cx="69.4785" cy="652.238" r="4" fill="#0" id="circle6"/>
	<circle cx="69.4785" cy="750.455" r="4" fill="#0" id="circle7"/>
	<circle cx="85.8482" cy="681.703" r="4" fill="#0" id="circle8"/>
	<circle cx="85.8482" cy="832.304" r="4" fill="#0" id="circle9"/>
	<circle cx="95.67" cy="576.937" r="4" fill="#0" id="circle10"/>
	<circle cx="102.218" cy="652.238" r="4" fill="#0" id="circle11"/>
	<circle cx="102.218" cy="750.455" r="4" fill="#0" id="circle12"/>
	<circle cx="108.766" cy="17.0957" r="4" fill="#0" id="circle13"/>
	<circle cx="108.766" cy="49.835" r="4" fill="#0" id="circle14"/>
	<circle cx="108.766" cy="82.5743" r="4" fill="#0" id="circle15"/>
	<circle cx="108.766" cy="115.314" r="4" fill="#0" id="circle16"/>
	<circle cx="108.766" cy="148.053" r="4" fill="#0" id="circle17"/>
	<circle cx="108.766" cy="180.792" r="4" fill="#0" id="circle18"/>
	<circle cx="108.766" cy="213.531" r="4" fill="#0" id="circle19"/>
	<circle cx="108.766" cy="246.271" r="4" fill="#0" id="circle20"/>
	<circle cx="108.766" cy="279.01" r="4" fill="#0" id="circle21"/>
	<circle cx="108.766" cy="311.749" r="4" fill="#0" id="circle22"/>
	<circle cx="108.766" cy="344.488" r="4" fill="#0" id="circle23"/>
	<circle cx="108.766" cy="377.228" r="4" fill="#0" id="circle24"/>
	<circle cx="108.766" cy="409.967" r="4" fill="#0" id="circle25"/>
	<circle cx="112.04" cy="547.472" r="4" fill="#0" id="circle26"/>
	<circle cx="118.587" cy="681.703" r="4" fill="#0" id="circle27"/>
	<circle cx="118.587" cy="819.208" r="4" fill="#0" id="circle28"/>
	<circle cx="125.135" cy="439.432" r="4" fill="#0" id="circle29"/>
	<circle cx="128.409" cy="576.937" r="4" fill="#0" id="circle30"/>
	<circle cx="134.957" cy="652.238" r="4" fill="#0" id="circle31"/>
	<circle cx="134.957" cy="750.455" r="4" fill="#0" id="circle32"/>
	<circle cx="141.505" cy="4" r="4" fill="#0" id="circle33"/>
	<circle cx="144.779" cy="547.472" r="4" fill="#0" id="circle34"/>
	<circle cx="151.327" cy="681.703" r="4" fill="#0" id="circle35"/>
	<circle cx="151.327" cy="819.208" r="4" fill="#0" id="circle36"/>
	<circle cx="157.875" cy="439.432" r="4" fill="#0" id="circle37"/>
	<circle cx="161.149" cy="576.937" r="4" fill="#0" id="circle38"/>
	<circle cx="167.696" cy="652.238" r="4" fill="#0" id="circle39"/>
	<circle cx="167.696" cy="750.455" r="4" fill="#0" id="circle40"/>
	<circle cx="174.244" cy="4" r="4" fill="#0" id="circle41"/>
	<circle cx="177.518" cy="547.472" r="4" fill="#0" id="circle42"/>
	<circle cx="184.066" cy="681.703" r="4" fill="#0" id="circle43"/>
	<circle cx="184.066" cy="819.208" r="4" fill="#0" id="circle44"/>
	<circle cx="190.614" cy="439.432" r="4" fill="#0" id="circle45"/>
	<circle cx="193.888" cy="576.937" r="4" fill="#0" id="circle46"/>
	<circle cx="200.436" cy="652.238" r="4" fill="#0" id="circle47"/>
	<circle cx="200.436" cy="750.455" r="4" fill="#0" id="circle48"/>
	<circle cx="206.983" cy="4" r="4" fill="#0" id="circle49"/>
	<circle cx="210.257" cy="547.472" r="4" fill="#0" id="circle50"/>
	<circle cx="216.805" cy="681.703" r="4" fill="#0" id="circle51"/>
	<circle cx="216.805" cy="819.208" r="4" fill="#0" id="circle52"/>
	<circle cx="223.353" cy="439.432" r="4" fill="#0" id="circle53"/>
	<circle cx="226.627" cy="576.937" r="4" fill="#0" id="circle54"/>
	<circle cx="233.175" cy="652.238" r="4" fill="#0" id="circle55"/>
	<circle cx="233.175" cy="750.455" r="4" fill="#0" id="circle56"/>
	<circle cx="239.723" cy="4" r="4" fill="#0" id="circle57"/>
	<circle cx="242.997" cy="547.472" r="4" fill="#0" id="circle58"/>
	<circle cx="249.545" cy="681.703" r="4" fill="#0" id="circle59"/>
	<circle cx="249.545" cy="819.208" r="4" fill="#0" id="circle60"/>
	<circle cx="256.092" cy="439.432" r="4" fill="#0" id="circle61"/>
	<circle cx="259.366" cy="576.937" r="4" fill="#0" id="circle62"/>
	<circle cx="265.914" cy="652.238" r="4" fill="#0" id="circle63"/>
	<circle cx="265.914" cy="750.455" r="4" fill="#0" id="circle64"/>
	<circle cx="272.462" cy="4" r="4" fill="#0" id="circle65"/>
	<circle cx="275.736" cy="547.472" r="4" fill="#0" id="circle66"/>
	<circle cx="282.284" cy="681.703" r="4" fill="#0" id="circle67"/>
	<circle cx="282.284" cy="819.208" r="4" fill="#0" id="circle68"/>
	<circle cx="288.832" cy="439.432" r="4" fill="#0" id="circle69"/>
	<circle cx="292.106" cy="576.937" r="4" fill="#0" id="circle70"/>
	<circle cx="298.653" cy="652.238" r="4" fill="#0" id="circle71"/>
	<circle cx="298.653" cy="750.455" r="4" fill="#0" id="circle72"/>
	<circle cx="305.201" cy="4" r="4" fill="#0" id="circle73"/>
	<circle cx="308.475" cy="547.472" r="4" fill="#0" id="circle74"/>
	<circle cx="315.023" cy="681.703" r="4" fill="#0" id="circle75"/>
	<circle cx="315.023" cy="819.208" r="4" fill="#0" id="circle76"/>
	<circle cx="321.571" cy="439.432" r="4" fill="#0" id="circle77"/>
	<circle cx="324.845" cy="576.937" r="4" fill="#0" id="circle78"/>
	<circle cx="331.393" cy="652.238" r="4" fill="#0" id="circle79"/>
	<circle cx="331.393" cy="750.455" r="4" fill="#0" id="circle80"/>
	<circle cx="337.941" cy="4" r="4" fill="#0" id="circle81"/>
	<circle cx="341.215" cy="547.472" r="4" fill="#0" id="circle82"/>
	<circle cx="347.762" cy="681.703" r="4" fill="#0" id="circle83"/>
	<circle cx="347.762" cy="819.208" r="4" fill="#0" id="circle84"/>
	<circle cx="354.31" cy="439.432" r="4" fill="#0" id="circle85"/>
	<circle cx="357.584" cy="576.937" r="4" fill="#0" id="circle86"/>
	<circle cx="357.584" cy="770.099" r="4" fill="#0" id="circle87"/>
	<circle cx="364.132" cy="652.238" r="4" fill="#0" id="circle88"/>
	<circle cx="370.68" cy="4" r="4" fill="#0" id="circle89"/>
	<circle cx="373.954" cy="547.472" r="4" fill="#0" id="circle90"/>
	<circle cx="380.502" cy="681.703" r="4" fill="#0" id="circle91"/>
	<circle cx="380.502" cy="819.208" r="4" fill="#0" id="circle92"/>
	<circle cx="383.776" cy="750.455" r="4" fill="#0" id="circle93"/>
	<circle cx="387.05" cy="439.432" r="4" fill="#0" id="circle94"/>
	<circle cx="390.323" cy="472.172" r="4" fill="#0" id="circle95"/>
	<circle cx="390.323" cy="504.911" r="4" fill="#0" id="circle96"/>
	<circle cx="390.323" cy="580.211" r="4" fill="#0" id="circle97"/>
	<circle cx="390.323" cy="612.95" r="4" fill="#0" id="circle98"/>
	<circle cx="390.323" cy="714.442" r="4" fill="#0" id="circle99"/>
	<circle cx="403.419" cy="4" r="4" fill="#0" id="circle100"/>
	<circle cx="413.241" cy="819.208" r="4" fill="#0" id="circle101"/>
	<circle cx="436.158" cy="4" r="4" fill="#0" id="circle102"/>
	<circle cx="445.98" cy="819.208" r="4" fill="#0" id="circle103"/>
	<circle cx="468.898" cy="4" r="4" fill="#0" id="circle104"/>
	<circle cx="478.719" cy="819.208" r="4" fill="#0" id="circle105"/>
	<circle cx="501.637" cy="4" r="4" fill="#0" id="circle106"/>
	<circle cx="511.459" cy="819.208" r="4" fill="#0" id="circle107"/>
	<circle cx="534.376" cy="4" r="4" fill="#0" id="circle108"/>
	<circle cx="544.198" cy="819.208" r="4" fill="#0" id="circle109"/>
	<circle cx="567.116" cy="4" r="4" fill="#0" id="circle110"/>
	<circle cx="576.937" cy="819.208" r="4" fill="#0" id="circle111"/>
	<circle cx="583.485" cy="442.706" r="4" fill="#0" id="circle112"/>
	<circle cx="583.485" cy="475.446" r="4" fill="#0" id="circle113"/>
	<circle cx="583.485" cy="508.185" r="4" fill="#0" id="circle114"/>
	<circle cx="583.485" cy="540.924" r="4" fill="#0" id="circle115"/>
	<circle cx="583.485" cy="580.211" r="4" fill="#0" id="circle116"/>
	<circle cx="583.485" cy="612.95" r="4" fill="#0" id="circle117"/>
	<circle cx="583.485" cy="645.69" r="4" fill="#0" id="circle118"/>
	<circle cx="583.485" cy="684.977" r="4" fill="#0" id="circle119"/>
	<circle cx="583.485" cy="717.716" r="4" fill="#0" id="circle120"/>
	<circle cx="586.759" cy="750.455" r="4" fill="#0" id="circle121"/>
	<circle cx="599.855" cy="4" r="4" fill="#0" id="circle122"/>
	<circle cx="609.677" cy="819.208" r="4" fill="#0" id="circle123"/>
	<circle cx="612.95" cy="770.099" r="4" fill="#0" id="circle124"/>
	<circle cx="616.224" cy="439.432" r="4" fill="#0" id="circle125"/>
	<circle cx="616.224" cy="547.472" r="4" fill="#0" id="circle126"/>
	<circle cx="616.224" cy="652.238" r="4" fill="#0" id="circle127"/>
	<circle cx="632.594" cy="4" r="4" fill="#0" id="circle128"/>
	<circle cx="632.594" cy="576.937" r="4" fill="#0" id="circle129"/>
	<circle cx="632.594" cy="681.703" r="4" fill="#0" id="circle130"/>
	<circle cx="639.142" cy="750.455" r="4" fill="#0" id="circle131"/>
	<circle cx="642.416" cy="819.208" r="4" fill="#0" id="circle132"/>
	<circle cx="648.964" cy="439.432" r="4" fill="#0" id="circle133"/>
	<circle cx="648.964" cy="547.472" r="4" fill="#0" id="circle134"/>
	<circle cx="648.964" cy="652.238" r="4" fill="#0" id="circle135"/>
	<circle cx="665.333" cy="4" r="4" fill="#0" id="circle136"/>
	<circle cx="665.333" cy="576.937" r="4" fill="#0" id="circle137"/>
	<circle cx="665.333" cy="681.703" r="4" fill="#0" id="circle138"/>
	<circle cx="671.881" cy="750.455" r="4" fill="#0" id="circle139"/>
	<circle cx="675.155" cy="819.208" r="4" fill="#0" id="circle140"/>
	<circle cx="681.703" cy="439.432" r="4" fill="#0" id="circle141"/>
	<circle cx="681.703" cy="547.472" r="4" fill="#0" id="circle142"/>
	<circle cx="681.703" cy="652.238" r="4" fill="#0" id="circle143"/>
	<circle cx="698.073" cy="4" r="4" fill="#0" id="circle144"/>
	<circle cx="698.073" cy="576.937" r="4" fill="#0" id="circle145"/>
	<circle cx="698.073" cy="681.703" r="4" fill="#0" id="circle146"/>
	<circle cx="704.62" cy="750.455" r="4" fill="#0" id="circle147"/>
	<circle cx="707.894" cy="819.208" r="4" fill="#0" id="circle148"/>
	<circle cx="714.442" cy="439.432" r="4" fill="#0" id="circle149"/>
	<circle cx="714.442" cy="547.472" r="4" fill="#0" id="circle150"/>
	<circle cx="714.442" cy="652.238" r="4" fill="#0" id="circle151"/>
	<circle cx="730.812" cy="4" r="4" fill="#0" id="circle152"/>
	<circle cx="730.812" cy="576.937" r="4" fill="#0" id="circle153"/>
	<circle cx="730.812" cy="681.703" r="4" fill="#0" id="circle154"/>
	<circle cx="737.36" cy="750.455" r="4" fill="#0" id="circle155"/>
	<circle cx="740.634" cy="819.208" r="4" fill="#0" id="circle156"/>
	<circle cx="747.182" cy="439.432" r="4" fill="#0" id="circle157"/>
	<circle cx="747.182" cy="547.472" r="4" fill="#0" id="circle158"/>
	<circle cx="747.182" cy="652.238" r="4" fill="#0" id="circle159"/>
	<circle cx="763.551" cy="4" r="4" fill="#0" id="circle160"/>
	<circle cx="763.551" cy="576.937" r="4" fill="#0" id="circle161"/>
	<circle cx="763.551" cy="681.703" r="4" fill="#0" id="circle162"/>
	<circle cx="770.099" cy="750.455" r="4" fill="#0" id="circle163"/>
	<circle cx="773.373" cy="819.208" r="4" fill="#0" id="circle164"/>
	<circle cx="779.921" cy="439.432" r="4" fill="#0" id="circle165"/>
	<circle cx="779.921" cy="547.472" r="4" fill="#0" id="circle166"/>
	<circle cx="779.921" cy="652.238" r="4" fill="#0" id="circle167"/>
	<circle cx="796.29" cy="4" r="4" fill="#0" id="circle168"/>
	<circle cx="796.29" cy="576.937" r="4" fill="#0" id="circle169"/>
	<circle cx="796.29" cy="681.703" r="4" fill="#0" id="circle170"/>
	<circle cx="802.838" cy="750.455" r="4" fill="#0" id="circle171"/>
	<circle cx="806.112" cy="819.208" r="4" fill="#0" id="circle172"/>
	<circle cx="812.66" cy="439.432" r="4" fill="#0" id="circle173"/>
	<circle cx="812.66" cy="547.472" r="4" fill="#0" id="circle174"/>
	<circle cx="812.66" cy="652.238" r="4" fill="#0" id="circle175"/>
	<circle cx="829.03" cy="4" r="4" fill="#0" id="circle176"/>
	<circle cx="829.03" cy="576.937" r="4" fill="#0" id="circle177"/>
	<circle cx="829.03" cy="681.703" r="4" fill="#0" id="circle178"/>
	<circle cx="835.578" cy="750.455" r="4" fill="#0" id="circle179"/>
	<circle cx="838.851" cy="819.208" r="4" fill="#0" id="circle180"/>
	<circle cx="845.399" cy="439.432" r="4" fill="#0" id="circle181"/>
	<circle cx="845.399" cy="547.472" r="4" fill="#0" id="circle182"/>
	<circle cx="845.399" cy="652.238" r="4" fill="#0" id="circle183"/>
	<circle cx="861.769" cy="4" r="4" fill="#0" id="circle184"/>
	<circle cx="861.769" cy="576.937" r="4" fill="#0" id="circle185"/>
	<circle cx="861.769" cy="681.703" r="4" fill="#0" id="circle186"/>
	<circle cx="868.317" cy="750.455" r="4" fill="#0" id="circle187"/>
	<circle cx="871.591" cy="819.208" r="4" fill="#0" id="circle188"/>
	<circle cx="878.139" cy="439.432" r="4" fill="#0" id="circle189"/>
	<circle cx="878.139" cy="547.472" r="4" fill="#0" id="circle190"/>
	<circle cx="878.139" cy="652.238" r="4" fill="#0" id="circle191"/>
	<circle cx="891.234" cy="20.3696" r="4" fill="#0" id="circle192"/>
	<circle cx="891.234" cy="53.1089" r="4" fill="#0" id="circle193"/>
	<circle cx="891.234" cy="85.8482" r="4" fill="#0" id="circle194"/>
	<circle cx="891.234" cy="118.587" r="4" fill="#0" id="circle195"/>
	<circle cx="891.234" cy="151.327" r="4" fill="#0" id="circle196"/>
	<circle cx="891.234" cy="184.066" r="4" fill="#0" id="circle197"/>
	<circle cx="891.234" cy="216.805" r="4" fill="#0" id="circle198"/>
	<circle cx="891.234" cy="249.545" r="4" fill="#0" id="circle199"/>
	<circle cx="891.234" cy="282.284" r="4" fill="#0" id="circle200"/>
	<circle cx="891.234" cy="315.023" r="4" fill="#0" id="circle201"/>
	<circle cx="891.234" cy="347.762" r="4" fill="#0" id="circle202"/>
	<circle cx="891.234" cy="380.502" r="4" fill="#0" id="circle203"/>
	<circle cx="894.508" cy="576.937" r="4" fill="#0" id="circle204"/>
	<circle cx="894.508" cy="681.703" r="4" fill="#0" id="circle205"/>
	<circle cx="901.056" cy="750.455" r="4" fill="#0" id="circle206"/>
	<circle cx="904.33" cy="832.304" r="4" fill="#0" id="circle207"/>
	<circle cx="910.878" cy="547.472" r="4" fill="#0" id="circle208"/>
	<circle cx="910.878" cy="652.238" r="4" fill="#0" id="circle209"/>
	<circle cx="927.248" cy="576.937" r="4" fill="#0" id="circle210"/>
	<circle cx="927.248" cy="681.703" r="4" fill="#0" id="circle211"/>
	<circle cx="933.795" cy="750.455" r="4" fill="#0" id="circle212"/>
	<circle cx="937.069" cy="825.756" r="4" fill="#0" id="circle213"/>
	<circle cx="943.617" cy="652.238" r="4" fill="#0" id="circle214"/>
	<circle cx="959.987" cy="770.099" r="4" fill="#0" id="circle215"/>
	<circle cx="969.809" cy="822.482" r="4" fill="#0" id="circle216"/>
	<circle cx="986.178" cy="750.455" r="4" fill="#0" id="circle217"/>
	<circle cx="996" cy="783.195" r="4" fill="#0" id="circle218"/>
	</g>
</svg>