<?xml version="1.0" encoding="UTF-8" standalone="no"?>
<!-- Created with CurveBenchmark -->
<svg
	xmlns:dc="http://purl.org/dc/elements/1.1/"
	xmlns:cc="http://creativecommons.org/ns#"
	xmlns:rdf="http://www.w3.org/1999/02/22-rdf-syntax-ns#"
	xmlns:svg="http://www.w3.org/2000/svg"
	xmlns="http://www.w3.org/2000/svg"
	xmlns:sodipodi="http://sodipodi.sourceforge.net/DTD/sodipodi-0.dtd"
	xmlns:inkscape="http://www.inkscape.org/namespaces/inkscape"
	width="1000"
	height="1000"
	id="svg2"
	version="1.1"
	sodipodi:docname="manifold/discur-teddy300.png.txt">
<defs
	id="defs4" />
<metadata
	id="metadata7">
	<rdf:RDF>
		<cc:Work
			rdf:about="">
			<dc:format>image/svg+xml</dc:format>
			<dc:type
				rdf:resource="http://purl.org/dc/dcmitype/StillImage" />
			<dc:title></dc:title>
		</cc:Work>
	</rdf:RDF>
</metadata>
<g
	inkscape:label="Layer 1"
	inkscape:groupmode="layer"
	id="layer1">
	<path style="fill:none;stroke:red;stroke-width:1px;stroke-linecap:butt;stroke-linejoin:miter;stroke-opacity:1" d="M 4,833.983 6.84241,862.407 z" id="boundary" inkscape:connector-curvature="0" />
	<path style="fill:none;stroke:red;stroke-width:1px;stroke-linecap:butt;stroke-linejoin:miter;stroke-opacity:1" d="M 4,833.983 9.68481,799.874 z" id="boundary" inkscape:connector-curvature="0" />
	<path style="fill:none;stroke:red;stroke-width:1px;stroke-linecap:butt;stroke-linejoin:miter;stroke-opacity:1" d="M 6.84241,862.407 9.68481,890.831 z" id="boundary" inkscape:connector-curvature="0" />
	<path style="fill:none;stroke:red;stroke-width:1px;stroke-linecap:butt;stroke-linejoin:miter;stroke-opacity:1" d="M 9.68481,771.45 9.68481,799.874 z" id="boundary" inkscape:connector-curvature="0" />
	<path style="fill:none;stroke:red;stroke-width:1px;stroke-linecap:butt;stroke-linejoin:miter;stroke-opacity:1" d="M 9.68481,771.45 21.0544,743.026 z" id="boundary" inkscape:connector-curvature="0" />
	<path style="fill:none;stroke:red;stroke-width:1px;stroke-linecap:butt;stroke-linejoin:miter;stroke-opacity:1" d="M 9.68481,890.831 15.3696,919.255 z" id="boundary" inkscape:connector-curvature="0" />
	<path style="fill:none;stroke:red;stroke-width:1px;stroke-linecap:butt;stroke-linejoin:miter;stroke-opacity:1" d="M 15.3696,919.255 21.0544,947.679 z" id="boundary" inkscape:connector-curvature="0" />
	<path style="fill:none;stroke:red;stroke-width:1px;stroke-linecap:butt;stroke-linejoin:miter;stroke-opacity:1" d="M 21.0544,743.026 49.4785,731.656 z" id="boundary" inkscape:connector-curvature="0" />
	<path style="fill:none;stroke:red;stroke-width:1px;stroke-linecap:butt;stroke-linejoin:miter;stroke-opacity:1" d="M 21.0544,947.679 38.1089,970.418 z" id="boundary" inkscape:connector-curvature="0" />
	<path style="fill:none;stroke:red;stroke-width:1px;stroke-linecap:butt;stroke-linejoin:miter;stroke-opacity:1" d="M 38.1089,970.418 63.6905,984.63 z" id="boundary" inkscape:connector-curvature="0" />
	<path style="fill:none;stroke:red;stroke-width:1px;stroke-linecap:butt;stroke-linejoin:miter;stroke-opacity:1" d="M 49.4785,731.656 77.9026,725.971 z" id="boundary" inkscape:connector-curvature="0" />
	<path style="fill:none;stroke:red;stroke-width:1px;stroke-linecap:butt;stroke-linejoin:miter;stroke-opacity:1" d="M 63.6905,984.63 92.1146,996 z" id="boundary" inkscape:connector-curvature="0" />
	<path style="fill:none;stroke:red;stroke-width:1px;stroke-linecap:butt;stroke-linejoin:miter;stroke-opacity:1" d="M 77.9026,725.971 106.327,731.656 z" id="boundary" inkscape:connector-curvature="0" />
	<path style="fill:none;stroke:red;stroke-width:1px;stroke-linecap:butt;stroke-linejoin:miter;stroke-opacity:1" d="M 89.2722,492.894 89.2722,521.318 z" id="boundary" inkscape:connector-curvature="0" />
	<path style="fill:none;stroke:red;stroke-width:1px;stroke-linecap:butt;stroke-linejoin:miter;stroke-opacity:1" d="M 89.2722,492.894 103.484,467.312 z" id="boundary" inkscape:connector-curvature="0" />
	<path style="fill:none;stroke:red;stroke-width:1px;stroke-linecap:butt;stroke-linejoin:miter;stroke-opacity:1" d="M 89.2722,521.318 94.957,549.742 z" id="boundary" inkscape:connector-curvature="0" />
	<path style="fill:none;stroke:red;stroke-width:1px;stroke-linecap:butt;stroke-linejoin:miter;stroke-opacity:1" d="M 92.1146,996 120.539,996 z" id="boundary" inkscape:connector-curvature="0" />
	<path style="fill:none;stroke:red;stroke-width:1px;stroke-linecap:butt;stroke-linejoin:miter;stroke-opacity:1" d="M 94.957,549.742 103.484,578.166 z" id="boundary" inkscape:connector-curvature="0" />
	<path style="fill:none;stroke:red;stroke-width:1px;stroke-linecap:butt;stroke-linejoin:miter;stroke-opacity:1" d="M 103.484,467.312 129.066,453.1 z" id="boundary" inkscape:connector-curvature="0" />
	<path style="fill:none;stroke:red;stroke-width:1px;stroke-linecap:butt;stroke-linejoin:miter;stroke-opacity:1" d="M 103.484,578.166 123.381,600.905 z" id="boundary" inkscape:connector-curvature="0" />
	<path style="fill:none;stroke:red;stroke-width:1px;stroke-linecap:butt;stroke-linejoin:miter;stroke-opacity:1" d="M 106.327,731.656 134.751,731.656 z" id="boundary" inkscape:connector-curvature="0" />
	<path style="fill:none;stroke:red;stroke-width:1px;stroke-linecap:butt;stroke-linejoin:miter;stroke-opacity:1" d="M 120.539,996 148.963,987.473 z" id="boundary" inkscape:connector-curvature="0" />
	<path style="fill:none;stroke:red;stroke-width:1px;stroke-linecap:butt;stroke-linejoin:miter;stroke-opacity:1" d="M 123.381,600.905 148.963,615.117 z" id="boundary" inkscape:connector-curvature="0" />
	<path style="fill:none;stroke:red;stroke-width:1px;stroke-linecap:butt;stroke-linejoin:miter;stroke-opacity:1" d="M 129.066,453.1 157.49,441.731 z" id="boundary" inkscape:connector-curvature="0" />
	<path style="fill:none;stroke:red;stroke-width:1px;stroke-linecap:butt;stroke-linejoin:miter;stroke-opacity:1" d="M 134.751,731.656 157.49,714.602 z" id="boundary" inkscape:connector-curvature="0" />
	<path style="fill:none;stroke:red;stroke-width:1px;stroke-linecap:butt;stroke-linejoin:miter;stroke-opacity:1" d="M 148.963,615.117 157.49,663.438 z" id="boundary" inkscape:connector-curvature="0" />
	<path style="fill:none;stroke:red;stroke-width:1px;stroke-linecap:butt;stroke-linejoin:miter;stroke-opacity:1" d="M 148.963,987.473 177.387,978.946 z" id="boundary" inkscape:connector-curvature="0" />
	<path style="fill:none;stroke:red;stroke-width:1px;stroke-linecap:butt;stroke-linejoin:miter;stroke-opacity:1" d="M 157.49,231.393 157.49,259.817 z" id="boundary" inkscape:connector-curvature="0" />
	<path style="fill:none;stroke:red;stroke-width:1px;stroke-linecap:butt;stroke-linejoin:miter;stroke-opacity:1" d="M 157.49,231.393 180.229,214.338 z" id="boundary" inkscape:connector-curvature="0" />
	<path style="fill:none;stroke:red;stroke-width:1px;stroke-linecap:butt;stroke-linejoin:miter;stroke-opacity:1" d="M 157.49,259.817 166.017,288.241 z" id="boundary" inkscape:connector-curvature="0" />
	<path style="fill:none;stroke:red;stroke-width:1px;stroke-linecap:butt;stroke-linejoin:miter;stroke-opacity:1" d="M 157.49,441.731 185.914,436.046 z" id="boundary" inkscape:connector-curvature="0" />
	<path style="fill:none;stroke:red;stroke-width:1px;stroke-linecap:butt;stroke-linejoin:miter;stroke-opacity:1" d="M 157.49,663.438 157.49,714.602 z" id="boundary" inkscape:connector-curvature="0" />
	<path style="fill:none;stroke:red;stroke-width:1px;stroke-linecap:butt;stroke-linejoin:miter;stroke-opacity:1" d="M 166.017,288.241 171.702,316.665 z" id="boundary" inkscape:connector-curvature="0" />
	<path style="fill:none;stroke:red;stroke-width:1px;stroke-linecap:butt;stroke-linejoin:miter;stroke-opacity:1" d="M 171.702,316.665 183.072,345.089 z" id="boundary" inkscape:connector-curvature="0" />
	<path style="fill:none;stroke:red;stroke-width:1px;stroke-linecap:butt;stroke-linejoin:miter;stroke-opacity:1" d="M 177.387,978.946 205.811,990.315 z" id="boundary" inkscape:connector-curvature="0" />
	<path style="fill:none;stroke:red;stroke-width:1px;stroke-linecap:butt;stroke-linejoin:miter;stroke-opacity:1" d="M 180.229,214.338 202.968,197.284 z" id="boundary" inkscape:connector-curvature="0" />
	<path style="fill:none;stroke:red;stroke-width:1px;stroke-linecap:butt;stroke-linejoin:miter;stroke-opacity:1" d="M 183.072,345.089 208.653,359.301 z" id="boundary" inkscape:connector-curvature="0" />
	<path style="fill:none;stroke:red;stroke-width:1px;stroke-linecap:butt;stroke-linejoin:miter;stroke-opacity:1" d="M 185.914,436.046 214.338,430.361 z" id="boundary" inkscape:connector-curvature="0" />
	<path style="fill:none;stroke:red;stroke-width:1px;stroke-linecap:butt;stroke-linejoin:miter;stroke-opacity:1" d="M 202.968,197.284 231.393,191.599 z" id="boundary" inkscape:connector-curvature="0" />
	<path style="fill:none;stroke:red;stroke-width:1px;stroke-linecap:butt;stroke-linejoin:miter;stroke-opacity:1" d="M 205.811,990.315 234.235,996 z" id="boundary" inkscape:connector-curvature="0" />
	<path style="fill:none;stroke:red;stroke-width:1px;stroke-linecap:butt;stroke-linejoin:miter;stroke-opacity:1" d="M 208.653,359.301 237.077,367.828 z" id="boundary" inkscape:connector-curvature="0" />
	<path style="fill:none;stroke:red;stroke-width:1px;stroke-linecap:butt;stroke-linejoin:miter;stroke-opacity:1" d="M 214.338,430.361 242.762,430.361 z" id="boundary" inkscape:connector-curvature="0" />
	<path style="fill:none;stroke:red;stroke-width:1px;stroke-linecap:butt;stroke-linejoin:miter;stroke-opacity:1" d="M 231.393,191.599 259.817,180.229 z" id="boundary" inkscape:connector-curvature="0" />
	<path style="fill:none;stroke:red;stroke-width:1px;stroke-linecap:butt;stroke-linejoin:miter;stroke-opacity:1" d="M 234.235,996 262.659,996 z" id="boundary" inkscape:connector-curvature="0" />
	<path style="fill:none;stroke:red;stroke-width:1px;stroke-linecap:butt;stroke-linejoin:miter;stroke-opacity:1" d="M 237.077,367.828 259.817,387.725 z" id="boundary" inkscape:connector-curvature="0" />
	<path style="fill:none;stroke:red;stroke-width:1px;stroke-linecap:butt;stroke-linejoin:miter;stroke-opacity:1" d="M 242.762,430.361 259.817,387.725 z" id="boundary" inkscape:connector-curvature="0" />
	<path style="fill:none;stroke:red;stroke-width:1px;stroke-linecap:butt;stroke-linejoin:miter;stroke-opacity:1" d="M 259.817,180.229 282.556,163.175 z" id="boundary" inkscape:connector-curvature="0" />
	<path style="fill:none;stroke:red;stroke-width:1px;stroke-linecap:butt;stroke-linejoin:miter;stroke-opacity:1" d="M 262.659,996 291.083,996 z" id="boundary" inkscape:connector-curvature="0" />
	<path style="fill:none;stroke:red;stroke-width:1px;stroke-linecap:butt;stroke-linejoin:miter;stroke-opacity:1" d="M 282.556,163.175 299.61,140.436 z" id="boundary" inkscape:connector-curvature="0" />
	<path style="fill:none;stroke:red;stroke-width:1px;stroke-linecap:butt;stroke-linejoin:miter;stroke-opacity:1" d="M 291.083,996 319.507,990.315 z" id="boundary" inkscape:connector-curvature="0" />
	<path style="fill:none;stroke:red;stroke-width:1px;stroke-linecap:butt;stroke-linejoin:miter;stroke-opacity:1" d="M 299.61,140.436 313.822,114.854 z" id="boundary" inkscape:connector-curvature="0" />
	<path style="fill:none;stroke:red;stroke-width:1px;stroke-linecap:butt;stroke-linejoin:miter;stroke-opacity:1" d="M 313.822,114.854 330.877,92.1146 z" id="boundary" inkscape:connector-curvature="0" />
	<path style="fill:none;stroke:red;stroke-width:1px;stroke-linecap:butt;stroke-linejoin:miter;stroke-opacity:1" d="M 319.507,990.315 347.931,978.946 z" id="boundary" inkscape:connector-curvature="0" />
	<path style="fill:none;stroke:red;stroke-width:1px;stroke-linecap:butt;stroke-linejoin:miter;stroke-opacity:1" d="M 330.877,92.1146 350.774,49.4785 z" id="boundary" inkscape:connector-curvature="0" />
	<path style="fill:none;stroke:red;stroke-width:1px;stroke-linecap:butt;stroke-linejoin:miter;stroke-opacity:1" d="M 347.931,978.946 376.355,978.946 z" id="boundary" inkscape:connector-curvature="0" />
	<path style="fill:none;stroke:red;stroke-width:1px;stroke-linecap:butt;stroke-linejoin:miter;stroke-opacity:1" d="M 350.774,49.4785 367.828,26.7393 z" id="boundary" inkscape:connector-curvature="0" />
	<path style="fill:none;stroke:red;stroke-width:1px;stroke-linecap:butt;stroke-linejoin:miter;stroke-opacity:1" d="M 367.828,26.7393 390.567,9.68481 z" id="boundary" inkscape:connector-curvature="0" />
	<path style="fill:none;stroke:red;stroke-width:1px;stroke-linecap:butt;stroke-linejoin:miter;stroke-opacity:1" d="M 376.355,978.946 404.779,984.63 z" id="boundary" inkscape:connector-curvature="0" />
	<path style="fill:none;stroke:red;stroke-width:1px;stroke-linecap:butt;stroke-linejoin:miter;stroke-opacity:1" d="M 390.567,9.68481 418.991,4 z" id="boundary" inkscape:connector-curvature="0" />
	<path style="fill:none;stroke:red;stroke-width:1px;stroke-linecap:butt;stroke-linejoin:miter;stroke-opacity:1" d="M 404.779,984.63 433.203,984.63 z" id="boundary" inkscape:connector-curvature="0" />
	<path style="fill:none;stroke:red;stroke-width:1px;stroke-linecap:butt;stroke-linejoin:miter;stroke-opacity:1" d="M 418.991,4 447.415,9.68481 z" id="boundary" inkscape:connector-curvature="0" />
	<path style="fill:none;stroke:red;stroke-width:1px;stroke-linecap:butt;stroke-linejoin:miter;stroke-opacity:1" d="M 433.203,984.63 461.628,990.315 z" id="boundary" inkscape:connector-curvature="0" />
	<path style="fill:none;stroke:red;stroke-width:1px;stroke-linecap:butt;stroke-linejoin:miter;stroke-opacity:1" d="M 447.415,9.68481 475.84,15.3696 z" id="boundary" inkscape:connector-curvature="0" />
	<path style="fill:none;stroke:red;stroke-width:1px;stroke-linecap:butt;stroke-linejoin:miter;stroke-opacity:1" d="M 461.628,990.315 490.052,990.315 z" id="boundary" inkscape:connector-curvature="0" />
	<path style="fill:none;stroke:red;stroke-width:1px;stroke-linecap:butt;stroke-linejoin:miter;stroke-opacity:1" d="M 475.84,15.3696 504.264,4 z" id="boundary" inkscape:connector-curvature="0" />
	<path style="fill:none;stroke:red;stroke-width:1px;stroke-linecap:butt;stroke-linejoin:miter;stroke-opacity:1" d="M 490.052,990.315 518.476,990.315 z" id="boundary" inkscape:connector-curvature="0" />
	<path style="fill:none;stroke:red;stroke-width:1px;stroke-linecap:butt;stroke-linejoin:miter;stroke-opacity:1" d="M 504.264,4 532.688,4 z" id="boundary" inkscape:connector-curvature="0" />
	<path style="fill:none;stroke:red;stroke-width:1px;stroke-linecap:butt;stroke-linejoin:miter;stroke-opacity:1" d="M 518.476,990.315 546.9,978.946 z" id="boundary" inkscape:connector-curvature="0" />
	<path style="fill:none;stroke:red;stroke-width:1px;stroke-linecap:butt;stroke-linejoin:miter;stroke-opacity:1" d="M 532.688,4 558.269,18.212 z" id="boundary" inkscape:connector-curvature="0" />
	<path style="fill:none;stroke:red;stroke-width:1px;stroke-linecap:butt;stroke-linejoin:miter;stroke-opacity:1" d="M 546.9,978.946 575.324,947.679 z" id="boundary" inkscape:connector-curvature="0" />
	<path style="fill:none;stroke:red;stroke-width:1px;stroke-linecap:butt;stroke-linejoin:miter;stroke-opacity:1" d="M 558.269,18.212 569.639,46.6361 z" id="boundary" inkscape:connector-curvature="0" />
	<path style="fill:none;stroke:red;stroke-width:1px;stroke-linecap:butt;stroke-linejoin:miter;stroke-opacity:1" d="M 569.639,46.6361 569.639,75.0602 z" id="boundary" inkscape:connector-curvature="0" />
	<path style="fill:none;stroke:red;stroke-width:1px;stroke-linecap:butt;stroke-linejoin:miter;stroke-opacity:1" d="M 569.639,75.0602 592.378,94.957 z" id="boundary" inkscape:connector-curvature="0" />
	<path style="fill:none;stroke:red;stroke-width:1px;stroke-linecap:butt;stroke-linejoin:miter;stroke-opacity:1" d="M 575.324,947.679 581.009,919.255 z" id="boundary" inkscape:connector-curvature="0" />
	<path style="fill:none;stroke:red;stroke-width:1px;stroke-linecap:butt;stroke-linejoin:miter;stroke-opacity:1" d="M 581.009,919.255 586.693,890.831 z" id="boundary" inkscape:connector-curvature="0" />
	<path style="fill:none;stroke:red;stroke-width:1px;stroke-linecap:butt;stroke-linejoin:miter;stroke-opacity:1" d="M 586.693,890.831 592.378,845.352 z" id="boundary" inkscape:connector-curvature="0" />
	<path style="fill:none;stroke:red;stroke-width:1px;stroke-linecap:butt;stroke-linejoin:miter;stroke-opacity:1" d="M 589.536,399.095 598.063,427.519 z" id="boundary" inkscape:connector-curvature="0" />
	<path style="fill:none;stroke:red;stroke-width:1px;stroke-linecap:butt;stroke-linejoin:miter;stroke-opacity:1" d="M 589.536,399.095 600.905,370.67 z" id="boundary" inkscape:connector-curvature="0" />
	<path style="fill:none;stroke:red;stroke-width:1px;stroke-linecap:butt;stroke-linejoin:miter;stroke-opacity:1" d="M 592.378,94.957 615.117,112.011 z" id="boundary" inkscape:connector-curvature="0" />
	<path style="fill:none;stroke:red;stroke-width:1px;stroke-linecap:butt;stroke-linejoin:miter;stroke-opacity:1" d="M 592.378,788.504 592.378,816.928 z" id="boundary" inkscape:connector-curvature="0" />
	<path style="fill:none;stroke:red;stroke-width:1px;stroke-linecap:butt;stroke-linejoin:miter;stroke-opacity:1" d="M 592.378,788.504 603.748,740.183 z" id="boundary" inkscape:connector-curvature="0" />
	<path style="fill:none;stroke:red;stroke-width:1px;stroke-linecap:butt;stroke-linejoin:miter;stroke-opacity:1" d="M 592.378,816.928 592.378,845.352 z" id="boundary" inkscape:connector-curvature="0" />
	<path style="fill:none;stroke:red;stroke-width:1px;stroke-linecap:butt;stroke-linejoin:miter;stroke-opacity:1" d="M 598.063,427.519 603.748,455.943 z" id="boundary" inkscape:connector-curvature="0" />
	<path style="fill:none;stroke:red;stroke-width:1px;stroke-linecap:butt;stroke-linejoin:miter;stroke-opacity:1" d="M 600.905,370.67 617.96,347.931 z" id="boundary" inkscape:connector-curvature="0" />
	<path style="fill:none;stroke:red;stroke-width:1px;stroke-linecap:butt;stroke-linejoin:miter;stroke-opacity:1" d="M 603.748,455.943 603.748,484.367 z" id="boundary" inkscape:connector-curvature="0" />
	<path style="fill:none;stroke:red;stroke-width:1px;stroke-linecap:butt;stroke-linejoin:miter;stroke-opacity:1" d="M 603.748,484.367 603.748,512.791 z" id="boundary" inkscape:connector-curvature="0" />
	<path style="fill:none;stroke:red;stroke-width:1px;stroke-linecap:butt;stroke-linejoin:miter;stroke-opacity:1" d="M 603.748,512.791 603.748,541.215 z" id="boundary" inkscape:connector-curvature="0" />
	<path style="fill:none;stroke:red;stroke-width:1px;stroke-linecap:butt;stroke-linejoin:miter;stroke-opacity:1" d="M 603.748,541.215 603.748,569.639 z" id="boundary" inkscape:connector-curvature="0" />
	<path style="fill:none;stroke:red;stroke-width:1px;stroke-linecap:butt;stroke-linejoin:miter;stroke-opacity:1" d="M 603.748,569.639 603.748,598.063 z" id="boundary" inkscape:connector-curvature="0" />
	<path style="fill:none;stroke:red;stroke-width:1px;stroke-linecap:butt;stroke-linejoin:miter;stroke-opacity:1" d="M 603.748,598.063 603.748,626.487 z" id="boundary" inkscape:connector-curvature="0" />
	<path style="fill:none;stroke:red;stroke-width:1px;stroke-linecap:butt;stroke-linejoin:miter;stroke-opacity:1" d="M 603.748,626.487 603.748,654.911 z" id="boundary" inkscape:connector-curvature="0" />
	<path style="fill:none;stroke:red;stroke-width:1px;stroke-linecap:butt;stroke-linejoin:miter;stroke-opacity:1" d="M 603.748,654.911 603.748,683.335 z" id="boundary" inkscape:connector-curvature="0" />
	<path style="fill:none;stroke:red;stroke-width:1px;stroke-linecap:butt;stroke-linejoin:miter;stroke-opacity:1" d="M 603.748,683.335 603.748,711.759 z" id="boundary" inkscape:connector-curvature="0" />
	<path style="fill:none;stroke:red;stroke-width:1px;stroke-linecap:butt;stroke-linejoin:miter;stroke-opacity:1" d="M 603.748,711.759 603.748,740.183 z" id="boundary" inkscape:connector-curvature="0" />
	<path style="fill:none;stroke:red;stroke-width:1px;stroke-linecap:butt;stroke-linejoin:miter;stroke-opacity:1" d="M 615.117,112.011 626.487,140.436 z" id="boundary" inkscape:connector-curvature="0" />
	<path style="fill:none;stroke:red;stroke-width:1px;stroke-linecap:butt;stroke-linejoin:miter;stroke-opacity:1" d="M 617.96,347.931 632.172,322.35 z" id="boundary" inkscape:connector-curvature="0" />
	<path style="fill:none;stroke:red;stroke-width:1px;stroke-linecap:butt;stroke-linejoin:miter;stroke-opacity:1" d="M 626.487,140.436 637.857,168.86 z" id="boundary" inkscape:connector-curvature="0" />
	<path style="fill:none;stroke:red;stroke-width:1px;stroke-linecap:butt;stroke-linejoin:miter;stroke-opacity:1" d="M 632.172,322.35 646.384,296.768 z" id="boundary" inkscape:connector-curvature="0" />
	<path style="fill:none;stroke:red;stroke-width:1px;stroke-linecap:butt;stroke-linejoin:miter;stroke-opacity:1" d="M 637.857,168.86 646.384,197.284 z" id="boundary" inkscape:connector-curvature="0" />
	<path style="fill:none;stroke:red;stroke-width:1px;stroke-linecap:butt;stroke-linejoin:miter;stroke-opacity:1" d="M 646.384,197.284 649.226,225.708 z" id="boundary" inkscape:connector-curvature="0" />
	<path style="fill:none;stroke:red;stroke-width:1px;stroke-linecap:butt;stroke-linejoin:miter;stroke-opacity:1" d="M 646.384,296.768 649.226,265.501 z" id="boundary" inkscape:connector-curvature="0" />
	<path style="fill:none;stroke:red;stroke-width:1px;stroke-linecap:butt;stroke-linejoin:miter;stroke-opacity:1" d="M 649.226,225.708 649.226,265.501 z" id="boundary" inkscape:connector-curvature="0" />
	<circle cx="4" cy="833.983" r="4" fill="#0" id="circle0"/>
	<circle cx="6.84241" cy="862.407" r="4" fill="#0" id="circle1"/>
	<circle cx="9.68481" cy="771.45" r="4" fill="#0" id="circle2"/>
	<circle cx="9.68481" cy="799.874" r="4" fill="#0" id="circle3"/>
	<circle cx="9.68481" cy="890.831" r="4" fill="#0" id="circle4"/>
	<circle cx="15.3696" cy="919.255" r="4" fill="#0" id="circle5"/>
	<circle cx="21.0544" cy="743.026" r="4" fill="#0" id="circle6"/>
	<circle cx="21.0544" cy="947.679" r="4" fill="#0" id="circle7"/>
	<circle cx="38.1089" cy="970.418" r="4" fill="#0" id="circle8"/>
	<circle cx="49.4785" cy="731.656" r="4" fill="#0" id="circle9"/>
	<circle cx="63.6905" cy="984.63" r="4" fill="#0" id="circle10"/>
	<circle cx="77.9026" cy="725.971" r="4" fill="#0" id="circle11"/>
	<circle cx="89.2722" cy="492.894" r="4" fill="#0" id="circle12"/>
	<circle cx="89.2722" cy="521.318" r="4" fill="#0" id="circle13"/>
	<circle cx="92.1146" cy="996" r="4" fill="#0" id="circle14"/>
	<circle cx="94.957" cy="549.742" r="4" fill="#0" id="circle15"/>
	<circle cx="103.484" cy="467.312" r="4" fill="#0" id="circle16"/>
	<circle cx="103.484" cy="578.166" r="4" fill="#0" id="circle17"/>
	<circle cx="106.327" cy="731.656" r="4" fill="#0" id="circle18"/>
	<circle cx="120.539" cy="996" r="4" fill="#0" id="circle19"/>
	<circle cx="123.381" cy="600.905" r="4" fill="#0" id="circle20"/>
	<circle cx="129.066" cy="453.1" r="4" fill="#0" id="circle21"/>
	<circle cx="134.751" cy="731.656" r="4" fill="#0" id="circle22"/>
	<circle cx="148.963" cy="615.117" r="4" fill="#0" id="circle23"/>
	<circle cx="148.963" cy="987.473" r="4" fill="#0" id="circle24"/>
	<circle cx="157.49" cy="231.393" r="4" fill="#0" id="circle25"/>
	<circle cx="157.49" cy="259.817" r="4" fill="#0" id="circle26"/>
	<circle cx="157.49" cy="441.731" r="4" fill="#0" id="circle27"/>
	<circle cx="157.49" cy="663.438" r="4" fill="#0" id="circle28"/>
	<circle cx="157.49" cy="714.602" r="4" fill="#0" id="circle29"/>
	<circle cx="166.017" cy="288.241" r="4" fill="#0" id="circle30"/>
	<circle cx="171.702" cy="316.665" r="4" fill="#0" id="circle31"/>
	<circle cx="177.387" cy="978.946" r="4" fill="#0" id="circle32"/>
	<circle cx="180.229" cy="214.338" r="4" fill="#0" id="circle33"/>
	<circle cx="183.072" cy="345.089" r="4" fill="#0" id="circle34"/>
	<circle cx="185.914" cy="436.046" r="4" fill="#0" id="circle35"/>
	<circle cx="202.968" cy="197.284" r="4" fill="#0" id="circle36"/>
	<circle cx="205.811" cy="990.315" r="4" fill="#0" id="circle37"/>
	<circle cx="208.653" cy="359.301" r="4" fill="#0" id="circle38"/>
	<circle cx="214.338" cy="430.361" r="4" fill="#0" id="circle39"/>
	<circle cx="231.393" cy="191.599" r="4" fill="#0" id="circle40"/>
	<circle cx="234.235" cy="996" r="4" fill="#0" id="circle41"/>
	<circle cx="237.077" cy="367.828" r="4" fill="#0" id="circle42"/>
	<circle cx="242.762" cy="430.361" r="4" fill="#0" id="circle43"/>
	<circle cx="259.817" cy="180.229" r="4" fill="#0" id="circle44"/>
	<circle cx="259.817" cy="387.725" r="4" fill="#0" id="circle45"/>
	<circle cx="262.659" cy="996" r="4" fill="#0" id="circle46"/>
	<circle cx="282.556" cy="163.175" r="4" fill="#0" id="circle47"/>
	<circle cx="291.083" cy="996" r="4" fill="#0" id="circle48"/>
	<circle cx="299.61" cy="140.436" r="4" fill="#0" id="circle49"/>
	<circle cx="313.822" cy="114.854" r="4" fill="#0" id="circle50"/>
	<circle cx="319.507" cy="990.315" r="4" fill="#0" id="circle51"/>
	<circle cx="330.877" cy="92.1146" r="4" fill="#0" id="circle52"/>
	<circle cx="347.931" cy="978.946" r="4" fill="#0" id="circle53"/>
	<circle cx="350.774" cy="49.4785" r="4" fill="#0" id="circle54"/>
	<circle cx="367.828" cy="26.7393" r="4" fill="#0" id="circle55"/>
	<circle cx="376.355" cy="978.946" r="4" fill="#0" id="circle56"/>
	<circle cx="390.567" cy="9.68481" r="4" fill="#0" id="circle57"/>
	<circle cx="404.779" cy="984.63" r="4" fill="#0" id="circle58"/>
	<circle cx="418.991" cy="4" r="4" fill="#0" id="circle59"/>
	<circle cx="433.203" cy="984.63" r="4" fill="#0" id="circle60"/>
	<circle cx="447.415" cy="9.68481" r="4" fill="#0" id="circle61"/>
	<circle cx="461.628" cy="990.315" r="4" fill="#0" id="circle62"/>
	<circle cx="475.84" cy="15.3696" r="4" fill="#0" id="circle63"/>
	<circle cx="490.052" cy="990.315" r="4" fill="#0" id="circle64"/>
	<circle cx="504.264" cy="4" r="4" fill="#0" id="circle65"/>
	<circle cx="518.476" cy="990.315" r="4" fill="#0" id="circle66"/>
	<circle cx="532.688" cy="4" r="4" fill="#0" id="circle67"/>
	<circle cx="546.9" cy="978.946" r="4" fill="#0" id="circle68"/>
	<circle cx="558.269" cy="18.212" r="4" fill="#0" id="circle69"/>
	<circle cx="569.639" cy="46.6361" r="4" fill="#0" id="circle70"/>
	<circle cx="569.639" cy="75.0602" r="4" fill="#0" id="circle71"/>
	<circle cx="575.324" cy="947.679" r="4" fill="#0" id="circle72"/>
	<circle cx="581.009" cy="919.255" r="4" fill="#0" id="circle73"/>
	<circle cx="586.693" cy="890.831" r="4" fill="#0" id="circle74"/>
	<circle cx="589.536" cy="399.095" r="4" fill="#0" id="circle75"/>
	<circle cx="592.378" cy="94.957" r="4" fill="#0" id="circle76"/>
	<circle cx="592.378" cy="788.504" r="4" fill="#0" id="circle77"/>
	<circle cx="592.378" cy="816.928" r="4" fill="#0" id="circle78"/>
	<circle cx="592.378" cy="845.352" r="4" fill="#0" id="circle79"/>
	<circle cx="598.063" cy="427.519" r="4" fill="#0" id="circle80"/>
	<circle cx="600.905" cy="370.67" r="4" fill="#0" id="circle81"/>
	<circle cx="603.748" cy="455.943" r="4" fill="#0" id="circle82"/>
	<circle cx="603.748" cy="484.367" r="4" fill="#0" id="circle83"/>
	<circle cx="603.748" cy="512.791" r="4" fill="#0" id="circle84"/>
	<circle cx="603.748" cy="541.215" r="4" fill="#0" id="circle85"/>
	<circle cx="603.748" cy="569.639" r="4" fill="#0" id="circle86"/>
	<circle cx="603.748" cy="598.063" r="4" fill="#0" id="circle87"/>
	<circle cx="603.748" cy="626.487" r="4" fill="#0" id="circle88"/>
	<circle cx="603.748" cy="654.911" r="4" fill="#0" id="circle89"/>
	<circle cx="603.748" cy="683.335" r="4" fill="#0" id="circle90"/>
	<circle cx="603.748" cy="711.759" r="4" fill="#0" id="circle91"/>
	<circle cx="603.748" cy="740.183" r="4" fill="#0" id="circle92"/>
	<circle cx="615.117" cy="112.011" r="4" fill="#0" id="circle93"/>
	<circle cx="617.96" cy="347.931" r="4" fill="#0" id="circle94"/>
	<circle cx="626.487" cy="140.436" r="4" fill="#0" id="circle95"/>
	<circle cx="632.172" cy="322.35" r="4" fill="#0" id="circle96"/>
	<circle cx="637.857" cy="168.86" r="4" fill="#0" id="circle97"/>
	<circle cx="646.384" cy="197.284" r="4" fill="#0" id="circle98"/>
	<circle cx="646.384" cy="296.768" r="4" fill="#0" id="circle99"/>
	<circle cx="649.226" cy="225.708" r="4" fill="#0" id="circle100"/>
	<circle cx="649.226" cy="265.501" r="4" fill="#0" id="circle101"/>
	</g>
</svg>