<?xml version="1.0" encoding="UTF-8" standalone="no"?>
<!-- Created with CurveBenchmark -->
<svg
	xmlns:dc="http://purl.org/dc/elements/1.1/"
	xmlns:cc="http://creativecommons.org/ns#"
	xmlns:rdf="http://www.w3.org/1999/02/22-rdf-syntax-ns#"
	xmlns:svg="http://www.w3.org/2000/svg"
	xmlns="http://www.w3.org/2000/svg"
	xmlns:sodipodi="http://sodipodi.sourceforge.net/DTD/sodipodi-0.dtd"
	xmlns:inkscape="http://www.inkscape.org/namespaces/inkscape"
	width="1000"
	height="1000"
	id="svg2"
	version="1.1"
	sodipodi:docname="manifold/discur-Heart13.png.txt">
<defs
	id="defs4" />
<metadata
	id="metadata7">
	<rdf:RDF>
		<cc:Work
			rdf:about="">
			<dc:format>image/svg+xml</dc:format>
			<dc:type
				rdf:resource="http://purl.org/dc/dcmitype/StillImage" />
			<dc:title></dc:title>
		</cc:Work>
	</rdf:RDF>
</metadata>
<g
	inkscape:label="Layer 1"
	inkscape:groupmode="layer"
	id="layer1">
	<path style="fill:none;stroke:red;stroke-width:1px;stroke-linecap:butt;stroke-linejoin:miter;stroke-opacity:1" d="M 4,179.392 4,198.251 z" id="boundary" inkscape:connector-curvature="0" />
	<path style="fill:none;stroke:red;stroke-width:1px;stroke-linecap:butt;stroke-linejoin:miter;stroke-opacity:1" d="M 4,179.392 13.4297,160.532 z" id="boundary" inkscape:connector-curvature="0" />
	<path style="fill:none;stroke:red;stroke-width:1px;stroke-linecap:butt;stroke-linejoin:miter;stroke-opacity:1" d="M 4,198.251 4,217.11 z" id="boundary" inkscape:connector-curvature="0" />
	<path style="fill:none;stroke:red;stroke-width:1px;stroke-linecap:butt;stroke-linejoin:miter;stroke-opacity:1" d="M 4,217.11 4,235.97 z" id="boundary" inkscape:connector-curvature="0" />
	<path style="fill:none;stroke:red;stroke-width:1px;stroke-linecap:butt;stroke-linejoin:miter;stroke-opacity:1" d="M 4,235.97 4,254.829 z" id="boundary" inkscape:connector-curvature="0" />
	<path style="fill:none;stroke:red;stroke-width:1px;stroke-linecap:butt;stroke-linejoin:miter;stroke-opacity:1" d="M 4,254.829 4,273.688 z" id="boundary" inkscape:connector-curvature="0" />
	<path style="fill:none;stroke:red;stroke-width:1px;stroke-linecap:butt;stroke-linejoin:miter;stroke-opacity:1" d="M 4,273.688 4,292.548 z" id="boundary" inkscape:connector-curvature="0" />
	<path style="fill:none;stroke:red;stroke-width:1px;stroke-linecap:butt;stroke-linejoin:miter;stroke-opacity:1" d="M 4,292.548 13.4297,309.521 z" id="boundary" inkscape:connector-curvature="0" />
	<path style="fill:none;stroke:red;stroke-width:1px;stroke-linecap:butt;stroke-linejoin:miter;stroke-opacity:1" d="M 13.4297,160.532 22.8593,141.673 z" id="boundary" inkscape:connector-curvature="0" />
	<path style="fill:none;stroke:red;stroke-width:1px;stroke-linecap:butt;stroke-linejoin:miter;stroke-opacity:1" d="M 13.4297,309.521 13.4297,328.38 z" id="boundary" inkscape:connector-curvature="0" />
	<path style="fill:none;stroke:red;stroke-width:1px;stroke-linecap:butt;stroke-linejoin:miter;stroke-opacity:1" d="M 13.4297,328.38 22.8593,345.354 z" id="boundary" inkscape:connector-curvature="0" />
	<path style="fill:none;stroke:red;stroke-width:1px;stroke-linecap:butt;stroke-linejoin:miter;stroke-opacity:1" d="M 22.8593,122.814 22.8593,141.673 z" id="boundary" inkscape:connector-curvature="0" />
	<path style="fill:none;stroke:red;stroke-width:1px;stroke-linecap:butt;stroke-linejoin:miter;stroke-opacity:1" d="M 22.8593,122.814 32.289,103.954 z" id="boundary" inkscape:connector-curvature="0" />
	<path style="fill:none;stroke:red;stroke-width:1px;stroke-linecap:butt;stroke-linejoin:miter;stroke-opacity:1" d="M 22.8593,345.354 28.5171,364.213 z" id="boundary" inkscape:connector-curvature="0" />
	<path style="fill:none;stroke:red;stroke-width:1px;stroke-linecap:butt;stroke-linejoin:miter;stroke-opacity:1" d="M 28.5171,364.213 37.9468,381.186 z" id="boundary" inkscape:connector-curvature="0" />
	<path style="fill:none;stroke:red;stroke-width:1px;stroke-linecap:butt;stroke-linejoin:miter;stroke-opacity:1" d="M 32.289,103.954 47.3764,88.8669 z" id="boundary" inkscape:connector-curvature="0" />
	<path style="fill:none;stroke:red;stroke-width:1px;stroke-linecap:butt;stroke-linejoin:miter;stroke-opacity:1" d="M 37.9468,381.186 45.4905,400.046 z" id="boundary" inkscape:connector-curvature="0" />
	<path style="fill:none;stroke:red;stroke-width:1px;stroke-linecap:butt;stroke-linejoin:miter;stroke-opacity:1" d="M 45.4905,400.046 54.9202,417.019 z" id="boundary" inkscape:connector-curvature="0" />
	<path style="fill:none;stroke:red;stroke-width:1px;stroke-linecap:butt;stroke-linejoin:miter;stroke-opacity:1" d="M 47.3764,88.8669 60.5779,66.2357 z" id="boundary" inkscape:connector-curvature="0" />
	<path style="fill:none;stroke:red;stroke-width:1px;stroke-linecap:butt;stroke-linejoin:miter;stroke-opacity:1" d="M 54.9202,417.019 62.4639,435.878 z" id="boundary" inkscape:connector-curvature="0" />
	<path style="fill:none;stroke:red;stroke-width:1px;stroke-linecap:butt;stroke-linejoin:miter;stroke-opacity:1" d="M 60.5779,66.2357 70.0076,47.3764 z" id="boundary" inkscape:connector-curvature="0" />
	<path style="fill:none;stroke:red;stroke-width:1px;stroke-linecap:butt;stroke-linejoin:miter;stroke-opacity:1" d="M 62.4639,435.878 77.5513,449.08 z" id="boundary" inkscape:connector-curvature="0" />
	<path style="fill:none;stroke:red;stroke-width:1px;stroke-linecap:butt;stroke-linejoin:miter;stroke-opacity:1" d="M 70.0076,47.3764 88.8669,37.9468 z" id="boundary" inkscape:connector-curvature="0" />
	<path style="fill:none;stroke:red;stroke-width:1px;stroke-linecap:butt;stroke-linejoin:miter;stroke-opacity:1" d="M 77.5513,449.08 90.7529,464.167 z" id="boundary" inkscape:connector-curvature="0" />
	<path style="fill:none;stroke:red;stroke-width:1px;stroke-linecap:butt;stroke-linejoin:miter;stroke-opacity:1" d="M 88.8669,37.9468 103.954,22.8593 z" id="boundary" inkscape:connector-curvature="0" />
	<path style="fill:none;stroke:red;stroke-width:1px;stroke-linecap:butt;stroke-linejoin:miter;stroke-opacity:1" d="M 90.7529,464.167 105.84,477.369 z" id="boundary" inkscape:connector-curvature="0" />
	<path style="fill:none;stroke:red;stroke-width:1px;stroke-linecap:butt;stroke-linejoin:miter;stroke-opacity:1" d="M 103.954,22.8593 120.928,13.4297 z" id="boundary" inkscape:connector-curvature="0" />
	<path style="fill:none;stroke:red;stroke-width:1px;stroke-linecap:butt;stroke-linejoin:miter;stroke-opacity:1" d="M 105.84,477.369 122.814,486.798 z" id="boundary" inkscape:connector-curvature="0" />
	<path style="fill:none;stroke:red;stroke-width:1px;stroke-linecap:butt;stroke-linejoin:miter;stroke-opacity:1" d="M 120.928,13.4297 139.787,13.4297 z" id="boundary" inkscape:connector-curvature="0" />
	<path style="fill:none;stroke:red;stroke-width:1px;stroke-linecap:butt;stroke-linejoin:miter;stroke-opacity:1" d="M 122.814,486.798 136.015,501.886 z" id="boundary" inkscape:connector-curvature="0" />
	<path style="fill:none;stroke:red;stroke-width:1px;stroke-linecap:butt;stroke-linejoin:miter;stroke-opacity:1" d="M 136.015,501.886 145.445,518.859 z" id="boundary" inkscape:connector-curvature="0" />
	<path style="fill:none;stroke:red;stroke-width:1px;stroke-linecap:butt;stroke-linejoin:miter;stroke-opacity:1" d="M 139.787,13.4297 156.76,4 z" id="boundary" inkscape:connector-curvature="0" />
	<path style="fill:none;stroke:red;stroke-width:1px;stroke-linecap:butt;stroke-linejoin:miter;stroke-opacity:1" d="M 145.445,518.859 164.304,524.517 z" id="boundary" inkscape:connector-curvature="0" />
	<path style="fill:none;stroke:red;stroke-width:1px;stroke-linecap:butt;stroke-linejoin:miter;stroke-opacity:1" d="M 156.76,4 175.62,4 z" id="boundary" inkscape:connector-curvature="0" />
	<path style="fill:none;stroke:red;stroke-width:1px;stroke-linecap:butt;stroke-linejoin:miter;stroke-opacity:1" d="M 164.304,524.517 175.62,539.605 z" id="boundary" inkscape:connector-curvature="0" />
	<path style="fill:none;stroke:red;stroke-width:1px;stroke-linecap:butt;stroke-linejoin:miter;stroke-opacity:1" d="M 175.62,4 194.479,4 z" id="boundary" inkscape:connector-curvature="0" />
	<path style="fill:none;stroke:red;stroke-width:1px;stroke-linecap:butt;stroke-linejoin:miter;stroke-opacity:1" d="M 175.62,539.605 190.707,552.806 z" id="boundary" inkscape:connector-curvature="0" />
	<path style="fill:none;stroke:red;stroke-width:1px;stroke-linecap:butt;stroke-linejoin:miter;stroke-opacity:1" d="M 190.707,552.806 203.909,567.894 z" id="boundary" inkscape:connector-curvature="0" />
	<path style="fill:none;stroke:red;stroke-width:1px;stroke-linecap:butt;stroke-linejoin:miter;stroke-opacity:1" d="M 194.479,4 213.338,4 z" id="boundary" inkscape:connector-curvature="0" />
	<path style="fill:none;stroke:red;stroke-width:1px;stroke-linecap:butt;stroke-linejoin:miter;stroke-opacity:1" d="M 203.909,567.894 218.996,581.095 z" id="boundary" inkscape:connector-curvature="0" />
	<path style="fill:none;stroke:red;stroke-width:1px;stroke-linecap:butt;stroke-linejoin:miter;stroke-opacity:1" d="M 213.338,4 232.198,4 z" id="boundary" inkscape:connector-curvature="0" />
	<path style="fill:none;stroke:red;stroke-width:1px;stroke-linecap:butt;stroke-linejoin:miter;stroke-opacity:1" d="M 218.996,581.095 235.97,590.525 z" id="boundary" inkscape:connector-curvature="0" />
	<path style="fill:none;stroke:red;stroke-width:1px;stroke-linecap:butt;stroke-linejoin:miter;stroke-opacity:1" d="M 232.198,4 251.057,4 z" id="boundary" inkscape:connector-curvature="0" />
	<path style="fill:none;stroke:red;stroke-width:1px;stroke-linecap:butt;stroke-linejoin:miter;stroke-opacity:1" d="M 235.97,590.525 251.057,603.726 z" id="boundary" inkscape:connector-curvature="0" />
	<path style="fill:none;stroke:red;stroke-width:1px;stroke-linecap:butt;stroke-linejoin:miter;stroke-opacity:1" d="M 251.057,4 269.916,9.65779 z" id="boundary" inkscape:connector-curvature="0" />
	<path style="fill:none;stroke:red;stroke-width:1px;stroke-linecap:butt;stroke-linejoin:miter;stroke-opacity:1" d="M 251.057,603.726 264.259,618.814 z" id="boundary" inkscape:connector-curvature="0" />
	<path style="fill:none;stroke:red;stroke-width:1px;stroke-linecap:butt;stroke-linejoin:miter;stroke-opacity:1" d="M 264.259,618.814 283.118,626.357 z" id="boundary" inkscape:connector-curvature="0" />
	<path style="fill:none;stroke:red;stroke-width:1px;stroke-linecap:butt;stroke-linejoin:miter;stroke-opacity:1" d="M 269.916,9.65779 286.89,19.0875 z" id="boundary" inkscape:connector-curvature="0" />
	<path style="fill:none;stroke:red;stroke-width:1px;stroke-linecap:butt;stroke-linejoin:miter;stroke-opacity:1" d="M 283.118,626.357 296.319,641.445 z" id="boundary" inkscape:connector-curvature="0" />
	<path style="fill:none;stroke:red;stroke-width:1px;stroke-linecap:butt;stroke-linejoin:miter;stroke-opacity:1" d="M 286.89,19.0875 305.749,26.6312 z" id="boundary" inkscape:connector-curvature="0" />
	<path style="fill:none;stroke:red;stroke-width:1px;stroke-linecap:butt;stroke-linejoin:miter;stroke-opacity:1" d="M 296.319,641.445 311.407,654.646 z" id="boundary" inkscape:connector-curvature="0" />
	<path style="fill:none;stroke:red;stroke-width:1px;stroke-linecap:butt;stroke-linejoin:miter;stroke-opacity:1" d="M 305.749,26.6312 322.722,36.0608 z" id="boundary" inkscape:connector-curvature="0" />
	<path style="fill:none;stroke:red;stroke-width:1px;stroke-linecap:butt;stroke-linejoin:miter;stroke-opacity:1" d="M 311.407,654.646 328.38,664.076 z" id="boundary" inkscape:connector-curvature="0" />
	<path style="fill:none;stroke:red;stroke-width:1px;stroke-linecap:butt;stroke-linejoin:miter;stroke-opacity:1" d="M 322.722,36.0608 341.582,43.6046 z" id="boundary" inkscape:connector-curvature="0" />
	<path style="fill:none;stroke:red;stroke-width:1px;stroke-linecap:butt;stroke-linejoin:miter;stroke-opacity:1" d="M 328.38,664.076 343.468,675.392 z" id="boundary" inkscape:connector-curvature="0" />
	<path style="fill:none;stroke:red;stroke-width:1px;stroke-linecap:butt;stroke-linejoin:miter;stroke-opacity:1" d="M 341.582,43.6046 358.555,53.0342 z" id="boundary" inkscape:connector-curvature="0" />
	<path style="fill:none;stroke:red;stroke-width:1px;stroke-linecap:butt;stroke-linejoin:miter;stroke-opacity:1" d="M 343.468,675.392 360.441,684.821 z" id="boundary" inkscape:connector-curvature="0" />
	<path style="fill:none;stroke:red;stroke-width:1px;stroke-linecap:butt;stroke-linejoin:miter;stroke-opacity:1" d="M 358.555,53.0342 373.643,66.2357 z" id="boundary" inkscape:connector-curvature="0" />
	<path style="fill:none;stroke:red;stroke-width:1px;stroke-linecap:butt;stroke-linejoin:miter;stroke-opacity:1" d="M 360.441,684.821 373.643,699.909 z" id="boundary" inkscape:connector-curvature="0" />
	<path style="fill:none;stroke:red;stroke-width:1px;stroke-linecap:butt;stroke-linejoin:miter;stroke-opacity:1" d="M 373.643,66.2357 386.844,81.3232 z" id="boundary" inkscape:connector-curvature="0" />
	<path style="fill:none;stroke:red;stroke-width:1px;stroke-linecap:butt;stroke-linejoin:miter;stroke-opacity:1" d="M 373.643,699.909 388.73,713.11 z" id="boundary" inkscape:connector-curvature="0" />
	<path style="fill:none;stroke:red;stroke-width:1px;stroke-linecap:butt;stroke-linejoin:miter;stroke-opacity:1" d="M 386.844,81.3232 401.932,94.5247 z" id="boundary" inkscape:connector-curvature="0" />
	<path style="fill:none;stroke:red;stroke-width:1px;stroke-linecap:butt;stroke-linejoin:miter;stroke-opacity:1" d="M 388.73,713.11 405.703,722.54 z" id="boundary" inkscape:connector-curvature="0" />
	<path style="fill:none;stroke:red;stroke-width:1px;stroke-linecap:butt;stroke-linejoin:miter;stroke-opacity:1" d="M 401.932,94.5247 415.133,109.612 z" id="boundary" inkscape:connector-curvature="0" />
	<path style="fill:none;stroke:red;stroke-width:1px;stroke-linecap:butt;stroke-linejoin:miter;stroke-opacity:1" d="M 405.703,722.54 420.791,735.741 z" id="boundary" inkscape:connector-curvature="0" />
	<path style="fill:none;stroke:red;stroke-width:1px;stroke-linecap:butt;stroke-linejoin:miter;stroke-opacity:1" d="M 415.133,109.612 424.563,126.586 z" id="boundary" inkscape:connector-curvature="0" />
	<path style="fill:none;stroke:red;stroke-width:1px;stroke-linecap:butt;stroke-linejoin:miter;stroke-opacity:1" d="M 420.791,735.741 433.992,750.829 z" id="boundary" inkscape:connector-curvature="0" />
	<path style="fill:none;stroke:red;stroke-width:1px;stroke-linecap:butt;stroke-linejoin:miter;stroke-opacity:1" d="M 424.563,126.586 430.221,145.445 z" id="boundary" inkscape:connector-curvature="0" />
	<path style="fill:none;stroke:red;stroke-width:1px;stroke-linecap:butt;stroke-linejoin:miter;stroke-opacity:1" d="M 430.221,145.445 439.65,162.418 z" id="boundary" inkscape:connector-curvature="0" />
	<path style="fill:none;stroke:red;stroke-width:1px;stroke-linecap:butt;stroke-linejoin:miter;stroke-opacity:1" d="M 433.992,750.829 449.08,764.03 z" id="boundary" inkscape:connector-curvature="0" />
	<path style="fill:none;stroke:red;stroke-width:1px;stroke-linecap:butt;stroke-linejoin:miter;stroke-opacity:1" d="M 439.65,162.418 449.08,179.392 z" id="boundary" inkscape:connector-curvature="0" />
	<path style="fill:none;stroke:red;stroke-width:1px;stroke-linecap:butt;stroke-linejoin:miter;stroke-opacity:1" d="M 449.08,179.392 458.51,196.365 z" id="boundary" inkscape:connector-curvature="0" />
	<path style="fill:none;stroke:red;stroke-width:1px;stroke-linecap:butt;stroke-linejoin:miter;stroke-opacity:1" d="M 449.08,764.03 462.281,779.118 z" id="boundary" inkscape:connector-curvature="0" />
	<path style="fill:none;stroke:red;stroke-width:1px;stroke-linecap:butt;stroke-linejoin:miter;stroke-opacity:1" d="M 458.51,196.365 467.939,213.338 z" id="boundary" inkscape:connector-curvature="0" />
	<path style="fill:none;stroke:red;stroke-width:1px;stroke-linecap:butt;stroke-linejoin:miter;stroke-opacity:1" d="M 462.281,779.118 477.369,792.319 z" id="boundary" inkscape:connector-curvature="0" />
	<path style="fill:none;stroke:red;stroke-width:1px;stroke-linecap:butt;stroke-linejoin:miter;stroke-opacity:1" d="M 467.939,213.338 477.369,230.312 z" id="boundary" inkscape:connector-curvature="0" />
	<path style="fill:none;stroke:red;stroke-width:1px;stroke-linecap:butt;stroke-linejoin:miter;stroke-opacity:1" d="M 477.369,230.312 486.798,247.285 z" id="boundary" inkscape:connector-curvature="0" />
	<path style="fill:none;stroke:red;stroke-width:1px;stroke-linecap:butt;stroke-linejoin:miter;stroke-opacity:1" d="M 477.369,792.319 490.57,807.407 z" id="boundary" inkscape:connector-curvature="0" />
	<path style="fill:none;stroke:red;stroke-width:1px;stroke-linecap:butt;stroke-linejoin:miter;stroke-opacity:1" d="M 486.798,247.285 496.228,264.259 z" id="boundary" inkscape:connector-curvature="0" />
	<path style="fill:none;stroke:red;stroke-width:1px;stroke-linecap:butt;stroke-linejoin:miter;stroke-opacity:1" d="M 490.57,807.407 507.544,816.837 z" id="boundary" inkscape:connector-curvature="0" />
	<path style="fill:none;stroke:red;stroke-width:1px;stroke-linecap:butt;stroke-linejoin:miter;stroke-opacity:1" d="M 496.228,264.259 515.087,262.373 z" id="boundary" inkscape:connector-curvature="0" />
	<path style="fill:none;stroke:red;stroke-width:1px;stroke-linecap:butt;stroke-linejoin:miter;stroke-opacity:1" d="M 507.544,816.837 524.517,807.407 z" id="boundary" inkscape:connector-curvature="0" />
	<path style="fill:none;stroke:red;stroke-width:1px;stroke-linecap:butt;stroke-linejoin:miter;stroke-opacity:1" d="M 515.087,262.373 524.517,243.513 z" id="boundary" inkscape:connector-curvature="0" />
	<path style="fill:none;stroke:red;stroke-width:1px;stroke-linecap:butt;stroke-linejoin:miter;stroke-opacity:1" d="M 524.517,243.513 533.947,224.654 z" id="boundary" inkscape:connector-curvature="0" />
	<path style="fill:none;stroke:red;stroke-width:1px;stroke-linecap:butt;stroke-linejoin:miter;stroke-opacity:1" d="M 524.517,807.407 543.376,797.977 z" id="boundary" inkscape:connector-curvature="0" />
	<path style="fill:none;stroke:red;stroke-width:1px;stroke-linecap:butt;stroke-linejoin:miter;stroke-opacity:1" d="M 533.947,224.654 543.376,205.795 z" id="boundary" inkscape:connector-curvature="0" />
	<path style="fill:none;stroke:red;stroke-width:1px;stroke-linecap:butt;stroke-linejoin:miter;stroke-opacity:1" d="M 543.376,205.795 558.464,192.593 z" id="boundary" inkscape:connector-curvature="0" />
	<path style="fill:none;stroke:red;stroke-width:1px;stroke-linecap:butt;stroke-linejoin:miter;stroke-opacity:1" d="M 543.376,797.977 558.464,784.776 z" id="boundary" inkscape:connector-curvature="0" />
	<path style="fill:none;stroke:red;stroke-width:1px;stroke-linecap:butt;stroke-linejoin:miter;stroke-opacity:1" d="M 558.464,192.593 566.008,173.734 z" id="boundary" inkscape:connector-curvature="0" />
	<path style="fill:none;stroke:red;stroke-width:1px;stroke-linecap:butt;stroke-linejoin:miter;stroke-opacity:1" d="M 558.464,784.776 577.323,775.346 z" id="boundary" inkscape:connector-curvature="0" />
	<path style="fill:none;stroke:red;stroke-width:1px;stroke-linecap:butt;stroke-linejoin:miter;stroke-opacity:1" d="M 566.008,173.734 575.437,154.875 z" id="boundary" inkscape:connector-curvature="0" />
	<path style="fill:none;stroke:red;stroke-width:1px;stroke-linecap:butt;stroke-linejoin:miter;stroke-opacity:1" d="M 575.437,154.875 584.867,136.015 z" id="boundary" inkscape:connector-curvature="0" />
	<path style="fill:none;stroke:red;stroke-width:1px;stroke-linecap:butt;stroke-linejoin:miter;stroke-opacity:1" d="M 577.323,775.346 596.183,765.916 z" id="boundary" inkscape:connector-curvature="0" />
	<path style="fill:none;stroke:red;stroke-width:1px;stroke-linecap:butt;stroke-linejoin:miter;stroke-opacity:1" d="M 584.867,136.015 594.297,117.156 z" id="boundary" inkscape:connector-curvature="0" />
	<path style="fill:none;stroke:red;stroke-width:1px;stroke-linecap:butt;stroke-linejoin:miter;stroke-opacity:1" d="M 594.297,117.156 609.384,102.068 z" id="boundary" inkscape:connector-curvature="0" />
	<path style="fill:none;stroke:red;stroke-width:1px;stroke-linecap:butt;stroke-linejoin:miter;stroke-opacity:1" d="M 596.183,765.916 615.042,756.487 z" id="boundary" inkscape:connector-curvature="0" />
	<path style="fill:none;stroke:red;stroke-width:1px;stroke-linecap:butt;stroke-linejoin:miter;stroke-opacity:1" d="M 609.384,102.068 624.471,88.8669 z" id="boundary" inkscape:connector-curvature="0" />
	<path style="fill:none;stroke:red;stroke-width:1px;stroke-linecap:butt;stroke-linejoin:miter;stroke-opacity:1" d="M 615.042,756.487 628.243,741.399 z" id="boundary" inkscape:connector-curvature="0" />
	<path style="fill:none;stroke:red;stroke-width:1px;stroke-linecap:butt;stroke-linejoin:miter;stroke-opacity:1" d="M 624.471,88.8669 637.673,73.7795 z" id="boundary" inkscape:connector-curvature="0" />
	<path style="fill:none;stroke:red;stroke-width:1px;stroke-linecap:butt;stroke-linejoin:miter;stroke-opacity:1" d="M 628.243,741.399 647.103,731.97 z" id="boundary" inkscape:connector-curvature="0" />
	<path style="fill:none;stroke:red;stroke-width:1px;stroke-linecap:butt;stroke-linejoin:miter;stroke-opacity:1" d="M 637.673,73.7795 647.103,54.9202 z" id="boundary" inkscape:connector-curvature="0" />
	<path style="fill:none;stroke:red;stroke-width:1px;stroke-linecap:butt;stroke-linejoin:miter;stroke-opacity:1" d="M 647.103,54.9202 665.962,45.4905 z" id="boundary" inkscape:connector-curvature="0" />
	<path style="fill:none;stroke:red;stroke-width:1px;stroke-linecap:butt;stroke-linejoin:miter;stroke-opacity:1" d="M 647.103,731.97 662.19,718.768 z" id="boundary" inkscape:connector-curvature="0" />
	<path style="fill:none;stroke:red;stroke-width:1px;stroke-linecap:butt;stroke-linejoin:miter;stroke-opacity:1" d="M 662.19,718.768 681.049,709.338 z" id="boundary" inkscape:connector-curvature="0" />
	<path style="fill:none;stroke:red;stroke-width:1px;stroke-linecap:butt;stroke-linejoin:miter;stroke-opacity:1" d="M 665.962,45.4905 684.821,36.0608 z" id="boundary" inkscape:connector-curvature="0" />
	<path style="fill:none;stroke:red;stroke-width:1px;stroke-linecap:butt;stroke-linejoin:miter;stroke-opacity:1" d="M 681.049,709.338 699.909,699.909 z" id="boundary" inkscape:connector-curvature="0" />
	<path style="fill:none;stroke:red;stroke-width:1px;stroke-linecap:butt;stroke-linejoin:miter;stroke-opacity:1" d="M 684.821,36.0608 703.681,26.6312 z" id="boundary" inkscape:connector-curvature="0" />
	<path style="fill:none;stroke:red;stroke-width:1px;stroke-linecap:butt;stroke-linejoin:miter;stroke-opacity:1" d="M 699.909,699.909 718.768,690.479 z" id="boundary" inkscape:connector-curvature="0" />
	<path style="fill:none;stroke:red;stroke-width:1px;stroke-linecap:butt;stroke-linejoin:miter;stroke-opacity:1" d="M 703.681,26.6312 722.54,22.8593 z" id="boundary" inkscape:connector-curvature="0" />
	<path style="fill:none;stroke:red;stroke-width:1px;stroke-linecap:butt;stroke-linejoin:miter;stroke-opacity:1" d="M 703.681,496.228 707.452,515.087 z" id="boundary" inkscape:connector-curvature="0" />
	<path style="fill:none;stroke:red;stroke-width:1px;stroke-linecap:butt;stroke-linejoin:miter;stroke-opacity:1" d="M 703.681,496.228 713.11,477.369 z" id="boundary" inkscape:connector-curvature="0" />
	<path style="fill:none;stroke:red;stroke-width:1px;stroke-linecap:butt;stroke-linejoin:miter;stroke-opacity:1" d="M 707.452,515.087 713.11,533.947 z" id="boundary" inkscape:connector-curvature="0" />
	<path style="fill:none;stroke:red;stroke-width:1px;stroke-linecap:butt;stroke-linejoin:miter;stroke-opacity:1" d="M 713.11,477.369 731.97,467.939 z" id="boundary" inkscape:connector-curvature="0" />
	<path style="fill:none;stroke:red;stroke-width:1px;stroke-linecap:butt;stroke-linejoin:miter;stroke-opacity:1" d="M 713.11,533.947 716.882,552.806 z" id="boundary" inkscape:connector-curvature="0" />
	<path style="fill:none;stroke:red;stroke-width:1px;stroke-linecap:butt;stroke-linejoin:miter;stroke-opacity:1" d="M 716.882,552.806 726.312,569.779 z" id="boundary" inkscape:connector-curvature="0" />
	<path style="fill:none;stroke:red;stroke-width:1px;stroke-linecap:butt;stroke-linejoin:miter;stroke-opacity:1" d="M 718.768,690.479 737.627,681.049 z" id="boundary" inkscape:connector-curvature="0" />
	<path style="fill:none;stroke:red;stroke-width:1px;stroke-linecap:butt;stroke-linejoin:miter;stroke-opacity:1" d="M 722.54,22.8593 741.399,22.8593 z" id="boundary" inkscape:connector-curvature="0" />
	<path style="fill:none;stroke:red;stroke-width:1px;stroke-linecap:butt;stroke-linejoin:miter;stroke-opacity:1" d="M 726.312,569.779 731.97,588.639 z" id="boundary" inkscape:connector-curvature="0" />
	<path style="fill:none;stroke:red;stroke-width:1px;stroke-linecap:butt;stroke-linejoin:miter;stroke-opacity:1" d="M 731.97,467.939 748.943,477.369 z" id="boundary" inkscape:connector-curvature="0" />
	<path style="fill:none;stroke:red;stroke-width:1px;stroke-linecap:butt;stroke-linejoin:miter;stroke-opacity:1" d="M 731.97,588.639 731.97,607.498 z" id="boundary" inkscape:connector-curvature="0" />
	<path style="fill:none;stroke:red;stroke-width:1px;stroke-linecap:butt;stroke-linejoin:miter;stroke-opacity:1" d="M 731.97,607.498 741.399,624.471 z" id="boundary" inkscape:connector-curvature="0" />
	<path style="fill:none;stroke:red;stroke-width:1px;stroke-linecap:butt;stroke-linejoin:miter;stroke-opacity:1" d="M 737.627,681.049 741.399,662.19 z" id="boundary" inkscape:connector-curvature="0" />
	<path style="fill:none;stroke:red;stroke-width:1px;stroke-linecap:butt;stroke-linejoin:miter;stroke-opacity:1" d="M 741.399,22.8593 760.259,22.8593 z" id="boundary" inkscape:connector-curvature="0" />
	<path style="fill:none;stroke:red;stroke-width:1px;stroke-linecap:butt;stroke-linejoin:miter;stroke-opacity:1" d="M 741.399,624.471 741.399,643.331 z" id="boundary" inkscape:connector-curvature="0" />
	<path style="fill:none;stroke:red;stroke-width:1px;stroke-linecap:butt;stroke-linejoin:miter;stroke-opacity:1" d="M 741.399,643.331 741.399,662.19 z" id="boundary" inkscape:connector-curvature="0" />
	<path style="fill:none;stroke:red;stroke-width:1px;stroke-linecap:butt;stroke-linejoin:miter;stroke-opacity:1" d="M 748.943,477.369 765.916,486.798 z" id="boundary" inkscape:connector-curvature="0" />
	<path style="fill:none;stroke:red;stroke-width:1px;stroke-linecap:butt;stroke-linejoin:miter;stroke-opacity:1" d="M 760.259,22.8593 779.118,22.8593 z" id="boundary" inkscape:connector-curvature="0" />
	<path style="fill:none;stroke:red;stroke-width:1px;stroke-linecap:butt;stroke-linejoin:miter;stroke-opacity:1" d="M 765.916,486.798 782.89,496.228 z" id="boundary" inkscape:connector-curvature="0" />
	<path style="fill:none;stroke:red;stroke-width:1px;stroke-linecap:butt;stroke-linejoin:miter;stroke-opacity:1" d="M 779.118,22.8593 797.977,22.8593 z" id="boundary" inkscape:connector-curvature="0" />
	<path style="fill:none;stroke:red;stroke-width:1px;stroke-linecap:butt;stroke-linejoin:miter;stroke-opacity:1" d="M 782.89,496.228 801.749,503.772 z" id="boundary" inkscape:connector-curvature="0" />
	<path style="fill:none;stroke:red;stroke-width:1px;stroke-linecap:butt;stroke-linejoin:miter;stroke-opacity:1" d="M 797.977,22.8593 814.951,32.289 z" id="boundary" inkscape:connector-curvature="0" />
	<path style="fill:none;stroke:red;stroke-width:1px;stroke-linecap:butt;stroke-linejoin:miter;stroke-opacity:1" d="M 801.749,503.772 818.722,513.202 z" id="boundary" inkscape:connector-curvature="0" />
	<path style="fill:none;stroke:red;stroke-width:1px;stroke-linecap:butt;stroke-linejoin:miter;stroke-opacity:1" d="M 814.951,32.289 831.924,41.7186 z" id="boundary" inkscape:connector-curvature="0" />
	<path style="fill:none;stroke:red;stroke-width:1px;stroke-linecap:butt;stroke-linejoin:miter;stroke-opacity:1" d="M 818.722,513.202 837.582,520.745 z" id="boundary" inkscape:connector-curvature="0" />
	<path style="fill:none;stroke:red;stroke-width:1px;stroke-linecap:butt;stroke-linejoin:miter;stroke-opacity:1" d="M 831.924,41.7186 848.897,51.1483 z" id="boundary" inkscape:connector-curvature="0" />
	<path style="fill:none;stroke:red;stroke-width:1px;stroke-linecap:butt;stroke-linejoin:miter;stroke-opacity:1" d="M 837.582,520.745 854.555,530.175 z" id="boundary" inkscape:connector-curvature="0" />
	<path style="fill:none;stroke:red;stroke-width:1px;stroke-linecap:butt;stroke-linejoin:miter;stroke-opacity:1" d="M 848.897,51.1483 865.871,60.5779 z" id="boundary" inkscape:connector-curvature="0" />
	<path style="fill:none;stroke:red;stroke-width:1px;stroke-linecap:butt;stroke-linejoin:miter;stroke-opacity:1" d="M 854.555,530.175 873.414,533.947 z" id="boundary" inkscape:connector-curvature="0" />
	<path style="fill:none;stroke:red;stroke-width:1px;stroke-linecap:butt;stroke-linejoin:miter;stroke-opacity:1" d="M 865.871,60.5779 882.844,70.0076 z" id="boundary" inkscape:connector-curvature="0" />
	<path style="fill:none;stroke:red;stroke-width:1px;stroke-linecap:butt;stroke-linejoin:miter;stroke-opacity:1" d="M 873.414,533.947 892.274,533.947 z" id="boundary" inkscape:connector-curvature="0" />
	<path style="fill:none;stroke:red;stroke-width:1px;stroke-linecap:butt;stroke-linejoin:miter;stroke-opacity:1" d="M 882.844,70.0076 899.817,79.4373 z" id="boundary" inkscape:connector-curvature="0" />
	<path style="fill:none;stroke:red;stroke-width:1px;stroke-linecap:butt;stroke-linejoin:miter;stroke-opacity:1" d="M 892.274,533.947 911.133,515.087 z" id="boundary" inkscape:connector-curvature="0" />
	<path style="fill:none;stroke:red;stroke-width:1px;stroke-linecap:butt;stroke-linejoin:miter;stroke-opacity:1" d="M 899.817,79.4373 916.791,88.8669 z" id="boundary" inkscape:connector-curvature="0" />
	<path style="fill:none;stroke:red;stroke-width:1px;stroke-linecap:butt;stroke-linejoin:miter;stroke-opacity:1" d="M 911.133,515.087 926.221,501.886 z" id="boundary" inkscape:connector-curvature="0" />
	<path style="fill:none;stroke:red;stroke-width:1px;stroke-linecap:butt;stroke-linejoin:miter;stroke-opacity:1" d="M 916.791,88.8669 933.764,98.2966 z" id="boundary" inkscape:connector-curvature="0" />
	<path style="fill:none;stroke:red;stroke-width:1px;stroke-linecap:butt;stroke-linejoin:miter;stroke-opacity:1" d="M 926.221,501.886 939.422,477.369 z" id="boundary" inkscape:connector-curvature="0" />
	<path style="fill:none;stroke:red;stroke-width:1px;stroke-linecap:butt;stroke-linejoin:miter;stroke-opacity:1" d="M 933.764,98.2966 946.966,113.384 z" id="boundary" inkscape:connector-curvature="0" />
	<path style="fill:none;stroke:red;stroke-width:1px;stroke-linecap:butt;stroke-linejoin:miter;stroke-opacity:1" d="M 939.422,477.369 954.51,464.167 z" id="boundary" inkscape:connector-curvature="0" />
	<path style="fill:none;stroke:red;stroke-width:1px;stroke-linecap:butt;stroke-linejoin:miter;stroke-opacity:1" d="M 946.966,113.384 956.395,130.357 z" id="boundary" inkscape:connector-curvature="0" />
	<path style="fill:none;stroke:red;stroke-width:1px;stroke-linecap:butt;stroke-linejoin:miter;stroke-opacity:1" d="M 954.51,464.167 963.939,445.308 z" id="boundary" inkscape:connector-curvature="0" />
	<path style="fill:none;stroke:red;stroke-width:1px;stroke-linecap:butt;stroke-linejoin:miter;stroke-opacity:1" d="M 956.395,130.357 967.711,145.445 z" id="boundary" inkscape:connector-curvature="0" />
	<path style="fill:none;stroke:red;stroke-width:1px;stroke-linecap:butt;stroke-linejoin:miter;stroke-opacity:1" d="M 963.939,445.308 973.369,426.449 z" id="boundary" inkscape:connector-curvature="0" />
	<path style="fill:none;stroke:red;stroke-width:1px;stroke-linecap:butt;stroke-linejoin:miter;stroke-opacity:1" d="M 967.711,145.445 967.711,164.304 z" id="boundary" inkscape:connector-curvature="0" />
	<path style="fill:none;stroke:red;stroke-width:1px;stroke-linecap:butt;stroke-linejoin:miter;stroke-opacity:1" d="M 967.711,164.304 977.141,181.278 z" id="boundary" inkscape:connector-curvature="0" />
	<path style="fill:none;stroke:red;stroke-width:1px;stroke-linecap:butt;stroke-linejoin:miter;stroke-opacity:1" d="M 973.369,426.449 982.798,407.589 z" id="boundary" inkscape:connector-curvature="0" />
	<path style="fill:none;stroke:red;stroke-width:1px;stroke-linecap:butt;stroke-linejoin:miter;stroke-opacity:1" d="M 977.141,181.278 986.57,198.251 z" id="boundary" inkscape:connector-curvature="0" />
	<path style="fill:none;stroke:red;stroke-width:1px;stroke-linecap:butt;stroke-linejoin:miter;stroke-opacity:1" d="M 982.798,407.589 986.57,383.072 z" id="boundary" inkscape:connector-curvature="0" />
	<path style="fill:none;stroke:red;stroke-width:1px;stroke-linecap:butt;stroke-linejoin:miter;stroke-opacity:1" d="M 986.57,198.251 986.57,217.11 z" id="boundary" inkscape:connector-curvature="0" />
	<path style="fill:none;stroke:red;stroke-width:1px;stroke-linecap:butt;stroke-linejoin:miter;stroke-opacity:1" d="M 986.57,217.11 996,234.084 z" id="boundary" inkscape:connector-curvature="0" />
	<path style="fill:none;stroke:red;stroke-width:1px;stroke-linecap:butt;stroke-linejoin:miter;stroke-opacity:1" d="M 986.57,364.213 986.57,383.072 z" id="boundary" inkscape:connector-curvature="0" />
	<path style="fill:none;stroke:red;stroke-width:1px;stroke-linecap:butt;stroke-linejoin:miter;stroke-opacity:1" d="M 986.57,364.213 996,347.24 z" id="boundary" inkscape:connector-curvature="0" />
	<path style="fill:none;stroke:red;stroke-width:1px;stroke-linecap:butt;stroke-linejoin:miter;stroke-opacity:1" d="M 996,234.084 996,252.943 z" id="boundary" inkscape:connector-curvature="0" />
	<path style="fill:none;stroke:red;stroke-width:1px;stroke-linecap:butt;stroke-linejoin:miter;stroke-opacity:1" d="M 996,252.943 996,271.802 z" id="boundary" inkscape:connector-curvature="0" />
	<path style="fill:none;stroke:red;stroke-width:1px;stroke-linecap:butt;stroke-linejoin:miter;stroke-opacity:1" d="M 996,271.802 996,290.662 z" id="boundary" inkscape:connector-curvature="0" />
	<path style="fill:none;stroke:red;stroke-width:1px;stroke-linecap:butt;stroke-linejoin:miter;stroke-opacity:1" d="M 996,290.662 996,309.521 z" id="boundary" inkscape:connector-curvature="0" />
	<path style="fill:none;stroke:red;stroke-width:1px;stroke-linecap:butt;stroke-linejoin:miter;stroke-opacity:1" d="M 996,309.521 996,328.38 z" id="boundary" inkscape:connector-curvature="0" />
	<path style="fill:none;stroke:red;stroke-width:1px;stroke-linecap:butt;stroke-linejoin:miter;stroke-opacity:1" d="M 996,328.38 996,347.24 z" id="boundary" inkscape:connector-curvature="0" />
	<circle cx="4" cy="179.392" r="4" fill="#0" id="circle0"/>
	<circle cx="4" cy="198.251" r="4" fill="#0" id="circle1"/>
	<circle cx="4" cy="217.11" r="4" fill="#0" id="circle2"/>
	<circle cx="4" cy="235.97" r="4" fill="#0" id="circle3"/>
	<circle cx="4" cy="254.829" r="4" fill="#0" id="circle4"/>
	<circle cx="4" cy="273.688" r="4" fill="#0" id="circle5"/>
	<circle cx="4" cy="292.548" r="4" fill="#0" id="circle6"/>
	<circle cx="13.4297" cy="160.532" r="4" fill="#0" id="circle7"/>
	<circle cx="13.4297" cy="309.521" r="4" fill="#0" id="circle8"/>
	<circle cx="13.4297" cy="328.38" r="4" fill="#0" id="circle9"/>
	<circle cx="22.8593" cy="122.814" r="4" fill="#0" id="circle10"/>
	<circle cx="22.8593" cy="141.673" r="4" fill="#0" id="circle11"/>
	<circle cx="22.8593" cy="345.354" r="4" fill="#0" id="circle12"/>
	<circle cx="28.5171" cy="364.213" r="4" fill="#0" id="circle13"/>
	<circle cx="32.289" cy="103.954" r="4" fill="#0" id="circle14"/>
	<circle cx="37.9468" cy="381.186" r="4" fill="#0" id="circle15"/>
	<circle cx="45.4905" cy="400.046" r="4" fill="#0" id="circle16"/>
	<circle cx="47.3764" cy="88.8669" r="4" fill="#0" id="circle17"/>
	<circle cx="54.9202" cy="417.019" r="4" fill="#0" id="circle18"/>
	<circle cx="60.5779" cy="66.2357" r="4" fill="#0" id="circle19"/>
	<circle cx="62.4639" cy="435.878" r="4" fill="#0" id="circle20"/>
	<circle cx="70.0076" cy="47.3764" r="4" fill="#0" id="circle21"/>
	<circle cx="77.5513" cy="449.08" r="4" fill="#0" id="circle22"/>
	<circle cx="88.8669" cy="37.9468" r="4" fill="#0" id="circle23"/>
	<circle cx="90.7529" cy="464.167" r="4" fill="#0" id="circle24"/>
	<circle cx="103.954" cy="22.8593" r="4" fill="#0" id="circle25"/>
	<circle cx="105.84" cy="477.369" r="4" fill="#0" id="circle26"/>
	<circle cx="120.928" cy="13.4297" r="4" fill="#0" id="circle27"/>
	<circle cx="122.814" cy="486.798" r="4" fill="#0" id="circle28"/>
	<circle cx="136.015" cy="501.886" r="4" fill="#0" id="circle29"/>
	<circle cx="139.787" cy="13.4297" r="4" fill="#0" id="circle30"/>
	<circle cx="145.445" cy="518.859" r="4" fill="#0" id="circle31"/>
	<circle cx="156.76" cy="4" r="4" fill="#0" id="circle32"/>
	<circle cx="164.304" cy="524.517" r="4" fill="#0" id="circle33"/>
	<circle cx="175.62" cy="4" r="4" fill="#0" id="circle34"/>
	<circle cx="175.62" cy="539.605" r="4" fill="#0" id="circle35"/>
	<circle cx="190.707" cy="552.806" r="4" fill="#0" id="circle36"/>
	<circle cx="194.479" cy="4" r="4" fill="#0" id="circle37"/>
	<circle cx="203.909" cy="567.894" r="4" fill="#0" id="circle38"/>
	<circle cx="213.338" cy="4" r="4" fill="#0" id="circle39"/>
	<circle cx="218.996" cy="581.095" r="4" fill="#0" id="circle40"/>
	<circle cx="232.198" cy="4" r="4" fill="#0" id="circle41"/>
	<circle cx="235.97" cy="590.525" r="4" fill="#0" id="circle42"/>
	<circle cx="251.057" cy="4" r="4" fill="#0" id="circle43"/>
	<circle cx="251.057" cy="603.726" r="4" fill="#0" id="circle44"/>
	<circle cx="264.259" cy="618.814" r="4" fill="#0" id="circle45"/>
	<circle cx="269.916" cy="9.65779" r="4" fill="#0" id="circle46"/>
	<circle cx="283.118" cy="626.357" r="4" fill="#0" id="circle47"/>
	<circle cx="286.89" cy="19.0875" r="4" fill="#0" id="circle48"/>
	<circle cx="296.319" cy="641.445" r="4" fill="#0" id="circle49"/>
	<circle cx="305.749" cy="26.6312" r="4" fill="#0" id="circle50"/>
	<circle cx="311.407" cy="654.646" r="4" fill="#0" id="circle51"/>
	<circle cx="322.722" cy="36.0608" r="4" fill="#0" id="circle52"/>
	<circle cx="328.38" cy="664.076" r="4" fill="#0" id="circle53"/>
	<circle cx="341.582" cy="43.6046" r="4" fill="#0" id="circle54"/>
	<circle cx="343.468" cy="675.392" r="4" fill="#0" id="circle55"/>
	<circle cx="358.555" cy="53.0342" r="4" fill="#0" id="circle56"/>
	<circle cx="360.441" cy="684.821" r="4" fill="#0" id="circle57"/>
	<circle cx="373.643" cy="66.2357" r="4" fill="#0" id="circle58"/>
	<circle cx="373.643" cy="699.909" r="4" fill="#0" id="circle59"/>
	<circle cx="386.844" cy="81.3232" r="4" fill="#0" id="circle60"/>
	<circle cx="388.73" cy="713.11" r="4" fill="#0" id="circle61"/>
	<circle cx="401.932" cy="94.5247" r="4" fill="#0" id="circle62"/>
	<circle cx="405.703" cy="722.54" r="4" fill="#0" id="circle63"/>
	<circle cx="415.133" cy="109.612" r="4" fill="#0" id="circle64"/>
	<circle cx="420.791" cy="735.741" r="4" fill="#0" id="circle65"/>
	<circle cx="424.563" cy="126.586" r="4" fill="#0" id="circle66"/>
	<circle cx="430.221" cy="145.445" r="4" fill="#0" id="circle67"/>
	<circle cx="433.992" cy="750.829" r="4" fill="#0" id="circle68"/>
	<circle cx="439.65" cy="162.418" r="4" fill="#0" id="circle69"/>
	<circle cx="449.08" cy="179.392" r="4" fill="#0" id="circle70"/>
	<circle cx="449.08" cy="764.03" r="4" fill="#0" id="circle71"/>
	<circle cx="458.51" cy="196.365" r="4" fill="#0" id="circle72"/>
	<circle cx="462.281" cy="779.118" r="4" fill="#0" id="circle73"/>
	<circle cx="467.939" cy="213.338" r="4" fill="#0" id="circle74"/>
	<circle cx="477.369" cy="230.312" r="4" fill="#0" id="circle75"/>
	<circle cx="477.369" cy="792.319" r="4" fill="#0" id="circle76"/>
	<circle cx="486.798" cy="247.285" r="4" fill="#0" id="circle77"/>
	<circle cx="490.57" cy="807.407" r="4" fill="#0" id="circle78"/>
	<circle cx="496.228" cy="264.259" r="4" fill="#0" id="circle79"/>
	<circle cx="507.544" cy="816.837" r="4" fill="#0" id="circle80"/>
	<circle cx="515.087" cy="262.373" r="4" fill="#0" id="circle81"/>
	<circle cx="524.517" cy="243.513" r="4" fill="#0" id="circle82"/>
	<circle cx="524.517" cy="807.407" r="4" fill="#0" id="circle83"/>
	<circle cx="533.947" cy="224.654" r="4" fill="#0" id="circle84"/>
	<circle cx="543.376" cy="205.795" r="4" fill="#0" id="circle85"/>
	<circle cx="543.376" cy="797.977" r="4" fill="#0" id="circle86"/>
	<circle cx="558.464" cy="192.593" r="4" fill="#0" id="circle87"/>
	<circle cx="558.464" cy="784.776" r="4" fill="#0" id="circle88"/>
	<circle cx="566.008" cy="173.734" r="4" fill="#0" id="circle89"/>
	<circle cx="575.437" cy="154.875" r="4" fill="#0" id="circle90"/>
	<circle cx="577.323" cy="775.346" r="4" fill="#0" id="circle91"/>
	<circle cx="584.867" cy="136.015" r="4" fill="#0" id="circle92"/>
	<circle cx="594.297" cy="117.156" r="4" fill="#0" id="circle93"/>
	<circle cx="596.183" cy="765.916" r="4" fill="#0" id="circle94"/>
	<circle cx="609.384" cy="102.068" r="4" fill="#0" id="circle95"/>
	<circle cx="615.042" cy="756.487" r="4" fill="#0" id="circle96"/>
	<circle cx="624.471" cy="88.8669" r="4" fill="#0" id="circle97"/>
	<circle cx="628.243" cy="741.399" r="4" fill="#0" id="circle98"/>
	<circle cx="637.673" cy="73.7795" r="4" fill="#0" id="circle99"/>
	<circle cx="647.103" cy="54.9202" r="4" fill="#0" id="circle100"/>
	<circle cx="647.103" cy="731.97" r="4" fill="#0" id="circle101"/>
	<circle cx="662.19" cy="718.768" r="4" fill="#0" id="circle102"/>
	<circle cx="665.962" cy="45.4905" r="4" fill="#0" id="circle103"/>
	<circle cx="681.049" cy="709.338" r="4" fill="#0" id="circle104"/>
	<circle cx="684.821" cy="36.0608" r="4" fill="#0" id="circle105"/>
	<circle cx="699.909" cy="699.909" r="4" fill="#0" id="circle106"/>
	<circle cx="703.681" cy="26.6312" r="4" fill="#0" id="circle107"/>
	<circle cx="703.681" cy="496.228" r="4" fill="#0" id="circle108"/>
	<circle cx="707.452" cy="515.087" r="4" fill="#0" id="circle109"/>
	<circle cx="713.11" cy="477.369" r="4" fill="#0" id="circle110"/>
	<circle cx="713.11" cy="533.947" r="4" fill="#0" id="circle111"/>
	<circle cx="716.882" cy="552.806" r="4" fill="#0" id="circle112"/>
	<circle cx="718.768" cy="690.479" r="4" fill="#0" id="circle113"/>
	<circle cx="722.54" cy="22.8593" r="4" fill="#0" id="circle114"/>
	<circle cx="726.312" cy="569.779" r="4" fill="#0" id="circle115"/>
	<circle cx="731.97" cy="467.939" r="4" fill="#0" id="circle116"/>
	<circle cx="731.97" cy="588.639" r="4" fill="#0" id="circle117"/>
	<circle cx="731.97" cy="607.498" r="4" fill="#0" id="circle118"/>
	<circle cx="737.627" cy="681.049" r="4" fill="#0" id="circle119"/>
	<circle cx="741.399" cy="22.8593" r="4" fill="#0" id="circle120"/>
	<circle cx="741.399" cy="624.471" r="4" fill="#0" id="circle121"/>
	<circle cx="741.399" cy="643.331" r="4" fill="#0" id="circle122"/>
	<circle cx="741.399" cy="662.19" r="4" fill="#0" id="circle123"/>
	<circle cx="748.943" cy="477.369" r="4" fill="#0" id="circle124"/>
	<circle cx="760.259" cy="22.8593" r="4" fill="#0" id="circle125"/>
	<circle cx="765.916" cy="486.798" r="4" fill="#0" id="circle126"/>
	<circle cx="779.118" cy="22.8593" r="4" fill="#0" id="circle127"/>
	<circle cx="782.89" cy="496.228" r="4" fill="#0" id="circle128"/>
	<circle cx="797.977" cy="22.8593" r="4" fill="#0" id="circle129"/>
	<circle cx="801.749" cy="503.772" r="4" fill="#0" id="circle130"/>
	<circle cx="814.951" cy="32.289" r="4" fill="#0" id="circle131"/>
	<circle cx="818.722" cy="513.202" r="4" fill="#0" id="circle132"/>
	<circle cx="831.924" cy="41.7186" r="4" fill="#0" id="circle133"/>
	<circle cx="837.582" cy="520.745" r="4" fill="#0" id="circle134"/>
	<circle cx="848.897" cy="51.1483" r="4" fill="#0" id="circle135"/>
	<circle cx="854.555" cy="530.175" r="4" fill="#0" id="circle136"/>
	<circle cx="865.871" cy="60.5779" r="4" fill="#0" id="circle137"/>
	<circle cx="873.414" cy="533.947" r="4" fill="#0" id="circle138"/>
	<circle cx="882.844" cy="70.0076" r="4" fill="#0" id="circle139"/>
	<circle cx="892.274" cy="533.947" r="4" fill="#0" id="circle140"/>
	<circle cx="899.817" cy="79.4373" r="4" fill="#0" id="circle141"/>
	<circle cx="911.133" cy="515.087" r="4" fill="#0" id="circle142"/>
	<circle cx="916.791" cy="88.8669" r="4" fill="#0" id="circle143"/>
	<circle cx="926.221" cy="501.886" r="4" fill="#0" id="circle144"/>
	<circle cx="933.764" cy="98.2966" r="4" fill="#0" id="circle145"/>
	<circle cx="939.422" cy="477.369" r="4" fill="#0" id="circle146"/>
	<circle cx="946.966" cy="113.384" r="4" fill="#0" id="circle147"/>
	<circle cx="954.51" cy="464.167" r="4" fill="#0" id="circle148"/>
	<circle cx="956.395" cy="130.357" r="4" fill="#0" id="circle149"/>
	<circle cx="963.939" cy="445.308" r="4" fill="#0" id="circle150"/>
	<circle cx="967.711" cy="145.445" r="4" fill="#0" id="circle151"/>
	<circle cx="967.711" cy="164.304" r="4" fill="#0" id="circle152"/>
	<circle cx="973.369" cy="426.449" r="4" fill="#0" id="circle153"/>
	<circle cx="977.141" cy="181.278" r="4" fill="#0" id="circle154"/>
	<circle cx="982.798" cy="407.589" r="4" fill="#0" id="circle155"/>
	<circle cx="986.57" cy="198.251" r="4" fill="#0" id="circle156"/>
	<circle cx="986.57" cy="217.11" r="4" fill="#0" id="circle157"/>
	<circle cx="986.57" cy="364.213" r="4" fill="#0" id="circle158"/>
	<circle cx="986.57" cy="383.072" r="4" fill="#0" id="circle159"/>
	<circle cx="996" cy="234.084" r="4" fill="#0" id="circle160"/>
	<circle cx="996" cy="252.943" r="4" fill="#0" id="circle161"/>
	<circle cx="996" cy="271.802" r="4" fill="#0" id="circle162"/>
	<circle cx="996" cy="290.662" r="4" fill="#0" id="circle163"/>
	<circle cx="996" cy="309.521" r="4" fill="#0" id="circle164"/>
	<circle cx="996" cy="328.38" r="4" fill="#0" id="circle165"/>
	<circle cx="996" cy="347.24" r="4" fill="#0" id="circle166"/>
	</g>
</svg>