<?xml version="1.0" encoding="UTF-8" standalone="no"?>
<!-- Created with CurveBenchmark -->
<svg
	xmlns:dc="http://purl.org/dc/elements/1.1/"
	xmlns:cc="http://creativecommons.org/ns#"
	xmlns:rdf="http://www.w3.org/1999/02/22-rdf-syntax-ns#"
	xmlns:svg="http://www.w3.org/2000/svg"
	xmlns="http://www.w3.org/2000/svg"
	xmlns:sodipodi="http://sodipodi.sourceforge.net/DTD/sodipodi-0.dtd"
	xmlns:inkscape="http://www.inkscape.org/namespaces/inkscape"
	width="1000"
	height="1000"
	id="svg2"
	version="1.1"
	sodipodi:docname="manifold/discur-woodenspoonbinary31.png.txt">
<defs
	id="defs4" />
<metadata
	id="metadata7">
	<rdf:RDF>
		<cc:Work
			rdf:about="">
			<dc:format>image/svg+xml</dc:format>
			<dc:type
				rdf:resource="http://purl.org/dc/dcmitype/StillImage" />
			<dc:title></dc:title>
		</cc:Work>
	</rdf:RDF>
</metadata>
<g
	inkscape:label="Layer 1"
	inkscape:groupmode="layer"
	id="layer1">
	<path style="fill:none;stroke:red;stroke-width:1px;stroke-linecap:butt;stroke-linejoin:miter;stroke-opacity:1" d="M 4,73.4233 4,81.7875 z" id="boundary" inkscape:connector-curvature="0" />
	<path style="fill:none;stroke:red;stroke-width:1px;stroke-linecap:butt;stroke-linejoin:miter;stroke-opacity:1" d="M 4,73.4233 5.67285,64.2226 z" id="boundary" inkscape:connector-curvature="0" />
	<path style="fill:none;stroke:red;stroke-width:1px;stroke-linecap:butt;stroke-linejoin:miter;stroke-opacity:1" d="M 4,81.7875 4,90.1518 z" id="boundary" inkscape:connector-curvature="0" />
	<path style="fill:none;stroke:red;stroke-width:1px;stroke-linecap:butt;stroke-linejoin:miter;stroke-opacity:1" d="M 4,90.1518 6.50927,106.88 z" id="boundary" inkscape:connector-curvature="0" />
	<path style="fill:none;stroke:red;stroke-width:1px;stroke-linecap:butt;stroke-linejoin:miter;stroke-opacity:1" d="M 5.67285,64.2226 8.18212,55.0219 z" id="boundary" inkscape:connector-curvature="0" />
	<path style="fill:none;stroke:red;stroke-width:1px;stroke-linecap:butt;stroke-linejoin:miter;stroke-opacity:1" d="M 6.50927,106.88 6.50927,115.245 z" id="boundary" inkscape:connector-curvature="0" />
	<path style="fill:none;stroke:red;stroke-width:1px;stroke-linecap:butt;stroke-linejoin:miter;stroke-opacity:1" d="M 6.50927,115.245 11.5278,131.973 z" id="boundary" inkscape:connector-curvature="0" />
	<path style="fill:none;stroke:red;stroke-width:1px;stroke-linecap:butt;stroke-linejoin:miter;stroke-opacity:1" d="M 8.18212,55.0219 12.3642,45.8212 z" id="boundary" inkscape:connector-curvature="0" />
	<path style="fill:none;stroke:red;stroke-width:1px;stroke-linecap:butt;stroke-linejoin:miter;stroke-opacity:1" d="M 11.5278,131.973 13.2007,140.337 z" id="boundary" inkscape:connector-curvature="0" />
	<path style="fill:none;stroke:red;stroke-width:1px;stroke-linecap:butt;stroke-linejoin:miter;stroke-opacity:1" d="M 12.3642,45.8212 16.5464,38.2934 z" id="boundary" inkscape:connector-curvature="0" />
	<path style="fill:none;stroke:red;stroke-width:1px;stroke-linecap:butt;stroke-linejoin:miter;stroke-opacity:1" d="M 13.2007,140.337 17.3828,147.865 z" id="boundary" inkscape:connector-curvature="0" />
	<path style="fill:none;stroke:red;stroke-width:1px;stroke-linecap:butt;stroke-linejoin:miter;stroke-opacity:1" d="M 16.5464,38.2934 22.4013,31.602 z" id="boundary" inkscape:connector-curvature="0" />
	<path style="fill:none;stroke:red;stroke-width:1px;stroke-linecap:butt;stroke-linejoin:miter;stroke-opacity:1" d="M 17.3828,147.865 25.747,162.921 z" id="boundary" inkscape:connector-curvature="0" />
	<path style="fill:none;stroke:red;stroke-width:1px;stroke-linecap:butt;stroke-linejoin:miter;stroke-opacity:1" d="M 22.4013,31.602 29.0927,24.9106 z" id="boundary" inkscape:connector-curvature="0" />
	<path style="fill:none;stroke:red;stroke-width:1px;stroke-linecap:butt;stroke-linejoin:miter;stroke-opacity:1" d="M 25.747,162.921 29.0927,171.285 z" id="boundary" inkscape:connector-curvature="0" />
	<path style="fill:none;stroke:red;stroke-width:1px;stroke-linecap:butt;stroke-linejoin:miter;stroke-opacity:1" d="M 29.0927,24.9106 35.7841,19.8921 z" id="boundary" inkscape:connector-curvature="0" />
	<path style="fill:none;stroke:red;stroke-width:1px;stroke-linecap:butt;stroke-linejoin:miter;stroke-opacity:1" d="M 29.0927,171.285 34.1113,177.976 z" id="boundary" inkscape:connector-curvature="0" />
	<path style="fill:none;stroke:red;stroke-width:1px;stroke-linecap:butt;stroke-linejoin:miter;stroke-opacity:1" d="M 34.1113,177.976 40.8027,183.831 z" id="boundary" inkscape:connector-curvature="0" />
	<path style="fill:none;stroke:red;stroke-width:1px;stroke-linecap:butt;stroke-linejoin:miter;stroke-opacity:1" d="M 35.7841,19.8921 42.4755,14.8735 z" id="boundary" inkscape:connector-curvature="0" />
	<path style="fill:none;stroke:red;stroke-width:1px;stroke-linecap:butt;stroke-linejoin:miter;stroke-opacity:1" d="M 40.8027,183.831 44.9848,191.359 z" id="boundary" inkscape:connector-curvature="0" />
	<path style="fill:none;stroke:red;stroke-width:1px;stroke-linecap:butt;stroke-linejoin:miter;stroke-opacity:1" d="M 42.4755,14.8735 59.204,8.18212 z" id="boundary" inkscape:connector-curvature="0" />
	<path style="fill:none;stroke:red;stroke-width:1px;stroke-linecap:butt;stroke-linejoin:miter;stroke-opacity:1" d="M 44.9848,191.359 49.1669,198.887 z" id="boundary" inkscape:connector-curvature="0" />
	<path style="fill:none;stroke:red;stroke-width:1px;stroke-linecap:butt;stroke-linejoin:miter;stroke-opacity:1" d="M 49.1669,198.887 54.1855,205.578 z" id="boundary" inkscape:connector-curvature="0" />
	<path style="fill:none;stroke:red;stroke-width:1px;stroke-linecap:butt;stroke-linejoin:miter;stroke-opacity:1" d="M 54.1855,205.578 63.3862,220.634 z" id="boundary" inkscape:connector-curvature="0" />
	<path style="fill:none;stroke:red;stroke-width:1px;stroke-linecap:butt;stroke-linejoin:miter;stroke-opacity:1" d="M 59.204,8.18212 67.5683,5.67285 z" id="boundary" inkscape:connector-curvature="0" />
	<path style="fill:none;stroke:red;stroke-width:1px;stroke-linecap:butt;stroke-linejoin:miter;stroke-opacity:1" d="M 63.3862,220.634 68.4047,227.325 z" id="boundary" inkscape:connector-curvature="0" />
	<path style="fill:none;stroke:red;stroke-width:1px;stroke-linecap:butt;stroke-linejoin:miter;stroke-opacity:1" d="M 67.5683,5.67285 84.2968,4 z" id="boundary" inkscape:connector-curvature="0" />
	<path style="fill:none;stroke:red;stroke-width:1px;stroke-linecap:butt;stroke-linejoin:miter;stroke-opacity:1" d="M 68.4047,227.325 74.2597,234.017 z" id="boundary" inkscape:connector-curvature="0" />
	<path style="fill:none;stroke:red;stroke-width:1px;stroke-linecap:butt;stroke-linejoin:miter;stroke-opacity:1" d="M 74.2597,234.017 80.9511,239.872 z" id="boundary" inkscape:connector-curvature="0" />
	<path style="fill:none;stroke:red;stroke-width:1px;stroke-linecap:butt;stroke-linejoin:miter;stroke-opacity:1" d="M 80.9511,239.872 86.8061,246.563 z" id="boundary" inkscape:connector-curvature="0" />
	<path style="fill:none;stroke:red;stroke-width:1px;stroke-linecap:butt;stroke-linejoin:miter;stroke-opacity:1" d="M 84.2968,4 92.661,4 z" id="boundary" inkscape:connector-curvature="0" />
	<path style="fill:none;stroke:red;stroke-width:1px;stroke-linecap:butt;stroke-linejoin:miter;stroke-opacity:1" d="M 86.8061,246.563 92.661,253.255 z" id="boundary" inkscape:connector-curvature="0" />
	<path style="fill:none;stroke:red;stroke-width:1px;stroke-linecap:butt;stroke-linejoin:miter;stroke-opacity:1" d="M 92.661,4 109.39,5.67285 z" id="boundary" inkscape:connector-curvature="0" />
	<path style="fill:none;stroke:red;stroke-width:1px;stroke-linecap:butt;stroke-linejoin:miter;stroke-opacity:1" d="M 92.661,253.255 98.516,259.946 z" id="boundary" inkscape:connector-curvature="0" />
	<path style="fill:none;stroke:red;stroke-width:1px;stroke-linecap:butt;stroke-linejoin:miter;stroke-opacity:1" d="M 98.516,259.946 105.207,264.965 z" id="boundary" inkscape:connector-curvature="0" />
	<path style="fill:none;stroke:red;stroke-width:1px;stroke-linecap:butt;stroke-linejoin:miter;stroke-opacity:1" d="M 105.207,264.965 111.899,269.983 z" id="boundary" inkscape:connector-curvature="0" />
	<path style="fill:none;stroke:red;stroke-width:1px;stroke-linecap:butt;stroke-linejoin:miter;stroke-opacity:1" d="M 109.39,5.67285 117.754,6.50927 z" id="boundary" inkscape:connector-curvature="0" />
	<path style="fill:none;stroke:red;stroke-width:1px;stroke-linecap:butt;stroke-linejoin:miter;stroke-opacity:1" d="M 111.899,269.983 116.917,276.675 z" id="boundary" inkscape:connector-curvature="0" />
	<path style="fill:none;stroke:red;stroke-width:1px;stroke-linecap:butt;stroke-linejoin:miter;stroke-opacity:1" d="M 116.917,276.675 123.609,281.693 z" id="boundary" inkscape:connector-curvature="0" />
	<path style="fill:none;stroke:red;stroke-width:1px;stroke-linecap:butt;stroke-linejoin:miter;stroke-opacity:1" d="M 117.754,6.50927 134.482,10.6914 z" id="boundary" inkscape:connector-curvature="0" />
	<path style="fill:none;stroke:red;stroke-width:1px;stroke-linecap:butt;stroke-linejoin:miter;stroke-opacity:1" d="M 123.609,281.693 129.464,288.384 z" id="boundary" inkscape:connector-curvature="0" />
	<path style="fill:none;stroke:red;stroke-width:1px;stroke-linecap:butt;stroke-linejoin:miter;stroke-opacity:1" d="M 129.464,288.384 136.155,293.403 z" id="boundary" inkscape:connector-curvature="0" />
	<path style="fill:none;stroke:red;stroke-width:1px;stroke-linecap:butt;stroke-linejoin:miter;stroke-opacity:1" d="M 134.482,10.6914 142.847,14.0371 z" id="boundary" inkscape:connector-curvature="0" />
	<path style="fill:none;stroke:red;stroke-width:1px;stroke-linecap:butt;stroke-linejoin:miter;stroke-opacity:1" d="M 136.155,293.403 142.847,298.422 z" id="boundary" inkscape:connector-curvature="0" />
	<path style="fill:none;stroke:red;stroke-width:1px;stroke-linecap:butt;stroke-linejoin:miter;stroke-opacity:1" d="M 142.847,14.0371 159.575,19.8921 z" id="boundary" inkscape:connector-curvature="0" />
	<path style="fill:none;stroke:red;stroke-width:1px;stroke-linecap:butt;stroke-linejoin:miter;stroke-opacity:1" d="M 142.847,298.422 148.702,305.113 z" id="boundary" inkscape:connector-curvature="0" />
	<path style="fill:none;stroke:red;stroke-width:1px;stroke-linecap:butt;stroke-linejoin:miter;stroke-opacity:1" d="M 148.702,305.113 155.393,310.132 z" id="boundary" inkscape:connector-curvature="0" />
	<path style="fill:none;stroke:red;stroke-width:1px;stroke-linecap:butt;stroke-linejoin:miter;stroke-opacity:1" d="M 155.393,310.132 162.084,315.15 z" id="boundary" inkscape:connector-curvature="0" />
	<path style="fill:none;stroke:red;stroke-width:1px;stroke-linecap:butt;stroke-linejoin:miter;stroke-opacity:1" d="M 159.575,19.8921 167.939,23.2378 z" id="boundary" inkscape:connector-curvature="0" />
	<path style="fill:none;stroke:red;stroke-width:1px;stroke-linecap:butt;stroke-linejoin:miter;stroke-opacity:1" d="M 162.084,315.15 169.612,319.332 z" id="boundary" inkscape:connector-curvature="0" />
	<path style="fill:none;stroke:red;stroke-width:1px;stroke-linecap:butt;stroke-linejoin:miter;stroke-opacity:1" d="M 167.939,23.2378 184.668,29.9292 z" id="boundary" inkscape:connector-curvature="0" />
	<path style="fill:none;stroke:red;stroke-width:1px;stroke-linecap:butt;stroke-linejoin:miter;stroke-opacity:1" d="M 169.612,319.332 176.304,324.351 z" id="boundary" inkscape:connector-curvature="0" />
	<path style="fill:none;stroke:red;stroke-width:1px;stroke-linecap:butt;stroke-linejoin:miter;stroke-opacity:1" d="M 176.304,324.351 192.196,331.879 z" id="boundary" inkscape:connector-curvature="0" />
	<path style="fill:none;stroke:red;stroke-width:1px;stroke-linecap:butt;stroke-linejoin:miter;stroke-opacity:1" d="M 184.668,29.9292 192.196,34.1113 z" id="boundary" inkscape:connector-curvature="0" />
	<path style="fill:none;stroke:red;stroke-width:1px;stroke-linecap:butt;stroke-linejoin:miter;stroke-opacity:1" d="M 192.196,34.1113 199.723,38.2934 z" id="boundary" inkscape:connector-curvature="0" />
	<path style="fill:none;stroke:red;stroke-width:1px;stroke-linecap:butt;stroke-linejoin:miter;stroke-opacity:1" d="M 192.196,331.879 198.887,336.897 z" id="boundary" inkscape:connector-curvature="0" />
	<path style="fill:none;stroke:red;stroke-width:1px;stroke-linecap:butt;stroke-linejoin:miter;stroke-opacity:1" d="M 198.887,336.897 206.415,341.079 z" id="boundary" inkscape:connector-curvature="0" />
	<path style="fill:none;stroke:red;stroke-width:1px;stroke-linecap:butt;stroke-linejoin:miter;stroke-opacity:1" d="M 199.723,38.2934 207.251,42.4755 z" id="boundary" inkscape:connector-curvature="0" />
	<path style="fill:none;stroke:red;stroke-width:1px;stroke-linecap:butt;stroke-linejoin:miter;stroke-opacity:1" d="M 206.415,341.079 213.106,346.098 z" id="boundary" inkscape:connector-curvature="0" />
	<path style="fill:none;stroke:red;stroke-width:1px;stroke-linecap:butt;stroke-linejoin:miter;stroke-opacity:1" d="M 207.251,42.4755 214.779,46.6577 z" id="boundary" inkscape:connector-curvature="0" />
	<path style="fill:none;stroke:red;stroke-width:1px;stroke-linecap:butt;stroke-linejoin:miter;stroke-opacity:1" d="M 213.106,346.098 220.634,350.28 z" id="boundary" inkscape:connector-curvature="0" />
	<path style="fill:none;stroke:red;stroke-width:1px;stroke-linecap:butt;stroke-linejoin:miter;stroke-opacity:1" d="M 214.779,46.6577 222.307,50.8398 z" id="boundary" inkscape:connector-curvature="0" />
	<path style="fill:none;stroke:red;stroke-width:1px;stroke-linecap:butt;stroke-linejoin:miter;stroke-opacity:1" d="M 220.634,350.28 228.162,354.462 z" id="boundary" inkscape:connector-curvature="0" />
	<path style="fill:none;stroke:red;stroke-width:1px;stroke-linecap:butt;stroke-linejoin:miter;stroke-opacity:1" d="M 222.307,50.8398 228.998,55.8583 z" id="boundary" inkscape:connector-curvature="0" />
	<path style="fill:none;stroke:red;stroke-width:1px;stroke-linecap:butt;stroke-linejoin:miter;stroke-opacity:1" d="M 228.162,354.462 235.69,358.644 z" id="boundary" inkscape:connector-curvature="0" />
	<path style="fill:none;stroke:red;stroke-width:1px;stroke-linecap:butt;stroke-linejoin:miter;stroke-opacity:1" d="M 228.998,55.8583 236.526,60.0405 z" id="boundary" inkscape:connector-curvature="0" />
	<path style="fill:none;stroke:red;stroke-width:1px;stroke-linecap:butt;stroke-linejoin:miter;stroke-opacity:1" d="M 235.69,358.644 242.381,363.663 z" id="boundary" inkscape:connector-curvature="0" />
	<path style="fill:none;stroke:red;stroke-width:1px;stroke-linecap:butt;stroke-linejoin:miter;stroke-opacity:1" d="M 236.526,60.0405 244.054,64.2226 z" id="boundary" inkscape:connector-curvature="0" />
	<path style="fill:none;stroke:red;stroke-width:1px;stroke-linecap:butt;stroke-linejoin:miter;stroke-opacity:1" d="M 242.381,363.663 249.909,367.845 z" id="boundary" inkscape:connector-curvature="0" />
	<path style="fill:none;stroke:red;stroke-width:1px;stroke-linecap:butt;stroke-linejoin:miter;stroke-opacity:1" d="M 244.054,64.2226 250.745,69.2411 z" id="boundary" inkscape:connector-curvature="0" />
	<path style="fill:none;stroke:red;stroke-width:1px;stroke-linecap:butt;stroke-linejoin:miter;stroke-opacity:1" d="M 249.909,367.845 265.801,375.373 z" id="boundary" inkscape:connector-curvature="0" />
	<path style="fill:none;stroke:red;stroke-width:1px;stroke-linecap:butt;stroke-linejoin:miter;stroke-opacity:1" d="M 250.745,69.2411 258.273,73.4233 z" id="boundary" inkscape:connector-curvature="0" />
	<path style="fill:none;stroke:red;stroke-width:1px;stroke-linecap:butt;stroke-linejoin:miter;stroke-opacity:1" d="M 258.273,73.4233 264.965,78.4418 z" id="boundary" inkscape:connector-curvature="0" />
	<path style="fill:none;stroke:red;stroke-width:1px;stroke-linecap:butt;stroke-linejoin:miter;stroke-opacity:1" d="M 264.965,78.4418 271.656,83.4604 z" id="boundary" inkscape:connector-curvature="0" />
	<path style="fill:none;stroke:red;stroke-width:1px;stroke-linecap:butt;stroke-linejoin:miter;stroke-opacity:1" d="M 265.801,375.373 282.53,382.064 z" id="boundary" inkscape:connector-curvature="0" />
	<path style="fill:none;stroke:red;stroke-width:1px;stroke-linecap:butt;stroke-linejoin:miter;stroke-opacity:1" d="M 271.656,83.4604 278.347,88.4789 z" id="boundary" inkscape:connector-curvature="0" />
	<path style="fill:none;stroke:red;stroke-width:1px;stroke-linecap:butt;stroke-linejoin:miter;stroke-opacity:1" d="M 278.347,88.4789 285.039,93.4975 z" id="boundary" inkscape:connector-curvature="0" />
	<path style="fill:none;stroke:red;stroke-width:1px;stroke-linecap:butt;stroke-linejoin:miter;stroke-opacity:1" d="M 282.53,382.064 298.422,387.083 z" id="boundary" inkscape:connector-curvature="0" />
	<path style="fill:none;stroke:red;stroke-width:1px;stroke-linecap:butt;stroke-linejoin:miter;stroke-opacity:1" d="M 285.039,93.4975 291.73,98.516 z" id="boundary" inkscape:connector-curvature="0" />
	<path style="fill:none;stroke:red;stroke-width:1px;stroke-linecap:butt;stroke-linejoin:miter;stroke-opacity:1" d="M 291.73,98.516 298.422,103.535 z" id="boundary" inkscape:connector-curvature="0" />
	<path style="fill:none;stroke:red;stroke-width:1px;stroke-linecap:butt;stroke-linejoin:miter;stroke-opacity:1" d="M 298.422,103.535 304.277,110.226 z" id="boundary" inkscape:connector-curvature="0" />
	<path style="fill:none;stroke:red;stroke-width:1px;stroke-linecap:butt;stroke-linejoin:miter;stroke-opacity:1" d="M 298.422,387.083 306.786,388.755 z" id="boundary" inkscape:connector-curvature="0" />
	<path style="fill:none;stroke:red;stroke-width:1px;stroke-linecap:butt;stroke-linejoin:miter;stroke-opacity:1" d="M 304.277,110.226 310.968,115.245 z" id="boundary" inkscape:connector-curvature="0" />
	<path style="fill:none;stroke:red;stroke-width:1px;stroke-linecap:butt;stroke-linejoin:miter;stroke-opacity:1" d="M 306.786,388.755 313.477,393.774 z" id="boundary" inkscape:connector-curvature="0" />
	<path style="fill:none;stroke:red;stroke-width:1px;stroke-linecap:butt;stroke-linejoin:miter;stroke-opacity:1" d="M 310.968,115.245 317.659,120.263 z" id="boundary" inkscape:connector-curvature="0" />
	<path style="fill:none;stroke:red;stroke-width:1px;stroke-linecap:butt;stroke-linejoin:miter;stroke-opacity:1" d="M 313.477,393.774 321.005,397.956 z" id="boundary" inkscape:connector-curvature="0" />
	<path style="fill:none;stroke:red;stroke-width:1px;stroke-linecap:butt;stroke-linejoin:miter;stroke-opacity:1" d="M 317.659,120.263 323.514,126.954 z" id="boundary" inkscape:connector-curvature="0" />
	<path style="fill:none;stroke:red;stroke-width:1px;stroke-linecap:butt;stroke-linejoin:miter;stroke-opacity:1" d="M 321.005,397.956 337.734,403.811 z" id="boundary" inkscape:connector-curvature="0" />
	<path style="fill:none;stroke:red;stroke-width:1px;stroke-linecap:butt;stroke-linejoin:miter;stroke-opacity:1" d="M 323.514,126.954 330.206,131.973 z" id="boundary" inkscape:connector-curvature="0" />
	<path style="fill:none;stroke:red;stroke-width:1px;stroke-linecap:butt;stroke-linejoin:miter;stroke-opacity:1" d="M 330.206,131.973 336.061,138.664 z" id="boundary" inkscape:connector-curvature="0" />
	<path style="fill:none;stroke:red;stroke-width:1px;stroke-linecap:butt;stroke-linejoin:miter;stroke-opacity:1" d="M 336.061,138.664 342.752,144.519 z" id="boundary" inkscape:connector-curvature="0" />
	<path style="fill:none;stroke:red;stroke-width:1px;stroke-linecap:butt;stroke-linejoin:miter;stroke-opacity:1" d="M 337.734,403.811 346.098,405.484 z" id="boundary" inkscape:connector-curvature="0" />
	<path style="fill:none;stroke:red;stroke-width:1px;stroke-linecap:butt;stroke-linejoin:miter;stroke-opacity:1" d="M 342.752,144.519 348.607,151.211 z" id="boundary" inkscape:connector-curvature="0" />
	<path style="fill:none;stroke:red;stroke-width:1px;stroke-linecap:butt;stroke-linejoin:miter;stroke-opacity:1" d="M 346.098,405.484 361.153,412.175 z" id="boundary" inkscape:connector-curvature="0" />
	<path style="fill:none;stroke:red;stroke-width:1px;stroke-linecap:butt;stroke-linejoin:miter;stroke-opacity:1" d="M 348.607,151.211 354.462,157.902 z" id="boundary" inkscape:connector-curvature="0" />
	<path style="fill:none;stroke:red;stroke-width:1px;stroke-linecap:butt;stroke-linejoin:miter;stroke-opacity:1" d="M 354.462,157.902 361.153,163.757 z" id="boundary" inkscape:connector-curvature="0" />
	<path style="fill:none;stroke:red;stroke-width:1px;stroke-linecap:butt;stroke-linejoin:miter;stroke-opacity:1" d="M 361.153,163.757 366.172,170.449 z" id="boundary" inkscape:connector-curvature="0" />
	<path style="fill:none;stroke:red;stroke-width:1px;stroke-linecap:butt;stroke-linejoin:miter;stroke-opacity:1" d="M 361.153,412.175 369.518,414.685 z" id="boundary" inkscape:connector-curvature="0" />
	<path style="fill:none;stroke:red;stroke-width:1px;stroke-linecap:butt;stroke-linejoin:miter;stroke-opacity:1" d="M 366.172,170.449 372.027,177.14 z" id="boundary" inkscape:connector-curvature="0" />
	<path style="fill:none;stroke:red;stroke-width:1px;stroke-linecap:butt;stroke-linejoin:miter;stroke-opacity:1" d="M 369.518,414.685 386.246,420.54 z" id="boundary" inkscape:connector-curvature="0" />
	<path style="fill:none;stroke:red;stroke-width:1px;stroke-linecap:butt;stroke-linejoin:miter;stroke-opacity:1" d="M 372.027,177.14 377.882,183.831 z" id="boundary" inkscape:connector-curvature="0" />
	<path style="fill:none;stroke:red;stroke-width:1px;stroke-linecap:butt;stroke-linejoin:miter;stroke-opacity:1" d="M 377.882,183.831 382.901,190.523 z" id="boundary" inkscape:connector-curvature="0" />
	<path style="fill:none;stroke:red;stroke-width:1px;stroke-linecap:butt;stroke-linejoin:miter;stroke-opacity:1" d="M 382.901,190.523 388.755,197.214 z" id="boundary" inkscape:connector-curvature="0" />
	<path style="fill:none;stroke:red;stroke-width:1px;stroke-linecap:butt;stroke-linejoin:miter;stroke-opacity:1" d="M 386.246,420.54 394.61,423.049 z" id="boundary" inkscape:connector-curvature="0" />
	<path style="fill:none;stroke:red;stroke-width:1px;stroke-linecap:butt;stroke-linejoin:miter;stroke-opacity:1" d="M 388.755,197.214 393.774,203.906 z" id="boundary" inkscape:connector-curvature="0" />
	<path style="fill:none;stroke:red;stroke-width:1px;stroke-linecap:butt;stroke-linejoin:miter;stroke-opacity:1" d="M 393.774,203.906 398.793,210.597 z" id="boundary" inkscape:connector-curvature="0" />
	<path style="fill:none;stroke:red;stroke-width:1px;stroke-linecap:butt;stroke-linejoin:miter;stroke-opacity:1" d="M 394.61,423.049 402.975,426.395 z" id="boundary" inkscape:connector-curvature="0" />
	<path style="fill:none;stroke:red;stroke-width:1px;stroke-linecap:butt;stroke-linejoin:miter;stroke-opacity:1" d="M 398.793,210.597 403.811,217.288 z" id="boundary" inkscape:connector-curvature="0" />
	<path style="fill:none;stroke:red;stroke-width:1px;stroke-linecap:butt;stroke-linejoin:miter;stroke-opacity:1" d="M 402.975,426.395 409.666,431.413 z" id="boundary" inkscape:connector-curvature="0" />
	<path style="fill:none;stroke:red;stroke-width:1px;stroke-linecap:butt;stroke-linejoin:miter;stroke-opacity:1" d="M 403.811,217.288 408.83,223.98 z" id="boundary" inkscape:connector-curvature="0" />
	<path style="fill:none;stroke:red;stroke-width:1px;stroke-linecap:butt;stroke-linejoin:miter;stroke-opacity:1" d="M 408.83,223.98 413.848,230.671 z" id="boundary" inkscape:connector-curvature="0" />
	<path style="fill:none;stroke:red;stroke-width:1px;stroke-linecap:butt;stroke-linejoin:miter;stroke-opacity:1" d="M 409.666,431.413 426.395,438.105 z" id="boundary" inkscape:connector-curvature="0" />
	<path style="fill:none;stroke:red;stroke-width:1px;stroke-linecap:butt;stroke-linejoin:miter;stroke-opacity:1" d="M 413.848,230.671 418.03,238.199 z" id="boundary" inkscape:connector-curvature="0" />
	<path style="fill:none;stroke:red;stroke-width:1px;stroke-linecap:butt;stroke-linejoin:miter;stroke-opacity:1" d="M 418.03,238.199 423.049,244.89 z" id="boundary" inkscape:connector-curvature="0" />
	<path style="fill:none;stroke:red;stroke-width:1px;stroke-linecap:butt;stroke-linejoin:miter;stroke-opacity:1" d="M 423.049,244.89 427.231,252.418 z" id="boundary" inkscape:connector-curvature="0" />
	<path style="fill:none;stroke:red;stroke-width:1px;stroke-linecap:butt;stroke-linejoin:miter;stroke-opacity:1" d="M 426.395,438.105 442.287,443.96 z" id="boundary" inkscape:connector-curvature="0" />
	<path style="fill:none;stroke:red;stroke-width:1px;stroke-linecap:butt;stroke-linejoin:miter;stroke-opacity:1" d="M 427.231,252.418 432.25,259.11 z" id="boundary" inkscape:connector-curvature="0" />
	<path style="fill:none;stroke:red;stroke-width:1px;stroke-linecap:butt;stroke-linejoin:miter;stroke-opacity:1" d="M 432.25,259.11 436.432,266.637 z" id="boundary" inkscape:connector-curvature="0" />
	<path style="fill:none;stroke:red;stroke-width:1px;stroke-linecap:butt;stroke-linejoin:miter;stroke-opacity:1" d="M 436.432,266.637 440.614,274.165 z" id="boundary" inkscape:connector-curvature="0" />
	<path style="fill:none;stroke:red;stroke-width:1px;stroke-linecap:butt;stroke-linejoin:miter;stroke-opacity:1" d="M 440.614,274.165 444.796,281.693 z" id="boundary" inkscape:connector-curvature="0" />
	<path style="fill:none;stroke:red;stroke-width:1px;stroke-linecap:butt;stroke-linejoin:miter;stroke-opacity:1" d="M 442.287,443.96 449.815,448.142 z" id="boundary" inkscape:connector-curvature="0" />
	<path style="fill:none;stroke:red;stroke-width:1px;stroke-linecap:butt;stroke-linejoin:miter;stroke-opacity:1" d="M 444.796,281.693 448.978,289.221 z" id="boundary" inkscape:connector-curvature="0" />
	<path style="fill:none;stroke:red;stroke-width:1px;stroke-linecap:butt;stroke-linejoin:miter;stroke-opacity:1" d="M 448.978,289.221 453.997,295.912 z" id="boundary" inkscape:connector-curvature="0" />
	<path style="fill:none;stroke:red;stroke-width:1px;stroke-linecap:butt;stroke-linejoin:miter;stroke-opacity:1" d="M 449.815,448.142 457.342,452.324 z" id="boundary" inkscape:connector-curvature="0" />
	<path style="fill:none;stroke:red;stroke-width:1px;stroke-linecap:butt;stroke-linejoin:miter;stroke-opacity:1" d="M 453.997,295.912 458.179,303.44 z" id="boundary" inkscape:connector-curvature="0" />
	<path style="fill:none;stroke:red;stroke-width:1px;stroke-linecap:butt;stroke-linejoin:miter;stroke-opacity:1" d="M 457.342,452.324 464.87,456.506 z" id="boundary" inkscape:connector-curvature="0" />
	<path style="fill:none;stroke:red;stroke-width:1px;stroke-linecap:butt;stroke-linejoin:miter;stroke-opacity:1" d="M 458.179,303.44 462.361,310.968 z" id="boundary" inkscape:connector-curvature="0" />
	<path style="fill:none;stroke:red;stroke-width:1px;stroke-linecap:butt;stroke-linejoin:miter;stroke-opacity:1" d="M 462.361,310.968 466.543,318.496 z" id="boundary" inkscape:connector-curvature="0" />
	<path style="fill:none;stroke:red;stroke-width:1px;stroke-linecap:butt;stroke-linejoin:miter;stroke-opacity:1" d="M 464.87,456.506 472.398,460.688 z" id="boundary" inkscape:connector-curvature="0" />
	<path style="fill:none;stroke:red;stroke-width:1px;stroke-linecap:butt;stroke-linejoin:miter;stroke-opacity:1" d="M 466.543,318.496 470.725,326.024 z" id="boundary" inkscape:connector-curvature="0" />
	<path style="fill:none;stroke:red;stroke-width:1px;stroke-linecap:butt;stroke-linejoin:miter;stroke-opacity:1" d="M 470.725,326.024 475.744,332.715 z" id="boundary" inkscape:connector-curvature="0" />
	<path style="fill:none;stroke:red;stroke-width:1px;stroke-linecap:butt;stroke-linejoin:miter;stroke-opacity:1" d="M 472.398,460.688 487.454,469.052 z" id="boundary" inkscape:connector-curvature="0" />
	<path style="fill:none;stroke:red;stroke-width:1px;stroke-linecap:butt;stroke-linejoin:miter;stroke-opacity:1" d="M 475.744,332.715 479.926,340.243 z" id="boundary" inkscape:connector-curvature="0" />
	<path style="fill:none;stroke:red;stroke-width:1px;stroke-linecap:butt;stroke-linejoin:miter;stroke-opacity:1" d="M 479.926,340.243 484.108,347.771 z" id="boundary" inkscape:connector-curvature="0" />
	<path style="fill:none;stroke:red;stroke-width:1px;stroke-linecap:butt;stroke-linejoin:miter;stroke-opacity:1" d="M 484.108,347.771 489.126,354.462 z" id="boundary" inkscape:connector-curvature="0" />
	<path style="fill:none;stroke:red;stroke-width:1px;stroke-linecap:butt;stroke-linejoin:miter;stroke-opacity:1" d="M 487.454,469.052 494.145,474.071 z" id="boundary" inkscape:connector-curvature="0" />
	<path style="fill:none;stroke:red;stroke-width:1px;stroke-linecap:butt;stroke-linejoin:miter;stroke-opacity:1" d="M 489.126,354.462 493.309,361.99 z" id="boundary" inkscape:connector-curvature="0" />
	<path style="fill:none;stroke:red;stroke-width:1px;stroke-linecap:butt;stroke-linejoin:miter;stroke-opacity:1" d="M 493.309,361.99 498.327,368.681 z" id="boundary" inkscape:connector-curvature="0" />
	<path style="fill:none;stroke:red;stroke-width:1px;stroke-linecap:butt;stroke-linejoin:miter;stroke-opacity:1" d="M 494.145,474.071 500.836,479.089 z" id="boundary" inkscape:connector-curvature="0" />
	<path style="fill:none;stroke:red;stroke-width:1px;stroke-linecap:butt;stroke-linejoin:miter;stroke-opacity:1" d="M 498.327,368.681 503.346,375.373 z" id="boundary" inkscape:connector-curvature="0" />
	<path style="fill:none;stroke:red;stroke-width:1px;stroke-linecap:butt;stroke-linejoin:miter;stroke-opacity:1" d="M 500.836,479.089 508.364,483.272 z" id="boundary" inkscape:connector-curvature="0" />
	<path style="fill:none;stroke:red;stroke-width:1px;stroke-linecap:butt;stroke-linejoin:miter;stroke-opacity:1" d="M 503.346,375.373 508.364,382.064 z" id="boundary" inkscape:connector-curvature="0" />
	<path style="fill:none;stroke:red;stroke-width:1px;stroke-linecap:butt;stroke-linejoin:miter;stroke-opacity:1" d="M 508.364,382.064 514.219,388.755 z" id="boundary" inkscape:connector-curvature="0" />
	<path style="fill:none;stroke:red;stroke-width:1px;stroke-linecap:butt;stroke-linejoin:miter;stroke-opacity:1" d="M 508.364,483.272 515.892,487.454 z" id="boundary" inkscape:connector-curvature="0" />
	<path style="fill:none;stroke:red;stroke-width:1px;stroke-linecap:butt;stroke-linejoin:miter;stroke-opacity:1" d="M 514.219,388.755 520.074,395.447 z" id="boundary" inkscape:connector-curvature="0" />
	<path style="fill:none;stroke:red;stroke-width:1px;stroke-linecap:butt;stroke-linejoin:miter;stroke-opacity:1" d="M 515.892,487.454 522.583,492.472 z" id="boundary" inkscape:connector-curvature="0" />
	<path style="fill:none;stroke:red;stroke-width:1px;stroke-linecap:butt;stroke-linejoin:miter;stroke-opacity:1" d="M 520.074,395.447 525.929,402.138 z" id="boundary" inkscape:connector-curvature="0" />
	<path style="fill:none;stroke:red;stroke-width:1px;stroke-linecap:butt;stroke-linejoin:miter;stroke-opacity:1" d="M 522.583,492.472 529.275,498.327 z" id="boundary" inkscape:connector-curvature="0" />
	<path style="fill:none;stroke:red;stroke-width:1px;stroke-linecap:butt;stroke-linejoin:miter;stroke-opacity:1" d="M 525.929,402.138 531.784,408.83 z" id="boundary" inkscape:connector-curvature="0" />
	<path style="fill:none;stroke:red;stroke-width:1px;stroke-linecap:butt;stroke-linejoin:miter;stroke-opacity:1" d="M 529.275,498.327 536.803,502.509 z" id="boundary" inkscape:connector-curvature="0" />
	<path style="fill:none;stroke:red;stroke-width:1px;stroke-linecap:butt;stroke-linejoin:miter;stroke-opacity:1" d="M 531.784,408.83 537.639,415.521 z" id="boundary" inkscape:connector-curvature="0" />
	<path style="fill:none;stroke:red;stroke-width:1px;stroke-linecap:butt;stroke-linejoin:miter;stroke-opacity:1" d="M 536.803,502.509 542.658,509.201 z" id="boundary" inkscape:connector-curvature="0" />
	<path style="fill:none;stroke:red;stroke-width:1px;stroke-linecap:butt;stroke-linejoin:miter;stroke-opacity:1" d="M 537.639,415.521 544.331,421.376 z" id="boundary" inkscape:connector-curvature="0" />
	<path style="fill:none;stroke:red;stroke-width:1px;stroke-linecap:butt;stroke-linejoin:miter;stroke-opacity:1" d="M 542.658,509.201 550.185,513.383 z" id="boundary" inkscape:connector-curvature="0" />
	<path style="fill:none;stroke:red;stroke-width:1px;stroke-linecap:butt;stroke-linejoin:miter;stroke-opacity:1" d="M 544.331,421.376 551.022,427.231 z" id="boundary" inkscape:connector-curvature="0" />
	<path style="fill:none;stroke:red;stroke-width:1px;stroke-linecap:butt;stroke-linejoin:miter;stroke-opacity:1" d="M 550.185,513.383 556.877,519.238 z" id="boundary" inkscape:connector-curvature="0" />
	<path style="fill:none;stroke:red;stroke-width:1px;stroke-linecap:butt;stroke-linejoin:miter;stroke-opacity:1" d="M 551.022,427.231 556.877,433.922 z" id="boundary" inkscape:connector-curvature="0" />
	<path style="fill:none;stroke:red;stroke-width:1px;stroke-linecap:butt;stroke-linejoin:miter;stroke-opacity:1" d="M 556.877,433.922 563.568,438.941 z" id="boundary" inkscape:connector-curvature="0" />
	<path style="fill:none;stroke:red;stroke-width:1px;stroke-linecap:butt;stroke-linejoin:miter;stroke-opacity:1" d="M 556.877,519.238 563.568,525.093 z" id="boundary" inkscape:connector-curvature="0" />
	<path style="fill:none;stroke:red;stroke-width:1px;stroke-linecap:butt;stroke-linejoin:miter;stroke-opacity:1" d="M 563.568,438.941 569.423,445.632 z" id="boundary" inkscape:connector-curvature="0" />
	<path style="fill:none;stroke:red;stroke-width:1px;stroke-linecap:butt;stroke-linejoin:miter;stroke-opacity:1" d="M 563.568,525.093 569.423,531.784 z" id="boundary" inkscape:connector-curvature="0" />
	<path style="fill:none;stroke:red;stroke-width:1px;stroke-linecap:butt;stroke-linejoin:miter;stroke-opacity:1" d="M 569.423,445.632 576.115,450.651 z" id="boundary" inkscape:connector-curvature="0" />
	<path style="fill:none;stroke:red;stroke-width:1px;stroke-linecap:butt;stroke-linejoin:miter;stroke-opacity:1" d="M 569.423,531.784 576.115,536.803 z" id="boundary" inkscape:connector-curvature="0" />
	<path style="fill:none;stroke:red;stroke-width:1px;stroke-linecap:butt;stroke-linejoin:miter;stroke-opacity:1" d="M 576.115,450.651 582.806,456.506 z" id="boundary" inkscape:connector-curvature="0" />
	<path style="fill:none;stroke:red;stroke-width:1px;stroke-linecap:butt;stroke-linejoin:miter;stroke-opacity:1" d="M 576.115,536.803 583.642,540.985 z" id="boundary" inkscape:connector-curvature="0" />
	<path style="fill:none;stroke:red;stroke-width:1px;stroke-linecap:butt;stroke-linejoin:miter;stroke-opacity:1" d="M 582.806,456.506 589.497,461.524 z" id="boundary" inkscape:connector-curvature="0" />
	<path style="fill:none;stroke:red;stroke-width:1px;stroke-linecap:butt;stroke-linejoin:miter;stroke-opacity:1" d="M 583.642,540.985 588.661,547.676 z" id="boundary" inkscape:connector-curvature="0" />
	<path style="fill:none;stroke:red;stroke-width:1px;stroke-linecap:butt;stroke-linejoin:miter;stroke-opacity:1" d="M 588.661,547.676 595.352,552.695 z" id="boundary" inkscape:connector-curvature="0" />
	<path style="fill:none;stroke:red;stroke-width:1px;stroke-linecap:butt;stroke-linejoin:miter;stroke-opacity:1" d="M 589.497,461.524 596.189,467.379 z" id="boundary" inkscape:connector-curvature="0" />
	<path style="fill:none;stroke:red;stroke-width:1px;stroke-linecap:butt;stroke-linejoin:miter;stroke-opacity:1" d="M 595.352,552.695 602.044,557.713 z" id="boundary" inkscape:connector-curvature="0" />
	<path style="fill:none;stroke:red;stroke-width:1px;stroke-linecap:butt;stroke-linejoin:miter;stroke-opacity:1" d="M 596.189,467.379 602.88,473.234 z" id="boundary" inkscape:connector-curvature="0" />
	<path style="fill:none;stroke:red;stroke-width:1px;stroke-linecap:butt;stroke-linejoin:miter;stroke-opacity:1" d="M 602.044,557.713 609.572,561.895 z" id="boundary" inkscape:connector-curvature="0" />
	<path style="fill:none;stroke:red;stroke-width:1px;stroke-linecap:butt;stroke-linejoin:miter;stroke-opacity:1" d="M 602.88,473.234 609.572,478.253 z" id="boundary" inkscape:connector-curvature="0" />
	<path style="fill:none;stroke:red;stroke-width:1px;stroke-linecap:butt;stroke-linejoin:miter;stroke-opacity:1" d="M 609.572,478.253 616.263,483.272 z" id="boundary" inkscape:connector-curvature="0" />
	<path style="fill:none;stroke:red;stroke-width:1px;stroke-linecap:butt;stroke-linejoin:miter;stroke-opacity:1" d="M 609.572,561.895 616.263,566.914 z" id="boundary" inkscape:connector-curvature="0" />
	<path style="fill:none;stroke:red;stroke-width:1px;stroke-linecap:butt;stroke-linejoin:miter;stroke-opacity:1" d="M 616.263,483.272 622.118,489.963 z" id="boundary" inkscape:connector-curvature="0" />
	<path style="fill:none;stroke:red;stroke-width:1px;stroke-linecap:butt;stroke-linejoin:miter;stroke-opacity:1" d="M 616.263,566.914 622.954,571.933 z" id="boundary" inkscape:connector-curvature="0" />
	<path style="fill:none;stroke:red;stroke-width:1px;stroke-linecap:butt;stroke-linejoin:miter;stroke-opacity:1" d="M 622.118,489.963 628.809,494.981 z" id="boundary" inkscape:connector-curvature="0" />
	<path style="fill:none;stroke:red;stroke-width:1px;stroke-linecap:butt;stroke-linejoin:miter;stroke-opacity:1" d="M 622.954,571.933 629.646,576.951 z" id="boundary" inkscape:connector-curvature="0" />
	<path style="fill:none;stroke:red;stroke-width:1px;stroke-linecap:butt;stroke-linejoin:miter;stroke-opacity:1" d="M 628.809,494.981 635.501,500 z" id="boundary" inkscape:connector-curvature="0" />
	<path style="fill:none;stroke:red;stroke-width:1px;stroke-linecap:butt;stroke-linejoin:miter;stroke-opacity:1" d="M 629.646,576.951 635.501,583.642 z" id="boundary" inkscape:connector-curvature="0" />
	<path style="fill:none;stroke:red;stroke-width:1px;stroke-linecap:butt;stroke-linejoin:miter;stroke-opacity:1" d="M 635.501,500 642.192,505.019 z" id="boundary" inkscape:connector-curvature="0" />
	<path style="fill:none;stroke:red;stroke-width:1px;stroke-linecap:butt;stroke-linejoin:miter;stroke-opacity:1" d="M 635.501,583.642 642.192,588.661 z" id="boundary" inkscape:connector-curvature="0" />
	<path style="fill:none;stroke:red;stroke-width:1px;stroke-linecap:butt;stroke-linejoin:miter;stroke-opacity:1" d="M 642.192,505.019 648.884,510.874 z" id="boundary" inkscape:connector-curvature="0" />
	<path style="fill:none;stroke:red;stroke-width:1px;stroke-linecap:butt;stroke-linejoin:miter;stroke-opacity:1" d="M 642.192,588.661 648.047,595.352 z" id="boundary" inkscape:connector-curvature="0" />
	<path style="fill:none;stroke:red;stroke-width:1px;stroke-linecap:butt;stroke-linejoin:miter;stroke-opacity:1" d="M 648.047,595.352 654.739,600.371 z" id="boundary" inkscape:connector-curvature="0" />
	<path style="fill:none;stroke:red;stroke-width:1px;stroke-linecap:butt;stroke-linejoin:miter;stroke-opacity:1" d="M 648.884,510.874 655.575,515.892 z" id="boundary" inkscape:connector-curvature="0" />
	<path style="fill:none;stroke:red;stroke-width:1px;stroke-linecap:butt;stroke-linejoin:miter;stroke-opacity:1" d="M 654.739,600.371 661.43,605.39 z" id="boundary" inkscape:connector-curvature="0" />
	<path style="fill:none;stroke:red;stroke-width:1px;stroke-linecap:butt;stroke-linejoin:miter;stroke-opacity:1" d="M 655.575,515.892 662.266,520.911 z" id="boundary" inkscape:connector-curvature="0" />
	<path style="fill:none;stroke:red;stroke-width:1px;stroke-linecap:butt;stroke-linejoin:miter;stroke-opacity:1" d="M 661.43,605.39 667.285,612.081 z" id="boundary" inkscape:connector-curvature="0" />
	<path style="fill:none;stroke:red;stroke-width:1px;stroke-linecap:butt;stroke-linejoin:miter;stroke-opacity:1" d="M 662.266,520.911 668.958,526.766 z" id="boundary" inkscape:connector-curvature="0" />
	<path style="fill:none;stroke:red;stroke-width:1px;stroke-linecap:butt;stroke-linejoin:miter;stroke-opacity:1" d="M 667.285,612.081 674.813,616.263 z" id="boundary" inkscape:connector-curvature="0" />
	<path style="fill:none;stroke:red;stroke-width:1px;stroke-linecap:butt;stroke-linejoin:miter;stroke-opacity:1" d="M 668.958,526.766 675.649,532.621 z" id="boundary" inkscape:connector-curvature="0" />
	<path style="fill:none;stroke:red;stroke-width:1px;stroke-linecap:butt;stroke-linejoin:miter;stroke-opacity:1" d="M 674.813,616.263 682.341,620.445 z" id="boundary" inkscape:connector-curvature="0" />
	<path style="fill:none;stroke:red;stroke-width:1px;stroke-linecap:butt;stroke-linejoin:miter;stroke-opacity:1" d="M 675.649,532.621 682.341,537.639 z" id="boundary" inkscape:connector-curvature="0" />
	<path style="fill:none;stroke:red;stroke-width:1px;stroke-linecap:butt;stroke-linejoin:miter;stroke-opacity:1" d="M 682.341,537.639 689.032,542.658 z" id="boundary" inkscape:connector-curvature="0" />
	<path style="fill:none;stroke:red;stroke-width:1px;stroke-linecap:butt;stroke-linejoin:miter;stroke-opacity:1" d="M 682.341,620.445 689.032,625.464 z" id="boundary" inkscape:connector-curvature="0" />
	<path style="fill:none;stroke:red;stroke-width:1px;stroke-linecap:butt;stroke-linejoin:miter;stroke-opacity:1" d="M 689.032,542.658 695.723,548.513 z" id="boundary" inkscape:connector-curvature="0" />
	<path style="fill:none;stroke:red;stroke-width:1px;stroke-linecap:butt;stroke-linejoin:miter;stroke-opacity:1" d="M 689.032,625.464 694.887,632.155 z" id="boundary" inkscape:connector-curvature="0" />
	<path style="fill:none;stroke:red;stroke-width:1px;stroke-linecap:butt;stroke-linejoin:miter;stroke-opacity:1" d="M 694.887,632.155 701.578,637.174 z" id="boundary" inkscape:connector-curvature="0" />
	<path style="fill:none;stroke:red;stroke-width:1px;stroke-linecap:butt;stroke-linejoin:miter;stroke-opacity:1" d="M 695.723,548.513 702.415,553.531 z" id="boundary" inkscape:connector-curvature="0" />
	<path style="fill:none;stroke:red;stroke-width:1px;stroke-linecap:butt;stroke-linejoin:miter;stroke-opacity:1" d="M 701.578,637.174 708.27,642.192 z" id="boundary" inkscape:connector-curvature="0" />
	<path style="fill:none;stroke:red;stroke-width:1px;stroke-linecap:butt;stroke-linejoin:miter;stroke-opacity:1" d="M 702.415,553.531 709.106,559.386 z" id="boundary" inkscape:connector-curvature="0" />
	<path style="fill:none;stroke:red;stroke-width:1px;stroke-linecap:butt;stroke-linejoin:miter;stroke-opacity:1" d="M 708.27,642.192 714.961,647.211 z" id="boundary" inkscape:connector-curvature="0" />
	<path style="fill:none;stroke:red;stroke-width:1px;stroke-linecap:butt;stroke-linejoin:miter;stroke-opacity:1" d="M 709.106,559.386 715.798,564.405 z" id="boundary" inkscape:connector-curvature="0" />
	<path style="fill:none;stroke:red;stroke-width:1px;stroke-linecap:butt;stroke-linejoin:miter;stroke-opacity:1" d="M 714.961,647.211 721.653,653.066 z" id="boundary" inkscape:connector-curvature="0" />
	<path style="fill:none;stroke:red;stroke-width:1px;stroke-linecap:butt;stroke-linejoin:miter;stroke-opacity:1" d="M 715.798,564.405 722.489,570.26 z" id="boundary" inkscape:connector-curvature="0" />
	<path style="fill:none;stroke:red;stroke-width:1px;stroke-linecap:butt;stroke-linejoin:miter;stroke-opacity:1" d="M 721.653,653.066 728.344,658.084 z" id="boundary" inkscape:connector-curvature="0" />
	<path style="fill:none;stroke:red;stroke-width:1px;stroke-linecap:butt;stroke-linejoin:miter;stroke-opacity:1" d="M 722.489,570.26 729.18,576.115 z" id="boundary" inkscape:connector-curvature="0" />
	<path style="fill:none;stroke:red;stroke-width:1px;stroke-linecap:butt;stroke-linejoin:miter;stroke-opacity:1" d="M 728.344,658.084 734.199,664.776 z" id="boundary" inkscape:connector-curvature="0" />
	<path style="fill:none;stroke:red;stroke-width:1px;stroke-linecap:butt;stroke-linejoin:miter;stroke-opacity:1" d="M 729.18,576.115 735.872,581.133 z" id="boundary" inkscape:connector-curvature="0" />
	<path style="fill:none;stroke:red;stroke-width:1px;stroke-linecap:butt;stroke-linejoin:miter;stroke-opacity:1" d="M 734.199,664.776 740.89,669.794 z" id="boundary" inkscape:connector-curvature="0" />
	<path style="fill:none;stroke:red;stroke-width:1px;stroke-linecap:butt;stroke-linejoin:miter;stroke-opacity:1" d="M 735.872,581.133 742.563,586.988 z" id="boundary" inkscape:connector-curvature="0" />
	<path style="fill:none;stroke:red;stroke-width:1px;stroke-linecap:butt;stroke-linejoin:miter;stroke-opacity:1" d="M 740.89,669.794 747.582,675.649 z" id="boundary" inkscape:connector-curvature="0" />
	<path style="fill:none;stroke:red;stroke-width:1px;stroke-linecap:butt;stroke-linejoin:miter;stroke-opacity:1" d="M 742.563,586.988 749.255,592.007 z" id="boundary" inkscape:connector-curvature="0" />
	<path style="fill:none;stroke:red;stroke-width:1px;stroke-linecap:butt;stroke-linejoin:miter;stroke-opacity:1" d="M 747.582,675.649 754.273,681.504 z" id="boundary" inkscape:connector-curvature="0" />
	<path style="fill:none;stroke:red;stroke-width:1px;stroke-linecap:butt;stroke-linejoin:miter;stroke-opacity:1" d="M 749.255,592.007 755.946,597.025 z" id="boundary" inkscape:connector-curvature="0" />
	<path style="fill:none;stroke:red;stroke-width:1px;stroke-linecap:butt;stroke-linejoin:miter;stroke-opacity:1" d="M 754.273,681.504 760.965,687.359 z" id="boundary" inkscape:connector-curvature="0" />
	<path style="fill:none;stroke:red;stroke-width:1px;stroke-linecap:butt;stroke-linejoin:miter;stroke-opacity:1" d="M 755.946,597.025 762.637,602.88 z" id="boundary" inkscape:connector-curvature="0" />
	<path style="fill:none;stroke:red;stroke-width:1px;stroke-linecap:butt;stroke-linejoin:miter;stroke-opacity:1" d="M 760.965,687.359 767.656,692.378 z" id="boundary" inkscape:connector-curvature="0" />
	<path style="fill:none;stroke:red;stroke-width:1px;stroke-linecap:butt;stroke-linejoin:miter;stroke-opacity:1" d="M 762.637,602.88 769.329,608.735 z" id="boundary" inkscape:connector-curvature="0" />
	<path style="fill:none;stroke:red;stroke-width:1px;stroke-linecap:butt;stroke-linejoin:miter;stroke-opacity:1" d="M 767.656,692.378 774.347,697.396 z" id="boundary" inkscape:connector-curvature="0" />
	<path style="fill:none;stroke:red;stroke-width:1px;stroke-linecap:butt;stroke-linejoin:miter;stroke-opacity:1" d="M 769.329,608.735 776.02,613.754 z" id="boundary" inkscape:connector-curvature="0" />
	<path style="fill:none;stroke:red;stroke-width:1px;stroke-linecap:butt;stroke-linejoin:miter;stroke-opacity:1" d="M 774.347,697.396 781.039,702.415 z" id="boundary" inkscape:connector-curvature="0" />
	<path style="fill:none;stroke:red;stroke-width:1px;stroke-linecap:butt;stroke-linejoin:miter;stroke-opacity:1" d="M 776.02,613.754 782.712,618.772 z" id="boundary" inkscape:connector-curvature="0" />
	<path style="fill:none;stroke:red;stroke-width:1px;stroke-linecap:butt;stroke-linejoin:miter;stroke-opacity:1" d="M 781.039,702.415 787.73,707.433 z" id="boundary" inkscape:connector-curvature="0" />
	<path style="fill:none;stroke:red;stroke-width:1px;stroke-linecap:butt;stroke-linejoin:miter;stroke-opacity:1" d="M 782.712,618.772 789.403,624.627 z" id="boundary" inkscape:connector-curvature="0" />
	<path style="fill:none;stroke:red;stroke-width:1px;stroke-linecap:butt;stroke-linejoin:miter;stroke-opacity:1" d="M 787.73,707.433 794.422,712.452 z" id="boundary" inkscape:connector-curvature="0" />
	<path style="fill:none;stroke:red;stroke-width:1px;stroke-linecap:butt;stroke-linejoin:miter;stroke-opacity:1" d="M 789.403,624.627 796.094,630.482 z" id="boundary" inkscape:connector-curvature="0" />
	<path style="fill:none;stroke:red;stroke-width:1px;stroke-linecap:butt;stroke-linejoin:miter;stroke-opacity:1" d="M 794.422,712.452 801.113,717.47 z" id="boundary" inkscape:connector-curvature="0" />
	<path style="fill:none;stroke:red;stroke-width:1px;stroke-linecap:butt;stroke-linejoin:miter;stroke-opacity:1" d="M 796.094,630.482 802.786,636.337 z" id="boundary" inkscape:connector-curvature="0" />
	<path style="fill:none;stroke:red;stroke-width:1px;stroke-linecap:butt;stroke-linejoin:miter;stroke-opacity:1" d="M 801.113,717.47 807.804,723.325 z" id="boundary" inkscape:connector-curvature="0" />
	<path style="fill:none;stroke:red;stroke-width:1px;stroke-linecap:butt;stroke-linejoin:miter;stroke-opacity:1" d="M 802.786,636.337 809.477,641.356 z" id="boundary" inkscape:connector-curvature="0" />
	<path style="fill:none;stroke:red;stroke-width:1px;stroke-linecap:butt;stroke-linejoin:miter;stroke-opacity:1" d="M 807.804,723.325 814.496,729.18 z" id="boundary" inkscape:connector-curvature="0" />
	<path style="fill:none;stroke:red;stroke-width:1px;stroke-linecap:butt;stroke-linejoin:miter;stroke-opacity:1" d="M 809.477,641.356 816.169,646.374 z" id="boundary" inkscape:connector-curvature="0" />
	<path style="fill:none;stroke:red;stroke-width:1px;stroke-linecap:butt;stroke-linejoin:miter;stroke-opacity:1" d="M 814.496,729.18 821.187,734.199 z" id="boundary" inkscape:connector-curvature="0" />
	<path style="fill:none;stroke:red;stroke-width:1px;stroke-linecap:butt;stroke-linejoin:miter;stroke-opacity:1" d="M 816.169,646.374 822.86,652.229 z" id="boundary" inkscape:connector-curvature="0" />
	<path style="fill:none;stroke:red;stroke-width:1px;stroke-linecap:butt;stroke-linejoin:miter;stroke-opacity:1" d="M 821.187,734.199 827.879,740.054 z" id="boundary" inkscape:connector-curvature="0" />
	<path style="fill:none;stroke:red;stroke-width:1px;stroke-linecap:butt;stroke-linejoin:miter;stroke-opacity:1" d="M 822.86,652.229 829.551,658.084 z" id="boundary" inkscape:connector-curvature="0" />
	<path style="fill:none;stroke:red;stroke-width:1px;stroke-linecap:butt;stroke-linejoin:miter;stroke-opacity:1" d="M 827.879,740.054 833.734,746.745 z" id="boundary" inkscape:connector-curvature="0" />
	<path style="fill:none;stroke:red;stroke-width:1px;stroke-linecap:butt;stroke-linejoin:miter;stroke-opacity:1" d="M 829.551,658.084 836.243,663.103 z" id="boundary" inkscape:connector-curvature="0" />
	<path style="fill:none;stroke:red;stroke-width:1px;stroke-linecap:butt;stroke-linejoin:miter;stroke-opacity:1" d="M 833.734,746.745 840.425,752.6 z" id="boundary" inkscape:connector-curvature="0" />
	<path style="fill:none;stroke:red;stroke-width:1px;stroke-linecap:butt;stroke-linejoin:miter;stroke-opacity:1" d="M 836.243,663.103 842.934,668.958 z" id="boundary" inkscape:connector-curvature="0" />
	<path style="fill:none;stroke:red;stroke-width:1px;stroke-linecap:butt;stroke-linejoin:miter;stroke-opacity:1" d="M 840.425,752.6 847.116,758.455 z" id="boundary" inkscape:connector-curvature="0" />
	<path style="fill:none;stroke:red;stroke-width:1px;stroke-linecap:butt;stroke-linejoin:miter;stroke-opacity:1" d="M 842.934,668.958 849.626,673.976 z" id="boundary" inkscape:connector-curvature="0" />
	<path style="fill:none;stroke:red;stroke-width:1px;stroke-linecap:butt;stroke-linejoin:miter;stroke-opacity:1" d="M 847.116,758.455 854.644,762.637 z" id="boundary" inkscape:connector-curvature="0" />
	<path style="fill:none;stroke:red;stroke-width:1px;stroke-linecap:butt;stroke-linejoin:miter;stroke-opacity:1" d="M 849.626,673.976 856.317,679.831 z" id="boundary" inkscape:connector-curvature="0" />
	<path style="fill:none;stroke:red;stroke-width:1px;stroke-linecap:butt;stroke-linejoin:miter;stroke-opacity:1" d="M 854.644,762.637 861.336,768.492 z" id="boundary" inkscape:connector-curvature="0" />
	<path style="fill:none;stroke:red;stroke-width:1px;stroke-linecap:butt;stroke-linejoin:miter;stroke-opacity:1" d="M 856.317,679.831 863.008,684.85 z" id="boundary" inkscape:connector-curvature="0" />
	<path style="fill:none;stroke:red;stroke-width:1px;stroke-linecap:butt;stroke-linejoin:miter;stroke-opacity:1" d="M 861.336,768.492 868.863,772.675 z" id="boundary" inkscape:connector-curvature="0" />
	<path style="fill:none;stroke:red;stroke-width:1px;stroke-linecap:butt;stroke-linejoin:miter;stroke-opacity:1" d="M 863.008,684.85 869.7,690.705 z" id="boundary" inkscape:connector-curvature="0" />
	<path style="fill:none;stroke:red;stroke-width:1px;stroke-linecap:butt;stroke-linejoin:miter;stroke-opacity:1" d="M 868.863,772.675 875.555,778.53 z" id="boundary" inkscape:connector-curvature="0" />
	<path style="fill:none;stroke:red;stroke-width:1px;stroke-linecap:butt;stroke-linejoin:miter;stroke-opacity:1" d="M 869.7,690.705 876.391,696.56 z" id="boundary" inkscape:connector-curvature="0" />
	<path style="fill:none;stroke:red;stroke-width:1px;stroke-linecap:butt;stroke-linejoin:miter;stroke-opacity:1" d="M 875.555,778.53 882.246,784.384 z" id="boundary" inkscape:connector-curvature="0" />
	<path style="fill:none;stroke:red;stroke-width:1px;stroke-linecap:butt;stroke-linejoin:miter;stroke-opacity:1" d="M 876.391,696.56 883.083,701.578 z" id="boundary" inkscape:connector-curvature="0" />
	<path style="fill:none;stroke:red;stroke-width:1px;stroke-linecap:butt;stroke-linejoin:miter;stroke-opacity:1" d="M 882.246,784.384 888.938,790.239 z" id="boundary" inkscape:connector-curvature="0" />
	<path style="fill:none;stroke:red;stroke-width:1px;stroke-linecap:butt;stroke-linejoin:miter;stroke-opacity:1" d="M 883.083,701.578 889.774,706.597 z" id="boundary" inkscape:connector-curvature="0" />
	<path style="fill:none;stroke:red;stroke-width:1px;stroke-linecap:butt;stroke-linejoin:miter;stroke-opacity:1" d="M 888.938,790.239 895.629,796.094 z" id="boundary" inkscape:connector-curvature="0" />
	<path style="fill:none;stroke:red;stroke-width:1px;stroke-linecap:butt;stroke-linejoin:miter;stroke-opacity:1" d="M 889.774,706.597 896.465,712.452 z" id="boundary" inkscape:connector-curvature="0" />
	<path style="fill:none;stroke:red;stroke-width:1px;stroke-linecap:butt;stroke-linejoin:miter;stroke-opacity:1" d="M 895.629,796.094 902.32,801.113 z" id="boundary" inkscape:connector-curvature="0" />
	<path style="fill:none;stroke:red;stroke-width:1px;stroke-linecap:butt;stroke-linejoin:miter;stroke-opacity:1" d="M 896.465,712.452 903.157,718.307 z" id="boundary" inkscape:connector-curvature="0" />
	<path style="fill:none;stroke:red;stroke-width:1px;stroke-linecap:butt;stroke-linejoin:miter;stroke-opacity:1" d="M 902.32,801.113 909.012,806.132 z" id="boundary" inkscape:connector-curvature="0" />
	<path style="fill:none;stroke:red;stroke-width:1px;stroke-linecap:butt;stroke-linejoin:miter;stroke-opacity:1" d="M 903.157,718.307 909.848,723.325 z" id="boundary" inkscape:connector-curvature="0" />
	<path style="fill:none;stroke:red;stroke-width:1px;stroke-linecap:butt;stroke-linejoin:miter;stroke-opacity:1" d="M 909.012,806.132 915.703,811.987 z" id="boundary" inkscape:connector-curvature="0" />
	<path style="fill:none;stroke:red;stroke-width:1px;stroke-linecap:butt;stroke-linejoin:miter;stroke-opacity:1" d="M 909.848,723.325 916.54,729.18 z" id="boundary" inkscape:connector-curvature="0" />
	<path style="fill:none;stroke:red;stroke-width:1px;stroke-linecap:butt;stroke-linejoin:miter;stroke-opacity:1" d="M 915.703,811.987 922.395,817.005 z" id="boundary" inkscape:connector-curvature="0" />
	<path style="fill:none;stroke:red;stroke-width:1px;stroke-linecap:butt;stroke-linejoin:miter;stroke-opacity:1" d="M 916.54,729.18 923.231,734.199 z" id="boundary" inkscape:connector-curvature="0" />
	<path style="fill:none;stroke:red;stroke-width:1px;stroke-linecap:butt;stroke-linejoin:miter;stroke-opacity:1" d="M 922.395,817.005 929.086,822.86 z" id="boundary" inkscape:connector-curvature="0" />
	<path style="fill:none;stroke:red;stroke-width:1px;stroke-linecap:butt;stroke-linejoin:miter;stroke-opacity:1" d="M 923.231,734.199 929.922,740.054 z" id="boundary" inkscape:connector-curvature="0" />
	<path style="fill:none;stroke:red;stroke-width:1px;stroke-linecap:butt;stroke-linejoin:miter;stroke-opacity:1" d="M 929.086,822.86 935.777,827.879 z" id="boundary" inkscape:connector-curvature="0" />
	<path style="fill:none;stroke:red;stroke-width:1px;stroke-linecap:butt;stroke-linejoin:miter;stroke-opacity:1" d="M 929.922,740.054 936.614,745.073 z" id="boundary" inkscape:connector-curvature="0" />
	<path style="fill:none;stroke:red;stroke-width:1px;stroke-linecap:butt;stroke-linejoin:miter;stroke-opacity:1" d="M 935.777,827.879 942.469,832.897 z" id="boundary" inkscape:connector-curvature="0" />
	<path style="fill:none;stroke:red;stroke-width:1px;stroke-linecap:butt;stroke-linejoin:miter;stroke-opacity:1" d="M 936.614,745.073 943.305,750.091 z" id="boundary" inkscape:connector-curvature="0" />
	<path style="fill:none;stroke:red;stroke-width:1px;stroke-linecap:butt;stroke-linejoin:miter;stroke-opacity:1" d="M 942.469,832.897 959.197,837.079 z" id="boundary" inkscape:connector-curvature="0" />
	<path style="fill:none;stroke:red;stroke-width:1px;stroke-linecap:butt;stroke-linejoin:miter;stroke-opacity:1" d="M 943.305,750.091 949.997,755.946 z" id="boundary" inkscape:connector-curvature="0" />
	<path style="fill:none;stroke:red;stroke-width:1px;stroke-linecap:butt;stroke-linejoin:miter;stroke-opacity:1" d="M 949.997,755.946 956.688,761.801 z" id="boundary" inkscape:connector-curvature="0" />
	<path style="fill:none;stroke:red;stroke-width:1px;stroke-linecap:butt;stroke-linejoin:miter;stroke-opacity:1" d="M 956.688,761.801 963.379,766.82 z" id="boundary" inkscape:connector-curvature="0" />
	<path style="fill:none;stroke:red;stroke-width:1px;stroke-linecap:butt;stroke-linejoin:miter;stroke-opacity:1" d="M 959.197,837.079 967.562,837.916 z" id="boundary" inkscape:connector-curvature="0" />
	<path style="fill:none;stroke:red;stroke-width:1px;stroke-linecap:butt;stroke-linejoin:miter;stroke-opacity:1" d="M 963.379,766.82 970.071,772.675 z" id="boundary" inkscape:connector-curvature="0" />
	<path style="fill:none;stroke:red;stroke-width:1px;stroke-linecap:butt;stroke-linejoin:miter;stroke-opacity:1" d="M 967.562,837.916 975.926,836.243 z" id="boundary" inkscape:connector-curvature="0" />
	<path style="fill:none;stroke:red;stroke-width:1px;stroke-linecap:butt;stroke-linejoin:miter;stroke-opacity:1" d="M 970.071,772.675 976.762,777.693 z" id="boundary" inkscape:connector-curvature="0" />
	<path style="fill:none;stroke:red;stroke-width:1px;stroke-linecap:butt;stroke-linejoin:miter;stroke-opacity:1" d="M 975.926,836.243 983.454,832.061 z" id="boundary" inkscape:connector-curvature="0" />
	<path style="fill:none;stroke:red;stroke-width:1px;stroke-linecap:butt;stroke-linejoin:miter;stroke-opacity:1" d="M 976.762,777.693 983.454,783.548 z" id="boundary" inkscape:connector-curvature="0" />
	<path style="fill:none;stroke:red;stroke-width:1px;stroke-linecap:butt;stroke-linejoin:miter;stroke-opacity:1" d="M 983.454,783.548 989.309,790.239 z" id="boundary" inkscape:connector-curvature="0" />
	<path style="fill:none;stroke:red;stroke-width:1px;stroke-linecap:butt;stroke-linejoin:miter;stroke-opacity:1" d="M 983.454,832.061 990.145,825.369 z" id="boundary" inkscape:connector-curvature="0" />
	<path style="fill:none;stroke:red;stroke-width:1px;stroke-linecap:butt;stroke-linejoin:miter;stroke-opacity:1" d="M 989.309,790.239 994.327,796.931 z" id="boundary" inkscape:connector-curvature="0" />
	<circle cx="4" cy="73.4233" r="4" fill="#0" id="circle0"/>
	<circle cx="4" cy="81.7875" r="4" fill="#0" id="circle1"/>
	<circle cx="4" cy="90.1518" r="4" fill="#0" id="circle2"/>
	<circle cx="5.67285" cy="64.2226" r="4" fill="#0" id="circle3"/>
	<circle cx="5.67285" cy="98.516" r="4" fill="#0" id="circle4"/>
	<circle cx="6.50927" cy="106.88" r="4" fill="#0" id="circle5"/>
	<circle cx="6.50927" cy="115.245" r="4" fill="#0" id="circle6"/>
	<circle cx="8.18212" cy="55.0219" r="4" fill="#0" id="circle7"/>
	<circle cx="8.18212" cy="123.609" r="4" fill="#0" id="circle8"/>
	<circle cx="11.5278" cy="131.973" r="4" fill="#0" id="circle9"/>
	<circle cx="12.3642" cy="45.8212" r="4" fill="#0" id="circle10"/>
	<circle cx="13.2007" cy="140.337" r="4" fill="#0" id="circle11"/>
	<circle cx="16.5464" cy="38.2934" r="4" fill="#0" id="circle12"/>
	<circle cx="17.3828" cy="147.865" r="4" fill="#0" id="circle13"/>
	<circle cx="22.4013" cy="31.602" r="4" fill="#0" id="circle14"/>
	<circle cx="22.4013" cy="154.556" r="4" fill="#0" id="circle15"/>
	<circle cx="25.747" cy="162.921" r="4" fill="#0" id="circle16"/>
	<circle cx="29.0927" cy="24.9106" r="4" fill="#0" id="circle17"/>
	<circle cx="29.0927" cy="171.285" r="4" fill="#0" id="circle18"/>
	<circle cx="34.1113" cy="177.976" r="4" fill="#0" id="circle19"/>
	<circle cx="35.7841" cy="19.8921" r="4" fill="#0" id="circle20"/>
	<circle cx="40.8027" cy="183.831" r="4" fill="#0" id="circle21"/>
	<circle cx="42.4755" cy="14.8735" r="4" fill="#0" id="circle22"/>
	<circle cx="44.9848" cy="191.359" r="4" fill="#0" id="circle23"/>
	<circle cx="49.1669" cy="198.887" r="4" fill="#0" id="circle24"/>
	<circle cx="50.8398" cy="11.5278" r="4" fill="#0" id="circle25"/>
	<circle cx="54.1855" cy="205.578" r="4" fill="#0" id="circle26"/>
	<circle cx="59.204" cy="8.18212" r="4" fill="#0" id="circle27"/>
	<circle cx="60.0405" cy="212.27" r="4" fill="#0" id="circle28"/>
	<circle cx="63.3862" cy="220.634" r="4" fill="#0" id="circle29"/>
	<circle cx="67.5683" cy="5.67285" r="4" fill="#0" id="circle30"/>
	<circle cx="68.4047" cy="227.325" r="4" fill="#0" id="circle31"/>
	<circle cx="74.2597" cy="234.017" r="4" fill="#0" id="circle32"/>
	<circle cx="75.9325" cy="4.83642" r="4" fill="#0" id="circle33"/>
	<circle cx="80.9511" cy="239.872" r="4" fill="#0" id="circle34"/>
	<circle cx="84.2968" cy="4" r="4" fill="#0" id="circle35"/>
	<circle cx="86.8061" cy="246.563" r="4" fill="#0" id="circle36"/>
	<circle cx="92.661" cy="4" r="4" fill="#0" id="circle37"/>
	<circle cx="92.661" cy="253.255" r="4" fill="#0" id="circle38"/>
	<circle cx="98.516" cy="259.946" r="4" fill="#0" id="circle39"/>
	<circle cx="101.025" cy="4.83642" r="4" fill="#0" id="circle40"/>
	<circle cx="105.207" cy="264.965" r="4" fill="#0" id="circle41"/>
	<circle cx="109.39" cy="5.67285" r="4" fill="#0" id="circle42"/>
	<circle cx="111.899" cy="269.983" r="4" fill="#0" id="circle43"/>
	<circle cx="116.917" cy="276.675" r="4" fill="#0" id="circle44"/>
	<circle cx="117.754" cy="6.50927" r="4" fill="#0" id="circle45"/>
	<circle cx="123.609" cy="281.693" r="4" fill="#0" id="circle46"/>
	<circle cx="126.118" cy="8.18212" r="4" fill="#0" id="circle47"/>
	<circle cx="129.464" cy="288.384" r="4" fill="#0" id="circle48"/>
	<circle cx="134.482" cy="10.6914" r="4" fill="#0" id="circle49"/>
	<circle cx="136.155" cy="293.403" r="4" fill="#0" id="circle50"/>
	<circle cx="142.847" cy="14.0371" r="4" fill="#0" id="circle51"/>
	<circle cx="142.847" cy="298.422" r="4" fill="#0" id="circle52"/>
	<circle cx="148.702" cy="305.113" r="4" fill="#0" id="circle53"/>
	<circle cx="151.211" cy="16.5464" r="4" fill="#0" id="circle54"/>
	<circle cx="155.393" cy="310.132" r="4" fill="#0" id="circle55"/>
	<circle cx="159.575" cy="19.8921" r="4" fill="#0" id="circle56"/>
	<circle cx="162.084" cy="315.15" r="4" fill="#0" id="circle57"/>
	<circle cx="167.939" cy="23.2378" r="4" fill="#0" id="circle58"/>
	<circle cx="169.612" cy="319.332" r="4" fill="#0" id="circle59"/>
	<circle cx="176.304" cy="26.5835" r="4" fill="#0" id="circle60"/>
	<circle cx="176.304" cy="324.351" r="4" fill="#0" id="circle61"/>
	<circle cx="183.831" cy="328.533" r="4" fill="#0" id="circle62"/>
	<circle cx="184.668" cy="29.9292" r="4" fill="#0" id="circle63"/>
	<circle cx="192.196" cy="34.1113" r="4" fill="#0" id="circle64"/>
	<circle cx="192.196" cy="331.879" r="4" fill="#0" id="circle65"/>
	<circle cx="198.887" cy="336.897" r="4" fill="#0" id="circle66"/>
	<circle cx="199.723" cy="38.2934" r="4" fill="#0" id="circle67"/>
	<circle cx="206.415" cy="341.079" r="4" fill="#0" id="circle68"/>
	<circle cx="207.251" cy="42.4755" r="4" fill="#0" id="circle69"/>
	<circle cx="213.106" cy="346.098" r="4" fill="#0" id="circle70"/>
	<circle cx="214.779" cy="46.6577" r="4" fill="#0" id="circle71"/>
	<circle cx="220.634" cy="350.28" r="4" fill="#0" id="circle72"/>
	<circle cx="222.307" cy="50.8398" r="4" fill="#0" id="circle73"/>
	<circle cx="228.162" cy="354.462" r="4" fill="#0" id="circle74"/>
	<circle cx="228.998" cy="55.8583" r="4" fill="#0" id="circle75"/>
	<circle cx="235.69" cy="358.644" r="4" fill="#0" id="circle76"/>
	<circle cx="236.526" cy="60.0405" r="4" fill="#0" id="circle77"/>
	<circle cx="242.381" cy="363.663" r="4" fill="#0" id="circle78"/>
	<circle cx="244.054" cy="64.2226" r="4" fill="#0" id="circle79"/>
	<circle cx="249.909" cy="367.845" r="4" fill="#0" id="circle80"/>
	<circle cx="250.745" cy="69.2411" r="4" fill="#0" id="circle81"/>
	<circle cx="257.437" cy="372.027" r="4" fill="#0" id="circle82"/>
	<circle cx="258.273" cy="73.4233" r="4" fill="#0" id="circle83"/>
	<circle cx="264.965" cy="78.4418" r="4" fill="#0" id="circle84"/>
	<circle cx="265.801" cy="375.373" r="4" fill="#0" id="circle85"/>
	<circle cx="271.656" cy="83.4604" r="4" fill="#0" id="circle86"/>
	<circle cx="274.165" cy="378.718" r="4" fill="#0" id="circle87"/>
	<circle cx="278.347" cy="88.4789" r="4" fill="#0" id="circle88"/>
	<circle cx="282.53" cy="382.064" r="4" fill="#0" id="circle89"/>
	<circle cx="285.039" cy="93.4975" r="4" fill="#0" id="circle90"/>
	<circle cx="290.057" cy="386.246" r="4" fill="#0" id="circle91"/>
	<circle cx="291.73" cy="98.516" r="4" fill="#0" id="circle92"/>
	<circle cx="298.422" cy="103.535" r="4" fill="#0" id="circle93"/>
	<circle cx="298.422" cy="387.083" r="4" fill="#0" id="circle94"/>
	<circle cx="304.277" cy="110.226" r="4" fill="#0" id="circle95"/>
	<circle cx="306.786" cy="388.755" r="4" fill="#0" id="circle96"/>
	<circle cx="310.968" cy="115.245" r="4" fill="#0" id="circle97"/>
	<circle cx="313.477" cy="393.774" r="4" fill="#0" id="circle98"/>
	<circle cx="317.659" cy="120.263" r="4" fill="#0" id="circle99"/>
	<circle cx="321.005" cy="397.956" r="4" fill="#0" id="circle100"/>
	<circle cx="323.514" cy="126.954" r="4" fill="#0" id="circle101"/>
	<circle cx="329.369" cy="400.465" r="4" fill="#0" id="circle102"/>
	<circle cx="330.206" cy="131.973" r="4" fill="#0" id="circle103"/>
	<circle cx="336.061" cy="138.664" r="4" fill="#0" id="circle104"/>
	<circle cx="337.734" cy="403.811" r="4" fill="#0" id="circle105"/>
	<circle cx="342.752" cy="144.519" r="4" fill="#0" id="circle106"/>
	<circle cx="346.098" cy="405.484" r="4" fill="#0" id="circle107"/>
	<circle cx="348.607" cy="151.211" r="4" fill="#0" id="circle108"/>
	<circle cx="352.789" cy="410.503" r="4" fill="#0" id="circle109"/>
	<circle cx="354.462" cy="157.902" r="4" fill="#0" id="circle110"/>
	<circle cx="361.153" cy="163.757" r="4" fill="#0" id="circle111"/>
	<circle cx="361.153" cy="412.175" r="4" fill="#0" id="circle112"/>
	<circle cx="366.172" cy="170.449" r="4" fill="#0" id="circle113"/>
	<circle cx="369.518" cy="414.685" r="4" fill="#0" id="circle114"/>
	<circle cx="372.027" cy="177.14" r="4" fill="#0" id="circle115"/>
	<circle cx="377.882" cy="183.831" r="4" fill="#0" id="circle116"/>
	<circle cx="377.882" cy="417.194" r="4" fill="#0" id="circle117"/>
	<circle cx="382.901" cy="190.523" r="4" fill="#0" id="circle118"/>
	<circle cx="386.246" cy="420.54" r="4" fill="#0" id="circle119"/>
	<circle cx="388.755" cy="197.214" r="4" fill="#0" id="circle120"/>
	<circle cx="393.774" cy="203.906" r="4" fill="#0" id="circle121"/>
	<circle cx="394.61" cy="423.049" r="4" fill="#0" id="circle122"/>
	<circle cx="398.793" cy="210.597" r="4" fill="#0" id="circle123"/>
	<circle cx="402.975" cy="426.395" r="4" fill="#0" id="circle124"/>
	<circle cx="403.811" cy="217.288" r="4" fill="#0" id="circle125"/>
	<circle cx="408.83" cy="223.98" r="4" fill="#0" id="circle126"/>
	<circle cx="409.666" cy="431.413" r="4" fill="#0" id="circle127"/>
	<circle cx="413.848" cy="230.671" r="4" fill="#0" id="circle128"/>
	<circle cx="418.03" cy="238.199" r="4" fill="#0" id="circle129"/>
	<circle cx="418.03" cy="434.759" r="4" fill="#0" id="circle130"/>
	<circle cx="423.049" cy="244.89" r="4" fill="#0" id="circle131"/>
	<circle cx="426.395" cy="438.105" r="4" fill="#0" id="circle132"/>
	<circle cx="427.231" cy="252.418" r="4" fill="#0" id="circle133"/>
	<circle cx="432.25" cy="259.11" r="4" fill="#0" id="circle134"/>
	<circle cx="433.922" cy="442.287" r="4" fill="#0" id="circle135"/>
	<circle cx="436.432" cy="266.637" r="4" fill="#0" id="circle136"/>
	<circle cx="440.614" cy="274.165" r="4" fill="#0" id="circle137"/>
	<circle cx="442.287" cy="443.96" r="4" fill="#0" id="circle138"/>
	<circle cx="444.796" cy="281.693" r="4" fill="#0" id="circle139"/>
	<circle cx="448.978" cy="289.221" r="4" fill="#0" id="circle140"/>
	<circle cx="449.815" cy="448.142" r="4" fill="#0" id="circle141"/>
	<circle cx="453.997" cy="295.912" r="4" fill="#0" id="circle142"/>
	<circle cx="457.342" cy="452.324" r="4" fill="#0" id="circle143"/>
	<circle cx="458.179" cy="303.44" r="4" fill="#0" id="circle144"/>
	<circle cx="462.361" cy="310.968" r="4" fill="#0" id="circle145"/>
	<circle cx="464.87" cy="456.506" r="4" fill="#0" id="circle146"/>
	<circle cx="466.543" cy="318.496" r="4" fill="#0" id="circle147"/>
	<circle cx="470.725" cy="326.024" r="4" fill="#0" id="circle148"/>
	<circle cx="472.398" cy="460.688" r="4" fill="#0" id="circle149"/>
	<circle cx="475.744" cy="332.715" r="4" fill="#0" id="circle150"/>
	<circle cx="479.089" cy="465.707" r="4" fill="#0" id="circle151"/>
	<circle cx="479.926" cy="340.243" r="4" fill="#0" id="circle152"/>
	<circle cx="484.108" cy="347.771" r="4" fill="#0" id="circle153"/>
	<circle cx="487.454" cy="469.052" r="4" fill="#0" id="circle154"/>
	<circle cx="489.126" cy="354.462" r="4" fill="#0" id="circle155"/>
	<circle cx="493.309" cy="361.99" r="4" fill="#0" id="circle156"/>
	<circle cx="494.145" cy="474.071" r="4" fill="#0" id="circle157"/>
	<circle cx="498.327" cy="368.681" r="4" fill="#0" id="circle158"/>
	<circle cx="500.836" cy="479.089" r="4" fill="#0" id="circle159"/>
	<circle cx="503.346" cy="375.373" r="4" fill="#0" id="circle160"/>
	<circle cx="508.364" cy="382.064" r="4" fill="#0" id="circle161"/>
	<circle cx="508.364" cy="483.272" r="4" fill="#0" id="circle162"/>
	<circle cx="514.219" cy="388.755" r="4" fill="#0" id="circle163"/>
	<circle cx="515.892" cy="487.454" r="4" fill="#0" id="circle164"/>
	<circle cx="520.074" cy="395.447" r="4" fill="#0" id="circle165"/>
	<circle cx="522.583" cy="492.472" r="4" fill="#0" id="circle166"/>
	<circle cx="525.929" cy="402.138" r="4" fill="#0" id="circle167"/>
	<circle cx="529.275" cy="498.327" r="4" fill="#0" id="circle168"/>
	<circle cx="531.784" cy="408.83" r="4" fill="#0" id="circle169"/>
	<circle cx="536.803" cy="502.509" r="4" fill="#0" id="circle170"/>
	<circle cx="537.639" cy="415.521" r="4" fill="#0" id="circle171"/>
	<circle cx="542.658" cy="509.201" r="4" fill="#0" id="circle172"/>
	<circle cx="544.331" cy="421.376" r="4" fill="#0" id="circle173"/>
	<circle cx="550.185" cy="513.383" r="4" fill="#0" id="circle174"/>
	<circle cx="551.022" cy="427.231" r="4" fill="#0" id="circle175"/>
	<circle cx="556.877" cy="433.922" r="4" fill="#0" id="circle176"/>
	<circle cx="556.877" cy="519.238" r="4" fill="#0" id="circle177"/>
	<circle cx="563.568" cy="438.941" r="4" fill="#0" id="circle178"/>
	<circle cx="563.568" cy="525.093" r="4" fill="#0" id="circle179"/>
	<circle cx="569.423" cy="445.632" r="4" fill="#0" id="circle180"/>
	<circle cx="569.423" cy="531.784" r="4" fill="#0" id="circle181"/>
	<circle cx="576.115" cy="450.651" r="4" fill="#0" id="circle182"/>
	<circle cx="576.115" cy="536.803" r="4" fill="#0" id="circle183"/>
	<circle cx="582.806" cy="456.506" r="4" fill="#0" id="circle184"/>
	<circle cx="583.642" cy="540.985" r="4" fill="#0" id="circle185"/>
	<circle cx="588.661" cy="547.676" r="4" fill="#0" id="circle186"/>
	<circle cx="589.497" cy="461.524" r="4" fill="#0" id="circle187"/>
	<circle cx="595.352" cy="552.695" r="4" fill="#0" id="circle188"/>
	<circle cx="596.189" cy="467.379" r="4" fill="#0" id="circle189"/>
	<circle cx="602.044" cy="557.713" r="4" fill="#0" id="circle190"/>
	<circle cx="602.88" cy="473.234" r="4" fill="#0" id="circle191"/>
	<circle cx="609.572" cy="478.253" r="4" fill="#0" id="circle192"/>
	<circle cx="609.572" cy="561.895" r="4" fill="#0" id="circle193"/>
	<circle cx="616.263" cy="483.272" r="4" fill="#0" id="circle194"/>
	<circle cx="616.263" cy="566.914" r="4" fill="#0" id="circle195"/>
	<circle cx="622.118" cy="489.963" r="4" fill="#0" id="circle196"/>
	<circle cx="622.954" cy="571.933" r="4" fill="#0" id="circle197"/>
	<circle cx="628.809" cy="494.981" r="4" fill="#0" id="circle198"/>
	<circle cx="629.646" cy="576.951" r="4" fill="#0" id="circle199"/>
	<circle cx="635.501" cy="500" r="4" fill="#0" id="circle200"/>
	<circle cx="635.501" cy="583.642" r="4" fill="#0" id="circle201"/>
	<circle cx="642.192" cy="505.019" r="4" fill="#0" id="circle202"/>
	<circle cx="642.192" cy="588.661" r="4" fill="#0" id="circle203"/>
	<circle cx="648.047" cy="595.352" r="4" fill="#0" id="circle204"/>
	<circle cx="648.884" cy="510.874" r="4" fill="#0" id="circle205"/>
	<circle cx="654.739" cy="600.371" r="4" fill="#0" id="circle206"/>
	<circle cx="655.575" cy="515.892" r="4" fill="#0" id="circle207"/>
	<circle cx="661.43" cy="605.39" r="4" fill="#0" id="circle208"/>
	<circle cx="662.266" cy="520.911" r="4" fill="#0" id="circle209"/>
	<circle cx="667.285" cy="612.081" r="4" fill="#0" id="circle210"/>
	<circle cx="668.958" cy="526.766" r="4" fill="#0" id="circle211"/>
	<circle cx="674.813" cy="616.263" r="4" fill="#0" id="circle212"/>
	<circle cx="675.649" cy="532.621" r="4" fill="#0" id="circle213"/>
	<circle cx="682.341" cy="537.639" r="4" fill="#0" id="circle214"/>
	<circle cx="682.341" cy="620.445" r="4" fill="#0" id="circle215"/>
	<circle cx="689.032" cy="542.658" r="4" fill="#0" id="circle216"/>
	<circle cx="689.032" cy="625.464" r="4" fill="#0" id="circle217"/>
	<circle cx="694.887" cy="632.155" r="4" fill="#0" id="circle218"/>
	<circle cx="695.723" cy="548.513" r="4" fill="#0" id="circle219"/>
	<circle cx="701.578" cy="637.174" r="4" fill="#0" id="circle220"/>
	<circle cx="702.415" cy="553.531" r="4" fill="#0" id="circle221"/>
	<circle cx="708.27" cy="642.192" r="4" fill="#0" id="circle222"/>
	<circle cx="709.106" cy="559.386" r="4" fill="#0" id="circle223"/>
	<circle cx="714.961" cy="647.211" r="4" fill="#0" id="circle224"/>
	<circle cx="715.798" cy="564.405" r="4" fill="#0" id="circle225"/>
	<circle cx="721.653" cy="653.066" r="4" fill="#0" id="circle226"/>
	<circle cx="722.489" cy="570.26" r="4" fill="#0" id="circle227"/>
	<circle cx="728.344" cy="658.084" r="4" fill="#0" id="circle228"/>
	<circle cx="729.18" cy="576.115" r="4" fill="#0" id="circle229"/>
	<circle cx="734.199" cy="664.776" r="4" fill="#0" id="circle230"/>
	<circle cx="735.872" cy="581.133" r="4" fill="#0" id="circle231"/>
	<circle cx="740.89" cy="669.794" r="4" fill="#0" id="circle232"/>
	<circle cx="742.563" cy="586.988" r="4" fill="#0" id="circle233"/>
	<circle cx="747.582" cy="675.649" r="4" fill="#0" id="circle234"/>
	<circle cx="749.255" cy="592.007" r="4" fill="#0" id="circle235"/>
	<circle cx="754.273" cy="681.504" r="4" fill="#0" id="circle236"/>
	<circle cx="755.946" cy="597.025" r="4" fill="#0" id="circle237"/>
	<circle cx="760.965" cy="687.359" r="4" fill="#0" id="circle238"/>
	<circle cx="762.637" cy="602.88" r="4" fill="#0" id="circle239"/>
	<circle cx="767.656" cy="692.378" r="4" fill="#0" id="circle240"/>
	<circle cx="769.329" cy="608.735" r="4" fill="#0" id="circle241"/>
	<circle cx="774.347" cy="697.396" r="4" fill="#0" id="circle242"/>
	<circle cx="776.02" cy="613.754" r="4" fill="#0" id="circle243"/>
	<circle cx="781.039" cy="702.415" r="4" fill="#0" id="circle244"/>
	<circle cx="782.712" cy="618.772" r="4" fill="#0" id="circle245"/>
	<circle cx="787.73" cy="707.433" r="4" fill="#0" id="circle246"/>
	<circle cx="789.403" cy="624.627" r="4" fill="#0" id="circle247"/>
	<circle cx="794.422" cy="712.452" r="4" fill="#0" id="circle248"/>
	<circle cx="796.094" cy="630.482" r="4" fill="#0" id="circle249"/>
	<circle cx="801.113" cy="717.47" r="4" fill="#0" id="circle250"/>
	<circle cx="802.786" cy="636.337" r="4" fill="#0" id="circle251"/>
	<circle cx="807.804" cy="723.325" r="4" fill="#0" id="circle252"/>
	<circle cx="809.477" cy="641.356" r="4" fill="#0" id="circle253"/>
	<circle cx="814.496" cy="729.18" r="4" fill="#0" id="circle254"/>
	<circle cx="816.169" cy="646.374" r="4" fill="#0" id="circle255"/>
	<circle cx="821.187" cy="734.199" r="4" fill="#0" id="circle256"/>
	<circle cx="822.86" cy="652.229" r="4" fill="#0" id="circle257"/>
	<circle cx="827.879" cy="740.054" r="4" fill="#0" id="circle258"/>
	<circle cx="829.551" cy="658.084" r="4" fill="#0" id="circle259"/>
	<circle cx="833.734" cy="746.745" r="4" fill="#0" id="circle260"/>
	<circle cx="836.243" cy="663.103" r="4" fill="#0" id="circle261"/>
	<circle cx="840.425" cy="752.6" r="4" fill="#0" id="circle262"/>
	<circle cx="842.934" cy="668.958" r="4" fill="#0" id="circle263"/>
	<circle cx="847.116" cy="758.455" r="4" fill="#0" id="circle264"/>
	<circle cx="849.626" cy="673.976" r="4" fill="#0" id="circle265"/>
	<circle cx="854.644" cy="762.637" r="4" fill="#0" id="circle266"/>
	<circle cx="856.317" cy="679.831" r="4" fill="#0" id="circle267"/>
	<circle cx="861.336" cy="768.492" r="4" fill="#0" id="circle268"/>
	<circle cx="863.008" cy="684.85" r="4" fill="#0" id="circle269"/>
	<circle cx="868.863" cy="772.675" r="4" fill="#0" id="circle270"/>
	<circle cx="869.7" cy="690.705" r="4" fill="#0" id="circle271"/>
	<circle cx="875.555" cy="778.53" r="4" fill="#0" id="circle272"/>
	<circle cx="876.391" cy="696.56" r="4" fill="#0" id="circle273"/>
	<circle cx="882.246" cy="784.384" r="4" fill="#0" id="circle274"/>
	<circle cx="883.083" cy="701.578" r="4" fill="#0" id="circle275"/>
	<circle cx="888.938" cy="790.239" r="4" fill="#0" id="circle276"/>
	<circle cx="889.774" cy="706.597" r="4" fill="#0" id="circle277"/>
	<circle cx="895.629" cy="796.094" r="4" fill="#0" id="circle278"/>
	<circle cx="896.465" cy="712.452" r="4" fill="#0" id="circle279"/>
	<circle cx="902.32" cy="801.113" r="4" fill="#0" id="circle280"/>
	<circle cx="903.157" cy="718.307" r="4" fill="#0" id="circle281"/>
	<circle cx="909.012" cy="806.132" r="4" fill="#0" id="circle282"/>
	<circle cx="909.848" cy="723.325" r="4" fill="#0" id="circle283"/>
	<circle cx="915.703" cy="811.987" r="4" fill="#0" id="circle284"/>
	<circle cx="916.54" cy="729.18" r="4" fill="#0" id="circle285"/>
	<circle cx="922.395" cy="817.005" r="4" fill="#0" id="circle286"/>
	<circle cx="923.231" cy="734.199" r="4" fill="#0" id="circle287"/>
	<circle cx="929.086" cy="822.86" r="4" fill="#0" id="circle288"/>
	<circle cx="929.922" cy="740.054" r="4" fill="#0" id="circle289"/>
	<circle cx="935.777" cy="827.879" r="4" fill="#0" id="circle290"/>
	<circle cx="936.614" cy="745.073" r="4" fill="#0" id="circle291"/>
	<circle cx="942.469" cy="832.897" r="4" fill="#0" id="circle292"/>
	<circle cx="943.305" cy="750.091" r="4" fill="#0" id="circle293"/>
	<circle cx="949.997" cy="755.946" r="4" fill="#0" id="circle294"/>
	<circle cx="950.833" cy="835.406" r="4" fill="#0" id="circle295"/>
	<circle cx="956.688" cy="761.801" r="4" fill="#0" id="circle296"/>
	<circle cx="959.197" cy="837.079" r="4" fill="#0" id="circle297"/>
	<circle cx="963.379" cy="766.82" r="4" fill="#0" id="circle298"/>
	<circle cx="967.562" cy="837.916" r="4" fill="#0" id="circle299"/>
	<circle cx="970.071" cy="772.675" r="4" fill="#0" id="circle300"/>
	<circle cx="975.926" cy="836.243" r="4" fill="#0" id="circle301"/>
	<circle cx="976.762" cy="777.693" r="4" fill="#0" id="circle302"/>
	<circle cx="983.454" cy="783.548" r="4" fill="#0" id="circle303"/>
	<circle cx="983.454" cy="832.061" r="4" fill="#0" id="circle304"/>
	<circle cx="989.309" cy="790.239" r="4" fill="#0" id="circle305"/>
	<circle cx="990.145" cy="825.369" r="4" fill="#0" id="circle306"/>
	<circle cx="994.327" cy="796.931" r="4" fill="#0" id="circle307"/>
	<circle cx="994.327" cy="817.841" r="4" fill="#0" id="circle308"/>
	<circle cx="996" cy="805.295" r="4" fill="#0" id="circle309"/>
	</g>
</svg>