<?xml version="1.0" encoding="UTF-8" standalone="no"?>
<!-- Created with CurveBenchmark -->
<svg
	xmlns:dc="http://purl.org/dc/elements/1.1/"
	xmlns:cc="http://creativecommons.org/ns#"
	xmlns:rdf="http://www.w3.org/1999/02/22-rdf-syntax-ns#"
	xmlns:svg="http://www.w3.org/2000/svg"
	xmlns="http://www.w3.org/2000/svg"
	xmlns:sodipodi="http://sodipodi.sourceforge.net/DTD/sodipodi-0.dtd"
	xmlns:inkscape="http://www.inkscape.org/namespaces/inkscape"
	width="1000"
	height="1000"
	id="svg2"
	version="1.1"
	sodipodi:docname="manifold/discur-kk0742.png.txt">
<defs
	id="defs4" />
<metadata
	id="metadata7">
	<rdf:RDF>
		<cc:Work
			rdf:about="">
			<dc:format>image/svg+xml</dc:format>
			<dc:type
				rdf:resource="http://purl.org/dc/dcmitype/StillImage" />
			<dc:title></dc:title>
		</cc:Work>
	</rdf:RDF>
</metadata>
<g
	inkscape:label="Layer 1"
	inkscape:groupmode="layer"
	id="layer1">
	<path style="fill:none;stroke:red;stroke-width:1px;stroke-linecap:butt;stroke-linejoin:miter;stroke-opacity:1" d="M 4,291.583 16.9251,278.658 z" id="boundary" inkscape:connector-curvature="0" />
	<path style="fill:none;stroke:red;stroke-width:1px;stroke-linecap:butt;stroke-linejoin:miter;stroke-opacity:1" d="M 4,291.583 16.9251,302.893 z" id="boundary" inkscape:connector-curvature="0" />
	<path style="fill:none;stroke:red;stroke-width:1px;stroke-linecap:butt;stroke-linejoin:miter;stroke-opacity:1" d="M 16.9251,278.658 25.0033,262.502 z" id="boundary" inkscape:connector-curvature="0" />
	<path style="fill:none;stroke:red;stroke-width:1px;stroke-linecap:butt;stroke-linejoin:miter;stroke-opacity:1" d="M 16.9251,302.893 28.2345,315.818 z" id="boundary" inkscape:connector-curvature="0" />
	<path style="fill:none;stroke:red;stroke-width:1px;stroke-linecap:butt;stroke-linejoin:miter;stroke-opacity:1" d="M 25.0033,262.502 41.1596,254.423 z" id="boundary" inkscape:connector-curvature="0" />
	<path style="fill:none;stroke:red;stroke-width:1px;stroke-linecap:butt;stroke-linejoin:miter;stroke-opacity:1" d="M 28.2345,315.818 41.1596,327.127 z" id="boundary" inkscape:connector-curvature="0" />
	<path style="fill:none;stroke:red;stroke-width:1px;stroke-linecap:butt;stroke-linejoin:miter;stroke-opacity:1" d="M 41.1596,254.423 54.0847,241.498 z" id="boundary" inkscape:connector-curvature="0" />
	<path style="fill:none;stroke:red;stroke-width:1px;stroke-linecap:butt;stroke-linejoin:miter;stroke-opacity:1" d="M 41.1596,327.127 52.4691,340.052 z" id="boundary" inkscape:connector-curvature="0" />
	<path style="fill:none;stroke:red;stroke-width:1px;stroke-linecap:butt;stroke-linejoin:miter;stroke-opacity:1" d="M 52.4691,340.052 65.3941,351.362 z" id="boundary" inkscape:connector-curvature="0" />
	<path style="fill:none;stroke:red;stroke-width:1px;stroke-linecap:butt;stroke-linejoin:miter;stroke-opacity:1" d="M 54.0847,241.498 67.0098,230.189 z" id="boundary" inkscape:connector-curvature="0" />
	<path style="fill:none;stroke:red;stroke-width:1px;stroke-linecap:butt;stroke-linejoin:miter;stroke-opacity:1" d="M 65.3941,351.362 76.7036,364.287 z" id="boundary" inkscape:connector-curvature="0" />
	<path style="fill:none;stroke:red;stroke-width:1px;stroke-linecap:butt;stroke-linejoin:miter;stroke-opacity:1" d="M 67.0098,230.189 78.3192,217.264 z" id="boundary" inkscape:connector-curvature="0" />
	<path style="fill:none;stroke:red;stroke-width:1px;stroke-linecap:butt;stroke-linejoin:miter;stroke-opacity:1" d="M 76.7036,364.287 89.6287,375.596 z" id="boundary" inkscape:connector-curvature="0" />
	<path style="fill:none;stroke:red;stroke-width:1px;stroke-linecap:butt;stroke-linejoin:miter;stroke-opacity:1" d="M 78.3192,217.264 91.2443,205.954 z" id="boundary" inkscape:connector-curvature="0" />
	<path style="fill:none;stroke:red;stroke-width:1px;stroke-linecap:butt;stroke-linejoin:miter;stroke-opacity:1" d="M 89.6287,375.596 100.938,388.521 z" id="boundary" inkscape:connector-curvature="0" />
	<path style="fill:none;stroke:red;stroke-width:1px;stroke-linecap:butt;stroke-linejoin:miter;stroke-opacity:1" d="M 91.2443,205.954 102.554,193.029 z" id="boundary" inkscape:connector-curvature="0" />
	<path style="fill:none;stroke:red;stroke-width:1px;stroke-linecap:butt;stroke-linejoin:miter;stroke-opacity:1" d="M 100.938,388.521 113.863,399.831 z" id="boundary" inkscape:connector-curvature="0" />
	<path style="fill:none;stroke:red;stroke-width:1px;stroke-linecap:butt;stroke-linejoin:miter;stroke-opacity:1" d="M 102.554,193.029 118.71,184.951 z" id="boundary" inkscape:connector-curvature="0" />
	<path style="fill:none;stroke:red;stroke-width:1px;stroke-linecap:butt;stroke-linejoin:miter;stroke-opacity:1" d="M 113.863,399.831 125.173,412.756 z" id="boundary" inkscape:connector-curvature="0" />
	<path style="fill:none;stroke:red;stroke-width:1px;stroke-linecap:butt;stroke-linejoin:miter;stroke-opacity:1" d="M 118.71,184.951 134.866,176.873 z" id="boundary" inkscape:connector-curvature="0" />
	<path style="fill:none;stroke:red;stroke-width:1px;stroke-linecap:butt;stroke-linejoin:miter;stroke-opacity:1" d="M 125.173,412.756 138.098,424.065 z" id="boundary" inkscape:connector-curvature="0" />
	<path style="fill:none;stroke:red;stroke-width:1px;stroke-linecap:butt;stroke-linejoin:miter;stroke-opacity:1" d="M 134.866,176.873 147.792,165.564 z" id="boundary" inkscape:connector-curvature="0" />
	<path style="fill:none;stroke:red;stroke-width:1px;stroke-linecap:butt;stroke-linejoin:miter;stroke-opacity:1" d="M 138.098,424.065 149.407,436.99 z" id="boundary" inkscape:connector-curvature="0" />
	<path style="fill:none;stroke:red;stroke-width:1px;stroke-linecap:butt;stroke-linejoin:miter;stroke-opacity:1" d="M 147.792,165.564 159.101,152.638 z" id="boundary" inkscape:connector-curvature="0" />
	<path style="fill:none;stroke:red;stroke-width:1px;stroke-linecap:butt;stroke-linejoin:miter;stroke-opacity:1" d="M 149.407,436.99 162.332,448.3 z" id="boundary" inkscape:connector-curvature="0" />
	<path style="fill:none;stroke:red;stroke-width:1px;stroke-linecap:butt;stroke-linejoin:miter;stroke-opacity:1" d="M 159.101,152.638 172.026,141.329 z" id="boundary" inkscape:connector-curvature="0" />
	<path style="fill:none;stroke:red;stroke-width:1px;stroke-linecap:butt;stroke-linejoin:miter;stroke-opacity:1" d="M 162.332,448.3 176.873,456.378 z" id="boundary" inkscape:connector-curvature="0" />
	<path style="fill:none;stroke:red;stroke-width:1px;stroke-linecap:butt;stroke-linejoin:miter;stroke-opacity:1" d="M 172.026,141.329 186.567,133.251 z" id="boundary" inkscape:connector-curvature="0" />
	<path style="fill:none;stroke:red;stroke-width:1px;stroke-linecap:butt;stroke-linejoin:miter;stroke-opacity:1" d="M 176.873,456.378 184.951,470.919 z" id="boundary" inkscape:connector-curvature="0" />
	<path style="fill:none;stroke:red;stroke-width:1px;stroke-linecap:butt;stroke-linejoin:miter;stroke-opacity:1" d="M 184.951,470.919 197.876,482.228 z" id="boundary" inkscape:connector-curvature="0" />
	<path style="fill:none;stroke:red;stroke-width:1px;stroke-linecap:butt;stroke-linejoin:miter;stroke-opacity:1" d="M 186.567,133.251 199.492,120.326 z" id="boundary" inkscape:connector-curvature="0" />
	<path style="fill:none;stroke:red;stroke-width:1px;stroke-linecap:butt;stroke-linejoin:miter;stroke-opacity:1" d="M 197.876,482.228 207.57,495.153 z" id="boundary" inkscape:connector-curvature="0" />
	<path style="fill:none;stroke:red;stroke-width:1px;stroke-linecap:butt;stroke-linejoin:miter;stroke-opacity:1" d="M 199.492,120.326 212.417,109.016 z" id="boundary" inkscape:connector-curvature="0" />
	<path style="fill:none;stroke:red;stroke-width:1px;stroke-linecap:butt;stroke-linejoin:miter;stroke-opacity:1" d="M 207.57,495.153 222.111,503.231 z" id="boundary" inkscape:connector-curvature="0" />
	<path style="fill:none;stroke:red;stroke-width:1px;stroke-linecap:butt;stroke-linejoin:miter;stroke-opacity:1" d="M 212.417,109.016 223.726,96.0912 z" id="boundary" inkscape:connector-curvature="0" />
	<path style="fill:none;stroke:red;stroke-width:1px;stroke-linecap:butt;stroke-linejoin:miter;stroke-opacity:1" d="M 222.111,503.231 230.189,517.772 z" id="boundary" inkscape:connector-curvature="0" />
	<path style="fill:none;stroke:red;stroke-width:1px;stroke-linecap:butt;stroke-linejoin:miter;stroke-opacity:1" d="M 223.726,96.0912 236.651,84.7818 z" id="boundary" inkscape:connector-curvature="0" />
	<path style="fill:none;stroke:red;stroke-width:1px;stroke-linecap:butt;stroke-linejoin:miter;stroke-opacity:1" d="M 230.189,517.772 243.114,529.081 z" id="boundary" inkscape:connector-curvature="0" />
	<path style="fill:none;stroke:red;stroke-width:1px;stroke-linecap:butt;stroke-linejoin:miter;stroke-opacity:1" d="M 236.651,84.7818 243.114,68.6254 z" id="boundary" inkscape:connector-curvature="0" />
	<path style="fill:none;stroke:red;stroke-width:1px;stroke-linecap:butt;stroke-linejoin:miter;stroke-opacity:1" d="M 243.114,68.6254 256.039,55.7003 z" id="boundary" inkscape:connector-curvature="0" />
	<path style="fill:none;stroke:red;stroke-width:1px;stroke-linecap:butt;stroke-linejoin:miter;stroke-opacity:1" d="M 243.114,529.081 254.423,542.007 z" id="boundary" inkscape:connector-curvature="0" />
	<path style="fill:none;stroke:red;stroke-width:1px;stroke-linecap:butt;stroke-linejoin:miter;stroke-opacity:1" d="M 254.423,542.007 267.349,553.316 z" id="boundary" inkscape:connector-curvature="0" />
	<path style="fill:none;stroke:red;stroke-width:1px;stroke-linecap:butt;stroke-linejoin:miter;stroke-opacity:1" d="M 256.039,55.7003 272.195,47.6221 z" id="boundary" inkscape:connector-curvature="0" />
	<path style="fill:none;stroke:red;stroke-width:1px;stroke-linecap:butt;stroke-linejoin:miter;stroke-opacity:1" d="M 267.349,553.316 280.274,563.01 z" id="boundary" inkscape:connector-curvature="0" />
	<path style="fill:none;stroke:red;stroke-width:1px;stroke-linecap:butt;stroke-linejoin:miter;stroke-opacity:1" d="M 272.195,47.6221 285.121,36.3127 z" id="boundary" inkscape:connector-curvature="0" />
	<path style="fill:none;stroke:red;stroke-width:1px;stroke-linecap:butt;stroke-linejoin:miter;stroke-opacity:1" d="M 280.274,563.01 294.814,571.088 z" id="boundary" inkscape:connector-curvature="0" />
	<path style="fill:none;stroke:red;stroke-width:1px;stroke-linecap:butt;stroke-linejoin:miter;stroke-opacity:1" d="M 285.121,36.3127 299.661,28.2345 z" id="boundary" inkscape:connector-curvature="0" />
	<path style="fill:none;stroke:red;stroke-width:1px;stroke-linecap:butt;stroke-linejoin:miter;stroke-opacity:1" d="M 294.814,571.088 309.355,579.166 z" id="boundary" inkscape:connector-curvature="0" />
	<path style="fill:none;stroke:red;stroke-width:1px;stroke-linecap:butt;stroke-linejoin:miter;stroke-opacity:1" d="M 299.661,28.2345 312.586,15.3094 z" id="boundary" inkscape:connector-curvature="0" />
	<path style="fill:none;stroke:red;stroke-width:1px;stroke-linecap:butt;stroke-linejoin:miter;stroke-opacity:1" d="M 309.355,579.166 323.896,587.244 z" id="boundary" inkscape:connector-curvature="0" />
	<path style="fill:none;stroke:red;stroke-width:1px;stroke-linecap:butt;stroke-linejoin:miter;stroke-opacity:1" d="M 312.586,15.3094 328.743,7.23127 z" id="boundary" inkscape:connector-curvature="0" />
	<path style="fill:none;stroke:red;stroke-width:1px;stroke-linecap:butt;stroke-linejoin:miter;stroke-opacity:1" d="M 323.896,587.244 340.052,587.244 z" id="boundary" inkscape:connector-curvature="0" />
	<path style="fill:none;stroke:red;stroke-width:1px;stroke-linecap:butt;stroke-linejoin:miter;stroke-opacity:1" d="M 328.743,7.23127 344.899,4 z" id="boundary" inkscape:connector-curvature="0" />
	<path style="fill:none;stroke:red;stroke-width:1px;stroke-linecap:butt;stroke-linejoin:miter;stroke-opacity:1" d="M 340.052,587.244 356.208,585.629 z" id="boundary" inkscape:connector-curvature="0" />
	<path style="fill:none;stroke:red;stroke-width:1px;stroke-linecap:butt;stroke-linejoin:miter;stroke-opacity:1" d="M 344.899,4 361.055,4 z" id="boundary" inkscape:connector-curvature="0" />
	<path style="fill:none;stroke:red;stroke-width:1px;stroke-linecap:butt;stroke-linejoin:miter;stroke-opacity:1" d="M 356.208,585.629 372.365,577.55 z" id="boundary" inkscape:connector-curvature="0" />
	<path style="fill:none;stroke:red;stroke-width:1px;stroke-linecap:butt;stroke-linejoin:miter;stroke-opacity:1" d="M 361.055,4 375.596,12.0782 z" id="boundary" inkscape:connector-curvature="0" />
	<path style="fill:none;stroke:red;stroke-width:1px;stroke-linecap:butt;stroke-linejoin:miter;stroke-opacity:1" d="M 372.365,577.55 385.29,563.01 z" id="boundary" inkscape:connector-curvature="0" />
	<path style="fill:none;stroke:red;stroke-width:1px;stroke-linecap:butt;stroke-linejoin:miter;stroke-opacity:1" d="M 375.596,12.0782 390.137,20.1564 z" id="boundary" inkscape:connector-curvature="0" />
	<path style="fill:none;stroke:red;stroke-width:1px;stroke-linecap:butt;stroke-linejoin:miter;stroke-opacity:1" d="M 385.29,563.01 401.446,554.932 z" id="boundary" inkscape:connector-curvature="0" />
	<path style="fill:none;stroke:red;stroke-width:1px;stroke-linecap:butt;stroke-linejoin:miter;stroke-opacity:1" d="M 390.137,20.1564 404.678,28.2345 z" id="boundary" inkscape:connector-curvature="0" />
	<path style="fill:none;stroke:red;stroke-width:1px;stroke-linecap:butt;stroke-linejoin:miter;stroke-opacity:1" d="M 401.446,554.932 409.524,538.775 z" id="boundary" inkscape:connector-curvature="0" />
	<path style="fill:none;stroke:red;stroke-width:1px;stroke-linecap:butt;stroke-linejoin:miter;stroke-opacity:1" d="M 404.678,28.2345 415.987,41.1596 z" id="boundary" inkscape:connector-curvature="0" />
	<path style="fill:none;stroke:red;stroke-width:1px;stroke-linecap:butt;stroke-linejoin:miter;stroke-opacity:1" d="M 409.524,538.775 425.681,530.697 z" id="boundary" inkscape:connector-curvature="0" />
	<path style="fill:none;stroke:red;stroke-width:1px;stroke-linecap:butt;stroke-linejoin:miter;stroke-opacity:1" d="M 415.987,41.1596 428.912,52.4691 z" id="boundary" inkscape:connector-curvature="0" />
	<path style="fill:none;stroke:red;stroke-width:1px;stroke-linecap:butt;stroke-linejoin:miter;stroke-opacity:1" d="M 425.681,530.697 438.606,519.388 z" id="boundary" inkscape:connector-curvature="0" />
	<path style="fill:none;stroke:red;stroke-width:1px;stroke-linecap:butt;stroke-linejoin:miter;stroke-opacity:1" d="M 428.912,52.4691 440.221,65.3941 z" id="boundary" inkscape:connector-curvature="0" />
	<path style="fill:none;stroke:red;stroke-width:1px;stroke-linecap:butt;stroke-linejoin:miter;stroke-opacity:1" d="M 438.606,519.388 449.915,506.463 z" id="boundary" inkscape:connector-curvature="0" />
	<path style="fill:none;stroke:red;stroke-width:1px;stroke-linecap:butt;stroke-linejoin:miter;stroke-opacity:1" d="M 440.221,65.3941 453.147,76.7036 z" id="boundary" inkscape:connector-curvature="0" />
	<path style="fill:none;stroke:red;stroke-width:1px;stroke-linecap:butt;stroke-linejoin:miter;stroke-opacity:1" d="M 449.915,506.463 464.456,498.384 z" id="boundary" inkscape:connector-curvature="0" />
	<path style="fill:none;stroke:red;stroke-width:1px;stroke-linecap:butt;stroke-linejoin:miter;stroke-opacity:1" d="M 453.147,76.7036 464.456,89.6287 z" id="boundary" inkscape:connector-curvature="0" />
	<path style="fill:none;stroke:red;stroke-width:1px;stroke-linecap:butt;stroke-linejoin:miter;stroke-opacity:1" d="M 464.456,89.6287 472.534,104.169 z" id="boundary" inkscape:connector-curvature="0" />
	<path style="fill:none;stroke:red;stroke-width:1px;stroke-linecap:butt;stroke-linejoin:miter;stroke-opacity:1" d="M 464.456,498.384 474.15,482.228 z" id="boundary" inkscape:connector-curvature="0" />
	<path style="fill:none;stroke:red;stroke-width:1px;stroke-linecap:butt;stroke-linejoin:miter;stroke-opacity:1" d="M 472.534,104.169 482.228,117.094 z" id="boundary" inkscape:connector-curvature="0" />
	<path style="fill:none;stroke:red;stroke-width:1px;stroke-linecap:butt;stroke-linejoin:miter;stroke-opacity:1" d="M 474.15,482.228 487.075,470.919 z" id="boundary" inkscape:connector-curvature="0" />
	<path style="fill:none;stroke:red;stroke-width:1px;stroke-linecap:butt;stroke-linejoin:miter;stroke-opacity:1" d="M 482.228,117.094 495.153,126.788 z" id="boundary" inkscape:connector-curvature="0" />
	<path style="fill:none;stroke:red;stroke-width:1px;stroke-linecap:butt;stroke-linejoin:miter;stroke-opacity:1" d="M 487.075,470.919 498.384,449.915 z" id="boundary" inkscape:connector-curvature="0" />
	<path style="fill:none;stroke:red;stroke-width:1px;stroke-linecap:butt;stroke-linejoin:miter;stroke-opacity:1" d="M 495.153,126.788 506.463,139.713 z" id="boundary" inkscape:connector-curvature="0" />
	<path style="fill:none;stroke:red;stroke-width:1px;stroke-linecap:butt;stroke-linejoin:miter;stroke-opacity:1" d="M 498.384,449.915 511.309,438.606 z" id="boundary" inkscape:connector-curvature="0" />
	<path style="fill:none;stroke:red;stroke-width:1px;stroke-linecap:butt;stroke-linejoin:miter;stroke-opacity:1" d="M 506.463,139.713 514.541,154.254 z" id="boundary" inkscape:connector-curvature="0" />
	<path style="fill:none;stroke:red;stroke-width:1px;stroke-linecap:butt;stroke-linejoin:miter;stroke-opacity:1" d="M 511.309,438.606 514.541,417.603 z" id="boundary" inkscape:connector-curvature="0" />
	<path style="fill:none;stroke:red;stroke-width:1px;stroke-linecap:butt;stroke-linejoin:miter;stroke-opacity:1" d="M 514.541,154.254 521.003,170.41 z" id="boundary" inkscape:connector-curvature="0" />
	<path style="fill:none;stroke:red;stroke-width:1px;stroke-linecap:butt;stroke-linejoin:miter;stroke-opacity:1" d="M 514.541,417.603 522.619,393.368 z" id="boundary" inkscape:connector-curvature="0" />
	<path style="fill:none;stroke:red;stroke-width:1px;stroke-linecap:butt;stroke-linejoin:miter;stroke-opacity:1" d="M 521.003,170.41 529.081,184.951 z" id="boundary" inkscape:connector-curvature="0" />
	<path style="fill:none;stroke:red;stroke-width:1px;stroke-linecap:butt;stroke-linejoin:miter;stroke-opacity:1" d="M 522.619,393.368 538.775,385.29 z" id="boundary" inkscape:connector-curvature="0" />
	<path style="fill:none;stroke:red;stroke-width:1px;stroke-linecap:butt;stroke-linejoin:miter;stroke-opacity:1" d="M 529.081,184.951 535.544,201.107 z" id="boundary" inkscape:connector-curvature="0" />
	<path style="fill:none;stroke:red;stroke-width:1px;stroke-linecap:butt;stroke-linejoin:miter;stroke-opacity:1" d="M 535.544,201.107 543.622,215.648 z" id="boundary" inkscape:connector-curvature="0" />
	<path style="fill:none;stroke:red;stroke-width:1px;stroke-linecap:butt;stroke-linejoin:miter;stroke-opacity:1" d="M 538.775,385.29 553.316,377.212 z" id="boundary" inkscape:connector-curvature="0" />
	<path style="fill:none;stroke:red;stroke-width:1px;stroke-linecap:butt;stroke-linejoin:miter;stroke-opacity:1" d="M 543.622,215.648 558.163,223.726 z" id="boundary" inkscape:connector-curvature="0" />
	<path style="fill:none;stroke:red;stroke-width:1px;stroke-linecap:butt;stroke-linejoin:miter;stroke-opacity:1" d="M 553.316,377.212 567.857,369.134 z" id="boundary" inkscape:connector-curvature="0" />
	<path style="fill:none;stroke:red;stroke-width:1px;stroke-linecap:butt;stroke-linejoin:miter;stroke-opacity:1" d="M 558.163,223.726 574.319,230.189 z" id="boundary" inkscape:connector-curvature="0" />
	<path style="fill:none;stroke:red;stroke-width:1px;stroke-linecap:butt;stroke-linejoin:miter;stroke-opacity:1" d="M 567.857,369.134 584.013,365.902 z" id="boundary" inkscape:connector-curvature="0" />
	<path style="fill:none;stroke:red;stroke-width:1px;stroke-linecap:butt;stroke-linejoin:miter;stroke-opacity:1" d="M 574.319,230.189 590.476,230.189 z" id="boundary" inkscape:connector-curvature="0" />
	<path style="fill:none;stroke:red;stroke-width:1px;stroke-linecap:butt;stroke-linejoin:miter;stroke-opacity:1" d="M 584.013,365.902 600.169,357.824 z" id="boundary" inkscape:connector-curvature="0" />
	<path style="fill:none;stroke:red;stroke-width:1px;stroke-linecap:butt;stroke-linejoin:miter;stroke-opacity:1" d="M 590.476,230.189 601.785,243.114 z" id="boundary" inkscape:connector-curvature="0" />
	<path style="fill:none;stroke:red;stroke-width:1px;stroke-linecap:butt;stroke-linejoin:miter;stroke-opacity:1" d="M 600.169,357.824 611.479,344.899 z" id="boundary" inkscape:connector-curvature="0" />
	<path style="fill:none;stroke:red;stroke-width:1px;stroke-linecap:butt;stroke-linejoin:miter;stroke-opacity:1" d="M 601.785,243.114 603.401,259.27 z" id="boundary" inkscape:connector-curvature="0" />
	<path style="fill:none;stroke:red;stroke-width:1px;stroke-linecap:butt;stroke-linejoin:miter;stroke-opacity:1" d="M 603.401,259.27 616.326,270.58 z" id="boundary" inkscape:connector-curvature="0" />
	<path style="fill:none;stroke:red;stroke-width:1px;stroke-linecap:butt;stroke-linejoin:miter;stroke-opacity:1" d="M 611.479,344.899 624.404,333.59 z" id="boundary" inkscape:connector-curvature="0" />
	<path style="fill:none;stroke:red;stroke-width:1px;stroke-linecap:butt;stroke-linejoin:miter;stroke-opacity:1" d="M 616.326,270.58 630.866,278.658 z" id="boundary" inkscape:connector-curvature="0" />
	<path style="fill:none;stroke:red;stroke-width:1px;stroke-linecap:butt;stroke-linejoin:miter;stroke-opacity:1" d="M 624.404,333.59 640.56,328.743 z" id="boundary" inkscape:connector-curvature="0" />
	<path style="fill:none;stroke:red;stroke-width:1px;stroke-linecap:butt;stroke-linejoin:miter;stroke-opacity:1" d="M 630.866,278.658 647.023,278.658 z" id="boundary" inkscape:connector-curvature="0" />
	<path style="fill:none;stroke:red;stroke-width:1px;stroke-linecap:butt;stroke-linejoin:miter;stroke-opacity:1" d="M 640.56,328.743 656.717,328.743 z" id="boundary" inkscape:connector-curvature="0" />
	<path style="fill:none;stroke:red;stroke-width:1px;stroke-linecap:butt;stroke-linejoin:miter;stroke-opacity:1" d="M 647.023,278.658 663.179,278.658 z" id="boundary" inkscape:connector-curvature="0" />
	<path style="fill:none;stroke:red;stroke-width:1px;stroke-linecap:butt;stroke-linejoin:miter;stroke-opacity:1" d="M 656.717,328.743 672.873,328.743 z" id="boundary" inkscape:connector-curvature="0" />
	<path style="fill:none;stroke:red;stroke-width:1px;stroke-linecap:butt;stroke-linejoin:miter;stroke-opacity:1" d="M 663.179,278.658 679.336,278.658 z" id="boundary" inkscape:connector-curvature="0" />
	<path style="fill:none;stroke:red;stroke-width:1px;stroke-linecap:butt;stroke-linejoin:miter;stroke-opacity:1" d="M 672.873,328.743 689.029,328.743 z" id="boundary" inkscape:connector-curvature="0" />
	<path style="fill:none;stroke:red;stroke-width:1px;stroke-linecap:butt;stroke-linejoin:miter;stroke-opacity:1" d="M 679.336,278.658 695.492,278.658 z" id="boundary" inkscape:connector-curvature="0" />
	<path style="fill:none;stroke:red;stroke-width:1px;stroke-linecap:butt;stroke-linejoin:miter;stroke-opacity:1" d="M 689.029,328.743 705.186,328.743 z" id="boundary" inkscape:connector-curvature="0" />
	<path style="fill:none;stroke:red;stroke-width:1px;stroke-linecap:butt;stroke-linejoin:miter;stroke-opacity:1" d="M 695.492,278.658 710.033,286.736 z" id="boundary" inkscape:connector-curvature="0" />
	<path style="fill:none;stroke:red;stroke-width:1px;stroke-linecap:butt;stroke-linejoin:miter;stroke-opacity:1" d="M 705.186,328.743 721.342,328.743 z" id="boundary" inkscape:connector-curvature="0" />
	<path style="fill:none;stroke:red;stroke-width:1px;stroke-linecap:butt;stroke-linejoin:miter;stroke-opacity:1" d="M 710.033,286.736 726.189,286.736 z" id="boundary" inkscape:connector-curvature="0" />
	<path style="fill:none;stroke:red;stroke-width:1px;stroke-linecap:butt;stroke-linejoin:miter;stroke-opacity:1" d="M 721.342,328.743 737.498,328.743 z" id="boundary" inkscape:connector-curvature="0" />
	<path style="fill:none;stroke:red;stroke-width:1px;stroke-linecap:butt;stroke-linejoin:miter;stroke-opacity:1" d="M 726.189,286.736 742.345,286.736 z" id="boundary" inkscape:connector-curvature="0" />
	<path style="fill:none;stroke:red;stroke-width:1px;stroke-linecap:butt;stroke-linejoin:miter;stroke-opacity:1" d="M 737.498,328.743 753.655,328.743 z" id="boundary" inkscape:connector-curvature="0" />
	<path style="fill:none;stroke:red;stroke-width:1px;stroke-linecap:butt;stroke-linejoin:miter;stroke-opacity:1" d="M 742.345,286.736 758.502,286.736 z" id="boundary" inkscape:connector-curvature="0" />
	<path style="fill:none;stroke:red;stroke-width:1px;stroke-linecap:butt;stroke-linejoin:miter;stroke-opacity:1" d="M 753.655,328.743 769.811,328.743 z" id="boundary" inkscape:connector-curvature="0" />
	<path style="fill:none;stroke:red;stroke-width:1px;stroke-linecap:butt;stroke-linejoin:miter;stroke-opacity:1" d="M 758.502,286.736 774.658,286.736 z" id="boundary" inkscape:connector-curvature="0" />
	<path style="fill:none;stroke:red;stroke-width:1px;stroke-linecap:butt;stroke-linejoin:miter;stroke-opacity:1" d="M 769.811,328.743 785.967,328.743 z" id="boundary" inkscape:connector-curvature="0" />
	<path style="fill:none;stroke:red;stroke-width:1px;stroke-linecap:butt;stroke-linejoin:miter;stroke-opacity:1" d="M 774.658,286.736 790.814,286.736 z" id="boundary" inkscape:connector-curvature="0" />
	<path style="fill:none;stroke:red;stroke-width:1px;stroke-linecap:butt;stroke-linejoin:miter;stroke-opacity:1" d="M 785.967,328.743 802.124,328.743 z" id="boundary" inkscape:connector-curvature="0" />
	<path style="fill:none;stroke:red;stroke-width:1px;stroke-linecap:butt;stroke-linejoin:miter;stroke-opacity:1" d="M 790.814,286.736 805.355,294.814 z" id="boundary" inkscape:connector-curvature="0" />
	<path style="fill:none;stroke:red;stroke-width:1px;stroke-linecap:butt;stroke-linejoin:miter;stroke-opacity:1" d="M 802.124,328.743 818.28,328.743 z" id="boundary" inkscape:connector-curvature="0" />
	<path style="fill:none;stroke:red;stroke-width:1px;stroke-linecap:butt;stroke-linejoin:miter;stroke-opacity:1" d="M 805.355,294.814 821.511,294.814 z" id="boundary" inkscape:connector-curvature="0" />
	<path style="fill:none;stroke:red;stroke-width:1px;stroke-linecap:butt;stroke-linejoin:miter;stroke-opacity:1" d="M 818.28,328.743 834.436,328.743 z" id="boundary" inkscape:connector-curvature="0" />
	<path style="fill:none;stroke:red;stroke-width:1px;stroke-linecap:butt;stroke-linejoin:miter;stroke-opacity:1" d="M 821.511,294.814 837.668,294.814 z" id="boundary" inkscape:connector-curvature="0" />
	<path style="fill:none;stroke:red;stroke-width:1px;stroke-linecap:butt;stroke-linejoin:miter;stroke-opacity:1" d="M 834.436,328.743 850.593,328.743 z" id="boundary" inkscape:connector-curvature="0" />
	<path style="fill:none;stroke:red;stroke-width:1px;stroke-linecap:butt;stroke-linejoin:miter;stroke-opacity:1" d="M 837.668,294.814 852.208,302.893 z" id="boundary" inkscape:connector-curvature="0" />
	<path style="fill:none;stroke:red;stroke-width:1px;stroke-linecap:butt;stroke-linejoin:miter;stroke-opacity:1" d="M 850.593,328.743 866.749,328.743 z" id="boundary" inkscape:connector-curvature="0" />
	<path style="fill:none;stroke:red;stroke-width:1px;stroke-linecap:butt;stroke-linejoin:miter;stroke-opacity:1" d="M 852.208,302.893 866.749,294.814 z" id="boundary" inkscape:connector-curvature="0" />
	<path style="fill:none;stroke:red;stroke-width:1px;stroke-linecap:butt;stroke-linejoin:miter;stroke-opacity:1" d="M 866.749,294.814 882.906,294.814 z" id="boundary" inkscape:connector-curvature="0" />
	<path style="fill:none;stroke:red;stroke-width:1px;stroke-linecap:butt;stroke-linejoin:miter;stroke-opacity:1" d="M 866.749,328.743 882.906,328.743 z" id="boundary" inkscape:connector-curvature="0" />
	<path style="fill:none;stroke:red;stroke-width:1px;stroke-linecap:butt;stroke-linejoin:miter;stroke-opacity:1" d="M 882.906,294.814 899.062,294.814 z" id="boundary" inkscape:connector-curvature="0" />
	<path style="fill:none;stroke:red;stroke-width:1px;stroke-linecap:butt;stroke-linejoin:miter;stroke-opacity:1" d="M 882.906,328.743 899.062,328.743 z" id="boundary" inkscape:connector-curvature="0" />
	<path style="fill:none;stroke:red;stroke-width:1px;stroke-linecap:butt;stroke-linejoin:miter;stroke-opacity:1" d="M 899.062,294.814 915.218,294.814 z" id="boundary" inkscape:connector-curvature="0" />
	<path style="fill:none;stroke:red;stroke-width:1px;stroke-linecap:butt;stroke-linejoin:miter;stroke-opacity:1" d="M 899.062,328.743 915.218,328.743 z" id="boundary" inkscape:connector-curvature="0" />
	<path style="fill:none;stroke:red;stroke-width:1px;stroke-linecap:butt;stroke-linejoin:miter;stroke-opacity:1" d="M 915.218,294.814 929.759,302.893 z" id="boundary" inkscape:connector-curvature="0" />
	<path style="fill:none;stroke:red;stroke-width:1px;stroke-linecap:butt;stroke-linejoin:miter;stroke-opacity:1" d="M 915.218,328.743 931.375,328.743 z" id="boundary" inkscape:connector-curvature="0" />
	<path style="fill:none;stroke:red;stroke-width:1px;stroke-linecap:butt;stroke-linejoin:miter;stroke-opacity:1" d="M 929.759,302.893 945.915,302.893 z" id="boundary" inkscape:connector-curvature="0" />
	<path style="fill:none;stroke:red;stroke-width:1px;stroke-linecap:butt;stroke-linejoin:miter;stroke-opacity:1" d="M 931.375,328.743 947.531,328.743 z" id="boundary" inkscape:connector-curvature="0" />
	<path style="fill:none;stroke:red;stroke-width:1px;stroke-linecap:butt;stroke-linejoin:miter;stroke-opacity:1" d="M 945.915,302.893 962.072,302.893 z" id="boundary" inkscape:connector-curvature="0" />
	<path style="fill:none;stroke:red;stroke-width:1px;stroke-linecap:butt;stroke-linejoin:miter;stroke-opacity:1" d="M 947.531,328.743 963.687,328.743 z" id="boundary" inkscape:connector-curvature="0" />
	<path style="fill:none;stroke:red;stroke-width:1px;stroke-linecap:butt;stroke-linejoin:miter;stroke-opacity:1" d="M 962.072,302.893 978.228,302.893 z" id="boundary" inkscape:connector-curvature="0" />
	<path style="fill:none;stroke:red;stroke-width:1px;stroke-linecap:butt;stroke-linejoin:miter;stroke-opacity:1" d="M 963.687,328.743 979.844,328.743 z" id="boundary" inkscape:connector-curvature="0" />
	<path style="fill:none;stroke:red;stroke-width:1px;stroke-linecap:butt;stroke-linejoin:miter;stroke-opacity:1" d="M 978.228,302.893 992.769,310.971 z" id="boundary" inkscape:connector-curvature="0" />
	<path style="fill:none;stroke:red;stroke-width:1px;stroke-linecap:butt;stroke-linejoin:miter;stroke-opacity:1" d="M 979.844,328.743 996,327.127 z" id="boundary" inkscape:connector-curvature="0" />
	<path style="fill:none;stroke:red;stroke-width:1px;stroke-linecap:butt;stroke-linejoin:miter;stroke-opacity:1" d="M 992.769,310.971 996,327.127 z" id="boundary" inkscape:connector-curvature="0" />
	<circle cx="4" cy="291.583" r="4" fill="#0" id="circle0"/>
	<circle cx="16.9251" cy="278.658" r="4" fill="#0" id="circle1"/>
	<circle cx="16.9251" cy="302.893" r="4" fill="#0" id="circle2"/>
	<circle cx="25.0033" cy="262.502" r="4" fill="#0" id="circle3"/>
	<circle cx="28.2345" cy="315.818" r="4" fill="#0" id="circle4"/>
	<circle cx="41.1596" cy="254.423" r="4" fill="#0" id="circle5"/>
	<circle cx="41.1596" cy="327.127" r="4" fill="#0" id="circle6"/>
	<circle cx="52.4691" cy="340.052" r="4" fill="#0" id="circle7"/>
	<circle cx="54.0847" cy="241.498" r="4" fill="#0" id="circle8"/>
	<circle cx="65.3941" cy="351.362" r="4" fill="#0" id="circle9"/>
	<circle cx="67.0098" cy="230.189" r="4" fill="#0" id="circle10"/>
	<circle cx="76.7036" cy="364.287" r="4" fill="#0" id="circle11"/>
	<circle cx="78.3192" cy="217.264" r="4" fill="#0" id="circle12"/>
	<circle cx="89.6287" cy="375.596" r="4" fill="#0" id="circle13"/>
	<circle cx="91.2443" cy="205.954" r="4" fill="#0" id="circle14"/>
	<circle cx="100.938" cy="388.521" r="4" fill="#0" id="circle15"/>
	<circle cx="102.554" cy="193.029" r="4" fill="#0" id="circle16"/>
	<circle cx="113.863" cy="399.831" r="4" fill="#0" id="circle17"/>
	<circle cx="118.71" cy="184.951" r="4" fill="#0" id="circle18"/>
	<circle cx="125.173" cy="412.756" r="4" fill="#0" id="circle19"/>
	<circle cx="134.866" cy="176.873" r="4" fill="#0" id="circle20"/>
	<circle cx="138.098" cy="424.065" r="4" fill="#0" id="circle21"/>
	<circle cx="147.792" cy="165.564" r="4" fill="#0" id="circle22"/>
	<circle cx="149.407" cy="436.99" r="4" fill="#0" id="circle23"/>
	<circle cx="159.101" cy="152.638" r="4" fill="#0" id="circle24"/>
	<circle cx="162.332" cy="448.3" r="4" fill="#0" id="circle25"/>
	<circle cx="172.026" cy="141.329" r="4" fill="#0" id="circle26"/>
	<circle cx="176.873" cy="456.378" r="4" fill="#0" id="circle27"/>
	<circle cx="184.951" cy="470.919" r="4" fill="#0" id="circle28"/>
	<circle cx="186.567" cy="133.251" r="4" fill="#0" id="circle29"/>
	<circle cx="197.876" cy="482.228" r="4" fill="#0" id="circle30"/>
	<circle cx="199.492" cy="120.326" r="4" fill="#0" id="circle31"/>
	<circle cx="207.57" cy="495.153" r="4" fill="#0" id="circle32"/>
	<circle cx="212.417" cy="109.016" r="4" fill="#0" id="circle33"/>
	<circle cx="222.111" cy="503.231" r="4" fill="#0" id="circle34"/>
	<circle cx="223.726" cy="96.0912" r="4" fill="#0" id="circle35"/>
	<circle cx="230.189" cy="517.772" r="4" fill="#0" id="circle36"/>
	<circle cx="236.651" cy="84.7818" r="4" fill="#0" id="circle37"/>
	<circle cx="243.114" cy="68.6254" r="4" fill="#0" id="circle38"/>
	<circle cx="243.114" cy="529.081" r="4" fill="#0" id="circle39"/>
	<circle cx="254.423" cy="542.007" r="4" fill="#0" id="circle40"/>
	<circle cx="256.039" cy="55.7003" r="4" fill="#0" id="circle41"/>
	<circle cx="267.349" cy="553.316" r="4" fill="#0" id="circle42"/>
	<circle cx="272.195" cy="47.6221" r="4" fill="#0" id="circle43"/>
	<circle cx="280.274" cy="563.01" r="4" fill="#0" id="circle44"/>
	<circle cx="285.121" cy="36.3127" r="4" fill="#0" id="circle45"/>
	<circle cx="294.814" cy="571.088" r="4" fill="#0" id="circle46"/>
	<circle cx="299.661" cy="28.2345" r="4" fill="#0" id="circle47"/>
	<circle cx="309.355" cy="579.166" r="4" fill="#0" id="circle48"/>
	<circle cx="312.586" cy="15.3094" r="4" fill="#0" id="circle49"/>
	<circle cx="323.896" cy="587.244" r="4" fill="#0" id="circle50"/>
	<circle cx="328.743" cy="7.23127" r="4" fill="#0" id="circle51"/>
	<circle cx="340.052" cy="587.244" r="4" fill="#0" id="circle52"/>
	<circle cx="344.899" cy="4" r="4" fill="#0" id="circle53"/>
	<circle cx="356.208" cy="585.629" r="4" fill="#0" id="circle54"/>
	<circle cx="361.055" cy="4" r="4" fill="#0" id="circle55"/>
	<circle cx="372.365" cy="577.55" r="4" fill="#0" id="circle56"/>
	<circle cx="375.596" cy="12.0782" r="4" fill="#0" id="circle57"/>
	<circle cx="385.29" cy="563.01" r="4" fill="#0" id="circle58"/>
	<circle cx="390.137" cy="20.1564" r="4" fill="#0" id="circle59"/>
	<circle cx="401.446" cy="554.932" r="4" fill="#0" id="circle60"/>
	<circle cx="404.678" cy="28.2345" r="4" fill="#0" id="circle61"/>
	<circle cx="409.524" cy="538.775" r="4" fill="#0" id="circle62"/>
	<circle cx="415.987" cy="41.1596" r="4" fill="#0" id="circle63"/>
	<circle cx="425.681" cy="530.697" r="4" fill="#0" id="circle64"/>
	<circle cx="428.912" cy="52.4691" r="4" fill="#0" id="circle65"/>
	<circle cx="438.606" cy="519.388" r="4" fill="#0" id="circle66"/>
	<circle cx="440.221" cy="65.3941" r="4" fill="#0" id="circle67"/>
	<circle cx="449.915" cy="506.463" r="4" fill="#0" id="circle68"/>
	<circle cx="453.147" cy="76.7036" r="4" fill="#0" id="circle69"/>
	<circle cx="464.456" cy="89.6287" r="4" fill="#0" id="circle70"/>
	<circle cx="464.456" cy="498.384" r="4" fill="#0" id="circle71"/>
	<circle cx="472.534" cy="104.169" r="4" fill="#0" id="circle72"/>
	<circle cx="474.15" cy="482.228" r="4" fill="#0" id="circle73"/>
	<circle cx="482.228" cy="117.094" r="4" fill="#0" id="circle74"/>
	<circle cx="487.075" cy="470.919" r="4" fill="#0" id="circle75"/>
	<circle cx="495.153" cy="126.788" r="4" fill="#0" id="circle76"/>
	<circle cx="498.384" cy="449.915" r="4" fill="#0" id="circle77"/>
	<circle cx="506.463" cy="139.713" r="4" fill="#0" id="circle78"/>
	<circle cx="511.309" cy="438.606" r="4" fill="#0" id="circle79"/>
	<circle cx="514.541" cy="154.254" r="4" fill="#0" id="circle80"/>
	<circle cx="514.541" cy="417.603" r="4" fill="#0" id="circle81"/>
	<circle cx="521.003" cy="170.41" r="4" fill="#0" id="circle82"/>
	<circle cx="522.619" cy="393.368" r="4" fill="#0" id="circle83"/>
	<circle cx="529.081" cy="184.951" r="4" fill="#0" id="circle84"/>
	<circle cx="535.544" cy="201.107" r="4" fill="#0" id="circle85"/>
	<circle cx="538.775" cy="385.29" r="4" fill="#0" id="circle86"/>
	<circle cx="543.622" cy="215.648" r="4" fill="#0" id="circle87"/>
	<circle cx="553.316" cy="377.212" r="4" fill="#0" id="circle88"/>
	<circle cx="558.163" cy="223.726" r="4" fill="#0" id="circle89"/>
	<circle cx="567.857" cy="369.134" r="4" fill="#0" id="circle90"/>
	<circle cx="574.319" cy="230.189" r="4" fill="#0" id="circle91"/>
	<circle cx="584.013" cy="365.902" r="4" fill="#0" id="circle92"/>
	<circle cx="590.476" cy="230.189" r="4" fill="#0" id="circle93"/>
	<circle cx="600.169" cy="357.824" r="4" fill="#0" id="circle94"/>
	<circle cx="601.785" cy="243.114" r="4" fill="#0" id="circle95"/>
	<circle cx="603.401" cy="259.27" r="4" fill="#0" id="circle96"/>
	<circle cx="611.479" cy="344.899" r="4" fill="#0" id="circle97"/>
	<circle cx="616.326" cy="270.58" r="4" fill="#0" id="circle98"/>
	<circle cx="624.404" cy="333.59" r="4" fill="#0" id="circle99"/>
	<circle cx="630.866" cy="278.658" r="4" fill="#0" id="circle100"/>
	<circle cx="640.56" cy="328.743" r="4" fill="#0" id="circle101"/>
	<circle cx="647.023" cy="278.658" r="4" fill="#0" id="circle102"/>
	<circle cx="656.717" cy="328.743" r="4" fill="#0" id="circle103"/>
	<circle cx="663.179" cy="278.658" r="4" fill="#0" id="circle104"/>
	<circle cx="672.873" cy="328.743" r="4" fill="#0" id="circle105"/>
	<circle cx="679.336" cy="278.658" r="4" fill="#0" id="circle106"/>
	<circle cx="689.029" cy="328.743" r="4" fill="#0" id="circle107"/>
	<circle cx="695.492" cy="278.658" r="4" fill="#0" id="circle108"/>
	<circle cx="705.186" cy="328.743" r="4" fill="#0" id="circle109"/>
	<circle cx="710.033" cy="286.736" r="4" fill="#0" id="circle110"/>
	<circle cx="721.342" cy="328.743" r="4" fill="#0" id="circle111"/>
	<circle cx="726.189" cy="286.736" r="4" fill="#0" id="circle112"/>
	<circle cx="737.498" cy="328.743" r="4" fill="#0" id="circle113"/>
	<circle cx="742.345" cy="286.736" r="4" fill="#0" id="circle114"/>
	<circle cx="753.655" cy="328.743" r="4" fill="#0" id="circle115"/>
	<circle cx="758.502" cy="286.736" r="4" fill="#0" id="circle116"/>
	<circle cx="769.811" cy="328.743" r="4" fill="#0" id="circle117"/>
	<circle cx="774.658" cy="286.736" r="4" fill="#0" id="circle118"/>
	<circle cx="785.967" cy="328.743" r="4" fill="#0" id="circle119"/>
	<circle cx="790.814" cy="286.736" r="4" fill="#0" id="circle120"/>
	<circle cx="802.124" cy="328.743" r="4" fill="#0" id="circle121"/>
	<circle cx="805.355" cy="294.814" r="4" fill="#0" id="circle122"/>
	<circle cx="818.28" cy="328.743" r="4" fill="#0" id="circle123"/>
	<circle cx="821.511" cy="294.814" r="4" fill="#0" id="circle124"/>
	<circle cx="834.436" cy="328.743" r="4" fill="#0" id="circle125"/>
	<circle cx="837.668" cy="294.814" r="4" fill="#0" id="circle126"/>
	<circle cx="850.593" cy="328.743" r="4" fill="#0" id="circle127"/>
	<circle cx="852.208" cy="302.893" r="4" fill="#0" id="circle128"/>
	<circle cx="866.749" cy="294.814" r="4" fill="#0" id="circle129"/>
	<circle cx="866.749" cy="328.743" r="4" fill="#0" id="circle130"/>
	<circle cx="882.906" cy="294.814" r="4" fill="#0" id="circle131"/>
	<circle cx="882.906" cy="328.743" r="4" fill="#0" id="circle132"/>
	<circle cx="899.062" cy="294.814" r="4" fill="#0" id="circle133"/>
	<circle cx="899.062" cy="328.743" r="4" fill="#0" id="circle134"/>
	<circle cx="915.218" cy="294.814" r="4" fill="#0" id="circle135"/>
	<circle cx="915.218" cy="328.743" r="4" fill="#0" id="circle136"/>
	<circle cx="929.759" cy="302.893" r="4" fill="#0" id="circle137"/>
	<circle cx="931.375" cy="328.743" r="4" fill="#0" id="circle138"/>
	<circle cx="945.915" cy="302.893" r="4" fill="#0" id="circle139"/>
	<circle cx="947.531" cy="328.743" r="4" fill="#0" id="circle140"/>
	<circle cx="962.072" cy="302.893" r="4" fill="#0" id="circle141"/>
	<circle cx="963.687" cy="328.743" r="4" fill="#0" id="circle142"/>
	<circle cx="978.228" cy="302.893" r="4" fill="#0" id="circle143"/>
	<circle cx="979.844" cy="328.743" r="4" fill="#0" id="circle144"/>
	<circle cx="992.769" cy="310.971" r="4" fill="#0" id="circle145"/>
	<circle cx="996" cy="327.127" r="4" fill="#0" id="circle146"/>
	</g>
</svg>