<?xml version="1.0" encoding="UTF-8" standalone="no"?>
<!-- Created with CurveBenchmark -->
<svg
	xmlns:dc="http://purl.org/dc/elements/1.1/"
	xmlns:cc="http://creativecommons.org/ns#"
	xmlns:rdf="http://www.w3.org/1999/02/22-rdf-syntax-ns#"
	xmlns:svg="http://www.w3.org/2000/svg"
	xmlns="http://www.w3.org/2000/svg"
	xmlns:sodipodi="http://sodipodi.sourceforge.net/DTD/sodipodi-0.dtd"
	xmlns:inkscape="http://www.inkscape.org/namespaces/inkscape"
	width="1000"
	height="1000"
	id="svg2"
	version="1.1"
	sodipodi:docname="manifold/discur-tool03.png.txt">
<defs
	id="defs4" />
<metadata
	id="metadata7">
	<rdf:RDF>
		<cc:Work
			rdf:about="">
			<dc:format>image/svg+xml</dc:format>
			<dc:type
				rdf:resource="http://purl.org/dc/dcmitype/StillImage" />
			<dc:title></dc:title>
		</cc:Work>
	</rdf:RDF>
</metadata>
<g
	inkscape:label="Layer 1"
	inkscape:groupmode="layer"
	id="layer1">
	<path style="fill:none;stroke:red;stroke-width:1px;stroke-linecap:butt;stroke-linejoin:miter;stroke-opacity:1" d="M 4,74.8571 4,102.11 z" id="boundary" inkscape:connector-curvature="0" />
	<path style="fill:none;stroke:red;stroke-width:1px;stroke-linecap:butt;stroke-linejoin:miter;stroke-opacity:1" d="M 4,74.8571 17.6264,47.6044 z" id="boundary" inkscape:connector-curvature="0" />
	<path style="fill:none;stroke:red;stroke-width:1px;stroke-linecap:butt;stroke-linejoin:miter;stroke-opacity:1" d="M 4,102.11 4,129.363 z" id="boundary" inkscape:connector-curvature="0" />
	<path style="fill:none;stroke:red;stroke-width:1px;stroke-linecap:butt;stroke-linejoin:miter;stroke-opacity:1" d="M 4,129.363 4,156.615 z" id="boundary" inkscape:connector-curvature="0" />
	<path style="fill:none;stroke:red;stroke-width:1px;stroke-linecap:butt;stroke-linejoin:miter;stroke-opacity:1" d="M 4,156.615 17.6264,181.143 z" id="boundary" inkscape:connector-curvature="0" />
	<path style="fill:none;stroke:red;stroke-width:1px;stroke-linecap:butt;stroke-linejoin:miter;stroke-opacity:1" d="M 17.6264,47.6044 44.8791,44.8791 z" id="boundary" inkscape:connector-curvature="0" />
	<path style="fill:none;stroke:red;stroke-width:1px;stroke-linecap:butt;stroke-linejoin:miter;stroke-opacity:1" d="M 17.6264,181.143 36.7033,202.945 z" id="boundary" inkscape:connector-curvature="0" />
	<path style="fill:none;stroke:red;stroke-width:1px;stroke-linecap:butt;stroke-linejoin:miter;stroke-opacity:1" d="M 36.7033,202.945 58.5055,219.297 z" id="boundary" inkscape:connector-curvature="0" />
	<path style="fill:none;stroke:red;stroke-width:1px;stroke-linecap:butt;stroke-linejoin:miter;stroke-opacity:1" d="M 44.8791,44.8791 61.2308,66.6813 z" id="boundary" inkscape:connector-curvature="0" />
	<path style="fill:none;stroke:red;stroke-width:1px;stroke-linecap:butt;stroke-linejoin:miter;stroke-opacity:1" d="M 58.5055,219.297 58.5055,246.549 z" id="boundary" inkscape:connector-curvature="0" />
	<path style="fill:none;stroke:red;stroke-width:1px;stroke-linecap:butt;stroke-linejoin:miter;stroke-opacity:1" d="M 58.5055,246.549 72.1319,271.077 z" id="boundary" inkscape:connector-curvature="0" />
	<path style="fill:none;stroke:red;stroke-width:1px;stroke-linecap:butt;stroke-linejoin:miter;stroke-opacity:1" d="M 61.2308,66.6813 83.033,83.033 z" id="boundary" inkscape:connector-curvature="0" />
	<path style="fill:none;stroke:red;stroke-width:1px;stroke-linecap:butt;stroke-linejoin:miter;stroke-opacity:1" d="M 72.1319,271.077 72.1319,298.33 z" id="boundary" inkscape:connector-curvature="0" />
	<path style="fill:none;stroke:red;stroke-width:1px;stroke-linecap:butt;stroke-linejoin:miter;stroke-opacity:1" d="M 72.1319,298.33 72.1319,325.582 z" id="boundary" inkscape:connector-curvature="0" />
	<path style="fill:none;stroke:red;stroke-width:1px;stroke-linecap:butt;stroke-linejoin:miter;stroke-opacity:1" d="M 72.1319,325.582 77.5824,352.835 z" id="boundary" inkscape:connector-curvature="0" />
	<path style="fill:none;stroke:red;stroke-width:1px;stroke-linecap:butt;stroke-linejoin:miter;stroke-opacity:1" d="M 77.5824,352.835 85.7582,380.088 z" id="boundary" inkscape:connector-curvature="0" />
	<path style="fill:none;stroke:red;stroke-width:1px;stroke-linecap:butt;stroke-linejoin:miter;stroke-opacity:1" d="M 83.033,83.033 88.4835,110.286 z" id="boundary" inkscape:connector-curvature="0" />
	<path style="fill:none;stroke:red;stroke-width:1px;stroke-linecap:butt;stroke-linejoin:miter;stroke-opacity:1" d="M 85.7582,380.088 85.7582,407.341 z" id="boundary" inkscape:connector-curvature="0" />
	<path style="fill:none;stroke:red;stroke-width:1px;stroke-linecap:butt;stroke-linejoin:miter;stroke-opacity:1" d="M 85.7582,407.341 85.7582,434.593 z" id="boundary" inkscape:connector-curvature="0" />
	<path style="fill:none;stroke:red;stroke-width:1px;stroke-linecap:butt;stroke-linejoin:miter;stroke-opacity:1" d="M 85.7582,434.593 85.7582,461.846 z" id="boundary" inkscape:connector-curvature="0" />
	<path style="fill:none;stroke:red;stroke-width:1px;stroke-linecap:butt;stroke-linejoin:miter;stroke-opacity:1" d="M 85.7582,461.846 85.7582,489.099 z" id="boundary" inkscape:connector-curvature="0" />
	<path style="fill:none;stroke:red;stroke-width:1px;stroke-linecap:butt;stroke-linejoin:miter;stroke-opacity:1" d="M 85.7582,489.099 99.3846,513.626 z" id="boundary" inkscape:connector-curvature="0" />
	<path style="fill:none;stroke:red;stroke-width:1px;stroke-linecap:butt;stroke-linejoin:miter;stroke-opacity:1" d="M 88.4835,110.286 115.736,121.187 z" id="boundary" inkscape:connector-curvature="0" />
	<path style="fill:none;stroke:red;stroke-width:1px;stroke-linecap:butt;stroke-linejoin:miter;stroke-opacity:1" d="M 99.3846,513.626 99.3846,540.879 z" id="boundary" inkscape:connector-curvature="0" />
	<path style="fill:none;stroke:red;stroke-width:1px;stroke-linecap:butt;stroke-linejoin:miter;stroke-opacity:1" d="M 99.3846,540.879 99.3846,568.132 z" id="boundary" inkscape:connector-curvature="0" />
	<path style="fill:none;stroke:red;stroke-width:1px;stroke-linecap:butt;stroke-linejoin:miter;stroke-opacity:1" d="M 99.3846,568.132 113.011,592.659 z" id="boundary" inkscape:connector-curvature="0" />
	<path style="fill:none;stroke:red;stroke-width:1px;stroke-linecap:butt;stroke-linejoin:miter;stroke-opacity:1" d="M 113.011,592.659 113.011,619.912 z" id="boundary" inkscape:connector-curvature="0" />
	<path style="fill:none;stroke:red;stroke-width:1px;stroke-linecap:butt;stroke-linejoin:miter;stroke-opacity:1" d="M 113.011,619.912 113.011,647.165 z" id="boundary" inkscape:connector-curvature="0" />
	<path style="fill:none;stroke:red;stroke-width:1px;stroke-linecap:butt;stroke-linejoin:miter;stroke-opacity:1" d="M 113.011,647.165 113.011,674.418 z" id="boundary" inkscape:connector-curvature="0" />
	<path style="fill:none;stroke:red;stroke-width:1px;stroke-linecap:butt;stroke-linejoin:miter;stroke-opacity:1" d="M 113.011,674.418 126.637,698.945 z" id="boundary" inkscape:connector-curvature="0" />
	<path style="fill:none;stroke:red;stroke-width:1px;stroke-linecap:butt;stroke-linejoin:miter;stroke-opacity:1" d="M 115.736,121.187 142.989,121.187 z" id="boundary" inkscape:connector-curvature="0" />
	<path style="fill:none;stroke:red;stroke-width:1px;stroke-linecap:butt;stroke-linejoin:miter;stroke-opacity:1" d="M 126.637,698.945 126.637,726.198 z" id="boundary" inkscape:connector-curvature="0" />
	<path style="fill:none;stroke:red;stroke-width:1px;stroke-linecap:butt;stroke-linejoin:miter;stroke-opacity:1" d="M 126.637,726.198 140.264,750.725 z" id="boundary" inkscape:connector-curvature="0" />
	<path style="fill:none;stroke:red;stroke-width:1px;stroke-linecap:butt;stroke-linejoin:miter;stroke-opacity:1" d="M 140.264,750.725 148.44,777.978 z" id="boundary" inkscape:connector-curvature="0" />
	<path style="fill:none;stroke:red;stroke-width:1px;stroke-linecap:butt;stroke-linejoin:miter;stroke-opacity:1" d="M 142.989,121.187 167.516,85.7582 z" id="boundary" inkscape:connector-curvature="0" />
	<path style="fill:none;stroke:red;stroke-width:1px;stroke-linecap:butt;stroke-linejoin:miter;stroke-opacity:1" d="M 148.44,777.978 153.89,805.231 z" id="boundary" inkscape:connector-curvature="0" />
	<path style="fill:none;stroke:red;stroke-width:1px;stroke-linecap:butt;stroke-linejoin:miter;stroke-opacity:1" d="M 153.89,6.72527 167.516,31.2527 z" id="boundary" inkscape:connector-curvature="0" />
	<path style="fill:none;stroke:red;stroke-width:1px;stroke-linecap:butt;stroke-linejoin:miter;stroke-opacity:1" d="M 153.89,6.72527 181.143,4 z" id="boundary" inkscape:connector-curvature="0" />
	<path style="fill:none;stroke:red;stroke-width:1px;stroke-linecap:butt;stroke-linejoin:miter;stroke-opacity:1" d="M 153.89,805.231 162.066,832.484 z" id="boundary" inkscape:connector-curvature="0" />
	<path style="fill:none;stroke:red;stroke-width:1px;stroke-linecap:butt;stroke-linejoin:miter;stroke-opacity:1" d="M 162.066,832.484 167.516,859.736 z" id="boundary" inkscape:connector-curvature="0" />
	<path style="fill:none;stroke:red;stroke-width:1px;stroke-linecap:butt;stroke-linejoin:miter;stroke-opacity:1" d="M 167.516,31.2527 167.516,58.5055 z" id="boundary" inkscape:connector-curvature="0" />
	<path style="fill:none;stroke:red;stroke-width:1px;stroke-linecap:butt;stroke-linejoin:miter;stroke-opacity:1" d="M 167.516,58.5055 167.516,85.7582 z" id="boundary" inkscape:connector-curvature="0" />
	<path style="fill:none;stroke:red;stroke-width:1px;stroke-linecap:butt;stroke-linejoin:miter;stroke-opacity:1" d="M 167.516,859.736 167.516,886.989 z" id="boundary" inkscape:connector-curvature="0" />
	<path style="fill:none;stroke:red;stroke-width:1px;stroke-linecap:butt;stroke-linejoin:miter;stroke-opacity:1" d="M 167.516,886.989 175.692,914.242 z" id="boundary" inkscape:connector-curvature="0" />
	<path style="fill:none;stroke:red;stroke-width:1px;stroke-linecap:butt;stroke-linejoin:miter;stroke-opacity:1" d="M 175.692,914.242 189.319,938.769 z" id="boundary" inkscape:connector-curvature="0" />
	<path style="fill:none;stroke:red;stroke-width:1px;stroke-linecap:butt;stroke-linejoin:miter;stroke-opacity:1" d="M 181.143,4 205.67,17.6264 z" id="boundary" inkscape:connector-curvature="0" />
	<path style="fill:none;stroke:red;stroke-width:1px;stroke-linecap:butt;stroke-linejoin:miter;stroke-opacity:1" d="M 189.319,938.769 208.396,960.571 z" id="boundary" inkscape:connector-curvature="0" />
	<path style="fill:none;stroke:red;stroke-width:1px;stroke-linecap:butt;stroke-linejoin:miter;stroke-opacity:1" d="M 205.67,17.6264 224.747,39.4286 z" id="boundary" inkscape:connector-curvature="0" />
	<path style="fill:none;stroke:red;stroke-width:1px;stroke-linecap:butt;stroke-linejoin:miter;stroke-opacity:1" d="M 208.396,960.571 230.198,979.648 z" id="boundary" inkscape:connector-curvature="0" />
	<path style="fill:none;stroke:red;stroke-width:1px;stroke-linecap:butt;stroke-linejoin:miter;stroke-opacity:1" d="M 224.747,39.4286 246.549,55.7802 z" id="boundary" inkscape:connector-curvature="0" />
	<path style="fill:none;stroke:red;stroke-width:1px;stroke-linecap:butt;stroke-linejoin:miter;stroke-opacity:1" d="M 224.747,260.176 224.747,287.429 z" id="boundary" inkscape:connector-curvature="0" />
	<path style="fill:none;stroke:red;stroke-width:1px;stroke-linecap:butt;stroke-linejoin:miter;stroke-opacity:1" d="M 224.747,260.176 238.374,232.923 z" id="boundary" inkscape:connector-curvature="0" />
	<path style="fill:none;stroke:red;stroke-width:1px;stroke-linecap:butt;stroke-linejoin:miter;stroke-opacity:1" d="M 224.747,287.429 230.198,314.681 z" id="boundary" inkscape:connector-curvature="0" />
	<path style="fill:none;stroke:red;stroke-width:1px;stroke-linecap:butt;stroke-linejoin:miter;stroke-opacity:1" d="M 230.198,314.681 238.374,341.934 z" id="boundary" inkscape:connector-curvature="0" />
	<path style="fill:none;stroke:red;stroke-width:1px;stroke-linecap:butt;stroke-linejoin:miter;stroke-opacity:1" d="M 230.198,979.648 252,996 z" id="boundary" inkscape:connector-curvature="0" />
	<path style="fill:none;stroke:red;stroke-width:1px;stroke-linecap:butt;stroke-linejoin:miter;stroke-opacity:1" d="M 238.374,205.67 238.374,232.923 z" id="boundary" inkscape:connector-curvature="0" />
	<path style="fill:none;stroke:red;stroke-width:1px;stroke-linecap:butt;stroke-linejoin:miter;stroke-opacity:1" d="M 238.374,205.67 260.176,186.593 z" id="boundary" inkscape:connector-curvature="0" />
	<path style="fill:none;stroke:red;stroke-width:1px;stroke-linecap:butt;stroke-linejoin:miter;stroke-opacity:1" d="M 238.374,341.934 238.374,369.187 z" id="boundary" inkscape:connector-curvature="0" />
	<path style="fill:none;stroke:red;stroke-width:1px;stroke-linecap:butt;stroke-linejoin:miter;stroke-opacity:1" d="M 238.374,369.187 238.374,396.44 z" id="boundary" inkscape:connector-curvature="0" />
	<path style="fill:none;stroke:red;stroke-width:1px;stroke-linecap:butt;stroke-linejoin:miter;stroke-opacity:1" d="M 238.374,396.44 238.374,423.692 z" id="boundary" inkscape:connector-curvature="0" />
	<path style="fill:none;stroke:red;stroke-width:1px;stroke-linecap:butt;stroke-linejoin:miter;stroke-opacity:1" d="M 238.374,423.692 238.374,450.945 z" id="boundary" inkscape:connector-curvature="0" />
	<path style="fill:none;stroke:red;stroke-width:1px;stroke-linecap:butt;stroke-linejoin:miter;stroke-opacity:1" d="M 238.374,450.945 252,475.473 z" id="boundary" inkscape:connector-curvature="0" />
	<path style="fill:none;stroke:red;stroke-width:1px;stroke-linecap:butt;stroke-linejoin:miter;stroke-opacity:1" d="M 246.549,55.7802 265.626,77.5824 z" id="boundary" inkscape:connector-curvature="0" />
	<path style="fill:none;stroke:red;stroke-width:1px;stroke-linecap:butt;stroke-linejoin:miter;stroke-opacity:1" d="M 252,475.473 252,502.725 z" id="boundary" inkscape:connector-curvature="0" />
	<path style="fill:none;stroke:red;stroke-width:1px;stroke-linecap:butt;stroke-linejoin:miter;stroke-opacity:1" d="M 252,502.725 252,529.978 z" id="boundary" inkscape:connector-curvature="0" />
	<path style="fill:none;stroke:red;stroke-width:1px;stroke-linecap:butt;stroke-linejoin:miter;stroke-opacity:1" d="M 252,529.978 265.626,554.505 z" id="boundary" inkscape:connector-curvature="0" />
	<path style="fill:none;stroke:red;stroke-width:1px;stroke-linecap:butt;stroke-linejoin:miter;stroke-opacity:1" d="M 252,996 276.527,982.374 z" id="boundary" inkscape:connector-curvature="0" />
	<path style="fill:none;stroke:red;stroke-width:1px;stroke-linecap:butt;stroke-linejoin:miter;stroke-opacity:1" d="M 260.176,186.593 279.253,156.615 z" id="boundary" inkscape:connector-curvature="0" />
	<path style="fill:none;stroke:red;stroke-width:1px;stroke-linecap:butt;stroke-linejoin:miter;stroke-opacity:1" d="M 265.626,77.5824 279.253,102.11 z" id="boundary" inkscape:connector-curvature="0" />
	<path style="fill:none;stroke:red;stroke-width:1px;stroke-linecap:butt;stroke-linejoin:miter;stroke-opacity:1" d="M 265.626,554.505 265.626,581.758 z" id="boundary" inkscape:connector-curvature="0" />
	<path style="fill:none;stroke:red;stroke-width:1px;stroke-linecap:butt;stroke-linejoin:miter;stroke-opacity:1" d="M 265.626,581.758 279.253,606.286 z" id="boundary" inkscape:connector-curvature="0" />
	<path style="fill:none;stroke:red;stroke-width:1px;stroke-linecap:butt;stroke-linejoin:miter;stroke-opacity:1" d="M 276.527,982.374 303.78,982.374 z" id="boundary" inkscape:connector-curvature="0" />
	<path style="fill:none;stroke:red;stroke-width:1px;stroke-linecap:butt;stroke-linejoin:miter;stroke-opacity:1" d="M 279.253,102.11 279.253,129.363 z" id="boundary" inkscape:connector-curvature="0" />
	<path style="fill:none;stroke:red;stroke-width:1px;stroke-linecap:butt;stroke-linejoin:miter;stroke-opacity:1" d="M 279.253,129.363 279.253,156.615 z" id="boundary" inkscape:connector-curvature="0" />
	<path style="fill:none;stroke:red;stroke-width:1px;stroke-linecap:butt;stroke-linejoin:miter;stroke-opacity:1" d="M 279.253,606.286 279.253,633.538 z" id="boundary" inkscape:connector-curvature="0" />
	<path style="fill:none;stroke:red;stroke-width:1px;stroke-linecap:butt;stroke-linejoin:miter;stroke-opacity:1" d="M 279.253,633.538 279.253,660.791 z" id="boundary" inkscape:connector-curvature="0" />
	<path style="fill:none;stroke:red;stroke-width:1px;stroke-linecap:butt;stroke-linejoin:miter;stroke-opacity:1" d="M 279.253,660.791 292.879,685.319 z" id="boundary" inkscape:connector-curvature="0" />
	<path style="fill:none;stroke:red;stroke-width:1px;stroke-linecap:butt;stroke-linejoin:miter;stroke-opacity:1" d="M 292.879,685.319 292.879,712.571 z" id="boundary" inkscape:connector-curvature="0" />
	<path style="fill:none;stroke:red;stroke-width:1px;stroke-linecap:butt;stroke-linejoin:miter;stroke-opacity:1" d="M 292.879,712.571 292.879,739.824 z" id="boundary" inkscape:connector-curvature="0" />
	<path style="fill:none;stroke:red;stroke-width:1px;stroke-linecap:butt;stroke-linejoin:miter;stroke-opacity:1" d="M 292.879,739.824 292.879,767.077 z" id="boundary" inkscape:connector-curvature="0" />
	<path style="fill:none;stroke:red;stroke-width:1px;stroke-linecap:butt;stroke-linejoin:miter;stroke-opacity:1" d="M 292.879,767.077 306.505,791.604 z" id="boundary" inkscape:connector-curvature="0" />
	<path style="fill:none;stroke:red;stroke-width:1px;stroke-linecap:butt;stroke-linejoin:miter;stroke-opacity:1" d="M 303.78,982.374 331.033,982.374 z" id="boundary" inkscape:connector-curvature="0" />
	<path style="fill:none;stroke:red;stroke-width:1px;stroke-linecap:butt;stroke-linejoin:miter;stroke-opacity:1" d="M 306.505,791.604 320.132,816.132 z" id="boundary" inkscape:connector-curvature="0" />
	<path style="fill:none;stroke:red;stroke-width:1px;stroke-linecap:butt;stroke-linejoin:miter;stroke-opacity:1" d="M 320.132,816.132 347.385,824.308 z" id="boundary" inkscape:connector-curvature="0" />
	<path style="fill:none;stroke:red;stroke-width:1px;stroke-linecap:butt;stroke-linejoin:miter;stroke-opacity:1" d="M 320.132,900.615 333.758,925.143 z" id="boundary" inkscape:connector-curvature="0" />
	<path style="fill:none;stroke:red;stroke-width:1px;stroke-linecap:butt;stroke-linejoin:miter;stroke-opacity:1" d="M 320.132,900.615 344.659,886.989 z" id="boundary" inkscape:connector-curvature="0" />
	<path style="fill:none;stroke:red;stroke-width:1px;stroke-linecap:butt;stroke-linejoin:miter;stroke-opacity:1" d="M 333.758,925.143 347.385,949.67 z" id="boundary" inkscape:connector-curvature="0" />
	<path style="fill:none;stroke:red;stroke-width:1px;stroke-linecap:butt;stroke-linejoin:miter;stroke-opacity:1" d="M 344.659,886.989 361.011,914.242 z" id="boundary" inkscape:connector-curvature="0" />
	<path style="fill:none;stroke:red;stroke-width:1px;stroke-linecap:butt;stroke-linejoin:miter;stroke-opacity:1" d="M 347.385,824.308 366.462,846.11 z" id="boundary" inkscape:connector-curvature="0" />
	<path style="fill:none;stroke:red;stroke-width:1px;stroke-linecap:butt;stroke-linejoin:miter;stroke-opacity:1" d="M 347.385,949.67 377.363,936.044 z" id="boundary" inkscape:connector-curvature="0" />
	<path style="fill:none;stroke:red;stroke-width:1px;stroke-linecap:butt;stroke-linejoin:miter;stroke-opacity:1" d="M 361.011,914.242 377.363,936.044 z" id="boundary" inkscape:connector-curvature="0" />
	<path style="fill:none;stroke:red;stroke-width:1px;stroke-linecap:butt;stroke-linejoin:miter;stroke-opacity:1" d="M 366.462,846.11 393.714,857.011 z" id="boundary" inkscape:connector-curvature="0" />
	<path style="fill:none;stroke:red;stroke-width:1px;stroke-linecap:butt;stroke-linejoin:miter;stroke-opacity:1" d="M 393.714,857.011 401.89,884.264 z" id="boundary" inkscape:connector-curvature="0" />
	<path style="fill:none;stroke:red;stroke-width:1px;stroke-linecap:butt;stroke-linejoin:miter;stroke-opacity:1" d="M 401.89,884.264 401.89,911.516 z" id="boundary" inkscape:connector-curvature="0" />
	<circle cx="4" cy="74.8571" r="4" fill="#0" id="circle0"/>
	<circle cx="4" cy="102.11" r="4" fill="#0" id="circle1"/>
	<circle cx="4" cy="129.363" r="4" fill="#0" id="circle2"/>
	<circle cx="4" cy="156.615" r="4" fill="#0" id="circle3"/>
	<circle cx="17.6264" cy="47.6044" r="4" fill="#0" id="circle4"/>
	<circle cx="17.6264" cy="181.143" r="4" fill="#0" id="circle5"/>
	<circle cx="36.7033" cy="202.945" r="4" fill="#0" id="circle6"/>
	<circle cx="44.8791" cy="44.8791" r="4" fill="#0" id="circle7"/>
	<circle cx="58.5055" cy="219.297" r="4" fill="#0" id="circle8"/>
	<circle cx="58.5055" cy="246.549" r="4" fill="#0" id="circle9"/>
	<circle cx="61.2308" cy="66.6813" r="4" fill="#0" id="circle10"/>
	<circle cx="72.1319" cy="271.077" r="4" fill="#0" id="circle11"/>
	<circle cx="72.1319" cy="298.33" r="4" fill="#0" id="circle12"/>
	<circle cx="72.1319" cy="325.582" r="4" fill="#0" id="circle13"/>
	<circle cx="77.5824" cy="352.835" r="4" fill="#0" id="circle14"/>
	<circle cx="83.033" cy="83.033" r="4" fill="#0" id="circle15"/>
	<circle cx="85.7582" cy="380.088" r="4" fill="#0" id="circle16"/>
	<circle cx="85.7582" cy="407.341" r="4" fill="#0" id="circle17"/>
	<circle cx="85.7582" cy="434.593" r="4" fill="#0" id="circle18"/>
	<circle cx="85.7582" cy="461.846" r="4" fill="#0" id="circle19"/>
	<circle cx="85.7582" cy="489.099" r="4" fill="#0" id="circle20"/>
	<circle cx="88.4835" cy="110.286" r="4" fill="#0" id="circle21"/>
	<circle cx="99.3846" cy="513.626" r="4" fill="#0" id="circle22"/>
	<circle cx="99.3846" cy="540.879" r="4" fill="#0" id="circle23"/>
	<circle cx="99.3846" cy="568.132" r="4" fill="#0" id="circle24"/>
	<circle cx="113.011" cy="592.659" r="4" fill="#0" id="circle25"/>
	<circle cx="113.011" cy="619.912" r="4" fill="#0" id="circle26"/>
	<circle cx="113.011" cy="647.165" r="4" fill="#0" id="circle27"/>
	<circle cx="113.011" cy="674.418" r="4" fill="#0" id="circle28"/>
	<circle cx="115.736" cy="121.187" r="4" fill="#0" id="circle29"/>
	<circle cx="126.637" cy="698.945" r="4" fill="#0" id="circle30"/>
	<circle cx="126.637" cy="726.198" r="4" fill="#0" id="circle31"/>
	<circle cx="140.264" cy="750.725" r="4" fill="#0" id="circle32"/>
	<circle cx="142.989" cy="121.187" r="4" fill="#0" id="circle33"/>
	<circle cx="148.44" cy="777.978" r="4" fill="#0" id="circle34"/>
	<circle cx="153.89" cy="6.72527" r="4" fill="#0" id="circle35"/>
	<circle cx="153.89" cy="805.231" r="4" fill="#0" id="circle36"/>
	<circle cx="162.066" cy="832.484" r="4" fill="#0" id="circle37"/>
	<circle cx="167.516" cy="31.2527" r="4" fill="#0" id="circle38"/>
	<circle cx="167.516" cy="58.5055" r="4" fill="#0" id="circle39"/>
	<circle cx="167.516" cy="85.7582" r="4" fill="#0" id="circle40"/>
	<circle cx="167.516" cy="859.736" r="4" fill="#0" id="circle41"/>
	<circle cx="167.516" cy="886.989" r="4" fill="#0" id="circle42"/>
	<circle cx="175.692" cy="914.242" r="4" fill="#0" id="circle43"/>
	<circle cx="181.143" cy="4" r="4" fill="#0" id="circle44"/>
	<circle cx="189.319" cy="938.769" r="4" fill="#0" id="circle45"/>
	<circle cx="205.67" cy="17.6264" r="4" fill="#0" id="circle46"/>
	<circle cx="208.396" cy="960.571" r="4" fill="#0" id="circle47"/>
	<circle cx="224.747" cy="39.4286" r="4" fill="#0" id="circle48"/>
	<circle cx="224.747" cy="260.176" r="4" fill="#0" id="circle49"/>
	<circle cx="224.747" cy="287.429" r="4" fill="#0" id="circle50"/>
	<circle cx="230.198" cy="314.681" r="4" fill="#0" id="circle51"/>
	<circle cx="230.198" cy="979.648" r="4" fill="#0" id="circle52"/>
	<circle cx="238.374" cy="205.67" r="4" fill="#0" id="circle53"/>
	<circle cx="238.374" cy="232.923" r="4" fill="#0" id="circle54"/>
	<circle cx="238.374" cy="341.934" r="4" fill="#0" id="circle55"/>
	<circle cx="238.374" cy="369.187" r="4" fill="#0" id="circle56"/>
	<circle cx="238.374" cy="396.44" r="4" fill="#0" id="circle57"/>
	<circle cx="238.374" cy="423.692" r="4" fill="#0" id="circle58"/>
	<circle cx="238.374" cy="450.945" r="4" fill="#0" id="circle59"/>
	<circle cx="246.549" cy="55.7802" r="4" fill="#0" id="circle60"/>
	<circle cx="252" cy="475.473" r="4" fill="#0" id="circle61"/>
	<circle cx="252" cy="502.725" r="4" fill="#0" id="circle62"/>
	<circle cx="252" cy="529.978" r="4" fill="#0" id="circle63"/>
	<circle cx="252" cy="996" r="4" fill="#0" id="circle64"/>
	<circle cx="260.176" cy="186.593" r="4" fill="#0" id="circle65"/>
	<circle cx="265.626" cy="77.5824" r="4" fill="#0" id="circle66"/>
	<circle cx="265.626" cy="554.505" r="4" fill="#0" id="circle67"/>
	<circle cx="265.626" cy="581.758" r="4" fill="#0" id="circle68"/>
	<circle cx="276.527" cy="982.374" r="4" fill="#0" id="circle69"/>
	<circle cx="279.253" cy="102.11" r="4" fill="#0" id="circle70"/>
	<circle cx="279.253" cy="129.363" r="4" fill="#0" id="circle71"/>
	<circle cx="279.253" cy="156.615" r="4" fill="#0" id="circle72"/>
	<circle cx="279.253" cy="606.286" r="4" fill="#0" id="circle73"/>
	<circle cx="279.253" cy="633.538" r="4" fill="#0" id="circle74"/>
	<circle cx="279.253" cy="660.791" r="4" fill="#0" id="circle75"/>
	<circle cx="292.879" cy="685.319" r="4" fill="#0" id="circle76"/>
	<circle cx="292.879" cy="712.571" r="4" fill="#0" id="circle77"/>
	<circle cx="292.879" cy="739.824" r="4" fill="#0" id="circle78"/>
	<circle cx="292.879" cy="767.077" r="4" fill="#0" id="circle79"/>
	<circle cx="303.78" cy="982.374" r="4" fill="#0" id="circle80"/>
	<circle cx="306.505" cy="791.604" r="4" fill="#0" id="circle81"/>
	<circle cx="320.132" cy="816.132" r="4" fill="#0" id="circle82"/>
	<circle cx="320.132" cy="900.615" r="4" fill="#0" id="circle83"/>
	<circle cx="331.033" cy="982.374" r="4" fill="#0" id="circle84"/>
	<circle cx="333.758" cy="925.143" r="4" fill="#0" id="circle85"/>
	<circle cx="344.659" cy="886.989" r="4" fill="#0" id="circle86"/>
	<circle cx="347.385" cy="824.308" r="4" fill="#0" id="circle87"/>
	<circle cx="347.385" cy="949.67" r="4" fill="#0" id="circle88"/>
	<circle cx="361.011" cy="914.242" r="4" fill="#0" id="circle89"/>
	<circle cx="366.462" cy="846.11" r="4" fill="#0" id="circle90"/>
	<circle cx="377.363" cy="936.044" r="4" fill="#0" id="circle91"/>
	<circle cx="393.714" cy="857.011" r="4" fill="#0" id="circle92"/>
	<circle cx="401.89" cy="884.264" r="4" fill="#0" id="circle93"/>
	<circle cx="401.89" cy="911.516" r="4" fill="#0" id="circle94"/>
	</g>
</svg>