<?xml version="1.0" encoding="UTF-8" standalone="no"?>
<!-- Created with CurveBenchmark -->
<svg
	xmlns:dc="http://purl.org/dc/elements/1.1/"
	xmlns:cc="http://creativecommons.org/ns#"
	xmlns:rdf="http://www.w3.org/1999/02/22-rdf-syntax-ns#"
	xmlns:svg="http://www.w3.org/2000/svg"
	xmlns="http://www.w3.org/2000/svg"
	xmlns:sodipodi="http://sodipodi.sourceforge.net/DTD/sodipodi-0.dtd"
	xmlns:inkscape="http://www.inkscape.org/namespaces/inkscape"
	width="1000"
	height="1000"
	id="svg2"
	version="1.1"
	sodipodi:docname="manifold/discur-hammer-13.png.txt">
<defs
	id="defs4" />
<metadata
	id="metadata7">
	<rdf:RDF>
		<cc:Work
			rdf:about="">
			<dc:format>image/svg+xml</dc:format>
			<dc:type
				rdf:resource="http://purl.org/dc/dcmitype/StillImage" />
			<dc:title></dc:title>
		</cc:Work>
	</rdf:RDF>
</metadata>
<g
	inkscape:label="Layer 1"
	inkscape:groupmode="layer"
	id="layer1">
	<path style="fill:none;stroke:red;stroke-width:1px;stroke-linecap:butt;stroke-linejoin:miter;stroke-opacity:1" d="M 4,218.413 4,231.984 z" id="boundary" inkscape:connector-curvature="0" />
	<path style="fill:none;stroke:red;stroke-width:1px;stroke-linecap:butt;stroke-linejoin:miter;stroke-opacity:1" d="M 4,218.413 17.5705,214.342 z" id="boundary" inkscape:connector-curvature="0" />
	<path style="fill:none;stroke:red;stroke-width:1px;stroke-linecap:butt;stroke-linejoin:miter;stroke-opacity:1" d="M 4,231.984 4,245.554 z" id="boundary" inkscape:connector-curvature="0" />
	<path style="fill:none;stroke:red;stroke-width:1px;stroke-linecap:butt;stroke-linejoin:miter;stroke-opacity:1" d="M 4,245.554 4,259.124 z" id="boundary" inkscape:connector-curvature="0" />
	<path style="fill:none;stroke:red;stroke-width:1px;stroke-linecap:butt;stroke-linejoin:miter;stroke-opacity:1" d="M 4,259.124 4,272.695 z" id="boundary" inkscape:connector-curvature="0" />
	<path style="fill:none;stroke:red;stroke-width:1px;stroke-linecap:butt;stroke-linejoin:miter;stroke-opacity:1" d="M 4,272.695 4,286.265 z" id="boundary" inkscape:connector-curvature="0" />
	<path style="fill:none;stroke:red;stroke-width:1px;stroke-linecap:butt;stroke-linejoin:miter;stroke-opacity:1" d="M 4,286.265 4,299.836 z" id="boundary" inkscape:connector-curvature="0" />
	<path style="fill:none;stroke:red;stroke-width:1px;stroke-linecap:butt;stroke-linejoin:miter;stroke-opacity:1" d="M 4,299.836 4,313.406 z" id="boundary" inkscape:connector-curvature="0" />
	<path style="fill:none;stroke:red;stroke-width:1px;stroke-linecap:butt;stroke-linejoin:miter;stroke-opacity:1" d="M 4,313.406 4,326.977 z" id="boundary" inkscape:connector-curvature="0" />
	<path style="fill:none;stroke:red;stroke-width:1px;stroke-linecap:butt;stroke-linejoin:miter;stroke-opacity:1" d="M 4,326.977 4,340.547 z" id="boundary" inkscape:connector-curvature="0" />
	<path style="fill:none;stroke:red;stroke-width:1px;stroke-linecap:butt;stroke-linejoin:miter;stroke-opacity:1" d="M 4,340.547 4,354.118 z" id="boundary" inkscape:connector-curvature="0" />
	<path style="fill:none;stroke:red;stroke-width:1px;stroke-linecap:butt;stroke-linejoin:miter;stroke-opacity:1" d="M 4,354.118 4,367.688 z" id="boundary" inkscape:connector-curvature="0" />
	<path style="fill:none;stroke:red;stroke-width:1px;stroke-linecap:butt;stroke-linejoin:miter;stroke-opacity:1" d="M 4,367.688 12.1423,378.544 z" id="boundary" inkscape:connector-curvature="0" />
	<path style="fill:none;stroke:red;stroke-width:1px;stroke-linecap:butt;stroke-linejoin:miter;stroke-opacity:1" d="M 12.1423,378.544 25.7127,378.544 z" id="boundary" inkscape:connector-curvature="0" />
	<path style="fill:none;stroke:red;stroke-width:1px;stroke-linecap:butt;stroke-linejoin:miter;stroke-opacity:1" d="M 17.5705,214.342 31.1409,214.342 z" id="boundary" inkscape:connector-curvature="0" />
	<path style="fill:none;stroke:red;stroke-width:1px;stroke-linecap:butt;stroke-linejoin:miter;stroke-opacity:1" d="M 25.7127,378.544 39.2832,378.544 z" id="boundary" inkscape:connector-curvature="0" />
	<path style="fill:none;stroke:red;stroke-width:1px;stroke-linecap:butt;stroke-linejoin:miter;stroke-opacity:1" d="M 31.1409,214.342 44.7114,214.342 z" id="boundary" inkscape:connector-curvature="0" />
	<path style="fill:none;stroke:red;stroke-width:1px;stroke-linecap:butt;stroke-linejoin:miter;stroke-opacity:1" d="M 39.2832,378.544 52.8536,378.544 z" id="boundary" inkscape:connector-curvature="0" />
	<path style="fill:none;stroke:red;stroke-width:1px;stroke-linecap:butt;stroke-linejoin:miter;stroke-opacity:1" d="M 44.7114,214.342 58.2818,214.342 z" id="boundary" inkscape:connector-curvature="0" />
	<path style="fill:none;stroke:red;stroke-width:1px;stroke-linecap:butt;stroke-linejoin:miter;stroke-opacity:1" d="M 52.8536,378.544 66.4241,378.544 z" id="boundary" inkscape:connector-curvature="0" />
	<path style="fill:none;stroke:red;stroke-width:1px;stroke-linecap:butt;stroke-linejoin:miter;stroke-opacity:1" d="M 58.2818,214.342 71.8523,214.342 z" id="boundary" inkscape:connector-curvature="0" />
	<path style="fill:none;stroke:red;stroke-width:1px;stroke-linecap:butt;stroke-linejoin:miter;stroke-opacity:1" d="M 66.4241,378.544 79.9945,378.544 z" id="boundary" inkscape:connector-curvature="0" />
	<path style="fill:none;stroke:red;stroke-width:1px;stroke-linecap:butt;stroke-linejoin:miter;stroke-opacity:1" d="M 71.8523,214.342 85.4227,214.342 z" id="boundary" inkscape:connector-curvature="0" />
	<path style="fill:none;stroke:red;stroke-width:1px;stroke-linecap:butt;stroke-linejoin:miter;stroke-opacity:1" d="M 79.9945,378.544 93.565,378.544 z" id="boundary" inkscape:connector-curvature="0" />
	<path style="fill:none;stroke:red;stroke-width:1px;stroke-linecap:butt;stroke-linejoin:miter;stroke-opacity:1" d="M 85.4227,214.342 98.9932,214.342 z" id="boundary" inkscape:connector-curvature="0" />
	<path style="fill:none;stroke:red;stroke-width:1px;stroke-linecap:butt;stroke-linejoin:miter;stroke-opacity:1" d="M 93.565,378.544 107.135,378.544 z" id="boundary" inkscape:connector-curvature="0" />
	<path style="fill:none;stroke:red;stroke-width:1px;stroke-linecap:butt;stroke-linejoin:miter;stroke-opacity:1" d="M 98.9932,214.342 112.564,214.342 z" id="boundary" inkscape:connector-curvature="0" />
	<path style="fill:none;stroke:red;stroke-width:1px;stroke-linecap:butt;stroke-linejoin:miter;stroke-opacity:1" d="M 107.135,378.544 120.706,378.544 z" id="boundary" inkscape:connector-curvature="0" />
	<path style="fill:none;stroke:red;stroke-width:1px;stroke-linecap:butt;stroke-linejoin:miter;stroke-opacity:1" d="M 112.564,214.342 126.134,214.342 z" id="boundary" inkscape:connector-curvature="0" />
	<path style="fill:none;stroke:red;stroke-width:1px;stroke-linecap:butt;stroke-linejoin:miter;stroke-opacity:1" d="M 120.706,378.544 134.276,378.544 z" id="boundary" inkscape:connector-curvature="0" />
	<path style="fill:none;stroke:red;stroke-width:1px;stroke-linecap:butt;stroke-linejoin:miter;stroke-opacity:1" d="M 126.134,214.342 139.705,214.342 z" id="boundary" inkscape:connector-curvature="0" />
	<path style="fill:none;stroke:red;stroke-width:1px;stroke-linecap:butt;stroke-linejoin:miter;stroke-opacity:1" d="M 134.276,378.544 147.847,378.544 z" id="boundary" inkscape:connector-curvature="0" />
	<path style="fill:none;stroke:red;stroke-width:1px;stroke-linecap:butt;stroke-linejoin:miter;stroke-opacity:1" d="M 139.705,214.342 153.275,214.342 z" id="boundary" inkscape:connector-curvature="0" />
	<path style="fill:none;stroke:red;stroke-width:1px;stroke-linecap:butt;stroke-linejoin:miter;stroke-opacity:1" d="M 147.847,378.544 161.417,378.544 z" id="boundary" inkscape:connector-curvature="0" />
	<path style="fill:none;stroke:red;stroke-width:1px;stroke-linecap:butt;stroke-linejoin:miter;stroke-opacity:1" d="M 153.275,214.342 166.845,214.342 z" id="boundary" inkscape:connector-curvature="0" />
	<path style="fill:none;stroke:red;stroke-width:1px;stroke-linecap:butt;stroke-linejoin:miter;stroke-opacity:1" d="M 161.417,378.544 174.988,378.544 z" id="boundary" inkscape:connector-curvature="0" />
	<path style="fill:none;stroke:red;stroke-width:1px;stroke-linecap:butt;stroke-linejoin:miter;stroke-opacity:1" d="M 166.845,214.342 180.416,214.342 z" id="boundary" inkscape:connector-curvature="0" />
	<path style="fill:none;stroke:red;stroke-width:1px;stroke-linecap:butt;stroke-linejoin:miter;stroke-opacity:1" d="M 174.988,378.544 188.558,378.544 z" id="boundary" inkscape:connector-curvature="0" />
	<path style="fill:none;stroke:red;stroke-width:1px;stroke-linecap:butt;stroke-linejoin:miter;stroke-opacity:1" d="M 180.416,214.342 193.986,214.342 z" id="boundary" inkscape:connector-curvature="0" />
	<path style="fill:none;stroke:red;stroke-width:1px;stroke-linecap:butt;stroke-linejoin:miter;stroke-opacity:1" d="M 188.558,378.544 202.129,378.544 z" id="boundary" inkscape:connector-curvature="0" />
	<path style="fill:none;stroke:red;stroke-width:1px;stroke-linecap:butt;stroke-linejoin:miter;stroke-opacity:1" d="M 193.986,214.342 207.557,214.342 z" id="boundary" inkscape:connector-curvature="0" />
	<path style="fill:none;stroke:red;stroke-width:1px;stroke-linecap:butt;stroke-linejoin:miter;stroke-opacity:1" d="M 202.129,378.544 215.699,378.544 z" id="boundary" inkscape:connector-curvature="0" />
	<path style="fill:none;stroke:red;stroke-width:1px;stroke-linecap:butt;stroke-linejoin:miter;stroke-opacity:1" d="M 207.557,214.342 221.127,214.342 z" id="boundary" inkscape:connector-curvature="0" />
	<path style="fill:none;stroke:red;stroke-width:1px;stroke-linecap:butt;stroke-linejoin:miter;stroke-opacity:1" d="M 215.699,378.544 229.269,378.544 z" id="boundary" inkscape:connector-curvature="0" />
	<path style="fill:none;stroke:red;stroke-width:1px;stroke-linecap:butt;stroke-linejoin:miter;stroke-opacity:1" d="M 221.127,214.342 234.698,214.342 z" id="boundary" inkscape:connector-curvature="0" />
	<path style="fill:none;stroke:red;stroke-width:1px;stroke-linecap:butt;stroke-linejoin:miter;stroke-opacity:1" d="M 229.269,378.544 242.84,378.544 z" id="boundary" inkscape:connector-curvature="0" />
	<path style="fill:none;stroke:red;stroke-width:1px;stroke-linecap:butt;stroke-linejoin:miter;stroke-opacity:1" d="M 234.698,214.342 248.268,214.342 z" id="boundary" inkscape:connector-curvature="0" />
	<path style="fill:none;stroke:red;stroke-width:1px;stroke-linecap:butt;stroke-linejoin:miter;stroke-opacity:1" d="M 242.84,378.544 256.41,378.544 z" id="boundary" inkscape:connector-curvature="0" />
	<path style="fill:none;stroke:red;stroke-width:1px;stroke-linecap:butt;stroke-linejoin:miter;stroke-opacity:1" d="M 248.268,214.342 261.839,214.342 z" id="boundary" inkscape:connector-curvature="0" />
	<path style="fill:none;stroke:red;stroke-width:1px;stroke-linecap:butt;stroke-linejoin:miter;stroke-opacity:1" d="M 256.41,378.544 269.981,378.544 z" id="boundary" inkscape:connector-curvature="0" />
	<path style="fill:none;stroke:red;stroke-width:1px;stroke-linecap:butt;stroke-linejoin:miter;stroke-opacity:1" d="M 261.839,214.342 275.409,214.342 z" id="boundary" inkscape:connector-curvature="0" />
	<path style="fill:none;stroke:red;stroke-width:1px;stroke-linecap:butt;stroke-linejoin:miter;stroke-opacity:1" d="M 269.981,378.544 283.551,378.544 z" id="boundary" inkscape:connector-curvature="0" />
	<path style="fill:none;stroke:red;stroke-width:1px;stroke-linecap:butt;stroke-linejoin:miter;stroke-opacity:1" d="M 275.409,214.342 288.979,214.342 z" id="boundary" inkscape:connector-curvature="0" />
	<path style="fill:none;stroke:red;stroke-width:1px;stroke-linecap:butt;stroke-linejoin:miter;stroke-opacity:1" d="M 283.551,378.544 297.122,378.544 z" id="boundary" inkscape:connector-curvature="0" />
	<path style="fill:none;stroke:red;stroke-width:1px;stroke-linecap:butt;stroke-linejoin:miter;stroke-opacity:1" d="M 288.979,214.342 302.55,214.342 z" id="boundary" inkscape:connector-curvature="0" />
	<path style="fill:none;stroke:red;stroke-width:1px;stroke-linecap:butt;stroke-linejoin:miter;stroke-opacity:1" d="M 297.122,378.544 310.692,378.544 z" id="boundary" inkscape:connector-curvature="0" />
	<path style="fill:none;stroke:red;stroke-width:1px;stroke-linecap:butt;stroke-linejoin:miter;stroke-opacity:1" d="M 302.55,214.342 316.12,214.342 z" id="boundary" inkscape:connector-curvature="0" />
	<path style="fill:none;stroke:red;stroke-width:1px;stroke-linecap:butt;stroke-linejoin:miter;stroke-opacity:1" d="M 310.692,378.544 324.263,378.544 z" id="boundary" inkscape:connector-curvature="0" />
	<path style="fill:none;stroke:red;stroke-width:1px;stroke-linecap:butt;stroke-linejoin:miter;stroke-opacity:1" d="M 316.12,214.342 329.691,214.342 z" id="boundary" inkscape:connector-curvature="0" />
	<path style="fill:none;stroke:red;stroke-width:1px;stroke-linecap:butt;stroke-linejoin:miter;stroke-opacity:1" d="M 324.263,378.544 337.833,378.544 z" id="boundary" inkscape:connector-curvature="0" />
	<path style="fill:none;stroke:red;stroke-width:1px;stroke-linecap:butt;stroke-linejoin:miter;stroke-opacity:1" d="M 329.691,214.342 343.261,214.342 z" id="boundary" inkscape:connector-curvature="0" />
	<path style="fill:none;stroke:red;stroke-width:1px;stroke-linecap:butt;stroke-linejoin:miter;stroke-opacity:1" d="M 337.833,378.544 351.404,378.544 z" id="boundary" inkscape:connector-curvature="0" />
	<path style="fill:none;stroke:red;stroke-width:1px;stroke-linecap:butt;stroke-linejoin:miter;stroke-opacity:1" d="M 343.261,214.342 356.832,214.342 z" id="boundary" inkscape:connector-curvature="0" />
	<path style="fill:none;stroke:red;stroke-width:1px;stroke-linecap:butt;stroke-linejoin:miter;stroke-opacity:1" d="M 351.404,378.544 364.974,378.544 z" id="boundary" inkscape:connector-curvature="0" />
	<path style="fill:none;stroke:red;stroke-width:1px;stroke-linecap:butt;stroke-linejoin:miter;stroke-opacity:1" d="M 356.832,214.342 370.402,214.342 z" id="boundary" inkscape:connector-curvature="0" />
	<path style="fill:none;stroke:red;stroke-width:1px;stroke-linecap:butt;stroke-linejoin:miter;stroke-opacity:1" d="M 364.974,378.544 378.544,378.544 z" id="boundary" inkscape:connector-curvature="0" />
	<path style="fill:none;stroke:red;stroke-width:1px;stroke-linecap:butt;stroke-linejoin:miter;stroke-opacity:1" d="M 370.402,214.342 383.973,214.342 z" id="boundary" inkscape:connector-curvature="0" />
	<path style="fill:none;stroke:red;stroke-width:1px;stroke-linecap:butt;stroke-linejoin:miter;stroke-opacity:1" d="M 378.544,378.544 392.115,378.544 z" id="boundary" inkscape:connector-curvature="0" />
	<path style="fill:none;stroke:red;stroke-width:1px;stroke-linecap:butt;stroke-linejoin:miter;stroke-opacity:1" d="M 383.973,214.342 397.543,214.342 z" id="boundary" inkscape:connector-curvature="0" />
	<path style="fill:none;stroke:red;stroke-width:1px;stroke-linecap:butt;stroke-linejoin:miter;stroke-opacity:1" d="M 392.115,378.544 405.685,378.544 z" id="boundary" inkscape:connector-curvature="0" />
	<path style="fill:none;stroke:red;stroke-width:1px;stroke-linecap:butt;stroke-linejoin:miter;stroke-opacity:1" d="M 397.543,214.342 411.114,214.342 z" id="boundary" inkscape:connector-curvature="0" />
	<path style="fill:none;stroke:red;stroke-width:1px;stroke-linecap:butt;stroke-linejoin:miter;stroke-opacity:1" d="M 405.685,378.544 419.256,378.544 z" id="boundary" inkscape:connector-curvature="0" />
	<path style="fill:none;stroke:red;stroke-width:1px;stroke-linecap:butt;stroke-linejoin:miter;stroke-opacity:1" d="M 411.114,214.342 424.684,214.342 z" id="boundary" inkscape:connector-curvature="0" />
	<path style="fill:none;stroke:red;stroke-width:1px;stroke-linecap:butt;stroke-linejoin:miter;stroke-opacity:1" d="M 419.256,378.544 432.826,378.544 z" id="boundary" inkscape:connector-curvature="0" />
	<path style="fill:none;stroke:red;stroke-width:1px;stroke-linecap:butt;stroke-linejoin:miter;stroke-opacity:1" d="M 424.684,214.342 438.254,214.342 z" id="boundary" inkscape:connector-curvature="0" />
	<path style="fill:none;stroke:red;stroke-width:1px;stroke-linecap:butt;stroke-linejoin:miter;stroke-opacity:1" d="M 432.826,378.544 446.397,378.544 z" id="boundary" inkscape:connector-curvature="0" />
	<path style="fill:none;stroke:red;stroke-width:1px;stroke-linecap:butt;stroke-linejoin:miter;stroke-opacity:1" d="M 438.254,214.342 451.825,214.342 z" id="boundary" inkscape:connector-curvature="0" />
	<path style="fill:none;stroke:red;stroke-width:1px;stroke-linecap:butt;stroke-linejoin:miter;stroke-opacity:1" d="M 446.397,378.544 459.967,378.544 z" id="boundary" inkscape:connector-curvature="0" />
	<path style="fill:none;stroke:red;stroke-width:1px;stroke-linecap:butt;stroke-linejoin:miter;stroke-opacity:1" d="M 451.825,214.342 465.395,214.342 z" id="boundary" inkscape:connector-curvature="0" />
	<path style="fill:none;stroke:red;stroke-width:1px;stroke-linecap:butt;stroke-linejoin:miter;stroke-opacity:1" d="M 459.967,378.544 473.538,378.544 z" id="boundary" inkscape:connector-curvature="0" />
	<path style="fill:none;stroke:red;stroke-width:1px;stroke-linecap:butt;stroke-linejoin:miter;stroke-opacity:1" d="M 465.395,214.342 478.966,214.342 z" id="boundary" inkscape:connector-curvature="0" />
	<path style="fill:none;stroke:red;stroke-width:1px;stroke-linecap:butt;stroke-linejoin:miter;stroke-opacity:1" d="M 473.538,378.544 487.108,378.544 z" id="boundary" inkscape:connector-curvature="0" />
	<path style="fill:none;stroke:red;stroke-width:1px;stroke-linecap:butt;stroke-linejoin:miter;stroke-opacity:1" d="M 478.966,214.342 492.536,214.342 z" id="boundary" inkscape:connector-curvature="0" />
	<path style="fill:none;stroke:red;stroke-width:1px;stroke-linecap:butt;stroke-linejoin:miter;stroke-opacity:1" d="M 487.108,378.544 500.679,378.544 z" id="boundary" inkscape:connector-curvature="0" />
	<path style="fill:none;stroke:red;stroke-width:1px;stroke-linecap:butt;stroke-linejoin:miter;stroke-opacity:1" d="M 492.536,214.342 506.107,214.342 z" id="boundary" inkscape:connector-curvature="0" />
	<path style="fill:none;stroke:red;stroke-width:1px;stroke-linecap:butt;stroke-linejoin:miter;stroke-opacity:1" d="M 500.679,378.544 514.249,378.544 z" id="boundary" inkscape:connector-curvature="0" />
	<path style="fill:none;stroke:red;stroke-width:1px;stroke-linecap:butt;stroke-linejoin:miter;stroke-opacity:1" d="M 506.107,214.342 519.677,214.342 z" id="boundary" inkscape:connector-curvature="0" />
	<path style="fill:none;stroke:red;stroke-width:1px;stroke-linecap:butt;stroke-linejoin:miter;stroke-opacity:1" d="M 514.249,378.544 527.819,378.544 z" id="boundary" inkscape:connector-curvature="0" />
	<path style="fill:none;stroke:red;stroke-width:1px;stroke-linecap:butt;stroke-linejoin:miter;stroke-opacity:1" d="M 519.677,214.342 533.248,214.342 z" id="boundary" inkscape:connector-curvature="0" />
	<path style="fill:none;stroke:red;stroke-width:1px;stroke-linecap:butt;stroke-linejoin:miter;stroke-opacity:1" d="M 527.819,378.544 541.39,378.544 z" id="boundary" inkscape:connector-curvature="0" />
	<path style="fill:none;stroke:red;stroke-width:1px;stroke-linecap:butt;stroke-linejoin:miter;stroke-opacity:1" d="M 533.248,214.342 546.818,214.342 z" id="boundary" inkscape:connector-curvature="0" />
	<path style="fill:none;stroke:red;stroke-width:1px;stroke-linecap:butt;stroke-linejoin:miter;stroke-opacity:1" d="M 541.39,378.544 554.96,378.544 z" id="boundary" inkscape:connector-curvature="0" />
	<path style="fill:none;stroke:red;stroke-width:1px;stroke-linecap:butt;stroke-linejoin:miter;stroke-opacity:1" d="M 546.818,214.342 560.389,214.342 z" id="boundary" inkscape:connector-curvature="0" />
	<path style="fill:none;stroke:red;stroke-width:1px;stroke-linecap:butt;stroke-linejoin:miter;stroke-opacity:1" d="M 554.96,378.544 568.531,378.544 z" id="boundary" inkscape:connector-curvature="0" />
	<path style="fill:none;stroke:red;stroke-width:1px;stroke-linecap:butt;stroke-linejoin:miter;stroke-opacity:1" d="M 560.389,214.342 573.959,214.342 z" id="boundary" inkscape:connector-curvature="0" />
	<path style="fill:none;stroke:red;stroke-width:1px;stroke-linecap:butt;stroke-linejoin:miter;stroke-opacity:1" d="M 568.531,378.544 582.101,378.544 z" id="boundary" inkscape:connector-curvature="0" />
	<path style="fill:none;stroke:red;stroke-width:1px;stroke-linecap:butt;stroke-linejoin:miter;stroke-opacity:1" d="M 573.959,214.342 587.529,214.342 z" id="boundary" inkscape:connector-curvature="0" />
	<path style="fill:none;stroke:red;stroke-width:1px;stroke-linecap:butt;stroke-linejoin:miter;stroke-opacity:1" d="M 582.101,378.544 595.672,378.544 z" id="boundary" inkscape:connector-curvature="0" />
	<path style="fill:none;stroke:red;stroke-width:1px;stroke-linecap:butt;stroke-linejoin:miter;stroke-opacity:1" d="M 587.529,214.342 601.1,214.342 z" id="boundary" inkscape:connector-curvature="0" />
	<path style="fill:none;stroke:red;stroke-width:1px;stroke-linecap:butt;stroke-linejoin:miter;stroke-opacity:1" d="M 595.672,378.544 609.242,378.544 z" id="boundary" inkscape:connector-curvature="0" />
	<path style="fill:none;stroke:red;stroke-width:1px;stroke-linecap:butt;stroke-linejoin:miter;stroke-opacity:1" d="M 601.1,214.342 614.67,214.342 z" id="boundary" inkscape:connector-curvature="0" />
	<path style="fill:none;stroke:red;stroke-width:1px;stroke-linecap:butt;stroke-linejoin:miter;stroke-opacity:1" d="M 609.242,378.544 622.813,378.544 z" id="boundary" inkscape:connector-curvature="0" />
	<path style="fill:none;stroke:red;stroke-width:1px;stroke-linecap:butt;stroke-linejoin:miter;stroke-opacity:1" d="M 614.67,214.342 628.241,214.342 z" id="boundary" inkscape:connector-curvature="0" />
	<path style="fill:none;stroke:red;stroke-width:1px;stroke-linecap:butt;stroke-linejoin:miter;stroke-opacity:1" d="M 622.813,378.544 636.383,378.544 z" id="boundary" inkscape:connector-curvature="0" />
	<path style="fill:none;stroke:red;stroke-width:1px;stroke-linecap:butt;stroke-linejoin:miter;stroke-opacity:1" d="M 628.241,214.342 641.811,214.342 z" id="boundary" inkscape:connector-curvature="0" />
	<path style="fill:none;stroke:red;stroke-width:1px;stroke-linecap:butt;stroke-linejoin:miter;stroke-opacity:1" d="M 636.383,378.544 649.953,378.544 z" id="boundary" inkscape:connector-curvature="0" />
	<path style="fill:none;stroke:red;stroke-width:1px;stroke-linecap:butt;stroke-linejoin:miter;stroke-opacity:1" d="M 641.811,214.342 655.382,214.342 z" id="boundary" inkscape:connector-curvature="0" />
	<path style="fill:none;stroke:red;stroke-width:1px;stroke-linecap:butt;stroke-linejoin:miter;stroke-opacity:1" d="M 641.811,686.594 648.596,673.023 z" id="boundary" inkscape:connector-curvature="0" />
	<path style="fill:none;stroke:red;stroke-width:1px;stroke-linecap:butt;stroke-linejoin:miter;stroke-opacity:1" d="M 641.811,686.594 655.382,690.665 z" id="boundary" inkscape:connector-curvature="0" />
	<path style="fill:none;stroke:red;stroke-width:1px;stroke-linecap:butt;stroke-linejoin:miter;stroke-opacity:1" d="M 648.596,673.023 655.382,659.453 z" id="boundary" inkscape:connector-curvature="0" />
	<path style="fill:none;stroke:red;stroke-width:1px;stroke-linecap:butt;stroke-linejoin:miter;stroke-opacity:1" d="M 649.953,378.544 663.524,378.544 z" id="boundary" inkscape:connector-curvature="0" />
	<path style="fill:none;stroke:red;stroke-width:1px;stroke-linecap:butt;stroke-linejoin:miter;stroke-opacity:1" d="M 655.382,214.342 668.952,214.342 z" id="boundary" inkscape:connector-curvature="0" />
	<path style="fill:none;stroke:red;stroke-width:1px;stroke-linecap:butt;stroke-linejoin:miter;stroke-opacity:1" d="M 655.382,659.453 662.167,645.882 z" id="boundary" inkscape:connector-curvature="0" />
	<path style="fill:none;stroke:red;stroke-width:1px;stroke-linecap:butt;stroke-linejoin:miter;stroke-opacity:1" d="M 655.382,690.665 668.952,686.594 z" id="boundary" inkscape:connector-curvature="0" />
	<path style="fill:none;stroke:red;stroke-width:1px;stroke-linecap:butt;stroke-linejoin:miter;stroke-opacity:1" d="M 662.167,632.312 662.167,645.882 z" id="boundary" inkscape:connector-curvature="0" />
	<path style="fill:none;stroke:red;stroke-width:1px;stroke-linecap:butt;stroke-linejoin:miter;stroke-opacity:1" d="M 662.167,632.312 668.952,611.956 z" id="boundary" inkscape:connector-curvature="0" />
	<path style="fill:none;stroke:red;stroke-width:1px;stroke-linecap:butt;stroke-linejoin:miter;stroke-opacity:1" d="M 663.524,378.544 677.094,378.544 z" id="boundary" inkscape:connector-curvature="0" />
	<path style="fill:none;stroke:red;stroke-width:1px;stroke-linecap:butt;stroke-linejoin:miter;stroke-opacity:1" d="M 668.952,8.07114 668.952,21.6416 z" id="boundary" inkscape:connector-curvature="0" />
	<path style="fill:none;stroke:red;stroke-width:1px;stroke-linecap:butt;stroke-linejoin:miter;stroke-opacity:1" d="M 668.952,8.07114 682.523,4 z" id="boundary" inkscape:connector-curvature="0" />
	<path style="fill:none;stroke:red;stroke-width:1px;stroke-linecap:butt;stroke-linejoin:miter;stroke-opacity:1" d="M 668.952,21.6416 668.952,35.212 z" id="boundary" inkscape:connector-curvature="0" />
	<path style="fill:none;stroke:red;stroke-width:1px;stroke-linecap:butt;stroke-linejoin:miter;stroke-opacity:1" d="M 668.952,35.212 668.952,48.7825 z" id="boundary" inkscape:connector-curvature="0" />
	<path style="fill:none;stroke:red;stroke-width:1px;stroke-linecap:butt;stroke-linejoin:miter;stroke-opacity:1" d="M 668.952,48.7825 668.952,62.3529 z" id="boundary" inkscape:connector-curvature="0" />
	<path style="fill:none;stroke:red;stroke-width:1px;stroke-linecap:butt;stroke-linejoin:miter;stroke-opacity:1" d="M 668.952,62.3529 668.952,75.9234 z" id="boundary" inkscape:connector-curvature="0" />
	<path style="fill:none;stroke:red;stroke-width:1px;stroke-linecap:butt;stroke-linejoin:miter;stroke-opacity:1" d="M 668.952,75.9234 668.952,89.4938 z" id="boundary" inkscape:connector-curvature="0" />
	<path style="fill:none;stroke:red;stroke-width:1px;stroke-linecap:butt;stroke-linejoin:miter;stroke-opacity:1" d="M 668.952,89.4938 668.952,103.064 z" id="boundary" inkscape:connector-curvature="0" />
	<path style="fill:none;stroke:red;stroke-width:1px;stroke-linecap:butt;stroke-linejoin:miter;stroke-opacity:1" d="M 668.952,103.064 668.952,116.635 z" id="boundary" inkscape:connector-curvature="0" />
	<path style="fill:none;stroke:red;stroke-width:1px;stroke-linecap:butt;stroke-linejoin:miter;stroke-opacity:1" d="M 668.952,116.635 668.952,130.205 z" id="boundary" inkscape:connector-curvature="0" />
	<path style="fill:none;stroke:red;stroke-width:1px;stroke-linecap:butt;stroke-linejoin:miter;stroke-opacity:1" d="M 668.952,130.205 668.952,143.776 z" id="boundary" inkscape:connector-curvature="0" />
	<path style="fill:none;stroke:red;stroke-width:1px;stroke-linecap:butt;stroke-linejoin:miter;stroke-opacity:1" d="M 668.952,143.776 668.952,157.346 z" id="boundary" inkscape:connector-curvature="0" />
	<path style="fill:none;stroke:red;stroke-width:1px;stroke-linecap:butt;stroke-linejoin:miter;stroke-opacity:1" d="M 668.952,157.346 668.952,170.917 z" id="boundary" inkscape:connector-curvature="0" />
	<path style="fill:none;stroke:red;stroke-width:1px;stroke-linecap:butt;stroke-linejoin:miter;stroke-opacity:1" d="M 668.952,170.917 677.094,181.773 z" id="boundary" inkscape:connector-curvature="0" />
	<path style="fill:none;stroke:red;stroke-width:1px;stroke-linecap:butt;stroke-linejoin:miter;stroke-opacity:1" d="M 668.952,214.342 682.523,214.342 z" id="boundary" inkscape:connector-curvature="0" />
	<path style="fill:none;stroke:red;stroke-width:1px;stroke-linecap:butt;stroke-linejoin:miter;stroke-opacity:1" d="M 668.952,611.956 675.737,598.386 z" id="boundary" inkscape:connector-curvature="0" />
	<path style="fill:none;stroke:red;stroke-width:1px;stroke-linecap:butt;stroke-linejoin:miter;stroke-opacity:1" d="M 668.952,686.594 682.523,683.88 z" id="boundary" inkscape:connector-curvature="0" />
	<path style="fill:none;stroke:red;stroke-width:1px;stroke-linecap:butt;stroke-linejoin:miter;stroke-opacity:1" d="M 675.737,571.245 675.737,584.815 z" id="boundary" inkscape:connector-curvature="0" />
	<path style="fill:none;stroke:red;stroke-width:1px;stroke-linecap:butt;stroke-linejoin:miter;stroke-opacity:1" d="M 675.737,571.245 682.523,557.674 z" id="boundary" inkscape:connector-curvature="0" />
	<path style="fill:none;stroke:red;stroke-width:1px;stroke-linecap:butt;stroke-linejoin:miter;stroke-opacity:1" d="M 675.737,584.815 675.737,598.386 z" id="boundary" inkscape:connector-curvature="0" />
	<path style="fill:none;stroke:red;stroke-width:1px;stroke-linecap:butt;stroke-linejoin:miter;stroke-opacity:1" d="M 677.094,181.773 690.665,181.773 z" id="boundary" inkscape:connector-curvature="0" />
	<path style="fill:none;stroke:red;stroke-width:1px;stroke-linecap:butt;stroke-linejoin:miter;stroke-opacity:1" d="M 677.094,378.544 690.665,378.544 z" id="boundary" inkscape:connector-curvature="0" />
	<path style="fill:none;stroke:red;stroke-width:1px;stroke-linecap:butt;stroke-linejoin:miter;stroke-opacity:1" d="M 682.523,4 696.093,4 z" id="boundary" inkscape:connector-curvature="0" />
	<path style="fill:none;stroke:red;stroke-width:1px;stroke-linecap:butt;stroke-linejoin:miter;stroke-opacity:1" d="M 682.523,214.342 696.093,208.914 z" id="boundary" inkscape:connector-curvature="0" />
	<path style="fill:none;stroke:red;stroke-width:1px;stroke-linecap:butt;stroke-linejoin:miter;stroke-opacity:1" d="M 682.523,544.104 682.523,557.674 z" id="boundary" inkscape:connector-curvature="0" />
	<path style="fill:none;stroke:red;stroke-width:1px;stroke-linecap:butt;stroke-linejoin:miter;stroke-opacity:1" d="M 682.523,544.104 689.308,530.534 z" id="boundary" inkscape:connector-curvature="0" />
	<path style="fill:none;stroke:red;stroke-width:1px;stroke-linecap:butt;stroke-linejoin:miter;stroke-opacity:1" d="M 682.523,683.88 694.736,677.094 z" id="boundary" inkscape:connector-curvature="0" />
	<path style="fill:none;stroke:red;stroke-width:1px;stroke-linecap:butt;stroke-linejoin:miter;stroke-opacity:1" d="M 689.308,503.393 689.308,516.963 z" id="boundary" inkscape:connector-curvature="0" />
	<path style="fill:none;stroke:red;stroke-width:1px;stroke-linecap:butt;stroke-linejoin:miter;stroke-opacity:1" d="M 689.308,503.393 696.093,489.822 z" id="boundary" inkscape:connector-curvature="0" />
	<path style="fill:none;stroke:red;stroke-width:1px;stroke-linecap:butt;stroke-linejoin:miter;stroke-opacity:1" d="M 689.308,516.963 689.308,530.534 z" id="boundary" inkscape:connector-curvature="0" />
	<path style="fill:none;stroke:red;stroke-width:1px;stroke-linecap:butt;stroke-linejoin:miter;stroke-opacity:1" d="M 690.665,181.773 696.093,195.343 z" id="boundary" inkscape:connector-curvature="0" />
	<path style="fill:none;stroke:red;stroke-width:1px;stroke-linecap:butt;stroke-linejoin:miter;stroke-opacity:1" d="M 690.665,378.544 702.878,385.33 z" id="boundary" inkscape:connector-curvature="0" />
	<path style="fill:none;stroke:red;stroke-width:1px;stroke-linecap:butt;stroke-linejoin:miter;stroke-opacity:1" d="M 694.736,677.094 708.306,674.38 z" id="boundary" inkscape:connector-curvature="0" />
	<path style="fill:none;stroke:red;stroke-width:1px;stroke-linecap:butt;stroke-linejoin:miter;stroke-opacity:1" d="M 696.093,4 709.663,4 z" id="boundary" inkscape:connector-curvature="0" />
	<path style="fill:none;stroke:red;stroke-width:1px;stroke-linecap:butt;stroke-linejoin:miter;stroke-opacity:1" d="M 696.093,195.343 696.093,208.914 z" id="boundary" inkscape:connector-curvature="0" />
	<path style="fill:none;stroke:red;stroke-width:1px;stroke-linecap:butt;stroke-linejoin:miter;stroke-opacity:1" d="M 696.093,449.111 696.093,462.681 z" id="boundary" inkscape:connector-curvature="0" />
	<path style="fill:none;stroke:red;stroke-width:1px;stroke-linecap:butt;stroke-linejoin:miter;stroke-opacity:1" d="M 696.093,449.111 702.878,426.041 z" id="boundary" inkscape:connector-curvature="0" />
	<path style="fill:none;stroke:red;stroke-width:1px;stroke-linecap:butt;stroke-linejoin:miter;stroke-opacity:1" d="M 696.093,462.681 696.093,476.252 z" id="boundary" inkscape:connector-curvature="0" />
	<path style="fill:none;stroke:red;stroke-width:1px;stroke-linecap:butt;stroke-linejoin:miter;stroke-opacity:1" d="M 696.093,476.252 696.093,489.822 z" id="boundary" inkscape:connector-curvature="0" />
	<path style="fill:none;stroke:red;stroke-width:1px;stroke-linecap:butt;stroke-linejoin:miter;stroke-opacity:1" d="M 702.878,385.33 702.878,398.9 z" id="boundary" inkscape:connector-curvature="0" />
	<path style="fill:none;stroke:red;stroke-width:1px;stroke-linecap:butt;stroke-linejoin:miter;stroke-opacity:1" d="M 702.878,398.9 702.878,412.471 z" id="boundary" inkscape:connector-curvature="0" />
	<path style="fill:none;stroke:red;stroke-width:1px;stroke-linecap:butt;stroke-linejoin:miter;stroke-opacity:1" d="M 702.878,412.471 702.878,426.041 z" id="boundary" inkscape:connector-curvature="0" />
	<path style="fill:none;stroke:red;stroke-width:1px;stroke-linecap:butt;stroke-linejoin:miter;stroke-opacity:1" d="M 708.306,674.38 721.877,667.595 z" id="boundary" inkscape:connector-curvature="0" />
	<path style="fill:none;stroke:red;stroke-width:1px;stroke-linecap:butt;stroke-linejoin:miter;stroke-opacity:1" d="M 709.663,4 723.234,4 z" id="boundary" inkscape:connector-curvature="0" />
	<path style="fill:none;stroke:red;stroke-width:1px;stroke-linecap:butt;stroke-linejoin:miter;stroke-opacity:1" d="M 721.877,667.595 735.447,663.524 z" id="boundary" inkscape:connector-curvature="0" />
	<path style="fill:none;stroke:red;stroke-width:1px;stroke-linecap:butt;stroke-linejoin:miter;stroke-opacity:1" d="M 723.234,4 736.804,4 z" id="boundary" inkscape:connector-curvature="0" />
	<path style="fill:none;stroke:red;stroke-width:1px;stroke-linecap:butt;stroke-linejoin:miter;stroke-opacity:1" d="M 735.447,663.524 747.661,655.382 z" id="boundary" inkscape:connector-curvature="0" />
	<path style="fill:none;stroke:red;stroke-width:1px;stroke-linecap:butt;stroke-linejoin:miter;stroke-opacity:1" d="M 736.804,4 750.375,4 z" id="boundary" inkscape:connector-curvature="0" />
	<path style="fill:none;stroke:red;stroke-width:1px;stroke-linecap:butt;stroke-linejoin:miter;stroke-opacity:1" d="M 747.661,655.382 761.231,648.596 z" id="boundary" inkscape:connector-curvature="0" />
	<path style="fill:none;stroke:red;stroke-width:1px;stroke-linecap:butt;stroke-linejoin:miter;stroke-opacity:1" d="M 750.375,4 763.945,4 z" id="boundary" inkscape:connector-curvature="0" />
	<path style="fill:none;stroke:red;stroke-width:1px;stroke-linecap:butt;stroke-linejoin:miter;stroke-opacity:1" d="M 761.231,648.596 772.088,636.383 z" id="boundary" inkscape:connector-curvature="0" />
	<path style="fill:none;stroke:red;stroke-width:1px;stroke-linecap:butt;stroke-linejoin:miter;stroke-opacity:1" d="M 763.945,4 777.516,4 z" id="boundary" inkscape:connector-curvature="0" />
	<path style="fill:none;stroke:red;stroke-width:1px;stroke-linecap:butt;stroke-linejoin:miter;stroke-opacity:1" d="M 772.088,636.383 785.658,629.598 z" id="boundary" inkscape:connector-curvature="0" />
	<path style="fill:none;stroke:red;stroke-width:1px;stroke-linecap:butt;stroke-linejoin:miter;stroke-opacity:1" d="M 777.516,4 791.086,4 z" id="boundary" inkscape:connector-curvature="0" />
	<path style="fill:none;stroke:red;stroke-width:1px;stroke-linecap:butt;stroke-linejoin:miter;stroke-opacity:1" d="M 785.658,629.598 799.228,629.598 z" id="boundary" inkscape:connector-curvature="0" />
	<path style="fill:none;stroke:red;stroke-width:1px;stroke-linecap:butt;stroke-linejoin:miter;stroke-opacity:1" d="M 791.086,4 804.657,4 z" id="boundary" inkscape:connector-curvature="0" />
	<path style="fill:none;stroke:red;stroke-width:1px;stroke-linecap:butt;stroke-linejoin:miter;stroke-opacity:1" d="M 799.228,629.598 810.085,620.098 z" id="boundary" inkscape:connector-curvature="0" />
	<path style="fill:none;stroke:red;stroke-width:1px;stroke-linecap:butt;stroke-linejoin:miter;stroke-opacity:1" d="M 804.657,4 818.227,4 z" id="boundary" inkscape:connector-curvature="0" />
	<path style="fill:none;stroke:red;stroke-width:1px;stroke-linecap:butt;stroke-linejoin:miter;stroke-opacity:1" d="M 810.085,620.098 819.584,609.242 z" id="boundary" inkscape:connector-curvature="0" />
	<path style="fill:none;stroke:red;stroke-width:1px;stroke-linecap:butt;stroke-linejoin:miter;stroke-opacity:1" d="M 818.227,4 831.798,4 z" id="boundary" inkscape:connector-curvature="0" />
	<path style="fill:none;stroke:red;stroke-width:1px;stroke-linecap:butt;stroke-linejoin:miter;stroke-opacity:1" d="M 819.584,609.242 833.155,602.457 z" id="boundary" inkscape:connector-curvature="0" />
	<path style="fill:none;stroke:red;stroke-width:1px;stroke-linecap:butt;stroke-linejoin:miter;stroke-opacity:1" d="M 831.798,4 845.368,4 z" id="boundary" inkscape:connector-curvature="0" />
	<path style="fill:none;stroke:red;stroke-width:1px;stroke-linecap:butt;stroke-linejoin:miter;stroke-opacity:1" d="M 833.155,602.457 844.011,592.958 z" id="boundary" inkscape:connector-curvature="0" />
	<path style="fill:none;stroke:red;stroke-width:1px;stroke-linecap:butt;stroke-linejoin:miter;stroke-opacity:1" d="M 844.011,592.958 853.51,582.101 z" id="boundary" inkscape:connector-curvature="0" />
	<path style="fill:none;stroke:red;stroke-width:1px;stroke-linecap:butt;stroke-linejoin:miter;stroke-opacity:1" d="M 845.368,4 858.938,4 z" id="boundary" inkscape:connector-curvature="0" />
	<path style="fill:none;stroke:red;stroke-width:1px;stroke-linecap:butt;stroke-linejoin:miter;stroke-opacity:1" d="M 853.51,582.101 864.367,572.602 z" id="boundary" inkscape:connector-curvature="0" />
	<path style="fill:none;stroke:red;stroke-width:1px;stroke-linecap:butt;stroke-linejoin:miter;stroke-opacity:1" d="M 858.938,4 872.509,4 z" id="boundary" inkscape:connector-curvature="0" />
	<path style="fill:none;stroke:red;stroke-width:1px;stroke-linecap:butt;stroke-linejoin:miter;stroke-opacity:1" d="M 864.367,572.602 871.152,559.031 z" id="boundary" inkscape:connector-curvature="0" />
	<path style="fill:none;stroke:red;stroke-width:1px;stroke-linecap:butt;stroke-linejoin:miter;stroke-opacity:1" d="M 871.152,559.031 880.651,541.39 z" id="boundary" inkscape:connector-curvature="0" />
	<path style="fill:none;stroke:red;stroke-width:1px;stroke-linecap:butt;stroke-linejoin:miter;stroke-opacity:1" d="M 872.509,4 886.079,4 z" id="boundary" inkscape:connector-curvature="0" />
	<path style="fill:none;stroke:red;stroke-width:1px;stroke-linecap:butt;stroke-linejoin:miter;stroke-opacity:1" d="M 880.651,541.39 887.436,527.819 z" id="boundary" inkscape:connector-curvature="0" />
	<path style="fill:none;stroke:red;stroke-width:1px;stroke-linecap:butt;stroke-linejoin:miter;stroke-opacity:1" d="M 886.079,4 899.65,4 z" id="boundary" inkscape:connector-curvature="0" />
	<path style="fill:none;stroke:red;stroke-width:1px;stroke-linecap:butt;stroke-linejoin:miter;stroke-opacity:1" d="M 887.436,527.819 898.293,518.32 z" id="boundary" inkscape:connector-curvature="0" />
	<path style="fill:none;stroke:red;stroke-width:1px;stroke-linecap:butt;stroke-linejoin:miter;stroke-opacity:1" d="M 898.293,518.32 905.078,504.75 z" id="boundary" inkscape:connector-curvature="0" />
	<path style="fill:none;stroke:red;stroke-width:1px;stroke-linecap:butt;stroke-linejoin:miter;stroke-opacity:1" d="M 899.65,4 913.22,4 z" id="boundary" inkscape:connector-curvature="0" />
	<path style="fill:none;stroke:red;stroke-width:1px;stroke-linecap:butt;stroke-linejoin:miter;stroke-opacity:1" d="M 905.078,504.75 914.577,487.108 z" id="boundary" inkscape:connector-curvature="0" />
	<path style="fill:none;stroke:red;stroke-width:1px;stroke-linecap:butt;stroke-linejoin:miter;stroke-opacity:1" d="M 913.22,4 926.791,4 z" id="boundary" inkscape:connector-curvature="0" />
	<path style="fill:none;stroke:red;stroke-width:1px;stroke-linecap:butt;stroke-linejoin:miter;stroke-opacity:1" d="M 914.577,487.108 925.434,477.609 z" id="boundary" inkscape:connector-curvature="0" />
	<path style="fill:none;stroke:red;stroke-width:1px;stroke-linecap:butt;stroke-linejoin:miter;stroke-opacity:1" d="M 925.434,477.609 932.219,464.038 z" id="boundary" inkscape:connector-curvature="0" />
	<path style="fill:none;stroke:red;stroke-width:1px;stroke-linecap:butt;stroke-linejoin:miter;stroke-opacity:1" d="M 926.791,4 940.361,4 z" id="boundary" inkscape:connector-curvature="0" />
	<path style="fill:none;stroke:red;stroke-width:1px;stroke-linecap:butt;stroke-linejoin:miter;stroke-opacity:1" d="M 932.219,464.038 941.718,446.397 z" id="boundary" inkscape:connector-curvature="0" />
	<path style="fill:none;stroke:red;stroke-width:1px;stroke-linecap:butt;stroke-linejoin:miter;stroke-opacity:1" d="M 940.361,4 953.932,4 z" id="boundary" inkscape:connector-curvature="0" />
	<path style="fill:none;stroke:red;stroke-width:1px;stroke-linecap:butt;stroke-linejoin:miter;stroke-opacity:1" d="M 941.718,432.826 941.718,446.397 z" id="boundary" inkscape:connector-curvature="0" />
	<path style="fill:none;stroke:red;stroke-width:1px;stroke-linecap:butt;stroke-linejoin:miter;stroke-opacity:1" d="M 941.718,432.826 948.503,419.256 z" id="boundary" inkscape:connector-curvature="0" />
	<path style="fill:none;stroke:red;stroke-width:1px;stroke-linecap:butt;stroke-linejoin:miter;stroke-opacity:1" d="M 948.503,419.256 955.289,405.685 z" id="boundary" inkscape:connector-curvature="0" />
	<path style="fill:none;stroke:red;stroke-width:1px;stroke-linecap:butt;stroke-linejoin:miter;stroke-opacity:1" d="M 953.932,4 967.502,4 z" id="boundary" inkscape:connector-curvature="0" />
	<path style="fill:none;stroke:red;stroke-width:1px;stroke-linecap:butt;stroke-linejoin:miter;stroke-opacity:1" d="M 955.289,405.685 962.074,385.33 z" id="boundary" inkscape:connector-curvature="0" />
	<path style="fill:none;stroke:red;stroke-width:1px;stroke-linecap:butt;stroke-linejoin:miter;stroke-opacity:1" d="M 962.074,371.759 962.074,385.33 z" id="boundary" inkscape:connector-curvature="0" />
	<path style="fill:none;stroke:red;stroke-width:1px;stroke-linecap:butt;stroke-linejoin:miter;stroke-opacity:1" d="M 962.074,371.759 968.859,358.189 z" id="boundary" inkscape:connector-curvature="0" />
	<path style="fill:none;stroke:red;stroke-width:1px;stroke-linecap:butt;stroke-linejoin:miter;stroke-opacity:1" d="M 967.502,4 981.073,4 z" id="boundary" inkscape:connector-curvature="0" />
	<path style="fill:none;stroke:red;stroke-width:1px;stroke-linecap:butt;stroke-linejoin:miter;stroke-opacity:1" d="M 968.859,181.773 968.859,195.343 z" id="boundary" inkscape:connector-curvature="0" />
	<path style="fill:none;stroke:red;stroke-width:1px;stroke-linecap:butt;stroke-linejoin:miter;stroke-opacity:1" d="M 968.859,181.773 982.43,181.773 z" id="boundary" inkscape:connector-curvature="0" />
	<path style="fill:none;stroke:red;stroke-width:1px;stroke-linecap:butt;stroke-linejoin:miter;stroke-opacity:1" d="M 968.859,195.343 968.859,208.914 z" id="boundary" inkscape:connector-curvature="0" />
	<path style="fill:none;stroke:red;stroke-width:1px;stroke-linecap:butt;stroke-linejoin:miter;stroke-opacity:1" d="M 968.859,208.914 968.859,222.484 z" id="boundary" inkscape:connector-curvature="0" />
	<path style="fill:none;stroke:red;stroke-width:1px;stroke-linecap:butt;stroke-linejoin:miter;stroke-opacity:1" d="M 968.859,222.484 968.859,236.055 z" id="boundary" inkscape:connector-curvature="0" />
	<path style="fill:none;stroke:red;stroke-width:1px;stroke-linecap:butt;stroke-linejoin:miter;stroke-opacity:1" d="M 968.859,236.055 968.859,249.625 z" id="boundary" inkscape:connector-curvature="0" />
	<path style="fill:none;stroke:red;stroke-width:1px;stroke-linecap:butt;stroke-linejoin:miter;stroke-opacity:1" d="M 968.859,249.625 968.859,263.196 z" id="boundary" inkscape:connector-curvature="0" />
	<path style="fill:none;stroke:red;stroke-width:1px;stroke-linecap:butt;stroke-linejoin:miter;stroke-opacity:1" d="M 968.859,263.196 968.859,276.766 z" id="boundary" inkscape:connector-curvature="0" />
	<path style="fill:none;stroke:red;stroke-width:1px;stroke-linecap:butt;stroke-linejoin:miter;stroke-opacity:1" d="M 968.859,276.766 968.859,290.337 z" id="boundary" inkscape:connector-curvature="0" />
	<path style="fill:none;stroke:red;stroke-width:1px;stroke-linecap:butt;stroke-linejoin:miter;stroke-opacity:1" d="M 968.859,290.337 968.859,303.907 z" id="boundary" inkscape:connector-curvature="0" />
	<path style="fill:none;stroke:red;stroke-width:1px;stroke-linecap:butt;stroke-linejoin:miter;stroke-opacity:1" d="M 968.859,303.907 968.859,317.477 z" id="boundary" inkscape:connector-curvature="0" />
	<path style="fill:none;stroke:red;stroke-width:1px;stroke-linecap:butt;stroke-linejoin:miter;stroke-opacity:1" d="M 968.859,317.477 968.859,331.048 z" id="boundary" inkscape:connector-curvature="0" />
	<path style="fill:none;stroke:red;stroke-width:1px;stroke-linecap:butt;stroke-linejoin:miter;stroke-opacity:1" d="M 968.859,331.048 968.859,344.618 z" id="boundary" inkscape:connector-curvature="0" />
	<path style="fill:none;stroke:red;stroke-width:1px;stroke-linecap:butt;stroke-linejoin:miter;stroke-opacity:1" d="M 968.859,344.618 968.859,358.189 z" id="boundary" inkscape:connector-curvature="0" />
	<path style="fill:none;stroke:red;stroke-width:1px;stroke-linecap:butt;stroke-linejoin:miter;stroke-opacity:1" d="M 981.073,4 994.643,6.71409 z" id="boundary" inkscape:connector-curvature="0" />
	<path style="fill:none;stroke:red;stroke-width:1px;stroke-linecap:butt;stroke-linejoin:miter;stroke-opacity:1" d="M 982.43,181.773 996,169.56 z" id="boundary" inkscape:connector-curvature="0" />
	<path style="fill:none;stroke:red;stroke-width:1px;stroke-linecap:butt;stroke-linejoin:miter;stroke-opacity:1" d="M 994.643,6.71409 996,20.2845 z" id="boundary" inkscape:connector-curvature="0" />
	<path style="fill:none;stroke:red;stroke-width:1px;stroke-linecap:butt;stroke-linejoin:miter;stroke-opacity:1" d="M 996,20.2845 996,33.855 z" id="boundary" inkscape:connector-curvature="0" />
	<path style="fill:none;stroke:red;stroke-width:1px;stroke-linecap:butt;stroke-linejoin:miter;stroke-opacity:1" d="M 996,33.855 996,47.4254 z" id="boundary" inkscape:connector-curvature="0" />
	<path style="fill:none;stroke:red;stroke-width:1px;stroke-linecap:butt;stroke-linejoin:miter;stroke-opacity:1" d="M 996,47.4254 996,60.9959 z" id="boundary" inkscape:connector-curvature="0" />
	<path style="fill:none;stroke:red;stroke-width:1px;stroke-linecap:butt;stroke-linejoin:miter;stroke-opacity:1" d="M 996,60.9959 996,74.5663 z" id="boundary" inkscape:connector-curvature="0" />
	<path style="fill:none;stroke:red;stroke-width:1px;stroke-linecap:butt;stroke-linejoin:miter;stroke-opacity:1" d="M 996,74.5663 996,88.1368 z" id="boundary" inkscape:connector-curvature="0" />
	<path style="fill:none;stroke:red;stroke-width:1px;stroke-linecap:butt;stroke-linejoin:miter;stroke-opacity:1" d="M 996,88.1368 996,101.707 z" id="boundary" inkscape:connector-curvature="0" />
	<path style="fill:none;stroke:red;stroke-width:1px;stroke-linecap:butt;stroke-linejoin:miter;stroke-opacity:1" d="M 996,101.707 996,115.278 z" id="boundary" inkscape:connector-curvature="0" />
	<path style="fill:none;stroke:red;stroke-width:1px;stroke-linecap:butt;stroke-linejoin:miter;stroke-opacity:1" d="M 996,115.278 996,128.848 z" id="boundary" inkscape:connector-curvature="0" />
	<path style="fill:none;stroke:red;stroke-width:1px;stroke-linecap:butt;stroke-linejoin:miter;stroke-opacity:1" d="M 996,128.848 996,142.419 z" id="boundary" inkscape:connector-curvature="0" />
	<path style="fill:none;stroke:red;stroke-width:1px;stroke-linecap:butt;stroke-linejoin:miter;stroke-opacity:1" d="M 996,142.419 996,155.989 z" id="boundary" inkscape:connector-curvature="0" />
	<path style="fill:none;stroke:red;stroke-width:1px;stroke-linecap:butt;stroke-linejoin:miter;stroke-opacity:1" d="M 996,155.989 996,169.56 z" id="boundary" inkscape:connector-curvature="0" />
	<circle cx="4" cy="218.413" r="4" fill="#0" id="circle0"/>
	<circle cx="4" cy="231.984" r="4" fill="#0" id="circle1"/>
	<circle cx="4" cy="245.554" r="4" fill="#0" id="circle2"/>
	<circle cx="4" cy="259.124" r="4" fill="#0" id="circle3"/>
	<circle cx="4" cy="272.695" r="4" fill="#0" id="circle4"/>
	<circle cx="4" cy="286.265" r="4" fill="#0" id="circle5"/>
	<circle cx="4" cy="299.836" r="4" fill="#0" id="circle6"/>
	<circle cx="4" cy="313.406" r="4" fill="#0" id="circle7"/>
	<circle cx="4" cy="326.977" r="4" fill="#0" id="circle8"/>
	<circle cx="4" cy="340.547" r="4" fill="#0" id="circle9"/>
	<circle cx="4" cy="354.118" r="4" fill="#0" id="circle10"/>
	<circle cx="4" cy="367.688" r="4" fill="#0" id="circle11"/>
	<circle cx="12.1423" cy="378.544" r="4" fill="#0" id="circle12"/>
	<circle cx="17.5705" cy="214.342" r="4" fill="#0" id="circle13"/>
	<circle cx="25.7127" cy="378.544" r="4" fill="#0" id="circle14"/>
	<circle cx="31.1409" cy="214.342" r="4" fill="#0" id="circle15"/>
	<circle cx="39.2832" cy="378.544" r="4" fill="#0" id="circle16"/>
	<circle cx="44.7114" cy="214.342" r="4" fill="#0" id="circle17"/>
	<circle cx="52.8536" cy="378.544" r="4" fill="#0" id="circle18"/>
	<circle cx="58.2818" cy="214.342" r="4" fill="#0" id="circle19"/>
	<circle cx="66.4241" cy="378.544" r="4" fill="#0" id="circle20"/>
	<circle cx="71.8523" cy="214.342" r="4" fill="#0" id="circle21"/>
	<circle cx="79.9945" cy="378.544" r="4" fill="#0" id="circle22"/>
	<circle cx="85.4227" cy="214.342" r="4" fill="#0" id="circle23"/>
	<circle cx="93.565" cy="378.544" r="4" fill="#0" id="circle24"/>
	<circle cx="98.9932" cy="214.342" r="4" fill="#0" id="circle25"/>
	<circle cx="107.135" cy="378.544" r="4" fill="#0" id="circle26"/>
	<circle cx="112.564" cy="214.342" r="4" fill="#0" id="circle27"/>
	<circle cx="120.706" cy="378.544" r="4" fill="#0" id="circle28"/>
	<circle cx="126.134" cy="214.342" r="4" fill="#0" id="circle29"/>
	<circle cx="134.276" cy="378.544" r="4" fill="#0" id="circle30"/>
	<circle cx="139.705" cy="214.342" r="4" fill="#0" id="circle31"/>
	<circle cx="147.847" cy="378.544" r="4" fill="#0" id="circle32"/>
	<circle cx="153.275" cy="214.342" r="4" fill="#0" id="circle33"/>
	<circle cx="161.417" cy="378.544" r="4" fill="#0" id="circle34"/>
	<circle cx="166.845" cy="214.342" r="4" fill="#0" id="circle35"/>
	<circle cx="174.988" cy="378.544" r="4" fill="#0" id="circle36"/>
	<circle cx="180.416" cy="214.342" r="4" fill="#0" id="circle37"/>
	<circle cx="188.558" cy="378.544" r="4" fill="#0" id="circle38"/>
	<circle cx="193.986" cy="214.342" r="4" fill="#0" id="circle39"/>
	<circle cx="202.129" cy="378.544" r="4" fill="#0" id="circle40"/>
	<circle cx="207.557" cy="214.342" r="4" fill="#0" id="circle41"/>
	<circle cx="215.699" cy="378.544" r="4" fill="#0" id="circle42"/>
	<circle cx="221.127" cy="214.342" r="4" fill="#0" id="circle43"/>
	<circle cx="229.269" cy="378.544" r="4" fill="#0" id="circle44"/>
	<circle cx="234.698" cy="214.342" r="4" fill="#0" id="circle45"/>
	<circle cx="242.84" cy="378.544" r="4" fill="#0" id="circle46"/>
	<circle cx="248.268" cy="214.342" r="4" fill="#0" id="circle47"/>
	<circle cx="256.41" cy="378.544" r="4" fill="#0" id="circle48"/>
	<circle cx="261.839" cy="214.342" r="4" fill="#0" id="circle49"/>
	<circle cx="269.981" cy="378.544" r="4" fill="#0" id="circle50"/>
	<circle cx="275.409" cy="214.342" r="4" fill="#0" id="circle51"/>
	<circle cx="283.551" cy="378.544" r="4" fill="#0" id="circle52"/>
	<circle cx="288.979" cy="214.342" r="4" fill="#0" id="circle53"/>
	<circle cx="297.122" cy="378.544" r="4" fill="#0" id="circle54"/>
	<circle cx="302.55" cy="214.342" r="4" fill="#0" id="circle55"/>
	<circle cx="310.692" cy="378.544" r="4" fill="#0" id="circle56"/>
	<circle cx="316.12" cy="214.342" r="4" fill="#0" id="circle57"/>
	<circle cx="324.263" cy="378.544" r="4" fill="#0" id="circle58"/>
	<circle cx="329.691" cy="214.342" r="4" fill="#0" id="circle59"/>
	<circle cx="337.833" cy="378.544" r="4" fill="#0" id="circle60"/>
	<circle cx="343.261" cy="214.342" r="4" fill="#0" id="circle61"/>
	<circle cx="351.404" cy="378.544" r="4" fill="#0" id="circle62"/>
	<circle cx="356.832" cy="214.342" r="4" fill="#0" id="circle63"/>
	<circle cx="364.974" cy="378.544" r="4" fill="#0" id="circle64"/>
	<circle cx="370.402" cy="214.342" r="4" fill="#0" id="circle65"/>
	<circle cx="378.544" cy="378.544" r="4" fill="#0" id="circle66"/>
	<circle cx="383.973" cy="214.342" r="4" fill="#0" id="circle67"/>
	<circle cx="392.115" cy="378.544" r="4" fill="#0" id="circle68"/>
	<circle cx="397.543" cy="214.342" r="4" fill="#0" id="circle69"/>
	<circle cx="405.685" cy="378.544" r="4" fill="#0" id="circle70"/>
	<circle cx="411.114" cy="214.342" r="4" fill="#0" id="circle71"/>
	<circle cx="419.256" cy="378.544" r="4" fill="#0" id="circle72"/>
	<circle cx="424.684" cy="214.342" r="4" fill="#0" id="circle73"/>
	<circle cx="432.826" cy="378.544" r="4" fill="#0" id="circle74"/>
	<circle cx="438.254" cy="214.342" r="4" fill="#0" id="circle75"/>
	<circle cx="446.397" cy="378.544" r="4" fill="#0" id="circle76"/>
	<circle cx="451.825" cy="214.342" r="4" fill="#0" id="circle77"/>
	<circle cx="459.967" cy="378.544" r="4" fill="#0" id="circle78"/>
	<circle cx="465.395" cy="214.342" r="4" fill="#0" id="circle79"/>
	<circle cx="473.538" cy="378.544" r="4" fill="#0" id="circle80"/>
	<circle cx="478.966" cy="214.342" r="4" fill="#0" id="circle81"/>
	<circle cx="487.108" cy="378.544" r="4" fill="#0" id="circle82"/>
	<circle cx="492.536" cy="214.342" r="4" fill="#0" id="circle83"/>
	<circle cx="500.679" cy="378.544" r="4" fill="#0" id="circle84"/>
	<circle cx="506.107" cy="214.342" r="4" fill="#0" id="circle85"/>
	<circle cx="514.249" cy="378.544" r="4" fill="#0" id="circle86"/>
	<circle cx="519.677" cy="214.342" r="4" fill="#0" id="circle87"/>
	<circle cx="527.819" cy="378.544" r="4" fill="#0" id="circle88"/>
	<circle cx="533.248" cy="214.342" r="4" fill="#0" id="circle89"/>
	<circle cx="541.39" cy="378.544" r="4" fill="#0" id="circle90"/>
	<circle cx="546.818" cy="214.342" r="4" fill="#0" id="circle91"/>
	<circle cx="554.96" cy="378.544" r="4" fill="#0" id="circle92"/>
	<circle cx="560.389" cy="214.342" r="4" fill="#0" id="circle93"/>
	<circle cx="568.531" cy="378.544" r="4" fill="#0" id="circle94"/>
	<circle cx="573.959" cy="214.342" r="4" fill="#0" id="circle95"/>
	<circle cx="582.101" cy="378.544" r="4" fill="#0" id="circle96"/>
	<circle cx="587.529" cy="214.342" r="4" fill="#0" id="circle97"/>
	<circle cx="595.672" cy="378.544" r="4" fill="#0" id="circle98"/>
	<circle cx="601.1" cy="214.342" r="4" fill="#0" id="circle99"/>
	<circle cx="609.242" cy="378.544" r="4" fill="#0" id="circle100"/>
	<circle cx="614.67" cy="214.342" r="4" fill="#0" id="circle101"/>
	<circle cx="622.813" cy="378.544" r="4" fill="#0" id="circle102"/>
	<circle cx="628.241" cy="214.342" r="4" fill="#0" id="circle103"/>
	<circle cx="636.383" cy="378.544" r="4" fill="#0" id="circle104"/>
	<circle cx="641.811" cy="214.342" r="4" fill="#0" id="circle105"/>
	<circle cx="641.811" cy="686.594" r="4" fill="#0" id="circle106"/>
	<circle cx="648.596" cy="673.023" r="4" fill="#0" id="circle107"/>
	<circle cx="649.953" cy="378.544" r="4" fill="#0" id="circle108"/>
	<circle cx="655.382" cy="214.342" r="4" fill="#0" id="circle109"/>
	<circle cx="655.382" cy="659.453" r="4" fill="#0" id="circle110"/>
	<circle cx="655.382" cy="690.665" r="4" fill="#0" id="circle111"/>
	<circle cx="662.167" cy="632.312" r="4" fill="#0" id="circle112"/>
	<circle cx="662.167" cy="645.882" r="4" fill="#0" id="circle113"/>
	<circle cx="663.524" cy="378.544" r="4" fill="#0" id="circle114"/>
	<circle cx="668.952" cy="8.07114" r="4" fill="#0" id="circle115"/>
	<circle cx="668.952" cy="21.6416" r="4" fill="#0" id="circle116"/>
	<circle cx="668.952" cy="35.212" r="4" fill="#0" id="circle117"/>
	<circle cx="668.952" cy="48.7825" r="4" fill="#0" id="circle118"/>
	<circle cx="668.952" cy="62.3529" r="4" fill="#0" id="circle119"/>
	<circle cx="668.952" cy="75.9234" r="4" fill="#0" id="circle120"/>
	<circle cx="668.952" cy="89.4938" r="4" fill="#0" id="circle121"/>
	<circle cx="668.952" cy="103.064" r="4" fill="#0" id="circle122"/>
	<circle cx="668.952" cy="116.635" r="4" fill="#0" id="circle123"/>
	<circle cx="668.952" cy="130.205" r="4" fill="#0" id="circle124"/>
	<circle cx="668.952" cy="143.776" r="4" fill="#0" id="circle125"/>
	<circle cx="668.952" cy="157.346" r="4" fill="#0" id="circle126"/>
	<circle cx="668.952" cy="170.917" r="4" fill="#0" id="circle127"/>
	<circle cx="668.952" cy="214.342" r="4" fill="#0" id="circle128"/>
	<circle cx="668.952" cy="611.956" r="4" fill="#0" id="circle129"/>
	<circle cx="668.952" cy="686.594" r="4" fill="#0" id="circle130"/>
	<circle cx="675.737" cy="571.245" r="4" fill="#0" id="circle131"/>
	<circle cx="675.737" cy="584.815" r="4" fill="#0" id="circle132"/>
	<circle cx="675.737" cy="598.386" r="4" fill="#0" id="circle133"/>
	<circle cx="677.094" cy="181.773" r="4" fill="#0" id="circle134"/>
	<circle cx="677.094" cy="378.544" r="4" fill="#0" id="circle135"/>
	<circle cx="682.523" cy="4" r="4" fill="#0" id="circle136"/>
	<circle cx="682.523" cy="214.342" r="4" fill="#0" id="circle137"/>
	<circle cx="682.523" cy="544.104" r="4" fill="#0" id="circle138"/>
	<circle cx="682.523" cy="557.674" r="4" fill="#0" id="circle139"/>
	<circle cx="682.523" cy="683.88" r="4" fill="#0" id="circle140"/>
	<circle cx="689.308" cy="503.393" r="4" fill="#0" id="circle141"/>
	<circle cx="689.308" cy="516.963" r="4" fill="#0" id="circle142"/>
	<circle cx="689.308" cy="530.534" r="4" fill="#0" id="circle143"/>
	<circle cx="690.665" cy="181.773" r="4" fill="#0" id="circle144"/>
	<circle cx="690.665" cy="378.544" r="4" fill="#0" id="circle145"/>
	<circle cx="694.736" cy="677.094" r="4" fill="#0" id="circle146"/>
	<circle cx="696.093" cy="4" r="4" fill="#0" id="circle147"/>
	<circle cx="696.093" cy="195.343" r="4" fill="#0" id="circle148"/>
	<circle cx="696.093" cy="208.914" r="4" fill="#0" id="circle149"/>
	<circle cx="696.093" cy="449.111" r="4" fill="#0" id="circle150"/>
	<circle cx="696.093" cy="462.681" r="4" fill="#0" id="circle151"/>
	<circle cx="696.093" cy="476.252" r="4" fill="#0" id="circle152"/>
	<circle cx="696.093" cy="489.822" r="4" fill="#0" id="circle153"/>
	<circle cx="702.878" cy="385.33" r="4" fill="#0" id="circle154"/>
	<circle cx="702.878" cy="398.9" r="4" fill="#0" id="circle155"/>
	<circle cx="702.878" cy="412.471" r="4" fill="#0" id="circle156"/>
	<circle cx="702.878" cy="426.041" r="4" fill="#0" id="circle157"/>
	<circle cx="708.306" cy="674.38" r="4" fill="#0" id="circle158"/>
	<circle cx="709.663" cy="4" r="4" fill="#0" id="circle159"/>
	<circle cx="721.877" cy="667.595" r="4" fill="#0" id="circle160"/>
	<circle cx="723.234" cy="4" r="4" fill="#0" id="circle161"/>
	<circle cx="735.447" cy="663.524" r="4" fill="#0" id="circle162"/>
	<circle cx="736.804" cy="4" r="4" fill="#0" id="circle163"/>
	<circle cx="747.661" cy="655.382" r="4" fill="#0" id="circle164"/>
	<circle cx="750.375" cy="4" r="4" fill="#0" id="circle165"/>
	<circle cx="761.231" cy="648.596" r="4" fill="#0" id="circle166"/>
	<circle cx="763.945" cy="4" r="4" fill="#0" id="circle167"/>
	<circle cx="772.088" cy="636.383" r="4" fill="#0" id="circle168"/>
	<circle cx="777.516" cy="4" r="4" fill="#0" id="circle169"/>
	<circle cx="785.658" cy="629.598" r="4" fill="#0" id="circle170"/>
	<circle cx="791.086" cy="4" r="4" fill="#0" id="circle171"/>
	<circle cx="799.228" cy="629.598" r="4" fill="#0" id="circle172"/>
	<circle cx="804.657" cy="4" r="4" fill="#0" id="circle173"/>
	<circle cx="810.085" cy="620.098" r="4" fill="#0" id="circle174"/>
	<circle cx="818.227" cy="4" r="4" fill="#0" id="circle175"/>
	<circle cx="819.584" cy="609.242" r="4" fill="#0" id="circle176"/>
	<circle cx="831.798" cy="4" r="4" fill="#0" id="circle177"/>
	<circle cx="833.155" cy="602.457" r="4" fill="#0" id="circle178"/>
	<circle cx="844.011" cy="592.958" r="4" fill="#0" id="circle179"/>
	<circle cx="845.368" cy="4" r="4" fill="#0" id="circle180"/>
	<circle cx="853.51" cy="582.101" r="4" fill="#0" id="circle181"/>
	<circle cx="858.938" cy="4" r="4" fill="#0" id="circle182"/>
	<circle cx="864.367" cy="572.602" r="4" fill="#0" id="circle183"/>
	<circle cx="871.152" cy="559.031" r="4" fill="#0" id="circle184"/>
	<circle cx="872.509" cy="4" r="4" fill="#0" id="circle185"/>
	<circle cx="880.651" cy="541.39" r="4" fill="#0" id="circle186"/>
	<circle cx="886.079" cy="4" r="4" fill="#0" id="circle187"/>
	<circle cx="887.436" cy="527.819" r="4" fill="#0" id="circle188"/>
	<circle cx="898.293" cy="518.32" r="4" fill="#0" id="circle189"/>
	<circle cx="899.65" cy="4" r="4" fill="#0" id="circle190"/>
	<circle cx="905.078" cy="504.75" r="4" fill="#0" id="circle191"/>
	<circle cx="913.22" cy="4" r="4" fill="#0" id="circle192"/>
	<circle cx="914.577" cy="487.108" r="4" fill="#0" id="circle193"/>
	<circle cx="925.434" cy="477.609" r="4" fill="#0" id="circle194"/>
	<circle cx="926.791" cy="4" r="4" fill="#0" id="circle195"/>
	<circle cx="932.219" cy="464.038" r="4" fill="#0" id="circle196"/>
	<circle cx="940.361" cy="4" r="4" fill="#0" id="circle197"/>
	<circle cx="941.718" cy="432.826" r="4" fill="#0" id="circle198"/>
	<circle cx="941.718" cy="446.397" r="4" fill="#0" id="circle199"/>
	<circle cx="948.503" cy="419.256" r="4" fill="#0" id="circle200"/>
	<circle cx="953.932" cy="4" r="4" fill="#0" id="circle201"/>
	<circle cx="955.289" cy="405.685" r="4" fill="#0" id="circle202"/>
	<circle cx="962.074" cy="371.759" r="4" fill="#0" id="circle203"/>
	<circle cx="962.074" cy="385.33" r="4" fill="#0" id="circle204"/>
	<circle cx="967.502" cy="4" r="4" fill="#0" id="circle205"/>
	<circle cx="968.859" cy="181.773" r="4" fill="#0" id="circle206"/>
	<circle cx="968.859" cy="195.343" r="4" fill="#0" id="circle207"/>
	<circle cx="968.859" cy="208.914" r="4" fill="#0" id="circle208"/>
	<circle cx="968.859" cy="222.484" r="4" fill="#0" id="circle209"/>
	<circle cx="968.859" cy="236.055" r="4" fill="#0" id="circle210"/>
	<circle cx="968.859" cy="249.625" r="4" fill="#0" id="circle211"/>
	<circle cx="968.859" cy="263.196" r="4" fill="#0" id="circle212"/>
	<circle cx="968.859" cy="276.766" r="4" fill="#0" id="circle213"/>
	<circle cx="968.859" cy="290.337" r="4" fill="#0" id="circle214"/>
	<circle cx="968.859" cy="303.907" r="4" fill="#0" id="circle215"/>
	<circle cx="968.859" cy="317.477" r="4" fill="#0" id="circle216"/>
	<circle cx="968.859" cy="331.048" r="4" fill="#0" id="circle217"/>
	<circle cx="968.859" cy="344.618" r="4" fill="#0" id="circle218"/>
	<circle cx="968.859" cy="358.189" r="4" fill="#0" id="circle219"/>
	<circle cx="981.073" cy="4" r="4" fill="#0" id="circle220"/>
	<circle cx="982.43" cy="181.773" r="4" fill="#0" id="circle221"/>
	<circle cx="994.643" cy="6.71409" r="4" fill="#0" id="circle222"/>
	<circle cx="996" cy="20.2845" r="4" fill="#0" id="circle223"/>
	<circle cx="996" cy="33.855" r="4" fill="#0" id="circle224"/>
	<circle cx="996" cy="47.4254" r="4" fill="#0" id="circle225"/>
	<circle cx="996" cy="60.9959" r="4" fill="#0" id="circle226"/>
	<circle cx="996" cy="74.5663" r="4" fill="#0" id="circle227"/>
	<circle cx="996" cy="88.1368" r="4" fill="#0" id="circle228"/>
	<circle cx="996" cy="101.707" r="4" fill="#0" id="circle229"/>
	<circle cx="996" cy="115.278" r="4" fill="#0" id="circle230"/>
	<circle cx="996" cy="128.848" r="4" fill="#0" id="circle231"/>
	<circle cx="996" cy="142.419" r="4" fill="#0" id="circle232"/>
	<circle cx="996" cy="155.989" r="4" fill="#0" id="circle233"/>
	<circle cx="996" cy="169.56" r="4" fill="#0" id="circle234"/>
	</g>
</svg>