<?xml version="1.0" encoding="UTF-8" standalone="no"?>
<!-- Created with CurveBenchmark -->
<svg
	xmlns:dc="http://purl.org/dc/elements/1.1/"
	xmlns:cc="http://creativecommons.org/ns#"
	xmlns:rdf="http://www.w3.org/1999/02/22-rdf-syntax-ns#"
	xmlns:svg="http://www.w3.org/2000/svg"
	xmlns="http://www.w3.org/2000/svg"
	xmlns:sodipodi="http://sodipodi.sourceforge.net/DTD/sodipodi-0.dtd"
	xmlns:inkscape="http://www.inkscape.org/namespaces/inkscape"
	width="1000"
	height="1000"
	id="svg2"
	version="1.1"
	sodipodi:docname="manifold/discur-teddy105.png.txt">
<defs
	id="defs4" />
<metadata
	id="metadata7">
	<rdf:RDF>
		<cc:Work
			rdf:about="">
			<dc:format>image/svg+xml</dc:format>
			<dc:type
				rdf:resource="http://purl.org/dc/dcmitype/StillImage" />
			<dc:title></dc:title>
		</cc:Work>
	</rdf:RDF>
</metadata>
<g
	inkscape:label="Layer 1"
	inkscape:groupmode="layer"
	id="layer1">
	<path style="fill:none;stroke:red;stroke-width:1px;stroke-linecap:butt;stroke-linejoin:miter;stroke-opacity:1" d="M 4,199.566 4,227.909 z" id="boundary" inkscape:connector-curvature="0" />
	<path style="fill:none;stroke:red;stroke-width:1px;stroke-linecap:butt;stroke-linejoin:miter;stroke-opacity:1" d="M 4,199.566 15.3371,159.886 z" id="boundary" inkscape:connector-curvature="0" />
	<path style="fill:none;stroke:red;stroke-width:1px;stroke-linecap:butt;stroke-linejoin:miter;stroke-opacity:1" d="M 4,227.909 4,256.251 z" id="boundary" inkscape:connector-curvature="0" />
	<path style="fill:none;stroke:red;stroke-width:1px;stroke-linecap:butt;stroke-linejoin:miter;stroke-opacity:1" d="M 4,256.251 6.83429,284.594 z" id="boundary" inkscape:connector-curvature="0" />
	<path style="fill:none;stroke:red;stroke-width:1px;stroke-linecap:butt;stroke-linejoin:miter;stroke-opacity:1" d="M 6.83429,284.594 18.1714,312.937 z" id="boundary" inkscape:connector-curvature="0" />
	<path style="fill:none;stroke:red;stroke-width:1px;stroke-linecap:butt;stroke-linejoin:miter;stroke-opacity:1" d="M 9.66857,511.337 18.1714,539.68 z" id="boundary" inkscape:connector-curvature="0" />
	<path style="fill:none;stroke:red;stroke-width:1px;stroke-linecap:butt;stroke-linejoin:miter;stroke-opacity:1" d="M 9.66857,511.337 21.0057,471.657 z" id="boundary" inkscape:connector-curvature="0" />
	<path style="fill:none;stroke:red;stroke-width:1px;stroke-linecap:butt;stroke-linejoin:miter;stroke-opacity:1" d="M 15.3371,159.886 26.6743,131.543 z" id="boundary" inkscape:connector-curvature="0" />
	<path style="fill:none;stroke:red;stroke-width:1px;stroke-linecap:butt;stroke-linejoin:miter;stroke-opacity:1" d="M 18.1714,312.937 32.3429,338.446 z" id="boundary" inkscape:connector-curvature="0" />
	<path style="fill:none;stroke:red;stroke-width:1px;stroke-linecap:butt;stroke-linejoin:miter;stroke-opacity:1" d="M 18.1714,539.68 32.3429,565.189 z" id="boundary" inkscape:connector-curvature="0" />
	<path style="fill:none;stroke:red;stroke-width:1px;stroke-linecap:butt;stroke-linejoin:miter;stroke-opacity:1" d="M 21.0057,471.657 35.1771,446.149 z" id="boundary" inkscape:connector-curvature="0" />
	<path style="fill:none;stroke:red;stroke-width:1px;stroke-linecap:butt;stroke-linejoin:miter;stroke-opacity:1" d="M 26.6743,131.543 49.3486,108.869 z" id="boundary" inkscape:connector-curvature="0" />
	<path style="fill:none;stroke:red;stroke-width:1px;stroke-linecap:butt;stroke-linejoin:miter;stroke-opacity:1" d="M 32.3429,338.446 43.68,366.789 z" id="boundary" inkscape:connector-curvature="0" />
	<path style="fill:none;stroke:red;stroke-width:1px;stroke-linecap:butt;stroke-linejoin:miter;stroke-opacity:1" d="M 32.3429,565.189 38.0114,593.531 z" id="boundary" inkscape:connector-curvature="0" />
	<path style="fill:none;stroke:red;stroke-width:1px;stroke-linecap:butt;stroke-linejoin:miter;stroke-opacity:1" d="M 35.1771,446.149 46.5143,417.806 z" id="boundary" inkscape:connector-curvature="0" />
	<path style="fill:none;stroke:red;stroke-width:1px;stroke-linecap:butt;stroke-linejoin:miter;stroke-opacity:1" d="M 38.0114,593.531 49.3486,621.874 z" id="boundary" inkscape:connector-curvature="0" />
	<path style="fill:none;stroke:red;stroke-width:1px;stroke-linecap:butt;stroke-linejoin:miter;stroke-opacity:1" d="M 43.68,366.789 46.5143,417.806 z" id="boundary" inkscape:connector-curvature="0" />
	<path style="fill:none;stroke:red;stroke-width:1px;stroke-linecap:butt;stroke-linejoin:miter;stroke-opacity:1" d="M 49.3486,108.869 55.0171,63.52 z" id="boundary" inkscape:connector-curvature="0" />
	<path style="fill:none;stroke:red;stroke-width:1px;stroke-linecap:butt;stroke-linejoin:miter;stroke-opacity:1" d="M 49.3486,621.874 49.3486,650.217 z" id="boundary" inkscape:connector-curvature="0" />
	<path style="fill:none;stroke:red;stroke-width:1px;stroke-linecap:butt;stroke-linejoin:miter;stroke-opacity:1" d="M 49.3486,650.217 49.3486,678.56 z" id="boundary" inkscape:connector-curvature="0" />
	<path style="fill:none;stroke:red;stroke-width:1px;stroke-linecap:butt;stroke-linejoin:miter;stroke-opacity:1" d="M 49.3486,678.56 49.3486,706.903 z" id="boundary" inkscape:connector-curvature="0" />
	<path style="fill:none;stroke:red;stroke-width:1px;stroke-linecap:butt;stroke-linejoin:miter;stroke-opacity:1" d="M 49.3486,706.903 49.3486,735.246 z" id="boundary" inkscape:connector-curvature="0" />
	<path style="fill:none;stroke:red;stroke-width:1px;stroke-linecap:butt;stroke-linejoin:miter;stroke-opacity:1" d="M 49.3486,735.246 49.3486,763.589 z" id="boundary" inkscape:connector-curvature="0" />
	<path style="fill:none;stroke:red;stroke-width:1px;stroke-linecap:butt;stroke-linejoin:miter;stroke-opacity:1" d="M 49.3486,763.589 55.0171,791.931 z" id="boundary" inkscape:connector-curvature="0" />
	<path style="fill:none;stroke:red;stroke-width:1px;stroke-linecap:butt;stroke-linejoin:miter;stroke-opacity:1" d="M 55.0171,35.1771 55.0171,63.52 z" id="boundary" inkscape:connector-curvature="0" />
	<path style="fill:none;stroke:red;stroke-width:1px;stroke-linecap:butt;stroke-linejoin:miter;stroke-opacity:1" d="M 55.0171,35.1771 77.6914,12.5029 z" id="boundary" inkscape:connector-curvature="0" />
	<path style="fill:none;stroke:red;stroke-width:1px;stroke-linecap:butt;stroke-linejoin:miter;stroke-opacity:1" d="M 55.0171,791.931 60.6857,820.274 z" id="boundary" inkscape:connector-curvature="0" />
	<path style="fill:none;stroke:red;stroke-width:1px;stroke-linecap:butt;stroke-linejoin:miter;stroke-opacity:1" d="M 60.6857,820.274 60.6857,848.617 z" id="boundary" inkscape:connector-curvature="0" />
	<path style="fill:none;stroke:red;stroke-width:1px;stroke-linecap:butt;stroke-linejoin:miter;stroke-opacity:1" d="M 60.6857,848.617 60.6857,876.96 z" id="boundary" inkscape:connector-curvature="0" />
	<path style="fill:none;stroke:red;stroke-width:1px;stroke-linecap:butt;stroke-linejoin:miter;stroke-opacity:1" d="M 60.6857,876.96 66.3543,905.303 z" id="boundary" inkscape:connector-curvature="0" />
	<path style="fill:none;stroke:red;stroke-width:1px;stroke-linecap:butt;stroke-linejoin:miter;stroke-opacity:1" d="M 66.3543,905.303 72.0229,933.646 z" id="boundary" inkscape:connector-curvature="0" />
	<path style="fill:none;stroke:red;stroke-width:1px;stroke-linecap:butt;stroke-linejoin:miter;stroke-opacity:1" d="M 72.0229,933.646 77.6914,961.989 z" id="boundary" inkscape:connector-curvature="0" />
	<path style="fill:none;stroke:red;stroke-width:1px;stroke-linecap:butt;stroke-linejoin:miter;stroke-opacity:1" d="M 77.6914,12.5029 106.034,6.83429 z" id="boundary" inkscape:connector-curvature="0" />
	<path style="fill:none;stroke:red;stroke-width:1px;stroke-linecap:butt;stroke-linejoin:miter;stroke-opacity:1" d="M 77.6914,961.989 100.366,978.994 z" id="boundary" inkscape:connector-curvature="0" />
	<path style="fill:none;stroke:red;stroke-width:1px;stroke-linecap:butt;stroke-linejoin:miter;stroke-opacity:1" d="M 100.366,978.994 128.709,990.331 z" id="boundary" inkscape:connector-curvature="0" />
	<path style="fill:none;stroke:red;stroke-width:1px;stroke-linecap:butt;stroke-linejoin:miter;stroke-opacity:1" d="M 106.034,6.83429 134.377,4 z" id="boundary" inkscape:connector-curvature="0" />
	<path style="fill:none;stroke:red;stroke-width:1px;stroke-linecap:butt;stroke-linejoin:miter;stroke-opacity:1" d="M 128.709,990.331 157.051,996 z" id="boundary" inkscape:connector-curvature="0" />
	<path style="fill:none;stroke:red;stroke-width:1px;stroke-linecap:butt;stroke-linejoin:miter;stroke-opacity:1" d="M 134.377,4 162.72,15.3371 z" id="boundary" inkscape:connector-curvature="0" />
	<path style="fill:none;stroke:red;stroke-width:1px;stroke-linecap:butt;stroke-linejoin:miter;stroke-opacity:1" d="M 157.051,996 185.394,996 z" id="boundary" inkscape:connector-curvature="0" />
	<path style="fill:none;stroke:red;stroke-width:1px;stroke-linecap:butt;stroke-linejoin:miter;stroke-opacity:1" d="M 162.72,15.3371 185.394,32.3429 z" id="boundary" inkscape:connector-curvature="0" />
	<path style="fill:none;stroke:red;stroke-width:1px;stroke-linecap:butt;stroke-linejoin:miter;stroke-opacity:1" d="M 185.394,32.3429 213.737,29.5086 z" id="boundary" inkscape:connector-curvature="0" />
	<path style="fill:none;stroke:red;stroke-width:1px;stroke-linecap:butt;stroke-linejoin:miter;stroke-opacity:1" d="M 185.394,996 213.737,990.331 z" id="boundary" inkscape:connector-curvature="0" />
	<path style="fill:none;stroke:red;stroke-width:1px;stroke-linecap:butt;stroke-linejoin:miter;stroke-opacity:1" d="M 213.737,29.5086 236.411,12.5029 z" id="boundary" inkscape:connector-curvature="0" />
	<path style="fill:none;stroke:red;stroke-width:1px;stroke-linecap:butt;stroke-linejoin:miter;stroke-opacity:1" d="M 213.737,990.331 242.08,990.331 z" id="boundary" inkscape:connector-curvature="0" />
	<path style="fill:none;stroke:red;stroke-width:1px;stroke-linecap:butt;stroke-linejoin:miter;stroke-opacity:1" d="M 236.411,12.5029 264.754,6.83429 z" id="boundary" inkscape:connector-curvature="0" />
	<path style="fill:none;stroke:red;stroke-width:1px;stroke-linecap:butt;stroke-linejoin:miter;stroke-opacity:1" d="M 242.08,990.331 270.423,993.166 z" id="boundary" inkscape:connector-curvature="0" />
	<path style="fill:none;stroke:red;stroke-width:1px;stroke-linecap:butt;stroke-linejoin:miter;stroke-opacity:1" d="M 264.754,6.83429 293.097,4 z" id="boundary" inkscape:connector-curvature="0" />
	<path style="fill:none;stroke:red;stroke-width:1px;stroke-linecap:butt;stroke-linejoin:miter;stroke-opacity:1" d="M 270.423,993.166 298.766,996 z" id="boundary" inkscape:connector-curvature="0" />
	<path style="fill:none;stroke:red;stroke-width:1px;stroke-linecap:butt;stroke-linejoin:miter;stroke-opacity:1" d="M 293.097,4 318.606,18.1714 z" id="boundary" inkscape:connector-curvature="0" />
	<path style="fill:none;stroke:red;stroke-width:1px;stroke-linecap:butt;stroke-linejoin:miter;stroke-opacity:1" d="M 298.766,996 327.109,996 z" id="boundary" inkscape:connector-curvature="0" />
	<path style="fill:none;stroke:red;stroke-width:1px;stroke-linecap:butt;stroke-linejoin:miter;stroke-opacity:1" d="M 318.606,18.1714 341.28,35.1771 z" id="boundary" inkscape:connector-curvature="0" />
	<path style="fill:none;stroke:red;stroke-width:1px;stroke-linecap:butt;stroke-linejoin:miter;stroke-opacity:1" d="M 327.109,996 355.451,996 z" id="boundary" inkscape:connector-curvature="0" />
	<path style="fill:none;stroke:red;stroke-width:1px;stroke-linecap:butt;stroke-linejoin:miter;stroke-opacity:1" d="M 341.28,35.1771 352.617,63.52 z" id="boundary" inkscape:connector-curvature="0" />
	<path style="fill:none;stroke:red;stroke-width:1px;stroke-linecap:butt;stroke-linejoin:miter;stroke-opacity:1" d="M 352.617,63.52 355.451,117.371 z" id="boundary" inkscape:connector-curvature="0" />
	<path style="fill:none;stroke:red;stroke-width:1px;stroke-linecap:butt;stroke-linejoin:miter;stroke-opacity:1" d="M 355.451,117.371 369.623,142.88 z" id="boundary" inkscape:connector-curvature="0" />
	<path style="fill:none;stroke:red;stroke-width:1px;stroke-linecap:butt;stroke-linejoin:miter;stroke-opacity:1" d="M 355.451,996 383.794,996 z" id="boundary" inkscape:connector-curvature="0" />
	<path style="fill:none;stroke:red;stroke-width:1px;stroke-linecap:butt;stroke-linejoin:miter;stroke-opacity:1" d="M 369.623,142.88 386.629,165.554 z" id="boundary" inkscape:connector-curvature="0" />
	<path style="fill:none;stroke:red;stroke-width:1px;stroke-linecap:butt;stroke-linejoin:miter;stroke-opacity:1" d="M 383.794,996 406.469,978.994 z" id="boundary" inkscape:connector-curvature="0" />
	<path style="fill:none;stroke:red;stroke-width:1px;stroke-linecap:butt;stroke-linejoin:miter;stroke-opacity:1" d="M 386.629,165.554 406.469,188.229 z" id="boundary" inkscape:connector-curvature="0" />
	<path style="fill:none;stroke:red;stroke-width:1px;stroke-linecap:butt;stroke-linejoin:miter;stroke-opacity:1" d="M 406.469,188.229 434.811,193.897 z" id="boundary" inkscape:connector-curvature="0" />
	<path style="fill:none;stroke:red;stroke-width:1px;stroke-linecap:butt;stroke-linejoin:miter;stroke-opacity:1" d="M 406.469,978.994 434.811,967.657 z" id="boundary" inkscape:connector-curvature="0" />
	<path style="fill:none;stroke:red;stroke-width:1px;stroke-linecap:butt;stroke-linejoin:miter;stroke-opacity:1" d="M 412.137,383.794 426.309,409.303 z" id="boundary" inkscape:connector-curvature="0" />
	<path style="fill:none;stroke:red;stroke-width:1px;stroke-linecap:butt;stroke-linejoin:miter;stroke-opacity:1" d="M 412.137,383.794 429.143,361.12 z" id="boundary" inkscape:connector-curvature="0" />
	<path style="fill:none;stroke:red;stroke-width:1px;stroke-linecap:butt;stroke-linejoin:miter;stroke-opacity:1" d="M 426.309,409.303 448.983,426.309 z" id="boundary" inkscape:connector-curvature="0" />
	<path style="fill:none;stroke:red;stroke-width:1px;stroke-linecap:butt;stroke-linejoin:miter;stroke-opacity:1" d="M 429.143,361.12 457.486,349.783 z" id="boundary" inkscape:connector-curvature="0" />
	<path style="fill:none;stroke:red;stroke-width:1px;stroke-linecap:butt;stroke-linejoin:miter;stroke-opacity:1" d="M 434.811,193.897 460.32,208.069 z" id="boundary" inkscape:connector-curvature="0" />
	<path style="fill:none;stroke:red;stroke-width:1px;stroke-linecap:butt;stroke-linejoin:miter;stroke-opacity:1" d="M 434.811,967.657 463.154,973.326 z" id="boundary" inkscape:connector-curvature="0" />
	<path style="fill:none;stroke:red;stroke-width:1px;stroke-linecap:butt;stroke-linejoin:miter;stroke-opacity:1" d="M 448.983,426.309 471.657,443.314 z" id="boundary" inkscape:connector-curvature="0" />
	<path style="fill:none;stroke:red;stroke-width:1px;stroke-linecap:butt;stroke-linejoin:miter;stroke-opacity:1" d="M 457.486,349.783 474.491,327.109 z" id="boundary" inkscape:connector-curvature="0" />
	<path style="fill:none;stroke:red;stroke-width:1px;stroke-linecap:butt;stroke-linejoin:miter;stroke-opacity:1" d="M 460.32,208.069 482.994,225.074 z" id="boundary" inkscape:connector-curvature="0" />
	<path style="fill:none;stroke:red;stroke-width:1px;stroke-linecap:butt;stroke-linejoin:miter;stroke-opacity:1" d="M 463.154,973.326 491.497,976.16 z" id="boundary" inkscape:connector-curvature="0" />
	<path style="fill:none;stroke:red;stroke-width:1px;stroke-linecap:butt;stroke-linejoin:miter;stroke-opacity:1" d="M 471.657,443.314 500,431.977 z" id="boundary" inkscape:connector-curvature="0" />
	<path style="fill:none;stroke:red;stroke-width:1px;stroke-linecap:butt;stroke-linejoin:miter;stroke-opacity:1" d="M 474.491,327.109 482.994,278.926 z" id="boundary" inkscape:connector-curvature="0" />
	<path style="fill:none;stroke:red;stroke-width:1px;stroke-linecap:butt;stroke-linejoin:miter;stroke-opacity:1" d="M 482.994,225.074 482.994,278.926 z" id="boundary" inkscape:connector-curvature="0" />
	<path style="fill:none;stroke:red;stroke-width:1px;stroke-linecap:butt;stroke-linejoin:miter;stroke-opacity:1" d="M 491.497,976.16 519.84,984.663 z" id="boundary" inkscape:connector-curvature="0" />
	<path style="fill:none;stroke:red;stroke-width:1px;stroke-linecap:butt;stroke-linejoin:miter;stroke-opacity:1" d="M 494.331,647.383 500,675.726 z" id="boundary" inkscape:connector-curvature="0" />
	<path style="fill:none;stroke:red;stroke-width:1px;stroke-linecap:butt;stroke-linejoin:miter;stroke-opacity:1" d="M 494.331,647.383 522.674,638.88 z" id="boundary" inkscape:connector-curvature="0" />
	<path style="fill:none;stroke:red;stroke-width:1px;stroke-linecap:butt;stroke-linejoin:miter;stroke-opacity:1" d="M 500,431.977 528.343,431.977 z" id="boundary" inkscape:connector-curvature="0" />
	<path style="fill:none;stroke:red;stroke-width:1px;stroke-linecap:butt;stroke-linejoin:miter;stroke-opacity:1" d="M 500,675.726 505.669,704.069 z" id="boundary" inkscape:connector-curvature="0" />
	<path style="fill:none;stroke:red;stroke-width:1px;stroke-linecap:butt;stroke-linejoin:miter;stroke-opacity:1" d="M 505.669,704.069 508.503,732.411 z" id="boundary" inkscape:connector-curvature="0" />
	<path style="fill:none;stroke:red;stroke-width:1px;stroke-linecap:butt;stroke-linejoin:miter;stroke-opacity:1" d="M 508.503,732.411 536.846,738.08 z" id="boundary" inkscape:connector-curvature="0" />
	<path style="fill:none;stroke:red;stroke-width:1px;stroke-linecap:butt;stroke-linejoin:miter;stroke-opacity:1" d="M 519.84,984.663 548.183,996 z" id="boundary" inkscape:connector-curvature="0" />
	<path style="fill:none;stroke:red;stroke-width:1px;stroke-linecap:butt;stroke-linejoin:miter;stroke-opacity:1" d="M 522.674,638.88 551.017,624.709 z" id="boundary" inkscape:connector-curvature="0" />
	<path style="fill:none;stroke:red;stroke-width:1px;stroke-linecap:butt;stroke-linejoin:miter;stroke-opacity:1" d="M 528.343,431.977 556.686,443.314 z" id="boundary" inkscape:connector-curvature="0" />
	<path style="fill:none;stroke:red;stroke-width:1px;stroke-linecap:butt;stroke-linejoin:miter;stroke-opacity:1" d="M 536.846,738.08 565.189,726.743 z" id="boundary" inkscape:connector-curvature="0" />
	<path style="fill:none;stroke:red;stroke-width:1px;stroke-linecap:butt;stroke-linejoin:miter;stroke-opacity:1" d="M 548.183,996 576.526,996 z" id="boundary" inkscape:connector-curvature="0" />
	<path style="fill:none;stroke:red;stroke-width:1px;stroke-linecap:butt;stroke-linejoin:miter;stroke-opacity:1" d="M 551.017,624.709 576.526,610.537 z" id="boundary" inkscape:connector-curvature="0" />
	<path style="fill:none;stroke:red;stroke-width:1px;stroke-linecap:butt;stroke-linejoin:miter;stroke-opacity:1" d="M 556.686,443.314 585.029,454.651 z" id="boundary" inkscape:connector-curvature="0" />
	<path style="fill:none;stroke:red;stroke-width:1px;stroke-linecap:butt;stroke-linejoin:miter;stroke-opacity:1" d="M 565.189,726.743 593.531,726.743 z" id="boundary" inkscape:connector-curvature="0" />
	<path style="fill:none;stroke:red;stroke-width:1px;stroke-linecap:butt;stroke-linejoin:miter;stroke-opacity:1" d="M 576.526,610.537 599.2,587.863 z" id="boundary" inkscape:connector-curvature="0" />
	<path style="fill:none;stroke:red;stroke-width:1px;stroke-linecap:butt;stroke-linejoin:miter;stroke-opacity:1" d="M 576.526,996 604.869,990.331 z" id="boundary" inkscape:connector-curvature="0" />
	<path style="fill:none;stroke:red;stroke-width:1px;stroke-linecap:butt;stroke-linejoin:miter;stroke-opacity:1" d="M 585.029,454.651 607.703,471.657 z" id="boundary" inkscape:connector-curvature="0" />
	<path style="fill:none;stroke:red;stroke-width:1px;stroke-linecap:butt;stroke-linejoin:miter;stroke-opacity:1" d="M 593.531,726.743 621.874,726.743 z" id="boundary" inkscape:connector-curvature="0" />
	<path style="fill:none;stroke:red;stroke-width:1px;stroke-linecap:butt;stroke-linejoin:miter;stroke-opacity:1" d="M 599.2,587.863 613.371,551.017 z" id="boundary" inkscape:connector-curvature="0" />
	<path style="fill:none;stroke:red;stroke-width:1px;stroke-linecap:butt;stroke-linejoin:miter;stroke-opacity:1" d="M 604.869,990.331 633.211,984.663 z" id="boundary" inkscape:connector-curvature="0" />
	<path style="fill:none;stroke:red;stroke-width:1px;stroke-linecap:butt;stroke-linejoin:miter;stroke-opacity:1" d="M 607.703,471.657 619.04,500 z" id="boundary" inkscape:connector-curvature="0" />
	<path style="fill:none;stroke:red;stroke-width:1px;stroke-linecap:butt;stroke-linejoin:miter;stroke-opacity:1" d="M 613.371,551.017 619.04,500 z" id="boundary" inkscape:connector-curvature="0" />
	<path style="fill:none;stroke:red;stroke-width:1px;stroke-linecap:butt;stroke-linejoin:miter;stroke-opacity:1" d="M 621.874,726.743 650.217,726.743 z" id="boundary" inkscape:connector-curvature="0" />
	<path style="fill:none;stroke:red;stroke-width:1px;stroke-linecap:butt;stroke-linejoin:miter;stroke-opacity:1" d="M 633.211,984.663 661.554,973.326 z" id="boundary" inkscape:connector-curvature="0" />
	<path style="fill:none;stroke:red;stroke-width:1px;stroke-linecap:butt;stroke-linejoin:miter;stroke-opacity:1" d="M 650.217,726.743 675.726,740.914 z" id="boundary" inkscape:connector-curvature="0" />
	<path style="fill:none;stroke:red;stroke-width:1px;stroke-linecap:butt;stroke-linejoin:miter;stroke-opacity:1" d="M 661.554,973.326 684.229,950.651 z" id="boundary" inkscape:connector-curvature="0" />
	<path style="fill:none;stroke:red;stroke-width:1px;stroke-linecap:butt;stroke-linejoin:miter;stroke-opacity:1" d="M 675.726,740.914 689.897,766.423 z" id="boundary" inkscape:connector-curvature="0" />
	<path style="fill:none;stroke:red;stroke-width:1px;stroke-linecap:butt;stroke-linejoin:miter;stroke-opacity:1" d="M 684.229,950.651 692.731,913.806 z" id="boundary" inkscape:connector-curvature="0" />
	<path style="fill:none;stroke:red;stroke-width:1px;stroke-linecap:butt;stroke-linejoin:miter;stroke-opacity:1" d="M 689.897,766.423 695.566,794.766 z" id="boundary" inkscape:connector-curvature="0" />
	<path style="fill:none;stroke:red;stroke-width:1px;stroke-linecap:butt;stroke-linejoin:miter;stroke-opacity:1" d="M 692.731,913.806 698.4,879.794 z" id="boundary" inkscape:connector-curvature="0" />
	<path style="fill:none;stroke:red;stroke-width:1px;stroke-linecap:butt;stroke-linejoin:miter;stroke-opacity:1" d="M 695.566,794.766 698.4,823.109 z" id="boundary" inkscape:connector-curvature="0" />
	<path style="fill:none;stroke:red;stroke-width:1px;stroke-linecap:butt;stroke-linejoin:miter;stroke-opacity:1" d="M 698.4,823.109 698.4,851.451 z" id="boundary" inkscape:connector-curvature="0" />
	<path style="fill:none;stroke:red;stroke-width:1px;stroke-linecap:butt;stroke-linejoin:miter;stroke-opacity:1" d="M 698.4,851.451 698.4,879.794 z" id="boundary" inkscape:connector-curvature="0" />
	<circle cx="4" cy="199.566" r="4" fill="#0" id="circle0"/>
	<circle cx="4" cy="227.909" r="4" fill="#0" id="circle1"/>
	<circle cx="4" cy="256.251" r="4" fill="#0" id="circle2"/>
	<circle cx="6.83429" cy="284.594" r="4" fill="#0" id="circle3"/>
	<circle cx="9.66857" cy="511.337" r="4" fill="#0" id="circle4"/>
	<circle cx="15.3371" cy="159.886" r="4" fill="#0" id="circle5"/>
	<circle cx="18.1714" cy="312.937" r="4" fill="#0" id="circle6"/>
	<circle cx="18.1714" cy="539.68" r="4" fill="#0" id="circle7"/>
	<circle cx="21.0057" cy="471.657" r="4" fill="#0" id="circle8"/>
	<circle cx="26.6743" cy="131.543" r="4" fill="#0" id="circle9"/>
	<circle cx="32.3429" cy="338.446" r="4" fill="#0" id="circle10"/>
	<circle cx="32.3429" cy="565.189" r="4" fill="#0" id="circle11"/>
	<circle cx="35.1771" cy="446.149" r="4" fill="#0" id="circle12"/>
	<circle cx="38.0114" cy="593.531" r="4" fill="#0" id="circle13"/>
	<circle cx="43.68" cy="366.789" r="4" fill="#0" id="circle14"/>
	<circle cx="46.5143" cy="417.806" r="4" fill="#0" id="circle15"/>
	<circle cx="49.3486" cy="108.869" r="4" fill="#0" id="circle16"/>
	<circle cx="49.3486" cy="621.874" r="4" fill="#0" id="circle17"/>
	<circle cx="49.3486" cy="650.217" r="4" fill="#0" id="circle18"/>
	<circle cx="49.3486" cy="678.56" r="4" fill="#0" id="circle19"/>
	<circle cx="49.3486" cy="706.903" r="4" fill="#0" id="circle20"/>
	<circle cx="49.3486" cy="735.246" r="4" fill="#0" id="circle21"/>
	<circle cx="49.3486" cy="763.589" r="4" fill="#0" id="circle22"/>
	<circle cx="55.0171" cy="35.1771" r="4" fill="#0" id="circle23"/>
	<circle cx="55.0171" cy="63.52" r="4" fill="#0" id="circle24"/>
	<circle cx="55.0171" cy="791.931" r="4" fill="#0" id="circle25"/>
	<circle cx="60.6857" cy="820.274" r="4" fill="#0" id="circle26"/>
	<circle cx="60.6857" cy="848.617" r="4" fill="#0" id="circle27"/>
	<circle cx="60.6857" cy="876.96" r="4" fill="#0" id="circle28"/>
	<circle cx="66.3543" cy="905.303" r="4" fill="#0" id="circle29"/>
	<circle cx="72.0229" cy="933.646" r="4" fill="#0" id="circle30"/>
	<circle cx="77.6914" cy="12.5029" r="4" fill="#0" id="circle31"/>
	<circle cx="77.6914" cy="961.989" r="4" fill="#0" id="circle32"/>
	<circle cx="100.366" cy="978.994" r="4" fill="#0" id="circle33"/>
	<circle cx="106.034" cy="6.83429" r="4" fill="#0" id="circle34"/>
	<circle cx="128.709" cy="990.331" r="4" fill="#0" id="circle35"/>
	<circle cx="134.377" cy="4" r="4" fill="#0" id="circle36"/>
	<circle cx="157.051" cy="996" r="4" fill="#0" id="circle37"/>
	<circle cx="162.72" cy="15.3371" r="4" fill="#0" id="circle38"/>
	<circle cx="185.394" cy="32.3429" r="4" fill="#0" id="circle39"/>
	<circle cx="185.394" cy="996" r="4" fill="#0" id="circle40"/>
	<circle cx="213.737" cy="29.5086" r="4" fill="#0" id="circle41"/>
	<circle cx="213.737" cy="990.331" r="4" fill="#0" id="circle42"/>
	<circle cx="236.411" cy="12.5029" r="4" fill="#0" id="circle43"/>
	<circle cx="242.08" cy="990.331" r="4" fill="#0" id="circle44"/>
	<circle cx="264.754" cy="6.83429" r="4" fill="#0" id="circle45"/>
	<circle cx="270.423" cy="993.166" r="4" fill="#0" id="circle46"/>
	<circle cx="293.097" cy="4" r="4" fill="#0" id="circle47"/>
	<circle cx="298.766" cy="996" r="4" fill="#0" id="circle48"/>
	<circle cx="318.606" cy="18.1714" r="4" fill="#0" id="circle49"/>
	<circle cx="327.109" cy="996" r="4" fill="#0" id="circle50"/>
	<circle cx="341.28" cy="35.1771" r="4" fill="#0" id="circle51"/>
	<circle cx="352.617" cy="63.52" r="4" fill="#0" id="circle52"/>
	<circle cx="355.451" cy="117.371" r="4" fill="#0" id="circle53"/>
	<circle cx="355.451" cy="996" r="4" fill="#0" id="circle54"/>
	<circle cx="369.623" cy="142.88" r="4" fill="#0" id="circle55"/>
	<circle cx="383.794" cy="996" r="4" fill="#0" id="circle56"/>
	<circle cx="386.629" cy="165.554" r="4" fill="#0" id="circle57"/>
	<circle cx="406.469" cy="188.229" r="4" fill="#0" id="circle58"/>
	<circle cx="406.469" cy="978.994" r="4" fill="#0" id="circle59"/>
	<circle cx="412.137" cy="383.794" r="4" fill="#0" id="circle60"/>
	<circle cx="426.309" cy="409.303" r="4" fill="#0" id="circle61"/>
	<circle cx="429.143" cy="361.12" r="4" fill="#0" id="circle62"/>
	<circle cx="434.811" cy="193.897" r="4" fill="#0" id="circle63"/>
	<circle cx="434.811" cy="967.657" r="4" fill="#0" id="circle64"/>
	<circle cx="448.983" cy="426.309" r="4" fill="#0" id="circle65"/>
	<circle cx="457.486" cy="349.783" r="4" fill="#0" id="circle66"/>
	<circle cx="460.32" cy="208.069" r="4" fill="#0" id="circle67"/>
	<circle cx="463.154" cy="973.326" r="4" fill="#0" id="circle68"/>
	<circle cx="471.657" cy="443.314" r="4" fill="#0" id="circle69"/>
	<circle cx="474.491" cy="327.109" r="4" fill="#0" id="circle70"/>
	<circle cx="482.994" cy="225.074" r="4" fill="#0" id="circle71"/>
	<circle cx="482.994" cy="278.926" r="4" fill="#0" id="circle72"/>
	<circle cx="491.497" cy="976.16" r="4" fill="#0" id="circle73"/>
	<circle cx="494.331" cy="647.383" r="4" fill="#0" id="circle74"/>
	<circle cx="500" cy="431.977" r="4" fill="#0" id="circle75"/>
	<circle cx="500" cy="675.726" r="4" fill="#0" id="circle76"/>
	<circle cx="505.669" cy="704.069" r="4" fill="#0" id="circle77"/>
	<circle cx="508.503" cy="732.411" r="4" fill="#0" id="circle78"/>
	<circle cx="519.84" cy="984.663" r="4" fill="#0" id="circle79"/>
	<circle cx="522.674" cy="638.88" r="4" fill="#0" id="circle80"/>
	<circle cx="528.343" cy="431.977" r="4" fill="#0" id="circle81"/>
	<circle cx="536.846" cy="738.08" r="4" fill="#0" id="circle82"/>
	<circle cx="548.183" cy="996" r="4" fill="#0" id="circle83"/>
	<circle cx="551.017" cy="624.709" r="4" fill="#0" id="circle84"/>
	<circle cx="556.686" cy="443.314" r="4" fill="#0" id="circle85"/>
	<circle cx="565.189" cy="726.743" r="4" fill="#0" id="circle86"/>
	<circle cx="576.526" cy="610.537" r="4" fill="#0" id="circle87"/>
	<circle cx="576.526" cy="996" r="4" fill="#0" id="circle88"/>
	<circle cx="585.029" cy="454.651" r="4" fill="#0" id="circle89"/>
	<circle cx="593.531" cy="726.743" r="4" fill="#0" id="circle90"/>
	<circle cx="599.2" cy="587.863" r="4" fill="#0" id="circle91"/>
	<circle cx="604.869" cy="990.331" r="4" fill="#0" id="circle92"/>
	<circle cx="607.703" cy="471.657" r="4" fill="#0" id="circle93"/>
	<circle cx="613.371" cy="551.017" r="4" fill="#0" id="circle94"/>
	<circle cx="619.04" cy="500" r="4" fill="#0" id="circle95"/>
	<circle cx="621.874" cy="726.743" r="4" fill="#0" id="circle96"/>
	<circle cx="633.211" cy="984.663" r="4" fill="#0" id="circle97"/>
	<circle cx="650.217" cy="726.743" r="4" fill="#0" id="circle98"/>
	<circle cx="661.554" cy="973.326" r="4" fill="#0" id="circle99"/>
	<circle cx="675.726" cy="740.914" r="4" fill="#0" id="circle100"/>
	<circle cx="684.229" cy="950.651" r="4" fill="#0" id="circle101"/>
	<circle cx="689.897" cy="766.423" r="4" fill="#0" id="circle102"/>
	<circle cx="692.731" cy="913.806" r="4" fill="#0" id="circle103"/>
	<circle cx="695.566" cy="794.766" r="4" fill="#0" id="circle104"/>
	<circle cx="698.4" cy="823.109" r="4" fill="#0" id="circle105"/>
	<circle cx="698.4" cy="851.451" r="4" fill="#0" id="circle106"/>
	<circle cx="698.4" cy="879.794" r="4" fill="#0" id="circle107"/>
	</g>
</svg>