<?xml version="1.0" encoding="UTF-8" standalone="no"?>
<!-- Created with CurveBenchmark -->
<svg
	xmlns:dc="http://purl.org/dc/elements/1.1/"
	xmlns:cc="http://creativecommons.org/ns#"
	xmlns:rdf="http://www.w3.org/1999/02/22-rdf-syntax-ns#"
	xmlns:svg="http://www.w3.org/2000/svg"
	xmlns="http://www.w3.org/2000/svg"
	xmlns:sodipodi="http://sodipodi.sourceforge.net/DTD/sodipodi-0.dtd"
	xmlns:inkscape="http://www.inkscape.org/namespaces/inkscape"
	width="1000"
	height="1000"
	id="svg2"
	version="1.1"
	sodipodi:docname="manifold/discur-fountain-13.png.txt">
<defs
	id="defs4" />
<metadata
	id="metadata7">
	<rdf:RDF>
		<cc:Work
			rdf:about="">
			<dc:format>image/svg+xml</dc:format>
			<dc:type
				rdf:resource="http://purl.org/dc/dcmitype/StillImage" />
			<dc:title></dc:title>
		</cc:Work>
	</rdf:RDF>
</metadata>
<g
	inkscape:label="Layer 1"
	inkscape:groupmode="layer"
	id="layer1">
	<path style="fill:none;stroke:red;stroke-width:1px;stroke-linecap:butt;stroke-linejoin:miter;stroke-opacity:1" d="M 4,593.678 4,603.539 z" id="boundary" inkscape:connector-curvature="0" />
	<path style="fill:none;stroke:red;stroke-width:1px;stroke-linecap:butt;stroke-linejoin:miter;stroke-opacity:1" d="M 4,593.678 8.93042,578.887 z" id="boundary" inkscape:connector-curvature="0" />
	<path style="fill:none;stroke:red;stroke-width:1px;stroke-linecap:butt;stroke-linejoin:miter;stroke-opacity:1" d="M 4,603.539 4,613.4 z" id="boundary" inkscape:connector-curvature="0" />
	<path style="fill:none;stroke:red;stroke-width:1px;stroke-linecap:butt;stroke-linejoin:miter;stroke-opacity:1" d="M 4,613.4 4,623.26 z" id="boundary" inkscape:connector-curvature="0" />
	<path style="fill:none;stroke:red;stroke-width:1px;stroke-linecap:butt;stroke-linejoin:miter;stroke-opacity:1" d="M 4,623.26 4,633.121 z" id="boundary" inkscape:connector-curvature="0" />
	<path style="fill:none;stroke:red;stroke-width:1px;stroke-linecap:butt;stroke-linejoin:miter;stroke-opacity:1" d="M 4,633.121 13.8608,650.871 z" id="boundary" inkscape:connector-curvature="0" />
	<path style="fill:none;stroke:red;stroke-width:1px;stroke-linecap:butt;stroke-linejoin:miter;stroke-opacity:1" d="M 8.93042,578.887 13.8608,564.095 z" id="boundary" inkscape:connector-curvature="0" />
	<path style="fill:none;stroke:red;stroke-width:1px;stroke-linecap:butt;stroke-linejoin:miter;stroke-opacity:1" d="M 13.8608,564.095 18.7913,554.235 z" id="boundary" inkscape:connector-curvature="0" />
	<path style="fill:none;stroke:red;stroke-width:1px;stroke-linecap:butt;stroke-linejoin:miter;stroke-opacity:1" d="M 13.8608,650.871 22.7356,655.801 z" id="boundary" inkscape:connector-curvature="0" />
	<path style="fill:none;stroke:red;stroke-width:1px;stroke-linecap:butt;stroke-linejoin:miter;stroke-opacity:1" d="M 18.7913,544.374 18.7913,554.235 z" id="boundary" inkscape:connector-curvature="0" />
	<path style="fill:none;stroke:red;stroke-width:1px;stroke-linecap:butt;stroke-linejoin:miter;stroke-opacity:1" d="M 18.7913,544.374 23.7217,534.513 z" id="boundary" inkscape:connector-curvature="0" />
	<path style="fill:none;stroke:red;stroke-width:1px;stroke-linecap:butt;stroke-linejoin:miter;stroke-opacity:1" d="M 22.7356,655.801 32.5964,655.801 z" id="boundary" inkscape:connector-curvature="0" />
	<path style="fill:none;stroke:red;stroke-width:1px;stroke-linecap:butt;stroke-linejoin:miter;stroke-opacity:1" d="M 32.5964,655.801 51.332,660.732 z" id="boundary" inkscape:connector-curvature="0" />
	<path style="fill:none;stroke:red;stroke-width:1px;stroke-linecap:butt;stroke-linejoin:miter;stroke-opacity:1" d="M 36.5408,516.763 45.4155,511.833 z" id="boundary" inkscape:connector-curvature="0" />
	<path style="fill:none;stroke:red;stroke-width:1px;stroke-linecap:butt;stroke-linejoin:miter;stroke-opacity:1" d="M 36.5408,516.763 53.3042,504.93 z" id="boundary" inkscape:connector-curvature="0" />
	<path style="fill:none;stroke:red;stroke-width:1px;stroke-linecap:butt;stroke-linejoin:miter;stroke-opacity:1" d="M 45.4155,511.833 53.3042,504.93 z" id="boundary" inkscape:connector-curvature="0" />
	<path style="fill:none;stroke:red;stroke-width:1px;stroke-linecap:butt;stroke-linejoin:miter;stroke-opacity:1" d="M 51.332,660.732 60.2068,665.662 z" id="boundary" inkscape:connector-curvature="0" />
	<path style="fill:none;stroke:red;stroke-width:1px;stroke-linecap:butt;stroke-linejoin:miter;stroke-opacity:1" d="M 60.2068,665.662 68.0954,671.579 z" id="boundary" inkscape:connector-curvature="0" />
	<path style="fill:none;stroke:red;stroke-width:1px;stroke-linecap:butt;stroke-linejoin:miter;stroke-opacity:1" d="M 68.0954,671.579 74.998,679.467 z" id="boundary" inkscape:connector-curvature="0" />
	<path style="fill:none;stroke:red;stroke-width:1px;stroke-linecap:butt;stroke-linejoin:miter;stroke-opacity:1" d="M 71.0537,492.111 80.9145,487.181 z" id="boundary" inkscape:connector-curvature="0" />
	<path style="fill:none;stroke:red;stroke-width:1px;stroke-linecap:butt;stroke-linejoin:miter;stroke-opacity:1" d="M 74.998,679.467 82.8867,685.384 z" id="boundary" inkscape:connector-curvature="0" />
	<path style="fill:none;stroke:red;stroke-width:1px;stroke-linecap:butt;stroke-linejoin:miter;stroke-opacity:1" d="M 80.9145,487.181 90.7753,482.25 z" id="boundary" inkscape:connector-curvature="0" />
	<path style="fill:none;stroke:red;stroke-width:1px;stroke-linecap:butt;stroke-linejoin:miter;stroke-opacity:1" d="M 82.8867,685.384 98.664,697.217 z" id="boundary" inkscape:connector-curvature="0" />
	<path style="fill:none;stroke:red;stroke-width:1px;stroke-linecap:butt;stroke-linejoin:miter;stroke-opacity:1" d="M 90.7753,482.25 100.636,477.32 z" id="boundary" inkscape:connector-curvature="0" />
	<path style="fill:none;stroke:red;stroke-width:1px;stroke-linecap:butt;stroke-linejoin:miter;stroke-opacity:1" d="M 98.664,697.217 117.4,705.105 z" id="boundary" inkscape:connector-curvature="0" />
	<path style="fill:none;stroke:red;stroke-width:1px;stroke-linecap:butt;stroke-linejoin:miter;stroke-opacity:1" d="M 100.636,477.32 110.497,477.32 z" id="boundary" inkscape:connector-curvature="0" />
	<path style="fill:none;stroke:red;stroke-width:1px;stroke-linecap:butt;stroke-linejoin:miter;stroke-opacity:1" d="M 110.497,477.32 120.358,472.39 z" id="boundary" inkscape:connector-curvature="0" />
	<path style="fill:none;stroke:red;stroke-width:1px;stroke-linecap:butt;stroke-linejoin:miter;stroke-opacity:1" d="M 117.4,705.105 126.274,710.036 z" id="boundary" inkscape:connector-curvature="0" />
	<path style="fill:none;stroke:red;stroke-width:1px;stroke-linecap:butt;stroke-linejoin:miter;stroke-opacity:1" d="M 120.358,472.39 130.219,472.39 z" id="boundary" inkscape:connector-curvature="0" />
	<path style="fill:none;stroke:red;stroke-width:1px;stroke-linecap:butt;stroke-linejoin:miter;stroke-opacity:1" d="M 126.274,710.036 136.135,710.036 z" id="boundary" inkscape:connector-curvature="0" />
	<path style="fill:none;stroke:red;stroke-width:1px;stroke-linecap:butt;stroke-linejoin:miter;stroke-opacity:1" d="M 130.219,472.39 139.093,467.459 z" id="boundary" inkscape:connector-curvature="0" />
	<path style="fill:none;stroke:red;stroke-width:1px;stroke-linecap:butt;stroke-linejoin:miter;stroke-opacity:1" d="M 136.135,710.036 145.01,714.966 z" id="boundary" inkscape:connector-curvature="0" />
	<path style="fill:none;stroke:red;stroke-width:1px;stroke-linecap:butt;stroke-linejoin:miter;stroke-opacity:1" d="M 139.093,467.459 156.843,455.626 z" id="boundary" inkscape:connector-curvature="0" />
	<path style="fill:none;stroke:red;stroke-width:1px;stroke-linecap:butt;stroke-linejoin:miter;stroke-opacity:1" d="M 145.01,714.966 163.746,719.897 z" id="boundary" inkscape:connector-curvature="0" />
	<path style="fill:none;stroke:red;stroke-width:1px;stroke-linecap:butt;stroke-linejoin:miter;stroke-opacity:1" d="M 156.843,455.626 166.704,452.668 z" id="boundary" inkscape:connector-curvature="0" />
	<path style="fill:none;stroke:red;stroke-width:1px;stroke-linecap:butt;stroke-linejoin:miter;stroke-opacity:1" d="M 163.746,719.897 173.606,719.897 z" id="boundary" inkscape:connector-curvature="0" />
	<path style="fill:none;stroke:red;stroke-width:1px;stroke-linecap:butt;stroke-linejoin:miter;stroke-opacity:1" d="M 166.704,452.668 176.565,452.668 z" id="boundary" inkscape:connector-curvature="0" />
	<path style="fill:none;stroke:red;stroke-width:1px;stroke-linecap:butt;stroke-linejoin:miter;stroke-opacity:1" d="M 173.606,719.897 182.481,724.827 z" id="boundary" inkscape:connector-curvature="0" />
	<path style="fill:none;stroke:red;stroke-width:1px;stroke-linecap:butt;stroke-linejoin:miter;stroke-opacity:1" d="M 176.565,452.668 181.495,435.905 z" id="boundary" inkscape:connector-curvature="0" />
	<path style="fill:none;stroke:red;stroke-width:1px;stroke-linecap:butt;stroke-linejoin:miter;stroke-opacity:1" d="M 181.495,416.183 181.495,426.044 z" id="boundary" inkscape:connector-curvature="0" />
	<path style="fill:none;stroke:red;stroke-width:1px;stroke-linecap:butt;stroke-linejoin:miter;stroke-opacity:1" d="M 181.495,416.183 186.425,401.392 z" id="boundary" inkscape:connector-curvature="0" />
	<path style="fill:none;stroke:red;stroke-width:1px;stroke-linecap:butt;stroke-linejoin:miter;stroke-opacity:1" d="M 181.495,426.044 181.495,435.905 z" id="boundary" inkscape:connector-curvature="0" />
	<path style="fill:none;stroke:red;stroke-width:1px;stroke-linecap:butt;stroke-linejoin:miter;stroke-opacity:1" d="M 182.481,724.827 192.342,724.827 z" id="boundary" inkscape:connector-curvature="0" />
	<path style="fill:none;stroke:red;stroke-width:1px;stroke-linecap:butt;stroke-linejoin:miter;stroke-opacity:1" d="M 186.425,401.392 191.356,391.531 z" id="boundary" inkscape:connector-curvature="0" />
	<path style="fill:none;stroke:red;stroke-width:1px;stroke-linecap:butt;stroke-linejoin:miter;stroke-opacity:1" d="M 191.356,391.531 201.217,386.6 z" id="boundary" inkscape:connector-curvature="0" />
	<path style="fill:none;stroke:red;stroke-width:1px;stroke-linecap:butt;stroke-linejoin:miter;stroke-opacity:1" d="M 192.342,724.827 202.203,724.827 z" id="boundary" inkscape:connector-curvature="0" />
	<path style="fill:none;stroke:red;stroke-width:1px;stroke-linecap:butt;stroke-linejoin:miter;stroke-opacity:1" d="M 201.217,386.6 211.078,381.67 z" id="boundary" inkscape:connector-curvature="0" />
	<path style="fill:none;stroke:red;stroke-width:1px;stroke-linecap:butt;stroke-linejoin:miter;stroke-opacity:1" d="M 202.203,724.827 212.064,724.827 z" id="boundary" inkscape:connector-curvature="0" />
	<path style="fill:none;stroke:red;stroke-width:1px;stroke-linecap:butt;stroke-linejoin:miter;stroke-opacity:1" d="M 211.078,381.67 220.938,376.74 z" id="boundary" inkscape:connector-curvature="0" />
	<path style="fill:none;stroke:red;stroke-width:1px;stroke-linecap:butt;stroke-linejoin:miter;stroke-opacity:1" d="M 212.064,724.827 220.938,729.757 z" id="boundary" inkscape:connector-curvature="0" />
	<path style="fill:none;stroke:red;stroke-width:1px;stroke-linecap:butt;stroke-linejoin:miter;stroke-opacity:1" d="M 220.938,376.74 230.799,373.781 z" id="boundary" inkscape:connector-curvature="0" />
	<path style="fill:none;stroke:red;stroke-width:1px;stroke-linecap:butt;stroke-linejoin:miter;stroke-opacity:1" d="M 220.938,729.757 230.799,729.757 z" id="boundary" inkscape:connector-curvature="0" />
	<path style="fill:none;stroke:red;stroke-width:1px;stroke-linecap:butt;stroke-linejoin:miter;stroke-opacity:1" d="M 230.799,373.781 249.535,368.851 z" id="boundary" inkscape:connector-curvature="0" />
	<path style="fill:none;stroke:red;stroke-width:1px;stroke-linecap:butt;stroke-linejoin:miter;stroke-opacity:1" d="M 230.799,729.757 249.535,734.688 z" id="boundary" inkscape:connector-curvature="0" />
	<path style="fill:none;stroke:red;stroke-width:1px;stroke-linecap:butt;stroke-linejoin:miter;stroke-opacity:1" d="M 249.535,368.851 258.41,363.92 z" id="boundary" inkscape:connector-curvature="0" />
	<path style="fill:none;stroke:red;stroke-width:1px;stroke-linecap:butt;stroke-linejoin:miter;stroke-opacity:1" d="M 249.535,734.688 258.41,739.618 z" id="boundary" inkscape:connector-curvature="0" />
	<path style="fill:none;stroke:red;stroke-width:1px;stroke-linecap:butt;stroke-linejoin:miter;stroke-opacity:1" d="M 258.41,363.92 268.27,358.99 z" id="boundary" inkscape:connector-curvature="0" />
	<path style="fill:none;stroke:red;stroke-width:1px;stroke-linecap:butt;stroke-linejoin:miter;stroke-opacity:1" d="M 258.41,739.618 268.27,739.618 z" id="boundary" inkscape:connector-curvature="0" />
	<path style="fill:none;stroke:red;stroke-width:1px;stroke-linecap:butt;stroke-linejoin:miter;stroke-opacity:1" d="M 268.27,358.99 278.131,358.99 z" id="boundary" inkscape:connector-curvature="0" />
	<path style="fill:none;stroke:red;stroke-width:1px;stroke-linecap:butt;stroke-linejoin:miter;stroke-opacity:1" d="M 268.27,739.618 278.131,739.618 z" id="boundary" inkscape:connector-curvature="0" />
	<path style="fill:none;stroke:red;stroke-width:1px;stroke-linecap:butt;stroke-linejoin:miter;stroke-opacity:1" d="M 278.131,358.99 287.006,354.06 z" id="boundary" inkscape:connector-curvature="0" />
	<path style="fill:none;stroke:red;stroke-width:1px;stroke-linecap:butt;stroke-linejoin:miter;stroke-opacity:1" d="M 278.131,739.618 287.992,739.618 z" id="boundary" inkscape:connector-curvature="0" />
	<path style="fill:none;stroke:red;stroke-width:1px;stroke-linecap:butt;stroke-linejoin:miter;stroke-opacity:1" d="M 287.006,354.06 296.867,350.115 z" id="boundary" inkscape:connector-curvature="0" />
	<path style="fill:none;stroke:red;stroke-width:1px;stroke-linecap:butt;stroke-linejoin:miter;stroke-opacity:1" d="M 287.992,739.618 297.853,743.563 z" id="boundary" inkscape:connector-curvature="0" />
	<path style="fill:none;stroke:red;stroke-width:1px;stroke-linecap:butt;stroke-linejoin:miter;stroke-opacity:1" d="M 296.867,350.115 306.728,349.129 z" id="boundary" inkscape:connector-curvature="0" />
	<path style="fill:none;stroke:red;stroke-width:1px;stroke-linecap:butt;stroke-linejoin:miter;stroke-opacity:1" d="M 297.853,743.563 307.714,744.549 z" id="boundary" inkscape:connector-curvature="0" />
	<path style="fill:none;stroke:red;stroke-width:1px;stroke-linecap:butt;stroke-linejoin:miter;stroke-opacity:1" d="M 306.728,349.129 325.463,344.199 z" id="boundary" inkscape:connector-curvature="0" />
	<path style="fill:none;stroke:red;stroke-width:1px;stroke-linecap:butt;stroke-linejoin:miter;stroke-opacity:1" d="M 307.714,744.549 317.575,744.549 z" id="boundary" inkscape:connector-curvature="0" />
	<path style="fill:none;stroke:red;stroke-width:1px;stroke-linecap:butt;stroke-linejoin:miter;stroke-opacity:1" d="M 317.575,744.549 336.31,749.479 z" id="boundary" inkscape:connector-curvature="0" />
	<path style="fill:none;stroke:red;stroke-width:1px;stroke-linecap:butt;stroke-linejoin:miter;stroke-opacity:1" d="M 325.463,344.199 335.324,344.199 z" id="boundary" inkscape:connector-curvature="0" />
	<path style="fill:none;stroke:red;stroke-width:1px;stroke-linecap:butt;stroke-linejoin:miter;stroke-opacity:1" d="M 335.324,344.199 345.185,344.199 z" id="boundary" inkscape:connector-curvature="0" />
	<path style="fill:none;stroke:red;stroke-width:1px;stroke-linecap:butt;stroke-linejoin:miter;stroke-opacity:1" d="M 336.31,749.479 345.185,754.41 z" id="boundary" inkscape:connector-curvature="0" />
	<path style="fill:none;stroke:red;stroke-width:1px;stroke-linecap:butt;stroke-linejoin:miter;stroke-opacity:1" d="M 345.185,344.199 355.046,344.199 z" id="boundary" inkscape:connector-curvature="0" />
	<path style="fill:none;stroke:red;stroke-width:1px;stroke-linecap:butt;stroke-linejoin:miter;stroke-opacity:1" d="M 345.185,754.41 355.046,754.41 z" id="boundary" inkscape:connector-curvature="0" />
	<path style="fill:none;stroke:red;stroke-width:1px;stroke-linecap:butt;stroke-linejoin:miter;stroke-opacity:1" d="M 354.06,140.08 354.06,149.94 z" id="boundary" inkscape:connector-curvature="0" />
	<path style="fill:none;stroke:red;stroke-width:1px;stroke-linecap:butt;stroke-linejoin:miter;stroke-opacity:1" d="M 354.06,140.08 361.948,132.191 z" id="boundary" inkscape:connector-curvature="0" />
	<path style="fill:none;stroke:red;stroke-width:1px;stroke-linecap:butt;stroke-linejoin:miter;stroke-opacity:1" d="M 354.06,149.94 370.823,161.773 z" id="boundary" inkscape:connector-curvature="0" />
	<path style="fill:none;stroke:red;stroke-width:1px;stroke-linecap:butt;stroke-linejoin:miter;stroke-opacity:1" d="M 355.046,344.199 364.907,344.199 z" id="boundary" inkscape:connector-curvature="0" />
	<path style="fill:none;stroke:red;stroke-width:1px;stroke-linecap:butt;stroke-linejoin:miter;stroke-opacity:1" d="M 355.046,754.41 364.907,754.41 z" id="boundary" inkscape:connector-curvature="0" />
	<path style="fill:none;stroke:red;stroke-width:1px;stroke-linecap:butt;stroke-linejoin:miter;stroke-opacity:1" d="M 361.948,132.191 379.698,119.372 z" id="boundary" inkscape:connector-curvature="0" />
	<path style="fill:none;stroke:red;stroke-width:1px;stroke-linecap:butt;stroke-linejoin:miter;stroke-opacity:1" d="M 364.907,344.199 374.767,344.199 z" id="boundary" inkscape:connector-curvature="0" />
	<path style="fill:none;stroke:red;stroke-width:1px;stroke-linecap:butt;stroke-linejoin:miter;stroke-opacity:1" d="M 364.907,754.41 374.767,754.41 z" id="boundary" inkscape:connector-curvature="0" />
	<path style="fill:none;stroke:red;stroke-width:1px;stroke-linecap:butt;stroke-linejoin:miter;stroke-opacity:1" d="M 370.823,161.773 380.684,165.718 z" id="boundary" inkscape:connector-curvature="0" />
	<path style="fill:none;stroke:red;stroke-width:1px;stroke-linecap:butt;stroke-linejoin:miter;stroke-opacity:1" d="M 374.767,344.199 384.628,344.199 z" id="boundary" inkscape:connector-curvature="0" />
	<path style="fill:none;stroke:red;stroke-width:1px;stroke-linecap:butt;stroke-linejoin:miter;stroke-opacity:1" d="M 374.767,754.41 383.642,759.34 z" id="boundary" inkscape:connector-curvature="0" />
	<path style="fill:none;stroke:red;stroke-width:1px;stroke-linecap:butt;stroke-linejoin:miter;stroke-opacity:1" d="M 379.698,119.372 389.559,114.441 z" id="boundary" inkscape:connector-curvature="0" />
	<path style="fill:none;stroke:red;stroke-width:1px;stroke-linecap:butt;stroke-linejoin:miter;stroke-opacity:1" d="M 380.684,165.718 390.545,167.69 z" id="boundary" inkscape:connector-curvature="0" />
	<path style="fill:none;stroke:red;stroke-width:1px;stroke-linecap:butt;stroke-linejoin:miter;stroke-opacity:1" d="M 383.642,759.34 393.503,759.34 z" id="boundary" inkscape:connector-curvature="0" />
	<path style="fill:none;stroke:red;stroke-width:1px;stroke-linecap:butt;stroke-linejoin:miter;stroke-opacity:1" d="M 384.628,344.199 394.489,344.199 z" id="boundary" inkscape:connector-curvature="0" />
	<path style="fill:none;stroke:red;stroke-width:1px;stroke-linecap:butt;stroke-linejoin:miter;stroke-opacity:1" d="M 389.559,114.441 399.419,112.469 z" id="boundary" inkscape:connector-curvature="0" />
	<path style="fill:none;stroke:red;stroke-width:1px;stroke-linecap:butt;stroke-linejoin:miter;stroke-opacity:1" d="M 390.545,167.69 409.28,174.592 z" id="boundary" inkscape:connector-curvature="0" />
	<path style="fill:none;stroke:red;stroke-width:1px;stroke-linecap:butt;stroke-linejoin:miter;stroke-opacity:1" d="M 393.503,759.34 403.364,759.34 z" id="boundary" inkscape:connector-curvature="0" />
	<path style="fill:none;stroke:red;stroke-width:1px;stroke-linecap:butt;stroke-linejoin:miter;stroke-opacity:1" d="M 394.489,344.199 413.225,339.268 z" id="boundary" inkscape:connector-curvature="0" />
	<path style="fill:none;stroke:red;stroke-width:1px;stroke-linecap:butt;stroke-linejoin:miter;stroke-opacity:1" d="M 399.419,112.469 409.28,112.469 z" id="boundary" inkscape:connector-curvature="0" />
	<path style="fill:none;stroke:red;stroke-width:1px;stroke-linecap:butt;stroke-linejoin:miter;stroke-opacity:1" d="M 403.364,759.34 413.225,759.34 z" id="boundary" inkscape:connector-curvature="0" />
	<path style="fill:none;stroke:red;stroke-width:1px;stroke-linecap:butt;stroke-linejoin:miter;stroke-opacity:1" d="M 409.28,112.469 419.141,109.511 z" id="boundary" inkscape:connector-curvature="0" />
	<path style="fill:none;stroke:red;stroke-width:1px;stroke-linecap:butt;stroke-linejoin:miter;stroke-opacity:1" d="M 409.28,174.592 419.141,177.551 z" id="boundary" inkscape:connector-curvature="0" />
	<path style="fill:none;stroke:red;stroke-width:1px;stroke-linecap:butt;stroke-linejoin:miter;stroke-opacity:1" d="M 413.225,339.268 423.085,339.268 z" id="boundary" inkscape:connector-curvature="0" />
	<path style="fill:none;stroke:red;stroke-width:1px;stroke-linecap:butt;stroke-linejoin:miter;stroke-opacity:1" d="M 413.225,759.34 422.099,764.27 z" id="boundary" inkscape:connector-curvature="0" />
	<path style="fill:none;stroke:red;stroke-width:1px;stroke-linecap:butt;stroke-linejoin:miter;stroke-opacity:1" d="M 419.141,109.511 429.002,107.539 z" id="boundary" inkscape:connector-curvature="0" />
	<path style="fill:none;stroke:red;stroke-width:1px;stroke-linecap:butt;stroke-linejoin:miter;stroke-opacity:1" d="M 419.141,177.551 429.002,177.551 z" id="boundary" inkscape:connector-curvature="0" />
	<path style="fill:none;stroke:red;stroke-width:1px;stroke-linecap:butt;stroke-linejoin:miter;stroke-opacity:1" d="M 422.099,764.27 431.96,764.27 z" id="boundary" inkscape:connector-curvature="0" />
	<path style="fill:none;stroke:red;stroke-width:1px;stroke-linecap:butt;stroke-linejoin:miter;stroke-opacity:1" d="M 423.085,339.268 431.96,334.338 z" id="boundary" inkscape:connector-curvature="0" />
	<path style="fill:none;stroke:red;stroke-width:1px;stroke-linecap:butt;stroke-linejoin:miter;stroke-opacity:1" d="M 429.002,107.539 438.863,107.539 z" id="boundary" inkscape:connector-curvature="0" />
	<path style="fill:none;stroke:red;stroke-width:1px;stroke-linecap:butt;stroke-linejoin:miter;stroke-opacity:1" d="M 429.002,177.551 438.863,179.523 z" id="boundary" inkscape:connector-curvature="0" />
	<path style="fill:none;stroke:red;stroke-width:1px;stroke-linecap:butt;stroke-linejoin:miter;stroke-opacity:1" d="M 431.96,334.338 441.821,334.338 z" id="boundary" inkscape:connector-curvature="0" />
	<path style="fill:none;stroke:red;stroke-width:1px;stroke-linecap:butt;stroke-linejoin:miter;stroke-opacity:1" d="M 431.96,764.27 441.821,764.27 z" id="boundary" inkscape:connector-curvature="0" />
	<path style="fill:none;stroke:red;stroke-width:1px;stroke-linecap:butt;stroke-linejoin:miter;stroke-opacity:1" d="M 438.863,107.539 448.724,107.539 z" id="boundary" inkscape:connector-curvature="0" />
	<path style="fill:none;stroke:red;stroke-width:1px;stroke-linecap:butt;stroke-linejoin:miter;stroke-opacity:1" d="M 438.863,179.523 448.724,182.481 z" id="boundary" inkscape:connector-curvature="0" />
	<path style="fill:none;stroke:red;stroke-width:1px;stroke-linecap:butt;stroke-linejoin:miter;stroke-opacity:1" d="M 441.821,334.338 451.682,334.338 z" id="boundary" inkscape:connector-curvature="0" />
	<path style="fill:none;stroke:red;stroke-width:1px;stroke-linecap:butt;stroke-linejoin:miter;stroke-opacity:1" d="M 441.821,764.27 451.682,764.27 z" id="boundary" inkscape:connector-curvature="0" />
	<path style="fill:none;stroke:red;stroke-width:1px;stroke-linecap:butt;stroke-linejoin:miter;stroke-opacity:1" d="M 448.724,107.539 458.584,107.539 z" id="boundary" inkscape:connector-curvature="0" />
	<path style="fill:none;stroke:red;stroke-width:1px;stroke-linecap:butt;stroke-linejoin:miter;stroke-opacity:1" d="M 448.724,182.481 458.584,182.481 z" id="boundary" inkscape:connector-curvature="0" />
	<path style="fill:none;stroke:red;stroke-width:1px;stroke-linecap:butt;stroke-linejoin:miter;stroke-opacity:1" d="M 451.682,334.338 452.668,322.505 z" id="boundary" inkscape:connector-curvature="0" />
	<path style="fill:none;stroke:red;stroke-width:1px;stroke-linecap:butt;stroke-linejoin:miter;stroke-opacity:1" d="M 451.682,764.27 461.543,764.27 z" id="boundary" inkscape:connector-curvature="0" />
	<path style="fill:none;stroke:red;stroke-width:1px;stroke-linecap:butt;stroke-linejoin:miter;stroke-opacity:1" d="M 452.668,292.922 452.668,302.783 z" id="boundary" inkscape:connector-curvature="0" />
	<path style="fill:none;stroke:red;stroke-width:1px;stroke-linecap:butt;stroke-linejoin:miter;stroke-opacity:1" d="M 452.668,292.922 457.598,283.062 z" id="boundary" inkscape:connector-curvature="0" />
	<path style="fill:none;stroke:red;stroke-width:1px;stroke-linecap:butt;stroke-linejoin:miter;stroke-opacity:1" d="M 452.668,302.783 452.668,312.644 z" id="boundary" inkscape:connector-curvature="0" />
	<path style="fill:none;stroke:red;stroke-width:1px;stroke-linecap:butt;stroke-linejoin:miter;stroke-opacity:1" d="M 452.668,312.644 452.668,322.505 z" id="boundary" inkscape:connector-curvature="0" />
	<path style="fill:none;stroke:red;stroke-width:1px;stroke-linecap:butt;stroke-linejoin:miter;stroke-opacity:1" d="M 457.598,273.201 457.598,283.062 z" id="boundary" inkscape:connector-curvature="0" />
	<path style="fill:none;stroke:red;stroke-width:1px;stroke-linecap:butt;stroke-linejoin:miter;stroke-opacity:1" d="M 457.598,273.201 462.529,261.368 z" id="boundary" inkscape:connector-curvature="0" />
	<path style="fill:none;stroke:red;stroke-width:1px;stroke-linecap:butt;stroke-linejoin:miter;stroke-opacity:1" d="M 458.584,107.539 468.445,107.539 z" id="boundary" inkscape:connector-curvature="0" />
	<path style="fill:none;stroke:red;stroke-width:1px;stroke-linecap:butt;stroke-linejoin:miter;stroke-opacity:1" d="M 458.584,182.481 462.529,192.342 z" id="boundary" inkscape:connector-curvature="0" />
	<path style="fill:none;stroke:red;stroke-width:1px;stroke-linecap:butt;stroke-linejoin:miter;stroke-opacity:1" d="M 461.543,764.27 471.404,764.27 z" id="boundary" inkscape:connector-curvature="0" />
	<path style="fill:none;stroke:red;stroke-width:1px;stroke-linecap:butt;stroke-linejoin:miter;stroke-opacity:1" d="M 462.529,192.342 462.529,202.203 z" id="boundary" inkscape:connector-curvature="0" />
	<path style="fill:none;stroke:red;stroke-width:1px;stroke-linecap:butt;stroke-linejoin:miter;stroke-opacity:1" d="M 462.529,202.203 462.529,212.064 z" id="boundary" inkscape:connector-curvature="0" />
	<path style="fill:none;stroke:red;stroke-width:1px;stroke-linecap:butt;stroke-linejoin:miter;stroke-opacity:1" d="M 462.529,212.064 462.529,221.924 z" id="boundary" inkscape:connector-curvature="0" />
	<path style="fill:none;stroke:red;stroke-width:1px;stroke-linecap:butt;stroke-linejoin:miter;stroke-opacity:1" d="M 462.529,221.924 462.529,231.785 z" id="boundary" inkscape:connector-curvature="0" />
	<path style="fill:none;stroke:red;stroke-width:1px;stroke-linecap:butt;stroke-linejoin:miter;stroke-opacity:1" d="M 462.529,231.785 462.529,241.646 z" id="boundary" inkscape:connector-curvature="0" />
	<path style="fill:none;stroke:red;stroke-width:1px;stroke-linecap:butt;stroke-linejoin:miter;stroke-opacity:1" d="M 462.529,241.646 462.529,251.507 z" id="boundary" inkscape:connector-curvature="0" />
	<path style="fill:none;stroke:red;stroke-width:1px;stroke-linecap:butt;stroke-linejoin:miter;stroke-opacity:1" d="M 462.529,251.507 462.529,261.368 z" id="boundary" inkscape:connector-curvature="0" />
	<path style="fill:none;stroke:red;stroke-width:1px;stroke-linecap:butt;stroke-linejoin:miter;stroke-opacity:1" d="M 468.445,107.539 477.32,102.608 z" id="boundary" inkscape:connector-curvature="0" />
	<path style="fill:none;stroke:red;stroke-width:1px;stroke-linecap:butt;stroke-linejoin:miter;stroke-opacity:1" d="M 471.404,764.27 481.264,764.27 z" id="boundary" inkscape:connector-curvature="0" />
	<path style="fill:none;stroke:red;stroke-width:1px;stroke-linecap:butt;stroke-linejoin:miter;stroke-opacity:1" d="M 472.39,16.8191 472.39,26.6799 z" id="boundary" inkscape:connector-curvature="0" />
	<path style="fill:none;stroke:red;stroke-width:1px;stroke-linecap:butt;stroke-linejoin:miter;stroke-opacity:1" d="M 472.39,16.8191 480.278,8.93042 z" id="boundary" inkscape:connector-curvature="0" />
	<path style="fill:none;stroke:red;stroke-width:1px;stroke-linecap:butt;stroke-linejoin:miter;stroke-opacity:1" d="M 472.39,26.6799 472.39,36.5408 z" id="boundary" inkscape:connector-curvature="0" />
	<path style="fill:none;stroke:red;stroke-width:1px;stroke-linecap:butt;stroke-linejoin:miter;stroke-opacity:1" d="M 472.39,36.5408 472.39,46.4016 z" id="boundary" inkscape:connector-curvature="0" />
	<path style="fill:none;stroke:red;stroke-width:1px;stroke-linecap:butt;stroke-linejoin:miter;stroke-opacity:1" d="M 472.39,46.4016 472.39,56.2624 z" id="boundary" inkscape:connector-curvature="0" />
	<path style="fill:none;stroke:red;stroke-width:1px;stroke-linecap:butt;stroke-linejoin:miter;stroke-opacity:1" d="M 472.39,56.2624 477.32,74.998 z" id="boundary" inkscape:connector-curvature="0" />
	<path style="fill:none;stroke:red;stroke-width:1px;stroke-linecap:butt;stroke-linejoin:miter;stroke-opacity:1" d="M 477.32,74.998 482.25,83.8728 z" id="boundary" inkscape:connector-curvature="0" />
	<path style="fill:none;stroke:red;stroke-width:1px;stroke-linecap:butt;stroke-linejoin:miter;stroke-opacity:1" d="M 477.32,102.608 482.25,83.8728 z" id="boundary" inkscape:connector-curvature="0" />
	<path style="fill:none;stroke:red;stroke-width:1px;stroke-linecap:butt;stroke-linejoin:miter;stroke-opacity:1" d="M 480.278,8.93042 499.014,4 z" id="boundary" inkscape:connector-curvature="0" />
	<path style="fill:none;stroke:red;stroke-width:1px;stroke-linecap:butt;stroke-linejoin:miter;stroke-opacity:1" d="M 481.264,764.27 491.125,764.27 z" id="boundary" inkscape:connector-curvature="0" />
	<path style="fill:none;stroke:red;stroke-width:1px;stroke-linecap:butt;stroke-linejoin:miter;stroke-opacity:1" d="M 491.125,764.27 500.986,764.27 z" id="boundary" inkscape:connector-curvature="0" />
	<path style="fill:none;stroke:red;stroke-width:1px;stroke-linecap:butt;stroke-linejoin:miter;stroke-opacity:1" d="M 499.014,4 508.875,4 z" id="boundary" inkscape:connector-curvature="0" />
	<path style="fill:none;stroke:red;stroke-width:1px;stroke-linecap:butt;stroke-linejoin:miter;stroke-opacity:1" d="M 500.986,764.27 510.847,764.27 z" id="boundary" inkscape:connector-curvature="0" />
	<path style="fill:none;stroke:red;stroke-width:1px;stroke-linecap:butt;stroke-linejoin:miter;stroke-opacity:1" d="M 508.875,4 516.763,10.9026 z" id="boundary" inkscape:connector-curvature="0" />
	<path style="fill:none;stroke:red;stroke-width:1px;stroke-linecap:butt;stroke-linejoin:miter;stroke-opacity:1" d="M 510.847,764.27 520.708,764.27 z" id="boundary" inkscape:connector-curvature="0" />
	<path style="fill:none;stroke:red;stroke-width:1px;stroke-linecap:butt;stroke-linejoin:miter;stroke-opacity:1" d="M 516.763,10.9026 522.68,28.6521 z" id="boundary" inkscape:connector-curvature="0" />
	<path style="fill:none;stroke:red;stroke-width:1px;stroke-linecap:butt;stroke-linejoin:miter;stroke-opacity:1" d="M 520.708,764.27 530.569,764.27 z" id="boundary" inkscape:connector-curvature="0" />
	<path style="fill:none;stroke:red;stroke-width:1px;stroke-linecap:butt;stroke-linejoin:miter;stroke-opacity:1" d="M 522.68,28.6521 522.68,38.5129 z" id="boundary" inkscape:connector-curvature="0" />
	<path style="fill:none;stroke:red;stroke-width:1px;stroke-linecap:butt;stroke-linejoin:miter;stroke-opacity:1" d="M 522.68,38.5129 522.68,48.3738 z" id="boundary" inkscape:connector-curvature="0" />
	<path style="fill:none;stroke:red;stroke-width:1px;stroke-linecap:butt;stroke-linejoin:miter;stroke-opacity:1" d="M 522.68,48.3738 522.68,58.2346 z" id="boundary" inkscape:connector-curvature="0" />
	<path style="fill:none;stroke:red;stroke-width:1px;stroke-linecap:butt;stroke-linejoin:miter;stroke-opacity:1" d="M 522.68,58.2346 522.68,68.0954 z" id="boundary" inkscape:connector-curvature="0" />
	<path style="fill:none;stroke:red;stroke-width:1px;stroke-linecap:butt;stroke-linejoin:miter;stroke-opacity:1" d="M 522.68,68.0954 522.68,77.9563 z" id="boundary" inkscape:connector-curvature="0" />
	<path style="fill:none;stroke:red;stroke-width:1px;stroke-linecap:butt;stroke-linejoin:miter;stroke-opacity:1" d="M 522.68,77.9563 522.68,87.8171 z" id="boundary" inkscape:connector-curvature="0" />
	<path style="fill:none;stroke:red;stroke-width:1px;stroke-linecap:butt;stroke-linejoin:miter;stroke-opacity:1" d="M 522.68,87.8171 522.68,97.6779 z" id="boundary" inkscape:connector-curvature="0" />
	<path style="fill:none;stroke:red;stroke-width:1px;stroke-linecap:butt;stroke-linejoin:miter;stroke-opacity:1" d="M 522.68,97.6779 522.68,107.539 z" id="boundary" inkscape:connector-curvature="0" />
	<path style="fill:none;stroke:red;stroke-width:1px;stroke-linecap:butt;stroke-linejoin:miter;stroke-opacity:1" d="M 522.68,107.539 522.68,117.4 z" id="boundary" inkscape:connector-curvature="0" />
	<path style="fill:none;stroke:red;stroke-width:1px;stroke-linecap:butt;stroke-linejoin:miter;stroke-opacity:1" d="M 522.68,117.4 522.68,127.26 z" id="boundary" inkscape:connector-curvature="0" />
	<path style="fill:none;stroke:red;stroke-width:1px;stroke-linecap:butt;stroke-linejoin:miter;stroke-opacity:1" d="M 522.68,127.26 530.569,133.177 z" id="boundary" inkscape:connector-curvature="0" />
	<path style="fill:none;stroke:red;stroke-width:1px;stroke-linecap:butt;stroke-linejoin:miter;stroke-opacity:1" d="M 522.68,226.855 522.68,236.716 z" id="boundary" inkscape:connector-curvature="0" />
	<path style="fill:none;stroke:red;stroke-width:1px;stroke-linecap:butt;stroke-linejoin:miter;stroke-opacity:1" d="M 522.68,226.855 527.61,216.994 z" id="boundary" inkscape:connector-curvature="0" />
	<path style="fill:none;stroke:red;stroke-width:1px;stroke-linecap:butt;stroke-linejoin:miter;stroke-opacity:1" d="M 522.68,236.716 522.68,246.577 z" id="boundary" inkscape:connector-curvature="0" />
	<path style="fill:none;stroke:red;stroke-width:1px;stroke-linecap:butt;stroke-linejoin:miter;stroke-opacity:1" d="M 522.68,246.577 522.68,256.437 z" id="boundary" inkscape:connector-curvature="0" />
	<path style="fill:none;stroke:red;stroke-width:1px;stroke-linecap:butt;stroke-linejoin:miter;stroke-opacity:1" d="M 522.68,256.437 522.68,266.298 z" id="boundary" inkscape:connector-curvature="0" />
	<path style="fill:none;stroke:red;stroke-width:1px;stroke-linecap:butt;stroke-linejoin:miter;stroke-opacity:1" d="M 522.68,266.298 522.68,276.159 z" id="boundary" inkscape:connector-curvature="0" />
	<path style="fill:none;stroke:red;stroke-width:1px;stroke-linecap:butt;stroke-linejoin:miter;stroke-opacity:1" d="M 522.68,276.159 522.68,286.02 z" id="boundary" inkscape:connector-curvature="0" />
	<path style="fill:none;stroke:red;stroke-width:1px;stroke-linecap:butt;stroke-linejoin:miter;stroke-opacity:1" d="M 522.68,286.02 522.68,295.881 z" id="boundary" inkscape:connector-curvature="0" />
	<path style="fill:none;stroke:red;stroke-width:1px;stroke-linecap:butt;stroke-linejoin:miter;stroke-opacity:1" d="M 522.68,295.881 522.68,305.742 z" id="boundary" inkscape:connector-curvature="0" />
	<path style="fill:none;stroke:red;stroke-width:1px;stroke-linecap:butt;stroke-linejoin:miter;stroke-opacity:1" d="M 522.68,305.742 522.68,315.602 z" id="boundary" inkscape:connector-curvature="0" />
	<path style="fill:none;stroke:red;stroke-width:1px;stroke-linecap:butt;stroke-linejoin:miter;stroke-opacity:1" d="M 522.68,315.602 522.68,325.463 z" id="boundary" inkscape:connector-curvature="0" />
	<path style="fill:none;stroke:red;stroke-width:1px;stroke-linecap:butt;stroke-linejoin:miter;stroke-opacity:1" d="M 522.68,325.463 522.68,335.324 z" id="boundary" inkscape:connector-curvature="0" />
	<path style="fill:none;stroke:red;stroke-width:1px;stroke-linecap:butt;stroke-linejoin:miter;stroke-opacity:1" d="M 522.68,335.324 527.61,344.199 z" id="boundary" inkscape:connector-curvature="0" />
	<path style="fill:none;stroke:red;stroke-width:1px;stroke-linecap:butt;stroke-linejoin:miter;stroke-opacity:1" d="M 527.61,207.133 527.61,216.994 z" id="boundary" inkscape:connector-curvature="0" />
	<path style="fill:none;stroke:red;stroke-width:1px;stroke-linecap:butt;stroke-linejoin:miter;stroke-opacity:1" d="M 527.61,207.133 536.485,202.203 z" id="boundary" inkscape:connector-curvature="0" />
	<path style="fill:none;stroke:red;stroke-width:1px;stroke-linecap:butt;stroke-linejoin:miter;stroke-opacity:1" d="M 527.61,344.199 537.471,344.199 z" id="boundary" inkscape:connector-curvature="0" />
	<path style="fill:none;stroke:red;stroke-width:1px;stroke-linecap:butt;stroke-linejoin:miter;stroke-opacity:1" d="M 530.569,133.177 549.304,142.052 z" id="boundary" inkscape:connector-curvature="0" />
	<path style="fill:none;stroke:red;stroke-width:1px;stroke-linecap:butt;stroke-linejoin:miter;stroke-opacity:1" d="M 530.569,764.27 540.429,764.27 z" id="boundary" inkscape:connector-curvature="0" />
	<path style="fill:none;stroke:red;stroke-width:1px;stroke-linecap:butt;stroke-linejoin:miter;stroke-opacity:1" d="M 536.485,202.203 554.235,192.342 z" id="boundary" inkscape:connector-curvature="0" />
	<path style="fill:none;stroke:red;stroke-width:1px;stroke-linecap:butt;stroke-linejoin:miter;stroke-opacity:1" d="M 537.471,344.199 547.332,344.199 z" id="boundary" inkscape:connector-curvature="0" />
	<path style="fill:none;stroke:red;stroke-width:1px;stroke-linecap:butt;stroke-linejoin:miter;stroke-opacity:1" d="M 540.429,764.27 550.29,764.27 z" id="boundary" inkscape:connector-curvature="0" />
	<path style="fill:none;stroke:red;stroke-width:1px;stroke-linecap:butt;stroke-linejoin:miter;stroke-opacity:1" d="M 547.332,344.199 557.193,344.199 z" id="boundary" inkscape:connector-curvature="0" />
	<path style="fill:none;stroke:red;stroke-width:1px;stroke-linecap:butt;stroke-linejoin:miter;stroke-opacity:1" d="M 549.304,142.052 559.165,142.052 z" id="boundary" inkscape:connector-curvature="0" />
	<path style="fill:none;stroke:red;stroke-width:1px;stroke-linecap:butt;stroke-linejoin:miter;stroke-opacity:1" d="M 550.29,764.27 560.151,764.27 z" id="boundary" inkscape:connector-curvature="0" />
	<path style="fill:none;stroke:red;stroke-width:1px;stroke-linecap:butt;stroke-linejoin:miter;stroke-opacity:1" d="M 554.235,192.342 564.095,191.356 z" id="boundary" inkscape:connector-curvature="0" />
	<path style="fill:none;stroke:red;stroke-width:1px;stroke-linecap:butt;stroke-linejoin:miter;stroke-opacity:1" d="M 557.193,344.199 575.928,349.129 z" id="boundary" inkscape:connector-curvature="0" />
	<path style="fill:none;stroke:red;stroke-width:1px;stroke-linecap:butt;stroke-linejoin:miter;stroke-opacity:1" d="M 559.165,142.052 569.026,142.052 z" id="boundary" inkscape:connector-curvature="0" />
	<path style="fill:none;stroke:red;stroke-width:1px;stroke-linecap:butt;stroke-linejoin:miter;stroke-opacity:1" d="M 560.151,764.27 570.012,764.27 z" id="boundary" inkscape:connector-curvature="0" />
	<path style="fill:none;stroke:red;stroke-width:1px;stroke-linecap:butt;stroke-linejoin:miter;stroke-opacity:1" d="M 564.095,191.356 573.956,187.412 z" id="boundary" inkscape:connector-curvature="0" />
	<path style="fill:none;stroke:red;stroke-width:1px;stroke-linecap:butt;stroke-linejoin:miter;stroke-opacity:1" d="M 569.026,142.052 578.887,142.052 z" id="boundary" inkscape:connector-curvature="0" />
	<path style="fill:none;stroke:red;stroke-width:1px;stroke-linecap:butt;stroke-linejoin:miter;stroke-opacity:1" d="M 570.012,764.27 579.873,764.27 z" id="boundary" inkscape:connector-curvature="0" />
	<path style="fill:none;stroke:red;stroke-width:1px;stroke-linecap:butt;stroke-linejoin:miter;stroke-opacity:1" d="M 573.956,187.412 583.817,186.425 z" id="boundary" inkscape:connector-curvature="0" />
	<path style="fill:none;stroke:red;stroke-width:1px;stroke-linecap:butt;stroke-linejoin:miter;stroke-opacity:1" d="M 575.928,349.129 585.789,349.129 z" id="boundary" inkscape:connector-curvature="0" />
	<path style="fill:none;stroke:red;stroke-width:1px;stroke-linecap:butt;stroke-linejoin:miter;stroke-opacity:1" d="M 578.887,142.052 588.748,142.052 z" id="boundary" inkscape:connector-curvature="0" />
	<path style="fill:none;stroke:red;stroke-width:1px;stroke-linecap:butt;stroke-linejoin:miter;stroke-opacity:1" d="M 579.873,764.27 589.734,764.27 z" id="boundary" inkscape:connector-curvature="0" />
	<path style="fill:none;stroke:red;stroke-width:1px;stroke-linecap:butt;stroke-linejoin:miter;stroke-opacity:1" d="M 583.817,186.425 593.678,181.495 z" id="boundary" inkscape:connector-curvature="0" />
	<path style="fill:none;stroke:red;stroke-width:1px;stroke-linecap:butt;stroke-linejoin:miter;stroke-opacity:1" d="M 585.789,349.129 604.525,354.06 z" id="boundary" inkscape:connector-curvature="0" />
	<path style="fill:none;stroke:red;stroke-width:1px;stroke-linecap:butt;stroke-linejoin:miter;stroke-opacity:1" d="M 588.748,142.052 598.608,142.052 z" id="boundary" inkscape:connector-curvature="0" />
	<path style="fill:none;stroke:red;stroke-width:1px;stroke-linecap:butt;stroke-linejoin:miter;stroke-opacity:1" d="M 589.734,764.27 599.594,764.27 z" id="boundary" inkscape:connector-curvature="0" />
	<path style="fill:none;stroke:red;stroke-width:1px;stroke-linecap:butt;stroke-linejoin:miter;stroke-opacity:1" d="M 593.678,181.495 603.539,177.551 z" id="boundary" inkscape:connector-curvature="0" />
	<path style="fill:none;stroke:red;stroke-width:1px;stroke-linecap:butt;stroke-linejoin:miter;stroke-opacity:1" d="M 598.608,142.052 608.469,142.052 z" id="boundary" inkscape:connector-curvature="0" />
	<path style="fill:none;stroke:red;stroke-width:1px;stroke-linecap:butt;stroke-linejoin:miter;stroke-opacity:1" d="M 599.594,764.27 609.455,764.27 z" id="boundary" inkscape:connector-curvature="0" />
	<path style="fill:none;stroke:red;stroke-width:1px;stroke-linecap:butt;stroke-linejoin:miter;stroke-opacity:1" d="M 603.539,177.551 612.414,172.62 z" id="boundary" inkscape:connector-curvature="0" />
	<path style="fill:none;stroke:red;stroke-width:1px;stroke-linecap:butt;stroke-linejoin:miter;stroke-opacity:1" d="M 604.525,354.06 614.386,354.06 z" id="boundary" inkscape:connector-curvature="0" />
	<path style="fill:none;stroke:red;stroke-width:1px;stroke-linecap:butt;stroke-linejoin:miter;stroke-opacity:1" d="M 608.469,142.052 618.33,142.052 z" id="boundary" inkscape:connector-curvature="0" />
	<path style="fill:none;stroke:red;stroke-width:1px;stroke-linecap:butt;stroke-linejoin:miter;stroke-opacity:1" d="M 609.455,764.27 619.316,764.27 z" id="boundary" inkscape:connector-curvature="0" />
	<path style="fill:none;stroke:red;stroke-width:1px;stroke-linecap:butt;stroke-linejoin:miter;stroke-opacity:1" d="M 612.414,172.62 631.149,167.69 z" id="boundary" inkscape:connector-curvature="0" />
	<path style="fill:none;stroke:red;stroke-width:1px;stroke-linecap:butt;stroke-linejoin:miter;stroke-opacity:1" d="M 614.386,354.06 624.247,354.06 z" id="boundary" inkscape:connector-curvature="0" />
	<path style="fill:none;stroke:red;stroke-width:1px;stroke-linecap:butt;stroke-linejoin:miter;stroke-opacity:1" d="M 618.33,142.052 628.191,142.052 z" id="boundary" inkscape:connector-curvature="0" />
	<path style="fill:none;stroke:red;stroke-width:1px;stroke-linecap:butt;stroke-linejoin:miter;stroke-opacity:1" d="M 619.316,764.27 629.177,764.27 z" id="boundary" inkscape:connector-curvature="0" />
	<path style="fill:none;stroke:red;stroke-width:1px;stroke-linecap:butt;stroke-linejoin:miter;stroke-opacity:1" d="M 624.247,354.06 634.107,355.046 z" id="boundary" inkscape:connector-curvature="0" />
	<path style="fill:none;stroke:red;stroke-width:1px;stroke-linecap:butt;stroke-linejoin:miter;stroke-opacity:1" d="M 628.191,142.052 638.052,142.052 z" id="boundary" inkscape:connector-curvature="0" />
	<path style="fill:none;stroke:red;stroke-width:1px;stroke-linecap:butt;stroke-linejoin:miter;stroke-opacity:1" d="M 629.177,764.27 639.038,764.27 z" id="boundary" inkscape:connector-curvature="0" />
	<path style="fill:none;stroke:red;stroke-width:1px;stroke-linecap:butt;stroke-linejoin:miter;stroke-opacity:1" d="M 631.149,167.69 649.885,159.801 z" id="boundary" inkscape:connector-curvature="0" />
	<path style="fill:none;stroke:red;stroke-width:1px;stroke-linecap:butt;stroke-linejoin:miter;stroke-opacity:1" d="M 634.107,355.046 643.968,358.99 z" id="boundary" inkscape:connector-curvature="0" />
	<path style="fill:none;stroke:red;stroke-width:1px;stroke-linecap:butt;stroke-linejoin:miter;stroke-opacity:1" d="M 638.052,142.052 647.913,142.052 z" id="boundary" inkscape:connector-curvature="0" />
	<path style="fill:none;stroke:red;stroke-width:1px;stroke-linecap:butt;stroke-linejoin:miter;stroke-opacity:1" d="M 639.038,764.27 648.899,764.27 z" id="boundary" inkscape:connector-curvature="0" />
	<path style="fill:none;stroke:red;stroke-width:1px;stroke-linecap:butt;stroke-linejoin:miter;stroke-opacity:1" d="M 643.968,358.99 653.829,359.976 z" id="boundary" inkscape:connector-curvature="0" />
	<path style="fill:none;stroke:red;stroke-width:1px;stroke-linecap:butt;stroke-linejoin:miter;stroke-opacity:1" d="M 647.913,142.052 649.885,159.801 z" id="boundary" inkscape:connector-curvature="0" />
	<path style="fill:none;stroke:red;stroke-width:1px;stroke-linecap:butt;stroke-linejoin:miter;stroke-opacity:1" d="M 648.899,764.27 657.773,759.34 z" id="boundary" inkscape:connector-curvature="0" />
	<path style="fill:none;stroke:red;stroke-width:1px;stroke-linecap:butt;stroke-linejoin:miter;stroke-opacity:1" d="M 653.829,359.976 663.69,363.92 z" id="boundary" inkscape:connector-curvature="0" />
	<path style="fill:none;stroke:red;stroke-width:1px;stroke-linecap:butt;stroke-linejoin:miter;stroke-opacity:1" d="M 657.773,759.34 667.634,759.34 z" id="boundary" inkscape:connector-curvature="0" />
	<path style="fill:none;stroke:red;stroke-width:1px;stroke-linecap:butt;stroke-linejoin:miter;stroke-opacity:1" d="M 663.69,363.92 673.551,364.907 z" id="boundary" inkscape:connector-curvature="0" />
	<path style="fill:none;stroke:red;stroke-width:1px;stroke-linecap:butt;stroke-linejoin:miter;stroke-opacity:1" d="M 667.634,759.34 685.384,749.479 z" id="boundary" inkscape:connector-curvature="0" />
	<path style="fill:none;stroke:red;stroke-width:1px;stroke-linecap:butt;stroke-linejoin:miter;stroke-opacity:1" d="M 673.551,364.907 683.412,368.851 z" id="boundary" inkscape:connector-curvature="0" />
	<path style="fill:none;stroke:red;stroke-width:1px;stroke-linecap:butt;stroke-linejoin:miter;stroke-opacity:1" d="M 683.412,368.851 693.272,368.851 z" id="boundary" inkscape:connector-curvature="0" />
	<path style="fill:none;stroke:red;stroke-width:1px;stroke-linecap:butt;stroke-linejoin:miter;stroke-opacity:1" d="M 685.384,749.479 695.245,749.479 z" id="boundary" inkscape:connector-curvature="0" />
	<path style="fill:none;stroke:red;stroke-width:1px;stroke-linecap:butt;stroke-linejoin:miter;stroke-opacity:1" d="M 693.272,368.851 712.008,373.781 z" id="boundary" inkscape:connector-curvature="0" />
	<path style="fill:none;stroke:red;stroke-width:1px;stroke-linecap:butt;stroke-linejoin:miter;stroke-opacity:1" d="M 695.245,749.479 705.105,744.549 z" id="boundary" inkscape:connector-curvature="0" />
	<path style="fill:none;stroke:red;stroke-width:1px;stroke-linecap:butt;stroke-linejoin:miter;stroke-opacity:1" d="M 705.105,744.549 714.966,744.549 z" id="boundary" inkscape:connector-curvature="0" />
	<path style="fill:none;stroke:red;stroke-width:1px;stroke-linecap:butt;stroke-linejoin:miter;stroke-opacity:1" d="M 712.008,373.781 721.869,373.781 z" id="boundary" inkscape:connector-curvature="0" />
	<path style="fill:none;stroke:red;stroke-width:1px;stroke-linecap:butt;stroke-linejoin:miter;stroke-opacity:1" d="M 714.966,744.549 724.827,744.549 z" id="boundary" inkscape:connector-curvature="0" />
	<path style="fill:none;stroke:red;stroke-width:1px;stroke-linecap:butt;stroke-linejoin:miter;stroke-opacity:1" d="M 721.869,373.781 731.73,373.781 z" id="boundary" inkscape:connector-curvature="0" />
	<path style="fill:none;stroke:red;stroke-width:1px;stroke-linecap:butt;stroke-linejoin:miter;stroke-opacity:1" d="M 724.827,744.549 734.688,739.618 z" id="boundary" inkscape:connector-curvature="0" />
	<path style="fill:none;stroke:red;stroke-width:1px;stroke-linecap:butt;stroke-linejoin:miter;stroke-opacity:1" d="M 731.73,373.781 741.59,373.781 z" id="boundary" inkscape:connector-curvature="0" />
	<path style="fill:none;stroke:red;stroke-width:1px;stroke-linecap:butt;stroke-linejoin:miter;stroke-opacity:1" d="M 734.688,739.618 744.549,734.688 z" id="boundary" inkscape:connector-curvature="0" />
	<path style="fill:none;stroke:red;stroke-width:1px;stroke-linecap:butt;stroke-linejoin:miter;stroke-opacity:1" d="M 741.59,373.781 751.451,373.781 z" id="boundary" inkscape:connector-curvature="0" />
	<path style="fill:none;stroke:red;stroke-width:1px;stroke-linecap:butt;stroke-linejoin:miter;stroke-opacity:1" d="M 744.549,734.688 754.41,729.757 z" id="boundary" inkscape:connector-curvature="0" />
	<path style="fill:none;stroke:red;stroke-width:1px;stroke-linecap:butt;stroke-linejoin:miter;stroke-opacity:1" d="M 751.451,373.781 761.312,373.781 z" id="boundary" inkscape:connector-curvature="0" />
	<path style="fill:none;stroke:red;stroke-width:1px;stroke-linecap:butt;stroke-linejoin:miter;stroke-opacity:1" d="M 754.41,729.757 764.27,729.757 z" id="boundary" inkscape:connector-curvature="0" />
	<path style="fill:none;stroke:red;stroke-width:1px;stroke-linecap:butt;stroke-linejoin:miter;stroke-opacity:1" d="M 761.312,373.781 771.173,373.781 z" id="boundary" inkscape:connector-curvature="0" />
	<path style="fill:none;stroke:red;stroke-width:1px;stroke-linecap:butt;stroke-linejoin:miter;stroke-opacity:1" d="M 764.27,729.757 773.145,724.827 z" id="boundary" inkscape:connector-curvature="0" />
	<path style="fill:none;stroke:red;stroke-width:1px;stroke-linecap:butt;stroke-linejoin:miter;stroke-opacity:1" d="M 771.173,373.781 780.048,378.712 z" id="boundary" inkscape:connector-curvature="0" />
	<path style="fill:none;stroke:red;stroke-width:1px;stroke-linecap:butt;stroke-linejoin:miter;stroke-opacity:1" d="M 773.145,724.827 791.881,717.924 z" id="boundary" inkscape:connector-curvature="0" />
	<path style="fill:none;stroke:red;stroke-width:1px;stroke-linecap:butt;stroke-linejoin:miter;stroke-opacity:1" d="M 780.048,378.712 798.783,383.642 z" id="boundary" inkscape:connector-curvature="0" />
	<path style="fill:none;stroke:red;stroke-width:1px;stroke-linecap:butt;stroke-linejoin:miter;stroke-opacity:1" d="M 791.881,717.924 801.742,712.994 z" id="boundary" inkscape:connector-curvature="0" />
	<path style="fill:none;stroke:red;stroke-width:1px;stroke-linecap:butt;stroke-linejoin:miter;stroke-opacity:1" d="M 798.783,383.642 808.644,386.6 z" id="boundary" inkscape:connector-curvature="0" />
	<path style="fill:none;stroke:red;stroke-width:1px;stroke-linecap:butt;stroke-linejoin:miter;stroke-opacity:1" d="M 801.742,712.994 811.602,710.036 z" id="boundary" inkscape:connector-curvature="0" />
	<path style="fill:none;stroke:red;stroke-width:1px;stroke-linecap:butt;stroke-linejoin:miter;stroke-opacity:1" d="M 808.644,386.6 818.505,404.35 z" id="boundary" inkscape:connector-curvature="0" />
	<path style="fill:none;stroke:red;stroke-width:1px;stroke-linecap:butt;stroke-linejoin:miter;stroke-opacity:1" d="M 811.602,710.036 821.463,708.064 z" id="boundary" inkscape:connector-curvature="0" />
	<path style="fill:none;stroke:red;stroke-width:1px;stroke-linecap:butt;stroke-linejoin:miter;stroke-opacity:1" d="M 818.505,404.35 818.505,414.211 z" id="boundary" inkscape:connector-curvature="0" />
	<path style="fill:none;stroke:red;stroke-width:1px;stroke-linecap:butt;stroke-linejoin:miter;stroke-opacity:1" d="M 818.505,414.211 818.505,424.072 z" id="boundary" inkscape:connector-curvature="0" />
	<path style="fill:none;stroke:red;stroke-width:1px;stroke-linecap:butt;stroke-linejoin:miter;stroke-opacity:1" d="M 818.505,424.072 818.505,433.932 z" id="boundary" inkscape:connector-curvature="0" />
	<path style="fill:none;stroke:red;stroke-width:1px;stroke-linecap:butt;stroke-linejoin:miter;stroke-opacity:1" d="M 818.505,433.932 818.505,443.793 z" id="boundary" inkscape:connector-curvature="0" />
	<path style="fill:none;stroke:red;stroke-width:1px;stroke-linecap:butt;stroke-linejoin:miter;stroke-opacity:1" d="M 818.505,443.793 818.505,453.654 z" id="boundary" inkscape:connector-curvature="0" />
	<path style="fill:none;stroke:red;stroke-width:1px;stroke-linecap:butt;stroke-linejoin:miter;stroke-opacity:1" d="M 818.505,453.654 818.505,463.515 z" id="boundary" inkscape:connector-curvature="0" />
	<path style="fill:none;stroke:red;stroke-width:1px;stroke-linecap:butt;stroke-linejoin:miter;stroke-opacity:1" d="M 818.505,463.515 823.435,472.39 z" id="boundary" inkscape:connector-curvature="0" />
	<path style="fill:none;stroke:red;stroke-width:1px;stroke-linecap:butt;stroke-linejoin:miter;stroke-opacity:1" d="M 821.463,708.064 831.324,705.105 z" id="boundary" inkscape:connector-curvature="0" />
	<path style="fill:none;stroke:red;stroke-width:1px;stroke-linecap:butt;stroke-linejoin:miter;stroke-opacity:1" d="M 823.435,472.39 833.296,475.348 z" id="boundary" inkscape:connector-curvature="0" />
	<path style="fill:none;stroke:red;stroke-width:1px;stroke-linecap:butt;stroke-linejoin:miter;stroke-opacity:1" d="M 831.324,705.105 841.185,703.133 z" id="boundary" inkscape:connector-curvature="0" />
	<path style="fill:none;stroke:red;stroke-width:1px;stroke-linecap:butt;stroke-linejoin:miter;stroke-opacity:1" d="M 833.296,475.348 843.157,477.32 z" id="boundary" inkscape:connector-curvature="0" />
	<path style="fill:none;stroke:red;stroke-width:1px;stroke-linecap:butt;stroke-linejoin:miter;stroke-opacity:1" d="M 841.185,703.133 851.046,700.175 z" id="boundary" inkscape:connector-curvature="0" />
	<path style="fill:none;stroke:red;stroke-width:1px;stroke-linecap:butt;stroke-linejoin:miter;stroke-opacity:1" d="M 843.157,477.32 853.018,477.32 z" id="boundary" inkscape:connector-curvature="0" />
	<path style="fill:none;stroke:red;stroke-width:1px;stroke-linecap:butt;stroke-linejoin:miter;stroke-opacity:1" d="M 851.046,700.175 860.907,700.175 z" id="boundary" inkscape:connector-curvature="0" />
	<path style="fill:none;stroke:red;stroke-width:1px;stroke-linecap:butt;stroke-linejoin:miter;stroke-opacity:1" d="M 853.018,477.32 871.753,484.223 z" id="boundary" inkscape:connector-curvature="0" />
	<path style="fill:none;stroke:red;stroke-width:1px;stroke-linecap:butt;stroke-linejoin:miter;stroke-opacity:1" d="M 860.907,700.175 869.781,695.245 z" id="boundary" inkscape:connector-curvature="0" />
	<path style="fill:none;stroke:red;stroke-width:1px;stroke-linecap:butt;stroke-linejoin:miter;stroke-opacity:1" d="M 869.781,695.245 879.642,695.245 z" id="boundary" inkscape:connector-curvature="0" />
	<path style="fill:none;stroke:red;stroke-width:1px;stroke-linecap:butt;stroke-linejoin:miter;stroke-opacity:1" d="M 871.753,484.223 880.628,489.153 z" id="boundary" inkscape:connector-curvature="0" />
	<path style="fill:none;stroke:red;stroke-width:1px;stroke-linecap:butt;stroke-linejoin:miter;stroke-opacity:1" d="M 879.642,695.245 898.378,690.314 z" id="boundary" inkscape:connector-curvature="0" />
	<path style="fill:none;stroke:red;stroke-width:1px;stroke-linecap:butt;stroke-linejoin:miter;stroke-opacity:1" d="M 880.628,489.153 890.489,492.111 z" id="boundary" inkscape:connector-curvature="0" />
	<path style="fill:none;stroke:red;stroke-width:1px;stroke-linecap:butt;stroke-linejoin:miter;stroke-opacity:1" d="M 890.489,492.111 908.239,501.972 z" id="boundary" inkscape:connector-curvature="0" />
	<path style="fill:none;stroke:red;stroke-width:1px;stroke-linecap:butt;stroke-linejoin:miter;stroke-opacity:1" d="M 898.378,690.314 908.239,690.314 z" id="boundary" inkscape:connector-curvature="0" />
	<path style="fill:none;stroke:red;stroke-width:1px;stroke-linecap:butt;stroke-linejoin:miter;stroke-opacity:1" d="M 908.239,501.972 925.988,511.833 z" id="boundary" inkscape:connector-curvature="0" />
	<path style="fill:none;stroke:red;stroke-width:1px;stroke-linecap:butt;stroke-linejoin:miter;stroke-opacity:1" d="M 908.239,690.314 925.988,680.453 z" id="boundary" inkscape:connector-curvature="0" />
	<path style="fill:none;stroke:red;stroke-width:1px;stroke-linecap:butt;stroke-linejoin:miter;stroke-opacity:1" d="M 925.988,511.833 934.863,516.763 z" id="boundary" inkscape:connector-curvature="0" />
	<path style="fill:none;stroke:red;stroke-width:1px;stroke-linecap:butt;stroke-linejoin:miter;stroke-opacity:1" d="M 925.988,680.453 943.738,669.606 z" id="boundary" inkscape:connector-curvature="0" />
	<path style="fill:none;stroke:red;stroke-width:1px;stroke-linecap:butt;stroke-linejoin:miter;stroke-opacity:1" d="M 934.863,516.763 941.765,524.652 z" id="boundary" inkscape:connector-curvature="0" />
	<path style="fill:none;stroke:red;stroke-width:1px;stroke-linecap:butt;stroke-linejoin:miter;stroke-opacity:1" d="M 941.765,524.652 949.654,531.555 z" id="boundary" inkscape:connector-curvature="0" />
	<path style="fill:none;stroke:red;stroke-width:1px;stroke-linecap:butt;stroke-linejoin:miter;stroke-opacity:1" d="M 943.738,669.606 948.668,659.746 z" id="boundary" inkscape:connector-curvature="0" />
	<path style="fill:none;stroke:red;stroke-width:1px;stroke-linecap:butt;stroke-linejoin:miter;stroke-opacity:1" d="M 948.668,659.746 958.529,654.815 z" id="boundary" inkscape:connector-curvature="0" />
	<path style="fill:none;stroke:red;stroke-width:1px;stroke-linecap:butt;stroke-linejoin:miter;stroke-opacity:1" d="M 949.654,531.555 967.404,541.416 z" id="boundary" inkscape:connector-curvature="0" />
	<path style="fill:none;stroke:red;stroke-width:1px;stroke-linecap:butt;stroke-linejoin:miter;stroke-opacity:1" d="M 958.529,654.815 966.417,641.01 z" id="boundary" inkscape:connector-curvature="0" />
	<path style="fill:none;stroke:red;stroke-width:1px;stroke-linecap:butt;stroke-linejoin:miter;stroke-opacity:1" d="M 966.417,641.01 971.348,631.149 z" id="boundary" inkscape:connector-curvature="0" />
	<path style="fill:none;stroke:red;stroke-width:1px;stroke-linecap:butt;stroke-linejoin:miter;stroke-opacity:1" d="M 967.404,541.416 984.167,553.249 z" id="boundary" inkscape:connector-curvature="0" />
	<path style="fill:none;stroke:red;stroke-width:1px;stroke-linecap:butt;stroke-linejoin:miter;stroke-opacity:1" d="M 971.348,631.149 976.278,621.288 z" id="boundary" inkscape:connector-curvature="0" />
	<path style="fill:none;stroke:red;stroke-width:1px;stroke-linecap:butt;stroke-linejoin:miter;stroke-opacity:1" d="M 976.278,621.288 981.209,611.427 z" id="boundary" inkscape:connector-curvature="0" />
	<path style="fill:none;stroke:red;stroke-width:1px;stroke-linecap:butt;stroke-linejoin:miter;stroke-opacity:1" d="M 981.209,611.427 986.139,601.567 z" id="boundary" inkscape:connector-curvature="0" />
	<path style="fill:none;stroke:red;stroke-width:1px;stroke-linecap:butt;stroke-linejoin:miter;stroke-opacity:1" d="M 984.167,553.249 996,570.012 z" id="boundary" inkscape:connector-curvature="0" />
	<path style="fill:none;stroke:red;stroke-width:1px;stroke-linecap:butt;stroke-linejoin:miter;stroke-opacity:1" d="M 986.139,601.567 991.07,591.706 z" id="boundary" inkscape:connector-curvature="0" />
	<path style="fill:none;stroke:red;stroke-width:1px;stroke-linecap:butt;stroke-linejoin:miter;stroke-opacity:1" d="M 991.07,591.706 996,579.873 z" id="boundary" inkscape:connector-curvature="0" />
	<path style="fill:none;stroke:red;stroke-width:1px;stroke-linecap:butt;stroke-linejoin:miter;stroke-opacity:1" d="M 996,570.012 996,579.873 z" id="boundary" inkscape:connector-curvature="0" />
	<circle cx="4" cy="593.678" r="4" fill="#0" id="circle0"/>
	<circle cx="4" cy="603.539" r="4" fill="#0" id="circle1"/>
	<circle cx="4" cy="613.4" r="4" fill="#0" id="circle2"/>
	<circle cx="4" cy="623.26" r="4" fill="#0" id="circle3"/>
	<circle cx="4" cy="633.121" r="4" fill="#0" id="circle4"/>
	<circle cx="8.93042" cy="578.887" r="4" fill="#0" id="circle5"/>
	<circle cx="8.93042" cy="641.996" r="4" fill="#0" id="circle6"/>
	<circle cx="13.8608" cy="564.095" r="4" fill="#0" id="circle7"/>
	<circle cx="13.8608" cy="650.871" r="4" fill="#0" id="circle8"/>
	<circle cx="18.7913" cy="544.374" r="4" fill="#0" id="circle9"/>
	<circle cx="18.7913" cy="554.235" r="4" fill="#0" id="circle10"/>
	<circle cx="22.7356" cy="655.801" r="4" fill="#0" id="circle11"/>
	<circle cx="23.7217" cy="534.513" r="4" fill="#0" id="circle12"/>
	<circle cx="31.6103" cy="526.624" r="4" fill="#0" id="circle13"/>
	<circle cx="32.5964" cy="655.801" r="4" fill="#0" id="circle14"/>
	<circle cx="36.5408" cy="516.763" r="4" fill="#0" id="circle15"/>
	<circle cx="41.4712" cy="660.732" r="4" fill="#0" id="circle16"/>
	<circle cx="45.4155" cy="511.833" r="4" fill="#0" id="circle17"/>
	<circle cx="51.332" cy="660.732" r="4" fill="#0" id="circle18"/>
	<circle cx="53.3042" cy="504.93" r="4" fill="#0" id="circle19"/>
	<circle cx="60.2068" cy="665.662" r="4" fill="#0" id="circle20"/>
	<circle cx="61.1928" cy="497.042" r="4" fill="#0" id="circle21"/>
	<circle cx="68.0954" cy="671.579" r="4" fill="#0" id="circle22"/>
	<circle cx="71.0537" cy="492.111" r="4" fill="#0" id="circle23"/>
	<circle cx="74.998" cy="679.467" r="4" fill="#0" id="circle24"/>
	<circle cx="80.9145" cy="487.181" r="4" fill="#0" id="circle25"/>
	<circle cx="82.8867" cy="685.384" r="4" fill="#0" id="circle26"/>
	<circle cx="88.8032" cy="693.272" r="4" fill="#0" id="circle27"/>
	<circle cx="90.7753" cy="482.25" r="4" fill="#0" id="circle28"/>
	<circle cx="98.664" cy="697.217" r="4" fill="#0" id="circle29"/>
	<circle cx="100.636" cy="477.32" r="4" fill="#0" id="circle30"/>
	<circle cx="107.539" cy="702.147" r="4" fill="#0" id="circle31"/>
	<circle cx="110.497" cy="477.32" r="4" fill="#0" id="circle32"/>
	<circle cx="117.4" cy="705.105" r="4" fill="#0" id="circle33"/>
	<circle cx="120.358" cy="472.39" r="4" fill="#0" id="circle34"/>
	<circle cx="126.274" cy="710.036" r="4" fill="#0" id="circle35"/>
	<circle cx="130.219" cy="472.39" r="4" fill="#0" id="circle36"/>
	<circle cx="136.135" cy="710.036" r="4" fill="#0" id="circle37"/>
	<circle cx="139.093" cy="467.459" r="4" fill="#0" id="circle38"/>
	<circle cx="145.01" cy="714.966" r="4" fill="#0" id="circle39"/>
	<circle cx="146.982" cy="460.557" r="4" fill="#0" id="circle40"/>
	<circle cx="153.885" cy="719.897" r="4" fill="#0" id="circle41"/>
	<circle cx="156.843" cy="455.626" r="4" fill="#0" id="circle42"/>
	<circle cx="163.746" cy="719.897" r="4" fill="#0" id="circle43"/>
	<circle cx="166.704" cy="452.668" r="4" fill="#0" id="circle44"/>
	<circle cx="173.606" cy="719.897" r="4" fill="#0" id="circle45"/>
	<circle cx="176.565" cy="452.668" r="4" fill="#0" id="circle46"/>
	<circle cx="181.495" cy="416.183" r="4" fill="#0" id="circle47"/>
	<circle cx="181.495" cy="426.044" r="4" fill="#0" id="circle48"/>
	<circle cx="181.495" cy="435.905" r="4" fill="#0" id="circle49"/>
	<circle cx="182.481" cy="724.827" r="4" fill="#0" id="circle50"/>
	<circle cx="186.425" cy="401.392" r="4" fill="#0" id="circle51"/>
	<circle cx="191.356" cy="391.531" r="4" fill="#0" id="circle52"/>
	<circle cx="192.342" cy="724.827" r="4" fill="#0" id="circle53"/>
	<circle cx="201.217" cy="386.6" r="4" fill="#0" id="circle54"/>
	<circle cx="202.203" cy="724.827" r="4" fill="#0" id="circle55"/>
	<circle cx="211.078" cy="381.67" r="4" fill="#0" id="circle56"/>
	<circle cx="212.064" cy="724.827" r="4" fill="#0" id="circle57"/>
	<circle cx="220.938" cy="376.74" r="4" fill="#0" id="circle58"/>
	<circle cx="220.938" cy="729.757" r="4" fill="#0" id="circle59"/>
	<circle cx="230.799" cy="373.781" r="4" fill="#0" id="circle60"/>
	<circle cx="230.799" cy="729.757" r="4" fill="#0" id="circle61"/>
	<circle cx="239.674" cy="368.851" r="4" fill="#0" id="circle62"/>
	<circle cx="239.674" cy="734.688" r="4" fill="#0" id="circle63"/>
	<circle cx="249.535" cy="368.851" r="4" fill="#0" id="circle64"/>
	<circle cx="249.535" cy="734.688" r="4" fill="#0" id="circle65"/>
	<circle cx="258.41" cy="363.92" r="4" fill="#0" id="circle66"/>
	<circle cx="258.41" cy="739.618" r="4" fill="#0" id="circle67"/>
	<circle cx="268.27" cy="358.99" r="4" fill="#0" id="circle68"/>
	<circle cx="268.27" cy="739.618" r="4" fill="#0" id="circle69"/>
	<circle cx="278.131" cy="358.99" r="4" fill="#0" id="circle70"/>
	<circle cx="278.131" cy="739.618" r="4" fill="#0" id="circle71"/>
	<circle cx="287.006" cy="354.06" r="4" fill="#0" id="circle72"/>
	<circle cx="287.992" cy="739.618" r="4" fill="#0" id="circle73"/>
	<circle cx="296.867" cy="350.115" r="4" fill="#0" id="circle74"/>
	<circle cx="297.853" cy="743.563" r="4" fill="#0" id="circle75"/>
	<circle cx="306.728" cy="349.129" r="4" fill="#0" id="circle76"/>
	<circle cx="307.714" cy="744.549" r="4" fill="#0" id="circle77"/>
	<circle cx="315.602" cy="344.199" r="4" fill="#0" id="circle78"/>
	<circle cx="317.575" cy="744.549" r="4" fill="#0" id="circle79"/>
	<circle cx="325.463" cy="344.199" r="4" fill="#0" id="circle80"/>
	<circle cx="326.449" cy="749.479" r="4" fill="#0" id="circle81"/>
	<circle cx="335.324" cy="344.199" r="4" fill="#0" id="circle82"/>
	<circle cx="336.31" cy="749.479" r="4" fill="#0" id="circle83"/>
	<circle cx="345.185" cy="344.199" r="4" fill="#0" id="circle84"/>
	<circle cx="345.185" cy="754.41" r="4" fill="#0" id="circle85"/>
	<circle cx="354.06" cy="140.08" r="4" fill="#0" id="circle86"/>
	<circle cx="354.06" cy="149.94" r="4" fill="#0" id="circle87"/>
	<circle cx="355.046" cy="344.199" r="4" fill="#0" id="circle88"/>
	<circle cx="355.046" cy="754.41" r="4" fill="#0" id="circle89"/>
	<circle cx="361.948" cy="132.191" r="4" fill="#0" id="circle90"/>
	<circle cx="361.948" cy="156.843" r="4" fill="#0" id="circle91"/>
	<circle cx="364.907" cy="344.199" r="4" fill="#0" id="circle92"/>
	<circle cx="364.907" cy="754.41" r="4" fill="#0" id="circle93"/>
	<circle cx="369.837" cy="124.302" r="4" fill="#0" id="circle94"/>
	<circle cx="370.823" cy="161.773" r="4" fill="#0" id="circle95"/>
	<circle cx="374.767" cy="344.199" r="4" fill="#0" id="circle96"/>
	<circle cx="374.767" cy="754.41" r="4" fill="#0" id="circle97"/>
	<circle cx="379.698" cy="119.372" r="4" fill="#0" id="circle98"/>
	<circle cx="380.684" cy="165.718" r="4" fill="#0" id="circle99"/>
	<circle cx="383.642" cy="759.34" r="4" fill="#0" id="circle100"/>
	<circle cx="384.628" cy="344.199" r="4" fill="#0" id="circle101"/>
	<circle cx="389.559" cy="114.441" r="4" fill="#0" id="circle102"/>
	<circle cx="390.545" cy="167.69" r="4" fill="#0" id="circle103"/>
	<circle cx="393.503" cy="759.34" r="4" fill="#0" id="circle104"/>
	<circle cx="394.489" cy="344.199" r="4" fill="#0" id="circle105"/>
	<circle cx="399.419" cy="112.469" r="4" fill="#0" id="circle106"/>
	<circle cx="399.419" cy="172.62" r="4" fill="#0" id="circle107"/>
	<circle cx="403.364" cy="339.268" r="4" fill="#0" id="circle108"/>
	<circle cx="403.364" cy="759.34" r="4" fill="#0" id="circle109"/>
	<circle cx="409.28" cy="112.469" r="4" fill="#0" id="circle110"/>
	<circle cx="409.28" cy="174.592" r="4" fill="#0" id="circle111"/>
	<circle cx="413.225" cy="339.268" r="4" fill="#0" id="circle112"/>
	<circle cx="413.225" cy="759.34" r="4" fill="#0" id="circle113"/>
	<circle cx="419.141" cy="109.511" r="4" fill="#0" id="circle114"/>
	<circle cx="419.141" cy="177.551" r="4" fill="#0" id="circle115"/>
	<circle cx="422.099" cy="764.27" r="4" fill="#0" id="circle116"/>
	<circle cx="423.085" cy="339.268" r="4" fill="#0" id="circle117"/>
	<circle cx="429.002" cy="107.539" r="4" fill="#0" id="circle118"/>
	<circle cx="429.002" cy="177.551" r="4" fill="#0" id="circle119"/>
	<circle cx="431.96" cy="334.338" r="4" fill="#0" id="circle120"/>
	<circle cx="431.96" cy="764.27" r="4" fill="#0" id="circle121"/>
	<circle cx="438.863" cy="107.539" r="4" fill="#0" id="circle122"/>
	<circle cx="438.863" cy="179.523" r="4" fill="#0" id="circle123"/>
	<circle cx="441.821" cy="334.338" r="4" fill="#0" id="circle124"/>
	<circle cx="441.821" cy="764.27" r="4" fill="#0" id="circle125"/>
	<circle cx="448.724" cy="107.539" r="4" fill="#0" id="circle126"/>
	<circle cx="448.724" cy="182.481" r="4" fill="#0" id="circle127"/>
	<circle cx="451.682" cy="334.338" r="4" fill="#0" id="circle128"/>
	<circle cx="451.682" cy="764.27" r="4" fill="#0" id="circle129"/>
	<circle cx="452.668" cy="292.922" r="4" fill="#0" id="circle130"/>
	<circle cx="452.668" cy="302.783" r="4" fill="#0" id="circle131"/>
	<circle cx="452.668" cy="312.644" r="4" fill="#0" id="circle132"/>
	<circle cx="452.668" cy="322.505" r="4" fill="#0" id="circle133"/>
	<circle cx="457.598" cy="273.201" r="4" fill="#0" id="circle134"/>
	<circle cx="457.598" cy="283.062" r="4" fill="#0" id="circle135"/>
	<circle cx="458.584" cy="107.539" r="4" fill="#0" id="circle136"/>
	<circle cx="458.584" cy="182.481" r="4" fill="#0" id="circle137"/>
	<circle cx="461.543" cy="764.27" r="4" fill="#0" id="circle138"/>
	<circle cx="462.529" cy="192.342" r="4" fill="#0" id="circle139"/>
	<circle cx="462.529" cy="202.203" r="4" fill="#0" id="circle140"/>
	<circle cx="462.529" cy="212.064" r="4" fill="#0" id="circle141"/>
	<circle cx="462.529" cy="221.924" r="4" fill="#0" id="circle142"/>
	<circle cx="462.529" cy="231.785" r="4" fill="#0" id="circle143"/>
	<circle cx="462.529" cy="241.646" r="4" fill="#0" id="circle144"/>
	<circle cx="462.529" cy="251.507" r="4" fill="#0" id="circle145"/>
	<circle cx="462.529" cy="261.368" r="4" fill="#0" id="circle146"/>
	<circle cx="468.445" cy="107.539" r="4" fill="#0" id="circle147"/>
	<circle cx="471.404" cy="764.27" r="4" fill="#0" id="circle148"/>
	<circle cx="472.39" cy="16.8191" r="4" fill="#0" id="circle149"/>
	<circle cx="472.39" cy="26.6799" r="4" fill="#0" id="circle150"/>
	<circle cx="472.39" cy="36.5408" r="4" fill="#0" id="circle151"/>
	<circle cx="472.39" cy="46.4016" r="4" fill="#0" id="circle152"/>
	<circle cx="472.39" cy="56.2624" r="4" fill="#0" id="circle153"/>
	<circle cx="477.32" cy="65.1372" r="4" fill="#0" id="circle154"/>
	<circle cx="477.32" cy="74.998" r="4" fill="#0" id="circle155"/>
	<circle cx="477.32" cy="102.608" r="4" fill="#0" id="circle156"/>
	<circle cx="480.278" cy="8.93042" r="4" fill="#0" id="circle157"/>
	<circle cx="481.264" cy="764.27" r="4" fill="#0" id="circle158"/>
	<circle cx="482.25" cy="83.8728" r="4" fill="#0" id="circle159"/>
	<circle cx="482.25" cy="93.7336" r="4" fill="#0" id="circle160"/>
	<circle cx="489.153" cy="4" r="4" fill="#0" id="circle161"/>
	<circle cx="491.125" cy="764.27" r="4" fill="#0" id="circle162"/>
	<circle cx="499.014" cy="4" r="4" fill="#0" id="circle163"/>
	<circle cx="500.986" cy="764.27" r="4" fill="#0" id="circle164"/>
	<circle cx="508.875" cy="4" r="4" fill="#0" id="circle165"/>
	<circle cx="510.847" cy="764.27" r="4" fill="#0" id="circle166"/>
	<circle cx="516.763" cy="10.9026" r="4" fill="#0" id="circle167"/>
	<circle cx="520.708" cy="764.27" r="4" fill="#0" id="circle168"/>
	<circle cx="522.68" cy="18.7913" r="4" fill="#0" id="circle169"/>
	<circle cx="522.68" cy="28.6521" r="4" fill="#0" id="circle170"/>
	<circle cx="522.68" cy="38.5129" r="4" fill="#0" id="circle171"/>
	<circle cx="522.68" cy="48.3738" r="4" fill="#0" id="circle172"/>
	<circle cx="522.68" cy="58.2346" r="4" fill="#0" id="circle173"/>
	<circle cx="522.68" cy="68.0954" r="4" fill="#0" id="circle174"/>
	<circle cx="522.68" cy="77.9563" r="4" fill="#0" id="circle175"/>
	<circle cx="522.68" cy="87.8171" r="4" fill="#0" id="circle176"/>
	<circle cx="522.68" cy="97.6779" r="4" fill="#0" id="circle177"/>
	<circle cx="522.68" cy="107.539" r="4" fill="#0" id="circle178"/>
	<circle cx="522.68" cy="117.4" r="4" fill="#0" id="circle179"/>
	<circle cx="522.68" cy="127.26" r="4" fill="#0" id="circle180"/>
	<circle cx="522.68" cy="226.855" r="4" fill="#0" id="circle181"/>
	<circle cx="522.68" cy="236.716" r="4" fill="#0" id="circle182"/>
	<circle cx="522.68" cy="246.577" r="4" fill="#0" id="circle183"/>
	<circle cx="522.68" cy="256.437" r="4" fill="#0" id="circle184"/>
	<circle cx="522.68" cy="266.298" r="4" fill="#0" id="circle185"/>
	<circle cx="522.68" cy="276.159" r="4" fill="#0" id="circle186"/>
	<circle cx="522.68" cy="286.02" r="4" fill="#0" id="circle187"/>
	<circle cx="522.68" cy="295.881" r="4" fill="#0" id="circle188"/>
	<circle cx="522.68" cy="305.742" r="4" fill="#0" id="circle189"/>
	<circle cx="522.68" cy="315.602" r="4" fill="#0" id="circle190"/>
	<circle cx="522.68" cy="325.463" r="4" fill="#0" id="circle191"/>
	<circle cx="522.68" cy="335.324" r="4" fill="#0" id="circle192"/>
	<circle cx="527.61" cy="207.133" r="4" fill="#0" id="circle193"/>
	<circle cx="527.61" cy="216.994" r="4" fill="#0" id="circle194"/>
	<circle cx="527.61" cy="344.199" r="4" fill="#0" id="circle195"/>
	<circle cx="530.569" cy="133.177" r="4" fill="#0" id="circle196"/>
	<circle cx="530.569" cy="764.27" r="4" fill="#0" id="circle197"/>
	<circle cx="536.485" cy="202.203" r="4" fill="#0" id="circle198"/>
	<circle cx="537.471" cy="344.199" r="4" fill="#0" id="circle199"/>
	<circle cx="539.443" cy="138.107" r="4" fill="#0" id="circle200"/>
	<circle cx="540.429" cy="764.27" r="4" fill="#0" id="circle201"/>
	<circle cx="545.36" cy="197.272" r="4" fill="#0" id="circle202"/>
	<circle cx="547.332" cy="344.199" r="4" fill="#0" id="circle203"/>
	<circle cx="549.304" cy="142.052" r="4" fill="#0" id="circle204"/>
	<circle cx="550.29" cy="764.27" r="4" fill="#0" id="circle205"/>
	<circle cx="554.235" cy="192.342" r="4" fill="#0" id="circle206"/>
	<circle cx="557.193" cy="344.199" r="4" fill="#0" id="circle207"/>
	<circle cx="559.165" cy="142.052" r="4" fill="#0" id="circle208"/>
	<circle cx="560.151" cy="764.27" r="4" fill="#0" id="circle209"/>
	<circle cx="564.095" cy="191.356" r="4" fill="#0" id="circle210"/>
	<circle cx="566.068" cy="349.129" r="4" fill="#0" id="circle211"/>
	<circle cx="569.026" cy="142.052" r="4" fill="#0" id="circle212"/>
	<circle cx="570.012" cy="764.27" r="4" fill="#0" id="circle213"/>
	<circle cx="573.956" cy="187.412" r="4" fill="#0" id="circle214"/>
	<circle cx="575.928" cy="349.129" r="4" fill="#0" id="circle215"/>
	<circle cx="578.887" cy="142.052" r="4" fill="#0" id="circle216"/>
	<circle cx="579.873" cy="764.27" r="4" fill="#0" id="circle217"/>
	<circle cx="583.817" cy="186.425" r="4" fill="#0" id="circle218"/>
	<circle cx="585.789" cy="349.129" r="4" fill="#0" id="circle219"/>
	<circle cx="588.748" cy="142.052" r="4" fill="#0" id="circle220"/>
	<circle cx="589.734" cy="764.27" r="4" fill="#0" id="circle221"/>
	<circle cx="593.678" cy="181.495" r="4" fill="#0" id="circle222"/>
	<circle cx="594.664" cy="354.06" r="4" fill="#0" id="circle223"/>
	<circle cx="598.608" cy="142.052" r="4" fill="#0" id="circle224"/>
	<circle cx="599.594" cy="764.27" r="4" fill="#0" id="circle225"/>
	<circle cx="603.539" cy="177.551" r="4" fill="#0" id="circle226"/>
	<circle cx="604.525" cy="354.06" r="4" fill="#0" id="circle227"/>
	<circle cx="608.469" cy="142.052" r="4" fill="#0" id="circle228"/>
	<circle cx="609.455" cy="764.27" r="4" fill="#0" id="circle229"/>
	<circle cx="612.414" cy="172.62" r="4" fill="#0" id="circle230"/>
	<circle cx="614.386" cy="354.06" r="4" fill="#0" id="circle231"/>
	<circle cx="618.33" cy="142.052" r="4" fill="#0" id="circle232"/>
	<circle cx="619.316" cy="764.27" r="4" fill="#0" id="circle233"/>
	<circle cx="621.288" cy="167.69" r="4" fill="#0" id="circle234"/>
	<circle cx="624.247" cy="354.06" r="4" fill="#0" id="circle235"/>
	<circle cx="628.191" cy="142.052" r="4" fill="#0" id="circle236"/>
	<circle cx="629.177" cy="764.27" r="4" fill="#0" id="circle237"/>
	<circle cx="631.149" cy="167.69" r="4" fill="#0" id="circle238"/>
	<circle cx="634.107" cy="355.046" r="4" fill="#0" id="circle239"/>
	<circle cx="638.052" cy="142.052" r="4" fill="#0" id="circle240"/>
	<circle cx="639.038" cy="764.27" r="4" fill="#0" id="circle241"/>
	<circle cx="640.024" cy="162.759" r="4" fill="#0" id="circle242"/>
	<circle cx="643.968" cy="358.99" r="4" fill="#0" id="circle243"/>
	<circle cx="647.913" cy="142.052" r="4" fill="#0" id="circle244"/>
	<circle cx="648.899" cy="764.27" r="4" fill="#0" id="circle245"/>
	<circle cx="649.885" cy="159.801" r="4" fill="#0" id="circle246"/>
	<circle cx="653.829" cy="359.976" r="4" fill="#0" id="circle247"/>
	<circle cx="654.815" cy="149.94" r="4" fill="#0" id="circle248"/>
	<circle cx="657.773" cy="759.34" r="4" fill="#0" id="circle249"/>
	<circle cx="663.69" cy="363.92" r="4" fill="#0" id="circle250"/>
	<circle cx="667.634" cy="759.34" r="4" fill="#0" id="circle251"/>
	<circle cx="673.551" cy="364.907" r="4" fill="#0" id="circle252"/>
	<circle cx="676.509" cy="754.41" r="4" fill="#0" id="circle253"/>
	<circle cx="683.412" cy="368.851" r="4" fill="#0" id="circle254"/>
	<circle cx="685.384" cy="749.479" r="4" fill="#0" id="circle255"/>
	<circle cx="693.272" cy="368.851" r="4" fill="#0" id="circle256"/>
	<circle cx="695.245" cy="749.479" r="4" fill="#0" id="circle257"/>
	<circle cx="702.147" cy="373.781" r="4" fill="#0" id="circle258"/>
	<circle cx="705.105" cy="744.549" r="4" fill="#0" id="circle259"/>
	<circle cx="712.008" cy="373.781" r="4" fill="#0" id="circle260"/>
	<circle cx="714.966" cy="744.549" r="4" fill="#0" id="circle261"/>
	<circle cx="721.869" cy="373.781" r="4" fill="#0" id="circle262"/>
	<circle cx="724.827" cy="744.549" r="4" fill="#0" id="circle263"/>
	<circle cx="731.73" cy="373.781" r="4" fill="#0" id="circle264"/>
	<circle cx="734.688" cy="739.618" r="4" fill="#0" id="circle265"/>
	<circle cx="741.59" cy="373.781" r="4" fill="#0" id="circle266"/>
	<circle cx="744.549" cy="734.688" r="4" fill="#0" id="circle267"/>
	<circle cx="751.451" cy="373.781" r="4" fill="#0" id="circle268"/>
	<circle cx="754.41" cy="729.757" r="4" fill="#0" id="circle269"/>
	<circle cx="761.312" cy="373.781" r="4" fill="#0" id="circle270"/>
	<circle cx="764.27" cy="729.757" r="4" fill="#0" id="circle271"/>
	<circle cx="771.173" cy="373.781" r="4" fill="#0" id="circle272"/>
	<circle cx="773.145" cy="724.827" r="4" fill="#0" id="circle273"/>
	<circle cx="780.048" cy="378.712" r="4" fill="#0" id="circle274"/>
	<circle cx="782.02" cy="719.897" r="4" fill="#0" id="circle275"/>
	<circle cx="788.922" cy="383.642" r="4" fill="#0" id="circle276"/>
	<circle cx="791.881" cy="717.924" r="4" fill="#0" id="circle277"/>
	<circle cx="798.783" cy="383.642" r="4" fill="#0" id="circle278"/>
	<circle cx="801.742" cy="712.994" r="4" fill="#0" id="circle279"/>
	<circle cx="808.644" cy="386.6" r="4" fill="#0" id="circle280"/>
	<circle cx="811.602" cy="710.036" r="4" fill="#0" id="circle281"/>
	<circle cx="815.547" cy="394.489" r="4" fill="#0" id="circle282"/>
	<circle cx="818.505" cy="404.35" r="4" fill="#0" id="circle283"/>
	<circle cx="818.505" cy="414.211" r="4" fill="#0" id="circle284"/>
	<circle cx="818.505" cy="424.072" r="4" fill="#0" id="circle285"/>
	<circle cx="818.505" cy="433.932" r="4" fill="#0" id="circle286"/>
	<circle cx="818.505" cy="443.793" r="4" fill="#0" id="circle287"/>
	<circle cx="818.505" cy="453.654" r="4" fill="#0" id="circle288"/>
	<circle cx="818.505" cy="463.515" r="4" fill="#0" id="circle289"/>
	<circle cx="821.463" cy="708.064" r="4" fill="#0" id="circle290"/>
	<circle cx="823.435" cy="472.39" r="4" fill="#0" id="circle291"/>
	<circle cx="831.324" cy="705.105" r="4" fill="#0" id="circle292"/>
	<circle cx="833.296" cy="475.348" r="4" fill="#0" id="circle293"/>
	<circle cx="841.185" cy="703.133" r="4" fill="#0" id="circle294"/>
	<circle cx="843.157" cy="477.32" r="4" fill="#0" id="circle295"/>
	<circle cx="851.046" cy="700.175" r="4" fill="#0" id="circle296"/>
	<circle cx="853.018" cy="477.32" r="4" fill="#0" id="circle297"/>
	<circle cx="860.907" cy="700.175" r="4" fill="#0" id="circle298"/>
	<circle cx="861.893" cy="482.25" r="4" fill="#0" id="circle299"/>
	<circle cx="869.781" cy="695.245" r="4" fill="#0" id="circle300"/>
	<circle cx="871.753" cy="484.223" r="4" fill="#0" id="circle301"/>
	<circle cx="879.642" cy="695.245" r="4" fill="#0" id="circle302"/>
	<circle cx="880.628" cy="489.153" r="4" fill="#0" id="circle303"/>
	<circle cx="888.517" cy="690.314" r="4" fill="#0" id="circle304"/>
	<circle cx="890.489" cy="492.111" r="4" fill="#0" id="circle305"/>
	<circle cx="898.378" cy="690.314" r="4" fill="#0" id="circle306"/>
	<circle cx="899.364" cy="497.042" r="4" fill="#0" id="circle307"/>
	<circle cx="908.239" cy="501.972" r="4" fill="#0" id="circle308"/>
	<circle cx="908.239" cy="690.314" r="4" fill="#0" id="circle309"/>
	<circle cx="917.113" cy="506.903" r="4" fill="#0" id="circle310"/>
	<circle cx="917.113" cy="685.384" r="4" fill="#0" id="circle311"/>
	<circle cx="925.988" cy="511.833" r="4" fill="#0" id="circle312"/>
	<circle cx="925.988" cy="680.453" r="4" fill="#0" id="circle313"/>
	<circle cx="934.863" cy="516.763" r="4" fill="#0" id="circle314"/>
	<circle cx="934.863" cy="675.523" r="4" fill="#0" id="circle315"/>
	<circle cx="941.765" cy="524.652" r="4" fill="#0" id="circle316"/>
	<circle cx="943.738" cy="669.606" r="4" fill="#0" id="circle317"/>
	<circle cx="948.668" cy="659.746" r="4" fill="#0" id="circle318"/>
	<circle cx="949.654" cy="531.555" r="4" fill="#0" id="circle319"/>
	<circle cx="958.529" cy="536.485" r="4" fill="#0" id="circle320"/>
	<circle cx="958.529" cy="654.815" r="4" fill="#0" id="circle321"/>
	<circle cx="966.417" cy="641.01" r="4" fill="#0" id="circle322"/>
	<circle cx="967.404" cy="541.416" r="4" fill="#0" id="circle323"/>
	<circle cx="971.348" cy="631.149" r="4" fill="#0" id="circle324"/>
	<circle cx="975.292" cy="548.318" r="4" fill="#0" id="circle325"/>
	<circle cx="976.278" cy="621.288" r="4" fill="#0" id="circle326"/>
	<circle cx="981.209" cy="611.427" r="4" fill="#0" id="circle327"/>
	<circle cx="984.167" cy="553.249" r="4" fill="#0" id="circle328"/>
	<circle cx="986.139" cy="601.567" r="4" fill="#0" id="circle329"/>
	<circle cx="991.07" cy="561.137" r="4" fill="#0" id="circle330"/>
	<circle cx="991.07" cy="591.706" r="4" fill="#0" id="circle331"/>
	<circle cx="996" cy="570.012" r="4" fill="#0" id="circle332"/>
	<circle cx="996" cy="579.873" r="4" fill="#0" id="circle333"/>
	</g>
</svg>