<?xml version="1.0" encoding="UTF-8" standalone="no"?>
<!-- Created with CurveBenchmark -->
<svg
	xmlns:dc="http://purl.org/dc/elements/1.1/"
	xmlns:cc="http://creativecommons.org/ns#"
	xmlns:rdf="http://www.w3.org/1999/02/22-rdf-syntax-ns#"
	xmlns:svg="http://www.w3.org/2000/svg"
	xmlns="http://www.w3.org/2000/svg"
	xmlns:sodipodi="http://sodipodi.sourceforge.net/DTD/sodipodi-0.dtd"
	xmlns:inkscape="http://www.inkscape.org/namespaces/inkscape"
	width="1000"
	height="1000"
	id="svg2"
	version="1.1"
	sodipodi:docname="manifold/discur-face-19.png.txt">
<defs
	id="defs4" />
<metadata
	id="metadata7">
	<rdf:RDF>
		<cc:Work
			rdf:about="">
			<dc:format>image/svg+xml</dc:format>
			<dc:type
				rdf:resource="http://purl.org/dc/dcmitype/StillImage" />
			<dc:title></dc:title>
		</cc:Work>
	</rdf:RDF>
</metadata>
<g
	inkscape:label="Layer 1"
	inkscape:groupmode="layer"
	id="layer1">
	<path style="fill:none;stroke:red;stroke-width:1px;stroke-linecap:butt;stroke-linejoin:miter;stroke-opacity:1" d="M 4,464.85 4,471.36 z" id="boundary" inkscape:connector-curvature="0" />
	<path style="fill:none;stroke:red;stroke-width:1px;stroke-linecap:butt;stroke-linejoin:miter;stroke-opacity:1" d="M 4,464.85 7.25459,455.087 z" id="boundary" inkscape:connector-curvature="0" />
	<path style="fill:none;stroke:red;stroke-width:1px;stroke-linecap:butt;stroke-linejoin:miter;stroke-opacity:1" d="M 4,471.36 4,484.378 z" id="boundary" inkscape:connector-curvature="0" />
	<path style="fill:none;stroke:red;stroke-width:1px;stroke-linecap:butt;stroke-linejoin:miter;stroke-opacity:1" d="M 4,484.378 4,497.396 z" id="boundary" inkscape:connector-curvature="0" />
	<path style="fill:none;stroke:red;stroke-width:1px;stroke-linecap:butt;stroke-linejoin:miter;stroke-opacity:1" d="M 4,497.396 7.25459,509.764 z" id="boundary" inkscape:connector-curvature="0" />
	<path style="fill:none;stroke:red;stroke-width:1px;stroke-linecap:butt;stroke-linejoin:miter;stroke-opacity:1" d="M 7.25459,448.577 7.25459,455.087 z" id="boundary" inkscape:connector-curvature="0" />
	<path style="fill:none;stroke:red;stroke-width:1px;stroke-linecap:butt;stroke-linejoin:miter;stroke-opacity:1" d="M 7.25459,448.577 13.7638,435.559 z" id="boundary" inkscape:connector-curvature="0" />
	<path style="fill:none;stroke:red;stroke-width:1px;stroke-linecap:butt;stroke-linejoin:miter;stroke-opacity:1" d="M 7.25459,509.764 7.25459,516.273 z" id="boundary" inkscape:connector-curvature="0" />
	<path style="fill:none;stroke:red;stroke-width:1px;stroke-linecap:butt;stroke-linejoin:miter;stroke-opacity:1" d="M 7.25459,516.273 12.4619,528.64 z" id="boundary" inkscape:connector-curvature="0" />
	<path style="fill:none;stroke:red;stroke-width:1px;stroke-linecap:butt;stroke-linejoin:miter;stroke-opacity:1" d="M 12.4619,528.64 15.7165,534.499 z" id="boundary" inkscape:connector-curvature="0" />
	<path style="fill:none;stroke:red;stroke-width:1px;stroke-linecap:butt;stroke-linejoin:miter;stroke-opacity:1" d="M 13.7638,435.559 18.9711,430.352 z" id="boundary" inkscape:connector-curvature="0" />
	<path style="fill:none;stroke:red;stroke-width:1px;stroke-linecap:butt;stroke-linejoin:miter;stroke-opacity:1" d="M 15.7165,534.499 20.273,539.706 z" id="boundary" inkscape:connector-curvature="0" />
	<path style="fill:none;stroke:red;stroke-width:1px;stroke-linecap:butt;stroke-linejoin:miter;stroke-opacity:1" d="M 18.9711,430.352 22.2257,423.843 z" id="boundary" inkscape:connector-curvature="0" />
	<path style="fill:none;stroke:red;stroke-width:1px;stroke-linecap:butt;stroke-linejoin:miter;stroke-opacity:1" d="M 20.273,539.706 23.5276,545.564 z" id="boundary" inkscape:connector-curvature="0" />
	<path style="fill:none;stroke:red;stroke-width:1px;stroke-linecap:butt;stroke-linejoin:miter;stroke-opacity:1" d="M 22.2257,423.843 27.4331,418.635 z" id="boundary" inkscape:connector-curvature="0" />
	<path style="fill:none;stroke:red;stroke-width:1px;stroke-linecap:butt;stroke-linejoin:miter;stroke-opacity:1" d="M 23.5276,545.564 26.7822,551.423 z" id="boundary" inkscape:connector-curvature="0" />
	<path style="fill:none;stroke:red;stroke-width:1px;stroke-linecap:butt;stroke-linejoin:miter;stroke-opacity:1" d="M 26.7822,210.992 26.7822,224.01 z" id="boundary" inkscape:connector-curvature="0" />
	<path style="fill:none;stroke:red;stroke-width:1px;stroke-linecap:butt;stroke-linejoin:miter;stroke-opacity:1" d="M 26.7822,210.992 30.0367,204.483 z" id="boundary" inkscape:connector-curvature="0" />
	<path style="fill:none;stroke:red;stroke-width:1px;stroke-linecap:butt;stroke-linejoin:miter;stroke-opacity:1" d="M 26.7822,224.01 26.7822,237.029 z" id="boundary" inkscape:connector-curvature="0" />
	<path style="fill:none;stroke:red;stroke-width:1px;stroke-linecap:butt;stroke-linejoin:miter;stroke-opacity:1" d="M 26.7822,237.029 26.7822,250.047 z" id="boundary" inkscape:connector-curvature="0" />
	<path style="fill:none;stroke:red;stroke-width:1px;stroke-linecap:butt;stroke-linejoin:miter;stroke-opacity:1" d="M 26.7822,250.047 26.7822,256.556 z" id="boundary" inkscape:connector-curvature="0" />
	<path style="fill:none;stroke:red;stroke-width:1px;stroke-linecap:butt;stroke-linejoin:miter;stroke-opacity:1" d="M 26.7822,256.556 26.7822,269.575 z" id="boundary" inkscape:connector-curvature="0" />
	<path style="fill:none;stroke:red;stroke-width:1px;stroke-linecap:butt;stroke-linejoin:miter;stroke-opacity:1" d="M 26.7822,269.575 26.7822,276.084 z" id="boundary" inkscape:connector-curvature="0" />
	<path style="fill:none;stroke:red;stroke-width:1px;stroke-linecap:butt;stroke-linejoin:miter;stroke-opacity:1" d="M 26.7822,276.084 30.0367,288.451 z" id="boundary" inkscape:connector-curvature="0" />
	<path style="fill:none;stroke:red;stroke-width:1px;stroke-linecap:butt;stroke-linejoin:miter;stroke-opacity:1" d="M 26.7822,551.423 30.6877,556.63 z" id="boundary" inkscape:connector-curvature="0" />
	<path style="fill:none;stroke:red;stroke-width:1px;stroke-linecap:butt;stroke-linejoin:miter;stroke-opacity:1" d="M 27.4331,418.635 39.1496,414.079 z" id="boundary" inkscape:connector-curvature="0" />
	<path style="fill:none;stroke:red;stroke-width:1px;stroke-linecap:butt;stroke-linejoin:miter;stroke-opacity:1" d="M 30.0367,204.483 33.2913,191.465 z" id="boundary" inkscape:connector-curvature="0" />
	<path style="fill:none;stroke:red;stroke-width:1px;stroke-linecap:butt;stroke-linejoin:miter;stroke-opacity:1" d="M 30.0367,288.451 30.0367,294.961 z" id="boundary" inkscape:connector-curvature="0" />
	<path style="fill:none;stroke:red;stroke-width:1px;stroke-linecap:butt;stroke-linejoin:miter;stroke-opacity:1" d="M 30.0367,294.961 30.0367,307.979 z" id="boundary" inkscape:connector-curvature="0" />
	<path style="fill:none;stroke:red;stroke-width:1px;stroke-linecap:butt;stroke-linejoin:miter;stroke-opacity:1" d="M 30.0367,307.979 30.0367,314.488 z" id="boundary" inkscape:connector-curvature="0" />
	<path style="fill:none;stroke:red;stroke-width:1px;stroke-linecap:butt;stroke-linejoin:miter;stroke-opacity:1" d="M 30.6877,556.63 33.9423,562.488 z" id="boundary" inkscape:connector-curvature="0" />
	<path style="fill:none;stroke:red;stroke-width:1px;stroke-linecap:butt;stroke-linejoin:miter;stroke-opacity:1" d="M 33.2913,191.465 38.4987,186.257 z" id="boundary" inkscape:connector-curvature="0" />
	<path style="fill:none;stroke:red;stroke-width:1px;stroke-linecap:butt;stroke-linejoin:miter;stroke-opacity:1" d="M 33.2913,339.874 33.2913,346.383 z" id="boundary" inkscape:connector-curvature="0" />
	<path style="fill:none;stroke:red;stroke-width:1px;stroke-linecap:butt;stroke-linejoin:miter;stroke-opacity:1" d="M 33.9423,562.488 39.8005,574.205 z" id="boundary" inkscape:connector-curvature="0" />
	<path style="fill:none;stroke:red;stroke-width:1px;stroke-linecap:butt;stroke-linejoin:miter;stroke-opacity:1" d="M 36.5459,359.402 39.8005,372.42 z" id="boundary" inkscape:connector-curvature="0" />
	<path style="fill:none;stroke:red;stroke-width:1px;stroke-linecap:butt;stroke-linejoin:miter;stroke-opacity:1" d="M 38.4987,186.257 45.0079,173.239 z" id="boundary" inkscape:connector-curvature="0" />
	<path style="fill:none;stroke:red;stroke-width:1px;stroke-linecap:butt;stroke-linejoin:miter;stroke-opacity:1" d="M 39.1496,414.079 43.0551,398.457 z" id="boundary" inkscape:connector-curvature="0" />
	<path style="fill:none;stroke:red;stroke-width:1px;stroke-linecap:butt;stroke-linejoin:miter;stroke-opacity:1" d="M 39.8005,372.42 41.7533,385.438 z" id="boundary" inkscape:connector-curvature="0" />
	<path style="fill:none;stroke:red;stroke-width:1px;stroke-linecap:butt;stroke-linejoin:miter;stroke-opacity:1" d="M 39.8005,574.205 43.0551,580.063 z" id="boundary" inkscape:connector-curvature="0" />
	<path style="fill:none;stroke:red;stroke-width:1px;stroke-linecap:butt;stroke-linejoin:miter;stroke-opacity:1" d="M 41.7533,385.438 43.0551,398.457 z" id="boundary" inkscape:connector-curvature="0" />
	<path style="fill:none;stroke:red;stroke-width:1px;stroke-linecap:butt;stroke-linejoin:miter;stroke-opacity:1" d="M 43.0551,580.063 46.9606,592.43 z" id="boundary" inkscape:connector-curvature="0" />
	<path style="fill:none;stroke:red;stroke-width:1px;stroke-linecap:butt;stroke-linejoin:miter;stroke-opacity:1" d="M 45.0079,173.239 49.5643,158.919 z" id="boundary" inkscape:connector-curvature="0" />
	<path style="fill:none;stroke:red;stroke-width:1px;stroke-linecap:butt;stroke-linejoin:miter;stroke-opacity:1" d="M 46.9606,592.43 52.168,596.987 z" id="boundary" inkscape:connector-curvature="0" />
	<path style="fill:none;stroke:red;stroke-width:1px;stroke-linecap:butt;stroke-linejoin:miter;stroke-opacity:1" d="M 49.5643,158.919 59.3281,145.9 z" id="boundary" inkscape:connector-curvature="0" />
	<path style="fill:none;stroke:red;stroke-width:1px;stroke-linecap:butt;stroke-linejoin:miter;stroke-opacity:1" d="M 52.168,596.987 56.0735,602.194 z" id="boundary" inkscape:connector-curvature="0" />
	<path style="fill:none;stroke:red;stroke-width:1px;stroke-linecap:butt;stroke-linejoin:miter;stroke-opacity:1" d="M 56.0735,602.194 59.3281,608.052 z" id="boundary" inkscape:connector-curvature="0" />
	<path style="fill:none;stroke:red;stroke-width:1px;stroke-linecap:butt;stroke-linejoin:miter;stroke-opacity:1" d="M 59.3281,145.9 62.5827,139.391 z" id="boundary" inkscape:connector-curvature="0" />
	<path style="fill:none;stroke:red;stroke-width:1px;stroke-linecap:butt;stroke-linejoin:miter;stroke-opacity:1" d="M 59.3281,608.052 63.2336,613.26 z" id="boundary" inkscape:connector-curvature="0" />
	<path style="fill:none;stroke:red;stroke-width:1px;stroke-linecap:butt;stroke-linejoin:miter;stroke-opacity:1" d="M 62.5827,139.391 71.0446,127.675 z" id="boundary" inkscape:connector-curvature="0" />
	<path style="fill:none;stroke:red;stroke-width:1px;stroke-linecap:butt;stroke-linejoin:miter;stroke-opacity:1" d="M 63.2336,613.26 69.0919,616.514 z" id="boundary" inkscape:connector-curvature="0" />
	<path style="fill:none;stroke:red;stroke-width:1px;stroke-linecap:butt;stroke-linejoin:miter;stroke-opacity:1" d="M 69.0919,616.514 79.5066,623.024 z" id="boundary" inkscape:connector-curvature="0" />
	<path style="fill:none;stroke:red;stroke-width:1px;stroke-linecap:butt;stroke-linejoin:miter;stroke-opacity:1" d="M 71.0446,127.675 76.252,122.467 z" id="boundary" inkscape:connector-curvature="0" />
	<path style="fill:none;stroke:red;stroke-width:1px;stroke-linecap:butt;stroke-linejoin:miter;stroke-opacity:1" d="M 76.252,122.467 81.4593,117.911 z" id="boundary" inkscape:connector-curvature="0" />
	<path style="fill:none;stroke:red;stroke-width:1px;stroke-linecap:butt;stroke-linejoin:miter;stroke-opacity:1" d="M 79.5066,623.024 85.3648,626.278 z" id="boundary" inkscape:connector-curvature="0" />
	<path style="fill:none;stroke:red;stroke-width:1px;stroke-linecap:butt;stroke-linejoin:miter;stroke-opacity:1" d="M 81.4593,117.911 86.0157,112.703 z" id="boundary" inkscape:connector-curvature="0" />
	<path style="fill:none;stroke:red;stroke-width:1px;stroke-linecap:butt;stroke-linejoin:miter;stroke-opacity:1" d="M 85.3648,626.278 91.2231,629.533 z" id="boundary" inkscape:connector-curvature="0" />
	<path style="fill:none;stroke:red;stroke-width:1px;stroke-linecap:butt;stroke-linejoin:miter;stroke-opacity:1" d="M 86.0157,112.703 89.2703,106.194 z" id="boundary" inkscape:connector-curvature="0" />
	<path style="fill:none;stroke:red;stroke-width:1px;stroke-linecap:butt;stroke-linejoin:miter;stroke-opacity:1" d="M 89.2703,106.194 94.4777,101.638 z" id="boundary" inkscape:connector-curvature="0" />
	<path style="fill:none;stroke:red;stroke-width:1px;stroke-linecap:butt;stroke-linejoin:miter;stroke-opacity:1" d="M 91.2231,629.533 97.0814,632.787 z" id="boundary" inkscape:connector-curvature="0" />
	<path style="fill:none;stroke:red;stroke-width:1px;stroke-linecap:butt;stroke-linejoin:miter;stroke-opacity:1" d="M 94.4777,101.638 99.0341,96.4304 z" id="boundary" inkscape:connector-curvature="0" />
	<path style="fill:none;stroke:red;stroke-width:1px;stroke-linecap:butt;stroke-linejoin:miter;stroke-opacity:1" d="M 97.0814,632.787 101.638,637.995 z" id="boundary" inkscape:connector-curvature="0" />
	<path style="fill:none;stroke:red;stroke-width:1px;stroke-linecap:butt;stroke-linejoin:miter;stroke-opacity:1" d="M 99.0341,96.4304 108.147,84.063 z" id="boundary" inkscape:connector-curvature="0" />
	<path style="fill:none;stroke:red;stroke-width:1px;stroke-linecap:butt;stroke-linejoin:miter;stroke-opacity:1" d="M 101.638,637.995 102.289,644.504 z" id="boundary" inkscape:connector-curvature="0" />
	<path style="fill:none;stroke:red;stroke-width:1px;stroke-linecap:butt;stroke-linejoin:miter;stroke-opacity:1" d="M 102.289,644.504 107.496,649.06 z" id="boundary" inkscape:connector-curvature="0" />
	<path style="fill:none;stroke:red;stroke-width:1px;stroke-linecap:butt;stroke-linejoin:miter;stroke-opacity:1" d="M 107.496,649.06 111.402,654.268 z" id="boundary" inkscape:connector-curvature="0" />
	<path style="fill:none;stroke:red;stroke-width:1px;stroke-linecap:butt;stroke-linejoin:miter;stroke-opacity:1" d="M 108.147,84.063 113.354,78.8556 z" id="boundary" inkscape:connector-curvature="0" />
	<path style="fill:none;stroke:red;stroke-width:1px;stroke-linecap:butt;stroke-linejoin:miter;stroke-opacity:1" d="M 111.402,654.268 112.052,660.777 z" id="boundary" inkscape:connector-curvature="0" />
	<path style="fill:none;stroke:red;stroke-width:1px;stroke-linecap:butt;stroke-linejoin:miter;stroke-opacity:1" d="M 112.052,660.777 117.26,665.333 z" id="boundary" inkscape:connector-curvature="0" />
	<path style="fill:none;stroke:red;stroke-width:1px;stroke-linecap:butt;stroke-linejoin:miter;stroke-opacity:1" d="M 113.354,78.8556 118.562,73.6483 z" id="boundary" inkscape:connector-curvature="0" />
	<path style="fill:none;stroke:red;stroke-width:1px;stroke-linecap:butt;stroke-linejoin:miter;stroke-opacity:1" d="M 117.26,665.333 117.911,671.843 z" id="boundary" inkscape:connector-curvature="0" />
	<path style="fill:none;stroke:red;stroke-width:1px;stroke-linecap:butt;stroke-linejoin:miter;stroke-opacity:1" d="M 117.911,671.843 121.816,677.05 z" id="boundary" inkscape:connector-curvature="0" />
	<path style="fill:none;stroke:red;stroke-width:1px;stroke-linecap:butt;stroke-linejoin:miter;stroke-opacity:1" d="M 118.562,73.6483 123.769,69.0919 z" id="boundary" inkscape:connector-curvature="0" />
	<path style="fill:none;stroke:red;stroke-width:1px;stroke-linecap:butt;stroke-linejoin:miter;stroke-opacity:1" d="M 121.816,677.05 127.024,681.606 z" id="boundary" inkscape:connector-curvature="0" />
	<path style="fill:none;stroke:red;stroke-width:1px;stroke-linecap:butt;stroke-linejoin:miter;stroke-opacity:1" d="M 123.769,69.0919 134.835,60.6299 z" id="boundary" inkscape:connector-curvature="0" />
	<path style="fill:none;stroke:red;stroke-width:1px;stroke-linecap:butt;stroke-linejoin:miter;stroke-opacity:1" d="M 127.024,681.606 129.627,694.625 z" id="boundary" inkscape:connector-curvature="0" />
	<path style="fill:none;stroke:red;stroke-width:1px;stroke-linecap:butt;stroke-linejoin:miter;stroke-opacity:1" d="M 129.627,694.625 130.929,707.643 z" id="boundary" inkscape:connector-curvature="0" />
	<path style="fill:none;stroke:red;stroke-width:1px;stroke-linecap:butt;stroke-linejoin:miter;stroke-opacity:1" d="M 130.929,707.643 130.929,720.661 z" id="boundary" inkscape:connector-curvature="0" />
	<path style="fill:none;stroke:red;stroke-width:1px;stroke-linecap:butt;stroke-linejoin:miter;stroke-opacity:1" d="M 130.929,720.661 130.929,733.68 z" id="boundary" inkscape:connector-curvature="0" />
	<path style="fill:none;stroke:red;stroke-width:1px;stroke-linecap:butt;stroke-linejoin:miter;stroke-opacity:1" d="M 130.929,733.68 130.929,746.698 z" id="boundary" inkscape:connector-curvature="0" />
	<path style="fill:none;stroke:red;stroke-width:1px;stroke-linecap:butt;stroke-linejoin:miter;stroke-opacity:1" d="M 130.929,746.698 130.929,753.207 z" id="boundary" inkscape:connector-curvature="0" />
	<path style="fill:none;stroke:red;stroke-width:1px;stroke-linecap:butt;stroke-linejoin:miter;stroke-opacity:1" d="M 130.929,753.207 130.929,766.226 z" id="boundary" inkscape:connector-curvature="0" />
	<path style="fill:none;stroke:red;stroke-width:1px;stroke-linecap:butt;stroke-linejoin:miter;stroke-opacity:1" d="M 130.929,766.226 130.929,779.244 z" id="boundary" inkscape:connector-curvature="0" />
	<path style="fill:none;stroke:red;stroke-width:1px;stroke-linecap:butt;stroke-linejoin:miter;stroke-opacity:1" d="M 130.929,779.244 130.929,785.753 z" id="boundary" inkscape:connector-curvature="0" />
	<path style="fill:none;stroke:red;stroke-width:1px;stroke-linecap:butt;stroke-linejoin:miter;stroke-opacity:1" d="M 130.929,785.753 134.835,790.961 z" id="boundary" inkscape:connector-curvature="0" />
	<path style="fill:none;stroke:red;stroke-width:1px;stroke-linecap:butt;stroke-linejoin:miter;stroke-opacity:1" d="M 134.835,60.6299 140.042,56.0735 z" id="boundary" inkscape:connector-curvature="0" />
	<path style="fill:none;stroke:red;stroke-width:1px;stroke-linecap:butt;stroke-linejoin:miter;stroke-opacity:1" d="M 134.835,790.961 140.042,795.517 z" id="boundary" inkscape:connector-curvature="0" />
	<path style="fill:none;stroke:red;stroke-width:1px;stroke-linecap:butt;stroke-linejoin:miter;stroke-opacity:1" d="M 140.042,56.0735 145.9,52.8189 z" id="boundary" inkscape:connector-curvature="0" />
	<path style="fill:none;stroke:red;stroke-width:1px;stroke-linecap:butt;stroke-linejoin:miter;stroke-opacity:1" d="M 140.042,795.517 142.646,808.535 z" id="boundary" inkscape:connector-curvature="0" />
	<path style="fill:none;stroke:red;stroke-width:1px;stroke-linecap:butt;stroke-linejoin:miter;stroke-opacity:1" d="M 142.646,808.535 145.9,814.394 z" id="boundary" inkscape:connector-curvature="0" />
	<path style="fill:none;stroke:red;stroke-width:1px;stroke-linecap:butt;stroke-linejoin:miter;stroke-opacity:1" d="M 145.9,52.8189 152.409,49.5643 z" id="boundary" inkscape:connector-curvature="0" />
	<path style="fill:none;stroke:red;stroke-width:1px;stroke-linecap:butt;stroke-linejoin:miter;stroke-opacity:1" d="M 145.9,814.394 151.108,818.299 z" id="boundary" inkscape:connector-curvature="0" />
	<path style="fill:none;stroke:red;stroke-width:1px;stroke-linecap:butt;stroke-linejoin:miter;stroke-opacity:1" d="M 151.108,818.299 156.966,821.554 z" id="boundary" inkscape:connector-curvature="0" />
	<path style="fill:none;stroke:red;stroke-width:1px;stroke-linecap:butt;stroke-linejoin:miter;stroke-opacity:1" d="M 152.409,49.5643 164.126,43.0551 z" id="boundary" inkscape:connector-curvature="0" />
	<path style="fill:none;stroke:red;stroke-width:1px;stroke-linecap:butt;stroke-linejoin:miter;stroke-opacity:1" d="M 156.966,821.554 160.871,826.761 z" id="boundary" inkscape:connector-curvature="0" />
	<path style="fill:none;stroke:red;stroke-width:1px;stroke-linecap:butt;stroke-linejoin:miter;stroke-opacity:1" d="M 160.871,826.761 164.126,832.619 z" id="boundary" inkscape:connector-curvature="0" />
	<path style="fill:none;stroke:red;stroke-width:1px;stroke-linecap:butt;stroke-linejoin:miter;stroke-opacity:1" d="M 164.126,43.0551 176.493,36.5459 z" id="boundary" inkscape:connector-curvature="0" />
	<path style="fill:none;stroke:red;stroke-width:1px;stroke-linecap:butt;stroke-linejoin:miter;stroke-opacity:1" d="M 164.126,832.619 166.73,839.129 z" id="boundary" inkscape:connector-curvature="0" />
	<path style="fill:none;stroke:red;stroke-width:1px;stroke-linecap:butt;stroke-linejoin:miter;stroke-opacity:1" d="M 166.73,839.129 171.937,843.685 z" id="boundary" inkscape:connector-curvature="0" />
	<path style="fill:none;stroke:red;stroke-width:1px;stroke-linecap:butt;stroke-linejoin:miter;stroke-opacity:1" d="M 171.937,843.685 176.493,848.892 z" id="boundary" inkscape:connector-curvature="0" />
	<path style="fill:none;stroke:red;stroke-width:1px;stroke-linecap:butt;stroke-linejoin:miter;stroke-opacity:1" d="M 176.493,36.5459 182.352,33.2913 z" id="boundary" inkscape:connector-curvature="0" />
	<path style="fill:none;stroke:red;stroke-width:1px;stroke-linecap:butt;stroke-linejoin:miter;stroke-opacity:1" d="M 176.493,848.892 181.701,853.449 z" id="boundary" inkscape:connector-curvature="0" />
	<path style="fill:none;stroke:red;stroke-width:1px;stroke-linecap:butt;stroke-linejoin:miter;stroke-opacity:1" d="M 181.701,853.449 186.257,858.656 z" id="boundary" inkscape:connector-curvature="0" />
	<path style="fill:none;stroke:red;stroke-width:1px;stroke-linecap:butt;stroke-linejoin:miter;stroke-opacity:1" d="M 182.352,33.2913 188.21,30.0367 z" id="boundary" inkscape:connector-curvature="0" />
	<path style="fill:none;stroke:red;stroke-width:1px;stroke-linecap:butt;stroke-linejoin:miter;stroke-opacity:1" d="M 186.257,858.656 189.512,864.514 z" id="boundary" inkscape:connector-curvature="0" />
	<path style="fill:none;stroke:red;stroke-width:1px;stroke-linecap:butt;stroke-linejoin:miter;stroke-opacity:1" d="M 188.21,30.0367 200.577,26.7822 z" id="boundary" inkscape:connector-curvature="0" />
	<path style="fill:none;stroke:red;stroke-width:1px;stroke-linecap:butt;stroke-linejoin:miter;stroke-opacity:1" d="M 189.512,864.514 194.068,869.722 z" id="boundary" inkscape:connector-curvature="0" />
	<path style="fill:none;stroke:red;stroke-width:1px;stroke-linecap:butt;stroke-linejoin:miter;stroke-opacity:1" d="M 194.068,869.722 199.276,873.627 z" id="boundary" inkscape:connector-curvature="0" />
	<path style="fill:none;stroke:red;stroke-width:1px;stroke-linecap:butt;stroke-linejoin:miter;stroke-opacity:1" d="M 199.276,873.627 203.181,878.835 z" id="boundary" inkscape:connector-curvature="0" />
	<path style="fill:none;stroke:red;stroke-width:1px;stroke-linecap:butt;stroke-linejoin:miter;stroke-opacity:1" d="M 200.577,26.7822 206.436,23.5276 z" id="boundary" inkscape:connector-curvature="0" />
	<path style="fill:none;stroke:red;stroke-width:1px;stroke-linecap:butt;stroke-linejoin:miter;stroke-opacity:1" d="M 203.181,878.835 208.388,883.391 z" id="boundary" inkscape:connector-curvature="0" />
	<path style="fill:none;stroke:red;stroke-width:1px;stroke-linecap:butt;stroke-linejoin:miter;stroke-opacity:1" d="M 206.436,23.5276 212.294,20.273 z" id="boundary" inkscape:connector-curvature="0" />
	<path style="fill:none;stroke:red;stroke-width:1px;stroke-linecap:butt;stroke-linejoin:miter;stroke-opacity:1" d="M 208.388,883.391 212.294,896.409 z" id="boundary" inkscape:connector-curvature="0" />
	<path style="fill:none;stroke:red;stroke-width:1px;stroke-linecap:butt;stroke-linejoin:miter;stroke-opacity:1" d="M 212.294,20.273 218.152,17.0184 z" id="boundary" inkscape:connector-curvature="0" />
	<path style="fill:none;stroke:red;stroke-width:1px;stroke-linecap:butt;stroke-linejoin:miter;stroke-opacity:1" d="M 212.294,896.409 215.549,902.268 z" id="boundary" inkscape:connector-curvature="0" />
	<path style="fill:none;stroke:red;stroke-width:1px;stroke-linecap:butt;stroke-linejoin:miter;stroke-opacity:1" d="M 215.549,902.268 216.85,908.777 z" id="boundary" inkscape:connector-curvature="0" />
	<path style="fill:none;stroke:red;stroke-width:1px;stroke-linecap:butt;stroke-linejoin:miter;stroke-opacity:1" d="M 216.85,908.777 222.058,912.682 z" id="boundary" inkscape:connector-curvature="0" />
	<path style="fill:none;stroke:red;stroke-width:1px;stroke-linecap:butt;stroke-linejoin:miter;stroke-opacity:1" d="M 218.152,17.0184 224.01,13.7638 z" id="boundary" inkscape:connector-curvature="0" />
	<path style="fill:none;stroke:red;stroke-width:1px;stroke-linecap:butt;stroke-linejoin:miter;stroke-opacity:1" d="M 222.058,912.682 228.567,924.399 z" id="boundary" inkscape:connector-curvature="0" />
	<path style="fill:none;stroke:red;stroke-width:1px;stroke-linecap:butt;stroke-linejoin:miter;stroke-opacity:1" d="M 224.01,13.7638 230.52,13.7638 z" id="boundary" inkscape:connector-curvature="0" />
	<path style="fill:none;stroke:red;stroke-width:1px;stroke-linecap:butt;stroke-linejoin:miter;stroke-opacity:1" d="M 228.567,924.399 231.822,930.257 z" id="boundary" inkscape:connector-curvature="0" />
	<path style="fill:none;stroke:red;stroke-width:1px;stroke-linecap:butt;stroke-linejoin:miter;stroke-opacity:1" d="M 230.52,13.7638 236.378,10.5092 z" id="boundary" inkscape:connector-curvature="0" />
	<path style="fill:none;stroke:red;stroke-width:1px;stroke-linecap:butt;stroke-linejoin:miter;stroke-opacity:1" d="M 231.822,930.257 237.029,934.814 z" id="boundary" inkscape:connector-curvature="0" />
	<path style="fill:none;stroke:red;stroke-width:1px;stroke-linecap:butt;stroke-linejoin:miter;stroke-opacity:1" d="M 236.378,10.5092 242.236,7.25459 z" id="boundary" inkscape:connector-curvature="0" />
	<path style="fill:none;stroke:red;stroke-width:1px;stroke-linecap:butt;stroke-linejoin:miter;stroke-opacity:1" d="M 237.029,934.814 239.633,941.323 z" id="boundary" inkscape:connector-curvature="0" />
	<path style="fill:none;stroke:red;stroke-width:1px;stroke-linecap:butt;stroke-linejoin:miter;stroke-opacity:1" d="M 239.633,941.323 242.887,947.181 z" id="boundary" inkscape:connector-curvature="0" />
	<path style="fill:none;stroke:red;stroke-width:1px;stroke-linecap:butt;stroke-linejoin:miter;stroke-opacity:1" d="M 242.236,7.25459 255.255,7.25459 z" id="boundary" inkscape:connector-curvature="0" />
	<path style="fill:none;stroke:red;stroke-width:1px;stroke-linecap:butt;stroke-linejoin:miter;stroke-opacity:1" d="M 242.887,947.181 248.094,951.738 z" id="boundary" inkscape:connector-curvature="0" />
	<path style="fill:none;stroke:red;stroke-width:1px;stroke-linecap:butt;stroke-linejoin:miter;stroke-opacity:1" d="M 248.094,951.738 252,956.945 z" id="boundary" inkscape:connector-curvature="0" />
	<path style="fill:none;stroke:red;stroke-width:1px;stroke-linecap:butt;stroke-linejoin:miter;stroke-opacity:1" d="M 252,956.945 255.255,962.803 z" id="boundary" inkscape:connector-curvature="0" />
	<path style="fill:none;stroke:red;stroke-width:1px;stroke-linecap:butt;stroke-linejoin:miter;stroke-opacity:1" d="M 255.255,7.25459 268.273,4 z" id="boundary" inkscape:connector-curvature="0" />
	<path style="fill:none;stroke:red;stroke-width:1px;stroke-linecap:butt;stroke-linejoin:miter;stroke-opacity:1" d="M 255.255,962.803 259.811,968.01 z" id="boundary" inkscape:connector-curvature="0" />
	<path style="fill:none;stroke:red;stroke-width:1px;stroke-linecap:butt;stroke-linejoin:miter;stroke-opacity:1" d="M 259.811,968.01 265.018,972.567 z" id="boundary" inkscape:connector-curvature="0" />
	<path style="fill:none;stroke:red;stroke-width:1px;stroke-linecap:butt;stroke-linejoin:miter;stroke-opacity:1" d="M 268.273,4 281.291,4 z" id="boundary" inkscape:connector-curvature="0" />
	<path style="fill:none;stroke:red;stroke-width:1px;stroke-linecap:butt;stroke-linejoin:miter;stroke-opacity:1" d="M 276.084,980.378 280.64,985.585 z" id="boundary" inkscape:connector-curvature="0" />
	<path style="fill:none;stroke:red;stroke-width:1px;stroke-linecap:butt;stroke-linejoin:miter;stroke-opacity:1" d="M 276.084,980.378 287.15,987.538 z" id="boundary" inkscape:connector-curvature="0" />
	<path style="fill:none;stroke:red;stroke-width:1px;stroke-linecap:butt;stroke-linejoin:miter;stroke-opacity:1" d="M 280.64,985.585 287.15,987.538 z" id="boundary" inkscape:connector-curvature="0" />
	<path style="fill:none;stroke:red;stroke-width:1px;stroke-linecap:butt;stroke-linejoin:miter;stroke-opacity:1" d="M 294.31,4 300.819,4 z" id="boundary" inkscape:connector-curvature="0" />
	<path style="fill:none;stroke:red;stroke-width:1px;stroke-linecap:butt;stroke-linejoin:miter;stroke-opacity:1" d="M 294.31,4 307.328,4 z" id="boundary" inkscape:connector-curvature="0" />
	<path style="fill:none;stroke:red;stroke-width:1px;stroke-linecap:butt;stroke-linejoin:miter;stroke-opacity:1" d="M 299.517,990.793 310.583,994.047 z" id="boundary" inkscape:connector-curvature="0" />
	<path style="fill:none;stroke:red;stroke-width:1px;stroke-linecap:butt;stroke-linejoin:miter;stroke-opacity:1" d="M 300.819,4 307.328,4 z" id="boundary" inkscape:connector-curvature="0" />
	<path style="fill:none;stroke:red;stroke-width:1px;stroke-linecap:butt;stroke-linejoin:miter;stroke-opacity:1" d="M 310.583,994.047 316.441,990.793 z" id="boundary" inkscape:connector-curvature="0" />
	<path style="fill:none;stroke:red;stroke-width:1px;stroke-linecap:butt;stroke-linejoin:miter;stroke-opacity:1" d="M 316.441,990.793 322.95,988.84 z" id="boundary" inkscape:connector-curvature="0" />
	<path style="fill:none;stroke:red;stroke-width:1px;stroke-linecap:butt;stroke-linejoin:miter;stroke-opacity:1" d="M 319.696,7.25459 332.714,7.25459 z" id="boundary" inkscape:connector-curvature="0" />
	<path style="fill:none;stroke:red;stroke-width:1px;stroke-linecap:butt;stroke-linejoin:miter;stroke-opacity:1" d="M 322.95,988.84 335.969,982.331 z" id="boundary" inkscape:connector-curvature="0" />
	<path style="fill:none;stroke:red;stroke-width:1px;stroke-linecap:butt;stroke-linejoin:miter;stroke-opacity:1" d="M 332.714,7.25459 345.732,7.25459 z" id="boundary" inkscape:connector-curvature="0" />
	<path style="fill:none;stroke:red;stroke-width:1px;stroke-linecap:butt;stroke-linejoin:miter;stroke-opacity:1" d="M 335.969,982.331 341.176,977.774 z" id="boundary" inkscape:connector-curvature="0" />
	<path style="fill:none;stroke:red;stroke-width:1px;stroke-linecap:butt;stroke-linejoin:miter;stroke-opacity:1" d="M 341.176,977.774 347.034,974.52 z" id="boundary" inkscape:connector-curvature="0" />
	<path style="fill:none;stroke:red;stroke-width:1px;stroke-linecap:butt;stroke-linejoin:miter;stroke-opacity:1" d="M 345.732,7.25459 352.241,8.55643 z" id="boundary" inkscape:connector-curvature="0" />
	<path style="fill:none;stroke:red;stroke-width:1px;stroke-linecap:butt;stroke-linejoin:miter;stroke-opacity:1" d="M 347.034,974.52 352.892,971.265 z" id="boundary" inkscape:connector-curvature="0" />
	<path style="fill:none;stroke:red;stroke-width:1px;stroke-linecap:butt;stroke-linejoin:miter;stroke-opacity:1" d="M 352.241,8.55643 358.1,11.811 z" id="boundary" inkscape:connector-curvature="0" />
	<path style="fill:none;stroke:red;stroke-width:1px;stroke-linecap:butt;stroke-linejoin:miter;stroke-opacity:1" d="M 352.892,971.265 359.402,968.01 z" id="boundary" inkscape:connector-curvature="0" />
	<path style="fill:none;stroke:red;stroke-width:1px;stroke-linecap:butt;stroke-linejoin:miter;stroke-opacity:1" d="M 358.1,11.811 362.656,17.0184 z" id="boundary" inkscape:connector-curvature="0" />
	<path style="fill:none;stroke:red;stroke-width:1px;stroke-linecap:butt;stroke-linejoin:miter;stroke-opacity:1" d="M 359.402,968.01 364.609,963.454 z" id="boundary" inkscape:connector-curvature="0" />
	<path style="fill:none;stroke:red;stroke-width:1px;stroke-linecap:butt;stroke-linejoin:miter;stroke-opacity:1" d="M 362.656,17.0184 368.514,20.273 z" id="boundary" inkscape:connector-curvature="0" />
	<path style="fill:none;stroke:red;stroke-width:1px;stroke-linecap:butt;stroke-linejoin:miter;stroke-opacity:1" d="M 364.609,963.454 369.165,958.247 z" id="boundary" inkscape:connector-curvature="0" />
	<path style="fill:none;stroke:red;stroke-width:1px;stroke-linecap:butt;stroke-linejoin:miter;stroke-opacity:1" d="M 368.514,20.273 373.722,24.1785 z" id="boundary" inkscape:connector-curvature="0" />
	<path style="fill:none;stroke:red;stroke-width:1px;stroke-linecap:butt;stroke-linejoin:miter;stroke-opacity:1" d="M 369.165,958.247 375.675,954.992 z" id="boundary" inkscape:connector-curvature="0" />
	<path style="fill:none;stroke:red;stroke-width:1px;stroke-linecap:butt;stroke-linejoin:miter;stroke-opacity:1" d="M 373.722,24.1785 378.929,28.7349 z" id="boundary" inkscape:connector-curvature="0" />
	<path style="fill:none;stroke:red;stroke-width:1px;stroke-linecap:butt;stroke-linejoin:miter;stroke-opacity:1" d="M 375.675,954.992 381.533,951.738 z" id="boundary" inkscape:connector-curvature="0" />
	<path style="fill:none;stroke:red;stroke-width:1px;stroke-linecap:butt;stroke-linejoin:miter;stroke-opacity:1" d="M 378.929,28.7349 391.297,34.5932 z" id="boundary" inkscape:connector-curvature="0" />
	<path style="fill:none;stroke:red;stroke-width:1px;stroke-linecap:butt;stroke-linejoin:miter;stroke-opacity:1" d="M 381.533,951.738 386.74,947.832 z" id="boundary" inkscape:connector-curvature="0" />
	<path style="fill:none;stroke:red;stroke-width:1px;stroke-linecap:butt;stroke-linejoin:miter;stroke-opacity:1" d="M 386.74,947.832 398.457,938.719 z" id="boundary" inkscape:connector-curvature="0" />
	<path style="fill:none;stroke:red;stroke-width:1px;stroke-linecap:butt;stroke-linejoin:miter;stroke-opacity:1" d="M 391.297,34.5932 395.202,39.8005 z" id="boundary" inkscape:connector-curvature="0" />
	<path style="fill:none;stroke:red;stroke-width:1px;stroke-linecap:butt;stroke-linejoin:miter;stroke-opacity:1" d="M 395.202,39.8005 401.711,41.7533 z" id="boundary" inkscape:connector-curvature="0" />
	<path style="fill:none;stroke:red;stroke-width:1px;stroke-linecap:butt;stroke-linejoin:miter;stroke-opacity:1" d="M 398.457,938.719 404.966,935.465 z" id="boundary" inkscape:connector-curvature="0" />
	<path style="fill:none;stroke:red;stroke-width:1px;stroke-linecap:butt;stroke-linejoin:miter;stroke-opacity:1" d="M 401.711,41.7533 406.268,46.9606 z" id="boundary" inkscape:connector-curvature="0" />
	<path style="fill:none;stroke:red;stroke-width:1px;stroke-linecap:butt;stroke-linejoin:miter;stroke-opacity:1" d="M 404.966,935.465 416.682,927.654 z" id="boundary" inkscape:connector-curvature="0" />
	<path style="fill:none;stroke:red;stroke-width:1px;stroke-linecap:butt;stroke-linejoin:miter;stroke-opacity:1" d="M 406.268,46.9606 411.475,51.5171 z" id="boundary" inkscape:connector-curvature="0" />
	<path style="fill:none;stroke:red;stroke-width:1px;stroke-linecap:butt;stroke-linejoin:miter;stroke-opacity:1" d="M 411.475,51.5171 414.079,58.0262 z" id="boundary" inkscape:connector-curvature="0" />
	<path style="fill:none;stroke:red;stroke-width:1px;stroke-linecap:butt;stroke-linejoin:miter;stroke-opacity:1" d="M 414.079,58.0262 423.843,62.5827 z" id="boundary" inkscape:connector-curvature="0" />
	<path style="fill:none;stroke:red;stroke-width:1px;stroke-linecap:butt;stroke-linejoin:miter;stroke-opacity:1" d="M 416.682,927.654 427.748,919.192 z" id="boundary" inkscape:connector-curvature="0" />
	<path style="fill:none;stroke:red;stroke-width:1px;stroke-linecap:butt;stroke-linejoin:miter;stroke-opacity:1" d="M 423.843,62.5827 436.861,59.3281 z" id="boundary" inkscape:connector-curvature="0" />
	<path style="fill:none;stroke:red;stroke-width:1px;stroke-linecap:butt;stroke-linejoin:miter;stroke-opacity:1" d="M 436.861,59.3281 449.879,56.0735 z" id="boundary" inkscape:connector-curvature="0" />
	<path style="fill:none;stroke:red;stroke-width:1px;stroke-linecap:butt;stroke-linejoin:miter;stroke-opacity:1" d="M 440.766,912.682 445.974,908.126 z" id="boundary" inkscape:connector-curvature="0" />
	<path style="fill:none;stroke:red;stroke-width:1px;stroke-linecap:butt;stroke-linejoin:miter;stroke-opacity:1" d="M 440.766,912.682 450.53,902.919 z" id="boundary" inkscape:connector-curvature="0" />
	<path style="fill:none;stroke:red;stroke-width:1px;stroke-linecap:butt;stroke-linejoin:miter;stroke-opacity:1" d="M 445.974,908.126 450.53,902.919 z" id="boundary" inkscape:connector-curvature="0" />
	<path style="fill:none;stroke:red;stroke-width:1px;stroke-linecap:butt;stroke-linejoin:miter;stroke-opacity:1" d="M 449.879,56.0735 462.898,56.0735 z" id="boundary" inkscape:connector-curvature="0" />
	<path style="fill:none;stroke:red;stroke-width:1px;stroke-linecap:butt;stroke-linejoin:miter;stroke-opacity:1" d="M 458.992,891.853 465.501,878.835 z" id="boundary" inkscape:connector-curvature="0" />
	<path style="fill:none;stroke:red;stroke-width:1px;stroke-linecap:butt;stroke-linejoin:miter;stroke-opacity:1" d="M 462.898,56.0735 475.916,59.3281 z" id="boundary" inkscape:connector-curvature="0" />
	<path style="fill:none;stroke:red;stroke-width:1px;stroke-linecap:butt;stroke-linejoin:miter;stroke-opacity:1" d="M 465.501,878.835 466.803,870.373 z" id="boundary" inkscape:connector-curvature="0" />
	<path style="fill:none;stroke:red;stroke-width:1px;stroke-linecap:butt;stroke-linejoin:miter;stroke-opacity:1" d="M 466.803,870.373 473.312,854.1 z" id="boundary" inkscape:connector-curvature="0" />
	<path style="fill:none;stroke:red;stroke-width:1px;stroke-linecap:butt;stroke-linejoin:miter;stroke-opacity:1" d="M 473.312,854.1 479.822,834.572 z" id="boundary" inkscape:connector-curvature="0" />
	<path style="fill:none;stroke:red;stroke-width:1px;stroke-linecap:butt;stroke-linejoin:miter;stroke-opacity:1" d="M 475.916,59.3281 488.283,62.5827 z" id="boundary" inkscape:connector-curvature="0" />
	<path style="fill:none;stroke:red;stroke-width:1px;stroke-linecap:butt;stroke-linejoin:miter;stroke-opacity:1" d="M 479.822,834.572 483.076,821.554 z" id="boundary" inkscape:connector-curvature="0" />
	<path style="fill:none;stroke:red;stroke-width:1px;stroke-linecap:butt;stroke-linejoin:miter;stroke-opacity:1" d="M 483.076,821.554 486.331,808.535 z" id="boundary" inkscape:connector-curvature="0" />
	<path style="fill:none;stroke:red;stroke-width:1px;stroke-linecap:butt;stroke-linejoin:miter;stroke-opacity:1" d="M 486.331,795.517 486.331,808.535 z" id="boundary" inkscape:connector-curvature="0" />
	<path style="fill:none;stroke:red;stroke-width:1px;stroke-linecap:butt;stroke-linejoin:miter;stroke-opacity:1" d="M 486.331,795.517 489.585,782.499 z" id="boundary" inkscape:connector-curvature="0" />
	<path style="fill:none;stroke:red;stroke-width:1px;stroke-linecap:butt;stroke-linejoin:miter;stroke-opacity:1" d="M 488.283,62.5827 494.793,63.2336 z" id="boundary" inkscape:connector-curvature="0" />
	<path style="fill:none;stroke:red;stroke-width:1px;stroke-linecap:butt;stroke-linejoin:miter;stroke-opacity:1" d="M 489.585,782.499 492.84,766.226 z" id="boundary" inkscape:connector-curvature="0" />
	<path style="fill:none;stroke:red;stroke-width:1px;stroke-linecap:butt;stroke-linejoin:miter;stroke-opacity:1" d="M 492.84,746.698 492.84,753.207 z" id="boundary" inkscape:connector-curvature="0" />
	<path style="fill:none;stroke:red;stroke-width:1px;stroke-linecap:butt;stroke-linejoin:miter;stroke-opacity:1" d="M 492.84,746.698 498.047,742.142 z" id="boundary" inkscape:connector-curvature="0" />
	<path style="fill:none;stroke:red;stroke-width:1px;stroke-linecap:butt;stroke-linejoin:miter;stroke-opacity:1" d="M 492.84,753.207 492.84,766.226 z" id="boundary" inkscape:connector-curvature="0" />
	<path style="fill:none;stroke:red;stroke-width:1px;stroke-linecap:butt;stroke-linejoin:miter;stroke-opacity:1" d="M 494.793,63.2336 500.651,66.4882 z" id="boundary" inkscape:connector-curvature="0" />
	<path style="fill:none;stroke:red;stroke-width:1px;stroke-linecap:butt;stroke-linejoin:miter;stroke-opacity:1" d="M 498.047,742.142 502.604,736.934 z" id="boundary" inkscape:connector-curvature="0" />
	<path style="fill:none;stroke:red;stroke-width:1px;stroke-linecap:butt;stroke-linejoin:miter;stroke-opacity:1" d="M 500.651,66.4882 507.16,69.0919 z" id="boundary" inkscape:connector-curvature="0" />
	<path style="fill:none;stroke:red;stroke-width:1px;stroke-linecap:butt;stroke-linejoin:miter;stroke-opacity:1" d="M 502.604,736.934 507.811,732.378 z" id="boundary" inkscape:connector-curvature="0" />
	<path style="fill:none;stroke:red;stroke-width:1px;stroke-linecap:butt;stroke-linejoin:miter;stroke-opacity:1" d="M 507.16,69.0919 513.018,72.3465 z" id="boundary" inkscape:connector-curvature="0" />
	<path style="fill:none;stroke:red;stroke-width:1px;stroke-linecap:butt;stroke-linejoin:miter;stroke-opacity:1" d="M 507.811,732.378 514.32,719.36 z" id="boundary" inkscape:connector-curvature="0" />
	<path style="fill:none;stroke:red;stroke-width:1px;stroke-linecap:butt;stroke-linejoin:miter;stroke-opacity:1" d="M 513.018,72.3465 525.386,77.5538 z" id="boundary" inkscape:connector-curvature="0" />
	<path style="fill:none;stroke:red;stroke-width:1px;stroke-linecap:butt;stroke-linejoin:miter;stroke-opacity:1" d="M 514.32,719.36 517.575,712.85 z" id="boundary" inkscape:connector-curvature="0" />
	<path style="fill:none;stroke:red;stroke-width:1px;stroke-linecap:butt;stroke-linejoin:miter;stroke-opacity:1" d="M 517.575,712.85 525.386,697.879 z" id="boundary" inkscape:connector-curvature="0" />
	<path style="fill:none;stroke:red;stroke-width:1px;stroke-linecap:butt;stroke-linejoin:miter;stroke-opacity:1" d="M 525.386,77.5538 531.244,80.8084 z" id="boundary" inkscape:connector-curvature="0" />
	<path style="fill:none;stroke:red;stroke-width:1px;stroke-linecap:butt;stroke-linejoin:miter;stroke-opacity:1" d="M 525.386,697.879 528.64,688.115 z" id="boundary" inkscape:connector-curvature="0" />
	<path style="fill:none;stroke:red;stroke-width:1px;stroke-linecap:butt;stroke-linejoin:miter;stroke-opacity:1" d="M 528.64,688.115 531.895,678.352 z" id="boundary" inkscape:connector-curvature="0" />
	<path style="fill:none;stroke:red;stroke-width:1px;stroke-linecap:butt;stroke-linejoin:miter;stroke-opacity:1" d="M 531.244,80.8084 536.451,85.3648 z" id="boundary" inkscape:connector-curvature="0" />
	<path style="fill:none;stroke:red;stroke-width:1px;stroke-linecap:butt;stroke-linejoin:miter;stroke-opacity:1" d="M 531.895,671.843 531.895,678.352 z" id="boundary" inkscape:connector-curvature="0" />
	<path style="fill:none;stroke:red;stroke-width:1px;stroke-linecap:butt;stroke-linejoin:miter;stroke-opacity:1" d="M 531.895,671.843 535.15,662.079 z" id="boundary" inkscape:connector-curvature="0" />
	<path style="fill:none;stroke:red;stroke-width:1px;stroke-linecap:butt;stroke-linejoin:miter;stroke-opacity:1" d="M 535.15,629.533 535.15,636.042 z" id="boundary" inkscape:connector-curvature="0" />
	<path style="fill:none;stroke:red;stroke-width:1px;stroke-linecap:butt;stroke-linejoin:miter;stroke-opacity:1" d="M 535.15,629.533 538.404,619.769 z" id="boundary" inkscape:connector-curvature="0" />
	<path style="fill:none;stroke:red;stroke-width:1px;stroke-linecap:butt;stroke-linejoin:miter;stroke-opacity:1" d="M 535.15,636.042 535.15,649.06 z" id="boundary" inkscape:connector-curvature="0" />
	<path style="fill:none;stroke:red;stroke-width:1px;stroke-linecap:butt;stroke-linejoin:miter;stroke-opacity:1" d="M 535.15,649.06 535.15,662.079 z" id="boundary" inkscape:connector-curvature="0" />
	<path style="fill:none;stroke:red;stroke-width:1px;stroke-linecap:butt;stroke-linejoin:miter;stroke-opacity:1" d="M 536.451,85.3648 541.008,90.5722 z" id="boundary" inkscape:connector-curvature="0" />
	<path style="fill:none;stroke:red;stroke-width:1px;stroke-linecap:butt;stroke-linejoin:miter;stroke-opacity:1" d="M 538.404,619.769 543.612,615.213 z" id="boundary" inkscape:connector-curvature="0" />
	<path style="fill:none;stroke:red;stroke-width:1px;stroke-linecap:butt;stroke-linejoin:miter;stroke-opacity:1" d="M 541.008,90.5722 547.517,93.1759 z" id="boundary" inkscape:connector-curvature="0" />
	<path style="fill:none;stroke:red;stroke-width:1px;stroke-linecap:butt;stroke-linejoin:miter;stroke-opacity:1" d="M 543.612,615.213 546.866,608.703 z" id="boundary" inkscape:connector-curvature="0" />
	<path style="fill:none;stroke:red;stroke-width:1px;stroke-linecap:butt;stroke-linejoin:miter;stroke-opacity:1" d="M 546.866,608.703 551.423,603.496 z" id="boundary" inkscape:connector-curvature="0" />
	<path style="fill:none;stroke:red;stroke-width:1px;stroke-linecap:butt;stroke-linejoin:miter;stroke-opacity:1" d="M 547.517,93.1759 551.423,98.3832 z" id="boundary" inkscape:connector-curvature="0" />
	<path style="fill:none;stroke:red;stroke-width:1px;stroke-linecap:butt;stroke-linejoin:miter;stroke-opacity:1" d="M 551.423,98.3832 556.63,102.289 z" id="boundary" inkscape:connector-curvature="0" />
	<path style="fill:none;stroke:red;stroke-width:1px;stroke-linecap:butt;stroke-linejoin:miter;stroke-opacity:1" d="M 551.423,603.496 557.281,600.241 z" id="boundary" inkscape:connector-curvature="0" />
	<path style="fill:none;stroke:red;stroke-width:1px;stroke-linecap:butt;stroke-linejoin:miter;stroke-opacity:1" d="M 556.63,102.289 561.186,107.496 z" id="boundary" inkscape:connector-curvature="0" />
	<path style="fill:none;stroke:red;stroke-width:1px;stroke-linecap:butt;stroke-linejoin:miter;stroke-opacity:1" d="M 557.281,600.241 562.488,596.336 z" id="boundary" inkscape:connector-curvature="0" />
	<path style="fill:none;stroke:red;stroke-width:1px;stroke-linecap:butt;stroke-linejoin:miter;stroke-opacity:1" d="M 561.186,107.496 564.441,113.354 z" id="boundary" inkscape:connector-curvature="0" />
	<path style="fill:none;stroke:red;stroke-width:1px;stroke-linecap:butt;stroke-linejoin:miter;stroke-opacity:1" d="M 562.488,596.336 567.696,577.459 z" id="boundary" inkscape:connector-curvature="0" />
	<path style="fill:none;stroke:red;stroke-width:1px;stroke-linecap:butt;stroke-linejoin:miter;stroke-opacity:1" d="M 564.441,113.354 568.997,118.562 z" id="boundary" inkscape:connector-curvature="0" />
	<path style="fill:none;stroke:red;stroke-width:1px;stroke-linecap:butt;stroke-linejoin:miter;stroke-opacity:1" d="M 567.696,577.459 570.95,564.441 z" id="boundary" inkscape:connector-curvature="0" />
	<path style="fill:none;stroke:red;stroke-width:1px;stroke-linecap:butt;stroke-linejoin:miter;stroke-opacity:1" d="M 568.997,118.562 574.205,123.118 z" id="boundary" inkscape:connector-curvature="0" />
	<path style="fill:none;stroke:red;stroke-width:1px;stroke-linecap:butt;stroke-linejoin:miter;stroke-opacity:1" d="M 570.95,557.932 570.95,564.441 z" id="boundary" inkscape:connector-curvature="0" />
	<path style="fill:none;stroke:red;stroke-width:1px;stroke-linecap:butt;stroke-linejoin:miter;stroke-opacity:1" d="M 570.95,557.932 574.205,551.423 z" id="boundary" inkscape:connector-curvature="0" />
	<path style="fill:none;stroke:red;stroke-width:1px;stroke-linecap:butt;stroke-linejoin:miter;stroke-opacity:1" d="M 574.205,123.118 577.459,128.976 z" id="boundary" inkscape:connector-curvature="0" />
	<path style="fill:none;stroke:red;stroke-width:1px;stroke-linecap:butt;stroke-linejoin:miter;stroke-opacity:1" d="M 574.205,362.656 574.205,369.165 z" id="boundary" inkscape:connector-curvature="0" />
	<path style="fill:none;stroke:red;stroke-width:1px;stroke-linecap:butt;stroke-linejoin:miter;stroke-opacity:1" d="M 574.205,362.656 577.459,346.383 z" id="boundary" inkscape:connector-curvature="0" />
	<path style="fill:none;stroke:red;stroke-width:1px;stroke-linecap:butt;stroke-linejoin:miter;stroke-opacity:1" d="M 574.205,369.165 574.205,375.675 z" id="boundary" inkscape:connector-curvature="0" />
	<path style="fill:none;stroke:red;stroke-width:1px;stroke-linecap:butt;stroke-linejoin:miter;stroke-opacity:1" d="M 574.205,375.675 574.205,388.693 z" id="boundary" inkscape:connector-curvature="0" />
	<path style="fill:none;stroke:red;stroke-width:1px;stroke-linecap:butt;stroke-linejoin:miter;stroke-opacity:1" d="M 574.205,388.693 574.205,401.711 z" id="boundary" inkscape:connector-curvature="0" />
	<path style="fill:none;stroke:red;stroke-width:1px;stroke-linecap:butt;stroke-linejoin:miter;stroke-opacity:1" d="M 574.205,401.711 579.412,405.617 z" id="boundary" inkscape:connector-curvature="0" />
	<path style="fill:none;stroke:red;stroke-width:1px;stroke-linecap:butt;stroke-linejoin:miter;stroke-opacity:1" d="M 574.205,551.423 577.459,541.659 z" id="boundary" inkscape:connector-curvature="0" />
	<path style="fill:none;stroke:red;stroke-width:1px;stroke-linecap:butt;stroke-linejoin:miter;stroke-opacity:1" d="M 577.459,128.976 582.016,141.344 z" id="boundary" inkscape:connector-curvature="0" />
	<path style="fill:none;stroke:red;stroke-width:1px;stroke-linecap:butt;stroke-linejoin:miter;stroke-opacity:1" d="M 577.459,346.383 580.714,326.856 z" id="boundary" inkscape:connector-curvature="0" />
	<path style="fill:none;stroke:red;stroke-width:1px;stroke-linecap:butt;stroke-linejoin:miter;stroke-opacity:1" d="M 577.459,541.659 580.714,535.15 z" id="boundary" inkscape:connector-curvature="0" />
	<path style="fill:none;stroke:red;stroke-width:1px;stroke-linecap:butt;stroke-linejoin:miter;stroke-opacity:1" d="M 579.412,405.617 583.969,410.824 z" id="boundary" inkscape:connector-curvature="0" />
	<path style="fill:none;stroke:red;stroke-width:1px;stroke-linecap:butt;stroke-linejoin:miter;stroke-opacity:1" d="M 580.714,326.856 583.969,313.837 z" id="boundary" inkscape:connector-curvature="0" />
	<path style="fill:none;stroke:red;stroke-width:1px;stroke-linecap:butt;stroke-linejoin:miter;stroke-opacity:1" d="M 580.714,535.15 585.921,530.593 z" id="boundary" inkscape:connector-curvature="0" />
	<path style="fill:none;stroke:red;stroke-width:1px;stroke-linecap:butt;stroke-linejoin:miter;stroke-opacity:1" d="M 582.016,141.344 583.969,147.853 z" id="boundary" inkscape:connector-curvature="0" />
	<path style="fill:none;stroke:red;stroke-width:1px;stroke-linecap:butt;stroke-linejoin:miter;stroke-opacity:1" d="M 583.969,300.819 583.969,313.837 z" id="boundary" inkscape:connector-curvature="0" />
	<path style="fill:none;stroke:red;stroke-width:1px;stroke-linecap:butt;stroke-linejoin:miter;stroke-opacity:1" d="M 583.969,300.819 587.223,284.546 z" id="boundary" inkscape:connector-curvature="0" />
	<path style="fill:none;stroke:red;stroke-width:1px;stroke-linecap:butt;stroke-linejoin:miter;stroke-opacity:1" d="M 583.969,410.824 587.223,416.682 z" id="boundary" inkscape:connector-curvature="0" />
	<path style="fill:none;stroke:red;stroke-width:1px;stroke-linecap:butt;stroke-linejoin:miter;stroke-opacity:1" d="M 585.921,530.593 593.732,515.622 z" id="boundary" inkscape:connector-curvature="0" />
	<path style="fill:none;stroke:red;stroke-width:1px;stroke-linecap:butt;stroke-linejoin:miter;stroke-opacity:1" d="M 587.223,160.22 587.223,166.73 z" id="boundary" inkscape:connector-curvature="0" />
	<path style="fill:none;stroke:red;stroke-width:1px;stroke-linecap:butt;stroke-linejoin:miter;stroke-opacity:1" d="M 587.223,160.22 587.223,173.239 z" id="boundary" inkscape:connector-curvature="0" />
	<path style="fill:none;stroke:red;stroke-width:1px;stroke-linecap:butt;stroke-linejoin:miter;stroke-opacity:1" d="M 587.223,166.73 587.223,173.239 z" id="boundary" inkscape:connector-curvature="0" />
	<path style="fill:none;stroke:red;stroke-width:1px;stroke-linecap:butt;stroke-linejoin:miter;stroke-opacity:1" d="M 587.223,278.037 587.223,284.546 z" id="boundary" inkscape:connector-curvature="0" />
	<path style="fill:none;stroke:red;stroke-width:1px;stroke-linecap:butt;stroke-linejoin:miter;stroke-opacity:1" d="M 587.223,278.037 590.478,270.226 z" id="boundary" inkscape:connector-curvature="0" />
	<path style="fill:none;stroke:red;stroke-width:1px;stroke-linecap:butt;stroke-linejoin:miter;stroke-opacity:1" d="M 587.223,416.682 590.478,422.541 z" id="boundary" inkscape:connector-curvature="0" />
	<path style="fill:none;stroke:red;stroke-width:1px;stroke-linecap:butt;stroke-linejoin:miter;stroke-opacity:1" d="M 590.478,198.625 590.478,205.134 z" id="boundary" inkscape:connector-curvature="0" />
	<path style="fill:none;stroke:red;stroke-width:1px;stroke-linecap:butt;stroke-linejoin:miter;stroke-opacity:1" d="M 590.478,218.152 590.478,231.171 z" id="boundary" inkscape:connector-curvature="0" />
	<path style="fill:none;stroke:red;stroke-width:1px;stroke-linecap:butt;stroke-linejoin:miter;stroke-opacity:1" d="M 590.478,231.171 590.478,244.189 z" id="boundary" inkscape:connector-curvature="0" />
	<path style="fill:none;stroke:red;stroke-width:1px;stroke-linecap:butt;stroke-linejoin:miter;stroke-opacity:1" d="M 590.478,244.189 590.478,257.207 z" id="boundary" inkscape:connector-curvature="0" />
	<path style="fill:none;stroke:red;stroke-width:1px;stroke-linecap:butt;stroke-linejoin:miter;stroke-opacity:1" d="M 590.478,257.207 590.478,270.226 z" id="boundary" inkscape:connector-curvature="0" />
	<path style="fill:none;stroke:red;stroke-width:1px;stroke-linecap:butt;stroke-linejoin:miter;stroke-opacity:1" d="M 590.478,422.541 595.034,427.748 z" id="boundary" inkscape:connector-curvature="0" />
	<path style="fill:none;stroke:red;stroke-width:1px;stroke-linecap:butt;stroke-linejoin:miter;stroke-opacity:1" d="M 593.732,515.622 596.987,509.113 z" id="boundary" inkscape:connector-curvature="0" />
	<path style="fill:none;stroke:red;stroke-width:1px;stroke-linecap:butt;stroke-linejoin:miter;stroke-opacity:1" d="M 595.034,427.748 596.987,434.257 z" id="boundary" inkscape:connector-curvature="0" />
	<path style="fill:none;stroke:red;stroke-width:1px;stroke-linecap:butt;stroke-linejoin:miter;stroke-opacity:1" d="M 596.987,434.257 600.241,440.115 z" id="boundary" inkscape:connector-curvature="0" />
	<path style="fill:none;stroke:red;stroke-width:1px;stroke-linecap:butt;stroke-linejoin:miter;stroke-opacity:1" d="M 596.987,509.113 603.496,504.556 z" id="boundary" inkscape:connector-curvature="0" />
	<path style="fill:none;stroke:red;stroke-width:1px;stroke-linecap:butt;stroke-linejoin:miter;stroke-opacity:1" d="M 600.241,453.134 603.496,458.992 z" id="boundary" inkscape:connector-curvature="0" />
	<path style="fill:none;stroke:red;stroke-width:1px;stroke-linecap:butt;stroke-linejoin:miter;stroke-opacity:1" d="M 600.241,453.134 603.496,465.501 z" id="boundary" inkscape:connector-curvature="0" />
	<path style="fill:none;stroke:red;stroke-width:1px;stroke-linecap:butt;stroke-linejoin:miter;stroke-opacity:1" d="M 603.496,458.992 603.496,465.501 z" id="boundary" inkscape:connector-curvature="0" />
	<path style="fill:none;stroke:red;stroke-width:1px;stroke-linecap:butt;stroke-linejoin:miter;stroke-opacity:1" d="M 603.496,478.52 603.496,491.538 z" id="boundary" inkscape:connector-curvature="0" />
	<path style="fill:none;stroke:red;stroke-width:1px;stroke-linecap:butt;stroke-linejoin:miter;stroke-opacity:1" d="M 603.496,491.538 603.496,504.556 z" id="boundary" inkscape:connector-curvature="0" />
	<circle cx="4" cy="464.85" r="4" fill="#0" id="circle0"/>
	<circle cx="4" cy="471.36" r="4" fill="#0" id="circle1"/>
	<circle cx="4" cy="477.869" r="4" fill="#0" id="circle2"/>
	<circle cx="4" cy="484.378" r="4" fill="#0" id="circle3"/>
	<circle cx="4" cy="490.887" r="4" fill="#0" id="circle4"/>
	<circle cx="4" cy="497.396" r="4" fill="#0" id="circle5"/>
	<circle cx="7.25459" cy="448.577" r="4" fill="#0" id="circle6"/>
	<circle cx="7.25459" cy="455.087" r="4" fill="#0" id="circle7"/>
	<circle cx="7.25459" cy="503.255" r="4" fill="#0" id="circle8"/>
	<circle cx="7.25459" cy="509.764" r="4" fill="#0" id="circle9"/>
	<circle cx="7.25459" cy="516.273" r="4" fill="#0" id="circle10"/>
	<circle cx="10.5092" cy="442.068" r="4" fill="#0" id="circle11"/>
	<circle cx="10.5092" cy="522.131" r="4" fill="#0" id="circle12"/>
	<circle cx="12.4619" cy="528.64" r="4" fill="#0" id="circle13"/>
	<circle cx="13.7638" cy="435.559" r="4" fill="#0" id="circle14"/>
	<circle cx="15.7165" cy="534.499" r="4" fill="#0" id="circle15"/>
	<circle cx="18.9711" cy="430.352" r="4" fill="#0" id="circle16"/>
	<circle cx="20.273" cy="539.706" r="4" fill="#0" id="circle17"/>
	<circle cx="22.2257" cy="423.843" r="4" fill="#0" id="circle18"/>
	<circle cx="23.5276" cy="545.564" r="4" fill="#0" id="circle19"/>
	<circle cx="26.7822" cy="210.992" r="4" fill="#0" id="circle20"/>
	<circle cx="26.7822" cy="217.501" r="4" fill="#0" id="circle21"/>
	<circle cx="26.7822" cy="224.01" r="4" fill="#0" id="circle22"/>
	<circle cx="26.7822" cy="230.52" r="4" fill="#0" id="circle23"/>
	<circle cx="26.7822" cy="237.029" r="4" fill="#0" id="circle24"/>
	<circle cx="26.7822" cy="243.538" r="4" fill="#0" id="circle25"/>
	<circle cx="26.7822" cy="250.047" r="4" fill="#0" id="circle26"/>
	<circle cx="26.7822" cy="256.556" r="4" fill="#0" id="circle27"/>
	<circle cx="26.7822" cy="263.066" r="4" fill="#0" id="circle28"/>
	<circle cx="26.7822" cy="269.575" r="4" fill="#0" id="circle29"/>
	<circle cx="26.7822" cy="276.084" r="4" fill="#0" id="circle30"/>
	<circle cx="26.7822" cy="551.423" r="4" fill="#0" id="circle31"/>
	<circle cx="27.4331" cy="418.635" r="4" fill="#0" id="circle32"/>
	<circle cx="30.0367" cy="204.483" r="4" fill="#0" id="circle33"/>
	<circle cx="30.0367" cy="281.942" r="4" fill="#0" id="circle34"/>
	<circle cx="30.0367" cy="288.451" r="4" fill="#0" id="circle35"/>
	<circle cx="30.0367" cy="294.961" r="4" fill="#0" id="circle36"/>
	<circle cx="30.0367" cy="301.47" r="4" fill="#0" id="circle37"/>
	<circle cx="30.0367" cy="307.979" r="4" fill="#0" id="circle38"/>
	<circle cx="30.0367" cy="314.488" r="4" fill="#0" id="circle39"/>
	<circle cx="30.6877" cy="556.63" r="4" fill="#0" id="circle40"/>
	<circle cx="32.6404" cy="414.079" r="4" fill="#0" id="circle41"/>
	<circle cx="33.2913" cy="191.465" r="4" fill="#0" id="circle42"/>
	<circle cx="33.2913" cy="197.974" r="4" fill="#0" id="circle43"/>
	<circle cx="33.2913" cy="320.346" r="4" fill="#0" id="circle44"/>
	<circle cx="33.2913" cy="326.856" r="4" fill="#0" id="circle45"/>
	<circle cx="33.2913" cy="333.365" r="4" fill="#0" id="circle46"/>
	<circle cx="33.2913" cy="339.874" r="4" fill="#0" id="circle47"/>
	<circle cx="33.2913" cy="346.383" r="4" fill="#0" id="circle48"/>
	<circle cx="33.9423" cy="562.488" r="4" fill="#0" id="circle49"/>
	<circle cx="35.2441" cy="352.892" r="4" fill="#0" id="circle50"/>
	<circle cx="36.5459" cy="359.402" r="4" fill="#0" id="circle51"/>
	<circle cx="38.4987" cy="186.257" r="4" fill="#0" id="circle52"/>
	<circle cx="38.4987" cy="365.911" r="4" fill="#0" id="circle53"/>
	<circle cx="38.4987" cy="567.696" r="4" fill="#0" id="circle54"/>
	<circle cx="39.1496" cy="414.079" r="4" fill="#0" id="circle55"/>
	<circle cx="39.8005" cy="372.42" r="4" fill="#0" id="circle56"/>
	<circle cx="39.8005" cy="378.929" r="4" fill="#0" id="circle57"/>
	<circle cx="39.8005" cy="574.205" r="4" fill="#0" id="circle58"/>
	<circle cx="41.7533" cy="179.748" r="4" fill="#0" id="circle59"/>
	<circle cx="41.7533" cy="385.438" r="4" fill="#0" id="circle60"/>
	<circle cx="43.0551" cy="391.948" r="4" fill="#0" id="circle61"/>
	<circle cx="43.0551" cy="398.457" r="4" fill="#0" id="circle62"/>
	<circle cx="43.0551" cy="580.063" r="4" fill="#0" id="circle63"/>
	<circle cx="45.0079" cy="173.239" r="4" fill="#0" id="circle64"/>
	<circle cx="45.6588" cy="414.079" r="4" fill="#0" id="circle65"/>
	<circle cx="46.3097" cy="404.315" r="4" fill="#0" id="circle66"/>
	<circle cx="46.3097" cy="585.921" r="4" fill="#0" id="circle67"/>
	<circle cx="46.9606" cy="592.43" r="4" fill="#0" id="circle68"/>
	<circle cx="48.2625" cy="166.73" r="4" fill="#0" id="circle69"/>
	<circle cx="49.5643" cy="158.919" r="4" fill="#0" id="circle70"/>
	<circle cx="52.168" cy="596.987" r="4" fill="#0" id="circle71"/>
	<circle cx="54.7717" cy="153.711" r="4" fill="#0" id="circle72"/>
	<circle cx="56.0735" cy="602.194" r="4" fill="#0" id="circle73"/>
	<circle cx="59.3281" cy="145.9" r="4" fill="#0" id="circle74"/>
	<circle cx="59.3281" cy="608.052" r="4" fill="#0" id="circle75"/>
	<circle cx="62.5827" cy="139.391" r="4" fill="#0" id="circle76"/>
	<circle cx="63.2336" cy="613.26" r="4" fill="#0" id="circle77"/>
	<circle cx="67.79" cy="134.184" r="4" fill="#0" id="circle78"/>
	<circle cx="69.0919" cy="616.514" r="4" fill="#0" id="circle79"/>
	<circle cx="71.0446" cy="127.675" r="4" fill="#0" id="circle80"/>
	<circle cx="72.9974" cy="621.722" r="4" fill="#0" id="circle81"/>
	<circle cx="76.252" cy="122.467" r="4" fill="#0" id="circle82"/>
	<circle cx="79.5066" cy="623.024" r="4" fill="#0" id="circle83"/>
	<circle cx="81.4593" cy="117.911" r="4" fill="#0" id="circle84"/>
	<circle cx="85.3648" cy="626.278" r="4" fill="#0" id="circle85"/>
	<circle cx="86.0157" cy="112.703" r="4" fill="#0" id="circle86"/>
	<circle cx="89.2703" cy="106.194" r="4" fill="#0" id="circle87"/>
	<circle cx="91.2231" cy="629.533" r="4" fill="#0" id="circle88"/>
	<circle cx="94.4777" cy="101.638" r="4" fill="#0" id="circle89"/>
	<circle cx="97.0814" cy="632.787" r="4" fill="#0" id="circle90"/>
	<circle cx="99.0341" cy="96.4304" r="4" fill="#0" id="circle91"/>
	<circle cx="101.638" cy="637.995" r="4" fill="#0" id="circle92"/>
	<circle cx="102.289" cy="644.504" r="4" fill="#0" id="circle93"/>
	<circle cx="104.241" cy="91.874" r="4" fill="#0" id="circle94"/>
	<circle cx="107.496" cy="649.06" r="4" fill="#0" id="circle95"/>
	<circle cx="108.147" cy="84.063" r="4" fill="#0" id="circle96"/>
	<circle cx="111.402" cy="654.268" r="4" fill="#0" id="circle97"/>
	<circle cx="112.052" cy="660.777" r="4" fill="#0" id="circle98"/>
	<circle cx="113.354" cy="78.8556" r="4" fill="#0" id="circle99"/>
	<circle cx="117.26" cy="665.333" r="4" fill="#0" id="circle100"/>
	<circle cx="117.911" cy="671.843" r="4" fill="#0" id="circle101"/>
	<circle cx="118.562" cy="73.6483" r="4" fill="#0" id="circle102"/>
	<circle cx="121.816" cy="677.05" r="4" fill="#0" id="circle103"/>
	<circle cx="123.769" cy="69.0919" r="4" fill="#0" id="circle104"/>
	<circle cx="127.024" cy="681.606" r="4" fill="#0" id="circle105"/>
	<circle cx="127.675" cy="688.115" r="4" fill="#0" id="circle106"/>
	<circle cx="128.325" cy="63.8845" r="4" fill="#0" id="circle107"/>
	<circle cx="129.627" cy="694.625" r="4" fill="#0" id="circle108"/>
	<circle cx="130.929" cy="701.134" r="4" fill="#0" id="circle109"/>
	<circle cx="130.929" cy="707.643" r="4" fill="#0" id="circle110"/>
	<circle cx="130.929" cy="714.152" r="4" fill="#0" id="circle111"/>
	<circle cx="130.929" cy="720.661" r="4" fill="#0" id="circle112"/>
	<circle cx="130.929" cy="727.171" r="4" fill="#0" id="circle113"/>
	<circle cx="130.929" cy="733.68" r="4" fill="#0" id="circle114"/>
	<circle cx="130.929" cy="740.189" r="4" fill="#0" id="circle115"/>
	<circle cx="130.929" cy="746.698" r="4" fill="#0" id="circle116"/>
	<circle cx="130.929" cy="753.207" r="4" fill="#0" id="circle117"/>
	<circle cx="130.929" cy="759.717" r="4" fill="#0" id="circle118"/>
	<circle cx="130.929" cy="766.226" r="4" fill="#0" id="circle119"/>
	<circle cx="130.929" cy="772.735" r="4" fill="#0" id="circle120"/>
	<circle cx="130.929" cy="779.244" r="4" fill="#0" id="circle121"/>
	<circle cx="130.929" cy="785.753" r="4" fill="#0" id="circle122"/>
	<circle cx="134.835" cy="60.6299" r="4" fill="#0" id="circle123"/>
	<circle cx="134.835" cy="790.961" r="4" fill="#0" id="circle124"/>
	<circle cx="140.042" cy="56.0735" r="4" fill="#0" id="circle125"/>
	<circle cx="140.042" cy="795.517" r="4" fill="#0" id="circle126"/>
	<circle cx="140.693" cy="802.026" r="4" fill="#0" id="circle127"/>
	<circle cx="142.646" cy="808.535" r="4" fill="#0" id="circle128"/>
	<circle cx="145.9" cy="52.8189" r="4" fill="#0" id="circle129"/>
	<circle cx="145.9" cy="814.394" r="4" fill="#0" id="circle130"/>
	<circle cx="151.108" cy="818.299" r="4" fill="#0" id="circle131"/>
	<circle cx="152.409" cy="49.5643" r="4" fill="#0" id="circle132"/>
	<circle cx="156.966" cy="821.554" r="4" fill="#0" id="circle133"/>
	<circle cx="157.617" cy="44.357" r="4" fill="#0" id="circle134"/>
	<circle cx="160.871" cy="826.761" r="4" fill="#0" id="circle135"/>
	<circle cx="164.126" cy="43.0551" r="4" fill="#0" id="circle136"/>
	<circle cx="164.126" cy="832.619" r="4" fill="#0" id="circle137"/>
	<circle cx="166.73" cy="839.129" r="4" fill="#0" id="circle138"/>
	<circle cx="169.984" cy="38.4987" r="4" fill="#0" id="circle139"/>
	<circle cx="171.937" cy="843.685" r="4" fill="#0" id="circle140"/>
	<circle cx="176.493" cy="36.5459" r="4" fill="#0" id="circle141"/>
	<circle cx="176.493" cy="848.892" r="4" fill="#0" id="circle142"/>
	<circle cx="181.701" cy="853.449" r="4" fill="#0" id="circle143"/>
	<circle cx="182.352" cy="33.2913" r="4" fill="#0" id="circle144"/>
	<circle cx="186.257" cy="858.656" r="4" fill="#0" id="circle145"/>
	<circle cx="188.21" cy="30.0367" r="4" fill="#0" id="circle146"/>
	<circle cx="189.512" cy="864.514" r="4" fill="#0" id="circle147"/>
	<circle cx="194.068" cy="26.7822" r="4" fill="#0" id="circle148"/>
	<circle cx="194.068" cy="869.722" r="4" fill="#0" id="circle149"/>
	<circle cx="199.276" cy="873.627" r="4" fill="#0" id="circle150"/>
	<circle cx="200.577" cy="26.7822" r="4" fill="#0" id="circle151"/>
	<circle cx="203.181" cy="878.835" r="4" fill="#0" id="circle152"/>
	<circle cx="206.436" cy="23.5276" r="4" fill="#0" id="circle153"/>
	<circle cx="208.388" cy="883.391" r="4" fill="#0" id="circle154"/>
	<circle cx="210.992" cy="889.9" r="4" fill="#0" id="circle155"/>
	<circle cx="212.294" cy="20.273" r="4" fill="#0" id="circle156"/>
	<circle cx="212.294" cy="896.409" r="4" fill="#0" id="circle157"/>
	<circle cx="215.549" cy="902.268" r="4" fill="#0" id="circle158"/>
	<circle cx="216.85" cy="908.777" r="4" fill="#0" id="circle159"/>
	<circle cx="218.152" cy="17.0184" r="4" fill="#0" id="circle160"/>
	<circle cx="222.058" cy="912.682" r="4" fill="#0" id="circle161"/>
	<circle cx="224.01" cy="13.7638" r="4" fill="#0" id="circle162"/>
	<circle cx="225.963" cy="917.89" r="4" fill="#0" id="circle163"/>
	<circle cx="228.567" cy="924.399" r="4" fill="#0" id="circle164"/>
	<circle cx="230.52" cy="13.7638" r="4" fill="#0" id="circle165"/>
	<circle cx="231.822" cy="930.257" r="4" fill="#0" id="circle166"/>
	<circle cx="236.378" cy="10.5092" r="4" fill="#0" id="circle167"/>
	<circle cx="237.029" cy="934.814" r="4" fill="#0" id="circle168"/>
	<circle cx="239.633" cy="941.323" r="4" fill="#0" id="circle169"/>
	<circle cx="242.236" cy="7.25459" r="4" fill="#0" id="circle170"/>
	<circle cx="242.887" cy="947.181" r="4" fill="#0" id="circle171"/>
	<circle cx="248.094" cy="951.738" r="4" fill="#0" id="circle172"/>
	<circle cx="248.745" cy="7.25459" r="4" fill="#0" id="circle173"/>
	<circle cx="252" cy="956.945" r="4" fill="#0" id="circle174"/>
	<circle cx="255.255" cy="7.25459" r="4" fill="#0" id="circle175"/>
	<circle cx="255.255" cy="962.803" r="4" fill="#0" id="circle176"/>
	<circle cx="259.811" cy="968.01" r="4" fill="#0" id="circle177"/>
	<circle cx="261.764" cy="5.30184" r="4" fill="#0" id="circle178"/>
	<circle cx="265.018" cy="972.567" r="4" fill="#0" id="circle179"/>
	<circle cx="268.273" cy="4" r="4" fill="#0" id="circle180"/>
	<circle cx="269.575" cy="977.774" r="4" fill="#0" id="circle181"/>
	<circle cx="274.782" cy="4" r="4" fill="#0" id="circle182"/>
	<circle cx="276.084" cy="980.378" r="4" fill="#0" id="circle183"/>
	<circle cx="280.64" cy="985.585" r="4" fill="#0" id="circle184"/>
	<circle cx="281.291" cy="4" r="4" fill="#0" id="circle185"/>
	<circle cx="287.15" cy="987.538" r="4" fill="#0" id="circle186"/>
	<circle cx="287.801" cy="4" r="4" fill="#0" id="circle187"/>
	<circle cx="293.008" cy="990.793" r="4" fill="#0" id="circle188"/>
	<circle cx="294.31" cy="4" r="4" fill="#0" id="circle189"/>
	<circle cx="299.517" cy="990.793" r="4" fill="#0" id="circle190"/>
	<circle cx="300.819" cy="4" r="4" fill="#0" id="circle191"/>
	<circle cx="304.073" cy="996" r="4" fill="#0" id="circle192"/>
	<circle cx="307.328" cy="4" r="4" fill="#0" id="circle193"/>
	<circle cx="310.583" cy="994.047" r="4" fill="#0" id="circle194"/>
	<circle cx="313.186" cy="7.25459" r="4" fill="#0" id="circle195"/>
	<circle cx="316.441" cy="990.793" r="4" fill="#0" id="circle196"/>
	<circle cx="319.696" cy="7.25459" r="4" fill="#0" id="circle197"/>
	<circle cx="322.95" cy="988.84" r="4" fill="#0" id="circle198"/>
	<circle cx="326.205" cy="7.25459" r="4" fill="#0" id="circle199"/>
	<circle cx="329.459" cy="985.585" r="4" fill="#0" id="circle200"/>
	<circle cx="332.714" cy="7.25459" r="4" fill="#0" id="circle201"/>
	<circle cx="335.969" cy="982.331" r="4" fill="#0" id="circle202"/>
	<circle cx="339.223" cy="7.25459" r="4" fill="#0" id="circle203"/>
	<circle cx="341.176" cy="977.774" r="4" fill="#0" id="circle204"/>
	<circle cx="345.732" cy="7.25459" r="4" fill="#0" id="circle205"/>
	<circle cx="347.034" cy="974.52" r="4" fill="#0" id="circle206"/>
	<circle cx="352.241" cy="8.55643" r="4" fill="#0" id="circle207"/>
	<circle cx="352.892" cy="971.265" r="4" fill="#0" id="circle208"/>
	<circle cx="358.1" cy="11.811" r="4" fill="#0" id="circle209"/>
	<circle cx="359.402" cy="968.01" r="4" fill="#0" id="circle210"/>
	<circle cx="362.656" cy="17.0184" r="4" fill="#0" id="circle211"/>
	<circle cx="364.609" cy="963.454" r="4" fill="#0" id="circle212"/>
	<circle cx="368.514" cy="20.273" r="4" fill="#0" id="circle213"/>
	<circle cx="369.165" cy="958.247" r="4" fill="#0" id="circle214"/>
	<circle cx="373.722" cy="24.1785" r="4" fill="#0" id="circle215"/>
	<circle cx="375.675" cy="954.992" r="4" fill="#0" id="circle216"/>
	<circle cx="378.929" cy="28.7349" r="4" fill="#0" id="circle217"/>
	<circle cx="381.533" cy="951.738" r="4" fill="#0" id="circle218"/>
	<circle cx="384.787" cy="31.9895" r="4" fill="#0" id="circle219"/>
	<circle cx="386.74" cy="947.832" r="4" fill="#0" id="circle220"/>
	<circle cx="391.297" cy="34.5932" r="4" fill="#0" id="circle221"/>
	<circle cx="391.948" cy="941.974" r="4" fill="#0" id="circle222"/>
	<circle cx="395.202" cy="39.8005" r="4" fill="#0" id="circle223"/>
	<circle cx="398.457" cy="938.719" r="4" fill="#0" id="circle224"/>
	<circle cx="401.711" cy="41.7533" r="4" fill="#0" id="circle225"/>
	<circle cx="404.966" cy="935.465" r="4" fill="#0" id="circle226"/>
	<circle cx="406.268" cy="46.9606" r="4" fill="#0" id="circle227"/>
	<circle cx="410.173" cy="930.908" r="4" fill="#0" id="circle228"/>
	<circle cx="411.475" cy="51.5171" r="4" fill="#0" id="circle229"/>
	<circle cx="414.079" cy="58.0262" r="4" fill="#0" id="circle230"/>
	<circle cx="416.682" cy="927.654" r="4" fill="#0" id="circle231"/>
	<circle cx="417.333" cy="63.8845" r="4" fill="#0" id="circle232"/>
	<circle cx="421.239" cy="922.446" r="4" fill="#0" id="circle233"/>
	<circle cx="423.843" cy="62.5827" r="4" fill="#0" id="circle234"/>
	<circle cx="427.748" cy="919.192" r="4" fill="#0" id="circle235"/>
	<circle cx="430.352" cy="61.2808" r="4" fill="#0" id="circle236"/>
	<circle cx="434.257" cy="915.937" r="4" fill="#0" id="circle237"/>
	<circle cx="436.861" cy="59.3281" r="4" fill="#0" id="circle238"/>
	<circle cx="440.766" cy="912.682" r="4" fill="#0" id="circle239"/>
	<circle cx="443.37" cy="58.0262" r="4" fill="#0" id="circle240"/>
	<circle cx="445.974" cy="908.126" r="4" fill="#0" id="circle241"/>
	<circle cx="449.879" cy="56.0735" r="4" fill="#0" id="circle242"/>
	<circle cx="450.53" cy="902.919" r="4" fill="#0" id="circle243"/>
	<circle cx="455.738" cy="898.362" r="4" fill="#0" id="circle244"/>
	<circle cx="456.388" cy="56.0735" r="4" fill="#0" id="circle245"/>
	<circle cx="458.992" cy="891.853" r="4" fill="#0" id="circle246"/>
	<circle cx="462.247" cy="885.344" r="4" fill="#0" id="circle247"/>
	<circle cx="462.898" cy="56.0735" r="4" fill="#0" id="circle248"/>
	<circle cx="465.501" cy="878.835" r="4" fill="#0" id="circle249"/>
	<circle cx="466.803" cy="870.373" r="4" fill="#0" id="circle250"/>
	<circle cx="469.407" cy="57.3753" r="4" fill="#0" id="circle251"/>
	<circle cx="470.058" cy="863.864" r="4" fill="#0" id="circle252"/>
	<circle cx="473.312" cy="854.1" r="4" fill="#0" id="circle253"/>
	<circle cx="475.916" cy="59.3281" r="4" fill="#0" id="circle254"/>
	<circle cx="478.52" cy="849.543" r="4" fill="#0" id="circle255"/>
	<circle cx="479.822" cy="834.572" r="4" fill="#0" id="circle256"/>
	<circle cx="479.822" cy="841.081" r="4" fill="#0" id="circle257"/>
	<circle cx="481.774" cy="62.5827" r="4" fill="#0" id="circle258"/>
	<circle cx="483.076" cy="821.554" r="4" fill="#0" id="circle259"/>
	<circle cx="483.076" cy="828.063" r="4" fill="#0" id="circle260"/>
	<circle cx="486.331" cy="795.517" r="4" fill="#0" id="circle261"/>
	<circle cx="486.331" cy="802.026" r="4" fill="#0" id="circle262"/>
	<circle cx="486.331" cy="808.535" r="4" fill="#0" id="circle263"/>
	<circle cx="486.331" cy="815.045" r="4" fill="#0" id="circle264"/>
	<circle cx="488.283" cy="62.5827" r="4" fill="#0" id="circle265"/>
	<circle cx="489.585" cy="782.499" r="4" fill="#0" id="circle266"/>
	<circle cx="489.585" cy="789.008" r="4" fill="#0" id="circle267"/>
	<circle cx="492.84" cy="746.698" r="4" fill="#0" id="circle268"/>
	<circle cx="492.84" cy="753.207" r="4" fill="#0" id="circle269"/>
	<circle cx="492.84" cy="759.717" r="4" fill="#0" id="circle270"/>
	<circle cx="492.84" cy="766.226" r="4" fill="#0" id="circle271"/>
	<circle cx="492.84" cy="772.735" r="4" fill="#0" id="circle272"/>
	<circle cx="494.793" cy="63.2336" r="4" fill="#0" id="circle273"/>
	<circle cx="498.047" cy="742.142" r="4" fill="#0" id="circle274"/>
	<circle cx="500.651" cy="66.4882" r="4" fill="#0" id="circle275"/>
	<circle cx="502.604" cy="736.934" r="4" fill="#0" id="circle276"/>
	<circle cx="507.16" cy="69.0919" r="4" fill="#0" id="circle277"/>
	<circle cx="507.811" cy="732.378" r="4" fill="#0" id="circle278"/>
	<circle cx="511.066" cy="725.869" r="4" fill="#0" id="circle279"/>
	<circle cx="513.018" cy="72.3465" r="4" fill="#0" id="circle280"/>
	<circle cx="514.32" cy="719.36" r="4" fill="#0" id="circle281"/>
	<circle cx="517.575" cy="712.85" r="4" fill="#0" id="circle282"/>
	<circle cx="518.877" cy="75.601" r="4" fill="#0" id="circle283"/>
	<circle cx="522.131" cy="707.643" r="4" fill="#0" id="circle284"/>
	<circle cx="525.386" cy="77.5538" r="4" fill="#0" id="circle285"/>
	<circle cx="525.386" cy="697.879" r="4" fill="#0" id="circle286"/>
	<circle cx="528.64" cy="688.115" r="4" fill="#0" id="circle287"/>
	<circle cx="531.244" cy="80.8084" r="4" fill="#0" id="circle288"/>
	<circle cx="531.895" cy="671.843" r="4" fill="#0" id="circle289"/>
	<circle cx="531.895" cy="678.352" r="4" fill="#0" id="circle290"/>
	<circle cx="535.15" cy="629.533" r="4" fill="#0" id="circle291"/>
	<circle cx="535.15" cy="636.042" r="4" fill="#0" id="circle292"/>
	<circle cx="535.15" cy="642.551" r="4" fill="#0" id="circle293"/>
	<circle cx="535.15" cy="649.06" r="4" fill="#0" id="circle294"/>
	<circle cx="535.15" cy="655.57" r="4" fill="#0" id="circle295"/>
	<circle cx="535.15" cy="662.079" r="4" fill="#0" id="circle296"/>
	<circle cx="536.451" cy="85.3648" r="4" fill="#0" id="circle297"/>
	<circle cx="538.404" cy="619.769" r="4" fill="#0" id="circle298"/>
	<circle cx="541.008" cy="90.5722" r="4" fill="#0" id="circle299"/>
	<circle cx="543.612" cy="615.213" r="4" fill="#0" id="circle300"/>
	<circle cx="546.866" cy="608.703" r="4" fill="#0" id="circle301"/>
	<circle cx="547.517" cy="93.1759" r="4" fill="#0" id="circle302"/>
	<circle cx="551.423" cy="98.3832" r="4" fill="#0" id="circle303"/>
	<circle cx="551.423" cy="603.496" r="4" fill="#0" id="circle304"/>
	<circle cx="556.63" cy="102.289" r="4" fill="#0" id="circle305"/>
	<circle cx="557.281" cy="600.241" r="4" fill="#0" id="circle306"/>
	<circle cx="561.186" cy="107.496" r="4" fill="#0" id="circle307"/>
	<circle cx="562.488" cy="596.336" r="4" fill="#0" id="circle308"/>
	<circle cx="564.441" cy="113.354" r="4" fill="#0" id="circle309"/>
	<circle cx="567.696" cy="577.459" r="4" fill="#0" id="circle310"/>
	<circle cx="567.696" cy="583.969" r="4" fill="#0" id="circle311"/>
	<circle cx="567.696" cy="590.478" r="4" fill="#0" id="circle312"/>
	<circle cx="568.997" cy="118.562" r="4" fill="#0" id="circle313"/>
	<circle cx="570.95" cy="557.932" r="4" fill="#0" id="circle314"/>
	<circle cx="570.95" cy="564.441" r="4" fill="#0" id="circle315"/>
	<circle cx="570.95" cy="570.95" r="4" fill="#0" id="circle316"/>
	<circle cx="574.205" cy="123.118" r="4" fill="#0" id="circle317"/>
	<circle cx="574.205" cy="362.656" r="4" fill="#0" id="circle318"/>
	<circle cx="574.205" cy="369.165" r="4" fill="#0" id="circle319"/>
	<circle cx="574.205" cy="375.675" r="4" fill="#0" id="circle320"/>
	<circle cx="574.205" cy="382.184" r="4" fill="#0" id="circle321"/>
	<circle cx="574.205" cy="388.693" r="4" fill="#0" id="circle322"/>
	<circle cx="574.205" cy="395.202" r="4" fill="#0" id="circle323"/>
	<circle cx="574.205" cy="401.711" r="4" fill="#0" id="circle324"/>
	<circle cx="574.205" cy="551.423" r="4" fill="#0" id="circle325"/>
	<circle cx="577.459" cy="128.976" r="4" fill="#0" id="circle326"/>
	<circle cx="577.459" cy="346.383" r="4" fill="#0" id="circle327"/>
	<circle cx="577.459" cy="352.892" r="4" fill="#0" id="circle328"/>
	<circle cx="577.459" cy="541.659" r="4" fill="#0" id="circle329"/>
	<circle cx="579.412" cy="405.617" r="4" fill="#0" id="circle330"/>
	<circle cx="580.714" cy="134.835" r="4" fill="#0" id="circle331"/>
	<circle cx="580.714" cy="326.856" r="4" fill="#0" id="circle332"/>
	<circle cx="580.714" cy="333.365" r="4" fill="#0" id="circle333"/>
	<circle cx="580.714" cy="339.874" r="4" fill="#0" id="circle334"/>
	<circle cx="580.714" cy="535.15" r="4" fill="#0" id="circle335"/>
	<circle cx="582.016" cy="141.344" r="4" fill="#0" id="circle336"/>
	<circle cx="583.969" cy="147.853" r="4" fill="#0" id="circle337"/>
	<circle cx="583.969" cy="300.819" r="4" fill="#0" id="circle338"/>
	<circle cx="583.969" cy="307.328" r="4" fill="#0" id="circle339"/>
	<circle cx="583.969" cy="313.837" r="4" fill="#0" id="circle340"/>
	<circle cx="583.969" cy="320.346" r="4" fill="#0" id="circle341"/>
	<circle cx="583.969" cy="410.824" r="4" fill="#0" id="circle342"/>
	<circle cx="585.921" cy="530.593" r="4" fill="#0" id="circle343"/>
	<circle cx="587.223" cy="153.711" r="4" fill="#0" id="circle344"/>
	<circle cx="587.223" cy="160.22" r="4" fill="#0" id="circle345"/>
	<circle cx="587.223" cy="166.73" r="4" fill="#0" id="circle346"/>
	<circle cx="587.223" cy="173.239" r="4" fill="#0" id="circle347"/>
	<circle cx="587.223" cy="278.037" r="4" fill="#0" id="circle348"/>
	<circle cx="587.223" cy="284.546" r="4" fill="#0" id="circle349"/>
	<circle cx="587.223" cy="291.055" r="4" fill="#0" id="circle350"/>
	<circle cx="587.223" cy="416.682" r="4" fill="#0" id="circle351"/>
	<circle cx="589.176" cy="524.084" r="4" fill="#0" id="circle352"/>
	<circle cx="590.478" cy="179.097" r="4" fill="#0" id="circle353"/>
	<circle cx="590.478" cy="185.606" r="4" fill="#0" id="circle354"/>
	<circle cx="590.478" cy="192.115" r="4" fill="#0" id="circle355"/>
	<circle cx="590.478" cy="198.625" r="4" fill="#0" id="circle356"/>
	<circle cx="590.478" cy="205.134" r="4" fill="#0" id="circle357"/>
	<circle cx="590.478" cy="211.643" r="4" fill="#0" id="circle358"/>
	<circle cx="590.478" cy="218.152" r="4" fill="#0" id="circle359"/>
	<circle cx="590.478" cy="224.661" r="4" fill="#0" id="circle360"/>
	<circle cx="590.478" cy="231.171" r="4" fill="#0" id="circle361"/>
	<circle cx="590.478" cy="237.68" r="4" fill="#0" id="circle362"/>
	<circle cx="590.478" cy="244.189" r="4" fill="#0" id="circle363"/>
	<circle cx="590.478" cy="250.698" r="4" fill="#0" id="circle364"/>
	<circle cx="590.478" cy="257.207" r="4" fill="#0" id="circle365"/>
	<circle cx="590.478" cy="263.717" r="4" fill="#0" id="circle366"/>
	<circle cx="590.478" cy="270.226" r="4" fill="#0" id="circle367"/>
	<circle cx="590.478" cy="422.541" r="4" fill="#0" id="circle368"/>
	<circle cx="593.732" cy="515.622" r="4" fill="#0" id="circle369"/>
	<circle cx="595.034" cy="427.748" r="4" fill="#0" id="circle370"/>
	<circle cx="596.987" cy="434.257" r="4" fill="#0" id="circle371"/>
	<circle cx="596.987" cy="509.113" r="4" fill="#0" id="circle372"/>
	<circle cx="600.241" cy="440.115" r="4" fill="#0" id="circle373"/>
	<circle cx="600.241" cy="446.625" r="4" fill="#0" id="circle374"/>
	<circle cx="600.241" cy="453.134" r="4" fill="#0" id="circle375"/>
	<circle cx="603.496" cy="458.992" r="4" fill="#0" id="circle376"/>
	<circle cx="603.496" cy="465.501" r="4" fill="#0" id="circle377"/>
	<circle cx="603.496" cy="472.01" r="4" fill="#0" id="circle378"/>
	<circle cx="603.496" cy="478.52" r="4" fill="#0" id="circle379"/>
	<circle cx="603.496" cy="485.029" r="4" fill="#0" id="circle380"/>
	<circle cx="603.496" cy="491.538" r="4" fill="#0" id="circle381"/>
	<circle cx="603.496" cy="498.047" r="4" fill="#0" id="circle382"/>
	<circle cx="603.496" cy="504.556" r="4" fill="#0" id="circle383"/>
	</g>
</svg>