<?xml version="1.0" encoding="UTF-8" standalone="no"?>
<!-- Created with CurveBenchmark -->
<svg
	xmlns:dc="http://purl.org/dc/elements/1.1/"
	xmlns:cc="http://creativecommons.org/ns#"
	xmlns:rdf="http://www.w3.org/1999/02/22-rdf-syntax-ns#"
	xmlns:svg="http://www.w3.org/2000/svg"
	xmlns="http://www.w3.org/2000/svg"
	xmlns:sodipodi="http://sodipodi.sourceforge.net/DTD/sodipodi-0.dtd"
	xmlns:inkscape="http://www.inkscape.org/namespaces/inkscape"
	width="1000"
	height="1000"
	id="svg2"
	version="1.1"
	sodipodi:docname="manifold/discur-mig29.png.txt">
<defs
	id="defs4" />
<metadata
	id="metadata7">
	<rdf:RDF>
		<cc:Work
			rdf:about="">
			<dc:format>image/svg+xml</dc:format>
			<dc:type
				rdf:resource="http://purl.org/dc/dcmitype/StillImage" />
			<dc:title></dc:title>
		</cc:Work>
	</rdf:RDF>
</metadata>
<g
	inkscape:label="Layer 1"
	inkscape:groupmode="layer"
	id="layer1">
	<path style="fill:none;stroke:red;stroke-width:1px;stroke-linecap:butt;stroke-linejoin:miter;stroke-opacity:1" d="M 4,432.287 17.5427,418.744 z" id="boundary" inkscape:connector-curvature="0" />
	<path style="fill:none;stroke:red;stroke-width:1px;stroke-linecap:butt;stroke-linejoin:miter;stroke-opacity:1" d="M 4,432.287 20.9283,437.365 z" id="boundary" inkscape:connector-curvature="0" />
	<path style="fill:none;stroke:red;stroke-width:1px;stroke-linecap:butt;stroke-linejoin:miter;stroke-opacity:1" d="M 17.5427,418.744 34.471,410.28 z" id="boundary" inkscape:connector-curvature="0" />
	<path style="fill:none;stroke:red;stroke-width:1px;stroke-linecap:butt;stroke-linejoin:miter;stroke-opacity:1" d="M 20.9283,437.365 36.1638,445.829 z" id="boundary" inkscape:connector-curvature="0" />
	<path style="fill:none;stroke:red;stroke-width:1px;stroke-linecap:butt;stroke-linejoin:miter;stroke-opacity:1" d="M 34.471,410.28 51.3993,410.28 z" id="boundary" inkscape:connector-curvature="0" />
	<path style="fill:none;stroke:red;stroke-width:1px;stroke-linecap:butt;stroke-linejoin:miter;stroke-opacity:1" d="M 36.1638,445.829 53.0922,445.829 z" id="boundary" inkscape:connector-curvature="0" />
	<path style="fill:none;stroke:red;stroke-width:1px;stroke-linecap:butt;stroke-linejoin:miter;stroke-opacity:1" d="M 51.3993,410.28 68.3276,401.816 z" id="boundary" inkscape:connector-curvature="0" />
	<path style="fill:none;stroke:red;stroke-width:1px;stroke-linecap:butt;stroke-linejoin:miter;stroke-opacity:1" d="M 53.0922,445.829 68.3276,454.294 z" id="boundary" inkscape:connector-curvature="0" />
	<path style="fill:none;stroke:red;stroke-width:1px;stroke-linecap:butt;stroke-linejoin:miter;stroke-opacity:1" d="M 68.3276,401.816 85.256,401.816 z" id="boundary" inkscape:connector-curvature="0" />
	<path style="fill:none;stroke:red;stroke-width:1px;stroke-linecap:butt;stroke-linejoin:miter;stroke-opacity:1" d="M 68.3276,454.294 85.256,454.294 z" id="boundary" inkscape:connector-curvature="0" />
	<path style="fill:none;stroke:red;stroke-width:1px;stroke-linecap:butt;stroke-linejoin:miter;stroke-opacity:1" d="M 85.256,401.816 102.184,401.816 z" id="boundary" inkscape:connector-curvature="0" />
	<path style="fill:none;stroke:red;stroke-width:1px;stroke-linecap:butt;stroke-linejoin:miter;stroke-opacity:1" d="M 85.256,454.294 102.184,461.065 z" id="boundary" inkscape:connector-curvature="0" />
	<path style="fill:none;stroke:red;stroke-width:1px;stroke-linecap:butt;stroke-linejoin:miter;stroke-opacity:1" d="M 102.184,401.816 119.113,393.352 z" id="boundary" inkscape:connector-curvature="0" />
	<path style="fill:none;stroke:red;stroke-width:1px;stroke-linecap:butt;stroke-linejoin:miter;stroke-opacity:1" d="M 102.184,461.065 119.113,462.758 z" id="boundary" inkscape:connector-curvature="0" />
	<path style="fill:none;stroke:red;stroke-width:1px;stroke-linecap:butt;stroke-linejoin:miter;stroke-opacity:1" d="M 119.113,393.352 136.041,393.352 z" id="boundary" inkscape:connector-curvature="0" />
	<path style="fill:none;stroke:red;stroke-width:1px;stroke-linecap:butt;stroke-linejoin:miter;stroke-opacity:1" d="M 119.113,462.758 136.041,462.758 z" id="boundary" inkscape:connector-curvature="0" />
	<path style="fill:none;stroke:red;stroke-width:1px;stroke-linecap:butt;stroke-linejoin:miter;stroke-opacity:1" d="M 136.041,393.352 152.969,393.352 z" id="boundary" inkscape:connector-curvature="0" />
	<path style="fill:none;stroke:red;stroke-width:1px;stroke-linecap:butt;stroke-linejoin:miter;stroke-opacity:1" d="M 136.041,462.758 152.969,462.758 z" id="boundary" inkscape:connector-curvature="0" />
	<path style="fill:none;stroke:red;stroke-width:1px;stroke-linecap:butt;stroke-linejoin:miter;stroke-opacity:1" d="M 152.969,393.352 169.898,393.352 z" id="boundary" inkscape:connector-curvature="0" />
	<path style="fill:none;stroke:red;stroke-width:1px;stroke-linecap:butt;stroke-linejoin:miter;stroke-opacity:1" d="M 152.969,462.758 169.898,462.758 z" id="boundary" inkscape:connector-curvature="0" />
	<path style="fill:none;stroke:red;stroke-width:1px;stroke-linecap:butt;stroke-linejoin:miter;stroke-opacity:1" d="M 169.898,393.352 186.826,384.887 z" id="boundary" inkscape:connector-curvature="0" />
	<path style="fill:none;stroke:red;stroke-width:1px;stroke-linecap:butt;stroke-linejoin:miter;stroke-opacity:1" d="M 169.898,462.758 186.826,462.758 z" id="boundary" inkscape:connector-curvature="0" />
	<path style="fill:none;stroke:red;stroke-width:1px;stroke-linecap:butt;stroke-linejoin:miter;stroke-opacity:1" d="M 186.826,384.887 203.754,376.423 z" id="boundary" inkscape:connector-curvature="0" />
	<path style="fill:none;stroke:red;stroke-width:1px;stroke-linecap:butt;stroke-linejoin:miter;stroke-opacity:1" d="M 186.826,462.758 202.061,471.222 z" id="boundary" inkscape:connector-curvature="0" />
	<path style="fill:none;stroke:red;stroke-width:1px;stroke-linecap:butt;stroke-linejoin:miter;stroke-opacity:1" d="M 202.061,471.222 217.297,479.686 z" id="boundary" inkscape:connector-curvature="0" />
	<path style="fill:none;stroke:red;stroke-width:1px;stroke-linecap:butt;stroke-linejoin:miter;stroke-opacity:1" d="M 203.754,376.423 220.683,367.959 z" id="boundary" inkscape:connector-curvature="0" />
	<path style="fill:none;stroke:red;stroke-width:1px;stroke-linecap:butt;stroke-linejoin:miter;stroke-opacity:1" d="M 217.297,479.686 232.532,488.15 z" id="boundary" inkscape:connector-curvature="0" />
	<path style="fill:none;stroke:red;stroke-width:1px;stroke-linecap:butt;stroke-linejoin:miter;stroke-opacity:1" d="M 220.683,367.959 237.611,359.495 z" id="boundary" inkscape:connector-curvature="0" />
	<path style="fill:none;stroke:red;stroke-width:1px;stroke-linecap:butt;stroke-linejoin:miter;stroke-opacity:1" d="M 232.532,488.15 247.768,496.614 z" id="boundary" inkscape:connector-curvature="0" />
	<path style="fill:none;stroke:red;stroke-width:1px;stroke-linecap:butt;stroke-linejoin:miter;stroke-opacity:1" d="M 237.611,359.495 254.539,351.031 z" id="boundary" inkscape:connector-curvature="0" />
	<path style="fill:none;stroke:red;stroke-width:1px;stroke-linecap:butt;stroke-linejoin:miter;stroke-opacity:1" d="M 247.768,496.614 263.003,505.078 z" id="boundary" inkscape:connector-curvature="0" />
	<path style="fill:none;stroke:red;stroke-width:1px;stroke-linecap:butt;stroke-linejoin:miter;stroke-opacity:1" d="M 254.539,351.031 271.468,342.567 z" id="boundary" inkscape:connector-curvature="0" />
	<path style="fill:none;stroke:red;stroke-width:1px;stroke-linecap:butt;stroke-linejoin:miter;stroke-opacity:1" d="M 263.003,505.078 279.932,511.85 z" id="boundary" inkscape:connector-curvature="0" />
	<path style="fill:none;stroke:red;stroke-width:1px;stroke-linecap:butt;stroke-linejoin:miter;stroke-opacity:1" d="M 271.468,342.567 288.396,342.567 z" id="boundary" inkscape:connector-curvature="0" />
	<path style="fill:none;stroke:red;stroke-width:1px;stroke-linecap:butt;stroke-linejoin:miter;stroke-opacity:1" d="M 279.932,511.85 296.86,513.543 z" id="boundary" inkscape:connector-curvature="0" />
	<path style="fill:none;stroke:red;stroke-width:1px;stroke-linecap:butt;stroke-linejoin:miter;stroke-opacity:1" d="M 288.396,342.567 303.631,334.102 z" id="boundary" inkscape:connector-curvature="0" />
	<path style="fill:none;stroke:red;stroke-width:1px;stroke-linecap:butt;stroke-linejoin:miter;stroke-opacity:1" d="M 296.86,513.543 312.096,522.007 z" id="boundary" inkscape:connector-curvature="0" />
	<path style="fill:none;stroke:red;stroke-width:1px;stroke-linecap:butt;stroke-linejoin:miter;stroke-opacity:1" d="M 303.631,334.102 320.56,327.331 z" id="boundary" inkscape:connector-curvature="0" />
	<path style="fill:none;stroke:red;stroke-width:1px;stroke-linecap:butt;stroke-linejoin:miter;stroke-opacity:1" d="M 312.096,522.007 329.024,522.007 z" id="boundary" inkscape:connector-curvature="0" />
	<path style="fill:none;stroke:red;stroke-width:1px;stroke-linecap:butt;stroke-linejoin:miter;stroke-opacity:1" d="M 320.56,327.331 337.488,325.638 z" id="boundary" inkscape:connector-curvature="0" />
	<path style="fill:none;stroke:red;stroke-width:1px;stroke-linecap:butt;stroke-linejoin:miter;stroke-opacity:1" d="M 329.024,522.007 344.259,530.471 z" id="boundary" inkscape:connector-curvature="0" />
	<path style="fill:none;stroke:red;stroke-width:1px;stroke-linecap:butt;stroke-linejoin:miter;stroke-opacity:1" d="M 337.488,325.638 354.416,318.867 z" id="boundary" inkscape:connector-curvature="0" />
	<path style="fill:none;stroke:red;stroke-width:1px;stroke-linecap:butt;stroke-linejoin:miter;stroke-opacity:1" d="M 344.259,530.471 361.188,530.471 z" id="boundary" inkscape:connector-curvature="0" />
	<path style="fill:none;stroke:red;stroke-width:1px;stroke-linecap:butt;stroke-linejoin:miter;stroke-opacity:1" d="M 354.416,318.867 371.345,317.174 z" id="boundary" inkscape:connector-curvature="0" />
	<path style="fill:none;stroke:red;stroke-width:1px;stroke-linecap:butt;stroke-linejoin:miter;stroke-opacity:1" d="M 361.188,530.471 376.423,538.935 z" id="boundary" inkscape:connector-curvature="0" />
	<path style="fill:none;stroke:red;stroke-width:1px;stroke-linecap:butt;stroke-linejoin:miter;stroke-opacity:1" d="M 371.345,317.174 388.273,317.174 z" id="boundary" inkscape:connector-curvature="0" />
	<path style="fill:none;stroke:red;stroke-width:1px;stroke-linecap:butt;stroke-linejoin:miter;stroke-opacity:1" d="M 376.423,538.935 393.352,538.935 z" id="boundary" inkscape:connector-curvature="0" />
	<path style="fill:none;stroke:red;stroke-width:1px;stroke-linecap:butt;stroke-linejoin:miter;stroke-opacity:1" d="M 388.273,317.174 403.509,308.71 z" id="boundary" inkscape:connector-curvature="0" />
	<path style="fill:none;stroke:red;stroke-width:1px;stroke-linecap:butt;stroke-linejoin:miter;stroke-opacity:1" d="M 393.352,538.935 410.28,538.935 z" id="boundary" inkscape:connector-curvature="0" />
	<path style="fill:none;stroke:red;stroke-width:1px;stroke-linecap:butt;stroke-linejoin:miter;stroke-opacity:1" d="M 403.509,308.71 420.437,308.71 z" id="boundary" inkscape:connector-curvature="0" />
	<path style="fill:none;stroke:red;stroke-width:1px;stroke-linecap:butt;stroke-linejoin:miter;stroke-opacity:1" d="M 410.28,538.935 425.515,547.399 z" id="boundary" inkscape:connector-curvature="0" />
	<path style="fill:none;stroke:red;stroke-width:1px;stroke-linecap:butt;stroke-linejoin:miter;stroke-opacity:1" d="M 420.437,308.71 437.365,308.71 z" id="boundary" inkscape:connector-curvature="0" />
	<path style="fill:none;stroke:red;stroke-width:1px;stroke-linecap:butt;stroke-linejoin:miter;stroke-opacity:1" d="M 425.515,547.399 442.444,547.399 z" id="boundary" inkscape:connector-curvature="0" />
	<path style="fill:none;stroke:red;stroke-width:1px;stroke-linecap:butt;stroke-linejoin:miter;stroke-opacity:1" d="M 437.365,308.71 452.601,296.86 z" id="boundary" inkscape:connector-curvature="0" />
	<path style="fill:none;stroke:red;stroke-width:1px;stroke-linecap:butt;stroke-linejoin:miter;stroke-opacity:1" d="M 442.444,547.399 457.679,555.863 z" id="boundary" inkscape:connector-curvature="0" />
	<path style="fill:none;stroke:red;stroke-width:1px;stroke-linecap:butt;stroke-linejoin:miter;stroke-opacity:1" d="M 452.601,296.86 461.065,279.932 z" id="boundary" inkscape:connector-curvature="0" />
	<path style="fill:none;stroke:red;stroke-width:1px;stroke-linecap:butt;stroke-linejoin:miter;stroke-opacity:1" d="M 457.679,555.863 471.222,567.713 z" id="boundary" inkscape:connector-curvature="0" />
	<path style="fill:none;stroke:red;stroke-width:1px;stroke-linecap:butt;stroke-linejoin:miter;stroke-opacity:1" d="M 461.065,279.932 474.608,266.389 z" id="boundary" inkscape:connector-curvature="0" />
	<path style="fill:none;stroke:red;stroke-width:1px;stroke-linecap:butt;stroke-linejoin:miter;stroke-opacity:1" d="M 471.222,567.713 483.072,581.256 z" id="boundary" inkscape:connector-curvature="0" />
	<path style="fill:none;stroke:red;stroke-width:1px;stroke-linecap:butt;stroke-linejoin:miter;stroke-opacity:1" d="M 474.608,266.389 488.15,252.846 z" id="boundary" inkscape:connector-curvature="0" />
	<path style="fill:none;stroke:red;stroke-width:1px;stroke-linecap:butt;stroke-linejoin:miter;stroke-opacity:1" d="M 483.072,581.256 494.922,594.799 z" id="boundary" inkscape:connector-curvature="0" />
	<path style="fill:none;stroke:red;stroke-width:1px;stroke-linecap:butt;stroke-linejoin:miter;stroke-opacity:1" d="M 488.15,252.846 496.614,235.918 z" id="boundary" inkscape:connector-curvature="0" />
	<path style="fill:none;stroke:red;stroke-width:1px;stroke-linecap:butt;stroke-linejoin:miter;stroke-opacity:1" d="M 494.922,594.799 503.386,610.034 z" id="boundary" inkscape:connector-curvature="0" />
	<path style="fill:none;stroke:red;stroke-width:1px;stroke-linecap:butt;stroke-linejoin:miter;stroke-opacity:1" d="M 496.614,235.918 510.157,224.068 z" id="boundary" inkscape:connector-curvature="0" />
	<path style="fill:none;stroke:red;stroke-width:1px;stroke-linecap:butt;stroke-linejoin:miter;stroke-opacity:1" d="M 503.386,610.034 516.928,621.884 z" id="boundary" inkscape:connector-curvature="0" />
	<path style="fill:none;stroke:red;stroke-width:1px;stroke-linecap:butt;stroke-linejoin:miter;stroke-opacity:1" d="M 510.157,224.068 520.314,203.754 z" id="boundary" inkscape:connector-curvature="0" />
	<path style="fill:none;stroke:red;stroke-width:1px;stroke-linecap:butt;stroke-linejoin:miter;stroke-opacity:1" d="M 516.928,621.884 528.778,635.427 z" id="boundary" inkscape:connector-curvature="0" />
	<path style="fill:none;stroke:red;stroke-width:1px;stroke-linecap:butt;stroke-linejoin:miter;stroke-opacity:1" d="M 520.314,203.754 533.857,190.212 z" id="boundary" inkscape:connector-curvature="0" />
	<path style="fill:none;stroke:red;stroke-width:1px;stroke-linecap:butt;stroke-linejoin:miter;stroke-opacity:1" d="M 528.778,635.427 537.242,650.662 z" id="boundary" inkscape:connector-curvature="0" />
	<path style="fill:none;stroke:red;stroke-width:1px;stroke-linecap:butt;stroke-linejoin:miter;stroke-opacity:1" d="M 533.857,190.212 545.706,169.898 z" id="boundary" inkscape:connector-curvature="0" />
	<path style="fill:none;stroke:red;stroke-width:1px;stroke-linecap:butt;stroke-linejoin:miter;stroke-opacity:1" d="M 537.242,650.662 549.092,664.205 z" id="boundary" inkscape:connector-curvature="0" />
	<path style="fill:none;stroke:red;stroke-width:1px;stroke-linecap:butt;stroke-linejoin:miter;stroke-opacity:1" d="M 545.706,169.898 559.249,156.355 z" id="boundary" inkscape:connector-curvature="0" />
	<path style="fill:none;stroke:red;stroke-width:1px;stroke-linecap:butt;stroke-linejoin:miter;stroke-opacity:1" d="M 549.092,664.205 562.635,674.362 z" id="boundary" inkscape:connector-curvature="0" />
	<path style="fill:none;stroke:red;stroke-width:1px;stroke-linecap:butt;stroke-linejoin:miter;stroke-opacity:1" d="M 559.249,156.355 572.792,142.812 z" id="boundary" inkscape:connector-curvature="0" />
	<path style="fill:none;stroke:red;stroke-width:1px;stroke-linecap:butt;stroke-linejoin:miter;stroke-opacity:1" d="M 562.635,674.362 572.792,687.904 z" id="boundary" inkscape:connector-curvature="0" />
	<path style="fill:none;stroke:red;stroke-width:1px;stroke-linecap:butt;stroke-linejoin:miter;stroke-opacity:1" d="M 572.792,142.812 581.256,125.884 z" id="boundary" inkscape:connector-curvature="0" />
	<path style="fill:none;stroke:red;stroke-width:1px;stroke-linecap:butt;stroke-linejoin:miter;stroke-opacity:1" d="M 572.792,687.904 581.256,703.14 z" id="boundary" inkscape:connector-curvature="0" />
	<path style="fill:none;stroke:red;stroke-width:1px;stroke-linecap:butt;stroke-linejoin:miter;stroke-opacity:1" d="M 581.256,125.884 594.799,114.034 z" id="boundary" inkscape:connector-curvature="0" />
	<path style="fill:none;stroke:red;stroke-width:1px;stroke-linecap:butt;stroke-linejoin:miter;stroke-opacity:1" d="M 581.256,703.14 593.106,716.683 z" id="boundary" inkscape:connector-curvature="0" />
	<path style="fill:none;stroke:red;stroke-width:1px;stroke-linecap:butt;stroke-linejoin:miter;stroke-opacity:1" d="M 593.106,716.683 606.648,728.532 z" id="boundary" inkscape:connector-curvature="0" />
	<path style="fill:none;stroke:red;stroke-width:1px;stroke-linecap:butt;stroke-linejoin:miter;stroke-opacity:1" d="M 594.799,114.034 606.648,100.491 z" id="boundary" inkscape:connector-curvature="0" />
	<path style="fill:none;stroke:red;stroke-width:1px;stroke-linecap:butt;stroke-linejoin:miter;stroke-opacity:1" d="M 606.648,100.491 615.113,83.5631 z" id="boundary" inkscape:connector-curvature="0" />
	<path style="fill:none;stroke:red;stroke-width:1px;stroke-linecap:butt;stroke-linejoin:miter;stroke-opacity:1" d="M 606.648,728.532 613.42,745.461 z" id="boundary" inkscape:connector-curvature="0" />
	<path style="fill:none;stroke:red;stroke-width:1px;stroke-linecap:butt;stroke-linejoin:miter;stroke-opacity:1" d="M 613.42,745.461 626.962,757.311 z" id="boundary" inkscape:connector-curvature="0" />
	<path style="fill:none;stroke:red;stroke-width:1px;stroke-linecap:butt;stroke-linejoin:miter;stroke-opacity:1" d="M 615.113,83.5631 628.655,71.7133 z" id="boundary" inkscape:connector-curvature="0" />
	<path style="fill:none;stroke:red;stroke-width:1px;stroke-linecap:butt;stroke-linejoin:miter;stroke-opacity:1" d="M 626.962,757.311 638.812,770.853 z" id="boundary" inkscape:connector-curvature="0" />
	<path style="fill:none;stroke:red;stroke-width:1px;stroke-linecap:butt;stroke-linejoin:miter;stroke-opacity:1" d="M 628.655,71.7133 638.812,51.3993 z" id="boundary" inkscape:connector-curvature="0" />
	<path style="fill:none;stroke:red;stroke-width:1px;stroke-linecap:butt;stroke-linejoin:miter;stroke-opacity:1" d="M 638.812,51.3993 652.355,37.8567 z" id="boundary" inkscape:connector-curvature="0" />
	<path style="fill:none;stroke:red;stroke-width:1px;stroke-linecap:butt;stroke-linejoin:miter;stroke-opacity:1" d="M 638.812,770.853 652.355,782.703 z" id="boundary" inkscape:connector-curvature="0" />
	<path style="fill:none;stroke:red;stroke-width:1px;stroke-linecap:butt;stroke-linejoin:miter;stroke-opacity:1" d="M 652.355,37.8567 665.898,24.314 z" id="boundary" inkscape:connector-curvature="0" />
	<path style="fill:none;stroke:red;stroke-width:1px;stroke-linecap:butt;stroke-linejoin:miter;stroke-opacity:1" d="M 652.355,782.703 659.126,799.631 z" id="boundary" inkscape:connector-curvature="0" />
	<path style="fill:none;stroke:red;stroke-width:1px;stroke-linecap:butt;stroke-linejoin:miter;stroke-opacity:1" d="M 659.126,799.631 672.669,809.788 z" id="boundary" inkscape:connector-curvature="0" />
	<path style="fill:none;stroke:red;stroke-width:1px;stroke-linecap:butt;stroke-linejoin:miter;stroke-opacity:1" d="M 665.898,24.314 679.44,12.4642 z" id="boundary" inkscape:connector-curvature="0" />
	<path style="fill:none;stroke:red;stroke-width:1px;stroke-linecap:butt;stroke-linejoin:miter;stroke-opacity:1" d="M 672.669,809.788 682.826,823.331 z" id="boundary" inkscape:connector-curvature="0" />
	<path style="fill:none;stroke:red;stroke-width:1px;stroke-linecap:butt;stroke-linejoin:miter;stroke-opacity:1" d="M 679.44,12.4642 694.676,4 z" id="boundary" inkscape:connector-curvature="0" />
	<path style="fill:none;stroke:red;stroke-width:1px;stroke-linecap:butt;stroke-linejoin:miter;stroke-opacity:1" d="M 682.826,823.331 696.369,835.181 z" id="boundary" inkscape:connector-curvature="0" />
	<path style="fill:none;stroke:red;stroke-width:1px;stroke-linecap:butt;stroke-linejoin:miter;stroke-opacity:1" d="M 694.676,4 711.604,4 z" id="boundary" inkscape:connector-curvature="0" />
	<path style="fill:none;stroke:red;stroke-width:1px;stroke-linecap:butt;stroke-linejoin:miter;stroke-opacity:1" d="M 696.369,835.181 713.297,835.181 z" id="boundary" inkscape:connector-curvature="0" />
	<path style="fill:none;stroke:red;stroke-width:1px;stroke-linecap:butt;stroke-linejoin:miter;stroke-opacity:1" d="M 711.604,4 728.532,4 z" id="boundary" inkscape:connector-curvature="0" />
	<path style="fill:none;stroke:red;stroke-width:1px;stroke-linecap:butt;stroke-linejoin:miter;stroke-opacity:1" d="M 713.297,835.181 730.225,835.181 z" id="boundary" inkscape:connector-curvature="0" />
	<path style="fill:none;stroke:red;stroke-width:1px;stroke-linecap:butt;stroke-linejoin:miter;stroke-opacity:1" d="M 728.532,4 745.461,4 z" id="boundary" inkscape:connector-curvature="0" />
	<path style="fill:none;stroke:red;stroke-width:1px;stroke-linecap:butt;stroke-linejoin:miter;stroke-opacity:1" d="M 730.225,835.181 745.461,843.645 z" id="boundary" inkscape:connector-curvature="0" />
	<path style="fill:none;stroke:red;stroke-width:1px;stroke-linecap:butt;stroke-linejoin:miter;stroke-opacity:1" d="M 733.611,234.225 733.611,251.154 z" id="boundary" inkscape:connector-curvature="0" />
	<path style="fill:none;stroke:red;stroke-width:1px;stroke-linecap:butt;stroke-linejoin:miter;stroke-opacity:1" d="M 733.611,234.225 742.075,208.833 z" id="boundary" inkscape:connector-curvature="0" />
	<path style="fill:none;stroke:red;stroke-width:1px;stroke-linecap:butt;stroke-linejoin:miter;stroke-opacity:1" d="M 733.611,251.154 733.611,268.082 z" id="boundary" inkscape:connector-curvature="0" />
	<path style="fill:none;stroke:red;stroke-width:1px;stroke-linecap:butt;stroke-linejoin:miter;stroke-opacity:1" d="M 733.611,268.082 733.611,285.01 z" id="boundary" inkscape:connector-curvature="0" />
	<path style="fill:none;stroke:red;stroke-width:1px;stroke-linecap:butt;stroke-linejoin:miter;stroke-opacity:1" d="M 733.611,285.01 750.539,291.782 z" id="boundary" inkscape:connector-curvature="0" />
	<path style="fill:none;stroke:red;stroke-width:1px;stroke-linecap:butt;stroke-linejoin:miter;stroke-opacity:1" d="M 733.611,555.863 733.611,572.792 z" id="boundary" inkscape:connector-curvature="0" />
	<path style="fill:none;stroke:red;stroke-width:1px;stroke-linecap:butt;stroke-linejoin:miter;stroke-opacity:1" d="M 733.611,555.863 748.846,547.399 z" id="boundary" inkscape:connector-curvature="0" />
	<path style="fill:none;stroke:red;stroke-width:1px;stroke-linecap:butt;stroke-linejoin:miter;stroke-opacity:1" d="M 733.611,572.792 742.075,588.027 z" id="boundary" inkscape:connector-curvature="0" />
	<path style="fill:none;stroke:red;stroke-width:1px;stroke-linecap:butt;stroke-linejoin:miter;stroke-opacity:1" d="M 742.075,158.048 742.075,174.976 z" id="boundary" inkscape:connector-curvature="0" />
	<path style="fill:none;stroke:red;stroke-width:1px;stroke-linecap:butt;stroke-linejoin:miter;stroke-opacity:1" d="M 742.075,158.048 750.539,132.655 z" id="boundary" inkscape:connector-curvature="0" />
	<path style="fill:none;stroke:red;stroke-width:1px;stroke-linecap:butt;stroke-linejoin:miter;stroke-opacity:1" d="M 742.075,174.976 742.075,191.904 z" id="boundary" inkscape:connector-curvature="0" />
	<path style="fill:none;stroke:red;stroke-width:1px;stroke-linecap:butt;stroke-linejoin:miter;stroke-opacity:1" d="M 742.075,191.904 742.075,208.833 z" id="boundary" inkscape:connector-curvature="0" />
	<path style="fill:none;stroke:red;stroke-width:1px;stroke-linecap:butt;stroke-linejoin:miter;stroke-opacity:1" d="M 742.075,588.027 742.075,604.956 z" id="boundary" inkscape:connector-curvature="0" />
	<path style="fill:none;stroke:red;stroke-width:1px;stroke-linecap:butt;stroke-linejoin:miter;stroke-opacity:1" d="M 742.075,604.956 742.075,621.884 z" id="boundary" inkscape:connector-curvature="0" />
	<path style="fill:none;stroke:red;stroke-width:1px;stroke-linecap:butt;stroke-linejoin:miter;stroke-opacity:1" d="M 742.075,621.884 750.539,637.119 z" id="boundary" inkscape:connector-curvature="0" />
	<path style="fill:none;stroke:red;stroke-width:1px;stroke-linecap:butt;stroke-linejoin:miter;stroke-opacity:1" d="M 745.461,4 762.389,4 z" id="boundary" inkscape:connector-curvature="0" />
	<path style="fill:none;stroke:red;stroke-width:1px;stroke-linecap:butt;stroke-linejoin:miter;stroke-opacity:1" d="M 745.461,843.645 760.696,835.181 z" id="boundary" inkscape:connector-curvature="0" />
	<path style="fill:none;stroke:red;stroke-width:1px;stroke-linecap:butt;stroke-linejoin:miter;stroke-opacity:1" d="M 748.846,547.399 765.775,547.399 z" id="boundary" inkscape:connector-curvature="0" />
	<path style="fill:none;stroke:red;stroke-width:1px;stroke-linecap:butt;stroke-linejoin:miter;stroke-opacity:1" d="M 750.539,81.8703 750.539,98.7986 z" id="boundary" inkscape:connector-curvature="0" />
	<path style="fill:none;stroke:red;stroke-width:1px;stroke-linecap:butt;stroke-linejoin:miter;stroke-opacity:1" d="M 750.539,81.8703 759.003,64.942 z" id="boundary" inkscape:connector-curvature="0" />
	<path style="fill:none;stroke:red;stroke-width:1px;stroke-linecap:butt;stroke-linejoin:miter;stroke-opacity:1" d="M 750.539,98.7986 750.539,115.727 z" id="boundary" inkscape:connector-curvature="0" />
	<path style="fill:none;stroke:red;stroke-width:1px;stroke-linecap:butt;stroke-linejoin:miter;stroke-opacity:1" d="M 750.539,115.727 750.539,132.655 z" id="boundary" inkscape:connector-curvature="0" />
	<path style="fill:none;stroke:red;stroke-width:1px;stroke-linecap:butt;stroke-linejoin:miter;stroke-opacity:1" d="M 750.539,291.782 767.468,291.782 z" id="boundary" inkscape:connector-curvature="0" />
	<path style="fill:none;stroke:red;stroke-width:1px;stroke-linecap:butt;stroke-linejoin:miter;stroke-opacity:1" d="M 750.539,637.119 750.539,654.048 z" id="boundary" inkscape:connector-curvature="0" />
	<path style="fill:none;stroke:red;stroke-width:1px;stroke-linecap:butt;stroke-linejoin:miter;stroke-opacity:1" d="M 750.539,654.048 750.539,670.976 z" id="boundary" inkscape:connector-curvature="0" />
	<path style="fill:none;stroke:red;stroke-width:1px;stroke-linecap:butt;stroke-linejoin:miter;stroke-opacity:1" d="M 750.539,670.976 759.003,686.212 z" id="boundary" inkscape:connector-curvature="0" />
	<path style="fill:none;stroke:red;stroke-width:1px;stroke-linecap:butt;stroke-linejoin:miter;stroke-opacity:1" d="M 759.003,31.0853 759.003,48.0137 z" id="boundary" inkscape:connector-curvature="0" />
	<path style="fill:none;stroke:red;stroke-width:1px;stroke-linecap:butt;stroke-linejoin:miter;stroke-opacity:1" d="M 759.003,31.0853 762.389,4 z" id="boundary" inkscape:connector-curvature="0" />
	<path style="fill:none;stroke:red;stroke-width:1px;stroke-linecap:butt;stroke-linejoin:miter;stroke-opacity:1" d="M 759.003,48.0137 759.003,64.942 z" id="boundary" inkscape:connector-curvature="0" />
	<path style="fill:none;stroke:red;stroke-width:1px;stroke-linecap:butt;stroke-linejoin:miter;stroke-opacity:1" d="M 759.003,686.212 759.003,703.14 z" id="boundary" inkscape:connector-curvature="0" />
	<path style="fill:none;stroke:red;stroke-width:1px;stroke-linecap:butt;stroke-linejoin:miter;stroke-opacity:1" d="M 759.003,703.14 765.775,720.068 z" id="boundary" inkscape:connector-curvature="0" />
	<path style="fill:none;stroke:red;stroke-width:1px;stroke-linecap:butt;stroke-linejoin:miter;stroke-opacity:1" d="M 760.696,835.181 777.625,835.181 z" id="boundary" inkscape:connector-curvature="0" />
	<path style="fill:none;stroke:red;stroke-width:1px;stroke-linecap:butt;stroke-linejoin:miter;stroke-opacity:1" d="M 765.775,547.399 782.703,547.399 z" id="boundary" inkscape:connector-curvature="0" />
	<path style="fill:none;stroke:red;stroke-width:1px;stroke-linecap:butt;stroke-linejoin:miter;stroke-opacity:1" d="M 765.775,720.068 767.468,736.997 z" id="boundary" inkscape:connector-curvature="0" />
	<path style="fill:none;stroke:red;stroke-width:1px;stroke-linecap:butt;stroke-linejoin:miter;stroke-opacity:1" d="M 767.468,291.782 784.396,291.782 z" id="boundary" inkscape:connector-curvature="0" />
	<path style="fill:none;stroke:red;stroke-width:1px;stroke-linecap:butt;stroke-linejoin:miter;stroke-opacity:1" d="M 767.468,736.997 767.468,753.925 z" id="boundary" inkscape:connector-curvature="0" />
	<path style="fill:none;stroke:red;stroke-width:1px;stroke-linecap:butt;stroke-linejoin:miter;stroke-opacity:1" d="M 767.468,753.925 775.932,769.16 z" id="boundary" inkscape:connector-curvature="0" />
	<path style="fill:none;stroke:red;stroke-width:1px;stroke-linecap:butt;stroke-linejoin:miter;stroke-opacity:1" d="M 775.932,769.16 775.932,786.089 z" id="boundary" inkscape:connector-curvature="0" />
	<path style="fill:none;stroke:red;stroke-width:1px;stroke-linecap:butt;stroke-linejoin:miter;stroke-opacity:1" d="M 775.932,786.089 775.932,803.017 z" id="boundary" inkscape:connector-curvature="0" />
	<path style="fill:none;stroke:red;stroke-width:1px;stroke-linecap:butt;stroke-linejoin:miter;stroke-opacity:1" d="M 775.932,803.017 784.396,818.253 z" id="boundary" inkscape:connector-curvature="0" />
	<path style="fill:none;stroke:red;stroke-width:1px;stroke-linecap:butt;stroke-linejoin:miter;stroke-opacity:1" d="M 777.625,835.181 784.396,818.253 z" id="boundary" inkscape:connector-curvature="0" />
	<path style="fill:none;stroke:red;stroke-width:1px;stroke-linecap:butt;stroke-linejoin:miter;stroke-opacity:1" d="M 782.703,547.399 797.939,555.863 z" id="boundary" inkscape:connector-curvature="0" />
	<path style="fill:none;stroke:red;stroke-width:1px;stroke-linecap:butt;stroke-linejoin:miter;stroke-opacity:1" d="M 784.396,291.782 799.631,283.317 z" id="boundary" inkscape:connector-curvature="0" />
	<path style="fill:none;stroke:red;stroke-width:1px;stroke-linecap:butt;stroke-linejoin:miter;stroke-opacity:1" d="M 797.939,555.863 813.174,564.328 z" id="boundary" inkscape:connector-curvature="0" />
	<path style="fill:none;stroke:red;stroke-width:1px;stroke-linecap:butt;stroke-linejoin:miter;stroke-opacity:1" d="M 799.631,283.317 814.867,274.853 z" id="boundary" inkscape:connector-curvature="0" />
	<path style="fill:none;stroke:red;stroke-width:1px;stroke-linecap:butt;stroke-linejoin:miter;stroke-opacity:1" d="M 813.174,564.328 826.717,576.177 z" id="boundary" inkscape:connector-curvature="0" />
	<path style="fill:none;stroke:red;stroke-width:1px;stroke-linecap:butt;stroke-linejoin:miter;stroke-opacity:1" d="M 814.867,274.853 826.717,261.311 z" id="boundary" inkscape:connector-curvature="0" />
	<path style="fill:none;stroke:red;stroke-width:1px;stroke-linecap:butt;stroke-linejoin:miter;stroke-opacity:1" d="M 826.717,261.311 840.259,249.461 z" id="boundary" inkscape:connector-curvature="0" />
	<path style="fill:none;stroke:red;stroke-width:1px;stroke-linecap:butt;stroke-linejoin:miter;stroke-opacity:1" d="M 826.717,576.177 838.567,589.72 z" id="boundary" inkscape:connector-curvature="0" />
	<path style="fill:none;stroke:red;stroke-width:1px;stroke-linecap:butt;stroke-linejoin:miter;stroke-opacity:1" d="M 838.567,589.72 852.109,601.57 z" id="boundary" inkscape:connector-curvature="0" />
	<path style="fill:none;stroke:red;stroke-width:1px;stroke-linecap:butt;stroke-linejoin:miter;stroke-opacity:1" d="M 840.259,249.461 852.109,235.918 z" id="boundary" inkscape:connector-curvature="0" />
	<path style="fill:none;stroke:red;stroke-width:1px;stroke-linecap:butt;stroke-linejoin:miter;stroke-opacity:1" d="M 852.109,235.918 865.652,224.068 z" id="boundary" inkscape:connector-curvature="0" />
	<path style="fill:none;stroke:red;stroke-width:1px;stroke-linecap:butt;stroke-linejoin:miter;stroke-opacity:1" d="M 852.109,601.57 863.959,615.113 z" id="boundary" inkscape:connector-curvature="0" />
	<path style="fill:none;stroke:red;stroke-width:1px;stroke-linecap:butt;stroke-linejoin:miter;stroke-opacity:1" d="M 863.959,615.113 880.887,621.884 z" id="boundary" inkscape:connector-curvature="0" />
	<path style="fill:none;stroke:red;stroke-width:1px;stroke-linecap:butt;stroke-linejoin:miter;stroke-opacity:1" d="M 865.652,224.068 877.502,210.526 z" id="boundary" inkscape:connector-curvature="0" />
	<path style="fill:none;stroke:red;stroke-width:1px;stroke-linecap:butt;stroke-linejoin:miter;stroke-opacity:1" d="M 877.502,210.526 891.044,198.676 z" id="boundary" inkscape:connector-curvature="0" />
	<path style="fill:none;stroke:red;stroke-width:1px;stroke-linecap:butt;stroke-linejoin:miter;stroke-opacity:1" d="M 880.887,621.884 892.737,635.427 z" id="boundary" inkscape:connector-curvature="0" />
	<path style="fill:none;stroke:red;stroke-width:1px;stroke-linecap:butt;stroke-linejoin:miter;stroke-opacity:1" d="M 891.044,198.676 906.28,190.212 z" id="boundary" inkscape:connector-curvature="0" />
	<path style="fill:none;stroke:red;stroke-width:1px;stroke-linecap:butt;stroke-linejoin:miter;stroke-opacity:1" d="M 892.737,635.427 906.28,647.276 z" id="boundary" inkscape:connector-curvature="0" />
	<path style="fill:none;stroke:red;stroke-width:1px;stroke-linecap:butt;stroke-linejoin:miter;stroke-opacity:1" d="M 894.43,420.437 902.894,403.509 z" id="boundary" inkscape:connector-curvature="0" />
	<path style="fill:none;stroke:red;stroke-width:1px;stroke-linecap:butt;stroke-linejoin:miter;stroke-opacity:1" d="M 894.43,420.437 902.894,435.672 z" id="boundary" inkscape:connector-curvature="0" />
	<path style="fill:none;stroke:red;stroke-width:1px;stroke-linecap:butt;stroke-linejoin:miter;stroke-opacity:1" d="M 902.894,318.867 919.823,318.867 z" id="boundary" inkscape:connector-curvature="0" />
	<path style="fill:none;stroke:red;stroke-width:1px;stroke-linecap:butt;stroke-linejoin:miter;stroke-opacity:1" d="M 902.894,318.867 935.058,310.403 z" id="boundary" inkscape:connector-curvature="0" />
	<path style="fill:none;stroke:red;stroke-width:1px;stroke-linecap:butt;stroke-linejoin:miter;stroke-opacity:1" d="M 902.894,403.509 918.13,395.044 z" id="boundary" inkscape:connector-curvature="0" />
	<path style="fill:none;stroke:red;stroke-width:1px;stroke-linecap:butt;stroke-linejoin:miter;stroke-opacity:1" d="M 902.894,435.672 918.13,444.137 z" id="boundary" inkscape:connector-curvature="0" />
	<path style="fill:none;stroke:red;stroke-width:1px;stroke-linecap:butt;stroke-linejoin:miter;stroke-opacity:1" d="M 906.28,190.212 919.823,176.669 z" id="boundary" inkscape:connector-curvature="0" />
	<path style="fill:none;stroke:red;stroke-width:1px;stroke-linecap:butt;stroke-linejoin:miter;stroke-opacity:1" d="M 906.28,647.276 918.13,660.819 z" id="boundary" inkscape:connector-curvature="0" />
	<path style="fill:none;stroke:red;stroke-width:1px;stroke-linecap:butt;stroke-linejoin:miter;stroke-opacity:1" d="M 911.358,513.543 924.901,523.7 z" id="boundary" inkscape:connector-curvature="0" />
	<path style="fill:none;stroke:red;stroke-width:1px;stroke-linecap:butt;stroke-linejoin:miter;stroke-opacity:1" d="M 911.358,513.543 945.215,491.536 z" id="boundary" inkscape:connector-curvature="0" />
	<path style="fill:none;stroke:red;stroke-width:1px;stroke-linecap:butt;stroke-linejoin:miter;stroke-opacity:1" d="M 918.13,395.044 935.058,389.966 z" id="boundary" inkscape:connector-curvature="0" />
	<path style="fill:none;stroke:red;stroke-width:1px;stroke-linecap:butt;stroke-linejoin:miter;stroke-opacity:1" d="M 918.13,444.137 935.058,444.137 z" id="boundary" inkscape:connector-curvature="0" />
	<path style="fill:none;stroke:red;stroke-width:1px;stroke-linecap:butt;stroke-linejoin:miter;stroke-opacity:1" d="M 918.13,660.819 931.672,672.669 z" id="boundary" inkscape:connector-curvature="0" />
	<path style="fill:none;stroke:red;stroke-width:1px;stroke-linecap:butt;stroke-linejoin:miter;stroke-opacity:1" d="M 919.823,176.669 933.365,164.819 z" id="boundary" inkscape:connector-curvature="0" />
	<path style="fill:none;stroke:red;stroke-width:1px;stroke-linecap:butt;stroke-linejoin:miter;stroke-opacity:1" d="M 919.823,318.867 933.365,329.024 z" id="boundary" inkscape:connector-curvature="0" />
	<path style="fill:none;stroke:red;stroke-width:1px;stroke-linecap:butt;stroke-linejoin:miter;stroke-opacity:1" d="M 924.901,523.7 938.444,513.543 z" id="boundary" inkscape:connector-curvature="0" />
	<path style="fill:none;stroke:red;stroke-width:1px;stroke-linecap:butt;stroke-linejoin:miter;stroke-opacity:1" d="M 931.672,672.669 946.908,681.133 z" id="boundary" inkscape:connector-curvature="0" />
	<path style="fill:none;stroke:red;stroke-width:1px;stroke-linecap:butt;stroke-linejoin:miter;stroke-opacity:1" d="M 933.365,164.819 945.215,151.276 z" id="boundary" inkscape:connector-curvature="0" />
	<path style="fill:none;stroke:red;stroke-width:1px;stroke-linecap:butt;stroke-linejoin:miter;stroke-opacity:1" d="M 933.365,329.024 945.215,342.567 z" id="boundary" inkscape:connector-curvature="0" />
	<path style="fill:none;stroke:red;stroke-width:1px;stroke-linecap:butt;stroke-linejoin:miter;stroke-opacity:1" d="M 935.058,310.403 951.986,310.403 z" id="boundary" inkscape:connector-curvature="0" />
	<path style="fill:none;stroke:red;stroke-width:1px;stroke-linecap:butt;stroke-linejoin:miter;stroke-opacity:1" d="M 935.058,389.966 945.215,376.423 z" id="boundary" inkscape:connector-curvature="0" />
	<path style="fill:none;stroke:red;stroke-width:1px;stroke-linecap:butt;stroke-linejoin:miter;stroke-opacity:1" d="M 935.058,444.137 945.215,457.679 z" id="boundary" inkscape:connector-curvature="0" />
	<path style="fill:none;stroke:red;stroke-width:1px;stroke-linecap:butt;stroke-linejoin:miter;stroke-opacity:1" d="M 938.444,513.543 941.829,530.471 z" id="boundary" inkscape:connector-curvature="0" />
	<path style="fill:none;stroke:red;stroke-width:1px;stroke-linecap:butt;stroke-linejoin:miter;stroke-opacity:1" d="M 941.829,530.471 958.758,537.242 z" id="boundary" inkscape:connector-curvature="0" />
	<path style="fill:none;stroke:red;stroke-width:1px;stroke-linecap:butt;stroke-linejoin:miter;stroke-opacity:1" d="M 945.215,151.276 962.143,152.969 z" id="boundary" inkscape:connector-curvature="0" />
	<path style="fill:none;stroke:red;stroke-width:1px;stroke-linecap:butt;stroke-linejoin:miter;stroke-opacity:1" d="M 945.215,342.567 945.215,359.495 z" id="boundary" inkscape:connector-curvature="0" />
	<path style="fill:none;stroke:red;stroke-width:1px;stroke-linecap:butt;stroke-linejoin:miter;stroke-opacity:1" d="M 945.215,359.495 945.215,376.423 z" id="boundary" inkscape:connector-curvature="0" />
	<path style="fill:none;stroke:red;stroke-width:1px;stroke-linecap:butt;stroke-linejoin:miter;stroke-opacity:1" d="M 945.215,457.679 945.215,474.608 z" id="boundary" inkscape:connector-curvature="0" />
	<path style="fill:none;stroke:red;stroke-width:1px;stroke-linecap:butt;stroke-linejoin:miter;stroke-opacity:1" d="M 945.215,474.608 945.215,491.536 z" id="boundary" inkscape:connector-curvature="0" />
	<path style="fill:none;stroke:red;stroke-width:1px;stroke-linecap:butt;stroke-linejoin:miter;stroke-opacity:1" d="M 946.908,681.133 960.451,691.29 z" id="boundary" inkscape:connector-curvature="0" />
	<path style="fill:none;stroke:red;stroke-width:1px;stroke-linecap:butt;stroke-linejoin:miter;stroke-opacity:1" d="M 951.986,310.403 965.529,300.246 z" id="boundary" inkscape:connector-curvature="0" />
	<path style="fill:none;stroke:red;stroke-width:1px;stroke-linecap:butt;stroke-linejoin:miter;stroke-opacity:1" d="M 953.679,285.01 965.529,300.246 z" id="boundary" inkscape:connector-curvature="0" />
	<path style="fill:none;stroke:red;stroke-width:1px;stroke-linecap:butt;stroke-linejoin:miter;stroke-opacity:1" d="M 953.679,285.01 970.608,276.546 z" id="boundary" inkscape:connector-curvature="0" />
	<path style="fill:none;stroke:red;stroke-width:1px;stroke-linecap:butt;stroke-linejoin:miter;stroke-opacity:1" d="M 958.758,537.242 970.608,550.785 z" id="boundary" inkscape:connector-curvature="0" />
	<path style="fill:none;stroke:red;stroke-width:1px;stroke-linecap:butt;stroke-linejoin:miter;stroke-opacity:1" d="M 960.451,691.29 973.993,681.133 z" id="boundary" inkscape:connector-curvature="0" />
	<path style="fill:none;stroke:red;stroke-width:1px;stroke-linecap:butt;stroke-linejoin:miter;stroke-opacity:1" d="M 962.143,152.969 977.379,161.433 z" id="boundary" inkscape:connector-curvature="0" />
	<path style="fill:none;stroke:red;stroke-width:1px;stroke-linecap:butt;stroke-linejoin:miter;stroke-opacity:1" d="M 970.608,259.618 970.608,276.546 z" id="boundary" inkscape:connector-curvature="0" />
	<path style="fill:none;stroke:red;stroke-width:1px;stroke-linecap:butt;stroke-linejoin:miter;stroke-opacity:1" d="M 970.608,259.618 979.072,234.225 z" id="boundary" inkscape:connector-curvature="0" />
	<path style="fill:none;stroke:red;stroke-width:1px;stroke-linecap:butt;stroke-linejoin:miter;stroke-opacity:1" d="M 970.608,550.785 977.379,567.713 z" id="boundary" inkscape:connector-curvature="0" />
	<path style="fill:none;stroke:red;stroke-width:1px;stroke-linecap:butt;stroke-linejoin:miter;stroke-opacity:1" d="M 973.993,681.133 990.922,672.669 z" id="boundary" inkscape:connector-curvature="0" />
	<path style="fill:none;stroke:red;stroke-width:1px;stroke-linecap:butt;stroke-linejoin:miter;stroke-opacity:1" d="M 977.379,161.433 987.536,174.976 z" id="boundary" inkscape:connector-curvature="0" />
	<path style="fill:none;stroke:red;stroke-width:1px;stroke-linecap:butt;stroke-linejoin:miter;stroke-opacity:1" d="M 977.379,567.713 979.072,584.642 z" id="boundary" inkscape:connector-curvature="0" />
	<path style="fill:none;stroke:red;stroke-width:1px;stroke-linecap:butt;stroke-linejoin:miter;stroke-opacity:1" d="M 979.072,217.297 979.072,234.225 z" id="boundary" inkscape:connector-curvature="0" />
	<path style="fill:none;stroke:red;stroke-width:1px;stroke-linecap:butt;stroke-linejoin:miter;stroke-opacity:1" d="M 979.072,217.297 987.536,191.904 z" id="boundary" inkscape:connector-curvature="0" />
	<path style="fill:none;stroke:red;stroke-width:1px;stroke-linecap:butt;stroke-linejoin:miter;stroke-opacity:1" d="M 979.072,584.642 987.536,599.877 z" id="boundary" inkscape:connector-curvature="0" />
	<path style="fill:none;stroke:red;stroke-width:1px;stroke-linecap:butt;stroke-linejoin:miter;stroke-opacity:1" d="M 987.536,174.976 987.536,191.904 z" id="boundary" inkscape:connector-curvature="0" />
	<path style="fill:none;stroke:red;stroke-width:1px;stroke-linecap:butt;stroke-linejoin:miter;stroke-opacity:1" d="M 987.536,599.877 987.536,616.805 z" id="boundary" inkscape:connector-curvature="0" />
	<path style="fill:none;stroke:red;stroke-width:1px;stroke-linecap:butt;stroke-linejoin:miter;stroke-opacity:1" d="M 987.536,616.805 996,632.041 z" id="boundary" inkscape:connector-curvature="0" />
	<path style="fill:none;stroke:red;stroke-width:1px;stroke-linecap:butt;stroke-linejoin:miter;stroke-opacity:1" d="M 990.922,672.669 996,648.969 z" id="boundary" inkscape:connector-curvature="0" />
	<path style="fill:none;stroke:red;stroke-width:1px;stroke-linecap:butt;stroke-linejoin:miter;stroke-opacity:1" d="M 996,632.041 996,648.969 z" id="boundary" inkscape:connector-curvature="0" />
	<circle cx="4" cy="432.287" r="4" fill="#0" id="circle0"/>
	<circle cx="17.5427" cy="418.744" r="4" fill="#0" id="circle1"/>
	<circle cx="20.9283" cy="437.365" r="4" fill="#0" id="circle2"/>
	<circle cx="34.471" cy="410.28" r="4" fill="#0" id="circle3"/>
	<circle cx="36.1638" cy="445.829" r="4" fill="#0" id="circle4"/>
	<circle cx="51.3993" cy="410.28" r="4" fill="#0" id="circle5"/>
	<circle cx="53.0922" cy="445.829" r="4" fill="#0" id="circle6"/>
	<circle cx="68.3276" cy="401.816" r="4" fill="#0" id="circle7"/>
	<circle cx="68.3276" cy="454.294" r="4" fill="#0" id="circle8"/>
	<circle cx="85.256" cy="401.816" r="4" fill="#0" id="circle9"/>
	<circle cx="85.256" cy="454.294" r="4" fill="#0" id="circle10"/>
	<circle cx="102.184" cy="401.816" r="4" fill="#0" id="circle11"/>
	<circle cx="102.184" cy="461.065" r="4" fill="#0" id="circle12"/>
	<circle cx="119.113" cy="393.352" r="4" fill="#0" id="circle13"/>
	<circle cx="119.113" cy="462.758" r="4" fill="#0" id="circle14"/>
	<circle cx="136.041" cy="393.352" r="4" fill="#0" id="circle15"/>
	<circle cx="136.041" cy="462.758" r="4" fill="#0" id="circle16"/>
	<circle cx="152.969" cy="393.352" r="4" fill="#0" id="circle17"/>
	<circle cx="152.969" cy="462.758" r="4" fill="#0" id="circle18"/>
	<circle cx="169.898" cy="393.352" r="4" fill="#0" id="circle19"/>
	<circle cx="169.898" cy="462.758" r="4" fill="#0" id="circle20"/>
	<circle cx="186.826" cy="384.887" r="4" fill="#0" id="circle21"/>
	<circle cx="186.826" cy="462.758" r="4" fill="#0" id="circle22"/>
	<circle cx="202.061" cy="471.222" r="4" fill="#0" id="circle23"/>
	<circle cx="203.754" cy="376.423" r="4" fill="#0" id="circle24"/>
	<circle cx="217.297" cy="479.686" r="4" fill="#0" id="circle25"/>
	<circle cx="220.683" cy="367.959" r="4" fill="#0" id="circle26"/>
	<circle cx="232.532" cy="488.15" r="4" fill="#0" id="circle27"/>
	<circle cx="237.611" cy="359.495" r="4" fill="#0" id="circle28"/>
	<circle cx="247.768" cy="496.614" r="4" fill="#0" id="circle29"/>
	<circle cx="254.539" cy="351.031" r="4" fill="#0" id="circle30"/>
	<circle cx="263.003" cy="505.078" r="4" fill="#0" id="circle31"/>
	<circle cx="271.468" cy="342.567" r="4" fill="#0" id="circle32"/>
	<circle cx="279.932" cy="511.85" r="4" fill="#0" id="circle33"/>
	<circle cx="288.396" cy="342.567" r="4" fill="#0" id="circle34"/>
	<circle cx="296.86" cy="513.543" r="4" fill="#0" id="circle35"/>
	<circle cx="303.631" cy="334.102" r="4" fill="#0" id="circle36"/>
	<circle cx="312.096" cy="522.007" r="4" fill="#0" id="circle37"/>
	<circle cx="320.56" cy="327.331" r="4" fill="#0" id="circle38"/>
	<circle cx="329.024" cy="522.007" r="4" fill="#0" id="circle39"/>
	<circle cx="337.488" cy="325.638" r="4" fill="#0" id="circle40"/>
	<circle cx="344.259" cy="530.471" r="4" fill="#0" id="circle41"/>
	<circle cx="354.416" cy="318.867" r="4" fill="#0" id="circle42"/>
	<circle cx="361.188" cy="530.471" r="4" fill="#0" id="circle43"/>
	<circle cx="371.345" cy="317.174" r="4" fill="#0" id="circle44"/>
	<circle cx="376.423" cy="538.935" r="4" fill="#0" id="circle45"/>
	<circle cx="388.273" cy="317.174" r="4" fill="#0" id="circle46"/>
	<circle cx="393.352" cy="538.935" r="4" fill="#0" id="circle47"/>
	<circle cx="403.509" cy="308.71" r="4" fill="#0" id="circle48"/>
	<circle cx="410.28" cy="538.935" r="4" fill="#0" id="circle49"/>
	<circle cx="420.437" cy="308.71" r="4" fill="#0" id="circle50"/>
	<circle cx="425.515" cy="547.399" r="4" fill="#0" id="circle51"/>
	<circle cx="437.365" cy="308.71" r="4" fill="#0" id="circle52"/>
	<circle cx="442.444" cy="547.399" r="4" fill="#0" id="circle53"/>
	<circle cx="452.601" cy="296.86" r="4" fill="#0" id="circle54"/>
	<circle cx="457.679" cy="555.863" r="4" fill="#0" id="circle55"/>
	<circle cx="461.065" cy="279.932" r="4" fill="#0" id="circle56"/>
	<circle cx="471.222" cy="567.713" r="4" fill="#0" id="circle57"/>
	<circle cx="474.608" cy="266.389" r="4" fill="#0" id="circle58"/>
	<circle cx="483.072" cy="581.256" r="4" fill="#0" id="circle59"/>
	<circle cx="488.15" cy="252.846" r="4" fill="#0" id="circle60"/>
	<circle cx="494.922" cy="594.799" r="4" fill="#0" id="circle61"/>
	<circle cx="496.614" cy="235.918" r="4" fill="#0" id="circle62"/>
	<circle cx="503.386" cy="610.034" r="4" fill="#0" id="circle63"/>
	<circle cx="510.157" cy="224.068" r="4" fill="#0" id="circle64"/>
	<circle cx="516.928" cy="621.884" r="4" fill="#0" id="circle65"/>
	<circle cx="520.314" cy="203.754" r="4" fill="#0" id="circle66"/>
	<circle cx="528.778" cy="635.427" r="4" fill="#0" id="circle67"/>
	<circle cx="533.857" cy="190.212" r="4" fill="#0" id="circle68"/>
	<circle cx="537.242" cy="650.662" r="4" fill="#0" id="circle69"/>
	<circle cx="545.706" cy="169.898" r="4" fill="#0" id="circle70"/>
	<circle cx="549.092" cy="664.205" r="4" fill="#0" id="circle71"/>
	<circle cx="559.249" cy="156.355" r="4" fill="#0" id="circle72"/>
	<circle cx="562.635" cy="674.362" r="4" fill="#0" id="circle73"/>
	<circle cx="572.792" cy="142.812" r="4" fill="#0" id="circle74"/>
	<circle cx="572.792" cy="687.904" r="4" fill="#0" id="circle75"/>
	<circle cx="581.256" cy="125.884" r="4" fill="#0" id="circle76"/>
	<circle cx="581.256" cy="703.14" r="4" fill="#0" id="circle77"/>
	<circle cx="593.106" cy="716.683" r="4" fill="#0" id="circle78"/>
	<circle cx="594.799" cy="114.034" r="4" fill="#0" id="circle79"/>
	<circle cx="606.648" cy="100.491" r="4" fill="#0" id="circle80"/>
	<circle cx="606.648" cy="728.532" r="4" fill="#0" id="circle81"/>
	<circle cx="613.42" cy="745.461" r="4" fill="#0" id="circle82"/>
	<circle cx="615.113" cy="83.5631" r="4" fill="#0" id="circle83"/>
	<circle cx="626.962" cy="757.311" r="4" fill="#0" id="circle84"/>
	<circle cx="628.655" cy="71.7133" r="4" fill="#0" id="circle85"/>
	<circle cx="638.812" cy="51.3993" r="4" fill="#0" id="circle86"/>
	<circle cx="638.812" cy="770.853" r="4" fill="#0" id="circle87"/>
	<circle cx="652.355" cy="37.8567" r="4" fill="#0" id="circle88"/>
	<circle cx="652.355" cy="782.703" r="4" fill="#0" id="circle89"/>
	<circle cx="659.126" cy="799.631" r="4" fill="#0" id="circle90"/>
	<circle cx="665.898" cy="24.314" r="4" fill="#0" id="circle91"/>
	<circle cx="672.669" cy="809.788" r="4" fill="#0" id="circle92"/>
	<circle cx="679.44" cy="12.4642" r="4" fill="#0" id="circle93"/>
	<circle cx="682.826" cy="823.331" r="4" fill="#0" id="circle94"/>
	<circle cx="694.676" cy="4" r="4" fill="#0" id="circle95"/>
	<circle cx="696.369" cy="835.181" r="4" fill="#0" id="circle96"/>
	<circle cx="711.604" cy="4" r="4" fill="#0" id="circle97"/>
	<circle cx="713.297" cy="835.181" r="4" fill="#0" id="circle98"/>
	<circle cx="728.532" cy="4" r="4" fill="#0" id="circle99"/>
	<circle cx="730.225" cy="835.181" r="4" fill="#0" id="circle100"/>
	<circle cx="733.611" cy="234.225" r="4" fill="#0" id="circle101"/>
	<circle cx="733.611" cy="251.154" r="4" fill="#0" id="circle102"/>
	<circle cx="733.611" cy="268.082" r="4" fill="#0" id="circle103"/>
	<circle cx="733.611" cy="285.01" r="4" fill="#0" id="circle104"/>
	<circle cx="733.611" cy="555.863" r="4" fill="#0" id="circle105"/>
	<circle cx="733.611" cy="572.792" r="4" fill="#0" id="circle106"/>
	<circle cx="742.075" cy="158.048" r="4" fill="#0" id="circle107"/>
	<circle cx="742.075" cy="174.976" r="4" fill="#0" id="circle108"/>
	<circle cx="742.075" cy="191.904" r="4" fill="#0" id="circle109"/>
	<circle cx="742.075" cy="208.833" r="4" fill="#0" id="circle110"/>
	<circle cx="742.075" cy="588.027" r="4" fill="#0" id="circle111"/>
	<circle cx="742.075" cy="604.956" r="4" fill="#0" id="circle112"/>
	<circle cx="742.075" cy="621.884" r="4" fill="#0" id="circle113"/>
	<circle cx="745.461" cy="4" r="4" fill="#0" id="circle114"/>
	<circle cx="745.461" cy="843.645" r="4" fill="#0" id="circle115"/>
	<circle cx="748.846" cy="547.399" r="4" fill="#0" id="circle116"/>
	<circle cx="750.539" cy="81.8703" r="4" fill="#0" id="circle117"/>
	<circle cx="750.539" cy="98.7986" r="4" fill="#0" id="circle118"/>
	<circle cx="750.539" cy="115.727" r="4" fill="#0" id="circle119"/>
	<circle cx="750.539" cy="132.655" r="4" fill="#0" id="circle120"/>
	<circle cx="750.539" cy="291.782" r="4" fill="#0" id="circle121"/>
	<circle cx="750.539" cy="637.119" r="4" fill="#0" id="circle122"/>
	<circle cx="750.539" cy="654.048" r="4" fill="#0" id="circle123"/>
	<circle cx="750.539" cy="670.976" r="4" fill="#0" id="circle124"/>
	<circle cx="759.003" cy="31.0853" r="4" fill="#0" id="circle125"/>
	<circle cx="759.003" cy="48.0137" r="4" fill="#0" id="circle126"/>
	<circle cx="759.003" cy="64.942" r="4" fill="#0" id="circle127"/>
	<circle cx="759.003" cy="686.212" r="4" fill="#0" id="circle128"/>
	<circle cx="759.003" cy="703.14" r="4" fill="#0" id="circle129"/>
	<circle cx="760.696" cy="835.181" r="4" fill="#0" id="circle130"/>
	<circle cx="762.389" cy="4" r="4" fill="#0" id="circle131"/>
	<circle cx="765.775" cy="547.399" r="4" fill="#0" id="circle132"/>
	<circle cx="765.775" cy="720.068" r="4" fill="#0" id="circle133"/>
	<circle cx="767.468" cy="291.782" r="4" fill="#0" id="circle134"/>
	<circle cx="767.468" cy="736.997" r="4" fill="#0" id="circle135"/>
	<circle cx="767.468" cy="753.925" r="4" fill="#0" id="circle136"/>
	<circle cx="775.932" cy="769.16" r="4" fill="#0" id="circle137"/>
	<circle cx="775.932" cy="786.089" r="4" fill="#0" id="circle138"/>
	<circle cx="775.932" cy="803.017" r="4" fill="#0" id="circle139"/>
	<circle cx="777.625" cy="835.181" r="4" fill="#0" id="circle140"/>
	<circle cx="782.703" cy="547.399" r="4" fill="#0" id="circle141"/>
	<circle cx="784.396" cy="291.782" r="4" fill="#0" id="circle142"/>
	<circle cx="784.396" cy="818.253" r="4" fill="#0" id="circle143"/>
	<circle cx="797.939" cy="555.863" r="4" fill="#0" id="circle144"/>
	<circle cx="799.631" cy="283.317" r="4" fill="#0" id="circle145"/>
	<circle cx="813.174" cy="564.328" r="4" fill="#0" id="circle146"/>
	<circle cx="814.867" cy="274.853" r="4" fill="#0" id="circle147"/>
	<circle cx="826.717" cy="261.311" r="4" fill="#0" id="circle148"/>
	<circle cx="826.717" cy="576.177" r="4" fill="#0" id="circle149"/>
	<circle cx="838.567" cy="589.72" r="4" fill="#0" id="circle150"/>
	<circle cx="840.259" cy="249.461" r="4" fill="#0" id="circle151"/>
	<circle cx="852.109" cy="235.918" r="4" fill="#0" id="circle152"/>
	<circle cx="852.109" cy="601.57" r="4" fill="#0" id="circle153"/>
	<circle cx="863.959" cy="615.113" r="4" fill="#0" id="circle154"/>
	<circle cx="865.652" cy="224.068" r="4" fill="#0" id="circle155"/>
	<circle cx="877.502" cy="210.526" r="4" fill="#0" id="circle156"/>
	<circle cx="880.887" cy="621.884" r="4" fill="#0" id="circle157"/>
	<circle cx="891.044" cy="198.676" r="4" fill="#0" id="circle158"/>
	<circle cx="892.737" cy="635.427" r="4" fill="#0" id="circle159"/>
	<circle cx="894.43" cy="420.437" r="4" fill="#0" id="circle160"/>
	<circle cx="902.894" cy="318.867" r="4" fill="#0" id="circle161"/>
	<circle cx="902.894" cy="403.509" r="4" fill="#0" id="circle162"/>
	<circle cx="902.894" cy="435.672" r="4" fill="#0" id="circle163"/>
	<circle cx="906.28" cy="190.212" r="4" fill="#0" id="circle164"/>
	<circle cx="906.28" cy="647.276" r="4" fill="#0" id="circle165"/>
	<circle cx="911.358" cy="513.543" r="4" fill="#0" id="circle166"/>
	<circle cx="918.13" cy="395.044" r="4" fill="#0" id="circle167"/>
	<circle cx="918.13" cy="444.137" r="4" fill="#0" id="circle168"/>
	<circle cx="918.13" cy="660.819" r="4" fill="#0" id="circle169"/>
	<circle cx="919.823" cy="176.669" r="4" fill="#0" id="circle170"/>
	<circle cx="919.823" cy="318.867" r="4" fill="#0" id="circle171"/>
	<circle cx="924.901" cy="523.7" r="4" fill="#0" id="circle172"/>
	<circle cx="931.672" cy="672.669" r="4" fill="#0" id="circle173"/>
	<circle cx="933.365" cy="164.819" r="4" fill="#0" id="circle174"/>
	<circle cx="933.365" cy="329.024" r="4" fill="#0" id="circle175"/>
	<circle cx="935.058" cy="310.403" r="4" fill="#0" id="circle176"/>
	<circle cx="935.058" cy="389.966" r="4" fill="#0" id="circle177"/>
	<circle cx="935.058" cy="444.137" r="4" fill="#0" id="circle178"/>
	<circle cx="938.444" cy="513.543" r="4" fill="#0" id="circle179"/>
	<circle cx="941.829" cy="530.471" r="4" fill="#0" id="circle180"/>
	<circle cx="945.215" cy="151.276" r="4" fill="#0" id="circle181"/>
	<circle cx="945.215" cy="342.567" r="4" fill="#0" id="circle182"/>
	<circle cx="945.215" cy="359.495" r="4" fill="#0" id="circle183"/>
	<circle cx="945.215" cy="376.423" r="4" fill="#0" id="circle184"/>
	<circle cx="945.215" cy="457.679" r="4" fill="#0" id="circle185"/>
	<circle cx="945.215" cy="474.608" r="4" fill="#0" id="circle186"/>
	<circle cx="945.215" cy="491.536" r="4" fill="#0" id="circle187"/>
	<circle cx="946.908" cy="681.133" r="4" fill="#0" id="circle188"/>
	<circle cx="951.986" cy="310.403" r="4" fill="#0" id="circle189"/>
	<circle cx="953.679" cy="285.01" r="4" fill="#0" id="circle190"/>
	<circle cx="958.758" cy="537.242" r="4" fill="#0" id="circle191"/>
	<circle cx="960.451" cy="691.29" r="4" fill="#0" id="circle192"/>
	<circle cx="962.143" cy="152.969" r="4" fill="#0" id="circle193"/>
	<circle cx="965.529" cy="300.246" r="4" fill="#0" id="circle194"/>
	<circle cx="970.608" cy="259.618" r="4" fill="#0" id="circle195"/>
	<circle cx="970.608" cy="276.546" r="4" fill="#0" id="circle196"/>
	<circle cx="970.608" cy="550.785" r="4" fill="#0" id="circle197"/>
	<circle cx="973.993" cy="681.133" r="4" fill="#0" id="circle198"/>
	<circle cx="977.379" cy="161.433" r="4" fill="#0" id="circle199"/>
	<circle cx="977.379" cy="567.713" r="4" fill="#0" id="circle200"/>
	<circle cx="979.072" cy="217.297" r="4" fill="#0" id="circle201"/>
	<circle cx="979.072" cy="234.225" r="4" fill="#0" id="circle202"/>
	<circle cx="979.072" cy="584.642" r="4" fill="#0" id="circle203"/>
	<circle cx="987.536" cy="174.976" r="4" fill="#0" id="circle204"/>
	<circle cx="987.536" cy="191.904" r="4" fill="#0" id="circle205"/>
	<circle cx="987.536" cy="599.877" r="4" fill="#0" id="circle206"/>
	<circle cx="987.536" cy="616.805" r="4" fill="#0" id="circle207"/>
	<circle cx="990.922" cy="672.669" r="4" fill="#0" id="circle208"/>
	<circle cx="996" cy="632.041" r="4" fill="#0" id="circle209"/>
	<circle cx="996" cy="648.969" r="4" fill="#0" id="circle210"/>
	</g>
</svg>