<?xml version="1.0" encoding="UTF-8" standalone="no"?>
<!-- Created with CurveBenchmark -->
<svg
	xmlns:dc="http://purl.org/dc/elements/1.1/"
	xmlns:cc="http://creativecommons.org/ns#"
	xmlns:rdf="http://www.w3.org/1999/02/22-rdf-syntax-ns#"
	xmlns:svg="http://www.w3.org/2000/svg"
	xmlns="http://www.w3.org/2000/svg"
	xmlns:sodipodi="http://sodipodi.sourceforge.net/DTD/sodipodi-0.dtd"
	xmlns:inkscape="http://www.inkscape.org/namespaces/inkscape"
	width="1000"
	height="1000"
	id="svg2"
	version="1.1"
	sodipodi:docname="manifold/discur-bird04.png.txt">
<defs
	id="defs4" />
<metadata
	id="metadata7">
	<rdf:RDF>
		<cc:Work
			rdf:about="">
			<dc:format>image/svg+xml</dc:format>
			<dc:type
				rdf:resource="http://purl.org/dc/dcmitype/StillImage" />
			<dc:title></dc:title>
		</cc:Work>
	</rdf:RDF>
</metadata>
<g
	inkscape:label="Layer 1"
	inkscape:groupmode="layer"
	id="layer1">
	<path style="fill:none;stroke:red;stroke-width:1px;stroke-linecap:butt;stroke-linejoin:miter;stroke-opacity:1" d="M 4,118.32 13.2193,99.881 z" id="boundary" inkscape:connector-curvature="0" />
	<path style="fill:none;stroke:red;stroke-width:1px;stroke-linecap:butt;stroke-linejoin:miter;stroke-opacity:1" d="M 4,118.32 13.2193,134.914 z" id="boundary" inkscape:connector-curvature="0" />
	<path style="fill:none;stroke:red;stroke-width:1px;stroke-linecap:butt;stroke-linejoin:miter;stroke-opacity:1" d="M 13.2193,63.0037 13.2193,81.4424 z" id="boundary" inkscape:connector-curvature="0" />
	<path style="fill:none;stroke:red;stroke-width:1px;stroke-linecap:butt;stroke-linejoin:miter;stroke-opacity:1" d="M 13.2193,63.0037 27.9703,48.2528 z" id="boundary" inkscape:connector-curvature="0" />
	<path style="fill:none;stroke:red;stroke-width:1px;stroke-linecap:butt;stroke-linejoin:miter;stroke-opacity:1" d="M 13.2193,81.4424 13.2193,99.881 z" id="boundary" inkscape:connector-curvature="0" />
	<path style="fill:none;stroke:red;stroke-width:1px;stroke-linecap:butt;stroke-linejoin:miter;stroke-opacity:1" d="M 13.2193,134.914 31.658,133.071 z" id="boundary" inkscape:connector-curvature="0" />
	<path style="fill:none;stroke:red;stroke-width:1px;stroke-linecap:butt;stroke-linejoin:miter;stroke-opacity:1" d="M 27.9703,48.2528 37.1896,29.8141 z" id="boundary" inkscape:connector-curvature="0" />
	<path style="fill:none;stroke:red;stroke-width:1px;stroke-linecap:butt;stroke-linejoin:miter;stroke-opacity:1" d="M 31.658,133.071 50.0967,136.758 z" id="boundary" inkscape:connector-curvature="0" />
	<path style="fill:none;stroke:red;stroke-width:1px;stroke-linecap:butt;stroke-linejoin:miter;stroke-opacity:1" d="M 37.1896,29.8141 55.6283,20.5948 z" id="boundary" inkscape:connector-curvature="0" />
	<path style="fill:none;stroke:red;stroke-width:1px;stroke-linecap:butt;stroke-linejoin:miter;stroke-opacity:1" d="M 50.0967,136.758 68.5353,142.29 z" id="boundary" inkscape:connector-curvature="0" />
	<path style="fill:none;stroke:red;stroke-width:1px;stroke-linecap:butt;stroke-linejoin:miter;stroke-opacity:1" d="M 55.6283,20.5948 72.223,11.3755 z" id="boundary" inkscape:connector-curvature="0" />
	<path style="fill:none;stroke:red;stroke-width:1px;stroke-linecap:butt;stroke-linejoin:miter;stroke-opacity:1" d="M 68.5353,142.29 86.974,142.29 z" id="boundary" inkscape:connector-curvature="0" />
	<path style="fill:none;stroke:red;stroke-width:1px;stroke-linecap:butt;stroke-linejoin:miter;stroke-opacity:1" d="M 72.223,11.3755 90.6617,4 z" id="boundary" inkscape:connector-curvature="0" />
	<path style="fill:none;stroke:red;stroke-width:1px;stroke-linecap:butt;stroke-linejoin:miter;stroke-opacity:1" d="M 86.974,142.29 103.569,151.509 z" id="boundary" inkscape:connector-curvature="0" />
	<path style="fill:none;stroke:red;stroke-width:1px;stroke-linecap:butt;stroke-linejoin:miter;stroke-opacity:1" d="M 90.6617,4 109.1,4 z" id="boundary" inkscape:connector-curvature="0" />
	<path style="fill:none;stroke:red;stroke-width:1px;stroke-linecap:butt;stroke-linejoin:miter;stroke-opacity:1" d="M 103.569,151.509 122.007,151.509 z" id="boundary" inkscape:connector-curvature="0" />
	<path style="fill:none;stroke:red;stroke-width:1px;stroke-linecap:butt;stroke-linejoin:miter;stroke-opacity:1" d="M 109.1,4 127.539,11.3755 z" id="boundary" inkscape:connector-curvature="0" />
	<path style="fill:none;stroke:red;stroke-width:1px;stroke-linecap:butt;stroke-linejoin:miter;stroke-opacity:1" d="M 122.007,151.509 134.914,166.26 z" id="boundary" inkscape:connector-curvature="0" />
	<path style="fill:none;stroke:red;stroke-width:1px;stroke-linecap:butt;stroke-linejoin:miter;stroke-opacity:1" d="M 127.539,11.3755 144.134,20.5948 z" id="boundary" inkscape:connector-curvature="0" />
	<path style="fill:none;stroke:red;stroke-width:1px;stroke-linecap:butt;stroke-linejoin:miter;stroke-opacity:1" d="M 134.914,166.26 144.134,182.855 z" id="boundary" inkscape:connector-curvature="0" />
	<path style="fill:none;stroke:red;stroke-width:1px;stroke-linecap:butt;stroke-linejoin:miter;stroke-opacity:1" d="M 144.134,20.5948 162.572,26.1264 z" id="boundary" inkscape:connector-curvature="0" />
	<path style="fill:none;stroke:red;stroke-width:1px;stroke-linecap:butt;stroke-linejoin:miter;stroke-opacity:1" d="M 144.134,182.855 151.509,201.294 z" id="boundary" inkscape:connector-curvature="0" />
	<path style="fill:none;stroke:red;stroke-width:1px;stroke-linecap:butt;stroke-linejoin:miter;stroke-opacity:1" d="M 151.509,201.294 160.729,217.888 z" id="boundary" inkscape:connector-curvature="0" />
	<path style="fill:none;stroke:red;stroke-width:1px;stroke-linecap:butt;stroke-linejoin:miter;stroke-opacity:1" d="M 160.729,217.888 169.948,234.483 z" id="boundary" inkscape:connector-curvature="0" />
	<path style="fill:none;stroke:red;stroke-width:1px;stroke-linecap:butt;stroke-linejoin:miter;stroke-opacity:1" d="M 162.572,26.1264 175.48,40.8773 z" id="boundary" inkscape:connector-curvature="0" />
	<path style="fill:none;stroke:red;stroke-width:1px;stroke-linecap:butt;stroke-linejoin:miter;stroke-opacity:1" d="M 169.948,234.483 175.48,252.922 z" id="boundary" inkscape:connector-curvature="0" />
	<path style="fill:none;stroke:red;stroke-width:1px;stroke-linecap:butt;stroke-linejoin:miter;stroke-opacity:1" d="M 175.48,40.8773 190.23,53.7844 z" id="boundary" inkscape:connector-curvature="0" />
	<path style="fill:none;stroke:red;stroke-width:1px;stroke-linecap:butt;stroke-linejoin:miter;stroke-opacity:1" d="M 175.48,252.922 188.387,267.673 z" id="boundary" inkscape:connector-curvature="0" />
	<path style="fill:none;stroke:red;stroke-width:1px;stroke-linecap:butt;stroke-linejoin:miter;stroke-opacity:1" d="M 188.387,267.673 203.138,280.58 z" id="boundary" inkscape:connector-curvature="0" />
	<path style="fill:none;stroke:red;stroke-width:1px;stroke-linecap:butt;stroke-linejoin:miter;stroke-opacity:1" d="M 190.23,53.7844 206.825,63.0037 z" id="boundary" inkscape:connector-curvature="0" />
	<path style="fill:none;stroke:red;stroke-width:1px;stroke-linecap:butt;stroke-linejoin:miter;stroke-opacity:1" d="M 203.138,280.58 212.357,297.175 z" id="boundary" inkscape:connector-curvature="0" />
	<path style="fill:none;stroke:red;stroke-width:1px;stroke-linecap:butt;stroke-linejoin:miter;stroke-opacity:1" d="M 206.825,63.0037 221.576,75.9108 z" id="boundary" inkscape:connector-curvature="0" />
	<path style="fill:none;stroke:red;stroke-width:1px;stroke-linecap:butt;stroke-linejoin:miter;stroke-opacity:1" d="M 212.357,297.175 227.108,308.238 z" id="boundary" inkscape:connector-curvature="0" />
	<path style="fill:none;stroke:red;stroke-width:1px;stroke-linecap:butt;stroke-linejoin:miter;stroke-opacity:1" d="M 221.576,75.9108 240.015,75.9108 z" id="boundary" inkscape:connector-curvature="0" />
	<path style="fill:none;stroke:red;stroke-width:1px;stroke-linecap:butt;stroke-linejoin:miter;stroke-opacity:1" d="M 227.108,308.238 243.703,317.457 z" id="boundary" inkscape:connector-curvature="0" />
	<path style="fill:none;stroke:red;stroke-width:1px;stroke-linecap:butt;stroke-linejoin:miter;stroke-opacity:1" d="M 240.015,75.9108 256.61,85.1301 z" id="boundary" inkscape:connector-curvature="0" />
	<path style="fill:none;stroke:red;stroke-width:1px;stroke-linecap:butt;stroke-linejoin:miter;stroke-opacity:1" d="M 243.703,317.457 262.141,317.457 z" id="boundary" inkscape:connector-curvature="0" />
	<path style="fill:none;stroke:red;stroke-width:1px;stroke-linecap:butt;stroke-linejoin:miter;stroke-opacity:1" d="M 256.61,85.1301 275.048,77.7546 z" id="boundary" inkscape:connector-curvature="0" />
	<path style="fill:none;stroke:red;stroke-width:1px;stroke-linecap:butt;stroke-linejoin:miter;stroke-opacity:1" d="M 262.141,317.457 278.736,326.677 z" id="boundary" inkscape:connector-curvature="0" />
	<path style="fill:none;stroke:red;stroke-width:1px;stroke-linecap:butt;stroke-linejoin:miter;stroke-opacity:1" d="M 275.048,77.7546 289.799,66.6914 z" id="boundary" inkscape:connector-curvature="0" />
	<path style="fill:none;stroke:red;stroke-width:1px;stroke-linecap:butt;stroke-linejoin:miter;stroke-opacity:1" d="M 278.736,326.677 295.331,335.896 z" id="boundary" inkscape:connector-curvature="0" />
	<path style="fill:none;stroke:red;stroke-width:1px;stroke-linecap:butt;stroke-linejoin:miter;stroke-opacity:1" d="M 289.799,66.6914 306.394,57.4721 z" id="boundary" inkscape:connector-curvature="0" />
	<path style="fill:none;stroke:red;stroke-width:1px;stroke-linecap:butt;stroke-linejoin:miter;stroke-opacity:1" d="M 295.331,335.896 313.77,335.896 z" id="boundary" inkscape:connector-curvature="0" />
	<path style="fill:none;stroke:red;stroke-width:1px;stroke-linecap:butt;stroke-linejoin:miter;stroke-opacity:1" d="M 306.394,57.4721 324.833,57.4721 z" id="boundary" inkscape:connector-curvature="0" />
	<path style="fill:none;stroke:red;stroke-width:1px;stroke-linecap:butt;stroke-linejoin:miter;stroke-opacity:1" d="M 313.77,335.896 330.364,345.115 z" id="boundary" inkscape:connector-curvature="0" />
	<path style="fill:none;stroke:red;stroke-width:1px;stroke-linecap:butt;stroke-linejoin:miter;stroke-opacity:1" d="M 324.833,57.4721 341.428,48.2528 z" id="boundary" inkscape:connector-curvature="0" />
	<path style="fill:none;stroke:red;stroke-width:1px;stroke-linecap:butt;stroke-linejoin:miter;stroke-opacity:1" d="M 330.364,345.115 346.959,354.335 z" id="boundary" inkscape:connector-curvature="0" />
	<path style="fill:none;stroke:red;stroke-width:1px;stroke-linecap:butt;stroke-linejoin:miter;stroke-opacity:1" d="M 341.428,48.2528 358.022,39.0335 z" id="boundary" inkscape:connector-curvature="0" />
	<path style="fill:none;stroke:red;stroke-width:1px;stroke-linecap:butt;stroke-linejoin:miter;stroke-opacity:1" d="M 346.959,354.335 365.398,358.022 z" id="boundary" inkscape:connector-curvature="0" />
	<path style="fill:none;stroke:red;stroke-width:1px;stroke-linecap:butt;stroke-linejoin:miter;stroke-opacity:1" d="M 358.022,39.0335 372.773,26.1264 z" id="boundary" inkscape:connector-curvature="0" />
	<path style="fill:none;stroke:red;stroke-width:1px;stroke-linecap:butt;stroke-linejoin:miter;stroke-opacity:1" d="M 365.398,358.022 383.836,363.554 z" id="boundary" inkscape:connector-curvature="0" />
	<path style="fill:none;stroke:red;stroke-width:1px;stroke-linecap:butt;stroke-linejoin:miter;stroke-opacity:1" d="M 372.773,26.1264 391.212,26.1264 z" id="boundary" inkscape:connector-curvature="0" />
	<path style="fill:none;stroke:red;stroke-width:1px;stroke-linecap:butt;stroke-linejoin:miter;stroke-opacity:1" d="M 383.836,363.554 400.431,372.773 z" id="boundary" inkscape:connector-curvature="0" />
	<path style="fill:none;stroke:red;stroke-width:1px;stroke-linecap:butt;stroke-linejoin:miter;stroke-opacity:1" d="M 391.212,26.1264 409.651,20.5948 z" id="boundary" inkscape:connector-curvature="0" />
	<path style="fill:none;stroke:red;stroke-width:1px;stroke-linecap:butt;stroke-linejoin:miter;stroke-opacity:1" d="M 400.431,372.773 418.87,372.773 z" id="boundary" inkscape:connector-curvature="0" />
	<path style="fill:none;stroke:red;stroke-width:1px;stroke-linecap:butt;stroke-linejoin:miter;stroke-opacity:1" d="M 409.651,20.5948 428.089,15.0632 z" id="boundary" inkscape:connector-curvature="0" />
	<path style="fill:none;stroke:red;stroke-width:1px;stroke-linecap:butt;stroke-linejoin:miter;stroke-opacity:1" d="M 418.87,372.773 435.465,381.993 z" id="boundary" inkscape:connector-curvature="0" />
	<path style="fill:none;stroke:red;stroke-width:1px;stroke-linecap:butt;stroke-linejoin:miter;stroke-opacity:1" d="M 428.089,15.0632 446.528,11.3755 z" id="boundary" inkscape:connector-curvature="0" />
	<path style="fill:none;stroke:red;stroke-width:1px;stroke-linecap:butt;stroke-linejoin:miter;stroke-opacity:1" d="M 435.465,381.993 453.903,381.993 z" id="boundary" inkscape:connector-curvature="0" />
	<path style="fill:none;stroke:red;stroke-width:1px;stroke-linecap:butt;stroke-linejoin:miter;stroke-opacity:1" d="M 446.528,11.3755 464.967,11.3755 z" id="boundary" inkscape:connector-curvature="0" />
	<path style="fill:none;stroke:red;stroke-width:1px;stroke-linecap:butt;stroke-linejoin:miter;stroke-opacity:1" d="M 453.903,381.993 470.498,391.212 z" id="boundary" inkscape:connector-curvature="0" />
	<path style="fill:none;stroke:red;stroke-width:1px;stroke-linecap:butt;stroke-linejoin:miter;stroke-opacity:1" d="M 464.967,11.3755 483.405,11.3755 z" id="boundary" inkscape:connector-curvature="0" />
	<path style="fill:none;stroke:red;stroke-width:1px;stroke-linecap:butt;stroke-linejoin:miter;stroke-opacity:1" d="M 470.498,391.212 488.937,398.587 z" id="boundary" inkscape:connector-curvature="0" />
	<path style="fill:none;stroke:red;stroke-width:1px;stroke-linecap:butt;stroke-linejoin:miter;stroke-opacity:1" d="M 483.405,11.3755 501.844,11.3755 z" id="boundary" inkscape:connector-curvature="0" />
	<path style="fill:none;stroke:red;stroke-width:1px;stroke-linecap:butt;stroke-linejoin:miter;stroke-opacity:1" d="M 488.937,398.587 507.375,400.431 z" id="boundary" inkscape:connector-curvature="0" />
	<path style="fill:none;stroke:red;stroke-width:1px;stroke-linecap:butt;stroke-linejoin:miter;stroke-opacity:1" d="M 501.844,11.3755 520.283,11.3755 z" id="boundary" inkscape:connector-curvature="0" />
	<path style="fill:none;stroke:red;stroke-width:1px;stroke-linecap:butt;stroke-linejoin:miter;stroke-opacity:1" d="M 507.375,400.431 523.97,409.651 z" id="boundary" inkscape:connector-curvature="0" />
	<path style="fill:none;stroke:red;stroke-width:1px;stroke-linecap:butt;stroke-linejoin:miter;stroke-opacity:1" d="M 520.283,11.3755 538.721,11.3755 z" id="boundary" inkscape:connector-curvature="0" />
	<path style="fill:none;stroke:red;stroke-width:1px;stroke-linecap:butt;stroke-linejoin:miter;stroke-opacity:1" d="M 523.97,409.651 542.409,409.651 z" id="boundary" inkscape:connector-curvature="0" />
	<path style="fill:none;stroke:red;stroke-width:1px;stroke-linecap:butt;stroke-linejoin:miter;stroke-opacity:1" d="M 538.721,11.3755 557.16,11.3755 z" id="boundary" inkscape:connector-curvature="0" />
	<path style="fill:none;stroke:red;stroke-width:1px;stroke-linecap:butt;stroke-linejoin:miter;stroke-opacity:1" d="M 542.409,409.651 560.848,409.651 z" id="boundary" inkscape:connector-curvature="0" />
	<path style="fill:none;stroke:red;stroke-width:1px;stroke-linecap:butt;stroke-linejoin:miter;stroke-opacity:1" d="M 557.16,11.3755 573.755,20.5948 z" id="boundary" inkscape:connector-curvature="0" />
	<path style="fill:none;stroke:red;stroke-width:1px;stroke-linecap:butt;stroke-linejoin:miter;stroke-opacity:1" d="M 560.848,409.651 579.286,409.651 z" id="boundary" inkscape:connector-curvature="0" />
	<path style="fill:none;stroke:red;stroke-width:1px;stroke-linecap:butt;stroke-linejoin:miter;stroke-opacity:1" d="M 573.755,20.5948 592.193,20.5948 z" id="boundary" inkscape:connector-curvature="0" />
	<path style="fill:none;stroke:red;stroke-width:1px;stroke-linecap:butt;stroke-linejoin:miter;stroke-opacity:1" d="M 579.286,409.651 597.725,415.182 z" id="boundary" inkscape:connector-curvature="0" />
	<path style="fill:none;stroke:red;stroke-width:1px;stroke-linecap:butt;stroke-linejoin:miter;stroke-opacity:1" d="M 592.193,20.5948 610.632,22.4387 z" id="boundary" inkscape:connector-curvature="0" />
	<path style="fill:none;stroke:red;stroke-width:1px;stroke-linecap:butt;stroke-linejoin:miter;stroke-opacity:1" d="M 597.725,415.182 616.164,409.651 z" id="boundary" inkscape:connector-curvature="0" />
	<path style="fill:none;stroke:red;stroke-width:1px;stroke-linecap:butt;stroke-linejoin:miter;stroke-opacity:1" d="M 610.632,22.4387 629.071,29.8141 z" id="boundary" inkscape:connector-curvature="0" />
	<path style="fill:none;stroke:red;stroke-width:1px;stroke-linecap:butt;stroke-linejoin:miter;stroke-opacity:1" d="M 616.164,409.651 634.602,409.651 z" id="boundary" inkscape:connector-curvature="0" />
	<path style="fill:none;stroke:red;stroke-width:1px;stroke-linecap:butt;stroke-linejoin:miter;stroke-opacity:1" d="M 629.071,29.8141 645.665,39.0335 z" id="boundary" inkscape:connector-curvature="0" />
	<path style="fill:none;stroke:red;stroke-width:1px;stroke-linecap:butt;stroke-linejoin:miter;stroke-opacity:1" d="M 634.602,409.651 649.353,394.9 z" id="boundary" inkscape:connector-curvature="0" />
	<path style="fill:none;stroke:red;stroke-width:1px;stroke-linecap:butt;stroke-linejoin:miter;stroke-opacity:1" d="M 645.665,39.0335 662.26,48.2528 z" id="boundary" inkscape:connector-curvature="0" />
	<path style="fill:none;stroke:red;stroke-width:1px;stroke-linecap:butt;stroke-linejoin:miter;stroke-opacity:1" d="M 649.353,394.9 667.792,385.68 z" id="boundary" inkscape:connector-curvature="0" />
	<path style="fill:none;stroke:red;stroke-width:1px;stroke-linecap:butt;stroke-linejoin:miter;stroke-opacity:1" d="M 662.26,48.2528 680.699,48.2528 z" id="boundary" inkscape:connector-curvature="0" />
	<path style="fill:none;stroke:red;stroke-width:1px;stroke-linecap:butt;stroke-linejoin:miter;stroke-opacity:1" d="M 667.792,385.68 686.23,376.461 z" id="boundary" inkscape:connector-curvature="0" />
	<path style="fill:none;stroke:red;stroke-width:1px;stroke-linecap:butt;stroke-linejoin:miter;stroke-opacity:1" d="M 680.699,48.2528 697.294,57.4721 z" id="boundary" inkscape:connector-curvature="0" />
	<path style="fill:none;stroke:red;stroke-width:1px;stroke-linecap:butt;stroke-linejoin:miter;stroke-opacity:1" d="M 686.23,376.461 704.669,381.993 z" id="boundary" inkscape:connector-curvature="0" />
	<path style="fill:none;stroke:red;stroke-width:1px;stroke-linecap:butt;stroke-linejoin:miter;stroke-opacity:1" d="M 697.294,57.4721 715.732,63.0037 z" id="boundary" inkscape:connector-curvature="0" />
	<path style="fill:none;stroke:red;stroke-width:1px;stroke-linecap:butt;stroke-linejoin:miter;stroke-opacity:1" d="M 704.669,381.993 723.108,381.993 z" id="boundary" inkscape:connector-curvature="0" />
	<path style="fill:none;stroke:red;stroke-width:1px;stroke-linecap:butt;stroke-linejoin:miter;stroke-opacity:1" d="M 704.669,542.409 713.888,523.97 z" id="boundary" inkscape:connector-curvature="0" />
	<path style="fill:none;stroke:red;stroke-width:1px;stroke-linecap:butt;stroke-linejoin:miter;stroke-opacity:1" d="M 704.669,542.409 723.108,542.409 z" id="boundary" inkscape:connector-curvature="0" />
	<path style="fill:none;stroke:red;stroke-width:1px;stroke-linecap:butt;stroke-linejoin:miter;stroke-opacity:1" d="M 713.888,523.97 728.639,509.219 z" id="boundary" inkscape:connector-curvature="0" />
	<path style="fill:none;stroke:red;stroke-width:1px;stroke-linecap:butt;stroke-linejoin:miter;stroke-opacity:1" d="M 715.732,63.0037 734.171,66.6914 z" id="boundary" inkscape:connector-curvature="0" />
	<path style="fill:none;stroke:red;stroke-width:1px;stroke-linecap:butt;stroke-linejoin:miter;stroke-opacity:1" d="M 723.108,381.993 739.703,391.212 z" id="boundary" inkscape:connector-curvature="0" />
	<path style="fill:none;stroke:red;stroke-width:1px;stroke-linecap:butt;stroke-linejoin:miter;stroke-opacity:1" d="M 723.108,542.409 741.546,538.721 z" id="boundary" inkscape:connector-curvature="0" />
	<path style="fill:none;stroke:red;stroke-width:1px;stroke-linecap:butt;stroke-linejoin:miter;stroke-opacity:1" d="M 723.108,570.067 723.108,588.506 z" id="boundary" inkscape:connector-curvature="0" />
	<path style="fill:none;stroke:red;stroke-width:1px;stroke-linecap:butt;stroke-linejoin:miter;stroke-opacity:1" d="M 723.108,570.067 743.39,575.599 z" id="boundary" inkscape:connector-curvature="0" />
	<path style="fill:none;stroke:red;stroke-width:1px;stroke-linecap:butt;stroke-linejoin:miter;stroke-opacity:1" d="M 723.108,588.506 734.171,603.257 z" id="boundary" inkscape:connector-curvature="0" />
	<path style="fill:none;stroke:red;stroke-width:1px;stroke-linecap:butt;stroke-linejoin:miter;stroke-opacity:1" d="M 728.639,509.219 747.078,500 z" id="boundary" inkscape:connector-curvature="0" />
	<path style="fill:none;stroke:red;stroke-width:1px;stroke-linecap:butt;stroke-linejoin:miter;stroke-opacity:1" d="M 734.171,66.6914 748.922,77.7546 z" id="boundary" inkscape:connector-curvature="0" />
	<path style="fill:none;stroke:red;stroke-width:1px;stroke-linecap:butt;stroke-linejoin:miter;stroke-opacity:1" d="M 739.703,391.212 741.546,409.651 z" id="boundary" inkscape:connector-curvature="0" />
	<path style="fill:none;stroke:red;stroke-width:1px;stroke-linecap:butt;stroke-linejoin:miter;stroke-opacity:1" d="M 741.546,409.651 752.61,424.401 z" id="boundary" inkscape:connector-curvature="0" />
	<path style="fill:none;stroke:red;stroke-width:1px;stroke-linecap:butt;stroke-linejoin:miter;stroke-opacity:1" d="M 743.39,575.599 761.829,566.379 z" id="boundary" inkscape:connector-curvature="0" />
	<path style="fill:none;stroke:red;stroke-width:1px;stroke-linecap:butt;stroke-linejoin:miter;stroke-opacity:1" d="M 747.078,500 765.517,490.781 z" id="boundary" inkscape:connector-curvature="0" />
	<path style="fill:none;stroke:red;stroke-width:1px;stroke-linecap:butt;stroke-linejoin:miter;stroke-opacity:1" d="M 748.922,77.7546 765.517,86.974 z" id="boundary" inkscape:connector-curvature="0" />
	<path style="fill:none;stroke:red;stroke-width:1px;stroke-linecap:butt;stroke-linejoin:miter;stroke-opacity:1" d="M 752.61,424.401 759.985,442.84 z" id="boundary" inkscape:connector-curvature="0" />
	<path style="fill:none;stroke:red;stroke-width:1px;stroke-linecap:butt;stroke-linejoin:miter;stroke-opacity:1" d="M 759.985,442.84 769.204,459.435 z" id="boundary" inkscape:connector-curvature="0" />
	<path style="fill:none;stroke:red;stroke-width:1px;stroke-linecap:butt;stroke-linejoin:miter;stroke-opacity:1" d="M 761.829,317.457 761.829,335.896 z" id="boundary" inkscape:connector-curvature="0" />
	<path style="fill:none;stroke:red;stroke-width:1px;stroke-linecap:butt;stroke-linejoin:miter;stroke-opacity:1" d="M 761.829,317.457 771.048,289.799 z" id="boundary" inkscape:connector-curvature="0" />
	<path style="fill:none;stroke:red;stroke-width:1px;stroke-linecap:butt;stroke-linejoin:miter;stroke-opacity:1" d="M 761.829,335.896 761.829,354.335 z" id="boundary" inkscape:connector-curvature="0" />
	<path style="fill:none;stroke:red;stroke-width:1px;stroke-linecap:butt;stroke-linejoin:miter;stroke-opacity:1" d="M 761.829,354.335 761.829,372.773 z" id="boundary" inkscape:connector-curvature="0" />
	<path style="fill:none;stroke:red;stroke-width:1px;stroke-linecap:butt;stroke-linejoin:miter;stroke-opacity:1" d="M 761.829,372.773 765.517,391.212 z" id="boundary" inkscape:connector-curvature="0" />
	<path style="fill:none;stroke:red;stroke-width:1px;stroke-linecap:butt;stroke-linejoin:miter;stroke-opacity:1" d="M 761.829,547.941 761.829,566.379 z" id="boundary" inkscape:connector-curvature="0" />
	<path style="fill:none;stroke:red;stroke-width:1px;stroke-linecap:butt;stroke-linejoin:miter;stroke-opacity:1" d="M 761.829,547.941 776.58,535.033 z" id="boundary" inkscape:connector-curvature="0" />
	<path style="fill:none;stroke:red;stroke-width:1px;stroke-linecap:butt;stroke-linejoin:miter;stroke-opacity:1" d="M 765.517,86.974 780.268,99.881 z" id="boundary" inkscape:connector-curvature="0" />
	<path style="fill:none;stroke:red;stroke-width:1px;stroke-linecap:butt;stroke-linejoin:miter;stroke-opacity:1" d="M 765.517,391.212 774.736,407.807 z" id="boundary" inkscape:connector-curvature="0" />
	<path style="fill:none;stroke:red;stroke-width:1px;stroke-linecap:butt;stroke-linejoin:miter;stroke-opacity:1" d="M 765.517,490.781 769.204,459.435 z" id="boundary" inkscape:connector-curvature="0" />
	<path style="fill:none;stroke:red;stroke-width:1px;stroke-linecap:butt;stroke-linejoin:miter;stroke-opacity:1" d="M 771.048,271.361 771.048,289.799 z" id="boundary" inkscape:connector-curvature="0" />
	<path style="fill:none;stroke:red;stroke-width:1px;stroke-linecap:butt;stroke-linejoin:miter;stroke-opacity:1" d="M 771.048,271.361 789.487,262.141 z" id="boundary" inkscape:connector-curvature="0" />
	<path style="fill:none;stroke:red;stroke-width:1px;stroke-linecap:butt;stroke-linejoin:miter;stroke-opacity:1" d="M 774.736,407.807 780.268,426.245 z" id="boundary" inkscape:connector-curvature="0" />
	<path style="fill:none;stroke:red;stroke-width:1px;stroke-linecap:butt;stroke-linejoin:miter;stroke-opacity:1" d="M 776.58,535.033 785.799,516.595 z" id="boundary" inkscape:connector-curvature="0" />
	<path style="fill:none;stroke:red;stroke-width:1px;stroke-linecap:butt;stroke-linejoin:miter;stroke-opacity:1" d="M 780.268,99.881 796.862,109.1 z" id="boundary" inkscape:connector-curvature="0" />
	<path style="fill:none;stroke:red;stroke-width:1px;stroke-linecap:butt;stroke-linejoin:miter;stroke-opacity:1" d="M 780.268,426.245 796.862,435.465 z" id="boundary" inkscape:connector-curvature="0" />
	<path style="fill:none;stroke:red;stroke-width:1px;stroke-linecap:butt;stroke-linejoin:miter;stroke-opacity:1" d="M 785.799,516.595 798.706,501.844 z" id="boundary" inkscape:connector-curvature="0" />
	<path style="fill:none;stroke:red;stroke-width:1px;stroke-linecap:butt;stroke-linejoin:miter;stroke-opacity:1" d="M 789.487,262.141 807.926,265.829 z" id="boundary" inkscape:connector-curvature="0" />
	<path style="fill:none;stroke:red;stroke-width:1px;stroke-linecap:butt;stroke-linejoin:miter;stroke-opacity:1" d="M 796.862,109.1 811.613,122.007 z" id="boundary" inkscape:connector-curvature="0" />
	<path style="fill:none;stroke:red;stroke-width:1px;stroke-linecap:butt;stroke-linejoin:miter;stroke-opacity:1" d="M 796.862,435.465 815.301,435.465 z" id="boundary" inkscape:connector-curvature="0" />
	<path style="fill:none;stroke:red;stroke-width:1px;stroke-linecap:butt;stroke-linejoin:miter;stroke-opacity:1" d="M 798.706,501.844 815.301,492.625 z" id="boundary" inkscape:connector-curvature="0" />
	<path style="fill:none;stroke:red;stroke-width:1px;stroke-linecap:butt;stroke-linejoin:miter;stroke-opacity:1" d="M 807.926,265.829 824.52,275.048 z" id="boundary" inkscape:connector-curvature="0" />
	<path style="fill:none;stroke:red;stroke-width:1px;stroke-linecap:butt;stroke-linejoin:miter;stroke-opacity:1" d="M 807.926,455.747 817.145,472.342 z" id="boundary" inkscape:connector-curvature="0" />
	<path style="fill:none;stroke:red;stroke-width:1px;stroke-linecap:butt;stroke-linejoin:miter;stroke-opacity:1" d="M 811.613,122.007 828.208,131.227 z" id="boundary" inkscape:connector-curvature="0" />
	<path style="fill:none;stroke:red;stroke-width:1px;stroke-linecap:butt;stroke-linejoin:miter;stroke-opacity:1" d="M 815.301,435.465 833.74,431.777 z" id="boundary" inkscape:connector-curvature="0" />
	<path style="fill:none;stroke:red;stroke-width:1px;stroke-linecap:butt;stroke-linejoin:miter;stroke-opacity:1" d="M 815.301,492.625 831.896,501.844 z" id="boundary" inkscape:connector-curvature="0" />
	<path style="fill:none;stroke:red;stroke-width:1px;stroke-linecap:butt;stroke-linejoin:miter;stroke-opacity:1" d="M 817.145,472.342 831.896,461.279 z" id="boundary" inkscape:connector-curvature="0" />
	<path style="fill:none;stroke:red;stroke-width:1px;stroke-linecap:butt;stroke-linejoin:miter;stroke-opacity:1" d="M 824.52,275.048 842.959,280.58 z" id="boundary" inkscape:connector-curvature="0" />
	<path style="fill:none;stroke:red;stroke-width:1px;stroke-linecap:butt;stroke-linejoin:miter;stroke-opacity:1" d="M 828.208,131.227 842.959,144.134 z" id="boundary" inkscape:connector-curvature="0" />
	<path style="fill:none;stroke:red;stroke-width:1px;stroke-linecap:butt;stroke-linejoin:miter;stroke-opacity:1" d="M 831.896,461.279 846.647,472.342 z" id="boundary" inkscape:connector-curvature="0" />
	<path style="fill:none;stroke:red;stroke-width:1px;stroke-linecap:butt;stroke-linejoin:miter;stroke-opacity:1" d="M 831.896,501.844 848.491,511.063 z" id="boundary" inkscape:connector-curvature="0" />
	<path style="fill:none;stroke:red;stroke-width:1px;stroke-linecap:butt;stroke-linejoin:miter;stroke-opacity:1" d="M 833.74,431.777 852.178,439.152 z" id="boundary" inkscape:connector-curvature="0" />
	<path style="fill:none;stroke:red;stroke-width:1px;stroke-linecap:butt;stroke-linejoin:miter;stroke-opacity:1" d="M 842.959,144.134 854.022,158.885 z" id="boundary" inkscape:connector-curvature="0" />
	<path style="fill:none;stroke:red;stroke-width:1px;stroke-linecap:butt;stroke-linejoin:miter;stroke-opacity:1" d="M 842.959,280.58 861.398,280.58 z" id="boundary" inkscape:connector-curvature="0" />
	<path style="fill:none;stroke:red;stroke-width:1px;stroke-linecap:butt;stroke-linejoin:miter;stroke-opacity:1" d="M 846.647,472.342 863.242,481.561 z" id="boundary" inkscape:connector-curvature="0" />
	<path style="fill:none;stroke:red;stroke-width:1px;stroke-linecap:butt;stroke-linejoin:miter;stroke-opacity:1" d="M 848.491,511.063 865.086,501.844 z" id="boundary" inkscape:connector-curvature="0" />
	<path style="fill:none;stroke:red;stroke-width:1px;stroke-linecap:butt;stroke-linejoin:miter;stroke-opacity:1" d="M 854.022,158.885 868.773,169.948 z" id="boundary" inkscape:connector-curvature="0" />
	<path style="fill:none;stroke:red;stroke-width:1px;stroke-linecap:butt;stroke-linejoin:miter;stroke-opacity:1" d="M 861.398,280.58 877.993,289.799 z" id="boundary" inkscape:connector-curvature="0" />
	<path style="fill:none;stroke:red;stroke-width:1px;stroke-linecap:butt;stroke-linejoin:miter;stroke-opacity:1" d="M 863.242,481.561 874.305,518.439 z" id="boundary" inkscape:connector-curvature="0" />
	<path style="fill:none;stroke:red;stroke-width:1px;stroke-linecap:butt;stroke-linejoin:miter;stroke-opacity:1" d="M 865.086,501.844 874.305,518.439 z" id="boundary" inkscape:connector-curvature="0" />
	<path style="fill:none;stroke:red;stroke-width:1px;stroke-linecap:butt;stroke-linejoin:miter;stroke-opacity:1" d="M 868.773,169.948 881.68,184.699 z" id="boundary" inkscape:connector-curvature="0" />
	<path style="fill:none;stroke:red;stroke-width:1px;stroke-linecap:butt;stroke-linejoin:miter;stroke-opacity:1" d="M 877.993,289.799 894.587,299.019 z" id="boundary" inkscape:connector-curvature="0" />
	<path style="fill:none;stroke:red;stroke-width:1px;stroke-linecap:butt;stroke-linejoin:miter;stroke-opacity:1" d="M 881.68,184.699 900.119,192.074 z" id="boundary" inkscape:connector-curvature="0" />
	<path style="fill:none;stroke:red;stroke-width:1px;stroke-linecap:butt;stroke-linejoin:miter;stroke-opacity:1" d="M 894.587,299.019 913.026,299.019 z" id="boundary" inkscape:connector-curvature="0" />
	<path style="fill:none;stroke:red;stroke-width:1px;stroke-linecap:butt;stroke-linejoin:miter;stroke-opacity:1" d="M 900.119,192.074 916.714,201.294 z" id="boundary" inkscape:connector-curvature="0" />
	<path style="fill:none;stroke:red;stroke-width:1px;stroke-linecap:butt;stroke-linejoin:miter;stroke-opacity:1" d="M 913.026,299.019 929.621,289.799 z" id="boundary" inkscape:connector-curvature="0" />
	<path style="fill:none;stroke:red;stroke-width:1px;stroke-linecap:butt;stroke-linejoin:miter;stroke-opacity:1" d="M 916.714,201.294 935.152,199.45 z" id="boundary" inkscape:connector-curvature="0" />
	<path style="fill:none;stroke:red;stroke-width:1px;stroke-linecap:butt;stroke-linejoin:miter;stroke-opacity:1" d="M 929.621,289.799 944.372,275.048 z" id="boundary" inkscape:connector-curvature="0" />
	<path style="fill:none;stroke:red;stroke-width:1px;stroke-linecap:butt;stroke-linejoin:miter;stroke-opacity:1" d="M 935.152,199.45 946.216,214.201 z" id="boundary" inkscape:connector-curvature="0" />
	<path style="fill:none;stroke:red;stroke-width:1px;stroke-linecap:butt;stroke-linejoin:miter;stroke-opacity:1" d="M 944.372,275.048 962.81,271.361 z" id="boundary" inkscape:connector-curvature="0" />
	<path style="fill:none;stroke:red;stroke-width:1px;stroke-linecap:butt;stroke-linejoin:miter;stroke-opacity:1" d="M 946.216,214.201 964.654,214.201 z" id="boundary" inkscape:connector-curvature="0" />
	<path style="fill:none;stroke:red;stroke-width:1px;stroke-linecap:butt;stroke-linejoin:miter;stroke-opacity:1" d="M 962.81,271.361 979.405,262.141 z" id="boundary" inkscape:connector-curvature="0" />
	<path style="fill:none;stroke:red;stroke-width:1px;stroke-linecap:butt;stroke-linejoin:miter;stroke-opacity:1" d="M 964.654,214.201 981.249,223.42 z" id="boundary" inkscape:connector-curvature="0" />
	<path style="fill:none;stroke:red;stroke-width:1px;stroke-linecap:butt;stroke-linejoin:miter;stroke-opacity:1" d="M 979.405,262.141 996,252.922 z" id="boundary" inkscape:connector-curvature="0" />
	<path style="fill:none;stroke:red;stroke-width:1px;stroke-linecap:butt;stroke-linejoin:miter;stroke-opacity:1" d="M 981.249,223.42 996,234.483 z" id="boundary" inkscape:connector-curvature="0" />
	<path style="fill:none;stroke:red;stroke-width:1px;stroke-linecap:butt;stroke-linejoin:miter;stroke-opacity:1" d="M 996,234.483 996,252.922 z" id="boundary" inkscape:connector-curvature="0" />
	<circle cx="4" cy="118.32" r="4" fill="#0" id="circle0"/>
	<circle cx="13.2193" cy="63.0037" r="4" fill="#0" id="circle1"/>
	<circle cx="13.2193" cy="81.4424" r="4" fill="#0" id="circle2"/>
	<circle cx="13.2193" cy="99.881" r="4" fill="#0" id="circle3"/>
	<circle cx="13.2193" cy="134.914" r="4" fill="#0" id="circle4"/>
	<circle cx="27.9703" cy="48.2528" r="4" fill="#0" id="circle5"/>
	<circle cx="31.658" cy="133.071" r="4" fill="#0" id="circle6"/>
	<circle cx="37.1896" cy="29.8141" r="4" fill="#0" id="circle7"/>
	<circle cx="37.1896" cy="151.509" r="4" fill="#0" id="circle8"/>
	<circle cx="50.0967" cy="136.758" r="4" fill="#0" id="circle9"/>
	<circle cx="55.6283" cy="20.5948" r="4" fill="#0" id="circle10"/>
	<circle cx="68.5353" cy="142.29" r="4" fill="#0" id="circle11"/>
	<circle cx="72.223" cy="11.3755" r="4" fill="#0" id="circle12"/>
	<circle cx="86.974" cy="142.29" r="4" fill="#0" id="circle13"/>
	<circle cx="90.6617" cy="4" r="4" fill="#0" id="circle14"/>
	<circle cx="103.569" cy="151.509" r="4" fill="#0" id="circle15"/>
	<circle cx="109.1" cy="4" r="4" fill="#0" id="circle16"/>
	<circle cx="122.007" cy="151.509" r="4" fill="#0" id="circle17"/>
	<circle cx="127.539" cy="11.3755" r="4" fill="#0" id="circle18"/>
	<circle cx="134.914" cy="166.26" r="4" fill="#0" id="circle19"/>
	<circle cx="144.134" cy="20.5948" r="4" fill="#0" id="circle20"/>
	<circle cx="144.134" cy="182.855" r="4" fill="#0" id="circle21"/>
	<circle cx="151.509" cy="201.294" r="4" fill="#0" id="circle22"/>
	<circle cx="160.729" cy="217.888" r="4" fill="#0" id="circle23"/>
	<circle cx="162.572" cy="26.1264" r="4" fill="#0" id="circle24"/>
	<circle cx="169.948" cy="234.483" r="4" fill="#0" id="circle25"/>
	<circle cx="175.48" cy="40.8773" r="4" fill="#0" id="circle26"/>
	<circle cx="175.48" cy="252.922" r="4" fill="#0" id="circle27"/>
	<circle cx="188.387" cy="267.673" r="4" fill="#0" id="circle28"/>
	<circle cx="190.23" cy="53.7844" r="4" fill="#0" id="circle29"/>
	<circle cx="203.138" cy="280.58" r="4" fill="#0" id="circle30"/>
	<circle cx="206.825" cy="63.0037" r="4" fill="#0" id="circle31"/>
	<circle cx="212.357" cy="297.175" r="4" fill="#0" id="circle32"/>
	<circle cx="221.576" cy="75.9108" r="4" fill="#0" id="circle33"/>
	<circle cx="227.108" cy="308.238" r="4" fill="#0" id="circle34"/>
	<circle cx="240.015" cy="75.9108" r="4" fill="#0" id="circle35"/>
	<circle cx="243.703" cy="317.457" r="4" fill="#0" id="circle36"/>
	<circle cx="256.61" cy="85.1301" r="4" fill="#0" id="circle37"/>
	<circle cx="262.141" cy="317.457" r="4" fill="#0" id="circle38"/>
	<circle cx="275.048" cy="77.7546" r="4" fill="#0" id="circle39"/>
	<circle cx="278.736" cy="326.677" r="4" fill="#0" id="circle40"/>
	<circle cx="289.799" cy="66.6914" r="4" fill="#0" id="circle41"/>
	<circle cx="295.331" cy="335.896" r="4" fill="#0" id="circle42"/>
	<circle cx="306.394" cy="57.4721" r="4" fill="#0" id="circle43"/>
	<circle cx="313.77" cy="335.896" r="4" fill="#0" id="circle44"/>
	<circle cx="324.833" cy="57.4721" r="4" fill="#0" id="circle45"/>
	<circle cx="330.364" cy="345.115" r="4" fill="#0" id="circle46"/>
	<circle cx="341.428" cy="48.2528" r="4" fill="#0" id="circle47"/>
	<circle cx="346.959" cy="354.335" r="4" fill="#0" id="circle48"/>
	<circle cx="358.022" cy="39.0335" r="4" fill="#0" id="circle49"/>
	<circle cx="365.398" cy="358.022" r="4" fill="#0" id="circle50"/>
	<circle cx="372.773" cy="26.1264" r="4" fill="#0" id="circle51"/>
	<circle cx="383.836" cy="363.554" r="4" fill="#0" id="circle52"/>
	<circle cx="391.212" cy="26.1264" r="4" fill="#0" id="circle53"/>
	<circle cx="400.431" cy="372.773" r="4" fill="#0" id="circle54"/>
	<circle cx="409.651" cy="20.5948" r="4" fill="#0" id="circle55"/>
	<circle cx="418.87" cy="372.773" r="4" fill="#0" id="circle56"/>
	<circle cx="428.089" cy="15.0632" r="4" fill="#0" id="circle57"/>
	<circle cx="435.465" cy="381.993" r="4" fill="#0" id="circle58"/>
	<circle cx="446.528" cy="11.3755" r="4" fill="#0" id="circle59"/>
	<circle cx="453.903" cy="381.993" r="4" fill="#0" id="circle60"/>
	<circle cx="464.967" cy="11.3755" r="4" fill="#0" id="circle61"/>
	<circle cx="470.498" cy="391.212" r="4" fill="#0" id="circle62"/>
	<circle cx="483.405" cy="11.3755" r="4" fill="#0" id="circle63"/>
	<circle cx="488.937" cy="398.587" r="4" fill="#0" id="circle64"/>
	<circle cx="501.844" cy="11.3755" r="4" fill="#0" id="circle65"/>
	<circle cx="507.375" cy="400.431" r="4" fill="#0" id="circle66"/>
	<circle cx="520.283" cy="11.3755" r="4" fill="#0" id="circle67"/>
	<circle cx="523.97" cy="409.651" r="4" fill="#0" id="circle68"/>
	<circle cx="538.721" cy="11.3755" r="4" fill="#0" id="circle69"/>
	<circle cx="542.409" cy="409.651" r="4" fill="#0" id="circle70"/>
	<circle cx="557.16" cy="11.3755" r="4" fill="#0" id="circle71"/>
	<circle cx="560.848" cy="409.651" r="4" fill="#0" id="circle72"/>
	<circle cx="573.755" cy="20.5948" r="4" fill="#0" id="circle73"/>
	<circle cx="579.286" cy="409.651" r="4" fill="#0" id="circle74"/>
	<circle cx="592.193" cy="20.5948" r="4" fill="#0" id="circle75"/>
	<circle cx="597.725" cy="415.182" r="4" fill="#0" id="circle76"/>
	<circle cx="610.632" cy="22.4387" r="4" fill="#0" id="circle77"/>
	<circle cx="616.164" cy="409.651" r="4" fill="#0" id="circle78"/>
	<circle cx="629.071" cy="29.8141" r="4" fill="#0" id="circle79"/>
	<circle cx="634.602" cy="409.651" r="4" fill="#0" id="circle80"/>
	<circle cx="645.665" cy="39.0335" r="4" fill="#0" id="circle81"/>
	<circle cx="649.353" cy="394.9" r="4" fill="#0" id="circle82"/>
	<circle cx="662.26" cy="48.2528" r="4" fill="#0" id="circle83"/>
	<circle cx="667.792" cy="385.68" r="4" fill="#0" id="circle84"/>
	<circle cx="680.699" cy="48.2528" r="4" fill="#0" id="circle85"/>
	<circle cx="686.23" cy="376.461" r="4" fill="#0" id="circle86"/>
	<circle cx="697.294" cy="57.4721" r="4" fill="#0" id="circle87"/>
	<circle cx="704.669" cy="381.993" r="4" fill="#0" id="circle88"/>
	<circle cx="704.669" cy="542.409" r="4" fill="#0" id="circle89"/>
	<circle cx="713.888" cy="523.97" r="4" fill="#0" id="circle90"/>
	<circle cx="715.732" cy="63.0037" r="4" fill="#0" id="circle91"/>
	<circle cx="723.108" cy="381.993" r="4" fill="#0" id="circle92"/>
	<circle cx="723.108" cy="542.409" r="4" fill="#0" id="circle93"/>
	<circle cx="723.108" cy="570.067" r="4" fill="#0" id="circle94"/>
	<circle cx="723.108" cy="588.506" r="4" fill="#0" id="circle95"/>
	<circle cx="728.639" cy="509.219" r="4" fill="#0" id="circle96"/>
	<circle cx="734.171" cy="66.6914" r="4" fill="#0" id="circle97"/>
	<circle cx="734.171" cy="603.257" r="4" fill="#0" id="circle98"/>
	<circle cx="739.703" cy="391.212" r="4" fill="#0" id="circle99"/>
	<circle cx="741.546" cy="409.651" r="4" fill="#0" id="circle100"/>
	<circle cx="741.546" cy="538.721" r="4" fill="#0" id="circle101"/>
	<circle cx="743.39" cy="575.599" r="4" fill="#0" id="circle102"/>
	<circle cx="747.078" cy="500" r="4" fill="#0" id="circle103"/>
	<circle cx="748.922" cy="77.7546" r="4" fill="#0" id="circle104"/>
	<circle cx="752.61" cy="424.401" r="4" fill="#0" id="circle105"/>
	<circle cx="759.985" cy="442.84" r="4" fill="#0" id="circle106"/>
	<circle cx="761.829" cy="317.457" r="4" fill="#0" id="circle107"/>
	<circle cx="761.829" cy="335.896" r="4" fill="#0" id="circle108"/>
	<circle cx="761.829" cy="354.335" r="4" fill="#0" id="circle109"/>
	<circle cx="761.829" cy="372.773" r="4" fill="#0" id="circle110"/>
	<circle cx="761.829" cy="547.941" r="4" fill="#0" id="circle111"/>
	<circle cx="761.829" cy="566.379" r="4" fill="#0" id="circle112"/>
	<circle cx="765.517" cy="86.974" r="4" fill="#0" id="circle113"/>
	<circle cx="765.517" cy="391.212" r="4" fill="#0" id="circle114"/>
	<circle cx="765.517" cy="490.781" r="4" fill="#0" id="circle115"/>
	<circle cx="769.204" cy="459.435" r="4" fill="#0" id="circle116"/>
	<circle cx="771.048" cy="271.361" r="4" fill="#0" id="circle117"/>
	<circle cx="771.048" cy="289.799" r="4" fill="#0" id="circle118"/>
	<circle cx="774.736" cy="407.807" r="4" fill="#0" id="circle119"/>
	<circle cx="776.58" cy="535.033" r="4" fill="#0" id="circle120"/>
	<circle cx="780.268" cy="99.881" r="4" fill="#0" id="circle121"/>
	<circle cx="780.268" cy="426.245" r="4" fill="#0" id="circle122"/>
	<circle cx="785.799" cy="516.595" r="4" fill="#0" id="circle123"/>
	<circle cx="789.487" cy="262.141" r="4" fill="#0" id="circle124"/>
	<circle cx="796.862" cy="109.1" r="4" fill="#0" id="circle125"/>
	<circle cx="796.862" cy="435.465" r="4" fill="#0" id="circle126"/>
	<circle cx="798.706" cy="501.844" r="4" fill="#0" id="circle127"/>
	<circle cx="807.926" cy="265.829" r="4" fill="#0" id="circle128"/>
	<circle cx="807.926" cy="455.747" r="4" fill="#0" id="circle129"/>
	<circle cx="811.613" cy="122.007" r="4" fill="#0" id="circle130"/>
	<circle cx="815.301" cy="435.465" r="4" fill="#0" id="circle131"/>
	<circle cx="815.301" cy="492.625" r="4" fill="#0" id="circle132"/>
	<circle cx="817.145" cy="472.342" r="4" fill="#0" id="circle133"/>
	<circle cx="824.52" cy="275.048" r="4" fill="#0" id="circle134"/>
	<circle cx="828.208" cy="131.227" r="4" fill="#0" id="circle135"/>
	<circle cx="831.896" cy="461.279" r="4" fill="#0" id="circle136"/>
	<circle cx="831.896" cy="501.844" r="4" fill="#0" id="circle137"/>
	<circle cx="833.74" cy="431.777" r="4" fill="#0" id="circle138"/>
	<circle cx="842.959" cy="144.134" r="4" fill="#0" id="circle139"/>
	<circle cx="842.959" cy="280.58" r="4" fill="#0" id="circle140"/>
	<circle cx="846.647" cy="472.342" r="4" fill="#0" id="circle141"/>
	<circle cx="848.491" cy="511.063" r="4" fill="#0" id="circle142"/>
	<circle cx="852.178" cy="439.152" r="4" fill="#0" id="circle143"/>
	<circle cx="854.022" cy="158.885" r="4" fill="#0" id="circle144"/>
	<circle cx="861.398" cy="280.58" r="4" fill="#0" id="circle145"/>
	<circle cx="863.242" cy="481.561" r="4" fill="#0" id="circle146"/>
	<circle cx="865.086" cy="501.844" r="4" fill="#0" id="circle147"/>
	<circle cx="868.773" cy="169.948" r="4" fill="#0" id="circle148"/>
	<circle cx="874.305" cy="518.439" r="4" fill="#0" id="circle149"/>
	<circle cx="877.993" cy="289.799" r="4" fill="#0" id="circle150"/>
	<circle cx="881.68" cy="184.699" r="4" fill="#0" id="circle151"/>
	<circle cx="894.587" cy="299.019" r="4" fill="#0" id="circle152"/>
	<circle cx="900.119" cy="192.074" r="4" fill="#0" id="circle153"/>
	<circle cx="913.026" cy="299.019" r="4" fill="#0" id="circle154"/>
	<circle cx="916.714" cy="201.294" r="4" fill="#0" id="circle155"/>
	<circle cx="929.621" cy="289.799" r="4" fill="#0" id="circle156"/>
	<circle cx="935.152" cy="199.45" r="4" fill="#0" id="circle157"/>
	<circle cx="944.372" cy="275.048" r="4" fill="#0" id="circle158"/>
	<circle cx="946.216" cy="214.201" r="4" fill="#0" id="circle159"/>
	<circle cx="962.81" cy="271.361" r="4" fill="#0" id="circle160"/>
	<circle cx="964.654" cy="214.201" r="4" fill="#0" id="circle161"/>
	<circle cx="979.405" cy="262.141" r="4" fill="#0" id="circle162"/>
	<circle cx="981.249" cy="223.42" r="4" fill="#0" id="circle163"/>
	<circle cx="996" cy="234.483" r="4" fill="#0" id="circle164"/>
	<circle cx="996" cy="252.922" r="4" fill="#0" id="circle165"/>
	</g>
</svg>