<?xml version="1.0" encoding="UTF-8" standalone="no"?>
<!-- Created with CurveBenchmark -->
<svg
	xmlns:dc="http://purl.org/dc/elements/1.1/"
	xmlns:cc="http://creativecommons.org/ns#"
	xmlns:rdf="http://www.w3.org/1999/02/22-rdf-syntax-ns#"
	xmlns:svg="http://www.w3.org/2000/svg"
	xmlns="http://www.w3.org/2000/svg"
	xmlns:sodipodi="http://sodipodi.sourceforge.net/DTD/sodipodi-0.dtd"
	xmlns:inkscape="http://www.inkscape.org/namespaces/inkscape"
	width="1000"
	height="1000"
	id="svg2"
	version="1.1"
	sodipodi:docname="manifold/discur-ray-3.png.txt">
<defs
	id="defs4" />
<metadata
	id="metadata7">
	<rdf:RDF>
		<cc:Work
			rdf:about="">
			<dc:format>image/svg+xml</dc:format>
			<dc:type
				rdf:resource="http://purl.org/dc/dcmitype/StillImage" />
			<dc:title></dc:title>
		</cc:Work>
	</rdf:RDF>
</metadata>
<g
	inkscape:label="Layer 1"
	inkscape:groupmode="layer"
	id="layer1">
	<path style="fill:none;stroke:red;stroke-width:1px;stroke-linecap:butt;stroke-linejoin:miter;stroke-opacity:1" d="M 4,403.85 4,410.481 z" id="boundary" inkscape:connector-curvature="0" />
	<path style="fill:none;stroke:red;stroke-width:1px;stroke-linecap:butt;stroke-linejoin:miter;stroke-opacity:1" d="M 4,403.85 7.31551,397.219 z" id="boundary" inkscape:connector-curvature="0" />
	<path style="fill:none;stroke:red;stroke-width:1px;stroke-linecap:butt;stroke-linejoin:miter;stroke-opacity:1" d="M 4,410.481 7.31551,423.08 z" id="boundary" inkscape:connector-curvature="0" />
	<path style="fill:none;stroke:red;stroke-width:1px;stroke-linecap:butt;stroke-linejoin:miter;stroke-opacity:1" d="M 7.31551,397.219 12.6203,391.914 z" id="boundary" inkscape:connector-curvature="0" />
	<path style="fill:none;stroke:red;stroke-width:1px;stroke-linecap:butt;stroke-linejoin:miter;stroke-opacity:1" d="M 7.31551,423.08 7.31551,436.342 z" id="boundary" inkscape:connector-curvature="0" />
	<path style="fill:none;stroke:red;stroke-width:1px;stroke-linecap:butt;stroke-linejoin:miter;stroke-opacity:1" d="M 7.31551,436.342 7.31551,442.973 z" id="boundary" inkscape:connector-curvature="0" />
	<path style="fill:none;stroke:red;stroke-width:1px;stroke-linecap:butt;stroke-linejoin:miter;stroke-opacity:1" d="M 7.31551,442.973 10.631,455.572 z" id="boundary" inkscape:connector-curvature="0" />
	<path style="fill:none;stroke:red;stroke-width:1px;stroke-linecap:butt;stroke-linejoin:miter;stroke-opacity:1" d="M 10.631,455.572 13.9465,461.54 z" id="boundary" inkscape:connector-curvature="0" />
	<path style="fill:none;stroke:red;stroke-width:1px;stroke-linecap:butt;stroke-linejoin:miter;stroke-opacity:1" d="M 12.6203,391.914 17.9251,386.61 z" id="boundary" inkscape:connector-curvature="0" />
	<path style="fill:none;stroke:red;stroke-width:1px;stroke-linecap:butt;stroke-linejoin:miter;stroke-opacity:1" d="M 13.9465,461.54 18.5882,474.139 z" id="boundary" inkscape:connector-curvature="0" />
	<path style="fill:none;stroke:red;stroke-width:1px;stroke-linecap:butt;stroke-linejoin:miter;stroke-opacity:1" d="M 17.9251,386.61 27.2086,374.011 z" id="boundary" inkscape:connector-curvature="0" />
	<path style="fill:none;stroke:red;stroke-width:1px;stroke-linecap:butt;stroke-linejoin:miter;stroke-opacity:1" d="M 18.5882,474.139 27.8717,483.422 z" id="boundary" inkscape:connector-curvature="0" />
	<path style="fill:none;stroke:red;stroke-width:1px;stroke-linecap:butt;stroke-linejoin:miter;stroke-opacity:1" d="M 27.2086,374.011 33.8396,367.38 z" id="boundary" inkscape:connector-curvature="0" />
	<path style="fill:none;stroke:red;stroke-width:1px;stroke-linecap:butt;stroke-linejoin:miter;stroke-opacity:1" d="M 27.8717,483.422 35.8289,494.695 z" id="boundary" inkscape:connector-curvature="0" />
	<path style="fill:none;stroke:red;stroke-width:1px;stroke-linecap:butt;stroke-linejoin:miter;stroke-opacity:1" d="M 33.8396,367.38 39.1444,362.075 z" id="boundary" inkscape:connector-curvature="0" />
	<path style="fill:none;stroke:red;stroke-width:1px;stroke-linecap:butt;stroke-linejoin:miter;stroke-opacity:1" d="M 35.8289,494.695 40.4706,500 z" id="boundary" inkscape:connector-curvature="0" />
	<path style="fill:none;stroke:red;stroke-width:1px;stroke-linecap:butt;stroke-linejoin:miter;stroke-opacity:1" d="M 39.1444,362.075 44.4492,356.77 z" id="boundary" inkscape:connector-curvature="0" />
	<path style="fill:none;stroke:red;stroke-width:1px;stroke-linecap:butt;stroke-linejoin:miter;stroke-opacity:1" d="M 40.4706,500 45.7754,504.642 z" id="boundary" inkscape:connector-curvature="0" />
	<path style="fill:none;stroke:red;stroke-width:1px;stroke-linecap:butt;stroke-linejoin:miter;stroke-opacity:1" d="M 44.4492,356.77 49.754,352.128 z" id="boundary" inkscape:connector-curvature="0" />
	<path style="fill:none;stroke:red;stroke-width:1px;stroke-linecap:butt;stroke-linejoin:miter;stroke-opacity:1" d="M 45.7754,504.642 50.4171,509.947 z" id="boundary" inkscape:connector-curvature="0" />
	<path style="fill:none;stroke:red;stroke-width:1px;stroke-linecap:butt;stroke-linejoin:miter;stroke-opacity:1" d="M 49.754,352.128 54.3957,346.824 z" id="boundary" inkscape:connector-curvature="0" />
	<path style="fill:none;stroke:red;stroke-width:1px;stroke-linecap:butt;stroke-linejoin:miter;stroke-opacity:1" d="M 50.4171,509.947 55.7219,514.588 z" id="boundary" inkscape:connector-curvature="0" />
	<path style="fill:none;stroke:red;stroke-width:1px;stroke-linecap:butt;stroke-linejoin:miter;stroke-opacity:1" d="M 54.3957,346.824 66.9947,334.225 z" id="boundary" inkscape:connector-curvature="0" />
	<path style="fill:none;stroke:red;stroke-width:1px;stroke-linecap:butt;stroke-linejoin:miter;stroke-opacity:1" d="M 55.7219,514.588 61.6898,517.904 z" id="boundary" inkscape:connector-curvature="0" />
	<path style="fill:none;stroke:red;stroke-width:1px;stroke-linecap:butt;stroke-linejoin:miter;stroke-opacity:1" d="M 61.6898,517.904 66.9947,521.882 z" id="boundary" inkscape:connector-curvature="0" />
	<path style="fill:none;stroke:red;stroke-width:1px;stroke-linecap:butt;stroke-linejoin:miter;stroke-opacity:1" d="M 66.9947,334.225 73.6257,327.594 z" id="boundary" inkscape:connector-curvature="0" />
	<path style="fill:none;stroke:red;stroke-width:1px;stroke-linecap:butt;stroke-linejoin:miter;stroke-opacity:1" d="M 66.9947,521.882 70.9733,527.187 z" id="boundary" inkscape:connector-curvature="0" />
	<path style="fill:none;stroke:red;stroke-width:1px;stroke-linecap:butt;stroke-linejoin:miter;stroke-opacity:1" d="M 70.9733,527.187 76.2781,531.829 z" id="boundary" inkscape:connector-curvature="0" />
	<path style="fill:none;stroke:red;stroke-width:1px;stroke-linecap:butt;stroke-linejoin:miter;stroke-opacity:1" d="M 73.6257,327.594 80.2567,324.278 z" id="boundary" inkscape:connector-curvature="0" />
	<path style="fill:none;stroke:red;stroke-width:1px;stroke-linecap:butt;stroke-linejoin:miter;stroke-opacity:1" d="M 76.2781,531.829 80.9198,537.134 z" id="boundary" inkscape:connector-curvature="0" />
	<path style="fill:none;stroke:red;stroke-width:1px;stroke-linecap:butt;stroke-linejoin:miter;stroke-opacity:1" d="M 80.2567,324.278 85.5615,318.973 z" id="boundary" inkscape:connector-curvature="0" />
	<path style="fill:none;stroke:red;stroke-width:1px;stroke-linecap:butt;stroke-linejoin:miter;stroke-opacity:1" d="M 80.9198,537.134 86.8877,540.449 z" id="boundary" inkscape:connector-curvature="0" />
	<path style="fill:none;stroke:red;stroke-width:1px;stroke-linecap:butt;stroke-linejoin:miter;stroke-opacity:1" d="M 85.5615,318.973 97.4973,310.353 z" id="boundary" inkscape:connector-curvature="0" />
	<path style="fill:none;stroke:red;stroke-width:1px;stroke-linecap:butt;stroke-linejoin:miter;stroke-opacity:1" d="M 86.8877,540.449 92.1925,545.091 z" id="boundary" inkscape:connector-curvature="0" />
	<path style="fill:none;stroke:red;stroke-width:1px;stroke-linecap:butt;stroke-linejoin:miter;stroke-opacity:1" d="M 92.1925,545.091 98.1604,548.406 z" id="boundary" inkscape:connector-curvature="0" />
	<path style="fill:none;stroke:red;stroke-width:1px;stroke-linecap:butt;stroke-linejoin:miter;stroke-opacity:1" d="M 97.4973,310.353 102.802,305.711 z" id="boundary" inkscape:connector-curvature="0" />
	<path style="fill:none;stroke:red;stroke-width:1px;stroke-linecap:butt;stroke-linejoin:miter;stroke-opacity:1" d="M 98.1604,548.406 103.465,552.385 z" id="boundary" inkscape:connector-curvature="0" />
	<path style="fill:none;stroke:red;stroke-width:1px;stroke-linecap:butt;stroke-linejoin:miter;stroke-opacity:1" d="M 102.802,305.711 107.444,300.406 z" id="boundary" inkscape:connector-curvature="0" />
	<path style="fill:none;stroke:red;stroke-width:1px;stroke-linecap:butt;stroke-linejoin:miter;stroke-opacity:1" d="M 103.465,552.385 114.738,560.342 z" id="boundary" inkscape:connector-curvature="0" />
	<path style="fill:none;stroke:red;stroke-width:1px;stroke-linecap:butt;stroke-linejoin:miter;stroke-opacity:1" d="M 107.444,300.406 114.075,297.091 z" id="boundary" inkscape:connector-curvature="0" />
	<path style="fill:none;stroke:red;stroke-width:1px;stroke-linecap:butt;stroke-linejoin:miter;stroke-opacity:1" d="M 114.075,297.091 119.38,292.449 z" id="boundary" inkscape:connector-curvature="0" />
	<path style="fill:none;stroke:red;stroke-width:1px;stroke-linecap:butt;stroke-linejoin:miter;stroke-opacity:1" d="M 114.738,560.342 126.011,568.299 z" id="boundary" inkscape:connector-curvature="0" />
	<path style="fill:none;stroke:red;stroke-width:1px;stroke-linecap:butt;stroke-linejoin:miter;stroke-opacity:1" d="M 119.38,292.449 125.348,289.134 z" id="boundary" inkscape:connector-curvature="0" />
	<path style="fill:none;stroke:red;stroke-width:1px;stroke-linecap:butt;stroke-linejoin:miter;stroke-opacity:1" d="M 125.348,289.134 130.652,283.829 z" id="boundary" inkscape:connector-curvature="0" />
	<path style="fill:none;stroke:red;stroke-width:1px;stroke-linecap:butt;stroke-linejoin:miter;stroke-opacity:1" d="M 126.011,568.299 131.979,571.615 z" id="boundary" inkscape:connector-curvature="0" />
	<path style="fill:none;stroke:red;stroke-width:1px;stroke-linecap:butt;stroke-linejoin:miter;stroke-opacity:1" d="M 130.652,283.829 135.957,279.187 z" id="boundary" inkscape:connector-curvature="0" />
	<path style="fill:none;stroke:red;stroke-width:1px;stroke-linecap:butt;stroke-linejoin:miter;stroke-opacity:1" d="M 131.979,571.615 143.914,578.246 z" id="boundary" inkscape:connector-curvature="0" />
	<path style="fill:none;stroke:red;stroke-width:1px;stroke-linecap:butt;stroke-linejoin:miter;stroke-opacity:1" d="M 135.957,279.187 141.925,275.872 z" id="boundary" inkscape:connector-curvature="0" />
	<path style="fill:none;stroke:red;stroke-width:1px;stroke-linecap:butt;stroke-linejoin:miter;stroke-opacity:1" d="M 141.925,275.872 147.23,270.567 z" id="boundary" inkscape:connector-curvature="0" />
	<path style="fill:none;stroke:red;stroke-width:1px;stroke-linecap:butt;stroke-linejoin:miter;stroke-opacity:1" d="M 143.914,578.246 149.882,581.561 z" id="boundary" inkscape:connector-curvature="0" />
	<path style="fill:none;stroke:red;stroke-width:1px;stroke-linecap:butt;stroke-linejoin:miter;stroke-opacity:1" d="M 147.23,270.567 152.535,265.925 z" id="boundary" inkscape:connector-curvature="0" />
	<path style="fill:none;stroke:red;stroke-width:1px;stroke-linecap:butt;stroke-linejoin:miter;stroke-opacity:1" d="M 149.882,581.561 155.85,584.877 z" id="boundary" inkscape:connector-curvature="0" />
	<path style="fill:none;stroke:red;stroke-width:1px;stroke-linecap:butt;stroke-linejoin:miter;stroke-opacity:1" d="M 152.535,265.925 163.807,257.305 z" id="boundary" inkscape:connector-curvature="0" />
	<path style="fill:none;stroke:red;stroke-width:1px;stroke-linecap:butt;stroke-linejoin:miter;stroke-opacity:1" d="M 155.85,584.877 160.492,590.182 z" id="boundary" inkscape:connector-curvature="0" />
	<path style="fill:none;stroke:red;stroke-width:1px;stroke-linecap:butt;stroke-linejoin:miter;stroke-opacity:1" d="M 160.492,590.182 165.797,594.824 z" id="boundary" inkscape:connector-curvature="0" />
	<path style="fill:none;stroke:red;stroke-width:1px;stroke-linecap:butt;stroke-linejoin:miter;stroke-opacity:1" d="M 163.807,257.305 169.112,252.663 z" id="boundary" inkscape:connector-curvature="0" />
	<path style="fill:none;stroke:red;stroke-width:1px;stroke-linecap:butt;stroke-linejoin:miter;stroke-opacity:1" d="M 165.797,594.824 171.765,598.139 z" id="boundary" inkscape:connector-curvature="0" />
	<path style="fill:none;stroke:red;stroke-width:1px;stroke-linecap:butt;stroke-linejoin:miter;stroke-opacity:1" d="M 169.112,252.663 173.754,247.358 z" id="boundary" inkscape:connector-curvature="0" />
	<path style="fill:none;stroke:red;stroke-width:1px;stroke-linecap:butt;stroke-linejoin:miter;stroke-opacity:1" d="M 171.765,598.139 177.733,601.455 z" id="boundary" inkscape:connector-curvature="0" />
	<path style="fill:none;stroke:red;stroke-width:1px;stroke-linecap:butt;stroke-linejoin:miter;stroke-opacity:1" d="M 173.754,247.358 179.722,241.39 z" id="boundary" inkscape:connector-curvature="0" />
	<path style="fill:none;stroke:red;stroke-width:1px;stroke-linecap:butt;stroke-linejoin:miter;stroke-opacity:1" d="M 177.733,601.455 183.701,604.77 z" id="boundary" inkscape:connector-curvature="0" />
	<path style="fill:none;stroke:red;stroke-width:1px;stroke-linecap:butt;stroke-linejoin:miter;stroke-opacity:1" d="M 179.722,241.39 185.027,236.086 z" id="boundary" inkscape:connector-curvature="0" />
	<path style="fill:none;stroke:red;stroke-width:1px;stroke-linecap:butt;stroke-linejoin:miter;stroke-opacity:1" d="M 185.027,236.086 196.299,224.813 z" id="boundary" inkscape:connector-curvature="0" />
	<path style="fill:none;stroke:red;stroke-width:1px;stroke-linecap:butt;stroke-linejoin:miter;stroke-opacity:1" d="M 193.647,613.39 200.278,614.717 z" id="boundary" inkscape:connector-curvature="0" />
	<path style="fill:none;stroke:red;stroke-width:1px;stroke-linecap:butt;stroke-linejoin:miter;stroke-opacity:1" d="M 193.647,613.39 206.246,618.032 z" id="boundary" inkscape:connector-curvature="0" />
	<path style="fill:none;stroke:red;stroke-width:1px;stroke-linecap:butt;stroke-linejoin:miter;stroke-opacity:1" d="M 196.299,224.813 202.93,221.497 z" id="boundary" inkscape:connector-curvature="0" />
	<path style="fill:none;stroke:red;stroke-width:1px;stroke-linecap:butt;stroke-linejoin:miter;stroke-opacity:1" d="M 200.278,614.717 206.246,618.032 z" id="boundary" inkscape:connector-curvature="0" />
	<path style="fill:none;stroke:red;stroke-width:1px;stroke-linecap:butt;stroke-linejoin:miter;stroke-opacity:1" d="M 202.93,221.497 208.235,216.193 z" id="boundary" inkscape:connector-curvature="0" />
	<path style="fill:none;stroke:red;stroke-width:1px;stroke-linecap:butt;stroke-linejoin:miter;stroke-opacity:1" d="M 208.235,216.193 214.203,212.877 z" id="boundary" inkscape:connector-curvature="0" />
	<path style="fill:none;stroke:red;stroke-width:1px;stroke-linecap:butt;stroke-linejoin:miter;stroke-opacity:1" d="M 214.203,212.877 220.834,200.278 z" id="boundary" inkscape:connector-curvature="0" />
	<path style="fill:none;stroke:red;stroke-width:1px;stroke-linecap:butt;stroke-linejoin:miter;stroke-opacity:1" d="M 218.182,624.663 224.813,627.316 z" id="boundary" inkscape:connector-curvature="0" />
	<path style="fill:none;stroke:red;stroke-width:1px;stroke-linecap:butt;stroke-linejoin:miter;stroke-opacity:1" d="M 220.834,200.278 232.77,188.342 z" id="boundary" inkscape:connector-curvature="0" />
	<path style="fill:none;stroke:red;stroke-width:1px;stroke-linecap:butt;stroke-linejoin:miter;stroke-opacity:1" d="M 224.813,627.316 234.096,634.61 z" id="boundary" inkscape:connector-curvature="0" />
	<path style="fill:none;stroke:red;stroke-width:1px;stroke-linecap:butt;stroke-linejoin:miter;stroke-opacity:1" d="M 232.77,188.342 236.086,181.711 z" id="boundary" inkscape:connector-curvature="0" />
	<path style="fill:none;stroke:red;stroke-width:1px;stroke-linecap:butt;stroke-linejoin:miter;stroke-opacity:1" d="M 234.096,634.61 240.064,637.925 z" id="boundary" inkscape:connector-curvature="0" />
	<path style="fill:none;stroke:red;stroke-width:1px;stroke-linecap:butt;stroke-linejoin:miter;stroke-opacity:1" d="M 236.086,181.711 242.717,175.08 z" id="boundary" inkscape:connector-curvature="0" />
	<path style="fill:none;stroke:red;stroke-width:1px;stroke-linecap:butt;stroke-linejoin:miter;stroke-opacity:1" d="M 240.064,637.925 252.663,641.241 z" id="boundary" inkscape:connector-curvature="0" />
	<path style="fill:none;stroke:red;stroke-width:1px;stroke-linecap:butt;stroke-linejoin:miter;stroke-opacity:1" d="M 242.717,175.08 248.021,169.775 z" id="boundary" inkscape:connector-curvature="0" />
	<path style="fill:none;stroke:red;stroke-width:1px;stroke-linecap:butt;stroke-linejoin:miter;stroke-opacity:1" d="M 248.021,169.775 253.326,164.471 z" id="boundary" inkscape:connector-curvature="0" />
	<path style="fill:none;stroke:red;stroke-width:1px;stroke-linecap:butt;stroke-linejoin:miter;stroke-opacity:1" d="M 252.663,641.241 258.631,644.556 z" id="boundary" inkscape:connector-curvature="0" />
	<path style="fill:none;stroke:red;stroke-width:1px;stroke-linecap:butt;stroke-linejoin:miter;stroke-opacity:1" d="M 253.326,164.471 262.61,151.872 z" id="boundary" inkscape:connector-curvature="0" />
	<path style="fill:none;stroke:red;stroke-width:1px;stroke-linecap:butt;stroke-linejoin:miter;stroke-opacity:1" d="M 258.631,644.556 264.599,647.872 z" id="boundary" inkscape:connector-curvature="0" />
	<path style="fill:none;stroke:red;stroke-width:1px;stroke-linecap:butt;stroke-linejoin:miter;stroke-opacity:1" d="M 262.61,151.872 271.23,139.936 z" id="boundary" inkscape:connector-curvature="0" />
	<path style="fill:none;stroke:red;stroke-width:1px;stroke-linecap:butt;stroke-linejoin:miter;stroke-opacity:1" d="M 264.599,647.872 277.198,651.187 z" id="boundary" inkscape:connector-curvature="0" />
	<path style="fill:none;stroke:red;stroke-width:1px;stroke-linecap:butt;stroke-linejoin:miter;stroke-opacity:1" d="M 271.23,139.936 276.535,134.631 z" id="boundary" inkscape:connector-curvature="0" />
	<path style="fill:none;stroke:red;stroke-width:1px;stroke-linecap:butt;stroke-linejoin:miter;stroke-opacity:1" d="M 276.535,134.631 284.492,123.358 z" id="boundary" inkscape:connector-curvature="0" />
	<path style="fill:none;stroke:red;stroke-width:1px;stroke-linecap:butt;stroke-linejoin:miter;stroke-opacity:1" d="M 277.198,651.187 289.797,654.503 z" id="boundary" inkscape:connector-curvature="0" />
	<path style="fill:none;stroke:red;stroke-width:1px;stroke-linecap:butt;stroke-linejoin:miter;stroke-opacity:1" d="M 284.492,123.358 289.134,115.401 z" id="boundary" inkscape:connector-curvature="0" />
	<path style="fill:none;stroke:red;stroke-width:1px;stroke-linecap:butt;stroke-linejoin:miter;stroke-opacity:1" d="M 289.134,115.401 294.439,110.096 z" id="boundary" inkscape:connector-curvature="0" />
	<path style="fill:none;stroke:red;stroke-width:1px;stroke-linecap:butt;stroke-linejoin:miter;stroke-opacity:1" d="M 289.797,654.503 296.428,654.503 z" id="boundary" inkscape:connector-curvature="0" />
	<path style="fill:none;stroke:red;stroke-width:1px;stroke-linecap:butt;stroke-linejoin:miter;stroke-opacity:1" d="M 294.439,110.096 299.743,104.791 z" id="boundary" inkscape:connector-curvature="0" />
	<path style="fill:none;stroke:red;stroke-width:1px;stroke-linecap:butt;stroke-linejoin:miter;stroke-opacity:1" d="M 296.428,654.503 302.396,665.775 z" id="boundary" inkscape:connector-curvature="0" />
	<path style="fill:none;stroke:red;stroke-width:1px;stroke-linecap:butt;stroke-linejoin:miter;stroke-opacity:1" d="M 299.08,675.722 299.08,682.353 z" id="boundary" inkscape:connector-curvature="0" />
	<path style="fill:none;stroke:red;stroke-width:1px;stroke-linecap:butt;stroke-linejoin:miter;stroke-opacity:1" d="M 299.08,675.722 302.396,665.775 z" id="boundary" inkscape:connector-curvature="0" />
	<path style="fill:none;stroke:red;stroke-width:1px;stroke-linecap:butt;stroke-linejoin:miter;stroke-opacity:1" d="M 299.08,682.353 299.08,688.984 z" id="boundary" inkscape:connector-curvature="0" />
	<path style="fill:none;stroke:red;stroke-width:1px;stroke-linecap:butt;stroke-linejoin:miter;stroke-opacity:1" d="M 299.08,688.984 299.08,702.246 z" id="boundary" inkscape:connector-curvature="0" />
	<path style="fill:none;stroke:red;stroke-width:1px;stroke-linecap:butt;stroke-linejoin:miter;stroke-opacity:1" d="M 299.08,702.246 299.08,708.877 z" id="boundary" inkscape:connector-curvature="0" />
	<path style="fill:none;stroke:red;stroke-width:1px;stroke-linecap:butt;stroke-linejoin:miter;stroke-opacity:1" d="M 299.08,708.877 299.08,715.508 z" id="boundary" inkscape:connector-curvature="0" />
	<path style="fill:none;stroke:red;stroke-width:1px;stroke-linecap:butt;stroke-linejoin:miter;stroke-opacity:1" d="M 299.08,715.508 309.027,724.128 z" id="boundary" inkscape:connector-curvature="0" />
	<path style="fill:none;stroke:red;stroke-width:1px;stroke-linecap:butt;stroke-linejoin:miter;stroke-opacity:1" d="M 299.743,104.791 309.027,92.1925 z" id="boundary" inkscape:connector-curvature="0" />
	<path style="fill:none;stroke:red;stroke-width:1px;stroke-linecap:butt;stroke-linejoin:miter;stroke-opacity:1" d="M 309.027,92.1925 317.647,80.2567 z" id="boundary" inkscape:connector-curvature="0" />
	<path style="fill:none;stroke:red;stroke-width:1px;stroke-linecap:butt;stroke-linejoin:miter;stroke-opacity:1" d="M 309.027,724.128 315.658,724.128 z" id="boundary" inkscape:connector-curvature="0" />
	<path style="fill:none;stroke:red;stroke-width:1px;stroke-linecap:butt;stroke-linejoin:miter;stroke-opacity:1" d="M 315.658,724.128 320.963,720.15 z" id="boundary" inkscape:connector-curvature="0" />
	<path style="fill:none;stroke:red;stroke-width:1px;stroke-linecap:butt;stroke-linejoin:miter;stroke-opacity:1" d="M 317.647,80.2567 322.289,72.2995 z" id="boundary" inkscape:connector-curvature="0" />
	<path style="fill:none;stroke:red;stroke-width:1px;stroke-linecap:butt;stroke-linejoin:miter;stroke-opacity:1" d="M 320.963,720.15 326.93,723.465 z" id="boundary" inkscape:connector-curvature="0" />
	<path style="fill:none;stroke:red;stroke-width:1px;stroke-linecap:butt;stroke-linejoin:miter;stroke-opacity:1" d="M 322.289,72.2995 325.604,65.6684 z" id="boundary" inkscape:connector-curvature="0" />
	<path style="fill:none;stroke:red;stroke-width:1px;stroke-linecap:butt;stroke-linejoin:miter;stroke-opacity:1" d="M 325.604,65.6684 334.225,53.7326 z" id="boundary" inkscape:connector-curvature="0" />
	<path style="fill:none;stroke:red;stroke-width:1px;stroke-linecap:butt;stroke-linejoin:miter;stroke-opacity:1" d="M 326.93,723.465 332.235,727.444 z" id="boundary" inkscape:connector-curvature="0" />
	<path style="fill:none;stroke:red;stroke-width:1px;stroke-linecap:butt;stroke-linejoin:miter;stroke-opacity:1" d="M 332.235,727.444 338.203,730.759 z" id="boundary" inkscape:connector-curvature="0" />
	<path style="fill:none;stroke:red;stroke-width:1px;stroke-linecap:butt;stroke-linejoin:miter;stroke-opacity:1" d="M 334.225,53.7326 335.551,45.7754 z" id="boundary" inkscape:connector-curvature="0" />
	<path style="fill:none;stroke:red;stroke-width:1px;stroke-linecap:butt;stroke-linejoin:miter;stroke-opacity:1" d="M 335.551,45.7754 342.182,29.1979 z" id="boundary" inkscape:connector-curvature="0" />
	<path style="fill:none;stroke:red;stroke-width:1px;stroke-linecap:butt;stroke-linejoin:miter;stroke-opacity:1" d="M 338.203,730.759 342.182,736.064 z" id="boundary" inkscape:connector-curvature="0" />
	<path style="fill:none;stroke:red;stroke-width:1px;stroke-linecap:butt;stroke-linejoin:miter;stroke-opacity:1" d="M 342.182,29.1979 345.497,22.5668 z" id="boundary" inkscape:connector-curvature="0" />
	<path style="fill:none;stroke:red;stroke-width:1px;stroke-linecap:butt;stroke-linejoin:miter;stroke-opacity:1" d="M 342.182,736.064 342.845,742.695 z" id="boundary" inkscape:connector-curvature="0" />
	<path style="fill:none;stroke:red;stroke-width:1px;stroke-linecap:butt;stroke-linejoin:miter;stroke-opacity:1" d="M 342.182,785.134 342.182,798.396 z" id="boundary" inkscape:connector-curvature="0" />
	<path style="fill:none;stroke:red;stroke-width:1px;stroke-linecap:butt;stroke-linejoin:miter;stroke-opacity:1" d="M 342.182,785.134 348.813,781.818 z" id="boundary" inkscape:connector-curvature="0" />
	<path style="fill:none;stroke:red;stroke-width:1px;stroke-linecap:butt;stroke-linejoin:miter;stroke-opacity:1" d="M 342.182,798.396 342.182,805.027 z" id="boundary" inkscape:connector-curvature="0" />
	<path style="fill:none;stroke:red;stroke-width:1px;stroke-linecap:butt;stroke-linejoin:miter;stroke-opacity:1" d="M 342.182,805.027 348.813,807.016 z" id="boundary" inkscape:connector-curvature="0" />
	<path style="fill:none;stroke:red;stroke-width:1px;stroke-linecap:butt;stroke-linejoin:miter;stroke-opacity:1" d="M 342.845,742.695 348.813,753.968 z" id="boundary" inkscape:connector-curvature="0" />
	<path style="fill:none;stroke:red;stroke-width:1px;stroke-linecap:butt;stroke-linejoin:miter;stroke-opacity:1" d="M 345.497,22.5668 352.128,9.30481 z" id="boundary" inkscape:connector-curvature="0" />
	<path style="fill:none;stroke:red;stroke-width:1px;stroke-linecap:butt;stroke-linejoin:miter;stroke-opacity:1" d="M 348.813,753.968 348.813,768.556 z" id="boundary" inkscape:connector-curvature="0" />
	<path style="fill:none;stroke:red;stroke-width:1px;stroke-linecap:butt;stroke-linejoin:miter;stroke-opacity:1" d="M 348.813,768.556 348.813,781.818 z" id="boundary" inkscape:connector-curvature="0" />
	<path style="fill:none;stroke:red;stroke-width:1px;stroke-linecap:butt;stroke-linejoin:miter;stroke-opacity:1" d="M 348.813,807.016 348.813,813.647 z" id="boundary" inkscape:connector-curvature="0" />
	<path style="fill:none;stroke:red;stroke-width:1px;stroke-linecap:butt;stroke-linejoin:miter;stroke-opacity:1" d="M 348.813,813.647 352.128,819.615 z" id="boundary" inkscape:connector-curvature="0" />
	<path style="fill:none;stroke:red;stroke-width:1px;stroke-linecap:butt;stroke-linejoin:miter;stroke-opacity:1" d="M 352.128,9.30481 364.064,4 z" id="boundary" inkscape:connector-curvature="0" />
	<path style="fill:none;stroke:red;stroke-width:1px;stroke-linecap:butt;stroke-linejoin:miter;stroke-opacity:1" d="M 352.128,819.615 352.128,832.877 z" id="boundary" inkscape:connector-curvature="0" />
	<path style="fill:none;stroke:red;stroke-width:1px;stroke-linecap:butt;stroke-linejoin:miter;stroke-opacity:1" d="M 352.128,832.877 352.128,839.508 z" id="boundary" inkscape:connector-curvature="0" />
	<path style="fill:none;stroke:red;stroke-width:1px;stroke-linecap:butt;stroke-linejoin:miter;stroke-opacity:1" d="M 352.128,839.508 352.128,846.139 z" id="boundary" inkscape:connector-curvature="0" />
	<path style="fill:none;stroke:red;stroke-width:1px;stroke-linecap:butt;stroke-linejoin:miter;stroke-opacity:1" d="M 352.128,846.139 355.444,858.738 z" id="boundary" inkscape:connector-curvature="0" />
	<path style="fill:none;stroke:red;stroke-width:1px;stroke-linecap:butt;stroke-linejoin:miter;stroke-opacity:1" d="M 355.444,858.738 355.444,865.369 z" id="boundary" inkscape:connector-curvature="0" />
	<path style="fill:none;stroke:red;stroke-width:1px;stroke-linecap:butt;stroke-linejoin:miter;stroke-opacity:1" d="M 355.444,865.369 358.759,877.968 z" id="boundary" inkscape:connector-curvature="0" />
	<path style="fill:none;stroke:red;stroke-width:1px;stroke-linecap:butt;stroke-linejoin:miter;stroke-opacity:1" d="M 355.444,884.599 355.444,891.23 z" id="boundary" inkscape:connector-curvature="0" />
	<path style="fill:none;stroke:red;stroke-width:1px;stroke-linecap:butt;stroke-linejoin:miter;stroke-opacity:1" d="M 355.444,884.599 358.759,877.968 z" id="boundary" inkscape:connector-curvature="0" />
	<path style="fill:none;stroke:red;stroke-width:1px;stroke-linecap:butt;stroke-linejoin:miter;stroke-opacity:1" d="M 355.444,891.23 358.759,897.198 z" id="boundary" inkscape:connector-curvature="0" />
	<path style="fill:none;stroke:red;stroke-width:1px;stroke-linecap:butt;stroke-linejoin:miter;stroke-opacity:1" d="M 358.759,897.198 363.401,902.503 z" id="boundary" inkscape:connector-curvature="0" />
	<path style="fill:none;stroke:red;stroke-width:1px;stroke-linecap:butt;stroke-linejoin:miter;stroke-opacity:1" d="M 363.401,902.503 370.695,913.112 z" id="boundary" inkscape:connector-curvature="0" />
	<path style="fill:none;stroke:red;stroke-width:1px;stroke-linecap:butt;stroke-linejoin:miter;stroke-opacity:1" d="M 364.064,4 370.695,4 z" id="boundary" inkscape:connector-curvature="0" />
	<path style="fill:none;stroke:red;stroke-width:1px;stroke-linecap:butt;stroke-linejoin:miter;stroke-opacity:1" d="M 370.695,4 376.663,7.31551 z" id="boundary" inkscape:connector-curvature="0" />
	<path style="fill:none;stroke:red;stroke-width:1px;stroke-linecap:butt;stroke-linejoin:miter;stroke-opacity:1" d="M 370.695,913.112 376.663,925.711 z" id="boundary" inkscape:connector-curvature="0" />
	<path style="fill:none;stroke:red;stroke-width:1px;stroke-linecap:butt;stroke-linejoin:miter;stroke-opacity:1" d="M 372.684,657.818 372.684,664.449 z" id="boundary" inkscape:connector-curvature="0" />
	<path style="fill:none;stroke:red;stroke-width:1px;stroke-linecap:butt;stroke-linejoin:miter;stroke-opacity:1" d="M 372.684,657.818 379.316,659.144 z" id="boundary" inkscape:connector-curvature="0" />
	<path style="fill:none;stroke:red;stroke-width:1px;stroke-linecap:butt;stroke-linejoin:miter;stroke-opacity:1" d="M 372.684,664.449 379.316,659.144 z" id="boundary" inkscape:connector-curvature="0" />
	<path style="fill:none;stroke:red;stroke-width:1px;stroke-linecap:butt;stroke-linejoin:miter;stroke-opacity:1" d="M 376.663,7.31551 382.631,10.631 z" id="boundary" inkscape:connector-curvature="0" />
	<path style="fill:none;stroke:red;stroke-width:1px;stroke-linecap:butt;stroke-linejoin:miter;stroke-opacity:1" d="M 376.663,925.711 379.979,931.679 z" id="boundary" inkscape:connector-curvature="0" />
	<path style="fill:none;stroke:red;stroke-width:1px;stroke-linecap:butt;stroke-linejoin:miter;stroke-opacity:1" d="M 379.979,931.679 385.283,936.321 z" id="boundary" inkscape:connector-curvature="0" />
	<path style="fill:none;stroke:red;stroke-width:1px;stroke-linecap:butt;stroke-linejoin:miter;stroke-opacity:1" d="M 382.631,10.631 385.947,23.2299 z" id="boundary" inkscape:connector-curvature="0" />
	<path style="fill:none;stroke:red;stroke-width:1px;stroke-linecap:butt;stroke-linejoin:miter;stroke-opacity:1" d="M 385.283,936.321 388.599,942.289 z" id="boundary" inkscape:connector-curvature="0" />
	<path style="fill:none;stroke:red;stroke-width:1px;stroke-linecap:butt;stroke-linejoin:miter;stroke-opacity:1" d="M 385.947,23.2299 389.262,29.1979 z" id="boundary" inkscape:connector-curvature="0" />
	<path style="fill:none;stroke:red;stroke-width:1px;stroke-linecap:butt;stroke-linejoin:miter;stroke-opacity:1" d="M 388.599,942.289 395.23,954.225 z" id="boundary" inkscape:connector-curvature="0" />
	<path style="fill:none;stroke:red;stroke-width:1px;stroke-linecap:butt;stroke-linejoin:miter;stroke-opacity:1" d="M 389.262,29.1979 392.578,35.1658 z" id="boundary" inkscape:connector-curvature="0" />
	<path style="fill:none;stroke:red;stroke-width:1px;stroke-linecap:butt;stroke-linejoin:miter;stroke-opacity:1" d="M 392.578,35.1658 396.556,40.4706 z" id="boundary" inkscape:connector-curvature="0" />
	<path style="fill:none;stroke:red;stroke-width:1px;stroke-linecap:butt;stroke-linejoin:miter;stroke-opacity:1" d="M 395.23,954.225 401.861,956.214 z" id="boundary" inkscape:connector-curvature="0" />
	<path style="fill:none;stroke:red;stroke-width:1px;stroke-linecap:butt;stroke-linejoin:miter;stroke-opacity:1" d="M 396.556,40.4706 399.209,47.1016 z" id="boundary" inkscape:connector-curvature="0" />
	<path style="fill:none;stroke:red;stroke-width:1px;stroke-linecap:butt;stroke-linejoin:miter;stroke-opacity:1" d="M 399.209,47.1016 407.166,57.7112 z" id="boundary" inkscape:connector-curvature="0" />
	<path style="fill:none;stroke:red;stroke-width:1px;stroke-linecap:butt;stroke-linejoin:miter;stroke-opacity:1" d="M 399.209,800.385 400.535,807.016 z" id="boundary" inkscape:connector-curvature="0" />
	<path style="fill:none;stroke:red;stroke-width:1px;stroke-linecap:butt;stroke-linejoin:miter;stroke-opacity:1" d="M 399.209,800.385 402.524,787.123 z" id="boundary" inkscape:connector-curvature="0" />
	<path style="fill:none;stroke:red;stroke-width:1px;stroke-linecap:butt;stroke-linejoin:miter;stroke-opacity:1" d="M 400.535,807.016 402.524,813.647 z" id="boundary" inkscape:connector-curvature="0" />
	<path style="fill:none;stroke:red;stroke-width:1px;stroke-linecap:butt;stroke-linejoin:miter;stroke-opacity:1" d="M 401.861,956.214 403.85,962.845 z" id="boundary" inkscape:connector-curvature="0" />
	<path style="fill:none;stroke:red;stroke-width:1px;stroke-linecap:butt;stroke-linejoin:miter;stroke-opacity:1" d="M 402.524,767.23 402.524,773.861 z" id="boundary" inkscape:connector-curvature="0" />
	<path style="fill:none;stroke:red;stroke-width:1px;stroke-linecap:butt;stroke-linejoin:miter;stroke-opacity:1" d="M 402.524,767.23 405.84,757.283 z" id="boundary" inkscape:connector-curvature="0" />
	<path style="fill:none;stroke:red;stroke-width:1px;stroke-linecap:butt;stroke-linejoin:miter;stroke-opacity:1" d="M 402.524,773.861 402.524,780.492 z" id="boundary" inkscape:connector-curvature="0" />
	<path style="fill:none;stroke:red;stroke-width:1px;stroke-linecap:butt;stroke-linejoin:miter;stroke-opacity:1" d="M 402.524,780.492 402.524,787.123 z" id="boundary" inkscape:connector-curvature="0" />
	<path style="fill:none;stroke:red;stroke-width:1px;stroke-linecap:butt;stroke-linejoin:miter;stroke-opacity:1" d="M 402.524,813.647 402.524,826.909 z" id="boundary" inkscape:connector-curvature="0" />
	<path style="fill:none;stroke:red;stroke-width:1px;stroke-linecap:butt;stroke-linejoin:miter;stroke-opacity:1" d="M 402.524,826.909 402.524,833.54 z" id="boundary" inkscape:connector-curvature="0" />
	<path style="fill:none;stroke:red;stroke-width:1px;stroke-linecap:butt;stroke-linejoin:miter;stroke-opacity:1" d="M 402.524,833.54 402.524,840.171 z" id="boundary" inkscape:connector-curvature="0" />
	<path style="fill:none;stroke:red;stroke-width:1px;stroke-linecap:butt;stroke-linejoin:miter;stroke-opacity:1" d="M 402.524,840.171 403.85,853.433 z" id="boundary" inkscape:connector-curvature="0" />
	<path style="fill:none;stroke:red;stroke-width:1px;stroke-linecap:butt;stroke-linejoin:miter;stroke-opacity:1" d="M 403.85,853.433 405.84,860.064 z" id="boundary" inkscape:connector-curvature="0" />
	<path style="fill:none;stroke:red;stroke-width:1px;stroke-linecap:butt;stroke-linejoin:miter;stroke-opacity:1" d="M 403.85,962.845 410.481,965.497 z" id="boundary" inkscape:connector-curvature="0" />
	<path style="fill:none;stroke:red;stroke-width:1px;stroke-linecap:butt;stroke-linejoin:miter;stroke-opacity:1" d="M 405.84,757.283 411.144,752.642 z" id="boundary" inkscape:connector-curvature="0" />
	<path style="fill:none;stroke:red;stroke-width:1px;stroke-linecap:butt;stroke-linejoin:miter;stroke-opacity:1" d="M 405.84,860.064 405.84,866.695 z" id="boundary" inkscape:connector-curvature="0" />
	<path style="fill:none;stroke:red;stroke-width:1px;stroke-linecap:butt;stroke-linejoin:miter;stroke-opacity:1" d="M 405.84,866.695 409.155,879.957 z" id="boundary" inkscape:connector-curvature="0" />
	<path style="fill:none;stroke:red;stroke-width:1px;stroke-linecap:butt;stroke-linejoin:miter;stroke-opacity:1" d="M 407.166,57.7112 415.123,68.984 z" id="boundary" inkscape:connector-curvature="0" />
	<path style="fill:none;stroke:red;stroke-width:1px;stroke-linecap:butt;stroke-linejoin:miter;stroke-opacity:1" d="M 409.155,879.957 410.481,886.588 z" id="boundary" inkscape:connector-curvature="0" />
	<path style="fill:none;stroke:red;stroke-width:1px;stroke-linecap:butt;stroke-linejoin:miter;stroke-opacity:1" d="M 410.481,886.588 415.786,899.187 z" id="boundary" inkscape:connector-curvature="0" />
	<path style="fill:none;stroke:red;stroke-width:1px;stroke-linecap:butt;stroke-linejoin:miter;stroke-opacity:1" d="M 410.481,965.497 421.754,972.791 z" id="boundary" inkscape:connector-curvature="0" />
	<path style="fill:none;stroke:red;stroke-width:1px;stroke-linecap:butt;stroke-linejoin:miter;stroke-opacity:1" d="M 411.144,752.642 419.102,737.39 z" id="boundary" inkscape:connector-curvature="0" />
	<path style="fill:none;stroke:red;stroke-width:1px;stroke-linecap:butt;stroke-linejoin:miter;stroke-opacity:1" d="M 415.123,68.984 419.102,74.2888 z" id="boundary" inkscape:connector-curvature="0" />
	<path style="fill:none;stroke:red;stroke-width:1px;stroke-linecap:butt;stroke-linejoin:miter;stroke-opacity:1" d="M 415.786,899.187 415.786,905.818 z" id="boundary" inkscape:connector-curvature="0" />
	<path style="fill:none;stroke:red;stroke-width:1px;stroke-linecap:butt;stroke-linejoin:miter;stroke-opacity:1" d="M 415.786,905.818 421.091,909.797 z" id="boundary" inkscape:connector-curvature="0" />
	<path style="fill:none;stroke:red;stroke-width:1px;stroke-linecap:butt;stroke-linejoin:miter;stroke-opacity:1" d="M 419.102,74.2888 422.417,80.2567 z" id="boundary" inkscape:connector-curvature="0" />
	<path style="fill:none;stroke:red;stroke-width:1px;stroke-linecap:butt;stroke-linejoin:miter;stroke-opacity:1" d="M 419.102,737.39 425.07,734.075 z" id="boundary" inkscape:connector-curvature="0" />
	<path style="fill:none;stroke:red;stroke-width:1px;stroke-linecap:butt;stroke-linejoin:miter;stroke-opacity:1" d="M 421.091,909.797 425.733,923.059 z" id="boundary" inkscape:connector-curvature="0" />
	<path style="fill:none;stroke:red;stroke-width:1px;stroke-linecap:butt;stroke-linejoin:miter;stroke-opacity:1" d="M 421.754,972.791 432.364,980.749 z" id="boundary" inkscape:connector-curvature="0" />
	<path style="fill:none;stroke:red;stroke-width:1px;stroke-linecap:butt;stroke-linejoin:miter;stroke-opacity:1" d="M 422.417,80.2567 425.733,86.2246 z" id="boundary" inkscape:connector-curvature="0" />
	<path style="fill:none;stroke:red;stroke-width:1px;stroke-linecap:butt;stroke-linejoin:miter;stroke-opacity:1" d="M 425.07,734.075 435.679,720.813 z" id="boundary" inkscape:connector-curvature="0" />
	<path style="fill:none;stroke:red;stroke-width:1px;stroke-linecap:butt;stroke-linejoin:miter;stroke-opacity:1" d="M 425.733,86.2246 431.037,90.8663 z" id="boundary" inkscape:connector-curvature="0" />
	<path style="fill:none;stroke:red;stroke-width:1px;stroke-linecap:butt;stroke-linejoin:miter;stroke-opacity:1" d="M 425.733,923.059 431.037,927.037 z" id="boundary" inkscape:connector-curvature="0" />
	<path style="fill:none;stroke:red;stroke-width:1px;stroke-linecap:butt;stroke-linejoin:miter;stroke-opacity:1" d="M 431.037,90.8663 435.679,96.1711 z" id="boundary" inkscape:connector-curvature="0" />
	<path style="fill:none;stroke:red;stroke-width:1px;stroke-linecap:butt;stroke-linejoin:miter;stroke-opacity:1" d="M 431.037,927.037 434.353,933.005 z" id="boundary" inkscape:connector-curvature="0" />
	<path style="fill:none;stroke:red;stroke-width:1px;stroke-linecap:butt;stroke-linejoin:miter;stroke-opacity:1" d="M 432.364,980.749 444.963,986.053 z" id="boundary" inkscape:connector-curvature="0" />
	<path style="fill:none;stroke:red;stroke-width:1px;stroke-linecap:butt;stroke-linejoin:miter;stroke-opacity:1" d="M 434.353,933.005 438.995,938.31 z" id="boundary" inkscape:connector-curvature="0" />
	<path style="fill:none;stroke:red;stroke-width:1px;stroke-linecap:butt;stroke-linejoin:miter;stroke-opacity:1" d="M 435.679,96.1711 440.984,100.813 z" id="boundary" inkscape:connector-curvature="0" />
	<path style="fill:none;stroke:red;stroke-width:1px;stroke-linecap:butt;stroke-linejoin:miter;stroke-opacity:1" d="M 435.679,720.813 438.995,714.182 z" id="boundary" inkscape:connector-curvature="0" />
	<path style="fill:none;stroke:red;stroke-width:1px;stroke-linecap:butt;stroke-linejoin:miter;stroke-opacity:1" d="M 438.995,714.182 442.31,707.551 z" id="boundary" inkscape:connector-curvature="0" />
	<path style="fill:none;stroke:red;stroke-width:1px;stroke-linecap:butt;stroke-linejoin:miter;stroke-opacity:1" d="M 438.995,938.31 444.299,942.289 z" id="boundary" inkscape:connector-curvature="0" />
	<path style="fill:none;stroke:red;stroke-width:1px;stroke-linecap:butt;stroke-linejoin:miter;stroke-opacity:1" d="M 440.984,100.813 445.626,106.118 z" id="boundary" inkscape:connector-curvature="0" />
	<path style="fill:none;stroke:red;stroke-width:1px;stroke-linecap:butt;stroke-linejoin:miter;stroke-opacity:1" d="M 442.31,707.551 448.941,708.877 z" id="boundary" inkscape:connector-curvature="0" />
	<path style="fill:none;stroke:red;stroke-width:1px;stroke-linecap:butt;stroke-linejoin:miter;stroke-opacity:1" d="M 444.299,942.289 450.267,945.604 z" id="boundary" inkscape:connector-curvature="0" />
	<path style="fill:none;stroke:red;stroke-width:1px;stroke-linecap:butt;stroke-linejoin:miter;stroke-opacity:1" d="M 444.963,986.053 457.561,989.369 z" id="boundary" inkscape:connector-curvature="0" />
	<path style="fill:none;stroke:red;stroke-width:1px;stroke-linecap:butt;stroke-linejoin:miter;stroke-opacity:1" d="M 445.626,106.118 450.93,110.759 z" id="boundary" inkscape:connector-curvature="0" />
	<path style="fill:none;stroke:red;stroke-width:1px;stroke-linecap:butt;stroke-linejoin:miter;stroke-opacity:1" d="M 448.941,708.877 462.203,707.551 z" id="boundary" inkscape:connector-curvature="0" />
	<path style="fill:none;stroke:red;stroke-width:1px;stroke-linecap:butt;stroke-linejoin:miter;stroke-opacity:1" d="M 450.267,945.604 461.54,953.561 z" id="boundary" inkscape:connector-curvature="0" />
	<path style="fill:none;stroke:red;stroke-width:1px;stroke-linecap:butt;stroke-linejoin:miter;stroke-opacity:1" d="M 450.93,110.759 455.572,116.064 z" id="boundary" inkscape:connector-curvature="0" />
	<path style="fill:none;stroke:red;stroke-width:1px;stroke-linecap:butt;stroke-linejoin:miter;stroke-opacity:1" d="M 455.572,116.064 458.888,122.032 z" id="boundary" inkscape:connector-curvature="0" />
	<path style="fill:none;stroke:red;stroke-width:1px;stroke-linecap:butt;stroke-linejoin:miter;stroke-opacity:1" d="M 457.561,989.369 463.529,992.684 z" id="boundary" inkscape:connector-curvature="0" />
	<path style="fill:none;stroke:red;stroke-width:1px;stroke-linecap:butt;stroke-linejoin:miter;stroke-opacity:1" d="M 458.888,122.032 463.529,127.337 z" id="boundary" inkscape:connector-curvature="0" />
	<path style="fill:none;stroke:red;stroke-width:1px;stroke-linecap:butt;stroke-linejoin:miter;stroke-opacity:1" d="M 458.888,647.872 458.888,661.134 z" id="boundary" inkscape:connector-curvature="0" />
	<path style="fill:none;stroke:red;stroke-width:1px;stroke-linecap:butt;stroke-linejoin:miter;stroke-opacity:1" d="M 458.888,647.872 465.519,649.198 z" id="boundary" inkscape:connector-curvature="0" />
	<path style="fill:none;stroke:red;stroke-width:1px;stroke-linecap:butt;stroke-linejoin:miter;stroke-opacity:1" d="M 458.888,661.134 460.214,667.765 z" id="boundary" inkscape:connector-curvature="0" />
	<path style="fill:none;stroke:red;stroke-width:1px;stroke-linecap:butt;stroke-linejoin:miter;stroke-opacity:1" d="M 460.214,667.765 462.203,674.396 z" id="boundary" inkscape:connector-curvature="0" />
	<path style="fill:none;stroke:red;stroke-width:1px;stroke-linecap:butt;stroke-linejoin:miter;stroke-opacity:1" d="M 461.54,953.561 467.508,956.877 z" id="boundary" inkscape:connector-curvature="0" />
	<path style="fill:none;stroke:red;stroke-width:1px;stroke-linecap:butt;stroke-linejoin:miter;stroke-opacity:1" d="M 462.203,674.396 465.519,687.658 z" id="boundary" inkscape:connector-curvature="0" />
	<path style="fill:none;stroke:red;stroke-width:1px;stroke-linecap:butt;stroke-linejoin:miter;stroke-opacity:1" d="M 462.203,707.551 465.519,694.289 z" id="boundary" inkscape:connector-curvature="0" />
	<path style="fill:none;stroke:red;stroke-width:1px;stroke-linecap:butt;stroke-linejoin:miter;stroke-opacity:1" d="M 463.529,127.337 471.487,138.61 z" id="boundary" inkscape:connector-curvature="0" />
	<path style="fill:none;stroke:red;stroke-width:1px;stroke-linecap:butt;stroke-linejoin:miter;stroke-opacity:1" d="M 463.529,992.684 476.791,992.684 z" id="boundary" inkscape:connector-curvature="0" />
	<path style="fill:none;stroke:red;stroke-width:1px;stroke-linecap:butt;stroke-linejoin:miter;stroke-opacity:1" d="M 465.519,649.198 478.781,651.187 z" id="boundary" inkscape:connector-curvature="0" />
	<path style="fill:none;stroke:red;stroke-width:1px;stroke-linecap:butt;stroke-linejoin:miter;stroke-opacity:1" d="M 465.519,687.658 465.519,694.289 z" id="boundary" inkscape:connector-curvature="0" />
	<path style="fill:none;stroke:red;stroke-width:1px;stroke-linecap:butt;stroke-linejoin:miter;stroke-opacity:1" d="M 467.508,956.877 480.77,958.866 z" id="boundary" inkscape:connector-curvature="0" />
	<path style="fill:none;stroke:red;stroke-width:1px;stroke-linecap:butt;stroke-linejoin:miter;stroke-opacity:1" d="M 471.487,138.61 478.781,149.882 z" id="boundary" inkscape:connector-curvature="0" />
	<path style="fill:none;stroke:red;stroke-width:1px;stroke-linecap:butt;stroke-linejoin:miter;stroke-opacity:1" d="M 476.791,992.684 489.39,996 z" id="boundary" inkscape:connector-curvature="0" />
	<path style="fill:none;stroke:red;stroke-width:1px;stroke-linecap:butt;stroke-linejoin:miter;stroke-opacity:1" d="M 478.781,149.882 484.086,153.861 z" id="boundary" inkscape:connector-curvature="0" />
	<path style="fill:none;stroke:red;stroke-width:1px;stroke-linecap:butt;stroke-linejoin:miter;stroke-opacity:1" d="M 478.781,651.187 485.412,651.187 z" id="boundary" inkscape:connector-curvature="0" />
	<path style="fill:none;stroke:red;stroke-width:1px;stroke-linecap:butt;stroke-linejoin:miter;stroke-opacity:1" d="M 480.77,958.866 486.738,955.551 z" id="boundary" inkscape:connector-curvature="0" />
	<path style="fill:none;stroke:red;stroke-width:1px;stroke-linecap:butt;stroke-linejoin:miter;stroke-opacity:1" d="M 484.086,153.861 488.727,159.166 z" id="boundary" inkscape:connector-curvature="0" />
	<path style="fill:none;stroke:red;stroke-width:1px;stroke-linecap:butt;stroke-linejoin:miter;stroke-opacity:1" d="M 485.412,651.187 498.011,645.882 z" id="boundary" inkscape:connector-curvature="0" />
	<path style="fill:none;stroke:red;stroke-width:1px;stroke-linecap:butt;stroke-linejoin:miter;stroke-opacity:1" d="M 486.738,955.551 492.706,952.235 z" id="boundary" inkscape:connector-curvature="0" />
	<path style="fill:none;stroke:red;stroke-width:1px;stroke-linecap:butt;stroke-linejoin:miter;stroke-opacity:1" d="M 488.727,159.166 492.043,165.134 z" id="boundary" inkscape:connector-curvature="0" />
	<path style="fill:none;stroke:red;stroke-width:1px;stroke-linecap:butt;stroke-linejoin:miter;stroke-opacity:1" d="M 489.39,996 496.021,996 z" id="boundary" inkscape:connector-curvature="0" />
	<path style="fill:none;stroke:red;stroke-width:1px;stroke-linecap:butt;stroke-linejoin:miter;stroke-opacity:1" d="M 492.043,165.134 496.684,170.439 z" id="boundary" inkscape:connector-curvature="0" />
	<path style="fill:none;stroke:red;stroke-width:1px;stroke-linecap:butt;stroke-linejoin:miter;stroke-opacity:1" d="M 492.706,952.235 504.642,944.278 z" id="boundary" inkscape:connector-curvature="0" />
	<path style="fill:none;stroke:red;stroke-width:1px;stroke-linecap:butt;stroke-linejoin:miter;stroke-opacity:1" d="M 496.021,996 509.283,996 z" id="boundary" inkscape:connector-curvature="0" />
	<path style="fill:none;stroke:red;stroke-width:1px;stroke-linecap:butt;stroke-linejoin:miter;stroke-opacity:1" d="M 496.684,170.439 501.989,175.08 z" id="boundary" inkscape:connector-curvature="0" />
	<path style="fill:none;stroke:red;stroke-width:1px;stroke-linecap:butt;stroke-linejoin:miter;stroke-opacity:1" d="M 498.011,645.882 504.642,644.556 z" id="boundary" inkscape:connector-curvature="0" />
	<path style="fill:none;stroke:red;stroke-width:1px;stroke-linecap:butt;stroke-linejoin:miter;stroke-opacity:1" d="M 501.989,175.08 506.631,180.385 z" id="boundary" inkscape:connector-curvature="0" />
	<path style="fill:none;stroke:red;stroke-width:1px;stroke-linecap:butt;stroke-linejoin:miter;stroke-opacity:1" d="M 504.642,644.556 510.61,641.241 z" id="boundary" inkscape:connector-curvature="0" />
	<path style="fill:none;stroke:red;stroke-width:1px;stroke-linecap:butt;stroke-linejoin:miter;stroke-opacity:1" d="M 504.642,944.278 516.578,938.973 z" id="boundary" inkscape:connector-curvature="0" />
	<path style="fill:none;stroke:red;stroke-width:1px;stroke-linecap:butt;stroke-linejoin:miter;stroke-opacity:1" d="M 506.631,180.385 509.947,186.353 z" id="boundary" inkscape:connector-curvature="0" />
	<path style="fill:none;stroke:red;stroke-width:1px;stroke-linecap:butt;stroke-linejoin:miter;stroke-opacity:1" d="M 509.283,996 521.882,992.684 z" id="boundary" inkscape:connector-curvature="0" />
	<path style="fill:none;stroke:red;stroke-width:1px;stroke-linecap:butt;stroke-linejoin:miter;stroke-opacity:1" d="M 509.947,186.353 515.914,189.668 z" id="boundary" inkscape:connector-curvature="0" />
	<path style="fill:none;stroke:red;stroke-width:1px;stroke-linecap:butt;stroke-linejoin:miter;stroke-opacity:1" d="M 510.61,641.241 523.872,636.599 z" id="boundary" inkscape:connector-curvature="0" />
	<path style="fill:none;stroke:red;stroke-width:1px;stroke-linecap:butt;stroke-linejoin:miter;stroke-opacity:1" d="M 515.914,189.668 521.219,194.31 z" id="boundary" inkscape:connector-curvature="0" />
	<path style="fill:none;stroke:red;stroke-width:1px;stroke-linecap:butt;stroke-linejoin:miter;stroke-opacity:1" d="M 516.578,938.973 529.84,938.973 z" id="boundary" inkscape:connector-curvature="0" />
	<path style="fill:none;stroke:red;stroke-width:1px;stroke-linecap:butt;stroke-linejoin:miter;stroke-opacity:1" d="M 521.219,194.31 531.829,201.604 z" id="boundary" inkscape:connector-curvature="0" />
	<path style="fill:none;stroke:red;stroke-width:1px;stroke-linecap:butt;stroke-linejoin:miter;stroke-opacity:1" d="M 521.882,992.684 528.513,992.684 z" id="boundary" inkscape:connector-curvature="0" />
	<path style="fill:none;stroke:red;stroke-width:1px;stroke-linecap:butt;stroke-linejoin:miter;stroke-opacity:1" d="M 523.872,636.599 528.513,631.294 z" id="boundary" inkscape:connector-curvature="0" />
	<path style="fill:none;stroke:red;stroke-width:1px;stroke-linecap:butt;stroke-linejoin:miter;stroke-opacity:1" d="M 528.513,631.294 534.481,627.979 z" id="boundary" inkscape:connector-curvature="0" />
	<path style="fill:none;stroke:red;stroke-width:1px;stroke-linecap:butt;stroke-linejoin:miter;stroke-opacity:1" d="M 528.513,992.684 541.112,987.38 z" id="boundary" inkscape:connector-curvature="0" />
	<path style="fill:none;stroke:red;stroke-width:1px;stroke-linecap:butt;stroke-linejoin:miter;stroke-opacity:1" d="M 529.84,938.973 535.144,950.909 z" id="boundary" inkscape:connector-curvature="0" />
	<path style="fill:none;stroke:red;stroke-width:1px;stroke-linecap:butt;stroke-linejoin:miter;stroke-opacity:1" d="M 531.829,201.604 534.481,208.235 z" id="boundary" inkscape:connector-curvature="0" />
	<path style="fill:none;stroke:red;stroke-width:1px;stroke-linecap:butt;stroke-linejoin:miter;stroke-opacity:1" d="M 534.481,208.235 539.786,212.877 z" id="boundary" inkscape:connector-curvature="0" />
	<path style="fill:none;stroke:red;stroke-width:1px;stroke-linecap:butt;stroke-linejoin:miter;stroke-opacity:1" d="M 534.481,627.979 546.417,620.684 z" id="boundary" inkscape:connector-curvature="0" />
	<path style="fill:none;stroke:red;stroke-width:1px;stroke-linecap:butt;stroke-linejoin:miter;stroke-opacity:1" d="M 535.144,950.909 541.112,954.225 z" id="boundary" inkscape:connector-curvature="0" />
	<path style="fill:none;stroke:red;stroke-width:1px;stroke-linecap:butt;stroke-linejoin:miter;stroke-opacity:1" d="M 539.786,212.877 545.754,216.193 z" id="boundary" inkscape:connector-curvature="0" />
	<path style="fill:none;stroke:red;stroke-width:1px;stroke-linecap:butt;stroke-linejoin:miter;stroke-opacity:1" d="M 541.112,954.225 547.743,950.909 z" id="boundary" inkscape:connector-curvature="0" />
	<path style="fill:none;stroke:red;stroke-width:1px;stroke-linecap:butt;stroke-linejoin:miter;stroke-opacity:1" d="M 541.112,987.38 554.374,984.064 z" id="boundary" inkscape:connector-curvature="0" />
	<path style="fill:none;stroke:red;stroke-width:1px;stroke-linecap:butt;stroke-linejoin:miter;stroke-opacity:1" d="M 545.754,216.193 555.037,224.813 z" id="boundary" inkscape:connector-curvature="0" />
	<path style="fill:none;stroke:red;stroke-width:1px;stroke-linecap:butt;stroke-linejoin:miter;stroke-opacity:1" d="M 546.417,620.684 551.722,614.717 z" id="boundary" inkscape:connector-curvature="0" />
	<path style="fill:none;stroke:red;stroke-width:1px;stroke-linecap:butt;stroke-linejoin:miter;stroke-opacity:1" d="M 547.743,950.909 557.69,937.647 z" id="boundary" inkscape:connector-curvature="0" />
	<path style="fill:none;stroke:red;stroke-width:1px;stroke-linecap:butt;stroke-linejoin:miter;stroke-opacity:1" d="M 551.722,614.717 558.353,611.401 z" id="boundary" inkscape:connector-curvature="0" />
	<path style="fill:none;stroke:red;stroke-width:1px;stroke-linecap:butt;stroke-linejoin:miter;stroke-opacity:1" d="M 554.374,984.064 561.005,980.749 z" id="boundary" inkscape:connector-curvature="0" />
	<path style="fill:none;stroke:red;stroke-width:1px;stroke-linecap:butt;stroke-linejoin:miter;stroke-opacity:1" d="M 555.037,224.813 560.342,229.455 z" id="boundary" inkscape:connector-curvature="0" />
	<path style="fill:none;stroke:red;stroke-width:1px;stroke-linecap:butt;stroke-linejoin:miter;stroke-opacity:1" d="M 557.69,937.647 561.005,931.016 z" id="boundary" inkscape:connector-curvature="0" />
	<path style="fill:none;stroke:red;stroke-width:1px;stroke-linecap:butt;stroke-linejoin:miter;stroke-opacity:1" d="M 558.353,611.401 563.658,606.759 z" id="boundary" inkscape:connector-curvature="0" />
	<path style="fill:none;stroke:red;stroke-width:1px;stroke-linecap:butt;stroke-linejoin:miter;stroke-opacity:1" d="M 560.342,229.455 566.31,232.77 z" id="boundary" inkscape:connector-curvature="0" />
	<path style="fill:none;stroke:red;stroke-width:1px;stroke-linecap:butt;stroke-linejoin:miter;stroke-opacity:1" d="M 561.005,931.016 566.31,925.711 z" id="boundary" inkscape:connector-curvature="0" />
	<path style="fill:none;stroke:red;stroke-width:1px;stroke-linecap:butt;stroke-linejoin:miter;stroke-opacity:1" d="M 561.005,980.749 567.636,977.433 z" id="boundary" inkscape:connector-curvature="0" />
	<path style="fill:none;stroke:red;stroke-width:1px;stroke-linecap:butt;stroke-linejoin:miter;stroke-opacity:1" d="M 563.658,606.759 574.93,594.824 z" id="boundary" inkscape:connector-curvature="0" />
	<path style="fill:none;stroke:red;stroke-width:1px;stroke-linecap:butt;stroke-linejoin:miter;stroke-opacity:1" d="M 566.31,232.77 577.583,240.727 z" id="boundary" inkscape:connector-curvature="0" />
	<path style="fill:none;stroke:red;stroke-width:1px;stroke-linecap:butt;stroke-linejoin:miter;stroke-opacity:1" d="M 566.31,925.711 578.909,922.396 z" id="boundary" inkscape:connector-curvature="0" />
	<path style="fill:none;stroke:red;stroke-width:1px;stroke-linecap:butt;stroke-linejoin:miter;stroke-opacity:1" d="M 567.636,977.433 580.898,970.802 z" id="boundary" inkscape:connector-curvature="0" />
	<path style="fill:none;stroke:red;stroke-width:1px;stroke-linecap:butt;stroke-linejoin:miter;stroke-opacity:1" d="M 574.93,594.824 581.561,591.508 z" id="boundary" inkscape:connector-curvature="0" />
	<path style="fill:none;stroke:red;stroke-width:1px;stroke-linecap:butt;stroke-linejoin:miter;stroke-opacity:1" d="M 577.583,240.727 588.193,248.021 z" id="boundary" inkscape:connector-curvature="0" />
	<path style="fill:none;stroke:red;stroke-width:1px;stroke-linecap:butt;stroke-linejoin:miter;stroke-opacity:1" d="M 578.909,922.396 585.54,922.396 z" id="boundary" inkscape:connector-curvature="0" />
	<path style="fill:none;stroke:red;stroke-width:1px;stroke-linecap:butt;stroke-linejoin:miter;stroke-opacity:1" d="M 580.898,970.802 586.203,966.16 z" id="boundary" inkscape:connector-curvature="0" />
	<path style="fill:none;stroke:red;stroke-width:1px;stroke-linecap:butt;stroke-linejoin:miter;stroke-opacity:1" d="M 581.561,591.508 586.866,586.866 z" id="boundary" inkscape:connector-curvature="0" />
	<path style="fill:none;stroke:red;stroke-width:1px;stroke-linecap:butt;stroke-linejoin:miter;stroke-opacity:1" d="M 585.54,922.396 591.508,925.711 z" id="boundary" inkscape:connector-curvature="0" />
	<path style="fill:none;stroke:red;stroke-width:1px;stroke-linecap:butt;stroke-linejoin:miter;stroke-opacity:1" d="M 586.203,966.16 592.171,962.845 z" id="boundary" inkscape:connector-curvature="0" />
	<path style="fill:none;stroke:red;stroke-width:1px;stroke-linecap:butt;stroke-linejoin:miter;stroke-opacity:1" d="M 586.866,586.866 598.139,578.246 z" id="boundary" inkscape:connector-curvature="0" />
	<path style="fill:none;stroke:red;stroke-width:1px;stroke-linecap:butt;stroke-linejoin:miter;stroke-opacity:1" d="M 588.193,248.021 600.791,253.989 z" id="boundary" inkscape:connector-curvature="0" />
	<path style="fill:none;stroke:red;stroke-width:1px;stroke-linecap:butt;stroke-linejoin:miter;stroke-opacity:1" d="M 591.508,925.711 604.107,919.08 z" id="boundary" inkscape:connector-curvature="0" />
	<path style="fill:none;stroke:red;stroke-width:1px;stroke-linecap:butt;stroke-linejoin:miter;stroke-opacity:1" d="M 592.171,962.845 598.139,959.529 z" id="boundary" inkscape:connector-curvature="0" />
	<path style="fill:none;stroke:red;stroke-width:1px;stroke-linecap:butt;stroke-linejoin:miter;stroke-opacity:1" d="M 598.139,578.246 610.075,570.289 z" id="boundary" inkscape:connector-curvature="0" />
	<path style="fill:none;stroke:red;stroke-width:1px;stroke-linecap:butt;stroke-linejoin:miter;stroke-opacity:1" d="M 598.139,959.529 603.444,954.888 z" id="boundary" inkscape:connector-curvature="0" />
	<path style="fill:none;stroke:red;stroke-width:1px;stroke-linecap:butt;stroke-linejoin:miter;stroke-opacity:1" d="M 600.791,253.989 604.77,259.294 z" id="boundary" inkscape:connector-curvature="0" />
	<path style="fill:none;stroke:red;stroke-width:1px;stroke-linecap:butt;stroke-linejoin:miter;stroke-opacity:1" d="M 603.444,954.888 611.401,942.952 z" id="boundary" inkscape:connector-curvature="0" />
	<path style="fill:none;stroke:red;stroke-width:1px;stroke-linecap:butt;stroke-linejoin:miter;stroke-opacity:1" d="M 604.107,919.08 610.738,919.08 z" id="boundary" inkscape:connector-curvature="0" />
	<path style="fill:none;stroke:red;stroke-width:1px;stroke-linecap:butt;stroke-linejoin:miter;stroke-opacity:1" d="M 604.77,259.294 610.738,262.61 z" id="boundary" inkscape:connector-curvature="0" />
	<path style="fill:none;stroke:red;stroke-width:1px;stroke-linecap:butt;stroke-linejoin:miter;stroke-opacity:1" d="M 610.075,570.289 614.717,564.984 z" id="boundary" inkscape:connector-curvature="0" />
	<path style="fill:none;stroke:red;stroke-width:1px;stroke-linecap:butt;stroke-linejoin:miter;stroke-opacity:1" d="M 610.738,262.61 616.706,265.925 z" id="boundary" inkscape:connector-curvature="0" />
	<path style="fill:none;stroke:red;stroke-width:1px;stroke-linecap:butt;stroke-linejoin:miter;stroke-opacity:1" d="M 610.738,919.08 618.032,929.69 z" id="boundary" inkscape:connector-curvature="0" />
	<path style="fill:none;stroke:red;stroke-width:1px;stroke-linecap:butt;stroke-linejoin:miter;stroke-opacity:1" d="M 611.401,942.952 618.032,929.69 z" id="boundary" inkscape:connector-curvature="0" />
	<path style="fill:none;stroke:red;stroke-width:1px;stroke-linecap:butt;stroke-linejoin:miter;stroke-opacity:1" d="M 614.717,564.984 624.663,555.037 z" id="boundary" inkscape:connector-curvature="0" />
	<path style="fill:none;stroke:red;stroke-width:1px;stroke-linecap:butt;stroke-linejoin:miter;stroke-opacity:1" d="M 616.706,265.925 622.674,269.241 z" id="boundary" inkscape:connector-curvature="0" />
	<path style="fill:none;stroke:red;stroke-width:1px;stroke-linecap:butt;stroke-linejoin:miter;stroke-opacity:1" d="M 622.674,269.241 628.642,272.556 z" id="boundary" inkscape:connector-curvature="0" />
	<path style="fill:none;stroke:red;stroke-width:1px;stroke-linecap:butt;stroke-linejoin:miter;stroke-opacity:1" d="M 624.663,555.037 631.294,548.406 z" id="boundary" inkscape:connector-curvature="0" />
	<path style="fill:none;stroke:red;stroke-width:1px;stroke-linecap:butt;stroke-linejoin:miter;stroke-opacity:1" d="M 628.642,272.556 634.61,275.872 z" id="boundary" inkscape:connector-curvature="0" />
	<path style="fill:none;stroke:red;stroke-width:1px;stroke-linecap:butt;stroke-linejoin:miter;stroke-opacity:1" d="M 631.294,548.406 636.599,543.765 z" id="boundary" inkscape:connector-curvature="0" />
	<path style="fill:none;stroke:red;stroke-width:1px;stroke-linecap:butt;stroke-linejoin:miter;stroke-opacity:1" d="M 634.61,275.872 639.914,279.85 z" id="boundary" inkscape:connector-curvature="0" />
	<path style="fill:none;stroke:red;stroke-width:1px;stroke-linecap:butt;stroke-linejoin:miter;stroke-opacity:1" d="M 636.599,543.765 647.872,535.144 z" id="boundary" inkscape:connector-curvature="0" />
	<path style="fill:none;stroke:red;stroke-width:1px;stroke-linecap:butt;stroke-linejoin:miter;stroke-opacity:1" d="M 639.914,279.85 652.513,285.818 z" id="boundary" inkscape:connector-curvature="0" />
	<path style="fill:none;stroke:red;stroke-width:1px;stroke-linecap:butt;stroke-linejoin:miter;stroke-opacity:1" d="M 647.872,535.144 653.176,530.503 z" id="boundary" inkscape:connector-curvature="0" />
	<path style="fill:none;stroke:red;stroke-width:1px;stroke-linecap:butt;stroke-linejoin:miter;stroke-opacity:1" d="M 652.513,285.818 663.786,293.775 z" id="boundary" inkscape:connector-curvature="0" />
	<path style="fill:none;stroke:red;stroke-width:1px;stroke-linecap:butt;stroke-linejoin:miter;stroke-opacity:1" d="M 653.176,530.503 657.818,525.198 z" id="boundary" inkscape:connector-curvature="0" />
	<path style="fill:none;stroke:red;stroke-width:1px;stroke-linecap:butt;stroke-linejoin:miter;stroke-opacity:1" d="M 657.818,525.198 663.123,520.556 z" id="boundary" inkscape:connector-curvature="0" />
	<path style="fill:none;stroke:red;stroke-width:1px;stroke-linecap:butt;stroke-linejoin:miter;stroke-opacity:1" d="M 663.123,520.556 667.765,515.251 z" id="boundary" inkscape:connector-curvature="0" />
	<path style="fill:none;stroke:red;stroke-width:1px;stroke-linecap:butt;stroke-linejoin:miter;stroke-opacity:1" d="M 663.786,293.775 674.396,301.07 z" id="boundary" inkscape:connector-curvature="0" />
	<path style="fill:none;stroke:red;stroke-width:1px;stroke-linecap:butt;stroke-linejoin:miter;stroke-opacity:1" d="M 667.765,515.251 679.701,507.294 z" id="boundary" inkscape:connector-curvature="0" />
	<path style="fill:none;stroke:red;stroke-width:1px;stroke-linecap:butt;stroke-linejoin:miter;stroke-opacity:1" d="M 674.396,301.07 679.701,305.711 z" id="boundary" inkscape:connector-curvature="0" />
	<path style="fill:none;stroke:red;stroke-width:1px;stroke-linecap:butt;stroke-linejoin:miter;stroke-opacity:1" d="M 679.701,305.711 685.668,309.027 z" id="boundary" inkscape:connector-curvature="0" />
	<path style="fill:none;stroke:red;stroke-width:1px;stroke-linecap:butt;stroke-linejoin:miter;stroke-opacity:1" d="M 679.701,507.294 684.342,501.989 z" id="boundary" inkscape:connector-curvature="0" />
	<path style="fill:none;stroke:red;stroke-width:1px;stroke-linecap:butt;stroke-linejoin:miter;stroke-opacity:1" d="M 684.342,501.989 689.647,497.348 z" id="boundary" inkscape:connector-curvature="0" />
	<path style="fill:none;stroke:red;stroke-width:1px;stroke-linecap:butt;stroke-linejoin:miter;stroke-opacity:1" d="M 685.668,309.027 691.636,312.342 z" id="boundary" inkscape:connector-curvature="0" />
	<path style="fill:none;stroke:red;stroke-width:1px;stroke-linecap:butt;stroke-linejoin:miter;stroke-opacity:1" d="M 689.647,497.348 700.92,485.412 z" id="boundary" inkscape:connector-curvature="0" />
	<path style="fill:none;stroke:red;stroke-width:1px;stroke-linecap:butt;stroke-linejoin:miter;stroke-opacity:1" d="M 691.636,312.342 696.941,316.984 z" id="boundary" inkscape:connector-curvature="0" />
	<path style="fill:none;stroke:red;stroke-width:1px;stroke-linecap:butt;stroke-linejoin:miter;stroke-opacity:1" d="M 696.941,316.984 700.92,322.289 z" id="boundary" inkscape:connector-curvature="0" />
	<path style="fill:none;stroke:red;stroke-width:1px;stroke-linecap:butt;stroke-linejoin:miter;stroke-opacity:1" d="M 700.92,322.289 707.551,324.278 z" id="boundary" inkscape:connector-curvature="0" />
	<path style="fill:none;stroke:red;stroke-width:1px;stroke-linecap:butt;stroke-linejoin:miter;stroke-opacity:1" d="M 700.92,485.412 710.866,475.465 z" id="boundary" inkscape:connector-curvature="0" />
	<path style="fill:none;stroke:red;stroke-width:1px;stroke-linecap:butt;stroke-linejoin:miter;stroke-opacity:1" d="M 707.551,324.278 718.824,332.235 z" id="boundary" inkscape:connector-curvature="0" />
	<path style="fill:none;stroke:red;stroke-width:1px;stroke-linecap:butt;stroke-linejoin:miter;stroke-opacity:1" d="M 710.866,475.465 716.834,472.15 z" id="boundary" inkscape:connector-curvature="0" />
	<path style="fill:none;stroke:red;stroke-width:1px;stroke-linecap:butt;stroke-linejoin:miter;stroke-opacity:1" d="M 716.834,472.15 722.139,468.171 z" id="boundary" inkscape:connector-curvature="0" />
	<path style="fill:none;stroke:red;stroke-width:1px;stroke-linecap:butt;stroke-linejoin:miter;stroke-opacity:1" d="M 718.824,332.235 720.813,338.866 z" id="boundary" inkscape:connector-curvature="0" />
	<path style="fill:none;stroke:red;stroke-width:1px;stroke-linecap:butt;stroke-linejoin:miter;stroke-opacity:1" d="M 720.813,338.866 727.444,340.856 z" id="boundary" inkscape:connector-curvature="0" />
	<path style="fill:none;stroke:red;stroke-width:1px;stroke-linecap:butt;stroke-linejoin:miter;stroke-opacity:1" d="M 722.139,468.171 727.444,462.203 z" id="boundary" inkscape:connector-curvature="0" />
	<path style="fill:none;stroke:red;stroke-width:1px;stroke-linecap:butt;stroke-linejoin:miter;stroke-opacity:1" d="M 727.444,340.856 732.086,346.16 z" id="boundary" inkscape:connector-curvature="0" />
	<path style="fill:none;stroke:red;stroke-width:1px;stroke-linecap:butt;stroke-linejoin:miter;stroke-opacity:1" d="M 727.444,462.203 734.075,448.941 z" id="boundary" inkscape:connector-curvature="0" />
	<path style="fill:none;stroke:red;stroke-width:1px;stroke-linecap:butt;stroke-linejoin:miter;stroke-opacity:1" d="M 732.086,346.16 737.39,350.802 z" id="boundary" inkscape:connector-curvature="0" />
	<path style="fill:none;stroke:red;stroke-width:1px;stroke-linecap:butt;stroke-linejoin:miter;stroke-opacity:1" d="M 734.075,448.941 737.39,438.995 z" id="boundary" inkscape:connector-curvature="0" />
	<path style="fill:none;stroke:red;stroke-width:1px;stroke-linecap:butt;stroke-linejoin:miter;stroke-opacity:1" d="M 737.39,350.802 742.032,356.107 z" id="boundary" inkscape:connector-curvature="0" />
	<path style="fill:none;stroke:red;stroke-width:1px;stroke-linecap:butt;stroke-linejoin:miter;stroke-opacity:1" d="M 737.39,438.995 740.706,432.364 z" id="boundary" inkscape:connector-curvature="0" />
	<path style="fill:none;stroke:red;stroke-width:1px;stroke-linecap:butt;stroke-linejoin:miter;stroke-opacity:1" d="M 740.706,432.364 744.021,425.733 z" id="boundary" inkscape:connector-curvature="0" />
	<path style="fill:none;stroke:red;stroke-width:1px;stroke-linecap:butt;stroke-linejoin:miter;stroke-opacity:1" d="M 742.032,356.107 745.348,362.075 z" id="boundary" inkscape:connector-curvature="0" />
	<path style="fill:none;stroke:red;stroke-width:1px;stroke-linecap:butt;stroke-linejoin:miter;stroke-opacity:1" d="M 744.021,419.102 744.021,425.733 z" id="boundary" inkscape:connector-curvature="0" />
	<path style="fill:none;stroke:red;stroke-width:1px;stroke-linecap:butt;stroke-linejoin:miter;stroke-opacity:1" d="M 744.021,419.102 750.652,402.524 z" id="boundary" inkscape:connector-curvature="0" />
	<path style="fill:none;stroke:red;stroke-width:1px;stroke-linecap:butt;stroke-linejoin:miter;stroke-opacity:1" d="M 745.348,362.075 749.989,367.38 z" id="boundary" inkscape:connector-curvature="0" />
	<path style="fill:none;stroke:red;stroke-width:1px;stroke-linecap:butt;stroke-linejoin:miter;stroke-opacity:1" d="M 749.989,367.38 753.968,379.316 z" id="boundary" inkscape:connector-curvature="0" />
	<path style="fill:none;stroke:red;stroke-width:1px;stroke-linecap:butt;stroke-linejoin:miter;stroke-opacity:1" d="M 750.652,395.893 750.652,402.524 z" id="boundary" inkscape:connector-curvature="0" />
	<path style="fill:none;stroke:red;stroke-width:1px;stroke-linecap:butt;stroke-linejoin:miter;stroke-opacity:1" d="M 750.652,395.893 753.968,385.947 z" id="boundary" inkscape:connector-curvature="0" />
	<path style="fill:none;stroke:red;stroke-width:1px;stroke-linecap:butt;stroke-linejoin:miter;stroke-opacity:1" d="M 753.968,379.316 753.968,385.947 z" id="boundary" inkscape:connector-curvature="0" />
	<circle cx="4" cy="403.85" r="4" fill="#0" id="circle0"/>
	<circle cx="4" cy="410.481" r="4" fill="#0" id="circle1"/>
	<circle cx="4" cy="417.112" r="4" fill="#0" id="circle2"/>
	<circle cx="7.31551" cy="397.219" r="4" fill="#0" id="circle3"/>
	<circle cx="7.31551" cy="423.08" r="4" fill="#0" id="circle4"/>
	<circle cx="7.31551" cy="429.711" r="4" fill="#0" id="circle5"/>
	<circle cx="7.31551" cy="436.342" r="4" fill="#0" id="circle6"/>
	<circle cx="7.31551" cy="442.973" r="4" fill="#0" id="circle7"/>
	<circle cx="10.631" cy="448.941" r="4" fill="#0" id="circle8"/>
	<circle cx="10.631" cy="455.572" r="4" fill="#0" id="circle9"/>
	<circle cx="12.6203" cy="391.914" r="4" fill="#0" id="circle10"/>
	<circle cx="13.9465" cy="461.54" r="4" fill="#0" id="circle11"/>
	<circle cx="15.2727" cy="468.171" r="4" fill="#0" id="circle12"/>
	<circle cx="17.9251" cy="386.61" r="4" fill="#0" id="circle13"/>
	<circle cx="18.5882" cy="474.139" r="4" fill="#0" id="circle14"/>
	<circle cx="21.2406" cy="379.979" r="4" fill="#0" id="circle15"/>
	<circle cx="21.2406" cy="480.77" r="4" fill="#0" id="circle16"/>
	<circle cx="27.2086" cy="374.011" r="4" fill="#0" id="circle17"/>
	<circle cx="27.8717" cy="483.422" r="4" fill="#0" id="circle18"/>
	<circle cx="32.5134" cy="488.727" r="4" fill="#0" id="circle19"/>
	<circle cx="33.8396" cy="367.38" r="4" fill="#0" id="circle20"/>
	<circle cx="35.8289" cy="494.695" r="4" fill="#0" id="circle21"/>
	<circle cx="39.1444" cy="362.075" r="4" fill="#0" id="circle22"/>
	<circle cx="40.4706" cy="500" r="4" fill="#0" id="circle23"/>
	<circle cx="44.4492" cy="356.77" r="4" fill="#0" id="circle24"/>
	<circle cx="45.7754" cy="504.642" r="4" fill="#0" id="circle25"/>
	<circle cx="49.754" cy="352.128" r="4" fill="#0" id="circle26"/>
	<circle cx="50.4171" cy="509.947" r="4" fill="#0" id="circle27"/>
	<circle cx="54.3957" cy="346.824" r="4" fill="#0" id="circle28"/>
	<circle cx="55.7219" cy="514.588" r="4" fill="#0" id="circle29"/>
	<circle cx="60.3636" cy="340.856" r="4" fill="#0" id="circle30"/>
	<circle cx="61.6898" cy="517.904" r="4" fill="#0" id="circle31"/>
	<circle cx="66.9947" cy="334.225" r="4" fill="#0" id="circle32"/>
	<circle cx="66.9947" cy="521.882" r="4" fill="#0" id="circle33"/>
	<circle cx="70.9733" cy="527.187" r="4" fill="#0" id="circle34"/>
	<circle cx="73.6257" cy="327.594" r="4" fill="#0" id="circle35"/>
	<circle cx="76.2781" cy="531.829" r="4" fill="#0" id="circle36"/>
	<circle cx="80.2567" cy="324.278" r="4" fill="#0" id="circle37"/>
	<circle cx="80.9198" cy="537.134" r="4" fill="#0" id="circle38"/>
	<circle cx="85.5615" cy="318.973" r="4" fill="#0" id="circle39"/>
	<circle cx="86.8877" cy="540.449" r="4" fill="#0" id="circle40"/>
	<circle cx="90.8663" cy="313.668" r="4" fill="#0" id="circle41"/>
	<circle cx="92.1925" cy="545.091" r="4" fill="#0" id="circle42"/>
	<circle cx="97.4973" cy="310.353" r="4" fill="#0" id="circle43"/>
	<circle cx="98.1604" cy="548.406" r="4" fill="#0" id="circle44"/>
	<circle cx="102.802" cy="305.711" r="4" fill="#0" id="circle45"/>
	<circle cx="103.465" cy="552.385" r="4" fill="#0" id="circle46"/>
	<circle cx="107.444" cy="300.406" r="4" fill="#0" id="circle47"/>
	<circle cx="108.107" cy="557.69" r="4" fill="#0" id="circle48"/>
	<circle cx="114.075" cy="297.091" r="4" fill="#0" id="circle49"/>
	<circle cx="114.738" cy="560.342" r="4" fill="#0" id="circle50"/>
	<circle cx="119.38" cy="292.449" r="4" fill="#0" id="circle51"/>
	<circle cx="120.043" cy="564.984" r="4" fill="#0" id="circle52"/>
	<circle cx="125.348" cy="289.134" r="4" fill="#0" id="circle53"/>
	<circle cx="126.011" cy="568.299" r="4" fill="#0" id="circle54"/>
	<circle cx="130.652" cy="283.829" r="4" fill="#0" id="circle55"/>
	<circle cx="131.979" cy="571.615" r="4" fill="#0" id="circle56"/>
	<circle cx="135.957" cy="279.187" r="4" fill="#0" id="circle57"/>
	<circle cx="137.283" cy="576.257" r="4" fill="#0" id="circle58"/>
	<circle cx="141.925" cy="275.872" r="4" fill="#0" id="circle59"/>
	<circle cx="143.914" cy="578.246" r="4" fill="#0" id="circle60"/>
	<circle cx="147.23" cy="270.567" r="4" fill="#0" id="circle61"/>
	<circle cx="149.882" cy="581.561" r="4" fill="#0" id="circle62"/>
	<circle cx="152.535" cy="265.925" r="4" fill="#0" id="circle63"/>
	<circle cx="155.85" cy="584.877" r="4" fill="#0" id="circle64"/>
	<circle cx="157.176" cy="260.62" r="4" fill="#0" id="circle65"/>
	<circle cx="160.492" cy="590.182" r="4" fill="#0" id="circle66"/>
	<circle cx="163.807" cy="257.305" r="4" fill="#0" id="circle67"/>
	<circle cx="165.797" cy="594.824" r="4" fill="#0" id="circle68"/>
	<circle cx="169.112" cy="252.663" r="4" fill="#0" id="circle69"/>
	<circle cx="171.765" cy="598.139" r="4" fill="#0" id="circle70"/>
	<circle cx="173.754" cy="247.358" r="4" fill="#0" id="circle71"/>
	<circle cx="177.733" cy="601.455" r="4" fill="#0" id="circle72"/>
	<circle cx="179.722" cy="241.39" r="4" fill="#0" id="circle73"/>
	<circle cx="183.701" cy="604.77" r="4" fill="#0" id="circle74"/>
	<circle cx="185.027" cy="236.086" r="4" fill="#0" id="circle75"/>
	<circle cx="187.679" cy="610.075" r="4" fill="#0" id="circle76"/>
	<circle cx="190.332" cy="230.781" r="4" fill="#0" id="circle77"/>
	<circle cx="193.647" cy="613.39" r="4" fill="#0" id="circle78"/>
	<circle cx="196.299" cy="224.813" r="4" fill="#0" id="circle79"/>
	<circle cx="200.278" cy="614.717" r="4" fill="#0" id="circle80"/>
	<circle cx="202.93" cy="221.497" r="4" fill="#0" id="circle81"/>
	<circle cx="206.246" cy="618.032" r="4" fill="#0" id="circle82"/>
	<circle cx="208.235" cy="216.193" r="4" fill="#0" id="circle83"/>
	<circle cx="212.214" cy="621.348" r="4" fill="#0" id="circle84"/>
	<circle cx="214.203" cy="212.877" r="4" fill="#0" id="circle85"/>
	<circle cx="217.519" cy="206.909" r="4" fill="#0" id="circle86"/>
	<circle cx="218.182" cy="624.663" r="4" fill="#0" id="circle87"/>
	<circle cx="220.834" cy="200.278" r="4" fill="#0" id="circle88"/>
	<circle cx="224.813" cy="627.316" r="4" fill="#0" id="circle89"/>
	<circle cx="226.139" cy="194.973" r="4" fill="#0" id="circle90"/>
	<circle cx="227.465" cy="633.947" r="4" fill="#0" id="circle91"/>
	<circle cx="232.77" cy="188.342" r="4" fill="#0" id="circle92"/>
	<circle cx="234.096" cy="634.61" r="4" fill="#0" id="circle93"/>
	<circle cx="236.086" cy="181.711" r="4" fill="#0" id="circle94"/>
	<circle cx="240.064" cy="637.925" r="4" fill="#0" id="circle95"/>
	<circle cx="242.717" cy="175.08" r="4" fill="#0" id="circle96"/>
	<circle cx="246.032" cy="641.241" r="4" fill="#0" id="circle97"/>
	<circle cx="248.021" cy="169.775" r="4" fill="#0" id="circle98"/>
	<circle cx="252.663" cy="641.241" r="4" fill="#0" id="circle99"/>
	<circle cx="253.326" cy="164.471" r="4" fill="#0" id="circle100"/>
	<circle cx="258.631" cy="159.829" r="4" fill="#0" id="circle101"/>
	<circle cx="258.631" cy="644.556" r="4" fill="#0" id="circle102"/>
	<circle cx="262.61" cy="151.872" r="4" fill="#0" id="circle103"/>
	<circle cx="264.599" cy="647.872" r="4" fill="#0" id="circle104"/>
	<circle cx="267.914" cy="146.567" r="4" fill="#0" id="circle105"/>
	<circle cx="270.567" cy="651.187" r="4" fill="#0" id="circle106"/>
	<circle cx="271.23" cy="139.936" r="4" fill="#0" id="circle107"/>
	<circle cx="276.535" cy="134.631" r="4" fill="#0" id="circle108"/>
	<circle cx="277.198" cy="651.187" r="4" fill="#0" id="circle109"/>
	<circle cx="281.84" cy="129.989" r="4" fill="#0" id="circle110"/>
	<circle cx="283.829" cy="651.187" r="4" fill="#0" id="circle111"/>
	<circle cx="284.492" cy="123.358" r="4" fill="#0" id="circle112"/>
	<circle cx="289.134" cy="115.401" r="4" fill="#0" id="circle113"/>
	<circle cx="289.797" cy="654.503" r="4" fill="#0" id="circle114"/>
	<circle cx="294.439" cy="110.096" r="4" fill="#0" id="circle115"/>
	<circle cx="296.428" cy="654.503" r="4" fill="#0" id="circle116"/>
	<circle cx="299.08" cy="675.722" r="4" fill="#0" id="circle117"/>
	<circle cx="299.08" cy="682.353" r="4" fill="#0" id="circle118"/>
	<circle cx="299.08" cy="688.984" r="4" fill="#0" id="circle119"/>
	<circle cx="299.08" cy="695.615" r="4" fill="#0" id="circle120"/>
	<circle cx="299.08" cy="702.246" r="4" fill="#0" id="circle121"/>
	<circle cx="299.08" cy="708.877" r="4" fill="#0" id="circle122"/>
	<circle cx="299.08" cy="715.508" r="4" fill="#0" id="circle123"/>
	<circle cx="299.743" cy="104.791" r="4" fill="#0" id="circle124"/>
	<circle cx="302.396" cy="651.187" r="4" fill="#0" id="circle125"/>
	<circle cx="302.396" cy="659.144" r="4" fill="#0" id="circle126"/>
	<circle cx="302.396" cy="665.775" r="4" fill="#0" id="circle127"/>
	<circle cx="302.396" cy="721.476" r="4" fill="#0" id="circle128"/>
	<circle cx="305.048" cy="100.15" r="4" fill="#0" id="circle129"/>
	<circle cx="309.027" cy="92.1925" r="4" fill="#0" id="circle130"/>
	<circle cx="309.027" cy="724.128" r="4" fill="#0" id="circle131"/>
	<circle cx="314.332" cy="86.8877" r="4" fill="#0" id="circle132"/>
	<circle cx="315.658" cy="724.128" r="4" fill="#0" id="circle133"/>
	<circle cx="317.647" cy="80.2567" r="4" fill="#0" id="circle134"/>
	<circle cx="320.963" cy="720.15" r="4" fill="#0" id="circle135"/>
	<circle cx="322.289" cy="72.2995" r="4" fill="#0" id="circle136"/>
	<circle cx="325.604" cy="65.6684" r="4" fill="#0" id="circle137"/>
	<circle cx="326.93" cy="723.465" r="4" fill="#0" id="circle138"/>
	<circle cx="330.909" cy="60.3636" r="4" fill="#0" id="circle139"/>
	<circle cx="332.235" cy="727.444" r="4" fill="#0" id="circle140"/>
	<circle cx="334.225" cy="53.7326" r="4" fill="#0" id="circle141"/>
	<circle cx="335.551" cy="45.7754" r="4" fill="#0" id="circle142"/>
	<circle cx="338.203" cy="730.759" r="4" fill="#0" id="circle143"/>
	<circle cx="340.856" cy="40.4706" r="4" fill="#0" id="circle144"/>
	<circle cx="342.182" cy="29.1979" r="4" fill="#0" id="circle145"/>
	<circle cx="342.182" cy="736.064" r="4" fill="#0" id="circle146"/>
	<circle cx="342.182" cy="785.134" r="4" fill="#0" id="circle147"/>
	<circle cx="342.182" cy="791.765" r="4" fill="#0" id="circle148"/>
	<circle cx="342.182" cy="798.396" r="4" fill="#0" id="circle149"/>
	<circle cx="342.182" cy="805.027" r="4" fill="#0" id="circle150"/>
	<circle cx="342.845" cy="742.695" r="4" fill="#0" id="circle151"/>
	<circle cx="345.497" cy="22.5668" r="4" fill="#0" id="circle152"/>
	<circle cx="348.15" cy="747.337" r="4" fill="#0" id="circle153"/>
	<circle cx="348.813" cy="15.9358" r="4" fill="#0" id="circle154"/>
	<circle cx="348.813" cy="753.968" r="4" fill="#0" id="circle155"/>
	<circle cx="348.813" cy="768.556" r="4" fill="#0" id="circle156"/>
	<circle cx="348.813" cy="775.187" r="4" fill="#0" id="circle157"/>
	<circle cx="348.813" cy="781.818" r="4" fill="#0" id="circle158"/>
	<circle cx="348.813" cy="807.016" r="4" fill="#0" id="circle159"/>
	<circle cx="348.813" cy="813.647" r="4" fill="#0" id="circle160"/>
	<circle cx="352.128" cy="9.30481" r="4" fill="#0" id="circle161"/>
	<circle cx="352.128" cy="759.936" r="4" fill="#0" id="circle162"/>
	<circle cx="352.128" cy="819.615" r="4" fill="#0" id="circle163"/>
	<circle cx="352.128" cy="826.246" r="4" fill="#0" id="circle164"/>
	<circle cx="352.128" cy="832.877" r="4" fill="#0" id="circle165"/>
	<circle cx="352.128" cy="839.508" r="4" fill="#0" id="circle166"/>
	<circle cx="352.128" cy="846.139" r="4" fill="#0" id="circle167"/>
	<circle cx="355.444" cy="852.107" r="4" fill="#0" id="circle168"/>
	<circle cx="355.444" cy="858.738" r="4" fill="#0" id="circle169"/>
	<circle cx="355.444" cy="865.369" r="4" fill="#0" id="circle170"/>
	<circle cx="355.444" cy="884.599" r="4" fill="#0" id="circle171"/>
	<circle cx="355.444" cy="891.23" r="4" fill="#0" id="circle172"/>
	<circle cx="357.433" cy="4" r="4" fill="#0" id="circle173"/>
	<circle cx="358.759" cy="871.337" r="4" fill="#0" id="circle174"/>
	<circle cx="358.759" cy="877.968" r="4" fill="#0" id="circle175"/>
	<circle cx="358.759" cy="897.198" r="4" fill="#0" id="circle176"/>
	<circle cx="363.401" cy="902.503" r="4" fill="#0" id="circle177"/>
	<circle cx="364.064" cy="4" r="4" fill="#0" id="circle178"/>
	<circle cx="368.706" cy="906.481" r="4" fill="#0" id="circle179"/>
	<circle cx="370.695" cy="4" r="4" fill="#0" id="circle180"/>
	<circle cx="370.695" cy="913.112" r="4" fill="#0" id="circle181"/>
	<circle cx="372.684" cy="657.818" r="4" fill="#0" id="circle182"/>
	<circle cx="372.684" cy="664.449" r="4" fill="#0" id="circle183"/>
	<circle cx="372.684" cy="671.08" r="4" fill="#0" id="circle184"/>
	<circle cx="374.011" cy="919.08" r="4" fill="#0" id="circle185"/>
	<circle cx="376.663" cy="7.31551" r="4" fill="#0" id="circle186"/>
	<circle cx="376.663" cy="925.711" r="4" fill="#0" id="circle187"/>
	<circle cx="379.316" cy="659.144" r="4" fill="#0" id="circle188"/>
	<circle cx="379.316" cy="671.743" r="4" fill="#0" id="circle189"/>
	<circle cx="379.979" cy="931.679" r="4" fill="#0" id="circle190"/>
	<circle cx="382.631" cy="10.631" r="4" fill="#0" id="circle191"/>
	<circle cx="383.957" cy="664.449" r="4" fill="#0" id="circle192"/>
	<circle cx="385.283" cy="936.321" r="4" fill="#0" id="circle193"/>
	<circle cx="385.947" cy="16.5989" r="4" fill="#0" id="circle194"/>
	<circle cx="385.947" cy="23.2299" r="4" fill="#0" id="circle195"/>
	<circle cx="388.599" cy="942.289" r="4" fill="#0" id="circle196"/>
	<circle cx="389.262" cy="29.1979" r="4" fill="#0" id="circle197"/>
	<circle cx="392.578" cy="35.1658" r="4" fill="#0" id="circle198"/>
	<circle cx="392.578" cy="947.594" r="4" fill="#0" id="circle199"/>
	<circle cx="395.23" cy="954.225" r="4" fill="#0" id="circle200"/>
	<circle cx="396.556" cy="40.4706" r="4" fill="#0" id="circle201"/>
	<circle cx="399.209" cy="47.1016" r="4" fill="#0" id="circle202"/>
	<circle cx="399.209" cy="800.385" r="4" fill="#0" id="circle203"/>
	<circle cx="400.535" cy="807.016" r="4" fill="#0" id="circle204"/>
	<circle cx="401.861" cy="956.214" r="4" fill="#0" id="circle205"/>
	<circle cx="402.524" cy="767.23" r="4" fill="#0" id="circle206"/>
	<circle cx="402.524" cy="773.861" r="4" fill="#0" id="circle207"/>
	<circle cx="402.524" cy="780.492" r="4" fill="#0" id="circle208"/>
	<circle cx="402.524" cy="787.123" r="4" fill="#0" id="circle209"/>
	<circle cx="402.524" cy="793.754" r="4" fill="#0" id="circle210"/>
	<circle cx="402.524" cy="813.647" r="4" fill="#0" id="circle211"/>
	<circle cx="402.524" cy="820.278" r="4" fill="#0" id="circle212"/>
	<circle cx="402.524" cy="826.909" r="4" fill="#0" id="circle213"/>
	<circle cx="402.524" cy="833.54" r="4" fill="#0" id="circle214"/>
	<circle cx="402.524" cy="840.171" r="4" fill="#0" id="circle215"/>
	<circle cx="402.524" cy="846.802" r="4" fill="#0" id="circle216"/>
	<circle cx="403.85" cy="853.433" r="4" fill="#0" id="circle217"/>
	<circle cx="403.85" cy="962.845" r="4" fill="#0" id="circle218"/>
	<circle cx="404.513" cy="51.0802" r="4" fill="#0" id="circle219"/>
	<circle cx="405.84" cy="757.283" r="4" fill="#0" id="circle220"/>
	<circle cx="405.84" cy="860.064" r="4" fill="#0" id="circle221"/>
	<circle cx="405.84" cy="866.695" r="4" fill="#0" id="circle222"/>
	<circle cx="407.166" cy="57.7112" r="4" fill="#0" id="circle223"/>
	<circle cx="407.166" cy="873.326" r="4" fill="#0" id="circle224"/>
	<circle cx="409.155" cy="879.957" r="4" fill="#0" id="circle225"/>
	<circle cx="410.481" cy="886.588" r="4" fill="#0" id="circle226"/>
	<circle cx="410.481" cy="965.497" r="4" fill="#0" id="circle227"/>
	<circle cx="411.144" cy="752.642" r="4" fill="#0" id="circle228"/>
	<circle cx="412.471" cy="62.3529" r="4" fill="#0" id="circle229"/>
	<circle cx="413.797" cy="892.556" r="4" fill="#0" id="circle230"/>
	<circle cx="415.123" cy="68.984" r="4" fill="#0" id="circle231"/>
	<circle cx="415.123" cy="970.802" r="4" fill="#0" id="circle232"/>
	<circle cx="415.786" cy="747.337" r="4" fill="#0" id="circle233"/>
	<circle cx="415.786" cy="899.187" r="4" fill="#0" id="circle234"/>
	<circle cx="415.786" cy="905.818" r="4" fill="#0" id="circle235"/>
	<circle cx="419.102" cy="74.2888" r="4" fill="#0" id="circle236"/>
	<circle cx="419.102" cy="737.39" r="4" fill="#0" id="circle237"/>
	<circle cx="421.091" cy="909.797" r="4" fill="#0" id="circle238"/>
	<circle cx="421.754" cy="972.791" r="4" fill="#0" id="circle239"/>
	<circle cx="422.417" cy="80.2567" r="4" fill="#0" id="circle240"/>
	<circle cx="423.743" cy="916.428" r="4" fill="#0" id="circle241"/>
	<circle cx="425.07" cy="734.075" r="4" fill="#0" id="circle242"/>
	<circle cx="425.733" cy="86.2246" r="4" fill="#0" id="circle243"/>
	<circle cx="425.733" cy="923.059" r="4" fill="#0" id="circle244"/>
	<circle cx="425.733" cy="978.096" r="4" fill="#0" id="circle245"/>
	<circle cx="430.374" cy="730.096" r="4" fill="#0" id="circle246"/>
	<circle cx="431.037" cy="90.8663" r="4" fill="#0" id="circle247"/>
	<circle cx="431.037" cy="927.037" r="4" fill="#0" id="circle248"/>
	<circle cx="432.364" cy="980.749" r="4" fill="#0" id="circle249"/>
	<circle cx="434.353" cy="933.005" r="4" fill="#0" id="circle250"/>
	<circle cx="435.679" cy="96.1711" r="4" fill="#0" id="circle251"/>
	<circle cx="435.679" cy="720.813" r="4" fill="#0" id="circle252"/>
	<circle cx="438.332" cy="984.064" r="4" fill="#0" id="circle253"/>
	<circle cx="438.995" cy="714.182" r="4" fill="#0" id="circle254"/>
	<circle cx="438.995" cy="938.31" r="4" fill="#0" id="circle255"/>
	<circle cx="440.984" cy="100.813" r="4" fill="#0" id="circle256"/>
	<circle cx="442.31" cy="707.551" r="4" fill="#0" id="circle257"/>
	<circle cx="444.299" cy="942.289" r="4" fill="#0" id="circle258"/>
	<circle cx="444.963" cy="986.053" r="4" fill="#0" id="circle259"/>
	<circle cx="445.626" cy="106.118" r="4" fill="#0" id="circle260"/>
	<circle cx="448.941" cy="708.877" r="4" fill="#0" id="circle261"/>
	<circle cx="450.267" cy="945.604" r="4" fill="#0" id="circle262"/>
	<circle cx="450.93" cy="110.759" r="4" fill="#0" id="circle263"/>
	<circle cx="450.93" cy="989.369" r="4" fill="#0" id="circle264"/>
	<circle cx="454.909" cy="950.909" r="4" fill="#0" id="circle265"/>
	<circle cx="455.572" cy="116.064" r="4" fill="#0" id="circle266"/>
	<circle cx="455.572" cy="710.866" r="4" fill="#0" id="circle267"/>
	<circle cx="457.561" cy="989.369" r="4" fill="#0" id="circle268"/>
	<circle cx="458.888" cy="122.032" r="4" fill="#0" id="circle269"/>
	<circle cx="458.888" cy="647.872" r="4" fill="#0" id="circle270"/>
	<circle cx="458.888" cy="654.503" r="4" fill="#0" id="circle271"/>
	<circle cx="458.888" cy="661.134" r="4" fill="#0" id="circle272"/>
	<circle cx="460.214" cy="667.765" r="4" fill="#0" id="circle273"/>
	<circle cx="461.54" cy="953.561" r="4" fill="#0" id="circle274"/>
	<circle cx="462.203" cy="674.396" r="4" fill="#0" id="circle275"/>
	<circle cx="462.203" cy="707.551" r="4" fill="#0" id="circle276"/>
	<circle cx="463.529" cy="127.337" r="4" fill="#0" id="circle277"/>
	<circle cx="463.529" cy="681.027" r="4" fill="#0" id="circle278"/>
	<circle cx="463.529" cy="992.684" r="4" fill="#0" id="circle279"/>
	<circle cx="465.519" cy="649.198" r="4" fill="#0" id="circle280"/>
	<circle cx="465.519" cy="687.658" r="4" fill="#0" id="circle281"/>
	<circle cx="465.519" cy="694.289" r="4" fill="#0" id="circle282"/>
	<circle cx="465.519" cy="700.92" r="4" fill="#0" id="circle283"/>
	<circle cx="467.508" cy="956.877" r="4" fill="#0" id="circle284"/>
	<circle cx="468.834" cy="131.979" r="4" fill="#0" id="circle285"/>
	<circle cx="470.16" cy="992.684" r="4" fill="#0" id="circle286"/>
	<circle cx="471.487" cy="138.61" r="4" fill="#0" id="circle287"/>
	<circle cx="472.15" cy="651.187" r="4" fill="#0" id="circle288"/>
	<circle cx="474.139" cy="958.866" r="4" fill="#0" id="circle289"/>
	<circle cx="476.791" cy="143.251" r="4" fill="#0" id="circle290"/>
	<circle cx="476.791" cy="992.684" r="4" fill="#0" id="circle291"/>
	<circle cx="478.781" cy="149.882" r="4" fill="#0" id="circle292"/>
	<circle cx="478.781" cy="651.187" r="4" fill="#0" id="circle293"/>
	<circle cx="480.77" cy="958.866" r="4" fill="#0" id="circle294"/>
	<circle cx="482.759" cy="996" r="4" fill="#0" id="circle295"/>
	<circle cx="484.086" cy="153.861" r="4" fill="#0" id="circle296"/>
	<circle cx="485.412" cy="651.187" r="4" fill="#0" id="circle297"/>
	<circle cx="486.738" cy="955.551" r="4" fill="#0" id="circle298"/>
	<circle cx="488.727" cy="159.166" r="4" fill="#0" id="circle299"/>
	<circle cx="489.39" cy="996" r="4" fill="#0" id="circle300"/>
	<circle cx="491.38" cy="647.872" r="4" fill="#0" id="circle301"/>
	<circle cx="492.043" cy="165.134" r="4" fill="#0" id="circle302"/>
	<circle cx="492.706" cy="952.235" r="4" fill="#0" id="circle303"/>
	<circle cx="496.021" cy="996" r="4" fill="#0" id="circle304"/>
	<circle cx="496.684" cy="170.439" r="4" fill="#0" id="circle305"/>
	<circle cx="498.011" cy="645.882" r="4" fill="#0" id="circle306"/>
	<circle cx="498.674" cy="948.92" r="4" fill="#0" id="circle307"/>
	<circle cx="501.989" cy="175.08" r="4" fill="#0" id="circle308"/>
	<circle cx="502.652" cy="996" r="4" fill="#0" id="circle309"/>
	<circle cx="504.642" cy="644.556" r="4" fill="#0" id="circle310"/>
	<circle cx="504.642" cy="944.278" r="4" fill="#0" id="circle311"/>
	<circle cx="506.631" cy="180.385" r="4" fill="#0" id="circle312"/>
	<circle cx="509.283" cy="996" r="4" fill="#0" id="circle313"/>
	<circle cx="509.947" cy="186.353" r="4" fill="#0" id="circle314"/>
	<circle cx="509.947" cy="938.973" r="4" fill="#0" id="circle315"/>
	<circle cx="510.61" cy="641.241" r="4" fill="#0" id="circle316"/>
	<circle cx="515.251" cy="992.684" r="4" fill="#0" id="circle317"/>
	<circle cx="515.914" cy="189.668" r="4" fill="#0" id="circle318"/>
	<circle cx="516.578" cy="938.973" r="4" fill="#0" id="circle319"/>
	<circle cx="517.241" cy="639.914" r="4" fill="#0" id="circle320"/>
	<circle cx="521.219" cy="194.31" r="4" fill="#0" id="circle321"/>
	<circle cx="521.882" cy="992.684" r="4" fill="#0" id="circle322"/>
	<circle cx="523.209" cy="938.973" r="4" fill="#0" id="circle323"/>
	<circle cx="523.872" cy="636.599" r="4" fill="#0" id="circle324"/>
	<circle cx="525.198" cy="199.615" r="4" fill="#0" id="circle325"/>
	<circle cx="528.513" cy="631.294" r="4" fill="#0" id="circle326"/>
	<circle cx="528.513" cy="992.684" r="4" fill="#0" id="circle327"/>
	<circle cx="529.84" cy="938.973" r="4" fill="#0" id="circle328"/>
	<circle cx="531.829" cy="201.604" r="4" fill="#0" id="circle329"/>
	<circle cx="534.481" cy="208.235" r="4" fill="#0" id="circle330"/>
	<circle cx="534.481" cy="627.979" r="4" fill="#0" id="circle331"/>
	<circle cx="534.481" cy="944.278" r="4" fill="#0" id="circle332"/>
	<circle cx="534.481" cy="989.369" r="4" fill="#0" id="circle333"/>
	<circle cx="535.144" cy="950.909" r="4" fill="#0" id="circle334"/>
	<circle cx="535.144" cy="957.54" r="4" fill="#0" id="circle335"/>
	<circle cx="539.786" cy="212.877" r="4" fill="#0" id="circle336"/>
	<circle cx="539.786" cy="624" r="4" fill="#0" id="circle337"/>
	<circle cx="541.112" cy="954.225" r="4" fill="#0" id="circle338"/>
	<circle cx="541.112" cy="987.38" r="4" fill="#0" id="circle339"/>
	<circle cx="545.754" cy="216.193" r="4" fill="#0" id="circle340"/>
	<circle cx="546.417" cy="620.684" r="4" fill="#0" id="circle341"/>
	<circle cx="547.743" cy="950.909" r="4" fill="#0" id="circle342"/>
	<circle cx="547.743" cy="986.053" r="4" fill="#0" id="circle343"/>
	<circle cx="548.406" cy="222.824" r="4" fill="#0" id="circle344"/>
	<circle cx="551.722" cy="614.717" r="4" fill="#0" id="circle345"/>
	<circle cx="553.048" cy="945.604" r="4" fill="#0" id="circle346"/>
	<circle cx="554.374" cy="984.064" r="4" fill="#0" id="circle347"/>
	<circle cx="555.037" cy="224.813" r="4" fill="#0" id="circle348"/>
	<circle cx="557.69" cy="937.647" r="4" fill="#0" id="circle349"/>
	<circle cx="558.353" cy="611.401" r="4" fill="#0" id="circle350"/>
	<circle cx="560.342" cy="229.455" r="4" fill="#0" id="circle351"/>
	<circle cx="561.005" cy="931.016" r="4" fill="#0" id="circle352"/>
	<circle cx="561.005" cy="980.749" r="4" fill="#0" id="circle353"/>
	<circle cx="563.658" cy="606.759" r="4" fill="#0" id="circle354"/>
	<circle cx="566.31" cy="232.77" r="4" fill="#0" id="circle355"/>
	<circle cx="566.31" cy="925.711" r="4" fill="#0" id="circle356"/>
	<circle cx="567.636" cy="977.433" r="4" fill="#0" id="circle357"/>
	<circle cx="568.299" cy="601.455" r="4" fill="#0" id="circle358"/>
	<circle cx="570.952" cy="238.075" r="4" fill="#0" id="circle359"/>
	<circle cx="572.278" cy="922.396" r="4" fill="#0" id="circle360"/>
	<circle cx="574.267" cy="974.118" r="4" fill="#0" id="circle361"/>
	<circle cx="574.93" cy="594.824" r="4" fill="#0" id="circle362"/>
	<circle cx="577.583" cy="240.727" r="4" fill="#0" id="circle363"/>
	<circle cx="578.909" cy="922.396" r="4" fill="#0" id="circle364"/>
	<circle cx="580.898" cy="970.802" r="4" fill="#0" id="circle365"/>
	<circle cx="581.561" cy="246.032" r="4" fill="#0" id="circle366"/>
	<circle cx="581.561" cy="591.508" r="4" fill="#0" id="circle367"/>
	<circle cx="585.54" cy="922.396" r="4" fill="#0" id="circle368"/>
	<circle cx="586.203" cy="966.16" r="4" fill="#0" id="circle369"/>
	<circle cx="586.866" cy="586.866" r="4" fill="#0" id="circle370"/>
	<circle cx="588.193" cy="248.021" r="4" fill="#0" id="circle371"/>
	<circle cx="591.508" cy="581.561" r="4" fill="#0" id="circle372"/>
	<circle cx="591.508" cy="925.711" r="4" fill="#0" id="circle373"/>
	<circle cx="592.171" cy="962.845" r="4" fill="#0" id="circle374"/>
	<circle cx="594.16" cy="251.337" r="4" fill="#0" id="circle375"/>
	<circle cx="597.476" cy="921.07" r="4" fill="#0" id="circle376"/>
	<circle cx="598.139" cy="578.246" r="4" fill="#0" id="circle377"/>
	<circle cx="598.139" cy="959.529" r="4" fill="#0" id="circle378"/>
	<circle cx="600.791" cy="253.989" r="4" fill="#0" id="circle379"/>
	<circle cx="603.444" cy="573.604" r="4" fill="#0" id="circle380"/>
	<circle cx="603.444" cy="954.888" r="4" fill="#0" id="circle381"/>
	<circle cx="604.107" cy="919.08" r="4" fill="#0" id="circle382"/>
	<circle cx="604.77" cy="259.294" r="4" fill="#0" id="circle383"/>
	<circle cx="608.086" cy="949.583" r="4" fill="#0" id="circle384"/>
	<circle cx="610.075" cy="570.289" r="4" fill="#0" id="circle385"/>
	<circle cx="610.738" cy="262.61" r="4" fill="#0" id="circle386"/>
	<circle cx="610.738" cy="919.08" r="4" fill="#0" id="circle387"/>
	<circle cx="611.401" cy="942.952" r="4" fill="#0" id="circle388"/>
	<circle cx="614.717" cy="564.984" r="4" fill="#0" id="circle389"/>
	<circle cx="614.717" cy="936.321" r="4" fill="#0" id="circle390"/>
	<circle cx="616.043" cy="923.059" r="4" fill="#0" id="circle391"/>
	<circle cx="616.706" cy="265.925" r="4" fill="#0" id="circle392"/>
	<circle cx="618.032" cy="929.69" r="4" fill="#0" id="circle393"/>
	<circle cx="620.684" cy="561.668" r="4" fill="#0" id="circle394"/>
	<circle cx="622.674" cy="269.241" r="4" fill="#0" id="circle395"/>
	<circle cx="624.663" cy="555.037" r="4" fill="#0" id="circle396"/>
	<circle cx="628.642" cy="272.556" r="4" fill="#0" id="circle397"/>
	<circle cx="631.294" cy="548.406" r="4" fill="#0" id="circle398"/>
	<circle cx="634.61" cy="275.872" r="4" fill="#0" id="circle399"/>
	<circle cx="636.599" cy="543.765" r="4" fill="#0" id="circle400"/>
	<circle cx="639.914" cy="279.85" r="4" fill="#0" id="circle401"/>
	<circle cx="641.241" cy="538.46" r="4" fill="#0" id="circle402"/>
	<circle cx="645.882" cy="283.166" r="4" fill="#0" id="circle403"/>
	<circle cx="647.872" cy="535.144" r="4" fill="#0" id="circle404"/>
	<circle cx="652.513" cy="285.818" r="4" fill="#0" id="circle405"/>
	<circle cx="653.176" cy="530.503" r="4" fill="#0" id="circle406"/>
	<circle cx="657.155" cy="291.123" r="4" fill="#0" id="circle407"/>
	<circle cx="657.818" cy="525.198" r="4" fill="#0" id="circle408"/>
	<circle cx="663.123" cy="520.556" r="4" fill="#0" id="circle409"/>
	<circle cx="663.786" cy="293.775" r="4" fill="#0" id="circle410"/>
	<circle cx="667.765" cy="299.08" r="4" fill="#0" id="circle411"/>
	<circle cx="667.765" cy="515.251" r="4" fill="#0" id="circle412"/>
	<circle cx="673.07" cy="510.61" r="4" fill="#0" id="circle413"/>
	<circle cx="674.396" cy="301.07" r="4" fill="#0" id="circle414"/>
	<circle cx="679.701" cy="305.711" r="4" fill="#0" id="circle415"/>
	<circle cx="679.701" cy="507.294" r="4" fill="#0" id="circle416"/>
	<circle cx="684.342" cy="501.989" r="4" fill="#0" id="circle417"/>
	<circle cx="685.668" cy="309.027" r="4" fill="#0" id="circle418"/>
	<circle cx="689.647" cy="497.348" r="4" fill="#0" id="circle419"/>
	<circle cx="691.636" cy="312.342" r="4" fill="#0" id="circle420"/>
	<circle cx="694.289" cy="492.043" r="4" fill="#0" id="circle421"/>
	<circle cx="696.941" cy="316.984" r="4" fill="#0" id="circle422"/>
	<circle cx="700.92" cy="322.289" r="4" fill="#0" id="circle423"/>
	<circle cx="700.92" cy="485.412" r="4" fill="#0" id="circle424"/>
	<circle cx="706.888" cy="482.096" r="4" fill="#0" id="circle425"/>
	<circle cx="707.551" cy="324.278" r="4" fill="#0" id="circle426"/>
	<circle cx="710.866" cy="475.465" r="4" fill="#0" id="circle427"/>
	<circle cx="712.193" cy="329.583" r="4" fill="#0" id="circle428"/>
	<circle cx="716.834" cy="472.15" r="4" fill="#0" id="circle429"/>
	<circle cx="718.824" cy="332.235" r="4" fill="#0" id="circle430"/>
	<circle cx="720.813" cy="338.866" r="4" fill="#0" id="circle431"/>
	<circle cx="722.139" cy="468.171" r="4" fill="#0" id="circle432"/>
	<circle cx="727.444" cy="340.856" r="4" fill="#0" id="circle433"/>
	<circle cx="727.444" cy="462.203" r="4" fill="#0" id="circle434"/>
	<circle cx="730.759" cy="455.572" r="4" fill="#0" id="circle435"/>
	<circle cx="732.086" cy="346.16" r="4" fill="#0" id="circle436"/>
	<circle cx="734.075" cy="448.941" r="4" fill="#0" id="circle437"/>
	<circle cx="737.39" cy="350.802" r="4" fill="#0" id="circle438"/>
	<circle cx="737.39" cy="438.995" r="4" fill="#0" id="circle439"/>
	<circle cx="740.706" cy="432.364" r="4" fill="#0" id="circle440"/>
	<circle cx="742.032" cy="356.107" r="4" fill="#0" id="circle441"/>
	<circle cx="744.021" cy="419.102" r="4" fill="#0" id="circle442"/>
	<circle cx="744.021" cy="425.733" r="4" fill="#0" id="circle443"/>
	<circle cx="745.348" cy="362.075" r="4" fill="#0" id="circle444"/>
	<circle cx="749.326" cy="414.46" r="4" fill="#0" id="circle445"/>
	<circle cx="749.989" cy="367.38" r="4" fill="#0" id="circle446"/>
	<circle cx="750.652" cy="395.893" r="4" fill="#0" id="circle447"/>
	<circle cx="750.652" cy="402.524" r="4" fill="#0" id="circle448"/>
	<circle cx="753.968" cy="372.684" r="4" fill="#0" id="circle449"/>
	<circle cx="753.968" cy="379.316" r="4" fill="#0" id="circle450"/>
	<circle cx="753.968" cy="385.947" r="4" fill="#0" id="circle451"/>
	</g>
</svg>