<?xml version="1.0" encoding="UTF-8" standalone="no"?>
<!-- Created with CurveBenchmark -->
<svg
	xmlns:dc="http://purl.org/dc/elements/1.1/"
	xmlns:cc="http://creativecommons.org/ns#"
	xmlns:rdf="http://www.w3.org/1999/02/22-rdf-syntax-ns#"
	xmlns:svg="http://www.w3.org/2000/svg"
	xmlns="http://www.w3.org/2000/svg"
	xmlns:sodipodi="http://sodipodi.sourceforge.net/DTD/sodipodi-0.dtd"
	xmlns:inkscape="http://www.inkscape.org/namespaces/inkscape"
	width="1000"
	height="1000"
	id="svg2"
	version="1.1"
	sodipodi:docname="manifold/discur-sink020.png.txt">
<defs
	id="defs4" />
<metadata
	id="metadata7">
	<rdf:RDF>
		<cc:Work
			rdf:about="">
			<dc:format>image/svg+xml</dc:format>
			<dc:type
				rdf:resource="http://purl.org/dc/dcmitype/StillImage" />
			<dc:title></dc:title>
		</cc:Work>
	</rdf:RDF>
</metadata>
<g
	inkscape:label="Layer 1"
	inkscape:groupmode="layer"
	id="layer1">
	<path style="fill:none;stroke:red;stroke-width:1px;stroke-linecap:butt;stroke-linejoin:miter;stroke-opacity:1" d="M 4,178.205 4,226.595 z" id="boundary" inkscape:connector-curvature="0" />
	<path style="fill:none;stroke:red;stroke-width:1px;stroke-linecap:butt;stroke-linejoin:miter;stroke-opacity:1" d="M 4,178.205 52.3902,168.527 z" id="boundary" inkscape:connector-curvature="0" />
	<path style="fill:none;stroke:red;stroke-width:1px;stroke-linecap:butt;stroke-linejoin:miter;stroke-opacity:1" d="M 4,226.595 4,274.985 z" id="boundary" inkscape:connector-curvature="0" />
	<path style="fill:none;stroke:red;stroke-width:1px;stroke-linecap:butt;stroke-linejoin:miter;stroke-opacity:1" d="M 4,274.985 28.1951,318.537 z" id="boundary" inkscape:connector-curvature="0" />
	<path style="fill:none;stroke:red;stroke-width:1px;stroke-linecap:butt;stroke-linejoin:miter;stroke-opacity:1" d="M 28.1951,318.537 76.5854,318.537 z" id="boundary" inkscape:connector-curvature="0" />
	<path style="fill:none;stroke:red;stroke-width:1px;stroke-linecap:butt;stroke-linejoin:miter;stroke-opacity:1" d="M 52.3902,168.527 100.78,168.527 z" id="boundary" inkscape:connector-curvature="0" />
	<path style="fill:none;stroke:red;stroke-width:1px;stroke-linecap:butt;stroke-linejoin:miter;stroke-opacity:1" d="M 76.5854,318.537 124.976,318.537 z" id="boundary" inkscape:connector-curvature="0" />
	<path style="fill:none;stroke:red;stroke-width:1px;stroke-linecap:butt;stroke-linejoin:miter;stroke-opacity:1" d="M 100.78,168.527 149.171,168.527 z" id="boundary" inkscape:connector-curvature="0" />
	<path style="fill:none;stroke:red;stroke-width:1px;stroke-linecap:butt;stroke-linejoin:miter;stroke-opacity:1" d="M 110.459,71.7463 110.459,120.137 z" id="boundary" inkscape:connector-curvature="0" />
	<path style="fill:none;stroke:red;stroke-width:1px;stroke-linecap:butt;stroke-linejoin:miter;stroke-opacity:1" d="M 110.459,71.7463 139.493,33.0341 z" id="boundary" inkscape:connector-curvature="0" />
	<path style="fill:none;stroke:red;stroke-width:1px;stroke-linecap:butt;stroke-linejoin:miter;stroke-opacity:1" d="M 124.976,318.537 149.171,362.088 z" id="boundary" inkscape:connector-curvature="0" />
	<path style="fill:none;stroke:red;stroke-width:1px;stroke-linecap:butt;stroke-linejoin:miter;stroke-opacity:1" d="M 139.493,33.0341 178.205,4 z" id="boundary" inkscape:connector-curvature="0" />
	<path style="fill:none;stroke:red;stroke-width:1px;stroke-linecap:butt;stroke-linejoin:miter;stroke-opacity:1" d="M 149.171,168.527 197.561,168.527 z" id="boundary" inkscape:connector-curvature="0" />
	<path style="fill:none;stroke:red;stroke-width:1px;stroke-linecap:butt;stroke-linejoin:miter;stroke-opacity:1" d="M 149.171,362.088 163.688,410.478 z" id="boundary" inkscape:connector-curvature="0" />
	<path style="fill:none;stroke:red;stroke-width:1px;stroke-linecap:butt;stroke-linejoin:miter;stroke-opacity:1" d="M 163.688,410.478 202.4,444.351 z" id="boundary" inkscape:connector-curvature="0" />
	<path style="fill:none;stroke:red;stroke-width:1px;stroke-linecap:butt;stroke-linejoin:miter;stroke-opacity:1" d="M 178.205,4 216.917,37.8732 z" id="boundary" inkscape:connector-curvature="0" />
	<path style="fill:none;stroke:red;stroke-width:1px;stroke-linecap:butt;stroke-linejoin:miter;stroke-opacity:1" d="M 197.561,168.527 245.951,168.527 z" id="boundary" inkscape:connector-curvature="0" />
	<path style="fill:none;stroke:red;stroke-width:1px;stroke-linecap:butt;stroke-linejoin:miter;stroke-opacity:1" d="M 202.4,444.351 250.79,454.029 z" id="boundary" inkscape:connector-curvature="0" />
	<path style="fill:none;stroke:red;stroke-width:1px;stroke-linecap:butt;stroke-linejoin:miter;stroke-opacity:1" d="M 216.917,37.8732 255.629,66.9073 z" id="boundary" inkscape:connector-curvature="0" />
	<path style="fill:none;stroke:red;stroke-width:1px;stroke-linecap:butt;stroke-linejoin:miter;stroke-opacity:1" d="M 245.951,168.527 294.341,168.527 z" id="boundary" inkscape:connector-curvature="0" />
	<path style="fill:none;stroke:red;stroke-width:1px;stroke-linecap:butt;stroke-linejoin:miter;stroke-opacity:1" d="M 245.951,952.449 270.146,996 z" id="boundary" inkscape:connector-curvature="0" />
	<path style="fill:none;stroke:red;stroke-width:1px;stroke-linecap:butt;stroke-linejoin:miter;stroke-opacity:1" d="M 245.951,952.449 274.985,904.059 z" id="boundary" inkscape:connector-curvature="0" />
	<path style="fill:none;stroke:red;stroke-width:1px;stroke-linecap:butt;stroke-linejoin:miter;stroke-opacity:1" d="M 250.79,454.029 294.341,478.224 z" id="boundary" inkscape:connector-curvature="0" />
	<path style="fill:none;stroke:red;stroke-width:1px;stroke-linecap:butt;stroke-linejoin:miter;stroke-opacity:1" d="M 270.146,996 318.537,996 z" id="boundary" inkscape:connector-curvature="0" />
	<path style="fill:none;stroke:red;stroke-width:1px;stroke-linecap:butt;stroke-linejoin:miter;stroke-opacity:1" d="M 274.985,904.059 294.341,816.956 z" id="boundary" inkscape:connector-curvature="0" />
	<path style="fill:none;stroke:red;stroke-width:1px;stroke-linecap:butt;stroke-linejoin:miter;stroke-opacity:1" d="M 294.341,168.527 318.537,212.078 z" id="boundary" inkscape:connector-curvature="0" />
	<path style="fill:none;stroke:red;stroke-width:1px;stroke-linecap:butt;stroke-linejoin:miter;stroke-opacity:1" d="M 294.341,478.224 294.341,526.615 z" id="boundary" inkscape:connector-curvature="0" />
	<path style="fill:none;stroke:red;stroke-width:1px;stroke-linecap:butt;stroke-linejoin:miter;stroke-opacity:1" d="M 294.341,526.615 294.341,575.005 z" id="boundary" inkscape:connector-curvature="0" />
	<path style="fill:none;stroke:red;stroke-width:1px;stroke-linecap:butt;stroke-linejoin:miter;stroke-opacity:1" d="M 294.341,575.005 294.341,623.395 z" id="boundary" inkscape:connector-curvature="0" />
	<path style="fill:none;stroke:red;stroke-width:1px;stroke-linecap:butt;stroke-linejoin:miter;stroke-opacity:1" d="M 294.341,623.395 294.341,671.785 z" id="boundary" inkscape:connector-curvature="0" />
	<path style="fill:none;stroke:red;stroke-width:1px;stroke-linecap:butt;stroke-linejoin:miter;stroke-opacity:1" d="M 294.341,671.785 294.341,720.176 z" id="boundary" inkscape:connector-curvature="0" />
	<path style="fill:none;stroke:red;stroke-width:1px;stroke-linecap:butt;stroke-linejoin:miter;stroke-opacity:1" d="M 294.341,720.176 294.341,768.566 z" id="boundary" inkscape:connector-curvature="0" />
	<path style="fill:none;stroke:red;stroke-width:1px;stroke-linecap:butt;stroke-linejoin:miter;stroke-opacity:1" d="M 294.341,768.566 294.341,816.956 z" id="boundary" inkscape:connector-curvature="0" />
	<path style="fill:none;stroke:red;stroke-width:1px;stroke-linecap:butt;stroke-linejoin:miter;stroke-opacity:1" d="M 318.537,212.078 347.571,250.79 z" id="boundary" inkscape:connector-curvature="0" />
	<path style="fill:none;stroke:red;stroke-width:1px;stroke-linecap:butt;stroke-linejoin:miter;stroke-opacity:1" d="M 318.537,996 366.927,996 z" id="boundary" inkscape:connector-curvature="0" />
	<path style="fill:none;stroke:red;stroke-width:1px;stroke-linecap:butt;stroke-linejoin:miter;stroke-opacity:1" d="M 347.571,250.79 395.961,265.307 z" id="boundary" inkscape:connector-curvature="0" />
	<path style="fill:none;stroke:red;stroke-width:1px;stroke-linecap:butt;stroke-linejoin:miter;stroke-opacity:1" d="M 366.927,996 415.317,996 z" id="boundary" inkscape:connector-curvature="0" />
	<path style="fill:none;stroke:red;stroke-width:1px;stroke-linecap:butt;stroke-linejoin:miter;stroke-opacity:1" d="M 395.961,265.307 444.351,265.307 z" id="boundary" inkscape:connector-curvature="0" />
	<path style="fill:none;stroke:red;stroke-width:1px;stroke-linecap:butt;stroke-linejoin:miter;stroke-opacity:1" d="M 415.317,996 463.707,996 z" id="boundary" inkscape:connector-curvature="0" />
	<path style="fill:none;stroke:red;stroke-width:1px;stroke-linecap:butt;stroke-linejoin:miter;stroke-opacity:1" d="M 444.351,265.307 492.741,265.307 z" id="boundary" inkscape:connector-curvature="0" />
	<path style="fill:none;stroke:red;stroke-width:1px;stroke-linecap:butt;stroke-linejoin:miter;stroke-opacity:1" d="M 463.707,996 512.098,996 z" id="boundary" inkscape:connector-curvature="0" />
	<path style="fill:none;stroke:red;stroke-width:1px;stroke-linecap:butt;stroke-linejoin:miter;stroke-opacity:1" d="M 473.385,410.478 473.385,458.868 z" id="boundary" inkscape:connector-curvature="0" />
	<path style="fill:none;stroke:red;stroke-width:1px;stroke-linecap:butt;stroke-linejoin:miter;stroke-opacity:1" d="M 473.385,410.478 492.741,362.088 z" id="boundary" inkscape:connector-curvature="0" />
	<path style="fill:none;stroke:red;stroke-width:1px;stroke-linecap:butt;stroke-linejoin:miter;stroke-opacity:1" d="M 473.385,458.868 473.385,507.259 z" id="boundary" inkscape:connector-curvature="0" />
	<path style="fill:none;stroke:red;stroke-width:1px;stroke-linecap:butt;stroke-linejoin:miter;stroke-opacity:1" d="M 473.385,507.259 473.385,555.649 z" id="boundary" inkscape:connector-curvature="0" />
	<path style="fill:none;stroke:red;stroke-width:1px;stroke-linecap:butt;stroke-linejoin:miter;stroke-opacity:1" d="M 473.385,555.649 473.385,604.039 z" id="boundary" inkscape:connector-curvature="0" />
	<path style="fill:none;stroke:red;stroke-width:1px;stroke-linecap:butt;stroke-linejoin:miter;stroke-opacity:1" d="M 473.385,604.039 473.385,652.429 z" id="boundary" inkscape:connector-curvature="0" />
	<path style="fill:none;stroke:red;stroke-width:1px;stroke-linecap:butt;stroke-linejoin:miter;stroke-opacity:1" d="M 473.385,652.429 473.385,700.82 z" id="boundary" inkscape:connector-curvature="0" />
	<path style="fill:none;stroke:red;stroke-width:1px;stroke-linecap:butt;stroke-linejoin:miter;stroke-opacity:1" d="M 473.385,700.82 473.385,749.21 z" id="boundary" inkscape:connector-curvature="0" />
	<path style="fill:none;stroke:red;stroke-width:1px;stroke-linecap:butt;stroke-linejoin:miter;stroke-opacity:1" d="M 473.385,749.21 473.385,797.6 z" id="boundary" inkscape:connector-curvature="0" />
	<path style="fill:none;stroke:red;stroke-width:1px;stroke-linecap:butt;stroke-linejoin:miter;stroke-opacity:1" d="M 473.385,797.6 473.385,845.99 z" id="boundary" inkscape:connector-curvature="0" />
	<path style="fill:none;stroke:red;stroke-width:1px;stroke-linecap:butt;stroke-linejoin:miter;stroke-opacity:1" d="M 473.385,845.99 487.902,894.38 z" id="boundary" inkscape:connector-curvature="0" />
	<path style="fill:none;stroke:red;stroke-width:1px;stroke-linecap:butt;stroke-linejoin:miter;stroke-opacity:1" d="M 487.902,894.38 512.098,937.932 z" id="boundary" inkscape:connector-curvature="0" />
	<path style="fill:none;stroke:red;stroke-width:1px;stroke-linecap:butt;stroke-linejoin:miter;stroke-opacity:1" d="M 492.741,265.307 541.132,265.307 z" id="boundary" inkscape:connector-curvature="0" />
	<path style="fill:none;stroke:red;stroke-width:1px;stroke-linecap:butt;stroke-linejoin:miter;stroke-opacity:1" d="M 492.741,362.088 516.937,318.537 z" id="boundary" inkscape:connector-curvature="0" />
	<path style="fill:none;stroke:red;stroke-width:1px;stroke-linecap:butt;stroke-linejoin:miter;stroke-opacity:1" d="M 512.098,937.932 512.098,996 z" id="boundary" inkscape:connector-curvature="0" />
	<path style="fill:none;stroke:red;stroke-width:1px;stroke-linecap:butt;stroke-linejoin:miter;stroke-opacity:1" d="M 516.937,318.537 565.327,318.537 z" id="boundary" inkscape:connector-curvature="0" />
	<path style="fill:none;stroke:red;stroke-width:1px;stroke-linecap:butt;stroke-linejoin:miter;stroke-opacity:1" d="M 541.132,265.307 589.522,274.985 z" id="boundary" inkscape:connector-curvature="0" />
	<path style="fill:none;stroke:red;stroke-width:1px;stroke-linecap:butt;stroke-linejoin:miter;stroke-opacity:1" d="M 565.327,318.537 589.522,274.985 z" id="boundary" inkscape:connector-curvature="0" />
	<circle cx="4" cy="178.205" r="4" fill="#0" id="circle0"/>
	<circle cx="4" cy="226.595" r="4" fill="#0" id="circle1"/>
	<circle cx="4" cy="274.985" r="4" fill="#0" id="circle2"/>
	<circle cx="28.1951" cy="318.537" r="4" fill="#0" id="circle3"/>
	<circle cx="52.3902" cy="168.527" r="4" fill="#0" id="circle4"/>
	<circle cx="76.5854" cy="318.537" r="4" fill="#0" id="circle5"/>
	<circle cx="100.78" cy="168.527" r="4" fill="#0" id="circle6"/>
	<circle cx="110.459" cy="71.7463" r="4" fill="#0" id="circle7"/>
	<circle cx="110.459" cy="120.137" r="4" fill="#0" id="circle8"/>
	<circle cx="124.976" cy="318.537" r="4" fill="#0" id="circle9"/>
	<circle cx="139.493" cy="33.0341" r="4" fill="#0" id="circle10"/>
	<circle cx="149.171" cy="168.527" r="4" fill="#0" id="circle11"/>
	<circle cx="149.171" cy="362.088" r="4" fill="#0" id="circle12"/>
	<circle cx="163.688" cy="410.478" r="4" fill="#0" id="circle13"/>
	<circle cx="178.205" cy="4" r="4" fill="#0" id="circle14"/>
	<circle cx="197.561" cy="168.527" r="4" fill="#0" id="circle15"/>
	<circle cx="202.4" cy="444.351" r="4" fill="#0" id="circle16"/>
	<circle cx="216.917" cy="37.8732" r="4" fill="#0" id="circle17"/>
	<circle cx="245.951" cy="168.527" r="4" fill="#0" id="circle18"/>
	<circle cx="245.951" cy="952.449" r="4" fill="#0" id="circle19"/>
	<circle cx="250.79" cy="454.029" r="4" fill="#0" id="circle20"/>
	<circle cx="255.629" cy="66.9073" r="4" fill="#0" id="circle21"/>
	<circle cx="270.146" cy="996" r="4" fill="#0" id="circle22"/>
	<circle cx="274.985" cy="904.059" r="4" fill="#0" id="circle23"/>
	<circle cx="294.341" cy="168.527" r="4" fill="#0" id="circle24"/>
	<circle cx="294.341" cy="478.224" r="4" fill="#0" id="circle25"/>
	<circle cx="294.341" cy="526.615" r="4" fill="#0" id="circle26"/>
	<circle cx="294.341" cy="575.005" r="4" fill="#0" id="circle27"/>
	<circle cx="294.341" cy="623.395" r="4" fill="#0" id="circle28"/>
	<circle cx="294.341" cy="671.785" r="4" fill="#0" id="circle29"/>
	<circle cx="294.341" cy="720.176" r="4" fill="#0" id="circle30"/>
	<circle cx="294.341" cy="768.566" r="4" fill="#0" id="circle31"/>
	<circle cx="294.341" cy="816.956" r="4" fill="#0" id="circle32"/>
	<circle cx="318.537" cy="212.078" r="4" fill="#0" id="circle33"/>
	<circle cx="318.537" cy="996" r="4" fill="#0" id="circle34"/>
	<circle cx="347.571" cy="250.79" r="4" fill="#0" id="circle35"/>
	<circle cx="366.927" cy="996" r="4" fill="#0" id="circle36"/>
	<circle cx="395.961" cy="265.307" r="4" fill="#0" id="circle37"/>
	<circle cx="415.317" cy="996" r="4" fill="#0" id="circle38"/>
	<circle cx="444.351" cy="265.307" r="4" fill="#0" id="circle39"/>
	<circle cx="463.707" cy="996" r="4" fill="#0" id="circle40"/>
	<circle cx="473.385" cy="410.478" r="4" fill="#0" id="circle41"/>
	<circle cx="473.385" cy="458.868" r="4" fill="#0" id="circle42"/>
	<circle cx="473.385" cy="507.259" r="4" fill="#0" id="circle43"/>
	<circle cx="473.385" cy="555.649" r="4" fill="#0" id="circle44"/>
	<circle cx="473.385" cy="604.039" r="4" fill="#0" id="circle45"/>
	<circle cx="473.385" cy="652.429" r="4" fill="#0" id="circle46"/>
	<circle cx="473.385" cy="700.82" r="4" fill="#0" id="circle47"/>
	<circle cx="473.385" cy="749.21" r="4" fill="#0" id="circle48"/>
	<circle cx="473.385" cy="797.6" r="4" fill="#0" id="circle49"/>
	<circle cx="473.385" cy="845.99" r="4" fill="#0" id="circle50"/>
	<circle cx="487.902" cy="894.38" r="4" fill="#0" id="circle51"/>
	<circle cx="492.741" cy="265.307" r="4" fill="#0" id="circle52"/>
	<circle cx="492.741" cy="362.088" r="4" fill="#0" id="circle53"/>
	<circle cx="512.098" cy="937.932" r="4" fill="#0" id="circle54"/>
	<circle cx="512.098" cy="996" r="4" fill="#0" id="circle55"/>
	<circle cx="516.937" cy="318.537" r="4" fill="#0" id="circle56"/>
	<circle cx="541.132" cy="265.307" r="4" fill="#0" id="circle57"/>
	<circle cx="565.327" cy="318.537" r="4" fill="#0" id="circle58"/>
	<circle cx="589.522" cy="274.985" r="4" fill="#0" id="circle59"/>
	</g>
</svg>