<?xml version="1.0" encoding="UTF-8" standalone="no"?>
<!-- Created with CurveBenchmark -->
<svg
	xmlns:dc="http://purl.org/dc/elements/1.1/"
	xmlns:cc="http://creativecommons.org/ns#"
	xmlns:rdf="http://www.w3.org/1999/02/22-rdf-syntax-ns#"
	xmlns:svg="http://www.w3.org/2000/svg"
	xmlns="http://www.w3.org/2000/svg"
	xmlns:sodipodi="http://sodipodi.sourceforge.net/DTD/sodipodi-0.dtd"
	xmlns:inkscape="http://www.inkscape.org/namespaces/inkscape"
	width="1000"
	height="1000"
	id="svg2"
	version="1.1"
	sodipodi:docname="manifold/discur-marshrabbitocc4.png.txt">
<defs
	id="defs4" />
<metadata
	id="metadata7">
	<rdf:RDF>
		<cc:Work
			rdf:about="">
			<dc:format>image/svg+xml</dc:format>
			<dc:type
				rdf:resource="http://purl.org/dc/dcmitype/StillImage" />
			<dc:title></dc:title>
		</cc:Work>
	</rdf:RDF>
</metadata>
<g
	inkscape:label="Layer 1"
	inkscape:groupmode="layer"
	id="layer1">
	<path style="fill:none;stroke:red;stroke-width:1px;stroke-linecap:butt;stroke-linejoin:miter;stroke-opacity:1" d="M 4,293.333 4,310.556 z" id="boundary" inkscape:connector-curvature="0" />
	<path style="fill:none;stroke:red;stroke-width:1px;stroke-linecap:butt;stroke-linejoin:miter;stroke-opacity:1" d="M 4,293.333 12.6111,276.111 z" id="boundary" inkscape:connector-curvature="0" />
	<path style="fill:none;stroke:red;stroke-width:1px;stroke-linecap:butt;stroke-linejoin:miter;stroke-opacity:1" d="M 4,310.556 4,327.778 z" id="boundary" inkscape:connector-curvature="0" />
	<path style="fill:none;stroke:red;stroke-width:1px;stroke-linecap:butt;stroke-linejoin:miter;stroke-opacity:1" d="M 4,327.778 4,345 z" id="boundary" inkscape:connector-curvature="0" />
	<path style="fill:none;stroke:red;stroke-width:1px;stroke-linecap:butt;stroke-linejoin:miter;stroke-opacity:1" d="M 4,345 14.3333,358.778 z" id="boundary" inkscape:connector-curvature="0" />
	<path style="fill:none;stroke:red;stroke-width:1px;stroke-linecap:butt;stroke-linejoin:miter;stroke-opacity:1" d="M 12.6111,241.667 12.6111,258.889 z" id="boundary" inkscape:connector-curvature="0" />
	<path style="fill:none;stroke:red;stroke-width:1px;stroke-linecap:butt;stroke-linejoin:miter;stroke-opacity:1" d="M 12.6111,241.667 29.8333,236.5 z" id="boundary" inkscape:connector-curvature="0" />
	<path style="fill:none;stroke:red;stroke-width:1px;stroke-linecap:butt;stroke-linejoin:miter;stroke-opacity:1" d="M 12.6111,258.889 12.6111,276.111 z" id="boundary" inkscape:connector-curvature="0" />
	<path style="fill:none;stroke:red;stroke-width:1px;stroke-linecap:butt;stroke-linejoin:miter;stroke-opacity:1" d="M 14.3333,358.778 31.5556,358.778 z" id="boundary" inkscape:connector-curvature="0" />
	<path style="fill:none;stroke:red;stroke-width:1px;stroke-linecap:butt;stroke-linejoin:miter;stroke-opacity:1" d="M 29.8333,236.5 47.0556,236.5 z" id="boundary" inkscape:connector-curvature="0" />
	<path style="fill:none;stroke:red;stroke-width:1px;stroke-linecap:butt;stroke-linejoin:miter;stroke-opacity:1" d="M 31.5556,358.778 48.7778,358.778 z" id="boundary" inkscape:connector-curvature="0" />
	<path style="fill:none;stroke:red;stroke-width:1px;stroke-linecap:butt;stroke-linejoin:miter;stroke-opacity:1" d="M 47.0556,236.5 64.2778,236.5 z" id="boundary" inkscape:connector-curvature="0" />
	<path style="fill:none;stroke:red;stroke-width:1px;stroke-linecap:butt;stroke-linejoin:miter;stroke-opacity:1" d="M 48.7778,358.778 66,358.778 z" id="boundary" inkscape:connector-curvature="0" />
	<path style="fill:none;stroke:red;stroke-width:1px;stroke-linecap:butt;stroke-linejoin:miter;stroke-opacity:1" d="M 64.2778,236.5 81.5,236.5 z" id="boundary" inkscape:connector-curvature="0" />
	<path style="fill:none;stroke:red;stroke-width:1px;stroke-linecap:butt;stroke-linejoin:miter;stroke-opacity:1" d="M 66,358.778 83.2222,358.778 z" id="boundary" inkscape:connector-curvature="0" />
	<path style="fill:none;stroke:red;stroke-width:1px;stroke-linecap:butt;stroke-linejoin:miter;stroke-opacity:1" d="M 81.5,236.5 98.7222,233.056 z" id="boundary" inkscape:connector-curvature="0" />
	<path style="fill:none;stroke:red;stroke-width:1px;stroke-linecap:butt;stroke-linejoin:miter;stroke-opacity:1" d="M 83.2222,358.778 100.444,358.778 z" id="boundary" inkscape:connector-curvature="0" />
	<path style="fill:none;stroke:red;stroke-width:1px;stroke-linecap:butt;stroke-linejoin:miter;stroke-opacity:1" d="M 98.7222,233.056 112.5,219.278 z" id="boundary" inkscape:connector-curvature="0" />
	<path style="fill:none;stroke:red;stroke-width:1px;stroke-linecap:butt;stroke-linejoin:miter;stroke-opacity:1" d="M 100.444,358.778 117.667,362.222 z" id="boundary" inkscape:connector-curvature="0" />
	<path style="fill:none;stroke:red;stroke-width:1px;stroke-linecap:butt;stroke-linejoin:miter;stroke-opacity:1" d="M 112.5,219.278 121.111,202.056 z" id="boundary" inkscape:connector-curvature="0" />
	<path style="fill:none;stroke:red;stroke-width:1px;stroke-linecap:butt;stroke-linejoin:miter;stroke-opacity:1" d="M 117.667,362.222 134.889,367.389 z" id="boundary" inkscape:connector-curvature="0" />
	<path style="fill:none;stroke:red;stroke-width:1px;stroke-linecap:butt;stroke-linejoin:miter;stroke-opacity:1" d="M 121.111,202.056 138.333,193.444 z" id="boundary" inkscape:connector-curvature="0" />
	<path style="fill:none;stroke:red;stroke-width:1px;stroke-linecap:butt;stroke-linejoin:miter;stroke-opacity:1" d="M 134.889,367.389 152.111,367.389 z" id="boundary" inkscape:connector-curvature="0" />
	<path style="fill:none;stroke:red;stroke-width:1px;stroke-linecap:butt;stroke-linejoin:miter;stroke-opacity:1" d="M 138.333,193.444 152.111,179.667 z" id="boundary" inkscape:connector-curvature="0" />
	<path style="fill:none;stroke:red;stroke-width:1px;stroke-linecap:butt;stroke-linejoin:miter;stroke-opacity:1" d="M 152.111,179.667 169.333,171.056 z" id="boundary" inkscape:connector-curvature="0" />
	<path style="fill:none;stroke:red;stroke-width:1px;stroke-linecap:butt;stroke-linejoin:miter;stroke-opacity:1" d="M 152.111,367.389 169.333,370.833 z" id="boundary" inkscape:connector-curvature="0" />
	<path style="fill:none;stroke:red;stroke-width:1px;stroke-linecap:butt;stroke-linejoin:miter;stroke-opacity:1" d="M 169.333,171.056 186.556,162.444 z" id="boundary" inkscape:connector-curvature="0" />
	<path style="fill:none;stroke:red;stroke-width:1px;stroke-linecap:butt;stroke-linejoin:miter;stroke-opacity:1" d="M 169.333,370.833 186.556,376 z" id="boundary" inkscape:connector-curvature="0" />
	<path style="fill:none;stroke:red;stroke-width:1px;stroke-linecap:butt;stroke-linejoin:miter;stroke-opacity:1" d="M 186.556,162.444 200.333,150.389 z" id="boundary" inkscape:connector-curvature="0" />
	<path style="fill:none;stroke:red;stroke-width:1px;stroke-linecap:butt;stroke-linejoin:miter;stroke-opacity:1" d="M 186.556,376 202.056,384.611 z" id="boundary" inkscape:connector-curvature="0" />
	<path style="fill:none;stroke:red;stroke-width:1px;stroke-linecap:butt;stroke-linejoin:miter;stroke-opacity:1" d="M 200.333,150.389 215.833,141.778 z" id="boundary" inkscape:connector-curvature="0" />
	<path style="fill:none;stroke:red;stroke-width:1px;stroke-linecap:butt;stroke-linejoin:miter;stroke-opacity:1" d="M 202.056,384.611 219.278,384.611 z" id="boundary" inkscape:connector-curvature="0" />
	<path style="fill:none;stroke:red;stroke-width:1px;stroke-linecap:butt;stroke-linejoin:miter;stroke-opacity:1" d="M 215.833,141.778 224.444,124.556 z" id="boundary" inkscape:connector-curvature="0" />
	<path style="fill:none;stroke:red;stroke-width:1px;stroke-linecap:butt;stroke-linejoin:miter;stroke-opacity:1" d="M 219.278,384.611 234.778,393.222 z" id="boundary" inkscape:connector-curvature="0" />
	<path style="fill:none;stroke:red;stroke-width:1px;stroke-linecap:butt;stroke-linejoin:miter;stroke-opacity:1" d="M 224.444,124.556 227.889,103.889 z" id="boundary" inkscape:connector-curvature="0" />
	<path style="fill:none;stroke:red;stroke-width:1px;stroke-linecap:butt;stroke-linejoin:miter;stroke-opacity:1" d="M 227.889,52.2222 227.889,69.4444 z" id="boundary" inkscape:connector-curvature="0" />
	<path style="fill:none;stroke:red;stroke-width:1px;stroke-linecap:butt;stroke-linejoin:miter;stroke-opacity:1" d="M 227.889,52.2222 236.5,35 z" id="boundary" inkscape:connector-curvature="0" />
	<path style="fill:none;stroke:red;stroke-width:1px;stroke-linecap:butt;stroke-linejoin:miter;stroke-opacity:1" d="M 227.889,69.4444 227.889,86.6667 z" id="boundary" inkscape:connector-curvature="0" />
	<path style="fill:none;stroke:red;stroke-width:1px;stroke-linecap:butt;stroke-linejoin:miter;stroke-opacity:1" d="M 227.889,86.6667 227.889,103.889 z" id="boundary" inkscape:connector-curvature="0" />
	<path style="fill:none;stroke:red;stroke-width:1px;stroke-linecap:butt;stroke-linejoin:miter;stroke-opacity:1" d="M 227.889,525.833 236.5,541.333 z" id="boundary" inkscape:connector-curvature="0" />
	<path style="fill:none;stroke:red;stroke-width:1px;stroke-linecap:butt;stroke-linejoin:miter;stroke-opacity:1" d="M 227.889,525.833 241.667,512.056 z" id="boundary" inkscape:connector-curvature="0" />
	<path style="fill:none;stroke:red;stroke-width:1px;stroke-linecap:butt;stroke-linejoin:miter;stroke-opacity:1" d="M 234.778,393.222 241.667,410.444 z" id="boundary" inkscape:connector-curvature="0" />
	<path style="fill:none;stroke:red;stroke-width:1px;stroke-linecap:butt;stroke-linejoin:miter;stroke-opacity:1" d="M 236.5,35 245.111,17.7778 z" id="boundary" inkscape:connector-curvature="0" />
	<path style="fill:none;stroke:red;stroke-width:1px;stroke-linecap:butt;stroke-linejoin:miter;stroke-opacity:1" d="M 236.5,541.333 253.722,548.222 z" id="boundary" inkscape:connector-curvature="0" />
	<path style="fill:none;stroke:red;stroke-width:1px;stroke-linecap:butt;stroke-linejoin:miter;stroke-opacity:1" d="M 241.667,410.444 255.444,422.5 z" id="boundary" inkscape:connector-curvature="0" />
	<path style="fill:none;stroke:red;stroke-width:1px;stroke-linecap:butt;stroke-linejoin:miter;stroke-opacity:1" d="M 241.667,512.056 258.889,512.056 z" id="boundary" inkscape:connector-curvature="0" />
	<path style="fill:none;stroke:red;stroke-width:1px;stroke-linecap:butt;stroke-linejoin:miter;stroke-opacity:1" d="M 245.111,17.7778 262.333,12.6111 z" id="boundary" inkscape:connector-curvature="0" />
	<path style="fill:none;stroke:red;stroke-width:1px;stroke-linecap:butt;stroke-linejoin:miter;stroke-opacity:1" d="M 253.722,548.222 270.944,548.222 z" id="boundary" inkscape:connector-curvature="0" />
	<path style="fill:none;stroke:red;stroke-width:1px;stroke-linecap:butt;stroke-linejoin:miter;stroke-opacity:1" d="M 255.444,422.5 267.5,436.278 z" id="boundary" inkscape:connector-curvature="0" />
	<path style="fill:none;stroke:red;stroke-width:1px;stroke-linecap:butt;stroke-linejoin:miter;stroke-opacity:1" d="M 258.889,512.056 274.389,503.444 z" id="boundary" inkscape:connector-curvature="0" />
	<path style="fill:none;stroke:red;stroke-width:1px;stroke-linecap:butt;stroke-linejoin:miter;stroke-opacity:1" d="M 262.333,12.6111 277.833,4 z" id="boundary" inkscape:connector-curvature="0" />
	<path style="fill:none;stroke:red;stroke-width:1px;stroke-linecap:butt;stroke-linejoin:miter;stroke-opacity:1" d="M 267.5,436.278 279.556,450.056 z" id="boundary" inkscape:connector-curvature="0" />
	<path style="fill:none;stroke:red;stroke-width:1px;stroke-linecap:butt;stroke-linejoin:miter;stroke-opacity:1" d="M 270.944,548.222 286.444,539.611 z" id="boundary" inkscape:connector-curvature="0" />
	<path style="fill:none;stroke:red;stroke-width:1px;stroke-linecap:butt;stroke-linejoin:miter;stroke-opacity:1" d="M 274.389,503.444 291.611,496.556 z" id="boundary" inkscape:connector-curvature="0" />
	<path style="fill:none;stroke:red;stroke-width:1px;stroke-linecap:butt;stroke-linejoin:miter;stroke-opacity:1" d="M 277.833,4 295.056,4 z" id="boundary" inkscape:connector-curvature="0" />
	<path style="fill:none;stroke:red;stroke-width:1px;stroke-linecap:butt;stroke-linejoin:miter;stroke-opacity:1" d="M 279.556,450.056 288.167,465.556 z" id="boundary" inkscape:connector-curvature="0" />
	<path style="fill:none;stroke:red;stroke-width:1px;stroke-linecap:butt;stroke-linejoin:miter;stroke-opacity:1" d="M 286.444,539.611 303.667,539.611 z" id="boundary" inkscape:connector-curvature="0" />
	<path style="fill:none;stroke:red;stroke-width:1px;stroke-linecap:butt;stroke-linejoin:miter;stroke-opacity:1" d="M 288.167,465.556 291.611,496.556 z" id="boundary" inkscape:connector-curvature="0" />
	<path style="fill:none;stroke:red;stroke-width:1px;stroke-linecap:butt;stroke-linejoin:miter;stroke-opacity:1" d="M 295.056,4 312.278,4 z" id="boundary" inkscape:connector-curvature="0" />
	<path style="fill:none;stroke:red;stroke-width:1px;stroke-linecap:butt;stroke-linejoin:miter;stroke-opacity:1" d="M 303.667,539.611 319.167,531 z" id="boundary" inkscape:connector-curvature="0" />
	<path style="fill:none;stroke:red;stroke-width:1px;stroke-linecap:butt;stroke-linejoin:miter;stroke-opacity:1" d="M 312.278,4 329.5,4 z" id="boundary" inkscape:connector-curvature="0" />
	<path style="fill:none;stroke:red;stroke-width:1px;stroke-linecap:butt;stroke-linejoin:miter;stroke-opacity:1" d="M 319.167,531 336.389,531 z" id="boundary" inkscape:connector-curvature="0" />
	<path style="fill:none;stroke:red;stroke-width:1px;stroke-linecap:butt;stroke-linejoin:miter;stroke-opacity:1" d="M 329.5,4 341.556,17.7778 z" id="boundary" inkscape:connector-curvature="0" />
	<path style="fill:none;stroke:red;stroke-width:1px;stroke-linecap:butt;stroke-linejoin:miter;stroke-opacity:1" d="M 336.389,531 351.889,522.389 z" id="boundary" inkscape:connector-curvature="0" />
	<path style="fill:none;stroke:red;stroke-width:1px;stroke-linecap:butt;stroke-linejoin:miter;stroke-opacity:1" d="M 341.556,17.7778 350.167,33.2778 z" id="boundary" inkscape:connector-curvature="0" />
	<path style="fill:none;stroke:red;stroke-width:1px;stroke-linecap:butt;stroke-linejoin:miter;stroke-opacity:1" d="M 341.556,48.7778 345,66 z" id="boundary" inkscape:connector-curvature="0" />
	<path style="fill:none;stroke:red;stroke-width:1px;stroke-linecap:butt;stroke-linejoin:miter;stroke-opacity:1" d="M 341.556,48.7778 350.167,33.2778 z" id="boundary" inkscape:connector-curvature="0" />
	<path style="fill:none;stroke:red;stroke-width:1px;stroke-linecap:butt;stroke-linejoin:miter;stroke-opacity:1" d="M 345,66 350.167,83.2222 z" id="boundary" inkscape:connector-curvature="0" />
	<path style="fill:none;stroke:red;stroke-width:1px;stroke-linecap:butt;stroke-linejoin:miter;stroke-opacity:1" d="M 350.167,83.2222 350.167,100.444 z" id="boundary" inkscape:connector-curvature="0" />
	<path style="fill:none;stroke:red;stroke-width:1px;stroke-linecap:butt;stroke-linejoin:miter;stroke-opacity:1" d="M 350.167,100.444 350.167,117.667 z" id="boundary" inkscape:connector-curvature="0" />
	<path style="fill:none;stroke:red;stroke-width:1px;stroke-linecap:butt;stroke-linejoin:miter;stroke-opacity:1" d="M 350.167,117.667 358.778,133.167 z" id="boundary" inkscape:connector-curvature="0" />
	<path style="fill:none;stroke:red;stroke-width:1px;stroke-linecap:butt;stroke-linejoin:miter;stroke-opacity:1" d="M 351.889,522.389 369.111,522.389 z" id="boundary" inkscape:connector-curvature="0" />
	<path style="fill:none;stroke:red;stroke-width:1px;stroke-linecap:butt;stroke-linejoin:miter;stroke-opacity:1" d="M 358.778,133.167 372.556,143.5 z" id="boundary" inkscape:connector-curvature="0" />
	<path style="fill:none;stroke:red;stroke-width:1px;stroke-linecap:butt;stroke-linejoin:miter;stroke-opacity:1" d="M 369.111,522.389 386.333,522.389 z" id="boundary" inkscape:connector-curvature="0" />
	<path style="fill:none;stroke:red;stroke-width:1px;stroke-linecap:butt;stroke-linejoin:miter;stroke-opacity:1" d="M 372.556,143.5 389.778,150.389 z" id="boundary" inkscape:connector-curvature="0" />
	<path style="fill:none;stroke:red;stroke-width:1px;stroke-linecap:butt;stroke-linejoin:miter;stroke-opacity:1" d="M 386.333,522.389 403.556,522.389 z" id="boundary" inkscape:connector-curvature="0" />
	<path style="fill:none;stroke:red;stroke-width:1px;stroke-linecap:butt;stroke-linejoin:miter;stroke-opacity:1" d="M 389.778,150.389 401.833,136.611 z" id="boundary" inkscape:connector-curvature="0" />
	<path style="fill:none;stroke:red;stroke-width:1px;stroke-linecap:butt;stroke-linejoin:miter;stroke-opacity:1" d="M 401.833,136.611 419.056,128 z" id="boundary" inkscape:connector-curvature="0" />
	<path style="fill:none;stroke:red;stroke-width:1px;stroke-linecap:butt;stroke-linejoin:miter;stroke-opacity:1" d="M 403.556,522.389 419.056,513.778 z" id="boundary" inkscape:connector-curvature="0" />
	<path style="fill:none;stroke:red;stroke-width:1px;stroke-linecap:butt;stroke-linejoin:miter;stroke-opacity:1" d="M 419.056,128 432.833,115.944 z" id="boundary" inkscape:connector-curvature="0" />
	<path style="fill:none;stroke:red;stroke-width:1px;stroke-linecap:butt;stroke-linejoin:miter;stroke-opacity:1" d="M 419.056,513.778 436.278,513.778 z" id="boundary" inkscape:connector-curvature="0" />
	<path style="fill:none;stroke:red;stroke-width:1px;stroke-linecap:butt;stroke-linejoin:miter;stroke-opacity:1" d="M 432.833,115.944 448.333,107.333 z" id="boundary" inkscape:connector-curvature="0" />
	<path style="fill:none;stroke:red;stroke-width:1px;stroke-linecap:butt;stroke-linejoin:miter;stroke-opacity:1" d="M 436.278,513.778 453.5,513.778 z" id="boundary" inkscape:connector-curvature="0" />
	<path style="fill:none;stroke:red;stroke-width:1px;stroke-linecap:butt;stroke-linejoin:miter;stroke-opacity:1" d="M 448.333,107.333 465.556,107.333 z" id="boundary" inkscape:connector-curvature="0" />
	<path style="fill:none;stroke:red;stroke-width:1px;stroke-linecap:butt;stroke-linejoin:miter;stroke-opacity:1" d="M 453.5,513.778 470.722,513.778 z" id="boundary" inkscape:connector-curvature="0" />
	<path style="fill:none;stroke:red;stroke-width:1px;stroke-linecap:butt;stroke-linejoin:miter;stroke-opacity:1" d="M 465.556,107.333 481.056,98.7222 z" id="boundary" inkscape:connector-curvature="0" />
	<path style="fill:none;stroke:red;stroke-width:1px;stroke-linecap:butt;stroke-linejoin:miter;stroke-opacity:1" d="M 470.722,513.778 487.944,517.222 z" id="boundary" inkscape:connector-curvature="0" />
	<path style="fill:none;stroke:red;stroke-width:1px;stroke-linecap:butt;stroke-linejoin:miter;stroke-opacity:1" d="M 481.056,98.7222 496.556,107.333 z" id="boundary" inkscape:connector-curvature="0" />
	<path style="fill:none;stroke:red;stroke-width:1px;stroke-linecap:butt;stroke-linejoin:miter;stroke-opacity:1" d="M 487.944,517.222 505.167,513.778 z" id="boundary" inkscape:connector-curvature="0" />
	<path style="fill:none;stroke:red;stroke-width:1px;stroke-linecap:butt;stroke-linejoin:miter;stroke-opacity:1" d="M 496.556,107.333 513.778,107.333 z" id="boundary" inkscape:connector-curvature="0" />
	<path style="fill:none;stroke:red;stroke-width:1px;stroke-linecap:butt;stroke-linejoin:miter;stroke-opacity:1" d="M 505.167,513.778 522.389,517.222 z" id="boundary" inkscape:connector-curvature="0" />
	<path style="fill:none;stroke:red;stroke-width:1px;stroke-linecap:butt;stroke-linejoin:miter;stroke-opacity:1" d="M 512.056,560.278 525.833,546.5 z" id="boundary" inkscape:connector-curvature="0" />
	<path style="fill:none;stroke:red;stroke-width:1px;stroke-linecap:butt;stroke-linejoin:miter;stroke-opacity:1" d="M 512.056,560.278 525.833,572.333 z" id="boundary" inkscape:connector-curvature="0" />
	<path style="fill:none;stroke:red;stroke-width:1px;stroke-linecap:butt;stroke-linejoin:miter;stroke-opacity:1" d="M 513.778,107.333 529.278,98.7222 z" id="boundary" inkscape:connector-curvature="0" />
	<path style="fill:none;stroke:red;stroke-width:1px;stroke-linecap:butt;stroke-linejoin:miter;stroke-opacity:1" d="M 522.389,517.222 539.611,522.389 z" id="boundary" inkscape:connector-curvature="0" />
	<path style="fill:none;stroke:red;stroke-width:1px;stroke-linecap:butt;stroke-linejoin:miter;stroke-opacity:1" d="M 525.833,546.5 543.056,539.611 z" id="boundary" inkscape:connector-curvature="0" />
	<path style="fill:none;stroke:red;stroke-width:1px;stroke-linecap:butt;stroke-linejoin:miter;stroke-opacity:1" d="M 525.833,572.333 541.333,580.944 z" id="boundary" inkscape:connector-curvature="0" />
	<path style="fill:none;stroke:red;stroke-width:1px;stroke-linecap:butt;stroke-linejoin:miter;stroke-opacity:1" d="M 529.278,98.7222 546.5,98.7222 z" id="boundary" inkscape:connector-curvature="0" />
	<path style="fill:none;stroke:red;stroke-width:1px;stroke-linecap:butt;stroke-linejoin:miter;stroke-opacity:1" d="M 539.611,522.389 543.056,539.611 z" id="boundary" inkscape:connector-curvature="0" />
	<path style="fill:none;stroke:red;stroke-width:1px;stroke-linecap:butt;stroke-linejoin:miter;stroke-opacity:1" d="M 541.333,580.944 558.556,582.667 z" id="boundary" inkscape:connector-curvature="0" />
	<path style="fill:none;stroke:red;stroke-width:1px;stroke-linecap:butt;stroke-linejoin:miter;stroke-opacity:1" d="M 546.5,98.7222 563.722,98.7222 z" id="boundary" inkscape:connector-curvature="0" />
	<path style="fill:none;stroke:red;stroke-width:1px;stroke-linecap:butt;stroke-linejoin:miter;stroke-opacity:1" d="M 558.556,582.667 575.778,582.667 z" id="boundary" inkscape:connector-curvature="0" />
	<path style="fill:none;stroke:red;stroke-width:1px;stroke-linecap:butt;stroke-linejoin:miter;stroke-opacity:1" d="M 563.722,98.7222 580.944,98.7222 z" id="boundary" inkscape:connector-curvature="0" />
	<path style="fill:none;stroke:red;stroke-width:1px;stroke-linecap:butt;stroke-linejoin:miter;stroke-opacity:1" d="M 575.778,582.667 593,582.667 z" id="boundary" inkscape:connector-curvature="0" />
	<path style="fill:none;stroke:red;stroke-width:1px;stroke-linecap:butt;stroke-linejoin:miter;stroke-opacity:1" d="M 580.944,98.7222 598.167,98.7222 z" id="boundary" inkscape:connector-curvature="0" />
	<path style="fill:none;stroke:red;stroke-width:1px;stroke-linecap:butt;stroke-linejoin:miter;stroke-opacity:1" d="M 593,582.667 610.222,587.833 z" id="boundary" inkscape:connector-curvature="0" />
	<path style="fill:none;stroke:red;stroke-width:1px;stroke-linecap:butt;stroke-linejoin:miter;stroke-opacity:1" d="M 598.167,98.7222 615.389,98.7222 z" id="boundary" inkscape:connector-curvature="0" />
	<path style="fill:none;stroke:red;stroke-width:1px;stroke-linecap:butt;stroke-linejoin:miter;stroke-opacity:1" d="M 610.222,587.833 627.444,591.278 z" id="boundary" inkscape:connector-curvature="0" />
	<path style="fill:none;stroke:red;stroke-width:1px;stroke-linecap:butt;stroke-linejoin:miter;stroke-opacity:1" d="M 615.389,98.7222 625.722,112.5 z" id="boundary" inkscape:connector-curvature="0" />
	<path style="fill:none;stroke:red;stroke-width:1px;stroke-linecap:butt;stroke-linejoin:miter;stroke-opacity:1" d="M 625.722,112.5 642.944,115.944 z" id="boundary" inkscape:connector-curvature="0" />
	<path style="fill:none;stroke:red;stroke-width:1px;stroke-linecap:butt;stroke-linejoin:miter;stroke-opacity:1" d="M 627.444,591.278 642.944,582.667 z" id="boundary" inkscape:connector-curvature="0" />
	<path style="fill:none;stroke:red;stroke-width:1px;stroke-linecap:butt;stroke-linejoin:miter;stroke-opacity:1" d="M 642.944,115.944 660.167,115.944 z" id="boundary" inkscape:connector-curvature="0" />
	<path style="fill:none;stroke:red;stroke-width:1px;stroke-linecap:butt;stroke-linejoin:miter;stroke-opacity:1" d="M 642.944,582.667 660.167,582.667 z" id="boundary" inkscape:connector-curvature="0" />
	<path style="fill:none;stroke:red;stroke-width:1px;stroke-linecap:butt;stroke-linejoin:miter;stroke-opacity:1" d="M 660.167,115.944 675.667,124.556 z" id="boundary" inkscape:connector-curvature="0" />
	<path style="fill:none;stroke:red;stroke-width:1px;stroke-linecap:butt;stroke-linejoin:miter;stroke-opacity:1" d="M 660.167,582.667 675.667,574.056 z" id="boundary" inkscape:connector-curvature="0" />
	<path style="fill:none;stroke:red;stroke-width:1px;stroke-linecap:butt;stroke-linejoin:miter;stroke-opacity:1" d="M 675.667,124.556 692.889,128 z" id="boundary" inkscape:connector-curvature="0" />
	<path style="fill:none;stroke:red;stroke-width:1px;stroke-linecap:butt;stroke-linejoin:miter;stroke-opacity:1" d="M 675.667,574.056 692.889,574.056 z" id="boundary" inkscape:connector-curvature="0" />
	<path style="fill:none;stroke:red;stroke-width:1px;stroke-linecap:butt;stroke-linejoin:miter;stroke-opacity:1" d="M 692.889,128 708.389,136.611 z" id="boundary" inkscape:connector-curvature="0" />
	<path style="fill:none;stroke:red;stroke-width:1px;stroke-linecap:butt;stroke-linejoin:miter;stroke-opacity:1" d="M 692.889,574.056 708.389,565.444 z" id="boundary" inkscape:connector-curvature="0" />
	<path style="fill:none;stroke:red;stroke-width:1px;stroke-linecap:butt;stroke-linejoin:miter;stroke-opacity:1" d="M 708.389,136.611 725.611,143.5 z" id="boundary" inkscape:connector-curvature="0" />
	<path style="fill:none;stroke:red;stroke-width:1px;stroke-linecap:butt;stroke-linejoin:miter;stroke-opacity:1" d="M 708.389,565.444 725.611,565.444 z" id="boundary" inkscape:connector-curvature="0" />
	<path style="fill:none;stroke:red;stroke-width:1px;stroke-linecap:butt;stroke-linejoin:miter;stroke-opacity:1" d="M 725.611,143.5 741.111,152.111 z" id="boundary" inkscape:connector-curvature="0" />
	<path style="fill:none;stroke:red;stroke-width:1px;stroke-linecap:butt;stroke-linejoin:miter;stroke-opacity:1" d="M 725.611,565.444 742.833,562 z" id="boundary" inkscape:connector-curvature="0" />
	<path style="fill:none;stroke:red;stroke-width:1px;stroke-linecap:butt;stroke-linejoin:miter;stroke-opacity:1" d="M 741.111,152.111 754.889,164.167 z" id="boundary" inkscape:connector-curvature="0" />
	<path style="fill:none;stroke:red;stroke-width:1px;stroke-linecap:butt;stroke-linejoin:miter;stroke-opacity:1" d="M 742.833,562 760.056,556.833 z" id="boundary" inkscape:connector-curvature="0" />
	<path style="fill:none;stroke:red;stroke-width:1px;stroke-linecap:butt;stroke-linejoin:miter;stroke-opacity:1" d="M 754.889,164.167 772.111,167.611 z" id="boundary" inkscape:connector-curvature="0" />
	<path style="fill:none;stroke:red;stroke-width:1px;stroke-linecap:butt;stroke-linejoin:miter;stroke-opacity:1" d="M 760.056,556.833 777.278,553.389 z" id="boundary" inkscape:connector-curvature="0" />
	<path style="fill:none;stroke:red;stroke-width:1px;stroke-linecap:butt;stroke-linejoin:miter;stroke-opacity:1" d="M 772.111,167.611 785.889,177.944 z" id="boundary" inkscape:connector-curvature="0" />
	<path style="fill:none;stroke:red;stroke-width:1px;stroke-linecap:butt;stroke-linejoin:miter;stroke-opacity:1" d="M 777.278,553.389 794.5,548.222 z" id="boundary" inkscape:connector-curvature="0" />
	<path style="fill:none;stroke:red;stroke-width:1px;stroke-linecap:butt;stroke-linejoin:miter;stroke-opacity:1" d="M 785.889,177.944 789.333,195.167 z" id="boundary" inkscape:connector-curvature="0" />
	<path style="fill:none;stroke:red;stroke-width:1px;stroke-linecap:butt;stroke-linejoin:miter;stroke-opacity:1" d="M 789.333,195.167 797.944,210.667 z" id="boundary" inkscape:connector-curvature="0" />
	<path style="fill:none;stroke:red;stroke-width:1px;stroke-linecap:butt;stroke-linejoin:miter;stroke-opacity:1" d="M 794.5,548.222 811.722,548.222 z" id="boundary" inkscape:connector-curvature="0" />
	<path style="fill:none;stroke:red;stroke-width:1px;stroke-linecap:butt;stroke-linejoin:miter;stroke-opacity:1" d="M 797.944,210.667 811.722,221 z" id="boundary" inkscape:connector-curvature="0" />
	<path style="fill:none;stroke:red;stroke-width:1px;stroke-linecap:butt;stroke-linejoin:miter;stroke-opacity:1" d="M 811.722,221 823.778,234.778 z" id="boundary" inkscape:connector-curvature="0" />
	<path style="fill:none;stroke:red;stroke-width:1px;stroke-linecap:butt;stroke-linejoin:miter;stroke-opacity:1" d="M 811.722,548.222 828.944,544.778 z" id="boundary" inkscape:connector-curvature="0" />
	<path style="fill:none;stroke:red;stroke-width:1px;stroke-linecap:butt;stroke-linejoin:miter;stroke-opacity:1" d="M 823.778,234.778 832.389,250.278 z" id="boundary" inkscape:connector-curvature="0" />
	<path style="fill:none;stroke:red;stroke-width:1px;stroke-linecap:butt;stroke-linejoin:miter;stroke-opacity:1" d="M 828.944,544.778 841,531 z" id="boundary" inkscape:connector-curvature="0" />
	<path style="fill:none;stroke:red;stroke-width:1px;stroke-linecap:butt;stroke-linejoin:miter;stroke-opacity:1" d="M 832.389,250.278 841,265.778 z" id="boundary" inkscape:connector-curvature="0" />
	<path style="fill:none;stroke:red;stroke-width:1px;stroke-linecap:butt;stroke-linejoin:miter;stroke-opacity:1" d="M 841,265.778 851.333,279.556 z" id="boundary" inkscape:connector-curvature="0" />
	<path style="fill:none;stroke:red;stroke-width:1px;stroke-linecap:butt;stroke-linejoin:miter;stroke-opacity:1" d="M 841,531 858.222,522.389 z" id="boundary" inkscape:connector-curvature="0" />
	<path style="fill:none;stroke:red;stroke-width:1px;stroke-linecap:butt;stroke-linejoin:miter;stroke-opacity:1" d="M 851.333,279.556 865.111,291.611 z" id="boundary" inkscape:connector-curvature="0" />
	<path style="fill:none;stroke:red;stroke-width:1px;stroke-linecap:butt;stroke-linejoin:miter;stroke-opacity:1" d="M 858.222,522.389 866.833,505.167 z" id="boundary" inkscape:connector-curvature="0" />
	<path style="fill:none;stroke:red;stroke-width:1px;stroke-linecap:butt;stroke-linejoin:miter;stroke-opacity:1" d="M 865.111,291.611 882.333,296.778 z" id="boundary" inkscape:connector-curvature="0" />
	<path style="fill:none;stroke:red;stroke-width:1px;stroke-linecap:butt;stroke-linejoin:miter;stroke-opacity:1" d="M 866.833,470.722 866.833,487.944 z" id="boundary" inkscape:connector-curvature="0" />
	<path style="fill:none;stroke:red;stroke-width:1px;stroke-linecap:butt;stroke-linejoin:miter;stroke-opacity:1" d="M 866.833,470.722 875.444,453.5 z" id="boundary" inkscape:connector-curvature="0" />
	<path style="fill:none;stroke:red;stroke-width:1px;stroke-linecap:butt;stroke-linejoin:miter;stroke-opacity:1" d="M 866.833,487.944 866.833,505.167 z" id="boundary" inkscape:connector-curvature="0" />
	<path style="fill:none;stroke:red;stroke-width:1px;stroke-linecap:butt;stroke-linejoin:miter;stroke-opacity:1" d="M 875.444,436.278 875.444,453.5 z" id="boundary" inkscape:connector-curvature="0" />
	<path style="fill:none;stroke:red;stroke-width:1px;stroke-linecap:butt;stroke-linejoin:miter;stroke-opacity:1" d="M 875.444,436.278 884.056,419.056 z" id="boundary" inkscape:connector-curvature="0" />
	<path style="fill:none;stroke:red;stroke-width:1px;stroke-linecap:butt;stroke-linejoin:miter;stroke-opacity:1" d="M 882.333,296.778 899.556,296.778 z" id="boundary" inkscape:connector-curvature="0" />
	<path style="fill:none;stroke:red;stroke-width:1px;stroke-linecap:butt;stroke-linejoin:miter;stroke-opacity:1" d="M 884.056,419.056 901.278,419.056 z" id="boundary" inkscape:connector-curvature="0" />
	<path style="fill:none;stroke:red;stroke-width:1px;stroke-linecap:butt;stroke-linejoin:miter;stroke-opacity:1" d="M 899.556,296.778 916.778,296.778 z" id="boundary" inkscape:connector-curvature="0" />
	<path style="fill:none;stroke:red;stroke-width:1px;stroke-linecap:butt;stroke-linejoin:miter;stroke-opacity:1" d="M 901.278,419.056 918.5,419.056 z" id="boundary" inkscape:connector-curvature="0" />
	<path style="fill:none;stroke:red;stroke-width:1px;stroke-linecap:butt;stroke-linejoin:miter;stroke-opacity:1" d="M 916.778,296.778 934,296.778 z" id="boundary" inkscape:connector-curvature="0" />
	<path style="fill:none;stroke:red;stroke-width:1px;stroke-linecap:butt;stroke-linejoin:miter;stroke-opacity:1" d="M 918.5,419.056 935.722,419.056 z" id="boundary" inkscape:connector-curvature="0" />
	<path style="fill:none;stroke:red;stroke-width:1px;stroke-linecap:butt;stroke-linejoin:miter;stroke-opacity:1" d="M 934,296.778 951.222,296.778 z" id="boundary" inkscape:connector-curvature="0" />
	<path style="fill:none;stroke:red;stroke-width:1px;stroke-linecap:butt;stroke-linejoin:miter;stroke-opacity:1" d="M 935.722,419.056 952.944,419.056 z" id="boundary" inkscape:connector-curvature="0" />
	<path style="fill:none;stroke:red;stroke-width:1px;stroke-linecap:butt;stroke-linejoin:miter;stroke-opacity:1" d="M 951.222,296.778 968.444,296.778 z" id="boundary" inkscape:connector-curvature="0" />
	<path style="fill:none;stroke:red;stroke-width:1px;stroke-linecap:butt;stroke-linejoin:miter;stroke-opacity:1" d="M 952.944,419.056 970.167,419.056 z" id="boundary" inkscape:connector-curvature="0" />
	<path style="fill:none;stroke:red;stroke-width:1px;stroke-linecap:butt;stroke-linejoin:miter;stroke-opacity:1" d="M 968.444,296.778 985.667,300.222 z" id="boundary" inkscape:connector-curvature="0" />
	<path style="fill:none;stroke:red;stroke-width:1px;stroke-linecap:butt;stroke-linejoin:miter;stroke-opacity:1" d="M 970.167,419.056 985.667,427.667 z" id="boundary" inkscape:connector-curvature="0" />
	<path style="fill:none;stroke:red;stroke-width:1px;stroke-linecap:butt;stroke-linejoin:miter;stroke-opacity:1" d="M 985.667,300.222 996,324.333 z" id="boundary" inkscape:connector-curvature="0" />
	<path style="fill:none;stroke:red;stroke-width:1px;stroke-linecap:butt;stroke-linejoin:miter;stroke-opacity:1" d="M 985.667,427.667 996,410.444 z" id="boundary" inkscape:connector-curvature="0" />
	<path style="fill:none;stroke:red;stroke-width:1px;stroke-linecap:butt;stroke-linejoin:miter;stroke-opacity:1" d="M 996,324.333 996,341.556 z" id="boundary" inkscape:connector-curvature="0" />
	<path style="fill:none;stroke:red;stroke-width:1px;stroke-linecap:butt;stroke-linejoin:miter;stroke-opacity:1" d="M 996,341.556 996,358.778 z" id="boundary" inkscape:connector-curvature="0" />
	<path style="fill:none;stroke:red;stroke-width:1px;stroke-linecap:butt;stroke-linejoin:miter;stroke-opacity:1" d="M 996,358.778 996,376 z" id="boundary" inkscape:connector-curvature="0" />
	<path style="fill:none;stroke:red;stroke-width:1px;stroke-linecap:butt;stroke-linejoin:miter;stroke-opacity:1" d="M 996,376 996,393.222 z" id="boundary" inkscape:connector-curvature="0" />
	<path style="fill:none;stroke:red;stroke-width:1px;stroke-linecap:butt;stroke-linejoin:miter;stroke-opacity:1" d="M 996,393.222 996,410.444 z" id="boundary" inkscape:connector-curvature="0" />
	<circle cx="4" cy="293.333" r="4" fill="#0" id="circle0"/>
	<circle cx="4" cy="310.556" r="4" fill="#0" id="circle1"/>
	<circle cx="4" cy="327.778" r="4" fill="#0" id="circle2"/>
	<circle cx="4" cy="345" r="4" fill="#0" id="circle3"/>
	<circle cx="12.6111" cy="241.667" r="4" fill="#0" id="circle4"/>
	<circle cx="12.6111" cy="258.889" r="4" fill="#0" id="circle5"/>
	<circle cx="12.6111" cy="276.111" r="4" fill="#0" id="circle6"/>
	<circle cx="14.3333" cy="358.778" r="4" fill="#0" id="circle7"/>
	<circle cx="29.8333" cy="236.5" r="4" fill="#0" id="circle8"/>
	<circle cx="31.5556" cy="358.778" r="4" fill="#0" id="circle9"/>
	<circle cx="47.0556" cy="236.5" r="4" fill="#0" id="circle10"/>
	<circle cx="48.7778" cy="358.778" r="4" fill="#0" id="circle11"/>
	<circle cx="64.2778" cy="236.5" r="4" fill="#0" id="circle12"/>
	<circle cx="66" cy="358.778" r="4" fill="#0" id="circle13"/>
	<circle cx="81.5" cy="236.5" r="4" fill="#0" id="circle14"/>
	<circle cx="83.2222" cy="358.778" r="4" fill="#0" id="circle15"/>
	<circle cx="98.7222" cy="233.056" r="4" fill="#0" id="circle16"/>
	<circle cx="100.444" cy="358.778" r="4" fill="#0" id="circle17"/>
	<circle cx="112.5" cy="219.278" r="4" fill="#0" id="circle18"/>
	<circle cx="117.667" cy="362.222" r="4" fill="#0" id="circle19"/>
	<circle cx="121.111" cy="202.056" r="4" fill="#0" id="circle20"/>
	<circle cx="134.889" cy="367.389" r="4" fill="#0" id="circle21"/>
	<circle cx="138.333" cy="193.444" r="4" fill="#0" id="circle22"/>
	<circle cx="152.111" cy="179.667" r="4" fill="#0" id="circle23"/>
	<circle cx="152.111" cy="367.389" r="4" fill="#0" id="circle24"/>
	<circle cx="169.333" cy="171.056" r="4" fill="#0" id="circle25"/>
	<circle cx="169.333" cy="370.833" r="4" fill="#0" id="circle26"/>
	<circle cx="186.556" cy="162.444" r="4" fill="#0" id="circle27"/>
	<circle cx="186.556" cy="376" r="4" fill="#0" id="circle28"/>
	<circle cx="200.333" cy="150.389" r="4" fill="#0" id="circle29"/>
	<circle cx="202.056" cy="384.611" r="4" fill="#0" id="circle30"/>
	<circle cx="215.833" cy="141.778" r="4" fill="#0" id="circle31"/>
	<circle cx="219.278" cy="384.611" r="4" fill="#0" id="circle32"/>
	<circle cx="224.444" cy="124.556" r="4" fill="#0" id="circle33"/>
	<circle cx="227.889" cy="52.2222" r="4" fill="#0" id="circle34"/>
	<circle cx="227.889" cy="69.4444" r="4" fill="#0" id="circle35"/>
	<circle cx="227.889" cy="86.6667" r="4" fill="#0" id="circle36"/>
	<circle cx="227.889" cy="103.889" r="4" fill="#0" id="circle37"/>
	<circle cx="227.889" cy="525.833" r="4" fill="#0" id="circle38"/>
	<circle cx="234.778" cy="393.222" r="4" fill="#0" id="circle39"/>
	<circle cx="236.5" cy="35" r="4" fill="#0" id="circle40"/>
	<circle cx="236.5" cy="541.333" r="4" fill="#0" id="circle41"/>
	<circle cx="241.667" cy="410.444" r="4" fill="#0" id="circle42"/>
	<circle cx="241.667" cy="512.056" r="4" fill="#0" id="circle43"/>
	<circle cx="245.111" cy="17.7778" r="4" fill="#0" id="circle44"/>
	<circle cx="253.722" cy="548.222" r="4" fill="#0" id="circle45"/>
	<circle cx="255.444" cy="422.5" r="4" fill="#0" id="circle46"/>
	<circle cx="258.889" cy="512.056" r="4" fill="#0" id="circle47"/>
	<circle cx="262.333" cy="12.6111" r="4" fill="#0" id="circle48"/>
	<circle cx="267.5" cy="436.278" r="4" fill="#0" id="circle49"/>
	<circle cx="270.944" cy="548.222" r="4" fill="#0" id="circle50"/>
	<circle cx="274.389" cy="503.444" r="4" fill="#0" id="circle51"/>
	<circle cx="277.833" cy="4" r="4" fill="#0" id="circle52"/>
	<circle cx="279.556" cy="450.056" r="4" fill="#0" id="circle53"/>
	<circle cx="286.444" cy="539.611" r="4" fill="#0" id="circle54"/>
	<circle cx="288.167" cy="465.556" r="4" fill="#0" id="circle55"/>
	<circle cx="291.611" cy="496.556" r="4" fill="#0" id="circle56"/>
	<circle cx="295.056" cy="4" r="4" fill="#0" id="circle57"/>
	<circle cx="303.667" cy="539.611" r="4" fill="#0" id="circle58"/>
	<circle cx="312.278" cy="4" r="4" fill="#0" id="circle59"/>
	<circle cx="319.167" cy="531" r="4" fill="#0" id="circle60"/>
	<circle cx="329.5" cy="4" r="4" fill="#0" id="circle61"/>
	<circle cx="336.389" cy="531" r="4" fill="#0" id="circle62"/>
	<circle cx="341.556" cy="17.7778" r="4" fill="#0" id="circle63"/>
	<circle cx="341.556" cy="48.7778" r="4" fill="#0" id="circle64"/>
	<circle cx="345" cy="66" r="4" fill="#0" id="circle65"/>
	<circle cx="350.167" cy="33.2778" r="4" fill="#0" id="circle66"/>
	<circle cx="350.167" cy="83.2222" r="4" fill="#0" id="circle67"/>
	<circle cx="350.167" cy="100.444" r="4" fill="#0" id="circle68"/>
	<circle cx="350.167" cy="117.667" r="4" fill="#0" id="circle69"/>
	<circle cx="351.889" cy="522.389" r="4" fill="#0" id="circle70"/>
	<circle cx="358.778" cy="133.167" r="4" fill="#0" id="circle71"/>
	<circle cx="369.111" cy="522.389" r="4" fill="#0" id="circle72"/>
	<circle cx="372.556" cy="143.5" r="4" fill="#0" id="circle73"/>
	<circle cx="386.333" cy="522.389" r="4" fill="#0" id="circle74"/>
	<circle cx="389.778" cy="150.389" r="4" fill="#0" id="circle75"/>
	<circle cx="401.833" cy="136.611" r="4" fill="#0" id="circle76"/>
	<circle cx="403.556" cy="522.389" r="4" fill="#0" id="circle77"/>
	<circle cx="419.056" cy="128" r="4" fill="#0" id="circle78"/>
	<circle cx="419.056" cy="513.778" r="4" fill="#0" id="circle79"/>
	<circle cx="432.833" cy="115.944" r="4" fill="#0" id="circle80"/>
	<circle cx="436.278" cy="513.778" r="4" fill="#0" id="circle81"/>
	<circle cx="448.333" cy="107.333" r="4" fill="#0" id="circle82"/>
	<circle cx="453.5" cy="513.778" r="4" fill="#0" id="circle83"/>
	<circle cx="465.556" cy="107.333" r="4" fill="#0" id="circle84"/>
	<circle cx="470.722" cy="513.778" r="4" fill="#0" id="circle85"/>
	<circle cx="481.056" cy="98.7222" r="4" fill="#0" id="circle86"/>
	<circle cx="487.944" cy="517.222" r="4" fill="#0" id="circle87"/>
	<circle cx="496.556" cy="107.333" r="4" fill="#0" id="circle88"/>
	<circle cx="505.167" cy="513.778" r="4" fill="#0" id="circle89"/>
	<circle cx="512.056" cy="560.278" r="4" fill="#0" id="circle90"/>
	<circle cx="513.778" cy="107.333" r="4" fill="#0" id="circle91"/>
	<circle cx="522.389" cy="517.222" r="4" fill="#0" id="circle92"/>
	<circle cx="525.833" cy="546.5" r="4" fill="#0" id="circle93"/>
	<circle cx="525.833" cy="572.333" r="4" fill="#0" id="circle94"/>
	<circle cx="529.278" cy="98.7222" r="4" fill="#0" id="circle95"/>
	<circle cx="539.611" cy="522.389" r="4" fill="#0" id="circle96"/>
	<circle cx="541.333" cy="580.944" r="4" fill="#0" id="circle97"/>
	<circle cx="543.056" cy="539.611" r="4" fill="#0" id="circle98"/>
	<circle cx="546.5" cy="98.7222" r="4" fill="#0" id="circle99"/>
	<circle cx="558.556" cy="582.667" r="4" fill="#0" id="circle100"/>
	<circle cx="563.722" cy="98.7222" r="4" fill="#0" id="circle101"/>
	<circle cx="575.778" cy="582.667" r="4" fill="#0" id="circle102"/>
	<circle cx="580.944" cy="98.7222" r="4" fill="#0" id="circle103"/>
	<circle cx="593" cy="582.667" r="4" fill="#0" id="circle104"/>
	<circle cx="598.167" cy="98.7222" r="4" fill="#0" id="circle105"/>
	<circle cx="610.222" cy="587.833" r="4" fill="#0" id="circle106"/>
	<circle cx="615.389" cy="98.7222" r="4" fill="#0" id="circle107"/>
	<circle cx="625.722" cy="112.5" r="4" fill="#0" id="circle108"/>
	<circle cx="627.444" cy="591.278" r="4" fill="#0" id="circle109"/>
	<circle cx="642.944" cy="115.944" r="4" fill="#0" id="circle110"/>
	<circle cx="642.944" cy="582.667" r="4" fill="#0" id="circle111"/>
	<circle cx="660.167" cy="115.944" r="4" fill="#0" id="circle112"/>
	<circle cx="660.167" cy="582.667" r="4" fill="#0" id="circle113"/>
	<circle cx="675.667" cy="124.556" r="4" fill="#0" id="circle114"/>
	<circle cx="675.667" cy="574.056" r="4" fill="#0" id="circle115"/>
	<circle cx="692.889" cy="128" r="4" fill="#0" id="circle116"/>
	<circle cx="692.889" cy="574.056" r="4" fill="#0" id="circle117"/>
	<circle cx="708.389" cy="136.611" r="4" fill="#0" id="circle118"/>
	<circle cx="708.389" cy="565.444" r="4" fill="#0" id="circle119"/>
	<circle cx="725.611" cy="143.5" r="4" fill="#0" id="circle120"/>
	<circle cx="725.611" cy="565.444" r="4" fill="#0" id="circle121"/>
	<circle cx="741.111" cy="152.111" r="4" fill="#0" id="circle122"/>
	<circle cx="742.833" cy="562" r="4" fill="#0" id="circle123"/>
	<circle cx="754.889" cy="164.167" r="4" fill="#0" id="circle124"/>
	<circle cx="760.056" cy="556.833" r="4" fill="#0" id="circle125"/>
	<circle cx="772.111" cy="167.611" r="4" fill="#0" id="circle126"/>
	<circle cx="777.278" cy="553.389" r="4" fill="#0" id="circle127"/>
	<circle cx="785.889" cy="177.944" r="4" fill="#0" id="circle128"/>
	<circle cx="789.333" cy="195.167" r="4" fill="#0" id="circle129"/>
	<circle cx="794.5" cy="548.222" r="4" fill="#0" id="circle130"/>
	<circle cx="797.944" cy="210.667" r="4" fill="#0" id="circle131"/>
	<circle cx="811.722" cy="221" r="4" fill="#0" id="circle132"/>
	<circle cx="811.722" cy="548.222" r="4" fill="#0" id="circle133"/>
	<circle cx="823.778" cy="234.778" r="4" fill="#0" id="circle134"/>
	<circle cx="828.944" cy="544.778" r="4" fill="#0" id="circle135"/>
	<circle cx="832.389" cy="250.278" r="4" fill="#0" id="circle136"/>
	<circle cx="841" cy="265.778" r="4" fill="#0" id="circle137"/>
	<circle cx="841" cy="531" r="4" fill="#0" id="circle138"/>
	<circle cx="851.333" cy="279.556" r="4" fill="#0" id="circle139"/>
	<circle cx="858.222" cy="522.389" r="4" fill="#0" id="circle140"/>
	<circle cx="865.111" cy="291.611" r="4" fill="#0" id="circle141"/>
	<circle cx="866.833" cy="470.722" r="4" fill="#0" id="circle142"/>
	<circle cx="866.833" cy="487.944" r="4" fill="#0" id="circle143"/>
	<circle cx="866.833" cy="505.167" r="4" fill="#0" id="circle144"/>
	<circle cx="875.444" cy="436.278" r="4" fill="#0" id="circle145"/>
	<circle cx="875.444" cy="453.5" r="4" fill="#0" id="circle146"/>
	<circle cx="882.333" cy="296.778" r="4" fill="#0" id="circle147"/>
	<circle cx="884.056" cy="419.056" r="4" fill="#0" id="circle148"/>
	<circle cx="899.556" cy="296.778" r="4" fill="#0" id="circle149"/>
	<circle cx="901.278" cy="419.056" r="4" fill="#0" id="circle150"/>
	<circle cx="916.778" cy="296.778" r="4" fill="#0" id="circle151"/>
	<circle cx="918.5" cy="419.056" r="4" fill="#0" id="circle152"/>
	<circle cx="934" cy="296.778" r="4" fill="#0" id="circle153"/>
	<circle cx="935.722" cy="419.056" r="4" fill="#0" id="circle154"/>
	<circle cx="951.222" cy="296.778" r="4" fill="#0" id="circle155"/>
	<circle cx="952.944" cy="419.056" r="4" fill="#0" id="circle156"/>
	<circle cx="968.444" cy="296.778" r="4" fill="#0" id="circle157"/>
	<circle cx="970.167" cy="419.056" r="4" fill="#0" id="circle158"/>
	<circle cx="985.667" cy="300.222" r="4" fill="#0" id="circle159"/>
	<circle cx="985.667" cy="427.667" r="4" fill="#0" id="circle160"/>
	<circle cx="996" cy="324.333" r="4" fill="#0" id="circle161"/>
	<circle cx="996" cy="341.556" r="4" fill="#0" id="circle162"/>
	<circle cx="996" cy="358.778" r="4" fill="#0" id="circle163"/>
	<circle cx="996" cy="376" r="4" fill="#0" id="circle164"/>
	<circle cx="996" cy="393.222" r="4" fill="#0" id="circle165"/>
	<circle cx="996" cy="410.444" r="4" fill="#0" id="circle166"/>
	</g>
</svg>