<?xml version="1.0" encoding="UTF-8" standalone="no"?>
<!-- Created with CurveBenchmark -->
<svg
	xmlns:dc="http://purl.org/dc/elements/1.1/"
	xmlns:cc="http://creativecommons.org/ns#"
	xmlns:rdf="http://www.w3.org/1999/02/22-rdf-syntax-ns#"
	xmlns:svg="http://www.w3.org/2000/svg"
	xmlns="http://www.w3.org/2000/svg"
	xmlns:sodipodi="http://sodipodi.sourceforge.net/DTD/sodipodi-0.dtd"
	xmlns:inkscape="http://www.inkscape.org/namespaces/inkscape"
	width="1000"
	height="1000"
	id="svg2"
	version="1.1"
	sodipodi:docname="manifold/discur-dude12.png.txt">
<defs
	id="defs4" />
<metadata
	id="metadata7">
	<rdf:RDF>
		<cc:Work
			rdf:about="">
			<dc:format>image/svg+xml</dc:format>
			<dc:type
				rdf:resource="http://purl.org/dc/dcmitype/StillImage" />
			<dc:title></dc:title>
		</cc:Work>
	</rdf:RDF>
</metadata>
<g
	inkscape:label="Layer 1"
	inkscape:groupmode="layer"
	id="layer1">
	<path style="fill:none;stroke:red;stroke-width:1px;stroke-linecap:butt;stroke-linejoin:miter;stroke-opacity:1" d="M 4,424.563 13.4297,405.703 z" id="boundary" inkscape:connector-curvature="0" />
	<path style="fill:none;stroke:red;stroke-width:1px;stroke-linecap:butt;stroke-linejoin:miter;stroke-opacity:1" d="M 4,424.563 19.0875,437.764 z" id="boundary" inkscape:connector-curvature="0" />
	<path style="fill:none;stroke:red;stroke-width:1px;stroke-linecap:butt;stroke-linejoin:miter;stroke-opacity:1" d="M 13.4297,405.703 22.8593,386.844 z" id="boundary" inkscape:connector-curvature="0" />
	<path style="fill:none;stroke:red;stroke-width:1px;stroke-linecap:butt;stroke-linejoin:miter;stroke-opacity:1" d="M 19.0875,437.764 34.1749,449.08 z" id="boundary" inkscape:connector-curvature="0" />
	<path style="fill:none;stroke:red;stroke-width:1px;stroke-linecap:butt;stroke-linejoin:miter;stroke-opacity:1" d="M 22.8593,386.844 37.9468,371.757 z" id="boundary" inkscape:connector-curvature="0" />
	<path style="fill:none;stroke:red;stroke-width:1px;stroke-linecap:butt;stroke-linejoin:miter;stroke-opacity:1" d="M 34.1749,449.08 49.2624,435.878 z" id="boundary" inkscape:connector-curvature="0" />
	<path style="fill:none;stroke:red;stroke-width:1px;stroke-linecap:butt;stroke-linejoin:miter;stroke-opacity:1" d="M 37.9468,371.757 47.3764,352.897 z" id="boundary" inkscape:connector-curvature="0" />
	<path style="fill:none;stroke:red;stroke-width:1px;stroke-linecap:butt;stroke-linejoin:miter;stroke-opacity:1" d="M 47.3764,352.897 62.4639,337.81 z" id="boundary" inkscape:connector-curvature="0" />
	<path style="fill:none;stroke:red;stroke-width:1px;stroke-linecap:butt;stroke-linejoin:miter;stroke-opacity:1" d="M 49.2624,435.878 62.4639,420.791 z" id="boundary" inkscape:connector-curvature="0" />
	<path style="fill:none;stroke:red;stroke-width:1px;stroke-linecap:butt;stroke-linejoin:miter;stroke-opacity:1" d="M 62.4639,337.81 71.8935,318.951 z" id="boundary" inkscape:connector-curvature="0" />
	<path style="fill:none;stroke:red;stroke-width:1px;stroke-linecap:butt;stroke-linejoin:miter;stroke-opacity:1" d="M 62.4639,420.791 77.5513,407.589 z" id="boundary" inkscape:connector-curvature="0" />
	<path style="fill:none;stroke:red;stroke-width:1px;stroke-linecap:butt;stroke-linejoin:miter;stroke-opacity:1" d="M 71.8935,318.951 86.981,305.749 z" id="boundary" inkscape:connector-curvature="0" />
	<path style="fill:none;stroke:red;stroke-width:1px;stroke-linecap:butt;stroke-linejoin:miter;stroke-opacity:1" d="M 77.5513,407.589 96.4106,398.16 z" id="boundary" inkscape:connector-curvature="0" />
	<path style="fill:none;stroke:red;stroke-width:1px;stroke-linecap:butt;stroke-linejoin:miter;stroke-opacity:1" d="M 86.981,305.749 94.5247,286.89 z" id="boundary" inkscape:connector-curvature="0" />
	<path style="fill:none;stroke:red;stroke-width:1px;stroke-linecap:butt;stroke-linejoin:miter;stroke-opacity:1" d="M 94.5247,286.89 109.612,271.802 z" id="boundary" inkscape:connector-curvature="0" />
	<path style="fill:none;stroke:red;stroke-width:1px;stroke-linecap:butt;stroke-linejoin:miter;stroke-opacity:1" d="M 96.4106,398.16 109.612,383.072 z" id="boundary" inkscape:connector-curvature="0" />
	<path style="fill:none;stroke:red;stroke-width:1px;stroke-linecap:butt;stroke-linejoin:miter;stroke-opacity:1" d="M 98.2966,924.335 98.2966,943.194 z" id="boundary" inkscape:connector-curvature="0" />
	<path style="fill:none;stroke:red;stroke-width:1px;stroke-linecap:butt;stroke-linejoin:miter;stroke-opacity:1" d="M 98.2966,924.335 107.726,896.046 z" id="boundary" inkscape:connector-curvature="0" />
	<path style="fill:none;stroke:red;stroke-width:1px;stroke-linecap:butt;stroke-linejoin:miter;stroke-opacity:1" d="M 98.2966,943.194 98.2966,962.053 z" id="boundary" inkscape:connector-curvature="0" />
	<path style="fill:none;stroke:red;stroke-width:1px;stroke-linecap:butt;stroke-linejoin:miter;stroke-opacity:1" d="M 98.2966,962.053 98.2966,980.913 z" id="boundary" inkscape:connector-curvature="0" />
	<path style="fill:none;stroke:red;stroke-width:1px;stroke-linecap:butt;stroke-linejoin:miter;stroke-opacity:1" d="M 98.2966,980.913 109.612,996 z" id="boundary" inkscape:connector-curvature="0" />
	<path style="fill:none;stroke:red;stroke-width:1px;stroke-linecap:butt;stroke-linejoin:miter;stroke-opacity:1" d="M 107.726,896.046 122.814,880.958 z" id="boundary" inkscape:connector-curvature="0" />
	<path style="fill:none;stroke:red;stroke-width:1px;stroke-linecap:butt;stroke-linejoin:miter;stroke-opacity:1" d="M 109.612,271.802 119.042,252.943 z" id="boundary" inkscape:connector-curvature="0" />
	<path style="fill:none;stroke:red;stroke-width:1px;stroke-linecap:butt;stroke-linejoin:miter;stroke-opacity:1" d="M 109.612,383.072 124.7,369.871 z" id="boundary" inkscape:connector-curvature="0" />
	<path style="fill:none;stroke:red;stroke-width:1px;stroke-linecap:butt;stroke-linejoin:miter;stroke-opacity:1" d="M 109.612,996 128.471,986.57 z" id="boundary" inkscape:connector-curvature="0" />
	<path style="fill:none;stroke:red;stroke-width:1px;stroke-linecap:butt;stroke-linejoin:miter;stroke-opacity:1" d="M 119.042,252.943 128.471,234.084 z" id="boundary" inkscape:connector-curvature="0" />
	<path style="fill:none;stroke:red;stroke-width:1px;stroke-linecap:butt;stroke-linejoin:miter;stroke-opacity:1" d="M 122.814,880.958 132.243,862.099 z" id="boundary" inkscape:connector-curvature="0" />
	<path style="fill:none;stroke:red;stroke-width:1px;stroke-linecap:butt;stroke-linejoin:miter;stroke-opacity:1" d="M 124.7,369.871 137.901,354.783 z" id="boundary" inkscape:connector-curvature="0" />
	<path style="fill:none;stroke:red;stroke-width:1px;stroke-linecap:butt;stroke-linejoin:miter;stroke-opacity:1" d="M 128.471,234.084 143.559,220.882 z" id="boundary" inkscape:connector-curvature="0" />
	<path style="fill:none;stroke:red;stroke-width:1px;stroke-linecap:butt;stroke-linejoin:miter;stroke-opacity:1" d="M 128.471,986.57 145.445,977.141 z" id="boundary" inkscape:connector-curvature="0" />
	<path style="fill:none;stroke:red;stroke-width:1px;stroke-linecap:butt;stroke-linejoin:miter;stroke-opacity:1" d="M 132.243,862.099 141.673,843.24 z" id="boundary" inkscape:connector-curvature="0" />
	<path style="fill:none;stroke:red;stroke-width:1px;stroke-linecap:butt;stroke-linejoin:miter;stroke-opacity:1" d="M 137.901,354.783 152.989,341.582 z" id="boundary" inkscape:connector-curvature="0" />
	<path style="fill:none;stroke:red;stroke-width:1px;stroke-linecap:butt;stroke-linejoin:miter;stroke-opacity:1" d="M 141.673,843.24 151.103,824.38 z" id="boundary" inkscape:connector-curvature="0" />
	<path style="fill:none;stroke:red;stroke-width:1px;stroke-linecap:butt;stroke-linejoin:miter;stroke-opacity:1" d="M 143.559,220.882 160.532,211.452 z" id="boundary" inkscape:connector-curvature="0" />
	<path style="fill:none;stroke:red;stroke-width:1px;stroke-linecap:butt;stroke-linejoin:miter;stroke-opacity:1" d="M 145.445,977.141 156.76,958.281 z" id="boundary" inkscape:connector-curvature="0" />
	<path style="fill:none;stroke:red;stroke-width:1px;stroke-linecap:butt;stroke-linejoin:miter;stroke-opacity:1" d="M 151.103,824.38 160.532,805.521 z" id="boundary" inkscape:connector-curvature="0" />
	<path style="fill:none;stroke:red;stroke-width:1px;stroke-linecap:butt;stroke-linejoin:miter;stroke-opacity:1" d="M 152.989,341.582 162.418,322.722 z" id="boundary" inkscape:connector-curvature="0" />
	<path style="fill:none;stroke:red;stroke-width:1px;stroke-linecap:butt;stroke-linejoin:miter;stroke-opacity:1" d="M 156.76,958.281 171.848,945.08 z" id="boundary" inkscape:connector-curvature="0" />
	<path style="fill:none;stroke:red;stroke-width:1px;stroke-linecap:butt;stroke-linejoin:miter;stroke-opacity:1" d="M 160.532,211.452 175.62,196.365 z" id="boundary" inkscape:connector-curvature="0" />
	<path style="fill:none;stroke:red;stroke-width:1px;stroke-linecap:butt;stroke-linejoin:miter;stroke-opacity:1" d="M 160.532,805.521 164.304,782.89 z" id="boundary" inkscape:connector-curvature="0" />
	<path style="fill:none;stroke:red;stroke-width:1px;stroke-linecap:butt;stroke-linejoin:miter;stroke-opacity:1" d="M 162.418,322.722 181.278,313.293 z" id="boundary" inkscape:connector-curvature="0" />
	<path style="fill:none;stroke:red;stroke-width:1px;stroke-linecap:butt;stroke-linejoin:miter;stroke-opacity:1" d="M 164.304,782.89 173.734,764.03 z" id="boundary" inkscape:connector-curvature="0" />
	<path style="fill:none;stroke:red;stroke-width:1px;stroke-linecap:butt;stroke-linejoin:miter;stroke-opacity:1" d="M 171.848,945.08 185.049,929.992 z" id="boundary" inkscape:connector-curvature="0" />
	<path style="fill:none;stroke:red;stroke-width:1px;stroke-linecap:butt;stroke-linejoin:miter;stroke-opacity:1" d="M 173.734,764.03 188.821,748.943 z" id="boundary" inkscape:connector-curvature="0" />
	<path style="fill:none;stroke:red;stroke-width:1px;stroke-linecap:butt;stroke-linejoin:miter;stroke-opacity:1" d="M 175.62,196.365 190.707,183.163 z" id="boundary" inkscape:connector-curvature="0" />
	<path style="fill:none;stroke:red;stroke-width:1px;stroke-linecap:butt;stroke-linejoin:miter;stroke-opacity:1" d="M 181.278,313.293 194.479,298.205 z" id="boundary" inkscape:connector-curvature="0" />
	<path style="fill:none;stroke:red;stroke-width:1px;stroke-linecap:butt;stroke-linejoin:miter;stroke-opacity:1" d="M 185.049,929.992 194.479,911.133 z" id="boundary" inkscape:connector-curvature="0" />
	<path style="fill:none;stroke:red;stroke-width:1px;stroke-linecap:butt;stroke-linejoin:miter;stroke-opacity:1" d="M 188.821,748.943 198.251,730.084 z" id="boundary" inkscape:connector-curvature="0" />
	<path style="fill:none;stroke:red;stroke-width:1px;stroke-linecap:butt;stroke-linejoin:miter;stroke-opacity:1" d="M 190.707,183.163 209.567,183.163 z" id="boundary" inkscape:connector-curvature="0" />
	<path style="fill:none;stroke:red;stroke-width:1px;stroke-linecap:butt;stroke-linejoin:miter;stroke-opacity:1" d="M 194.479,298.205 213.338,298.205 z" id="boundary" inkscape:connector-curvature="0" />
	<path style="fill:none;stroke:red;stroke-width:1px;stroke-linecap:butt;stroke-linejoin:miter;stroke-opacity:1" d="M 194.479,911.133 203.909,892.274 z" id="boundary" inkscape:connector-curvature="0" />
	<path style="fill:none;stroke:red;stroke-width:1px;stroke-linecap:butt;stroke-linejoin:miter;stroke-opacity:1" d="M 198.251,730.084 207.681,711.224 z" id="boundary" inkscape:connector-curvature="0" />
	<path style="fill:none;stroke:red;stroke-width:1px;stroke-linecap:butt;stroke-linejoin:miter;stroke-opacity:1" d="M 203.909,892.274 218.996,879.072 z" id="boundary" inkscape:connector-curvature="0" />
	<path style="fill:none;stroke:red;stroke-width:1px;stroke-linecap:butt;stroke-linejoin:miter;stroke-opacity:1" d="M 207.681,711.224 217.11,692.365 z" id="boundary" inkscape:connector-curvature="0" />
	<path style="fill:none;stroke:red;stroke-width:1px;stroke-linecap:butt;stroke-linejoin:miter;stroke-opacity:1" d="M 209.567,183.163 226.54,173.734 z" id="boundary" inkscape:connector-curvature="0" />
	<path style="fill:none;stroke:red;stroke-width:1px;stroke-linecap:butt;stroke-linejoin:miter;stroke-opacity:1" d="M 213.338,298.205 230.312,307.635 z" id="boundary" inkscape:connector-curvature="0" />
	<path style="fill:none;stroke:red;stroke-width:1px;stroke-linecap:butt;stroke-linejoin:miter;stroke-opacity:1" d="M 217.11,692.365 226.54,673.506 z" id="boundary" inkscape:connector-curvature="0" />
	<path style="fill:none;stroke:red;stroke-width:1px;stroke-linecap:butt;stroke-linejoin:miter;stroke-opacity:1" d="M 218.996,879.072 228.426,860.213 z" id="boundary" inkscape:connector-curvature="0" />
	<path style="fill:none;stroke:red;stroke-width:1px;stroke-linecap:butt;stroke-linejoin:miter;stroke-opacity:1" d="M 226.54,173.734 245.399,173.734 z" id="boundary" inkscape:connector-curvature="0" />
	<path style="fill:none;stroke:red;stroke-width:1px;stroke-linecap:butt;stroke-linejoin:miter;stroke-opacity:1" d="M 226.54,673.506 235.97,654.646 z" id="boundary" inkscape:connector-curvature="0" />
	<path style="fill:none;stroke:red;stroke-width:1px;stroke-linecap:butt;stroke-linejoin:miter;stroke-opacity:1" d="M 228.426,860.213 241.627,835.696 z" id="boundary" inkscape:connector-curvature="0" />
	<path style="fill:none;stroke:red;stroke-width:1px;stroke-linecap:butt;stroke-linejoin:miter;stroke-opacity:1" d="M 230.312,307.635 235.97,326.494 z" id="boundary" inkscape:connector-curvature="0" />
	<path style="fill:none;stroke:red;stroke-width:1px;stroke-linecap:butt;stroke-linejoin:miter;stroke-opacity:1" d="M 235.97,326.494 239.741,345.354 z" id="boundary" inkscape:connector-curvature="0" />
	<path style="fill:none;stroke:red;stroke-width:1px;stroke-linecap:butt;stroke-linejoin:miter;stroke-opacity:1" d="M 235.97,654.646 245.399,635.787 z" id="boundary" inkscape:connector-curvature="0" />
	<path style="fill:none;stroke:red;stroke-width:1px;stroke-linecap:butt;stroke-linejoin:miter;stroke-opacity:1" d="M 239.741,345.354 249.171,362.327 z" id="boundary" inkscape:connector-curvature="0" />
	<path style="fill:none;stroke:red;stroke-width:1px;stroke-linecap:butt;stroke-linejoin:miter;stroke-opacity:1" d="M 241.627,835.696 256.715,822.494 z" id="boundary" inkscape:connector-curvature="0" />
	<path style="fill:none;stroke:red;stroke-width:1px;stroke-linecap:butt;stroke-linejoin:miter;stroke-opacity:1" d="M 245.399,173.734 264.259,173.734 z" id="boundary" inkscape:connector-curvature="0" />
	<path style="fill:none;stroke:red;stroke-width:1px;stroke-linecap:butt;stroke-linejoin:miter;stroke-opacity:1" d="M 245.399,635.787 254.829,616.928 z" id="boundary" inkscape:connector-curvature="0" />
	<path style="fill:none;stroke:red;stroke-width:1px;stroke-linecap:butt;stroke-linejoin:miter;stroke-opacity:1" d="M 249.171,362.327 252.943,381.186 z" id="boundary" inkscape:connector-curvature="0" />
	<path style="fill:none;stroke:red;stroke-width:1px;stroke-linecap:butt;stroke-linejoin:miter;stroke-opacity:1" d="M 252.943,381.186 258.601,400.046 z" id="boundary" inkscape:connector-curvature="0" />
	<path style="fill:none;stroke:red;stroke-width:1px;stroke-linecap:butt;stroke-linejoin:miter;stroke-opacity:1" d="M 254.829,616.928 264.259,598.068 z" id="boundary" inkscape:connector-curvature="0" />
	<path style="fill:none;stroke:red;stroke-width:1px;stroke-linecap:butt;stroke-linejoin:miter;stroke-opacity:1" d="M 256.715,822.494 266.144,803.635 z" id="boundary" inkscape:connector-curvature="0" />
	<path style="fill:none;stroke:red;stroke-width:1px;stroke-linecap:butt;stroke-linejoin:miter;stroke-opacity:1" d="M 258.601,400.046 268.03,417.019 z" id="boundary" inkscape:connector-curvature="0" />
	<path style="fill:none;stroke:red;stroke-width:1px;stroke-linecap:butt;stroke-linejoin:miter;stroke-opacity:1" d="M 264.259,173.734 283.118,164.304 z" id="boundary" inkscape:connector-curvature="0" />
	<path style="fill:none;stroke:red;stroke-width:1px;stroke-linecap:butt;stroke-linejoin:miter;stroke-opacity:1" d="M 264.259,598.068 268.03,575.437 z" id="boundary" inkscape:connector-curvature="0" />
	<path style="fill:none;stroke:red;stroke-width:1px;stroke-linecap:butt;stroke-linejoin:miter;stroke-opacity:1" d="M 266.144,803.635 279.346,779.118 z" id="boundary" inkscape:connector-curvature="0" />
	<path style="fill:none;stroke:red;stroke-width:1px;stroke-linecap:butt;stroke-linejoin:miter;stroke-opacity:1" d="M 268.03,417.019 268.03,435.878 z" id="boundary" inkscape:connector-curvature="0" />
	<path style="fill:none;stroke:red;stroke-width:1px;stroke-linecap:butt;stroke-linejoin:miter;stroke-opacity:1" d="M 268.03,435.878 277.46,452.852 z" id="boundary" inkscape:connector-curvature="0" />
	<path style="fill:none;stroke:red;stroke-width:1px;stroke-linecap:butt;stroke-linejoin:miter;stroke-opacity:1" d="M 268.03,575.437 277.46,556.578 z" id="boundary" inkscape:connector-curvature="0" />
	<path style="fill:none;stroke:red;stroke-width:1px;stroke-linecap:butt;stroke-linejoin:miter;stroke-opacity:1" d="M 277.46,452.852 277.46,471.711 z" id="boundary" inkscape:connector-curvature="0" />
	<path style="fill:none;stroke:red;stroke-width:1px;stroke-linecap:butt;stroke-linejoin:miter;stroke-opacity:1" d="M 277.46,471.711 286.89,488.684 z" id="boundary" inkscape:connector-curvature="0" />
	<path style="fill:none;stroke:red;stroke-width:1px;stroke-linecap:butt;stroke-linejoin:miter;stroke-opacity:1" d="M 277.46,556.578 286.89,526.403 z" id="boundary" inkscape:connector-curvature="0" />
	<path style="fill:none;stroke:red;stroke-width:1px;stroke-linecap:butt;stroke-linejoin:miter;stroke-opacity:1" d="M 279.346,779.118 294.433,765.916 z" id="boundary" inkscape:connector-curvature="0" />
	<path style="fill:none;stroke:red;stroke-width:1px;stroke-linecap:butt;stroke-linejoin:miter;stroke-opacity:1" d="M 283.118,164.304 296.319,139.787 z" id="boundary" inkscape:connector-curvature="0" />
	<path style="fill:none;stroke:red;stroke-width:1px;stroke-linecap:butt;stroke-linejoin:miter;stroke-opacity:1" d="M 286.89,85.0951 286.89,103.954 z" id="boundary" inkscape:connector-curvature="0" />
	<path style="fill:none;stroke:red;stroke-width:1px;stroke-linecap:butt;stroke-linejoin:miter;stroke-opacity:1" d="M 286.89,85.0951 296.319,56.8061 z" id="boundary" inkscape:connector-curvature="0" />
	<path style="fill:none;stroke:red;stroke-width:1px;stroke-linecap:butt;stroke-linejoin:miter;stroke-opacity:1" d="M 286.89,103.954 296.319,120.928 z" id="boundary" inkscape:connector-curvature="0" />
	<path style="fill:none;stroke:red;stroke-width:1px;stroke-linecap:butt;stroke-linejoin:miter;stroke-opacity:1" d="M 286.89,488.684 286.89,507.544 z" id="boundary" inkscape:connector-curvature="0" />
	<path style="fill:none;stroke:red;stroke-width:1px;stroke-linecap:butt;stroke-linejoin:miter;stroke-opacity:1" d="M 286.89,507.544 286.89,526.403 z" id="boundary" inkscape:connector-curvature="0" />
	<path style="fill:none;stroke:red;stroke-width:1px;stroke-linecap:butt;stroke-linejoin:miter;stroke-opacity:1" d="M 294.433,765.916 303.863,747.057 z" id="boundary" inkscape:connector-curvature="0" />
	<path style="fill:none;stroke:red;stroke-width:1px;stroke-linecap:butt;stroke-linejoin:miter;stroke-opacity:1" d="M 296.319,56.8061 311.407,41.7186 z" id="boundary" inkscape:connector-curvature="0" />
	<path style="fill:none;stroke:red;stroke-width:1px;stroke-linecap:butt;stroke-linejoin:miter;stroke-opacity:1" d="M 296.319,120.928 296.319,139.787 z" id="boundary" inkscape:connector-curvature="0" />
	<path style="fill:none;stroke:red;stroke-width:1px;stroke-linecap:butt;stroke-linejoin:miter;stroke-opacity:1" d="M 303.863,747.057 313.293,728.198 z" id="boundary" inkscape:connector-curvature="0" />
	<path style="fill:none;stroke:red;stroke-width:1px;stroke-linecap:butt;stroke-linejoin:miter;stroke-opacity:1" d="M 311.407,41.7186 326.494,26.6312 z" id="boundary" inkscape:connector-curvature="0" />
	<path style="fill:none;stroke:red;stroke-width:1px;stroke-linecap:butt;stroke-linejoin:miter;stroke-opacity:1" d="M 313.293,728.198 326.494,703.681 z" id="boundary" inkscape:connector-curvature="0" />
	<path style="fill:none;stroke:red;stroke-width:1px;stroke-linecap:butt;stroke-linejoin:miter;stroke-opacity:1" d="M 326.494,26.6312 341.582,13.4297 z" id="boundary" inkscape:connector-curvature="0" />
	<path style="fill:none;stroke:red;stroke-width:1px;stroke-linecap:butt;stroke-linejoin:miter;stroke-opacity:1" d="M 326.494,703.681 335.924,684.821 z" id="boundary" inkscape:connector-curvature="0" />
	<path style="fill:none;stroke:red;stroke-width:1px;stroke-linecap:butt;stroke-linejoin:miter;stroke-opacity:1" d="M 335.924,684.821 351.011,671.62 z" id="boundary" inkscape:connector-curvature="0" />
	<path style="fill:none;stroke:red;stroke-width:1px;stroke-linecap:butt;stroke-linejoin:miter;stroke-opacity:1" d="M 341.582,13.4297 358.555,4 z" id="boundary" inkscape:connector-curvature="0" />
	<path style="fill:none;stroke:red;stroke-width:1px;stroke-linecap:butt;stroke-linejoin:miter;stroke-opacity:1" d="M 351.011,671.62 364.213,656.532 z" id="boundary" inkscape:connector-curvature="0" />
	<path style="fill:none;stroke:red;stroke-width:1px;stroke-linecap:butt;stroke-linejoin:miter;stroke-opacity:1" d="M 358.555,4 377.414,4 z" id="boundary" inkscape:connector-curvature="0" />
	<path style="fill:none;stroke:red;stroke-width:1px;stroke-linecap:butt;stroke-linejoin:miter;stroke-opacity:1" d="M 364.213,656.532 383.072,656.532 z" id="boundary" inkscape:connector-curvature="0" />
	<path style="fill:none;stroke:red;stroke-width:1px;stroke-linecap:butt;stroke-linejoin:miter;stroke-opacity:1" d="M 377.414,4 394.388,13.4297 z" id="boundary" inkscape:connector-curvature="0" />
	<path style="fill:none;stroke:red;stroke-width:1px;stroke-linecap:butt;stroke-linejoin:miter;stroke-opacity:1" d="M 383.072,656.532 400.046,665.962 z" id="boundary" inkscape:connector-curvature="0" />
	<path style="fill:none;stroke:red;stroke-width:1px;stroke-linecap:butt;stroke-linejoin:miter;stroke-opacity:1" d="M 394.388,13.4297 411.361,22.8593 z" id="boundary" inkscape:connector-curvature="0" />
	<path style="fill:none;stroke:red;stroke-width:1px;stroke-linecap:butt;stroke-linejoin:miter;stroke-opacity:1" d="M 400.046,665.962 405.703,684.821 z" id="boundary" inkscape:connector-curvature="0" />
	<path style="fill:none;stroke:red;stroke-width:1px;stroke-linecap:butt;stroke-linejoin:miter;stroke-opacity:1" d="M 405.703,684.821 420.791,698.023 z" id="boundary" inkscape:connector-curvature="0" />
	<path style="fill:none;stroke:red;stroke-width:1px;stroke-linecap:butt;stroke-linejoin:miter;stroke-opacity:1" d="M 411.361,22.8593 420.791,39.8327 z" id="boundary" inkscape:connector-curvature="0" />
	<path style="fill:none;stroke:red;stroke-width:1px;stroke-linecap:butt;stroke-linejoin:miter;stroke-opacity:1" d="M 420.791,39.8327 435.878,53.0342 z" id="boundary" inkscape:connector-curvature="0" />
	<path style="fill:none;stroke:red;stroke-width:1px;stroke-linecap:butt;stroke-linejoin:miter;stroke-opacity:1" d="M 420.791,698.023 433.992,713.11 z" id="boundary" inkscape:connector-curvature="0" />
	<path style="fill:none;stroke:red;stroke-width:1px;stroke-linecap:butt;stroke-linejoin:miter;stroke-opacity:1" d="M 433.992,713.11 449.08,726.312 z" id="boundary" inkscape:connector-curvature="0" />
	<path style="fill:none;stroke:red;stroke-width:1px;stroke-linecap:butt;stroke-linejoin:miter;stroke-opacity:1" d="M 435.878,53.0342 439.65,71.8935 z" id="boundary" inkscape:connector-curvature="0" />
	<path style="fill:none;stroke:red;stroke-width:1px;stroke-linecap:butt;stroke-linejoin:miter;stroke-opacity:1" d="M 439.65,71.8935 449.08,88.8669 z" id="boundary" inkscape:connector-curvature="0" />
	<path style="fill:none;stroke:red;stroke-width:1px;stroke-linecap:butt;stroke-linejoin:miter;stroke-opacity:1" d="M 439.65,128.471 439.65,147.331 z" id="boundary" inkscape:connector-curvature="0" />
	<path style="fill:none;stroke:red;stroke-width:1px;stroke-linecap:butt;stroke-linejoin:miter;stroke-opacity:1" d="M 439.65,128.471 449.08,107.726 z" id="boundary" inkscape:connector-curvature="0" />
	<path style="fill:none;stroke:red;stroke-width:1px;stroke-linecap:butt;stroke-linejoin:miter;stroke-opacity:1" d="M 439.65,147.331 449.08,164.304 z" id="boundary" inkscape:connector-curvature="0" />
	<path style="fill:none;stroke:red;stroke-width:1px;stroke-linecap:butt;stroke-linejoin:miter;stroke-opacity:1" d="M 449.08,88.8669 449.08,107.726 z" id="boundary" inkscape:connector-curvature="0" />
	<path style="fill:none;stroke:red;stroke-width:1px;stroke-linecap:butt;stroke-linejoin:miter;stroke-opacity:1" d="M 449.08,164.304 449.08,183.163 z" id="boundary" inkscape:connector-curvature="0" />
	<path style="fill:none;stroke:red;stroke-width:1px;stroke-linecap:butt;stroke-linejoin:miter;stroke-opacity:1" d="M 449.08,183.163 467.939,183.163 z" id="boundary" inkscape:connector-curvature="0" />
	<path style="fill:none;stroke:red;stroke-width:1px;stroke-linecap:butt;stroke-linejoin:miter;stroke-opacity:1" d="M 449.08,726.312 462.281,741.399 z" id="boundary" inkscape:connector-curvature="0" />
	<path style="fill:none;stroke:red;stroke-width:1px;stroke-linecap:butt;stroke-linejoin:miter;stroke-opacity:1" d="M 458.51,486.798 458.51,505.658 z" id="boundary" inkscape:connector-curvature="0" />
	<path style="fill:none;stroke:red;stroke-width:1px;stroke-linecap:butt;stroke-linejoin:miter;stroke-opacity:1" d="M 458.51,486.798 467.939,467.939 z" id="boundary" inkscape:connector-curvature="0" />
	<path style="fill:none;stroke:red;stroke-width:1px;stroke-linecap:butt;stroke-linejoin:miter;stroke-opacity:1" d="M 458.51,505.658 458.51,524.517 z" id="boundary" inkscape:connector-curvature="0" />
	<path style="fill:none;stroke:red;stroke-width:1px;stroke-linecap:butt;stroke-linejoin:miter;stroke-opacity:1" d="M 458.51,524.517 462.281,543.376 z" id="boundary" inkscape:connector-curvature="0" />
	<path style="fill:none;stroke:red;stroke-width:1px;stroke-linecap:butt;stroke-linejoin:miter;stroke-opacity:1" d="M 462.281,543.376 467.939,562.236 z" id="boundary" inkscape:connector-curvature="0" />
	<path style="fill:none;stroke:red;stroke-width:1px;stroke-linecap:butt;stroke-linejoin:miter;stroke-opacity:1" d="M 462.281,741.399 471.711,758.373 z" id="boundary" inkscape:connector-curvature="0" />
	<path style="fill:none;stroke:red;stroke-width:1px;stroke-linecap:butt;stroke-linejoin:miter;stroke-opacity:1" d="M 467.939,183.163 486.798,183.163 z" id="boundary" inkscape:connector-curvature="0" />
	<path style="fill:none;stroke:red;stroke-width:1px;stroke-linecap:butt;stroke-linejoin:miter;stroke-opacity:1" d="M 467.939,449.08 467.939,467.939 z" id="boundary" inkscape:connector-curvature="0" />
	<path style="fill:none;stroke:red;stroke-width:1px;stroke-linecap:butt;stroke-linejoin:miter;stroke-opacity:1" d="M 467.939,449.08 477.369,420.791 z" id="boundary" inkscape:connector-curvature="0" />
	<path style="fill:none;stroke:red;stroke-width:1px;stroke-linecap:butt;stroke-linejoin:miter;stroke-opacity:1" d="M 467.939,562.236 477.369,579.209 z" id="boundary" inkscape:connector-curvature="0" />
	<path style="fill:none;stroke:red;stroke-width:1px;stroke-linecap:butt;stroke-linejoin:miter;stroke-opacity:1" d="M 471.711,758.373 484.913,773.46 z" id="boundary" inkscape:connector-curvature="0" />
	<path style="fill:none;stroke:red;stroke-width:1px;stroke-linecap:butt;stroke-linejoin:miter;stroke-opacity:1" d="M 477.369,401.932 477.369,420.791 z" id="boundary" inkscape:connector-curvature="0" />
	<path style="fill:none;stroke:red;stroke-width:1px;stroke-linecap:butt;stroke-linejoin:miter;stroke-opacity:1" d="M 477.369,401.932 486.798,373.643 z" id="boundary" inkscape:connector-curvature="0" />
	<path style="fill:none;stroke:red;stroke-width:1px;stroke-linecap:butt;stroke-linejoin:miter;stroke-opacity:1" d="M 477.369,579.209 486.798,596.183 z" id="boundary" inkscape:connector-curvature="0" />
	<path style="fill:none;stroke:red;stroke-width:1px;stroke-linecap:butt;stroke-linejoin:miter;stroke-opacity:1" d="M 484.913,773.46 494.342,790.433 z" id="boundary" inkscape:connector-curvature="0" />
	<path style="fill:none;stroke:red;stroke-width:1px;stroke-linecap:butt;stroke-linejoin:miter;stroke-opacity:1" d="M 486.798,183.163 505.658,183.163 z" id="boundary" inkscape:connector-curvature="0" />
	<path style="fill:none;stroke:red;stroke-width:1px;stroke-linecap:butt;stroke-linejoin:miter;stroke-opacity:1" d="M 486.798,354.783 486.798,373.643 z" id="boundary" inkscape:connector-curvature="0" />
	<path style="fill:none;stroke:red;stroke-width:1px;stroke-linecap:butt;stroke-linejoin:miter;stroke-opacity:1" d="M 486.798,354.783 496.228,326.494 z" id="boundary" inkscape:connector-curvature="0" />
	<path style="fill:none;stroke:red;stroke-width:1px;stroke-linecap:butt;stroke-linejoin:miter;stroke-opacity:1" d="M 486.798,596.183 496.228,613.156 z" id="boundary" inkscape:connector-curvature="0" />
	<path style="fill:none;stroke:red;stroke-width:1px;stroke-linecap:butt;stroke-linejoin:miter;stroke-opacity:1" d="M 494.342,790.433 513.202,797.977 z" id="boundary" inkscape:connector-curvature="0" />
	<path style="fill:none;stroke:red;stroke-width:1px;stroke-linecap:butt;stroke-linejoin:miter;stroke-opacity:1" d="M 496.228,288.776 496.228,307.635 z" id="boundary" inkscape:connector-curvature="0" />
	<path style="fill:none;stroke:red;stroke-width:1px;stroke-linecap:butt;stroke-linejoin:miter;stroke-opacity:1" d="M 496.228,288.776 515.087,279.346 z" id="boundary" inkscape:connector-curvature="0" />
	<path style="fill:none;stroke:red;stroke-width:1px;stroke-linecap:butt;stroke-linejoin:miter;stroke-opacity:1" d="M 496.228,307.635 496.228,326.494 z" id="boundary" inkscape:connector-curvature="0" />
	<path style="fill:none;stroke:red;stroke-width:1px;stroke-linecap:butt;stroke-linejoin:miter;stroke-opacity:1" d="M 496.228,613.156 503.772,632.015 z" id="boundary" inkscape:connector-curvature="0" />
	<path style="fill:none;stroke:red;stroke-width:1px;stroke-linecap:butt;stroke-linejoin:miter;stroke-opacity:1" d="M 503.772,632.015 515.087,647.103 z" id="boundary" inkscape:connector-curvature="0" />
	<path style="fill:none;stroke:red;stroke-width:1px;stroke-linecap:butt;stroke-linejoin:miter;stroke-opacity:1" d="M 505.658,183.163 524.517,183.163 z" id="boundary" inkscape:connector-curvature="0" />
	<path style="fill:none;stroke:red;stroke-width:1px;stroke-linecap:butt;stroke-linejoin:miter;stroke-opacity:1" d="M 513.202,797.977 518.859,816.837 z" id="boundary" inkscape:connector-curvature="0" />
	<path style="fill:none;stroke:red;stroke-width:1px;stroke-linecap:butt;stroke-linejoin:miter;stroke-opacity:1" d="M 515.087,279.346 533.947,283.118 z" id="boundary" inkscape:connector-curvature="0" />
	<path style="fill:none;stroke:red;stroke-width:1px;stroke-linecap:butt;stroke-linejoin:miter;stroke-opacity:1" d="M 515.087,647.103 524.517,664.076 z" id="boundary" inkscape:connector-curvature="0" />
	<path style="fill:none;stroke:red;stroke-width:1px;stroke-linecap:butt;stroke-linejoin:miter;stroke-opacity:1" d="M 518.859,816.837 533.947,830.038 z" id="boundary" inkscape:connector-curvature="0" />
	<path style="fill:none;stroke:red;stroke-width:1px;stroke-linecap:butt;stroke-linejoin:miter;stroke-opacity:1" d="M 524.517,183.163 541.49,192.593 z" id="boundary" inkscape:connector-curvature="0" />
	<path style="fill:none;stroke:red;stroke-width:1px;stroke-linecap:butt;stroke-linejoin:miter;stroke-opacity:1" d="M 524.517,664.076 533.947,681.049 z" id="boundary" inkscape:connector-curvature="0" />
	<path style="fill:none;stroke:red;stroke-width:1px;stroke-linecap:butt;stroke-linejoin:miter;stroke-opacity:1" d="M 533.947,283.118 550.92,292.548 z" id="boundary" inkscape:connector-curvature="0" />
	<path style="fill:none;stroke:red;stroke-width:1px;stroke-linecap:butt;stroke-linejoin:miter;stroke-opacity:1" d="M 533.947,681.049 549.034,694.251 z" id="boundary" inkscape:connector-curvature="0" />
	<path style="fill:none;stroke:red;stroke-width:1px;stroke-linecap:butt;stroke-linejoin:miter;stroke-opacity:1" d="M 533.947,830.038 547.148,845.125 z" id="boundary" inkscape:connector-curvature="0" />
	<path style="fill:none;stroke:red;stroke-width:1px;stroke-linecap:butt;stroke-linejoin:miter;stroke-opacity:1" d="M 541.49,192.593 556.578,203.909 z" id="boundary" inkscape:connector-curvature="0" />
	<path style="fill:none;stroke:red;stroke-width:1px;stroke-linecap:butt;stroke-linejoin:miter;stroke-opacity:1" d="M 547.148,845.125 556.578,862.099 z" id="boundary" inkscape:connector-curvature="0" />
	<path style="fill:none;stroke:red;stroke-width:1px;stroke-linecap:butt;stroke-linejoin:miter;stroke-opacity:1" d="M 549.034,694.251 556.578,713.11 z" id="boundary" inkscape:connector-curvature="0" />
	<path style="fill:none;stroke:red;stroke-width:1px;stroke-linecap:butt;stroke-linejoin:miter;stroke-opacity:1" d="M 550.92,292.548 566.008,305.749 z" id="boundary" inkscape:connector-curvature="0" />
	<path style="fill:none;stroke:red;stroke-width:1px;stroke-linecap:butt;stroke-linejoin:miter;stroke-opacity:1" d="M 556.578,203.909 571.665,217.11 z" id="boundary" inkscape:connector-curvature="0" />
	<path style="fill:none;stroke:red;stroke-width:1px;stroke-linecap:butt;stroke-linejoin:miter;stroke-opacity:1" d="M 556.578,713.11 571.665,726.312 z" id="boundary" inkscape:connector-curvature="0" />
	<path style="fill:none;stroke:red;stroke-width:1px;stroke-linecap:butt;stroke-linejoin:miter;stroke-opacity:1" d="M 556.578,862.099 569.779,877.186 z" id="boundary" inkscape:connector-curvature="0" />
	<path style="fill:none;stroke:red;stroke-width:1px;stroke-linecap:butt;stroke-linejoin:miter;stroke-opacity:1" d="M 566.008,305.749 582.981,315.179 z" id="boundary" inkscape:connector-curvature="0" />
	<path style="fill:none;stroke:red;stroke-width:1px;stroke-linecap:butt;stroke-linejoin:miter;stroke-opacity:1" d="M 569.779,877.186 581.095,892.274 z" id="boundary" inkscape:connector-curvature="0" />
	<path style="fill:none;stroke:red;stroke-width:1px;stroke-linecap:butt;stroke-linejoin:miter;stroke-opacity:1" d="M 571.665,217.11 584.867,232.198 z" id="boundary" inkscape:connector-curvature="0" />
	<path style="fill:none;stroke:red;stroke-width:1px;stroke-linecap:butt;stroke-linejoin:miter;stroke-opacity:1" d="M 571.665,726.312 581.095,743.285 z" id="boundary" inkscape:connector-curvature="0" />
	<path style="fill:none;stroke:red;stroke-width:1px;stroke-linecap:butt;stroke-linejoin:miter;stroke-opacity:1" d="M 581.095,743.285 592.411,758.373 z" id="boundary" inkscape:connector-curvature="0" />
	<path style="fill:none;stroke:red;stroke-width:1px;stroke-linecap:butt;stroke-linejoin:miter;stroke-opacity:1" d="M 581.095,892.274 598.068,901.703 z" id="boundary" inkscape:connector-curvature="0" />
	<path style="fill:none;stroke:red;stroke-width:1px;stroke-linecap:butt;stroke-linejoin:miter;stroke-opacity:1" d="M 582.981,315.179 601.84,322.722 z" id="boundary" inkscape:connector-curvature="0" />
	<path style="fill:none;stroke:red;stroke-width:1px;stroke-linecap:butt;stroke-linejoin:miter;stroke-opacity:1" d="M 584.867,232.198 599.954,245.399 z" id="boundary" inkscape:connector-curvature="0" />
	<path style="fill:none;stroke:red;stroke-width:1px;stroke-linecap:butt;stroke-linejoin:miter;stroke-opacity:1" d="M 592.411,758.373 607.498,771.574 z" id="boundary" inkscape:connector-curvature="0" />
	<path style="fill:none;stroke:red;stroke-width:1px;stroke-linecap:butt;stroke-linejoin:miter;stroke-opacity:1" d="M 598.068,901.703 603.726,920.563 z" id="boundary" inkscape:connector-curvature="0" />
	<path style="fill:none;stroke:red;stroke-width:1px;stroke-linecap:butt;stroke-linejoin:miter;stroke-opacity:1" d="M 599.954,245.399 613.156,260.487 z" id="boundary" inkscape:connector-curvature="0" />
	<path style="fill:none;stroke:red;stroke-width:1px;stroke-linecap:butt;stroke-linejoin:miter;stroke-opacity:1" d="M 601.84,322.722 616.928,335.924 z" id="boundary" inkscape:connector-curvature="0" />
	<path style="fill:none;stroke:red;stroke-width:1px;stroke-linecap:butt;stroke-linejoin:miter;stroke-opacity:1" d="M 603.726,920.563 618.814,933.764 z" id="boundary" inkscape:connector-curvature="0" />
	<path style="fill:none;stroke:red;stroke-width:1px;stroke-linecap:butt;stroke-linejoin:miter;stroke-opacity:1" d="M 607.498,771.574 615.042,790.433 z" id="boundary" inkscape:connector-curvature="0" />
	<path style="fill:none;stroke:red;stroke-width:1px;stroke-linecap:butt;stroke-linejoin:miter;stroke-opacity:1" d="M 613.156,260.487 628.243,273.688 z" id="boundary" inkscape:connector-curvature="0" />
	<path style="fill:none;stroke:red;stroke-width:1px;stroke-linecap:butt;stroke-linejoin:miter;stroke-opacity:1" d="M 615.042,790.433 624.471,807.407 z" id="boundary" inkscape:connector-curvature="0" />
	<path style="fill:none;stroke:red;stroke-width:1px;stroke-linecap:butt;stroke-linejoin:miter;stroke-opacity:1" d="M 616.928,335.924 633.901,345.354 z" id="boundary" inkscape:connector-curvature="0" />
	<path style="fill:none;stroke:red;stroke-width:1px;stroke-linecap:butt;stroke-linejoin:miter;stroke-opacity:1" d="M 618.814,933.764 632.015,948.852 z" id="boundary" inkscape:connector-curvature="0" />
	<path style="fill:none;stroke:red;stroke-width:1px;stroke-linecap:butt;stroke-linejoin:miter;stroke-opacity:1" d="M 624.471,807.407 637.673,822.494 z" id="boundary" inkscape:connector-curvature="0" />
	<path style="fill:none;stroke:red;stroke-width:1px;stroke-linecap:butt;stroke-linejoin:miter;stroke-opacity:1" d="M 628.243,273.688 641.445,288.776 z" id="boundary" inkscape:connector-curvature="0" />
	<path style="fill:none;stroke:red;stroke-width:1px;stroke-linecap:butt;stroke-linejoin:miter;stroke-opacity:1" d="M 632.015,948.852 647.103,962.053 z" id="boundary" inkscape:connector-curvature="0" />
	<path style="fill:none;stroke:red;stroke-width:1px;stroke-linecap:butt;stroke-linejoin:miter;stroke-opacity:1" d="M 633.901,345.354 652.76,341.582 z" id="boundary" inkscape:connector-curvature="0" />
	<path style="fill:none;stroke:red;stroke-width:1px;stroke-linecap:butt;stroke-linejoin:miter;stroke-opacity:1" d="M 637.673,822.494 647.103,839.468 z" id="boundary" inkscape:connector-curvature="0" />
	<path style="fill:none;stroke:red;stroke-width:1px;stroke-linecap:butt;stroke-linejoin:miter;stroke-opacity:1" d="M 641.445,288.776 656.532,301.977 z" id="boundary" inkscape:connector-curvature="0" />
	<path style="fill:none;stroke:red;stroke-width:1px;stroke-linecap:butt;stroke-linejoin:miter;stroke-opacity:1" d="M 647.103,839.468 656.532,856.441 z" id="boundary" inkscape:connector-curvature="0" />
	<path style="fill:none;stroke:red;stroke-width:1px;stroke-linecap:butt;stroke-linejoin:miter;stroke-opacity:1" d="M 647.103,962.053 664.076,971.483 z" id="boundary" inkscape:connector-curvature="0" />
	<path style="fill:none;stroke:red;stroke-width:1px;stroke-linecap:butt;stroke-linejoin:miter;stroke-opacity:1" d="M 652.76,341.582 664.076,320.837 z" id="boundary" inkscape:connector-curvature="0" />
	<path style="fill:none;stroke:red;stroke-width:1px;stroke-linecap:butt;stroke-linejoin:miter;stroke-opacity:1" d="M 656.532,301.977 664.076,320.837 z" id="boundary" inkscape:connector-curvature="0" />
	<path style="fill:none;stroke:red;stroke-width:1px;stroke-linecap:butt;stroke-linejoin:miter;stroke-opacity:1" d="M 656.532,856.441 667.848,871.529 z" id="boundary" inkscape:connector-curvature="0" />
	<path style="fill:none;stroke:red;stroke-width:1px;stroke-linecap:butt;stroke-linejoin:miter;stroke-opacity:1" d="M 664.076,971.483 679.163,984.684 z" id="boundary" inkscape:connector-curvature="0" />
	<path style="fill:none;stroke:red;stroke-width:1px;stroke-linecap:butt;stroke-linejoin:miter;stroke-opacity:1" d="M 667.848,871.529 675.392,890.388 z" id="boundary" inkscape:connector-curvature="0" />
	<path style="fill:none;stroke:red;stroke-width:1px;stroke-linecap:butt;stroke-linejoin:miter;stroke-opacity:1" d="M 675.392,890.388 690.479,901.703 z" id="boundary" inkscape:connector-curvature="0" />
	<path style="fill:none;stroke:red;stroke-width:1px;stroke-linecap:butt;stroke-linejoin:miter;stroke-opacity:1" d="M 679.163,984.684 698.023,986.57 z" id="boundary" inkscape:connector-curvature="0" />
	<path style="fill:none;stroke:red;stroke-width:1px;stroke-linecap:butt;stroke-linejoin:miter;stroke-opacity:1" d="M 690.479,901.703 698.023,920.563 z" id="boundary" inkscape:connector-curvature="0" />
	<path style="fill:none;stroke:red;stroke-width:1px;stroke-linecap:butt;stroke-linejoin:miter;stroke-opacity:1" d="M 698.023,920.563 703.681,939.422 z" id="boundary" inkscape:connector-curvature="0" />
	<path style="fill:none;stroke:red;stroke-width:1px;stroke-linecap:butt;stroke-linejoin:miter;stroke-opacity:1" d="M 698.023,986.57 713.11,975.255 z" id="boundary" inkscape:connector-curvature="0" />
	<path style="fill:none;stroke:red;stroke-width:1px;stroke-linecap:butt;stroke-linejoin:miter;stroke-opacity:1" d="M 703.681,939.422 713.11,956.395 z" id="boundary" inkscape:connector-curvature="0" />
	<path style="fill:none;stroke:red;stroke-width:1px;stroke-linecap:butt;stroke-linejoin:miter;stroke-opacity:1" d="M 713.11,956.395 713.11,975.255 z" id="boundary" inkscape:connector-curvature="0" />
	<circle cx="4" cy="424.563" r="4" fill="#0" id="circle0"/>
	<circle cx="13.4297" cy="405.703" r="4" fill="#0" id="circle1"/>
	<circle cx="19.0875" cy="437.764" r="4" fill="#0" id="circle2"/>
	<circle cx="22.8593" cy="386.844" r="4" fill="#0" id="circle3"/>
	<circle cx="34.1749" cy="449.08" r="4" fill="#0" id="circle4"/>
	<circle cx="37.9468" cy="371.757" r="4" fill="#0" id="circle5"/>
	<circle cx="47.3764" cy="352.897" r="4" fill="#0" id="circle6"/>
	<circle cx="49.2624" cy="435.878" r="4" fill="#0" id="circle7"/>
	<circle cx="62.4639" cy="337.81" r="4" fill="#0" id="circle8"/>
	<circle cx="62.4639" cy="420.791" r="4" fill="#0" id="circle9"/>
	<circle cx="71.8935" cy="318.951" r="4" fill="#0" id="circle10"/>
	<circle cx="77.5513" cy="407.589" r="4" fill="#0" id="circle11"/>
	<circle cx="86.981" cy="305.749" r="4" fill="#0" id="circle12"/>
	<circle cx="94.5247" cy="286.89" r="4" fill="#0" id="circle13"/>
	<circle cx="96.4106" cy="398.16" r="4" fill="#0" id="circle14"/>
	<circle cx="98.2966" cy="924.335" r="4" fill="#0" id="circle15"/>
	<circle cx="98.2966" cy="943.194" r="4" fill="#0" id="circle16"/>
	<circle cx="98.2966" cy="962.053" r="4" fill="#0" id="circle17"/>
	<circle cx="98.2966" cy="980.913" r="4" fill="#0" id="circle18"/>
	<circle cx="107.726" cy="896.046" r="4" fill="#0" id="circle19"/>
	<circle cx="109.612" cy="271.802" r="4" fill="#0" id="circle20"/>
	<circle cx="109.612" cy="383.072" r="4" fill="#0" id="circle21"/>
	<circle cx="109.612" cy="996" r="4" fill="#0" id="circle22"/>
	<circle cx="119.042" cy="252.943" r="4" fill="#0" id="circle23"/>
	<circle cx="122.814" cy="880.958" r="4" fill="#0" id="circle24"/>
	<circle cx="124.7" cy="369.871" r="4" fill="#0" id="circle25"/>
	<circle cx="128.471" cy="234.084" r="4" fill="#0" id="circle26"/>
	<circle cx="128.471" cy="986.57" r="4" fill="#0" id="circle27"/>
	<circle cx="132.243" cy="862.099" r="4" fill="#0" id="circle28"/>
	<circle cx="137.901" cy="354.783" r="4" fill="#0" id="circle29"/>
	<circle cx="141.673" cy="843.24" r="4" fill="#0" id="circle30"/>
	<circle cx="143.559" cy="220.882" r="4" fill="#0" id="circle31"/>
	<circle cx="145.445" cy="977.141" r="4" fill="#0" id="circle32"/>
	<circle cx="151.103" cy="824.38" r="4" fill="#0" id="circle33"/>
	<circle cx="152.989" cy="341.582" r="4" fill="#0" id="circle34"/>
	<circle cx="156.76" cy="958.281" r="4" fill="#0" id="circle35"/>
	<circle cx="160.532" cy="211.452" r="4" fill="#0" id="circle36"/>
	<circle cx="160.532" cy="805.521" r="4" fill="#0" id="circle37"/>
	<circle cx="162.418" cy="322.722" r="4" fill="#0" id="circle38"/>
	<circle cx="164.304" cy="782.89" r="4" fill="#0" id="circle39"/>
	<circle cx="171.848" cy="945.08" r="4" fill="#0" id="circle40"/>
	<circle cx="173.734" cy="764.03" r="4" fill="#0" id="circle41"/>
	<circle cx="175.62" cy="196.365" r="4" fill="#0" id="circle42"/>
	<circle cx="181.278" cy="313.293" r="4" fill="#0" id="circle43"/>
	<circle cx="185.049" cy="929.992" r="4" fill="#0" id="circle44"/>
	<circle cx="188.821" cy="748.943" r="4" fill="#0" id="circle45"/>
	<circle cx="190.707" cy="183.163" r="4" fill="#0" id="circle46"/>
	<circle cx="194.479" cy="298.205" r="4" fill="#0" id="circle47"/>
	<circle cx="194.479" cy="911.133" r="4" fill="#0" id="circle48"/>
	<circle cx="198.251" cy="730.084" r="4" fill="#0" id="circle49"/>
	<circle cx="203.909" cy="892.274" r="4" fill="#0" id="circle50"/>
	<circle cx="207.681" cy="711.224" r="4" fill="#0" id="circle51"/>
	<circle cx="209.567" cy="183.163" r="4" fill="#0" id="circle52"/>
	<circle cx="213.338" cy="298.205" r="4" fill="#0" id="circle53"/>
	<circle cx="217.11" cy="692.365" r="4" fill="#0" id="circle54"/>
	<circle cx="218.996" cy="879.072" r="4" fill="#0" id="circle55"/>
	<circle cx="226.54" cy="173.734" r="4" fill="#0" id="circle56"/>
	<circle cx="226.54" cy="673.506" r="4" fill="#0" id="circle57"/>
	<circle cx="228.426" cy="860.213" r="4" fill="#0" id="circle58"/>
	<circle cx="230.312" cy="307.635" r="4" fill="#0" id="circle59"/>
	<circle cx="235.97" cy="326.494" r="4" fill="#0" id="circle60"/>
	<circle cx="235.97" cy="654.646" r="4" fill="#0" id="circle61"/>
	<circle cx="239.741" cy="345.354" r="4" fill="#0" id="circle62"/>
	<circle cx="241.627" cy="835.696" r="4" fill="#0" id="circle63"/>
	<circle cx="245.399" cy="173.734" r="4" fill="#0" id="circle64"/>
	<circle cx="245.399" cy="635.787" r="4" fill="#0" id="circle65"/>
	<circle cx="249.171" cy="362.327" r="4" fill="#0" id="circle66"/>
	<circle cx="252.943" cy="381.186" r="4" fill="#0" id="circle67"/>
	<circle cx="254.829" cy="616.928" r="4" fill="#0" id="circle68"/>
	<circle cx="256.715" cy="822.494" r="4" fill="#0" id="circle69"/>
	<circle cx="258.601" cy="400.046" r="4" fill="#0" id="circle70"/>
	<circle cx="264.259" cy="173.734" r="4" fill="#0" id="circle71"/>
	<circle cx="264.259" cy="598.068" r="4" fill="#0" id="circle72"/>
	<circle cx="266.144" cy="803.635" r="4" fill="#0" id="circle73"/>
	<circle cx="268.03" cy="417.019" r="4" fill="#0" id="circle74"/>
	<circle cx="268.03" cy="435.878" r="4" fill="#0" id="circle75"/>
	<circle cx="268.03" cy="575.437" r="4" fill="#0" id="circle76"/>
	<circle cx="277.46" cy="452.852" r="4" fill="#0" id="circle77"/>
	<circle cx="277.46" cy="471.711" r="4" fill="#0" id="circle78"/>
	<circle cx="277.46" cy="556.578" r="4" fill="#0" id="circle79"/>
	<circle cx="279.346" cy="779.118" r="4" fill="#0" id="circle80"/>
	<circle cx="283.118" cy="164.304" r="4" fill="#0" id="circle81"/>
	<circle cx="286.89" cy="85.0951" r="4" fill="#0" id="circle82"/>
	<circle cx="286.89" cy="103.954" r="4" fill="#0" id="circle83"/>
	<circle cx="286.89" cy="488.684" r="4" fill="#0" id="circle84"/>
	<circle cx="286.89" cy="507.544" r="4" fill="#0" id="circle85"/>
	<circle cx="286.89" cy="526.403" r="4" fill="#0" id="circle86"/>
	<circle cx="294.433" cy="765.916" r="4" fill="#0" id="circle87"/>
	<circle cx="296.319" cy="56.8061" r="4" fill="#0" id="circle88"/>
	<circle cx="296.319" cy="120.928" r="4" fill="#0" id="circle89"/>
	<circle cx="296.319" cy="139.787" r="4" fill="#0" id="circle90"/>
	<circle cx="303.863" cy="747.057" r="4" fill="#0" id="circle91"/>
	<circle cx="311.407" cy="41.7186" r="4" fill="#0" id="circle92"/>
	<circle cx="313.293" cy="728.198" r="4" fill="#0" id="circle93"/>
	<circle cx="326.494" cy="26.6312" r="4" fill="#0" id="circle94"/>
	<circle cx="326.494" cy="703.681" r="4" fill="#0" id="circle95"/>
	<circle cx="335.924" cy="684.821" r="4" fill="#0" id="circle96"/>
	<circle cx="341.582" cy="13.4297" r="4" fill="#0" id="circle97"/>
	<circle cx="351.011" cy="671.62" r="4" fill="#0" id="circle98"/>
	<circle cx="358.555" cy="4" r="4" fill="#0" id="circle99"/>
	<circle cx="364.213" cy="656.532" r="4" fill="#0" id="circle100"/>
	<circle cx="377.414" cy="4" r="4" fill="#0" id="circle101"/>
	<circle cx="383.072" cy="656.532" r="4" fill="#0" id="circle102"/>
	<circle cx="394.388" cy="13.4297" r="4" fill="#0" id="circle103"/>
	<circle cx="400.046" cy="665.962" r="4" fill="#0" id="circle104"/>
	<circle cx="405.703" cy="684.821" r="4" fill="#0" id="circle105"/>
	<circle cx="411.361" cy="22.8593" r="4" fill="#0" id="circle106"/>
	<circle cx="420.791" cy="39.8327" r="4" fill="#0" id="circle107"/>
	<circle cx="420.791" cy="698.023" r="4" fill="#0" id="circle108"/>
	<circle cx="433.992" cy="713.11" r="4" fill="#0" id="circle109"/>
	<circle cx="435.878" cy="53.0342" r="4" fill="#0" id="circle110"/>
	<circle cx="439.65" cy="71.8935" r="4" fill="#0" id="circle111"/>
	<circle cx="439.65" cy="128.471" r="4" fill="#0" id="circle112"/>
	<circle cx="439.65" cy="147.331" r="4" fill="#0" id="circle113"/>
	<circle cx="449.08" cy="88.8669" r="4" fill="#0" id="circle114"/>
	<circle cx="449.08" cy="107.726" r="4" fill="#0" id="circle115"/>
	<circle cx="449.08" cy="164.304" r="4" fill="#0" id="circle116"/>
	<circle cx="449.08" cy="183.163" r="4" fill="#0" id="circle117"/>
	<circle cx="449.08" cy="726.312" r="4" fill="#0" id="circle118"/>
	<circle cx="458.51" cy="486.798" r="4" fill="#0" id="circle119"/>
	<circle cx="458.51" cy="505.658" r="4" fill="#0" id="circle120"/>
	<circle cx="458.51" cy="524.517" r="4" fill="#0" id="circle121"/>
	<circle cx="462.281" cy="543.376" r="4" fill="#0" id="circle122"/>
	<circle cx="462.281" cy="741.399" r="4" fill="#0" id="circle123"/>
	<circle cx="467.939" cy="183.163" r="4" fill="#0" id="circle124"/>
	<circle cx="467.939" cy="449.08" r="4" fill="#0" id="circle125"/>
	<circle cx="467.939" cy="467.939" r="4" fill="#0" id="circle126"/>
	<circle cx="467.939" cy="562.236" r="4" fill="#0" id="circle127"/>
	<circle cx="471.711" cy="758.373" r="4" fill="#0" id="circle128"/>
	<circle cx="477.369" cy="401.932" r="4" fill="#0" id="circle129"/>
	<circle cx="477.369" cy="420.791" r="4" fill="#0" id="circle130"/>
	<circle cx="477.369" cy="579.209" r="4" fill="#0" id="circle131"/>
	<circle cx="484.913" cy="773.46" r="4" fill="#0" id="circle132"/>
	<circle cx="486.798" cy="183.163" r="4" fill="#0" id="circle133"/>
	<circle cx="486.798" cy="354.783" r="4" fill="#0" id="circle134"/>
	<circle cx="486.798" cy="373.643" r="4" fill="#0" id="circle135"/>
	<circle cx="486.798" cy="596.183" r="4" fill="#0" id="circle136"/>
	<circle cx="494.342" cy="790.433" r="4" fill="#0" id="circle137"/>
	<circle cx="496.228" cy="288.776" r="4" fill="#0" id="circle138"/>
	<circle cx="496.228" cy="307.635" r="4" fill="#0" id="circle139"/>
	<circle cx="496.228" cy="326.494" r="4" fill="#0" id="circle140"/>
	<circle cx="496.228" cy="613.156" r="4" fill="#0" id="circle141"/>
	<circle cx="503.772" cy="632.015" r="4" fill="#0" id="circle142"/>
	<circle cx="505.658" cy="183.163" r="4" fill="#0" id="circle143"/>
	<circle cx="513.202" cy="797.977" r="4" fill="#0" id="circle144"/>
	<circle cx="515.087" cy="279.346" r="4" fill="#0" id="circle145"/>
	<circle cx="515.087" cy="647.103" r="4" fill="#0" id="circle146"/>
	<circle cx="518.859" cy="816.837" r="4" fill="#0" id="circle147"/>
	<circle cx="524.517" cy="183.163" r="4" fill="#0" id="circle148"/>
	<circle cx="524.517" cy="664.076" r="4" fill="#0" id="circle149"/>
	<circle cx="533.947" cy="283.118" r="4" fill="#0" id="circle150"/>
	<circle cx="533.947" cy="681.049" r="4" fill="#0" id="circle151"/>
	<circle cx="533.947" cy="830.038" r="4" fill="#0" id="circle152"/>
	<circle cx="541.49" cy="192.593" r="4" fill="#0" id="circle153"/>
	<circle cx="547.148" cy="845.125" r="4" fill="#0" id="circle154"/>
	<circle cx="549.034" cy="694.251" r="4" fill="#0" id="circle155"/>
	<circle cx="550.92" cy="292.548" r="4" fill="#0" id="circle156"/>
	<circle cx="556.578" cy="203.909" r="4" fill="#0" id="circle157"/>
	<circle cx="556.578" cy="713.11" r="4" fill="#0" id="circle158"/>
	<circle cx="556.578" cy="862.099" r="4" fill="#0" id="circle159"/>
	<circle cx="566.008" cy="305.749" r="4" fill="#0" id="circle160"/>
	<circle cx="569.779" cy="877.186" r="4" fill="#0" id="circle161"/>
	<circle cx="571.665" cy="217.11" r="4" fill="#0" id="circle162"/>
	<circle cx="571.665" cy="726.312" r="4" fill="#0" id="circle163"/>
	<circle cx="581.095" cy="743.285" r="4" fill="#0" id="circle164"/>
	<circle cx="581.095" cy="892.274" r="4" fill="#0" id="circle165"/>
	<circle cx="582.981" cy="315.179" r="4" fill="#0" id="circle166"/>
	<circle cx="584.867" cy="232.198" r="4" fill="#0" id="circle167"/>
	<circle cx="592.411" cy="758.373" r="4" fill="#0" id="circle168"/>
	<circle cx="598.068" cy="901.703" r="4" fill="#0" id="circle169"/>
	<circle cx="599.954" cy="245.399" r="4" fill="#0" id="circle170"/>
	<circle cx="601.84" cy="322.722" r="4" fill="#0" id="circle171"/>
	<circle cx="603.726" cy="920.563" r="4" fill="#0" id="circle172"/>
	<circle cx="607.498" cy="771.574" r="4" fill="#0" id="circle173"/>
	<circle cx="613.156" cy="260.487" r="4" fill="#0" id="circle174"/>
	<circle cx="615.042" cy="790.433" r="4" fill="#0" id="circle175"/>
	<circle cx="616.928" cy="335.924" r="4" fill="#0" id="circle176"/>
	<circle cx="618.814" cy="933.764" r="4" fill="#0" id="circle177"/>
	<circle cx="624.471" cy="807.407" r="4" fill="#0" id="circle178"/>
	<circle cx="628.243" cy="273.688" r="4" fill="#0" id="circle179"/>
	<circle cx="632.015" cy="948.852" r="4" fill="#0" id="circle180"/>
	<circle cx="633.901" cy="345.354" r="4" fill="#0" id="circle181"/>
	<circle cx="637.673" cy="822.494" r="4" fill="#0" id="circle182"/>
	<circle cx="641.445" cy="288.776" r="4" fill="#0" id="circle183"/>
	<circle cx="647.103" cy="839.468" r="4" fill="#0" id="circle184"/>
	<circle cx="647.103" cy="962.053" r="4" fill="#0" id="circle185"/>
	<circle cx="652.76" cy="341.582" r="4" fill="#0" id="circle186"/>
	<circle cx="656.532" cy="301.977" r="4" fill="#0" id="circle187"/>
	<circle cx="656.532" cy="856.441" r="4" fill="#0" id="circle188"/>
	<circle cx="664.076" cy="320.837" r="4" fill="#0" id="circle189"/>
	<circle cx="664.076" cy="971.483" r="4" fill="#0" id="circle190"/>
	<circle cx="667.848" cy="871.529" r="4" fill="#0" id="circle191"/>
	<circle cx="675.392" cy="890.388" r="4" fill="#0" id="circle192"/>
	<circle cx="679.163" cy="984.684" r="4" fill="#0" id="circle193"/>
	<circle cx="690.479" cy="901.703" r="4" fill="#0" id="circle194"/>
	<circle cx="698.023" cy="920.563" r="4" fill="#0" id="circle195"/>
	<circle cx="698.023" cy="986.57" r="4" fill="#0" id="circle196"/>
	<circle cx="703.681" cy="939.422" r="4" fill="#0" id="circle197"/>
	<circle cx="713.11" cy="956.395" r="4" fill="#0" id="circle198"/>
	<circle cx="713.11" cy="975.255" r="4" fill="#0" id="circle199"/>
	</g>
</svg>