<?xml version="1.0" encoding="UTF-8" standalone="no"?>
<!-- Created with CurveBenchmark -->
<svg
	xmlns:dc="http://purl.org/dc/elements/1.1/"
	xmlns:cc="http://creativecommons.org/ns#"
	xmlns:rdf="http://www.w3.org/1999/02/22-rdf-syntax-ns#"
	xmlns:svg="http://www.w3.org/2000/svg"
	xmlns="http://www.w3.org/2000/svg"
	xmlns:sodipodi="http://sodipodi.sourceforge.net/DTD/sodipodi-0.dtd"
	xmlns:inkscape="http://www.inkscape.org/namespaces/inkscape"
	width="1000"
	height="1000"
	id="svg2"
	version="1.1"
	sodipodi:docname="manifold/discur-brick06.png.txt">
<defs
	id="defs4" />
<metadata
	id="metadata7">
	<rdf:RDF>
		<cc:Work
			rdf:about="">
			<dc:format>image/svg+xml</dc:format>
			<dc:type
				rdf:resource="http://purl.org/dc/dcmitype/StillImage" />
			<dc:title></dc:title>
		</cc:Work>
	</rdf:RDF>
</metadata>
<g
	inkscape:label="Layer 1"
	inkscape:groupmode="layer"
	id="layer1">
	<path style="fill:none;stroke:red;stroke-width:1px;stroke-linecap:butt;stroke-linejoin:miter;stroke-opacity:1" d="M 4,224.444 4,243.126 z" id="boundary" inkscape:connector-curvature="0" />
	<path style="fill:none;stroke:red;stroke-width:1px;stroke-linecap:butt;stroke-linejoin:miter;stroke-opacity:1" d="M 4,224.444 22.6817,215.104 z" id="boundary" inkscape:connector-curvature="0" />
	<path style="fill:none;stroke:red;stroke-width:1px;stroke-linecap:butt;stroke-linejoin:miter;stroke-opacity:1" d="M 4,243.126 4,261.808 z" id="boundary" inkscape:connector-curvature="0" />
	<path style="fill:none;stroke:red;stroke-width:1px;stroke-linecap:butt;stroke-linejoin:miter;stroke-opacity:1" d="M 4,261.808 13.3409,278.621 z" id="boundary" inkscape:connector-curvature="0" />
	<path style="fill:none;stroke:red;stroke-width:1px;stroke-linecap:butt;stroke-linejoin:miter;stroke-opacity:1" d="M 13.3409,278.621 13.3409,297.303 z" id="boundary" inkscape:connector-curvature="0" />
	<path style="fill:none;stroke:red;stroke-width:1px;stroke-linecap:butt;stroke-linejoin:miter;stroke-opacity:1" d="M 13.3409,297.303 26.4181,312.249 z" id="boundary" inkscape:connector-curvature="0" />
	<path style="fill:none;stroke:red;stroke-width:1px;stroke-linecap:butt;stroke-linejoin:miter;stroke-opacity:1" d="M 22.6817,215.104 32.0226,196.422 z" id="boundary" inkscape:connector-curvature="0" />
	<path style="fill:none;stroke:red;stroke-width:1px;stroke-linecap:butt;stroke-linejoin:miter;stroke-opacity:1" d="M 26.4181,312.249 41.3635,323.458 z" id="boundary" inkscape:connector-curvature="0" />
	<path style="fill:none;stroke:red;stroke-width:1px;stroke-linecap:butt;stroke-linejoin:miter;stroke-opacity:1" d="M 32.0226,196.422 50.7043,187.081 z" id="boundary" inkscape:connector-curvature="0" />
	<path style="fill:none;stroke:red;stroke-width:1px;stroke-linecap:butt;stroke-linejoin:miter;stroke-opacity:1" d="M 41.3635,323.458 58.177,314.117 z" id="boundary" inkscape:connector-curvature="0" />
	<path style="fill:none;stroke:red;stroke-width:1px;stroke-linecap:butt;stroke-linejoin:miter;stroke-opacity:1" d="M 50.7043,187.081 69.3861,177.74 z" id="boundary" inkscape:connector-curvature="0" />
	<path style="fill:none;stroke:red;stroke-width:1px;stroke-linecap:butt;stroke-linejoin:miter;stroke-opacity:1" d="M 58.177,314.117 74.9906,304.776 z" id="boundary" inkscape:connector-curvature="0" />
	<path style="fill:none;stroke:red;stroke-width:1px;stroke-linecap:butt;stroke-linejoin:miter;stroke-opacity:1" d="M 69.3861,177.74 84.3315,162.795 z" id="boundary" inkscape:connector-curvature="0" />
	<path style="fill:none;stroke:red;stroke-width:1px;stroke-linecap:butt;stroke-linejoin:miter;stroke-opacity:1" d="M 74.9906,304.776 93.6723,304.776 z" id="boundary" inkscape:connector-curvature="0" />
	<path style="fill:none;stroke:red;stroke-width:1px;stroke-linecap:butt;stroke-linejoin:miter;stroke-opacity:1" d="M 84.3315,162.795 99.2768,147.849 z" id="boundary" inkscape:connector-curvature="0" />
	<path style="fill:none;stroke:red;stroke-width:1px;stroke-linecap:butt;stroke-linejoin:miter;stroke-opacity:1" d="M 93.6723,304.776 112.354,304.776 z" id="boundary" inkscape:connector-curvature="0" />
	<path style="fill:none;stroke:red;stroke-width:1px;stroke-linecap:butt;stroke-linejoin:miter;stroke-opacity:1" d="M 99.2768,147.849 114.222,134.772 z" id="boundary" inkscape:connector-curvature="0" />
	<path style="fill:none;stroke:red;stroke-width:1px;stroke-linecap:butt;stroke-linejoin:miter;stroke-opacity:1" d="M 112.354,304.776 131.036,304.776 z" id="boundary" inkscape:connector-curvature="0" />
	<path style="fill:none;stroke:red;stroke-width:1px;stroke-linecap:butt;stroke-linejoin:miter;stroke-opacity:1" d="M 114.222,134.772 116.09,103.013 z" id="boundary" inkscape:connector-curvature="0" />
	<path style="fill:none;stroke:red;stroke-width:1px;stroke-linecap:butt;stroke-linejoin:miter;stroke-opacity:1" d="M 116.09,46.968 116.09,65.6497 z" id="boundary" inkscape:connector-curvature="0" />
	<path style="fill:none;stroke:red;stroke-width:1px;stroke-linecap:butt;stroke-linejoin:miter;stroke-opacity:1" d="M 116.09,46.968 125.431,28.2863 z" id="boundary" inkscape:connector-curvature="0" />
	<path style="fill:none;stroke:red;stroke-width:1px;stroke-linecap:butt;stroke-linejoin:miter;stroke-opacity:1" d="M 116.09,65.6497 116.09,84.3315 z" id="boundary" inkscape:connector-curvature="0" />
	<path style="fill:none;stroke:red;stroke-width:1px;stroke-linecap:butt;stroke-linejoin:miter;stroke-opacity:1" d="M 116.09,84.3315 116.09,103.013 z" id="boundary" inkscape:connector-curvature="0" />
	<path style="fill:none;stroke:red;stroke-width:1px;stroke-linecap:butt;stroke-linejoin:miter;stroke-opacity:1" d="M 125.431,28.2863 144.113,18.9454 z" id="boundary" inkscape:connector-curvature="0" />
	<path style="fill:none;stroke:red;stroke-width:1px;stroke-linecap:butt;stroke-linejoin:miter;stroke-opacity:1" d="M 131.036,304.776 149.718,304.776 z" id="boundary" inkscape:connector-curvature="0" />
	<path style="fill:none;stroke:red;stroke-width:1px;stroke-linecap:butt;stroke-linejoin:miter;stroke-opacity:1" d="M 144.113,18.9454 162.795,9.60452 z" id="boundary" inkscape:connector-curvature="0" />
	<path style="fill:none;stroke:red;stroke-width:1px;stroke-linecap:butt;stroke-linejoin:miter;stroke-opacity:1" d="M 149.718,304.776 168.399,304.776 z" id="boundary" inkscape:connector-curvature="0" />
	<path style="fill:none;stroke:red;stroke-width:1px;stroke-linecap:butt;stroke-linejoin:miter;stroke-opacity:1" d="M 162.795,9.60452 181.476,4 z" id="boundary" inkscape:connector-curvature="0" />
	<path style="fill:none;stroke:red;stroke-width:1px;stroke-linecap:butt;stroke-linejoin:miter;stroke-opacity:1" d="M 168.399,304.776 185.213,314.117 z" id="boundary" inkscape:connector-curvature="0" />
	<path style="fill:none;stroke:red;stroke-width:1px;stroke-linecap:butt;stroke-linejoin:miter;stroke-opacity:1" d="M 181.476,4 200.158,4 z" id="boundary" inkscape:connector-curvature="0" />
	<path style="fill:none;stroke:red;stroke-width:1px;stroke-linecap:butt;stroke-linejoin:miter;stroke-opacity:1" d="M 185.213,314.117 202.026,323.458 z" id="boundary" inkscape:connector-curvature="0" />
	<path style="fill:none;stroke:red;stroke-width:1px;stroke-linecap:butt;stroke-linejoin:miter;stroke-opacity:1" d="M 200.158,4 218.84,4 z" id="boundary" inkscape:connector-curvature="0" />
	<path style="fill:none;stroke:red;stroke-width:1px;stroke-linecap:butt;stroke-linejoin:miter;stroke-opacity:1" d="M 202.026,323.458 218.84,332.798 z" id="boundary" inkscape:connector-curvature="0" />
	<path style="fill:none;stroke:red;stroke-width:1px;stroke-linecap:butt;stroke-linejoin:miter;stroke-opacity:1" d="M 218.84,4 237.522,4 z" id="boundary" inkscape:connector-curvature="0" />
	<path style="fill:none;stroke:red;stroke-width:1px;stroke-linecap:butt;stroke-linejoin:miter;stroke-opacity:1" d="M 218.84,332.798 235.653,342.139 z" id="boundary" inkscape:connector-curvature="0" />
	<path style="fill:none;stroke:red;stroke-width:1px;stroke-linecap:butt;stroke-linejoin:miter;stroke-opacity:1" d="M 235.653,342.139 248.731,357.085 z" id="boundary" inkscape:connector-curvature="0" />
	<path style="fill:none;stroke:red;stroke-width:1px;stroke-linecap:butt;stroke-linejoin:miter;stroke-opacity:1" d="M 237.522,4 248.731,18.9454 z" id="boundary" inkscape:connector-curvature="0" />
	<path style="fill:none;stroke:red;stroke-width:1px;stroke-linecap:butt;stroke-linejoin:miter;stroke-opacity:1" d="M 248.731,18.9454 263.676,32.0226 z" id="boundary" inkscape:connector-curvature="0" />
	<path style="fill:none;stroke:red;stroke-width:1px;stroke-linecap:butt;stroke-linejoin:miter;stroke-opacity:1" d="M 248.731,357.085 263.676,370.162 z" id="boundary" inkscape:connector-curvature="0" />
	<path style="fill:none;stroke:red;stroke-width:1px;stroke-linecap:butt;stroke-linejoin:miter;stroke-opacity:1" d="M 263.676,32.0226 280.49,41.3635 z" id="boundary" inkscape:connector-curvature="0" />
	<path style="fill:none;stroke:red;stroke-width:1px;stroke-linecap:butt;stroke-linejoin:miter;stroke-opacity:1" d="M 263.676,370.162 276.753,385.107 z" id="boundary" inkscape:connector-curvature="0" />
	<path style="fill:none;stroke:red;stroke-width:1px;stroke-linecap:butt;stroke-linejoin:miter;stroke-opacity:1" d="M 276.753,385.107 295.435,388.844 z" id="boundary" inkscape:connector-curvature="0" />
	<path style="fill:none;stroke:red;stroke-width:1px;stroke-linecap:butt;stroke-linejoin:miter;stroke-opacity:1" d="M 280.49,41.3635 293.567,56.3089 z" id="boundary" inkscape:connector-curvature="0" />
	<path style="fill:none;stroke:red;stroke-width:1px;stroke-linecap:butt;stroke-linejoin:miter;stroke-opacity:1" d="M 293.567,56.3089 312.249,63.7815 z" id="boundary" inkscape:connector-curvature="0" />
	<path style="fill:none;stroke:red;stroke-width:1px;stroke-linecap:butt;stroke-linejoin:miter;stroke-opacity:1" d="M 295.435,388.844 314.117,388.844 z" id="boundary" inkscape:connector-curvature="0" />
	<path style="fill:none;stroke:red;stroke-width:1px;stroke-linecap:butt;stroke-linejoin:miter;stroke-opacity:1" d="M 312.249,63.7815 329.062,73.1224 z" id="boundary" inkscape:connector-curvature="0" />
	<path style="fill:none;stroke:red;stroke-width:1px;stroke-linecap:butt;stroke-linejoin:miter;stroke-opacity:1" d="M 314.117,388.844 332.798,388.844 z" id="boundary" inkscape:connector-curvature="0" />
	<path style="fill:none;stroke:red;stroke-width:1px;stroke-linecap:butt;stroke-linejoin:miter;stroke-opacity:1" d="M 329.062,73.1224 347.744,78.7269 z" id="boundary" inkscape:connector-curvature="0" />
	<path style="fill:none;stroke:red;stroke-width:1px;stroke-linecap:butt;stroke-linejoin:miter;stroke-opacity:1" d="M 332.798,388.844 351.48,388.844 z" id="boundary" inkscape:connector-curvature="0" />
	<path style="fill:none;stroke:red;stroke-width:1px;stroke-linecap:butt;stroke-linejoin:miter;stroke-opacity:1" d="M 347.744,78.7269 366.426,78.7269 z" id="boundary" inkscape:connector-curvature="0" />
	<path style="fill:none;stroke:red;stroke-width:1px;stroke-linecap:butt;stroke-linejoin:miter;stroke-opacity:1" d="M 351.48,388.844 370.162,388.844 z" id="boundary" inkscape:connector-curvature="0" />
	<path style="fill:none;stroke:red;stroke-width:1px;stroke-linecap:butt;stroke-linejoin:miter;stroke-opacity:1" d="M 366.426,78.7269 385.107,78.7269 z" id="boundary" inkscape:connector-curvature="0" />
	<path style="fill:none;stroke:red;stroke-width:1px;stroke-linecap:butt;stroke-linejoin:miter;stroke-opacity:1" d="M 370.162,388.844 388.844,388.844 z" id="boundary" inkscape:connector-curvature="0" />
	<path style="fill:none;stroke:red;stroke-width:1px;stroke-linecap:butt;stroke-linejoin:miter;stroke-opacity:1" d="M 385.107,78.7269 403.789,78.7269 z" id="boundary" inkscape:connector-curvature="0" />
	<path style="fill:none;stroke:red;stroke-width:1px;stroke-linecap:butt;stroke-linejoin:miter;stroke-opacity:1" d="M 388.844,388.844 407.525,388.844 z" id="boundary" inkscape:connector-curvature="0" />
	<path style="fill:none;stroke:red;stroke-width:1px;stroke-linecap:butt;stroke-linejoin:miter;stroke-opacity:1" d="M 403.789,78.7269 420.603,69.3861 z" id="boundary" inkscape:connector-curvature="0" />
	<path style="fill:none;stroke:red;stroke-width:1px;stroke-linecap:butt;stroke-linejoin:miter;stroke-opacity:1" d="M 407.525,388.844 426.207,388.844 z" id="boundary" inkscape:connector-curvature="0" />
	<path style="fill:none;stroke:red;stroke-width:1px;stroke-linecap:butt;stroke-linejoin:miter;stroke-opacity:1" d="M 420.603,69.3861 439.284,69.3861 z" id="boundary" inkscape:connector-curvature="0" />
	<path style="fill:none;stroke:red;stroke-width:1px;stroke-linecap:butt;stroke-linejoin:miter;stroke-opacity:1" d="M 426.207,388.844 443.021,379.503 z" id="boundary" inkscape:connector-curvature="0" />
	<path style="fill:none;stroke:red;stroke-width:1px;stroke-linecap:butt;stroke-linejoin:miter;stroke-opacity:1" d="M 439.284,69.3861 457.966,69.3861 z" id="boundary" inkscape:connector-curvature="0" />
	<path style="fill:none;stroke:red;stroke-width:1px;stroke-linecap:butt;stroke-linejoin:miter;stroke-opacity:1" d="M 443.021,379.503 461.702,379.503 z" id="boundary" inkscape:connector-curvature="0" />
	<path style="fill:none;stroke:red;stroke-width:1px;stroke-linecap:butt;stroke-linejoin:miter;stroke-opacity:1" d="M 457.966,69.3861 476.648,69.3861 z" id="boundary" inkscape:connector-curvature="0" />
	<path style="fill:none;stroke:red;stroke-width:1px;stroke-linecap:butt;stroke-linejoin:miter;stroke-opacity:1" d="M 461.702,379.503 480.384,379.503 z" id="boundary" inkscape:connector-curvature="0" />
	<path style="fill:none;stroke:red;stroke-width:1px;stroke-linecap:butt;stroke-linejoin:miter;stroke-opacity:1" d="M 476.648,69.3861 495.33,69.3861 z" id="boundary" inkscape:connector-curvature="0" />
	<path style="fill:none;stroke:red;stroke-width:1px;stroke-linecap:butt;stroke-linejoin:miter;stroke-opacity:1" d="M 480.384,379.503 499.066,379.503 z" id="boundary" inkscape:connector-curvature="0" />
	<path style="fill:none;stroke:red;stroke-width:1px;stroke-linecap:butt;stroke-linejoin:miter;stroke-opacity:1" d="M 495.33,69.3861 514.011,60.0452 z" id="boundary" inkscape:connector-curvature="0" />
	<path style="fill:none;stroke:red;stroke-width:1px;stroke-linecap:butt;stroke-linejoin:miter;stroke-opacity:1" d="M 499.066,379.503 517.748,373.898 z" id="boundary" inkscape:connector-curvature="0" />
	<path style="fill:none;stroke:red;stroke-width:1px;stroke-linecap:butt;stroke-linejoin:miter;stroke-opacity:1" d="M 514.011,60.0452 532.693,60.0452 z" id="boundary" inkscape:connector-curvature="0" />
	<path style="fill:none;stroke:red;stroke-width:1px;stroke-linecap:butt;stroke-linejoin:miter;stroke-opacity:1" d="M 517.748,373.898 536.429,370.162 z" id="boundary" inkscape:connector-curvature="0" />
	<path style="fill:none;stroke:red;stroke-width:1px;stroke-linecap:butt;stroke-linejoin:miter;stroke-opacity:1" d="M 532.693,60.0452 551.375,50.7043 z" id="boundary" inkscape:connector-curvature="0" />
	<path style="fill:none;stroke:red;stroke-width:1px;stroke-linecap:butt;stroke-linejoin:miter;stroke-opacity:1" d="M 536.429,370.162 555.111,364.557 z" id="boundary" inkscape:connector-curvature="0" />
	<path style="fill:none;stroke:red;stroke-width:1px;stroke-linecap:butt;stroke-linejoin:miter;stroke-opacity:1" d="M 551.375,50.7043 570.056,50.7043 z" id="boundary" inkscape:connector-curvature="0" />
	<path style="fill:none;stroke:red;stroke-width:1px;stroke-linecap:butt;stroke-linejoin:miter;stroke-opacity:1" d="M 555.111,364.557 573.793,360.821 z" id="boundary" inkscape:connector-curvature="0" />
	<path style="fill:none;stroke:red;stroke-width:1px;stroke-linecap:butt;stroke-linejoin:miter;stroke-opacity:1" d="M 570.056,50.7043 588.738,50.7043 z" id="boundary" inkscape:connector-curvature="0" />
	<path style="fill:none;stroke:red;stroke-width:1px;stroke-linecap:butt;stroke-linejoin:miter;stroke-opacity:1" d="M 573.793,360.821 592.475,360.821 z" id="boundary" inkscape:connector-curvature="0" />
	<path style="fill:none;stroke:red;stroke-width:1px;stroke-linecap:butt;stroke-linejoin:miter;stroke-opacity:1" d="M 588.738,50.7043 607.42,50.7043 z" id="boundary" inkscape:connector-curvature="0" />
	<path style="fill:none;stroke:red;stroke-width:1px;stroke-linecap:butt;stroke-linejoin:miter;stroke-opacity:1" d="M 592.475,360.821 611.156,360.821 z" id="boundary" inkscape:connector-curvature="0" />
	<path style="fill:none;stroke:red;stroke-width:1px;stroke-linecap:butt;stroke-linejoin:miter;stroke-opacity:1" d="M 607.42,50.7043 626.102,50.7043 z" id="boundary" inkscape:connector-curvature="0" />
	<path style="fill:none;stroke:red;stroke-width:1px;stroke-linecap:butt;stroke-linejoin:miter;stroke-opacity:1" d="M 611.156,360.821 629.838,360.821 z" id="boundary" inkscape:connector-curvature="0" />
	<path style="fill:none;stroke:red;stroke-width:1px;stroke-linecap:butt;stroke-linejoin:miter;stroke-opacity:1" d="M 626.102,50.7043 644.783,50.7043 z" id="boundary" inkscape:connector-curvature="0" />
	<path style="fill:none;stroke:red;stroke-width:1px;stroke-linecap:butt;stroke-linejoin:miter;stroke-opacity:1" d="M 629.838,360.821 648.52,360.821 z" id="boundary" inkscape:connector-curvature="0" />
	<path style="fill:none;stroke:red;stroke-width:1px;stroke-linecap:butt;stroke-linejoin:miter;stroke-opacity:1" d="M 644.783,50.7043 663.465,50.7043 z" id="boundary" inkscape:connector-curvature="0" />
	<path style="fill:none;stroke:red;stroke-width:1px;stroke-linecap:butt;stroke-linejoin:miter;stroke-opacity:1" d="M 648.52,360.821 667.202,360.821 z" id="boundary" inkscape:connector-curvature="0" />
	<path style="fill:none;stroke:red;stroke-width:1px;stroke-linecap:butt;stroke-linejoin:miter;stroke-opacity:1" d="M 663.465,50.7043 682.147,50.7043 z" id="boundary" inkscape:connector-curvature="0" />
	<path style="fill:none;stroke:red;stroke-width:1px;stroke-linecap:butt;stroke-linejoin:miter;stroke-opacity:1" d="M 667.202,360.821 685.883,360.821 z" id="boundary" inkscape:connector-curvature="0" />
	<path style="fill:none;stroke:red;stroke-width:1px;stroke-linecap:butt;stroke-linejoin:miter;stroke-opacity:1" d="M 682.147,50.7043 698.96,60.0452 z" id="boundary" inkscape:connector-curvature="0" />
	<path style="fill:none;stroke:red;stroke-width:1px;stroke-linecap:butt;stroke-linejoin:miter;stroke-opacity:1" d="M 685.883,360.821 702.697,370.162 z" id="boundary" inkscape:connector-curvature="0" />
	<path style="fill:none;stroke:red;stroke-width:1px;stroke-linecap:butt;stroke-linejoin:miter;stroke-opacity:1" d="M 698.96,60.0452 715.774,69.3861 z" id="boundary" inkscape:connector-curvature="0" />
	<path style="fill:none;stroke:red;stroke-width:1px;stroke-linecap:butt;stroke-linejoin:miter;stroke-opacity:1" d="M 702.697,370.162 721.379,370.162 z" id="boundary" inkscape:connector-curvature="0" />
	<path style="fill:none;stroke:red;stroke-width:1px;stroke-linecap:butt;stroke-linejoin:miter;stroke-opacity:1" d="M 715.774,69.3861 732.588,78.7269 z" id="boundary" inkscape:connector-curvature="0" />
	<path style="fill:none;stroke:red;stroke-width:1px;stroke-linecap:butt;stroke-linejoin:miter;stroke-opacity:1" d="M 721.379,370.162 738.192,379.503 z" id="boundary" inkscape:connector-curvature="0" />
	<path style="fill:none;stroke:red;stroke-width:1px;stroke-linecap:butt;stroke-linejoin:miter;stroke-opacity:1" d="M 732.588,78.7269 749.401,88.0678 z" id="boundary" inkscape:connector-curvature="0" />
	<path style="fill:none;stroke:red;stroke-width:1px;stroke-linecap:butt;stroke-linejoin:miter;stroke-opacity:1" d="M 738.192,379.503 755.006,388.844 z" id="boundary" inkscape:connector-curvature="0" />
	<path style="fill:none;stroke:red;stroke-width:1px;stroke-linecap:butt;stroke-linejoin:miter;stroke-opacity:1" d="M 749.401,88.0678 766.215,97.4087 z" id="boundary" inkscape:connector-curvature="0" />
	<path style="fill:none;stroke:red;stroke-width:1px;stroke-linecap:butt;stroke-linejoin:miter;stroke-opacity:1" d="M 755.006,388.844 764.347,405.657 z" id="boundary" inkscape:connector-curvature="0" />
	<path style="fill:none;stroke:red;stroke-width:1px;stroke-linecap:butt;stroke-linejoin:miter;stroke-opacity:1" d="M 764.347,405.657 779.292,416.866 z" id="boundary" inkscape:connector-curvature="0" />
	<path style="fill:none;stroke:red;stroke-width:1px;stroke-linecap:butt;stroke-linejoin:miter;stroke-opacity:1" d="M 766.215,97.4087 783.028,106.75 z" id="boundary" inkscape:connector-curvature="0" />
	<path style="fill:none;stroke:red;stroke-width:1px;stroke-linecap:butt;stroke-linejoin:miter;stroke-opacity:1" d="M 779.292,416.866 790.501,431.812 z" id="boundary" inkscape:connector-curvature="0" />
	<path style="fill:none;stroke:red;stroke-width:1px;stroke-linecap:butt;stroke-linejoin:miter;stroke-opacity:1" d="M 783.028,106.75 801.71,106.75 z" id="boundary" inkscape:connector-curvature="0" />
	<path style="fill:none;stroke:red;stroke-width:1px;stroke-linecap:butt;stroke-linejoin:miter;stroke-opacity:1" d="M 790.501,431.812 805.446,444.889 z" id="boundary" inkscape:connector-curvature="0" />
	<path style="fill:none;stroke:red;stroke-width:1px;stroke-linecap:butt;stroke-linejoin:miter;stroke-opacity:1" d="M 801.71,106.75 820.392,106.75 z" id="boundary" inkscape:connector-curvature="0" />
	<path style="fill:none;stroke:red;stroke-width:1px;stroke-linecap:butt;stroke-linejoin:miter;stroke-opacity:1" d="M 805.446,444.889 822.26,454.23 z" id="boundary" inkscape:connector-curvature="0" />
	<path style="fill:none;stroke:red;stroke-width:1px;stroke-linecap:butt;stroke-linejoin:miter;stroke-opacity:1" d="M 820.392,106.75 839.073,106.75 z" id="boundary" inkscape:connector-curvature="0" />
	<path style="fill:none;stroke:red;stroke-width:1px;stroke-linecap:butt;stroke-linejoin:miter;stroke-opacity:1" d="M 822.26,454.23 840.942,452.362 z" id="boundary" inkscape:connector-curvature="0" />
	<path style="fill:none;stroke:red;stroke-width:1px;stroke-linecap:butt;stroke-linejoin:miter;stroke-opacity:1" d="M 839.073,106.75 857.755,106.75 z" id="boundary" inkscape:connector-curvature="0" />
	<path style="fill:none;stroke:red;stroke-width:1px;stroke-linecap:butt;stroke-linejoin:miter;stroke-opacity:1" d="M 840.942,452.362 859.623,444.889 z" id="boundary" inkscape:connector-curvature="0" />
	<path style="fill:none;stroke:red;stroke-width:1px;stroke-linecap:butt;stroke-linejoin:miter;stroke-opacity:1" d="M 857.755,106.75 876.437,106.75 z" id="boundary" inkscape:connector-curvature="0" />
	<path style="fill:none;stroke:red;stroke-width:1px;stroke-linecap:butt;stroke-linejoin:miter;stroke-opacity:1" d="M 859.623,444.889 876.437,435.548 z" id="boundary" inkscape:connector-curvature="0" />
	<path style="fill:none;stroke:red;stroke-width:1px;stroke-linecap:butt;stroke-linejoin:miter;stroke-opacity:1" d="M 876.437,106.75 895.119,106.75 z" id="boundary" inkscape:connector-curvature="0" />
	<path style="fill:none;stroke:red;stroke-width:1px;stroke-linecap:butt;stroke-linejoin:miter;stroke-opacity:1" d="M 876.437,435.548 895.119,435.548 z" id="boundary" inkscape:connector-curvature="0" />
	<path style="fill:none;stroke:red;stroke-width:1px;stroke-linecap:butt;stroke-linejoin:miter;stroke-opacity:1" d="M 883.91,332.798 883.91,351.48 z" id="boundary" inkscape:connector-curvature="0" />
	<path style="fill:none;stroke:red;stroke-width:1px;stroke-linecap:butt;stroke-linejoin:miter;stroke-opacity:1" d="M 883.91,332.798 893.25,314.117 z" id="boundary" inkscape:connector-curvature="0" />
	<path style="fill:none;stroke:red;stroke-width:1px;stroke-linecap:butt;stroke-linejoin:miter;stroke-opacity:1" d="M 883.91,351.48 893.25,368.294 z" id="boundary" inkscape:connector-curvature="0" />
	<path style="fill:none;stroke:red;stroke-width:1px;stroke-linecap:butt;stroke-linejoin:miter;stroke-opacity:1" d="M 893.25,314.117 908.196,301.04 z" id="boundary" inkscape:connector-curvature="0" />
	<path style="fill:none;stroke:red;stroke-width:1px;stroke-linecap:butt;stroke-linejoin:miter;stroke-opacity:1" d="M 893.25,368.294 902.591,385.107 z" id="boundary" inkscape:connector-curvature="0" />
	<path style="fill:none;stroke:red;stroke-width:1px;stroke-linecap:butt;stroke-linejoin:miter;stroke-opacity:1" d="M 895.119,106.75 913.8,106.75 z" id="boundary" inkscape:connector-curvature="0" />
	<path style="fill:none;stroke:red;stroke-width:1px;stroke-linecap:butt;stroke-linejoin:miter;stroke-opacity:1" d="M 895.119,435.548 910.064,420.603 z" id="boundary" inkscape:connector-curvature="0" />
	<path style="fill:none;stroke:red;stroke-width:1px;stroke-linecap:butt;stroke-linejoin:miter;stroke-opacity:1" d="M 902.591,385.107 911.932,401.921 z" id="boundary" inkscape:connector-curvature="0" />
	<path style="fill:none;stroke:red;stroke-width:1px;stroke-linecap:butt;stroke-linejoin:miter;stroke-opacity:1" d="M 908.196,301.04 921.273,286.094 z" id="boundary" inkscape:connector-curvature="0" />
	<path style="fill:none;stroke:red;stroke-width:1px;stroke-linecap:butt;stroke-linejoin:miter;stroke-opacity:1" d="M 910.064,420.603 911.932,401.921 z" id="boundary" inkscape:connector-curvature="0" />
	<path style="fill:none;stroke:red;stroke-width:1px;stroke-linecap:butt;stroke-linejoin:miter;stroke-opacity:1" d="M 913.8,106.75 932.482,106.75 z" id="boundary" inkscape:connector-curvature="0" />
	<path style="fill:none;stroke:red;stroke-width:1px;stroke-linecap:butt;stroke-linejoin:miter;stroke-opacity:1" d="M 921.273,286.094 939.955,276.753 z" id="boundary" inkscape:connector-curvature="0" />
	<path style="fill:none;stroke:red;stroke-width:1px;stroke-linecap:butt;stroke-linejoin:miter;stroke-opacity:1" d="M 932.482,106.75 951.164,106.75 z" id="boundary" inkscape:connector-curvature="0" />
	<path style="fill:none;stroke:red;stroke-width:1px;stroke-linecap:butt;stroke-linejoin:miter;stroke-opacity:1" d="M 939.955,276.753 949.296,258.072 z" id="boundary" inkscape:connector-curvature="0" />
	<path style="fill:none;stroke:red;stroke-width:1px;stroke-linecap:butt;stroke-linejoin:miter;stroke-opacity:1" d="M 949.296,258.072 967.977,248.731 z" id="boundary" inkscape:connector-curvature="0" />
	<path style="fill:none;stroke:red;stroke-width:1px;stroke-linecap:butt;stroke-linejoin:miter;stroke-opacity:1" d="M 951.164,106.75 967.977,116.09 z" id="boundary" inkscape:connector-curvature="0" />
	<path style="fill:none;stroke:red;stroke-width:1px;stroke-linecap:butt;stroke-linejoin:miter;stroke-opacity:1" d="M 967.977,116.09 977.318,132.904 z" id="boundary" inkscape:connector-curvature="0" />
	<path style="fill:none;stroke:red;stroke-width:1px;stroke-linecap:butt;stroke-linejoin:miter;stroke-opacity:1" d="M 967.977,248.731 986.659,239.39 z" id="boundary" inkscape:connector-curvature="0" />
	<path style="fill:none;stroke:red;stroke-width:1px;stroke-linecap:butt;stroke-linejoin:miter;stroke-opacity:1" d="M 977.318,132.904 977.318,151.586 z" id="boundary" inkscape:connector-curvature="0" />
	<path style="fill:none;stroke:red;stroke-width:1px;stroke-linecap:butt;stroke-linejoin:miter;stroke-opacity:1" d="M 977.318,151.586 986.659,168.399 z" id="boundary" inkscape:connector-curvature="0" />
	<path style="fill:none;stroke:red;stroke-width:1px;stroke-linecap:butt;stroke-linejoin:miter;stroke-opacity:1" d="M 986.659,168.399 996,185.213 z" id="boundary" inkscape:connector-curvature="0" />
	<path style="fill:none;stroke:red;stroke-width:1px;stroke-linecap:butt;stroke-linejoin:miter;stroke-opacity:1" d="M 986.659,239.39 996,222.576 z" id="boundary" inkscape:connector-curvature="0" />
	<path style="fill:none;stroke:red;stroke-width:1px;stroke-linecap:butt;stroke-linejoin:miter;stroke-opacity:1" d="M 996,185.213 996,203.895 z" id="boundary" inkscape:connector-curvature="0" />
	<path style="fill:none;stroke:red;stroke-width:1px;stroke-linecap:butt;stroke-linejoin:miter;stroke-opacity:1" d="M 996,203.895 996,222.576 z" id="boundary" inkscape:connector-curvature="0" />
	<circle cx="4" cy="224.444" r="4" fill="#0" id="circle0"/>
	<circle cx="4" cy="243.126" r="4" fill="#0" id="circle1"/>
	<circle cx="4" cy="261.808" r="4" fill="#0" id="circle2"/>
	<circle cx="13.3409" cy="278.621" r="4" fill="#0" id="circle3"/>
	<circle cx="13.3409" cy="297.303" r="4" fill="#0" id="circle4"/>
	<circle cx="22.6817" cy="215.104" r="4" fill="#0" id="circle5"/>
	<circle cx="26.4181" cy="312.249" r="4" fill="#0" id="circle6"/>
	<circle cx="32.0226" cy="196.422" r="4" fill="#0" id="circle7"/>
	<circle cx="41.3635" cy="323.458" r="4" fill="#0" id="circle8"/>
	<circle cx="50.7043" cy="187.081" r="4" fill="#0" id="circle9"/>
	<circle cx="58.177" cy="314.117" r="4" fill="#0" id="circle10"/>
	<circle cx="69.3861" cy="177.74" r="4" fill="#0" id="circle11"/>
	<circle cx="74.9906" cy="304.776" r="4" fill="#0" id="circle12"/>
	<circle cx="84.3315" cy="162.795" r="4" fill="#0" id="circle13"/>
	<circle cx="93.6723" cy="304.776" r="4" fill="#0" id="circle14"/>
	<circle cx="99.2768" cy="147.849" r="4" fill="#0" id="circle15"/>
	<circle cx="112.354" cy="304.776" r="4" fill="#0" id="circle16"/>
	<circle cx="114.222" cy="134.772" r="4" fill="#0" id="circle17"/>
	<circle cx="116.09" cy="46.968" r="4" fill="#0" id="circle18"/>
	<circle cx="116.09" cy="65.6497" r="4" fill="#0" id="circle19"/>
	<circle cx="116.09" cy="84.3315" r="4" fill="#0" id="circle20"/>
	<circle cx="116.09" cy="103.013" r="4" fill="#0" id="circle21"/>
	<circle cx="125.431" cy="28.2863" r="4" fill="#0" id="circle22"/>
	<circle cx="131.036" cy="304.776" r="4" fill="#0" id="circle23"/>
	<circle cx="144.113" cy="18.9454" r="4" fill="#0" id="circle24"/>
	<circle cx="149.718" cy="304.776" r="4" fill="#0" id="circle25"/>
	<circle cx="162.795" cy="9.60452" r="4" fill="#0" id="circle26"/>
	<circle cx="168.399" cy="304.776" r="4" fill="#0" id="circle27"/>
	<circle cx="181.476" cy="4" r="4" fill="#0" id="circle28"/>
	<circle cx="185.213" cy="314.117" r="4" fill="#0" id="circle29"/>
	<circle cx="200.158" cy="4" r="4" fill="#0" id="circle30"/>
	<circle cx="202.026" cy="323.458" r="4" fill="#0" id="circle31"/>
	<circle cx="218.84" cy="4" r="4" fill="#0" id="circle32"/>
	<circle cx="218.84" cy="332.798" r="4" fill="#0" id="circle33"/>
	<circle cx="235.653" cy="342.139" r="4" fill="#0" id="circle34"/>
	<circle cx="237.522" cy="4" r="4" fill="#0" id="circle35"/>
	<circle cx="248.731" cy="18.9454" r="4" fill="#0" id="circle36"/>
	<circle cx="248.731" cy="357.085" r="4" fill="#0" id="circle37"/>
	<circle cx="263.676" cy="32.0226" r="4" fill="#0" id="circle38"/>
	<circle cx="263.676" cy="370.162" r="4" fill="#0" id="circle39"/>
	<circle cx="276.753" cy="385.107" r="4" fill="#0" id="circle40"/>
	<circle cx="280.49" cy="41.3635" r="4" fill="#0" id="circle41"/>
	<circle cx="293.567" cy="56.3089" r="4" fill="#0" id="circle42"/>
	<circle cx="295.435" cy="388.844" r="4" fill="#0" id="circle43"/>
	<circle cx="312.249" cy="63.7815" r="4" fill="#0" id="circle44"/>
	<circle cx="314.117" cy="388.844" r="4" fill="#0" id="circle45"/>
	<circle cx="329.062" cy="73.1224" r="4" fill="#0" id="circle46"/>
	<circle cx="332.798" cy="388.844" r="4" fill="#0" id="circle47"/>
	<circle cx="347.744" cy="78.7269" r="4" fill="#0" id="circle48"/>
	<circle cx="351.48" cy="388.844" r="4" fill="#0" id="circle49"/>
	<circle cx="366.426" cy="78.7269" r="4" fill="#0" id="circle50"/>
	<circle cx="370.162" cy="388.844" r="4" fill="#0" id="circle51"/>
	<circle cx="385.107" cy="78.7269" r="4" fill="#0" id="circle52"/>
	<circle cx="388.844" cy="388.844" r="4" fill="#0" id="circle53"/>
	<circle cx="403.789" cy="78.7269" r="4" fill="#0" id="circle54"/>
	<circle cx="407.525" cy="388.844" r="4" fill="#0" id="circle55"/>
	<circle cx="420.603" cy="69.3861" r="4" fill="#0" id="circle56"/>
	<circle cx="426.207" cy="388.844" r="4" fill="#0" id="circle57"/>
	<circle cx="439.284" cy="69.3861" r="4" fill="#0" id="circle58"/>
	<circle cx="443.021" cy="379.503" r="4" fill="#0" id="circle59"/>
	<circle cx="457.966" cy="69.3861" r="4" fill="#0" id="circle60"/>
	<circle cx="461.702" cy="379.503" r="4" fill="#0" id="circle61"/>
	<circle cx="476.648" cy="69.3861" r="4" fill="#0" id="circle62"/>
	<circle cx="480.384" cy="379.503" r="4" fill="#0" id="circle63"/>
	<circle cx="495.33" cy="69.3861" r="4" fill="#0" id="circle64"/>
	<circle cx="499.066" cy="379.503" r="4" fill="#0" id="circle65"/>
	<circle cx="514.011" cy="60.0452" r="4" fill="#0" id="circle66"/>
	<circle cx="517.748" cy="373.898" r="4" fill="#0" id="circle67"/>
	<circle cx="532.693" cy="60.0452" r="4" fill="#0" id="circle68"/>
	<circle cx="536.429" cy="370.162" r="4" fill="#0" id="circle69"/>
	<circle cx="551.375" cy="50.7043" r="4" fill="#0" id="circle70"/>
	<circle cx="555.111" cy="364.557" r="4" fill="#0" id="circle71"/>
	<circle cx="570.056" cy="50.7043" r="4" fill="#0" id="circle72"/>
	<circle cx="573.793" cy="360.821" r="4" fill="#0" id="circle73"/>
	<circle cx="588.738" cy="50.7043" r="4" fill="#0" id="circle74"/>
	<circle cx="592.475" cy="360.821" r="4" fill="#0" id="circle75"/>
	<circle cx="607.42" cy="50.7043" r="4" fill="#0" id="circle76"/>
	<circle cx="611.156" cy="360.821" r="4" fill="#0" id="circle77"/>
	<circle cx="626.102" cy="50.7043" r="4" fill="#0" id="circle78"/>
	<circle cx="629.838" cy="360.821" r="4" fill="#0" id="circle79"/>
	<circle cx="644.783" cy="50.7043" r="4" fill="#0" id="circle80"/>
	<circle cx="648.52" cy="360.821" r="4" fill="#0" id="circle81"/>
	<circle cx="663.465" cy="50.7043" r="4" fill="#0" id="circle82"/>
	<circle cx="667.202" cy="360.821" r="4" fill="#0" id="circle83"/>
	<circle cx="682.147" cy="50.7043" r="4" fill="#0" id="circle84"/>
	<circle cx="685.883" cy="360.821" r="4" fill="#0" id="circle85"/>
	<circle cx="698.96" cy="60.0452" r="4" fill="#0" id="circle86"/>
	<circle cx="702.697" cy="370.162" r="4" fill="#0" id="circle87"/>
	<circle cx="715.774" cy="69.3861" r="4" fill="#0" id="circle88"/>
	<circle cx="721.379" cy="370.162" r="4" fill="#0" id="circle89"/>
	<circle cx="732.588" cy="78.7269" r="4" fill="#0" id="circle90"/>
	<circle cx="738.192" cy="379.503" r="4" fill="#0" id="circle91"/>
	<circle cx="749.401" cy="88.0678" r="4" fill="#0" id="circle92"/>
	<circle cx="755.006" cy="388.844" r="4" fill="#0" id="circle93"/>
	<circle cx="764.347" cy="405.657" r="4" fill="#0" id="circle94"/>
	<circle cx="766.215" cy="97.4087" r="4" fill="#0" id="circle95"/>
	<circle cx="779.292" cy="416.866" r="4" fill="#0" id="circle96"/>
	<circle cx="783.028" cy="106.75" r="4" fill="#0" id="circle97"/>
	<circle cx="790.501" cy="431.812" r="4" fill="#0" id="circle98"/>
	<circle cx="801.71" cy="106.75" r="4" fill="#0" id="circle99"/>
	<circle cx="805.446" cy="444.889" r="4" fill="#0" id="circle100"/>
	<circle cx="820.392" cy="106.75" r="4" fill="#0" id="circle101"/>
	<circle cx="822.26" cy="454.23" r="4" fill="#0" id="circle102"/>
	<circle cx="839.073" cy="106.75" r="4" fill="#0" id="circle103"/>
	<circle cx="840.942" cy="452.362" r="4" fill="#0" id="circle104"/>
	<circle cx="857.755" cy="106.75" r="4" fill="#0" id="circle105"/>
	<circle cx="859.623" cy="444.889" r="4" fill="#0" id="circle106"/>
	<circle cx="876.437" cy="106.75" r="4" fill="#0" id="circle107"/>
	<circle cx="876.437" cy="435.548" r="4" fill="#0" id="circle108"/>
	<circle cx="883.91" cy="332.798" r="4" fill="#0" id="circle109"/>
	<circle cx="883.91" cy="351.48" r="4" fill="#0" id="circle110"/>
	<circle cx="893.25" cy="314.117" r="4" fill="#0" id="circle111"/>
	<circle cx="893.25" cy="368.294" r="4" fill="#0" id="circle112"/>
	<circle cx="895.119" cy="106.75" r="4" fill="#0" id="circle113"/>
	<circle cx="895.119" cy="435.548" r="4" fill="#0" id="circle114"/>
	<circle cx="902.591" cy="385.107" r="4" fill="#0" id="circle115"/>
	<circle cx="908.196" cy="301.04" r="4" fill="#0" id="circle116"/>
	<circle cx="910.064" cy="420.603" r="4" fill="#0" id="circle117"/>
	<circle cx="911.932" cy="401.921" r="4" fill="#0" id="circle118"/>
	<circle cx="913.8" cy="106.75" r="4" fill="#0" id="circle119"/>
	<circle cx="921.273" cy="286.094" r="4" fill="#0" id="circle120"/>
	<circle cx="932.482" cy="106.75" r="4" fill="#0" id="circle121"/>
	<circle cx="939.955" cy="276.753" r="4" fill="#0" id="circle122"/>
	<circle cx="949.296" cy="258.072" r="4" fill="#0" id="circle123"/>
	<circle cx="951.164" cy="106.75" r="4" fill="#0" id="circle124"/>
	<circle cx="967.977" cy="116.09" r="4" fill="#0" id="circle125"/>
	<circle cx="967.977" cy="248.731" r="4" fill="#0" id="circle126"/>
	<circle cx="977.318" cy="132.904" r="4" fill="#0" id="circle127"/>
	<circle cx="977.318" cy="151.586" r="4" fill="#0" id="circle128"/>
	<circle cx="986.659" cy="168.399" r="4" fill="#0" id="circle129"/>
	<circle cx="986.659" cy="239.39" r="4" fill="#0" id="circle130"/>
	<circle cx="996" cy="185.213" r="4" fill="#0" id="circle131"/>
	<circle cx="996" cy="203.895" r="4" fill="#0" id="circle132"/>
	<circle cx="996" cy="222.576" r="4" fill="#0" id="circle133"/>
	</g>
</svg>