<?xml version="1.0" encoding="UTF-8" standalone="no"?>
<!-- Created with CurveBenchmark -->
<svg
	xmlns:dc="http://purl.org/dc/elements/1.1/"
	xmlns:cc="http://creativecommons.org/ns#"
	xmlns:rdf="http://www.w3.org/1999/02/22-rdf-syntax-ns#"
	xmlns:svg="http://www.w3.org/2000/svg"
	xmlns="http://www.w3.org/2000/svg"
	xmlns:sodipodi="http://sodipodi.sourceforge.net/DTD/sodipodi-0.dtd"
	xmlns:inkscape="http://www.inkscape.org/namespaces/inkscape"
	width="1000"
	height="1000"
	id="svg2"
	version="1.1"
	sodipodi:docname="manifold/discur-carriage-10.png.txt">
<defs
	id="defs4" />
<metadata
	id="metadata7">
	<rdf:RDF>
		<cc:Work
			rdf:about="">
			<dc:format>image/svg+xml</dc:format>
			<dc:type
				rdf:resource="http://purl.org/dc/dcmitype/StillImage" />
			<dc:title></dc:title>
		</cc:Work>
	</rdf:RDF>
</metadata>
<g
	inkscape:label="Layer 1"
	inkscape:groupmode="layer"
	id="layer1">
	<path style="fill:none;stroke:red;stroke-width:1px;stroke-linecap:butt;stroke-linejoin:miter;stroke-opacity:1" d="M 4,121.776 8.78764,112.201 z" id="boundary" inkscape:connector-curvature="0" />
	<path style="fill:none;stroke:red;stroke-width:1px;stroke-linecap:butt;stroke-linejoin:miter;stroke-opacity:1" d="M 4,121.776 8.78764,130.394 z" id="boundary" inkscape:connector-curvature="0" />
	<path style="fill:none;stroke:red;stroke-width:1px;stroke-linecap:butt;stroke-linejoin:miter;stroke-opacity:1" d="M 8.78764,112.201 18.3629,107.413 z" id="boundary" inkscape:connector-curvature="0" />
	<path style="fill:none;stroke:red;stroke-width:1px;stroke-linecap:butt;stroke-linejoin:miter;stroke-opacity:1" d="M 8.78764,130.394 13.5753,139.012 z" id="boundary" inkscape:connector-curvature="0" />
	<path style="fill:none;stroke:red;stroke-width:1px;stroke-linecap:butt;stroke-linejoin:miter;stroke-opacity:1" d="M 13.5753,139.012 18.3629,147.629 z" id="boundary" inkscape:connector-curvature="0" />
	<path style="fill:none;stroke:red;stroke-width:1px;stroke-linecap:butt;stroke-linejoin:miter;stroke-opacity:1" d="M 18.3629,107.413 35.5985,94.9653 z" id="boundary" inkscape:connector-curvature="0" />
	<path style="fill:none;stroke:red;stroke-width:1px;stroke-linecap:butt;stroke-linejoin:miter;stroke-opacity:1" d="M 18.3629,147.629 24.1081,155.29 z" id="boundary" inkscape:connector-curvature="0" />
	<path style="fill:none;stroke:red;stroke-width:1px;stroke-linecap:butt;stroke-linejoin:miter;stroke-opacity:1" d="M 24.1081,155.29 30.8108,162.95 z" id="boundary" inkscape:connector-curvature="0" />
	<path style="fill:none;stroke:red;stroke-width:1px;stroke-linecap:butt;stroke-linejoin:miter;stroke-opacity:1" d="M 30.8108,162.95 43.2587,148.587 z" id="boundary" inkscape:connector-curvature="0" />
	<path style="fill:none;stroke:red;stroke-width:1px;stroke-linecap:butt;stroke-linejoin:miter;stroke-opacity:1" d="M 35.5985,94.9653 37.5135,83.4749 z" id="boundary" inkscape:connector-curvature="0" />
	<path style="fill:none;stroke:red;stroke-width:1px;stroke-linecap:butt;stroke-linejoin:miter;stroke-opacity:1" d="M 37.5135,83.4749 42.3012,73.8996 z" id="boundary" inkscape:connector-curvature="0" />
	<path style="fill:none;stroke:red;stroke-width:1px;stroke-linecap:butt;stroke-linejoin:miter;stroke-opacity:1" d="M 42.3012,73.8996 49.9614,66.2394 z" id="boundary" inkscape:connector-curvature="0" />
	<path style="fill:none;stroke:red;stroke-width:1px;stroke-linecap:butt;stroke-linejoin:miter;stroke-opacity:1" d="M 43.2587,148.587 50.9189,141.884 z" id="boundary" inkscape:connector-curvature="0" />
	<path style="fill:none;stroke:red;stroke-width:1px;stroke-linecap:butt;stroke-linejoin:miter;stroke-opacity:1" d="M 49.9614,66.2394 67.1969,53.7915 z" id="boundary" inkscape:connector-curvature="0" />
	<path style="fill:none;stroke:red;stroke-width:1px;stroke-linecap:butt;stroke-linejoin:miter;stroke-opacity:1" d="M 50.9189,141.884 67.1969,129.436 z" id="boundary" inkscape:connector-curvature="0" />
	<path style="fill:none;stroke:red;stroke-width:1px;stroke-linecap:butt;stroke-linejoin:miter;stroke-opacity:1" d="M 67.1969,53.7915 86.3475,51.8764 z" id="boundary" inkscape:connector-curvature="0" />
	<path style="fill:none;stroke:red;stroke-width:1px;stroke-linecap:butt;stroke-linejoin:miter;stroke-opacity:1" d="M 67.1969,129.436 86.3475,131.351 z" id="boundary" inkscape:connector-curvature="0" />
	<path style="fill:none;stroke:red;stroke-width:1px;stroke-linecap:butt;stroke-linejoin:miter;stroke-opacity:1" d="M 86.3475,51.8764 94.0077,57.6216 z" id="boundary" inkscape:connector-curvature="0" />
	<path style="fill:none;stroke:red;stroke-width:1px;stroke-linecap:butt;stroke-linejoin:miter;stroke-opacity:1" d="M 86.3475,131.351 90.1776,140.927 z" id="boundary" inkscape:connector-curvature="0" />
	<path style="fill:none;stroke:red;stroke-width:1px;stroke-linecap:butt;stroke-linejoin:miter;stroke-opacity:1" d="M 90.1776,140.927 90.1776,150.502 z" id="boundary" inkscape:connector-curvature="0" />
	<path style="fill:none;stroke:red;stroke-width:1px;stroke-linecap:butt;stroke-linejoin:miter;stroke-opacity:1" d="M 90.1776,150.502 94.9653,168.695 z" id="boundary" inkscape:connector-curvature="0" />
	<path style="fill:none;stroke:red;stroke-width:1px;stroke-linecap:butt;stroke-linejoin:miter;stroke-opacity:1" d="M 94.0077,57.6216 97.8378,67.1969 z" id="boundary" inkscape:connector-curvature="0" />
	<path style="fill:none;stroke:red;stroke-width:1px;stroke-linecap:butt;stroke-linejoin:miter;stroke-opacity:1" d="M 94.9653,168.695 99.7529,186.888 z" id="boundary" inkscape:connector-curvature="0" />
	<path style="fill:none;stroke:red;stroke-width:1px;stroke-linecap:butt;stroke-linejoin:miter;stroke-opacity:1" d="M 97.8378,67.1969 105.498,73.8996 z" id="boundary" inkscape:connector-curvature="0" />
	<path style="fill:none;stroke:red;stroke-width:1px;stroke-linecap:butt;stroke-linejoin:miter;stroke-opacity:1" d="M 99.7529,186.888 102.625,196.463 z" id="boundary" inkscape:connector-curvature="0" />
	<path style="fill:none;stroke:red;stroke-width:1px;stroke-linecap:butt;stroke-linejoin:miter;stroke-opacity:1" d="M 102.625,196.463 111.243,214.656 z" id="boundary" inkscape:connector-curvature="0" />
	<path style="fill:none;stroke:red;stroke-width:1px;stroke-linecap:butt;stroke-linejoin:miter;stroke-opacity:1" d="M 105.498,73.8996 112.201,81.5598 z" id="boundary" inkscape:connector-curvature="0" />
	<path style="fill:none;stroke:red;stroke-width:1px;stroke-linecap:butt;stroke-linejoin:miter;stroke-opacity:1" d="M 109.328,308.494 109.328,318.069 z" id="boundary" inkscape:connector-curvature="0" />
	<path style="fill:none;stroke:red;stroke-width:1px;stroke-linecap:butt;stroke-linejoin:miter;stroke-opacity:1" d="M 109.328,308.494 114.116,281.683 z" id="boundary" inkscape:connector-curvature="0" />
	<path style="fill:none;stroke:red;stroke-width:1px;stroke-linecap:butt;stroke-linejoin:miter;stroke-opacity:1" d="M 109.328,318.069 109.328,327.645 z" id="boundary" inkscape:connector-curvature="0" />
	<path style="fill:none;stroke:red;stroke-width:1px;stroke-linecap:butt;stroke-linejoin:miter;stroke-opacity:1" d="M 109.328,327.645 114.116,336.263 z" id="boundary" inkscape:connector-curvature="0" />
	<path style="fill:none;stroke:red;stroke-width:1px;stroke-linecap:butt;stroke-linejoin:miter;stroke-opacity:1" d="M 111.243,214.656 114.116,233.807 z" id="boundary" inkscape:connector-curvature="0" />
	<path style="fill:none;stroke:red;stroke-width:1px;stroke-linecap:butt;stroke-linejoin:miter;stroke-opacity:1" d="M 112.201,81.5598 119.861,88.2625 z" id="boundary" inkscape:connector-curvature="0" />
	<path style="fill:none;stroke:red;stroke-width:1px;stroke-linecap:butt;stroke-linejoin:miter;stroke-opacity:1" d="M 114.116,233.807 114.116,252.958 z" id="boundary" inkscape:connector-curvature="0" />
	<path style="fill:none;stroke:red;stroke-width:1px;stroke-linecap:butt;stroke-linejoin:miter;stroke-opacity:1" d="M 114.116,252.958 114.116,262.533 z" id="boundary" inkscape:connector-curvature="0" />
	<path style="fill:none;stroke:red;stroke-width:1px;stroke-linecap:butt;stroke-linejoin:miter;stroke-opacity:1" d="M 114.116,262.533 114.116,281.683 z" id="boundary" inkscape:connector-curvature="0" />
	<path style="fill:none;stroke:red;stroke-width:1px;stroke-linecap:butt;stroke-linejoin:miter;stroke-opacity:1" d="M 114.116,336.263 118.903,354.456 z" id="boundary" inkscape:connector-curvature="0" />
	<path style="fill:none;stroke:red;stroke-width:1px;stroke-linecap:butt;stroke-linejoin:miter;stroke-opacity:1" d="M 118.903,354.456 123.691,373.606 z" id="boundary" inkscape:connector-curvature="0" />
	<path style="fill:none;stroke:red;stroke-width:1px;stroke-linecap:butt;stroke-linejoin:miter;stroke-opacity:1" d="M 119.861,88.2625 123.691,97.8378 z" id="boundary" inkscape:connector-curvature="0" />
	<path style="fill:none;stroke:red;stroke-width:1px;stroke-linecap:butt;stroke-linejoin:miter;stroke-opacity:1" d="M 123.691,97.8378 128.479,106.456 z" id="boundary" inkscape:connector-curvature="0" />
	<path style="fill:none;stroke:red;stroke-width:1px;stroke-linecap:butt;stroke-linejoin:miter;stroke-opacity:1" d="M 123.691,373.606 129.436,381.266 z" id="boundary" inkscape:connector-curvature="0" />
	<path style="fill:none;stroke:red;stroke-width:1px;stroke-linecap:butt;stroke-linejoin:miter;stroke-opacity:1" d="M 128.479,106.456 134.224,114.116 z" id="boundary" inkscape:connector-curvature="0" />
	<path style="fill:none;stroke:red;stroke-width:1px;stroke-linecap:butt;stroke-linejoin:miter;stroke-opacity:1" d="M 129.436,381.266 139.012,383.181 z" id="boundary" inkscape:connector-curvature="0" />
	<path style="fill:none;stroke:red;stroke-width:1px;stroke-linecap:butt;stroke-linejoin:miter;stroke-opacity:1" d="M 134.224,114.116 151.459,123.691 z" id="boundary" inkscape:connector-curvature="0" />
	<path style="fill:none;stroke:red;stroke-width:1px;stroke-linecap:butt;stroke-linejoin:miter;stroke-opacity:1" d="M 139.012,383.181 147.629,378.394 z" id="boundary" inkscape:connector-curvature="0" />
	<path style="fill:none;stroke:red;stroke-width:1px;stroke-linecap:butt;stroke-linejoin:miter;stroke-opacity:1" d="M 147.629,378.394 162.95,359.243 z" id="boundary" inkscape:connector-curvature="0" />
	<path style="fill:none;stroke:red;stroke-width:1px;stroke-linecap:butt;stroke-linejoin:miter;stroke-opacity:1" d="M 151.459,123.691 170.61,123.691 z" id="boundary" inkscape:connector-curvature="0" />
	<path style="fill:none;stroke:red;stroke-width:1px;stroke-linecap:butt;stroke-linejoin:miter;stroke-opacity:1" d="M 162.95,359.243 167.737,340.093 z" id="boundary" inkscape:connector-curvature="0" />
	<path style="fill:none;stroke:red;stroke-width:1px;stroke-linecap:butt;stroke-linejoin:miter;stroke-opacity:1" d="M 167.737,292.216 167.737,301.792 z" id="boundary" inkscape:connector-curvature="0" />
	<path style="fill:none;stroke:red;stroke-width:1px;stroke-linecap:butt;stroke-linejoin:miter;stroke-opacity:1" d="M 167.737,292.216 172.525,277.853 z" id="boundary" inkscape:connector-curvature="0" />
	<path style="fill:none;stroke:red;stroke-width:1px;stroke-linecap:butt;stroke-linejoin:miter;stroke-opacity:1" d="M 167.737,301.792 167.737,320.942 z" id="boundary" inkscape:connector-curvature="0" />
	<path style="fill:none;stroke:red;stroke-width:1px;stroke-linecap:butt;stroke-linejoin:miter;stroke-opacity:1" d="M 167.737,320.942 167.737,340.093 z" id="boundary" inkscape:connector-curvature="0" />
	<path style="fill:none;stroke:red;stroke-width:1px;stroke-linecap:butt;stroke-linejoin:miter;stroke-opacity:1" d="M 170.61,123.691 189.761,128.479 z" id="boundary" inkscape:connector-curvature="0" />
	<path style="fill:none;stroke:red;stroke-width:1px;stroke-linecap:butt;stroke-linejoin:miter;stroke-opacity:1" d="M 172.525,277.853 177.313,268.278 z" id="boundary" inkscape:connector-curvature="0" />
	<path style="fill:none;stroke:red;stroke-width:1px;stroke-linecap:butt;stroke-linejoin:miter;stroke-opacity:1" d="M 177.313,268.278 184.973,261.575 z" id="boundary" inkscape:connector-curvature="0" />
	<path style="fill:none;stroke:red;stroke-width:1px;stroke-linecap:butt;stroke-linejoin:miter;stroke-opacity:1" d="M 184.973,261.575 204.124,258.703 z" id="boundary" inkscape:connector-curvature="0" />
	<path style="fill:none;stroke:red;stroke-width:1px;stroke-linecap:butt;stroke-linejoin:miter;stroke-opacity:1" d="M 189.761,128.479 199.336,128.479 z" id="boundary" inkscape:connector-curvature="0" />
	<path style="fill:none;stroke:red;stroke-width:1px;stroke-linecap:butt;stroke-linejoin:miter;stroke-opacity:1" d="M 199.336,128.479 218.486,133.266 z" id="boundary" inkscape:connector-curvature="0" />
	<path style="fill:none;stroke:red;stroke-width:1px;stroke-linecap:butt;stroke-linejoin:miter;stroke-opacity:1" d="M 204.124,258.703 223.274,258.703 z" id="boundary" inkscape:connector-curvature="0" />
	<path style="fill:none;stroke:red;stroke-width:1px;stroke-linecap:butt;stroke-linejoin:miter;stroke-opacity:1" d="M 218.486,133.266 237.637,138.054 z" id="boundary" inkscape:connector-curvature="0" />
	<path style="fill:none;stroke:red;stroke-width:1px;stroke-linecap:butt;stroke-linejoin:miter;stroke-opacity:1" d="M 223.274,258.703 232.849,258.703 z" id="boundary" inkscape:connector-curvature="0" />
	<path style="fill:none;stroke:red;stroke-width:1px;stroke-linecap:butt;stroke-linejoin:miter;stroke-opacity:1" d="M 232.849,258.703 252,258.703 z" id="boundary" inkscape:connector-curvature="0" />
	<path style="fill:none;stroke:red;stroke-width:1px;stroke-linecap:butt;stroke-linejoin:miter;stroke-opacity:1" d="M 237.637,138.054 247.212,138.054 z" id="boundary" inkscape:connector-curvature="0" />
	<path style="fill:none;stroke:red;stroke-width:1px;stroke-linecap:butt;stroke-linejoin:miter;stroke-opacity:1" d="M 247.212,138.054 265.405,142.842 z" id="boundary" inkscape:connector-curvature="0" />
	<path style="fill:none;stroke:red;stroke-width:1px;stroke-linecap:butt;stroke-linejoin:miter;stroke-opacity:1" d="M 252,258.703 261.575,258.703 z" id="boundary" inkscape:connector-curvature="0" />
	<path style="fill:none;stroke:red;stroke-width:1px;stroke-linecap:butt;stroke-linejoin:miter;stroke-opacity:1" d="M 261.575,258.703 300.834,287.429 z" id="boundary" inkscape:connector-curvature="0" />
	<path style="fill:none;stroke:red;stroke-width:1px;stroke-linecap:butt;stroke-linejoin:miter;stroke-opacity:1" d="M 265.405,142.842 274.981,142.842 z" id="boundary" inkscape:connector-curvature="0" />
	<path style="fill:none;stroke:red;stroke-width:1px;stroke-linecap:butt;stroke-linejoin:miter;stroke-opacity:1" d="M 274.981,142.842 294.131,142.842 z" id="boundary" inkscape:connector-curvature="0" />
	<path style="fill:none;stroke:red;stroke-width:1px;stroke-linecap:butt;stroke-linejoin:miter;stroke-opacity:1" d="M 279.768,263.49 289.344,263.49 z" id="boundary" inkscape:connector-curvature="0" />
	<path style="fill:none;stroke:red;stroke-width:1px;stroke-linecap:butt;stroke-linejoin:miter;stroke-opacity:1" d="M 279.768,263.49 297.961,268.278 z" id="boundary" inkscape:connector-curvature="0" />
	<path style="fill:none;stroke:red;stroke-width:1px;stroke-linecap:butt;stroke-linejoin:miter;stroke-opacity:1" d="M 289.344,263.49 297.961,268.278 z" id="boundary" inkscape:connector-curvature="0" />
	<path style="fill:none;stroke:red;stroke-width:1px;stroke-linecap:butt;stroke-linejoin:miter;stroke-opacity:1" d="M 294.131,142.842 313.282,142.842 z" id="boundary" inkscape:connector-curvature="0" />
	<path style="fill:none;stroke:red;stroke-width:1px;stroke-linecap:butt;stroke-linejoin:miter;stroke-opacity:1" d="M 296.046,313.282 296.046,322.857 z" id="boundary" inkscape:connector-curvature="0" />
	<path style="fill:none;stroke:red;stroke-width:1px;stroke-linecap:butt;stroke-linejoin:miter;stroke-opacity:1" d="M 296.046,313.282 300.834,287.429 z" id="boundary" inkscape:connector-curvature="0" />
	<path style="fill:none;stroke:red;stroke-width:1px;stroke-linecap:butt;stroke-linejoin:miter;stroke-opacity:1" d="M 296.046,322.857 296.046,332.432 z" id="boundary" inkscape:connector-curvature="0" />
	<path style="fill:none;stroke:red;stroke-width:1px;stroke-linecap:butt;stroke-linejoin:miter;stroke-opacity:1" d="M 296.046,332.432 296.046,351.583 z" id="boundary" inkscape:connector-curvature="0" />
	<path style="fill:none;stroke:red;stroke-width:1px;stroke-linecap:butt;stroke-linejoin:miter;stroke-opacity:1" d="M 296.046,351.583 296.046,361.158 z" id="boundary" inkscape:connector-curvature="0" />
	<path style="fill:none;stroke:red;stroke-width:1px;stroke-linecap:butt;stroke-linejoin:miter;stroke-opacity:1" d="M 296.046,361.158 300.834,369.776 z" id="boundary" inkscape:connector-curvature="0" />
	<path style="fill:none;stroke:red;stroke-width:1px;stroke-linecap:butt;stroke-linejoin:miter;stroke-opacity:1" d="M 300.834,369.776 305.622,378.394 z" id="boundary" inkscape:connector-curvature="0" />
	<path style="fill:none;stroke:red;stroke-width:1px;stroke-linecap:butt;stroke-linejoin:miter;stroke-opacity:1" d="M 305.622,378.394 310.409,387.012 z" id="boundary" inkscape:connector-curvature="0" />
	<path style="fill:none;stroke:red;stroke-width:1px;stroke-linecap:butt;stroke-linejoin:miter;stroke-opacity:1" d="M 310.409,387.012 325.73,397.544 z" id="boundary" inkscape:connector-curvature="0" />
	<path style="fill:none;stroke:red;stroke-width:1px;stroke-linecap:butt;stroke-linejoin:miter;stroke-opacity:1" d="M 313.282,142.842 322.857,142.842 z" id="boundary" inkscape:connector-curvature="0" />
	<path style="fill:none;stroke:red;stroke-width:1px;stroke-linecap:butt;stroke-linejoin:miter;stroke-opacity:1" d="M 322.857,142.842 342.008,138.054 z" id="boundary" inkscape:connector-curvature="0" />
	<path style="fill:none;stroke:red;stroke-width:1px;stroke-linecap:butt;stroke-linejoin:miter;stroke-opacity:1" d="M 325.73,397.544 334.347,392.757 z" id="boundary" inkscape:connector-curvature="0" />
	<path style="fill:none;stroke:red;stroke-width:1px;stroke-linecap:butt;stroke-linejoin:miter;stroke-opacity:1" d="M 334.347,392.757 342.965,387.969 z" id="boundary" inkscape:connector-curvature="0" />
	<path style="fill:none;stroke:red;stroke-width:1px;stroke-linecap:butt;stroke-linejoin:miter;stroke-opacity:1" d="M 342.008,138.054 361.158,138.054 z" id="boundary" inkscape:connector-curvature="0" />
	<path style="fill:none;stroke:red;stroke-width:1px;stroke-linecap:butt;stroke-linejoin:miter;stroke-opacity:1" d="M 342.965,387.969 359.243,373.606 z" id="boundary" inkscape:connector-curvature="0" />
	<path style="fill:none;stroke:red;stroke-width:1px;stroke-linecap:butt;stroke-linejoin:miter;stroke-opacity:1" d="M 359.243,373.606 364.031,354.456 z" id="boundary" inkscape:connector-curvature="0" />
	<path style="fill:none;stroke:red;stroke-width:1px;stroke-linecap:butt;stroke-linejoin:miter;stroke-opacity:1" d="M 361.158,138.054 369.776,142.842 z" id="boundary" inkscape:connector-curvature="0" />
	<path style="fill:none;stroke:red;stroke-width:1px;stroke-linecap:butt;stroke-linejoin:miter;stroke-opacity:1" d="M 364.031,287.429 364.031,306.579 z" id="boundary" inkscape:connector-curvature="0" />
	<path style="fill:none;stroke:red;stroke-width:1px;stroke-linecap:butt;stroke-linejoin:miter;stroke-opacity:1" d="M 364.031,287.429 383.181,287.429 z" id="boundary" inkscape:connector-curvature="0" />
	<path style="fill:none;stroke:red;stroke-width:1px;stroke-linecap:butt;stroke-linejoin:miter;stroke-opacity:1" d="M 364.031,306.579 364.031,325.73 z" id="boundary" inkscape:connector-curvature="0" />
	<path style="fill:none;stroke:red;stroke-width:1px;stroke-linecap:butt;stroke-linejoin:miter;stroke-opacity:1" d="M 364.031,325.73 364.031,335.305 z" id="boundary" inkscape:connector-curvature="0" />
	<path style="fill:none;stroke:red;stroke-width:1px;stroke-linecap:butt;stroke-linejoin:miter;stroke-opacity:1" d="M 364.031,335.305 364.031,354.456 z" id="boundary" inkscape:connector-curvature="0" />
	<path style="fill:none;stroke:red;stroke-width:1px;stroke-linecap:butt;stroke-linejoin:miter;stroke-opacity:1" d="M 369.776,142.842 378.394,147.629 z" id="boundary" inkscape:connector-curvature="0" />
	<path style="fill:none;stroke:red;stroke-width:1px;stroke-linecap:butt;stroke-linejoin:miter;stroke-opacity:1" d="M 378.394,147.629 387.969,150.502 z" id="boundary" inkscape:connector-curvature="0" />
	<path style="fill:none;stroke:red;stroke-width:1px;stroke-linecap:butt;stroke-linejoin:miter;stroke-opacity:1" d="M 383.181,287.429 392.757,289.344 z" id="boundary" inkscape:connector-curvature="0" />
	<path style="fill:none;stroke:red;stroke-width:1px;stroke-linecap:butt;stroke-linejoin:miter;stroke-opacity:1" d="M 387.969,150.502 396.587,155.29 z" id="boundary" inkscape:connector-curvature="0" />
	<path style="fill:none;stroke:red;stroke-width:1px;stroke-linecap:butt;stroke-linejoin:miter;stroke-opacity:1" d="M 392.757,289.344 411.907,292.216 z" id="boundary" inkscape:connector-curvature="0" />
	<path style="fill:none;stroke:red;stroke-width:1px;stroke-linecap:butt;stroke-linejoin:miter;stroke-opacity:1" d="M 396.587,155.29 402.332,162.95 z" id="boundary" inkscape:connector-curvature="0" />
	<path style="fill:none;stroke:red;stroke-width:1px;stroke-linecap:butt;stroke-linejoin:miter;stroke-opacity:1" d="M 402.332,162.95 407.12,171.568 z" id="boundary" inkscape:connector-curvature="0" />
	<path style="fill:none;stroke:red;stroke-width:1px;stroke-linecap:butt;stroke-linejoin:miter;stroke-opacity:1" d="M 407.12,171.568 411.907,189.761 z" id="boundary" inkscape:connector-curvature="0" />
	<path style="fill:none;stroke:red;stroke-width:1px;stroke-linecap:butt;stroke-linejoin:miter;stroke-opacity:1" d="M 411.907,189.761 411.907,208.911 z" id="boundary" inkscape:connector-curvature="0" />
	<path style="fill:none;stroke:red;stroke-width:1px;stroke-linecap:butt;stroke-linejoin:miter;stroke-opacity:1" d="M 411.907,208.911 429.143,215.614 z" id="boundary" inkscape:connector-curvature="0" />
	<path style="fill:none;stroke:red;stroke-width:1px;stroke-linecap:butt;stroke-linejoin:miter;stroke-opacity:1" d="M 411.907,292.216 431.058,292.216 z" id="boundary" inkscape:connector-curvature="0" />
	<path style="fill:none;stroke:red;stroke-width:1px;stroke-linecap:butt;stroke-linejoin:miter;stroke-opacity:1" d="M 429.143,215.614 448.293,219.444 z" id="boundary" inkscape:connector-curvature="0" />
	<path style="fill:none;stroke:red;stroke-width:1px;stroke-linecap:butt;stroke-linejoin:miter;stroke-opacity:1" d="M 431.058,292.216 439.676,306.579 z" id="boundary" inkscape:connector-curvature="0" />
	<path style="fill:none;stroke:red;stroke-width:1px;stroke-linecap:butt;stroke-linejoin:miter;stroke-opacity:1" d="M 439.676,306.579 444.463,315.197 z" id="boundary" inkscape:connector-curvature="0" />
	<path style="fill:none;stroke:red;stroke-width:1px;stroke-linecap:butt;stroke-linejoin:miter;stroke-opacity:1" d="M 444.463,315.197 444.463,334.347 z" id="boundary" inkscape:connector-curvature="0" />
	<path style="fill:none;stroke:red;stroke-width:1px;stroke-linecap:butt;stroke-linejoin:miter;stroke-opacity:1" d="M 444.463,334.347 444.463,343.923 z" id="boundary" inkscape:connector-curvature="0" />
	<path style="fill:none;stroke:red;stroke-width:1px;stroke-linecap:butt;stroke-linejoin:miter;stroke-opacity:1" d="M 444.463,343.923 444.463,363.073 z" id="boundary" inkscape:connector-curvature="0" />
	<path style="fill:none;stroke:red;stroke-width:1px;stroke-linecap:butt;stroke-linejoin:miter;stroke-opacity:1" d="M 444.463,363.073 449.251,382.224 z" id="boundary" inkscape:connector-curvature="0" />
	<path style="fill:none;stroke:red;stroke-width:1px;stroke-linecap:butt;stroke-linejoin:miter;stroke-opacity:1" d="M 448.293,219.444 467.444,219.444 z" id="boundary" inkscape:connector-curvature="0" />
	<path style="fill:none;stroke:red;stroke-width:1px;stroke-linecap:butt;stroke-linejoin:miter;stroke-opacity:1" d="M 449.251,382.224 449.251,391.799 z" id="boundary" inkscape:connector-curvature="0" />
	<path style="fill:none;stroke:red;stroke-width:1px;stroke-linecap:butt;stroke-linejoin:miter;stroke-opacity:1" d="M 449.251,391.799 454.039,400.417 z" id="boundary" inkscape:connector-curvature="0" />
	<path style="fill:none;stroke:red;stroke-width:1px;stroke-linecap:butt;stroke-linejoin:miter;stroke-opacity:1" d="M 454.039,400.417 458.826,409.035 z" id="boundary" inkscape:connector-curvature="0" />
	<path style="fill:none;stroke:red;stroke-width:1px;stroke-linecap:butt;stroke-linejoin:miter;stroke-opacity:1" d="M 458.826,409.035 464.571,416.695 z" id="boundary" inkscape:connector-curvature="0" />
	<path style="fill:none;stroke:red;stroke-width:1px;stroke-linecap:butt;stroke-linejoin:miter;stroke-opacity:1" d="M 464.571,416.695 482.764,421.483 z" id="boundary" inkscape:connector-curvature="0" />
	<path style="fill:none;stroke:red;stroke-width:1px;stroke-linecap:butt;stroke-linejoin:miter;stroke-opacity:1" d="M 467.444,219.444 477.019,219.444 z" id="boundary" inkscape:connector-curvature="0" />
	<path style="fill:none;stroke:red;stroke-width:1px;stroke-linecap:butt;stroke-linejoin:miter;stroke-opacity:1" d="M 477.019,219.444 486.595,219.444 z" id="boundary" inkscape:connector-curvature="0" />
	<path style="fill:none;stroke:red;stroke-width:1px;stroke-linecap:butt;stroke-linejoin:miter;stroke-opacity:1" d="M 482.764,421.483 501.915,421.483 z" id="boundary" inkscape:connector-curvature="0" />
	<path style="fill:none;stroke:red;stroke-width:1px;stroke-linecap:butt;stroke-linejoin:miter;stroke-opacity:1" d="M 486.595,219.444 497.127,198.378 z" id="boundary" inkscape:connector-curvature="0" />
	<path style="fill:none;stroke:red;stroke-width:1px;stroke-linecap:butt;stroke-linejoin:miter;stroke-opacity:1" d="M 497.127,198.378 501.915,169.653 z" id="boundary" inkscape:connector-curvature="0" />
	<path style="fill:none;stroke:red;stroke-width:1px;stroke-linecap:butt;stroke-linejoin:miter;stroke-opacity:1" d="M 501.915,169.653 506.703,150.502 z" id="boundary" inkscape:connector-curvature="0" />
	<path style="fill:none;stroke:red;stroke-width:1px;stroke-linecap:butt;stroke-linejoin:miter;stroke-opacity:1" d="M 501.915,421.483 521.066,421.483 z" id="boundary" inkscape:connector-curvature="0" />
	<path style="fill:none;stroke:red;stroke-width:1px;stroke-linecap:butt;stroke-linejoin:miter;stroke-opacity:1" d="M 506.703,150.502 511.49,136.139 z" id="boundary" inkscape:connector-curvature="0" />
	<path style="fill:none;stroke:red;stroke-width:1px;stroke-linecap:butt;stroke-linejoin:miter;stroke-opacity:1" d="M 511.49,136.139 516.278,126.564 z" id="boundary" inkscape:connector-curvature="0" />
	<path style="fill:none;stroke:red;stroke-width:1px;stroke-linecap:butt;stroke-linejoin:miter;stroke-opacity:1" d="M 516.278,116.988 516.278,126.564 z" id="boundary" inkscape:connector-curvature="0" />
	<path style="fill:none;stroke:red;stroke-width:1px;stroke-linecap:butt;stroke-linejoin:miter;stroke-opacity:1" d="M 516.278,116.988 523.938,109.328 z" id="boundary" inkscape:connector-curvature="0" />
	<path style="fill:none;stroke:red;stroke-width:1px;stroke-linecap:butt;stroke-linejoin:miter;stroke-opacity:1" d="M 521.066,421.483 540.216,421.483 z" id="boundary" inkscape:connector-curvature="0" />
	<path style="fill:none;stroke:red;stroke-width:1px;stroke-linecap:butt;stroke-linejoin:miter;stroke-opacity:1" d="M 523.938,109.328 532.556,104.541 z" id="boundary" inkscape:connector-curvature="0" />
	<path style="fill:none;stroke:red;stroke-width:1px;stroke-linecap:butt;stroke-linejoin:miter;stroke-opacity:1" d="M 532.556,104.541 541.174,99.7529 z" id="boundary" inkscape:connector-curvature="0" />
	<path style="fill:none;stroke:red;stroke-width:1px;stroke-linecap:butt;stroke-linejoin:miter;stroke-opacity:1" d="M 540.216,421.483 558.409,414.78 z" id="boundary" inkscape:connector-curvature="0" />
	<path style="fill:none;stroke:red;stroke-width:1px;stroke-linecap:butt;stroke-linejoin:miter;stroke-opacity:1" d="M 541.174,99.7529 554.579,73.8996 z" id="boundary" inkscape:connector-curvature="0" />
	<path style="fill:none;stroke:red;stroke-width:1px;stroke-linecap:butt;stroke-linejoin:miter;stroke-opacity:1" d="M 554.579,16.4479 554.579,26.0232 z" id="boundary" inkscape:connector-curvature="0" />
	<path style="fill:none;stroke:red;stroke-width:1px;stroke-linecap:butt;stroke-linejoin:miter;stroke-opacity:1" d="M 554.579,16.4479 568.942,4 z" id="boundary" inkscape:connector-curvature="0" />
	<path style="fill:none;stroke:red;stroke-width:1px;stroke-linecap:butt;stroke-linejoin:miter;stroke-opacity:1" d="M 554.579,26.0232 554.579,45.1737 z" id="boundary" inkscape:connector-curvature="0" />
	<path style="fill:none;stroke:red;stroke-width:1px;stroke-linecap:butt;stroke-linejoin:miter;stroke-opacity:1" d="M 554.579,45.1737 554.579,54.749 z" id="boundary" inkscape:connector-curvature="0" />
	<path style="fill:none;stroke:red;stroke-width:1px;stroke-linecap:butt;stroke-linejoin:miter;stroke-opacity:1" d="M 554.579,54.749 554.579,73.8996 z" id="boundary" inkscape:connector-curvature="0" />
	<path style="fill:none;stroke:red;stroke-width:1px;stroke-linecap:butt;stroke-linejoin:miter;stroke-opacity:1" d="M 558.409,414.78 567.985,411.907 z" id="boundary" inkscape:connector-curvature="0" />
	<path style="fill:none;stroke:red;stroke-width:1px;stroke-linecap:butt;stroke-linejoin:miter;stroke-opacity:1" d="M 567.985,411.907 576.602,407.12 z" id="boundary" inkscape:connector-curvature="0" />
	<path style="fill:none;stroke:red;stroke-width:1px;stroke-linecap:butt;stroke-linejoin:miter;stroke-opacity:1" d="M 568.942,4 576.602,9.74517 z" id="boundary" inkscape:connector-curvature="0" />
	<path style="fill:none;stroke:red;stroke-width:1px;stroke-linecap:butt;stroke-linejoin:miter;stroke-opacity:1" d="M 576.602,9.74517 579.475,19.3205 z" id="boundary" inkscape:connector-curvature="0" />
	<path style="fill:none;stroke:red;stroke-width:1px;stroke-linecap:butt;stroke-linejoin:miter;stroke-opacity:1" d="M 576.602,407.12 585.22,402.332 z" id="boundary" inkscape:connector-curvature="0" />
	<path style="fill:none;stroke:red;stroke-width:1px;stroke-linecap:butt;stroke-linejoin:miter;stroke-opacity:1" d="M 579.475,19.3205 584.263,27.9382 z" id="boundary" inkscape:connector-curvature="0" />
	<path style="fill:none;stroke:red;stroke-width:1px;stroke-linecap:butt;stroke-linejoin:miter;stroke-opacity:1" d="M 584.263,27.9382 591.923,33.6834 z" id="boundary" inkscape:connector-curvature="0" />
	<path style="fill:none;stroke:red;stroke-width:1px;stroke-linecap:butt;stroke-linejoin:miter;stroke-opacity:1" d="M 585.22,402.332 593.838,397.544 z" id="boundary" inkscape:connector-curvature="0" />
	<path style="fill:none;stroke:red;stroke-width:1px;stroke-linecap:butt;stroke-linejoin:miter;stroke-opacity:1" d="M 591.923,33.6834 598.625,41.3436 z" id="boundary" inkscape:connector-curvature="0" />
	<path style="fill:none;stroke:red;stroke-width:1px;stroke-linecap:butt;stroke-linejoin:miter;stroke-opacity:1" d="M 593.838,397.544 601.498,390.842 z" id="boundary" inkscape:connector-curvature="0" />
	<path style="fill:none;stroke:red;stroke-width:1px;stroke-linecap:butt;stroke-linejoin:miter;stroke-opacity:1" d="M 598.625,41.3436 603.413,49.9614 z" id="boundary" inkscape:connector-curvature="0" />
	<path style="fill:none;stroke:red;stroke-width:1px;stroke-linecap:butt;stroke-linejoin:miter;stroke-opacity:1" d="M 598.625,263.49 598.625,273.066 z" id="boundary" inkscape:connector-curvature="0" />
	<path style="fill:none;stroke:red;stroke-width:1px;stroke-linecap:butt;stroke-linejoin:miter;stroke-opacity:1" d="M 598.625,263.49 615.861,253.915 z" id="boundary" inkscape:connector-curvature="0" />
	<path style="fill:none;stroke:red;stroke-width:1px;stroke-linecap:butt;stroke-linejoin:miter;stroke-opacity:1" d="M 598.625,273.066 600.541,292.216 z" id="boundary" inkscape:connector-curvature="0" />
	<path style="fill:none;stroke:red;stroke-width:1px;stroke-linecap:butt;stroke-linejoin:miter;stroke-opacity:1" d="M 600.541,292.216 605.328,300.834 z" id="boundary" inkscape:connector-curvature="0" />
	<path style="fill:none;stroke:red;stroke-width:1px;stroke-linecap:butt;stroke-linejoin:miter;stroke-opacity:1" d="M 601.498,390.842 608.201,383.181 z" id="boundary" inkscape:connector-curvature="0" />
	<path style="fill:none;stroke:red;stroke-width:1px;stroke-linecap:butt;stroke-linejoin:miter;stroke-opacity:1" d="M 603.413,49.9614 608.201,58.5792 z" id="boundary" inkscape:connector-curvature="0" />
	<path style="fill:none;stroke:red;stroke-width:1px;stroke-linecap:butt;stroke-linejoin:miter;stroke-opacity:1" d="M 605.328,300.834 608.201,310.409 z" id="boundary" inkscape:connector-curvature="0" />
	<path style="fill:none;stroke:red;stroke-width:1px;stroke-linecap:butt;stroke-linejoin:miter;stroke-opacity:1" d="M 608.201,58.5792 612.988,67.1969 z" id="boundary" inkscape:connector-curvature="0" />
	<path style="fill:none;stroke:red;stroke-width:1px;stroke-linecap:butt;stroke-linejoin:miter;stroke-opacity:1" d="M 608.201,310.409 612.988,328.602 z" id="boundary" inkscape:connector-curvature="0" />
	<path style="fill:none;stroke:red;stroke-width:1px;stroke-linecap:butt;stroke-linejoin:miter;stroke-opacity:1" d="M 608.201,383.181 617.776,365.946 z" id="boundary" inkscape:connector-curvature="0" />
	<path style="fill:none;stroke:red;stroke-width:1px;stroke-linecap:butt;stroke-linejoin:miter;stroke-opacity:1" d="M 612.988,67.1969 617.776,85.39 z" id="boundary" inkscape:connector-curvature="0" />
	<path style="fill:none;stroke:red;stroke-width:1px;stroke-linecap:butt;stroke-linejoin:miter;stroke-opacity:1" d="M 612.988,328.602 617.776,346.795 z" id="boundary" inkscape:connector-curvature="0" />
	<path style="fill:none;stroke:red;stroke-width:1px;stroke-linecap:butt;stroke-linejoin:miter;stroke-opacity:1" d="M 615.861,253.915 625.436,253.915 z" id="boundary" inkscape:connector-curvature="0" />
	<path style="fill:none;stroke:red;stroke-width:1px;stroke-linecap:butt;stroke-linejoin:miter;stroke-opacity:1" d="M 617.776,85.39 617.776,104.541 z" id="boundary" inkscape:connector-curvature="0" />
	<path style="fill:none;stroke:red;stroke-width:1px;stroke-linecap:butt;stroke-linejoin:miter;stroke-opacity:1" d="M 617.776,104.541 617.776,123.691 z" id="boundary" inkscape:connector-curvature="0" />
	<path style="fill:none;stroke:red;stroke-width:1px;stroke-linecap:butt;stroke-linejoin:miter;stroke-opacity:1" d="M 617.776,123.691 635.969,128.479 z" id="boundary" inkscape:connector-curvature="0" />
	<path style="fill:none;stroke:red;stroke-width:1px;stroke-linecap:butt;stroke-linejoin:miter;stroke-opacity:1" d="M 617.776,346.795 617.776,365.946 z" id="boundary" inkscape:connector-curvature="0" />
	<path style="fill:none;stroke:red;stroke-width:1px;stroke-linecap:butt;stroke-linejoin:miter;stroke-opacity:1" d="M 625.436,253.915 632.139,261.575 z" id="boundary" inkscape:connector-curvature="0" />
	<path style="fill:none;stroke:red;stroke-width:1px;stroke-linecap:butt;stroke-linejoin:miter;stroke-opacity:1" d="M 632.139,261.575 635.969,280.726 z" id="boundary" inkscape:connector-curvature="0" />
	<path style="fill:none;stroke:red;stroke-width:1px;stroke-linecap:butt;stroke-linejoin:miter;stroke-opacity:1" d="M 635.969,128.479 643.629,134.224 z" id="boundary" inkscape:connector-curvature="0" />
	<path style="fill:none;stroke:red;stroke-width:1px;stroke-linecap:butt;stroke-linejoin:miter;stroke-opacity:1" d="M 635.969,280.726 635.969,290.301 z" id="boundary" inkscape:connector-curvature="0" />
	<path style="fill:none;stroke:red;stroke-width:1px;stroke-linecap:butt;stroke-linejoin:miter;stroke-opacity:1" d="M 635.969,290.301 640.757,298.919 z" id="boundary" inkscape:connector-curvature="0" />
	<path style="fill:none;stroke:red;stroke-width:1px;stroke-linecap:butt;stroke-linejoin:miter;stroke-opacity:1" d="M 640.757,298.919 645.544,307.537 z" id="boundary" inkscape:connector-curvature="0" />
	<path style="fill:none;stroke:red;stroke-width:1px;stroke-linecap:butt;stroke-linejoin:miter;stroke-opacity:1" d="M 643.629,134.224 651.29,150.502 z" id="boundary" inkscape:connector-curvature="0" />
	<path style="fill:none;stroke:red;stroke-width:1px;stroke-linecap:butt;stroke-linejoin:miter;stroke-opacity:1" d="M 645.544,307.537 650.332,316.154 z" id="boundary" inkscape:connector-curvature="0" />
	<path style="fill:none;stroke:red;stroke-width:1px;stroke-linecap:butt;stroke-linejoin:miter;stroke-opacity:1" d="M 650.332,316.154 657.035,334.347 z" id="boundary" inkscape:connector-curvature="0" />
	<path style="fill:none;stroke:red;stroke-width:1px;stroke-linecap:butt;stroke-linejoin:miter;stroke-opacity:1" d="M 651.29,150.502 651.29,169.653 z" id="boundary" inkscape:connector-curvature="0" />
	<path style="fill:none;stroke:red;stroke-width:1px;stroke-linecap:butt;stroke-linejoin:miter;stroke-opacity:1" d="M 651.29,169.653 651.29,188.803 z" id="boundary" inkscape:connector-curvature="0" />
	<path style="fill:none;stroke:red;stroke-width:1px;stroke-linecap:butt;stroke-linejoin:miter;stroke-opacity:1" d="M 651.29,188.803 651.29,207.954 z" id="boundary" inkscape:connector-curvature="0" />
	<path style="fill:none;stroke:red;stroke-width:1px;stroke-linecap:butt;stroke-linejoin:miter;stroke-opacity:1" d="M 651.29,207.954 655.12,217.529 z" id="boundary" inkscape:connector-curvature="0" />
	<path style="fill:none;stroke:red;stroke-width:1px;stroke-linecap:butt;stroke-linejoin:miter;stroke-opacity:1" d="M 655.12,217.529 672.355,224.232 z" id="boundary" inkscape:connector-curvature="0" />
	<path style="fill:none;stroke:red;stroke-width:1px;stroke-linecap:butt;stroke-linejoin:miter;stroke-opacity:1" d="M 657.035,334.347 661.822,342.965 z" id="boundary" inkscape:connector-curvature="0" />
	<path style="fill:none;stroke:red;stroke-width:1px;stroke-linecap:butt;stroke-linejoin:miter;stroke-opacity:1" d="M 661.822,342.965 669.483,349.668 z" id="boundary" inkscape:connector-curvature="0" />
	<path style="fill:none;stroke:red;stroke-width:1px;stroke-linecap:butt;stroke-linejoin:miter;stroke-opacity:1" d="M 669.483,349.668 674.27,358.286 z" id="boundary" inkscape:connector-curvature="0" />
	<path style="fill:none;stroke:red;stroke-width:1px;stroke-linecap:butt;stroke-linejoin:miter;stroke-opacity:1" d="M 672.355,224.232 681.931,224.232 z" id="boundary" inkscape:connector-curvature="0" />
	<path style="fill:none;stroke:red;stroke-width:1px;stroke-linecap:butt;stroke-linejoin:miter;stroke-opacity:1" d="M 674.27,358.286 680.015,365.946 z" id="boundary" inkscape:connector-curvature="0" />
	<path style="fill:none;stroke:red;stroke-width:1px;stroke-linecap:butt;stroke-linejoin:miter;stroke-opacity:1" d="M 680.015,365.946 698.208,373.606 z" id="boundary" inkscape:connector-curvature="0" />
	<path style="fill:none;stroke:red;stroke-width:1px;stroke-linecap:butt;stroke-linejoin:miter;stroke-opacity:1" d="M 681.931,224.232 701.081,224.232 z" id="boundary" inkscape:connector-curvature="0" />
	<path style="fill:none;stroke:red;stroke-width:1px;stroke-linecap:butt;stroke-linejoin:miter;stroke-opacity:1" d="M 698.208,373.606 717.359,373.606 z" id="boundary" inkscape:connector-curvature="0" />
	<path style="fill:none;stroke:red;stroke-width:1px;stroke-linecap:butt;stroke-linejoin:miter;stroke-opacity:1" d="M 701.081,224.232 720.232,224.232 z" id="boundary" inkscape:connector-curvature="0" />
	<path style="fill:none;stroke:red;stroke-width:1px;stroke-linecap:butt;stroke-linejoin:miter;stroke-opacity:1" d="M 717.359,373.606 736.51,373.606 z" id="boundary" inkscape:connector-curvature="0" />
	<path style="fill:none;stroke:red;stroke-width:1px;stroke-linecap:butt;stroke-linejoin:miter;stroke-opacity:1" d="M 720.232,224.232 726.934,207.954 z" id="boundary" inkscape:connector-curvature="0" />
	<path style="fill:none;stroke:red;stroke-width:1px;stroke-linecap:butt;stroke-linejoin:miter;stroke-opacity:1" d="M 726.934,179.228 726.934,188.803 z" id="boundary" inkscape:connector-curvature="0" />
	<path style="fill:none;stroke:red;stroke-width:1px;stroke-linecap:butt;stroke-linejoin:miter;stroke-opacity:1" d="M 726.934,179.228 731.722,164.865 z" id="boundary" inkscape:connector-curvature="0" />
	<path style="fill:none;stroke:red;stroke-width:1px;stroke-linecap:butt;stroke-linejoin:miter;stroke-opacity:1" d="M 726.934,188.803 726.934,207.954 z" id="boundary" inkscape:connector-curvature="0" />
	<path style="fill:none;stroke:red;stroke-width:1px;stroke-linecap:butt;stroke-linejoin:miter;stroke-opacity:1" d="M 731.722,164.865 746.085,150.502 z" id="boundary" inkscape:connector-curvature="0" />
	<path style="fill:none;stroke:red;stroke-width:1px;stroke-linecap:butt;stroke-linejoin:miter;stroke-opacity:1" d="M 736.51,373.606 746.085,373.606 z" id="boundary" inkscape:connector-curvature="0" />
	<path style="fill:none;stroke:red;stroke-width:1px;stroke-linecap:butt;stroke-linejoin:miter;stroke-opacity:1" d="M 746.085,150.502 765.236,142.842 z" id="boundary" inkscape:connector-curvature="0" />
	<path style="fill:none;stroke:red;stroke-width:1px;stroke-linecap:butt;stroke-linejoin:miter;stroke-opacity:1" d="M 746.085,373.606 765.236,373.606 z" id="boundary" inkscape:connector-curvature="0" />
	<path style="fill:none;stroke:red;stroke-width:1px;stroke-linecap:butt;stroke-linejoin:miter;stroke-opacity:1" d="M 765.236,142.842 774.811,131.351 z" id="boundary" inkscape:connector-curvature="0" />
	<path style="fill:none;stroke:red;stroke-width:1px;stroke-linecap:butt;stroke-linejoin:miter;stroke-opacity:1" d="M 765.236,373.606 784.386,373.606 z" id="boundary" inkscape:connector-curvature="0" />
	<path style="fill:none;stroke:red;stroke-width:1px;stroke-linecap:butt;stroke-linejoin:miter;stroke-opacity:1" d="M 774.811,131.351 779.598,112.201 z" id="boundary" inkscape:connector-curvature="0" />
	<path style="fill:none;stroke:red;stroke-width:1px;stroke-linecap:butt;stroke-linejoin:miter;stroke-opacity:1" d="M 779.598,112.201 784.386,88.2625 z" id="boundary" inkscape:connector-curvature="0" />
	<path style="fill:none;stroke:red;stroke-width:1px;stroke-linecap:butt;stroke-linejoin:miter;stroke-opacity:1" d="M 784.386,69.112 784.386,88.2625 z" id="boundary" inkscape:connector-curvature="0" />
	<path style="fill:none;stroke:red;stroke-width:1px;stroke-linecap:butt;stroke-linejoin:miter;stroke-opacity:1" d="M 784.386,69.112 792.046,61.4517 z" id="boundary" inkscape:connector-curvature="0" />
	<path style="fill:none;stroke:red;stroke-width:1px;stroke-linecap:butt;stroke-linejoin:miter;stroke-opacity:1" d="M 784.386,373.606 793.961,373.606 z" id="boundary" inkscape:connector-curvature="0" />
	<path style="fill:none;stroke:red;stroke-width:1px;stroke-linecap:butt;stroke-linejoin:miter;stroke-opacity:1" d="M 792.046,61.4517 810.239,56.6641 z" id="boundary" inkscape:connector-curvature="0" />
	<path style="fill:none;stroke:red;stroke-width:1px;stroke-linecap:butt;stroke-linejoin:miter;stroke-opacity:1" d="M 793.961,373.606 802.579,378.394 z" id="boundary" inkscape:connector-curvature="0" />
	<path style="fill:none;stroke:red;stroke-width:1px;stroke-linecap:butt;stroke-linejoin:miter;stroke-opacity:1" d="M 802.579,378.394 809.282,386.054 z" id="boundary" inkscape:connector-curvature="0" />
	<path style="fill:none;stroke:red;stroke-width:1px;stroke-linecap:butt;stroke-linejoin:miter;stroke-opacity:1" d="M 809.282,386.054 817.9,404.247 z" id="boundary" inkscape:connector-curvature="0" />
	<path style="fill:none;stroke:red;stroke-width:1px;stroke-linecap:butt;stroke-linejoin:miter;stroke-opacity:1" d="M 810.239,56.6641 829.39,56.6641 z" id="boundary" inkscape:connector-curvature="0" />
	<path style="fill:none;stroke:red;stroke-width:1px;stroke-linecap:butt;stroke-linejoin:miter;stroke-opacity:1" d="M 817.9,404.247 822.687,412.865 z" id="boundary" inkscape:connector-curvature="0" />
	<path style="fill:none;stroke:red;stroke-width:1px;stroke-linecap:butt;stroke-linejoin:miter;stroke-opacity:1" d="M 822.687,412.865 829.39,420.525 z" id="boundary" inkscape:connector-curvature="0" />
	<path style="fill:none;stroke:red;stroke-width:1px;stroke-linecap:butt;stroke-linejoin:miter;stroke-opacity:1" d="M 829.39,56.6641 838.008,51.8764 z" id="boundary" inkscape:connector-curvature="0" />
	<path style="fill:none;stroke:red;stroke-width:1px;stroke-linecap:butt;stroke-linejoin:miter;stroke-opacity:1" d="M 829.39,420.525 837.05,426.27 z" id="boundary" inkscape:connector-curvature="0" />
	<path style="fill:none;stroke:red;stroke-width:1px;stroke-linecap:butt;stroke-linejoin:miter;stroke-opacity:1" d="M 837.05,426.27 845.668,431.058 z" id="boundary" inkscape:connector-curvature="0" />
	<path style="fill:none;stroke:red;stroke-width:1px;stroke-linecap:butt;stroke-linejoin:miter;stroke-opacity:1" d="M 838.008,51.8764 846.625,56.6641 z" id="boundary" inkscape:connector-curvature="0" />
	<path style="fill:none;stroke:red;stroke-width:1px;stroke-linecap:butt;stroke-linejoin:miter;stroke-opacity:1" d="M 845.668,431.058 863.861,439.676 z" id="boundary" inkscape:connector-curvature="0" />
	<path style="fill:none;stroke:red;stroke-width:1px;stroke-linecap:butt;stroke-linejoin:miter;stroke-opacity:1" d="M 846.625,56.6641 854.286,62.4093 z" id="boundary" inkscape:connector-curvature="0" />
	<path style="fill:none;stroke:red;stroke-width:1px;stroke-linecap:butt;stroke-linejoin:miter;stroke-opacity:1" d="M 854.286,62.4093 861.946,69.112 z" id="boundary" inkscape:connector-curvature="0" />
	<path style="fill:none;stroke:red;stroke-width:1px;stroke-linecap:butt;stroke-linejoin:miter;stroke-opacity:1" d="M 861.946,69.112 868.649,76.7722 z" id="boundary" inkscape:connector-curvature="0" />
	<path style="fill:none;stroke:red;stroke-width:1px;stroke-linecap:butt;stroke-linejoin:miter;stroke-opacity:1" d="M 863.861,439.676 883.012,440.633 z" id="boundary" inkscape:connector-curvature="0" />
	<path style="fill:none;stroke:red;stroke-width:1px;stroke-linecap:butt;stroke-linejoin:miter;stroke-opacity:1" d="M 868.649,76.7722 880.139,93.0502 z" id="boundary" inkscape:connector-curvature="0" />
	<path style="fill:none;stroke:red;stroke-width:1px;stroke-linecap:butt;stroke-linejoin:miter;stroke-opacity:1" d="M 880.139,93.0502 899.29,99.7529 z" id="boundary" inkscape:connector-curvature="0" />
	<path style="fill:none;stroke:red;stroke-width:1px;stroke-linecap:butt;stroke-linejoin:miter;stroke-opacity:1" d="M 883.012,440.633 902.162,440.633 z" id="boundary" inkscape:connector-curvature="0" />
	<path style="fill:none;stroke:red;stroke-width:1px;stroke-linecap:butt;stroke-linejoin:miter;stroke-opacity:1" d="M 899.29,99.7529 908.865,99.7529 z" id="boundary" inkscape:connector-curvature="0" />
	<path style="fill:none;stroke:red;stroke-width:1px;stroke-linecap:butt;stroke-linejoin:miter;stroke-opacity:1" d="M 902.162,440.633 911.737,440.633 z" id="boundary" inkscape:connector-curvature="0" />
	<path style="fill:none;stroke:red;stroke-width:1px;stroke-linecap:butt;stroke-linejoin:miter;stroke-opacity:1" d="M 908.865,99.7529 917.483,104.541 z" id="boundary" inkscape:connector-curvature="0" />
	<path style="fill:none;stroke:red;stroke-width:1px;stroke-linecap:butt;stroke-linejoin:miter;stroke-opacity:1" d="M 917.483,104.541 927.058,104.541 z" id="boundary" inkscape:connector-curvature="0" />
	<path style="fill:none;stroke:red;stroke-width:1px;stroke-linecap:butt;stroke-linejoin:miter;stroke-opacity:1" d="M 927.058,104.541 935.676,109.328 z" id="boundary" inkscape:connector-curvature="0" />
	<path style="fill:none;stroke:red;stroke-width:1px;stroke-linecap:butt;stroke-linejoin:miter;stroke-opacity:1" d="M 930.888,440.633 940.463,440.633 z" id="boundary" inkscape:connector-curvature="0" />
	<path style="fill:none;stroke:red;stroke-width:1px;stroke-linecap:butt;stroke-linejoin:miter;stroke-opacity:1" d="M 930.888,440.633 949.081,435.846 z" id="boundary" inkscape:connector-curvature="0" />
	<path style="fill:none;stroke:red;stroke-width:1px;stroke-linecap:butt;stroke-linejoin:miter;stroke-opacity:1" d="M 935.676,109.328 944.293,114.116 z" id="boundary" inkscape:connector-curvature="0" />
	<path style="fill:none;stroke:red;stroke-width:1px;stroke-linecap:butt;stroke-linejoin:miter;stroke-opacity:1" d="M 940.463,440.633 949.081,435.846 z" id="boundary" inkscape:connector-curvature="0" />
	<path style="fill:none;stroke:red;stroke-width:1px;stroke-linecap:butt;stroke-linejoin:miter;stroke-opacity:1" d="M 944.293,114.116 952.911,118.903 z" id="boundary" inkscape:connector-curvature="0" />
	<path style="fill:none;stroke:red;stroke-width:1px;stroke-linecap:butt;stroke-linejoin:miter;stroke-opacity:1" d="M 952.911,118.903 957.699,127.521 z" id="boundary" inkscape:connector-curvature="0" />
	<path style="fill:none;stroke:red;stroke-width:1px;stroke-linecap:butt;stroke-linejoin:miter;stroke-opacity:1" d="M 957.699,127.521 965.359,134.224 z" id="boundary" inkscape:connector-curvature="0" />
	<path style="fill:none;stroke:red;stroke-width:1px;stroke-linecap:butt;stroke-linejoin:miter;stroke-opacity:1" d="M 962.486,201.251 962.486,210.826 z" id="boundary" inkscape:connector-curvature="0" />
	<path style="fill:none;stroke:red;stroke-width:1px;stroke-linecap:butt;stroke-linejoin:miter;stroke-opacity:1" d="M 962.486,201.251 967.274,186.888 z" id="boundary" inkscape:connector-curvature="0" />
	<path style="fill:none;stroke:red;stroke-width:1px;stroke-linecap:butt;stroke-linejoin:miter;stroke-opacity:1" d="M 962.486,210.826 962.486,220.402 z" id="boundary" inkscape:connector-curvature="0" />
	<path style="fill:none;stroke:red;stroke-width:1px;stroke-linecap:butt;stroke-linejoin:miter;stroke-opacity:1" d="M 962.486,220.402 962.486,229.977 z" id="boundary" inkscape:connector-curvature="0" />
	<path style="fill:none;stroke:red;stroke-width:1px;stroke-linecap:butt;stroke-linejoin:miter;stroke-opacity:1" d="M 962.486,229.977 967.274,238.595 z" id="boundary" inkscape:connector-curvature="0" />
	<path style="fill:none;stroke:red;stroke-width:1px;stroke-linecap:butt;stroke-linejoin:miter;stroke-opacity:1" d="M 965.359,134.224 972.062,141.884 z" id="boundary" inkscape:connector-curvature="0" />
	<path style="fill:none;stroke:red;stroke-width:1px;stroke-linecap:butt;stroke-linejoin:miter;stroke-opacity:1" d="M 967.274,186.888 972.062,177.313 z" id="boundary" inkscape:connector-curvature="0" />
	<path style="fill:none;stroke:red;stroke-width:1px;stroke-linecap:butt;stroke-linejoin:miter;stroke-opacity:1" d="M 967.274,238.595 972.062,247.212 z" id="boundary" inkscape:connector-curvature="0" />
	<path style="fill:none;stroke:red;stroke-width:1px;stroke-linecap:butt;stroke-linejoin:miter;stroke-opacity:1" d="M 967.274,426.27 976.849,407.12 z" id="boundary" inkscape:connector-curvature="0" />
	<path style="fill:none;stroke:red;stroke-width:1px;stroke-linecap:butt;stroke-linejoin:miter;stroke-opacity:1" d="M 972.062,141.884 976.849,150.502 z" id="boundary" inkscape:connector-curvature="0" />
	<path style="fill:none;stroke:red;stroke-width:1px;stroke-linecap:butt;stroke-linejoin:miter;stroke-opacity:1" d="M 972.062,177.313 976.849,150.502 z" id="boundary" inkscape:connector-curvature="0" />
	<path style="fill:none;stroke:red;stroke-width:1px;stroke-linecap:butt;stroke-linejoin:miter;stroke-opacity:1" d="M 972.062,247.212 976.849,255.83 z" id="boundary" inkscape:connector-curvature="0" />
	<path style="fill:none;stroke:red;stroke-width:1px;stroke-linecap:butt;stroke-linejoin:miter;stroke-opacity:1" d="M 976.849,255.83 981.637,264.448 z" id="boundary" inkscape:connector-curvature="0" />
	<path style="fill:none;stroke:red;stroke-width:1px;stroke-linecap:butt;stroke-linejoin:miter;stroke-opacity:1" d="M 976.849,407.12 991.212,387.969 z" id="boundary" inkscape:connector-curvature="0" />
	<path style="fill:none;stroke:red;stroke-width:1px;stroke-linecap:butt;stroke-linejoin:miter;stroke-opacity:1" d="M 981.637,264.448 986.425,273.066 z" id="boundary" inkscape:connector-curvature="0" />
	<path style="fill:none;stroke:red;stroke-width:1px;stroke-linecap:butt;stroke-linejoin:miter;stroke-opacity:1" d="M 986.425,273.066 991.212,281.683 z" id="boundary" inkscape:connector-curvature="0" />
	<path style="fill:none;stroke:red;stroke-width:1px;stroke-linecap:butt;stroke-linejoin:miter;stroke-opacity:1" d="M 991.212,281.683 991.212,291.259 z" id="boundary" inkscape:connector-curvature="0" />
	<path style="fill:none;stroke:red;stroke-width:1px;stroke-linecap:butt;stroke-linejoin:miter;stroke-opacity:1" d="M 991.212,291.259 996,309.452 z" id="boundary" inkscape:connector-curvature="0" />
	<path style="fill:none;stroke:red;stroke-width:1px;stroke-linecap:butt;stroke-linejoin:miter;stroke-opacity:1" d="M 991.212,387.969 996,376.479 z" id="boundary" inkscape:connector-curvature="0" />
	<path style="fill:none;stroke:red;stroke-width:1px;stroke-linecap:butt;stroke-linejoin:miter;stroke-opacity:1" d="M 996,309.452 996,328.602 z" id="boundary" inkscape:connector-curvature="0" />
	<path style="fill:none;stroke:red;stroke-width:1px;stroke-linecap:butt;stroke-linejoin:miter;stroke-opacity:1" d="M 996,328.602 996,338.178 z" id="boundary" inkscape:connector-curvature="0" />
	<path style="fill:none;stroke:red;stroke-width:1px;stroke-linecap:butt;stroke-linejoin:miter;stroke-opacity:1" d="M 996,338.178 996,357.328 z" id="boundary" inkscape:connector-curvature="0" />
	<path style="fill:none;stroke:red;stroke-width:1px;stroke-linecap:butt;stroke-linejoin:miter;stroke-opacity:1" d="M 996,357.328 996,376.479 z" id="boundary" inkscape:connector-curvature="0" />
	<circle cx="4" cy="121.776" r="4" fill="#0" id="circle0"/>
	<circle cx="8.78764" cy="112.201" r="4" fill="#0" id="circle1"/>
	<circle cx="8.78764" cy="130.394" r="4" fill="#0" id="circle2"/>
	<circle cx="13.5753" cy="139.012" r="4" fill="#0" id="circle3"/>
	<circle cx="18.3629" cy="107.413" r="4" fill="#0" id="circle4"/>
	<circle cx="18.3629" cy="147.629" r="4" fill="#0" id="circle5"/>
	<circle cx="24.1081" cy="155.29" r="4" fill="#0" id="circle6"/>
	<circle cx="26.0232" cy="99.7529" r="4" fill="#0" id="circle7"/>
	<circle cx="30.8108" cy="162.95" r="4" fill="#0" id="circle8"/>
	<circle cx="35.5985" cy="94.9653" r="4" fill="#0" id="circle9"/>
	<circle cx="37.5135" cy="83.4749" r="4" fill="#0" id="circle10"/>
	<circle cx="39.4286" cy="158.162" r="4" fill="#0" id="circle11"/>
	<circle cx="42.3012" cy="73.8996" r="4" fill="#0" id="circle12"/>
	<circle cx="43.2587" cy="148.587" r="4" fill="#0" id="circle13"/>
	<circle cx="49.9614" cy="66.2394" r="4" fill="#0" id="circle14"/>
	<circle cx="50.9189" cy="141.884" r="4" fill="#0" id="circle15"/>
	<circle cx="57.6216" cy="58.5792" r="4" fill="#0" id="circle16"/>
	<circle cx="57.6216" cy="134.224" r="4" fill="#0" id="circle17"/>
	<circle cx="67.1969" cy="53.7915" r="4" fill="#0" id="circle18"/>
	<circle cx="67.1969" cy="129.436" r="4" fill="#0" id="circle19"/>
	<circle cx="76.7722" cy="49.0039" r="4" fill="#0" id="circle20"/>
	<circle cx="76.7722" cy="129.436" r="4" fill="#0" id="circle21"/>
	<circle cx="86.3475" cy="51.8764" r="4" fill="#0" id="circle22"/>
	<circle cx="86.3475" cy="131.351" r="4" fill="#0" id="circle23"/>
	<circle cx="90.1776" cy="140.927" r="4" fill="#0" id="circle24"/>
	<circle cx="90.1776" cy="150.502" r="4" fill="#0" id="circle25"/>
	<circle cx="94.0077" cy="57.6216" r="4" fill="#0" id="circle26"/>
	<circle cx="94.9653" cy="159.12" r="4" fill="#0" id="circle27"/>
	<circle cx="94.9653" cy="168.695" r="4" fill="#0" id="circle28"/>
	<circle cx="97.8378" cy="67.1969" r="4" fill="#0" id="circle29"/>
	<circle cx="99.7529" cy="177.313" r="4" fill="#0" id="circle30"/>
	<circle cx="99.7529" cy="186.888" r="4" fill="#0" id="circle31"/>
	<circle cx="102.625" cy="196.463" r="4" fill="#0" id="circle32"/>
	<circle cx="105.498" cy="73.8996" r="4" fill="#0" id="circle33"/>
	<circle cx="107.413" cy="205.081" r="4" fill="#0" id="circle34"/>
	<circle cx="109.328" cy="308.494" r="4" fill="#0" id="circle35"/>
	<circle cx="109.328" cy="318.069" r="4" fill="#0" id="circle36"/>
	<circle cx="109.328" cy="327.645" r="4" fill="#0" id="circle37"/>
	<circle cx="111.243" cy="214.656" r="4" fill="#0" id="circle38"/>
	<circle cx="112.201" cy="81.5598" r="4" fill="#0" id="circle39"/>
	<circle cx="114.116" cy="224.232" r="4" fill="#0" id="circle40"/>
	<circle cx="114.116" cy="233.807" r="4" fill="#0" id="circle41"/>
	<circle cx="114.116" cy="243.382" r="4" fill="#0" id="circle42"/>
	<circle cx="114.116" cy="252.958" r="4" fill="#0" id="circle43"/>
	<circle cx="114.116" cy="262.533" r="4" fill="#0" id="circle44"/>
	<circle cx="114.116" cy="272.108" r="4" fill="#0" id="circle45"/>
	<circle cx="114.116" cy="281.683" r="4" fill="#0" id="circle46"/>
	<circle cx="114.116" cy="291.259" r="4" fill="#0" id="circle47"/>
	<circle cx="114.116" cy="336.263" r="4" fill="#0" id="circle48"/>
	<circle cx="118.903" cy="344.88" r="4" fill="#0" id="circle49"/>
	<circle cx="118.903" cy="354.456" r="4" fill="#0" id="circle50"/>
	<circle cx="119.861" cy="88.2625" r="4" fill="#0" id="circle51"/>
	<circle cx="121.776" cy="364.031" r="4" fill="#0" id="circle52"/>
	<circle cx="123.691" cy="97.8378" r="4" fill="#0" id="circle53"/>
	<circle cx="123.691" cy="373.606" r="4" fill="#0" id="circle54"/>
	<circle cx="128.479" cy="106.456" r="4" fill="#0" id="circle55"/>
	<circle cx="129.436" cy="381.266" r="4" fill="#0" id="circle56"/>
	<circle cx="134.224" cy="114.116" r="4" fill="#0" id="circle57"/>
	<circle cx="139.012" cy="383.181" r="4" fill="#0" id="circle58"/>
	<circle cx="141.884" cy="119.861" r="4" fill="#0" id="circle59"/>
	<circle cx="147.629" cy="378.394" r="4" fill="#0" id="circle60"/>
	<circle cx="151.459" cy="123.691" r="4" fill="#0" id="circle61"/>
	<circle cx="155.29" cy="372.649" r="4" fill="#0" id="circle62"/>
	<circle cx="161.035" cy="123.691" r="4" fill="#0" id="circle63"/>
	<circle cx="162.95" cy="359.243" r="4" fill="#0" id="circle64"/>
	<circle cx="167.737" cy="292.216" r="4" fill="#0" id="circle65"/>
	<circle cx="167.737" cy="301.792" r="4" fill="#0" id="circle66"/>
	<circle cx="167.737" cy="311.367" r="4" fill="#0" id="circle67"/>
	<circle cx="167.737" cy="320.942" r="4" fill="#0" id="circle68"/>
	<circle cx="167.737" cy="330.517" r="4" fill="#0" id="circle69"/>
	<circle cx="167.737" cy="340.093" r="4" fill="#0" id="circle70"/>
	<circle cx="167.737" cy="349.668" r="4" fill="#0" id="circle71"/>
	<circle cx="170.61" cy="123.691" r="4" fill="#0" id="circle72"/>
	<circle cx="172.525" cy="277.853" r="4" fill="#0" id="circle73"/>
	<circle cx="177.313" cy="268.278" r="4" fill="#0" id="circle74"/>
	<circle cx="180.185" cy="124.649" r="4" fill="#0" id="circle75"/>
	<circle cx="184.973" cy="261.575" r="4" fill="#0" id="circle76"/>
	<circle cx="189.761" cy="128.479" r="4" fill="#0" id="circle77"/>
	<circle cx="194.548" cy="258.703" r="4" fill="#0" id="circle78"/>
	<circle cx="199.336" cy="128.479" r="4" fill="#0" id="circle79"/>
	<circle cx="204.124" cy="258.703" r="4" fill="#0" id="circle80"/>
	<circle cx="208.911" cy="129.436" r="4" fill="#0" id="circle81"/>
	<circle cx="213.699" cy="258.703" r="4" fill="#0" id="circle82"/>
	<circle cx="218.486" cy="133.266" r="4" fill="#0" id="circle83"/>
	<circle cx="223.274" cy="258.703" r="4" fill="#0" id="circle84"/>
	<circle cx="228.062" cy="134.224" r="4" fill="#0" id="circle85"/>
	<circle cx="232.849" cy="258.703" r="4" fill="#0" id="circle86"/>
	<circle cx="237.637" cy="138.054" r="4" fill="#0" id="circle87"/>
	<circle cx="242.425" cy="258.703" r="4" fill="#0" id="circle88"/>
	<circle cx="247.212" cy="138.054" r="4" fill="#0" id="circle89"/>
	<circle cx="252" cy="258.703" r="4" fill="#0" id="circle90"/>
	<circle cx="255.83" cy="142.842" r="4" fill="#0" id="circle91"/>
	<circle cx="261.575" cy="258.703" r="4" fill="#0" id="circle92"/>
	<circle cx="265.405" cy="142.842" r="4" fill="#0" id="circle93"/>
	<circle cx="270.193" cy="263.49" r="4" fill="#0" id="circle94"/>
	<circle cx="274.981" cy="142.842" r="4" fill="#0" id="circle95"/>
	<circle cx="279.768" cy="263.49" r="4" fill="#0" id="circle96"/>
	<circle cx="284.556" cy="142.842" r="4" fill="#0" id="circle97"/>
	<circle cx="289.344" cy="263.49" r="4" fill="#0" id="circle98"/>
	<circle cx="294.131" cy="142.842" r="4" fill="#0" id="circle99"/>
	<circle cx="296.046" cy="313.282" r="4" fill="#0" id="circle100"/>
	<circle cx="296.046" cy="322.857" r="4" fill="#0" id="circle101"/>
	<circle cx="296.046" cy="332.432" r="4" fill="#0" id="circle102"/>
	<circle cx="296.046" cy="342.008" r="4" fill="#0" id="circle103"/>
	<circle cx="296.046" cy="351.583" r="4" fill="#0" id="circle104"/>
	<circle cx="296.046" cy="361.158" r="4" fill="#0" id="circle105"/>
	<circle cx="297.961" cy="268.278" r="4" fill="#0" id="circle106"/>
	<circle cx="300.834" cy="277.853" r="4" fill="#0" id="circle107"/>
	<circle cx="300.834" cy="287.429" r="4" fill="#0" id="circle108"/>
	<circle cx="300.834" cy="297.004" r="4" fill="#0" id="circle109"/>
	<circle cx="300.834" cy="369.776" r="4" fill="#0" id="circle110"/>
	<circle cx="303.707" cy="142.842" r="4" fill="#0" id="circle111"/>
	<circle cx="305.622" cy="378.394" r="4" fill="#0" id="circle112"/>
	<circle cx="310.409" cy="387.012" r="4" fill="#0" id="circle113"/>
	<circle cx="313.282" cy="142.842" r="4" fill="#0" id="circle114"/>
	<circle cx="316.154" cy="394.672" r="4" fill="#0" id="circle115"/>
	<circle cx="322.857" cy="142.842" r="4" fill="#0" id="circle116"/>
	<circle cx="325.73" cy="397.544" r="4" fill="#0" id="circle117"/>
	<circle cx="332.432" cy="142.842" r="4" fill="#0" id="circle118"/>
	<circle cx="334.347" cy="392.757" r="4" fill="#0" id="circle119"/>
	<circle cx="342.008" cy="138.054" r="4" fill="#0" id="circle120"/>
	<circle cx="342.965" cy="387.969" r="4" fill="#0" id="circle121"/>
	<circle cx="351.583" cy="138.054" r="4" fill="#0" id="circle122"/>
	<circle cx="351.583" cy="383.181" r="4" fill="#0" id="circle123"/>
	<circle cx="359.243" cy="373.606" r="4" fill="#0" id="circle124"/>
	<circle cx="361.158" cy="138.054" r="4" fill="#0" id="circle125"/>
	<circle cx="364.031" cy="287.429" r="4" fill="#0" id="circle126"/>
	<circle cx="364.031" cy="297.004" r="4" fill="#0" id="circle127"/>
	<circle cx="364.031" cy="306.579" r="4" fill="#0" id="circle128"/>
	<circle cx="364.031" cy="316.154" r="4" fill="#0" id="circle129"/>
	<circle cx="364.031" cy="325.73" r="4" fill="#0" id="circle130"/>
	<circle cx="364.031" cy="335.305" r="4" fill="#0" id="circle131"/>
	<circle cx="364.031" cy="344.88" r="4" fill="#0" id="circle132"/>
	<circle cx="364.031" cy="354.456" r="4" fill="#0" id="circle133"/>
	<circle cx="364.031" cy="364.031" r="4" fill="#0" id="circle134"/>
	<circle cx="369.776" cy="142.842" r="4" fill="#0" id="circle135"/>
	<circle cx="373.606" cy="287.429" r="4" fill="#0" id="circle136"/>
	<circle cx="378.394" cy="147.629" r="4" fill="#0" id="circle137"/>
	<circle cx="383.181" cy="287.429" r="4" fill="#0" id="circle138"/>
	<circle cx="387.969" cy="150.502" r="4" fill="#0" id="circle139"/>
	<circle cx="392.757" cy="289.344" r="4" fill="#0" id="circle140"/>
	<circle cx="396.587" cy="155.29" r="4" fill="#0" id="circle141"/>
	<circle cx="402.332" cy="162.95" r="4" fill="#0" id="circle142"/>
	<circle cx="402.332" cy="292.216" r="4" fill="#0" id="circle143"/>
	<circle cx="407.12" cy="171.568" r="4" fill="#0" id="circle144"/>
	<circle cx="411.907" cy="180.185" r="4" fill="#0" id="circle145"/>
	<circle cx="411.907" cy="189.761" r="4" fill="#0" id="circle146"/>
	<circle cx="411.907" cy="199.336" r="4" fill="#0" id="circle147"/>
	<circle cx="411.907" cy="208.911" r="4" fill="#0" id="circle148"/>
	<circle cx="411.907" cy="292.216" r="4" fill="#0" id="circle149"/>
	<circle cx="419.568" cy="214.656" r="4" fill="#0" id="circle150"/>
	<circle cx="421.483" cy="292.216" r="4" fill="#0" id="circle151"/>
	<circle cx="429.143" cy="215.614" r="4" fill="#0" id="circle152"/>
	<circle cx="431.058" cy="292.216" r="4" fill="#0" id="circle153"/>
	<circle cx="438.718" cy="219.444" r="4" fill="#0" id="circle154"/>
	<circle cx="439.676" cy="297.004" r="4" fill="#0" id="circle155"/>
	<circle cx="439.676" cy="306.579" r="4" fill="#0" id="circle156"/>
	<circle cx="444.463" cy="315.197" r="4" fill="#0" id="circle157"/>
	<circle cx="444.463" cy="324.772" r="4" fill="#0" id="circle158"/>
	<circle cx="444.463" cy="334.347" r="4" fill="#0" id="circle159"/>
	<circle cx="444.463" cy="343.923" r="4" fill="#0" id="circle160"/>
	<circle cx="444.463" cy="353.498" r="4" fill="#0" id="circle161"/>
	<circle cx="444.463" cy="363.073" r="4" fill="#0" id="circle162"/>
	<circle cx="446.378" cy="372.649" r="4" fill="#0" id="circle163"/>
	<circle cx="448.293" cy="219.444" r="4" fill="#0" id="circle164"/>
	<circle cx="449.251" cy="382.224" r="4" fill="#0" id="circle165"/>
	<circle cx="449.251" cy="391.799" r="4" fill="#0" id="circle166"/>
	<circle cx="454.039" cy="400.417" r="4" fill="#0" id="circle167"/>
	<circle cx="457.869" cy="219.444" r="4" fill="#0" id="circle168"/>
	<circle cx="458.826" cy="409.035" r="4" fill="#0" id="circle169"/>
	<circle cx="464.571" cy="416.695" r="4" fill="#0" id="circle170"/>
	<circle cx="467.444" cy="219.444" r="4" fill="#0" id="circle171"/>
	<circle cx="473.189" cy="421.483" r="4" fill="#0" id="circle172"/>
	<circle cx="477.019" cy="219.444" r="4" fill="#0" id="circle173"/>
	<circle cx="482.764" cy="421.483" r="4" fill="#0" id="circle174"/>
	<circle cx="486.595" cy="219.444" r="4" fill="#0" id="circle175"/>
	<circle cx="492.34" cy="421.483" r="4" fill="#0" id="circle176"/>
	<circle cx="493.297" cy="211.784" r="4" fill="#0" id="circle177"/>
	<circle cx="497.127" cy="198.378" r="4" fill="#0" id="circle178"/>
	<circle cx="501.915" cy="169.653" r="4" fill="#0" id="circle179"/>
	<circle cx="501.915" cy="179.228" r="4" fill="#0" id="circle180"/>
	<circle cx="501.915" cy="188.803" r="4" fill="#0" id="circle181"/>
	<circle cx="501.915" cy="421.483" r="4" fill="#0" id="circle182"/>
	<circle cx="506.703" cy="150.502" r="4" fill="#0" id="circle183"/>
	<circle cx="506.703" cy="160.077" r="4" fill="#0" id="circle184"/>
	<circle cx="511.49" cy="136.139" r="4" fill="#0" id="circle185"/>
	<circle cx="511.49" cy="421.483" r="4" fill="#0" id="circle186"/>
	<circle cx="516.278" cy="116.988" r="4" fill="#0" id="circle187"/>
	<circle cx="516.278" cy="126.564" r="4" fill="#0" id="circle188"/>
	<circle cx="521.066" cy="421.483" r="4" fill="#0" id="circle189"/>
	<circle cx="523.938" cy="109.328" r="4" fill="#0" id="circle190"/>
	<circle cx="530.641" cy="421.483" r="4" fill="#0" id="circle191"/>
	<circle cx="532.556" cy="104.541" r="4" fill="#0" id="circle192"/>
	<circle cx="540.216" cy="421.483" r="4" fill="#0" id="circle193"/>
	<circle cx="541.174" cy="99.7529" r="4" fill="#0" id="circle194"/>
	<circle cx="548.834" cy="416.695" r="4" fill="#0" id="circle195"/>
	<circle cx="550.749" cy="99.7529" r="4" fill="#0" id="circle196"/>
	<circle cx="554.579" cy="16.4479" r="4" fill="#0" id="circle197"/>
	<circle cx="554.579" cy="26.0232" r="4" fill="#0" id="circle198"/>
	<circle cx="554.579" cy="35.5985" r="4" fill="#0" id="circle199"/>
	<circle cx="554.579" cy="45.1737" r="4" fill="#0" id="circle200"/>
	<circle cx="554.579" cy="54.749" r="4" fill="#0" id="circle201"/>
	<circle cx="554.579" cy="64.3243" r="4" fill="#0" id="circle202"/>
	<circle cx="554.579" cy="73.8996" r="4" fill="#0" id="circle203"/>
	<circle cx="554.579" cy="83.4749" r="4" fill="#0" id="circle204"/>
	<circle cx="558.409" cy="414.78" r="4" fill="#0" id="circle205"/>
	<circle cx="559.367" cy="6.87259" r="4" fill="#0" id="circle206"/>
	<circle cx="567.985" cy="411.907" r="4" fill="#0" id="circle207"/>
	<circle cx="568.942" cy="4" r="4" fill="#0" id="circle208"/>
	<circle cx="576.602" cy="9.74517" r="4" fill="#0" id="circle209"/>
	<circle cx="576.602" cy="407.12" r="4" fill="#0" id="circle210"/>
	<circle cx="579.475" cy="19.3205" r="4" fill="#0" id="circle211"/>
	<circle cx="584.263" cy="27.9382" r="4" fill="#0" id="circle212"/>
	<circle cx="585.22" cy="402.332" r="4" fill="#0" id="circle213"/>
	<circle cx="591.923" cy="33.6834" r="4" fill="#0" id="circle214"/>
	<circle cx="593.838" cy="397.544" r="4" fill="#0" id="circle215"/>
	<circle cx="598.625" cy="41.3436" r="4" fill="#0" id="circle216"/>
	<circle cx="598.625" cy="263.49" r="4" fill="#0" id="circle217"/>
	<circle cx="598.625" cy="273.066" r="4" fill="#0" id="circle218"/>
	<circle cx="598.625" cy="282.641" r="4" fill="#0" id="circle219"/>
	<circle cx="600.541" cy="292.216" r="4" fill="#0" id="circle220"/>
	<circle cx="601.498" cy="390.842" r="4" fill="#0" id="circle221"/>
	<circle cx="603.413" cy="49.9614" r="4" fill="#0" id="circle222"/>
	<circle cx="605.328" cy="300.834" r="4" fill="#0" id="circle223"/>
	<circle cx="606.286" cy="256.788" r="4" fill="#0" id="circle224"/>
	<circle cx="608.201" cy="58.5792" r="4" fill="#0" id="circle225"/>
	<circle cx="608.201" cy="310.409" r="4" fill="#0" id="circle226"/>
	<circle cx="608.201" cy="383.181" r="4" fill="#0" id="circle227"/>
	<circle cx="612.988" cy="67.1969" r="4" fill="#0" id="circle228"/>
	<circle cx="612.988" cy="319.027" r="4" fill="#0" id="circle229"/>
	<circle cx="612.988" cy="328.602" r="4" fill="#0" id="circle230"/>
	<circle cx="615.861" cy="253.915" r="4" fill="#0" id="circle231"/>
	<circle cx="615.861" cy="376.479" r="4" fill="#0" id="circle232"/>
	<circle cx="617.776" cy="75.8147" r="4" fill="#0" id="circle233"/>
	<circle cx="617.776" cy="85.39" r="4" fill="#0" id="circle234"/>
	<circle cx="617.776" cy="94.9653" r="4" fill="#0" id="circle235"/>
	<circle cx="617.776" cy="104.541" r="4" fill="#0" id="circle236"/>
	<circle cx="617.776" cy="114.116" r="4" fill="#0" id="circle237"/>
	<circle cx="617.776" cy="123.691" r="4" fill="#0" id="circle238"/>
	<circle cx="617.776" cy="337.22" r="4" fill="#0" id="circle239"/>
	<circle cx="617.776" cy="346.795" r="4" fill="#0" id="circle240"/>
	<circle cx="617.776" cy="356.371" r="4" fill="#0" id="circle241"/>
	<circle cx="617.776" cy="365.946" r="4" fill="#0" id="circle242"/>
	<circle cx="625.436" cy="253.915" r="4" fill="#0" id="circle243"/>
	<circle cx="626.394" cy="128.479" r="4" fill="#0" id="circle244"/>
	<circle cx="632.139" cy="261.575" r="4" fill="#0" id="circle245"/>
	<circle cx="635.969" cy="128.479" r="4" fill="#0" id="circle246"/>
	<circle cx="635.969" cy="271.151" r="4" fill="#0" id="circle247"/>
	<circle cx="635.969" cy="280.726" r="4" fill="#0" id="circle248"/>
	<circle cx="635.969" cy="290.301" r="4" fill="#0" id="circle249"/>
	<circle cx="640.757" cy="298.919" r="4" fill="#0" id="circle250"/>
	<circle cx="643.629" cy="134.224" r="4" fill="#0" id="circle251"/>
	<circle cx="645.544" cy="307.537" r="4" fill="#0" id="circle252"/>
	<circle cx="650.332" cy="316.154" r="4" fill="#0" id="circle253"/>
	<circle cx="651.29" cy="140.927" r="4" fill="#0" id="circle254"/>
	<circle cx="651.29" cy="150.502" r="4" fill="#0" id="circle255"/>
	<circle cx="651.29" cy="160.077" r="4" fill="#0" id="circle256"/>
	<circle cx="651.29" cy="169.653" r="4" fill="#0" id="circle257"/>
	<circle cx="651.29" cy="179.228" r="4" fill="#0" id="circle258"/>
	<circle cx="651.29" cy="188.803" r="4" fill="#0" id="circle259"/>
	<circle cx="651.29" cy="198.378" r="4" fill="#0" id="circle260"/>
	<circle cx="651.29" cy="207.954" r="4" fill="#0" id="circle261"/>
	<circle cx="655.12" cy="217.529" r="4" fill="#0" id="circle262"/>
	<circle cx="655.12" cy="324.772" r="4" fill="#0" id="circle263"/>
	<circle cx="657.035" cy="334.347" r="4" fill="#0" id="circle264"/>
	<circle cx="661.822" cy="342.965" r="4" fill="#0" id="circle265"/>
	<circle cx="662.78" cy="224.232" r="4" fill="#0" id="circle266"/>
	<circle cx="669.483" cy="349.668" r="4" fill="#0" id="circle267"/>
	<circle cx="672.355" cy="224.232" r="4" fill="#0" id="circle268"/>
	<circle cx="674.27" cy="358.286" r="4" fill="#0" id="circle269"/>
	<circle cx="680.015" cy="365.946" r="4" fill="#0" id="circle270"/>
	<circle cx="681.931" cy="224.232" r="4" fill="#0" id="circle271"/>
	<circle cx="688.633" cy="370.734" r="4" fill="#0" id="circle272"/>
	<circle cx="691.506" cy="224.232" r="4" fill="#0" id="circle273"/>
	<circle cx="698.208" cy="373.606" r="4" fill="#0" id="circle274"/>
	<circle cx="701.081" cy="224.232" r="4" fill="#0" id="circle275"/>
	<circle cx="707.784" cy="373.606" r="4" fill="#0" id="circle276"/>
	<circle cx="710.656" cy="224.232" r="4" fill="#0" id="circle277"/>
	<circle cx="717.359" cy="373.606" r="4" fill="#0" id="circle278"/>
	<circle cx="720.232" cy="224.232" r="4" fill="#0" id="circle279"/>
	<circle cx="726.934" cy="179.228" r="4" fill="#0" id="circle280"/>
	<circle cx="726.934" cy="188.803" r="4" fill="#0" id="circle281"/>
	<circle cx="726.934" cy="198.378" r="4" fill="#0" id="circle282"/>
	<circle cx="726.934" cy="207.954" r="4" fill="#0" id="circle283"/>
	<circle cx="726.934" cy="373.606" r="4" fill="#0" id="circle284"/>
	<circle cx="731.722" cy="164.865" r="4" fill="#0" id="circle285"/>
	<circle cx="736.51" cy="155.29" r="4" fill="#0" id="circle286"/>
	<circle cx="736.51" cy="373.606" r="4" fill="#0" id="circle287"/>
	<circle cx="746.085" cy="150.502" r="4" fill="#0" id="circle288"/>
	<circle cx="746.085" cy="373.606" r="4" fill="#0" id="circle289"/>
	<circle cx="755.66" cy="145.714" r="4" fill="#0" id="circle290"/>
	<circle cx="755.66" cy="373.606" r="4" fill="#0" id="circle291"/>
	<circle cx="765.236" cy="142.842" r="4" fill="#0" id="circle292"/>
	<circle cx="765.236" cy="373.606" r="4" fill="#0" id="circle293"/>
	<circle cx="774.811" cy="131.351" r="4" fill="#0" id="circle294"/>
	<circle cx="774.811" cy="140.927" r="4" fill="#0" id="circle295"/>
	<circle cx="774.811" cy="373.606" r="4" fill="#0" id="circle296"/>
	<circle cx="779.598" cy="112.201" r="4" fill="#0" id="circle297"/>
	<circle cx="779.598" cy="121.776" r="4" fill="#0" id="circle298"/>
	<circle cx="784.386" cy="69.112" r="4" fill="#0" id="circle299"/>
	<circle cx="784.386" cy="78.6873" r="4" fill="#0" id="circle300"/>
	<circle cx="784.386" cy="88.2625" r="4" fill="#0" id="circle301"/>
	<circle cx="784.386" cy="97.8378" r="4" fill="#0" id="circle302"/>
	<circle cx="784.386" cy="373.606" r="4" fill="#0" id="circle303"/>
	<circle cx="792.046" cy="61.4517" r="4" fill="#0" id="circle304"/>
	<circle cx="793.961" cy="373.606" r="4" fill="#0" id="circle305"/>
	<circle cx="800.664" cy="56.6641" r="4" fill="#0" id="circle306"/>
	<circle cx="802.579" cy="378.394" r="4" fill="#0" id="circle307"/>
	<circle cx="809.282" cy="386.054" r="4" fill="#0" id="circle308"/>
	<circle cx="810.239" cy="56.6641" r="4" fill="#0" id="circle309"/>
	<circle cx="814.069" cy="394.672" r="4" fill="#0" id="circle310"/>
	<circle cx="817.9" cy="404.247" r="4" fill="#0" id="circle311"/>
	<circle cx="819.815" cy="56.6641" r="4" fill="#0" id="circle312"/>
	<circle cx="822.687" cy="412.865" r="4" fill="#0" id="circle313"/>
	<circle cx="829.39" cy="56.6641" r="4" fill="#0" id="circle314"/>
	<circle cx="829.39" cy="420.525" r="4" fill="#0" id="circle315"/>
	<circle cx="837.05" cy="426.27" r="4" fill="#0" id="circle316"/>
	<circle cx="838.008" cy="51.8764" r="4" fill="#0" id="circle317"/>
	<circle cx="845.668" cy="431.058" r="4" fill="#0" id="circle318"/>
	<circle cx="846.625" cy="56.6641" r="4" fill="#0" id="circle319"/>
	<circle cx="854.286" cy="62.4093" r="4" fill="#0" id="circle320"/>
	<circle cx="854.286" cy="435.846" r="4" fill="#0" id="circle321"/>
	<circle cx="861.946" cy="69.112" r="4" fill="#0" id="circle322"/>
	<circle cx="863.861" cy="439.676" r="4" fill="#0" id="circle323"/>
	<circle cx="868.649" cy="76.7722" r="4" fill="#0" id="circle324"/>
	<circle cx="873.436" cy="440.633" r="4" fill="#0" id="circle325"/>
	<circle cx="876.309" cy="83.4749" r="4" fill="#0" id="circle326"/>
	<circle cx="880.139" cy="93.0502" r="4" fill="#0" id="circle327"/>
	<circle cx="883.012" cy="440.633" r="4" fill="#0" id="circle328"/>
	<circle cx="889.714" cy="96.8803" r="4" fill="#0" id="circle329"/>
	<circle cx="892.587" cy="440.633" r="4" fill="#0" id="circle330"/>
	<circle cx="899.29" cy="99.7529" r="4" fill="#0" id="circle331"/>
	<circle cx="902.162" cy="440.633" r="4" fill="#0" id="circle332"/>
	<circle cx="908.865" cy="99.7529" r="4" fill="#0" id="circle333"/>
	<circle cx="911.737" cy="440.633" r="4" fill="#0" id="circle334"/>
	<circle cx="917.483" cy="104.541" r="4" fill="#0" id="circle335"/>
	<circle cx="921.313" cy="440.633" r="4" fill="#0" id="circle336"/>
	<circle cx="927.058" cy="104.541" r="4" fill="#0" id="circle337"/>
	<circle cx="930.888" cy="440.633" r="4" fill="#0" id="circle338"/>
	<circle cx="935.676" cy="109.328" r="4" fill="#0" id="circle339"/>
	<circle cx="940.463" cy="440.633" r="4" fill="#0" id="circle340"/>
	<circle cx="944.293" cy="114.116" r="4" fill="#0" id="circle341"/>
	<circle cx="949.081" cy="435.846" r="4" fill="#0" id="circle342"/>
	<circle cx="952.911" cy="118.903" r="4" fill="#0" id="circle343"/>
	<circle cx="957.699" cy="127.521" r="4" fill="#0" id="circle344"/>
	<circle cx="957.699" cy="431.058" r="4" fill="#0" id="circle345"/>
	<circle cx="962.486" cy="201.251" r="4" fill="#0" id="circle346"/>
	<circle cx="962.486" cy="210.826" r="4" fill="#0" id="circle347"/>
	<circle cx="962.486" cy="220.402" r="4" fill="#0" id="circle348"/>
	<circle cx="962.486" cy="229.977" r="4" fill="#0" id="circle349"/>
	<circle cx="965.359" cy="134.224" r="4" fill="#0" id="circle350"/>
	<circle cx="967.274" cy="186.888" r="4" fill="#0" id="circle351"/>
	<circle cx="967.274" cy="238.595" r="4" fill="#0" id="circle352"/>
	<circle cx="967.274" cy="426.27" r="4" fill="#0" id="circle353"/>
	<circle cx="972.062" cy="141.884" r="4" fill="#0" id="circle354"/>
	<circle cx="972.062" cy="177.313" r="4" fill="#0" id="circle355"/>
	<circle cx="972.062" cy="247.212" r="4" fill="#0" id="circle356"/>
	<circle cx="972.062" cy="416.695" r="4" fill="#0" id="circle357"/>
	<circle cx="976.849" cy="150.502" r="4" fill="#0" id="circle358"/>
	<circle cx="976.849" cy="160.077" r="4" fill="#0" id="circle359"/>
	<circle cx="976.849" cy="255.83" r="4" fill="#0" id="circle360"/>
	<circle cx="976.849" cy="407.12" r="4" fill="#0" id="circle361"/>
	<circle cx="981.637" cy="264.448" r="4" fill="#0" id="circle362"/>
	<circle cx="984.51" cy="400.417" r="4" fill="#0" id="circle363"/>
	<circle cx="986.425" cy="273.066" r="4" fill="#0" id="circle364"/>
	<circle cx="991.212" cy="281.683" r="4" fill="#0" id="circle365"/>
	<circle cx="991.212" cy="291.259" r="4" fill="#0" id="circle366"/>
	<circle cx="991.212" cy="387.969" r="4" fill="#0" id="circle367"/>
	<circle cx="996" cy="299.876" r="4" fill="#0" id="circle368"/>
	<circle cx="996" cy="309.452" r="4" fill="#0" id="circle369"/>
	<circle cx="996" cy="319.027" r="4" fill="#0" id="circle370"/>
	<circle cx="996" cy="328.602" r="4" fill="#0" id="circle371"/>
	<circle cx="996" cy="338.178" r="4" fill="#0" id="circle372"/>
	<circle cx="996" cy="347.753" r="4" fill="#0" id="circle373"/>
	<circle cx="996" cy="357.328" r="4" fill="#0" id="circle374"/>
	<circle cx="996" cy="366.903" r="4" fill="#0" id="circle375"/>
	<circle cx="996" cy="376.479" r="4" fill="#0" id="circle376"/>
	</g>
</svg>