<?xml version="1.0" encoding="UTF-8" standalone="no"?>
<!-- Created with CurveBenchmark -->
<svg
	xmlns:dc="http://purl.org/dc/elements/1.1/"
	xmlns:cc="http://creativecommons.org/ns#"
	xmlns:rdf="http://www.w3.org/1999/02/22-rdf-syntax-ns#"
	xmlns:svg="http://www.w3.org/2000/svg"
	xmlns="http://www.w3.org/2000/svg"
	xmlns:sodipodi="http://sodipodi.sourceforge.net/DTD/sodipodi-0.dtd"
	xmlns:inkscape="http://www.inkscape.org/namespaces/inkscape"
	width="1000"
	height="1000"
	id="svg2"
	version="1.1"
	sodipodi:docname="manifold/discur-teddy255.png.txt">
<defs
	id="defs4" />
<metadata
	id="metadata7">
	<rdf:RDF>
		<cc:Work
			rdf:about="">
			<dc:format>image/svg+xml</dc:format>
			<dc:type
				rdf:resource="http://purl.org/dc/dcmitype/StillImage" />
			<dc:title></dc:title>
		</cc:Work>
	</rdf:RDF>
</metadata>
<g
	inkscape:label="Layer 1"
	inkscape:groupmode="layer"
	id="layer1">
	<path style="fill:none;stroke:red;stroke-width:1px;stroke-linecap:butt;stroke-linejoin:miter;stroke-opacity:1" d="M 4,851.863 9.65242,823.601 z" id="boundary" inkscape:connector-curvature="0" />
	<path style="fill:none;stroke:red;stroke-width:1px;stroke-linecap:butt;stroke-linejoin:miter;stroke-opacity:1" d="M 4,851.863 9.65242,880.125 z" id="boundary" inkscape:connector-curvature="0" />
	<path style="fill:none;stroke:red;stroke-width:1px;stroke-linecap:butt;stroke-linejoin:miter;stroke-opacity:1" d="M 9.65242,823.601 15.3048,795.339 z" id="boundary" inkscape:connector-curvature="0" />
	<path style="fill:none;stroke:red;stroke-width:1px;stroke-linecap:butt;stroke-linejoin:miter;stroke-opacity:1" d="M 9.65242,880.125 9.65242,908.387 z" id="boundary" inkscape:connector-curvature="0" />
	<path style="fill:none;stroke:red;stroke-width:1px;stroke-linecap:butt;stroke-linejoin:miter;stroke-opacity:1" d="M 9.65242,908.387 15.3048,936.65 z" id="boundary" inkscape:connector-curvature="0" />
	<path style="fill:none;stroke:red;stroke-width:1px;stroke-linecap:butt;stroke-linejoin:miter;stroke-opacity:1" d="M 15.3048,795.339 26.6097,767.077 z" id="boundary" inkscape:connector-curvature="0" />
	<path style="fill:none;stroke:red;stroke-width:1px;stroke-linecap:butt;stroke-linejoin:miter;stroke-opacity:1" d="M 15.3048,936.65 35.0883,959.259 z" id="boundary" inkscape:connector-curvature="0" />
	<path style="fill:none;stroke:red;stroke-width:1px;stroke-linecap:butt;stroke-linejoin:miter;stroke-opacity:1" d="M 26.6097,767.077 49.2194,744.467 z" id="boundary" inkscape:connector-curvature="0" />
	<path style="fill:none;stroke:red;stroke-width:1px;stroke-linecap:butt;stroke-linejoin:miter;stroke-opacity:1" d="M 35.0883,959.259 57.698,979.043 z" id="boundary" inkscape:connector-curvature="0" />
	<path style="fill:none;stroke:red;stroke-width:1px;stroke-linecap:butt;stroke-linejoin:miter;stroke-opacity:1" d="M 49.2194,529.675 54.8718,501.413 z" id="boundary" inkscape:connector-curvature="0" />
	<path style="fill:none;stroke:red;stroke-width:1px;stroke-linecap:butt;stroke-linejoin:miter;stroke-opacity:1" d="M 49.2194,529.675 54.8718,557.937 z" id="boundary" inkscape:connector-curvature="0" />
	<path style="fill:none;stroke:red;stroke-width:1px;stroke-linecap:butt;stroke-linejoin:miter;stroke-opacity:1" d="M 49.2194,744.467 74.6553,730.336 z" id="boundary" inkscape:connector-curvature="0" />
	<path style="fill:none;stroke:red;stroke-width:1px;stroke-linecap:butt;stroke-linejoin:miter;stroke-opacity:1" d="M 54.8718,501.413 66.1766,467.499 z" id="boundary" inkscape:connector-curvature="0" />
	<path style="fill:none;stroke:red;stroke-width:1px;stroke-linecap:butt;stroke-linejoin:miter;stroke-opacity:1" d="M 54.8718,557.937 71.8291,580.547 z" id="boundary" inkscape:connector-curvature="0" />
	<path style="fill:none;stroke:red;stroke-width:1px;stroke-linecap:butt;stroke-linejoin:miter;stroke-opacity:1" d="M 57.698,979.043 85.9601,990.348 z" id="boundary" inkscape:connector-curvature="0" />
	<path style="fill:none;stroke:red;stroke-width:1px;stroke-linecap:butt;stroke-linejoin:miter;stroke-opacity:1" d="M 66.1766,467.499 88.7863,450.541 z" id="boundary" inkscape:connector-curvature="0" />
	<path style="fill:none;stroke:red;stroke-width:1px;stroke-linecap:butt;stroke-linejoin:miter;stroke-opacity:1" d="M 71.8291,580.547 85.9601,605.983 z" id="boundary" inkscape:connector-curvature="0" />
	<path style="fill:none;stroke:red;stroke-width:1px;stroke-linecap:butt;stroke-linejoin:miter;stroke-opacity:1" d="M 74.6553,730.336 102.917,727.51 z" id="boundary" inkscape:connector-curvature="0" />
	<path style="fill:none;stroke:red;stroke-width:1px;stroke-linecap:butt;stroke-linejoin:miter;stroke-opacity:1" d="M 85.9601,605.983 114.222,617.288 z" id="boundary" inkscape:connector-curvature="0" />
	<path style="fill:none;stroke:red;stroke-width:1px;stroke-linecap:butt;stroke-linejoin:miter;stroke-opacity:1" d="M 85.9601,990.348 114.222,996 z" id="boundary" inkscape:connector-curvature="0" />
	<path style="fill:none;stroke:red;stroke-width:1px;stroke-linecap:butt;stroke-linejoin:miter;stroke-opacity:1" d="M 88.7863,450.541 117.048,444.889 z" id="boundary" inkscape:connector-curvature="0" />
	<path style="fill:none;stroke:red;stroke-width:1px;stroke-linecap:butt;stroke-linejoin:miter;stroke-opacity:1" d="M 102.917,727.51 131.179,727.51 z" id="boundary" inkscape:connector-curvature="0" />
	<path style="fill:none;stroke:red;stroke-width:1px;stroke-linecap:butt;stroke-linejoin:miter;stroke-opacity:1" d="M 114.222,617.288 139.658,631.419 z" id="boundary" inkscape:connector-curvature="0" />
	<path style="fill:none;stroke:red;stroke-width:1px;stroke-linecap:butt;stroke-linejoin:miter;stroke-opacity:1" d="M 114.222,996 142.484,996 z" id="boundary" inkscape:connector-curvature="0" />
	<path style="fill:none;stroke:red;stroke-width:1px;stroke-linecap:butt;stroke-linejoin:miter;stroke-opacity:1" d="M 117.048,444.889 145.311,433.584 z" id="boundary" inkscape:connector-curvature="0" />
	<path style="fill:none;stroke:red;stroke-width:1px;stroke-linecap:butt;stroke-linejoin:miter;stroke-opacity:1" d="M 131.179,727.51 159.442,727.51 z" id="boundary" inkscape:connector-curvature="0" />
	<path style="fill:none;stroke:red;stroke-width:1px;stroke-linecap:butt;stroke-linejoin:miter;stroke-opacity:1" d="M 139.658,631.419 167.92,639.897 z" id="boundary" inkscape:connector-curvature="0" />
	<path style="fill:none;stroke:red;stroke-width:1px;stroke-linecap:butt;stroke-linejoin:miter;stroke-opacity:1" d="M 142.484,996 170.746,996 z" id="boundary" inkscape:connector-curvature="0" />
	<path style="fill:none;stroke:red;stroke-width:1px;stroke-linecap:butt;stroke-linejoin:miter;stroke-opacity:1" d="M 145.311,433.584 173.573,433.584 z" id="boundary" inkscape:connector-curvature="0" />
	<path style="fill:none;stroke:red;stroke-width:1px;stroke-linecap:butt;stroke-linejoin:miter;stroke-opacity:1" d="M 159.442,727.51 187.704,733.162 z" id="boundary" inkscape:connector-curvature="0" />
	<path style="fill:none;stroke:red;stroke-width:1px;stroke-linecap:butt;stroke-linejoin:miter;stroke-opacity:1" d="M 167.92,639.897 196.182,651.202 z" id="boundary" inkscape:connector-curvature="0" />
	<path style="fill:none;stroke:red;stroke-width:1px;stroke-linecap:butt;stroke-linejoin:miter;stroke-opacity:1" d="M 170.746,996 199.009,996 z" id="boundary" inkscape:connector-curvature="0" />
	<path style="fill:none;stroke:red;stroke-width:1px;stroke-linecap:butt;stroke-linejoin:miter;stroke-opacity:1" d="M 173.573,433.584 201.835,427.932 z" id="boundary" inkscape:connector-curvature="0" />
	<path style="fill:none;stroke:red;stroke-width:1px;stroke-linecap:butt;stroke-linejoin:miter;stroke-opacity:1" d="M 187.704,733.162 215.966,733.162 z" id="boundary" inkscape:connector-curvature="0" />
	<path style="fill:none;stroke:red;stroke-width:1px;stroke-linecap:butt;stroke-linejoin:miter;stroke-opacity:1" d="M 196.182,651.202 224.444,656.855 z" id="boundary" inkscape:connector-curvature="0" />
	<path style="fill:none;stroke:red;stroke-width:1px;stroke-linecap:butt;stroke-linejoin:miter;stroke-opacity:1" d="M 199.009,996 227.271,987.521 z" id="boundary" inkscape:connector-curvature="0" />
	<path style="fill:none;stroke:red;stroke-width:1px;stroke-linecap:butt;stroke-linejoin:miter;stroke-opacity:1" d="M 201.835,427.932 230.097,422.279 z" id="boundary" inkscape:connector-curvature="0" />
	<path style="fill:none;stroke:red;stroke-width:1px;stroke-linecap:butt;stroke-linejoin:miter;stroke-opacity:1" d="M 215.966,733.162 244.228,721.858 z" id="boundary" inkscape:connector-curvature="0" />
	<path style="fill:none;stroke:red;stroke-width:1px;stroke-linecap:butt;stroke-linejoin:miter;stroke-opacity:1" d="M 224.444,656.855 252.707,656.855 z" id="boundary" inkscape:connector-curvature="0" />
	<path style="fill:none;stroke:red;stroke-width:1px;stroke-linecap:butt;stroke-linejoin:miter;stroke-opacity:1" d="M 227.271,987.521 255.533,976.217 z" id="boundary" inkscape:connector-curvature="0" />
	<path style="fill:none;stroke:red;stroke-width:1px;stroke-linecap:butt;stroke-linejoin:miter;stroke-opacity:1" d="M 230.097,422.279 252.707,399.67 z" id="boundary" inkscape:connector-curvature="0" />
	<path style="fill:none;stroke:red;stroke-width:1px;stroke-linecap:butt;stroke-linejoin:miter;stroke-opacity:1" d="M 244.228,721.858 272.49,716.205 z" id="boundary" inkscape:connector-curvature="0" />
	<path style="fill:none;stroke:red;stroke-width:1px;stroke-linecap:butt;stroke-linejoin:miter;stroke-opacity:1" d="M 252.707,399.67 280.969,388.365 z" id="boundary" inkscape:connector-curvature="0" />
	<path style="fill:none;stroke:red;stroke-width:1px;stroke-linecap:butt;stroke-linejoin:miter;stroke-opacity:1" d="M 252.707,656.855 280.969,656.855 z" id="boundary" inkscape:connector-curvature="0" />
	<path style="fill:none;stroke:red;stroke-width:1px;stroke-linecap:butt;stroke-linejoin:miter;stroke-opacity:1" d="M 255.533,976.217 283.795,973.39 z" id="boundary" inkscape:connector-curvature="0" />
	<path style="fill:none;stroke:red;stroke-width:1px;stroke-linecap:butt;stroke-linejoin:miter;stroke-opacity:1" d="M 272.49,716.205 280.969,687.943 z" id="boundary" inkscape:connector-curvature="0" />
	<path style="fill:none;stroke:red;stroke-width:1px;stroke-linecap:butt;stroke-linejoin:miter;stroke-opacity:1" d="M 280.969,388.365 309.231,382.712 z" id="boundary" inkscape:connector-curvature="0" />
	<path style="fill:none;stroke:red;stroke-width:1px;stroke-linecap:butt;stroke-linejoin:miter;stroke-opacity:1" d="M 280.969,656.855 280.969,687.943 z" id="boundary" inkscape:connector-curvature="0" />
	<path style="fill:none;stroke:red;stroke-width:1px;stroke-linecap:butt;stroke-linejoin:miter;stroke-opacity:1" d="M 283.795,973.39 312.057,967.738 z" id="boundary" inkscape:connector-curvature="0" />
	<path style="fill:none;stroke:red;stroke-width:1px;stroke-linecap:butt;stroke-linejoin:miter;stroke-opacity:1" d="M 303.578,280.969 309.231,247.054 z" id="boundary" inkscape:connector-curvature="0" />
	<path style="fill:none;stroke:red;stroke-width:1px;stroke-linecap:butt;stroke-linejoin:miter;stroke-opacity:1" d="M 303.578,280.969 309.231,309.231 z" id="boundary" inkscape:connector-curvature="0" />
	<path style="fill:none;stroke:red;stroke-width:1px;stroke-linecap:butt;stroke-linejoin:miter;stroke-opacity:1" d="M 309.231,54.8718 309.231,83.1339 z" id="boundary" inkscape:connector-curvature="0" />
	<path style="fill:none;stroke:red;stroke-width:1px;stroke-linecap:butt;stroke-linejoin:miter;stroke-opacity:1" d="M 309.231,54.8718 331.84,32.2621 z" id="boundary" inkscape:connector-curvature="0" />
	<path style="fill:none;stroke:red;stroke-width:1px;stroke-linecap:butt;stroke-linejoin:miter;stroke-opacity:1" d="M 309.231,83.1339 309.231,111.396 z" id="boundary" inkscape:connector-curvature="0" />
	<path style="fill:none;stroke:red;stroke-width:1px;stroke-linecap:butt;stroke-linejoin:miter;stroke-opacity:1" d="M 309.231,111.396 320.536,139.658 z" id="boundary" inkscape:connector-curvature="0" />
	<path style="fill:none;stroke:red;stroke-width:1px;stroke-linecap:butt;stroke-linejoin:miter;stroke-opacity:1" d="M 309.231,247.054 320.536,213.14 z" id="boundary" inkscape:connector-curvature="0" />
	<path style="fill:none;stroke:red;stroke-width:1px;stroke-linecap:butt;stroke-linejoin:miter;stroke-opacity:1" d="M 309.231,309.231 317.709,337.493 z" id="boundary" inkscape:connector-curvature="0" />
	<path style="fill:none;stroke:red;stroke-width:1px;stroke-linecap:butt;stroke-linejoin:miter;stroke-opacity:1" d="M 309.231,382.712 334.667,360.103 z" id="boundary" inkscape:connector-curvature="0" />
	<path style="fill:none;stroke:red;stroke-width:1px;stroke-linecap:butt;stroke-linejoin:miter;stroke-opacity:1" d="M 312.057,967.738 340.319,973.39 z" id="boundary" inkscape:connector-curvature="0" />
	<path style="fill:none;stroke:red;stroke-width:1px;stroke-linecap:butt;stroke-linejoin:miter;stroke-opacity:1" d="M 317.709,337.493 334.667,360.103 z" id="boundary" inkscape:connector-curvature="0" />
	<path style="fill:none;stroke:red;stroke-width:1px;stroke-linecap:butt;stroke-linejoin:miter;stroke-opacity:1" d="M 320.536,139.658 331.84,167.92 z" id="boundary" inkscape:connector-curvature="0" />
	<path style="fill:none;stroke:red;stroke-width:1px;stroke-linecap:butt;stroke-linejoin:miter;stroke-opacity:1" d="M 320.536,213.14 331.84,167.92 z" id="boundary" inkscape:connector-curvature="0" />
	<path style="fill:none;stroke:red;stroke-width:1px;stroke-linecap:butt;stroke-linejoin:miter;stroke-opacity:1" d="M 331.84,32.2621 354.45,15.3048 z" id="boundary" inkscape:connector-curvature="0" />
	<path style="fill:none;stroke:red;stroke-width:1px;stroke-linecap:butt;stroke-linejoin:miter;stroke-opacity:1" d="M 340.319,973.39 368.581,973.39 z" id="boundary" inkscape:connector-curvature="0" />
	<path style="fill:none;stroke:red;stroke-width:1px;stroke-linecap:butt;stroke-linejoin:miter;stroke-opacity:1" d="M 354.45,15.3048 382.712,9.65242 z" id="boundary" inkscape:connector-curvature="0" />
	<path style="fill:none;stroke:red;stroke-width:1px;stroke-linecap:butt;stroke-linejoin:miter;stroke-opacity:1" d="M 368.581,973.39 396.843,979.043 z" id="boundary" inkscape:connector-curvature="0" />
	<path style="fill:none;stroke:red;stroke-width:1px;stroke-linecap:butt;stroke-linejoin:miter;stroke-opacity:1" d="M 382.712,9.65242 410.974,4 z" id="boundary" inkscape:connector-curvature="0" />
	<path style="fill:none;stroke:red;stroke-width:1px;stroke-linecap:butt;stroke-linejoin:miter;stroke-opacity:1" d="M 396.843,979.043 425.105,984.695 z" id="boundary" inkscape:connector-curvature="0" />
	<path style="fill:none;stroke:red;stroke-width:1px;stroke-linecap:butt;stroke-linejoin:miter;stroke-opacity:1" d="M 410.974,4 439.236,9.65242 z" id="boundary" inkscape:connector-curvature="0" />
	<path style="fill:none;stroke:red;stroke-width:1px;stroke-linecap:butt;stroke-linejoin:miter;stroke-opacity:1" d="M 425.105,984.695 453.368,984.695 z" id="boundary" inkscape:connector-curvature="0" />
	<path style="fill:none;stroke:red;stroke-width:1px;stroke-linecap:butt;stroke-linejoin:miter;stroke-opacity:1" d="M 439.236,9.65242 464.672,23.7835 z" id="boundary" inkscape:connector-curvature="0" />
	<path style="fill:none;stroke:red;stroke-width:1px;stroke-linecap:butt;stroke-linejoin:miter;stroke-opacity:1" d="M 453.368,984.695 481.63,990.348 z" id="boundary" inkscape:connector-curvature="0" />
	<path style="fill:none;stroke:red;stroke-width:1px;stroke-linecap:butt;stroke-linejoin:miter;stroke-opacity:1" d="M 464.672,23.7835 487.282,40.7407 z" id="boundary" inkscape:connector-curvature="0" />
	<path style="fill:none;stroke:red;stroke-width:1px;stroke-linecap:butt;stroke-linejoin:miter;stroke-opacity:1" d="M 481.63,990.348 509.892,990.348 z" id="boundary" inkscape:connector-curvature="0" />
	<path style="fill:none;stroke:red;stroke-width:1px;stroke-linecap:butt;stroke-linejoin:miter;stroke-opacity:1" d="M 487.282,40.7407 515.544,43.567 z" id="boundary" inkscape:connector-curvature="0" />
	<path style="fill:none;stroke:red;stroke-width:1px;stroke-linecap:butt;stroke-linejoin:miter;stroke-opacity:1" d="M 509.892,990.348 538.154,996 z" id="boundary" inkscape:connector-curvature="0" />
	<path style="fill:none;stroke:red;stroke-width:1px;stroke-linecap:butt;stroke-linejoin:miter;stroke-opacity:1" d="M 515.544,43.567 543.806,43.567 z" id="boundary" inkscape:connector-curvature="0" />
	<path style="fill:none;stroke:red;stroke-width:1px;stroke-linecap:butt;stroke-linejoin:miter;stroke-opacity:1" d="M 538.154,996 566.416,996 z" id="boundary" inkscape:connector-curvature="0" />
	<path style="fill:none;stroke:red;stroke-width:1px;stroke-linecap:butt;stroke-linejoin:miter;stroke-opacity:1" d="M 543.806,43.567 572.068,43.567 z" id="boundary" inkscape:connector-curvature="0" />
	<path style="fill:none;stroke:red;stroke-width:1px;stroke-linecap:butt;stroke-linejoin:miter;stroke-opacity:1" d="M 566.416,996 594.678,996 z" id="boundary" inkscape:connector-curvature="0" />
	<path style="fill:none;stroke:red;stroke-width:1px;stroke-linecap:butt;stroke-linejoin:miter;stroke-opacity:1" d="M 572.068,43.567 600.33,43.567 z" id="boundary" inkscape:connector-curvature="0" />
	<path style="fill:none;stroke:red;stroke-width:1px;stroke-linecap:butt;stroke-linejoin:miter;stroke-opacity:1" d="M 594.678,996 622.94,996 z" id="boundary" inkscape:connector-curvature="0" />
	<path style="fill:none;stroke:red;stroke-width:1px;stroke-linecap:butt;stroke-linejoin:miter;stroke-opacity:1" d="M 600.33,43.567 625.766,26.6097 z" id="boundary" inkscape:connector-curvature="0" />
	<path style="fill:none;stroke:red;stroke-width:1px;stroke-linecap:butt;stroke-linejoin:miter;stroke-opacity:1" d="M 622.94,996 651.202,996 z" id="boundary" inkscape:connector-curvature="0" />
	<path style="fill:none;stroke:red;stroke-width:1px;stroke-linecap:butt;stroke-linejoin:miter;stroke-opacity:1" d="M 625.766,26.6097 654.028,15.3048 z" id="boundary" inkscape:connector-curvature="0" />
	<path style="fill:none;stroke:red;stroke-width:1px;stroke-linecap:butt;stroke-linejoin:miter;stroke-opacity:1" d="M 651.202,996 679.464,996 z" id="boundary" inkscape:connector-curvature="0" />
	<path style="fill:none;stroke:red;stroke-width:1px;stroke-linecap:butt;stroke-linejoin:miter;stroke-opacity:1" d="M 654.028,15.3048 682.291,9.65242 z" id="boundary" inkscape:connector-curvature="0" />
	<path style="fill:none;stroke:red;stroke-width:1px;stroke-linecap:butt;stroke-linejoin:miter;stroke-opacity:1" d="M 679.464,996 707.726,987.521 z" id="boundary" inkscape:connector-curvature="0" />
	<path style="fill:none;stroke:red;stroke-width:1px;stroke-linecap:butt;stroke-linejoin:miter;stroke-opacity:1" d="M 682.291,9.65242 710.553,4 z" id="boundary" inkscape:connector-curvature="0" />
	<path style="fill:none;stroke:red;stroke-width:1px;stroke-linecap:butt;stroke-linejoin:miter;stroke-opacity:1" d="M 707.726,987.521 730.336,970.564 z" id="boundary" inkscape:connector-curvature="0" />
	<path style="fill:none;stroke:red;stroke-width:1px;stroke-linecap:butt;stroke-linejoin:miter;stroke-opacity:1" d="M 710.553,4 738.815,12.4786 z" id="boundary" inkscape:connector-curvature="0" />
	<path style="fill:none;stroke:red;stroke-width:1px;stroke-linecap:butt;stroke-linejoin:miter;stroke-opacity:1" d="M 721.858,374.234 735.989,348.798 z" id="boundary" inkscape:connector-curvature="0" />
	<path style="fill:none;stroke:red;stroke-width:1px;stroke-linecap:butt;stroke-linejoin:miter;stroke-opacity:1" d="M 721.858,374.234 750.12,385.538 z" id="boundary" inkscape:connector-curvature="0" />
	<path style="fill:none;stroke:red;stroke-width:1px;stroke-linecap:butt;stroke-linejoin:miter;stroke-opacity:1" d="M 724.684,676.638 730.336,704.9 z" id="boundary" inkscape:connector-curvature="0" />
	<path style="fill:none;stroke:red;stroke-width:1px;stroke-linecap:butt;stroke-linejoin:miter;stroke-opacity:1" d="M 724.684,676.638 747.293,659.681 z" id="boundary" inkscape:connector-curvature="0" />
	<path style="fill:none;stroke:red;stroke-width:1px;stroke-linecap:butt;stroke-linejoin:miter;stroke-opacity:1" d="M 730.336,704.9 735.989,733.162 z" id="boundary" inkscape:connector-curvature="0" />
	<path style="fill:none;stroke:red;stroke-width:1px;stroke-linecap:butt;stroke-linejoin:miter;stroke-opacity:1" d="M 730.336,784.034 735.989,733.162 z" id="boundary" inkscape:connector-curvature="0" />
	<path style="fill:none;stroke:red;stroke-width:1px;stroke-linecap:butt;stroke-linejoin:miter;stroke-opacity:1" d="M 730.336,784.034 735.989,812.296 z" id="boundary" inkscape:connector-curvature="0" />
	<path style="fill:none;stroke:red;stroke-width:1px;stroke-linecap:butt;stroke-linejoin:miter;stroke-opacity:1" d="M 730.336,970.564 744.467,945.128 z" id="boundary" inkscape:connector-curvature="0" />
	<path style="fill:none;stroke:red;stroke-width:1px;stroke-linecap:butt;stroke-linejoin:miter;stroke-opacity:1" d="M 735.989,348.798 747.293,320.536 z" id="boundary" inkscape:connector-curvature="0" />
	<path style="fill:none;stroke:red;stroke-width:1px;stroke-linecap:butt;stroke-linejoin:miter;stroke-opacity:1" d="M 735.989,812.296 741.641,840.558 z" id="boundary" inkscape:connector-curvature="0" />
	<path style="fill:none;stroke:red;stroke-width:1px;stroke-linecap:butt;stroke-linejoin:miter;stroke-opacity:1" d="M 738.815,12.4786 764.251,26.6097 z" id="boundary" inkscape:connector-curvature="0" />
	<path style="fill:none;stroke:red;stroke-width:1px;stroke-linecap:butt;stroke-linejoin:miter;stroke-opacity:1" d="M 741.641,840.558 747.293,868.821 z" id="boundary" inkscape:connector-curvature="0" />
	<path style="fill:none;stroke:red;stroke-width:1px;stroke-linecap:butt;stroke-linejoin:miter;stroke-opacity:1" d="M 744.467,945.128 747.293,897.083 z" id="boundary" inkscape:connector-curvature="0" />
	<path style="fill:none;stroke:red;stroke-width:1px;stroke-linecap:butt;stroke-linejoin:miter;stroke-opacity:1" d="M 747.293,320.536 758.598,286.621 z" id="boundary" inkscape:connector-curvature="0" />
	<path style="fill:none;stroke:red;stroke-width:1px;stroke-linecap:butt;stroke-linejoin:miter;stroke-opacity:1" d="M 747.293,659.681 772.729,645.55 z" id="boundary" inkscape:connector-curvature="0" />
	<path style="fill:none;stroke:red;stroke-width:1px;stroke-linecap:butt;stroke-linejoin:miter;stroke-opacity:1" d="M 747.293,868.821 747.293,897.083 z" id="boundary" inkscape:connector-curvature="0" />
	<path style="fill:none;stroke:red;stroke-width:1px;stroke-linecap:butt;stroke-linejoin:miter;stroke-opacity:1" d="M 750.12,385.538 775.556,399.67 z" id="boundary" inkscape:connector-curvature="0" />
	<path style="fill:none;stroke:red;stroke-width:1px;stroke-linecap:butt;stroke-linejoin:miter;stroke-opacity:1" d="M 758.598,179.225 764.251,207.487 z" id="boundary" inkscape:connector-curvature="0" />
	<path style="fill:none;stroke:red;stroke-width:1px;stroke-linecap:butt;stroke-linejoin:miter;stroke-opacity:1" d="M 758.598,179.225 769.903,150.963 z" id="boundary" inkscape:connector-curvature="0" />
	<path style="fill:none;stroke:red;stroke-width:1px;stroke-linecap:butt;stroke-linejoin:miter;stroke-opacity:1" d="M 758.598,286.621 764.251,252.707 z" id="boundary" inkscape:connector-curvature="0" />
	<path style="fill:none;stroke:red;stroke-width:1px;stroke-linecap:butt;stroke-linejoin:miter;stroke-opacity:1" d="M 764.251,26.6097 784.034,49.2194 z" id="boundary" inkscape:connector-curvature="0" />
	<path style="fill:none;stroke:red;stroke-width:1px;stroke-linecap:butt;stroke-linejoin:miter;stroke-opacity:1" d="M 764.251,207.487 764.251,252.707 z" id="boundary" inkscape:connector-curvature="0" />
	<path style="fill:none;stroke:red;stroke-width:1px;stroke-linecap:butt;stroke-linejoin:miter;stroke-opacity:1" d="M 769.903,150.963 781.208,122.701 z" id="boundary" inkscape:connector-curvature="0" />
	<path style="fill:none;stroke:red;stroke-width:1px;stroke-linecap:butt;stroke-linejoin:miter;stroke-opacity:1" d="M 772.729,645.55 798.165,631.419 z" id="boundary" inkscape:connector-curvature="0" />
	<path style="fill:none;stroke:red;stroke-width:1px;stroke-linecap:butt;stroke-linejoin:miter;stroke-opacity:1" d="M 775.556,399.67 800.991,413.801 z" id="boundary" inkscape:connector-curvature="0" />
	<path style="fill:none;stroke:red;stroke-width:1px;stroke-linecap:butt;stroke-linejoin:miter;stroke-opacity:1" d="M 781.208,122.701 786.86,94.4387 z" id="boundary" inkscape:connector-curvature="0" />
	<path style="fill:none;stroke:red;stroke-width:1px;stroke-linecap:butt;stroke-linejoin:miter;stroke-opacity:1" d="M 784.034,49.2194 786.86,94.4387 z" id="boundary" inkscape:connector-curvature="0" />
	<path style="fill:none;stroke:red;stroke-width:1px;stroke-linecap:butt;stroke-linejoin:miter;stroke-opacity:1" d="M 798.165,631.419 815.123,608.809 z" id="boundary" inkscape:connector-curvature="0" />
	<path style="fill:none;stroke:red;stroke-width:1px;stroke-linecap:butt;stroke-linejoin:miter;stroke-opacity:1" d="M 800.991,413.801 820.775,436.41 z" id="boundary" inkscape:connector-curvature="0" />
	<path style="fill:none;stroke:red;stroke-width:1px;stroke-linecap:butt;stroke-linejoin:miter;stroke-opacity:1" d="M 815.123,608.809 832.08,586.199 z" id="boundary" inkscape:connector-curvature="0" />
	<path style="fill:none;stroke:red;stroke-width:1px;stroke-linecap:butt;stroke-linejoin:miter;stroke-opacity:1" d="M 820.775,436.41 837.732,459.02 z" id="boundary" inkscape:connector-curvature="0" />
	<path style="fill:none;stroke:red;stroke-width:1px;stroke-linecap:butt;stroke-linejoin:miter;stroke-opacity:1" d="M 832.08,586.199 849.037,552.285 z" id="boundary" inkscape:connector-curvature="0" />
	<path style="fill:none;stroke:red;stroke-width:1px;stroke-linecap:butt;stroke-linejoin:miter;stroke-opacity:1" d="M 837.732,459.02 849.037,487.282 z" id="boundary" inkscape:connector-curvature="0" />
	<path style="fill:none;stroke:red;stroke-width:1px;stroke-linecap:butt;stroke-linejoin:miter;stroke-opacity:1" d="M 849.037,487.282 854.689,515.544 z" id="boundary" inkscape:connector-curvature="0" />
	<path style="fill:none;stroke:red;stroke-width:1px;stroke-linecap:butt;stroke-linejoin:miter;stroke-opacity:1" d="M 849.037,552.285 854.689,515.544 z" id="boundary" inkscape:connector-curvature="0" />
	<circle cx="4" cy="851.863" r="4" fill="#0" id="circle0"/>
	<circle cx="9.65242" cy="823.601" r="4" fill="#0" id="circle1"/>
	<circle cx="9.65242" cy="880.125" r="4" fill="#0" id="circle2"/>
	<circle cx="9.65242" cy="908.387" r="4" fill="#0" id="circle3"/>
	<circle cx="15.3048" cy="795.339" r="4" fill="#0" id="circle4"/>
	<circle cx="15.3048" cy="936.65" r="4" fill="#0" id="circle5"/>
	<circle cx="26.6097" cy="767.077" r="4" fill="#0" id="circle6"/>
	<circle cx="35.0883" cy="959.259" r="4" fill="#0" id="circle7"/>
	<circle cx="49.2194" cy="529.675" r="4" fill="#0" id="circle8"/>
	<circle cx="49.2194" cy="744.467" r="4" fill="#0" id="circle9"/>
	<circle cx="54.8718" cy="501.413" r="4" fill="#0" id="circle10"/>
	<circle cx="54.8718" cy="557.937" r="4" fill="#0" id="circle11"/>
	<circle cx="57.698" cy="979.043" r="4" fill="#0" id="circle12"/>
	<circle cx="66.1766" cy="467.499" r="4" fill="#0" id="circle13"/>
	<circle cx="71.8291" cy="580.547" r="4" fill="#0" id="circle14"/>
	<circle cx="74.6553" cy="730.336" r="4" fill="#0" id="circle15"/>
	<circle cx="85.9601" cy="605.983" r="4" fill="#0" id="circle16"/>
	<circle cx="85.9601" cy="990.348" r="4" fill="#0" id="circle17"/>
	<circle cx="88.7863" cy="450.541" r="4" fill="#0" id="circle18"/>
	<circle cx="102.917" cy="727.51" r="4" fill="#0" id="circle19"/>
	<circle cx="114.222" cy="617.288" r="4" fill="#0" id="circle20"/>
	<circle cx="114.222" cy="996" r="4" fill="#0" id="circle21"/>
	<circle cx="117.048" cy="444.889" r="4" fill="#0" id="circle22"/>
	<circle cx="131.179" cy="727.51" r="4" fill="#0" id="circle23"/>
	<circle cx="139.658" cy="631.419" r="4" fill="#0" id="circle24"/>
	<circle cx="142.484" cy="996" r="4" fill="#0" id="circle25"/>
	<circle cx="145.311" cy="433.584" r="4" fill="#0" id="circle26"/>
	<circle cx="159.442" cy="727.51" r="4" fill="#0" id="circle27"/>
	<circle cx="167.92" cy="639.897" r="4" fill="#0" id="circle28"/>
	<circle cx="170.746" cy="996" r="4" fill="#0" id="circle29"/>
	<circle cx="173.573" cy="433.584" r="4" fill="#0" id="circle30"/>
	<circle cx="187.704" cy="733.162" r="4" fill="#0" id="circle31"/>
	<circle cx="196.182" cy="651.202" r="4" fill="#0" id="circle32"/>
	<circle cx="199.009" cy="996" r="4" fill="#0" id="circle33"/>
	<circle cx="201.835" cy="427.932" r="4" fill="#0" id="circle34"/>
	<circle cx="215.966" cy="733.162" r="4" fill="#0" id="circle35"/>
	<circle cx="224.444" cy="656.855" r="4" fill="#0" id="circle36"/>
	<circle cx="227.271" cy="987.521" r="4" fill="#0" id="circle37"/>
	<circle cx="230.097" cy="422.279" r="4" fill="#0" id="circle38"/>
	<circle cx="244.228" cy="721.858" r="4" fill="#0" id="circle39"/>
	<circle cx="252.707" cy="399.67" r="4" fill="#0" id="circle40"/>
	<circle cx="252.707" cy="656.855" r="4" fill="#0" id="circle41"/>
	<circle cx="255.533" cy="976.217" r="4" fill="#0" id="circle42"/>
	<circle cx="272.49" cy="716.205" r="4" fill="#0" id="circle43"/>
	<circle cx="280.969" cy="388.365" r="4" fill="#0" id="circle44"/>
	<circle cx="280.969" cy="656.855" r="4" fill="#0" id="circle45"/>
	<circle cx="280.969" cy="687.943" r="4" fill="#0" id="circle46"/>
	<circle cx="283.795" cy="973.39" r="4" fill="#0" id="circle47"/>
	<circle cx="303.578" cy="280.969" r="4" fill="#0" id="circle48"/>
	<circle cx="309.231" cy="54.8718" r="4" fill="#0" id="circle49"/>
	<circle cx="309.231" cy="83.1339" r="4" fill="#0" id="circle50"/>
	<circle cx="309.231" cy="111.396" r="4" fill="#0" id="circle51"/>
	<circle cx="309.231" cy="247.054" r="4" fill="#0" id="circle52"/>
	<circle cx="309.231" cy="309.231" r="4" fill="#0" id="circle53"/>
	<circle cx="309.231" cy="382.712" r="4" fill="#0" id="circle54"/>
	<circle cx="312.057" cy="967.738" r="4" fill="#0" id="circle55"/>
	<circle cx="317.709" cy="337.493" r="4" fill="#0" id="circle56"/>
	<circle cx="320.536" cy="139.658" r="4" fill="#0" id="circle57"/>
	<circle cx="320.536" cy="213.14" r="4" fill="#0" id="circle58"/>
	<circle cx="331.84" cy="32.2621" r="4" fill="#0" id="circle59"/>
	<circle cx="331.84" cy="167.92" r="4" fill="#0" id="circle60"/>
	<circle cx="334.667" cy="360.103" r="4" fill="#0" id="circle61"/>
	<circle cx="340.319" cy="973.39" r="4" fill="#0" id="circle62"/>
	<circle cx="354.45" cy="15.3048" r="4" fill="#0" id="circle63"/>
	<circle cx="368.581" cy="973.39" r="4" fill="#0" id="circle64"/>
	<circle cx="382.712" cy="9.65242" r="4" fill="#0" id="circle65"/>
	<circle cx="396.843" cy="979.043" r="4" fill="#0" id="circle66"/>
	<circle cx="410.974" cy="4" r="4" fill="#0" id="circle67"/>
	<circle cx="425.105" cy="984.695" r="4" fill="#0" id="circle68"/>
	<circle cx="439.236" cy="9.65242" r="4" fill="#0" id="circle69"/>
	<circle cx="453.368" cy="984.695" r="4" fill="#0" id="circle70"/>
	<circle cx="464.672" cy="23.7835" r="4" fill="#0" id="circle71"/>
	<circle cx="481.63" cy="990.348" r="4" fill="#0" id="circle72"/>
	<circle cx="487.282" cy="40.7407" r="4" fill="#0" id="circle73"/>
	<circle cx="509.892" cy="990.348" r="4" fill="#0" id="circle74"/>
	<circle cx="515.544" cy="43.567" r="4" fill="#0" id="circle75"/>
	<circle cx="538.154" cy="996" r="4" fill="#0" id="circle76"/>
	<circle cx="543.806" cy="43.567" r="4" fill="#0" id="circle77"/>
	<circle cx="566.416" cy="996" r="4" fill="#0" id="circle78"/>
	<circle cx="572.068" cy="43.567" r="4" fill="#0" id="circle79"/>
	<circle cx="594.678" cy="996" r="4" fill="#0" id="circle80"/>
	<circle cx="600.33" cy="43.567" r="4" fill="#0" id="circle81"/>
	<circle cx="622.94" cy="996" r="4" fill="#0" id="circle82"/>
	<circle cx="625.766" cy="26.6097" r="4" fill="#0" id="circle83"/>
	<circle cx="651.202" cy="996" r="4" fill="#0" id="circle84"/>
	<circle cx="654.028" cy="15.3048" r="4" fill="#0" id="circle85"/>
	<circle cx="679.464" cy="996" r="4" fill="#0" id="circle86"/>
	<circle cx="682.291" cy="9.65242" r="4" fill="#0" id="circle87"/>
	<circle cx="707.726" cy="987.521" r="4" fill="#0" id="circle88"/>
	<circle cx="710.553" cy="4" r="4" fill="#0" id="circle89"/>
	<circle cx="721.858" cy="374.234" r="4" fill="#0" id="circle90"/>
	<circle cx="724.684" cy="676.638" r="4" fill="#0" id="circle91"/>
	<circle cx="730.336" cy="704.9" r="4" fill="#0" id="circle92"/>
	<circle cx="730.336" cy="784.034" r="4" fill="#0" id="circle93"/>
	<circle cx="730.336" cy="970.564" r="4" fill="#0" id="circle94"/>
	<circle cx="735.989" cy="348.798" r="4" fill="#0" id="circle95"/>
	<circle cx="735.989" cy="733.162" r="4" fill="#0" id="circle96"/>
	<circle cx="735.989" cy="812.296" r="4" fill="#0" id="circle97"/>
	<circle cx="738.815" cy="12.4786" r="4" fill="#0" id="circle98"/>
	<circle cx="741.641" cy="840.558" r="4" fill="#0" id="circle99"/>
	<circle cx="744.467" cy="945.128" r="4" fill="#0" id="circle100"/>
	<circle cx="747.293" cy="320.536" r="4" fill="#0" id="circle101"/>
	<circle cx="747.293" cy="659.681" r="4" fill="#0" id="circle102"/>
	<circle cx="747.293" cy="868.821" r="4" fill="#0" id="circle103"/>
	<circle cx="747.293" cy="897.083" r="4" fill="#0" id="circle104"/>
	<circle cx="750.12" cy="385.538" r="4" fill="#0" id="circle105"/>
	<circle cx="758.598" cy="179.225" r="4" fill="#0" id="circle106"/>
	<circle cx="758.598" cy="286.621" r="4" fill="#0" id="circle107"/>
	<circle cx="764.251" cy="26.6097" r="4" fill="#0" id="circle108"/>
	<circle cx="764.251" cy="207.487" r="4" fill="#0" id="circle109"/>
	<circle cx="764.251" cy="252.707" r="4" fill="#0" id="circle110"/>
	<circle cx="769.903" cy="150.963" r="4" fill="#0" id="circle111"/>
	<circle cx="772.729" cy="645.55" r="4" fill="#0" id="circle112"/>
	<circle cx="775.556" cy="399.67" r="4" fill="#0" id="circle113"/>
	<circle cx="781.208" cy="122.701" r="4" fill="#0" id="circle114"/>
	<circle cx="784.034" cy="49.2194" r="4" fill="#0" id="circle115"/>
	<circle cx="786.86" cy="94.4387" r="4" fill="#0" id="circle116"/>
	<circle cx="798.165" cy="631.419" r="4" fill="#0" id="circle117"/>
	<circle cx="800.991" cy="413.801" r="4" fill="#0" id="circle118"/>
	<circle cx="815.123" cy="608.809" r="4" fill="#0" id="circle119"/>
	<circle cx="820.775" cy="436.41" r="4" fill="#0" id="circle120"/>
	<circle cx="832.08" cy="586.199" r="4" fill="#0" id="circle121"/>
	<circle cx="837.732" cy="459.02" r="4" fill="#0" id="circle122"/>
	<circle cx="849.037" cy="487.282" r="4" fill="#0" id="circle123"/>
	<circle cx="849.037" cy="552.285" r="4" fill="#0" id="circle124"/>
	<circle cx="854.689" cy="515.544" r="4" fill="#0" id="circle125"/>
	</g>
</svg>