<?xml version="1.0" encoding="UTF-8" standalone="no"?>
<!-- Created with CurveBenchmark -->
<svg
	xmlns:dc="http://purl.org/dc/elements/1.1/"
	xmlns:cc="http://creativecommons.org/ns#"
	xmlns:rdf="http://www.w3.org/1999/02/22-rdf-syntax-ns#"
	xmlns:svg="http://www.w3.org/2000/svg"
	xmlns="http://www.w3.org/2000/svg"
	xmlns:sodipodi="http://sodipodi.sourceforge.net/DTD/sodipodi-0.dtd"
	xmlns:inkscape="http://www.inkscape.org/namespaces/inkscape"
	width="1000"
	height="1000"
	id="svg2"
	version="1.1"
	sodipodi:docname="manifold/discur-face-9.png.txt">
<defs
	id="defs4" />
<metadata
	id="metadata7">
	<rdf:RDF>
		<cc:Work
			rdf:about="">
			<dc:format>image/svg+xml</dc:format>
			<dc:type
				rdf:resource="http://purl.org/dc/dcmitype/StillImage" />
			<dc:title></dc:title>
		</cc:Work>
	</rdf:RDF>
</metadata>
<g
	inkscape:label="Layer 1"
	inkscape:groupmode="layer"
	id="layer1">
	<path style="fill:none;stroke:red;stroke-width:1px;stroke-linecap:butt;stroke-linejoin:miter;stroke-opacity:1" d="M 4,468.397 4,481.704 z" id="boundary" inkscape:connector-curvature="0" />
	<path style="fill:none;stroke:red;stroke-width:1px;stroke-linecap:butt;stroke-linejoin:miter;stroke-opacity:1" d="M 4,468.397 7.32663,461.744 z" id="boundary" inkscape:connector-curvature="0" />
	<path style="fill:none;stroke:red;stroke-width:1px;stroke-linecap:butt;stroke-linejoin:miter;stroke-opacity:1" d="M 4,481.704 7.32663,487.691 z" id="boundary" inkscape:connector-curvature="0" />
	<path style="fill:none;stroke:red;stroke-width:1px;stroke-linecap:butt;stroke-linejoin:miter;stroke-opacity:1" d="M 7.32663,461.744 12.6492,456.421 z" id="boundary" inkscape:connector-curvature="0" />
	<path style="fill:none;stroke:red;stroke-width:1px;stroke-linecap:butt;stroke-linejoin:miter;stroke-opacity:1" d="M 7.32663,487.691 7.32663,494.345 z" id="boundary" inkscape:connector-curvature="0" />
	<path style="fill:none;stroke:red;stroke-width:1px;stroke-linecap:butt;stroke-linejoin:miter;stroke-opacity:1" d="M 7.32663,494.345 11.9839,499.667 z" id="boundary" inkscape:connector-curvature="0" />
	<path style="fill:none;stroke:red;stroke-width:1px;stroke-linecap:butt;stroke-linejoin:miter;stroke-opacity:1" d="M 11.9839,499.667 13.9799,506.321 z" id="boundary" inkscape:connector-curvature="0" />
	<path style="fill:none;stroke:red;stroke-width:1px;stroke-linecap:butt;stroke-linejoin:miter;stroke-opacity:1" d="M 12.6492,456.421 15.9759,449.768 z" id="boundary" inkscape:connector-curvature="0" />
	<path style="fill:none;stroke:red;stroke-width:1px;stroke-linecap:butt;stroke-linejoin:miter;stroke-opacity:1" d="M 13.9799,506.321 17.9718,518.962 z" id="boundary" inkscape:connector-curvature="0" />
	<path style="fill:none;stroke:red;stroke-width:1px;stroke-linecap:butt;stroke-linejoin:miter;stroke-opacity:1" d="M 15.9759,449.768 19.3025,443.115 z" id="boundary" inkscape:connector-curvature="0" />
	<path style="fill:none;stroke:red;stroke-width:1px;stroke-linecap:butt;stroke-linejoin:miter;stroke-opacity:1" d="M 17.9718,518.962 20.6331,525.615 z" id="boundary" inkscape:connector-curvature="0" />
	<path style="fill:none;stroke:red;stroke-width:1px;stroke-linecap:butt;stroke-linejoin:miter;stroke-opacity:1" d="M 19.3025,443.115 25.2904,446.441 z" id="boundary" inkscape:connector-curvature="0" />
	<path style="fill:none;stroke:red;stroke-width:1px;stroke-linecap:butt;stroke-linejoin:miter;stroke-opacity:1" d="M 20.6331,525.615 23.9598,531.603 z" id="boundary" inkscape:connector-curvature="0" />
	<path style="fill:none;stroke:red;stroke-width:1px;stroke-linecap:butt;stroke-linejoin:miter;stroke-opacity:1" d="M 23.9598,531.603 27.2864,537.591 z" id="boundary" inkscape:connector-curvature="0" />
	<path style="fill:none;stroke:red;stroke-width:1px;stroke-linecap:butt;stroke-linejoin:miter;stroke-opacity:1" d="M 27.2864,537.591 27.2864,544.244 z" id="boundary" inkscape:connector-curvature="0" />
	<path style="fill:none;stroke:red;stroke-width:1px;stroke-linecap:butt;stroke-linejoin:miter;stroke-opacity:1" d="M 27.2864,544.244 30.613,550.232 z" id="boundary" inkscape:connector-curvature="0" />
	<path style="fill:none;stroke:red;stroke-width:1px;stroke-linecap:butt;stroke-linejoin:miter;stroke-opacity:1" d="M 30.613,550.232 35.2703,562.873 z" id="boundary" inkscape:connector-curvature="0" />
	<path style="fill:none;stroke:red;stroke-width:1px;stroke-linecap:butt;stroke-linejoin:miter;stroke-opacity:1" d="M 33.9396,278.779 33.9396,285.433 z" id="boundary" inkscape:connector-curvature="0" />
	<path style="fill:none;stroke:red;stroke-width:1px;stroke-linecap:butt;stroke-linejoin:miter;stroke-opacity:1" d="M 33.9396,278.779 37.2663,268.799 z" id="boundary" inkscape:connector-curvature="0" />
	<path style="fill:none;stroke:red;stroke-width:1px;stroke-linecap:butt;stroke-linejoin:miter;stroke-opacity:1" d="M 33.9396,285.433 33.9396,298.739 z" id="boundary" inkscape:connector-curvature="0" />
	<path style="fill:none;stroke:red;stroke-width:1px;stroke-linecap:butt;stroke-linejoin:miter;stroke-opacity:1" d="M 33.9396,298.739 33.9396,312.046 z" id="boundary" inkscape:connector-curvature="0" />
	<path style="fill:none;stroke:red;stroke-width:1px;stroke-linecap:butt;stroke-linejoin:miter;stroke-opacity:1" d="M 33.9396,312.046 33.9396,318.699 z" id="boundary" inkscape:connector-curvature="0" />
	<path style="fill:none;stroke:red;stroke-width:1px;stroke-linecap:butt;stroke-linejoin:miter;stroke-opacity:1" d="M 33.9396,318.699 33.9396,332.005 z" id="boundary" inkscape:connector-curvature="0" />
	<path style="fill:none;stroke:red;stroke-width:1px;stroke-linecap:butt;stroke-linejoin:miter;stroke-opacity:1" d="M 33.9396,332.005 33.9396,345.312 z" id="boundary" inkscape:connector-curvature="0" />
	<path style="fill:none;stroke:red;stroke-width:1px;stroke-linecap:butt;stroke-linejoin:miter;stroke-opacity:1" d="M 33.9396,345.312 33.9396,351.965 z" id="boundary" inkscape:connector-curvature="0" />
	<path style="fill:none;stroke:red;stroke-width:1px;stroke-linecap:butt;stroke-linejoin:miter;stroke-opacity:1" d="M 33.9396,351.965 33.9396,365.272 z" id="boundary" inkscape:connector-curvature="0" />
	<path style="fill:none;stroke:red;stroke-width:1px;stroke-linecap:butt;stroke-linejoin:miter;stroke-opacity:1" d="M 33.9396,378.578 33.9396,385.231 z" id="boundary" inkscape:connector-curvature="0" />
	<path style="fill:none;stroke:red;stroke-width:1px;stroke-linecap:butt;stroke-linejoin:miter;stroke-opacity:1" d="M 33.9396,378.578 33.9396,391.885 z" id="boundary" inkscape:connector-curvature="0" />
	<path style="fill:none;stroke:red;stroke-width:1px;stroke-linecap:butt;stroke-linejoin:miter;stroke-opacity:1" d="M 33.9396,385.231 33.9396,391.885 z" id="boundary" inkscape:connector-curvature="0" />
	<path style="fill:none;stroke:red;stroke-width:1px;stroke-linecap:butt;stroke-linejoin:miter;stroke-opacity:1" d="M 35.2703,562.873 38.5969,576.18 z" id="boundary" inkscape:connector-curvature="0" />
	<path style="fill:none;stroke:red;stroke-width:1px;stroke-linecap:butt;stroke-linejoin:miter;stroke-opacity:1" d="M 37.2663,268.799 40.5929,248.84 z" id="boundary" inkscape:connector-curvature="0" />
	<path style="fill:none;stroke:red;stroke-width:1px;stroke-linecap:butt;stroke-linejoin:miter;stroke-opacity:1" d="M 37.2663,404.526 37.2663,411.179 z" id="boundary" inkscape:connector-curvature="0" />
	<path style="fill:none;stroke:red;stroke-width:1px;stroke-linecap:butt;stroke-linejoin:miter;stroke-opacity:1" d="M 37.2663,404.526 40.5929,417.167 z" id="boundary" inkscape:connector-curvature="0" />
	<path style="fill:none;stroke:red;stroke-width:1px;stroke-linecap:butt;stroke-linejoin:miter;stroke-opacity:1" d="M 37.2663,411.179 40.5929,417.167 z" id="boundary" inkscape:connector-curvature="0" />
	<path style="fill:none;stroke:red;stroke-width:1px;stroke-linecap:butt;stroke-linejoin:miter;stroke-opacity:1" d="M 37.9316,451.764 48.5768,443.115 z" id="boundary" inkscape:connector-curvature="0" />
	<path style="fill:none;stroke:red;stroke-width:1px;stroke-linecap:butt;stroke-linejoin:miter;stroke-opacity:1" d="M 37.9316,451.764 50.5728,456.421 z" id="boundary" inkscape:connector-curvature="0" />
	<path style="fill:none;stroke:red;stroke-width:1px;stroke-linecap:butt;stroke-linejoin:miter;stroke-opacity:1" d="M 38.5969,576.18 40.5929,582.833 z" id="boundary" inkscape:connector-curvature="0" />
	<path style="fill:none;stroke:red;stroke-width:1px;stroke-linecap:butt;stroke-linejoin:miter;stroke-opacity:1" d="M 40.5929,248.84 43.9195,232.207 z" id="boundary" inkscape:connector-curvature="0" />
	<path style="fill:none;stroke:red;stroke-width:1px;stroke-linecap:butt;stroke-linejoin:miter;stroke-opacity:1" d="M 40.5929,582.833 43.9195,588.821 z" id="boundary" inkscape:connector-curvature="0" />
	<path style="fill:none;stroke:red;stroke-width:1px;stroke-linecap:butt;stroke-linejoin:miter;stroke-opacity:1" d="M 43.9195,232.207 47.2461,218.9 z" id="boundary" inkscape:connector-curvature="0" />
	<path style="fill:none;stroke:red;stroke-width:1px;stroke-linecap:butt;stroke-linejoin:miter;stroke-opacity:1" d="M 43.9195,588.821 47.2461,594.809 z" id="boundary" inkscape:connector-curvature="0" />
	<path style="fill:none;stroke:red;stroke-width:1px;stroke-linecap:butt;stroke-linejoin:miter;stroke-opacity:1" d="M 47.2461,212.247 47.2461,218.9 z" id="boundary" inkscape:connector-curvature="0" />
	<path style="fill:none;stroke:red;stroke-width:1px;stroke-linecap:butt;stroke-linejoin:miter;stroke-opacity:1" d="M 47.2461,212.247 50.5728,198.94 z" id="boundary" inkscape:connector-curvature="0" />
	<path style="fill:none;stroke:red;stroke-width:1px;stroke-linecap:butt;stroke-linejoin:miter;stroke-opacity:1" d="M 47.2461,594.809 51.2381,600.131 z" id="boundary" inkscape:connector-curvature="0" />
	<path style="fill:none;stroke:red;stroke-width:1px;stroke-linecap:butt;stroke-linejoin:miter;stroke-opacity:1" d="M 48.5768,443.115 50.5728,456.421 z" id="boundary" inkscape:connector-curvature="0" />
	<path style="fill:none;stroke:red;stroke-width:1px;stroke-linecap:butt;stroke-linejoin:miter;stroke-opacity:1" d="M 50.5728,198.94 53.8994,185.634 z" id="boundary" inkscape:connector-curvature="0" />
	<path style="fill:none;stroke:red;stroke-width:1px;stroke-linecap:butt;stroke-linejoin:miter;stroke-opacity:1" d="M 51.2381,600.131 53.8994,606.785 z" id="boundary" inkscape:connector-curvature="0" />
	<path style="fill:none;stroke:red;stroke-width:1px;stroke-linecap:butt;stroke-linejoin:miter;stroke-opacity:1" d="M 53.8994,178.981 53.8994,185.634 z" id="boundary" inkscape:connector-curvature="0" />
	<path style="fill:none;stroke:red;stroke-width:1px;stroke-linecap:butt;stroke-linejoin:miter;stroke-opacity:1" d="M 53.8994,178.981 57.226,172.327 z" id="boundary" inkscape:connector-curvature="0" />
	<path style="fill:none;stroke:red;stroke-width:1px;stroke-linecap:butt;stroke-linejoin:miter;stroke-opacity:1" d="M 53.8994,606.785 57.8913,612.107 z" id="boundary" inkscape:connector-curvature="0" />
	<path style="fill:none;stroke:red;stroke-width:1px;stroke-linecap:butt;stroke-linejoin:miter;stroke-opacity:1" d="M 57.226,172.327 60.5526,162.347 z" id="boundary" inkscape:connector-curvature="0" />
	<path style="fill:none;stroke:red;stroke-width:1px;stroke-linecap:butt;stroke-linejoin:miter;stroke-opacity:1" d="M 57.8913,612.107 63.214,616.765 z" id="boundary" inkscape:connector-curvature="0" />
	<path style="fill:none;stroke:red;stroke-width:1px;stroke-linecap:butt;stroke-linejoin:miter;stroke-opacity:1" d="M 60.5526,162.347 63.8793,152.368 z" id="boundary" inkscape:connector-curvature="0" />
	<path style="fill:none;stroke:red;stroke-width:1px;stroke-linecap:butt;stroke-linejoin:miter;stroke-opacity:1" d="M 63.214,616.765 65.8753,623.418 z" id="boundary" inkscape:connector-curvature="0" />
	<path style="fill:none;stroke:red;stroke-width:1px;stroke-linecap:butt;stroke-linejoin:miter;stroke-opacity:1" d="M 63.8793,152.368 70.5325,139.061 z" id="boundary" inkscape:connector-curvature="0" />
	<path style="fill:none;stroke:red;stroke-width:1px;stroke-linecap:butt;stroke-linejoin:miter;stroke-opacity:1" d="M 65.8753,623.418 71.1979,628.075 z" id="boundary" inkscape:connector-curvature="0" />
	<path style="fill:none;stroke:red;stroke-width:1px;stroke-linecap:butt;stroke-linejoin:miter;stroke-opacity:1" d="M 70.5325,139.061 75.8551,133.738 z" id="boundary" inkscape:connector-curvature="0" />
	<path style="fill:none;stroke:red;stroke-width:1px;stroke-linecap:butt;stroke-linejoin:miter;stroke-opacity:1" d="M 71.1979,628.075 75.8551,633.398 z" id="boundary" inkscape:connector-curvature="0" />
	<path style="fill:none;stroke:red;stroke-width:1px;stroke-linecap:butt;stroke-linejoin:miter;stroke-opacity:1" d="M 75.8551,133.738 82.5084,120.432 z" id="boundary" inkscape:connector-curvature="0" />
	<path style="fill:none;stroke:red;stroke-width:1px;stroke-linecap:butt;stroke-linejoin:miter;stroke-opacity:1" d="M 75.8551,633.398 82.5084,636.059 z" id="boundary" inkscape:connector-curvature="0" />
	<path style="fill:none;stroke:red;stroke-width:1px;stroke-linecap:butt;stroke-linejoin:miter;stroke-opacity:1" d="M 82.5084,120.432 87.831,115.109 z" id="boundary" inkscape:connector-curvature="0" />
	<path style="fill:none;stroke:red;stroke-width:1px;stroke-linecap:butt;stroke-linejoin:miter;stroke-opacity:1" d="M 82.5084,636.059 87.831,640.051 z" id="boundary" inkscape:connector-curvature="0" />
	<path style="fill:none;stroke:red;stroke-width:1px;stroke-linecap:butt;stroke-linejoin:miter;stroke-opacity:1" d="M 87.831,115.109 95.8149,103.799 z" id="boundary" inkscape:connector-curvature="0" />
	<path style="fill:none;stroke:red;stroke-width:1px;stroke-linecap:butt;stroke-linejoin:miter;stroke-opacity:1" d="M 87.831,640.051 93.8189,650.031 z" id="boundary" inkscape:connector-curvature="0" />
	<path style="fill:none;stroke:red;stroke-width:1px;stroke-linecap:butt;stroke-linejoin:miter;stroke-opacity:1" d="M 93.8189,650.031 93.8189,663.337 z" id="boundary" inkscape:connector-curvature="0" />
	<path style="fill:none;stroke:red;stroke-width:1px;stroke-linecap:butt;stroke-linejoin:miter;stroke-opacity:1" d="M 93.8189,663.337 93.8189,669.991 z" id="boundary" inkscape:connector-curvature="0" />
	<path style="fill:none;stroke:red;stroke-width:1px;stroke-linecap:butt;stroke-linejoin:miter;stroke-opacity:1" d="M 93.8189,669.991 93.8189,683.297 z" id="boundary" inkscape:connector-curvature="0" />
	<path style="fill:none;stroke:red;stroke-width:1px;stroke-linecap:butt;stroke-linejoin:miter;stroke-opacity:1" d="M 93.8189,683.297 93.8189,696.604 z" id="boundary" inkscape:connector-curvature="0" />
	<path style="fill:none;stroke:red;stroke-width:1px;stroke-linecap:butt;stroke-linejoin:miter;stroke-opacity:1" d="M 93.8189,696.604 95.8149,703.257 z" id="boundary" inkscape:connector-curvature="0" />
	<path style="fill:none;stroke:red;stroke-width:1px;stroke-linecap:butt;stroke-linejoin:miter;stroke-opacity:1" d="M 95.8149,103.799 101.137,98.4762 z" id="boundary" inkscape:connector-curvature="0" />
	<path style="fill:none;stroke:red;stroke-width:1px;stroke-linecap:butt;stroke-linejoin:miter;stroke-opacity:1" d="M 95.8149,703.257 97.1455,709.91 z" id="boundary" inkscape:connector-curvature="0" />
	<path style="fill:none;stroke:red;stroke-width:1px;stroke-linecap:butt;stroke-linejoin:miter;stroke-opacity:1" d="M 97.1455,709.91 101.137,715.233 z" id="boundary" inkscape:connector-curvature="0" />
	<path style="fill:none;stroke:red;stroke-width:1px;stroke-linecap:butt;stroke-linejoin:miter;stroke-opacity:1" d="M 101.137,98.4762 107.791,85.1697 z" id="boundary" inkscape:connector-curvature="0" />
	<path style="fill:none;stroke:red;stroke-width:1px;stroke-linecap:butt;stroke-linejoin:miter;stroke-opacity:1" d="M 101.137,715.233 107.125,727.874 z" id="boundary" inkscape:connector-curvature="0" />
	<path style="fill:none;stroke:red;stroke-width:1px;stroke-linecap:butt;stroke-linejoin:miter;stroke-opacity:1" d="M 107.125,727.874 112.448,732.531 z" id="boundary" inkscape:connector-curvature="0" />
	<path style="fill:none;stroke:red;stroke-width:1px;stroke-linecap:butt;stroke-linejoin:miter;stroke-opacity:1" d="M 107.791,85.1697 117.105,72.5285 z" id="boundary" inkscape:connector-curvature="0" />
	<path style="fill:none;stroke:red;stroke-width:1px;stroke-linecap:butt;stroke-linejoin:miter;stroke-opacity:1" d="M 112.448,732.531 115.109,739.184 z" id="boundary" inkscape:connector-curvature="0" />
	<path style="fill:none;stroke:red;stroke-width:1px;stroke-linecap:butt;stroke-linejoin:miter;stroke-opacity:1" d="M 115.109,739.184 118.436,745.172 z" id="boundary" inkscape:connector-curvature="0" />
	<path style="fill:none;stroke:red;stroke-width:1px;stroke-linecap:butt;stroke-linejoin:miter;stroke-opacity:1" d="M 117.105,72.5285 122.428,67.2059 z" id="boundary" inkscape:connector-curvature="0" />
	<path style="fill:none;stroke:red;stroke-width:1px;stroke-linecap:butt;stroke-linejoin:miter;stroke-opacity:1" d="M 118.436,745.172 123.759,749.83 z" id="boundary" inkscape:connector-curvature="0" />
	<path style="fill:none;stroke:red;stroke-width:1px;stroke-linecap:butt;stroke-linejoin:miter;stroke-opacity:1" d="M 122.428,67.2059 129.081,63.8793 z" id="boundary" inkscape:connector-curvature="0" />
	<path style="fill:none;stroke:red;stroke-width:1px;stroke-linecap:butt;stroke-linejoin:miter;stroke-opacity:1" d="M 123.759,749.83 129.746,753.156 z" id="boundary" inkscape:connector-curvature="0" />
	<path style="fill:none;stroke:red;stroke-width:1px;stroke-linecap:butt;stroke-linejoin:miter;stroke-opacity:1" d="M 129.081,63.8793 134.404,58.5567 z" id="boundary" inkscape:connector-curvature="0" />
	<path style="fill:none;stroke:red;stroke-width:1px;stroke-linecap:butt;stroke-linejoin:miter;stroke-opacity:1" d="M 129.746,753.156 132.408,759.81 z" id="boundary" inkscape:connector-curvature="0" />
	<path style="fill:none;stroke:red;stroke-width:1px;stroke-linecap:butt;stroke-linejoin:miter;stroke-opacity:1" d="M 132.408,759.81 138.396,763.136 z" id="boundary" inkscape:connector-curvature="0" />
	<path style="fill:none;stroke:red;stroke-width:1px;stroke-linecap:butt;stroke-linejoin:miter;stroke-opacity:1" d="M 134.404,58.5567 139.726,53.8994 z" id="boundary" inkscape:connector-curvature="0" />
	<path style="fill:none;stroke:red;stroke-width:1px;stroke-linecap:butt;stroke-linejoin:miter;stroke-opacity:1" d="M 138.396,763.136 143.718,767.128 z" id="boundary" inkscape:connector-curvature="0" />
	<path style="fill:none;stroke:red;stroke-width:1px;stroke-linecap:butt;stroke-linejoin:miter;stroke-opacity:1" d="M 139.726,53.8994 145.714,50.5728 z" id="boundary" inkscape:connector-curvature="0" />
	<path style="fill:none;stroke:red;stroke-width:1px;stroke-linecap:butt;stroke-linejoin:miter;stroke-opacity:1" d="M 140.392,801.06 140.392,814.366 z" id="boundary" inkscape:connector-curvature="0" />
	<path style="fill:none;stroke:red;stroke-width:1px;stroke-linecap:butt;stroke-linejoin:miter;stroke-opacity:1" d="M 140.392,801.06 143.718,784.427 z" id="boundary" inkscape:connector-curvature="0" />
	<path style="fill:none;stroke:red;stroke-width:1px;stroke-linecap:butt;stroke-linejoin:miter;stroke-opacity:1" d="M 140.392,814.366 140.392,827.673 z" id="boundary" inkscape:connector-curvature="0" />
	<path style="fill:none;stroke:red;stroke-width:1px;stroke-linecap:butt;stroke-linejoin:miter;stroke-opacity:1" d="M 140.392,827.673 140.392,834.326 z" id="boundary" inkscape:connector-curvature="0" />
	<path style="fill:none;stroke:red;stroke-width:1px;stroke-linecap:butt;stroke-linejoin:miter;stroke-opacity:1" d="M 140.392,834.326 140.392,847.632 z" id="boundary" inkscape:connector-curvature="0" />
	<path style="fill:none;stroke:red;stroke-width:1px;stroke-linecap:butt;stroke-linejoin:miter;stroke-opacity:1" d="M 140.392,847.632 143.718,853.62 z" id="boundary" inkscape:connector-curvature="0" />
	<path style="fill:none;stroke:red;stroke-width:1px;stroke-linecap:butt;stroke-linejoin:miter;stroke-opacity:1" d="M 143.718,767.128 143.718,784.427 z" id="boundary" inkscape:connector-curvature="0" />
	<path style="fill:none;stroke:red;stroke-width:1px;stroke-linecap:butt;stroke-linejoin:miter;stroke-opacity:1" d="M 143.718,853.62 149.041,866.262 z" id="boundary" inkscape:connector-curvature="0" />
	<path style="fill:none;stroke:red;stroke-width:1px;stroke-linecap:butt;stroke-linejoin:miter;stroke-opacity:1" d="M 145.714,50.5728 151.037,45.2502 z" id="boundary" inkscape:connector-curvature="0" />
	<path style="fill:none;stroke:red;stroke-width:1px;stroke-linecap:butt;stroke-linejoin:miter;stroke-opacity:1" d="M 149.041,866.262 152.368,872.249 z" id="boundary" inkscape:connector-curvature="0" />
	<path style="fill:none;stroke:red;stroke-width:1px;stroke-linecap:butt;stroke-linejoin:miter;stroke-opacity:1" d="M 151.037,45.2502 156.359,40.5929 z" id="boundary" inkscape:connector-curvature="0" />
	<path style="fill:none;stroke:red;stroke-width:1px;stroke-linecap:butt;stroke-linejoin:miter;stroke-opacity:1" d="M 152.368,872.249 157.025,877.572 z" id="boundary" inkscape:connector-curvature="0" />
	<path style="fill:none;stroke:red;stroke-width:1px;stroke-linecap:butt;stroke-linejoin:miter;stroke-opacity:1" d="M 156.359,40.5929 162.347,37.2663 z" id="boundary" inkscape:connector-curvature="0" />
	<path style="fill:none;stroke:red;stroke-width:1px;stroke-linecap:butt;stroke-linejoin:miter;stroke-opacity:1" d="M 157.025,877.572 162.347,882.229 z" id="boundary" inkscape:connector-curvature="0" />
	<path style="fill:none;stroke:red;stroke-width:1px;stroke-linecap:butt;stroke-linejoin:miter;stroke-opacity:1" d="M 162.347,37.2663 168.335,33.9396 z" id="boundary" inkscape:connector-curvature="0" />
	<path style="fill:none;stroke:red;stroke-width:1px;stroke-linecap:butt;stroke-linejoin:miter;stroke-opacity:1" d="M 162.347,882.229 167.005,887.552 z" id="boundary" inkscape:connector-curvature="0" />
	<path style="fill:none;stroke:red;stroke-width:1px;stroke-linecap:butt;stroke-linejoin:miter;stroke-opacity:1" d="M 167.005,887.552 172.327,892.209 z" id="boundary" inkscape:connector-curvature="0" />
	<path style="fill:none;stroke:red;stroke-width:1px;stroke-linecap:butt;stroke-linejoin:miter;stroke-opacity:1" d="M 168.335,33.9396 173.658,29.2824 z" id="boundary" inkscape:connector-curvature="0" />
	<path style="fill:none;stroke:red;stroke-width:1px;stroke-linecap:butt;stroke-linejoin:miter;stroke-opacity:1" d="M 172.327,892.209 176.985,897.532 z" id="boundary" inkscape:connector-curvature="0" />
	<path style="fill:none;stroke:red;stroke-width:1px;stroke-linecap:butt;stroke-linejoin:miter;stroke-opacity:1" d="M 173.658,29.2824 180.311,27.2864 z" id="boundary" inkscape:connector-curvature="0" />
	<path style="fill:none;stroke:red;stroke-width:1px;stroke-linecap:butt;stroke-linejoin:miter;stroke-opacity:1" d="M 176.985,897.532 182.307,902.189 z" id="boundary" inkscape:connector-curvature="0" />
	<path style="fill:none;stroke:red;stroke-width:1px;stroke-linecap:butt;stroke-linejoin:miter;stroke-opacity:1" d="M 180.311,27.2864 186.299,23.9598 z" id="boundary" inkscape:connector-curvature="0" />
	<path style="fill:none;stroke:red;stroke-width:1px;stroke-linecap:butt;stroke-linejoin:miter;stroke-opacity:1" d="M 182.307,902.189 186.964,907.512 z" id="boundary" inkscape:connector-curvature="0" />
	<path style="fill:none;stroke:red;stroke-width:1px;stroke-linecap:butt;stroke-linejoin:miter;stroke-opacity:1" d="M 186.299,23.9598 192.287,20.6331 z" id="boundary" inkscape:connector-curvature="0" />
	<path style="fill:none;stroke:red;stroke-width:1px;stroke-linecap:butt;stroke-linejoin:miter;stroke-opacity:1" d="M 186.964,907.512 192.287,912.169 z" id="boundary" inkscape:connector-curvature="0" />
	<path style="fill:none;stroke:red;stroke-width:1px;stroke-linecap:butt;stroke-linejoin:miter;stroke-opacity:1" d="M 192.287,20.6331 198.94,17.3065 z" id="boundary" inkscape:connector-curvature="0" />
	<path style="fill:none;stroke:red;stroke-width:1px;stroke-linecap:butt;stroke-linejoin:miter;stroke-opacity:1" d="M 192.287,912.169 196.944,917.492 z" id="boundary" inkscape:connector-curvature="0" />
	<path style="fill:none;stroke:red;stroke-width:1px;stroke-linecap:butt;stroke-linejoin:miter;stroke-opacity:1" d="M 196.944,917.492 202.267,922.149 z" id="boundary" inkscape:connector-curvature="0" />
	<path style="fill:none;stroke:red;stroke-width:1px;stroke-linecap:butt;stroke-linejoin:miter;stroke-opacity:1" d="M 198.94,17.3065 204.928,13.9799 z" id="boundary" inkscape:connector-curvature="0" />
	<path style="fill:none;stroke:red;stroke-width:1px;stroke-linecap:butt;stroke-linejoin:miter;stroke-opacity:1" d="M 202.267,922.149 207.59,926.141 z" id="boundary" inkscape:connector-curvature="0" />
	<path style="fill:none;stroke:red;stroke-width:1px;stroke-linecap:butt;stroke-linejoin:miter;stroke-opacity:1" d="M 204.928,13.9799 210.916,10.6533 z" id="boundary" inkscape:connector-curvature="0" />
	<path style="fill:none;stroke:red;stroke-width:1px;stroke-linecap:butt;stroke-linejoin:miter;stroke-opacity:1" d="M 207.59,926.141 213.577,929.467 z" id="boundary" inkscape:connector-curvature="0" />
	<path style="fill:none;stroke:red;stroke-width:1px;stroke-linecap:butt;stroke-linejoin:miter;stroke-opacity:1" d="M 210.916,10.6533 217.569,10.6533 z" id="boundary" inkscape:connector-curvature="0" />
	<path style="fill:none;stroke:red;stroke-width:1px;stroke-linecap:butt;stroke-linejoin:miter;stroke-opacity:1" d="M 213.577,929.467 217.569,934.79 z" id="boundary" inkscape:connector-curvature="0" />
	<path style="fill:none;stroke:red;stroke-width:1px;stroke-linecap:butt;stroke-linejoin:miter;stroke-opacity:1" d="M 217.569,10.6533 223.557,7.32663 z" id="boundary" inkscape:connector-curvature="0" />
	<path style="fill:none;stroke:red;stroke-width:1px;stroke-linecap:butt;stroke-linejoin:miter;stroke-opacity:1" d="M 217.569,934.79 222.892,939.447 z" id="boundary" inkscape:connector-curvature="0" />
	<path style="fill:none;stroke:red;stroke-width:1px;stroke-linecap:butt;stroke-linejoin:miter;stroke-opacity:1" d="M 222.892,939.447 227.549,944.77 z" id="boundary" inkscape:connector-curvature="0" />
	<path style="fill:none;stroke:red;stroke-width:1px;stroke-linecap:butt;stroke-linejoin:miter;stroke-opacity:1" d="M 223.557,7.32663 236.864,7.32663 z" id="boundary" inkscape:connector-curvature="0" />
	<path style="fill:none;stroke:red;stroke-width:1px;stroke-linecap:butt;stroke-linejoin:miter;stroke-opacity:1" d="M 227.549,944.77 232.872,949.427 z" id="boundary" inkscape:connector-curvature="0" />
	<path style="fill:none;stroke:red;stroke-width:1px;stroke-linecap:butt;stroke-linejoin:miter;stroke-opacity:1" d="M 232.872,949.427 238.86,952.754 z" id="boundary" inkscape:connector-curvature="0" />
	<path style="fill:none;stroke:red;stroke-width:1px;stroke-linecap:butt;stroke-linejoin:miter;stroke-opacity:1" d="M 236.864,7.32663 250.17,7.32663 z" id="boundary" inkscape:connector-curvature="0" />
	<path style="fill:none;stroke:red;stroke-width:1px;stroke-linecap:butt;stroke-linejoin:miter;stroke-opacity:1" d="M 238.86,952.754 245.513,955.415 z" id="boundary" inkscape:connector-curvature="0" />
	<path style="fill:none;stroke:red;stroke-width:1px;stroke-linecap:butt;stroke-linejoin:miter;stroke-opacity:1" d="M 245.513,955.415 250.17,960.738 z" id="boundary" inkscape:connector-curvature="0" />
	<path style="fill:none;stroke:red;stroke-width:1px;stroke-linecap:butt;stroke-linejoin:miter;stroke-opacity:1" d="M 250.17,7.32663 256.824,7.32663 z" id="boundary" inkscape:connector-curvature="0" />
	<path style="fill:none;stroke:red;stroke-width:1px;stroke-linecap:butt;stroke-linejoin:miter;stroke-opacity:1" d="M 250.17,960.738 255.493,965.395 z" id="boundary" inkscape:connector-curvature="0" />
	<path style="fill:none;stroke:red;stroke-width:1px;stroke-linecap:butt;stroke-linejoin:miter;stroke-opacity:1" d="M 255.493,965.395 261.481,968.722 z" id="boundary" inkscape:connector-curvature="0" />
	<path style="fill:none;stroke:red;stroke-width:1px;stroke-linecap:butt;stroke-linejoin:miter;stroke-opacity:1" d="M 256.824,7.32663 270.13,7.32663 z" id="boundary" inkscape:connector-curvature="0" />
	<path style="fill:none;stroke:red;stroke-width:1px;stroke-linecap:butt;stroke-linejoin:miter;stroke-opacity:1" d="M 261.481,968.722 266.803,972.714 z" id="boundary" inkscape:connector-curvature="0" />
	<path style="fill:none;stroke:red;stroke-width:1px;stroke-linecap:butt;stroke-linejoin:miter;stroke-opacity:1" d="M 266.803,972.714 272.791,976.04 z" id="boundary" inkscape:connector-curvature="0" />
	<path style="fill:none;stroke:red;stroke-width:1px;stroke-linecap:butt;stroke-linejoin:miter;stroke-opacity:1" d="M 270.13,7.32663 283.437,4 z" id="boundary" inkscape:connector-curvature="0" />
	<path style="fill:none;stroke:red;stroke-width:1px;stroke-linecap:butt;stroke-linejoin:miter;stroke-opacity:1" d="M 272.791,976.04 277.449,981.363 z" id="boundary" inkscape:connector-curvature="0" />
	<path style="fill:none;stroke:red;stroke-width:1px;stroke-linecap:butt;stroke-linejoin:miter;stroke-opacity:1" d="M 277.449,981.363 284.102,982.693 z" id="boundary" inkscape:connector-curvature="0" />
	<path style="fill:none;stroke:red;stroke-width:1px;stroke-linecap:butt;stroke-linejoin:miter;stroke-opacity:1" d="M 283.437,4 290.09,4 z" id="boundary" inkscape:connector-curvature="0" />
	<path style="fill:none;stroke:red;stroke-width:1px;stroke-linecap:butt;stroke-linejoin:miter;stroke-opacity:1" d="M 284.102,982.693 290.09,986.02 z" id="boundary" inkscape:connector-curvature="0" />
	<path style="fill:none;stroke:red;stroke-width:1px;stroke-linecap:butt;stroke-linejoin:miter;stroke-opacity:1" d="M 290.09,4 303.396,4 z" id="boundary" inkscape:connector-curvature="0" />
	<path style="fill:none;stroke:red;stroke-width:1px;stroke-linecap:butt;stroke-linejoin:miter;stroke-opacity:1" d="M 290.09,986.02 294.082,991.343 z" id="boundary" inkscape:connector-curvature="0" />
	<path style="fill:none;stroke:red;stroke-width:1px;stroke-linecap:butt;stroke-linejoin:miter;stroke-opacity:1" d="M 294.082,991.343 307.388,996 z" id="boundary" inkscape:connector-curvature="0" />
	<path style="fill:none;stroke:red;stroke-width:1px;stroke-linecap:butt;stroke-linejoin:miter;stroke-opacity:1" d="M 303.396,4 316.703,7.32663 z" id="boundary" inkscape:connector-curvature="0" />
	<path style="fill:none;stroke:red;stroke-width:1px;stroke-linecap:butt;stroke-linejoin:miter;stroke-opacity:1" d="M 307.388,996 320.695,996 z" id="boundary" inkscape:connector-curvature="0" />
	<path style="fill:none;stroke:red;stroke-width:1px;stroke-linecap:butt;stroke-linejoin:miter;stroke-opacity:1" d="M 316.703,7.32663 323.356,7.32663 z" id="boundary" inkscape:connector-curvature="0" />
	<path style="fill:none;stroke:red;stroke-width:1px;stroke-linecap:butt;stroke-linejoin:miter;stroke-opacity:1" d="M 320.695,996 333.336,990.677 z" id="boundary" inkscape:connector-curvature="0" />
	<path style="fill:none;stroke:red;stroke-width:1px;stroke-linecap:butt;stroke-linejoin:miter;stroke-opacity:1" d="M 323.356,7.32663 336.663,10.6533 z" id="boundary" inkscape:connector-curvature="0" />
	<path style="fill:none;stroke:red;stroke-width:1px;stroke-linecap:butt;stroke-linejoin:miter;stroke-opacity:1" d="M 333.336,990.677 339.989,989.347 z" id="boundary" inkscape:connector-curvature="0" />
	<path style="fill:none;stroke:red;stroke-width:1px;stroke-linecap:butt;stroke-linejoin:miter;stroke-opacity:1" d="M 339.989,989.347 346.643,987.351 z" id="boundary" inkscape:connector-curvature="0" />
	<path style="fill:none;stroke:red;stroke-width:1px;stroke-linecap:butt;stroke-linejoin:miter;stroke-opacity:1" d="M 346.643,987.351 351.965,982.693 z" id="boundary" inkscape:connector-curvature="0" />
	<path style="fill:none;stroke:red;stroke-width:1px;stroke-linecap:butt;stroke-linejoin:miter;stroke-opacity:1" d="M 349.969,13.9799 356.622,15.3105 z" id="boundary" inkscape:connector-curvature="0" />
	<path style="fill:none;stroke:red;stroke-width:1px;stroke-linecap:butt;stroke-linejoin:miter;stroke-opacity:1" d="M 349.969,13.9799 362.61,18.6372 z" id="boundary" inkscape:connector-curvature="0" />
	<path style="fill:none;stroke:red;stroke-width:1px;stroke-linecap:butt;stroke-linejoin:miter;stroke-opacity:1" d="M 351.965,982.693 358.618,982.028 z" id="boundary" inkscape:connector-curvature="0" />
	<path style="fill:none;stroke:red;stroke-width:1px;stroke-linecap:butt;stroke-linejoin:miter;stroke-opacity:1" d="M 356.622,15.3105 362.61,18.6372 z" id="boundary" inkscape:connector-curvature="0" />
	<path style="fill:none;stroke:red;stroke-width:1px;stroke-linecap:butt;stroke-linejoin:miter;stroke-opacity:1" d="M 358.618,982.028 371.925,976.04 z" id="boundary" inkscape:connector-curvature="0" />
	<path style="fill:none;stroke:red;stroke-width:1px;stroke-linecap:butt;stroke-linejoin:miter;stroke-opacity:1" d="M 371.925,976.04 377.913,972.714 z" id="boundary" inkscape:connector-curvature="0" />
	<path style="fill:none;stroke:red;stroke-width:1px;stroke-linecap:butt;stroke-linejoin:miter;stroke-opacity:1" d="M 373.921,25.9557 379.243,30.613 z" id="boundary" inkscape:connector-curvature="0" />
	<path style="fill:none;stroke:red;stroke-width:1px;stroke-linecap:butt;stroke-linejoin:miter;stroke-opacity:1" d="M 377.913,972.714 383.901,969.387 z" id="boundary" inkscape:connector-curvature="0" />
	<path style="fill:none;stroke:red;stroke-width:1px;stroke-linecap:butt;stroke-linejoin:miter;stroke-opacity:1" d="M 379.243,30.613 385.231,33.9396 z" id="boundary" inkscape:connector-curvature="0" />
	<path style="fill:none;stroke:red;stroke-width:1px;stroke-linecap:butt;stroke-linejoin:miter;stroke-opacity:1" d="M 383.901,969.387 389.223,964.73 z" id="boundary" inkscape:connector-curvature="0" />
	<path style="fill:none;stroke:red;stroke-width:1px;stroke-linecap:butt;stroke-linejoin:miter;stroke-opacity:1" d="M 385.231,33.9396 389.889,39.2622 z" id="boundary" inkscape:connector-curvature="0" />
	<path style="fill:none;stroke:red;stroke-width:1px;stroke-linecap:butt;stroke-linejoin:miter;stroke-opacity:1" d="M 389.223,964.73 393.881,959.407 z" id="boundary" inkscape:connector-curvature="0" />
	<path style="fill:none;stroke:red;stroke-width:1px;stroke-linecap:butt;stroke-linejoin:miter;stroke-opacity:1" d="M 389.889,39.2622 393.881,44.5848 z" id="boundary" inkscape:connector-curvature="0" />
	<path style="fill:none;stroke:red;stroke-width:1px;stroke-linecap:butt;stroke-linejoin:miter;stroke-opacity:1" d="M 393.881,44.5848 403.86,50.5728 z" id="boundary" inkscape:connector-curvature="0" />
	<path style="fill:none;stroke:red;stroke-width:1px;stroke-linecap:butt;stroke-linejoin:miter;stroke-opacity:1" d="M 393.881,959.407 407.187,952.754 z" id="boundary" inkscape:connector-curvature="0" />
	<path style="fill:none;stroke:red;stroke-width:1px;stroke-linecap:butt;stroke-linejoin:miter;stroke-opacity:1" d="M 403.86,50.5728 409.848,47.2461 z" id="boundary" inkscape:connector-curvature="0" />
	<path style="fill:none;stroke:red;stroke-width:1px;stroke-linecap:butt;stroke-linejoin:miter;stroke-opacity:1" d="M 407.187,952.754 413.84,949.427 z" id="boundary" inkscape:connector-curvature="0" />
	<path style="fill:none;stroke:red;stroke-width:1px;stroke-linecap:butt;stroke-linejoin:miter;stroke-opacity:1" d="M 409.848,47.2461 415.836,43.9195 z" id="boundary" inkscape:connector-curvature="0" />
	<path style="fill:none;stroke:red;stroke-width:1px;stroke-linecap:butt;stroke-linejoin:miter;stroke-opacity:1" d="M 413.84,949.427 419.163,944.77 z" id="boundary" inkscape:connector-curvature="0" />
	<path style="fill:none;stroke:red;stroke-width:1px;stroke-linecap:butt;stroke-linejoin:miter;stroke-opacity:1" d="M 415.836,43.9195 429.143,43.9195 z" id="boundary" inkscape:connector-curvature="0" />
	<path style="fill:none;stroke:red;stroke-width:1px;stroke-linecap:butt;stroke-linejoin:miter;stroke-opacity:1" d="M 419.163,944.77 423.155,939.447 z" id="boundary" inkscape:connector-curvature="0" />
	<path style="fill:none;stroke:red;stroke-width:1px;stroke-linecap:butt;stroke-linejoin:miter;stroke-opacity:1" d="M 423.155,939.447 429.143,936.121 z" id="boundary" inkscape:connector-curvature="0" />
	<path style="fill:none;stroke:red;stroke-width:1px;stroke-linecap:butt;stroke-linejoin:miter;stroke-opacity:1" d="M 429.143,43.9195 442.449,43.9195 z" id="boundary" inkscape:connector-curvature="0" />
	<path style="fill:none;stroke:red;stroke-width:1px;stroke-linecap:butt;stroke-linejoin:miter;stroke-opacity:1" d="M 429.143,936.121 433.8,929.467 z" id="boundary" inkscape:connector-curvature="0" />
	<path style="fill:none;stroke:red;stroke-width:1px;stroke-linecap:butt;stroke-linejoin:miter;stroke-opacity:1" d="M 433.8,929.467 439.123,924.81 z" id="boundary" inkscape:connector-curvature="0" />
	<path style="fill:none;stroke:red;stroke-width:1px;stroke-linecap:butt;stroke-linejoin:miter;stroke-opacity:1" d="M 439.123,924.81 443.78,919.488 z" id="boundary" inkscape:connector-curvature="0" />
	<path style="fill:none;stroke:red;stroke-width:1px;stroke-linecap:butt;stroke-linejoin:miter;stroke-opacity:1" d="M 442.449,43.9195 455.091,47.2461 z" id="boundary" inkscape:connector-curvature="0" />
	<path style="fill:none;stroke:red;stroke-width:1px;stroke-linecap:butt;stroke-linejoin:miter;stroke-opacity:1" d="M 443.78,919.488 449.103,914.83 z" id="boundary" inkscape:connector-curvature="0" />
	<path style="fill:none;stroke:red;stroke-width:1px;stroke-linecap:butt;stroke-linejoin:miter;stroke-opacity:1" d="M 449.103,914.83 452.429,908.177 z" id="boundary" inkscape:connector-curvature="0" />
	<path style="fill:none;stroke:red;stroke-width:1px;stroke-linecap:butt;stroke-linejoin:miter;stroke-opacity:1" d="M 452.429,908.177 457.087,902.854 z" id="boundary" inkscape:connector-curvature="0" />
	<path style="fill:none;stroke:red;stroke-width:1px;stroke-linecap:butt;stroke-linejoin:miter;stroke-opacity:1" d="M 455.091,47.2461 461.078,50.5728 z" id="boundary" inkscape:connector-curvature="0" />
	<path style="fill:none;stroke:red;stroke-width:1px;stroke-linecap:butt;stroke-linejoin:miter;stroke-opacity:1" d="M 457.087,902.854 460.413,896.201 z" id="boundary" inkscape:connector-curvature="0" />
	<path style="fill:none;stroke:red;stroke-width:1px;stroke-linecap:butt;stroke-linejoin:miter;stroke-opacity:1" d="M 460.413,896.201 470.393,882.895 z" id="boundary" inkscape:connector-curvature="0" />
	<path style="fill:none;stroke:red;stroke-width:1px;stroke-linecap:butt;stroke-linejoin:miter;stroke-opacity:1" d="M 461.078,50.5728 467.066,53.8994 z" id="boundary" inkscape:connector-curvature="0" />
	<path style="fill:none;stroke:red;stroke-width:1px;stroke-linecap:butt;stroke-linejoin:miter;stroke-opacity:1" d="M 467.066,53.8994 472.389,57.8913 z" id="boundary" inkscape:connector-curvature="0" />
	<path style="fill:none;stroke:red;stroke-width:1px;stroke-linecap:butt;stroke-linejoin:miter;stroke-opacity:1" d="M 470.393,882.895 475.716,878.237 z" id="boundary" inkscape:connector-curvature="0" />
	<path style="fill:none;stroke:red;stroke-width:1px;stroke-linecap:butt;stroke-linejoin:miter;stroke-opacity:1" d="M 472.389,57.8913 477.046,63.214 z" id="boundary" inkscape:connector-curvature="0" />
	<path style="fill:none;stroke:red;stroke-width:1px;stroke-linecap:butt;stroke-linejoin:miter;stroke-opacity:1" d="M 475.716,878.237 483.7,862.935 z" id="boundary" inkscape:connector-curvature="0" />
	<path style="fill:none;stroke:red;stroke-width:1px;stroke-linecap:butt;stroke-linejoin:miter;stroke-opacity:1" d="M 477.046,63.214 483.7,63.8793 z" id="boundary" inkscape:connector-curvature="0" />
	<path style="fill:none;stroke:red;stroke-width:1px;stroke-linecap:butt;stroke-linejoin:miter;stroke-opacity:1" d="M 483.7,63.8793 489.687,67.2059 z" id="boundary" inkscape:connector-curvature="0" />
	<path style="fill:none;stroke:red;stroke-width:1px;stroke-linecap:butt;stroke-linejoin:miter;stroke-opacity:1" d="M 483.7,862.935 487.026,856.282 z" id="boundary" inkscape:connector-curvature="0" />
	<path style="fill:none;stroke:red;stroke-width:1px;stroke-linecap:butt;stroke-linejoin:miter;stroke-opacity:1" d="M 487.026,856.282 495.675,844.971 z" id="boundary" inkscape:connector-curvature="0" />
	<path style="fill:none;stroke:red;stroke-width:1px;stroke-linecap:butt;stroke-linejoin:miter;stroke-opacity:1" d="M 489.687,67.2059 495.01,71.1979 z" id="boundary" inkscape:connector-curvature="0" />
	<path style="fill:none;stroke:red;stroke-width:1px;stroke-linecap:butt;stroke-linejoin:miter;stroke-opacity:1" d="M 495.01,71.1979 500.333,75.8551 z" id="boundary" inkscape:connector-curvature="0" />
	<path style="fill:none;stroke:red;stroke-width:1px;stroke-linecap:butt;stroke-linejoin:miter;stroke-opacity:1" d="M 495.675,844.971 497.006,832.995 z" id="boundary" inkscape:connector-curvature="0" />
	<path style="fill:none;stroke:red;stroke-width:1px;stroke-linecap:butt;stroke-linejoin:miter;stroke-opacity:1" d="M 497.006,832.995 503.659,819.689 z" id="boundary" inkscape:connector-curvature="0" />
	<path style="fill:none;stroke:red;stroke-width:1px;stroke-linecap:butt;stroke-linejoin:miter;stroke-opacity:1" d="M 500.333,75.8551 504.99,81.1777 z" id="boundary" inkscape:connector-curvature="0" />
	<path style="fill:none;stroke:red;stroke-width:1px;stroke-linecap:butt;stroke-linejoin:miter;stroke-opacity:1" d="M 503.659,819.689 506.986,806.382 z" id="boundary" inkscape:connector-curvature="0" />
	<path style="fill:none;stroke:red;stroke-width:1px;stroke-linecap:butt;stroke-linejoin:miter;stroke-opacity:1" d="M 504.99,81.1777 511.643,83.839 z" id="boundary" inkscape:connector-curvature="0" />
	<path style="fill:none;stroke:red;stroke-width:1px;stroke-linecap:butt;stroke-linejoin:miter;stroke-opacity:1" d="M 506.986,806.382 510.313,796.402 z" id="boundary" inkscape:connector-curvature="0" />
	<path style="fill:none;stroke:red;stroke-width:1px;stroke-linecap:butt;stroke-linejoin:miter;stroke-opacity:1" d="M 510.313,729.87 510.313,736.523 z" id="boundary" inkscape:connector-curvature="0" />
	<path style="fill:none;stroke:red;stroke-width:1px;stroke-linecap:butt;stroke-linejoin:miter;stroke-opacity:1" d="M 510.313,729.87 513.639,719.89 z" id="boundary" inkscape:connector-curvature="0" />
	<path style="fill:none;stroke:red;stroke-width:1px;stroke-linecap:butt;stroke-linejoin:miter;stroke-opacity:1" d="M 510.313,736.523 510.313,749.83 z" id="boundary" inkscape:connector-curvature="0" />
	<path style="fill:none;stroke:red;stroke-width:1px;stroke-linecap:butt;stroke-linejoin:miter;stroke-opacity:1" d="M 510.313,749.83 510.313,763.136 z" id="boundary" inkscape:connector-curvature="0" />
	<path style="fill:none;stroke:red;stroke-width:1px;stroke-linecap:butt;stroke-linejoin:miter;stroke-opacity:1" d="M 510.313,763.136 510.313,769.789 z" id="boundary" inkscape:connector-curvature="0" />
	<path style="fill:none;stroke:red;stroke-width:1px;stroke-linecap:butt;stroke-linejoin:miter;stroke-opacity:1" d="M 510.313,769.789 510.313,783.096 z" id="boundary" inkscape:connector-curvature="0" />
	<path style="fill:none;stroke:red;stroke-width:1px;stroke-linecap:butt;stroke-linejoin:miter;stroke-opacity:1" d="M 510.313,783.096 510.313,796.402 z" id="boundary" inkscape:connector-curvature="0" />
	<path style="fill:none;stroke:red;stroke-width:1px;stroke-linecap:butt;stroke-linejoin:miter;stroke-opacity:1" d="M 511.643,83.839 516.3,89.1616 z" id="boundary" inkscape:connector-curvature="0" />
	<path style="fill:none;stroke:red;stroke-width:1px;stroke-linecap:butt;stroke-linejoin:miter;stroke-opacity:1" d="M 513.639,719.89 516.966,713.237 z" id="boundary" inkscape:connector-curvature="0" />
	<path style="fill:none;stroke:red;stroke-width:1px;stroke-linecap:butt;stroke-linejoin:miter;stroke-opacity:1" d="M 516.3,89.1616 519.627,95.1496 z" id="boundary" inkscape:connector-curvature="0" />
	<path style="fill:none;stroke:red;stroke-width:1px;stroke-linecap:butt;stroke-linejoin:miter;stroke-opacity:1" d="M 516.966,713.237 522.288,708.579 z" id="boundary" inkscape:connector-curvature="0" />
	<path style="fill:none;stroke:red;stroke-width:1px;stroke-linecap:butt;stroke-linejoin:miter;stroke-opacity:1" d="M 519.627,95.1496 523.619,100.472 z" id="boundary" inkscape:connector-curvature="0" />
	<path style="fill:none;stroke:red;stroke-width:1px;stroke-linecap:butt;stroke-linejoin:miter;stroke-opacity:1" d="M 522.288,708.579 526.946,693.277 z" id="boundary" inkscape:connector-curvature="0" />
	<path style="fill:none;stroke:red;stroke-width:1px;stroke-linecap:butt;stroke-linejoin:miter;stroke-opacity:1" d="M 523.619,100.472 526.946,106.46 z" id="boundary" inkscape:connector-curvature="0" />
	<path style="fill:none;stroke:red;stroke-width:1px;stroke-linecap:butt;stroke-linejoin:miter;stroke-opacity:1" d="M 526.946,106.46 530.272,112.448 z" id="boundary" inkscape:connector-curvature="0" />
	<path style="fill:none;stroke:red;stroke-width:1px;stroke-linecap:butt;stroke-linejoin:miter;stroke-opacity:1" d="M 526.946,693.277 535.595,681.966 z" id="boundary" inkscape:connector-curvature="0" />
	<path style="fill:none;stroke:red;stroke-width:1px;stroke-linecap:butt;stroke-linejoin:miter;stroke-opacity:1" d="M 530.272,112.448 533.599,118.436 z" id="boundary" inkscape:connector-curvature="0" />
	<path style="fill:none;stroke:red;stroke-width:1px;stroke-linecap:butt;stroke-linejoin:miter;stroke-opacity:1" d="M 533.599,118.436 540.252,130.412 z" id="boundary" inkscape:connector-curvature="0" />
	<path style="fill:none;stroke:red;stroke-width:1px;stroke-linecap:butt;stroke-linejoin:miter;stroke-opacity:1" d="M 535.595,681.966 536.926,673.317 z" id="boundary" inkscape:connector-curvature="0" />
	<path style="fill:none;stroke:red;stroke-width:1px;stroke-linecap:butt;stroke-linejoin:miter;stroke-opacity:1" d="M 536.926,673.317 540.252,663.337 z" id="boundary" inkscape:connector-curvature="0" />
	<path style="fill:none;stroke:red;stroke-width:1px;stroke-linecap:butt;stroke-linejoin:miter;stroke-opacity:1" d="M 540.252,130.412 543.579,136.4 z" id="boundary" inkscape:connector-curvature="0" />
	<path style="fill:none;stroke:red;stroke-width:1px;stroke-linecap:butt;stroke-linejoin:miter;stroke-opacity:1" d="M 540.252,656.684 540.252,663.337 z" id="boundary" inkscape:connector-curvature="0" />
	<path style="fill:none;stroke:red;stroke-width:1px;stroke-linecap:butt;stroke-linejoin:miter;stroke-opacity:1" d="M 540.252,656.684 543.579,646.704 z" id="boundary" inkscape:connector-curvature="0" />
	<path style="fill:none;stroke:red;stroke-width:1px;stroke-linecap:butt;stroke-linejoin:miter;stroke-opacity:1" d="M 543.579,136.4 543.579,143.053 z" id="boundary" inkscape:connector-curvature="0" />
	<path style="fill:none;stroke:red;stroke-width:1px;stroke-linecap:butt;stroke-linejoin:miter;stroke-opacity:1" d="M 543.579,143.053 546.905,149.041 z" id="boundary" inkscape:connector-curvature="0" />
	<path style="fill:none;stroke:red;stroke-width:1px;stroke-linecap:butt;stroke-linejoin:miter;stroke-opacity:1" d="M 543.579,640.051 543.579,646.704 z" id="boundary" inkscape:connector-curvature="0" />
	<path style="fill:none;stroke:red;stroke-width:1px;stroke-linecap:butt;stroke-linejoin:miter;stroke-opacity:1" d="M 543.579,640.051 546.905,630.071 z" id="boundary" inkscape:connector-curvature="0" />
	<path style="fill:none;stroke:red;stroke-width:1px;stroke-linecap:butt;stroke-linejoin:miter;stroke-opacity:1" d="M 546.905,149.041 551.563,154.364 z" id="boundary" inkscape:connector-curvature="0" />
	<path style="fill:none;stroke:red;stroke-width:1px;stroke-linecap:butt;stroke-linejoin:miter;stroke-opacity:1" d="M 546.905,603.458 546.905,616.765 z" id="boundary" inkscape:connector-curvature="0" />
	<path style="fill:none;stroke:red;stroke-width:1px;stroke-linecap:butt;stroke-linejoin:miter;stroke-opacity:1" d="M 546.905,603.458 553.559,603.458 z" id="boundary" inkscape:connector-curvature="0" />
	<path style="fill:none;stroke:red;stroke-width:1px;stroke-linecap:butt;stroke-linejoin:miter;stroke-opacity:1" d="M 546.905,616.765 546.905,630.071 z" id="boundary" inkscape:connector-curvature="0" />
	<path style="fill:none;stroke:red;stroke-width:1px;stroke-linecap:butt;stroke-linejoin:miter;stroke-opacity:1" d="M 551.563,154.364 554.889,160.351 z" id="boundary" inkscape:connector-curvature="0" />
	<path style="fill:none;stroke:red;stroke-width:1px;stroke-linecap:butt;stroke-linejoin:miter;stroke-opacity:1" d="M 553.559,603.458 560.212,603.458 z" id="boundary" inkscape:connector-curvature="0" />
	<path style="fill:none;stroke:red;stroke-width:1px;stroke-linecap:butt;stroke-linejoin:miter;stroke-opacity:1" d="M 554.889,160.351 556.885,167.005 z" id="boundary" inkscape:connector-curvature="0" />
	<path style="fill:none;stroke:red;stroke-width:1px;stroke-linecap:butt;stroke-linejoin:miter;stroke-opacity:1" d="M 556.885,167.005 560.212,172.993 z" id="boundary" inkscape:connector-curvature="0" />
	<path style="fill:none;stroke:red;stroke-width:1px;stroke-linecap:butt;stroke-linejoin:miter;stroke-opacity:1" d="M 560.212,172.993 563.539,178.981 z" id="boundary" inkscape:connector-curvature="0" />
	<path style="fill:none;stroke:red;stroke-width:1px;stroke-linecap:butt;stroke-linejoin:miter;stroke-opacity:1" d="M 560.212,603.458 566.865,603.458 z" id="boundary" inkscape:connector-curvature="0" />
	<path style="fill:none;stroke:red;stroke-width:1px;stroke-linecap:butt;stroke-linejoin:miter;stroke-opacity:1" d="M 563.539,178.981 566.2,185.634 z" id="boundary" inkscape:connector-curvature="0" />
	<path style="fill:none;stroke:red;stroke-width:1px;stroke-linecap:butt;stroke-linejoin:miter;stroke-opacity:1" d="M 566.2,185.634 570.192,197.61 z" id="boundary" inkscape:connector-curvature="0" />
	<path style="fill:none;stroke:red;stroke-width:1px;stroke-linecap:butt;stroke-linejoin:miter;stroke-opacity:1" d="M 566.865,603.458 576.845,590.152 z" id="boundary" inkscape:connector-curvature="0" />
	<path style="fill:none;stroke:red;stroke-width:1px;stroke-linecap:butt;stroke-linejoin:miter;stroke-opacity:1" d="M 570.192,197.61 570.192,204.263 z" id="boundary" inkscape:connector-curvature="0" />
	<path style="fill:none;stroke:red;stroke-width:1px;stroke-linecap:butt;stroke-linejoin:miter;stroke-opacity:1" d="M 570.192,204.263 570.192,217.569 z" id="boundary" inkscape:connector-curvature="0" />
	<path style="fill:none;stroke:red;stroke-width:1px;stroke-linecap:butt;stroke-linejoin:miter;stroke-opacity:1" d="M 570.192,217.569 570.192,230.876 z" id="boundary" inkscape:connector-curvature="0" />
	<path style="fill:none;stroke:red;stroke-width:1px;stroke-linecap:butt;stroke-linejoin:miter;stroke-opacity:1" d="M 570.192,230.876 570.192,237.529 z" id="boundary" inkscape:connector-curvature="0" />
	<path style="fill:none;stroke:red;stroke-width:1px;stroke-linecap:butt;stroke-linejoin:miter;stroke-opacity:1" d="M 570.192,237.529 570.192,250.836 z" id="boundary" inkscape:connector-curvature="0" />
	<path style="fill:none;stroke:red;stroke-width:1px;stroke-linecap:butt;stroke-linejoin:miter;stroke-opacity:1" d="M 570.192,250.836 570.192,264.142 z" id="boundary" inkscape:connector-curvature="0" />
	<path style="fill:none;stroke:red;stroke-width:1px;stroke-linecap:butt;stroke-linejoin:miter;stroke-opacity:1" d="M 570.192,264.142 570.192,270.795 z" id="boundary" inkscape:connector-curvature="0" />
	<path style="fill:none;stroke:red;stroke-width:1px;stroke-linecap:butt;stroke-linejoin:miter;stroke-opacity:1" d="M 570.192,270.795 570.192,284.102 z" id="boundary" inkscape:connector-curvature="0" />
	<path style="fill:none;stroke:red;stroke-width:1px;stroke-linecap:butt;stroke-linejoin:miter;stroke-opacity:1" d="M 570.192,284.102 570.192,297.408 z" id="boundary" inkscape:connector-curvature="0" />
	<path style="fill:none;stroke:red;stroke-width:1px;stroke-linecap:butt;stroke-linejoin:miter;stroke-opacity:1" d="M 570.192,297.408 570.192,304.062 z" id="boundary" inkscape:connector-curvature="0" />
	<path style="fill:none;stroke:red;stroke-width:1px;stroke-linecap:butt;stroke-linejoin:miter;stroke-opacity:1" d="M 570.192,304.062 571.522,317.368 z" id="boundary" inkscape:connector-curvature="0" />
	<path style="fill:none;stroke:red;stroke-width:1px;stroke-linecap:butt;stroke-linejoin:miter;stroke-opacity:1" d="M 571.522,317.368 573.518,330.675 z" id="boundary" inkscape:connector-curvature="0" />
	<path style="fill:none;stroke:red;stroke-width:1px;stroke-linecap:butt;stroke-linejoin:miter;stroke-opacity:1" d="M 573.518,330.675 573.518,337.328 z" id="boundary" inkscape:connector-curvature="0" />
	<path style="fill:none;stroke:red;stroke-width:1px;stroke-linecap:butt;stroke-linejoin:miter;stroke-opacity:1" d="M 573.518,337.328 573.518,350.634 z" id="boundary" inkscape:connector-curvature="0" />
	<path style="fill:none;stroke:red;stroke-width:1px;stroke-linecap:butt;stroke-linejoin:miter;stroke-opacity:1" d="M 573.518,350.634 573.518,363.941 z" id="boundary" inkscape:connector-curvature="0" />
	<path style="fill:none;stroke:red;stroke-width:1px;stroke-linecap:butt;stroke-linejoin:miter;stroke-opacity:1" d="M 573.518,363.941 573.518,370.594 z" id="boundary" inkscape:connector-curvature="0" />
	<path style="fill:none;stroke:red;stroke-width:1px;stroke-linecap:butt;stroke-linejoin:miter;stroke-opacity:1" d="M 573.518,370.594 573.518,377.247 z" id="boundary" inkscape:connector-curvature="0" />
	<path style="fill:none;stroke:red;stroke-width:1px;stroke-linecap:butt;stroke-linejoin:miter;stroke-opacity:1" d="M 573.518,377.247 576.845,383.235 z" id="boundary" inkscape:connector-curvature="0" />
	<path style="fill:none;stroke:red;stroke-width:1px;stroke-linecap:butt;stroke-linejoin:miter;stroke-opacity:1" d="M 576.845,383.235 576.845,389.889 z" id="boundary" inkscape:connector-curvature="0" />
	<path style="fill:none;stroke:red;stroke-width:1px;stroke-linecap:butt;stroke-linejoin:miter;stroke-opacity:1" d="M 576.845,389.889 580.172,395.877 z" id="boundary" inkscape:connector-curvature="0" />
	<path style="fill:none;stroke:red;stroke-width:1px;stroke-linecap:butt;stroke-linejoin:miter;stroke-opacity:1" d="M 576.845,590.152 583.498,576.845 z" id="boundary" inkscape:connector-curvature="0" />
	<path style="fill:none;stroke:red;stroke-width:1px;stroke-linecap:butt;stroke-linejoin:miter;stroke-opacity:1" d="M 583.498,576.845 590.152,563.539 z" id="boundary" inkscape:connector-curvature="0" />
	<path style="fill:none;stroke:red;stroke-width:1px;stroke-linecap:butt;stroke-linejoin:miter;stroke-opacity:1" d="M 590.152,556.885 590.152,563.539 z" id="boundary" inkscape:connector-curvature="0" />
	<path style="fill:none;stroke:red;stroke-width:1px;stroke-linecap:butt;stroke-linejoin:miter;stroke-opacity:1" d="M 590.152,556.885 593.478,546.905 z" id="boundary" inkscape:connector-curvature="0" />
	<path style="fill:none;stroke:red;stroke-width:1px;stroke-linecap:butt;stroke-linejoin:miter;stroke-opacity:1" d="M 592.148,399.869 598.801,400.534 z" id="boundary" inkscape:connector-curvature="0" />
	<path style="fill:none;stroke:red;stroke-width:1px;stroke-linecap:butt;stroke-linejoin:miter;stroke-opacity:1" d="M 592.148,399.869 601.462,407.187 z" id="boundary" inkscape:connector-curvature="0" />
	<path style="fill:none;stroke:red;stroke-width:1px;stroke-linecap:butt;stroke-linejoin:miter;stroke-opacity:1" d="M 593.478,533.599 593.478,546.905 z" id="boundary" inkscape:connector-curvature="0" />
	<path style="fill:none;stroke:red;stroke-width:1px;stroke-linecap:butt;stroke-linejoin:miter;stroke-opacity:1" d="M 593.478,533.599 596.805,520.292 z" id="boundary" inkscape:connector-curvature="0" />
	<path style="fill:none;stroke:red;stroke-width:1px;stroke-linecap:butt;stroke-linejoin:miter;stroke-opacity:1" d="M 596.805,467.066 596.805,480.373 z" id="boundary" inkscape:connector-curvature="0" />
	<path style="fill:none;stroke:red;stroke-width:1px;stroke-linecap:butt;stroke-linejoin:miter;stroke-opacity:1" d="M 596.805,467.066 600.131,450.433 z" id="boundary" inkscape:connector-curvature="0" />
	<path style="fill:none;stroke:red;stroke-width:1px;stroke-linecap:butt;stroke-linejoin:miter;stroke-opacity:1" d="M 596.805,480.373 596.805,487.026 z" id="boundary" inkscape:connector-curvature="0" />
	<path style="fill:none;stroke:red;stroke-width:1px;stroke-linecap:butt;stroke-linejoin:miter;stroke-opacity:1" d="M 596.805,487.026 596.805,500.333 z" id="boundary" inkscape:connector-curvature="0" />
	<path style="fill:none;stroke:red;stroke-width:1px;stroke-linecap:butt;stroke-linejoin:miter;stroke-opacity:1" d="M 596.805,500.333 596.805,513.639 z" id="boundary" inkscape:connector-curvature="0" />
	<path style="fill:none;stroke:red;stroke-width:1px;stroke-linecap:butt;stroke-linejoin:miter;stroke-opacity:1" d="M 596.805,513.639 596.805,520.292 z" id="boundary" inkscape:connector-curvature="0" />
	<path style="fill:none;stroke:red;stroke-width:1px;stroke-linecap:butt;stroke-linejoin:miter;stroke-opacity:1" d="M 598.801,400.534 601.462,407.187 z" id="boundary" inkscape:connector-curvature="0" />
	<path style="fill:none;stroke:red;stroke-width:1px;stroke-linecap:butt;stroke-linejoin:miter;stroke-opacity:1" d="M 600.131,443.78 600.131,450.433 z" id="boundary" inkscape:connector-curvature="0" />
	<path style="fill:none;stroke:red;stroke-width:1px;stroke-linecap:butt;stroke-linejoin:miter;stroke-opacity:1" d="M 600.131,443.78 603.458,430.474 z" id="boundary" inkscape:connector-curvature="0" />
	<path style="fill:none;stroke:red;stroke-width:1px;stroke-linecap:butt;stroke-linejoin:miter;stroke-opacity:1" d="M 603.458,423.82 603.458,430.474 z" id="boundary" inkscape:connector-curvature="0" />
	<circle cx="4" cy="468.397" r="4" fill="#0" id="circle0"/>
	<circle cx="4" cy="475.05" r="4" fill="#0" id="circle1"/>
	<circle cx="4" cy="481.704" r="4" fill="#0" id="circle2"/>
	<circle cx="7.32663" cy="461.744" r="4" fill="#0" id="circle3"/>
	<circle cx="7.32663" cy="487.691" r="4" fill="#0" id="circle4"/>
	<circle cx="7.32663" cy="494.345" r="4" fill="#0" id="circle5"/>
	<circle cx="11.9839" cy="499.667" r="4" fill="#0" id="circle6"/>
	<circle cx="12.6492" cy="456.421" r="4" fill="#0" id="circle7"/>
	<circle cx="13.9799" cy="506.321" r="4" fill="#0" id="circle8"/>
	<circle cx="15.9759" cy="449.768" r="4" fill="#0" id="circle9"/>
	<circle cx="17.3065" cy="512.309" r="4" fill="#0" id="circle10"/>
	<circle cx="17.9718" cy="518.962" r="4" fill="#0" id="circle11"/>
	<circle cx="19.3025" cy="443.115" r="4" fill="#0" id="circle12"/>
	<circle cx="20.6331" cy="525.615" r="4" fill="#0" id="circle13"/>
	<circle cx="23.9598" cy="531.603" r="4" fill="#0" id="circle14"/>
	<circle cx="25.2904" cy="446.441" r="4" fill="#0" id="circle15"/>
	<circle cx="27.2864" cy="537.591" r="4" fill="#0" id="circle16"/>
	<circle cx="27.2864" cy="544.244" r="4" fill="#0" id="circle17"/>
	<circle cx="30.613" cy="550.232" r="4" fill="#0" id="circle18"/>
	<circle cx="31.2783" cy="449.768" r="4" fill="#0" id="circle19"/>
	<circle cx="33.9396" cy="278.779" r="4" fill="#0" id="circle20"/>
	<circle cx="33.9396" cy="285.433" r="4" fill="#0" id="circle21"/>
	<circle cx="33.9396" cy="292.086" r="4" fill="#0" id="circle22"/>
	<circle cx="33.9396" cy="298.739" r="4" fill="#0" id="circle23"/>
	<circle cx="33.9396" cy="305.392" r="4" fill="#0" id="circle24"/>
	<circle cx="33.9396" cy="312.046" r="4" fill="#0" id="circle25"/>
	<circle cx="33.9396" cy="318.699" r="4" fill="#0" id="circle26"/>
	<circle cx="33.9396" cy="325.352" r="4" fill="#0" id="circle27"/>
	<circle cx="33.9396" cy="332.005" r="4" fill="#0" id="circle28"/>
	<circle cx="33.9396" cy="338.659" r="4" fill="#0" id="circle29"/>
	<circle cx="33.9396" cy="345.312" r="4" fill="#0" id="circle30"/>
	<circle cx="33.9396" cy="351.965" r="4" fill="#0" id="circle31"/>
	<circle cx="33.9396" cy="358.618" r="4" fill="#0" id="circle32"/>
	<circle cx="33.9396" cy="365.272" r="4" fill="#0" id="circle33"/>
	<circle cx="33.9396" cy="371.925" r="4" fill="#0" id="circle34"/>
	<circle cx="33.9396" cy="378.578" r="4" fill="#0" id="circle35"/>
	<circle cx="33.9396" cy="385.231" r="4" fill="#0" id="circle36"/>
	<circle cx="33.9396" cy="391.885" r="4" fill="#0" id="circle37"/>
	<circle cx="33.9396" cy="556.22" r="4" fill="#0" id="circle38"/>
	<circle cx="35.2703" cy="562.873" r="4" fill="#0" id="circle39"/>
	<circle cx="37.2663" cy="268.799" r="4" fill="#0" id="circle40"/>
	<circle cx="37.2663" cy="397.873" r="4" fill="#0" id="circle41"/>
	<circle cx="37.2663" cy="404.526" r="4" fill="#0" id="circle42"/>
	<circle cx="37.2663" cy="411.179" r="4" fill="#0" id="circle43"/>
	<circle cx="37.2663" cy="569.526" r="4" fill="#0" id="circle44"/>
	<circle cx="37.9316" cy="451.764" r="4" fill="#0" id="circle45"/>
	<circle cx="38.5969" cy="576.18" r="4" fill="#0" id="circle46"/>
	<circle cx="40.5929" cy="248.84" r="4" fill="#0" id="circle47"/>
	<circle cx="40.5929" cy="255.493" r="4" fill="#0" id="circle48"/>
	<circle cx="40.5929" cy="262.146" r="4" fill="#0" id="circle49"/>
	<circle cx="40.5929" cy="417.167" r="4" fill="#0" id="circle50"/>
	<circle cx="40.5929" cy="423.82" r="4" fill="#0" id="circle51"/>
	<circle cx="40.5929" cy="582.833" r="4" fill="#0" id="circle52"/>
	<circle cx="42.5889" cy="430.474" r="4" fill="#0" id="circle53"/>
	<circle cx="43.9195" cy="232.207" r="4" fill="#0" id="circle54"/>
	<circle cx="43.9195" cy="238.86" r="4" fill="#0" id="circle55"/>
	<circle cx="43.9195" cy="455.091" r="4" fill="#0" id="circle56"/>
	<circle cx="43.9195" cy="588.821" r="4" fill="#0" id="circle57"/>
	<circle cx="45.9155" cy="436.461" r="4" fill="#0" id="circle58"/>
	<circle cx="47.2461" cy="212.247" r="4" fill="#0" id="circle59"/>
	<circle cx="47.2461" cy="218.9" r="4" fill="#0" id="circle60"/>
	<circle cx="47.2461" cy="225.553" r="4" fill="#0" id="circle61"/>
	<circle cx="47.2461" cy="594.809" r="4" fill="#0" id="circle62"/>
	<circle cx="48.5768" cy="443.115" r="4" fill="#0" id="circle63"/>
	<circle cx="50.5728" cy="198.94" r="4" fill="#0" id="circle64"/>
	<circle cx="50.5728" cy="205.594" r="4" fill="#0" id="circle65"/>
	<circle cx="50.5728" cy="456.421" r="4" fill="#0" id="circle66"/>
	<circle cx="51.2381" cy="600.131" r="4" fill="#0" id="circle67"/>
	<circle cx="51.9034" cy="449.103" r="4" fill="#0" id="circle68"/>
	<circle cx="53.8994" cy="178.981" r="4" fill="#0" id="circle69"/>
	<circle cx="53.8994" cy="185.634" r="4" fill="#0" id="circle70"/>
	<circle cx="53.8994" cy="192.287" r="4" fill="#0" id="circle71"/>
	<circle cx="53.8994" cy="606.785" r="4" fill="#0" id="circle72"/>
	<circle cx="57.226" cy="172.327" r="4" fill="#0" id="circle73"/>
	<circle cx="57.8913" cy="612.107" r="4" fill="#0" id="circle74"/>
	<circle cx="60.5526" cy="162.347" r="4" fill="#0" id="circle75"/>
	<circle cx="63.214" cy="616.765" r="4" fill="#0" id="circle76"/>
	<circle cx="63.8793" cy="152.368" r="4" fill="#0" id="circle77"/>
	<circle cx="65.8753" cy="623.418" r="4" fill="#0" id="circle78"/>
	<circle cx="69.2019" cy="147.045" r="4" fill="#0" id="circle79"/>
	<circle cx="70.5325" cy="139.061" r="4" fill="#0" id="circle80"/>
	<circle cx="71.1979" cy="628.075" r="4" fill="#0" id="circle81"/>
	<circle cx="75.8551" cy="133.738" r="4" fill="#0" id="circle82"/>
	<circle cx="75.8551" cy="633.398" r="4" fill="#0" id="circle83"/>
	<circle cx="79.1818" cy="127.085" r="4" fill="#0" id="circle84"/>
	<circle cx="82.5084" cy="120.432" r="4" fill="#0" id="circle85"/>
	<circle cx="82.5084" cy="636.059" r="4" fill="#0" id="circle86"/>
	<circle cx="87.831" cy="115.109" r="4" fill="#0" id="circle87"/>
	<circle cx="87.831" cy="640.051" r="4" fill="#0" id="circle88"/>
	<circle cx="93.1536" cy="110.452" r="4" fill="#0" id="circle89"/>
	<circle cx="93.8189" cy="643.378" r="4" fill="#0" id="circle90"/>
	<circle cx="93.8189" cy="650.031" r="4" fill="#0" id="circle91"/>
	<circle cx="93.8189" cy="656.684" r="4" fill="#0" id="circle92"/>
	<circle cx="93.8189" cy="663.337" r="4" fill="#0" id="circle93"/>
	<circle cx="93.8189" cy="669.991" r="4" fill="#0" id="circle94"/>
	<circle cx="93.8189" cy="676.644" r="4" fill="#0" id="circle95"/>
	<circle cx="93.8189" cy="683.297" r="4" fill="#0" id="circle96"/>
	<circle cx="93.8189" cy="689.95" r="4" fill="#0" id="circle97"/>
	<circle cx="93.8189" cy="696.604" r="4" fill="#0" id="circle98"/>
	<circle cx="95.8149" cy="103.799" r="4" fill="#0" id="circle99"/>
	<circle cx="95.8149" cy="703.257" r="4" fill="#0" id="circle100"/>
	<circle cx="97.1455" cy="709.91" r="4" fill="#0" id="circle101"/>
	<circle cx="101.137" cy="98.4762" r="4" fill="#0" id="circle102"/>
	<circle cx="101.137" cy="715.233" r="4" fill="#0" id="circle103"/>
	<circle cx="104.464" cy="91.8229" r="4" fill="#0" id="circle104"/>
	<circle cx="104.464" cy="721.221" r="4" fill="#0" id="circle105"/>
	<circle cx="107.125" cy="727.874" r="4" fill="#0" id="circle106"/>
	<circle cx="107.791" cy="85.1697" r="4" fill="#0" id="circle107"/>
	<circle cx="112.448" cy="732.531" r="4" fill="#0" id="circle108"/>
	<circle cx="113.113" cy="80.5124" r="4" fill="#0" id="circle109"/>
	<circle cx="115.109" cy="739.184" r="4" fill="#0" id="circle110"/>
	<circle cx="117.105" cy="72.5285" r="4" fill="#0" id="circle111"/>
	<circle cx="118.436" cy="745.172" r="4" fill="#0" id="circle112"/>
	<circle cx="122.428" cy="67.2059" r="4" fill="#0" id="circle113"/>
	<circle cx="123.759" cy="749.83" r="4" fill="#0" id="circle114"/>
	<circle cx="129.081" cy="63.8793" r="4" fill="#0" id="circle115"/>
	<circle cx="129.746" cy="753.156" r="4" fill="#0" id="circle116"/>
	<circle cx="132.408" cy="759.81" r="4" fill="#0" id="circle117"/>
	<circle cx="134.404" cy="58.5567" r="4" fill="#0" id="circle118"/>
	<circle cx="138.396" cy="763.136" r="4" fill="#0" id="circle119"/>
	<circle cx="139.726" cy="53.8994" r="4" fill="#0" id="circle120"/>
	<circle cx="140.392" cy="801.06" r="4" fill="#0" id="circle121"/>
	<circle cx="140.392" cy="807.713" r="4" fill="#0" id="circle122"/>
	<circle cx="140.392" cy="814.366" r="4" fill="#0" id="circle123"/>
	<circle cx="140.392" cy="821.019" r="4" fill="#0" id="circle124"/>
	<circle cx="140.392" cy="827.673" r="4" fill="#0" id="circle125"/>
	<circle cx="140.392" cy="834.326" r="4" fill="#0" id="circle126"/>
	<circle cx="140.392" cy="840.979" r="4" fill="#0" id="circle127"/>
	<circle cx="140.392" cy="847.632" r="4" fill="#0" id="circle128"/>
	<circle cx="143.718" cy="767.128" r="4" fill="#0" id="circle129"/>
	<circle cx="143.718" cy="784.427" r="4" fill="#0" id="circle130"/>
	<circle cx="143.718" cy="791.08" r="4" fill="#0" id="circle131"/>
	<circle cx="143.718" cy="853.62" r="4" fill="#0" id="circle132"/>
	<circle cx="145.714" cy="50.5728" r="4" fill="#0" id="circle133"/>
	<circle cx="147.045" cy="773.116" r="4" fill="#0" id="circle134"/>
	<circle cx="147.045" cy="859.608" r="4" fill="#0" id="circle135"/>
	<circle cx="149.041" cy="866.262" r="4" fill="#0" id="circle136"/>
	<circle cx="151.037" cy="45.2502" r="4" fill="#0" id="circle137"/>
	<circle cx="152.368" cy="872.249" r="4" fill="#0" id="circle138"/>
	<circle cx="156.359" cy="40.5929" r="4" fill="#0" id="circle139"/>
	<circle cx="157.025" cy="877.572" r="4" fill="#0" id="circle140"/>
	<circle cx="162.347" cy="37.2663" r="4" fill="#0" id="circle141"/>
	<circle cx="162.347" cy="882.229" r="4" fill="#0" id="circle142"/>
	<circle cx="167.005" cy="887.552" r="4" fill="#0" id="circle143"/>
	<circle cx="168.335" cy="33.9396" r="4" fill="#0" id="circle144"/>
	<circle cx="172.327" cy="892.209" r="4" fill="#0" id="circle145"/>
	<circle cx="173.658" cy="29.2824" r="4" fill="#0" id="circle146"/>
	<circle cx="176.985" cy="897.532" r="4" fill="#0" id="circle147"/>
	<circle cx="180.311" cy="27.2864" r="4" fill="#0" id="circle148"/>
	<circle cx="182.307" cy="902.189" r="4" fill="#0" id="circle149"/>
	<circle cx="186.299" cy="23.9598" r="4" fill="#0" id="circle150"/>
	<circle cx="186.964" cy="907.512" r="4" fill="#0" id="circle151"/>
	<circle cx="192.287" cy="20.6331" r="4" fill="#0" id="circle152"/>
	<circle cx="192.287" cy="912.169" r="4" fill="#0" id="circle153"/>
	<circle cx="196.944" cy="917.492" r="4" fill="#0" id="circle154"/>
	<circle cx="198.94" cy="17.3065" r="4" fill="#0" id="circle155"/>
	<circle cx="202.267" cy="922.149" r="4" fill="#0" id="circle156"/>
	<circle cx="204.928" cy="13.9799" r="4" fill="#0" id="circle157"/>
	<circle cx="207.59" cy="926.141" r="4" fill="#0" id="circle158"/>
	<circle cx="210.916" cy="10.6533" r="4" fill="#0" id="circle159"/>
	<circle cx="213.577" cy="929.467" r="4" fill="#0" id="circle160"/>
	<circle cx="217.569" cy="10.6533" r="4" fill="#0" id="circle161"/>
	<circle cx="217.569" cy="934.79" r="4" fill="#0" id="circle162"/>
	<circle cx="222.892" cy="939.447" r="4" fill="#0" id="circle163"/>
	<circle cx="223.557" cy="7.32663" r="4" fill="#0" id="circle164"/>
	<circle cx="227.549" cy="944.77" r="4" fill="#0" id="circle165"/>
	<circle cx="230.211" cy="7.32663" r="4" fill="#0" id="circle166"/>
	<circle cx="232.872" cy="949.427" r="4" fill="#0" id="circle167"/>
	<circle cx="236.864" cy="7.32663" r="4" fill="#0" id="circle168"/>
	<circle cx="238.86" cy="952.754" r="4" fill="#0" id="circle169"/>
	<circle cx="243.517" cy="7.32663" r="4" fill="#0" id="circle170"/>
	<circle cx="245.513" cy="955.415" r="4" fill="#0" id="circle171"/>
	<circle cx="250.17" cy="7.32663" r="4" fill="#0" id="circle172"/>
	<circle cx="250.17" cy="960.738" r="4" fill="#0" id="circle173"/>
	<circle cx="255.493" cy="965.395" r="4" fill="#0" id="circle174"/>
	<circle cx="256.824" cy="7.32663" r="4" fill="#0" id="circle175"/>
	<circle cx="261.481" cy="968.722" r="4" fill="#0" id="circle176"/>
	<circle cx="263.477" cy="7.32663" r="4" fill="#0" id="circle177"/>
	<circle cx="266.803" cy="972.714" r="4" fill="#0" id="circle178"/>
	<circle cx="270.13" cy="7.32663" r="4" fill="#0" id="circle179"/>
	<circle cx="272.791" cy="976.04" r="4" fill="#0" id="circle180"/>
	<circle cx="276.783" cy="5.99598" r="4" fill="#0" id="circle181"/>
	<circle cx="277.449" cy="981.363" r="4" fill="#0" id="circle182"/>
	<circle cx="283.437" cy="4" r="4" fill="#0" id="circle183"/>
	<circle cx="284.102" cy="982.693" r="4" fill="#0" id="circle184"/>
	<circle cx="290.09" cy="4" r="4" fill="#0" id="circle185"/>
	<circle cx="290.09" cy="986.02" r="4" fill="#0" id="circle186"/>
	<circle cx="294.082" cy="991.343" r="4" fill="#0" id="circle187"/>
	<circle cx="296.743" cy="4" r="4" fill="#0" id="circle188"/>
	<circle cx="300.735" cy="994.004" r="4" fill="#0" id="circle189"/>
	<circle cx="303.396" cy="4" r="4" fill="#0" id="circle190"/>
	<circle cx="307.388" cy="996" r="4" fill="#0" id="circle191"/>
	<circle cx="310.05" cy="5.33065" r="4" fill="#0" id="circle192"/>
	<circle cx="314.042" cy="996" r="4" fill="#0" id="circle193"/>
	<circle cx="316.703" cy="7.32663" r="4" fill="#0" id="circle194"/>
	<circle cx="320.695" cy="996" r="4" fill="#0" id="circle195"/>
	<circle cx="323.356" cy="7.32663" r="4" fill="#0" id="circle196"/>
	<circle cx="326.683" cy="992.673" r="4" fill="#0" id="circle197"/>
	<circle cx="330.009" cy="8.65728" r="4" fill="#0" id="circle198"/>
	<circle cx="333.336" cy="990.677" r="4" fill="#0" id="circle199"/>
	<circle cx="336.663" cy="10.6533" r="4" fill="#0" id="circle200"/>
	<circle cx="339.989" cy="989.347" r="4" fill="#0" id="circle201"/>
	<circle cx="343.316" cy="11.9839" r="4" fill="#0" id="circle202"/>
	<circle cx="346.643" cy="987.351" r="4" fill="#0" id="circle203"/>
	<circle cx="349.969" cy="13.9799" r="4" fill="#0" id="circle204"/>
	<circle cx="351.965" cy="982.693" r="4" fill="#0" id="circle205"/>
	<circle cx="356.622" cy="15.3105" r="4" fill="#0" id="circle206"/>
	<circle cx="358.618" cy="982.028" r="4" fill="#0" id="circle207"/>
	<circle cx="362.61" cy="18.6372" r="4" fill="#0" id="circle208"/>
	<circle cx="365.272" cy="978.702" r="4" fill="#0" id="circle209"/>
	<circle cx="367.268" cy="23.9598" r="4" fill="#0" id="circle210"/>
	<circle cx="371.925" cy="976.04" r="4" fill="#0" id="circle211"/>
	<circle cx="373.921" cy="25.9557" r="4" fill="#0" id="circle212"/>
	<circle cx="377.913" cy="972.714" r="4" fill="#0" id="circle213"/>
	<circle cx="379.243" cy="30.613" r="4" fill="#0" id="circle214"/>
	<circle cx="383.901" cy="969.387" r="4" fill="#0" id="circle215"/>
	<circle cx="385.231" cy="33.9396" r="4" fill="#0" id="circle216"/>
	<circle cx="389.223" cy="964.73" r="4" fill="#0" id="circle217"/>
	<circle cx="389.889" cy="39.2622" r="4" fill="#0" id="circle218"/>
	<circle cx="393.881" cy="44.5848" r="4" fill="#0" id="circle219"/>
	<circle cx="393.881" cy="959.407" r="4" fill="#0" id="circle220"/>
	<circle cx="397.207" cy="50.5728" r="4" fill="#0" id="circle221"/>
	<circle cx="400.534" cy="956.08" r="4" fill="#0" id="circle222"/>
	<circle cx="403.86" cy="50.5728" r="4" fill="#0" id="circle223"/>
	<circle cx="407.187" cy="952.754" r="4" fill="#0" id="circle224"/>
	<circle cx="409.848" cy="47.2461" r="4" fill="#0" id="circle225"/>
	<circle cx="413.84" cy="949.427" r="4" fill="#0" id="circle226"/>
	<circle cx="415.836" cy="43.9195" r="4" fill="#0" id="circle227"/>
	<circle cx="419.163" cy="944.77" r="4" fill="#0" id="circle228"/>
	<circle cx="422.49" cy="43.9195" r="4" fill="#0" id="circle229"/>
	<circle cx="423.155" cy="939.447" r="4" fill="#0" id="circle230"/>
	<circle cx="429.143" cy="43.9195" r="4" fill="#0" id="circle231"/>
	<circle cx="429.143" cy="936.121" r="4" fill="#0" id="circle232"/>
	<circle cx="433.8" cy="929.467" r="4" fill="#0" id="circle233"/>
	<circle cx="435.796" cy="43.9195" r="4" fill="#0" id="circle234"/>
	<circle cx="439.123" cy="924.81" r="4" fill="#0" id="circle235"/>
	<circle cx="442.449" cy="43.9195" r="4" fill="#0" id="circle236"/>
	<circle cx="443.78" cy="919.488" r="4" fill="#0" id="circle237"/>
	<circle cx="448.437" cy="47.2461" r="4" fill="#0" id="circle238"/>
	<circle cx="449.103" cy="914.83" r="4" fill="#0" id="circle239"/>
	<circle cx="452.429" cy="908.177" r="4" fill="#0" id="circle240"/>
	<circle cx="455.091" cy="47.2461" r="4" fill="#0" id="circle241"/>
	<circle cx="457.087" cy="902.854" r="4" fill="#0" id="circle242"/>
	<circle cx="460.413" cy="896.201" r="4" fill="#0" id="circle243"/>
	<circle cx="461.078" cy="50.5728" r="4" fill="#0" id="circle244"/>
	<circle cx="465.736" cy="891.544" r="4" fill="#0" id="circle245"/>
	<circle cx="467.066" cy="53.8994" r="4" fill="#0" id="circle246"/>
	<circle cx="470.393" cy="882.895" r="4" fill="#0" id="circle247"/>
	<circle cx="472.389" cy="57.8913" r="4" fill="#0" id="circle248"/>
	<circle cx="475.716" cy="878.237" r="4" fill="#0" id="circle249"/>
	<circle cx="477.046" cy="63.214" r="4" fill="#0" id="circle250"/>
	<circle cx="479.042" cy="871.584" r="4" fill="#0" id="circle251"/>
	<circle cx="483.7" cy="63.8793" r="4" fill="#0" id="circle252"/>
	<circle cx="483.7" cy="862.935" r="4" fill="#0" id="circle253"/>
	<circle cx="487.026" cy="856.282" r="4" fill="#0" id="circle254"/>
	<circle cx="489.687" cy="67.2059" r="4" fill="#0" id="circle255"/>
	<circle cx="492.349" cy="851.624" r="4" fill="#0" id="circle256"/>
	<circle cx="495.01" cy="71.1979" r="4" fill="#0" id="circle257"/>
	<circle cx="495.675" cy="844.971" r="4" fill="#0" id="circle258"/>
	<circle cx="497.006" cy="832.995" r="4" fill="#0" id="circle259"/>
	<circle cx="500.333" cy="75.8551" r="4" fill="#0" id="circle260"/>
	<circle cx="502.329" cy="828.338" r="4" fill="#0" id="circle261"/>
	<circle cx="503.659" cy="819.689" r="4" fill="#0" id="circle262"/>
	<circle cx="504.99" cy="81.1777" r="4" fill="#0" id="circle263"/>
	<circle cx="506.986" cy="806.382" r="4" fill="#0" id="circle264"/>
	<circle cx="506.986" cy="813.036" r="4" fill="#0" id="circle265"/>
	<circle cx="510.313" cy="729.87" r="4" fill="#0" id="circle266"/>
	<circle cx="510.313" cy="736.523" r="4" fill="#0" id="circle267"/>
	<circle cx="510.313" cy="743.176" r="4" fill="#0" id="circle268"/>
	<circle cx="510.313" cy="749.83" r="4" fill="#0" id="circle269"/>
	<circle cx="510.313" cy="756.483" r="4" fill="#0" id="circle270"/>
	<circle cx="510.313" cy="763.136" r="4" fill="#0" id="circle271"/>
	<circle cx="510.313" cy="769.789" r="4" fill="#0" id="circle272"/>
	<circle cx="510.313" cy="776.443" r="4" fill="#0" id="circle273"/>
	<circle cx="510.313" cy="783.096" r="4" fill="#0" id="circle274"/>
	<circle cx="510.313" cy="789.749" r="4" fill="#0" id="circle275"/>
	<circle cx="510.313" cy="796.402" r="4" fill="#0" id="circle276"/>
	<circle cx="511.643" cy="83.839" r="4" fill="#0" id="circle277"/>
	<circle cx="513.639" cy="719.89" r="4" fill="#0" id="circle278"/>
	<circle cx="516.3" cy="89.1616" r="4" fill="#0" id="circle279"/>
	<circle cx="516.966" cy="713.237" r="4" fill="#0" id="circle280"/>
	<circle cx="519.627" cy="95.1496" r="4" fill="#0" id="circle281"/>
	<circle cx="522.288" cy="708.579" r="4" fill="#0" id="circle282"/>
	<circle cx="523.619" cy="100.472" r="4" fill="#0" id="circle283"/>
	<circle cx="525.615" cy="701.926" r="4" fill="#0" id="circle284"/>
	<circle cx="526.946" cy="106.46" r="4" fill="#0" id="circle285"/>
	<circle cx="526.946" cy="693.277" r="4" fill="#0" id="circle286"/>
	<circle cx="530.272" cy="112.448" r="4" fill="#0" id="circle287"/>
	<circle cx="532.268" cy="688.62" r="4" fill="#0" id="circle288"/>
	<circle cx="533.599" cy="118.436" r="4" fill="#0" id="circle289"/>
	<circle cx="535.595" cy="681.966" r="4" fill="#0" id="circle290"/>
	<circle cx="536.926" cy="673.317" r="4" fill="#0" id="circle291"/>
	<circle cx="537.591" cy="123.759" r="4" fill="#0" id="circle292"/>
	<circle cx="540.252" cy="130.412" r="4" fill="#0" id="circle293"/>
	<circle cx="540.252" cy="656.684" r="4" fill="#0" id="circle294"/>
	<circle cx="540.252" cy="663.337" r="4" fill="#0" id="circle295"/>
	<circle cx="543.579" cy="136.4" r="4" fill="#0" id="circle296"/>
	<circle cx="543.579" cy="143.053" r="4" fill="#0" id="circle297"/>
	<circle cx="543.579" cy="640.051" r="4" fill="#0" id="circle298"/>
	<circle cx="543.579" cy="646.704" r="4" fill="#0" id="circle299"/>
	<circle cx="546.905" cy="149.041" r="4" fill="#0" id="circle300"/>
	<circle cx="546.905" cy="603.458" r="4" fill="#0" id="circle301"/>
	<circle cx="546.905" cy="610.111" r="4" fill="#0" id="circle302"/>
	<circle cx="546.905" cy="616.765" r="4" fill="#0" id="circle303"/>
	<circle cx="546.905" cy="623.418" r="4" fill="#0" id="circle304"/>
	<circle cx="546.905" cy="630.071" r="4" fill="#0" id="circle305"/>
	<circle cx="551.563" cy="154.364" r="4" fill="#0" id="circle306"/>
	<circle cx="553.559" cy="603.458" r="4" fill="#0" id="circle307"/>
	<circle cx="554.889" cy="160.351" r="4" fill="#0" id="circle308"/>
	<circle cx="556.885" cy="167.005" r="4" fill="#0" id="circle309"/>
	<circle cx="560.212" cy="172.993" r="4" fill="#0" id="circle310"/>
	<circle cx="560.212" cy="603.458" r="4" fill="#0" id="circle311"/>
	<circle cx="563.539" cy="178.981" r="4" fill="#0" id="circle312"/>
	<circle cx="566.2" cy="185.634" r="4" fill="#0" id="circle313"/>
	<circle cx="566.865" cy="603.458" r="4" fill="#0" id="circle314"/>
	<circle cx="570.192" cy="190.956" r="4" fill="#0" id="circle315"/>
	<circle cx="570.192" cy="197.61" r="4" fill="#0" id="circle316"/>
	<circle cx="570.192" cy="204.263" r="4" fill="#0" id="circle317"/>
	<circle cx="570.192" cy="210.916" r="4" fill="#0" id="circle318"/>
	<circle cx="570.192" cy="217.569" r="4" fill="#0" id="circle319"/>
	<circle cx="570.192" cy="224.223" r="4" fill="#0" id="circle320"/>
	<circle cx="570.192" cy="230.876" r="4" fill="#0" id="circle321"/>
	<circle cx="570.192" cy="237.529" r="4" fill="#0" id="circle322"/>
	<circle cx="570.192" cy="244.182" r="4" fill="#0" id="circle323"/>
	<circle cx="570.192" cy="250.836" r="4" fill="#0" id="circle324"/>
	<circle cx="570.192" cy="257.489" r="4" fill="#0" id="circle325"/>
	<circle cx="570.192" cy="264.142" r="4" fill="#0" id="circle326"/>
	<circle cx="570.192" cy="270.795" r="4" fill="#0" id="circle327"/>
	<circle cx="570.192" cy="277.449" r="4" fill="#0" id="circle328"/>
	<circle cx="570.192" cy="284.102" r="4" fill="#0" id="circle329"/>
	<circle cx="570.192" cy="290.755" r="4" fill="#0" id="circle330"/>
	<circle cx="570.192" cy="297.408" r="4" fill="#0" id="circle331"/>
	<circle cx="570.192" cy="304.062" r="4" fill="#0" id="circle332"/>
	<circle cx="570.192" cy="310.715" r="4" fill="#0" id="circle333"/>
	<circle cx="570.192" cy="596.805" r="4" fill="#0" id="circle334"/>
	<circle cx="571.522" cy="317.368" r="4" fill="#0" id="circle335"/>
	<circle cx="573.518" cy="324.021" r="4" fill="#0" id="circle336"/>
	<circle cx="573.518" cy="330.675" r="4" fill="#0" id="circle337"/>
	<circle cx="573.518" cy="337.328" r="4" fill="#0" id="circle338"/>
	<circle cx="573.518" cy="343.981" r="4" fill="#0" id="circle339"/>
	<circle cx="573.518" cy="350.634" r="4" fill="#0" id="circle340"/>
	<circle cx="573.518" cy="357.288" r="4" fill="#0" id="circle341"/>
	<circle cx="573.518" cy="363.941" r="4" fill="#0" id="circle342"/>
	<circle cx="573.518" cy="370.594" r="4" fill="#0" id="circle343"/>
	<circle cx="573.518" cy="377.247" r="4" fill="#0" id="circle344"/>
	<circle cx="576.845" cy="383.235" r="4" fill="#0" id="circle345"/>
	<circle cx="576.845" cy="389.889" r="4" fill="#0" id="circle346"/>
	<circle cx="576.845" cy="590.152" r="4" fill="#0" id="circle347"/>
	<circle cx="580.172" cy="395.877" r="4" fill="#0" id="circle348"/>
	<circle cx="580.172" cy="583.498" r="4" fill="#0" id="circle349"/>
	<circle cx="583.498" cy="576.845" r="4" fill="#0" id="circle350"/>
	<circle cx="585.494" cy="399.869" r="4" fill="#0" id="circle351"/>
	<circle cx="588.821" cy="572.188" r="4" fill="#0" id="circle352"/>
	<circle cx="590.152" cy="556.885" r="4" fill="#0" id="circle353"/>
	<circle cx="590.152" cy="563.539" r="4" fill="#0" id="circle354"/>
	<circle cx="592.148" cy="399.869" r="4" fill="#0" id="circle355"/>
	<circle cx="593.478" cy="533.599" r="4" fill="#0" id="circle356"/>
	<circle cx="593.478" cy="540.252" r="4" fill="#0" id="circle357"/>
	<circle cx="593.478" cy="546.905" r="4" fill="#0" id="circle358"/>
	<circle cx="596.805" cy="467.066" r="4" fill="#0" id="circle359"/>
	<circle cx="596.805" cy="473.72" r="4" fill="#0" id="circle360"/>
	<circle cx="596.805" cy="480.373" r="4" fill="#0" id="circle361"/>
	<circle cx="596.805" cy="487.026" r="4" fill="#0" id="circle362"/>
	<circle cx="596.805" cy="493.679" r="4" fill="#0" id="circle363"/>
	<circle cx="596.805" cy="500.333" r="4" fill="#0" id="circle364"/>
	<circle cx="596.805" cy="506.986" r="4" fill="#0" id="circle365"/>
	<circle cx="596.805" cy="513.639" r="4" fill="#0" id="circle366"/>
	<circle cx="596.805" cy="520.292" r="4" fill="#0" id="circle367"/>
	<circle cx="596.805" cy="526.946" r="4" fill="#0" id="circle368"/>
	<circle cx="598.801" cy="400.534" r="4" fill="#0" id="circle369"/>
	<circle cx="600.131" cy="443.78" r="4" fill="#0" id="circle370"/>
	<circle cx="600.131" cy="450.433" r="4" fill="#0" id="circle371"/>
	<circle cx="600.131" cy="457.087" r="4" fill="#0" id="circle372"/>
	<circle cx="601.462" cy="407.187" r="4" fill="#0" id="circle373"/>
	<circle cx="603.458" cy="423.82" r="4" fill="#0" id="circle374"/>
	<circle cx="603.458" cy="430.474" r="4" fill="#0" id="circle375"/>
	<circle cx="603.458" cy="437.127" r="4" fill="#0" id="circle376"/>
	<circle cx="606.785" cy="411.844" r="4" fill="#0" id="circle377"/>
	</g>
</svg>