<?xml version="1.0" encoding="UTF-8" standalone="no"?>
<!-- Created with CurveBenchmark -->
<svg
	xmlns:dc="http://purl.org/dc/elements/1.1/"
	xmlns:cc="http://creativecommons.org/ns#"
	xmlns:rdf="http://www.w3.org/1999/02/22-rdf-syntax-ns#"
	xmlns:svg="http://www.w3.org/2000/svg"
	xmlns="http://www.w3.org/2000/svg"
	xmlns:sodipodi="http://sodipodi.sourceforge.net/DTD/sodipodi-0.dtd"
	xmlns:inkscape="http://www.inkscape.org/namespaces/inkscape"
	width="1000"
	height="1000"
	id="svg2"
	version="1.1"
	sodipodi:docname="manifold/discur-bird285.png.txt">
<defs
	id="defs4" />
<metadata
	id="metadata7">
	<rdf:RDF>
		<cc:Work
			rdf:about="">
			<dc:format>image/svg+xml</dc:format>
			<dc:type
				rdf:resource="http://purl.org/dc/dcmitype/StillImage" />
			<dc:title></dc:title>
		</cc:Work>
	</rdf:RDF>
</metadata>
<g
	inkscape:label="Layer 1"
	inkscape:groupmode="layer"
	id="layer1">
	<path style="fill:none;stroke:red;stroke-width:1px;stroke-linecap:butt;stroke-linejoin:miter;stroke-opacity:1" d="M 4,299.655 11.7804,245.192 z" id="boundary" inkscape:connector-curvature="0" />
	<path style="fill:none;stroke:red;stroke-width:1px;stroke-linecap:butt;stroke-linejoin:miter;stroke-opacity:1" d="M 4,299.655 11.7804,338.557 z" id="boundary" inkscape:connector-curvature="0" />
	<path style="fill:none;stroke:red;stroke-width:1px;stroke-linecap:butt;stroke-linejoin:miter;stroke-opacity:1" d="M 11.7804,245.192 19.5608,190.729 z" id="boundary" inkscape:connector-curvature="0" />
	<path style="fill:none;stroke:red;stroke-width:1px;stroke-linecap:butt;stroke-linejoin:miter;stroke-opacity:1" d="M 11.7804,338.557 19.5608,385.239 z" id="boundary" inkscape:connector-curvature="0" />
	<path style="fill:none;stroke:red;stroke-width:1px;stroke-linecap:butt;stroke-linejoin:miter;stroke-opacity:1" d="M 19.5608,190.729 27.3412,144.047 z" id="boundary" inkscape:connector-curvature="0" />
	<path style="fill:none;stroke:red;stroke-width:1px;stroke-linecap:butt;stroke-linejoin:miter;stroke-opacity:1" d="M 19.5608,385.239 31.2314,424.141 z" id="boundary" inkscape:connector-curvature="0" />
	<path style="fill:none;stroke:red;stroke-width:1px;stroke-linecap:butt;stroke-linejoin:miter;stroke-opacity:1" d="M 27.3412,144.047 42.902,89.5843 z" id="boundary" inkscape:connector-curvature="0" />
	<path style="fill:none;stroke:red;stroke-width:1px;stroke-linecap:butt;stroke-linejoin:miter;stroke-opacity:1" d="M 31.2314,424.141 70.1333,435.812 z" id="boundary" inkscape:connector-curvature="0" />
	<path style="fill:none;stroke:red;stroke-width:1px;stroke-linecap:butt;stroke-linejoin:miter;stroke-opacity:1" d="M 42.902,89.5843 66.2431,58.4627 z" id="boundary" inkscape:connector-curvature="0" />
	<path style="fill:none;stroke:red;stroke-width:1px;stroke-linecap:butt;stroke-linejoin:miter;stroke-opacity:1" d="M 66.2431,58.4627 97.3647,27.3412 z" id="boundary" inkscape:connector-curvature="0" />
	<path style="fill:none;stroke:red;stroke-width:1px;stroke-linecap:butt;stroke-linejoin:miter;stroke-opacity:1" d="M 70.1333,435.812 81.8039,474.714 z" id="boundary" inkscape:connector-curvature="0" />
	<path style="fill:none;stroke:red;stroke-width:1px;stroke-linecap:butt;stroke-linejoin:miter;stroke-opacity:1" d="M 81.8039,474.714 81.8039,513.616 z" id="boundary" inkscape:connector-curvature="0" />
	<path style="fill:none;stroke:red;stroke-width:1px;stroke-linecap:butt;stroke-linejoin:miter;stroke-opacity:1" d="M 81.8039,513.616 89.5843,552.518 z" id="boundary" inkscape:connector-curvature="0" />
	<path style="fill:none;stroke:red;stroke-width:1px;stroke-linecap:butt;stroke-linejoin:miter;stroke-opacity:1" d="M 89.5843,552.518 89.5843,591.42 z" id="boundary" inkscape:connector-curvature="0" />
	<path style="fill:none;stroke:red;stroke-width:1px;stroke-linecap:butt;stroke-linejoin:miter;stroke-opacity:1" d="M 89.5843,591.42 89.5843,630.322 z" id="boundary" inkscape:connector-curvature="0" />
	<path style="fill:none;stroke:red;stroke-width:1px;stroke-linecap:butt;stroke-linejoin:miter;stroke-opacity:1" d="M 89.5843,630.322 89.5843,669.224 z" id="boundary" inkscape:connector-curvature="0" />
	<path style="fill:none;stroke:red;stroke-width:1px;stroke-linecap:butt;stroke-linejoin:miter;stroke-opacity:1" d="M 89.5843,669.224 97.3647,708.125 z" id="boundary" inkscape:connector-curvature="0" />
	<path style="fill:none;stroke:red;stroke-width:1px;stroke-linecap:butt;stroke-linejoin:miter;stroke-opacity:1" d="M 97.3647,27.3412 136.267,11.7804 z" id="boundary" inkscape:connector-curvature="0" />
	<path style="fill:none;stroke:red;stroke-width:1px;stroke-linecap:butt;stroke-linejoin:miter;stroke-opacity:1" d="M 97.3647,708.125 97.3647,747.027 z" id="boundary" inkscape:connector-curvature="0" />
	<path style="fill:none;stroke:red;stroke-width:1px;stroke-linecap:butt;stroke-linejoin:miter;stroke-opacity:1" d="M 97.3647,747.027 97.3647,785.929 z" id="boundary" inkscape:connector-curvature="0" />
	<path style="fill:none;stroke:red;stroke-width:1px;stroke-linecap:butt;stroke-linejoin:miter;stroke-opacity:1" d="M 97.3647,785.929 97.3647,824.831 z" id="boundary" inkscape:connector-curvature="0" />
	<path style="fill:none;stroke:red;stroke-width:1px;stroke-linecap:butt;stroke-linejoin:miter;stroke-opacity:1" d="M 97.3647,824.831 97.3647,863.733 z" id="boundary" inkscape:connector-curvature="0" />
	<path style="fill:none;stroke:red;stroke-width:1px;stroke-linecap:butt;stroke-linejoin:miter;stroke-opacity:1" d="M 97.3647,863.733 97.3647,902.635 z" id="boundary" inkscape:connector-curvature="0" />
	<path style="fill:none;stroke:red;stroke-width:1px;stroke-linecap:butt;stroke-linejoin:miter;stroke-opacity:1" d="M 97.3647,902.635 97.3647,941.537 z" id="boundary" inkscape:connector-curvature="0" />
	<path style="fill:none;stroke:red;stroke-width:1px;stroke-linecap:butt;stroke-linejoin:miter;stroke-opacity:1" d="M 97.3647,941.537 97.3647,980.439 z" id="boundary" inkscape:connector-curvature="0" />
	<path style="fill:none;stroke:red;stroke-width:1px;stroke-linecap:butt;stroke-linejoin:miter;stroke-opacity:1" d="M 97.3647,980.439 136.267,996 z" id="boundary" inkscape:connector-curvature="0" />
	<path style="fill:none;stroke:red;stroke-width:1px;stroke-linecap:butt;stroke-linejoin:miter;stroke-opacity:1" d="M 136.267,11.7804 175.169,4 z" id="boundary" inkscape:connector-curvature="0" />
	<path style="fill:none;stroke:red;stroke-width:1px;stroke-linecap:butt;stroke-linejoin:miter;stroke-opacity:1" d="M 136.267,996 151.827,953.208 z" id="boundary" inkscape:connector-curvature="0" />
	<path style="fill:none;stroke:red;stroke-width:1px;stroke-linecap:butt;stroke-linejoin:miter;stroke-opacity:1" d="M 140.157,447.482 140.157,486.384 z" id="boundary" inkscape:connector-curvature="0" />
	<path style="fill:none;stroke:red;stroke-width:1px;stroke-linecap:butt;stroke-linejoin:miter;stroke-opacity:1" d="M 140.157,447.482 159.608,412.471 z" id="boundary" inkscape:connector-curvature="0" />
	<path style="fill:none;stroke:red;stroke-width:1px;stroke-linecap:butt;stroke-linejoin:miter;stroke-opacity:1" d="M 140.157,486.384 140.157,525.286 z" id="boundary" inkscape:connector-curvature="0" />
	<path style="fill:none;stroke:red;stroke-width:1px;stroke-linecap:butt;stroke-linejoin:miter;stroke-opacity:1" d="M 140.157,525.286 140.157,564.188 z" id="boundary" inkscape:connector-curvature="0" />
	<path style="fill:none;stroke:red;stroke-width:1px;stroke-linecap:butt;stroke-linejoin:miter;stroke-opacity:1" d="M 140.157,564.188 140.157,603.09 z" id="boundary" inkscape:connector-curvature="0" />
	<path style="fill:none;stroke:red;stroke-width:1px;stroke-linecap:butt;stroke-linejoin:miter;stroke-opacity:1" d="M 140.157,603.09 140.157,641.992 z" id="boundary" inkscape:connector-curvature="0" />
	<path style="fill:none;stroke:red;stroke-width:1px;stroke-linecap:butt;stroke-linejoin:miter;stroke-opacity:1" d="M 140.157,641.992 140.157,680.894 z" id="boundary" inkscape:connector-curvature="0" />
	<path style="fill:none;stroke:red;stroke-width:1px;stroke-linecap:butt;stroke-linejoin:miter;stroke-opacity:1" d="M 140.157,680.894 140.157,719.796 z" id="boundary" inkscape:connector-curvature="0" />
	<path style="fill:none;stroke:red;stroke-width:1px;stroke-linecap:butt;stroke-linejoin:miter;stroke-opacity:1" d="M 140.157,719.796 140.157,758.698 z" id="boundary" inkscape:connector-curvature="0" />
	<path style="fill:none;stroke:red;stroke-width:1px;stroke-linecap:butt;stroke-linejoin:miter;stroke-opacity:1" d="M 140.157,758.698 140.157,797.6 z" id="boundary" inkscape:connector-curvature="0" />
	<path style="fill:none;stroke:red;stroke-width:1px;stroke-linecap:butt;stroke-linejoin:miter;stroke-opacity:1" d="M 140.157,797.6 140.157,836.502 z" id="boundary" inkscape:connector-curvature="0" />
	<path style="fill:none;stroke:red;stroke-width:1px;stroke-linecap:butt;stroke-linejoin:miter;stroke-opacity:1" d="M 140.157,836.502 140.157,875.404 z" id="boundary" inkscape:connector-curvature="0" />
	<path style="fill:none;stroke:red;stroke-width:1px;stroke-linecap:butt;stroke-linejoin:miter;stroke-opacity:1" d="M 140.157,875.404 140.157,914.306 z" id="boundary" inkscape:connector-curvature="0" />
	<path style="fill:none;stroke:red;stroke-width:1px;stroke-linecap:butt;stroke-linejoin:miter;stroke-opacity:1" d="M 140.157,914.306 151.827,953.208 z" id="boundary" inkscape:connector-curvature="0" />
	<path style="fill:none;stroke:red;stroke-width:1px;stroke-linecap:butt;stroke-linejoin:miter;stroke-opacity:1" d="M 159.608,412.471 190.729,435.812 z" id="boundary" inkscape:connector-curvature="0" />
	<path style="fill:none;stroke:red;stroke-width:1px;stroke-linecap:butt;stroke-linejoin:miter;stroke-opacity:1" d="M 175.169,4 214.071,7.8902 z" id="boundary" inkscape:connector-curvature="0" />
	<path style="fill:none;stroke:red;stroke-width:1px;stroke-linecap:butt;stroke-linejoin:miter;stroke-opacity:1" d="M 182.949,665.333 190.729,704.235 z" id="boundary" inkscape:connector-curvature="0" />
	<path style="fill:none;stroke:red;stroke-width:1px;stroke-linecap:butt;stroke-linejoin:miter;stroke-opacity:1" d="M 190.729,435.812 190.729,474.714 z" id="boundary" inkscape:connector-curvature="0" />
	<path style="fill:none;stroke:red;stroke-width:1px;stroke-linecap:butt;stroke-linejoin:miter;stroke-opacity:1" d="M 190.729,474.714 190.729,513.616 z" id="boundary" inkscape:connector-curvature="0" />
	<path style="fill:none;stroke:red;stroke-width:1px;stroke-linecap:butt;stroke-linejoin:miter;stroke-opacity:1" d="M 190.729,513.616 190.729,552.518 z" id="boundary" inkscape:connector-curvature="0" />
	<path style="fill:none;stroke:red;stroke-width:1px;stroke-linecap:butt;stroke-linejoin:miter;stroke-opacity:1" d="M 190.729,552.518 190.729,591.42 z" id="boundary" inkscape:connector-curvature="0" />
	<path style="fill:none;stroke:red;stroke-width:1px;stroke-linecap:butt;stroke-linejoin:miter;stroke-opacity:1" d="M 190.729,591.42 233.522,603.09 z" id="boundary" inkscape:connector-curvature="0" />
	<path style="fill:none;stroke:red;stroke-width:1px;stroke-linecap:butt;stroke-linejoin:miter;stroke-opacity:1" d="M 190.729,704.235 190.729,743.137 z" id="boundary" inkscape:connector-curvature="0" />
	<path style="fill:none;stroke:red;stroke-width:1px;stroke-linecap:butt;stroke-linejoin:miter;stroke-opacity:1" d="M 190.729,743.137 190.729,782.039 z" id="boundary" inkscape:connector-curvature="0" />
	<path style="fill:none;stroke:red;stroke-width:1px;stroke-linecap:butt;stroke-linejoin:miter;stroke-opacity:1" d="M 190.729,782.039 198.51,820.941 z" id="boundary" inkscape:connector-curvature="0" />
	<path style="fill:none;stroke:red;stroke-width:1px;stroke-linecap:butt;stroke-linejoin:miter;stroke-opacity:1" d="M 198.51,820.941 198.51,859.843 z" id="boundary" inkscape:connector-curvature="0" />
	<path style="fill:none;stroke:red;stroke-width:1px;stroke-linecap:butt;stroke-linejoin:miter;stroke-opacity:1" d="M 198.51,859.843 198.51,898.745 z" id="boundary" inkscape:connector-curvature="0" />
	<path style="fill:none;stroke:red;stroke-width:1px;stroke-linecap:butt;stroke-linejoin:miter;stroke-opacity:1" d="M 198.51,898.745 198.51,937.647 z" id="boundary" inkscape:connector-curvature="0" />
	<path style="fill:none;stroke:red;stroke-width:1px;stroke-linecap:butt;stroke-linejoin:miter;stroke-opacity:1" d="M 198.51,937.647 198.51,976.549 z" id="boundary" inkscape:connector-curvature="0" />
	<path style="fill:none;stroke:red;stroke-width:1px;stroke-linecap:butt;stroke-linejoin:miter;stroke-opacity:1" d="M 198.51,976.549 233.522,996 z" id="boundary" inkscape:connector-curvature="0" />
	<path style="fill:none;stroke:red;stroke-width:1px;stroke-linecap:butt;stroke-linejoin:miter;stroke-opacity:1" d="M 214.071,7.8902 252.973,23.451 z" id="boundary" inkscape:connector-curvature="0" />
	<path style="fill:none;stroke:red;stroke-width:1px;stroke-linecap:butt;stroke-linejoin:miter;stroke-opacity:1" d="M 233.522,603.09 233.522,641.992 z" id="boundary" inkscape:connector-curvature="0" />
	<path style="fill:none;stroke:red;stroke-width:1px;stroke-linecap:butt;stroke-linejoin:miter;stroke-opacity:1" d="M 233.522,641.992 233.522,680.894 z" id="boundary" inkscape:connector-curvature="0" />
	<path style="fill:none;stroke:red;stroke-width:1px;stroke-linecap:butt;stroke-linejoin:miter;stroke-opacity:1" d="M 233.522,680.894 233.522,719.796 z" id="boundary" inkscape:connector-curvature="0" />
	<path style="fill:none;stroke:red;stroke-width:1px;stroke-linecap:butt;stroke-linejoin:miter;stroke-opacity:1" d="M 233.522,719.796 233.522,758.698 z" id="boundary" inkscape:connector-curvature="0" />
	<path style="fill:none;stroke:red;stroke-width:1px;stroke-linecap:butt;stroke-linejoin:miter;stroke-opacity:1" d="M 233.522,758.698 233.522,797.6 z" id="boundary" inkscape:connector-curvature="0" />
	<path style="fill:none;stroke:red;stroke-width:1px;stroke-linecap:butt;stroke-linejoin:miter;stroke-opacity:1" d="M 233.522,797.6 241.302,836.502 z" id="boundary" inkscape:connector-curvature="0" />
	<path style="fill:none;stroke:red;stroke-width:1px;stroke-linecap:butt;stroke-linejoin:miter;stroke-opacity:1" d="M 233.522,996 272.424,988.22 z" id="boundary" inkscape:connector-curvature="0" />
	<path style="fill:none;stroke:red;stroke-width:1px;stroke-linecap:butt;stroke-linejoin:miter;stroke-opacity:1" d="M 241.302,548.627 249.082,494.165 z" id="boundary" inkscape:connector-curvature="0" />
	<path style="fill:none;stroke:red;stroke-width:1px;stroke-linecap:butt;stroke-linejoin:miter;stroke-opacity:1" d="M 241.302,836.502 241.302,875.404 z" id="boundary" inkscape:connector-curvature="0" />
	<path style="fill:none;stroke:red;stroke-width:1px;stroke-linecap:butt;stroke-linejoin:miter;stroke-opacity:1" d="M 241.302,875.404 241.302,914.306 z" id="boundary" inkscape:connector-curvature="0" />
	<path style="fill:none;stroke:red;stroke-width:1px;stroke-linecap:butt;stroke-linejoin:miter;stroke-opacity:1" d="M 241.302,914.306 260.753,949.318 z" id="boundary" inkscape:connector-curvature="0" />
	<path style="fill:none;stroke:red;stroke-width:1px;stroke-linecap:butt;stroke-linejoin:miter;stroke-opacity:1" d="M 249.082,494.165 256.863,431.922 z" id="boundary" inkscape:connector-curvature="0" />
	<path style="fill:none;stroke:red;stroke-width:1px;stroke-linecap:butt;stroke-linejoin:miter;stroke-opacity:1" d="M 252.973,23.451 287.984,42.902 z" id="boundary" inkscape:connector-curvature="0" />
	<path style="fill:none;stroke:red;stroke-width:1px;stroke-linecap:butt;stroke-linejoin:miter;stroke-opacity:1" d="M 256.863,431.922 264.643,377.459 z" id="boundary" inkscape:connector-curvature="0" />
	<path style="fill:none;stroke:red;stroke-width:1px;stroke-linecap:butt;stroke-linejoin:miter;stroke-opacity:1" d="M 260.753,949.318 272.424,988.22 z" id="boundary" inkscape:connector-curvature="0" />
	<path style="fill:none;stroke:red;stroke-width:1px;stroke-linecap:butt;stroke-linejoin:miter;stroke-opacity:1" d="M 264.643,377.459 280.204,338.557 z" id="boundary" inkscape:connector-curvature="0" />
	<path style="fill:none;stroke:red;stroke-width:1px;stroke-linecap:butt;stroke-linejoin:miter;stroke-opacity:1" d="M 280.204,338.557 295.765,284.094 z" id="boundary" inkscape:connector-curvature="0" />
	<path style="fill:none;stroke:red;stroke-width:1px;stroke-linecap:butt;stroke-linejoin:miter;stroke-opacity:1" d="M 287.984,42.902 311.325,74.0235 z" id="boundary" inkscape:connector-curvature="0" />
	<path style="fill:none;stroke:red;stroke-width:1px;stroke-linecap:butt;stroke-linejoin:miter;stroke-opacity:1" d="M 295.765,284.094 334.667,295.765 z" id="boundary" inkscape:connector-curvature="0" />
	<path style="fill:none;stroke:red;stroke-width:1px;stroke-linecap:butt;stroke-linejoin:miter;stroke-opacity:1" d="M 311.325,74.0235 326.886,112.925 z" id="boundary" inkscape:connector-curvature="0" />
	<path style="fill:none;stroke:red;stroke-width:1px;stroke-linecap:butt;stroke-linejoin:miter;stroke-opacity:1" d="M 326.886,112.925 334.667,151.827 z" id="boundary" inkscape:connector-curvature="0" />
	<path style="fill:none;stroke:red;stroke-width:1px;stroke-linecap:butt;stroke-linejoin:miter;stroke-opacity:1" d="M 334.667,151.827 342.447,190.729 z" id="boundary" inkscape:connector-curvature="0" />
	<path style="fill:none;stroke:red;stroke-width:1px;stroke-linecap:butt;stroke-linejoin:miter;stroke-opacity:1" d="M 334.667,295.765 350.227,229.631 z" id="boundary" inkscape:connector-curvature="0" />
	<path style="fill:none;stroke:red;stroke-width:1px;stroke-linecap:butt;stroke-linejoin:miter;stroke-opacity:1" d="M 342.447,190.729 350.227,229.631 z" id="boundary" inkscape:connector-curvature="0" />
	<circle cx="4" cy="299.655" r="4" fill="#0" id="circle0"/>
	<circle cx="11.7804" cy="245.192" r="4" fill="#0" id="circle1"/>
	<circle cx="11.7804" cy="338.557" r="4" fill="#0" id="circle2"/>
	<circle cx="19.5608" cy="190.729" r="4" fill="#0" id="circle3"/>
	<circle cx="19.5608" cy="385.239" r="4" fill="#0" id="circle4"/>
	<circle cx="27.3412" cy="144.047" r="4" fill="#0" id="circle5"/>
	<circle cx="31.2314" cy="424.141" r="4" fill="#0" id="circle6"/>
	<circle cx="42.902" cy="89.5843" r="4" fill="#0" id="circle7"/>
	<circle cx="66.2431" cy="58.4627" r="4" fill="#0" id="circle8"/>
	<circle cx="70.1333" cy="435.812" r="4" fill="#0" id="circle9"/>
	<circle cx="81.8039" cy="474.714" r="4" fill="#0" id="circle10"/>
	<circle cx="81.8039" cy="513.616" r="4" fill="#0" id="circle11"/>
	<circle cx="89.5843" cy="552.518" r="4" fill="#0" id="circle12"/>
	<circle cx="89.5843" cy="591.42" r="4" fill="#0" id="circle13"/>
	<circle cx="89.5843" cy="630.322" r="4" fill="#0" id="circle14"/>
	<circle cx="89.5843" cy="669.224" r="4" fill="#0" id="circle15"/>
	<circle cx="97.3647" cy="27.3412" r="4" fill="#0" id="circle16"/>
	<circle cx="97.3647" cy="708.125" r="4" fill="#0" id="circle17"/>
	<circle cx="97.3647" cy="747.027" r="4" fill="#0" id="circle18"/>
	<circle cx="97.3647" cy="785.929" r="4" fill="#0" id="circle19"/>
	<circle cx="97.3647" cy="824.831" r="4" fill="#0" id="circle20"/>
	<circle cx="97.3647" cy="863.733" r="4" fill="#0" id="circle21"/>
	<circle cx="97.3647" cy="902.635" r="4" fill="#0" id="circle22"/>
	<circle cx="97.3647" cy="941.537" r="4" fill="#0" id="circle23"/>
	<circle cx="97.3647" cy="980.439" r="4" fill="#0" id="circle24"/>
	<circle cx="136.267" cy="11.7804" r="4" fill="#0" id="circle25"/>
	<circle cx="136.267" cy="996" r="4" fill="#0" id="circle26"/>
	<circle cx="140.157" cy="447.482" r="4" fill="#0" id="circle27"/>
	<circle cx="140.157" cy="486.384" r="4" fill="#0" id="circle28"/>
	<circle cx="140.157" cy="525.286" r="4" fill="#0" id="circle29"/>
	<circle cx="140.157" cy="564.188" r="4" fill="#0" id="circle30"/>
	<circle cx="140.157" cy="603.09" r="4" fill="#0" id="circle31"/>
	<circle cx="140.157" cy="641.992" r="4" fill="#0" id="circle32"/>
	<circle cx="140.157" cy="680.894" r="4" fill="#0" id="circle33"/>
	<circle cx="140.157" cy="719.796" r="4" fill="#0" id="circle34"/>
	<circle cx="140.157" cy="758.698" r="4" fill="#0" id="circle35"/>
	<circle cx="140.157" cy="797.6" r="4" fill="#0" id="circle36"/>
	<circle cx="140.157" cy="836.502" r="4" fill="#0" id="circle37"/>
	<circle cx="140.157" cy="875.404" r="4" fill="#0" id="circle38"/>
	<circle cx="140.157" cy="914.306" r="4" fill="#0" id="circle39"/>
	<circle cx="151.827" cy="953.208" r="4" fill="#0" id="circle40"/>
	<circle cx="159.608" cy="412.471" r="4" fill="#0" id="circle41"/>
	<circle cx="175.169" cy="4" r="4" fill="#0" id="circle42"/>
	<circle cx="182.949" cy="665.333" r="4" fill="#0" id="circle43"/>
	<circle cx="190.729" cy="435.812" r="4" fill="#0" id="circle44"/>
	<circle cx="190.729" cy="474.714" r="4" fill="#0" id="circle45"/>
	<circle cx="190.729" cy="513.616" r="4" fill="#0" id="circle46"/>
	<circle cx="190.729" cy="552.518" r="4" fill="#0" id="circle47"/>
	<circle cx="190.729" cy="591.42" r="4" fill="#0" id="circle48"/>
	<circle cx="190.729" cy="704.235" r="4" fill="#0" id="circle49"/>
	<circle cx="190.729" cy="743.137" r="4" fill="#0" id="circle50"/>
	<circle cx="190.729" cy="782.039" r="4" fill="#0" id="circle51"/>
	<circle cx="198.51" cy="820.941" r="4" fill="#0" id="circle52"/>
	<circle cx="198.51" cy="859.843" r="4" fill="#0" id="circle53"/>
	<circle cx="198.51" cy="898.745" r="4" fill="#0" id="circle54"/>
	<circle cx="198.51" cy="937.647" r="4" fill="#0" id="circle55"/>
	<circle cx="198.51" cy="976.549" r="4" fill="#0" id="circle56"/>
	<circle cx="214.071" cy="7.8902" r="4" fill="#0" id="circle57"/>
	<circle cx="233.522" cy="603.09" r="4" fill="#0" id="circle58"/>
	<circle cx="233.522" cy="641.992" r="4" fill="#0" id="circle59"/>
	<circle cx="233.522" cy="680.894" r="4" fill="#0" id="circle60"/>
	<circle cx="233.522" cy="719.796" r="4" fill="#0" id="circle61"/>
	<circle cx="233.522" cy="758.698" r="4" fill="#0" id="circle62"/>
	<circle cx="233.522" cy="797.6" r="4" fill="#0" id="circle63"/>
	<circle cx="233.522" cy="996" r="4" fill="#0" id="circle64"/>
	<circle cx="241.302" cy="548.627" r="4" fill="#0" id="circle65"/>
	<circle cx="241.302" cy="836.502" r="4" fill="#0" id="circle66"/>
	<circle cx="241.302" cy="875.404" r="4" fill="#0" id="circle67"/>
	<circle cx="241.302" cy="914.306" r="4" fill="#0" id="circle68"/>
	<circle cx="249.082" cy="494.165" r="4" fill="#0" id="circle69"/>
	<circle cx="252.973" cy="23.451" r="4" fill="#0" id="circle70"/>
	<circle cx="256.863" cy="431.922" r="4" fill="#0" id="circle71"/>
	<circle cx="260.753" cy="949.318" r="4" fill="#0" id="circle72"/>
	<circle cx="264.643" cy="377.459" r="4" fill="#0" id="circle73"/>
	<circle cx="272.424" cy="988.22" r="4" fill="#0" id="circle74"/>
	<circle cx="280.204" cy="338.557" r="4" fill="#0" id="circle75"/>
	<circle cx="287.984" cy="42.902" r="4" fill="#0" id="circle76"/>
	<circle cx="295.765" cy="284.094" r="4" fill="#0" id="circle77"/>
	<circle cx="311.325" cy="74.0235" r="4" fill="#0" id="circle78"/>
	<circle cx="326.886" cy="112.925" r="4" fill="#0" id="circle79"/>
	<circle cx="334.667" cy="151.827" r="4" fill="#0" id="circle80"/>
	<circle cx="334.667" cy="295.765" r="4" fill="#0" id="circle81"/>
	<circle cx="342.447" cy="190.729" r="4" fill="#0" id="circle82"/>
	<circle cx="350.227" cy="229.631" r="4" fill="#0" id="circle83"/>
	</g>
</svg>