<?xml version="1.0" encoding="UTF-8" standalone="no"?>
<!-- Created with CurveBenchmark -->
<svg
	xmlns:dc="http://purl.org/dc/elements/1.1/"
	xmlns:cc="http://creativecommons.org/ns#"
	xmlns:rdf="http://www.w3.org/1999/02/22-rdf-syntax-ns#"
	xmlns:svg="http://www.w3.org/2000/svg"
	xmlns="http://www.w3.org/2000/svg"
	xmlns:sodipodi="http://sodipodi.sourceforge.net/DTD/sodipodi-0.dtd"
	xmlns:inkscape="http://www.inkscape.org/namespaces/inkscape"
	width="1000"
	height="1000"
	id="svg2"
	version="1.1"
	sodipodi:docname="manifold/discur-children09.png.txt">
<defs
	id="defs4" />
<metadata
	id="metadata7">
	<rdf:RDF>
		<cc:Work
			rdf:about="">
			<dc:format>image/svg+xml</dc:format>
			<dc:type
				rdf:resource="http://purl.org/dc/dcmitype/StillImage" />
			<dc:title></dc:title>
		</cc:Work>
	</rdf:RDF>
</metadata>
<g
	inkscape:label="Layer 1"
	inkscape:groupmode="layer"
	id="layer1">
	<path style="fill:none;stroke:red;stroke-width:1px;stroke-linecap:butt;stroke-linejoin:miter;stroke-opacity:1" d="M 4,308.591 4,325.235 z" id="boundary" inkscape:connector-curvature="0" />
	<path style="fill:none;stroke:red;stroke-width:1px;stroke-linecap:butt;stroke-linejoin:miter;stroke-opacity:1" d="M 4,308.591 12.3221,291.946 z" id="boundary" inkscape:connector-curvature="0" />
	<path style="fill:none;stroke:red;stroke-width:1px;stroke-linecap:butt;stroke-linejoin:miter;stroke-opacity:1" d="M 4,325.235 4,341.879 z" id="boundary" inkscape:connector-curvature="0" />
	<path style="fill:none;stroke:red;stroke-width:1px;stroke-linecap:butt;stroke-linejoin:miter;stroke-opacity:1" d="M 4,341.879 4,358.523 z" id="boundary" inkscape:connector-curvature="0" />
	<path style="fill:none;stroke:red;stroke-width:1px;stroke-linecap:butt;stroke-linejoin:miter;stroke-opacity:1" d="M 4,358.523 4,375.168 z" id="boundary" inkscape:connector-curvature="0" />
	<path style="fill:none;stroke:red;stroke-width:1px;stroke-linecap:butt;stroke-linejoin:miter;stroke-opacity:1" d="M 4,375.168 12.3221,390.148 z" id="boundary" inkscape:connector-curvature="0" />
	<path style="fill:none;stroke:red;stroke-width:1px;stroke-linecap:butt;stroke-linejoin:miter;stroke-opacity:1" d="M 12.3221,291.946 20.6443,275.302 z" id="boundary" inkscape:connector-curvature="0" />
	<path style="fill:none;stroke:red;stroke-width:1px;stroke-linecap:butt;stroke-linejoin:miter;stroke-opacity:1" d="M 12.3221,390.148 12.3221,406.792 z" id="boundary" inkscape:connector-curvature="0" />
	<path style="fill:none;stroke:red;stroke-width:1px;stroke-linecap:butt;stroke-linejoin:miter;stroke-opacity:1" d="M 12.3221,406.792 12.3221,423.436 z" id="boundary" inkscape:connector-curvature="0" />
	<path style="fill:none;stroke:red;stroke-width:1px;stroke-linecap:butt;stroke-linejoin:miter;stroke-opacity:1" d="M 12.3221,423.436 12.3221,440.081 z" id="boundary" inkscape:connector-curvature="0" />
	<path style="fill:none;stroke:red;stroke-width:1px;stroke-linecap:butt;stroke-linejoin:miter;stroke-opacity:1" d="M 12.3221,440.081 20.6443,455.06 z" id="boundary" inkscape:connector-curvature="0" />
	<path style="fill:none;stroke:red;stroke-width:1px;stroke-linecap:butt;stroke-linejoin:miter;stroke-opacity:1" d="M 20.6443,75.5705 20.6443,92.2148 z" id="boundary" inkscape:connector-curvature="0" />
	<path style="fill:none;stroke:red;stroke-width:1px;stroke-linecap:butt;stroke-linejoin:miter;stroke-opacity:1" d="M 20.6443,75.5705 28.9664,58.9262 z" id="boundary" inkscape:connector-curvature="0" />
	<path style="fill:none;stroke:red;stroke-width:1px;stroke-linecap:butt;stroke-linejoin:miter;stroke-opacity:1" d="M 20.6443,92.2148 28.9664,107.195 z" id="boundary" inkscape:connector-curvature="0" />
	<path style="fill:none;stroke:red;stroke-width:1px;stroke-linecap:butt;stroke-linejoin:miter;stroke-opacity:1" d="M 20.6443,275.302 33.9597,261.987 z" id="boundary" inkscape:connector-curvature="0" />
	<path style="fill:none;stroke:red;stroke-width:1px;stroke-linecap:butt;stroke-linejoin:miter;stroke-opacity:1" d="M 20.6443,455.06 20.6443,471.705 z" id="boundary" inkscape:connector-curvature="0" />
	<path style="fill:none;stroke:red;stroke-width:1px;stroke-linecap:butt;stroke-linejoin:miter;stroke-opacity:1" d="M 20.6443,471.705 20.6443,488.349 z" id="boundary" inkscape:connector-curvature="0" />
	<path style="fill:none;stroke:red;stroke-width:1px;stroke-linecap:butt;stroke-linejoin:miter;stroke-opacity:1" d="M 20.6443,488.349 25.6376,504.993 z" id="boundary" inkscape:connector-curvature="0" />
	<path style="fill:none;stroke:red;stroke-width:1px;stroke-linecap:butt;stroke-linejoin:miter;stroke-opacity:1" d="M 25.6376,504.993 33.9597,519.973 z" id="boundary" inkscape:connector-curvature="0" />
	<path style="fill:none;stroke:red;stroke-width:1px;stroke-linecap:butt;stroke-linejoin:miter;stroke-opacity:1" d="M 28.9664,58.9262 42.2819,45.6107 z" id="boundary" inkscape:connector-curvature="0" />
	<path style="fill:none;stroke:red;stroke-width:1px;stroke-linecap:butt;stroke-linejoin:miter;stroke-opacity:1" d="M 28.9664,107.195 28.9664,123.839 z" id="boundary" inkscape:connector-curvature="0" />
	<path style="fill:none;stroke:red;stroke-width:1px;stroke-linecap:butt;stroke-linejoin:miter;stroke-opacity:1" d="M 28.9664,123.839 37.2886,138.819 z" id="boundary" inkscape:connector-curvature="0" />
	<path style="fill:none;stroke:red;stroke-width:1px;stroke-linecap:butt;stroke-linejoin:miter;stroke-opacity:1" d="M 33.9597,261.987 50.604,253.664 z" id="boundary" inkscape:connector-curvature="0" />
	<path style="fill:none;stroke:red;stroke-width:1px;stroke-linecap:butt;stroke-linejoin:miter;stroke-opacity:1" d="M 33.9597,519.973 37.2886,536.617 z" id="boundary" inkscape:connector-curvature="0" />
	<path style="fill:none;stroke:red;stroke-width:1px;stroke-linecap:butt;stroke-linejoin:miter;stroke-opacity:1" d="M 37.2886,138.819 47.2752,152.134 z" id="boundary" inkscape:connector-curvature="0" />
	<path style="fill:none;stroke:red;stroke-width:1px;stroke-linecap:butt;stroke-linejoin:miter;stroke-opacity:1" d="M 37.2886,536.617 37.2886,553.262 z" id="boundary" inkscape:connector-curvature="0" />
	<path style="fill:none;stroke:red;stroke-width:1px;stroke-linecap:butt;stroke-linejoin:miter;stroke-opacity:1" d="M 37.2886,553.262 45.6107,568.242 z" id="boundary" inkscape:connector-curvature="0" />
	<path style="fill:none;stroke:red;stroke-width:1px;stroke-linecap:butt;stroke-linejoin:miter;stroke-opacity:1" d="M 42.2819,45.6107 57.2617,37.2886 z" id="boundary" inkscape:connector-curvature="0" />
	<path style="fill:none;stroke:red;stroke-width:1px;stroke-linecap:butt;stroke-linejoin:miter;stroke-opacity:1" d="M 45.6107,568.242 45.6107,584.886 z" id="boundary" inkscape:connector-curvature="0" />
	<path style="fill:none;stroke:red;stroke-width:1px;stroke-linecap:butt;stroke-linejoin:miter;stroke-opacity:1" d="M 45.6107,584.886 45.6107,601.53 z" id="boundary" inkscape:connector-curvature="0" />
	<path style="fill:none;stroke:red;stroke-width:1px;stroke-linecap:butt;stroke-linejoin:miter;stroke-opacity:1" d="M 45.6107,601.53 53.9329,616.51 z" id="boundary" inkscape:connector-curvature="0" />
	<path style="fill:none;stroke:red;stroke-width:1px;stroke-linecap:butt;stroke-linejoin:miter;stroke-opacity:1" d="M 47.2752,152.134 60.5906,163.785 z" id="boundary" inkscape:connector-curvature="0" />
	<path style="fill:none;stroke:red;stroke-width:1px;stroke-linecap:butt;stroke-linejoin:miter;stroke-opacity:1" d="M 50.604,253.664 63.9195,240.349 z" id="boundary" inkscape:connector-curvature="0" />
	<path style="fill:none;stroke:red;stroke-width:1px;stroke-linecap:butt;stroke-linejoin:miter;stroke-opacity:1" d="M 53.9329,616.51 62.255,631.49 z" id="boundary" inkscape:connector-curvature="0" />
	<path style="fill:none;stroke:red;stroke-width:1px;stroke-linecap:butt;stroke-linejoin:miter;stroke-opacity:1" d="M 57.2617,37.2886 70.5772,25.6376 z" id="boundary" inkscape:connector-curvature="0" />
	<path style="fill:none;stroke:red;stroke-width:1px;stroke-linecap:butt;stroke-linejoin:miter;stroke-opacity:1" d="M 60.5906,163.785 67.2483,180.43 z" id="boundary" inkscape:connector-curvature="0" />
	<path style="fill:none;stroke:red;stroke-width:1px;stroke-linecap:butt;stroke-linejoin:miter;stroke-opacity:1" d="M 62.255,631.49 62.255,648.134 z" id="boundary" inkscape:connector-curvature="0" />
	<path style="fill:none;stroke:red;stroke-width:1px;stroke-linecap:butt;stroke-linejoin:miter;stroke-opacity:1" d="M 62.255,648.134 62.255,664.779 z" id="boundary" inkscape:connector-curvature="0" />
	<path style="fill:none;stroke:red;stroke-width:1px;stroke-linecap:butt;stroke-linejoin:miter;stroke-opacity:1" d="M 62.255,664.779 73.906,678.094 z" id="boundary" inkscape:connector-curvature="0" />
	<path style="fill:none;stroke:red;stroke-width:1px;stroke-linecap:butt;stroke-linejoin:miter;stroke-opacity:1" d="M 63.9195,240.349 70.5772,217.047 z" id="boundary" inkscape:connector-curvature="0" />
	<path style="fill:none;stroke:red;stroke-width:1px;stroke-linecap:butt;stroke-linejoin:miter;stroke-opacity:1" d="M 67.2483,180.43 78.8993,193.745 z" id="boundary" inkscape:connector-curvature="0" />
	<path style="fill:none;stroke:red;stroke-width:1px;stroke-linecap:butt;stroke-linejoin:miter;stroke-opacity:1" d="M 70.5772,25.6376 83.8926,12.3221 z" id="boundary" inkscape:connector-curvature="0" />
	<path style="fill:none;stroke:red;stroke-width:1px;stroke-linecap:butt;stroke-linejoin:miter;stroke-opacity:1" d="M 70.5772,217.047 78.8993,193.745 z" id="boundary" inkscape:connector-curvature="0" />
	<path style="fill:none;stroke:red;stroke-width:1px;stroke-linecap:butt;stroke-linejoin:miter;stroke-opacity:1" d="M 73.906,678.094 87.2215,688.081 z" id="boundary" inkscape:connector-curvature="0" />
	<path style="fill:none;stroke:red;stroke-width:1px;stroke-linecap:butt;stroke-linejoin:miter;stroke-opacity:1" d="M 83.8926,12.3221 100.537,4 z" id="boundary" inkscape:connector-curvature="0" />
	<path style="fill:none;stroke:red;stroke-width:1px;stroke-linecap:butt;stroke-linejoin:miter;stroke-opacity:1" d="M 87.2215,688.081 95.5436,703.06 z" id="boundary" inkscape:connector-curvature="0" />
	<path style="fill:none;stroke:red;stroke-width:1px;stroke-linecap:butt;stroke-linejoin:miter;stroke-opacity:1" d="M 87.2215,791.275 87.2215,807.919 z" id="boundary" inkscape:connector-curvature="0" />
	<path style="fill:none;stroke:red;stroke-width:1px;stroke-linecap:butt;stroke-linejoin:miter;stroke-opacity:1" d="M 87.2215,791.275 95.5436,766.309 z" id="boundary" inkscape:connector-curvature="0" />
	<path style="fill:none;stroke:red;stroke-width:1px;stroke-linecap:butt;stroke-linejoin:miter;stroke-opacity:1" d="M 87.2215,807.919 87.2215,824.564 z" id="boundary" inkscape:connector-curvature="0" />
	<path style="fill:none;stroke:red;stroke-width:1px;stroke-linecap:butt;stroke-linejoin:miter;stroke-opacity:1" d="M 87.2215,824.564 87.2215,841.208 z" id="boundary" inkscape:connector-curvature="0" />
	<path style="fill:none;stroke:red;stroke-width:1px;stroke-linecap:butt;stroke-linejoin:miter;stroke-opacity:1" d="M 87.2215,841.208 95.5436,856.188 z" id="boundary" inkscape:connector-curvature="0" />
	<path style="fill:none;stroke:red;stroke-width:1px;stroke-linecap:butt;stroke-linejoin:miter;stroke-opacity:1" d="M 95.5436,703.06 103.866,718.04 z" id="boundary" inkscape:connector-curvature="0" />
	<path style="fill:none;stroke:red;stroke-width:1px;stroke-linecap:butt;stroke-linejoin:miter;stroke-opacity:1" d="M 95.5436,766.309 103.866,751.329 z" id="boundary" inkscape:connector-curvature="0" />
	<path style="fill:none;stroke:red;stroke-width:1px;stroke-linecap:butt;stroke-linejoin:miter;stroke-opacity:1" d="M 95.5436,856.188 103.866,871.168 z" id="boundary" inkscape:connector-curvature="0" />
	<path style="fill:none;stroke:red;stroke-width:1px;stroke-linecap:butt;stroke-linejoin:miter;stroke-opacity:1" d="M 100.537,4 117.181,4 z" id="boundary" inkscape:connector-curvature="0" />
	<path style="fill:none;stroke:red;stroke-width:1px;stroke-linecap:butt;stroke-linejoin:miter;stroke-opacity:1" d="M 103.866,718.04 103.866,734.685 z" id="boundary" inkscape:connector-curvature="0" />
	<path style="fill:none;stroke:red;stroke-width:1px;stroke-linecap:butt;stroke-linejoin:miter;stroke-opacity:1" d="M 103.866,734.685 103.866,751.329 z" id="boundary" inkscape:connector-curvature="0" />
	<path style="fill:none;stroke:red;stroke-width:1px;stroke-linecap:butt;stroke-linejoin:miter;stroke-opacity:1" d="M 103.866,871.168 108.859,887.812 z" id="boundary" inkscape:connector-curvature="0" />
	<path style="fill:none;stroke:red;stroke-width:1px;stroke-linecap:butt;stroke-linejoin:miter;stroke-opacity:1" d="M 103.866,924.43 103.866,941.074 z" id="boundary" inkscape:connector-curvature="0" />
	<path style="fill:none;stroke:red;stroke-width:1px;stroke-linecap:butt;stroke-linejoin:miter;stroke-opacity:1" d="M 103.866,924.43 112.188,904.456 z" id="boundary" inkscape:connector-curvature="0" />
	<path style="fill:none;stroke:red;stroke-width:1px;stroke-linecap:butt;stroke-linejoin:miter;stroke-opacity:1" d="M 103.866,941.074 112.188,956.054 z" id="boundary" inkscape:connector-curvature="0" />
	<path style="fill:none;stroke:red;stroke-width:1px;stroke-linecap:butt;stroke-linejoin:miter;stroke-opacity:1" d="M 108.859,887.812 112.188,904.456 z" id="boundary" inkscape:connector-curvature="0" />
	<path style="fill:none;stroke:red;stroke-width:1px;stroke-linecap:butt;stroke-linejoin:miter;stroke-opacity:1" d="M 112.188,956.054 120.51,971.034 z" id="boundary" inkscape:connector-curvature="0" />
	<path style="fill:none;stroke:red;stroke-width:1px;stroke-linecap:butt;stroke-linejoin:miter;stroke-opacity:1" d="M 117.181,4 133.826,4 z" id="boundary" inkscape:connector-curvature="0" />
	<path style="fill:none;stroke:red;stroke-width:1px;stroke-linecap:butt;stroke-linejoin:miter;stroke-opacity:1" d="M 120.51,971.034 130.497,984.349 z" id="boundary" inkscape:connector-curvature="0" />
	<path style="fill:none;stroke:red;stroke-width:1px;stroke-linecap:butt;stroke-linejoin:miter;stroke-opacity:1" d="M 130.497,984.349 147.141,987.678 z" id="boundary" inkscape:connector-curvature="0" />
	<path style="fill:none;stroke:red;stroke-width:1px;stroke-linecap:butt;stroke-linejoin:miter;stroke-opacity:1" d="M 133.826,4 150.47,4 z" id="boundary" inkscape:connector-curvature="0" />
	<path style="fill:none;stroke:red;stroke-width:1px;stroke-linecap:butt;stroke-linejoin:miter;stroke-opacity:1" d="M 147.141,987.678 163.785,987.678 z" id="boundary" inkscape:connector-curvature="0" />
	<path style="fill:none;stroke:red;stroke-width:1px;stroke-linecap:butt;stroke-linejoin:miter;stroke-opacity:1" d="M 150.47,4 167.114,4 z" id="boundary" inkscape:connector-curvature="0" />
	<path style="fill:none;stroke:red;stroke-width:1px;stroke-linecap:butt;stroke-linejoin:miter;stroke-opacity:1" d="M 163.785,987.678 178.765,996 z" id="boundary" inkscape:connector-curvature="0" />
	<path style="fill:none;stroke:red;stroke-width:1px;stroke-linecap:butt;stroke-linejoin:miter;stroke-opacity:1" d="M 167.114,4 183.758,4 z" id="boundary" inkscape:connector-curvature="0" />
	<path style="fill:none;stroke:red;stroke-width:1px;stroke-linecap:butt;stroke-linejoin:miter;stroke-opacity:1" d="M 178.765,996 195.409,996 z" id="boundary" inkscape:connector-curvature="0" />
	<path style="fill:none;stroke:red;stroke-width:1px;stroke-linecap:butt;stroke-linejoin:miter;stroke-opacity:1" d="M 183.758,4 198.738,12.3221 z" id="boundary" inkscape:connector-curvature="0" />
	<path style="fill:none;stroke:red;stroke-width:1px;stroke-linecap:butt;stroke-linejoin:miter;stroke-opacity:1" d="M 195.409,996 212.054,996 z" id="boundary" inkscape:connector-curvature="0" />
	<path style="fill:none;stroke:red;stroke-width:1px;stroke-linecap:butt;stroke-linejoin:miter;stroke-opacity:1" d="M 198.738,12.3221 213.718,20.6443 z" id="boundary" inkscape:connector-curvature="0" />
	<path style="fill:none;stroke:red;stroke-width:1px;stroke-linecap:butt;stroke-linejoin:miter;stroke-opacity:1" d="M 212.054,996 228.698,996 z" id="boundary" inkscape:connector-curvature="0" />
	<path style="fill:none;stroke:red;stroke-width:1px;stroke-linecap:butt;stroke-linejoin:miter;stroke-opacity:1" d="M 213.718,20.6443 228.698,28.9664 z" id="boundary" inkscape:connector-curvature="0" />
	<path style="fill:none;stroke:red;stroke-width:1px;stroke-linecap:butt;stroke-linejoin:miter;stroke-opacity:1" d="M 228.698,28.9664 242.013,38.953 z" id="boundary" inkscape:connector-curvature="0" />
	<path style="fill:none;stroke:red;stroke-width:1px;stroke-linecap:butt;stroke-linejoin:miter;stroke-opacity:1" d="M 228.698,996 245.342,996 z" id="boundary" inkscape:connector-curvature="0" />
	<path style="fill:none;stroke:red;stroke-width:1px;stroke-linecap:butt;stroke-linejoin:miter;stroke-opacity:1" d="M 242.013,38.953 255.329,50.604 z" id="boundary" inkscape:connector-curvature="0" />
	<path style="fill:none;stroke:red;stroke-width:1px;stroke-linecap:butt;stroke-linejoin:miter;stroke-opacity:1" d="M 245.342,996 261.987,996 z" id="boundary" inkscape:connector-curvature="0" />
	<path style="fill:none;stroke:red;stroke-width:1px;stroke-linecap:butt;stroke-linejoin:miter;stroke-opacity:1" d="M 255.329,50.604 266.98,63.9195 z" id="boundary" inkscape:connector-curvature="0" />
	<path style="fill:none;stroke:red;stroke-width:1px;stroke-linecap:butt;stroke-linejoin:miter;stroke-opacity:1" d="M 255.329,230.362 258.658,247.007 z" id="boundary" inkscape:connector-curvature="0" />
	<path style="fill:none;stroke:red;stroke-width:1px;stroke-linecap:butt;stroke-linejoin:miter;stroke-opacity:1" d="M 255.329,230.362 263.651,205.396 z" id="boundary" inkscape:connector-curvature="0" />
	<path style="fill:none;stroke:red;stroke-width:1px;stroke-linecap:butt;stroke-linejoin:miter;stroke-opacity:1" d="M 255.329,871.168 263.651,846.201 z" id="boundary" inkscape:connector-curvature="0" />
	<path style="fill:none;stroke:red;stroke-width:1px;stroke-linecap:butt;stroke-linejoin:miter;stroke-opacity:1" d="M 255.329,871.168 263.651,886.148 z" id="boundary" inkscape:connector-curvature="0" />
	<path style="fill:none;stroke:red;stroke-width:1px;stroke-linecap:butt;stroke-linejoin:miter;stroke-opacity:1" d="M 258.658,247.007 266.98,261.987 z" id="boundary" inkscape:connector-curvature="0" />
	<path style="fill:none;stroke:red;stroke-width:1px;stroke-linecap:butt;stroke-linejoin:miter;stroke-opacity:1" d="M 261.987,996 278.631,991.007 z" id="boundary" inkscape:connector-curvature="0" />
	<path style="fill:none;stroke:red;stroke-width:1px;stroke-linecap:butt;stroke-linejoin:miter;stroke-opacity:1" d="M 263.651,188.752 263.651,205.396 z" id="boundary" inkscape:connector-curvature="0" />
	<path style="fill:none;stroke:red;stroke-width:1px;stroke-linecap:butt;stroke-linejoin:miter;stroke-opacity:1" d="M 263.651,188.752 271.973,172.107 z" id="boundary" inkscape:connector-curvature="0" />
	<path style="fill:none;stroke:red;stroke-width:1px;stroke-linecap:butt;stroke-linejoin:miter;stroke-opacity:1" d="M 263.651,846.201 271.973,821.235 z" id="boundary" inkscape:connector-curvature="0" />
	<path style="fill:none;stroke:red;stroke-width:1px;stroke-linecap:butt;stroke-linejoin:miter;stroke-opacity:1" d="M 263.651,886.148 271.973,901.128 z" id="boundary" inkscape:connector-curvature="0" />
	<path style="fill:none;stroke:red;stroke-width:1px;stroke-linecap:butt;stroke-linejoin:miter;stroke-opacity:1" d="M 266.98,63.9195 271.973,80.5638 z" id="boundary" inkscape:connector-curvature="0" />
	<path style="fill:none;stroke:red;stroke-width:1px;stroke-linecap:butt;stroke-linejoin:miter;stroke-opacity:1" d="M 266.98,261.987 278.631,275.302 z" id="boundary" inkscape:connector-curvature="0" />
	<path style="fill:none;stroke:red;stroke-width:1px;stroke-linecap:butt;stroke-linejoin:miter;stroke-opacity:1" d="M 271.973,80.5638 280.295,95.5436 z" id="boundary" inkscape:connector-curvature="0" />
	<path style="fill:none;stroke:red;stroke-width:1px;stroke-linecap:butt;stroke-linejoin:miter;stroke-opacity:1" d="M 271.973,122.174 271.973,138.819 z" id="boundary" inkscape:connector-curvature="0" />
	<path style="fill:none;stroke:red;stroke-width:1px;stroke-linecap:butt;stroke-linejoin:miter;stroke-opacity:1" d="M 271.973,122.174 280.295,95.5436 z" id="boundary" inkscape:connector-curvature="0" />
	<path style="fill:none;stroke:red;stroke-width:1px;stroke-linecap:butt;stroke-linejoin:miter;stroke-opacity:1" d="M 271.973,138.819 271.973,155.463 z" id="boundary" inkscape:connector-curvature="0" />
	<path style="fill:none;stroke:red;stroke-width:1px;stroke-linecap:butt;stroke-linejoin:miter;stroke-opacity:1" d="M 271.973,155.463 271.973,172.107 z" id="boundary" inkscape:connector-curvature="0" />
	<path style="fill:none;stroke:red;stroke-width:1px;stroke-linecap:butt;stroke-linejoin:miter;stroke-opacity:1" d="M 271.973,821.235 280.295,796.268 z" id="boundary" inkscape:connector-curvature="0" />
	<path style="fill:none;stroke:red;stroke-width:1px;stroke-linecap:butt;stroke-linejoin:miter;stroke-opacity:1" d="M 271.973,901.128 288.617,907.785 z" id="boundary" inkscape:connector-curvature="0" />
	<path style="fill:none;stroke:red;stroke-width:1px;stroke-linecap:butt;stroke-linejoin:miter;stroke-opacity:1" d="M 278.631,275.302 286.953,290.282 z" id="boundary" inkscape:connector-curvature="0" />
	<path style="fill:none;stroke:red;stroke-width:1px;stroke-linecap:butt;stroke-linejoin:miter;stroke-opacity:1" d="M 278.631,991.007 291.946,979.356 z" id="boundary" inkscape:connector-curvature="0" />
	<path style="fill:none;stroke:red;stroke-width:1px;stroke-linecap:butt;stroke-linejoin:miter;stroke-opacity:1" d="M 280.295,779.624 280.295,796.268 z" id="boundary" inkscape:connector-curvature="0" />
	<path style="fill:none;stroke:red;stroke-width:1px;stroke-linecap:butt;stroke-linejoin:miter;stroke-opacity:1" d="M 280.295,779.624 288.617,754.658 z" id="boundary" inkscape:connector-curvature="0" />
	<path style="fill:none;stroke:red;stroke-width:1px;stroke-linecap:butt;stroke-linejoin:miter;stroke-opacity:1" d="M 286.953,290.282 288.617,306.926 z" id="boundary" inkscape:connector-curvature="0" />
	<path style="fill:none;stroke:red;stroke-width:1px;stroke-linecap:butt;stroke-linejoin:miter;stroke-opacity:1" d="M 288.617,306.926 288.617,323.57 z" id="boundary" inkscape:connector-curvature="0" />
	<path style="fill:none;stroke:red;stroke-width:1px;stroke-linecap:butt;stroke-linejoin:miter;stroke-opacity:1" d="M 288.617,323.57 296.94,338.55 z" id="boundary" inkscape:connector-curvature="0" />
	<path style="fill:none;stroke:red;stroke-width:1px;stroke-linecap:butt;stroke-linejoin:miter;stroke-opacity:1" d="M 288.617,380.161 296.94,355.195 z" id="boundary" inkscape:connector-curvature="0" />
	<path style="fill:none;stroke:red;stroke-width:1px;stroke-linecap:butt;stroke-linejoin:miter;stroke-opacity:1" d="M 288.617,380.161 296.94,395.141 z" id="boundary" inkscape:connector-curvature="0" />
	<path style="fill:none;stroke:red;stroke-width:1px;stroke-linecap:butt;stroke-linejoin:miter;stroke-opacity:1" d="M 288.617,754.658 296.94,738.013 z" id="boundary" inkscape:connector-curvature="0" />
	<path style="fill:none;stroke:red;stroke-width:1px;stroke-linecap:butt;stroke-linejoin:miter;stroke-opacity:1" d="M 288.617,907.785 301.933,919.436 z" id="boundary" inkscape:connector-curvature="0" />
	<path style="fill:none;stroke:red;stroke-width:1px;stroke-linecap:butt;stroke-linejoin:miter;stroke-opacity:1" d="M 291.946,979.356 306.926,971.034 z" id="boundary" inkscape:connector-curvature="0" />
	<path style="fill:none;stroke:red;stroke-width:1px;stroke-linecap:butt;stroke-linejoin:miter;stroke-opacity:1" d="M 296.94,338.55 296.94,355.195 z" id="boundary" inkscape:connector-curvature="0" />
	<path style="fill:none;stroke:red;stroke-width:1px;stroke-linecap:butt;stroke-linejoin:miter;stroke-opacity:1" d="M 296.94,395.141 305.262,410.121 z" id="boundary" inkscape:connector-curvature="0" />
	<path style="fill:none;stroke:red;stroke-width:1px;stroke-linecap:butt;stroke-linejoin:miter;stroke-opacity:1" d="M 296.94,671.436 296.94,688.081 z" id="boundary" inkscape:connector-curvature="0" />
	<path style="fill:none;stroke:red;stroke-width:1px;stroke-linecap:butt;stroke-linejoin:miter;stroke-opacity:1" d="M 296.94,671.436 310.255,659.785 z" id="boundary" inkscape:connector-curvature="0" />
	<path style="fill:none;stroke:red;stroke-width:1px;stroke-linecap:butt;stroke-linejoin:miter;stroke-opacity:1" d="M 296.94,688.081 296.94,704.725 z" id="boundary" inkscape:connector-curvature="0" />
	<path style="fill:none;stroke:red;stroke-width:1px;stroke-linecap:butt;stroke-linejoin:miter;stroke-opacity:1" d="M 296.94,704.725 296.94,721.369 z" id="boundary" inkscape:connector-curvature="0" />
	<path style="fill:none;stroke:red;stroke-width:1px;stroke-linecap:butt;stroke-linejoin:miter;stroke-opacity:1" d="M 296.94,721.369 296.94,738.013 z" id="boundary" inkscape:connector-curvature="0" />
	<path style="fill:none;stroke:red;stroke-width:1px;stroke-linecap:butt;stroke-linejoin:miter;stroke-opacity:1" d="M 301.933,919.436 316.913,927.758 z" id="boundary" inkscape:connector-curvature="0" />
	<path style="fill:none;stroke:red;stroke-width:1px;stroke-linecap:butt;stroke-linejoin:miter;stroke-opacity:1" d="M 305.262,410.121 313.584,425.101 z" id="boundary" inkscape:connector-curvature="0" />
	<path style="fill:none;stroke:red;stroke-width:1px;stroke-linecap:butt;stroke-linejoin:miter;stroke-opacity:1" d="M 306.926,971.034 323.57,971.034 z" id="boundary" inkscape:connector-curvature="0" />
	<path style="fill:none;stroke:red;stroke-width:1px;stroke-linecap:butt;stroke-linejoin:miter;stroke-opacity:1" d="M 310.255,659.785 321.906,646.47 z" id="boundary" inkscape:connector-curvature="0" />
	<path style="fill:none;stroke:red;stroke-width:1px;stroke-linecap:butt;stroke-linejoin:miter;stroke-opacity:1" d="M 313.584,425.101 313.584,441.745 z" id="boundary" inkscape:connector-curvature="0" />
	<path style="fill:none;stroke:red;stroke-width:1px;stroke-linecap:butt;stroke-linejoin:miter;stroke-opacity:1" d="M 313.584,441.745 321.906,456.725 z" id="boundary" inkscape:connector-curvature="0" />
	<path style="fill:none;stroke:red;stroke-width:1px;stroke-linecap:butt;stroke-linejoin:miter;stroke-opacity:1" d="M 316.913,927.758 331.893,936.081 z" id="boundary" inkscape:connector-curvature="0" />
	<path style="fill:none;stroke:red;stroke-width:1px;stroke-linecap:butt;stroke-linejoin:miter;stroke-opacity:1" d="M 321.906,456.725 326.899,473.369 z" id="boundary" inkscape:connector-curvature="0" />
	<path style="fill:none;stroke:red;stroke-width:1px;stroke-linecap:butt;stroke-linejoin:miter;stroke-opacity:1" d="M 321.906,629.826 321.906,646.47 z" id="boundary" inkscape:connector-curvature="0" />
	<path style="fill:none;stroke:red;stroke-width:1px;stroke-linecap:butt;stroke-linejoin:miter;stroke-opacity:1" d="M 321.906,629.826 330.228,613.181 z" id="boundary" inkscape:connector-curvature="0" />
	<path style="fill:none;stroke:red;stroke-width:1px;stroke-linecap:butt;stroke-linejoin:miter;stroke-opacity:1" d="M 323.57,971.034 336.886,957.718 z" id="boundary" inkscape:connector-curvature="0" />
	<path style="fill:none;stroke:red;stroke-width:1px;stroke-linecap:butt;stroke-linejoin:miter;stroke-opacity:1" d="M 326.899,473.369 330.228,490.013 z" id="boundary" inkscape:connector-curvature="0" />
	<path style="fill:none;stroke:red;stroke-width:1px;stroke-linecap:butt;stroke-linejoin:miter;stroke-opacity:1" d="M 330.228,490.013 330.228,506.658 z" id="boundary" inkscape:connector-curvature="0" />
	<path style="fill:none;stroke:red;stroke-width:1px;stroke-linecap:butt;stroke-linejoin:miter;stroke-opacity:1" d="M 330.228,506.658 338.55,521.638 z" id="boundary" inkscape:connector-curvature="0" />
	<path style="fill:none;stroke:red;stroke-width:1px;stroke-linecap:butt;stroke-linejoin:miter;stroke-opacity:1" d="M 330.228,613.181 343.544,601.53 z" id="boundary" inkscape:connector-curvature="0" />
	<path style="fill:none;stroke:red;stroke-width:1px;stroke-linecap:butt;stroke-linejoin:miter;stroke-opacity:1" d="M 331.893,936.081 336.886,957.718 z" id="boundary" inkscape:connector-curvature="0" />
	<path style="fill:none;stroke:red;stroke-width:1px;stroke-linecap:butt;stroke-linejoin:miter;stroke-opacity:1" d="M 338.55,521.638 346.872,536.617 z" id="boundary" inkscape:connector-curvature="0" />
	<path style="fill:none;stroke:red;stroke-width:1px;stroke-linecap:butt;stroke-linejoin:miter;stroke-opacity:1" d="M 343.544,601.53 346.872,569.906 z" id="boundary" inkscape:connector-curvature="0" />
	<path style="fill:none;stroke:red;stroke-width:1px;stroke-linecap:butt;stroke-linejoin:miter;stroke-opacity:1" d="M 346.872,536.617 346.872,553.262 z" id="boundary" inkscape:connector-curvature="0" />
	<path style="fill:none;stroke:red;stroke-width:1px;stroke-linecap:butt;stroke-linejoin:miter;stroke-opacity:1" d="M 346.872,553.262 346.872,569.906 z" id="boundary" inkscape:connector-curvature="0" />
	<circle cx="4" cy="308.591" r="4" fill="#0" id="circle0"/>
	<circle cx="4" cy="325.235" r="4" fill="#0" id="circle1"/>
	<circle cx="4" cy="341.879" r="4" fill="#0" id="circle2"/>
	<circle cx="4" cy="358.523" r="4" fill="#0" id="circle3"/>
	<circle cx="4" cy="375.168" r="4" fill="#0" id="circle4"/>
	<circle cx="12.3221" cy="291.946" r="4" fill="#0" id="circle5"/>
	<circle cx="12.3221" cy="390.148" r="4" fill="#0" id="circle6"/>
	<circle cx="12.3221" cy="406.792" r="4" fill="#0" id="circle7"/>
	<circle cx="12.3221" cy="423.436" r="4" fill="#0" id="circle8"/>
	<circle cx="12.3221" cy="440.081" r="4" fill="#0" id="circle9"/>
	<circle cx="20.6443" cy="75.5705" r="4" fill="#0" id="circle10"/>
	<circle cx="20.6443" cy="92.2148" r="4" fill="#0" id="circle11"/>
	<circle cx="20.6443" cy="275.302" r="4" fill="#0" id="circle12"/>
	<circle cx="20.6443" cy="455.06" r="4" fill="#0" id="circle13"/>
	<circle cx="20.6443" cy="471.705" r="4" fill="#0" id="circle14"/>
	<circle cx="20.6443" cy="488.349" r="4" fill="#0" id="circle15"/>
	<circle cx="25.6376" cy="504.993" r="4" fill="#0" id="circle16"/>
	<circle cx="28.9664" cy="58.9262" r="4" fill="#0" id="circle17"/>
	<circle cx="28.9664" cy="107.195" r="4" fill="#0" id="circle18"/>
	<circle cx="28.9664" cy="123.839" r="4" fill="#0" id="circle19"/>
	<circle cx="33.9597" cy="261.987" r="4" fill="#0" id="circle20"/>
	<circle cx="33.9597" cy="519.973" r="4" fill="#0" id="circle21"/>
	<circle cx="37.2886" cy="138.819" r="4" fill="#0" id="circle22"/>
	<circle cx="37.2886" cy="536.617" r="4" fill="#0" id="circle23"/>
	<circle cx="37.2886" cy="553.262" r="4" fill="#0" id="circle24"/>
	<circle cx="42.2819" cy="45.6107" r="4" fill="#0" id="circle25"/>
	<circle cx="45.6107" cy="568.242" r="4" fill="#0" id="circle26"/>
	<circle cx="45.6107" cy="584.886" r="4" fill="#0" id="circle27"/>
	<circle cx="45.6107" cy="601.53" r="4" fill="#0" id="circle28"/>
	<circle cx="47.2752" cy="152.134" r="4" fill="#0" id="circle29"/>
	<circle cx="50.604" cy="253.664" r="4" fill="#0" id="circle30"/>
	<circle cx="53.9329" cy="616.51" r="4" fill="#0" id="circle31"/>
	<circle cx="57.2617" cy="37.2886" r="4" fill="#0" id="circle32"/>
	<circle cx="60.5906" cy="163.785" r="4" fill="#0" id="circle33"/>
	<circle cx="62.255" cy="631.49" r="4" fill="#0" id="circle34"/>
	<circle cx="62.255" cy="648.134" r="4" fill="#0" id="circle35"/>
	<circle cx="62.255" cy="664.779" r="4" fill="#0" id="circle36"/>
	<circle cx="63.9195" cy="240.349" r="4" fill="#0" id="circle37"/>
	<circle cx="67.2483" cy="180.43" r="4" fill="#0" id="circle38"/>
	<circle cx="70.5772" cy="25.6376" r="4" fill="#0" id="circle39"/>
	<circle cx="70.5772" cy="217.047" r="4" fill="#0" id="circle40"/>
	<circle cx="73.906" cy="678.094" r="4" fill="#0" id="circle41"/>
	<circle cx="78.8993" cy="193.745" r="4" fill="#0" id="circle42"/>
	<circle cx="83.8926" cy="12.3221" r="4" fill="#0" id="circle43"/>
	<circle cx="87.2215" cy="688.081" r="4" fill="#0" id="circle44"/>
	<circle cx="87.2215" cy="791.275" r="4" fill="#0" id="circle45"/>
	<circle cx="87.2215" cy="807.919" r="4" fill="#0" id="circle46"/>
	<circle cx="87.2215" cy="824.564" r="4" fill="#0" id="circle47"/>
	<circle cx="87.2215" cy="841.208" r="4" fill="#0" id="circle48"/>
	<circle cx="95.5436" cy="703.06" r="4" fill="#0" id="circle49"/>
	<circle cx="95.5436" cy="766.309" r="4" fill="#0" id="circle50"/>
	<circle cx="95.5436" cy="856.188" r="4" fill="#0" id="circle51"/>
	<circle cx="100.537" cy="4" r="4" fill="#0" id="circle52"/>
	<circle cx="103.866" cy="718.04" r="4" fill="#0" id="circle53"/>
	<circle cx="103.866" cy="734.685" r="4" fill="#0" id="circle54"/>
	<circle cx="103.866" cy="751.329" r="4" fill="#0" id="circle55"/>
	<circle cx="103.866" cy="871.168" r="4" fill="#0" id="circle56"/>
	<circle cx="103.866" cy="924.43" r="4" fill="#0" id="circle57"/>
	<circle cx="103.866" cy="941.074" r="4" fill="#0" id="circle58"/>
	<circle cx="108.859" cy="887.812" r="4" fill="#0" id="circle59"/>
	<circle cx="112.188" cy="904.456" r="4" fill="#0" id="circle60"/>
	<circle cx="112.188" cy="956.054" r="4" fill="#0" id="circle61"/>
	<circle cx="117.181" cy="4" r="4" fill="#0" id="circle62"/>
	<circle cx="120.51" cy="971.034" r="4" fill="#0" id="circle63"/>
	<circle cx="130.497" cy="984.349" r="4" fill="#0" id="circle64"/>
	<circle cx="133.826" cy="4" r="4" fill="#0" id="circle65"/>
	<circle cx="147.141" cy="987.678" r="4" fill="#0" id="circle66"/>
	<circle cx="150.47" cy="4" r="4" fill="#0" id="circle67"/>
	<circle cx="163.785" cy="987.678" r="4" fill="#0" id="circle68"/>
	<circle cx="167.114" cy="4" r="4" fill="#0" id="circle69"/>
	<circle cx="178.765" cy="996" r="4" fill="#0" id="circle70"/>
	<circle cx="183.758" cy="4" r="4" fill="#0" id="circle71"/>
	<circle cx="195.409" cy="996" r="4" fill="#0" id="circle72"/>
	<circle cx="198.738" cy="12.3221" r="4" fill="#0" id="circle73"/>
	<circle cx="212.054" cy="996" r="4" fill="#0" id="circle74"/>
	<circle cx="213.718" cy="20.6443" r="4" fill="#0" id="circle75"/>
	<circle cx="228.698" cy="28.9664" r="4" fill="#0" id="circle76"/>
	<circle cx="228.698" cy="996" r="4" fill="#0" id="circle77"/>
	<circle cx="242.013" cy="38.953" r="4" fill="#0" id="circle78"/>
	<circle cx="245.342" cy="996" r="4" fill="#0" id="circle79"/>
	<circle cx="255.329" cy="50.604" r="4" fill="#0" id="circle80"/>
	<circle cx="255.329" cy="230.362" r="4" fill="#0" id="circle81"/>
	<circle cx="255.329" cy="871.168" r="4" fill="#0" id="circle82"/>
	<circle cx="258.658" cy="247.007" r="4" fill="#0" id="circle83"/>
	<circle cx="261.987" cy="996" r="4" fill="#0" id="circle84"/>
	<circle cx="263.651" cy="188.752" r="4" fill="#0" id="circle85"/>
	<circle cx="263.651" cy="205.396" r="4" fill="#0" id="circle86"/>
	<circle cx="263.651" cy="846.201" r="4" fill="#0" id="circle87"/>
	<circle cx="263.651" cy="886.148" r="4" fill="#0" id="circle88"/>
	<circle cx="266.98" cy="63.9195" r="4" fill="#0" id="circle89"/>
	<circle cx="266.98" cy="261.987" r="4" fill="#0" id="circle90"/>
	<circle cx="271.973" cy="80.5638" r="4" fill="#0" id="circle91"/>
	<circle cx="271.973" cy="122.174" r="4" fill="#0" id="circle92"/>
	<circle cx="271.973" cy="138.819" r="4" fill="#0" id="circle93"/>
	<circle cx="271.973" cy="155.463" r="4" fill="#0" id="circle94"/>
	<circle cx="271.973" cy="172.107" r="4" fill="#0" id="circle95"/>
	<circle cx="271.973" cy="821.235" r="4" fill="#0" id="circle96"/>
	<circle cx="271.973" cy="901.128" r="4" fill="#0" id="circle97"/>
	<circle cx="278.631" cy="275.302" r="4" fill="#0" id="circle98"/>
	<circle cx="278.631" cy="991.007" r="4" fill="#0" id="circle99"/>
	<circle cx="280.295" cy="95.5436" r="4" fill="#0" id="circle100"/>
	<circle cx="280.295" cy="779.624" r="4" fill="#0" id="circle101"/>
	<circle cx="280.295" cy="796.268" r="4" fill="#0" id="circle102"/>
	<circle cx="286.953" cy="290.282" r="4" fill="#0" id="circle103"/>
	<circle cx="288.617" cy="306.926" r="4" fill="#0" id="circle104"/>
	<circle cx="288.617" cy="323.57" r="4" fill="#0" id="circle105"/>
	<circle cx="288.617" cy="380.161" r="4" fill="#0" id="circle106"/>
	<circle cx="288.617" cy="754.658" r="4" fill="#0" id="circle107"/>
	<circle cx="288.617" cy="907.785" r="4" fill="#0" id="circle108"/>
	<circle cx="291.946" cy="979.356" r="4" fill="#0" id="circle109"/>
	<circle cx="296.94" cy="338.55" r="4" fill="#0" id="circle110"/>
	<circle cx="296.94" cy="355.195" r="4" fill="#0" id="circle111"/>
	<circle cx="296.94" cy="395.141" r="4" fill="#0" id="circle112"/>
	<circle cx="296.94" cy="671.436" r="4" fill="#0" id="circle113"/>
	<circle cx="296.94" cy="688.081" r="4" fill="#0" id="circle114"/>
	<circle cx="296.94" cy="704.725" r="4" fill="#0" id="circle115"/>
	<circle cx="296.94" cy="721.369" r="4" fill="#0" id="circle116"/>
	<circle cx="296.94" cy="738.013" r="4" fill="#0" id="circle117"/>
	<circle cx="301.933" cy="919.436" r="4" fill="#0" id="circle118"/>
	<circle cx="305.262" cy="410.121" r="4" fill="#0" id="circle119"/>
	<circle cx="306.926" cy="971.034" r="4" fill="#0" id="circle120"/>
	<circle cx="310.255" cy="659.785" r="4" fill="#0" id="circle121"/>
	<circle cx="313.584" cy="425.101" r="4" fill="#0" id="circle122"/>
	<circle cx="313.584" cy="441.745" r="4" fill="#0" id="circle123"/>
	<circle cx="316.913" cy="927.758" r="4" fill="#0" id="circle124"/>
	<circle cx="321.906" cy="456.725" r="4" fill="#0" id="circle125"/>
	<circle cx="321.906" cy="629.826" r="4" fill="#0" id="circle126"/>
	<circle cx="321.906" cy="646.47" r="4" fill="#0" id="circle127"/>
	<circle cx="323.57" cy="971.034" r="4" fill="#0" id="circle128"/>
	<circle cx="326.899" cy="473.369" r="4" fill="#0" id="circle129"/>
	<circle cx="330.228" cy="490.013" r="4" fill="#0" id="circle130"/>
	<circle cx="330.228" cy="506.658" r="4" fill="#0" id="circle131"/>
	<circle cx="330.228" cy="613.181" r="4" fill="#0" id="circle132"/>
	<circle cx="331.893" cy="936.081" r="4" fill="#0" id="circle133"/>
	<circle cx="336.886" cy="957.718" r="4" fill="#0" id="circle134"/>
	<circle cx="338.55" cy="521.638" r="4" fill="#0" id="circle135"/>
	<circle cx="343.544" cy="601.53" r="4" fill="#0" id="circle136"/>
	<circle cx="346.872" cy="536.617" r="4" fill="#0" id="circle137"/>
	<circle cx="346.872" cy="553.262" r="4" fill="#0" id="circle138"/>
	<circle cx="346.872" cy="569.906" r="4" fill="#0" id="circle139"/>
	</g>
</svg>