<?xml version="1.0" encoding="UTF-8" standalone="no"?>
<!-- Created with CurveBenchmark -->
<svg
	xmlns:dc="http://purl.org/dc/elements/1.1/"
	xmlns:cc="http://creativecommons.org/ns#"
	xmlns:rdf="http://www.w3.org/1999/02/22-rdf-syntax-ns#"
	xmlns:svg="http://www.w3.org/2000/svg"
	xmlns="http://www.w3.org/2000/svg"
	xmlns:sodipodi="http://sodipodi.sourceforge.net/DTD/sodipodi-0.dtd"
	xmlns:inkscape="http://www.inkscape.org/namespaces/inkscape"
	width="1000"
	height="1000"
	id="svg2"
	version="1.1"
	sodipodi:docname="manifold/discur-mgen2ep.png.txt">
<defs
	id="defs4" />
<metadata
	id="metadata7">
	<rdf:RDF>
		<cc:Work
			rdf:about="">
			<dc:format>image/svg+xml</dc:format>
			<dc:type
				rdf:resource="http://purl.org/dc/dcmitype/StillImage" />
			<dc:title></dc:title>
		</cc:Work>
	</rdf:RDF>
</metadata>
<g
	inkscape:label="Layer 1"
	inkscape:groupmode="layer"
	id="layer1">
	<path style="fill:none;stroke:red;stroke-width:1px;stroke-linecap:butt;stroke-linejoin:miter;stroke-opacity:1" d="M 4,693.054 13.9002,710.874 z" id="boundary" inkscape:connector-curvature="0" />
	<path style="fill:none;stroke:red;stroke-width:1px;stroke-linecap:butt;stroke-linejoin:miter;stroke-opacity:1" d="M 4,693.054 23.8004,683.154 z" id="boundary" inkscape:connector-curvature="0" />
	<path style="fill:none;stroke:red;stroke-width:1px;stroke-linecap:butt;stroke-linejoin:miter;stroke-opacity:1" d="M 13.9002,710.874 23.8004,728.695 z" id="boundary" inkscape:connector-curvature="0" />
	<path style="fill:none;stroke:red;stroke-width:1px;stroke-linecap:butt;stroke-linejoin:miter;stroke-opacity:1" d="M 23.8004,683.154 39.6407,667.313 z" id="boundary" inkscape:connector-curvature="0" />
	<path style="fill:none;stroke:red;stroke-width:1px;stroke-linecap:butt;stroke-linejoin:miter;stroke-opacity:1" d="M 23.8004,728.695 41.6208,738.595 z" id="boundary" inkscape:connector-curvature="0" />
	<path style="fill:none;stroke:red;stroke-width:1px;stroke-linecap:butt;stroke-linejoin:miter;stroke-opacity:1" d="M 39.6407,667.313 55.481,651.473 z" id="boundary" inkscape:connector-curvature="0" />
	<path style="fill:none;stroke:red;stroke-width:1px;stroke-linecap:butt;stroke-linejoin:miter;stroke-opacity:1" d="M 41.6208,738.595 59.4411,748.495 z" id="boundary" inkscape:connector-curvature="0" />
	<path style="fill:none;stroke:red;stroke-width:1px;stroke-linecap:butt;stroke-linejoin:miter;stroke-opacity:1" d="M 55.481,651.473 71.3214,637.613 z" id="boundary" inkscape:connector-curvature="0" />
	<path style="fill:none;stroke:red;stroke-width:1px;stroke-linecap:butt;stroke-linejoin:miter;stroke-opacity:1" d="M 59.4411,748.495 77.2615,758.395 z" id="boundary" inkscape:connector-curvature="0" />
	<path style="fill:none;stroke:red;stroke-width:1px;stroke-linecap:butt;stroke-linejoin:miter;stroke-opacity:1" d="M 71.3214,637.613 91.1218,637.613 z" id="boundary" inkscape:connector-curvature="0" />
	<path style="fill:none;stroke:red;stroke-width:1px;stroke-linecap:butt;stroke-linejoin:miter;stroke-opacity:1" d="M 77.2615,758.395 97.0619,758.395 z" id="boundary" inkscape:connector-curvature="0" />
	<path style="fill:none;stroke:red;stroke-width:1px;stroke-linecap:butt;stroke-linejoin:miter;stroke-opacity:1" d="M 91.1218,637.613 108.942,627.713 z" id="boundary" inkscape:connector-curvature="0" />
	<path style="fill:none;stroke:red;stroke-width:1px;stroke-linecap:butt;stroke-linejoin:miter;stroke-opacity:1" d="M 93.1018,79.2415 103.002,97.0619 z" id="boundary" inkscape:connector-curvature="0" />
	<path style="fill:none;stroke:red;stroke-width:1px;stroke-linecap:butt;stroke-linejoin:miter;stroke-opacity:1" d="M 93.1018,79.2415 112.902,73.3014 z" id="boundary" inkscape:connector-curvature="0" />
	<path style="fill:none;stroke:red;stroke-width:1px;stroke-linecap:butt;stroke-linejoin:miter;stroke-opacity:1" d="M 97.0619,758.395 116.862,764.335 z" id="boundary" inkscape:connector-curvature="0" />
	<path style="fill:none;stroke:red;stroke-width:1px;stroke-linecap:butt;stroke-linejoin:miter;stroke-opacity:1" d="M 103.002,97.0619 112.902,114.882 z" id="boundary" inkscape:connector-curvature="0" />
	<path style="fill:none;stroke:red;stroke-width:1px;stroke-linecap:butt;stroke-linejoin:miter;stroke-opacity:1" d="M 108.942,627.713 128.743,617.812 z" id="boundary" inkscape:connector-curvature="0" />
	<path style="fill:none;stroke:red;stroke-width:1px;stroke-linecap:butt;stroke-linejoin:miter;stroke-opacity:1" d="M 112.902,73.3014 132.703,73.3014 z" id="boundary" inkscape:connector-curvature="0" />
	<path style="fill:none;stroke:red;stroke-width:1px;stroke-linecap:butt;stroke-linejoin:miter;stroke-opacity:1" d="M 112.902,114.882 124.782,130.723 z" id="boundary" inkscape:connector-curvature="0" />
	<path style="fill:none;stroke:red;stroke-width:1px;stroke-linecap:butt;stroke-linejoin:miter;stroke-opacity:1" d="M 116.862,764.335 136.663,758.395 z" id="boundary" inkscape:connector-curvature="0" />
	<path style="fill:none;stroke:red;stroke-width:1px;stroke-linecap:butt;stroke-linejoin:miter;stroke-opacity:1" d="M 124.782,130.723 140.623,144.583 z" id="boundary" inkscape:connector-curvature="0" />
	<path style="fill:none;stroke:red;stroke-width:1px;stroke-linecap:butt;stroke-linejoin:miter;stroke-opacity:1" d="M 128.743,617.812 148.543,617.812 z" id="boundary" inkscape:connector-curvature="0" />
	<path style="fill:none;stroke:red;stroke-width:1px;stroke-linecap:butt;stroke-linejoin:miter;stroke-opacity:1" d="M 132.703,73.3014 152.503,77.2615 z" id="boundary" inkscape:connector-curvature="0" />
	<path style="fill:none;stroke:red;stroke-width:1px;stroke-linecap:butt;stroke-linejoin:miter;stroke-opacity:1" d="M 136.663,758.395 156.463,758.395 z" id="boundary" inkscape:connector-curvature="0" />
	<path style="fill:none;stroke:red;stroke-width:1px;stroke-linecap:butt;stroke-linejoin:miter;stroke-opacity:1" d="M 140.623,144.583 158.443,154.483 z" id="boundary" inkscape:connector-curvature="0" />
	<path style="fill:none;stroke:red;stroke-width:1px;stroke-linecap:butt;stroke-linejoin:miter;stroke-opacity:1" d="M 142.603,455.449 142.603,475.25 z" id="boundary" inkscape:connector-curvature="0" />
	<path style="fill:none;stroke:red;stroke-width:1px;stroke-linecap:butt;stroke-linejoin:miter;stroke-opacity:1" d="M 142.603,455.449 158.443,439.609 z" id="boundary" inkscape:connector-curvature="0" />
	<path style="fill:none;stroke:red;stroke-width:1px;stroke-linecap:butt;stroke-linejoin:miter;stroke-opacity:1" d="M 142.603,475.25 142.603,495.05 z" id="boundary" inkscape:connector-curvature="0" />
	<path style="fill:none;stroke:red;stroke-width:1px;stroke-linecap:butt;stroke-linejoin:miter;stroke-opacity:1" d="M 142.603,495.05 142.603,514.85 z" id="boundary" inkscape:connector-curvature="0" />
	<path style="fill:none;stroke:red;stroke-width:1px;stroke-linecap:butt;stroke-linejoin:miter;stroke-opacity:1" d="M 142.603,514.85 142.603,534.651 z" id="boundary" inkscape:connector-curvature="0" />
	<path style="fill:none;stroke:red;stroke-width:1px;stroke-linecap:butt;stroke-linejoin:miter;stroke-opacity:1" d="M 142.603,534.651 142.603,554.451 z" id="boundary" inkscape:connector-curvature="0" />
	<path style="fill:none;stroke:red;stroke-width:1px;stroke-linecap:butt;stroke-linejoin:miter;stroke-opacity:1" d="M 142.603,554.451 152.503,572.271 z" id="boundary" inkscape:connector-curvature="0" />
	<path style="fill:none;stroke:red;stroke-width:1px;stroke-linecap:butt;stroke-linejoin:miter;stroke-opacity:1" d="M 148.543,617.812 152.503,592.072 z" id="boundary" inkscape:connector-curvature="0" />
	<path style="fill:none;stroke:red;stroke-width:1px;stroke-linecap:butt;stroke-linejoin:miter;stroke-opacity:1" d="M 152.503,77.2615 170.323,87.1617 z" id="boundary" inkscape:connector-curvature="0" />
	<path style="fill:none;stroke:red;stroke-width:1px;stroke-linecap:butt;stroke-linejoin:miter;stroke-opacity:1" d="M 152.503,247.545 168.343,231.705 z" id="boundary" inkscape:connector-curvature="0" />
	<path style="fill:none;stroke:red;stroke-width:1px;stroke-linecap:butt;stroke-linejoin:miter;stroke-opacity:1" d="M 152.503,247.545 168.343,261.405 z" id="boundary" inkscape:connector-curvature="0" />
	<path style="fill:none;stroke:red;stroke-width:1px;stroke-linecap:butt;stroke-linejoin:miter;stroke-opacity:1" d="M 152.503,572.271 152.503,592.072 z" id="boundary" inkscape:connector-curvature="0" />
	<path style="fill:none;stroke:red;stroke-width:1px;stroke-linecap:butt;stroke-linejoin:miter;stroke-opacity:1" d="M 156.463,758.395 176.263,758.395 z" id="boundary" inkscape:connector-curvature="0" />
	<path style="fill:none;stroke:red;stroke-width:1px;stroke-linecap:butt;stroke-linejoin:miter;stroke-opacity:1" d="M 158.443,154.483 176.263,164.383 z" id="boundary" inkscape:connector-curvature="0" />
	<path style="fill:none;stroke:red;stroke-width:1px;stroke-linecap:butt;stroke-linejoin:miter;stroke-opacity:1" d="M 158.443,439.609 168.343,419.808 z" id="boundary" inkscape:connector-curvature="0" />
	<path style="fill:none;stroke:red;stroke-width:1px;stroke-linecap:butt;stroke-linejoin:miter;stroke-opacity:1" d="M 168.343,231.705 188.144,221.804 z" id="boundary" inkscape:connector-curvature="0" />
	<path style="fill:none;stroke:red;stroke-width:1px;stroke-linecap:butt;stroke-linejoin:miter;stroke-opacity:1" d="M 168.343,261.405 184.184,273.285 z" id="boundary" inkscape:connector-curvature="0" />
	<path style="fill:none;stroke:red;stroke-width:1px;stroke-linecap:butt;stroke-linejoin:miter;stroke-opacity:1" d="M 168.343,419.808 178.244,400.008 z" id="boundary" inkscape:connector-curvature="0" />
	<path style="fill:none;stroke:red;stroke-width:1px;stroke-linecap:butt;stroke-linejoin:miter;stroke-opacity:1" d="M 170.323,87.1617 184.184,103.002 z" id="boundary" inkscape:connector-curvature="0" />
	<path style="fill:none;stroke:red;stroke-width:1px;stroke-linecap:butt;stroke-linejoin:miter;stroke-opacity:1" d="M 176.263,164.383 192.104,176.263 z" id="boundary" inkscape:connector-curvature="0" />
	<path style="fill:none;stroke:red;stroke-width:1px;stroke-linecap:butt;stroke-linejoin:miter;stroke-opacity:1" d="M 176.263,758.395 194.084,748.495 z" id="boundary" inkscape:connector-curvature="0" />
	<path style="fill:none;stroke:red;stroke-width:1px;stroke-linecap:butt;stroke-linejoin:miter;stroke-opacity:1" d="M 178.244,400.008 192.104,376.248 z" id="boundary" inkscape:connector-curvature="0" />
	<path style="fill:none;stroke:red;stroke-width:1px;stroke-linecap:butt;stroke-linejoin:miter;stroke-opacity:1" d="M 184.184,103.002 203.984,108.942 z" id="boundary" inkscape:connector-curvature="0" />
	<path style="fill:none;stroke:red;stroke-width:1px;stroke-linecap:butt;stroke-linejoin:miter;stroke-opacity:1" d="M 184.184,273.285 196.064,289.126 z" id="boundary" inkscape:connector-curvature="0" />
	<path style="fill:none;stroke:red;stroke-width:1px;stroke-linecap:butt;stroke-linejoin:miter;stroke-opacity:1" d="M 188.144,221.804 207.944,221.804 z" id="boundary" inkscape:connector-curvature="0" />
	<path style="fill:none;stroke:red;stroke-width:1px;stroke-linecap:butt;stroke-linejoin:miter;stroke-opacity:1" d="M 192.104,176.263 211.904,184.184 z" id="boundary" inkscape:connector-curvature="0" />
	<path style="fill:none;stroke:red;stroke-width:1px;stroke-linecap:butt;stroke-linejoin:miter;stroke-opacity:1" d="M 192.104,376.248 207.944,360.407 z" id="boundary" inkscape:connector-curvature="0" />
	<path style="fill:none;stroke:red;stroke-width:1px;stroke-linecap:butt;stroke-linejoin:miter;stroke-opacity:1" d="M 194.084,748.495 213.884,748.495 z" id="boundary" inkscape:connector-curvature="0" />
	<path style="fill:none;stroke:red;stroke-width:1px;stroke-linecap:butt;stroke-linejoin:miter;stroke-opacity:1" d="M 196.064,289.126 215.864,289.126 z" id="boundary" inkscape:connector-curvature="0" />
	<path style="fill:none;stroke:red;stroke-width:1px;stroke-linecap:butt;stroke-linejoin:miter;stroke-opacity:1" d="M 203.984,108.942 219.824,122.802 z" id="boundary" inkscape:connector-curvature="0" />
	<path style="fill:none;stroke:red;stroke-width:1px;stroke-linecap:butt;stroke-linejoin:miter;stroke-opacity:1" d="M 207.944,221.804 221.804,202.004 z" id="boundary" inkscape:connector-curvature="0" />
	<path style="fill:none;stroke:red;stroke-width:1px;stroke-linecap:butt;stroke-linejoin:miter;stroke-opacity:1" d="M 207.944,360.407 223.784,344.567 z" id="boundary" inkscape:connector-curvature="0" />
	<path style="fill:none;stroke:red;stroke-width:1px;stroke-linecap:butt;stroke-linejoin:miter;stroke-opacity:1" d="M 211.904,184.184 221.804,202.004 z" id="boundary" inkscape:connector-curvature="0" />
	<path style="fill:none;stroke:red;stroke-width:1px;stroke-linecap:butt;stroke-linejoin:miter;stroke-opacity:1" d="M 213.884,748.495 231.705,758.395 z" id="boundary" inkscape:connector-curvature="0" />
	<path style="fill:none;stroke:red;stroke-width:1px;stroke-linecap:butt;stroke-linejoin:miter;stroke-opacity:1" d="M 215.864,289.126 233.685,299.026 z" id="boundary" inkscape:connector-curvature="0" />
	<path style="fill:none;stroke:red;stroke-width:1px;stroke-linecap:butt;stroke-linejoin:miter;stroke-opacity:1" d="M 219.824,122.802 239.625,124.782 z" id="boundary" inkscape:connector-curvature="0" />
	<path style="fill:none;stroke:red;stroke-width:1px;stroke-linecap:butt;stroke-linejoin:miter;stroke-opacity:1" d="M 221.804,782.156 221.804,801.956 z" id="boundary" inkscape:connector-curvature="0" />
	<path style="fill:none;stroke:red;stroke-width:1px;stroke-linecap:butt;stroke-linejoin:miter;stroke-opacity:1" d="M 221.804,782.156 231.705,758.395 z" id="boundary" inkscape:connector-curvature="0" />
	<path style="fill:none;stroke:red;stroke-width:1px;stroke-linecap:butt;stroke-linejoin:miter;stroke-opacity:1" d="M 221.804,801.956 221.804,821.756 z" id="boundary" inkscape:connector-curvature="0" />
	<path style="fill:none;stroke:red;stroke-width:1px;stroke-linecap:butt;stroke-linejoin:miter;stroke-opacity:1" d="M 221.804,821.756 231.705,839.577 z" id="boundary" inkscape:connector-curvature="0" />
	<path style="fill:none;stroke:red;stroke-width:1px;stroke-linecap:butt;stroke-linejoin:miter;stroke-opacity:1" d="M 221.804,861.357 231.705,839.577 z" id="boundary" inkscape:connector-curvature="0" />
	<path style="fill:none;stroke:red;stroke-width:1px;stroke-linecap:butt;stroke-linejoin:miter;stroke-opacity:1" d="M 221.804,861.357 231.705,879.178 z" id="boundary" inkscape:connector-curvature="0" />
	<path style="fill:none;stroke:red;stroke-width:1px;stroke-linecap:butt;stroke-linejoin:miter;stroke-opacity:1" d="M 223.784,344.567 241.605,318.826 z" id="boundary" inkscape:connector-curvature="0" />
	<path style="fill:none;stroke:red;stroke-width:1px;stroke-linecap:butt;stroke-linejoin:miter;stroke-opacity:1" d="M 231.705,879.178 241.605,896.998 z" id="boundary" inkscape:connector-curvature="0" />
	<path style="fill:none;stroke:red;stroke-width:1px;stroke-linecap:butt;stroke-linejoin:miter;stroke-opacity:1" d="M 233.685,299.026 241.605,318.826 z" id="boundary" inkscape:connector-curvature="0" />
	<path style="fill:none;stroke:red;stroke-width:1px;stroke-linecap:butt;stroke-linejoin:miter;stroke-opacity:1" d="M 239.625,124.782 257.445,112.902 z" id="boundary" inkscape:connector-curvature="0" />
	<path style="fill:none;stroke:red;stroke-width:1px;stroke-linecap:butt;stroke-linejoin:miter;stroke-opacity:1" d="M 241.605,896.998 253.485,912.838 z" id="boundary" inkscape:connector-curvature="0" />
	<path style="fill:none;stroke:red;stroke-width:1px;stroke-linecap:butt;stroke-linejoin:miter;stroke-opacity:1" d="M 253.485,912.838 269.325,926.699 z" id="boundary" inkscape:connector-curvature="0" />
	<path style="fill:none;stroke:red;stroke-width:1px;stroke-linecap:butt;stroke-linejoin:miter;stroke-opacity:1" d="M 257.445,112.902 273.285,97.0619 z" id="boundary" inkscape:connector-curvature="0" />
	<path style="fill:none;stroke:red;stroke-width:1px;stroke-linecap:butt;stroke-linejoin:miter;stroke-opacity:1" d="M 269.325,926.699 277.246,946.499 z" id="boundary" inkscape:connector-curvature="0" />
	<path style="fill:none;stroke:red;stroke-width:1px;stroke-linecap:butt;stroke-linejoin:miter;stroke-opacity:1" d="M 273.285,97.0619 283.186,77.2615 z" id="boundary" inkscape:connector-curvature="0" />
	<path style="fill:none;stroke:red;stroke-width:1px;stroke-linecap:butt;stroke-linejoin:miter;stroke-opacity:1" d="M 277.246,946.499 297.046,954.419 z" id="boundary" inkscape:connector-curvature="0" />
	<path style="fill:none;stroke:red;stroke-width:1px;stroke-linecap:butt;stroke-linejoin:miter;stroke-opacity:1" d="M 283.186,77.2615 299.026,63.4012 z" id="boundary" inkscape:connector-curvature="0" />
	<path style="fill:none;stroke:red;stroke-width:1px;stroke-linecap:butt;stroke-linejoin:miter;stroke-opacity:1" d="M 297.046,954.419 312.886,966.299 z" id="boundary" inkscape:connector-curvature="0" />
	<path style="fill:none;stroke:red;stroke-width:1px;stroke-linecap:butt;stroke-linejoin:miter;stroke-opacity:1" d="M 299.026,63.4012 316.846,53.501 z" id="boundary" inkscape:connector-curvature="0" />
	<path style="fill:none;stroke:red;stroke-width:1px;stroke-linecap:butt;stroke-linejoin:miter;stroke-opacity:1" d="M 312.886,966.299 330.707,976.2 z" id="boundary" inkscape:connector-curvature="0" />
	<path style="fill:none;stroke:red;stroke-width:1px;stroke-linecap:butt;stroke-linejoin:miter;stroke-opacity:1" d="M 316.846,53.501 334.667,43.6008 z" id="boundary" inkscape:connector-curvature="0" />
	<path style="fill:none;stroke:red;stroke-width:1px;stroke-linecap:butt;stroke-linejoin:miter;stroke-opacity:1" d="M 330.707,976.2 350.507,976.2 z" id="boundary" inkscape:connector-curvature="0" />
	<path style="fill:none;stroke:red;stroke-width:1px;stroke-linecap:butt;stroke-linejoin:miter;stroke-opacity:1" d="M 334.667,43.6008 352.487,33.7006 z" id="boundary" inkscape:connector-curvature="0" />
	<path style="fill:none;stroke:red;stroke-width:1px;stroke-linecap:butt;stroke-linejoin:miter;stroke-opacity:1" d="M 350.507,976.2 368.327,986.1 z" id="boundary" inkscape:connector-curvature="0" />
	<path style="fill:none;stroke:red;stroke-width:1px;stroke-linecap:butt;stroke-linejoin:miter;stroke-opacity:1" d="M 352.487,33.7006 370.307,23.8004 z" id="boundary" inkscape:connector-curvature="0" />
	<path style="fill:none;stroke:red;stroke-width:1px;stroke-linecap:butt;stroke-linejoin:miter;stroke-opacity:1" d="M 368.327,986.1 386.148,996 z" id="boundary" inkscape:connector-curvature="0" />
	<path style="fill:none;stroke:red;stroke-width:1px;stroke-linecap:butt;stroke-linejoin:miter;stroke-opacity:1" d="M 370.307,23.8004 388.128,13.9002 z" id="boundary" inkscape:connector-curvature="0" />
	<path style="fill:none;stroke:red;stroke-width:1px;stroke-linecap:butt;stroke-linejoin:miter;stroke-opacity:1" d="M 386.148,996 403.968,986.1 z" id="boundary" inkscape:connector-curvature="0" />
	<path style="fill:none;stroke:red;stroke-width:1px;stroke-linecap:butt;stroke-linejoin:miter;stroke-opacity:1" d="M 388.128,13.9002 407.928,13.9002 z" id="boundary" inkscape:connector-curvature="0" />
	<path style="fill:none;stroke:red;stroke-width:1px;stroke-linecap:butt;stroke-linejoin:miter;stroke-opacity:1" d="M 403.968,986.1 423.768,992.04 z" id="boundary" inkscape:connector-curvature="0" />
	<path style="fill:none;stroke:red;stroke-width:1px;stroke-linecap:butt;stroke-linejoin:miter;stroke-opacity:1" d="M 407.928,13.9002 425.749,4 z" id="boundary" inkscape:connector-curvature="0" />
	<path style="fill:none;stroke:red;stroke-width:1px;stroke-linecap:butt;stroke-linejoin:miter;stroke-opacity:1" d="M 423.768,992.04 443.569,986.1 z" id="boundary" inkscape:connector-curvature="0" />
	<path style="fill:none;stroke:red;stroke-width:1px;stroke-linecap:butt;stroke-linejoin:miter;stroke-opacity:1" d="M 425.749,4 445.549,4 z" id="boundary" inkscape:connector-curvature="0" />
	<path style="fill:none;stroke:red;stroke-width:1px;stroke-linecap:butt;stroke-linejoin:miter;stroke-opacity:1" d="M 443.569,986.1 463.369,986.1 z" id="boundary" inkscape:connector-curvature="0" />
	<path style="fill:none;stroke:red;stroke-width:1px;stroke-linecap:butt;stroke-linejoin:miter;stroke-opacity:1" d="M 445.549,4 465.349,4 z" id="boundary" inkscape:connector-curvature="0" />
	<path style="fill:none;stroke:red;stroke-width:1px;stroke-linecap:butt;stroke-linejoin:miter;stroke-opacity:1" d="M 463.369,986.1 481.19,976.2 z" id="boundary" inkscape:connector-curvature="0" />
	<path style="fill:none;stroke:red;stroke-width:1px;stroke-linecap:butt;stroke-linejoin:miter;stroke-opacity:1" d="M 465.349,4 485.15,4 z" id="boundary" inkscape:connector-curvature="0" />
	<path style="fill:none;stroke:red;stroke-width:1px;stroke-linecap:butt;stroke-linejoin:miter;stroke-opacity:1" d="M 481.19,976.2 500.99,976.2 z" id="boundary" inkscape:connector-curvature="0" />
	<path style="fill:none;stroke:red;stroke-width:1px;stroke-linecap:butt;stroke-linejoin:miter;stroke-opacity:1" d="M 485.15,4 504.95,4 z" id="boundary" inkscape:connector-curvature="0" />
	<path style="fill:none;stroke:red;stroke-width:1px;stroke-linecap:butt;stroke-linejoin:miter;stroke-opacity:1" d="M 500.99,976.2 518.81,966.299 z" id="boundary" inkscape:connector-curvature="0" />
	<path style="fill:none;stroke:red;stroke-width:1px;stroke-linecap:butt;stroke-linejoin:miter;stroke-opacity:1" d="M 504.95,4 522.77,13.9002 z" id="boundary" inkscape:connector-curvature="0" />
	<path style="fill:none;stroke:red;stroke-width:1px;stroke-linecap:butt;stroke-linejoin:miter;stroke-opacity:1" d="M 518.81,966.299 538.611,960.359 z" id="boundary" inkscape:connector-curvature="0" />
	<path style="fill:none;stroke:red;stroke-width:1px;stroke-linecap:butt;stroke-linejoin:miter;stroke-opacity:1" d="M 522.77,13.9002 540.591,23.8004 z" id="boundary" inkscape:connector-curvature="0" />
	<path style="fill:none;stroke:red;stroke-width:1px;stroke-linecap:butt;stroke-linejoin:miter;stroke-opacity:1" d="M 538.611,960.359 558.411,950.459 z" id="boundary" inkscape:connector-curvature="0" />
	<path style="fill:none;stroke:red;stroke-width:1px;stroke-linecap:butt;stroke-linejoin:miter;stroke-opacity:1" d="M 540.591,23.8004 560.391,29.7405 z" id="boundary" inkscape:connector-curvature="0" />
	<path style="fill:none;stroke:red;stroke-width:1px;stroke-linecap:butt;stroke-linejoin:miter;stroke-opacity:1" d="M 558.411,950.459 574.251,936.599 z" id="boundary" inkscape:connector-curvature="0" />
	<path style="fill:none;stroke:red;stroke-width:1px;stroke-linecap:butt;stroke-linejoin:miter;stroke-opacity:1" d="M 560.391,29.7405 578.212,39.6407 z" id="boundary" inkscape:connector-curvature="0" />
	<path style="fill:none;stroke:red;stroke-width:1px;stroke-linecap:butt;stroke-linejoin:miter;stroke-opacity:1" d="M 574.251,936.599 592.072,926.699 z" id="boundary" inkscape:connector-curvature="0" />
	<path style="fill:none;stroke:red;stroke-width:1px;stroke-linecap:butt;stroke-linejoin:miter;stroke-opacity:1" d="M 578.212,39.6407 594.052,53.501 z" id="boundary" inkscape:connector-curvature="0" />
	<path style="fill:none;stroke:red;stroke-width:1px;stroke-linecap:butt;stroke-linejoin:miter;stroke-opacity:1" d="M 592.072,926.699 607.912,910.858 z" id="boundary" inkscape:connector-curvature="0" />
	<path style="fill:none;stroke:red;stroke-width:1px;stroke-linecap:butt;stroke-linejoin:miter;stroke-opacity:1" d="M 594.052,53.501 611.872,63.4012 z" id="boundary" inkscape:connector-curvature="0" />
	<path style="fill:none;stroke:red;stroke-width:1px;stroke-linecap:butt;stroke-linejoin:miter;stroke-opacity:1" d="M 607.912,910.858 619.792,887.098 z" id="boundary" inkscape:connector-curvature="0" />
	<path style="fill:none;stroke:red;stroke-width:1px;stroke-linecap:butt;stroke-linejoin:miter;stroke-opacity:1" d="M 611.872,63.4012 619.792,83.2016 z" id="boundary" inkscape:connector-curvature="0" />
	<path style="fill:none;stroke:red;stroke-width:1px;stroke-linecap:butt;stroke-linejoin:miter;stroke-opacity:1" d="M 619.792,83.2016 635.633,95.0818 z" id="boundary" inkscape:connector-curvature="0" />
	<path style="fill:none;stroke:red;stroke-width:1px;stroke-linecap:butt;stroke-linejoin:miter;stroke-opacity:1" d="M 619.792,887.098 635.633,873.238 z" id="boundary" inkscape:connector-curvature="0" />
	<path style="fill:none;stroke:red;stroke-width:1px;stroke-linecap:butt;stroke-linejoin:miter;stroke-opacity:1" d="M 635.633,95.0818 643.553,114.882 z" id="boundary" inkscape:connector-curvature="0" />
	<path style="fill:none;stroke:red;stroke-width:1px;stroke-linecap:butt;stroke-linejoin:miter;stroke-opacity:1" d="M 635.633,873.238 645.533,853.437 z" id="boundary" inkscape:connector-curvature="0" />
	<path style="fill:none;stroke:red;stroke-width:1px;stroke-linecap:butt;stroke-linejoin:miter;stroke-opacity:1" d="M 643.553,114.882 653.453,132.703 z" id="boundary" inkscape:connector-curvature="0" />
	<path style="fill:none;stroke:red;stroke-width:1px;stroke-linecap:butt;stroke-linejoin:miter;stroke-opacity:1" d="M 645.533,853.437 655.433,833.637 z" id="boundary" inkscape:connector-curvature="0" />
	<path style="fill:none;stroke:red;stroke-width:1px;stroke-linecap:butt;stroke-linejoin:miter;stroke-opacity:1" d="M 649.493,302.986 659.393,320.806 z" id="boundary" inkscape:connector-curvature="0" />
	<path style="fill:none;stroke:red;stroke-width:1px;stroke-linecap:butt;stroke-linejoin:miter;stroke-opacity:1" d="M 649.493,302.986 669.293,302.986 z" id="boundary" inkscape:connector-curvature="0" />
	<path style="fill:none;stroke:red;stroke-width:1px;stroke-linecap:butt;stroke-linejoin:miter;stroke-opacity:1" d="M 653.453,132.703 659.393,152.503 z" id="boundary" inkscape:connector-curvature="0" />
	<path style="fill:none;stroke:red;stroke-width:1px;stroke-linecap:butt;stroke-linejoin:miter;stroke-opacity:1" d="M 655.433,833.637 659.393,807.896 z" id="boundary" inkscape:connector-curvature="0" />
	<path style="fill:none;stroke:red;stroke-width:1px;stroke-linecap:butt;stroke-linejoin:miter;stroke-opacity:1" d="M 659.393,152.503 669.293,170.323 z" id="boundary" inkscape:connector-curvature="0" />
	<path style="fill:none;stroke:red;stroke-width:1px;stroke-linecap:butt;stroke-linejoin:miter;stroke-opacity:1" d="M 659.393,320.806 675.234,332.687 z" id="boundary" inkscape:connector-curvature="0" />
	<path style="fill:none;stroke:red;stroke-width:1px;stroke-linecap:butt;stroke-linejoin:miter;stroke-opacity:1" d="M 659.393,718.794 659.393,738.595 z" id="boundary" inkscape:connector-curvature="0" />
	<path style="fill:none;stroke:red;stroke-width:1px;stroke-linecap:butt;stroke-linejoin:miter;stroke-opacity:1" d="M 659.393,718.794 669.293,698.994 z" id="boundary" inkscape:connector-curvature="0" />
	<path style="fill:none;stroke:red;stroke-width:1px;stroke-linecap:butt;stroke-linejoin:miter;stroke-opacity:1" d="M 659.393,738.595 669.293,756.415 z" id="boundary" inkscape:connector-curvature="0" />
	<path style="fill:none;stroke:red;stroke-width:1px;stroke-linecap:butt;stroke-linejoin:miter;stroke-opacity:1" d="M 659.393,778.196 659.393,807.896 z" id="boundary" inkscape:connector-curvature="0" />
	<path style="fill:none;stroke:red;stroke-width:1px;stroke-linecap:butt;stroke-linejoin:miter;stroke-opacity:1" d="M 659.393,778.196 669.293,756.415 z" id="boundary" inkscape:connector-curvature="0" />
	<path style="fill:none;stroke:red;stroke-width:1px;stroke-linecap:butt;stroke-linejoin:miter;stroke-opacity:1" d="M 669.293,170.323 669.293,190.124 z" id="boundary" inkscape:connector-curvature="0" />
	<path style="fill:none;stroke:red;stroke-width:1px;stroke-linecap:butt;stroke-linejoin:miter;stroke-opacity:1" d="M 669.293,190.124 685.134,203.984 z" id="boundary" inkscape:connector-curvature="0" />
	<path style="fill:none;stroke:red;stroke-width:1px;stroke-linecap:butt;stroke-linejoin:miter;stroke-opacity:1" d="M 669.293,302.986 687.114,293.086 z" id="boundary" inkscape:connector-curvature="0" />
	<path style="fill:none;stroke:red;stroke-width:1px;stroke-linecap:butt;stroke-linejoin:miter;stroke-opacity:1" d="M 669.293,698.994 679.194,679.194 z" id="boundary" inkscape:connector-curvature="0" />
	<path style="fill:none;stroke:red;stroke-width:1px;stroke-linecap:butt;stroke-linejoin:miter;stroke-opacity:1" d="M 675.234,332.687 689.094,348.527 z" id="boundary" inkscape:connector-curvature="0" />
	<path style="fill:none;stroke:red;stroke-width:1px;stroke-linecap:butt;stroke-linejoin:miter;stroke-opacity:1" d="M 679.194,679.194 689.094,659.393 z" id="boundary" inkscape:connector-curvature="0" />
	<path style="fill:none;stroke:red;stroke-width:1px;stroke-linecap:butt;stroke-linejoin:miter;stroke-opacity:1" d="M 685.134,203.984 698.994,219.824 z" id="boundary" inkscape:connector-curvature="0" />
	<path style="fill:none;stroke:red;stroke-width:1px;stroke-linecap:butt;stroke-linejoin:miter;stroke-opacity:1" d="M 687.114,293.086 706.914,293.086 z" id="boundary" inkscape:connector-curvature="0" />
	<path style="fill:none;stroke:red;stroke-width:1px;stroke-linecap:butt;stroke-linejoin:miter;stroke-opacity:1" d="M 689.094,348.527 704.934,362.387 z" id="boundary" inkscape:connector-curvature="0" />
	<path style="fill:none;stroke:red;stroke-width:1px;stroke-linecap:butt;stroke-linejoin:miter;stroke-opacity:1" d="M 689.094,659.393 698.994,629.693 z" id="boundary" inkscape:connector-curvature="0" />
	<path style="fill:none;stroke:red;stroke-width:1px;stroke-linecap:butt;stroke-linejoin:miter;stroke-opacity:1" d="M 698.994,219.824 718.794,221.804 z" id="boundary" inkscape:connector-curvature="0" />
	<path style="fill:none;stroke:red;stroke-width:1px;stroke-linecap:butt;stroke-linejoin:miter;stroke-opacity:1" d="M 698.994,629.693 708.894,609.892 z" id="boundary" inkscape:connector-curvature="0" />
	<path style="fill:none;stroke:red;stroke-width:1px;stroke-linecap:butt;stroke-linejoin:miter;stroke-opacity:1" d="M 704.934,362.387 712.854,382.188 z" id="boundary" inkscape:connector-curvature="0" />
	<path style="fill:none;stroke:red;stroke-width:1px;stroke-linecap:butt;stroke-linejoin:miter;stroke-opacity:1" d="M 706.914,293.086 726.715,287.146 z" id="boundary" inkscape:connector-curvature="0" />
	<path style="fill:none;stroke:red;stroke-width:1px;stroke-linecap:butt;stroke-linejoin:miter;stroke-opacity:1" d="M 708.894,590.092 708.894,609.892 z" id="boundary" inkscape:connector-curvature="0" />
	<path style="fill:none;stroke:red;stroke-width:1px;stroke-linecap:butt;stroke-linejoin:miter;stroke-opacity:1" d="M 708.894,590.092 718.794,560.391 z" id="boundary" inkscape:connector-curvature="0" />
	<path style="fill:none;stroke:red;stroke-width:1px;stroke-linecap:butt;stroke-linejoin:miter;stroke-opacity:1" d="M 712.854,382.188 722.754,400.008 z" id="boundary" inkscape:connector-curvature="0" />
	<path style="fill:none;stroke:red;stroke-width:1px;stroke-linecap:butt;stroke-linejoin:miter;stroke-opacity:1" d="M 718.794,221.804 738.595,221.804 z" id="boundary" inkscape:connector-curvature="0" />
	<path style="fill:none;stroke:red;stroke-width:1px;stroke-linecap:butt;stroke-linejoin:miter;stroke-opacity:1" d="M 718.794,530.691 718.794,560.391 z" id="boundary" inkscape:connector-curvature="0" />
	<path style="fill:none;stroke:red;stroke-width:1px;stroke-linecap:butt;stroke-linejoin:miter;stroke-opacity:1" d="M 718.794,530.691 728.695,500.99 z" id="boundary" inkscape:connector-curvature="0" />
	<path style="fill:none;stroke:red;stroke-width:1px;stroke-linecap:butt;stroke-linejoin:miter;stroke-opacity:1" d="M 722.754,400.008 728.695,419.808 z" id="boundary" inkscape:connector-curvature="0" />
	<path style="fill:none;stroke:red;stroke-width:1px;stroke-linecap:butt;stroke-linejoin:miter;stroke-opacity:1" d="M 726.715,287.146 746.515,287.146 z" id="boundary" inkscape:connector-curvature="0" />
	<path style="fill:none;stroke:red;stroke-width:1px;stroke-linecap:butt;stroke-linejoin:miter;stroke-opacity:1" d="M 728.695,419.808 738.595,437.629 z" id="boundary" inkscape:connector-curvature="0" />
	<path style="fill:none;stroke:red;stroke-width:1px;stroke-linecap:butt;stroke-linejoin:miter;stroke-opacity:1" d="M 728.695,461.389 728.695,481.19 z" id="boundary" inkscape:connector-curvature="0" />
	<path style="fill:none;stroke:red;stroke-width:1px;stroke-linecap:butt;stroke-linejoin:miter;stroke-opacity:1" d="M 728.695,461.389 738.595,437.629 z" id="boundary" inkscape:connector-curvature="0" />
	<path style="fill:none;stroke:red;stroke-width:1px;stroke-linecap:butt;stroke-linejoin:miter;stroke-opacity:1" d="M 728.695,481.19 728.695,500.99 z" id="boundary" inkscape:connector-curvature="0" />
	<path style="fill:none;stroke:red;stroke-width:1px;stroke-linecap:butt;stroke-linejoin:miter;stroke-opacity:1" d="M 738.595,221.804 758.395,221.804 z" id="boundary" inkscape:connector-curvature="0" />
	<path style="fill:none;stroke:red;stroke-width:1px;stroke-linecap:butt;stroke-linejoin:miter;stroke-opacity:1" d="M 746.515,287.146 766.315,287.146 z" id="boundary" inkscape:connector-curvature="0" />
	<path style="fill:none;stroke:red;stroke-width:1px;stroke-linecap:butt;stroke-linejoin:miter;stroke-opacity:1" d="M 758.395,221.804 776.216,211.904 z" id="boundary" inkscape:connector-curvature="0" />
	<path style="fill:none;stroke:red;stroke-width:1px;stroke-linecap:butt;stroke-linejoin:miter;stroke-opacity:1" d="M 766.315,287.146 786.116,283.186 z" id="boundary" inkscape:connector-curvature="0" />
	<path style="fill:none;stroke:red;stroke-width:1px;stroke-linecap:butt;stroke-linejoin:miter;stroke-opacity:1" d="M 776.216,211.904 796.016,211.904 z" id="boundary" inkscape:connector-curvature="0" />
	<path style="fill:none;stroke:red;stroke-width:1px;stroke-linecap:butt;stroke-linejoin:miter;stroke-opacity:1" d="M 786.116,283.186 803.936,273.285 z" id="boundary" inkscape:connector-curvature="0" />
	<path style="fill:none;stroke:red;stroke-width:1px;stroke-linecap:butt;stroke-linejoin:miter;stroke-opacity:1" d="M 796.016,211.904 815.816,207.944 z" id="boundary" inkscape:connector-curvature="0" />
	<path style="fill:none;stroke:red;stroke-width:1px;stroke-linecap:butt;stroke-linejoin:miter;stroke-opacity:1" d="M 803.936,273.285 823.737,269.325 z" id="boundary" inkscape:connector-curvature="0" />
	<path style="fill:none;stroke:red;stroke-width:1px;stroke-linecap:butt;stroke-linejoin:miter;stroke-opacity:1" d="M 815.816,207.944 835.617,205.964 z" id="boundary" inkscape:connector-curvature="0" />
	<path style="fill:none;stroke:red;stroke-width:1px;stroke-linecap:butt;stroke-linejoin:miter;stroke-opacity:1" d="M 823.737,269.325 843.537,259.425 z" id="boundary" inkscape:connector-curvature="0" />
	<path style="fill:none;stroke:red;stroke-width:1px;stroke-linecap:butt;stroke-linejoin:miter;stroke-opacity:1" d="M 835.617,205.964 855.417,211.904 z" id="boundary" inkscape:connector-curvature="0" />
	<path style="fill:none;stroke:red;stroke-width:1px;stroke-linecap:butt;stroke-linejoin:miter;stroke-opacity:1" d="M 843.537,259.425 857.397,243.585 z" id="boundary" inkscape:connector-curvature="0" />
	<path style="fill:none;stroke:red;stroke-width:1px;stroke-linecap:butt;stroke-linejoin:miter;stroke-opacity:1" d="M 855.417,211.904 857.397,243.585 z" id="boundary" inkscape:connector-curvature="0" />
	<circle cx="4" cy="693.054" r="4" fill="#0" id="circle0"/>
	<circle cx="13.9002" cy="710.874" r="4" fill="#0" id="circle1"/>
	<circle cx="23.8004" cy="683.154" r="4" fill="#0" id="circle2"/>
	<circle cx="23.8004" cy="728.695" r="4" fill="#0" id="circle3"/>
	<circle cx="39.6407" cy="667.313" r="4" fill="#0" id="circle4"/>
	<circle cx="41.6208" cy="738.595" r="4" fill="#0" id="circle5"/>
	<circle cx="55.481" cy="651.473" r="4" fill="#0" id="circle6"/>
	<circle cx="59.4411" cy="748.495" r="4" fill="#0" id="circle7"/>
	<circle cx="71.3214" cy="637.613" r="4" fill="#0" id="circle8"/>
	<circle cx="77.2615" cy="758.395" r="4" fill="#0" id="circle9"/>
	<circle cx="91.1218" cy="637.613" r="4" fill="#0" id="circle10"/>
	<circle cx="93.1018" cy="79.2415" r="4" fill="#0" id="circle11"/>
	<circle cx="97.0619" cy="758.395" r="4" fill="#0" id="circle12"/>
	<circle cx="103.002" cy="97.0619" r="4" fill="#0" id="circle13"/>
	<circle cx="108.942" cy="627.713" r="4" fill="#0" id="circle14"/>
	<circle cx="112.902" cy="73.3014" r="4" fill="#0" id="circle15"/>
	<circle cx="112.902" cy="114.882" r="4" fill="#0" id="circle16"/>
	<circle cx="116.862" cy="764.335" r="4" fill="#0" id="circle17"/>
	<circle cx="124.782" cy="130.723" r="4" fill="#0" id="circle18"/>
	<circle cx="128.743" cy="617.812" r="4" fill="#0" id="circle19"/>
	<circle cx="132.703" cy="73.3014" r="4" fill="#0" id="circle20"/>
	<circle cx="136.663" cy="758.395" r="4" fill="#0" id="circle21"/>
	<circle cx="140.623" cy="144.583" r="4" fill="#0" id="circle22"/>
	<circle cx="142.603" cy="455.449" r="4" fill="#0" id="circle23"/>
	<circle cx="142.603" cy="475.25" r="4" fill="#0" id="circle24"/>
	<circle cx="142.603" cy="495.05" r="4" fill="#0" id="circle25"/>
	<circle cx="142.603" cy="514.85" r="4" fill="#0" id="circle26"/>
	<circle cx="142.603" cy="534.651" r="4" fill="#0" id="circle27"/>
	<circle cx="142.603" cy="554.451" r="4" fill="#0" id="circle28"/>
	<circle cx="148.543" cy="617.812" r="4" fill="#0" id="circle29"/>
	<circle cx="152.503" cy="77.2615" r="4" fill="#0" id="circle30"/>
	<circle cx="152.503" cy="247.545" r="4" fill="#0" id="circle31"/>
	<circle cx="152.503" cy="572.271" r="4" fill="#0" id="circle32"/>
	<circle cx="152.503" cy="592.072" r="4" fill="#0" id="circle33"/>
	<circle cx="156.463" cy="758.395" r="4" fill="#0" id="circle34"/>
	<circle cx="158.443" cy="154.483" r="4" fill="#0" id="circle35"/>
	<circle cx="158.443" cy="439.609" r="4" fill="#0" id="circle36"/>
	<circle cx="168.343" cy="231.705" r="4" fill="#0" id="circle37"/>
	<circle cx="168.343" cy="261.405" r="4" fill="#0" id="circle38"/>
	<circle cx="168.343" cy="419.808" r="4" fill="#0" id="circle39"/>
	<circle cx="170.323" cy="87.1617" r="4" fill="#0" id="circle40"/>
	<circle cx="176.263" cy="164.383" r="4" fill="#0" id="circle41"/>
	<circle cx="176.263" cy="758.395" r="4" fill="#0" id="circle42"/>
	<circle cx="178.244" cy="400.008" r="4" fill="#0" id="circle43"/>
	<circle cx="184.184" cy="103.002" r="4" fill="#0" id="circle44"/>
	<circle cx="184.184" cy="273.285" r="4" fill="#0" id="circle45"/>
	<circle cx="188.144" cy="221.804" r="4" fill="#0" id="circle46"/>
	<circle cx="192.104" cy="176.263" r="4" fill="#0" id="circle47"/>
	<circle cx="192.104" cy="376.248" r="4" fill="#0" id="circle48"/>
	<circle cx="194.084" cy="748.495" r="4" fill="#0" id="circle49"/>
	<circle cx="196.064" cy="289.126" r="4" fill="#0" id="circle50"/>
	<circle cx="203.984" cy="108.942" r="4" fill="#0" id="circle51"/>
	<circle cx="207.944" cy="221.804" r="4" fill="#0" id="circle52"/>
	<circle cx="207.944" cy="360.407" r="4" fill="#0" id="circle53"/>
	<circle cx="211.904" cy="184.184" r="4" fill="#0" id="circle54"/>
	<circle cx="213.884" cy="748.495" r="4" fill="#0" id="circle55"/>
	<circle cx="215.864" cy="289.126" r="4" fill="#0" id="circle56"/>
	<circle cx="219.824" cy="122.802" r="4" fill="#0" id="circle57"/>
	<circle cx="221.804" cy="202.004" r="4" fill="#0" id="circle58"/>
	<circle cx="221.804" cy="782.156" r="4" fill="#0" id="circle59"/>
	<circle cx="221.804" cy="801.956" r="4" fill="#0" id="circle60"/>
	<circle cx="221.804" cy="821.756" r="4" fill="#0" id="circle61"/>
	<circle cx="221.804" cy="861.357" r="4" fill="#0" id="circle62"/>
	<circle cx="223.784" cy="344.567" r="4" fill="#0" id="circle63"/>
	<circle cx="231.705" cy="758.395" r="4" fill="#0" id="circle64"/>
	<circle cx="231.705" cy="839.577" r="4" fill="#0" id="circle65"/>
	<circle cx="231.705" cy="879.178" r="4" fill="#0" id="circle66"/>
	<circle cx="233.685" cy="299.026" r="4" fill="#0" id="circle67"/>
	<circle cx="239.625" cy="124.782" r="4" fill="#0" id="circle68"/>
	<circle cx="241.605" cy="318.826" r="4" fill="#0" id="circle69"/>
	<circle cx="241.605" cy="896.998" r="4" fill="#0" id="circle70"/>
	<circle cx="253.485" cy="912.838" r="4" fill="#0" id="circle71"/>
	<circle cx="257.445" cy="112.902" r="4" fill="#0" id="circle72"/>
	<circle cx="269.325" cy="926.699" r="4" fill="#0" id="circle73"/>
	<circle cx="273.285" cy="97.0619" r="4" fill="#0" id="circle74"/>
	<circle cx="277.246" cy="946.499" r="4" fill="#0" id="circle75"/>
	<circle cx="283.186" cy="77.2615" r="4" fill="#0" id="circle76"/>
	<circle cx="297.046" cy="954.419" r="4" fill="#0" id="circle77"/>
	<circle cx="299.026" cy="63.4012" r="4" fill="#0" id="circle78"/>
	<circle cx="312.886" cy="966.299" r="4" fill="#0" id="circle79"/>
	<circle cx="316.846" cy="53.501" r="4" fill="#0" id="circle80"/>
	<circle cx="330.707" cy="976.2" r="4" fill="#0" id="circle81"/>
	<circle cx="334.667" cy="43.6008" r="4" fill="#0" id="circle82"/>
	<circle cx="350.507" cy="976.2" r="4" fill="#0" id="circle83"/>
	<circle cx="352.487" cy="33.7006" r="4" fill="#0" id="circle84"/>
	<circle cx="368.327" cy="986.1" r="4" fill="#0" id="circle85"/>
	<circle cx="370.307" cy="23.8004" r="4" fill="#0" id="circle86"/>
	<circle cx="386.148" cy="996" r="4" fill="#0" id="circle87"/>
	<circle cx="388.128" cy="13.9002" r="4" fill="#0" id="circle88"/>
	<circle cx="403.968" cy="986.1" r="4" fill="#0" id="circle89"/>
	<circle cx="407.928" cy="13.9002" r="4" fill="#0" id="circle90"/>
	<circle cx="423.768" cy="992.04" r="4" fill="#0" id="circle91"/>
	<circle cx="425.749" cy="4" r="4" fill="#0" id="circle92"/>
	<circle cx="443.569" cy="986.1" r="4" fill="#0" id="circle93"/>
	<circle cx="445.549" cy="4" r="4" fill="#0" id="circle94"/>
	<circle cx="463.369" cy="986.1" r="4" fill="#0" id="circle95"/>
	<circle cx="465.349" cy="4" r="4" fill="#0" id="circle96"/>
	<circle cx="481.19" cy="976.2" r="4" fill="#0" id="circle97"/>
	<circle cx="485.15" cy="4" r="4" fill="#0" id="circle98"/>
	<circle cx="500.99" cy="976.2" r="4" fill="#0" id="circle99"/>
	<circle cx="504.95" cy="4" r="4" fill="#0" id="circle100"/>
	<circle cx="518.81" cy="966.299" r="4" fill="#0" id="circle101"/>
	<circle cx="522.77" cy="13.9002" r="4" fill="#0" id="circle102"/>
	<circle cx="538.611" cy="960.359" r="4" fill="#0" id="circle103"/>
	<circle cx="540.591" cy="23.8004" r="4" fill="#0" id="circle104"/>
	<circle cx="558.411" cy="950.459" r="4" fill="#0" id="circle105"/>
	<circle cx="560.391" cy="29.7405" r="4" fill="#0" id="circle106"/>
	<circle cx="574.251" cy="936.599" r="4" fill="#0" id="circle107"/>
	<circle cx="578.212" cy="39.6407" r="4" fill="#0" id="circle108"/>
	<circle cx="592.072" cy="926.699" r="4" fill="#0" id="circle109"/>
	<circle cx="594.052" cy="53.501" r="4" fill="#0" id="circle110"/>
	<circle cx="607.912" cy="910.858" r="4" fill="#0" id="circle111"/>
	<circle cx="611.872" cy="63.4012" r="4" fill="#0" id="circle112"/>
	<circle cx="619.792" cy="83.2016" r="4" fill="#0" id="circle113"/>
	<circle cx="619.792" cy="887.098" r="4" fill="#0" id="circle114"/>
	<circle cx="635.633" cy="95.0818" r="4" fill="#0" id="circle115"/>
	<circle cx="635.633" cy="873.238" r="4" fill="#0" id="circle116"/>
	<circle cx="643.553" cy="114.882" r="4" fill="#0" id="circle117"/>
	<circle cx="645.533" cy="853.437" r="4" fill="#0" id="circle118"/>
	<circle cx="649.493" cy="302.986" r="4" fill="#0" id="circle119"/>
	<circle cx="653.453" cy="132.703" r="4" fill="#0" id="circle120"/>
	<circle cx="655.433" cy="833.637" r="4" fill="#0" id="circle121"/>
	<circle cx="659.393" cy="152.503" r="4" fill="#0" id="circle122"/>
	<circle cx="659.393" cy="320.806" r="4" fill="#0" id="circle123"/>
	<circle cx="659.393" cy="718.794" r="4" fill="#0" id="circle124"/>
	<circle cx="659.393" cy="738.595" r="4" fill="#0" id="circle125"/>
	<circle cx="659.393" cy="778.196" r="4" fill="#0" id="circle126"/>
	<circle cx="659.393" cy="807.896" r="4" fill="#0" id="circle127"/>
	<circle cx="669.293" cy="170.323" r="4" fill="#0" id="circle128"/>
	<circle cx="669.293" cy="190.124" r="4" fill="#0" id="circle129"/>
	<circle cx="669.293" cy="302.986" r="4" fill="#0" id="circle130"/>
	<circle cx="669.293" cy="698.994" r="4" fill="#0" id="circle131"/>
	<circle cx="669.293" cy="756.415" r="4" fill="#0" id="circle132"/>
	<circle cx="675.234" cy="332.687" r="4" fill="#0" id="circle133"/>
	<circle cx="679.194" cy="679.194" r="4" fill="#0" id="circle134"/>
	<circle cx="685.134" cy="203.984" r="4" fill="#0" id="circle135"/>
	<circle cx="687.114" cy="293.086" r="4" fill="#0" id="circle136"/>
	<circle cx="689.094" cy="348.527" r="4" fill="#0" id="circle137"/>
	<circle cx="689.094" cy="659.393" r="4" fill="#0" id="circle138"/>
	<circle cx="698.994" cy="219.824" r="4" fill="#0" id="circle139"/>
	<circle cx="698.994" cy="629.693" r="4" fill="#0" id="circle140"/>
	<circle cx="704.934" cy="362.387" r="4" fill="#0" id="circle141"/>
	<circle cx="706.914" cy="293.086" r="4" fill="#0" id="circle142"/>
	<circle cx="708.894" cy="590.092" r="4" fill="#0" id="circle143"/>
	<circle cx="708.894" cy="609.892" r="4" fill="#0" id="circle144"/>
	<circle cx="712.854" cy="382.188" r="4" fill="#0" id="circle145"/>
	<circle cx="718.794" cy="221.804" r="4" fill="#0" id="circle146"/>
	<circle cx="718.794" cy="530.691" r="4" fill="#0" id="circle147"/>
	<circle cx="718.794" cy="560.391" r="4" fill="#0" id="circle148"/>
	<circle cx="722.754" cy="400.008" r="4" fill="#0" id="circle149"/>
	<circle cx="726.715" cy="287.146" r="4" fill="#0" id="circle150"/>
	<circle cx="728.695" cy="419.808" r="4" fill="#0" id="circle151"/>
	<circle cx="728.695" cy="461.389" r="4" fill="#0" id="circle152"/>
	<circle cx="728.695" cy="481.19" r="4" fill="#0" id="circle153"/>
	<circle cx="728.695" cy="500.99" r="4" fill="#0" id="circle154"/>
	<circle cx="738.595" cy="221.804" r="4" fill="#0" id="circle155"/>
	<circle cx="738.595" cy="437.629" r="4" fill="#0" id="circle156"/>
	<circle cx="746.515" cy="287.146" r="4" fill="#0" id="circle157"/>
	<circle cx="758.395" cy="221.804" r="4" fill="#0" id="circle158"/>
	<circle cx="766.315" cy="287.146" r="4" fill="#0" id="circle159"/>
	<circle cx="776.216" cy="211.904" r="4" fill="#0" id="circle160"/>
	<circle cx="786.116" cy="283.186" r="4" fill="#0" id="circle161"/>
	<circle cx="796.016" cy="211.904" r="4" fill="#0" id="circle162"/>
	<circle cx="803.936" cy="273.285" r="4" fill="#0" id="circle163"/>
	<circle cx="815.816" cy="207.944" r="4" fill="#0" id="circle164"/>
	<circle cx="823.737" cy="269.325" r="4" fill="#0" id="circle165"/>
	<circle cx="835.617" cy="205.964" r="4" fill="#0" id="circle166"/>
	<circle cx="843.537" cy="259.425" r="4" fill="#0" id="circle167"/>
	<circle cx="855.417" cy="211.904" r="4" fill="#0" id="circle168"/>
	<circle cx="857.397" cy="243.585" r="4" fill="#0" id="circle169"/>
	</g>
</svg>