<?xml version="1.0" encoding="UTF-8" standalone="no"?>
<!-- Created with CurveBenchmark -->
<svg
	xmlns:dc="http://purl.org/dc/elements/1.1/"
	xmlns:cc="http://creativecommons.org/ns#"
	xmlns:rdf="http://www.w3.org/1999/02/22-rdf-syntax-ns#"
	xmlns:svg="http://www.w3.org/2000/svg"
	xmlns="http://www.w3.org/2000/svg"
	xmlns:sodipodi="http://sodipodi.sourceforge.net/DTD/sodipodi-0.dtd"
	xmlns:inkscape="http://www.inkscape.org/namespaces/inkscape"
	width="1000"
	height="1000"
	id="svg2"
	version="1.1"
	sodipodi:docname="manifold/discur-children18.png.txt">
<defs
	id="defs4" />
<metadata
	id="metadata7">
	<rdf:RDF>
		<cc:Work
			rdf:about="">
			<dc:format>image/svg+xml</dc:format>
			<dc:type
				rdf:resource="http://purl.org/dc/dcmitype/StillImage" />
			<dc:title></dc:title>
		</cc:Work>
	</rdf:RDF>
</metadata>
<g
	inkscape:label="Layer 1"
	inkscape:groupmode="layer"
	id="layer1">
	<path style="fill:none;stroke:red;stroke-width:1px;stroke-linecap:butt;stroke-linejoin:miter;stroke-opacity:1" d="M 4,330.815 12.2529,314.309 z" id="boundary" inkscape:connector-curvature="0" />
	<path style="fill:none;stroke:red;stroke-width:1px;stroke-linecap:butt;stroke-linejoin:miter;stroke-opacity:1" d="M 4,330.815 12.2529,345.671 z" id="boundary" inkscape:connector-curvature="0" />
	<path style="fill:none;stroke:red;stroke-width:1px;stroke-linecap:butt;stroke-linejoin:miter;stroke-opacity:1" d="M 12.2529,314.309 20.5058,289.551 z" id="boundary" inkscape:connector-curvature="0" />
	<path style="fill:none;stroke:red;stroke-width:1px;stroke-linecap:butt;stroke-linejoin:miter;stroke-opacity:1" d="M 12.2529,345.671 20.5058,360.526 z" id="boundary" inkscape:connector-curvature="0" />
	<path style="fill:none;stroke:red;stroke-width:1px;stroke-linecap:butt;stroke-linejoin:miter;stroke-opacity:1" d="M 20.5058,83.228 20.5058,99.7338 z" id="boundary" inkscape:connector-curvature="0" />
	<path style="fill:none;stroke:red;stroke-width:1px;stroke-linecap:butt;stroke-linejoin:miter;stroke-opacity:1" d="M 20.5058,83.228 28.7587,66.7221 z" id="boundary" inkscape:connector-curvature="0" />
	<path style="fill:none;stroke:red;stroke-width:1px;stroke-linecap:butt;stroke-linejoin:miter;stroke-opacity:1" d="M 20.5058,99.7338 28.7587,114.589 z" id="boundary" inkscape:connector-curvature="0" />
	<path style="fill:none;stroke:red;stroke-width:1px;stroke-linecap:butt;stroke-linejoin:miter;stroke-opacity:1" d="M 20.5058,289.551 28.7587,273.045 z" id="boundary" inkscape:connector-curvature="0" />
	<path style="fill:none;stroke:red;stroke-width:1px;stroke-linecap:butt;stroke-linejoin:miter;stroke-opacity:1" d="M 20.5058,360.526 25.4576,377.032 z" id="boundary" inkscape:connector-curvature="0" />
	<path style="fill:none;stroke:red;stroke-width:1px;stroke-linecap:butt;stroke-linejoin:miter;stroke-opacity:1" d="M 25.4576,377.032 28.7587,393.537 z" id="boundary" inkscape:connector-curvature="0" />
	<path style="fill:none;stroke:red;stroke-width:1px;stroke-linecap:butt;stroke-linejoin:miter;stroke-opacity:1" d="M 28.7587,66.7221 41.9634,53.5175 z" id="boundary" inkscape:connector-curvature="0" />
	<path style="fill:none;stroke:red;stroke-width:1px;stroke-linecap:butt;stroke-linejoin:miter;stroke-opacity:1" d="M 28.7587,114.589 28.7587,131.095 z" id="boundary" inkscape:connector-curvature="0" />
	<path style="fill:none;stroke:red;stroke-width:1px;stroke-linecap:butt;stroke-linejoin:miter;stroke-opacity:1" d="M 28.7587,131.095 37.0116,145.95 z" id="boundary" inkscape:connector-curvature="0" />
	<path style="fill:none;stroke:red;stroke-width:1px;stroke-linecap:butt;stroke-linejoin:miter;stroke-opacity:1" d="M 28.7587,273.045 41.9634,259.84 z" id="boundary" inkscape:connector-curvature="0" />
	<path style="fill:none;stroke:red;stroke-width:1px;stroke-linecap:butt;stroke-linejoin:miter;stroke-opacity:1" d="M 28.7587,393.537 28.7587,410.043 z" id="boundary" inkscape:connector-curvature="0" />
	<path style="fill:none;stroke:red;stroke-width:1px;stroke-linecap:butt;stroke-linejoin:miter;stroke-opacity:1" d="M 28.7587,410.043 28.7587,426.549 z" id="boundary" inkscape:connector-curvature="0" />
	<path style="fill:none;stroke:red;stroke-width:1px;stroke-linecap:butt;stroke-linejoin:miter;stroke-opacity:1" d="M 28.7587,426.549 28.7587,443.055 z" id="boundary" inkscape:connector-curvature="0" />
	<path style="fill:none;stroke:red;stroke-width:1px;stroke-linecap:butt;stroke-linejoin:miter;stroke-opacity:1" d="M 28.7587,443.055 28.7587,459.561 z" id="boundary" inkscape:connector-curvature="0" />
	<path style="fill:none;stroke:red;stroke-width:1px;stroke-linecap:butt;stroke-linejoin:miter;stroke-opacity:1" d="M 28.7587,459.561 37.0116,474.416 z" id="boundary" inkscape:connector-curvature="0" />
	<path style="fill:none;stroke:red;stroke-width:1px;stroke-linecap:butt;stroke-linejoin:miter;stroke-opacity:1" d="M 37.0116,145.95 46.9151,159.155 z" id="boundary" inkscape:connector-curvature="0" />
	<path style="fill:none;stroke:red;stroke-width:1px;stroke-linecap:butt;stroke-linejoin:miter;stroke-opacity:1" d="M 37.0116,474.416 40.3128,490.922 z" id="boundary" inkscape:connector-curvature="0" />
	<path style="fill:none;stroke:red;stroke-width:1px;stroke-linecap:butt;stroke-linejoin:miter;stroke-opacity:1" d="M 40.3128,490.922 48.5657,505.777 z" id="boundary" inkscape:connector-curvature="0" />
	<path style="fill:none;stroke:red;stroke-width:1px;stroke-linecap:butt;stroke-linejoin:miter;stroke-opacity:1" d="M 41.9634,53.5175 55.1681,40.3128 z" id="boundary" inkscape:connector-curvature="0" />
	<path style="fill:none;stroke:red;stroke-width:1px;stroke-linecap:butt;stroke-linejoin:miter;stroke-opacity:1" d="M 41.9634,259.84 58.4692,251.587 z" id="boundary" inkscape:connector-curvature="0" />
	<path style="fill:none;stroke:red;stroke-width:1px;stroke-linecap:butt;stroke-linejoin:miter;stroke-opacity:1" d="M 46.9151,159.155 60.1198,170.709 z" id="boundary" inkscape:connector-curvature="0" />
	<path style="fill:none;stroke:red;stroke-width:1px;stroke-linecap:butt;stroke-linejoin:miter;stroke-opacity:1" d="M 48.5657,505.777 53.5175,522.283 z" id="boundary" inkscape:connector-curvature="0" />
	<path style="fill:none;stroke:red;stroke-width:1px;stroke-linecap:butt;stroke-linejoin:miter;stroke-opacity:1" d="M 53.5175,522.283 53.5175,538.789 z" id="boundary" inkscape:connector-curvature="0" />
	<path style="fill:none;stroke:red;stroke-width:1px;stroke-linecap:butt;stroke-linejoin:miter;stroke-opacity:1" d="M 53.5175,538.789 55.1681,555.295 z" id="boundary" inkscape:connector-curvature="0" />
	<path style="fill:none;stroke:red;stroke-width:1px;stroke-linecap:butt;stroke-linejoin:miter;stroke-opacity:1" d="M 55.1681,40.3128 68.3727,28.7587 z" id="boundary" inkscape:connector-curvature="0" />
	<path style="fill:none;stroke:red;stroke-width:1px;stroke-linecap:butt;stroke-linejoin:miter;stroke-opacity:1" d="M 55.1681,555.295 61.7704,571.8 z" id="boundary" inkscape:connector-curvature="0" />
	<path style="fill:none;stroke:red;stroke-width:1px;stroke-linecap:butt;stroke-linejoin:miter;stroke-opacity:1" d="M 58.4692,251.587 70.0233,235.082 z" id="boundary" inkscape:connector-curvature="0" />
	<path style="fill:none;stroke:red;stroke-width:1px;stroke-linecap:butt;stroke-linejoin:miter;stroke-opacity:1" d="M 60.1198,170.709 61.7704,187.215 z" id="boundary" inkscape:connector-curvature="0" />
	<path style="fill:none;stroke:red;stroke-width:1px;stroke-linecap:butt;stroke-linejoin:miter;stroke-opacity:1" d="M 61.7704,187.215 70.0233,202.07 z" id="boundary" inkscape:connector-curvature="0" />
	<path style="fill:none;stroke:red;stroke-width:1px;stroke-linecap:butt;stroke-linejoin:miter;stroke-opacity:1" d="M 61.7704,571.8 61.7704,588.306 z" id="boundary" inkscape:connector-curvature="0" />
	<path style="fill:none;stroke:red;stroke-width:1px;stroke-linecap:butt;stroke-linejoin:miter;stroke-opacity:1" d="M 61.7704,588.306 70.0233,603.161 z" id="boundary" inkscape:connector-curvature="0" />
	<path style="fill:none;stroke:red;stroke-width:1px;stroke-linecap:butt;stroke-linejoin:miter;stroke-opacity:1" d="M 68.3727,28.7587 83.228,20.5058 z" id="boundary" inkscape:connector-curvature="0" />
	<path style="fill:none;stroke:red;stroke-width:1px;stroke-linecap:butt;stroke-linejoin:miter;stroke-opacity:1" d="M 70.0233,202.07 70.0233,218.576 z" id="boundary" inkscape:connector-curvature="0" />
	<path style="fill:none;stroke:red;stroke-width:1px;stroke-linecap:butt;stroke-linejoin:miter;stroke-opacity:1" d="M 70.0233,218.576 70.0233,235.082 z" id="boundary" inkscape:connector-curvature="0" />
	<path style="fill:none;stroke:red;stroke-width:1px;stroke-linecap:butt;stroke-linejoin:miter;stroke-opacity:1" d="M 70.0233,603.161 70.0233,619.667 z" id="boundary" inkscape:connector-curvature="0" />
	<path style="fill:none;stroke:red;stroke-width:1px;stroke-linecap:butt;stroke-linejoin:miter;stroke-opacity:1" d="M 70.0233,619.667 78.2762,634.522 z" id="boundary" inkscape:connector-curvature="0" />
	<path style="fill:none;stroke:red;stroke-width:1px;stroke-linecap:butt;stroke-linejoin:miter;stroke-opacity:1" d="M 78.2762,634.522 78.2762,651.028 z" id="boundary" inkscape:connector-curvature="0" />
	<path style="fill:none;stroke:red;stroke-width:1px;stroke-linecap:butt;stroke-linejoin:miter;stroke-opacity:1" d="M 78.2762,651.028 86.5291,665.884 z" id="boundary" inkscape:connector-curvature="0" />
	<path style="fill:none;stroke:red;stroke-width:1px;stroke-linecap:butt;stroke-linejoin:miter;stroke-opacity:1" d="M 83.228,20.5058 98.0832,12.2529 z" id="boundary" inkscape:connector-curvature="0" />
	<path style="fill:none;stroke:red;stroke-width:1px;stroke-linecap:butt;stroke-linejoin:miter;stroke-opacity:1" d="M 86.5291,665.884 96.4326,679.088 z" id="boundary" inkscape:connector-curvature="0" />
	<path style="fill:none;stroke:red;stroke-width:1px;stroke-linecap:butt;stroke-linejoin:miter;stroke-opacity:1" d="M 94.782,801.231 94.782,817.737 z" id="boundary" inkscape:connector-curvature="0" />
	<path style="fill:none;stroke:red;stroke-width:1px;stroke-linecap:butt;stroke-linejoin:miter;stroke-opacity:1" d="M 94.782,801.231 103.035,784.725 z" id="boundary" inkscape:connector-curvature="0" />
	<path style="fill:none;stroke:red;stroke-width:1px;stroke-linecap:butt;stroke-linejoin:miter;stroke-opacity:1" d="M 94.782,817.737 94.782,834.243 z" id="boundary" inkscape:connector-curvature="0" />
	<path style="fill:none;stroke:red;stroke-width:1px;stroke-linecap:butt;stroke-linejoin:miter;stroke-opacity:1" d="M 94.782,834.243 103.035,849.098 z" id="boundary" inkscape:connector-curvature="0" />
	<path style="fill:none;stroke:red;stroke-width:1px;stroke-linecap:butt;stroke-linejoin:miter;stroke-opacity:1" d="M 94.782,949.784 103.035,931.627 z" id="boundary" inkscape:connector-curvature="0" />
	<path style="fill:none;stroke:red;stroke-width:1px;stroke-linecap:butt;stroke-linejoin:miter;stroke-opacity:1" d="M 94.782,949.784 103.035,964.639 z" id="boundary" inkscape:connector-curvature="0" />
	<path style="fill:none;stroke:red;stroke-width:1px;stroke-linecap:butt;stroke-linejoin:miter;stroke-opacity:1" d="M 96.4326,679.088 109.637,690.642 z" id="boundary" inkscape:connector-curvature="0" />
	<path style="fill:none;stroke:red;stroke-width:1px;stroke-linecap:butt;stroke-linejoin:miter;stroke-opacity:1" d="M 98.0832,12.2529 112.938,4 z" id="boundary" inkscape:connector-curvature="0" />
	<path style="fill:none;stroke:red;stroke-width:1px;stroke-linecap:butt;stroke-linejoin:miter;stroke-opacity:1" d="M 103.035,784.725 111.288,759.967 z" id="boundary" inkscape:connector-curvature="0" />
	<path style="fill:none;stroke:red;stroke-width:1px;stroke-linecap:butt;stroke-linejoin:miter;stroke-opacity:1" d="M 103.035,849.098 103.035,865.604 z" id="boundary" inkscape:connector-curvature="0" />
	<path style="fill:none;stroke:red;stroke-width:1px;stroke-linecap:butt;stroke-linejoin:miter;stroke-opacity:1" d="M 103.035,865.604 103.035,882.11 z" id="boundary" inkscape:connector-curvature="0" />
	<path style="fill:none;stroke:red;stroke-width:1px;stroke-linecap:butt;stroke-linejoin:miter;stroke-opacity:1" d="M 103.035,882.11 103.035,898.616 z" id="boundary" inkscape:connector-curvature="0" />
	<path style="fill:none;stroke:red;stroke-width:1px;stroke-linecap:butt;stroke-linejoin:miter;stroke-opacity:1" d="M 103.035,898.616 103.035,915.121 z" id="boundary" inkscape:connector-curvature="0" />
	<path style="fill:none;stroke:red;stroke-width:1px;stroke-linecap:butt;stroke-linejoin:miter;stroke-opacity:1" d="M 103.035,915.121 103.035,931.627 z" id="boundary" inkscape:connector-curvature="0" />
	<path style="fill:none;stroke:red;stroke-width:1px;stroke-linecap:butt;stroke-linejoin:miter;stroke-opacity:1" d="M 103.035,964.639 114.589,977.844 z" id="boundary" inkscape:connector-curvature="0" />
	<path style="fill:none;stroke:red;stroke-width:1px;stroke-linecap:butt;stroke-linejoin:miter;stroke-opacity:1" d="M 109.637,690.642 116.24,707.148 z" id="boundary" inkscape:connector-curvature="0" />
	<path style="fill:none;stroke:red;stroke-width:1px;stroke-linecap:butt;stroke-linejoin:miter;stroke-opacity:1" d="M 111.288,759.967 119.541,740.16 z" id="boundary" inkscape:connector-curvature="0" />
	<path style="fill:none;stroke:red;stroke-width:1px;stroke-linecap:butt;stroke-linejoin:miter;stroke-opacity:1" d="M 112.938,4 129.444,4 z" id="boundary" inkscape:connector-curvature="0" />
	<path style="fill:none;stroke:red;stroke-width:1px;stroke-linecap:butt;stroke-linejoin:miter;stroke-opacity:1" d="M 114.589,977.844 131.095,979.494 z" id="boundary" inkscape:connector-curvature="0" />
	<path style="fill:none;stroke:red;stroke-width:1px;stroke-linecap:butt;stroke-linejoin:miter;stroke-opacity:1" d="M 116.24,707.148 119.541,723.654 z" id="boundary" inkscape:connector-curvature="0" />
	<path style="fill:none;stroke:red;stroke-width:1px;stroke-linecap:butt;stroke-linejoin:miter;stroke-opacity:1" d="M 119.541,723.654 119.541,740.16 z" id="boundary" inkscape:connector-curvature="0" />
	<path style="fill:none;stroke:red;stroke-width:1px;stroke-linecap:butt;stroke-linejoin:miter;stroke-opacity:1" d="M 129.444,4 145.95,4 z" id="boundary" inkscape:connector-curvature="0" />
	<path style="fill:none;stroke:red;stroke-width:1px;stroke-linecap:butt;stroke-linejoin:miter;stroke-opacity:1" d="M 131.095,979.494 145.95,987.747 z" id="boundary" inkscape:connector-curvature="0" />
	<path style="fill:none;stroke:red;stroke-width:1px;stroke-linecap:butt;stroke-linejoin:miter;stroke-opacity:1" d="M 145.95,4 162.456,4 z" id="boundary" inkscape:connector-curvature="0" />
	<path style="fill:none;stroke:red;stroke-width:1px;stroke-linecap:butt;stroke-linejoin:miter;stroke-opacity:1" d="M 145.95,987.747 162.456,991.048 z" id="boundary" inkscape:connector-curvature="0" />
	<path style="fill:none;stroke:red;stroke-width:1px;stroke-linecap:butt;stroke-linejoin:miter;stroke-opacity:1" d="M 162.456,4 177.311,12.2529 z" id="boundary" inkscape:connector-curvature="0" />
	<path style="fill:none;stroke:red;stroke-width:1px;stroke-linecap:butt;stroke-linejoin:miter;stroke-opacity:1" d="M 162.456,991.048 178.962,996 z" id="boundary" inkscape:connector-curvature="0" />
	<path style="fill:none;stroke:red;stroke-width:1px;stroke-linecap:butt;stroke-linejoin:miter;stroke-opacity:1" d="M 177.311,12.2529 193.817,15.5541 z" id="boundary" inkscape:connector-curvature="0" />
	<path style="fill:none;stroke:red;stroke-width:1px;stroke-linecap:butt;stroke-linejoin:miter;stroke-opacity:1" d="M 178.962,996 195.468,996 z" id="boundary" inkscape:connector-curvature="0" />
	<path style="fill:none;stroke:red;stroke-width:1px;stroke-linecap:butt;stroke-linejoin:miter;stroke-opacity:1" d="M 193.817,15.5541 208.672,23.807 z" id="boundary" inkscape:connector-curvature="0" />
	<path style="fill:none;stroke:red;stroke-width:1px;stroke-linecap:butt;stroke-linejoin:miter;stroke-opacity:1" d="M 195.468,996 211.973,996 z" id="boundary" inkscape:connector-curvature="0" />
	<path style="fill:none;stroke:red;stroke-width:1px;stroke-linecap:butt;stroke-linejoin:miter;stroke-opacity:1" d="M 208.672,23.807 225.178,30.4093 z" id="boundary" inkscape:connector-curvature="0" />
	<path style="fill:none;stroke:red;stroke-width:1px;stroke-linecap:butt;stroke-linejoin:miter;stroke-opacity:1" d="M 211.973,996 228.479,996 z" id="boundary" inkscape:connector-curvature="0" />
	<path style="fill:none;stroke:red;stroke-width:1px;stroke-linecap:butt;stroke-linejoin:miter;stroke-opacity:1" d="M 225.178,30.4093 240.033,38.6622 z" id="boundary" inkscape:connector-curvature="0" />
	<path style="fill:none;stroke:red;stroke-width:1px;stroke-linecap:butt;stroke-linejoin:miter;stroke-opacity:1" d="M 228.479,996 244.985,996 z" id="boundary" inkscape:connector-curvature="0" />
	<path style="fill:none;stroke:red;stroke-width:1px;stroke-linecap:butt;stroke-linejoin:miter;stroke-opacity:1" d="M 240.033,38.6622 253.238,50.2163 z" id="boundary" inkscape:connector-curvature="0" />
	<path style="fill:none;stroke:red;stroke-width:1px;stroke-linecap:butt;stroke-linejoin:miter;stroke-opacity:1" d="M 244.985,872.206 253.238,855.7 z" id="boundary" inkscape:connector-curvature="0" />
	<path style="fill:none;stroke:red;stroke-width:1px;stroke-linecap:butt;stroke-linejoin:miter;stroke-opacity:1" d="M 244.985,872.206 253.238,887.062 z" id="boundary" inkscape:connector-curvature="0" />
	<path style="fill:none;stroke:red;stroke-width:1px;stroke-linecap:butt;stroke-linejoin:miter;stroke-opacity:1" d="M 244.985,996 261.491,987.747 z" id="boundary" inkscape:connector-curvature="0" />
	<path style="fill:none;stroke:red;stroke-width:1px;stroke-linecap:butt;stroke-linejoin:miter;stroke-opacity:1" d="M 253.238,50.2163 259.84,66.7221 z" id="boundary" inkscape:connector-curvature="0" />
	<path style="fill:none;stroke:red;stroke-width:1px;stroke-linecap:butt;stroke-linejoin:miter;stroke-opacity:1" d="M 253.238,211.973 253.238,228.479 z" id="boundary" inkscape:connector-curvature="0" />
	<path style="fill:none;stroke:red;stroke-width:1px;stroke-linecap:butt;stroke-linejoin:miter;stroke-opacity:1" d="M 253.238,211.973 261.491,187.215 z" id="boundary" inkscape:connector-curvature="0" />
	<path style="fill:none;stroke:red;stroke-width:1px;stroke-linecap:butt;stroke-linejoin:miter;stroke-opacity:1" d="M 253.238,228.479 256.539,244.985 z" id="boundary" inkscape:connector-curvature="0" />
	<path style="fill:none;stroke:red;stroke-width:1px;stroke-linecap:butt;stroke-linejoin:miter;stroke-opacity:1" d="M 253.238,822.689 253.238,839.195 z" id="boundary" inkscape:connector-curvature="0" />
	<path style="fill:none;stroke:red;stroke-width:1px;stroke-linecap:butt;stroke-linejoin:miter;stroke-opacity:1" d="M 253.238,822.689 261.491,806.183 z" id="boundary" inkscape:connector-curvature="0" />
	<path style="fill:none;stroke:red;stroke-width:1px;stroke-linecap:butt;stroke-linejoin:miter;stroke-opacity:1" d="M 253.238,839.195 253.238,855.7 z" id="boundary" inkscape:connector-curvature="0" />
	<path style="fill:none;stroke:red;stroke-width:1px;stroke-linecap:butt;stroke-linejoin:miter;stroke-opacity:1" d="M 253.238,887.062 261.491,901.917 z" id="boundary" inkscape:connector-curvature="0" />
	<path style="fill:none;stroke:red;stroke-width:1px;stroke-linecap:butt;stroke-linejoin:miter;stroke-opacity:1" d="M 256.539,244.985 264.792,259.84 z" id="boundary" inkscape:connector-curvature="0" />
	<path style="fill:none;stroke:red;stroke-width:1px;stroke-linecap:butt;stroke-linejoin:miter;stroke-opacity:1" d="M 259.84,66.7221 268.093,81.5774 z" id="boundary" inkscape:connector-curvature="0" />
	<path style="fill:none;stroke:red;stroke-width:1px;stroke-linecap:butt;stroke-linejoin:miter;stroke-opacity:1" d="M 261.491,187.215 269.744,164.106 z" id="boundary" inkscape:connector-curvature="0" />
	<path style="fill:none;stroke:red;stroke-width:1px;stroke-linecap:butt;stroke-linejoin:miter;stroke-opacity:1" d="M 261.491,773.171 261.491,789.677 z" id="boundary" inkscape:connector-curvature="0" />
	<path style="fill:none;stroke:red;stroke-width:1px;stroke-linecap:butt;stroke-linejoin:miter;stroke-opacity:1" d="M 261.491,773.171 269.744,756.666 z" id="boundary" inkscape:connector-curvature="0" />
	<path style="fill:none;stroke:red;stroke-width:1px;stroke-linecap:butt;stroke-linejoin:miter;stroke-opacity:1" d="M 261.491,789.677 261.491,806.183 z" id="boundary" inkscape:connector-curvature="0" />
	<path style="fill:none;stroke:red;stroke-width:1px;stroke-linecap:butt;stroke-linejoin:miter;stroke-opacity:1" d="M 261.491,901.917 274.696,913.471 z" id="boundary" inkscape:connector-curvature="0" />
	<path style="fill:none;stroke:red;stroke-width:1px;stroke-linecap:butt;stroke-linejoin:miter;stroke-opacity:1" d="M 261.491,987.747 277.997,987.747 z" id="boundary" inkscape:connector-curvature="0" />
	<path style="fill:none;stroke:red;stroke-width:1px;stroke-linecap:butt;stroke-linejoin:miter;stroke-opacity:1" d="M 264.792,259.84 276.346,273.045 z" id="boundary" inkscape:connector-curvature="0" />
	<path style="fill:none;stroke:red;stroke-width:1px;stroke-linecap:butt;stroke-linejoin:miter;stroke-opacity:1" d="M 268.093,81.5774 269.744,98.0832 z" id="boundary" inkscape:connector-curvature="0" />
	<path style="fill:none;stroke:red;stroke-width:1px;stroke-linecap:butt;stroke-linejoin:miter;stroke-opacity:1" d="M 269.744,98.0832 269.744,114.589 z" id="boundary" inkscape:connector-curvature="0" />
	<path style="fill:none;stroke:red;stroke-width:1px;stroke-linecap:butt;stroke-linejoin:miter;stroke-opacity:1" d="M 269.744,114.589 269.744,131.095 z" id="boundary" inkscape:connector-curvature="0" />
	<path style="fill:none;stroke:red;stroke-width:1px;stroke-linecap:butt;stroke-linejoin:miter;stroke-opacity:1" d="M 269.744,131.095 269.744,147.601 z" id="boundary" inkscape:connector-curvature="0" />
	<path style="fill:none;stroke:red;stroke-width:1px;stroke-linecap:butt;stroke-linejoin:miter;stroke-opacity:1" d="M 269.744,147.601 269.744,164.106 z" id="boundary" inkscape:connector-curvature="0" />
	<path style="fill:none;stroke:red;stroke-width:1px;stroke-linecap:butt;stroke-linejoin:miter;stroke-opacity:1" d="M 269.744,756.666 277.997,731.907 z" id="boundary" inkscape:connector-curvature="0" />
	<path style="fill:none;stroke:red;stroke-width:1px;stroke-linecap:butt;stroke-linejoin:miter;stroke-opacity:1" d="M 274.696,913.471 291.201,920.073 z" id="boundary" inkscape:connector-curvature="0" />
	<path style="fill:none;stroke:red;stroke-width:1px;stroke-linecap:butt;stroke-linejoin:miter;stroke-opacity:1" d="M 276.346,273.045 277.997,289.551 z" id="boundary" inkscape:connector-curvature="0" />
	<path style="fill:none;stroke:red;stroke-width:1px;stroke-linecap:butt;stroke-linejoin:miter;stroke-opacity:1" d="M 277.997,289.551 284.599,306.057 z" id="boundary" inkscape:connector-curvature="0" />
	<path style="fill:none;stroke:red;stroke-width:1px;stroke-linecap:butt;stroke-linejoin:miter;stroke-opacity:1" d="M 277.997,731.907 286.25,707.148 z" id="boundary" inkscape:connector-curvature="0" />
	<path style="fill:none;stroke:red;stroke-width:1px;stroke-linecap:butt;stroke-linejoin:miter;stroke-opacity:1" d="M 277.997,987.747 292.852,979.494 z" id="boundary" inkscape:connector-curvature="0" />
	<path style="fill:none;stroke:red;stroke-width:1px;stroke-linecap:butt;stroke-linejoin:miter;stroke-opacity:1" d="M 284.599,306.057 286.25,322.562 z" id="boundary" inkscape:connector-curvature="0" />
	<path style="fill:none;stroke:red;stroke-width:1px;stroke-linecap:butt;stroke-linejoin:miter;stroke-opacity:1" d="M 286.25,322.562 294.502,337.418 z" id="boundary" inkscape:connector-curvature="0" />
	<path style="fill:none;stroke:red;stroke-width:1px;stroke-linecap:butt;stroke-linejoin:miter;stroke-opacity:1" d="M 286.25,360.526 286.25,377.032 z" id="boundary" inkscape:connector-curvature="0" />
	<path style="fill:none;stroke:red;stroke-width:1px;stroke-linecap:butt;stroke-linejoin:miter;stroke-opacity:1" d="M 286.25,360.526 294.502,337.418 z" id="boundary" inkscape:connector-curvature="0" />
	<path style="fill:none;stroke:red;stroke-width:1px;stroke-linecap:butt;stroke-linejoin:miter;stroke-opacity:1" d="M 286.25,377.032 289.551,393.537 z" id="boundary" inkscape:connector-curvature="0" />
	<path style="fill:none;stroke:red;stroke-width:1px;stroke-linecap:butt;stroke-linejoin:miter;stroke-opacity:1" d="M 286.25,690.642 286.25,707.148 z" id="boundary" inkscape:connector-curvature="0" />
	<path style="fill:none;stroke:red;stroke-width:1px;stroke-linecap:butt;stroke-linejoin:miter;stroke-opacity:1" d="M 286.25,690.642 294.502,674.136 z" id="boundary" inkscape:connector-curvature="0" />
	<path style="fill:none;stroke:red;stroke-width:1px;stroke-linecap:butt;stroke-linejoin:miter;stroke-opacity:1" d="M 289.551,393.537 297.804,408.393 z" id="boundary" inkscape:connector-curvature="0" />
	<path style="fill:none;stroke:red;stroke-width:1px;stroke-linecap:butt;stroke-linejoin:miter;stroke-opacity:1" d="M 291.201,920.073 306.057,928.326 z" id="boundary" inkscape:connector-curvature="0" />
	<path style="fill:none;stroke:red;stroke-width:1px;stroke-linecap:butt;stroke-linejoin:miter;stroke-opacity:1" d="M 292.852,979.494 307.707,971.241 z" id="boundary" inkscape:connector-curvature="0" />
	<path style="fill:none;stroke:red;stroke-width:1px;stroke-linecap:butt;stroke-linejoin:miter;stroke-opacity:1" d="M 294.502,674.136 307.707,662.582 z" id="boundary" inkscape:connector-curvature="0" />
	<path style="fill:none;stroke:red;stroke-width:1px;stroke-linecap:butt;stroke-linejoin:miter;stroke-opacity:1" d="M 297.804,408.393 302.755,424.899 z" id="boundary" inkscape:connector-curvature="0" />
	<path style="fill:none;stroke:red;stroke-width:1px;stroke-linecap:butt;stroke-linejoin:miter;stroke-opacity:1" d="M 302.755,424.899 311.008,439.754 z" id="boundary" inkscape:connector-curvature="0" />
	<path style="fill:none;stroke:red;stroke-width:1px;stroke-linecap:butt;stroke-linejoin:miter;stroke-opacity:1" d="M 306.057,928.326 320.912,936.579 z" id="boundary" inkscape:connector-curvature="0" />
	<path style="fill:none;stroke:red;stroke-width:1px;stroke-linecap:butt;stroke-linejoin:miter;stroke-opacity:1" d="M 307.707,662.582 324.213,654.329 z" id="boundary" inkscape:connector-curvature="0" />
	<path style="fill:none;stroke:red;stroke-width:1px;stroke-linecap:butt;stroke-linejoin:miter;stroke-opacity:1" d="M 307.707,971.241 322.562,961.338 z" id="boundary" inkscape:connector-curvature="0" />
	<path style="fill:none;stroke:red;stroke-width:1px;stroke-linecap:butt;stroke-linejoin:miter;stroke-opacity:1" d="M 311.008,439.754 319.261,454.609 z" id="boundary" inkscape:connector-curvature="0" />
	<path style="fill:none;stroke:red;stroke-width:1px;stroke-linecap:butt;stroke-linejoin:miter;stroke-opacity:1" d="M 319.261,454.609 319.261,471.115 z" id="boundary" inkscape:connector-curvature="0" />
	<path style="fill:none;stroke:red;stroke-width:1px;stroke-linecap:butt;stroke-linejoin:miter;stroke-opacity:1" d="M 319.261,471.115 327.514,485.97 z" id="boundary" inkscape:connector-curvature="0" />
	<path style="fill:none;stroke:red;stroke-width:1px;stroke-linecap:butt;stroke-linejoin:miter;stroke-opacity:1" d="M 320.912,936.579 322.562,961.338 z" id="boundary" inkscape:connector-curvature="0" />
	<path style="fill:none;stroke:red;stroke-width:1px;stroke-linecap:butt;stroke-linejoin:miter;stroke-opacity:1" d="M 324.213,654.329 327.514,632.872 z" id="boundary" inkscape:connector-curvature="0" />
	<path style="fill:none;stroke:red;stroke-width:1px;stroke-linecap:butt;stroke-linejoin:miter;stroke-opacity:1" d="M 327.514,485.97 332.466,502.476 z" id="boundary" inkscape:connector-curvature="0" />
	<path style="fill:none;stroke:red;stroke-width:1px;stroke-linecap:butt;stroke-linejoin:miter;stroke-opacity:1" d="M 327.514,616.366 327.514,632.872 z" id="boundary" inkscape:connector-curvature="0" />
	<path style="fill:none;stroke:red;stroke-width:1px;stroke-linecap:butt;stroke-linejoin:miter;stroke-opacity:1" d="M 327.514,616.366 335.767,599.86 z" id="boundary" inkscape:connector-curvature="0" />
	<path style="fill:none;stroke:red;stroke-width:1px;stroke-linecap:butt;stroke-linejoin:miter;stroke-opacity:1" d="M 332.466,502.476 335.767,518.982 z" id="boundary" inkscape:connector-curvature="0" />
	<path style="fill:none;stroke:red;stroke-width:1px;stroke-linecap:butt;stroke-linejoin:miter;stroke-opacity:1" d="M 335.767,518.982 344.02,533.837 z" id="boundary" inkscape:connector-curvature="0" />
	<path style="fill:none;stroke:red;stroke-width:1px;stroke-linecap:butt;stroke-linejoin:miter;stroke-opacity:1" d="M 335.767,599.86 348.972,588.306 z" id="boundary" inkscape:connector-curvature="0" />
	<path style="fill:none;stroke:red;stroke-width:1px;stroke-linecap:butt;stroke-linejoin:miter;stroke-opacity:1" d="M 344.02,533.837 347.321,550.343 z" id="boundary" inkscape:connector-curvature="0" />
	<path style="fill:none;stroke:red;stroke-width:1px;stroke-linecap:butt;stroke-linejoin:miter;stroke-opacity:1" d="M 347.321,550.343 352.273,566.849 z" id="boundary" inkscape:connector-curvature="0" />
	<path style="fill:none;stroke:red;stroke-width:1px;stroke-linecap:butt;stroke-linejoin:miter;stroke-opacity:1" d="M 348.972,588.306 352.273,566.849 z" id="boundary" inkscape:connector-curvature="0" />
	<circle cx="4" cy="330.815" r="4" fill="#0" id="circle0"/>
	<circle cx="12.2529" cy="314.309" r="4" fill="#0" id="circle1"/>
	<circle cx="12.2529" cy="345.671" r="4" fill="#0" id="circle2"/>
	<circle cx="20.5058" cy="83.228" r="4" fill="#0" id="circle3"/>
	<circle cx="20.5058" cy="99.7338" r="4" fill="#0" id="circle4"/>
	<circle cx="20.5058" cy="289.551" r="4" fill="#0" id="circle5"/>
	<circle cx="20.5058" cy="360.526" r="4" fill="#0" id="circle6"/>
	<circle cx="25.4576" cy="377.032" r="4" fill="#0" id="circle7"/>
	<circle cx="28.7587" cy="66.7221" r="4" fill="#0" id="circle8"/>
	<circle cx="28.7587" cy="114.589" r="4" fill="#0" id="circle9"/>
	<circle cx="28.7587" cy="131.095" r="4" fill="#0" id="circle10"/>
	<circle cx="28.7587" cy="273.045" r="4" fill="#0" id="circle11"/>
	<circle cx="28.7587" cy="393.537" r="4" fill="#0" id="circle12"/>
	<circle cx="28.7587" cy="410.043" r="4" fill="#0" id="circle13"/>
	<circle cx="28.7587" cy="426.549" r="4" fill="#0" id="circle14"/>
	<circle cx="28.7587" cy="443.055" r="4" fill="#0" id="circle15"/>
	<circle cx="28.7587" cy="459.561" r="4" fill="#0" id="circle16"/>
	<circle cx="37.0116" cy="145.95" r="4" fill="#0" id="circle17"/>
	<circle cx="37.0116" cy="474.416" r="4" fill="#0" id="circle18"/>
	<circle cx="40.3128" cy="490.922" r="4" fill="#0" id="circle19"/>
	<circle cx="41.9634" cy="53.5175" r="4" fill="#0" id="circle20"/>
	<circle cx="41.9634" cy="259.84" r="4" fill="#0" id="circle21"/>
	<circle cx="46.9151" cy="159.155" r="4" fill="#0" id="circle22"/>
	<circle cx="48.5657" cy="505.777" r="4" fill="#0" id="circle23"/>
	<circle cx="53.5175" cy="522.283" r="4" fill="#0" id="circle24"/>
	<circle cx="53.5175" cy="538.789" r="4" fill="#0" id="circle25"/>
	<circle cx="55.1681" cy="40.3128" r="4" fill="#0" id="circle26"/>
	<circle cx="55.1681" cy="555.295" r="4" fill="#0" id="circle27"/>
	<circle cx="58.4692" cy="251.587" r="4" fill="#0" id="circle28"/>
	<circle cx="60.1198" cy="170.709" r="4" fill="#0" id="circle29"/>
	<circle cx="61.7704" cy="187.215" r="4" fill="#0" id="circle30"/>
	<circle cx="61.7704" cy="571.8" r="4" fill="#0" id="circle31"/>
	<circle cx="61.7704" cy="588.306" r="4" fill="#0" id="circle32"/>
	<circle cx="68.3727" cy="28.7587" r="4" fill="#0" id="circle33"/>
	<circle cx="70.0233" cy="202.07" r="4" fill="#0" id="circle34"/>
	<circle cx="70.0233" cy="218.576" r="4" fill="#0" id="circle35"/>
	<circle cx="70.0233" cy="235.082" r="4" fill="#0" id="circle36"/>
	<circle cx="70.0233" cy="603.161" r="4" fill="#0" id="circle37"/>
	<circle cx="70.0233" cy="619.667" r="4" fill="#0" id="circle38"/>
	<circle cx="78.2762" cy="634.522" r="4" fill="#0" id="circle39"/>
	<circle cx="78.2762" cy="651.028" r="4" fill="#0" id="circle40"/>
	<circle cx="83.228" cy="20.5058" r="4" fill="#0" id="circle41"/>
	<circle cx="86.5291" cy="665.884" r="4" fill="#0" id="circle42"/>
	<circle cx="94.782" cy="801.231" r="4" fill="#0" id="circle43"/>
	<circle cx="94.782" cy="817.737" r="4" fill="#0" id="circle44"/>
	<circle cx="94.782" cy="834.243" r="4" fill="#0" id="circle45"/>
	<circle cx="94.782" cy="949.784" r="4" fill="#0" id="circle46"/>
	<circle cx="96.4326" cy="679.088" r="4" fill="#0" id="circle47"/>
	<circle cx="98.0832" cy="12.2529" r="4" fill="#0" id="circle48"/>
	<circle cx="103.035" cy="784.725" r="4" fill="#0" id="circle49"/>
	<circle cx="103.035" cy="849.098" r="4" fill="#0" id="circle50"/>
	<circle cx="103.035" cy="865.604" r="4" fill="#0" id="circle51"/>
	<circle cx="103.035" cy="882.11" r="4" fill="#0" id="circle52"/>
	<circle cx="103.035" cy="898.616" r="4" fill="#0" id="circle53"/>
	<circle cx="103.035" cy="915.121" r="4" fill="#0" id="circle54"/>
	<circle cx="103.035" cy="931.627" r="4" fill="#0" id="circle55"/>
	<circle cx="103.035" cy="964.639" r="4" fill="#0" id="circle56"/>
	<circle cx="109.637" cy="690.642" r="4" fill="#0" id="circle57"/>
	<circle cx="111.288" cy="759.967" r="4" fill="#0" id="circle58"/>
	<circle cx="112.938" cy="4" r="4" fill="#0" id="circle59"/>
	<circle cx="114.589" cy="977.844" r="4" fill="#0" id="circle60"/>
	<circle cx="116.24" cy="707.148" r="4" fill="#0" id="circle61"/>
	<circle cx="119.541" cy="723.654" r="4" fill="#0" id="circle62"/>
	<circle cx="119.541" cy="740.16" r="4" fill="#0" id="circle63"/>
	<circle cx="129.444" cy="4" r="4" fill="#0" id="circle64"/>
	<circle cx="131.095" cy="979.494" r="4" fill="#0" id="circle65"/>
	<circle cx="145.95" cy="4" r="4" fill="#0" id="circle66"/>
	<circle cx="145.95" cy="987.747" r="4" fill="#0" id="circle67"/>
	<circle cx="162.456" cy="4" r="4" fill="#0" id="circle68"/>
	<circle cx="162.456" cy="991.048" r="4" fill="#0" id="circle69"/>
	<circle cx="177.311" cy="12.2529" r="4" fill="#0" id="circle70"/>
	<circle cx="178.962" cy="996" r="4" fill="#0" id="circle71"/>
	<circle cx="193.817" cy="15.5541" r="4" fill="#0" id="circle72"/>
	<circle cx="195.468" cy="996" r="4" fill="#0" id="circle73"/>
	<circle cx="208.672" cy="23.807" r="4" fill="#0" id="circle74"/>
	<circle cx="211.973" cy="996" r="4" fill="#0" id="circle75"/>
	<circle cx="225.178" cy="30.4093" r="4" fill="#0" id="circle76"/>
	<circle cx="228.479" cy="996" r="4" fill="#0" id="circle77"/>
	<circle cx="240.033" cy="38.6622" r="4" fill="#0" id="circle78"/>
	<circle cx="244.985" cy="872.206" r="4" fill="#0" id="circle79"/>
	<circle cx="244.985" cy="996" r="4" fill="#0" id="circle80"/>
	<circle cx="253.238" cy="50.2163" r="4" fill="#0" id="circle81"/>
	<circle cx="253.238" cy="211.973" r="4" fill="#0" id="circle82"/>
	<circle cx="253.238" cy="228.479" r="4" fill="#0" id="circle83"/>
	<circle cx="253.238" cy="822.689" r="4" fill="#0" id="circle84"/>
	<circle cx="253.238" cy="839.195" r="4" fill="#0" id="circle85"/>
	<circle cx="253.238" cy="855.7" r="4" fill="#0" id="circle86"/>
	<circle cx="253.238" cy="887.062" r="4" fill="#0" id="circle87"/>
	<circle cx="256.539" cy="244.985" r="4" fill="#0" id="circle88"/>
	<circle cx="259.84" cy="66.7221" r="4" fill="#0" id="circle89"/>
	<circle cx="261.491" cy="187.215" r="4" fill="#0" id="circle90"/>
	<circle cx="261.491" cy="773.171" r="4" fill="#0" id="circle91"/>
	<circle cx="261.491" cy="789.677" r="4" fill="#0" id="circle92"/>
	<circle cx="261.491" cy="806.183" r="4" fill="#0" id="circle93"/>
	<circle cx="261.491" cy="901.917" r="4" fill="#0" id="circle94"/>
	<circle cx="261.491" cy="987.747" r="4" fill="#0" id="circle95"/>
	<circle cx="264.792" cy="259.84" r="4" fill="#0" id="circle96"/>
	<circle cx="268.093" cy="81.5774" r="4" fill="#0" id="circle97"/>
	<circle cx="269.744" cy="98.0832" r="4" fill="#0" id="circle98"/>
	<circle cx="269.744" cy="114.589" r="4" fill="#0" id="circle99"/>
	<circle cx="269.744" cy="131.095" r="4" fill="#0" id="circle100"/>
	<circle cx="269.744" cy="147.601" r="4" fill="#0" id="circle101"/>
	<circle cx="269.744" cy="164.106" r="4" fill="#0" id="circle102"/>
	<circle cx="269.744" cy="756.666" r="4" fill="#0" id="circle103"/>
	<circle cx="274.696" cy="913.471" r="4" fill="#0" id="circle104"/>
	<circle cx="276.346" cy="273.045" r="4" fill="#0" id="circle105"/>
	<circle cx="277.997" cy="289.551" r="4" fill="#0" id="circle106"/>
	<circle cx="277.997" cy="731.907" r="4" fill="#0" id="circle107"/>
	<circle cx="277.997" cy="987.747" r="4" fill="#0" id="circle108"/>
	<circle cx="284.599" cy="306.057" r="4" fill="#0" id="circle109"/>
	<circle cx="286.25" cy="322.562" r="4" fill="#0" id="circle110"/>
	<circle cx="286.25" cy="360.526" r="4" fill="#0" id="circle111"/>
	<circle cx="286.25" cy="377.032" r="4" fill="#0" id="circle112"/>
	<circle cx="286.25" cy="690.642" r="4" fill="#0" id="circle113"/>
	<circle cx="286.25" cy="707.148" r="4" fill="#0" id="circle114"/>
	<circle cx="289.551" cy="393.537" r="4" fill="#0" id="circle115"/>
	<circle cx="291.201" cy="920.073" r="4" fill="#0" id="circle116"/>
	<circle cx="292.852" cy="979.494" r="4" fill="#0" id="circle117"/>
	<circle cx="294.502" cy="337.418" r="4" fill="#0" id="circle118"/>
	<circle cx="294.502" cy="674.136" r="4" fill="#0" id="circle119"/>
	<circle cx="297.804" cy="408.393" r="4" fill="#0" id="circle120"/>
	<circle cx="302.755" cy="424.899" r="4" fill="#0" id="circle121"/>
	<circle cx="306.057" cy="928.326" r="4" fill="#0" id="circle122"/>
	<circle cx="307.707" cy="662.582" r="4" fill="#0" id="circle123"/>
	<circle cx="307.707" cy="971.241" r="4" fill="#0" id="circle124"/>
	<circle cx="311.008" cy="439.754" r="4" fill="#0" id="circle125"/>
	<circle cx="319.261" cy="454.609" r="4" fill="#0" id="circle126"/>
	<circle cx="319.261" cy="471.115" r="4" fill="#0" id="circle127"/>
	<circle cx="320.912" cy="936.579" r="4" fill="#0" id="circle128"/>
	<circle cx="322.562" cy="961.338" r="4" fill="#0" id="circle129"/>
	<circle cx="324.213" cy="654.329" r="4" fill="#0" id="circle130"/>
	<circle cx="327.514" cy="485.97" r="4" fill="#0" id="circle131"/>
	<circle cx="327.514" cy="616.366" r="4" fill="#0" id="circle132"/>
	<circle cx="327.514" cy="632.872" r="4" fill="#0" id="circle133"/>
	<circle cx="332.466" cy="502.476" r="4" fill="#0" id="circle134"/>
	<circle cx="335.767" cy="518.982" r="4" fill="#0" id="circle135"/>
	<circle cx="335.767" cy="599.86" r="4" fill="#0" id="circle136"/>
	<circle cx="344.02" cy="533.837" r="4" fill="#0" id="circle137"/>
	<circle cx="347.321" cy="550.343" r="4" fill="#0" id="circle138"/>
	<circle cx="348.972" cy="588.306" r="4" fill="#0" id="circle139"/>
	<circle cx="352.273" cy="566.849" r="4" fill="#0" id="circle140"/>
	</g>
</svg>