<?xml version="1.0" encoding="UTF-8" standalone="no"?>
<!-- Created with CurveBenchmark -->
<svg
	xmlns:dc="http://purl.org/dc/elements/1.1/"
	xmlns:cc="http://creativecommons.org/ns#"
	xmlns:rdf="http://www.w3.org/1999/02/22-rdf-syntax-ns#"
	xmlns:svg="http://www.w3.org/2000/svg"
	xmlns="http://www.w3.org/2000/svg"
	xmlns:sodipodi="http://sodipodi.sourceforge.net/DTD/sodipodi-0.dtd"
	xmlns:inkscape="http://www.inkscape.org/namespaces/inkscape"
	width="1000"
	height="1000"
	id="svg2"
	version="1.1"
	sodipodi:docname="manifold/discur-tree-14.png.txt">
<defs
	id="defs4" />
<metadata
	id="metadata7">
	<rdf:RDF>
		<cc:Work
			rdf:about="">
			<dc:format>image/svg+xml</dc:format>
			<dc:type
				rdf:resource="http://purl.org/dc/dcmitype/StillImage" />
			<dc:title></dc:title>
		</cc:Work>
	</rdf:RDF>
</metadata>
<g
	inkscape:label="Layer 1"
	inkscape:groupmode="layer"
	id="layer1">
	<path style="fill:none;stroke:red;stroke-width:1px;stroke-linecap:butt;stroke-linejoin:miter;stroke-opacity:1" d="M 4,810 4,818.732 z" id="boundary" inkscape:connector-curvature="0" />
	<path style="fill:none;stroke:red;stroke-width:1px;stroke-linecap:butt;stroke-linejoin:miter;stroke-opacity:1" d="M 4,810 10.9859,803.014 z" id="boundary" inkscape:connector-curvature="0" />
	<path style="fill:none;stroke:red;stroke-width:1px;stroke-linecap:butt;stroke-linejoin:miter;stroke-opacity:1" d="M 4,818.732 8.3662,826.592 z" id="boundary" inkscape:connector-curvature="0" />
	<path style="fill:none;stroke:red;stroke-width:1px;stroke-linecap:butt;stroke-linejoin:miter;stroke-opacity:1" d="M 8.3662,826.592 17.0986,830.085 z" id="boundary" inkscape:connector-curvature="0" />
	<path style="fill:none;stroke:red;stroke-width:1px;stroke-linecap:butt;stroke-linejoin:miter;stroke-opacity:1" d="M 10.9859,803.014 19.7183,803.014 z" id="boundary" inkscape:connector-curvature="0" />
	<path style="fill:none;stroke:red;stroke-width:1px;stroke-linecap:butt;stroke-linejoin:miter;stroke-opacity:1" d="M 17.0986,830.085 24.9577,825.718 z" id="boundary" inkscape:connector-curvature="0" />
	<path style="fill:none;stroke:red;stroke-width:1px;stroke-linecap:butt;stroke-linejoin:miter;stroke-opacity:1" d="M 19.7183,803.014 27.5775,798.648 z" id="boundary" inkscape:connector-curvature="0" />
	<path style="fill:none;stroke:red;stroke-width:1px;stroke-linecap:butt;stroke-linejoin:miter;stroke-opacity:1" d="M 24.9577,825.718 33.6901,825.718 z" id="boundary" inkscape:connector-curvature="0" />
	<path style="fill:none;stroke:red;stroke-width:1px;stroke-linecap:butt;stroke-linejoin:miter;stroke-opacity:1" d="M 27.5775,798.648 34.5634,792.535 z" id="boundary" inkscape:connector-curvature="0" />
	<path style="fill:none;stroke:red;stroke-width:1px;stroke-linecap:butt;stroke-linejoin:miter;stroke-opacity:1" d="M 33.6901,825.718 42.4225,825.718 z" id="boundary" inkscape:connector-curvature="0" />
	<path style="fill:none;stroke:red;stroke-width:1px;stroke-linecap:butt;stroke-linejoin:miter;stroke-opacity:1" d="M 34.5634,792.535 41.5493,785.549 z" id="boundary" inkscape:connector-curvature="0" />
	<path style="fill:none;stroke:red;stroke-width:1px;stroke-linecap:butt;stroke-linejoin:miter;stroke-opacity:1" d="M 41.5493,785.549 48.5352,778.563 z" id="boundary" inkscape:connector-curvature="0" />
	<path style="fill:none;stroke:red;stroke-width:1px;stroke-linecap:butt;stroke-linejoin:miter;stroke-opacity:1" d="M 42.4225,825.718 51.1549,823.972 z" id="boundary" inkscape:connector-curvature="0" />
	<path style="fill:none;stroke:red;stroke-width:1px;stroke-linecap:butt;stroke-linejoin:miter;stroke-opacity:1" d="M 48.5352,778.563 52.9014,769.831 z" id="boundary" inkscape:connector-curvature="0" />
	<path style="fill:none;stroke:red;stroke-width:1px;stroke-linecap:butt;stroke-linejoin:miter;stroke-opacity:1" d="M 51.1549,823.972 59.8873,819.606 z" id="boundary" inkscape:connector-curvature="0" />
	<path style="fill:none;stroke:red;stroke-width:1px;stroke-linecap:butt;stroke-linejoin:miter;stroke-opacity:1" d="M 52.9014,769.831 59.8873,763.718 z" id="boundary" inkscape:connector-curvature="0" />
	<path style="fill:none;stroke:red;stroke-width:1px;stroke-linecap:butt;stroke-linejoin:miter;stroke-opacity:1" d="M 59.8873,763.718 66,756.732 z" id="boundary" inkscape:connector-curvature="0" />
	<path style="fill:none;stroke:red;stroke-width:1px;stroke-linecap:butt;stroke-linejoin:miter;stroke-opacity:1" d="M 59.8873,819.606 68.6197,816.986 z" id="boundary" inkscape:connector-curvature="0" />
	<path style="fill:none;stroke:red;stroke-width:1px;stroke-linecap:butt;stroke-linejoin:miter;stroke-opacity:1" d="M 66,756.732 72.9859,750.62 z" id="boundary" inkscape:connector-curvature="0" />
	<path style="fill:none;stroke:red;stroke-width:1px;stroke-linecap:butt;stroke-linejoin:miter;stroke-opacity:1" d="M 68.6197,816.986 76.4789,812.62 z" id="boundary" inkscape:connector-curvature="0" />
	<path style="fill:none;stroke:red;stroke-width:1px;stroke-linecap:butt;stroke-linejoin:miter;stroke-opacity:1" d="M 72.9859,750.62 80.8451,746.254 z" id="boundary" inkscape:connector-curvature="0" />
	<path style="fill:none;stroke:red;stroke-width:1px;stroke-linecap:butt;stroke-linejoin:miter;stroke-opacity:1" d="M 73.8592,591.69 73.8592,600.423 z" id="boundary" inkscape:connector-curvature="0" />
	<path style="fill:none;stroke:red;stroke-width:1px;stroke-linecap:butt;stroke-linejoin:miter;stroke-opacity:1" d="M 73.8592,591.69 78.2254,582.958 z" id="boundary" inkscape:connector-curvature="0" />
	<path style="fill:none;stroke:red;stroke-width:1px;stroke-linecap:butt;stroke-linejoin:miter;stroke-opacity:1" d="M 73.8592,600.423 89.5775,607.408 z" id="boundary" inkscape:connector-curvature="0" />
	<path style="fill:none;stroke:red;stroke-width:1px;stroke-linecap:butt;stroke-linejoin:miter;stroke-opacity:1" d="M 76.4789,812.62 85.2113,812.62 z" id="boundary" inkscape:connector-curvature="0" />
	<path style="fill:none;stroke:red;stroke-width:1px;stroke-linecap:butt;stroke-linejoin:miter;stroke-opacity:1" d="M 78.2254,582.958 85.2113,575.972 z" id="boundary" inkscape:connector-curvature="0" />
	<path style="fill:none;stroke:red;stroke-width:1px;stroke-linecap:butt;stroke-linejoin:miter;stroke-opacity:1" d="M 80.8451,746.254 87.831,739.268 z" id="boundary" inkscape:connector-curvature="0" />
	<path style="fill:none;stroke:red;stroke-width:1px;stroke-linecap:butt;stroke-linejoin:miter;stroke-opacity:1" d="M 85.2113,575.972 92.1972,568.986 z" id="boundary" inkscape:connector-curvature="0" />
	<path style="fill:none;stroke:red;stroke-width:1px;stroke-linecap:butt;stroke-linejoin:miter;stroke-opacity:1" d="M 85.2113,812.62 93.9437,812.62 z" id="boundary" inkscape:connector-curvature="0" />
	<path style="fill:none;stroke:red;stroke-width:1px;stroke-linecap:butt;stroke-linejoin:miter;stroke-opacity:1" d="M 87.831,739.268 91.3239,727.042 z" id="boundary" inkscape:connector-curvature="0" />
	<path style="fill:none;stroke:red;stroke-width:1px;stroke-linecap:butt;stroke-linejoin:miter;stroke-opacity:1" d="M 89.5775,607.408 98.3099,607.408 z" id="boundary" inkscape:connector-curvature="0" />
	<path style="fill:none;stroke:red;stroke-width:1px;stroke-linecap:butt;stroke-linejoin:miter;stroke-opacity:1" d="M 91.3239,727.042 95.6901,718.31 z" id="boundary" inkscape:connector-curvature="0" />
	<path style="fill:none;stroke:red;stroke-width:1px;stroke-linecap:butt;stroke-linejoin:miter;stroke-opacity:1" d="M 92.1972,568.986 96.5634,560.254 z" id="boundary" inkscape:connector-curvature="0" />
	<path style="fill:none;stroke:red;stroke-width:1px;stroke-linecap:butt;stroke-linejoin:miter;stroke-opacity:1" d="M 93.9437,812.62 102.676,811.746 z" id="boundary" inkscape:connector-curvature="0" />
	<path style="fill:none;stroke:red;stroke-width:1px;stroke-linecap:butt;stroke-linejoin:miter;stroke-opacity:1" d="M 95.6901,718.31 102.676,711.324 z" id="boundary" inkscape:connector-curvature="0" />
	<path style="fill:none;stroke:red;stroke-width:1px;stroke-linecap:butt;stroke-linejoin:miter;stroke-opacity:1" d="M 96.5634,560.254 103.549,554.141 z" id="boundary" inkscape:connector-curvature="0" />
	<path style="fill:none;stroke:red;stroke-width:1px;stroke-linecap:butt;stroke-linejoin:miter;stroke-opacity:1" d="M 98.3099,607.408 107.042,607.408 z" id="boundary" inkscape:connector-curvature="0" />
	<path style="fill:none;stroke:red;stroke-width:1px;stroke-linecap:butt;stroke-linejoin:miter;stroke-opacity:1" d="M 102.676,711.324 109.662,704.338 z" id="boundary" inkscape:connector-curvature="0" />
	<path style="fill:none;stroke:red;stroke-width:1px;stroke-linecap:butt;stroke-linejoin:miter;stroke-opacity:1" d="M 102.676,811.746 111.408,808.254 z" id="boundary" inkscape:connector-curvature="0" />
	<path style="fill:none;stroke:red;stroke-width:1px;stroke-linecap:butt;stroke-linejoin:miter;stroke-opacity:1" d="M 103.549,554.141 109.662,547.155 z" id="boundary" inkscape:connector-curvature="0" />
	<path style="fill:none;stroke:red;stroke-width:1px;stroke-linecap:butt;stroke-linejoin:miter;stroke-opacity:1" d="M 107.042,607.408 115.775,607.408 z" id="boundary" inkscape:connector-curvature="0" />
	<path style="fill:none;stroke:red;stroke-width:1px;stroke-linecap:butt;stroke-linejoin:miter;stroke-opacity:1" d="M 109.662,547.155 114.028,538.423 z" id="boundary" inkscape:connector-curvature="0" />
	<path style="fill:none;stroke:red;stroke-width:1px;stroke-linecap:butt;stroke-linejoin:miter;stroke-opacity:1" d="M 109.662,704.338 114.028,695.606 z" id="boundary" inkscape:connector-curvature="0" />
	<path style="fill:none;stroke:red;stroke-width:1px;stroke-linecap:butt;stroke-linejoin:miter;stroke-opacity:1" d="M 111.408,808.254 119.268,803.887 z" id="boundary" inkscape:connector-curvature="0" />
	<path style="fill:none;stroke:red;stroke-width:1px;stroke-linecap:butt;stroke-linejoin:miter;stroke-opacity:1" d="M 114.028,538.423 121.014,532.31 z" id="boundary" inkscape:connector-curvature="0" />
	<path style="fill:none;stroke:red;stroke-width:1px;stroke-linecap:butt;stroke-linejoin:miter;stroke-opacity:1" d="M 114.028,695.606 121.014,689.493 z" id="boundary" inkscape:connector-curvature="0" />
	<path style="fill:none;stroke:red;stroke-width:1px;stroke-linecap:butt;stroke-linejoin:miter;stroke-opacity:1" d="M 115.775,607.408 124.507,606.535 z" id="boundary" inkscape:connector-curvature="0" />
	<path style="fill:none;stroke:red;stroke-width:1px;stroke-linecap:butt;stroke-linejoin:miter;stroke-opacity:1" d="M 119.268,803.887 128,803.887 z" id="boundary" inkscape:connector-curvature="0" />
	<path style="fill:none;stroke:red;stroke-width:1px;stroke-linecap:butt;stroke-linejoin:miter;stroke-opacity:1" d="M 121.014,532.31 124.507,523.577 z" id="boundary" inkscape:connector-curvature="0" />
	<path style="fill:none;stroke:red;stroke-width:1px;stroke-linecap:butt;stroke-linejoin:miter;stroke-opacity:1" d="M 121.014,689.493 124.507,680.761 z" id="boundary" inkscape:connector-curvature="0" />
	<path style="fill:none;stroke:red;stroke-width:1px;stroke-linecap:butt;stroke-linejoin:miter;stroke-opacity:1" d="M 124.507,523.577 126.254,513.099 z" id="boundary" inkscape:connector-curvature="0" />
	<path style="fill:none;stroke:red;stroke-width:1px;stroke-linecap:butt;stroke-linejoin:miter;stroke-opacity:1" d="M 124.507,606.535 133.239,603.042 z" id="boundary" inkscape:connector-curvature="0" />
	<path style="fill:none;stroke:red;stroke-width:1px;stroke-linecap:butt;stroke-linejoin:miter;stroke-opacity:1" d="M 124.507,680.761 130.62,670.282 z" id="boundary" inkscape:connector-curvature="0" />
	<path style="fill:none;stroke:red;stroke-width:1px;stroke-linecap:butt;stroke-linejoin:miter;stroke-opacity:1" d="M 126.254,513.099 130.62,504.366 z" id="boundary" inkscape:connector-curvature="0" />
	<path style="fill:none;stroke:red;stroke-width:1px;stroke-linecap:butt;stroke-linejoin:miter;stroke-opacity:1" d="M 128,803.887 136.732,803.887 z" id="boundary" inkscape:connector-curvature="0" />
	<path style="fill:none;stroke:red;stroke-width:1px;stroke-linecap:butt;stroke-linejoin:miter;stroke-opacity:1" d="M 130.62,347.183 130.62,355.915 z" id="boundary" inkscape:connector-curvature="0" />
	<path style="fill:none;stroke:red;stroke-width:1px;stroke-linecap:butt;stroke-linejoin:miter;stroke-opacity:1" d="M 130.62,347.183 137.606,340.197 z" id="boundary" inkscape:connector-curvature="0" />
	<path style="fill:none;stroke:red;stroke-width:1px;stroke-linecap:butt;stroke-linejoin:miter;stroke-opacity:1" d="M 130.62,355.915 134.986,363.775 z" id="boundary" inkscape:connector-curvature="0" />
	<path style="fill:none;stroke:red;stroke-width:1px;stroke-linecap:butt;stroke-linejoin:miter;stroke-opacity:1" d="M 130.62,504.366 137.606,497.38 z" id="boundary" inkscape:connector-curvature="0" />
	<path style="fill:none;stroke:red;stroke-width:1px;stroke-linecap:butt;stroke-linejoin:miter;stroke-opacity:1" d="M 130.62,670.282 137.606,663.296 z" id="boundary" inkscape:connector-curvature="0" />
	<path style="fill:none;stroke:red;stroke-width:1px;stroke-linecap:butt;stroke-linejoin:miter;stroke-opacity:1" d="M 133.239,603.042 141.972,602.169 z" id="boundary" inkscape:connector-curvature="0" />
	<path style="fill:none;stroke:red;stroke-width:1px;stroke-linecap:butt;stroke-linejoin:miter;stroke-opacity:1" d="M 134.986,363.775 143.718,367.268 z" id="boundary" inkscape:connector-curvature="0" />
	<path style="fill:none;stroke:red;stroke-width:1px;stroke-linecap:butt;stroke-linejoin:miter;stroke-opacity:1" d="M 136.732,803.887 145.465,803.887 z" id="boundary" inkscape:connector-curvature="0" />
	<path style="fill:none;stroke:red;stroke-width:1px;stroke-linecap:butt;stroke-linejoin:miter;stroke-opacity:1" d="M 137.606,340.197 141.972,331.465 z" id="boundary" inkscape:connector-curvature="0" />
	<path style="fill:none;stroke:red;stroke-width:1px;stroke-linecap:butt;stroke-linejoin:miter;stroke-opacity:1" d="M 137.606,497.38 141.972,488.648 z" id="boundary" inkscape:connector-curvature="0" />
	<path style="fill:none;stroke:red;stroke-width:1px;stroke-linecap:butt;stroke-linejoin:miter;stroke-opacity:1" d="M 137.606,663.296 143.718,652.817 z" id="boundary" inkscape:connector-curvature="0" />
	<path style="fill:none;stroke:red;stroke-width:1px;stroke-linecap:butt;stroke-linejoin:miter;stroke-opacity:1" d="M 141.972,331.465 148.085,320.986 z" id="boundary" inkscape:connector-curvature="0" />
	<path style="fill:none;stroke:red;stroke-width:1px;stroke-linecap:butt;stroke-linejoin:miter;stroke-opacity:1" d="M 141.972,488.648 146.338,479.915 z" id="boundary" inkscape:connector-curvature="0" />
	<path style="fill:none;stroke:red;stroke-width:1px;stroke-linecap:butt;stroke-linejoin:miter;stroke-opacity:1" d="M 141.972,602.169 150.704,598.676 z" id="boundary" inkscape:connector-curvature="0" />
	<path style="fill:none;stroke:red;stroke-width:1px;stroke-linecap:butt;stroke-linejoin:miter;stroke-opacity:1" d="M 143.718,367.268 151.577,371.634 z" id="boundary" inkscape:connector-curvature="0" />
	<path style="fill:none;stroke:red;stroke-width:1px;stroke-linecap:butt;stroke-linejoin:miter;stroke-opacity:1" d="M 143.718,652.817 150.704,645.831 z" id="boundary" inkscape:connector-curvature="0" />
	<path style="fill:none;stroke:red;stroke-width:1px;stroke-linecap:butt;stroke-linejoin:miter;stroke-opacity:1" d="M 145.465,803.887 154.197,803.887 z" id="boundary" inkscape:connector-curvature="0" />
	<path style="fill:none;stroke:red;stroke-width:1px;stroke-linecap:butt;stroke-linejoin:miter;stroke-opacity:1" d="M 146.338,479.915 148.085,469.437 z" id="boundary" inkscape:connector-curvature="0" />
	<path style="fill:none;stroke:red;stroke-width:1px;stroke-linecap:butt;stroke-linejoin:miter;stroke-opacity:1" d="M 148.085,320.986 155.07,314 z" id="boundary" inkscape:connector-curvature="0" />
	<path style="fill:none;stroke:red;stroke-width:1px;stroke-linecap:butt;stroke-linejoin:miter;stroke-opacity:1" d="M 148.085,469.437 155.07,462.451 z" id="boundary" inkscape:connector-curvature="0" />
	<path style="fill:none;stroke:red;stroke-width:1px;stroke-linecap:butt;stroke-linejoin:miter;stroke-opacity:1" d="M 150.704,598.676 158.563,594.31 z" id="boundary" inkscape:connector-curvature="0" />
	<path style="fill:none;stroke:red;stroke-width:1px;stroke-linecap:butt;stroke-linejoin:miter;stroke-opacity:1" d="M 150.704,645.831 155.07,637.099 z" id="boundary" inkscape:connector-curvature="0" />
	<path style="fill:none;stroke:red;stroke-width:1px;stroke-linecap:butt;stroke-linejoin:miter;stroke-opacity:1" d="M 151.577,371.634 160.31,371.634 z" id="boundary" inkscape:connector-curvature="0" />
	<path style="fill:none;stroke:red;stroke-width:1px;stroke-linecap:butt;stroke-linejoin:miter;stroke-opacity:1" d="M 154.197,803.887 162.93,803.887 z" id="boundary" inkscape:connector-curvature="0" />
	<path style="fill:none;stroke:red;stroke-width:1px;stroke-linecap:butt;stroke-linejoin:miter;stroke-opacity:1" d="M 155.07,314 162.056,307.014 z" id="boundary" inkscape:connector-curvature="0" />
	<path style="fill:none;stroke:red;stroke-width:1px;stroke-linecap:butt;stroke-linejoin:miter;stroke-opacity:1" d="M 155.07,462.451 159.437,453.718 z" id="boundary" inkscape:connector-curvature="0" />
	<path style="fill:none;stroke:red;stroke-width:1px;stroke-linecap:butt;stroke-linejoin:miter;stroke-opacity:1" d="M 155.07,637.099 156.817,626.62 z" id="boundary" inkscape:connector-curvature="0" />
	<path style="fill:none;stroke:red;stroke-width:1px;stroke-linecap:butt;stroke-linejoin:miter;stroke-opacity:1" d="M 156.817,617.887 156.817,626.62 z" id="boundary" inkscape:connector-curvature="0" />
	<path style="fill:none;stroke:red;stroke-width:1px;stroke-linecap:butt;stroke-linejoin:miter;stroke-opacity:1" d="M 156.817,617.887 163.803,610.901 z" id="boundary" inkscape:connector-curvature="0" />
	<path style="fill:none;stroke:red;stroke-width:1px;stroke-linecap:butt;stroke-linejoin:miter;stroke-opacity:1" d="M 158.563,594.31 167.296,594.31 z" id="boundary" inkscape:connector-curvature="0" />
	<path style="fill:none;stroke:red;stroke-width:1px;stroke-linecap:butt;stroke-linejoin:miter;stroke-opacity:1" d="M 159.437,453.718 166.423,446.732 z" id="boundary" inkscape:connector-curvature="0" />
	<path style="fill:none;stroke:red;stroke-width:1px;stroke-linecap:butt;stroke-linejoin:miter;stroke-opacity:1" d="M 160.31,371.634 169.042,371.634 z" id="boundary" inkscape:connector-curvature="0" />
	<path style="fill:none;stroke:red;stroke-width:1px;stroke-linecap:butt;stroke-linejoin:miter;stroke-opacity:1" d="M 162.056,307.014 169.042,300.901 z" id="boundary" inkscape:connector-curvature="0" />
	<path style="fill:none;stroke:red;stroke-width:1px;stroke-linecap:butt;stroke-linejoin:miter;stroke-opacity:1" d="M 162.93,803.887 171.662,803.887 z" id="boundary" inkscape:connector-curvature="0" />
	<path style="fill:none;stroke:red;stroke-width:1px;stroke-linecap:butt;stroke-linejoin:miter;stroke-opacity:1" d="M 163.803,610.901 168.169,603.042 z" id="boundary" inkscape:connector-curvature="0" />
	<path style="fill:none;stroke:red;stroke-width:1px;stroke-linecap:butt;stroke-linejoin:miter;stroke-opacity:1" d="M 166.423,446.732 173.408,440.62 z" id="boundary" inkscape:connector-curvature="0" />
	<path style="fill:none;stroke:red;stroke-width:1px;stroke-linecap:butt;stroke-linejoin:miter;stroke-opacity:1" d="M 167.296,594.31 175.155,589.944 z" id="boundary" inkscape:connector-curvature="0" />
	<path style="fill:none;stroke:red;stroke-width:1px;stroke-linecap:butt;stroke-linejoin:miter;stroke-opacity:1" d="M 168.169,603.042 175.155,589.944 z" id="boundary" inkscape:connector-curvature="0" />
	<path style="fill:none;stroke:red;stroke-width:1px;stroke-linecap:butt;stroke-linejoin:miter;stroke-opacity:1" d="M 169.042,300.901 175.155,293.915 z" id="boundary" inkscape:connector-curvature="0" />
	<path style="fill:none;stroke:red;stroke-width:1px;stroke-linecap:butt;stroke-linejoin:miter;stroke-opacity:1" d="M 169.042,371.634 177.775,371.634 z" id="boundary" inkscape:connector-curvature="0" />
	<path style="fill:none;stroke:red;stroke-width:1px;stroke-linecap:butt;stroke-linejoin:miter;stroke-opacity:1" d="M 171.662,803.887 179.521,799.521 z" id="boundary" inkscape:connector-curvature="0" />
	<path style="fill:none;stroke:red;stroke-width:1px;stroke-linecap:butt;stroke-linejoin:miter;stroke-opacity:1" d="M 173.408,440.62 179.521,433.634 z" id="boundary" inkscape:connector-curvature="0" />
	<path style="fill:none;stroke:red;stroke-width:1px;stroke-linecap:butt;stroke-linejoin:miter;stroke-opacity:1" d="M 175.155,293.915 185.634,279.07 z" id="boundary" inkscape:connector-curvature="0" />
	<path style="fill:none;stroke:red;stroke-width:1px;stroke-linecap:butt;stroke-linejoin:miter;stroke-opacity:1" d="M 177.775,371.634 186.507,371.634 z" id="boundary" inkscape:connector-curvature="0" />
	<path style="fill:none;stroke:red;stroke-width:1px;stroke-linecap:butt;stroke-linejoin:miter;stroke-opacity:1" d="M 179.521,433.634 183.014,421.408 z" id="boundary" inkscape:connector-curvature="0" />
	<path style="fill:none;stroke:red;stroke-width:1px;stroke-linecap:butt;stroke-linejoin:miter;stroke-opacity:1" d="M 179.521,799.521 188.254,799.521 z" id="boundary" inkscape:connector-curvature="0" />
	<path style="fill:none;stroke:red;stroke-width:1px;stroke-linecap:butt;stroke-linejoin:miter;stroke-opacity:1" d="M 183.014,421.408 187.38,412.676 z" id="boundary" inkscape:connector-curvature="0" />
	<path style="fill:none;stroke:red;stroke-width:1px;stroke-linecap:butt;stroke-linejoin:miter;stroke-opacity:1" d="M 185.634,279.07 192.62,272.085 z" id="boundary" inkscape:connector-curvature="0" />
	<path style="fill:none;stroke:red;stroke-width:1px;stroke-linecap:butt;stroke-linejoin:miter;stroke-opacity:1" d="M 186.507,371.634 194.366,367.268 z" id="boundary" inkscape:connector-curvature="0" />
	<path style="fill:none;stroke:red;stroke-width:1px;stroke-linecap:butt;stroke-linejoin:miter;stroke-opacity:1" d="M 187.38,412.676 191.746,399.577 z" id="boundary" inkscape:connector-curvature="0" />
	<path style="fill:none;stroke:red;stroke-width:1px;stroke-linecap:butt;stroke-linejoin:miter;stroke-opacity:1" d="M 188.254,799.521 196.986,799.521 z" id="boundary" inkscape:connector-curvature="0" />
	<path style="fill:none;stroke:red;stroke-width:1px;stroke-linecap:butt;stroke-linejoin:miter;stroke-opacity:1" d="M 191.746,399.577 196.113,386.479 z" id="boundary" inkscape:connector-curvature="0" />
	<path style="fill:none;stroke:red;stroke-width:1px;stroke-linecap:butt;stroke-linejoin:miter;stroke-opacity:1" d="M 192.62,272.085 199.606,265.972 z" id="boundary" inkscape:connector-curvature="0" />
	<path style="fill:none;stroke:red;stroke-width:1px;stroke-linecap:butt;stroke-linejoin:miter;stroke-opacity:1" d="M 194.366,367.268 202.225,362.901 z" id="boundary" inkscape:connector-curvature="0" />
	<path style="fill:none;stroke:red;stroke-width:1px;stroke-linecap:butt;stroke-linejoin:miter;stroke-opacity:1" d="M 196.113,386.479 200.479,377.746 z" id="boundary" inkscape:connector-curvature="0" />
	<path style="fill:none;stroke:red;stroke-width:1px;stroke-linecap:butt;stroke-linejoin:miter;stroke-opacity:1" d="M 196.986,799.521 205.718,799.521 z" id="boundary" inkscape:connector-curvature="0" />
	<path style="fill:none;stroke:red;stroke-width:1px;stroke-linecap:butt;stroke-linejoin:miter;stroke-opacity:1" d="M 199.606,265.972 203.099,257.239 z" id="boundary" inkscape:connector-curvature="0" />
	<path style="fill:none;stroke:red;stroke-width:1px;stroke-linecap:butt;stroke-linejoin:miter;stroke-opacity:1" d="M 200.479,377.746 202.225,362.901 z" id="boundary" inkscape:connector-curvature="0" />
	<path style="fill:none;stroke:red;stroke-width:1px;stroke-linecap:butt;stroke-linejoin:miter;stroke-opacity:1" d="M 203.099,257.239 210.085,250.254 z" id="boundary" inkscape:connector-curvature="0" />
	<path style="fill:none;stroke:red;stroke-width:1px;stroke-linecap:butt;stroke-linejoin:miter;stroke-opacity:1" d="M 205.718,799.521 214.451,799.521 z" id="boundary" inkscape:connector-curvature="0" />
	<path style="fill:none;stroke:red;stroke-width:1px;stroke-linecap:butt;stroke-linejoin:miter;stroke-opacity:1" d="M 210.085,250.254 213.577,238.028 z" id="boundary" inkscape:connector-curvature="0" />
	<path style="fill:none;stroke:red;stroke-width:1px;stroke-linecap:butt;stroke-linejoin:miter;stroke-opacity:1" d="M 213.577,238.028 220.563,231.042 z" id="boundary" inkscape:connector-curvature="0" />
	<path style="fill:none;stroke:red;stroke-width:1px;stroke-linecap:butt;stroke-linejoin:miter;stroke-opacity:1" d="M 214.451,799.521 223.183,799.521 z" id="boundary" inkscape:connector-curvature="0" />
	<path style="fill:none;stroke:red;stroke-width:1px;stroke-linecap:butt;stroke-linejoin:miter;stroke-opacity:1" d="M 220.563,231.042 227.549,224.056 z" id="boundary" inkscape:connector-curvature="0" />
	<path style="fill:none;stroke:red;stroke-width:1px;stroke-linecap:butt;stroke-linejoin:miter;stroke-opacity:1" d="M 223.183,799.521 231.915,799.521 z" id="boundary" inkscape:connector-curvature="0" />
	<path style="fill:none;stroke:red;stroke-width:1px;stroke-linecap:butt;stroke-linejoin:miter;stroke-opacity:1" d="M 227.549,224.056 231.915,215.324 z" id="boundary" inkscape:connector-curvature="0" />
	<path style="fill:none;stroke:red;stroke-width:1px;stroke-linecap:butt;stroke-linejoin:miter;stroke-opacity:1" d="M 231.915,215.324 236.282,206.592 z" id="boundary" inkscape:connector-curvature="0" />
	<path style="fill:none;stroke:red;stroke-width:1px;stroke-linecap:butt;stroke-linejoin:miter;stroke-opacity:1" d="M 231.915,799.521 240.648,799.521 z" id="boundary" inkscape:connector-curvature="0" />
	<path style="fill:none;stroke:red;stroke-width:1px;stroke-linecap:butt;stroke-linejoin:miter;stroke-opacity:1" d="M 236.282,206.592 243.268,200.479 z" id="boundary" inkscape:connector-curvature="0" />
	<path style="fill:none;stroke:red;stroke-width:1px;stroke-linecap:butt;stroke-linejoin:miter;stroke-opacity:1" d="M 240.648,799.521 249.38,799.521 z" id="boundary" inkscape:connector-curvature="0" />
	<path style="fill:none;stroke:red;stroke-width:1px;stroke-linecap:butt;stroke-linejoin:miter;stroke-opacity:1" d="M 243.268,200.479 246.761,191.746 z" id="boundary" inkscape:connector-curvature="0" />
	<path style="fill:none;stroke:red;stroke-width:1px;stroke-linecap:butt;stroke-linejoin:miter;stroke-opacity:1" d="M 246.761,191.746 253.746,184.761 z" id="boundary" inkscape:connector-curvature="0" />
	<path style="fill:none;stroke:red;stroke-width:1px;stroke-linecap:butt;stroke-linejoin:miter;stroke-opacity:1" d="M 249.38,799.521 258.113,799.521 z" id="boundary" inkscape:connector-curvature="0" />
	<path style="fill:none;stroke:red;stroke-width:1px;stroke-linecap:butt;stroke-linejoin:miter;stroke-opacity:1" d="M 253.746,184.761 258.113,176.028 z" id="boundary" inkscape:connector-curvature="0" />
	<path style="fill:none;stroke:red;stroke-width:1px;stroke-linecap:butt;stroke-linejoin:miter;stroke-opacity:1" d="M 258.113,176.028 262.479,167.296 z" id="boundary" inkscape:connector-curvature="0" />
	<path style="fill:none;stroke:red;stroke-width:1px;stroke-linecap:butt;stroke-linejoin:miter;stroke-opacity:1" d="M 258.113,799.521 266.845,799.521 z" id="boundary" inkscape:connector-curvature="0" />
	<path style="fill:none;stroke:red;stroke-width:1px;stroke-linecap:butt;stroke-linejoin:miter;stroke-opacity:1" d="M 262.479,167.296 269.465,161.183 z" id="boundary" inkscape:connector-curvature="0" />
	<path style="fill:none;stroke:red;stroke-width:1px;stroke-linecap:butt;stroke-linejoin:miter;stroke-opacity:1" d="M 266.845,799.521 275.577,799.521 z" id="boundary" inkscape:connector-curvature="0" />
	<path style="fill:none;stroke:red;stroke-width:1px;stroke-linecap:butt;stroke-linejoin:miter;stroke-opacity:1" d="M 269.465,161.183 270.338,150.704 z" id="boundary" inkscape:connector-curvature="0" />
	<path style="fill:none;stroke:red;stroke-width:1px;stroke-linecap:butt;stroke-linejoin:miter;stroke-opacity:1" d="M 270.338,150.704 274.704,141.972 z" id="boundary" inkscape:connector-curvature="0" />
	<path style="fill:none;stroke:red;stroke-width:1px;stroke-linecap:butt;stroke-linejoin:miter;stroke-opacity:1" d="M 274.704,141.972 281.69,134.986 z" id="boundary" inkscape:connector-curvature="0" />
	<path style="fill:none;stroke:red;stroke-width:1px;stroke-linecap:butt;stroke-linejoin:miter;stroke-opacity:1" d="M 275.577,799.521 284.31,799.521 z" id="boundary" inkscape:connector-curvature="0" />
	<path style="fill:none;stroke:red;stroke-width:1px;stroke-linecap:butt;stroke-linejoin:miter;stroke-opacity:1" d="M 281.69,134.986 287.803,124.507 z" id="boundary" inkscape:connector-curvature="0" />
	<path style="fill:none;stroke:red;stroke-width:1px;stroke-linecap:butt;stroke-linejoin:miter;stroke-opacity:1" d="M 284.31,799.521 293.042,799.521 z" id="boundary" inkscape:connector-curvature="0" />
	<path style="fill:none;stroke:red;stroke-width:1px;stroke-linecap:butt;stroke-linejoin:miter;stroke-opacity:1" d="M 287.803,124.507 292.169,115.775 z" id="boundary" inkscape:connector-curvature="0" />
	<path style="fill:none;stroke:red;stroke-width:1px;stroke-linecap:butt;stroke-linejoin:miter;stroke-opacity:1" d="M 292.169,115.775 296.535,107.042 z" id="boundary" inkscape:connector-curvature="0" />
	<path style="fill:none;stroke:red;stroke-width:1px;stroke-linecap:butt;stroke-linejoin:miter;stroke-opacity:1" d="M 293.042,799.521 301.775,799.521 z" id="boundary" inkscape:connector-curvature="0" />
	<path style="fill:none;stroke:red;stroke-width:1px;stroke-linecap:butt;stroke-linejoin:miter;stroke-opacity:1" d="M 296.535,107.042 300.901,98.3099 z" id="boundary" inkscape:connector-curvature="0" />
	<path style="fill:none;stroke:red;stroke-width:1px;stroke-linecap:butt;stroke-linejoin:miter;stroke-opacity:1" d="M 300.901,98.3099 305.268,89.5775 z" id="boundary" inkscape:connector-curvature="0" />
	<path style="fill:none;stroke:red;stroke-width:1px;stroke-linecap:butt;stroke-linejoin:miter;stroke-opacity:1" d="M 301.775,799.521 310.507,799.521 z" id="boundary" inkscape:connector-curvature="0" />
	<path style="fill:none;stroke:red;stroke-width:1px;stroke-linecap:butt;stroke-linejoin:miter;stroke-opacity:1" d="M 305.268,89.5775 309.634,80.8451 z" id="boundary" inkscape:connector-curvature="0" />
	<path style="fill:none;stroke:red;stroke-width:1px;stroke-linecap:butt;stroke-linejoin:miter;stroke-opacity:1" d="M 309.634,80.8451 314,67.7465 z" id="boundary" inkscape:connector-curvature="0" />
	<path style="fill:none;stroke:red;stroke-width:1px;stroke-linecap:butt;stroke-linejoin:miter;stroke-opacity:1" d="M 309.634,888.592 309.634,897.324 z" id="boundary" inkscape:connector-curvature="0" />
	<path style="fill:none;stroke:red;stroke-width:1px;stroke-linecap:butt;stroke-linejoin:miter;stroke-opacity:1" d="M 309.634,888.592 314,875.493 z" id="boundary" inkscape:connector-curvature="0" />
	<path style="fill:none;stroke:red;stroke-width:1px;stroke-linecap:butt;stroke-linejoin:miter;stroke-opacity:1" d="M 309.634,897.324 309.634,906.056 z" id="boundary" inkscape:connector-curvature="0" />
	<path style="fill:none;stroke:red;stroke-width:1px;stroke-linecap:butt;stroke-linejoin:miter;stroke-opacity:1" d="M 309.634,906.056 309.634,914.789 z" id="boundary" inkscape:connector-curvature="0" />
	<path style="fill:none;stroke:red;stroke-width:1px;stroke-linecap:butt;stroke-linejoin:miter;stroke-opacity:1" d="M 309.634,914.789 309.634,923.521 z" id="boundary" inkscape:connector-curvature="0" />
	<path style="fill:none;stroke:red;stroke-width:1px;stroke-linecap:butt;stroke-linejoin:miter;stroke-opacity:1" d="M 309.634,923.521 309.634,932.254 z" id="boundary" inkscape:connector-curvature="0" />
	<path style="fill:none;stroke:red;stroke-width:1px;stroke-linecap:butt;stroke-linejoin:miter;stroke-opacity:1" d="M 309.634,932.254 309.634,940.986 z" id="boundary" inkscape:connector-curvature="0" />
	<path style="fill:none;stroke:red;stroke-width:1px;stroke-linecap:butt;stroke-linejoin:miter;stroke-opacity:1" d="M 309.634,940.986 309.634,949.718 z" id="boundary" inkscape:connector-curvature="0" />
	<path style="fill:none;stroke:red;stroke-width:1px;stroke-linecap:butt;stroke-linejoin:miter;stroke-opacity:1" d="M 309.634,949.718 309.634,958.451 z" id="boundary" inkscape:connector-curvature="0" />
	<path style="fill:none;stroke:red;stroke-width:1px;stroke-linecap:butt;stroke-linejoin:miter;stroke-opacity:1" d="M 309.634,958.451 309.634,967.183 z" id="boundary" inkscape:connector-curvature="0" />
	<path style="fill:none;stroke:red;stroke-width:1px;stroke-linecap:butt;stroke-linejoin:miter;stroke-opacity:1" d="M 309.634,967.183 309.634,975.915 z" id="boundary" inkscape:connector-curvature="0" />
	<path style="fill:none;stroke:red;stroke-width:1px;stroke-linecap:butt;stroke-linejoin:miter;stroke-opacity:1" d="M 309.634,975.915 316.62,982.028 z" id="boundary" inkscape:connector-curvature="0" />
	<path style="fill:none;stroke:red;stroke-width:1px;stroke-linecap:butt;stroke-linejoin:miter;stroke-opacity:1" d="M 310.507,799.521 319.239,799.521 z" id="boundary" inkscape:connector-curvature="0" />
	<path style="fill:none;stroke:red;stroke-width:1px;stroke-linecap:butt;stroke-linejoin:miter;stroke-opacity:1" d="M 314,67.7465 320.986,60.7606 z" id="boundary" inkscape:connector-curvature="0" />
	<path style="fill:none;stroke:red;stroke-width:1px;stroke-linecap:butt;stroke-linejoin:miter;stroke-opacity:1" d="M 314,849.296 314,858.028 z" id="boundary" inkscape:connector-curvature="0" />
	<path style="fill:none;stroke:red;stroke-width:1px;stroke-linecap:butt;stroke-linejoin:miter;stroke-opacity:1" d="M 314,849.296 318.366,840.563 z" id="boundary" inkscape:connector-curvature="0" />
	<path style="fill:none;stroke:red;stroke-width:1px;stroke-linecap:butt;stroke-linejoin:miter;stroke-opacity:1" d="M 314,858.028 314,866.761 z" id="boundary" inkscape:connector-curvature="0" />
	<path style="fill:none;stroke:red;stroke-width:1px;stroke-linecap:butt;stroke-linejoin:miter;stroke-opacity:1" d="M 314,866.761 314,875.493 z" id="boundary" inkscape:connector-curvature="0" />
	<path style="fill:none;stroke:red;stroke-width:1px;stroke-linecap:butt;stroke-linejoin:miter;stroke-opacity:1" d="M 316.62,982.028 323.606,987.268 z" id="boundary" inkscape:connector-curvature="0" />
	<path style="fill:none;stroke:red;stroke-width:1px;stroke-linecap:butt;stroke-linejoin:miter;stroke-opacity:1" d="M 318.366,823.099 318.366,831.831 z" id="boundary" inkscape:connector-curvature="0" />
	<path style="fill:none;stroke:red;stroke-width:1px;stroke-linecap:butt;stroke-linejoin:miter;stroke-opacity:1" d="M 318.366,823.099 322.732,808.254 z" id="boundary" inkscape:connector-curvature="0" />
	<path style="fill:none;stroke:red;stroke-width:1px;stroke-linecap:butt;stroke-linejoin:miter;stroke-opacity:1" d="M 318.366,831.831 318.366,840.563 z" id="boundary" inkscape:connector-curvature="0" />
	<path style="fill:none;stroke:red;stroke-width:1px;stroke-linecap:butt;stroke-linejoin:miter;stroke-opacity:1" d="M 319.239,799.521 322.732,808.254 z" id="boundary" inkscape:connector-curvature="0" />
	<path style="fill:none;stroke:red;stroke-width:1px;stroke-linecap:butt;stroke-linejoin:miter;stroke-opacity:1" d="M 320.986,60.7606 322.732,50.2817 z" id="boundary" inkscape:connector-curvature="0" />
	<path style="fill:none;stroke:red;stroke-width:1px;stroke-linecap:butt;stroke-linejoin:miter;stroke-opacity:1" d="M 322.732,50.2817 329.718,43.2958 z" id="boundary" inkscape:connector-curvature="0" />
	<path style="fill:none;stroke:red;stroke-width:1px;stroke-linecap:butt;stroke-linejoin:miter;stroke-opacity:1" d="M 323.606,987.268 332.338,987.268 z" id="boundary" inkscape:connector-curvature="0" />
	<path style="fill:none;stroke:red;stroke-width:1px;stroke-linecap:butt;stroke-linejoin:miter;stroke-opacity:1" d="M 329.718,43.2958 334.085,34.5634 z" id="boundary" inkscape:connector-curvature="0" />
	<path style="fill:none;stroke:red;stroke-width:1px;stroke-linecap:butt;stroke-linejoin:miter;stroke-opacity:1" d="M 332.338,987.268 341.07,987.268 z" id="boundary" inkscape:connector-curvature="0" />
	<path style="fill:none;stroke:red;stroke-width:1px;stroke-linecap:butt;stroke-linejoin:miter;stroke-opacity:1" d="M 334.085,34.5634 335.831,24.0845 z" id="boundary" inkscape:connector-curvature="0" />
	<path style="fill:none;stroke:red;stroke-width:1px;stroke-linecap:butt;stroke-linejoin:miter;stroke-opacity:1" d="M 335.831,24.0845 340.197,15.3521 z" id="boundary" inkscape:connector-curvature="0" />
	<path style="fill:none;stroke:red;stroke-width:1px;stroke-linecap:butt;stroke-linejoin:miter;stroke-opacity:1" d="M 340.197,15.3521 347.183,8.3662 z" id="boundary" inkscape:connector-curvature="0" />
	<path style="fill:none;stroke:red;stroke-width:1px;stroke-linecap:butt;stroke-linejoin:miter;stroke-opacity:1" d="M 341.07,987.268 349.803,987.268 z" id="boundary" inkscape:connector-curvature="0" />
	<path style="fill:none;stroke:red;stroke-width:1px;stroke-linecap:butt;stroke-linejoin:miter;stroke-opacity:1" d="M 347.183,8.3662 355.042,4 z" id="boundary" inkscape:connector-curvature="0" />
	<path style="fill:none;stroke:red;stroke-width:1px;stroke-linecap:butt;stroke-linejoin:miter;stroke-opacity:1" d="M 349.803,987.268 358.535,987.268 z" id="boundary" inkscape:connector-curvature="0" />
	<path style="fill:none;stroke:red;stroke-width:1px;stroke-linecap:butt;stroke-linejoin:miter;stroke-opacity:1" d="M 355.042,4 362.901,8.3662 z" id="boundary" inkscape:connector-curvature="0" />
	<path style="fill:none;stroke:red;stroke-width:1px;stroke-linecap:butt;stroke-linejoin:miter;stroke-opacity:1" d="M 358.535,987.268 367.268,987.268 z" id="boundary" inkscape:connector-curvature="0" />
	<path style="fill:none;stroke:red;stroke-width:1px;stroke-linecap:butt;stroke-linejoin:miter;stroke-opacity:1" d="M 362.901,8.3662 367.268,16.2254 z" id="boundary" inkscape:connector-curvature="0" />
	<path style="fill:none;stroke:red;stroke-width:1px;stroke-linecap:butt;stroke-linejoin:miter;stroke-opacity:1" d="M 367.268,16.2254 374.254,21.4648 z" id="boundary" inkscape:connector-curvature="0" />
	<path style="fill:none;stroke:red;stroke-width:1px;stroke-linecap:butt;stroke-linejoin:miter;stroke-opacity:1" d="M 367.268,987.268 376,987.268 z" id="boundary" inkscape:connector-curvature="0" />
	<path style="fill:none;stroke:red;stroke-width:1px;stroke-linecap:butt;stroke-linejoin:miter;stroke-opacity:1" d="M 374.254,21.4648 382.113,25.831 z" id="boundary" inkscape:connector-curvature="0" />
	<path style="fill:none;stroke:red;stroke-width:1px;stroke-linecap:butt;stroke-linejoin:miter;stroke-opacity:1" d="M 376,987.268 384.732,987.268 z" id="boundary" inkscape:connector-curvature="0" />
	<path style="fill:none;stroke:red;stroke-width:1px;stroke-linecap:butt;stroke-linejoin:miter;stroke-opacity:1" d="M 382.113,25.831 384.732,34.5634 z" id="boundary" inkscape:connector-curvature="0" />
	<path style="fill:none;stroke:red;stroke-width:1px;stroke-linecap:butt;stroke-linejoin:miter;stroke-opacity:1" d="M 384.732,34.5634 389.099,42.4225 z" id="boundary" inkscape:connector-curvature="0" />
	<path style="fill:none;stroke:red;stroke-width:1px;stroke-linecap:butt;stroke-linejoin:miter;stroke-opacity:1" d="M 384.732,987.268 393.465,987.268 z" id="boundary" inkscape:connector-curvature="0" />
	<path style="fill:none;stroke:red;stroke-width:1px;stroke-linecap:butt;stroke-linejoin:miter;stroke-opacity:1" d="M 389.099,42.4225 396.085,48.5352 z" id="boundary" inkscape:connector-curvature="0" />
	<path style="fill:none;stroke:red;stroke-width:1px;stroke-linecap:butt;stroke-linejoin:miter;stroke-opacity:1" d="M 393.465,987.268 402.197,987.268 z" id="boundary" inkscape:connector-curvature="0" />
	<path style="fill:none;stroke:red;stroke-width:1px;stroke-linecap:butt;stroke-linejoin:miter;stroke-opacity:1" d="M 396.085,48.5352 399.577,57.2676 z" id="boundary" inkscape:connector-curvature="0" />
	<path style="fill:none;stroke:red;stroke-width:1px;stroke-linecap:butt;stroke-linejoin:miter;stroke-opacity:1" d="M 399.577,57.2676 402.197,66 z" id="boundary" inkscape:connector-curvature="0" />
	<path style="fill:none;stroke:red;stroke-width:1px;stroke-linecap:butt;stroke-linejoin:miter;stroke-opacity:1" d="M 402.197,66 406.563,73.8592 z" id="boundary" inkscape:connector-curvature="0" />
	<path style="fill:none;stroke:red;stroke-width:1px;stroke-linecap:butt;stroke-linejoin:miter;stroke-opacity:1" d="M 402.197,987.268 410.93,987.268 z" id="boundary" inkscape:connector-curvature="0" />
	<path style="fill:none;stroke:red;stroke-width:1px;stroke-linecap:butt;stroke-linejoin:miter;stroke-opacity:1" d="M 406.563,73.8592 410.93,81.7183 z" id="boundary" inkscape:connector-curvature="0" />
	<path style="fill:none;stroke:red;stroke-width:1px;stroke-linecap:butt;stroke-linejoin:miter;stroke-opacity:1" d="M 410.93,81.7183 415.296,89.5775 z" id="boundary" inkscape:connector-curvature="0" />
	<path style="fill:none;stroke:red;stroke-width:1px;stroke-linecap:butt;stroke-linejoin:miter;stroke-opacity:1" d="M 410.93,987.268 418.789,991.634 z" id="boundary" inkscape:connector-curvature="0" />
	<path style="fill:none;stroke:red;stroke-width:1px;stroke-linecap:butt;stroke-linejoin:miter;stroke-opacity:1" d="M 415.296,89.5775 421.408,96.5634 z" id="boundary" inkscape:connector-curvature="0" />
	<path style="fill:none;stroke:red;stroke-width:1px;stroke-linecap:butt;stroke-linejoin:miter;stroke-opacity:1" d="M 418.789,991.634 427.521,991.634 z" id="boundary" inkscape:connector-curvature="0" />
	<path style="fill:none;stroke:red;stroke-width:1px;stroke-linecap:butt;stroke-linejoin:miter;stroke-opacity:1" d="M 421.408,96.5634 425.775,104.423 z" id="boundary" inkscape:connector-curvature="0" />
	<path style="fill:none;stroke:red;stroke-width:1px;stroke-linecap:butt;stroke-linejoin:miter;stroke-opacity:1" d="M 425.775,104.423 428.394,113.155 z" id="boundary" inkscape:connector-curvature="0" />
	<path style="fill:none;stroke:red;stroke-width:1px;stroke-linecap:butt;stroke-linejoin:miter;stroke-opacity:1" d="M 427.521,991.634 435.38,996 z" id="boundary" inkscape:connector-curvature="0" />
	<path style="fill:none;stroke:red;stroke-width:1px;stroke-linecap:butt;stroke-linejoin:miter;stroke-opacity:1" d="M 428.394,113.155 432.761,121.014 z" id="boundary" inkscape:connector-curvature="0" />
	<path style="fill:none;stroke:red;stroke-width:1px;stroke-linecap:butt;stroke-linejoin:miter;stroke-opacity:1" d="M 432.761,121.014 437.127,128.873 z" id="boundary" inkscape:connector-curvature="0" />
	<path style="fill:none;stroke:red;stroke-width:1px;stroke-linecap:butt;stroke-linejoin:miter;stroke-opacity:1" d="M 435.38,996 444.113,996 z" id="boundary" inkscape:connector-curvature="0" />
	<path style="fill:none;stroke:red;stroke-width:1px;stroke-linecap:butt;stroke-linejoin:miter;stroke-opacity:1" d="M 437.127,128.873 443.239,135.859 z" id="boundary" inkscape:connector-curvature="0" />
	<path style="fill:none;stroke:red;stroke-width:1px;stroke-linecap:butt;stroke-linejoin:miter;stroke-opacity:1" d="M 443.239,135.859 445.859,144.592 z" id="boundary" inkscape:connector-curvature="0" />
	<path style="fill:none;stroke:red;stroke-width:1px;stroke-linecap:butt;stroke-linejoin:miter;stroke-opacity:1" d="M 444.113,996 452.845,996 z" id="boundary" inkscape:connector-curvature="0" />
	<path style="fill:none;stroke:red;stroke-width:1px;stroke-linecap:butt;stroke-linejoin:miter;stroke-opacity:1" d="M 445.859,144.592 450.225,152.451 z" id="boundary" inkscape:connector-curvature="0" />
	<path style="fill:none;stroke:red;stroke-width:1px;stroke-linecap:butt;stroke-linejoin:miter;stroke-opacity:1" d="M 450.225,152.451 457.211,157.69 z" id="boundary" inkscape:connector-curvature="0" />
	<path style="fill:none;stroke:red;stroke-width:1px;stroke-linecap:butt;stroke-linejoin:miter;stroke-opacity:1" d="M 450.225,808.254 458.958,808.254 z" id="boundary" inkscape:connector-curvature="0" />
	<path style="fill:none;stroke:red;stroke-width:1px;stroke-linecap:butt;stroke-linejoin:miter;stroke-opacity:1" d="M 452.845,996 461.577,996 z" id="boundary" inkscape:connector-curvature="0" />
	<path style="fill:none;stroke:red;stroke-width:1px;stroke-linecap:butt;stroke-linejoin:miter;stroke-opacity:1" d="M 454.592,816.113 458.958,808.254 z" id="boundary" inkscape:connector-curvature="0" />
	<path style="fill:none;stroke:red;stroke-width:1px;stroke-linecap:butt;stroke-linejoin:miter;stroke-opacity:1" d="M 454.592,816.113 458.958,823.972 z" id="boundary" inkscape:connector-curvature="0" />
	<path style="fill:none;stroke:red;stroke-width:1px;stroke-linecap:butt;stroke-linejoin:miter;stroke-opacity:1" d="M 457.211,157.69 460.704,166.423 z" id="boundary" inkscape:connector-curvature="0" />
	<path style="fill:none;stroke:red;stroke-width:1px;stroke-linecap:butt;stroke-linejoin:miter;stroke-opacity:1" d="M 458.958,823.972 463.324,831.831 z" id="boundary" inkscape:connector-curvature="0" />
	<path style="fill:none;stroke:red;stroke-width:1px;stroke-linecap:butt;stroke-linejoin:miter;stroke-opacity:1" d="M 460.704,166.423 465.07,174.282 z" id="boundary" inkscape:connector-curvature="0" />
	<path style="fill:none;stroke:red;stroke-width:1px;stroke-linecap:butt;stroke-linejoin:miter;stroke-opacity:1" d="M 461.577,996 469.437,990.761 z" id="boundary" inkscape:connector-curvature="0" />
	<path style="fill:none;stroke:red;stroke-width:1px;stroke-linecap:butt;stroke-linejoin:miter;stroke-opacity:1" d="M 463.324,831.831 463.324,840.563 z" id="boundary" inkscape:connector-curvature="0" />
	<path style="fill:none;stroke:red;stroke-width:1px;stroke-linecap:butt;stroke-linejoin:miter;stroke-opacity:1" d="M 463.324,840.563 463.324,849.296 z" id="boundary" inkscape:connector-curvature="0" />
	<path style="fill:none;stroke:red;stroke-width:1px;stroke-linecap:butt;stroke-linejoin:miter;stroke-opacity:1" d="M 463.324,849.296 463.324,858.028 z" id="boundary" inkscape:connector-curvature="0" />
	<path style="fill:none;stroke:red;stroke-width:1px;stroke-linecap:butt;stroke-linejoin:miter;stroke-opacity:1" d="M 463.324,858.028 466.817,866.761 z" id="boundary" inkscape:connector-curvature="0" />
	<path style="fill:none;stroke:red;stroke-width:1px;stroke-linecap:butt;stroke-linejoin:miter;stroke-opacity:1" d="M 465.07,174.282 478.169,187.38 z" id="boundary" inkscape:connector-curvature="0" />
	<path style="fill:none;stroke:red;stroke-width:1px;stroke-linecap:butt;stroke-linejoin:miter;stroke-opacity:1" d="M 466.817,866.761 467.69,875.493 z" id="boundary" inkscape:connector-curvature="0" />
	<path style="fill:none;stroke:red;stroke-width:1px;stroke-linecap:butt;stroke-linejoin:miter;stroke-opacity:1" d="M 467.69,808.254 476.423,808.254 z" id="boundary" inkscape:connector-curvature="0" />
	<path style="fill:none;stroke:red;stroke-width:1px;stroke-linecap:butt;stroke-linejoin:miter;stroke-opacity:1" d="M 467.69,875.493 467.69,884.225 z" id="boundary" inkscape:connector-curvature="0" />
	<path style="fill:none;stroke:red;stroke-width:1px;stroke-linecap:butt;stroke-linejoin:miter;stroke-opacity:1" d="M 467.69,884.225 471.183,892.958 z" id="boundary" inkscape:connector-curvature="0" />
	<path style="fill:none;stroke:red;stroke-width:1px;stroke-linecap:butt;stroke-linejoin:miter;stroke-opacity:1" d="M 469.437,990.761 476.423,979.408 z" id="boundary" inkscape:connector-curvature="0" />
	<path style="fill:none;stroke:red;stroke-width:1px;stroke-linecap:butt;stroke-linejoin:miter;stroke-opacity:1" d="M 471.183,892.958 472.056,901.69 z" id="boundary" inkscape:connector-curvature="0" />
	<path style="fill:none;stroke:red;stroke-width:1px;stroke-linecap:butt;stroke-linejoin:miter;stroke-opacity:1" d="M 472.056,901.69 472.056,910.423 z" id="boundary" inkscape:connector-curvature="0" />
	<path style="fill:none;stroke:red;stroke-width:1px;stroke-linecap:butt;stroke-linejoin:miter;stroke-opacity:1" d="M 472.056,910.423 472.056,919.155 z" id="boundary" inkscape:connector-curvature="0" />
	<path style="fill:none;stroke:red;stroke-width:1px;stroke-linecap:butt;stroke-linejoin:miter;stroke-opacity:1" d="M 472.056,919.155 472.056,927.887 z" id="boundary" inkscape:connector-curvature="0" />
	<path style="fill:none;stroke:red;stroke-width:1px;stroke-linecap:butt;stroke-linejoin:miter;stroke-opacity:1" d="M 472.056,927.887 472.056,936.62 z" id="boundary" inkscape:connector-curvature="0" />
	<path style="fill:none;stroke:red;stroke-width:1px;stroke-linecap:butt;stroke-linejoin:miter;stroke-opacity:1" d="M 472.056,936.62 472.056,945.352 z" id="boundary" inkscape:connector-curvature="0" />
	<path style="fill:none;stroke:red;stroke-width:1px;stroke-linecap:butt;stroke-linejoin:miter;stroke-opacity:1" d="M 472.056,945.352 476.423,953.211 z" id="boundary" inkscape:connector-curvature="0" />
	<path style="fill:none;stroke:red;stroke-width:1px;stroke-linecap:butt;stroke-linejoin:miter;stroke-opacity:1" d="M 476.423,808.254 485.155,808.254 z" id="boundary" inkscape:connector-curvature="0" />
	<path style="fill:none;stroke:red;stroke-width:1px;stroke-linecap:butt;stroke-linejoin:miter;stroke-opacity:1" d="M 476.423,953.211 476.423,961.944 z" id="boundary" inkscape:connector-curvature="0" />
	<path style="fill:none;stroke:red;stroke-width:1px;stroke-linecap:butt;stroke-linejoin:miter;stroke-opacity:1" d="M 476.423,961.944 476.423,970.676 z" id="boundary" inkscape:connector-curvature="0" />
	<path style="fill:none;stroke:red;stroke-width:1px;stroke-linecap:butt;stroke-linejoin:miter;stroke-opacity:1" d="M 476.423,970.676 476.423,979.408 z" id="boundary" inkscape:connector-curvature="0" />
	<path style="fill:none;stroke:red;stroke-width:1px;stroke-linecap:butt;stroke-linejoin:miter;stroke-opacity:1" d="M 478.169,187.38 480.789,196.113 z" id="boundary" inkscape:connector-curvature="0" />
	<path style="fill:none;stroke:red;stroke-width:1px;stroke-linecap:butt;stroke-linejoin:miter;stroke-opacity:1" d="M 480.789,196.113 487.775,201.352 z" id="boundary" inkscape:connector-curvature="0" />
	<path style="fill:none;stroke:red;stroke-width:1px;stroke-linecap:butt;stroke-linejoin:miter;stroke-opacity:1" d="M 485.155,808.254 493.014,812.62 z" id="boundary" inkscape:connector-curvature="0" />
	<path style="fill:none;stroke:red;stroke-width:1px;stroke-linecap:butt;stroke-linejoin:miter;stroke-opacity:1" d="M 487.775,201.352 493.887,208.338 z" id="boundary" inkscape:connector-curvature="0" />
	<path style="fill:none;stroke:red;stroke-width:1px;stroke-linecap:butt;stroke-linejoin:miter;stroke-opacity:1" d="M 493.014,812.62 501.746,812.62 z" id="boundary" inkscape:connector-curvature="0" />
	<path style="fill:none;stroke:red;stroke-width:1px;stroke-linecap:butt;stroke-linejoin:miter;stroke-opacity:1" d="M 493.887,208.338 498.254,216.197 z" id="boundary" inkscape:connector-curvature="0" />
	<path style="fill:none;stroke:red;stroke-width:1px;stroke-linecap:butt;stroke-linejoin:miter;stroke-opacity:1" d="M 498.254,216.197 502.62,224.056 z" id="boundary" inkscape:connector-curvature="0" />
	<path style="fill:none;stroke:red;stroke-width:1px;stroke-linecap:butt;stroke-linejoin:miter;stroke-opacity:1" d="M 501.746,812.62 510.479,812.62 z" id="boundary" inkscape:connector-curvature="0" />
	<path style="fill:none;stroke:red;stroke-width:1px;stroke-linecap:butt;stroke-linejoin:miter;stroke-opacity:1" d="M 502.62,224.056 507.859,231.042 z" id="boundary" inkscape:connector-curvature="0" />
	<path style="fill:none;stroke:red;stroke-width:1px;stroke-linecap:butt;stroke-linejoin:miter;stroke-opacity:1" d="M 507.859,231.042 514.845,237.155 z" id="boundary" inkscape:connector-curvature="0" />
	<path style="fill:none;stroke:red;stroke-width:1px;stroke-linecap:butt;stroke-linejoin:miter;stroke-opacity:1" d="M 510.479,812.62 519.211,812.62 z" id="boundary" inkscape:connector-curvature="0" />
	<path style="fill:none;stroke:red;stroke-width:1px;stroke-linecap:butt;stroke-linejoin:miter;stroke-opacity:1" d="M 514.845,237.155 518.338,245.887 z" id="boundary" inkscape:connector-curvature="0" />
	<path style="fill:none;stroke:red;stroke-width:1px;stroke-linecap:butt;stroke-linejoin:miter;stroke-opacity:1" d="M 515.718,380.366 517.465,389.099 z" id="boundary" inkscape:connector-curvature="0" />
	<path style="fill:none;stroke:red;stroke-width:1px;stroke-linecap:butt;stroke-linejoin:miter;stroke-opacity:1" d="M 515.718,380.366 525.324,384.732 z" id="boundary" inkscape:connector-curvature="0" />
	<path style="fill:none;stroke:red;stroke-width:1px;stroke-linecap:butt;stroke-linejoin:miter;stroke-opacity:1" d="M 517.465,389.099 521.831,396.958 z" id="boundary" inkscape:connector-curvature="0" />
	<path style="fill:none;stroke:red;stroke-width:1px;stroke-linecap:butt;stroke-linejoin:miter;stroke-opacity:1" d="M 518.338,245.887 524.451,252.873 z" id="boundary" inkscape:connector-curvature="0" />
	<path style="fill:none;stroke:red;stroke-width:1px;stroke-linecap:butt;stroke-linejoin:miter;stroke-opacity:1" d="M 519.211,812.62 527.944,812.62 z" id="boundary" inkscape:connector-curvature="0" />
	<path style="fill:none;stroke:red;stroke-width:1px;stroke-linecap:butt;stroke-linejoin:miter;stroke-opacity:1" d="M 521.831,396.958 524.451,405.69 z" id="boundary" inkscape:connector-curvature="0" />
	<path style="fill:none;stroke:red;stroke-width:1px;stroke-linecap:butt;stroke-linejoin:miter;stroke-opacity:1" d="M 524.451,252.873 531.437,258.113 z" id="boundary" inkscape:connector-curvature="0" />
	<path style="fill:none;stroke:red;stroke-width:1px;stroke-linecap:butt;stroke-linejoin:miter;stroke-opacity:1" d="M 524.451,405.69 528.817,413.549 z" id="boundary" inkscape:connector-curvature="0" />
	<path style="fill:none;stroke:red;stroke-width:1px;stroke-linecap:butt;stroke-linejoin:miter;stroke-opacity:1" d="M 525.324,384.732 533.183,389.099 z" id="boundary" inkscape:connector-curvature="0" />
	<path style="fill:none;stroke:red;stroke-width:1px;stroke-linecap:butt;stroke-linejoin:miter;stroke-opacity:1" d="M 527.944,812.62 535.803,816.986 z" id="boundary" inkscape:connector-curvature="0" />
	<path style="fill:none;stroke:red;stroke-width:1px;stroke-linecap:butt;stroke-linejoin:miter;stroke-opacity:1" d="M 528.817,413.549 528.817,422.282 z" id="boundary" inkscape:connector-curvature="0" />
	<path style="fill:none;stroke:red;stroke-width:1px;stroke-linecap:butt;stroke-linejoin:miter;stroke-opacity:1" d="M 528.817,422.282 533.183,430.141 z" id="boundary" inkscape:connector-curvature="0" />
	<path style="fill:none;stroke:red;stroke-width:1px;stroke-linecap:butt;stroke-linejoin:miter;stroke-opacity:1" d="M 531.437,258.113 537.549,265.099 z" id="boundary" inkscape:connector-curvature="0" />
	<path style="fill:none;stroke:red;stroke-width:1px;stroke-linecap:butt;stroke-linejoin:miter;stroke-opacity:1" d="M 533.183,389.099 541.915,390.845 z" id="boundary" inkscape:connector-curvature="0" />
	<path style="fill:none;stroke:red;stroke-width:1px;stroke-linecap:butt;stroke-linejoin:miter;stroke-opacity:1" d="M 533.183,430.141 537.549,438 z" id="boundary" inkscape:connector-curvature="0" />
	<path style="fill:none;stroke:red;stroke-width:1px;stroke-linecap:butt;stroke-linejoin:miter;stroke-opacity:1" d="M 535.803,816.986 544.535,816.986 z" id="boundary" inkscape:connector-curvature="0" />
	<path style="fill:none;stroke:red;stroke-width:1px;stroke-linecap:butt;stroke-linejoin:miter;stroke-opacity:1" d="M 537.549,265.099 541.915,272.958 z" id="boundary" inkscape:connector-curvature="0" />
	<path style="fill:none;stroke:red;stroke-width:1px;stroke-linecap:butt;stroke-linejoin:miter;stroke-opacity:1" d="M 537.549,438 537.549,446.732 z" id="boundary" inkscape:connector-curvature="0" />
	<path style="fill:none;stroke:red;stroke-width:1px;stroke-linecap:butt;stroke-linejoin:miter;stroke-opacity:1" d="M 537.549,446.732 542.789,453.718 z" id="boundary" inkscape:connector-curvature="0" />
	<path style="fill:none;stroke:red;stroke-width:1px;stroke-linecap:butt;stroke-linejoin:miter;stroke-opacity:1" d="M 541.915,272.958 545.408,281.69 z" id="boundary" inkscape:connector-curvature="0" />
	<path style="fill:none;stroke:red;stroke-width:1px;stroke-linecap:butt;stroke-linejoin:miter;stroke-opacity:1" d="M 541.915,390.845 550.648,393.465 z" id="boundary" inkscape:connector-curvature="0" />
	<path style="fill:none;stroke:red;stroke-width:1px;stroke-linecap:butt;stroke-linejoin:miter;stroke-opacity:1" d="M 542.789,453.718 549.775,459.831 z" id="boundary" inkscape:connector-curvature="0" />
	<path style="fill:none;stroke:red;stroke-width:1px;stroke-linecap:butt;stroke-linejoin:miter;stroke-opacity:1" d="M 544.535,816.986 553.268,816.986 z" id="boundary" inkscape:connector-curvature="0" />
	<path style="fill:none;stroke:red;stroke-width:1px;stroke-linecap:butt;stroke-linejoin:miter;stroke-opacity:1" d="M 545.408,281.69 550.648,288.676 z" id="boundary" inkscape:connector-curvature="0" />
	<path style="fill:none;stroke:red;stroke-width:1px;stroke-linecap:butt;stroke-linejoin:miter;stroke-opacity:1" d="M 549.775,459.831 559.38,474.676 z" id="boundary" inkscape:connector-curvature="0" />
	<path style="fill:none;stroke:red;stroke-width:1px;stroke-linecap:butt;stroke-linejoin:miter;stroke-opacity:1" d="M 550.648,288.676 555.014,296.535 z" id="boundary" inkscape:connector-curvature="0" />
	<path style="fill:none;stroke:red;stroke-width:1px;stroke-linecap:butt;stroke-linejoin:miter;stroke-opacity:1" d="M 550.648,393.465 558.507,397.831 z" id="boundary" inkscape:connector-curvature="0" />
	<path style="fill:none;stroke:red;stroke-width:1px;stroke-linecap:butt;stroke-linejoin:miter;stroke-opacity:1" d="M 553.268,816.986 561.127,821.352 z" id="boundary" inkscape:connector-curvature="0" />
	<path style="fill:none;stroke:red;stroke-width:1px;stroke-linecap:butt;stroke-linejoin:miter;stroke-opacity:1" d="M 555.014,296.535 559.38,304.394 z" id="boundary" inkscape:connector-curvature="0" />
	<path style="fill:none;stroke:red;stroke-width:1px;stroke-linecap:butt;stroke-linejoin:miter;stroke-opacity:1" d="M 558.507,397.831 567.239,397.831 z" id="boundary" inkscape:connector-curvature="0" />
	<path style="fill:none;stroke:red;stroke-width:1px;stroke-linecap:butt;stroke-linejoin:miter;stroke-opacity:1" d="M 559.38,304.394 566.366,310.507 z" id="boundary" inkscape:connector-curvature="0" />
	<path style="fill:none;stroke:red;stroke-width:1px;stroke-linecap:butt;stroke-linejoin:miter;stroke-opacity:1" d="M 559.38,474.676 566.366,480.789 z" id="boundary" inkscape:connector-curvature="0" />
	<path style="fill:none;stroke:red;stroke-width:1px;stroke-linecap:butt;stroke-linejoin:miter;stroke-opacity:1" d="M 561.127,821.352 569.859,821.352 z" id="boundary" inkscape:connector-curvature="0" />
	<path style="fill:none;stroke:red;stroke-width:1px;stroke-linecap:butt;stroke-linejoin:miter;stroke-opacity:1" d="M 566.366,310.507 576.845,325.352 z" id="boundary" inkscape:connector-curvature="0" />
	<path style="fill:none;stroke:red;stroke-width:1px;stroke-linecap:butt;stroke-linejoin:miter;stroke-opacity:1" d="M 566.366,480.789 569.859,489.521 z" id="boundary" inkscape:connector-curvature="0" />
	<path style="fill:none;stroke:red;stroke-width:1px;stroke-linecap:butt;stroke-linejoin:miter;stroke-opacity:1" d="M 567.239,397.831 575.972,397.831 z" id="boundary" inkscape:connector-curvature="0" />
	<path style="fill:none;stroke:red;stroke-width:1px;stroke-linecap:butt;stroke-linejoin:miter;stroke-opacity:1" d="M 569.859,489.521 578.592,493.014 z" id="boundary" inkscape:connector-curvature="0" />
	<path style="fill:none;stroke:red;stroke-width:1px;stroke-linecap:butt;stroke-linejoin:miter;stroke-opacity:1" d="M 569.859,821.352 578.592,821.352 z" id="boundary" inkscape:connector-curvature="0" />
	<path style="fill:none;stroke:red;stroke-width:1px;stroke-linecap:butt;stroke-linejoin:miter;stroke-opacity:1" d="M 575.972,397.831 584.704,395.211 z" id="boundary" inkscape:connector-curvature="0" />
	<path style="fill:none;stroke:red;stroke-width:1px;stroke-linecap:butt;stroke-linejoin:miter;stroke-opacity:1" d="M 576.845,325.352 576.845,334.085 z" id="boundary" inkscape:connector-curvature="0" />
	<path style="fill:none;stroke:red;stroke-width:1px;stroke-linecap:butt;stroke-linejoin:miter;stroke-opacity:1" d="M 576.845,334.085 582.958,341.07 z" id="boundary" inkscape:connector-curvature="0" />
	<path style="fill:none;stroke:red;stroke-width:1px;stroke-linecap:butt;stroke-linejoin:miter;stroke-opacity:1" d="M 578.592,493.014 584.704,500 z" id="boundary" inkscape:connector-curvature="0" />
	<path style="fill:none;stroke:red;stroke-width:1px;stroke-linecap:butt;stroke-linejoin:miter;stroke-opacity:1" d="M 578.592,821.352 587.324,821.352 z" id="boundary" inkscape:connector-curvature="0" />
	<path style="fill:none;stroke:red;stroke-width:1px;stroke-linecap:butt;stroke-linejoin:miter;stroke-opacity:1" d="M 582.958,341.07 587.324,348.93 z" id="boundary" inkscape:connector-curvature="0" />
	<path style="fill:none;stroke:red;stroke-width:1px;stroke-linecap:butt;stroke-linejoin:miter;stroke-opacity:1" d="M 584.704,395.211 591.69,388.225 z" id="boundary" inkscape:connector-curvature="0" />
	<path style="fill:none;stroke:red;stroke-width:1px;stroke-linecap:butt;stroke-linejoin:miter;stroke-opacity:1" d="M 584.704,500 591.69,506.113 z" id="boundary" inkscape:connector-curvature="0" />
	<path style="fill:none;stroke:red;stroke-width:1px;stroke-linecap:butt;stroke-linejoin:miter;stroke-opacity:1" d="M 587.324,348.93 589.944,357.662 z" id="boundary" inkscape:connector-curvature="0" />
	<path style="fill:none;stroke:red;stroke-width:1px;stroke-linecap:butt;stroke-linejoin:miter;stroke-opacity:1" d="M 587.324,821.352 596.056,821.352 z" id="boundary" inkscape:connector-curvature="0" />
	<path style="fill:none;stroke:red;stroke-width:1px;stroke-linecap:butt;stroke-linejoin:miter;stroke-opacity:1" d="M 589.944,357.662 594.31,365.521 z" id="boundary" inkscape:connector-curvature="0" />
	<path style="fill:none;stroke:red;stroke-width:1px;stroke-linecap:butt;stroke-linejoin:miter;stroke-opacity:1" d="M 591.69,388.225 594.31,374.254 z" id="boundary" inkscape:connector-curvature="0" />
	<path style="fill:none;stroke:red;stroke-width:1px;stroke-linecap:butt;stroke-linejoin:miter;stroke-opacity:1" d="M 591.69,506.113 597.803,513.099 z" id="boundary" inkscape:connector-curvature="0" />
	<path style="fill:none;stroke:red;stroke-width:1px;stroke-linecap:butt;stroke-linejoin:miter;stroke-opacity:1" d="M 594.31,365.521 594.31,374.254 z" id="boundary" inkscape:connector-curvature="0" />
	<path style="fill:none;stroke:red;stroke-width:1px;stroke-linecap:butt;stroke-linejoin:miter;stroke-opacity:1" d="M 596.056,821.352 604.789,821.352 z" id="boundary" inkscape:connector-curvature="0" />
	<path style="fill:none;stroke:red;stroke-width:1px;stroke-linecap:butt;stroke-linejoin:miter;stroke-opacity:1" d="M 597.803,513.099 604.789,519.211 z" id="boundary" inkscape:connector-curvature="0" />
	<path style="fill:none;stroke:red;stroke-width:1px;stroke-linecap:butt;stroke-linejoin:miter;stroke-opacity:1" d="M 604.789,519.211 616.141,533.183 z" id="boundary" inkscape:connector-curvature="0" />
	<path style="fill:none;stroke:red;stroke-width:1px;stroke-linecap:butt;stroke-linejoin:miter;stroke-opacity:1" d="M 604.789,821.352 613.521,821.352 z" id="boundary" inkscape:connector-curvature="0" />
	<path style="fill:none;stroke:red;stroke-width:1px;stroke-linecap:butt;stroke-linejoin:miter;stroke-opacity:1" d="M 607.408,616.141 609.155,624.873 z" id="boundary" inkscape:connector-curvature="0" />
	<path style="fill:none;stroke:red;stroke-width:1px;stroke-linecap:butt;stroke-linejoin:miter;stroke-opacity:1" d="M 609.155,624.873 617.014,620.507 z" id="boundary" inkscape:connector-curvature="0" />
	<path style="fill:none;stroke:red;stroke-width:1px;stroke-linecap:butt;stroke-linejoin:miter;stroke-opacity:1" d="M 613.521,821.352 622.254,821.352 z" id="boundary" inkscape:connector-curvature="0" />
	<path style="fill:none;stroke:red;stroke-width:1px;stroke-linecap:butt;stroke-linejoin:miter;stroke-opacity:1" d="M 616.141,533.183 620.507,541.042 z" id="boundary" inkscape:connector-curvature="0" />
	<path style="fill:none;stroke:red;stroke-width:1px;stroke-linecap:butt;stroke-linejoin:miter;stroke-opacity:1" d="M 616.141,630.986 619.634,639.718 z" id="boundary" inkscape:connector-curvature="0" />
	<path style="fill:none;stroke:red;stroke-width:1px;stroke-linecap:butt;stroke-linejoin:miter;stroke-opacity:1" d="M 617.014,620.507 624.873,624.873 z" id="boundary" inkscape:connector-curvature="0" />
	<path style="fill:none;stroke:red;stroke-width:1px;stroke-linecap:butt;stroke-linejoin:miter;stroke-opacity:1" d="M 619.634,639.718 624,647.577 z" id="boundary" inkscape:connector-curvature="0" />
	<path style="fill:none;stroke:red;stroke-width:1px;stroke-linecap:butt;stroke-linejoin:miter;stroke-opacity:1" d="M 620.507,541.042 624.873,548.901 z" id="boundary" inkscape:connector-curvature="0" />
	<path style="fill:none;stroke:red;stroke-width:1px;stroke-linecap:butt;stroke-linejoin:miter;stroke-opacity:1" d="M 622.254,821.352 630.986,821.352 z" id="boundary" inkscape:connector-curvature="0" />
	<path style="fill:none;stroke:red;stroke-width:1px;stroke-linecap:butt;stroke-linejoin:miter;stroke-opacity:1" d="M 624,647.577 629.239,654.563 z" id="boundary" inkscape:connector-curvature="0" />
	<path style="fill:none;stroke:red;stroke-width:1px;stroke-linecap:butt;stroke-linejoin:miter;stroke-opacity:1" d="M 624.873,548.901 631.859,555.014 z" id="boundary" inkscape:connector-curvature="0" />
	<path style="fill:none;stroke:red;stroke-width:1px;stroke-linecap:butt;stroke-linejoin:miter;stroke-opacity:1" d="M 624.873,624.873 633.606,626.62 z" id="boundary" inkscape:connector-curvature="0" />
	<path style="fill:none;stroke:red;stroke-width:1px;stroke-linecap:butt;stroke-linejoin:miter;stroke-opacity:1" d="M 629.239,654.563 633.606,662.423 z" id="boundary" inkscape:connector-curvature="0" />
	<path style="fill:none;stroke:red;stroke-width:1px;stroke-linecap:butt;stroke-linejoin:miter;stroke-opacity:1" d="M 630.986,821.352 639.718,821.352 z" id="boundary" inkscape:connector-curvature="0" />
	<path style="fill:none;stroke:red;stroke-width:1px;stroke-linecap:butt;stroke-linejoin:miter;stroke-opacity:1" d="M 631.859,555.014 642.338,569.859 z" id="boundary" inkscape:connector-curvature="0" />
	<path style="fill:none;stroke:red;stroke-width:1px;stroke-linecap:butt;stroke-linejoin:miter;stroke-opacity:1" d="M 633.606,626.62 641.465,630.986 z" id="boundary" inkscape:connector-curvature="0" />
	<path style="fill:none;stroke:red;stroke-width:1px;stroke-linecap:butt;stroke-linejoin:miter;stroke-opacity:1" d="M 633.606,662.423 637.972,670.282 z" id="boundary" inkscape:connector-curvature="0" />
	<path style="fill:none;stroke:red;stroke-width:1px;stroke-linecap:butt;stroke-linejoin:miter;stroke-opacity:1" d="M 637.972,670.282 642.338,678.141 z" id="boundary" inkscape:connector-curvature="0" />
	<path style="fill:none;stroke:red;stroke-width:1px;stroke-linecap:butt;stroke-linejoin:miter;stroke-opacity:1" d="M 639.718,821.352 648.451,821.352 z" id="boundary" inkscape:connector-curvature="0" />
	<path style="fill:none;stroke:red;stroke-width:1px;stroke-linecap:butt;stroke-linejoin:miter;stroke-opacity:1" d="M 641.465,630.986 650.197,633.606 z" id="boundary" inkscape:connector-curvature="0" />
	<path style="fill:none;stroke:red;stroke-width:1px;stroke-linecap:butt;stroke-linejoin:miter;stroke-opacity:1" d="M 642.338,569.859 645.831,578.592 z" id="boundary" inkscape:connector-curvature="0" />
	<path style="fill:none;stroke:red;stroke-width:1px;stroke-linecap:butt;stroke-linejoin:miter;stroke-opacity:1" d="M 642.338,678.141 644.958,686.873 z" id="boundary" inkscape:connector-curvature="0" />
	<path style="fill:none;stroke:red;stroke-width:1px;stroke-linecap:butt;stroke-linejoin:miter;stroke-opacity:1" d="M 644.958,686.873 649.324,694.732 z" id="boundary" inkscape:connector-curvature="0" />
	<path style="fill:none;stroke:red;stroke-width:1px;stroke-linecap:butt;stroke-linejoin:miter;stroke-opacity:1" d="M 645.831,578.592 650.197,586.451 z" id="boundary" inkscape:connector-curvature="0" />
	<path style="fill:none;stroke:red;stroke-width:1px;stroke-linecap:butt;stroke-linejoin:miter;stroke-opacity:1" d="M 648.451,821.352 657.183,824.845 z" id="boundary" inkscape:connector-curvature="0" />
	<path style="fill:none;stroke:red;stroke-width:1px;stroke-linecap:butt;stroke-linejoin:miter;stroke-opacity:1" d="M 649.324,694.732 652.817,703.465 z" id="boundary" inkscape:connector-curvature="0" />
	<path style="fill:none;stroke:red;stroke-width:1px;stroke-linecap:butt;stroke-linejoin:miter;stroke-opacity:1" d="M 650.197,586.451 655.437,593.437 z" id="boundary" inkscape:connector-curvature="0" />
	<path style="fill:none;stroke:red;stroke-width:1px;stroke-linecap:butt;stroke-linejoin:miter;stroke-opacity:1" d="M 650.197,633.606 658.93,633.606 z" id="boundary" inkscape:connector-curvature="0" />
	<path style="fill:none;stroke:red;stroke-width:1px;stroke-linecap:butt;stroke-linejoin:miter;stroke-opacity:1" d="M 652.817,703.465 659.803,709.577 z" id="boundary" inkscape:connector-curvature="0" />
	<path style="fill:none;stroke:red;stroke-width:1px;stroke-linecap:butt;stroke-linejoin:miter;stroke-opacity:1" d="M 655.437,593.437 662.423,598.676 z" id="boundary" inkscape:connector-curvature="0" />
	<path style="fill:none;stroke:red;stroke-width:1px;stroke-linecap:butt;stroke-linejoin:miter;stroke-opacity:1" d="M 657.183,824.845 665.915,825.718 z" id="boundary" inkscape:connector-curvature="0" />
	<path style="fill:none;stroke:red;stroke-width:1px;stroke-linecap:butt;stroke-linejoin:miter;stroke-opacity:1" d="M 658.93,633.606 665.915,628.366 z" id="boundary" inkscape:connector-curvature="0" />
	<path style="fill:none;stroke:red;stroke-width:1px;stroke-linecap:butt;stroke-linejoin:miter;stroke-opacity:1" d="M 659.803,709.577 664.169,717.437 z" id="boundary" inkscape:connector-curvature="0" />
	<path style="fill:none;stroke:red;stroke-width:1px;stroke-linecap:butt;stroke-linejoin:miter;stroke-opacity:1" d="M 662.423,598.676 665.915,607.408 z" id="boundary" inkscape:connector-curvature="0" />
	<path style="fill:none;stroke:red;stroke-width:1px;stroke-linecap:butt;stroke-linejoin:miter;stroke-opacity:1" d="M 664.169,717.437 669.408,724.423 z" id="boundary" inkscape:connector-curvature="0" />
	<path style="fill:none;stroke:red;stroke-width:1px;stroke-linecap:butt;stroke-linejoin:miter;stroke-opacity:1" d="M 665.915,607.408 668.535,616.141 z" id="boundary" inkscape:connector-curvature="0" />
	<path style="fill:none;stroke:red;stroke-width:1px;stroke-linecap:butt;stroke-linejoin:miter;stroke-opacity:1" d="M 665.915,628.366 668.535,616.141 z" id="boundary" inkscape:connector-curvature="0" />
	<path style="fill:none;stroke:red;stroke-width:1px;stroke-linecap:butt;stroke-linejoin:miter;stroke-opacity:1" d="M 665.915,825.718 674.648,825.718 z" id="boundary" inkscape:connector-curvature="0" />
	<path style="fill:none;stroke:red;stroke-width:1px;stroke-linecap:butt;stroke-linejoin:miter;stroke-opacity:1" d="M 669.408,724.423 679.887,739.268 z" id="boundary" inkscape:connector-curvature="0" />
	<path style="fill:none;stroke:red;stroke-width:1px;stroke-linecap:butt;stroke-linejoin:miter;stroke-opacity:1" d="M 674.648,825.718 683.38,825.718 z" id="boundary" inkscape:connector-curvature="0" />
	<path style="fill:none;stroke:red;stroke-width:1px;stroke-linecap:butt;stroke-linejoin:miter;stroke-opacity:1" d="M 679.887,739.268 690.366,754.113 z" id="boundary" inkscape:connector-curvature="0" />
	<path style="fill:none;stroke:red;stroke-width:1px;stroke-linecap:butt;stroke-linejoin:miter;stroke-opacity:1" d="M 683.38,825.718 692.113,825.718 z" id="boundary" inkscape:connector-curvature="0" />
	<path style="fill:none;stroke:red;stroke-width:1px;stroke-linecap:butt;stroke-linejoin:miter;stroke-opacity:1" d="M 690.366,754.113 694.732,761.972 z" id="boundary" inkscape:connector-curvature="0" />
	<path style="fill:none;stroke:red;stroke-width:1px;stroke-linecap:butt;stroke-linejoin:miter;stroke-opacity:1" d="M 692.113,825.718 700.845,825.718 z" id="boundary" inkscape:connector-curvature="0" />
	<path style="fill:none;stroke:red;stroke-width:1px;stroke-linecap:butt;stroke-linejoin:miter;stroke-opacity:1" d="M 694.732,761.972 700.845,768.958 z" id="boundary" inkscape:connector-curvature="0" />
	<path style="fill:none;stroke:red;stroke-width:1px;stroke-linecap:butt;stroke-linejoin:miter;stroke-opacity:1" d="M 700.845,768.958 707.831,775.07 z" id="boundary" inkscape:connector-curvature="0" />
	<path style="fill:none;stroke:red;stroke-width:1px;stroke-linecap:butt;stroke-linejoin:miter;stroke-opacity:1" d="M 700.845,825.718 709.577,825.718 z" id="boundary" inkscape:connector-curvature="0" />
	<path style="fill:none;stroke:red;stroke-width:1px;stroke-linecap:butt;stroke-linejoin:miter;stroke-opacity:1" d="M 707.831,775.07 720.93,788.169 z" id="boundary" inkscape:connector-curvature="0" />
	<path style="fill:none;stroke:red;stroke-width:1px;stroke-linecap:butt;stroke-linejoin:miter;stroke-opacity:1" d="M 709.577,825.718 718.31,825.718 z" id="boundary" inkscape:connector-curvature="0" />
	<path style="fill:none;stroke:red;stroke-width:1px;stroke-linecap:butt;stroke-linejoin:miter;stroke-opacity:1" d="M 718.31,825.718 727.042,825.718 z" id="boundary" inkscape:connector-curvature="0" />
	<path style="fill:none;stroke:red;stroke-width:1px;stroke-linecap:butt;stroke-linejoin:miter;stroke-opacity:1" d="M 720.93,788.169 728.789,792.535 z" id="boundary" inkscape:connector-curvature="0" />
	<path style="fill:none;stroke:red;stroke-width:1px;stroke-linecap:butt;stroke-linejoin:miter;stroke-opacity:1" d="M 727.042,825.718 734.901,821.352 z" id="boundary" inkscape:connector-curvature="0" />
	<path style="fill:none;stroke:red;stroke-width:1px;stroke-linecap:butt;stroke-linejoin:miter;stroke-opacity:1" d="M 728.789,792.535 735.775,798.648 z" id="boundary" inkscape:connector-curvature="0" />
	<path style="fill:none;stroke:red;stroke-width:1px;stroke-linecap:butt;stroke-linejoin:miter;stroke-opacity:1" d="M 734.901,821.352 741.887,814.366 z" id="boundary" inkscape:connector-curvature="0" />
	<path style="fill:none;stroke:red;stroke-width:1px;stroke-linecap:butt;stroke-linejoin:miter;stroke-opacity:1" d="M 735.775,798.648 741.887,814.366 z" id="boundary" inkscape:connector-curvature="0" />
	<circle cx="4" cy="810" r="4" fill="#0" id="circle0"/>
	<circle cx="4" cy="818.732" r="4" fill="#0" id="circle1"/>
	<circle cx="8.3662" cy="826.592" r="4" fill="#0" id="circle2"/>
	<circle cx="10.9859" cy="803.014" r="4" fill="#0" id="circle3"/>
	<circle cx="17.0986" cy="830.085" r="4" fill="#0" id="circle4"/>
	<circle cx="19.7183" cy="803.014" r="4" fill="#0" id="circle5"/>
	<circle cx="24.9577" cy="825.718" r="4" fill="#0" id="circle6"/>
	<circle cx="27.5775" cy="798.648" r="4" fill="#0" id="circle7"/>
	<circle cx="33.6901" cy="825.718" r="4" fill="#0" id="circle8"/>
	<circle cx="34.5634" cy="792.535" r="4" fill="#0" id="circle9"/>
	<circle cx="41.5493" cy="785.549" r="4" fill="#0" id="circle10"/>
	<circle cx="42.4225" cy="825.718" r="4" fill="#0" id="circle11"/>
	<circle cx="48.5352" cy="778.563" r="4" fill="#0" id="circle12"/>
	<circle cx="51.1549" cy="823.972" r="4" fill="#0" id="circle13"/>
	<circle cx="52.9014" cy="769.831" r="4" fill="#0" id="circle14"/>
	<circle cx="59.8873" cy="763.718" r="4" fill="#0" id="circle15"/>
	<circle cx="59.8873" cy="819.606" r="4" fill="#0" id="circle16"/>
	<circle cx="66" cy="756.732" r="4" fill="#0" id="circle17"/>
	<circle cx="68.6197" cy="816.986" r="4" fill="#0" id="circle18"/>
	<circle cx="72.9859" cy="750.62" r="4" fill="#0" id="circle19"/>
	<circle cx="73.8592" cy="591.69" r="4" fill="#0" id="circle20"/>
	<circle cx="73.8592" cy="600.423" r="4" fill="#0" id="circle21"/>
	<circle cx="76.4789" cy="812.62" r="4" fill="#0" id="circle22"/>
	<circle cx="78.2254" cy="582.958" r="4" fill="#0" id="circle23"/>
	<circle cx="80.8451" cy="606.535" r="4" fill="#0" id="circle24"/>
	<circle cx="80.8451" cy="746.254" r="4" fill="#0" id="circle25"/>
	<circle cx="85.2113" cy="575.972" r="4" fill="#0" id="circle26"/>
	<circle cx="85.2113" cy="812.62" r="4" fill="#0" id="circle27"/>
	<circle cx="87.831" cy="739.268" r="4" fill="#0" id="circle28"/>
	<circle cx="89.5775" cy="607.408" r="4" fill="#0" id="circle29"/>
	<circle cx="91.3239" cy="727.042" r="4" fill="#0" id="circle30"/>
	<circle cx="92.1972" cy="568.986" r="4" fill="#0" id="circle31"/>
	<circle cx="93.9437" cy="812.62" r="4" fill="#0" id="circle32"/>
	<circle cx="95.6901" cy="718.31" r="4" fill="#0" id="circle33"/>
	<circle cx="96.5634" cy="560.254" r="4" fill="#0" id="circle34"/>
	<circle cx="98.3099" cy="607.408" r="4" fill="#0" id="circle35"/>
	<circle cx="102.676" cy="711.324" r="4" fill="#0" id="circle36"/>
	<circle cx="102.676" cy="811.746" r="4" fill="#0" id="circle37"/>
	<circle cx="103.549" cy="554.141" r="4" fill="#0" id="circle38"/>
	<circle cx="107.042" cy="607.408" r="4" fill="#0" id="circle39"/>
	<circle cx="109.662" cy="547.155" r="4" fill="#0" id="circle40"/>
	<circle cx="109.662" cy="704.338" r="4" fill="#0" id="circle41"/>
	<circle cx="111.408" cy="808.254" r="4" fill="#0" id="circle42"/>
	<circle cx="114.028" cy="538.423" r="4" fill="#0" id="circle43"/>
	<circle cx="114.028" cy="695.606" r="4" fill="#0" id="circle44"/>
	<circle cx="115.775" cy="607.408" r="4" fill="#0" id="circle45"/>
	<circle cx="119.268" cy="803.887" r="4" fill="#0" id="circle46"/>
	<circle cx="121.014" cy="532.31" r="4" fill="#0" id="circle47"/>
	<circle cx="121.014" cy="689.493" r="4" fill="#0" id="circle48"/>
	<circle cx="124.507" cy="523.577" r="4" fill="#0" id="circle49"/>
	<circle cx="124.507" cy="606.535" r="4" fill="#0" id="circle50"/>
	<circle cx="124.507" cy="680.761" r="4" fill="#0" id="circle51"/>
	<circle cx="126.254" cy="513.099" r="4" fill="#0" id="circle52"/>
	<circle cx="128" cy="803.887" r="4" fill="#0" id="circle53"/>
	<circle cx="130.62" cy="347.183" r="4" fill="#0" id="circle54"/>
	<circle cx="130.62" cy="355.915" r="4" fill="#0" id="circle55"/>
	<circle cx="130.62" cy="504.366" r="4" fill="#0" id="circle56"/>
	<circle cx="130.62" cy="670.282" r="4" fill="#0" id="circle57"/>
	<circle cx="133.239" cy="603.042" r="4" fill="#0" id="circle58"/>
	<circle cx="134.986" cy="363.775" r="4" fill="#0" id="circle59"/>
	<circle cx="136.732" cy="803.887" r="4" fill="#0" id="circle60"/>
	<circle cx="137.606" cy="340.197" r="4" fill="#0" id="circle61"/>
	<circle cx="137.606" cy="497.38" r="4" fill="#0" id="circle62"/>
	<circle cx="137.606" cy="663.296" r="4" fill="#0" id="circle63"/>
	<circle cx="141.972" cy="331.465" r="4" fill="#0" id="circle64"/>
	<circle cx="141.972" cy="488.648" r="4" fill="#0" id="circle65"/>
	<circle cx="141.972" cy="602.169" r="4" fill="#0" id="circle66"/>
	<circle cx="143.718" cy="367.268" r="4" fill="#0" id="circle67"/>
	<circle cx="143.718" cy="652.817" r="4" fill="#0" id="circle68"/>
	<circle cx="145.465" cy="803.887" r="4" fill="#0" id="circle69"/>
	<circle cx="146.338" cy="479.915" r="4" fill="#0" id="circle70"/>
	<circle cx="148.085" cy="320.986" r="4" fill="#0" id="circle71"/>
	<circle cx="148.085" cy="469.437" r="4" fill="#0" id="circle72"/>
	<circle cx="150.704" cy="598.676" r="4" fill="#0" id="circle73"/>
	<circle cx="150.704" cy="645.831" r="4" fill="#0" id="circle74"/>
	<circle cx="151.577" cy="371.634" r="4" fill="#0" id="circle75"/>
	<circle cx="154.197" cy="803.887" r="4" fill="#0" id="circle76"/>
	<circle cx="155.07" cy="314" r="4" fill="#0" id="circle77"/>
	<circle cx="155.07" cy="462.451" r="4" fill="#0" id="circle78"/>
	<circle cx="155.07" cy="637.099" r="4" fill="#0" id="circle79"/>
	<circle cx="156.817" cy="617.887" r="4" fill="#0" id="circle80"/>
	<circle cx="156.817" cy="626.62" r="4" fill="#0" id="circle81"/>
	<circle cx="158.563" cy="594.31" r="4" fill="#0" id="circle82"/>
	<circle cx="159.437" cy="453.718" r="4" fill="#0" id="circle83"/>
	<circle cx="160.31" cy="371.634" r="4" fill="#0" id="circle84"/>
	<circle cx="162.056" cy="307.014" r="4" fill="#0" id="circle85"/>
	<circle cx="162.93" cy="803.887" r="4" fill="#0" id="circle86"/>
	<circle cx="163.803" cy="610.901" r="4" fill="#0" id="circle87"/>
	<circle cx="166.423" cy="446.732" r="4" fill="#0" id="circle88"/>
	<circle cx="167.296" cy="594.31" r="4" fill="#0" id="circle89"/>
	<circle cx="168.169" cy="603.042" r="4" fill="#0" id="circle90"/>
	<circle cx="169.042" cy="300.901" r="4" fill="#0" id="circle91"/>
	<circle cx="169.042" cy="371.634" r="4" fill="#0" id="circle92"/>
	<circle cx="171.662" cy="803.887" r="4" fill="#0" id="circle93"/>
	<circle cx="173.408" cy="440.62" r="4" fill="#0" id="circle94"/>
	<circle cx="175.155" cy="293.915" r="4" fill="#0" id="circle95"/>
	<circle cx="175.155" cy="589.944" r="4" fill="#0" id="circle96"/>
	<circle cx="177.775" cy="371.634" r="4" fill="#0" id="circle97"/>
	<circle cx="179.521" cy="433.634" r="4" fill="#0" id="circle98"/>
	<circle cx="179.521" cy="799.521" r="4" fill="#0" id="circle99"/>
	<circle cx="182.141" cy="287.803" r="4" fill="#0" id="circle100"/>
	<circle cx="183.014" cy="421.408" r="4" fill="#0" id="circle101"/>
	<circle cx="185.634" cy="279.07" r="4" fill="#0" id="circle102"/>
	<circle cx="186.507" cy="371.634" r="4" fill="#0" id="circle103"/>
	<circle cx="187.38" cy="412.676" r="4" fill="#0" id="circle104"/>
	<circle cx="188.254" cy="799.521" r="4" fill="#0" id="circle105"/>
	<circle cx="191.746" cy="399.577" r="4" fill="#0" id="circle106"/>
	<circle cx="192.62" cy="272.085" r="4" fill="#0" id="circle107"/>
	<circle cx="194.366" cy="367.268" r="4" fill="#0" id="circle108"/>
	<circle cx="196.113" cy="386.479" r="4" fill="#0" id="circle109"/>
	<circle cx="196.986" cy="799.521" r="4" fill="#0" id="circle110"/>
	<circle cx="199.606" cy="265.972" r="4" fill="#0" id="circle111"/>
	<circle cx="200.479" cy="377.746" r="4" fill="#0" id="circle112"/>
	<circle cx="202.225" cy="362.901" r="4" fill="#0" id="circle113"/>
	<circle cx="203.099" cy="257.239" r="4" fill="#0" id="circle114"/>
	<circle cx="205.718" cy="799.521" r="4" fill="#0" id="circle115"/>
	<circle cx="210.085" cy="250.254" r="4" fill="#0" id="circle116"/>
	<circle cx="213.577" cy="238.028" r="4" fill="#0" id="circle117"/>
	<circle cx="214.451" cy="799.521" r="4" fill="#0" id="circle118"/>
	<circle cx="220.563" cy="231.042" r="4" fill="#0" id="circle119"/>
	<circle cx="223.183" cy="799.521" r="4" fill="#0" id="circle120"/>
	<circle cx="227.549" cy="224.056" r="4" fill="#0" id="circle121"/>
	<circle cx="231.915" cy="215.324" r="4" fill="#0" id="circle122"/>
	<circle cx="231.915" cy="799.521" r="4" fill="#0" id="circle123"/>
	<circle cx="236.282" cy="206.592" r="4" fill="#0" id="circle124"/>
	<circle cx="240.648" cy="799.521" r="4" fill="#0" id="circle125"/>
	<circle cx="243.268" cy="200.479" r="4" fill="#0" id="circle126"/>
	<circle cx="246.761" cy="191.746" r="4" fill="#0" id="circle127"/>
	<circle cx="249.38" cy="799.521" r="4" fill="#0" id="circle128"/>
	<circle cx="253.746" cy="184.761" r="4" fill="#0" id="circle129"/>
	<circle cx="258.113" cy="176.028" r="4" fill="#0" id="circle130"/>
	<circle cx="258.113" cy="799.521" r="4" fill="#0" id="circle131"/>
	<circle cx="262.479" cy="167.296" r="4" fill="#0" id="circle132"/>
	<circle cx="266.845" cy="799.521" r="4" fill="#0" id="circle133"/>
	<circle cx="269.465" cy="161.183" r="4" fill="#0" id="circle134"/>
	<circle cx="270.338" cy="150.704" r="4" fill="#0" id="circle135"/>
	<circle cx="274.704" cy="141.972" r="4" fill="#0" id="circle136"/>
	<circle cx="275.577" cy="799.521" r="4" fill="#0" id="circle137"/>
	<circle cx="281.69" cy="134.986" r="4" fill="#0" id="circle138"/>
	<circle cx="284.31" cy="799.521" r="4" fill="#0" id="circle139"/>
	<circle cx="287.803" cy="124.507" r="4" fill="#0" id="circle140"/>
	<circle cx="292.169" cy="115.775" r="4" fill="#0" id="circle141"/>
	<circle cx="293.042" cy="799.521" r="4" fill="#0" id="circle142"/>
	<circle cx="296.535" cy="107.042" r="4" fill="#0" id="circle143"/>
	<circle cx="300.901" cy="98.3099" r="4" fill="#0" id="circle144"/>
	<circle cx="301.775" cy="799.521" r="4" fill="#0" id="circle145"/>
	<circle cx="305.268" cy="89.5775" r="4" fill="#0" id="circle146"/>
	<circle cx="309.634" cy="80.8451" r="4" fill="#0" id="circle147"/>
	<circle cx="309.634" cy="888.592" r="4" fill="#0" id="circle148"/>
	<circle cx="309.634" cy="897.324" r="4" fill="#0" id="circle149"/>
	<circle cx="309.634" cy="906.056" r="4" fill="#0" id="circle150"/>
	<circle cx="309.634" cy="914.789" r="4" fill="#0" id="circle151"/>
	<circle cx="309.634" cy="923.521" r="4" fill="#0" id="circle152"/>
	<circle cx="309.634" cy="932.254" r="4" fill="#0" id="circle153"/>
	<circle cx="309.634" cy="940.986" r="4" fill="#0" id="circle154"/>
	<circle cx="309.634" cy="949.718" r="4" fill="#0" id="circle155"/>
	<circle cx="309.634" cy="958.451" r="4" fill="#0" id="circle156"/>
	<circle cx="309.634" cy="967.183" r="4" fill="#0" id="circle157"/>
	<circle cx="309.634" cy="975.915" r="4" fill="#0" id="circle158"/>
	<circle cx="310.507" cy="799.521" r="4" fill="#0" id="circle159"/>
	<circle cx="314" cy="67.7465" r="4" fill="#0" id="circle160"/>
	<circle cx="314" cy="849.296" r="4" fill="#0" id="circle161"/>
	<circle cx="314" cy="858.028" r="4" fill="#0" id="circle162"/>
	<circle cx="314" cy="866.761" r="4" fill="#0" id="circle163"/>
	<circle cx="314" cy="875.493" r="4" fill="#0" id="circle164"/>
	<circle cx="316.62" cy="982.028" r="4" fill="#0" id="circle165"/>
	<circle cx="318.366" cy="823.099" r="4" fill="#0" id="circle166"/>
	<circle cx="318.366" cy="831.831" r="4" fill="#0" id="circle167"/>
	<circle cx="318.366" cy="840.563" r="4" fill="#0" id="circle168"/>
	<circle cx="319.239" cy="799.521" r="4" fill="#0" id="circle169"/>
	<circle cx="320.986" cy="60.7606" r="4" fill="#0" id="circle170"/>
	<circle cx="322.732" cy="50.2817" r="4" fill="#0" id="circle171"/>
	<circle cx="322.732" cy="808.254" r="4" fill="#0" id="circle172"/>
	<circle cx="323.606" cy="987.268" r="4" fill="#0" id="circle173"/>
	<circle cx="329.718" cy="43.2958" r="4" fill="#0" id="circle174"/>
	<circle cx="332.338" cy="987.268" r="4" fill="#0" id="circle175"/>
	<circle cx="334.085" cy="34.5634" r="4" fill="#0" id="circle176"/>
	<circle cx="335.831" cy="24.0845" r="4" fill="#0" id="circle177"/>
	<circle cx="340.197" cy="15.3521" r="4" fill="#0" id="circle178"/>
	<circle cx="341.07" cy="987.268" r="4" fill="#0" id="circle179"/>
	<circle cx="347.183" cy="8.3662" r="4" fill="#0" id="circle180"/>
	<circle cx="349.803" cy="987.268" r="4" fill="#0" id="circle181"/>
	<circle cx="355.042" cy="4" r="4" fill="#0" id="circle182"/>
	<circle cx="358.535" cy="987.268" r="4" fill="#0" id="circle183"/>
	<circle cx="362.901" cy="8.3662" r="4" fill="#0" id="circle184"/>
	<circle cx="367.268" cy="16.2254" r="4" fill="#0" id="circle185"/>
	<circle cx="367.268" cy="987.268" r="4" fill="#0" id="circle186"/>
	<circle cx="374.254" cy="21.4648" r="4" fill="#0" id="circle187"/>
	<circle cx="376" cy="987.268" r="4" fill="#0" id="circle188"/>
	<circle cx="382.113" cy="25.831" r="4" fill="#0" id="circle189"/>
	<circle cx="384.732" cy="34.5634" r="4" fill="#0" id="circle190"/>
	<circle cx="384.732" cy="987.268" r="4" fill="#0" id="circle191"/>
	<circle cx="389.099" cy="42.4225" r="4" fill="#0" id="circle192"/>
	<circle cx="393.465" cy="987.268" r="4" fill="#0" id="circle193"/>
	<circle cx="396.085" cy="48.5352" r="4" fill="#0" id="circle194"/>
	<circle cx="399.577" cy="57.2676" r="4" fill="#0" id="circle195"/>
	<circle cx="402.197" cy="66" r="4" fill="#0" id="circle196"/>
	<circle cx="402.197" cy="987.268" r="4" fill="#0" id="circle197"/>
	<circle cx="406.563" cy="73.8592" r="4" fill="#0" id="circle198"/>
	<circle cx="410.93" cy="81.7183" r="4" fill="#0" id="circle199"/>
	<circle cx="410.93" cy="987.268" r="4" fill="#0" id="circle200"/>
	<circle cx="415.296" cy="89.5775" r="4" fill="#0" id="circle201"/>
	<circle cx="418.789" cy="991.634" r="4" fill="#0" id="circle202"/>
	<circle cx="421.408" cy="96.5634" r="4" fill="#0" id="circle203"/>
	<circle cx="425.775" cy="104.423" r="4" fill="#0" id="circle204"/>
	<circle cx="427.521" cy="991.634" r="4" fill="#0" id="circle205"/>
	<circle cx="428.394" cy="113.155" r="4" fill="#0" id="circle206"/>
	<circle cx="432.761" cy="121.014" r="4" fill="#0" id="circle207"/>
	<circle cx="435.38" cy="996" r="4" fill="#0" id="circle208"/>
	<circle cx="437.127" cy="128.873" r="4" fill="#0" id="circle209"/>
	<circle cx="443.239" cy="135.859" r="4" fill="#0" id="circle210"/>
	<circle cx="444.113" cy="996" r="4" fill="#0" id="circle211"/>
	<circle cx="445.859" cy="144.592" r="4" fill="#0" id="circle212"/>
	<circle cx="450.225" cy="152.451" r="4" fill="#0" id="circle213"/>
	<circle cx="450.225" cy="808.254" r="4" fill="#0" id="circle214"/>
	<circle cx="452.845" cy="996" r="4" fill="#0" id="circle215"/>
	<circle cx="454.592" cy="816.113" r="4" fill="#0" id="circle216"/>
	<circle cx="457.211" cy="157.69" r="4" fill="#0" id="circle217"/>
	<circle cx="458.958" cy="808.254" r="4" fill="#0" id="circle218"/>
	<circle cx="458.958" cy="823.972" r="4" fill="#0" id="circle219"/>
	<circle cx="460.704" cy="166.423" r="4" fill="#0" id="circle220"/>
	<circle cx="461.577" cy="996" r="4" fill="#0" id="circle221"/>
	<circle cx="463.324" cy="831.831" r="4" fill="#0" id="circle222"/>
	<circle cx="463.324" cy="840.563" r="4" fill="#0" id="circle223"/>
	<circle cx="463.324" cy="849.296" r="4" fill="#0" id="circle224"/>
	<circle cx="463.324" cy="858.028" r="4" fill="#0" id="circle225"/>
	<circle cx="465.07" cy="174.282" r="4" fill="#0" id="circle226"/>
	<circle cx="466.817" cy="866.761" r="4" fill="#0" id="circle227"/>
	<circle cx="467.69" cy="808.254" r="4" fill="#0" id="circle228"/>
	<circle cx="467.69" cy="875.493" r="4" fill="#0" id="circle229"/>
	<circle cx="467.69" cy="884.225" r="4" fill="#0" id="circle230"/>
	<circle cx="469.437" cy="990.761" r="4" fill="#0" id="circle231"/>
	<circle cx="471.183" cy="181.268" r="4" fill="#0" id="circle232"/>
	<circle cx="471.183" cy="892.958" r="4" fill="#0" id="circle233"/>
	<circle cx="472.056" cy="901.69" r="4" fill="#0" id="circle234"/>
	<circle cx="472.056" cy="910.423" r="4" fill="#0" id="circle235"/>
	<circle cx="472.056" cy="919.155" r="4" fill="#0" id="circle236"/>
	<circle cx="472.056" cy="927.887" r="4" fill="#0" id="circle237"/>
	<circle cx="472.056" cy="936.62" r="4" fill="#0" id="circle238"/>
	<circle cx="472.056" cy="945.352" r="4" fill="#0" id="circle239"/>
	<circle cx="476.423" cy="808.254" r="4" fill="#0" id="circle240"/>
	<circle cx="476.423" cy="953.211" r="4" fill="#0" id="circle241"/>
	<circle cx="476.423" cy="961.944" r="4" fill="#0" id="circle242"/>
	<circle cx="476.423" cy="970.676" r="4" fill="#0" id="circle243"/>
	<circle cx="476.423" cy="979.408" r="4" fill="#0" id="circle244"/>
	<circle cx="478.169" cy="187.38" r="4" fill="#0" id="circle245"/>
	<circle cx="480.789" cy="196.113" r="4" fill="#0" id="circle246"/>
	<circle cx="485.155" cy="808.254" r="4" fill="#0" id="circle247"/>
	<circle cx="487.775" cy="201.352" r="4" fill="#0" id="circle248"/>
	<circle cx="493.014" cy="812.62" r="4" fill="#0" id="circle249"/>
	<circle cx="493.887" cy="208.338" r="4" fill="#0" id="circle250"/>
	<circle cx="498.254" cy="216.197" r="4" fill="#0" id="circle251"/>
	<circle cx="501.746" cy="812.62" r="4" fill="#0" id="circle252"/>
	<circle cx="502.62" cy="224.056" r="4" fill="#0" id="circle253"/>
	<circle cx="507.859" cy="231.042" r="4" fill="#0" id="circle254"/>
	<circle cx="510.479" cy="812.62" r="4" fill="#0" id="circle255"/>
	<circle cx="514.845" cy="237.155" r="4" fill="#0" id="circle256"/>
	<circle cx="515.718" cy="380.366" r="4" fill="#0" id="circle257"/>
	<circle cx="517.465" cy="389.099" r="4" fill="#0" id="circle258"/>
	<circle cx="518.338" cy="245.887" r="4" fill="#0" id="circle259"/>
	<circle cx="519.211" cy="812.62" r="4" fill="#0" id="circle260"/>
	<circle cx="521.831" cy="396.958" r="4" fill="#0" id="circle261"/>
	<circle cx="524.451" cy="252.873" r="4" fill="#0" id="circle262"/>
	<circle cx="524.451" cy="405.69" r="4" fill="#0" id="circle263"/>
	<circle cx="525.324" cy="384.732" r="4" fill="#0" id="circle264"/>
	<circle cx="527.944" cy="812.62" r="4" fill="#0" id="circle265"/>
	<circle cx="528.817" cy="413.549" r="4" fill="#0" id="circle266"/>
	<circle cx="528.817" cy="422.282" r="4" fill="#0" id="circle267"/>
	<circle cx="531.437" cy="258.113" r="4" fill="#0" id="circle268"/>
	<circle cx="533.183" cy="389.099" r="4" fill="#0" id="circle269"/>
	<circle cx="533.183" cy="430.141" r="4" fill="#0" id="circle270"/>
	<circle cx="535.803" cy="816.986" r="4" fill="#0" id="circle271"/>
	<circle cx="537.549" cy="265.099" r="4" fill="#0" id="circle272"/>
	<circle cx="537.549" cy="438" r="4" fill="#0" id="circle273"/>
	<circle cx="537.549" cy="446.732" r="4" fill="#0" id="circle274"/>
	<circle cx="541.915" cy="272.958" r="4" fill="#0" id="circle275"/>
	<circle cx="541.915" cy="390.845" r="4" fill="#0" id="circle276"/>
	<circle cx="542.789" cy="453.718" r="4" fill="#0" id="circle277"/>
	<circle cx="544.535" cy="816.986" r="4" fill="#0" id="circle278"/>
	<circle cx="545.408" cy="281.69" r="4" fill="#0" id="circle279"/>
	<circle cx="549.775" cy="459.831" r="4" fill="#0" id="circle280"/>
	<circle cx="550.648" cy="288.676" r="4" fill="#0" id="circle281"/>
	<circle cx="550.648" cy="393.465" r="4" fill="#0" id="circle282"/>
	<circle cx="553.268" cy="816.986" r="4" fill="#0" id="circle283"/>
	<circle cx="555.014" cy="296.535" r="4" fill="#0" id="circle284"/>
	<circle cx="555.014" cy="466.817" r="4" fill="#0" id="circle285"/>
	<circle cx="558.507" cy="397.831" r="4" fill="#0" id="circle286"/>
	<circle cx="559.38" cy="304.394" r="4" fill="#0" id="circle287"/>
	<circle cx="559.38" cy="474.676" r="4" fill="#0" id="circle288"/>
	<circle cx="561.127" cy="821.352" r="4" fill="#0" id="circle289"/>
	<circle cx="566.366" cy="310.507" r="4" fill="#0" id="circle290"/>
	<circle cx="566.366" cy="480.789" r="4" fill="#0" id="circle291"/>
	<circle cx="567.239" cy="397.831" r="4" fill="#0" id="circle292"/>
	<circle cx="569.859" cy="489.521" r="4" fill="#0" id="circle293"/>
	<circle cx="569.859" cy="821.352" r="4" fill="#0" id="circle294"/>
	<circle cx="572.479" cy="317.493" r="4" fill="#0" id="circle295"/>
	<circle cx="575.972" cy="397.831" r="4" fill="#0" id="circle296"/>
	<circle cx="576.845" cy="325.352" r="4" fill="#0" id="circle297"/>
	<circle cx="576.845" cy="334.085" r="4" fill="#0" id="circle298"/>
	<circle cx="578.592" cy="493.014" r="4" fill="#0" id="circle299"/>
	<circle cx="578.592" cy="821.352" r="4" fill="#0" id="circle300"/>
	<circle cx="582.958" cy="341.07" r="4" fill="#0" id="circle301"/>
	<circle cx="584.704" cy="395.211" r="4" fill="#0" id="circle302"/>
	<circle cx="584.704" cy="500" r="4" fill="#0" id="circle303"/>
	<circle cx="587.324" cy="348.93" r="4" fill="#0" id="circle304"/>
	<circle cx="587.324" cy="821.352" r="4" fill="#0" id="circle305"/>
	<circle cx="589.944" cy="357.662" r="4" fill="#0" id="circle306"/>
	<circle cx="591.69" cy="388.225" r="4" fill="#0" id="circle307"/>
	<circle cx="591.69" cy="506.113" r="4" fill="#0" id="circle308"/>
	<circle cx="594.31" cy="365.521" r="4" fill="#0" id="circle309"/>
	<circle cx="594.31" cy="374.254" r="4" fill="#0" id="circle310"/>
	<circle cx="596.056" cy="821.352" r="4" fill="#0" id="circle311"/>
	<circle cx="597.803" cy="513.099" r="4" fill="#0" id="circle312"/>
	<circle cx="604.789" cy="519.211" r="4" fill="#0" id="circle313"/>
	<circle cx="604.789" cy="821.352" r="4" fill="#0" id="circle314"/>
	<circle cx="607.408" cy="616.141" r="4" fill="#0" id="circle315"/>
	<circle cx="609.155" cy="624.873" r="4" fill="#0" id="circle316"/>
	<circle cx="610.901" cy="526.197" r="4" fill="#0" id="circle317"/>
	<circle cx="613.521" cy="821.352" r="4" fill="#0" id="circle318"/>
	<circle cx="616.141" cy="533.183" r="4" fill="#0" id="circle319"/>
	<circle cx="616.141" cy="630.986" r="4" fill="#0" id="circle320"/>
	<circle cx="617.014" cy="620.507" r="4" fill="#0" id="circle321"/>
	<circle cx="619.634" cy="639.718" r="4" fill="#0" id="circle322"/>
	<circle cx="620.507" cy="541.042" r="4" fill="#0" id="circle323"/>
	<circle cx="622.254" cy="821.352" r="4" fill="#0" id="circle324"/>
	<circle cx="624" cy="647.577" r="4" fill="#0" id="circle325"/>
	<circle cx="624.873" cy="548.901" r="4" fill="#0" id="circle326"/>
	<circle cx="624.873" cy="624.873" r="4" fill="#0" id="circle327"/>
	<circle cx="629.239" cy="598.676" r="4" fill="#0" id="circle328"/>
	<circle cx="629.239" cy="654.563" r="4" fill="#0" id="circle329"/>
	<circle cx="630.986" cy="821.352" r="4" fill="#0" id="circle330"/>
	<circle cx="631.859" cy="555.014" r="4" fill="#0" id="circle331"/>
	<circle cx="633.606" cy="626.62" r="4" fill="#0" id="circle332"/>
	<circle cx="633.606" cy="662.423" r="4" fill="#0" id="circle333"/>
	<circle cx="637.972" cy="562" r="4" fill="#0" id="circle334"/>
	<circle cx="637.972" cy="670.282" r="4" fill="#0" id="circle335"/>
	<circle cx="639.718" cy="821.352" r="4" fill="#0" id="circle336"/>
	<circle cx="641.465" cy="630.986" r="4" fill="#0" id="circle337"/>
	<circle cx="642.338" cy="569.859" r="4" fill="#0" id="circle338"/>
	<circle cx="642.338" cy="678.141" r="4" fill="#0" id="circle339"/>
	<circle cx="644.958" cy="686.873" r="4" fill="#0" id="circle340"/>
	<circle cx="645.831" cy="578.592" r="4" fill="#0" id="circle341"/>
	<circle cx="648.451" cy="821.352" r="4" fill="#0" id="circle342"/>
	<circle cx="649.324" cy="694.732" r="4" fill="#0" id="circle343"/>
	<circle cx="650.197" cy="586.451" r="4" fill="#0" id="circle344"/>
	<circle cx="650.197" cy="633.606" r="4" fill="#0" id="circle345"/>
	<circle cx="652.817" cy="703.465" r="4" fill="#0" id="circle346"/>
	<circle cx="655.437" cy="593.437" r="4" fill="#0" id="circle347"/>
	<circle cx="657.183" cy="824.845" r="4" fill="#0" id="circle348"/>
	<circle cx="658.93" cy="633.606" r="4" fill="#0" id="circle349"/>
	<circle cx="659.803" cy="709.577" r="4" fill="#0" id="circle350"/>
	<circle cx="662.423" cy="598.676" r="4" fill="#0" id="circle351"/>
	<circle cx="664.169" cy="717.437" r="4" fill="#0" id="circle352"/>
	<circle cx="665.915" cy="607.408" r="4" fill="#0" id="circle353"/>
	<circle cx="665.915" cy="628.366" r="4" fill="#0" id="circle354"/>
	<circle cx="665.915" cy="825.718" r="4" fill="#0" id="circle355"/>
	<circle cx="668.535" cy="616.141" r="4" fill="#0" id="circle356"/>
	<circle cx="669.408" cy="724.423" r="4" fill="#0" id="circle357"/>
	<circle cx="674.648" cy="825.718" r="4" fill="#0" id="circle358"/>
	<circle cx="676.394" cy="730.535" r="4" fill="#0" id="circle359"/>
	<circle cx="679.887" cy="739.268" r="4" fill="#0" id="circle360"/>
	<circle cx="683.38" cy="825.718" r="4" fill="#0" id="circle361"/>
	<circle cx="686" cy="746.254" r="4" fill="#0" id="circle362"/>
	<circle cx="690.366" cy="754.113" r="4" fill="#0" id="circle363"/>
	<circle cx="692.113" cy="825.718" r="4" fill="#0" id="circle364"/>
	<circle cx="694.732" cy="761.972" r="4" fill="#0" id="circle365"/>
	<circle cx="700.845" cy="768.958" r="4" fill="#0" id="circle366"/>
	<circle cx="700.845" cy="825.718" r="4" fill="#0" id="circle367"/>
	<circle cx="707.831" cy="775.07" r="4" fill="#0" id="circle368"/>
	<circle cx="709.577" cy="825.718" r="4" fill="#0" id="circle369"/>
	<circle cx="713.944" cy="782.056" r="4" fill="#0" id="circle370"/>
	<circle cx="718.31" cy="825.718" r="4" fill="#0" id="circle371"/>
	<circle cx="720.93" cy="788.169" r="4" fill="#0" id="circle372"/>
	<circle cx="727.042" cy="825.718" r="4" fill="#0" id="circle373"/>
	<circle cx="728.789" cy="792.535" r="4" fill="#0" id="circle374"/>
	<circle cx="734.901" cy="821.352" r="4" fill="#0" id="circle375"/>
	<circle cx="735.775" cy="798.648" r="4" fill="#0" id="circle376"/>
	<circle cx="741.887" cy="805.634" r="4" fill="#0" id="circle377"/>
	<circle cx="741.887" cy="814.366" r="4" fill="#0" id="circle378"/>
	</g>
</svg>