<?xml version="1.0" encoding="UTF-8" standalone="no"?>
<!-- Created with CurveBenchmark -->
<svg
	xmlns:dc="http://purl.org/dc/elements/1.1/"
	xmlns:cc="http://creativecommons.org/ns#"
	xmlns:rdf="http://www.w3.org/1999/02/22-rdf-syntax-ns#"
	xmlns:svg="http://www.w3.org/2000/svg"
	xmlns="http://www.w3.org/2000/svg"
	xmlns:sodipodi="http://sodipodi.sourceforge.net/DTD/sodipodi-0.dtd"
	xmlns:inkscape="http://www.inkscape.org/namespaces/inkscape"
	width="1000"
	height="1000"
	id="svg2"
	version="1.1"
	sodipodi:docname="manifold/discur-brick04.png.txt">
<defs
	id="defs4" />
<metadata
	id="metadata7">
	<rdf:RDF>
		<cc:Work
			rdf:about="">
			<dc:format>image/svg+xml</dc:format>
			<dc:type
				rdf:resource="http://purl.org/dc/dcmitype/StillImage" />
			<dc:title></dc:title>
		</cc:Work>
	</rdf:RDF>
</metadata>
<g
	inkscape:label="Layer 1"
	inkscape:groupmode="layer"
	id="layer1">
	<path style="fill:none;stroke:red;stroke-width:1px;stroke-linecap:butt;stroke-linejoin:miter;stroke-opacity:1" d="M 4,205.763 4,224.444 z" id="boundary" inkscape:connector-curvature="0" />
	<path style="fill:none;stroke:red;stroke-width:1px;stroke-linecap:butt;stroke-linejoin:miter;stroke-opacity:1" d="M 4,205.763 13.3409,187.081 z" id="boundary" inkscape:connector-curvature="0" />
	<path style="fill:none;stroke:red;stroke-width:1px;stroke-linecap:butt;stroke-linejoin:miter;stroke-opacity:1" d="M 4,224.444 4,243.126 z" id="boundary" inkscape:connector-curvature="0" />
	<path style="fill:none;stroke:red;stroke-width:1px;stroke-linecap:butt;stroke-linejoin:miter;stroke-opacity:1" d="M 4,243.126 13.3409,259.94 z" id="boundary" inkscape:connector-curvature="0" />
	<path style="fill:none;stroke:red;stroke-width:1px;stroke-linecap:butt;stroke-linejoin:miter;stroke-opacity:1" d="M 13.3409,187.081 28.2863,172.136 z" id="boundary" inkscape:connector-curvature="0" />
	<path style="fill:none;stroke:red;stroke-width:1px;stroke-linecap:butt;stroke-linejoin:miter;stroke-opacity:1" d="M 13.3409,259.94 22.6817,276.753 z" id="boundary" inkscape:connector-curvature="0" />
	<path style="fill:none;stroke:red;stroke-width:1px;stroke-linecap:butt;stroke-linejoin:miter;stroke-opacity:1" d="M 22.6817,276.753 41.3635,276.753 z" id="boundary" inkscape:connector-curvature="0" />
	<path style="fill:none;stroke:red;stroke-width:1px;stroke-linecap:butt;stroke-linejoin:miter;stroke-opacity:1" d="M 28.2863,172.136 43.2316,157.19 z" id="boundary" inkscape:connector-curvature="0" />
	<path style="fill:none;stroke:red;stroke-width:1px;stroke-linecap:butt;stroke-linejoin:miter;stroke-opacity:1" d="M 41.3635,276.753 60.0452,276.753 z" id="boundary" inkscape:connector-curvature="0" />
	<path style="fill:none;stroke:red;stroke-width:1px;stroke-linecap:butt;stroke-linejoin:miter;stroke-opacity:1" d="M 43.2316,157.19 61.9134,147.849 z" id="boundary" inkscape:connector-curvature="0" />
	<path style="fill:none;stroke:red;stroke-width:1px;stroke-linecap:butt;stroke-linejoin:miter;stroke-opacity:1" d="M 60.0452,276.753 78.7269,276.753 z" id="boundary" inkscape:connector-curvature="0" />
	<path style="fill:none;stroke:red;stroke-width:1px;stroke-linecap:butt;stroke-linejoin:miter;stroke-opacity:1" d="M 61.9134,147.849 76.8588,134.772 z" id="boundary" inkscape:connector-curvature="0" />
	<path style="fill:none;stroke:red;stroke-width:1px;stroke-linecap:butt;stroke-linejoin:miter;stroke-opacity:1" d="M 76.8588,134.772 93.6723,125.431 z" id="boundary" inkscape:connector-curvature="0" />
	<path style="fill:none;stroke:red;stroke-width:1px;stroke-linecap:butt;stroke-linejoin:miter;stroke-opacity:1" d="M 78.7269,276.753 97.4087,276.753 z" id="boundary" inkscape:connector-curvature="0" />
	<path style="fill:none;stroke:red;stroke-width:1px;stroke-linecap:butt;stroke-linejoin:miter;stroke-opacity:1" d="M 88.0678,28.2863 88.0678,46.968 z" id="boundary" inkscape:connector-curvature="0" />
	<path style="fill:none;stroke:red;stroke-width:1px;stroke-linecap:butt;stroke-linejoin:miter;stroke-opacity:1" d="M 88.0678,28.2863 103.013,13.3409 z" id="boundary" inkscape:connector-curvature="0" />
	<path style="fill:none;stroke:red;stroke-width:1px;stroke-linecap:butt;stroke-linejoin:miter;stroke-opacity:1" d="M 88.0678,46.968 88.0678,65.6497 z" id="boundary" inkscape:connector-curvature="0" />
	<path style="fill:none;stroke:red;stroke-width:1px;stroke-linecap:butt;stroke-linejoin:miter;stroke-opacity:1" d="M 88.0678,65.6497 97.4087,82.4633 z" id="boundary" inkscape:connector-curvature="0" />
	<path style="fill:none;stroke:red;stroke-width:1px;stroke-linecap:butt;stroke-linejoin:miter;stroke-opacity:1" d="M 93.6723,125.431 97.4087,101.145 z" id="boundary" inkscape:connector-curvature="0" />
	<path style="fill:none;stroke:red;stroke-width:1px;stroke-linecap:butt;stroke-linejoin:miter;stroke-opacity:1" d="M 97.4087,82.4633 97.4087,101.145 z" id="boundary" inkscape:connector-curvature="0" />
	<path style="fill:none;stroke:red;stroke-width:1px;stroke-linecap:butt;stroke-linejoin:miter;stroke-opacity:1" d="M 97.4087,276.753 116.09,276.753 z" id="boundary" inkscape:connector-curvature="0" />
	<path style="fill:none;stroke:red;stroke-width:1px;stroke-linecap:butt;stroke-linejoin:miter;stroke-opacity:1" d="M 103.013,13.3409 121.695,4 z" id="boundary" inkscape:connector-curvature="0" />
	<path style="fill:none;stroke:red;stroke-width:1px;stroke-linecap:butt;stroke-linejoin:miter;stroke-opacity:1" d="M 116.09,276.753 134.772,276.753 z" id="boundary" inkscape:connector-curvature="0" />
	<path style="fill:none;stroke:red;stroke-width:1px;stroke-linecap:butt;stroke-linejoin:miter;stroke-opacity:1" d="M 121.695,4 140.377,4 z" id="boundary" inkscape:connector-curvature="0" />
	<path style="fill:none;stroke:red;stroke-width:1px;stroke-linecap:butt;stroke-linejoin:miter;stroke-opacity:1" d="M 134.772,276.753 153.454,276.753 z" id="boundary" inkscape:connector-curvature="0" />
	<path style="fill:none;stroke:red;stroke-width:1px;stroke-linecap:butt;stroke-linejoin:miter;stroke-opacity:1" d="M 140.377,4 159.058,4 z" id="boundary" inkscape:connector-curvature="0" />
	<path style="fill:none;stroke:red;stroke-width:1px;stroke-linecap:butt;stroke-linejoin:miter;stroke-opacity:1" d="M 153.454,276.753 172.136,276.753 z" id="boundary" inkscape:connector-curvature="0" />
	<path style="fill:none;stroke:red;stroke-width:1px;stroke-linecap:butt;stroke-linejoin:miter;stroke-opacity:1" d="M 159.058,4 177.74,4 z" id="boundary" inkscape:connector-curvature="0" />
	<path style="fill:none;stroke:red;stroke-width:1px;stroke-linecap:butt;stroke-linejoin:miter;stroke-opacity:1" d="M 172.136,276.753 190.817,276.753 z" id="boundary" inkscape:connector-curvature="0" />
	<path style="fill:none;stroke:red;stroke-width:1px;stroke-linecap:butt;stroke-linejoin:miter;stroke-opacity:1" d="M 177.74,4 196.422,4 z" id="boundary" inkscape:connector-curvature="0" />
	<path style="fill:none;stroke:red;stroke-width:1px;stroke-linecap:butt;stroke-linejoin:miter;stroke-opacity:1" d="M 190.817,276.753 209.499,276.753 z" id="boundary" inkscape:connector-curvature="0" />
	<path style="fill:none;stroke:red;stroke-width:1px;stroke-linecap:butt;stroke-linejoin:miter;stroke-opacity:1" d="M 196.422,4 215.104,4 z" id="boundary" inkscape:connector-curvature="0" />
	<path style="fill:none;stroke:red;stroke-width:1px;stroke-linecap:butt;stroke-linejoin:miter;stroke-opacity:1" d="M 209.499,276.753 226.313,286.094 z" id="boundary" inkscape:connector-curvature="0" />
	<path style="fill:none;stroke:red;stroke-width:1px;stroke-linecap:butt;stroke-linejoin:miter;stroke-opacity:1" d="M 215.104,4 233.785,4 z" id="boundary" inkscape:connector-curvature="0" />
	<path style="fill:none;stroke:red;stroke-width:1px;stroke-linecap:butt;stroke-linejoin:miter;stroke-opacity:1" d="M 226.313,286.094 243.126,295.435 z" id="boundary" inkscape:connector-curvature="0" />
	<path style="fill:none;stroke:red;stroke-width:1px;stroke-linecap:butt;stroke-linejoin:miter;stroke-opacity:1" d="M 233.785,4 252.467,4 z" id="boundary" inkscape:connector-curvature="0" />
	<path style="fill:none;stroke:red;stroke-width:1px;stroke-linecap:butt;stroke-linejoin:miter;stroke-opacity:1" d="M 243.126,295.435 259.94,304.776 z" id="boundary" inkscape:connector-curvature="0" />
	<path style="fill:none;stroke:red;stroke-width:1px;stroke-linecap:butt;stroke-linejoin:miter;stroke-opacity:1" d="M 252.467,4 269.281,13.3409 z" id="boundary" inkscape:connector-curvature="0" />
	<path style="fill:none;stroke:red;stroke-width:1px;stroke-linecap:butt;stroke-linejoin:miter;stroke-opacity:1" d="M 259.94,304.776 274.885,315.985 z" id="boundary" inkscape:connector-curvature="0" />
	<path style="fill:none;stroke:red;stroke-width:1px;stroke-linecap:butt;stroke-linejoin:miter;stroke-opacity:1" d="M 269.281,13.3409 286.094,22.6817 z" id="boundary" inkscape:connector-curvature="0" />
	<path style="fill:none;stroke:red;stroke-width:1px;stroke-linecap:butt;stroke-linejoin:miter;stroke-opacity:1" d="M 274.885,315.985 287.962,330.93 z" id="boundary" inkscape:connector-curvature="0" />
	<path style="fill:none;stroke:red;stroke-width:1px;stroke-linecap:butt;stroke-linejoin:miter;stroke-opacity:1" d="M 286.094,22.6817 304.776,28.2863 z" id="boundary" inkscape:connector-curvature="0" />
	<path style="fill:none;stroke:red;stroke-width:1px;stroke-linecap:butt;stroke-linejoin:miter;stroke-opacity:1" d="M 287.962,330.93 306.644,338.403 z" id="boundary" inkscape:connector-curvature="0" />
	<path style="fill:none;stroke:red;stroke-width:1px;stroke-linecap:butt;stroke-linejoin:miter;stroke-opacity:1" d="M 304.776,28.2863 317.853,43.2316 z" id="boundary" inkscape:connector-curvature="0" />
	<path style="fill:none;stroke:red;stroke-width:1px;stroke-linecap:butt;stroke-linejoin:miter;stroke-opacity:1" d="M 306.644,338.403 325.326,342.139 z" id="boundary" inkscape:connector-curvature="0" />
	<path style="fill:none;stroke:red;stroke-width:1px;stroke-linecap:butt;stroke-linejoin:miter;stroke-opacity:1" d="M 317.853,43.2316 336.535,50.7043 z" id="boundary" inkscape:connector-curvature="0" />
	<path style="fill:none;stroke:red;stroke-width:1px;stroke-linecap:butt;stroke-linejoin:miter;stroke-opacity:1" d="M 325.326,342.139 342.139,351.48 z" id="boundary" inkscape:connector-curvature="0" />
	<path style="fill:none;stroke:red;stroke-width:1px;stroke-linecap:butt;stroke-linejoin:miter;stroke-opacity:1" d="M 336.535,50.7043 353.348,60.0452 z" id="boundary" inkscape:connector-curvature="0" />
	<path style="fill:none;stroke:red;stroke-width:1px;stroke-linecap:butt;stroke-linejoin:miter;stroke-opacity:1" d="M 342.139,351.48 360.821,342.139 z" id="boundary" inkscape:connector-curvature="0" />
	<path style="fill:none;stroke:red;stroke-width:1px;stroke-linecap:butt;stroke-linejoin:miter;stroke-opacity:1" d="M 353.348,60.0452 370.162,69.3861 z" id="boundary" inkscape:connector-curvature="0" />
	<path style="fill:none;stroke:red;stroke-width:1px;stroke-linecap:butt;stroke-linejoin:miter;stroke-opacity:1" d="M 360.821,342.139 379.503,342.139 z" id="boundary" inkscape:connector-curvature="0" />
	<path style="fill:none;stroke:red;stroke-width:1px;stroke-linecap:butt;stroke-linejoin:miter;stroke-opacity:1" d="M 370.162,69.3861 388.844,69.3861 z" id="boundary" inkscape:connector-curvature="0" />
	<path style="fill:none;stroke:red;stroke-width:1px;stroke-linecap:butt;stroke-linejoin:miter;stroke-opacity:1" d="M 379.503,342.139 398.185,342.139 z" id="boundary" inkscape:connector-curvature="0" />
	<path style="fill:none;stroke:red;stroke-width:1px;stroke-linecap:butt;stroke-linejoin:miter;stroke-opacity:1" d="M 388.844,69.3861 407.525,69.3861 z" id="boundary" inkscape:connector-curvature="0" />
	<path style="fill:none;stroke:red;stroke-width:1px;stroke-linecap:butt;stroke-linejoin:miter;stroke-opacity:1" d="M 398.185,342.139 416.866,342.139 z" id="boundary" inkscape:connector-curvature="0" />
	<path style="fill:none;stroke:red;stroke-width:1px;stroke-linecap:butt;stroke-linejoin:miter;stroke-opacity:1" d="M 407.525,69.3861 426.207,69.3861 z" id="boundary" inkscape:connector-curvature="0" />
	<path style="fill:none;stroke:red;stroke-width:1px;stroke-linecap:butt;stroke-linejoin:miter;stroke-opacity:1" d="M 416.866,342.139 435.548,342.139 z" id="boundary" inkscape:connector-curvature="0" />
	<path style="fill:none;stroke:red;stroke-width:1px;stroke-linecap:butt;stroke-linejoin:miter;stroke-opacity:1" d="M 426.207,69.3861 444.889,69.3861 z" id="boundary" inkscape:connector-curvature="0" />
	<path style="fill:none;stroke:red;stroke-width:1px;stroke-linecap:butt;stroke-linejoin:miter;stroke-opacity:1" d="M 435.548,342.139 454.23,342.139 z" id="boundary" inkscape:connector-curvature="0" />
	<path style="fill:none;stroke:red;stroke-width:1px;stroke-linecap:butt;stroke-linejoin:miter;stroke-opacity:1" d="M 444.889,69.3861 463.571,69.3861 z" id="boundary" inkscape:connector-curvature="0" />
	<path style="fill:none;stroke:red;stroke-width:1px;stroke-linecap:butt;stroke-linejoin:miter;stroke-opacity:1" d="M 454.23,342.139 472.911,342.139 z" id="boundary" inkscape:connector-curvature="0" />
	<path style="fill:none;stroke:red;stroke-width:1px;stroke-linecap:butt;stroke-linejoin:miter;stroke-opacity:1" d="M 463.571,69.3861 482.252,69.3861 z" id="boundary" inkscape:connector-curvature="0" />
	<path style="fill:none;stroke:red;stroke-width:1px;stroke-linecap:butt;stroke-linejoin:miter;stroke-opacity:1" d="M 472.911,342.139 491.593,342.139 z" id="boundary" inkscape:connector-curvature="0" />
	<path style="fill:none;stroke:red;stroke-width:1px;stroke-linecap:butt;stroke-linejoin:miter;stroke-opacity:1" d="M 482.252,69.3861 500.934,69.3861 z" id="boundary" inkscape:connector-curvature="0" />
	<path style="fill:none;stroke:red;stroke-width:1px;stroke-linecap:butt;stroke-linejoin:miter;stroke-opacity:1" d="M 491.593,342.139 508.407,332.798 z" id="boundary" inkscape:connector-curvature="0" />
	<path style="fill:none;stroke:red;stroke-width:1px;stroke-linecap:butt;stroke-linejoin:miter;stroke-opacity:1" d="M 500.934,69.3861 519.616,69.3861 z" id="boundary" inkscape:connector-curvature="0" />
	<path style="fill:none;stroke:red;stroke-width:1px;stroke-linecap:butt;stroke-linejoin:miter;stroke-opacity:1" d="M 508.407,332.798 527.089,327.194 z" id="boundary" inkscape:connector-curvature="0" />
	<path style="fill:none;stroke:red;stroke-width:1px;stroke-linecap:butt;stroke-linejoin:miter;stroke-opacity:1" d="M 519.616,69.3861 538.298,69.3861 z" id="boundary" inkscape:connector-curvature="0" />
	<path style="fill:none;stroke:red;stroke-width:1px;stroke-linecap:butt;stroke-linejoin:miter;stroke-opacity:1" d="M 527.089,327.194 545.77,323.458 z" id="boundary" inkscape:connector-curvature="0" />
	<path style="fill:none;stroke:red;stroke-width:1px;stroke-linecap:butt;stroke-linejoin:miter;stroke-opacity:1" d="M 538.298,69.3861 556.979,63.7815 z" id="boundary" inkscape:connector-curvature="0" />
	<path style="fill:none;stroke:red;stroke-width:1px;stroke-linecap:butt;stroke-linejoin:miter;stroke-opacity:1" d="M 545.77,323.458 564.452,317.853 z" id="boundary" inkscape:connector-curvature="0" />
	<path style="fill:none;stroke:red;stroke-width:1px;stroke-linecap:butt;stroke-linejoin:miter;stroke-opacity:1" d="M 556.979,63.7815 575.661,60.0452 z" id="boundary" inkscape:connector-curvature="0" />
	<path style="fill:none;stroke:red;stroke-width:1px;stroke-linecap:butt;stroke-linejoin:miter;stroke-opacity:1" d="M 564.452,317.853 583.134,314.117 z" id="boundary" inkscape:connector-curvature="0" />
	<path style="fill:none;stroke:red;stroke-width:1px;stroke-linecap:butt;stroke-linejoin:miter;stroke-opacity:1" d="M 575.661,60.0452 592.475,50.7043 z" id="boundary" inkscape:connector-curvature="0" />
	<path style="fill:none;stroke:red;stroke-width:1px;stroke-linecap:butt;stroke-linejoin:miter;stroke-opacity:1" d="M 583.134,314.117 601.815,314.117 z" id="boundary" inkscape:connector-curvature="0" />
	<path style="fill:none;stroke:red;stroke-width:1px;stroke-linecap:butt;stroke-linejoin:miter;stroke-opacity:1" d="M 592.475,50.7043 609.288,41.3635 z" id="boundary" inkscape:connector-curvature="0" />
	<path style="fill:none;stroke:red;stroke-width:1px;stroke-linecap:butt;stroke-linejoin:miter;stroke-opacity:1" d="M 601.815,314.117 618.629,323.458 z" id="boundary" inkscape:connector-curvature="0" />
	<path style="fill:none;stroke:red;stroke-width:1px;stroke-linecap:butt;stroke-linejoin:miter;stroke-opacity:1" d="M 609.288,41.3635 627.97,41.3635 z" id="boundary" inkscape:connector-curvature="0" />
	<path style="fill:none;stroke:red;stroke-width:1px;stroke-linecap:butt;stroke-linejoin:miter;stroke-opacity:1" d="M 618.629,323.458 637.311,323.458 z" id="boundary" inkscape:connector-curvature="0" />
	<path style="fill:none;stroke:red;stroke-width:1px;stroke-linecap:butt;stroke-linejoin:miter;stroke-opacity:1" d="M 627.97,41.3635 644.783,32.0226 z" id="boundary" inkscape:connector-curvature="0" />
	<path style="fill:none;stroke:red;stroke-width:1px;stroke-linecap:butt;stroke-linejoin:miter;stroke-opacity:1" d="M 637.311,323.458 654.124,332.798 z" id="boundary" inkscape:connector-curvature="0" />
	<path style="fill:none;stroke:red;stroke-width:1px;stroke-linecap:butt;stroke-linejoin:miter;stroke-opacity:1" d="M 644.783,32.0226 663.465,32.0226 z" id="boundary" inkscape:connector-curvature="0" />
	<path style="fill:none;stroke:red;stroke-width:1px;stroke-linecap:butt;stroke-linejoin:miter;stroke-opacity:1" d="M 654.124,332.798 672.806,340.271 z" id="boundary" inkscape:connector-curvature="0" />
	<path style="fill:none;stroke:red;stroke-width:1px;stroke-linecap:butt;stroke-linejoin:miter;stroke-opacity:1" d="M 663.465,32.0226 682.147,32.0226 z" id="boundary" inkscape:connector-curvature="0" />
	<path style="fill:none;stroke:red;stroke-width:1px;stroke-linecap:butt;stroke-linejoin:miter;stroke-opacity:1" d="M 672.806,340.271 685.883,355.217 z" id="boundary" inkscape:connector-curvature="0" />
	<path style="fill:none;stroke:red;stroke-width:1px;stroke-linecap:butt;stroke-linejoin:miter;stroke-opacity:1" d="M 682.147,32.0226 700.829,32.0226 z" id="boundary" inkscape:connector-curvature="0" />
	<path style="fill:none;stroke:red;stroke-width:1px;stroke-linecap:butt;stroke-linejoin:miter;stroke-opacity:1" d="M 685.883,355.217 704.565,360.821 z" id="boundary" inkscape:connector-curvature="0" />
	<path style="fill:none;stroke:red;stroke-width:1px;stroke-linecap:butt;stroke-linejoin:miter;stroke-opacity:1" d="M 700.829,32.0226 719.51,32.0226 z" id="boundary" inkscape:connector-curvature="0" />
	<path style="fill:none;stroke:red;stroke-width:1px;stroke-linecap:butt;stroke-linejoin:miter;stroke-opacity:1" d="M 704.565,360.821 721.379,370.162 z" id="boundary" inkscape:connector-curvature="0" />
	<path style="fill:none;stroke:red;stroke-width:1px;stroke-linecap:butt;stroke-linejoin:miter;stroke-opacity:1" d="M 719.51,32.0226 732.588,46.968 z" id="boundary" inkscape:connector-curvature="0" />
	<path style="fill:none;stroke:red;stroke-width:1px;stroke-linecap:butt;stroke-linejoin:miter;stroke-opacity:1" d="M 721.379,370.162 738.192,379.503 z" id="boundary" inkscape:connector-curvature="0" />
	<path style="fill:none;stroke:red;stroke-width:1px;stroke-linecap:butt;stroke-linejoin:miter;stroke-opacity:1" d="M 732.588,46.968 747.533,60.0452 z" id="boundary" inkscape:connector-curvature="0" />
	<path style="fill:none;stroke:red;stroke-width:1px;stroke-linecap:butt;stroke-linejoin:miter;stroke-opacity:1" d="M 738.192,379.503 756.874,379.503 z" id="boundary" inkscape:connector-curvature="0" />
	<path style="fill:none;stroke:red;stroke-width:1px;stroke-linecap:butt;stroke-linejoin:miter;stroke-opacity:1" d="M 747.533,60.0452 766.215,60.0452 z" id="boundary" inkscape:connector-curvature="0" />
	<path style="fill:none;stroke:red;stroke-width:1px;stroke-linecap:butt;stroke-linejoin:miter;stroke-opacity:1" d="M 756.874,379.503 775.556,379.503 z" id="boundary" inkscape:connector-curvature="0" />
	<path style="fill:none;stroke:red;stroke-width:1px;stroke-linecap:butt;stroke-linejoin:miter;stroke-opacity:1" d="M 766.215,60.0452 783.028,69.3861 z" id="boundary" inkscape:connector-curvature="0" />
	<path style="fill:none;stroke:red;stroke-width:1px;stroke-linecap:butt;stroke-linejoin:miter;stroke-opacity:1" d="M 775.556,379.503 794.237,379.503 z" id="boundary" inkscape:connector-curvature="0" />
	<path style="fill:none;stroke:red;stroke-width:1px;stroke-linecap:butt;stroke-linejoin:miter;stroke-opacity:1" d="M 783.028,69.3861 801.71,69.3861 z" id="boundary" inkscape:connector-curvature="0" />
	<path style="fill:none;stroke:red;stroke-width:1px;stroke-linecap:butt;stroke-linejoin:miter;stroke-opacity:1" d="M 794.237,379.503 812.919,379.503 z" id="boundary" inkscape:connector-curvature="0" />
	<path style="fill:none;stroke:red;stroke-width:1px;stroke-linecap:butt;stroke-linejoin:miter;stroke-opacity:1" d="M 801.71,69.3861 820.392,69.3861 z" id="boundary" inkscape:connector-curvature="0" />
	<path style="fill:none;stroke:red;stroke-width:1px;stroke-linecap:butt;stroke-linejoin:miter;stroke-opacity:1" d="M 812.919,379.503 831.601,379.503 z" id="boundary" inkscape:connector-curvature="0" />
	<path style="fill:none;stroke:red;stroke-width:1px;stroke-linecap:butt;stroke-linejoin:miter;stroke-opacity:1" d="M 820.392,69.3861 839.073,69.3861 z" id="boundary" inkscape:connector-curvature="0" />
	<path style="fill:none;stroke:red;stroke-width:1px;stroke-linecap:butt;stroke-linejoin:miter;stroke-opacity:1" d="M 831.601,379.503 850.282,379.503 z" id="boundary" inkscape:connector-curvature="0" />
	<path style="fill:none;stroke:red;stroke-width:1px;stroke-linecap:butt;stroke-linejoin:miter;stroke-opacity:1" d="M 839.073,69.3861 857.755,69.3861 z" id="boundary" inkscape:connector-curvature="0" />
	<path style="fill:none;stroke:red;stroke-width:1px;stroke-linecap:butt;stroke-linejoin:miter;stroke-opacity:1" d="M 850.282,379.503 868.964,377.635 z" id="boundary" inkscape:connector-curvature="0" />
	<path style="fill:none;stroke:red;stroke-width:1px;stroke-linecap:butt;stroke-linejoin:miter;stroke-opacity:1" d="M 857.755,69.3861 876.437,69.3861 z" id="boundary" inkscape:connector-curvature="0" />
	<path style="fill:none;stroke:red;stroke-width:1px;stroke-linecap:butt;stroke-linejoin:miter;stroke-opacity:1" d="M 868.964,377.635 887.646,370.162 z" id="boundary" inkscape:connector-curvature="0" />
	<path style="fill:none;stroke:red;stroke-width:1px;stroke-linecap:butt;stroke-linejoin:miter;stroke-opacity:1" d="M 876.437,69.3861 895.119,69.3861 z" id="boundary" inkscape:connector-curvature="0" />
	<path style="fill:none;stroke:red;stroke-width:1px;stroke-linecap:butt;stroke-linejoin:miter;stroke-opacity:1" d="M 887.646,370.162 906.328,370.162 z" id="boundary" inkscape:connector-curvature="0" />
	<path style="fill:none;stroke:red;stroke-width:1px;stroke-linecap:butt;stroke-linejoin:miter;stroke-opacity:1" d="M 895.119,69.3861 913.8,69.3861 z" id="boundary" inkscape:connector-curvature="0" />
	<path style="fill:none;stroke:red;stroke-width:1px;stroke-linecap:butt;stroke-linejoin:miter;stroke-opacity:1" d="M 906.328,370.162 921.273,351.48 z" id="boundary" inkscape:connector-curvature="0" />
	<path style="fill:none;stroke:red;stroke-width:1px;stroke-linecap:butt;stroke-linejoin:miter;stroke-opacity:1" d="M 913.8,69.3861 932.482,69.3861 z" id="boundary" inkscape:connector-curvature="0" />
	<path style="fill:none;stroke:red;stroke-width:1px;stroke-linecap:butt;stroke-linejoin:miter;stroke-opacity:1" d="M 921.273,258.072 921.273,276.753 z" id="boundary" inkscape:connector-curvature="0" />
	<path style="fill:none;stroke:red;stroke-width:1px;stroke-linecap:butt;stroke-linejoin:miter;stroke-opacity:1" d="M 921.273,258.072 930.614,239.39 z" id="boundary" inkscape:connector-curvature="0" />
	<path style="fill:none;stroke:red;stroke-width:1px;stroke-linecap:butt;stroke-linejoin:miter;stroke-opacity:1" d="M 921.273,276.753 921.273,295.435 z" id="boundary" inkscape:connector-curvature="0" />
	<path style="fill:none;stroke:red;stroke-width:1px;stroke-linecap:butt;stroke-linejoin:miter;stroke-opacity:1" d="M 921.273,295.435 921.273,314.117 z" id="boundary" inkscape:connector-curvature="0" />
	<path style="fill:none;stroke:red;stroke-width:1px;stroke-linecap:butt;stroke-linejoin:miter;stroke-opacity:1" d="M 921.273,314.117 921.273,332.798 z" id="boundary" inkscape:connector-curvature="0" />
	<path style="fill:none;stroke:red;stroke-width:1px;stroke-linecap:butt;stroke-linejoin:miter;stroke-opacity:1" d="M 921.273,332.798 921.273,351.48 z" id="boundary" inkscape:connector-curvature="0" />
	<path style="fill:none;stroke:red;stroke-width:1px;stroke-linecap:butt;stroke-linejoin:miter;stroke-opacity:1" d="M 930.614,239.39 939.955,220.708 z" id="boundary" inkscape:connector-curvature="0" />
	<path style="fill:none;stroke:red;stroke-width:1px;stroke-linecap:butt;stroke-linejoin:miter;stroke-opacity:1" d="M 932.482,69.3861 949.296,78.7269 z" id="boundary" inkscape:connector-curvature="0" />
	<path style="fill:none;stroke:red;stroke-width:1px;stroke-linecap:butt;stroke-linejoin:miter;stroke-opacity:1" d="M 939.955,220.708 954.9,207.631 z" id="boundary" inkscape:connector-curvature="0" />
	<path style="fill:none;stroke:red;stroke-width:1px;stroke-linecap:butt;stroke-linejoin:miter;stroke-opacity:1" d="M 949.296,78.7269 967.977,84.3315 z" id="boundary" inkscape:connector-curvature="0" />
	<path style="fill:none;stroke:red;stroke-width:1px;stroke-linecap:butt;stroke-linejoin:miter;stroke-opacity:1" d="M 954.9,207.631 967.977,192.685 z" id="boundary" inkscape:connector-curvature="0" />
	<path style="fill:none;stroke:red;stroke-width:1px;stroke-linecap:butt;stroke-linejoin:miter;stroke-opacity:1" d="M 967.977,84.3315 977.318,101.145 z" id="boundary" inkscape:connector-curvature="0" />
	<path style="fill:none;stroke:red;stroke-width:1px;stroke-linecap:butt;stroke-linejoin:miter;stroke-opacity:1" d="M 967.977,192.685 982.923,179.608 z" id="boundary" inkscape:connector-curvature="0" />
	<path style="fill:none;stroke:red;stroke-width:1px;stroke-linecap:butt;stroke-linejoin:miter;stroke-opacity:1" d="M 977.318,101.145 982.923,119.827 z" id="boundary" inkscape:connector-curvature="0" />
	<path style="fill:none;stroke:red;stroke-width:1px;stroke-linecap:butt;stroke-linejoin:miter;stroke-opacity:1" d="M 982.923,119.827 992.264,136.64 z" id="boundary" inkscape:connector-curvature="0" />
	<path style="fill:none;stroke:red;stroke-width:1px;stroke-linecap:butt;stroke-linejoin:miter;stroke-opacity:1" d="M 982.923,179.608 996,155.322 z" id="boundary" inkscape:connector-curvature="0" />
	<path style="fill:none;stroke:red;stroke-width:1px;stroke-linecap:butt;stroke-linejoin:miter;stroke-opacity:1" d="M 992.264,136.64 996,155.322 z" id="boundary" inkscape:connector-curvature="0" />
	<circle cx="4" cy="205.763" r="4" fill="#0" id="circle0"/>
	<circle cx="4" cy="224.444" r="4" fill="#0" id="circle1"/>
	<circle cx="4" cy="243.126" r="4" fill="#0" id="circle2"/>
	<circle cx="13.3409" cy="187.081" r="4" fill="#0" id="circle3"/>
	<circle cx="13.3409" cy="259.94" r="4" fill="#0" id="circle4"/>
	<circle cx="22.6817" cy="276.753" r="4" fill="#0" id="circle5"/>
	<circle cx="28.2863" cy="172.136" r="4" fill="#0" id="circle6"/>
	<circle cx="41.3635" cy="276.753" r="4" fill="#0" id="circle7"/>
	<circle cx="43.2316" cy="157.19" r="4" fill="#0" id="circle8"/>
	<circle cx="60.0452" cy="276.753" r="4" fill="#0" id="circle9"/>
	<circle cx="61.9134" cy="147.849" r="4" fill="#0" id="circle10"/>
	<circle cx="76.8588" cy="134.772" r="4" fill="#0" id="circle11"/>
	<circle cx="78.7269" cy="276.753" r="4" fill="#0" id="circle12"/>
	<circle cx="88.0678" cy="28.2863" r="4" fill="#0" id="circle13"/>
	<circle cx="88.0678" cy="46.968" r="4" fill="#0" id="circle14"/>
	<circle cx="88.0678" cy="65.6497" r="4" fill="#0" id="circle15"/>
	<circle cx="93.6723" cy="125.431" r="4" fill="#0" id="circle16"/>
	<circle cx="97.4087" cy="82.4633" r="4" fill="#0" id="circle17"/>
	<circle cx="97.4087" cy="101.145" r="4" fill="#0" id="circle18"/>
	<circle cx="97.4087" cy="276.753" r="4" fill="#0" id="circle19"/>
	<circle cx="103.013" cy="13.3409" r="4" fill="#0" id="circle20"/>
	<circle cx="116.09" cy="276.753" r="4" fill="#0" id="circle21"/>
	<circle cx="121.695" cy="4" r="4" fill="#0" id="circle22"/>
	<circle cx="134.772" cy="276.753" r="4" fill="#0" id="circle23"/>
	<circle cx="140.377" cy="4" r="4" fill="#0" id="circle24"/>
	<circle cx="153.454" cy="276.753" r="4" fill="#0" id="circle25"/>
	<circle cx="159.058" cy="4" r="4" fill="#0" id="circle26"/>
	<circle cx="172.136" cy="276.753" r="4" fill="#0" id="circle27"/>
	<circle cx="177.74" cy="4" r="4" fill="#0" id="circle28"/>
	<circle cx="190.817" cy="276.753" r="4" fill="#0" id="circle29"/>
	<circle cx="196.422" cy="4" r="4" fill="#0" id="circle30"/>
	<circle cx="209.499" cy="276.753" r="4" fill="#0" id="circle31"/>
	<circle cx="215.104" cy="4" r="4" fill="#0" id="circle32"/>
	<circle cx="226.313" cy="286.094" r="4" fill="#0" id="circle33"/>
	<circle cx="233.785" cy="4" r="4" fill="#0" id="circle34"/>
	<circle cx="243.126" cy="295.435" r="4" fill="#0" id="circle35"/>
	<circle cx="252.467" cy="4" r="4" fill="#0" id="circle36"/>
	<circle cx="259.94" cy="304.776" r="4" fill="#0" id="circle37"/>
	<circle cx="269.281" cy="13.3409" r="4" fill="#0" id="circle38"/>
	<circle cx="274.885" cy="315.985" r="4" fill="#0" id="circle39"/>
	<circle cx="286.094" cy="22.6817" r="4" fill="#0" id="circle40"/>
	<circle cx="287.962" cy="330.93" r="4" fill="#0" id="circle41"/>
	<circle cx="304.776" cy="28.2863" r="4" fill="#0" id="circle42"/>
	<circle cx="306.644" cy="338.403" r="4" fill="#0" id="circle43"/>
	<circle cx="317.853" cy="43.2316" r="4" fill="#0" id="circle44"/>
	<circle cx="325.326" cy="342.139" r="4" fill="#0" id="circle45"/>
	<circle cx="336.535" cy="50.7043" r="4" fill="#0" id="circle46"/>
	<circle cx="342.139" cy="351.48" r="4" fill="#0" id="circle47"/>
	<circle cx="353.348" cy="60.0452" r="4" fill="#0" id="circle48"/>
	<circle cx="360.821" cy="342.139" r="4" fill="#0" id="circle49"/>
	<circle cx="370.162" cy="69.3861" r="4" fill="#0" id="circle50"/>
	<circle cx="379.503" cy="342.139" r="4" fill="#0" id="circle51"/>
	<circle cx="388.844" cy="69.3861" r="4" fill="#0" id="circle52"/>
	<circle cx="398.185" cy="342.139" r="4" fill="#0" id="circle53"/>
	<circle cx="407.525" cy="69.3861" r="4" fill="#0" id="circle54"/>
	<circle cx="416.866" cy="342.139" r="4" fill="#0" id="circle55"/>
	<circle cx="426.207" cy="69.3861" r="4" fill="#0" id="circle56"/>
	<circle cx="435.548" cy="342.139" r="4" fill="#0" id="circle57"/>
	<circle cx="444.889" cy="69.3861" r="4" fill="#0" id="circle58"/>
	<circle cx="454.23" cy="342.139" r="4" fill="#0" id="circle59"/>
	<circle cx="463.571" cy="69.3861" r="4" fill="#0" id="circle60"/>
	<circle cx="472.911" cy="342.139" r="4" fill="#0" id="circle61"/>
	<circle cx="482.252" cy="69.3861" r="4" fill="#0" id="circle62"/>
	<circle cx="491.593" cy="342.139" r="4" fill="#0" id="circle63"/>
	<circle cx="500.934" cy="69.3861" r="4" fill="#0" id="circle64"/>
	<circle cx="508.407" cy="332.798" r="4" fill="#0" id="circle65"/>
	<circle cx="519.616" cy="69.3861" r="4" fill="#0" id="circle66"/>
	<circle cx="527.089" cy="327.194" r="4" fill="#0" id="circle67"/>
	<circle cx="538.298" cy="69.3861" r="4" fill="#0" id="circle68"/>
	<circle cx="545.77" cy="323.458" r="4" fill="#0" id="circle69"/>
	<circle cx="556.979" cy="63.7815" r="4" fill="#0" id="circle70"/>
	<circle cx="564.452" cy="317.853" r="4" fill="#0" id="circle71"/>
	<circle cx="575.661" cy="60.0452" r="4" fill="#0" id="circle72"/>
	<circle cx="583.134" cy="314.117" r="4" fill="#0" id="circle73"/>
	<circle cx="592.475" cy="50.7043" r="4" fill="#0" id="circle74"/>
	<circle cx="601.815" cy="314.117" r="4" fill="#0" id="circle75"/>
	<circle cx="609.288" cy="41.3635" r="4" fill="#0" id="circle76"/>
	<circle cx="618.629" cy="323.458" r="4" fill="#0" id="circle77"/>
	<circle cx="627.97" cy="41.3635" r="4" fill="#0" id="circle78"/>
	<circle cx="637.311" cy="323.458" r="4" fill="#0" id="circle79"/>
	<circle cx="644.783" cy="32.0226" r="4" fill="#0" id="circle80"/>
	<circle cx="654.124" cy="332.798" r="4" fill="#0" id="circle81"/>
	<circle cx="663.465" cy="32.0226" r="4" fill="#0" id="circle82"/>
	<circle cx="672.806" cy="340.271" r="4" fill="#0" id="circle83"/>
	<circle cx="682.147" cy="32.0226" r="4" fill="#0" id="circle84"/>
	<circle cx="685.883" cy="355.217" r="4" fill="#0" id="circle85"/>
	<circle cx="700.829" cy="32.0226" r="4" fill="#0" id="circle86"/>
	<circle cx="704.565" cy="360.821" r="4" fill="#0" id="circle87"/>
	<circle cx="719.51" cy="32.0226" r="4" fill="#0" id="circle88"/>
	<circle cx="721.379" cy="370.162" r="4" fill="#0" id="circle89"/>
	<circle cx="732.588" cy="46.968" r="4" fill="#0" id="circle90"/>
	<circle cx="738.192" cy="379.503" r="4" fill="#0" id="circle91"/>
	<circle cx="747.533" cy="60.0452" r="4" fill="#0" id="circle92"/>
	<circle cx="756.874" cy="379.503" r="4" fill="#0" id="circle93"/>
	<circle cx="766.215" cy="60.0452" r="4" fill="#0" id="circle94"/>
	<circle cx="775.556" cy="379.503" r="4" fill="#0" id="circle95"/>
	<circle cx="783.028" cy="69.3861" r="4" fill="#0" id="circle96"/>
	<circle cx="794.237" cy="379.503" r="4" fill="#0" id="circle97"/>
	<circle cx="801.71" cy="69.3861" r="4" fill="#0" id="circle98"/>
	<circle cx="812.919" cy="379.503" r="4" fill="#0" id="circle99"/>
	<circle cx="820.392" cy="69.3861" r="4" fill="#0" id="circle100"/>
	<circle cx="831.601" cy="379.503" r="4" fill="#0" id="circle101"/>
	<circle cx="839.073" cy="69.3861" r="4" fill="#0" id="circle102"/>
	<circle cx="850.282" cy="379.503" r="4" fill="#0" id="circle103"/>
	<circle cx="857.755" cy="69.3861" r="4" fill="#0" id="circle104"/>
	<circle cx="868.964" cy="377.635" r="4" fill="#0" id="circle105"/>
	<circle cx="876.437" cy="69.3861" r="4" fill="#0" id="circle106"/>
	<circle cx="887.646" cy="370.162" r="4" fill="#0" id="circle107"/>
	<circle cx="895.119" cy="69.3861" r="4" fill="#0" id="circle108"/>
	<circle cx="906.328" cy="370.162" r="4" fill="#0" id="circle109"/>
	<circle cx="913.8" cy="69.3861" r="4" fill="#0" id="circle110"/>
	<circle cx="921.273" cy="258.072" r="4" fill="#0" id="circle111"/>
	<circle cx="921.273" cy="276.753" r="4" fill="#0" id="circle112"/>
	<circle cx="921.273" cy="295.435" r="4" fill="#0" id="circle113"/>
	<circle cx="921.273" cy="314.117" r="4" fill="#0" id="circle114"/>
	<circle cx="921.273" cy="332.798" r="4" fill="#0" id="circle115"/>
	<circle cx="921.273" cy="351.48" r="4" fill="#0" id="circle116"/>
	<circle cx="930.614" cy="239.39" r="4" fill="#0" id="circle117"/>
	<circle cx="932.482" cy="69.3861" r="4" fill="#0" id="circle118"/>
	<circle cx="939.955" cy="220.708" r="4" fill="#0" id="circle119"/>
	<circle cx="949.296" cy="78.7269" r="4" fill="#0" id="circle120"/>
	<circle cx="954.9" cy="207.631" r="4" fill="#0" id="circle121"/>
	<circle cx="967.977" cy="84.3315" r="4" fill="#0" id="circle122"/>
	<circle cx="967.977" cy="192.685" r="4" fill="#0" id="circle123"/>
	<circle cx="977.318" cy="101.145" r="4" fill="#0" id="circle124"/>
	<circle cx="982.923" cy="119.827" r="4" fill="#0" id="circle125"/>
	<circle cx="982.923" cy="179.608" r="4" fill="#0" id="circle126"/>
	<circle cx="992.264" cy="136.64" r="4" fill="#0" id="circle127"/>
	<circle cx="996" cy="155.322" r="4" fill="#0" id="circle128"/>
	</g>
</svg>