<?xml version="1.0" encoding="UTF-8" standalone="no"?>
<!-- Created with CurveBenchmark -->
<svg
	xmlns:dc="http://purl.org/dc/elements/1.1/"
	xmlns:cc="http://creativecommons.org/ns#"
	xmlns:rdf="http://www.w3.org/1999/02/22-rdf-syntax-ns#"
	xmlns:svg="http://www.w3.org/2000/svg"
	xmlns="http://www.w3.org/2000/svg"
	xmlns:sodipodi="http://sodipodi.sourceforge.net/DTD/sodipodi-0.dtd"
	xmlns:inkscape="http://www.inkscape.org/namespaces/inkscape"
	width="1000"
	height="1000"
	id="svg2"
	version="1.1"
	sodipodi:docname="manifold/discur-chopper-13.png.txt">
<defs
	id="defs4" />
<metadata
	id="metadata7">
	<rdf:RDF>
		<cc:Work
			rdf:about="">
			<dc:format>image/svg+xml</dc:format>
			<dc:type
				rdf:resource="http://purl.org/dc/dcmitype/StillImage" />
			<dc:title></dc:title>
		</cc:Work>
	</rdf:RDF>
</metadata>
<g
	inkscape:label="Layer 1"
	inkscape:groupmode="layer"
	id="layer1">
	<path style="fill:none;stroke:red;stroke-width:1px;stroke-linecap:butt;stroke-linejoin:miter;stroke-opacity:1" d="M 4,536.032 4,544.929 z" id="boundary" inkscape:connector-curvature="0" />
	<path style="fill:none;stroke:red;stroke-width:1px;stroke-linecap:butt;stroke-linejoin:miter;stroke-opacity:1" d="M 4,536.032 8.44843,527.135 z" id="boundary" inkscape:connector-curvature="0" />
	<path style="fill:none;stroke:red;stroke-width:1px;stroke-linecap:butt;stroke-linejoin:miter;stroke-opacity:1" d="M 4,544.929 8.44843,552.936 z" id="boundary" inkscape:connector-curvature="0" />
	<path style="fill:none;stroke:red;stroke-width:1px;stroke-linecap:butt;stroke-linejoin:miter;stroke-opacity:1" d="M 8.44843,362.543 8.44843,380.337 z" id="boundary" inkscape:connector-curvature="0" />
	<path style="fill:none;stroke:red;stroke-width:1px;stroke-linecap:butt;stroke-linejoin:miter;stroke-opacity:1" d="M 8.44843,362.543 12.8969,344.75 z" id="boundary" inkscape:connector-curvature="0" />
	<path style="fill:none;stroke:red;stroke-width:1px;stroke-linecap:butt;stroke-linejoin:miter;stroke-opacity:1" d="M 8.44843,380.337 8.44843,398.131 z" id="boundary" inkscape:connector-curvature="0" />
	<path style="fill:none;stroke:red;stroke-width:1px;stroke-linecap:butt;stroke-linejoin:miter;stroke-opacity:1" d="M 8.44843,398.131 8.44843,415.925 z" id="boundary" inkscape:connector-curvature="0" />
	<path style="fill:none;stroke:red;stroke-width:1px;stroke-linecap:butt;stroke-linejoin:miter;stroke-opacity:1" d="M 8.44843,415.925 8.44843,424.822 z" id="boundary" inkscape:connector-curvature="0" />
	<path style="fill:none;stroke:red;stroke-width:1px;stroke-linecap:butt;stroke-linejoin:miter;stroke-opacity:1" d="M 8.44843,424.822 8.44843,442.615 z" id="boundary" inkscape:connector-curvature="0" />
	<path style="fill:none;stroke:red;stroke-width:1px;stroke-linecap:butt;stroke-linejoin:miter;stroke-opacity:1" d="M 8.44843,442.615 12.8969,450.622 z" id="boundary" inkscape:connector-curvature="0" />
	<path style="fill:none;stroke:red;stroke-width:1px;stroke-linecap:butt;stroke-linejoin:miter;stroke-opacity:1" d="M 8.44843,527.135 15.5659,520.018 z" id="boundary" inkscape:connector-curvature="0" />
	<path style="fill:none;stroke:red;stroke-width:1px;stroke-linecap:butt;stroke-linejoin:miter;stroke-opacity:1" d="M 8.44843,552.936 14.6762,560.054 z" id="boundary" inkscape:connector-curvature="0" />
	<path style="fill:none;stroke:red;stroke-width:1px;stroke-linecap:butt;stroke-linejoin:miter;stroke-opacity:1" d="M 12.8969,309.162 12.8969,318.059 z" id="boundary" inkscape:connector-curvature="0" />
	<path style="fill:none;stroke:red;stroke-width:1px;stroke-linecap:butt;stroke-linejoin:miter;stroke-opacity:1" d="M 12.8969,309.162 17.3453,291.369 z" id="boundary" inkscape:connector-curvature="0" />
	<path style="fill:none;stroke:red;stroke-width:1px;stroke-linecap:butt;stroke-linejoin:miter;stroke-opacity:1" d="M 12.8969,318.059 12.8969,335.853 z" id="boundary" inkscape:connector-curvature="0" />
	<path style="fill:none;stroke:red;stroke-width:1px;stroke-linecap:butt;stroke-linejoin:miter;stroke-opacity:1" d="M 12.8969,335.853 12.8969,344.75 z" id="boundary" inkscape:connector-curvature="0" />
	<path style="fill:none;stroke:red;stroke-width:1px;stroke-linecap:butt;stroke-linejoin:miter;stroke-opacity:1" d="M 12.8969,450.622 20.0143,467.526 z" id="boundary" inkscape:connector-curvature="0" />
	<path style="fill:none;stroke:red;stroke-width:1px;stroke-linecap:butt;stroke-linejoin:miter;stroke-opacity:1" d="M 14.6762,560.054 32.47,560.943 z" id="boundary" inkscape:connector-curvature="0" />
	<path style="fill:none;stroke:red;stroke-width:1px;stroke-linecap:butt;stroke-linejoin:miter;stroke-opacity:1" d="M 15.5659,520.018 23.5731,515.57 z" id="boundary" inkscape:connector-curvature="0" />
	<path style="fill:none;stroke:red;stroke-width:1px;stroke-linecap:butt;stroke-linejoin:miter;stroke-opacity:1" d="M 17.3453,291.369 21.7937,278.023 z" id="boundary" inkscape:connector-curvature="0" />
	<path style="fill:none;stroke:red;stroke-width:1px;stroke-linecap:butt;stroke-linejoin:miter;stroke-opacity:1" d="M 20.0143,467.526 27.1318,473.754 z" id="boundary" inkscape:connector-curvature="0" />
	<path style="fill:none;stroke:red;stroke-width:1px;stroke-linecap:butt;stroke-linejoin:miter;stroke-opacity:1" d="M 21.7937,278.023 26.2422,269.126 z" id="boundary" inkscape:connector-curvature="0" />
	<path style="fill:none;stroke:red;stroke-width:1px;stroke-linecap:butt;stroke-linejoin:miter;stroke-opacity:1" d="M 23.5731,515.57 31.5803,511.121 z" id="boundary" inkscape:connector-curvature="0" />
	<path style="fill:none;stroke:red;stroke-width:1px;stroke-linecap:butt;stroke-linejoin:miter;stroke-opacity:1" d="M 26.2422,269.126 35.139,251.333 z" id="boundary" inkscape:connector-curvature="0" />
	<path style="fill:none;stroke:red;stroke-width:1px;stroke-linecap:butt;stroke-linejoin:miter;stroke-opacity:1" d="M 27.1318,473.754 35.139,478.203 z" id="boundary" inkscape:connector-curvature="0" />
	<path style="fill:none;stroke:red;stroke-width:1px;stroke-linecap:butt;stroke-linejoin:miter;stroke-opacity:1" d="M 31.5803,511.121 40.4771,513.79 z" id="boundary" inkscape:connector-curvature="0" />
	<path style="fill:none;stroke:red;stroke-width:1px;stroke-linecap:butt;stroke-linejoin:miter;stroke-opacity:1" d="M 32.47,560.943 41.3668,560.943 z" id="boundary" inkscape:connector-curvature="0" />
	<path style="fill:none;stroke:red;stroke-width:1px;stroke-linecap:butt;stroke-linejoin:miter;stroke-opacity:1" d="M 35.139,251.333 39.5874,242.436 z" id="boundary" inkscape:connector-curvature="0" />
	<path style="fill:none;stroke:red;stroke-width:1px;stroke-linecap:butt;stroke-linejoin:miter;stroke-opacity:1" d="M 35.139,478.203 44.0359,480.872 z" id="boundary" inkscape:connector-curvature="0" />
	<path style="fill:none;stroke:red;stroke-width:1px;stroke-linecap:butt;stroke-linejoin:miter;stroke-opacity:1" d="M 39.5874,242.436 51.1534,226.422 z" id="boundary" inkscape:connector-curvature="0" />
	<path style="fill:none;stroke:red;stroke-width:1px;stroke-linecap:butt;stroke-linejoin:miter;stroke-opacity:1" d="M 40.4771,513.79 48.4843,518.239 z" id="boundary" inkscape:connector-curvature="0" />
	<path style="fill:none;stroke:red;stroke-width:1px;stroke-linecap:butt;stroke-linejoin:miter;stroke-opacity:1" d="M 41.3668,560.943 59.1605,563.613 z" id="boundary" inkscape:connector-curvature="0" />
	<path style="fill:none;stroke:red;stroke-width:1px;stroke-linecap:butt;stroke-linejoin:miter;stroke-opacity:1" d="M 44.0359,480.872 61.8296,480.872 z" id="boundary" inkscape:connector-curvature="0" />
	<path style="fill:none;stroke:red;stroke-width:1px;stroke-linecap:butt;stroke-linejoin:miter;stroke-opacity:1" d="M 48.4843,518.239 55.6018,524.466 z" id="boundary" inkscape:connector-curvature="0" />
	<path style="fill:none;stroke:red;stroke-width:1px;stroke-linecap:butt;stroke-linejoin:miter;stroke-opacity:1" d="M 51.1534,226.422 58.2709,219.304 z" id="boundary" inkscape:connector-curvature="0" />
	<path style="fill:none;stroke:red;stroke-width:1px;stroke-linecap:butt;stroke-linejoin:miter;stroke-opacity:1" d="M 55.6018,524.466 61.8296,531.584 z" id="boundary" inkscape:connector-curvature="0" />
	<path style="fill:none;stroke:red;stroke-width:1px;stroke-linecap:butt;stroke-linejoin:miter;stroke-opacity:1" d="M 58.2709,219.304 65.3883,213.076 z" id="boundary" inkscape:connector-curvature="0" />
	<path style="fill:none;stroke:red;stroke-width:1px;stroke-linecap:butt;stroke-linejoin:miter;stroke-opacity:1" d="M 61.8296,480.872 79.6233,480.872 z" id="boundary" inkscape:connector-curvature="0" />
	<path style="fill:none;stroke:red;stroke-width:1px;stroke-linecap:butt;stroke-linejoin:miter;stroke-opacity:1" d="M 61.8296,531.584 68.9471,537.812 z" id="boundary" inkscape:connector-curvature="0" />
	<path style="fill:none;stroke:red;stroke-width:1px;stroke-linecap:butt;stroke-linejoin:miter;stroke-opacity:1" d="M 65.3883,213.076 71.6161,205.959 z" id="boundary" inkscape:connector-curvature="0" />
	<path style="fill:none;stroke:red;stroke-width:1px;stroke-linecap:butt;stroke-linejoin:miter;stroke-opacity:1" d="M 68.9471,537.812 75.1749,544.929 z" id="boundary" inkscape:connector-curvature="0" />
	<path style="fill:none;stroke:red;stroke-width:1px;stroke-linecap:butt;stroke-linejoin:miter;stroke-opacity:1" d="M 71.6161,205.959 78.7336,199.731 z" id="boundary" inkscape:connector-curvature="0" />
	<path style="fill:none;stroke:red;stroke-width:1px;stroke-linecap:butt;stroke-linejoin:miter;stroke-opacity:1" d="M 75.1749,544.929 84.0717,548.488 z" id="boundary" inkscape:connector-curvature="0" />
	<path style="fill:none;stroke:red;stroke-width:1px;stroke-linecap:butt;stroke-linejoin:miter;stroke-opacity:1" d="M 76.9543,565.392 84.0717,548.488 z" id="boundary" inkscape:connector-curvature="0" />
	<path style="fill:none;stroke:red;stroke-width:1px;stroke-linecap:butt;stroke-linejoin:miter;stroke-opacity:1" d="M 76.9543,565.392 94.748,565.392 z" id="boundary" inkscape:connector-curvature="0" />
	<path style="fill:none;stroke:red;stroke-width:1px;stroke-linecap:butt;stroke-linejoin:miter;stroke-opacity:1" d="M 78.7336,199.731 86.7408,195.283 z" id="boundary" inkscape:connector-curvature="0" />
	<path style="fill:none;stroke:red;stroke-width:1px;stroke-linecap:butt;stroke-linejoin:miter;stroke-opacity:1" d="M 79.6233,480.872 97.417,480.872 z" id="boundary" inkscape:connector-curvature="0" />
	<path style="fill:none;stroke:red;stroke-width:1px;stroke-linecap:butt;stroke-linejoin:miter;stroke-opacity:1" d="M 86.7408,195.283 93.8583,188.165 z" id="boundary" inkscape:connector-curvature="0" />
	<path style="fill:none;stroke:red;stroke-width:1px;stroke-linecap:butt;stroke-linejoin:miter;stroke-opacity:1" d="M 93.8583,188.165 100.976,181.937 z" id="boundary" inkscape:connector-curvature="0" />
	<path style="fill:none;stroke:red;stroke-width:1px;stroke-linecap:butt;stroke-linejoin:miter;stroke-opacity:1" d="M 94.748,565.392 101.865,560.054 z" id="boundary" inkscape:connector-curvature="0" />
	<path style="fill:none;stroke:red;stroke-width:1px;stroke-linecap:butt;stroke-linejoin:miter;stroke-opacity:1" d="M 97.417,480.872 115.211,480.872 z" id="boundary" inkscape:connector-curvature="0" />
	<path style="fill:none;stroke:red;stroke-width:1px;stroke-linecap:butt;stroke-linejoin:miter;stroke-opacity:1" d="M 100.976,181.937 107.204,174.82 z" id="boundary" inkscape:connector-curvature="0" />
	<path style="fill:none;stroke:red;stroke-width:1px;stroke-linecap:butt;stroke-linejoin:miter;stroke-opacity:1" d="M 101.865,560.054 108.983,565.392 z" id="boundary" inkscape:connector-curvature="0" />
	<path style="fill:none;stroke:red;stroke-width:1px;stroke-linecap:butt;stroke-linejoin:miter;stroke-opacity:1" d="M 107.204,174.82 114.321,168.592 z" id="boundary" inkscape:connector-curvature="0" />
	<path style="fill:none;stroke:red;stroke-width:1px;stroke-linecap:butt;stroke-linejoin:miter;stroke-opacity:1" d="M 108.983,565.392 116.1,560.054 z" id="boundary" inkscape:connector-curvature="0" />
	<path style="fill:none;stroke:red;stroke-width:1px;stroke-linecap:butt;stroke-linejoin:miter;stroke-opacity:1" d="M 114.321,168.592 122.328,164.143 z" id="boundary" inkscape:connector-curvature="0" />
	<path style="fill:none;stroke:red;stroke-width:1px;stroke-linecap:butt;stroke-linejoin:miter;stroke-opacity:1" d="M 115.211,480.872 124.108,480.872 z" id="boundary" inkscape:connector-curvature="0" />
	<path style="fill:none;stroke:red;stroke-width:1px;stroke-linecap:butt;stroke-linejoin:miter;stroke-opacity:1" d="M 116.1,560.054 124.108,549.378 z" id="boundary" inkscape:connector-curvature="0" />
	<path style="fill:none;stroke:red;stroke-width:1px;stroke-linecap:butt;stroke-linejoin:miter;stroke-opacity:1" d="M 122.328,164.143 129.446,157.026 z" id="boundary" inkscape:connector-curvature="0" />
	<path style="fill:none;stroke:red;stroke-width:1px;stroke-linecap:butt;stroke-linejoin:miter;stroke-opacity:1" d="M 124.108,480.872 141.901,480.872 z" id="boundary" inkscape:connector-curvature="0" />
	<path style="fill:none;stroke:red;stroke-width:1px;stroke-linecap:butt;stroke-linejoin:miter;stroke-opacity:1" d="M 124.108,549.378 132.115,565.392 z" id="boundary" inkscape:connector-curvature="0" />
	<path style="fill:none;stroke:red;stroke-width:1px;stroke-linecap:butt;stroke-linejoin:miter;stroke-opacity:1" d="M 129.446,157.026 147.239,148.129 z" id="boundary" inkscape:connector-curvature="0" />
	<path style="fill:none;stroke:red;stroke-width:1px;stroke-linecap:butt;stroke-linejoin:miter;stroke-opacity:1" d="M 132.115,565.392 149.909,565.392 z" id="boundary" inkscape:connector-curvature="0" />
	<path style="fill:none;stroke:red;stroke-width:1px;stroke-linecap:butt;stroke-linejoin:miter;stroke-opacity:1" d="M 141.901,480.872 159.695,480.872 z" id="boundary" inkscape:connector-curvature="0" />
	<path style="fill:none;stroke:red;stroke-width:1px;stroke-linecap:butt;stroke-linejoin:miter;stroke-opacity:1" d="M 141.901,540.481 150.798,537.812 z" id="boundary" inkscape:connector-curvature="0" />
	<path style="fill:none;stroke:red;stroke-width:1px;stroke-linecap:butt;stroke-linejoin:miter;stroke-opacity:1" d="M 149.909,565.392 167.702,565.392 z" id="boundary" inkscape:connector-curvature="0" />
	<path style="fill:none;stroke:red;stroke-width:1px;stroke-linecap:butt;stroke-linejoin:miter;stroke-opacity:1" d="M 159.695,480.872 177.489,480.872 z" id="boundary" inkscape:connector-curvature="0" />
	<path style="fill:none;stroke:red;stroke-width:1px;stroke-linecap:butt;stroke-linejoin:miter;stroke-opacity:1" d="M 165.033,139.232 173.93,137.453 z" id="boundary" inkscape:connector-curvature="0" />
	<path style="fill:none;stroke:red;stroke-width:1px;stroke-linecap:butt;stroke-linejoin:miter;stroke-opacity:1" d="M 165.033,139.232 181.937,133.004 z" id="boundary" inkscape:connector-curvature="0" />
	<path style="fill:none;stroke:red;stroke-width:1px;stroke-linecap:butt;stroke-linejoin:miter;stroke-opacity:1" d="M 167.702,533.363 176.599,533.363 z" id="boundary" inkscape:connector-curvature="0" />
	<path style="fill:none;stroke:red;stroke-width:1px;stroke-linecap:butt;stroke-linejoin:miter;stroke-opacity:1" d="M 167.702,533.363 185.496,533.363 z" id="boundary" inkscape:connector-curvature="0" />
	<path style="fill:none;stroke:red;stroke-width:1px;stroke-linecap:butt;stroke-linejoin:miter;stroke-opacity:1" d="M 167.702,565.392 176.599,565.392 z" id="boundary" inkscape:connector-curvature="0" />
	<path style="fill:none;stroke:red;stroke-width:1px;stroke-linecap:butt;stroke-linejoin:miter;stroke-opacity:1" d="M 173.93,137.453 181.937,133.004 z" id="boundary" inkscape:connector-curvature="0" />
	<path style="fill:none;stroke:red;stroke-width:1px;stroke-linecap:butt;stroke-linejoin:miter;stroke-opacity:1" d="M 176.599,533.363 185.496,533.363 z" id="boundary" inkscape:connector-curvature="0" />
	<path style="fill:none;stroke:red;stroke-width:1px;stroke-linecap:butt;stroke-linejoin:miter;stroke-opacity:1" d="M 176.599,565.392 194.393,565.392 z" id="boundary" inkscape:connector-curvature="0" />
	<path style="fill:none;stroke:red;stroke-width:1px;stroke-linecap:butt;stroke-linejoin:miter;stroke-opacity:1" d="M 177.489,480.872 195.283,480.872 z" id="boundary" inkscape:connector-curvature="0" />
	<path style="fill:none;stroke:red;stroke-width:1px;stroke-linecap:butt;stroke-linejoin:miter;stroke-opacity:1" d="M 194.393,565.392 212.187,565.392 z" id="boundary" inkscape:connector-curvature="0" />
	<path style="fill:none;stroke:red;stroke-width:1px;stroke-linecap:butt;stroke-linejoin:miter;stroke-opacity:1" d="M 195.283,480.872 204.179,480.872 z" id="boundary" inkscape:connector-curvature="0" />
	<path style="fill:none;stroke:red;stroke-width:1px;stroke-linecap:butt;stroke-linejoin:miter;stroke-opacity:1" d="M 199.731,128.556 217.525,128.556 z" id="boundary" inkscape:connector-curvature="0" />
	<path style="fill:none;stroke:red;stroke-width:1px;stroke-linecap:butt;stroke-linejoin:miter;stroke-opacity:1" d="M 202.4,528.915 208.628,515.57 z" id="boundary" inkscape:connector-curvature="0" />
	<path style="fill:none;stroke:red;stroke-width:1px;stroke-linecap:butt;stroke-linejoin:miter;stroke-opacity:1" d="M 204.179,480.872 208.628,497.776 z" id="boundary" inkscape:connector-curvature="0" />
	<path style="fill:none;stroke:red;stroke-width:1px;stroke-linecap:butt;stroke-linejoin:miter;stroke-opacity:1" d="M 208.628,497.776 208.628,515.57 z" id="boundary" inkscape:connector-curvature="0" />
	<path style="fill:none;stroke:red;stroke-width:1px;stroke-linecap:butt;stroke-linejoin:miter;stroke-opacity:1" d="M 212.187,565.392 229.98,565.392 z" id="boundary" inkscape:connector-curvature="0" />
	<path style="fill:none;stroke:red;stroke-width:1px;stroke-linecap:butt;stroke-linejoin:miter;stroke-opacity:1" d="M 217.525,128.556 235.318,128.556 z" id="boundary" inkscape:connector-curvature="0" />
	<path style="fill:none;stroke:red;stroke-width:1px;stroke-linecap:butt;stroke-linejoin:miter;stroke-opacity:1" d="M 229.98,565.392 247.774,565.392 z" id="boundary" inkscape:connector-curvature="0" />
	<path style="fill:none;stroke:red;stroke-width:1px;stroke-linecap:butt;stroke-linejoin:miter;stroke-opacity:1" d="M 235.318,128.556 244.215,128.556 z" id="boundary" inkscape:connector-curvature="0" />
	<path style="fill:none;stroke:red;stroke-width:1px;stroke-linecap:butt;stroke-linejoin:miter;stroke-opacity:1" d="M 244.215,128.556 262.009,128.556 z" id="boundary" inkscape:connector-curvature="0" />
	<path style="fill:none;stroke:red;stroke-width:1px;stroke-linecap:butt;stroke-linejoin:miter;stroke-opacity:1" d="M 247.774,565.392 256.671,565.392 z" id="boundary" inkscape:connector-curvature="0" />
	<path style="fill:none;stroke:red;stroke-width:1px;stroke-linecap:butt;stroke-linejoin:miter;stroke-opacity:1" d="M 256.671,565.392 274.465,565.392 z" id="boundary" inkscape:connector-curvature="0" />
	<path style="fill:none;stroke:red;stroke-width:1px;stroke-linecap:butt;stroke-linejoin:miter;stroke-opacity:1" d="M 274.465,565.392 292.258,565.392 z" id="boundary" inkscape:connector-curvature="0" />
	<path style="fill:none;stroke:red;stroke-width:1px;stroke-linecap:butt;stroke-linejoin:miter;stroke-opacity:1" d="M 279.803,128.556 287.81,133.004 z" id="boundary" inkscape:connector-curvature="0" />
	<path style="fill:none;stroke:red;stroke-width:1px;stroke-linecap:butt;stroke-linejoin:miter;stroke-opacity:1" d="M 279.803,128.556 296.707,133.004 z" id="boundary" inkscape:connector-curvature="0" />
	<path style="fill:none;stroke:red;stroke-width:1px;stroke-linecap:butt;stroke-linejoin:miter;stroke-opacity:1" d="M 287.81,133.004 296.707,133.004 z" id="boundary" inkscape:connector-curvature="0" />
	<path style="fill:none;stroke:red;stroke-width:1px;stroke-linecap:butt;stroke-linejoin:miter;stroke-opacity:1" d="M 292.258,565.392 310.052,565.392 z" id="boundary" inkscape:connector-curvature="0" />
	<path style="fill:none;stroke:red;stroke-width:1px;stroke-linecap:butt;stroke-linejoin:miter;stroke-opacity:1" d="M 306.493,15.5659 306.493,24.4628 z" id="boundary" inkscape:connector-curvature="0" />
	<path style="fill:none;stroke:red;stroke-width:1px;stroke-linecap:butt;stroke-linejoin:miter;stroke-opacity:1" d="M 306.493,15.5659 313.611,8.44843 z" id="boundary" inkscape:connector-curvature="0" />
	<path style="fill:none;stroke:red;stroke-width:1px;stroke-linecap:butt;stroke-linejoin:miter;stroke-opacity:1" d="M 306.493,24.4628 310.942,32.47 z" id="boundary" inkscape:connector-curvature="0" />
	<path style="fill:none;stroke:red;stroke-width:1px;stroke-linecap:butt;stroke-linejoin:miter;stroke-opacity:1" d="M 310.942,32.47 317.17,39.5874 z" id="boundary" inkscape:connector-curvature="0" />
	<path style="fill:none;stroke:red;stroke-width:1px;stroke-linecap:butt;stroke-linejoin:miter;stroke-opacity:1" d="M 313.611,8.44843 321.618,4 z" id="boundary" inkscape:connector-curvature="0" />
	<path style="fill:none;stroke:red;stroke-width:1px;stroke-linecap:butt;stroke-linejoin:miter;stroke-opacity:1" d="M 314.5,133.004 332.294,133.004 z" id="boundary" inkscape:connector-curvature="0" />
	<path style="fill:none;stroke:red;stroke-width:1px;stroke-linecap:butt;stroke-linejoin:miter;stroke-opacity:1" d="M 317.17,39.5874 334.963,44.9256 z" id="boundary" inkscape:connector-curvature="0" />
	<path style="fill:none;stroke:red;stroke-width:1px;stroke-linecap:butt;stroke-linejoin:miter;stroke-opacity:1" d="M 321.618,4 339.412,4 z" id="boundary" inkscape:connector-curvature="0" />
	<path style="fill:none;stroke:red;stroke-width:1px;stroke-linecap:butt;stroke-linejoin:miter;stroke-opacity:1" d="M 327.846,565.392 336.743,565.392 z" id="boundary" inkscape:connector-curvature="0" />
	<path style="fill:none;stroke:red;stroke-width:1px;stroke-linecap:butt;stroke-linejoin:miter;stroke-opacity:1" d="M 327.846,565.392 344.75,560.943 z" id="boundary" inkscape:connector-curvature="0" />
	<path style="fill:none;stroke:red;stroke-width:1px;stroke-linecap:butt;stroke-linejoin:miter;stroke-opacity:1" d="M 332.294,133.004 350.088,133.004 z" id="boundary" inkscape:connector-curvature="0" />
	<path style="fill:none;stroke:red;stroke-width:1px;stroke-linecap:butt;stroke-linejoin:miter;stroke-opacity:1" d="M 334.963,44.9256 343.86,44.9256 z" id="boundary" inkscape:connector-curvature="0" />
	<path style="fill:none;stroke:red;stroke-width:1px;stroke-linecap:butt;stroke-linejoin:miter;stroke-opacity:1" d="M 336.743,565.392 344.75,560.943 z" id="boundary" inkscape:connector-curvature="0" />
	<path style="fill:none;stroke:red;stroke-width:1px;stroke-linecap:butt;stroke-linejoin:miter;stroke-opacity:1" d="M 339.412,4 347.419,8.44843 z" id="boundary" inkscape:connector-curvature="0" />
	<path style="fill:none;stroke:red;stroke-width:1px;stroke-linecap:butt;stroke-linejoin:miter;stroke-opacity:1" d="M 343.86,44.9256 351.867,49.374 z" id="boundary" inkscape:connector-curvature="0" />
	<path style="fill:none;stroke:red;stroke-width:1px;stroke-linecap:butt;stroke-linejoin:miter;stroke-opacity:1" d="M 346.529,95.6377 350.978,82.2924 z" id="boundary" inkscape:connector-curvature="0" />
	<path style="fill:none;stroke:red;stroke-width:1px;stroke-linecap:butt;stroke-linejoin:miter;stroke-opacity:1" d="M 346.529,95.6377 355.426,98.3067 z" id="boundary" inkscape:connector-curvature="0" />
	<path style="fill:none;stroke:red;stroke-width:1px;stroke-linecap:butt;stroke-linejoin:miter;stroke-opacity:1" d="M 347.419,8.44843 365.213,8.44843 z" id="boundary" inkscape:connector-curvature="0" />
	<path style="fill:none;stroke:red;stroke-width:1px;stroke-linecap:butt;stroke-linejoin:miter;stroke-opacity:1" d="M 350.088,133.004 358.985,133.004 z" id="boundary" inkscape:connector-curvature="0" />
	<path style="fill:none;stroke:red;stroke-width:1px;stroke-linecap:butt;stroke-linejoin:miter;stroke-opacity:1" d="M 350.978,82.2924 359.874,77.8439 z" id="boundary" inkscape:connector-curvature="0" />
	<path style="fill:none;stroke:red;stroke-width:1px;stroke-linecap:butt;stroke-linejoin:miter;stroke-opacity:1" d="M 351.867,49.374 359.874,53.8224 z" id="boundary" inkscape:connector-curvature="0" />
	<path style="fill:none;stroke:red;stroke-width:1px;stroke-linecap:butt;stroke-linejoin:miter;stroke-opacity:1" d="M 355.426,98.3067 364.323,107.204 z" id="boundary" inkscape:connector-curvature="0" />
	<path style="fill:none;stroke:red;stroke-width:1px;stroke-linecap:butt;stroke-linejoin:miter;stroke-opacity:1" d="M 358.985,133.004 364.323,107.204 z" id="boundary" inkscape:connector-curvature="0" />
	<path style="fill:none;stroke:red;stroke-width:1px;stroke-linecap:butt;stroke-linejoin:miter;stroke-opacity:1" d="M 359.874,53.8224 359.874,77.8439 z" id="boundary" inkscape:connector-curvature="0" />
	<path style="fill:none;stroke:red;stroke-width:1px;stroke-linecap:butt;stroke-linejoin:miter;stroke-opacity:1" d="M 362.543,560.054 380.337,556.495 z" id="boundary" inkscape:connector-curvature="0" />
	<path style="fill:none;stroke:red;stroke-width:1px;stroke-linecap:butt;stroke-linejoin:miter;stroke-opacity:1" d="M 365.213,8.44843 374.109,8.44843 z" id="boundary" inkscape:connector-curvature="0" />
	<path style="fill:none;stroke:red;stroke-width:1px;stroke-linecap:butt;stroke-linejoin:miter;stroke-opacity:1" d="M 374.109,8.44843 391.903,11.1175 z" id="boundary" inkscape:connector-curvature="0" />
	<path style="fill:none;stroke:red;stroke-width:1px;stroke-linecap:butt;stroke-linejoin:miter;stroke-opacity:1" d="M 380.337,556.495 389.234,555.605 z" id="boundary" inkscape:connector-curvature="0" />
	<path style="fill:none;stroke:red;stroke-width:1px;stroke-linecap:butt;stroke-linejoin:miter;stroke-opacity:1" d="M 389.234,555.605 407.028,552.047 z" id="boundary" inkscape:connector-curvature="0" />
	<path style="fill:none;stroke:red;stroke-width:1px;stroke-linecap:butt;stroke-linejoin:miter;stroke-opacity:1" d="M 391.903,11.1175 409.697,12.8969 z" id="boundary" inkscape:connector-curvature="0" />
	<path style="fill:none;stroke:red;stroke-width:1px;stroke-linecap:butt;stroke-linejoin:miter;stroke-opacity:1" d="M 391.903,49.374 399.91,44.9256 z" id="boundary" inkscape:connector-curvature="0" />
	<path style="fill:none;stroke:red;stroke-width:1px;stroke-linecap:butt;stroke-linejoin:miter;stroke-opacity:1" d="M 391.903,49.374 402.579,61.8296 z" id="boundary" inkscape:connector-curvature="0" />
	<path style="fill:none;stroke:red;stroke-width:1px;stroke-linecap:butt;stroke-linejoin:miter;stroke-opacity:1" d="M 399.91,44.9256 407.917,40.4771 z" id="boundary" inkscape:connector-curvature="0" />
	<path style="fill:none;stroke:red;stroke-width:1px;stroke-linecap:butt;stroke-linejoin:miter;stroke-opacity:1" d="M 402.579,61.8296 405.248,70.7265 z" id="boundary" inkscape:connector-curvature="0" />
	<path style="fill:none;stroke:red;stroke-width:1px;stroke-linecap:butt;stroke-linejoin:miter;stroke-opacity:1" d="M 405.248,70.7265 405.248,89.4099 z" id="boundary" inkscape:connector-curvature="0" />
	<path style="fill:none;stroke:red;stroke-width:1px;stroke-linecap:butt;stroke-linejoin:miter;stroke-opacity:1" d="M 405.248,89.4099 405.248,107.204 z" id="boundary" inkscape:connector-curvature="0" />
	<path style="fill:none;stroke:red;stroke-width:1px;stroke-linecap:butt;stroke-linejoin:miter;stroke-opacity:1" d="M 405.248,107.204 405.248,116.1 z" id="boundary" inkscape:connector-curvature="0" />
	<path style="fill:none;stroke:red;stroke-width:1px;stroke-linecap:butt;stroke-linejoin:miter;stroke-opacity:1" d="M 405.248,116.1 409.697,124.108 z" id="boundary" inkscape:connector-curvature="0" />
	<path style="fill:none;stroke:red;stroke-width:1px;stroke-linecap:butt;stroke-linejoin:miter;stroke-opacity:1" d="M 407.028,552.047 415.035,547.598 z" id="boundary" inkscape:connector-curvature="0" />
	<path style="fill:none;stroke:red;stroke-width:1px;stroke-linecap:butt;stroke-linejoin:miter;stroke-opacity:1" d="M 407.917,40.4771 416.814,18.235 z" id="boundary" inkscape:connector-curvature="0" />
	<path style="fill:none;stroke:red;stroke-width:1px;stroke-linecap:butt;stroke-linejoin:miter;stroke-opacity:1" d="M 409.697,12.8969 416.814,18.235 z" id="boundary" inkscape:connector-curvature="0" />
	<path style="fill:none;stroke:red;stroke-width:1px;stroke-linecap:butt;stroke-linejoin:miter;stroke-opacity:1" d="M 409.697,124.108 416.814,129.446 z" id="boundary" inkscape:connector-curvature="0" />
	<path style="fill:none;stroke:red;stroke-width:1px;stroke-linecap:butt;stroke-linejoin:miter;stroke-opacity:1" d="M 415.035,547.598 431.939,537.812 z" id="boundary" inkscape:connector-curvature="0" />
	<path style="fill:none;stroke:red;stroke-width:1px;stroke-linecap:butt;stroke-linejoin:miter;stroke-opacity:1" d="M 416.814,129.446 420.373,138.343 z" id="boundary" inkscape:connector-curvature="0" />
	<path style="fill:none;stroke:red;stroke-width:1px;stroke-linecap:butt;stroke-linejoin:miter;stroke-opacity:1" d="M 420.373,138.343 429.27,141.901 z" id="boundary" inkscape:connector-curvature="0" />
	<path style="fill:none;stroke:red;stroke-width:1px;stroke-linecap:butt;stroke-linejoin:miter;stroke-opacity:1" d="M 427.491,485.32 436.387,485.32 z" id="boundary" inkscape:connector-curvature="0" />
	<path style="fill:none;stroke:red;stroke-width:1px;stroke-linecap:butt;stroke-linejoin:miter;stroke-opacity:1" d="M 427.491,485.32 444.395,480.872 z" id="boundary" inkscape:connector-curvature="0" />
	<path style="fill:none;stroke:red;stroke-width:1px;stroke-linecap:butt;stroke-linejoin:miter;stroke-opacity:1" d="M 427.491,503.114 427.491,520.908 z" id="boundary" inkscape:connector-curvature="0" />
	<path style="fill:none;stroke:red;stroke-width:1px;stroke-linecap:butt;stroke-linejoin:miter;stroke-opacity:1" d="M 427.491,503.114 462.188,480.872 z" id="boundary" inkscape:connector-curvature="0" />
	<path style="fill:none;stroke:red;stroke-width:1px;stroke-linecap:butt;stroke-linejoin:miter;stroke-opacity:1" d="M 427.491,520.908 431.939,537.812 z" id="boundary" inkscape:connector-curvature="0" />
	<path style="fill:none;stroke:red;stroke-width:1px;stroke-linecap:butt;stroke-linejoin:miter;stroke-opacity:1" d="M 429.27,141.901 447.064,141.901 z" id="boundary" inkscape:connector-curvature="0" />
	<path style="fill:none;stroke:red;stroke-width:1px;stroke-linecap:butt;stroke-linejoin:miter;stroke-opacity:1" d="M 436.387,485.32 444.395,480.872 z" id="boundary" inkscape:connector-curvature="0" />
	<path style="fill:none;stroke:red;stroke-width:1px;stroke-linecap:butt;stroke-linejoin:miter;stroke-opacity:1" d="M 447.064,141.901 454.181,134.784 z" id="boundary" inkscape:connector-curvature="0" />
	<path style="fill:none;stroke:red;stroke-width:1px;stroke-linecap:butt;stroke-linejoin:miter;stroke-opacity:1" d="M 454.181,134.784 461.299,128.556 z" id="boundary" inkscape:connector-curvature="0" />
	<path style="fill:none;stroke:red;stroke-width:1px;stroke-linecap:butt;stroke-linejoin:miter;stroke-opacity:1" d="M 461.299,128.556 467.526,121.439 z" id="boundary" inkscape:connector-curvature="0" />
	<path style="fill:none;stroke:red;stroke-width:1px;stroke-linecap:butt;stroke-linejoin:miter;stroke-opacity:1" d="M 462.188,480.872 479.982,480.872 z" id="boundary" inkscape:connector-curvature="0" />
	<path style="fill:none;stroke:red;stroke-width:1px;stroke-linecap:butt;stroke-linejoin:miter;stroke-opacity:1" d="M 467.526,121.439 485.32,112.542 z" id="boundary" inkscape:connector-curvature="0" />
	<path style="fill:none;stroke:red;stroke-width:1px;stroke-linecap:butt;stroke-linejoin:miter;stroke-opacity:1" d="M 479.982,480.872 497.776,480.872 z" id="boundary" inkscape:connector-curvature="0" />
	<path style="fill:none;stroke:red;stroke-width:1px;stroke-linecap:butt;stroke-linejoin:miter;stroke-opacity:1" d="M 485.32,112.542 494.217,108.093 z" id="boundary" inkscape:connector-curvature="0" />
	<path style="fill:none;stroke:red;stroke-width:1px;stroke-linecap:butt;stroke-linejoin:miter;stroke-opacity:1" d="M 494.217,108.093 512.011,101.865 z" id="boundary" inkscape:connector-curvature="0" />
	<path style="fill:none;stroke:red;stroke-width:1px;stroke-linecap:butt;stroke-linejoin:miter;stroke-opacity:1" d="M 497.776,480.872 515.57,480.872 z" id="boundary" inkscape:connector-curvature="0" />
	<path style="fill:none;stroke:red;stroke-width:1px;stroke-linecap:butt;stroke-linejoin:miter;stroke-opacity:1" d="M 512.011,101.865 529.804,104.535 z" id="boundary" inkscape:connector-curvature="0" />
	<path style="fill:none;stroke:red;stroke-width:1px;stroke-linecap:butt;stroke-linejoin:miter;stroke-opacity:1" d="M 515.57,480.872 524.466,480.872 z" id="boundary" inkscape:connector-curvature="0" />
	<path style="fill:none;stroke:red;stroke-width:1px;stroke-linecap:butt;stroke-linejoin:miter;stroke-opacity:1" d="M 524.466,480.872 542.26,480.872 z" id="boundary" inkscape:connector-curvature="0" />
	<path style="fill:none;stroke:red;stroke-width:1px;stroke-linecap:butt;stroke-linejoin:miter;stroke-opacity:1" d="M 529.804,104.535 547.598,108.983 z" id="boundary" inkscape:connector-curvature="0" />
	<path style="fill:none;stroke:red;stroke-width:1px;stroke-linecap:butt;stroke-linejoin:miter;stroke-opacity:1" d="M 542.26,480.872 560.054,480.872 z" id="boundary" inkscape:connector-curvature="0" />
	<path style="fill:none;stroke:red;stroke-width:1px;stroke-linecap:butt;stroke-linejoin:miter;stroke-opacity:1" d="M 547.598,108.983 555.605,113.431 z" id="boundary" inkscape:connector-curvature="0" />
	<path style="fill:none;stroke:red;stroke-width:1px;stroke-linecap:butt;stroke-linejoin:miter;stroke-opacity:1" d="M 555.605,113.431 562.723,119.659 z" id="boundary" inkscape:connector-curvature="0" />
	<path style="fill:none;stroke:red;stroke-width:1px;stroke-linecap:butt;stroke-linejoin:miter;stroke-opacity:1" d="M 560.054,480.872 577.848,480.872 z" id="boundary" inkscape:connector-curvature="0" />
	<path style="fill:none;stroke:red;stroke-width:1px;stroke-linecap:butt;stroke-linejoin:miter;stroke-opacity:1" d="M 562.723,119.659 568.951,126.777 z" id="boundary" inkscape:connector-curvature="0" />
	<path style="fill:none;stroke:red;stroke-width:1px;stroke-linecap:butt;stroke-linejoin:miter;stroke-opacity:1" d="M 568.951,126.777 582.296,137.453 z" id="boundary" inkscape:connector-curvature="0" />
	<path style="fill:none;stroke:red;stroke-width:1px;stroke-linecap:butt;stroke-linejoin:miter;stroke-opacity:1" d="M 569.84,213.966 574.289,221.973 z" id="boundary" inkscape:connector-curvature="0" />
	<path style="fill:none;stroke:red;stroke-width:1px;stroke-linecap:butt;stroke-linejoin:miter;stroke-opacity:1" d="M 569.84,213.966 577.848,209.517 z" id="boundary" inkscape:connector-curvature="0" />
	<path style="fill:none;stroke:red;stroke-width:1px;stroke-linecap:butt;stroke-linejoin:miter;stroke-opacity:1" d="M 574.289,221.973 577.848,209.517 z" id="boundary" inkscape:connector-curvature="0" />
	<path style="fill:none;stroke:red;stroke-width:1px;stroke-linecap:butt;stroke-linejoin:miter;stroke-opacity:1" d="M 577.848,480.872 595.641,480.872 z" id="boundary" inkscape:connector-curvature="0" />
	<path style="fill:none;stroke:red;stroke-width:1px;stroke-linecap:butt;stroke-linejoin:miter;stroke-opacity:1" d="M 582.296,137.453 600.09,137.453 z" id="boundary" inkscape:connector-curvature="0" />
	<path style="fill:none;stroke:red;stroke-width:1px;stroke-linecap:butt;stroke-linejoin:miter;stroke-opacity:1" d="M 592.083,221.973 595.641,202.4 z" id="boundary" inkscape:connector-curvature="0" />
	<path style="fill:none;stroke:red;stroke-width:1px;stroke-linecap:butt;stroke-linejoin:miter;stroke-opacity:1" d="M 592.083,221.973 609.876,221.973 z" id="boundary" inkscape:connector-curvature="0" />
	<path style="fill:none;stroke:red;stroke-width:1px;stroke-linecap:butt;stroke-linejoin:miter;stroke-opacity:1" d="M 595.641,202.4 604.538,200.621 z" id="boundary" inkscape:connector-curvature="0" />
	<path style="fill:none;stroke:red;stroke-width:1px;stroke-linecap:butt;stroke-linejoin:miter;stroke-opacity:1" d="M 595.641,480.872 604.538,480.872 z" id="boundary" inkscape:connector-curvature="0" />
	<path style="fill:none;stroke:red;stroke-width:1px;stroke-linecap:butt;stroke-linejoin:miter;stroke-opacity:1" d="M 600.09,137.453 617.883,137.453 z" id="boundary" inkscape:connector-curvature="0" />
	<path style="fill:none;stroke:red;stroke-width:1px;stroke-linecap:butt;stroke-linejoin:miter;stroke-opacity:1" d="M 604.538,200.621 612.545,196.172 z" id="boundary" inkscape:connector-curvature="0" />
	<path style="fill:none;stroke:red;stroke-width:1px;stroke-linecap:butt;stroke-linejoin:miter;stroke-opacity:1" d="M 604.538,480.872 622.332,480.872 z" id="boundary" inkscape:connector-curvature="0" />
	<path style="fill:none;stroke:red;stroke-width:1px;stroke-linecap:butt;stroke-linejoin:miter;stroke-opacity:1" d="M 609.876,221.973 627.67,221.973 z" id="boundary" inkscape:connector-curvature="0" />
	<path style="fill:none;stroke:red;stroke-width:1px;stroke-linecap:butt;stroke-linejoin:miter;stroke-opacity:1" d="M 612.545,196.172 621.442,196.172 z" id="boundary" inkscape:connector-curvature="0" />
	<path style="fill:none;stroke:red;stroke-width:1px;stroke-linecap:butt;stroke-linejoin:miter;stroke-opacity:1" d="M 617.883,137.453 626.78,137.453 z" id="boundary" inkscape:connector-curvature="0" />
	<path style="fill:none;stroke:red;stroke-width:1px;stroke-linecap:butt;stroke-linejoin:miter;stroke-opacity:1" d="M 621.442,196.172 629.449,191.724 z" id="boundary" inkscape:connector-curvature="0" />
	<path style="fill:none;stroke:red;stroke-width:1px;stroke-linecap:butt;stroke-linejoin:miter;stroke-opacity:1" d="M 622.332,480.872 631.229,480.872 z" id="boundary" inkscape:connector-curvature="0" />
	<path style="fill:none;stroke:red;stroke-width:1px;stroke-linecap:butt;stroke-linejoin:miter;stroke-opacity:1" d="M 626.78,137.453 634.787,141.901 z" id="boundary" inkscape:connector-curvature="0" />
	<path style="fill:none;stroke:red;stroke-width:1px;stroke-linecap:butt;stroke-linejoin:miter;stroke-opacity:1" d="M 627.67,221.973 645.464,221.973 z" id="boundary" inkscape:connector-curvature="0" />
	<path style="fill:none;stroke:red;stroke-width:1px;stroke-linecap:butt;stroke-linejoin:miter;stroke-opacity:1" d="M 627.67,369.661 627.67,378.558 z" id="boundary" inkscape:connector-curvature="0" />
	<path style="fill:none;stroke:red;stroke-width:1px;stroke-linecap:butt;stroke-linejoin:miter;stroke-opacity:1" d="M 627.67,369.661 634.787,363.433 z" id="boundary" inkscape:connector-curvature="0" />
	<path style="fill:none;stroke:red;stroke-width:1px;stroke-linecap:butt;stroke-linejoin:miter;stroke-opacity:1" d="M 627.67,378.558 632.118,386.565 z" id="boundary" inkscape:connector-curvature="0" />
	<path style="fill:none;stroke:red;stroke-width:1px;stroke-linecap:butt;stroke-linejoin:miter;stroke-opacity:1" d="M 629.449,191.724 647.243,186.386 z" id="boundary" inkscape:connector-curvature="0" />
	<path style="fill:none;stroke:red;stroke-width:1px;stroke-linecap:butt;stroke-linejoin:miter;stroke-opacity:1" d="M 631.229,480.872 648.133,476.423 z" id="boundary" inkscape:connector-curvature="0" />
	<path style="fill:none;stroke:red;stroke-width:1px;stroke-linecap:butt;stroke-linejoin:miter;stroke-opacity:1" d="M 632.118,386.565 649.912,389.234 z" id="boundary" inkscape:connector-curvature="0" />
	<path style="fill:none;stroke:red;stroke-width:1px;stroke-linecap:butt;stroke-linejoin:miter;stroke-opacity:1" d="M 634.787,141.901 645.464,155.247 z" id="boundary" inkscape:connector-curvature="0" />
	<path style="fill:none;stroke:red;stroke-width:1px;stroke-linecap:butt;stroke-linejoin:miter;stroke-opacity:1" d="M 634.787,363.433 652.581,358.985 z" id="boundary" inkscape:connector-curvature="0" />
	<path style="fill:none;stroke:red;stroke-width:1px;stroke-linecap:butt;stroke-linejoin:miter;stroke-opacity:1" d="M 645.464,155.247 647.243,186.386 z" id="boundary" inkscape:connector-curvature="0" />
	<path style="fill:none;stroke:red;stroke-width:1px;stroke-linecap:butt;stroke-linejoin:miter;stroke-opacity:1" d="M 645.464,221.973 654.361,221.973 z" id="boundary" inkscape:connector-curvature="0" />
	<path style="fill:none;stroke:red;stroke-width:1px;stroke-linecap:butt;stroke-linejoin:miter;stroke-opacity:1" d="M 648.133,476.423 657.03,474.644 z" id="boundary" inkscape:connector-curvature="0" />
	<path style="fill:none;stroke:red;stroke-width:1px;stroke-linecap:butt;stroke-linejoin:miter;stroke-opacity:1" d="M 649.912,389.234 658.809,405.248 z" id="boundary" inkscape:connector-curvature="0" />
	<path style="fill:none;stroke:red;stroke-width:1px;stroke-linecap:butt;stroke-linejoin:miter;stroke-opacity:1" d="M 652.581,358.985 670.375,354.536 z" id="boundary" inkscape:connector-curvature="0" />
	<path style="fill:none;stroke:red;stroke-width:1px;stroke-linecap:butt;stroke-linejoin:miter;stroke-opacity:1" d="M 654.361,221.973 672.154,221.973 z" id="boundary" inkscape:connector-curvature="0" />
	<path style="fill:none;stroke:red;stroke-width:1px;stroke-linecap:butt;stroke-linejoin:miter;stroke-opacity:1" d="M 657.03,474.644 674.823,470.196 z" id="boundary" inkscape:connector-curvature="0" />
	<path style="fill:none;stroke:red;stroke-width:1px;stroke-linecap:butt;stroke-linejoin:miter;stroke-opacity:1" d="M 658.809,405.248 663.257,413.256 z" id="boundary" inkscape:connector-curvature="0" />
	<path style="fill:none;stroke:red;stroke-width:1px;stroke-linecap:butt;stroke-linejoin:miter;stroke-opacity:1" d="M 663.257,413.256 670.375,418.594 z" id="boundary" inkscape:connector-curvature="0" />
	<path style="fill:none;stroke:red;stroke-width:1px;stroke-linecap:butt;stroke-linejoin:miter;stroke-opacity:1" d="M 670.375,418.594 676.603,425.711 z" id="boundary" inkscape:connector-curvature="0" />
	<path style="fill:none;stroke:red;stroke-width:1px;stroke-linecap:butt;stroke-linejoin:miter;stroke-opacity:1" d="M 672.154,221.973 681.051,221.973 z" id="boundary" inkscape:connector-curvature="0" />
	<path style="fill:none;stroke:red;stroke-width:1px;stroke-linecap:butt;stroke-linejoin:miter;stroke-opacity:1" d="M 674.823,470.196 685.5,450.622 z" id="boundary" inkscape:connector-curvature="0" />
	<path style="fill:none;stroke:red;stroke-width:1px;stroke-linecap:butt;stroke-linejoin:miter;stroke-opacity:1" d="M 676.603,425.711 681.051,433.718 z" id="boundary" inkscape:connector-curvature="0" />
	<path style="fill:none;stroke:red;stroke-width:1px;stroke-linecap:butt;stroke-linejoin:miter;stroke-opacity:1" d="M 681.051,221.973 697.955,217.525 z" id="boundary" inkscape:connector-curvature="0" />
	<path style="fill:none;stroke:red;stroke-width:1px;stroke-linecap:butt;stroke-linejoin:miter;stroke-opacity:1" d="M 681.051,433.718 685.5,450.622 z" id="boundary" inkscape:connector-curvature="0" />
	<path style="fill:none;stroke:red;stroke-width:1px;stroke-linecap:butt;stroke-linejoin:miter;stroke-opacity:1" d="M 688.169,347.419 697.065,347.419 z" id="boundary" inkscape:connector-curvature="0" />
	<path style="fill:none;stroke:red;stroke-width:1px;stroke-linecap:butt;stroke-linejoin:miter;stroke-opacity:1" d="M 688.169,347.419 705.073,342.97 z" id="boundary" inkscape:connector-curvature="0" />
	<path style="fill:none;stroke:red;stroke-width:1px;stroke-linecap:butt;stroke-linejoin:miter;stroke-opacity:1" d="M 697.065,347.419 705.073,342.97 z" id="boundary" inkscape:connector-curvature="0" />
	<path style="fill:none;stroke:red;stroke-width:1px;stroke-linecap:butt;stroke-linejoin:miter;stroke-opacity:1" d="M 697.955,217.525 715.749,217.525 z" id="boundary" inkscape:connector-curvature="0" />
	<path style="fill:none;stroke:red;stroke-width:1px;stroke-linecap:butt;stroke-linejoin:miter;stroke-opacity:1" d="M 715.749,217.525 724.646,217.525 z" id="boundary" inkscape:connector-curvature="0" />
	<path style="fill:none;stroke:red;stroke-width:1px;stroke-linecap:butt;stroke-linejoin:miter;stroke-opacity:1" d="M 722.866,342.081 740.66,333.184 z" id="boundary" inkscape:connector-curvature="0" />
	<path style="fill:none;stroke:red;stroke-width:1px;stroke-linecap:butt;stroke-linejoin:miter;stroke-opacity:1" d="M 724.646,217.525 742.439,217.525 z" id="boundary" inkscape:connector-curvature="0" />
	<path style="fill:none;stroke:red;stroke-width:1px;stroke-linecap:butt;stroke-linejoin:miter;stroke-opacity:1" d="M 740.66,333.184 749.557,328.735 z" id="boundary" inkscape:connector-curvature="0" />
	<path style="fill:none;stroke:red;stroke-width:1px;stroke-linecap:butt;stroke-linejoin:miter;stroke-opacity:1" d="M 742.439,217.525 760.233,217.525 z" id="boundary" inkscape:connector-curvature="0" />
	<path style="fill:none;stroke:red;stroke-width:1px;stroke-linecap:butt;stroke-linejoin:miter;stroke-opacity:1" d="M 749.557,328.735 767.351,320.728 z" id="boundary" inkscape:connector-curvature="0" />
	<path style="fill:none;stroke:red;stroke-width:1px;stroke-linecap:butt;stroke-linejoin:miter;stroke-opacity:1" d="M 760.233,217.525 778.027,217.525 z" id="boundary" inkscape:connector-curvature="0" />
	<path style="fill:none;stroke:red;stroke-width:1px;stroke-linecap:butt;stroke-linejoin:miter;stroke-opacity:1" d="M 767.351,320.728 785.144,315.39 z" id="boundary" inkscape:connector-curvature="0" />
	<path style="fill:none;stroke:red;stroke-width:1px;stroke-linecap:butt;stroke-linejoin:miter;stroke-opacity:1" d="M 785.144,315.39 794.041,310.942 z" id="boundary" inkscape:connector-curvature="0" />
	<path style="fill:none;stroke:red;stroke-width:1px;stroke-linecap:butt;stroke-linejoin:miter;stroke-opacity:1" d="M 794.041,310.942 810.056,298.486 z" id="boundary" inkscape:connector-curvature="0" />
	<path style="fill:none;stroke:red;stroke-width:1px;stroke-linecap:butt;stroke-linejoin:miter;stroke-opacity:1" d="M 795.821,215.745 804.717,213.076 z" id="boundary" inkscape:connector-curvature="0" />
	<path style="fill:none;stroke:red;stroke-width:1px;stroke-linecap:butt;stroke-linejoin:miter;stroke-opacity:1" d="M 795.821,215.745 813.614,213.076 z" id="boundary" inkscape:connector-curvature="0" />
	<path style="fill:none;stroke:red;stroke-width:1px;stroke-linecap:butt;stroke-linejoin:miter;stroke-opacity:1" d="M 804.717,213.076 813.614,213.076 z" id="boundary" inkscape:connector-curvature="0" />
	<path style="fill:none;stroke:red;stroke-width:1px;stroke-linecap:butt;stroke-linejoin:miter;stroke-opacity:1" d="M 810.056,298.486 827.849,289.589 z" id="boundary" inkscape:connector-curvature="0" />
	<path style="fill:none;stroke:red;stroke-width:1px;stroke-linecap:butt;stroke-linejoin:miter;stroke-opacity:1" d="M 827.849,289.589 836.746,285.141 z" id="boundary" inkscape:connector-curvature="0" />
	<path style="fill:none;stroke:red;stroke-width:1px;stroke-linecap:butt;stroke-linejoin:miter;stroke-opacity:1" d="M 830.518,208.628 847.422,204.179 z" id="boundary" inkscape:connector-curvature="0" />
	<path style="fill:none;stroke:red;stroke-width:1px;stroke-linecap:butt;stroke-linejoin:miter;stroke-opacity:1" d="M 836.746,285.141 844.753,280.692 z" id="boundary" inkscape:connector-curvature="0" />
	<path style="fill:none;stroke:red;stroke-width:1px;stroke-linecap:butt;stroke-linejoin:miter;stroke-opacity:1" d="M 844.753,280.692 852.761,276.244 z" id="boundary" inkscape:connector-curvature="0" />
	<path style="fill:none;stroke:red;stroke-width:1px;stroke-linecap:butt;stroke-linejoin:miter;stroke-opacity:1" d="M 847.422,204.179 865.216,199.731 z" id="boundary" inkscape:connector-curvature="0" />
	<path style="fill:none;stroke:red;stroke-width:1px;stroke-linecap:butt;stroke-linejoin:miter;stroke-opacity:1" d="M 852.761,276.244 860.768,271.796 z" id="boundary" inkscape:connector-curvature="0" />
	<path style="fill:none;stroke:red;stroke-width:1px;stroke-linecap:butt;stroke-linejoin:miter;stroke-opacity:1" d="M 860.768,271.796 877.672,267.347 z" id="boundary" inkscape:connector-curvature="0" />
	<path style="fill:none;stroke:red;stroke-width:1px;stroke-linecap:butt;stroke-linejoin:miter;stroke-opacity:1" d="M 865.216,199.731 883.01,199.731 z" id="boundary" inkscape:connector-curvature="0" />
	<path style="fill:none;stroke:red;stroke-width:1px;stroke-linecap:butt;stroke-linejoin:miter;stroke-opacity:1" d="M 877.672,267.347 885.679,262.899 z" id="boundary" inkscape:connector-curvature="0" />
	<path style="fill:none;stroke:red;stroke-width:1px;stroke-linecap:butt;stroke-linejoin:miter;stroke-opacity:1" d="M 883.01,199.731 900.804,199.731 z" id="boundary" inkscape:connector-curvature="0" />
	<path style="fill:none;stroke:red;stroke-width:1px;stroke-linecap:butt;stroke-linejoin:miter;stroke-opacity:1" d="M 885.679,262.899 893.686,258.45 z" id="boundary" inkscape:connector-curvature="0" />
	<path style="fill:none;stroke:red;stroke-width:1px;stroke-linecap:butt;stroke-linejoin:miter;stroke-opacity:1" d="M 893.686,258.45 910.59,252.222 z" id="boundary" inkscape:connector-curvature="0" />
	<path style="fill:none;stroke:red;stroke-width:1px;stroke-linecap:butt;stroke-linejoin:miter;stroke-opacity:1" d="M 900.804,199.731 909.7,199.731 z" id="boundary" inkscape:connector-curvature="0" />
	<path style="fill:none;stroke:red;stroke-width:1px;stroke-linecap:butt;stroke-linejoin:miter;stroke-opacity:1" d="M 909.7,199.731 927.494,199.731 z" id="boundary" inkscape:connector-curvature="0" />
	<path style="fill:none;stroke:red;stroke-width:1px;stroke-linecap:butt;stroke-linejoin:miter;stroke-opacity:1" d="M 910.59,252.222 928.384,247.774 z" id="boundary" inkscape:connector-curvature="0" />
	<path style="fill:none;stroke:red;stroke-width:1px;stroke-linecap:butt;stroke-linejoin:miter;stroke-opacity:1" d="M 927.494,199.731 945.288,199.731 z" id="boundary" inkscape:connector-curvature="0" />
	<path style="fill:none;stroke:red;stroke-width:1px;stroke-linecap:butt;stroke-linejoin:miter;stroke-opacity:1" d="M 928.384,247.774 937.281,243.326 z" id="boundary" inkscape:connector-curvature="0" />
	<path style="fill:none;stroke:red;stroke-width:1px;stroke-linecap:butt;stroke-linejoin:miter;stroke-opacity:1" d="M 937.281,243.326 946.178,240.657 z" id="boundary" inkscape:connector-curvature="0" />
	<path style="fill:none;stroke:red;stroke-width:1px;stroke-linecap:butt;stroke-linejoin:miter;stroke-opacity:1" d="M 945.288,199.731 963.082,199.731 z" id="boundary" inkscape:connector-curvature="0" />
	<path style="fill:none;stroke:red;stroke-width:1px;stroke-linecap:butt;stroke-linejoin:miter;stroke-opacity:1" d="M 946.178,240.657 963.082,235.318 z" id="boundary" inkscape:connector-curvature="0" />
	<path style="fill:none;stroke:red;stroke-width:1px;stroke-linecap:butt;stroke-linejoin:miter;stroke-opacity:1" d="M 963.082,199.731 980.875,199.731 z" id="boundary" inkscape:connector-curvature="0" />
	<path style="fill:none;stroke:red;stroke-width:1px;stroke-linecap:butt;stroke-linejoin:miter;stroke-opacity:1" d="M 963.082,235.318 971.978,231.76 z" id="boundary" inkscape:connector-curvature="0" />
	<path style="fill:none;stroke:red;stroke-width:1px;stroke-linecap:butt;stroke-linejoin:miter;stroke-opacity:1" d="M 971.978,231.76 979.986,227.311 z" id="boundary" inkscape:connector-curvature="0" />
	<path style="fill:none;stroke:red;stroke-width:1px;stroke-linecap:butt;stroke-linejoin:miter;stroke-opacity:1" d="M 979.986,227.311 987.993,222.863 z" id="boundary" inkscape:connector-curvature="0" />
	<path style="fill:none;stroke:red;stroke-width:1px;stroke-linecap:butt;stroke-linejoin:miter;stroke-opacity:1" d="M 980.875,199.731 989.772,199.731 z" id="boundary" inkscape:connector-curvature="0" />
	<path style="fill:none;stroke:red;stroke-width:1px;stroke-linecap:butt;stroke-linejoin:miter;stroke-opacity:1" d="M 987.993,222.863 989.772,199.731 z" id="boundary" inkscape:connector-curvature="0" />
	<circle cx="4" cy="536.032" r="4" fill="#0" id="circle0"/>
	<circle cx="4" cy="544.929" r="4" fill="#0" id="circle1"/>
	<circle cx="8.44843" cy="362.543" r="4" fill="#0" id="circle2"/>
	<circle cx="8.44843" cy="371.44" r="4" fill="#0" id="circle3"/>
	<circle cx="8.44843" cy="380.337" r="4" fill="#0" id="circle4"/>
	<circle cx="8.44843" cy="389.234" r="4" fill="#0" id="circle5"/>
	<circle cx="8.44843" cy="398.131" r="4" fill="#0" id="circle6"/>
	<circle cx="8.44843" cy="407.028" r="4" fill="#0" id="circle7"/>
	<circle cx="8.44843" cy="415.925" r="4" fill="#0" id="circle8"/>
	<circle cx="8.44843" cy="424.822" r="4" fill="#0" id="circle9"/>
	<circle cx="8.44843" cy="433.718" r="4" fill="#0" id="circle10"/>
	<circle cx="8.44843" cy="442.615" r="4" fill="#0" id="circle11"/>
	<circle cx="8.44843" cy="527.135" r="4" fill="#0" id="circle12"/>
	<circle cx="8.44843" cy="552.936" r="4" fill="#0" id="circle13"/>
	<circle cx="12.8969" cy="309.162" r="4" fill="#0" id="circle14"/>
	<circle cx="12.8969" cy="318.059" r="4" fill="#0" id="circle15"/>
	<circle cx="12.8969" cy="326.956" r="4" fill="#0" id="circle16"/>
	<circle cx="12.8969" cy="335.853" r="4" fill="#0" id="circle17"/>
	<circle cx="12.8969" cy="344.75" r="4" fill="#0" id="circle18"/>
	<circle cx="12.8969" cy="353.647" r="4" fill="#0" id="circle19"/>
	<circle cx="12.8969" cy="450.622" r="4" fill="#0" id="circle20"/>
	<circle cx="14.6762" cy="560.054" r="4" fill="#0" id="circle21"/>
	<circle cx="15.5659" cy="520.018" r="4" fill="#0" id="circle22"/>
	<circle cx="17.3453" cy="291.369" r="4" fill="#0" id="circle23"/>
	<circle cx="17.3453" cy="300.265" r="4" fill="#0" id="circle24"/>
	<circle cx="17.3453" cy="458.63" r="4" fill="#0" id="circle25"/>
	<circle cx="20.0143" cy="467.526" r="4" fill="#0" id="circle26"/>
	<circle cx="21.7937" cy="278.023" r="4" fill="#0" id="circle27"/>
	<circle cx="23.5731" cy="515.57" r="4" fill="#0" id="circle28"/>
	<circle cx="23.5731" cy="560.943" r="4" fill="#0" id="circle29"/>
	<circle cx="26.2422" cy="269.126" r="4" fill="#0" id="circle30"/>
	<circle cx="27.1318" cy="473.754" r="4" fill="#0" id="circle31"/>
	<circle cx="30.6906" cy="260.23" r="4" fill="#0" id="circle32"/>
	<circle cx="31.5803" cy="511.121" r="4" fill="#0" id="circle33"/>
	<circle cx="32.47" cy="560.943" r="4" fill="#0" id="circle34"/>
	<circle cx="35.139" cy="251.333" r="4" fill="#0" id="circle35"/>
	<circle cx="35.139" cy="478.203" r="4" fill="#0" id="circle36"/>
	<circle cx="39.5874" cy="242.436" r="4" fill="#0" id="circle37"/>
	<circle cx="40.4771" cy="513.79" r="4" fill="#0" id="circle38"/>
	<circle cx="41.3668" cy="560.943" r="4" fill="#0" id="circle39"/>
	<circle cx="44.0359" cy="480.872" r="4" fill="#0" id="circle40"/>
	<circle cx="46.7049" cy="235.318" r="4" fill="#0" id="circle41"/>
	<circle cx="48.4843" cy="518.239" r="4" fill="#0" id="circle42"/>
	<circle cx="50.2637" cy="560.943" r="4" fill="#0" id="circle43"/>
	<circle cx="51.1534" cy="226.422" r="4" fill="#0" id="circle44"/>
	<circle cx="52.9327" cy="480.872" r="4" fill="#0" id="circle45"/>
	<circle cx="55.6018" cy="524.466" r="4" fill="#0" id="circle46"/>
	<circle cx="58.2709" cy="219.304" r="4" fill="#0" id="circle47"/>
	<circle cx="59.1605" cy="563.613" r="4" fill="#0" id="circle48"/>
	<circle cx="61.8296" cy="480.872" r="4" fill="#0" id="circle49"/>
	<circle cx="61.8296" cy="531.584" r="4" fill="#0" id="circle50"/>
	<circle cx="65.3883" cy="213.076" r="4" fill="#0" id="circle51"/>
	<circle cx="68.0574" cy="565.392" r="4" fill="#0" id="circle52"/>
	<circle cx="68.9471" cy="537.812" r="4" fill="#0" id="circle53"/>
	<circle cx="70.7265" cy="480.872" r="4" fill="#0" id="circle54"/>
	<circle cx="71.6161" cy="205.959" r="4" fill="#0" id="circle55"/>
	<circle cx="75.1749" cy="544.929" r="4" fill="#0" id="circle56"/>
	<circle cx="76.9543" cy="565.392" r="4" fill="#0" id="circle57"/>
	<circle cx="78.7336" cy="199.731" r="4" fill="#0" id="circle58"/>
	<circle cx="79.6233" cy="480.872" r="4" fill="#0" id="circle59"/>
	<circle cx="84.0717" cy="548.488" r="4" fill="#0" id="circle60"/>
	<circle cx="85.8511" cy="565.392" r="4" fill="#0" id="circle61"/>
	<circle cx="86.7408" cy="195.283" r="4" fill="#0" id="circle62"/>
	<circle cx="88.5202" cy="480.872" r="4" fill="#0" id="circle63"/>
	<circle cx="89.4099" cy="555.605" r="4" fill="#0" id="circle64"/>
	<circle cx="93.8583" cy="188.165" r="4" fill="#0" id="circle65"/>
	<circle cx="94.748" cy="565.392" r="4" fill="#0" id="circle66"/>
	<circle cx="97.417" cy="480.872" r="4" fill="#0" id="circle67"/>
	<circle cx="100.976" cy="181.937" r="4" fill="#0" id="circle68"/>
	<circle cx="101.865" cy="560.054" r="4" fill="#0" id="circle69"/>
	<circle cx="106.314" cy="480.872" r="4" fill="#0" id="circle70"/>
	<circle cx="107.204" cy="174.82" r="4" fill="#0" id="circle71"/>
	<circle cx="108.983" cy="565.392" r="4" fill="#0" id="circle72"/>
	<circle cx="114.321" cy="168.592" r="4" fill="#0" id="circle73"/>
	<circle cx="115.211" cy="480.872" r="4" fill="#0" id="circle74"/>
	<circle cx="116.1" cy="560.054" r="4" fill="#0" id="circle75"/>
	<circle cx="122.328" cy="164.143" r="4" fill="#0" id="circle76"/>
	<circle cx="123.218" cy="565.392" r="4" fill="#0" id="circle77"/>
	<circle cx="124.108" cy="480.872" r="4" fill="#0" id="circle78"/>
	<circle cx="124.108" cy="549.378" r="4" fill="#0" id="circle79"/>
	<circle cx="129.446" cy="157.026" r="4" fill="#0" id="circle80"/>
	<circle cx="132.115" cy="565.392" r="4" fill="#0" id="circle81"/>
	<circle cx="133.004" cy="480.872" r="4" fill="#0" id="circle82"/>
	<circle cx="133.004" cy="544.929" r="4" fill="#0" id="circle83"/>
	<circle cx="138.343" cy="152.578" r="4" fill="#0" id="circle84"/>
	<circle cx="141.012" cy="565.392" r="4" fill="#0" id="circle85"/>
	<circle cx="141.901" cy="480.872" r="4" fill="#0" id="circle86"/>
	<circle cx="141.901" cy="540.481" r="4" fill="#0" id="circle87"/>
	<circle cx="147.239" cy="148.129" r="4" fill="#0" id="circle88"/>
	<circle cx="149.909" cy="565.392" r="4" fill="#0" id="circle89"/>
	<circle cx="150.798" cy="480.872" r="4" fill="#0" id="circle90"/>
	<circle cx="150.798" cy="537.812" r="4" fill="#0" id="circle91"/>
	<circle cx="156.136" cy="143.681" r="4" fill="#0" id="circle92"/>
	<circle cx="158.805" cy="533.363" r="4" fill="#0" id="circle93"/>
	<circle cx="158.805" cy="565.392" r="4" fill="#0" id="circle94"/>
	<circle cx="159.695" cy="480.872" r="4" fill="#0" id="circle95"/>
	<circle cx="165.033" cy="139.232" r="4" fill="#0" id="circle96"/>
	<circle cx="167.702" cy="533.363" r="4" fill="#0" id="circle97"/>
	<circle cx="167.702" cy="565.392" r="4" fill="#0" id="circle98"/>
	<circle cx="168.592" cy="480.872" r="4" fill="#0" id="circle99"/>
	<circle cx="173.93" cy="137.453" r="4" fill="#0" id="circle100"/>
	<circle cx="176.599" cy="533.363" r="4" fill="#0" id="circle101"/>
	<circle cx="176.599" cy="565.392" r="4" fill="#0" id="circle102"/>
	<circle cx="177.489" cy="480.872" r="4" fill="#0" id="circle103"/>
	<circle cx="181.937" cy="133.004" r="4" fill="#0" id="circle104"/>
	<circle cx="185.496" cy="533.363" r="4" fill="#0" id="circle105"/>
	<circle cx="185.496" cy="565.392" r="4" fill="#0" id="circle106"/>
	<circle cx="186.386" cy="480.872" r="4" fill="#0" id="circle107"/>
	<circle cx="190.834" cy="131.225" r="4" fill="#0" id="circle108"/>
	<circle cx="193.503" cy="528.915" r="4" fill="#0" id="circle109"/>
	<circle cx="194.393" cy="565.392" r="4" fill="#0" id="circle110"/>
	<circle cx="195.283" cy="480.872" r="4" fill="#0" id="circle111"/>
	<circle cx="199.731" cy="128.556" r="4" fill="#0" id="circle112"/>
	<circle cx="202.4" cy="528.915" r="4" fill="#0" id="circle113"/>
	<circle cx="203.29" cy="565.392" r="4" fill="#0" id="circle114"/>
	<circle cx="204.179" cy="480.872" r="4" fill="#0" id="circle115"/>
	<circle cx="208.628" cy="128.556" r="4" fill="#0" id="circle116"/>
	<circle cx="208.628" cy="488.879" r="4" fill="#0" id="circle117"/>
	<circle cx="208.628" cy="497.776" r="4" fill="#0" id="circle118"/>
	<circle cx="208.628" cy="506.673" r="4" fill="#0" id="circle119"/>
	<circle cx="208.628" cy="515.57" r="4" fill="#0" id="circle120"/>
	<circle cx="212.187" cy="565.392" r="4" fill="#0" id="circle121"/>
	<circle cx="217.525" cy="128.556" r="4" fill="#0" id="circle122"/>
	<circle cx="221.083" cy="565.392" r="4" fill="#0" id="circle123"/>
	<circle cx="226.422" cy="128.556" r="4" fill="#0" id="circle124"/>
	<circle cx="229.98" cy="565.392" r="4" fill="#0" id="circle125"/>
	<circle cx="235.318" cy="128.556" r="4" fill="#0" id="circle126"/>
	<circle cx="238.877" cy="565.392" r="4" fill="#0" id="circle127"/>
	<circle cx="244.215" cy="128.556" r="4" fill="#0" id="circle128"/>
	<circle cx="247.774" cy="565.392" r="4" fill="#0" id="circle129"/>
	<circle cx="253.112" cy="128.556" r="4" fill="#0" id="circle130"/>
	<circle cx="256.671" cy="565.392" r="4" fill="#0" id="circle131"/>
	<circle cx="262.009" cy="128.556" r="4" fill="#0" id="circle132"/>
	<circle cx="265.568" cy="565.392" r="4" fill="#0" id="circle133"/>
	<circle cx="270.906" cy="128.556" r="4" fill="#0" id="circle134"/>
	<circle cx="274.465" cy="565.392" r="4" fill="#0" id="circle135"/>
	<circle cx="279.803" cy="128.556" r="4" fill="#0" id="circle136"/>
	<circle cx="283.361" cy="565.392" r="4" fill="#0" id="circle137"/>
	<circle cx="287.81" cy="133.004" r="4" fill="#0" id="circle138"/>
	<circle cx="292.258" cy="565.392" r="4" fill="#0" id="circle139"/>
	<circle cx="296.707" cy="133.004" r="4" fill="#0" id="circle140"/>
	<circle cx="301.155" cy="565.392" r="4" fill="#0" id="circle141"/>
	<circle cx="305.604" cy="133.004" r="4" fill="#0" id="circle142"/>
	<circle cx="306.493" cy="15.5659" r="4" fill="#0" id="circle143"/>
	<circle cx="306.493" cy="24.4628" r="4" fill="#0" id="circle144"/>
	<circle cx="310.052" cy="565.392" r="4" fill="#0" id="circle145"/>
	<circle cx="310.942" cy="32.47" r="4" fill="#0" id="circle146"/>
	<circle cx="313.611" cy="8.44843" r="4" fill="#0" id="circle147"/>
	<circle cx="314.5" cy="133.004" r="4" fill="#0" id="circle148"/>
	<circle cx="317.17" cy="39.5874" r="4" fill="#0" id="circle149"/>
	<circle cx="318.949" cy="565.392" r="4" fill="#0" id="circle150"/>
	<circle cx="321.618" cy="4" r="4" fill="#0" id="circle151"/>
	<circle cx="323.397" cy="133.004" r="4" fill="#0" id="circle152"/>
	<circle cx="326.066" cy="43.1462" r="4" fill="#0" id="circle153"/>
	<circle cx="327.846" cy="565.392" r="4" fill="#0" id="circle154"/>
	<circle cx="330.515" cy="4" r="4" fill="#0" id="circle155"/>
	<circle cx="332.294" cy="133.004" r="4" fill="#0" id="circle156"/>
	<circle cx="334.963" cy="44.9256" r="4" fill="#0" id="circle157"/>
	<circle cx="336.743" cy="565.392" r="4" fill="#0" id="circle158"/>
	<circle cx="339.412" cy="4" r="4" fill="#0" id="circle159"/>
	<circle cx="341.191" cy="133.004" r="4" fill="#0" id="circle160"/>
	<circle cx="343.86" cy="44.9256" r="4" fill="#0" id="circle161"/>
	<circle cx="344.75" cy="560.943" r="4" fill="#0" id="circle162"/>
	<circle cx="346.529" cy="95.6377" r="4" fill="#0" id="circle163"/>
	<circle cx="347.419" cy="8.44843" r="4" fill="#0" id="circle164"/>
	<circle cx="350.088" cy="133.004" r="4" fill="#0" id="circle165"/>
	<circle cx="350.978" cy="82.2924" r="4" fill="#0" id="circle166"/>
	<circle cx="351.867" cy="49.374" r="4" fill="#0" id="circle167"/>
	<circle cx="353.647" cy="560.943" r="4" fill="#0" id="circle168"/>
	<circle cx="355.426" cy="98.3067" r="4" fill="#0" id="circle169"/>
	<circle cx="356.316" cy="8.44843" r="4" fill="#0" id="circle170"/>
	<circle cx="358.985" cy="133.004" r="4" fill="#0" id="circle171"/>
	<circle cx="359.874" cy="53.8224" r="4" fill="#0" id="circle172"/>
	<circle cx="359.874" cy="77.8439" r="4" fill="#0" id="circle173"/>
	<circle cx="362.543" cy="560.054" r="4" fill="#0" id="circle174"/>
	<circle cx="364.323" cy="61.8296" r="4" fill="#0" id="circle175"/>
	<circle cx="364.323" cy="98.3067" r="4" fill="#0" id="circle176"/>
	<circle cx="364.323" cy="107.204" r="4" fill="#0" id="circle177"/>
	<circle cx="364.323" cy="116.1" r="4" fill="#0" id="circle178"/>
	<circle cx="364.323" cy="124.997" r="4" fill="#0" id="circle179"/>
	<circle cx="365.213" cy="8.44843" r="4" fill="#0" id="circle180"/>
	<circle cx="371.44" cy="556.495" r="4" fill="#0" id="circle181"/>
	<circle cx="374.109" cy="8.44843" r="4" fill="#0" id="circle182"/>
	<circle cx="380.337" cy="556.495" r="4" fill="#0" id="circle183"/>
	<circle cx="383.006" cy="8.44843" r="4" fill="#0" id="circle184"/>
	<circle cx="389.234" cy="555.605" r="4" fill="#0" id="circle185"/>
	<circle cx="391.903" cy="11.1175" r="4" fill="#0" id="circle186"/>
	<circle cx="391.903" cy="49.374" r="4" fill="#0" id="circle187"/>
	<circle cx="393.683" cy="58.2709" r="4" fill="#0" id="circle188"/>
	<circle cx="398.131" cy="552.047" r="4" fill="#0" id="circle189"/>
	<circle cx="399.91" cy="44.9256" r="4" fill="#0" id="circle190"/>
	<circle cx="400.8" cy="12.8969" r="4" fill="#0" id="circle191"/>
	<circle cx="402.579" cy="61.8296" r="4" fill="#0" id="circle192"/>
	<circle cx="405.248" cy="70.7265" r="4" fill="#0" id="circle193"/>
	<circle cx="405.248" cy="89.4099" r="4" fill="#0" id="circle194"/>
	<circle cx="405.248" cy="98.3067" r="4" fill="#0" id="circle195"/>
	<circle cx="405.248" cy="107.204" r="4" fill="#0" id="circle196"/>
	<circle cx="405.248" cy="116.1" r="4" fill="#0" id="circle197"/>
	<circle cx="407.028" cy="552.047" r="4" fill="#0" id="circle198"/>
	<circle cx="407.917" cy="40.4771" r="4" fill="#0" id="circle199"/>
	<circle cx="409.697" cy="12.8969" r="4" fill="#0" id="circle200"/>
	<circle cx="409.697" cy="124.108" r="4" fill="#0" id="circle201"/>
	<circle cx="412.366" cy="76.0646" r="4" fill="#0" id="circle202"/>
	<circle cx="414.145" cy="84.9614" r="4" fill="#0" id="circle203"/>
	<circle cx="415.035" cy="547.598" r="4" fill="#0" id="circle204"/>
	<circle cx="415.925" cy="35.139" r="4" fill="#0" id="circle205"/>
	<circle cx="416.814" cy="18.235" r="4" fill="#0" id="circle206"/>
	<circle cx="416.814" cy="129.446" r="4" fill="#0" id="circle207"/>
	<circle cx="420.373" cy="138.343" r="4" fill="#0" id="circle208"/>
	<circle cx="423.042" cy="25.3525" r="4" fill="#0" id="circle209"/>
	<circle cx="423.042" cy="543.15" r="4" fill="#0" id="circle210"/>
	<circle cx="427.491" cy="485.32" r="4" fill="#0" id="circle211"/>
	<circle cx="427.491" cy="494.217" r="4" fill="#0" id="circle212"/>
	<circle cx="427.491" cy="503.114" r="4" fill="#0" id="circle213"/>
	<circle cx="427.491" cy="512.011" r="4" fill="#0" id="circle214"/>
	<circle cx="427.491" cy="520.908" r="4" fill="#0" id="circle215"/>
	<circle cx="429.27" cy="141.901" r="4" fill="#0" id="circle216"/>
	<circle cx="431.939" cy="528.915" r="4" fill="#0" id="circle217"/>
	<circle cx="431.939" cy="537.812" r="4" fill="#0" id="circle218"/>
	<circle cx="436.387" cy="485.32" r="4" fill="#0" id="circle219"/>
	<circle cx="438.167" cy="141.901" r="4" fill="#0" id="circle220"/>
	<circle cx="444.395" cy="480.872" r="4" fill="#0" id="circle221"/>
	<circle cx="447.064" cy="141.901" r="4" fill="#0" id="circle222"/>
	<circle cx="453.291" cy="480.872" r="4" fill="#0" id="circle223"/>
	<circle cx="454.181" cy="134.784" r="4" fill="#0" id="circle224"/>
	<circle cx="461.299" cy="128.556" r="4" fill="#0" id="circle225"/>
	<circle cx="462.188" cy="480.872" r="4" fill="#0" id="circle226"/>
	<circle cx="467.526" cy="121.439" r="4" fill="#0" id="circle227"/>
	<circle cx="471.085" cy="480.872" r="4" fill="#0" id="circle228"/>
	<circle cx="476.423" cy="116.99" r="4" fill="#0" id="circle229"/>
	<circle cx="479.982" cy="480.872" r="4" fill="#0" id="circle230"/>
	<circle cx="485.32" cy="112.542" r="4" fill="#0" id="circle231"/>
	<circle cx="488.879" cy="480.872" r="4" fill="#0" id="circle232"/>
	<circle cx="494.217" cy="108.093" r="4" fill="#0" id="circle233"/>
	<circle cx="497.776" cy="480.872" r="4" fill="#0" id="circle234"/>
	<circle cx="503.114" cy="103.645" r="4" fill="#0" id="circle235"/>
	<circle cx="506.673" cy="480.872" r="4" fill="#0" id="circle236"/>
	<circle cx="512.011" cy="101.865" r="4" fill="#0" id="circle237"/>
	<circle cx="515.57" cy="480.872" r="4" fill="#0" id="circle238"/>
	<circle cx="520.908" cy="101.865" r="4" fill="#0" id="circle239"/>
	<circle cx="524.466" cy="480.872" r="4" fill="#0" id="circle240"/>
	<circle cx="529.804" cy="104.535" r="4" fill="#0" id="circle241"/>
	<circle cx="533.363" cy="480.872" r="4" fill="#0" id="circle242"/>
	<circle cx="538.701" cy="106.314" r="4" fill="#0" id="circle243"/>
	<circle cx="542.26" cy="480.872" r="4" fill="#0" id="circle244"/>
	<circle cx="547.598" cy="108.983" r="4" fill="#0" id="circle245"/>
	<circle cx="551.157" cy="480.872" r="4" fill="#0" id="circle246"/>
	<circle cx="555.605" cy="113.431" r="4" fill="#0" id="circle247"/>
	<circle cx="560.054" cy="480.872" r="4" fill="#0" id="circle248"/>
	<circle cx="562.723" cy="119.659" r="4" fill="#0" id="circle249"/>
	<circle cx="568.951" cy="126.777" r="4" fill="#0" id="circle250"/>
	<circle cx="568.951" cy="480.872" r="4" fill="#0" id="circle251"/>
	<circle cx="569.84" cy="213.966" r="4" fill="#0" id="circle252"/>
	<circle cx="573.399" cy="134.784" r="4" fill="#0" id="circle253"/>
	<circle cx="574.289" cy="221.973" r="4" fill="#0" id="circle254"/>
	<circle cx="577.848" cy="209.517" r="4" fill="#0" id="circle255"/>
	<circle cx="577.848" cy="480.872" r="4" fill="#0" id="circle256"/>
	<circle cx="582.296" cy="137.453" r="4" fill="#0" id="circle257"/>
	<circle cx="583.186" cy="221.973" r="4" fill="#0" id="circle258"/>
	<circle cx="586.744" cy="206.848" r="4" fill="#0" id="circle259"/>
	<circle cx="586.744" cy="480.872" r="4" fill="#0" id="circle260"/>
	<circle cx="591.193" cy="137.453" r="4" fill="#0" id="circle261"/>
	<circle cx="592.083" cy="221.973" r="4" fill="#0" id="circle262"/>
	<circle cx="595.641" cy="202.4" r="4" fill="#0" id="circle263"/>
	<circle cx="595.641" cy="480.872" r="4" fill="#0" id="circle264"/>
	<circle cx="600.09" cy="137.453" r="4" fill="#0" id="circle265"/>
	<circle cx="600.979" cy="221.973" r="4" fill="#0" id="circle266"/>
	<circle cx="604.538" cy="200.621" r="4" fill="#0" id="circle267"/>
	<circle cx="604.538" cy="480.872" r="4" fill="#0" id="circle268"/>
	<circle cx="608.987" cy="137.453" r="4" fill="#0" id="circle269"/>
	<circle cx="609.876" cy="221.973" r="4" fill="#0" id="circle270"/>
	<circle cx="612.545" cy="196.172" r="4" fill="#0" id="circle271"/>
	<circle cx="613.435" cy="480.872" r="4" fill="#0" id="circle272"/>
	<circle cx="617.883" cy="137.453" r="4" fill="#0" id="circle273"/>
	<circle cx="618.773" cy="221.973" r="4" fill="#0" id="circle274"/>
	<circle cx="621.442" cy="196.172" r="4" fill="#0" id="circle275"/>
	<circle cx="622.332" cy="480.872" r="4" fill="#0" id="circle276"/>
	<circle cx="626.78" cy="137.453" r="4" fill="#0" id="circle277"/>
	<circle cx="627.67" cy="221.973" r="4" fill="#0" id="circle278"/>
	<circle cx="627.67" cy="369.661" r="4" fill="#0" id="circle279"/>
	<circle cx="627.67" cy="378.558" r="4" fill="#0" id="circle280"/>
	<circle cx="629.449" cy="191.724" r="4" fill="#0" id="circle281"/>
	<circle cx="631.229" cy="480.872" r="4" fill="#0" id="circle282"/>
	<circle cx="632.118" cy="386.565" r="4" fill="#0" id="circle283"/>
	<circle cx="634.787" cy="141.901" r="4" fill="#0" id="circle284"/>
	<circle cx="634.787" cy="363.433" r="4" fill="#0" id="circle285"/>
	<circle cx="636.567" cy="221.973" r="4" fill="#0" id="circle286"/>
	<circle cx="638.346" cy="190.834" r="4" fill="#0" id="circle287"/>
	<circle cx="639.236" cy="476.423" r="4" fill="#0" id="circle288"/>
	<circle cx="641.015" cy="386.565" r="4" fill="#0" id="circle289"/>
	<circle cx="642.795" cy="146.35" r="4" fill="#0" id="circle290"/>
	<circle cx="643.684" cy="360.764" r="4" fill="#0" id="circle291"/>
	<circle cx="645.464" cy="155.247" r="4" fill="#0" id="circle292"/>
	<circle cx="645.464" cy="221.973" r="4" fill="#0" id="circle293"/>
	<circle cx="647.243" cy="186.386" r="4" fill="#0" id="circle294"/>
	<circle cx="648.133" cy="476.423" r="4" fill="#0" id="circle295"/>
	<circle cx="649.912" cy="163.254" r="4" fill="#0" id="circle296"/>
	<circle cx="649.912" cy="389.234" r="4" fill="#0" id="circle297"/>
	<circle cx="651.691" cy="177.489" r="4" fill="#0" id="circle298"/>
	<circle cx="652.581" cy="358.985" r="4" fill="#0" id="circle299"/>
	<circle cx="654.361" cy="221.973" r="4" fill="#0" id="circle300"/>
	<circle cx="656.14" cy="396.352" r="4" fill="#0" id="circle301"/>
	<circle cx="657.03" cy="474.644" r="4" fill="#0" id="circle302"/>
	<circle cx="658.809" cy="405.248" r="4" fill="#0" id="circle303"/>
	<circle cx="661.478" cy="356.316" r="4" fill="#0" id="circle304"/>
	<circle cx="663.257" cy="221.973" r="4" fill="#0" id="circle305"/>
	<circle cx="663.257" cy="413.256" r="4" fill="#0" id="circle306"/>
	<circle cx="665.926" cy="471.975" r="4" fill="#0" id="circle307"/>
	<circle cx="670.375" cy="354.536" r="4" fill="#0" id="circle308"/>
	<circle cx="670.375" cy="418.594" r="4" fill="#0" id="circle309"/>
	<circle cx="672.154" cy="221.973" r="4" fill="#0" id="circle310"/>
	<circle cx="674.823" cy="470.196" r="4" fill="#0" id="circle311"/>
	<circle cx="676.603" cy="425.711" r="4" fill="#0" id="circle312"/>
	<circle cx="679.272" cy="350.088" r="4" fill="#0" id="circle313"/>
	<circle cx="681.051" cy="221.973" r="4" fill="#0" id="circle314"/>
	<circle cx="681.051" cy="433.718" r="4" fill="#0" id="circle315"/>
	<circle cx="681.051" cy="463.078" r="4" fill="#0" id="circle316"/>
	<circle cx="685.5" cy="441.726" r="4" fill="#0" id="circle317"/>
	<circle cx="685.5" cy="450.622" r="4" fill="#0" id="circle318"/>
	<circle cx="688.169" cy="347.419" r="4" fill="#0" id="circle319"/>
	<circle cx="689.058" cy="217.525" r="4" fill="#0" id="circle320"/>
	<circle cx="697.065" cy="347.419" r="4" fill="#0" id="circle321"/>
	<circle cx="697.955" cy="217.525" r="4" fill="#0" id="circle322"/>
	<circle cx="705.073" cy="342.97" r="4" fill="#0" id="circle323"/>
	<circle cx="706.852" cy="217.525" r="4" fill="#0" id="circle324"/>
	<circle cx="713.97" cy="342.97" r="4" fill="#0" id="circle325"/>
	<circle cx="715.749" cy="217.525" r="4" fill="#0" id="circle326"/>
	<circle cx="722.866" cy="342.081" r="4" fill="#0" id="circle327"/>
	<circle cx="724.646" cy="217.525" r="4" fill="#0" id="circle328"/>
	<circle cx="731.763" cy="337.632" r="4" fill="#0" id="circle329"/>
	<circle cx="733.543" cy="217.525" r="4" fill="#0" id="circle330"/>
	<circle cx="740.66" cy="333.184" r="4" fill="#0" id="circle331"/>
	<circle cx="742.439" cy="217.525" r="4" fill="#0" id="circle332"/>
	<circle cx="749.557" cy="328.735" r="4" fill="#0" id="circle333"/>
	<circle cx="751.336" cy="217.525" r="4" fill="#0" id="circle334"/>
	<circle cx="758.454" cy="324.287" r="4" fill="#0" id="circle335"/>
	<circle cx="760.233" cy="217.525" r="4" fill="#0" id="circle336"/>
	<circle cx="767.351" cy="320.728" r="4" fill="#0" id="circle337"/>
	<circle cx="769.13" cy="217.525" r="4" fill="#0" id="circle338"/>
	<circle cx="776.248" cy="319.839" r="4" fill="#0" id="circle339"/>
	<circle cx="778.027" cy="217.525" r="4" fill="#0" id="circle340"/>
	<circle cx="785.144" cy="315.39" r="4" fill="#0" id="circle341"/>
	<circle cx="786.924" cy="217.525" r="4" fill="#0" id="circle342"/>
	<circle cx="794.041" cy="310.942" r="4" fill="#0" id="circle343"/>
	<circle cx="795.821" cy="215.745" r="4" fill="#0" id="circle344"/>
	<circle cx="801.159" cy="302.935" r="4" fill="#0" id="circle345"/>
	<circle cx="804.717" cy="213.076" r="4" fill="#0" id="circle346"/>
	<circle cx="810.056" cy="298.486" r="4" fill="#0" id="circle347"/>
	<circle cx="813.614" cy="213.076" r="4" fill="#0" id="circle348"/>
	<circle cx="818.952" cy="294.038" r="4" fill="#0" id="circle349"/>
	<circle cx="821.622" cy="208.628" r="4" fill="#0" id="circle350"/>
	<circle cx="827.849" cy="289.589" r="4" fill="#0" id="circle351"/>
	<circle cx="830.518" cy="208.628" r="4" fill="#0" id="circle352"/>
	<circle cx="836.746" cy="285.141" r="4" fill="#0" id="circle353"/>
	<circle cx="838.526" cy="204.179" r="4" fill="#0" id="circle354"/>
	<circle cx="844.753" cy="280.692" r="4" fill="#0" id="circle355"/>
	<circle cx="847.422" cy="204.179" r="4" fill="#0" id="circle356"/>
	<circle cx="852.761" cy="276.244" r="4" fill="#0" id="circle357"/>
	<circle cx="856.319" cy="199.731" r="4" fill="#0" id="circle358"/>
	<circle cx="860.768" cy="271.796" r="4" fill="#0" id="circle359"/>
	<circle cx="865.216" cy="199.731" r="4" fill="#0" id="circle360"/>
	<circle cx="868.775" cy="267.347" r="4" fill="#0" id="circle361"/>
	<circle cx="874.113" cy="199.731" r="4" fill="#0" id="circle362"/>
	<circle cx="877.672" cy="267.347" r="4" fill="#0" id="circle363"/>
	<circle cx="883.01" cy="199.731" r="4" fill="#0" id="circle364"/>
	<circle cx="885.679" cy="262.899" r="4" fill="#0" id="circle365"/>
	<circle cx="891.907" cy="199.731" r="4" fill="#0" id="circle366"/>
	<circle cx="893.686" cy="258.45" r="4" fill="#0" id="circle367"/>
	<circle cx="900.804" cy="199.731" r="4" fill="#0" id="circle368"/>
	<circle cx="901.693" cy="254.002" r="4" fill="#0" id="circle369"/>
	<circle cx="909.7" cy="199.731" r="4" fill="#0" id="circle370"/>
	<circle cx="910.59" cy="252.222" r="4" fill="#0" id="circle371"/>
	<circle cx="918.597" cy="199.731" r="4" fill="#0" id="circle372"/>
	<circle cx="919.487" cy="249.553" r="4" fill="#0" id="circle373"/>
	<circle cx="927.494" cy="199.731" r="4" fill="#0" id="circle374"/>
	<circle cx="928.384" cy="247.774" r="4" fill="#0" id="circle375"/>
	<circle cx="936.391" cy="199.731" r="4" fill="#0" id="circle376"/>
	<circle cx="937.281" cy="243.326" r="4" fill="#0" id="circle377"/>
	<circle cx="945.288" cy="199.731" r="4" fill="#0" id="circle378"/>
	<circle cx="946.178" cy="240.657" r="4" fill="#0" id="circle379"/>
	<circle cx="954.185" cy="199.731" r="4" fill="#0" id="circle380"/>
	<circle cx="954.185" cy="236.208" r="4" fill="#0" id="circle381"/>
	<circle cx="963.082" cy="199.731" r="4" fill="#0" id="circle382"/>
	<circle cx="963.082" cy="235.318" r="4" fill="#0" id="circle383"/>
	<circle cx="971.978" cy="199.731" r="4" fill="#0" id="circle384"/>
	<circle cx="971.978" cy="231.76" r="4" fill="#0" id="circle385"/>
	<circle cx="979.986" cy="227.311" r="4" fill="#0" id="circle386"/>
	<circle cx="980.875" cy="199.731" r="4" fill="#0" id="circle387"/>
	<circle cx="987.993" cy="222.863" r="4" fill="#0" id="circle388"/>
	<circle cx="989.772" cy="199.731" r="4" fill="#0" id="circle389"/>
	<circle cx="995.11" cy="216.635" r="4" fill="#0" id="circle390"/>
	<circle cx="996" cy="206.848" r="4" fill="#0" id="circle391"/>
	</g>
</svg>