<?xml version="1.0" encoding="UTF-8" standalone="no"?>
<!-- Created with CurveBenchmark -->
<svg
	xmlns:dc="http://purl.org/dc/elements/1.1/"
	xmlns:cc="http://creativecommons.org/ns#"
	xmlns:rdf="http://www.w3.org/1999/02/22-rdf-syntax-ns#"
	xmlns:svg="http://www.w3.org/2000/svg"
	xmlns="http://www.w3.org/2000/svg"
	xmlns:sodipodi="http://sodipodi.sourceforge.net/DTD/sodipodi-0.dtd"
	xmlns:inkscape="http://www.inkscape.org/namespaces/inkscape"
	width="1000"
	height="1000"
	id="svg2"
	version="1.1"
	sodipodi:docname="manifold/discur-television205.png.txt">
<defs
	id="defs4" />
<metadata
	id="metadata7">
	<rdf:RDF>
		<cc:Work
			rdf:about="">
			<dc:format>image/svg+xml</dc:format>
			<dc:type
				rdf:resource="http://purl.org/dc/dcmitype/StillImage" />
			<dc:title></dc:title>
		</cc:Work>
	</rdf:RDF>
</metadata>
<g
	inkscape:label="Layer 1"
	inkscape:groupmode="layer"
	id="layer1">
	<path style="fill:none;stroke:red;stroke-width:1px;stroke-linecap:butt;stroke-linejoin:miter;stroke-opacity:1" d="M 4,757.003 4,789.743 z" id="boundary" inkscape:connector-curvature="0" />
	<path style="fill:none;stroke:red;stroke-width:1px;stroke-linecap:butt;stroke-linejoin:miter;stroke-opacity:1" d="M 4,757.003 36.7393,750.455 z" id="boundary" inkscape:connector-curvature="0" />
	<path style="fill:none;stroke:red;stroke-width:1px;stroke-linecap:butt;stroke-linejoin:miter;stroke-opacity:1" d="M 4,789.743 20.3696,819.208 z" id="boundary" inkscape:connector-curvature="0" />
	<path style="fill:none;stroke:red;stroke-width:1px;stroke-linecap:butt;stroke-linejoin:miter;stroke-opacity:1" d="M 20.3696,819.208 53.1089,819.208 z" id="boundary" inkscape:connector-curvature="0" />
	<path style="fill:none;stroke:red;stroke-width:1px;stroke-linecap:butt;stroke-linejoin:miter;stroke-opacity:1" d="M 36.7393,750.455 62.9307,770.099 z" id="boundary" inkscape:connector-curvature="0" />
	<path style="fill:none;stroke:red;stroke-width:1px;stroke-linecap:butt;stroke-linejoin:miter;stroke-opacity:1" d="M 53.1089,819.208 85.8482,819.208 z" id="boundary" inkscape:connector-curvature="0" />
	<path style="fill:none;stroke:red;stroke-width:1px;stroke-linecap:butt;stroke-linejoin:miter;stroke-opacity:1" d="M 62.9307,770.099 89.1221,750.455 z" id="boundary" inkscape:connector-curvature="0" />
	<path style="fill:none;stroke:red;stroke-width:1px;stroke-linecap:butt;stroke-linejoin:miter;stroke-opacity:1" d="M 85.8482,819.208 118.587,819.208 z" id="boundary" inkscape:connector-curvature="0" />
	<path style="fill:none;stroke:red;stroke-width:1px;stroke-linecap:butt;stroke-linejoin:miter;stroke-opacity:1" d="M 89.1221,560.568 89.1221,658.785 z" id="boundary" inkscape:connector-curvature="0" />
	<path style="fill:none;stroke:red;stroke-width:1px;stroke-linecap:butt;stroke-linejoin:miter;stroke-opacity:1" d="M 89.1221,750.455 115.314,770.099 z" id="boundary" inkscape:connector-curvature="0" />
	<path style="fill:none;stroke:red;stroke-width:1px;stroke-linecap:butt;stroke-linejoin:miter;stroke-opacity:1" d="M 115.314,681.703 131.683,652.238 z" id="boundary" inkscape:connector-curvature="0" />
	<path style="fill:none;stroke:red;stroke-width:1px;stroke-linecap:butt;stroke-linejoin:miter;stroke-opacity:1" d="M 115.314,681.703 148.053,681.703 z" id="boundary" inkscape:connector-curvature="0" />
	<path style="fill:none;stroke:red;stroke-width:1px;stroke-linecap:butt;stroke-linejoin:miter;stroke-opacity:1" d="M 115.314,770.099 141.505,750.455 z" id="boundary" inkscape:connector-curvature="0" />
	<path style="fill:none;stroke:red;stroke-width:1px;stroke-linecap:butt;stroke-linejoin:miter;stroke-opacity:1" d="M 118.587,576.937 134.957,547.472 z" id="boundary" inkscape:connector-curvature="0" />
	<path style="fill:none;stroke:red;stroke-width:1px;stroke-linecap:butt;stroke-linejoin:miter;stroke-opacity:1" d="M 118.587,576.937 151.327,576.937 z" id="boundary" inkscape:connector-curvature="0" />
	<path style="fill:none;stroke:red;stroke-width:1px;stroke-linecap:butt;stroke-linejoin:miter;stroke-opacity:1" d="M 118.587,819.208 151.327,832.304 z" id="boundary" inkscape:connector-curvature="0" />
	<path style="fill:none;stroke:red;stroke-width:1px;stroke-linecap:butt;stroke-linejoin:miter;stroke-opacity:1" d="M 131.683,652.238 164.422,652.238 z" id="boundary" inkscape:connector-curvature="0" />
	<path style="fill:none;stroke:red;stroke-width:1px;stroke-linecap:butt;stroke-linejoin:miter;stroke-opacity:1" d="M 134.957,17.0957 134.957,49.835 z" id="boundary" inkscape:connector-curvature="0" />
	<path style="fill:none;stroke:red;stroke-width:1px;stroke-linecap:butt;stroke-linejoin:miter;stroke-opacity:1" d="M 134.957,17.0957 167.696,4 z" id="boundary" inkscape:connector-curvature="0" />
	<path style="fill:none;stroke:red;stroke-width:1px;stroke-linecap:butt;stroke-linejoin:miter;stroke-opacity:1" d="M 134.957,49.835 134.957,82.5743 z" id="boundary" inkscape:connector-curvature="0" />
	<path style="fill:none;stroke:red;stroke-width:1px;stroke-linecap:butt;stroke-linejoin:miter;stroke-opacity:1" d="M 134.957,82.5743 134.957,115.314 z" id="boundary" inkscape:connector-curvature="0" />
	<path style="fill:none;stroke:red;stroke-width:1px;stroke-linecap:butt;stroke-linejoin:miter;stroke-opacity:1" d="M 134.957,115.314 134.957,148.053 z" id="boundary" inkscape:connector-curvature="0" />
	<path style="fill:none;stroke:red;stroke-width:1px;stroke-linecap:butt;stroke-linejoin:miter;stroke-opacity:1" d="M 134.957,148.053 134.957,180.792 z" id="boundary" inkscape:connector-curvature="0" />
	<path style="fill:none;stroke:red;stroke-width:1px;stroke-linecap:butt;stroke-linejoin:miter;stroke-opacity:1" d="M 134.957,180.792 134.957,213.531 z" id="boundary" inkscape:connector-curvature="0" />
	<path style="fill:none;stroke:red;stroke-width:1px;stroke-linecap:butt;stroke-linejoin:miter;stroke-opacity:1" d="M 134.957,213.531 134.957,246.271 z" id="boundary" inkscape:connector-curvature="0" />
	<path style="fill:none;stroke:red;stroke-width:1px;stroke-linecap:butt;stroke-linejoin:miter;stroke-opacity:1" d="M 134.957,246.271 134.957,279.01 z" id="boundary" inkscape:connector-curvature="0" />
	<path style="fill:none;stroke:red;stroke-width:1px;stroke-linecap:butt;stroke-linejoin:miter;stroke-opacity:1" d="M 134.957,279.01 134.957,311.749 z" id="boundary" inkscape:connector-curvature="0" />
	<path style="fill:none;stroke:red;stroke-width:1px;stroke-linecap:butt;stroke-linejoin:miter;stroke-opacity:1" d="M 134.957,311.749 134.957,344.488 z" id="boundary" inkscape:connector-curvature="0" />
	<path style="fill:none;stroke:red;stroke-width:1px;stroke-linecap:butt;stroke-linejoin:miter;stroke-opacity:1" d="M 134.957,344.488 134.957,377.228 z" id="boundary" inkscape:connector-curvature="0" />
	<path style="fill:none;stroke:red;stroke-width:1px;stroke-linecap:butt;stroke-linejoin:miter;stroke-opacity:1" d="M 134.957,377.228 134.957,409.967 z" id="boundary" inkscape:connector-curvature="0" />
	<path style="fill:none;stroke:red;stroke-width:1px;stroke-linecap:butt;stroke-linejoin:miter;stroke-opacity:1" d="M 134.957,409.967 151.327,439.432 z" id="boundary" inkscape:connector-curvature="0" />
	<path style="fill:none;stroke:red;stroke-width:1px;stroke-linecap:butt;stroke-linejoin:miter;stroke-opacity:1" d="M 134.957,547.472 167.696,547.472 z" id="boundary" inkscape:connector-curvature="0" />
	<path style="fill:none;stroke:red;stroke-width:1px;stroke-linecap:butt;stroke-linejoin:miter;stroke-opacity:1" d="M 141.505,750.455 174.244,750.455 z" id="boundary" inkscape:connector-curvature="0" />
	<path style="fill:none;stroke:red;stroke-width:1px;stroke-linecap:butt;stroke-linejoin:miter;stroke-opacity:1" d="M 148.053,681.703 180.792,681.703 z" id="boundary" inkscape:connector-curvature="0" />
	<path style="fill:none;stroke:red;stroke-width:1px;stroke-linecap:butt;stroke-linejoin:miter;stroke-opacity:1" d="M 151.327,439.432 184.066,439.432 z" id="boundary" inkscape:connector-curvature="0" />
	<path style="fill:none;stroke:red;stroke-width:1px;stroke-linecap:butt;stroke-linejoin:miter;stroke-opacity:1" d="M 151.327,576.937 184.066,576.937 z" id="boundary" inkscape:connector-curvature="0" />
	<path style="fill:none;stroke:red;stroke-width:1px;stroke-linecap:butt;stroke-linejoin:miter;stroke-opacity:1" d="M 151.327,832.304 184.066,819.208 z" id="boundary" inkscape:connector-curvature="0" />
	<path style="fill:none;stroke:red;stroke-width:1px;stroke-linecap:butt;stroke-linejoin:miter;stroke-opacity:1" d="M 164.422,652.238 197.162,652.238 z" id="boundary" inkscape:connector-curvature="0" />
	<path style="fill:none;stroke:red;stroke-width:1px;stroke-linecap:butt;stroke-linejoin:miter;stroke-opacity:1" d="M 167.696,4 200.436,4 z" id="boundary" inkscape:connector-curvature="0" />
	<path style="fill:none;stroke:red;stroke-width:1px;stroke-linecap:butt;stroke-linejoin:miter;stroke-opacity:1" d="M 167.696,547.472 200.436,547.472 z" id="boundary" inkscape:connector-curvature="0" />
	<path style="fill:none;stroke:red;stroke-width:1px;stroke-linecap:butt;stroke-linejoin:miter;stroke-opacity:1" d="M 174.244,750.455 206.983,750.455 z" id="boundary" inkscape:connector-curvature="0" />
	<path style="fill:none;stroke:red;stroke-width:1px;stroke-linecap:butt;stroke-linejoin:miter;stroke-opacity:1" d="M 180.792,681.703 213.531,681.703 z" id="boundary" inkscape:connector-curvature="0" />
	<path style="fill:none;stroke:red;stroke-width:1px;stroke-linecap:butt;stroke-linejoin:miter;stroke-opacity:1" d="M 184.066,439.432 216.805,439.432 z" id="boundary" inkscape:connector-curvature="0" />
	<path style="fill:none;stroke:red;stroke-width:1px;stroke-linecap:butt;stroke-linejoin:miter;stroke-opacity:1" d="M 184.066,576.937 216.805,576.937 z" id="boundary" inkscape:connector-curvature="0" />
	<path style="fill:none;stroke:red;stroke-width:1px;stroke-linecap:butt;stroke-linejoin:miter;stroke-opacity:1" d="M 184.066,819.208 216.805,819.208 z" id="boundary" inkscape:connector-curvature="0" />
	<path style="fill:none;stroke:red;stroke-width:1px;stroke-linecap:butt;stroke-linejoin:miter;stroke-opacity:1" d="M 197.162,652.238 229.901,652.238 z" id="boundary" inkscape:connector-curvature="0" />
	<path style="fill:none;stroke:red;stroke-width:1px;stroke-linecap:butt;stroke-linejoin:miter;stroke-opacity:1" d="M 200.436,4 233.175,4 z" id="boundary" inkscape:connector-curvature="0" />
	<path style="fill:none;stroke:red;stroke-width:1px;stroke-linecap:butt;stroke-linejoin:miter;stroke-opacity:1" d="M 200.436,547.472 233.175,547.472 z" id="boundary" inkscape:connector-curvature="0" />
	<path style="fill:none;stroke:red;stroke-width:1px;stroke-linecap:butt;stroke-linejoin:miter;stroke-opacity:1" d="M 206.983,750.455 239.723,750.455 z" id="boundary" inkscape:connector-curvature="0" />
	<path style="fill:none;stroke:red;stroke-width:1px;stroke-linecap:butt;stroke-linejoin:miter;stroke-opacity:1" d="M 213.531,681.703 246.271,681.703 z" id="boundary" inkscape:connector-curvature="0" />
	<path style="fill:none;stroke:red;stroke-width:1px;stroke-linecap:butt;stroke-linejoin:miter;stroke-opacity:1" d="M 216.805,439.432 249.545,439.432 z" id="boundary" inkscape:connector-curvature="0" />
	<path style="fill:none;stroke:red;stroke-width:1px;stroke-linecap:butt;stroke-linejoin:miter;stroke-opacity:1" d="M 216.805,576.937 249.545,576.937 z" id="boundary" inkscape:connector-curvature="0" />
	<path style="fill:none;stroke:red;stroke-width:1px;stroke-linecap:butt;stroke-linejoin:miter;stroke-opacity:1" d="M 216.805,819.208 249.545,819.208 z" id="boundary" inkscape:connector-curvature="0" />
	<path style="fill:none;stroke:red;stroke-width:1px;stroke-linecap:butt;stroke-linejoin:miter;stroke-opacity:1" d="M 229.901,652.238 262.64,652.238 z" id="boundary" inkscape:connector-curvature="0" />
	<path style="fill:none;stroke:red;stroke-width:1px;stroke-linecap:butt;stroke-linejoin:miter;stroke-opacity:1" d="M 233.175,4 265.914,4 z" id="boundary" inkscape:connector-curvature="0" />
	<path style="fill:none;stroke:red;stroke-width:1px;stroke-linecap:butt;stroke-linejoin:miter;stroke-opacity:1" d="M 233.175,547.472 265.914,547.472 z" id="boundary" inkscape:connector-curvature="0" />
	<path style="fill:none;stroke:red;stroke-width:1px;stroke-linecap:butt;stroke-linejoin:miter;stroke-opacity:1" d="M 239.723,750.455 272.462,750.455 z" id="boundary" inkscape:connector-curvature="0" />
	<path style="fill:none;stroke:red;stroke-width:1px;stroke-linecap:butt;stroke-linejoin:miter;stroke-opacity:1" d="M 246.271,681.703 279.01,681.703 z" id="boundary" inkscape:connector-curvature="0" />
	<path style="fill:none;stroke:red;stroke-width:1px;stroke-linecap:butt;stroke-linejoin:miter;stroke-opacity:1" d="M 249.545,439.432 282.284,439.432 z" id="boundary" inkscape:connector-curvature="0" />
	<path style="fill:none;stroke:red;stroke-width:1px;stroke-linecap:butt;stroke-linejoin:miter;stroke-opacity:1" d="M 249.545,576.937 282.284,576.937 z" id="boundary" inkscape:connector-curvature="0" />
	<path style="fill:none;stroke:red;stroke-width:1px;stroke-linecap:butt;stroke-linejoin:miter;stroke-opacity:1" d="M 249.545,819.208 282.284,819.208 z" id="boundary" inkscape:connector-curvature="0" />
	<path style="fill:none;stroke:red;stroke-width:1px;stroke-linecap:butt;stroke-linejoin:miter;stroke-opacity:1" d="M 262.64,652.238 295.38,652.238 z" id="boundary" inkscape:connector-curvature="0" />
	<path style="fill:none;stroke:red;stroke-width:1px;stroke-linecap:butt;stroke-linejoin:miter;stroke-opacity:1" d="M 265.914,4 298.653,4 z" id="boundary" inkscape:connector-curvature="0" />
	<path style="fill:none;stroke:red;stroke-width:1px;stroke-linecap:butt;stroke-linejoin:miter;stroke-opacity:1" d="M 265.914,547.472 298.653,547.472 z" id="boundary" inkscape:connector-curvature="0" />
	<path style="fill:none;stroke:red;stroke-width:1px;stroke-linecap:butt;stroke-linejoin:miter;stroke-opacity:1" d="M 272.462,750.455 305.201,750.455 z" id="boundary" inkscape:connector-curvature="0" />
	<path style="fill:none;stroke:red;stroke-width:1px;stroke-linecap:butt;stroke-linejoin:miter;stroke-opacity:1" d="M 279.01,681.703 311.749,681.703 z" id="boundary" inkscape:connector-curvature="0" />
	<path style="fill:none;stroke:red;stroke-width:1px;stroke-linecap:butt;stroke-linejoin:miter;stroke-opacity:1" d="M 282.284,439.432 315.023,439.432 z" id="boundary" inkscape:connector-curvature="0" />
	<path style="fill:none;stroke:red;stroke-width:1px;stroke-linecap:butt;stroke-linejoin:miter;stroke-opacity:1" d="M 282.284,576.937 315.023,576.937 z" id="boundary" inkscape:connector-curvature="0" />
	<path style="fill:none;stroke:red;stroke-width:1px;stroke-linecap:butt;stroke-linejoin:miter;stroke-opacity:1" d="M 282.284,819.208 315.023,819.208 z" id="boundary" inkscape:connector-curvature="0" />
	<path style="fill:none;stroke:red;stroke-width:1px;stroke-linecap:butt;stroke-linejoin:miter;stroke-opacity:1" d="M 295.38,652.238 328.119,652.238 z" id="boundary" inkscape:connector-curvature="0" />
	<path style="fill:none;stroke:red;stroke-width:1px;stroke-linecap:butt;stroke-linejoin:miter;stroke-opacity:1" d="M 298.653,4 331.393,4 z" id="boundary" inkscape:connector-curvature="0" />
	<path style="fill:none;stroke:red;stroke-width:1px;stroke-linecap:butt;stroke-linejoin:miter;stroke-opacity:1" d="M 298.653,547.472 331.393,547.472 z" id="boundary" inkscape:connector-curvature="0" />
	<path style="fill:none;stroke:red;stroke-width:1px;stroke-linecap:butt;stroke-linejoin:miter;stroke-opacity:1" d="M 305.201,750.455 337.941,750.455 z" id="boundary" inkscape:connector-curvature="0" />
	<path style="fill:none;stroke:red;stroke-width:1px;stroke-linecap:butt;stroke-linejoin:miter;stroke-opacity:1" d="M 311.749,681.703 344.488,681.703 z" id="boundary" inkscape:connector-curvature="0" />
	<path style="fill:none;stroke:red;stroke-width:1px;stroke-linecap:butt;stroke-linejoin:miter;stroke-opacity:1" d="M 315.023,439.432 347.762,439.432 z" id="boundary" inkscape:connector-curvature="0" />
	<path style="fill:none;stroke:red;stroke-width:1px;stroke-linecap:butt;stroke-linejoin:miter;stroke-opacity:1" d="M 315.023,576.937 347.762,576.937 z" id="boundary" inkscape:connector-curvature="0" />
	<path style="fill:none;stroke:red;stroke-width:1px;stroke-linecap:butt;stroke-linejoin:miter;stroke-opacity:1" d="M 315.023,819.208 347.762,819.208 z" id="boundary" inkscape:connector-curvature="0" />
	<path style="fill:none;stroke:red;stroke-width:1px;stroke-linecap:butt;stroke-linejoin:miter;stroke-opacity:1" d="M 328.119,652.238 360.858,652.238 z" id="boundary" inkscape:connector-curvature="0" />
	<path style="fill:none;stroke:red;stroke-width:1px;stroke-linecap:butt;stroke-linejoin:miter;stroke-opacity:1" d="M 331.393,4 364.132,4 z" id="boundary" inkscape:connector-curvature="0" />
	<path style="fill:none;stroke:red;stroke-width:1px;stroke-linecap:butt;stroke-linejoin:miter;stroke-opacity:1" d="M 331.393,547.472 364.132,547.472 z" id="boundary" inkscape:connector-curvature="0" />
	<path style="fill:none;stroke:red;stroke-width:1px;stroke-linecap:butt;stroke-linejoin:miter;stroke-opacity:1" d="M 337.941,750.455 370.68,734.086 z" id="boundary" inkscape:connector-curvature="0" />
	<path style="fill:none;stroke:red;stroke-width:1px;stroke-linecap:butt;stroke-linejoin:miter;stroke-opacity:1" d="M 344.488,681.703 370.68,701.347 z" id="boundary" inkscape:connector-curvature="0" />
	<path style="fill:none;stroke:red;stroke-width:1px;stroke-linecap:butt;stroke-linejoin:miter;stroke-opacity:1" d="M 347.762,439.432 370.68,465.624 z" id="boundary" inkscape:connector-curvature="0" />
	<path style="fill:none;stroke:red;stroke-width:1px;stroke-linecap:butt;stroke-linejoin:miter;stroke-opacity:1" d="M 347.762,576.937 364.132,547.472 z" id="boundary" inkscape:connector-curvature="0" />
	<path style="fill:none;stroke:red;stroke-width:1px;stroke-linecap:butt;stroke-linejoin:miter;stroke-opacity:1" d="M 347.762,819.208 380.502,819.208 z" id="boundary" inkscape:connector-curvature="0" />
	<path style="fill:none;stroke:red;stroke-width:1px;stroke-linecap:butt;stroke-linejoin:miter;stroke-opacity:1" d="M 360.858,652.238 370.68,603.129 z" id="boundary" inkscape:connector-curvature="0" />
	<path style="fill:none;stroke:red;stroke-width:1px;stroke-linecap:butt;stroke-linejoin:miter;stroke-opacity:1" d="M 364.132,4 396.871,4 z" id="boundary" inkscape:connector-curvature="0" />
	<path style="fill:none;stroke:red;stroke-width:1px;stroke-linecap:butt;stroke-linejoin:miter;stroke-opacity:1" d="M 370.68,465.624 370.68,498.363 z" id="boundary" inkscape:connector-curvature="0" />
	<path style="fill:none;stroke:red;stroke-width:1px;stroke-linecap:butt;stroke-linejoin:miter;stroke-opacity:1" d="M 370.68,701.347 370.68,734.086 z" id="boundary" inkscape:connector-curvature="0" />
	<path style="fill:none;stroke:red;stroke-width:1px;stroke-linecap:butt;stroke-linejoin:miter;stroke-opacity:1" d="M 380.502,819.208 413.241,819.208 z" id="boundary" inkscape:connector-curvature="0" />
	<path style="fill:none;stroke:red;stroke-width:1px;stroke-linecap:butt;stroke-linejoin:miter;stroke-opacity:1" d="M 396.871,4 429.611,4 z" id="boundary" inkscape:connector-curvature="0" />
	<path style="fill:none;stroke:red;stroke-width:1px;stroke-linecap:butt;stroke-linejoin:miter;stroke-opacity:1" d="M 413.241,819.208 445.98,819.208 z" id="boundary" inkscape:connector-curvature="0" />
	<path style="fill:none;stroke:red;stroke-width:1px;stroke-linecap:butt;stroke-linejoin:miter;stroke-opacity:1" d="M 429.611,4 462.35,4 z" id="boundary" inkscape:connector-curvature="0" />
	<path style="fill:none;stroke:red;stroke-width:1px;stroke-linecap:butt;stroke-linejoin:miter;stroke-opacity:1" d="M 445.98,819.208 478.719,819.208 z" id="boundary" inkscape:connector-curvature="0" />
	<path style="fill:none;stroke:red;stroke-width:1px;stroke-linecap:butt;stroke-linejoin:miter;stroke-opacity:1" d="M 462.35,4 495.089,4 z" id="boundary" inkscape:connector-curvature="0" />
	<path style="fill:none;stroke:red;stroke-width:1px;stroke-linecap:butt;stroke-linejoin:miter;stroke-opacity:1" d="M 478.719,819.208 511.459,819.208 z" id="boundary" inkscape:connector-curvature="0" />
	<path style="fill:none;stroke:red;stroke-width:1px;stroke-linecap:butt;stroke-linejoin:miter;stroke-opacity:1" d="M 495.089,4 527.828,4 z" id="boundary" inkscape:connector-curvature="0" />
	<path style="fill:none;stroke:red;stroke-width:1px;stroke-linecap:butt;stroke-linejoin:miter;stroke-opacity:1" d="M 511.459,819.208 544.198,819.208 z" id="boundary" inkscape:connector-curvature="0" />
	<path style="fill:none;stroke:red;stroke-width:1px;stroke-linecap:butt;stroke-linejoin:miter;stroke-opacity:1" d="M 527.828,4 560.568,4 z" id="boundary" inkscape:connector-curvature="0" />
	<path style="fill:none;stroke:red;stroke-width:1px;stroke-linecap:butt;stroke-linejoin:miter;stroke-opacity:1" d="M 544.198,819.208 576.937,819.208 z" id="boundary" inkscape:connector-curvature="0" />
	<path style="fill:none;stroke:red;stroke-width:1px;stroke-linecap:butt;stroke-linejoin:miter;stroke-opacity:1" d="M 560.568,4 593.307,4 z" id="boundary" inkscape:connector-curvature="0" />
	<path style="fill:none;stroke:red;stroke-width:1px;stroke-linecap:butt;stroke-linejoin:miter;stroke-opacity:1" d="M 563.842,442.706 563.842,475.446 z" id="boundary" inkscape:connector-curvature="0" />
	<path style="fill:none;stroke:red;stroke-width:1px;stroke-linecap:butt;stroke-linejoin:miter;stroke-opacity:1" d="M 563.842,442.706 596.581,439.432 z" id="boundary" inkscape:connector-curvature="0" />
	<path style="fill:none;stroke:red;stroke-width:1px;stroke-linecap:butt;stroke-linejoin:miter;stroke-opacity:1" d="M 563.842,475.446 563.842,508.185 z" id="boundary" inkscape:connector-curvature="0" />
	<path style="fill:none;stroke:red;stroke-width:1px;stroke-linecap:butt;stroke-linejoin:miter;stroke-opacity:1" d="M 563.842,508.185 563.842,540.924 z" id="boundary" inkscape:connector-curvature="0" />
	<path style="fill:none;stroke:red;stroke-width:1px;stroke-linecap:butt;stroke-linejoin:miter;stroke-opacity:1" d="M 563.842,540.924 563.842,580.211 z" id="boundary" inkscape:connector-curvature="0" />
	<path style="fill:none;stroke:red;stroke-width:1px;stroke-linecap:butt;stroke-linejoin:miter;stroke-opacity:1" d="M 563.842,580.211 563.842,612.95 z" id="boundary" inkscape:connector-curvature="0" />
	<path style="fill:none;stroke:red;stroke-width:1px;stroke-linecap:butt;stroke-linejoin:miter;stroke-opacity:1" d="M 563.842,612.95 563.842,645.69 z" id="boundary" inkscape:connector-curvature="0" />
	<path style="fill:none;stroke:red;stroke-width:1px;stroke-linecap:butt;stroke-linejoin:miter;stroke-opacity:1" d="M 563.842,645.69 596.581,652.238 z" id="boundary" inkscape:connector-curvature="0" />
	<path style="fill:none;stroke:red;stroke-width:1px;stroke-linecap:butt;stroke-linejoin:miter;stroke-opacity:1" d="M 563.842,684.977 563.842,717.716 z" id="boundary" inkscape:connector-curvature="0" />
	<path style="fill:none;stroke:red;stroke-width:1px;stroke-linecap:butt;stroke-linejoin:miter;stroke-opacity:1" d="M 563.842,684.977 612.95,681.703 z" id="boundary" inkscape:connector-curvature="0" />
	<path style="fill:none;stroke:red;stroke-width:1px;stroke-linecap:butt;stroke-linejoin:miter;stroke-opacity:1" d="M 563.842,717.716 567.116,750.455 z" id="boundary" inkscape:connector-curvature="0" />
	<path style="fill:none;stroke:red;stroke-width:1px;stroke-linecap:butt;stroke-linejoin:miter;stroke-opacity:1" d="M 567.116,750.455 593.307,770.099 z" id="boundary" inkscape:connector-curvature="0" />
	<path style="fill:none;stroke:red;stroke-width:1px;stroke-linecap:butt;stroke-linejoin:miter;stroke-opacity:1" d="M 576.937,819.208 609.677,819.208 z" id="boundary" inkscape:connector-curvature="0" />
	<path style="fill:none;stroke:red;stroke-width:1px;stroke-linecap:butt;stroke-linejoin:miter;stroke-opacity:1" d="M 593.307,4 626.046,4 z" id="boundary" inkscape:connector-curvature="0" />
	<path style="fill:none;stroke:red;stroke-width:1px;stroke-linecap:butt;stroke-linejoin:miter;stroke-opacity:1" d="M 593.307,770.099 619.498,750.455 z" id="boundary" inkscape:connector-curvature="0" />
	<path style="fill:none;stroke:red;stroke-width:1px;stroke-linecap:butt;stroke-linejoin:miter;stroke-opacity:1" d="M 596.581,439.432 629.32,439.432 z" id="boundary" inkscape:connector-curvature="0" />
	<path style="fill:none;stroke:red;stroke-width:1px;stroke-linecap:butt;stroke-linejoin:miter;stroke-opacity:1" d="M 596.581,547.472 612.95,576.937 z" id="boundary" inkscape:connector-curvature="0" />
	<path style="fill:none;stroke:red;stroke-width:1px;stroke-linecap:butt;stroke-linejoin:miter;stroke-opacity:1" d="M 596.581,547.472 629.32,547.472 z" id="boundary" inkscape:connector-curvature="0" />
	<path style="fill:none;stroke:red;stroke-width:1px;stroke-linecap:butt;stroke-linejoin:miter;stroke-opacity:1" d="M 596.581,652.238 629.32,652.238 z" id="boundary" inkscape:connector-curvature="0" />
	<path style="fill:none;stroke:red;stroke-width:1px;stroke-linecap:butt;stroke-linejoin:miter;stroke-opacity:1" d="M 609.677,819.208 642.416,819.208 z" id="boundary" inkscape:connector-curvature="0" />
	<path style="fill:none;stroke:red;stroke-width:1px;stroke-linecap:butt;stroke-linejoin:miter;stroke-opacity:1" d="M 612.95,576.937 645.69,576.937 z" id="boundary" inkscape:connector-curvature="0" />
	<path style="fill:none;stroke:red;stroke-width:1px;stroke-linecap:butt;stroke-linejoin:miter;stroke-opacity:1" d="M 612.95,681.703 645.69,681.703 z" id="boundary" inkscape:connector-curvature="0" />
	<path style="fill:none;stroke:red;stroke-width:1px;stroke-linecap:butt;stroke-linejoin:miter;stroke-opacity:1" d="M 619.498,750.455 652.238,750.455 z" id="boundary" inkscape:connector-curvature="0" />
	<path style="fill:none;stroke:red;stroke-width:1px;stroke-linecap:butt;stroke-linejoin:miter;stroke-opacity:1" d="M 626.046,4 658.785,4 z" id="boundary" inkscape:connector-curvature="0" />
	<path style="fill:none;stroke:red;stroke-width:1px;stroke-linecap:butt;stroke-linejoin:miter;stroke-opacity:1" d="M 629.32,439.432 662.059,439.432 z" id="boundary" inkscape:connector-curvature="0" />
	<path style="fill:none;stroke:red;stroke-width:1px;stroke-linecap:butt;stroke-linejoin:miter;stroke-opacity:1" d="M 629.32,547.472 662.059,547.472 z" id="boundary" inkscape:connector-curvature="0" />
	<path style="fill:none;stroke:red;stroke-width:1px;stroke-linecap:butt;stroke-linejoin:miter;stroke-opacity:1" d="M 629.32,652.238 662.059,652.238 z" id="boundary" inkscape:connector-curvature="0" />
	<path style="fill:none;stroke:red;stroke-width:1px;stroke-linecap:butt;stroke-linejoin:miter;stroke-opacity:1" d="M 642.416,819.208 675.155,819.208 z" id="boundary" inkscape:connector-curvature="0" />
	<path style="fill:none;stroke:red;stroke-width:1px;stroke-linecap:butt;stroke-linejoin:miter;stroke-opacity:1" d="M 645.69,576.937 678.429,576.937 z" id="boundary" inkscape:connector-curvature="0" />
	<path style="fill:none;stroke:red;stroke-width:1px;stroke-linecap:butt;stroke-linejoin:miter;stroke-opacity:1" d="M 645.69,681.703 678.429,681.703 z" id="boundary" inkscape:connector-curvature="0" />
	<path style="fill:none;stroke:red;stroke-width:1px;stroke-linecap:butt;stroke-linejoin:miter;stroke-opacity:1" d="M 652.238,750.455 684.977,750.455 z" id="boundary" inkscape:connector-curvature="0" />
	<path style="fill:none;stroke:red;stroke-width:1px;stroke-linecap:butt;stroke-linejoin:miter;stroke-opacity:1" d="M 658.785,4 691.525,4 z" id="boundary" inkscape:connector-curvature="0" />
	<path style="fill:none;stroke:red;stroke-width:1px;stroke-linecap:butt;stroke-linejoin:miter;stroke-opacity:1" d="M 662.059,439.432 694.799,439.432 z" id="boundary" inkscape:connector-curvature="0" />
	<path style="fill:none;stroke:red;stroke-width:1px;stroke-linecap:butt;stroke-linejoin:miter;stroke-opacity:1" d="M 662.059,547.472 694.799,547.472 z" id="boundary" inkscape:connector-curvature="0" />
	<path style="fill:none;stroke:red;stroke-width:1px;stroke-linecap:butt;stroke-linejoin:miter;stroke-opacity:1" d="M 662.059,652.238 694.799,652.238 z" id="boundary" inkscape:connector-curvature="0" />
	<path style="fill:none;stroke:red;stroke-width:1px;stroke-linecap:butt;stroke-linejoin:miter;stroke-opacity:1" d="M 675.155,819.208 707.894,819.208 z" id="boundary" inkscape:connector-curvature="0" />
	<path style="fill:none;stroke:red;stroke-width:1px;stroke-linecap:butt;stroke-linejoin:miter;stroke-opacity:1" d="M 678.429,576.937 711.168,576.937 z" id="boundary" inkscape:connector-curvature="0" />
	<path style="fill:none;stroke:red;stroke-width:1px;stroke-linecap:butt;stroke-linejoin:miter;stroke-opacity:1" d="M 678.429,681.703 711.168,681.703 z" id="boundary" inkscape:connector-curvature="0" />
	<path style="fill:none;stroke:red;stroke-width:1px;stroke-linecap:butt;stroke-linejoin:miter;stroke-opacity:1" d="M 684.977,750.455 717.716,750.455 z" id="boundary" inkscape:connector-curvature="0" />
	<path style="fill:none;stroke:red;stroke-width:1px;stroke-linecap:butt;stroke-linejoin:miter;stroke-opacity:1" d="M 691.525,4 724.264,4 z" id="boundary" inkscape:connector-curvature="0" />
	<path style="fill:none;stroke:red;stroke-width:1px;stroke-linecap:butt;stroke-linejoin:miter;stroke-opacity:1" d="M 694.799,439.432 727.538,439.432 z" id="boundary" inkscape:connector-curvature="0" />
	<path style="fill:none;stroke:red;stroke-width:1px;stroke-linecap:butt;stroke-linejoin:miter;stroke-opacity:1" d="M 694.799,547.472 727.538,547.472 z" id="boundary" inkscape:connector-curvature="0" />
	<path style="fill:none;stroke:red;stroke-width:1px;stroke-linecap:butt;stroke-linejoin:miter;stroke-opacity:1" d="M 694.799,652.238 727.538,652.238 z" id="boundary" inkscape:connector-curvature="0" />
	<path style="fill:none;stroke:red;stroke-width:1px;stroke-linecap:butt;stroke-linejoin:miter;stroke-opacity:1" d="M 707.894,819.208 740.634,819.208 z" id="boundary" inkscape:connector-curvature="0" />
	<path style="fill:none;stroke:red;stroke-width:1px;stroke-linecap:butt;stroke-linejoin:miter;stroke-opacity:1" d="M 711.168,576.937 743.908,576.937 z" id="boundary" inkscape:connector-curvature="0" />
	<path style="fill:none;stroke:red;stroke-width:1px;stroke-linecap:butt;stroke-linejoin:miter;stroke-opacity:1" d="M 711.168,681.703 743.908,681.703 z" id="boundary" inkscape:connector-curvature="0" />
	<path style="fill:none;stroke:red;stroke-width:1px;stroke-linecap:butt;stroke-linejoin:miter;stroke-opacity:1" d="M 717.716,750.455 750.455,750.455 z" id="boundary" inkscape:connector-curvature="0" />
	<path style="fill:none;stroke:red;stroke-width:1px;stroke-linecap:butt;stroke-linejoin:miter;stroke-opacity:1" d="M 724.264,4 757.003,4 z" id="boundary" inkscape:connector-curvature="0" />
	<path style="fill:none;stroke:red;stroke-width:1px;stroke-linecap:butt;stroke-linejoin:miter;stroke-opacity:1" d="M 727.538,439.432 760.277,439.432 z" id="boundary" inkscape:connector-curvature="0" />
	<path style="fill:none;stroke:red;stroke-width:1px;stroke-linecap:butt;stroke-linejoin:miter;stroke-opacity:1" d="M 727.538,547.472 760.277,547.472 z" id="boundary" inkscape:connector-curvature="0" />
	<path style="fill:none;stroke:red;stroke-width:1px;stroke-linecap:butt;stroke-linejoin:miter;stroke-opacity:1" d="M 727.538,652.238 760.277,652.238 z" id="boundary" inkscape:connector-curvature="0" />
	<path style="fill:none;stroke:red;stroke-width:1px;stroke-linecap:butt;stroke-linejoin:miter;stroke-opacity:1" d="M 740.634,819.208 773.373,819.208 z" id="boundary" inkscape:connector-curvature="0" />
	<path style="fill:none;stroke:red;stroke-width:1px;stroke-linecap:butt;stroke-linejoin:miter;stroke-opacity:1" d="M 743.908,576.937 776.647,576.937 z" id="boundary" inkscape:connector-curvature="0" />
	<path style="fill:none;stroke:red;stroke-width:1px;stroke-linecap:butt;stroke-linejoin:miter;stroke-opacity:1" d="M 743.908,681.703 776.647,681.703 z" id="boundary" inkscape:connector-curvature="0" />
	<path style="fill:none;stroke:red;stroke-width:1px;stroke-linecap:butt;stroke-linejoin:miter;stroke-opacity:1" d="M 750.455,750.455 783.195,750.455 z" id="boundary" inkscape:connector-curvature="0" />
	<path style="fill:none;stroke:red;stroke-width:1px;stroke-linecap:butt;stroke-linejoin:miter;stroke-opacity:1" d="M 757.003,4 789.743,4 z" id="boundary" inkscape:connector-curvature="0" />
	<path style="fill:none;stroke:red;stroke-width:1px;stroke-linecap:butt;stroke-linejoin:miter;stroke-opacity:1" d="M 760.277,439.432 793.017,439.432 z" id="boundary" inkscape:connector-curvature="0" />
	<path style="fill:none;stroke:red;stroke-width:1px;stroke-linecap:butt;stroke-linejoin:miter;stroke-opacity:1" d="M 760.277,547.472 793.017,547.472 z" id="boundary" inkscape:connector-curvature="0" />
	<path style="fill:none;stroke:red;stroke-width:1px;stroke-linecap:butt;stroke-linejoin:miter;stroke-opacity:1" d="M 760.277,652.238 793.017,652.238 z" id="boundary" inkscape:connector-curvature="0" />
	<path style="fill:none;stroke:red;stroke-width:1px;stroke-linecap:butt;stroke-linejoin:miter;stroke-opacity:1" d="M 773.373,819.208 806.112,819.208 z" id="boundary" inkscape:connector-curvature="0" />
	<path style="fill:none;stroke:red;stroke-width:1px;stroke-linecap:butt;stroke-linejoin:miter;stroke-opacity:1" d="M 776.647,576.937 809.386,576.937 z" id="boundary" inkscape:connector-curvature="0" />
	<path style="fill:none;stroke:red;stroke-width:1px;stroke-linecap:butt;stroke-linejoin:miter;stroke-opacity:1" d="M 776.647,681.703 809.386,681.703 z" id="boundary" inkscape:connector-curvature="0" />
	<path style="fill:none;stroke:red;stroke-width:1px;stroke-linecap:butt;stroke-linejoin:miter;stroke-opacity:1" d="M 783.195,750.455 815.934,750.455 z" id="boundary" inkscape:connector-curvature="0" />
	<path style="fill:none;stroke:red;stroke-width:1px;stroke-linecap:butt;stroke-linejoin:miter;stroke-opacity:1" d="M 789.743,4 822.482,4 z" id="boundary" inkscape:connector-curvature="0" />
	<path style="fill:none;stroke:red;stroke-width:1px;stroke-linecap:butt;stroke-linejoin:miter;stroke-opacity:1" d="M 793.017,439.432 825.756,439.432 z" id="boundary" inkscape:connector-curvature="0" />
	<path style="fill:none;stroke:red;stroke-width:1px;stroke-linecap:butt;stroke-linejoin:miter;stroke-opacity:1" d="M 793.017,547.472 825.756,547.472 z" id="boundary" inkscape:connector-curvature="0" />
	<path style="fill:none;stroke:red;stroke-width:1px;stroke-linecap:butt;stroke-linejoin:miter;stroke-opacity:1" d="M 793.017,652.238 825.756,652.238 z" id="boundary" inkscape:connector-curvature="0" />
	<path style="fill:none;stroke:red;stroke-width:1px;stroke-linecap:butt;stroke-linejoin:miter;stroke-opacity:1" d="M 806.112,819.208 838.851,832.304 z" id="boundary" inkscape:connector-curvature="0" />
	<path style="fill:none;stroke:red;stroke-width:1px;stroke-linecap:butt;stroke-linejoin:miter;stroke-opacity:1" d="M 809.386,576.937 842.125,576.937 z" id="boundary" inkscape:connector-curvature="0" />
	<path style="fill:none;stroke:red;stroke-width:1px;stroke-linecap:butt;stroke-linejoin:miter;stroke-opacity:1" d="M 809.386,681.703 842.125,681.703 z" id="boundary" inkscape:connector-curvature="0" />
	<path style="fill:none;stroke:red;stroke-width:1px;stroke-linecap:butt;stroke-linejoin:miter;stroke-opacity:1" d="M 815.934,750.455 848.673,750.455 z" id="boundary" inkscape:connector-curvature="0" />
	<path style="fill:none;stroke:red;stroke-width:1px;stroke-linecap:butt;stroke-linejoin:miter;stroke-opacity:1" d="M 822.482,4 855.221,10.5479 z" id="boundary" inkscape:connector-curvature="0" />
	<path style="fill:none;stroke:red;stroke-width:1px;stroke-linecap:butt;stroke-linejoin:miter;stroke-opacity:1" d="M 825.756,439.432 858.495,403.419 z" id="boundary" inkscape:connector-curvature="0" />
	<path style="fill:none;stroke:red;stroke-width:1px;stroke-linecap:butt;stroke-linejoin:miter;stroke-opacity:1" d="M 825.756,547.472 858.495,547.472 z" id="boundary" inkscape:connector-curvature="0" />
	<path style="fill:none;stroke:red;stroke-width:1px;stroke-linecap:butt;stroke-linejoin:miter;stroke-opacity:1" d="M 825.756,652.238 858.495,652.238 z" id="boundary" inkscape:connector-curvature="0" />
	<path style="fill:none;stroke:red;stroke-width:1px;stroke-linecap:butt;stroke-linejoin:miter;stroke-opacity:1" d="M 838.851,832.304 871.591,819.208 z" id="boundary" inkscape:connector-curvature="0" />
	<path style="fill:none;stroke:red;stroke-width:1px;stroke-linecap:butt;stroke-linejoin:miter;stroke-opacity:1" d="M 842.125,576.937 874.865,576.937 z" id="boundary" inkscape:connector-curvature="0" />
	<path style="fill:none;stroke:red;stroke-width:1px;stroke-linecap:butt;stroke-linejoin:miter;stroke-opacity:1" d="M 842.125,681.703 874.865,681.703 z" id="boundary" inkscape:connector-curvature="0" />
	<path style="fill:none;stroke:red;stroke-width:1px;stroke-linecap:butt;stroke-linejoin:miter;stroke-opacity:1" d="M 848.673,750.455 874.865,770.099 z" id="boundary" inkscape:connector-curvature="0" />
	<path style="fill:none;stroke:red;stroke-width:1px;stroke-linecap:butt;stroke-linejoin:miter;stroke-opacity:1" d="M 855.221,10.5479 858.495,43.2871 z" id="boundary" inkscape:connector-curvature="0" />
	<path style="fill:none;stroke:red;stroke-width:1px;stroke-linecap:butt;stroke-linejoin:miter;stroke-opacity:1" d="M 858.495,43.2871 858.495,76.0264 z" id="boundary" inkscape:connector-curvature="0" />
	<path style="fill:none;stroke:red;stroke-width:1px;stroke-linecap:butt;stroke-linejoin:miter;stroke-opacity:1" d="M 858.495,76.0264 858.495,108.766 z" id="boundary" inkscape:connector-curvature="0" />
	<path style="fill:none;stroke:red;stroke-width:1px;stroke-linecap:butt;stroke-linejoin:miter;stroke-opacity:1" d="M 858.495,108.766 858.495,141.505 z" id="boundary" inkscape:connector-curvature="0" />
	<path style="fill:none;stroke:red;stroke-width:1px;stroke-linecap:butt;stroke-linejoin:miter;stroke-opacity:1" d="M 858.495,141.505 858.495,174.244 z" id="boundary" inkscape:connector-curvature="0" />
	<path style="fill:none;stroke:red;stroke-width:1px;stroke-linecap:butt;stroke-linejoin:miter;stroke-opacity:1" d="M 858.495,174.244 858.495,206.983 z" id="boundary" inkscape:connector-curvature="0" />
	<path style="fill:none;stroke:red;stroke-width:1px;stroke-linecap:butt;stroke-linejoin:miter;stroke-opacity:1" d="M 858.495,206.983 858.495,239.723 z" id="boundary" inkscape:connector-curvature="0" />
	<path style="fill:none;stroke:red;stroke-width:1px;stroke-linecap:butt;stroke-linejoin:miter;stroke-opacity:1" d="M 858.495,239.723 858.495,272.462 z" id="boundary" inkscape:connector-curvature="0" />
	<path style="fill:none;stroke:red;stroke-width:1px;stroke-linecap:butt;stroke-linejoin:miter;stroke-opacity:1" d="M 858.495,272.462 858.495,305.201 z" id="boundary" inkscape:connector-curvature="0" />
	<path style="fill:none;stroke:red;stroke-width:1px;stroke-linecap:butt;stroke-linejoin:miter;stroke-opacity:1" d="M 858.495,305.201 858.495,337.941 z" id="boundary" inkscape:connector-curvature="0" />
	<path style="fill:none;stroke:red;stroke-width:1px;stroke-linecap:butt;stroke-linejoin:miter;stroke-opacity:1" d="M 858.495,337.941 858.495,370.68 z" id="boundary" inkscape:connector-curvature="0" />
	<path style="fill:none;stroke:red;stroke-width:1px;stroke-linecap:butt;stroke-linejoin:miter;stroke-opacity:1" d="M 858.495,370.68 858.495,403.419 z" id="boundary" inkscape:connector-curvature="0" />
	<path style="fill:none;stroke:red;stroke-width:1px;stroke-linecap:butt;stroke-linejoin:miter;stroke-opacity:1" d="M 858.495,547.472 891.234,547.472 z" id="boundary" inkscape:connector-curvature="0" />
	<path style="fill:none;stroke:red;stroke-width:1px;stroke-linecap:butt;stroke-linejoin:miter;stroke-opacity:1" d="M 858.495,652.238 891.234,652.238 z" id="boundary" inkscape:connector-curvature="0" />
	<path style="fill:none;stroke:red;stroke-width:1px;stroke-linecap:butt;stroke-linejoin:miter;stroke-opacity:1" d="M 871.591,819.208 904.33,819.208 z" id="boundary" inkscape:connector-curvature="0" />
	<path style="fill:none;stroke:red;stroke-width:1px;stroke-linecap:butt;stroke-linejoin:miter;stroke-opacity:1" d="M 874.865,576.937 907.604,576.937 z" id="boundary" inkscape:connector-curvature="0" />
	<path style="fill:none;stroke:red;stroke-width:1px;stroke-linecap:butt;stroke-linejoin:miter;stroke-opacity:1" d="M 874.865,681.703 907.604,681.703 z" id="boundary" inkscape:connector-curvature="0" />
	<path style="fill:none;stroke:red;stroke-width:1px;stroke-linecap:butt;stroke-linejoin:miter;stroke-opacity:1" d="M 874.865,770.099 901.056,750.455 z" id="boundary" inkscape:connector-curvature="0" />
	<path style="fill:none;stroke:red;stroke-width:1px;stroke-linecap:butt;stroke-linejoin:miter;stroke-opacity:1" d="M 891.234,547.472 923.974,547.472 z" id="boundary" inkscape:connector-curvature="0" />
	<path style="fill:none;stroke:red;stroke-width:1px;stroke-linecap:butt;stroke-linejoin:miter;stroke-opacity:1" d="M 891.234,652.238 923.974,652.238 z" id="boundary" inkscape:connector-curvature="0" />
	<path style="fill:none;stroke:red;stroke-width:1px;stroke-linecap:butt;stroke-linejoin:miter;stroke-opacity:1" d="M 901.056,750.455 927.248,770.099 z" id="boundary" inkscape:connector-curvature="0" />
	<path style="fill:none;stroke:red;stroke-width:1px;stroke-linecap:butt;stroke-linejoin:miter;stroke-opacity:1" d="M 904.33,819.208 937.069,825.756 z" id="boundary" inkscape:connector-curvature="0" />
	<path style="fill:none;stroke:red;stroke-width:1px;stroke-linecap:butt;stroke-linejoin:miter;stroke-opacity:1" d="M 907.604,576.937 940.343,576.937 z" id="boundary" inkscape:connector-curvature="0" />
	<path style="fill:none;stroke:red;stroke-width:1px;stroke-linecap:butt;stroke-linejoin:miter;stroke-opacity:1" d="M 907.604,681.703 950.165,671.881 z" id="boundary" inkscape:connector-curvature="0" />
	<path style="fill:none;stroke:red;stroke-width:1px;stroke-linecap:butt;stroke-linejoin:miter;stroke-opacity:1" d="M 923.974,547.472 940.343,576.937 z" id="boundary" inkscape:connector-curvature="0" />
	<path style="fill:none;stroke:red;stroke-width:1px;stroke-linecap:butt;stroke-linejoin:miter;stroke-opacity:1" d="M 923.974,652.238 950.165,671.881 z" id="boundary" inkscape:connector-curvature="0" />
	<path style="fill:none;stroke:red;stroke-width:1px;stroke-linecap:butt;stroke-linejoin:miter;stroke-opacity:1" d="M 927.248,770.099 953.439,750.455 z" id="boundary" inkscape:connector-curvature="0" />
	<path style="fill:none;stroke:red;stroke-width:1px;stroke-linecap:butt;stroke-linejoin:miter;stroke-opacity:1" d="M 937.069,825.756 969.809,822.482 z" id="boundary" inkscape:connector-curvature="0" />
	<path style="fill:none;stroke:red;stroke-width:1px;stroke-linecap:butt;stroke-linejoin:miter;stroke-opacity:1" d="M 953.439,750.455 986.178,750.455 z" id="boundary" inkscape:connector-curvature="0" />
	<path style="fill:none;stroke:red;stroke-width:1px;stroke-linecap:butt;stroke-linejoin:miter;stroke-opacity:1" d="M 969.809,822.482 996,783.195 z" id="boundary" inkscape:connector-curvature="0" />
	<path style="fill:none;stroke:red;stroke-width:1px;stroke-linecap:butt;stroke-linejoin:miter;stroke-opacity:1" d="M 986.178,750.455 996,783.195 z" id="boundary" inkscape:connector-curvature="0" />
	<circle cx="4" cy="757.003" r="4" fill="#0" id="circle0"/>
	<circle cx="4" cy="789.743" r="4" fill="#0" id="circle1"/>
	<circle cx="20.3696" cy="819.208" r="4" fill="#0" id="circle2"/>
	<circle cx="36.7393" cy="750.455" r="4" fill="#0" id="circle3"/>
	<circle cx="53.1089" cy="819.208" r="4" fill="#0" id="circle4"/>
	<circle cx="62.9307" cy="770.099" r="4" fill="#0" id="circle5"/>
	<circle cx="85.8482" cy="819.208" r="4" fill="#0" id="circle6"/>
	<circle cx="89.1221" cy="560.568" r="4" fill="#0" id="circle7"/>
	<circle cx="89.1221" cy="658.785" r="4" fill="#0" id="circle8"/>
	<circle cx="89.1221" cy="750.455" r="4" fill="#0" id="circle9"/>
	<circle cx="115.314" cy="681.703" r="4" fill="#0" id="circle10"/>
	<circle cx="115.314" cy="770.099" r="4" fill="#0" id="circle11"/>
	<circle cx="118.587" cy="576.937" r="4" fill="#0" id="circle12"/>
	<circle cx="118.587" cy="819.208" r="4" fill="#0" id="circle13"/>
	<circle cx="131.683" cy="652.238" r="4" fill="#0" id="circle14"/>
	<circle cx="134.957" cy="17.0957" r="4" fill="#0" id="circle15"/>
	<circle cx="134.957" cy="49.835" r="4" fill="#0" id="circle16"/>
	<circle cx="134.957" cy="82.5743" r="4" fill="#0" id="circle17"/>
	<circle cx="134.957" cy="115.314" r="4" fill="#0" id="circle18"/>
	<circle cx="134.957" cy="148.053" r="4" fill="#0" id="circle19"/>
	<circle cx="134.957" cy="180.792" r="4" fill="#0" id="circle20"/>
	<circle cx="134.957" cy="213.531" r="4" fill="#0" id="circle21"/>
	<circle cx="134.957" cy="246.271" r="4" fill="#0" id="circle22"/>
	<circle cx="134.957" cy="279.01" r="4" fill="#0" id="circle23"/>
	<circle cx="134.957" cy="311.749" r="4" fill="#0" id="circle24"/>
	<circle cx="134.957" cy="344.488" r="4" fill="#0" id="circle25"/>
	<circle cx="134.957" cy="377.228" r="4" fill="#0" id="circle26"/>
	<circle cx="134.957" cy="409.967" r="4" fill="#0" id="circle27"/>
	<circle cx="134.957" cy="547.472" r="4" fill="#0" id="circle28"/>
	<circle cx="141.505" cy="750.455" r="4" fill="#0" id="circle29"/>
	<circle cx="148.053" cy="681.703" r="4" fill="#0" id="circle30"/>
	<circle cx="151.327" cy="439.432" r="4" fill="#0" id="circle31"/>
	<circle cx="151.327" cy="576.937" r="4" fill="#0" id="circle32"/>
	<circle cx="151.327" cy="832.304" r="4" fill="#0" id="circle33"/>
	<circle cx="164.422" cy="652.238" r="4" fill="#0" id="circle34"/>
	<circle cx="167.696" cy="4" r="4" fill="#0" id="circle35"/>
	<circle cx="167.696" cy="547.472" r="4" fill="#0" id="circle36"/>
	<circle cx="174.244" cy="750.455" r="4" fill="#0" id="circle37"/>
	<circle cx="180.792" cy="681.703" r="4" fill="#0" id="circle38"/>
	<circle cx="184.066" cy="439.432" r="4" fill="#0" id="circle39"/>
	<circle cx="184.066" cy="576.937" r="4" fill="#0" id="circle40"/>
	<circle cx="184.066" cy="819.208" r="4" fill="#0" id="circle41"/>
	<circle cx="197.162" cy="652.238" r="4" fill="#0" id="circle42"/>
	<circle cx="200.436" cy="4" r="4" fill="#0" id="circle43"/>
	<circle cx="200.436" cy="547.472" r="4" fill="#0" id="circle44"/>
	<circle cx="206.983" cy="750.455" r="4" fill="#0" id="circle45"/>
	<circle cx="213.531" cy="681.703" r="4" fill="#0" id="circle46"/>
	<circle cx="216.805" cy="439.432" r="4" fill="#0" id="circle47"/>
	<circle cx="216.805" cy="576.937" r="4" fill="#0" id="circle48"/>
	<circle cx="216.805" cy="819.208" r="4" fill="#0" id="circle49"/>
	<circle cx="229.901" cy="652.238" r="4" fill="#0" id="circle50"/>
	<circle cx="233.175" cy="4" r="4" fill="#0" id="circle51"/>
	<circle cx="233.175" cy="547.472" r="4" fill="#0" id="circle52"/>
	<circle cx="239.723" cy="750.455" r="4" fill="#0" id="circle53"/>
	<circle cx="246.271" cy="681.703" r="4" fill="#0" id="circle54"/>
	<circle cx="249.545" cy="439.432" r="4" fill="#0" id="circle55"/>
	<circle cx="249.545" cy="576.937" r="4" fill="#0" id="circle56"/>
	<circle cx="249.545" cy="819.208" r="4" fill="#0" id="circle57"/>
	<circle cx="262.64" cy="652.238" r="4" fill="#0" id="circle58"/>
	<circle cx="265.914" cy="4" r="4" fill="#0" id="circle59"/>
	<circle cx="265.914" cy="547.472" r="4" fill="#0" id="circle60"/>
	<circle cx="272.462" cy="750.455" r="4" fill="#0" id="circle61"/>
	<circle cx="279.01" cy="681.703" r="4" fill="#0" id="circle62"/>
	<circle cx="282.284" cy="439.432" r="4" fill="#0" id="circle63"/>
	<circle cx="282.284" cy="576.937" r="4" fill="#0" id="circle64"/>
	<circle cx="282.284" cy="819.208" r="4" fill="#0" id="circle65"/>
	<circle cx="295.38" cy="652.238" r="4" fill="#0" id="circle66"/>
	<circle cx="298.653" cy="4" r="4" fill="#0" id="circle67"/>
	<circle cx="298.653" cy="547.472" r="4" fill="#0" id="circle68"/>
	<circle cx="305.201" cy="750.455" r="4" fill="#0" id="circle69"/>
	<circle cx="311.749" cy="681.703" r="4" fill="#0" id="circle70"/>
	<circle cx="315.023" cy="439.432" r="4" fill="#0" id="circle71"/>
	<circle cx="315.023" cy="576.937" r="4" fill="#0" id="circle72"/>
	<circle cx="315.023" cy="819.208" r="4" fill="#0" id="circle73"/>
	<circle cx="328.119" cy="652.238" r="4" fill="#0" id="circle74"/>
	<circle cx="331.393" cy="4" r="4" fill="#0" id="circle75"/>
	<circle cx="331.393" cy="547.472" r="4" fill="#0" id="circle76"/>
	<circle cx="337.941" cy="750.455" r="4" fill="#0" id="circle77"/>
	<circle cx="344.488" cy="681.703" r="4" fill="#0" id="circle78"/>
	<circle cx="347.762" cy="439.432" r="4" fill="#0" id="circle79"/>
	<circle cx="347.762" cy="576.937" r="4" fill="#0" id="circle80"/>
	<circle cx="347.762" cy="819.208" r="4" fill="#0" id="circle81"/>
	<circle cx="360.858" cy="652.238" r="4" fill="#0" id="circle82"/>
	<circle cx="364.132" cy="4" r="4" fill="#0" id="circle83"/>
	<circle cx="364.132" cy="547.472" r="4" fill="#0" id="circle84"/>
	<circle cx="370.68" cy="465.624" r="4" fill="#0" id="circle85"/>
	<circle cx="370.68" cy="498.363" r="4" fill="#0" id="circle86"/>
	<circle cx="370.68" cy="603.129" r="4" fill="#0" id="circle87"/>
	<circle cx="370.68" cy="701.347" r="4" fill="#0" id="circle88"/>
	<circle cx="370.68" cy="734.086" r="4" fill="#0" id="circle89"/>
	<circle cx="380.502" cy="819.208" r="4" fill="#0" id="circle90"/>
	<circle cx="396.871" cy="4" r="4" fill="#0" id="circle91"/>
	<circle cx="413.241" cy="819.208" r="4" fill="#0" id="circle92"/>
	<circle cx="429.611" cy="4" r="4" fill="#0" id="circle93"/>
	<circle cx="445.98" cy="819.208" r="4" fill="#0" id="circle94"/>
	<circle cx="462.35" cy="4" r="4" fill="#0" id="circle95"/>
	<circle cx="478.719" cy="819.208" r="4" fill="#0" id="circle96"/>
	<circle cx="495.089" cy="4" r="4" fill="#0" id="circle97"/>
	<circle cx="511.459" cy="819.208" r="4" fill="#0" id="circle98"/>
	<circle cx="527.828" cy="4" r="4" fill="#0" id="circle99"/>
	<circle cx="544.198" cy="819.208" r="4" fill="#0" id="circle100"/>
	<circle cx="560.568" cy="4" r="4" fill="#0" id="circle101"/>
	<circle cx="563.842" cy="442.706" r="4" fill="#0" id="circle102"/>
	<circle cx="563.842" cy="475.446" r="4" fill="#0" id="circle103"/>
	<circle cx="563.842" cy="508.185" r="4" fill="#0" id="circle104"/>
	<circle cx="563.842" cy="540.924" r="4" fill="#0" id="circle105"/>
	<circle cx="563.842" cy="580.211" r="4" fill="#0" id="circle106"/>
	<circle cx="563.842" cy="612.95" r="4" fill="#0" id="circle107"/>
	<circle cx="563.842" cy="645.69" r="4" fill="#0" id="circle108"/>
	<circle cx="563.842" cy="684.977" r="4" fill="#0" id="circle109"/>
	<circle cx="563.842" cy="717.716" r="4" fill="#0" id="circle110"/>
	<circle cx="567.116" cy="750.455" r="4" fill="#0" id="circle111"/>
	<circle cx="576.937" cy="819.208" r="4" fill="#0" id="circle112"/>
	<circle cx="593.307" cy="4" r="4" fill="#0" id="circle113"/>
	<circle cx="593.307" cy="770.099" r="4" fill="#0" id="circle114"/>
	<circle cx="596.581" cy="439.432" r="4" fill="#0" id="circle115"/>
	<circle cx="596.581" cy="547.472" r="4" fill="#0" id="circle116"/>
	<circle cx="596.581" cy="652.238" r="4" fill="#0" id="circle117"/>
	<circle cx="609.677" cy="819.208" r="4" fill="#0" id="circle118"/>
	<circle cx="612.95" cy="576.937" r="4" fill="#0" id="circle119"/>
	<circle cx="612.95" cy="681.703" r="4" fill="#0" id="circle120"/>
	<circle cx="619.498" cy="750.455" r="4" fill="#0" id="circle121"/>
	<circle cx="626.046" cy="4" r="4" fill="#0" id="circle122"/>
	<circle cx="629.32" cy="439.432" r="4" fill="#0" id="circle123"/>
	<circle cx="629.32" cy="547.472" r="4" fill="#0" id="circle124"/>
	<circle cx="629.32" cy="652.238" r="4" fill="#0" id="circle125"/>
	<circle cx="642.416" cy="819.208" r="4" fill="#0" id="circle126"/>
	<circle cx="645.69" cy="576.937" r="4" fill="#0" id="circle127"/>
	<circle cx="645.69" cy="681.703" r="4" fill="#0" id="circle128"/>
	<circle cx="652.238" cy="750.455" r="4" fill="#0" id="circle129"/>
	<circle cx="658.785" cy="4" r="4" fill="#0" id="circle130"/>
	<circle cx="662.059" cy="439.432" r="4" fill="#0" id="circle131"/>
	<circle cx="662.059" cy="547.472" r="4" fill="#0" id="circle132"/>
	<circle cx="662.059" cy="652.238" r="4" fill="#0" id="circle133"/>
	<circle cx="675.155" cy="819.208" r="4" fill="#0" id="circle134"/>
	<circle cx="678.429" cy="576.937" r="4" fill="#0" id="circle135"/>
	<circle cx="678.429" cy="681.703" r="4" fill="#0" id="circle136"/>
	<circle cx="684.977" cy="750.455" r="4" fill="#0" id="circle137"/>
	<circle cx="691.525" cy="4" r="4" fill="#0" id="circle138"/>
	<circle cx="694.799" cy="439.432" r="4" fill="#0" id="circle139"/>
	<circle cx="694.799" cy="547.472" r="4" fill="#0" id="circle140"/>
	<circle cx="694.799" cy="652.238" r="4" fill="#0" id="circle141"/>
	<circle cx="707.894" cy="819.208" r="4" fill="#0" id="circle142"/>
	<circle cx="711.168" cy="576.937" r="4" fill="#0" id="circle143"/>
	<circle cx="711.168" cy="681.703" r="4" fill="#0" id="circle144"/>
	<circle cx="717.716" cy="750.455" r="4" fill="#0" id="circle145"/>
	<circle cx="724.264" cy="4" r="4" fill="#0" id="circle146"/>
	<circle cx="727.538" cy="439.432" r="4" fill="#0" id="circle147"/>
	<circle cx="727.538" cy="547.472" r="4" fill="#0" id="circle148"/>
	<circle cx="727.538" cy="652.238" r="4" fill="#0" id="circle149"/>
	<circle cx="740.634" cy="819.208" r="4" fill="#0" id="circle150"/>
	<circle cx="743.908" cy="576.937" r="4" fill="#0" id="circle151"/>
	<circle cx="743.908" cy="681.703" r="4" fill="#0" id="circle152"/>
	<circle cx="750.455" cy="750.455" r="4" fill="#0" id="circle153"/>
	<circle cx="757.003" cy="4" r="4" fill="#0" id="circle154"/>
	<circle cx="760.277" cy="439.432" r="4" fill="#0" id="circle155"/>
	<circle cx="760.277" cy="547.472" r="4" fill="#0" id="circle156"/>
	<circle cx="760.277" cy="652.238" r="4" fill="#0" id="circle157"/>
	<circle cx="773.373" cy="819.208" r="4" fill="#0" id="circle158"/>
	<circle cx="776.647" cy="576.937" r="4" fill="#0" id="circle159"/>
	<circle cx="776.647" cy="681.703" r="4" fill="#0" id="circle160"/>
	<circle cx="783.195" cy="750.455" r="4" fill="#0" id="circle161"/>
	<circle cx="789.743" cy="4" r="4" fill="#0" id="circle162"/>
	<circle cx="793.017" cy="439.432" r="4" fill="#0" id="circle163"/>
	<circle cx="793.017" cy="547.472" r="4" fill="#0" id="circle164"/>
	<circle cx="793.017" cy="652.238" r="4" fill="#0" id="circle165"/>
	<circle cx="806.112" cy="819.208" r="4" fill="#0" id="circle166"/>
	<circle cx="809.386" cy="576.937" r="4" fill="#0" id="circle167"/>
	<circle cx="809.386" cy="681.703" r="4" fill="#0" id="circle168"/>
	<circle cx="815.934" cy="750.455" r="4" fill="#0" id="circle169"/>
	<circle cx="822.482" cy="4" r="4" fill="#0" id="circle170"/>
	<circle cx="825.756" cy="439.432" r="4" fill="#0" id="circle171"/>
	<circle cx="825.756" cy="547.472" r="4" fill="#0" id="circle172"/>
	<circle cx="825.756" cy="652.238" r="4" fill="#0" id="circle173"/>
	<circle cx="838.851" cy="832.304" r="4" fill="#0" id="circle174"/>
	<circle cx="842.125" cy="576.937" r="4" fill="#0" id="circle175"/>
	<circle cx="842.125" cy="681.703" r="4" fill="#0" id="circle176"/>
	<circle cx="848.673" cy="750.455" r="4" fill="#0" id="circle177"/>
	<circle cx="855.221" cy="10.5479" r="4" fill="#0" id="circle178"/>
	<circle cx="858.495" cy="43.2871" r="4" fill="#0" id="circle179"/>
	<circle cx="858.495" cy="76.0264" r="4" fill="#0" id="circle180"/>
	<circle cx="858.495" cy="108.766" r="4" fill="#0" id="circle181"/>
	<circle cx="858.495" cy="141.505" r="4" fill="#0" id="circle182"/>
	<circle cx="858.495" cy="174.244" r="4" fill="#0" id="circle183"/>
	<circle cx="858.495" cy="206.983" r="4" fill="#0" id="circle184"/>
	<circle cx="858.495" cy="239.723" r="4" fill="#0" id="circle185"/>
	<circle cx="858.495" cy="272.462" r="4" fill="#0" id="circle186"/>
	<circle cx="858.495" cy="305.201" r="4" fill="#0" id="circle187"/>
	<circle cx="858.495" cy="337.941" r="4" fill="#0" id="circle188"/>
	<circle cx="858.495" cy="370.68" r="4" fill="#0" id="circle189"/>
	<circle cx="858.495" cy="403.419" r="4" fill="#0" id="circle190"/>
	<circle cx="858.495" cy="547.472" r="4" fill="#0" id="circle191"/>
	<circle cx="858.495" cy="652.238" r="4" fill="#0" id="circle192"/>
	<circle cx="871.591" cy="819.208" r="4" fill="#0" id="circle193"/>
	<circle cx="874.865" cy="576.937" r="4" fill="#0" id="circle194"/>
	<circle cx="874.865" cy="681.703" r="4" fill="#0" id="circle195"/>
	<circle cx="874.865" cy="770.099" r="4" fill="#0" id="circle196"/>
	<circle cx="891.234" cy="547.472" r="4" fill="#0" id="circle197"/>
	<circle cx="891.234" cy="652.238" r="4" fill="#0" id="circle198"/>
	<circle cx="901.056" cy="750.455" r="4" fill="#0" id="circle199"/>
	<circle cx="904.33" cy="819.208" r="4" fill="#0" id="circle200"/>
	<circle cx="907.604" cy="576.937" r="4" fill="#0" id="circle201"/>
	<circle cx="907.604" cy="681.703" r="4" fill="#0" id="circle202"/>
	<circle cx="923.974" cy="547.472" r="4" fill="#0" id="circle203"/>
	<circle cx="923.974" cy="652.238" r="4" fill="#0" id="circle204"/>
	<circle cx="927.248" cy="770.099" r="4" fill="#0" id="circle205"/>
	<circle cx="937.069" cy="825.756" r="4" fill="#0" id="circle206"/>
	<circle cx="940.343" cy="576.937" r="4" fill="#0" id="circle207"/>
	<circle cx="950.165" cy="671.881" r="4" fill="#0" id="circle208"/>
	<circle cx="953.439" cy="750.455" r="4" fill="#0" id="circle209"/>
	<circle cx="969.809" cy="822.482" r="4" fill="#0" id="circle210"/>
	<circle cx="986.178" cy="750.455" r="4" fill="#0" id="circle211"/>
	<circle cx="996" cy="783.195" r="4" fill="#0" id="circle212"/>
	</g>
</svg>