<?xml version="1.0" encoding="UTF-8" standalone="no"?>
<!-- Created with CurveBenchmark -->
<svg
	xmlns:dc="http://purl.org/dc/elements/1.1/"
	xmlns:cc="http://creativecommons.org/ns#"
	xmlns:rdf="http://www.w3.org/1999/02/22-rdf-syntax-ns#"
	xmlns:svg="http://www.w3.org/2000/svg"
	xmlns="http://www.w3.org/2000/svg"
	xmlns:sodipodi="http://sodipodi.sourceforge.net/DTD/sodipodi-0.dtd"
	xmlns:inkscape="http://www.inkscape.org/namespaces/inkscape"
	width="1000"
	height="1000"
	id="svg2"
	version="1.1"
	sodipodi:docname="manifold/discur-harrierocc1.png.txt">
<defs
	id="defs4" />
<metadata
	id="metadata7">
	<rdf:RDF>
		<cc:Work
			rdf:about="">
			<dc:format>image/svg+xml</dc:format>
			<dc:type
				rdf:resource="http://purl.org/dc/dcmitype/StillImage" />
			<dc:title></dc:title>
		</cc:Work>
	</rdf:RDF>
</metadata>
<g
	inkscape:label="Layer 1"
	inkscape:groupmode="layer"
	id="layer1">
	<path style="fill:none;stroke:red;stroke-width:1px;stroke-linecap:butt;stroke-linejoin:miter;stroke-opacity:1" d="M 4,606.069 4,626.273 z" id="boundary" inkscape:connector-curvature="0" />
	<path style="fill:none;stroke:red;stroke-width:1px;stroke-linecap:butt;stroke-linejoin:miter;stroke-opacity:1" d="M 4,606.069 24.2037,600.008 z" id="boundary" inkscape:connector-curvature="0" />
	<path style="fill:none;stroke:red;stroke-width:1px;stroke-linecap:butt;stroke-linejoin:miter;stroke-opacity:1" d="M 4,626.273 4,646.477 z" id="boundary" inkscape:connector-curvature="0" />
	<path style="fill:none;stroke:red;stroke-width:1px;stroke-linecap:butt;stroke-linejoin:miter;stroke-opacity:1" d="M 4,646.477 4,666.68 z" id="boundary" inkscape:connector-curvature="0" />
	<path style="fill:none;stroke:red;stroke-width:1px;stroke-linecap:butt;stroke-linejoin:miter;stroke-opacity:1" d="M 4,666.68 4,686.884 z" id="boundary" inkscape:connector-curvature="0" />
	<path style="fill:none;stroke:red;stroke-width:1px;stroke-linecap:butt;stroke-linejoin:miter;stroke-opacity:1" d="M 4,686.884 4,707.088 z" id="boundary" inkscape:connector-curvature="0" />
	<path style="fill:none;stroke:red;stroke-width:1px;stroke-linecap:butt;stroke-linejoin:miter;stroke-opacity:1" d="M 4,707.088 4,727.291 z" id="boundary" inkscape:connector-curvature="0" />
	<path style="fill:none;stroke:red;stroke-width:1px;stroke-linecap:butt;stroke-linejoin:miter;stroke-opacity:1" d="M 4,727.291 4,747.495 z" id="boundary" inkscape:connector-curvature="0" />
	<path style="fill:none;stroke:red;stroke-width:1px;stroke-linecap:butt;stroke-linejoin:miter;stroke-opacity:1" d="M 4,747.495 4,767.699 z" id="boundary" inkscape:connector-curvature="0" />
	<path style="fill:none;stroke:red;stroke-width:1px;stroke-linecap:butt;stroke-linejoin:miter;stroke-opacity:1" d="M 4,767.699 4,787.902 z" id="boundary" inkscape:connector-curvature="0" />
	<path style="fill:none;stroke:red;stroke-width:1px;stroke-linecap:butt;stroke-linejoin:miter;stroke-opacity:1" d="M 4,787.902 4,808.106 z" id="boundary" inkscape:connector-curvature="0" />
	<path style="fill:none;stroke:red;stroke-width:1px;stroke-linecap:butt;stroke-linejoin:miter;stroke-opacity:1" d="M 4,808.106 4,828.31 z" id="boundary" inkscape:connector-curvature="0" />
	<path style="fill:none;stroke:red;stroke-width:1px;stroke-linecap:butt;stroke-linejoin:miter;stroke-opacity:1" d="M 4,828.31 4,848.513 z" id="boundary" inkscape:connector-curvature="0" />
	<path style="fill:none;stroke:red;stroke-width:1px;stroke-linecap:butt;stroke-linejoin:miter;stroke-opacity:1" d="M 4,848.513 4,868.717 z" id="boundary" inkscape:connector-curvature="0" />
	<path style="fill:none;stroke:red;stroke-width:1px;stroke-linecap:butt;stroke-linejoin:miter;stroke-opacity:1" d="M 4,868.717 4,888.921 z" id="boundary" inkscape:connector-curvature="0" />
	<path style="fill:none;stroke:red;stroke-width:1px;stroke-linecap:butt;stroke-linejoin:miter;stroke-opacity:1" d="M 4,888.921 4,909.124 z" id="boundary" inkscape:connector-curvature="0" />
	<path style="fill:none;stroke:red;stroke-width:1px;stroke-linecap:butt;stroke-linejoin:miter;stroke-opacity:1" d="M 4,909.124 4,929.328 z" id="boundary" inkscape:connector-curvature="0" />
	<path style="fill:none;stroke:red;stroke-width:1px;stroke-linecap:butt;stroke-linejoin:miter;stroke-opacity:1" d="M 4,929.328 4,949.532 z" id="boundary" inkscape:connector-curvature="0" />
	<path style="fill:none;stroke:red;stroke-width:1px;stroke-linecap:butt;stroke-linejoin:miter;stroke-opacity:1" d="M 4,949.532 4,969.735 z" id="boundary" inkscape:connector-curvature="0" />
	<path style="fill:none;stroke:red;stroke-width:1px;stroke-linecap:butt;stroke-linejoin:miter;stroke-opacity:1" d="M 4,969.735 4,989.939 z" id="boundary" inkscape:connector-curvature="0" />
	<path style="fill:none;stroke:red;stroke-width:1px;stroke-linecap:butt;stroke-linejoin:miter;stroke-opacity:1" d="M 4,989.939 24.2037,996 z" id="boundary" inkscape:connector-curvature="0" />
	<path style="fill:none;stroke:red;stroke-width:1px;stroke-linecap:butt;stroke-linejoin:miter;stroke-opacity:1" d="M 24.2037,600.008 44.4073,600.008 z" id="boundary" inkscape:connector-curvature="0" />
	<path style="fill:none;stroke:red;stroke-width:1px;stroke-linecap:butt;stroke-linejoin:miter;stroke-opacity:1" d="M 24.2037,996 44.4073,996 z" id="boundary" inkscape:connector-curvature="0" />
	<path style="fill:none;stroke:red;stroke-width:1px;stroke-linecap:butt;stroke-linejoin:miter;stroke-opacity:1" d="M 44.4073,600.008 64.611,600.008 z" id="boundary" inkscape:connector-curvature="0" />
	<path style="fill:none;stroke:red;stroke-width:1px;stroke-linecap:butt;stroke-linejoin:miter;stroke-opacity:1" d="M 44.4073,996 64.611,996 z" id="boundary" inkscape:connector-curvature="0" />
	<path style="fill:none;stroke:red;stroke-width:1px;stroke-linecap:butt;stroke-linejoin:miter;stroke-opacity:1" d="M 64.611,600.008 84.8147,600.008 z" id="boundary" inkscape:connector-curvature="0" />
	<path style="fill:none;stroke:red;stroke-width:1px;stroke-linecap:butt;stroke-linejoin:miter;stroke-opacity:1" d="M 64.611,996 84.8147,996 z" id="boundary" inkscape:connector-curvature="0" />
	<path style="fill:none;stroke:red;stroke-width:1px;stroke-linecap:butt;stroke-linejoin:miter;stroke-opacity:1" d="M 84.8147,600.008 105.018,600.008 z" id="boundary" inkscape:connector-curvature="0" />
	<path style="fill:none;stroke:red;stroke-width:1px;stroke-linecap:butt;stroke-linejoin:miter;stroke-opacity:1" d="M 84.8147,996 105.018,996 z" id="boundary" inkscape:connector-curvature="0" />
	<path style="fill:none;stroke:red;stroke-width:1px;stroke-linecap:butt;stroke-linejoin:miter;stroke-opacity:1" d="M 105.018,600.008 125.222,600.008 z" id="boundary" inkscape:connector-curvature="0" />
	<path style="fill:none;stroke:red;stroke-width:1px;stroke-linecap:butt;stroke-linejoin:miter;stroke-opacity:1" d="M 105.018,996 125.222,996 z" id="boundary" inkscape:connector-curvature="0" />
	<path style="fill:none;stroke:red;stroke-width:1px;stroke-linecap:butt;stroke-linejoin:miter;stroke-opacity:1" d="M 115.12,292.912 131.283,276.749 z" id="boundary" inkscape:connector-curvature="0" />
	<path style="fill:none;stroke:red;stroke-width:1px;stroke-linecap:butt;stroke-linejoin:miter;stroke-opacity:1" d="M 115.12,292.912 131.283,307.055 z" id="boundary" inkscape:connector-curvature="0" />
	<path style="fill:none;stroke:red;stroke-width:1px;stroke-linecap:butt;stroke-linejoin:miter;stroke-opacity:1" d="M 125.222,600.008 145.426,600.008 z" id="boundary" inkscape:connector-curvature="0" />
	<path style="fill:none;stroke:red;stroke-width:1px;stroke-linecap:butt;stroke-linejoin:miter;stroke-opacity:1" d="M 125.222,996 145.426,996 z" id="boundary" inkscape:connector-curvature="0" />
	<path style="fill:none;stroke:red;stroke-width:1px;stroke-linecap:butt;stroke-linejoin:miter;stroke-opacity:1" d="M 131.283,276.749 147.446,260.587 z" id="boundary" inkscape:connector-curvature="0" />
	<path style="fill:none;stroke:red;stroke-width:1px;stroke-linecap:butt;stroke-linejoin:miter;stroke-opacity:1" d="M 131.283,307.055 147.446,319.177 z" id="boundary" inkscape:connector-curvature="0" />
	<path style="fill:none;stroke:red;stroke-width:1px;stroke-linecap:butt;stroke-linejoin:miter;stroke-opacity:1" d="M 145.426,600.008 165.629,600.008 z" id="boundary" inkscape:connector-curvature="0" />
	<path style="fill:none;stroke:red;stroke-width:1px;stroke-linecap:butt;stroke-linejoin:miter;stroke-opacity:1" d="M 145.426,996 165.629,996 z" id="boundary" inkscape:connector-curvature="0" />
	<path style="fill:none;stroke:red;stroke-width:1px;stroke-linecap:butt;stroke-linejoin:miter;stroke-opacity:1" d="M 147.446,260.587 163.609,246.444 z" id="boundary" inkscape:connector-curvature="0" />
	<path style="fill:none;stroke:red;stroke-width:1px;stroke-linecap:butt;stroke-linejoin:miter;stroke-opacity:1" d="M 147.446,319.177 165.629,329.279 z" id="boundary" inkscape:connector-curvature="0" />
	<path style="fill:none;stroke:red;stroke-width:1px;stroke-linecap:butt;stroke-linejoin:miter;stroke-opacity:1" d="M 163.609,246.444 181.792,236.342 z" id="boundary" inkscape:connector-curvature="0" />
	<path style="fill:none;stroke:red;stroke-width:1px;stroke-linecap:butt;stroke-linejoin:miter;stroke-opacity:1" d="M 165.629,329.279 177.752,345.442 z" id="boundary" inkscape:connector-curvature="0" />
	<path style="fill:none;stroke:red;stroke-width:1px;stroke-linecap:butt;stroke-linejoin:miter;stroke-opacity:1" d="M 165.629,600.008 185.833,600.008 z" id="boundary" inkscape:connector-curvature="0" />
	<path style="fill:none;stroke:red;stroke-width:1px;stroke-linecap:butt;stroke-linejoin:miter;stroke-opacity:1" d="M 165.629,996 185.833,996 z" id="boundary" inkscape:connector-curvature="0" />
	<path style="fill:none;stroke:red;stroke-width:1px;stroke-linecap:butt;stroke-linejoin:miter;stroke-opacity:1" d="M 177.752,345.442 197.955,353.523 z" id="boundary" inkscape:connector-curvature="0" />
	<path style="fill:none;stroke:red;stroke-width:1px;stroke-linecap:butt;stroke-linejoin:miter;stroke-opacity:1" d="M 181.792,236.342 201.996,236.342 z" id="boundary" inkscape:connector-curvature="0" />
	<path style="fill:none;stroke:red;stroke-width:1px;stroke-linecap:butt;stroke-linejoin:miter;stroke-opacity:1" d="M 185.833,600.008 206.037,600.008 z" id="boundary" inkscape:connector-curvature="0" />
	<path style="fill:none;stroke:red;stroke-width:1px;stroke-linecap:butt;stroke-linejoin:miter;stroke-opacity:1" d="M 185.833,996 206.037,996 z" id="boundary" inkscape:connector-curvature="0" />
	<path style="fill:none;stroke:red;stroke-width:1px;stroke-linecap:butt;stroke-linejoin:miter;stroke-opacity:1" d="M 197.955,353.523 212.098,369.686 z" id="boundary" inkscape:connector-curvature="0" />
	<path style="fill:none;stroke:red;stroke-width:1px;stroke-linecap:butt;stroke-linejoin:miter;stroke-opacity:1" d="M 201.996,236.342 222.2,236.342 z" id="boundary" inkscape:connector-curvature="0" />
	<path style="fill:none;stroke:red;stroke-width:1px;stroke-linecap:butt;stroke-linejoin:miter;stroke-opacity:1" d="M 206.037,600.008 226.24,600.008 z" id="boundary" inkscape:connector-curvature="0" />
	<path style="fill:none;stroke:red;stroke-width:1px;stroke-linecap:butt;stroke-linejoin:miter;stroke-opacity:1" d="M 206.037,996 226.24,996 z" id="boundary" inkscape:connector-curvature="0" />
	<path style="fill:none;stroke:red;stroke-width:1px;stroke-linecap:butt;stroke-linejoin:miter;stroke-opacity:1" d="M 212.098,369.686 230.281,379.788 z" id="boundary" inkscape:connector-curvature="0" />
	<path style="fill:none;stroke:red;stroke-width:1px;stroke-linecap:butt;stroke-linejoin:miter;stroke-opacity:1" d="M 222.2,236.342 242.403,236.342 z" id="boundary" inkscape:connector-curvature="0" />
	<path style="fill:none;stroke:red;stroke-width:1px;stroke-linecap:butt;stroke-linejoin:miter;stroke-opacity:1" d="M 226.24,600.008 246.444,600.008 z" id="boundary" inkscape:connector-curvature="0" />
	<path style="fill:none;stroke:red;stroke-width:1px;stroke-linecap:butt;stroke-linejoin:miter;stroke-opacity:1" d="M 226.24,996 246.444,996 z" id="boundary" inkscape:connector-curvature="0" />
	<path style="fill:none;stroke:red;stroke-width:1px;stroke-linecap:butt;stroke-linejoin:miter;stroke-opacity:1" d="M 230.281,379.788 246.444,391.91 z" id="boundary" inkscape:connector-curvature="0" />
	<path style="fill:none;stroke:red;stroke-width:1px;stroke-linecap:butt;stroke-linejoin:miter;stroke-opacity:1" d="M 236.342,454.542 236.342,474.745 z" id="boundary" inkscape:connector-curvature="0" />
	<path style="fill:none;stroke:red;stroke-width:1px;stroke-linecap:butt;stroke-linejoin:miter;stroke-opacity:1" d="M 236.342,454.542 256.546,444.44 z" id="boundary" inkscape:connector-curvature="0" />
	<path style="fill:none;stroke:red;stroke-width:1px;stroke-linecap:butt;stroke-linejoin:miter;stroke-opacity:1" d="M 236.342,474.745 252.505,488.888 z" id="boundary" inkscape:connector-curvature="0" />
	<path style="fill:none;stroke:red;stroke-width:1px;stroke-linecap:butt;stroke-linejoin:miter;stroke-opacity:1" d="M 242.403,236.342 262.607,226.24 z" id="boundary" inkscape:connector-curvature="0" />
	<path style="fill:none;stroke:red;stroke-width:1px;stroke-linecap:butt;stroke-linejoin:miter;stroke-opacity:1" d="M 246.444,391.91 260.587,408.073 z" id="boundary" inkscape:connector-curvature="0" />
	<path style="fill:none;stroke:red;stroke-width:1px;stroke-linecap:butt;stroke-linejoin:miter;stroke-opacity:1" d="M 246.444,600.008 266.648,600.008 z" id="boundary" inkscape:connector-curvature="0" />
	<path style="fill:none;stroke:red;stroke-width:1px;stroke-linecap:butt;stroke-linejoin:miter;stroke-opacity:1" d="M 246.444,996 266.648,996 z" id="boundary" inkscape:connector-curvature="0" />
	<path style="fill:none;stroke:red;stroke-width:1px;stroke-linecap:butt;stroke-linejoin:miter;stroke-opacity:1" d="M 252.505,488.888 266.648,505.051 z" id="boundary" inkscape:connector-curvature="0" />
	<path style="fill:none;stroke:red;stroke-width:1px;stroke-linecap:butt;stroke-linejoin:miter;stroke-opacity:1" d="M 256.546,444.44 276.749,420.196 z" id="boundary" inkscape:connector-curvature="0" />
	<path style="fill:none;stroke:red;stroke-width:1px;stroke-linecap:butt;stroke-linejoin:miter;stroke-opacity:1" d="M 260.587,408.073 276.749,420.196 z" id="boundary" inkscape:connector-curvature="0" />
	<path style="fill:none;stroke:red;stroke-width:1px;stroke-linecap:butt;stroke-linejoin:miter;stroke-opacity:1" d="M 262.607,226.24 278.77,238.363 z" id="boundary" inkscape:connector-curvature="0" />
	<path style="fill:none;stroke:red;stroke-width:1px;stroke-linecap:butt;stroke-linejoin:miter;stroke-opacity:1" d="M 266.648,505.051 286.851,511.112 z" id="boundary" inkscape:connector-curvature="0" />
	<path style="fill:none;stroke:red;stroke-width:1px;stroke-linecap:butt;stroke-linejoin:miter;stroke-opacity:1" d="M 266.648,600.008 286.851,600.008 z" id="boundary" inkscape:connector-curvature="0" />
	<path style="fill:none;stroke:red;stroke-width:1px;stroke-linecap:butt;stroke-linejoin:miter;stroke-opacity:1" d="M 266.648,996 286.851,996 z" id="boundary" inkscape:connector-curvature="0" />
	<path style="fill:none;stroke:red;stroke-width:1px;stroke-linecap:butt;stroke-linejoin:miter;stroke-opacity:1" d="M 278.77,210.077 288.872,189.874 z" id="boundary" inkscape:connector-curvature="0" />
	<path style="fill:none;stroke:red;stroke-width:1px;stroke-linecap:butt;stroke-linejoin:miter;stroke-opacity:1" d="M 278.77,210.077 298.974,218.159 z" id="boundary" inkscape:connector-curvature="0" />
	<path style="fill:none;stroke:red;stroke-width:1px;stroke-linecap:butt;stroke-linejoin:miter;stroke-opacity:1" d="M 278.77,238.363 288.872,256.546 z" id="boundary" inkscape:connector-curvature="0" />
	<path style="fill:none;stroke:red;stroke-width:1px;stroke-linecap:butt;stroke-linejoin:miter;stroke-opacity:1" d="M 286.851,511.112 303.014,498.99 z" id="boundary" inkscape:connector-curvature="0" />
	<path style="fill:none;stroke:red;stroke-width:1px;stroke-linecap:butt;stroke-linejoin:miter;stroke-opacity:1" d="M 286.851,600.008 307.055,600.008 z" id="boundary" inkscape:connector-curvature="0" />
	<path style="fill:none;stroke:red;stroke-width:1px;stroke-linecap:butt;stroke-linejoin:miter;stroke-opacity:1" d="M 286.851,996 307.055,989.939 z" id="boundary" inkscape:connector-curvature="0" />
	<path style="fill:none;stroke:red;stroke-width:1px;stroke-linecap:butt;stroke-linejoin:miter;stroke-opacity:1" d="M 288.872,189.874 305.035,175.731 z" id="boundary" inkscape:connector-curvature="0" />
	<path style="fill:none;stroke:red;stroke-width:1px;stroke-linecap:butt;stroke-linejoin:miter;stroke-opacity:1" d="M 288.872,256.546 309.075,256.546 z" id="boundary" inkscape:connector-curvature="0" />
	<path style="fill:none;stroke:red;stroke-width:1px;stroke-linecap:butt;stroke-linejoin:miter;stroke-opacity:1" d="M 298.974,218.159 315.136,204.016 z" id="boundary" inkscape:connector-curvature="0" />
	<path style="fill:none;stroke:red;stroke-width:1px;stroke-linecap:butt;stroke-linejoin:miter;stroke-opacity:1" d="M 303.014,498.99 309.075,470.705 z" id="boundary" inkscape:connector-curvature="0" />
	<path style="fill:none;stroke:red;stroke-width:1px;stroke-linecap:butt;stroke-linejoin:miter;stroke-opacity:1" d="M 305.035,175.731 315.136,204.016 z" id="boundary" inkscape:connector-curvature="0" />
	<path style="fill:none;stroke:red;stroke-width:1px;stroke-linecap:butt;stroke-linejoin:miter;stroke-opacity:1" d="M 307.055,600.008 325.238,589.906 z" id="boundary" inkscape:connector-curvature="0" />
	<path style="fill:none;stroke:red;stroke-width:1px;stroke-linecap:butt;stroke-linejoin:miter;stroke-opacity:1" d="M 307.055,989.939 309.075,965.695 z" id="boundary" inkscape:connector-curvature="0" />
	<path style="fill:none;stroke:red;stroke-width:1px;stroke-linecap:butt;stroke-linejoin:miter;stroke-opacity:1" d="M 309.075,256.546 329.279,250.485 z" id="boundary" inkscape:connector-curvature="0" />
	<path style="fill:none;stroke:red;stroke-width:1px;stroke-linecap:butt;stroke-linejoin:miter;stroke-opacity:1" d="M 309.075,470.705 327.259,480.807 z" id="boundary" inkscape:connector-curvature="0" />
	<path style="fill:none;stroke:red;stroke-width:1px;stroke-linecap:butt;stroke-linejoin:miter;stroke-opacity:1" d="M 309.075,743.454 309.075,763.658 z" id="boundary" inkscape:connector-curvature="0" />
	<path style="fill:none;stroke:red;stroke-width:1px;stroke-linecap:butt;stroke-linejoin:miter;stroke-opacity:1" d="M 309.075,743.454 325.238,729.312 z" id="boundary" inkscape:connector-curvature="0" />
	<path style="fill:none;stroke:red;stroke-width:1px;stroke-linecap:butt;stroke-linejoin:miter;stroke-opacity:1" d="M 309.075,763.658 309.075,783.862 z" id="boundary" inkscape:connector-curvature="0" />
	<path style="fill:none;stroke:red;stroke-width:1px;stroke-linecap:butt;stroke-linejoin:miter;stroke-opacity:1" d="M 309.075,783.862 309.075,804.065 z" id="boundary" inkscape:connector-curvature="0" />
	<path style="fill:none;stroke:red;stroke-width:1px;stroke-linecap:butt;stroke-linejoin:miter;stroke-opacity:1" d="M 309.075,804.065 309.075,824.269 z" id="boundary" inkscape:connector-curvature="0" />
	<path style="fill:none;stroke:red;stroke-width:1px;stroke-linecap:butt;stroke-linejoin:miter;stroke-opacity:1" d="M 309.075,824.269 309.075,844.473 z" id="boundary" inkscape:connector-curvature="0" />
	<path style="fill:none;stroke:red;stroke-width:1px;stroke-linecap:butt;stroke-linejoin:miter;stroke-opacity:1" d="M 309.075,844.473 309.075,864.676 z" id="boundary" inkscape:connector-curvature="0" />
	<path style="fill:none;stroke:red;stroke-width:1px;stroke-linecap:butt;stroke-linejoin:miter;stroke-opacity:1" d="M 309.075,864.676 309.075,884.88 z" id="boundary" inkscape:connector-curvature="0" />
	<path style="fill:none;stroke:red;stroke-width:1px;stroke-linecap:butt;stroke-linejoin:miter;stroke-opacity:1" d="M 309.075,884.88 309.075,905.084 z" id="boundary" inkscape:connector-curvature="0" />
	<path style="fill:none;stroke:red;stroke-width:1px;stroke-linecap:butt;stroke-linejoin:miter;stroke-opacity:1" d="M 309.075,905.084 309.075,925.287 z" id="boundary" inkscape:connector-curvature="0" />
	<path style="fill:none;stroke:red;stroke-width:1px;stroke-linecap:butt;stroke-linejoin:miter;stroke-opacity:1" d="M 309.075,925.287 309.075,945.491 z" id="boundary" inkscape:connector-curvature="0" />
	<path style="fill:none;stroke:red;stroke-width:1px;stroke-linecap:butt;stroke-linejoin:miter;stroke-opacity:1" d="M 309.075,945.491 309.075,965.695 z" id="boundary" inkscape:connector-curvature="0" />
	<path style="fill:none;stroke:red;stroke-width:1px;stroke-linecap:butt;stroke-linejoin:miter;stroke-opacity:1" d="M 325.238,589.906 337.36,565.662 z" id="boundary" inkscape:connector-curvature="0" />
	<path style="fill:none;stroke:red;stroke-width:1px;stroke-linecap:butt;stroke-linejoin:miter;stroke-opacity:1" d="M 325.238,729.312 345.442,719.21 z" id="boundary" inkscape:connector-curvature="0" />
	<path style="fill:none;stroke:red;stroke-width:1px;stroke-linecap:butt;stroke-linejoin:miter;stroke-opacity:1" d="M 327.259,480.807 339.381,496.969 z" id="boundary" inkscape:connector-curvature="0" />
	<path style="fill:none;stroke:red;stroke-width:1px;stroke-linecap:butt;stroke-linejoin:miter;stroke-opacity:1" d="M 329.279,250.485 345.442,236.342 z" id="boundary" inkscape:connector-curvature="0" />
	<path style="fill:none;stroke:red;stroke-width:1px;stroke-linecap:butt;stroke-linejoin:miter;stroke-opacity:1" d="M 337.36,565.662 353.523,549.499 z" id="boundary" inkscape:connector-curvature="0" />
	<path style="fill:none;stroke:red;stroke-width:1px;stroke-linecap:butt;stroke-linejoin:miter;stroke-opacity:1" d="M 339.381,496.969 355.544,511.112 z" id="boundary" inkscape:connector-curvature="0" />
	<path style="fill:none;stroke:red;stroke-width:1px;stroke-linecap:butt;stroke-linejoin:miter;stroke-opacity:1" d="M 345.442,236.342 359.585,220.179 z" id="boundary" inkscape:connector-curvature="0" />
	<path style="fill:none;stroke:red;stroke-width:1px;stroke-linecap:butt;stroke-linejoin:miter;stroke-opacity:1" d="M 345.442,719.21 359.585,703.047 z" id="boundary" inkscape:connector-curvature="0" />
	<path style="fill:none;stroke:red;stroke-width:1px;stroke-linecap:butt;stroke-linejoin:miter;stroke-opacity:1" d="M 349.483,258.566 365.646,244.424 z" id="boundary" inkscape:connector-curvature="0" />
	<path style="fill:none;stroke:red;stroke-width:1px;stroke-linecap:butt;stroke-linejoin:miter;stroke-opacity:1" d="M 349.483,258.566 369.686,266.648 z" id="boundary" inkscape:connector-curvature="0" />
	<path style="fill:none;stroke:red;stroke-width:1px;stroke-linecap:butt;stroke-linejoin:miter;stroke-opacity:1" d="M 353.523,549.499 355.544,511.112 z" id="boundary" inkscape:connector-curvature="0" />
	<path style="fill:none;stroke:red;stroke-width:1px;stroke-linecap:butt;stroke-linejoin:miter;stroke-opacity:1" d="M 359.585,220.179 379.788,222.2 z" id="boundary" inkscape:connector-curvature="0" />
	<path style="fill:none;stroke:red;stroke-width:1px;stroke-linecap:butt;stroke-linejoin:miter;stroke-opacity:1" d="M 359.585,703.047 375.747,688.904 z" id="boundary" inkscape:connector-curvature="0" />
	<path style="fill:none;stroke:red;stroke-width:1px;stroke-linecap:butt;stroke-linejoin:miter;stroke-opacity:1" d="M 365.646,244.424 379.788,222.2 z" id="boundary" inkscape:connector-curvature="0" />
	<path style="fill:none;stroke:red;stroke-width:1px;stroke-linecap:butt;stroke-linejoin:miter;stroke-opacity:1" d="M 369.686,266.648 389.89,272.709 z" id="boundary" inkscape:connector-curvature="0" />
	<path style="fill:none;stroke:red;stroke-width:1px;stroke-linecap:butt;stroke-linejoin:miter;stroke-opacity:1" d="M 375.747,688.904 395.951,678.802 z" id="boundary" inkscape:connector-curvature="0" />
	<path style="fill:none;stroke:red;stroke-width:1px;stroke-linecap:butt;stroke-linejoin:miter;stroke-opacity:1" d="M 389.89,272.709 410.094,276.749 z" id="boundary" inkscape:connector-curvature="0" />
	<path style="fill:none;stroke:red;stroke-width:1px;stroke-linecap:butt;stroke-linejoin:miter;stroke-opacity:1" d="M 395.951,678.802 410.094,662.64 z" id="boundary" inkscape:connector-curvature="0" />
	<path style="fill:none;stroke:red;stroke-width:1px;stroke-linecap:butt;stroke-linejoin:miter;stroke-opacity:1" d="M 410.094,276.749 428.277,266.648 z" id="boundary" inkscape:connector-curvature="0" />
	<path style="fill:none;stroke:red;stroke-width:1px;stroke-linecap:butt;stroke-linejoin:miter;stroke-opacity:1" d="M 410.094,662.64 430.297,662.64 z" id="boundary" inkscape:connector-curvature="0" />
	<path style="fill:none;stroke:red;stroke-width:1px;stroke-linecap:butt;stroke-linejoin:miter;stroke-opacity:1" d="M 428.277,266.648 446.46,256.546 z" id="boundary" inkscape:connector-curvature="0" />
	<path style="fill:none;stroke:red;stroke-width:1px;stroke-linecap:butt;stroke-linejoin:miter;stroke-opacity:1" d="M 430.297,662.64 450.501,662.64 z" id="boundary" inkscape:connector-curvature="0" />
	<path style="fill:none;stroke:red;stroke-width:1px;stroke-linecap:butt;stroke-linejoin:miter;stroke-opacity:1" d="M 446.46,256.546 454.542,236.342 z" id="boundary" inkscape:connector-curvature="0" />
	<path style="fill:none;stroke:red;stroke-width:1px;stroke-linecap:butt;stroke-linejoin:miter;stroke-opacity:1" d="M 450.501,662.64 470.705,662.64 z" id="boundary" inkscape:connector-curvature="0" />
	<path style="fill:none;stroke:red;stroke-width:1px;stroke-linecap:butt;stroke-linejoin:miter;stroke-opacity:1" d="M 454.542,236.342 470.705,220.179 z" id="boundary" inkscape:connector-curvature="0" />
	<path style="fill:none;stroke:red;stroke-width:1px;stroke-linecap:butt;stroke-linejoin:miter;stroke-opacity:1" d="M 468.684,696.986 478.786,715.169 z" id="boundary" inkscape:connector-curvature="0" />
	<path style="fill:none;stroke:red;stroke-width:1px;stroke-linecap:butt;stroke-linejoin:miter;stroke-opacity:1" d="M 468.684,696.986 484.847,680.823 z" id="boundary" inkscape:connector-curvature="0" />
	<path style="fill:none;stroke:red;stroke-width:1px;stroke-linecap:butt;stroke-linejoin:miter;stroke-opacity:1" d="M 470.705,220.179 486.868,206.037 z" id="boundary" inkscape:connector-curvature="0" />
	<path style="fill:none;stroke:red;stroke-width:1px;stroke-linecap:butt;stroke-linejoin:miter;stroke-opacity:1" d="M 470.705,662.64 484.847,680.823 z" id="boundary" inkscape:connector-curvature="0" />
	<path style="fill:none;stroke:red;stroke-width:1px;stroke-linecap:butt;stroke-linejoin:miter;stroke-opacity:1" d="M 478.786,715.169 488.888,733.352 z" id="boundary" inkscape:connector-curvature="0" />
	<path style="fill:none;stroke:red;stroke-width:1px;stroke-linecap:butt;stroke-linejoin:miter;stroke-opacity:1" d="M 486.868,206.037 501.01,189.874 z" id="boundary" inkscape:connector-curvature="0" />
	<path style="fill:none;stroke:red;stroke-width:1px;stroke-linecap:butt;stroke-linejoin:miter;stroke-opacity:1" d="M 488.888,733.352 501.01,749.515 z" id="boundary" inkscape:connector-curvature="0" />
	<path style="fill:none;stroke:red;stroke-width:1px;stroke-linecap:butt;stroke-linejoin:miter;stroke-opacity:1" d="M 501.01,189.874 517.173,175.731 z" id="boundary" inkscape:connector-curvature="0" />
	<path style="fill:none;stroke:red;stroke-width:1px;stroke-linecap:butt;stroke-linejoin:miter;stroke-opacity:1" d="M 501.01,278.77 511.112,296.953 z" id="boundary" inkscape:connector-curvature="0" />
	<path style="fill:none;stroke:red;stroke-width:1px;stroke-linecap:butt;stroke-linejoin:miter;stroke-opacity:1" d="M 501.01,278.77 517.173,264.627 z" id="boundary" inkscape:connector-curvature="0" />
	<path style="fill:none;stroke:red;stroke-width:1px;stroke-linecap:butt;stroke-linejoin:miter;stroke-opacity:1" d="M 501.01,749.515 521.214,753.556 z" id="boundary" inkscape:connector-curvature="0" />
	<path style="fill:none;stroke:red;stroke-width:1px;stroke-linecap:butt;stroke-linejoin:miter;stroke-opacity:1" d="M 511.112,296.953 531.316,296.953 z" id="boundary" inkscape:connector-curvature="0" />
	<path style="fill:none;stroke:red;stroke-width:1px;stroke-linecap:butt;stroke-linejoin:miter;stroke-opacity:1" d="M 517.173,175.731 535.356,165.629 z" id="boundary" inkscape:connector-curvature="0" />
	<path style="fill:none;stroke:red;stroke-width:1px;stroke-linecap:butt;stroke-linejoin:miter;stroke-opacity:1" d="M 517.173,264.627 531.316,248.464 z" id="boundary" inkscape:connector-curvature="0" />
	<path style="fill:none;stroke:red;stroke-width:1px;stroke-linecap:butt;stroke-linejoin:miter;stroke-opacity:1" d="M 521.214,753.556 537.377,739.413 z" id="boundary" inkscape:connector-curvature="0" />
	<path style="fill:none;stroke:red;stroke-width:1px;stroke-linecap:butt;stroke-linejoin:miter;stroke-opacity:1" d="M 531.316,248.464 541.418,228.261 z" id="boundary" inkscape:connector-curvature="0" />
	<path style="fill:none;stroke:red;stroke-width:1px;stroke-linecap:butt;stroke-linejoin:miter;stroke-opacity:1" d="M 531.316,296.953 551.519,290.892 z" id="boundary" inkscape:connector-curvature="0" />
	<path style="fill:none;stroke:red;stroke-width:1px;stroke-linecap:butt;stroke-linejoin:miter;stroke-opacity:1" d="M 535.356,165.629 553.54,155.527 z" id="boundary" inkscape:connector-curvature="0" />
	<path style="fill:none;stroke:red;stroke-width:1px;stroke-linecap:butt;stroke-linejoin:miter;stroke-opacity:1" d="M 537.377,739.413 547.479,719.21 z" id="boundary" inkscape:connector-curvature="0" />
	<path style="fill:none;stroke:red;stroke-width:1px;stroke-linecap:butt;stroke-linejoin:miter;stroke-opacity:1" d="M 541.418,228.261 557.58,214.118 z" id="boundary" inkscape:connector-curvature="0" />
	<path style="fill:none;stroke:red;stroke-width:1px;stroke-linecap:butt;stroke-linejoin:miter;stroke-opacity:1" d="M 547.479,719.21 567.682,723.251 z" id="boundary" inkscape:connector-curvature="0" />
	<path style="fill:none;stroke:red;stroke-width:1px;stroke-linecap:butt;stroke-linejoin:miter;stroke-opacity:1" d="M 551.519,290.892 567.682,276.749 z" id="boundary" inkscape:connector-curvature="0" />
	<path style="fill:none;stroke:red;stroke-width:1px;stroke-linecap:butt;stroke-linejoin:miter;stroke-opacity:1" d="M 553.54,155.527 571.723,145.426 z" id="boundary" inkscape:connector-curvature="0" />
	<path style="fill:none;stroke:red;stroke-width:1px;stroke-linecap:butt;stroke-linejoin:miter;stroke-opacity:1" d="M 557.58,214.118 567.682,193.914 z" id="boundary" inkscape:connector-curvature="0" />
	<path style="fill:none;stroke:red;stroke-width:1px;stroke-linecap:butt;stroke-linejoin:miter;stroke-opacity:1" d="M 567.682,193.914 581.825,163.609 z" id="boundary" inkscape:connector-curvature="0" />
	<path style="fill:none;stroke:red;stroke-width:1px;stroke-linecap:butt;stroke-linejoin:miter;stroke-opacity:1" d="M 567.682,276.749 581.825,260.587 z" id="boundary" inkscape:connector-curvature="0" />
	<path style="fill:none;stroke:red;stroke-width:1px;stroke-linecap:butt;stroke-linejoin:miter;stroke-opacity:1" d="M 567.682,723.251 581.825,739.413 z" id="boundary" inkscape:connector-curvature="0" />
	<path style="fill:none;stroke:red;stroke-width:1px;stroke-linecap:butt;stroke-linejoin:miter;stroke-opacity:1" d="M 571.723,145.426 581.825,163.609 z" id="boundary" inkscape:connector-curvature="0" />
	<path style="fill:none;stroke:red;stroke-width:1px;stroke-linecap:butt;stroke-linejoin:miter;stroke-opacity:1" d="M 581.825,260.587 602.029,250.485 z" id="boundary" inkscape:connector-curvature="0" />
	<path style="fill:none;stroke:red;stroke-width:1px;stroke-linecap:butt;stroke-linejoin:miter;stroke-opacity:1" d="M 581.825,739.413 597.988,753.556 z" id="boundary" inkscape:connector-curvature="0" />
	<path style="fill:none;stroke:red;stroke-width:1px;stroke-linecap:butt;stroke-linejoin:miter;stroke-opacity:1" d="M 597.988,753.556 610.11,769.719 z" id="boundary" inkscape:connector-curvature="0" />
	<path style="fill:none;stroke:red;stroke-width:1px;stroke-linecap:butt;stroke-linejoin:miter;stroke-opacity:1" d="M 602.029,250.485 618.191,236.342 z" id="boundary" inkscape:connector-curvature="0" />
	<path style="fill:none;stroke:red;stroke-width:1px;stroke-linecap:butt;stroke-linejoin:miter;stroke-opacity:1" d="M 610.11,769.719 620.212,787.902 z" id="boundary" inkscape:connector-curvature="0" />
	<path style="fill:none;stroke:red;stroke-width:1px;stroke-linecap:butt;stroke-linejoin:miter;stroke-opacity:1" d="M 618.191,236.342 632.334,220.179 z" id="boundary" inkscape:connector-curvature="0" />
	<path style="fill:none;stroke:red;stroke-width:1px;stroke-linecap:butt;stroke-linejoin:miter;stroke-opacity:1" d="M 620.212,787.902 636.375,802.045 z" id="boundary" inkscape:connector-curvature="0" />
	<path style="fill:none;stroke:red;stroke-width:1px;stroke-linecap:butt;stroke-linejoin:miter;stroke-opacity:1" d="M 632.334,220.179 648.497,206.037 z" id="boundary" inkscape:connector-curvature="0" />
	<path style="fill:none;stroke:red;stroke-width:1px;stroke-linecap:butt;stroke-linejoin:miter;stroke-opacity:1" d="M 636.375,802.045 644.456,822.248 z" id="boundary" inkscape:connector-curvature="0" />
	<path style="fill:none;stroke:red;stroke-width:1px;stroke-linecap:butt;stroke-linejoin:miter;stroke-opacity:1" d="M 644.456,822.248 660.619,834.371 z" id="boundary" inkscape:connector-curvature="0" />
	<path style="fill:none;stroke:red;stroke-width:1px;stroke-linecap:butt;stroke-linejoin:miter;stroke-opacity:1" d="M 648.497,206.037 656.578,185.833 z" id="boundary" inkscape:connector-curvature="0" />
	<path style="fill:none;stroke:red;stroke-width:1px;stroke-linecap:butt;stroke-linejoin:miter;stroke-opacity:1" d="M 656.578,185.833 672.741,169.67 z" id="boundary" inkscape:connector-curvature="0" />
	<path style="fill:none;stroke:red;stroke-width:1px;stroke-linecap:butt;stroke-linejoin:miter;stroke-opacity:1" d="M 660.619,834.371 666.68,854.574 z" id="boundary" inkscape:connector-curvature="0" />
	<path style="fill:none;stroke:red;stroke-width:1px;stroke-linecap:butt;stroke-linejoin:miter;stroke-opacity:1" d="M 666.68,854.574 682.843,868.717 z" id="boundary" inkscape:connector-curvature="0" />
	<path style="fill:none;stroke:red;stroke-width:1px;stroke-linecap:butt;stroke-linejoin:miter;stroke-opacity:1" d="M 672.741,169.67 688.904,155.527 z" id="boundary" inkscape:connector-curvature="0" />
	<path style="fill:none;stroke:red;stroke-width:1px;stroke-linecap:butt;stroke-linejoin:miter;stroke-opacity:1" d="M 682.843,868.717 703.047,874.778 z" id="boundary" inkscape:connector-curvature="0" />
	<path style="fill:none;stroke:red;stroke-width:1px;stroke-linecap:butt;stroke-linejoin:miter;stroke-opacity:1" d="M 688.904,155.527 707.088,145.426 z" id="boundary" inkscape:connector-curvature="0" />
	<path style="fill:none;stroke:red;stroke-width:1px;stroke-linecap:butt;stroke-linejoin:miter;stroke-opacity:1" d="M 703.047,450.501 719.21,436.358 z" id="boundary" inkscape:connector-curvature="0" />
	<path style="fill:none;stroke:red;stroke-width:1px;stroke-linecap:butt;stroke-linejoin:miter;stroke-opacity:1" d="M 703.047,874.778 719.21,860.635 z" id="boundary" inkscape:connector-curvature="0" />
	<path style="fill:none;stroke:red;stroke-width:1px;stroke-linecap:butt;stroke-linejoin:miter;stroke-opacity:1" d="M 707.088,145.426 725.271,155.527 z" id="boundary" inkscape:connector-curvature="0" />
	<path style="fill:none;stroke:red;stroke-width:1px;stroke-linecap:butt;stroke-linejoin:miter;stroke-opacity:1" d="M 713.149,561.621 723.251,579.804 z" id="boundary" inkscape:connector-curvature="0" />
	<path style="fill:none;stroke:red;stroke-width:1px;stroke-linecap:butt;stroke-linejoin:miter;stroke-opacity:1" d="M 713.149,561.621 729.312,547.479 z" id="boundary" inkscape:connector-curvature="0" />
	<path style="fill:none;stroke:red;stroke-width:1px;stroke-linecap:butt;stroke-linejoin:miter;stroke-opacity:1" d="M 719.21,436.358 735.373,448.481 z" id="boundary" inkscape:connector-curvature="0" />
	<path style="fill:none;stroke:red;stroke-width:1px;stroke-linecap:butt;stroke-linejoin:miter;stroke-opacity:1" d="M 719.21,860.635 733.352,844.473 z" id="boundary" inkscape:connector-curvature="0" />
	<path style="fill:none;stroke:red;stroke-width:1px;stroke-linecap:butt;stroke-linejoin:miter;stroke-opacity:1" d="M 723.251,579.804 723.251,600.008 z" id="boundary" inkscape:connector-curvature="0" />
	<path style="fill:none;stroke:red;stroke-width:1px;stroke-linecap:butt;stroke-linejoin:miter;stroke-opacity:1" d="M 723.251,600.008 723.251,620.212 z" id="boundary" inkscape:connector-curvature="0" />
	<path style="fill:none;stroke:red;stroke-width:1px;stroke-linecap:butt;stroke-linejoin:miter;stroke-opacity:1" d="M 723.251,620.212 741.434,610.11 z" id="boundary" inkscape:connector-curvature="0" />
	<path style="fill:none;stroke:red;stroke-width:1px;stroke-linecap:butt;stroke-linejoin:miter;stroke-opacity:1" d="M 725.271,155.527 733.352,175.731 z" id="boundary" inkscape:connector-curvature="0" />
	<path style="fill:none;stroke:red;stroke-width:1px;stroke-linecap:butt;stroke-linejoin:miter;stroke-opacity:1" d="M 729.312,547.479 743.454,531.316 z" id="boundary" inkscape:connector-curvature="0" />
	<path style="fill:none;stroke:red;stroke-width:1px;stroke-linecap:butt;stroke-linejoin:miter;stroke-opacity:1" d="M 733.352,175.731 751.536,185.833 z" id="boundary" inkscape:connector-curvature="0" />
	<path style="fill:none;stroke:red;stroke-width:1px;stroke-linecap:butt;stroke-linejoin:miter;stroke-opacity:1" d="M 733.352,420.196 743.454,399.992 z" id="boundary" inkscape:connector-curvature="0" />
	<path style="fill:none;stroke:red;stroke-width:1px;stroke-linecap:butt;stroke-linejoin:miter;stroke-opacity:1" d="M 733.352,652.538 733.352,672.741 z" id="boundary" inkscape:connector-curvature="0" />
	<path style="fill:none;stroke:red;stroke-width:1px;stroke-linecap:butt;stroke-linejoin:miter;stroke-opacity:1" d="M 733.352,652.538 749.515,638.395 z" id="boundary" inkscape:connector-curvature="0" />
	<path style="fill:none;stroke:red;stroke-width:1px;stroke-linecap:butt;stroke-linejoin:miter;stroke-opacity:1" d="M 733.352,672.741 733.352,692.945 z" id="boundary" inkscape:connector-curvature="0" />
	<path style="fill:none;stroke:red;stroke-width:1px;stroke-linecap:butt;stroke-linejoin:miter;stroke-opacity:1" d="M 733.352,692.945 743.454,711.128 z" id="boundary" inkscape:connector-curvature="0" />
	<path style="fill:none;stroke:red;stroke-width:1px;stroke-linecap:butt;stroke-linejoin:miter;stroke-opacity:1" d="M 733.352,844.473 743.454,814.167 z" id="boundary" inkscape:connector-curvature="0" />
	<path style="fill:none;stroke:red;stroke-width:1px;stroke-linecap:butt;stroke-linejoin:miter;stroke-opacity:1" d="M 735.373,448.481 751.536,434.338 z" id="boundary" inkscape:connector-curvature="0" />
	<path style="fill:none;stroke:red;stroke-width:1px;stroke-linecap:butt;stroke-linejoin:miter;stroke-opacity:1" d="M 741.434,610.11 759.617,600.008 z" id="boundary" inkscape:connector-curvature="0" />
	<path style="fill:none;stroke:red;stroke-width:1px;stroke-linecap:butt;stroke-linejoin:miter;stroke-opacity:1" d="M 743.454,399.992 759.617,385.849 z" id="boundary" inkscape:connector-curvature="0" />
	<path style="fill:none;stroke:red;stroke-width:1px;stroke-linecap:butt;stroke-linejoin:miter;stroke-opacity:1" d="M 743.454,531.316 759.617,517.173 z" id="boundary" inkscape:connector-curvature="0" />
	<path style="fill:none;stroke:red;stroke-width:1px;stroke-linecap:butt;stroke-linejoin:miter;stroke-opacity:1" d="M 743.454,743.454 743.454,763.658 z" id="boundary" inkscape:connector-curvature="0" />
	<path style="fill:none;stroke:red;stroke-width:1px;stroke-linecap:butt;stroke-linejoin:miter;stroke-opacity:1" d="M 743.454,743.454 759.617,729.312 z" id="boundary" inkscape:connector-curvature="0" />
	<path style="fill:none;stroke:red;stroke-width:1px;stroke-linecap:butt;stroke-linejoin:miter;stroke-opacity:1" d="M 743.454,763.658 753.556,781.841 z" id="boundary" inkscape:connector-curvature="0" />
	<path style="fill:none;stroke:red;stroke-width:1px;stroke-linecap:butt;stroke-linejoin:miter;stroke-opacity:1" d="M 743.454,814.167 753.556,781.841 z" id="boundary" inkscape:connector-curvature="0" />
	<path style="fill:none;stroke:red;stroke-width:1px;stroke-linecap:butt;stroke-linejoin:miter;stroke-opacity:1" d="M 749.515,638.395 763.658,622.232 z" id="boundary" inkscape:connector-curvature="0" />
	<path style="fill:none;stroke:red;stroke-width:1px;stroke-linecap:butt;stroke-linejoin:miter;stroke-opacity:1" d="M 751.536,185.833 763.658,169.67 z" id="boundary" inkscape:connector-curvature="0" />
	<path style="fill:none;stroke:red;stroke-width:1px;stroke-linecap:butt;stroke-linejoin:miter;stroke-opacity:1" d="M 751.536,434.338 767.699,418.175 z" id="boundary" inkscape:connector-curvature="0" />
	<path style="fill:none;stroke:red;stroke-width:1px;stroke-linecap:butt;stroke-linejoin:miter;stroke-opacity:1" d="M 759.617,385.849 773.76,369.686 z" id="boundary" inkscape:connector-curvature="0" />
	<path style="fill:none;stroke:red;stroke-width:1px;stroke-linecap:butt;stroke-linejoin:miter;stroke-opacity:1" d="M 759.617,517.173 773.76,501.01 z" id="boundary" inkscape:connector-curvature="0" />
	<path style="fill:none;stroke:red;stroke-width:1px;stroke-linecap:butt;stroke-linejoin:miter;stroke-opacity:1" d="M 759.617,600.008 763.658,622.232 z" id="boundary" inkscape:connector-curvature="0" />
	<path style="fill:none;stroke:red;stroke-width:1px;stroke-linecap:butt;stroke-linejoin:miter;stroke-opacity:1" d="M 759.617,729.312 773.76,713.149 z" id="boundary" inkscape:connector-curvature="0" />
	<path style="fill:none;stroke:red;stroke-width:1px;stroke-linecap:butt;stroke-linejoin:miter;stroke-opacity:1" d="M 761.637,696.986 773.76,713.149 z" id="boundary" inkscape:connector-curvature="0" />
	<path style="fill:none;stroke:red;stroke-width:1px;stroke-linecap:butt;stroke-linejoin:miter;stroke-opacity:1" d="M 761.637,696.986 777.8,680.823 z" id="boundary" inkscape:connector-curvature="0" />
	<path style="fill:none;stroke:red;stroke-width:1px;stroke-linecap:butt;stroke-linejoin:miter;stroke-opacity:1" d="M 763.658,169.67 779.821,155.527 z" id="boundary" inkscape:connector-curvature="0" />
	<path style="fill:none;stroke:red;stroke-width:1px;stroke-linecap:butt;stroke-linejoin:miter;stroke-opacity:1" d="M 767.699,418.175 787.902,408.073 z" id="boundary" inkscape:connector-curvature="0" />
	<path style="fill:none;stroke:red;stroke-width:1px;stroke-linecap:butt;stroke-linejoin:miter;stroke-opacity:1" d="M 773.76,369.686 789.923,355.544 z" id="boundary" inkscape:connector-curvature="0" />
	<path style="fill:none;stroke:red;stroke-width:1px;stroke-linecap:butt;stroke-linejoin:miter;stroke-opacity:1" d="M 773.76,501.01 789.923,486.868 z" id="boundary" inkscape:connector-curvature="0" />
	<path style="fill:none;stroke:red;stroke-width:1px;stroke-linecap:butt;stroke-linejoin:miter;stroke-opacity:1" d="M 777.8,680.823 798.004,682.843 z" id="boundary" inkscape:connector-curvature="0" />
	<path style="fill:none;stroke:red;stroke-width:1px;stroke-linecap:butt;stroke-linejoin:miter;stroke-opacity:1" d="M 779.821,155.527 793.963,139.365 z" id="boundary" inkscape:connector-curvature="0" />
	<path style="fill:none;stroke:red;stroke-width:1px;stroke-linecap:butt;stroke-linejoin:miter;stroke-opacity:1" d="M 781.841,656.578 802.045,646.477 z" id="boundary" inkscape:connector-curvature="0" />
	<path style="fill:none;stroke:red;stroke-width:1px;stroke-linecap:butt;stroke-linejoin:miter;stroke-opacity:1" d="M 787.902,408.073 808.106,397.971 z" id="boundary" inkscape:connector-curvature="0" />
	<path style="fill:none;stroke:red;stroke-width:1px;stroke-linecap:butt;stroke-linejoin:miter;stroke-opacity:1" d="M 789.923,355.544 804.065,339.381 z" id="boundary" inkscape:connector-curvature="0" />
	<path style="fill:none;stroke:red;stroke-width:1px;stroke-linecap:butt;stroke-linejoin:miter;stroke-opacity:1" d="M 789.923,486.868 804.065,460.603 z" id="boundary" inkscape:connector-curvature="0" />
	<path style="fill:none;stroke:red;stroke-width:1px;stroke-linecap:butt;stroke-linejoin:miter;stroke-opacity:1" d="M 793.963,139.365 810.126,125.222 z" id="boundary" inkscape:connector-curvature="0" />
	<path style="fill:none;stroke:red;stroke-width:1px;stroke-linecap:butt;stroke-linejoin:miter;stroke-opacity:1" d="M 798.004,682.843 814.167,662.64 z" id="boundary" inkscape:connector-curvature="0" />
	<path style="fill:none;stroke:red;stroke-width:1px;stroke-linecap:butt;stroke-linejoin:miter;stroke-opacity:1" d="M 802.045,646.477 814.167,662.64 z" id="boundary" inkscape:connector-curvature="0" />
	<path style="fill:none;stroke:red;stroke-width:1px;stroke-linecap:butt;stroke-linejoin:miter;stroke-opacity:1" d="M 804.065,339.381 820.228,325.238 z" id="boundary" inkscape:connector-curvature="0" />
	<path style="fill:none;stroke:red;stroke-width:1px;stroke-linecap:butt;stroke-linejoin:miter;stroke-opacity:1" d="M 804.065,460.603 820.228,446.46 z" id="boundary" inkscape:connector-curvature="0" />
	<path style="fill:none;stroke:red;stroke-width:1px;stroke-linecap:butt;stroke-linejoin:miter;stroke-opacity:1" d="M 808.106,397.971 828.31,397.971 z" id="boundary" inkscape:connector-curvature="0" />
	<path style="fill:none;stroke:red;stroke-width:1px;stroke-linecap:butt;stroke-linejoin:miter;stroke-opacity:1" d="M 810.126,125.222 824.269,109.059 z" id="boundary" inkscape:connector-curvature="0" />
	<path style="fill:none;stroke:red;stroke-width:1px;stroke-linecap:butt;stroke-linejoin:miter;stroke-opacity:1" d="M 814.167,238.363 818.208,258.566 z" id="boundary" inkscape:connector-curvature="0" />
	<path style="fill:none;stroke:red;stroke-width:1px;stroke-linecap:butt;stroke-linejoin:miter;stroke-opacity:1" d="M 814.167,238.363 830.33,224.22 z" id="boundary" inkscape:connector-curvature="0" />
	<path style="fill:none;stroke:red;stroke-width:1px;stroke-linecap:butt;stroke-linejoin:miter;stroke-opacity:1" d="M 818.208,258.566 838.411,266.648 z" id="boundary" inkscape:connector-curvature="0" />
	<path style="fill:none;stroke:red;stroke-width:1px;stroke-linecap:butt;stroke-linejoin:miter;stroke-opacity:1" d="M 820.228,325.238 834.371,309.075 z" id="boundary" inkscape:connector-curvature="0" />
	<path style="fill:none;stroke:red;stroke-width:1px;stroke-linecap:butt;stroke-linejoin:miter;stroke-opacity:1" d="M 820.228,446.46 834.371,420.196 z" id="boundary" inkscape:connector-curvature="0" />
	<path style="fill:none;stroke:red;stroke-width:1px;stroke-linecap:butt;stroke-linejoin:miter;stroke-opacity:1" d="M 824.269,109.059 840.432,94.9165 z" id="boundary" inkscape:connector-curvature="0" />
	<path style="fill:none;stroke:red;stroke-width:1px;stroke-linecap:butt;stroke-linejoin:miter;stroke-opacity:1" d="M 828.31,397.971 834.371,420.196 z" id="boundary" inkscape:connector-curvature="0" />
	<path style="fill:none;stroke:red;stroke-width:1px;stroke-linecap:butt;stroke-linejoin:miter;stroke-opacity:1" d="M 830.33,224.22 844.473,208.057 z" id="boundary" inkscape:connector-curvature="0" />
	<path style="fill:none;stroke:red;stroke-width:1px;stroke-linecap:butt;stroke-linejoin:miter;stroke-opacity:1" d="M 834.371,309.075 844.473,286.851 z" id="boundary" inkscape:connector-curvature="0" />
	<path style="fill:none;stroke:red;stroke-width:1px;stroke-linecap:butt;stroke-linejoin:miter;stroke-opacity:1" d="M 838.411,266.648 844.473,286.851 z" id="boundary" inkscape:connector-curvature="0" />
	<path style="fill:none;stroke:red;stroke-width:1px;stroke-linecap:butt;stroke-linejoin:miter;stroke-opacity:1" d="M 840.432,94.9165 854.574,78.7536 z" id="boundary" inkscape:connector-curvature="0" />
	<path style="fill:none;stroke:red;stroke-width:1px;stroke-linecap:butt;stroke-linejoin:miter;stroke-opacity:1" d="M 844.473,208.057 860.635,193.914 z" id="boundary" inkscape:connector-curvature="0" />
	<path style="fill:none;stroke:red;stroke-width:1px;stroke-linecap:butt;stroke-linejoin:miter;stroke-opacity:1" d="M 854.574,78.7536 870.737,64.611 z" id="boundary" inkscape:connector-curvature="0" />
	<path style="fill:none;stroke:red;stroke-width:1px;stroke-linecap:butt;stroke-linejoin:miter;stroke-opacity:1" d="M 860.635,193.914 874.778,177.752 z" id="boundary" inkscape:connector-curvature="0" />
	<path style="fill:none;stroke:red;stroke-width:1px;stroke-linecap:butt;stroke-linejoin:miter;stroke-opacity:1" d="M 870.737,64.611 884.88,48.4481 z" id="boundary" inkscape:connector-curvature="0" />
	<path style="fill:none;stroke:red;stroke-width:1px;stroke-linecap:butt;stroke-linejoin:miter;stroke-opacity:1" d="M 874.778,177.752 890.941,163.609 z" id="boundary" inkscape:connector-curvature="0" />
	<path style="fill:none;stroke:red;stroke-width:1px;stroke-linecap:butt;stroke-linejoin:miter;stroke-opacity:1" d="M 884.88,48.4481 901.043,34.3055 z" id="boundary" inkscape:connector-curvature="0" />
	<path style="fill:none;stroke:red;stroke-width:1px;stroke-linecap:butt;stroke-linejoin:miter;stroke-opacity:1" d="M 890.941,163.609 905.084,147.446 z" id="boundary" inkscape:connector-curvature="0" />
	<path style="fill:none;stroke:red;stroke-width:1px;stroke-linecap:butt;stroke-linejoin:miter;stroke-opacity:1" d="M 901.043,34.3055 919.226,24.2037 z" id="boundary" inkscape:connector-curvature="0" />
	<path style="fill:none;stroke:red;stroke-width:1px;stroke-linecap:butt;stroke-linejoin:miter;stroke-opacity:1" d="M 905.084,147.446 921.246,133.303 z" id="boundary" inkscape:connector-curvature="0" />
	<path style="fill:none;stroke:red;stroke-width:1px;stroke-linecap:butt;stroke-linejoin:miter;stroke-opacity:1" d="M 919.226,24.2037 937.409,14.1018 z" id="boundary" inkscape:connector-curvature="0" />
	<path style="fill:none;stroke:red;stroke-width:1px;stroke-linecap:butt;stroke-linejoin:miter;stroke-opacity:1" d="M 921.246,133.303 935.389,117.141 z" id="boundary" inkscape:connector-curvature="0" />
	<path style="fill:none;stroke:red;stroke-width:1px;stroke-linecap:butt;stroke-linejoin:miter;stroke-opacity:1" d="M 935.389,96.9369 935.389,117.141 z" id="boundary" inkscape:connector-curvature="0" />
	<path style="fill:none;stroke:red;stroke-width:1px;stroke-linecap:butt;stroke-linejoin:miter;stroke-opacity:1" d="M 935.389,96.9369 945.491,76.7332 z" id="boundary" inkscape:connector-curvature="0" />
	<path style="fill:none;stroke:red;stroke-width:1px;stroke-linecap:butt;stroke-linejoin:miter;stroke-opacity:1" d="M 937.409,14.1018 955.593,4 z" id="boundary" inkscape:connector-curvature="0" />
	<path style="fill:none;stroke:red;stroke-width:1px;stroke-linecap:butt;stroke-linejoin:miter;stroke-opacity:1" d="M 945.491,76.7332 955.593,56.5295 z" id="boundary" inkscape:connector-curvature="0" />
	<path style="fill:none;stroke:red;stroke-width:1px;stroke-linecap:butt;stroke-linejoin:miter;stroke-opacity:1" d="M 955.593,4 975.796,10.0611 z" id="boundary" inkscape:connector-curvature="0" />
	<path style="fill:none;stroke:red;stroke-width:1px;stroke-linecap:butt;stroke-linejoin:miter;stroke-opacity:1" d="M 955.593,56.5295 971.756,42.387 z" id="boundary" inkscape:connector-curvature="0" />
	<path style="fill:none;stroke:red;stroke-width:1px;stroke-linecap:butt;stroke-linejoin:miter;stroke-opacity:1" d="M 971.756,42.387 975.796,10.0611 z" id="boundary" inkscape:connector-curvature="0" />
	<circle cx="4" cy="606.069" r="4" fill="#0" id="circle0"/>
	<circle cx="4" cy="626.273" r="4" fill="#0" id="circle1"/>
	<circle cx="4" cy="646.477" r="4" fill="#0" id="circle2"/>
	<circle cx="4" cy="666.68" r="4" fill="#0" id="circle3"/>
	<circle cx="4" cy="686.884" r="4" fill="#0" id="circle4"/>
	<circle cx="4" cy="707.088" r="4" fill="#0" id="circle5"/>
	<circle cx="4" cy="727.291" r="4" fill="#0" id="circle6"/>
	<circle cx="4" cy="747.495" r="4" fill="#0" id="circle7"/>
	<circle cx="4" cy="767.699" r="4" fill="#0" id="circle8"/>
	<circle cx="4" cy="787.902" r="4" fill="#0" id="circle9"/>
	<circle cx="4" cy="808.106" r="4" fill="#0" id="circle10"/>
	<circle cx="4" cy="828.31" r="4" fill="#0" id="circle11"/>
	<circle cx="4" cy="848.513" r="4" fill="#0" id="circle12"/>
	<circle cx="4" cy="868.717" r="4" fill="#0" id="circle13"/>
	<circle cx="4" cy="888.921" r="4" fill="#0" id="circle14"/>
	<circle cx="4" cy="909.124" r="4" fill="#0" id="circle15"/>
	<circle cx="4" cy="929.328" r="4" fill="#0" id="circle16"/>
	<circle cx="4" cy="949.532" r="4" fill="#0" id="circle17"/>
	<circle cx="4" cy="969.735" r="4" fill="#0" id="circle18"/>
	<circle cx="4" cy="989.939" r="4" fill="#0" id="circle19"/>
	<circle cx="24.2037" cy="600.008" r="4" fill="#0" id="circle20"/>
	<circle cx="24.2037" cy="996" r="4" fill="#0" id="circle21"/>
	<circle cx="44.4073" cy="600.008" r="4" fill="#0" id="circle22"/>
	<circle cx="44.4073" cy="996" r="4" fill="#0" id="circle23"/>
	<circle cx="64.611" cy="600.008" r="4" fill="#0" id="circle24"/>
	<circle cx="64.611" cy="996" r="4" fill="#0" id="circle25"/>
	<circle cx="84.8147" cy="600.008" r="4" fill="#0" id="circle26"/>
	<circle cx="84.8147" cy="996" r="4" fill="#0" id="circle27"/>
	<circle cx="105.018" cy="600.008" r="4" fill="#0" id="circle28"/>
	<circle cx="105.018" cy="996" r="4" fill="#0" id="circle29"/>
	<circle cx="115.12" cy="292.912" r="4" fill="#0" id="circle30"/>
	<circle cx="125.222" cy="600.008" r="4" fill="#0" id="circle31"/>
	<circle cx="125.222" cy="996" r="4" fill="#0" id="circle32"/>
	<circle cx="131.283" cy="276.749" r="4" fill="#0" id="circle33"/>
	<circle cx="131.283" cy="307.055" r="4" fill="#0" id="circle34"/>
	<circle cx="145.426" cy="600.008" r="4" fill="#0" id="circle35"/>
	<circle cx="145.426" cy="996" r="4" fill="#0" id="circle36"/>
	<circle cx="147.446" cy="260.587" r="4" fill="#0" id="circle37"/>
	<circle cx="147.446" cy="319.177" r="4" fill="#0" id="circle38"/>
	<circle cx="163.609" cy="246.444" r="4" fill="#0" id="circle39"/>
	<circle cx="165.629" cy="329.279" r="4" fill="#0" id="circle40"/>
	<circle cx="165.629" cy="600.008" r="4" fill="#0" id="circle41"/>
	<circle cx="165.629" cy="996" r="4" fill="#0" id="circle42"/>
	<circle cx="177.752" cy="345.442" r="4" fill="#0" id="circle43"/>
	<circle cx="181.792" cy="236.342" r="4" fill="#0" id="circle44"/>
	<circle cx="185.833" cy="600.008" r="4" fill="#0" id="circle45"/>
	<circle cx="185.833" cy="996" r="4" fill="#0" id="circle46"/>
	<circle cx="197.955" cy="353.523" r="4" fill="#0" id="circle47"/>
	<circle cx="201.996" cy="236.342" r="4" fill="#0" id="circle48"/>
	<circle cx="206.037" cy="600.008" r="4" fill="#0" id="circle49"/>
	<circle cx="206.037" cy="996" r="4" fill="#0" id="circle50"/>
	<circle cx="212.098" cy="369.686" r="4" fill="#0" id="circle51"/>
	<circle cx="222.2" cy="236.342" r="4" fill="#0" id="circle52"/>
	<circle cx="226.24" cy="600.008" r="4" fill="#0" id="circle53"/>
	<circle cx="226.24" cy="996" r="4" fill="#0" id="circle54"/>
	<circle cx="230.281" cy="379.788" r="4" fill="#0" id="circle55"/>
	<circle cx="236.342" cy="454.542" r="4" fill="#0" id="circle56"/>
	<circle cx="236.342" cy="474.745" r="4" fill="#0" id="circle57"/>
	<circle cx="242.403" cy="236.342" r="4" fill="#0" id="circle58"/>
	<circle cx="246.444" cy="391.91" r="4" fill="#0" id="circle59"/>
	<circle cx="246.444" cy="600.008" r="4" fill="#0" id="circle60"/>
	<circle cx="246.444" cy="996" r="4" fill="#0" id="circle61"/>
	<circle cx="252.505" cy="488.888" r="4" fill="#0" id="circle62"/>
	<circle cx="256.546" cy="444.44" r="4" fill="#0" id="circle63"/>
	<circle cx="260.587" cy="408.073" r="4" fill="#0" id="circle64"/>
	<circle cx="262.607" cy="226.24" r="4" fill="#0" id="circle65"/>
	<circle cx="266.648" cy="505.051" r="4" fill="#0" id="circle66"/>
	<circle cx="266.648" cy="600.008" r="4" fill="#0" id="circle67"/>
	<circle cx="266.648" cy="996" r="4" fill="#0" id="circle68"/>
	<circle cx="276.749" cy="420.196" r="4" fill="#0" id="circle69"/>
	<circle cx="278.77" cy="210.077" r="4" fill="#0" id="circle70"/>
	<circle cx="278.77" cy="238.363" r="4" fill="#0" id="circle71"/>
	<circle cx="286.851" cy="511.112" r="4" fill="#0" id="circle72"/>
	<circle cx="286.851" cy="600.008" r="4" fill="#0" id="circle73"/>
	<circle cx="286.851" cy="996" r="4" fill="#0" id="circle74"/>
	<circle cx="288.872" cy="189.874" r="4" fill="#0" id="circle75"/>
	<circle cx="288.872" cy="256.546" r="4" fill="#0" id="circle76"/>
	<circle cx="298.974" cy="218.159" r="4" fill="#0" id="circle77"/>
	<circle cx="303.014" cy="498.99" r="4" fill="#0" id="circle78"/>
	<circle cx="305.035" cy="175.731" r="4" fill="#0" id="circle79"/>
	<circle cx="307.055" cy="600.008" r="4" fill="#0" id="circle80"/>
	<circle cx="307.055" cy="989.939" r="4" fill="#0" id="circle81"/>
	<circle cx="309.075" cy="256.546" r="4" fill="#0" id="circle82"/>
	<circle cx="309.075" cy="470.705" r="4" fill="#0" id="circle83"/>
	<circle cx="309.075" cy="743.454" r="4" fill="#0" id="circle84"/>
	<circle cx="309.075" cy="763.658" r="4" fill="#0" id="circle85"/>
	<circle cx="309.075" cy="783.862" r="4" fill="#0" id="circle86"/>
	<circle cx="309.075" cy="804.065" r="4" fill="#0" id="circle87"/>
	<circle cx="309.075" cy="824.269" r="4" fill="#0" id="circle88"/>
	<circle cx="309.075" cy="844.473" r="4" fill="#0" id="circle89"/>
	<circle cx="309.075" cy="864.676" r="4" fill="#0" id="circle90"/>
	<circle cx="309.075" cy="884.88" r="4" fill="#0" id="circle91"/>
	<circle cx="309.075" cy="905.084" r="4" fill="#0" id="circle92"/>
	<circle cx="309.075" cy="925.287" r="4" fill="#0" id="circle93"/>
	<circle cx="309.075" cy="945.491" r="4" fill="#0" id="circle94"/>
	<circle cx="309.075" cy="965.695" r="4" fill="#0" id="circle95"/>
	<circle cx="315.136" cy="204.016" r="4" fill="#0" id="circle96"/>
	<circle cx="325.238" cy="589.906" r="4" fill="#0" id="circle97"/>
	<circle cx="325.238" cy="729.312" r="4" fill="#0" id="circle98"/>
	<circle cx="327.259" cy="480.807" r="4" fill="#0" id="circle99"/>
	<circle cx="329.279" cy="250.485" r="4" fill="#0" id="circle100"/>
	<circle cx="337.36" cy="565.662" r="4" fill="#0" id="circle101"/>
	<circle cx="339.381" cy="496.969" r="4" fill="#0" id="circle102"/>
	<circle cx="345.442" cy="236.342" r="4" fill="#0" id="circle103"/>
	<circle cx="345.442" cy="719.21" r="4" fill="#0" id="circle104"/>
	<circle cx="349.483" cy="258.566" r="4" fill="#0" id="circle105"/>
	<circle cx="353.523" cy="549.499" r="4" fill="#0" id="circle106"/>
	<circle cx="355.544" cy="511.112" r="4" fill="#0" id="circle107"/>
	<circle cx="359.585" cy="220.179" r="4" fill="#0" id="circle108"/>
	<circle cx="359.585" cy="703.047" r="4" fill="#0" id="circle109"/>
	<circle cx="365.646" cy="244.424" r="4" fill="#0" id="circle110"/>
	<circle cx="369.686" cy="266.648" r="4" fill="#0" id="circle111"/>
	<circle cx="375.747" cy="688.904" r="4" fill="#0" id="circle112"/>
	<circle cx="379.788" cy="222.2" r="4" fill="#0" id="circle113"/>
	<circle cx="389.89" cy="272.709" r="4" fill="#0" id="circle114"/>
	<circle cx="395.951" cy="678.802" r="4" fill="#0" id="circle115"/>
	<circle cx="410.094" cy="276.749" r="4" fill="#0" id="circle116"/>
	<circle cx="410.094" cy="662.64" r="4" fill="#0" id="circle117"/>
	<circle cx="428.277" cy="266.648" r="4" fill="#0" id="circle118"/>
	<circle cx="430.297" cy="662.64" r="4" fill="#0" id="circle119"/>
	<circle cx="446.46" cy="256.546" r="4" fill="#0" id="circle120"/>
	<circle cx="450.501" cy="662.64" r="4" fill="#0" id="circle121"/>
	<circle cx="454.542" cy="236.342" r="4" fill="#0" id="circle122"/>
	<circle cx="468.684" cy="696.986" r="4" fill="#0" id="circle123"/>
	<circle cx="470.705" cy="220.179" r="4" fill="#0" id="circle124"/>
	<circle cx="470.705" cy="662.64" r="4" fill="#0" id="circle125"/>
	<circle cx="478.786" cy="715.169" r="4" fill="#0" id="circle126"/>
	<circle cx="484.847" cy="680.823" r="4" fill="#0" id="circle127"/>
	<circle cx="486.868" cy="206.037" r="4" fill="#0" id="circle128"/>
	<circle cx="488.888" cy="733.352" r="4" fill="#0" id="circle129"/>
	<circle cx="501.01" cy="189.874" r="4" fill="#0" id="circle130"/>
	<circle cx="501.01" cy="278.77" r="4" fill="#0" id="circle131"/>
	<circle cx="501.01" cy="749.515" r="4" fill="#0" id="circle132"/>
	<circle cx="511.112" cy="296.953" r="4" fill="#0" id="circle133"/>
	<circle cx="517.173" cy="175.731" r="4" fill="#0" id="circle134"/>
	<circle cx="517.173" cy="264.627" r="4" fill="#0" id="circle135"/>
	<circle cx="521.214" cy="753.556" r="4" fill="#0" id="circle136"/>
	<circle cx="531.316" cy="248.464" r="4" fill="#0" id="circle137"/>
	<circle cx="531.316" cy="296.953" r="4" fill="#0" id="circle138"/>
	<circle cx="535.356" cy="165.629" r="4" fill="#0" id="circle139"/>
	<circle cx="537.377" cy="739.413" r="4" fill="#0" id="circle140"/>
	<circle cx="541.418" cy="228.261" r="4" fill="#0" id="circle141"/>
	<circle cx="547.479" cy="719.21" r="4" fill="#0" id="circle142"/>
	<circle cx="551.519" cy="290.892" r="4" fill="#0" id="circle143"/>
	<circle cx="553.54" cy="155.527" r="4" fill="#0" id="circle144"/>
	<circle cx="557.58" cy="214.118" r="4" fill="#0" id="circle145"/>
	<circle cx="567.682" cy="193.914" r="4" fill="#0" id="circle146"/>
	<circle cx="567.682" cy="276.749" r="4" fill="#0" id="circle147"/>
	<circle cx="567.682" cy="723.251" r="4" fill="#0" id="circle148"/>
	<circle cx="571.723" cy="145.426" r="4" fill="#0" id="circle149"/>
	<circle cx="581.825" cy="163.609" r="4" fill="#0" id="circle150"/>
	<circle cx="581.825" cy="260.587" r="4" fill="#0" id="circle151"/>
	<circle cx="581.825" cy="739.413" r="4" fill="#0" id="circle152"/>
	<circle cx="597.988" cy="753.556" r="4" fill="#0" id="circle153"/>
	<circle cx="602.029" cy="250.485" r="4" fill="#0" id="circle154"/>
	<circle cx="610.11" cy="769.719" r="4" fill="#0" id="circle155"/>
	<circle cx="618.191" cy="236.342" r="4" fill="#0" id="circle156"/>
	<circle cx="620.212" cy="787.902" r="4" fill="#0" id="circle157"/>
	<circle cx="632.334" cy="220.179" r="4" fill="#0" id="circle158"/>
	<circle cx="636.375" cy="802.045" r="4" fill="#0" id="circle159"/>
	<circle cx="644.456" cy="822.248" r="4" fill="#0" id="circle160"/>
	<circle cx="648.497" cy="206.037" r="4" fill="#0" id="circle161"/>
	<circle cx="656.578" cy="185.833" r="4" fill="#0" id="circle162"/>
	<circle cx="660.619" cy="834.371" r="4" fill="#0" id="circle163"/>
	<circle cx="666.68" cy="854.574" r="4" fill="#0" id="circle164"/>
	<circle cx="672.741" cy="169.67" r="4" fill="#0" id="circle165"/>
	<circle cx="682.843" cy="868.717" r="4" fill="#0" id="circle166"/>
	<circle cx="688.904" cy="155.527" r="4" fill="#0" id="circle167"/>
	<circle cx="703.047" cy="450.501" r="4" fill="#0" id="circle168"/>
	<circle cx="703.047" cy="874.778" r="4" fill="#0" id="circle169"/>
	<circle cx="707.088" cy="145.426" r="4" fill="#0" id="circle170"/>
	<circle cx="713.149" cy="561.621" r="4" fill="#0" id="circle171"/>
	<circle cx="719.21" cy="436.358" r="4" fill="#0" id="circle172"/>
	<circle cx="719.21" cy="860.635" r="4" fill="#0" id="circle173"/>
	<circle cx="723.251" cy="579.804" r="4" fill="#0" id="circle174"/>
	<circle cx="723.251" cy="600.008" r="4" fill="#0" id="circle175"/>
	<circle cx="723.251" cy="620.212" r="4" fill="#0" id="circle176"/>
	<circle cx="725.271" cy="155.527" r="4" fill="#0" id="circle177"/>
	<circle cx="729.312" cy="547.479" r="4" fill="#0" id="circle178"/>
	<circle cx="733.352" cy="175.731" r="4" fill="#0" id="circle179"/>
	<circle cx="733.352" cy="420.196" r="4" fill="#0" id="circle180"/>
	<circle cx="733.352" cy="652.538" r="4" fill="#0" id="circle181"/>
	<circle cx="733.352" cy="672.741" r="4" fill="#0" id="circle182"/>
	<circle cx="733.352" cy="692.945" r="4" fill="#0" id="circle183"/>
	<circle cx="733.352" cy="844.473" r="4" fill="#0" id="circle184"/>
	<circle cx="735.373" cy="448.481" r="4" fill="#0" id="circle185"/>
	<circle cx="741.434" cy="610.11" r="4" fill="#0" id="circle186"/>
	<circle cx="743.454" cy="399.992" r="4" fill="#0" id="circle187"/>
	<circle cx="743.454" cy="531.316" r="4" fill="#0" id="circle188"/>
	<circle cx="743.454" cy="711.128" r="4" fill="#0" id="circle189"/>
	<circle cx="743.454" cy="743.454" r="4" fill="#0" id="circle190"/>
	<circle cx="743.454" cy="763.658" r="4" fill="#0" id="circle191"/>
	<circle cx="743.454" cy="814.167" r="4" fill="#0" id="circle192"/>
	<circle cx="749.515" cy="638.395" r="4" fill="#0" id="circle193"/>
	<circle cx="751.536" cy="185.833" r="4" fill="#0" id="circle194"/>
	<circle cx="751.536" cy="434.338" r="4" fill="#0" id="circle195"/>
	<circle cx="753.556" cy="781.841" r="4" fill="#0" id="circle196"/>
	<circle cx="759.617" cy="385.849" r="4" fill="#0" id="circle197"/>
	<circle cx="759.617" cy="517.173" r="4" fill="#0" id="circle198"/>
	<circle cx="759.617" cy="600.008" r="4" fill="#0" id="circle199"/>
	<circle cx="759.617" cy="729.312" r="4" fill="#0" id="circle200"/>
	<circle cx="761.637" cy="696.986" r="4" fill="#0" id="circle201"/>
	<circle cx="763.658" cy="169.67" r="4" fill="#0" id="circle202"/>
	<circle cx="763.658" cy="622.232" r="4" fill="#0" id="circle203"/>
	<circle cx="767.699" cy="418.175" r="4" fill="#0" id="circle204"/>
	<circle cx="773.76" cy="369.686" r="4" fill="#0" id="circle205"/>
	<circle cx="773.76" cy="501.01" r="4" fill="#0" id="circle206"/>
	<circle cx="773.76" cy="713.149" r="4" fill="#0" id="circle207"/>
	<circle cx="777.8" cy="680.823" r="4" fill="#0" id="circle208"/>
	<circle cx="779.821" cy="155.527" r="4" fill="#0" id="circle209"/>
	<circle cx="781.841" cy="656.578" r="4" fill="#0" id="circle210"/>
	<circle cx="787.902" cy="408.073" r="4" fill="#0" id="circle211"/>
	<circle cx="789.923" cy="355.544" r="4" fill="#0" id="circle212"/>
	<circle cx="789.923" cy="486.868" r="4" fill="#0" id="circle213"/>
	<circle cx="793.963" cy="139.365" r="4" fill="#0" id="circle214"/>
	<circle cx="798.004" cy="682.843" r="4" fill="#0" id="circle215"/>
	<circle cx="802.045" cy="646.477" r="4" fill="#0" id="circle216"/>
	<circle cx="804.065" cy="339.381" r="4" fill="#0" id="circle217"/>
	<circle cx="804.065" cy="460.603" r="4" fill="#0" id="circle218"/>
	<circle cx="808.106" cy="397.971" r="4" fill="#0" id="circle219"/>
	<circle cx="810.126" cy="125.222" r="4" fill="#0" id="circle220"/>
	<circle cx="814.167" cy="238.363" r="4" fill="#0" id="circle221"/>
	<circle cx="814.167" cy="662.64" r="4" fill="#0" id="circle222"/>
	<circle cx="818.208" cy="258.566" r="4" fill="#0" id="circle223"/>
	<circle cx="820.228" cy="325.238" r="4" fill="#0" id="circle224"/>
	<circle cx="820.228" cy="446.46" r="4" fill="#0" id="circle225"/>
	<circle cx="824.269" cy="109.059" r="4" fill="#0" id="circle226"/>
	<circle cx="828.31" cy="397.971" r="4" fill="#0" id="circle227"/>
	<circle cx="830.33" cy="224.22" r="4" fill="#0" id="circle228"/>
	<circle cx="834.371" cy="309.075" r="4" fill="#0" id="circle229"/>
	<circle cx="834.371" cy="420.196" r="4" fill="#0" id="circle230"/>
	<circle cx="838.411" cy="266.648" r="4" fill="#0" id="circle231"/>
	<circle cx="840.432" cy="94.9165" r="4" fill="#0" id="circle232"/>
	<circle cx="844.473" cy="208.057" r="4" fill="#0" id="circle233"/>
	<circle cx="844.473" cy="286.851" r="4" fill="#0" id="circle234"/>
	<circle cx="854.574" cy="78.7536" r="4" fill="#0" id="circle235"/>
	<circle cx="860.635" cy="193.914" r="4" fill="#0" id="circle236"/>
	<circle cx="870.737" cy="64.611" r="4" fill="#0" id="circle237"/>
	<circle cx="874.778" cy="177.752" r="4" fill="#0" id="circle238"/>
	<circle cx="884.88" cy="48.4481" r="4" fill="#0" id="circle239"/>
	<circle cx="890.941" cy="163.609" r="4" fill="#0" id="circle240"/>
	<circle cx="901.043" cy="34.3055" r="4" fill="#0" id="circle241"/>
	<circle cx="905.084" cy="147.446" r="4" fill="#0" id="circle242"/>
	<circle cx="919.226" cy="24.2037" r="4" fill="#0" id="circle243"/>
	<circle cx="921.246" cy="133.303" r="4" fill="#0" id="circle244"/>
	<circle cx="935.389" cy="96.9369" r="4" fill="#0" id="circle245"/>
	<circle cx="935.389" cy="117.141" r="4" fill="#0" id="circle246"/>
	<circle cx="937.409" cy="14.1018" r="4" fill="#0" id="circle247"/>
	<circle cx="945.491" cy="76.7332" r="4" fill="#0" id="circle248"/>
	<circle cx="955.593" cy="4" r="4" fill="#0" id="circle249"/>
	<circle cx="955.593" cy="56.5295" r="4" fill="#0" id="circle250"/>
	<circle cx="971.756" cy="42.387" r="4" fill="#0" id="circle251"/>
	<circle cx="975.796" cy="10.0611" r="4" fill="#0" id="circle252"/>
	</g>
</svg>