<?xml version="1.0" encoding="UTF-8" standalone="no"?>
<!-- Created with CurveBenchmark -->
<svg
	xmlns:dc="http://purl.org/dc/elements/1.1/"
	xmlns:cc="http://creativecommons.org/ns#"
	xmlns:rdf="http://www.w3.org/1999/02/22-rdf-syntax-ns#"
	xmlns:svg="http://www.w3.org/2000/svg"
	xmlns="http://www.w3.org/2000/svg"
	xmlns:sodipodi="http://sodipodi.sourceforge.net/DTD/sodipodi-0.dtd"
	xmlns:inkscape="http://www.inkscape.org/namespaces/inkscape"
	width="1000"
	height="1000"
	id="svg2"
	version="1.1"
	sodipodi:docname="manifold/discur-bed215.png.txt">
<defs
	id="defs4" />
<metadata
	id="metadata7">
	<rdf:RDF>
		<cc:Work
			rdf:about="">
			<dc:format>image/svg+xml</dc:format>
			<dc:type
				rdf:resource="http://purl.org/dc/dcmitype/StillImage" />
			<dc:title></dc:title>
		</cc:Work>
	</rdf:RDF>
</metadata>
<g
	inkscape:label="Layer 1"
	inkscape:groupmode="layer"
	id="layer1">
	<path style="fill:none;stroke:red;stroke-width:1px;stroke-linecap:butt;stroke-linejoin:miter;stroke-opacity:1" d="M 4,335.236 7.4148,352.31 z" id="boundary" inkscape:connector-curvature="0" />
	<path style="fill:none;stroke:red;stroke-width:1px;stroke-linecap:butt;stroke-linejoin:miter;stroke-opacity:1" d="M 4,335.236 14.2444,321.577 z" id="boundary" inkscape:connector-curvature="0" />
	<path style="fill:none;stroke:red;stroke-width:1px;stroke-linecap:butt;stroke-linejoin:miter;stroke-opacity:1" d="M 7.4148,352.31 17.6592,376.213 z" id="boundary" inkscape:connector-curvature="0" />
	<path style="fill:none;stroke:red;stroke-width:1px;stroke-linecap:butt;stroke-linejoin:miter;stroke-opacity:1" d="M 10.8296,526.465 27.9036,528.172 z" id="boundary" inkscape:connector-curvature="0" />
	<path style="fill:none;stroke:red;stroke-width:1px;stroke-linecap:butt;stroke-linejoin:miter;stroke-opacity:1" d="M 14.2444,321.577 27.9036,311.332 z" id="boundary" inkscape:connector-curvature="0" />
	<path style="fill:none;stroke:red;stroke-width:1px;stroke-linecap:butt;stroke-linejoin:miter;stroke-opacity:1" d="M 14.2444,482.072 14.2444,499.146 z" id="boundary" inkscape:connector-curvature="0" />
	<path style="fill:none;stroke:red;stroke-width:1px;stroke-linecap:butt;stroke-linejoin:miter;stroke-opacity:1" d="M 14.2444,482.072 24.4888,468.413 z" id="boundary" inkscape:connector-curvature="0" />
	<path style="fill:none;stroke:red;stroke-width:1px;stroke-linecap:butt;stroke-linejoin:miter;stroke-opacity:1" d="M 14.2444,499.146 29.611,490.609 z" id="boundary" inkscape:connector-curvature="0" />
	<path style="fill:none;stroke:red;stroke-width:1px;stroke-linecap:butt;stroke-linejoin:miter;stroke-opacity:1" d="M 17.6592,376.213 24.4888,393.287 z" id="boundary" inkscape:connector-curvature="0" />
	<path style="fill:none;stroke:red;stroke-width:1px;stroke-linecap:butt;stroke-linejoin:miter;stroke-opacity:1" d="M 24.4888,393.287 24.4888,410.361 z" id="boundary" inkscape:connector-curvature="0" />
	<path style="fill:none;stroke:red;stroke-width:1px;stroke-linecap:butt;stroke-linejoin:miter;stroke-opacity:1" d="M 24.4888,410.361 27.9036,427.435 z" id="boundary" inkscape:connector-curvature="0" />
	<path style="fill:none;stroke:red;stroke-width:1px;stroke-linecap:butt;stroke-linejoin:miter;stroke-opacity:1" d="M 24.4888,451.339 24.4888,468.413 z" id="boundary" inkscape:connector-curvature="0" />
	<path style="fill:none;stroke:red;stroke-width:1px;stroke-linecap:butt;stroke-linejoin:miter;stroke-opacity:1" d="M 24.4888,451.339 41.5628,466.706 z" id="boundary" inkscape:connector-curvature="0" />
	<path style="fill:none;stroke:red;stroke-width:1px;stroke-linecap:butt;stroke-linejoin:miter;stroke-opacity:1" d="M 27.9036,311.332 44.9776,304.503 z" id="boundary" inkscape:connector-curvature="0" />
	<path style="fill:none;stroke:red;stroke-width:1px;stroke-linecap:butt;stroke-linejoin:miter;stroke-opacity:1" d="M 27.9036,528.172 29.611,507.683 z" id="boundary" inkscape:connector-curvature="0" />
	<path style="fill:none;stroke:red;stroke-width:1px;stroke-linecap:butt;stroke-linejoin:miter;stroke-opacity:1" d="M 29.611,490.609 29.611,507.683 z" id="boundary" inkscape:connector-curvature="0" />
	<path style="fill:none;stroke:red;stroke-width:1px;stroke-linecap:butt;stroke-linejoin:miter;stroke-opacity:1" d="M 41.5628,466.706 58.6368,466.706 z" id="boundary" inkscape:connector-curvature="0" />
	<path style="fill:none;stroke:red;stroke-width:1px;stroke-linecap:butt;stroke-linejoin:miter;stroke-opacity:1" d="M 44.9776,304.503 62.0516,297.673 z" id="boundary" inkscape:connector-curvature="0" />
	<path style="fill:none;stroke:red;stroke-width:1px;stroke-linecap:butt;stroke-linejoin:miter;stroke-opacity:1" d="M 58.6368,466.706 75.7108,468.413 z" id="boundary" inkscape:connector-curvature="0" />
	<path style="fill:none;stroke:red;stroke-width:1px;stroke-linecap:butt;stroke-linejoin:miter;stroke-opacity:1" d="M 62.0516,297.673 79.1256,294.258 z" id="boundary" inkscape:connector-curvature="0" />
	<path style="fill:none;stroke:red;stroke-width:1px;stroke-linecap:butt;stroke-linejoin:miter;stroke-opacity:1" d="M 75.7108,468.413 92.7849,475.243 z" id="boundary" inkscape:connector-curvature="0" />
	<path style="fill:none;stroke:red;stroke-width:1px;stroke-linecap:butt;stroke-linejoin:miter;stroke-opacity:1" d="M 79.1256,294.258 96.1997,290.843 z" id="boundary" inkscape:connector-curvature="0" />
	<path style="fill:none;stroke:red;stroke-width:1px;stroke-linecap:butt;stroke-linejoin:miter;stroke-opacity:1" d="M 92.7849,475.243 109.859,480.365 z" id="boundary" inkscape:connector-curvature="0" />
	<path style="fill:none;stroke:red;stroke-width:1px;stroke-linecap:butt;stroke-linejoin:miter;stroke-opacity:1" d="M 96.1997,290.843 113.274,284.014 z" id="boundary" inkscape:connector-curvature="0" />
	<path style="fill:none;stroke:red;stroke-width:1px;stroke-linecap:butt;stroke-linejoin:miter;stroke-opacity:1" d="M 109.859,480.365 126.933,473.535 z" id="boundary" inkscape:connector-curvature="0" />
	<path style="fill:none;stroke:red;stroke-width:1px;stroke-linecap:butt;stroke-linejoin:miter;stroke-opacity:1" d="M 113.274,284.014 130.348,284.014 z" id="boundary" inkscape:connector-curvature="0" />
	<path style="fill:none;stroke:red;stroke-width:1px;stroke-linecap:butt;stroke-linejoin:miter;stroke-opacity:1" d="M 126.933,473.535 142.299,464.998 z" id="boundary" inkscape:connector-curvature="0" />
	<path style="fill:none;stroke:red;stroke-width:1px;stroke-linecap:butt;stroke-linejoin:miter;stroke-opacity:1" d="M 130.348,284.014 147.422,280.599 z" id="boundary" inkscape:connector-curvature="0" />
	<path style="fill:none;stroke:red;stroke-width:1px;stroke-linecap:butt;stroke-linejoin:miter;stroke-opacity:1" d="M 142.299,464.998 159.373,463.291 z" id="boundary" inkscape:connector-curvature="0" />
	<path style="fill:none;stroke:red;stroke-width:1px;stroke-linecap:butt;stroke-linejoin:miter;stroke-opacity:1" d="M 147.422,280.599 164.496,280.599 z" id="boundary" inkscape:connector-curvature="0" />
	<path style="fill:none;stroke:red;stroke-width:1px;stroke-linecap:butt;stroke-linejoin:miter;stroke-opacity:1" d="M 159.373,463.291 176.448,466.706 z" id="boundary" inkscape:connector-curvature="0" />
	<path style="fill:none;stroke:red;stroke-width:1px;stroke-linecap:butt;stroke-linejoin:miter;stroke-opacity:1" d="M 164.496,280.599 181.57,277.184 z" id="boundary" inkscape:connector-curvature="0" />
	<path style="fill:none;stroke:red;stroke-width:1px;stroke-linecap:butt;stroke-linejoin:miter;stroke-opacity:1" d="M 176.448,466.706 193.522,473.535 z" id="boundary" inkscape:connector-curvature="0" />
	<path style="fill:none;stroke:red;stroke-width:1px;stroke-linecap:butt;stroke-linejoin:miter;stroke-opacity:1" d="M 181.57,277.184 198.644,277.184 z" id="boundary" inkscape:connector-curvature="0" />
	<path style="fill:none;stroke:red;stroke-width:1px;stroke-linecap:butt;stroke-linejoin:miter;stroke-opacity:1" d="M 193.522,473.535 210.596,480.365 z" id="boundary" inkscape:connector-curvature="0" />
	<path style="fill:none;stroke:red;stroke-width:1px;stroke-linecap:butt;stroke-linejoin:miter;stroke-opacity:1" d="M 198.644,277.184 212.303,266.94 z" id="boundary" inkscape:connector-curvature="0" />
	<path style="fill:none;stroke:red;stroke-width:1px;stroke-linecap:butt;stroke-linejoin:miter;stroke-opacity:1" d="M 210.596,480.365 225.962,488.902 z" id="boundary" inkscape:connector-curvature="0" />
	<path style="fill:none;stroke:red;stroke-width:1px;stroke-linecap:butt;stroke-linejoin:miter;stroke-opacity:1" d="M 212.303,266.94 229.377,261.818 z" id="boundary" inkscape:connector-curvature="0" />
	<path style="fill:none;stroke:red;stroke-width:1px;stroke-linecap:butt;stroke-linejoin:miter;stroke-opacity:1" d="M 225.962,488.902 243.036,494.024 z" id="boundary" inkscape:connector-curvature="0" />
	<path style="fill:none;stroke:red;stroke-width:1px;stroke-linecap:butt;stroke-linejoin:miter;stroke-opacity:1" d="M 229.377,261.818 244.744,253.281 z" id="boundary" inkscape:connector-curvature="0" />
	<path style="fill:none;stroke:red;stroke-width:1px;stroke-linecap:butt;stroke-linejoin:miter;stroke-opacity:1" d="M 243.036,494.024 260.11,497.439 z" id="boundary" inkscape:connector-curvature="0" />
	<path style="fill:none;stroke:red;stroke-width:1px;stroke-linecap:butt;stroke-linejoin:miter;stroke-opacity:1" d="M 244.744,253.281 258.403,243.036 z" id="boundary" inkscape:connector-curvature="0" />
	<path style="fill:none;stroke:red;stroke-width:1px;stroke-linecap:butt;stroke-linejoin:miter;stroke-opacity:1" d="M 258.403,243.036 275.477,234.499 z" id="boundary" inkscape:connector-curvature="0" />
	<path style="fill:none;stroke:red;stroke-width:1px;stroke-linecap:butt;stroke-linejoin:miter;stroke-opacity:1" d="M 260.11,497.439 277.184,500.854 z" id="boundary" inkscape:connector-curvature="0" />
	<path style="fill:none;stroke:red;stroke-width:1px;stroke-linecap:butt;stroke-linejoin:miter;stroke-opacity:1" d="M 275.477,234.499 292.551,236.207 z" id="boundary" inkscape:connector-curvature="0" />
	<path style="fill:none;stroke:red;stroke-width:1px;stroke-linecap:butt;stroke-linejoin:miter;stroke-opacity:1" d="M 277.184,500.854 294.258,497.439 z" id="boundary" inkscape:connector-curvature="0" />
	<path style="fill:none;stroke:red;stroke-width:1px;stroke-linecap:butt;stroke-linejoin:miter;stroke-opacity:1" d="M 292.551,236.207 309.625,243.036 z" id="boundary" inkscape:connector-curvature="0" />
	<path style="fill:none;stroke:red;stroke-width:1px;stroke-linecap:butt;stroke-linejoin:miter;stroke-opacity:1" d="M 294.258,497.439 311.332,494.024 z" id="boundary" inkscape:connector-curvature="0" />
	<path style="fill:none;stroke:red;stroke-width:1px;stroke-linecap:butt;stroke-linejoin:miter;stroke-opacity:1" d="M 309.625,243.036 323.284,253.281 z" id="boundary" inkscape:connector-curvature="0" />
	<path style="fill:none;stroke:red;stroke-width:1px;stroke-linecap:butt;stroke-linejoin:miter;stroke-opacity:1" d="M 311.332,494.024 328.406,490.609 z" id="boundary" inkscape:connector-curvature="0" />
	<path style="fill:none;stroke:red;stroke-width:1px;stroke-linecap:butt;stroke-linejoin:miter;stroke-opacity:1" d="M 323.284,253.281 340.358,260.11 z" id="boundary" inkscape:connector-curvature="0" />
	<path style="fill:none;stroke:red;stroke-width:1px;stroke-linecap:butt;stroke-linejoin:miter;stroke-opacity:1" d="M 328.406,490.609 345.48,483.78 z" id="boundary" inkscape:connector-curvature="0" />
	<path style="fill:none;stroke:red;stroke-width:1px;stroke-linecap:butt;stroke-linejoin:miter;stroke-opacity:1" d="M 340.358,260.11 354.017,270.355 z" id="boundary" inkscape:connector-curvature="0" />
	<path style="fill:none;stroke:red;stroke-width:1px;stroke-linecap:butt;stroke-linejoin:miter;stroke-opacity:1" d="M 345.48,483.78 360.847,475.243 z" id="boundary" inkscape:connector-curvature="0" />
	<path style="fill:none;stroke:red;stroke-width:1px;stroke-linecap:butt;stroke-linejoin:miter;stroke-opacity:1" d="M 354.017,270.355 371.091,277.184 z" id="boundary" inkscape:connector-curvature="0" />
	<path style="fill:none;stroke:red;stroke-width:1px;stroke-linecap:butt;stroke-linejoin:miter;stroke-opacity:1" d="M 360.847,475.243 377.921,468.413 z" id="boundary" inkscape:connector-curvature="0" />
	<path style="fill:none;stroke:red;stroke-width:1px;stroke-linecap:butt;stroke-linejoin:miter;stroke-opacity:1" d="M 371.091,277.184 388.165,277.184 z" id="boundary" inkscape:connector-curvature="0" />
	<path style="fill:none;stroke:red;stroke-width:1px;stroke-linecap:butt;stroke-linejoin:miter;stroke-opacity:1" d="M 377.921,468.413 394.995,463.291 z" id="boundary" inkscape:connector-curvature="0" />
	<path style="fill:none;stroke:red;stroke-width:1px;stroke-linecap:butt;stroke-linejoin:miter;stroke-opacity:1" d="M 388.165,277.184 405.239,280.599 z" id="boundary" inkscape:connector-curvature="0" />
	<path style="fill:none;stroke:red;stroke-width:1px;stroke-linecap:butt;stroke-linejoin:miter;stroke-opacity:1" d="M 394.995,463.291 412.069,463.291 z" id="boundary" inkscape:connector-curvature="0" />
	<path style="fill:none;stroke:red;stroke-width:1px;stroke-linecap:butt;stroke-linejoin:miter;stroke-opacity:1" d="M 405.239,280.599 422.313,280.599 z" id="boundary" inkscape:connector-curvature="0" />
	<path style="fill:none;stroke:red;stroke-width:1px;stroke-linecap:butt;stroke-linejoin:miter;stroke-opacity:1" d="M 412.069,463.291 429.143,470.12 z" id="boundary" inkscape:connector-curvature="0" />
	<path style="fill:none;stroke:red;stroke-width:1px;stroke-linecap:butt;stroke-linejoin:miter;stroke-opacity:1" d="M 422.313,280.599 439.387,273.769 z" id="boundary" inkscape:connector-curvature="0" />
	<path style="fill:none;stroke:red;stroke-width:1px;stroke-linecap:butt;stroke-linejoin:miter;stroke-opacity:1" d="M 429.143,470.12 441.095,483.78 z" id="boundary" inkscape:connector-curvature="0" />
	<path style="fill:none;stroke:red;stroke-width:1px;stroke-linecap:butt;stroke-linejoin:miter;stroke-opacity:1" d="M 439.387,273.769 451.339,260.11 z" id="boundary" inkscape:connector-curvature="0" />
	<path style="fill:none;stroke:red;stroke-width:1px;stroke-linecap:butt;stroke-linejoin:miter;stroke-opacity:1" d="M 441.095,483.78 458.169,476.95 z" id="boundary" inkscape:connector-curvature="0" />
	<path style="fill:none;stroke:red;stroke-width:1px;stroke-linecap:butt;stroke-linejoin:miter;stroke-opacity:1" d="M 451.339,260.11 466.706,251.573 z" id="boundary" inkscape:connector-curvature="0" />
	<path style="fill:none;stroke:red;stroke-width:1px;stroke-linecap:butt;stroke-linejoin:miter;stroke-opacity:1" d="M 458.169,476.95 475.243,470.12 z" id="boundary" inkscape:connector-curvature="0" />
	<path style="fill:none;stroke:red;stroke-width:1px;stroke-linecap:butt;stroke-linejoin:miter;stroke-opacity:1" d="M 466.706,251.573 480.365,237.914 z" id="boundary" inkscape:connector-curvature="0" />
	<path style="fill:none;stroke:red;stroke-width:1px;stroke-linecap:butt;stroke-linejoin:miter;stroke-opacity:1" d="M 475.243,470.12 492.317,466.706 z" id="boundary" inkscape:connector-curvature="0" />
	<path style="fill:none;stroke:red;stroke-width:1px;stroke-linecap:butt;stroke-linejoin:miter;stroke-opacity:1" d="M 480.365,237.914 495.731,229.377 z" id="boundary" inkscape:connector-curvature="0" />
	<path style="fill:none;stroke:red;stroke-width:1px;stroke-linecap:butt;stroke-linejoin:miter;stroke-opacity:1" d="M 492.317,466.706 509.391,466.706 z" id="boundary" inkscape:connector-curvature="0" />
	<path style="fill:none;stroke:red;stroke-width:1px;stroke-linecap:butt;stroke-linejoin:miter;stroke-opacity:1" d="M 495.731,229.377 512.806,222.547 z" id="boundary" inkscape:connector-curvature="0" />
	<path style="fill:none;stroke:red;stroke-width:1px;stroke-linecap:butt;stroke-linejoin:miter;stroke-opacity:1" d="M 509.391,126.933 509.391,144.007 z" id="boundary" inkscape:connector-curvature="0" />
	<path style="fill:none;stroke:red;stroke-width:1px;stroke-linecap:butt;stroke-linejoin:miter;stroke-opacity:1" d="M 509.391,126.933 523.05,113.274 z" id="boundary" inkscape:connector-curvature="0" />
	<path style="fill:none;stroke:red;stroke-width:1px;stroke-linecap:butt;stroke-linejoin:miter;stroke-opacity:1" d="M 509.391,144.007 517.928,159.373 z" id="boundary" inkscape:connector-curvature="0" />
	<path style="fill:none;stroke:red;stroke-width:1px;stroke-linecap:butt;stroke-linejoin:miter;stroke-opacity:1" d="M 509.391,492.317 516.22,509.391 z" id="boundary" inkscape:connector-curvature="0" />
	<path style="fill:none;stroke:red;stroke-width:1px;stroke-linecap:butt;stroke-linejoin:miter;stroke-opacity:1" d="M 509.391,492.317 526.465,492.317 z" id="boundary" inkscape:connector-curvature="0" />
	<path style="fill:none;stroke:red;stroke-width:1px;stroke-linecap:butt;stroke-linejoin:miter;stroke-opacity:1" d="M 509.391,526.465 535.002,529.88 z" id="boundary" inkscape:connector-curvature="0" />
	<path style="fill:none;stroke:red;stroke-width:1px;stroke-linecap:butt;stroke-linejoin:miter;stroke-opacity:1" d="M 512.806,222.547 523.05,193.522 z" id="boundary" inkscape:connector-curvature="0" />
	<path style="fill:none;stroke:red;stroke-width:1px;stroke-linecap:butt;stroke-linejoin:miter;stroke-opacity:1" d="M 516.22,509.391 533.294,512.806 z" id="boundary" inkscape:connector-curvature="0" />
	<path style="fill:none;stroke:red;stroke-width:1px;stroke-linecap:butt;stroke-linejoin:miter;stroke-opacity:1" d="M 517.928,159.373 523.05,176.448 z" id="boundary" inkscape:connector-curvature="0" />
	<path style="fill:none;stroke:red;stroke-width:1px;stroke-linecap:butt;stroke-linejoin:miter;stroke-opacity:1" d="M 523.05,113.274 538.417,104.737 z" id="boundary" inkscape:connector-curvature="0" />
	<path style="fill:none;stroke:red;stroke-width:1px;stroke-linecap:butt;stroke-linejoin:miter;stroke-opacity:1" d="M 523.05,176.448 523.05,193.522 z" id="boundary" inkscape:connector-curvature="0" />
	<path style="fill:none;stroke:red;stroke-width:1px;stroke-linecap:butt;stroke-linejoin:miter;stroke-opacity:1" d="M 526.465,492.317 548.661,502.561 z" id="boundary" inkscape:connector-curvature="0" />
	<path style="fill:none;stroke:red;stroke-width:1px;stroke-linecap:butt;stroke-linejoin:miter;stroke-opacity:1" d="M 533.294,512.806 535.002,529.88 z" id="boundary" inkscape:connector-curvature="0" />
	<path style="fill:none;stroke:red;stroke-width:1px;stroke-linecap:butt;stroke-linejoin:miter;stroke-opacity:1" d="M 538.417,104.737 553.783,96.1997 z" id="boundary" inkscape:connector-curvature="0" />
	<path style="fill:none;stroke:red;stroke-width:1px;stroke-linecap:butt;stroke-linejoin:miter;stroke-opacity:1" d="M 548.661,502.561 552.076,478.657 z" id="boundary" inkscape:connector-curvature="0" />
	<path style="fill:none;stroke:red;stroke-width:1px;stroke-linecap:butt;stroke-linejoin:miter;stroke-opacity:1" d="M 552.076,461.583 552.076,478.657 z" id="boundary" inkscape:connector-curvature="0" />
	<path style="fill:none;stroke:red;stroke-width:1px;stroke-linecap:butt;stroke-linejoin:miter;stroke-opacity:1" d="M 552.076,461.583 569.15,459.876 z" id="boundary" inkscape:connector-curvature="0" />
	<path style="fill:none;stroke:red;stroke-width:1px;stroke-linecap:butt;stroke-linejoin:miter;stroke-opacity:1" d="M 553.783,96.1997 570.857,92.7849 z" id="boundary" inkscape:connector-curvature="0" />
	<path style="fill:none;stroke:red;stroke-width:1px;stroke-linecap:butt;stroke-linejoin:miter;stroke-opacity:1" d="M 569.15,459.876 586.224,459.876 z" id="boundary" inkscape:connector-curvature="0" />
	<path style="fill:none;stroke:red;stroke-width:1px;stroke-linecap:butt;stroke-linejoin:miter;stroke-opacity:1" d="M 570.857,92.7849 587.931,85.9552 z" id="boundary" inkscape:connector-curvature="0" />
	<path style="fill:none;stroke:red;stroke-width:1px;stroke-linecap:butt;stroke-linejoin:miter;stroke-opacity:1" d="M 586.224,459.876 603.298,459.876 z" id="boundary" inkscape:connector-curvature="0" />
	<path style="fill:none;stroke:red;stroke-width:1px;stroke-linecap:butt;stroke-linejoin:miter;stroke-opacity:1" d="M 587.931,85.9552 605.005,79.1256 z" id="boundary" inkscape:connector-curvature="0" />
	<path style="fill:none;stroke:red;stroke-width:1px;stroke-linecap:butt;stroke-linejoin:miter;stroke-opacity:1" d="M 603.298,459.876 620.372,459.876 z" id="boundary" inkscape:connector-curvature="0" />
	<path style="fill:none;stroke:red;stroke-width:1px;stroke-linecap:butt;stroke-linejoin:miter;stroke-opacity:1" d="M 605.005,79.1256 622.079,75.7108 z" id="boundary" inkscape:connector-curvature="0" />
	<path style="fill:none;stroke:red;stroke-width:1px;stroke-linecap:butt;stroke-linejoin:miter;stroke-opacity:1" d="M 620.372,459.876 637.446,459.876 z" id="boundary" inkscape:connector-curvature="0" />
	<path style="fill:none;stroke:red;stroke-width:1px;stroke-linecap:butt;stroke-linejoin:miter;stroke-opacity:1" d="M 622.079,75.7108 639.153,72.296 z" id="boundary" inkscape:connector-curvature="0" />
	<path style="fill:none;stroke:red;stroke-width:1px;stroke-linecap:butt;stroke-linejoin:miter;stroke-opacity:1" d="M 637.446,459.876 654.52,459.876 z" id="boundary" inkscape:connector-curvature="0" />
	<path style="fill:none;stroke:red;stroke-width:1px;stroke-linecap:butt;stroke-linejoin:miter;stroke-opacity:1" d="M 639.153,72.296 656.227,68.8812 z" id="boundary" inkscape:connector-curvature="0" />
	<path style="fill:none;stroke:red;stroke-width:1px;stroke-linecap:butt;stroke-linejoin:miter;stroke-opacity:1" d="M 654.52,459.876 671.594,459.876 z" id="boundary" inkscape:connector-curvature="0" />
	<path style="fill:none;stroke:red;stroke-width:1px;stroke-linecap:butt;stroke-linejoin:miter;stroke-opacity:1" d="M 656.227,68.8812 673.301,51.8072 z" id="boundary" inkscape:connector-curvature="0" />
	<path style="fill:none;stroke:red;stroke-width:1px;stroke-linecap:butt;stroke-linejoin:miter;stroke-opacity:1" d="M 671.594,459.876 688.668,459.876 z" id="boundary" inkscape:connector-curvature="0" />
	<path style="fill:none;stroke:red;stroke-width:1px;stroke-linecap:butt;stroke-linejoin:miter;stroke-opacity:1" d="M 673.301,51.8072 690.375,44.9776 z" id="boundary" inkscape:connector-curvature="0" />
	<path style="fill:none;stroke:red;stroke-width:1px;stroke-linecap:butt;stroke-linejoin:miter;stroke-opacity:1" d="M 688.668,459.876 705.742,459.876 z" id="boundary" inkscape:connector-curvature="0" />
	<path style="fill:none;stroke:red;stroke-width:1px;stroke-linecap:butt;stroke-linejoin:miter;stroke-opacity:1" d="M 690.375,44.9776 707.449,38.148 z" id="boundary" inkscape:connector-curvature="0" />
	<path style="fill:none;stroke:red;stroke-width:1px;stroke-linecap:butt;stroke-linejoin:miter;stroke-opacity:1" d="M 705.742,459.876 722.816,459.876 z" id="boundary" inkscape:connector-curvature="0" />
	<path style="fill:none;stroke:red;stroke-width:1px;stroke-linecap:butt;stroke-linejoin:miter;stroke-opacity:1" d="M 707.449,38.148 721.108,24.4888 z" id="boundary" inkscape:connector-curvature="0" />
	<path style="fill:none;stroke:red;stroke-width:1px;stroke-linecap:butt;stroke-linejoin:miter;stroke-opacity:1" d="M 721.108,24.4888 734.768,7.4148 z" id="boundary" inkscape:connector-curvature="0" />
	<path style="fill:none;stroke:red;stroke-width:1px;stroke-linecap:butt;stroke-linejoin:miter;stroke-opacity:1" d="M 722.816,459.876 739.89,459.876 z" id="boundary" inkscape:connector-curvature="0" />
	<path style="fill:none;stroke:red;stroke-width:1px;stroke-linecap:butt;stroke-linejoin:miter;stroke-opacity:1" d="M 734.768,7.4148 751.842,4 z" id="boundary" inkscape:connector-curvature="0" />
	<path style="fill:none;stroke:red;stroke-width:1px;stroke-linecap:butt;stroke-linejoin:miter;stroke-opacity:1" d="M 739.89,459.876 756.964,459.876 z" id="boundary" inkscape:connector-curvature="0" />
	<path style="fill:none;stroke:red;stroke-width:1px;stroke-linecap:butt;stroke-linejoin:miter;stroke-opacity:1" d="M 751.842,4 762.086,17.6592 z" id="boundary" inkscape:connector-curvature="0" />
	<path style="fill:none;stroke:red;stroke-width:1px;stroke-linecap:butt;stroke-linejoin:miter;stroke-opacity:1" d="M 756.964,459.876 774.038,459.876 z" id="boundary" inkscape:connector-curvature="0" />
	<path style="fill:none;stroke:red;stroke-width:1px;stroke-linecap:butt;stroke-linejoin:miter;stroke-opacity:1" d="M 762.086,17.6592 774.038,31.3184 z" id="boundary" inkscape:connector-curvature="0" />
	<path style="fill:none;stroke:red;stroke-width:1px;stroke-linecap:butt;stroke-linejoin:miter;stroke-opacity:1" d="M 774.038,31.3184 789.404,39.8554 z" id="boundary" inkscape:connector-curvature="0" />
	<path style="fill:none;stroke:red;stroke-width:1px;stroke-linecap:butt;stroke-linejoin:miter;stroke-opacity:1" d="M 774.038,459.876 791.112,459.876 z" id="boundary" inkscape:connector-curvature="0" />
	<path style="fill:none;stroke:red;stroke-width:1px;stroke-linecap:butt;stroke-linejoin:miter;stroke-opacity:1" d="M 789.404,39.8554 806.478,44.9776 z" id="boundary" inkscape:connector-curvature="0" />
	<path style="fill:none;stroke:red;stroke-width:1px;stroke-linecap:butt;stroke-linejoin:miter;stroke-opacity:1" d="M 791.112,459.876 808.186,459.876 z" id="boundary" inkscape:connector-curvature="0" />
	<path style="fill:none;stroke:red;stroke-width:1px;stroke-linecap:butt;stroke-linejoin:miter;stroke-opacity:1" d="M 806.478,44.9776 820.138,56.9294 z" id="boundary" inkscape:connector-curvature="0" />
	<path style="fill:none;stroke:red;stroke-width:1px;stroke-linecap:butt;stroke-linejoin:miter;stroke-opacity:1" d="M 808.186,459.876 825.26,459.876 z" id="boundary" inkscape:connector-curvature="0" />
	<path style="fill:none;stroke:red;stroke-width:1px;stroke-linecap:butt;stroke-linejoin:miter;stroke-opacity:1" d="M 820.138,56.9294 833.797,67.1738 z" id="boundary" inkscape:connector-curvature="0" />
	<path style="fill:none;stroke:red;stroke-width:1px;stroke-linecap:butt;stroke-linejoin:miter;stroke-opacity:1" d="M 825.26,459.876 842.334,459.876 z" id="boundary" inkscape:connector-curvature="0" />
	<path style="fill:none;stroke:red;stroke-width:1px;stroke-linecap:butt;stroke-linejoin:miter;stroke-opacity:1" d="M 833.797,67.1738 850.871,68.8812 z" id="boundary" inkscape:connector-curvature="0" />
	<path style="fill:none;stroke:red;stroke-width:1px;stroke-linecap:butt;stroke-linejoin:miter;stroke-opacity:1" d="M 842.334,459.876 859.408,459.876 z" id="boundary" inkscape:connector-curvature="0" />
	<path style="fill:none;stroke:red;stroke-width:1px;stroke-linecap:butt;stroke-linejoin:miter;stroke-opacity:1" d="M 850.871,68.8812 867.945,74.0034 z" id="boundary" inkscape:connector-curvature="0" />
	<path style="fill:none;stroke:red;stroke-width:1px;stroke-linecap:butt;stroke-linejoin:miter;stroke-opacity:1" d="M 859.408,459.876 876.482,459.876 z" id="boundary" inkscape:connector-curvature="0" />
	<path style="fill:none;stroke:red;stroke-width:1px;stroke-linecap:butt;stroke-linejoin:miter;stroke-opacity:1" d="M 867.945,74.0034 885.019,75.7108 z" id="boundary" inkscape:connector-curvature="0" />
	<path style="fill:none;stroke:red;stroke-width:1px;stroke-linecap:butt;stroke-linejoin:miter;stroke-opacity:1" d="M 876.482,459.876 893.556,459.876 z" id="boundary" inkscape:connector-curvature="0" />
	<path style="fill:none;stroke:red;stroke-width:1px;stroke-linecap:butt;stroke-linejoin:miter;stroke-opacity:1" d="M 885.019,75.7108 902.093,82.5404 z" id="boundary" inkscape:connector-curvature="0" />
	<path style="fill:none;stroke:red;stroke-width:1px;stroke-linecap:butt;stroke-linejoin:miter;stroke-opacity:1" d="M 893.556,459.876 910.63,459.876 z" id="boundary" inkscape:connector-curvature="0" />
	<path style="fill:none;stroke:red;stroke-width:1px;stroke-linecap:butt;stroke-linejoin:miter;stroke-opacity:1" d="M 902.093,82.5404 919.167,85.9552 z" id="boundary" inkscape:connector-curvature="0" />
	<path style="fill:none;stroke:red;stroke-width:1px;stroke-linecap:butt;stroke-linejoin:miter;stroke-opacity:1" d="M 910.63,459.876 927.704,459.876 z" id="boundary" inkscape:connector-curvature="0" />
	<path style="fill:none;stroke:red;stroke-width:1px;stroke-linecap:butt;stroke-linejoin:miter;stroke-opacity:1" d="M 919.167,85.9552 936.241,91.0775 z" id="boundary" inkscape:connector-curvature="0" />
	<path style="fill:none;stroke:red;stroke-width:1px;stroke-linecap:butt;stroke-linejoin:miter;stroke-opacity:1" d="M 927.704,459.876 944.778,459.876 z" id="boundary" inkscape:connector-curvature="0" />
	<path style="fill:none;stroke:red;stroke-width:1px;stroke-linecap:butt;stroke-linejoin:miter;stroke-opacity:1" d="M 936.241,91.0775 953.315,97.9071 z" id="boundary" inkscape:connector-curvature="0" />
	<path style="fill:none;stroke:red;stroke-width:1px;stroke-linecap:butt;stroke-linejoin:miter;stroke-opacity:1" d="M 944.778,459.876 961.852,459.876 z" id="boundary" inkscape:connector-curvature="0" />
	<path style="fill:none;stroke:red;stroke-width:1px;stroke-linecap:butt;stroke-linejoin:miter;stroke-opacity:1" d="M 953.315,97.9071 968.682,106.444 z" id="boundary" inkscape:connector-curvature="0" />
	<path style="fill:none;stroke:red;stroke-width:1px;stroke-linecap:butt;stroke-linejoin:miter;stroke-opacity:1" d="M 961.852,459.876 973.804,473.535 z" id="boundary" inkscape:connector-curvature="0" />
	<path style="fill:none;stroke:red;stroke-width:1px;stroke-linecap:butt;stroke-linejoin:miter;stroke-opacity:1" d="M 968.682,106.444 984.048,114.981 z" id="boundary" inkscape:connector-curvature="0" />
	<path style="fill:none;stroke:red;stroke-width:1px;stroke-linecap:butt;stroke-linejoin:miter;stroke-opacity:1" d="M 973.804,473.535 973.804,490.609 z" id="boundary" inkscape:connector-curvature="0" />
	<path style="fill:none;stroke:red;stroke-width:1px;stroke-linecap:butt;stroke-linejoin:miter;stroke-opacity:1" d="M 973.804,490.609 977.219,507.683 z" id="boundary" inkscape:connector-curvature="0" />
	<path style="fill:none;stroke:red;stroke-width:1px;stroke-linecap:butt;stroke-linejoin:miter;stroke-opacity:1" d="M 973.804,526.465 977.219,507.683 z" id="boundary" inkscape:connector-curvature="0" />
	<path style="fill:none;stroke:red;stroke-width:1px;stroke-linecap:butt;stroke-linejoin:miter;stroke-opacity:1" d="M 984.048,114.981 996,128.64 z" id="boundary" inkscape:connector-curvature="0" />
	<path style="fill:none;stroke:red;stroke-width:1px;stroke-linecap:butt;stroke-linejoin:miter;stroke-opacity:1" d="M 985.756,178.155 985.756,195.229 z" id="boundary" inkscape:connector-curvature="0" />
	<path style="fill:none;stroke:red;stroke-width:1px;stroke-linecap:butt;stroke-linejoin:miter;stroke-opacity:1" d="M 985.756,178.155 989.17,157.666 z" id="boundary" inkscape:connector-curvature="0" />
	<path style="fill:none;stroke:red;stroke-width:1px;stroke-linecap:butt;stroke-linejoin:miter;stroke-opacity:1" d="M 985.756,195.229 985.756,212.303 z" id="boundary" inkscape:connector-curvature="0" />
	<path style="fill:none;stroke:red;stroke-width:1px;stroke-linecap:butt;stroke-linejoin:miter;stroke-opacity:1" d="M 985.756,212.303 985.756,229.377 z" id="boundary" inkscape:connector-curvature="0" />
	<path style="fill:none;stroke:red;stroke-width:1px;stroke-linecap:butt;stroke-linejoin:miter;stroke-opacity:1" d="M 985.756,229.377 985.756,246.451 z" id="boundary" inkscape:connector-curvature="0" />
	<path style="fill:none;stroke:red;stroke-width:1px;stroke-linecap:butt;stroke-linejoin:miter;stroke-opacity:1" d="M 985.756,246.451 985.756,263.525 z" id="boundary" inkscape:connector-curvature="0" />
	<path style="fill:none;stroke:red;stroke-width:1px;stroke-linecap:butt;stroke-linejoin:miter;stroke-opacity:1" d="M 985.756,263.525 985.756,280.599 z" id="boundary" inkscape:connector-curvature="0" />
	<path style="fill:none;stroke:red;stroke-width:1px;stroke-linecap:butt;stroke-linejoin:miter;stroke-opacity:1" d="M 985.756,280.599 989.17,297.673 z" id="boundary" inkscape:connector-curvature="0" />
	<path style="fill:none;stroke:red;stroke-width:1px;stroke-linecap:butt;stroke-linejoin:miter;stroke-opacity:1" d="M 989.17,157.666 996,128.64 z" id="boundary" inkscape:connector-curvature="0" />
	<path style="fill:none;stroke:red;stroke-width:1px;stroke-linecap:butt;stroke-linejoin:miter;stroke-opacity:1" d="M 989.17,297.673 989.17,314.747 z" id="boundary" inkscape:connector-curvature="0" />
	<path style="fill:none;stroke:red;stroke-width:1px;stroke-linecap:butt;stroke-linejoin:miter;stroke-opacity:1" d="M 989.17,314.747 992.585,331.821 z" id="boundary" inkscape:connector-curvature="0" />
	<path style="fill:none;stroke:red;stroke-width:1px;stroke-linecap:butt;stroke-linejoin:miter;stroke-opacity:1" d="M 992.585,331.821 992.585,348.895 z" id="boundary" inkscape:connector-curvature="0" />
	<path style="fill:none;stroke:red;stroke-width:1px;stroke-linecap:butt;stroke-linejoin:miter;stroke-opacity:1" d="M 992.585,348.895 994.293,365.969 z" id="boundary" inkscape:connector-curvature="0" />
	<path style="fill:none;stroke:red;stroke-width:1px;stroke-linecap:butt;stroke-linejoin:miter;stroke-opacity:1" d="M 992.585,454.754 992.585,471.828 z" id="boundary" inkscape:connector-curvature="0" />
	<path style="fill:none;stroke:red;stroke-width:1px;stroke-linecap:butt;stroke-linejoin:miter;stroke-opacity:1" d="M 992.585,454.754 996,434.265 z" id="boundary" inkscape:connector-curvature="0" />
	<path style="fill:none;stroke:red;stroke-width:1px;stroke-linecap:butt;stroke-linejoin:miter;stroke-opacity:1" d="M 992.585,471.828 992.585,488.902 z" id="boundary" inkscape:connector-curvature="0" />
	<path style="fill:none;stroke:red;stroke-width:1px;stroke-linecap:butt;stroke-linejoin:miter;stroke-opacity:1" d="M 994.293,365.969 996,383.043 z" id="boundary" inkscape:connector-curvature="0" />
	<path style="fill:none;stroke:red;stroke-width:1px;stroke-linecap:butt;stroke-linejoin:miter;stroke-opacity:1" d="M 996,383.043 996,400.117 z" id="boundary" inkscape:connector-curvature="0" />
	<path style="fill:none;stroke:red;stroke-width:1px;stroke-linecap:butt;stroke-linejoin:miter;stroke-opacity:1" d="M 996,400.117 996,417.191 z" id="boundary" inkscape:connector-curvature="0" />
	<path style="fill:none;stroke:red;stroke-width:1px;stroke-linecap:butt;stroke-linejoin:miter;stroke-opacity:1" d="M 996,417.191 996,434.265 z" id="boundary" inkscape:connector-curvature="0" />
	<circle cx="4" cy="335.236" r="4" fill="#0" id="circle0"/>
	<circle cx="7.4148" cy="352.31" r="4" fill="#0" id="circle1"/>
	<circle cx="10.8296" cy="526.465" r="4" fill="#0" id="circle2"/>
	<circle cx="14.2444" cy="321.577" r="4" fill="#0" id="circle3"/>
	<circle cx="14.2444" cy="482.072" r="4" fill="#0" id="circle4"/>
	<circle cx="14.2444" cy="499.146" r="4" fill="#0" id="circle5"/>
	<circle cx="17.6592" cy="376.213" r="4" fill="#0" id="circle6"/>
	<circle cx="24.4888" cy="393.287" r="4" fill="#0" id="circle7"/>
	<circle cx="24.4888" cy="410.361" r="4" fill="#0" id="circle8"/>
	<circle cx="24.4888" cy="451.339" r="4" fill="#0" id="circle9"/>
	<circle cx="24.4888" cy="468.413" r="4" fill="#0" id="circle10"/>
	<circle cx="27.9036" cy="311.332" r="4" fill="#0" id="circle11"/>
	<circle cx="27.9036" cy="427.435" r="4" fill="#0" id="circle12"/>
	<circle cx="27.9036" cy="528.172" r="4" fill="#0" id="circle13"/>
	<circle cx="29.611" cy="490.609" r="4" fill="#0" id="circle14"/>
	<circle cx="29.611" cy="507.683" r="4" fill="#0" id="circle15"/>
	<circle cx="41.5628" cy="466.706" r="4" fill="#0" id="circle16"/>
	<circle cx="44.9776" cy="304.503" r="4" fill="#0" id="circle17"/>
	<circle cx="58.6368" cy="466.706" r="4" fill="#0" id="circle18"/>
	<circle cx="62.0516" cy="297.673" r="4" fill="#0" id="circle19"/>
	<circle cx="75.7108" cy="468.413" r="4" fill="#0" id="circle20"/>
	<circle cx="79.1256" cy="294.258" r="4" fill="#0" id="circle21"/>
	<circle cx="92.7849" cy="475.243" r="4" fill="#0" id="circle22"/>
	<circle cx="96.1997" cy="290.843" r="4" fill="#0" id="circle23"/>
	<circle cx="109.859" cy="480.365" r="4" fill="#0" id="circle24"/>
	<circle cx="113.274" cy="284.014" r="4" fill="#0" id="circle25"/>
	<circle cx="126.933" cy="473.535" r="4" fill="#0" id="circle26"/>
	<circle cx="130.348" cy="284.014" r="4" fill="#0" id="circle27"/>
	<circle cx="142.299" cy="464.998" r="4" fill="#0" id="circle28"/>
	<circle cx="147.422" cy="280.599" r="4" fill="#0" id="circle29"/>
	<circle cx="159.373" cy="463.291" r="4" fill="#0" id="circle30"/>
	<circle cx="164.496" cy="280.599" r="4" fill="#0" id="circle31"/>
	<circle cx="176.448" cy="466.706" r="4" fill="#0" id="circle32"/>
	<circle cx="181.57" cy="277.184" r="4" fill="#0" id="circle33"/>
	<circle cx="193.522" cy="473.535" r="4" fill="#0" id="circle34"/>
	<circle cx="198.644" cy="277.184" r="4" fill="#0" id="circle35"/>
	<circle cx="210.596" cy="480.365" r="4" fill="#0" id="circle36"/>
	<circle cx="212.303" cy="266.94" r="4" fill="#0" id="circle37"/>
	<circle cx="225.962" cy="488.902" r="4" fill="#0" id="circle38"/>
	<circle cx="229.377" cy="261.818" r="4" fill="#0" id="circle39"/>
	<circle cx="243.036" cy="494.024" r="4" fill="#0" id="circle40"/>
	<circle cx="244.744" cy="253.281" r="4" fill="#0" id="circle41"/>
	<circle cx="258.403" cy="243.036" r="4" fill="#0" id="circle42"/>
	<circle cx="260.11" cy="497.439" r="4" fill="#0" id="circle43"/>
	<circle cx="275.477" cy="234.499" r="4" fill="#0" id="circle44"/>
	<circle cx="277.184" cy="500.854" r="4" fill="#0" id="circle45"/>
	<circle cx="292.551" cy="236.207" r="4" fill="#0" id="circle46"/>
	<circle cx="294.258" cy="497.439" r="4" fill="#0" id="circle47"/>
	<circle cx="309.625" cy="243.036" r="4" fill="#0" id="circle48"/>
	<circle cx="311.332" cy="494.024" r="4" fill="#0" id="circle49"/>
	<circle cx="323.284" cy="253.281" r="4" fill="#0" id="circle50"/>
	<circle cx="328.406" cy="490.609" r="4" fill="#0" id="circle51"/>
	<circle cx="340.358" cy="260.11" r="4" fill="#0" id="circle52"/>
	<circle cx="345.48" cy="483.78" r="4" fill="#0" id="circle53"/>
	<circle cx="354.017" cy="270.355" r="4" fill="#0" id="circle54"/>
	<circle cx="360.847" cy="475.243" r="4" fill="#0" id="circle55"/>
	<circle cx="371.091" cy="277.184" r="4" fill="#0" id="circle56"/>
	<circle cx="377.921" cy="468.413" r="4" fill="#0" id="circle57"/>
	<circle cx="388.165" cy="277.184" r="4" fill="#0" id="circle58"/>
	<circle cx="394.995" cy="463.291" r="4" fill="#0" id="circle59"/>
	<circle cx="405.239" cy="280.599" r="4" fill="#0" id="circle60"/>
	<circle cx="412.069" cy="463.291" r="4" fill="#0" id="circle61"/>
	<circle cx="422.313" cy="280.599" r="4" fill="#0" id="circle62"/>
	<circle cx="429.143" cy="470.12" r="4" fill="#0" id="circle63"/>
	<circle cx="439.387" cy="273.769" r="4" fill="#0" id="circle64"/>
	<circle cx="441.095" cy="483.78" r="4" fill="#0" id="circle65"/>
	<circle cx="451.339" cy="260.11" r="4" fill="#0" id="circle66"/>
	<circle cx="458.169" cy="476.95" r="4" fill="#0" id="circle67"/>
	<circle cx="466.706" cy="251.573" r="4" fill="#0" id="circle68"/>
	<circle cx="475.243" cy="470.12" r="4" fill="#0" id="circle69"/>
	<circle cx="480.365" cy="237.914" r="4" fill="#0" id="circle70"/>
	<circle cx="492.317" cy="466.706" r="4" fill="#0" id="circle71"/>
	<circle cx="495.731" cy="229.377" r="4" fill="#0" id="circle72"/>
	<circle cx="509.391" cy="126.933" r="4" fill="#0" id="circle73"/>
	<circle cx="509.391" cy="144.007" r="4" fill="#0" id="circle74"/>
	<circle cx="509.391" cy="466.706" r="4" fill="#0" id="circle75"/>
	<circle cx="509.391" cy="492.317" r="4" fill="#0" id="circle76"/>
	<circle cx="509.391" cy="526.465" r="4" fill="#0" id="circle77"/>
	<circle cx="512.806" cy="222.547" r="4" fill="#0" id="circle78"/>
	<circle cx="516.22" cy="509.391" r="4" fill="#0" id="circle79"/>
	<circle cx="517.928" cy="159.373" r="4" fill="#0" id="circle80"/>
	<circle cx="523.05" cy="113.274" r="4" fill="#0" id="circle81"/>
	<circle cx="523.05" cy="176.448" r="4" fill="#0" id="circle82"/>
	<circle cx="523.05" cy="193.522" r="4" fill="#0" id="circle83"/>
	<circle cx="526.465" cy="492.317" r="4" fill="#0" id="circle84"/>
	<circle cx="533.294" cy="512.806" r="4" fill="#0" id="circle85"/>
	<circle cx="535.002" cy="529.88" r="4" fill="#0" id="circle86"/>
	<circle cx="538.417" cy="104.737" r="4" fill="#0" id="circle87"/>
	<circle cx="548.661" cy="502.561" r="4" fill="#0" id="circle88"/>
	<circle cx="552.076" cy="461.583" r="4" fill="#0" id="circle89"/>
	<circle cx="552.076" cy="478.657" r="4" fill="#0" id="circle90"/>
	<circle cx="553.783" cy="96.1997" r="4" fill="#0" id="circle91"/>
	<circle cx="569.15" cy="459.876" r="4" fill="#0" id="circle92"/>
	<circle cx="570.857" cy="92.7849" r="4" fill="#0" id="circle93"/>
	<circle cx="586.224" cy="459.876" r="4" fill="#0" id="circle94"/>
	<circle cx="587.931" cy="85.9552" r="4" fill="#0" id="circle95"/>
	<circle cx="603.298" cy="459.876" r="4" fill="#0" id="circle96"/>
	<circle cx="605.005" cy="79.1256" r="4" fill="#0" id="circle97"/>
	<circle cx="620.372" cy="459.876" r="4" fill="#0" id="circle98"/>
	<circle cx="622.079" cy="75.7108" r="4" fill="#0" id="circle99"/>
	<circle cx="637.446" cy="459.876" r="4" fill="#0" id="circle100"/>
	<circle cx="639.153" cy="72.296" r="4" fill="#0" id="circle101"/>
	<circle cx="654.52" cy="459.876" r="4" fill="#0" id="circle102"/>
	<circle cx="656.227" cy="68.8812" r="4" fill="#0" id="circle103"/>
	<circle cx="671.594" cy="459.876" r="4" fill="#0" id="circle104"/>
	<circle cx="673.301" cy="51.8072" r="4" fill="#0" id="circle105"/>
	<circle cx="688.668" cy="459.876" r="4" fill="#0" id="circle106"/>
	<circle cx="690.375" cy="44.9776" r="4" fill="#0" id="circle107"/>
	<circle cx="705.742" cy="459.876" r="4" fill="#0" id="circle108"/>
	<circle cx="707.449" cy="38.148" r="4" fill="#0" id="circle109"/>
	<circle cx="721.108" cy="24.4888" r="4" fill="#0" id="circle110"/>
	<circle cx="722.816" cy="459.876" r="4" fill="#0" id="circle111"/>
	<circle cx="734.768" cy="7.4148" r="4" fill="#0" id="circle112"/>
	<circle cx="739.89" cy="459.876" r="4" fill="#0" id="circle113"/>
	<circle cx="751.842" cy="4" r="4" fill="#0" id="circle114"/>
	<circle cx="756.964" cy="459.876" r="4" fill="#0" id="circle115"/>
	<circle cx="762.086" cy="17.6592" r="4" fill="#0" id="circle116"/>
	<circle cx="774.038" cy="31.3184" r="4" fill="#0" id="circle117"/>
	<circle cx="774.038" cy="459.876" r="4" fill="#0" id="circle118"/>
	<circle cx="789.404" cy="39.8554" r="4" fill="#0" id="circle119"/>
	<circle cx="791.112" cy="459.876" r="4" fill="#0" id="circle120"/>
	<circle cx="806.478" cy="44.9776" r="4" fill="#0" id="circle121"/>
	<circle cx="808.186" cy="459.876" r="4" fill="#0" id="circle122"/>
	<circle cx="820.138" cy="56.9294" r="4" fill="#0" id="circle123"/>
	<circle cx="825.26" cy="459.876" r="4" fill="#0" id="circle124"/>
	<circle cx="833.797" cy="67.1738" r="4" fill="#0" id="circle125"/>
	<circle cx="842.334" cy="459.876" r="4" fill="#0" id="circle126"/>
	<circle cx="850.871" cy="68.8812" r="4" fill="#0" id="circle127"/>
	<circle cx="859.408" cy="459.876" r="4" fill="#0" id="circle128"/>
	<circle cx="867.945" cy="74.0034" r="4" fill="#0" id="circle129"/>
	<circle cx="876.482" cy="459.876" r="4" fill="#0" id="circle130"/>
	<circle cx="885.019" cy="75.7108" r="4" fill="#0" id="circle131"/>
	<circle cx="893.556" cy="459.876" r="4" fill="#0" id="circle132"/>
	<circle cx="902.093" cy="82.5404" r="4" fill="#0" id="circle133"/>
	<circle cx="910.63" cy="459.876" r="4" fill="#0" id="circle134"/>
	<circle cx="919.167" cy="85.9552" r="4" fill="#0" id="circle135"/>
	<circle cx="927.704" cy="459.876" r="4" fill="#0" id="circle136"/>
	<circle cx="936.241" cy="91.0775" r="4" fill="#0" id="circle137"/>
	<circle cx="944.778" cy="459.876" r="4" fill="#0" id="circle138"/>
	<circle cx="953.315" cy="97.9071" r="4" fill="#0" id="circle139"/>
	<circle cx="961.852" cy="459.876" r="4" fill="#0" id="circle140"/>
	<circle cx="968.682" cy="106.444" r="4" fill="#0" id="circle141"/>
	<circle cx="973.804" cy="473.535" r="4" fill="#0" id="circle142"/>
	<circle cx="973.804" cy="490.609" r="4" fill="#0" id="circle143"/>
	<circle cx="973.804" cy="526.465" r="4" fill="#0" id="circle144"/>
	<circle cx="977.219" cy="507.683" r="4" fill="#0" id="circle145"/>
	<circle cx="984.048" cy="114.981" r="4" fill="#0" id="circle146"/>
	<circle cx="985.756" cy="178.155" r="4" fill="#0" id="circle147"/>
	<circle cx="985.756" cy="195.229" r="4" fill="#0" id="circle148"/>
	<circle cx="985.756" cy="212.303" r="4" fill="#0" id="circle149"/>
	<circle cx="985.756" cy="229.377" r="4" fill="#0" id="circle150"/>
	<circle cx="985.756" cy="246.451" r="4" fill="#0" id="circle151"/>
	<circle cx="985.756" cy="263.525" r="4" fill="#0" id="circle152"/>
	<circle cx="985.756" cy="280.599" r="4" fill="#0" id="circle153"/>
	<circle cx="989.17" cy="157.666" r="4" fill="#0" id="circle154"/>
	<circle cx="989.17" cy="297.673" r="4" fill="#0" id="circle155"/>
	<circle cx="989.17" cy="314.747" r="4" fill="#0" id="circle156"/>
	<circle cx="992.585" cy="331.821" r="4" fill="#0" id="circle157"/>
	<circle cx="992.585" cy="348.895" r="4" fill="#0" id="circle158"/>
	<circle cx="992.585" cy="454.754" r="4" fill="#0" id="circle159"/>
	<circle cx="992.585" cy="471.828" r="4" fill="#0" id="circle160"/>
	<circle cx="992.585" cy="488.902" r="4" fill="#0" id="circle161"/>
	<circle cx="994.293" cy="365.969" r="4" fill="#0" id="circle162"/>
	<circle cx="996" cy="128.64" r="4" fill="#0" id="circle163"/>
	<circle cx="996" cy="383.043" r="4" fill="#0" id="circle164"/>
	<circle cx="996" cy="400.117" r="4" fill="#0" id="circle165"/>
	<circle cx="996" cy="417.191" r="4" fill="#0" id="circle166"/>
	<circle cx="996" cy="434.265" r="4" fill="#0" id="circle167"/>
	</g>
</svg>