<?xml version="1.0" encoding="UTF-8" standalone="no"?>
<!-- Created with CurveBenchmark -->
<svg
	xmlns:dc="http://purl.org/dc/elements/1.1/"
	xmlns:cc="http://creativecommons.org/ns#"
	xmlns:rdf="http://www.w3.org/1999/02/22-rdf-syntax-ns#"
	xmlns:svg="http://www.w3.org/2000/svg"
	xmlns="http://www.w3.org/2000/svg"
	xmlns:sodipodi="http://sodipodi.sourceforge.net/DTD/sodipodi-0.dtd"
	xmlns:inkscape="http://www.inkscape.org/namespaces/inkscape"
	width="1000"
	height="1000"
	id="svg2"
	version="1.1"
	sodipodi:docname="manifold/discur-bird290.png.txt">
<defs
	id="defs4" />
<metadata
	id="metadata7">
	<rdf:RDF>
		<cc:Work
			rdf:about="">
			<dc:format>image/svg+xml</dc:format>
			<dc:type
				rdf:resource="http://purl.org/dc/dcmitype/StillImage" />
			<dc:title></dc:title>
		</cc:Work>
	</rdf:RDF>
</metadata>
<g
	inkscape:label="Layer 1"
	inkscape:groupmode="layer"
	id="layer1">
	<path style="fill:none;stroke:red;stroke-width:1px;stroke-linecap:butt;stroke-linejoin:miter;stroke-opacity:1" d="M 4,299.655 11.7804,260.753 z" id="boundary" inkscape:connector-curvature="0" />
	<path style="fill:none;stroke:red;stroke-width:1px;stroke-linecap:butt;stroke-linejoin:miter;stroke-opacity:1" d="M 4,299.655 11.7804,338.557 z" id="boundary" inkscape:connector-curvature="0" />
	<path style="fill:none;stroke:red;stroke-width:1px;stroke-linecap:butt;stroke-linejoin:miter;stroke-opacity:1" d="M 4,385.239 11.7804,338.557 z" id="boundary" inkscape:connector-curvature="0" />
	<path style="fill:none;stroke:red;stroke-width:1px;stroke-linecap:butt;stroke-linejoin:miter;stroke-opacity:1" d="M 4,385.239 15.6706,424.141 z" id="boundary" inkscape:connector-curvature="0" />
	<path style="fill:none;stroke:red;stroke-width:1px;stroke-linecap:butt;stroke-linejoin:miter;stroke-opacity:1" d="M 11.7804,260.753 19.5608,221.851 z" id="boundary" inkscape:connector-curvature="0" />
	<path style="fill:none;stroke:red;stroke-width:1px;stroke-linecap:butt;stroke-linejoin:miter;stroke-opacity:1" d="M 15.6706,424.141 54.5725,435.812 z" id="boundary" inkscape:connector-curvature="0" />
	<path style="fill:none;stroke:red;stroke-width:1px;stroke-linecap:butt;stroke-linejoin:miter;stroke-opacity:1" d="M 19.5608,221.851 35.1216,167.388 z" id="boundary" inkscape:connector-curvature="0" />
	<path style="fill:none;stroke:red;stroke-width:1px;stroke-linecap:butt;stroke-linejoin:miter;stroke-opacity:1" d="M 35.1216,167.388 50.6824,112.925 z" id="boundary" inkscape:connector-curvature="0" />
	<path style="fill:none;stroke:red;stroke-width:1px;stroke-linecap:butt;stroke-linejoin:miter;stroke-opacity:1" d="M 50.6824,112.925 70.1333,77.9137 z" id="boundary" inkscape:connector-curvature="0" />
	<path style="fill:none;stroke:red;stroke-width:1px;stroke-linecap:butt;stroke-linejoin:miter;stroke-opacity:1" d="M 54.5725,435.812 85.6941,408.58 z" id="boundary" inkscape:connector-curvature="0" />
	<path style="fill:none;stroke:red;stroke-width:1px;stroke-linecap:butt;stroke-linejoin:miter;stroke-opacity:1" d="M 70.1333,77.9137 93.4745,46.7922 z" id="boundary" inkscape:connector-curvature="0" />
	<path style="fill:none;stroke:red;stroke-width:1px;stroke-linecap:butt;stroke-linejoin:miter;stroke-opacity:1" d="M 85.6941,408.58 97.3647,447.482 z" id="boundary" inkscape:connector-curvature="0" />
	<path style="fill:none;stroke:red;stroke-width:1px;stroke-linecap:butt;stroke-linejoin:miter;stroke-opacity:1" d="M 93.4745,46.7922 124.596,23.451 z" id="boundary" inkscape:connector-curvature="0" />
	<path style="fill:none;stroke:red;stroke-width:1px;stroke-linecap:butt;stroke-linejoin:miter;stroke-opacity:1" d="M 97.3647,447.482 97.3647,486.384 z" id="boundary" inkscape:connector-curvature="0" />
	<path style="fill:none;stroke:red;stroke-width:1px;stroke-linecap:butt;stroke-linejoin:miter;stroke-opacity:1" d="M 97.3647,486.384 105.145,525.286 z" id="boundary" inkscape:connector-curvature="0" />
	<path style="fill:none;stroke:red;stroke-width:1px;stroke-linecap:butt;stroke-linejoin:miter;stroke-opacity:1" d="M 105.145,525.286 105.145,564.188 z" id="boundary" inkscape:connector-curvature="0" />
	<path style="fill:none;stroke:red;stroke-width:1px;stroke-linecap:butt;stroke-linejoin:miter;stroke-opacity:1" d="M 105.145,564.188 105.145,603.09 z" id="boundary" inkscape:connector-curvature="0" />
	<path style="fill:none;stroke:red;stroke-width:1px;stroke-linecap:butt;stroke-linejoin:miter;stroke-opacity:1" d="M 105.145,603.09 105.145,641.992 z" id="boundary" inkscape:connector-curvature="0" />
	<path style="fill:none;stroke:red;stroke-width:1px;stroke-linecap:butt;stroke-linejoin:miter;stroke-opacity:1" d="M 105.145,641.992 105.145,680.894 z" id="boundary" inkscape:connector-curvature="0" />
	<path style="fill:none;stroke:red;stroke-width:1px;stroke-linecap:butt;stroke-linejoin:miter;stroke-opacity:1" d="M 105.145,680.894 112.925,719.796 z" id="boundary" inkscape:connector-curvature="0" />
	<path style="fill:none;stroke:red;stroke-width:1px;stroke-linecap:butt;stroke-linejoin:miter;stroke-opacity:1" d="M 112.925,719.796 112.925,758.698 z" id="boundary" inkscape:connector-curvature="0" />
	<path style="fill:none;stroke:red;stroke-width:1px;stroke-linecap:butt;stroke-linejoin:miter;stroke-opacity:1" d="M 112.925,758.698 112.925,797.6 z" id="boundary" inkscape:connector-curvature="0" />
	<path style="fill:none;stroke:red;stroke-width:1px;stroke-linecap:butt;stroke-linejoin:miter;stroke-opacity:1" d="M 112.925,797.6 112.925,836.502 z" id="boundary" inkscape:connector-curvature="0" />
	<path style="fill:none;stroke:red;stroke-width:1px;stroke-linecap:butt;stroke-linejoin:miter;stroke-opacity:1" d="M 112.925,836.502 120.706,875.404 z" id="boundary" inkscape:connector-curvature="0" />
	<path style="fill:none;stroke:red;stroke-width:1px;stroke-linecap:butt;stroke-linejoin:miter;stroke-opacity:1" d="M 120.706,875.404 120.706,914.306 z" id="boundary" inkscape:connector-curvature="0" />
	<path style="fill:none;stroke:red;stroke-width:1px;stroke-linecap:butt;stroke-linejoin:miter;stroke-opacity:1" d="M 120.706,914.306 120.706,953.208 z" id="boundary" inkscape:connector-curvature="0" />
	<path style="fill:none;stroke:red;stroke-width:1px;stroke-linecap:butt;stroke-linejoin:miter;stroke-opacity:1" d="M 120.706,953.208 124.596,992.11 z" id="boundary" inkscape:connector-curvature="0" />
	<path style="fill:none;stroke:red;stroke-width:1px;stroke-linecap:butt;stroke-linejoin:miter;stroke-opacity:1" d="M 124.596,23.451 163.498,7.8902 z" id="boundary" inkscape:connector-curvature="0" />
	<path style="fill:none;stroke:red;stroke-width:1px;stroke-linecap:butt;stroke-linejoin:miter;stroke-opacity:1" d="M 124.596,992.11 163.498,996 z" id="boundary" inkscape:connector-curvature="0" />
	<path style="fill:none;stroke:red;stroke-width:1px;stroke-linecap:butt;stroke-linejoin:miter;stroke-opacity:1" d="M 155.718,494.165 155.718,533.067 z" id="boundary" inkscape:connector-curvature="0" />
	<path style="fill:none;stroke:red;stroke-width:1px;stroke-linecap:butt;stroke-linejoin:miter;stroke-opacity:1" d="M 155.718,494.165 163.498,447.482 z" id="boundary" inkscape:connector-curvature="0" />
	<path style="fill:none;stroke:red;stroke-width:1px;stroke-linecap:butt;stroke-linejoin:miter;stroke-opacity:1" d="M 155.718,533.067 155.718,571.969 z" id="boundary" inkscape:connector-curvature="0" />
	<path style="fill:none;stroke:red;stroke-width:1px;stroke-linecap:butt;stroke-linejoin:miter;stroke-opacity:1" d="M 155.718,571.969 155.718,610.871 z" id="boundary" inkscape:connector-curvature="0" />
	<path style="fill:none;stroke:red;stroke-width:1px;stroke-linecap:butt;stroke-linejoin:miter;stroke-opacity:1" d="M 155.718,610.871 155.718,649.773 z" id="boundary" inkscape:connector-curvature="0" />
	<path style="fill:none;stroke:red;stroke-width:1px;stroke-linecap:butt;stroke-linejoin:miter;stroke-opacity:1" d="M 155.718,649.773 155.718,688.675 z" id="boundary" inkscape:connector-curvature="0" />
	<path style="fill:none;stroke:red;stroke-width:1px;stroke-linecap:butt;stroke-linejoin:miter;stroke-opacity:1" d="M 155.718,688.675 155.718,727.576 z" id="boundary" inkscape:connector-curvature="0" />
	<path style="fill:none;stroke:red;stroke-width:1px;stroke-linecap:butt;stroke-linejoin:miter;stroke-opacity:1" d="M 155.718,727.576 155.718,766.478 z" id="boundary" inkscape:connector-curvature="0" />
	<path style="fill:none;stroke:red;stroke-width:1px;stroke-linecap:butt;stroke-linejoin:miter;stroke-opacity:1" d="M 155.718,766.478 155.718,805.38 z" id="boundary" inkscape:connector-curvature="0" />
	<path style="fill:none;stroke:red;stroke-width:1px;stroke-linecap:butt;stroke-linejoin:miter;stroke-opacity:1" d="M 155.718,805.38 155.718,844.282 z" id="boundary" inkscape:connector-curvature="0" />
	<path style="fill:none;stroke:red;stroke-width:1px;stroke-linecap:butt;stroke-linejoin:miter;stroke-opacity:1" d="M 155.718,844.282 163.498,883.184 z" id="boundary" inkscape:connector-curvature="0" />
	<path style="fill:none;stroke:red;stroke-width:1px;stroke-linecap:butt;stroke-linejoin:miter;stroke-opacity:1" d="M 163.498,7.8902 202.4,4 z" id="boundary" inkscape:connector-curvature="0" />
	<path style="fill:none;stroke:red;stroke-width:1px;stroke-linecap:butt;stroke-linejoin:miter;stroke-opacity:1" d="M 163.498,408.58 163.498,447.482 z" id="boundary" inkscape:connector-curvature="0" />
	<path style="fill:none;stroke:red;stroke-width:1px;stroke-linecap:butt;stroke-linejoin:miter;stroke-opacity:1" d="M 163.498,408.58 194.62,377.459 z" id="boundary" inkscape:connector-curvature="0" />
	<path style="fill:none;stroke:red;stroke-width:1px;stroke-linecap:butt;stroke-linejoin:miter;stroke-opacity:1" d="M 163.498,883.184 163.498,922.086 z" id="boundary" inkscape:connector-curvature="0" />
	<path style="fill:none;stroke:red;stroke-width:1px;stroke-linecap:butt;stroke-linejoin:miter;stroke-opacity:1" d="M 163.498,922.086 186.839,953.208 z" id="boundary" inkscape:connector-curvature="0" />
	<path style="fill:none;stroke:red;stroke-width:1px;stroke-linecap:butt;stroke-linejoin:miter;stroke-opacity:1" d="M 186.839,953.208 217.961,980.439 z" id="boundary" inkscape:connector-curvature="0" />
	<path style="fill:none;stroke:red;stroke-width:1px;stroke-linecap:butt;stroke-linejoin:miter;stroke-opacity:1" d="M 194.62,377.459 206.29,416.361 z" id="boundary" inkscape:connector-curvature="0" />
	<path style="fill:none;stroke:red;stroke-width:1px;stroke-linecap:butt;stroke-linejoin:miter;stroke-opacity:1" d="M 198.51,634.212 198.51,673.114 z" id="boundary" inkscape:connector-curvature="0" />
	<path style="fill:none;stroke:red;stroke-width:1px;stroke-linecap:butt;stroke-linejoin:miter;stroke-opacity:1" d="M 198.51,673.114 206.29,712.016 z" id="boundary" inkscape:connector-curvature="0" />
	<path style="fill:none;stroke:red;stroke-width:1px;stroke-linecap:butt;stroke-linejoin:miter;stroke-opacity:1" d="M 202.4,4 241.302,11.7804 z" id="boundary" inkscape:connector-curvature="0" />
	<path style="fill:none;stroke:red;stroke-width:1px;stroke-linecap:butt;stroke-linejoin:miter;stroke-opacity:1" d="M 206.29,416.361 206.29,455.263 z" id="boundary" inkscape:connector-curvature="0" />
	<path style="fill:none;stroke:red;stroke-width:1px;stroke-linecap:butt;stroke-linejoin:miter;stroke-opacity:1" d="M 206.29,455.263 206.29,494.165 z" id="boundary" inkscape:connector-curvature="0" />
	<path style="fill:none;stroke:red;stroke-width:1px;stroke-linecap:butt;stroke-linejoin:miter;stroke-opacity:1" d="M 206.29,494.165 206.29,533.067 z" id="boundary" inkscape:connector-curvature="0" />
	<path style="fill:none;stroke:red;stroke-width:1px;stroke-linecap:butt;stroke-linejoin:miter;stroke-opacity:1" d="M 206.29,533.067 206.29,571.969 z" id="boundary" inkscape:connector-curvature="0" />
	<path style="fill:none;stroke:red;stroke-width:1px;stroke-linecap:butt;stroke-linejoin:miter;stroke-opacity:1" d="M 206.29,571.969 249.082,603.09 z" id="boundary" inkscape:connector-curvature="0" />
	<path style="fill:none;stroke:red;stroke-width:1px;stroke-linecap:butt;stroke-linejoin:miter;stroke-opacity:1" d="M 206.29,712.016 206.29,750.918 z" id="boundary" inkscape:connector-curvature="0" />
	<path style="fill:none;stroke:red;stroke-width:1px;stroke-linecap:butt;stroke-linejoin:miter;stroke-opacity:1" d="M 206.29,750.918 206.29,789.82 z" id="boundary" inkscape:connector-curvature="0" />
	<path style="fill:none;stroke:red;stroke-width:1px;stroke-linecap:butt;stroke-linejoin:miter;stroke-opacity:1" d="M 206.29,789.82 214.071,828.722 z" id="boundary" inkscape:connector-curvature="0" />
	<path style="fill:none;stroke:red;stroke-width:1px;stroke-linecap:butt;stroke-linejoin:miter;stroke-opacity:1" d="M 214.071,828.722 214.071,867.624 z" id="boundary" inkscape:connector-curvature="0" />
	<path style="fill:none;stroke:red;stroke-width:1px;stroke-linecap:butt;stroke-linejoin:miter;stroke-opacity:1" d="M 214.071,867.624 214.071,906.525 z" id="boundary" inkscape:connector-curvature="0" />
	<path style="fill:none;stroke:red;stroke-width:1px;stroke-linecap:butt;stroke-linejoin:miter;stroke-opacity:1" d="M 217.961,980.439 256.863,996 z" id="boundary" inkscape:connector-curvature="0" />
	<path style="fill:none;stroke:red;stroke-width:1px;stroke-linecap:butt;stroke-linejoin:miter;stroke-opacity:1" d="M 241.302,11.7804 280.204,27.3412 z" id="boundary" inkscape:connector-curvature="0" />
	<path style="fill:none;stroke:red;stroke-width:1px;stroke-linecap:butt;stroke-linejoin:miter;stroke-opacity:1" d="M 249.082,603.09 249.082,641.992 z" id="boundary" inkscape:connector-curvature="0" />
	<path style="fill:none;stroke:red;stroke-width:1px;stroke-linecap:butt;stroke-linejoin:miter;stroke-opacity:1" d="M 249.082,641.992 249.082,680.894 z" id="boundary" inkscape:connector-curvature="0" />
	<path style="fill:none;stroke:red;stroke-width:1px;stroke-linecap:butt;stroke-linejoin:miter;stroke-opacity:1" d="M 249.082,680.894 249.082,719.796 z" id="boundary" inkscape:connector-curvature="0" />
	<path style="fill:none;stroke:red;stroke-width:1px;stroke-linecap:butt;stroke-linejoin:miter;stroke-opacity:1" d="M 249.082,719.796 249.082,758.698 z" id="boundary" inkscape:connector-curvature="0" />
	<path style="fill:none;stroke:red;stroke-width:1px;stroke-linecap:butt;stroke-linejoin:miter;stroke-opacity:1" d="M 249.082,758.698 249.082,797.6 z" id="boundary" inkscape:connector-curvature="0" />
	<path style="fill:none;stroke:red;stroke-width:1px;stroke-linecap:butt;stroke-linejoin:miter;stroke-opacity:1" d="M 249.082,797.6 256.863,836.502 z" id="boundary" inkscape:connector-curvature="0" />
	<path style="fill:none;stroke:red;stroke-width:1px;stroke-linecap:butt;stroke-linejoin:miter;stroke-opacity:1" d="M 256.863,548.627 264.643,501.945 z" id="boundary" inkscape:connector-curvature="0" />
	<path style="fill:none;stroke:red;stroke-width:1px;stroke-linecap:butt;stroke-linejoin:miter;stroke-opacity:1" d="M 256.863,836.502 256.863,875.404 z" id="boundary" inkscape:connector-curvature="0" />
	<path style="fill:none;stroke:red;stroke-width:1px;stroke-linecap:butt;stroke-linejoin:miter;stroke-opacity:1" d="M 256.863,875.404 256.863,914.306 z" id="boundary" inkscape:connector-curvature="0" />
	<path style="fill:none;stroke:red;stroke-width:1px;stroke-linecap:butt;stroke-linejoin:miter;stroke-opacity:1" d="M 256.863,914.306 280.204,945.427 z" id="boundary" inkscape:connector-curvature="0" />
	<path style="fill:none;stroke:red;stroke-width:1px;stroke-linecap:butt;stroke-linejoin:miter;stroke-opacity:1" d="M 256.863,996 295.765,988.22 z" id="boundary" inkscape:connector-curvature="0" />
	<path style="fill:none;stroke:red;stroke-width:1px;stroke-linecap:butt;stroke-linejoin:miter;stroke-opacity:1" d="M 264.643,501.945 272.424,447.482 z" id="boundary" inkscape:connector-curvature="0" />
	<path style="fill:none;stroke:red;stroke-width:1px;stroke-linecap:butt;stroke-linejoin:miter;stroke-opacity:1" d="M 272.424,447.482 280.204,393.02 z" id="boundary" inkscape:connector-curvature="0" />
	<path style="fill:none;stroke:red;stroke-width:1px;stroke-linecap:butt;stroke-linejoin:miter;stroke-opacity:1" d="M 280.204,27.3412 315.216,46.7922 z" id="boundary" inkscape:connector-curvature="0" />
	<path style="fill:none;stroke:red;stroke-width:1px;stroke-linecap:butt;stroke-linejoin:miter;stroke-opacity:1" d="M 280.204,393.02 311.325,361.898 z" id="boundary" inkscape:connector-curvature="0" />
	<path style="fill:none;stroke:red;stroke-width:1px;stroke-linecap:butt;stroke-linejoin:miter;stroke-opacity:1" d="M 280.204,945.427 295.765,988.22 z" id="boundary" inkscape:connector-curvature="0" />
	<path style="fill:none;stroke:red;stroke-width:1px;stroke-linecap:butt;stroke-linejoin:miter;stroke-opacity:1" d="M 311.325,361.898 330.776,326.886 z" id="boundary" inkscape:connector-curvature="0" />
	<path style="fill:none;stroke:red;stroke-width:1px;stroke-linecap:butt;stroke-linejoin:miter;stroke-opacity:1" d="M 315.216,46.7922 346.337,74.0235 z" id="boundary" inkscape:connector-curvature="0" />
	<path style="fill:none;stroke:red;stroke-width:1px;stroke-linecap:butt;stroke-linejoin:miter;stroke-opacity:1" d="M 334.667,237.412 342.447,276.314 z" id="boundary" inkscape:connector-curvature="0" />
	<path style="fill:none;stroke:red;stroke-width:1px;stroke-linecap:butt;stroke-linejoin:miter;stroke-opacity:1" d="M 342.447,276.314 381.349,287.984 z" id="boundary" inkscape:connector-curvature="0" />
	<path style="fill:none;stroke:red;stroke-width:1px;stroke-linecap:butt;stroke-linejoin:miter;stroke-opacity:1" d="M 346.337,74.0235 377.459,101.255 z" id="boundary" inkscape:connector-curvature="0" />
	<path style="fill:none;stroke:red;stroke-width:1px;stroke-linecap:butt;stroke-linejoin:miter;stroke-opacity:1" d="M 377.459,101.255 396.91,136.267 z" id="boundary" inkscape:connector-curvature="0" />
	<path style="fill:none;stroke:red;stroke-width:1px;stroke-linecap:butt;stroke-linejoin:miter;stroke-opacity:1" d="M 381.349,287.984 420.251,252.973 z" id="boundary" inkscape:connector-curvature="0" />
	<path style="fill:none;stroke:red;stroke-width:1px;stroke-linecap:butt;stroke-linejoin:miter;stroke-opacity:1" d="M 396.91,136.267 396.91,175.169 z" id="boundary" inkscape:connector-curvature="0" />
	<path style="fill:none;stroke:red;stroke-width:1px;stroke-linecap:butt;stroke-linejoin:miter;stroke-opacity:1" d="M 396.91,175.169 408.58,214.071 z" id="boundary" inkscape:connector-curvature="0" />
	<path style="fill:none;stroke:red;stroke-width:1px;stroke-linecap:butt;stroke-linejoin:miter;stroke-opacity:1" d="M 408.58,214.071 420.251,252.973 z" id="boundary" inkscape:connector-curvature="0" />
	<circle cx="4" cy="299.655" r="4" fill="#0" id="circle0"/>
	<circle cx="4" cy="385.239" r="4" fill="#0" id="circle1"/>
	<circle cx="11.7804" cy="260.753" r="4" fill="#0" id="circle2"/>
	<circle cx="11.7804" cy="338.557" r="4" fill="#0" id="circle3"/>
	<circle cx="15.6706" cy="424.141" r="4" fill="#0" id="circle4"/>
	<circle cx="19.5608" cy="221.851" r="4" fill="#0" id="circle5"/>
	<circle cx="35.1216" cy="167.388" r="4" fill="#0" id="circle6"/>
	<circle cx="50.6824" cy="112.925" r="4" fill="#0" id="circle7"/>
	<circle cx="54.5725" cy="435.812" r="4" fill="#0" id="circle8"/>
	<circle cx="70.1333" cy="77.9137" r="4" fill="#0" id="circle9"/>
	<circle cx="85.6941" cy="408.58" r="4" fill="#0" id="circle10"/>
	<circle cx="93.4745" cy="46.7922" r="4" fill="#0" id="circle11"/>
	<circle cx="97.3647" cy="447.482" r="4" fill="#0" id="circle12"/>
	<circle cx="97.3647" cy="486.384" r="4" fill="#0" id="circle13"/>
	<circle cx="105.145" cy="525.286" r="4" fill="#0" id="circle14"/>
	<circle cx="105.145" cy="564.188" r="4" fill="#0" id="circle15"/>
	<circle cx="105.145" cy="603.09" r="4" fill="#0" id="circle16"/>
	<circle cx="105.145" cy="641.992" r="4" fill="#0" id="circle17"/>
	<circle cx="105.145" cy="680.894" r="4" fill="#0" id="circle18"/>
	<circle cx="112.925" cy="719.796" r="4" fill="#0" id="circle19"/>
	<circle cx="112.925" cy="758.698" r="4" fill="#0" id="circle20"/>
	<circle cx="112.925" cy="797.6" r="4" fill="#0" id="circle21"/>
	<circle cx="112.925" cy="836.502" r="4" fill="#0" id="circle22"/>
	<circle cx="120.706" cy="875.404" r="4" fill="#0" id="circle23"/>
	<circle cx="120.706" cy="914.306" r="4" fill="#0" id="circle24"/>
	<circle cx="120.706" cy="953.208" r="4" fill="#0" id="circle25"/>
	<circle cx="124.596" cy="23.451" r="4" fill="#0" id="circle26"/>
	<circle cx="124.596" cy="992.11" r="4" fill="#0" id="circle27"/>
	<circle cx="155.718" cy="494.165" r="4" fill="#0" id="circle28"/>
	<circle cx="155.718" cy="533.067" r="4" fill="#0" id="circle29"/>
	<circle cx="155.718" cy="571.969" r="4" fill="#0" id="circle30"/>
	<circle cx="155.718" cy="610.871" r="4" fill="#0" id="circle31"/>
	<circle cx="155.718" cy="649.773" r="4" fill="#0" id="circle32"/>
	<circle cx="155.718" cy="688.675" r="4" fill="#0" id="circle33"/>
	<circle cx="155.718" cy="727.576" r="4" fill="#0" id="circle34"/>
	<circle cx="155.718" cy="766.478" r="4" fill="#0" id="circle35"/>
	<circle cx="155.718" cy="805.38" r="4" fill="#0" id="circle36"/>
	<circle cx="155.718" cy="844.282" r="4" fill="#0" id="circle37"/>
	<circle cx="163.498" cy="7.8902" r="4" fill="#0" id="circle38"/>
	<circle cx="163.498" cy="408.58" r="4" fill="#0" id="circle39"/>
	<circle cx="163.498" cy="447.482" r="4" fill="#0" id="circle40"/>
	<circle cx="163.498" cy="883.184" r="4" fill="#0" id="circle41"/>
	<circle cx="163.498" cy="922.086" r="4" fill="#0" id="circle42"/>
	<circle cx="163.498" cy="996" r="4" fill="#0" id="circle43"/>
	<circle cx="186.839" cy="953.208" r="4" fill="#0" id="circle44"/>
	<circle cx="194.62" cy="377.459" r="4" fill="#0" id="circle45"/>
	<circle cx="198.51" cy="634.212" r="4" fill="#0" id="circle46"/>
	<circle cx="198.51" cy="673.114" r="4" fill="#0" id="circle47"/>
	<circle cx="202.4" cy="4" r="4" fill="#0" id="circle48"/>
	<circle cx="206.29" cy="416.361" r="4" fill="#0" id="circle49"/>
	<circle cx="206.29" cy="455.263" r="4" fill="#0" id="circle50"/>
	<circle cx="206.29" cy="494.165" r="4" fill="#0" id="circle51"/>
	<circle cx="206.29" cy="533.067" r="4" fill="#0" id="circle52"/>
	<circle cx="206.29" cy="571.969" r="4" fill="#0" id="circle53"/>
	<circle cx="206.29" cy="712.016" r="4" fill="#0" id="circle54"/>
	<circle cx="206.29" cy="750.918" r="4" fill="#0" id="circle55"/>
	<circle cx="206.29" cy="789.82" r="4" fill="#0" id="circle56"/>
	<circle cx="214.071" cy="828.722" r="4" fill="#0" id="circle57"/>
	<circle cx="214.071" cy="867.624" r="4" fill="#0" id="circle58"/>
	<circle cx="214.071" cy="906.525" r="4" fill="#0" id="circle59"/>
	<circle cx="217.961" cy="980.439" r="4" fill="#0" id="circle60"/>
	<circle cx="241.302" cy="11.7804" r="4" fill="#0" id="circle61"/>
	<circle cx="249.082" cy="603.09" r="4" fill="#0" id="circle62"/>
	<circle cx="249.082" cy="641.992" r="4" fill="#0" id="circle63"/>
	<circle cx="249.082" cy="680.894" r="4" fill="#0" id="circle64"/>
	<circle cx="249.082" cy="719.796" r="4" fill="#0" id="circle65"/>
	<circle cx="249.082" cy="758.698" r="4" fill="#0" id="circle66"/>
	<circle cx="249.082" cy="797.6" r="4" fill="#0" id="circle67"/>
	<circle cx="256.863" cy="548.627" r="4" fill="#0" id="circle68"/>
	<circle cx="256.863" cy="836.502" r="4" fill="#0" id="circle69"/>
	<circle cx="256.863" cy="875.404" r="4" fill="#0" id="circle70"/>
	<circle cx="256.863" cy="914.306" r="4" fill="#0" id="circle71"/>
	<circle cx="256.863" cy="996" r="4" fill="#0" id="circle72"/>
	<circle cx="264.643" cy="501.945" r="4" fill="#0" id="circle73"/>
	<circle cx="272.424" cy="447.482" r="4" fill="#0" id="circle74"/>
	<circle cx="280.204" cy="27.3412" r="4" fill="#0" id="circle75"/>
	<circle cx="280.204" cy="393.02" r="4" fill="#0" id="circle76"/>
	<circle cx="280.204" cy="945.427" r="4" fill="#0" id="circle77"/>
	<circle cx="295.765" cy="988.22" r="4" fill="#0" id="circle78"/>
	<circle cx="311.325" cy="361.898" r="4" fill="#0" id="circle79"/>
	<circle cx="315.216" cy="46.7922" r="4" fill="#0" id="circle80"/>
	<circle cx="330.776" cy="326.886" r="4" fill="#0" id="circle81"/>
	<circle cx="334.667" cy="237.412" r="4" fill="#0" id="circle82"/>
	<circle cx="342.447" cy="276.314" r="4" fill="#0" id="circle83"/>
	<circle cx="346.337" cy="74.0235" r="4" fill="#0" id="circle84"/>
	<circle cx="377.459" cy="101.255" r="4" fill="#0" id="circle85"/>
	<circle cx="381.349" cy="287.984" r="4" fill="#0" id="circle86"/>
	<circle cx="396.91" cy="136.267" r="4" fill="#0" id="circle87"/>
	<circle cx="396.91" cy="175.169" r="4" fill="#0" id="circle88"/>
	<circle cx="408.58" cy="214.071" r="4" fill="#0" id="circle89"/>
	<circle cx="420.251" cy="252.973" r="4" fill="#0" id="circle90"/>
	</g>
</svg>