<?xml version="1.0" encoding="UTF-8" standalone="no"?>
<!-- Created with CurveBenchmark -->
<svg
	xmlns:dc="http://purl.org/dc/elements/1.1/"
	xmlns:cc="http://creativecommons.org/ns#"
	xmlns:rdf="http://www.w3.org/1999/02/22-rdf-syntax-ns#"
	xmlns:svg="http://www.w3.org/2000/svg"
	xmlns="http://www.w3.org/2000/svg"
	xmlns:sodipodi="http://sodipodi.sourceforge.net/DTD/sodipodi-0.dtd"
	xmlns:inkscape="http://www.inkscape.org/namespaces/inkscape"
	width="1000"
	height="1000"
	id="svg2"
	version="1.1"
	sodipodi:docname="manifold/discur-woodenspoonbinary26.png.txt">
<defs
	id="defs4" />
<metadata
	id="metadata7">
	<rdf:RDF>
		<cc:Work
			rdf:about="">
			<dc:format>image/svg+xml</dc:format>
			<dc:type
				rdf:resource="http://purl.org/dc/dcmitype/StillImage" />
			<dc:title></dc:title>
		</cc:Work>
	</rdf:RDF>
</metadata>
<g
	inkscape:label="Layer 1"
	inkscape:groupmode="layer"
	id="layer1">
	<path style="fill:none;stroke:red;stroke-width:1px;stroke-linecap:butt;stroke-linejoin:miter;stroke-opacity:1" d="M 4,144.598 5.42019,136.077 z" id="boundary" inkscape:connector-curvature="0" />
	<path style="fill:none;stroke:red;stroke-width:1px;stroke-linecap:butt;stroke-linejoin:miter;stroke-opacity:1" d="M 4,144.598 5.42019,151.699 z" id="boundary" inkscape:connector-curvature="0" />
	<path style="fill:none;stroke:red;stroke-width:1px;stroke-linecap:butt;stroke-linejoin:miter;stroke-opacity:1" d="M 5.42019,136.077 16.7817,128.976 z" id="boundary" inkscape:connector-curvature="0" />
	<path style="fill:none;stroke:red;stroke-width:1px;stroke-linecap:butt;stroke-linejoin:miter;stroke-opacity:1" d="M 5.42019,151.699 8.26056,158.8 z" id="boundary" inkscape:connector-curvature="0" />
	<path style="fill:none;stroke:red;stroke-width:1px;stroke-linecap:butt;stroke-linejoin:miter;stroke-opacity:1" d="M 8.26056,158.8 21.0422,165.191 z" id="boundary" inkscape:connector-curvature="0" />
	<path style="fill:none;stroke:red;stroke-width:1px;stroke-linecap:butt;stroke-linejoin:miter;stroke-opacity:1" d="M 16.7817,128.976 23.8826,127.556 z" id="boundary" inkscape:connector-curvature="0" />
	<path style="fill:none;stroke:red;stroke-width:1px;stroke-linecap:butt;stroke-linejoin:miter;stroke-opacity:1" d="M 21.0422,165.191 28.1432,165.901 z" id="boundary" inkscape:connector-curvature="0" />
	<path style="fill:none;stroke:red;stroke-width:1px;stroke-linecap:butt;stroke-linejoin:miter;stroke-opacity:1" d="M 23.8826,127.556 30.9835,126.846 z" id="boundary" inkscape:connector-curvature="0" />
	<path style="fill:none;stroke:red;stroke-width:1px;stroke-linecap:butt;stroke-linejoin:miter;stroke-opacity:1" d="M 28.1432,165.901 35.2441,165.901 z" id="boundary" inkscape:connector-curvature="0" />
	<path style="fill:none;stroke:red;stroke-width:1px;stroke-linecap:butt;stroke-linejoin:miter;stroke-opacity:1" d="M 30.9835,126.846 45.1854,124.716 z" id="boundary" inkscape:connector-curvature="0" />
	<path style="fill:none;stroke:red;stroke-width:1px;stroke-linecap:butt;stroke-linejoin:miter;stroke-opacity:1" d="M 35.2441,165.901 42.345,165.901 z" id="boundary" inkscape:connector-curvature="0" />
	<path style="fill:none;stroke:red;stroke-width:1px;stroke-linecap:butt;stroke-linejoin:miter;stroke-opacity:1" d="M 42.345,165.901 56.5469,165.191 z" id="boundary" inkscape:connector-curvature="0" />
	<path style="fill:none;stroke:red;stroke-width:1px;stroke-linecap:butt;stroke-linejoin:miter;stroke-opacity:1" d="M 45.1854,124.716 52.2863,124.716 z" id="boundary" inkscape:connector-curvature="0" />
	<path style="fill:none;stroke:red;stroke-width:1px;stroke-linecap:butt;stroke-linejoin:miter;stroke-opacity:1" d="M 52.2863,124.716 59.3873,124.006 z" id="boundary" inkscape:connector-curvature="0" />
	<path style="fill:none;stroke:red;stroke-width:1px;stroke-linecap:butt;stroke-linejoin:miter;stroke-opacity:1" d="M 56.5469,165.191 63.6478,164.481 z" id="boundary" inkscape:connector-curvature="0" />
	<path style="fill:none;stroke:red;stroke-width:1px;stroke-linecap:butt;stroke-linejoin:miter;stroke-opacity:1" d="M 59.3873,124.006 66.4882,123.296 z" id="boundary" inkscape:connector-curvature="0" />
	<path style="fill:none;stroke:red;stroke-width:1px;stroke-linecap:butt;stroke-linejoin:miter;stroke-opacity:1" d="M 63.6478,164.481 70.7487,163.771 z" id="boundary" inkscape:connector-curvature="0" />
	<path style="fill:none;stroke:red;stroke-width:1px;stroke-linecap:butt;stroke-linejoin:miter;stroke-opacity:1" d="M 66.4882,123.296 80.6901,121.875 z" id="boundary" inkscape:connector-curvature="0" />
	<path style="fill:none;stroke:red;stroke-width:1px;stroke-linecap:butt;stroke-linejoin:miter;stroke-opacity:1" d="M 70.7487,163.771 84.9506,163.061 z" id="boundary" inkscape:connector-curvature="0" />
	<path style="fill:none;stroke:red;stroke-width:1px;stroke-linecap:butt;stroke-linejoin:miter;stroke-opacity:1" d="M 80.6901,121.875 87.791,121.875 z" id="boundary" inkscape:connector-curvature="0" />
	<path style="fill:none;stroke:red;stroke-width:1px;stroke-linecap:butt;stroke-linejoin:miter;stroke-opacity:1" d="M 84.9506,163.061 92.0515,162.351 z" id="boundary" inkscape:connector-curvature="0" />
	<path style="fill:none;stroke:red;stroke-width:1px;stroke-linecap:butt;stroke-linejoin:miter;stroke-opacity:1" d="M 87.791,121.875 94.8919,121.165 z" id="boundary" inkscape:connector-curvature="0" />
	<path style="fill:none;stroke:red;stroke-width:1px;stroke-linecap:butt;stroke-linejoin:miter;stroke-opacity:1" d="M 92.0515,162.351 99.1525,161.641 z" id="boundary" inkscape:connector-curvature="0" />
	<path style="fill:none;stroke:red;stroke-width:1px;stroke-linecap:butt;stroke-linejoin:miter;stroke-opacity:1" d="M 94.8919,121.165 101.993,120.455 z" id="boundary" inkscape:connector-curvature="0" />
	<path style="fill:none;stroke:red;stroke-width:1px;stroke-linecap:butt;stroke-linejoin:miter;stroke-opacity:1" d="M 99.1525,161.641 106.253,161.641 z" id="boundary" inkscape:connector-curvature="0" />
	<path style="fill:none;stroke:red;stroke-width:1px;stroke-linecap:butt;stroke-linejoin:miter;stroke-opacity:1" d="M 101.993,120.455 116.195,119.745 z" id="boundary" inkscape:connector-curvature="0" />
	<path style="fill:none;stroke:red;stroke-width:1px;stroke-linecap:butt;stroke-linejoin:miter;stroke-opacity:1" d="M 106.253,161.641 120.455,160.22 z" id="boundary" inkscape:connector-curvature="0" />
	<path style="fill:none;stroke:red;stroke-width:1px;stroke-linecap:butt;stroke-linejoin:miter;stroke-opacity:1" d="M 116.195,119.745 123.296,119.035 z" id="boundary" inkscape:connector-curvature="0" />
	<path style="fill:none;stroke:red;stroke-width:1px;stroke-linecap:butt;stroke-linejoin:miter;stroke-opacity:1" d="M 120.455,160.22 127.556,159.51 z" id="boundary" inkscape:connector-curvature="0" />
	<path style="fill:none;stroke:red;stroke-width:1px;stroke-linecap:butt;stroke-linejoin:miter;stroke-opacity:1" d="M 123.296,119.035 130.397,118.325 z" id="boundary" inkscape:connector-curvature="0" />
	<path style="fill:none;stroke:red;stroke-width:1px;stroke-linecap:butt;stroke-linejoin:miter;stroke-opacity:1" d="M 127.556,159.51 134.657,158.8 z" id="boundary" inkscape:connector-curvature="0" />
	<path style="fill:none;stroke:red;stroke-width:1px;stroke-linecap:butt;stroke-linejoin:miter;stroke-opacity:1" d="M 130.397,118.325 137.497,117.615 z" id="boundary" inkscape:connector-curvature="0" />
	<path style="fill:none;stroke:red;stroke-width:1px;stroke-linecap:butt;stroke-linejoin:miter;stroke-opacity:1" d="M 134.657,158.8 141.758,158.09 z" id="boundary" inkscape:connector-curvature="0" />
	<path style="fill:none;stroke:red;stroke-width:1px;stroke-linecap:butt;stroke-linejoin:miter;stroke-opacity:1" d="M 137.497,117.615 151.699,117.615 z" id="boundary" inkscape:connector-curvature="0" />
	<path style="fill:none;stroke:red;stroke-width:1px;stroke-linecap:butt;stroke-linejoin:miter;stroke-opacity:1" d="M 141.758,158.09 155.96,157.38 z" id="boundary" inkscape:connector-curvature="0" />
	<path style="fill:none;stroke:red;stroke-width:1px;stroke-linecap:butt;stroke-linejoin:miter;stroke-opacity:1" d="M 151.699,117.615 158.8,116.905 z" id="boundary" inkscape:connector-curvature="0" />
	<path style="fill:none;stroke:red;stroke-width:1px;stroke-linecap:butt;stroke-linejoin:miter;stroke-opacity:1" d="M 155.96,157.38 163.061,156.67 z" id="boundary" inkscape:connector-curvature="0" />
	<path style="fill:none;stroke:red;stroke-width:1px;stroke-linecap:butt;stroke-linejoin:miter;stroke-opacity:1" d="M 158.8,116.905 165.901,116.195 z" id="boundary" inkscape:connector-curvature="0" />
	<path style="fill:none;stroke:red;stroke-width:1px;stroke-linecap:butt;stroke-linejoin:miter;stroke-opacity:1" d="M 163.061,156.67 170.162,155.96 z" id="boundary" inkscape:connector-curvature="0" />
	<path style="fill:none;stroke:red;stroke-width:1px;stroke-linecap:butt;stroke-linejoin:miter;stroke-opacity:1" d="M 165.901,116.195 180.103,115.485 z" id="boundary" inkscape:connector-curvature="0" />
	<path style="fill:none;stroke:red;stroke-width:1px;stroke-linecap:butt;stroke-linejoin:miter;stroke-opacity:1" d="M 170.162,155.96 177.263,155.96 z" id="boundary" inkscape:connector-curvature="0" />
	<path style="fill:none;stroke:red;stroke-width:1px;stroke-linecap:butt;stroke-linejoin:miter;stroke-opacity:1" d="M 177.263,155.96 191.465,155.25 z" id="boundary" inkscape:connector-curvature="0" />
	<path style="fill:none;stroke:red;stroke-width:1px;stroke-linecap:butt;stroke-linejoin:miter;stroke-opacity:1" d="M 180.103,115.485 187.204,115.485 z" id="boundary" inkscape:connector-curvature="0" />
	<path style="fill:none;stroke:red;stroke-width:1px;stroke-linecap:butt;stroke-linejoin:miter;stroke-opacity:1" d="M 187.204,115.485 194.305,114.775 z" id="boundary" inkscape:connector-curvature="0" />
	<path style="fill:none;stroke:red;stroke-width:1px;stroke-linecap:butt;stroke-linejoin:miter;stroke-opacity:1" d="M 191.465,155.25 198.565,154.54 z" id="boundary" inkscape:connector-curvature="0" />
	<path style="fill:none;stroke:red;stroke-width:1px;stroke-linecap:butt;stroke-linejoin:miter;stroke-opacity:1" d="M 194.305,114.775 201.406,113.354 z" id="boundary" inkscape:connector-curvature="0" />
	<path style="fill:none;stroke:red;stroke-width:1px;stroke-linecap:butt;stroke-linejoin:miter;stroke-opacity:1" d="M 198.565,154.54 205.666,153.83 z" id="boundary" inkscape:connector-curvature="0" />
	<path style="fill:none;stroke:red;stroke-width:1px;stroke-linecap:butt;stroke-linejoin:miter;stroke-opacity:1" d="M 201.406,113.354 215.608,112.644 z" id="boundary" inkscape:connector-curvature="0" />
	<path style="fill:none;stroke:red;stroke-width:1px;stroke-linecap:butt;stroke-linejoin:miter;stroke-opacity:1" d="M 205.666,153.83 212.767,153.83 z" id="boundary" inkscape:connector-curvature="0" />
	<path style="fill:none;stroke:red;stroke-width:1px;stroke-linecap:butt;stroke-linejoin:miter;stroke-opacity:1" d="M 212.767,153.83 226.969,152.409 z" id="boundary" inkscape:connector-curvature="0" />
	<path style="fill:none;stroke:red;stroke-width:1px;stroke-linecap:butt;stroke-linejoin:miter;stroke-opacity:1" d="M 215.608,112.644 222.709,112.644 z" id="boundary" inkscape:connector-curvature="0" />
	<path style="fill:none;stroke:red;stroke-width:1px;stroke-linecap:butt;stroke-linejoin:miter;stroke-opacity:1" d="M 222.709,112.644 229.81,111.934 z" id="boundary" inkscape:connector-curvature="0" />
	<path style="fill:none;stroke:red;stroke-width:1px;stroke-linecap:butt;stroke-linejoin:miter;stroke-opacity:1" d="M 226.969,152.409 234.07,151.699 z" id="boundary" inkscape:connector-curvature="0" />
	<path style="fill:none;stroke:red;stroke-width:1px;stroke-linecap:butt;stroke-linejoin:miter;stroke-opacity:1" d="M 229.81,111.934 236.911,111.934 z" id="boundary" inkscape:connector-curvature="0" />
	<path style="fill:none;stroke:red;stroke-width:1px;stroke-linecap:butt;stroke-linejoin:miter;stroke-opacity:1" d="M 234.07,151.699 241.171,150.989 z" id="boundary" inkscape:connector-curvature="0" />
	<path style="fill:none;stroke:red;stroke-width:1px;stroke-linecap:butt;stroke-linejoin:miter;stroke-opacity:1" d="M 236.911,111.934 251.112,110.514 z" id="boundary" inkscape:connector-curvature="0" />
	<path style="fill:none;stroke:red;stroke-width:1px;stroke-linecap:butt;stroke-linejoin:miter;stroke-opacity:1" d="M 241.171,150.989 255.373,150.279 z" id="boundary" inkscape:connector-curvature="0" />
	<path style="fill:none;stroke:red;stroke-width:1px;stroke-linecap:butt;stroke-linejoin:miter;stroke-opacity:1" d="M 251.112,110.514 258.213,110.514 z" id="boundary" inkscape:connector-curvature="0" />
	<path style="fill:none;stroke:red;stroke-width:1px;stroke-linecap:butt;stroke-linejoin:miter;stroke-opacity:1" d="M 255.373,150.279 262.474,149.569 z" id="boundary" inkscape:connector-curvature="0" />
	<path style="fill:none;stroke:red;stroke-width:1px;stroke-linecap:butt;stroke-linejoin:miter;stroke-opacity:1" d="M 258.213,110.514 265.314,109.804 z" id="boundary" inkscape:connector-curvature="0" />
	<path style="fill:none;stroke:red;stroke-width:1px;stroke-linecap:butt;stroke-linejoin:miter;stroke-opacity:1" d="M 262.474,149.569 269.575,149.569 z" id="boundary" inkscape:connector-curvature="0" />
	<path style="fill:none;stroke:red;stroke-width:1px;stroke-linecap:butt;stroke-linejoin:miter;stroke-opacity:1" d="M 265.314,109.804 272.415,109.094 z" id="boundary" inkscape:connector-curvature="0" />
	<path style="fill:none;stroke:red;stroke-width:1px;stroke-linecap:butt;stroke-linejoin:miter;stroke-opacity:1" d="M 269.575,149.569 276.676,148.859 z" id="boundary" inkscape:connector-curvature="0" />
	<path style="fill:none;stroke:red;stroke-width:1px;stroke-linecap:butt;stroke-linejoin:miter;stroke-opacity:1" d="M 272.415,109.094 286.617,108.384 z" id="boundary" inkscape:connector-curvature="0" />
	<path style="fill:none;stroke:red;stroke-width:1px;stroke-linecap:butt;stroke-linejoin:miter;stroke-opacity:1" d="M 276.676,148.859 290.878,147.439 z" id="boundary" inkscape:connector-curvature="0" />
	<path style="fill:none;stroke:red;stroke-width:1px;stroke-linecap:butt;stroke-linejoin:miter;stroke-opacity:1" d="M 286.617,108.384 293.718,108.384 z" id="boundary" inkscape:connector-curvature="0" />
	<path style="fill:none;stroke:red;stroke-width:1px;stroke-linecap:butt;stroke-linejoin:miter;stroke-opacity:1" d="M 290.878,147.439 297.979,146.729 z" id="boundary" inkscape:connector-curvature="0" />
	<path style="fill:none;stroke:red;stroke-width:1px;stroke-linecap:butt;stroke-linejoin:miter;stroke-opacity:1" d="M 293.718,108.384 300.819,107.674 z" id="boundary" inkscape:connector-curvature="0" />
	<path style="fill:none;stroke:red;stroke-width:1px;stroke-linecap:butt;stroke-linejoin:miter;stroke-opacity:1" d="M 297.979,146.729 305.079,146.729 z" id="boundary" inkscape:connector-curvature="0" />
	<path style="fill:none;stroke:red;stroke-width:1px;stroke-linecap:butt;stroke-linejoin:miter;stroke-opacity:1" d="M 300.819,107.674 307.92,107.674 z" id="boundary" inkscape:connector-curvature="0" />
	<path style="fill:none;stroke:red;stroke-width:1px;stroke-linecap:butt;stroke-linejoin:miter;stroke-opacity:1" d="M 305.079,146.729 312.18,146.729 z" id="boundary" inkscape:connector-curvature="0" />
	<path style="fill:none;stroke:red;stroke-width:1px;stroke-linecap:butt;stroke-linejoin:miter;stroke-opacity:1" d="M 307.92,107.674 322.122,106.253 z" id="boundary" inkscape:connector-curvature="0" />
	<path style="fill:none;stroke:red;stroke-width:1px;stroke-linecap:butt;stroke-linejoin:miter;stroke-opacity:1" d="M 312.18,146.729 326.382,145.309 z" id="boundary" inkscape:connector-curvature="0" />
	<path style="fill:none;stroke:red;stroke-width:1px;stroke-linecap:butt;stroke-linejoin:miter;stroke-opacity:1" d="M 322.122,106.253 329.223,106.253 z" id="boundary" inkscape:connector-curvature="0" />
	<path style="fill:none;stroke:red;stroke-width:1px;stroke-linecap:butt;stroke-linejoin:miter;stroke-opacity:1" d="M 326.382,145.309 333.483,144.598 z" id="boundary" inkscape:connector-curvature="0" />
	<path style="fill:none;stroke:red;stroke-width:1px;stroke-linecap:butt;stroke-linejoin:miter;stroke-opacity:1" d="M 329.223,106.253 336.324,105.543 z" id="boundary" inkscape:connector-curvature="0" />
	<path style="fill:none;stroke:red;stroke-width:1px;stroke-linecap:butt;stroke-linejoin:miter;stroke-opacity:1" d="M 333.483,144.598 340.584,143.888 z" id="boundary" inkscape:connector-curvature="0" />
	<path style="fill:none;stroke:red;stroke-width:1px;stroke-linecap:butt;stroke-linejoin:miter;stroke-opacity:1" d="M 336.324,105.543 350.525,104.833 z" id="boundary" inkscape:connector-curvature="0" />
	<path style="fill:none;stroke:red;stroke-width:1px;stroke-linecap:butt;stroke-linejoin:miter;stroke-opacity:1" d="M 340.584,143.888 347.685,142.468 z" id="boundary" inkscape:connector-curvature="0" />
	<path style="fill:none;stroke:red;stroke-width:1px;stroke-linecap:butt;stroke-linejoin:miter;stroke-opacity:1" d="M 347.685,142.468 361.887,141.758 z" id="boundary" inkscape:connector-curvature="0" />
	<path style="fill:none;stroke:red;stroke-width:1px;stroke-linecap:butt;stroke-linejoin:miter;stroke-opacity:1" d="M 350.525,104.833 357.626,104.833 z" id="boundary" inkscape:connector-curvature="0" />
	<path style="fill:none;stroke:red;stroke-width:1px;stroke-linecap:butt;stroke-linejoin:miter;stroke-opacity:1" d="M 357.626,104.833 364.727,104.123 z" id="boundary" inkscape:connector-curvature="0" />
	<path style="fill:none;stroke:red;stroke-width:1px;stroke-linecap:butt;stroke-linejoin:miter;stroke-opacity:1" d="M 361.887,141.758 368.988,141.048 z" id="boundary" inkscape:connector-curvature="0" />
	<path style="fill:none;stroke:red;stroke-width:1px;stroke-linecap:butt;stroke-linejoin:miter;stroke-opacity:1" d="M 364.727,104.123 371.828,103.413 z" id="boundary" inkscape:connector-curvature="0" />
	<path style="fill:none;stroke:red;stroke-width:1px;stroke-linecap:butt;stroke-linejoin:miter;stroke-opacity:1" d="M 368.988,141.048 376.089,141.048 z" id="boundary" inkscape:connector-curvature="0" />
	<path style="fill:none;stroke:red;stroke-width:1px;stroke-linecap:butt;stroke-linejoin:miter;stroke-opacity:1" d="M 371.828,103.413 386.03,102.703 z" id="boundary" inkscape:connector-curvature="0" />
	<path style="fill:none;stroke:red;stroke-width:1px;stroke-linecap:butt;stroke-linejoin:miter;stroke-opacity:1" d="M 376.089,141.048 390.291,141.048 z" id="boundary" inkscape:connector-curvature="0" />
	<path style="fill:none;stroke:red;stroke-width:1px;stroke-linecap:butt;stroke-linejoin:miter;stroke-opacity:1" d="M 386.03,102.703 393.131,101.993 z" id="boundary" inkscape:connector-curvature="0" />
	<path style="fill:none;stroke:red;stroke-width:1px;stroke-linecap:butt;stroke-linejoin:miter;stroke-opacity:1" d="M 390.291,141.048 397.392,139.628 z" id="boundary" inkscape:connector-curvature="0" />
	<path style="fill:none;stroke:red;stroke-width:1px;stroke-linecap:butt;stroke-linejoin:miter;stroke-opacity:1" d="M 393.131,101.993 400.232,101.283 z" id="boundary" inkscape:connector-curvature="0" />
	<path style="fill:none;stroke:red;stroke-width:1px;stroke-linecap:butt;stroke-linejoin:miter;stroke-opacity:1" d="M 397.392,139.628 404.492,139.628 z" id="boundary" inkscape:connector-curvature="0" />
	<path style="fill:none;stroke:red;stroke-width:1px;stroke-linecap:butt;stroke-linejoin:miter;stroke-opacity:1" d="M 400.232,101.283 407.333,100.573 z" id="boundary" inkscape:connector-curvature="0" />
	<path style="fill:none;stroke:red;stroke-width:1px;stroke-linecap:butt;stroke-linejoin:miter;stroke-opacity:1" d="M 404.492,139.628 411.593,139.628 z" id="boundary" inkscape:connector-curvature="0" />
	<path style="fill:none;stroke:red;stroke-width:1px;stroke-linecap:butt;stroke-linejoin:miter;stroke-opacity:1" d="M 407.333,100.573 421.535,99.8626 z" id="boundary" inkscape:connector-curvature="0" />
	<path style="fill:none;stroke:red;stroke-width:1px;stroke-linecap:butt;stroke-linejoin:miter;stroke-opacity:1" d="M 411.593,139.628 425.795,138.208 z" id="boundary" inkscape:connector-curvature="0" />
	<path style="fill:none;stroke:red;stroke-width:1px;stroke-linecap:butt;stroke-linejoin:miter;stroke-opacity:1" d="M 421.535,99.8626 428.636,99.1525 z" id="boundary" inkscape:connector-curvature="0" />
	<path style="fill:none;stroke:red;stroke-width:1px;stroke-linecap:butt;stroke-linejoin:miter;stroke-opacity:1" d="M 425.795,138.208 432.896,138.208 z" id="boundary" inkscape:connector-curvature="0" />
	<path style="fill:none;stroke:red;stroke-width:1px;stroke-linecap:butt;stroke-linejoin:miter;stroke-opacity:1" d="M 428.636,99.1525 435.737,97.7323 z" id="boundary" inkscape:connector-curvature="0" />
	<path style="fill:none;stroke:red;stroke-width:1px;stroke-linecap:butt;stroke-linejoin:miter;stroke-opacity:1" d="M 432.896,138.208 439.997,137.497 z" id="boundary" inkscape:connector-curvature="0" />
	<path style="fill:none;stroke:red;stroke-width:1px;stroke-linecap:butt;stroke-linejoin:miter;stroke-opacity:1" d="M 435.737,97.7323 442.838,97.7323 z" id="boundary" inkscape:connector-curvature="0" />
	<path style="fill:none;stroke:red;stroke-width:1px;stroke-linecap:butt;stroke-linejoin:miter;stroke-opacity:1" d="M 439.997,137.497 447.098,137.497 z" id="boundary" inkscape:connector-curvature="0" />
	<path style="fill:none;stroke:red;stroke-width:1px;stroke-linecap:butt;stroke-linejoin:miter;stroke-opacity:1" d="M 442.838,97.7323 457.039,97.0222 z" id="boundary" inkscape:connector-curvature="0" />
	<path style="fill:none;stroke:red;stroke-width:1px;stroke-linecap:butt;stroke-linejoin:miter;stroke-opacity:1" d="M 447.098,137.497 461.3,136.787 z" id="boundary" inkscape:connector-curvature="0" />
	<path style="fill:none;stroke:red;stroke-width:1px;stroke-linecap:butt;stroke-linejoin:miter;stroke-opacity:1" d="M 457.039,97.0222 464.14,96.3121 z" id="boundary" inkscape:connector-curvature="0" />
	<path style="fill:none;stroke:red;stroke-width:1px;stroke-linecap:butt;stroke-linejoin:miter;stroke-opacity:1" d="M 461.3,136.787 468.401,136.787 z" id="boundary" inkscape:connector-curvature="0" />
	<path style="fill:none;stroke:red;stroke-width:1px;stroke-linecap:butt;stroke-linejoin:miter;stroke-opacity:1" d="M 464.14,96.3121 471.241,96.3121 z" id="boundary" inkscape:connector-curvature="0" />
	<path style="fill:none;stroke:red;stroke-width:1px;stroke-linecap:butt;stroke-linejoin:miter;stroke-opacity:1" d="M 468.401,136.787 475.502,136.787 z" id="boundary" inkscape:connector-curvature="0" />
	<path style="fill:none;stroke:red;stroke-width:1px;stroke-linecap:butt;stroke-linejoin:miter;stroke-opacity:1" d="M 471.241,96.3121 485.443,95.602 z" id="boundary" inkscape:connector-curvature="0" />
	<path style="fill:none;stroke:red;stroke-width:1px;stroke-linecap:butt;stroke-linejoin:miter;stroke-opacity:1" d="M 475.502,136.787 482.603,135.367 z" id="boundary" inkscape:connector-curvature="0" />
	<path style="fill:none;stroke:red;stroke-width:1px;stroke-linecap:butt;stroke-linejoin:miter;stroke-opacity:1" d="M 482.603,135.367 496.805,133.947 z" id="boundary" inkscape:connector-curvature="0" />
	<path style="fill:none;stroke:red;stroke-width:1px;stroke-linecap:butt;stroke-linejoin:miter;stroke-opacity:1" d="M 485.443,95.602 492.544,94.8919 z" id="boundary" inkscape:connector-curvature="0" />
	<path style="fill:none;stroke:red;stroke-width:1px;stroke-linecap:butt;stroke-linejoin:miter;stroke-opacity:1" d="M 492.544,94.8919 499.645,94.8919 z" id="boundary" inkscape:connector-curvature="0" />
	<path style="fill:none;stroke:red;stroke-width:1px;stroke-linecap:butt;stroke-linejoin:miter;stroke-opacity:1" d="M 496.805,133.947 503.906,133.237 z" id="boundary" inkscape:connector-curvature="0" />
	<path style="fill:none;stroke:red;stroke-width:1px;stroke-linecap:butt;stroke-linejoin:miter;stroke-opacity:1" d="M 499.645,94.8919 506.746,94.8919 z" id="boundary" inkscape:connector-curvature="0" />
	<path style="fill:none;stroke:red;stroke-width:1px;stroke-linecap:butt;stroke-linejoin:miter;stroke-opacity:1" d="M 503.906,133.237 511.006,132.527 z" id="boundary" inkscape:connector-curvature="0" />
	<path style="fill:none;stroke:red;stroke-width:1px;stroke-linecap:butt;stroke-linejoin:miter;stroke-opacity:1" d="M 506.746,94.8919 520.948,93.4717 z" id="boundary" inkscape:connector-curvature="0" />
	<path style="fill:none;stroke:red;stroke-width:1px;stroke-linecap:butt;stroke-linejoin:miter;stroke-opacity:1" d="M 511.006,132.527 518.107,132.527 z" id="boundary" inkscape:connector-curvature="0" />
	<path style="fill:none;stroke:red;stroke-width:1px;stroke-linecap:butt;stroke-linejoin:miter;stroke-opacity:1" d="M 518.107,132.527 532.309,131.817 z" id="boundary" inkscape:connector-curvature="0" />
	<path style="fill:none;stroke:red;stroke-width:1px;stroke-linecap:butt;stroke-linejoin:miter;stroke-opacity:1" d="M 520.948,93.4717 528.049,92.7616 z" id="boundary" inkscape:connector-curvature="0" />
	<path style="fill:none;stroke:red;stroke-width:1px;stroke-linecap:butt;stroke-linejoin:miter;stroke-opacity:1" d="M 528.049,92.7616 535.15,92.0515 z" id="boundary" inkscape:connector-curvature="0" />
	<path style="fill:none;stroke:red;stroke-width:1px;stroke-linecap:butt;stroke-linejoin:miter;stroke-opacity:1" d="M 532.309,131.817 539.41,131.107 z" id="boundary" inkscape:connector-curvature="0" />
	<path style="fill:none;stroke:red;stroke-width:1px;stroke-linecap:butt;stroke-linejoin:miter;stroke-opacity:1" d="M 535.15,92.0515 542.251,92.0515 z" id="boundary" inkscape:connector-curvature="0" />
	<path style="fill:none;stroke:red;stroke-width:1px;stroke-linecap:butt;stroke-linejoin:miter;stroke-opacity:1" d="M 539.41,131.107 546.511,131.107 z" id="boundary" inkscape:connector-curvature="0" />
	<path style="fill:none;stroke:red;stroke-width:1px;stroke-linecap:butt;stroke-linejoin:miter;stroke-opacity:1" d="M 542.251,92.0515 556.452,90.6314 z" id="boundary" inkscape:connector-curvature="0" />
	<path style="fill:none;stroke:red;stroke-width:1px;stroke-linecap:butt;stroke-linejoin:miter;stroke-opacity:1" d="M 546.511,131.107 560.713,131.107 z" id="boundary" inkscape:connector-curvature="0" />
	<path style="fill:none;stroke:red;stroke-width:1px;stroke-linecap:butt;stroke-linejoin:miter;stroke-opacity:1" d="M 556.452,90.6314 563.553,89.9213 z" id="boundary" inkscape:connector-curvature="0" />
	<path style="fill:none;stroke:red;stroke-width:1px;stroke-linecap:butt;stroke-linejoin:miter;stroke-opacity:1" d="M 560.713,131.107 567.814,129.686 z" id="boundary" inkscape:connector-curvature="0" />
	<path style="fill:none;stroke:red;stroke-width:1px;stroke-linecap:butt;stroke-linejoin:miter;stroke-opacity:1" d="M 563.553,89.9213 570.654,89.2112 z" id="boundary" inkscape:connector-curvature="0" />
	<path style="fill:none;stroke:red;stroke-width:1px;stroke-linecap:butt;stroke-linejoin:miter;stroke-opacity:1" d="M 567.814,129.686 574.915,129.686 z" id="boundary" inkscape:connector-curvature="0" />
	<path style="fill:none;stroke:red;stroke-width:1px;stroke-linecap:butt;stroke-linejoin:miter;stroke-opacity:1" d="M 570.654,89.2112 577.755,88.5011 z" id="boundary" inkscape:connector-curvature="0" />
	<path style="fill:none;stroke:red;stroke-width:1px;stroke-linecap:butt;stroke-linejoin:miter;stroke-opacity:1" d="M 574.915,129.686 582.016,128.976 z" id="boundary" inkscape:connector-curvature="0" />
	<path style="fill:none;stroke:red;stroke-width:1px;stroke-linecap:butt;stroke-linejoin:miter;stroke-opacity:1" d="M 577.755,88.5011 591.957,87.0809 z" id="boundary" inkscape:connector-curvature="0" />
	<path style="fill:none;stroke:red;stroke-width:1px;stroke-linecap:butt;stroke-linejoin:miter;stroke-opacity:1" d="M 582.016,128.976 596.218,128.976 z" id="boundary" inkscape:connector-curvature="0" />
	<path style="fill:none;stroke:red;stroke-width:1px;stroke-linecap:butt;stroke-linejoin:miter;stroke-opacity:1" d="M 591.957,87.0809 599.058,86.3708 z" id="boundary" inkscape:connector-curvature="0" />
	<path style="fill:none;stroke:red;stroke-width:1px;stroke-linecap:butt;stroke-linejoin:miter;stroke-opacity:1" d="M 596.218,128.976 603.319,128.976 z" id="boundary" inkscape:connector-curvature="0" />
	<path style="fill:none;stroke:red;stroke-width:1px;stroke-linecap:butt;stroke-linejoin:miter;stroke-opacity:1" d="M 599.058,86.3708 606.159,85.6607 z" id="boundary" inkscape:connector-curvature="0" />
	<path style="fill:none;stroke:red;stroke-width:1px;stroke-linecap:butt;stroke-linejoin:miter;stroke-opacity:1" d="M 603.319,128.976 610.419,128.976 z" id="boundary" inkscape:connector-curvature="0" />
	<path style="fill:none;stroke:red;stroke-width:1px;stroke-linecap:butt;stroke-linejoin:miter;stroke-opacity:1" d="M 606.159,85.6607 620.361,83.5304 z" id="boundary" inkscape:connector-curvature="0" />
	<path style="fill:none;stroke:red;stroke-width:1px;stroke-linecap:butt;stroke-linejoin:miter;stroke-opacity:1" d="M 610.419,128.976 617.52,128.976 z" id="boundary" inkscape:connector-curvature="0" />
	<path style="fill:none;stroke:red;stroke-width:1px;stroke-linecap:butt;stroke-linejoin:miter;stroke-opacity:1" d="M 617.52,128.976 631.722,129.686 z" id="boundary" inkscape:connector-curvature="0" />
	<path style="fill:none;stroke:red;stroke-width:1px;stroke-linecap:butt;stroke-linejoin:miter;stroke-opacity:1" d="M 620.361,83.5304 627.462,82.1102 z" id="boundary" inkscape:connector-curvature="0" />
	<path style="fill:none;stroke:red;stroke-width:1px;stroke-linecap:butt;stroke-linejoin:miter;stroke-opacity:1" d="M 627.462,82.1102 634.563,79.98 z" id="boundary" inkscape:connector-curvature="0" />
	<path style="fill:none;stroke:red;stroke-width:1px;stroke-linecap:butt;stroke-linejoin:miter;stroke-opacity:1" d="M 631.722,129.686 638.823,131.107 z" id="boundary" inkscape:connector-curvature="0" />
	<path style="fill:none;stroke:red;stroke-width:1px;stroke-linecap:butt;stroke-linejoin:miter;stroke-opacity:1" d="M 634.563,79.98 641.664,78.5598 z" id="boundary" inkscape:connector-curvature="0" />
	<path style="fill:none;stroke:red;stroke-width:1px;stroke-linecap:butt;stroke-linejoin:miter;stroke-opacity:1" d="M 638.823,131.107 645.924,131.817 z" id="boundary" inkscape:connector-curvature="0" />
	<path style="fill:none;stroke:red;stroke-width:1px;stroke-linecap:butt;stroke-linejoin:miter;stroke-opacity:1" d="M 641.664,78.5598 655.865,73.5891 z" id="boundary" inkscape:connector-curvature="0" />
	<path style="fill:none;stroke:red;stroke-width:1px;stroke-linecap:butt;stroke-linejoin:miter;stroke-opacity:1" d="M 645.924,131.817 653.025,133.237 z" id="boundary" inkscape:connector-curvature="0" />
	<path style="fill:none;stroke:red;stroke-width:1px;stroke-linecap:butt;stroke-linejoin:miter;stroke-opacity:1" d="M 653.025,133.237 667.227,135.367 z" id="boundary" inkscape:connector-curvature="0" />
	<path style="fill:none;stroke:red;stroke-width:1px;stroke-linecap:butt;stroke-linejoin:miter;stroke-opacity:1" d="M 655.865,73.5891 662.966,71.4588 z" id="boundary" inkscape:connector-curvature="0" />
	<path style="fill:none;stroke:red;stroke-width:1px;stroke-linecap:butt;stroke-linejoin:miter;stroke-opacity:1" d="M 662.966,71.4588 670.067,67.9084 z" id="boundary" inkscape:connector-curvature="0" />
	<path style="fill:none;stroke:red;stroke-width:1px;stroke-linecap:butt;stroke-linejoin:miter;stroke-opacity:1" d="M 667.227,135.367 674.328,136.787 z" id="boundary" inkscape:connector-curvature="0" />
	<path style="fill:none;stroke:red;stroke-width:1px;stroke-linecap:butt;stroke-linejoin:miter;stroke-opacity:1" d="M 670.067,67.9084 677.168,65.068 z" id="boundary" inkscape:connector-curvature="0" />
	<path style="fill:none;stroke:red;stroke-width:1px;stroke-linecap:butt;stroke-linejoin:miter;stroke-opacity:1" d="M 674.328,136.787 681.429,138.208 z" id="boundary" inkscape:connector-curvature="0" />
	<path style="fill:none;stroke:red;stroke-width:1px;stroke-linecap:butt;stroke-linejoin:miter;stroke-opacity:1" d="M 677.168,65.068 691.37,58.6772 z" id="boundary" inkscape:connector-curvature="0" />
	<path style="fill:none;stroke:red;stroke-width:1px;stroke-linecap:butt;stroke-linejoin:miter;stroke-opacity:1" d="M 681.429,138.208 695.631,142.468 z" id="boundary" inkscape:connector-curvature="0" />
	<path style="fill:none;stroke:red;stroke-width:1px;stroke-linecap:butt;stroke-linejoin:miter;stroke-opacity:1" d="M 691.37,58.6772 698.471,55.8368 z" id="boundary" inkscape:connector-curvature="0" />
	<path style="fill:none;stroke:red;stroke-width:1px;stroke-linecap:butt;stroke-linejoin:miter;stroke-opacity:1" d="M 695.631,142.468 702.732,145.309 z" id="boundary" inkscape:connector-curvature="0" />
	<path style="fill:none;stroke:red;stroke-width:1px;stroke-linecap:butt;stroke-linejoin:miter;stroke-opacity:1" d="M 698.471,55.8368 705.572,52.9964 z" id="boundary" inkscape:connector-curvature="0" />
	<path style="fill:none;stroke:red;stroke-width:1px;stroke-linecap:butt;stroke-linejoin:miter;stroke-opacity:1" d="M 702.732,145.309 709.832,146.729 z" id="boundary" inkscape:connector-curvature="0" />
	<path style="fill:none;stroke:red;stroke-width:1px;stroke-linecap:butt;stroke-linejoin:miter;stroke-opacity:1" d="M 705.572,52.9964 719.064,46.6056 z" id="boundary" inkscape:connector-curvature="0" />
	<path style="fill:none;stroke:red;stroke-width:1px;stroke-linecap:butt;stroke-linejoin:miter;stroke-opacity:1" d="M 709.832,146.729 716.933,149.569 z" id="boundary" inkscape:connector-curvature="0" />
	<path style="fill:none;stroke:red;stroke-width:1px;stroke-linecap:butt;stroke-linejoin:miter;stroke-opacity:1" d="M 716.933,149.569 731.135,154.54 z" id="boundary" inkscape:connector-curvature="0" />
	<path style="fill:none;stroke:red;stroke-width:1px;stroke-linecap:butt;stroke-linejoin:miter;stroke-opacity:1" d="M 719.064,46.6056 732.555,39.5047 z" id="boundary" inkscape:connector-curvature="0" />
	<path style="fill:none;stroke:red;stroke-width:1px;stroke-linecap:butt;stroke-linejoin:miter;stroke-opacity:1" d="M 731.135,154.54 738.236,156.67 z" id="boundary" inkscape:connector-curvature="0" />
	<path style="fill:none;stroke:red;stroke-width:1px;stroke-linecap:butt;stroke-linejoin:miter;stroke-opacity:1" d="M 732.555,39.5047 746.757,33.1138 z" id="boundary" inkscape:connector-curvature="0" />
	<path style="fill:none;stroke:red;stroke-width:1px;stroke-linecap:butt;stroke-linejoin:miter;stroke-opacity:1" d="M 738.236,156.67 745.337,158.8 z" id="boundary" inkscape:connector-curvature="0" />
	<path style="fill:none;stroke:red;stroke-width:1px;stroke-linecap:butt;stroke-linejoin:miter;stroke-opacity:1" d="M 745.337,158.8 752.438,160.931 z" id="boundary" inkscape:connector-curvature="0" />
	<path style="fill:none;stroke:red;stroke-width:1px;stroke-linecap:butt;stroke-linejoin:miter;stroke-opacity:1" d="M 746.757,33.1138 753.858,30.2734 z" id="boundary" inkscape:connector-curvature="0" />
	<path style="fill:none;stroke:red;stroke-width:1px;stroke-linecap:butt;stroke-linejoin:miter;stroke-opacity:1" d="M 752.438,160.931 766.64,164.481 z" id="boundary" inkscape:connector-curvature="0" />
	<path style="fill:none;stroke:red;stroke-width:1px;stroke-linecap:butt;stroke-linejoin:miter;stroke-opacity:1" d="M 753.858,30.2734 760.959,27.4331 z" id="boundary" inkscape:connector-curvature="0" />
	<path style="fill:none;stroke:red;stroke-width:1px;stroke-linecap:butt;stroke-linejoin:miter;stroke-opacity:1" d="M 760.959,27.4331 768.06,24.5927 z" id="boundary" inkscape:connector-curvature="0" />
	<path style="fill:none;stroke:red;stroke-width:1px;stroke-linecap:butt;stroke-linejoin:miter;stroke-opacity:1" d="M 766.64,164.481 773.741,166.611 z" id="boundary" inkscape:connector-curvature="0" />
	<path style="fill:none;stroke:red;stroke-width:1px;stroke-linecap:butt;stroke-linejoin:miter;stroke-opacity:1" d="M 768.06,24.5927 782.262,19.622 z" id="boundary" inkscape:connector-curvature="0" />
	<path style="fill:none;stroke:red;stroke-width:1px;stroke-linecap:butt;stroke-linejoin:miter;stroke-opacity:1" d="M 773.741,166.611 780.842,168.031 z" id="boundary" inkscape:connector-curvature="0" />
	<path style="fill:none;stroke:red;stroke-width:1px;stroke-linecap:butt;stroke-linejoin:miter;stroke-opacity:1" d="M 780.842,168.031 787.943,170.162 z" id="boundary" inkscape:connector-curvature="0" />
	<path style="fill:none;stroke:red;stroke-width:1px;stroke-linecap:butt;stroke-linejoin:miter;stroke-opacity:1" d="M 782.262,19.622 789.363,17.4918 z" id="boundary" inkscape:connector-curvature="0" />
	<path style="fill:none;stroke:red;stroke-width:1px;stroke-linecap:butt;stroke-linejoin:miter;stroke-opacity:1" d="M 787.943,170.162 802.145,172.292 z" id="boundary" inkscape:connector-curvature="0" />
	<path style="fill:none;stroke:red;stroke-width:1px;stroke-linecap:butt;stroke-linejoin:miter;stroke-opacity:1" d="M 789.363,17.4918 796.464,15.3615 z" id="boundary" inkscape:connector-curvature="0" />
	<path style="fill:none;stroke:red;stroke-width:1px;stroke-linecap:butt;stroke-linejoin:miter;stroke-opacity:1" d="M 796.464,15.3615 810.666,11.811 z" id="boundary" inkscape:connector-curvature="0" />
	<path style="fill:none;stroke:red;stroke-width:1px;stroke-linecap:butt;stroke-linejoin:miter;stroke-opacity:1" d="M 802.145,172.292 809.246,173.712 z" id="boundary" inkscape:connector-curvature="0" />
	<path style="fill:none;stroke:red;stroke-width:1px;stroke-linecap:butt;stroke-linejoin:miter;stroke-opacity:1" d="M 809.246,173.712 816.346,175.132 z" id="boundary" inkscape:connector-curvature="0" />
	<path style="fill:none;stroke:red;stroke-width:1px;stroke-linecap:butt;stroke-linejoin:miter;stroke-opacity:1" d="M 810.666,11.811 817.767,9.68074 z" id="boundary" inkscape:connector-curvature="0" />
	<path style="fill:none;stroke:red;stroke-width:1px;stroke-linecap:butt;stroke-linejoin:miter;stroke-opacity:1" d="M 816.346,175.132 830.548,176.553 z" id="boundary" inkscape:connector-curvature="0" />
	<path style="fill:none;stroke:red;stroke-width:1px;stroke-linecap:butt;stroke-linejoin:miter;stroke-opacity:1" d="M 817.767,9.68074 824.868,8.26056 z" id="boundary" inkscape:connector-curvature="0" />
	<path style="fill:none;stroke:red;stroke-width:1px;stroke-linecap:butt;stroke-linejoin:miter;stroke-opacity:1" d="M 824.868,8.26056 831.969,6.84037 z" id="boundary" inkscape:connector-curvature="0" />
	<path style="fill:none;stroke:red;stroke-width:1px;stroke-linecap:butt;stroke-linejoin:miter;stroke-opacity:1" d="M 830.548,176.553 837.649,176.553 z" id="boundary" inkscape:connector-curvature="0" />
	<path style="fill:none;stroke:red;stroke-width:1px;stroke-linecap:butt;stroke-linejoin:miter;stroke-opacity:1" d="M 831.969,6.84037 846.17,5.42019 z" id="boundary" inkscape:connector-curvature="0" />
	<path style="fill:none;stroke:red;stroke-width:1px;stroke-linecap:butt;stroke-linejoin:miter;stroke-opacity:1" d="M 837.649,176.553 844.75,177.263 z" id="boundary" inkscape:connector-curvature="0" />
	<path style="fill:none;stroke:red;stroke-width:1px;stroke-linecap:butt;stroke-linejoin:miter;stroke-opacity:1" d="M 844.75,177.263 851.851,177.973 z" id="boundary" inkscape:connector-curvature="0" />
	<path style="fill:none;stroke:red;stroke-width:1px;stroke-linecap:butt;stroke-linejoin:miter;stroke-opacity:1" d="M 846.17,5.42019 853.271,4.71009 z" id="boundary" inkscape:connector-curvature="0" />
	<path style="fill:none;stroke:red;stroke-width:1px;stroke-linecap:butt;stroke-linejoin:miter;stroke-opacity:1" d="M 851.851,177.973 866.053,177.263 z" id="boundary" inkscape:connector-curvature="0" />
	<path style="fill:none;stroke:red;stroke-width:1px;stroke-linecap:butt;stroke-linejoin:miter;stroke-opacity:1" d="M 853.271,4.71009 860.372,4 z" id="boundary" inkscape:connector-curvature="0" />
	<path style="fill:none;stroke:red;stroke-width:1px;stroke-linecap:butt;stroke-linejoin:miter;stroke-opacity:1" d="M 860.372,4 867.473,4 z" id="boundary" inkscape:connector-curvature="0" />
	<path style="fill:none;stroke:red;stroke-width:1px;stroke-linecap:butt;stroke-linejoin:miter;stroke-opacity:1" d="M 866.053,177.263 873.154,176.553 z" id="boundary" inkscape:connector-curvature="0" />
	<path style="fill:none;stroke:red;stroke-width:1px;stroke-linecap:butt;stroke-linejoin:miter;stroke-opacity:1" d="M 867.473,4 881.675,4.71009 z" id="boundary" inkscape:connector-curvature="0" />
	<path style="fill:none;stroke:red;stroke-width:1px;stroke-linecap:butt;stroke-linejoin:miter;stroke-opacity:1" d="M 873.154,176.553 880.255,175.843 z" id="boundary" inkscape:connector-curvature="0" />
	<path style="fill:none;stroke:red;stroke-width:1px;stroke-linecap:butt;stroke-linejoin:miter;stroke-opacity:1" d="M 880.255,175.843 887.356,175.132 z" id="boundary" inkscape:connector-curvature="0" />
	<path style="fill:none;stroke:red;stroke-width:1px;stroke-linecap:butt;stroke-linejoin:miter;stroke-opacity:1" d="M 881.675,4.71009 888.776,5.42019 z" id="boundary" inkscape:connector-curvature="0" />
	<path style="fill:none;stroke:red;stroke-width:1px;stroke-linecap:butt;stroke-linejoin:miter;stroke-opacity:1" d="M 887.356,175.132 901.558,172.292 z" id="boundary" inkscape:connector-curvature="0" />
	<path style="fill:none;stroke:red;stroke-width:1px;stroke-linecap:butt;stroke-linejoin:miter;stroke-opacity:1" d="M 888.776,5.42019 895.877,6.13028 z" id="boundary" inkscape:connector-curvature="0" />
	<path style="fill:none;stroke:red;stroke-width:1px;stroke-linecap:butt;stroke-linejoin:miter;stroke-opacity:1" d="M 895.877,6.13028 902.978,7.55047 z" id="boundary" inkscape:connector-curvature="0" />
	<path style="fill:none;stroke:red;stroke-width:1px;stroke-linecap:butt;stroke-linejoin:miter;stroke-opacity:1" d="M 901.558,172.292 908.659,170.162 z" id="boundary" inkscape:connector-curvature="0" />
	<path style="fill:none;stroke:red;stroke-width:1px;stroke-linecap:butt;stroke-linejoin:miter;stroke-opacity:1" d="M 902.978,7.55047 917.18,10.3908 z" id="boundary" inkscape:connector-curvature="0" />
	<path style="fill:none;stroke:red;stroke-width:1px;stroke-linecap:butt;stroke-linejoin:miter;stroke-opacity:1" d="M 908.659,170.162 915.759,168.031 z" id="boundary" inkscape:connector-curvature="0" />
	<path style="fill:none;stroke:red;stroke-width:1px;stroke-linecap:butt;stroke-linejoin:miter;stroke-opacity:1" d="M 915.759,168.031 922.86,165.191 z" id="boundary" inkscape:connector-curvature="0" />
	<path style="fill:none;stroke:red;stroke-width:1px;stroke-linecap:butt;stroke-linejoin:miter;stroke-opacity:1" d="M 917.18,10.3908 924.281,12.5211 z" id="boundary" inkscape:connector-curvature="0" />
	<path style="fill:none;stroke:red;stroke-width:1px;stroke-linecap:butt;stroke-linejoin:miter;stroke-opacity:1" d="M 922.86,165.191 937.062,160.22 z" id="boundary" inkscape:connector-curvature="0" />
	<path style="fill:none;stroke:red;stroke-width:1px;stroke-linecap:butt;stroke-linejoin:miter;stroke-opacity:1" d="M 924.281,12.5211 931.382,15.3615 z" id="boundary" inkscape:connector-curvature="0" />
	<path style="fill:none;stroke:red;stroke-width:1px;stroke-linecap:butt;stroke-linejoin:miter;stroke-opacity:1" d="M 931.382,15.3615 944.873,21.7523 z" id="boundary" inkscape:connector-curvature="0" />
	<path style="fill:none;stroke:red;stroke-width:1px;stroke-linecap:butt;stroke-linejoin:miter;stroke-opacity:1" d="M 937.062,160.22 944.163,157.38 z" id="boundary" inkscape:connector-curvature="0" />
	<path style="fill:none;stroke:red;stroke-width:1px;stroke-linecap:butt;stroke-linejoin:miter;stroke-opacity:1" d="M 944.163,157.38 956.945,150.989 z" id="boundary" inkscape:connector-curvature="0" />
	<path style="fill:none;stroke:red;stroke-width:1px;stroke-linecap:butt;stroke-linejoin:miter;stroke-opacity:1" d="M 944.873,21.7523 951.264,25.3028 z" id="boundary" inkscape:connector-curvature="0" />
	<path style="fill:none;stroke:red;stroke-width:1px;stroke-linecap:butt;stroke-linejoin:miter;stroke-opacity:1" d="M 951.264,25.3028 957.655,28.8533 z" id="boundary" inkscape:connector-curvature="0" />
	<path style="fill:none;stroke:red;stroke-width:1px;stroke-linecap:butt;stroke-linejoin:miter;stroke-opacity:1" d="M 956.945,150.989 964.046,148.859 z" id="boundary" inkscape:connector-curvature="0" />
	<path style="fill:none;stroke:red;stroke-width:1px;stroke-linecap:butt;stroke-linejoin:miter;stroke-opacity:1" d="M 957.655,28.8533 963.336,33.1138 z" id="boundary" inkscape:connector-curvature="0" />
	<path style="fill:none;stroke:red;stroke-width:1px;stroke-linecap:butt;stroke-linejoin:miter;stroke-opacity:1" d="M 963.336,33.1138 969.016,37.3744 z" id="boundary" inkscape:connector-curvature="0" />
	<path style="fill:none;stroke:red;stroke-width:1px;stroke-linecap:butt;stroke-linejoin:miter;stroke-opacity:1" d="M 964.046,148.859 967.596,141.048 z" id="boundary" inkscape:connector-curvature="0" />
	<path style="fill:none;stroke:red;stroke-width:1px;stroke-linecap:butt;stroke-linejoin:miter;stroke-opacity:1" d="M 967.596,141.048 973.277,136.787 z" id="boundary" inkscape:connector-curvature="0" />
	<path style="fill:none;stroke:red;stroke-width:1px;stroke-linecap:butt;stroke-linejoin:miter;stroke-opacity:1" d="M 969.016,37.3744 974.697,42.345 z" id="boundary" inkscape:connector-curvature="0" />
	<path style="fill:none;stroke:red;stroke-width:1px;stroke-linecap:butt;stroke-linejoin:miter;stroke-opacity:1" d="M 973.277,136.787 978.958,131.817 z" id="boundary" inkscape:connector-curvature="0" />
	<path style="fill:none;stroke:red;stroke-width:1px;stroke-linecap:butt;stroke-linejoin:miter;stroke-opacity:1" d="M 974.697,42.345 978.958,48.0258 z" id="boundary" inkscape:connector-curvature="0" />
	<path style="fill:none;stroke:red;stroke-width:1px;stroke-linecap:butt;stroke-linejoin:miter;stroke-opacity:1" d="M 978.958,48.0258 983.218,53.7065 z" id="boundary" inkscape:connector-curvature="0" />
	<path style="fill:none;stroke:red;stroke-width:1px;stroke-linecap:butt;stroke-linejoin:miter;stroke-opacity:1" d="M 978.958,131.817 988.189,118.325 z" id="boundary" inkscape:connector-curvature="0" />
	<path style="fill:none;stroke:red;stroke-width:1px;stroke-linecap:butt;stroke-linejoin:miter;stroke-opacity:1" d="M 983.218,53.7065 989.609,67.1983 z" id="boundary" inkscape:connector-curvature="0" />
	<path style="fill:none;stroke:red;stroke-width:1px;stroke-linecap:butt;stroke-linejoin:miter;stroke-opacity:1" d="M 988.189,118.325 991.739,109.804 z" id="boundary" inkscape:connector-curvature="0" />
	<path style="fill:none;stroke:red;stroke-width:1px;stroke-linecap:butt;stroke-linejoin:miter;stroke-opacity:1" d="M 989.609,67.1983 994.58,80.6901 z" id="boundary" inkscape:connector-curvature="0" />
	<path style="fill:none;stroke:red;stroke-width:1px;stroke-linecap:butt;stroke-linejoin:miter;stroke-opacity:1" d="M 991.739,109.804 993.87,101.993 z" id="boundary" inkscape:connector-curvature="0" />
	<path style="fill:none;stroke:red;stroke-width:1px;stroke-linecap:butt;stroke-linejoin:miter;stroke-opacity:1" d="M 993.87,101.993 996,87.791 z" id="boundary" inkscape:connector-curvature="0" />
	<path style="fill:none;stroke:red;stroke-width:1px;stroke-linecap:butt;stroke-linejoin:miter;stroke-opacity:1" d="M 994.58,80.6901 996,87.791 z" id="boundary" inkscape:connector-curvature="0" />
	<circle cx="4" cy="144.598" r="4" fill="#0" id="circle0"/>
	<circle cx="5.42019" cy="136.077" r="4" fill="#0" id="circle1"/>
	<circle cx="5.42019" cy="151.699" r="4" fill="#0" id="circle2"/>
	<circle cx="8.26056" cy="158.8" r="4" fill="#0" id="circle3"/>
	<circle cx="9.68074" cy="130.397" r="4" fill="#0" id="circle4"/>
	<circle cx="13.9413" cy="163.061" r="4" fill="#0" id="circle5"/>
	<circle cx="16.7817" cy="128.976" r="4" fill="#0" id="circle6"/>
	<circle cx="21.0422" cy="165.191" r="4" fill="#0" id="circle7"/>
	<circle cx="23.8826" cy="127.556" r="4" fill="#0" id="circle8"/>
	<circle cx="28.1432" cy="165.901" r="4" fill="#0" id="circle9"/>
	<circle cx="30.9835" cy="126.846" r="4" fill="#0" id="circle10"/>
	<circle cx="35.2441" cy="165.901" r="4" fill="#0" id="circle11"/>
	<circle cx="38.0845" cy="125.426" r="4" fill="#0" id="circle12"/>
	<circle cx="42.345" cy="165.901" r="4" fill="#0" id="circle13"/>
	<circle cx="45.1854" cy="124.716" r="4" fill="#0" id="circle14"/>
	<circle cx="49.446" cy="165.901" r="4" fill="#0" id="circle15"/>
	<circle cx="52.2863" cy="124.716" r="4" fill="#0" id="circle16"/>
	<circle cx="56.5469" cy="165.191" r="4" fill="#0" id="circle17"/>
	<circle cx="59.3873" cy="124.006" r="4" fill="#0" id="circle18"/>
	<circle cx="63.6478" cy="164.481" r="4" fill="#0" id="circle19"/>
	<circle cx="66.4882" cy="123.296" r="4" fill="#0" id="circle20"/>
	<circle cx="70.7487" cy="163.771" r="4" fill="#0" id="circle21"/>
	<circle cx="73.5891" cy="121.875" r="4" fill="#0" id="circle22"/>
	<circle cx="77.8497" cy="163.061" r="4" fill="#0" id="circle23"/>
	<circle cx="80.6901" cy="121.875" r="4" fill="#0" id="circle24"/>
	<circle cx="84.9506" cy="163.061" r="4" fill="#0" id="circle25"/>
	<circle cx="87.791" cy="121.875" r="4" fill="#0" id="circle26"/>
	<circle cx="92.0515" cy="162.351" r="4" fill="#0" id="circle27"/>
	<circle cx="94.8919" cy="121.165" r="4" fill="#0" id="circle28"/>
	<circle cx="99.1525" cy="161.641" r="4" fill="#0" id="circle29"/>
	<circle cx="101.993" cy="120.455" r="4" fill="#0" id="circle30"/>
	<circle cx="106.253" cy="161.641" r="4" fill="#0" id="circle31"/>
	<circle cx="109.094" cy="120.455" r="4" fill="#0" id="circle32"/>
	<circle cx="113.354" cy="160.931" r="4" fill="#0" id="circle33"/>
	<circle cx="116.195" cy="119.745" r="4" fill="#0" id="circle34"/>
	<circle cx="120.455" cy="160.22" r="4" fill="#0" id="circle35"/>
	<circle cx="123.296" cy="119.035" r="4" fill="#0" id="circle36"/>
	<circle cx="127.556" cy="159.51" r="4" fill="#0" id="circle37"/>
	<circle cx="130.397" cy="118.325" r="4" fill="#0" id="circle38"/>
	<circle cx="134.657" cy="158.8" r="4" fill="#0" id="circle39"/>
	<circle cx="137.497" cy="117.615" r="4" fill="#0" id="circle40"/>
	<circle cx="141.758" cy="158.09" r="4" fill="#0" id="circle41"/>
	<circle cx="144.598" cy="117.615" r="4" fill="#0" id="circle42"/>
	<circle cx="148.859" cy="158.09" r="4" fill="#0" id="circle43"/>
	<circle cx="151.699" cy="117.615" r="4" fill="#0" id="circle44"/>
	<circle cx="155.96" cy="157.38" r="4" fill="#0" id="circle45"/>
	<circle cx="158.8" cy="116.905" r="4" fill="#0" id="circle46"/>
	<circle cx="163.061" cy="156.67" r="4" fill="#0" id="circle47"/>
	<circle cx="165.901" cy="116.195" r="4" fill="#0" id="circle48"/>
	<circle cx="170.162" cy="155.96" r="4" fill="#0" id="circle49"/>
	<circle cx="173.002" cy="116.195" r="4" fill="#0" id="circle50"/>
	<circle cx="177.263" cy="155.96" r="4" fill="#0" id="circle51"/>
	<circle cx="180.103" cy="115.485" r="4" fill="#0" id="circle52"/>
	<circle cx="184.364" cy="155.25" r="4" fill="#0" id="circle53"/>
	<circle cx="187.204" cy="115.485" r="4" fill="#0" id="circle54"/>
	<circle cx="191.465" cy="155.25" r="4" fill="#0" id="circle55"/>
	<circle cx="194.305" cy="114.775" r="4" fill="#0" id="circle56"/>
	<circle cx="198.565" cy="154.54" r="4" fill="#0" id="circle57"/>
	<circle cx="201.406" cy="113.354" r="4" fill="#0" id="circle58"/>
	<circle cx="205.666" cy="153.83" r="4" fill="#0" id="circle59"/>
	<circle cx="208.507" cy="113.354" r="4" fill="#0" id="circle60"/>
	<circle cx="212.767" cy="153.83" r="4" fill="#0" id="circle61"/>
	<circle cx="215.608" cy="112.644" r="4" fill="#0" id="circle62"/>
	<circle cx="219.868" cy="153.12" r="4" fill="#0" id="circle63"/>
	<circle cx="222.709" cy="112.644" r="4" fill="#0" id="circle64"/>
	<circle cx="226.969" cy="152.409" r="4" fill="#0" id="circle65"/>
	<circle cx="229.81" cy="111.934" r="4" fill="#0" id="circle66"/>
	<circle cx="234.07" cy="151.699" r="4" fill="#0" id="circle67"/>
	<circle cx="236.911" cy="111.934" r="4" fill="#0" id="circle68"/>
	<circle cx="241.171" cy="150.989" r="4" fill="#0" id="circle69"/>
	<circle cx="244.011" cy="111.224" r="4" fill="#0" id="circle70"/>
	<circle cx="248.272" cy="150.279" r="4" fill="#0" id="circle71"/>
	<circle cx="251.112" cy="110.514" r="4" fill="#0" id="circle72"/>
	<circle cx="255.373" cy="150.279" r="4" fill="#0" id="circle73"/>
	<circle cx="258.213" cy="110.514" r="4" fill="#0" id="circle74"/>
	<circle cx="262.474" cy="149.569" r="4" fill="#0" id="circle75"/>
	<circle cx="265.314" cy="109.804" r="4" fill="#0" id="circle76"/>
	<circle cx="269.575" cy="149.569" r="4" fill="#0" id="circle77"/>
	<circle cx="272.415" cy="109.094" r="4" fill="#0" id="circle78"/>
	<circle cx="276.676" cy="148.859" r="4" fill="#0" id="circle79"/>
	<circle cx="279.516" cy="109.094" r="4" fill="#0" id="circle80"/>
	<circle cx="283.777" cy="148.149" r="4" fill="#0" id="circle81"/>
	<circle cx="286.617" cy="108.384" r="4" fill="#0" id="circle82"/>
	<circle cx="290.878" cy="147.439" r="4" fill="#0" id="circle83"/>
	<circle cx="293.718" cy="108.384" r="4" fill="#0" id="circle84"/>
	<circle cx="297.979" cy="146.729" r="4" fill="#0" id="circle85"/>
	<circle cx="300.819" cy="107.674" r="4" fill="#0" id="circle86"/>
	<circle cx="305.079" cy="146.729" r="4" fill="#0" id="circle87"/>
	<circle cx="307.92" cy="107.674" r="4" fill="#0" id="circle88"/>
	<circle cx="312.18" cy="146.729" r="4" fill="#0" id="circle89"/>
	<circle cx="315.021" cy="106.963" r="4" fill="#0" id="circle90"/>
	<circle cx="319.281" cy="146.019" r="4" fill="#0" id="circle91"/>
	<circle cx="322.122" cy="106.253" r="4" fill="#0" id="circle92"/>
	<circle cx="326.382" cy="145.309" r="4" fill="#0" id="circle93"/>
	<circle cx="329.223" cy="106.253" r="4" fill="#0" id="circle94"/>
	<circle cx="333.483" cy="144.598" r="4" fill="#0" id="circle95"/>
	<circle cx="336.324" cy="105.543" r="4" fill="#0" id="circle96"/>
	<circle cx="340.584" cy="143.888" r="4" fill="#0" id="circle97"/>
	<circle cx="343.424" cy="105.543" r="4" fill="#0" id="circle98"/>
	<circle cx="347.685" cy="142.468" r="4" fill="#0" id="circle99"/>
	<circle cx="350.525" cy="104.833" r="4" fill="#0" id="circle100"/>
	<circle cx="354.786" cy="142.468" r="4" fill="#0" id="circle101"/>
	<circle cx="357.626" cy="104.833" r="4" fill="#0" id="circle102"/>
	<circle cx="361.887" cy="141.758" r="4" fill="#0" id="circle103"/>
	<circle cx="364.727" cy="104.123" r="4" fill="#0" id="circle104"/>
	<circle cx="368.988" cy="141.048" r="4" fill="#0" id="circle105"/>
	<circle cx="371.828" cy="103.413" r="4" fill="#0" id="circle106"/>
	<circle cx="376.089" cy="141.048" r="4" fill="#0" id="circle107"/>
	<circle cx="378.929" cy="103.413" r="4" fill="#0" id="circle108"/>
	<circle cx="383.19" cy="141.758" r="4" fill="#0" id="circle109"/>
	<circle cx="386.03" cy="102.703" r="4" fill="#0" id="circle110"/>
	<circle cx="390.291" cy="141.048" r="4" fill="#0" id="circle111"/>
	<circle cx="393.131" cy="101.993" r="4" fill="#0" id="circle112"/>
	<circle cx="397.392" cy="139.628" r="4" fill="#0" id="circle113"/>
	<circle cx="400.232" cy="101.283" r="4" fill="#0" id="circle114"/>
	<circle cx="404.492" cy="139.628" r="4" fill="#0" id="circle115"/>
	<circle cx="407.333" cy="100.573" r="4" fill="#0" id="circle116"/>
	<circle cx="411.593" cy="139.628" r="4" fill="#0" id="circle117"/>
	<circle cx="414.434" cy="99.8626" r="4" fill="#0" id="circle118"/>
	<circle cx="418.694" cy="139.628" r="4" fill="#0" id="circle119"/>
	<circle cx="421.535" cy="99.8626" r="4" fill="#0" id="circle120"/>
	<circle cx="425.795" cy="138.208" r="4" fill="#0" id="circle121"/>
	<circle cx="428.636" cy="99.1525" r="4" fill="#0" id="circle122"/>
	<circle cx="432.896" cy="138.208" r="4" fill="#0" id="circle123"/>
	<circle cx="435.737" cy="97.7323" r="4" fill="#0" id="circle124"/>
	<circle cx="439.997" cy="137.497" r="4" fill="#0" id="circle125"/>
	<circle cx="442.838" cy="97.7323" r="4" fill="#0" id="circle126"/>
	<circle cx="447.098" cy="137.497" r="4" fill="#0" id="circle127"/>
	<circle cx="449.938" cy="97.7323" r="4" fill="#0" id="circle128"/>
	<circle cx="454.199" cy="137.497" r="4" fill="#0" id="circle129"/>
	<circle cx="457.039" cy="97.0222" r="4" fill="#0" id="circle130"/>
	<circle cx="461.3" cy="136.787" r="4" fill="#0" id="circle131"/>
	<circle cx="464.14" cy="96.3121" r="4" fill="#0" id="circle132"/>
	<circle cx="468.401" cy="136.787" r="4" fill="#0" id="circle133"/>
	<circle cx="471.241" cy="96.3121" r="4" fill="#0" id="circle134"/>
	<circle cx="475.502" cy="136.787" r="4" fill="#0" id="circle135"/>
	<circle cx="478.342" cy="95.602" r="4" fill="#0" id="circle136"/>
	<circle cx="482.603" cy="135.367" r="4" fill="#0" id="circle137"/>
	<circle cx="485.443" cy="95.602" r="4" fill="#0" id="circle138"/>
	<circle cx="489.704" cy="134.657" r="4" fill="#0" id="circle139"/>
	<circle cx="492.544" cy="94.8919" r="4" fill="#0" id="circle140"/>
	<circle cx="496.805" cy="133.947" r="4" fill="#0" id="circle141"/>
	<circle cx="499.645" cy="94.8919" r="4" fill="#0" id="circle142"/>
	<circle cx="503.906" cy="133.237" r="4" fill="#0" id="circle143"/>
	<circle cx="506.746" cy="94.8919" r="4" fill="#0" id="circle144"/>
	<circle cx="511.006" cy="132.527" r="4" fill="#0" id="circle145"/>
	<circle cx="513.847" cy="94.1818" r="4" fill="#0" id="circle146"/>
	<circle cx="518.107" cy="132.527" r="4" fill="#0" id="circle147"/>
	<circle cx="520.948" cy="93.4717" r="4" fill="#0" id="circle148"/>
	<circle cx="525.208" cy="131.817" r="4" fill="#0" id="circle149"/>
	<circle cx="528.049" cy="92.7616" r="4" fill="#0" id="circle150"/>
	<circle cx="532.309" cy="131.817" r="4" fill="#0" id="circle151"/>
	<circle cx="535.15" cy="92.0515" r="4" fill="#0" id="circle152"/>
	<circle cx="539.41" cy="131.107" r="4" fill="#0" id="circle153"/>
	<circle cx="542.251" cy="92.0515" r="4" fill="#0" id="circle154"/>
	<circle cx="546.511" cy="131.107" r="4" fill="#0" id="circle155"/>
	<circle cx="549.351" cy="91.3414" r="4" fill="#0" id="circle156"/>
	<circle cx="553.612" cy="131.107" r="4" fill="#0" id="circle157"/>
	<circle cx="556.452" cy="90.6314" r="4" fill="#0" id="circle158"/>
	<circle cx="560.713" cy="131.107" r="4" fill="#0" id="circle159"/>
	<circle cx="563.553" cy="89.9213" r="4" fill="#0" id="circle160"/>
	<circle cx="567.814" cy="129.686" r="4" fill="#0" id="circle161"/>
	<circle cx="570.654" cy="89.2112" r="4" fill="#0" id="circle162"/>
	<circle cx="574.915" cy="129.686" r="4" fill="#0" id="circle163"/>
	<circle cx="577.755" cy="88.5011" r="4" fill="#0" id="circle164"/>
	<circle cx="582.016" cy="128.976" r="4" fill="#0" id="circle165"/>
	<circle cx="584.856" cy="87.791" r="4" fill="#0" id="circle166"/>
	<circle cx="589.117" cy="129.686" r="4" fill="#0" id="circle167"/>
	<circle cx="591.957" cy="87.0809" r="4" fill="#0" id="circle168"/>
	<circle cx="596.218" cy="128.976" r="4" fill="#0" id="circle169"/>
	<circle cx="599.058" cy="86.3708" r="4" fill="#0" id="circle170"/>
	<circle cx="603.319" cy="128.976" r="4" fill="#0" id="circle171"/>
	<circle cx="606.159" cy="85.6607" r="4" fill="#0" id="circle172"/>
	<circle cx="610.419" cy="128.976" r="4" fill="#0" id="circle173"/>
	<circle cx="613.26" cy="84.9506" r="4" fill="#0" id="circle174"/>
	<circle cx="617.52" cy="128.976" r="4" fill="#0" id="circle175"/>
	<circle cx="620.361" cy="83.5304" r="4" fill="#0" id="circle176"/>
	<circle cx="624.621" cy="128.976" r="4" fill="#0" id="circle177"/>
	<circle cx="627.462" cy="82.1102" r="4" fill="#0" id="circle178"/>
	<circle cx="631.722" cy="129.686" r="4" fill="#0" id="circle179"/>
	<circle cx="634.563" cy="79.98" r="4" fill="#0" id="circle180"/>
	<circle cx="638.823" cy="131.107" r="4" fill="#0" id="circle181"/>
	<circle cx="641.664" cy="78.5598" r="4" fill="#0" id="circle182"/>
	<circle cx="645.924" cy="131.817" r="4" fill="#0" id="circle183"/>
	<circle cx="648.764" cy="75.7194" r="4" fill="#0" id="circle184"/>
	<circle cx="653.025" cy="133.237" r="4" fill="#0" id="circle185"/>
	<circle cx="655.865" cy="73.5891" r="4" fill="#0" id="circle186"/>
	<circle cx="660.126" cy="134.657" r="4" fill="#0" id="circle187"/>
	<circle cx="662.966" cy="71.4588" r="4" fill="#0" id="circle188"/>
	<circle cx="667.227" cy="135.367" r="4" fill="#0" id="circle189"/>
	<circle cx="670.067" cy="67.9084" r="4" fill="#0" id="circle190"/>
	<circle cx="674.328" cy="136.787" r="4" fill="#0" id="circle191"/>
	<circle cx="677.168" cy="65.068" r="4" fill="#0" id="circle192"/>
	<circle cx="681.429" cy="138.208" r="4" fill="#0" id="circle193"/>
	<circle cx="684.269" cy="62.2276" r="4" fill="#0" id="circle194"/>
	<circle cx="688.53" cy="140.338" r="4" fill="#0" id="circle195"/>
	<circle cx="691.37" cy="58.6772" r="4" fill="#0" id="circle196"/>
	<circle cx="695.631" cy="142.468" r="4" fill="#0" id="circle197"/>
	<circle cx="698.471" cy="55.8368" r="4" fill="#0" id="circle198"/>
	<circle cx="702.732" cy="145.309" r="4" fill="#0" id="circle199"/>
	<circle cx="705.572" cy="52.9964" r="4" fill="#0" id="circle200"/>
	<circle cx="709.832" cy="146.729" r="4" fill="#0" id="circle201"/>
	<circle cx="711.963" cy="49.446" r="4" fill="#0" id="circle202"/>
	<circle cx="716.933" cy="149.569" r="4" fill="#0" id="circle203"/>
	<circle cx="719.064" cy="46.6056" r="4" fill="#0" id="circle204"/>
	<circle cx="724.034" cy="152.409" r="4" fill="#0" id="circle205"/>
	<circle cx="725.455" cy="43.0551" r="4" fill="#0" id="circle206"/>
	<circle cx="731.135" cy="154.54" r="4" fill="#0" id="circle207"/>
	<circle cx="732.555" cy="39.5047" r="4" fill="#0" id="circle208"/>
	<circle cx="738.236" cy="156.67" r="4" fill="#0" id="circle209"/>
	<circle cx="739.656" cy="36.6643" r="4" fill="#0" id="circle210"/>
	<circle cx="745.337" cy="158.8" r="4" fill="#0" id="circle211"/>
	<circle cx="746.757" cy="33.1138" r="4" fill="#0" id="circle212"/>
	<circle cx="752.438" cy="160.931" r="4" fill="#0" id="circle213"/>
	<circle cx="753.858" cy="30.2734" r="4" fill="#0" id="circle214"/>
	<circle cx="759.539" cy="162.351" r="4" fill="#0" id="circle215"/>
	<circle cx="760.959" cy="27.4331" r="4" fill="#0" id="circle216"/>
	<circle cx="766.64" cy="164.481" r="4" fill="#0" id="circle217"/>
	<circle cx="768.06" cy="24.5927" r="4" fill="#0" id="circle218"/>
	<circle cx="773.741" cy="166.611" r="4" fill="#0" id="circle219"/>
	<circle cx="775.161" cy="21.7523" r="4" fill="#0" id="circle220"/>
	<circle cx="780.842" cy="168.031" r="4" fill="#0" id="circle221"/>
	<circle cx="782.262" cy="19.622" r="4" fill="#0" id="circle222"/>
	<circle cx="787.943" cy="170.162" r="4" fill="#0" id="circle223"/>
	<circle cx="789.363" cy="17.4918" r="4" fill="#0" id="circle224"/>
	<circle cx="795.044" cy="171.582" r="4" fill="#0" id="circle225"/>
	<circle cx="796.464" cy="15.3615" r="4" fill="#0" id="circle226"/>
	<circle cx="802.145" cy="172.292" r="4" fill="#0" id="circle227"/>
	<circle cx="803.565" cy="13.2312" r="4" fill="#0" id="circle228"/>
	<circle cx="809.246" cy="173.712" r="4" fill="#0" id="circle229"/>
	<circle cx="810.666" cy="11.811" r="4" fill="#0" id="circle230"/>
	<circle cx="816.346" cy="175.132" r="4" fill="#0" id="circle231"/>
	<circle cx="817.767" cy="9.68074" r="4" fill="#0" id="circle232"/>
	<circle cx="823.447" cy="175.843" r="4" fill="#0" id="circle233"/>
	<circle cx="824.868" cy="8.26056" r="4" fill="#0" id="circle234"/>
	<circle cx="830.548" cy="176.553" r="4" fill="#0" id="circle235"/>
	<circle cx="831.969" cy="6.84037" r="4" fill="#0" id="circle236"/>
	<circle cx="837.649" cy="176.553" r="4" fill="#0" id="circle237"/>
	<circle cx="839.069" cy="6.84037" r="4" fill="#0" id="circle238"/>
	<circle cx="844.75" cy="177.263" r="4" fill="#0" id="circle239"/>
	<circle cx="846.17" cy="5.42019" r="4" fill="#0" id="circle240"/>
	<circle cx="851.851" cy="177.973" r="4" fill="#0" id="circle241"/>
	<circle cx="853.271" cy="4.71009" r="4" fill="#0" id="circle242"/>
	<circle cx="858.952" cy="177.263" r="4" fill="#0" id="circle243"/>
	<circle cx="860.372" cy="4" r="4" fill="#0" id="circle244"/>
	<circle cx="866.053" cy="177.263" r="4" fill="#0" id="circle245"/>
	<circle cx="867.473" cy="4" r="4" fill="#0" id="circle246"/>
	<circle cx="873.154" cy="176.553" r="4" fill="#0" id="circle247"/>
	<circle cx="874.574" cy="4" r="4" fill="#0" id="circle248"/>
	<circle cx="880.255" cy="175.843" r="4" fill="#0" id="circle249"/>
	<circle cx="881.675" cy="4.71009" r="4" fill="#0" id="circle250"/>
	<circle cx="887.356" cy="175.132" r="4" fill="#0" id="circle251"/>
	<circle cx="888.776" cy="5.42019" r="4" fill="#0" id="circle252"/>
	<circle cx="894.457" cy="174.422" r="4" fill="#0" id="circle253"/>
	<circle cx="895.877" cy="6.13028" r="4" fill="#0" id="circle254"/>
	<circle cx="901.558" cy="172.292" r="4" fill="#0" id="circle255"/>
	<circle cx="902.978" cy="7.55047" r="4" fill="#0" id="circle256"/>
	<circle cx="908.659" cy="170.162" r="4" fill="#0" id="circle257"/>
	<circle cx="910.079" cy="8.97065" r="4" fill="#0" id="circle258"/>
	<circle cx="915.759" cy="168.031" r="4" fill="#0" id="circle259"/>
	<circle cx="917.18" cy="10.3908" r="4" fill="#0" id="circle260"/>
	<circle cx="922.86" cy="165.191" r="4" fill="#0" id="circle261"/>
	<circle cx="924.281" cy="12.5211" r="4" fill="#0" id="circle262"/>
	<circle cx="929.961" cy="163.771" r="4" fill="#0" id="circle263"/>
	<circle cx="931.382" cy="15.3615" r="4" fill="#0" id="circle264"/>
	<circle cx="937.062" cy="160.22" r="4" fill="#0" id="circle265"/>
	<circle cx="938.482" cy="18.2019" r="4" fill="#0" id="circle266"/>
	<circle cx="944.163" cy="157.38" r="4" fill="#0" id="circle267"/>
	<circle cx="944.873" cy="21.7523" r="4" fill="#0" id="circle268"/>
	<circle cx="949.844" cy="153.12" r="4" fill="#0" id="circle269"/>
	<circle cx="951.264" cy="25.3028" r="4" fill="#0" id="circle270"/>
	<circle cx="956.945" cy="150.989" r="4" fill="#0" id="circle271"/>
	<circle cx="957.655" cy="28.8533" r="4" fill="#0" id="circle272"/>
	<circle cx="963.336" cy="33.1138" r="4" fill="#0" id="circle273"/>
	<circle cx="964.046" cy="148.859" r="4" fill="#0" id="circle274"/>
	<circle cx="967.596" cy="141.048" r="4" fill="#0" id="circle275"/>
	<circle cx="969.016" cy="37.3744" r="4" fill="#0" id="circle276"/>
	<circle cx="973.277" cy="136.787" r="4" fill="#0" id="circle277"/>
	<circle cx="974.697" cy="42.345" r="4" fill="#0" id="circle278"/>
	<circle cx="978.958" cy="48.0258" r="4" fill="#0" id="circle279"/>
	<circle cx="978.958" cy="131.817" r="4" fill="#0" id="circle280"/>
	<circle cx="983.218" cy="53.7065" r="4" fill="#0" id="circle281"/>
	<circle cx="983.928" cy="125.426" r="4" fill="#0" id="circle282"/>
	<circle cx="986.769" cy="60.0974" r="4" fill="#0" id="circle283"/>
	<circle cx="988.189" cy="118.325" r="4" fill="#0" id="circle284"/>
	<circle cx="989.609" cy="67.1983" r="4" fill="#0" id="circle285"/>
	<circle cx="991.739" cy="109.804" r="4" fill="#0" id="circle286"/>
	<circle cx="993.16" cy="73.5891" r="4" fill="#0" id="circle287"/>
	<circle cx="993.87" cy="101.993" r="4" fill="#0" id="circle288"/>
	<circle cx="994.58" cy="80.6901" r="4" fill="#0" id="circle289"/>
	<circle cx="995.29" cy="94.8919" r="4" fill="#0" id="circle290"/>
	<circle cx="996" cy="87.791" r="4" fill="#0" id="circle291"/>
	</g>
</svg>