<?xml version="1.0" encoding="UTF-8" standalone="no"?>
<!-- Created with CurveBenchmark -->
<svg
	xmlns:dc="http://purl.org/dc/elements/1.1/"
	xmlns:cc="http://creativecommons.org/ns#"
	xmlns:rdf="http://www.w3.org/1999/02/22-rdf-syntax-ns#"
	xmlns:svg="http://www.w3.org/2000/svg"
	xmlns="http://www.w3.org/2000/svg"
	xmlns:sodipodi="http://sodipodi.sourceforge.net/DTD/sodipodi-0.dtd"
	xmlns:inkscape="http://www.inkscape.org/namespaces/inkscape"
	width="1000"
	height="1000"
	id="svg2"
	version="1.1"
	sodipodi:docname="manifold/discur-children10.png.txt">
<defs
	id="defs4" />
<metadata
	id="metadata7">
	<rdf:RDF>
		<cc:Work
			rdf:about="">
			<dc:format>image/svg+xml</dc:format>
			<dc:type
				rdf:resource="http://purl.org/dc/dcmitype/StillImage" />
			<dc:title></dc:title>
		</cc:Work>
	</rdf:RDF>
</metadata>
<g
	inkscape:label="Layer 1"
	inkscape:groupmode="layer"
	id="layer1">
	<path style="fill:none;stroke:red;stroke-width:1px;stroke-linecap:butt;stroke-linejoin:miter;stroke-opacity:1" d="M 4,300.268 4,316.913 z" id="boundary" inkscape:connector-curvature="0" />
	<path style="fill:none;stroke:red;stroke-width:1px;stroke-linecap:butt;stroke-linejoin:miter;stroke-opacity:1" d="M 4,300.268 17.3154,286.953 z" id="boundary" inkscape:connector-curvature="0" />
	<path style="fill:none;stroke:red;stroke-width:1px;stroke-linecap:butt;stroke-linejoin:miter;stroke-opacity:1" d="M 4,316.913 4,333.557 z" id="boundary" inkscape:connector-curvature="0" />
	<path style="fill:none;stroke:red;stroke-width:1px;stroke-linecap:butt;stroke-linejoin:miter;stroke-opacity:1" d="M 4,333.557 4,350.201 z" id="boundary" inkscape:connector-curvature="0" />
	<path style="fill:none;stroke:red;stroke-width:1px;stroke-linecap:butt;stroke-linejoin:miter;stroke-opacity:1" d="M 4,350.201 4,366.846 z" id="boundary" inkscape:connector-curvature="0" />
	<path style="fill:none;stroke:red;stroke-width:1px;stroke-linecap:butt;stroke-linejoin:miter;stroke-opacity:1" d="M 4,366.846 12.3221,381.826 z" id="boundary" inkscape:connector-curvature="0" />
	<path style="fill:none;stroke:red;stroke-width:1px;stroke-linecap:butt;stroke-linejoin:miter;stroke-opacity:1" d="M 12.3221,381.826 20.6443,396.805 z" id="boundary" inkscape:connector-curvature="0" />
	<path style="fill:none;stroke:red;stroke-width:1px;stroke-linecap:butt;stroke-linejoin:miter;stroke-opacity:1" d="M 17.3154,286.953 28.9664,266.98 z" id="boundary" inkscape:connector-curvature="0" />
	<path style="fill:none;stroke:red;stroke-width:1px;stroke-linecap:butt;stroke-linejoin:miter;stroke-opacity:1" d="M 20.6443,83.8926 20.6443,100.537 z" id="boundary" inkscape:connector-curvature="0" />
	<path style="fill:none;stroke:red;stroke-width:1px;stroke-linecap:butt;stroke-linejoin:miter;stroke-opacity:1" d="M 20.6443,83.8926 28.9664,67.2483 z" id="boundary" inkscape:connector-curvature="0" />
	<path style="fill:none;stroke:red;stroke-width:1px;stroke-linecap:butt;stroke-linejoin:miter;stroke-opacity:1" d="M 20.6443,100.537 20.6443,117.181 z" id="boundary" inkscape:connector-curvature="0" />
	<path style="fill:none;stroke:red;stroke-width:1px;stroke-linecap:butt;stroke-linejoin:miter;stroke-opacity:1" d="M 20.6443,117.181 28.9664,132.161 z" id="boundary" inkscape:connector-curvature="0" />
	<path style="fill:none;stroke:red;stroke-width:1px;stroke-linecap:butt;stroke-linejoin:miter;stroke-opacity:1" d="M 20.6443,396.805 20.6443,413.45 z" id="boundary" inkscape:connector-curvature="0" />
	<path style="fill:none;stroke:red;stroke-width:1px;stroke-linecap:butt;stroke-linejoin:miter;stroke-opacity:1" d="M 20.6443,413.45 20.6443,430.094 z" id="boundary" inkscape:connector-curvature="0" />
	<path style="fill:none;stroke:red;stroke-width:1px;stroke-linecap:butt;stroke-linejoin:miter;stroke-opacity:1" d="M 20.6443,430.094 20.6443,446.738 z" id="boundary" inkscape:connector-curvature="0" />
	<path style="fill:none;stroke:red;stroke-width:1px;stroke-linecap:butt;stroke-linejoin:miter;stroke-opacity:1" d="M 20.6443,446.738 20.6443,463.383 z" id="boundary" inkscape:connector-curvature="0" />
	<path style="fill:none;stroke:red;stroke-width:1px;stroke-linecap:butt;stroke-linejoin:miter;stroke-opacity:1" d="M 20.6443,463.383 20.6443,480.027 z" id="boundary" inkscape:connector-curvature="0" />
	<path style="fill:none;stroke:red;stroke-width:1px;stroke-linecap:butt;stroke-linejoin:miter;stroke-opacity:1" d="M 20.6443,480.027 25.6376,496.671 z" id="boundary" inkscape:connector-curvature="0" />
	<path style="fill:none;stroke:red;stroke-width:1px;stroke-linecap:butt;stroke-linejoin:miter;stroke-opacity:1" d="M 25.6376,496.671 28.9664,513.315 z" id="boundary" inkscape:connector-curvature="0" />
	<path style="fill:none;stroke:red;stroke-width:1px;stroke-linecap:butt;stroke-linejoin:miter;stroke-opacity:1" d="M 28.9664,67.2483 42.2819,53.9329 z" id="boundary" inkscape:connector-curvature="0" />
	<path style="fill:none;stroke:red;stroke-width:1px;stroke-linecap:butt;stroke-linejoin:miter;stroke-opacity:1" d="M 28.9664,132.161 40.6174,145.477 z" id="boundary" inkscape:connector-curvature="0" />
	<path style="fill:none;stroke:red;stroke-width:1px;stroke-linecap:butt;stroke-linejoin:miter;stroke-opacity:1" d="M 28.9664,266.98 42.2819,253.664 z" id="boundary" inkscape:connector-curvature="0" />
	<path style="fill:none;stroke:red;stroke-width:1px;stroke-linecap:butt;stroke-linejoin:miter;stroke-opacity:1" d="M 28.9664,513.315 37.2886,528.295 z" id="boundary" inkscape:connector-curvature="0" />
	<path style="fill:none;stroke:red;stroke-width:1px;stroke-linecap:butt;stroke-linejoin:miter;stroke-opacity:1" d="M 37.2886,528.295 37.2886,544.94 z" id="boundary" inkscape:connector-curvature="0" />
	<path style="fill:none;stroke:red;stroke-width:1px;stroke-linecap:butt;stroke-linejoin:miter;stroke-opacity:1" d="M 37.2886,544.94 40.6174,561.584 z" id="boundary" inkscape:connector-curvature="0" />
	<path style="fill:none;stroke:red;stroke-width:1px;stroke-linecap:butt;stroke-linejoin:miter;stroke-opacity:1" d="M 40.6174,145.477 53.9329,155.463 z" id="boundary" inkscape:connector-curvature="0" />
	<path style="fill:none;stroke:red;stroke-width:1px;stroke-linecap:butt;stroke-linejoin:miter;stroke-opacity:1" d="M 40.6174,561.584 45.6107,578.228 z" id="boundary" inkscape:connector-curvature="0" />
	<path style="fill:none;stroke:red;stroke-width:1px;stroke-linecap:butt;stroke-linejoin:miter;stroke-opacity:1" d="M 42.2819,53.9329 55.5973,40.6174 z" id="boundary" inkscape:connector-curvature="0" />
	<path style="fill:none;stroke:red;stroke-width:1px;stroke-linecap:butt;stroke-linejoin:miter;stroke-opacity:1" d="M 42.2819,253.664 58.9262,245.342 z" id="boundary" inkscape:connector-curvature="0" />
	<path style="fill:none;stroke:red;stroke-width:1px;stroke-linecap:butt;stroke-linejoin:miter;stroke-opacity:1" d="M 45.6107,578.228 45.6107,594.872 z" id="boundary" inkscape:connector-curvature="0" />
	<path style="fill:none;stroke:red;stroke-width:1px;stroke-linecap:butt;stroke-linejoin:miter;stroke-opacity:1" d="M 45.6107,594.872 48.9396,611.517 z" id="boundary" inkscape:connector-curvature="0" />
	<path style="fill:none;stroke:red;stroke-width:1px;stroke-linecap:butt;stroke-linejoin:miter;stroke-opacity:1" d="M 48.9396,611.517 53.9329,628.161 z" id="boundary" inkscape:connector-curvature="0" />
	<path style="fill:none;stroke:red;stroke-width:1px;stroke-linecap:butt;stroke-linejoin:miter;stroke-opacity:1" d="M 53.9329,155.463 58.9262,172.107 z" id="boundary" inkscape:connector-curvature="0" />
	<path style="fill:none;stroke:red;stroke-width:1px;stroke-linecap:butt;stroke-linejoin:miter;stroke-opacity:1" d="M 53.9329,628.161 62.255,643.141 z" id="boundary" inkscape:connector-curvature="0" />
	<path style="fill:none;stroke:red;stroke-width:1px;stroke-linecap:butt;stroke-linejoin:miter;stroke-opacity:1" d="M 55.5973,40.6174 68.9128,28.9664 z" id="boundary" inkscape:connector-curvature="0" />
	<path style="fill:none;stroke:red;stroke-width:1px;stroke-linecap:butt;stroke-linejoin:miter;stroke-opacity:1" d="M 58.9262,172.107 70.5772,185.423 z" id="boundary" inkscape:connector-curvature="0" />
	<path style="fill:none;stroke:red;stroke-width:1px;stroke-linecap:butt;stroke-linejoin:miter;stroke-opacity:1" d="M 58.9262,245.342 72.2416,232.027 z" id="boundary" inkscape:connector-curvature="0" />
	<path style="fill:none;stroke:red;stroke-width:1px;stroke-linecap:butt;stroke-linejoin:miter;stroke-opacity:1" d="M 62.255,643.141 63.9195,659.785 z" id="boundary" inkscape:connector-curvature="0" />
	<path style="fill:none;stroke:red;stroke-width:1px;stroke-linecap:butt;stroke-linejoin:miter;stroke-opacity:1" d="M 63.9195,659.785 72.2416,674.765 z" id="boundary" inkscape:connector-curvature="0" />
	<path style="fill:none;stroke:red;stroke-width:1px;stroke-linecap:butt;stroke-linejoin:miter;stroke-opacity:1" d="M 68.9128,28.9664 80.5638,15.651 z" id="boundary" inkscape:connector-curvature="0" />
	<path style="fill:none;stroke:red;stroke-width:1px;stroke-linecap:butt;stroke-linejoin:miter;stroke-opacity:1" d="M 70.5772,185.423 78.8993,200.403 z" id="boundary" inkscape:connector-curvature="0" />
	<path style="fill:none;stroke:red;stroke-width:1px;stroke-linecap:butt;stroke-linejoin:miter;stroke-opacity:1" d="M 72.2416,232.027 78.8993,200.403 z" id="boundary" inkscape:connector-curvature="0" />
	<path style="fill:none;stroke:red;stroke-width:1px;stroke-linecap:butt;stroke-linejoin:miter;stroke-opacity:1" d="M 72.2416,674.765 83.8926,688.081 z" id="boundary" inkscape:connector-curvature="0" />
	<path style="fill:none;stroke:red;stroke-width:1px;stroke-linecap:butt;stroke-linejoin:miter;stroke-opacity:1" d="M 80.5638,15.651 97.2081,7.32886 z" id="boundary" inkscape:connector-curvature="0" />
	<path style="fill:none;stroke:red;stroke-width:1px;stroke-linecap:butt;stroke-linejoin:miter;stroke-opacity:1" d="M 83.8926,688.081 97.2081,699.732 z" id="boundary" inkscape:connector-curvature="0" />
	<path style="fill:none;stroke:red;stroke-width:1px;stroke-linecap:butt;stroke-linejoin:miter;stroke-opacity:1" d="M 87.2215,799.597 87.2215,816.242 z" id="boundary" inkscape:connector-curvature="0" />
	<path style="fill:none;stroke:red;stroke-width:1px;stroke-linecap:butt;stroke-linejoin:miter;stroke-opacity:1" d="M 87.2215,799.597 95.5436,774.631 z" id="boundary" inkscape:connector-curvature="0" />
	<path style="fill:none;stroke:red;stroke-width:1px;stroke-linecap:butt;stroke-linejoin:miter;stroke-opacity:1" d="M 87.2215,816.242 95.5436,831.221 z" id="boundary" inkscape:connector-curvature="0" />
	<path style="fill:none;stroke:red;stroke-width:1px;stroke-linecap:butt;stroke-linejoin:miter;stroke-opacity:1" d="M 95.5436,774.631 103.866,749.664 z" id="boundary" inkscape:connector-curvature="0" />
	<path style="fill:none;stroke:red;stroke-width:1px;stroke-linecap:butt;stroke-linejoin:miter;stroke-opacity:1" d="M 95.5436,831.221 95.5436,847.866 z" id="boundary" inkscape:connector-curvature="0" />
	<path style="fill:none;stroke:red;stroke-width:1px;stroke-linecap:butt;stroke-linejoin:miter;stroke-opacity:1" d="M 95.5436,847.866 95.5436,864.51 z" id="boundary" inkscape:connector-curvature="0" />
	<path style="fill:none;stroke:red;stroke-width:1px;stroke-linecap:butt;stroke-linejoin:miter;stroke-opacity:1" d="M 95.5436,864.51 103.866,879.49 z" id="boundary" inkscape:connector-curvature="0" />
	<path style="fill:none;stroke:red;stroke-width:1px;stroke-linecap:butt;stroke-linejoin:miter;stroke-opacity:1" d="M 97.2081,7.32886 113.852,4 z" id="boundary" inkscape:connector-curvature="0" />
	<path style="fill:none;stroke:red;stroke-width:1px;stroke-linecap:butt;stroke-linejoin:miter;stroke-opacity:1" d="M 97.2081,699.732 103.866,716.376 z" id="boundary" inkscape:connector-curvature="0" />
	<path style="fill:none;stroke:red;stroke-width:1px;stroke-linecap:butt;stroke-linejoin:miter;stroke-opacity:1" d="M 103.866,716.376 103.866,733.02 z" id="boundary" inkscape:connector-curvature="0" />
	<path style="fill:none;stroke:red;stroke-width:1px;stroke-linecap:butt;stroke-linejoin:miter;stroke-opacity:1" d="M 103.866,733.02 103.866,749.664 z" id="boundary" inkscape:connector-curvature="0" />
	<path style="fill:none;stroke:red;stroke-width:1px;stroke-linecap:butt;stroke-linejoin:miter;stroke-opacity:1" d="M 103.866,879.49 108.859,896.134 z" id="boundary" inkscape:connector-curvature="0" />
	<path style="fill:none;stroke:red;stroke-width:1px;stroke-linecap:butt;stroke-linejoin:miter;stroke-opacity:1" d="M 103.866,932.752 103.866,949.396 z" id="boundary" inkscape:connector-curvature="0" />
	<path style="fill:none;stroke:red;stroke-width:1px;stroke-linecap:butt;stroke-linejoin:miter;stroke-opacity:1" d="M 103.866,932.752 112.188,912.779 z" id="boundary" inkscape:connector-curvature="0" />
	<path style="fill:none;stroke:red;stroke-width:1px;stroke-linecap:butt;stroke-linejoin:miter;stroke-opacity:1" d="M 103.866,949.396 112.188,964.376 z" id="boundary" inkscape:connector-curvature="0" />
	<path style="fill:none;stroke:red;stroke-width:1px;stroke-linecap:butt;stroke-linejoin:miter;stroke-opacity:1" d="M 108.859,896.134 112.188,912.779 z" id="boundary" inkscape:connector-curvature="0" />
	<path style="fill:none;stroke:red;stroke-width:1px;stroke-linecap:butt;stroke-linejoin:miter;stroke-opacity:1" d="M 112.188,964.376 123.839,977.691 z" id="boundary" inkscape:connector-curvature="0" />
	<path style="fill:none;stroke:red;stroke-width:1px;stroke-linecap:butt;stroke-linejoin:miter;stroke-opacity:1" d="M 113.852,4 130.497,4 z" id="boundary" inkscape:connector-curvature="0" />
	<path style="fill:none;stroke:red;stroke-width:1px;stroke-linecap:butt;stroke-linejoin:miter;stroke-opacity:1" d="M 123.839,977.691 137.154,987.678 z" id="boundary" inkscape:connector-curvature="0" />
	<path style="fill:none;stroke:red;stroke-width:1px;stroke-linecap:butt;stroke-linejoin:miter;stroke-opacity:1" d="M 130.497,4 147.141,4 z" id="boundary" inkscape:connector-curvature="0" />
	<path style="fill:none;stroke:red;stroke-width:1px;stroke-linecap:butt;stroke-linejoin:miter;stroke-opacity:1" d="M 137.154,987.678 153.799,987.678 z" id="boundary" inkscape:connector-curvature="0" />
	<path style="fill:none;stroke:red;stroke-width:1px;stroke-linecap:butt;stroke-linejoin:miter;stroke-opacity:1" d="M 147.141,4 163.785,4 z" id="boundary" inkscape:connector-curvature="0" />
	<path style="fill:none;stroke:red;stroke-width:1px;stroke-linecap:butt;stroke-linejoin:miter;stroke-opacity:1" d="M 153.799,987.678 170.443,987.678 z" id="boundary" inkscape:connector-curvature="0" />
	<path style="fill:none;stroke:red;stroke-width:1px;stroke-linecap:butt;stroke-linejoin:miter;stroke-opacity:1" d="M 163.785,4 180.43,4 z" id="boundary" inkscape:connector-curvature="0" />
	<path style="fill:none;stroke:red;stroke-width:1px;stroke-linecap:butt;stroke-linejoin:miter;stroke-opacity:1" d="M 170.443,987.678 185.423,996 z" id="boundary" inkscape:connector-curvature="0" />
	<path style="fill:none;stroke:red;stroke-width:1px;stroke-linecap:butt;stroke-linejoin:miter;stroke-opacity:1" d="M 180.43,4 195.409,12.3221 z" id="boundary" inkscape:connector-curvature="0" />
	<path style="fill:none;stroke:red;stroke-width:1px;stroke-linecap:butt;stroke-linejoin:miter;stroke-opacity:1" d="M 185.423,996 202.067,996 z" id="boundary" inkscape:connector-curvature="0" />
	<path style="fill:none;stroke:red;stroke-width:1px;stroke-linecap:butt;stroke-linejoin:miter;stroke-opacity:1" d="M 195.409,12.3221 212.054,15.651 z" id="boundary" inkscape:connector-curvature="0" />
	<path style="fill:none;stroke:red;stroke-width:1px;stroke-linecap:butt;stroke-linejoin:miter;stroke-opacity:1" d="M 202.067,996 218.711,996 z" id="boundary" inkscape:connector-curvature="0" />
	<path style="fill:none;stroke:red;stroke-width:1px;stroke-linecap:butt;stroke-linejoin:miter;stroke-opacity:1" d="M 212.054,15.651 227.034,23.9732 z" id="boundary" inkscape:connector-curvature="0" />
	<path style="fill:none;stroke:red;stroke-width:1px;stroke-linecap:butt;stroke-linejoin:miter;stroke-opacity:1" d="M 218.711,996 235.356,996 z" id="boundary" inkscape:connector-curvature="0" />
	<path style="fill:none;stroke:red;stroke-width:1px;stroke-linecap:butt;stroke-linejoin:miter;stroke-opacity:1" d="M 227.034,23.9732 243.678,30.6309 z" id="boundary" inkscape:connector-curvature="0" />
	<path style="fill:none;stroke:red;stroke-width:1px;stroke-linecap:butt;stroke-linejoin:miter;stroke-opacity:1" d="M 235.356,996 252,996 z" id="boundary" inkscape:connector-curvature="0" />
	<path style="fill:none;stroke:red;stroke-width:1px;stroke-linecap:butt;stroke-linejoin:miter;stroke-opacity:1" d="M 243.678,30.6309 255.329,43.9463 z" id="boundary" inkscape:connector-curvature="0" />
	<path style="fill:none;stroke:red;stroke-width:1px;stroke-linecap:butt;stroke-linejoin:miter;stroke-opacity:1" d="M 252,996 268.644,996 z" id="boundary" inkscape:connector-curvature="0" />
	<path style="fill:none;stroke:red;stroke-width:1px;stroke-linecap:butt;stroke-linejoin:miter;stroke-opacity:1" d="M 255.329,43.9463 263.651,58.9262 z" id="boundary" inkscape:connector-curvature="0" />
	<path style="fill:none;stroke:red;stroke-width:1px;stroke-linecap:butt;stroke-linejoin:miter;stroke-opacity:1" d="M 255.329,230.362 263.651,205.396 z" id="boundary" inkscape:connector-curvature="0" />
	<path style="fill:none;stroke:red;stroke-width:1px;stroke-linecap:butt;stroke-linejoin:miter;stroke-opacity:1" d="M 255.329,230.362 263.651,245.342 z" id="boundary" inkscape:connector-curvature="0" />
	<path style="fill:none;stroke:red;stroke-width:1px;stroke-linecap:butt;stroke-linejoin:miter;stroke-opacity:1" d="M 255.329,871.168 255.329,887.812 z" id="boundary" inkscape:connector-curvature="0" />
	<path style="fill:none;stroke:red;stroke-width:1px;stroke-linecap:butt;stroke-linejoin:miter;stroke-opacity:1" d="M 255.329,871.168 263.651,846.201 z" id="boundary" inkscape:connector-curvature="0" />
	<path style="fill:none;stroke:red;stroke-width:1px;stroke-linecap:butt;stroke-linejoin:miter;stroke-opacity:1" d="M 255.329,887.812 263.651,902.792 z" id="boundary" inkscape:connector-curvature="0" />
	<path style="fill:none;stroke:red;stroke-width:1px;stroke-linecap:butt;stroke-linejoin:miter;stroke-opacity:1" d="M 263.651,58.9262 270.309,75.5705 z" id="boundary" inkscape:connector-curvature="0" />
	<path style="fill:none;stroke:red;stroke-width:1px;stroke-linecap:butt;stroke-linejoin:miter;stroke-opacity:1" d="M 263.651,188.752 263.651,205.396 z" id="boundary" inkscape:connector-curvature="0" />
	<path style="fill:none;stroke:red;stroke-width:1px;stroke-linecap:butt;stroke-linejoin:miter;stroke-opacity:1" d="M 263.651,188.752 271.973,163.785 z" id="boundary" inkscape:connector-curvature="0" />
	<path style="fill:none;stroke:red;stroke-width:1px;stroke-linecap:butt;stroke-linejoin:miter;stroke-opacity:1" d="M 263.651,245.342 271.973,260.322 z" id="boundary" inkscape:connector-curvature="0" />
	<path style="fill:none;stroke:red;stroke-width:1px;stroke-linecap:butt;stroke-linejoin:miter;stroke-opacity:1" d="M 263.651,846.201 271.973,829.557 z" id="boundary" inkscape:connector-curvature="0" />
	<path style="fill:none;stroke:red;stroke-width:1px;stroke-linecap:butt;stroke-linejoin:miter;stroke-opacity:1" d="M 263.651,902.792 276.966,912.779 z" id="boundary" inkscape:connector-curvature="0" />
	<path style="fill:none;stroke:red;stroke-width:1px;stroke-linecap:butt;stroke-linejoin:miter;stroke-opacity:1" d="M 268.644,996 283.624,987.678 z" id="boundary" inkscape:connector-curvature="0" />
	<path style="fill:none;stroke:red;stroke-width:1px;stroke-linecap:butt;stroke-linejoin:miter;stroke-opacity:1" d="M 270.309,75.5705 271.973,92.2148 z" id="boundary" inkscape:connector-curvature="0" />
	<path style="fill:none;stroke:red;stroke-width:1px;stroke-linecap:butt;stroke-linejoin:miter;stroke-opacity:1" d="M 271.973,92.2148 280.295,107.195 z" id="boundary" inkscape:connector-curvature="0" />
	<path style="fill:none;stroke:red;stroke-width:1px;stroke-linecap:butt;stroke-linejoin:miter;stroke-opacity:1" d="M 271.973,130.497 271.973,147.141 z" id="boundary" inkscape:connector-curvature="0" />
	<path style="fill:none;stroke:red;stroke-width:1px;stroke-linecap:butt;stroke-linejoin:miter;stroke-opacity:1" d="M 271.973,130.497 280.295,107.195 z" id="boundary" inkscape:connector-curvature="0" />
	<path style="fill:none;stroke:red;stroke-width:1px;stroke-linecap:butt;stroke-linejoin:miter;stroke-opacity:1" d="M 271.973,147.141 271.973,163.785 z" id="boundary" inkscape:connector-curvature="0" />
	<path style="fill:none;stroke:red;stroke-width:1px;stroke-linecap:butt;stroke-linejoin:miter;stroke-opacity:1" d="M 271.973,260.322 280.295,275.302 z" id="boundary" inkscape:connector-curvature="0" />
	<path style="fill:none;stroke:red;stroke-width:1px;stroke-linecap:butt;stroke-linejoin:miter;stroke-opacity:1" d="M 271.973,796.268 271.973,812.913 z" id="boundary" inkscape:connector-curvature="0" />
	<path style="fill:none;stroke:red;stroke-width:1px;stroke-linecap:butt;stroke-linejoin:miter;stroke-opacity:1" d="M 271.973,796.268 280.295,771.302 z" id="boundary" inkscape:connector-curvature="0" />
	<path style="fill:none;stroke:red;stroke-width:1px;stroke-linecap:butt;stroke-linejoin:miter;stroke-opacity:1" d="M 271.973,812.913 271.973,829.557 z" id="boundary" inkscape:connector-curvature="0" />
	<path style="fill:none;stroke:red;stroke-width:1px;stroke-linecap:butt;stroke-linejoin:miter;stroke-opacity:1" d="M 276.966,912.779 291.946,921.101 z" id="boundary" inkscape:connector-curvature="0" />
	<path style="fill:none;stroke:red;stroke-width:1px;stroke-linecap:butt;stroke-linejoin:miter;stroke-opacity:1" d="M 280.295,275.302 286.953,291.946 z" id="boundary" inkscape:connector-curvature="0" />
	<path style="fill:none;stroke:red;stroke-width:1px;stroke-linecap:butt;stroke-linejoin:miter;stroke-opacity:1" d="M 280.295,771.302 288.617,746.336 z" id="boundary" inkscape:connector-curvature="0" />
	<path style="fill:none;stroke:red;stroke-width:1px;stroke-linecap:butt;stroke-linejoin:miter;stroke-opacity:1" d="M 283.624,987.678 298.604,979.356 z" id="boundary" inkscape:connector-curvature="0" />
	<path style="fill:none;stroke:red;stroke-width:1px;stroke-linecap:butt;stroke-linejoin:miter;stroke-opacity:1" d="M 286.953,291.946 288.617,308.591 z" id="boundary" inkscape:connector-curvature="0" />
	<path style="fill:none;stroke:red;stroke-width:1px;stroke-linecap:butt;stroke-linejoin:miter;stroke-opacity:1" d="M 288.617,308.591 288.617,325.235 z" id="boundary" inkscape:connector-curvature="0" />
	<path style="fill:none;stroke:red;stroke-width:1px;stroke-linecap:butt;stroke-linejoin:miter;stroke-opacity:1" d="M 288.617,325.235 296.94,340.215 z" id="boundary" inkscape:connector-curvature="0" />
	<path style="fill:none;stroke:red;stroke-width:1px;stroke-linecap:butt;stroke-linejoin:miter;stroke-opacity:1" d="M 288.617,746.336 296.94,721.369 z" id="boundary" inkscape:connector-curvature="0" />
	<path style="fill:none;stroke:red;stroke-width:1px;stroke-linecap:butt;stroke-linejoin:miter;stroke-opacity:1" d="M 291.946,921.101 308.591,927.758 z" id="boundary" inkscape:connector-curvature="0" />
	<path style="fill:none;stroke:red;stroke-width:1px;stroke-linecap:butt;stroke-linejoin:miter;stroke-opacity:1" d="M 296.94,340.215 296.94,356.859 z" id="boundary" inkscape:connector-curvature="0" />
	<path style="fill:none;stroke:red;stroke-width:1px;stroke-linecap:butt;stroke-linejoin:miter;stroke-opacity:1" d="M 296.94,356.859 296.94,373.503 z" id="boundary" inkscape:connector-curvature="0" />
	<path style="fill:none;stroke:red;stroke-width:1px;stroke-linecap:butt;stroke-linejoin:miter;stroke-opacity:1" d="M 296.94,373.503 296.94,390.148 z" id="boundary" inkscape:connector-curvature="0" />
	<path style="fill:none;stroke:red;stroke-width:1px;stroke-linecap:butt;stroke-linejoin:miter;stroke-opacity:1" d="M 296.94,390.148 305.262,405.128 z" id="boundary" inkscape:connector-curvature="0" />
	<path style="fill:none;stroke:red;stroke-width:1px;stroke-linecap:butt;stroke-linejoin:miter;stroke-opacity:1" d="M 296.94,671.436 296.94,688.081 z" id="boundary" inkscape:connector-curvature="0" />
	<path style="fill:none;stroke:red;stroke-width:1px;stroke-linecap:butt;stroke-linejoin:miter;stroke-opacity:1" d="M 296.94,671.436 310.255,659.785 z" id="boundary" inkscape:connector-curvature="0" />
	<path style="fill:none;stroke:red;stroke-width:1px;stroke-linecap:butt;stroke-linejoin:miter;stroke-opacity:1" d="M 296.94,688.081 296.94,704.725 z" id="boundary" inkscape:connector-curvature="0" />
	<path style="fill:none;stroke:red;stroke-width:1px;stroke-linecap:butt;stroke-linejoin:miter;stroke-opacity:1" d="M 296.94,704.725 296.94,721.369 z" id="boundary" inkscape:connector-curvature="0" />
	<path style="fill:none;stroke:red;stroke-width:1px;stroke-linecap:butt;stroke-linejoin:miter;stroke-opacity:1" d="M 298.604,979.356 315.248,979.356 z" id="boundary" inkscape:connector-curvature="0" />
	<path style="fill:none;stroke:red;stroke-width:1px;stroke-linecap:butt;stroke-linejoin:miter;stroke-opacity:1" d="M 305.262,405.128 313.584,420.107 z" id="boundary" inkscape:connector-curvature="0" />
	<path style="fill:none;stroke:red;stroke-width:1px;stroke-linecap:butt;stroke-linejoin:miter;stroke-opacity:1" d="M 308.591,927.758 323.57,936.081 z" id="boundary" inkscape:connector-curvature="0" />
	<path style="fill:none;stroke:red;stroke-width:1px;stroke-linecap:butt;stroke-linejoin:miter;stroke-opacity:1" d="M 310.255,659.785 321.906,638.148 z" id="boundary" inkscape:connector-curvature="0" />
	<path style="fill:none;stroke:red;stroke-width:1px;stroke-linecap:butt;stroke-linejoin:miter;stroke-opacity:1" d="M 313.584,420.107 313.584,436.752 z" id="boundary" inkscape:connector-curvature="0" />
	<path style="fill:none;stroke:red;stroke-width:1px;stroke-linecap:butt;stroke-linejoin:miter;stroke-opacity:1" d="M 313.584,436.752 321.906,451.732 z" id="boundary" inkscape:connector-curvature="0" />
	<path style="fill:none;stroke:red;stroke-width:1px;stroke-linecap:butt;stroke-linejoin:miter;stroke-opacity:1" d="M 315.248,979.356 330.228,971.034 z" id="boundary" inkscape:connector-curvature="0" />
	<path style="fill:none;stroke:red;stroke-width:1px;stroke-linecap:butt;stroke-linejoin:miter;stroke-opacity:1" d="M 321.906,451.732 321.906,468.376 z" id="boundary" inkscape:connector-curvature="0" />
	<path style="fill:none;stroke:red;stroke-width:1px;stroke-linecap:butt;stroke-linejoin:miter;stroke-opacity:1" d="M 321.906,468.376 321.906,485.02 z" id="boundary" inkscape:connector-curvature="0" />
	<path style="fill:none;stroke:red;stroke-width:1px;stroke-linecap:butt;stroke-linejoin:miter;stroke-opacity:1" d="M 321.906,485.02 330.228,500 z" id="boundary" inkscape:connector-curvature="0" />
	<path style="fill:none;stroke:red;stroke-width:1px;stroke-linecap:butt;stroke-linejoin:miter;stroke-opacity:1" d="M 321.906,621.503 321.906,638.148 z" id="boundary" inkscape:connector-curvature="0" />
	<path style="fill:none;stroke:red;stroke-width:1px;stroke-linecap:butt;stroke-linejoin:miter;stroke-opacity:1" d="M 321.906,621.503 335.221,609.852 z" id="boundary" inkscape:connector-curvature="0" />
	<path style="fill:none;stroke:red;stroke-width:1px;stroke-linecap:butt;stroke-linejoin:miter;stroke-opacity:1" d="M 323.57,936.081 336.886,947.732 z" id="boundary" inkscape:connector-curvature="0" />
	<path style="fill:none;stroke:red;stroke-width:1px;stroke-linecap:butt;stroke-linejoin:miter;stroke-opacity:1" d="M 330.228,500 338.55,514.98 z" id="boundary" inkscape:connector-curvature="0" />
	<path style="fill:none;stroke:red;stroke-width:1px;stroke-linecap:butt;stroke-linejoin:miter;stroke-opacity:1" d="M 330.228,971.034 336.886,947.732 z" id="boundary" inkscape:connector-curvature="0" />
	<path style="fill:none;stroke:red;stroke-width:1px;stroke-linecap:butt;stroke-linejoin:miter;stroke-opacity:1" d="M 335.221,609.852 346.872,596.537 z" id="boundary" inkscape:connector-curvature="0" />
	<path style="fill:none;stroke:red;stroke-width:1px;stroke-linecap:butt;stroke-linejoin:miter;stroke-opacity:1" d="M 338.55,514.98 343.544,531.624 z" id="boundary" inkscape:connector-curvature="0" />
	<path style="fill:none;stroke:red;stroke-width:1px;stroke-linecap:butt;stroke-linejoin:miter;stroke-opacity:1" d="M 343.544,531.624 351.866,546.604 z" id="boundary" inkscape:connector-curvature="0" />
	<path style="fill:none;stroke:red;stroke-width:1px;stroke-linecap:butt;stroke-linejoin:miter;stroke-opacity:1" d="M 346.872,596.537 355.195,579.893 z" id="boundary" inkscape:connector-curvature="0" />
	<path style="fill:none;stroke:red;stroke-width:1px;stroke-linecap:butt;stroke-linejoin:miter;stroke-opacity:1" d="M 351.866,546.604 355.195,563.248 z" id="boundary" inkscape:connector-curvature="0" />
	<path style="fill:none;stroke:red;stroke-width:1px;stroke-linecap:butt;stroke-linejoin:miter;stroke-opacity:1" d="M 355.195,563.248 355.195,579.893 z" id="boundary" inkscape:connector-curvature="0" />
	<circle cx="4" cy="300.268" r="4" fill="#0" id="circle0"/>
	<circle cx="4" cy="316.913" r="4" fill="#0" id="circle1"/>
	<circle cx="4" cy="333.557" r="4" fill="#0" id="circle2"/>
	<circle cx="4" cy="350.201" r="4" fill="#0" id="circle3"/>
	<circle cx="4" cy="366.846" r="4" fill="#0" id="circle4"/>
	<circle cx="12.3221" cy="381.826" r="4" fill="#0" id="circle5"/>
	<circle cx="17.3154" cy="286.953" r="4" fill="#0" id="circle6"/>
	<circle cx="20.6443" cy="83.8926" r="4" fill="#0" id="circle7"/>
	<circle cx="20.6443" cy="100.537" r="4" fill="#0" id="circle8"/>
	<circle cx="20.6443" cy="117.181" r="4" fill="#0" id="circle9"/>
	<circle cx="20.6443" cy="396.805" r="4" fill="#0" id="circle10"/>
	<circle cx="20.6443" cy="413.45" r="4" fill="#0" id="circle11"/>
	<circle cx="20.6443" cy="430.094" r="4" fill="#0" id="circle12"/>
	<circle cx="20.6443" cy="446.738" r="4" fill="#0" id="circle13"/>
	<circle cx="20.6443" cy="463.383" r="4" fill="#0" id="circle14"/>
	<circle cx="20.6443" cy="480.027" r="4" fill="#0" id="circle15"/>
	<circle cx="25.6376" cy="496.671" r="4" fill="#0" id="circle16"/>
	<circle cx="28.9664" cy="67.2483" r="4" fill="#0" id="circle17"/>
	<circle cx="28.9664" cy="132.161" r="4" fill="#0" id="circle18"/>
	<circle cx="28.9664" cy="266.98" r="4" fill="#0" id="circle19"/>
	<circle cx="28.9664" cy="513.315" r="4" fill="#0" id="circle20"/>
	<circle cx="37.2886" cy="528.295" r="4" fill="#0" id="circle21"/>
	<circle cx="37.2886" cy="544.94" r="4" fill="#0" id="circle22"/>
	<circle cx="40.6174" cy="145.477" r="4" fill="#0" id="circle23"/>
	<circle cx="40.6174" cy="561.584" r="4" fill="#0" id="circle24"/>
	<circle cx="42.2819" cy="53.9329" r="4" fill="#0" id="circle25"/>
	<circle cx="42.2819" cy="253.664" r="4" fill="#0" id="circle26"/>
	<circle cx="45.6107" cy="578.228" r="4" fill="#0" id="circle27"/>
	<circle cx="45.6107" cy="594.872" r="4" fill="#0" id="circle28"/>
	<circle cx="48.9396" cy="611.517" r="4" fill="#0" id="circle29"/>
	<circle cx="53.9329" cy="155.463" r="4" fill="#0" id="circle30"/>
	<circle cx="53.9329" cy="628.161" r="4" fill="#0" id="circle31"/>
	<circle cx="55.5973" cy="40.6174" r="4" fill="#0" id="circle32"/>
	<circle cx="58.9262" cy="172.107" r="4" fill="#0" id="circle33"/>
	<circle cx="58.9262" cy="245.342" r="4" fill="#0" id="circle34"/>
	<circle cx="62.255" cy="643.141" r="4" fill="#0" id="circle35"/>
	<circle cx="63.9195" cy="659.785" r="4" fill="#0" id="circle36"/>
	<circle cx="68.9128" cy="28.9664" r="4" fill="#0" id="circle37"/>
	<circle cx="70.5772" cy="185.423" r="4" fill="#0" id="circle38"/>
	<circle cx="72.2416" cy="232.027" r="4" fill="#0" id="circle39"/>
	<circle cx="72.2416" cy="674.765" r="4" fill="#0" id="circle40"/>
	<circle cx="78.8993" cy="200.403" r="4" fill="#0" id="circle41"/>
	<circle cx="80.5638" cy="15.651" r="4" fill="#0" id="circle42"/>
	<circle cx="83.8926" cy="688.081" r="4" fill="#0" id="circle43"/>
	<circle cx="87.2215" cy="799.597" r="4" fill="#0" id="circle44"/>
	<circle cx="87.2215" cy="816.242" r="4" fill="#0" id="circle45"/>
	<circle cx="95.5436" cy="774.631" r="4" fill="#0" id="circle46"/>
	<circle cx="95.5436" cy="831.221" r="4" fill="#0" id="circle47"/>
	<circle cx="95.5436" cy="847.866" r="4" fill="#0" id="circle48"/>
	<circle cx="95.5436" cy="864.51" r="4" fill="#0" id="circle49"/>
	<circle cx="97.2081" cy="7.32886" r="4" fill="#0" id="circle50"/>
	<circle cx="97.2081" cy="699.732" r="4" fill="#0" id="circle51"/>
	<circle cx="103.866" cy="716.376" r="4" fill="#0" id="circle52"/>
	<circle cx="103.866" cy="733.02" r="4" fill="#0" id="circle53"/>
	<circle cx="103.866" cy="749.664" r="4" fill="#0" id="circle54"/>
	<circle cx="103.866" cy="879.49" r="4" fill="#0" id="circle55"/>
	<circle cx="103.866" cy="932.752" r="4" fill="#0" id="circle56"/>
	<circle cx="103.866" cy="949.396" r="4" fill="#0" id="circle57"/>
	<circle cx="108.859" cy="896.134" r="4" fill="#0" id="circle58"/>
	<circle cx="112.188" cy="912.779" r="4" fill="#0" id="circle59"/>
	<circle cx="112.188" cy="964.376" r="4" fill="#0" id="circle60"/>
	<circle cx="113.852" cy="4" r="4" fill="#0" id="circle61"/>
	<circle cx="123.839" cy="977.691" r="4" fill="#0" id="circle62"/>
	<circle cx="130.497" cy="4" r="4" fill="#0" id="circle63"/>
	<circle cx="137.154" cy="987.678" r="4" fill="#0" id="circle64"/>
	<circle cx="147.141" cy="4" r="4" fill="#0" id="circle65"/>
	<circle cx="153.799" cy="987.678" r="4" fill="#0" id="circle66"/>
	<circle cx="163.785" cy="4" r="4" fill="#0" id="circle67"/>
	<circle cx="170.443" cy="987.678" r="4" fill="#0" id="circle68"/>
	<circle cx="180.43" cy="4" r="4" fill="#0" id="circle69"/>
	<circle cx="185.423" cy="996" r="4" fill="#0" id="circle70"/>
	<circle cx="195.409" cy="12.3221" r="4" fill="#0" id="circle71"/>
	<circle cx="202.067" cy="996" r="4" fill="#0" id="circle72"/>
	<circle cx="212.054" cy="15.651" r="4" fill="#0" id="circle73"/>
	<circle cx="218.711" cy="996" r="4" fill="#0" id="circle74"/>
	<circle cx="227.034" cy="23.9732" r="4" fill="#0" id="circle75"/>
	<circle cx="235.356" cy="996" r="4" fill="#0" id="circle76"/>
	<circle cx="243.678" cy="30.6309" r="4" fill="#0" id="circle77"/>
	<circle cx="252" cy="996" r="4" fill="#0" id="circle78"/>
	<circle cx="255.329" cy="43.9463" r="4" fill="#0" id="circle79"/>
	<circle cx="255.329" cy="230.362" r="4" fill="#0" id="circle80"/>
	<circle cx="255.329" cy="871.168" r="4" fill="#0" id="circle81"/>
	<circle cx="255.329" cy="887.812" r="4" fill="#0" id="circle82"/>
	<circle cx="263.651" cy="58.9262" r="4" fill="#0" id="circle83"/>
	<circle cx="263.651" cy="188.752" r="4" fill="#0" id="circle84"/>
	<circle cx="263.651" cy="205.396" r="4" fill="#0" id="circle85"/>
	<circle cx="263.651" cy="245.342" r="4" fill="#0" id="circle86"/>
	<circle cx="263.651" cy="846.201" r="4" fill="#0" id="circle87"/>
	<circle cx="263.651" cy="902.792" r="4" fill="#0" id="circle88"/>
	<circle cx="268.644" cy="996" r="4" fill="#0" id="circle89"/>
	<circle cx="270.309" cy="75.5705" r="4" fill="#0" id="circle90"/>
	<circle cx="271.973" cy="92.2148" r="4" fill="#0" id="circle91"/>
	<circle cx="271.973" cy="130.497" r="4" fill="#0" id="circle92"/>
	<circle cx="271.973" cy="147.141" r="4" fill="#0" id="circle93"/>
	<circle cx="271.973" cy="163.785" r="4" fill="#0" id="circle94"/>
	<circle cx="271.973" cy="260.322" r="4" fill="#0" id="circle95"/>
	<circle cx="271.973" cy="796.268" r="4" fill="#0" id="circle96"/>
	<circle cx="271.973" cy="812.913" r="4" fill="#0" id="circle97"/>
	<circle cx="271.973" cy="829.557" r="4" fill="#0" id="circle98"/>
	<circle cx="276.966" cy="912.779" r="4" fill="#0" id="circle99"/>
	<circle cx="280.295" cy="107.195" r="4" fill="#0" id="circle100"/>
	<circle cx="280.295" cy="275.302" r="4" fill="#0" id="circle101"/>
	<circle cx="280.295" cy="771.302" r="4" fill="#0" id="circle102"/>
	<circle cx="283.624" cy="987.678" r="4" fill="#0" id="circle103"/>
	<circle cx="286.953" cy="291.946" r="4" fill="#0" id="circle104"/>
	<circle cx="288.617" cy="308.591" r="4" fill="#0" id="circle105"/>
	<circle cx="288.617" cy="325.235" r="4" fill="#0" id="circle106"/>
	<circle cx="288.617" cy="746.336" r="4" fill="#0" id="circle107"/>
	<circle cx="291.946" cy="921.101" r="4" fill="#0" id="circle108"/>
	<circle cx="296.94" cy="340.215" r="4" fill="#0" id="circle109"/>
	<circle cx="296.94" cy="356.859" r="4" fill="#0" id="circle110"/>
	<circle cx="296.94" cy="373.503" r="4" fill="#0" id="circle111"/>
	<circle cx="296.94" cy="390.148" r="4" fill="#0" id="circle112"/>
	<circle cx="296.94" cy="671.436" r="4" fill="#0" id="circle113"/>
	<circle cx="296.94" cy="688.081" r="4" fill="#0" id="circle114"/>
	<circle cx="296.94" cy="704.725" r="4" fill="#0" id="circle115"/>
	<circle cx="296.94" cy="721.369" r="4" fill="#0" id="circle116"/>
	<circle cx="298.604" cy="979.356" r="4" fill="#0" id="circle117"/>
	<circle cx="305.262" cy="405.128" r="4" fill="#0" id="circle118"/>
	<circle cx="308.591" cy="927.758" r="4" fill="#0" id="circle119"/>
	<circle cx="310.255" cy="659.785" r="4" fill="#0" id="circle120"/>
	<circle cx="313.584" cy="420.107" r="4" fill="#0" id="circle121"/>
	<circle cx="313.584" cy="436.752" r="4" fill="#0" id="circle122"/>
	<circle cx="315.248" cy="979.356" r="4" fill="#0" id="circle123"/>
	<circle cx="321.906" cy="451.732" r="4" fill="#0" id="circle124"/>
	<circle cx="321.906" cy="468.376" r="4" fill="#0" id="circle125"/>
	<circle cx="321.906" cy="485.02" r="4" fill="#0" id="circle126"/>
	<circle cx="321.906" cy="621.503" r="4" fill="#0" id="circle127"/>
	<circle cx="321.906" cy="638.148" r="4" fill="#0" id="circle128"/>
	<circle cx="323.57" cy="936.081" r="4" fill="#0" id="circle129"/>
	<circle cx="330.228" cy="500" r="4" fill="#0" id="circle130"/>
	<circle cx="330.228" cy="971.034" r="4" fill="#0" id="circle131"/>
	<circle cx="335.221" cy="609.852" r="4" fill="#0" id="circle132"/>
	<circle cx="336.886" cy="947.732" r="4" fill="#0" id="circle133"/>
	<circle cx="338.55" cy="514.98" r="4" fill="#0" id="circle134"/>
	<circle cx="343.544" cy="531.624" r="4" fill="#0" id="circle135"/>
	<circle cx="346.872" cy="596.537" r="4" fill="#0" id="circle136"/>
	<circle cx="351.866" cy="546.604" r="4" fill="#0" id="circle137"/>
	<circle cx="355.195" cy="563.248" r="4" fill="#0" id="circle138"/>
	<circle cx="355.195" cy="579.893" r="4" fill="#0" id="circle139"/>
	</g>
</svg>