<?xml version="1.0" encoding="UTF-8" standalone="no"?>
<!-- Created with CurveBenchmark -->
<svg
	xmlns:dc="http://purl.org/dc/elements/1.1/"
	xmlns:cc="http://creativecommons.org/ns#"
	xmlns:rdf="http://www.w3.org/1999/02/22-rdf-syntax-ns#"
	xmlns:svg="http://www.w3.org/2000/svg"
	xmlns="http://www.w3.org/2000/svg"
	xmlns:sodipodi="http://sodipodi.sourceforge.net/DTD/sodipodi-0.dtd"
	xmlns:inkscape="http://www.inkscape.org/namespaces/inkscape"
	width="1000"
	height="1000"
	id="svg2"
	version="1.1"
	sodipodi:docname="manifold/discur-hammer265.png.txt">
<defs
	id="defs4" />
<metadata
	id="metadata7">
	<rdf:RDF>
		<cc:Work
			rdf:about="">
			<dc:format>image/svg+xml</dc:format>
			<dc:type
				rdf:resource="http://purl.org/dc/dcmitype/StillImage" />
			<dc:title></dc:title>
		</cc:Work>
	</rdf:RDF>
</metadata>
<g
	inkscape:label="Layer 1"
	inkscape:groupmode="layer"
	id="layer1">
	<path style="fill:none;stroke:red;stroke-width:1px;stroke-linecap:butt;stroke-linejoin:miter;stroke-opacity:1" d="M 4,952.87 4,981.623 z" id="boundary" inkscape:connector-curvature="0" />
	<path style="fill:none;stroke:red;stroke-width:1px;stroke-linecap:butt;stroke-linejoin:miter;stroke-opacity:1" d="M 4,952.87 9.75072,901.113 z" id="boundary" inkscape:connector-curvature="0" />
	<path style="fill:none;stroke:red;stroke-width:1px;stroke-linecap:butt;stroke-linejoin:miter;stroke-opacity:1" d="M 4,981.623 29.8783,996 z" id="boundary" inkscape:connector-curvature="0" />
	<path style="fill:none;stroke:red;stroke-width:1px;stroke-linecap:butt;stroke-linejoin:miter;stroke-opacity:1" d="M 9.75072,27.0029 9.75072,55.7565 z" id="boundary" inkscape:connector-curvature="0" />
	<path style="fill:none;stroke:red;stroke-width:1px;stroke-linecap:butt;stroke-linejoin:miter;stroke-opacity:1" d="M 9.75072,27.0029 27.0029,4 z" id="boundary" inkscape:connector-curvature="0" />
	<path style="fill:none;stroke:red;stroke-width:1px;stroke-linecap:butt;stroke-linejoin:miter;stroke-opacity:1" d="M 9.75072,55.7565 21.2522,84.5101 z" id="boundary" inkscape:connector-curvature="0" />
	<path style="fill:none;stroke:red;stroke-width:1px;stroke-linecap:butt;stroke-linejoin:miter;stroke-opacity:1" d="M 9.75072,469.809 9.75072,498.562 z" id="boundary" inkscape:connector-curvature="0" />
	<path style="fill:none;stroke:red;stroke-width:1px;stroke-linecap:butt;stroke-linejoin:miter;stroke-opacity:1" d="M 9.75072,469.809 32.7536,423.803 z" id="boundary" inkscape:connector-curvature="0" />
	<path style="fill:none;stroke:red;stroke-width:1px;stroke-linecap:butt;stroke-linejoin:miter;stroke-opacity:1" d="M 9.75072,498.562 9.75072,527.316 z" id="boundary" inkscape:connector-curvature="0" />
	<path style="fill:none;stroke:red;stroke-width:1px;stroke-linecap:butt;stroke-linejoin:miter;stroke-opacity:1" d="M 9.75072,527.316 9.75072,556.07 z" id="boundary" inkscape:connector-curvature="0" />
	<path style="fill:none;stroke:red;stroke-width:1px;stroke-linecap:butt;stroke-linejoin:miter;stroke-opacity:1" d="M 9.75072,556.07 9.75072,584.823 z" id="boundary" inkscape:connector-curvature="0" />
	<path style="fill:none;stroke:red;stroke-width:1px;stroke-linecap:butt;stroke-linejoin:miter;stroke-opacity:1" d="M 9.75072,584.823 9.75072,613.577 z" id="boundary" inkscape:connector-curvature="0" />
	<path style="fill:none;stroke:red;stroke-width:1px;stroke-linecap:butt;stroke-linejoin:miter;stroke-opacity:1" d="M 9.75072,613.577 9.75072,642.33 z" id="boundary" inkscape:connector-curvature="0" />
	<path style="fill:none;stroke:red;stroke-width:1px;stroke-linecap:butt;stroke-linejoin:miter;stroke-opacity:1" d="M 9.75072,642.33 9.75072,671.084 z" id="boundary" inkscape:connector-curvature="0" />
	<path style="fill:none;stroke:red;stroke-width:1px;stroke-linecap:butt;stroke-linejoin:miter;stroke-opacity:1" d="M 9.75072,671.084 9.75072,699.838 z" id="boundary" inkscape:connector-curvature="0" />
	<path style="fill:none;stroke:red;stroke-width:1px;stroke-linecap:butt;stroke-linejoin:miter;stroke-opacity:1" d="M 9.75072,699.838 9.75072,728.591 z" id="boundary" inkscape:connector-curvature="0" />
	<path style="fill:none;stroke:red;stroke-width:1px;stroke-linecap:butt;stroke-linejoin:miter;stroke-opacity:1" d="M 9.75072,728.591 9.75072,757.345 z" id="boundary" inkscape:connector-curvature="0" />
	<path style="fill:none;stroke:red;stroke-width:1px;stroke-linecap:butt;stroke-linejoin:miter;stroke-opacity:1" d="M 9.75072,757.345 9.75072,786.099 z" id="boundary" inkscape:connector-curvature="0" />
	<path style="fill:none;stroke:red;stroke-width:1px;stroke-linecap:butt;stroke-linejoin:miter;stroke-opacity:1" d="M 9.75072,786.099 9.75072,814.852 z" id="boundary" inkscape:connector-curvature="0" />
	<path style="fill:none;stroke:red;stroke-width:1px;stroke-linecap:butt;stroke-linejoin:miter;stroke-opacity:1" d="M 9.75072,814.852 9.75072,843.606 z" id="boundary" inkscape:connector-curvature="0" />
	<path style="fill:none;stroke:red;stroke-width:1px;stroke-linecap:butt;stroke-linejoin:miter;stroke-opacity:1" d="M 9.75072,843.606 9.75072,872.359 z" id="boundary" inkscape:connector-curvature="0" />
	<path style="fill:none;stroke:red;stroke-width:1px;stroke-linecap:butt;stroke-linejoin:miter;stroke-opacity:1" d="M 9.75072,872.359 9.75072,901.113 z" id="boundary" inkscape:connector-curvature="0" />
	<path style="fill:none;stroke:red;stroke-width:1px;stroke-linecap:butt;stroke-linejoin:miter;stroke-opacity:1" d="M 21.2522,84.5101 21.2522,113.264 z" id="boundary" inkscape:connector-curvature="0" />
	<path style="fill:none;stroke:red;stroke-width:1px;stroke-linecap:butt;stroke-linejoin:miter;stroke-opacity:1" d="M 21.2522,113.264 21.2522,142.017 z" id="boundary" inkscape:connector-curvature="0" />
	<path style="fill:none;stroke:red;stroke-width:1px;stroke-linecap:butt;stroke-linejoin:miter;stroke-opacity:1" d="M 21.2522,142.017 27.0029,170.771 z" id="boundary" inkscape:connector-curvature="0" />
	<path style="fill:none;stroke:red;stroke-width:1px;stroke-linecap:butt;stroke-linejoin:miter;stroke-opacity:1" d="M 27.0029,4 55.7565,4 z" id="boundary" inkscape:connector-curvature="0" />
	<path style="fill:none;stroke:red;stroke-width:1px;stroke-linecap:butt;stroke-linejoin:miter;stroke-opacity:1" d="M 27.0029,170.771 32.7536,199.525 z" id="boundary" inkscape:connector-curvature="0" />
	<path style="fill:none;stroke:red;stroke-width:1px;stroke-linecap:butt;stroke-linejoin:miter;stroke-opacity:1" d="M 29.8783,996 58.6319,996 z" id="boundary" inkscape:connector-curvature="0" />
	<path style="fill:none;stroke:red;stroke-width:1px;stroke-linecap:butt;stroke-linejoin:miter;stroke-opacity:1" d="M 32.7536,199.525 32.7536,228.278 z" id="boundary" inkscape:connector-curvature="0" />
	<path style="fill:none;stroke:red;stroke-width:1px;stroke-linecap:butt;stroke-linejoin:miter;stroke-opacity:1" d="M 32.7536,228.278 38.5043,257.032 z" id="boundary" inkscape:connector-curvature="0" />
	<path style="fill:none;stroke:red;stroke-width:1px;stroke-linecap:butt;stroke-linejoin:miter;stroke-opacity:1" d="M 32.7536,423.803 38.5043,372.046 z" id="boundary" inkscape:connector-curvature="0" />
	<path style="fill:none;stroke:red;stroke-width:1px;stroke-linecap:butt;stroke-linejoin:miter;stroke-opacity:1" d="M 38.5043,257.032 38.5043,285.786 z" id="boundary" inkscape:connector-curvature="0" />
	<path style="fill:none;stroke:red;stroke-width:1px;stroke-linecap:butt;stroke-linejoin:miter;stroke-opacity:1" d="M 38.5043,285.786 38.5043,314.539 z" id="boundary" inkscape:connector-curvature="0" />
	<path style="fill:none;stroke:red;stroke-width:1px;stroke-linecap:butt;stroke-linejoin:miter;stroke-opacity:1" d="M 38.5043,314.539 38.5043,343.293 z" id="boundary" inkscape:connector-curvature="0" />
	<path style="fill:none;stroke:red;stroke-width:1px;stroke-linecap:butt;stroke-linejoin:miter;stroke-opacity:1" d="M 38.5043,343.293 38.5043,372.046 z" id="boundary" inkscape:connector-curvature="0" />
	<path style="fill:none;stroke:red;stroke-width:1px;stroke-linecap:butt;stroke-linejoin:miter;stroke-opacity:1" d="M 55.7565,4 84.5101,4 z" id="boundary" inkscape:connector-curvature="0" />
	<path style="fill:none;stroke:red;stroke-width:1px;stroke-linecap:butt;stroke-linejoin:miter;stroke-opacity:1" d="M 58.6319,996 87.3855,996 z" id="boundary" inkscape:connector-curvature="0" />
	<path style="fill:none;stroke:red;stroke-width:1px;stroke-linecap:butt;stroke-linejoin:miter;stroke-opacity:1" d="M 84.5101,4 113.264,6.87536 z" id="boundary" inkscape:connector-curvature="0" />
	<path style="fill:none;stroke:red;stroke-width:1px;stroke-linecap:butt;stroke-linejoin:miter;stroke-opacity:1" d="M 87.3855,996 116.139,996 z" id="boundary" inkscape:connector-curvature="0" />
	<path style="fill:none;stroke:red;stroke-width:1px;stroke-linecap:butt;stroke-linejoin:miter;stroke-opacity:1" d="M 93.1362,314.539 93.1362,343.293 z" id="boundary" inkscape:connector-curvature="0" />
	<path style="fill:none;stroke:red;stroke-width:1px;stroke-linecap:butt;stroke-linejoin:miter;stroke-opacity:1" d="M 93.1362,314.539 98.887,262.783 z" id="boundary" inkscape:connector-curvature="0" />
	<path style="fill:none;stroke:red;stroke-width:1px;stroke-linecap:butt;stroke-linejoin:miter;stroke-opacity:1" d="M 93.1362,343.293 96.0116,372.046 z" id="boundary" inkscape:connector-curvature="0" />
	<path style="fill:none;stroke:red;stroke-width:1px;stroke-linecap:butt;stroke-linejoin:miter;stroke-opacity:1" d="M 96.0116,372.046 98.887,400.8 z" id="boundary" inkscape:connector-curvature="0" />
	<path style="fill:none;stroke:red;stroke-width:1px;stroke-linecap:butt;stroke-linejoin:miter;stroke-opacity:1" d="M 98.887,205.275 98.887,234.029 z" id="boundary" inkscape:connector-curvature="0" />
	<path style="fill:none;stroke:red;stroke-width:1px;stroke-linecap:butt;stroke-linejoin:miter;stroke-opacity:1" d="M 98.887,205.275 113.264,179.397 z" id="boundary" inkscape:connector-curvature="0" />
	<path style="fill:none;stroke:red;stroke-width:1px;stroke-linecap:butt;stroke-linejoin:miter;stroke-opacity:1" d="M 98.887,234.029 98.887,262.783 z" id="boundary" inkscape:connector-curvature="0" />
	<path style="fill:none;stroke:red;stroke-width:1px;stroke-linecap:butt;stroke-linejoin:miter;stroke-opacity:1" d="M 98.887,400.8 98.887,429.554 z" id="boundary" inkscape:connector-curvature="0" />
	<path style="fill:none;stroke:red;stroke-width:1px;stroke-linecap:butt;stroke-linejoin:miter;stroke-opacity:1" d="M 98.887,429.554 104.638,458.307 z" id="boundary" inkscape:connector-curvature="0" />
	<path style="fill:none;stroke:red;stroke-width:1px;stroke-linecap:butt;stroke-linejoin:miter;stroke-opacity:1" d="M 104.638,458.307 121.89,481.31 z" id="boundary" inkscape:connector-curvature="0" />
	<path style="fill:none;stroke:red;stroke-width:1px;stroke-linecap:butt;stroke-linejoin:miter;stroke-opacity:1" d="M 113.264,6.87536 121.89,35.629 z" id="boundary" inkscape:connector-curvature="0" />
	<path style="fill:none;stroke:red;stroke-width:1px;stroke-linecap:butt;stroke-linejoin:miter;stroke-opacity:1" d="M 113.264,179.397 139.142,150.643 z" id="boundary" inkscape:connector-curvature="0" />
	<path style="fill:none;stroke:red;stroke-width:1px;stroke-linecap:butt;stroke-linejoin:miter;stroke-opacity:1" d="M 116.139,996 127.641,941.368 z" id="boundary" inkscape:connector-curvature="0" />
	<path style="fill:none;stroke:red;stroke-width:1px;stroke-linecap:butt;stroke-linejoin:miter;stroke-opacity:1" d="M 121.89,35.629 127.641,64.3826 z" id="boundary" inkscape:connector-curvature="0" />
	<path style="fill:none;stroke:red;stroke-width:1px;stroke-linecap:butt;stroke-linejoin:miter;stroke-opacity:1" d="M 121.89,481.31 127.641,510.064 z" id="boundary" inkscape:connector-curvature="0" />
	<path style="fill:none;stroke:red;stroke-width:1px;stroke-linecap:butt;stroke-linejoin:miter;stroke-opacity:1" d="M 127.641,64.3826 133.391,93.1362 z" id="boundary" inkscape:connector-curvature="0" />
	<path style="fill:none;stroke:red;stroke-width:1px;stroke-linecap:butt;stroke-linejoin:miter;stroke-opacity:1" d="M 127.641,510.064 127.641,538.817 z" id="boundary" inkscape:connector-curvature="0" />
	<path style="fill:none;stroke:red;stroke-width:1px;stroke-linecap:butt;stroke-linejoin:miter;stroke-opacity:1" d="M 127.641,538.817 127.641,567.571 z" id="boundary" inkscape:connector-curvature="0" />
	<path style="fill:none;stroke:red;stroke-width:1px;stroke-linecap:butt;stroke-linejoin:miter;stroke-opacity:1" d="M 127.641,567.571 127.641,596.325 z" id="boundary" inkscape:connector-curvature="0" />
	<path style="fill:none;stroke:red;stroke-width:1px;stroke-linecap:butt;stroke-linejoin:miter;stroke-opacity:1" d="M 127.641,596.325 127.641,625.078 z" id="boundary" inkscape:connector-curvature="0" />
	<path style="fill:none;stroke:red;stroke-width:1px;stroke-linecap:butt;stroke-linejoin:miter;stroke-opacity:1" d="M 127.641,625.078 127.641,653.832 z" id="boundary" inkscape:connector-curvature="0" />
	<path style="fill:none;stroke:red;stroke-width:1px;stroke-linecap:butt;stroke-linejoin:miter;stroke-opacity:1" d="M 127.641,653.832 127.641,682.586 z" id="boundary" inkscape:connector-curvature="0" />
	<path style="fill:none;stroke:red;stroke-width:1px;stroke-linecap:butt;stroke-linejoin:miter;stroke-opacity:1" d="M 127.641,682.586 127.641,711.339 z" id="boundary" inkscape:connector-curvature="0" />
	<path style="fill:none;stroke:red;stroke-width:1px;stroke-linecap:butt;stroke-linejoin:miter;stroke-opacity:1" d="M 127.641,711.339 127.641,740.093 z" id="boundary" inkscape:connector-curvature="0" />
	<path style="fill:none;stroke:red;stroke-width:1px;stroke-linecap:butt;stroke-linejoin:miter;stroke-opacity:1" d="M 127.641,740.093 127.641,768.846 z" id="boundary" inkscape:connector-curvature="0" />
	<path style="fill:none;stroke:red;stroke-width:1px;stroke-linecap:butt;stroke-linejoin:miter;stroke-opacity:1" d="M 127.641,768.846 127.641,797.6 z" id="boundary" inkscape:connector-curvature="0" />
	<path style="fill:none;stroke:red;stroke-width:1px;stroke-linecap:butt;stroke-linejoin:miter;stroke-opacity:1" d="M 127.641,797.6 127.641,826.354 z" id="boundary" inkscape:connector-curvature="0" />
	<path style="fill:none;stroke:red;stroke-width:1px;stroke-linecap:butt;stroke-linejoin:miter;stroke-opacity:1" d="M 127.641,826.354 127.641,855.107 z" id="boundary" inkscape:connector-curvature="0" />
	<path style="fill:none;stroke:red;stroke-width:1px;stroke-linecap:butt;stroke-linejoin:miter;stroke-opacity:1" d="M 127.641,855.107 127.641,883.861 z" id="boundary" inkscape:connector-curvature="0" />
	<path style="fill:none;stroke:red;stroke-width:1px;stroke-linecap:butt;stroke-linejoin:miter;stroke-opacity:1" d="M 127.641,883.861 127.641,912.614 z" id="boundary" inkscape:connector-curvature="0" />
	<path style="fill:none;stroke:red;stroke-width:1px;stroke-linecap:butt;stroke-linejoin:miter;stroke-opacity:1" d="M 127.641,912.614 127.641,941.368 z" id="boundary" inkscape:connector-curvature="0" />
	<path style="fill:none;stroke:red;stroke-width:1px;stroke-linecap:butt;stroke-linejoin:miter;stroke-opacity:1" d="M 133.391,93.1362 133.391,121.89 z" id="boundary" inkscape:connector-curvature="0" />
	<path style="fill:none;stroke:red;stroke-width:1px;stroke-linecap:butt;stroke-linejoin:miter;stroke-opacity:1" d="M 133.391,121.89 139.142,150.643 z" id="boundary" inkscape:connector-curvature="0" />
	<circle cx="4" cy="952.87" r="4" fill="#0" id="circle0"/>
	<circle cx="4" cy="981.623" r="4" fill="#0" id="circle1"/>
	<circle cx="9.75072" cy="27.0029" r="4" fill="#0" id="circle2"/>
	<circle cx="9.75072" cy="55.7565" r="4" fill="#0" id="circle3"/>
	<circle cx="9.75072" cy="469.809" r="4" fill="#0" id="circle4"/>
	<circle cx="9.75072" cy="498.562" r="4" fill="#0" id="circle5"/>
	<circle cx="9.75072" cy="527.316" r="4" fill="#0" id="circle6"/>
	<circle cx="9.75072" cy="556.07" r="4" fill="#0" id="circle7"/>
	<circle cx="9.75072" cy="584.823" r="4" fill="#0" id="circle8"/>
	<circle cx="9.75072" cy="613.577" r="4" fill="#0" id="circle9"/>
	<circle cx="9.75072" cy="642.33" r="4" fill="#0" id="circle10"/>
	<circle cx="9.75072" cy="671.084" r="4" fill="#0" id="circle11"/>
	<circle cx="9.75072" cy="699.838" r="4" fill="#0" id="circle12"/>
	<circle cx="9.75072" cy="728.591" r="4" fill="#0" id="circle13"/>
	<circle cx="9.75072" cy="757.345" r="4" fill="#0" id="circle14"/>
	<circle cx="9.75072" cy="786.099" r="4" fill="#0" id="circle15"/>
	<circle cx="9.75072" cy="814.852" r="4" fill="#0" id="circle16"/>
	<circle cx="9.75072" cy="843.606" r="4" fill="#0" id="circle17"/>
	<circle cx="9.75072" cy="872.359" r="4" fill="#0" id="circle18"/>
	<circle cx="9.75072" cy="901.113" r="4" fill="#0" id="circle19"/>
	<circle cx="21.2522" cy="84.5101" r="4" fill="#0" id="circle20"/>
	<circle cx="21.2522" cy="113.264" r="4" fill="#0" id="circle21"/>
	<circle cx="21.2522" cy="142.017" r="4" fill="#0" id="circle22"/>
	<circle cx="27.0029" cy="4" r="4" fill="#0" id="circle23"/>
	<circle cx="27.0029" cy="170.771" r="4" fill="#0" id="circle24"/>
	<circle cx="29.8783" cy="996" r="4" fill="#0" id="circle25"/>
	<circle cx="32.7536" cy="199.525" r="4" fill="#0" id="circle26"/>
	<circle cx="32.7536" cy="228.278" r="4" fill="#0" id="circle27"/>
	<circle cx="32.7536" cy="423.803" r="4" fill="#0" id="circle28"/>
	<circle cx="38.5043" cy="257.032" r="4" fill="#0" id="circle29"/>
	<circle cx="38.5043" cy="285.786" r="4" fill="#0" id="circle30"/>
	<circle cx="38.5043" cy="314.539" r="4" fill="#0" id="circle31"/>
	<circle cx="38.5043" cy="343.293" r="4" fill="#0" id="circle32"/>
	<circle cx="38.5043" cy="372.046" r="4" fill="#0" id="circle33"/>
	<circle cx="55.7565" cy="4" r="4" fill="#0" id="circle34"/>
	<circle cx="58.6319" cy="996" r="4" fill="#0" id="circle35"/>
	<circle cx="84.5101" cy="4" r="4" fill="#0" id="circle36"/>
	<circle cx="87.3855" cy="996" r="4" fill="#0" id="circle37"/>
	<circle cx="93.1362" cy="314.539" r="4" fill="#0" id="circle38"/>
	<circle cx="93.1362" cy="343.293" r="4" fill="#0" id="circle39"/>
	<circle cx="96.0116" cy="372.046" r="4" fill="#0" id="circle40"/>
	<circle cx="98.887" cy="205.275" r="4" fill="#0" id="circle41"/>
	<circle cx="98.887" cy="234.029" r="4" fill="#0" id="circle42"/>
	<circle cx="98.887" cy="262.783" r="4" fill="#0" id="circle43"/>
	<circle cx="98.887" cy="400.8" r="4" fill="#0" id="circle44"/>
	<circle cx="98.887" cy="429.554" r="4" fill="#0" id="circle45"/>
	<circle cx="104.638" cy="458.307" r="4" fill="#0" id="circle46"/>
	<circle cx="113.264" cy="6.87536" r="4" fill="#0" id="circle47"/>
	<circle cx="113.264" cy="179.397" r="4" fill="#0" id="circle48"/>
	<circle cx="116.139" cy="996" r="4" fill="#0" id="circle49"/>
	<circle cx="121.89" cy="35.629" r="4" fill="#0" id="circle50"/>
	<circle cx="121.89" cy="481.31" r="4" fill="#0" id="circle51"/>
	<circle cx="127.641" cy="64.3826" r="4" fill="#0" id="circle52"/>
	<circle cx="127.641" cy="510.064" r="4" fill="#0" id="circle53"/>
	<circle cx="127.641" cy="538.817" r="4" fill="#0" id="circle54"/>
	<circle cx="127.641" cy="567.571" r="4" fill="#0" id="circle55"/>
	<circle cx="127.641" cy="596.325" r="4" fill="#0" id="circle56"/>
	<circle cx="127.641" cy="625.078" r="4" fill="#0" id="circle57"/>
	<circle cx="127.641" cy="653.832" r="4" fill="#0" id="circle58"/>
	<circle cx="127.641" cy="682.586" r="4" fill="#0" id="circle59"/>
	<circle cx="127.641" cy="711.339" r="4" fill="#0" id="circle60"/>
	<circle cx="127.641" cy="740.093" r="4" fill="#0" id="circle61"/>
	<circle cx="127.641" cy="768.846" r="4" fill="#0" id="circle62"/>
	<circle cx="127.641" cy="797.6" r="4" fill="#0" id="circle63"/>
	<circle cx="127.641" cy="826.354" r="4" fill="#0" id="circle64"/>
	<circle cx="127.641" cy="855.107" r="4" fill="#0" id="circle65"/>
	<circle cx="127.641" cy="883.861" r="4" fill="#0" id="circle66"/>
	<circle cx="127.641" cy="912.614" r="4" fill="#0" id="circle67"/>
	<circle cx="127.641" cy="941.368" r="4" fill="#0" id="circle68"/>
	<circle cx="133.391" cy="93.1362" r="4" fill="#0" id="circle69"/>
	<circle cx="133.391" cy="121.89" r="4" fill="#0" id="circle70"/>
	<circle cx="139.142" cy="150.643" r="4" fill="#0" id="circle71"/>
	</g>
</svg>