<?xml version="1.0" encoding="UTF-8" standalone="no"?>
<!-- Created with CurveBenchmark -->
<svg
	xmlns:dc="http://purl.org/dc/elements/1.1/"
	xmlns:cc="http://creativecommons.org/ns#"
	xmlns:rdf="http://www.w3.org/1999/02/22-rdf-syntax-ns#"
	xmlns:svg="http://www.w3.org/2000/svg"
	xmlns="http://www.w3.org/2000/svg"
	xmlns:sodipodi="http://sodipodi.sourceforge.net/DTD/sodipodi-0.dtd"
	xmlns:inkscape="http://www.inkscape.org/namespaces/inkscape"
	width="1000"
	height="1000"
	id="svg2"
	version="1.1"
	sodipodi:docname="manifold/discur-face12.png.txt">
<defs
	id="defs4" />
<metadata
	id="metadata7">
	<rdf:RDF>
		<cc:Work
			rdf:about="">
			<dc:format>image/svg+xml</dc:format>
			<dc:type
				rdf:resource="http://purl.org/dc/dcmitype/StillImage" />
			<dc:title></dc:title>
		</cc:Work>
	</rdf:RDF>
</metadata>
<g
	inkscape:label="Layer 1"
	inkscape:groupmode="layer"
	id="layer1">
	<path style="fill:none;stroke:red;stroke-width:1px;stroke-linecap:butt;stroke-linejoin:miter;stroke-opacity:1" d="M 4,442.706 4,459.076 z" id="boundary" inkscape:connector-curvature="0" />
	<path style="fill:none;stroke:red;stroke-width:1px;stroke-linecap:butt;stroke-linejoin:miter;stroke-opacity:1" d="M 4,442.706 20.3696,434.521 z" id="boundary" inkscape:connector-curvature="0" />
	<path style="fill:none;stroke:red;stroke-width:1px;stroke-linecap:butt;stroke-linejoin:miter;stroke-opacity:1" d="M 4,459.076 4,475.446 z" id="boundary" inkscape:connector-curvature="0" />
	<path style="fill:none;stroke:red;stroke-width:1px;stroke-linecap:butt;stroke-linejoin:miter;stroke-opacity:1" d="M 4,475.446 12.1848,490.178 z" id="boundary" inkscape:connector-curvature="0" />
	<path style="fill:none;stroke:red;stroke-width:1px;stroke-linecap:butt;stroke-linejoin:miter;stroke-opacity:1" d="M 12.1848,490.178 20.3696,504.911 z" id="boundary" inkscape:connector-curvature="0" />
	<path style="fill:none;stroke:red;stroke-width:1px;stroke-linecap:butt;stroke-linejoin:miter;stroke-opacity:1" d="M 20.3696,434.521 36.7393,418.152 z" id="boundary" inkscape:connector-curvature="0" />
	<path style="fill:none;stroke:red;stroke-width:1px;stroke-linecap:butt;stroke-linejoin:miter;stroke-opacity:1" d="M 20.3696,504.911 20.3696,521.281 z" id="boundary" inkscape:connector-curvature="0" />
	<path style="fill:none;stroke:red;stroke-width:1px;stroke-linecap:butt;stroke-linejoin:miter;stroke-opacity:1" d="M 20.3696,521.281 28.5545,536.013 z" id="boundary" inkscape:connector-curvature="0" />
	<path style="fill:none;stroke:red;stroke-width:1px;stroke-linecap:butt;stroke-linejoin:miter;stroke-opacity:1" d="M 28.5545,536.013 36.7393,550.746 z" id="boundary" inkscape:connector-curvature="0" />
	<path style="fill:none;stroke:red;stroke-width:1px;stroke-linecap:butt;stroke-linejoin:miter;stroke-opacity:1" d="M 36.7393,254.455 36.7393,270.825 z" id="boundary" inkscape:connector-curvature="0" />
	<path style="fill:none;stroke:red;stroke-width:1px;stroke-linecap:butt;stroke-linejoin:miter;stroke-opacity:1" d="M 36.7393,254.455 44.9241,229.901 z" id="boundary" inkscape:connector-curvature="0" />
	<path style="fill:none;stroke:red;stroke-width:1px;stroke-linecap:butt;stroke-linejoin:miter;stroke-opacity:1" d="M 36.7393,270.825 36.7393,287.195 z" id="boundary" inkscape:connector-curvature="0" />
	<path style="fill:none;stroke:red;stroke-width:1px;stroke-linecap:butt;stroke-linejoin:miter;stroke-opacity:1" d="M 36.7393,287.195 36.7393,303.564 z" id="boundary" inkscape:connector-curvature="0" />
	<path style="fill:none;stroke:red;stroke-width:1px;stroke-linecap:butt;stroke-linejoin:miter;stroke-opacity:1" d="M 36.7393,303.564 36.7393,319.934 z" id="boundary" inkscape:connector-curvature="0" />
	<path style="fill:none;stroke:red;stroke-width:1px;stroke-linecap:butt;stroke-linejoin:miter;stroke-opacity:1" d="M 36.7393,319.934 36.7393,336.304 z" id="boundary" inkscape:connector-curvature="0" />
	<path style="fill:none;stroke:red;stroke-width:1px;stroke-linecap:butt;stroke-linejoin:miter;stroke-opacity:1" d="M 36.7393,336.304 36.7393,352.673 z" id="boundary" inkscape:connector-curvature="0" />
	<path style="fill:none;stroke:red;stroke-width:1px;stroke-linecap:butt;stroke-linejoin:miter;stroke-opacity:1" d="M 36.7393,352.673 36.7393,369.043 z" id="boundary" inkscape:connector-curvature="0" />
	<path style="fill:none;stroke:red;stroke-width:1px;stroke-linecap:butt;stroke-linejoin:miter;stroke-opacity:1" d="M 36.7393,369.043 36.7393,385.413 z" id="boundary" inkscape:connector-curvature="0" />
	<path style="fill:none;stroke:red;stroke-width:1px;stroke-linecap:butt;stroke-linejoin:miter;stroke-opacity:1" d="M 36.7393,385.413 36.7393,401.782 z" id="boundary" inkscape:connector-curvature="0" />
	<path style="fill:none;stroke:red;stroke-width:1px;stroke-linecap:butt;stroke-linejoin:miter;stroke-opacity:1" d="M 36.7393,401.782 36.7393,418.152 z" id="boundary" inkscape:connector-curvature="0" />
	<path style="fill:none;stroke:red;stroke-width:1px;stroke-linecap:butt;stroke-linejoin:miter;stroke-opacity:1" d="M 36.7393,550.746 36.7393,567.116 z" id="boundary" inkscape:connector-curvature="0" />
	<path style="fill:none;stroke:red;stroke-width:1px;stroke-linecap:butt;stroke-linejoin:miter;stroke-opacity:1" d="M 36.7393,567.116 44.9241,581.848 z" id="boundary" inkscape:connector-curvature="0" />
	<path style="fill:none;stroke:red;stroke-width:1px;stroke-linecap:butt;stroke-linejoin:miter;stroke-opacity:1" d="M 44.9241,213.531 44.9241,229.901 z" id="boundary" inkscape:connector-curvature="0" />
	<path style="fill:none;stroke:red;stroke-width:1px;stroke-linecap:butt;stroke-linejoin:miter;stroke-opacity:1" d="M 44.9241,213.531 53.1089,188.977 z" id="boundary" inkscape:connector-curvature="0" />
	<path style="fill:none;stroke:red;stroke-width:1px;stroke-linecap:butt;stroke-linejoin:miter;stroke-opacity:1" d="M 44.9241,581.848 53.1089,596.581 z" id="boundary" inkscape:connector-curvature="0" />
	<path style="fill:none;stroke:red;stroke-width:1px;stroke-linecap:butt;stroke-linejoin:miter;stroke-opacity:1" d="M 53.1089,172.607 53.1089,188.977 z" id="boundary" inkscape:connector-curvature="0" />
	<path style="fill:none;stroke:red;stroke-width:1px;stroke-linecap:butt;stroke-linejoin:miter;stroke-opacity:1" d="M 53.1089,172.607 61.2937,156.238 z" id="boundary" inkscape:connector-curvature="0" />
	<path style="fill:none;stroke:red;stroke-width:1px;stroke-linecap:butt;stroke-linejoin:miter;stroke-opacity:1" d="M 53.1089,596.581 61.2937,611.314 z" id="boundary" inkscape:connector-curvature="0" />
	<path style="fill:none;stroke:red;stroke-width:1px;stroke-linecap:butt;stroke-linejoin:miter;stroke-opacity:1" d="M 61.2937,156.238 74.3894,143.142 z" id="boundary" inkscape:connector-curvature="0" />
	<path style="fill:none;stroke:red;stroke-width:1px;stroke-linecap:butt;stroke-linejoin:miter;stroke-opacity:1" d="M 61.2937,611.314 71.1155,624.409 z" id="boundary" inkscape:connector-curvature="0" />
	<path style="fill:none;stroke:red;stroke-width:1px;stroke-linecap:butt;stroke-linejoin:miter;stroke-opacity:1" d="M 71.1155,624.409 84.2112,635.868 z" id="boundary" inkscape:connector-curvature="0" />
	<path style="fill:none;stroke:red;stroke-width:1px;stroke-linecap:butt;stroke-linejoin:miter;stroke-opacity:1" d="M 74.3894,143.142 82.5743,126.772 z" id="boundary" inkscape:connector-curvature="0" />
	<path style="fill:none;stroke:red;stroke-width:1px;stroke-linecap:butt;stroke-linejoin:miter;stroke-opacity:1" d="M 82.5743,126.772 90.7591,110.403 z" id="boundary" inkscape:connector-curvature="0" />
	<path style="fill:none;stroke:red;stroke-width:1px;stroke-linecap:butt;stroke-linejoin:miter;stroke-opacity:1" d="M 84.2112,635.868 94.033,648.964 z" id="boundary" inkscape:connector-curvature="0" />
	<path style="fill:none;stroke:red;stroke-width:1px;stroke-linecap:butt;stroke-linejoin:miter;stroke-opacity:1" d="M 90.7591,110.403 103.855,97.3069 z" id="boundary" inkscape:connector-curvature="0" />
	<path style="fill:none;stroke:red;stroke-width:1px;stroke-linecap:butt;stroke-linejoin:miter;stroke-opacity:1" d="M 94.033,648.964 94.033,665.333 z" id="boundary" inkscape:connector-curvature="0" />
	<path style="fill:none;stroke:red;stroke-width:1px;stroke-linecap:butt;stroke-linejoin:miter;stroke-opacity:1" d="M 94.033,665.333 94.033,681.703 z" id="boundary" inkscape:connector-curvature="0" />
	<path style="fill:none;stroke:red;stroke-width:1px;stroke-linecap:butt;stroke-linejoin:miter;stroke-opacity:1" d="M 94.033,681.703 102.218,696.436 z" id="boundary" inkscape:connector-curvature="0" />
	<path style="fill:none;stroke:red;stroke-width:1px;stroke-linecap:butt;stroke-linejoin:miter;stroke-opacity:1" d="M 102.218,696.436 102.218,712.805 z" id="boundary" inkscape:connector-curvature="0" />
	<path style="fill:none;stroke:red;stroke-width:1px;stroke-linecap:butt;stroke-linejoin:miter;stroke-opacity:1" d="M 102.218,712.805 110.403,727.538 z" id="boundary" inkscape:connector-curvature="0" />
	<path style="fill:none;stroke:red;stroke-width:1px;stroke-linecap:butt;stroke-linejoin:miter;stroke-opacity:1" d="M 103.855,97.3069 112.04,80.9373 z" id="boundary" inkscape:connector-curvature="0" />
	<path style="fill:none;stroke:red;stroke-width:1px;stroke-linecap:butt;stroke-linejoin:miter;stroke-opacity:1" d="M 110.403,727.538 118.587,742.271 z" id="boundary" inkscape:connector-curvature="0" />
	<path style="fill:none;stroke:red;stroke-width:1px;stroke-linecap:butt;stroke-linejoin:miter;stroke-opacity:1" d="M 112.04,80.9373 125.135,69.4785 z" id="boundary" inkscape:connector-curvature="0" />
	<path style="fill:none;stroke:red;stroke-width:1px;stroke-linecap:butt;stroke-linejoin:miter;stroke-opacity:1" d="M 118.587,742.271 128.409,755.366 z" id="boundary" inkscape:connector-curvature="0" />
	<path style="fill:none;stroke:red;stroke-width:1px;stroke-linecap:butt;stroke-linejoin:miter;stroke-opacity:1" d="M 125.135,69.4785 136.594,56.3828 z" id="boundary" inkscape:connector-curvature="0" />
	<path style="fill:none;stroke:red;stroke-width:1px;stroke-linecap:butt;stroke-linejoin:miter;stroke-opacity:1" d="M 128.409,755.366 143.142,763.551 z" id="boundary" inkscape:connector-curvature="0" />
	<path style="fill:none;stroke:red;stroke-width:1px;stroke-linecap:butt;stroke-linejoin:miter;stroke-opacity:1" d="M 136.594,56.3828 149.69,44.9241 z" id="boundary" inkscape:connector-curvature="0" />
	<path style="fill:none;stroke:red;stroke-width:1px;stroke-linecap:butt;stroke-linejoin:miter;stroke-opacity:1" d="M 143.142,763.551 143.142,779.921 z" id="boundary" inkscape:connector-curvature="0" />
	<path style="fill:none;stroke:red;stroke-width:1px;stroke-linecap:butt;stroke-linejoin:miter;stroke-opacity:1" d="M 143.142,779.921 143.142,796.29 z" id="boundary" inkscape:connector-curvature="0" />
	<path style="fill:none;stroke:red;stroke-width:1px;stroke-linecap:butt;stroke-linejoin:miter;stroke-opacity:1" d="M 143.142,796.29 143.142,812.66 z" id="boundary" inkscape:connector-curvature="0" />
	<path style="fill:none;stroke:red;stroke-width:1px;stroke-linecap:butt;stroke-linejoin:miter;stroke-opacity:1" d="M 143.142,812.66 143.142,829.03 z" id="boundary" inkscape:connector-curvature="0" />
	<path style="fill:none;stroke:red;stroke-width:1px;stroke-linecap:butt;stroke-linejoin:miter;stroke-opacity:1" d="M 143.142,829.03 144.779,845.399 z" id="boundary" inkscape:connector-curvature="0" />
	<path style="fill:none;stroke:red;stroke-width:1px;stroke-linecap:butt;stroke-linejoin:miter;stroke-opacity:1" d="M 144.779,845.399 152.964,860.132 z" id="boundary" inkscape:connector-curvature="0" />
	<path style="fill:none;stroke:red;stroke-width:1px;stroke-linecap:butt;stroke-linejoin:miter;stroke-opacity:1" d="M 149.69,44.9241 164.422,36.7393 z" id="boundary" inkscape:connector-curvature="0" />
	<path style="fill:none;stroke:red;stroke-width:1px;stroke-linecap:butt;stroke-linejoin:miter;stroke-opacity:1" d="M 152.964,860.132 159.512,876.502 z" id="boundary" inkscape:connector-curvature="0" />
	<path style="fill:none;stroke:red;stroke-width:1px;stroke-linecap:butt;stroke-linejoin:miter;stroke-opacity:1" d="M 159.512,876.502 172.607,887.96 z" id="boundary" inkscape:connector-curvature="0" />
	<path style="fill:none;stroke:red;stroke-width:1px;stroke-linecap:butt;stroke-linejoin:miter;stroke-opacity:1" d="M 164.422,36.7393 180.792,28.5545 z" id="boundary" inkscape:connector-curvature="0" />
	<path style="fill:none;stroke:red;stroke-width:1px;stroke-linecap:butt;stroke-linejoin:miter;stroke-opacity:1" d="M 172.607,887.96 184.066,901.056 z" id="boundary" inkscape:connector-curvature="0" />
	<path style="fill:none;stroke:red;stroke-width:1px;stroke-linecap:butt;stroke-linejoin:miter;stroke-opacity:1" d="M 180.792,28.5545 193.888,15.4587 z" id="boundary" inkscape:connector-curvature="0" />
	<path style="fill:none;stroke:red;stroke-width:1px;stroke-linecap:butt;stroke-linejoin:miter;stroke-opacity:1" d="M 184.066,901.056 197.162,912.515 z" id="boundary" inkscape:connector-curvature="0" />
	<path style="fill:none;stroke:red;stroke-width:1px;stroke-linecap:butt;stroke-linejoin:miter;stroke-opacity:1" d="M 193.888,15.4587 210.257,7.27393 z" id="boundary" inkscape:connector-curvature="0" />
	<path style="fill:none;stroke:red;stroke-width:1px;stroke-linecap:butt;stroke-linejoin:miter;stroke-opacity:1" d="M 197.162,912.515 208.62,925.611 z" id="boundary" inkscape:connector-curvature="0" />
	<path style="fill:none;stroke:red;stroke-width:1px;stroke-linecap:butt;stroke-linejoin:miter;stroke-opacity:1" d="M 208.62,925.611 221.716,937.069 z" id="boundary" inkscape:connector-curvature="0" />
	<path style="fill:none;stroke:red;stroke-width:1px;stroke-linecap:butt;stroke-linejoin:miter;stroke-opacity:1" d="M 210.257,7.27393 226.627,4 z" id="boundary" inkscape:connector-curvature="0" />
	<path style="fill:none;stroke:red;stroke-width:1px;stroke-linecap:butt;stroke-linejoin:miter;stroke-opacity:1" d="M 221.716,937.069 236.449,945.254 z" id="boundary" inkscape:connector-curvature="0" />
	<path style="fill:none;stroke:red;stroke-width:1px;stroke-linecap:butt;stroke-linejoin:miter;stroke-opacity:1" d="M 226.627,4 242.997,4 z" id="boundary" inkscape:connector-curvature="0" />
	<path style="fill:none;stroke:red;stroke-width:1px;stroke-linecap:butt;stroke-linejoin:miter;stroke-opacity:1" d="M 236.449,945.254 249.545,955.076 z" id="boundary" inkscape:connector-curvature="0" />
	<path style="fill:none;stroke:red;stroke-width:1px;stroke-linecap:butt;stroke-linejoin:miter;stroke-opacity:1" d="M 242.997,4 259.366,4 z" id="boundary" inkscape:connector-curvature="0" />
	<path style="fill:none;stroke:red;stroke-width:1px;stroke-linecap:butt;stroke-linejoin:miter;stroke-opacity:1" d="M 249.545,955.076 259.366,968.172 z" id="boundary" inkscape:connector-curvature="0" />
	<path style="fill:none;stroke:red;stroke-width:1px;stroke-linecap:butt;stroke-linejoin:miter;stroke-opacity:1" d="M 259.366,4 275.736,4 z" id="boundary" inkscape:connector-curvature="0" />
	<path style="fill:none;stroke:red;stroke-width:1px;stroke-linecap:butt;stroke-linejoin:miter;stroke-opacity:1" d="M 259.366,968.172 272.462,979.63 z" id="boundary" inkscape:connector-curvature="0" />
	<path style="fill:none;stroke:red;stroke-width:1px;stroke-linecap:butt;stroke-linejoin:miter;stroke-opacity:1" d="M 272.462,979.63 287.195,987.815 z" id="boundary" inkscape:connector-curvature="0" />
	<path style="fill:none;stroke:red;stroke-width:1px;stroke-linecap:butt;stroke-linejoin:miter;stroke-opacity:1" d="M 275.736,4 292.106,4 z" id="boundary" inkscape:connector-curvature="0" />
	<path style="fill:none;stroke:red;stroke-width:1px;stroke-linecap:butt;stroke-linejoin:miter;stroke-opacity:1" d="M 287.195,987.815 303.564,987.815 z" id="boundary" inkscape:connector-curvature="0" />
	<path style="fill:none;stroke:red;stroke-width:1px;stroke-linecap:butt;stroke-linejoin:miter;stroke-opacity:1" d="M 292.106,4 308.475,4 z" id="boundary" inkscape:connector-curvature="0" />
	<path style="fill:none;stroke:red;stroke-width:1px;stroke-linecap:butt;stroke-linejoin:miter;stroke-opacity:1" d="M 303.564,987.815 318.297,996 z" id="boundary" inkscape:connector-curvature="0" />
	<path style="fill:none;stroke:red;stroke-width:1px;stroke-linecap:butt;stroke-linejoin:miter;stroke-opacity:1" d="M 308.475,4 324.845,4 z" id="boundary" inkscape:connector-curvature="0" />
	<path style="fill:none;stroke:red;stroke-width:1px;stroke-linecap:butt;stroke-linejoin:miter;stroke-opacity:1" d="M 318.297,996 334.667,996 z" id="boundary" inkscape:connector-curvature="0" />
	<path style="fill:none;stroke:red;stroke-width:1px;stroke-linecap:butt;stroke-linejoin:miter;stroke-opacity:1" d="M 324.845,4 341.215,4 z" id="boundary" inkscape:connector-curvature="0" />
	<path style="fill:none;stroke:red;stroke-width:1px;stroke-linecap:butt;stroke-linejoin:miter;stroke-opacity:1" d="M 334.667,996 349.399,987.815 z" id="boundary" inkscape:connector-curvature="0" />
	<path style="fill:none;stroke:red;stroke-width:1px;stroke-linecap:butt;stroke-linejoin:miter;stroke-opacity:1" d="M 341.215,4 357.584,8.91089 z" id="boundary" inkscape:connector-curvature="0" />
	<path style="fill:none;stroke:red;stroke-width:1px;stroke-linecap:butt;stroke-linejoin:miter;stroke-opacity:1" d="M 349.399,987.815 365.769,987.815 z" id="boundary" inkscape:connector-curvature="0" />
	<path style="fill:none;stroke:red;stroke-width:1px;stroke-linecap:butt;stroke-linejoin:miter;stroke-opacity:1" d="M 357.584,8.91089 372.317,17.0957 z" id="boundary" inkscape:connector-curvature="0" />
	<path style="fill:none;stroke:red;stroke-width:1px;stroke-linecap:butt;stroke-linejoin:miter;stroke-opacity:1" d="M 365.769,987.815 378.865,976.356 z" id="boundary" inkscape:connector-curvature="0" />
	<path style="fill:none;stroke:red;stroke-width:1px;stroke-linecap:butt;stroke-linejoin:miter;stroke-opacity:1" d="M 372.317,17.0957 385.413,28.5545 z" id="boundary" inkscape:connector-curvature="0" />
	<path style="fill:none;stroke:red;stroke-width:1px;stroke-linecap:butt;stroke-linejoin:miter;stroke-opacity:1" d="M 378.865,976.356 390.323,963.261 z" id="boundary" inkscape:connector-curvature="0" />
	<path style="fill:none;stroke:red;stroke-width:1px;stroke-linecap:butt;stroke-linejoin:miter;stroke-opacity:1" d="M 385.413,28.5545 396.871,41.6502 z" id="boundary" inkscape:connector-curvature="0" />
	<path style="fill:none;stroke:red;stroke-width:1px;stroke-linecap:butt;stroke-linejoin:miter;stroke-opacity:1" d="M 390.323,963.261 406.693,955.076 z" id="boundary" inkscape:connector-curvature="0" />
	<path style="fill:none;stroke:red;stroke-width:1px;stroke-linecap:butt;stroke-linejoin:miter;stroke-opacity:1" d="M 396.871,41.6502 413.241,41.6502 z" id="boundary" inkscape:connector-curvature="0" />
	<path style="fill:none;stroke:red;stroke-width:1px;stroke-linecap:butt;stroke-linejoin:miter;stroke-opacity:1" d="M 406.693,955.076 423.063,946.891 z" id="boundary" inkscape:connector-curvature="0" />
	<path style="fill:none;stroke:red;stroke-width:1px;stroke-linecap:butt;stroke-linejoin:miter;stroke-opacity:1" d="M 413.241,41.6502 429.611,33.4653 z" id="boundary" inkscape:connector-curvature="0" />
	<path style="fill:none;stroke:red;stroke-width:1px;stroke-linecap:butt;stroke-linejoin:miter;stroke-opacity:1" d="M 423.063,946.891 436.158,935.432 z" id="boundary" inkscape:connector-curvature="0" />
	<path style="fill:none;stroke:red;stroke-width:1px;stroke-linecap:butt;stroke-linejoin:miter;stroke-opacity:1" d="M 429.611,33.4653 445.98,28.5545 z" id="boundary" inkscape:connector-curvature="0" />
	<path style="fill:none;stroke:red;stroke-width:1px;stroke-linecap:butt;stroke-linejoin:miter;stroke-opacity:1" d="M 436.158,935.432 447.617,922.337 z" id="boundary" inkscape:connector-curvature="0" />
	<path style="fill:none;stroke:red;stroke-width:1px;stroke-linecap:butt;stroke-linejoin:miter;stroke-opacity:1" d="M 445.98,28.5545 462.35,28.5545 z" id="boundary" inkscape:connector-curvature="0" />
	<path style="fill:none;stroke:red;stroke-width:1px;stroke-linecap:butt;stroke-linejoin:miter;stroke-opacity:1" d="M 447.617,922.337 460.713,910.878 z" id="boundary" inkscape:connector-curvature="0" />
	<path style="fill:none;stroke:red;stroke-width:1px;stroke-linecap:butt;stroke-linejoin:miter;stroke-opacity:1" d="M 460.713,910.878 468.898,894.508 z" id="boundary" inkscape:connector-curvature="0" />
	<path style="fill:none;stroke:red;stroke-width:1px;stroke-linecap:butt;stroke-linejoin:miter;stroke-opacity:1" d="M 462.35,28.5545 477.083,36.7393 z" id="boundary" inkscape:connector-curvature="0" />
	<path style="fill:none;stroke:red;stroke-width:1px;stroke-linecap:butt;stroke-linejoin:miter;stroke-opacity:1" d="M 468.898,894.508 480.356,873.228 z" id="boundary" inkscape:connector-curvature="0" />
	<path style="fill:none;stroke:red;stroke-width:1px;stroke-linecap:butt;stroke-linejoin:miter;stroke-opacity:1" d="M 477.083,36.7393 491.815,44.9241 z" id="boundary" inkscape:connector-curvature="0" />
	<path style="fill:none;stroke:red;stroke-width:1px;stroke-linecap:butt;stroke-linejoin:miter;stroke-opacity:1" d="M 480.356,873.228 493.452,861.769 z" id="boundary" inkscape:connector-curvature="0" />
	<path style="fill:none;stroke:red;stroke-width:1px;stroke-linecap:butt;stroke-linejoin:miter;stroke-opacity:1" d="M 491.815,44.9241 506.548,53.1089 z" id="boundary" inkscape:connector-curvature="0" />
	<path style="fill:none;stroke:red;stroke-width:1px;stroke-linecap:butt;stroke-linejoin:miter;stroke-opacity:1" d="M 493.452,861.769 504.911,848.673 z" id="boundary" inkscape:connector-curvature="0" />
	<path style="fill:none;stroke:red;stroke-width:1px;stroke-linecap:butt;stroke-linejoin:miter;stroke-opacity:1" d="M 504.911,832.304 504.911,848.673 z" id="boundary" inkscape:connector-curvature="0" />
	<path style="fill:none;stroke:red;stroke-width:1px;stroke-linecap:butt;stroke-linejoin:miter;stroke-opacity:1" d="M 504.911,832.304 513.096,815.934 z" id="boundary" inkscape:connector-curvature="0" />
	<path style="fill:none;stroke:red;stroke-width:1px;stroke-linecap:butt;stroke-linejoin:miter;stroke-opacity:1" d="M 506.548,53.1089 519.644,64.5677 z" id="boundary" inkscape:connector-curvature="0" />
	<path style="fill:none;stroke:red;stroke-width:1px;stroke-linecap:butt;stroke-linejoin:miter;stroke-opacity:1" d="M 513.096,734.086 513.096,750.455 z" id="boundary" inkscape:connector-curvature="0" />
	<path style="fill:none;stroke:red;stroke-width:1px;stroke-linecap:butt;stroke-linejoin:miter;stroke-opacity:1" d="M 513.096,734.086 521.281,709.531 z" id="boundary" inkscape:connector-curvature="0" />
	<path style="fill:none;stroke:red;stroke-width:1px;stroke-linecap:butt;stroke-linejoin:miter;stroke-opacity:1" d="M 513.096,750.455 513.096,766.825 z" id="boundary" inkscape:connector-curvature="0" />
	<path style="fill:none;stroke:red;stroke-width:1px;stroke-linecap:butt;stroke-linejoin:miter;stroke-opacity:1" d="M 513.096,766.825 513.096,783.195 z" id="boundary" inkscape:connector-curvature="0" />
	<path style="fill:none;stroke:red;stroke-width:1px;stroke-linecap:butt;stroke-linejoin:miter;stroke-opacity:1" d="M 513.096,783.195 513.096,799.564 z" id="boundary" inkscape:connector-curvature="0" />
	<path style="fill:none;stroke:red;stroke-width:1px;stroke-linecap:butt;stroke-linejoin:miter;stroke-opacity:1" d="M 513.096,799.564 513.096,815.934 z" id="boundary" inkscape:connector-curvature="0" />
	<path style="fill:none;stroke:red;stroke-width:1px;stroke-linecap:butt;stroke-linejoin:miter;stroke-opacity:1" d="M 519.644,64.5677 534.376,72.7525 z" id="boundary" inkscape:connector-curvature="0" />
	<path style="fill:none;stroke:red;stroke-width:1px;stroke-linecap:butt;stroke-linejoin:miter;stroke-opacity:1" d="M 521.281,709.531 529.465,693.162 z" id="boundary" inkscape:connector-curvature="0" />
	<path style="fill:none;stroke:red;stroke-width:1px;stroke-linecap:butt;stroke-linejoin:miter;stroke-opacity:1" d="M 529.465,693.162 542.561,681.703 z" id="boundary" inkscape:connector-curvature="0" />
	<path style="fill:none;stroke:red;stroke-width:1px;stroke-linecap:butt;stroke-linejoin:miter;stroke-opacity:1" d="M 534.376,72.7525 545.835,85.8482 z" id="boundary" inkscape:connector-curvature="0" />
	<path style="fill:none;stroke:red;stroke-width:1px;stroke-linecap:butt;stroke-linejoin:miter;stroke-opacity:1" d="M 542.561,681.703 545.835,652.238 z" id="boundary" inkscape:connector-curvature="0" />
	<path style="fill:none;stroke:red;stroke-width:1px;stroke-linecap:butt;stroke-linejoin:miter;stroke-opacity:1" d="M 545.835,85.8482 558.931,95.67 z" id="boundary" inkscape:connector-curvature="0" />
	<path style="fill:none;stroke:red;stroke-width:1px;stroke-linecap:butt;stroke-linejoin:miter;stroke-opacity:1" d="M 545.835,652.238 554.02,627.683 z" id="boundary" inkscape:connector-curvature="0" />
	<path style="fill:none;stroke:red;stroke-width:1px;stroke-linecap:butt;stroke-linejoin:miter;stroke-opacity:1" d="M 554.02,611.314 554.02,627.683 z" id="boundary" inkscape:connector-curvature="0" />
	<path style="fill:none;stroke:red;stroke-width:1px;stroke-linecap:butt;stroke-linejoin:miter;stroke-opacity:1" d="M 554.02,611.314 570.389,603.129 z" id="boundary" inkscape:connector-curvature="0" />
	<path style="fill:none;stroke:red;stroke-width:1px;stroke-linecap:butt;stroke-linejoin:miter;stroke-opacity:1" d="M 558.931,95.67 570.389,108.766 z" id="boundary" inkscape:connector-curvature="0" />
	<path style="fill:none;stroke:red;stroke-width:1px;stroke-linecap:butt;stroke-linejoin:miter;stroke-opacity:1" d="M 570.389,108.766 570.389,125.135 z" id="boundary" inkscape:connector-curvature="0" />
	<path style="fill:none;stroke:red;stroke-width:1px;stroke-linecap:butt;stroke-linejoin:miter;stroke-opacity:1" d="M 570.389,125.135 578.574,139.868 z" id="boundary" inkscape:connector-curvature="0" />
	<path style="fill:none;stroke:red;stroke-width:1px;stroke-linecap:butt;stroke-linejoin:miter;stroke-opacity:1" d="M 570.389,603.129 583.485,591.67 z" id="boundary" inkscape:connector-curvature="0" />
	<path style="fill:none;stroke:red;stroke-width:1px;stroke-linecap:butt;stroke-linejoin:miter;stroke-opacity:1" d="M 578.574,139.868 586.759,154.601 z" id="boundary" inkscape:connector-curvature="0" />
	<path style="fill:none;stroke:red;stroke-width:1px;stroke-linecap:butt;stroke-linejoin:miter;stroke-opacity:1" d="M 583.485,591.67 594.944,578.574 z" id="boundary" inkscape:connector-curvature="0" />
	<path style="fill:none;stroke:red;stroke-width:1px;stroke-linecap:butt;stroke-linejoin:miter;stroke-opacity:1" d="M 586.759,154.601 591.67,170.97 z" id="boundary" inkscape:connector-curvature="0" />
	<path style="fill:none;stroke:red;stroke-width:1px;stroke-linecap:butt;stroke-linejoin:miter;stroke-opacity:1" d="M 586.759,341.215 586.759,357.584 z" id="boundary" inkscape:connector-curvature="0" />
	<path style="fill:none;stroke:red;stroke-width:1px;stroke-linecap:butt;stroke-linejoin:miter;stroke-opacity:1" d="M 586.759,341.215 594.944,318.297 z" id="boundary" inkscape:connector-curvature="0" />
	<path style="fill:none;stroke:red;stroke-width:1px;stroke-linecap:butt;stroke-linejoin:miter;stroke-opacity:1" d="M 586.759,357.584 586.759,373.954 z" id="boundary" inkscape:connector-curvature="0" />
	<path style="fill:none;stroke:red;stroke-width:1px;stroke-linecap:butt;stroke-linejoin:miter;stroke-opacity:1" d="M 586.759,373.954 594.944,388.686 z" id="boundary" inkscape:connector-curvature="0" />
	<path style="fill:none;stroke:red;stroke-width:1px;stroke-linecap:butt;stroke-linejoin:miter;stroke-opacity:1" d="M 591.67,170.97 594.944,187.34 z" id="boundary" inkscape:connector-curvature="0" />
	<path style="fill:none;stroke:red;stroke-width:1px;stroke-linecap:butt;stroke-linejoin:miter;stroke-opacity:1" d="M 594.944,187.34 594.944,203.71 z" id="boundary" inkscape:connector-curvature="0" />
	<path style="fill:none;stroke:red;stroke-width:1px;stroke-linecap:butt;stroke-linejoin:miter;stroke-opacity:1" d="M 594.944,203.71 594.944,220.079 z" id="boundary" inkscape:connector-curvature="0" />
	<path style="fill:none;stroke:red;stroke-width:1px;stroke-linecap:butt;stroke-linejoin:miter;stroke-opacity:1" d="M 594.944,220.079 594.944,236.449 z" id="boundary" inkscape:connector-curvature="0" />
	<path style="fill:none;stroke:red;stroke-width:1px;stroke-linecap:butt;stroke-linejoin:miter;stroke-opacity:1" d="M 594.944,236.449 594.944,252.818 z" id="boundary" inkscape:connector-curvature="0" />
	<path style="fill:none;stroke:red;stroke-width:1px;stroke-linecap:butt;stroke-linejoin:miter;stroke-opacity:1" d="M 594.944,252.818 594.944,269.188 z" id="boundary" inkscape:connector-curvature="0" />
	<path style="fill:none;stroke:red;stroke-width:1px;stroke-linecap:butt;stroke-linejoin:miter;stroke-opacity:1" d="M 594.944,269.188 594.944,285.558 z" id="boundary" inkscape:connector-curvature="0" />
	<path style="fill:none;stroke:red;stroke-width:1px;stroke-linecap:butt;stroke-linejoin:miter;stroke-opacity:1" d="M 594.944,285.558 594.944,301.927 z" id="boundary" inkscape:connector-curvature="0" />
	<path style="fill:none;stroke:red;stroke-width:1px;stroke-linecap:butt;stroke-linejoin:miter;stroke-opacity:1" d="M 594.944,301.927 594.944,318.297 z" id="boundary" inkscape:connector-curvature="0" />
	<path style="fill:none;stroke:red;stroke-width:1px;stroke-linecap:butt;stroke-linejoin:miter;stroke-opacity:1" d="M 594.944,388.686 611.314,393.597 z" id="boundary" inkscape:connector-curvature="0" />
	<path style="fill:none;stroke:red;stroke-width:1px;stroke-linecap:butt;stroke-linejoin:miter;stroke-opacity:1" d="M 594.944,562.205 594.944,578.574 z" id="boundary" inkscape:connector-curvature="0" />
	<path style="fill:none;stroke:red;stroke-width:1px;stroke-linecap:butt;stroke-linejoin:miter;stroke-opacity:1" d="M 594.944,562.205 603.129,545.835 z" id="boundary" inkscape:connector-curvature="0" />
	<path style="fill:none;stroke:red;stroke-width:1px;stroke-linecap:butt;stroke-linejoin:miter;stroke-opacity:1" d="M 603.129,545.835 611.314,529.465 z" id="boundary" inkscape:connector-curvature="0" />
	<path style="fill:none;stroke:red;stroke-width:1px;stroke-linecap:butt;stroke-linejoin:miter;stroke-opacity:1" d="M 611.314,393.597 619.498,408.33 z" id="boundary" inkscape:connector-curvature="0" />
	<path style="fill:none;stroke:red;stroke-width:1px;stroke-linecap:butt;stroke-linejoin:miter;stroke-opacity:1" d="M 611.314,463.987 611.314,480.356 z" id="boundary" inkscape:connector-curvature="0" />
	<path style="fill:none;stroke:red;stroke-width:1px;stroke-linecap:butt;stroke-linejoin:miter;stroke-opacity:1" d="M 611.314,463.987 619.498,441.069 z" id="boundary" inkscape:connector-curvature="0" />
	<path style="fill:none;stroke:red;stroke-width:1px;stroke-linecap:butt;stroke-linejoin:miter;stroke-opacity:1" d="M 611.314,480.356 611.314,496.726 z" id="boundary" inkscape:connector-curvature="0" />
	<path style="fill:none;stroke:red;stroke-width:1px;stroke-linecap:butt;stroke-linejoin:miter;stroke-opacity:1" d="M 611.314,496.726 611.314,513.096 z" id="boundary" inkscape:connector-curvature="0" />
	<path style="fill:none;stroke:red;stroke-width:1px;stroke-linecap:butt;stroke-linejoin:miter;stroke-opacity:1" d="M 611.314,513.096 611.314,529.465 z" id="boundary" inkscape:connector-curvature="0" />
	<path style="fill:none;stroke:red;stroke-width:1px;stroke-linecap:butt;stroke-linejoin:miter;stroke-opacity:1" d="M 619.498,408.33 619.498,424.7 z" id="boundary" inkscape:connector-curvature="0" />
	<path style="fill:none;stroke:red;stroke-width:1px;stroke-linecap:butt;stroke-linejoin:miter;stroke-opacity:1" d="M 619.498,424.7 619.498,441.069 z" id="boundary" inkscape:connector-curvature="0" />
	<circle cx="4" cy="442.706" r="4" fill="#0" id="circle0"/>
	<circle cx="4" cy="459.076" r="4" fill="#0" id="circle1"/>
	<circle cx="4" cy="475.446" r="4" fill="#0" id="circle2"/>
	<circle cx="12.1848" cy="490.178" r="4" fill="#0" id="circle3"/>
	<circle cx="20.3696" cy="434.521" r="4" fill="#0" id="circle4"/>
	<circle cx="20.3696" cy="504.911" r="4" fill="#0" id="circle5"/>
	<circle cx="20.3696" cy="521.281" r="4" fill="#0" id="circle6"/>
	<circle cx="28.5545" cy="536.013" r="4" fill="#0" id="circle7"/>
	<circle cx="36.7393" cy="254.455" r="4" fill="#0" id="circle8"/>
	<circle cx="36.7393" cy="270.825" r="4" fill="#0" id="circle9"/>
	<circle cx="36.7393" cy="287.195" r="4" fill="#0" id="circle10"/>
	<circle cx="36.7393" cy="303.564" r="4" fill="#0" id="circle11"/>
	<circle cx="36.7393" cy="319.934" r="4" fill="#0" id="circle12"/>
	<circle cx="36.7393" cy="336.304" r="4" fill="#0" id="circle13"/>
	<circle cx="36.7393" cy="352.673" r="4" fill="#0" id="circle14"/>
	<circle cx="36.7393" cy="369.043" r="4" fill="#0" id="circle15"/>
	<circle cx="36.7393" cy="385.413" r="4" fill="#0" id="circle16"/>
	<circle cx="36.7393" cy="401.782" r="4" fill="#0" id="circle17"/>
	<circle cx="36.7393" cy="418.152" r="4" fill="#0" id="circle18"/>
	<circle cx="36.7393" cy="550.746" r="4" fill="#0" id="circle19"/>
	<circle cx="36.7393" cy="567.116" r="4" fill="#0" id="circle20"/>
	<circle cx="44.9241" cy="213.531" r="4" fill="#0" id="circle21"/>
	<circle cx="44.9241" cy="229.901" r="4" fill="#0" id="circle22"/>
	<circle cx="44.9241" cy="581.848" r="4" fill="#0" id="circle23"/>
	<circle cx="53.1089" cy="172.607" r="4" fill="#0" id="circle24"/>
	<circle cx="53.1089" cy="188.977" r="4" fill="#0" id="circle25"/>
	<circle cx="53.1089" cy="596.581" r="4" fill="#0" id="circle26"/>
	<circle cx="61.2937" cy="156.238" r="4" fill="#0" id="circle27"/>
	<circle cx="61.2937" cy="611.314" r="4" fill="#0" id="circle28"/>
	<circle cx="71.1155" cy="624.409" r="4" fill="#0" id="circle29"/>
	<circle cx="74.3894" cy="143.142" r="4" fill="#0" id="circle30"/>
	<circle cx="82.5743" cy="126.772" r="4" fill="#0" id="circle31"/>
	<circle cx="84.2112" cy="635.868" r="4" fill="#0" id="circle32"/>
	<circle cx="90.7591" cy="110.403" r="4" fill="#0" id="circle33"/>
	<circle cx="94.033" cy="648.964" r="4" fill="#0" id="circle34"/>
	<circle cx="94.033" cy="665.333" r="4" fill="#0" id="circle35"/>
	<circle cx="94.033" cy="681.703" r="4" fill="#0" id="circle36"/>
	<circle cx="102.218" cy="696.436" r="4" fill="#0" id="circle37"/>
	<circle cx="102.218" cy="712.805" r="4" fill="#0" id="circle38"/>
	<circle cx="103.855" cy="97.3069" r="4" fill="#0" id="circle39"/>
	<circle cx="110.403" cy="727.538" r="4" fill="#0" id="circle40"/>
	<circle cx="112.04" cy="80.9373" r="4" fill="#0" id="circle41"/>
	<circle cx="118.587" cy="742.271" r="4" fill="#0" id="circle42"/>
	<circle cx="125.135" cy="69.4785" r="4" fill="#0" id="circle43"/>
	<circle cx="128.409" cy="755.366" r="4" fill="#0" id="circle44"/>
	<circle cx="136.594" cy="56.3828" r="4" fill="#0" id="circle45"/>
	<circle cx="143.142" cy="763.551" r="4" fill="#0" id="circle46"/>
	<circle cx="143.142" cy="779.921" r="4" fill="#0" id="circle47"/>
	<circle cx="143.142" cy="796.29" r="4" fill="#0" id="circle48"/>
	<circle cx="143.142" cy="812.66" r="4" fill="#0" id="circle49"/>
	<circle cx="143.142" cy="829.03" r="4" fill="#0" id="circle50"/>
	<circle cx="144.779" cy="845.399" r="4" fill="#0" id="circle51"/>
	<circle cx="149.69" cy="44.9241" r="4" fill="#0" id="circle52"/>
	<circle cx="152.964" cy="860.132" r="4" fill="#0" id="circle53"/>
	<circle cx="159.512" cy="876.502" r="4" fill="#0" id="circle54"/>
	<circle cx="164.422" cy="36.7393" r="4" fill="#0" id="circle55"/>
	<circle cx="172.607" cy="887.96" r="4" fill="#0" id="circle56"/>
	<circle cx="180.792" cy="28.5545" r="4" fill="#0" id="circle57"/>
	<circle cx="184.066" cy="901.056" r="4" fill="#0" id="circle58"/>
	<circle cx="193.888" cy="15.4587" r="4" fill="#0" id="circle59"/>
	<circle cx="197.162" cy="912.515" r="4" fill="#0" id="circle60"/>
	<circle cx="208.62" cy="925.611" r="4" fill="#0" id="circle61"/>
	<circle cx="210.257" cy="7.27393" r="4" fill="#0" id="circle62"/>
	<circle cx="221.716" cy="937.069" r="4" fill="#0" id="circle63"/>
	<circle cx="226.627" cy="4" r="4" fill="#0" id="circle64"/>
	<circle cx="236.449" cy="945.254" r="4" fill="#0" id="circle65"/>
	<circle cx="242.997" cy="4" r="4" fill="#0" id="circle66"/>
	<circle cx="249.545" cy="955.076" r="4" fill="#0" id="circle67"/>
	<circle cx="259.366" cy="4" r="4" fill="#0" id="circle68"/>
	<circle cx="259.366" cy="968.172" r="4" fill="#0" id="circle69"/>
	<circle cx="272.462" cy="979.63" r="4" fill="#0" id="circle70"/>
	<circle cx="275.736" cy="4" r="4" fill="#0" id="circle71"/>
	<circle cx="287.195" cy="987.815" r="4" fill="#0" id="circle72"/>
	<circle cx="292.106" cy="4" r="4" fill="#0" id="circle73"/>
	<circle cx="303.564" cy="987.815" r="4" fill="#0" id="circle74"/>
	<circle cx="308.475" cy="4" r="4" fill="#0" id="circle75"/>
	<circle cx="318.297" cy="996" r="4" fill="#0" id="circle76"/>
	<circle cx="324.845" cy="4" r="4" fill="#0" id="circle77"/>
	<circle cx="334.667" cy="996" r="4" fill="#0" id="circle78"/>
	<circle cx="341.215" cy="4" r="4" fill="#0" id="circle79"/>
	<circle cx="349.399" cy="987.815" r="4" fill="#0" id="circle80"/>
	<circle cx="357.584" cy="8.91089" r="4" fill="#0" id="circle81"/>
	<circle cx="365.769" cy="987.815" r="4" fill="#0" id="circle82"/>
	<circle cx="372.317" cy="17.0957" r="4" fill="#0" id="circle83"/>
	<circle cx="378.865" cy="976.356" r="4" fill="#0" id="circle84"/>
	<circle cx="385.413" cy="28.5545" r="4" fill="#0" id="circle85"/>
	<circle cx="390.323" cy="963.261" r="4" fill="#0" id="circle86"/>
	<circle cx="396.871" cy="41.6502" r="4" fill="#0" id="circle87"/>
	<circle cx="406.693" cy="955.076" r="4" fill="#0" id="circle88"/>
	<circle cx="413.241" cy="41.6502" r="4" fill="#0" id="circle89"/>
	<circle cx="423.063" cy="946.891" r="4" fill="#0" id="circle90"/>
	<circle cx="429.611" cy="33.4653" r="4" fill="#0" id="circle91"/>
	<circle cx="436.158" cy="935.432" r="4" fill="#0" id="circle92"/>
	<circle cx="445.98" cy="28.5545" r="4" fill="#0" id="circle93"/>
	<circle cx="447.617" cy="922.337" r="4" fill="#0" id="circle94"/>
	<circle cx="460.713" cy="910.878" r="4" fill="#0" id="circle95"/>
	<circle cx="462.35" cy="28.5545" r="4" fill="#0" id="circle96"/>
	<circle cx="468.898" cy="894.508" r="4" fill="#0" id="circle97"/>
	<circle cx="477.083" cy="36.7393" r="4" fill="#0" id="circle98"/>
	<circle cx="480.356" cy="873.228" r="4" fill="#0" id="circle99"/>
	<circle cx="491.815" cy="44.9241" r="4" fill="#0" id="circle100"/>
	<circle cx="493.452" cy="861.769" r="4" fill="#0" id="circle101"/>
	<circle cx="504.911" cy="832.304" r="4" fill="#0" id="circle102"/>
	<circle cx="504.911" cy="848.673" r="4" fill="#0" id="circle103"/>
	<circle cx="506.548" cy="53.1089" r="4" fill="#0" id="circle104"/>
	<circle cx="513.096" cy="734.086" r="4" fill="#0" id="circle105"/>
	<circle cx="513.096" cy="750.455" r="4" fill="#0" id="circle106"/>
	<circle cx="513.096" cy="766.825" r="4" fill="#0" id="circle107"/>
	<circle cx="513.096" cy="783.195" r="4" fill="#0" id="circle108"/>
	<circle cx="513.096" cy="799.564" r="4" fill="#0" id="circle109"/>
	<circle cx="513.096" cy="815.934" r="4" fill="#0" id="circle110"/>
	<circle cx="519.644" cy="64.5677" r="4" fill="#0" id="circle111"/>
	<circle cx="521.281" cy="709.531" r="4" fill="#0" id="circle112"/>
	<circle cx="529.465" cy="693.162" r="4" fill="#0" id="circle113"/>
	<circle cx="534.376" cy="72.7525" r="4" fill="#0" id="circle114"/>
	<circle cx="542.561" cy="681.703" r="4" fill="#0" id="circle115"/>
	<circle cx="545.835" cy="85.8482" r="4" fill="#0" id="circle116"/>
	<circle cx="545.835" cy="652.238" r="4" fill="#0" id="circle117"/>
	<circle cx="554.02" cy="611.314" r="4" fill="#0" id="circle118"/>
	<circle cx="554.02" cy="627.683" r="4" fill="#0" id="circle119"/>
	<circle cx="558.931" cy="95.67" r="4" fill="#0" id="circle120"/>
	<circle cx="570.389" cy="108.766" r="4" fill="#0" id="circle121"/>
	<circle cx="570.389" cy="125.135" r="4" fill="#0" id="circle122"/>
	<circle cx="570.389" cy="603.129" r="4" fill="#0" id="circle123"/>
	<circle cx="578.574" cy="139.868" r="4" fill="#0" id="circle124"/>
	<circle cx="583.485" cy="591.67" r="4" fill="#0" id="circle125"/>
	<circle cx="586.759" cy="154.601" r="4" fill="#0" id="circle126"/>
	<circle cx="586.759" cy="341.215" r="4" fill="#0" id="circle127"/>
	<circle cx="586.759" cy="357.584" r="4" fill="#0" id="circle128"/>
	<circle cx="586.759" cy="373.954" r="4" fill="#0" id="circle129"/>
	<circle cx="591.67" cy="170.97" r="4" fill="#0" id="circle130"/>
	<circle cx="594.944" cy="187.34" r="4" fill="#0" id="circle131"/>
	<circle cx="594.944" cy="203.71" r="4" fill="#0" id="circle132"/>
	<circle cx="594.944" cy="220.079" r="4" fill="#0" id="circle133"/>
	<circle cx="594.944" cy="236.449" r="4" fill="#0" id="circle134"/>
	<circle cx="594.944" cy="252.818" r="4" fill="#0" id="circle135"/>
	<circle cx="594.944" cy="269.188" r="4" fill="#0" id="circle136"/>
	<circle cx="594.944" cy="285.558" r="4" fill="#0" id="circle137"/>
	<circle cx="594.944" cy="301.927" r="4" fill="#0" id="circle138"/>
	<circle cx="594.944" cy="318.297" r="4" fill="#0" id="circle139"/>
	<circle cx="594.944" cy="388.686" r="4" fill="#0" id="circle140"/>
	<circle cx="594.944" cy="562.205" r="4" fill="#0" id="circle141"/>
	<circle cx="594.944" cy="578.574" r="4" fill="#0" id="circle142"/>
	<circle cx="603.129" cy="545.835" r="4" fill="#0" id="circle143"/>
	<circle cx="611.314" cy="393.597" r="4" fill="#0" id="circle144"/>
	<circle cx="611.314" cy="463.987" r="4" fill="#0" id="circle145"/>
	<circle cx="611.314" cy="480.356" r="4" fill="#0" id="circle146"/>
	<circle cx="611.314" cy="496.726" r="4" fill="#0" id="circle147"/>
	<circle cx="611.314" cy="513.096" r="4" fill="#0" id="circle148"/>
	<circle cx="611.314" cy="529.465" r="4" fill="#0" id="circle149"/>
	<circle cx="619.498" cy="408.33" r="4" fill="#0" id="circle150"/>
	<circle cx="619.498" cy="424.7" r="4" fill="#0" id="circle151"/>
	<circle cx="619.498" cy="441.069" r="4" fill="#0" id="circle152"/>
	</g>
</svg>