<?xml version="1.0" encoding="UTF-8" standalone="no"?>
<!-- Created with CurveBenchmark -->
<svg
	xmlns:dc="http://purl.org/dc/elements/1.1/"
	xmlns:cc="http://creativecommons.org/ns#"
	xmlns:rdf="http://www.w3.org/1999/02/22-rdf-syntax-ns#"
	xmlns:svg="http://www.w3.org/2000/svg"
	xmlns="http://www.w3.org/2000/svg"
	xmlns:sodipodi="http://sodipodi.sourceforge.net/DTD/sodipodi-0.dtd"
	xmlns:inkscape="http://www.inkscape.org/namespaces/inkscape"
	width="1000"
	height="1000"
	id="svg2"
	version="1.1"
	sodipodi:docname="manifold/discur-stef-16.png.txt">
<defs
	id="defs4" />
<metadata
	id="metadata7">
	<rdf:RDF>
		<cc:Work
			rdf:about="">
			<dc:format>image/svg+xml</dc:format>
			<dc:type
				rdf:resource="http://purl.org/dc/dcmitype/StillImage" />
			<dc:title></dc:title>
		</cc:Work>
	</rdf:RDF>
</metadata>
<g
	inkscape:label="Layer 1"
	inkscape:groupmode="layer"
	id="layer1">
	<path style="fill:none;stroke:red;stroke-width:1px;stroke-linecap:butt;stroke-linejoin:miter;stroke-opacity:1" d="M 4,35.7635 4,60.197 z" id="boundary" inkscape:connector-curvature="0" />
	<path style="fill:none;stroke:red;stroke-width:1px;stroke-linecap:butt;stroke-linejoin:miter;stroke-opacity:1" d="M 4,35.7635 23.5468,16.2167 z" id="boundary" inkscape:connector-curvature="0" />
	<path style="fill:none;stroke:red;stroke-width:1px;stroke-linecap:butt;stroke-linejoin:miter;stroke-opacity:1" d="M 4,60.197 4,84.6305 z" id="boundary" inkscape:connector-curvature="0" />
	<path style="fill:none;stroke:red;stroke-width:1px;stroke-linecap:butt;stroke-linejoin:miter;stroke-opacity:1" d="M 4,84.6305 16.2167,106.621 z" id="boundary" inkscape:connector-curvature="0" />
	<path style="fill:none;stroke:red;stroke-width:1px;stroke-linecap:butt;stroke-linejoin:miter;stroke-opacity:1" d="M 16.2167,106.621 40.6502,116.394 z" id="boundary" inkscape:connector-curvature="0" />
	<path style="fill:none;stroke:red;stroke-width:1px;stroke-linecap:butt;stroke-linejoin:miter;stroke-opacity:1" d="M 23.5468,16.2167 45.5369,4 z" id="boundary" inkscape:connector-curvature="0" />
	<path style="fill:none;stroke:red;stroke-width:1px;stroke-linecap:butt;stroke-linejoin:miter;stroke-opacity:1" d="M 40.6502,116.394 55.3103,135.941 z" id="boundary" inkscape:connector-curvature="0" />
	<path style="fill:none;stroke:red;stroke-width:1px;stroke-linecap:butt;stroke-linejoin:miter;stroke-opacity:1" d="M 45.5369,4 69.9704,4 z" id="boundary" inkscape:connector-curvature="0" />
	<path style="fill:none;stroke:red;stroke-width:1px;stroke-linecap:butt;stroke-linejoin:miter;stroke-opacity:1" d="M 55.3103,135.941 67.5271,157.931 z" id="boundary" inkscape:connector-curvature="0" />
	<path style="fill:none;stroke:red;stroke-width:1px;stroke-linecap:butt;stroke-linejoin:miter;stroke-opacity:1" d="M 67.5271,157.931 84.6305,177.478 z" id="boundary" inkscape:connector-curvature="0" />
	<path style="fill:none;stroke:red;stroke-width:1px;stroke-linecap:butt;stroke-linejoin:miter;stroke-opacity:1" d="M 69.9704,4 91.9606,16.2167 z" id="boundary" inkscape:connector-curvature="0" />
	<path style="fill:none;stroke:red;stroke-width:1px;stroke-linecap:butt;stroke-linejoin:miter;stroke-opacity:1" d="M 84.6305,177.478 106.621,189.695 z" id="boundary" inkscape:connector-curvature="0" />
	<path style="fill:none;stroke:red;stroke-width:1px;stroke-linecap:butt;stroke-linejoin:miter;stroke-opacity:1" d="M 91.9606,16.2167 116.394,16.2167 z" id="boundary" inkscape:connector-curvature="0" />
	<path style="fill:none;stroke:red;stroke-width:1px;stroke-linecap:butt;stroke-linejoin:miter;stroke-opacity:1" d="M 106.621,189.695 126.167,204.355 z" id="boundary" inkscape:connector-curvature="0" />
	<path style="fill:none;stroke:red;stroke-width:1px;stroke-linecap:butt;stroke-linejoin:miter;stroke-opacity:1" d="M 113.951,854.286 113.951,878.719 z" id="boundary" inkscape:connector-curvature="0" />
	<path style="fill:none;stroke:red;stroke-width:1px;stroke-linecap:butt;stroke-linejoin:miter;stroke-opacity:1" d="M 113.951,854.286 133.498,834.739 z" id="boundary" inkscape:connector-curvature="0" />
	<path style="fill:none;stroke:red;stroke-width:1px;stroke-linecap:butt;stroke-linejoin:miter;stroke-opacity:1" d="M 113.951,878.719 133.498,895.823 z" id="boundary" inkscape:connector-curvature="0" />
	<path style="fill:none;stroke:red;stroke-width:1px;stroke-linecap:butt;stroke-linejoin:miter;stroke-opacity:1" d="M 116.394,16.2167 140.828,23.5468 z" id="boundary" inkscape:connector-curvature="0" />
	<path style="fill:none;stroke:red;stroke-width:1px;stroke-linecap:butt;stroke-linejoin:miter;stroke-opacity:1" d="M 126.167,204.355 138.384,226.345 z" id="boundary" inkscape:connector-curvature="0" />
	<path style="fill:none;stroke:red;stroke-width:1px;stroke-linecap:butt;stroke-linejoin:miter;stroke-opacity:1" d="M 133.498,834.739 153.044,815.192 z" id="boundary" inkscape:connector-curvature="0" />
	<path style="fill:none;stroke:red;stroke-width:1px;stroke-linecap:butt;stroke-linejoin:miter;stroke-opacity:1" d="M 133.498,895.823 157.931,898.266 z" id="boundary" inkscape:connector-curvature="0" />
	<path style="fill:none;stroke:red;stroke-width:1px;stroke-linecap:butt;stroke-linejoin:miter;stroke-opacity:1" d="M 138.384,226.345 150.601,248.335 z" id="boundary" inkscape:connector-curvature="0" />
	<path style="fill:none;stroke:red;stroke-width:1px;stroke-linecap:butt;stroke-linejoin:miter;stroke-opacity:1" d="M 140.828,23.5468 162.818,35.7635 z" id="boundary" inkscape:connector-curvature="0" />
	<path style="fill:none;stroke:red;stroke-width:1px;stroke-linecap:butt;stroke-linejoin:miter;stroke-opacity:1" d="M 150.601,248.335 165.261,267.882 z" id="boundary" inkscape:connector-curvature="0" />
	<path style="fill:none;stroke:red;stroke-width:1px;stroke-linecap:butt;stroke-linejoin:miter;stroke-opacity:1" d="M 153.044,815.192 177.478,802.975 z" id="boundary" inkscape:connector-curvature="0" />
	<path style="fill:none;stroke:red;stroke-width:1px;stroke-linecap:butt;stroke-linejoin:miter;stroke-opacity:1" d="M 157.931,898.266 182.365,898.266 z" id="boundary" inkscape:connector-curvature="0" />
	<path style="fill:none;stroke:red;stroke-width:1px;stroke-linecap:butt;stroke-linejoin:miter;stroke-opacity:1" d="M 162.818,35.7635 182.365,52.867 z" id="boundary" inkscape:connector-curvature="0" />
	<path style="fill:none;stroke:red;stroke-width:1px;stroke-linecap:butt;stroke-linejoin:miter;stroke-opacity:1" d="M 165.261,267.882 187.251,280.099 z" id="boundary" inkscape:connector-curvature="0" />
	<path style="fill:none;stroke:red;stroke-width:1px;stroke-linecap:butt;stroke-linejoin:miter;stroke-opacity:1" d="M 177.478,802.975 199.468,741.892 z" id="boundary" inkscape:connector-curvature="0" />
	<path style="fill:none;stroke:red;stroke-width:1px;stroke-linecap:butt;stroke-linejoin:miter;stroke-opacity:1" d="M 182.365,52.867 189.695,77.3005 z" id="boundary" inkscape:connector-curvature="0" />
	<path style="fill:none;stroke:red;stroke-width:1px;stroke-linecap:butt;stroke-linejoin:miter;stroke-opacity:1" d="M 182.365,898.266 206.798,898.266 z" id="boundary" inkscape:connector-curvature="0" />
	<path style="fill:none;stroke:red;stroke-width:1px;stroke-linecap:butt;stroke-linejoin:miter;stroke-opacity:1" d="M 187.251,280.099 199.468,302.089 z" id="boundary" inkscape:connector-curvature="0" />
	<path style="fill:none;stroke:red;stroke-width:1px;stroke-linecap:butt;stroke-linejoin:miter;stroke-opacity:1" d="M 189.695,77.3005 211.685,89.5172 z" id="boundary" inkscape:connector-curvature="0" />
	<path style="fill:none;stroke:red;stroke-width:1px;stroke-linecap:butt;stroke-linejoin:miter;stroke-opacity:1" d="M 199.468,302.089 199.468,326.522 z" id="boundary" inkscape:connector-curvature="0" />
	<path style="fill:none;stroke:red;stroke-width:1px;stroke-linecap:butt;stroke-linejoin:miter;stroke-opacity:1" d="M 199.468,326.522 199.468,350.956 z" id="boundary" inkscape:connector-curvature="0" />
	<path style="fill:none;stroke:red;stroke-width:1px;stroke-linecap:butt;stroke-linejoin:miter;stroke-opacity:1" d="M 199.468,350.956 199.468,375.389 z" id="boundary" inkscape:connector-curvature="0" />
	<path style="fill:none;stroke:red;stroke-width:1px;stroke-linecap:butt;stroke-linejoin:miter;stroke-opacity:1" d="M 199.468,375.389 199.468,399.823 z" id="boundary" inkscape:connector-curvature="0" />
	<path style="fill:none;stroke:red;stroke-width:1px;stroke-linecap:butt;stroke-linejoin:miter;stroke-opacity:1" d="M 199.468,399.823 199.468,424.256 z" id="boundary" inkscape:connector-curvature="0" />
	<path style="fill:none;stroke:red;stroke-width:1px;stroke-linecap:butt;stroke-linejoin:miter;stroke-opacity:1" d="M 199.468,424.256 199.468,448.69 z" id="boundary" inkscape:connector-curvature="0" />
	<path style="fill:none;stroke:red;stroke-width:1px;stroke-linecap:butt;stroke-linejoin:miter;stroke-opacity:1" d="M 199.468,448.69 199.468,473.123 z" id="boundary" inkscape:connector-curvature="0" />
	<path style="fill:none;stroke:red;stroke-width:1px;stroke-linecap:butt;stroke-linejoin:miter;stroke-opacity:1" d="M 199.468,473.123 199.468,497.557 z" id="boundary" inkscape:connector-curvature="0" />
	<path style="fill:none;stroke:red;stroke-width:1px;stroke-linecap:butt;stroke-linejoin:miter;stroke-opacity:1" d="M 199.468,497.557 199.468,521.99 z" id="boundary" inkscape:connector-curvature="0" />
	<path style="fill:none;stroke:red;stroke-width:1px;stroke-linecap:butt;stroke-linejoin:miter;stroke-opacity:1" d="M 199.468,521.99 199.468,546.424 z" id="boundary" inkscape:connector-curvature="0" />
	<path style="fill:none;stroke:red;stroke-width:1px;stroke-linecap:butt;stroke-linejoin:miter;stroke-opacity:1" d="M 199.468,546.424 199.468,570.857 z" id="boundary" inkscape:connector-curvature="0" />
	<path style="fill:none;stroke:red;stroke-width:1px;stroke-linecap:butt;stroke-linejoin:miter;stroke-opacity:1" d="M 199.468,570.857 199.468,595.291 z" id="boundary" inkscape:connector-curvature="0" />
	<path style="fill:none;stroke:red;stroke-width:1px;stroke-linecap:butt;stroke-linejoin:miter;stroke-opacity:1" d="M 199.468,595.291 199.468,619.724 z" id="boundary" inkscape:connector-curvature="0" />
	<path style="fill:none;stroke:red;stroke-width:1px;stroke-linecap:butt;stroke-linejoin:miter;stroke-opacity:1" d="M 199.468,619.724 199.468,644.158 z" id="boundary" inkscape:connector-curvature="0" />
	<path style="fill:none;stroke:red;stroke-width:1px;stroke-linecap:butt;stroke-linejoin:miter;stroke-opacity:1" d="M 199.468,644.158 199.468,668.591 z" id="boundary" inkscape:connector-curvature="0" />
	<path style="fill:none;stroke:red;stroke-width:1px;stroke-linecap:butt;stroke-linejoin:miter;stroke-opacity:1" d="M 199.468,668.591 199.468,693.025 z" id="boundary" inkscape:connector-curvature="0" />
	<path style="fill:none;stroke:red;stroke-width:1px;stroke-linecap:butt;stroke-linejoin:miter;stroke-opacity:1" d="M 199.468,693.025 199.468,717.458 z" id="boundary" inkscape:connector-curvature="0" />
	<path style="fill:none;stroke:red;stroke-width:1px;stroke-linecap:butt;stroke-linejoin:miter;stroke-opacity:1" d="M 199.468,717.458 199.468,741.892 z" id="boundary" inkscape:connector-curvature="0" />
	<path style="fill:none;stroke:red;stroke-width:1px;stroke-linecap:butt;stroke-linejoin:miter;stroke-opacity:1" d="M 206.798,898.266 231.232,898.266 z" id="boundary" inkscape:connector-curvature="0" />
	<path style="fill:none;stroke:red;stroke-width:1px;stroke-linecap:butt;stroke-linejoin:miter;stroke-opacity:1" d="M 211.685,89.5172 236.118,89.5172 z" id="boundary" inkscape:connector-curvature="0" />
	<path style="fill:none;stroke:red;stroke-width:1px;stroke-linecap:butt;stroke-linejoin:miter;stroke-opacity:1" d="M 231.232,898.266 253.222,886.049 z" id="boundary" inkscape:connector-curvature="0" />
	<path style="fill:none;stroke:red;stroke-width:1px;stroke-linecap:butt;stroke-linejoin:miter;stroke-opacity:1" d="M 236.118,89.5172 260.552,89.5172 z" id="boundary" inkscape:connector-curvature="0" />
	<path style="fill:none;stroke:red;stroke-width:1px;stroke-linecap:butt;stroke-linejoin:miter;stroke-opacity:1" d="M 253.222,886.049 275.212,861.616 z" id="boundary" inkscape:connector-curvature="0" />
	<path style="fill:none;stroke:red;stroke-width:1px;stroke-linecap:butt;stroke-linejoin:miter;stroke-opacity:1" d="M 260.552,89.5172 284.985,89.5172 z" id="boundary" inkscape:connector-curvature="0" />
	<path style="fill:none;stroke:red;stroke-width:1px;stroke-linecap:butt;stroke-linejoin:miter;stroke-opacity:1" d="M 275.212,861.616 287.429,837.182 z" id="boundary" inkscape:connector-curvature="0" />
	<path style="fill:none;stroke:red;stroke-width:1px;stroke-linecap:butt;stroke-linejoin:miter;stroke-opacity:1" d="M 284.985,89.5172 309.419,94.4039 z" id="boundary" inkscape:connector-curvature="0" />
	<path style="fill:none;stroke:red;stroke-width:1px;stroke-linecap:butt;stroke-linejoin:miter;stroke-opacity:1" d="M 287.429,592.847 287.429,617.281 z" id="boundary" inkscape:connector-curvature="0" />
	<path style="fill:none;stroke:red;stroke-width:1px;stroke-linecap:butt;stroke-linejoin:miter;stroke-opacity:1" d="M 287.429,592.847 299.645,568.414 z" id="boundary" inkscape:connector-curvature="0" />
	<path style="fill:none;stroke:red;stroke-width:1px;stroke-linecap:butt;stroke-linejoin:miter;stroke-opacity:1" d="M 287.429,617.281 287.429,641.714 z" id="boundary" inkscape:connector-curvature="0" />
	<path style="fill:none;stroke:red;stroke-width:1px;stroke-linecap:butt;stroke-linejoin:miter;stroke-opacity:1" d="M 287.429,641.714 287.429,666.148 z" id="boundary" inkscape:connector-curvature="0" />
	<path style="fill:none;stroke:red;stroke-width:1px;stroke-linecap:butt;stroke-linejoin:miter;stroke-opacity:1" d="M 287.429,666.148 287.429,690.581 z" id="boundary" inkscape:connector-curvature="0" />
	<path style="fill:none;stroke:red;stroke-width:1px;stroke-linecap:butt;stroke-linejoin:miter;stroke-opacity:1" d="M 287.429,690.581 287.429,715.015 z" id="boundary" inkscape:connector-curvature="0" />
	<path style="fill:none;stroke:red;stroke-width:1px;stroke-linecap:butt;stroke-linejoin:miter;stroke-opacity:1" d="M 287.429,715.015 287.429,739.448 z" id="boundary" inkscape:connector-curvature="0" />
	<path style="fill:none;stroke:red;stroke-width:1px;stroke-linecap:butt;stroke-linejoin:miter;stroke-opacity:1" d="M 287.429,739.448 287.429,763.882 z" id="boundary" inkscape:connector-curvature="0" />
	<path style="fill:none;stroke:red;stroke-width:1px;stroke-linecap:butt;stroke-linejoin:miter;stroke-opacity:1" d="M 299.645,568.414 311.862,543.98 z" id="boundary" inkscape:connector-curvature="0" />
	<path style="fill:none;stroke:red;stroke-width:1px;stroke-linecap:butt;stroke-linejoin:miter;stroke-opacity:1" d="M 309.419,94.4039 333.852,101.734 z" id="boundary" inkscape:connector-curvature="0" />
	<path style="fill:none;stroke:red;stroke-width:1px;stroke-linecap:butt;stroke-linejoin:miter;stroke-opacity:1" d="M 311.862,543.98 324.079,519.547 z" id="boundary" inkscape:connector-curvature="0" />
	<path style="fill:none;stroke:red;stroke-width:1px;stroke-linecap:butt;stroke-linejoin:miter;stroke-opacity:1" d="M 324.079,519.547 336.296,495.113 z" id="boundary" inkscape:connector-curvature="0" />
	<path style="fill:none;stroke:red;stroke-width:1px;stroke-linecap:butt;stroke-linejoin:miter;stroke-opacity:1" d="M 333.852,101.734 355.842,113.951 z" id="boundary" inkscape:connector-curvature="0" />
	<path style="fill:none;stroke:red;stroke-width:1px;stroke-linecap:butt;stroke-linejoin:miter;stroke-opacity:1" d="M 336.296,495.113 355.842,478.01 z" id="boundary" inkscape:connector-curvature="0" />
	<path style="fill:none;stroke:red;stroke-width:1px;stroke-linecap:butt;stroke-linejoin:miter;stroke-opacity:1" d="M 355.842,113.951 377.833,126.167 z" id="boundary" inkscape:connector-curvature="0" />
	<path style="fill:none;stroke:red;stroke-width:1px;stroke-linecap:butt;stroke-linejoin:miter;stroke-opacity:1" d="M 355.842,478.01 368.059,453.576 z" id="boundary" inkscape:connector-curvature="0" />
	<path style="fill:none;stroke:red;stroke-width:1px;stroke-linecap:butt;stroke-linejoin:miter;stroke-opacity:1" d="M 368.059,453.576 385.163,434.03 z" id="boundary" inkscape:connector-curvature="0" />
	<path style="fill:none;stroke:red;stroke-width:1px;stroke-linecap:butt;stroke-linejoin:miter;stroke-opacity:1" d="M 377.833,126.167 399.823,138.384 z" id="boundary" inkscape:connector-curvature="0" />
	<path style="fill:none;stroke:red;stroke-width:1px;stroke-linecap:butt;stroke-linejoin:miter;stroke-opacity:1" d="M 385.163,434.03 409.596,434.03 z" id="boundary" inkscape:connector-curvature="0" />
	<path style="fill:none;stroke:red;stroke-width:1px;stroke-linecap:butt;stroke-linejoin:miter;stroke-opacity:1" d="M 399.823,138.384 421.813,150.601 z" id="boundary" inkscape:connector-curvature="0" />
	<path style="fill:none;stroke:red;stroke-width:1px;stroke-linecap:butt;stroke-linejoin:miter;stroke-opacity:1" d="M 409.596,434.03 431.586,446.246 z" id="boundary" inkscape:connector-curvature="0" />
	<path style="fill:none;stroke:red;stroke-width:1px;stroke-linecap:butt;stroke-linejoin:miter;stroke-opacity:1" d="M 421.813,150.601 443.803,162.818 z" id="boundary" inkscape:connector-curvature="0" />
	<path style="fill:none;stroke:red;stroke-width:1px;stroke-linecap:butt;stroke-linejoin:miter;stroke-opacity:1" d="M 431.586,446.246 431.586,470.68 z" id="boundary" inkscape:connector-curvature="0" />
	<path style="fill:none;stroke:red;stroke-width:1px;stroke-linecap:butt;stroke-linejoin:miter;stroke-opacity:1" d="M 431.586,470.68 431.586,495.113 z" id="boundary" inkscape:connector-curvature="0" />
	<path style="fill:none;stroke:red;stroke-width:1px;stroke-linecap:butt;stroke-linejoin:miter;stroke-opacity:1" d="M 431.586,495.113 443.803,517.103 z" id="boundary" inkscape:connector-curvature="0" />
	<path style="fill:none;stroke:red;stroke-width:1px;stroke-linecap:butt;stroke-linejoin:miter;stroke-opacity:1" d="M 443.803,162.818 463.35,177.478 z" id="boundary" inkscape:connector-curvature="0" />
	<path style="fill:none;stroke:red;stroke-width:1px;stroke-linecap:butt;stroke-linejoin:miter;stroke-opacity:1" d="M 443.803,517.103 448.69,541.537 z" id="boundary" inkscape:connector-curvature="0" />
	<path style="fill:none;stroke:red;stroke-width:1px;stroke-linecap:butt;stroke-linejoin:miter;stroke-opacity:1" d="M 448.69,541.537 460.906,563.527 z" id="boundary" inkscape:connector-curvature="0" />
	<path style="fill:none;stroke:red;stroke-width:1px;stroke-linecap:butt;stroke-linejoin:miter;stroke-opacity:1" d="M 460.906,563.527 480.453,580.631 z" id="boundary" inkscape:connector-curvature="0" />
	<path style="fill:none;stroke:red;stroke-width:1px;stroke-linecap:butt;stroke-linejoin:miter;stroke-opacity:1" d="M 463.35,177.478 482.897,194.581 z" id="boundary" inkscape:connector-curvature="0" />
	<path style="fill:none;stroke:red;stroke-width:1px;stroke-linecap:butt;stroke-linejoin:miter;stroke-opacity:1" d="M 480.453,580.631 502.443,592.847 z" id="boundary" inkscape:connector-curvature="0" />
	<path style="fill:none;stroke:red;stroke-width:1px;stroke-linecap:butt;stroke-linejoin:miter;stroke-opacity:1" d="M 482.897,194.581 500,214.128 z" id="boundary" inkscape:connector-curvature="0" />
	<path style="fill:none;stroke:red;stroke-width:1px;stroke-linecap:butt;stroke-linejoin:miter;stroke-opacity:1" d="M 500,214.128 524.433,223.901 z" id="boundary" inkscape:connector-curvature="0" />
	<path style="fill:none;stroke:red;stroke-width:1px;stroke-linecap:butt;stroke-linejoin:miter;stroke-opacity:1" d="M 502.443,592.847 524.433,605.064 z" id="boundary" inkscape:connector-curvature="0" />
	<path style="fill:none;stroke:red;stroke-width:1px;stroke-linecap:butt;stroke-linejoin:miter;stroke-opacity:1" d="M 524.433,223.901 541.537,243.448 z" id="boundary" inkscape:connector-curvature="0" />
	<path style="fill:none;stroke:red;stroke-width:1px;stroke-linecap:butt;stroke-linejoin:miter;stroke-opacity:1" d="M 524.433,605.064 546.424,617.281 z" id="boundary" inkscape:connector-curvature="0" />
	<path style="fill:none;stroke:red;stroke-width:1px;stroke-linecap:butt;stroke-linejoin:miter;stroke-opacity:1" d="M 541.537,243.448 561.084,260.552 z" id="boundary" inkscape:connector-curvature="0" />
	<path style="fill:none;stroke:red;stroke-width:1px;stroke-linecap:butt;stroke-linejoin:miter;stroke-opacity:1" d="M 546.424,617.281 568.414,629.498 z" id="boundary" inkscape:connector-curvature="0" />
	<path style="fill:none;stroke:red;stroke-width:1px;stroke-linecap:butt;stroke-linejoin:miter;stroke-opacity:1" d="M 561.084,260.552 583.074,272.768 z" id="boundary" inkscape:connector-curvature="0" />
	<path style="fill:none;stroke:red;stroke-width:1px;stroke-linecap:butt;stroke-linejoin:miter;stroke-opacity:1" d="M 568.414,629.498 592.847,629.498 z" id="boundary" inkscape:connector-curvature="0" />
	<path style="fill:none;stroke:red;stroke-width:1px;stroke-linecap:butt;stroke-linejoin:miter;stroke-opacity:1" d="M 580.631,409.596 580.631,434.03 z" id="boundary" inkscape:connector-curvature="0" />
	<path style="fill:none;stroke:red;stroke-width:1px;stroke-linecap:butt;stroke-linejoin:miter;stroke-opacity:1" d="M 580.631,409.596 592.847,385.163 z" id="boundary" inkscape:connector-curvature="0" />
	<path style="fill:none;stroke:red;stroke-width:1px;stroke-linecap:butt;stroke-linejoin:miter;stroke-opacity:1" d="M 580.631,434.03 580.631,458.463 z" id="boundary" inkscape:connector-curvature="0" />
	<path style="fill:none;stroke:red;stroke-width:1px;stroke-linecap:butt;stroke-linejoin:miter;stroke-opacity:1" d="M 580.631,458.463 592.847,480.453 z" id="boundary" inkscape:connector-curvature="0" />
	<path style="fill:none;stroke:red;stroke-width:1px;stroke-linecap:butt;stroke-linejoin:miter;stroke-opacity:1" d="M 583.074,272.768 602.621,289.872 z" id="boundary" inkscape:connector-curvature="0" />
	<path style="fill:none;stroke:red;stroke-width:1px;stroke-linecap:butt;stroke-linejoin:miter;stroke-opacity:1" d="M 592.847,385.163 605.064,360.729 z" id="boundary" inkscape:connector-curvature="0" />
	<path style="fill:none;stroke:red;stroke-width:1px;stroke-linecap:butt;stroke-linejoin:miter;stroke-opacity:1" d="M 592.847,480.453 617.281,480.453 z" id="boundary" inkscape:connector-curvature="0" />
	<path style="fill:none;stroke:red;stroke-width:1px;stroke-linecap:butt;stroke-linejoin:miter;stroke-opacity:1" d="M 592.847,629.498 614.837,617.281 z" id="boundary" inkscape:connector-curvature="0" />
	<path style="fill:none;stroke:red;stroke-width:1px;stroke-linecap:butt;stroke-linejoin:miter;stroke-opacity:1" d="M 614.837,617.281 636.828,605.064 z" id="boundary" inkscape:connector-curvature="0" />
	<path style="fill:none;stroke:red;stroke-width:1px;stroke-linecap:butt;stroke-linejoin:miter;stroke-opacity:1" d="M 617.281,480.453 641.714,473.123 z" id="boundary" inkscape:connector-curvature="0" />
	<path style="fill:none;stroke:red;stroke-width:1px;stroke-linecap:butt;stroke-linejoin:miter;stroke-opacity:1" d="M 636.828,605.064 658.818,592.847 z" id="boundary" inkscape:connector-curvature="0" />
	<path style="fill:none;stroke:red;stroke-width:1px;stroke-linecap:butt;stroke-linejoin:miter;stroke-opacity:1" d="M 641.714,473.123 666.148,468.236 z" id="boundary" inkscape:connector-curvature="0" />
	<path style="fill:none;stroke:red;stroke-width:1px;stroke-linecap:butt;stroke-linejoin:miter;stroke-opacity:1" d="M 658.818,592.847 680.808,580.631 z" id="boundary" inkscape:connector-curvature="0" />
	<path style="fill:none;stroke:red;stroke-width:1px;stroke-linecap:butt;stroke-linejoin:miter;stroke-opacity:1" d="M 666.148,468.236 688.138,456.02 z" id="boundary" inkscape:connector-curvature="0" />
	<path style="fill:none;stroke:red;stroke-width:1px;stroke-linecap:butt;stroke-linejoin:miter;stroke-opacity:1" d="M 680.808,580.631 702.798,568.414 z" id="boundary" inkscape:connector-curvature="0" />
	<path style="fill:none;stroke:red;stroke-width:1px;stroke-linecap:butt;stroke-linejoin:miter;stroke-opacity:1" d="M 688.138,456.02 710.128,443.803 z" id="boundary" inkscape:connector-curvature="0" />
	<path style="fill:none;stroke:red;stroke-width:1px;stroke-linecap:butt;stroke-linejoin:miter;stroke-opacity:1" d="M 702.798,568.414 722.345,551.31 z" id="boundary" inkscape:connector-curvature="0" />
	<path style="fill:none;stroke:red;stroke-width:1px;stroke-linecap:butt;stroke-linejoin:miter;stroke-opacity:1" d="M 710.128,443.803 732.118,431.586 z" id="boundary" inkscape:connector-curvature="0" />
	<path style="fill:none;stroke:red;stroke-width:1px;stroke-linecap:butt;stroke-linejoin:miter;stroke-opacity:1" d="M 722.345,551.31 746.778,539.094 z" id="boundary" inkscape:connector-curvature="0" />
	<path style="fill:none;stroke:red;stroke-width:1px;stroke-linecap:butt;stroke-linejoin:miter;stroke-opacity:1" d="M 732.118,431.586 756.552,419.369 z" id="boundary" inkscape:connector-curvature="0" />
	<path style="fill:none;stroke:red;stroke-width:1px;stroke-linecap:butt;stroke-linejoin:miter;stroke-opacity:1" d="M 746.778,539.094 763.882,519.547 z" id="boundary" inkscape:connector-curvature="0" />
	<path style="fill:none;stroke:red;stroke-width:1px;stroke-linecap:butt;stroke-linejoin:miter;stroke-opacity:1" d="M 756.552,419.369 780.985,407.153 z" id="boundary" inkscape:connector-curvature="0" />
	<path style="fill:none;stroke:red;stroke-width:1px;stroke-linecap:butt;stroke-linejoin:miter;stroke-opacity:1" d="M 763.882,519.547 783.429,502.443 z" id="boundary" inkscape:connector-curvature="0" />
	<path style="fill:none;stroke:red;stroke-width:1px;stroke-linecap:butt;stroke-linejoin:miter;stroke-opacity:1" d="M 780.985,407.153 805.419,394.936 z" id="boundary" inkscape:connector-curvature="0" />
	<path style="fill:none;stroke:red;stroke-width:1px;stroke-linecap:butt;stroke-linejoin:miter;stroke-opacity:1" d="M 783.429,502.443 800.532,482.897 z" id="boundary" inkscape:connector-curvature="0" />
	<path style="fill:none;stroke:red;stroke-width:1px;stroke-linecap:butt;stroke-linejoin:miter;stroke-opacity:1" d="M 800.532,482.897 824.966,470.68 z" id="boundary" inkscape:connector-curvature="0" />
	<path style="fill:none;stroke:red;stroke-width:1px;stroke-linecap:butt;stroke-linejoin:miter;stroke-opacity:1" d="M 805.419,394.936 829.852,382.719 z" id="boundary" inkscape:connector-curvature="0" />
	<path style="fill:none;stroke:red;stroke-width:1px;stroke-linecap:butt;stroke-linejoin:miter;stroke-opacity:1" d="M 824.966,470.68 849.399,470.68 z" id="boundary" inkscape:connector-curvature="0" />
	<path style="fill:none;stroke:red;stroke-width:1px;stroke-linecap:butt;stroke-linejoin:miter;stroke-opacity:1" d="M 829.852,382.719 854.286,370.502 z" id="boundary" inkscape:connector-curvature="0" />
	<path style="fill:none;stroke:red;stroke-width:1px;stroke-linecap:butt;stroke-linejoin:miter;stroke-opacity:1" d="M 849.399,470.68 873.833,470.68 z" id="boundary" inkscape:connector-curvature="0" />
	<path style="fill:none;stroke:red;stroke-width:1px;stroke-linecap:butt;stroke-linejoin:miter;stroke-opacity:1" d="M 854.286,370.502 878.719,358.286 z" id="boundary" inkscape:connector-curvature="0" />
	<path style="fill:none;stroke:red;stroke-width:1px;stroke-linecap:butt;stroke-linejoin:miter;stroke-opacity:1" d="M 873.833,470.68 898.266,470.68 z" id="boundary" inkscape:connector-curvature="0" />
	<path style="fill:none;stroke:red;stroke-width:1px;stroke-linecap:butt;stroke-linejoin:miter;stroke-opacity:1" d="M 878.719,358.286 903.153,346.069 z" id="boundary" inkscape:connector-curvature="0" />
	<path style="fill:none;stroke:red;stroke-width:1px;stroke-linecap:butt;stroke-linejoin:miter;stroke-opacity:1" d="M 898.266,470.68 922.7,470.68 z" id="boundary" inkscape:connector-curvature="0" />
	<path style="fill:none;stroke:red;stroke-width:1px;stroke-linecap:butt;stroke-linejoin:miter;stroke-opacity:1" d="M 903.153,346.069 927.586,346.069 z" id="boundary" inkscape:connector-curvature="0" />
	<path style="fill:none;stroke:red;stroke-width:1px;stroke-linecap:butt;stroke-linejoin:miter;stroke-opacity:1" d="M 922.7,470.68 947.133,470.68 z" id="boundary" inkscape:connector-curvature="0" />
	<path style="fill:none;stroke:red;stroke-width:1px;stroke-linecap:butt;stroke-linejoin:miter;stroke-opacity:1" d="M 927.586,346.069 949.576,358.286 z" id="boundary" inkscape:connector-curvature="0" />
	<path style="fill:none;stroke:red;stroke-width:1px;stroke-linecap:butt;stroke-linejoin:miter;stroke-opacity:1" d="M 947.133,470.68 969.123,482.897 z" id="boundary" inkscape:connector-curvature="0" />
	<path style="fill:none;stroke:red;stroke-width:1px;stroke-linecap:butt;stroke-linejoin:miter;stroke-opacity:1" d="M 949.576,358.286 971.567,370.502 z" id="boundary" inkscape:connector-curvature="0" />
	<path style="fill:none;stroke:red;stroke-width:1px;stroke-linecap:butt;stroke-linejoin:miter;stroke-opacity:1" d="M 971.567,370.502 983.783,392.493 z" id="boundary" inkscape:connector-curvature="0" />
	<path style="fill:none;stroke:red;stroke-width:1px;stroke-linecap:butt;stroke-linejoin:miter;stroke-opacity:1" d="M 983.783,392.493 983.783,416.926 z" id="boundary" inkscape:connector-curvature="0" />
	<circle cx="4" cy="35.7635" r="4" fill="#0" id="circle0"/>
	<circle cx="4" cy="60.197" r="4" fill="#0" id="circle1"/>
	<circle cx="4" cy="84.6305" r="4" fill="#0" id="circle2"/>
	<circle cx="16.2167" cy="106.621" r="4" fill="#0" id="circle3"/>
	<circle cx="23.5468" cy="16.2167" r="4" fill="#0" id="circle4"/>
	<circle cx="40.6502" cy="116.394" r="4" fill="#0" id="circle5"/>
	<circle cx="45.5369" cy="4" r="4" fill="#0" id="circle6"/>
	<circle cx="55.3103" cy="135.941" r="4" fill="#0" id="circle7"/>
	<circle cx="67.5271" cy="157.931" r="4" fill="#0" id="circle8"/>
	<circle cx="69.9704" cy="4" r="4" fill="#0" id="circle9"/>
	<circle cx="84.6305" cy="177.478" r="4" fill="#0" id="circle10"/>
	<circle cx="91.9606" cy="16.2167" r="4" fill="#0" id="circle11"/>
	<circle cx="106.621" cy="189.695" r="4" fill="#0" id="circle12"/>
	<circle cx="113.951" cy="854.286" r="4" fill="#0" id="circle13"/>
	<circle cx="113.951" cy="878.719" r="4" fill="#0" id="circle14"/>
	<circle cx="116.394" cy="16.2167" r="4" fill="#0" id="circle15"/>
	<circle cx="126.167" cy="204.355" r="4" fill="#0" id="circle16"/>
	<circle cx="133.498" cy="834.739" r="4" fill="#0" id="circle17"/>
	<circle cx="133.498" cy="895.823" r="4" fill="#0" id="circle18"/>
	<circle cx="138.384" cy="226.345" r="4" fill="#0" id="circle19"/>
	<circle cx="140.828" cy="23.5468" r="4" fill="#0" id="circle20"/>
	<circle cx="150.601" cy="248.335" r="4" fill="#0" id="circle21"/>
	<circle cx="153.044" cy="815.192" r="4" fill="#0" id="circle22"/>
	<circle cx="157.931" cy="898.266" r="4" fill="#0" id="circle23"/>
	<circle cx="162.818" cy="35.7635" r="4" fill="#0" id="circle24"/>
	<circle cx="165.261" cy="267.882" r="4" fill="#0" id="circle25"/>
	<circle cx="177.478" cy="802.975" r="4" fill="#0" id="circle26"/>
	<circle cx="182.365" cy="52.867" r="4" fill="#0" id="circle27"/>
	<circle cx="182.365" cy="898.266" r="4" fill="#0" id="circle28"/>
	<circle cx="187.251" cy="280.099" r="4" fill="#0" id="circle29"/>
	<circle cx="189.695" cy="77.3005" r="4" fill="#0" id="circle30"/>
	<circle cx="199.468" cy="302.089" r="4" fill="#0" id="circle31"/>
	<circle cx="199.468" cy="326.522" r="4" fill="#0" id="circle32"/>
	<circle cx="199.468" cy="350.956" r="4" fill="#0" id="circle33"/>
	<circle cx="199.468" cy="375.389" r="4" fill="#0" id="circle34"/>
	<circle cx="199.468" cy="399.823" r="4" fill="#0" id="circle35"/>
	<circle cx="199.468" cy="424.256" r="4" fill="#0" id="circle36"/>
	<circle cx="199.468" cy="448.69" r="4" fill="#0" id="circle37"/>
	<circle cx="199.468" cy="473.123" r="4" fill="#0" id="circle38"/>
	<circle cx="199.468" cy="497.557" r="4" fill="#0" id="circle39"/>
	<circle cx="199.468" cy="521.99" r="4" fill="#0" id="circle40"/>
	<circle cx="199.468" cy="546.424" r="4" fill="#0" id="circle41"/>
	<circle cx="199.468" cy="570.857" r="4" fill="#0" id="circle42"/>
	<circle cx="199.468" cy="595.291" r="4" fill="#0" id="circle43"/>
	<circle cx="199.468" cy="619.724" r="4" fill="#0" id="circle44"/>
	<circle cx="199.468" cy="644.158" r="4" fill="#0" id="circle45"/>
	<circle cx="199.468" cy="668.591" r="4" fill="#0" id="circle46"/>
	<circle cx="199.468" cy="693.025" r="4" fill="#0" id="circle47"/>
	<circle cx="199.468" cy="717.458" r="4" fill="#0" id="circle48"/>
	<circle cx="199.468" cy="741.892" r="4" fill="#0" id="circle49"/>
	<circle cx="199.468" cy="766.325" r="4" fill="#0" id="circle50"/>
	<circle cx="199.468" cy="790.759" r="4" fill="#0" id="circle51"/>
	<circle cx="206.798" cy="898.266" r="4" fill="#0" id="circle52"/>
	<circle cx="211.685" cy="89.5172" r="4" fill="#0" id="circle53"/>
	<circle cx="231.232" cy="898.266" r="4" fill="#0" id="circle54"/>
	<circle cx="236.118" cy="89.5172" r="4" fill="#0" id="circle55"/>
	<circle cx="253.222" cy="886.049" r="4" fill="#0" id="circle56"/>
	<circle cx="260.552" cy="89.5172" r="4" fill="#0" id="circle57"/>
	<circle cx="275.212" cy="861.616" r="4" fill="#0" id="circle58"/>
	<circle cx="284.985" cy="89.5172" r="4" fill="#0" id="circle59"/>
	<circle cx="287.429" cy="592.847" r="4" fill="#0" id="circle60"/>
	<circle cx="287.429" cy="617.281" r="4" fill="#0" id="circle61"/>
	<circle cx="287.429" cy="641.714" r="4" fill="#0" id="circle62"/>
	<circle cx="287.429" cy="666.148" r="4" fill="#0" id="circle63"/>
	<circle cx="287.429" cy="690.581" r="4" fill="#0" id="circle64"/>
	<circle cx="287.429" cy="715.015" r="4" fill="#0" id="circle65"/>
	<circle cx="287.429" cy="739.448" r="4" fill="#0" id="circle66"/>
	<circle cx="287.429" cy="763.882" r="4" fill="#0" id="circle67"/>
	<circle cx="287.429" cy="837.182" r="4" fill="#0" id="circle68"/>
	<circle cx="292.315" cy="788.315" r="4" fill="#0" id="circle69"/>
	<circle cx="299.645" cy="568.414" r="4" fill="#0" id="circle70"/>
	<circle cx="299.645" cy="812.749" r="4" fill="#0" id="circle71"/>
	<circle cx="309.419" cy="94.4039" r="4" fill="#0" id="circle72"/>
	<circle cx="311.862" cy="543.98" r="4" fill="#0" id="circle73"/>
	<circle cx="324.079" cy="519.547" r="4" fill="#0" id="circle74"/>
	<circle cx="333.852" cy="101.734" r="4" fill="#0" id="circle75"/>
	<circle cx="336.296" cy="495.113" r="4" fill="#0" id="circle76"/>
	<circle cx="355.842" cy="113.951" r="4" fill="#0" id="circle77"/>
	<circle cx="355.842" cy="478.01" r="4" fill="#0" id="circle78"/>
	<circle cx="368.059" cy="453.576" r="4" fill="#0" id="circle79"/>
	<circle cx="377.833" cy="126.167" r="4" fill="#0" id="circle80"/>
	<circle cx="385.163" cy="434.03" r="4" fill="#0" id="circle81"/>
	<circle cx="399.823" cy="138.384" r="4" fill="#0" id="circle82"/>
	<circle cx="409.596" cy="434.03" r="4" fill="#0" id="circle83"/>
	<circle cx="421.813" cy="150.601" r="4" fill="#0" id="circle84"/>
	<circle cx="431.586" cy="446.246" r="4" fill="#0" id="circle85"/>
	<circle cx="431.586" cy="470.68" r="4" fill="#0" id="circle86"/>
	<circle cx="431.586" cy="495.113" r="4" fill="#0" id="circle87"/>
	<circle cx="443.803" cy="162.818" r="4" fill="#0" id="circle88"/>
	<circle cx="443.803" cy="517.103" r="4" fill="#0" id="circle89"/>
	<circle cx="448.69" cy="541.537" r="4" fill="#0" id="circle90"/>
	<circle cx="460.906" cy="563.527" r="4" fill="#0" id="circle91"/>
	<circle cx="463.35" cy="177.478" r="4" fill="#0" id="circle92"/>
	<circle cx="480.453" cy="580.631" r="4" fill="#0" id="circle93"/>
	<circle cx="482.897" cy="194.581" r="4" fill="#0" id="circle94"/>
	<circle cx="500" cy="214.128" r="4" fill="#0" id="circle95"/>
	<circle cx="502.443" cy="592.847" r="4" fill="#0" id="circle96"/>
	<circle cx="524.433" cy="223.901" r="4" fill="#0" id="circle97"/>
	<circle cx="524.433" cy="605.064" r="4" fill="#0" id="circle98"/>
	<circle cx="541.537" cy="243.448" r="4" fill="#0" id="circle99"/>
	<circle cx="546.424" cy="617.281" r="4" fill="#0" id="circle100"/>
	<circle cx="561.084" cy="260.552" r="4" fill="#0" id="circle101"/>
	<circle cx="568.414" cy="629.498" r="4" fill="#0" id="circle102"/>
	<circle cx="580.631" cy="409.596" r="4" fill="#0" id="circle103"/>
	<circle cx="580.631" cy="434.03" r="4" fill="#0" id="circle104"/>
	<circle cx="580.631" cy="458.463" r="4" fill="#0" id="circle105"/>
	<circle cx="583.074" cy="272.768" r="4" fill="#0" id="circle106"/>
	<circle cx="592.847" cy="385.163" r="4" fill="#0" id="circle107"/>
	<circle cx="592.847" cy="480.453" r="4" fill="#0" id="circle108"/>
	<circle cx="592.847" cy="629.498" r="4" fill="#0" id="circle109"/>
	<circle cx="602.621" cy="289.872" r="4" fill="#0" id="circle110"/>
	<circle cx="605.064" cy="360.729" r="4" fill="#0" id="circle111"/>
	<circle cx="614.837" cy="617.281" r="4" fill="#0" id="circle112"/>
	<circle cx="617.281" cy="309.419" r="4" fill="#0" id="circle113"/>
	<circle cx="617.281" cy="333.852" r="4" fill="#0" id="circle114"/>
	<circle cx="617.281" cy="480.453" r="4" fill="#0" id="circle115"/>
	<circle cx="636.828" cy="605.064" r="4" fill="#0" id="circle116"/>
	<circle cx="641.714" cy="473.123" r="4" fill="#0" id="circle117"/>
	<circle cx="658.818" cy="592.847" r="4" fill="#0" id="circle118"/>
	<circle cx="666.148" cy="468.236" r="4" fill="#0" id="circle119"/>
	<circle cx="680.808" cy="580.631" r="4" fill="#0" id="circle120"/>
	<circle cx="688.138" cy="456.02" r="4" fill="#0" id="circle121"/>
	<circle cx="702.798" cy="568.414" r="4" fill="#0" id="circle122"/>
	<circle cx="710.128" cy="443.803" r="4" fill="#0" id="circle123"/>
	<circle cx="722.345" cy="551.31" r="4" fill="#0" id="circle124"/>
	<circle cx="732.118" cy="431.586" r="4" fill="#0" id="circle125"/>
	<circle cx="746.778" cy="539.094" r="4" fill="#0" id="circle126"/>
	<circle cx="756.552" cy="419.369" r="4" fill="#0" id="circle127"/>
	<circle cx="763.882" cy="519.547" r="4" fill="#0" id="circle128"/>
	<circle cx="780.985" cy="407.153" r="4" fill="#0" id="circle129"/>
	<circle cx="783.429" cy="502.443" r="4" fill="#0" id="circle130"/>
	<circle cx="800.532" cy="482.897" r="4" fill="#0" id="circle131"/>
	<circle cx="805.419" cy="394.936" r="4" fill="#0" id="circle132"/>
	<circle cx="824.966" cy="470.68" r="4" fill="#0" id="circle133"/>
	<circle cx="829.852" cy="382.719" r="4" fill="#0" id="circle134"/>
	<circle cx="849.399" cy="470.68" r="4" fill="#0" id="circle135"/>
	<circle cx="854.286" cy="370.502" r="4" fill="#0" id="circle136"/>
	<circle cx="873.833" cy="470.68" r="4" fill="#0" id="circle137"/>
	<circle cx="878.719" cy="358.286" r="4" fill="#0" id="circle138"/>
	<circle cx="898.266" cy="470.68" r="4" fill="#0" id="circle139"/>
	<circle cx="903.153" cy="346.069" r="4" fill="#0" id="circle140"/>
	<circle cx="922.7" cy="470.68" r="4" fill="#0" id="circle141"/>
	<circle cx="927.586" cy="346.069" r="4" fill="#0" id="circle142"/>
	<circle cx="947.133" cy="470.68" r="4" fill="#0" id="circle143"/>
	<circle cx="949.576" cy="358.286" r="4" fill="#0" id="circle144"/>
	<circle cx="969.123" cy="482.897" r="4" fill="#0" id="circle145"/>
	<circle cx="971.567" cy="370.502" r="4" fill="#0" id="circle146"/>
	<circle cx="983.783" cy="392.493" r="4" fill="#0" id="circle147"/>
	<circle cx="983.783" cy="416.926" r="4" fill="#0" id="circle148"/>
	<circle cx="993.557" cy="475.567" r="4" fill="#0" id="circle149"/>
	<circle cx="996" cy="438.916" r="4" fill="#0" id="circle150"/>
	</g>
</svg>