<?xml version="1.0" encoding="UTF-8" standalone="no"?>
<!-- Created with CurveBenchmark -->
<svg
	xmlns:dc="http://purl.org/dc/elements/1.1/"
	xmlns:cc="http://creativecommons.org/ns#"
	xmlns:rdf="http://www.w3.org/1999/02/22-rdf-syntax-ns#"
	xmlns:svg="http://www.w3.org/2000/svg"
	xmlns="http://www.w3.org/2000/svg"
	xmlns:sodipodi="http://sodipodi.sourceforge.net/DTD/sodipodi-0.dtd"
	xmlns:inkscape="http://www.inkscape.org/namespaces/inkscape"
	width="1000"
	height="1000"
	id="svg2"
	version="1.1"
	sodipodi:docname="manifold/discur-fish-4.png.txt">
<defs
	id="defs4" />
<metadata
	id="metadata7">
	<rdf:RDF>
		<cc:Work
			rdf:about="">
			<dc:format>image/svg+xml</dc:format>
			<dc:type
				rdf:resource="http://purl.org/dc/dcmitype/StillImage" />
			<dc:title></dc:title>
		</cc:Work>
	</rdf:RDF>
</metadata>
<g
	inkscape:label="Layer 1"
	inkscape:groupmode="layer"
	id="layer1">
	<path style="fill:none;stroke:red;stroke-width:1px;stroke-linecap:butt;stroke-linejoin:miter;stroke-opacity:1" d="M 4,166.113 4,174.513 z" id="boundary" inkscape:connector-curvature="0" />
	<path style="fill:none;stroke:red;stroke-width:1px;stroke-linecap:butt;stroke-linejoin:miter;stroke-opacity:1" d="M 4,166.113 8.19983,153.514 z" id="boundary" inkscape:connector-curvature="0" />
	<path style="fill:none;stroke:red;stroke-width:1px;stroke-linecap:butt;stroke-linejoin:miter;stroke-opacity:1" d="M 4,174.513 4,182.913 z" id="boundary" inkscape:connector-curvature="0" />
	<path style="fill:none;stroke:red;stroke-width:1px;stroke-linecap:butt;stroke-linejoin:miter;stroke-opacity:1" d="M 4,182.913 4,191.312 z" id="boundary" inkscape:connector-curvature="0" />
	<path style="fill:none;stroke:red;stroke-width:1px;stroke-linecap:butt;stroke-linejoin:miter;stroke-opacity:1" d="M 4,191.312 4,199.712 z" id="boundary" inkscape:connector-curvature="0" />
	<path style="fill:none;stroke:red;stroke-width:1px;stroke-linecap:butt;stroke-linejoin:miter;stroke-opacity:1" d="M 4,199.712 4,208.112 z" id="boundary" inkscape:connector-curvature="0" />
	<path style="fill:none;stroke:red;stroke-width:1px;stroke-linecap:butt;stroke-linejoin:miter;stroke-opacity:1" d="M 4,208.112 4,216.511 z" id="boundary" inkscape:connector-curvature="0" />
	<path style="fill:none;stroke:red;stroke-width:1px;stroke-linecap:butt;stroke-linejoin:miter;stroke-opacity:1" d="M 4,216.511 4,224.911 z" id="boundary" inkscape:connector-curvature="0" />
	<path style="fill:none;stroke:red;stroke-width:1px;stroke-linecap:butt;stroke-linejoin:miter;stroke-opacity:1" d="M 4,224.911 4,233.311 z" id="boundary" inkscape:connector-curvature="0" />
	<path style="fill:none;stroke:red;stroke-width:1px;stroke-linecap:butt;stroke-linejoin:miter;stroke-opacity:1" d="M 4,233.311 4,241.71 z" id="boundary" inkscape:connector-curvature="0" />
	<path style="fill:none;stroke:red;stroke-width:1px;stroke-linecap:butt;stroke-linejoin:miter;stroke-opacity:1" d="M 4,241.71 8.19983,249.27 z" id="boundary" inkscape:connector-curvature="0" />
	<path style="fill:none;stroke:red;stroke-width:1px;stroke-linecap:butt;stroke-linejoin:miter;stroke-opacity:1" d="M 8.19983,145.114 8.19983,153.514 z" id="boundary" inkscape:connector-curvature="0" />
	<path style="fill:none;stroke:red;stroke-width:1px;stroke-linecap:butt;stroke-linejoin:miter;stroke-opacity:1" d="M 8.19983,145.114 12.3997,136.715 z" id="boundary" inkscape:connector-curvature="0" />
	<path style="fill:none;stroke:red;stroke-width:1px;stroke-linecap:butt;stroke-linejoin:miter;stroke-opacity:1" d="M 8.19983,249.27 8.19983,257.67 z" id="boundary" inkscape:connector-curvature="0" />
	<path style="fill:none;stroke:red;stroke-width:1px;stroke-linecap:butt;stroke-linejoin:miter;stroke-opacity:1" d="M 8.19983,257.67 12.3997,265.229 z" id="boundary" inkscape:connector-curvature="0" />
	<path style="fill:none;stroke:red;stroke-width:1px;stroke-linecap:butt;stroke-linejoin:miter;stroke-opacity:1" d="M 12.3997,128.315 12.3997,136.715 z" id="boundary" inkscape:connector-curvature="0" />
	<path style="fill:none;stroke:red;stroke-width:1px;stroke-linecap:butt;stroke-linejoin:miter;stroke-opacity:1" d="M 12.3997,128.315 16.5995,115.715 z" id="boundary" inkscape:connector-curvature="0" />
	<path style="fill:none;stroke:red;stroke-width:1px;stroke-linecap:butt;stroke-linejoin:miter;stroke-opacity:1" d="M 12.3997,265.229 16.5995,272.789 z" id="boundary" inkscape:connector-curvature="0" />
	<path style="fill:none;stroke:red;stroke-width:1px;stroke-linecap:butt;stroke-linejoin:miter;stroke-opacity:1" d="M 16.5995,115.715 20.7993,107.316 z" id="boundary" inkscape:connector-curvature="0" />
	<path style="fill:none;stroke:red;stroke-width:1px;stroke-linecap:butt;stroke-linejoin:miter;stroke-opacity:1" d="M 16.5995,272.789 18.2794,281.189 z" id="boundary" inkscape:connector-curvature="0" />
	<path style="fill:none;stroke:red;stroke-width:1px;stroke-linecap:butt;stroke-linejoin:miter;stroke-opacity:1" d="M 18.2794,281.189 22.4793,288.749 z" id="boundary" inkscape:connector-curvature="0" />
	<path style="fill:none;stroke:red;stroke-width:1px;stroke-linecap:butt;stroke-linejoin:miter;stroke-opacity:1" d="M 20.7993,107.316 27.5191,100.596 z" id="boundary" inkscape:connector-curvature="0" />
	<path style="fill:none;stroke:red;stroke-width:1px;stroke-linecap:butt;stroke-linejoin:miter;stroke-opacity:1" d="M 22.4793,288.749 30.8789,290.428 z" id="boundary" inkscape:connector-curvature="0" />
	<path style="fill:none;stroke:red;stroke-width:1px;stroke-linecap:butt;stroke-linejoin:miter;stroke-opacity:1" d="M 27.5191,100.596 35.0787,96.3963 z" id="boundary" inkscape:connector-curvature="0" />
	<path style="fill:none;stroke:red;stroke-width:1px;stroke-linecap:butt;stroke-linejoin:miter;stroke-opacity:1" d="M 30.8789,290.428 39.2786,290.428 z" id="boundary" inkscape:connector-curvature="0" />
	<path style="fill:none;stroke:red;stroke-width:1px;stroke-linecap:butt;stroke-linejoin:miter;stroke-opacity:1" d="M 35.0787,96.3963 43.4784,96.3963 z" id="boundary" inkscape:connector-curvature="0" />
	<path style="fill:none;stroke:red;stroke-width:1px;stroke-linecap:butt;stroke-linejoin:miter;stroke-opacity:1" d="M 39.2786,290.428 46.8383,286.229 z" id="boundary" inkscape:connector-curvature="0" />
	<path style="fill:none;stroke:red;stroke-width:1px;stroke-linecap:butt;stroke-linejoin:miter;stroke-opacity:1" d="M 43.4784,96.3963 51.0381,100.596 z" id="boundary" inkscape:connector-curvature="0" />
	<path style="fill:none;stroke:red;stroke-width:1px;stroke-linecap:butt;stroke-linejoin:miter;stroke-opacity:1" d="M 46.8383,286.229 55.2379,286.229 z" id="boundary" inkscape:connector-curvature="0" />
	<path style="fill:none;stroke:red;stroke-width:1px;stroke-linecap:butt;stroke-linejoin:miter;stroke-opacity:1" d="M 51.0381,100.596 58.5978,104.796 z" id="boundary" inkscape:connector-curvature="0" />
	<path style="fill:none;stroke:red;stroke-width:1px;stroke-linecap:butt;stroke-linejoin:miter;stroke-opacity:1" d="M 55.2379,286.229 63.6376,282.029 z" id="boundary" inkscape:connector-curvature="0" />
	<path style="fill:none;stroke:red;stroke-width:1px;stroke-linecap:butt;stroke-linejoin:miter;stroke-opacity:1" d="M 58.5978,104.796 66.9975,106.476 z" id="boundary" inkscape:connector-curvature="0" />
	<path style="fill:none;stroke:red;stroke-width:1px;stroke-linecap:butt;stroke-linejoin:miter;stroke-opacity:1" d="M 63.6376,282.029 71.1973,277.829 z" id="boundary" inkscape:connector-curvature="0" />
	<path style="fill:none;stroke:red;stroke-width:1px;stroke-linecap:butt;stroke-linejoin:miter;stroke-opacity:1" d="M 66.9975,106.476 72.0373,113.196 z" id="boundary" inkscape:connector-curvature="0" />
	<path style="fill:none;stroke:red;stroke-width:1px;stroke-linecap:butt;stroke-linejoin:miter;stroke-opacity:1" d="M 71.1973,277.829 78.757,273.629 z" id="boundary" inkscape:connector-curvature="0" />
	<path style="fill:none;stroke:red;stroke-width:1px;stroke-linecap:butt;stroke-linejoin:miter;stroke-opacity:1" d="M 72.0373,113.196 80.4369,115.715 z" id="boundary" inkscape:connector-curvature="0" />
	<path style="fill:none;stroke:red;stroke-width:1px;stroke-linecap:butt;stroke-linejoin:miter;stroke-opacity:1" d="M 78.757,273.629 87.1566,271.949 z" id="boundary" inkscape:connector-curvature="0" />
	<path style="fill:none;stroke:red;stroke-width:1px;stroke-linecap:butt;stroke-linejoin:miter;stroke-opacity:1" d="M 80.4369,115.715 88.8366,117.395 z" id="boundary" inkscape:connector-curvature="0" />
	<path style="fill:none;stroke:red;stroke-width:1px;stroke-linecap:butt;stroke-linejoin:miter;stroke-opacity:1" d="M 87.1566,271.949 95.5563,269.429 z" id="boundary" inkscape:connector-curvature="0" />
	<path style="fill:none;stroke:red;stroke-width:1px;stroke-linecap:butt;stroke-linejoin:miter;stroke-opacity:1" d="M 88.8366,117.395 96.3963,121.595 z" id="boundary" inkscape:connector-curvature="0" />
	<path style="fill:none;stroke:red;stroke-width:1px;stroke-linecap:butt;stroke-linejoin:miter;stroke-opacity:1" d="M 95.5563,269.429 103.116,265.229 z" id="boundary" inkscape:connector-curvature="0" />
	<path style="fill:none;stroke:red;stroke-width:1px;stroke-linecap:butt;stroke-linejoin:miter;stroke-opacity:1" d="M 96.3963,121.595 104.796,123.275 z" id="boundary" inkscape:connector-curvature="0" />
	<path style="fill:none;stroke:red;stroke-width:1px;stroke-linecap:butt;stroke-linejoin:miter;stroke-opacity:1" d="M 103.116,265.229 111.516,264.39 z" id="boundary" inkscape:connector-curvature="0" />
	<path style="fill:none;stroke:red;stroke-width:1px;stroke-linecap:butt;stroke-linejoin:miter;stroke-opacity:1" d="M 104.796,123.275 113.196,125.795 z" id="boundary" inkscape:connector-curvature="0" />
	<path style="fill:none;stroke:red;stroke-width:1px;stroke-linecap:butt;stroke-linejoin:miter;stroke-opacity:1" d="M 111.516,264.39 118.235,256.83 z" id="boundary" inkscape:connector-curvature="0" />
	<path style="fill:none;stroke:red;stroke-width:1px;stroke-linecap:butt;stroke-linejoin:miter;stroke-opacity:1" d="M 113.196,125.795 120.755,129.995 z" id="boundary" inkscape:connector-curvature="0" />
	<path style="fill:none;stroke:red;stroke-width:1px;stroke-linecap:butt;stroke-linejoin:miter;stroke-opacity:1" d="M 118.235,256.83 126.635,252.63 z" id="boundary" inkscape:connector-curvature="0" />
	<path style="fill:none;stroke:red;stroke-width:1px;stroke-linecap:butt;stroke-linejoin:miter;stroke-opacity:1" d="M 120.755,129.995 128.315,134.195 z" id="boundary" inkscape:connector-curvature="0" />
	<path style="fill:none;stroke:red;stroke-width:1px;stroke-linecap:butt;stroke-linejoin:miter;stroke-opacity:1" d="M 126.635,252.63 135.035,252.63 z" id="boundary" inkscape:connector-curvature="0" />
	<path style="fill:none;stroke:red;stroke-width:1px;stroke-linecap:butt;stroke-linejoin:miter;stroke-opacity:1" d="M 128.315,134.195 135.875,138.395 z" id="boundary" inkscape:connector-curvature="0" />
	<path style="fill:none;stroke:red;stroke-width:1px;stroke-linecap:butt;stroke-linejoin:miter;stroke-opacity:1" d="M 135.035,252.63 142.594,248.43 z" id="boundary" inkscape:connector-curvature="0" />
	<path style="fill:none;stroke:red;stroke-width:1px;stroke-linecap:butt;stroke-linejoin:miter;stroke-opacity:1" d="M 135.875,138.395 144.274,138.395 z" id="boundary" inkscape:connector-curvature="0" />
	<path style="fill:none;stroke:red;stroke-width:1px;stroke-linecap:butt;stroke-linejoin:miter;stroke-opacity:1" d="M 142.594,248.43 150.994,245.91 z" id="boundary" inkscape:connector-curvature="0" />
	<path style="fill:none;stroke:red;stroke-width:1px;stroke-linecap:butt;stroke-linejoin:miter;stroke-opacity:1" d="M 144.274,138.395 151.834,142.594 z" id="boundary" inkscape:connector-curvature="0" />
	<path style="fill:none;stroke:red;stroke-width:1px;stroke-linecap:butt;stroke-linejoin:miter;stroke-opacity:1" d="M 150.994,245.91 159.394,244.23 z" id="boundary" inkscape:connector-curvature="0" />
	<path style="fill:none;stroke:red;stroke-width:1px;stroke-linecap:butt;stroke-linejoin:miter;stroke-opacity:1" d="M 151.834,142.594 160.234,145.114 z" id="boundary" inkscape:connector-curvature="0" />
	<path style="fill:none;stroke:red;stroke-width:1px;stroke-linecap:butt;stroke-linejoin:miter;stroke-opacity:1" d="M 159.394,244.23 167.793,244.23 z" id="boundary" inkscape:connector-curvature="0" />
	<path style="fill:none;stroke:red;stroke-width:1px;stroke-linecap:butt;stroke-linejoin:miter;stroke-opacity:1" d="M 160.234,145.114 168.633,146.794 z" id="boundary" inkscape:connector-curvature="0" />
	<path style="fill:none;stroke:red;stroke-width:1px;stroke-linecap:butt;stroke-linejoin:miter;stroke-opacity:1" d="M 167.793,244.23 176.193,244.23 z" id="boundary" inkscape:connector-curvature="0" />
	<path style="fill:none;stroke:red;stroke-width:1px;stroke-linecap:butt;stroke-linejoin:miter;stroke-opacity:1" d="M 168.633,146.794 177.033,146.794 z" id="boundary" inkscape:connector-curvature="0" />
	<path style="fill:none;stroke:red;stroke-width:1px;stroke-linecap:butt;stroke-linejoin:miter;stroke-opacity:1" d="M 176.193,244.23 184.593,244.23 z" id="boundary" inkscape:connector-curvature="0" />
	<path style="fill:none;stroke:red;stroke-width:1px;stroke-linecap:butt;stroke-linejoin:miter;stroke-opacity:1" d="M 177.033,146.794 185.433,146.794 z" id="boundary" inkscape:connector-curvature="0" />
	<path style="fill:none;stroke:red;stroke-width:1px;stroke-linecap:butt;stroke-linejoin:miter;stroke-opacity:1" d="M 184.593,244.23 192.992,244.23 z" id="boundary" inkscape:connector-curvature="0" />
	<path style="fill:none;stroke:red;stroke-width:1px;stroke-linecap:butt;stroke-linejoin:miter;stroke-opacity:1" d="M 185.433,146.794 193.832,149.314 z" id="boundary" inkscape:connector-curvature="0" />
	<path style="fill:none;stroke:red;stroke-width:1px;stroke-linecap:butt;stroke-linejoin:miter;stroke-opacity:1" d="M 192.992,244.23 201.392,244.23 z" id="boundary" inkscape:connector-curvature="0" />
	<path style="fill:none;stroke:red;stroke-width:1px;stroke-linecap:butt;stroke-linejoin:miter;stroke-opacity:1" d="M 193.832,149.314 202.232,150.994 z" id="boundary" inkscape:connector-curvature="0" />
	<path style="fill:none;stroke:red;stroke-width:1px;stroke-linecap:butt;stroke-linejoin:miter;stroke-opacity:1" d="M 201.392,244.23 209.792,244.23 z" id="boundary" inkscape:connector-curvature="0" />
	<path style="fill:none;stroke:red;stroke-width:1px;stroke-linecap:butt;stroke-linejoin:miter;stroke-opacity:1" d="M 201.392,254.31 201.392,262.71 z" id="boundary" inkscape:connector-curvature="0" />
	<path style="fill:none;stroke:red;stroke-width:1px;stroke-linecap:butt;stroke-linejoin:miter;stroke-opacity:1" d="M 201.392,254.31 209.792,244.23 z" id="boundary" inkscape:connector-curvature="0" />
	<path style="fill:none;stroke:red;stroke-width:1px;stroke-linecap:butt;stroke-linejoin:miter;stroke-opacity:1" d="M 201.392,262.71 206.432,269.429 z" id="boundary" inkscape:connector-curvature="0" />
	<path style="fill:none;stroke:red;stroke-width:1px;stroke-linecap:butt;stroke-linejoin:miter;stroke-opacity:1" d="M 202.232,150.994 210.632,150.994 z" id="boundary" inkscape:connector-curvature="0" />
	<path style="fill:none;stroke:red;stroke-width:1px;stroke-linecap:butt;stroke-linejoin:miter;stroke-opacity:1" d="M 206.432,269.429 214.831,269.429 z" id="boundary" inkscape:connector-curvature="0" />
	<path style="fill:none;stroke:red;stroke-width:1px;stroke-linecap:butt;stroke-linejoin:miter;stroke-opacity:1" d="M 210.632,150.994 219.031,150.994 z" id="boundary" inkscape:connector-curvature="0" />
	<path style="fill:none;stroke:red;stroke-width:1px;stroke-linecap:butt;stroke-linejoin:miter;stroke-opacity:1" d="M 214.831,269.429 223.231,269.429 z" id="boundary" inkscape:connector-curvature="0" />
	<path style="fill:none;stroke:red;stroke-width:1px;stroke-linecap:butt;stroke-linejoin:miter;stroke-opacity:1" d="M 219.031,150.994 226.591,145.114 z" id="boundary" inkscape:connector-curvature="0" />
	<path style="fill:none;stroke:red;stroke-width:1px;stroke-linecap:butt;stroke-linejoin:miter;stroke-opacity:1" d="M 223.231,269.429 231.631,271.109 z" id="boundary" inkscape:connector-curvature="0" />
	<path style="fill:none;stroke:red;stroke-width:1px;stroke-linecap:butt;stroke-linejoin:miter;stroke-opacity:1" d="M 226.591,145.114 234.991,140.914 z" id="boundary" inkscape:connector-curvature="0" />
	<path style="fill:none;stroke:red;stroke-width:1px;stroke-linecap:butt;stroke-linejoin:miter;stroke-opacity:1" d="M 231.631,271.109 240.03,273.629 z" id="boundary" inkscape:connector-curvature="0" />
	<path style="fill:none;stroke:red;stroke-width:1px;stroke-linecap:butt;stroke-linejoin:miter;stroke-opacity:1" d="M 234.991,140.914 243.39,132.515 z" id="boundary" inkscape:connector-curvature="0" />
	<path style="fill:none;stroke:red;stroke-width:1px;stroke-linecap:butt;stroke-linejoin:miter;stroke-opacity:1" d="M 240.03,273.629 247.59,277.829 z" id="boundary" inkscape:connector-curvature="0" />
	<path style="fill:none;stroke:red;stroke-width:1px;stroke-linecap:butt;stroke-linejoin:miter;stroke-opacity:1" d="M 243.39,132.515 251.79,128.315 z" id="boundary" inkscape:connector-curvature="0" />
	<path style="fill:none;stroke:red;stroke-width:1px;stroke-linecap:butt;stroke-linejoin:miter;stroke-opacity:1" d="M 247.59,277.829 255.15,282.029 z" id="boundary" inkscape:connector-curvature="0" />
	<path style="fill:none;stroke:red;stroke-width:1px;stroke-linecap:butt;stroke-linejoin:miter;stroke-opacity:1" d="M 251.79,128.315 260.19,124.115 z" id="boundary" inkscape:connector-curvature="0" />
	<path style="fill:none;stroke:red;stroke-width:1px;stroke-linecap:butt;stroke-linejoin:miter;stroke-opacity:1" d="M 255.15,282.029 262.71,286.229 z" id="boundary" inkscape:connector-curvature="0" />
	<path style="fill:none;stroke:red;stroke-width:1px;stroke-linecap:butt;stroke-linejoin:miter;stroke-opacity:1" d="M 260.19,124.115 268.589,119.915 z" id="boundary" inkscape:connector-curvature="0" />
	<path style="fill:none;stroke:red;stroke-width:1px;stroke-linecap:butt;stroke-linejoin:miter;stroke-opacity:1" d="M 262.71,286.229 271.109,289.588 z" id="boundary" inkscape:connector-curvature="0" />
	<path style="fill:none;stroke:red;stroke-width:1px;stroke-linecap:butt;stroke-linejoin:miter;stroke-opacity:1" d="M 268.589,119.915 276.989,117.395 z" id="boundary" inkscape:connector-curvature="0" />
	<path style="fill:none;stroke:red;stroke-width:1px;stroke-linecap:butt;stroke-linejoin:miter;stroke-opacity:1" d="M 271.109,289.588 279.509,290.428 z" id="boundary" inkscape:connector-curvature="0" />
	<path style="fill:none;stroke:red;stroke-width:1px;stroke-linecap:butt;stroke-linejoin:miter;stroke-opacity:1" d="M 276.989,117.395 284.549,113.196 z" id="boundary" inkscape:connector-curvature="0" />
	<path style="fill:none;stroke:red;stroke-width:1px;stroke-linecap:butt;stroke-linejoin:miter;stroke-opacity:1" d="M 279.509,290.428 287.069,294.628 z" id="boundary" inkscape:connector-curvature="0" />
	<path style="fill:none;stroke:red;stroke-width:1px;stroke-linecap:butt;stroke-linejoin:miter;stroke-opacity:1" d="M 284.549,113.196 292.108,108.996 z" id="boundary" inkscape:connector-curvature="0" />
	<path style="fill:none;stroke:red;stroke-width:1px;stroke-linecap:butt;stroke-linejoin:miter;stroke-opacity:1" d="M 287.069,294.628 295.468,297.148 z" id="boundary" inkscape:connector-curvature="0" />
	<path style="fill:none;stroke:red;stroke-width:1px;stroke-linecap:butt;stroke-linejoin:miter;stroke-opacity:1" d="M 292.108,108.996 299.668,104.796 z" id="boundary" inkscape:connector-curvature="0" />
	<path style="fill:none;stroke:red;stroke-width:1px;stroke-linecap:butt;stroke-linejoin:miter;stroke-opacity:1" d="M 295.468,297.148 303.028,301.348 z" id="boundary" inkscape:connector-curvature="0" />
	<path style="fill:none;stroke:red;stroke-width:1px;stroke-linecap:butt;stroke-linejoin:miter;stroke-opacity:1" d="M 299.668,104.796 308.068,101.436 z" id="boundary" inkscape:connector-curvature="0" />
	<path style="fill:none;stroke:red;stroke-width:1px;stroke-linecap:butt;stroke-linejoin:miter;stroke-opacity:1" d="M 303.028,301.348 311.428,304.708 z" id="boundary" inkscape:connector-curvature="0" />
	<path style="fill:none;stroke:red;stroke-width:1px;stroke-linecap:butt;stroke-linejoin:miter;stroke-opacity:1" d="M 308.068,101.436 316.467,100.596 z" id="boundary" inkscape:connector-curvature="0" />
	<path style="fill:none;stroke:red;stroke-width:1px;stroke-linecap:butt;stroke-linejoin:miter;stroke-opacity:1" d="M 311.428,304.708 319.827,307.228 z" id="boundary" inkscape:connector-curvature="0" />
	<path style="fill:none;stroke:red;stroke-width:1px;stroke-linecap:butt;stroke-linejoin:miter;stroke-opacity:1" d="M 316.467,100.596 324.027,96.3963 z" id="boundary" inkscape:connector-curvature="0" />
	<path style="fill:none;stroke:red;stroke-width:1px;stroke-linecap:butt;stroke-linejoin:miter;stroke-opacity:1" d="M 319.827,307.228 327.387,311.428 z" id="boundary" inkscape:connector-curvature="0" />
	<path style="fill:none;stroke:red;stroke-width:1px;stroke-linecap:butt;stroke-linejoin:miter;stroke-opacity:1" d="M 324.027,96.3963 332.427,93.8764 z" id="boundary" inkscape:connector-curvature="0" />
	<path style="fill:none;stroke:red;stroke-width:1px;stroke-linecap:butt;stroke-linejoin:miter;stroke-opacity:1" d="M 327.387,311.428 335.787,311.428 z" id="boundary" inkscape:connector-curvature="0" />
	<path style="fill:none;stroke:red;stroke-width:1px;stroke-linecap:butt;stroke-linejoin:miter;stroke-opacity:1" d="M 332.427,93.8764 340.826,89.6765 z" id="boundary" inkscape:connector-curvature="0" />
	<path style="fill:none;stroke:red;stroke-width:1px;stroke-linecap:butt;stroke-linejoin:miter;stroke-opacity:1" d="M 335.787,311.428 344.186,311.428 z" id="boundary" inkscape:connector-curvature="0" />
	<path style="fill:none;stroke:red;stroke-width:1px;stroke-linecap:butt;stroke-linejoin:miter;stroke-opacity:1" d="M 340.826,89.6765 349.226,85.4767 z" id="boundary" inkscape:connector-curvature="0" />
	<path style="fill:none;stroke:red;stroke-width:1px;stroke-linecap:butt;stroke-linejoin:miter;stroke-opacity:1" d="M 344.186,311.428 351.746,315.627 z" id="boundary" inkscape:connector-curvature="0" />
	<path style="fill:none;stroke:red;stroke-width:1px;stroke-linecap:butt;stroke-linejoin:miter;stroke-opacity:1" d="M 349.226,85.4767 357.626,83.7968 z" id="boundary" inkscape:connector-curvature="0" />
	<path style="fill:none;stroke:red;stroke-width:1px;stroke-linecap:butt;stroke-linejoin:miter;stroke-opacity:1" d="M 351.746,315.627 360.146,315.627 z" id="boundary" inkscape:connector-curvature="0" />
	<path style="fill:none;stroke:red;stroke-width:1px;stroke-linecap:butt;stroke-linejoin:miter;stroke-opacity:1" d="M 357.626,83.7968 365.185,79.597 z" id="boundary" inkscape:connector-curvature="0" />
	<path style="fill:none;stroke:red;stroke-width:1px;stroke-linecap:butt;stroke-linejoin:miter;stroke-opacity:1" d="M 360.146,315.627 368.545,315.627 z" id="boundary" inkscape:connector-curvature="0" />
	<path style="fill:none;stroke:red;stroke-width:1px;stroke-linecap:butt;stroke-linejoin:miter;stroke-opacity:1" d="M 365.185,79.597 373.585,79.597 z" id="boundary" inkscape:connector-curvature="0" />
	<path style="fill:none;stroke:red;stroke-width:1px;stroke-linecap:butt;stroke-linejoin:miter;stroke-opacity:1" d="M 368.545,315.627 376.105,319.827 z" id="boundary" inkscape:connector-curvature="0" />
	<path style="fill:none;stroke:red;stroke-width:1px;stroke-linecap:butt;stroke-linejoin:miter;stroke-opacity:1" d="M 373.585,79.597 381.145,75.3971 z" id="boundary" inkscape:connector-curvature="0" />
	<path style="fill:none;stroke:red;stroke-width:1px;stroke-linecap:butt;stroke-linejoin:miter;stroke-opacity:1" d="M 376.105,319.827 384.505,319.827 z" id="boundary" inkscape:connector-curvature="0" />
	<path style="fill:none;stroke:red;stroke-width:1px;stroke-linecap:butt;stroke-linejoin:miter;stroke-opacity:1" d="M 381.145,75.3971 389.544,75.3971 z" id="boundary" inkscape:connector-curvature="0" />
	<path style="fill:none;stroke:red;stroke-width:1px;stroke-linecap:butt;stroke-linejoin:miter;stroke-opacity:1" d="M 384.505,319.827 392.904,319.827 z" id="boundary" inkscape:connector-curvature="0" />
	<path style="fill:none;stroke:red;stroke-width:1px;stroke-linecap:butt;stroke-linejoin:miter;stroke-opacity:1" d="M 389.544,75.3971 397.104,71.1973 z" id="boundary" inkscape:connector-curvature="0" />
	<path style="fill:none;stroke:red;stroke-width:1px;stroke-linecap:butt;stroke-linejoin:miter;stroke-opacity:1" d="M 392.904,319.827 400.464,324.027 z" id="boundary" inkscape:connector-curvature="0" />
	<path style="fill:none;stroke:red;stroke-width:1px;stroke-linecap:butt;stroke-linejoin:miter;stroke-opacity:1" d="M 397.104,71.1973 405.504,71.1973 z" id="boundary" inkscape:connector-curvature="0" />
	<path style="fill:none;stroke:red;stroke-width:1px;stroke-linecap:butt;stroke-linejoin:miter;stroke-opacity:1" d="M 400.464,324.027 408.864,324.027 z" id="boundary" inkscape:connector-curvature="0" />
	<path style="fill:none;stroke:red;stroke-width:1px;stroke-linecap:butt;stroke-linejoin:miter;stroke-opacity:1" d="M 405.504,71.1973 413.064,66.9975 z" id="boundary" inkscape:connector-curvature="0" />
	<path style="fill:none;stroke:red;stroke-width:1px;stroke-linecap:butt;stroke-linejoin:miter;stroke-opacity:1" d="M 408.864,324.027 417.263,326.547 z" id="boundary" inkscape:connector-curvature="0" />
	<path style="fill:none;stroke:red;stroke-width:1px;stroke-linecap:butt;stroke-linejoin:miter;stroke-opacity:1" d="M 413.064,66.9975 421.463,63.6376 z" id="boundary" inkscape:connector-curvature="0" />
	<path style="fill:none;stroke:red;stroke-width:1px;stroke-linecap:butt;stroke-linejoin:miter;stroke-opacity:1" d="M 417.263,326.547 425.663,328.227 z" id="boundary" inkscape:connector-curvature="0" />
	<path style="fill:none;stroke:red;stroke-width:1px;stroke-linecap:butt;stroke-linejoin:miter;stroke-opacity:1" d="M 421.463,63.6376 429.863,62.7976 z" id="boundary" inkscape:connector-curvature="0" />
	<path style="fill:none;stroke:red;stroke-width:1px;stroke-linecap:butt;stroke-linejoin:miter;stroke-opacity:1" d="M 425.663,328.227 434.063,328.227 z" id="boundary" inkscape:connector-curvature="0" />
	<path style="fill:none;stroke:red;stroke-width:1px;stroke-linecap:butt;stroke-linejoin:miter;stroke-opacity:1" d="M 429.863,62.7976 437.423,58.5978 z" id="boundary" inkscape:connector-curvature="0" />
	<path style="fill:none;stroke:red;stroke-width:1px;stroke-linecap:butt;stroke-linejoin:miter;stroke-opacity:1" d="M 434.063,328.227 442.462,328.227 z" id="boundary" inkscape:connector-curvature="0" />
	<path style="fill:none;stroke:red;stroke-width:1px;stroke-linecap:butt;stroke-linejoin:miter;stroke-opacity:1" d="M 437.423,58.5978 445.822,58.5978 z" id="boundary" inkscape:connector-curvature="0" />
	<path style="fill:none;stroke:red;stroke-width:1px;stroke-linecap:butt;stroke-linejoin:miter;stroke-opacity:1" d="M 442.462,328.227 450.862,328.227 z" id="boundary" inkscape:connector-curvature="0" />
	<path style="fill:none;stroke:red;stroke-width:1px;stroke-linecap:butt;stroke-linejoin:miter;stroke-opacity:1" d="M 445.822,58.5978 453.382,54.398 z" id="boundary" inkscape:connector-curvature="0" />
	<path style="fill:none;stroke:red;stroke-width:1px;stroke-linecap:butt;stroke-linejoin:miter;stroke-opacity:1" d="M 450.862,328.227 459.262,328.227 z" id="boundary" inkscape:connector-curvature="0" />
	<path style="fill:none;stroke:red;stroke-width:1px;stroke-linecap:butt;stroke-linejoin:miter;stroke-opacity:1" d="M 453.382,54.398 460.942,50.1981 z" id="boundary" inkscape:connector-curvature="0" />
	<path style="fill:none;stroke:red;stroke-width:1px;stroke-linecap:butt;stroke-linejoin:miter;stroke-opacity:1" d="M 459.262,328.227 467.661,328.227 z" id="boundary" inkscape:connector-curvature="0" />
	<path style="fill:none;stroke:red;stroke-width:1px;stroke-linecap:butt;stroke-linejoin:miter;stroke-opacity:1" d="M 460.942,50.1981 469.341,50.1981 z" id="boundary" inkscape:connector-curvature="0" />
	<path style="fill:none;stroke:red;stroke-width:1px;stroke-linecap:butt;stroke-linejoin:miter;stroke-opacity:1" d="M 467.661,328.227 476.061,328.227 z" id="boundary" inkscape:connector-curvature="0" />
	<path style="fill:none;stroke:red;stroke-width:1px;stroke-linecap:butt;stroke-linejoin:miter;stroke-opacity:1" d="M 469.341,50.1981 476.901,45.9983 z" id="boundary" inkscape:connector-curvature="0" />
	<path style="fill:none;stroke:red;stroke-width:1px;stroke-linecap:butt;stroke-linejoin:miter;stroke-opacity:1" d="M 476.061,328.227 484.461,328.227 z" id="boundary" inkscape:connector-curvature="0" />
	<path style="fill:none;stroke:red;stroke-width:1px;stroke-linecap:butt;stroke-linejoin:miter;stroke-opacity:1" d="M 476.901,45.9983 484.461,50.1981 z" id="boundary" inkscape:connector-curvature="0" />
	<path style="fill:none;stroke:red;stroke-width:1px;stroke-linecap:butt;stroke-linejoin:miter;stroke-opacity:1" d="M 484.461,50.1981 492.02,54.398 z" id="boundary" inkscape:connector-curvature="0" />
	<path style="fill:none;stroke:red;stroke-width:1px;stroke-linecap:butt;stroke-linejoin:miter;stroke-opacity:1" d="M 484.461,328.227 492.86,328.227 z" id="boundary" inkscape:connector-curvature="0" />
	<path style="fill:none;stroke:red;stroke-width:1px;stroke-linecap:butt;stroke-linejoin:miter;stroke-opacity:1" d="M 492.02,54.398 500.42,56.9179 z" id="boundary" inkscape:connector-curvature="0" />
	<path style="fill:none;stroke:red;stroke-width:1px;stroke-linecap:butt;stroke-linejoin:miter;stroke-opacity:1" d="M 492.86,328.227 500.42,324.027 z" id="boundary" inkscape:connector-curvature="0" />
	<path style="fill:none;stroke:red;stroke-width:1px;stroke-linecap:butt;stroke-linejoin:miter;stroke-opacity:1" d="M 500.42,56.9179 507.98,61.1177 z" id="boundary" inkscape:connector-curvature="0" />
	<path style="fill:none;stroke:red;stroke-width:1px;stroke-linecap:butt;stroke-linejoin:miter;stroke-opacity:1" d="M 500.42,324.027 508.82,324.027 z" id="boundary" inkscape:connector-curvature="0" />
	<path style="fill:none;stroke:red;stroke-width:1px;stroke-linecap:butt;stroke-linejoin:miter;stroke-opacity:1" d="M 507.98,61.1177 516.379,64.4776 z" id="boundary" inkscape:connector-curvature="0" />
	<path style="fill:none;stroke:red;stroke-width:1px;stroke-linecap:butt;stroke-linejoin:miter;stroke-opacity:1" d="M 508.82,324.027 517.219,324.027 z" id="boundary" inkscape:connector-curvature="0" />
	<path style="fill:none;stroke:red;stroke-width:1px;stroke-linecap:butt;stroke-linejoin:miter;stroke-opacity:1" d="M 516.379,64.4776 523.939,68.6774 z" id="boundary" inkscape:connector-curvature="0" />
	<path style="fill:none;stroke:red;stroke-width:1px;stroke-linecap:butt;stroke-linejoin:miter;stroke-opacity:1" d="M 517.219,324.027 525.619,324.027 z" id="boundary" inkscape:connector-curvature="0" />
	<path style="fill:none;stroke:red;stroke-width:1px;stroke-linecap:butt;stroke-linejoin:miter;stroke-opacity:1" d="M 523.939,68.6774 529.819,75.3971 z" id="boundary" inkscape:connector-curvature="0" />
	<path style="fill:none;stroke:red;stroke-width:1px;stroke-linecap:butt;stroke-linejoin:miter;stroke-opacity:1" d="M 525.619,324.027 533.179,319.827 z" id="boundary" inkscape:connector-curvature="0" />
	<path style="fill:none;stroke:red;stroke-width:1px;stroke-linecap:butt;stroke-linejoin:miter;stroke-opacity:1" d="M 529.819,75.3971 538.218,77.917 z" id="boundary" inkscape:connector-curvature="0" />
	<path style="fill:none;stroke:red;stroke-width:1px;stroke-linecap:butt;stroke-linejoin:miter;stroke-opacity:1" d="M 533.179,319.827 541.578,319.827 z" id="boundary" inkscape:connector-curvature="0" />
	<path style="fill:none;stroke:red;stroke-width:1px;stroke-linecap:butt;stroke-linejoin:miter;stroke-opacity:1" d="M 538.218,77.917 553.338,83.7968 z" id="boundary" inkscape:connector-curvature="0" />
	<path style="fill:none;stroke:red;stroke-width:1px;stroke-linecap:butt;stroke-linejoin:miter;stroke-opacity:1" d="M 541.578,319.827 549.978,317.307 z" id="boundary" inkscape:connector-curvature="0" />
	<path style="fill:none;stroke:red;stroke-width:1px;stroke-linecap:butt;stroke-linejoin:miter;stroke-opacity:1" d="M 549.978,317.307 558.378,315.627 z" id="boundary" inkscape:connector-curvature="0" />
	<path style="fill:none;stroke:red;stroke-width:1px;stroke-linecap:butt;stroke-linejoin:miter;stroke-opacity:1" d="M 553.338,83.7968 559.218,77.0771 z" id="boundary" inkscape:connector-curvature="0" />
	<path style="fill:none;stroke:red;stroke-width:1px;stroke-linecap:butt;stroke-linejoin:miter;stroke-opacity:1" d="M 558.378,315.627 565.937,311.428 z" id="boundary" inkscape:connector-curvature="0" />
	<path style="fill:none;stroke:red;stroke-width:1px;stroke-linecap:butt;stroke-linejoin:miter;stroke-opacity:1" d="M 559.218,77.0771 567.617,72.8772 z" id="boundary" inkscape:connector-curvature="0" />
	<path style="fill:none;stroke:red;stroke-width:1px;stroke-linecap:butt;stroke-linejoin:miter;stroke-opacity:1" d="M 565.937,311.428 573.497,306.388 z" id="boundary" inkscape:connector-curvature="0" />
	<path style="fill:none;stroke:red;stroke-width:1px;stroke-linecap:butt;stroke-linejoin:miter;stroke-opacity:1" d="M 567.617,72.8772 576.017,68.6774 z" id="boundary" inkscape:connector-curvature="0" />
	<path style="fill:none;stroke:red;stroke-width:1px;stroke-linecap:butt;stroke-linejoin:miter;stroke-opacity:1" d="M 573.497,306.388 577.697,297.988 z" id="boundary" inkscape:connector-curvature="0" />
	<path style="fill:none;stroke:red;stroke-width:1px;stroke-linecap:butt;stroke-linejoin:miter;stroke-opacity:1" d="M 576.017,68.6774 584.417,64.4776 z" id="boundary" inkscape:connector-curvature="0" />
	<path style="fill:none;stroke:red;stroke-width:1px;stroke-linecap:butt;stroke-linejoin:miter;stroke-opacity:1" d="M 577.697,297.988 581.897,289.588 z" id="boundary" inkscape:connector-curvature="0" />
	<path style="fill:none;stroke:red;stroke-width:1px;stroke-linecap:butt;stroke-linejoin:miter;stroke-opacity:1" d="M 581.897,289.588 584.417,273.629 z" id="boundary" inkscape:connector-curvature="0" />
	<path style="fill:none;stroke:red;stroke-width:1px;stroke-linecap:butt;stroke-linejoin:miter;stroke-opacity:1" d="M 584.417,64.4776 592.816,62.7976 z" id="boundary" inkscape:connector-curvature="0" />
	<path style="fill:none;stroke:red;stroke-width:1px;stroke-linecap:butt;stroke-linejoin:miter;stroke-opacity:1" d="M 584.417,273.629 592.816,273.629 z" id="boundary" inkscape:connector-curvature="0" />
	<path style="fill:none;stroke:red;stroke-width:1px;stroke-linecap:butt;stroke-linejoin:miter;stroke-opacity:1" d="M 592.816,62.7976 600.376,58.5978 z" id="boundary" inkscape:connector-curvature="0" />
	<path style="fill:none;stroke:red;stroke-width:1px;stroke-linecap:butt;stroke-linejoin:miter;stroke-opacity:1" d="M 592.816,273.629 601.216,275.309 z" id="boundary" inkscape:connector-curvature="0" />
	<path style="fill:none;stroke:red;stroke-width:1px;stroke-linecap:butt;stroke-linejoin:miter;stroke-opacity:1" d="M 600.376,58.5978 608.776,56.9179 z" id="boundary" inkscape:connector-curvature="0" />
	<path style="fill:none;stroke:red;stroke-width:1px;stroke-linecap:butt;stroke-linejoin:miter;stroke-opacity:1" d="M 601.216,275.309 609.616,277.829 z" id="boundary" inkscape:connector-curvature="0" />
	<path style="fill:none;stroke:red;stroke-width:1px;stroke-linecap:butt;stroke-linejoin:miter;stroke-opacity:1" d="M 608.776,56.9179 615.495,50.1981 z" id="boundary" inkscape:connector-curvature="0" />
	<path style="fill:none;stroke:red;stroke-width:1px;stroke-linecap:butt;stroke-linejoin:miter;stroke-opacity:1" d="M 609.616,277.829 618.015,279.509 z" id="boundary" inkscape:connector-curvature="0" />
	<path style="fill:none;stroke:red;stroke-width:1px;stroke-linecap:butt;stroke-linejoin:miter;stroke-opacity:1" d="M 615.495,50.1981 623.895,45.9983 z" id="boundary" inkscape:connector-curvature="0" />
	<path style="fill:none;stroke:red;stroke-width:1px;stroke-linecap:butt;stroke-linejoin:miter;stroke-opacity:1" d="M 618.015,279.509 626.415,282.029 z" id="boundary" inkscape:connector-curvature="0" />
	<path style="fill:none;stroke:red;stroke-width:1px;stroke-linecap:butt;stroke-linejoin:miter;stroke-opacity:1" d="M 623.895,45.9983 632.295,41.7985 z" id="boundary" inkscape:connector-curvature="0" />
	<path style="fill:none;stroke:red;stroke-width:1px;stroke-linecap:butt;stroke-linejoin:miter;stroke-opacity:1" d="M 626.415,282.029 633.975,286.229 z" id="boundary" inkscape:connector-curvature="0" />
	<path style="fill:none;stroke:red;stroke-width:1px;stroke-linecap:butt;stroke-linejoin:miter;stroke-opacity:1" d="M 632.295,41.7985 640.694,41.7985 z" id="boundary" inkscape:connector-curvature="0" />
	<path style="fill:none;stroke:red;stroke-width:1px;stroke-linecap:butt;stroke-linejoin:miter;stroke-opacity:1" d="M 633.975,286.229 642.374,286.229 z" id="boundary" inkscape:connector-curvature="0" />
	<path style="fill:none;stroke:red;stroke-width:1px;stroke-linecap:butt;stroke-linejoin:miter;stroke-opacity:1" d="M 640.694,41.7985 648.254,37.5986 z" id="boundary" inkscape:connector-curvature="0" />
	<path style="fill:none;stroke:red;stroke-width:1px;stroke-linecap:butt;stroke-linejoin:miter;stroke-opacity:1" d="M 642.374,286.229 650.774,286.229 z" id="boundary" inkscape:connector-curvature="0" />
	<path style="fill:none;stroke:red;stroke-width:1px;stroke-linecap:butt;stroke-linejoin:miter;stroke-opacity:1" d="M 648.254,37.5986 656.654,34.2388 z" id="boundary" inkscape:connector-curvature="0" />
	<path style="fill:none;stroke:red;stroke-width:1px;stroke-linecap:butt;stroke-linejoin:miter;stroke-opacity:1" d="M 650.774,286.229 659.174,286.229 z" id="boundary" inkscape:connector-curvature="0" />
	<path style="fill:none;stroke:red;stroke-width:1px;stroke-linecap:butt;stroke-linejoin:miter;stroke-opacity:1" d="M 656.654,34.2388 663.373,27.5191 z" id="boundary" inkscape:connector-curvature="0" />
	<path style="fill:none;stroke:red;stroke-width:1px;stroke-linecap:butt;stroke-linejoin:miter;stroke-opacity:1" d="M 659.174,286.229 667.573,286.229 z" id="boundary" inkscape:connector-curvature="0" />
	<path style="fill:none;stroke:red;stroke-width:1px;stroke-linecap:butt;stroke-linejoin:miter;stroke-opacity:1" d="M 663.373,27.5191 671.773,24.9992 z" id="boundary" inkscape:connector-curvature="0" />
	<path style="fill:none;stroke:red;stroke-width:1px;stroke-linecap:butt;stroke-linejoin:miter;stroke-opacity:1" d="M 667.573,286.229 675.133,290.428 z" id="boundary" inkscape:connector-curvature="0" />
	<path style="fill:none;stroke:red;stroke-width:1px;stroke-linecap:butt;stroke-linejoin:miter;stroke-opacity:1" d="M 671.773,24.9992 679.333,20.7993 z" id="boundary" inkscape:connector-curvature="0" />
	<path style="fill:none;stroke:red;stroke-width:1px;stroke-linecap:butt;stroke-linejoin:miter;stroke-opacity:1" d="M 675.133,290.428 683.533,290.428 z" id="boundary" inkscape:connector-curvature="0" />
	<path style="fill:none;stroke:red;stroke-width:1px;stroke-linecap:butt;stroke-linejoin:miter;stroke-opacity:1" d="M 679.333,20.7993 686.892,16.5995 z" id="boundary" inkscape:connector-curvature="0" />
	<path style="fill:none;stroke:red;stroke-width:1px;stroke-linecap:butt;stroke-linejoin:miter;stroke-opacity:1" d="M 683.533,290.428 691.932,290.428 z" id="boundary" inkscape:connector-curvature="0" />
	<path style="fill:none;stroke:red;stroke-width:1px;stroke-linecap:butt;stroke-linejoin:miter;stroke-opacity:1" d="M 686.892,16.5995 695.292,16.5995 z" id="boundary" inkscape:connector-curvature="0" />
	<path style="fill:none;stroke:red;stroke-width:1px;stroke-linecap:butt;stroke-linejoin:miter;stroke-opacity:1" d="M 691.932,290.428 700.332,290.428 z" id="boundary" inkscape:connector-curvature="0" />
	<path style="fill:none;stroke:red;stroke-width:1px;stroke-linecap:butt;stroke-linejoin:miter;stroke-opacity:1" d="M 695.292,16.5995 702.012,9.87976 z" id="boundary" inkscape:connector-curvature="0" />
	<path style="fill:none;stroke:red;stroke-width:1px;stroke-linecap:butt;stroke-linejoin:miter;stroke-opacity:1" d="M 700.332,290.428 707.892,286.229 z" id="boundary" inkscape:connector-curvature="0" />
	<path style="fill:none;stroke:red;stroke-width:1px;stroke-linecap:butt;stroke-linejoin:miter;stroke-opacity:1" d="M 702.012,9.87976 710.412,5.67993 z" id="boundary" inkscape:connector-curvature="0" />
	<path style="fill:none;stroke:red;stroke-width:1px;stroke-linecap:butt;stroke-linejoin:miter;stroke-opacity:1" d="M 707.892,286.229 716.291,286.229 z" id="boundary" inkscape:connector-curvature="0" />
	<path style="fill:none;stroke:red;stroke-width:1px;stroke-linecap:butt;stroke-linejoin:miter;stroke-opacity:1" d="M 710.412,5.67993 718.811,4 z" id="boundary" inkscape:connector-curvature="0" />
	<path style="fill:none;stroke:red;stroke-width:1px;stroke-linecap:butt;stroke-linejoin:miter;stroke-opacity:1" d="M 716.291,286.229 724.691,286.229 z" id="boundary" inkscape:connector-curvature="0" />
	<path style="fill:none;stroke:red;stroke-width:1px;stroke-linecap:butt;stroke-linejoin:miter;stroke-opacity:1" d="M 718.811,4 727.211,4 z" id="boundary" inkscape:connector-curvature="0" />
	<path style="fill:none;stroke:red;stroke-width:1px;stroke-linecap:butt;stroke-linejoin:miter;stroke-opacity:1" d="M 724.691,286.229 733.091,286.229 z" id="boundary" inkscape:connector-curvature="0" />
	<path style="fill:none;stroke:red;stroke-width:1px;stroke-linecap:butt;stroke-linejoin:miter;stroke-opacity:1" d="M 727.211,4 735.61,4 z" id="boundary" inkscape:connector-curvature="0" />
	<path style="fill:none;stroke:red;stroke-width:1px;stroke-linecap:butt;stroke-linejoin:miter;stroke-opacity:1" d="M 733.091,286.229 740.65,282.029 z" id="boundary" inkscape:connector-curvature="0" />
	<path style="fill:none;stroke:red;stroke-width:1px;stroke-linecap:butt;stroke-linejoin:miter;stroke-opacity:1" d="M 735.61,4 744.01,4 z" id="boundary" inkscape:connector-curvature="0" />
	<path style="fill:none;stroke:red;stroke-width:1px;stroke-linecap:butt;stroke-linejoin:miter;stroke-opacity:1" d="M 740.65,282.029 749.05,282.029 z" id="boundary" inkscape:connector-curvature="0" />
	<path style="fill:none;stroke:red;stroke-width:1px;stroke-linecap:butt;stroke-linejoin:miter;stroke-opacity:1" d="M 744.01,4 750.73,9.0398 z" id="boundary" inkscape:connector-curvature="0" />
	<path style="fill:none;stroke:red;stroke-width:1px;stroke-linecap:butt;stroke-linejoin:miter;stroke-opacity:1" d="M 749.05,282.029 756.61,277.829 z" id="boundary" inkscape:connector-curvature="0" />
	<path style="fill:none;stroke:red;stroke-width:1px;stroke-linecap:butt;stroke-linejoin:miter;stroke-opacity:1" d="M 750.73,9.0398 756.61,15.7595 z" id="boundary" inkscape:connector-curvature="0" />
	<path style="fill:none;stroke:red;stroke-width:1px;stroke-linecap:butt;stroke-linejoin:miter;stroke-opacity:1" d="M 756.61,15.7595 765.009,19.1194 z" id="boundary" inkscape:connector-curvature="0" />
	<path style="fill:none;stroke:red;stroke-width:1px;stroke-linecap:butt;stroke-linejoin:miter;stroke-opacity:1" d="M 756.61,277.829 764.169,273.629 z" id="boundary" inkscape:connector-curvature="0" />
	<path style="fill:none;stroke:red;stroke-width:1px;stroke-linecap:butt;stroke-linejoin:miter;stroke-opacity:1" d="M 764.169,273.629 772.569,271.109 z" id="boundary" inkscape:connector-curvature="0" />
	<path style="fill:none;stroke:red;stroke-width:1px;stroke-linecap:butt;stroke-linejoin:miter;stroke-opacity:1" d="M 765.009,19.1194 777.609,31.7189 z" id="boundary" inkscape:connector-curvature="0" />
	<path style="fill:none;stroke:red;stroke-width:1px;stroke-linecap:butt;stroke-linejoin:miter;stroke-opacity:1" d="M 772.569,271.109 780.969,269.429 z" id="boundary" inkscape:connector-curvature="0" />
	<path style="fill:none;stroke:red;stroke-width:1px;stroke-linecap:butt;stroke-linejoin:miter;stroke-opacity:1" d="M 777.609,31.7189 783.489,38.4386 z" id="boundary" inkscape:connector-curvature="0" />
	<path style="fill:none;stroke:red;stroke-width:1px;stroke-linecap:butt;stroke-linejoin:miter;stroke-opacity:1" d="M 780.969,269.429 788.528,265.229 z" id="boundary" inkscape:connector-curvature="0" />
	<path style="fill:none;stroke:red;stroke-width:1px;stroke-linecap:butt;stroke-linejoin:miter;stroke-opacity:1" d="M 780.969,296.308 787.688,302.188 z" id="boundary" inkscape:connector-curvature="0" />
	<path style="fill:none;stroke:red;stroke-width:1px;stroke-linecap:butt;stroke-linejoin:miter;stroke-opacity:1" d="M 783.489,38.4386 790.208,44.3184 z" id="boundary" inkscape:connector-curvature="0" />
	<path style="fill:none;stroke:red;stroke-width:1px;stroke-linecap:butt;stroke-linejoin:miter;stroke-opacity:1" d="M 785.169,329.907 789.368,321.507 z" id="boundary" inkscape:connector-curvature="0" />
	<path style="fill:none;stroke:red;stroke-width:1px;stroke-linecap:butt;stroke-linejoin:miter;stroke-opacity:1" d="M 785.169,329.907 793.568,332.427 z" id="boundary" inkscape:connector-curvature="0" />
	<path style="fill:none;stroke:red;stroke-width:1px;stroke-linecap:butt;stroke-linejoin:miter;stroke-opacity:1" d="M 787.688,289.588 794.408,294.628 z" id="boundary" inkscape:connector-curvature="0" />
	<path style="fill:none;stroke:red;stroke-width:1px;stroke-linecap:butt;stroke-linejoin:miter;stroke-opacity:1" d="M 787.688,289.588 795.248,285.389 z" id="boundary" inkscape:connector-curvature="0" />
	<path style="fill:none;stroke:red;stroke-width:1px;stroke-linecap:butt;stroke-linejoin:miter;stroke-opacity:1" d="M 787.688,302.188 794.408,294.628 z" id="boundary" inkscape:connector-curvature="0" />
	<path style="fill:none;stroke:red;stroke-width:1px;stroke-linecap:butt;stroke-linejoin:miter;stroke-opacity:1" d="M 788.528,265.229 796.928,265.229 z" id="boundary" inkscape:connector-curvature="0" />
	<path style="fill:none;stroke:red;stroke-width:1px;stroke-linecap:butt;stroke-linejoin:miter;stroke-opacity:1" d="M 789.368,321.507 797.768,323.187 z" id="boundary" inkscape:connector-curvature="0" />
	<path style="fill:none;stroke:red;stroke-width:1px;stroke-linecap:butt;stroke-linejoin:miter;stroke-opacity:1" d="M 790.208,44.3184 796.088,51.0381 z" id="boundary" inkscape:connector-curvature="0" />
	<path style="fill:none;stroke:red;stroke-width:1px;stroke-linecap:butt;stroke-linejoin:miter;stroke-opacity:1" d="M 795.248,285.389 799.448,277.829 z" id="boundary" inkscape:connector-curvature="0" />
	<path style="fill:none;stroke:red;stroke-width:1px;stroke-linecap:butt;stroke-linejoin:miter;stroke-opacity:1" d="M 796.088,51.0381 800.288,58.5978 z" id="boundary" inkscape:connector-curvature="0" />
	<path style="fill:none;stroke:red;stroke-width:1px;stroke-linecap:butt;stroke-linejoin:miter;stroke-opacity:1" d="M 796.088,314.787 797.768,323.187 z" id="boundary" inkscape:connector-curvature="0" />
	<path style="fill:none;stroke:red;stroke-width:1px;stroke-linecap:butt;stroke-linejoin:miter;stroke-opacity:1" d="M 796.088,314.787 804.488,315.627 z" id="boundary" inkscape:connector-curvature="0" />
	<path style="fill:none;stroke:red;stroke-width:1px;stroke-linecap:butt;stroke-linejoin:miter;stroke-opacity:1" d="M 796.928,265.229 804.488,261.03 z" id="boundary" inkscape:connector-curvature="0" />
	<path style="fill:none;stroke:red;stroke-width:1px;stroke-linecap:butt;stroke-linejoin:miter;stroke-opacity:1" d="M 799.448,277.829 806.168,271.109 z" id="boundary" inkscape:connector-curvature="0" />
	<path style="fill:none;stroke:red;stroke-width:1px;stroke-linecap:butt;stroke-linejoin:miter;stroke-opacity:1" d="M 800.288,58.5978 806.168,65.3175 z" id="boundary" inkscape:connector-curvature="0" />
	<path style="fill:none;stroke:red;stroke-width:1px;stroke-linecap:butt;stroke-linejoin:miter;stroke-opacity:1" d="M 802.808,290.428 810.367,286.229 z" id="boundary" inkscape:connector-curvature="0" />
	<path style="fill:none;stroke:red;stroke-width:1px;stroke-linecap:butt;stroke-linejoin:miter;stroke-opacity:1" d="M 802.808,290.428 811.207,294.628 z" id="boundary" inkscape:connector-curvature="0" />
	<path style="fill:none;stroke:red;stroke-width:1px;stroke-linecap:butt;stroke-linejoin:miter;stroke-opacity:1" d="M 804.488,261.03 812.887,261.03 z" id="boundary" inkscape:connector-curvature="0" />
	<path style="fill:none;stroke:red;stroke-width:1px;stroke-linecap:butt;stroke-linejoin:miter;stroke-opacity:1" d="M 804.488,315.627 812.047,311.428 z" id="boundary" inkscape:connector-curvature="0" />
	<path style="fill:none;stroke:red;stroke-width:1px;stroke-linecap:butt;stroke-linejoin:miter;stroke-opacity:1" d="M 806.168,65.3175 812.887,71.1973 z" id="boundary" inkscape:connector-curvature="0" />
	<path style="fill:none;stroke:red;stroke-width:1px;stroke-linecap:butt;stroke-linejoin:miter;stroke-opacity:1" d="M 806.168,271.109 812.887,261.03 z" id="boundary" inkscape:connector-curvature="0" />
	<path style="fill:none;stroke:red;stroke-width:1px;stroke-linecap:butt;stroke-linejoin:miter;stroke-opacity:1" d="M 810.367,286.229 811.207,294.628 z" id="boundary" inkscape:connector-curvature="0" />
	<path style="fill:none;stroke:red;stroke-width:1px;stroke-linecap:butt;stroke-linejoin:miter;stroke-opacity:1" d="M 810.367,303.028 812.047,311.428 z" id="boundary" inkscape:connector-curvature="0" />
	<path style="fill:none;stroke:red;stroke-width:1px;stroke-linecap:butt;stroke-linejoin:miter;stroke-opacity:1" d="M 810.367,303.028 818.767,300.508 z" id="boundary" inkscape:connector-curvature="0" />
	<path style="fill:none;stroke:red;stroke-width:1px;stroke-linecap:butt;stroke-linejoin:miter;stroke-opacity:1" d="M 812.887,71.1973 820.447,75.3971 z" id="boundary" inkscape:connector-curvature="0" />
	<path style="fill:none;stroke:red;stroke-width:1px;stroke-linecap:butt;stroke-linejoin:miter;stroke-opacity:1" d="M 818.767,300.508 819.607,290.428 z" id="boundary" inkscape:connector-curvature="0" />
	<path style="fill:none;stroke:red;stroke-width:1px;stroke-linecap:butt;stroke-linejoin:miter;stroke-opacity:1" d="M 819.607,290.428 823.807,277.829 z" id="boundary" inkscape:connector-curvature="0" />
	<path style="fill:none;stroke:red;stroke-width:1px;stroke-linecap:butt;stroke-linejoin:miter;stroke-opacity:1" d="M 820.447,75.3971 828.847,75.3971 z" id="boundary" inkscape:connector-curvature="0" />
	<path style="fill:none;stroke:red;stroke-width:1px;stroke-linecap:butt;stroke-linejoin:miter;stroke-opacity:1" d="M 823.807,277.829 828.007,269.429 z" id="boundary" inkscape:connector-curvature="0" />
	<path style="fill:none;stroke:red;stroke-width:1px;stroke-linecap:butt;stroke-linejoin:miter;stroke-opacity:1" d="M 828.007,252.63 828.007,261.03 z" id="boundary" inkscape:connector-curvature="0" />
	<path style="fill:none;stroke:red;stroke-width:1px;stroke-linecap:butt;stroke-linejoin:miter;stroke-opacity:1" d="M 828.007,252.63 834.727,246.75 z" id="boundary" inkscape:connector-curvature="0" />
	<path style="fill:none;stroke:red;stroke-width:1px;stroke-linecap:butt;stroke-linejoin:miter;stroke-opacity:1" d="M 828.007,261.03 828.007,269.429 z" id="boundary" inkscape:connector-curvature="0" />
	<path style="fill:none;stroke:red;stroke-width:1px;stroke-linecap:butt;stroke-linejoin:miter;stroke-opacity:1" d="M 828.847,75.3971 837.246,75.3971 z" id="boundary" inkscape:connector-curvature="0" />
	<path style="fill:none;stroke:red;stroke-width:1px;stroke-linecap:butt;stroke-linejoin:miter;stroke-opacity:1" d="M 834.727,246.75 843.126,244.23 z" id="boundary" inkscape:connector-curvature="0" />
	<path style="fill:none;stroke:red;stroke-width:1px;stroke-linecap:butt;stroke-linejoin:miter;stroke-opacity:1" d="M 837.246,75.3971 845.646,75.3971 z" id="boundary" inkscape:connector-curvature="0" />
	<path style="fill:none;stroke:red;stroke-width:1px;stroke-linecap:butt;stroke-linejoin:miter;stroke-opacity:1" d="M 843.126,244.23 851.526,244.23 z" id="boundary" inkscape:connector-curvature="0" />
	<path style="fill:none;stroke:red;stroke-width:1px;stroke-linecap:butt;stroke-linejoin:miter;stroke-opacity:1" d="M 845.646,75.3971 849.846,67.8374 z" id="boundary" inkscape:connector-curvature="0" />
	<path style="fill:none;stroke:red;stroke-width:1px;stroke-linecap:butt;stroke-linejoin:miter;stroke-opacity:1" d="M 849.846,67.8374 858.246,71.1973 z" id="boundary" inkscape:connector-curvature="0" />
	<path style="fill:none;stroke:red;stroke-width:1px;stroke-linecap:butt;stroke-linejoin:miter;stroke-opacity:1" d="M 851.526,244.23 859.925,244.23 z" id="boundary" inkscape:connector-curvature="0" />
	<path style="fill:none;stroke:red;stroke-width:1px;stroke-linecap:butt;stroke-linejoin:miter;stroke-opacity:1" d="M 858.246,71.1973 865.805,66.9975 z" id="boundary" inkscape:connector-curvature="0" />
	<path style="fill:none;stroke:red;stroke-width:1px;stroke-linecap:butt;stroke-linejoin:miter;stroke-opacity:1" d="M 859.925,244.23 868.325,244.23 z" id="boundary" inkscape:connector-curvature="0" />
	<path style="fill:none;stroke:red;stroke-width:1px;stroke-linecap:butt;stroke-linejoin:miter;stroke-opacity:1" d="M 865.805,66.9975 874.205,69.5174 z" id="boundary" inkscape:connector-curvature="0" />
	<path style="fill:none;stroke:red;stroke-width:1px;stroke-linecap:butt;stroke-linejoin:miter;stroke-opacity:1" d="M 868.325,244.23 876.725,244.23 z" id="boundary" inkscape:connector-curvature="0" />
	<path style="fill:none;stroke:red;stroke-width:1px;stroke-linecap:butt;stroke-linejoin:miter;stroke-opacity:1" d="M 874.205,69.5174 882.605,66.9975 z" id="boundary" inkscape:connector-curvature="0" />
	<path style="fill:none;stroke:red;stroke-width:1px;stroke-linecap:butt;stroke-linejoin:miter;stroke-opacity:1" d="M 876.725,244.23 885.124,244.23 z" id="boundary" inkscape:connector-curvature="0" />
	<path style="fill:none;stroke:red;stroke-width:1px;stroke-linecap:butt;stroke-linejoin:miter;stroke-opacity:1" d="M 882.605,66.9975 890.164,71.1973 z" id="boundary" inkscape:connector-curvature="0" />
	<path style="fill:none;stroke:red;stroke-width:1px;stroke-linecap:butt;stroke-linejoin:miter;stroke-opacity:1" d="M 885.124,244.23 893.524,242.55 z" id="boundary" inkscape:connector-curvature="0" />
	<path style="fill:none;stroke:red;stroke-width:1px;stroke-linecap:butt;stroke-linejoin:miter;stroke-opacity:1" d="M 890.164,71.1973 892.684,62.7976 z" id="boundary" inkscape:connector-curvature="0" />
	<path style="fill:none;stroke:red;stroke-width:1px;stroke-linecap:butt;stroke-linejoin:miter;stroke-opacity:1" d="M 892.684,62.7976 900.244,66.9975 z" id="boundary" inkscape:connector-curvature="0" />
	<path style="fill:none;stroke:red;stroke-width:1px;stroke-linecap:butt;stroke-linejoin:miter;stroke-opacity:1" d="M 893.524,242.55 899.404,235.831 z" id="boundary" inkscape:connector-curvature="0" />
	<path style="fill:none;stroke:red;stroke-width:1px;stroke-linecap:butt;stroke-linejoin:miter;stroke-opacity:1" d="M 899.404,235.831 907.804,235.831 z" id="boundary" inkscape:connector-curvature="0" />
	<path style="fill:none;stroke:red;stroke-width:1px;stroke-linecap:butt;stroke-linejoin:miter;stroke-opacity:1" d="M 900.244,66.9975 906.964,72.8772 z" id="boundary" inkscape:connector-curvature="0" />
	<path style="fill:none;stroke:red;stroke-width:1px;stroke-linecap:butt;stroke-linejoin:miter;stroke-opacity:1" d="M 906.964,72.8772 912.003,79.597 z" id="boundary" inkscape:connector-curvature="0" />
	<path style="fill:none;stroke:red;stroke-width:1px;stroke-linecap:butt;stroke-linejoin:miter;stroke-opacity:1" d="M 907.804,235.831 915.363,231.631 z" id="boundary" inkscape:connector-curvature="0" />
	<path style="fill:none;stroke:red;stroke-width:1px;stroke-linecap:butt;stroke-linejoin:miter;stroke-opacity:1" d="M 912.003,79.597 919.563,83.7968 z" id="boundary" inkscape:connector-curvature="0" />
	<path style="fill:none;stroke:red;stroke-width:1px;stroke-linecap:butt;stroke-linejoin:miter;stroke-opacity:1" d="M 915.363,231.631 923.763,231.631 z" id="boundary" inkscape:connector-curvature="0" />
	<path style="fill:none;stroke:red;stroke-width:1px;stroke-linecap:butt;stroke-linejoin:miter;stroke-opacity:1" d="M 919.563,83.7968 926.283,88.8366 z" id="boundary" inkscape:connector-curvature="0" />
	<path style="fill:none;stroke:red;stroke-width:1px;stroke-linecap:butt;stroke-linejoin:miter;stroke-opacity:1" d="M 923.763,231.631 932.163,231.631 z" id="boundary" inkscape:connector-curvature="0" />
	<path style="fill:none;stroke:red;stroke-width:1px;stroke-linecap:butt;stroke-linejoin:miter;stroke-opacity:1" d="M 926.283,88.8366 933.003,94.7163 z" id="boundary" inkscape:connector-curvature="0" />
	<path style="fill:none;stroke:red;stroke-width:1px;stroke-linecap:butt;stroke-linejoin:miter;stroke-opacity:1" d="M 932.163,231.631 940.562,229.111 z" id="boundary" inkscape:connector-curvature="0" />
	<path style="fill:none;stroke:red;stroke-width:1px;stroke-linecap:butt;stroke-linejoin:miter;stroke-opacity:1" d="M 933.003,94.7163 938.882,101.436 z" id="boundary" inkscape:connector-curvature="0" />
	<path style="fill:none;stroke:red;stroke-width:1px;stroke-linecap:butt;stroke-linejoin:miter;stroke-opacity:1" d="M 938.882,101.436 945.602,107.316 z" id="boundary" inkscape:connector-curvature="0" />
	<path style="fill:none;stroke:red;stroke-width:1px;stroke-linecap:butt;stroke-linejoin:miter;stroke-opacity:1" d="M 940.562,229.111 948.962,227.431 z" id="boundary" inkscape:connector-curvature="0" />
	<path style="fill:none;stroke:red;stroke-width:1px;stroke-linecap:butt;stroke-linejoin:miter;stroke-opacity:1" d="M 945.602,107.316 949.802,114.876 z" id="boundary" inkscape:connector-curvature="0" />
	<path style="fill:none;stroke:red;stroke-width:1px;stroke-linecap:butt;stroke-linejoin:miter;stroke-opacity:1" d="M 948.962,227.431 957.362,227.431 z" id="boundary" inkscape:connector-curvature="0" />
	<path style="fill:none;stroke:red;stroke-width:1px;stroke-linecap:butt;stroke-linejoin:miter;stroke-opacity:1" d="M 949.802,114.876 954.842,121.595 z" id="boundary" inkscape:connector-curvature="0" />
	<path style="fill:none;stroke:red;stroke-width:1px;stroke-linecap:butt;stroke-linejoin:miter;stroke-opacity:1" d="M 954.842,121.595 958.202,129.995 z" id="boundary" inkscape:connector-curvature="0" />
	<path style="fill:none;stroke:red;stroke-width:1px;stroke-linecap:butt;stroke-linejoin:miter;stroke-opacity:1" d="M 957.362,227.431 965.761,224.911 z" id="boundary" inkscape:connector-curvature="0" />
	<path style="fill:none;stroke:red;stroke-width:1px;stroke-linecap:butt;stroke-linejoin:miter;stroke-opacity:1" d="M 958.202,129.995 962.401,137.555 z" id="boundary" inkscape:connector-curvature="0" />
	<path style="fill:none;stroke:red;stroke-width:1px;stroke-linecap:butt;stroke-linejoin:miter;stroke-opacity:1" d="M 962.401,137.555 969.121,143.434 z" id="boundary" inkscape:connector-curvature="0" />
	<path style="fill:none;stroke:red;stroke-width:1px;stroke-linecap:butt;stroke-linejoin:miter;stroke-opacity:1" d="M 965.761,224.911 974.161,223.231 z" id="boundary" inkscape:connector-curvature="0" />
	<path style="fill:none;stroke:red;stroke-width:1px;stroke-linecap:butt;stroke-linejoin:miter;stroke-opacity:1" d="M 969.121,143.434 975.001,150.154 z" id="boundary" inkscape:connector-curvature="0" />
	<path style="fill:none;stroke:red;stroke-width:1px;stroke-linecap:butt;stroke-linejoin:miter;stroke-opacity:1" d="M 974.161,223.231 982.561,220.711 z" id="boundary" inkscape:connector-curvature="0" />
	<path style="fill:none;stroke:red;stroke-width:1px;stroke-linecap:butt;stroke-linejoin:miter;stroke-opacity:1" d="M 975.001,150.154 979.201,157.714 z" id="boundary" inkscape:connector-curvature="0" />
	<path style="fill:none;stroke:red;stroke-width:1px;stroke-linecap:butt;stroke-linejoin:miter;stroke-opacity:1" d="M 979.201,157.714 982.561,166.113 z" id="boundary" inkscape:connector-curvature="0" />
	<path style="fill:none;stroke:red;stroke-width:1px;stroke-linecap:butt;stroke-linejoin:miter;stroke-opacity:1" d="M 982.561,166.113 987.6,172.833 z" id="boundary" inkscape:connector-curvature="0" />
	<path style="fill:none;stroke:red;stroke-width:1px;stroke-linecap:butt;stroke-linejoin:miter;stroke-opacity:1" d="M 982.561,220.711 989.28,213.992 z" id="boundary" inkscape:connector-curvature="0" />
	<path style="fill:none;stroke:red;stroke-width:1px;stroke-linecap:butt;stroke-linejoin:miter;stroke-opacity:1" d="M 987.6,172.833 991.8,180.393 z" id="boundary" inkscape:connector-curvature="0" />
	<path style="fill:none;stroke:red;stroke-width:1px;stroke-linecap:butt;stroke-linejoin:miter;stroke-opacity:1" d="M 989.28,213.992 996,204.752 z" id="boundary" inkscape:connector-curvature="0" />
	<path style="fill:none;stroke:red;stroke-width:1px;stroke-linecap:butt;stroke-linejoin:miter;stroke-opacity:1" d="M 991.8,180.393 996,187.953 z" id="boundary" inkscape:connector-curvature="0" />
	<path style="fill:none;stroke:red;stroke-width:1px;stroke-linecap:butt;stroke-linejoin:miter;stroke-opacity:1" d="M 996,187.953 996,196.352 z" id="boundary" inkscape:connector-curvature="0" />
	<path style="fill:none;stroke:red;stroke-width:1px;stroke-linecap:butt;stroke-linejoin:miter;stroke-opacity:1" d="M 996,196.352 996,204.752 z" id="boundary" inkscape:connector-curvature="0" />
	<circle cx="4" cy="166.113" r="4" fill="#0" id="circle0"/>
	<circle cx="4" cy="174.513" r="4" fill="#0" id="circle1"/>
	<circle cx="4" cy="182.913" r="4" fill="#0" id="circle2"/>
	<circle cx="4" cy="191.312" r="4" fill="#0" id="circle3"/>
	<circle cx="4" cy="199.712" r="4" fill="#0" id="circle4"/>
	<circle cx="4" cy="208.112" r="4" fill="#0" id="circle5"/>
	<circle cx="4" cy="216.511" r="4" fill="#0" id="circle6"/>
	<circle cx="4" cy="224.911" r="4" fill="#0" id="circle7"/>
	<circle cx="4" cy="233.311" r="4" fill="#0" id="circle8"/>
	<circle cx="4" cy="241.71" r="4" fill="#0" id="circle9"/>
	<circle cx="8.19983" cy="145.114" r="4" fill="#0" id="circle10"/>
	<circle cx="8.19983" cy="153.514" r="4" fill="#0" id="circle11"/>
	<circle cx="8.19983" cy="249.27" r="4" fill="#0" id="circle12"/>
	<circle cx="8.19983" cy="257.67" r="4" fill="#0" id="circle13"/>
	<circle cx="12.3997" cy="128.315" r="4" fill="#0" id="circle14"/>
	<circle cx="12.3997" cy="136.715" r="4" fill="#0" id="circle15"/>
	<circle cx="12.3997" cy="265.229" r="4" fill="#0" id="circle16"/>
	<circle cx="16.5995" cy="115.715" r="4" fill="#0" id="circle17"/>
	<circle cx="16.5995" cy="272.789" r="4" fill="#0" id="circle18"/>
	<circle cx="18.2794" cy="281.189" r="4" fill="#0" id="circle19"/>
	<circle cx="20.7993" cy="107.316" r="4" fill="#0" id="circle20"/>
	<circle cx="22.4793" cy="288.749" r="4" fill="#0" id="circle21"/>
	<circle cx="27.5191" cy="100.596" r="4" fill="#0" id="circle22"/>
	<circle cx="30.8789" cy="290.428" r="4" fill="#0" id="circle23"/>
	<circle cx="35.0787" cy="96.3963" r="4" fill="#0" id="circle24"/>
	<circle cx="39.2786" cy="290.428" r="4" fill="#0" id="circle25"/>
	<circle cx="43.4784" cy="96.3963" r="4" fill="#0" id="circle26"/>
	<circle cx="46.8383" cy="286.229" r="4" fill="#0" id="circle27"/>
	<circle cx="51.0381" cy="100.596" r="4" fill="#0" id="circle28"/>
	<circle cx="55.2379" cy="286.229" r="4" fill="#0" id="circle29"/>
	<circle cx="58.5978" cy="104.796" r="4" fill="#0" id="circle30"/>
	<circle cx="63.6376" cy="282.029" r="4" fill="#0" id="circle31"/>
	<circle cx="66.9975" cy="106.476" r="4" fill="#0" id="circle32"/>
	<circle cx="71.1973" cy="277.829" r="4" fill="#0" id="circle33"/>
	<circle cx="72.0373" cy="113.196" r="4" fill="#0" id="circle34"/>
	<circle cx="78.757" cy="273.629" r="4" fill="#0" id="circle35"/>
	<circle cx="80.4369" cy="115.715" r="4" fill="#0" id="circle36"/>
	<circle cx="87.1566" cy="271.949" r="4" fill="#0" id="circle37"/>
	<circle cx="88.8366" cy="117.395" r="4" fill="#0" id="circle38"/>
	<circle cx="95.5563" cy="269.429" r="4" fill="#0" id="circle39"/>
	<circle cx="96.3963" cy="121.595" r="4" fill="#0" id="circle40"/>
	<circle cx="103.116" cy="265.229" r="4" fill="#0" id="circle41"/>
	<circle cx="104.796" cy="123.275" r="4" fill="#0" id="circle42"/>
	<circle cx="111.516" cy="264.39" r="4" fill="#0" id="circle43"/>
	<circle cx="113.196" cy="125.795" r="4" fill="#0" id="circle44"/>
	<circle cx="118.235" cy="256.83" r="4" fill="#0" id="circle45"/>
	<circle cx="120.755" cy="129.995" r="4" fill="#0" id="circle46"/>
	<circle cx="126.635" cy="252.63" r="4" fill="#0" id="circle47"/>
	<circle cx="128.315" cy="134.195" r="4" fill="#0" id="circle48"/>
	<circle cx="135.035" cy="252.63" r="4" fill="#0" id="circle49"/>
	<circle cx="135.875" cy="138.395" r="4" fill="#0" id="circle50"/>
	<circle cx="142.594" cy="248.43" r="4" fill="#0" id="circle51"/>
	<circle cx="144.274" cy="138.395" r="4" fill="#0" id="circle52"/>
	<circle cx="150.994" cy="245.91" r="4" fill="#0" id="circle53"/>
	<circle cx="151.834" cy="142.594" r="4" fill="#0" id="circle54"/>
	<circle cx="159.394" cy="244.23" r="4" fill="#0" id="circle55"/>
	<circle cx="160.234" cy="145.114" r="4" fill="#0" id="circle56"/>
	<circle cx="167.793" cy="244.23" r="4" fill="#0" id="circle57"/>
	<circle cx="168.633" cy="146.794" r="4" fill="#0" id="circle58"/>
	<circle cx="176.193" cy="244.23" r="4" fill="#0" id="circle59"/>
	<circle cx="177.033" cy="146.794" r="4" fill="#0" id="circle60"/>
	<circle cx="184.593" cy="244.23" r="4" fill="#0" id="circle61"/>
	<circle cx="185.433" cy="146.794" r="4" fill="#0" id="circle62"/>
	<circle cx="192.992" cy="244.23" r="4" fill="#0" id="circle63"/>
	<circle cx="193.832" cy="149.314" r="4" fill="#0" id="circle64"/>
	<circle cx="201.392" cy="244.23" r="4" fill="#0" id="circle65"/>
	<circle cx="201.392" cy="254.31" r="4" fill="#0" id="circle66"/>
	<circle cx="201.392" cy="262.71" r="4" fill="#0" id="circle67"/>
	<circle cx="202.232" cy="150.994" r="4" fill="#0" id="circle68"/>
	<circle cx="206.432" cy="269.429" r="4" fill="#0" id="circle69"/>
	<circle cx="209.792" cy="244.23" r="4" fill="#0" id="circle70"/>
	<circle cx="210.632" cy="150.994" r="4" fill="#0" id="circle71"/>
	<circle cx="214.831" cy="269.429" r="4" fill="#0" id="circle72"/>
	<circle cx="219.031" cy="150.994" r="4" fill="#0" id="circle73"/>
	<circle cx="223.231" cy="269.429" r="4" fill="#0" id="circle74"/>
	<circle cx="226.591" cy="145.114" r="4" fill="#0" id="circle75"/>
	<circle cx="231.631" cy="271.109" r="4" fill="#0" id="circle76"/>
	<circle cx="234.991" cy="140.914" r="4" fill="#0" id="circle77"/>
	<circle cx="240.03" cy="273.629" r="4" fill="#0" id="circle78"/>
	<circle cx="243.39" cy="132.515" r="4" fill="#0" id="circle79"/>
	<circle cx="247.59" cy="277.829" r="4" fill="#0" id="circle80"/>
	<circle cx="251.79" cy="128.315" r="4" fill="#0" id="circle81"/>
	<circle cx="255.15" cy="282.029" r="4" fill="#0" id="circle82"/>
	<circle cx="260.19" cy="124.115" r="4" fill="#0" id="circle83"/>
	<circle cx="262.71" cy="286.229" r="4" fill="#0" id="circle84"/>
	<circle cx="268.589" cy="119.915" r="4" fill="#0" id="circle85"/>
	<circle cx="271.109" cy="289.588" r="4" fill="#0" id="circle86"/>
	<circle cx="276.989" cy="117.395" r="4" fill="#0" id="circle87"/>
	<circle cx="279.509" cy="290.428" r="4" fill="#0" id="circle88"/>
	<circle cx="284.549" cy="113.196" r="4" fill="#0" id="circle89"/>
	<circle cx="287.069" cy="294.628" r="4" fill="#0" id="circle90"/>
	<circle cx="292.108" cy="108.996" r="4" fill="#0" id="circle91"/>
	<circle cx="295.468" cy="297.148" r="4" fill="#0" id="circle92"/>
	<circle cx="299.668" cy="104.796" r="4" fill="#0" id="circle93"/>
	<circle cx="303.028" cy="301.348" r="4" fill="#0" id="circle94"/>
	<circle cx="308.068" cy="101.436" r="4" fill="#0" id="circle95"/>
	<circle cx="311.428" cy="304.708" r="4" fill="#0" id="circle96"/>
	<circle cx="316.467" cy="100.596" r="4" fill="#0" id="circle97"/>
	<circle cx="319.827" cy="307.228" r="4" fill="#0" id="circle98"/>
	<circle cx="324.027" cy="96.3963" r="4" fill="#0" id="circle99"/>
	<circle cx="327.387" cy="311.428" r="4" fill="#0" id="circle100"/>
	<circle cx="332.427" cy="93.8764" r="4" fill="#0" id="circle101"/>
	<circle cx="335.787" cy="311.428" r="4" fill="#0" id="circle102"/>
	<circle cx="340.826" cy="89.6765" r="4" fill="#0" id="circle103"/>
	<circle cx="344.186" cy="311.428" r="4" fill="#0" id="circle104"/>
	<circle cx="349.226" cy="85.4767" r="4" fill="#0" id="circle105"/>
	<circle cx="351.746" cy="315.627" r="4" fill="#0" id="circle106"/>
	<circle cx="357.626" cy="83.7968" r="4" fill="#0" id="circle107"/>
	<circle cx="360.146" cy="315.627" r="4" fill="#0" id="circle108"/>
	<circle cx="365.185" cy="79.597" r="4" fill="#0" id="circle109"/>
	<circle cx="368.545" cy="315.627" r="4" fill="#0" id="circle110"/>
	<circle cx="373.585" cy="79.597" r="4" fill="#0" id="circle111"/>
	<circle cx="376.105" cy="319.827" r="4" fill="#0" id="circle112"/>
	<circle cx="381.145" cy="75.3971" r="4" fill="#0" id="circle113"/>
	<circle cx="384.505" cy="319.827" r="4" fill="#0" id="circle114"/>
	<circle cx="389.544" cy="75.3971" r="4" fill="#0" id="circle115"/>
	<circle cx="392.904" cy="319.827" r="4" fill="#0" id="circle116"/>
	<circle cx="397.104" cy="71.1973" r="4" fill="#0" id="circle117"/>
	<circle cx="400.464" cy="324.027" r="4" fill="#0" id="circle118"/>
	<circle cx="405.504" cy="71.1973" r="4" fill="#0" id="circle119"/>
	<circle cx="408.864" cy="324.027" r="4" fill="#0" id="circle120"/>
	<circle cx="413.064" cy="66.9975" r="4" fill="#0" id="circle121"/>
	<circle cx="417.263" cy="326.547" r="4" fill="#0" id="circle122"/>
	<circle cx="421.463" cy="63.6376" r="4" fill="#0" id="circle123"/>
	<circle cx="425.663" cy="328.227" r="4" fill="#0" id="circle124"/>
	<circle cx="429.863" cy="62.7976" r="4" fill="#0" id="circle125"/>
	<circle cx="434.063" cy="328.227" r="4" fill="#0" id="circle126"/>
	<circle cx="437.423" cy="58.5978" r="4" fill="#0" id="circle127"/>
	<circle cx="442.462" cy="328.227" r="4" fill="#0" id="circle128"/>
	<circle cx="445.822" cy="58.5978" r="4" fill="#0" id="circle129"/>
	<circle cx="450.862" cy="328.227" r="4" fill="#0" id="circle130"/>
	<circle cx="453.382" cy="54.398" r="4" fill="#0" id="circle131"/>
	<circle cx="459.262" cy="328.227" r="4" fill="#0" id="circle132"/>
	<circle cx="460.942" cy="50.1981" r="4" fill="#0" id="circle133"/>
	<circle cx="467.661" cy="328.227" r="4" fill="#0" id="circle134"/>
	<circle cx="469.341" cy="50.1981" r="4" fill="#0" id="circle135"/>
	<circle cx="476.061" cy="328.227" r="4" fill="#0" id="circle136"/>
	<circle cx="476.901" cy="45.9983" r="4" fill="#0" id="circle137"/>
	<circle cx="484.461" cy="50.1981" r="4" fill="#0" id="circle138"/>
	<circle cx="484.461" cy="328.227" r="4" fill="#0" id="circle139"/>
	<circle cx="492.02" cy="54.398" r="4" fill="#0" id="circle140"/>
	<circle cx="492.86" cy="328.227" r="4" fill="#0" id="circle141"/>
	<circle cx="500.42" cy="56.9179" r="4" fill="#0" id="circle142"/>
	<circle cx="500.42" cy="324.027" r="4" fill="#0" id="circle143"/>
	<circle cx="507.98" cy="61.1177" r="4" fill="#0" id="circle144"/>
	<circle cx="508.82" cy="324.027" r="4" fill="#0" id="circle145"/>
	<circle cx="516.379" cy="64.4776" r="4" fill="#0" id="circle146"/>
	<circle cx="517.219" cy="324.027" r="4" fill="#0" id="circle147"/>
	<circle cx="523.939" cy="68.6774" r="4" fill="#0" id="circle148"/>
	<circle cx="525.619" cy="324.027" r="4" fill="#0" id="circle149"/>
	<circle cx="529.819" cy="75.3971" r="4" fill="#0" id="circle150"/>
	<circle cx="533.179" cy="319.827" r="4" fill="#0" id="circle151"/>
	<circle cx="538.218" cy="77.917" r="4" fill="#0" id="circle152"/>
	<circle cx="541.578" cy="319.827" r="4" fill="#0" id="circle153"/>
	<circle cx="544.938" cy="83.7968" r="4" fill="#0" id="circle154"/>
	<circle cx="549.978" cy="317.307" r="4" fill="#0" id="circle155"/>
	<circle cx="553.338" cy="83.7968" r="4" fill="#0" id="circle156"/>
	<circle cx="558.378" cy="315.627" r="4" fill="#0" id="circle157"/>
	<circle cx="559.218" cy="77.0771" r="4" fill="#0" id="circle158"/>
	<circle cx="565.937" cy="311.428" r="4" fill="#0" id="circle159"/>
	<circle cx="567.617" cy="72.8772" r="4" fill="#0" id="circle160"/>
	<circle cx="573.497" cy="306.388" r="4" fill="#0" id="circle161"/>
	<circle cx="576.017" cy="68.6774" r="4" fill="#0" id="circle162"/>
	<circle cx="577.697" cy="297.988" r="4" fill="#0" id="circle163"/>
	<circle cx="581.897" cy="289.588" r="4" fill="#0" id="circle164"/>
	<circle cx="584.417" cy="64.4776" r="4" fill="#0" id="circle165"/>
	<circle cx="584.417" cy="273.629" r="4" fill="#0" id="circle166"/>
	<circle cx="592.816" cy="62.7976" r="4" fill="#0" id="circle167"/>
	<circle cx="592.816" cy="273.629" r="4" fill="#0" id="circle168"/>
	<circle cx="600.376" cy="58.5978" r="4" fill="#0" id="circle169"/>
	<circle cx="601.216" cy="275.309" r="4" fill="#0" id="circle170"/>
	<circle cx="608.776" cy="56.9179" r="4" fill="#0" id="circle171"/>
	<circle cx="609.616" cy="277.829" r="4" fill="#0" id="circle172"/>
	<circle cx="615.495" cy="50.1981" r="4" fill="#0" id="circle173"/>
	<circle cx="618.015" cy="279.509" r="4" fill="#0" id="circle174"/>
	<circle cx="623.895" cy="45.9983" r="4" fill="#0" id="circle175"/>
	<circle cx="626.415" cy="282.029" r="4" fill="#0" id="circle176"/>
	<circle cx="632.295" cy="41.7985" r="4" fill="#0" id="circle177"/>
	<circle cx="633.975" cy="286.229" r="4" fill="#0" id="circle178"/>
	<circle cx="640.694" cy="41.7985" r="4" fill="#0" id="circle179"/>
	<circle cx="642.374" cy="286.229" r="4" fill="#0" id="circle180"/>
	<circle cx="648.254" cy="37.5986" r="4" fill="#0" id="circle181"/>
	<circle cx="650.774" cy="286.229" r="4" fill="#0" id="circle182"/>
	<circle cx="656.654" cy="34.2388" r="4" fill="#0" id="circle183"/>
	<circle cx="659.174" cy="286.229" r="4" fill="#0" id="circle184"/>
	<circle cx="663.373" cy="27.5191" r="4" fill="#0" id="circle185"/>
	<circle cx="667.573" cy="286.229" r="4" fill="#0" id="circle186"/>
	<circle cx="671.773" cy="24.9992" r="4" fill="#0" id="circle187"/>
	<circle cx="675.133" cy="290.428" r="4" fill="#0" id="circle188"/>
	<circle cx="679.333" cy="20.7993" r="4" fill="#0" id="circle189"/>
	<circle cx="683.533" cy="290.428" r="4" fill="#0" id="circle190"/>
	<circle cx="686.892" cy="16.5995" r="4" fill="#0" id="circle191"/>
	<circle cx="691.932" cy="290.428" r="4" fill="#0" id="circle192"/>
	<circle cx="695.292" cy="16.5995" r="4" fill="#0" id="circle193"/>
	<circle cx="700.332" cy="290.428" r="4" fill="#0" id="circle194"/>
	<circle cx="702.012" cy="9.87976" r="4" fill="#0" id="circle195"/>
	<circle cx="707.892" cy="286.229" r="4" fill="#0" id="circle196"/>
	<circle cx="710.412" cy="5.67993" r="4" fill="#0" id="circle197"/>
	<circle cx="716.291" cy="286.229" r="4" fill="#0" id="circle198"/>
	<circle cx="718.811" cy="4" r="4" fill="#0" id="circle199"/>
	<circle cx="724.691" cy="286.229" r="4" fill="#0" id="circle200"/>
	<circle cx="727.211" cy="4" r="4" fill="#0" id="circle201"/>
	<circle cx="733.091" cy="286.229" r="4" fill="#0" id="circle202"/>
	<circle cx="735.61" cy="4" r="4" fill="#0" id="circle203"/>
	<circle cx="740.65" cy="282.029" r="4" fill="#0" id="circle204"/>
	<circle cx="744.01" cy="4" r="4" fill="#0" id="circle205"/>
	<circle cx="749.05" cy="282.029" r="4" fill="#0" id="circle206"/>
	<circle cx="750.73" cy="9.0398" r="4" fill="#0" id="circle207"/>
	<circle cx="756.61" cy="15.7595" r="4" fill="#0" id="circle208"/>
	<circle cx="756.61" cy="277.829" r="4" fill="#0" id="circle209"/>
	<circle cx="764.169" cy="273.629" r="4" fill="#0" id="circle210"/>
	<circle cx="765.009" cy="19.1194" r="4" fill="#0" id="circle211"/>
	<circle cx="770.889" cy="25.8391" r="4" fill="#0" id="circle212"/>
	<circle cx="772.569" cy="271.109" r="4" fill="#0" id="circle213"/>
	<circle cx="777.609" cy="31.7189" r="4" fill="#0" id="circle214"/>
	<circle cx="780.969" cy="269.429" r="4" fill="#0" id="circle215"/>
	<circle cx="780.969" cy="296.308" r="4" fill="#0" id="circle216"/>
	<circle cx="783.489" cy="38.4386" r="4" fill="#0" id="circle217"/>
	<circle cx="785.169" cy="329.907" r="4" fill="#0" id="circle218"/>
	<circle cx="787.688" cy="289.588" r="4" fill="#0" id="circle219"/>
	<circle cx="787.688" cy="302.188" r="4" fill="#0" id="circle220"/>
	<circle cx="788.528" cy="265.229" r="4" fill="#0" id="circle221"/>
	<circle cx="789.368" cy="321.507" r="4" fill="#0" id="circle222"/>
	<circle cx="790.208" cy="44.3184" r="4" fill="#0" id="circle223"/>
	<circle cx="793.568" cy="332.427" r="4" fill="#0" id="circle224"/>
	<circle cx="794.408" cy="294.628" r="4" fill="#0" id="circle225"/>
	<circle cx="795.248" cy="285.389" r="4" fill="#0" id="circle226"/>
	<circle cx="796.088" cy="51.0381" r="4" fill="#0" id="circle227"/>
	<circle cx="796.088" cy="314.787" r="4" fill="#0" id="circle228"/>
	<circle cx="796.928" cy="265.229" r="4" fill="#0" id="circle229"/>
	<circle cx="797.768" cy="323.187" r="4" fill="#0" id="circle230"/>
	<circle cx="799.448" cy="277.829" r="4" fill="#0" id="circle231"/>
	<circle cx="800.288" cy="58.5978" r="4" fill="#0" id="circle232"/>
	<circle cx="801.968" cy="304.708" r="4" fill="#0" id="circle233"/>
	<circle cx="802.808" cy="290.428" r="4" fill="#0" id="circle234"/>
	<circle cx="804.488" cy="261.03" r="4" fill="#0" id="circle235"/>
	<circle cx="804.488" cy="315.627" r="4" fill="#0" id="circle236"/>
	<circle cx="806.168" cy="65.3175" r="4" fill="#0" id="circle237"/>
	<circle cx="806.168" cy="271.109" r="4" fill="#0" id="circle238"/>
	<circle cx="810.367" cy="286.229" r="4" fill="#0" id="circle239"/>
	<circle cx="810.367" cy="303.028" r="4" fill="#0" id="circle240"/>
	<circle cx="811.207" cy="294.628" r="4" fill="#0" id="circle241"/>
	<circle cx="812.047" cy="311.428" r="4" fill="#0" id="circle242"/>
	<circle cx="812.887" cy="71.1973" r="4" fill="#0" id="circle243"/>
	<circle cx="812.887" cy="261.03" r="4" fill="#0" id="circle244"/>
	<circle cx="818.767" cy="300.508" r="4" fill="#0" id="circle245"/>
	<circle cx="819.607" cy="290.428" r="4" fill="#0" id="circle246"/>
	<circle cx="820.447" cy="75.3971" r="4" fill="#0" id="circle247"/>
	<circle cx="823.807" cy="277.829" r="4" fill="#0" id="circle248"/>
	<circle cx="828.007" cy="252.63" r="4" fill="#0" id="circle249"/>
	<circle cx="828.007" cy="261.03" r="4" fill="#0" id="circle250"/>
	<circle cx="828.007" cy="269.429" r="4" fill="#0" id="circle251"/>
	<circle cx="828.847" cy="75.3971" r="4" fill="#0" id="circle252"/>
	<circle cx="834.727" cy="246.75" r="4" fill="#0" id="circle253"/>
	<circle cx="837.246" cy="75.3971" r="4" fill="#0" id="circle254"/>
	<circle cx="843.126" cy="244.23" r="4" fill="#0" id="circle255"/>
	<circle cx="845.646" cy="75.3971" r="4" fill="#0" id="circle256"/>
	<circle cx="849.846" cy="67.8374" r="4" fill="#0" id="circle257"/>
	<circle cx="851.526" cy="244.23" r="4" fill="#0" id="circle258"/>
	<circle cx="858.246" cy="71.1973" r="4" fill="#0" id="circle259"/>
	<circle cx="859.925" cy="244.23" r="4" fill="#0" id="circle260"/>
	<circle cx="865.805" cy="66.9975" r="4" fill="#0" id="circle261"/>
	<circle cx="868.325" cy="244.23" r="4" fill="#0" id="circle262"/>
	<circle cx="874.205" cy="69.5174" r="4" fill="#0" id="circle263"/>
	<circle cx="876.725" cy="244.23" r="4" fill="#0" id="circle264"/>
	<circle cx="882.605" cy="66.9975" r="4" fill="#0" id="circle265"/>
	<circle cx="885.124" cy="244.23" r="4" fill="#0" id="circle266"/>
	<circle cx="890.164" cy="71.1973" r="4" fill="#0" id="circle267"/>
	<circle cx="892.684" cy="62.7976" r="4" fill="#0" id="circle268"/>
	<circle cx="893.524" cy="242.55" r="4" fill="#0" id="circle269"/>
	<circle cx="899.404" cy="235.831" r="4" fill="#0" id="circle270"/>
	<circle cx="900.244" cy="66.9975" r="4" fill="#0" id="circle271"/>
	<circle cx="906.964" cy="72.8772" r="4" fill="#0" id="circle272"/>
	<circle cx="907.804" cy="235.831" r="4" fill="#0" id="circle273"/>
	<circle cx="912.003" cy="79.597" r="4" fill="#0" id="circle274"/>
	<circle cx="915.363" cy="231.631" r="4" fill="#0" id="circle275"/>
	<circle cx="919.563" cy="83.7968" r="4" fill="#0" id="circle276"/>
	<circle cx="923.763" cy="231.631" r="4" fill="#0" id="circle277"/>
	<circle cx="926.283" cy="88.8366" r="4" fill="#0" id="circle278"/>
	<circle cx="932.163" cy="231.631" r="4" fill="#0" id="circle279"/>
	<circle cx="933.003" cy="94.7163" r="4" fill="#0" id="circle280"/>
	<circle cx="938.882" cy="101.436" r="4" fill="#0" id="circle281"/>
	<circle cx="940.562" cy="229.111" r="4" fill="#0" id="circle282"/>
	<circle cx="945.602" cy="107.316" r="4" fill="#0" id="circle283"/>
	<circle cx="948.962" cy="227.431" r="4" fill="#0" id="circle284"/>
	<circle cx="949.802" cy="114.876" r="4" fill="#0" id="circle285"/>
	<circle cx="954.842" cy="121.595" r="4" fill="#0" id="circle286"/>
	<circle cx="957.362" cy="227.431" r="4" fill="#0" id="circle287"/>
	<circle cx="958.202" cy="129.995" r="4" fill="#0" id="circle288"/>
	<circle cx="962.401" cy="137.555" r="4" fill="#0" id="circle289"/>
	<circle cx="965.761" cy="224.911" r="4" fill="#0" id="circle290"/>
	<circle cx="969.121" cy="143.434" r="4" fill="#0" id="circle291"/>
	<circle cx="974.161" cy="223.231" r="4" fill="#0" id="circle292"/>
	<circle cx="975.001" cy="150.154" r="4" fill="#0" id="circle293"/>
	<circle cx="979.201" cy="157.714" r="4" fill="#0" id="circle294"/>
	<circle cx="982.561" cy="166.113" r="4" fill="#0" id="circle295"/>
	<circle cx="982.561" cy="220.711" r="4" fill="#0" id="circle296"/>
	<circle cx="987.6" cy="172.833" r="4" fill="#0" id="circle297"/>
	<circle cx="989.28" cy="213.992" r="4" fill="#0" id="circle298"/>
	<circle cx="991.8" cy="180.393" r="4" fill="#0" id="circle299"/>
	<circle cx="996" cy="187.953" r="4" fill="#0" id="circle300"/>
	<circle cx="996" cy="196.352" r="4" fill="#0" id="circle301"/>
	<circle cx="996" cy="204.752" r="4" fill="#0" id="circle302"/>
	</g>
</svg>