<?xml version="1.0" encoding="UTF-8" standalone="no"?>
<!-- Created with CurveBenchmark -->
<svg
	xmlns:dc="http://purl.org/dc/elements/1.1/"
	xmlns:cc="http://creativecommons.org/ns#"
	xmlns:rdf="http://www.w3.org/1999/02/22-rdf-syntax-ns#"
	xmlns:svg="http://www.w3.org/2000/svg"
	xmlns="http://www.w3.org/2000/svg"
	xmlns:sodipodi="http://sodipodi.sourceforge.net/DTD/sodipodi-0.dtd"
	xmlns:inkscape="http://www.inkscape.org/namespaces/inkscape"
	width="1000"
	height="1000"
	id="svg2"
	version="1.1"
	sodipodi:docname="manifold/fitconnect-stef12.png.txt">
<defs
	id="defs4" />
<metadata
	id="metadata7">
	<rdf:RDF>
		<cc:Work
			rdf:about="">
			<dc:format>image/svg+xml</dc:format>
			<dc:type
				rdf:resource="http://purl.org/dc/dcmitype/StillImage" />
			<dc:title></dc:title>
		</cc:Work>
	</rdf:RDF>
</metadata>
<g
	inkscape:label="Layer 1"
	inkscape:groupmode="layer"
	id="layer1">
	<path style="fill:none;stroke:red;stroke-width:1px;stroke-linecap:butt;stroke-linejoin:miter;stroke-opacity:1" d="M 4,91.279 4,112.567 z" id="boundary" inkscape:connector-curvature="0" />
	<path style="fill:none;stroke:red;stroke-width:1px;stroke-linecap:butt;stroke-linejoin:miter;stroke-opacity:1" d="M 4,91.279 14.6438,69.9914 z" id="boundary" inkscape:connector-curvature="0" />
	<path style="fill:none;stroke:red;stroke-width:1px;stroke-linecap:butt;stroke-linejoin:miter;stroke-opacity:1" d="M 4,112.567 4,133.854 z" id="boundary" inkscape:connector-curvature="0" />
	<path style="fill:none;stroke:red;stroke-width:1px;stroke-linecap:butt;stroke-linejoin:miter;stroke-opacity:1" d="M 4,133.854 14.6438,153.013 z" id="boundary" inkscape:connector-curvature="0" />
	<path style="fill:none;stroke:red;stroke-width:1px;stroke-linecap:butt;stroke-linejoin:miter;stroke-opacity:1" d="M 14.6438,69.9914 25.2876,48.7039 z" id="boundary" inkscape:connector-curvature="0" />
	<path style="fill:none;stroke:red;stroke-width:1px;stroke-linecap:butt;stroke-linejoin:miter;stroke-opacity:1" d="M 14.6438,153.013 14.6438,174.3 z" id="boundary" inkscape:connector-curvature="0" />
	<path style="fill:none;stroke:red;stroke-width:1px;stroke-linecap:butt;stroke-linejoin:miter;stroke-opacity:1" d="M 14.6438,174.3 29.5451,191.33 z" id="boundary" inkscape:connector-curvature="0" />
	<path style="fill:none;stroke:red;stroke-width:1px;stroke-linecap:butt;stroke-linejoin:miter;stroke-opacity:1" d="M 25.2876,48.7039 35.9313,27.4163 z" id="boundary" inkscape:connector-curvature="0" />
	<path style="fill:none;stroke:red;stroke-width:1px;stroke-linecap:butt;stroke-linejoin:miter;stroke-opacity:1" d="M 29.5451,191.33 46.5751,204.103 z" id="boundary" inkscape:connector-curvature="0" />
	<path style="fill:none;stroke:red;stroke-width:1px;stroke-linecap:butt;stroke-linejoin:miter;stroke-opacity:1" d="M 35.9313,27.4163 57.2189,16.7725 z" id="boundary" inkscape:connector-curvature="0" />
	<path style="fill:none;stroke:red;stroke-width:1px;stroke-linecap:butt;stroke-linejoin:miter;stroke-opacity:1" d="M 46.5751,204.103 65.7339,214.747 z" id="boundary" inkscape:connector-curvature="0" />
	<path style="fill:none;stroke:red;stroke-width:1px;stroke-linecap:butt;stroke-linejoin:miter;stroke-opacity:1" d="M 57.2189,16.7725 78.5064,10.3863 z" id="boundary" inkscape:connector-curvature="0" />
	<path style="fill:none;stroke:red;stroke-width:1px;stroke-linecap:butt;stroke-linejoin:miter;stroke-opacity:1" d="M 65.7339,214.747 78.5064,231.777 z" id="boundary" inkscape:connector-curvature="0" />
	<path style="fill:none;stroke:red;stroke-width:1px;stroke-linecap:butt;stroke-linejoin:miter;stroke-opacity:1" d="M 78.5064,10.3863 99.794,4 z" id="boundary" inkscape:connector-curvature="0" />
	<path style="fill:none;stroke:red;stroke-width:1px;stroke-linecap:butt;stroke-linejoin:miter;stroke-opacity:1" d="M 78.5064,231.777 80.6352,253.064 z" id="boundary" inkscape:connector-curvature="0" />
	<path style="fill:none;stroke:red;stroke-width:1px;stroke-linecap:butt;stroke-linejoin:miter;stroke-opacity:1" d="M 80.6352,253.064 91.279,272.223 z" id="boundary" inkscape:connector-curvature="0" />
	<path style="fill:none;stroke:red;stroke-width:1px;stroke-linecap:butt;stroke-linejoin:miter;stroke-opacity:1" d="M 91.279,272.223 106.18,289.253 z" id="boundary" inkscape:connector-curvature="0" />
	<path style="fill:none;stroke:red;stroke-width:1px;stroke-linecap:butt;stroke-linejoin:miter;stroke-opacity:1" d="M 99.794,4 112.567,21.03 z" id="boundary" inkscape:connector-curvature="0" />
	<path style="fill:none;stroke:red;stroke-width:1px;stroke-linecap:butt;stroke-linejoin:miter;stroke-opacity:1" d="M 99.794,868.275 99.794,889.562 z" id="boundary" inkscape:connector-curvature="0" />
	<path style="fill:none;stroke:red;stroke-width:1px;stroke-linecap:butt;stroke-linejoin:miter;stroke-opacity:1" d="M 99.794,868.275 121.082,857.631 z" id="boundary" inkscape:connector-curvature="0" />
	<path style="fill:none;stroke:red;stroke-width:1px;stroke-linecap:butt;stroke-linejoin:miter;stroke-opacity:1" d="M 99.794,889.562 121.082,895.948 z" id="boundary" inkscape:connector-curvature="0" />
	<path style="fill:none;stroke:red;stroke-width:1px;stroke-linecap:butt;stroke-linejoin:miter;stroke-opacity:1" d="M 106.18,289.253 123.21,304.155 z" id="boundary" inkscape:connector-curvature="0" />
	<path style="fill:none;stroke:red;stroke-width:1px;stroke-linecap:butt;stroke-linejoin:miter;stroke-opacity:1" d="M 112.567,21.03 133.854,27.4163 z" id="boundary" inkscape:connector-curvature="0" />
	<path style="fill:none;stroke:red;stroke-width:1px;stroke-linecap:butt;stroke-linejoin:miter;stroke-opacity:1" d="M 121.082,857.631 142.369,851.245 z" id="boundary" inkscape:connector-curvature="0" />
	<path style="fill:none;stroke:red;stroke-width:1px;stroke-linecap:butt;stroke-linejoin:miter;stroke-opacity:1" d="M 121.082,895.948 142.369,895.948 z" id="boundary" inkscape:connector-curvature="0" />
	<path style="fill:none;stroke:red;stroke-width:1px;stroke-linecap:butt;stroke-linejoin:miter;stroke-opacity:1" d="M 123.21,304.155 138.112,321.185 z" id="boundary" inkscape:connector-curvature="0" />
	<path style="fill:none;stroke:red;stroke-width:1px;stroke-linecap:butt;stroke-linejoin:miter;stroke-opacity:1" d="M 133.854,27.4163 148.755,44.4464 z" id="boundary" inkscape:connector-curvature="0" />
	<path style="fill:none;stroke:red;stroke-width:1px;stroke-linecap:butt;stroke-linejoin:miter;stroke-opacity:1" d="M 138.112,321.185 155.142,336.086 z" id="boundary" inkscape:connector-curvature="0" />
	<path style="fill:none;stroke:red;stroke-width:1px;stroke-linecap:butt;stroke-linejoin:miter;stroke-opacity:1" d="M 142.369,851.245 155.142,834.215 z" id="boundary" inkscape:connector-curvature="0" />
	<path style="fill:none;stroke:red;stroke-width:1px;stroke-linecap:butt;stroke-linejoin:miter;stroke-opacity:1" d="M 142.369,895.948 163.657,895.948 z" id="boundary" inkscape:connector-curvature="0" />
	<path style="fill:none;stroke:red;stroke-width:1px;stroke-linecap:butt;stroke-linejoin:miter;stroke-opacity:1" d="M 148.755,44.4464 165.785,59.3476 z" id="boundary" inkscape:connector-curvature="0" />
	<path style="fill:none;stroke:red;stroke-width:1px;stroke-linecap:butt;stroke-linejoin:miter;stroke-opacity:1" d="M 155.142,336.086 174.3,346.73 z" id="boundary" inkscape:connector-curvature="0" />
	<path style="fill:none;stroke:red;stroke-width:1px;stroke-linecap:butt;stroke-linejoin:miter;stroke-opacity:1" d="M 155.142,834.215 163.657,804.412 z" id="boundary" inkscape:connector-curvature="0" />
	<path style="fill:none;stroke:red;stroke-width:1px;stroke-linecap:butt;stroke-linejoin:miter;stroke-opacity:1" d="M 163.657,506.386 163.657,527.674 z" id="boundary" inkscape:connector-curvature="0" />
	<path style="fill:none;stroke:red;stroke-width:1px;stroke-linecap:butt;stroke-linejoin:miter;stroke-opacity:1" d="M 163.657,506.386 174.3,474.455 z" id="boundary" inkscape:connector-curvature="0" />
	<path style="fill:none;stroke:red;stroke-width:1px;stroke-linecap:butt;stroke-linejoin:miter;stroke-opacity:1" d="M 163.657,527.674 163.657,548.961 z" id="boundary" inkscape:connector-curvature="0" />
	<path style="fill:none;stroke:red;stroke-width:1px;stroke-linecap:butt;stroke-linejoin:miter;stroke-opacity:1" d="M 163.657,548.961 163.657,570.249 z" id="boundary" inkscape:connector-curvature="0" />
	<path style="fill:none;stroke:red;stroke-width:1px;stroke-linecap:butt;stroke-linejoin:miter;stroke-opacity:1" d="M 163.657,570.249 163.657,591.536 z" id="boundary" inkscape:connector-curvature="0" />
	<path style="fill:none;stroke:red;stroke-width:1px;stroke-linecap:butt;stroke-linejoin:miter;stroke-opacity:1" d="M 163.657,591.536 163.657,612.824 z" id="boundary" inkscape:connector-curvature="0" />
	<path style="fill:none;stroke:red;stroke-width:1px;stroke-linecap:butt;stroke-linejoin:miter;stroke-opacity:1" d="M 163.657,612.824 163.657,634.112 z" id="boundary" inkscape:connector-curvature="0" />
	<path style="fill:none;stroke:red;stroke-width:1px;stroke-linecap:butt;stroke-linejoin:miter;stroke-opacity:1" d="M 163.657,634.112 163.657,655.399 z" id="boundary" inkscape:connector-curvature="0" />
	<path style="fill:none;stroke:red;stroke-width:1px;stroke-linecap:butt;stroke-linejoin:miter;stroke-opacity:1" d="M 163.657,655.399 163.657,676.687 z" id="boundary" inkscape:connector-curvature="0" />
	<path style="fill:none;stroke:red;stroke-width:1px;stroke-linecap:butt;stroke-linejoin:miter;stroke-opacity:1" d="M 163.657,676.687 163.657,697.974 z" id="boundary" inkscape:connector-curvature="0" />
	<path style="fill:none;stroke:red;stroke-width:1px;stroke-linecap:butt;stroke-linejoin:miter;stroke-opacity:1" d="M 163.657,697.974 163.657,719.262 z" id="boundary" inkscape:connector-curvature="0" />
	<path style="fill:none;stroke:red;stroke-width:1px;stroke-linecap:butt;stroke-linejoin:miter;stroke-opacity:1" d="M 163.657,719.262 163.657,740.549 z" id="boundary" inkscape:connector-curvature="0" />
	<path style="fill:none;stroke:red;stroke-width:1px;stroke-linecap:butt;stroke-linejoin:miter;stroke-opacity:1" d="M 163.657,740.549 163.657,761.837 z" id="boundary" inkscape:connector-curvature="0" />
	<path style="fill:none;stroke:red;stroke-width:1px;stroke-linecap:butt;stroke-linejoin:miter;stroke-opacity:1" d="M 163.657,761.837 163.657,783.124 z" id="boundary" inkscape:connector-curvature="0" />
	<path style="fill:none;stroke:red;stroke-width:1px;stroke-linecap:butt;stroke-linejoin:miter;stroke-opacity:1" d="M 163.657,783.124 163.657,804.412 z" id="boundary" inkscape:connector-curvature="0" />
	<path style="fill:none;stroke:red;stroke-width:1px;stroke-linecap:butt;stroke-linejoin:miter;stroke-opacity:1" d="M 163.657,895.948 184.944,895.948 z" id="boundary" inkscape:connector-curvature="0" />
	<path style="fill:none;stroke:red;stroke-width:1px;stroke-linecap:butt;stroke-linejoin:miter;stroke-opacity:1" d="M 165.785,59.3476 174.3,80.6352 z" id="boundary" inkscape:connector-curvature="0" />
	<path style="fill:none;stroke:red;stroke-width:1px;stroke-linecap:butt;stroke-linejoin:miter;stroke-opacity:1" d="M 174.3,80.6352 176.429,101.923 z" id="boundary" inkscape:connector-curvature="0" />
	<path style="fill:none;stroke:red;stroke-width:1px;stroke-linecap:butt;stroke-linejoin:miter;stroke-opacity:1" d="M 174.3,346.73 195.588,353.116 z" id="boundary" inkscape:connector-curvature="0" />
	<path style="fill:none;stroke:red;stroke-width:1px;stroke-linecap:butt;stroke-linejoin:miter;stroke-opacity:1" d="M 174.3,474.455 184.944,453.167 z" id="boundary" inkscape:connector-curvature="0" />
	<path style="fill:none;stroke:red;stroke-width:1px;stroke-linecap:butt;stroke-linejoin:miter;stroke-opacity:1" d="M 176.429,101.923 197.717,106.18 z" id="boundary" inkscape:connector-curvature="0" />
	<path style="fill:none;stroke:red;stroke-width:1px;stroke-linecap:butt;stroke-linejoin:miter;stroke-opacity:1" d="M 184.944,453.167 201.974,436.137 z" id="boundary" inkscape:connector-curvature="0" />
	<path style="fill:none;stroke:red;stroke-width:1px;stroke-linecap:butt;stroke-linejoin:miter;stroke-opacity:1" d="M 184.944,895.948 206.232,895.948 z" id="boundary" inkscape:connector-curvature="0" />
	<path style="fill:none;stroke:red;stroke-width:1px;stroke-linecap:butt;stroke-linejoin:miter;stroke-opacity:1" d="M 195.588,353.116 214.747,363.76 z" id="boundary" inkscape:connector-curvature="0" />
	<path style="fill:none;stroke:red;stroke-width:1px;stroke-linecap:butt;stroke-linejoin:miter;stroke-opacity:1" d="M 197.717,106.18 216.876,116.824 z" id="boundary" inkscape:connector-curvature="0" />
	<path style="fill:none;stroke:red;stroke-width:1px;stroke-linecap:butt;stroke-linejoin:miter;stroke-opacity:1" d="M 201.974,436.137 219.004,419.107 z" id="boundary" inkscape:connector-curvature="0" />
	<path style="fill:none;stroke:red;stroke-width:1px;stroke-linecap:butt;stroke-linejoin:miter;stroke-opacity:1" d="M 206.232,895.948 227.519,895.948 z" id="boundary" inkscape:connector-curvature="0" />
	<path style="fill:none;stroke:red;stroke-width:1px;stroke-linecap:butt;stroke-linejoin:miter;stroke-opacity:1" d="M 214.747,363.76 236.034,363.76 z" id="boundary" inkscape:connector-curvature="0" />
	<path style="fill:none;stroke:red;stroke-width:1px;stroke-linecap:butt;stroke-linejoin:miter;stroke-opacity:1" d="M 216.876,116.824 236.034,106.18 z" id="boundary" inkscape:connector-curvature="0" />
	<path style="fill:none;stroke:red;stroke-width:1px;stroke-linecap:butt;stroke-linejoin:miter;stroke-opacity:1" d="M 219.004,419.107 240.292,408.464 z" id="boundary" inkscape:connector-curvature="0" />
	<path style="fill:none;stroke:red;stroke-width:1px;stroke-linecap:butt;stroke-linejoin:miter;stroke-opacity:1" d="M 227.519,895.948 248.807,895.948 z" id="boundary" inkscape:connector-curvature="0" />
	<path style="fill:none;stroke:red;stroke-width:1px;stroke-linecap:butt;stroke-linejoin:miter;stroke-opacity:1" d="M 236.034,106.18 255.193,116.824 z" id="boundary" inkscape:connector-curvature="0" />
	<path style="fill:none;stroke:red;stroke-width:1px;stroke-linecap:butt;stroke-linejoin:miter;stroke-opacity:1" d="M 236.034,363.76 255.193,374.403 z" id="boundary" inkscape:connector-curvature="0" />
	<path style="fill:none;stroke:red;stroke-width:1px;stroke-linecap:butt;stroke-linejoin:miter;stroke-opacity:1" d="M 240.292,408.464 259.451,395.691 z" id="boundary" inkscape:connector-curvature="0" />
	<path style="fill:none;stroke:red;stroke-width:1px;stroke-linecap:butt;stroke-linejoin:miter;stroke-opacity:1" d="M 240.292,512.773 240.292,544.704 z" id="boundary" inkscape:connector-curvature="0" />
	<path style="fill:none;stroke:red;stroke-width:1px;stroke-linecap:butt;stroke-linejoin:miter;stroke-opacity:1" d="M 240.292,512.773 259.451,502.129 z" id="boundary" inkscape:connector-curvature="0" />
	<path style="fill:none;stroke:red;stroke-width:1px;stroke-linecap:butt;stroke-linejoin:miter;stroke-opacity:1" d="M 240.292,544.704 240.292,576.635 z" id="boundary" inkscape:connector-curvature="0" />
	<path style="fill:none;stroke:red;stroke-width:1px;stroke-linecap:butt;stroke-linejoin:miter;stroke-opacity:1" d="M 240.292,576.635 240.292,608.567 z" id="boundary" inkscape:connector-curvature="0" />
	<path style="fill:none;stroke:red;stroke-width:1px;stroke-linecap:butt;stroke-linejoin:miter;stroke-opacity:1" d="M 240.292,608.567 240.292,640.498 z" id="boundary" inkscape:connector-curvature="0" />
	<path style="fill:none;stroke:red;stroke-width:1px;stroke-linecap:butt;stroke-linejoin:miter;stroke-opacity:1" d="M 240.292,640.498 240.292,672.429 z" id="boundary" inkscape:connector-curvature="0" />
	<path style="fill:none;stroke:red;stroke-width:1px;stroke-linecap:butt;stroke-linejoin:miter;stroke-opacity:1" d="M 240.292,672.429 240.292,704.361 z" id="boundary" inkscape:connector-curvature="0" />
	<path style="fill:none;stroke:red;stroke-width:1px;stroke-linecap:butt;stroke-linejoin:miter;stroke-opacity:1" d="M 240.292,704.361 244.549,725.648 z" id="boundary" inkscape:connector-curvature="0" />
	<path style="fill:none;stroke:red;stroke-width:1px;stroke-linecap:butt;stroke-linejoin:miter;stroke-opacity:1" d="M 244.549,725.648 250.936,746.936 z" id="boundary" inkscape:connector-curvature="0" />
	<path style="fill:none;stroke:red;stroke-width:1px;stroke-linecap:butt;stroke-linejoin:miter;stroke-opacity:1" d="M 248.807,895.948 270.094,895.948 z" id="boundary" inkscape:connector-curvature="0" />
	<path style="fill:none;stroke:red;stroke-width:1px;stroke-linecap:butt;stroke-linejoin:miter;stroke-opacity:1" d="M 250.936,746.936 261.579,766.094 z" id="boundary" inkscape:connector-curvature="0" />
	<path style="fill:none;stroke:red;stroke-width:1px;stroke-linecap:butt;stroke-linejoin:miter;stroke-opacity:1" d="M 255.193,116.824 274.352,106.18 z" id="boundary" inkscape:connector-curvature="0" />
	<path style="fill:none;stroke:red;stroke-width:1px;stroke-linecap:butt;stroke-linejoin:miter;stroke-opacity:1" d="M 255.193,374.403 259.451,395.691 z" id="boundary" inkscape:connector-curvature="0" />
	<path style="fill:none;stroke:red;stroke-width:1px;stroke-linecap:butt;stroke-linejoin:miter;stroke-opacity:1" d="M 259.451,502.129 280.738,502.129 z" id="boundary" inkscape:connector-curvature="0" />
	<path style="fill:none;stroke:red;stroke-width:1px;stroke-linecap:butt;stroke-linejoin:miter;stroke-opacity:1" d="M 261.579,766.094 261.579,787.382 z" id="boundary" inkscape:connector-curvature="0" />
	<path style="fill:none;stroke:red;stroke-width:1px;stroke-linecap:butt;stroke-linejoin:miter;stroke-opacity:1" d="M 261.579,787.382 272.223,806.541 z" id="boundary" inkscape:connector-curvature="0" />
	<path style="fill:none;stroke:red;stroke-width:1px;stroke-linecap:butt;stroke-linejoin:miter;stroke-opacity:1" d="M 270.094,895.948 287.124,883.176 z" id="boundary" inkscape:connector-curvature="0" />
	<path style="fill:none;stroke:red;stroke-width:1px;stroke-linecap:butt;stroke-linejoin:miter;stroke-opacity:1" d="M 272.223,806.541 272.223,827.828 z" id="boundary" inkscape:connector-curvature="0" />
	<path style="fill:none;stroke:red;stroke-width:1px;stroke-linecap:butt;stroke-linejoin:miter;stroke-opacity:1" d="M 272.223,827.828 282.867,853.373 z" id="boundary" inkscape:connector-curvature="0" />
	<path style="fill:none;stroke:red;stroke-width:1px;stroke-linecap:butt;stroke-linejoin:miter;stroke-opacity:1" d="M 274.352,106.18 293.511,116.824 z" id="boundary" inkscape:connector-curvature="0" />
	<path style="fill:none;stroke:red;stroke-width:1px;stroke-linecap:butt;stroke-linejoin:miter;stroke-opacity:1" d="M 280.738,502.129 302.026,502.129 z" id="boundary" inkscape:connector-curvature="0" />
	<path style="fill:none;stroke:red;stroke-width:1px;stroke-linecap:butt;stroke-linejoin:miter;stroke-opacity:1" d="M 282.867,853.373 287.124,883.176 z" id="boundary" inkscape:connector-curvature="0" />
	<path style="fill:none;stroke:red;stroke-width:1px;stroke-linecap:butt;stroke-linejoin:miter;stroke-opacity:1" d="M 293.511,116.824 312.67,106.18 z" id="boundary" inkscape:connector-curvature="0" />
	<path style="fill:none;stroke:red;stroke-width:1px;stroke-linecap:butt;stroke-linejoin:miter;stroke-opacity:1" d="M 302.026,502.129 323.313,502.129 z" id="boundary" inkscape:connector-curvature="0" />
	<path style="fill:none;stroke:red;stroke-width:1px;stroke-linecap:butt;stroke-linejoin:miter;stroke-opacity:1" d="M 312.67,106.18 331.828,116.824 z" id="boundary" inkscape:connector-curvature="0" />
	<path style="fill:none;stroke:red;stroke-width:1px;stroke-linecap:butt;stroke-linejoin:miter;stroke-opacity:1" d="M 323.313,502.129 344.601,502.129 z" id="boundary" inkscape:connector-curvature="0" />
	<path style="fill:none;stroke:red;stroke-width:1px;stroke-linecap:butt;stroke-linejoin:miter;stroke-opacity:1" d="M 331.828,116.824 350.987,127.468 z" id="boundary" inkscape:connector-curvature="0" />
	<path style="fill:none;stroke:red;stroke-width:1px;stroke-linecap:butt;stroke-linejoin:miter;stroke-opacity:1" d="M 344.601,502.129 365.888,495.742 z" id="boundary" inkscape:connector-curvature="0" />
	<path style="fill:none;stroke:red;stroke-width:1px;stroke-linecap:butt;stroke-linejoin:miter;stroke-opacity:1" d="M 350.987,127.468 370.146,138.112 z" id="boundary" inkscape:connector-curvature="0" />
	<path style="fill:none;stroke:red;stroke-width:1px;stroke-linecap:butt;stroke-linejoin:miter;stroke-opacity:1" d="M 365.888,495.742 387.176,485.099 z" id="boundary" inkscape:connector-curvature="0" />
	<path style="fill:none;stroke:red;stroke-width:1px;stroke-linecap:butt;stroke-linejoin:miter;stroke-opacity:1" d="M 370.146,138.112 389.305,148.755 z" id="boundary" inkscape:connector-curvature="0" />
	<path style="fill:none;stroke:red;stroke-width:1px;stroke-linecap:butt;stroke-linejoin:miter;stroke-opacity:1" d="M 387.176,485.099 408.464,474.455 z" id="boundary" inkscape:connector-curvature="0" />
	<path style="fill:none;stroke:red;stroke-width:1px;stroke-linecap:butt;stroke-linejoin:miter;stroke-opacity:1" d="M 389.305,148.755 410.592,155.142 z" id="boundary" inkscape:connector-curvature="0" />
	<path style="fill:none;stroke:red;stroke-width:1px;stroke-linecap:butt;stroke-linejoin:miter;stroke-opacity:1" d="M 408.464,474.455 425.494,459.554 z" id="boundary" inkscape:connector-curvature="0" />
	<path style="fill:none;stroke:red;stroke-width:1px;stroke-linecap:butt;stroke-linejoin:miter;stroke-opacity:1" d="M 410.592,155.142 425.494,172.172 z" id="boundary" inkscape:connector-curvature="0" />
	<path style="fill:none;stroke:red;stroke-width:1px;stroke-linecap:butt;stroke-linejoin:miter;stroke-opacity:1" d="M 425.494,172.172 442.524,187.073 z" id="boundary" inkscape:connector-curvature="0" />
	<path style="fill:none;stroke:red;stroke-width:1px;stroke-linecap:butt;stroke-linejoin:miter;stroke-opacity:1" d="M 425.494,459.554 444.652,470.197 z" id="boundary" inkscape:connector-curvature="0" />
	<path style="fill:none;stroke:red;stroke-width:1px;stroke-linecap:butt;stroke-linejoin:miter;stroke-opacity:1" d="M 442.524,187.073 459.554,201.974 z" id="boundary" inkscape:connector-curvature="0" />
	<path style="fill:none;stroke:red;stroke-width:1px;stroke-linecap:butt;stroke-linejoin:miter;stroke-opacity:1" d="M 444.652,470.197 465.94,465.94 z" id="boundary" inkscape:connector-curvature="0" />
	<path style="fill:none;stroke:red;stroke-width:1px;stroke-linecap:butt;stroke-linejoin:miter;stroke-opacity:1" d="M 459.554,201.974 478.712,212.618 z" id="boundary" inkscape:connector-curvature="0" />
	<path style="fill:none;stroke:red;stroke-width:1px;stroke-linecap:butt;stroke-linejoin:miter;stroke-opacity:1" d="M 465.94,465.94 472.326,487.227 z" id="boundary" inkscape:connector-curvature="0" />
	<path style="fill:none;stroke:red;stroke-width:1px;stroke-linecap:butt;stroke-linejoin:miter;stroke-opacity:1" d="M 472.326,487.227 472.326,508.515 z" id="boundary" inkscape:connector-curvature="0" />
	<path style="fill:none;stroke:red;stroke-width:1px;stroke-linecap:butt;stroke-linejoin:miter;stroke-opacity:1" d="M 472.326,508.515 482.97,527.674 z" id="boundary" inkscape:connector-curvature="0" />
	<path style="fill:none;stroke:red;stroke-width:1px;stroke-linecap:butt;stroke-linejoin:miter;stroke-opacity:1" d="M 478.712,212.618 497.871,223.262 z" id="boundary" inkscape:connector-curvature="0" />
	<path style="fill:none;stroke:red;stroke-width:1px;stroke-linecap:butt;stroke-linejoin:miter;stroke-opacity:1" d="M 482.97,527.674 482.97,548.961 z" id="boundary" inkscape:connector-curvature="0" />
	<path style="fill:none;stroke:red;stroke-width:1px;stroke-linecap:butt;stroke-linejoin:miter;stroke-opacity:1" d="M 482.97,548.961 493.614,568.12 z" id="boundary" inkscape:connector-curvature="0" />
	<path style="fill:none;stroke:red;stroke-width:1px;stroke-linecap:butt;stroke-linejoin:miter;stroke-opacity:1" d="M 493.614,568.12 504.258,587.279 z" id="boundary" inkscape:connector-curvature="0" />
	<path style="fill:none;stroke:red;stroke-width:1px;stroke-linecap:butt;stroke-linejoin:miter;stroke-opacity:1" d="M 497.871,223.262 514.901,238.163 z" id="boundary" inkscape:connector-curvature="0" />
	<path style="fill:none;stroke:red;stroke-width:1px;stroke-linecap:butt;stroke-linejoin:miter;stroke-opacity:1" d="M 504.258,587.279 504.258,608.567 z" id="boundary" inkscape:connector-curvature="0" />
	<path style="fill:none;stroke:red;stroke-width:1px;stroke-linecap:butt;stroke-linejoin:miter;stroke-opacity:1" d="M 504.258,608.567 514.901,627.725 z" id="boundary" inkscape:connector-curvature="0" />
	<path style="fill:none;stroke:red;stroke-width:1px;stroke-linecap:butt;stroke-linejoin:miter;stroke-opacity:1" d="M 514.901,238.163 527.674,255.193 z" id="boundary" inkscape:connector-curvature="0" />
	<path style="fill:none;stroke:red;stroke-width:1px;stroke-linecap:butt;stroke-linejoin:miter;stroke-opacity:1" d="M 514.901,627.725 519.159,649.013 z" id="boundary" inkscape:connector-curvature="0" />
	<path style="fill:none;stroke:red;stroke-width:1px;stroke-linecap:butt;stroke-linejoin:miter;stroke-opacity:1" d="M 519.159,649.013 529.803,668.172 z" id="boundary" inkscape:connector-curvature="0" />
	<path style="fill:none;stroke:red;stroke-width:1px;stroke-linecap:butt;stroke-linejoin:miter;stroke-opacity:1" d="M 527.674,255.193 538.318,274.352 z" id="boundary" inkscape:connector-curvature="0" />
	<path style="fill:none;stroke:red;stroke-width:1px;stroke-linecap:butt;stroke-linejoin:miter;stroke-opacity:1" d="M 529.803,668.172 548.961,678.815 z" id="boundary" inkscape:connector-curvature="0" />
	<path style="fill:none;stroke:red;stroke-width:1px;stroke-linecap:butt;stroke-linejoin:miter;stroke-opacity:1" d="M 538.318,274.352 555.348,287.124 z" id="boundary" inkscape:connector-curvature="0" />
	<path style="fill:none;stroke:red;stroke-width:1px;stroke-linecap:butt;stroke-linejoin:miter;stroke-opacity:1" d="M 548.961,678.815 570.249,683.073 z" id="boundary" inkscape:connector-curvature="0" />
	<path style="fill:none;stroke:red;stroke-width:1px;stroke-linecap:butt;stroke-linejoin:miter;stroke-opacity:1" d="M 555.348,287.124 570.249,304.155 z" id="boundary" inkscape:connector-curvature="0" />
	<path style="fill:none;stroke:red;stroke-width:1px;stroke-linecap:butt;stroke-linejoin:miter;stroke-opacity:1" d="M 570.249,304.155 580.893,331.828 z" id="boundary" inkscape:connector-curvature="0" />
	<path style="fill:none;stroke:red;stroke-width:1px;stroke-linecap:butt;stroke-linejoin:miter;stroke-opacity:1" d="M 570.249,683.073 589.408,693.717 z" id="boundary" inkscape:connector-curvature="0" />
	<path style="fill:none;stroke:red;stroke-width:1px;stroke-linecap:butt;stroke-linejoin:miter;stroke-opacity:1" d="M 580.893,331.828 597.923,344.601 z" id="boundary" inkscape:connector-curvature="0" />
	<path style="fill:none;stroke:red;stroke-width:1px;stroke-linecap:butt;stroke-linejoin:miter;stroke-opacity:1" d="M 589.408,693.717 608.567,704.361 z" id="boundary" inkscape:connector-curvature="0" />
	<path style="fill:none;stroke:red;stroke-width:1px;stroke-linecap:butt;stroke-linejoin:miter;stroke-opacity:1" d="M 597.923,344.601 608.567,363.76 z" id="boundary" inkscape:connector-curvature="0" />
	<path style="fill:none;stroke:red;stroke-width:1px;stroke-linecap:butt;stroke-linejoin:miter;stroke-opacity:1" d="M 608.567,363.76 612.824,385.047 z" id="boundary" inkscape:connector-curvature="0" />
	<path style="fill:none;stroke:red;stroke-width:1px;stroke-linecap:butt;stroke-linejoin:miter;stroke-opacity:1" d="M 608.567,704.361 629.854,700.103 z" id="boundary" inkscape:connector-curvature="0" />
	<path style="fill:none;stroke:red;stroke-width:1px;stroke-linecap:butt;stroke-linejoin:miter;stroke-opacity:1" d="M 612.824,385.047 623.468,404.206 z" id="boundary" inkscape:connector-curvature="0" />
	<path style="fill:none;stroke:red;stroke-width:1px;stroke-linecap:butt;stroke-linejoin:miter;stroke-opacity:1" d="M 623.468,404.206 623.468,425.494 z" id="boundary" inkscape:connector-curvature="0" />
	<path style="fill:none;stroke:red;stroke-width:1px;stroke-linecap:butt;stroke-linejoin:miter;stroke-opacity:1" d="M 623.468,425.494 623.468,446.781 z" id="boundary" inkscape:connector-curvature="0" />
	<path style="fill:none;stroke:red;stroke-width:1px;stroke-linecap:butt;stroke-linejoin:miter;stroke-opacity:1" d="M 623.468,446.781 623.468,468.069 z" id="boundary" inkscape:connector-curvature="0" />
	<path style="fill:none;stroke:red;stroke-width:1px;stroke-linecap:butt;stroke-linejoin:miter;stroke-opacity:1" d="M 623.468,468.069 623.468,489.356 z" id="boundary" inkscape:connector-curvature="0" />
	<path style="fill:none;stroke:red;stroke-width:1px;stroke-linecap:butt;stroke-linejoin:miter;stroke-opacity:1" d="M 623.468,489.356 623.468,510.644 z" id="boundary" inkscape:connector-curvature="0" />
	<path style="fill:none;stroke:red;stroke-width:1px;stroke-linecap:butt;stroke-linejoin:miter;stroke-opacity:1" d="M 623.468,510.644 623.468,531.931 z" id="boundary" inkscape:connector-curvature="0" />
	<path style="fill:none;stroke:red;stroke-width:1px;stroke-linecap:butt;stroke-linejoin:miter;stroke-opacity:1" d="M 623.468,531.931 634.112,551.09 z" id="boundary" inkscape:connector-curvature="0" />
	<path style="fill:none;stroke:red;stroke-width:1px;stroke-linecap:butt;stroke-linejoin:miter;stroke-opacity:1" d="M 629.854,700.103 651.142,689.459 z" id="boundary" inkscape:connector-curvature="0" />
	<path style="fill:none;stroke:red;stroke-width:1px;stroke-linecap:butt;stroke-linejoin:miter;stroke-opacity:1" d="M 634.112,551.09 644.755,570.249 z" id="boundary" inkscape:connector-curvature="0" />
	<path style="fill:none;stroke:red;stroke-width:1px;stroke-linecap:butt;stroke-linejoin:miter;stroke-opacity:1" d="M 644.755,570.249 666.043,568.12 z" id="boundary" inkscape:connector-curvature="0" />
	<path style="fill:none;stroke:red;stroke-width:1px;stroke-linecap:butt;stroke-linejoin:miter;stroke-opacity:1" d="M 651.142,689.459 672.429,678.815 z" id="boundary" inkscape:connector-curvature="0" />
	<path style="fill:none;stroke:red;stroke-width:1px;stroke-linecap:butt;stroke-linejoin:miter;stroke-opacity:1" d="M 666.043,568.12 683.073,553.219 z" id="boundary" inkscape:connector-curvature="0" />
	<path style="fill:none;stroke:red;stroke-width:1px;stroke-linecap:butt;stroke-linejoin:miter;stroke-opacity:1" d="M 672.429,678.815 683.073,657.528 z" id="boundary" inkscape:connector-curvature="0" />
	<path style="fill:none;stroke:red;stroke-width:1px;stroke-linecap:butt;stroke-linejoin:miter;stroke-opacity:1" d="M 683.073,553.219 702.232,542.575 z" id="boundary" inkscape:connector-curvature="0" />
	<path style="fill:none;stroke:red;stroke-width:1px;stroke-linecap:butt;stroke-linejoin:miter;stroke-opacity:1" d="M 683.073,657.528 693.717,636.24 z" id="boundary" inkscape:connector-curvature="0" />
	<path style="fill:none;stroke:red;stroke-width:1px;stroke-linecap:butt;stroke-linejoin:miter;stroke-opacity:1" d="M 693.717,636.24 704.361,614.953 z" id="boundary" inkscape:connector-curvature="0" />
	<path style="fill:none;stroke:red;stroke-width:1px;stroke-linecap:butt;stroke-linejoin:miter;stroke-opacity:1" d="M 702.232,542.575 712.876,521.288 z" id="boundary" inkscape:connector-curvature="0" />
	<path style="fill:none;stroke:red;stroke-width:1px;stroke-linecap:butt;stroke-linejoin:miter;stroke-opacity:1" d="M 704.361,614.953 719.262,597.923 z" id="boundary" inkscape:connector-curvature="0" />
	<path style="fill:none;stroke:red;stroke-width:1px;stroke-linecap:butt;stroke-linejoin:miter;stroke-opacity:1" d="M 712.876,521.288 727.777,495.742 z" id="boundary" inkscape:connector-curvature="0" />
	<path style="fill:none;stroke:red;stroke-width:1px;stroke-linecap:butt;stroke-linejoin:miter;stroke-opacity:1" d="M 719.262,597.923 738.421,587.279 z" id="boundary" inkscape:connector-curvature="0" />
	<path style="fill:none;stroke:red;stroke-width:1px;stroke-linecap:butt;stroke-linejoin:miter;stroke-opacity:1" d="M 727.777,495.742 744.807,478.712 z" id="boundary" inkscape:connector-curvature="0" />
	<path style="fill:none;stroke:red;stroke-width:1px;stroke-linecap:butt;stroke-linejoin:miter;stroke-opacity:1" d="M 738.421,587.279 755.451,574.506 z" id="boundary" inkscape:connector-curvature="0" />
	<path style="fill:none;stroke:red;stroke-width:1px;stroke-linecap:butt;stroke-linejoin:miter;stroke-opacity:1" d="M 744.807,478.712 763.966,468.069 z" id="boundary" inkscape:connector-curvature="0" />
	<path style="fill:none;stroke:red;stroke-width:1px;stroke-linecap:butt;stroke-linejoin:miter;stroke-opacity:1" d="M 755.451,574.506 776.738,563.863 z" id="boundary" inkscape:connector-curvature="0" />
	<path style="fill:none;stroke:red;stroke-width:1px;stroke-linecap:butt;stroke-linejoin:miter;stroke-opacity:1" d="M 763.966,468.069 770.352,442.524 z" id="boundary" inkscape:connector-curvature="0" />
	<path style="fill:none;stroke:red;stroke-width:1px;stroke-linecap:butt;stroke-linejoin:miter;stroke-opacity:1" d="M 770.352,442.524 780.996,421.236 z" id="boundary" inkscape:connector-curvature="0" />
	<path style="fill:none;stroke:red;stroke-width:1px;stroke-linecap:butt;stroke-linejoin:miter;stroke-opacity:1" d="M 776.738,563.863 798.026,553.219 z" id="boundary" inkscape:connector-curvature="0" />
	<path style="fill:none;stroke:red;stroke-width:1px;stroke-linecap:butt;stroke-linejoin:miter;stroke-opacity:1" d="M 780.996,421.236 798.026,404.206 z" id="boundary" inkscape:connector-curvature="0" />
	<path style="fill:none;stroke:red;stroke-width:1px;stroke-linecap:butt;stroke-linejoin:miter;stroke-opacity:1" d="M 798.026,404.206 817.185,393.562 z" id="boundary" inkscape:connector-curvature="0" />
	<path style="fill:none;stroke:red;stroke-width:1px;stroke-linecap:butt;stroke-linejoin:miter;stroke-opacity:1" d="M 798.026,553.219 819.313,544.704 z" id="boundary" inkscape:connector-curvature="0" />
	<path style="fill:none;stroke:red;stroke-width:1px;stroke-linecap:butt;stroke-linejoin:miter;stroke-opacity:1" d="M 817.185,393.562 836.343,404.206 z" id="boundary" inkscape:connector-curvature="0" />
	<path style="fill:none;stroke:red;stroke-width:1px;stroke-linecap:butt;stroke-linejoin:miter;stroke-opacity:1" d="M 819.313,544.704 840.601,544.704 z" id="boundary" inkscape:connector-curvature="0" />
	<path style="fill:none;stroke:red;stroke-width:1px;stroke-linecap:butt;stroke-linejoin:miter;stroke-opacity:1" d="M 836.343,404.206 857.631,410.592 z" id="boundary" inkscape:connector-curvature="0" />
	<path style="fill:none;stroke:red;stroke-width:1px;stroke-linecap:butt;stroke-linejoin:miter;stroke-opacity:1" d="M 840.601,544.704 861.888,544.704 z" id="boundary" inkscape:connector-curvature="0" />
	<path style="fill:none;stroke:red;stroke-width:1px;stroke-linecap:butt;stroke-linejoin:miter;stroke-opacity:1" d="M 857.631,410.592 872.532,427.622 z" id="boundary" inkscape:connector-curvature="0" />
	<path style="fill:none;stroke:red;stroke-width:1px;stroke-linecap:butt;stroke-linejoin:miter;stroke-opacity:1" d="M 861.888,544.704 883.176,542.575 z" id="boundary" inkscape:connector-curvature="0" />
	<path style="fill:none;stroke:red;stroke-width:1px;stroke-linecap:butt;stroke-linejoin:miter;stroke-opacity:1" d="M 872.532,427.622 893.82,436.137 z" id="boundary" inkscape:connector-curvature="0" />
	<path style="fill:none;stroke:red;stroke-width:1px;stroke-linecap:butt;stroke-linejoin:miter;stroke-opacity:1" d="M 883.176,542.575 904.464,534.06 z" id="boundary" inkscape:connector-curvature="0" />
	<path style="fill:none;stroke:red;stroke-width:1px;stroke-linecap:butt;stroke-linejoin:miter;stroke-opacity:1" d="M 893.82,436.137 908.721,453.167 z" id="boundary" inkscape:connector-curvature="0" />
	<path style="fill:none;stroke:red;stroke-width:1px;stroke-linecap:butt;stroke-linejoin:miter;stroke-opacity:1" d="M 904.464,534.06 925.751,534.06 z" id="boundary" inkscape:connector-curvature="0" />
	<path style="fill:none;stroke:red;stroke-width:1px;stroke-linecap:butt;stroke-linejoin:miter;stroke-opacity:1" d="M 908.721,453.167 930.009,461.682 z" id="boundary" inkscape:connector-curvature="0" />
	<path style="fill:none;stroke:red;stroke-width:1px;stroke-linecap:butt;stroke-linejoin:miter;stroke-opacity:1" d="M 925.751,534.06 947.039,534.06 z" id="boundary" inkscape:connector-curvature="0" />
	<path style="fill:none;stroke:red;stroke-width:1px;stroke-linecap:butt;stroke-linejoin:miter;stroke-opacity:1" d="M 930.009,461.682 949.167,472.326 z" id="boundary" inkscape:connector-curvature="0" />
	<path style="fill:none;stroke:red;stroke-width:1px;stroke-linecap:butt;stroke-linejoin:miter;stroke-opacity:1" d="M 947.039,534.06 968.326,534.06 z" id="boundary" inkscape:connector-curvature="0" />
	<path style="fill:none;stroke:red;stroke-width:1px;stroke-linecap:butt;stroke-linejoin:miter;stroke-opacity:1" d="M 949.167,472.326 970.455,470.197 z" id="boundary" inkscape:connector-curvature="0" />
	<path style="fill:none;stroke:red;stroke-width:1px;stroke-linecap:butt;stroke-linejoin:miter;stroke-opacity:1" d="M 968.326,534.06 989.614,531.931 z" id="boundary" inkscape:connector-curvature="0" />
	<path style="fill:none;stroke:red;stroke-width:1px;stroke-linecap:butt;stroke-linejoin:miter;stroke-opacity:1" d="M 970.455,470.197 981.099,489.356 z" id="boundary" inkscape:connector-curvature="0" />
	<path style="fill:none;stroke:red;stroke-width:1px;stroke-linecap:butt;stroke-linejoin:miter;stroke-opacity:1" d="M 981.099,489.356 996,506.386 z" id="boundary" inkscape:connector-curvature="0" />
	<path style="fill:none;stroke:red;stroke-width:1px;stroke-linecap:butt;stroke-linejoin:miter;stroke-opacity:1" d="M 989.614,531.931 996,506.386 z" id="boundary" inkscape:connector-curvature="0" />
	<circle cx="4" cy="91.279" r="4" fill="#0" id="circle0"/>
	<circle cx="4" cy="112.567" r="4" fill="#0" id="circle1"/>
	<circle cx="4" cy="133.854" r="4" fill="#0" id="circle2"/>
	<circle cx="14.6438" cy="69.9914" r="4" fill="#0" id="circle3"/>
	<circle cx="14.6438" cy="153.013" r="4" fill="#0" id="circle4"/>
	<circle cx="14.6438" cy="174.3" r="4" fill="#0" id="circle5"/>
	<circle cx="25.2876" cy="48.7039" r="4" fill="#0" id="circle6"/>
	<circle cx="29.5451" cy="191.33" r="4" fill="#0" id="circle7"/>
	<circle cx="35.9313" cy="27.4163" r="4" fill="#0" id="circle8"/>
	<circle cx="46.5751" cy="204.103" r="4" fill="#0" id="circle9"/>
	<circle cx="57.2189" cy="16.7725" r="4" fill="#0" id="circle10"/>
	<circle cx="65.7339" cy="214.747" r="4" fill="#0" id="circle11"/>
	<circle cx="78.5064" cy="10.3863" r="4" fill="#0" id="circle12"/>
	<circle cx="78.5064" cy="231.777" r="4" fill="#0" id="circle13"/>
	<circle cx="80.6352" cy="253.064" r="4" fill="#0" id="circle14"/>
	<circle cx="91.279" cy="272.223" r="4" fill="#0" id="circle15"/>
	<circle cx="99.794" cy="4" r="4" fill="#0" id="circle16"/>
	<circle cx="99.794" cy="868.275" r="4" fill="#0" id="circle17"/>
	<circle cx="99.794" cy="889.562" r="4" fill="#0" id="circle18"/>
	<circle cx="106.18" cy="289.253" r="4" fill="#0" id="circle19"/>
	<circle cx="112.567" cy="21.03" r="4" fill="#0" id="circle20"/>
	<circle cx="121.082" cy="857.631" r="4" fill="#0" id="circle21"/>
	<circle cx="121.082" cy="895.948" r="4" fill="#0" id="circle22"/>
	<circle cx="123.21" cy="304.155" r="4" fill="#0" id="circle23"/>
	<circle cx="133.854" cy="27.4163" r="4" fill="#0" id="circle24"/>
	<circle cx="138.112" cy="321.185" r="4" fill="#0" id="circle25"/>
	<circle cx="142.369" cy="851.245" r="4" fill="#0" id="circle26"/>
	<circle cx="142.369" cy="895.948" r="4" fill="#0" id="circle27"/>
	<circle cx="148.755" cy="44.4464" r="4" fill="#0" id="circle28"/>
	<circle cx="155.142" cy="336.086" r="4" fill="#0" id="circle29"/>
	<circle cx="155.142" cy="834.215" r="4" fill="#0" id="circle30"/>
	<circle cx="163.657" cy="506.386" r="4" fill="#0" id="circle31"/>
	<circle cx="163.657" cy="527.674" r="4" fill="#0" id="circle32"/>
	<circle cx="163.657" cy="548.961" r="4" fill="#0" id="circle33"/>
	<circle cx="163.657" cy="570.249" r="4" fill="#0" id="circle34"/>
	<circle cx="163.657" cy="591.536" r="4" fill="#0" id="circle35"/>
	<circle cx="163.657" cy="612.824" r="4" fill="#0" id="circle36"/>
	<circle cx="163.657" cy="634.112" r="4" fill="#0" id="circle37"/>
	<circle cx="163.657" cy="655.399" r="4" fill="#0" id="circle38"/>
	<circle cx="163.657" cy="676.687" r="4" fill="#0" id="circle39"/>
	<circle cx="163.657" cy="697.974" r="4" fill="#0" id="circle40"/>
	<circle cx="163.657" cy="719.262" r="4" fill="#0" id="circle41"/>
	<circle cx="163.657" cy="740.549" r="4" fill="#0" id="circle42"/>
	<circle cx="163.657" cy="761.837" r="4" fill="#0" id="circle43"/>
	<circle cx="163.657" cy="783.124" r="4" fill="#0" id="circle44"/>
	<circle cx="163.657" cy="804.412" r="4" fill="#0" id="circle45"/>
	<circle cx="163.657" cy="895.948" r="4" fill="#0" id="circle46"/>
	<circle cx="165.785" cy="59.3476" r="4" fill="#0" id="circle47"/>
	<circle cx="174.3" cy="80.6352" r="4" fill="#0" id="circle48"/>
	<circle cx="174.3" cy="346.73" r="4" fill="#0" id="circle49"/>
	<circle cx="174.3" cy="474.455" r="4" fill="#0" id="circle50"/>
	<circle cx="176.429" cy="101.923" r="4" fill="#0" id="circle51"/>
	<circle cx="184.944" cy="453.167" r="4" fill="#0" id="circle52"/>
	<circle cx="184.944" cy="895.948" r="4" fill="#0" id="circle53"/>
	<circle cx="195.588" cy="353.116" r="4" fill="#0" id="circle54"/>
	<circle cx="197.717" cy="106.18" r="4" fill="#0" id="circle55"/>
	<circle cx="201.974" cy="436.137" r="4" fill="#0" id="circle56"/>
	<circle cx="206.232" cy="895.948" r="4" fill="#0" id="circle57"/>
	<circle cx="214.747" cy="363.76" r="4" fill="#0" id="circle58"/>
	<circle cx="216.876" cy="116.824" r="4" fill="#0" id="circle59"/>
	<circle cx="219.004" cy="419.107" r="4" fill="#0" id="circle60"/>
	<circle cx="227.519" cy="895.948" r="4" fill="#0" id="circle61"/>
	<circle cx="236.034" cy="106.18" r="4" fill="#0" id="circle62"/>
	<circle cx="236.034" cy="363.76" r="4" fill="#0" id="circle63"/>
	<circle cx="240.292" cy="408.464" r="4" fill="#0" id="circle64"/>
	<circle cx="240.292" cy="512.773" r="4" fill="#0" id="circle65"/>
	<circle cx="240.292" cy="544.704" r="4" fill="#0" id="circle66"/>
	<circle cx="240.292" cy="576.635" r="4" fill="#0" id="circle67"/>
	<circle cx="240.292" cy="608.567" r="4" fill="#0" id="circle68"/>
	<circle cx="240.292" cy="640.498" r="4" fill="#0" id="circle69"/>
	<circle cx="240.292" cy="672.429" r="4" fill="#0" id="circle70"/>
	<circle cx="240.292" cy="704.361" r="4" fill="#0" id="circle71"/>
	<circle cx="244.549" cy="725.648" r="4" fill="#0" id="circle72"/>
	<circle cx="248.807" cy="895.948" r="4" fill="#0" id="circle73"/>
	<circle cx="250.936" cy="746.936" r="4" fill="#0" id="circle74"/>
	<circle cx="255.193" cy="116.824" r="4" fill="#0" id="circle75"/>
	<circle cx="255.193" cy="374.403" r="4" fill="#0" id="circle76"/>
	<circle cx="259.451" cy="395.691" r="4" fill="#0" id="circle77"/>
	<circle cx="259.451" cy="502.129" r="4" fill="#0" id="circle78"/>
	<circle cx="261.579" cy="766.094" r="4" fill="#0" id="circle79"/>
	<circle cx="261.579" cy="787.382" r="4" fill="#0" id="circle80"/>
	<circle cx="270.094" cy="895.948" r="4" fill="#0" id="circle81"/>
	<circle cx="272.223" cy="806.541" r="4" fill="#0" id="circle82"/>
	<circle cx="272.223" cy="827.828" r="4" fill="#0" id="circle83"/>
	<circle cx="274.352" cy="106.18" r="4" fill="#0" id="circle84"/>
	<circle cx="280.738" cy="502.129" r="4" fill="#0" id="circle85"/>
	<circle cx="282.867" cy="853.373" r="4" fill="#0" id="circle86"/>
	<circle cx="287.124" cy="883.176" r="4" fill="#0" id="circle87"/>
	<circle cx="293.511" cy="116.824" r="4" fill="#0" id="circle88"/>
	<circle cx="302.026" cy="502.129" r="4" fill="#0" id="circle89"/>
	<circle cx="312.67" cy="106.18" r="4" fill="#0" id="circle90"/>
	<circle cx="323.313" cy="502.129" r="4" fill="#0" id="circle91"/>
	<circle cx="331.828" cy="116.824" r="4" fill="#0" id="circle92"/>
	<circle cx="344.601" cy="502.129" r="4" fill="#0" id="circle93"/>
	<circle cx="350.987" cy="127.468" r="4" fill="#0" id="circle94"/>
	<circle cx="365.888" cy="495.742" r="4" fill="#0" id="circle95"/>
	<circle cx="370.146" cy="138.112" r="4" fill="#0" id="circle96"/>
	<circle cx="387.176" cy="485.099" r="4" fill="#0" id="circle97"/>
	<circle cx="389.305" cy="148.755" r="4" fill="#0" id="circle98"/>
	<circle cx="408.464" cy="474.455" r="4" fill="#0" id="circle99"/>
	<circle cx="410.592" cy="155.142" r="4" fill="#0" id="circle100"/>
	<circle cx="425.494" cy="172.172" r="4" fill="#0" id="circle101"/>
	<circle cx="425.494" cy="459.554" r="4" fill="#0" id="circle102"/>
	<circle cx="442.524" cy="187.073" r="4" fill="#0" id="circle103"/>
	<circle cx="444.652" cy="470.197" r="4" fill="#0" id="circle104"/>
	<circle cx="459.554" cy="201.974" r="4" fill="#0" id="circle105"/>
	<circle cx="465.94" cy="465.94" r="4" fill="#0" id="circle106"/>
	<circle cx="472.326" cy="487.227" r="4" fill="#0" id="circle107"/>
	<circle cx="472.326" cy="508.515" r="4" fill="#0" id="circle108"/>
	<circle cx="478.712" cy="212.618" r="4" fill="#0" id="circle109"/>
	<circle cx="482.97" cy="527.674" r="4" fill="#0" id="circle110"/>
	<circle cx="482.97" cy="548.961" r="4" fill="#0" id="circle111"/>
	<circle cx="493.614" cy="568.12" r="4" fill="#0" id="circle112"/>
	<circle cx="497.871" cy="223.262" r="4" fill="#0" id="circle113"/>
	<circle cx="504.258" cy="587.279" r="4" fill="#0" id="circle114"/>
	<circle cx="504.258" cy="608.567" r="4" fill="#0" id="circle115"/>
	<circle cx="514.901" cy="238.163" r="4" fill="#0" id="circle116"/>
	<circle cx="514.901" cy="627.725" r="4" fill="#0" id="circle117"/>
	<circle cx="519.159" cy="649.013" r="4" fill="#0" id="circle118"/>
	<circle cx="527.674" cy="255.193" r="4" fill="#0" id="circle119"/>
	<circle cx="529.803" cy="668.172" r="4" fill="#0" id="circle120"/>
	<circle cx="538.318" cy="274.352" r="4" fill="#0" id="circle121"/>
	<circle cx="548.961" cy="678.815" r="4" fill="#0" id="circle122"/>
	<circle cx="555.348" cy="287.124" r="4" fill="#0" id="circle123"/>
	<circle cx="570.249" cy="304.155" r="4" fill="#0" id="circle124"/>
	<circle cx="570.249" cy="683.073" r="4" fill="#0" id="circle125"/>
	<circle cx="580.893" cy="331.828" r="4" fill="#0" id="circle126"/>
	<circle cx="589.408" cy="693.717" r="4" fill="#0" id="circle127"/>
	<circle cx="597.923" cy="344.601" r="4" fill="#0" id="circle128"/>
	<circle cx="608.567" cy="363.76" r="4" fill="#0" id="circle129"/>
	<circle cx="608.567" cy="704.361" r="4" fill="#0" id="circle130"/>
	<circle cx="612.824" cy="385.047" r="4" fill="#0" id="circle131"/>
	<circle cx="623.468" cy="404.206" r="4" fill="#0" id="circle132"/>
	<circle cx="623.468" cy="425.494" r="4" fill="#0" id="circle133"/>
	<circle cx="623.468" cy="446.781" r="4" fill="#0" id="circle134"/>
	<circle cx="623.468" cy="468.069" r="4" fill="#0" id="circle135"/>
	<circle cx="623.468" cy="489.356" r="4" fill="#0" id="circle136"/>
	<circle cx="623.468" cy="510.644" r="4" fill="#0" id="circle137"/>
	<circle cx="623.468" cy="531.931" r="4" fill="#0" id="circle138"/>
	<circle cx="629.854" cy="700.103" r="4" fill="#0" id="circle139"/>
	<circle cx="634.112" cy="551.09" r="4" fill="#0" id="circle140"/>
	<circle cx="644.755" cy="570.249" r="4" fill="#0" id="circle141"/>
	<circle cx="651.142" cy="689.459" r="4" fill="#0" id="circle142"/>
	<circle cx="666.043" cy="568.12" r="4" fill="#0" id="circle143"/>
	<circle cx="672.429" cy="678.815" r="4" fill="#0" id="circle144"/>
	<circle cx="683.073" cy="553.219" r="4" fill="#0" id="circle145"/>
	<circle cx="683.073" cy="657.528" r="4" fill="#0" id="circle146"/>
	<circle cx="693.717" cy="636.24" r="4" fill="#0" id="circle147"/>
	<circle cx="702.232" cy="542.575" r="4" fill="#0" id="circle148"/>
	<circle cx="704.361" cy="614.953" r="4" fill="#0" id="circle149"/>
	<circle cx="712.876" cy="521.288" r="4" fill="#0" id="circle150"/>
	<circle cx="719.262" cy="597.923" r="4" fill="#0" id="circle151"/>
	<circle cx="727.777" cy="495.742" r="4" fill="#0" id="circle152"/>
	<circle cx="738.421" cy="587.279" r="4" fill="#0" id="circle153"/>
	<circle cx="744.807" cy="478.712" r="4" fill="#0" id="circle154"/>
	<circle cx="755.451" cy="574.506" r="4" fill="#0" id="circle155"/>
	<circle cx="763.966" cy="468.069" r="4" fill="#0" id="circle156"/>
	<circle cx="770.352" cy="442.524" r="4" fill="#0" id="circle157"/>
	<circle cx="776.738" cy="563.863" r="4" fill="#0" id="circle158"/>
	<circle cx="780.996" cy="421.236" r="4" fill="#0" id="circle159"/>
	<circle cx="798.026" cy="404.206" r="4" fill="#0" id="circle160"/>
	<circle cx="798.026" cy="553.219" r="4" fill="#0" id="circle161"/>
	<circle cx="817.185" cy="393.562" r="4" fill="#0" id="circle162"/>
	<circle cx="819.313" cy="544.704" r="4" fill="#0" id="circle163"/>
	<circle cx="836.343" cy="404.206" r="4" fill="#0" id="circle164"/>
	<circle cx="840.601" cy="544.704" r="4" fill="#0" id="circle165"/>
	<circle cx="857.631" cy="410.592" r="4" fill="#0" id="circle166"/>
	<circle cx="861.888" cy="544.704" r="4" fill="#0" id="circle167"/>
	<circle cx="872.532" cy="427.622" r="4" fill="#0" id="circle168"/>
	<circle cx="883.176" cy="542.575" r="4" fill="#0" id="circle169"/>
	<circle cx="893.82" cy="436.137" r="4" fill="#0" id="circle170"/>
	<circle cx="904.464" cy="534.06" r="4" fill="#0" id="circle171"/>
	<circle cx="908.721" cy="453.167" r="4" fill="#0" id="circle172"/>
	<circle cx="925.751" cy="534.06" r="4" fill="#0" id="circle173"/>
	<circle cx="930.009" cy="461.682" r="4" fill="#0" id="circle174"/>
	<circle cx="947.039" cy="534.06" r="4" fill="#0" id="circle175"/>
	<circle cx="949.167" cy="472.326" r="4" fill="#0" id="circle176"/>
	<circle cx="968.326" cy="534.06" r="4" fill="#0" id="circle177"/>
	<circle cx="970.455" cy="470.197" r="4" fill="#0" id="circle178"/>
	<circle cx="981.099" cy="489.356" r="4" fill="#0" id="circle179"/>
	<circle cx="989.614" cy="531.931" r="4" fill="#0" id="circle180"/>
	<circle cx="996" cy="506.386" r="4" fill="#0" id="circle181"/>
	</g>
</svg>