<?xml version="1.0" encoding="UTF-8" standalone="no"?>
<!-- Created with CurveBenchmark -->
<svg
	xmlns:dc="http://purl.org/dc/elements/1.1/"
	xmlns:cc="http://creativecommons.org/ns#"
	xmlns:rdf="http://www.w3.org/1999/02/22-rdf-syntax-ns#"
	xmlns:svg="http://www.w3.org/2000/svg"
	xmlns="http://www.w3.org/2000/svg"
	xmlns:sodipodi="http://sodipodi.sourceforge.net/DTD/sodipodi-0.dtd"
	xmlns:inkscape="http://www.inkscape.org/namespaces/inkscape"
	width="1000"
	height="1000"
	id="svg2"
	version="1.1"
	sodipodi:docname="manifold/fitconnect-shoe-3.png.txt">
<defs
	id="defs4" />
<metadata
	id="metadata7">
	<rdf:RDF>
		<cc:Work
			rdf:about="">
			<dc:format>image/svg+xml</dc:format>
			<dc:type
				rdf:resource="http://purl.org/dc/dcmitype/StillImage" />
			<dc:title></dc:title>
		</cc:Work>
	</rdf:RDF>
</metadata>
<g
	inkscape:label="Layer 1"
	inkscape:groupmode="layer"
	id="layer1">
	<path style="fill:none;stroke:red;stroke-width:1px;stroke-linecap:butt;stroke-linejoin:miter;stroke-opacity:1" d="M 4,338.931 4,343.501 z" id="boundary" inkscape:connector-curvature="0" />
	<path style="fill:none;stroke:red;stroke-width:1px;stroke-linecap:butt;stroke-linejoin:miter;stroke-opacity:1" d="M 4,338.931 6.28466,334.362 z" id="boundary" inkscape:connector-curvature="0" />
	<path style="fill:none;stroke:red;stroke-width:1px;stroke-linecap:butt;stroke-linejoin:miter;stroke-opacity:1" d="M 4,343.501 4,348.07 z" id="boundary" inkscape:connector-curvature="0" />
	<path style="fill:none;stroke:red;stroke-width:1px;stroke-linecap:butt;stroke-linejoin:miter;stroke-opacity:1" d="M 4,348.07 4,352.639 z" id="boundary" inkscape:connector-curvature="0" />
	<path style="fill:none;stroke:red;stroke-width:1px;stroke-linecap:butt;stroke-linejoin:miter;stroke-opacity:1" d="M 4,352.639 4,357.209 z" id="boundary" inkscape:connector-curvature="0" />
	<path style="fill:none;stroke:red;stroke-width:1px;stroke-linecap:butt;stroke-linejoin:miter;stroke-opacity:1" d="M 4,357.209 4,361.778 z" id="boundary" inkscape:connector-curvature="0" />
	<path style="fill:none;stroke:red;stroke-width:1px;stroke-linecap:butt;stroke-linejoin:miter;stroke-opacity:1" d="M 4,361.778 4,366.347 z" id="boundary" inkscape:connector-curvature="0" />
	<path style="fill:none;stroke:red;stroke-width:1px;stroke-linecap:butt;stroke-linejoin:miter;stroke-opacity:1" d="M 4,366.347 4,370.917 z" id="boundary" inkscape:connector-curvature="0" />
	<path style="fill:none;stroke:red;stroke-width:1px;stroke-linecap:butt;stroke-linejoin:miter;stroke-opacity:1" d="M 4,370.917 4,375.486 z" id="boundary" inkscape:connector-curvature="0" />
	<path style="fill:none;stroke:red;stroke-width:1px;stroke-linecap:butt;stroke-linejoin:miter;stroke-opacity:1" d="M 4,375.486 6.28466,379.598 z" id="boundary" inkscape:connector-curvature="0" />
	<path style="fill:none;stroke:red;stroke-width:1px;stroke-linecap:butt;stroke-linejoin:miter;stroke-opacity:1" d="M 6.28466,329.793 6.28466,334.362 z" id="boundary" inkscape:connector-curvature="0" />
	<path style="fill:none;stroke:red;stroke-width:1px;stroke-linecap:butt;stroke-linejoin:miter;stroke-opacity:1" d="M 6.28466,329.793 8.56932,325.223 z" id="boundary" inkscape:connector-curvature="0" />
	<path style="fill:none;stroke:red;stroke-width:1px;stroke-linecap:butt;stroke-linejoin:miter;stroke-opacity:1" d="M 6.28466,379.598 6.28466,384.168 z" id="boundary" inkscape:connector-curvature="0" />
	<path style="fill:none;stroke:red;stroke-width:1px;stroke-linecap:butt;stroke-linejoin:miter;stroke-opacity:1" d="M 6.28466,384.168 6.28466,388.737 z" id="boundary" inkscape:connector-curvature="0" />
	<path style="fill:none;stroke:red;stroke-width:1px;stroke-linecap:butt;stroke-linejoin:miter;stroke-opacity:1" d="M 6.28466,388.737 8.56932,392.849 z" id="boundary" inkscape:connector-curvature="0" />
	<path style="fill:none;stroke:red;stroke-width:1px;stroke-linecap:butt;stroke-linejoin:miter;stroke-opacity:1" d="M 8.56932,320.654 8.56932,325.223 z" id="boundary" inkscape:connector-curvature="0" />
	<path style="fill:none;stroke:red;stroke-width:1px;stroke-linecap:butt;stroke-linejoin:miter;stroke-opacity:1" d="M 8.56932,320.654 10.854,313.8 z" id="boundary" inkscape:connector-curvature="0" />
	<path style="fill:none;stroke:red;stroke-width:1px;stroke-linecap:butt;stroke-linejoin:miter;stroke-opacity:1" d="M 8.56932,392.849 9.94012,397.419 z" id="boundary" inkscape:connector-curvature="0" />
	<path style="fill:none;stroke:red;stroke-width:1px;stroke-linecap:butt;stroke-linejoin:miter;stroke-opacity:1" d="M 9.94012,397.419 12.2248,401.531 z" id="boundary" inkscape:connector-curvature="0" />
	<path style="fill:none;stroke:red;stroke-width:1px;stroke-linecap:butt;stroke-linejoin:miter;stroke-opacity:1" d="M 10.854,313.8 13.1386,309.231 z" id="boundary" inkscape:connector-curvature="0" />
	<path style="fill:none;stroke:red;stroke-width:1px;stroke-linecap:butt;stroke-linejoin:miter;stroke-opacity:1" d="M 12.2248,401.531 14.0525,406.1 z" id="boundary" inkscape:connector-curvature="0" />
	<path style="fill:none;stroke:red;stroke-width:1px;stroke-linecap:butt;stroke-linejoin:miter;stroke-opacity:1" d="M 13.1386,309.231 15.4233,304.661 z" id="boundary" inkscape:connector-curvature="0" />
	<path style="fill:none;stroke:red;stroke-width:1px;stroke-linecap:butt;stroke-linejoin:miter;stroke-opacity:1" d="M 14.0525,406.1 17.708,408.842 z" id="boundary" inkscape:connector-curvature="0" />
	<path style="fill:none;stroke:red;stroke-width:1px;stroke-linecap:butt;stroke-linejoin:miter;stroke-opacity:1" d="M 15.4233,304.661 17.708,300.092 z" id="boundary" inkscape:connector-curvature="0" />
	<path style="fill:none;stroke:red;stroke-width:1px;stroke-linecap:butt;stroke-linejoin:miter;stroke-opacity:1" d="M 17.708,300.092 19.9926,295.523 z" id="boundary" inkscape:connector-curvature="0" />
	<path style="fill:none;stroke:red;stroke-width:1px;stroke-linecap:butt;stroke-linejoin:miter;stroke-opacity:1" d="M 17.708,408.842 19.0788,413.411 z" id="boundary" inkscape:connector-curvature="0" />
	<path style="fill:none;stroke:red;stroke-width:1px;stroke-linecap:butt;stroke-linejoin:miter;stroke-opacity:1" d="M 19.0788,413.411 21.3634,417.524 z" id="boundary" inkscape:connector-curvature="0" />
	<path style="fill:none;stroke:red;stroke-width:1px;stroke-linecap:butt;stroke-linejoin:miter;stroke-opacity:1" d="M 19.9926,295.523 23.6481,291.867 z" id="boundary" inkscape:connector-curvature="0" />
	<path style="fill:none;stroke:red;stroke-width:1px;stroke-linecap:butt;stroke-linejoin:miter;stroke-opacity:1" d="M 21.3634,417.524 24.562,421.179 z" id="boundary" inkscape:connector-curvature="0" />
	<path style="fill:none;stroke:red;stroke-width:1px;stroke-linecap:butt;stroke-linejoin:miter;stroke-opacity:1" d="M 23.6481,291.867 25.9327,287.298 z" id="boundary" inkscape:connector-curvature="0" />
	<path style="fill:none;stroke:red;stroke-width:1px;stroke-linecap:butt;stroke-linejoin:miter;stroke-opacity:1" d="M 24.562,421.179 28.2174,424.378 z" id="boundary" inkscape:connector-curvature="0" />
	<path style="fill:none;stroke:red;stroke-width:1px;stroke-linecap:butt;stroke-linejoin:miter;stroke-opacity:1" d="M 25.9327,287.298 29.5882,283.643 z" id="boundary" inkscape:connector-curvature="0" />
	<path style="fill:none;stroke:red;stroke-width:1px;stroke-linecap:butt;stroke-linejoin:miter;stroke-opacity:1" d="M 28.2174,424.378 31.4159,428.033 z" id="boundary" inkscape:connector-curvature="0" />
	<path style="fill:none;stroke:red;stroke-width:1px;stroke-linecap:butt;stroke-linejoin:miter;stroke-opacity:1" d="M 29.5882,283.643 34.1575,281.358 z" id="boundary" inkscape:connector-curvature="0" />
	<path style="fill:none;stroke:red;stroke-width:1px;stroke-linecap:butt;stroke-linejoin:miter;stroke-opacity:1" d="M 31.4159,428.033 35.0714,431.232 z" id="boundary" inkscape:connector-curvature="0" />
	<path style="fill:none;stroke:red;stroke-width:1px;stroke-linecap:butt;stroke-linejoin:miter;stroke-opacity:1" d="M 34.1575,281.358 37.813,278.159 z" id="boundary" inkscape:connector-curvature="0" />
	<path style="fill:none;stroke:red;stroke-width:1px;stroke-linecap:butt;stroke-linejoin:miter;stroke-opacity:1" d="M 35.0714,431.232 39.1838,433.516 z" id="boundary" inkscape:connector-curvature="0" />
	<path style="fill:none;stroke:red;stroke-width:1px;stroke-linecap:butt;stroke-linejoin:miter;stroke-opacity:1" d="M 37.813,278.159 41.0115,274.504 z" id="boundary" inkscape:connector-curvature="0" />
	<path style="fill:none;stroke:red;stroke-width:1px;stroke-linecap:butt;stroke-linejoin:miter;stroke-opacity:1" d="M 39.1838,433.516 42.8392,436.258 z" id="boundary" inkscape:connector-curvature="0" />
	<path style="fill:none;stroke:red;stroke-width:1px;stroke-linecap:butt;stroke-linejoin:miter;stroke-opacity:1" d="M 41.0115,274.504 44.667,271.305 z" id="boundary" inkscape:connector-curvature="0" />
	<path style="fill:none;stroke:red;stroke-width:1px;stroke-linecap:butt;stroke-linejoin:miter;stroke-opacity:1" d="M 42.8392,436.258 45.5808,439.913 z" id="boundary" inkscape:connector-curvature="0" />
	<path style="fill:none;stroke:red;stroke-width:1px;stroke-linecap:butt;stroke-linejoin:miter;stroke-opacity:1" d="M 44.667,271.305 48.7794,269.021 z" id="boundary" inkscape:connector-curvature="0" />
	<path style="fill:none;stroke:red;stroke-width:1px;stroke-linecap:butt;stroke-linejoin:miter;stroke-opacity:1" d="M 45.5808,439.913 50.1502,441.741 z" id="boundary" inkscape:connector-curvature="0" />
	<path style="fill:none;stroke:red;stroke-width:1px;stroke-linecap:butt;stroke-linejoin:miter;stroke-opacity:1" d="M 48.7794,269.021 52.4348,265.365 z" id="boundary" inkscape:connector-curvature="0" />
	<path style="fill:none;stroke:red;stroke-width:1px;stroke-linecap:butt;stroke-linejoin:miter;stroke-opacity:1" d="M 50.1502,441.741 54.2626,444.026 z" id="boundary" inkscape:connector-curvature="0" />
	<path style="fill:none;stroke:red;stroke-width:1px;stroke-linecap:butt;stroke-linejoin:miter;stroke-opacity:1" d="M 52.4348,265.365 56.0903,262.167 z" id="boundary" inkscape:connector-curvature="0" />
	<path style="fill:none;stroke:red;stroke-width:1px;stroke-linecap:butt;stroke-linejoin:miter;stroke-opacity:1" d="M 54.2626,444.026 57.918,447.224 z" id="boundary" inkscape:connector-curvature="0" />
	<path style="fill:none;stroke:red;stroke-width:1px;stroke-linecap:butt;stroke-linejoin:miter;stroke-opacity:1" d="M 56.0903,262.167 60.2027,259.882 z" id="boundary" inkscape:connector-curvature="0" />
	<path style="fill:none;stroke:red;stroke-width:1px;stroke-linecap:butt;stroke-linejoin:miter;stroke-opacity:1" d="M 57.918,447.224 62.0304,449.509 z" id="boundary" inkscape:connector-curvature="0" />
	<path style="fill:none;stroke:red;stroke-width:1px;stroke-linecap:butt;stroke-linejoin:miter;stroke-opacity:1" d="M 60.2027,259.882 63.8581,256.227 z" id="boundary" inkscape:connector-curvature="0" />
	<path style="fill:none;stroke:red;stroke-width:1px;stroke-linecap:butt;stroke-linejoin:miter;stroke-opacity:1" d="M 62.0304,449.509 66.5997,449.966 z" id="boundary" inkscape:connector-curvature="0" />
	<path style="fill:none;stroke:red;stroke-width:1px;stroke-linecap:butt;stroke-linejoin:miter;stroke-opacity:1" d="M 63.8581,256.227 68.4275,253.942 z" id="boundary" inkscape:connector-curvature="0" />
	<path style="fill:none;stroke:red;stroke-width:1px;stroke-linecap:butt;stroke-linejoin:miter;stroke-opacity:1" d="M 66.5997,449.966 70.2552,452.708 z" id="boundary" inkscape:connector-curvature="0" />
	<path style="fill:none;stroke:red;stroke-width:1px;stroke-linecap:butt;stroke-linejoin:miter;stroke-opacity:1" d="M 68.4275,253.942 72.9968,251.657 z" id="boundary" inkscape:connector-curvature="0" />
	<path style="fill:none;stroke:red;stroke-width:1px;stroke-linecap:butt;stroke-linejoin:miter;stroke-opacity:1" d="M 70.2552,452.708 73.4537,456.363 z" id="boundary" inkscape:connector-curvature="0" />
	<path style="fill:none;stroke:red;stroke-width:1px;stroke-linecap:butt;stroke-linejoin:miter;stroke-opacity:1" d="M 72.9968,251.657 77.5661,249.373 z" id="boundary" inkscape:connector-curvature="0" />
	<path style="fill:none;stroke:red;stroke-width:1px;stroke-linecap:butt;stroke-linejoin:miter;stroke-opacity:1" d="M 73.4537,456.363 78.023,456.82 z" id="boundary" inkscape:connector-curvature="0" />
	<path style="fill:none;stroke:red;stroke-width:1px;stroke-linecap:butt;stroke-linejoin:miter;stroke-opacity:1" d="M 77.5661,249.373 82.1354,247.088 z" id="boundary" inkscape:connector-curvature="0" />
	<path style="fill:none;stroke:red;stroke-width:1px;stroke-linecap:butt;stroke-linejoin:miter;stroke-opacity:1" d="M 78.023,456.82 82.1354,459.105 z" id="boundary" inkscape:connector-curvature="0" />
	<path style="fill:none;stroke:red;stroke-width:1px;stroke-linecap:butt;stroke-linejoin:miter;stroke-opacity:1" d="M 82.1354,247.088 86.7047,244.803 z" id="boundary" inkscape:connector-curvature="0" />
	<path style="fill:none;stroke:red;stroke-width:1px;stroke-linecap:butt;stroke-linejoin:miter;stroke-opacity:1" d="M 82.1354,459.105 86.7047,460.018 z" id="boundary" inkscape:connector-curvature="0" />
	<path style="fill:none;stroke:red;stroke-width:1px;stroke-linecap:butt;stroke-linejoin:miter;stroke-opacity:1" d="M 86.7047,244.803 91.2741,242.519 z" id="boundary" inkscape:connector-curvature="0" />
	<path style="fill:none;stroke:red;stroke-width:1px;stroke-linecap:butt;stroke-linejoin:miter;stroke-opacity:1" d="M 86.7047,460.018 90.8171,462.303 z" id="boundary" inkscape:connector-curvature="0" />
	<path style="fill:none;stroke:red;stroke-width:1px;stroke-linecap:butt;stroke-linejoin:miter;stroke-opacity:1" d="M 90.8171,462.303 95.3865,463.674 z" id="boundary" inkscape:connector-curvature="0" />
	<path style="fill:none;stroke:red;stroke-width:1px;stroke-linecap:butt;stroke-linejoin:miter;stroke-opacity:1" d="M 91.2741,242.519 95.8434,241.605 z" id="boundary" inkscape:connector-curvature="0" />
	<path style="fill:none;stroke:red;stroke-width:1px;stroke-linecap:butt;stroke-linejoin:miter;stroke-opacity:1" d="M 95.3865,463.674 99.4988,465.959 z" id="boundary" inkscape:connector-curvature="0" />
	<path style="fill:none;stroke:red;stroke-width:1px;stroke-linecap:butt;stroke-linejoin:miter;stroke-opacity:1" d="M 95.8434,241.605 99.9558,239.32 z" id="boundary" inkscape:connector-curvature="0" />
	<path style="fill:none;stroke:red;stroke-width:1px;stroke-linecap:butt;stroke-linejoin:miter;stroke-opacity:1" d="M 99.4988,465.959 104.068,465.959 z" id="boundary" inkscape:connector-curvature="0" />
	<path style="fill:none;stroke:red;stroke-width:1px;stroke-linecap:butt;stroke-linejoin:miter;stroke-opacity:1" d="M 99.9558,239.32 104.525,238.406 z" id="boundary" inkscape:connector-curvature="0" />
	<path style="fill:none;stroke:red;stroke-width:1px;stroke-linecap:butt;stroke-linejoin:miter;stroke-opacity:1" d="M 104.068,465.959 108.181,468.243 z" id="boundary" inkscape:connector-curvature="0" />
	<path style="fill:none;stroke:red;stroke-width:1px;stroke-linecap:butt;stroke-linejoin:miter;stroke-opacity:1" d="M 104.525,238.406 109.094,237.035 z" id="boundary" inkscape:connector-curvature="0" />
	<path style="fill:none;stroke:red;stroke-width:1px;stroke-linecap:butt;stroke-linejoin:miter;stroke-opacity:1" d="M 108.181,468.243 112.75,470.071 z" id="boundary" inkscape:connector-curvature="0" />
	<path style="fill:none;stroke:red;stroke-width:1px;stroke-linecap:butt;stroke-linejoin:miter;stroke-opacity:1" d="M 109.094,237.035 113.207,234.751 z" id="boundary" inkscape:connector-curvature="0" />
	<path style="fill:none;stroke:red;stroke-width:1px;stroke-linecap:butt;stroke-linejoin:miter;stroke-opacity:1" d="M 112.75,470.071 117.319,470.528 z" id="boundary" inkscape:connector-curvature="0" />
	<path style="fill:none;stroke:red;stroke-width:1px;stroke-linecap:butt;stroke-linejoin:miter;stroke-opacity:1" d="M 113.207,234.751 117.776,234.751 z" id="boundary" inkscape:connector-curvature="0" />
	<path style="fill:none;stroke:red;stroke-width:1px;stroke-linecap:butt;stroke-linejoin:miter;stroke-opacity:1" d="M 117.319,470.528 121.432,472.813 z" id="boundary" inkscape:connector-curvature="0" />
	<path style="fill:none;stroke:red;stroke-width:1px;stroke-linecap:butt;stroke-linejoin:miter;stroke-opacity:1" d="M 117.776,234.751 121.889,232.466 z" id="boundary" inkscape:connector-curvature="0" />
	<path style="fill:none;stroke:red;stroke-width:1px;stroke-linecap:butt;stroke-linejoin:miter;stroke-opacity:1" d="M 121.432,472.813 126.001,472.813 z" id="boundary" inkscape:connector-curvature="0" />
	<path style="fill:none;stroke:red;stroke-width:1px;stroke-linecap:butt;stroke-linejoin:miter;stroke-opacity:1" d="M 121.889,232.466 126.458,232.466 z" id="boundary" inkscape:connector-curvature="0" />
	<path style="fill:none;stroke:red;stroke-width:1px;stroke-linecap:butt;stroke-linejoin:miter;stroke-opacity:1" d="M 126.001,472.813 130.113,475.097 z" id="boundary" inkscape:connector-curvature="0" />
	<path style="fill:none;stroke:red;stroke-width:1px;stroke-linecap:butt;stroke-linejoin:miter;stroke-opacity:1" d="M 126.458,232.466 130.57,230.181 z" id="boundary" inkscape:connector-curvature="0" />
	<path style="fill:none;stroke:red;stroke-width:1px;stroke-linecap:butt;stroke-linejoin:miter;stroke-opacity:1" d="M 130.113,475.097 134.683,475.097 z" id="boundary" inkscape:connector-curvature="0" />
	<path style="fill:none;stroke:red;stroke-width:1px;stroke-linecap:butt;stroke-linejoin:miter;stroke-opacity:1" d="M 130.57,230.181 135.14,230.181 z" id="boundary" inkscape:connector-curvature="0" />
	<path style="fill:none;stroke:red;stroke-width:1px;stroke-linecap:butt;stroke-linejoin:miter;stroke-opacity:1" d="M 134.683,475.097 138.795,477.382 z" id="boundary" inkscape:connector-curvature="0" />
	<path style="fill:none;stroke:red;stroke-width:1px;stroke-linecap:butt;stroke-linejoin:miter;stroke-opacity:1" d="M 135.14,230.181 139.252,227.897 z" id="boundary" inkscape:connector-curvature="0" />
	<path style="fill:none;stroke:red;stroke-width:1px;stroke-linecap:butt;stroke-linejoin:miter;stroke-opacity:1" d="M 138.795,477.382 143.364,477.382 z" id="boundary" inkscape:connector-curvature="0" />
	<path style="fill:none;stroke:red;stroke-width:1px;stroke-linecap:butt;stroke-linejoin:miter;stroke-opacity:1" d="M 139.252,227.897 143.821,226.526 z" id="boundary" inkscape:connector-curvature="0" />
	<path style="fill:none;stroke:red;stroke-width:1px;stroke-linecap:butt;stroke-linejoin:miter;stroke-opacity:1" d="M 143.364,477.382 147.477,479.667 z" id="boundary" inkscape:connector-curvature="0" />
	<path style="fill:none;stroke:red;stroke-width:1px;stroke-linecap:butt;stroke-linejoin:miter;stroke-opacity:1" d="M 143.821,226.526 148.391,225.612 z" id="boundary" inkscape:connector-curvature="0" />
	<path style="fill:none;stroke:red;stroke-width:1px;stroke-linecap:butt;stroke-linejoin:miter;stroke-opacity:1" d="M 147.477,479.667 152.046,479.667 z" id="boundary" inkscape:connector-curvature="0" />
	<path style="fill:none;stroke:red;stroke-width:1px;stroke-linecap:butt;stroke-linejoin:miter;stroke-opacity:1" d="M 148.391,225.612 152.96,225.612 z" id="boundary" inkscape:connector-curvature="0" />
	<path style="fill:none;stroke:red;stroke-width:1px;stroke-linecap:butt;stroke-linejoin:miter;stroke-opacity:1" d="M 152.046,479.667 156.158,481.951 z" id="boundary" inkscape:connector-curvature="0" />
	<path style="fill:none;stroke:red;stroke-width:1px;stroke-linecap:butt;stroke-linejoin:miter;stroke-opacity:1" d="M 152.96,225.612 157.072,223.327 z" id="boundary" inkscape:connector-curvature="0" />
	<path style="fill:none;stroke:red;stroke-width:1px;stroke-linecap:butt;stroke-linejoin:miter;stroke-opacity:1" d="M 156.158,481.951 160.728,481.951 z" id="boundary" inkscape:connector-curvature="0" />
	<path style="fill:none;stroke:red;stroke-width:1px;stroke-linecap:butt;stroke-linejoin:miter;stroke-opacity:1" d="M 157.072,223.327 161.642,222.414 z" id="boundary" inkscape:connector-curvature="0" />
	<path style="fill:none;stroke:red;stroke-width:1px;stroke-linecap:butt;stroke-linejoin:miter;stroke-opacity:1" d="M 160.728,481.951 164.84,484.236 z" id="boundary" inkscape:connector-curvature="0" />
	<path style="fill:none;stroke:red;stroke-width:1px;stroke-linecap:butt;stroke-linejoin:miter;stroke-opacity:1" d="M 161.642,222.414 166.211,221.043 z" id="boundary" inkscape:connector-curvature="0" />
	<path style="fill:none;stroke:red;stroke-width:1px;stroke-linecap:butt;stroke-linejoin:miter;stroke-opacity:1" d="M 164.84,484.236 169.409,484.236 z" id="boundary" inkscape:connector-curvature="0" />
	<path style="fill:none;stroke:red;stroke-width:1px;stroke-linecap:butt;stroke-linejoin:miter;stroke-opacity:1" d="M 166.211,221.043 170.78,220.129 z" id="boundary" inkscape:connector-curvature="0" />
	<path style="fill:none;stroke:red;stroke-width:1px;stroke-linecap:butt;stroke-linejoin:miter;stroke-opacity:1" d="M 169.409,484.236 173.979,485.607 z" id="boundary" inkscape:connector-curvature="0" />
	<path style="fill:none;stroke:red;stroke-width:1px;stroke-linecap:butt;stroke-linejoin:miter;stroke-opacity:1" d="M 170.78,220.129 175.35,218.758 z" id="boundary" inkscape:connector-curvature="0" />
	<path style="fill:none;stroke:red;stroke-width:1px;stroke-linecap:butt;stroke-linejoin:miter;stroke-opacity:1" d="M 173.979,485.607 178.091,487.891 z" id="boundary" inkscape:connector-curvature="0" />
	<path style="fill:none;stroke:red;stroke-width:1px;stroke-linecap:butt;stroke-linejoin:miter;stroke-opacity:1" d="M 175.35,218.758 179.462,216.474 z" id="boundary" inkscape:connector-curvature="0" />
	<path style="fill:none;stroke:red;stroke-width:1px;stroke-linecap:butt;stroke-linejoin:miter;stroke-opacity:1" d="M 178.091,487.891 181.747,491.09 z" id="boundary" inkscape:connector-curvature="0" />
	<path style="fill:none;stroke:red;stroke-width:1px;stroke-linecap:butt;stroke-linejoin:miter;stroke-opacity:1" d="M 179.462,216.474 184.031,216.474 z" id="boundary" inkscape:connector-curvature="0" />
	<path style="fill:none;stroke:red;stroke-width:1px;stroke-linecap:butt;stroke-linejoin:miter;stroke-opacity:1" d="M 181.747,491.09 186.316,491.09 z" id="boundary" inkscape:connector-curvature="0" />
	<path style="fill:none;stroke:red;stroke-width:1px;stroke-linecap:butt;stroke-linejoin:miter;stroke-opacity:1" d="M 184.031,216.474 188.601,216.474 z" id="boundary" inkscape:connector-curvature="0" />
	<path style="fill:none;stroke:red;stroke-width:1px;stroke-linecap:butt;stroke-linejoin:miter;stroke-opacity:1" d="M 186.316,491.09 190.428,493.374 z" id="boundary" inkscape:connector-curvature="0" />
	<path style="fill:none;stroke:red;stroke-width:1px;stroke-linecap:butt;stroke-linejoin:miter;stroke-opacity:1" d="M 188.601,216.474 192.713,214.189 z" id="boundary" inkscape:connector-curvature="0" />
	<path style="fill:none;stroke:red;stroke-width:1px;stroke-linecap:butt;stroke-linejoin:miter;stroke-opacity:1" d="M 190.428,493.374 194.998,493.374 z" id="boundary" inkscape:connector-curvature="0" />
	<path style="fill:none;stroke:red;stroke-width:1px;stroke-linecap:butt;stroke-linejoin:miter;stroke-opacity:1" d="M 192.713,214.189 197.282,214.189 z" id="boundary" inkscape:connector-curvature="0" />
	<path style="fill:none;stroke:red;stroke-width:1px;stroke-linecap:butt;stroke-linejoin:miter;stroke-opacity:1" d="M 194.998,493.374 199.567,493.374 z" id="boundary" inkscape:connector-curvature="0" />
	<path style="fill:none;stroke:red;stroke-width:1px;stroke-linecap:butt;stroke-linejoin:miter;stroke-opacity:1" d="M 197.282,214.189 201.852,211.904 z" id="boundary" inkscape:connector-curvature="0" />
	<path style="fill:none;stroke:red;stroke-width:1px;stroke-linecap:butt;stroke-linejoin:miter;stroke-opacity:1" d="M 199.567,493.374 204.136,495.202 z" id="boundary" inkscape:connector-curvature="0" />
	<path style="fill:none;stroke:red;stroke-width:1px;stroke-linecap:butt;stroke-linejoin:miter;stroke-opacity:1" d="M 201.852,211.904 206.421,211.904 z" id="boundary" inkscape:connector-curvature="0" />
	<path style="fill:none;stroke:red;stroke-width:1px;stroke-linecap:butt;stroke-linejoin:miter;stroke-opacity:1" d="M 204.136,495.202 208.706,495.202 z" id="boundary" inkscape:connector-curvature="0" />
	<path style="fill:none;stroke:red;stroke-width:1px;stroke-linecap:butt;stroke-linejoin:miter;stroke-opacity:1" d="M 206.421,211.904 210.99,211.904 z" id="boundary" inkscape:connector-curvature="0" />
	<path style="fill:none;stroke:red;stroke-width:1px;stroke-linecap:butt;stroke-linejoin:miter;stroke-opacity:1" d="M 208.706,495.202 213.275,493.374 z" id="boundary" inkscape:connector-curvature="0" />
	<path style="fill:none;stroke:red;stroke-width:1px;stroke-linecap:butt;stroke-linejoin:miter;stroke-opacity:1" d="M 210.99,211.904 215.56,209.62 z" id="boundary" inkscape:connector-curvature="0" />
	<path style="fill:none;stroke:red;stroke-width:1px;stroke-linecap:butt;stroke-linejoin:miter;stroke-opacity:1" d="M 213.275,493.374 217.844,493.374 z" id="boundary" inkscape:connector-curvature="0" />
	<path style="fill:none;stroke:red;stroke-width:1px;stroke-linecap:butt;stroke-linejoin:miter;stroke-opacity:1" d="M 215.56,209.62 220.129,209.62 z" id="boundary" inkscape:connector-curvature="0" />
	<path style="fill:none;stroke:red;stroke-width:1px;stroke-linecap:butt;stroke-linejoin:miter;stroke-opacity:1" d="M 217.844,493.374 222.414,495.202 z" id="boundary" inkscape:connector-curvature="0" />
	<path style="fill:none;stroke:red;stroke-width:1px;stroke-linecap:butt;stroke-linejoin:miter;stroke-opacity:1" d="M 220.129,209.62 224.241,207.335 z" id="boundary" inkscape:connector-curvature="0" />
	<path style="fill:none;stroke:red;stroke-width:1px;stroke-linecap:butt;stroke-linejoin:miter;stroke-opacity:1" d="M 222.414,495.202 226.983,495.659 z" id="boundary" inkscape:connector-curvature="0" />
	<path style="fill:none;stroke:red;stroke-width:1px;stroke-linecap:butt;stroke-linejoin:miter;stroke-opacity:1" d="M 224.241,207.335 228.354,205.05 z" id="boundary" inkscape:connector-curvature="0" />
	<path style="fill:none;stroke:red;stroke-width:1px;stroke-linecap:butt;stroke-linejoin:miter;stroke-opacity:1" d="M 226.983,495.659 231.552,495.659 z" id="boundary" inkscape:connector-curvature="0" />
	<path style="fill:none;stroke:red;stroke-width:1px;stroke-linecap:butt;stroke-linejoin:miter;stroke-opacity:1" d="M 228.354,205.05 232.923,203.679 z" id="boundary" inkscape:connector-curvature="0" />
	<path style="fill:none;stroke:red;stroke-width:1px;stroke-linecap:butt;stroke-linejoin:miter;stroke-opacity:1" d="M 231.552,495.659 236.122,497.487 z" id="boundary" inkscape:connector-curvature="0" />
	<path style="fill:none;stroke:red;stroke-width:1px;stroke-linecap:butt;stroke-linejoin:miter;stroke-opacity:1" d="M 232.923,203.679 237.492,201.395 z" id="boundary" inkscape:connector-curvature="0" />
	<path style="fill:none;stroke:red;stroke-width:1px;stroke-linecap:butt;stroke-linejoin:miter;stroke-opacity:1" d="M 236.122,497.487 240.691,497.944 z" id="boundary" inkscape:connector-curvature="0" />
	<path style="fill:none;stroke:red;stroke-width:1px;stroke-linecap:butt;stroke-linejoin:miter;stroke-opacity:1" d="M 237.492,201.395 242.062,200.481 z" id="boundary" inkscape:connector-curvature="0" />
	<path style="fill:none;stroke:red;stroke-width:1px;stroke-linecap:butt;stroke-linejoin:miter;stroke-opacity:1" d="M 240.691,497.944 245.26,497.944 z" id="boundary" inkscape:connector-curvature="0" />
	<path style="fill:none;stroke:red;stroke-width:1px;stroke-linecap:butt;stroke-linejoin:miter;stroke-opacity:1" d="M 242.062,200.481 246.174,198.196 z" id="boundary" inkscape:connector-curvature="0" />
	<path style="fill:none;stroke:red;stroke-width:1px;stroke-linecap:butt;stroke-linejoin:miter;stroke-opacity:1" d="M 245.26,497.944 249.83,497.944 z" id="boundary" inkscape:connector-curvature="0" />
	<path style="fill:none;stroke:red;stroke-width:1px;stroke-linecap:butt;stroke-linejoin:miter;stroke-opacity:1" d="M 246.174,198.196 250.287,195.912 z" id="boundary" inkscape:connector-curvature="0" />
	<path style="fill:none;stroke:red;stroke-width:1px;stroke-linecap:butt;stroke-linejoin:miter;stroke-opacity:1" d="M 249.83,497.944 254.399,499.772 z" id="boundary" inkscape:connector-curvature="0" />
	<path style="fill:none;stroke:red;stroke-width:1px;stroke-linecap:butt;stroke-linejoin:miter;stroke-opacity:1" d="M 250.287,195.912 254.856,195.912 z" id="boundary" inkscape:connector-curvature="0" />
	<path style="fill:none;stroke:red;stroke-width:1px;stroke-linecap:butt;stroke-linejoin:miter;stroke-opacity:1" d="M 254.399,499.772 258.968,500.228 z" id="boundary" inkscape:connector-curvature="0" />
	<path style="fill:none;stroke:red;stroke-width:1px;stroke-linecap:butt;stroke-linejoin:miter;stroke-opacity:1" d="M 254.856,195.912 258.968,193.627 z" id="boundary" inkscape:connector-curvature="0" />
	<path style="fill:none;stroke:red;stroke-width:1px;stroke-linecap:butt;stroke-linejoin:miter;stroke-opacity:1" d="M 258.968,193.627 263.538,191.342 z" id="boundary" inkscape:connector-curvature="0" />
	<path style="fill:none;stroke:red;stroke-width:1px;stroke-linecap:butt;stroke-linejoin:miter;stroke-opacity:1" d="M 258.968,500.228 263.538,500.228 z" id="boundary" inkscape:connector-curvature="0" />
	<path style="fill:none;stroke:red;stroke-width:1px;stroke-linecap:butt;stroke-linejoin:miter;stroke-opacity:1" d="M 263.538,191.342 268.107,189.058 z" id="boundary" inkscape:connector-curvature="0" />
	<path style="fill:none;stroke:red;stroke-width:1px;stroke-linecap:butt;stroke-linejoin:miter;stroke-opacity:1" d="M 263.538,500.228 268.107,500.228 z" id="boundary" inkscape:connector-curvature="0" />
	<path style="fill:none;stroke:red;stroke-width:1px;stroke-linecap:butt;stroke-linejoin:miter;stroke-opacity:1" d="M 268.107,189.058 272.676,186.773 z" id="boundary" inkscape:connector-curvature="0" />
	<path style="fill:none;stroke:red;stroke-width:1px;stroke-linecap:butt;stroke-linejoin:miter;stroke-opacity:1" d="M 268.107,500.228 272.676,500.228 z" id="boundary" inkscape:connector-curvature="0" />
	<path style="fill:none;stroke:red;stroke-width:1px;stroke-linecap:butt;stroke-linejoin:miter;stroke-opacity:1" d="M 272.676,186.773 277.246,186.773 z" id="boundary" inkscape:connector-curvature="0" />
	<path style="fill:none;stroke:red;stroke-width:1px;stroke-linecap:butt;stroke-linejoin:miter;stroke-opacity:1" d="M 272.676,500.228 277.246,500.228 z" id="boundary" inkscape:connector-curvature="0" />
	<path style="fill:none;stroke:red;stroke-width:1px;stroke-linecap:butt;stroke-linejoin:miter;stroke-opacity:1" d="M 277.246,186.773 281.358,184.488 z" id="boundary" inkscape:connector-curvature="0" />
	<path style="fill:none;stroke:red;stroke-width:1px;stroke-linecap:butt;stroke-linejoin:miter;stroke-opacity:1" d="M 277.246,500.228 281.358,502.513 z" id="boundary" inkscape:connector-curvature="0" />
	<path style="fill:none;stroke:red;stroke-width:1px;stroke-linecap:butt;stroke-linejoin:miter;stroke-opacity:1" d="M 281.358,184.488 285.927,182.661 z" id="boundary" inkscape:connector-curvature="0" />
	<path style="fill:none;stroke:red;stroke-width:1px;stroke-linecap:butt;stroke-linejoin:miter;stroke-opacity:1" d="M 281.358,502.513 285.927,502.513 z" id="boundary" inkscape:connector-curvature="0" />
	<path style="fill:none;stroke:red;stroke-width:1px;stroke-linecap:butt;stroke-linejoin:miter;stroke-opacity:1" d="M 285.927,182.661 290.497,182.204 z" id="boundary" inkscape:connector-curvature="0" />
	<path style="fill:none;stroke:red;stroke-width:1px;stroke-linecap:butt;stroke-linejoin:miter;stroke-opacity:1" d="M 285.927,502.513 290.497,502.513 z" id="boundary" inkscape:connector-curvature="0" />
	<path style="fill:none;stroke:red;stroke-width:1px;stroke-linecap:butt;stroke-linejoin:miter;stroke-opacity:1" d="M 290.497,182.204 294.609,179.919 z" id="boundary" inkscape:connector-curvature="0" />
	<path style="fill:none;stroke:red;stroke-width:1px;stroke-linecap:butt;stroke-linejoin:miter;stroke-opacity:1" d="M 290.497,502.513 295.066,502.513 z" id="boundary" inkscape:connector-curvature="0" />
	<path style="fill:none;stroke:red;stroke-width:1px;stroke-linecap:butt;stroke-linejoin:miter;stroke-opacity:1" d="M 294.609,179.919 299.178,179.919 z" id="boundary" inkscape:connector-curvature="0" />
	<path style="fill:none;stroke:red;stroke-width:1px;stroke-linecap:butt;stroke-linejoin:miter;stroke-opacity:1" d="M 295.066,502.513 299.635,502.513 z" id="boundary" inkscape:connector-curvature="0" />
	<path style="fill:none;stroke:red;stroke-width:1px;stroke-linecap:butt;stroke-linejoin:miter;stroke-opacity:1" d="M 299.178,179.919 303.291,177.634 z" id="boundary" inkscape:connector-curvature="0" />
	<path style="fill:none;stroke:red;stroke-width:1px;stroke-linecap:butt;stroke-linejoin:miter;stroke-opacity:1" d="M 299.635,502.513 304.205,502.513 z" id="boundary" inkscape:connector-curvature="0" />
	<path style="fill:none;stroke:red;stroke-width:1px;stroke-linecap:butt;stroke-linejoin:miter;stroke-opacity:1" d="M 303.291,177.634 307.86,177.634 z" id="boundary" inkscape:connector-curvature="0" />
	<path style="fill:none;stroke:red;stroke-width:1px;stroke-linecap:butt;stroke-linejoin:miter;stroke-opacity:1" d="M 304.205,502.513 308.774,502.513 z" id="boundary" inkscape:connector-curvature="0" />
	<path style="fill:none;stroke:red;stroke-width:1px;stroke-linecap:butt;stroke-linejoin:miter;stroke-opacity:1" d="M 307.86,177.634 312.429,176.72 z" id="boundary" inkscape:connector-curvature="0" />
	<path style="fill:none;stroke:red;stroke-width:1px;stroke-linecap:butt;stroke-linejoin:miter;stroke-opacity:1" d="M 308.774,502.513 313.343,502.513 z" id="boundary" inkscape:connector-curvature="0" />
	<path style="fill:none;stroke:red;stroke-width:1px;stroke-linecap:butt;stroke-linejoin:miter;stroke-opacity:1" d="M 312.429,176.72 316.999,175.35 z" id="boundary" inkscape:connector-curvature="0" />
	<path style="fill:none;stroke:red;stroke-width:1px;stroke-linecap:butt;stroke-linejoin:miter;stroke-opacity:1" d="M 313.343,502.513 317.912,502.513 z" id="boundary" inkscape:connector-curvature="0" />
	<path style="fill:none;stroke:red;stroke-width:1px;stroke-linecap:butt;stroke-linejoin:miter;stroke-opacity:1" d="M 316.999,175.35 321.568,175.35 z" id="boundary" inkscape:connector-curvature="0" />
	<path style="fill:none;stroke:red;stroke-width:1px;stroke-linecap:butt;stroke-linejoin:miter;stroke-opacity:1" d="M 317.912,502.513 322.482,502.513 z" id="boundary" inkscape:connector-curvature="0" />
	<path style="fill:none;stroke:red;stroke-width:1px;stroke-linecap:butt;stroke-linejoin:miter;stroke-opacity:1" d="M 321.568,175.35 326.137,175.35 z" id="boundary" inkscape:connector-curvature="0" />
	<path style="fill:none;stroke:red;stroke-width:1px;stroke-linecap:butt;stroke-linejoin:miter;stroke-opacity:1" d="M 322.482,502.513 327.051,502.513 z" id="boundary" inkscape:connector-curvature="0" />
	<path style="fill:none;stroke:red;stroke-width:1px;stroke-linecap:butt;stroke-linejoin:miter;stroke-opacity:1" d="M 326.137,175.35 330.707,174.436 z" id="boundary" inkscape:connector-curvature="0" />
	<path style="fill:none;stroke:red;stroke-width:1px;stroke-linecap:butt;stroke-linejoin:miter;stroke-opacity:1" d="M 327.051,502.513 331.62,502.513 z" id="boundary" inkscape:connector-curvature="0" />
	<path style="fill:none;stroke:red;stroke-width:1px;stroke-linecap:butt;stroke-linejoin:miter;stroke-opacity:1" d="M 330.707,174.436 335.276,173.065 z" id="boundary" inkscape:connector-curvature="0" />
	<path style="fill:none;stroke:red;stroke-width:1px;stroke-linecap:butt;stroke-linejoin:miter;stroke-opacity:1" d="M 331.62,502.513 335.733,500.228 z" id="boundary" inkscape:connector-curvature="0" />
	<path style="fill:none;stroke:red;stroke-width:1px;stroke-linecap:butt;stroke-linejoin:miter;stroke-opacity:1" d="M 335.276,173.065 339.845,173.065 z" id="boundary" inkscape:connector-curvature="0" />
	<path style="fill:none;stroke:red;stroke-width:1px;stroke-linecap:butt;stroke-linejoin:miter;stroke-opacity:1" d="M 335.733,500.228 340.302,500.228 z" id="boundary" inkscape:connector-curvature="0" />
	<path style="fill:none;stroke:red;stroke-width:1px;stroke-linecap:butt;stroke-linejoin:miter;stroke-opacity:1" d="M 339.845,173.065 344.415,173.065 z" id="boundary" inkscape:connector-curvature="0" />
	<path style="fill:none;stroke:red;stroke-width:1px;stroke-linecap:butt;stroke-linejoin:miter;stroke-opacity:1" d="M 340.302,500.228 344.871,500.228 z" id="boundary" inkscape:connector-curvature="0" />
	<path style="fill:none;stroke:red;stroke-width:1px;stroke-linecap:butt;stroke-linejoin:miter;stroke-opacity:1" d="M 344.415,173.065 348.984,173.065 z" id="boundary" inkscape:connector-curvature="0" />
	<path style="fill:none;stroke:red;stroke-width:1px;stroke-linecap:butt;stroke-linejoin:miter;stroke-opacity:1" d="M 344.871,500.228 348.984,497.944 z" id="boundary" inkscape:connector-curvature="0" />
	<path style="fill:none;stroke:red;stroke-width:1px;stroke-linecap:butt;stroke-linejoin:miter;stroke-opacity:1" d="M 348.984,173.065 353.553,173.065 z" id="boundary" inkscape:connector-curvature="0" />
	<path style="fill:none;stroke:red;stroke-width:1px;stroke-linecap:butt;stroke-linejoin:miter;stroke-opacity:1" d="M 348.984,497.944 353.553,497.944 z" id="boundary" inkscape:connector-curvature="0" />
	<path style="fill:none;stroke:red;stroke-width:1px;stroke-linecap:butt;stroke-linejoin:miter;stroke-opacity:1" d="M 353.553,173.065 357.666,170.78 z" id="boundary" inkscape:connector-curvature="0" />
	<path style="fill:none;stroke:red;stroke-width:1px;stroke-linecap:butt;stroke-linejoin:miter;stroke-opacity:1" d="M 353.553,497.944 362.692,495.659 z" id="boundary" inkscape:connector-curvature="0" />
	<path style="fill:none;stroke:red;stroke-width:1px;stroke-linecap:butt;stroke-linejoin:miter;stroke-opacity:1" d="M 357.666,170.78 362.235,170.78 z" id="boundary" inkscape:connector-curvature="0" />
	<path style="fill:none;stroke:red;stroke-width:1px;stroke-linecap:butt;stroke-linejoin:miter;stroke-opacity:1" d="M 362.235,170.78 366.804,170.78 z" id="boundary" inkscape:connector-curvature="0" />
	<path style="fill:none;stroke:red;stroke-width:1px;stroke-linecap:butt;stroke-linejoin:miter;stroke-opacity:1" d="M 362.692,495.659 385.082,488.805 z" id="boundary" inkscape:connector-curvature="0" />
	<path style="fill:none;stroke:red;stroke-width:1px;stroke-linecap:butt;stroke-linejoin:miter;stroke-opacity:1" d="M 366.804,170.78 371.374,170.78 z" id="boundary" inkscape:connector-curvature="0" />
	<path style="fill:none;stroke:red;stroke-width:1px;stroke-linecap:butt;stroke-linejoin:miter;stroke-opacity:1" d="M 371.374,170.78 375.943,170.78 z" id="boundary" inkscape:connector-curvature="0" />
	<path style="fill:none;stroke:red;stroke-width:1px;stroke-linecap:butt;stroke-linejoin:miter;stroke-opacity:1" d="M 375.943,170.78 380.512,170.78 z" id="boundary" inkscape:connector-curvature="0" />
	<path style="fill:none;stroke:red;stroke-width:1px;stroke-linecap:butt;stroke-linejoin:miter;stroke-opacity:1" d="M 380.512,170.78 385.082,170.78 z" id="boundary" inkscape:connector-curvature="0" />
	<path style="fill:none;stroke:red;stroke-width:1px;stroke-linecap:butt;stroke-linejoin:miter;stroke-opacity:1" d="M 385.082,170.78 389.651,170.78 z" id="boundary" inkscape:connector-curvature="0" />
	<path style="fill:none;stroke:red;stroke-width:1px;stroke-linecap:butt;stroke-linejoin:miter;stroke-opacity:1" d="M 385.082,488.805 415.696,477.382 z" id="boundary" inkscape:connector-curvature="0" />
	<path style="fill:none;stroke:red;stroke-width:1px;stroke-linecap:butt;stroke-linejoin:miter;stroke-opacity:1" d="M 389.651,170.78 393.763,168.496 z" id="boundary" inkscape:connector-curvature="0" />
	<path style="fill:none;stroke:red;stroke-width:1px;stroke-linecap:butt;stroke-linejoin:miter;stroke-opacity:1" d="M 393.763,168.496 398.333,168.496 z" id="boundary" inkscape:connector-curvature="0" />
	<path style="fill:none;stroke:red;stroke-width:1px;stroke-linecap:butt;stroke-linejoin:miter;stroke-opacity:1" d="M 398.333,168.496 402.902,168.496 z" id="boundary" inkscape:connector-curvature="0" />
	<path style="fill:none;stroke:red;stroke-width:1px;stroke-linecap:butt;stroke-linejoin:miter;stroke-opacity:1" d="M 402.902,168.496 407.471,168.496 z" id="boundary" inkscape:connector-curvature="0" />
	<path style="fill:none;stroke:red;stroke-width:1px;stroke-linecap:butt;stroke-linejoin:miter;stroke-opacity:1" d="M 407.471,168.496 412.041,168.496 z" id="boundary" inkscape:connector-curvature="0" />
	<path style="fill:none;stroke:red;stroke-width:1px;stroke-linecap:butt;stroke-linejoin:miter;stroke-opacity:1" d="M 412.041,168.496 416.61,166.211 z" id="boundary" inkscape:connector-curvature="0" />
	<path style="fill:none;stroke:red;stroke-width:1px;stroke-linecap:butt;stroke-linejoin:miter;stroke-opacity:1" d="M 415.696,477.382 467.786,455.449 z" id="boundary" inkscape:connector-curvature="0" />
	<path style="fill:none;stroke:red;stroke-width:1px;stroke-linecap:butt;stroke-linejoin:miter;stroke-opacity:1" d="M 416.61,166.211 421.179,166.211 z" id="boundary" inkscape:connector-curvature="0" />
	<path style="fill:none;stroke:red;stroke-width:1px;stroke-linecap:butt;stroke-linejoin:miter;stroke-opacity:1" d="M 421.179,166.211 425.749,166.211 z" id="boundary" inkscape:connector-curvature="0" />
	<path style="fill:none;stroke:red;stroke-width:1px;stroke-linecap:butt;stroke-linejoin:miter;stroke-opacity:1" d="M 425.749,166.211 430.318,166.211 z" id="boundary" inkscape:connector-curvature="0" />
	<path style="fill:none;stroke:red;stroke-width:1px;stroke-linecap:butt;stroke-linejoin:miter;stroke-opacity:1" d="M 430.318,166.211 434.887,166.211 z" id="boundary" inkscape:connector-curvature="0" />
	<path style="fill:none;stroke:red;stroke-width:1px;stroke-linecap:butt;stroke-linejoin:miter;stroke-opacity:1" d="M 434.887,166.211 439.456,166.211 z" id="boundary" inkscape:connector-curvature="0" />
	<path style="fill:none;stroke:red;stroke-width:1px;stroke-linecap:butt;stroke-linejoin:miter;stroke-opacity:1" d="M 439.456,166.211 444.026,163.926 z" id="boundary" inkscape:connector-curvature="0" />
	<path style="fill:none;stroke:red;stroke-width:1px;stroke-linecap:butt;stroke-linejoin:miter;stroke-opacity:1" d="M 444.026,163.926 448.595,161.642 z" id="boundary" inkscape:connector-curvature="0" />
	<path style="fill:none;stroke:red;stroke-width:1px;stroke-linecap:butt;stroke-linejoin:miter;stroke-opacity:1" d="M 448.595,161.642 452.251,157.986 z" id="boundary" inkscape:connector-curvature="0" />
	<path style="fill:none;stroke:red;stroke-width:1px;stroke-linecap:butt;stroke-linejoin:miter;stroke-opacity:1" d="M 452.251,157.986 455.906,154.788 z" id="boundary" inkscape:connector-curvature="0" />
	<path style="fill:none;stroke:red;stroke-width:1px;stroke-linecap:butt;stroke-linejoin:miter;stroke-opacity:1" d="M 455.906,154.788 459.105,151.132 z" id="boundary" inkscape:connector-curvature="0" />
	<path style="fill:none;stroke:red;stroke-width:1px;stroke-linecap:butt;stroke-linejoin:miter;stroke-opacity:1" d="M 459.105,151.132 463.674,148.848 z" id="boundary" inkscape:connector-curvature="0" />
	<path style="fill:none;stroke:red;stroke-width:1px;stroke-linecap:butt;stroke-linejoin:miter;stroke-opacity:1" d="M 463.674,148.848 467.329,145.649 z" id="boundary" inkscape:connector-curvature="0" />
	<path style="fill:none;stroke:red;stroke-width:1px;stroke-linecap:butt;stroke-linejoin:miter;stroke-opacity:1" d="M 467.329,145.649 467.786,140.166 z" id="boundary" inkscape:connector-curvature="0" />
	<path style="fill:none;stroke:red;stroke-width:1px;stroke-linecap:butt;stroke-linejoin:miter;stroke-opacity:1" d="M 467.786,140.166 470.071,135.596 z" id="boundary" inkscape:connector-curvature="0" />
	<path style="fill:none;stroke:red;stroke-width:1px;stroke-linecap:butt;stroke-linejoin:miter;stroke-opacity:1" d="M 467.786,455.449 544.551,438.543 z" id="boundary" inkscape:connector-curvature="0" />
	<path style="fill:none;stroke:red;stroke-width:1px;stroke-linecap:butt;stroke-linejoin:miter;stroke-opacity:1" d="M 470.071,135.596 472.356,131.027 z" id="boundary" inkscape:connector-curvature="0" />
	<path style="fill:none;stroke:red;stroke-width:1px;stroke-linecap:butt;stroke-linejoin:miter;stroke-opacity:1" d="M 472.356,131.027 474.64,126.458 z" id="boundary" inkscape:connector-curvature="0" />
	<path style="fill:none;stroke:red;stroke-width:1px;stroke-linecap:butt;stroke-linejoin:miter;stroke-opacity:1" d="M 474.64,126.458 478.296,122.802 z" id="boundary" inkscape:connector-curvature="0" />
	<path style="fill:none;stroke:red;stroke-width:1px;stroke-linecap:butt;stroke-linejoin:miter;stroke-opacity:1" d="M 478.296,122.802 481.951,119.147 z" id="boundary" inkscape:connector-curvature="0" />
	<path style="fill:none;stroke:red;stroke-width:1px;stroke-linecap:butt;stroke-linejoin:miter;stroke-opacity:1" d="M 481.951,119.147 486.52,116.862 z" id="boundary" inkscape:connector-curvature="0" />
	<path style="fill:none;stroke:red;stroke-width:1px;stroke-linecap:butt;stroke-linejoin:miter;stroke-opacity:1" d="M 486.52,116.862 490.176,113.664 z" id="boundary" inkscape:connector-curvature="0" />
	<path style="fill:none;stroke:red;stroke-width:1px;stroke-linecap:butt;stroke-linejoin:miter;stroke-opacity:1" d="M 490.176,113.664 492.004,109.094 z" id="boundary" inkscape:connector-curvature="0" />
	<path style="fill:none;stroke:red;stroke-width:1px;stroke-linecap:butt;stroke-linejoin:miter;stroke-opacity:1" d="M 492.004,109.094 494.288,104.525 z" id="boundary" inkscape:connector-curvature="0" />
	<path style="fill:none;stroke:red;stroke-width:1px;stroke-linecap:butt;stroke-linejoin:miter;stroke-opacity:1" d="M 494.288,104.525 496.573,99.9558 z" id="boundary" inkscape:connector-curvature="0" />
	<path style="fill:none;stroke:red;stroke-width:1px;stroke-linecap:butt;stroke-linejoin:miter;stroke-opacity:1" d="M 496.573,99.9558 500.228,96.3003 z" id="boundary" inkscape:connector-curvature="0" />
	<path style="fill:none;stroke:red;stroke-width:1px;stroke-linecap:butt;stroke-linejoin:miter;stroke-opacity:1" d="M 500.228,96.3003 504.798,95.3865 z" id="boundary" inkscape:connector-curvature="0" />
	<path style="fill:none;stroke:red;stroke-width:1px;stroke-linecap:butt;stroke-linejoin:miter;stroke-opacity:1" d="M 504.798,95.3865 509.367,95.3865 z" id="boundary" inkscape:connector-curvature="0" />
	<path style="fill:none;stroke:red;stroke-width:1px;stroke-linecap:butt;stroke-linejoin:miter;stroke-opacity:1" d="M 509.367,95.3865 513.48,92.1879 z" id="boundary" inkscape:connector-curvature="0" />
	<path style="fill:none;stroke:red;stroke-width:1px;stroke-linecap:butt;stroke-linejoin:miter;stroke-opacity:1" d="M 513.48,92.1879 517.135,88.5325 z" id="boundary" inkscape:connector-curvature="0" />
	<path style="fill:none;stroke:red;stroke-width:1px;stroke-linecap:butt;stroke-linejoin:miter;stroke-opacity:1" d="M 517.135,88.5325 520.333,83.0493 z" id="boundary" inkscape:connector-curvature="0" />
	<path style="fill:none;stroke:red;stroke-width:1px;stroke-linecap:butt;stroke-linejoin:miter;stroke-opacity:1" d="M 520.333,83.0493 523.989,79.3938 z" id="boundary" inkscape:connector-curvature="0" />
	<path style="fill:none;stroke:red;stroke-width:1px;stroke-linecap:butt;stroke-linejoin:miter;stroke-opacity:1" d="M 523.989,79.3938 527.644,75.7384 z" id="boundary" inkscape:connector-curvature="0" />
	<path style="fill:none;stroke:red;stroke-width:1px;stroke-linecap:butt;stroke-linejoin:miter;stroke-opacity:1" d="M 527.644,75.7384 531.3,72.5398 z" id="boundary" inkscape:connector-curvature="0" />
	<path style="fill:none;stroke:red;stroke-width:1px;stroke-linecap:butt;stroke-linejoin:miter;stroke-opacity:1" d="M 531.3,72.5398 535.412,70.2552 z" id="boundary" inkscape:connector-curvature="0" />
	<path style="fill:none;stroke:red;stroke-width:1px;stroke-linecap:butt;stroke-linejoin:miter;stroke-opacity:1" d="M 535.412,70.2552 539.068,66.5997 z" id="boundary" inkscape:connector-curvature="0" />
	<path style="fill:none;stroke:red;stroke-width:1px;stroke-linecap:butt;stroke-linejoin:miter;stroke-opacity:1" d="M 539.068,66.5997 543.637,64.3151 z" id="boundary" inkscape:connector-curvature="0" />
	<path style="fill:none;stroke:red;stroke-width:1px;stroke-linecap:butt;stroke-linejoin:miter;stroke-opacity:1" d="M 543.637,64.3151 548.206,62.0304 z" id="boundary" inkscape:connector-curvature="0" />
	<path style="fill:none;stroke:red;stroke-width:1px;stroke-linecap:butt;stroke-linejoin:miter;stroke-opacity:1" d="M 544.551,438.543 672.035,462.76 z" id="boundary" inkscape:connector-curvature="0" />
	<path style="fill:none;stroke:red;stroke-width:1px;stroke-linecap:butt;stroke-linejoin:miter;stroke-opacity:1" d="M 548.206,62.0304 551.862,58.8319 z" id="boundary" inkscape:connector-curvature="0" />
	<path style="fill:none;stroke:red;stroke-width:1px;stroke-linecap:butt;stroke-linejoin:miter;stroke-opacity:1" d="M 551.862,58.8319 555.974,56.5472 z" id="boundary" inkscape:connector-curvature="0" />
	<path style="fill:none;stroke:red;stroke-width:1px;stroke-linecap:butt;stroke-linejoin:miter;stroke-opacity:1" d="M 555.974,56.5472 560.544,54.2626 z" id="boundary" inkscape:connector-curvature="0" />
	<path style="fill:none;stroke:red;stroke-width:1px;stroke-linecap:butt;stroke-linejoin:miter;stroke-opacity:1" d="M 560.544,54.2626 564.199,50.6071 z" id="boundary" inkscape:connector-curvature="0" />
	<path style="fill:none;stroke:red;stroke-width:1px;stroke-linecap:butt;stroke-linejoin:miter;stroke-opacity:1" d="M 564.199,50.6071 567.854,47.4086 z" id="boundary" inkscape:connector-curvature="0" />
	<path style="fill:none;stroke:red;stroke-width:1px;stroke-linecap:butt;stroke-linejoin:miter;stroke-opacity:1" d="M 567.854,47.4086 571.053,43.7531 z" id="boundary" inkscape:connector-curvature="0" />
	<path style="fill:none;stroke:red;stroke-width:1px;stroke-linecap:butt;stroke-linejoin:miter;stroke-opacity:1" d="M 571.053,43.7531 574.708,40.5546 z" id="boundary" inkscape:connector-curvature="0" />
	<path style="fill:none;stroke:red;stroke-width:1px;stroke-linecap:butt;stroke-linejoin:miter;stroke-opacity:1" d="M 574.708,40.5546 578.821,38.2699 z" id="boundary" inkscape:connector-curvature="0" />
	<path style="fill:none;stroke:red;stroke-width:1px;stroke-linecap:butt;stroke-linejoin:miter;stroke-opacity:1" d="M 578.821,38.2699 582.476,34.6145 z" id="boundary" inkscape:connector-curvature="0" />
	<path style="fill:none;stroke:red;stroke-width:1px;stroke-linecap:butt;stroke-linejoin:miter;stroke-opacity:1" d="M 582.476,34.6145 587.046,32.3298 z" id="boundary" inkscape:connector-curvature="0" />
	<path style="fill:none;stroke:red;stroke-width:1px;stroke-linecap:butt;stroke-linejoin:miter;stroke-opacity:1" d="M 587.046,32.3298 590.701,29.1313 z" id="boundary" inkscape:connector-curvature="0" />
	<path style="fill:none;stroke:red;stroke-width:1px;stroke-linecap:butt;stroke-linejoin:miter;stroke-opacity:1" d="M 590.701,29.1313 594.813,26.8466 z" id="boundary" inkscape:connector-curvature="0" />
	<path style="fill:none;stroke:red;stroke-width:1px;stroke-linecap:butt;stroke-linejoin:miter;stroke-opacity:1" d="M 594.813,26.8466 599.383,24.562 z" id="boundary" inkscape:connector-curvature="0" />
	<path style="fill:none;stroke:red;stroke-width:1px;stroke-linecap:butt;stroke-linejoin:miter;stroke-opacity:1" d="M 599.383,24.562 603.952,22.2773 z" id="boundary" inkscape:connector-curvature="0" />
	<path style="fill:none;stroke:red;stroke-width:1px;stroke-linecap:butt;stroke-linejoin:miter;stroke-opacity:1" d="M 603.952,22.2773 608.521,19.9926 z" id="boundary" inkscape:connector-curvature="0" />
	<path style="fill:none;stroke:red;stroke-width:1px;stroke-linecap:butt;stroke-linejoin:miter;stroke-opacity:1" d="M 608.521,19.9926 613.091,19.9926 z" id="boundary" inkscape:connector-curvature="0" />
	<path style="fill:none;stroke:red;stroke-width:1px;stroke-linecap:butt;stroke-linejoin:miter;stroke-opacity:1" d="M 613.091,19.9926 617.203,17.708 z" id="boundary" inkscape:connector-curvature="0" />
	<path style="fill:none;stroke:red;stroke-width:1px;stroke-linecap:butt;stroke-linejoin:miter;stroke-opacity:1" d="M 617.203,17.708 621.772,15.8802 z" id="boundary" inkscape:connector-curvature="0" />
	<path style="fill:none;stroke:red;stroke-width:1px;stroke-linecap:butt;stroke-linejoin:miter;stroke-opacity:1" d="M 621.772,15.8802 626.342,13.5956 z" id="boundary" inkscape:connector-curvature="0" />
	<path style="fill:none;stroke:red;stroke-width:1px;stroke-linecap:butt;stroke-linejoin:miter;stroke-opacity:1" d="M 626.342,13.5956 630.911,13.1386 z" id="boundary" inkscape:connector-curvature="0" />
	<path style="fill:none;stroke:red;stroke-width:1px;stroke-linecap:butt;stroke-linejoin:miter;stroke-opacity:1" d="M 630.911,13.1386 635.48,11.3109 z" id="boundary" inkscape:connector-curvature="0" />
	<path style="fill:none;stroke:red;stroke-width:1px;stroke-linecap:butt;stroke-linejoin:miter;stroke-opacity:1" d="M 635.48,11.3109 640.05,10.854 z" id="boundary" inkscape:connector-curvature="0" />
	<path style="fill:none;stroke:red;stroke-width:1px;stroke-linecap:butt;stroke-linejoin:miter;stroke-opacity:1" d="M 640.05,10.854 644.619,9.02626 z" id="boundary" inkscape:connector-curvature="0" />
	<path style="fill:none;stroke:red;stroke-width:1px;stroke-linecap:butt;stroke-linejoin:miter;stroke-opacity:1" d="M 644.619,9.02626 649.188,8.56932 z" id="boundary" inkscape:connector-curvature="0" />
	<path style="fill:none;stroke:red;stroke-width:1px;stroke-linecap:butt;stroke-linejoin:miter;stroke-opacity:1" d="M 649.188,8.56932 653.758,8.56932 z" id="boundary" inkscape:connector-curvature="0" />
	<path style="fill:none;stroke:red;stroke-width:1px;stroke-linecap:butt;stroke-linejoin:miter;stroke-opacity:1" d="M 653.758,8.56932 657.87,6.28466 z" id="boundary" inkscape:connector-curvature="0" />
	<path style="fill:none;stroke:red;stroke-width:1px;stroke-linecap:butt;stroke-linejoin:miter;stroke-opacity:1" d="M 657.87,6.28466 662.439,6.28466 z" id="boundary" inkscape:connector-curvature="0" />
	<path style="fill:none;stroke:red;stroke-width:1px;stroke-linecap:butt;stroke-linejoin:miter;stroke-opacity:1" d="M 662.439,6.28466 667.009,6.28466 z" id="boundary" inkscape:connector-curvature="0" />
	<path style="fill:none;stroke:red;stroke-width:1px;stroke-linecap:butt;stroke-linejoin:miter;stroke-opacity:1" d="M 667.009,6.28466 671.578,6.28466 z" id="boundary" inkscape:connector-curvature="0" />
	<path style="fill:none;stroke:red;stroke-width:1px;stroke-linecap:butt;stroke-linejoin:miter;stroke-opacity:1" d="M 671.578,6.28466 675.69,4 z" id="boundary" inkscape:connector-curvature="0" />
	<path style="fill:none;stroke:red;stroke-width:1px;stroke-linecap:butt;stroke-linejoin:miter;stroke-opacity:1" d="M 672.035,462.76 833.332,590.244 z" id="boundary" inkscape:connector-curvature="0" />
	<path style="fill:none;stroke:red;stroke-width:1px;stroke-linecap:butt;stroke-linejoin:miter;stroke-opacity:1" d="M 675.69,4 680.26,4 z" id="boundary" inkscape:connector-curvature="0" />
	<path style="fill:none;stroke:red;stroke-width:1px;stroke-linecap:butt;stroke-linejoin:miter;stroke-opacity:1" d="M 680.26,4 684.829,4 z" id="boundary" inkscape:connector-curvature="0" />
	<path style="fill:none;stroke:red;stroke-width:1px;stroke-linecap:butt;stroke-linejoin:miter;stroke-opacity:1" d="M 684.829,4 689.398,4 z" id="boundary" inkscape:connector-curvature="0" />
	<path style="fill:none;stroke:red;stroke-width:1px;stroke-linecap:butt;stroke-linejoin:miter;stroke-opacity:1" d="M 689.398,4 693.968,4 z" id="boundary" inkscape:connector-curvature="0" />
	<path style="fill:none;stroke:red;stroke-width:1px;stroke-linecap:butt;stroke-linejoin:miter;stroke-opacity:1" d="M 693.968,4 698.537,4 z" id="boundary" inkscape:connector-curvature="0" />
	<path style="fill:none;stroke:red;stroke-width:1px;stroke-linecap:butt;stroke-linejoin:miter;stroke-opacity:1" d="M 698.537,4 703.106,4 z" id="boundary" inkscape:connector-curvature="0" />
	<path style="fill:none;stroke:red;stroke-width:1px;stroke-linecap:butt;stroke-linejoin:miter;stroke-opacity:1" d="M 703.106,4 707.676,4 z" id="boundary" inkscape:connector-curvature="0" />
	<path style="fill:none;stroke:red;stroke-width:1px;stroke-linecap:butt;stroke-linejoin:miter;stroke-opacity:1" d="M 707.676,4 712.245,4 z" id="boundary" inkscape:connector-curvature="0" />
	<path style="fill:none;stroke:red;stroke-width:1px;stroke-linecap:butt;stroke-linejoin:miter;stroke-opacity:1" d="M 712.245,4 716.814,4 z" id="boundary" inkscape:connector-curvature="0" />
	<path style="fill:none;stroke:red;stroke-width:1px;stroke-linecap:butt;stroke-linejoin:miter;stroke-opacity:1" d="M 716.814,4 721.384,4 z" id="boundary" inkscape:connector-curvature="0" />
	<path style="fill:none;stroke:red;stroke-width:1px;stroke-linecap:butt;stroke-linejoin:miter;stroke-opacity:1" d="M 721.384,4 725.953,4 z" id="boundary" inkscape:connector-curvature="0" />
	<path style="fill:none;stroke:red;stroke-width:1px;stroke-linecap:butt;stroke-linejoin:miter;stroke-opacity:1" d="M 725.953,4 730.522,4 z" id="boundary" inkscape:connector-curvature="0" />
	<path style="fill:none;stroke:red;stroke-width:1px;stroke-linecap:butt;stroke-linejoin:miter;stroke-opacity:1" d="M 730.522,4 735.092,4 z" id="boundary" inkscape:connector-curvature="0" />
	<path style="fill:none;stroke:red;stroke-width:1px;stroke-linecap:butt;stroke-linejoin:miter;stroke-opacity:1" d="M 735.092,4 739.204,6.28466 z" id="boundary" inkscape:connector-curvature="0" />
	<path style="fill:none;stroke:red;stroke-width:1px;stroke-linecap:butt;stroke-linejoin:miter;stroke-opacity:1" d="M 739.204,6.28466 743.773,6.28466 z" id="boundary" inkscape:connector-curvature="0" />
	<path style="fill:none;stroke:red;stroke-width:1px;stroke-linecap:butt;stroke-linejoin:miter;stroke-opacity:1" d="M 743.773,6.28466 748.343,6.28466 z" id="boundary" inkscape:connector-curvature="0" />
	<path style="fill:none;stroke:red;stroke-width:1px;stroke-linecap:butt;stroke-linejoin:miter;stroke-opacity:1" d="M 748.343,6.28466 752.912,6.74159 z" id="boundary" inkscape:connector-curvature="0" />
	<path style="fill:none;stroke:red;stroke-width:1px;stroke-linecap:butt;stroke-linejoin:miter;stroke-opacity:1" d="M 752.912,6.74159 757.481,8.56932 z" id="boundary" inkscape:connector-curvature="0" />
	<path style="fill:none;stroke:red;stroke-width:1px;stroke-linecap:butt;stroke-linejoin:miter;stroke-opacity:1" d="M 757.481,8.56932 766.62,8.56932 z" id="boundary" inkscape:connector-curvature="0" />
	<path style="fill:none;stroke:red;stroke-width:1px;stroke-linecap:butt;stroke-linejoin:miter;stroke-opacity:1" d="M 766.62,8.56932 770.732,10.854 z" id="boundary" inkscape:connector-curvature="0" />
	<path style="fill:none;stroke:red;stroke-width:1px;stroke-linecap:butt;stroke-linejoin:miter;stroke-opacity:1" d="M 770.732,10.854 783.983,13.1386 z" id="boundary" inkscape:connector-curvature="0" />
	<path style="fill:none;stroke:red;stroke-width:1px;stroke-linecap:butt;stroke-linejoin:miter;stroke-opacity:1" d="M 783.983,13.1386 801.804,17.708 z" id="boundary" inkscape:connector-curvature="0" />
	<path style="fill:none;stroke:red;stroke-width:1px;stroke-linecap:butt;stroke-linejoin:miter;stroke-opacity:1" d="M 801.804,17.708 832.875,26.8466 z" id="boundary" inkscape:connector-curvature="0" />
	<path style="fill:none;stroke:red;stroke-width:1px;stroke-linecap:butt;stroke-linejoin:miter;stroke-opacity:1" d="M 832.875,26.8466 900.958,56.5472 z" id="boundary" inkscape:connector-curvature="0" />
	<path style="fill:none;stroke:red;stroke-width:1px;stroke-linecap:butt;stroke-linejoin:miter;stroke-opacity:1" d="M 833.332,590.244 948.022,351.725 z" id="boundary" inkscape:connector-curvature="0" />
	<path style="fill:none;stroke:red;stroke-width:1px;stroke-linecap:butt;stroke-linejoin:miter;stroke-opacity:1" d="M 900.958,56.5472 989.146,137.424 z" id="boundary" inkscape:connector-curvature="0" />
	<path style="fill:none;stroke:red;stroke-width:1px;stroke-linecap:butt;stroke-linejoin:miter;stroke-opacity:1" d="M 948.022,351.725 989.146,137.424 z" id="boundary" inkscape:connector-curvature="0" />
	<circle cx="4" cy="338.931" r="4" fill="#0" id="circle0"/>
	<circle cx="4" cy="343.501" r="4" fill="#0" id="circle1"/>
	<circle cx="4" cy="348.07" r="4" fill="#0" id="circle2"/>
	<circle cx="4" cy="352.639" r="4" fill="#0" id="circle3"/>
	<circle cx="4" cy="357.209" r="4" fill="#0" id="circle4"/>
	<circle cx="4" cy="361.778" r="4" fill="#0" id="circle5"/>
	<circle cx="4" cy="366.347" r="4" fill="#0" id="circle6"/>
	<circle cx="4" cy="370.917" r="4" fill="#0" id="circle7"/>
	<circle cx="4" cy="375.486" r="4" fill="#0" id="circle8"/>
	<circle cx="6.28466" cy="329.793" r="4" fill="#0" id="circle9"/>
	<circle cx="6.28466" cy="334.362" r="4" fill="#0" id="circle10"/>
	<circle cx="6.28466" cy="379.598" r="4" fill="#0" id="circle11"/>
	<circle cx="6.28466" cy="384.168" r="4" fill="#0" id="circle12"/>
	<circle cx="6.28466" cy="388.737" r="4" fill="#0" id="circle13"/>
	<circle cx="8.56932" cy="320.654" r="4" fill="#0" id="circle14"/>
	<circle cx="8.56932" cy="325.223" r="4" fill="#0" id="circle15"/>
	<circle cx="8.56932" cy="392.849" r="4" fill="#0" id="circle16"/>
	<circle cx="9.94012" cy="397.419" r="4" fill="#0" id="circle17"/>
	<circle cx="10.854" cy="313.8" r="4" fill="#0" id="circle18"/>
	<circle cx="12.2248" cy="401.531" r="4" fill="#0" id="circle19"/>
	<circle cx="13.1386" cy="309.231" r="4" fill="#0" id="circle20"/>
	<circle cx="14.0525" cy="406.1" r="4" fill="#0" id="circle21"/>
	<circle cx="15.4233" cy="304.661" r="4" fill="#0" id="circle22"/>
	<circle cx="17.708" cy="300.092" r="4" fill="#0" id="circle23"/>
	<circle cx="17.708" cy="408.842" r="4" fill="#0" id="circle24"/>
	<circle cx="19.0788" cy="413.411" r="4" fill="#0" id="circle25"/>
	<circle cx="19.9926" cy="295.523" r="4" fill="#0" id="circle26"/>
	<circle cx="21.3634" cy="417.524" r="4" fill="#0" id="circle27"/>
	<circle cx="23.6481" cy="291.867" r="4" fill="#0" id="circle28"/>
	<circle cx="24.562" cy="421.179" r="4" fill="#0" id="circle29"/>
	<circle cx="25.9327" cy="287.298" r="4" fill="#0" id="circle30"/>
	<circle cx="28.2174" cy="424.378" r="4" fill="#0" id="circle31"/>
	<circle cx="29.5882" cy="283.643" r="4" fill="#0" id="circle32"/>
	<circle cx="31.4159" cy="428.033" r="4" fill="#0" id="circle33"/>
	<circle cx="34.1575" cy="281.358" r="4" fill="#0" id="circle34"/>
	<circle cx="35.0714" cy="431.232" r="4" fill="#0" id="circle35"/>
	<circle cx="37.813" cy="278.159" r="4" fill="#0" id="circle36"/>
	<circle cx="39.1838" cy="433.516" r="4" fill="#0" id="circle37"/>
	<circle cx="41.0115" cy="274.504" r="4" fill="#0" id="circle38"/>
	<circle cx="42.8392" cy="436.258" r="4" fill="#0" id="circle39"/>
	<circle cx="44.667" cy="271.305" r="4" fill="#0" id="circle40"/>
	<circle cx="45.5808" cy="439.913" r="4" fill="#0" id="circle41"/>
	<circle cx="48.7794" cy="269.021" r="4" fill="#0" id="circle42"/>
	<circle cx="50.1502" cy="441.741" r="4" fill="#0" id="circle43"/>
	<circle cx="52.4348" cy="265.365" r="4" fill="#0" id="circle44"/>
	<circle cx="54.2626" cy="444.026" r="4" fill="#0" id="circle45"/>
	<circle cx="56.0903" cy="262.167" r="4" fill="#0" id="circle46"/>
	<circle cx="57.918" cy="447.224" r="4" fill="#0" id="circle47"/>
	<circle cx="60.2027" cy="259.882" r="4" fill="#0" id="circle48"/>
	<circle cx="62.0304" cy="449.509" r="4" fill="#0" id="circle49"/>
	<circle cx="63.8581" cy="256.227" r="4" fill="#0" id="circle50"/>
	<circle cx="66.5997" cy="449.966" r="4" fill="#0" id="circle51"/>
	<circle cx="68.4275" cy="253.942" r="4" fill="#0" id="circle52"/>
	<circle cx="70.2552" cy="452.708" r="4" fill="#0" id="circle53"/>
	<circle cx="72.9968" cy="251.657" r="4" fill="#0" id="circle54"/>
	<circle cx="73.4537" cy="456.363" r="4" fill="#0" id="circle55"/>
	<circle cx="77.5661" cy="249.373" r="4" fill="#0" id="circle56"/>
	<circle cx="78.023" cy="456.82" r="4" fill="#0" id="circle57"/>
	<circle cx="82.1354" cy="247.088" r="4" fill="#0" id="circle58"/>
	<circle cx="82.1354" cy="459.105" r="4" fill="#0" id="circle59"/>
	<circle cx="86.7047" cy="244.803" r="4" fill="#0" id="circle60"/>
	<circle cx="86.7047" cy="460.018" r="4" fill="#0" id="circle61"/>
	<circle cx="90.8171" cy="462.303" r="4" fill="#0" id="circle62"/>
	<circle cx="91.2741" cy="242.519" r="4" fill="#0" id="circle63"/>
	<circle cx="95.3865" cy="463.674" r="4" fill="#0" id="circle64"/>
	<circle cx="95.8434" cy="241.605" r="4" fill="#0" id="circle65"/>
	<circle cx="99.4988" cy="465.959" r="4" fill="#0" id="circle66"/>
	<circle cx="99.9558" cy="239.32" r="4" fill="#0" id="circle67"/>
	<circle cx="104.068" cy="465.959" r="4" fill="#0" id="circle68"/>
	<circle cx="104.525" cy="238.406" r="4" fill="#0" id="circle69"/>
	<circle cx="108.181" cy="468.243" r="4" fill="#0" id="circle70"/>
	<circle cx="109.094" cy="237.035" r="4" fill="#0" id="circle71"/>
	<circle cx="112.75" cy="470.071" r="4" fill="#0" id="circle72"/>
	<circle cx="113.207" cy="234.751" r="4" fill="#0" id="circle73"/>
	<circle cx="117.319" cy="470.528" r="4" fill="#0" id="circle74"/>
	<circle cx="117.776" cy="234.751" r="4" fill="#0" id="circle75"/>
	<circle cx="121.432" cy="472.813" r="4" fill="#0" id="circle76"/>
	<circle cx="121.889" cy="232.466" r="4" fill="#0" id="circle77"/>
	<circle cx="126.001" cy="472.813" r="4" fill="#0" id="circle78"/>
	<circle cx="126.458" cy="232.466" r="4" fill="#0" id="circle79"/>
	<circle cx="130.113" cy="475.097" r="4" fill="#0" id="circle80"/>
	<circle cx="130.57" cy="230.181" r="4" fill="#0" id="circle81"/>
	<circle cx="134.683" cy="475.097" r="4" fill="#0" id="circle82"/>
	<circle cx="135.14" cy="230.181" r="4" fill="#0" id="circle83"/>
	<circle cx="138.795" cy="477.382" r="4" fill="#0" id="circle84"/>
	<circle cx="139.252" cy="227.897" r="4" fill="#0" id="circle85"/>
	<circle cx="143.364" cy="477.382" r="4" fill="#0" id="circle86"/>
	<circle cx="143.821" cy="226.526" r="4" fill="#0" id="circle87"/>
	<circle cx="147.477" cy="479.667" r="4" fill="#0" id="circle88"/>
	<circle cx="148.391" cy="225.612" r="4" fill="#0" id="circle89"/>
	<circle cx="152.046" cy="479.667" r="4" fill="#0" id="circle90"/>
	<circle cx="152.96" cy="225.612" r="4" fill="#0" id="circle91"/>
	<circle cx="156.158" cy="481.951" r="4" fill="#0" id="circle92"/>
	<circle cx="157.072" cy="223.327" r="4" fill="#0" id="circle93"/>
	<circle cx="160.728" cy="481.951" r="4" fill="#0" id="circle94"/>
	<circle cx="161.642" cy="222.414" r="4" fill="#0" id="circle95"/>
	<circle cx="164.84" cy="484.236" r="4" fill="#0" id="circle96"/>
	<circle cx="166.211" cy="221.043" r="4" fill="#0" id="circle97"/>
	<circle cx="169.409" cy="484.236" r="4" fill="#0" id="circle98"/>
	<circle cx="170.78" cy="220.129" r="4" fill="#0" id="circle99"/>
	<circle cx="173.979" cy="485.607" r="4" fill="#0" id="circle100"/>
	<circle cx="175.35" cy="218.758" r="4" fill="#0" id="circle101"/>
	<circle cx="178.091" cy="487.891" r="4" fill="#0" id="circle102"/>
	<circle cx="179.462" cy="216.474" r="4" fill="#0" id="circle103"/>
	<circle cx="181.747" cy="491.09" r="4" fill="#0" id="circle104"/>
	<circle cx="184.031" cy="216.474" r="4" fill="#0" id="circle105"/>
	<circle cx="186.316" cy="491.09" r="4" fill="#0" id="circle106"/>
	<circle cx="188.601" cy="216.474" r="4" fill="#0" id="circle107"/>
	<circle cx="190.428" cy="493.374" r="4" fill="#0" id="circle108"/>
	<circle cx="192.713" cy="214.189" r="4" fill="#0" id="circle109"/>
	<circle cx="194.998" cy="493.374" r="4" fill="#0" id="circle110"/>
	<circle cx="197.282" cy="214.189" r="4" fill="#0" id="circle111"/>
	<circle cx="199.567" cy="493.374" r="4" fill="#0" id="circle112"/>
	<circle cx="201.852" cy="211.904" r="4" fill="#0" id="circle113"/>
	<circle cx="204.136" cy="495.202" r="4" fill="#0" id="circle114"/>
	<circle cx="206.421" cy="211.904" r="4" fill="#0" id="circle115"/>
	<circle cx="208.706" cy="495.202" r="4" fill="#0" id="circle116"/>
	<circle cx="210.99" cy="211.904" r="4" fill="#0" id="circle117"/>
	<circle cx="213.275" cy="493.374" r="4" fill="#0" id="circle118"/>
	<circle cx="215.56" cy="209.62" r="4" fill="#0" id="circle119"/>
	<circle cx="217.844" cy="493.374" r="4" fill="#0" id="circle120"/>
	<circle cx="220.129" cy="209.62" r="4" fill="#0" id="circle121"/>
	<circle cx="222.414" cy="495.202" r="4" fill="#0" id="circle122"/>
	<circle cx="224.241" cy="207.335" r="4" fill="#0" id="circle123"/>
	<circle cx="226.983" cy="495.659" r="4" fill="#0" id="circle124"/>
	<circle cx="228.354" cy="205.05" r="4" fill="#0" id="circle125"/>
	<circle cx="231.552" cy="495.659" r="4" fill="#0" id="circle126"/>
	<circle cx="232.923" cy="203.679" r="4" fill="#0" id="circle127"/>
	<circle cx="236.122" cy="497.487" r="4" fill="#0" id="circle128"/>
	<circle cx="237.492" cy="201.395" r="4" fill="#0" id="circle129"/>
	<circle cx="240.691" cy="497.944" r="4" fill="#0" id="circle130"/>
	<circle cx="242.062" cy="200.481" r="4" fill="#0" id="circle131"/>
	<circle cx="245.26" cy="497.944" r="4" fill="#0" id="circle132"/>
	<circle cx="246.174" cy="198.196" r="4" fill="#0" id="circle133"/>
	<circle cx="249.83" cy="497.944" r="4" fill="#0" id="circle134"/>
	<circle cx="250.287" cy="195.912" r="4" fill="#0" id="circle135"/>
	<circle cx="254.399" cy="499.772" r="4" fill="#0" id="circle136"/>
	<circle cx="254.856" cy="195.912" r="4" fill="#0" id="circle137"/>
	<circle cx="258.968" cy="193.627" r="4" fill="#0" id="circle138"/>
	<circle cx="258.968" cy="500.228" r="4" fill="#0" id="circle139"/>
	<circle cx="263.538" cy="191.342" r="4" fill="#0" id="circle140"/>
	<circle cx="263.538" cy="500.228" r="4" fill="#0" id="circle141"/>
	<circle cx="268.107" cy="189.058" r="4" fill="#0" id="circle142"/>
	<circle cx="268.107" cy="500.228" r="4" fill="#0" id="circle143"/>
	<circle cx="272.676" cy="186.773" r="4" fill="#0" id="circle144"/>
	<circle cx="272.676" cy="500.228" r="4" fill="#0" id="circle145"/>
	<circle cx="277.246" cy="186.773" r="4" fill="#0" id="circle146"/>
	<circle cx="277.246" cy="500.228" r="4" fill="#0" id="circle147"/>
	<circle cx="281.358" cy="184.488" r="4" fill="#0" id="circle148"/>
	<circle cx="281.358" cy="502.513" r="4" fill="#0" id="circle149"/>
	<circle cx="285.927" cy="182.661" r="4" fill="#0" id="circle150"/>
	<circle cx="285.927" cy="502.513" r="4" fill="#0" id="circle151"/>
	<circle cx="290.497" cy="182.204" r="4" fill="#0" id="circle152"/>
	<circle cx="290.497" cy="502.513" r="4" fill="#0" id="circle153"/>
	<circle cx="294.609" cy="179.919" r="4" fill="#0" id="circle154"/>
	<circle cx="295.066" cy="502.513" r="4" fill="#0" id="circle155"/>
	<circle cx="299.178" cy="179.919" r="4" fill="#0" id="circle156"/>
	<circle cx="299.635" cy="502.513" r="4" fill="#0" id="circle157"/>
	<circle cx="303.291" cy="177.634" r="4" fill="#0" id="circle158"/>
	<circle cx="304.205" cy="502.513" r="4" fill="#0" id="circle159"/>
	<circle cx="307.86" cy="177.634" r="4" fill="#0" id="circle160"/>
	<circle cx="308.774" cy="502.513" r="4" fill="#0" id="circle161"/>
	<circle cx="312.429" cy="176.72" r="4" fill="#0" id="circle162"/>
	<circle cx="313.343" cy="502.513" r="4" fill="#0" id="circle163"/>
	<circle cx="316.999" cy="175.35" r="4" fill="#0" id="circle164"/>
	<circle cx="317.912" cy="502.513" r="4" fill="#0" id="circle165"/>
	<circle cx="321.568" cy="175.35" r="4" fill="#0" id="circle166"/>
	<circle cx="322.482" cy="502.513" r="4" fill="#0" id="circle167"/>
	<circle cx="326.137" cy="175.35" r="4" fill="#0" id="circle168"/>
	<circle cx="327.051" cy="502.513" r="4" fill="#0" id="circle169"/>
	<circle cx="330.707" cy="174.436" r="4" fill="#0" id="circle170"/>
	<circle cx="331.62" cy="502.513" r="4" fill="#0" id="circle171"/>
	<circle cx="335.276" cy="173.065" r="4" fill="#0" id="circle172"/>
	<circle cx="335.733" cy="500.228" r="4" fill="#0" id="circle173"/>
	<circle cx="339.845" cy="173.065" r="4" fill="#0" id="circle174"/>
	<circle cx="340.302" cy="500.228" r="4" fill="#0" id="circle175"/>
	<circle cx="344.415" cy="173.065" r="4" fill="#0" id="circle176"/>
	<circle cx="344.871" cy="500.228" r="4" fill="#0" id="circle177"/>
	<circle cx="348.984" cy="173.065" r="4" fill="#0" id="circle178"/>
	<circle cx="348.984" cy="497.944" r="4" fill="#0" id="circle179"/>
	<circle cx="353.553" cy="173.065" r="4" fill="#0" id="circle180"/>
	<circle cx="353.553" cy="497.944" r="4" fill="#0" id="circle181"/>
	<circle cx="357.666" cy="170.78" r="4" fill="#0" id="circle182"/>
	<circle cx="358.123" cy="496.573" r="4" fill="#0" id="circle183"/>
	<circle cx="362.235" cy="170.78" r="4" fill="#0" id="circle184"/>
	<circle cx="362.692" cy="495.659" r="4" fill="#0" id="circle185"/>
	<circle cx="366.804" cy="170.78" r="4" fill="#0" id="circle186"/>
	<circle cx="367.261" cy="494.288" r="4" fill="#0" id="circle187"/>
	<circle cx="371.374" cy="170.78" r="4" fill="#0" id="circle188"/>
	<circle cx="371.83" cy="493.374" r="4" fill="#0" id="circle189"/>
	<circle cx="375.943" cy="170.78" r="4" fill="#0" id="circle190"/>
	<circle cx="376.4" cy="492.004" r="4" fill="#0" id="circle191"/>
	<circle cx="380.512" cy="170.78" r="4" fill="#0" id="circle192"/>
	<circle cx="380.969" cy="491.09" r="4" fill="#0" id="circle193"/>
	<circle cx="385.082" cy="170.78" r="4" fill="#0" id="circle194"/>
	<circle cx="385.082" cy="488.805" r="4" fill="#0" id="circle195"/>
	<circle cx="389.651" cy="170.78" r="4" fill="#0" id="circle196"/>
	<circle cx="389.651" cy="487.891" r="4" fill="#0" id="circle197"/>
	<circle cx="393.763" cy="168.496" r="4" fill="#0" id="circle198"/>
	<circle cx="394.22" cy="485.607" r="4" fill="#0" id="circle199"/>
	<circle cx="398.333" cy="168.496" r="4" fill="#0" id="circle200"/>
	<circle cx="398.789" cy="484.236" r="4" fill="#0" id="circle201"/>
	<circle cx="402.902" cy="168.496" r="4" fill="#0" id="circle202"/>
	<circle cx="402.902" cy="481.951" r="4" fill="#0" id="circle203"/>
	<circle cx="407.014" cy="479.667" r="4" fill="#0" id="circle204"/>
	<circle cx="407.471" cy="168.496" r="4" fill="#0" id="circle205"/>
	<circle cx="411.127" cy="477.382" r="4" fill="#0" id="circle206"/>
	<circle cx="412.041" cy="168.496" r="4" fill="#0" id="circle207"/>
	<circle cx="415.696" cy="477.382" r="4" fill="#0" id="circle208"/>
	<circle cx="416.61" cy="166.211" r="4" fill="#0" id="circle209"/>
	<circle cx="419.808" cy="475.097" r="4" fill="#0" id="circle210"/>
	<circle cx="421.179" cy="166.211" r="4" fill="#0" id="circle211"/>
	<circle cx="423.921" cy="472.813" r="4" fill="#0" id="circle212"/>
	<circle cx="425.749" cy="166.211" r="4" fill="#0" id="circle213"/>
	<circle cx="428.033" cy="470.528" r="4" fill="#0" id="circle214"/>
	<circle cx="430.318" cy="166.211" r="4" fill="#0" id="circle215"/>
	<circle cx="432.602" cy="470.071" r="4" fill="#0" id="circle216"/>
	<circle cx="434.887" cy="166.211" r="4" fill="#0" id="circle217"/>
	<circle cx="437.172" cy="467.786" r="4" fill="#0" id="circle218"/>
	<circle cx="439.456" cy="166.211" r="4" fill="#0" id="circle219"/>
	<circle cx="441.741" cy="465.959" r="4" fill="#0" id="circle220"/>
	<circle cx="444.026" cy="163.926" r="4" fill="#0" id="circle221"/>
	<circle cx="445.854" cy="463.674" r="4" fill="#0" id="circle222"/>
	<circle cx="448.595" cy="161.642" r="4" fill="#0" id="circle223"/>
	<circle cx="449.966" cy="461.389" r="4" fill="#0" id="circle224"/>
	<circle cx="452.251" cy="157.986" r="4" fill="#0" id="circle225"/>
	<circle cx="454.535" cy="459.105" r="4" fill="#0" id="circle226"/>
	<circle cx="455.906" cy="154.788" r="4" fill="#0" id="circle227"/>
	<circle cx="459.105" cy="151.132" r="4" fill="#0" id="circle228"/>
	<circle cx="459.105" cy="459.105" r="4" fill="#0" id="circle229"/>
	<circle cx="463.217" cy="456.82" r="4" fill="#0" id="circle230"/>
	<circle cx="463.674" cy="148.848" r="4" fill="#0" id="circle231"/>
	<circle cx="467.329" cy="145.649" r="4" fill="#0" id="circle232"/>
	<circle cx="467.786" cy="140.166" r="4" fill="#0" id="circle233"/>
	<circle cx="467.786" cy="455.449" r="4" fill="#0" id="circle234"/>
	<circle cx="470.071" cy="135.596" r="4" fill="#0" id="circle235"/>
	<circle cx="472.356" cy="131.027" r="4" fill="#0" id="circle236"/>
	<circle cx="472.356" cy="454.535" r="4" fill="#0" id="circle237"/>
	<circle cx="474.64" cy="126.458" r="4" fill="#0" id="circle238"/>
	<circle cx="476.468" cy="452.251" r="4" fill="#0" id="circle239"/>
	<circle cx="478.296" cy="122.802" r="4" fill="#0" id="circle240"/>
	<circle cx="481.037" cy="451.337" r="4" fill="#0" id="circle241"/>
	<circle cx="481.951" cy="119.147" r="4" fill="#0" id="circle242"/>
	<circle cx="485.607" cy="449.966" r="4" fill="#0" id="circle243"/>
	<circle cx="486.52" cy="116.862" r="4" fill="#0" id="circle244"/>
	<circle cx="490.176" cy="113.664" r="4" fill="#0" id="circle245"/>
	<circle cx="490.176" cy="449.052" r="4" fill="#0" id="circle246"/>
	<circle cx="492.004" cy="109.094" r="4" fill="#0" id="circle247"/>
	<circle cx="494.288" cy="104.525" r="4" fill="#0" id="circle248"/>
	<circle cx="494.745" cy="447.681" r="4" fill="#0" id="circle249"/>
	<circle cx="496.573" cy="99.9558" r="4" fill="#0" id="circle250"/>
	<circle cx="499.315" cy="446.767" r="4" fill="#0" id="circle251"/>
	<circle cx="500.228" cy="96.3003" r="4" fill="#0" id="circle252"/>
	<circle cx="503.884" cy="445.397" r="4" fill="#0" id="circle253"/>
	<circle cx="504.798" cy="95.3865" r="4" fill="#0" id="circle254"/>
	<circle cx="508.453" cy="444.483" r="4" fill="#0" id="circle255"/>
	<circle cx="509.367" cy="95.3865" r="4" fill="#0" id="circle256"/>
	<circle cx="513.023" cy="443.112" r="4" fill="#0" id="circle257"/>
	<circle cx="513.48" cy="92.1879" r="4" fill="#0" id="circle258"/>
	<circle cx="517.135" cy="88.5325" r="4" fill="#0" id="circle259"/>
	<circle cx="517.592" cy="443.112" r="4" fill="#0" id="circle260"/>
	<circle cx="520.333" cy="83.0493" r="4" fill="#0" id="circle261"/>
	<circle cx="522.161" cy="443.112" r="4" fill="#0" id="circle262"/>
	<circle cx="523.989" cy="79.3938" r="4" fill="#0" id="circle263"/>
	<circle cx="526.274" cy="440.827" r="4" fill="#0" id="circle264"/>
	<circle cx="527.644" cy="75.7384" r="4" fill="#0" id="circle265"/>
	<circle cx="530.843" cy="440.827" r="4" fill="#0" id="circle266"/>
	<circle cx="531.3" cy="72.5398" r="4" fill="#0" id="circle267"/>
	<circle cx="535.412" cy="70.2552" r="4" fill="#0" id="circle268"/>
	<circle cx="535.412" cy="440.37" r="4" fill="#0" id="circle269"/>
	<circle cx="539.068" cy="66.5997" r="4" fill="#0" id="circle270"/>
	<circle cx="539.982" cy="438.543" r="4" fill="#0" id="circle271"/>
	<circle cx="543.637" cy="64.3151" r="4" fill="#0" id="circle272"/>
	<circle cx="544.551" cy="438.543" r="4" fill="#0" id="circle273"/>
	<circle cx="548.206" cy="62.0304" r="4" fill="#0" id="circle274"/>
	<circle cx="549.12" cy="438.543" r="4" fill="#0" id="circle275"/>
	<circle cx="551.862" cy="58.8319" r="4" fill="#0" id="circle276"/>
	<circle cx="553.69" cy="438.543" r="4" fill="#0" id="circle277"/>
	<circle cx="555.974" cy="56.5472" r="4" fill="#0" id="circle278"/>
	<circle cx="558.259" cy="438.543" r="4" fill="#0" id="circle279"/>
	<circle cx="560.544" cy="54.2626" r="4" fill="#0" id="circle280"/>
	<circle cx="562.371" cy="436.258" r="4" fill="#0" id="circle281"/>
	<circle cx="564.199" cy="50.6071" r="4" fill="#0" id="circle282"/>
	<circle cx="566.941" cy="436.258" r="4" fill="#0" id="circle283"/>
	<circle cx="567.854" cy="47.4086" r="4" fill="#0" id="circle284"/>
	<circle cx="571.053" cy="43.7531" r="4" fill="#0" id="circle285"/>
	<circle cx="571.51" cy="436.258" r="4" fill="#0" id="circle286"/>
	<circle cx="574.708" cy="40.5546" r="4" fill="#0" id="circle287"/>
	<circle cx="576.079" cy="436.258" r="4" fill="#0" id="circle288"/>
	<circle cx="578.821" cy="38.2699" r="4" fill="#0" id="circle289"/>
	<circle cx="580.649" cy="436.258" r="4" fill="#0" id="circle290"/>
	<circle cx="582.476" cy="34.6145" r="4" fill="#0" id="circle291"/>
	<circle cx="585.218" cy="436.258" r="4" fill="#0" id="circle292"/>
	<circle cx="587.046" cy="32.3298" r="4" fill="#0" id="circle293"/>
	<circle cx="589.787" cy="436.258" r="4" fill="#0" id="circle294"/>
	<circle cx="590.701" cy="29.1313" r="4" fill="#0" id="circle295"/>
	<circle cx="594.357" cy="436.258" r="4" fill="#0" id="circle296"/>
	<circle cx="594.813" cy="26.8466" r="4" fill="#0" id="circle297"/>
	<circle cx="598.926" cy="436.258" r="4" fill="#0" id="circle298"/>
	<circle cx="599.383" cy="24.562" r="4" fill="#0" id="circle299"/>
	<circle cx="603.495" cy="436.258" r="4" fill="#0" id="circle300"/>
	<circle cx="603.952" cy="22.2773" r="4" fill="#0" id="circle301"/>
	<circle cx="608.064" cy="436.258" r="4" fill="#0" id="circle302"/>
	<circle cx="608.521" cy="19.9926" r="4" fill="#0" id="circle303"/>
	<circle cx="612.634" cy="436.258" r="4" fill="#0" id="circle304"/>
	<circle cx="613.091" cy="19.9926" r="4" fill="#0" id="circle305"/>
	<circle cx="617.203" cy="17.708" r="4" fill="#0" id="circle306"/>
	<circle cx="617.203" cy="436.258" r="4" fill="#0" id="circle307"/>
	<circle cx="621.772" cy="15.8802" r="4" fill="#0" id="circle308"/>
	<circle cx="621.772" cy="436.258" r="4" fill="#0" id="circle309"/>
	<circle cx="626.342" cy="13.5956" r="4" fill="#0" id="circle310"/>
	<circle cx="626.342" cy="436.258" r="4" fill="#0" id="circle311"/>
	<circle cx="630.911" cy="13.1386" r="4" fill="#0" id="circle312"/>
	<circle cx="630.911" cy="436.258" r="4" fill="#0" id="circle313"/>
	<circle cx="635.48" cy="11.3109" r="4" fill="#0" id="circle314"/>
	<circle cx="635.48" cy="436.258" r="4" fill="#0" id="circle315"/>
	<circle cx="640.05" cy="10.854" r="4" fill="#0" id="circle316"/>
	<circle cx="640.05" cy="436.258" r="4" fill="#0" id="circle317"/>
	<circle cx="644.619" cy="9.02626" r="4" fill="#0" id="circle318"/>
	<circle cx="644.619" cy="436.258" r="4" fill="#0" id="circle319"/>
	<circle cx="649.188" cy="8.56932" r="4" fill="#0" id="circle320"/>
	<circle cx="649.188" cy="436.258" r="4" fill="#0" id="circle321"/>
	<circle cx="653.301" cy="438.543" r="4" fill="#0" id="circle322"/>
	<circle cx="653.758" cy="8.56932" r="4" fill="#0" id="circle323"/>
	<circle cx="656.042" cy="442.198" r="4" fill="#0" id="circle324"/>
	<circle cx="657.413" cy="446.767" r="4" fill="#0" id="circle325"/>
	<circle cx="657.413" cy="451.337" r="4" fill="#0" id="circle326"/>
	<circle cx="657.87" cy="6.28466" r="4" fill="#0" id="circle327"/>
	<circle cx="659.698" cy="455.449" r="4" fill="#0" id="circle328"/>
	<circle cx="662.439" cy="6.28466" r="4" fill="#0" id="circle329"/>
	<circle cx="663.353" cy="458.648" r="4" fill="#0" id="circle330"/>
	<circle cx="667.009" cy="6.28466" r="4" fill="#0" id="circle331"/>
	<circle cx="667.466" cy="460.932" r="4" fill="#0" id="circle332"/>
	<circle cx="671.578" cy="6.28466" r="4" fill="#0" id="circle333"/>
	<circle cx="672.035" cy="462.76" r="4" fill="#0" id="circle334"/>
	<circle cx="675.69" cy="4" r="4" fill="#0" id="circle335"/>
	<circle cx="676.604" cy="463.674" r="4" fill="#0" id="circle336"/>
	<circle cx="680.26" cy="4" r="4" fill="#0" id="circle337"/>
	<circle cx="680.717" cy="465.959" r="4" fill="#0" id="circle338"/>
	<circle cx="684.829" cy="4" r="4" fill="#0" id="circle339"/>
	<circle cx="685.286" cy="465.959" r="4" fill="#0" id="circle340"/>
	<circle cx="689.398" cy="4" r="4" fill="#0" id="circle341"/>
	<circle cx="689.855" cy="466.872" r="4" fill="#0" id="circle342"/>
	<circle cx="693.968" cy="4" r="4" fill="#0" id="circle343"/>
	<circle cx="694.425" cy="468.243" r="4" fill="#0" id="circle344"/>
	<circle cx="698.537" cy="4" r="4" fill="#0" id="circle345"/>
	<circle cx="698.994" cy="468.243" r="4" fill="#0" id="circle346"/>
	<circle cx="703.106" cy="4" r="4" fill="#0" id="circle347"/>
	<circle cx="703.106" cy="470.528" r="4" fill="#0" id="circle348"/>
	<circle cx="707.676" cy="4" r="4" fill="#0" id="circle349"/>
	<circle cx="707.676" cy="470.528" r="4" fill="#0" id="circle350"/>
	<circle cx="712.245" cy="4" r="4" fill="#0" id="circle351"/>
	<circle cx="712.245" cy="470.528" r="4" fill="#0" id="circle352"/>
	<circle cx="716.357" cy="472.813" r="4" fill="#0" id="circle353"/>
	<circle cx="716.814" cy="4" r="4" fill="#0" id="circle354"/>
	<circle cx="720.927" cy="472.813" r="4" fill="#0" id="circle355"/>
	<circle cx="721.384" cy="4" r="4" fill="#0" id="circle356"/>
	<circle cx="725.496" cy="472.813" r="4" fill="#0" id="circle357"/>
	<circle cx="725.953" cy="4" r="4" fill="#0" id="circle358"/>
	<circle cx="730.065" cy="472.813" r="4" fill="#0" id="circle359"/>
	<circle cx="730.522" cy="4" r="4" fill="#0" id="circle360"/>
	<circle cx="734.178" cy="475.097" r="4" fill="#0" id="circle361"/>
	<circle cx="735.092" cy="4" r="4" fill="#0" id="circle362"/>
	<circle cx="738.747" cy="475.097" r="4" fill="#0" id="circle363"/>
	<circle cx="739.204" cy="6.28466" r="4" fill="#0" id="circle364"/>
	<circle cx="743.316" cy="475.097" r="4" fill="#0" id="circle365"/>
	<circle cx="743.773" cy="6.28466" r="4" fill="#0" id="circle366"/>
	<circle cx="747.886" cy="476.925" r="4" fill="#0" id="circle367"/>
	<circle cx="748.343" cy="6.28466" r="4" fill="#0" id="circle368"/>
	<circle cx="752.455" cy="477.382" r="4" fill="#0" id="circle369"/>
	<circle cx="752.912" cy="6.74159" r="4" fill="#0" id="circle370"/>
	<circle cx="757.024" cy="477.382" r="4" fill="#0" id="circle371"/>
	<circle cx="757.481" cy="8.56932" r="4" fill="#0" id="circle372"/>
	<circle cx="761.594" cy="477.382" r="4" fill="#0" id="circle373"/>
	<circle cx="762.051" cy="8.56932" r="4" fill="#0" id="circle374"/>
	<circle cx="766.163" cy="477.382" r="4" fill="#0" id="circle375"/>
	<circle cx="766.62" cy="8.56932" r="4" fill="#0" id="circle376"/>
	<circle cx="770.275" cy="479.667" r="4" fill="#0" id="circle377"/>
	<circle cx="770.732" cy="10.854" r="4" fill="#0" id="circle378"/>
	<circle cx="774.845" cy="479.667" r="4" fill="#0" id="circle379"/>
	<circle cx="775.302" cy="10.854" r="4" fill="#0" id="circle380"/>
	<circle cx="779.414" cy="13.1386" r="4" fill="#0" id="circle381"/>
	<circle cx="779.414" cy="479.667" r="4" fill="#0" id="circle382"/>
	<circle cx="783.983" cy="13.1386" r="4" fill="#0" id="circle383"/>
	<circle cx="783.983" cy="479.667" r="4" fill="#0" id="circle384"/>
	<circle cx="788.553" cy="13.1386" r="4" fill="#0" id="circle385"/>
	<circle cx="788.553" cy="479.667" r="4" fill="#0" id="circle386"/>
	<circle cx="792.665" cy="15.4233" r="4" fill="#0" id="circle387"/>
	<circle cx="793.122" cy="479.667" r="4" fill="#0" id="circle388"/>
	<circle cx="797.234" cy="16.7941" r="4" fill="#0" id="circle389"/>
	<circle cx="797.691" cy="479.667" r="4" fill="#0" id="circle390"/>
	<circle cx="801.804" cy="17.708" r="4" fill="#0" id="circle391"/>
	<circle cx="802.261" cy="479.667" r="4" fill="#0" id="circle392"/>
	<circle cx="805.916" cy="19.9926" r="4" fill="#0" id="circle393"/>
	<circle cx="806.83" cy="479.667" r="4" fill="#0" id="circle394"/>
	<circle cx="810.485" cy="20.9065" r="4" fill="#0" id="circle395"/>
	<circle cx="811.399" cy="479.667" r="4" fill="#0" id="circle396"/>
	<circle cx="815.055" cy="22.2773" r="4" fill="#0" id="circle397"/>
	<circle cx="815.969" cy="479.667" r="4" fill="#0" id="circle398"/>
	<circle cx="819.624" cy="23.1912" r="4" fill="#0" id="circle399"/>
	<circle cx="820.538" cy="479.667" r="4" fill="#0" id="circle400"/>
	<circle cx="824.193" cy="24.562" r="4" fill="#0" id="circle401"/>
	<circle cx="825.107" cy="479.667" r="4" fill="#0" id="circle402"/>
	<circle cx="828.306" cy="26.8466" r="4" fill="#0" id="circle403"/>
	<circle cx="829.677" cy="479.667" r="4" fill="#0" id="circle404"/>
	<circle cx="832.875" cy="26.8466" r="4" fill="#0" id="circle405"/>
	<circle cx="833.332" cy="590.244" r="4" fill="#0" id="circle406"/>
	<circle cx="834.246" cy="479.667" r="4" fill="#0" id="circle407"/>
	<circle cx="836.988" cy="29.1313" r="4" fill="#0" id="circle408"/>
	<circle cx="837.901" cy="588.873" r="4" fill="#0" id="circle409"/>
	<circle cx="838.815" cy="479.667" r="4" fill="#0" id="circle410"/>
	<circle cx="841.1" cy="31.4159" r="4" fill="#0" id="circle411"/>
	<circle cx="842.471" cy="589.787" r="4" fill="#0" id="circle412"/>
	<circle cx="843.385" cy="479.667" r="4" fill="#0" id="circle413"/>
	<circle cx="845.669" cy="31.4159" r="4" fill="#0" id="circle414"/>
	<circle cx="847.497" cy="477.382" r="4" fill="#0" id="circle415"/>
	<circle cx="849.782" cy="33.7006" r="4" fill="#0" id="circle416"/>
	<circle cx="852.066" cy="477.382" r="4" fill="#0" id="circle417"/>
	<circle cx="853.894" cy="35.9853" r="4" fill="#0" id="circle418"/>
	<circle cx="856.636" cy="477.382" r="4" fill="#0" id="circle419"/>
	<circle cx="858.463" cy="36.8991" r="4" fill="#0" id="circle420"/>
	<circle cx="861.205" cy="475.097" r="4" fill="#0" id="circle421"/>
	<circle cx="863.033" cy="38.2699" r="4" fill="#0" id="circle422"/>
	<circle cx="865.774" cy="475.097" r="4" fill="#0" id="circle423"/>
	<circle cx="867.145" cy="40.5546" r="4" fill="#0" id="circle424"/>
	<circle cx="870.344" cy="472.813" r="4" fill="#0" id="circle425"/>
	<circle cx="871.714" cy="41.0115" r="4" fill="#0" id="circle426"/>
	<circle cx="874.913" cy="472.813" r="4" fill="#0" id="circle427"/>
	<circle cx="875.827" cy="43.2962" r="4" fill="#0" id="circle428"/>
	<circle cx="879.025" cy="470.528" r="4" fill="#0" id="circle429"/>
	<circle cx="880.396" cy="45.1239" r="4" fill="#0" id="circle430"/>
	<circle cx="883.595" cy="469.157" r="4" fill="#0" id="circle431"/>
	<circle cx="884.509" cy="47.4086" r="4" fill="#0" id="circle432"/>
	<circle cx="888.164" cy="466.872" r="4" fill="#0" id="circle433"/>
	<circle cx="888.621" cy="49.6932" r="4" fill="#0" id="circle434"/>
	<circle cx="892.733" cy="464.588" r="4" fill="#0" id="circle435"/>
	<circle cx="893.19" cy="51.064" r="4" fill="#0" id="circle436"/>
	<circle cx="896.389" cy="461.389" r="4" fill="#0" id="circle437"/>
	<circle cx="897.303" cy="53.3487" r="4" fill="#0" id="circle438"/>
	<circle cx="900.501" cy="459.105" r="4" fill="#0" id="circle439"/>
	<circle cx="900.958" cy="56.5472" r="4" fill="#0" id="circle440"/>
	<circle cx="904.157" cy="455.449" r="4" fill="#0" id="circle441"/>
	<circle cx="905.07" cy="58.8319" r="4" fill="#0" id="circle442"/>
	<circle cx="907.812" cy="451.794" r="4" fill="#0" id="circle443"/>
	<circle cx="909.183" cy="61.1165" r="4" fill="#0" id="circle444"/>
	<circle cx="911.468" cy="447.681" r="4" fill="#0" id="circle445"/>
	<circle cx="913.295" cy="63.4012" r="4" fill="#0" id="circle446"/>
	<circle cx="915.123" cy="444.483" r="4" fill="#0" id="circle447"/>
	<circle cx="916.951" cy="66.1428" r="4" fill="#0" id="circle448"/>
	<circle cx="917.408" cy="439.913" r="4" fill="#0" id="circle449"/>
	<circle cx="920.606" cy="69.3413" r="4" fill="#0" id="circle450"/>
	<circle cx="920.606" cy="433.973" r="4" fill="#0" id="circle451"/>
	<circle cx="922.891" cy="429.404" r="4" fill="#0" id="circle452"/>
	<circle cx="924.719" cy="71.626" r="4" fill="#0" id="circle453"/>
	<circle cx="925.175" cy="424.835" r="4" fill="#0" id="circle454"/>
	<circle cx="927.46" cy="420.265" r="4" fill="#0" id="circle455"/>
	<circle cx="928.374" cy="74.8245" r="4" fill="#0" id="circle456"/>
	<circle cx="929.745" cy="413.411" r="4" fill="#0" id="circle457"/>
	<circle cx="931.573" cy="78.48" r="4" fill="#0" id="circle458"/>
	<circle cx="932.029" cy="406.557" r="4" fill="#0" id="circle459"/>
	<circle cx="933.857" cy="82.5924" r="4" fill="#0" id="circle460"/>
	<circle cx="934.314" cy="401.988" r="4" fill="#0" id="circle461"/>
	<circle cx="936.599" cy="86.2478" r="4" fill="#0" id="circle462"/>
	<circle cx="936.599" cy="395.134" r="4" fill="#0" id="circle463"/>
	<circle cx="938.883" cy="388.28" r="4" fill="#0" id="circle464"/>
	<circle cx="940.254" cy="88.9894" r="4" fill="#0" id="circle465"/>
	<circle cx="941.168" cy="381.426" r="4" fill="#0" id="circle466"/>
	<circle cx="942.082" cy="93.5587" r="4" fill="#0" id="circle467"/>
	<circle cx="943.453" cy="372.287" r="4" fill="#0" id="circle468"/>
	<circle cx="943.453" cy="376.857" r="4" fill="#0" id="circle469"/>
	<circle cx="945.737" cy="96.7573" r="4" fill="#0" id="circle470"/>
	<circle cx="945.737" cy="365.433" r="4" fill="#0" id="circle471"/>
	<circle cx="948.022" cy="351.725" r="4" fill="#0" id="circle472"/>
	<circle cx="948.022" cy="356.295" r="4" fill="#0" id="circle473"/>
	<circle cx="948.022" cy="360.864" r="4" fill="#0" id="circle474"/>
	<circle cx="948.936" cy="100.413" r="4" fill="#0" id="circle475"/>
	<circle cx="950.307" cy="344.871" r="4" fill="#0" id="circle476"/>
	<circle cx="952.591" cy="335.733" r="4" fill="#0" id="circle477"/>
	<circle cx="952.591" cy="340.302" r="4" fill="#0" id="circle478"/>
	<circle cx="953.505" cy="102.24" r="4" fill="#0" id="circle479"/>
	<circle cx="954.876" cy="328.879" r="4" fill="#0" id="circle480"/>
	<circle cx="957.161" cy="317.456" r="4" fill="#0" id="circle481"/>
	<circle cx="957.161" cy="322.025" r="4" fill="#0" id="circle482"/>
	<circle cx="958.075" cy="102.24" r="4" fill="#0" id="circle483"/>
	<circle cx="959.445" cy="310.602" r="4" fill="#0" id="circle484"/>
	<circle cx="961.73" cy="301.463" r="4" fill="#0" id="circle485"/>
	<circle cx="961.73" cy="306.032" r="4" fill="#0" id="circle486"/>
	<circle cx="962.644" cy="102.24" r="4" fill="#0" id="circle487"/>
	<circle cx="964.015" cy="292.324" r="4" fill="#0" id="circle488"/>
	<circle cx="964.015" cy="296.894" r="4" fill="#0" id="circle489"/>
	<circle cx="966.299" cy="278.616" r="4" fill="#0" id="circle490"/>
	<circle cx="966.299" cy="283.186" r="4" fill="#0" id="circle491"/>
	<circle cx="966.299" cy="287.755" r="4" fill="#0" id="circle492"/>
	<circle cx="966.756" cy="104.525" r="4" fill="#0" id="circle493"/>
	<circle cx="968.584" cy="210.076" r="4" fill="#0" id="circle494"/>
	<circle cx="968.584" cy="214.646" r="4" fill="#0" id="circle495"/>
	<circle cx="968.584" cy="219.215" r="4" fill="#0" id="circle496"/>
	<circle cx="968.584" cy="244.346" r="4" fill="#0" id="circle497"/>
	<circle cx="968.584" cy="248.916" r="4" fill="#0" id="circle498"/>
	<circle cx="968.584" cy="253.485" r="4" fill="#0" id="circle499"/>
	<circle cx="968.584" cy="258.054" r="4" fill="#0" id="circle500"/>
	<circle cx="968.584" cy="262.624" r="4" fill="#0" id="circle501"/>
	<circle cx="968.584" cy="267.193" r="4" fill="#0" id="circle502"/>
	<circle cx="968.584" cy="271.762" r="4" fill="#0" id="circle503"/>
	<circle cx="970.869" cy="106.81" r="4" fill="#0" id="circle504"/>
	<circle cx="970.869" cy="223.327" r="4" fill="#0" id="circle505"/>
	<circle cx="970.869" cy="227.897" r="4" fill="#0" id="circle506"/>
	<circle cx="970.869" cy="232.466" r="4" fill="#0" id="circle507"/>
	<circle cx="970.869" cy="237.035" r="4" fill="#0" id="circle508"/>
	<circle cx="972.696" cy="207.792" r="4" fill="#0" id="circle509"/>
	<circle cx="975.438" cy="108.181" r="4" fill="#0" id="circle510"/>
	<circle cx="977.266" cy="207.792" r="4" fill="#0" id="circle511"/>
	<circle cx="978.637" cy="111.836" r="4" fill="#0" id="circle512"/>
	<circle cx="980.921" cy="115.948" r="4" fill="#0" id="circle513"/>
	<circle cx="981.378" cy="205.507" r="4" fill="#0" id="circle514"/>
	<circle cx="982.292" cy="120.518" r="4" fill="#0" id="circle515"/>
	<circle cx="984.577" cy="124.63" r="4" fill="#0" id="circle516"/>
	<circle cx="984.577" cy="180.376" r="4" fill="#0" id="circle517"/>
	<circle cx="984.577" cy="184.945" r="4" fill="#0" id="circle518"/>
	<circle cx="984.577" cy="189.515" r="4" fill="#0" id="circle519"/>
	<circle cx="984.577" cy="194.084" r="4" fill="#0" id="circle520"/>
	<circle cx="984.577" cy="198.653" r="4" fill="#0" id="circle521"/>
	<circle cx="986.861" cy="128.743" r="4" fill="#0" id="circle522"/>
	<circle cx="986.861" cy="133.312" r="4" fill="#0" id="circle523"/>
	<circle cx="988.689" cy="178.091" r="4" fill="#0" id="circle524"/>
	<circle cx="989.146" cy="137.424" r="4" fill="#0" id="circle525"/>
	<circle cx="990.517" cy="141.994" r="4" fill="#0" id="circle526"/>
	<circle cx="991.431" cy="146.563" r="4" fill="#0" id="circle527"/>
	<circle cx="992.345" cy="175.35" r="4" fill="#0" id="circle528"/>
	<circle cx="993.715" cy="150.675" r="4" fill="#0" id="circle529"/>
	<circle cx="994.629" cy="155.245" r="4" fill="#0" id="circle530"/>
	<circle cx="996" cy="159.814" r="4" fill="#0" id="circle531"/>
	<circle cx="996" cy="164.383" r="4" fill="#0" id="circle532"/>
	<circle cx="996" cy="168.953" r="4" fill="#0" id="circle533"/>
	</g>
</svg>