<?xml version="1.0" encoding="UTF-8" standalone="no"?>
<!-- Created with CurveBenchmark -->
<svg
	xmlns:dc="http://purl.org/dc/elements/1.1/"
	xmlns:cc="http://creativecommons.org/ns#"
	xmlns:rdf="http://www.w3.org/1999/02/22-rdf-syntax-ns#"
	xmlns:svg="http://www.w3.org/2000/svg"
	xmlns="http://www.w3.org/2000/svg"
	xmlns:sodipodi="http://sodipodi.sourceforge.net/DTD/sodipodi-0.dtd"
	xmlns:inkscape="http://www.inkscape.org/namespaces/inkscape"
	width="1000"
	height="1000"
	id="svg2"
	version="1.1"
	sodipodi:docname="manifold/fitconnect-cthand02.png.txt">
<defs
	id="defs4" />
<metadata
	id="metadata7">
	<rdf:RDF>
		<cc:Work
			rdf:about="">
			<dc:format>image/svg+xml</dc:format>
			<dc:type
				rdf:resource="http://purl.org/dc/dcmitype/StillImage" />
			<dc:title></dc:title>
		</cc:Work>
	</rdf:RDF>
</metadata>
<g
	inkscape:label="Layer 1"
	inkscape:groupmode="layer"
	id="layer1">
	<path style="fill:none;stroke:red;stroke-width:1px;stroke-linecap:butt;stroke-linejoin:miter;stroke-opacity:1" d="M 4,244.532 4,260.254 z" id="boundary" inkscape:connector-curvature="0" />
	<path style="fill:none;stroke:red;stroke-width:1px;stroke-linecap:butt;stroke-linejoin:miter;stroke-opacity:1" d="M 4,244.532 16.5769,231.956 z" id="boundary" inkscape:connector-curvature="0" />
	<path style="fill:none;stroke:red;stroke-width:1px;stroke-linecap:butt;stroke-linejoin:miter;stroke-opacity:1" d="M 4,260.254 4,275.975 z" id="boundary" inkscape:connector-curvature="0" />
	<path style="fill:none;stroke:red;stroke-width:1px;stroke-linecap:butt;stroke-linejoin:miter;stroke-opacity:1" d="M 4,275.975 4,291.696 z" id="boundary" inkscape:connector-curvature="0" />
	<path style="fill:none;stroke:red;stroke-width:1px;stroke-linecap:butt;stroke-linejoin:miter;stroke-opacity:1" d="M 4,291.696 4,307.417 z" id="boundary" inkscape:connector-curvature="0" />
	<path style="fill:none;stroke:red;stroke-width:1px;stroke-linecap:butt;stroke-linejoin:miter;stroke-opacity:1" d="M 4,307.417 4,323.138 z" id="boundary" inkscape:connector-curvature="0" />
	<path style="fill:none;stroke:red;stroke-width:1px;stroke-linecap:butt;stroke-linejoin:miter;stroke-opacity:1" d="M 4,323.138 4,338.859 z" id="boundary" inkscape:connector-curvature="0" />
	<path style="fill:none;stroke:red;stroke-width:1px;stroke-linecap:butt;stroke-linejoin:miter;stroke-opacity:1" d="M 4,338.859 11.8605,353.008 z" id="boundary" inkscape:connector-curvature="0" />
	<path style="fill:none;stroke:red;stroke-width:1px;stroke-linecap:butt;stroke-linejoin:miter;stroke-opacity:1" d="M 11.8605,353.008 11.8605,384.45 z" id="boundary" inkscape:connector-curvature="0" />
	<path style="fill:none;stroke:red;stroke-width:1px;stroke-linecap:butt;stroke-linejoin:miter;stroke-opacity:1" d="M 11.8605,384.45 19.7211,414.32 z" id="boundary" inkscape:connector-curvature="0" />
	<path style="fill:none;stroke:red;stroke-width:1px;stroke-linecap:butt;stroke-linejoin:miter;stroke-opacity:1" d="M 16.5769,231.956 27.5816,213.09 z" id="boundary" inkscape:connector-curvature="0" />
	<path style="fill:none;stroke:red;stroke-width:1px;stroke-linecap:butt;stroke-linejoin:miter;stroke-opacity:1" d="M 19.7211,414.32 27.5816,461.483 z" id="boundary" inkscape:connector-curvature="0" />
	<path style="fill:none;stroke:red;stroke-width:1px;stroke-linecap:butt;stroke-linejoin:miter;stroke-opacity:1" d="M 27.5816,213.09 35.4422,197.369 z" id="boundary" inkscape:connector-curvature="0" />
	<path style="fill:none;stroke:red;stroke-width:1px;stroke-linecap:butt;stroke-linejoin:miter;stroke-opacity:1" d="M 27.5816,461.483 27.5816,492.926 z" id="boundary" inkscape:connector-curvature="0" />
	<path style="fill:none;stroke:red;stroke-width:1px;stroke-linecap:butt;stroke-linejoin:miter;stroke-opacity:1" d="M 27.5816,492.926 27.5816,508.647 z" id="boundary" inkscape:connector-curvature="0" />
	<path style="fill:none;stroke:red;stroke-width:1px;stroke-linecap:butt;stroke-linejoin:miter;stroke-opacity:1" d="M 27.5816,508.647 27.5816,540.089 z" id="boundary" inkscape:connector-curvature="0" />
	<path style="fill:none;stroke:red;stroke-width:1px;stroke-linecap:butt;stroke-linejoin:miter;stroke-opacity:1" d="M 27.5816,540.089 27.5816,555.81 z" id="boundary" inkscape:connector-curvature="0" />
	<path style="fill:none;stroke:red;stroke-width:1px;stroke-linecap:butt;stroke-linejoin:miter;stroke-opacity:1" d="M 27.5816,555.81 27.5816,571.531 z" id="boundary" inkscape:connector-curvature="0" />
	<path style="fill:none;stroke:red;stroke-width:1px;stroke-linecap:butt;stroke-linejoin:miter;stroke-opacity:1" d="M 27.5816,571.531 35.4422,585.68 z" id="boundary" inkscape:connector-curvature="0" />
	<path style="fill:none;stroke:red;stroke-width:1px;stroke-linecap:butt;stroke-linejoin:miter;stroke-opacity:1" d="M 35.4422,197.369 48.019,184.792 z" id="boundary" inkscape:connector-curvature="0" />
	<path style="fill:none;stroke:red;stroke-width:1px;stroke-linecap:butt;stroke-linejoin:miter;stroke-opacity:1" d="M 35.4422,585.68 35.4422,601.401 z" id="boundary" inkscape:connector-curvature="0" />
	<path style="fill:none;stroke:red;stroke-width:1px;stroke-linecap:butt;stroke-linejoin:miter;stroke-opacity:1" d="M 35.4422,601.401 35.4422,617.122 z" id="boundary" inkscape:connector-curvature="0" />
	<path style="fill:none;stroke:red;stroke-width:1px;stroke-linecap:butt;stroke-linejoin:miter;stroke-opacity:1" d="M 35.4422,617.122 35.4422,632.843 z" id="boundary" inkscape:connector-curvature="0" />
	<path style="fill:none;stroke:red;stroke-width:1px;stroke-linecap:butt;stroke-linejoin:miter;stroke-opacity:1" d="M 35.4422,632.843 35.4422,648.564 z" id="boundary" inkscape:connector-curvature="0" />
	<path style="fill:none;stroke:red;stroke-width:1px;stroke-linecap:butt;stroke-linejoin:miter;stroke-opacity:1" d="M 35.4422,648.564 35.4422,664.285 z" id="boundary" inkscape:connector-curvature="0" />
	<path style="fill:none;stroke:red;stroke-width:1px;stroke-linecap:butt;stroke-linejoin:miter;stroke-opacity:1" d="M 35.4422,664.285 35.4422,680.006 z" id="boundary" inkscape:connector-curvature="0" />
	<path style="fill:none;stroke:red;stroke-width:1px;stroke-linecap:butt;stroke-linejoin:miter;stroke-opacity:1" d="M 35.4422,680.006 35.4422,695.727 z" id="boundary" inkscape:connector-curvature="0" />
	<path style="fill:none;stroke:red;stroke-width:1px;stroke-linecap:butt;stroke-linejoin:miter;stroke-opacity:1" d="M 35.4422,695.727 35.4422,711.448 z" id="boundary" inkscape:connector-curvature="0" />
	<path style="fill:none;stroke:red;stroke-width:1px;stroke-linecap:butt;stroke-linejoin:miter;stroke-opacity:1" d="M 35.4422,711.448 35.4422,727.17 z" id="boundary" inkscape:connector-curvature="0" />
	<path style="fill:none;stroke:red;stroke-width:1px;stroke-linecap:butt;stroke-linejoin:miter;stroke-opacity:1" d="M 35.4422,727.17 43.3027,741.319 z" id="boundary" inkscape:connector-curvature="0" />
	<path style="fill:none;stroke:red;stroke-width:1px;stroke-linecap:butt;stroke-linejoin:miter;stroke-opacity:1" d="M 35.4422,975.563 35.4422,991.284 z" id="boundary" inkscape:connector-curvature="0" />
	<path style="fill:none;stroke:red;stroke-width:1px;stroke-linecap:butt;stroke-linejoin:miter;stroke-opacity:1" d="M 35.4422,975.563 48.019,962.986 z" id="boundary" inkscape:connector-curvature="0" />
	<path style="fill:none;stroke:red;stroke-width:1px;stroke-linecap:butt;stroke-linejoin:miter;stroke-opacity:1" d="M 35.4422,991.284 51.1632,996 z" id="boundary" inkscape:connector-curvature="0" />
	<path style="fill:none;stroke:red;stroke-width:1px;stroke-linecap:butt;stroke-linejoin:miter;stroke-opacity:1" d="M 43.3027,741.319 43.3027,757.04 z" id="boundary" inkscape:connector-curvature="0" />
	<path style="fill:none;stroke:red;stroke-width:1px;stroke-linecap:butt;stroke-linejoin:miter;stroke-opacity:1" d="M 43.3027,757.04 43.3027,772.761 z" id="boundary" inkscape:connector-curvature="0" />
	<path style="fill:none;stroke:red;stroke-width:1px;stroke-linecap:butt;stroke-linejoin:miter;stroke-opacity:1" d="M 43.3027,772.761 51.1632,786.91 z" id="boundary" inkscape:connector-curvature="0" />
	<path style="fill:none;stroke:red;stroke-width:1px;stroke-linecap:butt;stroke-linejoin:miter;stroke-opacity:1" d="M 48.019,184.792 59.0238,197.369 z" id="boundary" inkscape:connector-curvature="0" />
	<path style="fill:none;stroke:red;stroke-width:1px;stroke-linecap:butt;stroke-linejoin:miter;stroke-opacity:1" d="M 48.019,962.986 55.8796,947.265 z" id="boundary" inkscape:connector-curvature="0" />
	<path style="fill:none;stroke:red;stroke-width:1px;stroke-linecap:butt;stroke-linejoin:miter;stroke-opacity:1" d="M 51.1632,786.91 51.1632,802.631 z" id="boundary" inkscape:connector-curvature="0" />
	<path style="fill:none;stroke:red;stroke-width:1px;stroke-linecap:butt;stroke-linejoin:miter;stroke-opacity:1" d="M 51.1632,802.631 59.0238,816.78 z" id="boundary" inkscape:connector-curvature="0" />
	<path style="fill:none;stroke:red;stroke-width:1px;stroke-linecap:butt;stroke-linejoin:miter;stroke-opacity:1" d="M 51.1632,996 66.8843,996 z" id="boundary" inkscape:connector-curvature="0" />
	<path style="fill:none;stroke:red;stroke-width:1px;stroke-linecap:butt;stroke-linejoin:miter;stroke-opacity:1" d="M 55.8796,947.265 66.8843,925.255 z" id="boundary" inkscape:connector-curvature="0" />
	<path style="fill:none;stroke:red;stroke-width:1px;stroke-linecap:butt;stroke-linejoin:miter;stroke-opacity:1" d="M 59.0238,197.369 68.4564,209.946 z" id="boundary" inkscape:connector-curvature="0" />
	<path style="fill:none;stroke:red;stroke-width:1px;stroke-linecap:butt;stroke-linejoin:miter;stroke-opacity:1" d="M 59.0238,816.78 59.0238,832.501 z" id="boundary" inkscape:connector-curvature="0" />
	<path style="fill:none;stroke:red;stroke-width:1px;stroke-linecap:butt;stroke-linejoin:miter;stroke-opacity:1" d="M 59.0238,832.501 66.8843,846.65 z" id="boundary" inkscape:connector-curvature="0" />
	<path style="fill:none;stroke:red;stroke-width:1px;stroke-linecap:butt;stroke-linejoin:miter;stroke-opacity:1" d="M 66.8843,846.65 66.8843,862.371 z" id="boundary" inkscape:connector-curvature="0" />
	<path style="fill:none;stroke:red;stroke-width:1px;stroke-linecap:butt;stroke-linejoin:miter;stroke-opacity:1" d="M 66.8843,862.371 66.8843,878.092 z" id="boundary" inkscape:connector-curvature="0" />
	<path style="fill:none;stroke:red;stroke-width:1px;stroke-linecap:butt;stroke-linejoin:miter;stroke-opacity:1" d="M 66.8843,878.092 66.8843,893.813 z" id="boundary" inkscape:connector-curvature="0" />
	<path style="fill:none;stroke:red;stroke-width:1px;stroke-linecap:butt;stroke-linejoin:miter;stroke-opacity:1" d="M 66.8843,893.813 66.8843,909.534 z" id="boundary" inkscape:connector-curvature="0" />
	<path style="fill:none;stroke:red;stroke-width:1px;stroke-linecap:butt;stroke-linejoin:miter;stroke-opacity:1" d="M 66.8843,909.534 66.8843,925.255 z" id="boundary" inkscape:connector-curvature="0" />
	<path style="fill:none;stroke:red;stroke-width:1px;stroke-linecap:butt;stroke-linejoin:miter;stroke-opacity:1" d="M 66.8843,996 82.6054,996 z" id="boundary" inkscape:connector-curvature="0" />
	<path style="fill:none;stroke:red;stroke-width:1px;stroke-linecap:butt;stroke-linejoin:miter;stroke-opacity:1" d="M 68.4564,209.946 76.317,239.816 z" id="boundary" inkscape:connector-curvature="0" />
	<path style="fill:none;stroke:red;stroke-width:1px;stroke-linecap:butt;stroke-linejoin:miter;stroke-opacity:1" d="M 76.317,239.816 114.048,283.835 z" id="boundary" inkscape:connector-curvature="0" />
	<path style="fill:none;stroke:red;stroke-width:1px;stroke-linecap:butt;stroke-linejoin:miter;stroke-opacity:1" d="M 82.6054,996 98.3265,996 z" id="boundary" inkscape:connector-curvature="0" />
	<path style="fill:none;stroke:red;stroke-width:1px;stroke-linecap:butt;stroke-linejoin:miter;stroke-opacity:1" d="M 98.3265,996 114.048,996 z" id="boundary" inkscape:connector-curvature="0" />
	<path style="fill:none;stroke:red;stroke-width:1px;stroke-linecap:butt;stroke-linejoin:miter;stroke-opacity:1" d="M 114.048,283.835 129.769,236.672 z" id="boundary" inkscape:connector-curvature="0" />
	<path style="fill:none;stroke:red;stroke-width:1px;stroke-linecap:butt;stroke-linejoin:miter;stroke-opacity:1" d="M 114.048,996 129.769,996 z" id="boundary" inkscape:connector-curvature="0" />
	<path style="fill:none;stroke:red;stroke-width:1px;stroke-linecap:butt;stroke-linejoin:miter;stroke-opacity:1" d="M 129.769,236.672 137.629,213.09 z" id="boundary" inkscape:connector-curvature="0" />
	<path style="fill:none;stroke:red;stroke-width:1px;stroke-linecap:butt;stroke-linejoin:miter;stroke-opacity:1" d="M 129.769,996 145.49,996 z" id="boundary" inkscape:connector-curvature="0" />
	<path style="fill:none;stroke:red;stroke-width:1px;stroke-linecap:butt;stroke-linejoin:miter;stroke-opacity:1" d="M 137.629,165.927 137.629,181.648 z" id="boundary" inkscape:connector-curvature="0" />
	<path style="fill:none;stroke:red;stroke-width:1px;stroke-linecap:butt;stroke-linejoin:miter;stroke-opacity:1" d="M 137.629,165.927 145.49,150.206 z" id="boundary" inkscape:connector-curvature="0" />
	<path style="fill:none;stroke:red;stroke-width:1px;stroke-linecap:butt;stroke-linejoin:miter;stroke-opacity:1" d="M 137.629,181.648 137.629,197.369 z" id="boundary" inkscape:connector-curvature="0" />
	<path style="fill:none;stroke:red;stroke-width:1px;stroke-linecap:butt;stroke-linejoin:miter;stroke-opacity:1" d="M 137.629,197.369 137.629,213.09 z" id="boundary" inkscape:connector-curvature="0" />
	<path style="fill:none;stroke:red;stroke-width:1px;stroke-linecap:butt;stroke-linejoin:miter;stroke-opacity:1" d="M 145.49,134.485 145.49,150.206 z" id="boundary" inkscape:connector-curvature="0" />
	<path style="fill:none;stroke:red;stroke-width:1px;stroke-linecap:butt;stroke-linejoin:miter;stroke-opacity:1" d="M 145.49,134.485 153.35,110.903 z" id="boundary" inkscape:connector-curvature="0" />
	<path style="fill:none;stroke:red;stroke-width:1px;stroke-linecap:butt;stroke-linejoin:miter;stroke-opacity:1" d="M 145.49,996 161.211,996 z" id="boundary" inkscape:connector-curvature="0" />
	<path style="fill:none;stroke:red;stroke-width:1px;stroke-linecap:butt;stroke-linejoin:miter;stroke-opacity:1" d="M 153.35,110.903 165.927,98.3265 z" id="boundary" inkscape:connector-curvature="0" />
	<path style="fill:none;stroke:red;stroke-width:1px;stroke-linecap:butt;stroke-linejoin:miter;stroke-opacity:1" d="M 161.211,996 176.932,996 z" id="boundary" inkscape:connector-curvature="0" />
	<path style="fill:none;stroke:red;stroke-width:1px;stroke-linecap:butt;stroke-linejoin:miter;stroke-opacity:1" d="M 165.927,98.3265 173.788,82.6054 z" id="boundary" inkscape:connector-curvature="0" />
	<path style="fill:none;stroke:red;stroke-width:1px;stroke-linecap:butt;stroke-linejoin:miter;stroke-opacity:1" d="M 173.788,82.6054 187.937,74.7448 z" id="boundary" inkscape:connector-curvature="0" />
	<path style="fill:none;stroke:red;stroke-width:1px;stroke-linecap:butt;stroke-linejoin:miter;stroke-opacity:1" d="M 176.932,996 192.653,996 z" id="boundary" inkscape:connector-curvature="0" />
	<path style="fill:none;stroke:red;stroke-width:1px;stroke-linecap:butt;stroke-linejoin:miter;stroke-opacity:1" d="M 187.937,74.7448 200.513,63.7401 z" id="boundary" inkscape:connector-curvature="0" />
	<path style="fill:none;stroke:red;stroke-width:1px;stroke-linecap:butt;stroke-linejoin:miter;stroke-opacity:1" d="M 192.653,996 208.374,996 z" id="boundary" inkscape:connector-curvature="0" />
	<path style="fill:none;stroke:red;stroke-width:1px;stroke-linecap:butt;stroke-linejoin:miter;stroke-opacity:1" d="M 200.513,63.7401 213.09,51.1632 z" id="boundary" inkscape:connector-curvature="0" />
	<path style="fill:none;stroke:red;stroke-width:1px;stroke-linecap:butt;stroke-linejoin:miter;stroke-opacity:1" d="M 208.374,996 224.095,996 z" id="boundary" inkscape:connector-curvature="0" />
	<path style="fill:none;stroke:red;stroke-width:1px;stroke-linecap:butt;stroke-linejoin:miter;stroke-opacity:1" d="M 213.09,51.1632 230.384,76.317 z" id="boundary" inkscape:connector-curvature="0" />
	<path style="fill:none;stroke:red;stroke-width:1px;stroke-linecap:butt;stroke-linejoin:miter;stroke-opacity:1" d="M 224.095,996 239.816,996 z" id="boundary" inkscape:connector-curvature="0" />
	<path style="fill:none;stroke:red;stroke-width:1px;stroke-linecap:butt;stroke-linejoin:miter;stroke-opacity:1" d="M 230.384,76.317 271.258,63.7401 z" id="boundary" inkscape:connector-curvature="0" />
	<path style="fill:none;stroke:red;stroke-width:1px;stroke-linecap:butt;stroke-linejoin:miter;stroke-opacity:1" d="M 239.816,996 255.537,996 z" id="boundary" inkscape:connector-curvature="0" />
	<path style="fill:none;stroke:red;stroke-width:1px;stroke-linecap:butt;stroke-linejoin:miter;stroke-opacity:1" d="M 255.537,996 271.258,996 z" id="boundary" inkscape:connector-curvature="0" />
	<path style="fill:none;stroke:red;stroke-width:1px;stroke-linecap:butt;stroke-linejoin:miter;stroke-opacity:1" d="M 263.398,150.206 271.258,95.1823 z" id="boundary" inkscape:connector-curvature="0" />
	<path style="fill:none;stroke:red;stroke-width:1px;stroke-linecap:butt;stroke-linejoin:miter;stroke-opacity:1" d="M 263.398,150.206 569.959,397.027 z" id="boundary" inkscape:connector-curvature="0" />
	<path style="fill:none;stroke:red;stroke-width:1px;stroke-linecap:butt;stroke-linejoin:miter;stroke-opacity:1" d="M 271.258,63.7401 271.258,95.1823 z" id="boundary" inkscape:connector-curvature="0" />
	<path style="fill:none;stroke:red;stroke-width:1px;stroke-linecap:butt;stroke-linejoin:miter;stroke-opacity:1" d="M 271.258,996 286.979,996 z" id="boundary" inkscape:connector-curvature="0" />
	<path style="fill:none;stroke:red;stroke-width:1px;stroke-linecap:butt;stroke-linejoin:miter;stroke-opacity:1" d="M 286.979,996 302.7,996 z" id="boundary" inkscape:connector-curvature="0" />
	<path style="fill:none;stroke:red;stroke-width:1px;stroke-linecap:butt;stroke-linejoin:miter;stroke-opacity:1" d="M 294.84,35.4422 304.273,22.8653 z" id="boundary" inkscape:connector-curvature="0" />
	<path style="fill:none;stroke:red;stroke-width:1px;stroke-linecap:butt;stroke-linejoin:miter;stroke-opacity:1" d="M 302.7,996 318.422,996 z" id="boundary" inkscape:connector-curvature="0" />
	<path style="fill:none;stroke:red;stroke-width:1px;stroke-linecap:butt;stroke-linejoin:miter;stroke-opacity:1" d="M 304.273,22.8653 316.849,11.8605 z" id="boundary" inkscape:connector-curvature="0" />
	<path style="fill:none;stroke:red;stroke-width:1px;stroke-linecap:butt;stroke-linejoin:miter;stroke-opacity:1" d="M 316.849,11.8605 330.998,4 z" id="boundary" inkscape:connector-curvature="0" />
	<path style="fill:none;stroke:red;stroke-width:1px;stroke-linecap:butt;stroke-linejoin:miter;stroke-opacity:1" d="M 318.422,996 334.143,996 z" id="boundary" inkscape:connector-curvature="0" />
	<path style="fill:none;stroke:red;stroke-width:1px;stroke-linecap:butt;stroke-linejoin:miter;stroke-opacity:1" d="M 330.998,4 342.003,16.5769 z" id="boundary" inkscape:connector-curvature="0" />
	<path style="fill:none;stroke:red;stroke-width:1px;stroke-linecap:butt;stroke-linejoin:miter;stroke-opacity:1" d="M 334.143,996 349.864,996 z" id="boundary" inkscape:connector-curvature="0" />
	<path style="fill:none;stroke:red;stroke-width:1px;stroke-linecap:butt;stroke-linejoin:miter;stroke-opacity:1" d="M 342.003,16.5769 349.864,30.7258 z" id="boundary" inkscape:connector-curvature="0" />
	<path style="fill:none;stroke:red;stroke-width:1px;stroke-linecap:butt;stroke-linejoin:miter;stroke-opacity:1" d="M 349.864,30.7258 359.296,59.0238 z" id="boundary" inkscape:connector-curvature="0" />
	<path style="fill:none;stroke:red;stroke-width:1px;stroke-linecap:butt;stroke-linejoin:miter;stroke-opacity:1" d="M 349.864,996 365.585,991.284 z" id="boundary" inkscape:connector-curvature="0" />
	<path style="fill:none;stroke:red;stroke-width:1px;stroke-linecap:butt;stroke-linejoin:miter;stroke-opacity:1" d="M 359.296,59.0238 404.887,79.4612 z" id="boundary" inkscape:connector-curvature="0" />
	<path style="fill:none;stroke:red;stroke-width:1px;stroke-linecap:butt;stroke-linejoin:miter;stroke-opacity:1" d="M 365.585,991.284 373.445,975.563 z" id="boundary" inkscape:connector-curvature="0" />
	<path style="fill:none;stroke:red;stroke-width:1px;stroke-linecap:butt;stroke-linejoin:miter;stroke-opacity:1" d="M 373.445,975.563 382.878,956.697 z" id="boundary" inkscape:connector-curvature="0" />
	<path style="fill:none;stroke:red;stroke-width:1px;stroke-linecap:butt;stroke-linejoin:miter;stroke-opacity:1" d="M 382.878,956.697 395.455,945.693 z" id="boundary" inkscape:connector-curvature="0" />
	<path style="fill:none;stroke:red;stroke-width:1px;stroke-linecap:butt;stroke-linejoin:miter;stroke-opacity:1" d="M 395.455,945.693 406.46,933.116 z" id="boundary" inkscape:connector-curvature="0" />
	<path style="fill:none;stroke:red;stroke-width:1px;stroke-linecap:butt;stroke-linejoin:miter;stroke-opacity:1" d="M 404.887,79.4612 458.339,77.8891 z" id="boundary" inkscape:connector-curvature="0" />
	<path style="fill:none;stroke:red;stroke-width:1px;stroke-linecap:butt;stroke-linejoin:miter;stroke-opacity:1" d="M 406.46,933.116 422.181,925.255 z" id="boundary" inkscape:connector-curvature="0" />
	<path style="fill:none;stroke:red;stroke-width:1px;stroke-linecap:butt;stroke-linejoin:miter;stroke-opacity:1" d="M 422.181,925.255 442.618,898.529 z" id="boundary" inkscape:connector-curvature="0" />
	<path style="fill:none;stroke:red;stroke-width:1px;stroke-linecap:butt;stroke-linejoin:miter;stroke-opacity:1" d="M 442.618,898.529 461.483,870.231 z" id="boundary" inkscape:connector-curvature="0" />
	<path style="fill:none;stroke:red;stroke-width:1px;stroke-linecap:butt;stroke-linejoin:miter;stroke-opacity:1" d="M 458.339,77.8891 469.344,107.759 z" id="boundary" inkscape:connector-curvature="0" />
	<path style="fill:none;stroke:red;stroke-width:1px;stroke-linecap:butt;stroke-linejoin:miter;stroke-opacity:1" d="M 461.483,870.231 477.204,838.789 z" id="boundary" inkscape:connector-curvature="0" />
	<path style="fill:none;stroke:red;stroke-width:1px;stroke-linecap:butt;stroke-linejoin:miter;stroke-opacity:1" d="M 469.344,107.759 477.204,154.922 z" id="boundary" inkscape:connector-curvature="0" />
	<path style="fill:none;stroke:red;stroke-width:1px;stroke-linecap:butt;stroke-linejoin:miter;stroke-opacity:1" d="M 477.204,838.789 500.786,807.347 z" id="boundary" inkscape:connector-curvature="0" />
	<path style="fill:none;stroke:red;stroke-width:1px;stroke-linecap:butt;stroke-linejoin:miter;stroke-opacity:1" d="M 500.786,807.347 529.084,764.9 z" id="boundary" inkscape:connector-curvature="0" />
	<path style="fill:none;stroke:red;stroke-width:1px;stroke-linecap:butt;stroke-linejoin:miter;stroke-opacity:1" d="M 529.084,764.9 579.391,610.834 z" id="boundary" inkscape:connector-curvature="0" />
	<path style="fill:none;stroke:red;stroke-width:1px;stroke-linecap:butt;stroke-linejoin:miter;stroke-opacity:1" d="M 569.959,397.027 579.391,610.834 z" id="boundary" inkscape:connector-curvature="0" />
	<circle cx="4" cy="244.532" r="4" fill="#0" id="circle0"/>
	<circle cx="4" cy="260.254" r="4" fill="#0" id="circle1"/>
	<circle cx="4" cy="275.975" r="4" fill="#0" id="circle2"/>
	<circle cx="4" cy="291.696" r="4" fill="#0" id="circle3"/>
	<circle cx="4" cy="307.417" r="4" fill="#0" id="circle4"/>
	<circle cx="4" cy="323.138" r="4" fill="#0" id="circle5"/>
	<circle cx="4" cy="338.859" r="4" fill="#0" id="circle6"/>
	<circle cx="11.8605" cy="353.008" r="4" fill="#0" id="circle7"/>
	<circle cx="11.8605" cy="368.729" r="4" fill="#0" id="circle8"/>
	<circle cx="11.8605" cy="384.45" r="4" fill="#0" id="circle9"/>
	<circle cx="11.8605" cy="400.171" r="4" fill="#0" id="circle10"/>
	<circle cx="16.5769" cy="231.956" r="4" fill="#0" id="circle11"/>
	<circle cx="19.7211" cy="414.32" r="4" fill="#0" id="circle12"/>
	<circle cx="19.7211" cy="430.041" r="4" fill="#0" id="circle13"/>
	<circle cx="24.4374" cy="445.762" r="4" fill="#0" id="circle14"/>
	<circle cx="27.5816" cy="213.09" r="4" fill="#0" id="circle15"/>
	<circle cx="27.5816" cy="461.483" r="4" fill="#0" id="circle16"/>
	<circle cx="27.5816" cy="477.204" r="4" fill="#0" id="circle17"/>
	<circle cx="27.5816" cy="492.926" r="4" fill="#0" id="circle18"/>
	<circle cx="27.5816" cy="508.647" r="4" fill="#0" id="circle19"/>
	<circle cx="27.5816" cy="524.368" r="4" fill="#0" id="circle20"/>
	<circle cx="27.5816" cy="540.089" r="4" fill="#0" id="circle21"/>
	<circle cx="27.5816" cy="555.81" r="4" fill="#0" id="circle22"/>
	<circle cx="27.5816" cy="571.531" r="4" fill="#0" id="circle23"/>
	<circle cx="35.4422" cy="197.369" r="4" fill="#0" id="circle24"/>
	<circle cx="35.4422" cy="585.68" r="4" fill="#0" id="circle25"/>
	<circle cx="35.4422" cy="601.401" r="4" fill="#0" id="circle26"/>
	<circle cx="35.4422" cy="617.122" r="4" fill="#0" id="circle27"/>
	<circle cx="35.4422" cy="632.843" r="4" fill="#0" id="circle28"/>
	<circle cx="35.4422" cy="648.564" r="4" fill="#0" id="circle29"/>
	<circle cx="35.4422" cy="664.285" r="4" fill="#0" id="circle30"/>
	<circle cx="35.4422" cy="680.006" r="4" fill="#0" id="circle31"/>
	<circle cx="35.4422" cy="695.727" r="4" fill="#0" id="circle32"/>
	<circle cx="35.4422" cy="711.448" r="4" fill="#0" id="circle33"/>
	<circle cx="35.4422" cy="727.17" r="4" fill="#0" id="circle34"/>
	<circle cx="35.4422" cy="975.563" r="4" fill="#0" id="circle35"/>
	<circle cx="35.4422" cy="991.284" r="4" fill="#0" id="circle36"/>
	<circle cx="43.3027" cy="741.319" r="4" fill="#0" id="circle37"/>
	<circle cx="43.3027" cy="757.04" r="4" fill="#0" id="circle38"/>
	<circle cx="43.3027" cy="772.761" r="4" fill="#0" id="circle39"/>
	<circle cx="48.019" cy="184.792" r="4" fill="#0" id="circle40"/>
	<circle cx="48.019" cy="962.986" r="4" fill="#0" id="circle41"/>
	<circle cx="51.1632" cy="786.91" r="4" fill="#0" id="circle42"/>
	<circle cx="51.1632" cy="802.631" r="4" fill="#0" id="circle43"/>
	<circle cx="51.1632" cy="996" r="4" fill="#0" id="circle44"/>
	<circle cx="55.8796" cy="947.265" r="4" fill="#0" id="circle45"/>
	<circle cx="59.0238" cy="197.369" r="4" fill="#0" id="circle46"/>
	<circle cx="59.0238" cy="816.78" r="4" fill="#0" id="circle47"/>
	<circle cx="59.0238" cy="832.501" r="4" fill="#0" id="circle48"/>
	<circle cx="66.8843" cy="846.65" r="4" fill="#0" id="circle49"/>
	<circle cx="66.8843" cy="862.371" r="4" fill="#0" id="circle50"/>
	<circle cx="66.8843" cy="878.092" r="4" fill="#0" id="circle51"/>
	<circle cx="66.8843" cy="893.813" r="4" fill="#0" id="circle52"/>
	<circle cx="66.8843" cy="909.534" r="4" fill="#0" id="circle53"/>
	<circle cx="66.8843" cy="925.255" r="4" fill="#0" id="circle54"/>
	<circle cx="66.8843" cy="996" r="4" fill="#0" id="circle55"/>
	<circle cx="68.4564" cy="209.946" r="4" fill="#0" id="circle56"/>
	<circle cx="68.4564" cy="225.667" r="4" fill="#0" id="circle57"/>
	<circle cx="76.317" cy="239.816" r="4" fill="#0" id="circle58"/>
	<circle cx="76.317" cy="255.537" r="4" fill="#0" id="circle59"/>
	<circle cx="76.317" cy="271.258" r="4" fill="#0" id="circle60"/>
	<circle cx="76.317" cy="286.979" r="4" fill="#0" id="circle61"/>
	<circle cx="76.317" cy="302.7" r="4" fill="#0" id="circle62"/>
	<circle cx="76.317" cy="318.422" r="4" fill="#0" id="circle63"/>
	<circle cx="82.6054" cy="996" r="4" fill="#0" id="circle64"/>
	<circle cx="84.1775" cy="332.571" r="4" fill="#0" id="circle65"/>
	<circle cx="84.1775" cy="348.292" r="4" fill="#0" id="circle66"/>
	<circle cx="92.038" cy="362.441" r="4" fill="#0" id="circle67"/>
	<circle cx="92.038" cy="378.162" r="4" fill="#0" id="circle68"/>
	<circle cx="98.3265" cy="393.883" r="4" fill="#0" id="circle69"/>
	<circle cx="98.3265" cy="996" r="4" fill="#0" id="circle70"/>
	<circle cx="99.8986" cy="409.604" r="4" fill="#0" id="circle71"/>
	<circle cx="99.8986" cy="425.325" r="4" fill="#0" id="circle72"/>
	<circle cx="106.187" cy="307.417" r="4" fill="#0" id="circle73"/>
	<circle cx="106.187" cy="323.138" r="4" fill="#0" id="circle74"/>
	<circle cx="106.187" cy="338.859" r="4" fill="#0" id="circle75"/>
	<circle cx="107.759" cy="439.474" r="4" fill="#0" id="circle76"/>
	<circle cx="114.048" cy="283.835" r="4" fill="#0" id="circle77"/>
	<circle cx="114.048" cy="353.008" r="4" fill="#0" id="circle78"/>
	<circle cx="114.048" cy="368.729" r="4" fill="#0" id="circle79"/>
	<circle cx="114.048" cy="384.45" r="4" fill="#0" id="circle80"/>
	<circle cx="114.048" cy="400.171" r="4" fill="#0" id="circle81"/>
	<circle cx="114.048" cy="417.464" r="4" fill="#0" id="circle82"/>
	<circle cx="114.048" cy="996" r="4" fill="#0" id="circle83"/>
	<circle cx="121.908" cy="260.254" r="4" fill="#0" id="circle84"/>
	<circle cx="129.769" cy="236.672" r="4" fill="#0" id="circle85"/>
	<circle cx="129.769" cy="996" r="4" fill="#0" id="circle86"/>
	<circle cx="137.629" cy="165.927" r="4" fill="#0" id="circle87"/>
	<circle cx="137.629" cy="181.648" r="4" fill="#0" id="circle88"/>
	<circle cx="137.629" cy="197.369" r="4" fill="#0" id="circle89"/>
	<circle cx="137.629" cy="213.09" r="4" fill="#0" id="circle90"/>
	<circle cx="145.49" cy="134.485" r="4" fill="#0" id="circle91"/>
	<circle cx="145.49" cy="150.206" r="4" fill="#0" id="circle92"/>
	<circle cx="145.49" cy="996" r="4" fill="#0" id="circle93"/>
	<circle cx="153.35" cy="110.903" r="4" fill="#0" id="circle94"/>
	<circle cx="161.211" cy="996" r="4" fill="#0" id="circle95"/>
	<circle cx="165.927" cy="98.3265" r="4" fill="#0" id="circle96"/>
	<circle cx="173.788" cy="82.6054" r="4" fill="#0" id="circle97"/>
	<circle cx="176.932" cy="996" r="4" fill="#0" id="circle98"/>
	<circle cx="187.937" cy="74.7448" r="4" fill="#0" id="circle99"/>
	<circle cx="192.653" cy="996" r="4" fill="#0" id="circle100"/>
	<circle cx="200.513" cy="63.7401" r="4" fill="#0" id="circle101"/>
	<circle cx="202.086" cy="249.249" r="4" fill="#0" id="circle102"/>
	<circle cx="202.086" cy="264.97" r="4" fill="#0" id="circle103"/>
	<circle cx="202.086" cy="280.691" r="4" fill="#0" id="circle104"/>
	<circle cx="202.086" cy="296.412" r="4" fill="#0" id="circle105"/>
	<circle cx="202.086" cy="312.133" r="4" fill="#0" id="circle106"/>
	<circle cx="202.086" cy="327.854" r="4" fill="#0" id="circle107"/>
	<circle cx="205.23" cy="343.575" r="4" fill="#0" id="circle108"/>
	<circle cx="208.374" cy="996" r="4" fill="#0" id="circle109"/>
	<circle cx="209.946" cy="202.086" r="4" fill="#0" id="circle110"/>
	<circle cx="209.946" cy="217.807" r="4" fill="#0" id="circle111"/>
	<circle cx="209.946" cy="233.528" r="4" fill="#0" id="circle112"/>
	<circle cx="213.09" cy="51.1632" r="4" fill="#0" id="circle113"/>
	<circle cx="213.09" cy="357.724" r="4" fill="#0" id="circle114"/>
	<circle cx="217.807" cy="66.8843" r="4" fill="#0" id="circle115"/>
	<circle cx="217.807" cy="178.504" r="4" fill="#0" id="circle116"/>
	<circle cx="217.807" cy="373.445" r="4" fill="#0" id="circle117"/>
	<circle cx="224.095" cy="996" r="4" fill="#0" id="circle118"/>
	<circle cx="225.667" cy="147.062" r="4" fill="#0" id="circle119"/>
	<circle cx="225.667" cy="162.783" r="4" fill="#0" id="circle120"/>
	<circle cx="228.811" cy="357.724" r="4" fill="#0" id="circle121"/>
	<circle cx="230.384" cy="76.317" r="4" fill="#0" id="circle122"/>
	<circle cx="231.956" cy="244.532" r="4" fill="#0" id="circle123"/>
	<circle cx="231.956" cy="260.254" r="4" fill="#0" id="circle124"/>
	<circle cx="231.956" cy="275.975" r="4" fill="#0" id="circle125"/>
	<circle cx="231.956" cy="291.696" r="4" fill="#0" id="circle126"/>
	<circle cx="231.956" cy="307.417" r="4" fill="#0" id="circle127"/>
	<circle cx="231.956" cy="323.138" r="4" fill="#0" id="circle128"/>
	<circle cx="231.956" cy="338.859" r="4" fill="#0" id="circle129"/>
	<circle cx="233.528" cy="123.48" r="4" fill="#0" id="circle130"/>
	<circle cx="236.672" cy="92.038" r="4" fill="#0" id="circle131"/>
	<circle cx="239.816" cy="213.09" r="4" fill="#0" id="circle132"/>
	<circle cx="239.816" cy="228.811" r="4" fill="#0" id="circle133"/>
	<circle cx="239.816" cy="996" r="4" fill="#0" id="circle134"/>
	<circle cx="241.388" cy="107.759" r="4" fill="#0" id="circle135"/>
	<circle cx="247.677" cy="197.369" r="4" fill="#0" id="circle136"/>
	<circle cx="255.537" cy="173.788" r="4" fill="#0" id="circle137"/>
	<circle cx="255.537" cy="996" r="4" fill="#0" id="circle138"/>
	<circle cx="263.398" cy="134.485" r="4" fill="#0" id="circle139"/>
	<circle cx="263.398" cy="150.206" r="4" fill="#0" id="circle140"/>
	<circle cx="271.258" cy="63.7401" r="4" fill="#0" id="circle141"/>
	<circle cx="271.258" cy="79.4612" r="4" fill="#0" id="circle142"/>
	<circle cx="271.258" cy="95.1823" r="4" fill="#0" id="circle143"/>
	<circle cx="271.258" cy="110.903" r="4" fill="#0" id="circle144"/>
	<circle cx="271.258" cy="996" r="4" fill="#0" id="circle145"/>
	<circle cx="279.119" cy="40.1585" r="4" fill="#0" id="circle146"/>
	<circle cx="286.979" cy="996" r="4" fill="#0" id="circle147"/>
	<circle cx="294.84" cy="35.4422" r="4" fill="#0" id="circle148"/>
	<circle cx="302.7" cy="996" r="4" fill="#0" id="circle149"/>
	<circle cx="304.273" cy="22.8653" r="4" fill="#0" id="circle150"/>
	<circle cx="316.849" cy="11.8605" r="4" fill="#0" id="circle151"/>
	<circle cx="318.422" cy="996" r="4" fill="#0" id="circle152"/>
	<circle cx="327.854" cy="304.273" r="4" fill="#0" id="circle153"/>
	<circle cx="327.854" cy="319.994" r="4" fill="#0" id="circle154"/>
	<circle cx="327.854" cy="335.715" r="4" fill="#0" id="circle155"/>
	<circle cx="327.854" cy="351.436" r="4" fill="#0" id="circle156"/>
	<circle cx="330.998" cy="4" r="4" fill="#0" id="circle157"/>
	<circle cx="330.998" cy="367.157" r="4" fill="#0" id="circle158"/>
	<circle cx="334.143" cy="996" r="4" fill="#0" id="circle159"/>
	<circle cx="335.715" cy="186.365" r="4" fill="#0" id="circle160"/>
	<circle cx="335.715" cy="202.086" r="4" fill="#0" id="circle161"/>
	<circle cx="335.715" cy="217.807" r="4" fill="#0" id="circle162"/>
	<circle cx="335.715" cy="233.528" r="4" fill="#0" id="circle163"/>
	<circle cx="335.715" cy="249.249" r="4" fill="#0" id="circle164"/>
	<circle cx="335.715" cy="264.97" r="4" fill="#0" id="circle165"/>
	<circle cx="335.715" cy="280.691" r="4" fill="#0" id="circle166"/>
	<circle cx="335.715" cy="382.878" r="4" fill="#0" id="circle167"/>
	<circle cx="342.003" cy="16.5769" r="4" fill="#0" id="circle168"/>
	<circle cx="343.575" cy="147.062" r="4" fill="#0" id="circle169"/>
	<circle cx="343.575" cy="162.783" r="4" fill="#0" id="circle170"/>
	<circle cx="348.292" cy="373.445" r="4" fill="#0" id="circle171"/>
	<circle cx="349.864" cy="30.7258" r="4" fill="#0" id="circle172"/>
	<circle cx="349.864" cy="996" r="4" fill="#0" id="circle173"/>
	<circle cx="351.436" cy="92.038" r="4" fill="#0" id="circle174"/>
	<circle cx="351.436" cy="107.759" r="4" fill="#0" id="circle175"/>
	<circle cx="351.436" cy="123.48" r="4" fill="#0" id="circle176"/>
	<circle cx="357.724" cy="330.998" r="4" fill="#0" id="circle177"/>
	<circle cx="357.724" cy="346.719" r="4" fill="#0" id="circle178"/>
	<circle cx="359.296" cy="43.3027" r="4" fill="#0" id="circle179"/>
	<circle cx="359.296" cy="59.0238" r="4" fill="#0" id="circle180"/>
	<circle cx="359.296" cy="74.7448" r="4" fill="#0" id="circle181"/>
	<circle cx="365.585" cy="283.835" r="4" fill="#0" id="circle182"/>
	<circle cx="365.585" cy="299.556" r="4" fill="#0" id="circle183"/>
	<circle cx="365.585" cy="315.277" r="4" fill="#0" id="circle184"/>
	<circle cx="365.585" cy="991.284" r="4" fill="#0" id="circle185"/>
	<circle cx="373.445" cy="236.672" r="4" fill="#0" id="circle186"/>
	<circle cx="373.445" cy="252.393" r="4" fill="#0" id="circle187"/>
	<circle cx="373.445" cy="268.114" r="4" fill="#0" id="circle188"/>
	<circle cx="373.445" cy="975.563" r="4" fill="#0" id="circle189"/>
	<circle cx="381.306" cy="197.369" r="4" fill="#0" id="circle190"/>
	<circle cx="381.306" cy="213.09" r="4" fill="#0" id="circle191"/>
	<circle cx="382.878" cy="956.697" r="4" fill="#0" id="circle192"/>
	<circle cx="389.166" cy="142.345" r="4" fill="#0" id="circle193"/>
	<circle cx="389.166" cy="158.067" r="4" fill="#0" id="circle194"/>
	<circle cx="389.166" cy="173.788" r="4" fill="#0" id="circle195"/>
	<circle cx="395.455" cy="945.693" r="4" fill="#0" id="circle196"/>
	<circle cx="397.027" cy="103.043" r="4" fill="#0" id="circle197"/>
	<circle cx="397.027" cy="118.764" r="4" fill="#0" id="circle198"/>
	<circle cx="404.887" cy="79.4612" r="4" fill="#0" id="circle199"/>
	<circle cx="406.46" cy="933.116" r="4" fill="#0" id="circle200"/>
	<circle cx="420.609" cy="71.6006" r="4" fill="#0" id="circle201"/>
	<circle cx="422.181" cy="925.255" r="4" fill="#0" id="circle202"/>
	<circle cx="434.758" cy="914.25" r="4" fill="#0" id="circle203"/>
	<circle cx="436.33" cy="63.7401" r="4" fill="#0" id="circle204"/>
	<circle cx="442.618" cy="898.529" r="4" fill="#0" id="circle205"/>
	<circle cx="445.762" cy="406.46" r="4" fill="#0" id="circle206"/>
	<circle cx="445.762" cy="422.181" r="4" fill="#0" id="circle207"/>
	<circle cx="445.762" cy="437.902" r="4" fill="#0" id="circle208"/>
	<circle cx="445.762" cy="453.623" r="4" fill="#0" id="circle209"/>
	<circle cx="448.906" cy="469.344" r="4" fill="#0" id="circle210"/>
	<circle cx="452.051" cy="62.168" r="4" fill="#0" id="circle211"/>
	<circle cx="453.623" cy="359.296" r="4" fill="#0" id="circle212"/>
	<circle cx="453.623" cy="375.017" r="4" fill="#0" id="circle213"/>
	<circle cx="453.623" cy="390.739" r="4" fill="#0" id="circle214"/>
	<circle cx="453.623" cy="485.065" r="4" fill="#0" id="circle215"/>
	<circle cx="453.623" cy="500.786" r="4" fill="#0" id="circle216"/>
	<circle cx="453.623" cy="516.507" r="4" fill="#0" id="circle217"/>
	<circle cx="453.623" cy="532.228" r="4" fill="#0" id="circle218"/>
	<circle cx="453.623" cy="885.952" r="4" fill="#0" id="circle219"/>
	<circle cx="456.767" cy="547.949" r="4" fill="#0" id="circle220"/>
	<circle cx="458.339" cy="77.8891" r="4" fill="#0" id="circle221"/>
	<circle cx="461.483" cy="93.6101" r="4" fill="#0" id="circle222"/>
	<circle cx="461.483" cy="288.552" r="4" fill="#0" id="circle223"/>
	<circle cx="461.483" cy="304.273" r="4" fill="#0" id="circle224"/>
	<circle cx="461.483" cy="319.994" r="4" fill="#0" id="circle225"/>
	<circle cx="461.483" cy="335.715" r="4" fill="#0" id="circle226"/>
	<circle cx="461.483" cy="563.67" r="4" fill="#0" id="circle227"/>
	<circle cx="461.483" cy="579.391" r="4" fill="#0" id="circle228"/>
	<circle cx="461.483" cy="595.113" r="4" fill="#0" id="circle229"/>
	<circle cx="461.483" cy="870.231" r="4" fill="#0" id="circle230"/>
	<circle cx="469.344" cy="107.759" r="4" fill="#0" id="circle231"/>
	<circle cx="469.344" cy="194.225" r="4" fill="#0" id="circle232"/>
	<circle cx="469.344" cy="209.946" r="4" fill="#0" id="circle233"/>
	<circle cx="469.344" cy="225.667" r="4" fill="#0" id="circle234"/>
	<circle cx="469.344" cy="241.388" r="4" fill="#0" id="circle235"/>
	<circle cx="469.344" cy="257.109" r="4" fill="#0" id="circle236"/>
	<circle cx="469.344" cy="272.83" r="4" fill="#0" id="circle237"/>
	<circle cx="469.344" cy="609.261" r="4" fill="#0" id="circle238"/>
	<circle cx="469.344" cy="624.983" r="4" fill="#0" id="circle239"/>
	<circle cx="472.488" cy="123.48" r="4" fill="#0" id="circle240"/>
	<circle cx="477.204" cy="139.201" r="4" fill="#0" id="circle241"/>
	<circle cx="477.204" cy="154.922" r="4" fill="#0" id="circle242"/>
	<circle cx="477.204" cy="170.643" r="4" fill="#0" id="circle243"/>
	<circle cx="477.204" cy="838.789" r="4" fill="#0" id="circle244"/>
	<circle cx="477.204" cy="854.51" r="4" fill="#0" id="circle245"/>
	<circle cx="483.493" cy="590.396" r="4" fill="#0" id="circle246"/>
	<circle cx="489.781" cy="827.784" r="4" fill="#0" id="circle247"/>
	<circle cx="491.353" cy="574.675" r="4" fill="#0" id="circle248"/>
	<circle cx="500.786" cy="807.347" r="4" fill="#0" id="circle249"/>
	<circle cx="503.93" cy="562.098" r="4" fill="#0" id="circle250"/>
	<circle cx="507.074" cy="519.651" r="4" fill="#0" id="circle251"/>
	<circle cx="507.074" cy="535.372" r="4" fill="#0" id="circle252"/>
	<circle cx="508.647" cy="791.626" r="4" fill="#0" id="circle253"/>
	<circle cx="514.935" cy="488.209" r="4" fill="#0" id="circle254"/>
	<circle cx="514.935" cy="503.93" r="4" fill="#0" id="circle255"/>
	<circle cx="516.507" cy="775.905" r="4" fill="#0" id="circle256"/>
	<circle cx="522.796" cy="472.488" r="4" fill="#0" id="circle257"/>
	<circle cx="529.084" cy="764.9" r="4" fill="#0" id="circle258"/>
	<circle cx="530.656" cy="456.767" r="4" fill="#0" id="circle259"/>
	<circle cx="538.517" cy="433.185" r="4" fill="#0" id="circle260"/>
	<circle cx="540.089" cy="744.463" r="4" fill="#0" id="circle261"/>
	<circle cx="546.377" cy="417.464" r="4" fill="#0" id="circle262"/>
	<circle cx="552.666" cy="733.458" r="4" fill="#0" id="circle263"/>
	<circle cx="554.238" cy="401.743" r="4" fill="#0" id="circle264"/>
	<circle cx="555.81" cy="713.021" r="4" fill="#0" id="circle265"/>
	<circle cx="563.67" cy="689.439" r="4" fill="#0" id="circle266"/>
	<circle cx="569.959" cy="397.027" r="4" fill="#0" id="circle267"/>
	<circle cx="571.531" cy="634.415" r="4" fill="#0" id="circle268"/>
	<circle cx="571.531" cy="650.136" r="4" fill="#0" id="circle269"/>
	<circle cx="571.531" cy="665.857" r="4" fill="#0" id="circle270"/>
	<circle cx="579.391" cy="610.834" r="4" fill="#0" id="circle271"/>
	<circle cx="585.68" cy="393.883" r="4" fill="#0" id="circle272"/>
	<circle cx="591.968" cy="599.829" r="4" fill="#0" id="circle273"/>
	<circle cx="599.829" cy="584.108" r="4" fill="#0" id="circle274"/>
	<circle cx="601.401" cy="389.166" r="4" fill="#0" id="circle275"/>
	<circle cx="607.689" cy="568.387" r="4" fill="#0" id="circle276"/>
	<circle cx="610.834" cy="401.743" r="4" fill="#0" id="circle277"/>
	<circle cx="610.834" cy="485.065" r="4" fill="#0" id="circle278"/>
	<circle cx="610.834" cy="500.786" r="4" fill="#0" id="circle279"/>
	<circle cx="610.834" cy="516.507" r="4" fill="#0" id="circle280"/>
	<circle cx="610.834" cy="532.228" r="4" fill="#0" id="circle281"/>
	<circle cx="610.834" cy="547.949" r="4" fill="#0" id="circle282"/>
	<circle cx="618.694" cy="415.892" r="4" fill="#0" id="circle283"/>
	<circle cx="618.694" cy="461.483" r="4" fill="#0" id="circle284"/>
	<circle cx="623.41" cy="431.613" r="4" fill="#0" id="circle285"/>
	<circle cx="626.555" cy="447.334" r="4" fill="#0" id="circle286"/>
	</g>
</svg>