<?xml version="1.0" encoding="UTF-8" standalone="no"?>
<!-- Created with CurveBenchmark -->
<svg
	xmlns:dc="http://purl.org/dc/elements/1.1/"
	xmlns:cc="http://creativecommons.org/ns#"
	xmlns:rdf="http://www.w3.org/1999/02/22-rdf-syntax-ns#"
	xmlns:svg="http://www.w3.org/2000/svg"
	xmlns="http://www.w3.org/2000/svg"
	xmlns:sodipodi="http://sodipodi.sourceforge.net/DTD/sodipodi-0.dtd"
	xmlns:inkscape="http://www.inkscape.org/namespaces/inkscape"
	width="1000"
	height="1000"
	id="svg2"
	version="1.1"
	sodipodi:docname="manifold/fitconnect-textbox18.png.txt">
<defs
	id="defs4" />
<metadata
	id="metadata7">
	<rdf:RDF>
		<cc:Work
			rdf:about="">
			<dc:format>image/svg+xml</dc:format>
			<dc:type
				rdf:resource="http://purl.org/dc/dcmitype/StillImage" />
			<dc:title></dc:title>
		</cc:Work>
	</rdf:RDF>
</metadata>
<g
	inkscape:label="Layer 1"
	inkscape:groupmode="layer"
	id="layer1">
	<path style="fill:none;stroke:red;stroke-width:1px;stroke-linecap:butt;stroke-linejoin:miter;stroke-opacity:1" d="M 4,50.4684 4,70.6721 z" id="boundary" inkscape:connector-curvature="0" />
	<path style="fill:none;stroke:red;stroke-width:1px;stroke-linecap:butt;stroke-linejoin:miter;stroke-opacity:1" d="M 4,50.4684 24.2037,44.4073 z" id="boundary" inkscape:connector-curvature="0" />
	<path style="fill:none;stroke:red;stroke-width:1px;stroke-linecap:butt;stroke-linejoin:miter;stroke-opacity:1" d="M 4,70.6721 4,90.8758 z" id="boundary" inkscape:connector-curvature="0" />
	<path style="fill:none;stroke:red;stroke-width:1px;stroke-linecap:butt;stroke-linejoin:miter;stroke-opacity:1" d="M 4,90.8758 16.1222,107.039 z" id="boundary" inkscape:connector-curvature="0" />
	<path style="fill:none;stroke:red;stroke-width:1px;stroke-linecap:butt;stroke-linejoin:miter;stroke-opacity:1" d="M 16.1222,107.039 24.2037,127.242 z" id="boundary" inkscape:connector-curvature="0" />
	<path style="fill:none;stroke:red;stroke-width:1px;stroke-linecap:butt;stroke-linejoin:miter;stroke-opacity:1" d="M 24.2037,44.4073 42.387,34.3055 z" id="boundary" inkscape:connector-curvature="0" />
	<path style="fill:none;stroke:red;stroke-width:1px;stroke-linecap:butt;stroke-linejoin:miter;stroke-opacity:1" d="M 24.2037,127.242 24.2037,147.446 z" id="boundary" inkscape:connector-curvature="0" />
	<path style="fill:none;stroke:red;stroke-width:1px;stroke-linecap:butt;stroke-linejoin:miter;stroke-opacity:1" d="M 24.2037,147.446 24.2037,167.65 z" id="boundary" inkscape:connector-curvature="0" />
	<path style="fill:none;stroke:red;stroke-width:1px;stroke-linecap:butt;stroke-linejoin:miter;stroke-opacity:1" d="M 24.2037,167.65 24.2037,187.853 z" id="boundary" inkscape:connector-curvature="0" />
	<path style="fill:none;stroke:red;stroke-width:1px;stroke-linecap:butt;stroke-linejoin:miter;stroke-opacity:1" d="M 24.2037,187.853 24.2037,208.057 z" id="boundary" inkscape:connector-curvature="0" />
	<path style="fill:none;stroke:red;stroke-width:1px;stroke-linecap:butt;stroke-linejoin:miter;stroke-opacity:1" d="M 24.2037,208.057 24.2037,228.261 z" id="boundary" inkscape:connector-curvature="0" />
	<path style="fill:none;stroke:red;stroke-width:1px;stroke-linecap:butt;stroke-linejoin:miter;stroke-opacity:1" d="M 24.2037,228.261 24.2037,248.464 z" id="boundary" inkscape:connector-curvature="0" />
	<path style="fill:none;stroke:red;stroke-width:1px;stroke-linecap:butt;stroke-linejoin:miter;stroke-opacity:1" d="M 24.2037,248.464 24.2037,268.668 z" id="boundary" inkscape:connector-curvature="0" />
	<path style="fill:none;stroke:red;stroke-width:1px;stroke-linecap:butt;stroke-linejoin:miter;stroke-opacity:1" d="M 24.2037,268.668 24.2037,288.872 z" id="boundary" inkscape:connector-curvature="0" />
	<path style="fill:none;stroke:red;stroke-width:1px;stroke-linecap:butt;stroke-linejoin:miter;stroke-opacity:1" d="M 24.2037,288.872 24.2037,309.075 z" id="boundary" inkscape:connector-curvature="0" />
	<path style="fill:none;stroke:red;stroke-width:1px;stroke-linecap:butt;stroke-linejoin:miter;stroke-opacity:1" d="M 24.2037,309.075 24.2037,329.279 z" id="boundary" inkscape:connector-curvature="0" />
	<path style="fill:none;stroke:red;stroke-width:1px;stroke-linecap:butt;stroke-linejoin:miter;stroke-opacity:1" d="M 24.2037,329.279 24.2037,349.483 z" id="boundary" inkscape:connector-curvature="0" />
	<path style="fill:none;stroke:red;stroke-width:1px;stroke-linecap:butt;stroke-linejoin:miter;stroke-opacity:1" d="M 24.2037,349.483 24.2037,369.686 z" id="boundary" inkscape:connector-curvature="0" />
	<path style="fill:none;stroke:red;stroke-width:1px;stroke-linecap:butt;stroke-linejoin:miter;stroke-opacity:1" d="M 24.2037,369.686 24.2037,389.89 z" id="boundary" inkscape:connector-curvature="0" />
	<path style="fill:none;stroke:red;stroke-width:1px;stroke-linecap:butt;stroke-linejoin:miter;stroke-opacity:1" d="M 24.2037,389.89 24.2037,410.094 z" id="boundary" inkscape:connector-curvature="0" />
	<path style="fill:none;stroke:red;stroke-width:1px;stroke-linecap:butt;stroke-linejoin:miter;stroke-opacity:1" d="M 24.2037,410.094 24.2037,430.297 z" id="boundary" inkscape:connector-curvature="0" />
	<path style="fill:none;stroke:red;stroke-width:1px;stroke-linecap:butt;stroke-linejoin:miter;stroke-opacity:1" d="M 24.2037,430.297 24.2037,450.501 z" id="boundary" inkscape:connector-curvature="0" />
	<path style="fill:none;stroke:red;stroke-width:1px;stroke-linecap:butt;stroke-linejoin:miter;stroke-opacity:1" d="M 24.2037,450.501 24.2037,470.705 z" id="boundary" inkscape:connector-curvature="0" />
	<path style="fill:none;stroke:red;stroke-width:1px;stroke-linecap:butt;stroke-linejoin:miter;stroke-opacity:1" d="M 24.2037,470.705 24.2037,490.908 z" id="boundary" inkscape:connector-curvature="0" />
	<path style="fill:none;stroke:red;stroke-width:1px;stroke-linecap:butt;stroke-linejoin:miter;stroke-opacity:1" d="M 24.2037,490.908 24.2037,511.112 z" id="boundary" inkscape:connector-curvature="0" />
	<path style="fill:none;stroke:red;stroke-width:1px;stroke-linecap:butt;stroke-linejoin:miter;stroke-opacity:1" d="M 24.2037,511.112 24.2037,531.316 z" id="boundary" inkscape:connector-curvature="0" />
	<path style="fill:none;stroke:red;stroke-width:1px;stroke-linecap:butt;stroke-linejoin:miter;stroke-opacity:1" d="M 24.2037,531.316 34.3055,549.499 z" id="boundary" inkscape:connector-curvature="0" />
	<path style="fill:none;stroke:red;stroke-width:1px;stroke-linecap:butt;stroke-linejoin:miter;stroke-opacity:1" d="M 34.3055,549.499 34.3055,569.703 z" id="boundary" inkscape:connector-curvature="0" />
	<path style="fill:none;stroke:red;stroke-width:1px;stroke-linecap:butt;stroke-linejoin:miter;stroke-opacity:1" d="M 34.3055,569.703 34.3055,589.906 z" id="boundary" inkscape:connector-curvature="0" />
	<path style="fill:none;stroke:red;stroke-width:1px;stroke-linecap:butt;stroke-linejoin:miter;stroke-opacity:1" d="M 34.3055,589.906 34.3055,610.11 z" id="boundary" inkscape:connector-curvature="0" />
	<path style="fill:none;stroke:red;stroke-width:1px;stroke-linecap:butt;stroke-linejoin:miter;stroke-opacity:1" d="M 34.3055,610.11 34.3055,630.314 z" id="boundary" inkscape:connector-curvature="0" />
	<path style="fill:none;stroke:red;stroke-width:1px;stroke-linecap:butt;stroke-linejoin:miter;stroke-opacity:1" d="M 34.3055,630.314 50.4684,642.436 z" id="boundary" inkscape:connector-curvature="0" />
	<path style="fill:none;stroke:red;stroke-width:1px;stroke-linecap:butt;stroke-linejoin:miter;stroke-opacity:1" d="M 42.387,34.3055 62.5906,34.3055 z" id="boundary" inkscape:connector-curvature="0" />
	<path style="fill:none;stroke:red;stroke-width:1px;stroke-linecap:butt;stroke-linejoin:miter;stroke-opacity:1" d="M 50.4684,642.436 70.6721,642.436 z" id="boundary" inkscape:connector-curvature="0" />
	<path style="fill:none;stroke:red;stroke-width:1px;stroke-linecap:butt;stroke-linejoin:miter;stroke-opacity:1" d="M 62.5906,34.3055 82.7943,34.3055 z" id="boundary" inkscape:connector-curvature="0" />
	<path style="fill:none;stroke:red;stroke-width:1px;stroke-linecap:butt;stroke-linejoin:miter;stroke-opacity:1" d="M 70.6721,642.436 90.8758,642.436 z" id="boundary" inkscape:connector-curvature="0" />
	<path style="fill:none;stroke:red;stroke-width:1px;stroke-linecap:butt;stroke-linejoin:miter;stroke-opacity:1" d="M 82.7943,34.3055 102.998,34.3055 z" id="boundary" inkscape:connector-curvature="0" />
	<path style="fill:none;stroke:red;stroke-width:1px;stroke-linecap:butt;stroke-linejoin:miter;stroke-opacity:1" d="M 90.8758,642.436 111.079,642.436 z" id="boundary" inkscape:connector-curvature="0" />
	<path style="fill:none;stroke:red;stroke-width:1px;stroke-linecap:butt;stroke-linejoin:miter;stroke-opacity:1" d="M 102.998,34.3055 123.202,34.3055 z" id="boundary" inkscape:connector-curvature="0" />
	<path style="fill:none;stroke:red;stroke-width:1px;stroke-linecap:butt;stroke-linejoin:miter;stroke-opacity:1" d="M 111.079,642.436 131.283,642.436 z" id="boundary" inkscape:connector-curvature="0" />
	<path style="fill:none;stroke:red;stroke-width:1px;stroke-linecap:butt;stroke-linejoin:miter;stroke-opacity:1" d="M 123.202,34.3055 143.405,34.3055 z" id="boundary" inkscape:connector-curvature="0" />
	<path style="fill:none;stroke:red;stroke-width:1px;stroke-linecap:butt;stroke-linejoin:miter;stroke-opacity:1" d="M 131.283,642.436 151.487,640.415 z" id="boundary" inkscape:connector-curvature="0" />
	<path style="fill:none;stroke:red;stroke-width:1px;stroke-linecap:butt;stroke-linejoin:miter;stroke-opacity:1" d="M 143.405,34.3055 163.609,34.3055 z" id="boundary" inkscape:connector-curvature="0" />
	<path style="fill:none;stroke:red;stroke-width:1px;stroke-linecap:butt;stroke-linejoin:miter;stroke-opacity:1" d="M 151.487,640.415 161.589,622.232 z" id="boundary" inkscape:connector-curvature="0" />
	<path style="fill:none;stroke:red;stroke-width:1px;stroke-linecap:butt;stroke-linejoin:miter;stroke-opacity:1" d="M 161.589,622.232 181.792,622.232 z" id="boundary" inkscape:connector-curvature="0" />
	<path style="fill:none;stroke:red;stroke-width:1px;stroke-linecap:butt;stroke-linejoin:miter;stroke-opacity:1" d="M 163.609,34.3055 183.813,34.3055 z" id="boundary" inkscape:connector-curvature="0" />
	<path style="fill:none;stroke:red;stroke-width:1px;stroke-linecap:butt;stroke-linejoin:miter;stroke-opacity:1" d="M 181.792,622.232 201.996,622.232 z" id="boundary" inkscape:connector-curvature="0" />
	<path style="fill:none;stroke:red;stroke-width:1px;stroke-linecap:butt;stroke-linejoin:miter;stroke-opacity:1" d="M 183.813,34.3055 204.016,34.3055 z" id="boundary" inkscape:connector-curvature="0" />
	<path style="fill:none;stroke:red;stroke-width:1px;stroke-linecap:butt;stroke-linejoin:miter;stroke-opacity:1" d="M 201.996,622.232 218.159,636.375 z" id="boundary" inkscape:connector-curvature="0" />
	<path style="fill:none;stroke:red;stroke-width:1px;stroke-linecap:butt;stroke-linejoin:miter;stroke-opacity:1" d="M 204.016,34.3055 224.22,34.3055 z" id="boundary" inkscape:connector-curvature="0" />
	<path style="fill:none;stroke:red;stroke-width:1px;stroke-linecap:butt;stroke-linejoin:miter;stroke-opacity:1" d="M 218.159,636.375 238.363,642.436 z" id="boundary" inkscape:connector-curvature="0" />
	<path style="fill:none;stroke:red;stroke-width:1px;stroke-linecap:butt;stroke-linejoin:miter;stroke-opacity:1" d="M 224.22,34.3055 244.424,34.3055 z" id="boundary" inkscape:connector-curvature="0" />
	<path style="fill:none;stroke:red;stroke-width:1px;stroke-linecap:butt;stroke-linejoin:miter;stroke-opacity:1" d="M 238.363,642.436 256.546,652.538 z" id="boundary" inkscape:connector-curvature="0" />
	<path style="fill:none;stroke:red;stroke-width:1px;stroke-linecap:butt;stroke-linejoin:miter;stroke-opacity:1" d="M 244.424,34.3055 264.627,34.3055 z" id="boundary" inkscape:connector-curvature="0" />
	<path style="fill:none;stroke:red;stroke-width:1px;stroke-linecap:butt;stroke-linejoin:miter;stroke-opacity:1" d="M 256.546,652.538 262.607,672.741 z" id="boundary" inkscape:connector-curvature="0" />
	<path style="fill:none;stroke:red;stroke-width:1px;stroke-linecap:butt;stroke-linejoin:miter;stroke-opacity:1" d="M 262.607,672.741 282.811,672.741 z" id="boundary" inkscape:connector-curvature="0" />
	<path style="fill:none;stroke:red;stroke-width:1px;stroke-linecap:butt;stroke-linejoin:miter;stroke-opacity:1" d="M 264.627,34.3055 284.831,34.3055 z" id="boundary" inkscape:connector-curvature="0" />
	<path style="fill:none;stroke:red;stroke-width:1px;stroke-linecap:butt;stroke-linejoin:miter;stroke-opacity:1" d="M 282.811,672.741 300.994,682.843 z" id="boundary" inkscape:connector-curvature="0" />
	<path style="fill:none;stroke:red;stroke-width:1px;stroke-linecap:butt;stroke-linejoin:miter;stroke-opacity:1" d="M 284.831,34.3055 305.035,34.3055 z" id="boundary" inkscape:connector-curvature="0" />
	<path style="fill:none;stroke:red;stroke-width:1px;stroke-linecap:butt;stroke-linejoin:miter;stroke-opacity:1" d="M 300.994,682.843 311.096,701.026 z" id="boundary" inkscape:connector-curvature="0" />
	<path style="fill:none;stroke:red;stroke-width:1px;stroke-linecap:butt;stroke-linejoin:miter;stroke-opacity:1" d="M 305.035,34.3055 325.238,34.3055 z" id="boundary" inkscape:connector-curvature="0" />
	<path style="fill:none;stroke:red;stroke-width:1px;stroke-linecap:butt;stroke-linejoin:miter;stroke-opacity:1" d="M 311.096,701.026 327.259,713.149 z" id="boundary" inkscape:connector-curvature="0" />
	<path style="fill:none;stroke:red;stroke-width:1px;stroke-linecap:butt;stroke-linejoin:miter;stroke-opacity:1" d="M 325.238,34.3055 345.442,34.3055 z" id="boundary" inkscape:connector-curvature="0" />
	<path style="fill:none;stroke:red;stroke-width:1px;stroke-linecap:butt;stroke-linejoin:miter;stroke-opacity:1" d="M 327.259,713.149 347.462,713.149 z" id="boundary" inkscape:connector-curvature="0" />
	<path style="fill:none;stroke:red;stroke-width:1px;stroke-linecap:butt;stroke-linejoin:miter;stroke-opacity:1" d="M 345.442,34.3055 365.646,34.3055 z" id="boundary" inkscape:connector-curvature="0" />
	<path style="fill:none;stroke:red;stroke-width:1px;stroke-linecap:butt;stroke-linejoin:miter;stroke-opacity:1" d="M 347.462,713.149 353.523,733.352 z" id="boundary" inkscape:connector-curvature="0" />
	<path style="fill:none;stroke:red;stroke-width:1px;stroke-linecap:butt;stroke-linejoin:miter;stroke-opacity:1" d="M 353.523,733.352 371.707,743.454 z" id="boundary" inkscape:connector-curvature="0" />
	<path style="fill:none;stroke:red;stroke-width:1px;stroke-linecap:butt;stroke-linejoin:miter;stroke-opacity:1" d="M 365.646,34.3055 385.849,34.3055 z" id="boundary" inkscape:connector-curvature="0" />
	<path style="fill:none;stroke:red;stroke-width:1px;stroke-linecap:butt;stroke-linejoin:miter;stroke-opacity:1" d="M 371.707,743.454 391.91,749.515 z" id="boundary" inkscape:connector-curvature="0" />
	<path style="fill:none;stroke:red;stroke-width:1px;stroke-linecap:butt;stroke-linejoin:miter;stroke-opacity:1" d="M 385.849,34.3055 406.053,34.3055 z" id="boundary" inkscape:connector-curvature="0" />
	<path style="fill:none;stroke:red;stroke-width:1px;stroke-linecap:butt;stroke-linejoin:miter;stroke-opacity:1" d="M 391.91,749.515 408.073,761.637 z" id="boundary" inkscape:connector-curvature="0" />
	<path style="fill:none;stroke:red;stroke-width:1px;stroke-linecap:butt;stroke-linejoin:miter;stroke-opacity:1" d="M 406.053,34.3055 426.257,34.3055 z" id="boundary" inkscape:connector-curvature="0" />
	<path style="fill:none;stroke:red;stroke-width:1px;stroke-linecap:butt;stroke-linejoin:miter;stroke-opacity:1" d="M 408.073,761.637 424.236,773.76 z" id="boundary" inkscape:connector-curvature="0" />
	<path style="fill:none;stroke:red;stroke-width:1px;stroke-linecap:butt;stroke-linejoin:miter;stroke-opacity:1" d="M 424.236,773.76 444.44,781.841 z" id="boundary" inkscape:connector-curvature="0" />
	<path style="fill:none;stroke:red;stroke-width:1px;stroke-linecap:butt;stroke-linejoin:miter;stroke-opacity:1" d="M 426.257,34.3055 446.46,34.3055 z" id="boundary" inkscape:connector-curvature="0" />
	<path style="fill:none;stroke:red;stroke-width:1px;stroke-linecap:butt;stroke-linejoin:miter;stroke-opacity:1" d="M 444.44,781.841 452.521,802.045 z" id="boundary" inkscape:connector-curvature="0" />
	<path style="fill:none;stroke:red;stroke-width:1px;stroke-linecap:butt;stroke-linejoin:miter;stroke-opacity:1" d="M 446.46,34.3055 466.664,34.3055 z" id="boundary" inkscape:connector-curvature="0" />
	<path style="fill:none;stroke:red;stroke-width:1px;stroke-linecap:butt;stroke-linejoin:miter;stroke-opacity:1" d="M 452.521,802.045 472.725,810.126 z" id="boundary" inkscape:connector-curvature="0" />
	<path style="fill:none;stroke:red;stroke-width:1px;stroke-linecap:butt;stroke-linejoin:miter;stroke-opacity:1" d="M 460.603,640.415 470.705,622.232 z" id="boundary" inkscape:connector-curvature="0" />
	<path style="fill:none;stroke:red;stroke-width:1px;stroke-linecap:butt;stroke-linejoin:miter;stroke-opacity:1" d="M 460.603,640.415 470.705,658.599 z" id="boundary" inkscape:connector-curvature="0" />
	<path style="fill:none;stroke:red;stroke-width:1px;stroke-linecap:butt;stroke-linejoin:miter;stroke-opacity:1" d="M 466.664,34.3055 474.745,14.1018 z" id="boundary" inkscape:connector-curvature="0" />
	<path style="fill:none;stroke:red;stroke-width:1px;stroke-linecap:butt;stroke-linejoin:miter;stroke-opacity:1" d="M 470.705,622.232 490.908,622.232 z" id="boundary" inkscape:connector-curvature="0" />
	<path style="fill:none;stroke:red;stroke-width:1px;stroke-linecap:butt;stroke-linejoin:miter;stroke-opacity:1" d="M 470.705,658.599 470.705,678.802 z" id="boundary" inkscape:connector-curvature="0" />
	<path style="fill:none;stroke:red;stroke-width:1px;stroke-linecap:butt;stroke-linejoin:miter;stroke-opacity:1" d="M 470.705,678.802 470.705,699.006 z" id="boundary" inkscape:connector-curvature="0" />
	<path style="fill:none;stroke:red;stroke-width:1px;stroke-linecap:butt;stroke-linejoin:miter;stroke-opacity:1" d="M 470.705,699.006 480.807,717.189 z" id="boundary" inkscape:connector-curvature="0" />
	<path style="fill:none;stroke:red;stroke-width:1px;stroke-linecap:butt;stroke-linejoin:miter;stroke-opacity:1" d="M 472.725,810.126 492.929,814.167 z" id="boundary" inkscape:connector-curvature="0" />
	<path style="fill:none;stroke:red;stroke-width:1px;stroke-linecap:butt;stroke-linejoin:miter;stroke-opacity:1" d="M 474.745,14.1018 494.949,14.1018 z" id="boundary" inkscape:connector-curvature="0" />
	<path style="fill:none;stroke:red;stroke-width:1px;stroke-linecap:butt;stroke-linejoin:miter;stroke-opacity:1" d="M 480.807,717.189 494.949,733.352 z" id="boundary" inkscape:connector-curvature="0" />
	<path style="fill:none;stroke:red;stroke-width:1px;stroke-linecap:butt;stroke-linejoin:miter;stroke-opacity:1" d="M 490.908,622.232 511.112,622.232 z" id="boundary" inkscape:connector-curvature="0" />
	<path style="fill:none;stroke:red;stroke-width:1px;stroke-linecap:butt;stroke-linejoin:miter;stroke-opacity:1" d="M 492.929,814.167 503.031,832.35 z" id="boundary" inkscape:connector-curvature="0" />
	<path style="fill:none;stroke:red;stroke-width:1px;stroke-linecap:butt;stroke-linejoin:miter;stroke-opacity:1" d="M 494.949,14.1018 515.153,14.1018 z" id="boundary" inkscape:connector-curvature="0" />
	<path style="fill:none;stroke:red;stroke-width:1px;stroke-linecap:butt;stroke-linejoin:miter;stroke-opacity:1" d="M 494.949,733.352 501.01,753.556 z" id="boundary" inkscape:connector-curvature="0" />
	<path style="fill:none;stroke:red;stroke-width:1px;stroke-linecap:butt;stroke-linejoin:miter;stroke-opacity:1" d="M 501.01,753.556 501.01,773.76 z" id="boundary" inkscape:connector-curvature="0" />
	<path style="fill:none;stroke:red;stroke-width:1px;stroke-linecap:butt;stroke-linejoin:miter;stroke-opacity:1" d="M 501.01,773.76 511.112,791.943 z" id="boundary" inkscape:connector-curvature="0" />
	<path style="fill:none;stroke:red;stroke-width:1px;stroke-linecap:butt;stroke-linejoin:miter;stroke-opacity:1" d="M 503.031,832.35 511.112,791.943 z" id="boundary" inkscape:connector-curvature="0" />
	<path style="fill:none;stroke:red;stroke-width:1px;stroke-linecap:butt;stroke-linejoin:miter;stroke-opacity:1" d="M 511.112,622.232 531.316,622.232 z" id="boundary" inkscape:connector-curvature="0" />
	<path style="fill:none;stroke:red;stroke-width:1px;stroke-linecap:butt;stroke-linejoin:miter;stroke-opacity:1" d="M 515.153,14.1018 535.356,14.1018 z" id="boundary" inkscape:connector-curvature="0" />
	<path style="fill:none;stroke:red;stroke-width:1px;stroke-linecap:butt;stroke-linejoin:miter;stroke-opacity:1" d="M 531.316,622.232 551.519,622.232 z" id="boundary" inkscape:connector-curvature="0" />
	<path style="fill:none;stroke:red;stroke-width:1px;stroke-linecap:butt;stroke-linejoin:miter;stroke-opacity:1" d="M 535.356,14.1018 555.56,14.1018 z" id="boundary" inkscape:connector-curvature="0" />
	<path style="fill:none;stroke:red;stroke-width:1px;stroke-linecap:butt;stroke-linejoin:miter;stroke-opacity:1" d="M 551.519,622.232 571.723,622.232 z" id="boundary" inkscape:connector-curvature="0" />
	<path style="fill:none;stroke:red;stroke-width:1px;stroke-linecap:butt;stroke-linejoin:miter;stroke-opacity:1" d="M 555.56,14.1018 575.764,14.1018 z" id="boundary" inkscape:connector-curvature="0" />
	<path style="fill:none;stroke:red;stroke-width:1px;stroke-linecap:butt;stroke-linejoin:miter;stroke-opacity:1" d="M 571.723,622.232 589.906,612.13 z" id="boundary" inkscape:connector-curvature="0" />
	<path style="fill:none;stroke:red;stroke-width:1px;stroke-linecap:butt;stroke-linejoin:miter;stroke-opacity:1" d="M 575.764,14.1018 595.967,14.1018 z" id="boundary" inkscape:connector-curvature="0" />
	<path style="fill:none;stroke:red;stroke-width:1px;stroke-linecap:butt;stroke-linejoin:miter;stroke-opacity:1" d="M 589.906,612.13 610.11,612.13 z" id="boundary" inkscape:connector-curvature="0" />
	<path style="fill:none;stroke:red;stroke-width:1px;stroke-linecap:butt;stroke-linejoin:miter;stroke-opacity:1" d="M 595.967,14.1018 616.171,14.1018 z" id="boundary" inkscape:connector-curvature="0" />
	<path style="fill:none;stroke:red;stroke-width:1px;stroke-linecap:butt;stroke-linejoin:miter;stroke-opacity:1" d="M 610.11,612.13 630.314,612.13 z" id="boundary" inkscape:connector-curvature="0" />
	<path style="fill:none;stroke:red;stroke-width:1px;stroke-linecap:butt;stroke-linejoin:miter;stroke-opacity:1" d="M 616.171,14.1018 636.375,14.1018 z" id="boundary" inkscape:connector-curvature="0" />
	<path style="fill:none;stroke:red;stroke-width:1px;stroke-linecap:butt;stroke-linejoin:miter;stroke-opacity:1" d="M 630.314,612.13 650.517,612.13 z" id="boundary" inkscape:connector-curvature="0" />
	<path style="fill:none;stroke:red;stroke-width:1px;stroke-linecap:butt;stroke-linejoin:miter;stroke-opacity:1" d="M 636.375,14.1018 656.578,14.1018 z" id="boundary" inkscape:connector-curvature="0" />
	<path style="fill:none;stroke:red;stroke-width:1px;stroke-linecap:butt;stroke-linejoin:miter;stroke-opacity:1" d="M 650.517,612.13 670.721,612.13 z" id="boundary" inkscape:connector-curvature="0" />
	<path style="fill:none;stroke:red;stroke-width:1px;stroke-linecap:butt;stroke-linejoin:miter;stroke-opacity:1" d="M 656.578,14.1018 676.782,14.1018 z" id="boundary" inkscape:connector-curvature="0" />
	<path style="fill:none;stroke:red;stroke-width:1px;stroke-linecap:butt;stroke-linejoin:miter;stroke-opacity:1" d="M 670.721,612.13 690.925,612.13 z" id="boundary" inkscape:connector-curvature="0" />
	<path style="fill:none;stroke:red;stroke-width:1px;stroke-linecap:butt;stroke-linejoin:miter;stroke-opacity:1" d="M 676.782,14.1018 696.986,14.1018 z" id="boundary" inkscape:connector-curvature="0" />
	<path style="fill:none;stroke:red;stroke-width:1px;stroke-linecap:butt;stroke-linejoin:miter;stroke-opacity:1" d="M 690.925,612.13 711.128,612.13 z" id="boundary" inkscape:connector-curvature="0" />
	<path style="fill:none;stroke:red;stroke-width:1px;stroke-linecap:butt;stroke-linejoin:miter;stroke-opacity:1" d="M 696.986,14.1018 717.189,14.1018 z" id="boundary" inkscape:connector-curvature="0" />
	<path style="fill:none;stroke:red;stroke-width:1px;stroke-linecap:butt;stroke-linejoin:miter;stroke-opacity:1" d="M 711.128,612.13 731.332,612.13 z" id="boundary" inkscape:connector-curvature="0" />
	<path style="fill:none;stroke:red;stroke-width:1px;stroke-linecap:butt;stroke-linejoin:miter;stroke-opacity:1" d="M 717.189,14.1018 737.393,14.1018 z" id="boundary" inkscape:connector-curvature="0" />
	<path style="fill:none;stroke:red;stroke-width:1px;stroke-linecap:butt;stroke-linejoin:miter;stroke-opacity:1" d="M 731.332,612.13 751.536,612.13 z" id="boundary" inkscape:connector-curvature="0" />
	<path style="fill:none;stroke:red;stroke-width:1px;stroke-linecap:butt;stroke-linejoin:miter;stroke-opacity:1" d="M 737.393,14.1018 757.597,14.1018 z" id="boundary" inkscape:connector-curvature="0" />
	<path style="fill:none;stroke:red;stroke-width:1px;stroke-linecap:butt;stroke-linejoin:miter;stroke-opacity:1" d="M 751.536,612.13 771.739,612.13 z" id="boundary" inkscape:connector-curvature="0" />
	<path style="fill:none;stroke:red;stroke-width:1px;stroke-linecap:butt;stroke-linejoin:miter;stroke-opacity:1" d="M 757.597,14.1018 777.8,14.1018 z" id="boundary" inkscape:connector-curvature="0" />
	<path style="fill:none;stroke:red;stroke-width:1px;stroke-linecap:butt;stroke-linejoin:miter;stroke-opacity:1" d="M 771.739,612.13 791.943,612.13 z" id="boundary" inkscape:connector-curvature="0" />
	<path style="fill:none;stroke:red;stroke-width:1px;stroke-linecap:butt;stroke-linejoin:miter;stroke-opacity:1" d="M 777.8,14.1018 798.004,14.1018 z" id="boundary" inkscape:connector-curvature="0" />
	<path style="fill:none;stroke:red;stroke-width:1px;stroke-linecap:butt;stroke-linejoin:miter;stroke-opacity:1" d="M 791.943,612.13 812.147,612.13 z" id="boundary" inkscape:connector-curvature="0" />
	<path style="fill:none;stroke:red;stroke-width:1px;stroke-linecap:butt;stroke-linejoin:miter;stroke-opacity:1" d="M 798.004,14.1018 818.208,14.1018 z" id="boundary" inkscape:connector-curvature="0" />
	<path style="fill:none;stroke:red;stroke-width:1px;stroke-linecap:butt;stroke-linejoin:miter;stroke-opacity:1" d="M 812.147,612.13 832.35,612.13 z" id="boundary" inkscape:connector-curvature="0" />
	<path style="fill:none;stroke:red;stroke-width:1px;stroke-linecap:butt;stroke-linejoin:miter;stroke-opacity:1" d="M 818.208,14.1018 838.411,14.1018 z" id="boundary" inkscape:connector-curvature="0" />
	<path style="fill:none;stroke:red;stroke-width:1px;stroke-linecap:butt;stroke-linejoin:miter;stroke-opacity:1" d="M 832.35,612.13 852.554,612.13 z" id="boundary" inkscape:connector-curvature="0" />
	<path style="fill:none;stroke:red;stroke-width:1px;stroke-linecap:butt;stroke-linejoin:miter;stroke-opacity:1" d="M 838.411,14.1018 858.615,14.1018 z" id="boundary" inkscape:connector-curvature="0" />
	<path style="fill:none;stroke:red;stroke-width:1px;stroke-linecap:butt;stroke-linejoin:miter;stroke-opacity:1" d="M 852.554,612.13 872.758,612.13 z" id="boundary" inkscape:connector-curvature="0" />
	<path style="fill:none;stroke:red;stroke-width:1px;stroke-linecap:butt;stroke-linejoin:miter;stroke-opacity:1" d="M 858.615,14.1018 878.819,4 z" id="boundary" inkscape:connector-curvature="0" />
	<path style="fill:none;stroke:red;stroke-width:1px;stroke-linecap:butt;stroke-linejoin:miter;stroke-opacity:1" d="M 872.758,612.13 892.961,612.13 z" id="boundary" inkscape:connector-curvature="0" />
	<path style="fill:none;stroke:red;stroke-width:1px;stroke-linecap:butt;stroke-linejoin:miter;stroke-opacity:1" d="M 878.819,4 899.022,4 z" id="boundary" inkscape:connector-curvature="0" />
	<path style="fill:none;stroke:red;stroke-width:1px;stroke-linecap:butt;stroke-linejoin:miter;stroke-opacity:1" d="M 892.961,612.13 913.165,612.13 z" id="boundary" inkscape:connector-curvature="0" />
	<path style="fill:none;stroke:red;stroke-width:1px;stroke-linecap:butt;stroke-linejoin:miter;stroke-opacity:1" d="M 899.022,4 919.226,4 z" id="boundary" inkscape:connector-curvature="0" />
	<path style="fill:none;stroke:red;stroke-width:1px;stroke-linecap:butt;stroke-linejoin:miter;stroke-opacity:1" d="M 913.165,612.13 933.369,612.13 z" id="boundary" inkscape:connector-curvature="0" />
	<path style="fill:none;stroke:red;stroke-width:1px;stroke-linecap:butt;stroke-linejoin:miter;stroke-opacity:1" d="M 919.226,4 939.43,4 z" id="boundary" inkscape:connector-curvature="0" />
	<path style="fill:none;stroke:red;stroke-width:1px;stroke-linecap:butt;stroke-linejoin:miter;stroke-opacity:1" d="M 933.369,612.13 953.572,612.13 z" id="boundary" inkscape:connector-curvature="0" />
	<path style="fill:none;stroke:red;stroke-width:1px;stroke-linecap:butt;stroke-linejoin:miter;stroke-opacity:1" d="M 939.43,4 959.633,4 z" id="boundary" inkscape:connector-curvature="0" />
	<path style="fill:none;stroke:red;stroke-width:1px;stroke-linecap:butt;stroke-linejoin:miter;stroke-opacity:1" d="M 953.572,612.13 973.776,612.13 z" id="boundary" inkscape:connector-curvature="0" />
	<path style="fill:none;stroke:red;stroke-width:1px;stroke-linecap:butt;stroke-linejoin:miter;stroke-opacity:1" d="M 959.633,4 977.817,14.1018 z" id="boundary" inkscape:connector-curvature="0" />
	<path style="fill:none;stroke:red;stroke-width:1px;stroke-linecap:butt;stroke-linejoin:miter;stroke-opacity:1" d="M 973.776,612.13 985.898,591.927 z" id="boundary" inkscape:connector-curvature="0" />
	<path style="fill:none;stroke:red;stroke-width:1px;stroke-linecap:butt;stroke-linejoin:miter;stroke-opacity:1" d="M 977.817,14.1018 985.898,34.3055 z" id="boundary" inkscape:connector-curvature="0" />
	<path style="fill:none;stroke:red;stroke-width:1px;stroke-linecap:butt;stroke-linejoin:miter;stroke-opacity:1" d="M 985.898,34.3055 985.898,54.5092 z" id="boundary" inkscape:connector-curvature="0" />
	<path style="fill:none;stroke:red;stroke-width:1px;stroke-linecap:butt;stroke-linejoin:miter;stroke-opacity:1" d="M 985.898,54.5092 985.898,74.7128 z" id="boundary" inkscape:connector-curvature="0" />
	<path style="fill:none;stroke:red;stroke-width:1px;stroke-linecap:butt;stroke-linejoin:miter;stroke-opacity:1" d="M 985.898,74.7128 985.898,94.9165 z" id="boundary" inkscape:connector-curvature="0" />
	<path style="fill:none;stroke:red;stroke-width:1px;stroke-linecap:butt;stroke-linejoin:miter;stroke-opacity:1" d="M 985.898,94.9165 985.898,115.12 z" id="boundary" inkscape:connector-curvature="0" />
	<path style="fill:none;stroke:red;stroke-width:1px;stroke-linecap:butt;stroke-linejoin:miter;stroke-opacity:1" d="M 985.898,115.12 985.898,135.324 z" id="boundary" inkscape:connector-curvature="0" />
	<path style="fill:none;stroke:red;stroke-width:1px;stroke-linecap:butt;stroke-linejoin:miter;stroke-opacity:1" d="M 985.898,135.324 985.898,155.527 z" id="boundary" inkscape:connector-curvature="0" />
	<path style="fill:none;stroke:red;stroke-width:1px;stroke-linecap:butt;stroke-linejoin:miter;stroke-opacity:1" d="M 985.898,155.527 985.898,175.731 z" id="boundary" inkscape:connector-curvature="0" />
	<path style="fill:none;stroke:red;stroke-width:1px;stroke-linecap:butt;stroke-linejoin:miter;stroke-opacity:1" d="M 985.898,175.731 985.898,195.935 z" id="boundary" inkscape:connector-curvature="0" />
	<path style="fill:none;stroke:red;stroke-width:1px;stroke-linecap:butt;stroke-linejoin:miter;stroke-opacity:1" d="M 985.898,195.935 985.898,216.138 z" id="boundary" inkscape:connector-curvature="0" />
	<path style="fill:none;stroke:red;stroke-width:1px;stroke-linecap:butt;stroke-linejoin:miter;stroke-opacity:1" d="M 985.898,216.138 985.898,236.342 z" id="boundary" inkscape:connector-curvature="0" />
	<path style="fill:none;stroke:red;stroke-width:1px;stroke-linecap:butt;stroke-linejoin:miter;stroke-opacity:1" d="M 985.898,236.342 985.898,256.546 z" id="boundary" inkscape:connector-curvature="0" />
	<path style="fill:none;stroke:red;stroke-width:1px;stroke-linecap:butt;stroke-linejoin:miter;stroke-opacity:1" d="M 985.898,256.546 985.898,276.749 z" id="boundary" inkscape:connector-curvature="0" />
	<path style="fill:none;stroke:red;stroke-width:1px;stroke-linecap:butt;stroke-linejoin:miter;stroke-opacity:1" d="M 985.898,276.749 985.898,296.953 z" id="boundary" inkscape:connector-curvature="0" />
	<path style="fill:none;stroke:red;stroke-width:1px;stroke-linecap:butt;stroke-linejoin:miter;stroke-opacity:1" d="M 985.898,296.953 985.898,317.157 z" id="boundary" inkscape:connector-curvature="0" />
	<path style="fill:none;stroke:red;stroke-width:1px;stroke-linecap:butt;stroke-linejoin:miter;stroke-opacity:1" d="M 985.898,317.157 985.898,337.36 z" id="boundary" inkscape:connector-curvature="0" />
	<path style="fill:none;stroke:red;stroke-width:1px;stroke-linecap:butt;stroke-linejoin:miter;stroke-opacity:1" d="M 985.898,337.36 985.898,357.564 z" id="boundary" inkscape:connector-curvature="0" />
	<path style="fill:none;stroke:red;stroke-width:1px;stroke-linecap:butt;stroke-linejoin:miter;stroke-opacity:1" d="M 985.898,357.564 985.898,377.768 z" id="boundary" inkscape:connector-curvature="0" />
	<path style="fill:none;stroke:red;stroke-width:1px;stroke-linecap:butt;stroke-linejoin:miter;stroke-opacity:1" d="M 985.898,377.768 985.898,397.971 z" id="boundary" inkscape:connector-curvature="0" />
	<path style="fill:none;stroke:red;stroke-width:1px;stroke-linecap:butt;stroke-linejoin:miter;stroke-opacity:1" d="M 985.898,397.971 985.898,418.175 z" id="boundary" inkscape:connector-curvature="0" />
	<path style="fill:none;stroke:red;stroke-width:1px;stroke-linecap:butt;stroke-linejoin:miter;stroke-opacity:1" d="M 985.898,418.175 996,436.358 z" id="boundary" inkscape:connector-curvature="0" />
	<path style="fill:none;stroke:red;stroke-width:1px;stroke-linecap:butt;stroke-linejoin:miter;stroke-opacity:1" d="M 985.898,591.927 996,557.58 z" id="boundary" inkscape:connector-curvature="0" />
	<path style="fill:none;stroke:red;stroke-width:1px;stroke-linecap:butt;stroke-linejoin:miter;stroke-opacity:1" d="M 996,436.358 996,456.562 z" id="boundary" inkscape:connector-curvature="0" />
	<path style="fill:none;stroke:red;stroke-width:1px;stroke-linecap:butt;stroke-linejoin:miter;stroke-opacity:1" d="M 996,456.562 996,476.766 z" id="boundary" inkscape:connector-curvature="0" />
	<path style="fill:none;stroke:red;stroke-width:1px;stroke-linecap:butt;stroke-linejoin:miter;stroke-opacity:1" d="M 996,476.766 996,496.969 z" id="boundary" inkscape:connector-curvature="0" />
	<path style="fill:none;stroke:red;stroke-width:1px;stroke-linecap:butt;stroke-linejoin:miter;stroke-opacity:1" d="M 996,496.969 996,517.173 z" id="boundary" inkscape:connector-curvature="0" />
	<path style="fill:none;stroke:red;stroke-width:1px;stroke-linecap:butt;stroke-linejoin:miter;stroke-opacity:1" d="M 996,517.173 996,537.377 z" id="boundary" inkscape:connector-curvature="0" />
	<path style="fill:none;stroke:red;stroke-width:1px;stroke-linecap:butt;stroke-linejoin:miter;stroke-opacity:1" d="M 996,537.377 996,557.58 z" id="boundary" inkscape:connector-curvature="0" />
	<circle cx="4" cy="50.4684" r="4" fill="#0" id="circle0"/>
	<circle cx="4" cy="70.6721" r="4" fill="#0" id="circle1"/>
	<circle cx="4" cy="90.8758" r="4" fill="#0" id="circle2"/>
	<circle cx="16.1222" cy="107.039" r="4" fill="#0" id="circle3"/>
	<circle cx="24.2037" cy="44.4073" r="4" fill="#0" id="circle4"/>
	<circle cx="24.2037" cy="127.242" r="4" fill="#0" id="circle5"/>
	<circle cx="24.2037" cy="147.446" r="4" fill="#0" id="circle6"/>
	<circle cx="24.2037" cy="167.65" r="4" fill="#0" id="circle7"/>
	<circle cx="24.2037" cy="187.853" r="4" fill="#0" id="circle8"/>
	<circle cx="24.2037" cy="208.057" r="4" fill="#0" id="circle9"/>
	<circle cx="24.2037" cy="228.261" r="4" fill="#0" id="circle10"/>
	<circle cx="24.2037" cy="248.464" r="4" fill="#0" id="circle11"/>
	<circle cx="24.2037" cy="268.668" r="4" fill="#0" id="circle12"/>
	<circle cx="24.2037" cy="288.872" r="4" fill="#0" id="circle13"/>
	<circle cx="24.2037" cy="309.075" r="4" fill="#0" id="circle14"/>
	<circle cx="24.2037" cy="329.279" r="4" fill="#0" id="circle15"/>
	<circle cx="24.2037" cy="349.483" r="4" fill="#0" id="circle16"/>
	<circle cx="24.2037" cy="369.686" r="4" fill="#0" id="circle17"/>
	<circle cx="24.2037" cy="389.89" r="4" fill="#0" id="circle18"/>
	<circle cx="24.2037" cy="410.094" r="4" fill="#0" id="circle19"/>
	<circle cx="24.2037" cy="430.297" r="4" fill="#0" id="circle20"/>
	<circle cx="24.2037" cy="450.501" r="4" fill="#0" id="circle21"/>
	<circle cx="24.2037" cy="470.705" r="4" fill="#0" id="circle22"/>
	<circle cx="24.2037" cy="490.908" r="4" fill="#0" id="circle23"/>
	<circle cx="24.2037" cy="511.112" r="4" fill="#0" id="circle24"/>
	<circle cx="24.2037" cy="531.316" r="4" fill="#0" id="circle25"/>
	<circle cx="34.3055" cy="549.499" r="4" fill="#0" id="circle26"/>
	<circle cx="34.3055" cy="569.703" r="4" fill="#0" id="circle27"/>
	<circle cx="34.3055" cy="589.906" r="4" fill="#0" id="circle28"/>
	<circle cx="34.3055" cy="610.11" r="4" fill="#0" id="circle29"/>
	<circle cx="34.3055" cy="630.314" r="4" fill="#0" id="circle30"/>
	<circle cx="42.387" cy="34.3055" r="4" fill="#0" id="circle31"/>
	<circle cx="50.4684" cy="642.436" r="4" fill="#0" id="circle32"/>
	<circle cx="62.5906" cy="34.3055" r="4" fill="#0" id="circle33"/>
	<circle cx="70.6721" cy="642.436" r="4" fill="#0" id="circle34"/>
	<circle cx="82.7943" cy="34.3055" r="4" fill="#0" id="circle35"/>
	<circle cx="90.8758" cy="642.436" r="4" fill="#0" id="circle36"/>
	<circle cx="102.998" cy="34.3055" r="4" fill="#0" id="circle37"/>
	<circle cx="111.079" cy="642.436" r="4" fill="#0" id="circle38"/>
	<circle cx="123.202" cy="34.3055" r="4" fill="#0" id="circle39"/>
	<circle cx="131.283" cy="642.436" r="4" fill="#0" id="circle40"/>
	<circle cx="143.405" cy="34.3055" r="4" fill="#0" id="circle41"/>
	<circle cx="151.487" cy="640.415" r="4" fill="#0" id="circle42"/>
	<circle cx="161.589" cy="622.232" r="4" fill="#0" id="circle43"/>
	<circle cx="163.609" cy="34.3055" r="4" fill="#0" id="circle44"/>
	<circle cx="181.792" cy="622.232" r="4" fill="#0" id="circle45"/>
	<circle cx="183.813" cy="34.3055" r="4" fill="#0" id="circle46"/>
	<circle cx="201.996" cy="622.232" r="4" fill="#0" id="circle47"/>
	<circle cx="204.016" cy="34.3055" r="4" fill="#0" id="circle48"/>
	<circle cx="218.159" cy="636.375" r="4" fill="#0" id="circle49"/>
	<circle cx="224.22" cy="34.3055" r="4" fill="#0" id="circle50"/>
	<circle cx="238.363" cy="642.436" r="4" fill="#0" id="circle51"/>
	<circle cx="244.424" cy="34.3055" r="4" fill="#0" id="circle52"/>
	<circle cx="256.546" cy="652.538" r="4" fill="#0" id="circle53"/>
	<circle cx="262.607" cy="672.741" r="4" fill="#0" id="circle54"/>
	<circle cx="264.627" cy="34.3055" r="4" fill="#0" id="circle55"/>
	<circle cx="282.811" cy="672.741" r="4" fill="#0" id="circle56"/>
	<circle cx="284.831" cy="34.3055" r="4" fill="#0" id="circle57"/>
	<circle cx="300.994" cy="682.843" r="4" fill="#0" id="circle58"/>
	<circle cx="305.035" cy="34.3055" r="4" fill="#0" id="circle59"/>
	<circle cx="311.096" cy="701.026" r="4" fill="#0" id="circle60"/>
	<circle cx="325.238" cy="34.3055" r="4" fill="#0" id="circle61"/>
	<circle cx="327.259" cy="713.149" r="4" fill="#0" id="circle62"/>
	<circle cx="345.442" cy="34.3055" r="4" fill="#0" id="circle63"/>
	<circle cx="347.462" cy="713.149" r="4" fill="#0" id="circle64"/>
	<circle cx="353.523" cy="733.352" r="4" fill="#0" id="circle65"/>
	<circle cx="365.646" cy="34.3055" r="4" fill="#0" id="circle66"/>
	<circle cx="371.707" cy="743.454" r="4" fill="#0" id="circle67"/>
	<circle cx="385.849" cy="34.3055" r="4" fill="#0" id="circle68"/>
	<circle cx="391.91" cy="749.515" r="4" fill="#0" id="circle69"/>
	<circle cx="406.053" cy="34.3055" r="4" fill="#0" id="circle70"/>
	<circle cx="408.073" cy="761.637" r="4" fill="#0" id="circle71"/>
	<circle cx="424.236" cy="773.76" r="4" fill="#0" id="circle72"/>
	<circle cx="426.257" cy="34.3055" r="4" fill="#0" id="circle73"/>
	<circle cx="444.44" cy="781.841" r="4" fill="#0" id="circle74"/>
	<circle cx="446.46" cy="34.3055" r="4" fill="#0" id="circle75"/>
	<circle cx="450.501" cy="622.232" r="4" fill="#0" id="circle76"/>
	<circle cx="452.521" cy="802.045" r="4" fill="#0" id="circle77"/>
	<circle cx="460.603" cy="640.415" r="4" fill="#0" id="circle78"/>
	<circle cx="466.664" cy="34.3055" r="4" fill="#0" id="circle79"/>
	<circle cx="470.705" cy="622.232" r="4" fill="#0" id="circle80"/>
	<circle cx="470.705" cy="658.599" r="4" fill="#0" id="circle81"/>
	<circle cx="470.705" cy="678.802" r="4" fill="#0" id="circle82"/>
	<circle cx="470.705" cy="699.006" r="4" fill="#0" id="circle83"/>
	<circle cx="472.725" cy="810.126" r="4" fill="#0" id="circle84"/>
	<circle cx="474.745" cy="14.1018" r="4" fill="#0" id="circle85"/>
	<circle cx="480.807" cy="717.189" r="4" fill="#0" id="circle86"/>
	<circle cx="490.908" cy="622.232" r="4" fill="#0" id="circle87"/>
	<circle cx="492.929" cy="814.167" r="4" fill="#0" id="circle88"/>
	<circle cx="494.949" cy="14.1018" r="4" fill="#0" id="circle89"/>
	<circle cx="494.949" cy="733.352" r="4" fill="#0" id="circle90"/>
	<circle cx="501.01" cy="753.556" r="4" fill="#0" id="circle91"/>
	<circle cx="501.01" cy="773.76" r="4" fill="#0" id="circle92"/>
	<circle cx="503.031" cy="832.35" r="4" fill="#0" id="circle93"/>
	<circle cx="511.112" cy="622.232" r="4" fill="#0" id="circle94"/>
	<circle cx="511.112" cy="791.943" r="4" fill="#0" id="circle95"/>
	<circle cx="515.153" cy="14.1018" r="4" fill="#0" id="circle96"/>
	<circle cx="531.316" cy="622.232" r="4" fill="#0" id="circle97"/>
	<circle cx="535.356" cy="14.1018" r="4" fill="#0" id="circle98"/>
	<circle cx="551.519" cy="622.232" r="4" fill="#0" id="circle99"/>
	<circle cx="555.56" cy="14.1018" r="4" fill="#0" id="circle100"/>
	<circle cx="571.723" cy="622.232" r="4" fill="#0" id="circle101"/>
	<circle cx="575.764" cy="14.1018" r="4" fill="#0" id="circle102"/>
	<circle cx="589.906" cy="612.13" r="4" fill="#0" id="circle103"/>
	<circle cx="595.967" cy="14.1018" r="4" fill="#0" id="circle104"/>
	<circle cx="610.11" cy="612.13" r="4" fill="#0" id="circle105"/>
	<circle cx="616.171" cy="14.1018" r="4" fill="#0" id="circle106"/>
	<circle cx="630.314" cy="612.13" r="4" fill="#0" id="circle107"/>
	<circle cx="636.375" cy="14.1018" r="4" fill="#0" id="circle108"/>
	<circle cx="650.517" cy="612.13" r="4" fill="#0" id="circle109"/>
	<circle cx="656.578" cy="14.1018" r="4" fill="#0" id="circle110"/>
	<circle cx="670.721" cy="612.13" r="4" fill="#0" id="circle111"/>
	<circle cx="676.782" cy="14.1018" r="4" fill="#0" id="circle112"/>
	<circle cx="690.925" cy="612.13" r="4" fill="#0" id="circle113"/>
	<circle cx="696.986" cy="14.1018" r="4" fill="#0" id="circle114"/>
	<circle cx="711.128" cy="612.13" r="4" fill="#0" id="circle115"/>
	<circle cx="717.189" cy="14.1018" r="4" fill="#0" id="circle116"/>
	<circle cx="731.332" cy="612.13" r="4" fill="#0" id="circle117"/>
	<circle cx="737.393" cy="14.1018" r="4" fill="#0" id="circle118"/>
	<circle cx="751.536" cy="612.13" r="4" fill="#0" id="circle119"/>
	<circle cx="757.597" cy="14.1018" r="4" fill="#0" id="circle120"/>
	<circle cx="771.739" cy="612.13" r="4" fill="#0" id="circle121"/>
	<circle cx="777.8" cy="14.1018" r="4" fill="#0" id="circle122"/>
	<circle cx="791.943" cy="612.13" r="4" fill="#0" id="circle123"/>
	<circle cx="798.004" cy="14.1018" r="4" fill="#0" id="circle124"/>
	<circle cx="812.147" cy="612.13" r="4" fill="#0" id="circle125"/>
	<circle cx="818.208" cy="14.1018" r="4" fill="#0" id="circle126"/>
	<circle cx="832.35" cy="612.13" r="4" fill="#0" id="circle127"/>
	<circle cx="838.411" cy="14.1018" r="4" fill="#0" id="circle128"/>
	<circle cx="852.554" cy="612.13" r="4" fill="#0" id="circle129"/>
	<circle cx="858.615" cy="14.1018" r="4" fill="#0" id="circle130"/>
	<circle cx="872.758" cy="612.13" r="4" fill="#0" id="circle131"/>
	<circle cx="878.819" cy="4" r="4" fill="#0" id="circle132"/>
	<circle cx="892.961" cy="612.13" r="4" fill="#0" id="circle133"/>
	<circle cx="899.022" cy="4" r="4" fill="#0" id="circle134"/>
	<circle cx="913.165" cy="612.13" r="4" fill="#0" id="circle135"/>
	<circle cx="919.226" cy="4" r="4" fill="#0" id="circle136"/>
	<circle cx="933.369" cy="612.13" r="4" fill="#0" id="circle137"/>
	<circle cx="939.43" cy="4" r="4" fill="#0" id="circle138"/>
	<circle cx="953.572" cy="612.13" r="4" fill="#0" id="circle139"/>
	<circle cx="959.633" cy="4" r="4" fill="#0" id="circle140"/>
	<circle cx="973.776" cy="612.13" r="4" fill="#0" id="circle141"/>
	<circle cx="977.817" cy="14.1018" r="4" fill="#0" id="circle142"/>
	<circle cx="985.898" cy="34.3055" r="4" fill="#0" id="circle143"/>
	<circle cx="985.898" cy="54.5092" r="4" fill="#0" id="circle144"/>
	<circle cx="985.898" cy="74.7128" r="4" fill="#0" id="circle145"/>
	<circle cx="985.898" cy="94.9165" r="4" fill="#0" id="circle146"/>
	<circle cx="985.898" cy="115.12" r="4" fill="#0" id="circle147"/>
	<circle cx="985.898" cy="135.324" r="4" fill="#0" id="circle148"/>
	<circle cx="985.898" cy="155.527" r="4" fill="#0" id="circle149"/>
	<circle cx="985.898" cy="175.731" r="4" fill="#0" id="circle150"/>
	<circle cx="985.898" cy="195.935" r="4" fill="#0" id="circle151"/>
	<circle cx="985.898" cy="216.138" r="4" fill="#0" id="circle152"/>
	<circle cx="985.898" cy="236.342" r="4" fill="#0" id="circle153"/>
	<circle cx="985.898" cy="256.546" r="4" fill="#0" id="circle154"/>
	<circle cx="985.898" cy="276.749" r="4" fill="#0" id="circle155"/>
	<circle cx="985.898" cy="296.953" r="4" fill="#0" id="circle156"/>
	<circle cx="985.898" cy="317.157" r="4" fill="#0" id="circle157"/>
	<circle cx="985.898" cy="337.36" r="4" fill="#0" id="circle158"/>
	<circle cx="985.898" cy="357.564" r="4" fill="#0" id="circle159"/>
	<circle cx="985.898" cy="377.768" r="4" fill="#0" id="circle160"/>
	<circle cx="985.898" cy="397.971" r="4" fill="#0" id="circle161"/>
	<circle cx="985.898" cy="418.175" r="4" fill="#0" id="circle162"/>
	<circle cx="985.898" cy="591.927" r="4" fill="#0" id="circle163"/>
	<circle cx="996" cy="436.358" r="4" fill="#0" id="circle164"/>
	<circle cx="996" cy="456.562" r="4" fill="#0" id="circle165"/>
	<circle cx="996" cy="476.766" r="4" fill="#0" id="circle166"/>
	<circle cx="996" cy="496.969" r="4" fill="#0" id="circle167"/>
	<circle cx="996" cy="517.173" r="4" fill="#0" id="circle168"/>
	<circle cx="996" cy="537.377" r="4" fill="#0" id="circle169"/>
	<circle cx="996" cy="557.58" r="4" fill="#0" id="circle170"/>
	</g>
</svg>