<?xml version="1.0" encoding="UTF-8" standalone="no"?>
<!-- Created with CurveBenchmark -->
<svg
	xmlns:dc="http://purl.org/dc/elements/1.1/"
	xmlns:cc="http://creativecommons.org/ns#"
	xmlns:rdf="http://www.w3.org/1999/02/22-rdf-syntax-ns#"
	xmlns:svg="http://www.w3.org/2000/svg"
	xmlns="http://www.w3.org/2000/svg"
	xmlns:sodipodi="http://sodipodi.sourceforge.net/DTD/sodipodi-0.dtd"
	xmlns:inkscape="http://www.inkscape.org/namespaces/inkscape"
	width="1000"
	height="1000"
	id="svg2"
	version="1.1"
	sodipodi:docname="manifold/fitconnect-cat17.png.txt">
<defs
	id="defs4" />
<metadata
	id="metadata7">
	<rdf:RDF>
		<cc:Work
			rdf:about="">
			<dc:format>image/svg+xml</dc:format>
			<dc:type
				rdf:resource="http://purl.org/dc/dcmitype/StillImage" />
			<dc:title></dc:title>
		</cc:Work>
	</rdf:RDF>
</metadata>
<g
	inkscape:label="Layer 1"
	inkscape:groupmode="layer"
	id="layer1">
	<path style="fill:none;stroke:red;stroke-width:1px;stroke-linecap:butt;stroke-linejoin:miter;stroke-opacity:1" d="M 16.2318,408.873 28.4636,374.624 z" id="boundary" inkscape:connector-curvature="0" />
	<path style="fill:none;stroke:red;stroke-width:1px;stroke-linecap:butt;stroke-linejoin:miter;stroke-opacity:1" d="M 16.2318,408.873 50.4809,421.105 z" id="boundary" inkscape:connector-curvature="0" />
	<path style="fill:none;stroke:red;stroke-width:1px;stroke-linecap:butt;stroke-linejoin:miter;stroke-opacity:1" d="M 28.4636,374.624 52.9273,370.954 z" id="boundary" inkscape:connector-curvature="0" />
	<path style="fill:none;stroke:red;stroke-width:1px;stroke-linecap:butt;stroke-linejoin:miter;stroke-opacity:1" d="M 50.4809,421.105 87.1763,414.989 z" id="boundary" inkscape:connector-curvature="0" />
	<path style="fill:none;stroke:red;stroke-width:1px;stroke-linecap:butt;stroke-linejoin:miter;stroke-opacity:1" d="M 87.1763,414.989 152.005,324.473 z" id="boundary" inkscape:connector-curvature="0" />
	<path style="fill:none;stroke:red;stroke-width:1px;stroke-linecap:butt;stroke-linejoin:miter;stroke-opacity:1" d="M 138.55,152.005 142.219,164.237 z" id="boundary" inkscape:connector-curvature="0" />
	<path style="fill:none;stroke:red;stroke-width:1px;stroke-linecap:butt;stroke-linejoin:miter;stroke-opacity:1" d="M 138.55,152.005 149.559,134.88 z" id="boundary" inkscape:connector-curvature="0" />
	<path style="fill:none;stroke:red;stroke-width:1px;stroke-linecap:butt;stroke-linejoin:miter;stroke-opacity:1" d="M 142.219,164.237 150.782,178.915 z" id="boundary" inkscape:connector-curvature="0" />
	<path style="fill:none;stroke:red;stroke-width:1px;stroke-linecap:butt;stroke-linejoin:miter;stroke-opacity:1" d="M 144.666,203.379 150.782,178.915 z" id="boundary" inkscape:connector-curvature="0" />
	<path style="fill:none;stroke:red;stroke-width:1px;stroke-linecap:butt;stroke-linejoin:miter;stroke-opacity:1" d="M 144.666,203.379 150.782,226.619 z" id="boundary" inkscape:connector-curvature="0" />
	<path style="fill:none;stroke:red;stroke-width:1px;stroke-linecap:butt;stroke-linejoin:miter;stroke-opacity:1" d="M 149.559,134.88 174.022,139.773 z" id="boundary" inkscape:connector-curvature="0" />
	<path style="fill:none;stroke:red;stroke-width:1px;stroke-linecap:butt;stroke-linejoin:miter;stroke-opacity:1" d="M 150.782,226.619 152.005,324.473 z" id="boundary" inkscape:connector-curvature="0" />
	<path style="fill:none;stroke:red;stroke-width:1px;stroke-linecap:butt;stroke-linejoin:miter;stroke-opacity:1" d="M 174.022,139.773 186.254,138.55 z" id="boundary" inkscape:connector-curvature="0" />
	<path style="fill:none;stroke:red;stroke-width:1px;stroke-linecap:butt;stroke-linejoin:miter;stroke-opacity:1" d="M 186.254,138.55 197.263,132.434 z" id="boundary" inkscape:connector-curvature="0" />
	<path style="fill:none;stroke:red;stroke-width:1px;stroke-linecap:butt;stroke-linejoin:miter;stroke-opacity:1" d="M 197.263,132.434 209.494,126.318 z" id="boundary" inkscape:connector-curvature="0" />
	<path style="fill:none;stroke:red;stroke-width:1px;stroke-linecap:butt;stroke-linejoin:miter;stroke-opacity:1" d="M 209.494,126.318 221.726,120.202 z" id="boundary" inkscape:connector-curvature="0" />
	<path style="fill:none;stroke:red;stroke-width:1px;stroke-linecap:butt;stroke-linejoin:miter;stroke-opacity:1" d="M 221.726,120.202 233.958,120.202 z" id="boundary" inkscape:connector-curvature="0" />
	<path style="fill:none;stroke:red;stroke-width:1px;stroke-linecap:butt;stroke-linejoin:miter;stroke-opacity:1" d="M 233.958,120.202 246.19,120.202 z" id="boundary" inkscape:connector-curvature="0" />
	<path style="fill:none;stroke:red;stroke-width:1px;stroke-linecap:butt;stroke-linejoin:miter;stroke-opacity:1" d="M 246.19,120.202 258.422,120.202 z" id="boundary" inkscape:connector-curvature="0" />
	<path style="fill:none;stroke:red;stroke-width:1px;stroke-linecap:butt;stroke-linejoin:miter;stroke-opacity:1" d="M 258.422,120.202 270.654,120.202 z" id="boundary" inkscape:connector-curvature="0" />
	<path style="fill:none;stroke:red;stroke-width:1px;stroke-linecap:butt;stroke-linejoin:miter;stroke-opacity:1" d="M 270.654,120.202 282.885,120.202 z" id="boundary" inkscape:connector-curvature="0" />
	<path style="fill:none;stroke:red;stroke-width:1px;stroke-linecap:butt;stroke-linejoin:miter;stroke-opacity:1" d="M 282.885,120.202 295.117,114.086 z" id="boundary" inkscape:connector-curvature="0" />
	<path style="fill:none;stroke:red;stroke-width:1px;stroke-linecap:butt;stroke-linejoin:miter;stroke-opacity:1" d="M 295.117,114.086 307.349,114.086 z" id="boundary" inkscape:connector-curvature="0" />
	<path style="fill:none;stroke:red;stroke-width:1px;stroke-linecap:butt;stroke-linejoin:miter;stroke-opacity:1" d="M 307.349,114.086 331.813,107.97 z" id="boundary" inkscape:connector-curvature="0" />
	<path style="fill:none;stroke:red;stroke-width:1px;stroke-linecap:butt;stroke-linejoin:miter;stroke-opacity:1" d="M 329.366,304.903 413.766,408.873 z" id="boundary" inkscape:connector-curvature="0" />
	<path style="fill:none;stroke:red;stroke-width:1px;stroke-linecap:butt;stroke-linejoin:miter;stroke-opacity:1" d="M 331.813,107.97 356.276,95.7386 z" id="boundary" inkscape:connector-curvature="0" />
	<path style="fill:none;stroke:red;stroke-width:1px;stroke-linecap:butt;stroke-linejoin:miter;stroke-opacity:1" d="M 356.276,95.7386 367.285,89.6227 z" id="boundary" inkscape:connector-curvature="0" />
	<path style="fill:none;stroke:red;stroke-width:1px;stroke-linecap:butt;stroke-linejoin:miter;stroke-opacity:1" d="M 367.285,89.6227 379.517,84.73 z" id="boundary" inkscape:connector-curvature="0" />
	<path style="fill:none;stroke:red;stroke-width:1px;stroke-linecap:butt;stroke-linejoin:miter;stroke-opacity:1" d="M 379.517,84.73 389.302,74.9445 z" id="boundary" inkscape:connector-curvature="0" />
	<path style="fill:none;stroke:red;stroke-width:1px;stroke-linecap:butt;stroke-linejoin:miter;stroke-opacity:1" d="M 389.302,74.9445 401.534,68.8286 z" id="boundary" inkscape:connector-curvature="0" />
	<path style="fill:none;stroke:red;stroke-width:1px;stroke-linecap:butt;stroke-linejoin:miter;stroke-opacity:1" d="M 401.534,68.8286 413.766,65.1591 z" id="boundary" inkscape:connector-curvature="0" />
	<path style="fill:none;stroke:red;stroke-width:1px;stroke-linecap:butt;stroke-linejoin:miter;stroke-opacity:1" d="M 413.766,65.1591 425.998,62.7127 z" id="boundary" inkscape:connector-curvature="0" />
	<path style="fill:none;stroke:red;stroke-width:1px;stroke-linecap:butt;stroke-linejoin:miter;stroke-opacity:1" d="M 413.766,408.873 578.895,280.439 z" id="boundary" inkscape:connector-curvature="0" />
	<path style="fill:none;stroke:red;stroke-width:1px;stroke-linecap:butt;stroke-linejoin:miter;stroke-opacity:1" d="M 425.998,62.7127 438.229,59.0432 z" id="boundary" inkscape:connector-curvature="0" />
	<path style="fill:none;stroke:red;stroke-width:1px;stroke-linecap:butt;stroke-linejoin:miter;stroke-opacity:1" d="M 438.229,59.0432 450.461,59.0432 z" id="boundary" inkscape:connector-curvature="0" />
	<path style="fill:none;stroke:red;stroke-width:1px;stroke-linecap:butt;stroke-linejoin:miter;stroke-opacity:1" d="M 450.461,59.0432 462.693,56.5968 z" id="boundary" inkscape:connector-curvature="0" />
	<path style="fill:none;stroke:red;stroke-width:1px;stroke-linecap:butt;stroke-linejoin:miter;stroke-opacity:1" d="M 462.693,56.5968 487.157,52.9273 z" id="boundary" inkscape:connector-curvature="0" />
	<path style="fill:none;stroke:red;stroke-width:1px;stroke-linecap:butt;stroke-linejoin:miter;stroke-opacity:1" d="M 487.157,52.9273 503.058,34.5795 z" id="boundary" inkscape:connector-curvature="0" />
	<path style="fill:none;stroke:red;stroke-width:1px;stroke-linecap:butt;stroke-linejoin:miter;stroke-opacity:1" d="M 503.058,34.5795 515.29,34.5795 z" id="boundary" inkscape:connector-curvature="0" />
	<path style="fill:none;stroke:red;stroke-width:1px;stroke-linecap:butt;stroke-linejoin:miter;stroke-opacity:1" d="M 515.29,34.5795 527.522,28.4636 z" id="boundary" inkscape:connector-curvature="0" />
	<path style="fill:none;stroke:red;stroke-width:1px;stroke-linecap:butt;stroke-linejoin:miter;stroke-opacity:1" d="M 527.522,28.4636 539.753,28.4636 z" id="boundary" inkscape:connector-curvature="0" />
	<path style="fill:none;stroke:red;stroke-width:1px;stroke-linecap:butt;stroke-linejoin:miter;stroke-opacity:1" d="M 539.753,28.4636 550.762,22.3477 z" id="boundary" inkscape:connector-curvature="0" />
	<path style="fill:none;stroke:red;stroke-width:1px;stroke-linecap:butt;stroke-linejoin:miter;stroke-opacity:1" d="M 550.762,22.3477 562.994,23.5709 z" id="boundary" inkscape:connector-curvature="0" />
	<path style="fill:none;stroke:red;stroke-width:1px;stroke-linecap:butt;stroke-linejoin:miter;stroke-opacity:1" d="M 562.994,23.5709 575.226,17.455 z" id="boundary" inkscape:connector-curvature="0" />
	<path style="fill:none;stroke:red;stroke-width:1px;stroke-linecap:butt;stroke-linejoin:miter;stroke-opacity:1" d="M 575.226,17.455 587.457,16.2318 z" id="boundary" inkscape:connector-curvature="0" />
	<path style="fill:none;stroke:red;stroke-width:1px;stroke-linecap:butt;stroke-linejoin:miter;stroke-opacity:1" d="M 578.895,280.439 714.668,304.903 z" id="boundary" inkscape:connector-curvature="0" />
	<path style="fill:none;stroke:red;stroke-width:1px;stroke-linecap:butt;stroke-linejoin:miter;stroke-opacity:1" d="M 587.457,16.2318 599.689,16.2318 z" id="boundary" inkscape:connector-curvature="0" />
	<path style="fill:none;stroke:red;stroke-width:1px;stroke-linecap:butt;stroke-linejoin:miter;stroke-opacity:1" d="M 599.689,16.2318 610.698,10.1159 z" id="boundary" inkscape:connector-curvature="0" />
	<path style="fill:none;stroke:red;stroke-width:1px;stroke-linecap:butt;stroke-linejoin:miter;stroke-opacity:1" d="M 610.698,10.1159 622.93,10.1159 z" id="boundary" inkscape:connector-curvature="0" />
	<path style="fill:none;stroke:red;stroke-width:1px;stroke-linecap:butt;stroke-linejoin:miter;stroke-opacity:1" d="M 622.93,10.1159 635.162,10.1159 z" id="boundary" inkscape:connector-curvature="0" />
	<path style="fill:none;stroke:red;stroke-width:1px;stroke-linecap:butt;stroke-linejoin:miter;stroke-opacity:1" d="M 635.162,10.1159 647.393,6.44636 z" id="boundary" inkscape:connector-curvature="0" />
	<path style="fill:none;stroke:red;stroke-width:1px;stroke-linecap:butt;stroke-linejoin:miter;stroke-opacity:1" d="M 647.393,6.44636 659.625,4 z" id="boundary" inkscape:connector-curvature="0" />
	<path style="fill:none;stroke:red;stroke-width:1px;stroke-linecap:butt;stroke-linejoin:miter;stroke-opacity:1" d="M 659.625,4 671.857,4 z" id="boundary" inkscape:connector-curvature="0" />
	<path style="fill:none;stroke:red;stroke-width:1px;stroke-linecap:butt;stroke-linejoin:miter;stroke-opacity:1" d="M 671.857,4 684.089,7.66954 z" id="boundary" inkscape:connector-curvature="0" />
	<path style="fill:none;stroke:red;stroke-width:1px;stroke-linecap:butt;stroke-linejoin:miter;stroke-opacity:1" d="M 684.089,7.66954 696.321,10.1159 z" id="boundary" inkscape:connector-curvature="0" />
	<path style="fill:none;stroke:red;stroke-width:1px;stroke-linecap:butt;stroke-linejoin:miter;stroke-opacity:1" d="M 696.321,10.1159 708.552,10.1159 z" id="boundary" inkscape:connector-curvature="0" />
	<path style="fill:none;stroke:red;stroke-width:1px;stroke-linecap:butt;stroke-linejoin:miter;stroke-opacity:1" d="M 708.552,10.1159 719.561,16.2318 z" id="boundary" inkscape:connector-curvature="0" />
	<path style="fill:none;stroke:red;stroke-width:1px;stroke-linecap:butt;stroke-linejoin:miter;stroke-opacity:1" d="M 714.668,268.207 714.668,304.903 z" id="boundary" inkscape:connector-curvature="0" />
	<path style="fill:none;stroke:red;stroke-width:1px;stroke-linecap:butt;stroke-linejoin:miter;stroke-opacity:1" d="M 714.668,268.207 763.596,182.584 z" id="boundary" inkscape:connector-curvature="0" />
	<path style="fill:none;stroke:red;stroke-width:1px;stroke-linecap:butt;stroke-linejoin:miter;stroke-opacity:1" d="M 719.561,16.2318 742.801,22.3477 z" id="boundary" inkscape:connector-curvature="0" />
	<path style="fill:none;stroke:red;stroke-width:1px;stroke-linecap:butt;stroke-linejoin:miter;stroke-opacity:1" d="M 742.801,22.3477 753.81,28.4636 z" id="boundary" inkscape:connector-curvature="0" />
	<path style="fill:none;stroke:red;stroke-width:1px;stroke-linecap:butt;stroke-linejoin:miter;stroke-opacity:1" d="M 753.81,28.4636 777.051,34.5795 z" id="boundary" inkscape:connector-curvature="0" />
	<path style="fill:none;stroke:red;stroke-width:1px;stroke-linecap:butt;stroke-linejoin:miter;stroke-opacity:1" d="M 763.596,182.584 989.884,227.842 z" id="boundary" inkscape:connector-curvature="0" />
	<path style="fill:none;stroke:red;stroke-width:1px;stroke-linecap:butt;stroke-linejoin:miter;stroke-opacity:1" d="M 777.051,34.5795 781.943,46.8113 z" id="boundary" inkscape:connector-curvature="0" />
	<path style="fill:none;stroke:red;stroke-width:1px;stroke-linecap:butt;stroke-linejoin:miter;stroke-opacity:1" d="M 781.943,46.8113 802.737,60.2663 z" id="boundary" inkscape:connector-curvature="0" />
	<path style="fill:none;stroke:red;stroke-width:1px;stroke-linecap:butt;stroke-linejoin:miter;stroke-opacity:1" d="M 802.737,60.2663 812.523,83.5068 z" id="boundary" inkscape:connector-curvature="0" />
	<path style="fill:none;stroke:red;stroke-width:1px;stroke-linecap:butt;stroke-linejoin:miter;stroke-opacity:1" d="M 812.523,83.5068 989.884,227.842 z" id="boundary" inkscape:connector-curvature="0" />
	<circle cx="4" cy="386.856" r="4" fill="#0" id="circle0"/>
	<circle cx="11.3391" cy="396.641" r="4" fill="#0" id="circle1"/>
	<circle cx="16.2318" cy="380.74" r="4" fill="#0" id="circle2"/>
	<circle cx="16.2318" cy="408.873" r="4" fill="#0" id="circle3"/>
	<circle cx="27.2404" cy="414.989" r="4" fill="#0" id="circle4"/>
	<circle cx="28.4636" cy="374.624" r="4" fill="#0" id="circle5"/>
	<circle cx="38.2491" cy="421.105" r="4" fill="#0" id="circle6"/>
	<circle cx="40.6954" cy="370.954" r="4" fill="#0" id="circle7"/>
	<circle cx="50.4809" cy="421.105" r="4" fill="#0" id="circle8"/>
	<circle cx="52.9273" cy="370.954" r="4" fill="#0" id="circle9"/>
	<circle cx="62.7127" cy="419.882" r="4" fill="#0" id="circle10"/>
	<circle cx="65.1591" cy="370.954" r="4" fill="#0" id="circle11"/>
	<circle cx="74.9445" cy="414.989" r="4" fill="#0" id="circle12"/>
	<circle cx="76.1677" cy="364.838" r="4" fill="#0" id="circle13"/>
	<circle cx="87.1763" cy="414.989" r="4" fill="#0" id="circle14"/>
	<circle cx="88.3995" cy="364.838" r="4" fill="#0" id="circle15"/>
	<circle cx="99.4081" cy="358.723" r="4" fill="#0" id="circle16"/>
	<circle cx="99.4081" cy="413.766" r="4" fill="#0" id="circle17"/>
	<circle cx="109.194" cy="348.937" r="4" fill="#0" id="circle18"/>
	<circle cx="111.64" cy="408.873" r="4" fill="#0" id="circle19"/>
	<circle cx="121.425" cy="346.491" r="4" fill="#0" id="circle20"/>
	<circle cx="123.872" cy="407.65" r="4" fill="#0" id="circle21"/>
	<circle cx="126.318" cy="129.988" r="4" fill="#0" id="circle22"/>
	<circle cx="129.988" cy="396.641" r="4" fill="#0" id="circle23"/>
	<circle cx="132.434" cy="140.996" r="4" fill="#0" id="circle24"/>
	<circle cx="132.434" cy="340.375" r="4" fill="#0" id="circle25"/>
	<circle cx="138.55" cy="128.764" r="4" fill="#0" id="circle26"/>
	<circle cx="138.55" cy="152.005" r="4" fill="#0" id="circle27"/>
	<circle cx="140.996" cy="390.525" r="4" fill="#0" id="circle28"/>
	<circle cx="142.219" cy="164.237" r="4" fill="#0" id="circle29"/>
	<circle cx="143.443" cy="334.259" r="4" fill="#0" id="circle30"/>
	<circle cx="144.666" cy="203.379" r="4" fill="#0" id="circle31"/>
	<circle cx="149.559" cy="134.88" r="4" fill="#0" id="circle32"/>
	<circle cx="150.782" cy="178.915" r="4" fill="#0" id="circle33"/>
	<circle cx="150.782" cy="191.147" r="4" fill="#0" id="circle34"/>
	<circle cx="150.782" cy="214.387" r="4" fill="#0" id="circle35"/>
	<circle cx="150.782" cy="226.619" r="4" fill="#0" id="circle36"/>
	<circle cx="152.005" cy="324.473" r="4" fill="#0" id="circle37"/>
	<circle cx="152.005" cy="384.409" r="4" fill="#0" id="circle38"/>
	<circle cx="161.79" cy="138.55" r="4" fill="#0" id="circle39"/>
	<circle cx="163.014" cy="231.512" r="4" fill="#0" id="circle40"/>
	<circle cx="164.237" cy="318.358" r="4" fill="#0" id="circle41"/>
	<circle cx="164.237" cy="384.409" r="4" fill="#0" id="circle42"/>
	<circle cx="166.683" cy="243.744" r="4" fill="#0" id="circle43"/>
	<circle cx="169.129" cy="255.975" r="4" fill="#0" id="circle44"/>
	<circle cx="169.129" cy="268.207" r="4" fill="#0" id="circle45"/>
	<circle cx="172.799" cy="280.439" r="4" fill="#0" id="circle46"/>
	<circle cx="174.022" cy="139.773" r="4" fill="#0" id="circle47"/>
	<circle cx="174.022" cy="309.795" r="4" fill="#0" id="circle48"/>
	<circle cx="176.469" cy="378.293" r="4" fill="#0" id="circle49"/>
	<circle cx="181.361" cy="290.224" r="4" fill="#0" id="circle50"/>
	<circle cx="186.254" cy="138.55" r="4" fill="#0" id="circle51"/>
	<circle cx="187.477" cy="372.178" r="4" fill="#0" id="circle52"/>
	<circle cx="197.263" cy="132.434" r="4" fill="#0" id="circle53"/>
	<circle cx="199.709" cy="372.178" r="4" fill="#0" id="circle54"/>
	<circle cx="207.048" cy="359.946" r="4" fill="#0" id="circle55"/>
	<circle cx="209.494" cy="126.318" r="4" fill="#0" id="circle56"/>
	<circle cx="219.28" cy="353.83" r="4" fill="#0" id="circle57"/>
	<circle cx="221.726" cy="120.202" r="4" fill="#0" id="circle58"/>
	<circle cx="231.512" cy="353.83" r="4" fill="#0" id="circle59"/>
	<circle cx="233.958" cy="120.202" r="4" fill="#0" id="circle60"/>
	<circle cx="243.744" cy="353.83" r="4" fill="#0" id="circle61"/>
	<circle cx="246.19" cy="120.202" r="4" fill="#0" id="circle62"/>
	<circle cx="253.529" cy="345.268" r="4" fill="#0" id="circle63"/>
	<circle cx="258.422" cy="120.202" r="4" fill="#0" id="circle64"/>
	<circle cx="265.761" cy="341.598" r="4" fill="#0" id="circle65"/>
	<circle cx="270.654" cy="120.202" r="4" fill="#0" id="circle66"/>
	<circle cx="276.769" cy="334.259" r="4" fill="#0" id="circle67"/>
	<circle cx="282.885" cy="120.202" r="4" fill="#0" id="circle68"/>
	<circle cx="282.885" cy="323.25" r="4" fill="#0" id="circle69"/>
	<circle cx="293.894" cy="317.134" r="4" fill="#0" id="circle70"/>
	<circle cx="295.117" cy="114.086" r="4" fill="#0" id="circle71"/>
	<circle cx="306.126" cy="317.134" r="4" fill="#0" id="circle72"/>
	<circle cx="307.349" cy="114.086" r="4" fill="#0" id="circle73"/>
	<circle cx="317.134" cy="311.018" r="4" fill="#0" id="circle74"/>
	<circle cx="319.581" cy="114.086" r="4" fill="#0" id="circle75"/>
	<circle cx="329.366" cy="304.903" r="4" fill="#0" id="circle76"/>
	<circle cx="331.813" cy="107.97" r="4" fill="#0" id="circle77"/>
	<circle cx="341.598" cy="304.903" r="4" fill="#0" id="circle78"/>
	<circle cx="344.044" cy="101.855" r="4" fill="#0" id="circle79"/>
	<circle cx="353.83" cy="304.903" r="4" fill="#0" id="circle80"/>
	<circle cx="356.276" cy="95.7386" r="4" fill="#0" id="circle81"/>
	<circle cx="366.062" cy="304.903" r="4" fill="#0" id="circle82"/>
	<circle cx="367.285" cy="89.6227" r="4" fill="#0" id="circle83"/>
	<circle cx="377.07" cy="386.856" r="4" fill="#0" id="circle84"/>
	<circle cx="378.293" cy="304.903" r="4" fill="#0" id="circle85"/>
	<circle cx="379.517" cy="84.73" r="4" fill="#0" id="circle86"/>
	<circle cx="383.186" cy="397.864" r="4" fill="#0" id="circle87"/>
	<circle cx="386.856" cy="377.07" r="4" fill="#0" id="circle88"/>
	<circle cx="389.302" cy="74.9445" r="4" fill="#0" id="circle89"/>
	<circle cx="389.302" cy="408.873" r="4" fill="#0" id="circle90"/>
	<circle cx="390.525" cy="304.903" r="4" fill="#0" id="circle91"/>
	<circle cx="399.088" cy="377.07" r="4" fill="#0" id="circle92"/>
	<circle cx="401.534" cy="68.8286" r="4" fill="#0" id="circle93"/>
	<circle cx="401.534" cy="408.873" r="4" fill="#0" id="circle94"/>
	<circle cx="402.757" cy="304.903" r="4" fill="#0" id="circle95"/>
	<circle cx="411.319" cy="377.07" r="4" fill="#0" id="circle96"/>
	<circle cx="413.766" cy="65.1591" r="4" fill="#0" id="circle97"/>
	<circle cx="413.766" cy="408.873" r="4" fill="#0" id="circle98"/>
	<circle cx="414.989" cy="304.903" r="4" fill="#0" id="circle99"/>
	<circle cx="419.882" cy="337.928" r="4" fill="#0" id="circle100"/>
	<circle cx="419.882" cy="350.16" r="4" fill="#0" id="circle101"/>
	<circle cx="419.882" cy="362.392" r="4" fill="#0" id="circle102"/>
	<circle cx="425.998" cy="62.7127" r="4" fill="#0" id="circle103"/>
	<circle cx="425.998" cy="311.018" r="4" fill="#0" id="circle104"/>
	<circle cx="425.998" cy="323.25" r="4" fill="#0" id="circle105"/>
	<circle cx="425.998" cy="408.873" r="4" fill="#0" id="circle106"/>
	<circle cx="437.006" cy="414.989" r="4" fill="#0" id="circle107"/>
	<circle cx="438.229" cy="59.0432" r="4" fill="#0" id="circle108"/>
	<circle cx="449.238" cy="412.543" r="4" fill="#0" id="circle109"/>
	<circle cx="450.461" cy="59.0432" r="4" fill="#0" id="circle110"/>
	<circle cx="457.8" cy="396.641" r="4" fill="#0" id="circle111"/>
	<circle cx="462.693" cy="56.5968" r="4" fill="#0" id="circle112"/>
	<circle cx="463.916" cy="372.178" r="4" fill="#0" id="circle113"/>
	<circle cx="463.916" cy="384.409" r="4" fill="#0" id="circle114"/>
	<circle cx="470.032" cy="341.598" r="4" fill="#0" id="circle115"/>
	<circle cx="470.032" cy="353.83" r="4" fill="#0" id="circle116"/>
	<circle cx="474.925" cy="52.9273" r="4" fill="#0" id="circle117"/>
	<circle cx="476.148" cy="311.018" r="4" fill="#0" id="circle118"/>
	<circle cx="476.148" cy="323.25" r="4" fill="#0" id="circle119"/>
	<circle cx="487.157" cy="52.9273" r="4" fill="#0" id="circle120"/>
	<circle cx="488.38" cy="304.903" r="4" fill="#0" id="circle121"/>
	<circle cx="498.165" cy="46.8113" r="4" fill="#0" id="circle122"/>
	<circle cx="499.388" cy="298.787" r="4" fill="#0" id="circle123"/>
	<circle cx="499.388" cy="356.276" r="4" fill="#0" id="circle124"/>
	<circle cx="499.388" cy="368.508" r="4" fill="#0" id="circle125"/>
	<circle cx="503.058" cy="34.5795" r="4" fill="#0" id="circle126"/>
	<circle cx="506.727" cy="286.555" r="4" fill="#0" id="circle127"/>
	<circle cx="506.727" cy="378.293" r="4" fill="#0" id="circle128"/>
	<circle cx="509.174" cy="346.491" r="4" fill="#0" id="circle129"/>
	<circle cx="515.29" cy="34.5795" r="4" fill="#0" id="circle130"/>
	<circle cx="518.959" cy="286.555" r="4" fill="#0" id="circle131"/>
	<circle cx="518.959" cy="378.293" r="4" fill="#0" id="circle132"/>
	<circle cx="520.182" cy="340.375" r="4" fill="#0" id="circle133"/>
	<circle cx="527.522" cy="28.4636" r="4" fill="#0" id="circle134"/>
	<circle cx="531.191" cy="286.555" r="4" fill="#0" id="circle135"/>
	<circle cx="531.191" cy="334.259" r="4" fill="#0" id="circle136"/>
	<circle cx="531.191" cy="380.74" r="4" fill="#0" id="circle137"/>
	<circle cx="539.753" cy="28.4636" r="4" fill="#0" id="circle138"/>
	<circle cx="542.2" cy="340.375" r="4" fill="#0" id="circle139"/>
	<circle cx="543.423" cy="286.555" r="4" fill="#0" id="circle140"/>
	<circle cx="543.423" cy="384.409" r="4" fill="#0" id="circle141"/>
	<circle cx="550.762" cy="22.3477" r="4" fill="#0" id="circle142"/>
	<circle cx="554.432" cy="340.375" r="4" fill="#0" id="circle143"/>
	<circle cx="555.655" cy="286.555" r="4" fill="#0" id="circle144"/>
	<circle cx="555.655" cy="384.409" r="4" fill="#0" id="circle145"/>
	<circle cx="562.994" cy="23.5709" r="4" fill="#0" id="circle146"/>
	<circle cx="566.663" cy="337.928" r="4" fill="#0" id="circle147"/>
	<circle cx="567.887" cy="286.555" r="4" fill="#0" id="circle148"/>
	<circle cx="567.887" cy="378.293" r="4" fill="#0" id="circle149"/>
	<circle cx="575.226" cy="17.455" r="4" fill="#0" id="circle150"/>
	<circle cx="578.895" cy="280.439" r="4" fill="#0" id="circle151"/>
	<circle cx="578.895" cy="325.697" r="4" fill="#0" id="circle152"/>
	<circle cx="580.118" cy="372.178" r="4" fill="#0" id="circle153"/>
	<circle cx="587.457" cy="16.2318" r="4" fill="#0" id="circle154"/>
	<circle cx="591.127" cy="280.439" r="4" fill="#0" id="circle155"/>
	<circle cx="591.127" cy="319.581" r="4" fill="#0" id="circle156"/>
	<circle cx="591.127" cy="392.972" r="4" fill="#0" id="circle157"/>
	<circle cx="591.127" cy="405.203" r="4" fill="#0" id="circle158"/>
	<circle cx="592.35" cy="372.178" r="4" fill="#0" id="circle159"/>
	<circle cx="597.243" cy="291.448" r="4" fill="#0" id="circle160"/>
	<circle cx="597.243" cy="303.679" r="4" fill="#0" id="circle161"/>
	<circle cx="598.466" cy="359.946" r="4" fill="#0" id="circle162"/>
	<circle cx="599.689" cy="16.2318" r="4" fill="#0" id="circle163"/>
	<circle cx="600.912" cy="383.186" r="4" fill="#0" id="circle164"/>
	<circle cx="603.359" cy="408.873" r="4" fill="#0" id="circle165"/>
	<circle cx="608.252" cy="351.383" r="4" fill="#0" id="circle166"/>
	<circle cx="610.698" cy="10.1159" r="4" fill="#0" id="circle167"/>
	<circle cx="610.698" cy="373.401" r="4" fill="#0" id="circle168"/>
	<circle cx="615.591" cy="408.873" r="4" fill="#0" id="circle169"/>
	<circle cx="616.814" cy="335.482" r="4" fill="#0" id="circle170"/>
	<circle cx="616.814" cy="361.169" r="4" fill="#0" id="circle171"/>
	<circle cx="622.93" cy="10.1159" r="4" fill="#0" id="circle172"/>
	<circle cx="626.599" cy="414.989" r="4" fill="#0" id="circle173"/>
	<circle cx="629.046" cy="317.134" r="4" fill="#0" id="circle174"/>
	<circle cx="629.046" cy="329.366" r="4" fill="#0" id="circle175"/>
	<circle cx="629.046" cy="355.053" r="4" fill="#0" id="circle176"/>
	<circle cx="635.162" cy="10.1159" r="4" fill="#0" id="circle177"/>
	<circle cx="637.608" cy="408.873" r="4" fill="#0" id="circle178"/>
	<circle cx="638.831" cy="346.491" r="4" fill="#0" id="circle179"/>
	<circle cx="641.277" cy="311.018" r="4" fill="#0" id="circle180"/>
	<circle cx="646.17" cy="323.25" r="4" fill="#0" id="circle181"/>
	<circle cx="646.17" cy="335.482" r="4" fill="#0" id="circle182"/>
	<circle cx="647.393" cy="6.44636" r="4" fill="#0" id="circle183"/>
	<circle cx="649.84" cy="407.65" r="4" fill="#0" id="circle184"/>
	<circle cx="655.956" cy="396.641" r="4" fill="#0" id="circle185"/>
	<circle cx="659.625" cy="4" r="4" fill="#0" id="circle186"/>
	<circle cx="666.964" cy="390.525" r="4" fill="#0" id="circle187"/>
	<circle cx="671.857" cy="4" r="4" fill="#0" id="circle188"/>
	<circle cx="677.973" cy="384.409" r="4" fill="#0" id="circle189"/>
	<circle cx="684.089" cy="7.66954" r="4" fill="#0" id="circle190"/>
	<circle cx="687.758" cy="375.847" r="4" fill="#0" id="circle191"/>
	<circle cx="690.205" cy="359.946" r="4" fill="#0" id="circle192"/>
	<circle cx="696.321" cy="10.1159" r="4" fill="#0" id="circle193"/>
	<circle cx="702.436" cy="359.946" r="4" fill="#0" id="circle194"/>
	<circle cx="708.552" cy="10.1159" r="4" fill="#0" id="circle195"/>
	<circle cx="712.222" cy="351.383" r="4" fill="#0" id="circle196"/>
	<circle cx="714.668" cy="268.207" r="4" fill="#0" id="circle197"/>
	<circle cx="714.668" cy="280.439" r="4" fill="#0" id="circle198"/>
	<circle cx="714.668" cy="292.671" r="4" fill="#0" id="circle199"/>
	<circle cx="714.668" cy="304.903" r="4" fill="#0" id="circle200"/>
	<circle cx="719.561" cy="16.2318" r="4" fill="#0" id="circle201"/>
	<circle cx="720.784" cy="243.744" r="4" fill="#0" id="circle202"/>
	<circle cx="720.784" cy="255.975" r="4" fill="#0" id="circle203"/>
	<circle cx="720.784" cy="315.911" r="4" fill="#0" id="circle204"/>
	<circle cx="720.784" cy="328.143" r="4" fill="#0" id="circle205"/>
	<circle cx="720.784" cy="340.375" r="4" fill="#0" id="circle206"/>
	<circle cx="726.9" cy="231.512" r="4" fill="#0" id="circle207"/>
	<circle cx="731.793" cy="16.2318" r="4" fill="#0" id="circle208"/>
	<circle cx="739.132" cy="219.28" r="4" fill="#0" id="circle209"/>
	<circle cx="742.801" cy="22.3477" r="4" fill="#0" id="circle210"/>
	<circle cx="750.141" cy="213.164" r="4" fill="#0" id="circle211"/>
	<circle cx="753.81" cy="28.4636" r="4" fill="#0" id="circle212"/>
	<circle cx="757.48" cy="194.816" r="4" fill="#0" id="circle213"/>
	<circle cx="763.596" cy="182.584" r="4" fill="#0" id="circle214"/>
	<circle cx="766.042" cy="28.4636" r="4" fill="#0" id="circle215"/>
	<circle cx="775.827" cy="170.353" r="4" fill="#0" id="circle216"/>
	<circle cx="777.051" cy="34.5795" r="4" fill="#0" id="circle217"/>
	<circle cx="781.943" cy="46.8113" r="4" fill="#0" id="circle218"/>
	<circle cx="781.943" cy="145.889" r="4" fill="#0" id="circle219"/>
	<circle cx="784.39" cy="158.121" r="4" fill="#0" id="circle220"/>
	<circle cx="791.729" cy="54.1504" r="4" fill="#0" id="circle221"/>
	<circle cx="792.952" cy="139.773" r="4" fill="#0" id="circle222"/>
	<circle cx="802.737" cy="60.2663" r="4" fill="#0" id="circle223"/>
	<circle cx="803.961" cy="145.889" r="4" fill="#0" id="circle224"/>
	<circle cx="808.853" cy="71.275" r="4" fill="#0" id="circle225"/>
	<circle cx="808.853" cy="158.121" r="4" fill="#0" id="circle226"/>
	<circle cx="812.523" cy="83.5068" r="4" fill="#0" id="circle227"/>
	<circle cx="818.639" cy="166.683" r="4" fill="#0" id="circle228"/>
	<circle cx="822.308" cy="90.8459" r="4" fill="#0" id="circle229"/>
	<circle cx="827.201" cy="176.469" r="4" fill="#0" id="circle230"/>
	<circle cx="830.871" cy="100.631" r="4" fill="#0" id="circle231"/>
	<circle cx="838.21" cy="182.584" r="4" fill="#0" id="circle232"/>
	<circle cx="843.102" cy="105.524" r="4" fill="#0" id="circle233"/>
	<circle cx="844.326" cy="193.593" r="4" fill="#0" id="circle234"/>
	<circle cx="849.218" cy="116.533" r="4" fill="#0" id="circle235"/>
	<circle cx="854.111" cy="200.932" r="4" fill="#0" id="circle236"/>
	<circle cx="855.334" cy="127.541" r="4" fill="#0" id="circle237"/>
	<circle cx="861.45" cy="138.55" r="4" fill="#0" id="circle238"/>
	<circle cx="865.12" cy="207.048" r="4" fill="#0" id="circle239"/>
	<circle cx="872.459" cy="144.666" r="4" fill="#0" id="circle240"/>
	<circle cx="876.128" cy="213.164" r="4" fill="#0" id="circle241"/>
	<circle cx="879.798" cy="154.451" r="4" fill="#0" id="circle242"/>
	<circle cx="884.691" cy="222.949" r="4" fill="#0" id="circle243"/>
	<circle cx="888.36" cy="164.237" r="4" fill="#0" id="circle244"/>
	<circle cx="894.476" cy="231.512" r="4" fill="#0" id="circle245"/>
	<circle cx="898.145" cy="172.799" r="4" fill="#0" id="circle246"/>
	<circle cx="904.261" cy="240.074" r="4" fill="#0" id="circle247"/>
	<circle cx="907.931" cy="181.361" r="4" fill="#0" id="circle248"/>
	<circle cx="916.493" cy="243.744" r="4" fill="#0" id="circle249"/>
	<circle cx="920.163" cy="182.584" r="4" fill="#0" id="circle250"/>
	<circle cx="926.279" cy="193.593" r="4" fill="#0" id="circle251"/>
	<circle cx="928.725" cy="246.19" r="4" fill="#0" id="circle252"/>
	<circle cx="937.287" cy="199.709" r="4" fill="#0" id="circle253"/>
	<circle cx="940.957" cy="249.859" r="4" fill="#0" id="circle254"/>
	<circle cx="948.296" cy="205.825" r="4" fill="#0" id="circle255"/>
	<circle cx="951.965" cy="255.975" r="4" fill="#0" id="circle256"/>
	<circle cx="960.528" cy="205.825" r="4" fill="#0" id="circle257"/>
	<circle cx="962.974" cy="262.091" r="4" fill="#0" id="circle258"/>
	<circle cx="970.313" cy="214.387" r="4" fill="#0" id="circle259"/>
	<circle cx="973.983" cy="268.207" r="4" fill="#0" id="circle260"/>
	<circle cx="982.545" cy="218.057" r="4" fill="#0" id="circle261"/>
	<circle cx="986.215" cy="268.207" r="4" fill="#0" id="circle262"/>
	<circle cx="989.884" cy="227.842" r="4" fill="#0" id="circle263"/>
	<circle cx="994.777" cy="240.074" r="4" fill="#0" id="circle264"/>
	<circle cx="996" cy="252.306" r="4" fill="#0" id="circle265"/>
	</g>
</svg>