<?xml version="1.0" encoding="UTF-8" standalone="no"?>
<!-- Created with CurveBenchmark -->
<svg
	xmlns:dc="http://purl.org/dc/elements/1.1/"
	xmlns:cc="http://creativecommons.org/ns#"
	xmlns:rdf="http://www.w3.org/1999/02/22-rdf-syntax-ns#"
	xmlns:svg="http://www.w3.org/2000/svg"
	xmlns="http://www.w3.org/2000/svg"
	xmlns:sodipodi="http://sodipodi.sourceforge.net/DTD/sodipodi-0.dtd"
	xmlns:inkscape="http://www.inkscape.org/namespaces/inkscape"
	width="1000"
	height="1000"
	id="svg2"
	version="1.1"
	sodipodi:docname="manifold/fitconnect-teddy045.png.txt">
<defs
	id="defs4" />
<metadata
	id="metadata7">
	<rdf:RDF>
		<cc:Work
			rdf:about="">
			<dc:format>image/svg+xml</dc:format>
			<dc:type
				rdf:resource="http://purl.org/dc/dcmitype/StillImage" />
			<dc:title></dc:title>
		</cc:Work>
	</rdf:RDF>
</metadata>
<g
	inkscape:label="Layer 1"
	inkscape:groupmode="layer"
	id="layer1">
	<path style="fill:none;stroke:red;stroke-width:1px;stroke-linecap:butt;stroke-linejoin:miter;stroke-opacity:1" d="M 4,518.37 12.4786,546.632 z" id="boundary" inkscape:connector-curvature="0" />
	<path style="fill:none;stroke:red;stroke-width:1px;stroke-linecap:butt;stroke-linejoin:miter;stroke-opacity:1" d="M 4,518.37 15.3048,484.456 z" id="boundary" inkscape:connector-curvature="0" />
	<path style="fill:none;stroke:red;stroke-width:1px;stroke-linecap:butt;stroke-linejoin:miter;stroke-opacity:1" d="M 12.4786,546.632 23.7835,574.895 z" id="boundary" inkscape:connector-curvature="0" />
	<path style="fill:none;stroke:red;stroke-width:1px;stroke-linecap:butt;stroke-linejoin:miter;stroke-opacity:1" d="M 15.3048,484.456 37.9145,461.846 z" id="boundary" inkscape:connector-curvature="0" />
	<path style="fill:none;stroke:red;stroke-width:1px;stroke-linecap:butt;stroke-linejoin:miter;stroke-opacity:1" d="M 23.7835,574.895 46.3932,594.678 z" id="boundary" inkscape:connector-curvature="0" />
	<path style="fill:none;stroke:red;stroke-width:1px;stroke-linecap:butt;stroke-linejoin:miter;stroke-opacity:1" d="M 37.9145,461.846 60.5242,444.889 z" id="boundary" inkscape:connector-curvature="0" />
	<path style="fill:none;stroke:red;stroke-width:1px;stroke-linecap:butt;stroke-linejoin:miter;stroke-opacity:1" d="M 46.3932,594.678 66.1766,617.288 z" id="boundary" inkscape:connector-curvature="0" />
	<path style="fill:none;stroke:red;stroke-width:1px;stroke-linecap:butt;stroke-linejoin:miter;stroke-opacity:1" d="M 49.2194,840.558 49.2194,868.821 z" id="boundary" inkscape:connector-curvature="0" />
	<path style="fill:none;stroke:red;stroke-width:1px;stroke-linecap:butt;stroke-linejoin:miter;stroke-opacity:1" d="M 49.2194,840.558 60.5242,800.991 z" id="boundary" inkscape:connector-curvature="0" />
	<path style="fill:none;stroke:red;stroke-width:1px;stroke-linecap:butt;stroke-linejoin:miter;stroke-opacity:1" d="M 49.2194,868.821 49.2194,897.083 z" id="boundary" inkscape:connector-curvature="0" />
	<path style="fill:none;stroke:red;stroke-width:1px;stroke-linecap:butt;stroke-linejoin:miter;stroke-opacity:1" d="M 49.2194,897.083 49.2194,925.345 z" id="boundary" inkscape:connector-curvature="0" />
	<path style="fill:none;stroke:red;stroke-width:1px;stroke-linecap:butt;stroke-linejoin:miter;stroke-opacity:1" d="M 49.2194,925.345 54.8718,953.607 z" id="boundary" inkscape:connector-curvature="0" />
	<path style="fill:none;stroke:red;stroke-width:1px;stroke-linecap:butt;stroke-linejoin:miter;stroke-opacity:1" d="M 54.8718,953.607 77.4815,970.564 z" id="boundary" inkscape:connector-curvature="0" />
	<path style="fill:none;stroke:red;stroke-width:1px;stroke-linecap:butt;stroke-linejoin:miter;stroke-opacity:1" d="M 60.5242,444.889 88.7863,439.236 z" id="boundary" inkscape:connector-curvature="0" />
	<path style="fill:none;stroke:red;stroke-width:1px;stroke-linecap:butt;stroke-linejoin:miter;stroke-opacity:1" d="M 60.5242,800.991 71.8291,767.077 z" id="boundary" inkscape:connector-curvature="0" />
	<path style="fill:none;stroke:red;stroke-width:1px;stroke-linecap:butt;stroke-linejoin:miter;stroke-opacity:1" d="M 66.1766,617.288 88.7863,634.245 z" id="boundary" inkscape:connector-curvature="0" />
	<path style="fill:none;stroke:red;stroke-width:1px;stroke-linecap:butt;stroke-linejoin:miter;stroke-opacity:1" d="M 71.8291,767.077 94.4387,750.12 z" id="boundary" inkscape:connector-curvature="0" />
	<path style="fill:none;stroke:red;stroke-width:1px;stroke-linecap:butt;stroke-linejoin:miter;stroke-opacity:1" d="M 77.4815,970.564 102.917,984.695 z" id="boundary" inkscape:connector-curvature="0" />
	<path style="fill:none;stroke:red;stroke-width:1px;stroke-linecap:butt;stroke-linejoin:miter;stroke-opacity:1" d="M 88.7863,439.236 111.396,422.279 z" id="boundary" inkscape:connector-curvature="0" />
	<path style="fill:none;stroke:red;stroke-width:1px;stroke-linecap:butt;stroke-linejoin:miter;stroke-opacity:1" d="M 88.7863,634.245 117.048,645.55 z" id="boundary" inkscape:connector-curvature="0" />
	<path style="fill:none;stroke:red;stroke-width:1px;stroke-linecap:butt;stroke-linejoin:miter;stroke-opacity:1" d="M 94.4387,750.12 117.048,733.162 z" id="boundary" inkscape:connector-curvature="0" />
	<path style="fill:none;stroke:red;stroke-width:1px;stroke-linecap:butt;stroke-linejoin:miter;stroke-opacity:1" d="M 102.917,984.695 131.179,996 z" id="boundary" inkscape:connector-curvature="0" />
	<path style="fill:none;stroke:red;stroke-width:1px;stroke-linecap:butt;stroke-linejoin:miter;stroke-opacity:1" d="M 111.396,422.279 134.006,405.322 z" id="boundary" inkscape:connector-curvature="0" />
	<path style="fill:none;stroke:red;stroke-width:1px;stroke-linecap:butt;stroke-linejoin:miter;stroke-opacity:1" d="M 117.048,645.55 145.311,656.855 z" id="boundary" inkscape:connector-curvature="0" />
	<path style="fill:none;stroke:red;stroke-width:1px;stroke-linecap:butt;stroke-linejoin:miter;stroke-opacity:1" d="M 117.048,733.162 145.311,727.51 z" id="boundary" inkscape:connector-curvature="0" />
	<path style="fill:none;stroke:red;stroke-width:1px;stroke-linecap:butt;stroke-linejoin:miter;stroke-opacity:1" d="M 131.179,996 159.442,996 z" id="boundary" inkscape:connector-curvature="0" />
	<path style="fill:none;stroke:red;stroke-width:1px;stroke-linecap:butt;stroke-linejoin:miter;stroke-opacity:1" d="M 134.006,405.322 162.268,394.017 z" id="boundary" inkscape:connector-curvature="0" />
	<path style="fill:none;stroke:red;stroke-width:1px;stroke-linecap:butt;stroke-linejoin:miter;stroke-opacity:1" d="M 145.311,656.855 173.573,659.681 z" id="boundary" inkscape:connector-curvature="0" />
	<path style="fill:none;stroke:red;stroke-width:1px;stroke-linecap:butt;stroke-linejoin:miter;stroke-opacity:1" d="M 145.311,727.51 173.573,727.51 z" id="boundary" inkscape:connector-curvature="0" />
	<path style="fill:none;stroke:red;stroke-width:1px;stroke-linecap:butt;stroke-linejoin:miter;stroke-opacity:1" d="M 159.442,996 187.704,996 z" id="boundary" inkscape:connector-curvature="0" />
	<path style="fill:none;stroke:red;stroke-width:1px;stroke-linecap:butt;stroke-linejoin:miter;stroke-opacity:1" d="M 162.268,394.017 190.53,382.712 z" id="boundary" inkscape:connector-curvature="0" />
	<path style="fill:none;stroke:red;stroke-width:1px;stroke-linecap:butt;stroke-linejoin:miter;stroke-opacity:1" d="M 167.92,60.5242 167.92,88.7863 z" id="boundary" inkscape:connector-curvature="0" />
	<path style="fill:none;stroke:red;stroke-width:1px;stroke-linecap:butt;stroke-linejoin:miter;stroke-opacity:1" d="M 167.92,60.5242 184.877,37.9145 z" id="boundary" inkscape:connector-curvature="0" />
	<path style="fill:none;stroke:red;stroke-width:1px;stroke-linecap:butt;stroke-linejoin:miter;stroke-opacity:1" d="M 167.92,88.7863 167.92,117.048 z" id="boundary" inkscape:connector-curvature="0" />
	<path style="fill:none;stroke:red;stroke-width:1px;stroke-linecap:butt;stroke-linejoin:miter;stroke-opacity:1" d="M 167.92,117.048 182.051,142.484 z" id="boundary" inkscape:connector-curvature="0" />
	<path style="fill:none;stroke:red;stroke-width:1px;stroke-linecap:butt;stroke-linejoin:miter;stroke-opacity:1" d="M 173.573,659.681 199.009,673.812 z" id="boundary" inkscape:connector-curvature="0" />
	<path style="fill:none;stroke:red;stroke-width:1px;stroke-linecap:butt;stroke-linejoin:miter;stroke-opacity:1" d="M 173.573,727.51 201.835,716.205 z" id="boundary" inkscape:connector-curvature="0" />
	<path style="fill:none;stroke:red;stroke-width:1px;stroke-linecap:butt;stroke-linejoin:miter;stroke-opacity:1" d="M 182.051,142.484 190.53,170.746 z" id="boundary" inkscape:connector-curvature="0" />
	<path style="fill:none;stroke:red;stroke-width:1px;stroke-linecap:butt;stroke-linejoin:miter;stroke-opacity:1" d="M 184.877,37.9145 207.487,20.9573 z" id="boundary" inkscape:connector-curvature="0" />
	<path style="fill:none;stroke:red;stroke-width:1px;stroke-linecap:butt;stroke-linejoin:miter;stroke-opacity:1" d="M 187.704,996 215.966,996 z" id="boundary" inkscape:connector-curvature="0" />
	<path style="fill:none;stroke:red;stroke-width:1px;stroke-linecap:butt;stroke-linejoin:miter;stroke-opacity:1" d="M 190.53,170.746 201.835,199.009 z" id="boundary" inkscape:connector-curvature="0" />
	<path style="fill:none;stroke:red;stroke-width:1px;stroke-linecap:butt;stroke-linejoin:miter;stroke-opacity:1" d="M 190.53,382.712 218.792,382.712 z" id="boundary" inkscape:connector-curvature="0" />
	<path style="fill:none;stroke:red;stroke-width:1px;stroke-linecap:butt;stroke-linejoin:miter;stroke-opacity:1" d="M 199.009,673.812 227.271,662.507 z" id="boundary" inkscape:connector-curvature="0" />
	<path style="fill:none;stroke:red;stroke-width:1px;stroke-linecap:butt;stroke-linejoin:miter;stroke-opacity:1" d="M 201.835,199.009 201.835,227.271 z" id="boundary" inkscape:connector-curvature="0" />
	<path style="fill:none;stroke:red;stroke-width:1px;stroke-linecap:butt;stroke-linejoin:miter;stroke-opacity:1" d="M 201.835,227.271 201.835,255.533 z" id="boundary" inkscape:connector-curvature="0" />
	<path style="fill:none;stroke:red;stroke-width:1px;stroke-linecap:butt;stroke-linejoin:miter;stroke-opacity:1" d="M 201.835,255.533 201.835,283.795 z" id="boundary" inkscape:connector-curvature="0" />
	<path style="fill:none;stroke:red;stroke-width:1px;stroke-linecap:butt;stroke-linejoin:miter;stroke-opacity:1" d="M 201.835,283.795 207.487,312.057 z" id="boundary" inkscape:connector-curvature="0" />
	<path style="fill:none;stroke:red;stroke-width:1px;stroke-linecap:butt;stroke-linejoin:miter;stroke-opacity:1" d="M 201.835,716.205 227.271,662.507 z" id="boundary" inkscape:connector-curvature="0" />
	<path style="fill:none;stroke:red;stroke-width:1px;stroke-linecap:butt;stroke-linejoin:miter;stroke-opacity:1" d="M 207.487,20.9573 235.749,9.65242 z" id="boundary" inkscape:connector-curvature="0" />
	<path style="fill:none;stroke:red;stroke-width:1px;stroke-linecap:butt;stroke-linejoin:miter;stroke-opacity:1" d="M 207.487,312.057 218.792,340.319 z" id="boundary" inkscape:connector-curvature="0" />
	<path style="fill:none;stroke:red;stroke-width:1px;stroke-linecap:butt;stroke-linejoin:miter;stroke-opacity:1" d="M 215.966,996 244.228,993.174 z" id="boundary" inkscape:connector-curvature="0" />
	<path style="fill:none;stroke:red;stroke-width:1px;stroke-linecap:butt;stroke-linejoin:miter;stroke-opacity:1" d="M 218.792,340.319 218.792,382.712 z" id="boundary" inkscape:connector-curvature="0" />
	<path style="fill:none;stroke:red;stroke-width:1px;stroke-linecap:butt;stroke-linejoin:miter;stroke-opacity:1" d="M 235.749,9.65242 264.011,4 z" id="boundary" inkscape:connector-curvature="0" />
	<path style="fill:none;stroke:red;stroke-width:1px;stroke-linecap:butt;stroke-linejoin:miter;stroke-opacity:1" d="M 244.228,993.174 269.664,979.043 z" id="boundary" inkscape:connector-curvature="0" />
	<path style="fill:none;stroke:red;stroke-width:1px;stroke-linecap:butt;stroke-linejoin:miter;stroke-opacity:1" d="M 264.011,4 292.274,9.65242 z" id="boundary" inkscape:connector-curvature="0" />
	<path style="fill:none;stroke:red;stroke-width:1px;stroke-linecap:butt;stroke-linejoin:miter;stroke-opacity:1" d="M 269.664,979.043 297.926,981.869 z" id="boundary" inkscape:connector-curvature="0" />
	<path style="fill:none;stroke:red;stroke-width:1px;stroke-linecap:butt;stroke-linejoin:miter;stroke-opacity:1" d="M 292.274,9.65242 320.536,15.3048 z" id="boundary" inkscape:connector-curvature="0" />
	<path style="fill:none;stroke:red;stroke-width:1px;stroke-linecap:butt;stroke-linejoin:miter;stroke-opacity:1" d="M 297.926,981.869 326.188,987.521 z" id="boundary" inkscape:connector-curvature="0" />
	<path style="fill:none;stroke:red;stroke-width:1px;stroke-linecap:butt;stroke-linejoin:miter;stroke-opacity:1" d="M 320.536,15.3048 345.972,29.4359 z" id="boundary" inkscape:connector-curvature="0" />
	<path style="fill:none;stroke:red;stroke-width:1px;stroke-linecap:butt;stroke-linejoin:miter;stroke-opacity:1" d="M 326.188,987.521 354.45,990.348 z" id="boundary" inkscape:connector-curvature="0" />
	<path style="fill:none;stroke:red;stroke-width:1px;stroke-linecap:butt;stroke-linejoin:miter;stroke-opacity:1" d="M 345.972,29.4359 371.407,43.567 z" id="boundary" inkscape:connector-curvature="0" />
	<path style="fill:none;stroke:red;stroke-width:1px;stroke-linecap:butt;stroke-linejoin:miter;stroke-opacity:1" d="M 354.45,990.348 382.712,996 z" id="boundary" inkscape:connector-curvature="0" />
	<path style="fill:none;stroke:red;stroke-width:1px;stroke-linecap:butt;stroke-linejoin:miter;stroke-opacity:1" d="M 371.407,43.567 399.67,43.567 z" id="boundary" inkscape:connector-curvature="0" />
	<path style="fill:none;stroke:red;stroke-width:1px;stroke-linecap:butt;stroke-linejoin:miter;stroke-opacity:1" d="M 382.712,996 410.974,996 z" id="boundary" inkscape:connector-curvature="0" />
	<path style="fill:none;stroke:red;stroke-width:1px;stroke-linecap:butt;stroke-linejoin:miter;stroke-opacity:1" d="M 399.67,43.567 427.932,43.567 z" id="boundary" inkscape:connector-curvature="0" />
	<path style="fill:none;stroke:red;stroke-width:1px;stroke-linecap:butt;stroke-linejoin:miter;stroke-opacity:1" d="M 410.974,996 439.236,996 z" id="boundary" inkscape:connector-curvature="0" />
	<path style="fill:none;stroke:red;stroke-width:1px;stroke-linecap:butt;stroke-linejoin:miter;stroke-opacity:1" d="M 427.932,43.567 456.194,40.7407 z" id="boundary" inkscape:connector-curvature="0" />
	<path style="fill:none;stroke:red;stroke-width:1px;stroke-linecap:butt;stroke-linejoin:miter;stroke-opacity:1" d="M 439.236,996 467.499,996 z" id="boundary" inkscape:connector-curvature="0" />
	<path style="fill:none;stroke:red;stroke-width:1px;stroke-linecap:butt;stroke-linejoin:miter;stroke-opacity:1" d="M 456.194,40.7407 484.456,43.567 z" id="boundary" inkscape:connector-curvature="0" />
	<path style="fill:none;stroke:red;stroke-width:1px;stroke-linecap:butt;stroke-linejoin:miter;stroke-opacity:1" d="M 467.499,996 495.761,996 z" id="boundary" inkscape:connector-curvature="0" />
	<path style="fill:none;stroke:red;stroke-width:1px;stroke-linecap:butt;stroke-linejoin:miter;stroke-opacity:1" d="M 484.456,43.567 512.718,43.567 z" id="boundary" inkscape:connector-curvature="0" />
	<path style="fill:none;stroke:red;stroke-width:1px;stroke-linecap:butt;stroke-linejoin:miter;stroke-opacity:1" d="M 495.761,996 524.023,990.348 z" id="boundary" inkscape:connector-curvature="0" />
	<path style="fill:none;stroke:red;stroke-width:1px;stroke-linecap:butt;stroke-linejoin:miter;stroke-opacity:1" d="M 512.718,43.567 538.154,29.4359 z" id="boundary" inkscape:connector-curvature="0" />
	<path style="fill:none;stroke:red;stroke-width:1px;stroke-linecap:butt;stroke-linejoin:miter;stroke-opacity:1" d="M 524.023,990.348 552.285,990.348 z" id="boundary" inkscape:connector-curvature="0" />
	<path style="fill:none;stroke:red;stroke-width:1px;stroke-linecap:butt;stroke-linejoin:miter;stroke-opacity:1" d="M 538.154,29.4359 563.59,15.3048 z" id="boundary" inkscape:connector-curvature="0" />
	<path style="fill:none;stroke:red;stroke-width:1px;stroke-linecap:butt;stroke-linejoin:miter;stroke-opacity:1" d="M 552.285,990.348 580.547,984.695 z" id="boundary" inkscape:connector-curvature="0" />
	<path style="fill:none;stroke:red;stroke-width:1px;stroke-linecap:butt;stroke-linejoin:miter;stroke-opacity:1" d="M 563.59,15.3048 591.852,9.65242 z" id="boundary" inkscape:connector-curvature="0" />
	<path style="fill:none;stroke:red;stroke-width:1px;stroke-linecap:butt;stroke-linejoin:miter;stroke-opacity:1" d="M 580.547,984.695 608.809,979.043 z" id="boundary" inkscape:connector-curvature="0" />
	<path style="fill:none;stroke:red;stroke-width:1px;stroke-linecap:butt;stroke-linejoin:miter;stroke-opacity:1" d="M 591.852,9.65242 620.114,4 z" id="boundary" inkscape:connector-curvature="0" />
	<path style="fill:none;stroke:red;stroke-width:1px;stroke-linecap:butt;stroke-linejoin:miter;stroke-opacity:1" d="M 608.809,979.043 637.071,973.39 z" id="boundary" inkscape:connector-curvature="0" />
	<path style="fill:none;stroke:red;stroke-width:1px;stroke-linecap:butt;stroke-linejoin:miter;stroke-opacity:1" d="M 620.114,4 648.376,9.65242 z" id="boundary" inkscape:connector-curvature="0" />
	<path style="fill:none;stroke:red;stroke-width:1px;stroke-linecap:butt;stroke-linejoin:miter;stroke-opacity:1" d="M 637.071,973.39 665.333,973.39 z" id="boundary" inkscape:connector-curvature="0" />
	<path style="fill:none;stroke:red;stroke-width:1px;stroke-linecap:butt;stroke-linejoin:miter;stroke-opacity:1" d="M 648.376,9.65242 676.638,18.1311 z" id="boundary" inkscape:connector-curvature="0" />
	<path style="fill:none;stroke:red;stroke-width:1px;stroke-linecap:butt;stroke-linejoin:miter;stroke-opacity:1" d="M 659.681,368.581 673.812,337.493 z" id="boundary" inkscape:connector-curvature="0" />
	<path style="fill:none;stroke:red;stroke-width:1px;stroke-linecap:butt;stroke-linejoin:miter;stroke-opacity:1" d="M 659.681,368.581 685.117,382.712 z" id="boundary" inkscape:connector-curvature="0" />
	<path style="fill:none;stroke:red;stroke-width:1px;stroke-linecap:butt;stroke-linejoin:miter;stroke-opacity:1" d="M 665.333,662.507 673.812,690.769 z" id="boundary" inkscape:connector-curvature="0" />
	<path style="fill:none;stroke:red;stroke-width:1px;stroke-linecap:butt;stroke-linejoin:miter;stroke-opacity:1" d="M 665.333,662.507 693.595,668.16 z" id="boundary" inkscape:connector-curvature="0" />
	<path style="fill:none;stroke:red;stroke-width:1px;stroke-linecap:butt;stroke-linejoin:miter;stroke-opacity:1" d="M 665.333,973.39 687.943,990.348 z" id="boundary" inkscape:connector-curvature="0" />
	<path style="fill:none;stroke:red;stroke-width:1px;stroke-linecap:butt;stroke-linejoin:miter;stroke-opacity:1" d="M 673.812,337.493 685.117,292.274 z" id="boundary" inkscape:connector-curvature="0" />
	<path style="fill:none;stroke:red;stroke-width:1px;stroke-linecap:butt;stroke-linejoin:miter;stroke-opacity:1" d="M 673.812,690.769 687.943,716.205 z" id="boundary" inkscape:connector-curvature="0" />
	<path style="fill:none;stroke:red;stroke-width:1px;stroke-linecap:butt;stroke-linejoin:miter;stroke-opacity:1" d="M 676.638,18.1311 699.248,35.0883 z" id="boundary" inkscape:connector-curvature="0" />
	<path style="fill:none;stroke:red;stroke-width:1px;stroke-linecap:butt;stroke-linejoin:miter;stroke-opacity:1" d="M 685.117,190.53 685.117,218.792 z" id="boundary" inkscape:connector-curvature="0" />
	<path style="fill:none;stroke:red;stroke-width:1px;stroke-linecap:butt;stroke-linejoin:miter;stroke-opacity:1" d="M 685.117,190.53 696.422,156.615 z" id="boundary" inkscape:connector-curvature="0" />
	<path style="fill:none;stroke:red;stroke-width:1px;stroke-linecap:butt;stroke-linejoin:miter;stroke-opacity:1" d="M 685.117,218.792 690.769,247.054 z" id="boundary" inkscape:connector-curvature="0" />
	<path style="fill:none;stroke:red;stroke-width:1px;stroke-linecap:butt;stroke-linejoin:miter;stroke-opacity:1" d="M 685.117,292.274 690.769,247.054 z" id="boundary" inkscape:connector-curvature="0" />
	<path style="fill:none;stroke:red;stroke-width:1px;stroke-linecap:butt;stroke-linejoin:miter;stroke-opacity:1" d="M 685.117,382.712 713.379,382.712 z" id="boundary" inkscape:connector-curvature="0" />
	<path style="fill:none;stroke:red;stroke-width:1px;stroke-linecap:butt;stroke-linejoin:miter;stroke-opacity:1" d="M 687.943,716.205 716.205,719.031 z" id="boundary" inkscape:connector-curvature="0" />
	<path style="fill:none;stroke:red;stroke-width:1px;stroke-linecap:butt;stroke-linejoin:miter;stroke-opacity:1" d="M 687.943,990.348 716.205,996 z" id="boundary" inkscape:connector-curvature="0" />
	<path style="fill:none;stroke:red;stroke-width:1px;stroke-linecap:butt;stroke-linejoin:miter;stroke-opacity:1" d="M 693.595,668.16 721.858,662.507 z" id="boundary" inkscape:connector-curvature="0" />
	<path style="fill:none;stroke:red;stroke-width:1px;stroke-linecap:butt;stroke-linejoin:miter;stroke-opacity:1" d="M 696.422,156.615 707.726,128.353 z" id="boundary" inkscape:connector-curvature="0" />
	<path style="fill:none;stroke:red;stroke-width:1px;stroke-linecap:butt;stroke-linejoin:miter;stroke-opacity:1" d="M 699.248,35.0883 719.031,57.698 z" id="boundary" inkscape:connector-curvature="0" />
	<path style="fill:none;stroke:red;stroke-width:1px;stroke-linecap:butt;stroke-linejoin:miter;stroke-opacity:1" d="M 707.726,128.353 719.031,85.9601 z" id="boundary" inkscape:connector-curvature="0" />
	<path style="fill:none;stroke:red;stroke-width:1px;stroke-linecap:butt;stroke-linejoin:miter;stroke-opacity:1" d="M 713.379,382.712 741.641,394.017 z" id="boundary" inkscape:connector-curvature="0" />
	<path style="fill:none;stroke:red;stroke-width:1px;stroke-linecap:butt;stroke-linejoin:miter;stroke-opacity:1" d="M 716.205,719.031 744.467,727.51 z" id="boundary" inkscape:connector-curvature="0" />
	<path style="fill:none;stroke:red;stroke-width:1px;stroke-linecap:butt;stroke-linejoin:miter;stroke-opacity:1" d="M 716.205,996 744.467,996 z" id="boundary" inkscape:connector-curvature="0" />
	<path style="fill:none;stroke:red;stroke-width:1px;stroke-linecap:butt;stroke-linejoin:miter;stroke-opacity:1" d="M 719.031,57.698 719.031,85.9601 z" id="boundary" inkscape:connector-curvature="0" />
	<path style="fill:none;stroke:red;stroke-width:1px;stroke-linecap:butt;stroke-linejoin:miter;stroke-opacity:1" d="M 721.858,662.507 750.12,662.507 z" id="boundary" inkscape:connector-curvature="0" />
	<path style="fill:none;stroke:red;stroke-width:1px;stroke-linecap:butt;stroke-linejoin:miter;stroke-opacity:1" d="M 741.641,394.017 769.903,405.322 z" id="boundary" inkscape:connector-curvature="0" />
	<path style="fill:none;stroke:red;stroke-width:1px;stroke-linecap:butt;stroke-linejoin:miter;stroke-opacity:1" d="M 744.467,727.51 772.729,727.51 z" id="boundary" inkscape:connector-curvature="0" />
	<path style="fill:none;stroke:red;stroke-width:1px;stroke-linecap:butt;stroke-linejoin:miter;stroke-opacity:1" d="M 744.467,996 772.729,996 z" id="boundary" inkscape:connector-curvature="0" />
	<path style="fill:none;stroke:red;stroke-width:1px;stroke-linecap:butt;stroke-linejoin:miter;stroke-opacity:1" d="M 750.12,662.507 778.382,651.202 z" id="boundary" inkscape:connector-curvature="0" />
	<path style="fill:none;stroke:red;stroke-width:1px;stroke-linecap:butt;stroke-linejoin:miter;stroke-opacity:1" d="M 769.903,405.322 786.86,427.932 z" id="boundary" inkscape:connector-curvature="0" />
	<path style="fill:none;stroke:red;stroke-width:1px;stroke-linecap:butt;stroke-linejoin:miter;stroke-opacity:1" d="M 772.729,727.51 800.991,727.51 z" id="boundary" inkscape:connector-curvature="0" />
	<path style="fill:none;stroke:red;stroke-width:1px;stroke-linecap:butt;stroke-linejoin:miter;stroke-opacity:1" d="M 772.729,996 800.991,996 z" id="boundary" inkscape:connector-curvature="0" />
	<path style="fill:none;stroke:red;stroke-width:1px;stroke-linecap:butt;stroke-linejoin:miter;stroke-opacity:1" d="M 778.382,651.202 806.644,639.897 z" id="boundary" inkscape:connector-curvature="0" />
	<path style="fill:none;stroke:red;stroke-width:1px;stroke-linecap:butt;stroke-linejoin:miter;stroke-opacity:1" d="M 786.86,427.932 815.123,433.584 z" id="boundary" inkscape:connector-curvature="0" />
	<path style="fill:none;stroke:red;stroke-width:1px;stroke-linecap:butt;stroke-linejoin:miter;stroke-opacity:1" d="M 800.991,727.51 829.254,733.162 z" id="boundary" inkscape:connector-curvature="0" />
	<path style="fill:none;stroke:red;stroke-width:1px;stroke-linecap:butt;stroke-linejoin:miter;stroke-opacity:1" d="M 800.991,996 829.254,990.348 z" id="boundary" inkscape:connector-curvature="0" />
	<path style="fill:none;stroke:red;stroke-width:1px;stroke-linecap:butt;stroke-linejoin:miter;stroke-opacity:1" d="M 806.644,639.897 834.906,628.593 z" id="boundary" inkscape:connector-curvature="0" />
	<path style="fill:none;stroke:red;stroke-width:1px;stroke-linecap:butt;stroke-linejoin:miter;stroke-opacity:1" d="M 815.123,433.584 843.385,444.889 z" id="boundary" inkscape:connector-curvature="0" />
	<path style="fill:none;stroke:red;stroke-width:1px;stroke-linecap:butt;stroke-linejoin:miter;stroke-opacity:1" d="M 829.254,733.162 851.863,750.12 z" id="boundary" inkscape:connector-curvature="0" />
	<path style="fill:none;stroke:red;stroke-width:1px;stroke-linecap:butt;stroke-linejoin:miter;stroke-opacity:1" d="M 829.254,990.348 851.863,973.39 z" id="boundary" inkscape:connector-curvature="0" />
	<path style="fill:none;stroke:red;stroke-width:1px;stroke-linecap:butt;stroke-linejoin:miter;stroke-opacity:1" d="M 834.906,628.593 857.516,611.635 z" id="boundary" inkscape:connector-curvature="0" />
	<path style="fill:none;stroke:red;stroke-width:1px;stroke-linecap:butt;stroke-linejoin:miter;stroke-opacity:1" d="M 843.385,444.889 871.647,450.541 z" id="boundary" inkscape:connector-curvature="0" />
	<path style="fill:none;stroke:red;stroke-width:1px;stroke-linecap:butt;stroke-linejoin:miter;stroke-opacity:1" d="M 851.863,750.12 871.647,772.729 z" id="boundary" inkscape:connector-curvature="0" />
	<path style="fill:none;stroke:red;stroke-width:1px;stroke-linecap:butt;stroke-linejoin:miter;stroke-opacity:1" d="M 851.863,973.39 874.473,956.433 z" id="boundary" inkscape:connector-curvature="0" />
	<path style="fill:none;stroke:red;stroke-width:1px;stroke-linecap:butt;stroke-linejoin:miter;stroke-opacity:1" d="M 857.516,611.635 880.125,594.678 z" id="boundary" inkscape:connector-curvature="0" />
	<path style="fill:none;stroke:red;stroke-width:1px;stroke-linecap:butt;stroke-linejoin:miter;stroke-opacity:1" d="M 871.647,450.541 894.256,467.499 z" id="boundary" inkscape:connector-curvature="0" />
	<path style="fill:none;stroke:red;stroke-width:1px;stroke-linecap:butt;stroke-linejoin:miter;stroke-opacity:1" d="M 871.647,772.729 882.952,800.991 z" id="boundary" inkscape:connector-curvature="0" />
	<path style="fill:none;stroke:red;stroke-width:1px;stroke-linecap:butt;stroke-linejoin:miter;stroke-opacity:1" d="M 874.473,956.433 894.256,914.04 z" id="boundary" inkscape:connector-curvature="0" />
	<path style="fill:none;stroke:red;stroke-width:1px;stroke-linecap:butt;stroke-linejoin:miter;stroke-opacity:1" d="M 880.125,594.678 899.909,563.59 z" id="boundary" inkscape:connector-curvature="0" />
	<path style="fill:none;stroke:red;stroke-width:1px;stroke-linecap:butt;stroke-linejoin:miter;stroke-opacity:1" d="M 882.952,800.991 888.604,829.254 z" id="boundary" inkscape:connector-curvature="0" />
	<path style="fill:none;stroke:red;stroke-width:1px;stroke-linecap:butt;stroke-linejoin:miter;stroke-opacity:1" d="M 888.604,829.254 894.256,857.516 z" id="boundary" inkscape:connector-curvature="0" />
	<path style="fill:none;stroke:red;stroke-width:1px;stroke-linecap:butt;stroke-linejoin:miter;stroke-opacity:1" d="M 894.256,467.499 911.214,490.108 z" id="boundary" inkscape:connector-curvature="0" />
	<path style="fill:none;stroke:red;stroke-width:1px;stroke-linecap:butt;stroke-linejoin:miter;stroke-opacity:1" d="M 894.256,857.516 894.256,885.778 z" id="boundary" inkscape:connector-curvature="0" />
	<path style="fill:none;stroke:red;stroke-width:1px;stroke-linecap:butt;stroke-linejoin:miter;stroke-opacity:1" d="M 894.256,885.778 894.256,914.04 z" id="boundary" inkscape:connector-curvature="0" />
	<path style="fill:none;stroke:red;stroke-width:1px;stroke-linecap:butt;stroke-linejoin:miter;stroke-opacity:1" d="M 899.909,563.59 911.214,535.328 z" id="boundary" inkscape:connector-curvature="0" />
	<path style="fill:none;stroke:red;stroke-width:1px;stroke-linecap:butt;stroke-linejoin:miter;stroke-opacity:1" d="M 911.214,490.108 911.214,535.328 z" id="boundary" inkscape:connector-curvature="0" />
	<circle cx="4" cy="518.37" r="4" fill="#0" id="circle0"/>
	<circle cx="12.4786" cy="546.632" r="4" fill="#0" id="circle1"/>
	<circle cx="15.3048" cy="484.456" r="4" fill="#0" id="circle2"/>
	<circle cx="23.7835" cy="574.895" r="4" fill="#0" id="circle3"/>
	<circle cx="37.9145" cy="461.846" r="4" fill="#0" id="circle4"/>
	<circle cx="46.3932" cy="594.678" r="4" fill="#0" id="circle5"/>
	<circle cx="49.2194" cy="840.558" r="4" fill="#0" id="circle6"/>
	<circle cx="49.2194" cy="868.821" r="4" fill="#0" id="circle7"/>
	<circle cx="49.2194" cy="897.083" r="4" fill="#0" id="circle8"/>
	<circle cx="49.2194" cy="925.345" r="4" fill="#0" id="circle9"/>
	<circle cx="54.8718" cy="953.607" r="4" fill="#0" id="circle10"/>
	<circle cx="60.5242" cy="444.889" r="4" fill="#0" id="circle11"/>
	<circle cx="60.5242" cy="800.991" r="4" fill="#0" id="circle12"/>
	<circle cx="66.1766" cy="617.288" r="4" fill="#0" id="circle13"/>
	<circle cx="71.8291" cy="767.077" r="4" fill="#0" id="circle14"/>
	<circle cx="77.4815" cy="970.564" r="4" fill="#0" id="circle15"/>
	<circle cx="88.7863" cy="439.236" r="4" fill="#0" id="circle16"/>
	<circle cx="88.7863" cy="634.245" r="4" fill="#0" id="circle17"/>
	<circle cx="94.4387" cy="750.12" r="4" fill="#0" id="circle18"/>
	<circle cx="102.917" cy="984.695" r="4" fill="#0" id="circle19"/>
	<circle cx="111.396" cy="422.279" r="4" fill="#0" id="circle20"/>
	<circle cx="117.048" cy="645.55" r="4" fill="#0" id="circle21"/>
	<circle cx="117.048" cy="733.162" r="4" fill="#0" id="circle22"/>
	<circle cx="131.179" cy="996" r="4" fill="#0" id="circle23"/>
	<circle cx="134.006" cy="405.322" r="4" fill="#0" id="circle24"/>
	<circle cx="145.311" cy="656.855" r="4" fill="#0" id="circle25"/>
	<circle cx="145.311" cy="727.51" r="4" fill="#0" id="circle26"/>
	<circle cx="159.442" cy="996" r="4" fill="#0" id="circle27"/>
	<circle cx="162.268" cy="394.017" r="4" fill="#0" id="circle28"/>
	<circle cx="167.92" cy="60.5242" r="4" fill="#0" id="circle29"/>
	<circle cx="167.92" cy="88.7863" r="4" fill="#0" id="circle30"/>
	<circle cx="167.92" cy="117.048" r="4" fill="#0" id="circle31"/>
	<circle cx="173.573" cy="659.681" r="4" fill="#0" id="circle32"/>
	<circle cx="173.573" cy="727.51" r="4" fill="#0" id="circle33"/>
	<circle cx="182.051" cy="142.484" r="4" fill="#0" id="circle34"/>
	<circle cx="184.877" cy="37.9145" r="4" fill="#0" id="circle35"/>
	<circle cx="187.704" cy="996" r="4" fill="#0" id="circle36"/>
	<circle cx="190.53" cy="170.746" r="4" fill="#0" id="circle37"/>
	<circle cx="190.53" cy="382.712" r="4" fill="#0" id="circle38"/>
	<circle cx="199.009" cy="673.812" r="4" fill="#0" id="circle39"/>
	<circle cx="201.835" cy="199.009" r="4" fill="#0" id="circle40"/>
	<circle cx="201.835" cy="227.271" r="4" fill="#0" id="circle41"/>
	<circle cx="201.835" cy="255.533" r="4" fill="#0" id="circle42"/>
	<circle cx="201.835" cy="283.795" r="4" fill="#0" id="circle43"/>
	<circle cx="201.835" cy="716.205" r="4" fill="#0" id="circle44"/>
	<circle cx="207.487" cy="20.9573" r="4" fill="#0" id="circle45"/>
	<circle cx="207.487" cy="312.057" r="4" fill="#0" id="circle46"/>
	<circle cx="215.966" cy="996" r="4" fill="#0" id="circle47"/>
	<circle cx="218.792" cy="340.319" r="4" fill="#0" id="circle48"/>
	<circle cx="218.792" cy="382.712" r="4" fill="#0" id="circle49"/>
	<circle cx="227.271" cy="662.507" r="4" fill="#0" id="circle50"/>
	<circle cx="230.097" cy="690.769" r="4" fill="#0" id="circle51"/>
	<circle cx="235.749" cy="9.65242" r="4" fill="#0" id="circle52"/>
	<circle cx="244.228" cy="993.174" r="4" fill="#0" id="circle53"/>
	<circle cx="264.011" cy="4" r="4" fill="#0" id="circle54"/>
	<circle cx="269.664" cy="979.043" r="4" fill="#0" id="circle55"/>
	<circle cx="292.274" cy="9.65242" r="4" fill="#0" id="circle56"/>
	<circle cx="297.926" cy="981.869" r="4" fill="#0" id="circle57"/>
	<circle cx="320.536" cy="15.3048" r="4" fill="#0" id="circle58"/>
	<circle cx="326.188" cy="987.521" r="4" fill="#0" id="circle59"/>
	<circle cx="345.972" cy="29.4359" r="4" fill="#0" id="circle60"/>
	<circle cx="354.45" cy="990.348" r="4" fill="#0" id="circle61"/>
	<circle cx="371.407" cy="43.567" r="4" fill="#0" id="circle62"/>
	<circle cx="382.712" cy="996" r="4" fill="#0" id="circle63"/>
	<circle cx="399.67" cy="43.567" r="4" fill="#0" id="circle64"/>
	<circle cx="410.974" cy="996" r="4" fill="#0" id="circle65"/>
	<circle cx="427.932" cy="43.567" r="4" fill="#0" id="circle66"/>
	<circle cx="439.236" cy="996" r="4" fill="#0" id="circle67"/>
	<circle cx="456.194" cy="40.7407" r="4" fill="#0" id="circle68"/>
	<circle cx="467.499" cy="996" r="4" fill="#0" id="circle69"/>
	<circle cx="484.456" cy="43.567" r="4" fill="#0" id="circle70"/>
	<circle cx="495.761" cy="996" r="4" fill="#0" id="circle71"/>
	<circle cx="512.718" cy="43.567" r="4" fill="#0" id="circle72"/>
	<circle cx="524.023" cy="990.348" r="4" fill="#0" id="circle73"/>
	<circle cx="538.154" cy="29.4359" r="4" fill="#0" id="circle74"/>
	<circle cx="552.285" cy="990.348" r="4" fill="#0" id="circle75"/>
	<circle cx="563.59" cy="15.3048" r="4" fill="#0" id="circle76"/>
	<circle cx="580.547" cy="984.695" r="4" fill="#0" id="circle77"/>
	<circle cx="591.852" cy="9.65242" r="4" fill="#0" id="circle78"/>
	<circle cx="608.809" cy="979.043" r="4" fill="#0" id="circle79"/>
	<circle cx="620.114" cy="4" r="4" fill="#0" id="circle80"/>
	<circle cx="637.071" cy="973.39" r="4" fill="#0" id="circle81"/>
	<circle cx="648.376" cy="9.65242" r="4" fill="#0" id="circle82"/>
	<circle cx="659.681" cy="368.581" r="4" fill="#0" id="circle83"/>
	<circle cx="665.333" cy="662.507" r="4" fill="#0" id="circle84"/>
	<circle cx="665.333" cy="973.39" r="4" fill="#0" id="circle85"/>
	<circle cx="673.812" cy="337.493" r="4" fill="#0" id="circle86"/>
	<circle cx="673.812" cy="690.769" r="4" fill="#0" id="circle87"/>
	<circle cx="676.638" cy="18.1311" r="4" fill="#0" id="circle88"/>
	<circle cx="685.117" cy="190.53" r="4" fill="#0" id="circle89"/>
	<circle cx="685.117" cy="218.792" r="4" fill="#0" id="circle90"/>
	<circle cx="685.117" cy="292.274" r="4" fill="#0" id="circle91"/>
	<circle cx="685.117" cy="382.712" r="4" fill="#0" id="circle92"/>
	<circle cx="687.943" cy="716.205" r="4" fill="#0" id="circle93"/>
	<circle cx="687.943" cy="990.348" r="4" fill="#0" id="circle94"/>
	<circle cx="690.769" cy="247.054" r="4" fill="#0" id="circle95"/>
	<circle cx="693.595" cy="668.16" r="4" fill="#0" id="circle96"/>
	<circle cx="696.422" cy="156.615" r="4" fill="#0" id="circle97"/>
	<circle cx="699.248" cy="35.0883" r="4" fill="#0" id="circle98"/>
	<circle cx="707.726" cy="128.353" r="4" fill="#0" id="circle99"/>
	<circle cx="713.379" cy="382.712" r="4" fill="#0" id="circle100"/>
	<circle cx="716.205" cy="719.031" r="4" fill="#0" id="circle101"/>
	<circle cx="716.205" cy="996" r="4" fill="#0" id="circle102"/>
	<circle cx="719.031" cy="57.698" r="4" fill="#0" id="circle103"/>
	<circle cx="719.031" cy="85.9601" r="4" fill="#0" id="circle104"/>
	<circle cx="721.858" cy="662.507" r="4" fill="#0" id="circle105"/>
	<circle cx="741.641" cy="394.017" r="4" fill="#0" id="circle106"/>
	<circle cx="744.467" cy="727.51" r="4" fill="#0" id="circle107"/>
	<circle cx="744.467" cy="996" r="4" fill="#0" id="circle108"/>
	<circle cx="750.12" cy="662.507" r="4" fill="#0" id="circle109"/>
	<circle cx="769.903" cy="405.322" r="4" fill="#0" id="circle110"/>
	<circle cx="772.729" cy="727.51" r="4" fill="#0" id="circle111"/>
	<circle cx="772.729" cy="996" r="4" fill="#0" id="circle112"/>
	<circle cx="778.382" cy="651.202" r="4" fill="#0" id="circle113"/>
	<circle cx="786.86" cy="427.932" r="4" fill="#0" id="circle114"/>
	<circle cx="800.991" cy="727.51" r="4" fill="#0" id="circle115"/>
	<circle cx="800.991" cy="996" r="4" fill="#0" id="circle116"/>
	<circle cx="806.644" cy="639.897" r="4" fill="#0" id="circle117"/>
	<circle cx="815.123" cy="433.584" r="4" fill="#0" id="circle118"/>
	<circle cx="829.254" cy="733.162" r="4" fill="#0" id="circle119"/>
	<circle cx="829.254" cy="990.348" r="4" fill="#0" id="circle120"/>
	<circle cx="834.906" cy="628.593" r="4" fill="#0" id="circle121"/>
	<circle cx="843.385" cy="444.889" r="4" fill="#0" id="circle122"/>
	<circle cx="851.863" cy="750.12" r="4" fill="#0" id="circle123"/>
	<circle cx="851.863" cy="973.39" r="4" fill="#0" id="circle124"/>
	<circle cx="857.516" cy="611.635" r="4" fill="#0" id="circle125"/>
	<circle cx="871.647" cy="450.541" r="4" fill="#0" id="circle126"/>
	<circle cx="871.647" cy="772.729" r="4" fill="#0" id="circle127"/>
	<circle cx="874.473" cy="956.433" r="4" fill="#0" id="circle128"/>
	<circle cx="880.125" cy="594.678" r="4" fill="#0" id="circle129"/>
	<circle cx="882.952" cy="800.991" r="4" fill="#0" id="circle130"/>
	<circle cx="888.604" cy="829.254" r="4" fill="#0" id="circle131"/>
	<circle cx="894.256" cy="467.499" r="4" fill="#0" id="circle132"/>
	<circle cx="894.256" cy="857.516" r="4" fill="#0" id="circle133"/>
	<circle cx="894.256" cy="885.778" r="4" fill="#0" id="circle134"/>
	<circle cx="894.256" cy="914.04" r="4" fill="#0" id="circle135"/>
	<circle cx="899.909" cy="563.59" r="4" fill="#0" id="circle136"/>
	<circle cx="911.214" cy="490.108" r="4" fill="#0" id="circle137"/>
	<circle cx="911.214" cy="535.328" r="4" fill="#0" id="circle138"/>
	</g>
</svg>