<?xml version="1.0" encoding="UTF-8" standalone="no"?>
<!-- Created with CurveBenchmark -->
<svg
	xmlns:dc="http://purl.org/dc/elements/1.1/"
	xmlns:cc="http://creativecommons.org/ns#"
	xmlns:rdf="http://www.w3.org/1999/02/22-rdf-syntax-ns#"
	xmlns:svg="http://www.w3.org/2000/svg"
	xmlns="http://www.w3.org/2000/svg"
	xmlns:sodipodi="http://sodipodi.sourceforge.net/DTD/sodipodi-0.dtd"
	xmlns:inkscape="http://www.inkscape.org/namespaces/inkscape"
	width="1000"
	height="1000"
	id="svg2"
	version="1.1"
	sodipodi:docname="manifold/fitconnect-apple-15.png.txt">
<defs
	id="defs4" />
<metadata
	id="metadata7">
	<rdf:RDF>
		<cc:Work
			rdf:about="">
			<dc:format>image/svg+xml</dc:format>
			<dc:type
				rdf:resource="http://purl.org/dc/dcmitype/StillImage" />
			<dc:title></dc:title>
		</cc:Work>
	</rdf:RDF>
</metadata>
<g
	inkscape:label="Layer 1"
	inkscape:groupmode="layer"
	id="layer1">
	<path style="fill:none;stroke:red;stroke-width:1px;stroke-linecap:butt;stroke-linejoin:miter;stroke-opacity:1" d="M 4,552.946 4,586.832 z" id="boundary" inkscape:connector-curvature="0" />
	<path style="fill:none;stroke:red;stroke-width:1px;stroke-linecap:butt;stroke-linejoin:miter;stroke-opacity:1" d="M 4,552.946 20.9428,476.704 z" id="boundary" inkscape:connector-curvature="0" />
	<path style="fill:none;stroke:red;stroke-width:1px;stroke-linecap:butt;stroke-linejoin:miter;stroke-opacity:1" d="M 4,586.832 8.2357,636.813 z" id="boundary" inkscape:connector-curvature="0" />
	<path style="fill:none;stroke:red;stroke-width:1px;stroke-linecap:butt;stroke-linejoin:miter;stroke-opacity:1" d="M 8.2357,636.813 12.4714,669.851 z" id="boundary" inkscape:connector-curvature="0" />
	<path style="fill:none;stroke:red;stroke-width:1px;stroke-linecap:butt;stroke-linejoin:miter;stroke-opacity:1" d="M 12.4714,669.851 19.2485,695.266 z" id="boundary" inkscape:connector-curvature="0" />
	<path style="fill:none;stroke:red;stroke-width:1px;stroke-linecap:butt;stroke-linejoin:miter;stroke-opacity:1" d="M 19.2485,695.266 20.9428,703.737 z" id="boundary" inkscape:connector-curvature="0" />
	<path style="fill:none;stroke:red;stroke-width:1px;stroke-linecap:butt;stroke-linejoin:miter;stroke-opacity:1" d="M 20.9428,476.704 131.918,306.429 z" id="boundary" inkscape:connector-curvature="0" />
	<path style="fill:none;stroke:red;stroke-width:1px;stroke-linecap:butt;stroke-linejoin:miter;stroke-opacity:1" d="M 20.9428,703.737 26.8728,719.833 z" id="boundary" inkscape:connector-curvature="0" />
	<path style="fill:none;stroke:red;stroke-width:1px;stroke-linecap:butt;stroke-linejoin:miter;stroke-opacity:1" d="M 26.8728,719.833 29.4142,728.304 z" id="boundary" inkscape:connector-curvature="0" />
	<path style="fill:none;stroke:red;stroke-width:1px;stroke-linecap:butt;stroke-linejoin:miter;stroke-opacity:1" d="M 29.4142,728.304 33.6499,735.928 z" id="boundary" inkscape:connector-curvature="0" />
	<path style="fill:none;stroke:red;stroke-width:1px;stroke-linecap:butt;stroke-linejoin:miter;stroke-opacity:1" d="M 33.6499,735.928 37.8856,743.553 z" id="boundary" inkscape:connector-curvature="0" />
	<path style="fill:none;stroke:red;stroke-width:1px;stroke-linecap:butt;stroke-linejoin:miter;stroke-opacity:1" d="M 37.8856,743.553 42.1213,751.177 z" id="boundary" inkscape:connector-curvature="0" />
	<path style="fill:none;stroke:red;stroke-width:1px;stroke-linecap:butt;stroke-linejoin:miter;stroke-opacity:1" d="M 42.1213,751.177 46.357,758.801 z" id="boundary" inkscape:connector-curvature="0" />
	<path style="fill:none;stroke:red;stroke-width:1px;stroke-linecap:butt;stroke-linejoin:miter;stroke-opacity:1" d="M 46.357,758.801 48.8984,767.272 z" id="boundary" inkscape:connector-curvature="0" />
	<path style="fill:none;stroke:red;stroke-width:1px;stroke-linecap:butt;stroke-linejoin:miter;stroke-opacity:1" d="M 48.8984,767.272 53.1341,774.897 z" id="boundary" inkscape:connector-curvature="0" />
	<path style="fill:none;stroke:red;stroke-width:1px;stroke-linecap:butt;stroke-linejoin:miter;stroke-opacity:1" d="M 53.1341,774.897 56.5226,783.368 z" id="boundary" inkscape:connector-curvature="0" />
	<path style="fill:none;stroke:red;stroke-width:1px;stroke-linecap:butt;stroke-linejoin:miter;stroke-opacity:1" d="M 56.5226,783.368 63.2997,788.451 z" id="boundary" inkscape:connector-curvature="0" />
	<path style="fill:none;stroke:red;stroke-width:1px;stroke-linecap:butt;stroke-linejoin:miter;stroke-opacity:1" d="M 63.2997,788.451 65.8412,796.922 z" id="boundary" inkscape:connector-curvature="0" />
	<path style="fill:none;stroke:red;stroke-width:1px;stroke-linecap:butt;stroke-linejoin:miter;stroke-opacity:1" d="M 65.8412,796.922 71.7711,803.699 z" id="boundary" inkscape:connector-curvature="0" />
	<path style="fill:none;stroke:red;stroke-width:1px;stroke-linecap:butt;stroke-linejoin:miter;stroke-opacity:1" d="M 71.7711,803.699 76.0068,811.324 z" id="boundary" inkscape:connector-curvature="0" />
	<path style="fill:none;stroke:red;stroke-width:1px;stroke-linecap:butt;stroke-linejoin:miter;stroke-opacity:1" d="M 76.0068,811.324 80.2425,818.948 z" id="boundary" inkscape:connector-curvature="0" />
	<path style="fill:none;stroke:red;stroke-width:1px;stroke-linecap:butt;stroke-linejoin:miter;stroke-opacity:1" d="M 80.2425,818.948 86.1725,825.725 z" id="boundary" inkscape:connector-curvature="0" />
	<path style="fill:none;stroke:red;stroke-width:1px;stroke-linecap:butt;stroke-linejoin:miter;stroke-opacity:1" d="M 86.1725,825.725 92.9496,830.808 z" id="boundary" inkscape:connector-curvature="0" />
	<path style="fill:none;stroke:red;stroke-width:1px;stroke-linecap:butt;stroke-linejoin:miter;stroke-opacity:1" d="M 92.9496,830.808 97.1853,838.432 z" id="boundary" inkscape:connector-curvature="0" />
	<path style="fill:none;stroke:red;stroke-width:1px;stroke-linecap:butt;stroke-linejoin:miter;stroke-opacity:1" d="M 97.1853,838.432 102.268,845.209 z" id="boundary" inkscape:connector-curvature="0" />
	<path style="fill:none;stroke:red;stroke-width:1px;stroke-linecap:butt;stroke-linejoin:miter;stroke-opacity:1" d="M 102.268,845.209 108.198,851.986 z" id="boundary" inkscape:connector-curvature="0" />
	<path style="fill:none;stroke:red;stroke-width:1px;stroke-linecap:butt;stroke-linejoin:miter;stroke-opacity:1" d="M 108.198,851.986 114.975,857.916 z" id="boundary" inkscape:connector-curvature="0" />
	<path style="fill:none;stroke:red;stroke-width:1px;stroke-linecap:butt;stroke-linejoin:miter;stroke-opacity:1" d="M 114.975,857.916 120.905,864.693 z" id="boundary" inkscape:connector-curvature="0" />
	<path style="fill:none;stroke:red;stroke-width:1px;stroke-linecap:butt;stroke-linejoin:miter;stroke-opacity:1" d="M 120.905,864.693 127.682,870.623 z" id="boundary" inkscape:connector-curvature="0" />
	<path style="fill:none;stroke:red;stroke-width:1px;stroke-linecap:butt;stroke-linejoin:miter;stroke-opacity:1" d="M 127.682,870.623 133.612,877.401 z" id="boundary" inkscape:connector-curvature="0" />
	<path style="fill:none;stroke:red;stroke-width:1px;stroke-linecap:butt;stroke-linejoin:miter;stroke-opacity:1" d="M 131.918,306.429 246.282,110.74 z" id="boundary" inkscape:connector-curvature="0" />
	<path style="fill:none;stroke:red;stroke-width:1px;stroke-linecap:butt;stroke-linejoin:miter;stroke-opacity:1" d="M 133.612,877.401 140.389,883.33 z" id="boundary" inkscape:connector-curvature="0" />
	<path style="fill:none;stroke:red;stroke-width:1px;stroke-linecap:butt;stroke-linejoin:miter;stroke-opacity:1" d="M 140.389,883.33 148.014,887.566 z" id="boundary" inkscape:connector-curvature="0" />
	<path style="fill:none;stroke:red;stroke-width:1px;stroke-linecap:butt;stroke-linejoin:miter;stroke-opacity:1" d="M 148.014,887.566 154.791,893.496 z" id="boundary" inkscape:connector-curvature="0" />
	<path style="fill:none;stroke:red;stroke-width:1px;stroke-linecap:butt;stroke-linejoin:miter;stroke-opacity:1" d="M 154.791,893.496 160.721,900.273 z" id="boundary" inkscape:connector-curvature="0" />
	<path style="fill:none;stroke:red;stroke-width:1px;stroke-linecap:butt;stroke-linejoin:miter;stroke-opacity:1" d="M 160.721,900.273 169.192,902.815 z" id="boundary" inkscape:connector-curvature="0" />
	<path style="fill:none;stroke:red;stroke-width:1px;stroke-linecap:butt;stroke-linejoin:miter;stroke-opacity:1" d="M 169.192,902.815 174.275,909.592 z" id="boundary" inkscape:connector-curvature="0" />
	<path style="fill:none;stroke:red;stroke-width:1px;stroke-linecap:butt;stroke-linejoin:miter;stroke-opacity:1" d="M 174.275,909.592 182.746,912.98 z" id="boundary" inkscape:connector-curvature="0" />
	<path style="fill:none;stroke:red;stroke-width:1px;stroke-linecap:butt;stroke-linejoin:miter;stroke-opacity:1" d="M 182.746,912.98 188.676,919.757 z" id="boundary" inkscape:connector-curvature="0" />
	<path style="fill:none;stroke:red;stroke-width:1px;stroke-linecap:butt;stroke-linejoin:miter;stroke-opacity:1" d="M 188.676,919.757 197.148,923.146 z" id="boundary" inkscape:connector-curvature="0" />
	<path style="fill:none;stroke:red;stroke-width:1px;stroke-linecap:butt;stroke-linejoin:miter;stroke-opacity:1" d="M 197.148,923.146 203.925,928.229 z" id="boundary" inkscape:connector-curvature="0" />
	<path style="fill:none;stroke:red;stroke-width:1px;stroke-linecap:butt;stroke-linejoin:miter;stroke-opacity:1" d="M 203.925,928.229 211.549,932.465 z" id="boundary" inkscape:connector-curvature="0" />
	<path style="fill:none;stroke:red;stroke-width:1px;stroke-linecap:butt;stroke-linejoin:miter;stroke-opacity:1" d="M 211.549,932.465 219.173,936.7 z" id="boundary" inkscape:connector-curvature="0" />
	<path style="fill:none;stroke:red;stroke-width:1px;stroke-linecap:butt;stroke-linejoin:miter;stroke-opacity:1" d="M 219.173,936.7 226.798,940.936 z" id="boundary" inkscape:connector-curvature="0" />
	<path style="fill:none;stroke:red;stroke-width:1px;stroke-linecap:butt;stroke-linejoin:miter;stroke-opacity:1" d="M 226.798,940.936 234.422,945.172 z" id="boundary" inkscape:connector-curvature="0" />
	<path style="fill:none;stroke:red;stroke-width:1px;stroke-linecap:butt;stroke-linejoin:miter;stroke-opacity:1" d="M 234.422,945.172 242.893,947.713 z" id="boundary" inkscape:connector-curvature="0" />
	<path style="fill:none;stroke:red;stroke-width:1px;stroke-linecap:butt;stroke-linejoin:miter;stroke-opacity:1" d="M 242.893,947.713 250.518,951.949 z" id="boundary" inkscape:connector-curvature="0" />
	<path style="fill:none;stroke:red;stroke-width:1px;stroke-linecap:butt;stroke-linejoin:miter;stroke-opacity:1" d="M 246.282,110.74 425.028,190.371 z" id="boundary" inkscape:connector-curvature="0" />
	<path style="fill:none;stroke:red;stroke-width:1px;stroke-linecap:butt;stroke-linejoin:miter;stroke-opacity:1" d="M 250.518,951.949 258.989,955.337 z" id="boundary" inkscape:connector-curvature="0" />
	<path style="fill:none;stroke:red;stroke-width:1px;stroke-linecap:butt;stroke-linejoin:miter;stroke-opacity:1" d="M 258.989,955.337 266.613,959.573 z" id="boundary" inkscape:connector-curvature="0" />
	<path style="fill:none;stroke:red;stroke-width:1px;stroke-linecap:butt;stroke-linejoin:miter;stroke-opacity:1" d="M 266.613,959.573 275.085,962.114 z" id="boundary" inkscape:connector-curvature="0" />
	<path style="fill:none;stroke:red;stroke-width:1px;stroke-linecap:butt;stroke-linejoin:miter;stroke-opacity:1" d="M 275.085,962.114 282.709,966.35 z" id="boundary" inkscape:connector-curvature="0" />
	<path style="fill:none;stroke:red;stroke-width:1px;stroke-linecap:butt;stroke-linejoin:miter;stroke-opacity:1" d="M 282.709,966.35 291.18,966.35 z" id="boundary" inkscape:connector-curvature="0" />
	<path style="fill:none;stroke:red;stroke-width:1px;stroke-linecap:butt;stroke-linejoin:miter;stroke-opacity:1" d="M 291.18,966.35 298.804,970.586 z" id="boundary" inkscape:connector-curvature="0" />
	<path style="fill:none;stroke:red;stroke-width:1px;stroke-linecap:butt;stroke-linejoin:miter;stroke-opacity:1" d="M 298.804,970.586 307.276,973.974 z" id="boundary" inkscape:connector-curvature="0" />
	<path style="fill:none;stroke:red;stroke-width:1px;stroke-linecap:butt;stroke-linejoin:miter;stroke-opacity:1" d="M 307.276,973.974 315.747,974.822 z" id="boundary" inkscape:connector-curvature="0" />
	<path style="fill:none;stroke:red;stroke-width:1px;stroke-linecap:butt;stroke-linejoin:miter;stroke-opacity:1" d="M 315.747,974.822 324.219,978.21 z" id="boundary" inkscape:connector-curvature="0" />
	<path style="fill:none;stroke:red;stroke-width:1px;stroke-linecap:butt;stroke-linejoin:miter;stroke-opacity:1" d="M 324.219,978.21 332.69,979.057 z" id="boundary" inkscape:connector-curvature="0" />
	<path style="fill:none;stroke:red;stroke-width:1px;stroke-linecap:butt;stroke-linejoin:miter;stroke-opacity:1" d="M 332.69,979.057 341.161,982.446 z" id="boundary" inkscape:connector-curvature="0" />
	<path style="fill:none;stroke:red;stroke-width:1px;stroke-linecap:butt;stroke-linejoin:miter;stroke-opacity:1" d="M 341.161,982.446 349.633,983.293 z" id="boundary" inkscape:connector-curvature="0" />
	<path style="fill:none;stroke:red;stroke-width:1px;stroke-linecap:butt;stroke-linejoin:miter;stroke-opacity:1" d="M 349.633,983.293 358.104,983.293 z" id="boundary" inkscape:connector-curvature="0" />
	<path style="fill:none;stroke:red;stroke-width:1px;stroke-linecap:butt;stroke-linejoin:miter;stroke-opacity:1" d="M 358.104,983.293 365.728,987.529 z" id="boundary" inkscape:connector-curvature="0" />
	<path style="fill:none;stroke:red;stroke-width:1px;stroke-linecap:butt;stroke-linejoin:miter;stroke-opacity:1" d="M 365.728,987.529 374.2,987.529 z" id="boundary" inkscape:connector-curvature="0" />
	<path style="fill:none;stroke:red;stroke-width:1px;stroke-linecap:butt;stroke-linejoin:miter;stroke-opacity:1" d="M 374.2,987.529 382.671,987.529 z" id="boundary" inkscape:connector-curvature="0" />
	<path style="fill:none;stroke:red;stroke-width:1px;stroke-linecap:butt;stroke-linejoin:miter;stroke-opacity:1" d="M 382.671,987.529 391.143,987.529 z" id="boundary" inkscape:connector-curvature="0" />
	<path style="fill:none;stroke:red;stroke-width:1px;stroke-linecap:butt;stroke-linejoin:miter;stroke-opacity:1" d="M 391.143,987.529 398.767,991.764 z" id="boundary" inkscape:connector-curvature="0" />
	<path style="fill:none;stroke:red;stroke-width:1px;stroke-linecap:butt;stroke-linejoin:miter;stroke-opacity:1" d="M 398.767,991.764 407.238,991.764 z" id="boundary" inkscape:connector-curvature="0" />
	<path style="fill:none;stroke:red;stroke-width:1px;stroke-linecap:butt;stroke-linejoin:miter;stroke-opacity:1" d="M 407.238,991.764 415.71,991.764 z" id="boundary" inkscape:connector-curvature="0" />
	<path style="fill:none;stroke:red;stroke-width:1px;stroke-linecap:butt;stroke-linejoin:miter;stroke-opacity:1" d="M 415.71,991.764 424.181,991.764 z" id="boundary" inkscape:connector-curvature="0" />
	<path style="fill:none;stroke:red;stroke-width:1px;stroke-linecap:butt;stroke-linejoin:miter;stroke-opacity:1" d="M 424.181,991.764 432.652,991.764 z" id="boundary" inkscape:connector-curvature="0" />
	<path style="fill:none;stroke:red;stroke-width:1px;stroke-linecap:butt;stroke-linejoin:miter;stroke-opacity:1" d="M 425.028,190.371 533.462,95.491 z" id="boundary" inkscape:connector-curvature="0" />
	<path style="fill:none;stroke:red;stroke-width:1px;stroke-linecap:butt;stroke-linejoin:miter;stroke-opacity:1" d="M 432.652,991.764 441.124,991.764 z" id="boundary" inkscape:connector-curvature="0" />
	<path style="fill:none;stroke:red;stroke-width:1px;stroke-linecap:butt;stroke-linejoin:miter;stroke-opacity:1" d="M 441.124,991.764 449.595,991.764 z" id="boundary" inkscape:connector-curvature="0" />
	<path style="fill:none;stroke:red;stroke-width:1px;stroke-linecap:butt;stroke-linejoin:miter;stroke-opacity:1" d="M 449.595,991.764 458.067,991.764 z" id="boundary" inkscape:connector-curvature="0" />
	<path style="fill:none;stroke:red;stroke-width:1px;stroke-linecap:butt;stroke-linejoin:miter;stroke-opacity:1" d="M 458.067,991.764 466.538,991.764 z" id="boundary" inkscape:connector-curvature="0" />
	<path style="fill:none;stroke:red;stroke-width:1px;stroke-linecap:butt;stroke-linejoin:miter;stroke-opacity:1" d="M 466.538,991.764 475.009,991.764 z" id="boundary" inkscape:connector-curvature="0" />
	<path style="fill:none;stroke:red;stroke-width:1px;stroke-linecap:butt;stroke-linejoin:miter;stroke-opacity:1" d="M 475.009,991.764 483.481,987.529 z" id="boundary" inkscape:connector-curvature="0" />
	<path style="fill:none;stroke:red;stroke-width:1px;stroke-linecap:butt;stroke-linejoin:miter;stroke-opacity:1" d="M 483.481,987.529 491.105,991.764 z" id="boundary" inkscape:connector-curvature="0" />
	<path style="fill:none;stroke:red;stroke-width:1px;stroke-linecap:butt;stroke-linejoin:miter;stroke-opacity:1" d="M 491.105,991.764 499.576,991.764 z" id="boundary" inkscape:connector-curvature="0" />
	<path style="fill:none;stroke:red;stroke-width:1px;stroke-linecap:butt;stroke-linejoin:miter;stroke-opacity:1" d="M 499.576,991.764 508.048,991.764 z" id="boundary" inkscape:connector-curvature="0" />
	<path style="fill:none;stroke:red;stroke-width:1px;stroke-linecap:butt;stroke-linejoin:miter;stroke-opacity:1" d="M 508.048,991.764 516.519,991.764 z" id="boundary" inkscape:connector-curvature="0" />
	<path style="fill:none;stroke:red;stroke-width:1px;stroke-linecap:butt;stroke-linejoin:miter;stroke-opacity:1" d="M 516.519,991.764 524.143,996 z" id="boundary" inkscape:connector-curvature="0" />
	<path style="fill:none;stroke:red;stroke-width:1px;stroke-linecap:butt;stroke-linejoin:miter;stroke-opacity:1" d="M 524.143,996 532.615,996 z" id="boundary" inkscape:connector-curvature="0" />
	<path style="fill:none;stroke:red;stroke-width:1px;stroke-linecap:butt;stroke-linejoin:miter;stroke-opacity:1" d="M 532.615,996 541.086,996 z" id="boundary" inkscape:connector-curvature="0" />
	<path style="fill:none;stroke:red;stroke-width:1px;stroke-linecap:butt;stroke-linejoin:miter;stroke-opacity:1" d="M 533.462,95.491 567.348,177.664 z" id="boundary" inkscape:connector-curvature="0" />
	<path style="fill:none;stroke:red;stroke-width:1px;stroke-linecap:butt;stroke-linejoin:miter;stroke-opacity:1" d="M 541.086,996 549.558,996 z" id="boundary" inkscape:connector-curvature="0" />
	<path style="fill:none;stroke:red;stroke-width:1px;stroke-linecap:butt;stroke-linejoin:miter;stroke-opacity:1" d="M 549.558,996 558.029,996 z" id="boundary" inkscape:connector-curvature="0" />
	<path style="fill:none;stroke:red;stroke-width:1px;stroke-linecap:butt;stroke-linejoin:miter;stroke-opacity:1" d="M 558.029,996 566.5,996 z" id="boundary" inkscape:connector-curvature="0" />
	<path style="fill:none;stroke:red;stroke-width:1px;stroke-linecap:butt;stroke-linejoin:miter;stroke-opacity:1" d="M 566.5,996 574.972,996 z" id="boundary" inkscape:connector-curvature="0" />
	<path style="fill:none;stroke:red;stroke-width:1px;stroke-linecap:butt;stroke-linejoin:miter;stroke-opacity:1" d="M 567.348,177.664 675.781,190.371 z" id="boundary" inkscape:connector-curvature="0" />
	<path style="fill:none;stroke:red;stroke-width:1px;stroke-linecap:butt;stroke-linejoin:miter;stroke-opacity:1" d="M 574.972,996 583.443,996 z" id="boundary" inkscape:connector-curvature="0" />
	<path style="fill:none;stroke:red;stroke-width:1px;stroke-linecap:butt;stroke-linejoin:miter;stroke-opacity:1" d="M 583.443,996 591.915,996 z" id="boundary" inkscape:connector-curvature="0" />
	<path style="fill:none;stroke:red;stroke-width:1px;stroke-linecap:butt;stroke-linejoin:miter;stroke-opacity:1" d="M 591.915,996 600.386,996 z" id="boundary" inkscape:connector-curvature="0" />
	<path style="fill:none;stroke:red;stroke-width:1px;stroke-linecap:butt;stroke-linejoin:miter;stroke-opacity:1" d="M 600.386,996 608.01,991.764 z" id="boundary" inkscape:connector-curvature="0" />
	<path style="fill:none;stroke:red;stroke-width:1px;stroke-linecap:butt;stroke-linejoin:miter;stroke-opacity:1" d="M 608.01,991.764 616.482,991.764 z" id="boundary" inkscape:connector-curvature="0" />
	<path style="fill:none;stroke:red;stroke-width:1px;stroke-linecap:butt;stroke-linejoin:miter;stroke-opacity:1" d="M 616.482,991.764 624.953,991.764 z" id="boundary" inkscape:connector-curvature="0" />
	<path style="fill:none;stroke:red;stroke-width:1px;stroke-linecap:butt;stroke-linejoin:miter;stroke-opacity:1" d="M 624.953,991.764 633.424,990.917 z" id="boundary" inkscape:connector-curvature="0" />
	<path style="fill:none;stroke:red;stroke-width:1px;stroke-linecap:butt;stroke-linejoin:miter;stroke-opacity:1" d="M 633.424,990.917 641.896,987.529 z" id="boundary" inkscape:connector-curvature="0" />
	<path style="fill:none;stroke:red;stroke-width:1px;stroke-linecap:butt;stroke-linejoin:miter;stroke-opacity:1" d="M 641.896,987.529 650.367,987.529 z" id="boundary" inkscape:connector-curvature="0" />
	<path style="fill:none;stroke:red;stroke-width:1px;stroke-linecap:butt;stroke-linejoin:miter;stroke-opacity:1" d="M 650.367,987.529 657.991,983.293 z" id="boundary" inkscape:connector-curvature="0" />
	<path style="fill:none;stroke:red;stroke-width:1px;stroke-linecap:butt;stroke-linejoin:miter;stroke-opacity:1" d="M 657.991,983.293 666.463,983.293 z" id="boundary" inkscape:connector-curvature="0" />
	<path style="fill:none;stroke:red;stroke-width:1px;stroke-linecap:butt;stroke-linejoin:miter;stroke-opacity:1" d="M 666.463,983.293 674.934,983.293 z" id="boundary" inkscape:connector-curvature="0" />
	<path style="fill:none;stroke:red;stroke-width:1px;stroke-linecap:butt;stroke-linejoin:miter;stroke-opacity:1" d="M 674.934,983.293 682.558,979.057 z" id="boundary" inkscape:connector-curvature="0" />
	<path style="fill:none;stroke:red;stroke-width:1px;stroke-linecap:butt;stroke-linejoin:miter;stroke-opacity:1" d="M 675.781,190.371 793.534,241.199 z" id="boundary" inkscape:connector-curvature="0" />
	<path style="fill:none;stroke:red;stroke-width:1px;stroke-linecap:butt;stroke-linejoin:miter;stroke-opacity:1" d="M 682.558,979.057 691.03,974.822 z" id="boundary" inkscape:connector-curvature="0" />
	<path style="fill:none;stroke:red;stroke-width:1px;stroke-linecap:butt;stroke-linejoin:miter;stroke-opacity:1" d="M 691.03,974.822 699.501,974.822 z" id="boundary" inkscape:connector-curvature="0" />
	<path style="fill:none;stroke:red;stroke-width:1px;stroke-linecap:butt;stroke-linejoin:miter;stroke-opacity:1" d="M 699.501,974.822 707.126,970.586 z" id="boundary" inkscape:connector-curvature="0" />
	<path style="fill:none;stroke:red;stroke-width:1px;stroke-linecap:butt;stroke-linejoin:miter;stroke-opacity:1" d="M 707.126,970.586 715.597,968.044 z" id="boundary" inkscape:connector-curvature="0" />
	<path style="fill:none;stroke:red;stroke-width:1px;stroke-linecap:butt;stroke-linejoin:miter;stroke-opacity:1" d="M 715.597,968.044 724.068,966.35 z" id="boundary" inkscape:connector-curvature="0" />
	<path style="fill:none;stroke:red;stroke-width:1px;stroke-linecap:butt;stroke-linejoin:miter;stroke-opacity:1" d="M 724.068,966.35 731.693,962.114 z" id="boundary" inkscape:connector-curvature="0" />
	<path style="fill:none;stroke:red;stroke-width:1px;stroke-linecap:butt;stroke-linejoin:miter;stroke-opacity:1" d="M 731.693,962.114 739.317,957.879 z" id="boundary" inkscape:connector-curvature="0" />
	<path style="fill:none;stroke:red;stroke-width:1px;stroke-linecap:butt;stroke-linejoin:miter;stroke-opacity:1" d="M 739.317,957.879 746.941,953.643 z" id="boundary" inkscape:connector-curvature="0" />
	<path style="fill:none;stroke:red;stroke-width:1px;stroke-linecap:butt;stroke-linejoin:miter;stroke-opacity:1" d="M 746.941,953.643 755.412,953.643 z" id="boundary" inkscape:connector-curvature="0" />
	<path style="fill:none;stroke:red;stroke-width:1px;stroke-linecap:butt;stroke-linejoin:miter;stroke-opacity:1" d="M 755.412,953.643 763.037,949.407 z" id="boundary" inkscape:connector-curvature="0" />
	<path style="fill:none;stroke:red;stroke-width:1px;stroke-linecap:butt;stroke-linejoin:miter;stroke-opacity:1" d="M 763.037,949.407 769.814,943.477 z" id="boundary" inkscape:connector-curvature="0" />
	<path style="fill:none;stroke:red;stroke-width:1px;stroke-linecap:butt;stroke-linejoin:miter;stroke-opacity:1" d="M 769.814,943.477 778.285,939.242 z" id="boundary" inkscape:connector-curvature="0" />
	<path style="fill:none;stroke:red;stroke-width:1px;stroke-linecap:butt;stroke-linejoin:miter;stroke-opacity:1" d="M 778.285,939.242 786.757,935.006 z" id="boundary" inkscape:connector-curvature="0" />
	<path style="fill:none;stroke:red;stroke-width:1px;stroke-linecap:butt;stroke-linejoin:miter;stroke-opacity:1" d="M 786.757,935.006 795.228,930.77 z" id="boundary" inkscape:connector-curvature="0" />
	<path style="fill:none;stroke:red;stroke-width:1px;stroke-linecap:butt;stroke-linejoin:miter;stroke-opacity:1" d="M 793.534,241.199 855.375,290.333 z" id="boundary" inkscape:connector-curvature="0" />
	<path style="fill:none;stroke:red;stroke-width:1px;stroke-linecap:butt;stroke-linejoin:miter;stroke-opacity:1" d="M 795.228,930.77 801.158,923.993 z" id="boundary" inkscape:connector-curvature="0" />
	<path style="fill:none;stroke:red;stroke-width:1px;stroke-linecap:butt;stroke-linejoin:miter;stroke-opacity:1" d="M 801.158,923.993 809.629,919.757 z" id="boundary" inkscape:connector-curvature="0" />
	<path style="fill:none;stroke:red;stroke-width:1px;stroke-linecap:butt;stroke-linejoin:miter;stroke-opacity:1" d="M 809.629,919.757 817.254,915.522 z" id="boundary" inkscape:connector-curvature="0" />
	<path style="fill:none;stroke:red;stroke-width:1px;stroke-linecap:butt;stroke-linejoin:miter;stroke-opacity:1" d="M 817.254,915.522 824.031,910.439 z" id="boundary" inkscape:connector-curvature="0" />
	<path style="fill:none;stroke:red;stroke-width:1px;stroke-linecap:butt;stroke-linejoin:miter;stroke-opacity:1" d="M 824.031,910.439 830.808,902.815 z" id="boundary" inkscape:connector-curvature="0" />
	<path style="fill:none;stroke:red;stroke-width:1px;stroke-linecap:butt;stroke-linejoin:miter;stroke-opacity:1" d="M 830.808,902.815 839.279,898.579 z" id="boundary" inkscape:connector-curvature="0" />
	<path style="fill:none;stroke:red;stroke-width:1px;stroke-linecap:butt;stroke-linejoin:miter;stroke-opacity:1" d="M 839.279,898.579 846.056,892.649 z" id="boundary" inkscape:connector-curvature="0" />
	<path style="fill:none;stroke:red;stroke-width:1px;stroke-linecap:butt;stroke-linejoin:miter;stroke-opacity:1" d="M 846.056,892.649 851.986,885.872 z" id="boundary" inkscape:connector-curvature="0" />
	<path style="fill:none;stroke:red;stroke-width:1px;stroke-linecap:butt;stroke-linejoin:miter;stroke-opacity:1" d="M 851.986,885.872 858.763,879.942 z" id="boundary" inkscape:connector-curvature="0" />
	<path style="fill:none;stroke:red;stroke-width:1px;stroke-linecap:butt;stroke-linejoin:miter;stroke-opacity:1" d="M 855.375,290.333 908.745,347.939 z" id="boundary" inkscape:connector-curvature="0" />
	<path style="fill:none;stroke:red;stroke-width:1px;stroke-linecap:butt;stroke-linejoin:miter;stroke-opacity:1" d="M 858.763,879.942 867.235,875.706 z" id="boundary" inkscape:connector-curvature="0" />
	<path style="fill:none;stroke:red;stroke-width:1px;stroke-linecap:butt;stroke-linejoin:miter;stroke-opacity:1" d="M 867.235,875.706 873.165,868.929 z" id="boundary" inkscape:connector-curvature="0" />
	<path style="fill:none;stroke:red;stroke-width:1px;stroke-linecap:butt;stroke-linejoin:miter;stroke-opacity:1" d="M 873.165,868.929 879.942,862.999 z" id="boundary" inkscape:connector-curvature="0" />
	<path style="fill:none;stroke:red;stroke-width:1px;stroke-linecap:butt;stroke-linejoin:miter;stroke-opacity:1" d="M 879.942,862.999 884.178,854.528 z" id="boundary" inkscape:connector-curvature="0" />
	<path style="fill:none;stroke:red;stroke-width:1px;stroke-linecap:butt;stroke-linejoin:miter;stroke-opacity:1" d="M 884.178,854.528 890.108,847.751 z" id="boundary" inkscape:connector-curvature="0" />
	<path style="fill:none;stroke:red;stroke-width:1px;stroke-linecap:butt;stroke-linejoin:miter;stroke-opacity:1" d="M 890.108,847.751 896.885,841.821 z" id="boundary" inkscape:connector-curvature="0" />
	<path style="fill:none;stroke:red;stroke-width:1px;stroke-linecap:butt;stroke-linejoin:miter;stroke-opacity:1" d="M 896.885,841.821 902.815,835.044 z" id="boundary" inkscape:connector-curvature="0" />
	<path style="fill:none;stroke:red;stroke-width:1px;stroke-linecap:butt;stroke-linejoin:miter;stroke-opacity:1" d="M 902.815,835.044 907.05,826.572 z" id="boundary" inkscape:connector-curvature="0" />
	<path style="fill:none;stroke:red;stroke-width:1px;stroke-linecap:butt;stroke-linejoin:miter;stroke-opacity:1" d="M 907.05,826.572 913.827,820.642 z" id="boundary" inkscape:connector-curvature="0" />
	<path style="fill:none;stroke:red;stroke-width:1px;stroke-linecap:butt;stroke-linejoin:miter;stroke-opacity:1" d="M 908.745,347.939 942.63,397.92 z" id="boundary" inkscape:connector-curvature="0" />
	<path style="fill:none;stroke:red;stroke-width:1px;stroke-linecap:butt;stroke-linejoin:miter;stroke-opacity:1" d="M 913.827,820.642 919.757,809.629 z" id="boundary" inkscape:connector-curvature="0" />
	<path style="fill:none;stroke:red;stroke-width:1px;stroke-linecap:butt;stroke-linejoin:miter;stroke-opacity:1" d="M 919.757,809.629 926.535,803.699 z" id="boundary" inkscape:connector-curvature="0" />
	<path style="fill:none;stroke:red;stroke-width:1px;stroke-linecap:butt;stroke-linejoin:miter;stroke-opacity:1" d="M 926.535,803.699 930.77,795.228 z" id="boundary" inkscape:connector-curvature="0" />
	<path style="fill:none;stroke:red;stroke-width:1px;stroke-linecap:butt;stroke-linejoin:miter;stroke-opacity:1" d="M 930.77,795.228 936.7,784.215 z" id="boundary" inkscape:connector-curvature="0" />
	<path style="fill:none;stroke:red;stroke-width:1px;stroke-linecap:butt;stroke-linejoin:miter;stroke-opacity:1" d="M 936.7,784.215 940.936,775.744 z" id="boundary" inkscape:connector-curvature="0" />
	<path style="fill:none;stroke:red;stroke-width:1px;stroke-linecap:butt;stroke-linejoin:miter;stroke-opacity:1" d="M 940.936,775.744 945.172,767.272 z" id="boundary" inkscape:connector-curvature="0" />
	<path style="fill:none;stroke:red;stroke-width:1px;stroke-linecap:butt;stroke-linejoin:miter;stroke-opacity:1" d="M 942.63,397.92 962.114,436.888 z" id="boundary" inkscape:connector-curvature="0" />
	<path style="fill:none;stroke:red;stroke-width:1px;stroke-linecap:butt;stroke-linejoin:miter;stroke-opacity:1" d="M 945.172,767.272 949.407,758.801 z" id="boundary" inkscape:connector-curvature="0" />
	<path style="fill:none;stroke:red;stroke-width:1px;stroke-linecap:butt;stroke-linejoin:miter;stroke-opacity:1" d="M 949.407,758.801 953.643,750.33 z" id="boundary" inkscape:connector-curvature="0" />
	<path style="fill:none;stroke:red;stroke-width:1px;stroke-linecap:butt;stroke-linejoin:miter;stroke-opacity:1" d="M 953.643,750.33 957.879,741.858 z" id="boundary" inkscape:connector-curvature="0" />
	<path style="fill:none;stroke:red;stroke-width:1px;stroke-linecap:butt;stroke-linejoin:miter;stroke-opacity:1" d="M 957.879,741.858 962.114,729.151 z" id="boundary" inkscape:connector-curvature="0" />
	<path style="fill:none;stroke:red;stroke-width:1px;stroke-linecap:butt;stroke-linejoin:miter;stroke-opacity:1" d="M 962.114,436.888 974.822,469.079 z" id="boundary" inkscape:connector-curvature="0" />
	<path style="fill:none;stroke:red;stroke-width:1px;stroke-linecap:butt;stroke-linejoin:miter;stroke-opacity:1" d="M 962.114,729.151 966.35,720.68 z" id="boundary" inkscape:connector-curvature="0" />
	<path style="fill:none;stroke:red;stroke-width:1px;stroke-linecap:butt;stroke-linejoin:miter;stroke-opacity:1" d="M 966.35,720.68 970.586,707.973 z" id="boundary" inkscape:connector-curvature="0" />
	<path style="fill:none;stroke:red;stroke-width:1px;stroke-linecap:butt;stroke-linejoin:miter;stroke-opacity:1" d="M 970.586,707.973 974.822,695.266 z" id="boundary" inkscape:connector-curvature="0" />
	<path style="fill:none;stroke:red;stroke-width:1px;stroke-linecap:butt;stroke-linejoin:miter;stroke-opacity:1" d="M 974.822,469.079 979.057,485.175 z" id="boundary" inkscape:connector-curvature="0" />
	<path style="fill:none;stroke:red;stroke-width:1px;stroke-linecap:butt;stroke-linejoin:miter;stroke-opacity:1" d="M 974.822,695.266 979.057,686.794 z" id="boundary" inkscape:connector-curvature="0" />
	<path style="fill:none;stroke:red;stroke-width:1px;stroke-linecap:butt;stroke-linejoin:miter;stroke-opacity:1" d="M 979.057,485.175 979.057,493.646 z" id="boundary" inkscape:connector-curvature="0" />
	<path style="fill:none;stroke:red;stroke-width:1px;stroke-linecap:butt;stroke-linejoin:miter;stroke-opacity:1" d="M 979.057,493.646 983.293,509.742 z" id="boundary" inkscape:connector-curvature="0" />
	<path style="fill:none;stroke:red;stroke-width:1px;stroke-linecap:butt;stroke-linejoin:miter;stroke-opacity:1" d="M 979.057,678.323 979.057,686.794 z" id="boundary" inkscape:connector-curvature="0" />
	<path style="fill:none;stroke:red;stroke-width:1px;stroke-linecap:butt;stroke-linejoin:miter;stroke-opacity:1" d="M 979.057,678.323 983.293,665.616 z" id="boundary" inkscape:connector-curvature="0" />
	<path style="fill:none;stroke:red;stroke-width:1px;stroke-linecap:butt;stroke-linejoin:miter;stroke-opacity:1" d="M 983.293,509.742 985.834,518.213 z" id="boundary" inkscape:connector-curvature="0" />
	<path style="fill:none;stroke:red;stroke-width:1px;stroke-linecap:butt;stroke-linejoin:miter;stroke-opacity:1" d="M 983.293,657.144 983.293,665.616 z" id="boundary" inkscape:connector-curvature="0" />
	<path style="fill:none;stroke:red;stroke-width:1px;stroke-linecap:butt;stroke-linejoin:miter;stroke-opacity:1" d="M 983.293,657.144 987.529,644.437 z" id="boundary" inkscape:connector-curvature="0" />
	<path style="fill:none;stroke:red;stroke-width:1px;stroke-linecap:butt;stroke-linejoin:miter;stroke-opacity:1" d="M 985.834,518.213 987.529,526.685 z" id="boundary" inkscape:connector-curvature="0" />
	<path style="fill:none;stroke:red;stroke-width:1px;stroke-linecap:butt;stroke-linejoin:miter;stroke-opacity:1" d="M 987.529,526.685 987.529,535.156 z" id="boundary" inkscape:connector-curvature="0" />
	<path style="fill:none;stroke:red;stroke-width:1px;stroke-linecap:butt;stroke-linejoin:miter;stroke-opacity:1" d="M 987.529,535.156 987.529,543.628 z" id="boundary" inkscape:connector-curvature="0" />
	<path style="fill:none;stroke:red;stroke-width:1px;stroke-linecap:butt;stroke-linejoin:miter;stroke-opacity:1" d="M 987.529,543.628 991.764,551.252 z" id="boundary" inkscape:connector-curvature="0" />
	<path style="fill:none;stroke:red;stroke-width:1px;stroke-linecap:butt;stroke-linejoin:miter;stroke-opacity:1" d="M 987.529,627.494 987.529,635.966 z" id="boundary" inkscape:connector-curvature="0" />
	<path style="fill:none;stroke:red;stroke-width:1px;stroke-linecap:butt;stroke-linejoin:miter;stroke-opacity:1" d="M 987.529,627.494 991.764,619.023 z" id="boundary" inkscape:connector-curvature="0" />
	<path style="fill:none;stroke:red;stroke-width:1px;stroke-linecap:butt;stroke-linejoin:miter;stroke-opacity:1" d="M 987.529,635.966 987.529,644.437 z" id="boundary" inkscape:connector-curvature="0" />
	<path style="fill:none;stroke:red;stroke-width:1px;stroke-linecap:butt;stroke-linejoin:miter;stroke-opacity:1" d="M 991.764,551.252 991.764,559.723 z" id="boundary" inkscape:connector-curvature="0" />
	<path style="fill:none;stroke:red;stroke-width:1px;stroke-linecap:butt;stroke-linejoin:miter;stroke-opacity:1" d="M 991.764,559.723 991.764,568.195 z" id="boundary" inkscape:connector-curvature="0" />
	<path style="fill:none;stroke:red;stroke-width:1px;stroke-linecap:butt;stroke-linejoin:miter;stroke-opacity:1" d="M 991.764,568.195 991.764,576.666 z" id="boundary" inkscape:connector-curvature="0" />
	<path style="fill:none;stroke:red;stroke-width:1px;stroke-linecap:butt;stroke-linejoin:miter;stroke-opacity:1" d="M 991.764,576.666 991.764,585.137 z" id="boundary" inkscape:connector-curvature="0" />
	<path style="fill:none;stroke:red;stroke-width:1px;stroke-linecap:butt;stroke-linejoin:miter;stroke-opacity:1" d="M 991.764,585.137 991.764,593.609 z" id="boundary" inkscape:connector-curvature="0" />
	<path style="fill:none;stroke:red;stroke-width:1px;stroke-linecap:butt;stroke-linejoin:miter;stroke-opacity:1" d="M 991.764,593.609 991.764,602.08 z" id="boundary" inkscape:connector-curvature="0" />
	<path style="fill:none;stroke:red;stroke-width:1px;stroke-linecap:butt;stroke-linejoin:miter;stroke-opacity:1" d="M 991.764,602.08 991.764,610.552 z" id="boundary" inkscape:connector-curvature="0" />
	<path style="fill:none;stroke:red;stroke-width:1px;stroke-linecap:butt;stroke-linejoin:miter;stroke-opacity:1" d="M 991.764,610.552 991.764,619.023 z" id="boundary" inkscape:connector-curvature="0" />
	<circle cx="4" cy="552.946" r="4" fill="#0" id="circle0"/>
	<circle cx="4" cy="561.418" r="4" fill="#0" id="circle1"/>
	<circle cx="4" cy="569.889" r="4" fill="#0" id="circle2"/>
	<circle cx="4" cy="578.36" r="4" fill="#0" id="circle3"/>
	<circle cx="4" cy="586.832" r="4" fill="#0" id="circle4"/>
	<circle cx="4" cy="595.303" r="4" fill="#0" id="circle5"/>
	<circle cx="4" cy="603.775" r="4" fill="#0" id="circle6"/>
	<circle cx="4" cy="612.246" r="4" fill="#0" id="circle7"/>
	<circle cx="4" cy="620.717" r="4" fill="#0" id="circle8"/>
	<circle cx="4" cy="629.189" r="4" fill="#0" id="circle9"/>
	<circle cx="8.2357" cy="523.296" r="4" fill="#0" id="circle10"/>
	<circle cx="8.2357" cy="531.768" r="4" fill="#0" id="circle11"/>
	<circle cx="8.2357" cy="540.239" r="4" fill="#0" id="circle12"/>
	<circle cx="8.2357" cy="636.813" r="4" fill="#0" id="circle13"/>
	<circle cx="8.2357" cy="645.284" r="4" fill="#0" id="circle14"/>
	<circle cx="8.2357" cy="653.756" r="4" fill="#0" id="circle15"/>
	<circle cx="12.4714" cy="506.354" r="4" fill="#0" id="circle16"/>
	<circle cx="12.4714" cy="514.825" r="4" fill="#0" id="circle17"/>
	<circle cx="12.4714" cy="661.38" r="4" fill="#0" id="circle18"/>
	<circle cx="12.4714" cy="669.851" r="4" fill="#0" id="circle19"/>
	<circle cx="15.0128" cy="678.323" r="4" fill="#0" id="circle20"/>
	<circle cx="16.7071" cy="489.411" r="4" fill="#0" id="circle21"/>
	<circle cx="16.7071" cy="497.882" r="4" fill="#0" id="circle22"/>
	<circle cx="16.7071" cy="686.794" r="4" fill="#0" id="circle23"/>
	<circle cx="19.2485" cy="695.266" r="4" fill="#0" id="circle24"/>
	<circle cx="20.9428" cy="476.704" r="4" fill="#0" id="circle25"/>
	<circle cx="20.9428" cy="703.737" r="4" fill="#0" id="circle26"/>
	<circle cx="25.1785" cy="463.997" r="4" fill="#0" id="circle27"/>
	<circle cx="25.1785" cy="711.361" r="4" fill="#0" id="circle28"/>
	<circle cx="26.8728" cy="719.833" r="4" fill="#0" id="circle29"/>
	<circle cx="29.4142" cy="451.289" r="4" fill="#0" id="circle30"/>
	<circle cx="29.4142" cy="728.304" r="4" fill="#0" id="circle31"/>
	<circle cx="33.6499" cy="442.818" r="4" fill="#0" id="circle32"/>
	<circle cx="33.6499" cy="735.928" r="4" fill="#0" id="circle33"/>
	<circle cx="37.8856" cy="434.347" r="4" fill="#0" id="circle34"/>
	<circle cx="37.8856" cy="743.553" r="4" fill="#0" id="circle35"/>
	<circle cx="42.1213" cy="425.875" r="4" fill="#0" id="circle36"/>
	<circle cx="42.1213" cy="751.177" r="4" fill="#0" id="circle37"/>
	<circle cx="46.357" cy="417.404" r="4" fill="#0" id="circle38"/>
	<circle cx="46.357" cy="758.801" r="4" fill="#0" id="circle39"/>
	<circle cx="48.8984" cy="767.272" r="4" fill="#0" id="circle40"/>
	<circle cx="50.5927" cy="408.933" r="4" fill="#0" id="circle41"/>
	<circle cx="53.1341" cy="774.897" r="4" fill="#0" id="circle42"/>
	<circle cx="54.8284" cy="400.461" r="4" fill="#0" id="circle43"/>
	<circle cx="56.5226" cy="783.368" r="4" fill="#0" id="circle44"/>
	<circle cx="61.6055" cy="393.684" r="4" fill="#0" id="circle45"/>
	<circle cx="63.2997" cy="788.451" r="4" fill="#0" id="circle46"/>
	<circle cx="65.8412" cy="385.213" r="4" fill="#0" id="circle47"/>
	<circle cx="65.8412" cy="796.922" r="4" fill="#0" id="circle48"/>
	<circle cx="71.7711" cy="375.047" r="4" fill="#0" id="circle49"/>
	<circle cx="71.7711" cy="803.699" r="4" fill="#0" id="circle50"/>
	<circle cx="76.0068" cy="811.324" r="4" fill="#0" id="circle51"/>
	<circle cx="78.5482" cy="368.27" r="4" fill="#0" id="circle52"/>
	<circle cx="80.2425" cy="818.948" r="4" fill="#0" id="circle53"/>
	<circle cx="82.7839" cy="359.798" r="4" fill="#0" id="circle54"/>
	<circle cx="86.1725" cy="825.725" r="4" fill="#0" id="circle55"/>
	<circle cx="89.5611" cy="353.021" r="4" fill="#0" id="circle56"/>
	<circle cx="92.9496" cy="830.808" r="4" fill="#0" id="circle57"/>
	<circle cx="96.3382" cy="347.091" r="4" fill="#0" id="circle58"/>
	<circle cx="97.1853" cy="838.432" r="4" fill="#0" id="circle59"/>
	<circle cx="99.7267" cy="338.62" r="4" fill="#0" id="circle60"/>
	<circle cx="102.268" cy="845.209" r="4" fill="#0" id="circle61"/>
	<circle cx="106.504" cy="331.843" r="4" fill="#0" id="circle62"/>
	<circle cx="108.198" cy="851.986" r="4" fill="#0" id="circle63"/>
	<circle cx="113.281" cy="325.913" r="4" fill="#0" id="circle64"/>
	<circle cx="114.975" cy="857.916" r="4" fill="#0" id="circle65"/>
	<circle cx="119.211" cy="319.136" r="4" fill="#0" id="circle66"/>
	<circle cx="120.905" cy="864.693" r="4" fill="#0" id="circle67"/>
	<circle cx="125.988" cy="313.206" r="4" fill="#0" id="circle68"/>
	<circle cx="127.682" cy="870.623" r="4" fill="#0" id="circle69"/>
	<circle cx="131.918" cy="306.429" r="4" fill="#0" id="circle70"/>
	<circle cx="133.612" cy="877.401" r="4" fill="#0" id="circle71"/>
	<circle cx="138.695" cy="300.499" r="4" fill="#0" id="circle72"/>
	<circle cx="140.389" cy="883.33" r="4" fill="#0" id="circle73"/>
	<circle cx="146.319" cy="296.263" r="4" fill="#0" id="circle74"/>
	<circle cx="148.014" cy="887.566" r="4" fill="#0" id="circle75"/>
	<circle cx="153.096" cy="289.486" r="4" fill="#0" id="circle76"/>
	<circle cx="154.791" cy="893.496" r="4" fill="#0" id="circle77"/>
	<circle cx="159.874" cy="283.556" r="4" fill="#0" id="circle78"/>
	<circle cx="160.721" cy="900.273" r="4" fill="#0" id="circle79"/>
	<circle cx="167.498" cy="279.32" r="4" fill="#0" id="circle80"/>
	<circle cx="169.192" cy="57.3698" r="4" fill="#0" id="circle81"/>
	<circle cx="169.192" cy="65.8412" r="4" fill="#0" id="circle82"/>
	<circle cx="169.192" cy="74.3126" r="4" fill="#0" id="circle83"/>
	<circle cx="169.192" cy="902.815" r="4" fill="#0" id="circle84"/>
	<circle cx="173.428" cy="40.427" r="4" fill="#0" id="circle85"/>
	<circle cx="173.428" cy="48.8984" r="4" fill="#0" id="circle86"/>
	<circle cx="174.275" cy="272.543" r="4" fill="#0" id="circle87"/>
	<circle cx="174.275" cy="909.592" r="4" fill="#0" id="circle88"/>
	<circle cx="175.969" cy="80.2425" r="4" fill="#0" id="circle89"/>
	<circle cx="177.664" cy="31.9556" r="4" fill="#0" id="circle90"/>
	<circle cx="182.746" cy="268.307" r="4" fill="#0" id="circle91"/>
	<circle cx="182.746" cy="912.98" r="4" fill="#0" id="circle92"/>
	<circle cx="183.594" cy="84.4782" r="4" fill="#0" id="circle93"/>
	<circle cx="184.441" cy="25.1785" r="4" fill="#0" id="circle94"/>
	<circle cx="188.676" cy="919.757" r="4" fill="#0" id="circle95"/>
	<circle cx="189.523" cy="262.377" r="4" fill="#0" id="circle96"/>
	<circle cx="190.371" cy="89.5611" r="4" fill="#0" id="circle97"/>
	<circle cx="192.065" cy="20.9428" r="4" fill="#0" id="circle98"/>
	<circle cx="197.148" cy="258.142" r="4" fill="#0" id="circle99"/>
	<circle cx="197.148" cy="923.146" r="4" fill="#0" id="circle100"/>
	<circle cx="197.995" cy="93.7968" r="4" fill="#0" id="circle101"/>
	<circle cx="199.689" cy="16.7071" r="4" fill="#0" id="circle102"/>
	<circle cx="203.925" cy="928.229" r="4" fill="#0" id="circle103"/>
	<circle cx="204.772" cy="253.906" r="4" fill="#0" id="circle104"/>
	<circle cx="205.619" cy="98.0325" r="4" fill="#0" id="circle105"/>
	<circle cx="207.313" cy="10.7771" r="4" fill="#0" id="circle106"/>
	<circle cx="211.549" cy="932.465" r="4" fill="#0" id="circle107"/>
	<circle cx="212.396" cy="249.67" r="4" fill="#0" id="circle108"/>
	<circle cx="214.091" cy="101.421" r="4" fill="#0" id="circle109"/>
	<circle cx="215.785" cy="6.54142" r="4" fill="#0" id="circle110"/>
	<circle cx="219.173" cy="936.7" r="4" fill="#0" id="circle111"/>
	<circle cx="220.02" cy="245.435" r="4" fill="#0" id="circle112"/>
	<circle cx="221.715" cy="105.657" r="4" fill="#0" id="circle113"/>
	<circle cx="224.256" cy="4" r="4" fill="#0" id="circle114"/>
	<circle cx="226.798" cy="940.936" r="4" fill="#0" id="circle115"/>
	<circle cx="227.645" cy="241.199" r="4" fill="#0" id="circle116"/>
	<circle cx="230.186" cy="106.504" r="4" fill="#0" id="circle117"/>
	<circle cx="232.728" cy="4" r="4" fill="#0" id="circle118"/>
	<circle cx="234.422" cy="945.172" r="4" fill="#0" id="circle119"/>
	<circle cx="235.269" cy="236.963" r="4" fill="#0" id="circle120"/>
	<circle cx="237.81" cy="110.74" r="4" fill="#0" id="circle121"/>
	<circle cx="241.199" cy="4" r="4" fill="#0" id="circle122"/>
	<circle cx="242.893" cy="947.713" r="4" fill="#0" id="circle123"/>
	<circle cx="243.74" cy="232.728" r="4" fill="#0" id="circle124"/>
	<circle cx="246.282" cy="110.74" r="4" fill="#0" id="circle125"/>
	<circle cx="249.67" cy="4" r="4" fill="#0" id="circle126"/>
	<circle cx="250.518" cy="951.949" r="4" fill="#0" id="circle127"/>
	<circle cx="252.212" cy="228.492" r="4" fill="#0" id="circle128"/>
	<circle cx="254.753" cy="112.434" r="4" fill="#0" id="circle129"/>
	<circle cx="258.142" cy="4" r="4" fill="#0" id="circle130"/>
	<circle cx="258.989" cy="955.337" r="4" fill="#0" id="circle131"/>
	<circle cx="260.683" cy="224.256" r="4" fill="#0" id="circle132"/>
	<circle cx="263.225" cy="114.975" r="4" fill="#0" id="circle133"/>
	<circle cx="266.613" cy="4" r="4" fill="#0" id="circle134"/>
	<circle cx="266.613" cy="959.573" r="4" fill="#0" id="circle135"/>
	<circle cx="269.155" cy="220.02" r="4" fill="#0" id="circle136"/>
	<circle cx="271.696" cy="116.67" r="4" fill="#0" id="circle137"/>
	<circle cx="275.085" cy="4" r="4" fill="#0" id="circle138"/>
	<circle cx="275.085" cy="962.114" r="4" fill="#0" id="circle139"/>
	<circle cx="277.626" cy="220.02" r="4" fill="#0" id="circle140"/>
	<circle cx="280.167" cy="119.211" r="4" fill="#0" id="circle141"/>
	<circle cx="282.709" cy="966.35" r="4" fill="#0" id="circle142"/>
	<circle cx="283.556" cy="4" r="4" fill="#0" id="circle143"/>
	<circle cx="285.25" cy="215.785" r="4" fill="#0" id="circle144"/>
	<circle cx="288.639" cy="119.211" r="4" fill="#0" id="circle145"/>
	<circle cx="291.18" cy="966.35" r="4" fill="#0" id="circle146"/>
	<circle cx="292.027" cy="4" r="4" fill="#0" id="circle147"/>
	<circle cx="293.722" cy="212.396" r="4" fill="#0" id="circle148"/>
	<circle cx="297.11" cy="119.211" r="4" fill="#0" id="circle149"/>
	<circle cx="298.804" cy="970.586" r="4" fill="#0" id="circle150"/>
	<circle cx="299.652" cy="8.2357" r="4" fill="#0" id="circle151"/>
	<circle cx="302.193" cy="211.549" r="4" fill="#0" id="circle152"/>
	<circle cx="305.582" cy="119.211" r="4" fill="#0" id="circle153"/>
	<circle cx="307.276" cy="973.974" r="4" fill="#0" id="circle154"/>
	<circle cx="308.123" cy="9.08284" r="4" fill="#0" id="circle155"/>
	<circle cx="309.817" cy="207.313" r="4" fill="#0" id="circle156"/>
	<circle cx="314.053" cy="15.8599" r="4" fill="#0" id="circle157"/>
	<circle cx="314.053" cy="119.211" r="4" fill="#0" id="circle158"/>
	<circle cx="315.747" cy="974.822" r="4" fill="#0" id="circle159"/>
	<circle cx="318.289" cy="207.313" r="4" fill="#0" id="circle160"/>
	<circle cx="322.524" cy="16.7071" r="4" fill="#0" id="circle161"/>
	<circle cx="322.524" cy="119.211" r="4" fill="#0" id="circle162"/>
	<circle cx="324.219" cy="978.21" r="4" fill="#0" id="circle163"/>
	<circle cx="325.913" cy="203.078" r="4" fill="#0" id="circle164"/>
	<circle cx="330.149" cy="20.9428" r="4" fill="#0" id="circle165"/>
	<circle cx="330.149" cy="123.447" r="4" fill="#0" id="circle166"/>
	<circle cx="332.69" cy="979.057" r="4" fill="#0" id="circle167"/>
	<circle cx="334.384" cy="203.078" r="4" fill="#0" id="circle168"/>
	<circle cx="336.926" cy="26.0256" r="4" fill="#0" id="circle169"/>
	<circle cx="338.62" cy="123.447" r="4" fill="#0" id="circle170"/>
	<circle cx="341.161" cy="982.446" r="4" fill="#0" id="circle171"/>
	<circle cx="342.009" cy="198.842" r="4" fill="#0" id="circle172"/>
	<circle cx="343.703" cy="31.9556" r="4" fill="#0" id="circle173"/>
	<circle cx="347.091" cy="123.447" r="4" fill="#0" id="circle174"/>
	<circle cx="349.633" cy="983.293" r="4" fill="#0" id="circle175"/>
	<circle cx="350.48" cy="37.8856" r="4" fill="#0" id="circle176"/>
	<circle cx="350.48" cy="198.842" r="4" fill="#0" id="circle177"/>
	<circle cx="354.716" cy="127.682" r="4" fill="#0" id="circle178"/>
	<circle cx="358.104" cy="42.1213" r="4" fill="#0" id="circle179"/>
	<circle cx="358.104" cy="983.293" r="4" fill="#0" id="circle180"/>
	<circle cx="358.951" cy="198.842" r="4" fill="#0" id="circle181"/>
	<circle cx="363.187" cy="127.682" r="4" fill="#0" id="circle182"/>
	<circle cx="364.034" cy="48.8984" r="4" fill="#0" id="circle183"/>
	<circle cx="365.728" cy="987.529" r="4" fill="#0" id="circle184"/>
	<circle cx="366.576" cy="194.606" r="4" fill="#0" id="circle185"/>
	<circle cx="370.811" cy="131.918" r="4" fill="#0" id="circle186"/>
	<circle cx="372.506" cy="52.2869" r="4" fill="#0" id="circle187"/>
	<circle cx="374.2" cy="987.529" r="4" fill="#0" id="circle188"/>
	<circle cx="375.047" cy="194.606" r="4" fill="#0" id="circle189"/>
	<circle cx="377.588" cy="59.064" r="4" fill="#0" id="circle190"/>
	<circle cx="379.283" cy="135.307" r="4" fill="#0" id="circle191"/>
	<circle cx="382.671" cy="987.529" r="4" fill="#0" id="circle192"/>
	<circle cx="383.518" cy="194.606" r="4" fill="#0" id="circle193"/>
	<circle cx="386.06" cy="61.6055" r="4" fill="#0" id="circle194"/>
	<circle cx="386.907" cy="139.542" r="4" fill="#0" id="circle195"/>
	<circle cx="390.295" cy="69.2297" r="4" fill="#0" id="circle196"/>
	<circle cx="391.143" cy="987.529" r="4" fill="#0" id="circle197"/>
	<circle cx="391.99" cy="194.606" r="4" fill="#0" id="circle198"/>
	<circle cx="395.378" cy="142.931" r="4" fill="#0" id="circle199"/>
	<circle cx="397.92" cy="73.4654" r="4" fill="#0" id="circle200"/>
	<circle cx="398.767" cy="991.764" r="4" fill="#0" id="circle201"/>
	<circle cx="399.614" cy="190.371" r="4" fill="#0" id="circle202"/>
	<circle cx="403.003" cy="80.2425" r="4" fill="#0" id="circle203"/>
	<circle cx="403.003" cy="147.167" r="4" fill="#0" id="circle204"/>
	<circle cx="407.238" cy="87.8668" r="4" fill="#0" id="circle205"/>
	<circle cx="407.238" cy="991.764" r="4" fill="#0" id="circle206"/>
	<circle cx="408.085" cy="190.371" r="4" fill="#0" id="circle207"/>
	<circle cx="409.78" cy="153.096" r="4" fill="#0" id="circle208"/>
	<circle cx="414.015" cy="93.7968" r="4" fill="#0" id="circle209"/>
	<circle cx="415.71" cy="159.874" r="4" fill="#0" id="circle210"/>
	<circle cx="415.71" cy="991.764" r="4" fill="#0" id="circle211"/>
	<circle cx="416.557" cy="190.371" r="4" fill="#0" id="circle212"/>
	<circle cx="419.945" cy="100.574" r="4" fill="#0" id="circle213"/>
	<circle cx="423.334" cy="164.109" r="4" fill="#0" id="circle214"/>
	<circle cx="424.181" cy="108.198" r="4" fill="#0" id="circle215"/>
	<circle cx="424.181" cy="991.764" r="4" fill="#0" id="circle216"/>
	<circle cx="425.028" cy="190.371" r="4" fill="#0" id="circle217"/>
	<circle cx="427.57" cy="171.734" r="4" fill="#0" id="circle218"/>
	<circle cx="430.111" cy="114.975" r="4" fill="#0" id="circle219"/>
	<circle cx="431.805" cy="179.358" r="4" fill="#0" id="circle220"/>
	<circle cx="432.652" cy="991.764" r="4" fill="#0" id="circle221"/>
	<circle cx="433.5" cy="190.371" r="4" fill="#0" id="circle222"/>
	<circle cx="434.347" cy="122.599" r="4" fill="#0" id="circle223"/>
	<circle cx="436.888" cy="131.071" r="4" fill="#0" id="circle224"/>
	<circle cx="441.124" cy="138.695" r="4" fill="#0" id="circle225"/>
	<circle cx="441.124" cy="991.764" r="4" fill="#0" id="circle226"/>
	<circle cx="445.36" cy="146.319" r="4" fill="#0" id="circle227"/>
	<circle cx="445.36" cy="154.791" r="4" fill="#0" id="circle228"/>
	<circle cx="445.36" cy="163.262" r="4" fill="#0" id="circle229"/>
	<circle cx="449.595" cy="991.764" r="4" fill="#0" id="circle230"/>
	<circle cx="452.984" cy="137.848" r="4" fill="#0" id="circle231"/>
	<circle cx="457.219" cy="129.377" r="4" fill="#0" id="circle232"/>
	<circle cx="458.067" cy="991.764" r="4" fill="#0" id="circle233"/>
	<circle cx="461.455" cy="120.905" r="4" fill="#0" id="circle234"/>
	<circle cx="466.538" cy="991.764" r="4" fill="#0" id="circle235"/>
	<circle cx="468.232" cy="114.128" r="4" fill="#0" id="circle236"/>
	<circle cx="475.009" cy="107.351" r="4" fill="#0" id="circle237"/>
	<circle cx="475.009" cy="148.861" r="4" fill="#0" id="circle238"/>
	<circle cx="475.009" cy="157.332" r="4" fill="#0" id="circle239"/>
	<circle cx="475.009" cy="165.804" r="4" fill="#0" id="circle240"/>
	<circle cx="475.009" cy="174.275" r="4" fill="#0" id="circle241"/>
	<circle cx="475.009" cy="182.746" r="4" fill="#0" id="circle242"/>
	<circle cx="475.009" cy="991.764" r="4" fill="#0" id="circle243"/>
	<circle cx="479.245" cy="131.918" r="4" fill="#0" id="circle244"/>
	<circle cx="479.245" cy="140.389" r="4" fill="#0" id="circle245"/>
	<circle cx="481.787" cy="101.421" r="4" fill="#0" id="circle246"/>
	<circle cx="483.481" cy="123.447" r="4" fill="#0" id="circle247"/>
	<circle cx="483.481" cy="186.135" r="4" fill="#0" id="circle248"/>
	<circle cx="483.481" cy="987.529" r="4" fill="#0" id="circle249"/>
	<circle cx="485.175" cy="92.9496" r="4" fill="#0" id="circle250"/>
	<circle cx="490.258" cy="117.517" r="4" fill="#0" id="circle251"/>
	<circle cx="491.105" cy="181.899" r="4" fill="#0" id="circle252"/>
	<circle cx="491.105" cy="991.764" r="4" fill="#0" id="circle253"/>
	<circle cx="491.952" cy="86.1725" r="4" fill="#0" id="circle254"/>
	<circle cx="494.494" cy="109.045" r="4" fill="#0" id="circle255"/>
	<circle cx="499.576" cy="181.899" r="4" fill="#0" id="circle256"/>
	<circle cx="499.576" cy="991.764" r="4" fill="#0" id="circle257"/>
	<circle cx="500.424" cy="84.4782" r="4" fill="#0" id="circle258"/>
	<circle cx="500.424" cy="102.268" r="4" fill="#0" id="circle259"/>
	<circle cx="508.048" cy="80.2425" r="4" fill="#0" id="circle260"/>
	<circle cx="508.048" cy="98.0325" r="4" fill="#0" id="circle261"/>
	<circle cx="508.048" cy="181.899" r="4" fill="#0" id="circle262"/>
	<circle cx="508.048" cy="991.764" r="4" fill="#0" id="circle263"/>
	<circle cx="516.519" cy="80.2425" r="4" fill="#0" id="circle264"/>
	<circle cx="516.519" cy="98.0325" r="4" fill="#0" id="circle265"/>
	<circle cx="516.519" cy="180.205" r="4" fill="#0" id="circle266"/>
	<circle cx="516.519" cy="991.764" r="4" fill="#0" id="circle267"/>
	<circle cx="524.143" cy="996" r="4" fill="#0" id="circle268"/>
	<circle cx="524.991" cy="80.2425" r="4" fill="#0" id="circle269"/>
	<circle cx="524.991" cy="98.0325" r="4" fill="#0" id="circle270"/>
	<circle cx="524.991" cy="177.664" r="4" fill="#0" id="circle271"/>
	<circle cx="532.615" cy="996" r="4" fill="#0" id="circle272"/>
	<circle cx="533.462" cy="81.9368" r="4" fill="#0" id="circle273"/>
	<circle cx="533.462" cy="95.491" r="4" fill="#0" id="circle274"/>
	<circle cx="533.462" cy="177.664" r="4" fill="#0" id="circle275"/>
	<circle cx="541.086" cy="996" r="4" fill="#0" id="circle276"/>
	<circle cx="541.933" cy="177.664" r="4" fill="#0" id="circle277"/>
	<circle cx="549.558" cy="996" r="4" fill="#0" id="circle278"/>
	<circle cx="550.405" cy="177.664" r="4" fill="#0" id="circle279"/>
	<circle cx="558.029" cy="996" r="4" fill="#0" id="circle280"/>
	<circle cx="558.876" cy="177.664" r="4" fill="#0" id="circle281"/>
	<circle cx="566.5" cy="996" r="4" fill="#0" id="circle282"/>
	<circle cx="567.348" cy="177.664" r="4" fill="#0" id="circle283"/>
	<circle cx="574.972" cy="996" r="4" fill="#0" id="circle284"/>
	<circle cx="575.819" cy="177.664" r="4" fill="#0" id="circle285"/>
	<circle cx="583.443" cy="996" r="4" fill="#0" id="circle286"/>
	<circle cx="584.29" cy="177.664" r="4" fill="#0" id="circle287"/>
	<circle cx="591.915" cy="996" r="4" fill="#0" id="circle288"/>
	<circle cx="592.762" cy="177.664" r="4" fill="#0" id="circle289"/>
	<circle cx="600.386" cy="996" r="4" fill="#0" id="circle290"/>
	<circle cx="601.233" cy="177.664" r="4" fill="#0" id="circle291"/>
	<circle cx="608.01" cy="991.764" r="4" fill="#0" id="circle292"/>
	<circle cx="608.857" cy="181.899" r="4" fill="#0" id="circle293"/>
	<circle cx="616.482" cy="991.764" r="4" fill="#0" id="circle294"/>
	<circle cx="617.329" cy="181.899" r="4" fill="#0" id="circle295"/>
	<circle cx="624.953" cy="991.764" r="4" fill="#0" id="circle296"/>
	<circle cx="625.8" cy="181.899" r="4" fill="#0" id="circle297"/>
	<circle cx="633.424" cy="990.917" r="4" fill="#0" id="circle298"/>
	<circle cx="634.272" cy="182.746" r="4" fill="#0" id="circle299"/>
	<circle cx="641.896" cy="987.529" r="4" fill="#0" id="circle300"/>
	<circle cx="642.743" cy="186.135" r="4" fill="#0" id="circle301"/>
	<circle cx="650.367" cy="987.529" r="4" fill="#0" id="circle302"/>
	<circle cx="651.214" cy="186.135" r="4" fill="#0" id="circle303"/>
	<circle cx="657.991" cy="983.293" r="4" fill="#0" id="circle304"/>
	<circle cx="658.839" cy="190.371" r="4" fill="#0" id="circle305"/>
	<circle cx="666.463" cy="983.293" r="4" fill="#0" id="circle306"/>
	<circle cx="667.31" cy="190.371" r="4" fill="#0" id="circle307"/>
	<circle cx="674.934" cy="983.293" r="4" fill="#0" id="circle308"/>
	<circle cx="675.781" cy="190.371" r="4" fill="#0" id="circle309"/>
	<circle cx="682.558" cy="979.057" r="4" fill="#0" id="circle310"/>
	<circle cx="683.406" cy="194.606" r="4" fill="#0" id="circle311"/>
	<circle cx="691.03" cy="198.842" r="4" fill="#0" id="circle312"/>
	<circle cx="691.03" cy="974.822" r="4" fill="#0" id="circle313"/>
	<circle cx="699.501" cy="198.842" r="4" fill="#0" id="circle314"/>
	<circle cx="699.501" cy="974.822" r="4" fill="#0" id="circle315"/>
	<circle cx="707.126" cy="203.078" r="4" fill="#0" id="circle316"/>
	<circle cx="707.126" cy="970.586" r="4" fill="#0" id="circle317"/>
	<circle cx="715.597" cy="204.772" r="4" fill="#0" id="circle318"/>
	<circle cx="715.597" cy="968.044" r="4" fill="#0" id="circle319"/>
	<circle cx="724.068" cy="207.313" r="4" fill="#0" id="circle320"/>
	<circle cx="724.068" cy="966.35" r="4" fill="#0" id="circle321"/>
	<circle cx="731.693" cy="211.549" r="4" fill="#0" id="circle322"/>
	<circle cx="731.693" cy="962.114" r="4" fill="#0" id="circle323"/>
	<circle cx="739.317" cy="215.785" r="4" fill="#0" id="circle324"/>
	<circle cx="739.317" cy="957.879" r="4" fill="#0" id="circle325"/>
	<circle cx="746.941" cy="220.02" r="4" fill="#0" id="circle326"/>
	<circle cx="746.941" cy="953.643" r="4" fill="#0" id="circle327"/>
	<circle cx="755.412" cy="220.02" r="4" fill="#0" id="circle328"/>
	<circle cx="755.412" cy="953.643" r="4" fill="#0" id="circle329"/>
	<circle cx="763.037" cy="224.256" r="4" fill="#0" id="circle330"/>
	<circle cx="763.037" cy="949.407" r="4" fill="#0" id="circle331"/>
	<circle cx="769.814" cy="229.339" r="4" fill="#0" id="circle332"/>
	<circle cx="769.814" cy="943.477" r="4" fill="#0" id="circle333"/>
	<circle cx="777.438" cy="233.575" r="4" fill="#0" id="circle334"/>
	<circle cx="778.285" cy="939.242" r="4" fill="#0" id="circle335"/>
	<circle cx="785.909" cy="236.963" r="4" fill="#0" id="circle336"/>
	<circle cx="786.757" cy="935.006" r="4" fill="#0" id="circle337"/>
	<circle cx="793.534" cy="241.199" r="4" fill="#0" id="circle338"/>
	<circle cx="795.228" cy="930.77" r="4" fill="#0" id="circle339"/>
	<circle cx="800.311" cy="247.129" r="4" fill="#0" id="circle340"/>
	<circle cx="801.158" cy="923.993" r="4" fill="#0" id="circle341"/>
	<circle cx="807.935" cy="251.365" r="4" fill="#0" id="circle342"/>
	<circle cx="809.629" cy="919.757" r="4" fill="#0" id="circle343"/>
	<circle cx="813.865" cy="258.142" r="4" fill="#0" id="circle344"/>
	<circle cx="817.254" cy="915.522" r="4" fill="#0" id="circle345"/>
	<circle cx="822.336" cy="260.683" r="4" fill="#0" id="circle346"/>
	<circle cx="824.031" cy="910.439" r="4" fill="#0" id="circle347"/>
	<circle cx="828.266" cy="267.46" r="4" fill="#0" id="circle348"/>
	<circle cx="830.808" cy="902.815" r="4" fill="#0" id="circle349"/>
	<circle cx="836.738" cy="270.849" r="4" fill="#0" id="circle350"/>
	<circle cx="839.279" cy="898.579" r="4" fill="#0" id="circle351"/>
	<circle cx="842.668" cy="277.626" r="4" fill="#0" id="circle352"/>
	<circle cx="846.056" cy="892.649" r="4" fill="#0" id="circle353"/>
	<circle cx="849.445" cy="283.556" r="4" fill="#0" id="circle354"/>
	<circle cx="851.986" cy="885.872" r="4" fill="#0" id="circle355"/>
	<circle cx="855.375" cy="290.333" r="4" fill="#0" id="circle356"/>
	<circle cx="858.763" cy="879.942" r="4" fill="#0" id="circle357"/>
	<circle cx="862.152" cy="296.263" r="4" fill="#0" id="circle358"/>
	<circle cx="867.235" cy="875.706" r="4" fill="#0" id="circle359"/>
	<circle cx="869.776" cy="300.499" r="4" fill="#0" id="circle360"/>
	<circle cx="873.165" cy="868.929" r="4" fill="#0" id="circle361"/>
	<circle cx="876.553" cy="306.429" r="4" fill="#0" id="circle362"/>
	<circle cx="879.942" cy="862.999" r="4" fill="#0" id="circle363"/>
	<circle cx="881.636" cy="313.206" r="4" fill="#0" id="circle364"/>
	<circle cx="884.178" cy="854.528" r="4" fill="#0" id="circle365"/>
	<circle cx="885.872" cy="320.83" r="4" fill="#0" id="circle366"/>
	<circle cx="890.108" cy="847.751" r="4" fill="#0" id="circle367"/>
	<circle cx="892.649" cy="326.76" r="4" fill="#0" id="circle368"/>
	<circle cx="896.885" cy="841.821" r="4" fill="#0" id="circle369"/>
	<circle cx="898.579" cy="333.537" r="4" fill="#0" id="circle370"/>
	<circle cx="902.815" cy="835.044" r="4" fill="#0" id="circle371"/>
	<circle cx="905.356" cy="339.467" r="4" fill="#0" id="circle372"/>
	<circle cx="907.05" cy="826.572" r="4" fill="#0" id="circle373"/>
	<circle cx="908.745" cy="347.939" r="4" fill="#0" id="circle374"/>
	<circle cx="913.827" cy="820.642" r="4" fill="#0" id="circle375"/>
	<circle cx="915.522" cy="353.868" r="4" fill="#0" id="circle376"/>
	<circle cx="919.757" cy="361.493" r="4" fill="#0" id="circle377"/>
	<circle cx="919.757" cy="809.629" r="4" fill="#0" id="circle378"/>
	<circle cx="924.84" cy="368.27" r="4" fill="#0" id="circle379"/>
	<circle cx="926.535" cy="803.699" r="4" fill="#0" id="circle380"/>
	<circle cx="928.229" cy="376.741" r="4" fill="#0" id="circle381"/>
	<circle cx="930.77" cy="795.228" r="4" fill="#0" id="circle382"/>
	<circle cx="935.006" cy="381.824" r="4" fill="#0" id="circle383"/>
	<circle cx="936.7" cy="784.215" r="4" fill="#0" id="circle384"/>
	<circle cx="938.395" cy="390.295" r="4" fill="#0" id="circle385"/>
	<circle cx="940.936" cy="775.744" r="4" fill="#0" id="circle386"/>
	<circle cx="942.63" cy="397.92" r="4" fill="#0" id="circle387"/>
	<circle cx="945.172" cy="406.391" r="4" fill="#0" id="circle388"/>
	<circle cx="945.172" cy="767.272" r="4" fill="#0" id="circle389"/>
	<circle cx="949.407" cy="414.015" r="4" fill="#0" id="circle390"/>
	<circle cx="949.407" cy="758.801" r="4" fill="#0" id="circle391"/>
	<circle cx="953.643" cy="421.64" r="4" fill="#0" id="circle392"/>
	<circle cx="953.643" cy="750.33" r="4" fill="#0" id="circle393"/>
	<circle cx="957.879" cy="429.264" r="4" fill="#0" id="circle394"/>
	<circle cx="957.879" cy="741.858" r="4" fill="#0" id="circle395"/>
	<circle cx="962.114" cy="436.888" r="4" fill="#0" id="circle396"/>
	<circle cx="962.114" cy="729.151" r="4" fill="#0" id="circle397"/>
	<circle cx="963.809" cy="445.36" r="4" fill="#0" id="circle398"/>
	<circle cx="966.35" cy="720.68" r="4" fill="#0" id="circle399"/>
	<circle cx="968.044" cy="452.984" r="4" fill="#0" id="circle400"/>
	<circle cx="970.586" cy="461.455" r="4" fill="#0" id="circle401"/>
	<circle cx="970.586" cy="707.973" r="4" fill="#0" id="circle402"/>
	<circle cx="974.822" cy="469.079" r="4" fill="#0" id="circle403"/>
	<circle cx="974.822" cy="477.551" r="4" fill="#0" id="circle404"/>
	<circle cx="974.822" cy="695.266" r="4" fill="#0" id="circle405"/>
	<circle cx="979.057" cy="485.175" r="4" fill="#0" id="circle406"/>
	<circle cx="979.057" cy="493.646" r="4" fill="#0" id="circle407"/>
	<circle cx="979.057" cy="678.323" r="4" fill="#0" id="circle408"/>
	<circle cx="979.057" cy="686.794" r="4" fill="#0" id="circle409"/>
	<circle cx="983.293" cy="501.271" r="4" fill="#0" id="circle410"/>
	<circle cx="983.293" cy="509.742" r="4" fill="#0" id="circle411"/>
	<circle cx="983.293" cy="657.144" r="4" fill="#0" id="circle412"/>
	<circle cx="983.293" cy="665.616" r="4" fill="#0" id="circle413"/>
	<circle cx="985.834" cy="518.213" r="4" fill="#0" id="circle414"/>
	<circle cx="987.529" cy="526.685" r="4" fill="#0" id="circle415"/>
	<circle cx="987.529" cy="535.156" r="4" fill="#0" id="circle416"/>
	<circle cx="987.529" cy="543.628" r="4" fill="#0" id="circle417"/>
	<circle cx="987.529" cy="627.494" r="4" fill="#0" id="circle418"/>
	<circle cx="987.529" cy="635.966" r="4" fill="#0" id="circle419"/>
	<circle cx="987.529" cy="644.437" r="4" fill="#0" id="circle420"/>
	<circle cx="991.764" cy="551.252" r="4" fill="#0" id="circle421"/>
	<circle cx="991.764" cy="559.723" r="4" fill="#0" id="circle422"/>
	<circle cx="991.764" cy="568.195" r="4" fill="#0" id="circle423"/>
	<circle cx="991.764" cy="576.666" r="4" fill="#0" id="circle424"/>
	<circle cx="991.764" cy="585.137" r="4" fill="#0" id="circle425"/>
	<circle cx="991.764" cy="593.609" r="4" fill="#0" id="circle426"/>
	<circle cx="991.764" cy="602.08" r="4" fill="#0" id="circle427"/>
	<circle cx="991.764" cy="610.552" r="4" fill="#0" id="circle428"/>
	<circle cx="991.764" cy="619.023" r="4" fill="#0" id="circle429"/>
	</g>
</svg>