<?xml version="1.0" encoding="UTF-8" standalone="no"?>
<!-- Created with CurveBenchmark -->
<svg
	xmlns:dc="http://purl.org/dc/elements/1.1/"
	xmlns:cc="http://creativecommons.org/ns#"
	xmlns:rdf="http://www.w3.org/1999/02/22-rdf-syntax-ns#"
	xmlns:svg="http://www.w3.org/2000/svg"
	xmlns="http://www.w3.org/2000/svg"
	xmlns:sodipodi="http://sodipodi.sourceforge.net/DTD/sodipodi-0.dtd"
	xmlns:inkscape="http://www.inkscape.org/namespaces/inkscape"
	width="1000"
	height="1000"
	id="svg2"
	version="1.1"
	sodipodi:docname="manifold/fitconnect-children-3.png.txt">
<defs
	id="defs4" />
<metadata
	id="metadata7">
	<rdf:RDF>
		<cc:Work
			rdf:about="">
			<dc:format>image/svg+xml</dc:format>
			<dc:type
				rdf:resource="http://purl.org/dc/dcmitype/StillImage" />
			<dc:title></dc:title>
		</cc:Work>
	</rdf:RDF>
</metadata>
<g
	inkscape:label="Layer 1"
	inkscape:groupmode="layer"
	id="layer1">
	<path style="fill:none;stroke:red;stroke-width:1px;stroke-linecap:butt;stroke-linejoin:miter;stroke-opacity:1" d="M 4,306.017 4,317.954 z" id="boundary" inkscape:connector-curvature="0" />
	<path style="fill:none;stroke:red;stroke-width:1px;stroke-linecap:butt;stroke-linejoin:miter;stroke-opacity:1" d="M 4,306.017 9.96871,294.079 z" id="boundary" inkscape:connector-curvature="0" />
	<path style="fill:none;stroke:red;stroke-width:1px;stroke-linecap:butt;stroke-linejoin:miter;stroke-opacity:1" d="M 4,317.954 4,329.892 z" id="boundary" inkscape:connector-curvature="0" />
	<path style="fill:none;stroke:red;stroke-width:1px;stroke-linecap:butt;stroke-linejoin:miter;stroke-opacity:1" d="M 4,329.892 4,341.829 z" id="boundary" inkscape:connector-curvature="0" />
	<path style="fill:none;stroke:red;stroke-width:1px;stroke-linecap:butt;stroke-linejoin:miter;stroke-opacity:1" d="M 4,341.829 4,353.767 z" id="boundary" inkscape:connector-curvature="0" />
	<path style="fill:none;stroke:red;stroke-width:1px;stroke-linecap:butt;stroke-linejoin:miter;stroke-opacity:1" d="M 4,353.767 4,365.704 z" id="boundary" inkscape:connector-curvature="0" />
	<path style="fill:none;stroke:red;stroke-width:1px;stroke-linecap:butt;stroke-linejoin:miter;stroke-opacity:1" d="M 4,365.704 4,377.641 z" id="boundary" inkscape:connector-curvature="0" />
	<path style="fill:none;stroke:red;stroke-width:1px;stroke-linecap:butt;stroke-linejoin:miter;stroke-opacity:1" d="M 4,377.641 9.96871,388.385 z" id="boundary" inkscape:connector-curvature="0" />
	<path style="fill:none;stroke:red;stroke-width:1px;stroke-linecap:butt;stroke-linejoin:miter;stroke-opacity:1" d="M 9.96871,294.079 15.9374,282.142 z" id="boundary" inkscape:connector-curvature="0" />
	<path style="fill:none;stroke:red;stroke-width:1px;stroke-linecap:butt;stroke-linejoin:miter;stroke-opacity:1" d="M 9.96871,388.385 9.96871,400.323 z" id="boundary" inkscape:connector-curvature="0" />
	<path style="fill:none;stroke:red;stroke-width:1px;stroke-linecap:butt;stroke-linejoin:miter;stroke-opacity:1" d="M 9.96871,400.323 9.96871,412.26 z" id="boundary" inkscape:connector-curvature="0" />
	<path style="fill:none;stroke:red;stroke-width:1px;stroke-linecap:butt;stroke-linejoin:miter;stroke-opacity:1" d="M 9.96871,412.26 9.96871,424.197 z" id="boundary" inkscape:connector-curvature="0" />
	<path style="fill:none;stroke:red;stroke-width:1px;stroke-linecap:butt;stroke-linejoin:miter;stroke-opacity:1" d="M 9.96871,424.197 9.96871,436.135 z" id="boundary" inkscape:connector-curvature="0" />
	<path style="fill:none;stroke:red;stroke-width:1px;stroke-linecap:butt;stroke-linejoin:miter;stroke-opacity:1" d="M 9.96871,436.135 9.96871,448.072 z" id="boundary" inkscape:connector-curvature="0" />
	<path style="fill:none;stroke:red;stroke-width:1px;stroke-linecap:butt;stroke-linejoin:miter;stroke-opacity:1" d="M 9.96871,448.072 9.96871,460.01 z" id="boundary" inkscape:connector-curvature="0" />
	<path style="fill:none;stroke:red;stroke-width:1px;stroke-linecap:butt;stroke-linejoin:miter;stroke-opacity:1" d="M 9.96871,460.01 15.9374,470.753 z" id="boundary" inkscape:connector-curvature="0" />
	<path style="fill:none;stroke:red;stroke-width:1px;stroke-linecap:butt;stroke-linejoin:miter;stroke-opacity:1" d="M 15.9374,282.142 21.9061,270.205 z" id="boundary" inkscape:connector-curvature="0" />
	<path style="fill:none;stroke:red;stroke-width:1px;stroke-linecap:butt;stroke-linejoin:miter;stroke-opacity:1" d="M 15.9374,470.753 15.9374,482.691 z" id="boundary" inkscape:connector-curvature="0" />
	<path style="fill:none;stroke:red;stroke-width:1px;stroke-linecap:butt;stroke-linejoin:miter;stroke-opacity:1" d="M 15.9374,482.691 15.9374,494.628 z" id="boundary" inkscape:connector-curvature="0" />
	<path style="fill:none;stroke:red;stroke-width:1px;stroke-linecap:butt;stroke-linejoin:miter;stroke-opacity:1" d="M 15.9374,494.628 21.9061,505.372 z" id="boundary" inkscape:connector-curvature="0" />
	<path style="fill:none;stroke:red;stroke-width:1px;stroke-linecap:butt;stroke-linejoin:miter;stroke-opacity:1" d="M 21.9061,67.2684 21.9061,79.2058 z" id="boundary" inkscape:connector-curvature="0" />
	<path style="fill:none;stroke:red;stroke-width:1px;stroke-linecap:butt;stroke-linejoin:miter;stroke-opacity:1" d="M 21.9061,67.2684 27.8748,55.3309 z" id="boundary" inkscape:connector-curvature="0" />
	<path style="fill:none;stroke:red;stroke-width:1px;stroke-linecap:butt;stroke-linejoin:miter;stroke-opacity:1" d="M 21.9061,79.2058 21.9061,91.1432 z" id="boundary" inkscape:connector-curvature="0" />
	<path style="fill:none;stroke:red;stroke-width:1px;stroke-linecap:butt;stroke-linejoin:miter;stroke-opacity:1" d="M 21.9061,91.1432 21.9061,103.081 z" id="boundary" inkscape:connector-curvature="0" />
	<path style="fill:none;stroke:red;stroke-width:1px;stroke-linecap:butt;stroke-linejoin:miter;stroke-opacity:1" d="M 21.9061,103.081 21.9061,115.018 z" id="boundary" inkscape:connector-curvature="0" />
	<path style="fill:none;stroke:red;stroke-width:1px;stroke-linecap:butt;stroke-linejoin:miter;stroke-opacity:1" d="M 21.9061,115.018 21.9061,126.955 z" id="boundary" inkscape:connector-curvature="0" />
	<path style="fill:none;stroke:red;stroke-width:1px;stroke-linecap:butt;stroke-linejoin:miter;stroke-opacity:1" d="M 21.9061,126.955 27.8748,137.699 z" id="boundary" inkscape:connector-curvature="0" />
	<path style="fill:none;stroke:red;stroke-width:1px;stroke-linecap:butt;stroke-linejoin:miter;stroke-opacity:1" d="M 21.9061,270.205 31.4561,260.655 z" id="boundary" inkscape:connector-curvature="0" />
	<path style="fill:none;stroke:red;stroke-width:1px;stroke-linecap:butt;stroke-linejoin:miter;stroke-opacity:1" d="M 21.9061,505.372 24.2936,517.309 z" id="boundary" inkscape:connector-curvature="0" />
	<path style="fill:none;stroke:red;stroke-width:1px;stroke-linecap:butt;stroke-linejoin:miter;stroke-opacity:1" d="M 24.2936,517.309 27.8748,529.247 z" id="boundary" inkscape:connector-curvature="0" />
	<path style="fill:none;stroke:red;stroke-width:1px;stroke-linecap:butt;stroke-linejoin:miter;stroke-opacity:1" d="M 27.8748,55.3309 37.4248,45.781 z" id="boundary" inkscape:connector-curvature="0" />
	<path style="fill:none;stroke:red;stroke-width:1px;stroke-linecap:butt;stroke-linejoin:miter;stroke-opacity:1" d="M 27.8748,137.699 33.8436,148.443 z" id="boundary" inkscape:connector-curvature="0" />
	<path style="fill:none;stroke:red;stroke-width:1px;stroke-linecap:butt;stroke-linejoin:miter;stroke-opacity:1" d="M 27.8748,529.247 33.8436,539.99 z" id="boundary" inkscape:connector-curvature="0" />
	<path style="fill:none;stroke:red;stroke-width:1px;stroke-linecap:butt;stroke-linejoin:miter;stroke-opacity:1" d="M 31.4561,260.655 42.1998,254.686 z" id="boundary" inkscape:connector-curvature="0" />
	<path style="fill:none;stroke:red;stroke-width:1px;stroke-linecap:butt;stroke-linejoin:miter;stroke-opacity:1" d="M 33.8436,148.443 39.8123,159.187 z" id="boundary" inkscape:connector-curvature="0" />
	<path style="fill:none;stroke:red;stroke-width:1px;stroke-linecap:butt;stroke-linejoin:miter;stroke-opacity:1" d="M 33.8436,539.99 33.8436,551.928 z" id="boundary" inkscape:connector-curvature="0" />
	<path style="fill:none;stroke:red;stroke-width:1px;stroke-linecap:butt;stroke-linejoin:miter;stroke-opacity:1" d="M 33.8436,551.928 39.8123,562.671 z" id="boundary" inkscape:connector-curvature="0" />
	<path style="fill:none;stroke:red;stroke-width:1px;stroke-linecap:butt;stroke-linejoin:miter;stroke-opacity:1" d="M 37.4248,45.781 46.9747,36.231 z" id="boundary" inkscape:connector-curvature="0" />
	<path style="fill:none;stroke:red;stroke-width:1px;stroke-linecap:butt;stroke-linejoin:miter;stroke-opacity:1" d="M 39.8123,159.187 46.9747,168.736 z" id="boundary" inkscape:connector-curvature="0" />
	<path style="fill:none;stroke:red;stroke-width:1px;stroke-linecap:butt;stroke-linejoin:miter;stroke-opacity:1" d="M 39.8123,562.671 39.8123,574.609 z" id="boundary" inkscape:connector-curvature="0" />
	<path style="fill:none;stroke:red;stroke-width:1px;stroke-linecap:butt;stroke-linejoin:miter;stroke-opacity:1" d="M 39.8123,574.609 39.8123,586.546 z" id="boundary" inkscape:connector-curvature="0" />
	<path style="fill:none;stroke:red;stroke-width:1px;stroke-linecap:butt;stroke-linejoin:miter;stroke-opacity:1" d="M 39.8123,586.546 39.8123,598.484 z" id="boundary" inkscape:connector-curvature="0" />
	<path style="fill:none;stroke:red;stroke-width:1px;stroke-linecap:butt;stroke-linejoin:miter;stroke-opacity:1" d="M 39.8123,598.484 39.8123,610.421 z" id="boundary" inkscape:connector-curvature="0" />
	<path style="fill:none;stroke:red;stroke-width:1px;stroke-linecap:butt;stroke-linejoin:miter;stroke-opacity:1" d="M 39.8123,610.421 45.781,621.165 z" id="boundary" inkscape:connector-curvature="0" />
	<path style="fill:none;stroke:red;stroke-width:1px;stroke-linecap:butt;stroke-linejoin:miter;stroke-opacity:1" d="M 42.1998,254.686 51.7497,246.33 z" id="boundary" inkscape:connector-curvature="0" />
	<path style="fill:none;stroke:red;stroke-width:1px;stroke-linecap:butt;stroke-linejoin:miter;stroke-opacity:1" d="M 45.781,621.165 45.781,633.102 z" id="boundary" inkscape:connector-curvature="0" />
	<path style="fill:none;stroke:red;stroke-width:1px;stroke-linecap:butt;stroke-linejoin:miter;stroke-opacity:1" d="M 45.781,633.102 51.7497,643.846 z" id="boundary" inkscape:connector-curvature="0" />
	<path style="fill:none;stroke:red;stroke-width:1px;stroke-linecap:butt;stroke-linejoin:miter;stroke-opacity:1" d="M 46.9747,36.231 56.5247,27.8748 z" id="boundary" inkscape:connector-curvature="0" />
	<path style="fill:none;stroke:red;stroke-width:1px;stroke-linecap:butt;stroke-linejoin:miter;stroke-opacity:1" d="M 46.9747,168.736 55.3309,178.286 z" id="boundary" inkscape:connector-curvature="0" />
	<path style="fill:none;stroke:red;stroke-width:1px;stroke-linecap:butt;stroke-linejoin:miter;stroke-opacity:1" d="M 51.7497,246.33 61.2996,236.78 z" id="boundary" inkscape:connector-curvature="0" />
	<path style="fill:none;stroke:red;stroke-width:1px;stroke-linecap:butt;stroke-linejoin:miter;stroke-opacity:1" d="M 51.7497,643.846 51.7497,655.783 z" id="boundary" inkscape:connector-curvature="0" />
	<path style="fill:none;stroke:red;stroke-width:1px;stroke-linecap:butt;stroke-linejoin:miter;stroke-opacity:1" d="M 51.7497,655.783 57.7184,666.527 z" id="boundary" inkscape:connector-curvature="0" />
	<path style="fill:none;stroke:red;stroke-width:1px;stroke-linecap:butt;stroke-linejoin:miter;stroke-opacity:1" d="M 55.3309,178.286 64.8809,186.643 z" id="boundary" inkscape:connector-curvature="0" />
	<path style="fill:none;stroke:red;stroke-width:1px;stroke-linecap:butt;stroke-linejoin:miter;stroke-opacity:1" d="M 56.5247,27.8748 67.2684,21.9061 z" id="boundary" inkscape:connector-curvature="0" />
	<path style="fill:none;stroke:red;stroke-width:1px;stroke-linecap:butt;stroke-linejoin:miter;stroke-opacity:1" d="M 57.7184,666.527 64.8809,676.077 z" id="boundary" inkscape:connector-curvature="0" />
	<path style="fill:none;stroke:red;stroke-width:1px;stroke-linecap:butt;stroke-linejoin:miter;stroke-opacity:1" d="M 61.2996,236.78 70.8496,227.23 z" id="boundary" inkscape:connector-curvature="0" />
	<path style="fill:none;stroke:red;stroke-width:1px;stroke-linecap:butt;stroke-linejoin:miter;stroke-opacity:1" d="M 64.8809,186.643 73.2371,196.193 z" id="boundary" inkscape:connector-curvature="0" />
	<path style="fill:none;stroke:red;stroke-width:1px;stroke-linecap:butt;stroke-linejoin:miter;stroke-opacity:1" d="M 64.8809,676.077 73.2371,685.627 z" id="boundary" inkscape:connector-curvature="0" />
	<path style="fill:none;stroke:red;stroke-width:1px;stroke-linecap:butt;stroke-linejoin:miter;stroke-opacity:1" d="M 67.2684,21.9061 78.012,15.9374 z" id="boundary" inkscape:connector-curvature="0" />
	<path style="fill:none;stroke:red;stroke-width:1px;stroke-linecap:butt;stroke-linejoin:miter;stroke-opacity:1" d="M 70.8496,227.23 75.6245,208.13 z" id="boundary" inkscape:connector-curvature="0" />
	<path style="fill:none;stroke:red;stroke-width:1px;stroke-linecap:butt;stroke-linejoin:miter;stroke-opacity:1" d="M 73.2371,196.193 75.6245,208.13 z" id="boundary" inkscape:connector-curvature="0" />
	<path style="fill:none;stroke:red;stroke-width:1px;stroke-linecap:butt;stroke-linejoin:miter;stroke-opacity:1" d="M 73.2371,685.627 83.9807,691.596 z" id="boundary" inkscape:connector-curvature="0" />
	<path style="fill:none;stroke:red;stroke-width:1px;stroke-linecap:butt;stroke-linejoin:miter;stroke-opacity:1" d="M 78.012,15.9374 88.7557,9.96871 z" id="boundary" inkscape:connector-curvature="0" />
	<path style="fill:none;stroke:red;stroke-width:1px;stroke-linecap:butt;stroke-linejoin:miter;stroke-opacity:1" d="M 83.9807,691.596 93.5307,698.758 z" id="boundary" inkscape:connector-curvature="0" />
	<path style="fill:none;stroke:red;stroke-width:1px;stroke-linecap:butt;stroke-linejoin:miter;stroke-opacity:1" d="M 87.562,783.514 87.562,795.451 z" id="boundary" inkscape:connector-curvature="0" />
	<path style="fill:none;stroke:red;stroke-width:1px;stroke-linecap:butt;stroke-linejoin:miter;stroke-opacity:1" d="M 87.562,783.514 93.5307,771.576 z" id="boundary" inkscape:connector-curvature="0" />
	<path style="fill:none;stroke:red;stroke-width:1px;stroke-linecap:butt;stroke-linejoin:miter;stroke-opacity:1" d="M 87.562,795.451 87.562,807.389 z" id="boundary" inkscape:connector-curvature="0" />
	<path style="fill:none;stroke:red;stroke-width:1px;stroke-linecap:butt;stroke-linejoin:miter;stroke-opacity:1" d="M 87.562,807.389 87.562,819.326 z" id="boundary" inkscape:connector-curvature="0" />
	<path style="fill:none;stroke:red;stroke-width:1px;stroke-linecap:butt;stroke-linejoin:miter;stroke-opacity:1" d="M 87.562,819.326 87.562,831.264 z" id="boundary" inkscape:connector-curvature="0" />
	<path style="fill:none;stroke:red;stroke-width:1px;stroke-linecap:butt;stroke-linejoin:miter;stroke-opacity:1" d="M 87.562,831.264 93.5307,842.007 z" id="boundary" inkscape:connector-curvature="0" />
	<path style="fill:none;stroke:red;stroke-width:1px;stroke-linecap:butt;stroke-linejoin:miter;stroke-opacity:1" d="M 88.7557,9.96871 99.4994,4 z" id="boundary" inkscape:connector-curvature="0" />
	<path style="fill:none;stroke:red;stroke-width:1px;stroke-linecap:butt;stroke-linejoin:miter;stroke-opacity:1" d="M 93.5307,698.758 101.887,708.308 z" id="boundary" inkscape:connector-curvature="0" />
	<path style="fill:none;stroke:red;stroke-width:1px;stroke-linecap:butt;stroke-linejoin:miter;stroke-opacity:1" d="M 93.5307,771.576 99.4994,759.639 z" id="boundary" inkscape:connector-curvature="0" />
	<path style="fill:none;stroke:red;stroke-width:1px;stroke-linecap:butt;stroke-linejoin:miter;stroke-opacity:1" d="M 93.5307,842.007 93.5307,853.945 z" id="boundary" inkscape:connector-curvature="0" />
	<path style="fill:none;stroke:red;stroke-width:1px;stroke-linecap:butt;stroke-linejoin:miter;stroke-opacity:1" d="M 93.5307,853.945 99.4994,864.688 z" id="boundary" inkscape:connector-curvature="0" />
	<path style="fill:none;stroke:red;stroke-width:1px;stroke-linecap:butt;stroke-linejoin:miter;stroke-opacity:1" d="M 99.4994,4 111.437,4 z" id="boundary" inkscape:connector-curvature="0" />
	<path style="fill:none;stroke:red;stroke-width:1px;stroke-linecap:butt;stroke-linejoin:miter;stroke-opacity:1" d="M 99.4994,759.639 105.468,744.12 z" id="boundary" inkscape:connector-curvature="0" />
	<path style="fill:none;stroke:red;stroke-width:1px;stroke-linecap:butt;stroke-linejoin:miter;stroke-opacity:1" d="M 99.4994,864.688 103.081,876.626 z" id="boundary" inkscape:connector-curvature="0" />
	<path style="fill:none;stroke:red;stroke-width:1px;stroke-linecap:butt;stroke-linejoin:miter;stroke-opacity:1" d="M 99.4994,932.732 99.4994,944.669 z" id="boundary" inkscape:connector-curvature="0" />
	<path style="fill:none;stroke:red;stroke-width:1px;stroke-linecap:butt;stroke-linejoin:miter;stroke-opacity:1" d="M 99.4994,932.732 105.468,920.794 z" id="boundary" inkscape:connector-curvature="0" />
	<path style="fill:none;stroke:red;stroke-width:1px;stroke-linecap:butt;stroke-linejoin:miter;stroke-opacity:1" d="M 99.4994,944.669 99.4994,956.606 z" id="boundary" inkscape:connector-curvature="0" />
	<path style="fill:none;stroke:red;stroke-width:1px;stroke-linecap:butt;stroke-linejoin:miter;stroke-opacity:1" d="M 99.4994,956.606 105.468,967.35 z" id="boundary" inkscape:connector-curvature="0" />
	<path style="fill:none;stroke:red;stroke-width:1px;stroke-linecap:butt;stroke-linejoin:miter;stroke-opacity:1" d="M 101.887,708.308 105.468,720.245 z" id="boundary" inkscape:connector-curvature="0" />
	<path style="fill:none;stroke:red;stroke-width:1px;stroke-linecap:butt;stroke-linejoin:miter;stroke-opacity:1" d="M 103.081,876.626 109.049,887.369 z" id="boundary" inkscape:connector-curvature="0" />
	<path style="fill:none;stroke:red;stroke-width:1px;stroke-linecap:butt;stroke-linejoin:miter;stroke-opacity:1" d="M 105.468,720.245 105.468,732.183 z" id="boundary" inkscape:connector-curvature="0" />
	<path style="fill:none;stroke:red;stroke-width:1px;stroke-linecap:butt;stroke-linejoin:miter;stroke-opacity:1" d="M 105.468,732.183 105.468,744.12 z" id="boundary" inkscape:connector-curvature="0" />
	<path style="fill:none;stroke:red;stroke-width:1px;stroke-linecap:butt;stroke-linejoin:miter;stroke-opacity:1" d="M 105.468,920.794 111.437,899.307 z" id="boundary" inkscape:connector-curvature="0" />
	<path style="fill:none;stroke:red;stroke-width:1px;stroke-linecap:butt;stroke-linejoin:miter;stroke-opacity:1" d="M 105.468,967.35 113.824,976.9 z" id="boundary" inkscape:connector-curvature="0" />
	<path style="fill:none;stroke:red;stroke-width:1px;stroke-linecap:butt;stroke-linejoin:miter;stroke-opacity:1" d="M 109.049,887.369 111.437,899.307 z" id="boundary" inkscape:connector-curvature="0" />
	<path style="fill:none;stroke:red;stroke-width:1px;stroke-linecap:butt;stroke-linejoin:miter;stroke-opacity:1" d="M 111.437,4 123.374,4 z" id="boundary" inkscape:connector-curvature="0" />
	<path style="fill:none;stroke:red;stroke-width:1px;stroke-linecap:butt;stroke-linejoin:miter;stroke-opacity:1" d="M 113.824,976.9 123.374,984.063 z" id="boundary" inkscape:connector-curvature="0" />
	<path style="fill:none;stroke:red;stroke-width:1px;stroke-linecap:butt;stroke-linejoin:miter;stroke-opacity:1" d="M 123.374,4 135.312,4 z" id="boundary" inkscape:connector-curvature="0" />
	<path style="fill:none;stroke:red;stroke-width:1px;stroke-linecap:butt;stroke-linejoin:miter;stroke-opacity:1" d="M 123.374,984.063 135.312,984.063 z" id="boundary" inkscape:connector-curvature="0" />
	<path style="fill:none;stroke:red;stroke-width:1px;stroke-linecap:butt;stroke-linejoin:miter;stroke-opacity:1" d="M 135.312,4 147.249,4 z" id="boundary" inkscape:connector-curvature="0" />
	<path style="fill:none;stroke:red;stroke-width:1px;stroke-linecap:butt;stroke-linejoin:miter;stroke-opacity:1" d="M 135.312,984.063 147.249,984.063 z" id="boundary" inkscape:connector-curvature="0" />
	<path style="fill:none;stroke:red;stroke-width:1px;stroke-linecap:butt;stroke-linejoin:miter;stroke-opacity:1" d="M 147.249,4 159.187,4 z" id="boundary" inkscape:connector-curvature="0" />
	<path style="fill:none;stroke:red;stroke-width:1px;stroke-linecap:butt;stroke-linejoin:miter;stroke-opacity:1" d="M 147.249,984.063 157.993,990.031 z" id="boundary" inkscape:connector-curvature="0" />
	<path style="fill:none;stroke:red;stroke-width:1px;stroke-linecap:butt;stroke-linejoin:miter;stroke-opacity:1" d="M 157.993,990.031 169.93,990.031 z" id="boundary" inkscape:connector-curvature="0" />
	<path style="fill:none;stroke:red;stroke-width:1px;stroke-linecap:butt;stroke-linejoin:miter;stroke-opacity:1" d="M 159.187,4 171.124,4 z" id="boundary" inkscape:connector-curvature="0" />
	<path style="fill:none;stroke:red;stroke-width:1px;stroke-linecap:butt;stroke-linejoin:miter;stroke-opacity:1" d="M 169.93,990.031 180.674,996 z" id="boundary" inkscape:connector-curvature="0" />
	<path style="fill:none;stroke:red;stroke-width:1px;stroke-linecap:butt;stroke-linejoin:miter;stroke-opacity:1" d="M 171.124,4 181.868,9.96871 z" id="boundary" inkscape:connector-curvature="0" />
	<path style="fill:none;stroke:red;stroke-width:1px;stroke-linecap:butt;stroke-linejoin:miter;stroke-opacity:1" d="M 180.674,996 192.611,996 z" id="boundary" inkscape:connector-curvature="0" />
	<path style="fill:none;stroke:red;stroke-width:1px;stroke-linecap:butt;stroke-linejoin:miter;stroke-opacity:1" d="M 181.868,9.96871 193.805,11.1625 z" id="boundary" inkscape:connector-curvature="0" />
	<path style="fill:none;stroke:red;stroke-width:1px;stroke-linecap:butt;stroke-linejoin:miter;stroke-opacity:1" d="M 192.611,996 204.549,996 z" id="boundary" inkscape:connector-curvature="0" />
	<path style="fill:none;stroke:red;stroke-width:1px;stroke-linecap:butt;stroke-linejoin:miter;stroke-opacity:1" d="M 193.805,11.1625 205.742,15.9374 z" id="boundary" inkscape:connector-curvature="0" />
	<path style="fill:none;stroke:red;stroke-width:1px;stroke-linecap:butt;stroke-linejoin:miter;stroke-opacity:1" d="M 204.549,996 216.486,996 z" id="boundary" inkscape:connector-curvature="0" />
	<path style="fill:none;stroke:red;stroke-width:1px;stroke-linecap:butt;stroke-linejoin:miter;stroke-opacity:1" d="M 205.742,15.9374 216.486,21.9061 z" id="boundary" inkscape:connector-curvature="0" />
	<path style="fill:none;stroke:red;stroke-width:1px;stroke-linecap:butt;stroke-linejoin:miter;stroke-opacity:1" d="M 216.486,21.9061 227.23,27.8748 z" id="boundary" inkscape:connector-curvature="0" />
	<path style="fill:none;stroke:red;stroke-width:1px;stroke-linecap:butt;stroke-linejoin:miter;stroke-opacity:1" d="M 216.486,996 228.424,996 z" id="boundary" inkscape:connector-curvature="0" />
	<path style="fill:none;stroke:red;stroke-width:1px;stroke-linecap:butt;stroke-linejoin:miter;stroke-opacity:1" d="M 227.23,27.8748 236.78,36.231 z" id="boundary" inkscape:connector-curvature="0" />
	<path style="fill:none;stroke:red;stroke-width:1px;stroke-linecap:butt;stroke-linejoin:miter;stroke-opacity:1" d="M 228.424,996 240.361,996 z" id="boundary" inkscape:connector-curvature="0" />
	<path style="fill:none;stroke:red;stroke-width:1px;stroke-linecap:butt;stroke-linejoin:miter;stroke-opacity:1" d="M 236.78,36.231 243.942,45.781 z" id="boundary" inkscape:connector-curvature="0" />
	<path style="fill:none;stroke:red;stroke-width:1px;stroke-linecap:butt;stroke-linejoin:miter;stroke-opacity:1" d="M 237.974,876.626 240.361,888.563 z" id="boundary" inkscape:connector-curvature="0" />
	<path style="fill:none;stroke:red;stroke-width:1px;stroke-linecap:butt;stroke-linejoin:miter;stroke-opacity:1" d="M 237.974,876.626 243.942,858.72 z" id="boundary" inkscape:connector-curvature="0" />
	<path style="fill:none;stroke:red;stroke-width:1px;stroke-linecap:butt;stroke-linejoin:miter;stroke-opacity:1" d="M 240.361,888.563 249.911,896.919 z" id="boundary" inkscape:connector-curvature="0" />
	<path style="fill:none;stroke:red;stroke-width:1px;stroke-linecap:butt;stroke-linejoin:miter;stroke-opacity:1" d="M 240.361,996 252.298,996 z" id="boundary" inkscape:connector-curvature="0" />
	<path style="fill:none;stroke:red;stroke-width:1px;stroke-linecap:butt;stroke-linejoin:miter;stroke-opacity:1" d="M 243.942,45.781 253.492,52.9434 z" id="boundary" inkscape:connector-curvature="0" />
	<path style="fill:none;stroke:red;stroke-width:1px;stroke-linecap:butt;stroke-linejoin:miter;stroke-opacity:1" d="M 243.942,858.72 249.911,846.782 z" id="boundary" inkscape:connector-curvature="0" />
	<path style="fill:none;stroke:red;stroke-width:1px;stroke-linecap:butt;stroke-linejoin:miter;stroke-opacity:1" d="M 249.911,846.782 255.88,828.876 z" id="boundary" inkscape:connector-curvature="0" />
	<path style="fill:none;stroke:red;stroke-width:1px;stroke-linecap:butt;stroke-linejoin:miter;stroke-opacity:1" d="M 249.911,896.919 259.461,905.276 z" id="boundary" inkscape:connector-curvature="0" />
	<path style="fill:none;stroke:red;stroke-width:1px;stroke-linecap:butt;stroke-linejoin:miter;stroke-opacity:1" d="M 252.298,996 264.236,994.806 z" id="boundary" inkscape:connector-curvature="0" />
	<path style="fill:none;stroke:red;stroke-width:1px;stroke-linecap:butt;stroke-linejoin:miter;stroke-opacity:1" d="M 253.492,52.9434 261.848,62.4934 z" id="boundary" inkscape:connector-curvature="0" />
	<path style="fill:none;stroke:red;stroke-width:1px;stroke-linecap:butt;stroke-linejoin:miter;stroke-opacity:1" d="M 255.88,208.13 255.88,220.067 z" id="boundary" inkscape:connector-curvature="0" />
	<path style="fill:none;stroke:red;stroke-width:1px;stroke-linecap:butt;stroke-linejoin:miter;stroke-opacity:1" d="M 255.88,208.13 261.848,190.224 z" id="boundary" inkscape:connector-curvature="0" />
	<path style="fill:none;stroke:red;stroke-width:1px;stroke-linecap:butt;stroke-linejoin:miter;stroke-opacity:1" d="M 255.88,220.067 255.88,232.005 z" id="boundary" inkscape:connector-curvature="0" />
	<path style="fill:none;stroke:red;stroke-width:1px;stroke-linecap:butt;stroke-linejoin:miter;stroke-opacity:1" d="M 255.88,232.005 258.267,243.942 z" id="boundary" inkscape:connector-curvature="0" />
	<path style="fill:none;stroke:red;stroke-width:1px;stroke-linecap:butt;stroke-linejoin:miter;stroke-opacity:1" d="M 255.88,828.876 261.848,816.939 z" id="boundary" inkscape:connector-curvature="0" />
	<path style="fill:none;stroke:red;stroke-width:1px;stroke-linecap:butt;stroke-linejoin:miter;stroke-opacity:1" d="M 258.267,243.942 264.236,254.686 z" id="boundary" inkscape:connector-curvature="0" />
	<path style="fill:none;stroke:red;stroke-width:1px;stroke-linecap:butt;stroke-linejoin:miter;stroke-opacity:1" d="M 259.461,905.276 270.205,911.244 z" id="boundary" inkscape:connector-curvature="0" />
	<path style="fill:none;stroke:red;stroke-width:1px;stroke-linecap:butt;stroke-linejoin:miter;stroke-opacity:1" d="M 261.848,62.4934 267.817,73.2371 z" id="boundary" inkscape:connector-curvature="0" />
	<path style="fill:none;stroke:red;stroke-width:1px;stroke-linecap:butt;stroke-linejoin:miter;stroke-opacity:1" d="M 261.848,190.224 267.817,178.286 z" id="boundary" inkscape:connector-curvature="0" />
	<path style="fill:none;stroke:red;stroke-width:1px;stroke-linecap:butt;stroke-linejoin:miter;stroke-opacity:1" d="M 261.848,816.939 267.817,799.032 z" id="boundary" inkscape:connector-curvature="0" />
	<path style="fill:none;stroke:red;stroke-width:1px;stroke-linecap:butt;stroke-linejoin:miter;stroke-opacity:1" d="M 264.236,254.686 272.592,264.236 z" id="boundary" inkscape:connector-curvature="0" />
	<path style="fill:none;stroke:red;stroke-width:1px;stroke-linecap:butt;stroke-linejoin:miter;stroke-opacity:1" d="M 264.236,994.806 276.173,988.838 z" id="boundary" inkscape:connector-curvature="0" />
	<path style="fill:none;stroke:red;stroke-width:1px;stroke-linecap:butt;stroke-linejoin:miter;stroke-opacity:1" d="M 267.817,73.2371 267.817,85.1745 z" id="boundary" inkscape:connector-curvature="0" />
	<path style="fill:none;stroke:red;stroke-width:1px;stroke-linecap:butt;stroke-linejoin:miter;stroke-opacity:1" d="M 267.817,85.1745 267.817,97.1119 z" id="boundary" inkscape:connector-curvature="0" />
	<path style="fill:none;stroke:red;stroke-width:1px;stroke-linecap:butt;stroke-linejoin:miter;stroke-opacity:1" d="M 267.817,97.1119 267.817,109.049 z" id="boundary" inkscape:connector-curvature="0" />
	<path style="fill:none;stroke:red;stroke-width:1px;stroke-linecap:butt;stroke-linejoin:miter;stroke-opacity:1" d="M 267.817,109.049 267.817,120.987 z" id="boundary" inkscape:connector-curvature="0" />
	<path style="fill:none;stroke:red;stroke-width:1px;stroke-linecap:butt;stroke-linejoin:miter;stroke-opacity:1" d="M 267.817,120.987 267.817,132.924 z" id="boundary" inkscape:connector-curvature="0" />
	<path style="fill:none;stroke:red;stroke-width:1px;stroke-linecap:butt;stroke-linejoin:miter;stroke-opacity:1" d="M 267.817,132.924 267.817,144.862 z" id="boundary" inkscape:connector-curvature="0" />
	<path style="fill:none;stroke:red;stroke-width:1px;stroke-linecap:butt;stroke-linejoin:miter;stroke-opacity:1" d="M 267.817,144.862 267.817,156.799 z" id="boundary" inkscape:connector-curvature="0" />
	<path style="fill:none;stroke:red;stroke-width:1px;stroke-linecap:butt;stroke-linejoin:miter;stroke-opacity:1" d="M 267.817,156.799 273.786,167.543 z" id="boundary" inkscape:connector-curvature="0" />
	<path style="fill:none;stroke:red;stroke-width:1px;stroke-linecap:butt;stroke-linejoin:miter;stroke-opacity:1" d="M 267.817,178.286 273.786,167.543 z" id="boundary" inkscape:connector-curvature="0" />
	<path style="fill:none;stroke:red;stroke-width:1px;stroke-linecap:butt;stroke-linejoin:miter;stroke-opacity:1" d="M 267.817,787.095 267.817,799.032 z" id="boundary" inkscape:connector-curvature="0" />
	<path style="fill:none;stroke:red;stroke-width:1px;stroke-linecap:butt;stroke-linejoin:miter;stroke-opacity:1" d="M 267.817,787.095 273.786,769.189 z" id="boundary" inkscape:connector-curvature="0" />
	<path style="fill:none;stroke:red;stroke-width:1px;stroke-linecap:butt;stroke-linejoin:miter;stroke-opacity:1" d="M 270.205,911.244 280.948,917.213 z" id="boundary" inkscape:connector-curvature="0" />
	<path style="fill:none;stroke:red;stroke-width:1px;stroke-linecap:butt;stroke-linejoin:miter;stroke-opacity:1" d="M 272.592,264.236 279.755,273.786 z" id="boundary" inkscape:connector-curvature="0" />
	<path style="fill:none;stroke:red;stroke-width:1px;stroke-linecap:butt;stroke-linejoin:miter;stroke-opacity:1" d="M 273.786,769.189 279.755,757.252 z" id="boundary" inkscape:connector-curvature="0" />
	<path style="fill:none;stroke:red;stroke-width:1px;stroke-linecap:butt;stroke-linejoin:miter;stroke-opacity:1" d="M 276.173,988.838 288.111,982.869 z" id="boundary" inkscape:connector-curvature="0" />
	<path style="fill:none;stroke:red;stroke-width:1px;stroke-linecap:butt;stroke-linejoin:miter;stroke-opacity:1" d="M 279.755,273.786 285.723,284.529 z" id="boundary" inkscape:connector-curvature="0" />
	<path style="fill:none;stroke:red;stroke-width:1px;stroke-linecap:butt;stroke-linejoin:miter;stroke-opacity:1" d="M 279.755,757.252 285.723,745.314 z" id="boundary" inkscape:connector-curvature="0" />
	<path style="fill:none;stroke:red;stroke-width:1px;stroke-linecap:butt;stroke-linejoin:miter;stroke-opacity:1" d="M 280.948,917.213 292.886,917.213 z" id="boundary" inkscape:connector-curvature="0" />
	<path style="fill:none;stroke:red;stroke-width:1px;stroke-linecap:butt;stroke-linejoin:miter;stroke-opacity:1" d="M 285.723,284.529 285.723,296.467 z" id="boundary" inkscape:connector-curvature="0" />
	<path style="fill:none;stroke:red;stroke-width:1px;stroke-linecap:butt;stroke-linejoin:miter;stroke-opacity:1" d="M 285.723,296.467 285.723,308.404 z" id="boundary" inkscape:connector-curvature="0" />
	<path style="fill:none;stroke:red;stroke-width:1px;stroke-linecap:butt;stroke-linejoin:miter;stroke-opacity:1" d="M 285.723,308.404 291.692,319.148 z" id="boundary" inkscape:connector-curvature="0" />
	<path style="fill:none;stroke:red;stroke-width:1px;stroke-linecap:butt;stroke-linejoin:miter;stroke-opacity:1" d="M 285.723,745.314 291.692,733.377 z" id="boundary" inkscape:connector-curvature="0" />
	<path style="fill:none;stroke:red;stroke-width:1px;stroke-linecap:butt;stroke-linejoin:miter;stroke-opacity:1" d="M 288.111,982.869 300.048,976.9 z" id="boundary" inkscape:connector-curvature="0" />
	<path style="fill:none;stroke:red;stroke-width:1px;stroke-linecap:butt;stroke-linejoin:miter;stroke-opacity:1" d="M 291.692,319.148 291.692,331.085 z" id="boundary" inkscape:connector-curvature="0" />
	<path style="fill:none;stroke:red;stroke-width:1px;stroke-linecap:butt;stroke-linejoin:miter;stroke-opacity:1" d="M 291.692,331.085 297.661,341.829 z" id="boundary" inkscape:connector-curvature="0" />
	<path style="fill:none;stroke:red;stroke-width:1px;stroke-linecap:butt;stroke-linejoin:miter;stroke-opacity:1" d="M 291.692,369.285 291.692,381.223 z" id="boundary" inkscape:connector-curvature="0" />
	<path style="fill:none;stroke:red;stroke-width:1px;stroke-linecap:butt;stroke-linejoin:miter;stroke-opacity:1" d="M 291.692,369.285 297.661,353.767 z" id="boundary" inkscape:connector-curvature="0" />
	<path style="fill:none;stroke:red;stroke-width:1px;stroke-linecap:butt;stroke-linejoin:miter;stroke-opacity:1" d="M 291.692,381.223 291.692,393.16 z" id="boundary" inkscape:connector-curvature="0" />
	<path style="fill:none;stroke:red;stroke-width:1px;stroke-linecap:butt;stroke-linejoin:miter;stroke-opacity:1" d="M 291.692,393.16 297.661,403.904 z" id="boundary" inkscape:connector-curvature="0" />
	<path style="fill:none;stroke:red;stroke-width:1px;stroke-linecap:butt;stroke-linejoin:miter;stroke-opacity:1" d="M 291.692,673.69 291.692,685.627 z" id="boundary" inkscape:connector-curvature="0" />
	<path style="fill:none;stroke:red;stroke-width:1px;stroke-linecap:butt;stroke-linejoin:miter;stroke-opacity:1" d="M 291.692,673.69 297.661,661.752 z" id="boundary" inkscape:connector-curvature="0" />
	<path style="fill:none;stroke:red;stroke-width:1px;stroke-linecap:butt;stroke-linejoin:miter;stroke-opacity:1" d="M 291.692,685.627 291.692,697.564 z" id="boundary" inkscape:connector-curvature="0" />
	<path style="fill:none;stroke:red;stroke-width:1px;stroke-linecap:butt;stroke-linejoin:miter;stroke-opacity:1" d="M 291.692,697.564 297.661,708.308 z" id="boundary" inkscape:connector-curvature="0" />
	<path style="fill:none;stroke:red;stroke-width:1px;stroke-linecap:butt;stroke-linejoin:miter;stroke-opacity:1" d="M 291.692,733.377 297.661,720.245 z" id="boundary" inkscape:connector-curvature="0" />
	<path style="fill:none;stroke:red;stroke-width:1px;stroke-linecap:butt;stroke-linejoin:miter;stroke-opacity:1" d="M 292.886,917.213 304.823,917.213 z" id="boundary" inkscape:connector-curvature="0" />
	<path style="fill:none;stroke:red;stroke-width:1px;stroke-linecap:butt;stroke-linejoin:miter;stroke-opacity:1" d="M 297.661,341.829 297.661,353.767 z" id="boundary" inkscape:connector-curvature="0" />
	<path style="fill:none;stroke:red;stroke-width:1px;stroke-linecap:butt;stroke-linejoin:miter;stroke-opacity:1" d="M 297.661,403.904 303.629,414.647 z" id="boundary" inkscape:connector-curvature="0" />
	<path style="fill:none;stroke:red;stroke-width:1px;stroke-linecap:butt;stroke-linejoin:miter;stroke-opacity:1" d="M 297.661,661.752 308.404,655.783 z" id="boundary" inkscape:connector-curvature="0" />
	<path style="fill:none;stroke:red;stroke-width:1px;stroke-linecap:butt;stroke-linejoin:miter;stroke-opacity:1" d="M 297.661,708.308 297.661,720.245 z" id="boundary" inkscape:connector-curvature="0" />
	<path style="fill:none;stroke:red;stroke-width:1px;stroke-linecap:butt;stroke-linejoin:miter;stroke-opacity:1" d="M 300.048,976.9 311.986,970.931 z" id="boundary" inkscape:connector-curvature="0" />
	<path style="fill:none;stroke:red;stroke-width:1px;stroke-linecap:butt;stroke-linejoin:miter;stroke-opacity:1" d="M 303.629,414.647 303.629,426.585 z" id="boundary" inkscape:connector-curvature="0" />
	<path style="fill:none;stroke:red;stroke-width:1px;stroke-linecap:butt;stroke-linejoin:miter;stroke-opacity:1" d="M 303.629,426.585 309.598,437.329 z" id="boundary" inkscape:connector-curvature="0" />
	<path style="fill:none;stroke:red;stroke-width:1px;stroke-linecap:butt;stroke-linejoin:miter;stroke-opacity:1" d="M 304.823,917.213 315.567,923.182 z" id="boundary" inkscape:connector-curvature="0" />
	<path style="fill:none;stroke:red;stroke-width:1px;stroke-linecap:butt;stroke-linejoin:miter;stroke-opacity:1" d="M 308.404,655.783 315.567,643.846 z" id="boundary" inkscape:connector-curvature="0" />
	<path style="fill:none;stroke:red;stroke-width:1px;stroke-linecap:butt;stroke-linejoin:miter;stroke-opacity:1" d="M 309.598,437.329 309.598,449.266 z" id="boundary" inkscape:connector-curvature="0" />
	<path style="fill:none;stroke:red;stroke-width:1px;stroke-linecap:butt;stroke-linejoin:miter;stroke-opacity:1" d="M 309.598,449.266 315.567,460.01 z" id="boundary" inkscape:connector-curvature="0" />
	<path style="fill:none;stroke:red;stroke-width:1px;stroke-linecap:butt;stroke-linejoin:miter;stroke-opacity:1" d="M 311.986,970.931 323.923,964.963 z" id="boundary" inkscape:connector-curvature="0" />
	<path style="fill:none;stroke:red;stroke-width:1px;stroke-linecap:butt;stroke-linejoin:miter;stroke-opacity:1" d="M 315.567,460.01 315.567,471.947 z" id="boundary" inkscape:connector-curvature="0" />
	<path style="fill:none;stroke:red;stroke-width:1px;stroke-linecap:butt;stroke-linejoin:miter;stroke-opacity:1" d="M 315.567,471.947 321.535,482.691 z" id="boundary" inkscape:connector-curvature="0" />
	<path style="fill:none;stroke:red;stroke-width:1px;stroke-linecap:butt;stroke-linejoin:miter;stroke-opacity:1" d="M 315.567,614.002 315.567,625.94 z" id="boundary" inkscape:connector-curvature="0" />
	<path style="fill:none;stroke:red;stroke-width:1px;stroke-linecap:butt;stroke-linejoin:miter;stroke-opacity:1" d="M 315.567,614.002 325.117,605.646 z" id="boundary" inkscape:connector-curvature="0" />
	<path style="fill:none;stroke:red;stroke-width:1px;stroke-linecap:butt;stroke-linejoin:miter;stroke-opacity:1" d="M 315.567,625.94 315.567,643.846 z" id="boundary" inkscape:connector-curvature="0" />
	<path style="fill:none;stroke:red;stroke-width:1px;stroke-linecap:butt;stroke-linejoin:miter;stroke-opacity:1" d="M 315.567,923.182 325.117,930.344 z" id="boundary" inkscape:connector-curvature="0" />
	<path style="fill:none;stroke:red;stroke-width:1px;stroke-linecap:butt;stroke-linejoin:miter;stroke-opacity:1" d="M 321.535,482.691 323.923,494.628 z" id="boundary" inkscape:connector-curvature="0" />
	<path style="fill:none;stroke:red;stroke-width:1px;stroke-linecap:butt;stroke-linejoin:miter;stroke-opacity:1" d="M 323.923,494.628 327.504,506.566 z" id="boundary" inkscape:connector-curvature="0" />
	<path style="fill:none;stroke:red;stroke-width:1px;stroke-linecap:butt;stroke-linejoin:miter;stroke-opacity:1" d="M 323.923,964.963 333.473,951.832 z" id="boundary" inkscape:connector-curvature="0" />
	<path style="fill:none;stroke:red;stroke-width:1px;stroke-linecap:butt;stroke-linejoin:miter;stroke-opacity:1" d="M 325.117,605.646 333.473,596.096 z" id="boundary" inkscape:connector-curvature="0" />
	<path style="fill:none;stroke:red;stroke-width:1px;stroke-linecap:butt;stroke-linejoin:miter;stroke-opacity:1" d="M 325.117,930.344 333.473,939.894 z" id="boundary" inkscape:connector-curvature="0" />
	<path style="fill:none;stroke:red;stroke-width:1px;stroke-linecap:butt;stroke-linejoin:miter;stroke-opacity:1" d="M 327.504,506.566 333.473,517.309 z" id="boundary" inkscape:connector-curvature="0" />
	<path style="fill:none;stroke:red;stroke-width:1px;stroke-linecap:butt;stroke-linejoin:miter;stroke-opacity:1" d="M 333.473,517.309 333.473,529.247 z" id="boundary" inkscape:connector-curvature="0" />
	<path style="fill:none;stroke:red;stroke-width:1px;stroke-linecap:butt;stroke-linejoin:miter;stroke-opacity:1" d="M 333.473,529.247 333.473,541.184 z" id="boundary" inkscape:connector-curvature="0" />
	<path style="fill:none;stroke:red;stroke-width:1px;stroke-linecap:butt;stroke-linejoin:miter;stroke-opacity:1" d="M 333.473,541.184 339.442,551.928 z" id="boundary" inkscape:connector-curvature="0" />
	<path style="fill:none;stroke:red;stroke-width:1px;stroke-linecap:butt;stroke-linejoin:miter;stroke-opacity:1" d="M 333.473,596.096 343.023,587.74 z" id="boundary" inkscape:connector-curvature="0" />
	<path style="fill:none;stroke:red;stroke-width:1px;stroke-linecap:butt;stroke-linejoin:miter;stroke-opacity:1" d="M 333.473,939.894 333.473,951.832 z" id="boundary" inkscape:connector-curvature="0" />
	<path style="fill:none;stroke:red;stroke-width:1px;stroke-linecap:butt;stroke-linejoin:miter;stroke-opacity:1" d="M 339.442,551.928 345.41,562.671 z" id="boundary" inkscape:connector-curvature="0" />
	<path style="fill:none;stroke:red;stroke-width:1px;stroke-linecap:butt;stroke-linejoin:miter;stroke-opacity:1" d="M 343.023,587.74 345.41,574.609 z" id="boundary" inkscape:connector-curvature="0" />
	<path style="fill:none;stroke:red;stroke-width:1px;stroke-linecap:butt;stroke-linejoin:miter;stroke-opacity:1" d="M 345.41,562.671 345.41,574.609 z" id="boundary" inkscape:connector-curvature="0" />
	<circle cx="4" cy="306.017" r="4" fill="#0" id="circle0"/>
	<circle cx="4" cy="317.954" r="4" fill="#0" id="circle1"/>
	<circle cx="4" cy="329.892" r="4" fill="#0" id="circle2"/>
	<circle cx="4" cy="341.829" r="4" fill="#0" id="circle3"/>
	<circle cx="4" cy="353.767" r="4" fill="#0" id="circle4"/>
	<circle cx="4" cy="365.704" r="4" fill="#0" id="circle5"/>
	<circle cx="4" cy="377.641" r="4" fill="#0" id="circle6"/>
	<circle cx="9.96871" cy="294.079" r="4" fill="#0" id="circle7"/>
	<circle cx="9.96871" cy="388.385" r="4" fill="#0" id="circle8"/>
	<circle cx="9.96871" cy="400.323" r="4" fill="#0" id="circle9"/>
	<circle cx="9.96871" cy="412.26" r="4" fill="#0" id="circle10"/>
	<circle cx="9.96871" cy="424.197" r="4" fill="#0" id="circle11"/>
	<circle cx="9.96871" cy="436.135" r="4" fill="#0" id="circle12"/>
	<circle cx="9.96871" cy="448.072" r="4" fill="#0" id="circle13"/>
	<circle cx="9.96871" cy="460.01" r="4" fill="#0" id="circle14"/>
	<circle cx="15.9374" cy="282.142" r="4" fill="#0" id="circle15"/>
	<circle cx="15.9374" cy="470.753" r="4" fill="#0" id="circle16"/>
	<circle cx="15.9374" cy="482.691" r="4" fill="#0" id="circle17"/>
	<circle cx="15.9374" cy="494.628" r="4" fill="#0" id="circle18"/>
	<circle cx="21.9061" cy="67.2684" r="4" fill="#0" id="circle19"/>
	<circle cx="21.9061" cy="79.2058" r="4" fill="#0" id="circle20"/>
	<circle cx="21.9061" cy="91.1432" r="4" fill="#0" id="circle21"/>
	<circle cx="21.9061" cy="103.081" r="4" fill="#0" id="circle22"/>
	<circle cx="21.9061" cy="115.018" r="4" fill="#0" id="circle23"/>
	<circle cx="21.9061" cy="126.955" r="4" fill="#0" id="circle24"/>
	<circle cx="21.9061" cy="270.205" r="4" fill="#0" id="circle25"/>
	<circle cx="21.9061" cy="505.372" r="4" fill="#0" id="circle26"/>
	<circle cx="24.2936" cy="517.309" r="4" fill="#0" id="circle27"/>
	<circle cx="27.8748" cy="55.3309" r="4" fill="#0" id="circle28"/>
	<circle cx="27.8748" cy="137.699" r="4" fill="#0" id="circle29"/>
	<circle cx="27.8748" cy="529.247" r="4" fill="#0" id="circle30"/>
	<circle cx="31.4561" cy="260.655" r="4" fill="#0" id="circle31"/>
	<circle cx="33.8436" cy="148.443" r="4" fill="#0" id="circle32"/>
	<circle cx="33.8436" cy="539.99" r="4" fill="#0" id="circle33"/>
	<circle cx="33.8436" cy="551.928" r="4" fill="#0" id="circle34"/>
	<circle cx="37.4248" cy="45.781" r="4" fill="#0" id="circle35"/>
	<circle cx="39.8123" cy="159.187" r="4" fill="#0" id="circle36"/>
	<circle cx="39.8123" cy="562.671" r="4" fill="#0" id="circle37"/>
	<circle cx="39.8123" cy="574.609" r="4" fill="#0" id="circle38"/>
	<circle cx="39.8123" cy="586.546" r="4" fill="#0" id="circle39"/>
	<circle cx="39.8123" cy="598.484" r="4" fill="#0" id="circle40"/>
	<circle cx="39.8123" cy="610.421" r="4" fill="#0" id="circle41"/>
	<circle cx="42.1998" cy="254.686" r="4" fill="#0" id="circle42"/>
	<circle cx="45.781" cy="621.165" r="4" fill="#0" id="circle43"/>
	<circle cx="45.781" cy="633.102" r="4" fill="#0" id="circle44"/>
	<circle cx="46.9747" cy="36.231" r="4" fill="#0" id="circle45"/>
	<circle cx="46.9747" cy="168.736" r="4" fill="#0" id="circle46"/>
	<circle cx="51.7497" cy="246.33" r="4" fill="#0" id="circle47"/>
	<circle cx="51.7497" cy="643.846" r="4" fill="#0" id="circle48"/>
	<circle cx="51.7497" cy="655.783" r="4" fill="#0" id="circle49"/>
	<circle cx="55.3309" cy="178.286" r="4" fill="#0" id="circle50"/>
	<circle cx="56.5247" cy="27.8748" r="4" fill="#0" id="circle51"/>
	<circle cx="57.7184" cy="666.527" r="4" fill="#0" id="circle52"/>
	<circle cx="61.2996" cy="236.78" r="4" fill="#0" id="circle53"/>
	<circle cx="64.8809" cy="186.643" r="4" fill="#0" id="circle54"/>
	<circle cx="64.8809" cy="676.077" r="4" fill="#0" id="circle55"/>
	<circle cx="67.2684" cy="21.9061" r="4" fill="#0" id="circle56"/>
	<circle cx="70.8496" cy="227.23" r="4" fill="#0" id="circle57"/>
	<circle cx="73.2371" cy="196.193" r="4" fill="#0" id="circle58"/>
	<circle cx="73.2371" cy="685.627" r="4" fill="#0" id="circle59"/>
	<circle cx="75.6245" cy="208.13" r="4" fill="#0" id="circle60"/>
	<circle cx="78.012" cy="15.9374" r="4" fill="#0" id="circle61"/>
	<circle cx="83.9807" cy="691.596" r="4" fill="#0" id="circle62"/>
	<circle cx="87.562" cy="783.514" r="4" fill="#0" id="circle63"/>
	<circle cx="87.562" cy="795.451" r="4" fill="#0" id="circle64"/>
	<circle cx="87.562" cy="807.389" r="4" fill="#0" id="circle65"/>
	<circle cx="87.562" cy="819.326" r="4" fill="#0" id="circle66"/>
	<circle cx="87.562" cy="831.264" r="4" fill="#0" id="circle67"/>
	<circle cx="88.7557" cy="9.96871" r="4" fill="#0" id="circle68"/>
	<circle cx="93.5307" cy="698.758" r="4" fill="#0" id="circle69"/>
	<circle cx="93.5307" cy="771.576" r="4" fill="#0" id="circle70"/>
	<circle cx="93.5307" cy="842.007" r="4" fill="#0" id="circle71"/>
	<circle cx="93.5307" cy="853.945" r="4" fill="#0" id="circle72"/>
	<circle cx="99.4994" cy="4" r="4" fill="#0" id="circle73"/>
	<circle cx="99.4994" cy="759.639" r="4" fill="#0" id="circle74"/>
	<circle cx="99.4994" cy="864.688" r="4" fill="#0" id="circle75"/>
	<circle cx="99.4994" cy="932.732" r="4" fill="#0" id="circle76"/>
	<circle cx="99.4994" cy="944.669" r="4" fill="#0" id="circle77"/>
	<circle cx="99.4994" cy="956.606" r="4" fill="#0" id="circle78"/>
	<circle cx="101.887" cy="708.308" r="4" fill="#0" id="circle79"/>
	<circle cx="103.081" cy="876.626" r="4" fill="#0" id="circle80"/>
	<circle cx="105.468" cy="720.245" r="4" fill="#0" id="circle81"/>
	<circle cx="105.468" cy="732.183" r="4" fill="#0" id="circle82"/>
	<circle cx="105.468" cy="744.12" r="4" fill="#0" id="circle83"/>
	<circle cx="105.468" cy="920.794" r="4" fill="#0" id="circle84"/>
	<circle cx="105.468" cy="967.35" r="4" fill="#0" id="circle85"/>
	<circle cx="109.049" cy="887.369" r="4" fill="#0" id="circle86"/>
	<circle cx="111.437" cy="4" r="4" fill="#0" id="circle87"/>
	<circle cx="111.437" cy="899.307" r="4" fill="#0" id="circle88"/>
	<circle cx="113.824" cy="976.9" r="4" fill="#0" id="circle89"/>
	<circle cx="123.374" cy="4" r="4" fill="#0" id="circle90"/>
	<circle cx="123.374" cy="984.063" r="4" fill="#0" id="circle91"/>
	<circle cx="135.312" cy="4" r="4" fill="#0" id="circle92"/>
	<circle cx="135.312" cy="984.063" r="4" fill="#0" id="circle93"/>
	<circle cx="147.249" cy="4" r="4" fill="#0" id="circle94"/>
	<circle cx="147.249" cy="984.063" r="4" fill="#0" id="circle95"/>
	<circle cx="157.993" cy="990.031" r="4" fill="#0" id="circle96"/>
	<circle cx="159.187" cy="4" r="4" fill="#0" id="circle97"/>
	<circle cx="169.93" cy="990.031" r="4" fill="#0" id="circle98"/>
	<circle cx="171.124" cy="4" r="4" fill="#0" id="circle99"/>
	<circle cx="180.674" cy="996" r="4" fill="#0" id="circle100"/>
	<circle cx="181.868" cy="9.96871" r="4" fill="#0" id="circle101"/>
	<circle cx="192.611" cy="996" r="4" fill="#0" id="circle102"/>
	<circle cx="193.805" cy="11.1625" r="4" fill="#0" id="circle103"/>
	<circle cx="204.549" cy="996" r="4" fill="#0" id="circle104"/>
	<circle cx="205.742" cy="15.9374" r="4" fill="#0" id="circle105"/>
	<circle cx="216.486" cy="21.9061" r="4" fill="#0" id="circle106"/>
	<circle cx="216.486" cy="996" r="4" fill="#0" id="circle107"/>
	<circle cx="227.23" cy="27.8748" r="4" fill="#0" id="circle108"/>
	<circle cx="228.424" cy="996" r="4" fill="#0" id="circle109"/>
	<circle cx="236.78" cy="36.231" r="4" fill="#0" id="circle110"/>
	<circle cx="237.974" cy="876.626" r="4" fill="#0" id="circle111"/>
	<circle cx="240.361" cy="888.563" r="4" fill="#0" id="circle112"/>
	<circle cx="240.361" cy="996" r="4" fill="#0" id="circle113"/>
	<circle cx="243.942" cy="45.781" r="4" fill="#0" id="circle114"/>
	<circle cx="243.942" cy="858.72" r="4" fill="#0" id="circle115"/>
	<circle cx="249.911" cy="846.782" r="4" fill="#0" id="circle116"/>
	<circle cx="249.911" cy="896.919" r="4" fill="#0" id="circle117"/>
	<circle cx="252.298" cy="996" r="4" fill="#0" id="circle118"/>
	<circle cx="253.492" cy="52.9434" r="4" fill="#0" id="circle119"/>
	<circle cx="255.88" cy="208.13" r="4" fill="#0" id="circle120"/>
	<circle cx="255.88" cy="220.067" r="4" fill="#0" id="circle121"/>
	<circle cx="255.88" cy="232.005" r="4" fill="#0" id="circle122"/>
	<circle cx="255.88" cy="828.876" r="4" fill="#0" id="circle123"/>
	<circle cx="258.267" cy="243.942" r="4" fill="#0" id="circle124"/>
	<circle cx="259.461" cy="905.276" r="4" fill="#0" id="circle125"/>
	<circle cx="261.848" cy="62.4934" r="4" fill="#0" id="circle126"/>
	<circle cx="261.848" cy="190.224" r="4" fill="#0" id="circle127"/>
	<circle cx="261.848" cy="816.939" r="4" fill="#0" id="circle128"/>
	<circle cx="264.236" cy="254.686" r="4" fill="#0" id="circle129"/>
	<circle cx="264.236" cy="994.806" r="4" fill="#0" id="circle130"/>
	<circle cx="267.817" cy="73.2371" r="4" fill="#0" id="circle131"/>
	<circle cx="267.817" cy="85.1745" r="4" fill="#0" id="circle132"/>
	<circle cx="267.817" cy="97.1119" r="4" fill="#0" id="circle133"/>
	<circle cx="267.817" cy="109.049" r="4" fill="#0" id="circle134"/>
	<circle cx="267.817" cy="120.987" r="4" fill="#0" id="circle135"/>
	<circle cx="267.817" cy="132.924" r="4" fill="#0" id="circle136"/>
	<circle cx="267.817" cy="144.862" r="4" fill="#0" id="circle137"/>
	<circle cx="267.817" cy="156.799" r="4" fill="#0" id="circle138"/>
	<circle cx="267.817" cy="178.286" r="4" fill="#0" id="circle139"/>
	<circle cx="267.817" cy="787.095" r="4" fill="#0" id="circle140"/>
	<circle cx="267.817" cy="799.032" r="4" fill="#0" id="circle141"/>
	<circle cx="270.205" cy="911.244" r="4" fill="#0" id="circle142"/>
	<circle cx="272.592" cy="264.236" r="4" fill="#0" id="circle143"/>
	<circle cx="273.786" cy="167.543" r="4" fill="#0" id="circle144"/>
	<circle cx="273.786" cy="769.189" r="4" fill="#0" id="circle145"/>
	<circle cx="276.173" cy="988.838" r="4" fill="#0" id="circle146"/>
	<circle cx="279.755" cy="273.786" r="4" fill="#0" id="circle147"/>
	<circle cx="279.755" cy="757.252" r="4" fill="#0" id="circle148"/>
	<circle cx="280.948" cy="917.213" r="4" fill="#0" id="circle149"/>
	<circle cx="285.723" cy="284.529" r="4" fill="#0" id="circle150"/>
	<circle cx="285.723" cy="296.467" r="4" fill="#0" id="circle151"/>
	<circle cx="285.723" cy="308.404" r="4" fill="#0" id="circle152"/>
	<circle cx="285.723" cy="745.314" r="4" fill="#0" id="circle153"/>
	<circle cx="288.111" cy="982.869" r="4" fill="#0" id="circle154"/>
	<circle cx="291.692" cy="319.148" r="4" fill="#0" id="circle155"/>
	<circle cx="291.692" cy="331.085" r="4" fill="#0" id="circle156"/>
	<circle cx="291.692" cy="369.285" r="4" fill="#0" id="circle157"/>
	<circle cx="291.692" cy="381.223" r="4" fill="#0" id="circle158"/>
	<circle cx="291.692" cy="393.16" r="4" fill="#0" id="circle159"/>
	<circle cx="291.692" cy="673.69" r="4" fill="#0" id="circle160"/>
	<circle cx="291.692" cy="685.627" r="4" fill="#0" id="circle161"/>
	<circle cx="291.692" cy="697.564" r="4" fill="#0" id="circle162"/>
	<circle cx="291.692" cy="733.377" r="4" fill="#0" id="circle163"/>
	<circle cx="292.886" cy="917.213" r="4" fill="#0" id="circle164"/>
	<circle cx="297.661" cy="341.829" r="4" fill="#0" id="circle165"/>
	<circle cx="297.661" cy="353.767" r="4" fill="#0" id="circle166"/>
	<circle cx="297.661" cy="403.904" r="4" fill="#0" id="circle167"/>
	<circle cx="297.661" cy="661.752" r="4" fill="#0" id="circle168"/>
	<circle cx="297.661" cy="708.308" r="4" fill="#0" id="circle169"/>
	<circle cx="297.661" cy="720.245" r="4" fill="#0" id="circle170"/>
	<circle cx="300.048" cy="976.9" r="4" fill="#0" id="circle171"/>
	<circle cx="303.629" cy="414.647" r="4" fill="#0" id="circle172"/>
	<circle cx="303.629" cy="426.585" r="4" fill="#0" id="circle173"/>
	<circle cx="304.823" cy="917.213" r="4" fill="#0" id="circle174"/>
	<circle cx="308.404" cy="655.783" r="4" fill="#0" id="circle175"/>
	<circle cx="309.598" cy="437.329" r="4" fill="#0" id="circle176"/>
	<circle cx="309.598" cy="449.266" r="4" fill="#0" id="circle177"/>
	<circle cx="311.986" cy="970.931" r="4" fill="#0" id="circle178"/>
	<circle cx="315.567" cy="460.01" r="4" fill="#0" id="circle179"/>
	<circle cx="315.567" cy="471.947" r="4" fill="#0" id="circle180"/>
	<circle cx="315.567" cy="614.002" r="4" fill="#0" id="circle181"/>
	<circle cx="315.567" cy="625.94" r="4" fill="#0" id="circle182"/>
	<circle cx="315.567" cy="643.846" r="4" fill="#0" id="circle183"/>
	<circle cx="315.567" cy="923.182" r="4" fill="#0" id="circle184"/>
	<circle cx="321.535" cy="482.691" r="4" fill="#0" id="circle185"/>
	<circle cx="323.923" cy="494.628" r="4" fill="#0" id="circle186"/>
	<circle cx="323.923" cy="964.963" r="4" fill="#0" id="circle187"/>
	<circle cx="325.117" cy="605.646" r="4" fill="#0" id="circle188"/>
	<circle cx="325.117" cy="930.344" r="4" fill="#0" id="circle189"/>
	<circle cx="327.504" cy="506.566" r="4" fill="#0" id="circle190"/>
	<circle cx="333.473" cy="517.309" r="4" fill="#0" id="circle191"/>
	<circle cx="333.473" cy="529.247" r="4" fill="#0" id="circle192"/>
	<circle cx="333.473" cy="541.184" r="4" fill="#0" id="circle193"/>
	<circle cx="333.473" cy="596.096" r="4" fill="#0" id="circle194"/>
	<circle cx="333.473" cy="939.894" r="4" fill="#0" id="circle195"/>
	<circle cx="333.473" cy="951.832" r="4" fill="#0" id="circle196"/>
	<circle cx="339.442" cy="551.928" r="4" fill="#0" id="circle197"/>
	<circle cx="343.023" cy="587.74" r="4" fill="#0" id="circle198"/>
	<circle cx="345.41" cy="562.671" r="4" fill="#0" id="circle199"/>
	<circle cx="345.41" cy="574.609" r="4" fill="#0" id="circle200"/>
	</g>
</svg>