<?xml version="1.0" encoding="UTF-8" standalone="no"?>
<!-- Created with CurveBenchmark -->
<svg
	xmlns:dc="http://purl.org/dc/elements/1.1/"
	xmlns:cc="http://creativecommons.org/ns#"
	xmlns:rdf="http://www.w3.org/1999/02/22-rdf-syntax-ns#"
	xmlns:svg="http://www.w3.org/2000/svg"
	xmlns="http://www.w3.org/2000/svg"
	xmlns:sodipodi="http://sodipodi.sourceforge.net/DTD/sodipodi-0.dtd"
	xmlns:inkscape="http://www.inkscape.org/namespaces/inkscape"
	width="1000"
	height="1000"
	id="svg2"
	version="1.1"
	sodipodi:docname="manifold/fitconnect-fish0721.png.txt">
<defs
	id="defs4" />
<metadata
	id="metadata7">
	<rdf:RDF>
		<cc:Work
			rdf:about="">
			<dc:format>image/svg+xml</dc:format>
			<dc:type
				rdf:resource="http://purl.org/dc/dcmitype/StillImage" />
			<dc:title></dc:title>
		</cc:Work>
	</rdf:RDF>
</metadata>
<g
	inkscape:label="Layer 1"
	inkscape:groupmode="layer"
	id="layer1">
	<path style="fill:none;stroke:red;stroke-width:1px;stroke-linecap:butt;stroke-linejoin:miter;stroke-opacity:1" d="M 4,158.597 11.1573,171.481 z" id="boundary" inkscape:connector-curvature="0" />
	<path style="fill:none;stroke:red;stroke-width:1px;stroke-linecap:butt;stroke-linejoin:miter;stroke-opacity:1" d="M 4,158.597 18.3146,151.44 z" id="boundary" inkscape:connector-curvature="0" />
	<path style="fill:none;stroke:red;stroke-width:1px;stroke-linecap:butt;stroke-linejoin:miter;stroke-opacity:1" d="M 11.1573,171.481 25.4719,177.206 z" id="boundary" inkscape:connector-curvature="0" />
	<path style="fill:none;stroke:red;stroke-width:1px;stroke-linecap:butt;stroke-linejoin:miter;stroke-opacity:1" d="M 18.3146,151.44 32.6291,147.146 z" id="boundary" inkscape:connector-curvature="0" />
	<path style="fill:none;stroke:red;stroke-width:1px;stroke-linecap:butt;stroke-linejoin:miter;stroke-opacity:1" d="M 25.4719,177.206 38.355,184.364 z" id="boundary" inkscape:connector-curvature="0" />
	<path style="fill:none;stroke:red;stroke-width:1px;stroke-linecap:butt;stroke-linejoin:miter;stroke-opacity:1" d="M 32.6291,147.146 45.5123,139.988 z" id="boundary" inkscape:connector-curvature="0" />
	<path style="fill:none;stroke:red;stroke-width:1px;stroke-linecap:butt;stroke-linejoin:miter;stroke-opacity:1" d="M 38.355,184.364 52.6696,184.364 z" id="boundary" inkscape:connector-curvature="0" />
	<path style="fill:none;stroke:red;stroke-width:1px;stroke-linecap:butt;stroke-linejoin:miter;stroke-opacity:1" d="M 45.5123,139.988 58.3954,132.831 z" id="boundary" inkscape:connector-curvature="0" />
	<path style="fill:none;stroke:red;stroke-width:1px;stroke-linecap:butt;stroke-linejoin:miter;stroke-opacity:1" d="M 52.6696,184.364 65.5527,191.521 z" id="boundary" inkscape:connector-curvature="0" />
	<path style="fill:none;stroke:red;stroke-width:1px;stroke-linecap:butt;stroke-linejoin:miter;stroke-opacity:1" d="M 58.3954,132.831 72.71,132.831 z" id="boundary" inkscape:connector-curvature="0" />
	<path style="fill:none;stroke:red;stroke-width:1px;stroke-linecap:butt;stroke-linejoin:miter;stroke-opacity:1" d="M 65.5527,191.521 79.8672,191.521 z" id="boundary" inkscape:connector-curvature="0" />
	<path style="fill:none;stroke:red;stroke-width:1px;stroke-linecap:butt;stroke-linejoin:miter;stroke-opacity:1" d="M 72.71,132.831 85.5931,125.674 z" id="boundary" inkscape:connector-curvature="0" />
	<path style="fill:none;stroke:red;stroke-width:1px;stroke-linecap:butt;stroke-linejoin:miter;stroke-opacity:1" d="M 79.8672,191.521 94.1818,191.521 z" id="boundary" inkscape:connector-curvature="0" />
	<path style="fill:none;stroke:red;stroke-width:1px;stroke-linecap:butt;stroke-linejoin:miter;stroke-opacity:1" d="M 85.5931,125.674 98.4762,118.517 z" id="boundary" inkscape:connector-curvature="0" />
	<path style="fill:none;stroke:red;stroke-width:1px;stroke-linecap:butt;stroke-linejoin:miter;stroke-opacity:1" d="M 94.1818,191.521 108.496,191.521 z" id="boundary" inkscape:connector-curvature="0" />
	<path style="fill:none;stroke:red;stroke-width:1px;stroke-linecap:butt;stroke-linejoin:miter;stroke-opacity:1" d="M 98.4762,118.517 112.791,118.517 z" id="boundary" inkscape:connector-curvature="0" />
	<path style="fill:none;stroke:red;stroke-width:1px;stroke-linecap:butt;stroke-linejoin:miter;stroke-opacity:1" d="M 108.496,191.521 122.811,197.247 z" id="boundary" inkscape:connector-curvature="0" />
	<path style="fill:none;stroke:red;stroke-width:1px;stroke-linecap:butt;stroke-linejoin:miter;stroke-opacity:1" d="M 112.791,118.517 125.674,111.359 z" id="boundary" inkscape:connector-curvature="0" />
	<path style="fill:none;stroke:red;stroke-width:1px;stroke-linecap:butt;stroke-linejoin:miter;stroke-opacity:1" d="M 122.811,197.247 137.126,198.678 z" id="boundary" inkscape:connector-curvature="0" />
	<path style="fill:none;stroke:red;stroke-width:1px;stroke-linecap:butt;stroke-linejoin:miter;stroke-opacity:1" d="M 125.674,111.359 139.988,111.359 z" id="boundary" inkscape:connector-curvature="0" />
	<path style="fill:none;stroke:red;stroke-width:1px;stroke-linecap:butt;stroke-linejoin:miter;stroke-opacity:1" d="M 137.126,198.678 151.44,198.678 z" id="boundary" inkscape:connector-curvature="0" />
	<path style="fill:none;stroke:red;stroke-width:1px;stroke-linecap:butt;stroke-linejoin:miter;stroke-opacity:1" d="M 139.988,111.359 154.303,108.496 z" id="boundary" inkscape:connector-curvature="0" />
	<path style="fill:none;stroke:red;stroke-width:1px;stroke-linecap:butt;stroke-linejoin:miter;stroke-opacity:1" d="M 151.44,198.678 165.755,198.678 z" id="boundary" inkscape:connector-curvature="0" />
	<path style="fill:none;stroke:red;stroke-width:1px;stroke-linecap:butt;stroke-linejoin:miter;stroke-opacity:1" d="M 154.303,108.496 168.618,104.202 z" id="boundary" inkscape:connector-curvature="0" />
	<path style="fill:none;stroke:red;stroke-width:1px;stroke-linecap:butt;stroke-linejoin:miter;stroke-opacity:1" d="M 165.755,198.678 177.206,208.698 z" id="boundary" inkscape:connector-curvature="0" />
	<path style="fill:none;stroke:red;stroke-width:1px;stroke-linecap:butt;stroke-linejoin:miter;stroke-opacity:1" d="M 168.618,104.202 182.932,104.202 z" id="boundary" inkscape:connector-curvature="0" />
	<path style="fill:none;stroke:red;stroke-width:1px;stroke-linecap:butt;stroke-linejoin:miter;stroke-opacity:1" d="M 177.206,208.698 187.227,220.15 z" id="boundary" inkscape:connector-curvature="0" />
	<path style="fill:none;stroke:red;stroke-width:1px;stroke-linecap:butt;stroke-linejoin:miter;stroke-opacity:1" d="M 182.932,104.202 197.247,101.339 z" id="boundary" inkscape:connector-curvature="0" />
	<path style="fill:none;stroke:red;stroke-width:1px;stroke-linecap:butt;stroke-linejoin:miter;stroke-opacity:1" d="M 187.227,220.15 194.384,233.033 z" id="boundary" inkscape:connector-curvature="0" />
	<path style="fill:none;stroke:red;stroke-width:1px;stroke-linecap:butt;stroke-linejoin:miter;stroke-opacity:1" d="M 194.384,233.033 204.404,244.485 z" id="boundary" inkscape:connector-curvature="0" />
	<path style="fill:none;stroke:red;stroke-width:1px;stroke-linecap:butt;stroke-linejoin:miter;stroke-opacity:1" d="M 197.247,101.339 211.561,97.0447 z" id="boundary" inkscape:connector-curvature="0" />
	<path style="fill:none;stroke:red;stroke-width:1px;stroke-linecap:butt;stroke-linejoin:miter;stroke-opacity:1" d="M 204.404,244.485 211.561,257.368 z" id="boundary" inkscape:connector-curvature="0" />
	<path style="fill:none;stroke:red;stroke-width:1px;stroke-linecap:butt;stroke-linejoin:miter;stroke-opacity:1" d="M 211.561,97.0447 225.876,97.0447 z" id="boundary" inkscape:connector-curvature="0" />
	<path style="fill:none;stroke:red;stroke-width:1px;stroke-linecap:butt;stroke-linejoin:miter;stroke-opacity:1" d="M 211.561,257.368 218.719,270.251 z" id="boundary" inkscape:connector-curvature="0" />
	<path style="fill:none;stroke:red;stroke-width:1px;stroke-linecap:butt;stroke-linejoin:miter;stroke-opacity:1" d="M 218.719,270.251 227.307,281.703 z" id="boundary" inkscape:connector-curvature="0" />
	<path style="fill:none;stroke:red;stroke-width:1px;stroke-linecap:butt;stroke-linejoin:miter;stroke-opacity:1" d="M 225.876,97.0447 240.19,97.0447 z" id="boundary" inkscape:connector-curvature="0" />
	<path style="fill:none;stroke:red;stroke-width:1px;stroke-linecap:butt;stroke-linejoin:miter;stroke-opacity:1" d="M 227.307,281.703 241.622,277.408 z" id="boundary" inkscape:connector-curvature="0" />
	<path style="fill:none;stroke:red;stroke-width:1px;stroke-linecap:butt;stroke-linejoin:miter;stroke-opacity:1" d="M 240.19,97.0447 253.074,89.8874 z" id="boundary" inkscape:connector-curvature="0" />
	<path style="fill:none;stroke:red;stroke-width:1px;stroke-linecap:butt;stroke-linejoin:miter;stroke-opacity:1" d="M 241.622,277.408 248.779,255.937 z" id="boundary" inkscape:connector-curvature="0" />
	<path style="fill:none;stroke:red;stroke-width:1px;stroke-linecap:butt;stroke-linejoin:miter;stroke-opacity:1" d="M 248.779,255.937 255.937,241.622 z" id="boundary" inkscape:connector-curvature="0" />
	<path style="fill:none;stroke:red;stroke-width:1px;stroke-linecap:butt;stroke-linejoin:miter;stroke-opacity:1" d="M 253.074,89.8874 265.957,82.7302 z" id="boundary" inkscape:connector-curvature="0" />
	<path style="fill:none;stroke:red;stroke-width:1px;stroke-linecap:butt;stroke-linejoin:miter;stroke-opacity:1" d="M 255.937,241.622 263.094,227.307 z" id="boundary" inkscape:connector-curvature="0" />
	<path style="fill:none;stroke:red;stroke-width:1px;stroke-linecap:butt;stroke-linejoin:miter;stroke-opacity:1" d="M 263.094,227.307 270.251,212.993 z" id="boundary" inkscape:connector-curvature="0" />
	<path style="fill:none;stroke:red;stroke-width:1px;stroke-linecap:butt;stroke-linejoin:miter;stroke-opacity:1" d="M 265.957,82.7302 280.271,75.5729 z" id="boundary" inkscape:connector-curvature="0" />
	<path style="fill:none;stroke:red;stroke-width:1px;stroke-linecap:butt;stroke-linejoin:miter;stroke-opacity:1" d="M 270.251,212.993 284.566,212.993 z" id="boundary" inkscape:connector-curvature="0" />
	<path style="fill:none;stroke:red;stroke-width:1px;stroke-linecap:butt;stroke-linejoin:miter;stroke-opacity:1" d="M 280.271,75.5729 291.723,64.1212 z" id="boundary" inkscape:connector-curvature="0" />
	<path style="fill:none;stroke:red;stroke-width:1px;stroke-linecap:butt;stroke-linejoin:miter;stroke-opacity:1" d="M 284.566,212.993 298.88,212.993 z" id="boundary" inkscape:connector-curvature="0" />
	<path style="fill:none;stroke:red;stroke-width:1px;stroke-linecap:butt;stroke-linejoin:miter;stroke-opacity:1" d="M 291.723,64.1212 303.175,54.101 z" id="boundary" inkscape:connector-curvature="0" />
	<path style="fill:none;stroke:red;stroke-width:1px;stroke-linecap:butt;stroke-linejoin:miter;stroke-opacity:1" d="M 298.88,212.993 313.195,212.993 z" id="boundary" inkscape:connector-curvature="0" />
	<path style="fill:none;stroke:red;stroke-width:1px;stroke-linecap:butt;stroke-linejoin:miter;stroke-opacity:1" d="M 303.175,54.101 313.195,42.6494 z" id="boundary" inkscape:connector-curvature="0" />
	<path style="fill:none;stroke:red;stroke-width:1px;stroke-linecap:butt;stroke-linejoin:miter;stroke-opacity:1" d="M 313.195,42.6494 324.646,32.6291 z" id="boundary" inkscape:connector-curvature="0" />
	<path style="fill:none;stroke:red;stroke-width:1px;stroke-linecap:butt;stroke-linejoin:miter;stroke-opacity:1" d="M 313.195,212.993 327.509,212.993 z" id="boundary" inkscape:connector-curvature="0" />
	<path style="fill:none;stroke:red;stroke-width:1px;stroke-linecap:butt;stroke-linejoin:miter;stroke-opacity:1" d="M 324.646,32.6291 334.667,21.1775 z" id="boundary" inkscape:connector-curvature="0" />
	<path style="fill:none;stroke:red;stroke-width:1px;stroke-linecap:butt;stroke-linejoin:miter;stroke-opacity:1" d="M 327.509,212.993 341.824,212.993 z" id="boundary" inkscape:connector-curvature="0" />
	<path style="fill:none;stroke:red;stroke-width:1px;stroke-linecap:butt;stroke-linejoin:miter;stroke-opacity:1" d="M 334.667,21.1775 346.118,11.1573 z" id="boundary" inkscape:connector-curvature="0" />
	<path style="fill:none;stroke:red;stroke-width:1px;stroke-linecap:butt;stroke-linejoin:miter;stroke-opacity:1" d="M 341.824,212.993 356.139,212.993 z" id="boundary" inkscape:connector-curvature="0" />
	<path style="fill:none;stroke:red;stroke-width:1px;stroke-linecap:butt;stroke-linejoin:miter;stroke-opacity:1" d="M 346.118,11.1573 359.001,4 z" id="boundary" inkscape:connector-curvature="0" />
	<path style="fill:none;stroke:red;stroke-width:1px;stroke-linecap:butt;stroke-linejoin:miter;stroke-opacity:1" d="M 356.139,212.993 370.453,212.993 z" id="boundary" inkscape:connector-curvature="0" />
	<path style="fill:none;stroke:red;stroke-width:1px;stroke-linecap:butt;stroke-linejoin:miter;stroke-opacity:1" d="M 359.001,4 370.453,12.5887 z" id="boundary" inkscape:connector-curvature="0" />
	<path style="fill:none;stroke:red;stroke-width:1px;stroke-linecap:butt;stroke-linejoin:miter;stroke-opacity:1" d="M 370.453,12.5887 373.316,26.9033 z" id="boundary" inkscape:connector-curvature="0" />
	<path style="fill:none;stroke:red;stroke-width:1px;stroke-linecap:butt;stroke-linejoin:miter;stroke-opacity:1" d="M 370.453,212.993 383.336,205.835 z" id="boundary" inkscape:connector-curvature="0" />
	<path style="fill:none;stroke:red;stroke-width:1px;stroke-linecap:butt;stroke-linejoin:miter;stroke-opacity:1" d="M 373.316,26.9033 377.61,41.2179 z" id="boundary" inkscape:connector-curvature="0" />
	<path style="fill:none;stroke:red;stroke-width:1px;stroke-linecap:butt;stroke-linejoin:miter;stroke-opacity:1" d="M 377.61,41.2179 380.473,55.5325 z" id="boundary" inkscape:connector-curvature="0" />
	<path style="fill:none;stroke:red;stroke-width:1px;stroke-linecap:butt;stroke-linejoin:miter;stroke-opacity:1" d="M 380.473,55.5325 387.631,68.4156 z" id="boundary" inkscape:connector-curvature="0" />
	<path style="fill:none;stroke:red;stroke-width:1px;stroke-linecap:butt;stroke-linejoin:miter;stroke-opacity:1" d="M 383.336,205.835 397.651,205.835 z" id="boundary" inkscape:connector-curvature="0" />
	<path style="fill:none;stroke:red;stroke-width:1px;stroke-linecap:butt;stroke-linejoin:miter;stroke-opacity:1" d="M 387.631,68.4156 397.651,79.8672 z" id="boundary" inkscape:connector-curvature="0" />
	<path style="fill:none;stroke:red;stroke-width:1px;stroke-linecap:butt;stroke-linejoin:miter;stroke-opacity:1" d="M 397.651,79.8672 406.24,91.3189 z" id="boundary" inkscape:connector-curvature="0" />
	<path style="fill:none;stroke:red;stroke-width:1px;stroke-linecap:butt;stroke-linejoin:miter;stroke-opacity:1" d="M 397.651,205.835 411.965,205.835 z" id="boundary" inkscape:connector-curvature="0" />
	<path style="fill:none;stroke:red;stroke-width:1px;stroke-linecap:butt;stroke-linejoin:miter;stroke-opacity:1" d="M 406.24,91.3189 420.554,97.0447 z" id="boundary" inkscape:connector-curvature="0" />
	<path style="fill:none;stroke:red;stroke-width:1px;stroke-linecap:butt;stroke-linejoin:miter;stroke-opacity:1" d="M 411.965,205.835 426.28,205.835 z" id="boundary" inkscape:connector-curvature="0" />
	<path style="fill:none;stroke:red;stroke-width:1px;stroke-linecap:butt;stroke-linejoin:miter;stroke-opacity:1" d="M 420.554,97.0447 433.437,104.202 z" id="boundary" inkscape:connector-curvature="0" />
	<path style="fill:none;stroke:red;stroke-width:1px;stroke-linecap:butt;stroke-linejoin:miter;stroke-opacity:1" d="M 426.28,205.835 439.163,212.993 z" id="boundary" inkscape:connector-curvature="0" />
	<path style="fill:none;stroke:red;stroke-width:1px;stroke-linecap:butt;stroke-linejoin:miter;stroke-opacity:1" d="M 433.437,104.202 447.752,104.202 z" id="boundary" inkscape:connector-curvature="0" />
	<path style="fill:none;stroke:red;stroke-width:1px;stroke-linecap:butt;stroke-linejoin:miter;stroke-opacity:1" d="M 439.163,212.993 449.183,224.444 z" id="boundary" inkscape:connector-curvature="0" />
	<path style="fill:none;stroke:red;stroke-width:1px;stroke-linecap:butt;stroke-linejoin:miter;stroke-opacity:1" d="M 447.752,104.202 462.066,104.202 z" id="boundary" inkscape:connector-curvature="0" />
	<path style="fill:none;stroke:red;stroke-width:1px;stroke-linecap:butt;stroke-linejoin:miter;stroke-opacity:1" d="M 449.183,224.444 460.635,234.465 z" id="boundary" inkscape:connector-curvature="0" />
	<path style="fill:none;stroke:red;stroke-width:1px;stroke-linecap:butt;stroke-linejoin:miter;stroke-opacity:1" d="M 460.635,234.465 474.949,234.465 z" id="boundary" inkscape:connector-curvature="0" />
	<path style="fill:none;stroke:red;stroke-width:1px;stroke-linecap:butt;stroke-linejoin:miter;stroke-opacity:1" d="M 462.066,104.202 476.381,104.202 z" id="boundary" inkscape:connector-curvature="0" />
	<path style="fill:none;stroke:red;stroke-width:1px;stroke-linecap:butt;stroke-linejoin:miter;stroke-opacity:1" d="M 474.949,234.465 484.97,220.15 z" id="boundary" inkscape:connector-curvature="0" />
	<path style="fill:none;stroke:red;stroke-width:1px;stroke-linecap:butt;stroke-linejoin:miter;stroke-opacity:1" d="M 476.381,104.202 489.264,111.359 z" id="boundary" inkscape:connector-curvature="0" />
	<path style="fill:none;stroke:red;stroke-width:1px;stroke-linecap:butt;stroke-linejoin:miter;stroke-opacity:1" d="M 484.97,220.15 497.853,212.993 z" id="boundary" inkscape:connector-curvature="0" />
	<path style="fill:none;stroke:red;stroke-width:1px;stroke-linecap:butt;stroke-linejoin:miter;stroke-opacity:1" d="M 489.264,111.359 503.579,111.359 z" id="boundary" inkscape:connector-curvature="0" />
	<path style="fill:none;stroke:red;stroke-width:1px;stroke-linecap:butt;stroke-linejoin:miter;stroke-opacity:1" d="M 497.853,212.993 509.304,204.404 z" id="boundary" inkscape:connector-curvature="0" />
	<path style="fill:none;stroke:red;stroke-width:1px;stroke-linecap:butt;stroke-linejoin:miter;stroke-opacity:1" d="M 503.579,111.359 517.893,111.359 z" id="boundary" inkscape:connector-curvature="0" />
	<path style="fill:none;stroke:red;stroke-width:1px;stroke-linecap:butt;stroke-linejoin:miter;stroke-opacity:1" d="M 509.304,204.404 523.619,198.678 z" id="boundary" inkscape:connector-curvature="0" />
	<path style="fill:none;stroke:red;stroke-width:1px;stroke-linecap:butt;stroke-linejoin:miter;stroke-opacity:1" d="M 517.893,111.359 532.208,112.791 z" id="boundary" inkscape:connector-curvature="0" />
	<path style="fill:none;stroke:red;stroke-width:1px;stroke-linecap:butt;stroke-linejoin:miter;stroke-opacity:1" d="M 523.619,198.678 537.934,198.678 z" id="boundary" inkscape:connector-curvature="0" />
	<path style="fill:none;stroke:red;stroke-width:1px;stroke-linecap:butt;stroke-linejoin:miter;stroke-opacity:1" d="M 532.208,112.791 546.522,118.517 z" id="boundary" inkscape:connector-curvature="0" />
	<path style="fill:none;stroke:red;stroke-width:1px;stroke-linecap:butt;stroke-linejoin:miter;stroke-opacity:1" d="M 537.934,198.678 552.248,198.678 z" id="boundary" inkscape:connector-curvature="0" />
	<path style="fill:none;stroke:red;stroke-width:1px;stroke-linecap:butt;stroke-linejoin:miter;stroke-opacity:1" d="M 546.522,118.517 560.837,118.517 z" id="boundary" inkscape:connector-curvature="0" />
	<path style="fill:none;stroke:red;stroke-width:1px;stroke-linecap:butt;stroke-linejoin:miter;stroke-opacity:1" d="M 552.248,198.678 566.563,197.247 z" id="boundary" inkscape:connector-curvature="0" />
	<path style="fill:none;stroke:red;stroke-width:1px;stroke-linecap:butt;stroke-linejoin:miter;stroke-opacity:1" d="M 560.837,118.517 573.72,125.674 z" id="boundary" inkscape:connector-curvature="0" />
	<path style="fill:none;stroke:red;stroke-width:1px;stroke-linecap:butt;stroke-linejoin:miter;stroke-opacity:1" d="M 566.563,197.247 580.877,191.521 z" id="boundary" inkscape:connector-curvature="0" />
	<path style="fill:none;stroke:red;stroke-width:1px;stroke-linecap:butt;stroke-linejoin:miter;stroke-opacity:1" d="M 573.72,125.674 588.035,125.674 z" id="boundary" inkscape:connector-curvature="0" />
	<path style="fill:none;stroke:red;stroke-width:1px;stroke-linecap:butt;stroke-linejoin:miter;stroke-opacity:1" d="M 580.877,191.521 595.192,191.521 z" id="boundary" inkscape:connector-curvature="0" />
	<path style="fill:none;stroke:red;stroke-width:1px;stroke-linecap:butt;stroke-linejoin:miter;stroke-opacity:1" d="M 588.035,125.674 602.349,118.517 z" id="boundary" inkscape:connector-curvature="0" />
	<path style="fill:none;stroke:red;stroke-width:1px;stroke-linecap:butt;stroke-linejoin:miter;stroke-opacity:1" d="M 595.192,191.521 608.075,198.678 z" id="boundary" inkscape:connector-curvature="0" />
	<path style="fill:none;stroke:red;stroke-width:1px;stroke-linecap:butt;stroke-linejoin:miter;stroke-opacity:1" d="M 602.349,118.517 616.664,111.359 z" id="boundary" inkscape:connector-curvature="0" />
	<path style="fill:none;stroke:red;stroke-width:1px;stroke-linecap:butt;stroke-linejoin:miter;stroke-opacity:1" d="M 608.075,198.678 622.39,198.678 z" id="boundary" inkscape:connector-curvature="0" />
	<path style="fill:none;stroke:red;stroke-width:1px;stroke-linecap:butt;stroke-linejoin:miter;stroke-opacity:1" d="M 616.664,111.359 629.547,104.202 z" id="boundary" inkscape:connector-curvature="0" />
	<path style="fill:none;stroke:red;stroke-width:1px;stroke-linecap:butt;stroke-linejoin:miter;stroke-opacity:1" d="M 622.39,198.678 635.273,205.835 z" id="boundary" inkscape:connector-curvature="0" />
	<path style="fill:none;stroke:red;stroke-width:1px;stroke-linecap:butt;stroke-linejoin:miter;stroke-opacity:1" d="M 629.547,104.202 642.43,97.0447 z" id="boundary" inkscape:connector-curvature="0" />
	<path style="fill:none;stroke:red;stroke-width:1px;stroke-linecap:butt;stroke-linejoin:miter;stroke-opacity:1" d="M 635.273,205.835 648.156,212.993 z" id="boundary" inkscape:connector-curvature="0" />
	<path style="fill:none;stroke:red;stroke-width:1px;stroke-linecap:butt;stroke-linejoin:miter;stroke-opacity:1" d="M 642.43,97.0447 655.313,89.8874 z" id="boundary" inkscape:connector-curvature="0" />
	<path style="fill:none;stroke:red;stroke-width:1px;stroke-linecap:butt;stroke-linejoin:miter;stroke-opacity:1" d="M 648.156,212.993 662.47,208.698 z" id="boundary" inkscape:connector-curvature="0" />
	<path style="fill:none;stroke:red;stroke-width:1px;stroke-linecap:butt;stroke-linejoin:miter;stroke-opacity:1" d="M 655.313,89.8874 663.902,101.339 z" id="boundary" inkscape:connector-curvature="0" />
	<path style="fill:none;stroke:red;stroke-width:1px;stroke-linecap:butt;stroke-linejoin:miter;stroke-opacity:1" d="M 662.47,208.698 676.785,201.541 z" id="boundary" inkscape:connector-curvature="0" />
	<path style="fill:none;stroke:red;stroke-width:1px;stroke-linecap:butt;stroke-linejoin:miter;stroke-opacity:1" d="M 663.902,101.339 669.628,115.654 z" id="boundary" inkscape:connector-curvature="0" />
	<path style="fill:none;stroke:red;stroke-width:1px;stroke-linecap:butt;stroke-linejoin:miter;stroke-opacity:1" d="M 669.628,115.654 676.785,128.537 z" id="boundary" inkscape:connector-curvature="0" />
	<path style="fill:none;stroke:red;stroke-width:1px;stroke-linecap:butt;stroke-linejoin:miter;stroke-opacity:1" d="M 676.785,128.537 685.374,139.988 z" id="boundary" inkscape:connector-curvature="0" />
	<path style="fill:none;stroke:red;stroke-width:1px;stroke-linecap:butt;stroke-linejoin:miter;stroke-opacity:1" d="M 676.785,201.541 691.1,194.384 z" id="boundary" inkscape:connector-curvature="0" />
	<path style="fill:none;stroke:red;stroke-width:1px;stroke-linecap:butt;stroke-linejoin:miter;stroke-opacity:1" d="M 685.374,139.988 698.257,147.146 z" id="boundary" inkscape:connector-curvature="0" />
	<path style="fill:none;stroke:red;stroke-width:1px;stroke-linecap:butt;stroke-linejoin:miter;stroke-opacity:1" d="M 691.1,194.384 705.414,191.521 z" id="boundary" inkscape:connector-curvature="0" />
	<path style="fill:none;stroke:red;stroke-width:1px;stroke-linecap:butt;stroke-linejoin:miter;stroke-opacity:1" d="M 698.257,147.146 712.571,147.146 z" id="boundary" inkscape:connector-curvature="0" />
	<path style="fill:none;stroke:red;stroke-width:1px;stroke-linecap:butt;stroke-linejoin:miter;stroke-opacity:1" d="M 705.414,191.521 719.729,191.521 z" id="boundary" inkscape:connector-curvature="0" />
	<path style="fill:none;stroke:red;stroke-width:1px;stroke-linecap:butt;stroke-linejoin:miter;stroke-opacity:1" d="M 712.571,147.146 726.886,147.146 z" id="boundary" inkscape:connector-curvature="0" />
	<path style="fill:none;stroke:red;stroke-width:1px;stroke-linecap:butt;stroke-linejoin:miter;stroke-opacity:1" d="M 719.729,191.521 734.043,191.521 z" id="boundary" inkscape:connector-curvature="0" />
	<path style="fill:none;stroke:red;stroke-width:1px;stroke-linecap:butt;stroke-linejoin:miter;stroke-opacity:1" d="M 726.886,147.146 741.201,147.146 z" id="boundary" inkscape:connector-curvature="0" />
	<path style="fill:none;stroke:red;stroke-width:1px;stroke-linecap:butt;stroke-linejoin:miter;stroke-opacity:1" d="M 734.043,191.521 748.358,191.521 z" id="boundary" inkscape:connector-curvature="0" />
	<path style="fill:none;stroke:red;stroke-width:1px;stroke-linecap:butt;stroke-linejoin:miter;stroke-opacity:1" d="M 741.201,147.146 755.515,147.146 z" id="boundary" inkscape:connector-curvature="0" />
	<path style="fill:none;stroke:red;stroke-width:1px;stroke-linecap:butt;stroke-linejoin:miter;stroke-opacity:1" d="M 748.358,191.521 761.241,198.678 z" id="boundary" inkscape:connector-curvature="0" />
	<path style="fill:none;stroke:red;stroke-width:1px;stroke-linecap:butt;stroke-linejoin:miter;stroke-opacity:1" d="M 755.515,147.146 769.83,147.146 z" id="boundary" inkscape:connector-curvature="0" />
	<path style="fill:none;stroke:red;stroke-width:1px;stroke-linecap:butt;stroke-linejoin:miter;stroke-opacity:1" d="M 761.241,198.678 775.556,198.678 z" id="boundary" inkscape:connector-curvature="0" />
	<path style="fill:none;stroke:red;stroke-width:1px;stroke-linecap:butt;stroke-linejoin:miter;stroke-opacity:1" d="M 769.83,147.146 784.144,147.146 z" id="boundary" inkscape:connector-curvature="0" />
	<path style="fill:none;stroke:red;stroke-width:1px;stroke-linecap:butt;stroke-linejoin:miter;stroke-opacity:1" d="M 775.556,198.678 788.439,205.835 z" id="boundary" inkscape:connector-curvature="0" />
	<path style="fill:none;stroke:red;stroke-width:1px;stroke-linecap:butt;stroke-linejoin:miter;stroke-opacity:1" d="M 784.144,147.146 797.027,139.988 z" id="boundary" inkscape:connector-curvature="0" />
	<path style="fill:none;stroke:red;stroke-width:1px;stroke-linecap:butt;stroke-linejoin:miter;stroke-opacity:1" d="M 788.439,205.835 802.753,211.561 z" id="boundary" inkscape:connector-curvature="0" />
	<path style="fill:none;stroke:red;stroke-width:1px;stroke-linecap:butt;stroke-linejoin:miter;stroke-opacity:1" d="M 797.027,139.988 811.342,139.988 z" id="boundary" inkscape:connector-curvature="0" />
	<path style="fill:none;stroke:red;stroke-width:1px;stroke-linecap:butt;stroke-linejoin:miter;stroke-opacity:1" d="M 802.753,211.561 817.068,212.993 z" id="boundary" inkscape:connector-curvature="0" />
	<path style="fill:none;stroke:red;stroke-width:1px;stroke-linecap:butt;stroke-linejoin:miter;stroke-opacity:1" d="M 811.342,139.988 824.225,132.831 z" id="boundary" inkscape:connector-curvature="0" />
	<path style="fill:none;stroke:red;stroke-width:1px;stroke-linecap:butt;stroke-linejoin:miter;stroke-opacity:1" d="M 817.068,212.993 831.382,211.561 z" id="boundary" inkscape:connector-curvature="0" />
	<path style="fill:none;stroke:red;stroke-width:1px;stroke-linecap:butt;stroke-linejoin:miter;stroke-opacity:1" d="M 824.225,132.831 838.54,125.674 z" id="boundary" inkscape:connector-curvature="0" />
	<path style="fill:none;stroke:red;stroke-width:1px;stroke-linecap:butt;stroke-linejoin:miter;stroke-opacity:1" d="M 831.382,211.561 842.834,198.678 z" id="boundary" inkscape:connector-curvature="0" />
	<path style="fill:none;stroke:red;stroke-width:1px;stroke-linecap:butt;stroke-linejoin:miter;stroke-opacity:1" d="M 838.54,125.674 852.854,125.674 z" id="boundary" inkscape:connector-curvature="0" />
	<path style="fill:none;stroke:red;stroke-width:1px;stroke-linecap:butt;stroke-linejoin:miter;stroke-opacity:1" d="M 842.834,198.678 854.286,188.658 z" id="boundary" inkscape:connector-curvature="0" />
	<path style="fill:none;stroke:red;stroke-width:1px;stroke-linecap:butt;stroke-linejoin:miter;stroke-opacity:1" d="M 852.854,125.674 865.737,118.517 z" id="boundary" inkscape:connector-curvature="0" />
	<path style="fill:none;stroke:red;stroke-width:1px;stroke-linecap:butt;stroke-linejoin:miter;stroke-opacity:1" d="M 854.286,188.658 864.306,177.206 z" id="boundary" inkscape:connector-curvature="0" />
	<path style="fill:none;stroke:red;stroke-width:1px;stroke-linecap:butt;stroke-linejoin:miter;stroke-opacity:1" d="M 864.306,177.206 878.62,177.206 z" id="boundary" inkscape:connector-curvature="0" />
	<path style="fill:none;stroke:red;stroke-width:1px;stroke-linecap:butt;stroke-linejoin:miter;stroke-opacity:1" d="M 865.737,118.517 880.052,112.791 z" id="boundary" inkscape:connector-curvature="0" />
	<path style="fill:none;stroke:red;stroke-width:1px;stroke-linecap:butt;stroke-linejoin:miter;stroke-opacity:1" d="M 878.62,177.206 891.504,170.049 z" id="boundary" inkscape:connector-curvature="0" />
	<path style="fill:none;stroke:red;stroke-width:1px;stroke-linecap:butt;stroke-linejoin:miter;stroke-opacity:1" d="M 880.052,112.791 894.367,111.359 z" id="boundary" inkscape:connector-curvature="0" />
	<path style="fill:none;stroke:red;stroke-width:1px;stroke-linecap:butt;stroke-linejoin:miter;stroke-opacity:1" d="M 891.504,170.049 904.387,162.892 z" id="boundary" inkscape:connector-curvature="0" />
	<path style="fill:none;stroke:red;stroke-width:1px;stroke-linecap:butt;stroke-linejoin:miter;stroke-opacity:1" d="M 894.367,111.359 908.681,111.359 z" id="boundary" inkscape:connector-curvature="0" />
	<path style="fill:none;stroke:red;stroke-width:1px;stroke-linecap:butt;stroke-linejoin:miter;stroke-opacity:1" d="M 904.387,162.892 917.27,155.734 z" id="boundary" inkscape:connector-curvature="0" />
	<path style="fill:none;stroke:red;stroke-width:1px;stroke-linecap:butt;stroke-linejoin:miter;stroke-opacity:1" d="M 908.681,111.359 921.564,104.202 z" id="boundary" inkscape:connector-curvature="0" />
	<path style="fill:none;stroke:red;stroke-width:1px;stroke-linecap:butt;stroke-linejoin:miter;stroke-opacity:1" d="M 917.27,155.734 930.153,148.577 z" id="boundary" inkscape:connector-curvature="0" />
	<path style="fill:none;stroke:red;stroke-width:1px;stroke-linecap:butt;stroke-linejoin:miter;stroke-opacity:1" d="M 921.564,104.202 935.879,104.202 z" id="boundary" inkscape:connector-curvature="0" />
	<path style="fill:none;stroke:red;stroke-width:1px;stroke-linecap:butt;stroke-linejoin:miter;stroke-opacity:1" d="M 930.153,148.577 944.468,148.577 z" id="boundary" inkscape:connector-curvature="0" />
	<path style="fill:none;stroke:red;stroke-width:1px;stroke-linecap:butt;stroke-linejoin:miter;stroke-opacity:1" d="M 935.879,104.202 950.193,104.202 z" id="boundary" inkscape:connector-curvature="0" />
	<path style="fill:none;stroke:red;stroke-width:1px;stroke-linecap:butt;stroke-linejoin:miter;stroke-opacity:1" d="M 944.468,148.577 958.782,148.577 z" id="boundary" inkscape:connector-curvature="0" />
	<path style="fill:none;stroke:red;stroke-width:1px;stroke-linecap:butt;stroke-linejoin:miter;stroke-opacity:1" d="M 950.193,104.202 963.076,97.0447 z" id="boundary" inkscape:connector-curvature="0" />
	<path style="fill:none;stroke:red;stroke-width:1px;stroke-linecap:butt;stroke-linejoin:miter;stroke-opacity:1" d="M 958.782,148.577 971.665,134.263 z" id="boundary" inkscape:connector-curvature="0" />
	<path style="fill:none;stroke:red;stroke-width:1px;stroke-linecap:butt;stroke-linejoin:miter;stroke-opacity:1" d="M 963.076,97.0447 977.391,97.0447 z" id="boundary" inkscape:connector-curvature="0" />
	<path style="fill:none;stroke:red;stroke-width:1px;stroke-linecap:butt;stroke-linejoin:miter;stroke-opacity:1" d="M 971.665,134.263 984.548,127.105 z" id="boundary" inkscape:connector-curvature="0" />
	<path style="fill:none;stroke:red;stroke-width:1px;stroke-linecap:butt;stroke-linejoin:miter;stroke-opacity:1" d="M 977.391,97.0447 990.274,104.202 z" id="boundary" inkscape:connector-curvature="0" />
	<path style="fill:none;stroke:red;stroke-width:1px;stroke-linecap:butt;stroke-linejoin:miter;stroke-opacity:1" d="M 984.548,127.105 996,118.517 z" id="boundary" inkscape:connector-curvature="0" />
	<path style="fill:none;stroke:red;stroke-width:1px;stroke-linecap:butt;stroke-linejoin:miter;stroke-opacity:1" d="M 990.274,104.202 996,118.517 z" id="boundary" inkscape:connector-curvature="0" />
	<circle cx="4" cy="158.597" r="4" fill="#0" id="circle0"/>
	<circle cx="11.1573" cy="171.481" r="4" fill="#0" id="circle1"/>
	<circle cx="18.3146" cy="151.44" r="4" fill="#0" id="circle2"/>
	<circle cx="25.4719" cy="177.206" r="4" fill="#0" id="circle3"/>
	<circle cx="32.6291" cy="147.146" r="4" fill="#0" id="circle4"/>
	<circle cx="38.355" cy="184.364" r="4" fill="#0" id="circle5"/>
	<circle cx="45.5123" cy="139.988" r="4" fill="#0" id="circle6"/>
	<circle cx="52.6696" cy="184.364" r="4" fill="#0" id="circle7"/>
	<circle cx="58.3954" cy="132.831" r="4" fill="#0" id="circle8"/>
	<circle cx="65.5527" cy="191.521" r="4" fill="#0" id="circle9"/>
	<circle cx="72.71" cy="132.831" r="4" fill="#0" id="circle10"/>
	<circle cx="79.8672" cy="191.521" r="4" fill="#0" id="circle11"/>
	<circle cx="85.5931" cy="125.674" r="4" fill="#0" id="circle12"/>
	<circle cx="94.1818" cy="191.521" r="4" fill="#0" id="circle13"/>
	<circle cx="98.4762" cy="118.517" r="4" fill="#0" id="circle14"/>
	<circle cx="108.496" cy="191.521" r="4" fill="#0" id="circle15"/>
	<circle cx="112.791" cy="118.517" r="4" fill="#0" id="circle16"/>
	<circle cx="122.811" cy="197.247" r="4" fill="#0" id="circle17"/>
	<circle cx="125.674" cy="111.359" r="4" fill="#0" id="circle18"/>
	<circle cx="137.126" cy="198.678" r="4" fill="#0" id="circle19"/>
	<circle cx="139.988" cy="111.359" r="4" fill="#0" id="circle20"/>
	<circle cx="151.44" cy="198.678" r="4" fill="#0" id="circle21"/>
	<circle cx="154.303" cy="108.496" r="4" fill="#0" id="circle22"/>
	<circle cx="165.755" cy="198.678" r="4" fill="#0" id="circle23"/>
	<circle cx="168.618" cy="104.202" r="4" fill="#0" id="circle24"/>
	<circle cx="177.206" cy="208.698" r="4" fill="#0" id="circle25"/>
	<circle cx="182.932" cy="104.202" r="4" fill="#0" id="circle26"/>
	<circle cx="187.227" cy="220.15" r="4" fill="#0" id="circle27"/>
	<circle cx="194.384" cy="233.033" r="4" fill="#0" id="circle28"/>
	<circle cx="197.247" cy="101.339" r="4" fill="#0" id="circle29"/>
	<circle cx="204.404" cy="244.485" r="4" fill="#0" id="circle30"/>
	<circle cx="211.561" cy="97.0447" r="4" fill="#0" id="circle31"/>
	<circle cx="211.561" cy="257.368" r="4" fill="#0" id="circle32"/>
	<circle cx="218.719" cy="270.251" r="4" fill="#0" id="circle33"/>
	<circle cx="225.876" cy="97.0447" r="4" fill="#0" id="circle34"/>
	<circle cx="227.307" cy="281.703" r="4" fill="#0" id="circle35"/>
	<circle cx="240.19" cy="97.0447" r="4" fill="#0" id="circle36"/>
	<circle cx="241.622" cy="277.408" r="4" fill="#0" id="circle37"/>
	<circle cx="248.779" cy="255.937" r="4" fill="#0" id="circle38"/>
	<circle cx="253.074" cy="89.8874" r="4" fill="#0" id="circle39"/>
	<circle cx="255.937" cy="241.622" r="4" fill="#0" id="circle40"/>
	<circle cx="263.094" cy="227.307" r="4" fill="#0" id="circle41"/>
	<circle cx="265.957" cy="82.7302" r="4" fill="#0" id="circle42"/>
	<circle cx="270.251" cy="212.993" r="4" fill="#0" id="circle43"/>
	<circle cx="280.271" cy="75.5729" r="4" fill="#0" id="circle44"/>
	<circle cx="284.566" cy="212.993" r="4" fill="#0" id="circle45"/>
	<circle cx="291.723" cy="64.1212" r="4" fill="#0" id="circle46"/>
	<circle cx="298.88" cy="212.993" r="4" fill="#0" id="circle47"/>
	<circle cx="303.175" cy="54.101" r="4" fill="#0" id="circle48"/>
	<circle cx="313.195" cy="42.6494" r="4" fill="#0" id="circle49"/>
	<circle cx="313.195" cy="212.993" r="4" fill="#0" id="circle50"/>
	<circle cx="324.646" cy="32.6291" r="4" fill="#0" id="circle51"/>
	<circle cx="327.509" cy="212.993" r="4" fill="#0" id="circle52"/>
	<circle cx="334.667" cy="21.1775" r="4" fill="#0" id="circle53"/>
	<circle cx="341.824" cy="212.993" r="4" fill="#0" id="circle54"/>
	<circle cx="346.118" cy="11.1573" r="4" fill="#0" id="circle55"/>
	<circle cx="356.139" cy="212.993" r="4" fill="#0" id="circle56"/>
	<circle cx="359.001" cy="4" r="4" fill="#0" id="circle57"/>
	<circle cx="370.453" cy="12.5887" r="4" fill="#0" id="circle58"/>
	<circle cx="370.453" cy="212.993" r="4" fill="#0" id="circle59"/>
	<circle cx="373.316" cy="26.9033" r="4" fill="#0" id="circle60"/>
	<circle cx="377.61" cy="41.2179" r="4" fill="#0" id="circle61"/>
	<circle cx="380.473" cy="55.5325" r="4" fill="#0" id="circle62"/>
	<circle cx="383.336" cy="205.835" r="4" fill="#0" id="circle63"/>
	<circle cx="387.631" cy="68.4156" r="4" fill="#0" id="circle64"/>
	<circle cx="397.651" cy="79.8672" r="4" fill="#0" id="circle65"/>
	<circle cx="397.651" cy="205.835" r="4" fill="#0" id="circle66"/>
	<circle cx="406.24" cy="91.3189" r="4" fill="#0" id="circle67"/>
	<circle cx="411.965" cy="205.835" r="4" fill="#0" id="circle68"/>
	<circle cx="420.554" cy="97.0447" r="4" fill="#0" id="circle69"/>
	<circle cx="426.28" cy="205.835" r="4" fill="#0" id="circle70"/>
	<circle cx="433.437" cy="104.202" r="4" fill="#0" id="circle71"/>
	<circle cx="439.163" cy="212.993" r="4" fill="#0" id="circle72"/>
	<circle cx="447.752" cy="104.202" r="4" fill="#0" id="circle73"/>
	<circle cx="449.183" cy="224.444" r="4" fill="#0" id="circle74"/>
	<circle cx="460.635" cy="234.465" r="4" fill="#0" id="circle75"/>
	<circle cx="462.066" cy="104.202" r="4" fill="#0" id="circle76"/>
	<circle cx="474.949" cy="234.465" r="4" fill="#0" id="circle77"/>
	<circle cx="476.381" cy="104.202" r="4" fill="#0" id="circle78"/>
	<circle cx="484.97" cy="220.15" r="4" fill="#0" id="circle79"/>
	<circle cx="489.264" cy="111.359" r="4" fill="#0" id="circle80"/>
	<circle cx="497.853" cy="212.993" r="4" fill="#0" id="circle81"/>
	<circle cx="503.579" cy="111.359" r="4" fill="#0" id="circle82"/>
	<circle cx="509.304" cy="204.404" r="4" fill="#0" id="circle83"/>
	<circle cx="517.893" cy="111.359" r="4" fill="#0" id="circle84"/>
	<circle cx="523.619" cy="198.678" r="4" fill="#0" id="circle85"/>
	<circle cx="532.208" cy="112.791" r="4" fill="#0" id="circle86"/>
	<circle cx="537.934" cy="198.678" r="4" fill="#0" id="circle87"/>
	<circle cx="546.522" cy="118.517" r="4" fill="#0" id="circle88"/>
	<circle cx="552.248" cy="198.678" r="4" fill="#0" id="circle89"/>
	<circle cx="560.837" cy="118.517" r="4" fill="#0" id="circle90"/>
	<circle cx="566.563" cy="197.247" r="4" fill="#0" id="circle91"/>
	<circle cx="573.72" cy="125.674" r="4" fill="#0" id="circle92"/>
	<circle cx="580.877" cy="191.521" r="4" fill="#0" id="circle93"/>
	<circle cx="588.035" cy="125.674" r="4" fill="#0" id="circle94"/>
	<circle cx="595.192" cy="191.521" r="4" fill="#0" id="circle95"/>
	<circle cx="602.349" cy="118.517" r="4" fill="#0" id="circle96"/>
	<circle cx="608.075" cy="198.678" r="4" fill="#0" id="circle97"/>
	<circle cx="616.664" cy="111.359" r="4" fill="#0" id="circle98"/>
	<circle cx="622.39" cy="198.678" r="4" fill="#0" id="circle99"/>
	<circle cx="629.547" cy="104.202" r="4" fill="#0" id="circle100"/>
	<circle cx="635.273" cy="205.835" r="4" fill="#0" id="circle101"/>
	<circle cx="642.43" cy="97.0447" r="4" fill="#0" id="circle102"/>
	<circle cx="648.156" cy="212.993" r="4" fill="#0" id="circle103"/>
	<circle cx="655.313" cy="89.8874" r="4" fill="#0" id="circle104"/>
	<circle cx="662.47" cy="208.698" r="4" fill="#0" id="circle105"/>
	<circle cx="663.902" cy="101.339" r="4" fill="#0" id="circle106"/>
	<circle cx="669.628" cy="115.654" r="4" fill="#0" id="circle107"/>
	<circle cx="676.785" cy="128.537" r="4" fill="#0" id="circle108"/>
	<circle cx="676.785" cy="201.541" r="4" fill="#0" id="circle109"/>
	<circle cx="685.374" cy="139.988" r="4" fill="#0" id="circle110"/>
	<circle cx="691.1" cy="194.384" r="4" fill="#0" id="circle111"/>
	<circle cx="698.257" cy="147.146" r="4" fill="#0" id="circle112"/>
	<circle cx="705.414" cy="191.521" r="4" fill="#0" id="circle113"/>
	<circle cx="712.571" cy="147.146" r="4" fill="#0" id="circle114"/>
	<circle cx="719.729" cy="191.521" r="4" fill="#0" id="circle115"/>
	<circle cx="726.886" cy="147.146" r="4" fill="#0" id="circle116"/>
	<circle cx="734.043" cy="191.521" r="4" fill="#0" id="circle117"/>
	<circle cx="741.201" cy="147.146" r="4" fill="#0" id="circle118"/>
	<circle cx="748.358" cy="191.521" r="4" fill="#0" id="circle119"/>
	<circle cx="755.515" cy="147.146" r="4" fill="#0" id="circle120"/>
	<circle cx="761.241" cy="198.678" r="4" fill="#0" id="circle121"/>
	<circle cx="769.83" cy="147.146" r="4" fill="#0" id="circle122"/>
	<circle cx="775.556" cy="198.678" r="4" fill="#0" id="circle123"/>
	<circle cx="784.144" cy="147.146" r="4" fill="#0" id="circle124"/>
	<circle cx="788.439" cy="205.835" r="4" fill="#0" id="circle125"/>
	<circle cx="797.027" cy="139.988" r="4" fill="#0" id="circle126"/>
	<circle cx="802.753" cy="211.561" r="4" fill="#0" id="circle127"/>
	<circle cx="811.342" cy="139.988" r="4" fill="#0" id="circle128"/>
	<circle cx="817.068" cy="212.993" r="4" fill="#0" id="circle129"/>
	<circle cx="824.225" cy="132.831" r="4" fill="#0" id="circle130"/>
	<circle cx="831.382" cy="211.561" r="4" fill="#0" id="circle131"/>
	<circle cx="838.54" cy="125.674" r="4" fill="#0" id="circle132"/>
	<circle cx="842.834" cy="198.678" r="4" fill="#0" id="circle133"/>
	<circle cx="852.854" cy="125.674" r="4" fill="#0" id="circle134"/>
	<circle cx="854.286" cy="188.658" r="4" fill="#0" id="circle135"/>
	<circle cx="864.306" cy="177.206" r="4" fill="#0" id="circle136"/>
	<circle cx="865.737" cy="118.517" r="4" fill="#0" id="circle137"/>
	<circle cx="878.62" cy="177.206" r="4" fill="#0" id="circle138"/>
	<circle cx="880.052" cy="112.791" r="4" fill="#0" id="circle139"/>
	<circle cx="891.504" cy="170.049" r="4" fill="#0" id="circle140"/>
	<circle cx="894.367" cy="111.359" r="4" fill="#0" id="circle141"/>
	<circle cx="904.387" cy="162.892" r="4" fill="#0" id="circle142"/>
	<circle cx="908.681" cy="111.359" r="4" fill="#0" id="circle143"/>
	<circle cx="917.27" cy="155.734" r="4" fill="#0" id="circle144"/>
	<circle cx="921.564" cy="104.202" r="4" fill="#0" id="circle145"/>
	<circle cx="930.153" cy="148.577" r="4" fill="#0" id="circle146"/>
	<circle cx="935.879" cy="104.202" r="4" fill="#0" id="circle147"/>
	<circle cx="944.468" cy="148.577" r="4" fill="#0" id="circle148"/>
	<circle cx="950.193" cy="104.202" r="4" fill="#0" id="circle149"/>
	<circle cx="958.782" cy="148.577" r="4" fill="#0" id="circle150"/>
	<circle cx="963.076" cy="97.0447" r="4" fill="#0" id="circle151"/>
	<circle cx="971.665" cy="134.263" r="4" fill="#0" id="circle152"/>
	<circle cx="977.391" cy="97.0447" r="4" fill="#0" id="circle153"/>
	<circle cx="984.548" cy="127.105" r="4" fill="#0" id="circle154"/>
	<circle cx="990.274" cy="104.202" r="4" fill="#0" id="circle155"/>
	<circle cx="996" cy="118.517" r="4" fill="#0" id="circle156"/>
	</g>
</svg>