<?xml version="1.0" encoding="UTF-8" standalone="no"?>
<!-- Created with CurveBenchmark -->
<svg
	xmlns:dc="http://purl.org/dc/elements/1.1/"
	xmlns:cc="http://creativecommons.org/ns#"
	xmlns:rdf="http://www.w3.org/1999/02/22-rdf-syntax-ns#"
	xmlns:svg="http://www.w3.org/2000/svg"
	xmlns="http://www.w3.org/2000/svg"
	xmlns:sodipodi="http://sodipodi.sourceforge.net/DTD/sodipodi-0.dtd"
	xmlns:inkscape="http://www.inkscape.org/namespaces/inkscape"
	width="1000"
	height="1000"
	id="svg2"
	version="1.1"
	sodipodi:docname="manifold/fitconnect-bird020.png.txt">
<defs
	id="defs4" />
<metadata
	id="metadata7">
	<rdf:RDF>
		<cc:Work
			rdf:about="">
			<dc:format>image/svg+xml</dc:format>
			<dc:type
				rdf:resource="http://purl.org/dc/dcmitype/StillImage" />
			<dc:title></dc:title>
		</cc:Work>
	</rdf:RDF>
</metadata>
<g
	inkscape:label="Layer 1"
	inkscape:groupmode="layer"
	id="layer1">
	<path style="fill:none;stroke:red;stroke-width:1px;stroke-linecap:butt;stroke-linejoin:miter;stroke-opacity:1" d="M 4,396.186 19.3798,350.047 z" id="boundary" inkscape:connector-curvature="0" />
	<path style="fill:none;stroke:red;stroke-width:1px;stroke-linecap:butt;stroke-linejoin:miter;stroke-opacity:1" d="M 4,396.186 34.7597,423.101 z" id="boundary" inkscape:connector-curvature="0" />
	<path style="fill:none;stroke:red;stroke-width:1px;stroke-linecap:butt;stroke-linejoin:miter;stroke-opacity:1" d="M 19.3798,350.047 38.6047,315.442 z" id="boundary" inkscape:connector-curvature="0" />
	<path style="fill:none;stroke:red;stroke-width:1px;stroke-linecap:butt;stroke-linejoin:miter;stroke-opacity:1" d="M 34.7597,423.101 73.2093,423.101 z" id="boundary" inkscape:connector-curvature="0" />
	<path style="fill:none;stroke:red;stroke-width:1px;stroke-linecap:butt;stroke-linejoin:miter;stroke-opacity:1" d="M 38.6047,315.442 57.8295,280.837 z" id="boundary" inkscape:connector-curvature="0" />
	<path style="fill:none;stroke:red;stroke-width:1px;stroke-linecap:butt;stroke-linejoin:miter;stroke-opacity:1" d="M 57.8295,280.837 80.8992,250.078 z" id="boundary" inkscape:connector-curvature="0" />
	<path style="fill:none;stroke:red;stroke-width:1px;stroke-linecap:butt;stroke-linejoin:miter;stroke-opacity:1" d="M 73.2093,423.101 111.659,419.256 z" id="boundary" inkscape:connector-curvature="0" />
	<path style="fill:none;stroke:red;stroke-width:1px;stroke-linecap:butt;stroke-linejoin:miter;stroke-opacity:1" d="M 80.8992,250.078 103.969,219.318 z" id="boundary" inkscape:connector-curvature="0" />
	<path style="fill:none;stroke:red;stroke-width:1px;stroke-linecap:butt;stroke-linejoin:miter;stroke-opacity:1" d="M 103.969,219.318 134.729,188.558 z" id="boundary" inkscape:connector-curvature="0" />
	<path style="fill:none;stroke:red;stroke-width:1px;stroke-linecap:butt;stroke-linejoin:miter;stroke-opacity:1" d="M 111.659,419.256 150.109,426.946 z" id="boundary" inkscape:connector-curvature="0" />
	<path style="fill:none;stroke:red;stroke-width:1px;stroke-linecap:butt;stroke-linejoin:miter;stroke-opacity:1" d="M 134.729,188.558 165.488,157.798 z" id="boundary" inkscape:connector-curvature="0" />
	<path style="fill:none;stroke:red;stroke-width:1px;stroke-linecap:butt;stroke-linejoin:miter;stroke-opacity:1" d="M 150.109,426.946 188.558,423.101 z" id="boundary" inkscape:connector-curvature="0" />
	<path style="fill:none;stroke:red;stroke-width:1px;stroke-linecap:butt;stroke-linejoin:miter;stroke-opacity:1" d="M 165.488,157.798 196.248,127.039 z" id="boundary" inkscape:connector-curvature="0" />
	<path style="fill:none;stroke:red;stroke-width:1px;stroke-linecap:butt;stroke-linejoin:miter;stroke-opacity:1" d="M 188.558,423.101 227.008,407.721 z" id="boundary" inkscape:connector-curvature="0" />
	<path style="fill:none;stroke:red;stroke-width:1px;stroke-linecap:butt;stroke-linejoin:miter;stroke-opacity:1" d="M 196.248,127.039 227.008,96.2791 z" id="boundary" inkscape:connector-curvature="0" />
	<path style="fill:none;stroke:red;stroke-width:1px;stroke-linecap:butt;stroke-linejoin:miter;stroke-opacity:1" d="M 227.008,96.2791 257.767,73.2093 z" id="boundary" inkscape:connector-curvature="0" />
	<path style="fill:none;stroke:red;stroke-width:1px;stroke-linecap:butt;stroke-linejoin:miter;stroke-opacity:1" d="M 227.008,407.721 265.457,400.031 z" id="boundary" inkscape:connector-curvature="0" />
	<path style="fill:none;stroke:red;stroke-width:1px;stroke-linecap:butt;stroke-linejoin:miter;stroke-opacity:1" d="M 257.767,73.2093 288.527,50.1395 z" id="boundary" inkscape:connector-curvature="0" />
	<path style="fill:none;stroke:red;stroke-width:1px;stroke-linecap:butt;stroke-linejoin:miter;stroke-opacity:1" d="M 265.457,400.031 296.217,369.271 z" id="boundary" inkscape:connector-curvature="0" />
	<path style="fill:none;stroke:red;stroke-width:1px;stroke-linecap:butt;stroke-linejoin:miter;stroke-opacity:1" d="M 288.527,50.1395 326.977,34.7597 z" id="boundary" inkscape:connector-curvature="0" />
	<path style="fill:none;stroke:red;stroke-width:1px;stroke-linecap:butt;stroke-linejoin:miter;stroke-opacity:1" d="M 296.217,369.271 334.667,361.581 z" id="boundary" inkscape:connector-curvature="0" />
	<path style="fill:none;stroke:red;stroke-width:1px;stroke-linecap:butt;stroke-linejoin:miter;stroke-opacity:1" d="M 326.977,34.7597 365.426,19.3798 z" id="boundary" inkscape:connector-curvature="0" />
	<path style="fill:none;stroke:red;stroke-width:1px;stroke-linecap:butt;stroke-linejoin:miter;stroke-opacity:1" d="M 334.667,361.581 357.736,392.341 z" id="boundary" inkscape:connector-curvature="0" />
	<path style="fill:none;stroke:red;stroke-width:1px;stroke-linecap:butt;stroke-linejoin:miter;stroke-opacity:1" d="M 357.736,392.341 357.736,430.791 z" id="boundary" inkscape:connector-curvature="0" />
	<path style="fill:none;stroke:red;stroke-width:1px;stroke-linecap:butt;stroke-linejoin:miter;stroke-opacity:1" d="M 357.736,430.791 357.736,469.24 z" id="boundary" inkscape:connector-curvature="0" />
	<path style="fill:none;stroke:red;stroke-width:1px;stroke-linecap:butt;stroke-linejoin:miter;stroke-opacity:1" d="M 357.736,469.24 357.736,507.69 z" id="boundary" inkscape:connector-curvature="0" />
	<path style="fill:none;stroke:red;stroke-width:1px;stroke-linecap:butt;stroke-linejoin:miter;stroke-opacity:1" d="M 357.736,507.69 357.736,546.14 z" id="boundary" inkscape:connector-curvature="0" />
	<path style="fill:none;stroke:red;stroke-width:1px;stroke-linecap:butt;stroke-linejoin:miter;stroke-opacity:1" d="M 357.736,546.14 357.736,584.589 z" id="boundary" inkscape:connector-curvature="0" />
	<path style="fill:none;stroke:red;stroke-width:1px;stroke-linecap:butt;stroke-linejoin:miter;stroke-opacity:1" d="M 357.736,584.589 357.736,623.039 z" id="boundary" inkscape:connector-curvature="0" />
	<path style="fill:none;stroke:red;stroke-width:1px;stroke-linecap:butt;stroke-linejoin:miter;stroke-opacity:1" d="M 357.736,623.039 357.736,661.488 z" id="boundary" inkscape:connector-curvature="0" />
	<path style="fill:none;stroke:red;stroke-width:1px;stroke-linecap:butt;stroke-linejoin:miter;stroke-opacity:1" d="M 357.736,661.488 357.736,699.938 z" id="boundary" inkscape:connector-curvature="0" />
	<path style="fill:none;stroke:red;stroke-width:1px;stroke-linecap:butt;stroke-linejoin:miter;stroke-opacity:1" d="M 357.736,699.938 365.426,738.388 z" id="boundary" inkscape:connector-curvature="0" />
	<path style="fill:none;stroke:red;stroke-width:1px;stroke-linecap:butt;stroke-linejoin:miter;stroke-opacity:1" d="M 365.426,19.3798 403.876,4 z" id="boundary" inkscape:connector-curvature="0" />
	<path style="fill:none;stroke:red;stroke-width:1px;stroke-linecap:butt;stroke-linejoin:miter;stroke-opacity:1" d="M 365.426,738.388 373.116,776.837 z" id="boundary" inkscape:connector-curvature="0" />
	<path style="fill:none;stroke:red;stroke-width:1px;stroke-linecap:butt;stroke-linejoin:miter;stroke-opacity:1" d="M 373.116,776.837 380.806,815.287 z" id="boundary" inkscape:connector-curvature="0" />
	<path style="fill:none;stroke:red;stroke-width:1px;stroke-linecap:butt;stroke-linejoin:miter;stroke-opacity:1" d="M 380.806,815.287 380.806,853.736 z" id="boundary" inkscape:connector-curvature="0" />
	<path style="fill:none;stroke:red;stroke-width:1px;stroke-linecap:butt;stroke-linejoin:miter;stroke-opacity:1" d="M 380.806,853.736 388.496,892.186 z" id="boundary" inkscape:connector-curvature="0" />
	<path style="fill:none;stroke:red;stroke-width:1px;stroke-linecap:butt;stroke-linejoin:miter;stroke-opacity:1" d="M 388.496,892.186 396.186,930.636 z" id="boundary" inkscape:connector-curvature="0" />
	<path style="fill:none;stroke:red;stroke-width:1px;stroke-linecap:butt;stroke-linejoin:miter;stroke-opacity:1" d="M 396.186,930.636 396.186,969.085 z" id="boundary" inkscape:connector-curvature="0" />
	<path style="fill:none;stroke:red;stroke-width:1px;stroke-linecap:butt;stroke-linejoin:miter;stroke-opacity:1" d="M 396.186,969.085 434.636,984.465 z" id="boundary" inkscape:connector-curvature="0" />
	<path style="fill:none;stroke:red;stroke-width:1px;stroke-linecap:butt;stroke-linejoin:miter;stroke-opacity:1" d="M 403.876,4 442.326,4 z" id="boundary" inkscape:connector-curvature="0" />
	<path style="fill:none;stroke:red;stroke-width:1px;stroke-linecap:butt;stroke-linejoin:miter;stroke-opacity:1" d="M 434.636,984.465 473.085,984.465 z" id="boundary" inkscape:connector-curvature="0" />
	<path style="fill:none;stroke:red;stroke-width:1px;stroke-linecap:butt;stroke-linejoin:miter;stroke-opacity:1" d="M 438.481,673.023 446.171,634.574 z" id="boundary" inkscape:connector-curvature="0" />
	<path style="fill:none;stroke:red;stroke-width:1px;stroke-linecap:butt;stroke-linejoin:miter;stroke-opacity:1" d="M 438.481,673.023 446.171,711.473 z" id="boundary" inkscape:connector-curvature="0" />
	<path style="fill:none;stroke:red;stroke-width:1px;stroke-linecap:butt;stroke-linejoin:miter;stroke-opacity:1" d="M 442.326,4 480.775,4 z" id="boundary" inkscape:connector-curvature="0" />
	<path style="fill:none;stroke:red;stroke-width:1px;stroke-linecap:butt;stroke-linejoin:miter;stroke-opacity:1" d="M 446.171,596.124 446.171,634.574 z" id="boundary" inkscape:connector-curvature="0" />
	<path style="fill:none;stroke:red;stroke-width:1px;stroke-linecap:butt;stroke-linejoin:miter;stroke-opacity:1" d="M 446.171,596.124 461.55,534.605 z" id="boundary" inkscape:connector-curvature="0" />
	<path style="fill:none;stroke:red;stroke-width:1px;stroke-linecap:butt;stroke-linejoin:miter;stroke-opacity:1" d="M 446.171,711.473 446.171,749.922 z" id="boundary" inkscape:connector-curvature="0" />
	<path style="fill:none;stroke:red;stroke-width:1px;stroke-linecap:butt;stroke-linejoin:miter;stroke-opacity:1" d="M 446.171,749.922 453.86,788.372 z" id="boundary" inkscape:connector-curvature="0" />
	<path style="fill:none;stroke:red;stroke-width:1px;stroke-linecap:butt;stroke-linejoin:miter;stroke-opacity:1" d="M 453.86,788.372 461.55,826.822 z" id="boundary" inkscape:connector-curvature="0" />
	<path style="fill:none;stroke:red;stroke-width:1px;stroke-linecap:butt;stroke-linejoin:miter;stroke-opacity:1" d="M 461.55,534.605 476.93,473.085 z" id="boundary" inkscape:connector-curvature="0" />
	<path style="fill:none;stroke:red;stroke-width:1px;stroke-linecap:butt;stroke-linejoin:miter;stroke-opacity:1" d="M 461.55,826.822 469.24,865.271 z" id="boundary" inkscape:connector-curvature="0" />
	<path style="fill:none;stroke:red;stroke-width:1px;stroke-linecap:butt;stroke-linejoin:miter;stroke-opacity:1" d="M 469.24,865.271 473.085,903.721 z" id="boundary" inkscape:connector-curvature="0" />
	<path style="fill:none;stroke:red;stroke-width:1px;stroke-linecap:butt;stroke-linejoin:miter;stroke-opacity:1" d="M 473.085,903.721 496.155,934.481 z" id="boundary" inkscape:connector-curvature="0" />
	<path style="fill:none;stroke:red;stroke-width:1px;stroke-linecap:butt;stroke-linejoin:miter;stroke-opacity:1" d="M 473.085,984.465 511.535,984.465 z" id="boundary" inkscape:connector-curvature="0" />
	<path style="fill:none;stroke:red;stroke-width:1px;stroke-linecap:butt;stroke-linejoin:miter;stroke-opacity:1" d="M 476.93,473.085 484.62,434.636 z" id="boundary" inkscape:connector-curvature="0" />
	<path style="fill:none;stroke:red;stroke-width:1px;stroke-linecap:butt;stroke-linejoin:miter;stroke-opacity:1" d="M 480.775,4 519.225,11.6899 z" id="boundary" inkscape:connector-curvature="0" />
	<path style="fill:none;stroke:red;stroke-width:1px;stroke-linecap:butt;stroke-linejoin:miter;stroke-opacity:1" d="M 484.62,434.636 500,388.496 z" id="boundary" inkscape:connector-curvature="0" />
	<path style="fill:none;stroke:red;stroke-width:1px;stroke-linecap:butt;stroke-linejoin:miter;stroke-opacity:1" d="M 496.155,934.481 534.605,934.481 z" id="boundary" inkscape:connector-curvature="0" />
	<path style="fill:none;stroke:red;stroke-width:1px;stroke-linecap:butt;stroke-linejoin:miter;stroke-opacity:1" d="M 500,350.047 500,388.496 z" id="boundary" inkscape:connector-curvature="0" />
	<path style="fill:none;stroke:red;stroke-width:1px;stroke-linecap:butt;stroke-linejoin:miter;stroke-opacity:1" d="M 500,350.047 507.69,296.217 z" id="boundary" inkscape:connector-curvature="0" />
	<path style="fill:none;stroke:red;stroke-width:1px;stroke-linecap:butt;stroke-linejoin:miter;stroke-opacity:1" d="M 507.69,296.217 526.915,261.612 z" id="boundary" inkscape:connector-curvature="0" />
	<path style="fill:none;stroke:red;stroke-width:1px;stroke-linecap:butt;stroke-linejoin:miter;stroke-opacity:1" d="M 511.535,984.465 549.984,976.775 z" id="boundary" inkscape:connector-curvature="0" />
	<path style="fill:none;stroke:red;stroke-width:1px;stroke-linecap:butt;stroke-linejoin:miter;stroke-opacity:1" d="M 519.225,11.6899 557.674,19.3798 z" id="boundary" inkscape:connector-curvature="0" />
	<path style="fill:none;stroke:red;stroke-width:1px;stroke-linecap:butt;stroke-linejoin:miter;stroke-opacity:1" d="M 526.915,261.612 557.674,230.853 z" id="boundary" inkscape:connector-curvature="0" />
	<path style="fill:none;stroke:red;stroke-width:1px;stroke-linecap:butt;stroke-linejoin:miter;stroke-opacity:1" d="M 534.605,934.481 573.054,942.171 z" id="boundary" inkscape:connector-curvature="0" />
	<path style="fill:none;stroke:red;stroke-width:1px;stroke-linecap:butt;stroke-linejoin:miter;stroke-opacity:1" d="M 549.984,976.775 573.054,942.171 z" id="boundary" inkscape:connector-curvature="0" />
	<path style="fill:none;stroke:red;stroke-width:1px;stroke-linecap:butt;stroke-linejoin:miter;stroke-opacity:1" d="M 557.674,19.3798 596.124,34.7597 z" id="boundary" inkscape:connector-curvature="0" />
	<path style="fill:none;stroke:red;stroke-width:1px;stroke-linecap:butt;stroke-linejoin:miter;stroke-opacity:1" d="M 557.674,230.853 596.124,227.008 z" id="boundary" inkscape:connector-curvature="0" />
	<path style="fill:none;stroke:red;stroke-width:1px;stroke-linecap:butt;stroke-linejoin:miter;stroke-opacity:1" d="M 596.124,34.7597 626.884,57.8295 z" id="boundary" inkscape:connector-curvature="0" />
	<path style="fill:none;stroke:red;stroke-width:1px;stroke-linecap:butt;stroke-linejoin:miter;stroke-opacity:1" d="M 596.124,227.008 611.504,265.457 z" id="boundary" inkscape:connector-curvature="0" />
	<path style="fill:none;stroke:red;stroke-width:1px;stroke-linecap:butt;stroke-linejoin:miter;stroke-opacity:1" d="M 611.504,265.457 619.194,303.907 z" id="boundary" inkscape:connector-curvature="0" />
	<path style="fill:none;stroke:red;stroke-width:1px;stroke-linecap:butt;stroke-linejoin:miter;stroke-opacity:1" d="M 619.194,303.907 634.574,342.357 z" id="boundary" inkscape:connector-curvature="0" />
	<path style="fill:none;stroke:red;stroke-width:1px;stroke-linecap:butt;stroke-linejoin:miter;stroke-opacity:1" d="M 626.884,57.8295 669.178,123.194 z" id="boundary" inkscape:connector-curvature="0" />
	<path style="fill:none;stroke:red;stroke-width:1px;stroke-linecap:butt;stroke-linejoin:miter;stroke-opacity:1" d="M 634.574,342.357 665.333,365.426 z" id="boundary" inkscape:connector-curvature="0" />
	<path style="fill:none;stroke:red;stroke-width:1px;stroke-linecap:butt;stroke-linejoin:miter;stroke-opacity:1" d="M 665.333,365.426 703.783,369.271 z" id="boundary" inkscape:connector-curvature="0" />
	<path style="fill:none;stroke:red;stroke-width:1px;stroke-linecap:butt;stroke-linejoin:miter;stroke-opacity:1" d="M 669.178,123.194 765.302,80.8992 z" id="boundary" inkscape:connector-curvature="0" />
	<path style="fill:none;stroke:red;stroke-width:1px;stroke-linecap:butt;stroke-linejoin:miter;stroke-opacity:1" d="M 703.783,369.271 742.233,353.891 z" id="boundary" inkscape:connector-curvature="0" />
	<path style="fill:none;stroke:red;stroke-width:1px;stroke-linecap:butt;stroke-linejoin:miter;stroke-opacity:1" d="M 742.233,353.891 769.147,319.287 z" id="boundary" inkscape:connector-curvature="0" />
	<path style="fill:none;stroke:red;stroke-width:1px;stroke-linecap:butt;stroke-linejoin:miter;stroke-opacity:1" d="M 765.302,80.8992 803.752,73.2093 z" id="boundary" inkscape:connector-curvature="0" />
	<path style="fill:none;stroke:red;stroke-width:1px;stroke-linecap:butt;stroke-linejoin:miter;stroke-opacity:1" d="M 769.147,319.287 772.992,207.783 z" id="boundary" inkscape:connector-curvature="0" />
	<path style="fill:none;stroke:red;stroke-width:1px;stroke-linecap:butt;stroke-linejoin:miter;stroke-opacity:1" d="M 772.992,207.783 942.171,180.868 z" id="boundary" inkscape:connector-curvature="0" />
	<path style="fill:none;stroke:red;stroke-width:1px;stroke-linecap:butt;stroke-linejoin:miter;stroke-opacity:1" d="M 803.752,73.2093 842.202,73.2093 z" id="boundary" inkscape:connector-curvature="0" />
	<path style="fill:none;stroke:red;stroke-width:1px;stroke-linecap:butt;stroke-linejoin:miter;stroke-opacity:1" d="M 842.202,73.2093 880.651,84.7442 z" id="boundary" inkscape:connector-curvature="0" />
	<path style="fill:none;stroke:red;stroke-width:1px;stroke-linecap:butt;stroke-linejoin:miter;stroke-opacity:1" d="M 880.651,84.7442 911.411,107.814 z" id="boundary" inkscape:connector-curvature="0" />
	<path style="fill:none;stroke:red;stroke-width:1px;stroke-linecap:butt;stroke-linejoin:miter;stroke-opacity:1" d="M 911.411,107.814 922.946,146.264 z" id="boundary" inkscape:connector-curvature="0" />
	<path style="fill:none;stroke:red;stroke-width:1px;stroke-linecap:butt;stroke-linejoin:miter;stroke-opacity:1" d="M 922.946,146.264 942.171,180.868 z" id="boundary" inkscape:connector-curvature="0" />
	<circle cx="4" cy="396.186" r="4" fill="#0" id="circle0"/>
	<circle cx="19.3798" cy="350.047" r="4" fill="#0" id="circle1"/>
	<circle cx="34.7597" cy="423.101" r="4" fill="#0" id="circle2"/>
	<circle cx="38.6047" cy="315.442" r="4" fill="#0" id="circle3"/>
	<circle cx="57.8295" cy="280.837" r="4" fill="#0" id="circle4"/>
	<circle cx="73.2093" cy="423.101" r="4" fill="#0" id="circle5"/>
	<circle cx="80.8992" cy="250.078" r="4" fill="#0" id="circle6"/>
	<circle cx="103.969" cy="219.318" r="4" fill="#0" id="circle7"/>
	<circle cx="111.659" cy="419.256" r="4" fill="#0" id="circle8"/>
	<circle cx="134.729" cy="188.558" r="4" fill="#0" id="circle9"/>
	<circle cx="150.109" cy="426.946" r="4" fill="#0" id="circle10"/>
	<circle cx="165.488" cy="157.798" r="4" fill="#0" id="circle11"/>
	<circle cx="188.558" cy="423.101" r="4" fill="#0" id="circle12"/>
	<circle cx="196.248" cy="127.039" r="4" fill="#0" id="circle13"/>
	<circle cx="227.008" cy="96.2791" r="4" fill="#0" id="circle14"/>
	<circle cx="227.008" cy="407.721" r="4" fill="#0" id="circle15"/>
	<circle cx="257.767" cy="73.2093" r="4" fill="#0" id="circle16"/>
	<circle cx="265.457" cy="400.031" r="4" fill="#0" id="circle17"/>
	<circle cx="288.527" cy="50.1395" r="4" fill="#0" id="circle18"/>
	<circle cx="296.217" cy="369.271" r="4" fill="#0" id="circle19"/>
	<circle cx="326.977" cy="34.7597" r="4" fill="#0" id="circle20"/>
	<circle cx="334.667" cy="361.581" r="4" fill="#0" id="circle21"/>
	<circle cx="357.736" cy="392.341" r="4" fill="#0" id="circle22"/>
	<circle cx="357.736" cy="430.791" r="4" fill="#0" id="circle23"/>
	<circle cx="357.736" cy="469.24" r="4" fill="#0" id="circle24"/>
	<circle cx="357.736" cy="507.69" r="4" fill="#0" id="circle25"/>
	<circle cx="357.736" cy="546.14" r="4" fill="#0" id="circle26"/>
	<circle cx="357.736" cy="584.589" r="4" fill="#0" id="circle27"/>
	<circle cx="357.736" cy="623.039" r="4" fill="#0" id="circle28"/>
	<circle cx="357.736" cy="661.488" r="4" fill="#0" id="circle29"/>
	<circle cx="357.736" cy="699.938" r="4" fill="#0" id="circle30"/>
	<circle cx="365.426" cy="19.3798" r="4" fill="#0" id="circle31"/>
	<circle cx="365.426" cy="738.388" r="4" fill="#0" id="circle32"/>
	<circle cx="373.116" cy="776.837" r="4" fill="#0" id="circle33"/>
	<circle cx="380.806" cy="815.287" r="4" fill="#0" id="circle34"/>
	<circle cx="380.806" cy="853.736" r="4" fill="#0" id="circle35"/>
	<circle cx="388.496" cy="892.186" r="4" fill="#0" id="circle36"/>
	<circle cx="396.186" cy="930.636" r="4" fill="#0" id="circle37"/>
	<circle cx="396.186" cy="969.085" r="4" fill="#0" id="circle38"/>
	<circle cx="403.876" cy="4" r="4" fill="#0" id="circle39"/>
	<circle cx="434.636" cy="984.465" r="4" fill="#0" id="circle40"/>
	<circle cx="438.481" cy="673.023" r="4" fill="#0" id="circle41"/>
	<circle cx="442.326" cy="4" r="4" fill="#0" id="circle42"/>
	<circle cx="446.171" cy="596.124" r="4" fill="#0" id="circle43"/>
	<circle cx="446.171" cy="634.574" r="4" fill="#0" id="circle44"/>
	<circle cx="446.171" cy="711.473" r="4" fill="#0" id="circle45"/>
	<circle cx="446.171" cy="749.922" r="4" fill="#0" id="circle46"/>
	<circle cx="453.86" cy="788.372" r="4" fill="#0" id="circle47"/>
	<circle cx="461.55" cy="534.605" r="4" fill="#0" id="circle48"/>
	<circle cx="461.55" cy="826.822" r="4" fill="#0" id="circle49"/>
	<circle cx="469.24" cy="865.271" r="4" fill="#0" id="circle50"/>
	<circle cx="473.085" cy="903.721" r="4" fill="#0" id="circle51"/>
	<circle cx="473.085" cy="984.465" r="4" fill="#0" id="circle52"/>
	<circle cx="476.93" cy="473.085" r="4" fill="#0" id="circle53"/>
	<circle cx="480.775" cy="4" r="4" fill="#0" id="circle54"/>
	<circle cx="484.62" cy="434.636" r="4" fill="#0" id="circle55"/>
	<circle cx="496.155" cy="934.481" r="4" fill="#0" id="circle56"/>
	<circle cx="500" cy="350.047" r="4" fill="#0" id="circle57"/>
	<circle cx="500" cy="388.496" r="4" fill="#0" id="circle58"/>
	<circle cx="507.69" cy="296.217" r="4" fill="#0" id="circle59"/>
	<circle cx="511.535" cy="984.465" r="4" fill="#0" id="circle60"/>
	<circle cx="519.225" cy="11.6899" r="4" fill="#0" id="circle61"/>
	<circle cx="526.915" cy="261.612" r="4" fill="#0" id="circle62"/>
	<circle cx="534.605" cy="934.481" r="4" fill="#0" id="circle63"/>
	<circle cx="549.984" cy="976.775" r="4" fill="#0" id="circle64"/>
	<circle cx="557.674" cy="19.3798" r="4" fill="#0" id="circle65"/>
	<circle cx="557.674" cy="230.853" r="4" fill="#0" id="circle66"/>
	<circle cx="573.054" cy="942.171" r="4" fill="#0" id="circle67"/>
	<circle cx="592.279" cy="976.775" r="4" fill="#0" id="circle68"/>
	<circle cx="596.124" cy="34.7597" r="4" fill="#0" id="circle69"/>
	<circle cx="596.124" cy="227.008" r="4" fill="#0" id="circle70"/>
	<circle cx="611.504" cy="265.457" r="4" fill="#0" id="circle71"/>
	<circle cx="619.194" cy="303.907" r="4" fill="#0" id="circle72"/>
	<circle cx="626.884" cy="57.8295" r="4" fill="#0" id="circle73"/>
	<circle cx="634.574" cy="342.357" r="4" fill="#0" id="circle74"/>
	<circle cx="649.953" cy="88.5891" r="4" fill="#0" id="circle75"/>
	<circle cx="665.333" cy="365.426" r="4" fill="#0" id="circle76"/>
	<circle cx="669.178" cy="123.194" r="4" fill="#0" id="circle77"/>
	<circle cx="684.558" cy="161.643" r="4" fill="#0" id="circle78"/>
	<circle cx="703.783" cy="369.271" r="4" fill="#0" id="circle79"/>
	<circle cx="707.628" cy="130.884" r="4" fill="#0" id="circle80"/>
	<circle cx="730.698" cy="100.124" r="4" fill="#0" id="circle81"/>
	<circle cx="742.233" cy="353.891" r="4" fill="#0" id="circle82"/>
	<circle cx="765.302" cy="80.8992" r="4" fill="#0" id="circle83"/>
	<circle cx="769.147" cy="319.287" r="4" fill="#0" id="circle84"/>
	<circle cx="772.992" cy="207.783" r="4" fill="#0" id="circle85"/>
	<circle cx="776.837" cy="246.233" r="4" fill="#0" id="circle86"/>
	<circle cx="792.217" cy="173.178" r="4" fill="#0" id="circle87"/>
	<circle cx="803.752" cy="73.2093" r="4" fill="#0" id="circle88"/>
	<circle cx="822.977" cy="196.248" r="4" fill="#0" id="circle89"/>
	<circle cx="842.202" cy="73.2093" r="4" fill="#0" id="circle90"/>
	<circle cx="861.426" cy="207.783" r="4" fill="#0" id="circle91"/>
	<circle cx="880.651" cy="84.7442" r="4" fill="#0" id="circle92"/>
	<circle cx="896.031" cy="227.008" r="4" fill="#0" id="circle93"/>
	<circle cx="911.411" cy="107.814" r="4" fill="#0" id="circle94"/>
	<circle cx="922.946" cy="146.264" r="4" fill="#0" id="circle95"/>
	<circle cx="926.791" cy="250.078" r="4" fill="#0" id="circle96"/>
	<circle cx="942.171" cy="180.868" r="4" fill="#0" id="circle97"/>
	<circle cx="957.55" cy="276.992" r="4" fill="#0" id="circle98"/>
	<circle cx="965.24" cy="211.628" r="4" fill="#0" id="circle99"/>
	<circle cx="992.155" cy="242.388" r="4" fill="#0" id="circle100"/>
	<circle cx="996" cy="292.372" r="4" fill="#0" id="circle101"/>
	</g>
</svg>