<?xml version="1.0" encoding="UTF-8" standalone="no"?>
<!-- Created with CurveBenchmark -->
<svg
	xmlns:dc="http://purl.org/dc/elements/1.1/"
	xmlns:cc="http://creativecommons.org/ns#"
	xmlns:rdf="http://www.w3.org/1999/02/22-rdf-syntax-ns#"
	xmlns:svg="http://www.w3.org/2000/svg"
	xmlns="http://www.w3.org/2000/svg"
	xmlns:sodipodi="http://sodipodi.sourceforge.net/DTD/sodipodi-0.dtd"
	xmlns:inkscape="http://www.inkscape.org/namespaces/inkscape"
	width="1000"
	height="1000"
	id="svg2"
	version="1.1"
	sodipodi:docname="manifold/fitconnect-bird285.png.txt">
<defs
	id="defs4" />
<metadata
	id="metadata7">
	<rdf:RDF>
		<cc:Work
			rdf:about="">
			<dc:format>image/svg+xml</dc:format>
			<dc:type
				rdf:resource="http://purl.org/dc/dcmitype/StillImage" />
			<dc:title></dc:title>
		</cc:Work>
	</rdf:RDF>
</metadata>
<g
	inkscape:label="Layer 1"
	inkscape:groupmode="layer"
	id="layer1">
	<path style="fill:none;stroke:red;stroke-width:1px;stroke-linecap:butt;stroke-linejoin:miter;stroke-opacity:1" d="M 4,299.655 19.5608,190.729 z" id="boundary" inkscape:connector-curvature="0" />
	<path style="fill:none;stroke:red;stroke-width:1px;stroke-linecap:butt;stroke-linejoin:miter;stroke-opacity:1" d="M 4,299.655 241.302,548.627 z" id="boundary" inkscape:connector-curvature="0" />
	<path style="fill:none;stroke:red;stroke-width:1px;stroke-linecap:butt;stroke-linejoin:miter;stroke-opacity:1" d="M 19.5608,190.729 66.2431,58.4627 z" id="boundary" inkscape:connector-curvature="0" />
	<path style="fill:none;stroke:red;stroke-width:1px;stroke-linecap:butt;stroke-linejoin:miter;stroke-opacity:1" d="M 66.2431,58.4627 136.267,11.7804 z" id="boundary" inkscape:connector-curvature="0" />
	<path style="fill:none;stroke:red;stroke-width:1px;stroke-linecap:butt;stroke-linejoin:miter;stroke-opacity:1" d="M 136.267,11.7804 214.071,7.8902 z" id="boundary" inkscape:connector-curvature="0" />
	<path style="fill:none;stroke:red;stroke-width:1px;stroke-linecap:butt;stroke-linejoin:miter;stroke-opacity:1" d="M 214.071,7.8902 326.886,112.925 z" id="boundary" inkscape:connector-curvature="0" />
	<path style="fill:none;stroke:red;stroke-width:1px;stroke-linecap:butt;stroke-linejoin:miter;stroke-opacity:1" d="M 233.522,996 241.302,548.627 z" id="boundary" inkscape:connector-curvature="0" />
	<path style="fill:none;stroke:red;stroke-width:1px;stroke-linecap:butt;stroke-linejoin:miter;stroke-opacity:1" d="M 326.886,112.925 334.667,295.765 z" id="boundary" inkscape:connector-curvature="0" />
	<circle cx="4" cy="299.655" r="4" fill="#0" id="circle0"/>
	<circle cx="11.7804" cy="245.192" r="4" fill="#0" id="circle1"/>
	<circle cx="11.7804" cy="338.557" r="4" fill="#0" id="circle2"/>
	<circle cx="19.5608" cy="190.729" r="4" fill="#0" id="circle3"/>
	<circle cx="19.5608" cy="385.239" r="4" fill="#0" id="circle4"/>
	<circle cx="27.3412" cy="144.047" r="4" fill="#0" id="circle5"/>
	<circle cx="31.2314" cy="424.141" r="4" fill="#0" id="circle6"/>
	<circle cx="42.902" cy="89.5843" r="4" fill="#0" id="circle7"/>
	<circle cx="66.2431" cy="58.4627" r="4" fill="#0" id="circle8"/>
	<circle cx="70.1333" cy="435.812" r="4" fill="#0" id="circle9"/>
	<circle cx="81.8039" cy="474.714" r="4" fill="#0" id="circle10"/>
	<circle cx="81.8039" cy="513.616" r="4" fill="#0" id="circle11"/>
	<circle cx="89.5843" cy="552.518" r="4" fill="#0" id="circle12"/>
	<circle cx="89.5843" cy="591.42" r="4" fill="#0" id="circle13"/>
	<circle cx="89.5843" cy="630.322" r="4" fill="#0" id="circle14"/>
	<circle cx="89.5843" cy="669.224" r="4" fill="#0" id="circle15"/>
	<circle cx="97.3647" cy="27.3412" r="4" fill="#0" id="circle16"/>
	<circle cx="97.3647" cy="708.125" r="4" fill="#0" id="circle17"/>
	<circle cx="97.3647" cy="747.027" r="4" fill="#0" id="circle18"/>
	<circle cx="97.3647" cy="785.929" r="4" fill="#0" id="circle19"/>
	<circle cx="97.3647" cy="824.831" r="4" fill="#0" id="circle20"/>
	<circle cx="97.3647" cy="863.733" r="4" fill="#0" id="circle21"/>
	<circle cx="97.3647" cy="902.635" r="4" fill="#0" id="circle22"/>
	<circle cx="97.3647" cy="941.537" r="4" fill="#0" id="circle23"/>
	<circle cx="97.3647" cy="980.439" r="4" fill="#0" id="circle24"/>
	<circle cx="136.267" cy="11.7804" r="4" fill="#0" id="circle25"/>
	<circle cx="136.267" cy="996" r="4" fill="#0" id="circle26"/>
	<circle cx="140.157" cy="447.482" r="4" fill="#0" id="circle27"/>
	<circle cx="140.157" cy="486.384" r="4" fill="#0" id="circle28"/>
	<circle cx="140.157" cy="525.286" r="4" fill="#0" id="circle29"/>
	<circle cx="140.157" cy="564.188" r="4" fill="#0" id="circle30"/>
	<circle cx="140.157" cy="603.09" r="4" fill="#0" id="circle31"/>
	<circle cx="140.157" cy="641.992" r="4" fill="#0" id="circle32"/>
	<circle cx="140.157" cy="680.894" r="4" fill="#0" id="circle33"/>
	<circle cx="140.157" cy="719.796" r="4" fill="#0" id="circle34"/>
	<circle cx="140.157" cy="758.698" r="4" fill="#0" id="circle35"/>
	<circle cx="140.157" cy="797.6" r="4" fill="#0" id="circle36"/>
	<circle cx="140.157" cy="836.502" r="4" fill="#0" id="circle37"/>
	<circle cx="140.157" cy="875.404" r="4" fill="#0" id="circle38"/>
	<circle cx="140.157" cy="914.306" r="4" fill="#0" id="circle39"/>
	<circle cx="151.827" cy="953.208" r="4" fill="#0" id="circle40"/>
	<circle cx="159.608" cy="412.471" r="4" fill="#0" id="circle41"/>
	<circle cx="175.169" cy="4" r="4" fill="#0" id="circle42"/>
	<circle cx="182.949" cy="665.333" r="4" fill="#0" id="circle43"/>
	<circle cx="190.729" cy="435.812" r="4" fill="#0" id="circle44"/>
	<circle cx="190.729" cy="474.714" r="4" fill="#0" id="circle45"/>
	<circle cx="190.729" cy="513.616" r="4" fill="#0" id="circle46"/>
	<circle cx="190.729" cy="552.518" r="4" fill="#0" id="circle47"/>
	<circle cx="190.729" cy="591.42" r="4" fill="#0" id="circle48"/>
	<circle cx="190.729" cy="704.235" r="4" fill="#0" id="circle49"/>
	<circle cx="190.729" cy="743.137" r="4" fill="#0" id="circle50"/>
	<circle cx="190.729" cy="782.039" r="4" fill="#0" id="circle51"/>
	<circle cx="198.51" cy="820.941" r="4" fill="#0" id="circle52"/>
	<circle cx="198.51" cy="859.843" r="4" fill="#0" id="circle53"/>
	<circle cx="198.51" cy="898.745" r="4" fill="#0" id="circle54"/>
	<circle cx="198.51" cy="937.647" r="4" fill="#0" id="circle55"/>
	<circle cx="198.51" cy="976.549" r="4" fill="#0" id="circle56"/>
	<circle cx="214.071" cy="7.8902" r="4" fill="#0" id="circle57"/>
	<circle cx="233.522" cy="603.09" r="4" fill="#0" id="circle58"/>
	<circle cx="233.522" cy="641.992" r="4" fill="#0" id="circle59"/>
	<circle cx="233.522" cy="680.894" r="4" fill="#0" id="circle60"/>
	<circle cx="233.522" cy="719.796" r="4" fill="#0" id="circle61"/>
	<circle cx="233.522" cy="758.698" r="4" fill="#0" id="circle62"/>
	<circle cx="233.522" cy="797.6" r="4" fill="#0" id="circle63"/>
	<circle cx="233.522" cy="996" r="4" fill="#0" id="circle64"/>
	<circle cx="241.302" cy="548.627" r="4" fill="#0" id="circle65"/>
	<circle cx="241.302" cy="836.502" r="4" fill="#0" id="circle66"/>
	<circle cx="241.302" cy="875.404" r="4" fill="#0" id="circle67"/>
	<circle cx="241.302" cy="914.306" r="4" fill="#0" id="circle68"/>
	<circle cx="249.082" cy="494.165" r="4" fill="#0" id="circle69"/>
	<circle cx="252.973" cy="23.451" r="4" fill="#0" id="circle70"/>
	<circle cx="256.863" cy="431.922" r="4" fill="#0" id="circle71"/>
	<circle cx="260.753" cy="949.318" r="4" fill="#0" id="circle72"/>
	<circle cx="264.643" cy="377.459" r="4" fill="#0" id="circle73"/>
	<circle cx="272.424" cy="988.22" r="4" fill="#0" id="circle74"/>
	<circle cx="280.204" cy="338.557" r="4" fill="#0" id="circle75"/>
	<circle cx="287.984" cy="42.902" r="4" fill="#0" id="circle76"/>
	<circle cx="295.765" cy="284.094" r="4" fill="#0" id="circle77"/>
	<circle cx="311.325" cy="74.0235" r="4" fill="#0" id="circle78"/>
	<circle cx="326.886" cy="112.925" r="4" fill="#0" id="circle79"/>
	<circle cx="334.667" cy="151.827" r="4" fill="#0" id="circle80"/>
	<circle cx="334.667" cy="295.765" r="4" fill="#0" id="circle81"/>
	<circle cx="342.447" cy="190.729" r="4" fill="#0" id="circle82"/>
	<circle cx="350.227" cy="229.631" r="4" fill="#0" id="circle83"/>
	</g>
</svg>