<?xml version="1.0" encoding="UTF-8" standalone="no"?>
<!-- Created with CurveBenchmark -->
<svg
	xmlns:dc="http://purl.org/dc/elements/1.1/"
	xmlns:cc="http://creativecommons.org/ns#"
	xmlns:rdf="http://www.w3.org/1999/02/22-rdf-syntax-ns#"
	xmlns:svg="http://www.w3.org/2000/svg"
	xmlns="http://www.w3.org/2000/svg"
	xmlns:sodipodi="http://sodipodi.sourceforge.net/DTD/sodipodi-0.dtd"
	xmlns:inkscape="http://www.inkscape.org/namespaces/inkscape"
	width="1000"
	height="1000"
	id="svg2"
	version="1.1"
	sodipodi:docname="manifold/fitconnect-chopper19.png.txt">
<defs
	id="defs4" />
<metadata
	id="metadata7">
	<rdf:RDF>
		<cc:Work
			rdf:about="">
			<dc:format>image/svg+xml</dc:format>
			<dc:type
				rdf:resource="http://purl.org/dc/dcmitype/StillImage" />
			<dc:title></dc:title>
		</cc:Work>
	</rdf:RDF>
</metadata>
<g
	inkscape:label="Layer 1"
	inkscape:groupmode="layer"
	id="layer1">
	<path style="fill:none;stroke:red;stroke-width:1px;stroke-linecap:butt;stroke-linejoin:miter;stroke-opacity:1" d="M 4,333.466 4,351.47 z" id="boundary" inkscape:connector-curvature="0" />
	<path style="fill:none;stroke:red;stroke-width:1px;stroke-linecap:butt;stroke-linejoin:miter;stroke-opacity:1" d="M 4,333.466 13.0018,306.461 z" id="boundary" inkscape:connector-curvature="0" />
	<path style="fill:none;stroke:red;stroke-width:1px;stroke-linecap:butt;stroke-linejoin:miter;stroke-opacity:1" d="M 4,351.47 4,369.474 z" id="boundary" inkscape:connector-curvature="0" />
	<path style="fill:none;stroke:red;stroke-width:1px;stroke-linecap:butt;stroke-linejoin:miter;stroke-opacity:1" d="M 4,369.474 4,387.477 z" id="boundary" inkscape:connector-curvature="0" />
	<path style="fill:none;stroke:red;stroke-width:1px;stroke-linecap:butt;stroke-linejoin:miter;stroke-opacity:1" d="M 4,387.477 4,405.481 z" id="boundary" inkscape:connector-curvature="0" />
	<path style="fill:none;stroke:red;stroke-width:1px;stroke-linecap:butt;stroke-linejoin:miter;stroke-opacity:1" d="M 4,405.481 13.0018,421.684 z" id="boundary" inkscape:connector-curvature="0" />
	<path style="fill:none;stroke:red;stroke-width:1px;stroke-linecap:butt;stroke-linejoin:miter;stroke-opacity:1" d="M 13.0018,306.461 27.4047,292.058 z" id="boundary" inkscape:connector-curvature="0" />
	<path style="fill:none;stroke:red;stroke-width:1px;stroke-linecap:butt;stroke-linejoin:miter;stroke-opacity:1" d="M 13.0018,421.684 31.0054,428.886 z" id="boundary" inkscape:connector-curvature="0" />
	<path style="fill:none;stroke:red;stroke-width:1px;stroke-linecap:butt;stroke-linejoin:miter;stroke-opacity:1" d="M 27.4047,292.058 31.0054,270.454 z" id="boundary" inkscape:connector-curvature="0" />
	<path style="fill:none;stroke:red;stroke-width:1px;stroke-linecap:butt;stroke-linejoin:miter;stroke-opacity:1" d="M 31.0054,270.454 45.4083,256.051 z" id="boundary" inkscape:connector-curvature="0" />
	<path style="fill:none;stroke:red;stroke-width:1px;stroke-linecap:butt;stroke-linejoin:miter;stroke-opacity:1" d="M 31.0054,428.886 49.0091,428.886 z" id="boundary" inkscape:connector-curvature="0" />
	<path style="fill:none;stroke:red;stroke-width:1px;stroke-linecap:butt;stroke-linejoin:miter;stroke-opacity:1" d="M 45.4083,256.051 58.0109,225.445 z" id="boundary" inkscape:connector-curvature="0" />
	<path style="fill:none;stroke:red;stroke-width:1px;stroke-linecap:butt;stroke-linejoin:miter;stroke-opacity:1" d="M 49.0091,428.886 67.0127,428.886 z" id="boundary" inkscape:connector-curvature="0" />
	<path style="fill:none;stroke:red;stroke-width:1px;stroke-linecap:butt;stroke-linejoin:miter;stroke-opacity:1" d="M 49.0091,513.503 58.0109,495.499 z" id="boundary" inkscape:connector-curvature="0" />
	<path style="fill:none;stroke:red;stroke-width:1px;stroke-linecap:butt;stroke-linejoin:miter;stroke-opacity:1" d="M 49.0091,513.503 59.8113,527.906 z" id="boundary" inkscape:connector-curvature="0" />
	<path style="fill:none;stroke:red;stroke-width:1px;stroke-linecap:butt;stroke-linejoin:miter;stroke-opacity:1" d="M 58.0109,225.445 72.4138,211.042 z" id="boundary" inkscape:connector-curvature="0" />
	<path style="fill:none;stroke:red;stroke-width:1px;stroke-linecap:butt;stroke-linejoin:miter;stroke-opacity:1" d="M 58.0109,495.499 76.0145,493.699 z" id="boundary" inkscape:connector-curvature="0" />
	<path style="fill:none;stroke:red;stroke-width:1px;stroke-linecap:butt;stroke-linejoin:miter;stroke-opacity:1" d="M 59.8113,527.906 77.8149,527.906 z" id="boundary" inkscape:connector-curvature="0" />
	<path style="fill:none;stroke:red;stroke-width:1px;stroke-linecap:butt;stroke-linejoin:miter;stroke-opacity:1" d="M 67.0127,428.886 83.216,437.887 z" id="boundary" inkscape:connector-curvature="0" />
	<path style="fill:none;stroke:red;stroke-width:1px;stroke-linecap:butt;stroke-linejoin:miter;stroke-opacity:1" d="M 72.4138,211.042 86.8167,196.639 z" id="boundary" inkscape:connector-curvature="0" />
	<path style="fill:none;stroke:red;stroke-width:1px;stroke-linecap:butt;stroke-linejoin:miter;stroke-opacity:1" d="M 76.0145,493.699 86.8167,508.102 z" id="boundary" inkscape:connector-curvature="0" />
	<path style="fill:none;stroke:red;stroke-width:1px;stroke-linecap:butt;stroke-linejoin:miter;stroke-opacity:1" d="M 77.8149,527.906 95.8185,527.906 z" id="boundary" inkscape:connector-curvature="0" />
	<path style="fill:none;stroke:red;stroke-width:1px;stroke-linecap:butt;stroke-linejoin:miter;stroke-opacity:1" d="M 83.216,437.887 101.22,437.887 z" id="boundary" inkscape:connector-curvature="0" />
	<path style="fill:none;stroke:red;stroke-width:1px;stroke-linecap:butt;stroke-linejoin:miter;stroke-opacity:1" d="M 86.8167,196.639 101.22,184.036 z" id="boundary" inkscape:connector-curvature="0" />
	<path style="fill:none;stroke:red;stroke-width:1px;stroke-linecap:butt;stroke-linejoin:miter;stroke-opacity:1" d="M 86.8167,508.102 104.82,508.102 z" id="boundary" inkscape:connector-curvature="0" />
	<path style="fill:none;stroke:red;stroke-width:1px;stroke-linecap:butt;stroke-linejoin:miter;stroke-opacity:1" d="M 95.8185,527.906 113.822,527.906 z" id="boundary" inkscape:connector-curvature="0" />
	<path style="fill:none;stroke:red;stroke-width:1px;stroke-linecap:butt;stroke-linejoin:miter;stroke-opacity:1" d="M 101.22,184.036 113.822,169.633 z" id="boundary" inkscape:connector-curvature="0" />
	<path style="fill:none;stroke:red;stroke-width:1px;stroke-linecap:butt;stroke-linejoin:miter;stroke-opacity:1" d="M 101.22,437.887 117.423,446.889 z" id="boundary" inkscape:connector-curvature="0" />
	<path style="fill:none;stroke:red;stroke-width:1px;stroke-linecap:butt;stroke-linejoin:miter;stroke-opacity:1" d="M 104.82,508.102 122.824,508.102 z" id="boundary" inkscape:connector-curvature="0" />
	<path style="fill:none;stroke:red;stroke-width:1px;stroke-linecap:butt;stroke-linejoin:miter;stroke-opacity:1" d="M 113.822,169.633 128.225,157.031 z" id="boundary" inkscape:connector-curvature="0" />
	<path style="fill:none;stroke:red;stroke-width:1px;stroke-linecap:butt;stroke-linejoin:miter;stroke-opacity:1" d="M 113.822,527.906 131.826,527.906 z" id="boundary" inkscape:connector-curvature="0" />
	<path style="fill:none;stroke:red;stroke-width:1px;stroke-linecap:butt;stroke-linejoin:miter;stroke-opacity:1" d="M 117.423,446.889 133.626,437.887 z" id="boundary" inkscape:connector-curvature="0" />
	<path style="fill:none;stroke:red;stroke-width:1px;stroke-linecap:butt;stroke-linejoin:miter;stroke-opacity:1" d="M 122.824,508.102 139.027,499.1 z" id="boundary" inkscape:connector-curvature="0" />
	<path style="fill:none;stroke:red;stroke-width:1px;stroke-linecap:butt;stroke-linejoin:miter;stroke-opacity:1" d="M 128.225,157.031 144.428,148.029 z" id="boundary" inkscape:connector-curvature="0" />
	<path style="fill:none;stroke:red;stroke-width:1px;stroke-linecap:butt;stroke-linejoin:miter;stroke-opacity:1" d="M 131.826,527.906 149.829,527.906 z" id="boundary" inkscape:connector-curvature="0" />
	<path style="fill:none;stroke:red;stroke-width:1px;stroke-linecap:butt;stroke-linejoin:miter;stroke-opacity:1" d="M 133.626,437.887 151.63,437.887 z" id="boundary" inkscape:connector-curvature="0" />
	<path style="fill:none;stroke:red;stroke-width:1px;stroke-linecap:butt;stroke-linejoin:miter;stroke-opacity:1" d="M 139.027,499.1 157.031,499.1 z" id="boundary" inkscape:connector-curvature="0" />
	<path style="fill:none;stroke:red;stroke-width:1px;stroke-linecap:butt;stroke-linejoin:miter;stroke-opacity:1" d="M 144.428,148.029 162.432,148.029 z" id="boundary" inkscape:connector-curvature="0" />
	<path style="fill:none;stroke:red;stroke-width:1px;stroke-linecap:butt;stroke-linejoin:miter;stroke-opacity:1" d="M 149.829,527.906 167.833,527.906 z" id="boundary" inkscape:connector-curvature="0" />
	<path style="fill:none;stroke:red;stroke-width:1px;stroke-linecap:butt;stroke-linejoin:miter;stroke-opacity:1" d="M 151.63,437.887 169.633,443.289 z" id="boundary" inkscape:connector-curvature="0" />
	<path style="fill:none;stroke:red;stroke-width:1px;stroke-linecap:butt;stroke-linejoin:miter;stroke-opacity:1" d="M 157.031,499.1 175.034,499.1 z" id="boundary" inkscape:connector-curvature="0" />
	<path style="fill:none;stroke:red;stroke-width:1px;stroke-linecap:butt;stroke-linejoin:miter;stroke-opacity:1" d="M 162.432,148.029 178.635,139.027 z" id="boundary" inkscape:connector-curvature="0" />
	<path style="fill:none;stroke:red;stroke-width:1px;stroke-linecap:butt;stroke-linejoin:miter;stroke-opacity:1" d="M 167.833,527.906 185.837,527.906 z" id="boundary" inkscape:connector-curvature="0" />
	<path style="fill:none;stroke:red;stroke-width:1px;stroke-linecap:butt;stroke-linejoin:miter;stroke-opacity:1" d="M 169.633,443.289 187.637,446.889 z" id="boundary" inkscape:connector-curvature="0" />
	<path style="fill:none;stroke:red;stroke-width:1px;stroke-linecap:butt;stroke-linejoin:miter;stroke-opacity:1" d="M 175.034,499.1 191.238,490.098 z" id="boundary" inkscape:connector-curvature="0" />
	<path style="fill:none;stroke:red;stroke-width:1px;stroke-linecap:butt;stroke-linejoin:miter;stroke-opacity:1" d="M 178.635,139.027 194.838,130.025 z" id="boundary" inkscape:connector-curvature="0" />
	<path style="fill:none;stroke:red;stroke-width:1px;stroke-linecap:butt;stroke-linejoin:miter;stroke-opacity:1" d="M 185.837,527.906 203.84,527.906 z" id="boundary" inkscape:connector-curvature="0" />
	<path style="fill:none;stroke:red;stroke-width:1px;stroke-linecap:butt;stroke-linejoin:miter;stroke-opacity:1" d="M 187.637,446.889 205.641,446.889 z" id="boundary" inkscape:connector-curvature="0" />
	<path style="fill:none;stroke:red;stroke-width:1px;stroke-linecap:butt;stroke-linejoin:miter;stroke-opacity:1" d="M 191.238,490.098 209.241,490.098 z" id="boundary" inkscape:connector-curvature="0" />
	<path style="fill:none;stroke:red;stroke-width:1px;stroke-linecap:butt;stroke-linejoin:miter;stroke-opacity:1" d="M 194.838,130.025 212.842,130.025 z" id="boundary" inkscape:connector-curvature="0" />
	<path style="fill:none;stroke:red;stroke-width:1px;stroke-linecap:butt;stroke-linejoin:miter;stroke-opacity:1" d="M 203.84,527.906 221.844,518.904 z" id="boundary" inkscape:connector-curvature="0" />
	<path style="fill:none;stroke:red;stroke-width:1px;stroke-linecap:butt;stroke-linejoin:miter;stroke-opacity:1" d="M 205.641,446.889 220.044,457.691 z" id="boundary" inkscape:connector-curvature="0" />
	<path style="fill:none;stroke:red;stroke-width:1px;stroke-linecap:butt;stroke-linejoin:miter;stroke-opacity:1" d="M 209.241,490.098 220.044,475.695 z" id="boundary" inkscape:connector-curvature="0" />
	<path style="fill:none;stroke:red;stroke-width:1px;stroke-linecap:butt;stroke-linejoin:miter;stroke-opacity:1" d="M 212.842,130.025 230.846,130.025 z" id="boundary" inkscape:connector-curvature="0" />
	<path style="fill:none;stroke:red;stroke-width:1px;stroke-linecap:butt;stroke-linejoin:miter;stroke-opacity:1" d="M 220.044,457.691 220.044,475.695 z" id="boundary" inkscape:connector-curvature="0" />
	<path style="fill:none;stroke:red;stroke-width:1px;stroke-linecap:butt;stroke-linejoin:miter;stroke-opacity:1" d="M 221.844,518.904 239.848,518.904 z" id="boundary" inkscape:connector-curvature="0" />
	<path style="fill:none;stroke:red;stroke-width:1px;stroke-linecap:butt;stroke-linejoin:miter;stroke-opacity:1" d="M 230.846,130.025 248.849,130.025 z" id="boundary" inkscape:connector-curvature="0" />
	<path style="fill:none;stroke:red;stroke-width:1px;stroke-linecap:butt;stroke-linejoin:miter;stroke-opacity:1" d="M 239.848,518.904 257.851,509.902 z" id="boundary" inkscape:connector-curvature="0" />
	<path style="fill:none;stroke:red;stroke-width:1px;stroke-linecap:butt;stroke-linejoin:miter;stroke-opacity:1" d="M 248.849,130.025 266.853,130.025 z" id="boundary" inkscape:connector-curvature="0" />
	<path style="fill:none;stroke:red;stroke-width:1px;stroke-linecap:butt;stroke-linejoin:miter;stroke-opacity:1" d="M 257.851,509.902 275.855,509.902 z" id="boundary" inkscape:connector-curvature="0" />
	<path style="fill:none;stroke:red;stroke-width:1px;stroke-linecap:butt;stroke-linejoin:miter;stroke-opacity:1" d="M 266.853,130.025 284.857,130.025 z" id="boundary" inkscape:connector-curvature="0" />
	<path style="fill:none;stroke:red;stroke-width:1px;stroke-linecap:butt;stroke-linejoin:miter;stroke-opacity:1" d="M 275.855,509.902 293.858,509.902 z" id="boundary" inkscape:connector-curvature="0" />
	<path style="fill:none;stroke:red;stroke-width:1px;stroke-linecap:butt;stroke-linejoin:miter;stroke-opacity:1" d="M 284.857,130.025 302.86,130.025 z" id="boundary" inkscape:connector-curvature="0" />
	<path style="fill:none;stroke:red;stroke-width:1px;stroke-linecap:butt;stroke-linejoin:miter;stroke-opacity:1" d="M 293.858,509.902 311.862,509.902 z" id="boundary" inkscape:connector-curvature="0" />
	<path style="fill:none;stroke:red;stroke-width:1px;stroke-linecap:butt;stroke-linejoin:miter;stroke-opacity:1" d="M 302.86,130.025 320.864,130.025 z" id="boundary" inkscape:connector-curvature="0" />
	<path style="fill:none;stroke:red;stroke-width:1px;stroke-linecap:butt;stroke-linejoin:miter;stroke-opacity:1" d="M 311.862,509.902 329.866,509.902 z" id="boundary" inkscape:connector-curvature="0" />
	<path style="fill:none;stroke:red;stroke-width:1px;stroke-linecap:butt;stroke-linejoin:miter;stroke-opacity:1" d="M 319.064,9.40109 319.064,27.4047 z" id="boundary" inkscape:connector-curvature="0" />
	<path style="fill:none;stroke:red;stroke-width:1px;stroke-linecap:butt;stroke-linejoin:miter;stroke-opacity:1" d="M 319.064,9.40109 337.067,4 z" id="boundary" inkscape:connector-curvature="0" />
	<path style="fill:none;stroke:red;stroke-width:1px;stroke-linecap:butt;stroke-linejoin:miter;stroke-opacity:1" d="M 319.064,27.4047 319.064,45.4083 z" id="boundary" inkscape:connector-curvature="0" />
	<path style="fill:none;stroke:red;stroke-width:1px;stroke-linecap:butt;stroke-linejoin:miter;stroke-opacity:1" d="M 319.064,45.4083 329.866,59.8113 z" id="boundary" inkscape:connector-curvature="0" />
	<path style="fill:none;stroke:red;stroke-width:1px;stroke-linecap:butt;stroke-linejoin:miter;stroke-opacity:1" d="M 320.864,130.025 338.868,130.025 z" id="boundary" inkscape:connector-curvature="0" />
	<path style="fill:none;stroke:red;stroke-width:1px;stroke-linecap:butt;stroke-linejoin:miter;stroke-opacity:1" d="M 329.866,59.8113 347.869,59.8113 z" id="boundary" inkscape:connector-curvature="0" />
	<path style="fill:none;stroke:red;stroke-width:1px;stroke-linecap:butt;stroke-linejoin:miter;stroke-opacity:1" d="M 329.866,509.902 347.869,500.9 z" id="boundary" inkscape:connector-curvature="0" />
	<path style="fill:none;stroke:red;stroke-width:1px;stroke-linecap:butt;stroke-linejoin:miter;stroke-opacity:1" d="M 337.067,4 355.071,4 z" id="boundary" inkscape:connector-curvature="0" />
	<path style="fill:none;stroke:red;stroke-width:1px;stroke-linecap:butt;stroke-linejoin:miter;stroke-opacity:1" d="M 338.868,130.025 356.871,130.025 z" id="boundary" inkscape:connector-curvature="0" />
	<path style="fill:none;stroke:red;stroke-width:1px;stroke-linecap:butt;stroke-linejoin:miter;stroke-opacity:1" d="M 347.869,59.8113 355.071,77.8149 z" id="boundary" inkscape:connector-curvature="0" />
	<path style="fill:none;stroke:red;stroke-width:1px;stroke-linecap:butt;stroke-linejoin:miter;stroke-opacity:1" d="M 347.869,500.9 365.873,500.9 z" id="boundary" inkscape:connector-curvature="0" />
	<path style="fill:none;stroke:red;stroke-width:1px;stroke-linecap:butt;stroke-linejoin:miter;stroke-opacity:1" d="M 355.071,4 373.074,4 z" id="boundary" inkscape:connector-curvature="0" />
	<path style="fill:none;stroke:red;stroke-width:1px;stroke-linecap:butt;stroke-linejoin:miter;stroke-opacity:1" d="M 355.071,77.8149 360.472,95.8185 z" id="boundary" inkscape:connector-curvature="0" />
	<path style="fill:none;stroke:red;stroke-width:1px;stroke-linecap:butt;stroke-linejoin:miter;stroke-opacity:1" d="M 356.871,130.025 373.074,110.221 z" id="boundary" inkscape:connector-curvature="0" />
	<path style="fill:none;stroke:red;stroke-width:1px;stroke-linecap:butt;stroke-linejoin:miter;stroke-opacity:1" d="M 360.472,95.8185 373.074,110.221 z" id="boundary" inkscape:connector-curvature="0" />
	<path style="fill:none;stroke:red;stroke-width:1px;stroke-linecap:butt;stroke-linejoin:miter;stroke-opacity:1" d="M 365.873,500.9 383.877,500.9 z" id="boundary" inkscape:connector-curvature="0" />
	<path style="fill:none;stroke:red;stroke-width:1px;stroke-linecap:butt;stroke-linejoin:miter;stroke-opacity:1" d="M 373.074,4 391.078,4 z" id="boundary" inkscape:connector-curvature="0" />
	<path style="fill:none;stroke:red;stroke-width:1px;stroke-linecap:butt;stroke-linejoin:miter;stroke-opacity:1" d="M 383.877,500.9 400.08,491.898 z" id="boundary" inkscape:connector-curvature="0" />
	<path style="fill:none;stroke:red;stroke-width:1px;stroke-linecap:butt;stroke-linejoin:miter;stroke-opacity:1" d="M 391.078,4 409.082,4 z" id="boundary" inkscape:connector-curvature="0" />
	<path style="fill:none;stroke:red;stroke-width:1px;stroke-linecap:butt;stroke-linejoin:miter;stroke-opacity:1" d="M 400.08,491.898 418.083,495.499 z" id="boundary" inkscape:connector-curvature="0" />
	<path style="fill:none;stroke:red;stroke-width:1px;stroke-linecap:butt;stroke-linejoin:miter;stroke-opacity:1" d="M 401.88,32.8058 401.88,50.8094 z" id="boundary" inkscape:connector-curvature="0" />
	<path style="fill:none;stroke:red;stroke-width:1px;stroke-linecap:butt;stroke-linejoin:miter;stroke-opacity:1" d="M 401.88,32.8058 419.884,32.8058 z" id="boundary" inkscape:connector-curvature="0" />
	<path style="fill:none;stroke:red;stroke-width:1px;stroke-linecap:butt;stroke-linejoin:miter;stroke-opacity:1" d="M 401.88,50.8094 401.88,68.8131 z" id="boundary" inkscape:connector-curvature="0" />
	<path style="fill:none;stroke:red;stroke-width:1px;stroke-linecap:butt;stroke-linejoin:miter;stroke-opacity:1" d="M 401.88,68.8131 405.481,86.8167 z" id="boundary" inkscape:connector-curvature="0" />
	<path style="fill:none;stroke:red;stroke-width:1px;stroke-linecap:butt;stroke-linejoin:miter;stroke-opacity:1" d="M 405.481,86.8167 419.884,99.4192 z" id="boundary" inkscape:connector-curvature="0" />
	<path style="fill:none;stroke:red;stroke-width:1px;stroke-linecap:butt;stroke-linejoin:miter;stroke-opacity:1" d="M 409.082,4 427.085,4 z" id="boundary" inkscape:connector-curvature="0" />
	<path style="fill:none;stroke:red;stroke-width:1px;stroke-linecap:butt;stroke-linejoin:miter;stroke-opacity:1" d="M 418.083,495.499 436.087,491.898 z" id="boundary" inkscape:connector-curvature="0" />
	<path style="fill:none;stroke:red;stroke-width:1px;stroke-linecap:butt;stroke-linejoin:miter;stroke-opacity:1" d="M 419.884,32.8058 434.287,22.0036 z" id="boundary" inkscape:connector-curvature="0" />
	<path style="fill:none;stroke:red;stroke-width:1px;stroke-linecap:butt;stroke-linejoin:miter;stroke-opacity:1" d="M 419.884,99.4192 437.887,99.4192 z" id="boundary" inkscape:connector-curvature="0" />
	<path style="fill:none;stroke:red;stroke-width:1px;stroke-linecap:butt;stroke-linejoin:miter;stroke-opacity:1" d="M 427.085,4 434.287,22.0036 z" id="boundary" inkscape:connector-curvature="0" />
	<path style="fill:none;stroke:red;stroke-width:1px;stroke-linecap:butt;stroke-linejoin:miter;stroke-opacity:1" d="M 436.087,491.898 450.49,481.096 z" id="boundary" inkscape:connector-curvature="0" />
	<path style="fill:none;stroke:red;stroke-width:1px;stroke-linecap:butt;stroke-linejoin:miter;stroke-opacity:1" d="M 437.887,99.4192 455.891,103.02 z" id="boundary" inkscape:connector-curvature="0" />
	<path style="fill:none;stroke:red;stroke-width:1px;stroke-linecap:butt;stroke-linejoin:miter;stroke-opacity:1" d="M 450.49,481.096 455.891,455.891 z" id="boundary" inkscape:connector-curvature="0" />
	<path style="fill:none;stroke:red;stroke-width:1px;stroke-linecap:butt;stroke-linejoin:miter;stroke-opacity:1" d="M 455.891,103.02 473.895,103.02 z" id="boundary" inkscape:connector-curvature="0" />
	<path style="fill:none;stroke:red;stroke-width:1px;stroke-linecap:butt;stroke-linejoin:miter;stroke-opacity:1" d="M 455.891,437.887 455.891,455.891 z" id="boundary" inkscape:connector-curvature="0" />
	<path style="fill:none;stroke:red;stroke-width:1px;stroke-linecap:butt;stroke-linejoin:miter;stroke-opacity:1" d="M 455.891,437.887 473.895,428.886 z" id="boundary" inkscape:connector-curvature="0" />
	<path style="fill:none;stroke:red;stroke-width:1px;stroke-linecap:butt;stroke-linejoin:miter;stroke-opacity:1" d="M 473.895,103.02 491.898,97.6189 z" id="boundary" inkscape:connector-curvature="0" />
	<path style="fill:none;stroke:red;stroke-width:1px;stroke-linecap:butt;stroke-linejoin:miter;stroke-opacity:1" d="M 473.895,428.886 491.898,428.886 z" id="boundary" inkscape:connector-curvature="0" />
	<path style="fill:none;stroke:red;stroke-width:1px;stroke-linecap:butt;stroke-linejoin:miter;stroke-opacity:1" d="M 491.898,97.6189 509.902,99.4192 z" id="boundary" inkscape:connector-curvature="0" />
	<path style="fill:none;stroke:red;stroke-width:1px;stroke-linecap:butt;stroke-linejoin:miter;stroke-opacity:1" d="M 491.898,428.886 509.902,428.886 z" id="boundary" inkscape:connector-curvature="0" />
	<path style="fill:none;stroke:red;stroke-width:1px;stroke-linecap:butt;stroke-linejoin:miter;stroke-opacity:1" d="M 509.902,99.4192 524.305,112.022 z" id="boundary" inkscape:connector-curvature="0" />
	<path style="fill:none;stroke:red;stroke-width:1px;stroke-linecap:butt;stroke-linejoin:miter;stroke-opacity:1" d="M 509.902,428.886 527.906,428.886 z" id="boundary" inkscape:connector-curvature="0" />
	<path style="fill:none;stroke:red;stroke-width:1px;stroke-linecap:butt;stroke-linejoin:miter;stroke-opacity:1" d="M 524.305,112.022 542.309,113.822 z" id="boundary" inkscape:connector-curvature="0" />
	<path style="fill:none;stroke:red;stroke-width:1px;stroke-linecap:butt;stroke-linejoin:miter;stroke-opacity:1" d="M 527.906,428.886 545.909,428.886 z" id="boundary" inkscape:connector-curvature="0" />
	<path style="fill:none;stroke:red;stroke-width:1px;stroke-linecap:butt;stroke-linejoin:miter;stroke-opacity:1" d="M 542.309,113.822 560.312,121.024 z" id="boundary" inkscape:connector-curvature="0" />
	<path style="fill:none;stroke:red;stroke-width:1px;stroke-linecap:butt;stroke-linejoin:miter;stroke-opacity:1" d="M 545.909,428.886 563.913,428.886 z" id="boundary" inkscape:connector-curvature="0" />
	<path style="fill:none;stroke:red;stroke-width:1px;stroke-linecap:butt;stroke-linejoin:miter;stroke-opacity:1" d="M 560.312,121.024 578.316,121.024 z" id="boundary" inkscape:connector-curvature="0" />
	<path style="fill:none;stroke:red;stroke-width:1px;stroke-linecap:butt;stroke-linejoin:miter;stroke-opacity:1" d="M 563.913,428.886 580.116,419.884 z" id="boundary" inkscape:connector-curvature="0" />
	<path style="fill:none;stroke:red;stroke-width:1px;stroke-linecap:butt;stroke-linejoin:miter;stroke-opacity:1" d="M 578.316,121.024 594.519,130.025 z" id="boundary" inkscape:connector-curvature="0" />
	<path style="fill:none;stroke:red;stroke-width:1px;stroke-linecap:butt;stroke-linejoin:miter;stroke-opacity:1" d="M 580.116,419.884 598.12,414.483 z" id="boundary" inkscape:connector-curvature="0" />
	<path style="fill:none;stroke:red;stroke-width:1px;stroke-linecap:butt;stroke-linejoin:miter;stroke-opacity:1" d="M 581.917,176.835 581.917,194.838 z" id="boundary" inkscape:connector-curvature="0" />
	<path style="fill:none;stroke:red;stroke-width:1px;stroke-linecap:butt;stroke-linejoin:miter;stroke-opacity:1" d="M 581.917,176.835 598.12,167.833 z" id="boundary" inkscape:connector-curvature="0" />
	<path style="fill:none;stroke:red;stroke-width:1px;stroke-linecap:butt;stroke-linejoin:miter;stroke-opacity:1" d="M 581.917,194.838 599.92,202.04 z" id="boundary" inkscape:connector-curvature="0" />
	<path style="fill:none;stroke:red;stroke-width:1px;stroke-linecap:butt;stroke-linejoin:miter;stroke-opacity:1" d="M 594.519,130.025 610.722,121.024 z" id="boundary" inkscape:connector-curvature="0" />
	<path style="fill:none;stroke:red;stroke-width:1px;stroke-linecap:butt;stroke-linejoin:miter;stroke-opacity:1" d="M 598.12,167.833 616.123,167.833 z" id="boundary" inkscape:connector-curvature="0" />
	<path style="fill:none;stroke:red;stroke-width:1px;stroke-linecap:butt;stroke-linejoin:miter;stroke-opacity:1" d="M 598.12,414.483 616.123,419.884 z" id="boundary" inkscape:connector-curvature="0" />
	<path style="fill:none;stroke:red;stroke-width:1px;stroke-linecap:butt;stroke-linejoin:miter;stroke-opacity:1" d="M 599.92,202.04 617.924,202.04 z" id="boundary" inkscape:connector-curvature="0" />
	<path style="fill:none;stroke:red;stroke-width:1px;stroke-linecap:butt;stroke-linejoin:miter;stroke-opacity:1" d="M 599.92,329.866 599.92,356.871 z" id="boundary" inkscape:connector-curvature="0" />
	<path style="fill:none;stroke:red;stroke-width:1px;stroke-linecap:butt;stroke-linejoin:miter;stroke-opacity:1" d="M 599.92,329.866 617.924,320.864 z" id="boundary" inkscape:connector-curvature="0" />
	<path style="fill:none;stroke:red;stroke-width:1px;stroke-linecap:butt;stroke-linejoin:miter;stroke-opacity:1" d="M 599.92,356.871 617.924,358.672 z" id="boundary" inkscape:connector-curvature="0" />
	<path style="fill:none;stroke:red;stroke-width:1px;stroke-linecap:butt;stroke-linejoin:miter;stroke-opacity:1" d="M 610.722,121.024 628.726,121.024 z" id="boundary" inkscape:connector-curvature="0" />
	<path style="fill:none;stroke:red;stroke-width:1px;stroke-linecap:butt;stroke-linejoin:miter;stroke-opacity:1" d="M 616.123,167.833 634.127,167.833 z" id="boundary" inkscape:connector-curvature="0" />
	<path style="fill:none;stroke:red;stroke-width:1px;stroke-linecap:butt;stroke-linejoin:miter;stroke-opacity:1" d="M 616.123,419.884 634.127,414.483 z" id="boundary" inkscape:connector-curvature="0" />
	<path style="fill:none;stroke:red;stroke-width:1px;stroke-linecap:butt;stroke-linejoin:miter;stroke-opacity:1" d="M 617.924,202.04 635.927,198.439 z" id="boundary" inkscape:connector-curvature="0" />
	<path style="fill:none;stroke:red;stroke-width:1px;stroke-linecap:butt;stroke-linejoin:miter;stroke-opacity:1" d="M 617.924,320.864 635.927,320.864 z" id="boundary" inkscape:connector-curvature="0" />
	<path style="fill:none;stroke:red;stroke-width:1px;stroke-linecap:butt;stroke-linejoin:miter;stroke-opacity:1" d="M 617.924,358.672 635.927,360.472 z" id="boundary" inkscape:connector-curvature="0" />
	<path style="fill:none;stroke:red;stroke-width:1px;stroke-linecap:butt;stroke-linejoin:miter;stroke-opacity:1" d="M 628.726,121.024 644.929,130.025 z" id="boundary" inkscape:connector-curvature="0" />
	<path style="fill:none;stroke:red;stroke-width:1px;stroke-linecap:butt;stroke-linejoin:miter;stroke-opacity:1" d="M 634.127,167.833 650.33,158.831 z" id="boundary" inkscape:connector-curvature="0" />
	<path style="fill:none;stroke:red;stroke-width:1px;stroke-linecap:butt;stroke-linejoin:miter;stroke-opacity:1" d="M 634.127,414.483 643.129,396.479 z" id="boundary" inkscape:connector-curvature="0" />
	<path style="fill:none;stroke:red;stroke-width:1px;stroke-linecap:butt;stroke-linejoin:miter;stroke-opacity:1" d="M 635.927,198.439 653.931,202.04 z" id="boundary" inkscape:connector-curvature="0" />
	<path style="fill:none;stroke:red;stroke-width:1px;stroke-linecap:butt;stroke-linejoin:miter;stroke-opacity:1" d="M 635.927,320.864 653.931,311.862 z" id="boundary" inkscape:connector-curvature="0" />
	<path style="fill:none;stroke:red;stroke-width:1px;stroke-linecap:butt;stroke-linejoin:miter;stroke-opacity:1" d="M 635.927,360.472 644.929,376.675 z" id="boundary" inkscape:connector-curvature="0" />
	<path style="fill:none;stroke:red;stroke-width:1px;stroke-linecap:butt;stroke-linejoin:miter;stroke-opacity:1" d="M 643.129,396.479 644.929,376.675 z" id="boundary" inkscape:connector-curvature="0" />
	<path style="fill:none;stroke:red;stroke-width:1px;stroke-linecap:butt;stroke-linejoin:miter;stroke-opacity:1" d="M 644.929,130.025 662.933,135.426 z" id="boundary" inkscape:connector-curvature="0" />
	<path style="fill:none;stroke:red;stroke-width:1px;stroke-linecap:butt;stroke-linejoin:miter;stroke-opacity:1" d="M 650.33,158.831 662.933,135.426 z" id="boundary" inkscape:connector-curvature="0" />
	<path style="fill:none;stroke:red;stroke-width:1px;stroke-linecap:butt;stroke-linejoin:miter;stroke-opacity:1" d="M 653.931,202.04 670.134,193.038 z" id="boundary" inkscape:connector-curvature="0" />
	<path style="fill:none;stroke:red;stroke-width:1px;stroke-linecap:butt;stroke-linejoin:miter;stroke-opacity:1" d="M 653.931,311.862 671.935,315.463 z" id="boundary" inkscape:connector-curvature="0" />
	<path style="fill:none;stroke:red;stroke-width:1px;stroke-linecap:butt;stroke-linejoin:miter;stroke-opacity:1" d="M 670.134,193.038 688.138,193.038 z" id="boundary" inkscape:connector-curvature="0" />
	<path style="fill:none;stroke:red;stroke-width:1px;stroke-linecap:butt;stroke-linejoin:miter;stroke-opacity:1" d="M 671.935,315.463 689.938,311.862 z" id="boundary" inkscape:connector-curvature="0" />
	<path style="fill:none;stroke:red;stroke-width:1px;stroke-linecap:butt;stroke-linejoin:miter;stroke-opacity:1" d="M 688.138,193.038 706.142,189.437 z" id="boundary" inkscape:connector-curvature="0" />
	<path style="fill:none;stroke:red;stroke-width:1px;stroke-linecap:butt;stroke-linejoin:miter;stroke-opacity:1" d="M 689.938,311.862 707.942,311.862 z" id="boundary" inkscape:connector-curvature="0" />
	<path style="fill:none;stroke:red;stroke-width:1px;stroke-linecap:butt;stroke-linejoin:miter;stroke-opacity:1" d="M 706.142,189.437 724.145,184.036 z" id="boundary" inkscape:connector-curvature="0" />
	<path style="fill:none;stroke:red;stroke-width:1px;stroke-linecap:butt;stroke-linejoin:miter;stroke-opacity:1" d="M 707.942,311.862 725.946,311.862 z" id="boundary" inkscape:connector-curvature="0" />
	<path style="fill:none;stroke:red;stroke-width:1px;stroke-linecap:butt;stroke-linejoin:miter;stroke-opacity:1" d="M 724.145,184.036 742.149,180.436 z" id="boundary" inkscape:connector-curvature="0" />
	<path style="fill:none;stroke:red;stroke-width:1px;stroke-linecap:butt;stroke-linejoin:miter;stroke-opacity:1" d="M 725.946,311.862 742.149,302.86 z" id="boundary" inkscape:connector-curvature="0" />
	<path style="fill:none;stroke:red;stroke-width:1px;stroke-linecap:butt;stroke-linejoin:miter;stroke-opacity:1" d="M 742.149,180.436 760.152,175.034 z" id="boundary" inkscape:connector-curvature="0" />
	<path style="fill:none;stroke:red;stroke-width:1px;stroke-linecap:butt;stroke-linejoin:miter;stroke-opacity:1" d="M 742.149,302.86 758.352,293.858 z" id="boundary" inkscape:connector-curvature="0" />
	<path style="fill:none;stroke:red;stroke-width:1px;stroke-linecap:butt;stroke-linejoin:miter;stroke-opacity:1" d="M 758.352,293.858 776.356,290.258 z" id="boundary" inkscape:connector-curvature="0" />
	<path style="fill:none;stroke:red;stroke-width:1px;stroke-linecap:butt;stroke-linejoin:miter;stroke-opacity:1" d="M 760.152,175.034 778.156,175.034 z" id="boundary" inkscape:connector-curvature="0" />
	<path style="fill:none;stroke:red;stroke-width:1px;stroke-linecap:butt;stroke-linejoin:miter;stroke-opacity:1" d="M 776.356,290.258 794.359,281.256 z" id="boundary" inkscape:connector-curvature="0" />
	<path style="fill:none;stroke:red;stroke-width:1px;stroke-linecap:butt;stroke-linejoin:miter;stroke-opacity:1" d="M 778.156,175.034 794.359,184.036 z" id="boundary" inkscape:connector-curvature="0" />
	<path style="fill:none;stroke:red;stroke-width:1px;stroke-linecap:butt;stroke-linejoin:miter;stroke-opacity:1" d="M 794.359,184.036 810.563,175.034 z" id="boundary" inkscape:connector-curvature="0" />
	<path style="fill:none;stroke:red;stroke-width:1px;stroke-linecap:butt;stroke-linejoin:miter;stroke-opacity:1" d="M 794.359,281.256 812.363,275.855 z" id="boundary" inkscape:connector-curvature="0" />
	<path style="fill:none;stroke:red;stroke-width:1px;stroke-linecap:butt;stroke-linejoin:miter;stroke-opacity:1" d="M 810.563,175.034 828.566,175.034 z" id="boundary" inkscape:connector-curvature="0" />
	<path style="fill:none;stroke:red;stroke-width:1px;stroke-linecap:butt;stroke-linejoin:miter;stroke-opacity:1" d="M 812.363,275.855 828.566,265.053 z" id="boundary" inkscape:connector-curvature="0" />
	<path style="fill:none;stroke:red;stroke-width:1px;stroke-linecap:butt;stroke-linejoin:miter;stroke-opacity:1" d="M 828.566,175.034 846.57,175.034 z" id="boundary" inkscape:connector-curvature="0" />
	<path style="fill:none;stroke:red;stroke-width:1px;stroke-linecap:butt;stroke-linejoin:miter;stroke-opacity:1" d="M 828.566,265.053 846.57,256.051 z" id="boundary" inkscape:connector-curvature="0" />
	<path style="fill:none;stroke:red;stroke-width:1px;stroke-linecap:butt;stroke-linejoin:miter;stroke-opacity:1" d="M 846.57,175.034 864.574,175.034 z" id="boundary" inkscape:connector-curvature="0" />
	<path style="fill:none;stroke:red;stroke-width:1px;stroke-linecap:butt;stroke-linejoin:miter;stroke-opacity:1" d="M 846.57,256.051 864.574,247.049 z" id="boundary" inkscape:connector-curvature="0" />
	<path style="fill:none;stroke:red;stroke-width:1px;stroke-linecap:butt;stroke-linejoin:miter;stroke-opacity:1" d="M 864.574,175.034 882.577,175.034 z" id="boundary" inkscape:connector-curvature="0" />
	<path style="fill:none;stroke:red;stroke-width:1px;stroke-linecap:butt;stroke-linejoin:miter;stroke-opacity:1" d="M 864.574,247.049 882.577,238.047 z" id="boundary" inkscape:connector-curvature="0" />
	<path style="fill:none;stroke:red;stroke-width:1px;stroke-linecap:butt;stroke-linejoin:miter;stroke-opacity:1" d="M 882.577,175.034 900.581,166.033 z" id="boundary" inkscape:connector-curvature="0" />
	<path style="fill:none;stroke:red;stroke-width:1px;stroke-linecap:butt;stroke-linejoin:miter;stroke-opacity:1" d="M 882.577,238.047 900.581,230.846 z" id="boundary" inkscape:connector-curvature="0" />
	<path style="fill:none;stroke:red;stroke-width:1px;stroke-linecap:butt;stroke-linejoin:miter;stroke-opacity:1" d="M 900.581,166.033 918.584,166.033 z" id="boundary" inkscape:connector-curvature="0" />
	<path style="fill:none;stroke:red;stroke-width:1px;stroke-linecap:butt;stroke-linejoin:miter;stroke-opacity:1" d="M 900.581,230.846 916.784,221.844 z" id="boundary" inkscape:connector-curvature="0" />
	<path style="fill:none;stroke:red;stroke-width:1px;stroke-linecap:butt;stroke-linejoin:miter;stroke-opacity:1" d="M 916.784,221.844 932.987,212.842 z" id="boundary" inkscape:connector-curvature="0" />
	<path style="fill:none;stroke:red;stroke-width:1px;stroke-linecap:butt;stroke-linejoin:miter;stroke-opacity:1" d="M 918.584,166.033 936.588,166.033 z" id="boundary" inkscape:connector-curvature="0" />
	<path style="fill:none;stroke:red;stroke-width:1px;stroke-linecap:butt;stroke-linejoin:miter;stroke-opacity:1" d="M 932.987,212.842 950.991,212.842 z" id="boundary" inkscape:connector-curvature="0" />
	<path style="fill:none;stroke:red;stroke-width:1px;stroke-linecap:butt;stroke-linejoin:miter;stroke-opacity:1" d="M 936.588,166.033 952.791,157.031 z" id="boundary" inkscape:connector-curvature="0" />
	<path style="fill:none;stroke:red;stroke-width:1px;stroke-linecap:butt;stroke-linejoin:miter;stroke-opacity:1" d="M 950.991,212.842 967.194,203.84 z" id="boundary" inkscape:connector-curvature="0" />
	<path style="fill:none;stroke:red;stroke-width:1px;stroke-linecap:butt;stroke-linejoin:miter;stroke-opacity:1" d="M 952.791,157.031 970.795,157.031 z" id="boundary" inkscape:connector-curvature="0" />
	<path style="fill:none;stroke:red;stroke-width:1px;stroke-linecap:butt;stroke-linejoin:miter;stroke-opacity:1" d="M 967.194,203.84 985.198,203.84 z" id="boundary" inkscape:connector-curvature="0" />
	<path style="fill:none;stroke:red;stroke-width:1px;stroke-linecap:butt;stroke-linejoin:miter;stroke-opacity:1" d="M 970.795,157.031 988.799,157.031 z" id="boundary" inkscape:connector-curvature="0" />
	<path style="fill:none;stroke:red;stroke-width:1px;stroke-linecap:butt;stroke-linejoin:miter;stroke-opacity:1" d="M 985.198,203.84 996,185.837 z" id="boundary" inkscape:connector-curvature="0" />
	<path style="fill:none;stroke:red;stroke-width:1px;stroke-linecap:butt;stroke-linejoin:miter;stroke-opacity:1" d="M 988.799,157.031 996,185.837 z" id="boundary" inkscape:connector-curvature="0" />
	<circle cx="4" cy="333.466" r="4" fill="#0" id="circle0"/>
	<circle cx="4" cy="351.47" r="4" fill="#0" id="circle1"/>
	<circle cx="4" cy="369.474" r="4" fill="#0" id="circle2"/>
	<circle cx="4" cy="387.477" r="4" fill="#0" id="circle3"/>
	<circle cx="4" cy="405.481" r="4" fill="#0" id="circle4"/>
	<circle cx="13.0018" cy="306.461" r="4" fill="#0" id="circle5"/>
	<circle cx="13.0018" cy="421.684" r="4" fill="#0" id="circle6"/>
	<circle cx="27.4047" cy="292.058" r="4" fill="#0" id="circle7"/>
	<circle cx="31.0054" cy="270.454" r="4" fill="#0" id="circle8"/>
	<circle cx="31.0054" cy="428.886" r="4" fill="#0" id="circle9"/>
	<circle cx="45.4083" cy="256.051" r="4" fill="#0" id="circle10"/>
	<circle cx="49.0091" cy="428.886" r="4" fill="#0" id="circle11"/>
	<circle cx="49.0091" cy="513.503" r="4" fill="#0" id="circle12"/>
	<circle cx="58.0109" cy="225.445" r="4" fill="#0" id="circle13"/>
	<circle cx="58.0109" cy="495.499" r="4" fill="#0" id="circle14"/>
	<circle cx="59.8113" cy="527.906" r="4" fill="#0" id="circle15"/>
	<circle cx="67.0127" cy="428.886" r="4" fill="#0" id="circle16"/>
	<circle cx="72.4138" cy="211.042" r="4" fill="#0" id="circle17"/>
	<circle cx="76.0145" cy="493.699" r="4" fill="#0" id="circle18"/>
	<circle cx="77.8149" cy="527.906" r="4" fill="#0" id="circle19"/>
	<circle cx="83.216" cy="437.887" r="4" fill="#0" id="circle20"/>
	<circle cx="86.8167" cy="196.639" r="4" fill="#0" id="circle21"/>
	<circle cx="86.8167" cy="508.102" r="4" fill="#0" id="circle22"/>
	<circle cx="95.8185" cy="527.906" r="4" fill="#0" id="circle23"/>
	<circle cx="101.22" cy="184.036" r="4" fill="#0" id="circle24"/>
	<circle cx="101.22" cy="437.887" r="4" fill="#0" id="circle25"/>
	<circle cx="104.82" cy="508.102" r="4" fill="#0" id="circle26"/>
	<circle cx="113.822" cy="169.633" r="4" fill="#0" id="circle27"/>
	<circle cx="113.822" cy="527.906" r="4" fill="#0" id="circle28"/>
	<circle cx="117.423" cy="446.889" r="4" fill="#0" id="circle29"/>
	<circle cx="122.824" cy="508.102" r="4" fill="#0" id="circle30"/>
	<circle cx="128.225" cy="157.031" r="4" fill="#0" id="circle31"/>
	<circle cx="131.826" cy="527.906" r="4" fill="#0" id="circle32"/>
	<circle cx="133.626" cy="437.887" r="4" fill="#0" id="circle33"/>
	<circle cx="139.027" cy="499.1" r="4" fill="#0" id="circle34"/>
	<circle cx="144.428" cy="148.029" r="4" fill="#0" id="circle35"/>
	<circle cx="149.829" cy="527.906" r="4" fill="#0" id="circle36"/>
	<circle cx="151.63" cy="437.887" r="4" fill="#0" id="circle37"/>
	<circle cx="157.031" cy="499.1" r="4" fill="#0" id="circle38"/>
	<circle cx="162.432" cy="148.029" r="4" fill="#0" id="circle39"/>
	<circle cx="167.833" cy="527.906" r="4" fill="#0" id="circle40"/>
	<circle cx="169.633" cy="443.289" r="4" fill="#0" id="circle41"/>
	<circle cx="175.034" cy="499.1" r="4" fill="#0" id="circle42"/>
	<circle cx="178.635" cy="139.027" r="4" fill="#0" id="circle43"/>
	<circle cx="185.837" cy="527.906" r="4" fill="#0" id="circle44"/>
	<circle cx="187.637" cy="446.889" r="4" fill="#0" id="circle45"/>
	<circle cx="191.238" cy="490.098" r="4" fill="#0" id="circle46"/>
	<circle cx="194.838" cy="130.025" r="4" fill="#0" id="circle47"/>
	<circle cx="203.84" cy="527.906" r="4" fill="#0" id="circle48"/>
	<circle cx="205.641" cy="446.889" r="4" fill="#0" id="circle49"/>
	<circle cx="209.241" cy="490.098" r="4" fill="#0" id="circle50"/>
	<circle cx="212.842" cy="130.025" r="4" fill="#0" id="circle51"/>
	<circle cx="220.044" cy="457.691" r="4" fill="#0" id="circle52"/>
	<circle cx="220.044" cy="475.695" r="4" fill="#0" id="circle53"/>
	<circle cx="221.844" cy="518.904" r="4" fill="#0" id="circle54"/>
	<circle cx="230.846" cy="130.025" r="4" fill="#0" id="circle55"/>
	<circle cx="239.848" cy="518.904" r="4" fill="#0" id="circle56"/>
	<circle cx="248.849" cy="130.025" r="4" fill="#0" id="circle57"/>
	<circle cx="257.851" cy="509.902" r="4" fill="#0" id="circle58"/>
	<circle cx="266.853" cy="130.025" r="4" fill="#0" id="circle59"/>
	<circle cx="275.855" cy="509.902" r="4" fill="#0" id="circle60"/>
	<circle cx="284.857" cy="130.025" r="4" fill="#0" id="circle61"/>
	<circle cx="293.858" cy="509.902" r="4" fill="#0" id="circle62"/>
	<circle cx="302.86" cy="130.025" r="4" fill="#0" id="circle63"/>
	<circle cx="311.862" cy="509.902" r="4" fill="#0" id="circle64"/>
	<circle cx="319.064" cy="9.40109" r="4" fill="#0" id="circle65"/>
	<circle cx="319.064" cy="27.4047" r="4" fill="#0" id="circle66"/>
	<circle cx="319.064" cy="45.4083" r="4" fill="#0" id="circle67"/>
	<circle cx="320.864" cy="130.025" r="4" fill="#0" id="circle68"/>
	<circle cx="329.866" cy="59.8113" r="4" fill="#0" id="circle69"/>
	<circle cx="329.866" cy="509.902" r="4" fill="#0" id="circle70"/>
	<circle cx="337.067" cy="4" r="4" fill="#0" id="circle71"/>
	<circle cx="338.868" cy="130.025" r="4" fill="#0" id="circle72"/>
	<circle cx="347.869" cy="59.8113" r="4" fill="#0" id="circle73"/>
	<circle cx="347.869" cy="500.9" r="4" fill="#0" id="circle74"/>
	<circle cx="355.071" cy="4" r="4" fill="#0" id="circle75"/>
	<circle cx="355.071" cy="77.8149" r="4" fill="#0" id="circle76"/>
	<circle cx="356.871" cy="130.025" r="4" fill="#0" id="circle77"/>
	<circle cx="360.472" cy="95.8185" r="4" fill="#0" id="circle78"/>
	<circle cx="365.873" cy="500.9" r="4" fill="#0" id="circle79"/>
	<circle cx="373.074" cy="4" r="4" fill="#0" id="circle80"/>
	<circle cx="373.074" cy="110.221" r="4" fill="#0" id="circle81"/>
	<circle cx="383.877" cy="500.9" r="4" fill="#0" id="circle82"/>
	<circle cx="391.078" cy="4" r="4" fill="#0" id="circle83"/>
	<circle cx="400.08" cy="491.898" r="4" fill="#0" id="circle84"/>
	<circle cx="401.88" cy="32.8058" r="4" fill="#0" id="circle85"/>
	<circle cx="401.88" cy="50.8094" r="4" fill="#0" id="circle86"/>
	<circle cx="401.88" cy="68.8131" r="4" fill="#0" id="circle87"/>
	<circle cx="405.481" cy="86.8167" r="4" fill="#0" id="circle88"/>
	<circle cx="409.082" cy="4" r="4" fill="#0" id="circle89"/>
	<circle cx="418.083" cy="495.499" r="4" fill="#0" id="circle90"/>
	<circle cx="419.884" cy="32.8058" r="4" fill="#0" id="circle91"/>
	<circle cx="419.884" cy="99.4192" r="4" fill="#0" id="circle92"/>
	<circle cx="427.085" cy="4" r="4" fill="#0" id="circle93"/>
	<circle cx="434.287" cy="22.0036" r="4" fill="#0" id="circle94"/>
	<circle cx="436.087" cy="491.898" r="4" fill="#0" id="circle95"/>
	<circle cx="437.887" cy="99.4192" r="4" fill="#0" id="circle96"/>
	<circle cx="450.49" cy="481.096" r="4" fill="#0" id="circle97"/>
	<circle cx="455.891" cy="103.02" r="4" fill="#0" id="circle98"/>
	<circle cx="455.891" cy="437.887" r="4" fill="#0" id="circle99"/>
	<circle cx="455.891" cy="455.891" r="4" fill="#0" id="circle100"/>
	<circle cx="473.895" cy="103.02" r="4" fill="#0" id="circle101"/>
	<circle cx="473.895" cy="428.886" r="4" fill="#0" id="circle102"/>
	<circle cx="491.898" cy="97.6189" r="4" fill="#0" id="circle103"/>
	<circle cx="491.898" cy="428.886" r="4" fill="#0" id="circle104"/>
	<circle cx="509.902" cy="99.4192" r="4" fill="#0" id="circle105"/>
	<circle cx="509.902" cy="428.886" r="4" fill="#0" id="circle106"/>
	<circle cx="524.305" cy="112.022" r="4" fill="#0" id="circle107"/>
	<circle cx="527.906" cy="428.886" r="4" fill="#0" id="circle108"/>
	<circle cx="542.309" cy="113.822" r="4" fill="#0" id="circle109"/>
	<circle cx="545.909" cy="428.886" r="4" fill="#0" id="circle110"/>
	<circle cx="560.312" cy="121.024" r="4" fill="#0" id="circle111"/>
	<circle cx="563.913" cy="428.886" r="4" fill="#0" id="circle112"/>
	<circle cx="578.316" cy="121.024" r="4" fill="#0" id="circle113"/>
	<circle cx="580.116" cy="419.884" r="4" fill="#0" id="circle114"/>
	<circle cx="581.917" cy="176.835" r="4" fill="#0" id="circle115"/>
	<circle cx="581.917" cy="194.838" r="4" fill="#0" id="circle116"/>
	<circle cx="594.519" cy="130.025" r="4" fill="#0" id="circle117"/>
	<circle cx="598.12" cy="167.833" r="4" fill="#0" id="circle118"/>
	<circle cx="598.12" cy="414.483" r="4" fill="#0" id="circle119"/>
	<circle cx="599.92" cy="202.04" r="4" fill="#0" id="circle120"/>
	<circle cx="599.92" cy="329.866" r="4" fill="#0" id="circle121"/>
	<circle cx="599.92" cy="356.871" r="4" fill="#0" id="circle122"/>
	<circle cx="610.722" cy="121.024" r="4" fill="#0" id="circle123"/>
	<circle cx="616.123" cy="167.833" r="4" fill="#0" id="circle124"/>
	<circle cx="616.123" cy="419.884" r="4" fill="#0" id="circle125"/>
	<circle cx="617.924" cy="202.04" r="4" fill="#0" id="circle126"/>
	<circle cx="617.924" cy="320.864" r="4" fill="#0" id="circle127"/>
	<circle cx="617.924" cy="358.672" r="4" fill="#0" id="circle128"/>
	<circle cx="628.726" cy="121.024" r="4" fill="#0" id="circle129"/>
	<circle cx="634.127" cy="167.833" r="4" fill="#0" id="circle130"/>
	<circle cx="634.127" cy="414.483" r="4" fill="#0" id="circle131"/>
	<circle cx="635.927" cy="198.439" r="4" fill="#0" id="circle132"/>
	<circle cx="635.927" cy="320.864" r="4" fill="#0" id="circle133"/>
	<circle cx="635.927" cy="360.472" r="4" fill="#0" id="circle134"/>
	<circle cx="643.129" cy="396.479" r="4" fill="#0" id="circle135"/>
	<circle cx="644.929" cy="130.025" r="4" fill="#0" id="circle136"/>
	<circle cx="644.929" cy="376.675" r="4" fill="#0" id="circle137"/>
	<circle cx="650.33" cy="158.831" r="4" fill="#0" id="circle138"/>
	<circle cx="653.931" cy="202.04" r="4" fill="#0" id="circle139"/>
	<circle cx="653.931" cy="311.862" r="4" fill="#0" id="circle140"/>
	<circle cx="662.933" cy="135.426" r="4" fill="#0" id="circle141"/>
	<circle cx="670.134" cy="193.038" r="4" fill="#0" id="circle142"/>
	<circle cx="671.935" cy="315.463" r="4" fill="#0" id="circle143"/>
	<circle cx="688.138" cy="193.038" r="4" fill="#0" id="circle144"/>
	<circle cx="689.938" cy="311.862" r="4" fill="#0" id="circle145"/>
	<circle cx="706.142" cy="189.437" r="4" fill="#0" id="circle146"/>
	<circle cx="707.942" cy="311.862" r="4" fill="#0" id="circle147"/>
	<circle cx="724.145" cy="184.036" r="4" fill="#0" id="circle148"/>
	<circle cx="725.946" cy="311.862" r="4" fill="#0" id="circle149"/>
	<circle cx="742.149" cy="180.436" r="4" fill="#0" id="circle150"/>
	<circle cx="742.149" cy="302.86" r="4" fill="#0" id="circle151"/>
	<circle cx="758.352" cy="293.858" r="4" fill="#0" id="circle152"/>
	<circle cx="760.152" cy="175.034" r="4" fill="#0" id="circle153"/>
	<circle cx="776.356" cy="290.258" r="4" fill="#0" id="circle154"/>
	<circle cx="778.156" cy="175.034" r="4" fill="#0" id="circle155"/>
	<circle cx="794.359" cy="184.036" r="4" fill="#0" id="circle156"/>
	<circle cx="794.359" cy="281.256" r="4" fill="#0" id="circle157"/>
	<circle cx="810.563" cy="175.034" r="4" fill="#0" id="circle158"/>
	<circle cx="812.363" cy="275.855" r="4" fill="#0" id="circle159"/>
	<circle cx="828.566" cy="175.034" r="4" fill="#0" id="circle160"/>
	<circle cx="828.566" cy="265.053" r="4" fill="#0" id="circle161"/>
	<circle cx="846.57" cy="175.034" r="4" fill="#0" id="circle162"/>
	<circle cx="846.57" cy="256.051" r="4" fill="#0" id="circle163"/>
	<circle cx="864.574" cy="175.034" r="4" fill="#0" id="circle164"/>
	<circle cx="864.574" cy="247.049" r="4" fill="#0" id="circle165"/>
	<circle cx="882.577" cy="175.034" r="4" fill="#0" id="circle166"/>
	<circle cx="882.577" cy="238.047" r="4" fill="#0" id="circle167"/>
	<circle cx="900.581" cy="166.033" r="4" fill="#0" id="circle168"/>
	<circle cx="900.581" cy="230.846" r="4" fill="#0" id="circle169"/>
	<circle cx="916.784" cy="221.844" r="4" fill="#0" id="circle170"/>
	<circle cx="918.584" cy="166.033" r="4" fill="#0" id="circle171"/>
	<circle cx="932.987" cy="212.842" r="4" fill="#0" id="circle172"/>
	<circle cx="936.588" cy="166.033" r="4" fill="#0" id="circle173"/>
	<circle cx="950.991" cy="212.842" r="4" fill="#0" id="circle174"/>
	<circle cx="952.791" cy="157.031" r="4" fill="#0" id="circle175"/>
	<circle cx="967.194" cy="203.84" r="4" fill="#0" id="circle176"/>
	<circle cx="970.795" cy="157.031" r="4" fill="#0" id="circle177"/>
	<circle cx="985.198" cy="203.84" r="4" fill="#0" id="circle178"/>
	<circle cx="988.799" cy="157.031" r="4" fill="#0" id="circle179"/>
	<circle cx="996" cy="185.837" r="4" fill="#0" id="circle180"/>
	</g>
</svg>