<?xml version="1.0" encoding="UTF-8" standalone="no"?>
<!-- Created with CurveBenchmark -->
<svg
	xmlns:dc="http://purl.org/dc/elements/1.1/"
	xmlns:cc="http://creativecommons.org/ns#"
	xmlns:rdf="http://www.w3.org/1999/02/22-rdf-syntax-ns#"
	xmlns:svg="http://www.w3.org/2000/svg"
	xmlns="http://www.w3.org/2000/svg"
	xmlns:sodipodi="http://sodipodi.sourceforge.net/DTD/sodipodi-0.dtd"
	xmlns:inkscape="http://www.inkscape.org/namespaces/inkscape"
	width="1000"
	height="1000"
	id="svg2"
	version="1.1"
	sodipodi:docname="manifold/fitconnect-guitar295.png.txt">
<defs
	id="defs4" />
<metadata
	id="metadata7">
	<rdf:RDF>
		<cc:Work
			rdf:about="">
			<dc:format>image/svg+xml</dc:format>
			<dc:type
				rdf:resource="http://purl.org/dc/dcmitype/StillImage" />
			<dc:title></dc:title>
		</cc:Work>
	</rdf:RDF>
</metadata>
<g
	inkscape:label="Layer 1"
	inkscape:groupmode="layer"
	id="layer1">
	<path style="fill:none;stroke:red;stroke-width:1px;stroke-linecap:butt;stroke-linejoin:miter;stroke-opacity:1" d="M 4,784.936 4,855.291 z" id="boundary" inkscape:connector-curvature="0" />
	<path style="fill:none;stroke:red;stroke-width:1px;stroke-linecap:butt;stroke-linejoin:miter;stroke-opacity:1" d="M 4,784.936 246.723,756.794 z" id="boundary" inkscape:connector-curvature="0" />
	<path style="fill:none;stroke:red;stroke-width:1px;stroke-linecap:butt;stroke-linejoin:miter;stroke-opacity:1" d="M 4,855.291 4,890.468 z" id="boundary" inkscape:connector-curvature="0" />
	<path style="fill:none;stroke:red;stroke-width:1px;stroke-linecap:butt;stroke-linejoin:miter;stroke-opacity:1" d="M 4,890.468 14.5532,925.645 z" id="boundary" inkscape:connector-curvature="0" />
	<path style="fill:none;stroke:red;stroke-width:1px;stroke-linecap:butt;stroke-linejoin:miter;stroke-opacity:1" d="M 14.5532,925.645 32.1418,957.305 z" id="boundary" inkscape:connector-curvature="0" />
	<path style="fill:none;stroke:red;stroke-width:1px;stroke-linecap:butt;stroke-linejoin:miter;stroke-opacity:1" d="M 32.1418,957.305 53.2482,985.447 z" id="boundary" inkscape:connector-curvature="0" />
	<path style="fill:none;stroke:red;stroke-width:1px;stroke-linecap:butt;stroke-linejoin:miter;stroke-opacity:1" d="M 53.2482,985.447 88.4255,992.482 z" id="boundary" inkscape:connector-curvature="0" />
	<path style="fill:none;stroke:red;stroke-width:1px;stroke-linecap:butt;stroke-linejoin:miter;stroke-opacity:1" d="M 67.3191,179.887 81.3901,67.3191 z" id="boundary" inkscape:connector-curvature="0" />
	<path style="fill:none;stroke:red;stroke-width:1px;stroke-linecap:butt;stroke-linejoin:miter;stroke-opacity:1" d="M 67.3191,179.887 106.014,260.794 z" id="boundary" inkscape:connector-curvature="0" />
	<path style="fill:none;stroke:red;stroke-width:1px;stroke-linecap:butt;stroke-linejoin:miter;stroke-opacity:1" d="M 81.3901,67.3191 95.461,25.1064 z" id="boundary" inkscape:connector-curvature="0" />
	<path style="fill:none;stroke:red;stroke-width:1px;stroke-linecap:butt;stroke-linejoin:miter;stroke-opacity:1" d="M 88.4255,992.482 123.603,996 z" id="boundary" inkscape:connector-curvature="0" />
	<path style="fill:none;stroke:red;stroke-width:1px;stroke-linecap:butt;stroke-linejoin:miter;stroke-opacity:1" d="M 95.461,25.1064 123.603,4 z" id="boundary" inkscape:connector-curvature="0" />
	<path style="fill:none;stroke:red;stroke-width:1px;stroke-linecap:butt;stroke-linejoin:miter;stroke-opacity:1" d="M 106.014,260.794 106.014,331.149 z" id="boundary" inkscape:connector-curvature="0" />
	<path style="fill:none;stroke:red;stroke-width:1px;stroke-linecap:butt;stroke-linejoin:miter;stroke-opacity:1" d="M 106.014,331.149 106.014,401.504 z" id="boundary" inkscape:connector-curvature="0" />
	<path style="fill:none;stroke:red;stroke-width:1px;stroke-linecap:butt;stroke-linejoin:miter;stroke-opacity:1" d="M 106.014,401.504 155.262,482.411 z" id="boundary" inkscape:connector-curvature="0" />
	<path style="fill:none;stroke:red;stroke-width:1px;stroke-linecap:butt;stroke-linejoin:miter;stroke-opacity:1" d="M 123.603,996 158.78,992.482 z" id="boundary" inkscape:connector-curvature="0" />
	<path style="fill:none;stroke:red;stroke-width:1px;stroke-linecap:butt;stroke-linejoin:miter;stroke-opacity:1" d="M 155.262,482.411 225.617,545.73 z" id="boundary" inkscape:connector-curvature="0" />
	<path style="fill:none;stroke:red;stroke-width:1px;stroke-linecap:butt;stroke-linejoin:miter;stroke-opacity:1" d="M 158.78,992.482 193.957,992.482 z" id="boundary" inkscape:connector-curvature="0" />
	<path style="fill:none;stroke:red;stroke-width:1px;stroke-linecap:butt;stroke-linejoin:miter;stroke-opacity:1" d="M 193.957,992.482 222.099,964.34 z" id="boundary" inkscape:connector-curvature="0" />
	<path style="fill:none;stroke:red;stroke-width:1px;stroke-linecap:butt;stroke-linejoin:miter;stroke-opacity:1" d="M 222.099,964.34 239.688,925.645 z" id="boundary" inkscape:connector-curvature="0" />
	<path style="fill:none;stroke:red;stroke-width:1px;stroke-linecap:butt;stroke-linejoin:miter;stroke-opacity:1" d="M 239.688,925.645 253.759,862.326 z" id="boundary" inkscape:connector-curvature="0" />
	<path style="fill:none;stroke:red;stroke-width:1px;stroke-linecap:butt;stroke-linejoin:miter;stroke-opacity:1" d="M 246.723,756.794 253.759,862.326 z" id="boundary" inkscape:connector-curvature="0" />
	<circle cx="4" cy="784.936" r="4" fill="#0" id="circle0"/>
	<circle cx="4" cy="820.113" r="4" fill="#0" id="circle1"/>
	<circle cx="4" cy="855.291" r="4" fill="#0" id="circle2"/>
	<circle cx="4" cy="890.468" r="4" fill="#0" id="circle3"/>
	<circle cx="14.5532" cy="925.645" r="4" fill="#0" id="circle4"/>
	<circle cx="18.0709" cy="735.688" r="4" fill="#0" id="circle5"/>
	<circle cx="25.1064" cy="545.73" r="4" fill="#0" id="circle6"/>
	<circle cx="25.1064" cy="580.908" r="4" fill="#0" id="circle7"/>
	<circle cx="25.1064" cy="616.085" r="4" fill="#0" id="circle8"/>
	<circle cx="32.1418" cy="651.262" r="4" fill="#0" id="circle9"/>
	<circle cx="32.1418" cy="686.44" r="4" fill="#0" id="circle10"/>
	<circle cx="32.1418" cy="957.305" r="4" fill="#0" id="circle11"/>
	<circle cx="42.695" cy="514.071" r="4" fill="#0" id="circle12"/>
	<circle cx="53.2482" cy="985.447" r="4" fill="#0" id="circle13"/>
	<circle cx="67.3191" cy="179.887" r="4" fill="#0" id="circle14"/>
	<circle cx="67.3191" cy="215.064" r="4" fill="#0" id="circle15"/>
	<circle cx="67.3191" cy="250.241" r="4" fill="#0" id="circle16"/>
	<circle cx="67.3191" cy="285.418" r="4" fill="#0" id="circle17"/>
	<circle cx="67.3191" cy="334.667" r="4" fill="#0" id="circle18"/>
	<circle cx="67.3191" cy="369.844" r="4" fill="#0" id="circle19"/>
	<circle cx="67.3191" cy="405.021" r="4" fill="#0" id="circle20"/>
	<circle cx="67.3191" cy="440.199" r="4" fill="#0" id="circle21"/>
	<circle cx="67.3191" cy="475.376" r="4" fill="#0" id="circle22"/>
	<circle cx="74.3546" cy="102.496" r="4" fill="#0" id="circle23"/>
	<circle cx="74.3546" cy="137.674" r="4" fill="#0" id="circle24"/>
	<circle cx="81.3901" cy="67.3191" r="4" fill="#0" id="circle25"/>
	<circle cx="88.4255" cy="992.482" r="4" fill="#0" id="circle26"/>
	<circle cx="95.461" cy="25.1064" r="4" fill="#0" id="circle27"/>
	<circle cx="106.014" cy="155.262" r="4" fill="#0" id="circle28"/>
	<circle cx="106.014" cy="190.44" r="4" fill="#0" id="circle29"/>
	<circle cx="106.014" cy="225.617" r="4" fill="#0" id="circle30"/>
	<circle cx="106.014" cy="260.794" r="4" fill="#0" id="circle31"/>
	<circle cx="106.014" cy="295.972" r="4" fill="#0" id="circle32"/>
	<circle cx="106.014" cy="331.149" r="4" fill="#0" id="circle33"/>
	<circle cx="106.014" cy="366.326" r="4" fill="#0" id="circle34"/>
	<circle cx="106.014" cy="401.504" r="4" fill="#0" id="circle35"/>
	<circle cx="113.05" cy="436.681" r="4" fill="#0" id="circle36"/>
	<circle cx="116.567" cy="120.085" r="4" fill="#0" id="circle37"/>
	<circle cx="120.085" cy="471.858" r="4" fill="#0" id="circle38"/>
	<circle cx="123.603" cy="4" r="4" fill="#0" id="circle39"/>
	<circle cx="123.603" cy="84.9078" r="4" fill="#0" id="circle40"/>
	<circle cx="123.603" cy="996" r="4" fill="#0" id="circle41"/>
	<circle cx="134.156" cy="46.2128" r="4" fill="#0" id="circle42"/>
	<circle cx="155.262" cy="482.411" r="4" fill="#0" id="circle43"/>
	<circle cx="158.78" cy="992.482" r="4" fill="#0" id="circle44"/>
	<circle cx="190.44" cy="496.482" r="4" fill="#0" id="circle45"/>
	<circle cx="190.44" cy="531.66" r="4" fill="#0" id="circle46"/>
	<circle cx="193.957" cy="992.482" r="4" fill="#0" id="circle47"/>
	<circle cx="222.099" cy="964.34" r="4" fill="#0" id="circle48"/>
	<circle cx="225.617" cy="545.73" r="4" fill="#0" id="circle49"/>
	<circle cx="225.617" cy="651.262" r="4" fill="#0" id="circle50"/>
	<circle cx="225.617" cy="686.44" r="4" fill="#0" id="circle51"/>
	<circle cx="232.652" cy="616.085" r="4" fill="#0" id="circle52"/>
	<circle cx="236.17" cy="721.617" r="4" fill="#0" id="circle53"/>
	<circle cx="239.688" cy="580.908" r="4" fill="#0" id="circle54"/>
	<circle cx="239.688" cy="925.645" r="4" fill="#0" id="circle55"/>
	<circle cx="246.723" cy="756.794" r="4" fill="#0" id="circle56"/>
	<circle cx="253.759" cy="791.972" r="4" fill="#0" id="circle57"/>
	<circle cx="253.759" cy="827.149" r="4" fill="#0" id="circle58"/>
	<circle cx="253.759" cy="862.326" r="4" fill="#0" id="circle59"/>
	</g>
</svg>