<?xml version="1.0" encoding="UTF-8" standalone="no"?>
<!-- Created with CurveBenchmark -->
<svg
	xmlns:dc="http://purl.org/dc/elements/1.1/"
	xmlns:cc="http://creativecommons.org/ns#"
	xmlns:rdf="http://www.w3.org/1999/02/22-rdf-syntax-ns#"
	xmlns:svg="http://www.w3.org/2000/svg"
	xmlns="http://www.w3.org/2000/svg"
	xmlns:sodipodi="http://sodipodi.sourceforge.net/DTD/sodipodi-0.dtd"
	xmlns:inkscape="http://www.inkscape.org/namespaces/inkscape"
	width="1000"
	height="1000"
	id="svg2"
	version="1.1"
	sodipodi:docname="manifold/fitconnect-face20.png.txt">
<defs
	id="defs4" />
<metadata
	id="metadata7">
	<rdf:RDF>
		<cc:Work
			rdf:about="">
			<dc:format>image/svg+xml</dc:format>
			<dc:type
				rdf:resource="http://purl.org/dc/dcmitype/StillImage" />
			<dc:title></dc:title>
		</cc:Work>
	</rdf:RDF>
</metadata>
<g
	inkscape:label="Layer 1"
	inkscape:groupmode="layer"
	id="layer1">
	<path style="fill:none;stroke:red;stroke-width:1px;stroke-linecap:butt;stroke-linejoin:miter;stroke-opacity:1" d="M 4,483.63 12.1848,467.261 z" id="boundary" inkscape:connector-curvature="0" />
	<path style="fill:none;stroke:red;stroke-width:1px;stroke-linecap:butt;stroke-linejoin:miter;stroke-opacity:1" d="M 4,483.63 12.1848,498.363 z" id="boundary" inkscape:connector-curvature="0" />
	<path style="fill:none;stroke:red;stroke-width:1px;stroke-linecap:butt;stroke-linejoin:miter;stroke-opacity:1" d="M 12.1848,467.261 28.5545,462.35 z" id="boundary" inkscape:connector-curvature="0" />
	<path style="fill:none;stroke:red;stroke-width:1px;stroke-linecap:butt;stroke-linejoin:miter;stroke-opacity:1" d="M 12.1848,498.363 20.3696,513.096 z" id="boundary" inkscape:connector-curvature="0" />
	<path style="fill:none;stroke:red;stroke-width:1px;stroke-linecap:butt;stroke-linejoin:miter;stroke-opacity:1" d="M 20.3696,513.096 25.2805,529.465 z" id="boundary" inkscape:connector-curvature="0" />
	<path style="fill:none;stroke:red;stroke-width:1px;stroke-linecap:butt;stroke-linejoin:miter;stroke-opacity:1" d="M 25.2805,529.465 33.4653,544.198 z" id="boundary" inkscape:connector-curvature="0" />
	<path style="fill:none;stroke:red;stroke-width:1px;stroke-linecap:butt;stroke-linejoin:miter;stroke-opacity:1" d="M 28.5545,462.35 44.9241,449.254 z" id="boundary" inkscape:connector-curvature="0" />
	<path style="fill:none;stroke:red;stroke-width:1px;stroke-linecap:butt;stroke-linejoin:miter;stroke-opacity:1" d="M 33.4653,544.198 36.7393,560.568 z" id="boundary" inkscape:connector-curvature="0" />
	<path style="fill:none;stroke:red;stroke-width:1px;stroke-linecap:butt;stroke-linejoin:miter;stroke-opacity:1" d="M 36.7393,287.195 36.7393,303.564 z" id="boundary" inkscape:connector-curvature="0" />
	<path style="fill:none;stroke:red;stroke-width:1px;stroke-linecap:butt;stroke-linejoin:miter;stroke-opacity:1" d="M 36.7393,287.195 44.9241,262.64 z" id="boundary" inkscape:connector-curvature="0" />
	<path style="fill:none;stroke:red;stroke-width:1px;stroke-linecap:butt;stroke-linejoin:miter;stroke-opacity:1" d="M 36.7393,303.564 36.7393,319.934 z" id="boundary" inkscape:connector-curvature="0" />
	<path style="fill:none;stroke:red;stroke-width:1px;stroke-linecap:butt;stroke-linejoin:miter;stroke-opacity:1" d="M 36.7393,319.934 36.7393,336.304 z" id="boundary" inkscape:connector-curvature="0" />
	<path style="fill:none;stroke:red;stroke-width:1px;stroke-linecap:butt;stroke-linejoin:miter;stroke-opacity:1" d="M 36.7393,336.304 36.7393,352.673 z" id="boundary" inkscape:connector-curvature="0" />
	<path style="fill:none;stroke:red;stroke-width:1px;stroke-linecap:butt;stroke-linejoin:miter;stroke-opacity:1" d="M 36.7393,352.673 36.7393,369.043 z" id="boundary" inkscape:connector-curvature="0" />
	<path style="fill:none;stroke:red;stroke-width:1px;stroke-linecap:butt;stroke-linejoin:miter;stroke-opacity:1" d="M 36.7393,369.043 36.7393,385.413 z" id="boundary" inkscape:connector-curvature="0" />
	<path style="fill:none;stroke:red;stroke-width:1px;stroke-linecap:butt;stroke-linejoin:miter;stroke-opacity:1" d="M 36.7393,385.413 36.7393,401.782 z" id="boundary" inkscape:connector-curvature="0" />
	<path style="fill:none;stroke:red;stroke-width:1px;stroke-linecap:butt;stroke-linejoin:miter;stroke-opacity:1" d="M 36.7393,401.782 44.9241,416.515 z" id="boundary" inkscape:connector-curvature="0" />
	<path style="fill:none;stroke:red;stroke-width:1px;stroke-linecap:butt;stroke-linejoin:miter;stroke-opacity:1" d="M 36.7393,560.568 44.9241,575.3 z" id="boundary" inkscape:connector-curvature="0" />
	<path style="fill:none;stroke:red;stroke-width:1px;stroke-linecap:butt;stroke-linejoin:miter;stroke-opacity:1" d="M 44.9241,246.271 44.9241,262.64 z" id="boundary" inkscape:connector-curvature="0" />
	<path style="fill:none;stroke:red;stroke-width:1px;stroke-linecap:butt;stroke-linejoin:miter;stroke-opacity:1" d="M 44.9241,246.271 53.1089,221.716 z" id="boundary" inkscape:connector-curvature="0" />
	<path style="fill:none;stroke:red;stroke-width:1px;stroke-linecap:butt;stroke-linejoin:miter;stroke-opacity:1" d="M 44.9241,416.515 44.9241,432.884 z" id="boundary" inkscape:connector-curvature="0" />
	<path style="fill:none;stroke:red;stroke-width:1px;stroke-linecap:butt;stroke-linejoin:miter;stroke-opacity:1" d="M 44.9241,432.884 44.9241,449.254 z" id="boundary" inkscape:connector-curvature="0" />
	<path style="fill:none;stroke:red;stroke-width:1px;stroke-linecap:butt;stroke-linejoin:miter;stroke-opacity:1" d="M 44.9241,575.3 53.1089,590.033 z" id="boundary" inkscape:connector-curvature="0" />
	<path style="fill:none;stroke:red;stroke-width:1px;stroke-linecap:butt;stroke-linejoin:miter;stroke-opacity:1" d="M 53.1089,221.716 61.2937,205.347 z" id="boundary" inkscape:connector-curvature="0" />
	<path style="fill:none;stroke:red;stroke-width:1px;stroke-linecap:butt;stroke-linejoin:miter;stroke-opacity:1" d="M 53.1089,590.033 61.2937,604.766 z" id="boundary" inkscape:connector-curvature="0" />
	<path style="fill:none;stroke:red;stroke-width:1px;stroke-linecap:butt;stroke-linejoin:miter;stroke-opacity:1" d="M 61.2937,188.977 61.2937,205.347 z" id="boundary" inkscape:connector-curvature="0" />
	<path style="fill:none;stroke:red;stroke-width:1px;stroke-linecap:butt;stroke-linejoin:miter;stroke-opacity:1" d="M 61.2937,188.977 69.4785,172.607 z" id="boundary" inkscape:connector-curvature="0" />
	<path style="fill:none;stroke:red;stroke-width:1px;stroke-linecap:butt;stroke-linejoin:miter;stroke-opacity:1" d="M 61.2937,604.766 69.4785,619.498 z" id="boundary" inkscape:connector-curvature="0" />
	<path style="fill:none;stroke:red;stroke-width:1px;stroke-linecap:butt;stroke-linejoin:miter;stroke-opacity:1" d="M 69.4785,172.607 77.6634,156.238 z" id="boundary" inkscape:connector-curvature="0" />
	<path style="fill:none;stroke:red;stroke-width:1px;stroke-linecap:butt;stroke-linejoin:miter;stroke-opacity:1" d="M 69.4785,619.498 74.3894,635.868 z" id="boundary" inkscape:connector-curvature="0" />
	<path style="fill:none;stroke:red;stroke-width:1px;stroke-linecap:butt;stroke-linejoin:miter;stroke-opacity:1" d="M 74.3894,635.868 87.4851,647.327 z" id="boundary" inkscape:connector-curvature="0" />
	<path style="fill:none;stroke:red;stroke-width:1px;stroke-linecap:butt;stroke-linejoin:miter;stroke-opacity:1" d="M 77.6634,156.238 90.7591,143.142 z" id="boundary" inkscape:connector-curvature="0" />
	<path style="fill:none;stroke:red;stroke-width:1px;stroke-linecap:butt;stroke-linejoin:miter;stroke-opacity:1" d="M 87.4851,647.327 94.033,663.696 z" id="boundary" inkscape:connector-curvature="0" />
	<path style="fill:none;stroke:red;stroke-width:1px;stroke-linecap:butt;stroke-linejoin:miter;stroke-opacity:1" d="M 90.7591,143.142 98.9439,126.772 z" id="boundary" inkscape:connector-curvature="0" />
	<path style="fill:none;stroke:red;stroke-width:1px;stroke-linecap:butt;stroke-linejoin:miter;stroke-opacity:1" d="M 94.033,663.696 94.033,680.066 z" id="boundary" inkscape:connector-curvature="0" />
	<path style="fill:none;stroke:red;stroke-width:1px;stroke-linecap:butt;stroke-linejoin:miter;stroke-opacity:1" d="M 94.033,680.066 94.033,696.436 z" id="boundary" inkscape:connector-curvature="0" />
	<path style="fill:none;stroke:red;stroke-width:1px;stroke-linecap:butt;stroke-linejoin:miter;stroke-opacity:1" d="M 94.033,696.436 102.218,711.168 z" id="boundary" inkscape:connector-curvature="0" />
	<path style="fill:none;stroke:red;stroke-width:1px;stroke-linecap:butt;stroke-linejoin:miter;stroke-opacity:1" d="M 98.9439,126.772 112.04,113.677 z" id="boundary" inkscape:connector-curvature="0" />
	<path style="fill:none;stroke:red;stroke-width:1px;stroke-linecap:butt;stroke-linejoin:miter;stroke-opacity:1" d="M 102.218,711.168 110.403,725.901 z" id="boundary" inkscape:connector-curvature="0" />
	<path style="fill:none;stroke:red;stroke-width:1px;stroke-linecap:butt;stroke-linejoin:miter;stroke-opacity:1" d="M 110.403,725.901 120.224,738.997 z" id="boundary" inkscape:connector-curvature="0" />
	<path style="fill:none;stroke:red;stroke-width:1px;stroke-linecap:butt;stroke-linejoin:miter;stroke-opacity:1" d="M 112.04,113.677 120.224,97.3069 z" id="boundary" inkscape:connector-curvature="0" />
	<path style="fill:none;stroke:red;stroke-width:1px;stroke-linecap:butt;stroke-linejoin:miter;stroke-opacity:1" d="M 120.224,97.3069 133.32,85.8482 z" id="boundary" inkscape:connector-curvature="0" />
	<path style="fill:none;stroke:red;stroke-width:1px;stroke-linecap:butt;stroke-linejoin:miter;stroke-opacity:1" d="M 120.224,738.997 133.32,750.455 z" id="boundary" inkscape:connector-curvature="0" />
	<path style="fill:none;stroke:red;stroke-width:1px;stroke-linecap:butt;stroke-linejoin:miter;stroke-opacity:1" d="M 133.32,85.8482 144.779,72.7525 z" id="boundary" inkscape:connector-curvature="0" />
	<path style="fill:none;stroke:red;stroke-width:1px;stroke-linecap:butt;stroke-linejoin:miter;stroke-opacity:1" d="M 133.32,750.455 143.142,763.551 z" id="boundary" inkscape:connector-curvature="0" />
	<path style="fill:none;stroke:red;stroke-width:1px;stroke-linecap:butt;stroke-linejoin:miter;stroke-opacity:1" d="M 143.142,763.551 143.142,779.921 z" id="boundary" inkscape:connector-curvature="0" />
	<path style="fill:none;stroke:red;stroke-width:1px;stroke-linecap:butt;stroke-linejoin:miter;stroke-opacity:1" d="M 143.142,779.921 143.142,796.29 z" id="boundary" inkscape:connector-curvature="0" />
	<path style="fill:none;stroke:red;stroke-width:1px;stroke-linecap:butt;stroke-linejoin:miter;stroke-opacity:1" d="M 143.142,796.29 143.142,812.66 z" id="boundary" inkscape:connector-curvature="0" />
	<path style="fill:none;stroke:red;stroke-width:1px;stroke-linecap:butt;stroke-linejoin:miter;stroke-opacity:1" d="M 143.142,812.66 143.142,829.03 z" id="boundary" inkscape:connector-curvature="0" />
	<path style="fill:none;stroke:red;stroke-width:1px;stroke-linecap:butt;stroke-linejoin:miter;stroke-opacity:1" d="M 143.142,829.03 143.142,845.399 z" id="boundary" inkscape:connector-curvature="0" />
	<path style="fill:none;stroke:red;stroke-width:1px;stroke-linecap:butt;stroke-linejoin:miter;stroke-opacity:1" d="M 143.142,845.399 144.779,861.769 z" id="boundary" inkscape:connector-curvature="0" />
	<path style="fill:none;stroke:red;stroke-width:1px;stroke-linecap:butt;stroke-linejoin:miter;stroke-opacity:1" d="M 144.779,72.7525 157.875,61.2937 z" id="boundary" inkscape:connector-curvature="0" />
	<path style="fill:none;stroke:red;stroke-width:1px;stroke-linecap:butt;stroke-linejoin:miter;stroke-opacity:1" d="M 144.779,861.769 152.964,876.502 z" id="boundary" inkscape:connector-curvature="0" />
	<path style="fill:none;stroke:red;stroke-width:1px;stroke-linecap:butt;stroke-linejoin:miter;stroke-opacity:1" d="M 152.964,876.502 164.422,889.597 z" id="boundary" inkscape:connector-curvature="0" />
	<path style="fill:none;stroke:red;stroke-width:1px;stroke-linecap:butt;stroke-linejoin:miter;stroke-opacity:1" d="M 157.875,61.2937 172.607,53.1089 z" id="boundary" inkscape:connector-curvature="0" />
	<path style="fill:none;stroke:red;stroke-width:1px;stroke-linecap:butt;stroke-linejoin:miter;stroke-opacity:1" d="M 164.422,889.597 180.792,896.145 z" id="boundary" inkscape:connector-curvature="0" />
	<path style="fill:none;stroke:red;stroke-width:1px;stroke-linecap:butt;stroke-linejoin:miter;stroke-opacity:1" d="M 172.607,53.1089 185.703,40.0132 z" id="boundary" inkscape:connector-curvature="0" />
	<path style="fill:none;stroke:red;stroke-width:1px;stroke-linecap:butt;stroke-linejoin:miter;stroke-opacity:1" d="M 180.792,896.145 192.251,909.241 z" id="boundary" inkscape:connector-curvature="0" />
	<path style="fill:none;stroke:red;stroke-width:1px;stroke-linecap:butt;stroke-linejoin:miter;stroke-opacity:1" d="M 185.703,40.0132 198.799,28.5545 z" id="boundary" inkscape:connector-curvature="0" />
	<path style="fill:none;stroke:red;stroke-width:1px;stroke-linecap:butt;stroke-linejoin:miter;stroke-opacity:1" d="M 192.251,909.241 205.347,920.7 z" id="boundary" inkscape:connector-curvature="0" />
	<path style="fill:none;stroke:red;stroke-width:1px;stroke-linecap:butt;stroke-linejoin:miter;stroke-opacity:1" d="M 198.799,28.5545 213.531,20.3696 z" id="boundary" inkscape:connector-curvature="0" />
	<path style="fill:none;stroke:red;stroke-width:1px;stroke-linecap:butt;stroke-linejoin:miter;stroke-opacity:1" d="M 205.347,920.7 216.805,933.795 z" id="boundary" inkscape:connector-curvature="0" />
	<path style="fill:none;stroke:red;stroke-width:1px;stroke-linecap:butt;stroke-linejoin:miter;stroke-opacity:1" d="M 213.531,20.3696 228.264,12.1848 z" id="boundary" inkscape:connector-curvature="0" />
	<path style="fill:none;stroke:red;stroke-width:1px;stroke-linecap:butt;stroke-linejoin:miter;stroke-opacity:1" d="M 216.805,933.795 229.901,945.254 z" id="boundary" inkscape:connector-curvature="0" />
	<path style="fill:none;stroke:red;stroke-width:1px;stroke-linecap:butt;stroke-linejoin:miter;stroke-opacity:1" d="M 228.264,12.1848 242.997,4 z" id="boundary" inkscape:connector-curvature="0" />
	<path style="fill:none;stroke:red;stroke-width:1px;stroke-linecap:butt;stroke-linejoin:miter;stroke-opacity:1" d="M 229.901,945.254 244.634,953.439 z" id="boundary" inkscape:connector-curvature="0" />
	<path style="fill:none;stroke:red;stroke-width:1px;stroke-linecap:butt;stroke-linejoin:miter;stroke-opacity:1" d="M 242.997,4 259.366,4 z" id="boundary" inkscape:connector-curvature="0" />
	<path style="fill:none;stroke:red;stroke-width:1px;stroke-linecap:butt;stroke-linejoin:miter;stroke-opacity:1" d="M 244.634,953.439 257.729,963.261 z" id="boundary" inkscape:connector-curvature="0" />
	<path style="fill:none;stroke:red;stroke-width:1px;stroke-linecap:butt;stroke-linejoin:miter;stroke-opacity:1" d="M 257.729,963.261 272.462,971.446 z" id="boundary" inkscape:connector-curvature="0" />
	<path style="fill:none;stroke:red;stroke-width:1px;stroke-linecap:butt;stroke-linejoin:miter;stroke-opacity:1" d="M 259.366,4 275.736,4 z" id="boundary" inkscape:connector-curvature="0" />
	<path style="fill:none;stroke:red;stroke-width:1px;stroke-linecap:butt;stroke-linejoin:miter;stroke-opacity:1" d="M 272.462,971.446 283.921,984.541 z" id="boundary" inkscape:connector-curvature="0" />
	<path style="fill:none;stroke:red;stroke-width:1px;stroke-linecap:butt;stroke-linejoin:miter;stroke-opacity:1" d="M 275.736,4 292.106,4 z" id="boundary" inkscape:connector-curvature="0" />
	<path style="fill:none;stroke:red;stroke-width:1px;stroke-linecap:butt;stroke-linejoin:miter;stroke-opacity:1" d="M 283.921,984.541 300.29,991.089 z" id="boundary" inkscape:connector-curvature="0" />
	<path style="fill:none;stroke:red;stroke-width:1px;stroke-linecap:butt;stroke-linejoin:miter;stroke-opacity:1" d="M 292.106,4 308.475,4 z" id="boundary" inkscape:connector-curvature="0" />
	<path style="fill:none;stroke:red;stroke-width:1px;stroke-linecap:butt;stroke-linejoin:miter;stroke-opacity:1" d="M 300.29,991.089 316.66,996 z" id="boundary" inkscape:connector-curvature="0" />
	<path style="fill:none;stroke:red;stroke-width:1px;stroke-linecap:butt;stroke-linejoin:miter;stroke-opacity:1" d="M 308.475,4 323.208,12.1848 z" id="boundary" inkscape:connector-curvature="0" />
	<path style="fill:none;stroke:red;stroke-width:1px;stroke-linecap:butt;stroke-linejoin:miter;stroke-opacity:1" d="M 316.66,996 333.03,996 z" id="boundary" inkscape:connector-curvature="0" />
	<path style="fill:none;stroke:red;stroke-width:1px;stroke-linecap:butt;stroke-linejoin:miter;stroke-opacity:1" d="M 323.208,12.1848 337.941,20.3696 z" id="boundary" inkscape:connector-curvature="0" />
	<path style="fill:none;stroke:red;stroke-width:1px;stroke-linecap:butt;stroke-linejoin:miter;stroke-opacity:1" d="M 333.03,996 347.762,987.815 z" id="boundary" inkscape:connector-curvature="0" />
	<path style="fill:none;stroke:red;stroke-width:1px;stroke-linecap:butt;stroke-linejoin:miter;stroke-opacity:1" d="M 337.941,20.3696 354.31,22.0066 z" id="boundary" inkscape:connector-curvature="0" />
	<path style="fill:none;stroke:red;stroke-width:1px;stroke-linecap:butt;stroke-linejoin:miter;stroke-opacity:1" d="M 347.762,987.815 364.132,982.904 z" id="boundary" inkscape:connector-curvature="0" />
	<path style="fill:none;stroke:red;stroke-width:1px;stroke-linecap:butt;stroke-linejoin:miter;stroke-opacity:1" d="M 354.31,22.0066 369.043,30.1914 z" id="boundary" inkscape:connector-curvature="0" />
	<path style="fill:none;stroke:red;stroke-width:1px;stroke-linecap:butt;stroke-linejoin:miter;stroke-opacity:1" d="M 364.132,982.904 380.502,974.719 z" id="boundary" inkscape:connector-curvature="0" />
	<path style="fill:none;stroke:red;stroke-width:1px;stroke-linecap:butt;stroke-linejoin:miter;stroke-opacity:1" d="M 369.043,30.1914 377.228,44.9241 z" id="boundary" inkscape:connector-curvature="0" />
	<path style="fill:none;stroke:red;stroke-width:1px;stroke-linecap:butt;stroke-linejoin:miter;stroke-opacity:1" d="M 377.228,44.9241 388.686,58.0198 z" id="boundary" inkscape:connector-curvature="0" />
	<path style="fill:none;stroke:red;stroke-width:1px;stroke-linecap:butt;stroke-linejoin:miter;stroke-opacity:1" d="M 380.502,974.719 393.597,963.261 z" id="boundary" inkscape:connector-curvature="0" />
	<path style="fill:none;stroke:red;stroke-width:1px;stroke-linecap:butt;stroke-linejoin:miter;stroke-opacity:1" d="M 388.686,58.0198 405.056,61.2937 z" id="boundary" inkscape:connector-curvature="0" />
	<path style="fill:none;stroke:red;stroke-width:1px;stroke-linecap:butt;stroke-linejoin:miter;stroke-opacity:1" d="M 393.597,963.261 408.33,955.076 z" id="boundary" inkscape:connector-curvature="0" />
	<path style="fill:none;stroke:red;stroke-width:1px;stroke-linecap:butt;stroke-linejoin:miter;stroke-opacity:1" d="M 405.056,61.2937 421.426,61.2937 z" id="boundary" inkscape:connector-curvature="0" />
	<path style="fill:none;stroke:red;stroke-width:1px;stroke-linecap:butt;stroke-linejoin:miter;stroke-opacity:1" d="M 408.33,955.076 423.063,946.891 z" id="boundary" inkscape:connector-curvature="0" />
	<path style="fill:none;stroke:red;stroke-width:1px;stroke-linecap:butt;stroke-linejoin:miter;stroke-opacity:1" d="M 421.426,61.2937 437.795,61.2937 z" id="boundary" inkscape:connector-curvature="0" />
	<path style="fill:none;stroke:red;stroke-width:1px;stroke-linecap:butt;stroke-linejoin:miter;stroke-opacity:1" d="M 423.063,946.891 431.248,930.521 z" id="boundary" inkscape:connector-curvature="0" />
	<path style="fill:none;stroke:red;stroke-width:1px;stroke-linecap:butt;stroke-linejoin:miter;stroke-opacity:1" d="M 431.248,930.521 444.343,919.063 z" id="boundary" inkscape:connector-curvature="0" />
	<path style="fill:none;stroke:red;stroke-width:1px;stroke-linecap:butt;stroke-linejoin:miter;stroke-opacity:1" d="M 437.795,61.2937 452.528,69.4785 z" id="boundary" inkscape:connector-curvature="0" />
	<path style="fill:none;stroke:red;stroke-width:1px;stroke-linecap:butt;stroke-linejoin:miter;stroke-opacity:1" d="M 444.343,919.063 455.802,905.967 z" id="boundary" inkscape:connector-curvature="0" />
	<path style="fill:none;stroke:red;stroke-width:1px;stroke-linecap:butt;stroke-linejoin:miter;stroke-opacity:1" d="M 452.528,69.4785 467.261,77.6634 z" id="boundary" inkscape:connector-curvature="0" />
	<path style="fill:none;stroke:red;stroke-width:1px;stroke-linecap:butt;stroke-linejoin:miter;stroke-opacity:1" d="M 455.802,905.967 468.898,894.508 z" id="boundary" inkscape:connector-curvature="0" />
	<path style="fill:none;stroke:red;stroke-width:1px;stroke-linecap:butt;stroke-linejoin:miter;stroke-opacity:1" d="M 467.261,77.6634 481.993,85.8482 z" id="boundary" inkscape:connector-curvature="0" />
	<path style="fill:none;stroke:red;stroke-width:1px;stroke-linecap:butt;stroke-linejoin:miter;stroke-opacity:1" d="M 468.898,894.508 472.172,873.228 z" id="boundary" inkscape:connector-curvature="0" />
	<path style="fill:none;stroke:red;stroke-width:1px;stroke-linecap:butt;stroke-linejoin:miter;stroke-opacity:1" d="M 472.172,873.228 480.356,856.858 z" id="boundary" inkscape:connector-curvature="0" />
	<path style="fill:none;stroke:red;stroke-width:1px;stroke-linecap:butt;stroke-linejoin:miter;stroke-opacity:1" d="M 480.356,856.858 493.452,845.399 z" id="boundary" inkscape:connector-curvature="0" />
	<path style="fill:none;stroke:red;stroke-width:1px;stroke-linecap:butt;stroke-linejoin:miter;stroke-opacity:1" d="M 481.993,85.8482 496.726,94.033 z" id="boundary" inkscape:connector-curvature="0" />
	<path style="fill:none;stroke:red;stroke-width:1px;stroke-linecap:butt;stroke-linejoin:miter;stroke-opacity:1" d="M 493.452,845.399 504.911,832.304 z" id="boundary" inkscape:connector-curvature="0" />
	<path style="fill:none;stroke:red;stroke-width:1px;stroke-linecap:butt;stroke-linejoin:miter;stroke-opacity:1" d="M 496.726,94.033 509.822,103.855 z" id="boundary" inkscape:connector-curvature="0" />
	<path style="fill:none;stroke:red;stroke-width:1px;stroke-linecap:butt;stroke-linejoin:miter;stroke-opacity:1" d="M 504.911,734.086 504.911,750.455 z" id="boundary" inkscape:connector-curvature="0" />
	<path style="fill:none;stroke:red;stroke-width:1px;stroke-linecap:butt;stroke-linejoin:miter;stroke-opacity:1" d="M 504.911,734.086 513.096,717.716 z" id="boundary" inkscape:connector-curvature="0" />
	<path style="fill:none;stroke:red;stroke-width:1px;stroke-linecap:butt;stroke-linejoin:miter;stroke-opacity:1" d="M 504.911,750.455 504.911,766.825 z" id="boundary" inkscape:connector-curvature="0" />
	<path style="fill:none;stroke:red;stroke-width:1px;stroke-linecap:butt;stroke-linejoin:miter;stroke-opacity:1" d="M 504.911,766.825 504.911,783.195 z" id="boundary" inkscape:connector-curvature="0" />
	<path style="fill:none;stroke:red;stroke-width:1px;stroke-linecap:butt;stroke-linejoin:miter;stroke-opacity:1" d="M 504.911,783.195 504.911,799.564 z" id="boundary" inkscape:connector-curvature="0" />
	<path style="fill:none;stroke:red;stroke-width:1px;stroke-linecap:butt;stroke-linejoin:miter;stroke-opacity:1" d="M 504.911,799.564 504.911,815.934 z" id="boundary" inkscape:connector-curvature="0" />
	<path style="fill:none;stroke:red;stroke-width:1px;stroke-linecap:butt;stroke-linejoin:miter;stroke-opacity:1" d="M 504.911,815.934 504.911,832.304 z" id="boundary" inkscape:connector-curvature="0" />
	<path style="fill:none;stroke:red;stroke-width:1px;stroke-linecap:butt;stroke-linejoin:miter;stroke-opacity:1" d="M 509.822,103.855 521.281,116.95 z" id="boundary" inkscape:connector-curvature="0" />
	<path style="fill:none;stroke:red;stroke-width:1px;stroke-linecap:butt;stroke-linejoin:miter;stroke-opacity:1" d="M 513.096,717.716 521.281,701.347 z" id="boundary" inkscape:connector-curvature="0" />
	<path style="fill:none;stroke:red;stroke-width:1px;stroke-linecap:butt;stroke-linejoin:miter;stroke-opacity:1" d="M 521.281,116.95 529.465,131.683 z" id="boundary" inkscape:connector-curvature="0" />
	<path style="fill:none;stroke:red;stroke-width:1px;stroke-linecap:butt;stroke-linejoin:miter;stroke-opacity:1" d="M 521.281,701.347 529.465,684.977 z" id="boundary" inkscape:connector-curvature="0" />
	<path style="fill:none;stroke:red;stroke-width:1px;stroke-linecap:butt;stroke-linejoin:miter;stroke-opacity:1" d="M 529.465,131.683 537.65,146.416 z" id="boundary" inkscape:connector-curvature="0" />
	<path style="fill:none;stroke:red;stroke-width:1px;stroke-linecap:butt;stroke-linejoin:miter;stroke-opacity:1" d="M 529.465,684.977 537.65,660.422 z" id="boundary" inkscape:connector-curvature="0" />
	<path style="fill:none;stroke:red;stroke-width:1px;stroke-linecap:butt;stroke-linejoin:miter;stroke-opacity:1" d="M 537.65,146.416 542.561,162.785 z" id="boundary" inkscape:connector-curvature="0" />
	<path style="fill:none;stroke:red;stroke-width:1px;stroke-linecap:butt;stroke-linejoin:miter;stroke-opacity:1" d="M 537.65,627.683 537.65,644.053 z" id="boundary" inkscape:connector-curvature="0" />
	<path style="fill:none;stroke:red;stroke-width:1px;stroke-linecap:butt;stroke-linejoin:miter;stroke-opacity:1" d="M 537.65,627.683 545.835,611.314 z" id="boundary" inkscape:connector-curvature="0" />
	<path style="fill:none;stroke:red;stroke-width:1px;stroke-linecap:butt;stroke-linejoin:miter;stroke-opacity:1" d="M 537.65,644.053 537.65,660.422 z" id="boundary" inkscape:connector-curvature="0" />
	<path style="fill:none;stroke:red;stroke-width:1px;stroke-linecap:butt;stroke-linejoin:miter;stroke-opacity:1" d="M 542.561,162.785 550.746,177.518 z" id="boundary" inkscape:connector-curvature="0" />
	<path style="fill:none;stroke:red;stroke-width:1px;stroke-linecap:butt;stroke-linejoin:miter;stroke-opacity:1" d="M 545.835,611.314 562.205,603.129 z" id="boundary" inkscape:connector-curvature="0" />
	<path style="fill:none;stroke:red;stroke-width:1px;stroke-linecap:butt;stroke-linejoin:miter;stroke-opacity:1" d="M 550.746,177.518 554.02,193.888 z" id="boundary" inkscape:connector-curvature="0" />
	<path style="fill:none;stroke:red;stroke-width:1px;stroke-linecap:butt;stroke-linejoin:miter;stroke-opacity:1" d="M 554.02,193.888 562.205,208.62 z" id="boundary" inkscape:connector-curvature="0" />
	<path style="fill:none;stroke:red;stroke-width:1px;stroke-linecap:butt;stroke-linejoin:miter;stroke-opacity:1" d="M 562.205,208.62 562.205,224.99 z" id="boundary" inkscape:connector-curvature="0" />
	<path style="fill:none;stroke:red;stroke-width:1px;stroke-linecap:butt;stroke-linejoin:miter;stroke-opacity:1" d="M 562.205,224.99 562.205,241.36 z" id="boundary" inkscape:connector-curvature="0" />
	<path style="fill:none;stroke:red;stroke-width:1px;stroke-linecap:butt;stroke-linejoin:miter;stroke-opacity:1" d="M 562.205,241.36 562.205,257.729 z" id="boundary" inkscape:connector-curvature="0" />
	<path style="fill:none;stroke:red;stroke-width:1px;stroke-linecap:butt;stroke-linejoin:miter;stroke-opacity:1" d="M 562.205,257.729 562.205,274.099 z" id="boundary" inkscape:connector-curvature="0" />
	<path style="fill:none;stroke:red;stroke-width:1px;stroke-linecap:butt;stroke-linejoin:miter;stroke-opacity:1" d="M 562.205,274.099 562.205,290.469 z" id="boundary" inkscape:connector-curvature="0" />
	<path style="fill:none;stroke:red;stroke-width:1px;stroke-linecap:butt;stroke-linejoin:miter;stroke-opacity:1" d="M 562.205,290.469 562.205,306.838 z" id="boundary" inkscape:connector-curvature="0" />
	<path style="fill:none;stroke:red;stroke-width:1px;stroke-linecap:butt;stroke-linejoin:miter;stroke-opacity:1" d="M 562.205,306.838 562.205,323.208 z" id="boundary" inkscape:connector-curvature="0" />
	<path style="fill:none;stroke:red;stroke-width:1px;stroke-linecap:butt;stroke-linejoin:miter;stroke-opacity:1" d="M 562.205,323.208 570.389,337.941 z" id="boundary" inkscape:connector-curvature="0" />
	<path style="fill:none;stroke:red;stroke-width:1px;stroke-linecap:butt;stroke-linejoin:miter;stroke-opacity:1" d="M 562.205,603.129 578.574,594.944 z" id="boundary" inkscape:connector-curvature="0" />
	<path style="fill:none;stroke:red;stroke-width:1px;stroke-linecap:butt;stroke-linejoin:miter;stroke-opacity:1" d="M 570.389,337.941 570.389,354.31 z" id="boundary" inkscape:connector-curvature="0" />
	<path style="fill:none;stroke:red;stroke-width:1px;stroke-linecap:butt;stroke-linejoin:miter;stroke-opacity:1" d="M 570.389,354.31 570.389,370.68 z" id="boundary" inkscape:connector-curvature="0" />
	<path style="fill:none;stroke:red;stroke-width:1px;stroke-linecap:butt;stroke-linejoin:miter;stroke-opacity:1" d="M 570.389,370.68 570.389,387.05 z" id="boundary" inkscape:connector-curvature="0" />
	<path style="fill:none;stroke:red;stroke-width:1px;stroke-linecap:butt;stroke-linejoin:miter;stroke-opacity:1" d="M 570.389,387.05 578.574,401.782 z" id="boundary" inkscape:connector-curvature="0" />
	<path style="fill:none;stroke:red;stroke-width:1px;stroke-linecap:butt;stroke-linejoin:miter;stroke-opacity:1" d="M 578.574,401.782 590.033,414.878 z" id="boundary" inkscape:connector-curvature="0" />
	<path style="fill:none;stroke:red;stroke-width:1px;stroke-linecap:butt;stroke-linejoin:miter;stroke-opacity:1" d="M 578.574,578.574 578.574,594.944 z" id="boundary" inkscape:connector-curvature="0" />
	<path style="fill:none;stroke:red;stroke-width:1px;stroke-linecap:butt;stroke-linejoin:miter;stroke-opacity:1" d="M 578.574,578.574 586.759,554.02 z" id="boundary" inkscape:connector-curvature="0" />
	<path style="fill:none;stroke:red;stroke-width:1px;stroke-linecap:butt;stroke-linejoin:miter;stroke-opacity:1" d="M 586.759,488.541 586.759,504.911 z" id="boundary" inkscape:connector-curvature="0" />
	<path style="fill:none;stroke:red;stroke-width:1px;stroke-linecap:butt;stroke-linejoin:miter;stroke-opacity:1" d="M 586.759,488.541 594.944,463.987 z" id="boundary" inkscape:connector-curvature="0" />
	<path style="fill:none;stroke:red;stroke-width:1px;stroke-linecap:butt;stroke-linejoin:miter;stroke-opacity:1" d="M 586.759,504.911 586.759,521.281 z" id="boundary" inkscape:connector-curvature="0" />
	<path style="fill:none;stroke:red;stroke-width:1px;stroke-linecap:butt;stroke-linejoin:miter;stroke-opacity:1" d="M 586.759,521.281 586.759,537.65 z" id="boundary" inkscape:connector-curvature="0" />
	<path style="fill:none;stroke:red;stroke-width:1px;stroke-linecap:butt;stroke-linejoin:miter;stroke-opacity:1" d="M 586.759,537.65 586.759,554.02 z" id="boundary" inkscape:connector-curvature="0" />
	<path style="fill:none;stroke:red;stroke-width:1px;stroke-linecap:butt;stroke-linejoin:miter;stroke-opacity:1" d="M 590.033,414.878 603.129,426.337 z" id="boundary" inkscape:connector-curvature="0" />
	<path style="fill:none;stroke:red;stroke-width:1px;stroke-linecap:butt;stroke-linejoin:miter;stroke-opacity:1" d="M 594.944,447.617 594.944,463.987 z" id="boundary" inkscape:connector-curvature="0" />
	<path style="fill:none;stroke:red;stroke-width:1px;stroke-linecap:butt;stroke-linejoin:miter;stroke-opacity:1" d="M 594.944,447.617 603.129,426.337 z" id="boundary" inkscape:connector-curvature="0" />
	<circle cx="4" cy="483.63" r="4" fill="#0" id="circle0"/>
	<circle cx="12.1848" cy="467.261" r="4" fill="#0" id="circle1"/>
	<circle cx="12.1848" cy="498.363" r="4" fill="#0" id="circle2"/>
	<circle cx="20.3696" cy="513.096" r="4" fill="#0" id="circle3"/>
	<circle cx="25.2805" cy="529.465" r="4" fill="#0" id="circle4"/>
	<circle cx="28.5545" cy="462.35" r="4" fill="#0" id="circle5"/>
	<circle cx="33.4653" cy="544.198" r="4" fill="#0" id="circle6"/>
	<circle cx="36.7393" cy="287.195" r="4" fill="#0" id="circle7"/>
	<circle cx="36.7393" cy="303.564" r="4" fill="#0" id="circle8"/>
	<circle cx="36.7393" cy="319.934" r="4" fill="#0" id="circle9"/>
	<circle cx="36.7393" cy="336.304" r="4" fill="#0" id="circle10"/>
	<circle cx="36.7393" cy="352.673" r="4" fill="#0" id="circle11"/>
	<circle cx="36.7393" cy="369.043" r="4" fill="#0" id="circle12"/>
	<circle cx="36.7393" cy="385.413" r="4" fill="#0" id="circle13"/>
	<circle cx="36.7393" cy="401.782" r="4" fill="#0" id="circle14"/>
	<circle cx="36.7393" cy="560.568" r="4" fill="#0" id="circle15"/>
	<circle cx="44.9241" cy="246.271" r="4" fill="#0" id="circle16"/>
	<circle cx="44.9241" cy="262.64" r="4" fill="#0" id="circle17"/>
	<circle cx="44.9241" cy="416.515" r="4" fill="#0" id="circle18"/>
	<circle cx="44.9241" cy="432.884" r="4" fill="#0" id="circle19"/>
	<circle cx="44.9241" cy="449.254" r="4" fill="#0" id="circle20"/>
	<circle cx="44.9241" cy="575.3" r="4" fill="#0" id="circle21"/>
	<circle cx="53.1089" cy="221.716" r="4" fill="#0" id="circle22"/>
	<circle cx="53.1089" cy="590.033" r="4" fill="#0" id="circle23"/>
	<circle cx="61.2937" cy="188.977" r="4" fill="#0" id="circle24"/>
	<circle cx="61.2937" cy="205.347" r="4" fill="#0" id="circle25"/>
	<circle cx="61.2937" cy="604.766" r="4" fill="#0" id="circle26"/>
	<circle cx="69.4785" cy="172.607" r="4" fill="#0" id="circle27"/>
	<circle cx="69.4785" cy="619.498" r="4" fill="#0" id="circle28"/>
	<circle cx="74.3894" cy="635.868" r="4" fill="#0" id="circle29"/>
	<circle cx="77.6634" cy="156.238" r="4" fill="#0" id="circle30"/>
	<circle cx="87.4851" cy="647.327" r="4" fill="#0" id="circle31"/>
	<circle cx="90.7591" cy="143.142" r="4" fill="#0" id="circle32"/>
	<circle cx="94.033" cy="663.696" r="4" fill="#0" id="circle33"/>
	<circle cx="94.033" cy="680.066" r="4" fill="#0" id="circle34"/>
	<circle cx="94.033" cy="696.436" r="4" fill="#0" id="circle35"/>
	<circle cx="98.9439" cy="126.772" r="4" fill="#0" id="circle36"/>
	<circle cx="102.218" cy="711.168" r="4" fill="#0" id="circle37"/>
	<circle cx="110.403" cy="725.901" r="4" fill="#0" id="circle38"/>
	<circle cx="112.04" cy="113.677" r="4" fill="#0" id="circle39"/>
	<circle cx="120.224" cy="97.3069" r="4" fill="#0" id="circle40"/>
	<circle cx="120.224" cy="738.997" r="4" fill="#0" id="circle41"/>
	<circle cx="133.32" cy="85.8482" r="4" fill="#0" id="circle42"/>
	<circle cx="133.32" cy="750.455" r="4" fill="#0" id="circle43"/>
	<circle cx="143.142" cy="763.551" r="4" fill="#0" id="circle44"/>
	<circle cx="143.142" cy="779.921" r="4" fill="#0" id="circle45"/>
	<circle cx="143.142" cy="796.29" r="4" fill="#0" id="circle46"/>
	<circle cx="143.142" cy="812.66" r="4" fill="#0" id="circle47"/>
	<circle cx="143.142" cy="829.03" r="4" fill="#0" id="circle48"/>
	<circle cx="143.142" cy="845.399" r="4" fill="#0" id="circle49"/>
	<circle cx="144.779" cy="72.7525" r="4" fill="#0" id="circle50"/>
	<circle cx="144.779" cy="861.769" r="4" fill="#0" id="circle51"/>
	<circle cx="152.964" cy="876.502" r="4" fill="#0" id="circle52"/>
	<circle cx="157.875" cy="61.2937" r="4" fill="#0" id="circle53"/>
	<circle cx="164.422" cy="889.597" r="4" fill="#0" id="circle54"/>
	<circle cx="172.607" cy="53.1089" r="4" fill="#0" id="circle55"/>
	<circle cx="180.792" cy="896.145" r="4" fill="#0" id="circle56"/>
	<circle cx="185.703" cy="40.0132" r="4" fill="#0" id="circle57"/>
	<circle cx="192.251" cy="909.241" r="4" fill="#0" id="circle58"/>
	<circle cx="198.799" cy="28.5545" r="4" fill="#0" id="circle59"/>
	<circle cx="205.347" cy="920.7" r="4" fill="#0" id="circle60"/>
	<circle cx="213.531" cy="20.3696" r="4" fill="#0" id="circle61"/>
	<circle cx="216.805" cy="933.795" r="4" fill="#0" id="circle62"/>
	<circle cx="228.264" cy="12.1848" r="4" fill="#0" id="circle63"/>
	<circle cx="229.901" cy="945.254" r="4" fill="#0" id="circle64"/>
	<circle cx="242.997" cy="4" r="4" fill="#0" id="circle65"/>
	<circle cx="244.634" cy="953.439" r="4" fill="#0" id="circle66"/>
	<circle cx="257.729" cy="963.261" r="4" fill="#0" id="circle67"/>
	<circle cx="259.366" cy="4" r="4" fill="#0" id="circle68"/>
	<circle cx="272.462" cy="971.446" r="4" fill="#0" id="circle69"/>
	<circle cx="275.736" cy="4" r="4" fill="#0" id="circle70"/>
	<circle cx="283.921" cy="984.541" r="4" fill="#0" id="circle71"/>
	<circle cx="292.106" cy="4" r="4" fill="#0" id="circle72"/>
	<circle cx="300.29" cy="991.089" r="4" fill="#0" id="circle73"/>
	<circle cx="308.475" cy="4" r="4" fill="#0" id="circle74"/>
	<circle cx="316.66" cy="996" r="4" fill="#0" id="circle75"/>
	<circle cx="323.208" cy="12.1848" r="4" fill="#0" id="circle76"/>
	<circle cx="333.03" cy="996" r="4" fill="#0" id="circle77"/>
	<circle cx="337.941" cy="20.3696" r="4" fill="#0" id="circle78"/>
	<circle cx="347.762" cy="987.815" r="4" fill="#0" id="circle79"/>
	<circle cx="354.31" cy="22.0066" r="4" fill="#0" id="circle80"/>
	<circle cx="364.132" cy="982.904" r="4" fill="#0" id="circle81"/>
	<circle cx="369.043" cy="30.1914" r="4" fill="#0" id="circle82"/>
	<circle cx="377.228" cy="44.9241" r="4" fill="#0" id="circle83"/>
	<circle cx="380.502" cy="974.719" r="4" fill="#0" id="circle84"/>
	<circle cx="388.686" cy="58.0198" r="4" fill="#0" id="circle85"/>
	<circle cx="393.597" cy="963.261" r="4" fill="#0" id="circle86"/>
	<circle cx="405.056" cy="61.2937" r="4" fill="#0" id="circle87"/>
	<circle cx="408.33" cy="955.076" r="4" fill="#0" id="circle88"/>
	<circle cx="421.426" cy="61.2937" r="4" fill="#0" id="circle89"/>
	<circle cx="423.063" cy="946.891" r="4" fill="#0" id="circle90"/>
	<circle cx="431.248" cy="930.521" r="4" fill="#0" id="circle91"/>
	<circle cx="437.795" cy="61.2937" r="4" fill="#0" id="circle92"/>
	<circle cx="444.343" cy="919.063" r="4" fill="#0" id="circle93"/>
	<circle cx="452.528" cy="69.4785" r="4" fill="#0" id="circle94"/>
	<circle cx="455.802" cy="905.967" r="4" fill="#0" id="circle95"/>
	<circle cx="467.261" cy="77.6634" r="4" fill="#0" id="circle96"/>
	<circle cx="468.898" cy="894.508" r="4" fill="#0" id="circle97"/>
	<circle cx="472.172" cy="873.228" r="4" fill="#0" id="circle98"/>
	<circle cx="480.356" cy="856.858" r="4" fill="#0" id="circle99"/>
	<circle cx="481.993" cy="85.8482" r="4" fill="#0" id="circle100"/>
	<circle cx="493.452" cy="845.399" r="4" fill="#0" id="circle101"/>
	<circle cx="496.726" cy="94.033" r="4" fill="#0" id="circle102"/>
	<circle cx="504.911" cy="734.086" r="4" fill="#0" id="circle103"/>
	<circle cx="504.911" cy="750.455" r="4" fill="#0" id="circle104"/>
	<circle cx="504.911" cy="766.825" r="4" fill="#0" id="circle105"/>
	<circle cx="504.911" cy="783.195" r="4" fill="#0" id="circle106"/>
	<circle cx="504.911" cy="799.564" r="4" fill="#0" id="circle107"/>
	<circle cx="504.911" cy="815.934" r="4" fill="#0" id="circle108"/>
	<circle cx="504.911" cy="832.304" r="4" fill="#0" id="circle109"/>
	<circle cx="509.822" cy="103.855" r="4" fill="#0" id="circle110"/>
	<circle cx="513.096" cy="717.716" r="4" fill="#0" id="circle111"/>
	<circle cx="521.281" cy="116.95" r="4" fill="#0" id="circle112"/>
	<circle cx="521.281" cy="701.347" r="4" fill="#0" id="circle113"/>
	<circle cx="529.465" cy="131.683" r="4" fill="#0" id="circle114"/>
	<circle cx="529.465" cy="684.977" r="4" fill="#0" id="circle115"/>
	<circle cx="537.65" cy="146.416" r="4" fill="#0" id="circle116"/>
	<circle cx="537.65" cy="627.683" r="4" fill="#0" id="circle117"/>
	<circle cx="537.65" cy="644.053" r="4" fill="#0" id="circle118"/>
	<circle cx="537.65" cy="660.422" r="4" fill="#0" id="circle119"/>
	<circle cx="542.561" cy="162.785" r="4" fill="#0" id="circle120"/>
	<circle cx="545.835" cy="611.314" r="4" fill="#0" id="circle121"/>
	<circle cx="550.746" cy="177.518" r="4" fill="#0" id="circle122"/>
	<circle cx="554.02" cy="193.888" r="4" fill="#0" id="circle123"/>
	<circle cx="562.205" cy="208.62" r="4" fill="#0" id="circle124"/>
	<circle cx="562.205" cy="224.99" r="4" fill="#0" id="circle125"/>
	<circle cx="562.205" cy="241.36" r="4" fill="#0" id="circle126"/>
	<circle cx="562.205" cy="257.729" r="4" fill="#0" id="circle127"/>
	<circle cx="562.205" cy="274.099" r="4" fill="#0" id="circle128"/>
	<circle cx="562.205" cy="290.469" r="4" fill="#0" id="circle129"/>
	<circle cx="562.205" cy="306.838" r="4" fill="#0" id="circle130"/>
	<circle cx="562.205" cy="323.208" r="4" fill="#0" id="circle131"/>
	<circle cx="562.205" cy="603.129" r="4" fill="#0" id="circle132"/>
	<circle cx="570.389" cy="337.941" r="4" fill="#0" id="circle133"/>
	<circle cx="570.389" cy="354.31" r="4" fill="#0" id="circle134"/>
	<circle cx="570.389" cy="370.68" r="4" fill="#0" id="circle135"/>
	<circle cx="570.389" cy="387.05" r="4" fill="#0" id="circle136"/>
	<circle cx="578.574" cy="401.782" r="4" fill="#0" id="circle137"/>
	<circle cx="578.574" cy="578.574" r="4" fill="#0" id="circle138"/>
	<circle cx="578.574" cy="594.944" r="4" fill="#0" id="circle139"/>
	<circle cx="586.759" cy="488.541" r="4" fill="#0" id="circle140"/>
	<circle cx="586.759" cy="504.911" r="4" fill="#0" id="circle141"/>
	<circle cx="586.759" cy="521.281" r="4" fill="#0" id="circle142"/>
	<circle cx="586.759" cy="537.65" r="4" fill="#0" id="circle143"/>
	<circle cx="586.759" cy="554.02" r="4" fill="#0" id="circle144"/>
	<circle cx="590.033" cy="414.878" r="4" fill="#0" id="circle145"/>
	<circle cx="594.944" cy="447.617" r="4" fill="#0" id="circle146"/>
	<circle cx="594.944" cy="463.987" r="4" fill="#0" id="circle147"/>
	<circle cx="603.129" cy="426.337" r="4" fill="#0" id="circle148"/>
	</g>
</svg>