<?xml version="1.0" encoding="UTF-8" standalone="no"?>
<!-- Created with CurveBenchmark -->
<svg
	xmlns:dc="http://purl.org/dc/elements/1.1/"
	xmlns:cc="http://creativecommons.org/ns#"
	xmlns:rdf="http://www.w3.org/1999/02/22-rdf-syntax-ns#"
	xmlns:svg="http://www.w3.org/2000/svg"
	xmlns="http://www.w3.org/2000/svg"
	xmlns:sodipodi="http://sodipodi.sourceforge.net/DTD/sodipodi-0.dtd"
	xmlns:inkscape="http://www.inkscape.org/namespaces/inkscape"
	width="1000"
	height="1000"
	id="svg2"
	version="1.1"
	sodipodi:docname="manifold/fitconnect-Bone12.png.txt">
<defs
	id="defs4" />
<metadata
	id="metadata7">
	<rdf:RDF>
		<cc:Work
			rdf:about="">
			<dc:format>image/svg+xml</dc:format>
			<dc:type
				rdf:resource="http://purl.org/dc/dcmitype/StillImage" />
			<dc:title></dc:title>
		</cc:Work>
	</rdf:RDF>
</metadata>
<g
	inkscape:label="Layer 1"
	inkscape:groupmode="layer"
	id="layer1">
	<path style="fill:none;stroke:red;stroke-width:1px;stroke-linecap:butt;stroke-linejoin:miter;stroke-opacity:1" d="M 4,924.633 18.2734,910.36 z" id="boundary" inkscape:connector-curvature="0" />
	<path style="fill:none;stroke:red;stroke-width:1px;stroke-linecap:butt;stroke-linejoin:miter;stroke-opacity:1" d="M 4,924.633 18.2734,937.122 z" id="boundary" inkscape:connector-curvature="0" />
	<path style="fill:none;stroke:red;stroke-width:1px;stroke-linecap:butt;stroke-linejoin:miter;stroke-opacity:1" d="M 18.2734,910.36 36.1151,901.439 z" id="boundary" inkscape:connector-curvature="0" />
	<path style="fill:none;stroke:red;stroke-width:1px;stroke-linecap:butt;stroke-linejoin:miter;stroke-opacity:1" d="M 18.2734,937.122 36.1151,938.906 z" id="boundary" inkscape:connector-curvature="0" />
	<path style="fill:none;stroke:red;stroke-width:1px;stroke-linecap:butt;stroke-linejoin:miter;stroke-opacity:1" d="M 36.1151,901.439 53.9568,892.518 z" id="boundary" inkscape:connector-curvature="0" />
	<path style="fill:none;stroke:red;stroke-width:1px;stroke-linecap:butt;stroke-linejoin:miter;stroke-opacity:1" d="M 36.1151,938.906 53.9568,946.043 z" id="boundary" inkscape:connector-curvature="0" />
	<path style="fill:none;stroke:red;stroke-width:1px;stroke-linecap:butt;stroke-linejoin:miter;stroke-opacity:1" d="M 39.6835,799.741 48.6043,815.799 z" id="boundary" inkscape:connector-curvature="0" />
	<path style="fill:none;stroke:red;stroke-width:1px;stroke-linecap:butt;stroke-linejoin:miter;stroke-opacity:1" d="M 39.6835,799.741 57.5252,794.388 z" id="boundary" inkscape:connector-curvature="0" />
	<path style="fill:none;stroke:red;stroke-width:1px;stroke-linecap:butt;stroke-linejoin:miter;stroke-opacity:1" d="M 48.6043,815.799 57.5252,831.856 z" id="boundary" inkscape:connector-curvature="0" />
	<path style="fill:none;stroke:red;stroke-width:1px;stroke-linecap:butt;stroke-linejoin:miter;stroke-opacity:1" d="M 48.6043,978.158 48.6043,996 z" id="boundary" inkscape:connector-curvature="0" />
	<path style="fill:none;stroke:red;stroke-width:1px;stroke-linecap:butt;stroke-linejoin:miter;stroke-opacity:1" d="M 48.6043,978.158 53.9568,946.043 z" id="boundary" inkscape:connector-curvature="0" />
	<path style="fill:none;stroke:red;stroke-width:1px;stroke-linecap:butt;stroke-linejoin:miter;stroke-opacity:1" d="M 48.6043,996 66.446,992.432 z" id="boundary" inkscape:connector-curvature="0" />
	<path style="fill:none;stroke:red;stroke-width:1px;stroke-linecap:butt;stroke-linejoin:miter;stroke-opacity:1" d="M 53.9568,892.518 71.7986,892.518 z" id="boundary" inkscape:connector-curvature="0" />
	<path style="fill:none;stroke:red;stroke-width:1px;stroke-linecap:butt;stroke-linejoin:miter;stroke-opacity:1" d="M 57.5252,794.388 75.3669,797.957 z" id="boundary" inkscape:connector-curvature="0" />
	<path style="fill:none;stroke:red;stroke-width:1px;stroke-linecap:butt;stroke-linejoin:miter;stroke-opacity:1" d="M 57.5252,831.856 66.446,847.914 z" id="boundary" inkscape:connector-curvature="0" />
	<path style="fill:none;stroke:red;stroke-width:1px;stroke-linecap:butt;stroke-linejoin:miter;stroke-opacity:1" d="M 66.446,847.914 70.0144,865.755 z" id="boundary" inkscape:connector-curvature="0" />
	<path style="fill:none;stroke:red;stroke-width:1px;stroke-linecap:butt;stroke-linejoin:miter;stroke-opacity:1" d="M 66.446,992.432 80.7194,981.727 z" id="boundary" inkscape:connector-curvature="0" />
	<path style="fill:none;stroke:red;stroke-width:1px;stroke-linecap:butt;stroke-linejoin:miter;stroke-opacity:1" d="M 70.0144,865.755 71.7986,892.518 z" id="boundary" inkscape:connector-curvature="0" />
	<path style="fill:none;stroke:red;stroke-width:1px;stroke-linecap:butt;stroke-linejoin:miter;stroke-opacity:1" d="M 75.3669,797.957 91.4245,806.878 z" id="boundary" inkscape:connector-curvature="0" />
	<path style="fill:none;stroke:red;stroke-width:1px;stroke-linecap:butt;stroke-linejoin:miter;stroke-opacity:1" d="M 80.7194,981.727 94.9928,965.669 z" id="boundary" inkscape:connector-curvature="0" />
	<path style="fill:none;stroke:red;stroke-width:1px;stroke-linecap:butt;stroke-linejoin:miter;stroke-opacity:1" d="M 91.4245,806.878 109.266,812.23 z" id="boundary" inkscape:connector-curvature="0" />
	<path style="fill:none;stroke:red;stroke-width:1px;stroke-linecap:butt;stroke-linejoin:miter;stroke-opacity:1" d="M 94.9928,965.669 109.266,953.18 z" id="boundary" inkscape:connector-curvature="0" />
	<path style="fill:none;stroke:red;stroke-width:1px;stroke-linecap:butt;stroke-linejoin:miter;stroke-opacity:1" d="M 109.266,812.23 125.324,821.151 z" id="boundary" inkscape:connector-curvature="0" />
	<path style="fill:none;stroke:red;stroke-width:1px;stroke-linecap:butt;stroke-linejoin:miter;stroke-opacity:1" d="M 109.266,953.18 127.108,944.259 z" id="boundary" inkscape:connector-curvature="0" />
	<path style="fill:none;stroke:red;stroke-width:1px;stroke-linecap:butt;stroke-linejoin:miter;stroke-opacity:1" d="M 125.324,821.151 137.813,799.741 z" id="boundary" inkscape:connector-curvature="0" />
	<path style="fill:none;stroke:red;stroke-width:1px;stroke-linecap:butt;stroke-linejoin:miter;stroke-opacity:1" d="M 127.108,944.259 144.95,947.827 z" id="boundary" inkscape:connector-curvature="0" />
	<path style="fill:none;stroke:red;stroke-width:1px;stroke-linecap:butt;stroke-linejoin:miter;stroke-opacity:1" d="M 137.813,799.741 152.086,785.468 z" id="boundary" inkscape:connector-curvature="0" />
	<path style="fill:none;stroke:red;stroke-width:1px;stroke-linecap:butt;stroke-linejoin:miter;stroke-opacity:1" d="M 144.95,947.827 161.007,956.748 z" id="boundary" inkscape:connector-curvature="0" />
	<path style="fill:none;stroke:red;stroke-width:1px;stroke-linecap:butt;stroke-linejoin:miter;stroke-opacity:1" d="M 152.086,785.468 164.576,764.058 z" id="boundary" inkscape:connector-curvature="0" />
	<path style="fill:none;stroke:red;stroke-width:1px;stroke-linecap:butt;stroke-linejoin:miter;stroke-opacity:1" d="M 161.007,956.748 178.849,963.885 z" id="boundary" inkscape:connector-curvature="0" />
	<path style="fill:none;stroke:red;stroke-width:1px;stroke-linecap:butt;stroke-linejoin:miter;stroke-opacity:1" d="M 164.576,764.058 173.496,746.216 z" id="boundary" inkscape:connector-curvature="0" />
	<path style="fill:none;stroke:red;stroke-width:1px;stroke-linecap:butt;stroke-linejoin:miter;stroke-opacity:1" d="M 173.496,746.216 187.77,731.942 z" id="boundary" inkscape:connector-curvature="0" />
	<path style="fill:none;stroke:red;stroke-width:1px;stroke-linecap:butt;stroke-linejoin:miter;stroke-opacity:1" d="M 178.849,963.885 193.122,974.59 z" id="boundary" inkscape:connector-curvature="0" />
	<path style="fill:none;stroke:red;stroke-width:1px;stroke-linecap:butt;stroke-linejoin:miter;stroke-opacity:1" d="M 187.77,731.942 196.691,714.101 z" id="boundary" inkscape:connector-curvature="0" />
	<path style="fill:none;stroke:red;stroke-width:1px;stroke-linecap:butt;stroke-linejoin:miter;stroke-opacity:1" d="M 193.122,876.46 202.043,858.619 z" id="boundary" inkscape:connector-curvature="0" />
	<path style="fill:none;stroke:red;stroke-width:1px;stroke-linecap:butt;stroke-linejoin:miter;stroke-opacity:1" d="M 193.122,876.46 202.043,892.518 z" id="boundary" inkscape:connector-curvature="0" />
	<path style="fill:none;stroke:red;stroke-width:1px;stroke-linecap:butt;stroke-linejoin:miter;stroke-opacity:1" d="M 193.122,974.59 210.964,974.59 z" id="boundary" inkscape:connector-curvature="0" />
	<path style="fill:none;stroke:red;stroke-width:1px;stroke-linecap:butt;stroke-linejoin:miter;stroke-opacity:1" d="M 196.691,714.101 205.612,696.259 z" id="boundary" inkscape:connector-curvature="0" />
	<path style="fill:none;stroke:red;stroke-width:1px;stroke-linecap:butt;stroke-linejoin:miter;stroke-opacity:1" d="M 202.043,858.619 210.964,840.777 z" id="boundary" inkscape:connector-curvature="0" />
	<path style="fill:none;stroke:red;stroke-width:1px;stroke-linecap:butt;stroke-linejoin:miter;stroke-opacity:1" d="M 202.043,892.518 202.043,910.36 z" id="boundary" inkscape:connector-curvature="0" />
	<path style="fill:none;stroke:red;stroke-width:1px;stroke-linecap:butt;stroke-linejoin:miter;stroke-opacity:1" d="M 202.043,910.36 210.964,926.417 z" id="boundary" inkscape:connector-curvature="0" />
	<path style="fill:none;stroke:red;stroke-width:1px;stroke-linecap:butt;stroke-linejoin:miter;stroke-opacity:1" d="M 205.612,696.259 218.101,674.849 z" id="boundary" inkscape:connector-curvature="0" />
	<path style="fill:none;stroke:red;stroke-width:1px;stroke-linecap:butt;stroke-linejoin:miter;stroke-opacity:1" d="M 210.964,840.777 225.237,828.288 z" id="boundary" inkscape:connector-curvature="0" />
	<path style="fill:none;stroke:red;stroke-width:1px;stroke-linecap:butt;stroke-linejoin:miter;stroke-opacity:1" d="M 210.964,926.417 210.964,944.259 z" id="boundary" inkscape:connector-curvature="0" />
	<path style="fill:none;stroke:red;stroke-width:1px;stroke-linecap:butt;stroke-linejoin:miter;stroke-opacity:1" d="M 210.964,944.259 210.964,974.59 z" id="boundary" inkscape:connector-curvature="0" />
	<path style="fill:none;stroke:red;stroke-width:1px;stroke-linecap:butt;stroke-linejoin:miter;stroke-opacity:1" d="M 218.101,674.849 232.374,660.576 z" id="boundary" inkscape:connector-curvature="0" />
	<path style="fill:none;stroke:red;stroke-width:1px;stroke-linecap:butt;stroke-linejoin:miter;stroke-opacity:1" d="M 225.237,828.288 234.158,810.446 z" id="boundary" inkscape:connector-curvature="0" />
	<path style="fill:none;stroke:red;stroke-width:1px;stroke-linecap:butt;stroke-linejoin:miter;stroke-opacity:1" d="M 232.374,660.576 244.863,639.165 z" id="boundary" inkscape:connector-curvature="0" />
	<path style="fill:none;stroke:red;stroke-width:1px;stroke-linecap:butt;stroke-linejoin:miter;stroke-opacity:1" d="M 234.158,810.446 246.647,796.173 z" id="boundary" inkscape:connector-curvature="0" />
	<path style="fill:none;stroke:red;stroke-width:1px;stroke-linecap:butt;stroke-linejoin:miter;stroke-opacity:1" d="M 244.863,639.165 259.137,624.892 z" id="boundary" inkscape:connector-curvature="0" />
	<path style="fill:none;stroke:red;stroke-width:1px;stroke-linecap:butt;stroke-linejoin:miter;stroke-opacity:1" d="M 246.647,796.173 255.568,778.331 z" id="boundary" inkscape:connector-curvature="0" />
	<path style="fill:none;stroke:red;stroke-width:1px;stroke-linecap:butt;stroke-linejoin:miter;stroke-opacity:1" d="M 255.568,778.331 264.489,760.489 z" id="boundary" inkscape:connector-curvature="0" />
	<path style="fill:none;stroke:red;stroke-width:1px;stroke-linecap:butt;stroke-linejoin:miter;stroke-opacity:1" d="M 259.137,624.892 268.058,607.05 z" id="boundary" inkscape:connector-curvature="0" />
	<path style="fill:none;stroke:red;stroke-width:1px;stroke-linecap:butt;stroke-linejoin:miter;stroke-opacity:1" d="M 264.489,760.489 278.763,748 z" id="boundary" inkscape:connector-curvature="0" />
	<path style="fill:none;stroke:red;stroke-width:1px;stroke-linecap:butt;stroke-linejoin:miter;stroke-opacity:1" d="M 268.058,607.05 276.978,589.209 z" id="boundary" inkscape:connector-curvature="0" />
	<path style="fill:none;stroke:red;stroke-width:1px;stroke-linecap:butt;stroke-linejoin:miter;stroke-opacity:1" d="M 276.978,589.209 289.468,567.799 z" id="boundary" inkscape:connector-curvature="0" />
	<path style="fill:none;stroke:red;stroke-width:1px;stroke-linecap:butt;stroke-linejoin:miter;stroke-opacity:1" d="M 278.763,748 287.683,730.158 z" id="boundary" inkscape:connector-curvature="0" />
	<path style="fill:none;stroke:red;stroke-width:1px;stroke-linecap:butt;stroke-linejoin:miter;stroke-opacity:1" d="M 287.683,730.158 300.173,715.885 z" id="boundary" inkscape:connector-curvature="0" />
	<path style="fill:none;stroke:red;stroke-width:1px;stroke-linecap:butt;stroke-linejoin:miter;stroke-opacity:1" d="M 289.468,567.799 298.388,549.957 z" id="boundary" inkscape:connector-curvature="0" />
	<path style="fill:none;stroke:red;stroke-width:1px;stroke-linecap:butt;stroke-linejoin:miter;stroke-opacity:1" d="M 298.388,549.957 312.662,535.683 z" id="boundary" inkscape:connector-curvature="0" />
	<path style="fill:none;stroke:red;stroke-width:1px;stroke-linecap:butt;stroke-linejoin:miter;stroke-opacity:1" d="M 300.173,715.885 309.094,698.043 z" id="boundary" inkscape:connector-curvature="0" />
	<path style="fill:none;stroke:red;stroke-width:1px;stroke-linecap:butt;stroke-linejoin:miter;stroke-opacity:1" d="M 309.094,698.043 323.367,685.554 z" id="boundary" inkscape:connector-curvature="0" />
	<path style="fill:none;stroke:red;stroke-width:1px;stroke-linecap:butt;stroke-linejoin:miter;stroke-opacity:1" d="M 312.662,535.683 321.583,517.842 z" id="boundary" inkscape:connector-curvature="0" />
	<path style="fill:none;stroke:red;stroke-width:1px;stroke-linecap:butt;stroke-linejoin:miter;stroke-opacity:1" d="M 321.583,517.842 334.072,496.432 z" id="boundary" inkscape:connector-curvature="0" />
	<path style="fill:none;stroke:red;stroke-width:1px;stroke-linecap:butt;stroke-linejoin:miter;stroke-opacity:1" d="M 323.367,685.554 332.288,667.712 z" id="boundary" inkscape:connector-curvature="0" />
	<path style="fill:none;stroke:red;stroke-width:1px;stroke-linecap:butt;stroke-linejoin:miter;stroke-opacity:1" d="M 332.288,667.712 344.777,644.518 z" id="boundary" inkscape:connector-curvature="0" />
	<path style="fill:none;stroke:red;stroke-width:1px;stroke-linecap:butt;stroke-linejoin:miter;stroke-opacity:1" d="M 334.072,496.432 342.993,478.59 z" id="boundary" inkscape:connector-curvature="0" />
	<path style="fill:none;stroke:red;stroke-width:1px;stroke-linecap:butt;stroke-linejoin:miter;stroke-opacity:1" d="M 342.993,478.59 357.266,464.317 z" id="boundary" inkscape:connector-curvature="0" />
	<path style="fill:none;stroke:red;stroke-width:1px;stroke-linecap:butt;stroke-linejoin:miter;stroke-opacity:1" d="M 344.777,644.518 353.698,626.676 z" id="boundary" inkscape:connector-curvature="0" />
	<path style="fill:none;stroke:red;stroke-width:1px;stroke-linecap:butt;stroke-linejoin:miter;stroke-opacity:1" d="M 353.698,626.676 367.971,614.187 z" id="boundary" inkscape:connector-curvature="0" />
	<path style="fill:none;stroke:red;stroke-width:1px;stroke-linecap:butt;stroke-linejoin:miter;stroke-opacity:1" d="M 357.266,464.317 366.187,446.475 z" id="boundary" inkscape:connector-curvature="0" />
	<path style="fill:none;stroke:red;stroke-width:1px;stroke-linecap:butt;stroke-linejoin:miter;stroke-opacity:1" d="M 366.187,446.475 375.108,428.633 z" id="boundary" inkscape:connector-curvature="0" />
	<path style="fill:none;stroke:red;stroke-width:1px;stroke-linecap:butt;stroke-linejoin:miter;stroke-opacity:1" d="M 367.971,614.187 380.46,590.993 z" id="boundary" inkscape:connector-curvature="0" />
	<path style="fill:none;stroke:red;stroke-width:1px;stroke-linecap:butt;stroke-linejoin:miter;stroke-opacity:1" d="M 375.108,428.633 389.381,414.36 z" id="boundary" inkscape:connector-curvature="0" />
	<path style="fill:none;stroke:red;stroke-width:1px;stroke-linecap:butt;stroke-linejoin:miter;stroke-opacity:1" d="M 380.46,590.993 394.734,578.504 z" id="boundary" inkscape:connector-curvature="0" />
	<path style="fill:none;stroke:red;stroke-width:1px;stroke-linecap:butt;stroke-linejoin:miter;stroke-opacity:1" d="M 389.381,414.36 403.655,401.871 z" id="boundary" inkscape:connector-curvature="0" />
	<path style="fill:none;stroke:red;stroke-width:1px;stroke-linecap:butt;stroke-linejoin:miter;stroke-opacity:1" d="M 394.734,578.504 403.655,560.662 z" id="boundary" inkscape:connector-curvature="0" />
	<path style="fill:none;stroke:red;stroke-width:1px;stroke-linecap:butt;stroke-linejoin:miter;stroke-opacity:1" d="M 403.655,401.871 410.791,384.029 z" id="boundary" inkscape:connector-curvature="0" />
	<path style="fill:none;stroke:red;stroke-width:1px;stroke-linecap:butt;stroke-linejoin:miter;stroke-opacity:1" d="M 403.655,560.662 412.576,542.82 z" id="boundary" inkscape:connector-curvature="0" />
	<path style="fill:none;stroke:red;stroke-width:1px;stroke-linecap:butt;stroke-linejoin:miter;stroke-opacity:1" d="M 410.791,384.029 419.712,366.187 z" id="boundary" inkscape:connector-curvature="0" />
	<path style="fill:none;stroke:red;stroke-width:1px;stroke-linecap:butt;stroke-linejoin:miter;stroke-opacity:1" d="M 412.576,542.82 425.065,528.547 z" id="boundary" inkscape:connector-curvature="0" />
	<path style="fill:none;stroke:red;stroke-width:1px;stroke-linecap:butt;stroke-linejoin:miter;stroke-opacity:1" d="M 419.712,366.187 432.201,344.777 z" id="boundary" inkscape:connector-curvature="0" />
	<path style="fill:none;stroke:red;stroke-width:1px;stroke-linecap:butt;stroke-linejoin:miter;stroke-opacity:1" d="M 425.065,528.547 439.338,516.058 z" id="boundary" inkscape:connector-curvature="0" />
	<path style="fill:none;stroke:red;stroke-width:1px;stroke-linecap:butt;stroke-linejoin:miter;stroke-opacity:1" d="M 432.201,344.777 441.122,326.935 z" id="boundary" inkscape:connector-curvature="0" />
	<path style="fill:none;stroke:red;stroke-width:1px;stroke-linecap:butt;stroke-linejoin:miter;stroke-opacity:1" d="M 439.338,516.058 448.259,498.216 z" id="boundary" inkscape:connector-curvature="0" />
	<path style="fill:none;stroke:red;stroke-width:1px;stroke-linecap:butt;stroke-linejoin:miter;stroke-opacity:1" d="M 441.122,326.935 455.396,312.662 z" id="boundary" inkscape:connector-curvature="0" />
	<path style="fill:none;stroke:red;stroke-width:1px;stroke-linecap:butt;stroke-linejoin:miter;stroke-opacity:1" d="M 448.259,498.216 457.18,480.374 z" id="boundary" inkscape:connector-curvature="0" />
	<path style="fill:none;stroke:red;stroke-width:1px;stroke-linecap:butt;stroke-linejoin:miter;stroke-opacity:1" d="M 455.396,312.662 464.317,294.82 z" id="boundary" inkscape:connector-curvature="0" />
	<path style="fill:none;stroke:red;stroke-width:1px;stroke-linecap:butt;stroke-linejoin:miter;stroke-opacity:1" d="M 457.18,480.374 469.669,466.101 z" id="boundary" inkscape:connector-curvature="0" />
	<path style="fill:none;stroke:red;stroke-width:1px;stroke-linecap:butt;stroke-linejoin:miter;stroke-opacity:1" d="M 464.317,294.82 473.237,276.978 z" id="boundary" inkscape:connector-curvature="0" />
	<path style="fill:none;stroke:red;stroke-width:1px;stroke-linecap:butt;stroke-linejoin:miter;stroke-opacity:1" d="M 469.669,466.101 478.59,448.259 z" id="boundary" inkscape:connector-curvature="0" />
	<path style="fill:none;stroke:red;stroke-width:1px;stroke-linecap:butt;stroke-linejoin:miter;stroke-opacity:1" d="M 473.237,276.978 487.511,262.705 z" id="boundary" inkscape:connector-curvature="0" />
	<path style="fill:none;stroke:red;stroke-width:1px;stroke-linecap:butt;stroke-linejoin:miter;stroke-opacity:1" d="M 478.59,448.259 487.511,430.417 z" id="boundary" inkscape:connector-curvature="0" />
	<path style="fill:none;stroke:red;stroke-width:1px;stroke-linecap:butt;stroke-linejoin:miter;stroke-opacity:1" d="M 487.511,262.705 496.432,244.863 z" id="boundary" inkscape:connector-curvature="0" />
	<path style="fill:none;stroke:red;stroke-width:1px;stroke-linecap:butt;stroke-linejoin:miter;stroke-opacity:1" d="M 487.511,430.417 501.784,417.928 z" id="boundary" inkscape:connector-curvature="0" />
	<path style="fill:none;stroke:red;stroke-width:1px;stroke-linecap:butt;stroke-linejoin:miter;stroke-opacity:1" d="M 494.647,86.0719 494.647,103.914 z" id="boundary" inkscape:connector-curvature="0" />
	<path style="fill:none;stroke:red;stroke-width:1px;stroke-linecap:butt;stroke-linejoin:miter;stroke-opacity:1" d="M 494.647,86.0719 512.489,89.6403 z" id="boundary" inkscape:connector-curvature="0" />
	<path style="fill:none;stroke:red;stroke-width:1px;stroke-linecap:butt;stroke-linejoin:miter;stroke-opacity:1" d="M 494.647,103.914 503.568,119.971 z" id="boundary" inkscape:connector-curvature="0" />
	<path style="fill:none;stroke:red;stroke-width:1px;stroke-linecap:butt;stroke-linejoin:miter;stroke-opacity:1" d="M 496.432,244.863 505.353,227.022 z" id="boundary" inkscape:connector-curvature="0" />
	<path style="fill:none;stroke:red;stroke-width:1px;stroke-linecap:butt;stroke-linejoin:miter;stroke-opacity:1" d="M 501.784,417.928 510.705,400.086 z" id="boundary" inkscape:connector-curvature="0" />
	<path style="fill:none;stroke:red;stroke-width:1px;stroke-linecap:butt;stroke-linejoin:miter;stroke-opacity:1" d="M 503.568,119.971 512.489,136.029 z" id="boundary" inkscape:connector-curvature="0" />
	<path style="fill:none;stroke:red;stroke-width:1px;stroke-linecap:butt;stroke-linejoin:miter;stroke-opacity:1" d="M 505.353,227.022 519.626,214.532 z" id="boundary" inkscape:connector-curvature="0" />
	<path style="fill:none;stroke:red;stroke-width:1px;stroke-linecap:butt;stroke-linejoin:miter;stroke-opacity:1" d="M 510.705,400.086 523.194,385.813 z" id="boundary" inkscape:connector-curvature="0" />
	<path style="fill:none;stroke:red;stroke-width:1px;stroke-linecap:butt;stroke-linejoin:miter;stroke-opacity:1" d="M 512.489,89.6403 528.547,98.5612 z" id="boundary" inkscape:connector-curvature="0" />
	<path style="fill:none;stroke:red;stroke-width:1px;stroke-linecap:butt;stroke-linejoin:miter;stroke-opacity:1" d="M 512.489,136.029 517.842,153.871 z" id="boundary" inkscape:connector-curvature="0" />
	<path style="fill:none;stroke:red;stroke-width:1px;stroke-linecap:butt;stroke-linejoin:miter;stroke-opacity:1" d="M 517.842,153.871 521.41,171.712 z" id="boundary" inkscape:connector-curvature="0" />
	<path style="fill:none;stroke:red;stroke-width:1px;stroke-linecap:butt;stroke-linejoin:miter;stroke-opacity:1" d="M 519.626,214.532 521.41,189.554 z" id="boundary" inkscape:connector-curvature="0" />
	<path style="fill:none;stroke:red;stroke-width:1px;stroke-linecap:butt;stroke-linejoin:miter;stroke-opacity:1" d="M 521.41,171.712 521.41,189.554 z" id="boundary" inkscape:connector-curvature="0" />
	<path style="fill:none;stroke:red;stroke-width:1px;stroke-linecap:butt;stroke-linejoin:miter;stroke-opacity:1" d="M 523.194,385.813 532.115,367.971 z" id="boundary" inkscape:connector-curvature="0" />
	<path style="fill:none;stroke:red;stroke-width:1px;stroke-linecap:butt;stroke-linejoin:miter;stroke-opacity:1" d="M 528.547,98.5612 546.388,100.345 z" id="boundary" inkscape:connector-curvature="0" />
	<path style="fill:none;stroke:red;stroke-width:1px;stroke-linecap:butt;stroke-linejoin:miter;stroke-opacity:1" d="M 532.115,367.971 541.036,350.129 z" id="boundary" inkscape:connector-curvature="0" />
	<path style="fill:none;stroke:red;stroke-width:1px;stroke-linecap:butt;stroke-linejoin:miter;stroke-opacity:1" d="M 541.036,350.129 555.309,337.64 z" id="boundary" inkscape:connector-curvature="0" />
	<path style="fill:none;stroke:red;stroke-width:1px;stroke-linecap:butt;stroke-linejoin:miter;stroke-opacity:1" d="M 546.388,100.345 562.446,109.266 z" id="boundary" inkscape:connector-curvature="0" />
	<path style="fill:none;stroke:red;stroke-width:1px;stroke-linecap:butt;stroke-linejoin:miter;stroke-opacity:1" d="M 555.309,337.64 567.799,314.446 z" id="boundary" inkscape:connector-curvature="0" />
	<path style="fill:none;stroke:red;stroke-width:1px;stroke-linecap:butt;stroke-linejoin:miter;stroke-opacity:1" d="M 562.446,109.266 576.719,121.755 z" id="boundary" inkscape:connector-curvature="0" />
	<path style="fill:none;stroke:red;stroke-width:1px;stroke-linecap:butt;stroke-linejoin:miter;stroke-opacity:1" d="M 567.799,314.446 576.719,296.604 z" id="boundary" inkscape:connector-curvature="0" />
	<path style="fill:none;stroke:red;stroke-width:1px;stroke-linecap:butt;stroke-linejoin:miter;stroke-opacity:1" d="M 576.719,121.755 594.561,119.971 z" id="boundary" inkscape:connector-curvature="0" />
	<path style="fill:none;stroke:red;stroke-width:1px;stroke-linecap:butt;stroke-linejoin:miter;stroke-opacity:1" d="M 576.719,296.604 590.993,284.115 z" id="boundary" inkscape:connector-curvature="0" />
	<path style="fill:none;stroke:red;stroke-width:1px;stroke-linecap:butt;stroke-linejoin:miter;stroke-opacity:1" d="M 590.993,284.115 603.482,260.921 z" id="boundary" inkscape:connector-curvature="0" />
	<path style="fill:none;stroke:red;stroke-width:1px;stroke-linecap:butt;stroke-linejoin:miter;stroke-opacity:1" d="M 594.561,119.971 608.835,107.482 z" id="boundary" inkscape:connector-curvature="0" />
	<path style="fill:none;stroke:red;stroke-width:1px;stroke-linecap:butt;stroke-linejoin:miter;stroke-opacity:1" d="M 603.482,260.921 612.403,243.079 z" id="boundary" inkscape:connector-curvature="0" />
	<path style="fill:none;stroke:red;stroke-width:1px;stroke-linecap:butt;stroke-linejoin:miter;stroke-opacity:1" d="M 608.835,107.482 615.971,89.6403 z" id="boundary" inkscape:connector-curvature="0" />
	<path style="fill:none;stroke:red;stroke-width:1px;stroke-linecap:butt;stroke-linejoin:miter;stroke-opacity:1" d="M 612.403,243.079 628.46,234.158 z" id="boundary" inkscape:connector-curvature="0" />
	<path style="fill:none;stroke:red;stroke-width:1px;stroke-linecap:butt;stroke-linejoin:miter;stroke-opacity:1" d="M 615.971,89.6403 619.54,68.2302 z" id="boundary" inkscape:connector-curvature="0" />
	<path style="fill:none;stroke:red;stroke-width:1px;stroke-linecap:butt;stroke-linejoin:miter;stroke-opacity:1" d="M 619.54,68.2302 628.46,50.3885 z" id="boundary" inkscape:connector-curvature="0" />
	<path style="fill:none;stroke:red;stroke-width:1px;stroke-linecap:butt;stroke-linejoin:miter;stroke-opacity:1" d="M 628.46,50.3885 637.381,23.6259 z" id="boundary" inkscape:connector-curvature="0" />
	<path style="fill:none;stroke:red;stroke-width:1px;stroke-linecap:butt;stroke-linejoin:miter;stroke-opacity:1" d="M 628.46,234.158 644.518,243.079 z" id="boundary" inkscape:connector-curvature="0" />
	<path style="fill:none;stroke:red;stroke-width:1px;stroke-linecap:butt;stroke-linejoin:miter;stroke-opacity:1" d="M 637.381,23.6259 646.302,5.78417 z" id="boundary" inkscape:connector-curvature="0" />
	<path style="fill:none;stroke:red;stroke-width:1px;stroke-linecap:butt;stroke-linejoin:miter;stroke-opacity:1" d="M 644.518,243.079 662.36,243.079 z" id="boundary" inkscape:connector-curvature="0" />
	<path style="fill:none;stroke:red;stroke-width:1px;stroke-linecap:butt;stroke-linejoin:miter;stroke-opacity:1" d="M 646.302,5.78417 664.144,4 z" id="boundary" inkscape:connector-curvature="0" />
	<path style="fill:none;stroke:red;stroke-width:1px;stroke-linecap:butt;stroke-linejoin:miter;stroke-opacity:1" d="M 662.36,243.079 678.417,252 z" id="boundary" inkscape:connector-curvature="0" />
	<path style="fill:none;stroke:red;stroke-width:1px;stroke-linecap:butt;stroke-linejoin:miter;stroke-opacity:1" d="M 664.144,4 665.928,21.8417 z" id="boundary" inkscape:connector-curvature="0" />
	<path style="fill:none;stroke:red;stroke-width:1px;stroke-linecap:butt;stroke-linejoin:miter;stroke-opacity:1" d="M 665.928,21.8417 674.849,37.8993 z" id="boundary" inkscape:connector-curvature="0" />
	<path style="fill:none;stroke:red;stroke-width:1px;stroke-linecap:butt;stroke-linejoin:miter;stroke-opacity:1" d="M 674.849,37.8993 683.77,53.9568 z" id="boundary" inkscape:connector-curvature="0" />
	<path style="fill:none;stroke:red;stroke-width:1px;stroke-linecap:butt;stroke-linejoin:miter;stroke-opacity:1" d="M 678.417,252 696.259,252 z" id="boundary" inkscape:connector-curvature="0" />
	<path style="fill:none;stroke:red;stroke-width:1px;stroke-linecap:butt;stroke-linejoin:miter;stroke-opacity:1" d="M 683.77,53.9568 698.043,64.6619 z" id="boundary" inkscape:connector-curvature="0" />
	<path style="fill:none;stroke:red;stroke-width:1px;stroke-linecap:butt;stroke-linejoin:miter;stroke-opacity:1" d="M 696.259,252 714.101,259.137 z" id="boundary" inkscape:connector-curvature="0" />
	<path style="fill:none;stroke:red;stroke-width:1px;stroke-linecap:butt;stroke-linejoin:miter;stroke-opacity:1" d="M 698.043,64.6619 715.885,71.7986 z" id="boundary" inkscape:connector-curvature="0" />
	<path style="fill:none;stroke:red;stroke-width:1px;stroke-linecap:butt;stroke-linejoin:miter;stroke-opacity:1" d="M 714.101,259.137 731.942,259.137 z" id="boundary" inkscape:connector-curvature="0" />
	<path style="fill:none;stroke:red;stroke-width:1px;stroke-linecap:butt;stroke-linejoin:miter;stroke-opacity:1" d="M 715.885,71.7986 731.942,80.7194 z" id="boundary" inkscape:connector-curvature="0" />
	<path style="fill:none;stroke:red;stroke-width:1px;stroke-linecap:butt;stroke-linejoin:miter;stroke-opacity:1" d="M 719.453,189.554 719.453,207.396 z" id="boundary" inkscape:connector-curvature="0" />
	<path style="fill:none;stroke:red;stroke-width:1px;stroke-linecap:butt;stroke-linejoin:miter;stroke-opacity:1" d="M 719.453,189.554 728.374,171.712 z" id="boundary" inkscape:connector-curvature="0" />
	<path style="fill:none;stroke:red;stroke-width:1px;stroke-linecap:butt;stroke-linejoin:miter;stroke-opacity:1" d="M 719.453,207.396 723.022,225.237 z" id="boundary" inkscape:connector-curvature="0" />
	<path style="fill:none;stroke:red;stroke-width:1px;stroke-linecap:butt;stroke-linejoin:miter;stroke-opacity:1" d="M 723.022,225.237 737.295,237.727 z" id="boundary" inkscape:connector-curvature="0" />
	<path style="fill:none;stroke:red;stroke-width:1px;stroke-linecap:butt;stroke-linejoin:miter;stroke-opacity:1" d="M 728.374,171.712 742.647,159.223 z" id="boundary" inkscape:connector-curvature="0" />
	<path style="fill:none;stroke:red;stroke-width:1px;stroke-linecap:butt;stroke-linejoin:miter;stroke-opacity:1" d="M 731.942,80.7194 749.784,80.7194 z" id="boundary" inkscape:connector-curvature="0" />
	<path style="fill:none;stroke:red;stroke-width:1px;stroke-linecap:butt;stroke-linejoin:miter;stroke-opacity:1" d="M 731.942,259.137 737.295,237.727 z" id="boundary" inkscape:connector-curvature="0" />
	<path style="fill:none;stroke:red;stroke-width:1px;stroke-linecap:butt;stroke-linejoin:miter;stroke-opacity:1" d="M 742.647,159.223 751.568,141.381 z" id="boundary" inkscape:connector-curvature="0" />
	<path style="fill:none;stroke:red;stroke-width:1px;stroke-linecap:butt;stroke-linejoin:miter;stroke-opacity:1" d="M 749.784,80.7194 765.842,89.6403 z" id="boundary" inkscape:connector-curvature="0" />
	<path style="fill:none;stroke:red;stroke-width:1px;stroke-linecap:butt;stroke-linejoin:miter;stroke-opacity:1" d="M 751.568,141.381 760.489,123.54 z" id="boundary" inkscape:connector-curvature="0" />
	<path style="fill:none;stroke:red;stroke-width:1px;stroke-linecap:butt;stroke-linejoin:miter;stroke-opacity:1" d="M 760.489,123.54 769.41,107.482 z" id="boundary" inkscape:connector-curvature="0" />
	<path style="fill:none;stroke:red;stroke-width:1px;stroke-linecap:butt;stroke-linejoin:miter;stroke-opacity:1" d="M 765.842,89.6403 769.41,107.482 z" id="boundary" inkscape:connector-curvature="0" />
	<circle cx="4" cy="924.633" r="4" fill="#0" id="circle0"/>
	<circle cx="18.2734" cy="910.36" r="4" fill="#0" id="circle1"/>
	<circle cx="18.2734" cy="937.122" r="4" fill="#0" id="circle2"/>
	<circle cx="36.1151" cy="901.439" r="4" fill="#0" id="circle3"/>
	<circle cx="36.1151" cy="938.906" r="4" fill="#0" id="circle4"/>
	<circle cx="39.6835" cy="799.741" r="4" fill="#0" id="circle5"/>
	<circle cx="48.6043" cy="815.799" r="4" fill="#0" id="circle6"/>
	<circle cx="48.6043" cy="978.158" r="4" fill="#0" id="circle7"/>
	<circle cx="48.6043" cy="996" r="4" fill="#0" id="circle8"/>
	<circle cx="53.9568" cy="892.518" r="4" fill="#0" id="circle9"/>
	<circle cx="53.9568" cy="946.043" r="4" fill="#0" id="circle10"/>
	<circle cx="57.5252" cy="794.388" r="4" fill="#0" id="circle11"/>
	<circle cx="57.5252" cy="831.856" r="4" fill="#0" id="circle12"/>
	<circle cx="66.446" cy="847.914" r="4" fill="#0" id="circle13"/>
	<circle cx="66.446" cy="992.432" r="4" fill="#0" id="circle14"/>
	<circle cx="70.0144" cy="865.755" r="4" fill="#0" id="circle15"/>
	<circle cx="71.7986" cy="892.518" r="4" fill="#0" id="circle16"/>
	<circle cx="75.3669" cy="797.957" r="4" fill="#0" id="circle17"/>
	<circle cx="80.7194" cy="981.727" r="4" fill="#0" id="circle18"/>
	<circle cx="91.4245" cy="806.878" r="4" fill="#0" id="circle19"/>
	<circle cx="94.9928" cy="965.669" r="4" fill="#0" id="circle20"/>
	<circle cx="109.266" cy="812.23" r="4" fill="#0" id="circle21"/>
	<circle cx="109.266" cy="953.18" r="4" fill="#0" id="circle22"/>
	<circle cx="125.324" cy="821.151" r="4" fill="#0" id="circle23"/>
	<circle cx="127.108" cy="944.259" r="4" fill="#0" id="circle24"/>
	<circle cx="137.813" cy="799.741" r="4" fill="#0" id="circle25"/>
	<circle cx="144.95" cy="947.827" r="4" fill="#0" id="circle26"/>
	<circle cx="152.086" cy="785.468" r="4" fill="#0" id="circle27"/>
	<circle cx="161.007" cy="956.748" r="4" fill="#0" id="circle28"/>
	<circle cx="164.576" cy="764.058" r="4" fill="#0" id="circle29"/>
	<circle cx="173.496" cy="746.216" r="4" fill="#0" id="circle30"/>
	<circle cx="178.849" cy="963.885" r="4" fill="#0" id="circle31"/>
	<circle cx="187.77" cy="731.942" r="4" fill="#0" id="circle32"/>
	<circle cx="193.122" cy="876.46" r="4" fill="#0" id="circle33"/>
	<circle cx="193.122" cy="974.59" r="4" fill="#0" id="circle34"/>
	<circle cx="196.691" cy="714.101" r="4" fill="#0" id="circle35"/>
	<circle cx="202.043" cy="858.619" r="4" fill="#0" id="circle36"/>
	<circle cx="202.043" cy="892.518" r="4" fill="#0" id="circle37"/>
	<circle cx="202.043" cy="910.36" r="4" fill="#0" id="circle38"/>
	<circle cx="205.612" cy="696.259" r="4" fill="#0" id="circle39"/>
	<circle cx="210.964" cy="840.777" r="4" fill="#0" id="circle40"/>
	<circle cx="210.964" cy="926.417" r="4" fill="#0" id="circle41"/>
	<circle cx="210.964" cy="944.259" r="4" fill="#0" id="circle42"/>
	<circle cx="210.964" cy="974.59" r="4" fill="#0" id="circle43"/>
	<circle cx="218.101" cy="674.849" r="4" fill="#0" id="circle44"/>
	<circle cx="225.237" cy="828.288" r="4" fill="#0" id="circle45"/>
	<circle cx="232.374" cy="660.576" r="4" fill="#0" id="circle46"/>
	<circle cx="234.158" cy="810.446" r="4" fill="#0" id="circle47"/>
	<circle cx="244.863" cy="639.165" r="4" fill="#0" id="circle48"/>
	<circle cx="246.647" cy="796.173" r="4" fill="#0" id="circle49"/>
	<circle cx="255.568" cy="778.331" r="4" fill="#0" id="circle50"/>
	<circle cx="259.137" cy="624.892" r="4" fill="#0" id="circle51"/>
	<circle cx="264.489" cy="760.489" r="4" fill="#0" id="circle52"/>
	<circle cx="268.058" cy="607.05" r="4" fill="#0" id="circle53"/>
	<circle cx="276.978" cy="589.209" r="4" fill="#0" id="circle54"/>
	<circle cx="278.763" cy="748" r="4" fill="#0" id="circle55"/>
	<circle cx="287.683" cy="730.158" r="4" fill="#0" id="circle56"/>
	<circle cx="289.468" cy="567.799" r="4" fill="#0" id="circle57"/>
	<circle cx="298.388" cy="549.957" r="4" fill="#0" id="circle58"/>
	<circle cx="300.173" cy="715.885" r="4" fill="#0" id="circle59"/>
	<circle cx="309.094" cy="698.043" r="4" fill="#0" id="circle60"/>
	<circle cx="312.662" cy="535.683" r="4" fill="#0" id="circle61"/>
	<circle cx="321.583" cy="517.842" r="4" fill="#0" id="circle62"/>
	<circle cx="323.367" cy="685.554" r="4" fill="#0" id="circle63"/>
	<circle cx="332.288" cy="667.712" r="4" fill="#0" id="circle64"/>
	<circle cx="334.072" cy="496.432" r="4" fill="#0" id="circle65"/>
	<circle cx="342.993" cy="478.59" r="4" fill="#0" id="circle66"/>
	<circle cx="344.777" cy="644.518" r="4" fill="#0" id="circle67"/>
	<circle cx="353.698" cy="626.676" r="4" fill="#0" id="circle68"/>
	<circle cx="357.266" cy="464.317" r="4" fill="#0" id="circle69"/>
	<circle cx="366.187" cy="446.475" r="4" fill="#0" id="circle70"/>
	<circle cx="367.971" cy="614.187" r="4" fill="#0" id="circle71"/>
	<circle cx="375.108" cy="428.633" r="4" fill="#0" id="circle72"/>
	<circle cx="380.46" cy="590.993" r="4" fill="#0" id="circle73"/>
	<circle cx="389.381" cy="414.36" r="4" fill="#0" id="circle74"/>
	<circle cx="394.734" cy="578.504" r="4" fill="#0" id="circle75"/>
	<circle cx="403.655" cy="401.871" r="4" fill="#0" id="circle76"/>
	<circle cx="403.655" cy="560.662" r="4" fill="#0" id="circle77"/>
	<circle cx="410.791" cy="384.029" r="4" fill="#0" id="circle78"/>
	<circle cx="412.576" cy="542.82" r="4" fill="#0" id="circle79"/>
	<circle cx="419.712" cy="366.187" r="4" fill="#0" id="circle80"/>
	<circle cx="425.065" cy="528.547" r="4" fill="#0" id="circle81"/>
	<circle cx="432.201" cy="344.777" r="4" fill="#0" id="circle82"/>
	<circle cx="439.338" cy="516.058" r="4" fill="#0" id="circle83"/>
	<circle cx="441.122" cy="326.935" r="4" fill="#0" id="circle84"/>
	<circle cx="448.259" cy="498.216" r="4" fill="#0" id="circle85"/>
	<circle cx="455.396" cy="312.662" r="4" fill="#0" id="circle86"/>
	<circle cx="457.18" cy="480.374" r="4" fill="#0" id="circle87"/>
	<circle cx="464.317" cy="294.82" r="4" fill="#0" id="circle88"/>
	<circle cx="469.669" cy="466.101" r="4" fill="#0" id="circle89"/>
	<circle cx="473.237" cy="276.978" r="4" fill="#0" id="circle90"/>
	<circle cx="478.59" cy="448.259" r="4" fill="#0" id="circle91"/>
	<circle cx="487.511" cy="262.705" r="4" fill="#0" id="circle92"/>
	<circle cx="487.511" cy="430.417" r="4" fill="#0" id="circle93"/>
	<circle cx="494.647" cy="86.0719" r="4" fill="#0" id="circle94"/>
	<circle cx="494.647" cy="103.914" r="4" fill="#0" id="circle95"/>
	<circle cx="496.432" cy="244.863" r="4" fill="#0" id="circle96"/>
	<circle cx="501.784" cy="417.928" r="4" fill="#0" id="circle97"/>
	<circle cx="503.568" cy="119.971" r="4" fill="#0" id="circle98"/>
	<circle cx="505.353" cy="227.022" r="4" fill="#0" id="circle99"/>
	<circle cx="510.705" cy="400.086" r="4" fill="#0" id="circle100"/>
	<circle cx="512.489" cy="89.6403" r="4" fill="#0" id="circle101"/>
	<circle cx="512.489" cy="136.029" r="4" fill="#0" id="circle102"/>
	<circle cx="517.842" cy="153.871" r="4" fill="#0" id="circle103"/>
	<circle cx="519.626" cy="214.532" r="4" fill="#0" id="circle104"/>
	<circle cx="521.41" cy="171.712" r="4" fill="#0" id="circle105"/>
	<circle cx="521.41" cy="189.554" r="4" fill="#0" id="circle106"/>
	<circle cx="523.194" cy="385.813" r="4" fill="#0" id="circle107"/>
	<circle cx="528.547" cy="98.5612" r="4" fill="#0" id="circle108"/>
	<circle cx="532.115" cy="367.971" r="4" fill="#0" id="circle109"/>
	<circle cx="541.036" cy="350.129" r="4" fill="#0" id="circle110"/>
	<circle cx="546.388" cy="100.345" r="4" fill="#0" id="circle111"/>
	<circle cx="555.309" cy="337.64" r="4" fill="#0" id="circle112"/>
	<circle cx="562.446" cy="109.266" r="4" fill="#0" id="circle113"/>
	<circle cx="567.799" cy="314.446" r="4" fill="#0" id="circle114"/>
	<circle cx="576.719" cy="121.755" r="4" fill="#0" id="circle115"/>
	<circle cx="576.719" cy="296.604" r="4" fill="#0" id="circle116"/>
	<circle cx="590.993" cy="284.115" r="4" fill="#0" id="circle117"/>
	<circle cx="594.561" cy="119.971" r="4" fill="#0" id="circle118"/>
	<circle cx="603.482" cy="260.921" r="4" fill="#0" id="circle119"/>
	<circle cx="608.835" cy="107.482" r="4" fill="#0" id="circle120"/>
	<circle cx="612.403" cy="243.079" r="4" fill="#0" id="circle121"/>
	<circle cx="615.971" cy="89.6403" r="4" fill="#0" id="circle122"/>
	<circle cx="619.54" cy="68.2302" r="4" fill="#0" id="circle123"/>
	<circle cx="628.46" cy="50.3885" r="4" fill="#0" id="circle124"/>
	<circle cx="628.46" cy="234.158" r="4" fill="#0" id="circle125"/>
	<circle cx="637.381" cy="23.6259" r="4" fill="#0" id="circle126"/>
	<circle cx="644.518" cy="243.079" r="4" fill="#0" id="circle127"/>
	<circle cx="646.302" cy="5.78417" r="4" fill="#0" id="circle128"/>
	<circle cx="662.36" cy="243.079" r="4" fill="#0" id="circle129"/>
	<circle cx="664.144" cy="4" r="4" fill="#0" id="circle130"/>
	<circle cx="665.928" cy="21.8417" r="4" fill="#0" id="circle131"/>
	<circle cx="674.849" cy="37.8993" r="4" fill="#0" id="circle132"/>
	<circle cx="678.417" cy="252" r="4" fill="#0" id="circle133"/>
	<circle cx="683.77" cy="53.9568" r="4" fill="#0" id="circle134"/>
	<circle cx="696.259" cy="252" r="4" fill="#0" id="circle135"/>
	<circle cx="698.043" cy="64.6619" r="4" fill="#0" id="circle136"/>
	<circle cx="714.101" cy="259.137" r="4" fill="#0" id="circle137"/>
	<circle cx="715.885" cy="71.7986" r="4" fill="#0" id="circle138"/>
	<circle cx="719.453" cy="189.554" r="4" fill="#0" id="circle139"/>
	<circle cx="719.453" cy="207.396" r="4" fill="#0" id="circle140"/>
	<circle cx="723.022" cy="225.237" r="4" fill="#0" id="circle141"/>
	<circle cx="728.374" cy="171.712" r="4" fill="#0" id="circle142"/>
	<circle cx="731.942" cy="80.7194" r="4" fill="#0" id="circle143"/>
	<circle cx="731.942" cy="259.137" r="4" fill="#0" id="circle144"/>
	<circle cx="737.295" cy="237.727" r="4" fill="#0" id="circle145"/>
	<circle cx="742.647" cy="159.223" r="4" fill="#0" id="circle146"/>
	<circle cx="749.784" cy="80.7194" r="4" fill="#0" id="circle147"/>
	<circle cx="751.568" cy="141.381" r="4" fill="#0" id="circle148"/>
	<circle cx="760.489" cy="123.54" r="4" fill="#0" id="circle149"/>
	<circle cx="765.842" cy="89.6403" r="4" fill="#0" id="circle150"/>
	<circle cx="769.41" cy="107.482" r="4" fill="#0" id="circle151"/>
	</g>
</svg>