<?xml version="1.0" encoding="UTF-8" standalone="no"?>
<!-- Created with CurveBenchmark -->
<svg
	xmlns:dc="http://purl.org/dc/elements/1.1/"
	xmlns:cc="http://creativecommons.org/ns#"
	xmlns:rdf="http://www.w3.org/1999/02/22-rdf-syntax-ns#"
	xmlns:svg="http://www.w3.org/2000/svg"
	xmlns="http://www.w3.org/2000/svg"
	xmlns:sodipodi="http://sodipodi.sourceforge.net/DTD/sodipodi-0.dtd"
	xmlns:inkscape="http://www.inkscape.org/namespaces/inkscape"
	width="1000"
	height="1000"
	id="svg2"
	version="1.1"
	sodipodi:docname="manifold/fitconnect-ray0744.png.txt">
<defs
	id="defs4" />
<metadata
	id="metadata7">
	<rdf:RDF>
		<cc:Work
			rdf:about="">
			<dc:format>image/svg+xml</dc:format>
			<dc:type
				rdf:resource="http://purl.org/dc/dcmitype/StillImage" />
			<dc:title></dc:title>
		</cc:Work>
	</rdf:RDF>
</metadata>
<g
	inkscape:label="Layer 1"
	inkscape:groupmode="layer"
	id="layer1">
	<path style="fill:none;stroke:red;stroke-width:1px;stroke-linecap:butt;stroke-linejoin:miter;stroke-opacity:1" d="M 4,196.611 4,207.744 z" id="boundary" inkscape:connector-curvature="0" />
	<path style="fill:none;stroke:red;stroke-width:1px;stroke-linecap:butt;stroke-linejoin:miter;stroke-opacity:1" d="M 4,196.611 9.56678,185.477 z" id="boundary" inkscape:connector-curvature="0" />
	<path style="fill:none;stroke:red;stroke-width:1px;stroke-linecap:butt;stroke-linejoin:miter;stroke-opacity:1" d="M 4,207.744 4,218.878 z" id="boundary" inkscape:connector-curvature="0" />
	<path style="fill:none;stroke:red;stroke-width:1px;stroke-linecap:butt;stroke-linejoin:miter;stroke-opacity:1" d="M 4,218.878 4,230.011 z" id="boundary" inkscape:connector-curvature="0" />
	<path style="fill:none;stroke:red;stroke-width:1px;stroke-linecap:butt;stroke-linejoin:miter;stroke-opacity:1" d="M 4,230.011 9.56678,240.031 z" id="boundary" inkscape:connector-curvature="0" />
	<path style="fill:none;stroke:red;stroke-width:1px;stroke-linecap:butt;stroke-linejoin:miter;stroke-opacity:1" d="M 9.56678,185.477 15.1336,174.343 z" id="boundary" inkscape:connector-curvature="0" />
	<path style="fill:none;stroke:red;stroke-width:1px;stroke-linecap:butt;stroke-linejoin:miter;stroke-opacity:1" d="M 9.56678,240.031 15.1336,250.052 z" id="boundary" inkscape:connector-curvature="0" />
	<path style="fill:none;stroke:red;stroke-width:1px;stroke-linecap:butt;stroke-linejoin:miter;stroke-opacity:1" d="M 15.1336,174.343 20.7003,163.21 z" id="boundary" inkscape:connector-curvature="0" />
	<path style="fill:none;stroke:red;stroke-width:1px;stroke-linecap:butt;stroke-linejoin:miter;stroke-opacity:1" d="M 15.1336,250.052 15.1336,261.185 z" id="boundary" inkscape:connector-curvature="0" />
	<path style="fill:none;stroke:red;stroke-width:1px;stroke-linecap:butt;stroke-linejoin:miter;stroke-opacity:1" d="M 15.1336,261.185 20.7003,271.205 z" id="boundary" inkscape:connector-curvature="0" />
	<path style="fill:none;stroke:red;stroke-width:1px;stroke-linecap:butt;stroke-linejoin:miter;stroke-opacity:1" d="M 20.7003,163.21 26.2671,152.076 z" id="boundary" inkscape:connector-curvature="0" />
	<path style="fill:none;stroke:red;stroke-width:1px;stroke-linecap:butt;stroke-linejoin:miter;stroke-opacity:1" d="M 20.7003,271.205 22.927,282.339 z" id="boundary" inkscape:connector-curvature="0" />
	<path style="fill:none;stroke:red;stroke-width:1px;stroke-linecap:butt;stroke-linejoin:miter;stroke-opacity:1" d="M 22.927,282.339 31.8339,289.019 z" id="boundary" inkscape:connector-curvature="0" />
	<path style="fill:none;stroke:red;stroke-width:1px;stroke-linecap:butt;stroke-linejoin:miter;stroke-opacity:1" d="M 26.2671,152.076 35.174,143.169 z" id="boundary" inkscape:connector-curvature="0" />
	<path style="fill:none;stroke:red;stroke-width:1px;stroke-linecap:butt;stroke-linejoin:miter;stroke-opacity:1" d="M 31.8339,289.019 35.174,300.153 z" id="boundary" inkscape:connector-curvature="0" />
	<path style="fill:none;stroke:red;stroke-width:1px;stroke-linecap:butt;stroke-linejoin:miter;stroke-opacity:1" d="M 35.174,143.169 42.9675,129.809 z" id="boundary" inkscape:connector-curvature="0" />
	<path style="fill:none;stroke:red;stroke-width:1px;stroke-linecap:butt;stroke-linejoin:miter;stroke-opacity:1" d="M 35.174,300.153 40.7407,310.173 z" id="boundary" inkscape:connector-curvature="0" />
	<path style="fill:none;stroke:red;stroke-width:1px;stroke-linecap:butt;stroke-linejoin:miter;stroke-opacity:1" d="M 40.7407,310.173 42.9675,321.306 z" id="boundary" inkscape:connector-curvature="0" />
	<path style="fill:none;stroke:red;stroke-width:1px;stroke-linecap:butt;stroke-linejoin:miter;stroke-opacity:1" d="M 42.9675,129.809 51.8743,120.902 z" id="boundary" inkscape:connector-curvature="0" />
	<path style="fill:none;stroke:red;stroke-width:1px;stroke-linecap:butt;stroke-linejoin:miter;stroke-opacity:1" d="M 42.9675,321.306 45.1942,332.44 z" id="boundary" inkscape:connector-curvature="0" />
	<path style="fill:none;stroke:red;stroke-width:1px;stroke-linecap:butt;stroke-linejoin:miter;stroke-opacity:1" d="M 45.1942,332.44 54.101,339.12 z" id="boundary" inkscape:connector-curvature="0" />
	<path style="fill:none;stroke:red;stroke-width:1px;stroke-linecap:butt;stroke-linejoin:miter;stroke-opacity:1" d="M 51.8743,120.902 60.7811,111.996 z" id="boundary" inkscape:connector-curvature="0" />
	<path style="fill:none;stroke:red;stroke-width:1px;stroke-linecap:butt;stroke-linejoin:miter;stroke-opacity:1" d="M 54.101,339.12 59.6678,349.14 z" id="boundary" inkscape:connector-curvature="0" />
	<path style="fill:none;stroke:red;stroke-width:1px;stroke-linecap:butt;stroke-linejoin:miter;stroke-opacity:1" d="M 59.6678,349.14 66.3479,358.047 z" id="boundary" inkscape:connector-curvature="0" />
	<path style="fill:none;stroke:red;stroke-width:1px;stroke-linecap:butt;stroke-linejoin:miter;stroke-opacity:1" d="M 60.7811,111.996 69.688,104.202 z" id="boundary" inkscape:connector-curvature="0" />
	<path style="fill:none;stroke:red;stroke-width:1px;stroke-linecap:butt;stroke-linejoin:miter;stroke-opacity:1" d="M 66.3479,358.047 70.8013,369.181 z" id="boundary" inkscape:connector-curvature="0" />
	<path style="fill:none;stroke:red;stroke-width:1px;stroke-linecap:butt;stroke-linejoin:miter;stroke-opacity:1" d="M 69.688,104.202 77.4815,95.2952 z" id="boundary" inkscape:connector-curvature="0" />
	<path style="fill:none;stroke:red;stroke-width:1px;stroke-linecap:butt;stroke-linejoin:miter;stroke-opacity:1" d="M 70.8013,369.181 79.7082,376.974 z" id="boundary" inkscape:connector-curvature="0" />
	<path style="fill:none;stroke:red;stroke-width:1px;stroke-linecap:butt;stroke-linejoin:miter;stroke-opacity:1" d="M 77.4815,95.2952 88.615,89.7284 z" id="boundary" inkscape:connector-curvature="0" />
	<path style="fill:none;stroke:red;stroke-width:1px;stroke-linecap:butt;stroke-linejoin:miter;stroke-opacity:1" d="M 79.7082,376.974 88.615,383.654 z" id="boundary" inkscape:connector-curvature="0" />
	<path style="fill:none;stroke:red;stroke-width:1px;stroke-linecap:butt;stroke-linejoin:miter;stroke-opacity:1" d="M 88.615,89.7284 97.5219,81.9349 z" id="boundary" inkscape:connector-curvature="0" />
	<path style="fill:none;stroke:red;stroke-width:1px;stroke-linecap:butt;stroke-linejoin:miter;stroke-opacity:1" d="M 88.615,383.654 95.2952,392.561 z" id="boundary" inkscape:connector-curvature="0" />
	<path style="fill:none;stroke:red;stroke-width:1px;stroke-linecap:butt;stroke-linejoin:miter;stroke-opacity:1" d="M 95.2952,392.561 99.7486,403.695 z" id="boundary" inkscape:connector-curvature="0" />
	<path style="fill:none;stroke:red;stroke-width:1px;stroke-linecap:butt;stroke-linejoin:miter;stroke-opacity:1" d="M 97.5219,81.9349 107.542,76.3681 z" id="boundary" inkscape:connector-curvature="0" />
	<path style="fill:none;stroke:red;stroke-width:1px;stroke-linecap:butt;stroke-linejoin:miter;stroke-opacity:1" d="M 99.7486,403.695 116.449,420.395 z" id="boundary" inkscape:connector-curvature="0" />
	<path style="fill:none;stroke:red;stroke-width:1px;stroke-linecap:butt;stroke-linejoin:miter;stroke-opacity:1" d="M 107.542,76.3681 117.562,70.8013 z" id="boundary" inkscape:connector-curvature="0" />
	<path style="fill:none;stroke:red;stroke-width:1px;stroke-linecap:butt;stroke-linejoin:miter;stroke-opacity:1" d="M 116.449,420.395 135.376,433.755 z" id="boundary" inkscape:connector-curvature="0" />
	<path style="fill:none;stroke:red;stroke-width:1px;stroke-linecap:butt;stroke-linejoin:miter;stroke-opacity:1" d="M 117.562,70.8013 127.582,65.2346 z" id="boundary" inkscape:connector-curvature="0" />
	<path style="fill:none;stroke:red;stroke-width:1px;stroke-linecap:butt;stroke-linejoin:miter;stroke-opacity:1" d="M 127.582,65.2346 137.603,57.4411 z" id="boundary" inkscape:connector-curvature="0" />
	<path style="fill:none;stroke:red;stroke-width:1px;stroke-linecap:butt;stroke-linejoin:miter;stroke-opacity:1" d="M 135.376,433.755 148.736,452.682 z" id="boundary" inkscape:connector-curvature="0" />
	<path style="fill:none;stroke:red;stroke-width:1px;stroke-linecap:butt;stroke-linejoin:miter;stroke-opacity:1" d="M 137.603,57.4411 146.51,48.5342 z" id="boundary" inkscape:connector-curvature="0" />
	<path style="fill:none;stroke:red;stroke-width:1px;stroke-linecap:butt;stroke-linejoin:miter;stroke-opacity:1" d="M 146.51,48.5342 157.643,42.9675 z" id="boundary" inkscape:connector-curvature="0" />
	<path style="fill:none;stroke:red;stroke-width:1px;stroke-linecap:butt;stroke-linejoin:miter;stroke-opacity:1" d="M 148.736,452.682 157.643,460.476 z" id="boundary" inkscape:connector-curvature="0" />
	<path style="fill:none;stroke:red;stroke-width:1px;stroke-linecap:butt;stroke-linejoin:miter;stroke-opacity:1" d="M 157.643,42.9675 168.777,37.4007 z" id="boundary" inkscape:connector-curvature="0" />
	<path style="fill:none;stroke:red;stroke-width:1px;stroke-linecap:butt;stroke-linejoin:miter;stroke-opacity:1" d="M 157.643,460.476 176.57,472.723 z" id="boundary" inkscape:connector-curvature="0" />
	<path style="fill:none;stroke:red;stroke-width:1px;stroke-linecap:butt;stroke-linejoin:miter;stroke-opacity:1" d="M 168.777,37.4007 179.91,37.4007 z" id="boundary" inkscape:connector-curvature="0" />
	<path style="fill:none;stroke:red;stroke-width:1px;stroke-linecap:butt;stroke-linejoin:miter;stroke-opacity:1" d="M 176.57,472.723 196.611,483.856 z" id="boundary" inkscape:connector-curvature="0" />
	<path style="fill:none;stroke:red;stroke-width:1px;stroke-linecap:butt;stroke-linejoin:miter;stroke-opacity:1" d="M 179.91,37.4007 189.93,31.8339 z" id="boundary" inkscape:connector-curvature="0" />
	<path style="fill:none;stroke:red;stroke-width:1px;stroke-linecap:butt;stroke-linejoin:miter;stroke-opacity:1" d="M 189.93,31.8339 201.064,31.8339 z" id="boundary" inkscape:connector-curvature="0" />
	<path style="fill:none;stroke:red;stroke-width:1px;stroke-linecap:butt;stroke-linejoin:miter;stroke-opacity:1" d="M 196.611,483.856 207.744,488.31 z" id="boundary" inkscape:connector-curvature="0" />
	<path style="fill:none;stroke:red;stroke-width:1px;stroke-linecap:butt;stroke-linejoin:miter;stroke-opacity:1" d="M 201.064,31.8339 212.198,27.3805 z" id="boundary" inkscape:connector-curvature="0" />
	<path style="fill:none;stroke:red;stroke-width:1px;stroke-linecap:butt;stroke-linejoin:miter;stroke-opacity:1" d="M 207.744,488.31 226.671,500.557 z" id="boundary" inkscape:connector-curvature="0" />
	<path style="fill:none;stroke:red;stroke-width:1px;stroke-linecap:butt;stroke-linejoin:miter;stroke-opacity:1" d="M 212.198,27.3805 223.331,26.2671 z" id="boundary" inkscape:connector-curvature="0" />
	<path style="fill:none;stroke:red;stroke-width:1px;stroke-linecap:butt;stroke-linejoin:miter;stroke-opacity:1" d="M 223.331,26.2671 233.351,20.7003 z" id="boundary" inkscape:connector-curvature="0" />
	<path style="fill:none;stroke:red;stroke-width:1px;stroke-linecap:butt;stroke-linejoin:miter;stroke-opacity:1" d="M 226.671,500.557 233.351,509.464 z" id="boundary" inkscape:connector-curvature="0" />
	<path style="fill:none;stroke:red;stroke-width:1px;stroke-linecap:butt;stroke-linejoin:miter;stroke-opacity:1" d="M 233.351,20.7003 244.485,17.3603 z" id="boundary" inkscape:connector-curvature="0" />
	<path style="fill:none;stroke:red;stroke-width:1px;stroke-linecap:butt;stroke-linejoin:miter;stroke-opacity:1" d="M 233.351,509.464 242.258,517.257 z" id="boundary" inkscape:connector-curvature="0" />
	<path style="fill:none;stroke:red;stroke-width:1px;stroke-linecap:butt;stroke-linejoin:miter;stroke-opacity:1" d="M 242.258,517.257 273.432,528.391 z" id="boundary" inkscape:connector-curvature="0" />
	<path style="fill:none;stroke:red;stroke-width:1px;stroke-linecap:butt;stroke-linejoin:miter;stroke-opacity:1" d="M 244.485,17.3603 255.618,15.1336 z" id="boundary" inkscape:connector-curvature="0" />
	<path style="fill:none;stroke:red;stroke-width:1px;stroke-linecap:butt;stroke-linejoin:miter;stroke-opacity:1" d="M 255.618,15.1336 266.752,15.1336 z" id="boundary" inkscape:connector-curvature="0" />
	<path style="fill:none;stroke:red;stroke-width:1px;stroke-linecap:butt;stroke-linejoin:miter;stroke-opacity:1" d="M 263.412,983.753 265.639,996 z" id="boundary" inkscape:connector-curvature="0" />
	<path style="fill:none;stroke:red;stroke-width:1px;stroke-linecap:butt;stroke-linejoin:miter;stroke-opacity:1" d="M 263.412,983.753 281.226,967.053 z" id="boundary" inkscape:connector-curvature="0" />
	<path style="fill:none;stroke:red;stroke-width:1px;stroke-linecap:butt;stroke-linejoin:miter;stroke-opacity:1" d="M 266.752,15.1336 277.886,11.7935 z" id="boundary" inkscape:connector-curvature="0" />
	<path style="fill:none;stroke:red;stroke-width:1px;stroke-linecap:butt;stroke-linejoin:miter;stroke-opacity:1" d="M 273.432,528.391 299.039,560.678 z" id="boundary" inkscape:connector-curvature="0" />
	<path style="fill:none;stroke:red;stroke-width:1px;stroke-linecap:butt;stroke-linejoin:miter;stroke-opacity:1" d="M 277.886,11.7935 289.019,9.56678 z" id="boundary" inkscape:connector-curvature="0" />
	<path style="fill:none;stroke:red;stroke-width:1px;stroke-linecap:butt;stroke-linejoin:miter;stroke-opacity:1" d="M 281.226,967.053 303.493,960.373 z" id="boundary" inkscape:connector-curvature="0" />
	<path style="fill:none;stroke:red;stroke-width:1px;stroke-linecap:butt;stroke-linejoin:miter;stroke-opacity:1" d="M 289.019,9.56678 299.039,4 z" id="boundary" inkscape:connector-curvature="0" />
	<path style="fill:none;stroke:red;stroke-width:1px;stroke-linecap:butt;stroke-linejoin:miter;stroke-opacity:1" d="M 299.039,4 310.173,4 z" id="boundary" inkscape:connector-curvature="0" />
	<path style="fill:none;stroke:red;stroke-width:1px;stroke-linecap:butt;stroke-linejoin:miter;stroke-opacity:1" d="M 299.039,560.678 322.42,597.419 z" id="boundary" inkscape:connector-curvature="0" />
	<path style="fill:none;stroke:red;stroke-width:1px;stroke-linecap:butt;stroke-linejoin:miter;stroke-opacity:1" d="M 303.493,960.373 320.193,943.672 z" id="boundary" inkscape:connector-curvature="0" />
	<path style="fill:none;stroke:red;stroke-width:1px;stroke-linecap:butt;stroke-linejoin:miter;stroke-opacity:1" d="M 310.173,4 321.306,6.22671 z" id="boundary" inkscape:connector-curvature="0" />
	<path style="fill:none;stroke:red;stroke-width:1px;stroke-linecap:butt;stroke-linejoin:miter;stroke-opacity:1" d="M 320.193,943.672 324.646,928.085 z" id="boundary" inkscape:connector-curvature="0" />
	<path style="fill:none;stroke:red;stroke-width:1px;stroke-linecap:butt;stroke-linejoin:miter;stroke-opacity:1" d="M 321.306,6.22671 332.44,9.56678 z" id="boundary" inkscape:connector-curvature="0" />
	<path style="fill:none;stroke:red;stroke-width:1px;stroke-linecap:butt;stroke-linejoin:miter;stroke-opacity:1" d="M 322.42,597.419 343.574,625.253 z" id="boundary" inkscape:connector-curvature="0" />
	<path style="fill:none;stroke:red;stroke-width:1px;stroke-linecap:butt;stroke-linejoin:miter;stroke-opacity:1" d="M 324.646,928.085 340.233,912.498 z" id="boundary" inkscape:connector-curvature="0" />
	<path style="fill:none;stroke:red;stroke-width:1px;stroke-linecap:butt;stroke-linejoin:miter;stroke-opacity:1" d="M 332.44,9.56678 343.574,9.56678 z" id="boundary" inkscape:connector-curvature="0" />
	<path style="fill:none;stroke:red;stroke-width:1px;stroke-linecap:butt;stroke-linejoin:miter;stroke-opacity:1" d="M 340.233,912.498 360.274,900.251 z" id="boundary" inkscape:connector-curvature="0" />
	<path style="fill:none;stroke:red;stroke-width:1px;stroke-linecap:butt;stroke-linejoin:miter;stroke-opacity:1" d="M 343.574,9.56678 354.707,9.56678 z" id="boundary" inkscape:connector-curvature="0" />
	<path style="fill:none;stroke:red;stroke-width:1px;stroke-linecap:butt;stroke-linejoin:miter;stroke-opacity:1" d="M 343.574,625.253 443.776,714.321 z" id="boundary" inkscape:connector-curvature="0" />
	<path style="fill:none;stroke:red;stroke-width:1px;stroke-linecap:butt;stroke-linejoin:miter;stroke-opacity:1" d="M 354.707,9.56678 365.841,9.56678 z" id="boundary" inkscape:connector-curvature="0" />
	<path style="fill:none;stroke:red;stroke-width:1px;stroke-linecap:butt;stroke-linejoin:miter;stroke-opacity:1" d="M 360.274,900.251 380.314,889.118 z" id="boundary" inkscape:connector-curvature="0" />
	<path style="fill:none;stroke:red;stroke-width:1px;stroke-linecap:butt;stroke-linejoin:miter;stroke-opacity:1" d="M 365.841,9.56678 376.974,9.56678 z" id="boundary" inkscape:connector-curvature="0" />
	<path style="fill:none;stroke:red;stroke-width:1px;stroke-linecap:butt;stroke-linejoin:miter;stroke-opacity:1" d="M 376.974,9.56678 388.108,11.7935 z" id="boundary" inkscape:connector-curvature="0" />
	<path style="fill:none;stroke:red;stroke-width:1px;stroke-linecap:butt;stroke-linejoin:miter;stroke-opacity:1" d="M 380.314,889.118 410.375,872.418 z" id="boundary" inkscape:connector-curvature="0" />
	<path style="fill:none;stroke:red;stroke-width:1px;stroke-linecap:butt;stroke-linejoin:miter;stroke-opacity:1" d="M 388.108,11.7935 399.241,15.1336 z" id="boundary" inkscape:connector-curvature="0" />
	<path style="fill:none;stroke:red;stroke-width:1px;stroke-linecap:butt;stroke-linejoin:miter;stroke-opacity:1" d="M 399.241,15.1336 410.375,15.1336 z" id="boundary" inkscape:connector-curvature="0" />
	<path style="fill:none;stroke:red;stroke-width:1px;stroke-linecap:butt;stroke-linejoin:miter;stroke-opacity:1" d="M 410.375,15.1336 421.508,17.3603 z" id="boundary" inkscape:connector-curvature="0" />
	<path style="fill:none;stroke:red;stroke-width:1px;stroke-linecap:butt;stroke-linejoin:miter;stroke-opacity:1" d="M 410.375,872.418 452.682,833.45 z" id="boundary" inkscape:connector-curvature="0" />
	<path style="fill:none;stroke:red;stroke-width:1px;stroke-linecap:butt;stroke-linejoin:miter;stroke-opacity:1" d="M 421.508,17.3603 432.642,20.7003 z" id="boundary" inkscape:connector-curvature="0" />
	<path style="fill:none;stroke:red;stroke-width:1px;stroke-linecap:butt;stroke-linejoin:miter;stroke-opacity:1" d="M 432.642,20.7003 442.662,26.2671 z" id="boundary" inkscape:connector-curvature="0" />
	<path style="fill:none;stroke:red;stroke-width:1px;stroke-linecap:butt;stroke-linejoin:miter;stroke-opacity:1" d="M 442.662,26.2671 452.682,31.8339 z" id="boundary" inkscape:connector-curvature="0" />
	<path style="fill:none;stroke:red;stroke-width:1px;stroke-linecap:butt;stroke-linejoin:miter;stroke-opacity:1" d="M 443.776,714.321 449.342,797.823 z" id="boundary" inkscape:connector-curvature="0" />
	<path style="fill:none;stroke:red;stroke-width:1px;stroke-linecap:butt;stroke-linejoin:miter;stroke-opacity:1" d="M 449.342,797.823 452.682,833.45 z" id="boundary" inkscape:connector-curvature="0" />
	<path style="fill:none;stroke:red;stroke-width:1px;stroke-linecap:butt;stroke-linejoin:miter;stroke-opacity:1" d="M 452.682,31.8339 463.816,31.8339 z" id="boundary" inkscape:connector-curvature="0" />
	<path style="fill:none;stroke:red;stroke-width:1px;stroke-linecap:butt;stroke-linejoin:miter;stroke-opacity:1" d="M 463.816,31.8339 474.949,31.8339 z" id="boundary" inkscape:connector-curvature="0" />
	<path style="fill:none;stroke:red;stroke-width:1px;stroke-linecap:butt;stroke-linejoin:miter;stroke-opacity:1" d="M 474.949,31.8339 484.97,37.4007 z" id="boundary" inkscape:connector-curvature="0" />
	<path style="fill:none;stroke:red;stroke-width:1px;stroke-linecap:butt;stroke-linejoin:miter;stroke-opacity:1" d="M 484.97,37.4007 493.877,45.1942 z" id="boundary" inkscape:connector-curvature="0" />
	<path style="fill:none;stroke:red;stroke-width:1px;stroke-linecap:butt;stroke-linejoin:miter;stroke-opacity:1" d="M 489.423,428.189 498.33,420.395 z" id="boundary" inkscape:connector-curvature="0" />
	<path style="fill:none;stroke:red;stroke-width:1px;stroke-linecap:butt;stroke-linejoin:miter;stroke-opacity:1" d="M 493.877,45.1942 503.897,50.7609 z" id="boundary" inkscape:connector-curvature="0" />
	<path style="fill:none;stroke:red;stroke-width:1px;stroke-linecap:butt;stroke-linejoin:miter;stroke-opacity:1" d="M 498.33,420.395 506.123,411.488 z" id="boundary" inkscape:connector-curvature="0" />
	<path style="fill:none;stroke:red;stroke-width:1px;stroke-linecap:butt;stroke-linejoin:miter;stroke-opacity:1" d="M 503.897,50.7609 511.69,59.6678 z" id="boundary" inkscape:connector-curvature="0" />
	<path style="fill:none;stroke:red;stroke-width:1px;stroke-linecap:butt;stroke-linejoin:miter;stroke-opacity:1" d="M 506.123,411.488 515.03,403.695 z" id="boundary" inkscape:connector-curvature="0" />
	<path style="fill:none;stroke:red;stroke-width:1px;stroke-linecap:butt;stroke-linejoin:miter;stroke-opacity:1" d="M 511.69,59.6678 522.824,63.0079 z" id="boundary" inkscape:connector-curvature="0" />
	<path style="fill:none;stroke:red;stroke-width:1px;stroke-linecap:butt;stroke-linejoin:miter;stroke-opacity:1" d="M 515.03,403.695 522.824,389.221 z" id="boundary" inkscape:connector-curvature="0" />
	<path style="fill:none;stroke:red;stroke-width:1px;stroke-linecap:butt;stroke-linejoin:miter;stroke-opacity:1" d="M 522.824,63.0079 531.731,70.8013 z" id="boundary" inkscape:connector-curvature="0" />
	<path style="fill:none;stroke:red;stroke-width:1px;stroke-linecap:butt;stroke-linejoin:miter;stroke-opacity:1" d="M 522.824,389.221 531.731,381.428 z" id="boundary" inkscape:connector-curvature="0" />
	<path style="fill:none;stroke:red;stroke-width:1px;stroke-linecap:butt;stroke-linejoin:miter;stroke-opacity:1" d="M 531.731,70.8013 539.524,79.7082 z" id="boundary" inkscape:connector-curvature="0" />
	<path style="fill:none;stroke:red;stroke-width:1px;stroke-linecap:butt;stroke-linejoin:miter;stroke-opacity:1" d="M 531.731,381.428 539.524,372.521 z" id="boundary" inkscape:connector-curvature="0" />
	<path style="fill:none;stroke:red;stroke-width:1px;stroke-linecap:butt;stroke-linejoin:miter;stroke-opacity:1" d="M 539.524,79.7082 549.544,85.275 z" id="boundary" inkscape:connector-curvature="0" />
	<path style="fill:none;stroke:red;stroke-width:1px;stroke-linecap:butt;stroke-linejoin:miter;stroke-opacity:1" d="M 539.524,361.387 539.524,372.521 z" id="boundary" inkscape:connector-curvature="0" />
	<path style="fill:none;stroke:red;stroke-width:1px;stroke-linecap:butt;stroke-linejoin:miter;stroke-opacity:1" d="M 539.524,361.387 545.091,350.254 z" id="boundary" inkscape:connector-curvature="0" />
	<path style="fill:none;stroke:red;stroke-width:1px;stroke-linecap:butt;stroke-linejoin:miter;stroke-opacity:1" d="M 545.091,350.254 553.998,342.46 z" id="boundary" inkscape:connector-curvature="0" />
	<path style="fill:none;stroke:red;stroke-width:1px;stroke-linecap:butt;stroke-linejoin:miter;stroke-opacity:1" d="M 549.544,85.275 556.224,94.1818 z" id="boundary" inkscape:connector-curvature="0" />
	<path style="fill:none;stroke:red;stroke-width:1px;stroke-linecap:butt;stroke-linejoin:miter;stroke-opacity:1" d="M 553.998,342.46 559.565,331.327 z" id="boundary" inkscape:connector-curvature="0" />
	<path style="fill:none;stroke:red;stroke-width:1px;stroke-linecap:butt;stroke-linejoin:miter;stroke-opacity:1" d="M 556.224,94.1818 561.791,104.202 z" id="boundary" inkscape:connector-curvature="0" />
	<path style="fill:none;stroke:red;stroke-width:1px;stroke-linecap:butt;stroke-linejoin:miter;stroke-opacity:1" d="M 559.565,331.327 567.358,316.853 z" id="boundary" inkscape:connector-curvature="0" />
	<path style="fill:none;stroke:red;stroke-width:1px;stroke-linecap:butt;stroke-linejoin:miter;stroke-opacity:1" d="M 561.791,104.202 570.698,110.882 z" id="boundary" inkscape:connector-curvature="0" />
	<path style="fill:none;stroke:red;stroke-width:1px;stroke-linecap:butt;stroke-linejoin:miter;stroke-opacity:1" d="M 567.358,316.853 576.265,309.059 z" id="boundary" inkscape:connector-curvature="0" />
	<path style="fill:none;stroke:red;stroke-width:1px;stroke-linecap:butt;stroke-linejoin:miter;stroke-opacity:1" d="M 570.698,110.882 578.492,119.789 z" id="boundary" inkscape:connector-curvature="0" />
	<path style="fill:none;stroke:red;stroke-width:1px;stroke-linecap:butt;stroke-linejoin:miter;stroke-opacity:1" d="M 576.265,309.059 581.832,297.926 z" id="boundary" inkscape:connector-curvature="0" />
	<path style="fill:none;stroke:red;stroke-width:1px;stroke-linecap:butt;stroke-linejoin:miter;stroke-opacity:1" d="M 578.492,119.789 587.398,127.582 z" id="boundary" inkscape:connector-curvature="0" />
	<path style="fill:none;stroke:red;stroke-width:1px;stroke-linecap:butt;stroke-linejoin:miter;stroke-opacity:1" d="M 581.832,297.926 587.398,286.792 z" id="boundary" inkscape:connector-curvature="0" />
	<path style="fill:none;stroke:red;stroke-width:1px;stroke-linecap:butt;stroke-linejoin:miter;stroke-opacity:1" d="M 587.398,127.582 591.852,138.716 z" id="boundary" inkscape:connector-curvature="0" />
	<path style="fill:none;stroke:red;stroke-width:1px;stroke-linecap:butt;stroke-linejoin:miter;stroke-opacity:1" d="M 587.398,286.792 589.625,272.319 z" id="boundary" inkscape:connector-curvature="0" />
	<path style="fill:none;stroke:red;stroke-width:1px;stroke-linecap:butt;stroke-linejoin:miter;stroke-opacity:1" d="M 589.625,272.319 595.192,261.185 z" id="boundary" inkscape:connector-curvature="0" />
	<path style="fill:none;stroke:red;stroke-width:1px;stroke-linecap:butt;stroke-linejoin:miter;stroke-opacity:1" d="M 591.852,138.716 597.419,148.736 z" id="boundary" inkscape:connector-curvature="0" />
	<path style="fill:none;stroke:red;stroke-width:1px;stroke-linecap:butt;stroke-linejoin:miter;stroke-opacity:1" d="M 595.192,261.185 600.759,250.052 z" id="boundary" inkscape:connector-curvature="0" />
	<path style="fill:none;stroke:red;stroke-width:1px;stroke-linecap:butt;stroke-linejoin:miter;stroke-opacity:1" d="M 597.419,148.736 600.759,159.87 z" id="boundary" inkscape:connector-curvature="0" />
	<path style="fill:none;stroke:red;stroke-width:1px;stroke-linecap:butt;stroke-linejoin:miter;stroke-opacity:1" d="M 600.759,159.87 606.325,169.89 z" id="boundary" inkscape:connector-curvature="0" />
	<path style="fill:none;stroke:red;stroke-width:1px;stroke-linecap:butt;stroke-linejoin:miter;stroke-opacity:1" d="M 600.759,238.918 600.759,250.052 z" id="boundary" inkscape:connector-curvature="0" />
	<path style="fill:none;stroke:red;stroke-width:1px;stroke-linecap:butt;stroke-linejoin:miter;stroke-opacity:1" d="M 600.759,238.918 606.325,227.785 z" id="boundary" inkscape:connector-curvature="0" />
	<path style="fill:none;stroke:red;stroke-width:1px;stroke-linecap:butt;stroke-linejoin:miter;stroke-opacity:1" d="M 606.325,169.89 606.325,181.024 z" id="boundary" inkscape:connector-curvature="0" />
	<path style="fill:none;stroke:red;stroke-width:1px;stroke-linecap:butt;stroke-linejoin:miter;stroke-opacity:1" d="M 606.325,181.024 611.892,191.044 z" id="boundary" inkscape:connector-curvature="0" />
	<path style="fill:none;stroke:red;stroke-width:1px;stroke-linecap:butt;stroke-linejoin:miter;stroke-opacity:1" d="M 606.325,205.517 606.325,216.651 z" id="boundary" inkscape:connector-curvature="0" />
	<path style="fill:none;stroke:red;stroke-width:1px;stroke-linecap:butt;stroke-linejoin:miter;stroke-opacity:1" d="M 606.325,205.517 611.892,191.044 z" id="boundary" inkscape:connector-curvature="0" />
	<path style="fill:none;stroke:red;stroke-width:1px;stroke-linecap:butt;stroke-linejoin:miter;stroke-opacity:1" d="M 606.325,216.651 606.325,227.785 z" id="boundary" inkscape:connector-curvature="0" />
	<circle cx="4" cy="196.611" r="4" fill="#0" id="circle0"/>
	<circle cx="4" cy="207.744" r="4" fill="#0" id="circle1"/>
	<circle cx="4" cy="218.878" r="4" fill="#0" id="circle2"/>
	<circle cx="4" cy="230.011" r="4" fill="#0" id="circle3"/>
	<circle cx="9.56678" cy="185.477" r="4" fill="#0" id="circle4"/>
	<circle cx="9.56678" cy="240.031" r="4" fill="#0" id="circle5"/>
	<circle cx="15.1336" cy="174.343" r="4" fill="#0" id="circle6"/>
	<circle cx="15.1336" cy="250.052" r="4" fill="#0" id="circle7"/>
	<circle cx="15.1336" cy="261.185" r="4" fill="#0" id="circle8"/>
	<circle cx="20.7003" cy="163.21" r="4" fill="#0" id="circle9"/>
	<circle cx="20.7003" cy="271.205" r="4" fill="#0" id="circle10"/>
	<circle cx="22.927" cy="282.339" r="4" fill="#0" id="circle11"/>
	<circle cx="26.2671" cy="152.076" r="4" fill="#0" id="circle12"/>
	<circle cx="31.8339" cy="289.019" r="4" fill="#0" id="circle13"/>
	<circle cx="35.174" cy="143.169" r="4" fill="#0" id="circle14"/>
	<circle cx="35.174" cy="300.153" r="4" fill="#0" id="circle15"/>
	<circle cx="40.7407" cy="310.173" r="4" fill="#0" id="circle16"/>
	<circle cx="42.9675" cy="129.809" r="4" fill="#0" id="circle17"/>
	<circle cx="42.9675" cy="321.306" r="4" fill="#0" id="circle18"/>
	<circle cx="45.1942" cy="332.44" r="4" fill="#0" id="circle19"/>
	<circle cx="51.8743" cy="120.902" r="4" fill="#0" id="circle20"/>
	<circle cx="54.101" cy="339.12" r="4" fill="#0" id="circle21"/>
	<circle cx="59.6678" cy="349.14" r="4" fill="#0" id="circle22"/>
	<circle cx="60.7811" cy="111.996" r="4" fill="#0" id="circle23"/>
	<circle cx="66.3479" cy="358.047" r="4" fill="#0" id="circle24"/>
	<circle cx="69.688" cy="104.202" r="4" fill="#0" id="circle25"/>
	<circle cx="70.8013" cy="369.181" r="4" fill="#0" id="circle26"/>
	<circle cx="77.4815" cy="95.2952" r="4" fill="#0" id="circle27"/>
	<circle cx="79.7082" cy="376.974" r="4" fill="#0" id="circle28"/>
	<circle cx="88.615" cy="89.7284" r="4" fill="#0" id="circle29"/>
	<circle cx="88.615" cy="383.654" r="4" fill="#0" id="circle30"/>
	<circle cx="95.2952" cy="392.561" r="4" fill="#0" id="circle31"/>
	<circle cx="97.5219" cy="81.9349" r="4" fill="#0" id="circle32"/>
	<circle cx="99.7486" cy="403.695" r="4" fill="#0" id="circle33"/>
	<circle cx="107.542" cy="76.3681" r="4" fill="#0" id="circle34"/>
	<circle cx="108.655" cy="411.488" r="4" fill="#0" id="circle35"/>
	<circle cx="116.449" cy="420.395" r="4" fill="#0" id="circle36"/>
	<circle cx="117.562" cy="70.8013" r="4" fill="#0" id="circle37"/>
	<circle cx="127.582" cy="65.2346" r="4" fill="#0" id="circle38"/>
	<circle cx="127.582" cy="424.848" r="4" fill="#0" id="circle39"/>
	<circle cx="135.376" cy="433.755" r="4" fill="#0" id="circle40"/>
	<circle cx="137.603" cy="57.4411" r="4" fill="#0" id="circle41"/>
	<circle cx="143.169" cy="442.662" r="4" fill="#0" id="circle42"/>
	<circle cx="146.51" cy="48.5342" r="4" fill="#0" id="circle43"/>
	<circle cx="148.736" cy="452.682" r="4" fill="#0" id="circle44"/>
	<circle cx="157.643" cy="42.9675" r="4" fill="#0" id="circle45"/>
	<circle cx="157.643" cy="460.476" r="4" fill="#0" id="circle46"/>
	<circle cx="165.437" cy="469.383" r="4" fill="#0" id="circle47"/>
	<circle cx="168.777" cy="37.4007" r="4" fill="#0" id="circle48"/>
	<circle cx="176.57" cy="472.723" r="4" fill="#0" id="circle49"/>
	<circle cx="179.91" cy="37.4007" r="4" fill="#0" id="circle50"/>
	<circle cx="186.59" cy="478.29" r="4" fill="#0" id="circle51"/>
	<circle cx="189.93" cy="31.8339" r="4" fill="#0" id="circle52"/>
	<circle cx="196.611" cy="483.856" r="4" fill="#0" id="circle53"/>
	<circle cx="201.064" cy="31.8339" r="4" fill="#0" id="circle54"/>
	<circle cx="207.744" cy="488.31" r="4" fill="#0" id="circle55"/>
	<circle cx="212.198" cy="27.3805" r="4" fill="#0" id="circle56"/>
	<circle cx="217.764" cy="493.877" r="4" fill="#0" id="circle57"/>
	<circle cx="223.331" cy="26.2671" r="4" fill="#0" id="circle58"/>
	<circle cx="226.671" cy="500.557" r="4" fill="#0" id="circle59"/>
	<circle cx="233.351" cy="20.7003" r="4" fill="#0" id="circle60"/>
	<circle cx="233.351" cy="509.464" r="4" fill="#0" id="circle61"/>
	<circle cx="242.258" cy="517.257" r="4" fill="#0" id="circle62"/>
	<circle cx="244.485" cy="17.3603" r="4" fill="#0" id="circle63"/>
	<circle cx="252.278" cy="522.824" r="4" fill="#0" id="circle64"/>
	<circle cx="254.505" cy="992.66" r="4" fill="#0" id="circle65"/>
	<circle cx="255.618" cy="15.1336" r="4" fill="#0" id="circle66"/>
	<circle cx="262.299" cy="528.391" r="4" fill="#0" id="circle67"/>
	<circle cx="263.412" cy="983.753" r="4" fill="#0" id="circle68"/>
	<circle cx="265.639" cy="996" r="4" fill="#0" id="circle69"/>
	<circle cx="266.752" cy="15.1336" r="4" fill="#0" id="circle70"/>
	<circle cx="272.319" cy="974.846" r="4" fill="#0" id="circle71"/>
	<circle cx="273.432" cy="528.391" r="4" fill="#0" id="circle72"/>
	<circle cx="274.545" cy="989.32" r="4" fill="#0" id="circle73"/>
	<circle cx="277.886" cy="11.7935" r="4" fill="#0" id="circle74"/>
	<circle cx="281.226" cy="967.053" r="4" fill="#0" id="circle75"/>
	<circle cx="283.452" cy="533.957" r="4" fill="#0" id="circle76"/>
	<circle cx="283.452" cy="979.3" r="4" fill="#0" id="circle77"/>
	<circle cx="289.019" cy="9.56678" r="4" fill="#0" id="circle78"/>
	<circle cx="289.019" cy="958.146" r="4" fill="#0" id="circle79"/>
	<circle cx="293.473" cy="539.524" r="4" fill="#0" id="circle80"/>
	<circle cx="293.473" cy="550.658" r="4" fill="#0" id="circle81"/>
	<circle cx="294.586" cy="968.166" r="4" fill="#0" id="circle82"/>
	<circle cx="297.926" cy="950.352" r="4" fill="#0" id="circle83"/>
	<circle cx="299.039" cy="4" r="4" fill="#0" id="circle84"/>
	<circle cx="299.039" cy="560.678" r="4" fill="#0" id="circle85"/>
	<circle cx="301.266" cy="571.811" r="4" fill="#0" id="circle86"/>
	<circle cx="303.493" cy="960.373" r="4" fill="#0" id="circle87"/>
	<circle cx="305.719" cy="941.446" r="4" fill="#0" id="circle88"/>
	<circle cx="310.173" cy="4" r="4" fill="#0" id="circle89"/>
	<circle cx="310.173" cy="578.492" r="4" fill="#0" id="circle90"/>
	<circle cx="311.286" cy="951.466" r="4" fill="#0" id="circle91"/>
	<circle cx="314.626" cy="933.652" r="4" fill="#0" id="circle92"/>
	<circle cx="315.74" cy="588.512" r="4" fill="#0" id="circle93"/>
	<circle cx="320.193" cy="943.672" r="4" fill="#0" id="circle94"/>
	<circle cx="321.306" cy="6.22671" r="4" fill="#0" id="circle95"/>
	<circle cx="322.42" cy="597.419" r="4" fill="#0" id="circle96"/>
	<circle cx="324.646" cy="928.085" r="4" fill="#0" id="circle97"/>
	<circle cx="330.213" cy="606.325" r="4" fill="#0" id="circle98"/>
	<circle cx="332.44" cy="9.56678" r="4" fill="#0" id="circle99"/>
	<circle cx="333.553" cy="934.765" r="4" fill="#0" id="circle100"/>
	<circle cx="334.667" cy="922.519" r="4" fill="#0" id="circle101"/>
	<circle cx="338.007" cy="615.232" r="4" fill="#0" id="circle102"/>
	<circle cx="340.233" cy="912.498" r="4" fill="#0" id="circle103"/>
	<circle cx="343.574" cy="9.56678" r="4" fill="#0" id="circle104"/>
	<circle cx="343.574" cy="625.253" r="4" fill="#0" id="circle105"/>
	<circle cx="343.574" cy="929.199" r="4" fill="#0" id="circle106"/>
	<circle cx="350.254" cy="539.524" r="4" fill="#0" id="circle107"/>
	<circle cx="350.254" cy="550.658" r="4" fill="#0" id="circle108"/>
	<circle cx="351.367" cy="906.932" r="4" fill="#0" id="circle109"/>
	<circle cx="353.594" cy="923.632" r="4" fill="#0" id="circle110"/>
	<circle cx="354.707" cy="9.56678" r="4" fill="#0" id="circle111"/>
	<circle cx="354.707" cy="628.593" r="4" fill="#0" id="circle112"/>
	<circle cx="355.82" cy="560.678" r="4" fill="#0" id="circle113"/>
	<circle cx="359.16" cy="531.731" r="4" fill="#0" id="circle114"/>
	<circle cx="360.274" cy="900.251" r="4" fill="#0" id="circle115"/>
	<circle cx="361.387" cy="570.698" r="4" fill="#0" id="circle116"/>
	<circle cx="363.614" cy="916.952" r="4" fill="#0" id="circle117"/>
	<circle cx="364.727" cy="634.159" r="4" fill="#0" id="circle118"/>
	<circle cx="365.841" cy="9.56678" r="4" fill="#0" id="circle119"/>
	<circle cx="366.954" cy="522.824" r="4" fill="#0" id="circle120"/>
	<circle cx="366.954" cy="580.718" r="4" fill="#0" id="circle121"/>
	<circle cx="370.294" cy="894.685" r="4" fill="#0" id="circle122"/>
	<circle cx="372.521" cy="643.066" r="4" fill="#0" id="circle123"/>
	<circle cx="374.747" cy="911.385" r="4" fill="#0" id="circle124"/>
	<circle cx="376.974" cy="9.56678" r="4" fill="#0" id="circle125"/>
	<circle cx="376.974" cy="586.285" r="4" fill="#0" id="circle126"/>
	<circle cx="378.088" cy="517.257" r="4" fill="#0" id="circle127"/>
	<circle cx="380.314" cy="889.118" r="4" fill="#0" id="circle128"/>
	<circle cx="381.428" cy="650.86" r="4" fill="#0" id="circle129"/>
	<circle cx="383.654" cy="595.192" r="4" fill="#0" id="circle130"/>
	<circle cx="385.881" cy="905.818" r="4" fill="#0" id="circle131"/>
	<circle cx="388.108" cy="11.7935" r="4" fill="#0" id="circle132"/>
	<circle cx="389.221" cy="511.69" r="4" fill="#0" id="circle133"/>
	<circle cx="389.221" cy="605.212" r="4" fill="#0" id="circle134"/>
	<circle cx="389.221" cy="659.767" r="4" fill="#0" id="circle135"/>
	<circle cx="389.221" cy="880.211" r="4" fill="#0" id="circle136"/>
	<circle cx="394.788" cy="895.798" r="4" fill="#0" id="circle137"/>
	<circle cx="398.128" cy="611.892" r="4" fill="#0" id="circle138"/>
	<circle cx="398.128" cy="667.56" r="4" fill="#0" id="circle139"/>
	<circle cx="399.241" cy="15.1336" r="4" fill="#0" id="circle140"/>
	<circle cx="400.355" cy="506.123" r="4" fill="#0" id="circle141"/>
	<circle cx="400.355" cy="877.984" r="4" fill="#0" id="circle142"/>
	<circle cx="405.921" cy="620.799" r="4" fill="#0" id="circle143"/>
	<circle cx="405.921" cy="676.467" r="4" fill="#0" id="circle144"/>
	<circle cx="405.921" cy="890.231" r="4" fill="#0" id="circle145"/>
	<circle cx="409.262" cy="498.33" r="4" fill="#0" id="circle146"/>
	<circle cx="410.375" cy="15.1336" r="4" fill="#0" id="circle147"/>
	<circle cx="410.375" cy="872.418" r="4" fill="#0" id="circle148"/>
	<circle cx="415.942" cy="489.423" r="4" fill="#0" id="circle149"/>
	<circle cx="417.055" cy="625.253" r="4" fill="#0" id="circle150"/>
	<circle cx="417.055" cy="678.694" r="4" fill="#0" id="circle151"/>
	<circle cx="417.055" cy="884.664" r="4" fill="#0" id="circle152"/>
	<circle cx="420.395" cy="866.851" r="4" fill="#0" id="circle153"/>
	<circle cx="421.508" cy="17.3603" r="4" fill="#0" id="circle154"/>
	<circle cx="425.962" cy="483.856" r="4" fill="#0" id="circle155"/>
	<circle cx="427.075" cy="684.26" r="4" fill="#0" id="circle156"/>
	<circle cx="428.189" cy="627.479" r="4" fill="#0" id="circle157"/>
	<circle cx="428.189" cy="879.098" r="4" fill="#0" id="circle158"/>
	<circle cx="430.415" cy="861.284" r="4" fill="#0" id="circle159"/>
	<circle cx="432.642" cy="20.7003" r="4" fill="#0" id="circle160"/>
	<circle cx="433.755" cy="472.723" r="4" fill="#0" id="circle161"/>
	<circle cx="433.755" cy="637.499" r="4" fill="#0" id="circle162"/>
	<circle cx="433.755" cy="693.167" r="4" fill="#0" id="circle163"/>
	<circle cx="438.209" cy="704.301" r="4" fill="#0" id="circle164"/>
	<circle cx="439.322" cy="852.377" r="4" fill="#0" id="circle165"/>
	<circle cx="439.322" cy="873.531" r="4" fill="#0" id="circle166"/>
	<circle cx="442.662" cy="26.2671" r="4" fill="#0" id="circle167"/>
	<circle cx="442.662" cy="645.293" r="4" fill="#0" id="circle168"/>
	<circle cx="443.776" cy="467.156" r="4" fill="#0" id="circle169"/>
	<circle cx="443.776" cy="714.321" r="4" fill="#0" id="circle170"/>
	<circle cx="443.776" cy="808.956" r="4" fill="#0" id="circle171"/>
	<circle cx="448.229" cy="844.584" r="4" fill="#0" id="circle172"/>
	<circle cx="449.342" cy="797.823" r="4" fill="#0" id="circle173"/>
	<circle cx="450.456" cy="867.964" r="4" fill="#0" id="circle174"/>
	<circle cx="452.682" cy="31.8339" r="4" fill="#0" id="circle175"/>
	<circle cx="452.682" cy="650.86" r="4" fill="#0" id="circle176"/>
	<circle cx="452.682" cy="722.114" r="4" fill="#0" id="circle177"/>
	<circle cx="452.682" cy="833.45" r="4" fill="#0" id="circle178"/>
	<circle cx="453.796" cy="461.589" r="4" fill="#0" id="circle179"/>
	<circle cx="454.909" cy="812.296" r="4" fill="#0" id="circle180"/>
	<circle cx="458.249" cy="660.88" r="4" fill="#0" id="circle181"/>
	<circle cx="458.249" cy="788.916" r="4" fill="#0" id="circle182"/>
	<circle cx="459.363" cy="860.171" r="4" fill="#0" id="circle183"/>
	<circle cx="460.476" cy="731.021" r="4" fill="#0" id="circle184"/>
	<circle cx="462.703" cy="827.883" r="4" fill="#0" id="circle185"/>
	<circle cx="463.816" cy="31.8339" r="4" fill="#0" id="circle186"/>
	<circle cx="463.816" cy="456.022" r="4" fill="#0" id="circle187"/>
	<circle cx="463.816" cy="777.782" r="4" fill="#0" id="circle188"/>
	<circle cx="463.816" cy="805.616" r="4" fill="#0" id="circle189"/>
	<circle cx="466.043" cy="669.787" r="4" fill="#0" id="circle190"/>
	<circle cx="466.043" cy="741.042" r="4" fill="#0" id="circle191"/>
	<circle cx="467.156" cy="851.264" r="4" fill="#0" id="circle192"/>
	<circle cx="471.609" cy="751.062" r="4" fill="#0" id="circle193"/>
	<circle cx="471.609" cy="762.195" r="4" fill="#0" id="circle194"/>
	<circle cx="471.609" cy="814.523" r="4" fill="#0" id="circle195"/>
	<circle cx="473.836" cy="450.456" r="4" fill="#0" id="circle196"/>
	<circle cx="474.949" cy="31.8339" r="4" fill="#0" id="circle197"/>
	<circle cx="474.949" cy="677.58" r="4" fill="#0" id="circle198"/>
	<circle cx="476.063" cy="843.47" r="4" fill="#0" id="circle199"/>
	<circle cx="481.63" cy="832.337" r="4" fill="#0" id="circle200"/>
	<circle cx="482.743" cy="441.549" r="4" fill="#0" id="circle201"/>
	<circle cx="482.743" cy="686.487" r="4" fill="#0" id="circle202"/>
	<circle cx="484.97" cy="37.4007" r="4" fill="#0" id="circle203"/>
	<circle cx="488.31" cy="696.507" r="4" fill="#0" id="circle204"/>
	<circle cx="489.423" cy="428.189" r="4" fill="#0" id="circle205"/>
	<circle cx="489.423" cy="707.641" r="4" fill="#0" id="circle206"/>
	<circle cx="489.423" cy="718.774" r="4" fill="#0" id="circle207"/>
	<circle cx="489.423" cy="823.43" r="4" fill="#0" id="circle208"/>
	<circle cx="493.877" cy="45.1942" r="4" fill="#0" id="circle209"/>
	<circle cx="494.99" cy="728.795" r="4" fill="#0" id="circle210"/>
	<circle cx="494.99" cy="812.296" r="4" fill="#0" id="circle211"/>
	<circle cx="497.217" cy="739.928" r="4" fill="#0" id="circle212"/>
	<circle cx="498.33" cy="420.395" r="4" fill="#0" id="circle213"/>
	<circle cx="500.557" cy="751.062" r="4" fill="#0" id="circle214"/>
	<circle cx="500.557" cy="762.195" r="4" fill="#0" id="circle215"/>
	<circle cx="500.557" cy="773.329" r="4" fill="#0" id="circle216"/>
	<circle cx="500.557" cy="784.462" r="4" fill="#0" id="circle217"/>
	<circle cx="500.557" cy="795.596" r="4" fill="#0" id="circle218"/>
	<circle cx="503.897" cy="50.7609" r="4" fill="#0" id="circle219"/>
	<circle cx="506.123" cy="411.488" r="4" fill="#0" id="circle220"/>
	<circle cx="511.69" cy="59.6678" r="4" fill="#0" id="circle221"/>
	<circle cx="515.03" cy="403.695" r="4" fill="#0" id="circle222"/>
	<circle cx="522.824" cy="63.0079" r="4" fill="#0" id="circle223"/>
	<circle cx="522.824" cy="389.221" r="4" fill="#0" id="circle224"/>
	<circle cx="531.731" cy="70.8013" r="4" fill="#0" id="circle225"/>
	<circle cx="531.731" cy="381.428" r="4" fill="#0" id="circle226"/>
	<circle cx="539.524" cy="79.7082" r="4" fill="#0" id="circle227"/>
	<circle cx="539.524" cy="361.387" r="4" fill="#0" id="circle228"/>
	<circle cx="539.524" cy="372.521" r="4" fill="#0" id="circle229"/>
	<circle cx="545.091" cy="350.254" r="4" fill="#0" id="circle230"/>
	<circle cx="549.544" cy="85.275" r="4" fill="#0" id="circle231"/>
	<circle cx="553.998" cy="342.46" r="4" fill="#0" id="circle232"/>
	<circle cx="556.224" cy="94.1818" r="4" fill="#0" id="circle233"/>
	<circle cx="559.565" cy="331.327" r="4" fill="#0" id="circle234"/>
	<circle cx="561.791" cy="104.202" r="4" fill="#0" id="circle235"/>
	<circle cx="567.358" cy="316.853" r="4" fill="#0" id="circle236"/>
	<circle cx="570.698" cy="110.882" r="4" fill="#0" id="circle237"/>
	<circle cx="576.265" cy="309.059" r="4" fill="#0" id="circle238"/>
	<circle cx="578.492" cy="119.789" r="4" fill="#0" id="circle239"/>
	<circle cx="581.832" cy="297.926" r="4" fill="#0" id="circle240"/>
	<circle cx="587.398" cy="127.582" r="4" fill="#0" id="circle241"/>
	<circle cx="587.398" cy="286.792" r="4" fill="#0" id="circle242"/>
	<circle cx="589.625" cy="272.319" r="4" fill="#0" id="circle243"/>
	<circle cx="591.852" cy="138.716" r="4" fill="#0" id="circle244"/>
	<circle cx="595.192" cy="261.185" r="4" fill="#0" id="circle245"/>
	<circle cx="597.419" cy="148.736" r="4" fill="#0" id="circle246"/>
	<circle cx="600.759" cy="159.87" r="4" fill="#0" id="circle247"/>
	<circle cx="600.759" cy="238.918" r="4" fill="#0" id="circle248"/>
	<circle cx="600.759" cy="250.052" r="4" fill="#0" id="circle249"/>
	<circle cx="606.325" cy="169.89" r="4" fill="#0" id="circle250"/>
	<circle cx="606.325" cy="181.024" r="4" fill="#0" id="circle251"/>
	<circle cx="606.325" cy="205.517" r="4" fill="#0" id="circle252"/>
	<circle cx="606.325" cy="216.651" r="4" fill="#0" id="circle253"/>
	<circle cx="606.325" cy="227.785" r="4" fill="#0" id="circle254"/>
	<circle cx="611.892" cy="191.044" r="4" fill="#0" id="circle255"/>
	</g>
</svg>