<?xml version="1.0" encoding="UTF-8" standalone="no"?>
<!-- Created with CurveBenchmark -->
<svg
	xmlns:dc="http://purl.org/dc/elements/1.1/"
	xmlns:cc="http://creativecommons.org/ns#"
	xmlns:rdf="http://www.w3.org/1999/02/22-rdf-syntax-ns#"
	xmlns:svg="http://www.w3.org/2000/svg"
	xmlns="http://www.w3.org/2000/svg"
	xmlns:sodipodi="http://sodipodi.sourceforge.net/DTD/sodipodi-0.dtd"
	xmlns:inkscape="http://www.inkscape.org/namespaces/inkscape"
	width="1000"
	height="1000"
	id="svg2"
	version="1.1"
	sodipodi:docname="manifold/fitconnect-carriage01.png.txt">
<defs
	id="defs4" />
<metadata
	id="metadata7">
	<rdf:RDF>
		<cc:Work
			rdf:about="">
			<dc:format>image/svg+xml</dc:format>
			<dc:type
				rdf:resource="http://purl.org/dc/dcmitype/StillImage" />
			<dc:title></dc:title>
		</cc:Work>
	</rdf:RDF>
</metadata>
<g
	inkscape:label="Layer 1"
	inkscape:groupmode="layer"
	id="layer1">
	<path style="fill:none;stroke:red;stroke-width:1px;stroke-linecap:butt;stroke-linejoin:miter;stroke-opacity:1" d="M 4,125.503 12.3221,108.859 z" id="boundary" inkscape:connector-curvature="0" />
	<path style="fill:none;stroke:red;stroke-width:1px;stroke-linecap:butt;stroke-linejoin:miter;stroke-opacity:1" d="M 4,125.503 12.3221,140.483 z" id="boundary" inkscape:connector-curvature="0" />
	<path style="fill:none;stroke:red;stroke-width:1px;stroke-linecap:butt;stroke-linejoin:miter;stroke-opacity:1" d="M 12.3221,108.859 20.6443,92.2148 z" id="boundary" inkscape:connector-curvature="0" />
	<path style="fill:none;stroke:red;stroke-width:1px;stroke-linecap:butt;stroke-linejoin:miter;stroke-opacity:1" d="M 12.3221,140.483 23.9732,153.799 z" id="boundary" inkscape:connector-curvature="0" />
	<path style="fill:none;stroke:red;stroke-width:1px;stroke-linecap:butt;stroke-linejoin:miter;stroke-opacity:1" d="M 20.6443,92.2148 37.2886,75.5705 z" id="boundary" inkscape:connector-curvature="0" />
	<path style="fill:none;stroke:red;stroke-width:1px;stroke-linecap:butt;stroke-linejoin:miter;stroke-opacity:1" d="M 23.9732,153.799 40.6174,147.141 z" id="boundary" inkscape:connector-curvature="0" />
	<path style="fill:none;stroke:red;stroke-width:1px;stroke-linecap:butt;stroke-linejoin:miter;stroke-opacity:1" d="M 37.2886,75.5705 53.9329,67.2483 z" id="boundary" inkscape:connector-curvature="0" />
	<path style="fill:none;stroke:red;stroke-width:1px;stroke-linecap:butt;stroke-linejoin:miter;stroke-opacity:1" d="M 40.6174,147.141 55.5973,138.819 z" id="boundary" inkscape:connector-curvature="0" />
	<path style="fill:none;stroke:red;stroke-width:1px;stroke-linecap:butt;stroke-linejoin:miter;stroke-opacity:1" d="M 53.9329,67.2483 70.5772,70.5772 z" id="boundary" inkscape:connector-curvature="0" />
	<path style="fill:none;stroke:red;stroke-width:1px;stroke-linecap:butt;stroke-linejoin:miter;stroke-opacity:1" d="M 55.5973,138.819 70.5772,130.497 z" id="boundary" inkscape:connector-curvature="0" />
	<path style="fill:none;stroke:red;stroke-width:1px;stroke-linecap:butt;stroke-linejoin:miter;stroke-opacity:1" d="M 70.5772,70.5772 87.2215,70.5772 z" id="boundary" inkscape:connector-curvature="0" />
	<path style="fill:none;stroke:red;stroke-width:1px;stroke-linecap:butt;stroke-linejoin:miter;stroke-opacity:1" d="M 70.5772,130.497 87.2215,130.497 z" id="boundary" inkscape:connector-curvature="0" />
	<path style="fill:none;stroke:red;stroke-width:1px;stroke-linecap:butt;stroke-linejoin:miter;stroke-opacity:1" d="M 87.2215,70.5772 103.866,70.5772 z" id="boundary" inkscape:connector-curvature="0" />
	<path style="fill:none;stroke:red;stroke-width:1px;stroke-linecap:butt;stroke-linejoin:miter;stroke-opacity:1" d="M 87.2215,130.497 95.5436,145.477 z" id="boundary" inkscape:connector-curvature="0" />
	<path style="fill:none;stroke:red;stroke-width:1px;stroke-linecap:butt;stroke-linejoin:miter;stroke-opacity:1" d="M 95.5436,145.477 98.8725,162.121 z" id="boundary" inkscape:connector-curvature="0" />
	<path style="fill:none;stroke:red;stroke-width:1px;stroke-linecap:butt;stroke-linejoin:miter;stroke-opacity:1" d="M 98.8725,162.121 112.188,172.107 z" id="boundary" inkscape:connector-curvature="0" />
	<path style="fill:none;stroke:red;stroke-width:1px;stroke-linecap:butt;stroke-linejoin:miter;stroke-opacity:1" d="M 103.866,70.5772 120.51,67.2483 z" id="boundary" inkscape:connector-curvature="0" />
	<path style="fill:none;stroke:red;stroke-width:1px;stroke-linecap:butt;stroke-linejoin:miter;stroke-opacity:1" d="M 112.188,172.107 112.188,188.752 z" id="boundary" inkscape:connector-curvature="0" />
	<path style="fill:none;stroke:red;stroke-width:1px;stroke-linecap:butt;stroke-linejoin:miter;stroke-opacity:1" d="M 112.188,188.752 112.188,205.396 z" id="boundary" inkscape:connector-curvature="0" />
	<path style="fill:none;stroke:red;stroke-width:1px;stroke-linecap:butt;stroke-linejoin:miter;stroke-opacity:1" d="M 112.188,205.396 112.188,222.04 z" id="boundary" inkscape:connector-curvature="0" />
	<path style="fill:none;stroke:red;stroke-width:1px;stroke-linecap:butt;stroke-linejoin:miter;stroke-opacity:1" d="M 112.188,222.04 112.188,238.685 z" id="boundary" inkscape:connector-curvature="0" />
	<path style="fill:none;stroke:red;stroke-width:1px;stroke-linecap:butt;stroke-linejoin:miter;stroke-opacity:1" d="M 112.188,238.685 112.188,255.329 z" id="boundary" inkscape:connector-curvature="0" />
	<path style="fill:none;stroke:red;stroke-width:1px;stroke-linecap:butt;stroke-linejoin:miter;stroke-opacity:1" d="M 112.188,255.329 112.188,271.973 z" id="boundary" inkscape:connector-curvature="0" />
	<path style="fill:none;stroke:red;stroke-width:1px;stroke-linecap:butt;stroke-linejoin:miter;stroke-opacity:1" d="M 112.188,271.973 112.188,288.617 z" id="boundary" inkscape:connector-curvature="0" />
	<path style="fill:none;stroke:red;stroke-width:1px;stroke-linecap:butt;stroke-linejoin:miter;stroke-opacity:1" d="M 112.188,288.617 112.188,305.262 z" id="boundary" inkscape:connector-curvature="0" />
	<path style="fill:none;stroke:red;stroke-width:1px;stroke-linecap:butt;stroke-linejoin:miter;stroke-opacity:1" d="M 112.188,305.262 112.188,321.906 z" id="boundary" inkscape:connector-curvature="0" />
	<path style="fill:none;stroke:red;stroke-width:1px;stroke-linecap:butt;stroke-linejoin:miter;stroke-opacity:1" d="M 112.188,321.906 112.188,338.55 z" id="boundary" inkscape:connector-curvature="0" />
	<path style="fill:none;stroke:red;stroke-width:1px;stroke-linecap:butt;stroke-linejoin:miter;stroke-opacity:1" d="M 112.188,338.55 112.188,355.195 z" id="boundary" inkscape:connector-curvature="0" />
	<path style="fill:none;stroke:red;stroke-width:1px;stroke-linecap:butt;stroke-linejoin:miter;stroke-opacity:1" d="M 112.188,355.195 112.188,371.839 z" id="boundary" inkscape:connector-curvature="0" />
	<path style="fill:none;stroke:red;stroke-width:1px;stroke-linecap:butt;stroke-linejoin:miter;stroke-opacity:1" d="M 112.188,371.839 112.188,388.483 z" id="boundary" inkscape:connector-curvature="0" />
	<path style="fill:none;stroke:red;stroke-width:1px;stroke-linecap:butt;stroke-linejoin:miter;stroke-opacity:1" d="M 112.188,388.483 122.174,401.799 z" id="boundary" inkscape:connector-curvature="0" />
	<path style="fill:none;stroke:red;stroke-width:1px;stroke-linecap:butt;stroke-linejoin:miter;stroke-opacity:1" d="M 120.51,67.2483 137.154,65.5839 z" id="boundary" inkscape:connector-curvature="0" />
	<path style="fill:none;stroke:red;stroke-width:1px;stroke-linecap:butt;stroke-linejoin:miter;stroke-opacity:1" d="M 122.174,401.799 138.819,405.128 z" id="boundary" inkscape:connector-curvature="0" />
	<path style="fill:none;stroke:red;stroke-width:1px;stroke-linecap:butt;stroke-linejoin:miter;stroke-opacity:1" d="M 137.154,65.5839 147.141,78.8993 z" id="boundary" inkscape:connector-curvature="0" />
	<path style="fill:none;stroke:red;stroke-width:1px;stroke-linecap:butt;stroke-linejoin:miter;stroke-opacity:1" d="M 138.819,405.128 155.463,396.805 z" id="boundary" inkscape:connector-curvature="0" />
	<path style="fill:none;stroke:red;stroke-width:1px;stroke-linecap:butt;stroke-linejoin:miter;stroke-opacity:1" d="M 147.141,78.8993 162.121,87.2215 z" id="boundary" inkscape:connector-curvature="0" />
	<path style="fill:none;stroke:red;stroke-width:1px;stroke-linecap:butt;stroke-linejoin:miter;stroke-opacity:1" d="M 155.463,396.805 172.107,388.483 z" id="boundary" inkscape:connector-curvature="0" />
	<path style="fill:none;stroke:red;stroke-width:1px;stroke-linecap:butt;stroke-linejoin:miter;stroke-opacity:1" d="M 162.121,87.2215 175.436,97.2081 z" id="boundary" inkscape:connector-curvature="0" />
	<path style="fill:none;stroke:red;stroke-width:1px;stroke-linecap:butt;stroke-linejoin:miter;stroke-opacity:1" d="M 172.107,388.483 180.43,363.517 z" id="boundary" inkscape:connector-curvature="0" />
	<path style="fill:none;stroke:red;stroke-width:1px;stroke-linecap:butt;stroke-linejoin:miter;stroke-opacity:1" d="M 175.436,97.2081 188.752,108.859 z" id="boundary" inkscape:connector-curvature="0" />
	<path style="fill:none;stroke:red;stroke-width:1px;stroke-linecap:butt;stroke-linejoin:miter;stroke-opacity:1" d="M 180.43,363.517 188.752,346.872 z" id="boundary" inkscape:connector-curvature="0" />
	<path style="fill:none;stroke:red;stroke-width:1px;stroke-linecap:butt;stroke-linejoin:miter;stroke-opacity:1" d="M 188.752,108.859 200.403,122.174 z" id="boundary" inkscape:connector-curvature="0" />
	<path style="fill:none;stroke:red;stroke-width:1px;stroke-linecap:butt;stroke-linejoin:miter;stroke-opacity:1" d="M 188.752,280.295 188.752,296.94 z" id="boundary" inkscape:connector-curvature="0" />
	<path style="fill:none;stroke:red;stroke-width:1px;stroke-linecap:butt;stroke-linejoin:miter;stroke-opacity:1" d="M 188.752,280.295 205.396,280.295 z" id="boundary" inkscape:connector-curvature="0" />
	<path style="fill:none;stroke:red;stroke-width:1px;stroke-linecap:butt;stroke-linejoin:miter;stroke-opacity:1" d="M 188.752,296.94 188.752,313.584 z" id="boundary" inkscape:connector-curvature="0" />
	<path style="fill:none;stroke:red;stroke-width:1px;stroke-linecap:butt;stroke-linejoin:miter;stroke-opacity:1" d="M 188.752,313.584 188.752,330.228 z" id="boundary" inkscape:connector-curvature="0" />
	<path style="fill:none;stroke:red;stroke-width:1px;stroke-linecap:butt;stroke-linejoin:miter;stroke-opacity:1" d="M 188.752,330.228 188.752,346.872 z" id="boundary" inkscape:connector-curvature="0" />
	<path style="fill:none;stroke:red;stroke-width:1px;stroke-linecap:butt;stroke-linejoin:miter;stroke-opacity:1" d="M 200.403,122.174 217.047,120.51 z" id="boundary" inkscape:connector-curvature="0" />
	<path style="fill:none;stroke:red;stroke-width:1px;stroke-linecap:butt;stroke-linejoin:miter;stroke-opacity:1" d="M 205.396,280.295 222.04,280.295 z" id="boundary" inkscape:connector-curvature="0" />
	<path style="fill:none;stroke:red;stroke-width:1px;stroke-linecap:butt;stroke-linejoin:miter;stroke-opacity:1" d="M 217.047,120.51 233.691,120.51 z" id="boundary" inkscape:connector-curvature="0" />
	<path style="fill:none;stroke:red;stroke-width:1px;stroke-linecap:butt;stroke-linejoin:miter;stroke-opacity:1" d="M 222.04,280.295 238.685,280.295 z" id="boundary" inkscape:connector-curvature="0" />
	<path style="fill:none;stroke:red;stroke-width:1px;stroke-linecap:butt;stroke-linejoin:miter;stroke-opacity:1" d="M 233.691,120.51 250.336,120.51 z" id="boundary" inkscape:connector-curvature="0" />
	<path style="fill:none;stroke:red;stroke-width:1px;stroke-linecap:butt;stroke-linejoin:miter;stroke-opacity:1" d="M 238.685,280.295 255.329,280.295 z" id="boundary" inkscape:connector-curvature="0" />
	<path style="fill:none;stroke:red;stroke-width:1px;stroke-linecap:butt;stroke-linejoin:miter;stroke-opacity:1" d="M 250.336,120.51 266.98,120.51 z" id="boundary" inkscape:connector-curvature="0" />
	<path style="fill:none;stroke:red;stroke-width:1px;stroke-linecap:butt;stroke-linejoin:miter;stroke-opacity:1" d="M 255.329,280.295 271.973,280.295 z" id="boundary" inkscape:connector-curvature="0" />
	<path style="fill:none;stroke:red;stroke-width:1px;stroke-linecap:butt;stroke-linejoin:miter;stroke-opacity:1" d="M 266.98,120.51 283.624,120.51 z" id="boundary" inkscape:connector-curvature="0" />
	<path style="fill:none;stroke:red;stroke-width:1px;stroke-linecap:butt;stroke-linejoin:miter;stroke-opacity:1" d="M 271.973,280.295 288.617,280.295 z" id="boundary" inkscape:connector-curvature="0" />
	<path style="fill:none;stroke:red;stroke-width:1px;stroke-linecap:butt;stroke-linejoin:miter;stroke-opacity:1" d="M 283.624,120.51 300.268,120.51 z" id="boundary" inkscape:connector-curvature="0" />
	<path style="fill:none;stroke:red;stroke-width:1px;stroke-linecap:butt;stroke-linejoin:miter;stroke-opacity:1" d="M 288.617,280.295 305.262,280.295 z" id="boundary" inkscape:connector-curvature="0" />
	<path style="fill:none;stroke:red;stroke-width:1px;stroke-linecap:butt;stroke-linejoin:miter;stroke-opacity:1" d="M 300.268,120.51 316.913,120.51 z" id="boundary" inkscape:connector-curvature="0" />
	<path style="fill:none;stroke:red;stroke-width:1px;stroke-linecap:butt;stroke-linejoin:miter;stroke-opacity:1" d="M 305.262,280.295 321.906,283.624 z" id="boundary" inkscape:connector-curvature="0" />
	<path style="fill:none;stroke:red;stroke-width:1px;stroke-linecap:butt;stroke-linejoin:miter;stroke-opacity:1" d="M 316.913,120.51 333.557,120.51 z" id="boundary" inkscape:connector-curvature="0" />
	<path style="fill:none;stroke:red;stroke-width:1px;stroke-linecap:butt;stroke-linejoin:miter;stroke-opacity:1" d="M 321.906,283.624 328.564,300.268 z" id="boundary" inkscape:connector-curvature="0" />
	<path style="fill:none;stroke:red;stroke-width:1px;stroke-linecap:butt;stroke-linejoin:miter;stroke-opacity:1" d="M 328.564,300.268 328.564,316.913 z" id="boundary" inkscape:connector-curvature="0" />
	<path style="fill:none;stroke:red;stroke-width:1px;stroke-linecap:butt;stroke-linejoin:miter;stroke-opacity:1" d="M 328.564,316.913 328.564,333.557 z" id="boundary" inkscape:connector-curvature="0" />
	<path style="fill:none;stroke:red;stroke-width:1px;stroke-linecap:butt;stroke-linejoin:miter;stroke-opacity:1" d="M 328.564,333.557 328.564,350.201 z" id="boundary" inkscape:connector-curvature="0" />
	<path style="fill:none;stroke:red;stroke-width:1px;stroke-linecap:butt;stroke-linejoin:miter;stroke-opacity:1" d="M 328.564,350.201 328.564,366.846 z" id="boundary" inkscape:connector-curvature="0" />
	<path style="fill:none;stroke:red;stroke-width:1px;stroke-linecap:butt;stroke-linejoin:miter;stroke-opacity:1" d="M 328.564,366.846 328.564,383.49 z" id="boundary" inkscape:connector-curvature="0" />
	<path style="fill:none;stroke:red;stroke-width:1px;stroke-linecap:butt;stroke-linejoin:miter;stroke-opacity:1" d="M 328.564,383.49 328.564,400.134 z" id="boundary" inkscape:connector-curvature="0" />
	<path style="fill:none;stroke:red;stroke-width:1px;stroke-linecap:butt;stroke-linejoin:miter;stroke-opacity:1" d="M 328.564,400.134 338.55,413.45 z" id="boundary" inkscape:connector-curvature="0" />
	<path style="fill:none;stroke:red;stroke-width:1px;stroke-linecap:butt;stroke-linejoin:miter;stroke-opacity:1" d="M 333.557,120.51 350.201,120.51 z" id="boundary" inkscape:connector-curvature="0" />
	<path style="fill:none;stroke:red;stroke-width:1px;stroke-linecap:butt;stroke-linejoin:miter;stroke-opacity:1" d="M 338.55,413.45 355.195,413.45 z" id="boundary" inkscape:connector-curvature="0" />
	<path style="fill:none;stroke:red;stroke-width:1px;stroke-linecap:butt;stroke-linejoin:miter;stroke-opacity:1" d="M 350.201,120.51 366.846,120.51 z" id="boundary" inkscape:connector-curvature="0" />
	<path style="fill:none;stroke:red;stroke-width:1px;stroke-linecap:butt;stroke-linejoin:miter;stroke-opacity:1" d="M 355.195,413.45 371.839,413.45 z" id="boundary" inkscape:connector-curvature="0" />
	<path style="fill:none;stroke:red;stroke-width:1px;stroke-linecap:butt;stroke-linejoin:miter;stroke-opacity:1" d="M 366.846,120.51 381.826,128.832 z" id="boundary" inkscape:connector-curvature="0" />
	<path style="fill:none;stroke:red;stroke-width:1px;stroke-linecap:butt;stroke-linejoin:miter;stroke-opacity:1" d="M 371.839,413.45 388.483,413.45 z" id="boundary" inkscape:connector-curvature="0" />
	<path style="fill:none;stroke:red;stroke-width:1px;stroke-linecap:butt;stroke-linejoin:miter;stroke-opacity:1" d="M 381.826,128.832 396.805,137.154 z" id="boundary" inkscape:connector-curvature="0" />
	<path style="fill:none;stroke:red;stroke-width:1px;stroke-linecap:butt;stroke-linejoin:miter;stroke-opacity:1" d="M 388.483,413.45 396.805,396.805 z" id="boundary" inkscape:connector-curvature="0" />
	<path style="fill:none;stroke:red;stroke-width:1px;stroke-linecap:butt;stroke-linejoin:miter;stroke-opacity:1" d="M 396.805,137.154 405.128,152.134 z" id="boundary" inkscape:connector-curvature="0" />
	<path style="fill:none;stroke:red;stroke-width:1px;stroke-linecap:butt;stroke-linejoin:miter;stroke-opacity:1" d="M 396.805,396.805 405.128,371.839 z" id="boundary" inkscape:connector-curvature="0" />
	<path style="fill:none;stroke:red;stroke-width:1px;stroke-linecap:butt;stroke-linejoin:miter;stroke-opacity:1" d="M 405.128,152.134 405.128,168.779 z" id="boundary" inkscape:connector-curvature="0" />
	<path style="fill:none;stroke:red;stroke-width:1px;stroke-linecap:butt;stroke-linejoin:miter;stroke-opacity:1" d="M 405.128,168.779 405.128,185.423 z" id="boundary" inkscape:connector-curvature="0" />
	<path style="fill:none;stroke:red;stroke-width:1px;stroke-linecap:butt;stroke-linejoin:miter;stroke-opacity:1" d="M 405.128,185.423 413.45,200.403 z" id="boundary" inkscape:connector-curvature="0" />
	<path style="fill:none;stroke:red;stroke-width:1px;stroke-linecap:butt;stroke-linejoin:miter;stroke-opacity:1" d="M 405.128,321.906 405.128,338.55 z" id="boundary" inkscape:connector-curvature="0" />
	<path style="fill:none;stroke:red;stroke-width:1px;stroke-linecap:butt;stroke-linejoin:miter;stroke-opacity:1" d="M 405.128,321.906 421.772,321.906 z" id="boundary" inkscape:connector-curvature="0" />
	<path style="fill:none;stroke:red;stroke-width:1px;stroke-linecap:butt;stroke-linejoin:miter;stroke-opacity:1" d="M 405.128,338.55 405.128,355.195 z" id="boundary" inkscape:connector-curvature="0" />
	<path style="fill:none;stroke:red;stroke-width:1px;stroke-linecap:butt;stroke-linejoin:miter;stroke-opacity:1" d="M 405.128,355.195 405.128,371.839 z" id="boundary" inkscape:connector-curvature="0" />
	<path style="fill:none;stroke:red;stroke-width:1px;stroke-linecap:butt;stroke-linejoin:miter;stroke-opacity:1" d="M 413.45,200.403 413.45,217.047 z" id="boundary" inkscape:connector-curvature="0" />
	<path style="fill:none;stroke:red;stroke-width:1px;stroke-linecap:butt;stroke-linejoin:miter;stroke-opacity:1" d="M 413.45,217.047 413.45,238.685 z" id="boundary" inkscape:connector-curvature="0" />
	<path style="fill:none;stroke:red;stroke-width:1px;stroke-linecap:butt;stroke-linejoin:miter;stroke-opacity:1" d="M 413.45,238.685 430.094,245.342 z" id="boundary" inkscape:connector-curvature="0" />
	<path style="fill:none;stroke:red;stroke-width:1px;stroke-linecap:butt;stroke-linejoin:miter;stroke-opacity:1" d="M 421.772,321.906 438.416,321.906 z" id="boundary" inkscape:connector-curvature="0" />
	<path style="fill:none;stroke:red;stroke-width:1px;stroke-linecap:butt;stroke-linejoin:miter;stroke-opacity:1" d="M 430.094,245.342 446.738,245.342 z" id="boundary" inkscape:connector-curvature="0" />
	<path style="fill:none;stroke:red;stroke-width:1px;stroke-linecap:butt;stroke-linejoin:miter;stroke-opacity:1" d="M 438.416,321.906 453.396,330.228 z" id="boundary" inkscape:connector-curvature="0" />
	<path style="fill:none;stroke:red;stroke-width:1px;stroke-linecap:butt;stroke-linejoin:miter;stroke-opacity:1" d="M 446.738,245.342 463.383,240.349 z" id="boundary" inkscape:connector-curvature="0" />
	<path style="fill:none;stroke:red;stroke-width:1px;stroke-linecap:butt;stroke-linejoin:miter;stroke-opacity:1" d="M 453.396,330.228 453.396,346.872 z" id="boundary" inkscape:connector-curvature="0" />
	<path style="fill:none;stroke:red;stroke-width:1px;stroke-linecap:butt;stroke-linejoin:miter;stroke-opacity:1" d="M 453.396,346.872 453.396,366.846 z" id="boundary" inkscape:connector-curvature="0" />
	<path style="fill:none;stroke:red;stroke-width:1px;stroke-linecap:butt;stroke-linejoin:miter;stroke-opacity:1" d="M 453.396,366.846 466.711,378.497 z" id="boundary" inkscape:connector-curvature="0" />
	<path style="fill:none;stroke:red;stroke-width:1px;stroke-linecap:butt;stroke-linejoin:miter;stroke-opacity:1" d="M 463.383,240.349 480.027,232.027 z" id="boundary" inkscape:connector-curvature="0" />
	<path style="fill:none;stroke:red;stroke-width:1px;stroke-linecap:butt;stroke-linejoin:miter;stroke-opacity:1" d="M 466.711,378.497 480.027,388.483 z" id="boundary" inkscape:connector-curvature="0" />
	<path style="fill:none;stroke:red;stroke-width:1px;stroke-linecap:butt;stroke-linejoin:miter;stroke-opacity:1" d="M 480.027,232.027 486.685,208.725 z" id="boundary" inkscape:connector-curvature="0" />
	<path style="fill:none;stroke:red;stroke-width:1px;stroke-linecap:butt;stroke-linejoin:miter;stroke-opacity:1" d="M 480.027,388.483 496.671,391.812 z" id="boundary" inkscape:connector-curvature="0" />
	<path style="fill:none;stroke:red;stroke-width:1px;stroke-linecap:butt;stroke-linejoin:miter;stroke-opacity:1" d="M 486.685,125.503 486.685,142.148 z" id="boundary" inkscape:connector-curvature="0" />
	<path style="fill:none;stroke:red;stroke-width:1px;stroke-linecap:butt;stroke-linejoin:miter;stroke-opacity:1" d="M 486.685,125.503 503.329,120.51 z" id="boundary" inkscape:connector-curvature="0" />
	<path style="fill:none;stroke:red;stroke-width:1px;stroke-linecap:butt;stroke-linejoin:miter;stroke-opacity:1" d="M 486.685,142.148 486.685,158.792 z" id="boundary" inkscape:connector-curvature="0" />
	<path style="fill:none;stroke:red;stroke-width:1px;stroke-linecap:butt;stroke-linejoin:miter;stroke-opacity:1" d="M 486.685,158.792 486.685,175.436 z" id="boundary" inkscape:connector-curvature="0" />
	<path style="fill:none;stroke:red;stroke-width:1px;stroke-linecap:butt;stroke-linejoin:miter;stroke-opacity:1" d="M 486.685,175.436 486.685,192.081 z" id="boundary" inkscape:connector-curvature="0" />
	<path style="fill:none;stroke:red;stroke-width:1px;stroke-linecap:butt;stroke-linejoin:miter;stroke-opacity:1" d="M 486.685,192.081 486.685,208.725 z" id="boundary" inkscape:connector-curvature="0" />
	<path style="fill:none;stroke:red;stroke-width:1px;stroke-linecap:butt;stroke-linejoin:miter;stroke-opacity:1" d="M 496.671,391.812 511.651,400.134 z" id="boundary" inkscape:connector-curvature="0" />
	<path style="fill:none;stroke:red;stroke-width:1px;stroke-linecap:butt;stroke-linejoin:miter;stroke-opacity:1" d="M 503.329,120.51 518.309,112.188 z" id="boundary" inkscape:connector-curvature="0" />
	<path style="fill:none;stroke:red;stroke-width:1px;stroke-linecap:butt;stroke-linejoin:miter;stroke-opacity:1" d="M 511.651,400.134 528.295,405.128 z" id="boundary" inkscape:connector-curvature="0" />
	<path style="fill:none;stroke:red;stroke-width:1px;stroke-linecap:butt;stroke-linejoin:miter;stroke-opacity:1" d="M 518.309,112.188 534.953,112.188 z" id="boundary" inkscape:connector-curvature="0" />
	<path style="fill:none;stroke:red;stroke-width:1px;stroke-linecap:butt;stroke-linejoin:miter;stroke-opacity:1" d="M 528.295,405.128 543.275,413.45 z" id="boundary" inkscape:connector-curvature="0" />
	<path style="fill:none;stroke:red;stroke-width:1px;stroke-linecap:butt;stroke-linejoin:miter;stroke-opacity:1" d="M 534.953,112.188 549.933,103.866 z" id="boundary" inkscape:connector-curvature="0" />
	<path style="fill:none;stroke:red;stroke-width:1px;stroke-linecap:butt;stroke-linejoin:miter;stroke-opacity:1" d="M 543.275,413.45 559.919,410.121 z" id="boundary" inkscape:connector-curvature="0" />
	<path style="fill:none;stroke:red;stroke-width:1px;stroke-linecap:butt;stroke-linejoin:miter;stroke-opacity:1" d="M 544.94,42.2819 553.262,57.2617 z" id="boundary" inkscape:connector-curvature="0" />
	<path style="fill:none;stroke:red;stroke-width:1px;stroke-linecap:butt;stroke-linejoin:miter;stroke-opacity:1" d="M 544.94,42.2819 558.255,28.9664 z" id="boundary" inkscape:connector-curvature="0" />
	<path style="fill:none;stroke:red;stroke-width:1px;stroke-linecap:butt;stroke-linejoin:miter;stroke-opacity:1" d="M 549.933,103.866 553.262,73.906 z" id="boundary" inkscape:connector-curvature="0" />
	<path style="fill:none;stroke:red;stroke-width:1px;stroke-linecap:butt;stroke-linejoin:miter;stroke-opacity:1" d="M 553.262,57.2617 553.262,73.906 z" id="boundary" inkscape:connector-curvature="0" />
	<path style="fill:none;stroke:red;stroke-width:1px;stroke-linecap:butt;stroke-linejoin:miter;stroke-opacity:1" d="M 558.255,28.9664 569.906,8.99329 z" id="boundary" inkscape:connector-curvature="0" />
	<path style="fill:none;stroke:red;stroke-width:1px;stroke-linecap:butt;stroke-linejoin:miter;stroke-opacity:1" d="M 559.919,410.121 576.564,401.799 z" id="boundary" inkscape:connector-curvature="0" />
	<path style="fill:none;stroke:red;stroke-width:1px;stroke-linecap:butt;stroke-linejoin:miter;stroke-opacity:1" d="M 569.906,8.99329 586.55,4 z" id="boundary" inkscape:connector-curvature="0" />
	<path style="fill:none;stroke:red;stroke-width:1px;stroke-linecap:butt;stroke-linejoin:miter;stroke-opacity:1" d="M 576.564,401.799 584.886,385.154 z" id="boundary" inkscape:connector-curvature="0" />
	<path style="fill:none;stroke:red;stroke-width:1px;stroke-linecap:butt;stroke-linejoin:miter;stroke-opacity:1" d="M 584.886,385.154 588.215,355.195 z" id="boundary" inkscape:connector-curvature="0" />
	<path style="fill:none;stroke:red;stroke-width:1px;stroke-linecap:butt;stroke-linejoin:miter;stroke-opacity:1" d="M 586.55,4 599.866,13.9866 z" id="boundary" inkscape:connector-curvature="0" />
	<path style="fill:none;stroke:red;stroke-width:1px;stroke-linecap:butt;stroke-linejoin:miter;stroke-opacity:1" d="M 588.215,338.55 588.215,355.195 z" id="boundary" inkscape:connector-curvature="0" />
	<path style="fill:none;stroke:red;stroke-width:1px;stroke-linecap:butt;stroke-linejoin:miter;stroke-opacity:1" d="M 588.215,338.55 596.537,321.906 z" id="boundary" inkscape:connector-curvature="0" />
	<path style="fill:none;stroke:red;stroke-width:1px;stroke-linecap:butt;stroke-linejoin:miter;stroke-opacity:1" d="M 596.537,321.906 613.181,321.906 z" id="boundary" inkscape:connector-curvature="0" />
	<path style="fill:none;stroke:red;stroke-width:1px;stroke-linecap:butt;stroke-linejoin:miter;stroke-opacity:1" d="M 599.866,13.9866 604.859,30.6309 z" id="boundary" inkscape:connector-curvature="0" />
	<path style="fill:none;stroke:red;stroke-width:1px;stroke-linecap:butt;stroke-linejoin:miter;stroke-opacity:1" d="M 604.859,30.6309 613.181,45.6107 z" id="boundary" inkscape:connector-curvature="0" />
	<path style="fill:none;stroke:red;stroke-width:1px;stroke-linecap:butt;stroke-linejoin:miter;stroke-opacity:1" d="M 613.181,45.6107 621.503,60.5906 z" id="boundary" inkscape:connector-curvature="0" />
	<path style="fill:none;stroke:red;stroke-width:1px;stroke-linecap:butt;stroke-linejoin:miter;stroke-opacity:1" d="M 613.181,321.906 629.826,321.906 z" id="boundary" inkscape:connector-curvature="0" />
	<path style="fill:none;stroke:red;stroke-width:1px;stroke-linecap:butt;stroke-linejoin:miter;stroke-opacity:1" d="M 621.503,60.5906 621.503,77.2349 z" id="boundary" inkscape:connector-curvature="0" />
	<path style="fill:none;stroke:red;stroke-width:1px;stroke-linecap:butt;stroke-linejoin:miter;stroke-opacity:1" d="M 621.503,77.2349 621.503,93.8792 z" id="boundary" inkscape:connector-curvature="0" />
	<path style="fill:none;stroke:red;stroke-width:1px;stroke-linecap:butt;stroke-linejoin:miter;stroke-opacity:1" d="M 621.503,93.8792 629.826,108.859 z" id="boundary" inkscape:connector-curvature="0" />
	<path style="fill:none;stroke:red;stroke-width:1px;stroke-linecap:butt;stroke-linejoin:miter;stroke-opacity:1" d="M 629.826,108.859 636.483,125.503 z" id="boundary" inkscape:connector-curvature="0" />
	<path style="fill:none;stroke:red;stroke-width:1px;stroke-linecap:butt;stroke-linejoin:miter;stroke-opacity:1" d="M 629.826,321.906 646.47,321.906 z" id="boundary" inkscape:connector-curvature="0" />
	<path style="fill:none;stroke:red;stroke-width:1px;stroke-linecap:butt;stroke-linejoin:miter;stroke-opacity:1" d="M 636.483,125.503 644.805,140.483 z" id="boundary" inkscape:connector-curvature="0" />
	<path style="fill:none;stroke:red;stroke-width:1px;stroke-linecap:butt;stroke-linejoin:miter;stroke-opacity:1" d="M 644.805,140.483 646.47,157.128 z" id="boundary" inkscape:connector-curvature="0" />
	<path style="fill:none;stroke:red;stroke-width:1px;stroke-linecap:butt;stroke-linejoin:miter;stroke-opacity:1" d="M 646.47,157.128 646.47,173.772 z" id="boundary" inkscape:connector-curvature="0" />
	<path style="fill:none;stroke:red;stroke-width:1px;stroke-linecap:butt;stroke-linejoin:miter;stroke-opacity:1" d="M 646.47,173.772 646.47,190.416 z" id="boundary" inkscape:connector-curvature="0" />
	<path style="fill:none;stroke:red;stroke-width:1px;stroke-linecap:butt;stroke-linejoin:miter;stroke-opacity:1" d="M 646.47,190.416 656.456,203.732 z" id="boundary" inkscape:connector-curvature="0" />
	<path style="fill:none;stroke:red;stroke-width:1px;stroke-linecap:butt;stroke-linejoin:miter;stroke-opacity:1" d="M 646.47,321.906 663.114,321.906 z" id="boundary" inkscape:connector-curvature="0" />
	<path style="fill:none;stroke:red;stroke-width:1px;stroke-linecap:butt;stroke-linejoin:miter;stroke-opacity:1" d="M 656.456,203.732 673.101,203.732 z" id="boundary" inkscape:connector-curvature="0" />
	<path style="fill:none;stroke:red;stroke-width:1px;stroke-linecap:butt;stroke-linejoin:miter;stroke-opacity:1" d="M 663.114,321.906 679.758,313.584 z" id="boundary" inkscape:connector-curvature="0" />
	<path style="fill:none;stroke:red;stroke-width:1px;stroke-linecap:butt;stroke-linejoin:miter;stroke-opacity:1" d="M 673.101,203.732 686.416,192.081 z" id="boundary" inkscape:connector-curvature="0" />
	<path style="fill:none;stroke:red;stroke-width:1px;stroke-linecap:butt;stroke-linejoin:miter;stroke-opacity:1" d="M 679.758,313.584 696.403,313.584 z" id="boundary" inkscape:connector-curvature="0" />
	<path style="fill:none;stroke:red;stroke-width:1px;stroke-linecap:butt;stroke-linejoin:miter;stroke-opacity:1" d="M 686.416,192.081 699.732,178.765 z" id="boundary" inkscape:connector-curvature="0" />
	<path style="fill:none;stroke:red;stroke-width:1px;stroke-linecap:butt;stroke-linejoin:miter;stroke-opacity:1" d="M 696.403,313.584 713.047,305.262 z" id="boundary" inkscape:connector-curvature="0" />
	<path style="fill:none;stroke:red;stroke-width:1px;stroke-linecap:butt;stroke-linejoin:miter;stroke-opacity:1" d="M 699.732,178.765 703.06,150.47 z" id="boundary" inkscape:connector-curvature="0" />
	<path style="fill:none;stroke:red;stroke-width:1px;stroke-linecap:butt;stroke-linejoin:miter;stroke-opacity:1" d="M 703.06,150.47 716.376,137.154 z" id="boundary" inkscape:connector-curvature="0" />
	<path style="fill:none;stroke:red;stroke-width:1px;stroke-linecap:butt;stroke-linejoin:miter;stroke-opacity:1" d="M 713.047,305.262 729.691,305.262 z" id="boundary" inkscape:connector-curvature="0" />
	<path style="fill:none;stroke:red;stroke-width:1px;stroke-linecap:butt;stroke-linejoin:miter;stroke-opacity:1" d="M 716.376,137.154 729.691,123.839 z" id="boundary" inkscape:connector-curvature="0" />
	<path style="fill:none;stroke:red;stroke-width:1px;stroke-linecap:butt;stroke-linejoin:miter;stroke-opacity:1" d="M 729.691,123.839 736.349,92.2148 z" id="boundary" inkscape:connector-curvature="0" />
	<path style="fill:none;stroke:red;stroke-width:1px;stroke-linecap:butt;stroke-linejoin:miter;stroke-opacity:1" d="M 729.691,305.262 746.336,305.262 z" id="boundary" inkscape:connector-curvature="0" />
	<path style="fill:none;stroke:red;stroke-width:1px;stroke-linecap:butt;stroke-linejoin:miter;stroke-opacity:1" d="M 736.349,92.2148 749.664,78.8993 z" id="boundary" inkscape:connector-curvature="0" />
	<path style="fill:none;stroke:red;stroke-width:1px;stroke-linecap:butt;stroke-linejoin:miter;stroke-opacity:1" d="M 746.336,305.262 761.315,313.584 z" id="boundary" inkscape:connector-curvature="0" />
	<path style="fill:none;stroke:red;stroke-width:1px;stroke-linecap:butt;stroke-linejoin:miter;stroke-opacity:1" d="M 749.664,78.8993 762.98,65.5839 z" id="boundary" inkscape:connector-curvature="0" />
	<path style="fill:none;stroke:red;stroke-width:1px;stroke-linecap:butt;stroke-linejoin:miter;stroke-opacity:1" d="M 761.315,313.584 761.315,341.879 z" id="boundary" inkscape:connector-curvature="0" />
	<path style="fill:none;stroke:red;stroke-width:1px;stroke-linecap:butt;stroke-linejoin:miter;stroke-opacity:1" d="M 761.315,341.879 769.638,356.859 z" id="boundary" inkscape:connector-curvature="0" />
	<path style="fill:none;stroke:red;stroke-width:1px;stroke-linecap:butt;stroke-linejoin:miter;stroke-opacity:1" d="M 762.98,65.5839 776.295,55.5973 z" id="boundary" inkscape:connector-curvature="0" />
	<path style="fill:none;stroke:red;stroke-width:1px;stroke-linecap:butt;stroke-linejoin:miter;stroke-opacity:1" d="M 769.638,356.859 781.289,370.174 z" id="boundary" inkscape:connector-curvature="0" />
	<path style="fill:none;stroke:red;stroke-width:1px;stroke-linecap:butt;stroke-linejoin:miter;stroke-opacity:1" d="M 776.295,55.5973 791.275,63.9195 z" id="boundary" inkscape:connector-curvature="0" />
	<path style="fill:none;stroke:red;stroke-width:1px;stroke-linecap:butt;stroke-linejoin:miter;stroke-opacity:1" d="M 781.289,370.174 789.611,385.154 z" id="boundary" inkscape:connector-curvature="0" />
	<path style="fill:none;stroke:red;stroke-width:1px;stroke-linecap:butt;stroke-linejoin:miter;stroke-opacity:1" d="M 789.611,385.154 794.604,401.799 z" id="boundary" inkscape:connector-curvature="0" />
	<path style="fill:none;stroke:red;stroke-width:1px;stroke-linecap:butt;stroke-linejoin:miter;stroke-opacity:1" d="M 791.275,63.9195 807.919,70.5772 z" id="boundary" inkscape:connector-curvature="0" />
	<path style="fill:none;stroke:red;stroke-width:1px;stroke-linecap:butt;stroke-linejoin:miter;stroke-opacity:1" d="M 794.604,401.799 802.926,416.779 z" id="boundary" inkscape:connector-curvature="0" />
	<path style="fill:none;stroke:red;stroke-width:1px;stroke-linecap:butt;stroke-linejoin:miter;stroke-opacity:1" d="M 802.926,416.779 819.57,421.772 z" id="boundary" inkscape:connector-curvature="0" />
	<path style="fill:none;stroke:red;stroke-width:1px;stroke-linecap:butt;stroke-linejoin:miter;stroke-opacity:1" d="M 807.919,70.5772 822.899,78.8993 z" id="boundary" inkscape:connector-curvature="0" />
	<path style="fill:none;stroke:red;stroke-width:1px;stroke-linecap:butt;stroke-linejoin:miter;stroke-opacity:1" d="M 819.57,421.772 834.55,430.094 z" id="boundary" inkscape:connector-curvature="0" />
	<path style="fill:none;stroke:red;stroke-width:1px;stroke-linecap:butt;stroke-linejoin:miter;stroke-opacity:1" d="M 822.899,78.8993 836.215,90.5503 z" id="boundary" inkscape:connector-curvature="0" />
	<path style="fill:none;stroke:red;stroke-width:1px;stroke-linecap:butt;stroke-linejoin:miter;stroke-opacity:1" d="M 834.55,430.094 849.53,438.416 z" id="boundary" inkscape:connector-curvature="0" />
	<path style="fill:none;stroke:red;stroke-width:1px;stroke-linecap:butt;stroke-linejoin:miter;stroke-opacity:1" d="M 836.215,90.5503 846.201,103.866 z" id="boundary" inkscape:connector-curvature="0" />
	<path style="fill:none;stroke:red;stroke-width:1px;stroke-linecap:butt;stroke-linejoin:miter;stroke-opacity:1" d="M 846.201,103.866 859.517,113.852 z" id="boundary" inkscape:connector-curvature="0" />
	<path style="fill:none;stroke:red;stroke-width:1px;stroke-linecap:butt;stroke-linejoin:miter;stroke-opacity:1" d="M 849.53,438.416 864.51,446.738 z" id="boundary" inkscape:connector-curvature="0" />
	<path style="fill:none;stroke:red;stroke-width:1px;stroke-linecap:butt;stroke-linejoin:miter;stroke-opacity:1" d="M 859.517,113.852 876.161,120.51 z" id="boundary" inkscape:connector-curvature="0" />
	<path style="fill:none;stroke:red;stroke-width:1px;stroke-linecap:butt;stroke-linejoin:miter;stroke-opacity:1" d="M 864.51,446.738 881.154,446.738 z" id="boundary" inkscape:connector-curvature="0" />
	<path style="fill:none;stroke:red;stroke-width:1px;stroke-linecap:butt;stroke-linejoin:miter;stroke-opacity:1" d="M 876.161,120.51 892.805,120.51 z" id="boundary" inkscape:connector-curvature="0" />
	<path style="fill:none;stroke:red;stroke-width:1px;stroke-linecap:butt;stroke-linejoin:miter;stroke-opacity:1" d="M 881.154,446.738 897.799,446.738 z" id="boundary" inkscape:connector-curvature="0" />
	<path style="fill:none;stroke:red;stroke-width:1px;stroke-linecap:butt;stroke-linejoin:miter;stroke-opacity:1" d="M 892.805,120.51 909.45,120.51 z" id="boundary" inkscape:connector-curvature="0" />
	<path style="fill:none;stroke:red;stroke-width:1px;stroke-linecap:butt;stroke-linejoin:miter;stroke-opacity:1" d="M 897.799,446.738 914.443,446.738 z" id="boundary" inkscape:connector-curvature="0" />
	<path style="fill:none;stroke:red;stroke-width:1px;stroke-linecap:butt;stroke-linejoin:miter;stroke-opacity:1" d="M 909.45,120.51 926.094,120.51 z" id="boundary" inkscape:connector-curvature="0" />
	<path style="fill:none;stroke:red;stroke-width:1px;stroke-linecap:butt;stroke-linejoin:miter;stroke-opacity:1" d="M 914.443,446.738 931.087,446.738 z" id="boundary" inkscape:connector-curvature="0" />
	<path style="fill:none;stroke:red;stroke-width:1px;stroke-linecap:butt;stroke-linejoin:miter;stroke-opacity:1" d="M 926.094,120.51 942.738,122.174 z" id="boundary" inkscape:connector-curvature="0" />
	<path style="fill:none;stroke:red;stroke-width:1px;stroke-linecap:butt;stroke-linejoin:miter;stroke-opacity:1" d="M 931.087,446.738 946.067,438.416 z" id="boundary" inkscape:connector-curvature="0" />
	<path style="fill:none;stroke:red;stroke-width:1px;stroke-linecap:butt;stroke-linejoin:miter;stroke-opacity:1" d="M 942.738,122.174 954.389,135.49 z" id="boundary" inkscape:connector-curvature="0" />
	<path style="fill:none;stroke:red;stroke-width:1px;stroke-linecap:butt;stroke-linejoin:miter;stroke-opacity:1" d="M 946.067,438.416 962.711,430.094 z" id="boundary" inkscape:connector-curvature="0" />
	<path style="fill:none;stroke:red;stroke-width:1px;stroke-linecap:butt;stroke-linejoin:miter;stroke-opacity:1" d="M 954.389,135.49 962.711,150.47 z" id="boundary" inkscape:connector-curvature="0" />
	<path style="fill:none;stroke:red;stroke-width:1px;stroke-linecap:butt;stroke-linejoin:miter;stroke-opacity:1" d="M 962.711,150.47 962.711,167.114 z" id="boundary" inkscape:connector-curvature="0" />
	<path style="fill:none;stroke:red;stroke-width:1px;stroke-linecap:butt;stroke-linejoin:miter;stroke-opacity:1" d="M 962.711,167.114 962.711,183.758 z" id="boundary" inkscape:connector-curvature="0" />
	<path style="fill:none;stroke:red;stroke-width:1px;stroke-linecap:butt;stroke-linejoin:miter;stroke-opacity:1" d="M 962.711,183.758 962.711,200.403 z" id="boundary" inkscape:connector-curvature="0" />
	<path style="fill:none;stroke:red;stroke-width:1px;stroke-linecap:butt;stroke-linejoin:miter;stroke-opacity:1" d="M 962.711,200.403 962.711,217.047 z" id="boundary" inkscape:connector-curvature="0" />
	<path style="fill:none;stroke:red;stroke-width:1px;stroke-linecap:butt;stroke-linejoin:miter;stroke-opacity:1" d="M 962.711,217.047 969.369,233.691 z" id="boundary" inkscape:connector-curvature="0" />
	<path style="fill:none;stroke:red;stroke-width:1px;stroke-linecap:butt;stroke-linejoin:miter;stroke-opacity:1" d="M 962.711,430.094 976.027,418.443 z" id="boundary" inkscape:connector-curvature="0" />
	<path style="fill:none;stroke:red;stroke-width:1px;stroke-linecap:butt;stroke-linejoin:miter;stroke-opacity:1" d="M 969.369,233.691 977.691,248.671 z" id="boundary" inkscape:connector-curvature="0" />
	<path style="fill:none;stroke:red;stroke-width:1px;stroke-linecap:butt;stroke-linejoin:miter;stroke-opacity:1" d="M 976.027,418.443 984.349,401.799 z" id="boundary" inkscape:connector-curvature="0" />
	<path style="fill:none;stroke:red;stroke-width:1px;stroke-linecap:butt;stroke-linejoin:miter;stroke-opacity:1" d="M 977.691,248.671 984.349,265.315 z" id="boundary" inkscape:connector-curvature="0" />
	<path style="fill:none;stroke:red;stroke-width:1px;stroke-linecap:butt;stroke-linejoin:miter;stroke-opacity:1" d="M 984.349,265.315 992.671,280.295 z" id="boundary" inkscape:connector-curvature="0" />
	<path style="fill:none;stroke:red;stroke-width:1px;stroke-linecap:butt;stroke-linejoin:miter;stroke-opacity:1" d="M 984.349,401.799 992.671,385.154 z" id="boundary" inkscape:connector-curvature="0" />
	<path style="fill:none;stroke:red;stroke-width:1px;stroke-linecap:butt;stroke-linejoin:miter;stroke-opacity:1" d="M 992.671,280.295 996,296.94 z" id="boundary" inkscape:connector-curvature="0" />
	<path style="fill:none;stroke:red;stroke-width:1px;stroke-linecap:butt;stroke-linejoin:miter;stroke-opacity:1" d="M 992.671,385.154 996,363.517 z" id="boundary" inkscape:connector-curvature="0" />
	<path style="fill:none;stroke:red;stroke-width:1px;stroke-linecap:butt;stroke-linejoin:miter;stroke-opacity:1" d="M 996,296.94 996,313.584 z" id="boundary" inkscape:connector-curvature="0" />
	<path style="fill:none;stroke:red;stroke-width:1px;stroke-linecap:butt;stroke-linejoin:miter;stroke-opacity:1" d="M 996,313.584 996,330.228 z" id="boundary" inkscape:connector-curvature="0" />
	<path style="fill:none;stroke:red;stroke-width:1px;stroke-linecap:butt;stroke-linejoin:miter;stroke-opacity:1" d="M 996,330.228 996,346.872 z" id="boundary" inkscape:connector-curvature="0" />
	<path style="fill:none;stroke:red;stroke-width:1px;stroke-linecap:butt;stroke-linejoin:miter;stroke-opacity:1" d="M 996,346.872 996,363.517 z" id="boundary" inkscape:connector-curvature="0" />
	<circle cx="4" cy="125.503" r="4" fill="#0" id="circle0"/>
	<circle cx="12.3221" cy="108.859" r="4" fill="#0" id="circle1"/>
	<circle cx="12.3221" cy="140.483" r="4" fill="#0" id="circle2"/>
	<circle cx="20.6443" cy="92.2148" r="4" fill="#0" id="circle3"/>
	<circle cx="23.9732" cy="153.799" r="4" fill="#0" id="circle4"/>
	<circle cx="37.2886" cy="75.5705" r="4" fill="#0" id="circle5"/>
	<circle cx="40.6174" cy="147.141" r="4" fill="#0" id="circle6"/>
	<circle cx="53.9329" cy="67.2483" r="4" fill="#0" id="circle7"/>
	<circle cx="55.5973" cy="138.819" r="4" fill="#0" id="circle8"/>
	<circle cx="70.5772" cy="70.5772" r="4" fill="#0" id="circle9"/>
	<circle cx="70.5772" cy="130.497" r="4" fill="#0" id="circle10"/>
	<circle cx="87.2215" cy="70.5772" r="4" fill="#0" id="circle11"/>
	<circle cx="87.2215" cy="130.497" r="4" fill="#0" id="circle12"/>
	<circle cx="95.5436" cy="145.477" r="4" fill="#0" id="circle13"/>
	<circle cx="98.8725" cy="162.121" r="4" fill="#0" id="circle14"/>
	<circle cx="103.866" cy="70.5772" r="4" fill="#0" id="circle15"/>
	<circle cx="112.188" cy="172.107" r="4" fill="#0" id="circle16"/>
	<circle cx="112.188" cy="188.752" r="4" fill="#0" id="circle17"/>
	<circle cx="112.188" cy="205.396" r="4" fill="#0" id="circle18"/>
	<circle cx="112.188" cy="222.04" r="4" fill="#0" id="circle19"/>
	<circle cx="112.188" cy="238.685" r="4" fill="#0" id="circle20"/>
	<circle cx="112.188" cy="255.329" r="4" fill="#0" id="circle21"/>
	<circle cx="112.188" cy="271.973" r="4" fill="#0" id="circle22"/>
	<circle cx="112.188" cy="288.617" r="4" fill="#0" id="circle23"/>
	<circle cx="112.188" cy="305.262" r="4" fill="#0" id="circle24"/>
	<circle cx="112.188" cy="321.906" r="4" fill="#0" id="circle25"/>
	<circle cx="112.188" cy="338.55" r="4" fill="#0" id="circle26"/>
	<circle cx="112.188" cy="355.195" r="4" fill="#0" id="circle27"/>
	<circle cx="112.188" cy="371.839" r="4" fill="#0" id="circle28"/>
	<circle cx="112.188" cy="388.483" r="4" fill="#0" id="circle29"/>
	<circle cx="120.51" cy="67.2483" r="4" fill="#0" id="circle30"/>
	<circle cx="122.174" cy="401.799" r="4" fill="#0" id="circle31"/>
	<circle cx="137.154" cy="65.5839" r="4" fill="#0" id="circle32"/>
	<circle cx="138.819" cy="405.128" r="4" fill="#0" id="circle33"/>
	<circle cx="147.141" cy="78.8993" r="4" fill="#0" id="circle34"/>
	<circle cx="155.463" cy="396.805" r="4" fill="#0" id="circle35"/>
	<circle cx="162.121" cy="87.2215" r="4" fill="#0" id="circle36"/>
	<circle cx="172.107" cy="388.483" r="4" fill="#0" id="circle37"/>
	<circle cx="175.436" cy="97.2081" r="4" fill="#0" id="circle38"/>
	<circle cx="180.43" cy="363.517" r="4" fill="#0" id="circle39"/>
	<circle cx="188.752" cy="108.859" r="4" fill="#0" id="circle40"/>
	<circle cx="188.752" cy="280.295" r="4" fill="#0" id="circle41"/>
	<circle cx="188.752" cy="296.94" r="4" fill="#0" id="circle42"/>
	<circle cx="188.752" cy="313.584" r="4" fill="#0" id="circle43"/>
	<circle cx="188.752" cy="330.228" r="4" fill="#0" id="circle44"/>
	<circle cx="188.752" cy="346.872" r="4" fill="#0" id="circle45"/>
	<circle cx="200.403" cy="122.174" r="4" fill="#0" id="circle46"/>
	<circle cx="205.396" cy="280.295" r="4" fill="#0" id="circle47"/>
	<circle cx="217.047" cy="120.51" r="4" fill="#0" id="circle48"/>
	<circle cx="222.04" cy="280.295" r="4" fill="#0" id="circle49"/>
	<circle cx="233.691" cy="120.51" r="4" fill="#0" id="circle50"/>
	<circle cx="238.685" cy="280.295" r="4" fill="#0" id="circle51"/>
	<circle cx="250.336" cy="120.51" r="4" fill="#0" id="circle52"/>
	<circle cx="255.329" cy="280.295" r="4" fill="#0" id="circle53"/>
	<circle cx="266.98" cy="120.51" r="4" fill="#0" id="circle54"/>
	<circle cx="271.973" cy="280.295" r="4" fill="#0" id="circle55"/>
	<circle cx="283.624" cy="120.51" r="4" fill="#0" id="circle56"/>
	<circle cx="288.617" cy="280.295" r="4" fill="#0" id="circle57"/>
	<circle cx="300.268" cy="120.51" r="4" fill="#0" id="circle58"/>
	<circle cx="305.262" cy="280.295" r="4" fill="#0" id="circle59"/>
	<circle cx="316.913" cy="120.51" r="4" fill="#0" id="circle60"/>
	<circle cx="321.906" cy="283.624" r="4" fill="#0" id="circle61"/>
	<circle cx="328.564" cy="300.268" r="4" fill="#0" id="circle62"/>
	<circle cx="328.564" cy="316.913" r="4" fill="#0" id="circle63"/>
	<circle cx="328.564" cy="333.557" r="4" fill="#0" id="circle64"/>
	<circle cx="328.564" cy="350.201" r="4" fill="#0" id="circle65"/>
	<circle cx="328.564" cy="366.846" r="4" fill="#0" id="circle66"/>
	<circle cx="328.564" cy="383.49" r="4" fill="#0" id="circle67"/>
	<circle cx="328.564" cy="400.134" r="4" fill="#0" id="circle68"/>
	<circle cx="333.557" cy="120.51" r="4" fill="#0" id="circle69"/>
	<circle cx="338.55" cy="413.45" r="4" fill="#0" id="circle70"/>
	<circle cx="350.201" cy="120.51" r="4" fill="#0" id="circle71"/>
	<circle cx="355.195" cy="413.45" r="4" fill="#0" id="circle72"/>
	<circle cx="366.846" cy="120.51" r="4" fill="#0" id="circle73"/>
	<circle cx="371.839" cy="413.45" r="4" fill="#0" id="circle74"/>
	<circle cx="381.826" cy="128.832" r="4" fill="#0" id="circle75"/>
	<circle cx="388.483" cy="413.45" r="4" fill="#0" id="circle76"/>
	<circle cx="396.805" cy="137.154" r="4" fill="#0" id="circle77"/>
	<circle cx="396.805" cy="396.805" r="4" fill="#0" id="circle78"/>
	<circle cx="405.128" cy="152.134" r="4" fill="#0" id="circle79"/>
	<circle cx="405.128" cy="168.779" r="4" fill="#0" id="circle80"/>
	<circle cx="405.128" cy="185.423" r="4" fill="#0" id="circle81"/>
	<circle cx="405.128" cy="321.906" r="4" fill="#0" id="circle82"/>
	<circle cx="405.128" cy="338.55" r="4" fill="#0" id="circle83"/>
	<circle cx="405.128" cy="355.195" r="4" fill="#0" id="circle84"/>
	<circle cx="405.128" cy="371.839" r="4" fill="#0" id="circle85"/>
	<circle cx="413.45" cy="200.403" r="4" fill="#0" id="circle86"/>
	<circle cx="413.45" cy="217.047" r="4" fill="#0" id="circle87"/>
	<circle cx="413.45" cy="238.685" r="4" fill="#0" id="circle88"/>
	<circle cx="421.772" cy="321.906" r="4" fill="#0" id="circle89"/>
	<circle cx="430.094" cy="245.342" r="4" fill="#0" id="circle90"/>
	<circle cx="438.416" cy="321.906" r="4" fill="#0" id="circle91"/>
	<circle cx="446.738" cy="245.342" r="4" fill="#0" id="circle92"/>
	<circle cx="453.396" cy="330.228" r="4" fill="#0" id="circle93"/>
	<circle cx="453.396" cy="346.872" r="4" fill="#0" id="circle94"/>
	<circle cx="453.396" cy="366.846" r="4" fill="#0" id="circle95"/>
	<circle cx="463.383" cy="240.349" r="4" fill="#0" id="circle96"/>
	<circle cx="466.711" cy="378.497" r="4" fill="#0" id="circle97"/>
	<circle cx="480.027" cy="232.027" r="4" fill="#0" id="circle98"/>
	<circle cx="480.027" cy="388.483" r="4" fill="#0" id="circle99"/>
	<circle cx="486.685" cy="125.503" r="4" fill="#0" id="circle100"/>
	<circle cx="486.685" cy="142.148" r="4" fill="#0" id="circle101"/>
	<circle cx="486.685" cy="158.792" r="4" fill="#0" id="circle102"/>
	<circle cx="486.685" cy="175.436" r="4" fill="#0" id="circle103"/>
	<circle cx="486.685" cy="192.081" r="4" fill="#0" id="circle104"/>
	<circle cx="486.685" cy="208.725" r="4" fill="#0" id="circle105"/>
	<circle cx="496.671" cy="391.812" r="4" fill="#0" id="circle106"/>
	<circle cx="503.329" cy="120.51" r="4" fill="#0" id="circle107"/>
	<circle cx="511.651" cy="400.134" r="4" fill="#0" id="circle108"/>
	<circle cx="518.309" cy="112.188" r="4" fill="#0" id="circle109"/>
	<circle cx="528.295" cy="405.128" r="4" fill="#0" id="circle110"/>
	<circle cx="534.953" cy="112.188" r="4" fill="#0" id="circle111"/>
	<circle cx="543.275" cy="413.45" r="4" fill="#0" id="circle112"/>
	<circle cx="544.94" cy="42.2819" r="4" fill="#0" id="circle113"/>
	<circle cx="549.933" cy="103.866" r="4" fill="#0" id="circle114"/>
	<circle cx="553.262" cy="57.2617" r="4" fill="#0" id="circle115"/>
	<circle cx="553.262" cy="73.906" r="4" fill="#0" id="circle116"/>
	<circle cx="558.255" cy="28.9664" r="4" fill="#0" id="circle117"/>
	<circle cx="559.919" cy="410.121" r="4" fill="#0" id="circle118"/>
	<circle cx="569.906" cy="8.99329" r="4" fill="#0" id="circle119"/>
	<circle cx="576.564" cy="401.799" r="4" fill="#0" id="circle120"/>
	<circle cx="584.886" cy="385.154" r="4" fill="#0" id="circle121"/>
	<circle cx="586.55" cy="4" r="4" fill="#0" id="circle122"/>
	<circle cx="588.215" cy="338.55" r="4" fill="#0" id="circle123"/>
	<circle cx="588.215" cy="355.195" r="4" fill="#0" id="circle124"/>
	<circle cx="596.537" cy="321.906" r="4" fill="#0" id="circle125"/>
	<circle cx="599.866" cy="13.9866" r="4" fill="#0" id="circle126"/>
	<circle cx="604.859" cy="30.6309" r="4" fill="#0" id="circle127"/>
	<circle cx="613.181" cy="45.6107" r="4" fill="#0" id="circle128"/>
	<circle cx="613.181" cy="321.906" r="4" fill="#0" id="circle129"/>
	<circle cx="621.503" cy="60.5906" r="4" fill="#0" id="circle130"/>
	<circle cx="621.503" cy="77.2349" r="4" fill="#0" id="circle131"/>
	<circle cx="621.503" cy="93.8792" r="4" fill="#0" id="circle132"/>
	<circle cx="629.826" cy="108.859" r="4" fill="#0" id="circle133"/>
	<circle cx="629.826" cy="321.906" r="4" fill="#0" id="circle134"/>
	<circle cx="636.483" cy="125.503" r="4" fill="#0" id="circle135"/>
	<circle cx="644.805" cy="140.483" r="4" fill="#0" id="circle136"/>
	<circle cx="646.47" cy="157.128" r="4" fill="#0" id="circle137"/>
	<circle cx="646.47" cy="173.772" r="4" fill="#0" id="circle138"/>
	<circle cx="646.47" cy="190.416" r="4" fill="#0" id="circle139"/>
	<circle cx="646.47" cy="321.906" r="4" fill="#0" id="circle140"/>
	<circle cx="656.456" cy="203.732" r="4" fill="#0" id="circle141"/>
	<circle cx="663.114" cy="321.906" r="4" fill="#0" id="circle142"/>
	<circle cx="673.101" cy="203.732" r="4" fill="#0" id="circle143"/>
	<circle cx="679.758" cy="313.584" r="4" fill="#0" id="circle144"/>
	<circle cx="686.416" cy="192.081" r="4" fill="#0" id="circle145"/>
	<circle cx="696.403" cy="313.584" r="4" fill="#0" id="circle146"/>
	<circle cx="699.732" cy="178.765" r="4" fill="#0" id="circle147"/>
	<circle cx="703.06" cy="150.47" r="4" fill="#0" id="circle148"/>
	<circle cx="713.047" cy="305.262" r="4" fill="#0" id="circle149"/>
	<circle cx="716.376" cy="137.154" r="4" fill="#0" id="circle150"/>
	<circle cx="729.691" cy="123.839" r="4" fill="#0" id="circle151"/>
	<circle cx="729.691" cy="305.262" r="4" fill="#0" id="circle152"/>
	<circle cx="736.349" cy="92.2148" r="4" fill="#0" id="circle153"/>
	<circle cx="746.336" cy="305.262" r="4" fill="#0" id="circle154"/>
	<circle cx="749.664" cy="78.8993" r="4" fill="#0" id="circle155"/>
	<circle cx="761.315" cy="313.584" r="4" fill="#0" id="circle156"/>
	<circle cx="761.315" cy="341.879" r="4" fill="#0" id="circle157"/>
	<circle cx="762.98" cy="65.5839" r="4" fill="#0" id="circle158"/>
	<circle cx="769.638" cy="356.859" r="4" fill="#0" id="circle159"/>
	<circle cx="776.295" cy="55.5973" r="4" fill="#0" id="circle160"/>
	<circle cx="781.289" cy="370.174" r="4" fill="#0" id="circle161"/>
	<circle cx="789.611" cy="385.154" r="4" fill="#0" id="circle162"/>
	<circle cx="791.275" cy="63.9195" r="4" fill="#0" id="circle163"/>
	<circle cx="794.604" cy="401.799" r="4" fill="#0" id="circle164"/>
	<circle cx="802.926" cy="416.779" r="4" fill="#0" id="circle165"/>
	<circle cx="807.919" cy="70.5772" r="4" fill="#0" id="circle166"/>
	<circle cx="819.57" cy="421.772" r="4" fill="#0" id="circle167"/>
	<circle cx="822.899" cy="78.8993" r="4" fill="#0" id="circle168"/>
	<circle cx="834.55" cy="430.094" r="4" fill="#0" id="circle169"/>
	<circle cx="836.215" cy="90.5503" r="4" fill="#0" id="circle170"/>
	<circle cx="846.201" cy="103.866" r="4" fill="#0" id="circle171"/>
	<circle cx="849.53" cy="438.416" r="4" fill="#0" id="circle172"/>
	<circle cx="859.517" cy="113.852" r="4" fill="#0" id="circle173"/>
	<circle cx="864.51" cy="446.738" r="4" fill="#0" id="circle174"/>
	<circle cx="876.161" cy="120.51" r="4" fill="#0" id="circle175"/>
	<circle cx="881.154" cy="446.738" r="4" fill="#0" id="circle176"/>
	<circle cx="892.805" cy="120.51" r="4" fill="#0" id="circle177"/>
	<circle cx="897.799" cy="446.738" r="4" fill="#0" id="circle178"/>
	<circle cx="909.45" cy="120.51" r="4" fill="#0" id="circle179"/>
	<circle cx="914.443" cy="446.738" r="4" fill="#0" id="circle180"/>
	<circle cx="926.094" cy="120.51" r="4" fill="#0" id="circle181"/>
	<circle cx="931.087" cy="446.738" r="4" fill="#0" id="circle182"/>
	<circle cx="942.738" cy="122.174" r="4" fill="#0" id="circle183"/>
	<circle cx="946.067" cy="438.416" r="4" fill="#0" id="circle184"/>
	<circle cx="954.389" cy="135.49" r="4" fill="#0" id="circle185"/>
	<circle cx="962.711" cy="150.47" r="4" fill="#0" id="circle186"/>
	<circle cx="962.711" cy="167.114" r="4" fill="#0" id="circle187"/>
	<circle cx="962.711" cy="183.758" r="4" fill="#0" id="circle188"/>
	<circle cx="962.711" cy="200.403" r="4" fill="#0" id="circle189"/>
	<circle cx="962.711" cy="217.047" r="4" fill="#0" id="circle190"/>
	<circle cx="962.711" cy="430.094" r="4" fill="#0" id="circle191"/>
	<circle cx="969.369" cy="233.691" r="4" fill="#0" id="circle192"/>
	<circle cx="976.027" cy="418.443" r="4" fill="#0" id="circle193"/>
	<circle cx="977.691" cy="248.671" r="4" fill="#0" id="circle194"/>
	<circle cx="984.349" cy="265.315" r="4" fill="#0" id="circle195"/>
	<circle cx="984.349" cy="401.799" r="4" fill="#0" id="circle196"/>
	<circle cx="992.671" cy="280.295" r="4" fill="#0" id="circle197"/>
	<circle cx="992.671" cy="385.154" r="4" fill="#0" id="circle198"/>
	<circle cx="996" cy="296.94" r="4" fill="#0" id="circle199"/>
	<circle cx="996" cy="313.584" r="4" fill="#0" id="circle200"/>
	<circle cx="996" cy="330.228" r="4" fill="#0" id="circle201"/>
	<circle cx="996" cy="346.872" r="4" fill="#0" id="circle202"/>
	<circle cx="996" cy="363.517" r="4" fill="#0" id="circle203"/>
	</g>
</svg>