<?xml version="1.0" encoding="UTF-8" standalone="no"?>
<!-- Created with CurveBenchmark -->
<svg
	xmlns:dc="http://purl.org/dc/elements/1.1/"
	xmlns:cc="http://creativecommons.org/ns#"
	xmlns:rdf="http://www.w3.org/1999/02/22-rdf-syntax-ns#"
	xmlns:svg="http://www.w3.org/2000/svg"
	xmlns="http://www.w3.org/2000/svg"
	xmlns:sodipodi="http://sodipodi.sourceforge.net/DTD/sodipodi-0.dtd"
	xmlns:inkscape="http://www.inkscape.org/namespaces/inkscape"
	width="1000"
	height="1000"
	id="svg2"
	version="1.1"
	sodipodi:docname="manifold/fitconnect-fish23.png.txt">
<defs
	id="defs4" />
<metadata
	id="metadata7">
	<rdf:RDF>
		<cc:Work
			rdf:about="">
			<dc:format>image/svg+xml</dc:format>
			<dc:type
				rdf:resource="http://purl.org/dc/dcmitype/StillImage" />
			<dc:title></dc:title>
		</cc:Work>
	</rdf:RDF>
</metadata>
<g
	inkscape:label="Layer 1"
	inkscape:groupmode="layer"
	id="layer1">
	<path style="fill:none;stroke:red;stroke-width:1px;stroke-linecap:butt;stroke-linejoin:miter;stroke-opacity:1" d="M 4,70.5772 15.0962,37.2886 z" id="boundary" inkscape:connector-curvature="0" />
	<path style="fill:none;stroke:red;stroke-width:1px;stroke-linecap:butt;stroke-linejoin:miter;stroke-opacity:1" d="M 4,70.5772 15.0962,90.5503 z" id="boundary" inkscape:connector-curvature="0" />
	<path style="fill:none;stroke:red;stroke-width:1px;stroke-linecap:butt;stroke-linejoin:miter;stroke-opacity:1" d="M 15.0962,15.0962 15.0962,37.2886 z" id="boundary" inkscape:connector-curvature="0" />
	<path style="fill:none;stroke:red;stroke-width:1px;stroke-linecap:butt;stroke-linejoin:miter;stroke-opacity:1" d="M 15.0962,15.0962 37.2886,12.877 z" id="boundary" inkscape:connector-curvature="0" />
	<path style="fill:none;stroke:red;stroke-width:1px;stroke-linecap:butt;stroke-linejoin:miter;stroke-opacity:1" d="M 15.0962,90.5503 15.0962,112.743 z" id="boundary" inkscape:connector-curvature="0" />
	<path style="fill:none;stroke:red;stroke-width:1px;stroke-linecap:butt;stroke-linejoin:miter;stroke-opacity:1" d="M 15.0962,112.743 26.1924,132.716 z" id="boundary" inkscape:connector-curvature="0" />
	<path style="fill:none;stroke:red;stroke-width:1px;stroke-linecap:butt;stroke-linejoin:miter;stroke-opacity:1" d="M 26.1924,132.716 37.2886,152.689 z" id="boundary" inkscape:connector-curvature="0" />
	<path style="fill:none;stroke:red;stroke-width:1px;stroke-linecap:butt;stroke-linejoin:miter;stroke-opacity:1" d="M 37.2886,12.877 59.481,4 z" id="boundary" inkscape:connector-curvature="0" />
	<path style="fill:none;stroke:red;stroke-width:1px;stroke-linecap:butt;stroke-linejoin:miter;stroke-opacity:1" d="M 37.2886,152.689 48.3848,172.662 z" id="boundary" inkscape:connector-curvature="0" />
	<path style="fill:none;stroke:red;stroke-width:1px;stroke-linecap:butt;stroke-linejoin:miter;stroke-opacity:1" d="M 48.3848,172.662 50.604,194.855 z" id="boundary" inkscape:connector-curvature="0" />
	<path style="fill:none;stroke:red;stroke-width:1px;stroke-linecap:butt;stroke-linejoin:miter;stroke-opacity:1" d="M 50.604,194.855 61.7002,214.828 z" id="boundary" inkscape:connector-curvature="0" />
	<path style="fill:none;stroke:red;stroke-width:1px;stroke-linecap:butt;stroke-linejoin:miter;stroke-opacity:1" d="M 59.481,4 81.6734,8.43848 z" id="boundary" inkscape:connector-curvature="0" />
	<path style="fill:none;stroke:red;stroke-width:1px;stroke-linecap:butt;stroke-linejoin:miter;stroke-opacity:1" d="M 61.7002,214.828 70.5772,237.02 z" id="boundary" inkscape:connector-curvature="0" />
	<path style="fill:none;stroke:red;stroke-width:1px;stroke-linecap:butt;stroke-linejoin:miter;stroke-opacity:1" d="M 70.5772,237.02 88.3311,252.555 z" id="boundary" inkscape:connector-curvature="0" />
	<path style="fill:none;stroke:red;stroke-width:1px;stroke-linecap:butt;stroke-linejoin:miter;stroke-opacity:1" d="M 81.6734,8.43848 101.647,19.5347 z" id="boundary" inkscape:connector-curvature="0" />
	<path style="fill:none;stroke:red;stroke-width:1px;stroke-linecap:butt;stroke-linejoin:miter;stroke-opacity:1" d="M 88.3311,252.555 103.866,270.309 z" id="boundary" inkscape:connector-curvature="0" />
	<path style="fill:none;stroke:red;stroke-width:1px;stroke-linecap:butt;stroke-linejoin:miter;stroke-opacity:1" d="M 101.647,19.5347 121.62,30.6309 z" id="boundary" inkscape:connector-curvature="0" />
	<path style="fill:none;stroke:red;stroke-width:1px;stroke-linecap:butt;stroke-linejoin:miter;stroke-opacity:1" d="M 103.866,270.309 114.962,290.282 z" id="boundary" inkscape:connector-curvature="0" />
	<path style="fill:none;stroke:red;stroke-width:1px;stroke-linecap:butt;stroke-linejoin:miter;stroke-opacity:1" d="M 114.962,290.282 126.058,310.255 z" id="boundary" inkscape:connector-curvature="0" />
	<path style="fill:none;stroke:red;stroke-width:1px;stroke-linecap:butt;stroke-linejoin:miter;stroke-opacity:1" d="M 121.62,30.6309 141.593,41.7271 z" id="boundary" inkscape:connector-curvature="0" />
	<path style="fill:none;stroke:red;stroke-width:1px;stroke-linecap:butt;stroke-linejoin:miter;stroke-opacity:1" d="M 126.058,310.255 139.374,328.009 z" id="boundary" inkscape:connector-curvature="0" />
	<path style="fill:none;stroke:red;stroke-width:1px;stroke-linecap:butt;stroke-linejoin:miter;stroke-opacity:1" d="M 139.374,328.009 150.47,347.982 z" id="boundary" inkscape:connector-curvature="0" />
	<path style="fill:none;stroke:red;stroke-width:1px;stroke-linecap:butt;stroke-linejoin:miter;stroke-opacity:1" d="M 141.593,41.7271 161.566,52.8233 z" id="boundary" inkscape:connector-curvature="0" />
	<path style="fill:none;stroke:red;stroke-width:1px;stroke-linecap:butt;stroke-linejoin:miter;stroke-opacity:1" d="M 150.47,347.982 166.004,365.736 z" id="boundary" inkscape:connector-curvature="0" />
	<path style="fill:none;stroke:red;stroke-width:1px;stroke-linecap:butt;stroke-linejoin:miter;stroke-opacity:1" d="M 161.566,52.8233 181.539,63.9195 z" id="boundary" inkscape:connector-curvature="0" />
	<path style="fill:none;stroke:red;stroke-width:1px;stroke-linecap:butt;stroke-linejoin:miter;stroke-opacity:1" d="M 166.004,365.736 183.758,381.271 z" id="boundary" inkscape:connector-curvature="0" />
	<path style="fill:none;stroke:red;stroke-width:1px;stroke-linecap:butt;stroke-linejoin:miter;stroke-opacity:1" d="M 181.539,63.9195 201.512,75.0157 z" id="boundary" inkscape:connector-curvature="0" />
	<path style="fill:none;stroke:red;stroke-width:1px;stroke-linecap:butt;stroke-linejoin:miter;stroke-opacity:1" d="M 183.758,381.271 199.293,399.025 z" id="boundary" inkscape:connector-curvature="0" />
	<path style="fill:none;stroke:red;stroke-width:1px;stroke-linecap:butt;stroke-linejoin:miter;stroke-opacity:1" d="M 199.293,399.025 210.389,418.998 z" id="boundary" inkscape:connector-curvature="0" />
	<path style="fill:none;stroke:red;stroke-width:1px;stroke-linecap:butt;stroke-linejoin:miter;stroke-opacity:1" d="M 201.512,75.0157 221.485,86.1119 z" id="boundary" inkscape:connector-curvature="0" />
	<path style="fill:none;stroke:red;stroke-width:1px;stroke-linecap:butt;stroke-linejoin:miter;stroke-opacity:1" d="M 210.389,418.998 225.924,436.752 z" id="boundary" inkscape:connector-curvature="0" />
	<path style="fill:none;stroke:red;stroke-width:1px;stroke-linecap:butt;stroke-linejoin:miter;stroke-opacity:1" d="M 221.485,86.1119 241.459,97.2081 z" id="boundary" inkscape:connector-curvature="0" />
	<path style="fill:none;stroke:red;stroke-width:1px;stroke-linecap:butt;stroke-linejoin:miter;stroke-opacity:1" d="M 225.924,436.752 243.678,452.286 z" id="boundary" inkscape:connector-curvature="0" />
	<path style="fill:none;stroke:red;stroke-width:1px;stroke-linecap:butt;stroke-linejoin:miter;stroke-opacity:1" d="M 241.459,97.2081 259.213,112.743 z" id="boundary" inkscape:connector-curvature="0" />
	<path style="fill:none;stroke:red;stroke-width:1px;stroke-linecap:butt;stroke-linejoin:miter;stroke-opacity:1" d="M 243.678,452.286 259.213,470.04 z" id="boundary" inkscape:connector-curvature="0" />
	<path style="fill:none;stroke:red;stroke-width:1px;stroke-linecap:butt;stroke-linejoin:miter;stroke-opacity:1" d="M 259.213,112.743 272.528,130.497 z" id="boundary" inkscape:connector-curvature="0" />
	<path style="fill:none;stroke:red;stroke-width:1px;stroke-linecap:butt;stroke-linejoin:miter;stroke-opacity:1" d="M 259.213,470.04 259.213,492.233 z" id="boundary" inkscape:connector-curvature="0" />
	<path style="fill:none;stroke:red;stroke-width:1px;stroke-linecap:butt;stroke-linejoin:miter;stroke-opacity:1" d="M 259.213,492.233 259.213,514.425 z" id="boundary" inkscape:connector-curvature="0" />
	<path style="fill:none;stroke:red;stroke-width:1px;stroke-linecap:butt;stroke-linejoin:miter;stroke-opacity:1" d="M 259.213,514.425 281.405,521.083 z" id="boundary" inkscape:connector-curvature="0" />
	<path style="fill:none;stroke:red;stroke-width:1px;stroke-linecap:butt;stroke-linejoin:miter;stroke-opacity:1" d="M 272.528,130.497 294.72,137.154 z" id="boundary" inkscape:connector-curvature="0" />
	<path style="fill:none;stroke:red;stroke-width:1px;stroke-linecap:butt;stroke-linejoin:miter;stroke-opacity:1" d="M 281.405,521.083 288.063,543.275 z" id="boundary" inkscape:connector-curvature="0" />
	<path style="fill:none;stroke:red;stroke-width:1px;stroke-linecap:butt;stroke-linejoin:miter;stroke-opacity:1" d="M 288.063,543.275 292.501,565.468 z" id="boundary" inkscape:connector-curvature="0" />
	<path style="fill:none;stroke:red;stroke-width:1px;stroke-linecap:butt;stroke-linejoin:miter;stroke-opacity:1" d="M 292.501,565.468 305.817,583.221 z" id="boundary" inkscape:connector-curvature="0" />
	<path style="fill:none;stroke:red;stroke-width:1px;stroke-linecap:butt;stroke-linejoin:miter;stroke-opacity:1" d="M 294.72,137.154 310.255,154.908 z" id="boundary" inkscape:connector-curvature="0" />
	<path style="fill:none;stroke:red;stroke-width:1px;stroke-linecap:butt;stroke-linejoin:miter;stroke-opacity:1" d="M 305.817,583.221 328.009,576.564 z" id="boundary" inkscape:connector-curvature="0" />
	<path style="fill:none;stroke:red;stroke-width:1px;stroke-linecap:butt;stroke-linejoin:miter;stroke-opacity:1" d="M 310.255,154.908 328.009,170.443 z" id="boundary" inkscape:connector-curvature="0" />
	<path style="fill:none;stroke:red;stroke-width:1px;stroke-linecap:butt;stroke-linejoin:miter;stroke-opacity:1" d="M 328.009,170.443 343.544,188.197 z" id="boundary" inkscape:connector-curvature="0" />
	<path style="fill:none;stroke:red;stroke-width:1px;stroke-linecap:butt;stroke-linejoin:miter;stroke-opacity:1" d="M 328.009,576.564 339.105,554.371 z" id="boundary" inkscape:connector-curvature="0" />
	<path style="fill:none;stroke:red;stroke-width:1px;stroke-linecap:butt;stroke-linejoin:miter;stroke-opacity:1" d="M 339.105,554.371 359.078,543.275 z" id="boundary" inkscape:connector-curvature="0" />
	<path style="fill:none;stroke:red;stroke-width:1px;stroke-linecap:butt;stroke-linejoin:miter;stroke-opacity:1" d="M 343.544,188.197 361.298,203.732 z" id="boundary" inkscape:connector-curvature="0" />
	<path style="fill:none;stroke:red;stroke-width:1px;stroke-linecap:butt;stroke-linejoin:miter;stroke-opacity:1" d="M 359.078,543.275 379.051,554.371 z" id="boundary" inkscape:connector-curvature="0" />
	<path style="fill:none;stroke:red;stroke-width:1px;stroke-linecap:butt;stroke-linejoin:miter;stroke-opacity:1" d="M 361.298,203.732 379.051,219.266 z" id="boundary" inkscape:connector-curvature="0" />
	<path style="fill:none;stroke:red;stroke-width:1px;stroke-linecap:butt;stroke-linejoin:miter;stroke-opacity:1" d="M 379.051,219.266 399.025,230.362 z" id="boundary" inkscape:connector-curvature="0" />
	<path style="fill:none;stroke:red;stroke-width:1px;stroke-linecap:butt;stroke-linejoin:miter;stroke-opacity:1" d="M 379.051,554.371 394.586,572.125 z" id="boundary" inkscape:connector-curvature="0" />
	<path style="fill:none;stroke:red;stroke-width:1px;stroke-linecap:butt;stroke-linejoin:miter;stroke-opacity:1" d="M 394.586,572.125 416.779,581.002 z" id="boundary" inkscape:connector-curvature="0" />
	<path style="fill:none;stroke:red;stroke-width:1px;stroke-linecap:butt;stroke-linejoin:miter;stroke-opacity:1" d="M 399.025,230.362 414.559,248.116 z" id="boundary" inkscape:connector-curvature="0" />
	<path style="fill:none;stroke:red;stroke-width:1px;stroke-linecap:butt;stroke-linejoin:miter;stroke-opacity:1" d="M 414.559,248.116 432.313,263.651 z" id="boundary" inkscape:connector-curvature="0" />
	<path style="fill:none;stroke:red;stroke-width:1px;stroke-linecap:butt;stroke-linejoin:miter;stroke-opacity:1" d="M 416.779,581.002 432.313,598.756 z" id="boundary" inkscape:connector-curvature="0" />
	<path style="fill:none;stroke:red;stroke-width:1px;stroke-linecap:butt;stroke-linejoin:miter;stroke-opacity:1" d="M 432.313,263.651 447.848,281.405 z" id="boundary" inkscape:connector-curvature="0" />
	<path style="fill:none;stroke:red;stroke-width:1px;stroke-linecap:butt;stroke-linejoin:miter;stroke-opacity:1" d="M 432.313,598.756 450.067,614.291 z" id="boundary" inkscape:connector-curvature="0" />
	<path style="fill:none;stroke:red;stroke-width:1px;stroke-linecap:butt;stroke-linejoin:miter;stroke-opacity:1" d="M 447.848,281.405 465.602,296.94 z" id="boundary" inkscape:connector-curvature="0" />
	<path style="fill:none;stroke:red;stroke-width:1px;stroke-linecap:butt;stroke-linejoin:miter;stroke-opacity:1" d="M 450.067,614.291 470.04,625.387 z" id="boundary" inkscape:connector-curvature="0" />
	<path style="fill:none;stroke:red;stroke-width:1px;stroke-linecap:butt;stroke-linejoin:miter;stroke-opacity:1" d="M 465.602,296.94 481.136,314.694 z" id="boundary" inkscape:connector-curvature="0" />
	<path style="fill:none;stroke:red;stroke-width:1px;stroke-linecap:butt;stroke-linejoin:miter;stroke-opacity:1" d="M 470.04,625.387 492.233,632.045 z" id="boundary" inkscape:connector-curvature="0" />
	<path style="fill:none;stroke:red;stroke-width:1px;stroke-linecap:butt;stroke-linejoin:miter;stroke-opacity:1" d="M 481.136,314.694 498.89,330.228 z" id="boundary" inkscape:connector-curvature="0" />
	<path style="fill:none;stroke:red;stroke-width:1px;stroke-linecap:butt;stroke-linejoin:miter;stroke-opacity:1" d="M 492.233,632.045 505.548,649.799 z" id="boundary" inkscape:connector-curvature="0" />
	<path style="fill:none;stroke:red;stroke-width:1px;stroke-linecap:butt;stroke-linejoin:miter;stroke-opacity:1" d="M 498.89,330.228 518.864,341.324 z" id="boundary" inkscape:connector-curvature="0" />
	<path style="fill:none;stroke:red;stroke-width:1px;stroke-linecap:butt;stroke-linejoin:miter;stroke-opacity:1" d="M 505.548,649.799 523.302,665.333 z" id="boundary" inkscape:connector-curvature="0" />
	<path style="fill:none;stroke:red;stroke-width:1px;stroke-linecap:butt;stroke-linejoin:miter;stroke-opacity:1" d="M 518.864,341.324 541.056,341.324 z" id="boundary" inkscape:connector-curvature="0" />
	<path style="fill:none;stroke:red;stroke-width:1px;stroke-linecap:butt;stroke-linejoin:miter;stroke-opacity:1" d="M 523.302,665.333 525.521,687.526 z" id="boundary" inkscape:connector-curvature="0" />
	<path style="fill:none;stroke:red;stroke-width:1px;stroke-linecap:butt;stroke-linejoin:miter;stroke-opacity:1" d="M 525.521,687.526 536.617,707.499 z" id="boundary" inkscape:connector-curvature="0" />
	<path style="fill:none;stroke:red;stroke-width:1px;stroke-linecap:butt;stroke-linejoin:miter;stroke-opacity:1" d="M 536.617,707.499 547.714,727.472 z" id="boundary" inkscape:connector-curvature="0" />
	<path style="fill:none;stroke:red;stroke-width:1px;stroke-linecap:butt;stroke-linejoin:miter;stroke-opacity:1" d="M 541.056,341.324 563.248,341.324 z" id="boundary" inkscape:connector-curvature="0" />
	<path style="fill:none;stroke:red;stroke-width:1px;stroke-linecap:butt;stroke-linejoin:miter;stroke-opacity:1" d="M 547.714,727.472 549.933,749.664 z" id="boundary" inkscape:connector-curvature="0" />
	<path style="fill:none;stroke:red;stroke-width:1px;stroke-linecap:butt;stroke-linejoin:miter;stroke-opacity:1" d="M 549.933,749.664 572.125,754.103 z" id="boundary" inkscape:connector-curvature="0" />
	<path style="fill:none;stroke:red;stroke-width:1px;stroke-linecap:butt;stroke-linejoin:miter;stroke-opacity:1" d="M 563.248,341.324 583.221,352.421 z" id="boundary" inkscape:connector-curvature="0" />
	<path style="fill:none;stroke:red;stroke-width:1px;stroke-linecap:butt;stroke-linejoin:miter;stroke-opacity:1" d="M 572.125,754.103 592.098,765.199 z" id="boundary" inkscape:connector-curvature="0" />
	<path style="fill:none;stroke:red;stroke-width:1px;stroke-linecap:butt;stroke-linejoin:miter;stroke-opacity:1" d="M 583.221,352.421 605.414,352.421 z" id="boundary" inkscape:connector-curvature="0" />
	<path style="fill:none;stroke:red;stroke-width:1px;stroke-linecap:butt;stroke-linejoin:miter;stroke-opacity:1" d="M 592.098,765.199 614.291,765.199 z" id="boundary" inkscape:connector-curvature="0" />
	<path style="fill:none;stroke:red;stroke-width:1px;stroke-linecap:butt;stroke-linejoin:miter;stroke-opacity:1" d="M 605.414,352.421 623.168,365.736 z" id="boundary" inkscape:connector-curvature="0" />
	<path style="fill:none;stroke:red;stroke-width:1px;stroke-linecap:butt;stroke-linejoin:miter;stroke-opacity:1" d="M 614.291,765.199 634.264,776.295 z" id="boundary" inkscape:connector-curvature="0" />
	<path style="fill:none;stroke:red;stroke-width:1px;stroke-linecap:butt;stroke-linejoin:miter;stroke-opacity:1" d="M 623.168,365.736 638.702,383.49 z" id="boundary" inkscape:connector-curvature="0" />
	<path style="fill:none;stroke:red;stroke-width:1px;stroke-linecap:butt;stroke-linejoin:miter;stroke-opacity:1" d="M 634.264,776.295 656.456,771.857 z" id="boundary" inkscape:connector-curvature="0" />
	<path style="fill:none;stroke:red;stroke-width:1px;stroke-linecap:butt;stroke-linejoin:miter;stroke-opacity:1" d="M 638.702,383.49 649.799,403.463 z" id="boundary" inkscape:connector-curvature="0" />
	<path style="fill:none;stroke:red;stroke-width:1px;stroke-linecap:butt;stroke-linejoin:miter;stroke-opacity:1" d="M 638.702,532.179 649.799,552.152 z" id="boundary" inkscape:connector-curvature="0" />
	<path style="fill:none;stroke:red;stroke-width:1px;stroke-linecap:butt;stroke-linejoin:miter;stroke-opacity:1" d="M 638.702,532.179 680.868,514.425 z" id="boundary" inkscape:connector-curvature="0" />
	<path style="fill:none;stroke:red;stroke-width:1px;stroke-linecap:butt;stroke-linejoin:miter;stroke-opacity:1" d="M 649.799,403.463 658.676,425.655 z" id="boundary" inkscape:connector-curvature="0" />
	<path style="fill:none;stroke:red;stroke-width:1px;stroke-linecap:butt;stroke-linejoin:miter;stroke-opacity:1" d="M 649.799,552.152 660.895,572.125 z" id="boundary" inkscape:connector-curvature="0" />
	<path style="fill:none;stroke:red;stroke-width:1px;stroke-linecap:butt;stroke-linejoin:miter;stroke-opacity:1" d="M 656.456,771.857 669.772,754.103 z" id="boundary" inkscape:connector-curvature="0" />
	<path style="fill:none;stroke:red;stroke-width:1px;stroke-linecap:butt;stroke-linejoin:miter;stroke-opacity:1" d="M 658.676,425.655 660.895,447.848 z" id="boundary" inkscape:connector-curvature="0" />
	<path style="fill:none;stroke:red;stroke-width:1px;stroke-linecap:butt;stroke-linejoin:miter;stroke-opacity:1" d="M 660.895,447.848 669.772,470.04 z" id="boundary" inkscape:connector-curvature="0" />
	<path style="fill:none;stroke:red;stroke-width:1px;stroke-linecap:butt;stroke-linejoin:miter;stroke-opacity:1" d="M 660.895,572.125 671.991,592.098 z" id="boundary" inkscape:connector-curvature="0" />
	<path style="fill:none;stroke:red;stroke-width:1px;stroke-linecap:butt;stroke-linejoin:miter;stroke-opacity:1" d="M 669.772,470.04 671.991,492.233 z" id="boundary" inkscape:connector-curvature="0" />
	<path style="fill:none;stroke:red;stroke-width:1px;stroke-linecap:butt;stroke-linejoin:miter;stroke-opacity:1" d="M 669.772,754.103 689.745,765.199 z" id="boundary" inkscape:connector-curvature="0" />
	<path style="fill:none;stroke:red;stroke-width:1px;stroke-linecap:butt;stroke-linejoin:miter;stroke-opacity:1" d="M 671.991,492.233 680.868,514.425 z" id="boundary" inkscape:connector-curvature="0" />
	<path style="fill:none;stroke:red;stroke-width:1px;stroke-linecap:butt;stroke-linejoin:miter;stroke-opacity:1" d="M 671.991,592.098 683.087,612.072 z" id="boundary" inkscape:connector-curvature="0" />
	<path style="fill:none;stroke:red;stroke-width:1px;stroke-linecap:butt;stroke-linejoin:miter;stroke-opacity:1" d="M 683.087,612.072 696.403,629.826 z" id="boundary" inkscape:connector-curvature="0" />
	<path style="fill:none;stroke:red;stroke-width:1px;stroke-linecap:butt;stroke-linejoin:miter;stroke-opacity:1" d="M 689.745,765.199 705.28,782.953 z" id="boundary" inkscape:connector-curvature="0" />
	<path style="fill:none;stroke:red;stroke-width:1px;stroke-linecap:butt;stroke-linejoin:miter;stroke-opacity:1" d="M 696.403,629.826 714.157,645.36 z" id="boundary" inkscape:connector-curvature="0" />
	<path style="fill:none;stroke:red;stroke-width:1px;stroke-linecap:butt;stroke-linejoin:miter;stroke-opacity:1" d="M 705.28,782.953 723.034,798.488 z" id="boundary" inkscape:connector-curvature="0" />
	<path style="fill:none;stroke:red;stroke-width:1px;stroke-linecap:butt;stroke-linejoin:miter;stroke-opacity:1" d="M 714.157,645.36 723.034,667.553 z" id="boundary" inkscape:connector-curvature="0" />
	<path style="fill:none;stroke:red;stroke-width:1px;stroke-linecap:butt;stroke-linejoin:miter;stroke-opacity:1" d="M 723.034,667.553 738.568,685.306 z" id="boundary" inkscape:connector-curvature="0" />
	<path style="fill:none;stroke:red;stroke-width:1px;stroke-linecap:butt;stroke-linejoin:miter;stroke-opacity:1" d="M 723.034,798.488 731.911,820.68 z" id="boundary" inkscape:connector-curvature="0" />
	<path style="fill:none;stroke:red;stroke-width:1px;stroke-linecap:butt;stroke-linejoin:miter;stroke-opacity:1" d="M 731.911,820.68 749.664,836.215 z" id="boundary" inkscape:connector-curvature="0" />
	<path style="fill:none;stroke:red;stroke-width:1px;stroke-linecap:butt;stroke-linejoin:miter;stroke-opacity:1" d="M 738.568,685.306 749.664,705.28 z" id="boundary" inkscape:connector-curvature="0" />
	<path style="fill:none;stroke:red;stroke-width:1px;stroke-linecap:butt;stroke-linejoin:miter;stroke-opacity:1" d="M 749.664,705.28 767.418,720.814 z" id="boundary" inkscape:connector-curvature="0" />
	<path style="fill:none;stroke:red;stroke-width:1px;stroke-linecap:butt;stroke-linejoin:miter;stroke-opacity:1" d="M 749.664,836.215 758.541,858.407 z" id="boundary" inkscape:connector-curvature="0" />
	<path style="fill:none;stroke:red;stroke-width:1px;stroke-linecap:butt;stroke-linejoin:miter;stroke-opacity:1" d="M 758.541,858.407 769.638,878.38 z" id="boundary" inkscape:connector-curvature="0" />
	<path style="fill:none;stroke:red;stroke-width:1px;stroke-linecap:butt;stroke-linejoin:miter;stroke-opacity:1" d="M 767.418,720.814 782.953,738.568 z" id="boundary" inkscape:connector-curvature="0" />
	<path style="fill:none;stroke:red;stroke-width:1px;stroke-linecap:butt;stroke-linejoin:miter;stroke-opacity:1" d="M 769.638,878.38 780.734,898.353 z" id="boundary" inkscape:connector-curvature="0" />
	<path style="fill:none;stroke:red;stroke-width:1px;stroke-linecap:butt;stroke-linejoin:miter;stroke-opacity:1" d="M 780.734,898.353 791.83,918.327 z" id="boundary" inkscape:connector-curvature="0" />
	<path style="fill:none;stroke:red;stroke-width:1px;stroke-linecap:butt;stroke-linejoin:miter;stroke-opacity:1" d="M 782.953,738.568 800.707,751.884 z" id="boundary" inkscape:connector-curvature="0" />
	<path style="fill:none;stroke:red;stroke-width:1px;stroke-linecap:butt;stroke-linejoin:miter;stroke-opacity:1" d="M 791.83,918.327 805.145,936.081 z" id="boundary" inkscape:connector-curvature="0" />
	<path style="fill:none;stroke:red;stroke-width:1px;stroke-linecap:butt;stroke-linejoin:miter;stroke-opacity:1" d="M 800.707,751.884 820.68,762.98 z" id="boundary" inkscape:connector-curvature="0" />
	<path style="fill:none;stroke:red;stroke-width:1px;stroke-linecap:butt;stroke-linejoin:miter;stroke-opacity:1" d="M 805.145,936.081 814.022,958.273 z" id="boundary" inkscape:connector-curvature="0" />
	<path style="fill:none;stroke:red;stroke-width:1px;stroke-linecap:butt;stroke-linejoin:miter;stroke-opacity:1" d="M 814.022,958.273 831.776,973.808 z" id="boundary" inkscape:connector-curvature="0" />
	<path style="fill:none;stroke:red;stroke-width:1px;stroke-linecap:butt;stroke-linejoin:miter;stroke-opacity:1" d="M 820.68,762.98 840.653,774.076 z" id="boundary" inkscape:connector-curvature="0" />
	<path style="fill:none;stroke:red;stroke-width:1px;stroke-linecap:butt;stroke-linejoin:miter;stroke-opacity:1" d="M 831.776,973.808 840.653,996 z" id="boundary" inkscape:connector-curvature="0" />
	<path style="fill:none;stroke:red;stroke-width:1px;stroke-linecap:butt;stroke-linejoin:miter;stroke-opacity:1" d="M 840.653,774.076 860.626,785.172 z" id="boundary" inkscape:connector-curvature="0" />
	<path style="fill:none;stroke:red;stroke-width:1px;stroke-linecap:butt;stroke-linejoin:miter;stroke-opacity:1" d="M 840.653,996 862.846,987.123 z" id="boundary" inkscape:connector-curvature="0" />
	<path style="fill:none;stroke:red;stroke-width:1px;stroke-linecap:butt;stroke-linejoin:miter;stroke-opacity:1" d="M 860.626,785.172 882.819,791.83 z" id="boundary" inkscape:connector-curvature="0" />
	<path style="fill:none;stroke:red;stroke-width:1px;stroke-linecap:butt;stroke-linejoin:miter;stroke-opacity:1" d="M 860.626,865.065 865.065,887.257 z" id="boundary" inkscape:connector-curvature="0" />
	<path style="fill:none;stroke:red;stroke-width:1px;stroke-linecap:butt;stroke-linejoin:miter;stroke-opacity:1" d="M 860.626,865.065 882.819,865.065 z" id="boundary" inkscape:connector-curvature="0" />
	<path style="fill:none;stroke:red;stroke-width:1px;stroke-linecap:butt;stroke-linejoin:miter;stroke-opacity:1" d="M 862.846,987.123 871.723,953.834 z" id="boundary" inkscape:connector-curvature="0" />
	<path style="fill:none;stroke:red;stroke-width:1px;stroke-linecap:butt;stroke-linejoin:miter;stroke-opacity:1" d="M 865.065,887.257 871.723,909.45 z" id="boundary" inkscape:connector-curvature="0" />
	<path style="fill:none;stroke:red;stroke-width:1px;stroke-linecap:butt;stroke-linejoin:miter;stroke-opacity:1" d="M 871.723,909.45 871.723,931.642 z" id="boundary" inkscape:connector-curvature="0" />
	<path style="fill:none;stroke:red;stroke-width:1px;stroke-linecap:butt;stroke-linejoin:miter;stroke-opacity:1" d="M 871.723,931.642 871.723,953.834 z" id="boundary" inkscape:connector-curvature="0" />
	<path style="fill:none;stroke:red;stroke-width:1px;stroke-linecap:butt;stroke-linejoin:miter;stroke-opacity:1" d="M 882.819,791.83 905.011,796.268 z" id="boundary" inkscape:connector-curvature="0" />
	<path style="fill:none;stroke:red;stroke-width:1px;stroke-linecap:butt;stroke-linejoin:miter;stroke-opacity:1" d="M 882.819,865.065 902.792,876.161 z" id="boundary" inkscape:connector-curvature="0" />
	<path style="fill:none;stroke:red;stroke-width:1px;stroke-linecap:butt;stroke-linejoin:miter;stroke-opacity:1" d="M 902.792,876.161 924.984,876.161 z" id="boundary" inkscape:connector-curvature="0" />
	<path style="fill:none;stroke:red;stroke-width:1px;stroke-linecap:butt;stroke-linejoin:miter;stroke-opacity:1" d="M 905.011,796.268 924.984,807.365 z" id="boundary" inkscape:connector-curvature="0" />
	<path style="fill:none;stroke:red;stroke-width:1px;stroke-linecap:butt;stroke-linejoin:miter;stroke-opacity:1" d="M 924.984,807.365 944.957,818.461 z" id="boundary" inkscape:connector-curvature="0" />
	<path style="fill:none;stroke:red;stroke-width:1px;stroke-linecap:butt;stroke-linejoin:miter;stroke-opacity:1" d="M 924.984,876.161 947.177,876.161 z" id="boundary" inkscape:connector-curvature="0" />
	<path style="fill:none;stroke:red;stroke-width:1px;stroke-linecap:butt;stroke-linejoin:miter;stroke-opacity:1" d="M 944.957,818.461 967.15,820.68 z" id="boundary" inkscape:connector-curvature="0" />
	<path style="fill:none;stroke:red;stroke-width:1px;stroke-linecap:butt;stroke-linejoin:miter;stroke-opacity:1" d="M 947.177,876.161 969.369,869.503 z" id="boundary" inkscape:connector-curvature="0" />
	<path style="fill:none;stroke:red;stroke-width:1px;stroke-linecap:butt;stroke-linejoin:miter;stroke-opacity:1" d="M 967.15,820.68 982.685,838.434 z" id="boundary" inkscape:connector-curvature="0" />
	<path style="fill:none;stroke:red;stroke-width:1px;stroke-linecap:butt;stroke-linejoin:miter;stroke-opacity:1" d="M 969.369,869.503 991.562,860.626 z" id="boundary" inkscape:connector-curvature="0" />
	<path style="fill:none;stroke:red;stroke-width:1px;stroke-linecap:butt;stroke-linejoin:miter;stroke-opacity:1" d="M 982.685,838.434 991.562,860.626 z" id="boundary" inkscape:connector-curvature="0" />
	<circle cx="4" cy="70.5772" r="4" fill="#0" id="circle0"/>
	<circle cx="15.0962" cy="15.0962" r="4" fill="#0" id="circle1"/>
	<circle cx="15.0962" cy="37.2886" r="4" fill="#0" id="circle2"/>
	<circle cx="15.0962" cy="90.5503" r="4" fill="#0" id="circle3"/>
	<circle cx="15.0962" cy="112.743" r="4" fill="#0" id="circle4"/>
	<circle cx="26.1924" cy="132.716" r="4" fill="#0" id="circle5"/>
	<circle cx="37.2886" cy="12.877" r="4" fill="#0" id="circle6"/>
	<circle cx="37.2886" cy="152.689" r="4" fill="#0" id="circle7"/>
	<circle cx="48.3848" cy="172.662" r="4" fill="#0" id="circle8"/>
	<circle cx="50.604" cy="194.855" r="4" fill="#0" id="circle9"/>
	<circle cx="59.481" cy="4" r="4" fill="#0" id="circle10"/>
	<circle cx="61.7002" cy="214.828" r="4" fill="#0" id="circle11"/>
	<circle cx="70.5772" cy="237.02" r="4" fill="#0" id="circle12"/>
	<circle cx="81.6734" cy="8.43848" r="4" fill="#0" id="circle13"/>
	<circle cx="88.3311" cy="252.555" r="4" fill="#0" id="circle14"/>
	<circle cx="101.647" cy="19.5347" r="4" fill="#0" id="circle15"/>
	<circle cx="103.866" cy="270.309" r="4" fill="#0" id="circle16"/>
	<circle cx="114.962" cy="290.282" r="4" fill="#0" id="circle17"/>
	<circle cx="121.62" cy="30.6309" r="4" fill="#0" id="circle18"/>
	<circle cx="126.058" cy="310.255" r="4" fill="#0" id="circle19"/>
	<circle cx="139.374" cy="328.009" r="4" fill="#0" id="circle20"/>
	<circle cx="141.593" cy="41.7271" r="4" fill="#0" id="circle21"/>
	<circle cx="150.47" cy="347.982" r="4" fill="#0" id="circle22"/>
	<circle cx="161.566" cy="52.8233" r="4" fill="#0" id="circle23"/>
	<circle cx="166.004" cy="365.736" r="4" fill="#0" id="circle24"/>
	<circle cx="181.539" cy="63.9195" r="4" fill="#0" id="circle25"/>
	<circle cx="183.758" cy="381.271" r="4" fill="#0" id="circle26"/>
	<circle cx="199.293" cy="399.025" r="4" fill="#0" id="circle27"/>
	<circle cx="201.512" cy="75.0157" r="4" fill="#0" id="circle28"/>
	<circle cx="210.389" cy="418.998" r="4" fill="#0" id="circle29"/>
	<circle cx="221.485" cy="86.1119" r="4" fill="#0" id="circle30"/>
	<circle cx="225.924" cy="436.752" r="4" fill="#0" id="circle31"/>
	<circle cx="241.459" cy="97.2081" r="4" fill="#0" id="circle32"/>
	<circle cx="243.678" cy="452.286" r="4" fill="#0" id="circle33"/>
	<circle cx="259.213" cy="112.743" r="4" fill="#0" id="circle34"/>
	<circle cx="259.213" cy="470.04" r="4" fill="#0" id="circle35"/>
	<circle cx="259.213" cy="492.233" r="4" fill="#0" id="circle36"/>
	<circle cx="259.213" cy="514.425" r="4" fill="#0" id="circle37"/>
	<circle cx="272.528" cy="130.497" r="4" fill="#0" id="circle38"/>
	<circle cx="281.405" cy="521.083" r="4" fill="#0" id="circle39"/>
	<circle cx="288.063" cy="543.275" r="4" fill="#0" id="circle40"/>
	<circle cx="292.501" cy="565.468" r="4" fill="#0" id="circle41"/>
	<circle cx="294.72" cy="137.154" r="4" fill="#0" id="circle42"/>
	<circle cx="305.817" cy="583.221" r="4" fill="#0" id="circle43"/>
	<circle cx="310.255" cy="154.908" r="4" fill="#0" id="circle44"/>
	<circle cx="328.009" cy="170.443" r="4" fill="#0" id="circle45"/>
	<circle cx="328.009" cy="576.564" r="4" fill="#0" id="circle46"/>
	<circle cx="339.105" cy="554.371" r="4" fill="#0" id="circle47"/>
	<circle cx="343.544" cy="188.197" r="4" fill="#0" id="circle48"/>
	<circle cx="359.078" cy="543.275" r="4" fill="#0" id="circle49"/>
	<circle cx="361.298" cy="203.732" r="4" fill="#0" id="circle50"/>
	<circle cx="379.051" cy="219.266" r="4" fill="#0" id="circle51"/>
	<circle cx="379.051" cy="554.371" r="4" fill="#0" id="circle52"/>
	<circle cx="394.586" cy="572.125" r="4" fill="#0" id="circle53"/>
	<circle cx="399.025" cy="230.362" r="4" fill="#0" id="circle54"/>
	<circle cx="414.559" cy="248.116" r="4" fill="#0" id="circle55"/>
	<circle cx="416.779" cy="581.002" r="4" fill="#0" id="circle56"/>
	<circle cx="432.313" cy="263.651" r="4" fill="#0" id="circle57"/>
	<circle cx="432.313" cy="598.756" r="4" fill="#0" id="circle58"/>
	<circle cx="447.848" cy="281.405" r="4" fill="#0" id="circle59"/>
	<circle cx="450.067" cy="614.291" r="4" fill="#0" id="circle60"/>
	<circle cx="465.602" cy="296.94" r="4" fill="#0" id="circle61"/>
	<circle cx="470.04" cy="625.387" r="4" fill="#0" id="circle62"/>
	<circle cx="481.136" cy="314.694" r="4" fill="#0" id="circle63"/>
	<circle cx="492.233" cy="632.045" r="4" fill="#0" id="circle64"/>
	<circle cx="498.89" cy="330.228" r="4" fill="#0" id="circle65"/>
	<circle cx="505.548" cy="649.799" r="4" fill="#0" id="circle66"/>
	<circle cx="518.864" cy="341.324" r="4" fill="#0" id="circle67"/>
	<circle cx="523.302" cy="665.333" r="4" fill="#0" id="circle68"/>
	<circle cx="525.521" cy="687.526" r="4" fill="#0" id="circle69"/>
	<circle cx="536.617" cy="707.499" r="4" fill="#0" id="circle70"/>
	<circle cx="541.056" cy="341.324" r="4" fill="#0" id="circle71"/>
	<circle cx="547.714" cy="727.472" r="4" fill="#0" id="circle72"/>
	<circle cx="549.933" cy="749.664" r="4" fill="#0" id="circle73"/>
	<circle cx="563.248" cy="341.324" r="4" fill="#0" id="circle74"/>
	<circle cx="572.125" cy="754.103" r="4" fill="#0" id="circle75"/>
	<circle cx="583.221" cy="352.421" r="4" fill="#0" id="circle76"/>
	<circle cx="592.098" cy="765.199" r="4" fill="#0" id="circle77"/>
	<circle cx="605.414" cy="352.421" r="4" fill="#0" id="circle78"/>
	<circle cx="614.291" cy="765.199" r="4" fill="#0" id="circle79"/>
	<circle cx="623.168" cy="365.736" r="4" fill="#0" id="circle80"/>
	<circle cx="634.264" cy="776.295" r="4" fill="#0" id="circle81"/>
	<circle cx="638.702" cy="383.49" r="4" fill="#0" id="circle82"/>
	<circle cx="638.702" cy="532.179" r="4" fill="#0" id="circle83"/>
	<circle cx="649.799" cy="403.463" r="4" fill="#0" id="circle84"/>
	<circle cx="649.799" cy="552.152" r="4" fill="#0" id="circle85"/>
	<circle cx="656.456" cy="771.857" r="4" fill="#0" id="circle86"/>
	<circle cx="658.676" cy="425.655" r="4" fill="#0" id="circle87"/>
	<circle cx="660.895" cy="447.848" r="4" fill="#0" id="circle88"/>
	<circle cx="660.895" cy="532.179" r="4" fill="#0" id="circle89"/>
	<circle cx="660.895" cy="572.125" r="4" fill="#0" id="circle90"/>
	<circle cx="669.772" cy="470.04" r="4" fill="#0" id="circle91"/>
	<circle cx="669.772" cy="754.103" r="4" fill="#0" id="circle92"/>
	<circle cx="671.991" cy="492.233" r="4" fill="#0" id="circle93"/>
	<circle cx="671.991" cy="592.098" r="4" fill="#0" id="circle94"/>
	<circle cx="680.868" cy="514.425" r="4" fill="#0" id="circle95"/>
	<circle cx="683.087" cy="612.072" r="4" fill="#0" id="circle96"/>
	<circle cx="689.745" cy="765.199" r="4" fill="#0" id="circle97"/>
	<circle cx="696.403" cy="629.826" r="4" fill="#0" id="circle98"/>
	<circle cx="705.28" cy="782.953" r="4" fill="#0" id="circle99"/>
	<circle cx="714.157" cy="645.36" r="4" fill="#0" id="circle100"/>
	<circle cx="723.034" cy="667.553" r="4" fill="#0" id="circle101"/>
	<circle cx="723.034" cy="798.488" r="4" fill="#0" id="circle102"/>
	<circle cx="731.911" cy="820.68" r="4" fill="#0" id="circle103"/>
	<circle cx="738.568" cy="685.306" r="4" fill="#0" id="circle104"/>
	<circle cx="749.664" cy="705.28" r="4" fill="#0" id="circle105"/>
	<circle cx="749.664" cy="836.215" r="4" fill="#0" id="circle106"/>
	<circle cx="758.541" cy="858.407" r="4" fill="#0" id="circle107"/>
	<circle cx="767.418" cy="720.814" r="4" fill="#0" id="circle108"/>
	<circle cx="769.638" cy="878.38" r="4" fill="#0" id="circle109"/>
	<circle cx="780.734" cy="898.353" r="4" fill="#0" id="circle110"/>
	<circle cx="782.953" cy="738.568" r="4" fill="#0" id="circle111"/>
	<circle cx="791.83" cy="918.327" r="4" fill="#0" id="circle112"/>
	<circle cx="800.707" cy="751.884" r="4" fill="#0" id="circle113"/>
	<circle cx="805.145" cy="936.081" r="4" fill="#0" id="circle114"/>
	<circle cx="814.022" cy="958.273" r="4" fill="#0" id="circle115"/>
	<circle cx="820.68" cy="762.98" r="4" fill="#0" id="circle116"/>
	<circle cx="831.776" cy="973.808" r="4" fill="#0" id="circle117"/>
	<circle cx="840.653" cy="774.076" r="4" fill="#0" id="circle118"/>
	<circle cx="840.653" cy="996" r="4" fill="#0" id="circle119"/>
	<circle cx="860.626" cy="785.172" r="4" fill="#0" id="circle120"/>
	<circle cx="860.626" cy="865.065" r="4" fill="#0" id="circle121"/>
	<circle cx="862.846" cy="987.123" r="4" fill="#0" id="circle122"/>
	<circle cx="865.065" cy="887.257" r="4" fill="#0" id="circle123"/>
	<circle cx="871.723" cy="909.45" r="4" fill="#0" id="circle124"/>
	<circle cx="871.723" cy="931.642" r="4" fill="#0" id="circle125"/>
	<circle cx="871.723" cy="953.834" r="4" fill="#0" id="circle126"/>
	<circle cx="882.819" cy="791.83" r="4" fill="#0" id="circle127"/>
	<circle cx="882.819" cy="865.065" r="4" fill="#0" id="circle128"/>
	<circle cx="902.792" cy="876.161" r="4" fill="#0" id="circle129"/>
	<circle cx="905.011" cy="796.268" r="4" fill="#0" id="circle130"/>
	<circle cx="924.984" cy="807.365" r="4" fill="#0" id="circle131"/>
	<circle cx="924.984" cy="876.161" r="4" fill="#0" id="circle132"/>
	<circle cx="944.957" cy="818.461" r="4" fill="#0" id="circle133"/>
	<circle cx="947.177" cy="876.161" r="4" fill="#0" id="circle134"/>
	<circle cx="967.15" cy="820.68" r="4" fill="#0" id="circle135"/>
	<circle cx="969.369" cy="869.503" r="4" fill="#0" id="circle136"/>
	<circle cx="982.685" cy="838.434" r="4" fill="#0" id="circle137"/>
	<circle cx="991.562" cy="860.626" r="4" fill="#0" id="circle138"/>
	</g>
</svg>