<?xml version="1.0" encoding="UTF-8" standalone="no"?>
<!-- Created with CurveBenchmark -->
<svg
	xmlns:dc="http://purl.org/dc/elements/1.1/"
	xmlns:cc="http://creativecommons.org/ns#"
	xmlns:rdf="http://www.w3.org/1999/02/22-rdf-syntax-ns#"
	xmlns:svg="http://www.w3.org/2000/svg"
	xmlns="http://www.w3.org/2000/svg"
	xmlns:sodipodi="http://sodipodi.sourceforge.net/DTD/sodipodi-0.dtd"
	xmlns:inkscape="http://www.inkscape.org/namespaces/inkscape"
	width="1000"
	height="1000"
	id="svg2"
	version="1.1"
	sodipodi:docname="manifold/fitconnect-kk0730.png.txt">
<defs
	id="defs4" />
<metadata
	id="metadata7">
	<rdf:RDF>
		<cc:Work
			rdf:about="">
			<dc:format>image/svg+xml</dc:format>
			<dc:type
				rdf:resource="http://purl.org/dc/dcmitype/StillImage" />
			<dc:title></dc:title>
		</cc:Work>
	</rdf:RDF>
</metadata>
<g
	inkscape:label="Layer 1"
	inkscape:groupmode="layer"
	id="layer1">
	<path style="fill:none;stroke:red;stroke-width:1px;stroke-linecap:butt;stroke-linejoin:miter;stroke-opacity:1" d="M 4,360.27 12.1713,343.928 z" id="boundary" inkscape:connector-curvature="0" />
	<path style="fill:none;stroke:red;stroke-width:1px;stroke-linecap:butt;stroke-linejoin:miter;stroke-opacity:1" d="M 4,360.27 20.3427,365.173 z" id="boundary" inkscape:connector-curvature="0" />
	<path style="fill:none;stroke:red;stroke-width:1px;stroke-linecap:butt;stroke-linejoin:miter;stroke-opacity:1" d="M 12.1713,343.928 28.514,339.025 z" id="boundary" inkscape:connector-curvature="0" />
	<path style="fill:none;stroke:red;stroke-width:1px;stroke-linecap:butt;stroke-linejoin:miter;stroke-opacity:1" d="M 20.3427,365.173 35.0511,373.344 z" id="boundary" inkscape:connector-curvature="0" />
	<path style="fill:none;stroke:red;stroke-width:1px;stroke-linecap:butt;stroke-linejoin:miter;stroke-opacity:1" d="M 28.514,339.025 43.2224,330.853 z" id="boundary" inkscape:connector-curvature="0" />
	<path style="fill:none;stroke:red;stroke-width:1px;stroke-linecap:butt;stroke-linejoin:miter;stroke-opacity:1" d="M 35.0511,373.344 49.7595,381.516 z" id="boundary" inkscape:connector-curvature="0" />
	<path style="fill:none;stroke:red;stroke-width:1px;stroke-linecap:butt;stroke-linejoin:miter;stroke-opacity:1" d="M 43.2224,330.853 54.6623,317.779 z" id="boundary" inkscape:connector-curvature="0" />
	<path style="fill:none;stroke:red;stroke-width:1px;stroke-linecap:butt;stroke-linejoin:miter;stroke-opacity:1" d="M 49.7595,381.516 62.8336,392.956 z" id="boundary" inkscape:connector-curvature="0" />
	<path style="fill:none;stroke:red;stroke-width:1px;stroke-linecap:butt;stroke-linejoin:miter;stroke-opacity:1" d="M 54.6623,317.779 67.7364,306.339 z" id="boundary" inkscape:connector-curvature="0" />
	<path style="fill:none;stroke:red;stroke-width:1px;stroke-linecap:butt;stroke-linejoin:miter;stroke-opacity:1" d="M 62.8336,392.956 74.2735,406.03 z" id="boundary" inkscape:connector-curvature="0" />
	<path style="fill:none;stroke:red;stroke-width:1px;stroke-linecap:butt;stroke-linejoin:miter;stroke-opacity:1" d="M 67.7364,306.339 79.1763,293.265 z" id="boundary" inkscape:connector-curvature="0" />
	<path style="fill:none;stroke:red;stroke-width:1px;stroke-linecap:butt;stroke-linejoin:miter;stroke-opacity:1" d="M 74.2735,406.03 87.3476,417.47 z" id="boundary" inkscape:connector-curvature="0" />
	<path style="fill:none;stroke:red;stroke-width:1px;stroke-linecap:butt;stroke-linejoin:miter;stroke-opacity:1" d="M 79.1763,293.265 92.2504,281.825 z" id="boundary" inkscape:connector-curvature="0" />
	<path style="fill:none;stroke:red;stroke-width:1px;stroke-linecap:butt;stroke-linejoin:miter;stroke-opacity:1" d="M 87.3476,417.47 98.7875,430.544 z" id="boundary" inkscape:connector-curvature="0" />
	<path style="fill:none;stroke:red;stroke-width:1px;stroke-linecap:butt;stroke-linejoin:miter;stroke-opacity:1" d="M 92.2504,281.825 102.056,262.214 z" id="boundary" inkscape:connector-curvature="0" />
	<path style="fill:none;stroke:red;stroke-width:1px;stroke-linecap:butt;stroke-linejoin:miter;stroke-opacity:1" d="M 98.7875,430.544 110.227,443.618 z" id="boundary" inkscape:connector-curvature="0" />
	<path style="fill:none;stroke:red;stroke-width:1px;stroke-linecap:butt;stroke-linejoin:miter;stroke-opacity:1" d="M 102.056,262.214 115.13,249.14 z" id="boundary" inkscape:connector-curvature="0" />
	<path style="fill:none;stroke:red;stroke-width:1px;stroke-linecap:butt;stroke-linejoin:miter;stroke-opacity:1" d="M 110.227,443.618 118.399,458.326 z" id="boundary" inkscape:connector-curvature="0" />
	<path style="fill:none;stroke:red;stroke-width:1px;stroke-linecap:butt;stroke-linejoin:miter;stroke-opacity:1" d="M 115.13,249.14 123.301,232.797 z" id="boundary" inkscape:connector-curvature="0" />
	<path style="fill:none;stroke:red;stroke-width:1px;stroke-linecap:butt;stroke-linejoin:miter;stroke-opacity:1" d="M 118.399,458.326 131.473,469.766 z" id="boundary" inkscape:connector-curvature="0" />
	<path style="fill:none;stroke:red;stroke-width:1px;stroke-linecap:butt;stroke-linejoin:miter;stroke-opacity:1" d="M 123.301,232.797 136.376,219.723 z" id="boundary" inkscape:connector-curvature="0" />
	<path style="fill:none;stroke:red;stroke-width:1px;stroke-linecap:butt;stroke-linejoin:miter;stroke-opacity:1" d="M 131.473,469.766 142.913,482.84 z" id="boundary" inkscape:connector-curvature="0" />
	<path style="fill:none;stroke:red;stroke-width:1px;stroke-linecap:butt;stroke-linejoin:miter;stroke-opacity:1" d="M 136.376,219.723 149.45,208.283 z" id="boundary" inkscape:connector-curvature="0" />
	<path style="fill:none;stroke:red;stroke-width:1px;stroke-linecap:butt;stroke-linejoin:miter;stroke-opacity:1" d="M 142.913,482.84 155.987,494.28 z" id="boundary" inkscape:connector-curvature="0" />
	<path style="fill:none;stroke:red;stroke-width:1px;stroke-linecap:butt;stroke-linejoin:miter;stroke-opacity:1" d="M 149.45,208.283 155.987,191.941 z" id="boundary" inkscape:connector-curvature="0" />
	<path style="fill:none;stroke:red;stroke-width:1px;stroke-linecap:butt;stroke-linejoin:miter;stroke-opacity:1" d="M 155.987,191.941 169.061,178.867 z" id="boundary" inkscape:connector-curvature="0" />
	<path style="fill:none;stroke:red;stroke-width:1px;stroke-linecap:butt;stroke-linejoin:miter;stroke-opacity:1" d="M 155.987,494.28 169.061,504.086 z" id="boundary" inkscape:connector-curvature="0" />
	<path style="fill:none;stroke:red;stroke-width:1px;stroke-linecap:butt;stroke-linejoin:miter;stroke-opacity:1" d="M 169.061,178.867 183.769,164.158 z" id="boundary" inkscape:connector-curvature="0" />
	<path style="fill:none;stroke:red;stroke-width:1px;stroke-linecap:butt;stroke-linejoin:miter;stroke-opacity:1" d="M 169.061,504.086 178.867,517.16 z" id="boundary" inkscape:connector-curvature="0" />
	<path style="fill:none;stroke:red;stroke-width:1px;stroke-linecap:butt;stroke-linejoin:miter;stroke-opacity:1" d="M 178.867,517.16 193.575,525.331 z" id="boundary" inkscape:connector-curvature="0" />
	<path style="fill:none;stroke:red;stroke-width:1px;stroke-linecap:butt;stroke-linejoin:miter;stroke-opacity:1" d="M 183.769,164.158 191.941,147.815 z" id="boundary" inkscape:connector-curvature="0" />
	<path style="fill:none;stroke:red;stroke-width:1px;stroke-linecap:butt;stroke-linejoin:miter;stroke-opacity:1" d="M 191.941,147.815 208.283,131.473 z" id="boundary" inkscape:connector-curvature="0" />
	<path style="fill:none;stroke:red;stroke-width:1px;stroke-linecap:butt;stroke-linejoin:miter;stroke-opacity:1" d="M 193.575,525.331 206.649,536.771 z" id="boundary" inkscape:connector-curvature="0" />
	<path style="fill:none;stroke:red;stroke-width:1px;stroke-linecap:butt;stroke-linejoin:miter;stroke-opacity:1" d="M 206.649,536.771 218.089,549.845 z" id="boundary" inkscape:connector-curvature="0" />
	<path style="fill:none;stroke:red;stroke-width:1px;stroke-linecap:butt;stroke-linejoin:miter;stroke-opacity:1" d="M 208.283,131.473 221.357,118.399 z" id="boundary" inkscape:connector-curvature="0" />
	<path style="fill:none;stroke:red;stroke-width:1px;stroke-linecap:butt;stroke-linejoin:miter;stroke-opacity:1" d="M 218.089,549.845 231.163,561.285 z" id="boundary" inkscape:connector-curvature="0" />
	<path style="fill:none;stroke:red;stroke-width:1px;stroke-linecap:butt;stroke-linejoin:miter;stroke-opacity:1" d="M 221.357,118.399 229.529,102.056 z" id="boundary" inkscape:connector-curvature="0" />
	<path style="fill:none;stroke:red;stroke-width:1px;stroke-linecap:butt;stroke-linejoin:miter;stroke-opacity:1" d="M 229.529,102.056 240.969,82.4448 z" id="boundary" inkscape:connector-curvature="0" />
	<path style="fill:none;stroke:red;stroke-width:1px;stroke-linecap:butt;stroke-linejoin:miter;stroke-opacity:1" d="M 231.163,561.285 237.7,577.628 z" id="boundary" inkscape:connector-curvature="0" />
	<path style="fill:none;stroke:red;stroke-width:1px;stroke-linecap:butt;stroke-linejoin:miter;stroke-opacity:1" d="M 237.7,577.628 250.774,589.068 z" id="boundary" inkscape:connector-curvature="0" />
	<path style="fill:none;stroke:red;stroke-width:1px;stroke-linecap:butt;stroke-linejoin:miter;stroke-opacity:1" d="M 240.969,82.4448 254.043,69.3707 z" id="boundary" inkscape:connector-curvature="0" />
	<path style="fill:none;stroke:red;stroke-width:1px;stroke-linecap:butt;stroke-linejoin:miter;stroke-opacity:1" d="M 250.774,589.068 262.214,602.142 z" id="boundary" inkscape:connector-curvature="0" />
	<path style="fill:none;stroke:red;stroke-width:1px;stroke-linecap:butt;stroke-linejoin:miter;stroke-opacity:1" d="M 254.043,69.3707 267.117,56.2965 z" id="boundary" inkscape:connector-curvature="0" />
	<path style="fill:none;stroke:red;stroke-width:1px;stroke-linecap:butt;stroke-linejoin:miter;stroke-opacity:1" d="M 262.214,602.142 273.654,615.216 z" id="boundary" inkscape:connector-curvature="0" />
	<path style="fill:none;stroke:red;stroke-width:1px;stroke-linecap:butt;stroke-linejoin:miter;stroke-opacity:1" d="M 267.117,56.2965 275.288,39.9539 z" id="boundary" inkscape:connector-curvature="0" />
	<path style="fill:none;stroke:red;stroke-width:1px;stroke-linecap:butt;stroke-linejoin:miter;stroke-opacity:1" d="M 273.654,615.216 281.825,629.924 z" id="boundary" inkscape:connector-curvature="0" />
	<path style="fill:none;stroke:red;stroke-width:1px;stroke-linecap:butt;stroke-linejoin:miter;stroke-opacity:1" d="M 275.288,39.9539 288.362,28.514 z" id="boundary" inkscape:connector-curvature="0" />
	<path style="fill:none;stroke:red;stroke-width:1px;stroke-linecap:butt;stroke-linejoin:miter;stroke-opacity:1" d="M 281.825,629.924 289.997,644.633 z" id="boundary" inkscape:connector-curvature="0" />
	<path style="fill:none;stroke:red;stroke-width:1px;stroke-linecap:butt;stroke-linejoin:miter;stroke-opacity:1" d="M 288.362,28.514 299.802,15.4399 z" id="boundary" inkscape:connector-curvature="0" />
	<path style="fill:none;stroke:red;stroke-width:1px;stroke-linecap:butt;stroke-linejoin:miter;stroke-opacity:1" d="M 289.997,644.633 301.437,657.707 z" id="boundary" inkscape:connector-curvature="0" />
	<path style="fill:none;stroke:red;stroke-width:1px;stroke-linecap:butt;stroke-linejoin:miter;stroke-opacity:1" d="M 299.802,15.4399 312.876,4 z" id="boundary" inkscape:connector-curvature="0" />
	<path style="fill:none;stroke:red;stroke-width:1px;stroke-linecap:butt;stroke-linejoin:miter;stroke-opacity:1" d="M 301.437,657.707 314.511,667.512 z" id="boundary" inkscape:connector-curvature="0" />
	<path style="fill:none;stroke:red;stroke-width:1px;stroke-linecap:butt;stroke-linejoin:miter;stroke-opacity:1" d="M 312.876,4 329.219,5.63427 z" id="boundary" inkscape:connector-curvature="0" />
	<path style="fill:none;stroke:red;stroke-width:1px;stroke-linecap:butt;stroke-linejoin:miter;stroke-opacity:1" d="M 314.511,667.512 329.219,675.684 z" id="boundary" inkscape:connector-curvature="0" />
	<path style="fill:none;stroke:red;stroke-width:1px;stroke-linecap:butt;stroke-linejoin:miter;stroke-opacity:1" d="M 329.219,5.63427 340.659,18.7084 z" id="boundary" inkscape:connector-curvature="0" />
	<path style="fill:none;stroke:red;stroke-width:1px;stroke-linecap:butt;stroke-linejoin:miter;stroke-opacity:1" d="M 329.219,675.684 345.562,672.415 z" id="boundary" inkscape:connector-curvature="0" />
	<path style="fill:none;stroke:red;stroke-width:1px;stroke-linecap:butt;stroke-linejoin:miter;stroke-opacity:1" d="M 340.659,18.7084 353.733,30.1483 z" id="boundary" inkscape:connector-curvature="0" />
	<path style="fill:none;stroke:red;stroke-width:1px;stroke-linecap:butt;stroke-linejoin:miter;stroke-opacity:1" d="M 345.562,672.415 361.904,664.244 z" id="boundary" inkscape:connector-curvature="0" />
	<path style="fill:none;stroke:red;stroke-width:1px;stroke-linecap:butt;stroke-linejoin:miter;stroke-opacity:1" d="M 353.733,30.1483 365.173,43.2224 z" id="boundary" inkscape:connector-curvature="0" />
	<path style="fill:none;stroke:red;stroke-width:1px;stroke-linecap:butt;stroke-linejoin:miter;stroke-opacity:1" d="M 361.904,664.244 373.344,651.17 z" id="boundary" inkscape:connector-curvature="0" />
	<path style="fill:none;stroke:red;stroke-width:1px;stroke-linecap:butt;stroke-linejoin:miter;stroke-opacity:1" d="M 365.173,43.2224 378.247,54.6623 z" id="boundary" inkscape:connector-curvature="0" />
	<path style="fill:none;stroke:red;stroke-width:1px;stroke-linecap:butt;stroke-linejoin:miter;stroke-opacity:1" d="M 373.344,651.17 386.418,639.73 z" id="boundary" inkscape:connector-curvature="0" />
	<path style="fill:none;stroke:red;stroke-width:1px;stroke-linecap:butt;stroke-linejoin:miter;stroke-opacity:1" d="M 378.247,54.6623 389.687,67.7364 z" id="boundary" inkscape:connector-curvature="0" />
	<path style="fill:none;stroke:red;stroke-width:1px;stroke-linecap:butt;stroke-linejoin:miter;stroke-opacity:1" d="M 386.418,639.73 397.858,626.656 z" id="boundary" inkscape:connector-curvature="0" />
	<path style="fill:none;stroke:red;stroke-width:1px;stroke-linecap:butt;stroke-linejoin:miter;stroke-opacity:1" d="M 389.687,67.7364 397.858,82.4448 z" id="boundary" inkscape:connector-curvature="0" />
	<path style="fill:none;stroke:red;stroke-width:1px;stroke-linecap:butt;stroke-linejoin:miter;stroke-opacity:1" d="M 397.858,82.4448 412.567,90.6161 z" id="boundary" inkscape:connector-curvature="0" />
	<path style="fill:none;stroke:red;stroke-width:1px;stroke-linecap:butt;stroke-linejoin:miter;stroke-opacity:1" d="M 397.858,626.656 410.932,615.216 z" id="boundary" inkscape:connector-curvature="0" />
	<path style="fill:none;stroke:red;stroke-width:1px;stroke-linecap:butt;stroke-linejoin:miter;stroke-opacity:1" d="M 410.932,615.216 419.104,598.873 z" id="boundary" inkscape:connector-curvature="0" />
	<path style="fill:none;stroke:red;stroke-width:1px;stroke-linecap:butt;stroke-linejoin:miter;stroke-opacity:1" d="M 412.567,90.6161 425.641,102.056 z" id="boundary" inkscape:connector-curvature="0" />
	<path style="fill:none;stroke:red;stroke-width:1px;stroke-linecap:butt;stroke-linejoin:miter;stroke-opacity:1" d="M 419.104,598.873 430.544,585.799 z" id="boundary" inkscape:connector-curvature="0" />
	<path style="fill:none;stroke:red;stroke-width:1px;stroke-linecap:butt;stroke-linejoin:miter;stroke-opacity:1" d="M 425.641,102.056 440.349,110.227 z" id="boundary" inkscape:connector-curvature="0" />
	<path style="fill:none;stroke:red;stroke-width:1px;stroke-linecap:butt;stroke-linejoin:miter;stroke-opacity:1" d="M 430.544,585.799 443.618,574.359 z" id="boundary" inkscape:connector-curvature="0" />
	<path style="fill:none;stroke:red;stroke-width:1px;stroke-linecap:butt;stroke-linejoin:miter;stroke-opacity:1" d="M 440.349,110.227 446.886,126.57 z" id="boundary" inkscape:connector-curvature="0" />
	<path style="fill:none;stroke:red;stroke-width:1px;stroke-linecap:butt;stroke-linejoin:miter;stroke-opacity:1" d="M 443.618,574.359 455.058,561.285 z" id="boundary" inkscape:connector-curvature="0" />
	<path style="fill:none;stroke:red;stroke-width:1px;stroke-linecap:butt;stroke-linejoin:miter;stroke-opacity:1" d="M 446.886,126.57 463.229,131.473 z" id="boundary" inkscape:connector-curvature="0" />
	<path style="fill:none;stroke:red;stroke-width:1px;stroke-linecap:butt;stroke-linejoin:miter;stroke-opacity:1" d="M 455.058,561.285 468.132,549.845 z" id="boundary" inkscape:connector-curvature="0" />
	<path style="fill:none;stroke:red;stroke-width:1px;stroke-linecap:butt;stroke-linejoin:miter;stroke-opacity:1" d="M 463.229,131.473 469.766,147.815 z" id="boundary" inkscape:connector-curvature="0" />
	<path style="fill:none;stroke:red;stroke-width:1px;stroke-linecap:butt;stroke-linejoin:miter;stroke-opacity:1" d="M 468.132,549.845 476.303,533.502 z" id="boundary" inkscape:connector-curvature="0" />
	<path style="fill:none;stroke:red;stroke-width:1px;stroke-linecap:butt;stroke-linejoin:miter;stroke-opacity:1" d="M 469.766,147.815 477.937,162.524 z" id="boundary" inkscape:connector-curvature="0" />
	<path style="fill:none;stroke:red;stroke-width:1px;stroke-linecap:butt;stroke-linejoin:miter;stroke-opacity:1" d="M 476.303,533.502 487.743,512.257 z" id="boundary" inkscape:connector-curvature="0" />
	<path style="fill:none;stroke:red;stroke-width:1px;stroke-linecap:butt;stroke-linejoin:miter;stroke-opacity:1" d="M 477.937,162.524 479.572,178.867 z" id="boundary" inkscape:connector-curvature="0" />
	<path style="fill:none;stroke:red;stroke-width:1px;stroke-linecap:butt;stroke-linejoin:miter;stroke-opacity:1" d="M 479.572,178.867 487.743,193.575 z" id="boundary" inkscape:connector-curvature="0" />
	<path style="fill:none;stroke:red;stroke-width:1px;stroke-linecap:butt;stroke-linejoin:miter;stroke-opacity:1" d="M 479.572,209.918 479.572,226.26 z" id="boundary" inkscape:connector-curvature="0" />
	<path style="fill:none;stroke:red;stroke-width:1px;stroke-linecap:butt;stroke-linejoin:miter;stroke-opacity:1" d="M 479.572,209.918 487.743,193.575 z" id="boundary" inkscape:connector-curvature="0" />
	<path style="fill:none;stroke:red;stroke-width:1px;stroke-linecap:butt;stroke-linejoin:miter;stroke-opacity:1" d="M 479.572,226.26 479.572,242.603 z" id="boundary" inkscape:connector-curvature="0" />
	<path style="fill:none;stroke:red;stroke-width:1px;stroke-linecap:butt;stroke-linejoin:miter;stroke-opacity:1" d="M 479.572,242.603 487.743,257.311 z" id="boundary" inkscape:connector-curvature="0" />
	<path style="fill:none;stroke:red;stroke-width:1px;stroke-linecap:butt;stroke-linejoin:miter;stroke-opacity:1" d="M 487.743,257.311 502.451,265.483 z" id="boundary" inkscape:connector-curvature="0" />
	<path style="fill:none;stroke:red;stroke-width:1px;stroke-linecap:butt;stroke-linejoin:miter;stroke-opacity:1" d="M 487.743,512.257 495.914,495.914 z" id="boundary" inkscape:connector-curvature="0" />
	<path style="fill:none;stroke:red;stroke-width:1px;stroke-linecap:butt;stroke-linejoin:miter;stroke-opacity:1" d="M 495.914,495.914 504.086,479.572 z" id="boundary" inkscape:connector-curvature="0" />
	<path style="fill:none;stroke:red;stroke-width:1px;stroke-linecap:butt;stroke-linejoin:miter;stroke-opacity:1" d="M 502.451,265.483 517.16,273.654 z" id="boundary" inkscape:connector-curvature="0" />
	<path style="fill:none;stroke:red;stroke-width:1px;stroke-linecap:butt;stroke-linejoin:miter;stroke-opacity:1" d="M 504.086,414.201 504.086,430.544 z" id="boundary" inkscape:connector-curvature="0" />
	<path style="fill:none;stroke:red;stroke-width:1px;stroke-linecap:butt;stroke-linejoin:miter;stroke-opacity:1" d="M 504.086,414.201 517.16,402.761 z" id="boundary" inkscape:connector-curvature="0" />
	<path style="fill:none;stroke:red;stroke-width:1px;stroke-linecap:butt;stroke-linejoin:miter;stroke-opacity:1" d="M 504.086,430.544 504.086,446.886 z" id="boundary" inkscape:connector-curvature="0" />
	<path style="fill:none;stroke:red;stroke-width:1px;stroke-linecap:butt;stroke-linejoin:miter;stroke-opacity:1" d="M 504.086,446.886 504.086,463.229 z" id="boundary" inkscape:connector-curvature="0" />
	<path style="fill:none;stroke:red;stroke-width:1px;stroke-linecap:butt;stroke-linejoin:miter;stroke-opacity:1" d="M 504.086,463.229 504.086,479.572 z" id="boundary" inkscape:connector-curvature="0" />
	<path style="fill:none;stroke:red;stroke-width:1px;stroke-linecap:butt;stroke-linejoin:miter;stroke-opacity:1" d="M 517.16,273.654 533.502,275.288 z" id="boundary" inkscape:connector-curvature="0" />
	<path style="fill:none;stroke:red;stroke-width:1px;stroke-linecap:butt;stroke-linejoin:miter;stroke-opacity:1" d="M 517.16,402.761 528.6,389.687 z" id="boundary" inkscape:connector-curvature="0" />
	<path style="fill:none;stroke:red;stroke-width:1px;stroke-linecap:butt;stroke-linejoin:miter;stroke-opacity:1" d="M 528.6,389.687 544.942,381.516 z" id="boundary" inkscape:connector-curvature="0" />
	<path style="fill:none;stroke:red;stroke-width:1px;stroke-linecap:butt;stroke-linejoin:miter;stroke-opacity:1" d="M 533.502,275.288 544.942,288.362 z" id="boundary" inkscape:connector-curvature="0" />
	<path style="fill:none;stroke:red;stroke-width:1px;stroke-linecap:butt;stroke-linejoin:miter;stroke-opacity:1" d="M 544.942,288.362 558.016,299.802 z" id="boundary" inkscape:connector-curvature="0" />
	<path style="fill:none;stroke:red;stroke-width:1px;stroke-linecap:butt;stroke-linejoin:miter;stroke-opacity:1" d="M 544.942,381.516 559.651,373.344 z" id="boundary" inkscape:connector-curvature="0" />
	<path style="fill:none;stroke:red;stroke-width:1px;stroke-linecap:butt;stroke-linejoin:miter;stroke-opacity:1" d="M 558.016,299.802 572.725,307.974 z" id="boundary" inkscape:connector-curvature="0" />
	<path style="fill:none;stroke:red;stroke-width:1px;stroke-linecap:butt;stroke-linejoin:miter;stroke-opacity:1" d="M 559.651,373.344 575.993,368.442 z" id="boundary" inkscape:connector-curvature="0" />
	<path style="fill:none;stroke:red;stroke-width:1px;stroke-linecap:butt;stroke-linejoin:miter;stroke-opacity:1" d="M 572.725,307.974 589.068,314.511 z" id="boundary" inkscape:connector-curvature="0" />
	<path style="fill:none;stroke:red;stroke-width:1px;stroke-linecap:butt;stroke-linejoin:miter;stroke-opacity:1" d="M 575.993,368.442 592.336,365.173 z" id="boundary" inkscape:connector-curvature="0" />
	<path style="fill:none;stroke:red;stroke-width:1px;stroke-linecap:butt;stroke-linejoin:miter;stroke-opacity:1" d="M 589.068,314.511 605.41,314.511 z" id="boundary" inkscape:connector-curvature="0" />
	<path style="fill:none;stroke:red;stroke-width:1px;stroke-linecap:butt;stroke-linejoin:miter;stroke-opacity:1" d="M 592.336,365.173 608.679,365.173 z" id="boundary" inkscape:connector-curvature="0" />
	<path style="fill:none;stroke:red;stroke-width:1px;stroke-linecap:butt;stroke-linejoin:miter;stroke-opacity:1" d="M 605.41,314.511 621.753,314.511 z" id="boundary" inkscape:connector-curvature="0" />
	<path style="fill:none;stroke:red;stroke-width:1px;stroke-linecap:butt;stroke-linejoin:miter;stroke-opacity:1" d="M 608.679,365.173 625.021,365.173 z" id="boundary" inkscape:connector-curvature="0" />
	<path style="fill:none;stroke:red;stroke-width:1px;stroke-linecap:butt;stroke-linejoin:miter;stroke-opacity:1" d="M 621.753,314.511 638.096,314.511 z" id="boundary" inkscape:connector-curvature="0" />
	<path style="fill:none;stroke:red;stroke-width:1px;stroke-linecap:butt;stroke-linejoin:miter;stroke-opacity:1" d="M 625.021,365.173 641.364,365.173 z" id="boundary" inkscape:connector-curvature="0" />
	<path style="fill:none;stroke:red;stroke-width:1px;stroke-linecap:butt;stroke-linejoin:miter;stroke-opacity:1" d="M 638.096,314.511 654.438,314.511 z" id="boundary" inkscape:connector-curvature="0" />
	<path style="fill:none;stroke:red;stroke-width:1px;stroke-linecap:butt;stroke-linejoin:miter;stroke-opacity:1" d="M 641.364,365.173 657.707,365.173 z" id="boundary" inkscape:connector-curvature="0" />
	<path style="fill:none;stroke:red;stroke-width:1px;stroke-linecap:butt;stroke-linejoin:miter;stroke-opacity:1" d="M 654.438,314.511 669.147,322.682 z" id="boundary" inkscape:connector-curvature="0" />
	<path style="fill:none;stroke:red;stroke-width:1px;stroke-linecap:butt;stroke-linejoin:miter;stroke-opacity:1" d="M 657.707,365.173 674.049,365.173 z" id="boundary" inkscape:connector-curvature="0" />
	<path style="fill:none;stroke:red;stroke-width:1px;stroke-linecap:butt;stroke-linejoin:miter;stroke-opacity:1" d="M 669.147,322.682 685.489,322.682 z" id="boundary" inkscape:connector-curvature="0" />
	<path style="fill:none;stroke:red;stroke-width:1px;stroke-linecap:butt;stroke-linejoin:miter;stroke-opacity:1" d="M 674.049,365.173 690.392,365.173 z" id="boundary" inkscape:connector-curvature="0" />
	<path style="fill:none;stroke:red;stroke-width:1px;stroke-linecap:butt;stroke-linejoin:miter;stroke-opacity:1" d="M 685.489,322.682 701.832,322.682 z" id="boundary" inkscape:connector-curvature="0" />
	<path style="fill:none;stroke:red;stroke-width:1px;stroke-linecap:butt;stroke-linejoin:miter;stroke-opacity:1" d="M 690.392,365.173 706.735,365.173 z" id="boundary" inkscape:connector-curvature="0" />
	<path style="fill:none;stroke:red;stroke-width:1px;stroke-linecap:butt;stroke-linejoin:miter;stroke-opacity:1" d="M 701.832,322.682 718.175,324.316 z" id="boundary" inkscape:connector-curvature="0" />
	<path style="fill:none;stroke:red;stroke-width:1px;stroke-linecap:butt;stroke-linejoin:miter;stroke-opacity:1" d="M 706.735,365.173 721.443,357.002 z" id="boundary" inkscape:connector-curvature="0" />
	<path style="fill:none;stroke:red;stroke-width:1px;stroke-linecap:butt;stroke-linejoin:miter;stroke-opacity:1" d="M 718.175,324.316 734.517,322.682 z" id="boundary" inkscape:connector-curvature="0" />
	<path style="fill:none;stroke:red;stroke-width:1px;stroke-linecap:butt;stroke-linejoin:miter;stroke-opacity:1" d="M 721.443,357.002 737.786,357.002 z" id="boundary" inkscape:connector-curvature="0" />
	<path style="fill:none;stroke:red;stroke-width:1px;stroke-linecap:butt;stroke-linejoin:miter;stroke-opacity:1" d="M 734.517,322.682 750.86,322.682 z" id="boundary" inkscape:connector-curvature="0" />
	<path style="fill:none;stroke:red;stroke-width:1px;stroke-linecap:butt;stroke-linejoin:miter;stroke-opacity:1" d="M 737.786,357.002 754.129,357.002 z" id="boundary" inkscape:connector-curvature="0" />
	<path style="fill:none;stroke:red;stroke-width:1px;stroke-linecap:butt;stroke-linejoin:miter;stroke-opacity:1" d="M 750.86,322.682 767.203,322.682 z" id="boundary" inkscape:connector-curvature="0" />
	<path style="fill:none;stroke:red;stroke-width:1px;stroke-linecap:butt;stroke-linejoin:miter;stroke-opacity:1" d="M 754.129,357.002 770.471,357.002 z" id="boundary" inkscape:connector-curvature="0" />
	<path style="fill:none;stroke:red;stroke-width:1px;stroke-linecap:butt;stroke-linejoin:miter;stroke-opacity:1" d="M 767.203,322.682 781.911,330.853 z" id="boundary" inkscape:connector-curvature="0" />
	<path style="fill:none;stroke:red;stroke-width:1px;stroke-linecap:butt;stroke-linejoin:miter;stroke-opacity:1" d="M 770.471,357.002 786.814,357.002 z" id="boundary" inkscape:connector-curvature="0" />
	<path style="fill:none;stroke:red;stroke-width:1px;stroke-linecap:butt;stroke-linejoin:miter;stroke-opacity:1" d="M 781.911,330.853 798.254,327.585 z" id="boundary" inkscape:connector-curvature="0" />
	<path style="fill:none;stroke:red;stroke-width:1px;stroke-linecap:butt;stroke-linejoin:miter;stroke-opacity:1" d="M 786.814,357.002 803.157,357.002 z" id="boundary" inkscape:connector-curvature="0" />
	<path style="fill:none;stroke:red;stroke-width:1px;stroke-linecap:butt;stroke-linejoin:miter;stroke-opacity:1" d="M 798.254,327.585 814.596,330.853 z" id="boundary" inkscape:connector-curvature="0" />
	<path style="fill:none;stroke:red;stroke-width:1px;stroke-linecap:butt;stroke-linejoin:miter;stroke-opacity:1" d="M 803.157,357.002 819.499,357.002 z" id="boundary" inkscape:connector-curvature="0" />
	<path style="fill:none;stroke:red;stroke-width:1px;stroke-linecap:butt;stroke-linejoin:miter;stroke-opacity:1" d="M 814.596,330.853 830.939,330.853 z" id="boundary" inkscape:connector-curvature="0" />
	<path style="fill:none;stroke:red;stroke-width:1px;stroke-linecap:butt;stroke-linejoin:miter;stroke-opacity:1" d="M 819.499,357.002 834.208,365.173 z" id="boundary" inkscape:connector-curvature="0" />
	<path style="fill:none;stroke:red;stroke-width:1px;stroke-linecap:butt;stroke-linejoin:miter;stroke-opacity:1" d="M 830.939,330.853 847.282,330.853 z" id="boundary" inkscape:connector-curvature="0" />
	<path style="fill:none;stroke:red;stroke-width:1px;stroke-linecap:butt;stroke-linejoin:miter;stroke-opacity:1" d="M 834.208,365.173 850.55,365.173 z" id="boundary" inkscape:connector-curvature="0" />
	<path style="fill:none;stroke:red;stroke-width:1px;stroke-linecap:butt;stroke-linejoin:miter;stroke-opacity:1" d="M 847.282,330.853 863.624,330.853 z" id="boundary" inkscape:connector-curvature="0" />
	<path style="fill:none;stroke:red;stroke-width:1px;stroke-linecap:butt;stroke-linejoin:miter;stroke-opacity:1" d="M 850.55,365.173 866.893,365.173 z" id="boundary" inkscape:connector-curvature="0" />
	<path style="fill:none;stroke:red;stroke-width:1px;stroke-linecap:butt;stroke-linejoin:miter;stroke-opacity:1" d="M 863.624,330.853 879.967,330.853 z" id="boundary" inkscape:connector-curvature="0" />
	<path style="fill:none;stroke:red;stroke-width:1px;stroke-linecap:butt;stroke-linejoin:miter;stroke-opacity:1" d="M 866.893,365.173 883.236,365.173 z" id="boundary" inkscape:connector-curvature="0" />
	<path style="fill:none;stroke:red;stroke-width:1px;stroke-linecap:butt;stroke-linejoin:miter;stroke-opacity:1" d="M 879.967,330.853 896.31,330.853 z" id="boundary" inkscape:connector-curvature="0" />
	<path style="fill:none;stroke:red;stroke-width:1px;stroke-linecap:butt;stroke-linejoin:miter;stroke-opacity:1" d="M 883.236,365.173 899.578,365.173 z" id="boundary" inkscape:connector-curvature="0" />
	<path style="fill:none;stroke:red;stroke-width:1px;stroke-linecap:butt;stroke-linejoin:miter;stroke-opacity:1" d="M 896.31,330.853 912.652,330.853 z" id="boundary" inkscape:connector-curvature="0" />
	<path style="fill:none;stroke:red;stroke-width:1px;stroke-linecap:butt;stroke-linejoin:miter;stroke-opacity:1" d="M 899.578,365.173 915.921,365.173 z" id="boundary" inkscape:connector-curvature="0" />
	<path style="fill:none;stroke:red;stroke-width:1px;stroke-linecap:butt;stroke-linejoin:miter;stroke-opacity:1" d="M 912.652,330.853 928.995,335.756 z" id="boundary" inkscape:connector-curvature="0" />
	<path style="fill:none;stroke:red;stroke-width:1px;stroke-linecap:butt;stroke-linejoin:miter;stroke-opacity:1" d="M 915.921,365.173 930.629,357.002 z" id="boundary" inkscape:connector-curvature="0" />
	<path style="fill:none;stroke:red;stroke-width:1px;stroke-linecap:butt;stroke-linejoin:miter;stroke-opacity:1" d="M 928.995,335.756 945.338,339.025 z" id="boundary" inkscape:connector-curvature="0" />
	<path style="fill:none;stroke:red;stroke-width:1px;stroke-linecap:butt;stroke-linejoin:miter;stroke-opacity:1" d="M 930.629,357.002 946.972,357.002 z" id="boundary" inkscape:connector-curvature="0" />
	<path style="fill:none;stroke:red;stroke-width:1px;stroke-linecap:butt;stroke-linejoin:miter;stroke-opacity:1" d="M 945.338,339.025 961.68,339.025 z" id="boundary" inkscape:connector-curvature="0" />
	<path style="fill:none;stroke:red;stroke-width:1px;stroke-linecap:butt;stroke-linejoin:miter;stroke-opacity:1" d="M 946.972,357.002 963.315,357.002 z" id="boundary" inkscape:connector-curvature="0" />
	<path style="fill:none;stroke:red;stroke-width:1px;stroke-linecap:butt;stroke-linejoin:miter;stroke-opacity:1" d="M 961.68,339.025 978.023,339.025 z" id="boundary" inkscape:connector-curvature="0" />
	<path style="fill:none;stroke:red;stroke-width:1px;stroke-linecap:butt;stroke-linejoin:miter;stroke-opacity:1" d="M 963.315,357.002 979.657,357.002 z" id="boundary" inkscape:connector-curvature="0" />
	<path style="fill:none;stroke:red;stroke-width:1px;stroke-linecap:butt;stroke-linejoin:miter;stroke-opacity:1" d="M 978.023,339.025 994.366,339.025 z" id="boundary" inkscape:connector-curvature="0" />
	<path style="fill:none;stroke:red;stroke-width:1px;stroke-linecap:butt;stroke-linejoin:miter;stroke-opacity:1" d="M 979.657,357.002 996,357.002 z" id="boundary" inkscape:connector-curvature="0" />
	<path style="fill:none;stroke:red;stroke-width:1px;stroke-linecap:butt;stroke-linejoin:miter;stroke-opacity:1" d="M 994.366,339.025 996,357.002 z" id="boundary" inkscape:connector-curvature="0" />
	<circle cx="4" cy="360.27" r="4" fill="#0" id="circle0"/>
	<circle cx="12.1713" cy="343.928" r="4" fill="#0" id="circle1"/>
	<circle cx="20.3427" cy="365.173" r="4" fill="#0" id="circle2"/>
	<circle cx="28.514" cy="339.025" r="4" fill="#0" id="circle3"/>
	<circle cx="35.0511" cy="373.344" r="4" fill="#0" id="circle4"/>
	<circle cx="43.2224" cy="330.853" r="4" fill="#0" id="circle5"/>
	<circle cx="49.7595" cy="381.516" r="4" fill="#0" id="circle6"/>
	<circle cx="54.6623" cy="317.779" r="4" fill="#0" id="circle7"/>
	<circle cx="62.8336" cy="392.956" r="4" fill="#0" id="circle8"/>
	<circle cx="67.7364" cy="306.339" r="4" fill="#0" id="circle9"/>
	<circle cx="74.2735" cy="406.03" r="4" fill="#0" id="circle10"/>
	<circle cx="79.1763" cy="293.265" r="4" fill="#0" id="circle11"/>
	<circle cx="87.3476" cy="417.47" r="4" fill="#0" id="circle12"/>
	<circle cx="92.2504" cy="281.825" r="4" fill="#0" id="circle13"/>
	<circle cx="98.7875" cy="430.544" r="4" fill="#0" id="circle14"/>
	<circle cx="102.056" cy="262.214" r="4" fill="#0" id="circle15"/>
	<circle cx="110.227" cy="443.618" r="4" fill="#0" id="circle16"/>
	<circle cx="115.13" cy="249.14" r="4" fill="#0" id="circle17"/>
	<circle cx="118.399" cy="458.326" r="4" fill="#0" id="circle18"/>
	<circle cx="123.301" cy="232.797" r="4" fill="#0" id="circle19"/>
	<circle cx="131.473" cy="469.766" r="4" fill="#0" id="circle20"/>
	<circle cx="136.376" cy="219.723" r="4" fill="#0" id="circle21"/>
	<circle cx="142.913" cy="482.84" r="4" fill="#0" id="circle22"/>
	<circle cx="149.45" cy="208.283" r="4" fill="#0" id="circle23"/>
	<circle cx="155.987" cy="191.941" r="4" fill="#0" id="circle24"/>
	<circle cx="155.987" cy="494.28" r="4" fill="#0" id="circle25"/>
	<circle cx="169.061" cy="178.867" r="4" fill="#0" id="circle26"/>
	<circle cx="169.061" cy="504.086" r="4" fill="#0" id="circle27"/>
	<circle cx="178.867" cy="517.16" r="4" fill="#0" id="circle28"/>
	<circle cx="183.769" cy="164.158" r="4" fill="#0" id="circle29"/>
	<circle cx="191.941" cy="147.815" r="4" fill="#0" id="circle30"/>
	<circle cx="193.575" cy="525.331" r="4" fill="#0" id="circle31"/>
	<circle cx="206.649" cy="536.771" r="4" fill="#0" id="circle32"/>
	<circle cx="208.283" cy="131.473" r="4" fill="#0" id="circle33"/>
	<circle cx="218.089" cy="549.845" r="4" fill="#0" id="circle34"/>
	<circle cx="221.357" cy="118.399" r="4" fill="#0" id="circle35"/>
	<circle cx="229.529" cy="102.056" r="4" fill="#0" id="circle36"/>
	<circle cx="231.163" cy="561.285" r="4" fill="#0" id="circle37"/>
	<circle cx="237.7" cy="577.628" r="4" fill="#0" id="circle38"/>
	<circle cx="240.969" cy="82.4448" r="4" fill="#0" id="circle39"/>
	<circle cx="250.774" cy="589.068" r="4" fill="#0" id="circle40"/>
	<circle cx="254.043" cy="69.3707" r="4" fill="#0" id="circle41"/>
	<circle cx="262.214" cy="602.142" r="4" fill="#0" id="circle42"/>
	<circle cx="267.117" cy="56.2965" r="4" fill="#0" id="circle43"/>
	<circle cx="273.654" cy="615.216" r="4" fill="#0" id="circle44"/>
	<circle cx="275.288" cy="39.9539" r="4" fill="#0" id="circle45"/>
	<circle cx="281.825" cy="629.924" r="4" fill="#0" id="circle46"/>
	<circle cx="288.362" cy="28.514" r="4" fill="#0" id="circle47"/>
	<circle cx="289.997" cy="644.633" r="4" fill="#0" id="circle48"/>
	<circle cx="299.802" cy="15.4399" r="4" fill="#0" id="circle49"/>
	<circle cx="301.437" cy="657.707" r="4" fill="#0" id="circle50"/>
	<circle cx="312.876" cy="4" r="4" fill="#0" id="circle51"/>
	<circle cx="314.511" cy="667.512" r="4" fill="#0" id="circle52"/>
	<circle cx="329.219" cy="5.63427" r="4" fill="#0" id="circle53"/>
	<circle cx="329.219" cy="675.684" r="4" fill="#0" id="circle54"/>
	<circle cx="340.659" cy="18.7084" r="4" fill="#0" id="circle55"/>
	<circle cx="345.562" cy="672.415" r="4" fill="#0" id="circle56"/>
	<circle cx="353.733" cy="30.1483" r="4" fill="#0" id="circle57"/>
	<circle cx="361.904" cy="664.244" r="4" fill="#0" id="circle58"/>
	<circle cx="365.173" cy="43.2224" r="4" fill="#0" id="circle59"/>
	<circle cx="373.344" cy="651.17" r="4" fill="#0" id="circle60"/>
	<circle cx="378.247" cy="54.6623" r="4" fill="#0" id="circle61"/>
	<circle cx="386.418" cy="639.73" r="4" fill="#0" id="circle62"/>
	<circle cx="389.687" cy="67.7364" r="4" fill="#0" id="circle63"/>
	<circle cx="397.858" cy="82.4448" r="4" fill="#0" id="circle64"/>
	<circle cx="397.858" cy="626.656" r="4" fill="#0" id="circle65"/>
	<circle cx="410.932" cy="615.216" r="4" fill="#0" id="circle66"/>
	<circle cx="412.567" cy="90.6161" r="4" fill="#0" id="circle67"/>
	<circle cx="419.104" cy="598.873" r="4" fill="#0" id="circle68"/>
	<circle cx="425.641" cy="102.056" r="4" fill="#0" id="circle69"/>
	<circle cx="430.544" cy="585.799" r="4" fill="#0" id="circle70"/>
	<circle cx="440.349" cy="110.227" r="4" fill="#0" id="circle71"/>
	<circle cx="443.618" cy="574.359" r="4" fill="#0" id="circle72"/>
	<circle cx="446.886" cy="126.57" r="4" fill="#0" id="circle73"/>
	<circle cx="455.058" cy="561.285" r="4" fill="#0" id="circle74"/>
	<circle cx="463.229" cy="131.473" r="4" fill="#0" id="circle75"/>
	<circle cx="468.132" cy="549.845" r="4" fill="#0" id="circle76"/>
	<circle cx="469.766" cy="147.815" r="4" fill="#0" id="circle77"/>
	<circle cx="476.303" cy="533.502" r="4" fill="#0" id="circle78"/>
	<circle cx="477.937" cy="162.524" r="4" fill="#0" id="circle79"/>
	<circle cx="479.572" cy="178.867" r="4" fill="#0" id="circle80"/>
	<circle cx="479.572" cy="209.918" r="4" fill="#0" id="circle81"/>
	<circle cx="479.572" cy="226.26" r="4" fill="#0" id="circle82"/>
	<circle cx="479.572" cy="242.603" r="4" fill="#0" id="circle83"/>
	<circle cx="487.743" cy="193.575" r="4" fill="#0" id="circle84"/>
	<circle cx="487.743" cy="257.311" r="4" fill="#0" id="circle85"/>
	<circle cx="487.743" cy="512.257" r="4" fill="#0" id="circle86"/>
	<circle cx="495.914" cy="495.914" r="4" fill="#0" id="circle87"/>
	<circle cx="502.451" cy="265.483" r="4" fill="#0" id="circle88"/>
	<circle cx="504.086" cy="414.201" r="4" fill="#0" id="circle89"/>
	<circle cx="504.086" cy="430.544" r="4" fill="#0" id="circle90"/>
	<circle cx="504.086" cy="446.886" r="4" fill="#0" id="circle91"/>
	<circle cx="504.086" cy="463.229" r="4" fill="#0" id="circle92"/>
	<circle cx="504.086" cy="479.572" r="4" fill="#0" id="circle93"/>
	<circle cx="517.16" cy="273.654" r="4" fill="#0" id="circle94"/>
	<circle cx="517.16" cy="402.761" r="4" fill="#0" id="circle95"/>
	<circle cx="528.6" cy="389.687" r="4" fill="#0" id="circle96"/>
	<circle cx="533.502" cy="275.288" r="4" fill="#0" id="circle97"/>
	<circle cx="544.942" cy="288.362" r="4" fill="#0" id="circle98"/>
	<circle cx="544.942" cy="381.516" r="4" fill="#0" id="circle99"/>
	<circle cx="558.016" cy="299.802" r="4" fill="#0" id="circle100"/>
	<circle cx="559.651" cy="373.344" r="4" fill="#0" id="circle101"/>
	<circle cx="572.725" cy="307.974" r="4" fill="#0" id="circle102"/>
	<circle cx="575.993" cy="368.442" r="4" fill="#0" id="circle103"/>
	<circle cx="589.068" cy="314.511" r="4" fill="#0" id="circle104"/>
	<circle cx="592.336" cy="365.173" r="4" fill="#0" id="circle105"/>
	<circle cx="605.41" cy="314.511" r="4" fill="#0" id="circle106"/>
	<circle cx="608.679" cy="365.173" r="4" fill="#0" id="circle107"/>
	<circle cx="621.753" cy="314.511" r="4" fill="#0" id="circle108"/>
	<circle cx="625.021" cy="365.173" r="4" fill="#0" id="circle109"/>
	<circle cx="638.096" cy="314.511" r="4" fill="#0" id="circle110"/>
	<circle cx="641.364" cy="365.173" r="4" fill="#0" id="circle111"/>
	<circle cx="654.438" cy="314.511" r="4" fill="#0" id="circle112"/>
	<circle cx="657.707" cy="365.173" r="4" fill="#0" id="circle113"/>
	<circle cx="669.147" cy="322.682" r="4" fill="#0" id="circle114"/>
	<circle cx="674.049" cy="365.173" r="4" fill="#0" id="circle115"/>
	<circle cx="685.489" cy="322.682" r="4" fill="#0" id="circle116"/>
	<circle cx="690.392" cy="365.173" r="4" fill="#0" id="circle117"/>
	<circle cx="701.832" cy="322.682" r="4" fill="#0" id="circle118"/>
	<circle cx="706.735" cy="365.173" r="4" fill="#0" id="circle119"/>
	<circle cx="718.175" cy="324.316" r="4" fill="#0" id="circle120"/>
	<circle cx="721.443" cy="357.002" r="4" fill="#0" id="circle121"/>
	<circle cx="734.517" cy="322.682" r="4" fill="#0" id="circle122"/>
	<circle cx="737.786" cy="357.002" r="4" fill="#0" id="circle123"/>
	<circle cx="750.86" cy="322.682" r="4" fill="#0" id="circle124"/>
	<circle cx="754.129" cy="357.002" r="4" fill="#0" id="circle125"/>
	<circle cx="767.203" cy="322.682" r="4" fill="#0" id="circle126"/>
	<circle cx="770.471" cy="357.002" r="4" fill="#0" id="circle127"/>
	<circle cx="781.911" cy="330.853" r="4" fill="#0" id="circle128"/>
	<circle cx="786.814" cy="357.002" r="4" fill="#0" id="circle129"/>
	<circle cx="798.254" cy="327.585" r="4" fill="#0" id="circle130"/>
	<circle cx="803.157" cy="357.002" r="4" fill="#0" id="circle131"/>
	<circle cx="814.596" cy="330.853" r="4" fill="#0" id="circle132"/>
	<circle cx="819.499" cy="357.002" r="4" fill="#0" id="circle133"/>
	<circle cx="830.939" cy="330.853" r="4" fill="#0" id="circle134"/>
	<circle cx="834.208" cy="365.173" r="4" fill="#0" id="circle135"/>
	<circle cx="847.282" cy="330.853" r="4" fill="#0" id="circle136"/>
	<circle cx="850.55" cy="365.173" r="4" fill="#0" id="circle137"/>
	<circle cx="863.624" cy="330.853" r="4" fill="#0" id="circle138"/>
	<circle cx="866.893" cy="365.173" r="4" fill="#0" id="circle139"/>
	<circle cx="879.967" cy="330.853" r="4" fill="#0" id="circle140"/>
	<circle cx="883.236" cy="365.173" r="4" fill="#0" id="circle141"/>
	<circle cx="896.31" cy="330.853" r="4" fill="#0" id="circle142"/>
	<circle cx="899.578" cy="365.173" r="4" fill="#0" id="circle143"/>
	<circle cx="912.652" cy="330.853" r="4" fill="#0" id="circle144"/>
	<circle cx="915.921" cy="365.173" r="4" fill="#0" id="circle145"/>
	<circle cx="928.995" cy="335.756" r="4" fill="#0" id="circle146"/>
	<circle cx="930.629" cy="357.002" r="4" fill="#0" id="circle147"/>
	<circle cx="945.338" cy="339.025" r="4" fill="#0" id="circle148"/>
	<circle cx="946.972" cy="357.002" r="4" fill="#0" id="circle149"/>
	<circle cx="961.68" cy="339.025" r="4" fill="#0" id="circle150"/>
	<circle cx="963.315" cy="357.002" r="4" fill="#0" id="circle151"/>
	<circle cx="978.023" cy="339.025" r="4" fill="#0" id="circle152"/>
	<circle cx="979.657" cy="357.002" r="4" fill="#0" id="circle153"/>
	<circle cx="994.366" cy="339.025" r="4" fill="#0" id="circle154"/>
	<circle cx="996" cy="357.002" r="4" fill="#0" id="circle155"/>
	</g>
</svg>