<?xml version="1.0" encoding="UTF-8" standalone="no"?>
<!-- Created with CurveBenchmark -->
<svg
	xmlns:dc="http://purl.org/dc/elements/1.1/"
	xmlns:cc="http://creativecommons.org/ns#"
	xmlns:rdf="http://www.w3.org/1999/02/22-rdf-syntax-ns#"
	xmlns:svg="http://www.w3.org/2000/svg"
	xmlns="http://www.w3.org/2000/svg"
	xmlns:sodipodi="http://sodipodi.sourceforge.net/DTD/sodipodi-0.dtd"
	xmlns:inkscape="http://www.inkscape.org/namespaces/inkscape"
	width="1000"
	height="1000"
	id="svg2"
	version="1.1"
	sodipodi:docname="manifold/fitconnect-television290.png.txt">
<defs
	id="defs4" />
<metadata
	id="metadata7">
	<rdf:RDF>
		<cc:Work
			rdf:about="">
			<dc:format>image/svg+xml</dc:format>
			<dc:type
				rdf:resource="http://purl.org/dc/dcmitype/StillImage" />
			<dc:title></dc:title>
		</cc:Work>
	</rdf:RDF>
</metadata>
<g
	inkscape:label="Layer 1"
	inkscape:groupmode="layer"
	id="layer1">
	<path style="fill:none;stroke:red;stroke-width:1px;stroke-linecap:butt;stroke-linejoin:miter;stroke-opacity:1" d="M 4,905.818 4,945.028 z" id="boundary" inkscape:connector-curvature="0" />
	<path style="fill:none;stroke:red;stroke-width:1px;stroke-linecap:butt;stroke-linejoin:miter;stroke-opacity:1" d="M 4,905.818 43.2095,897.976 z" id="boundary" inkscape:connector-curvature="0" />
	<path style="fill:none;stroke:red;stroke-width:1px;stroke-linecap:butt;stroke-linejoin:miter;stroke-opacity:1" d="M 4,945.028 23.6047,980.316 z" id="boundary" inkscape:connector-curvature="0" />
	<path style="fill:none;stroke:red;stroke-width:1px;stroke-linecap:butt;stroke-linejoin:miter;stroke-opacity:1" d="M 23.6047,980.316 62.8142,984.237 z" id="boundary" inkscape:connector-curvature="0" />
	<path style="fill:none;stroke:red;stroke-width:1px;stroke-linecap:butt;stroke-linejoin:miter;stroke-opacity:1" d="M 43.2095,897.976 82.419,897.976 z" id="boundary" inkscape:connector-curvature="0" />
	<path style="fill:none;stroke:red;stroke-width:1px;stroke-linecap:butt;stroke-linejoin:miter;stroke-opacity:1" d="M 62.8142,984.237 102.024,980.316 z" id="boundary" inkscape:connector-curvature="0" />
	<path style="fill:none;stroke:red;stroke-width:1px;stroke-linecap:butt;stroke-linejoin:miter;stroke-opacity:1" d="M 82.419,897.976 121.628,897.976 z" id="boundary" inkscape:connector-curvature="0" />
	<path style="fill:none;stroke:red;stroke-width:1px;stroke-linecap:butt;stroke-linejoin:miter;stroke-opacity:1" d="M 102.024,980.316 141.233,980.316 z" id="boundary" inkscape:connector-curvature="0" />
	<path style="fill:none;stroke:red;stroke-width:1px;stroke-linecap:butt;stroke-linejoin:miter;stroke-opacity:1" d="M 121.628,897.976 160.838,897.976 z" id="boundary" inkscape:connector-curvature="0" />
	<path style="fill:none;stroke:red;stroke-width:1px;stroke-linecap:butt;stroke-linejoin:miter;stroke-opacity:1" d="M 129.47,670.561 164.759,690.166 z" id="boundary" inkscape:connector-curvature="0" />
	<path style="fill:none;stroke:red;stroke-width:1px;stroke-linecap:butt;stroke-linejoin:miter;stroke-opacity:1" d="M 129.47,670.561 184.364,654.877 z" id="boundary" inkscape:connector-curvature="0" />
	<path style="fill:none;stroke:red;stroke-width:1px;stroke-linecap:butt;stroke-linejoin:miter;stroke-opacity:1" d="M 141.233,980.316 180.443,980.316 z" id="boundary" inkscape:connector-curvature="0" />
	<path style="fill:none;stroke:red;stroke-width:1px;stroke-linecap:butt;stroke-linejoin:miter;stroke-opacity:1" d="M 160.838,815.636 180.443,780.348 z" id="boundary" inkscape:connector-curvature="0" />
	<path style="fill:none;stroke:red;stroke-width:1px;stroke-linecap:butt;stroke-linejoin:miter;stroke-opacity:1" d="M 160.838,815.636 215.731,854.846 z" id="boundary" inkscape:connector-curvature="0" />
	<path style="fill:none;stroke:red;stroke-width:1px;stroke-linecap:butt;stroke-linejoin:miter;stroke-opacity:1" d="M 160.838,897.976 200.047,897.976 z" id="boundary" inkscape:connector-curvature="0" />
	<path style="fill:none;stroke:red;stroke-width:1px;stroke-linecap:butt;stroke-linejoin:miter;stroke-opacity:1" d="M 164.759,690.166 215.731,729.375 z" id="boundary" inkscape:connector-curvature="0" />
	<path style="fill:none;stroke:red;stroke-width:1px;stroke-linecap:butt;stroke-linejoin:miter;stroke-opacity:1" d="M 168.68,82.419 168.68,121.628 z" id="boundary" inkscape:connector-curvature="0" />
	<path style="fill:none;stroke:red;stroke-width:1px;stroke-linecap:butt;stroke-linejoin:miter;stroke-opacity:1" d="M 168.68,82.419 176.522,19.6838 z" id="boundary" inkscape:connector-curvature="0" />
	<path style="fill:none;stroke:red;stroke-width:1px;stroke-linecap:butt;stroke-linejoin:miter;stroke-opacity:1" d="M 168.68,121.628 168.68,160.838 z" id="boundary" inkscape:connector-curvature="0" />
	<path style="fill:none;stroke:red;stroke-width:1px;stroke-linecap:butt;stroke-linejoin:miter;stroke-opacity:1" d="M 168.68,160.838 168.68,200.047 z" id="boundary" inkscape:connector-curvature="0" />
	<path style="fill:none;stroke:red;stroke-width:1px;stroke-linecap:butt;stroke-linejoin:miter;stroke-opacity:1" d="M 168.68,200.047 172.601,239.257 z" id="boundary" inkscape:connector-curvature="0" />
	<path style="fill:none;stroke:red;stroke-width:1px;stroke-linecap:butt;stroke-linejoin:miter;stroke-opacity:1" d="M 172.601,239.257 176.522,278.466 z" id="boundary" inkscape:connector-curvature="0" />
	<path style="fill:none;stroke:red;stroke-width:1px;stroke-linecap:butt;stroke-linejoin:miter;stroke-opacity:1" d="M 176.522,19.6838 215.731,4 z" id="boundary" inkscape:connector-curvature="0" />
	<path style="fill:none;stroke:red;stroke-width:1px;stroke-linecap:butt;stroke-linejoin:miter;stroke-opacity:1" d="M 176.522,278.466 176.522,317.676 z" id="boundary" inkscape:connector-curvature="0" />
	<path style="fill:none;stroke:red;stroke-width:1px;stroke-linecap:butt;stroke-linejoin:miter;stroke-opacity:1" d="M 176.522,317.676 176.522,356.885 z" id="boundary" inkscape:connector-curvature="0" />
	<path style="fill:none;stroke:red;stroke-width:1px;stroke-linecap:butt;stroke-linejoin:miter;stroke-opacity:1" d="M 176.522,356.885 176.522,396.095 z" id="boundary" inkscape:connector-curvature="0" />
	<path style="fill:none;stroke:red;stroke-width:1px;stroke-linecap:butt;stroke-linejoin:miter;stroke-opacity:1" d="M 176.522,396.095 176.522,435.304 z" id="boundary" inkscape:connector-curvature="0" />
	<path style="fill:none;stroke:red;stroke-width:1px;stroke-linecap:butt;stroke-linejoin:miter;stroke-opacity:1" d="M 176.522,435.304 176.522,474.514 z" id="boundary" inkscape:connector-curvature="0" />
	<path style="fill:none;stroke:red;stroke-width:1px;stroke-linecap:butt;stroke-linejoin:miter;stroke-opacity:1" d="M 176.522,474.514 180.443,513.723 z" id="boundary" inkscape:connector-curvature="0" />
	<path style="fill:none;stroke:red;stroke-width:1px;stroke-linecap:butt;stroke-linejoin:miter;stroke-opacity:1" d="M 180.443,513.723 215.731,533.328 z" id="boundary" inkscape:connector-curvature="0" />
	<path style="fill:none;stroke:red;stroke-width:1px;stroke-linecap:butt;stroke-linejoin:miter;stroke-opacity:1" d="M 180.443,780.348 215.731,729.375 z" id="boundary" inkscape:connector-curvature="0" />
	<path style="fill:none;stroke:red;stroke-width:1px;stroke-linecap:butt;stroke-linejoin:miter;stroke-opacity:1" d="M 180.443,980.316 219.652,980.316 z" id="boundary" inkscape:connector-curvature="0" />
	<path style="fill:none;stroke:red;stroke-width:1px;stroke-linecap:butt;stroke-linejoin:miter;stroke-opacity:1" d="M 184.364,654.877 215.731,611.747 z" id="boundary" inkscape:connector-curvature="0" />
	<path style="fill:none;stroke:red;stroke-width:1px;stroke-linecap:butt;stroke-linejoin:miter;stroke-opacity:1" d="M 200.047,897.976 215.731,854.846 z" id="boundary" inkscape:connector-curvature="0" />
	<path style="fill:none;stroke:red;stroke-width:1px;stroke-linecap:butt;stroke-linejoin:miter;stroke-opacity:1" d="M 215.731,4 254.941,4 z" id="boundary" inkscape:connector-curvature="0" />
	<path style="fill:none;stroke:red;stroke-width:1px;stroke-linecap:butt;stroke-linejoin:miter;stroke-opacity:1" d="M 215.731,533.328 215.731,572.538 z" id="boundary" inkscape:connector-curvature="0" />
	<path style="fill:none;stroke:red;stroke-width:1px;stroke-linecap:butt;stroke-linejoin:miter;stroke-opacity:1" d="M 215.731,572.538 215.731,611.747 z" id="boundary" inkscape:connector-curvature="0" />
	<path style="fill:none;stroke:red;stroke-width:1px;stroke-linecap:butt;stroke-linejoin:miter;stroke-opacity:1" d="M 219.652,980.316 258.862,980.316 z" id="boundary" inkscape:connector-curvature="0" />
	<path style="fill:none;stroke:red;stroke-width:1px;stroke-linecap:butt;stroke-linejoin:miter;stroke-opacity:1" d="M 254.941,4 294.15,4 z" id="boundary" inkscape:connector-curvature="0" />
	<path style="fill:none;stroke:red;stroke-width:1px;stroke-linecap:butt;stroke-linejoin:miter;stroke-opacity:1" d="M 258.862,980.316 298.071,980.316 z" id="boundary" inkscape:connector-curvature="0" />
	<path style="fill:none;stroke:red;stroke-width:1px;stroke-linecap:butt;stroke-linejoin:miter;stroke-opacity:1" d="M 294.15,4 333.36,4 z" id="boundary" inkscape:connector-curvature="0" />
	<path style="fill:none;stroke:red;stroke-width:1px;stroke-linecap:butt;stroke-linejoin:miter;stroke-opacity:1" d="M 298.071,980.316 337.281,992.079 z" id="boundary" inkscape:connector-curvature="0" />
	<path style="fill:none;stroke:red;stroke-width:1px;stroke-linecap:butt;stroke-linejoin:miter;stroke-opacity:1" d="M 333.36,4 372.569,4 z" id="boundary" inkscape:connector-curvature="0" />
	<path style="fill:none;stroke:red;stroke-width:1px;stroke-linecap:butt;stroke-linejoin:miter;stroke-opacity:1" d="M 337.281,992.079 376.49,980.316 z" id="boundary" inkscape:connector-curvature="0" />
	<path style="fill:none;stroke:red;stroke-width:1px;stroke-linecap:butt;stroke-linejoin:miter;stroke-opacity:1" d="M 368.648,529.407 368.648,568.617 z" id="boundary" inkscape:connector-curvature="0" />
	<path style="fill:none;stroke:red;stroke-width:1px;stroke-linecap:butt;stroke-linejoin:miter;stroke-opacity:1" d="M 368.648,529.407 407.858,525.486 z" id="boundary" inkscape:connector-curvature="0" />
	<path style="fill:none;stroke:red;stroke-width:1px;stroke-linecap:butt;stroke-linejoin:miter;stroke-opacity:1" d="M 368.648,568.617 368.648,607.826 z" id="boundary" inkscape:connector-curvature="0" />
	<path style="fill:none;stroke:red;stroke-width:1px;stroke-linecap:butt;stroke-linejoin:miter;stroke-opacity:1" d="M 368.648,701.929 368.648,741.138 z" id="boundary" inkscape:connector-curvature="0" />
	<path style="fill:none;stroke:red;stroke-width:1px;stroke-linecap:butt;stroke-linejoin:miter;stroke-opacity:1" d="M 368.648,701.929 427.462,690.166 z" id="boundary" inkscape:connector-curvature="0" />
	<path style="fill:none;stroke:red;stroke-width:1px;stroke-linecap:butt;stroke-linejoin:miter;stroke-opacity:1" d="M 368.648,741.138 372.569,780.348 z" id="boundary" inkscape:connector-curvature="0" />
	<path style="fill:none;stroke:red;stroke-width:1px;stroke-linecap:butt;stroke-linejoin:miter;stroke-opacity:1" d="M 368.648,819.557 368.648,858.767 z" id="boundary" inkscape:connector-curvature="0" />
	<path style="fill:none;stroke:red;stroke-width:1px;stroke-linecap:butt;stroke-linejoin:miter;stroke-opacity:1" d="M 368.648,819.557 372.569,780.348 z" id="boundary" inkscape:connector-curvature="0" />
	<path style="fill:none;stroke:red;stroke-width:1px;stroke-linecap:butt;stroke-linejoin:miter;stroke-opacity:1" d="M 368.648,858.767 372.569,897.976 z" id="boundary" inkscape:connector-curvature="0" />
	<path style="fill:none;stroke:red;stroke-width:1px;stroke-linecap:butt;stroke-linejoin:miter;stroke-opacity:1" d="M 372.569,4 411.779,4 z" id="boundary" inkscape:connector-curvature="0" />
	<path style="fill:none;stroke:red;stroke-width:1px;stroke-linecap:butt;stroke-linejoin:miter;stroke-opacity:1" d="M 372.569,897.976 411.779,897.976 z" id="boundary" inkscape:connector-curvature="0" />
	<path style="fill:none;stroke:red;stroke-width:1px;stroke-linecap:butt;stroke-linejoin:miter;stroke-opacity:1" d="M 376.49,980.316 415.7,980.316 z" id="boundary" inkscape:connector-curvature="0" />
	<path style="fill:none;stroke:red;stroke-width:1px;stroke-linecap:butt;stroke-linejoin:miter;stroke-opacity:1" d="M 407.858,525.486 447.067,525.486 z" id="boundary" inkscape:connector-curvature="0" />
	<path style="fill:none;stroke:red;stroke-width:1px;stroke-linecap:butt;stroke-linejoin:miter;stroke-opacity:1" d="M 411.779,4 450.988,4 z" id="boundary" inkscape:connector-curvature="0" />
	<path style="fill:none;stroke:red;stroke-width:1px;stroke-linecap:butt;stroke-linejoin:miter;stroke-opacity:1" d="M 411.779,897.976 450.988,897.976 z" id="boundary" inkscape:connector-curvature="0" />
	<path style="fill:none;stroke:red;stroke-width:1px;stroke-linecap:butt;stroke-linejoin:miter;stroke-opacity:1" d="M 415.7,980.316 454.909,980.316 z" id="boundary" inkscape:connector-curvature="0" />
	<path style="fill:none;stroke:red;stroke-width:1px;stroke-linecap:butt;stroke-linejoin:miter;stroke-opacity:1" d="M 427.462,690.166 447.067,654.877 z" id="boundary" inkscape:connector-curvature="0" />
	<path style="fill:none;stroke:red;stroke-width:1px;stroke-linecap:butt;stroke-linejoin:miter;stroke-opacity:1" d="M 447.067,525.486 486.277,525.486 z" id="boundary" inkscape:connector-curvature="0" />
	<path style="fill:none;stroke:red;stroke-width:1px;stroke-linecap:butt;stroke-linejoin:miter;stroke-opacity:1" d="M 447.067,654.877 505.881,690.166 z" id="boundary" inkscape:connector-curvature="0" />
	<path style="fill:none;stroke:red;stroke-width:1px;stroke-linecap:butt;stroke-linejoin:miter;stroke-opacity:1" d="M 447.067,815.636 486.277,815.636 z" id="boundary" inkscape:connector-curvature="0" />
	<path style="fill:none;stroke:red;stroke-width:1px;stroke-linecap:butt;stroke-linejoin:miter;stroke-opacity:1" d="M 450.988,4 490.198,4 z" id="boundary" inkscape:connector-curvature="0" />
	<path style="fill:none;stroke:red;stroke-width:1px;stroke-linecap:butt;stroke-linejoin:miter;stroke-opacity:1" d="M 450.988,897.976 490.198,897.976 z" id="boundary" inkscape:connector-curvature="0" />
	<path style="fill:none;stroke:red;stroke-width:1px;stroke-linecap:butt;stroke-linejoin:miter;stroke-opacity:1" d="M 454.909,980.316 494.119,980.316 z" id="boundary" inkscape:connector-curvature="0" />
	<path style="fill:none;stroke:red;stroke-width:1px;stroke-linecap:butt;stroke-linejoin:miter;stroke-opacity:1" d="M 486.277,525.486 525.486,521.565 z" id="boundary" inkscape:connector-curvature="0" />
	<path style="fill:none;stroke:red;stroke-width:1px;stroke-linecap:butt;stroke-linejoin:miter;stroke-opacity:1" d="M 486.277,815.636 545.091,780.348 z" id="boundary" inkscape:connector-curvature="0" />
	<path style="fill:none;stroke:red;stroke-width:1px;stroke-linecap:butt;stroke-linejoin:miter;stroke-opacity:1" d="M 490.198,4 529.407,11.8419 z" id="boundary" inkscape:connector-curvature="0" />
	<path style="fill:none;stroke:red;stroke-width:1px;stroke-linecap:butt;stroke-linejoin:miter;stroke-opacity:1" d="M 490.198,897.976 529.407,897.976 z" id="boundary" inkscape:connector-curvature="0" />
	<path style="fill:none;stroke:red;stroke-width:1px;stroke-linecap:butt;stroke-linejoin:miter;stroke-opacity:1" d="M 494.119,980.316 533.328,980.316 z" id="boundary" inkscape:connector-curvature="0" />
	<path style="fill:none;stroke:red;stroke-width:1px;stroke-linecap:butt;stroke-linejoin:miter;stroke-opacity:1" d="M 505.881,690.166 584.3,690.166 z" id="boundary" inkscape:connector-curvature="0" />
	<path style="fill:none;stroke:red;stroke-width:1px;stroke-linecap:butt;stroke-linejoin:miter;stroke-opacity:1" d="M 525.486,521.565 541.17,482.356 z" id="boundary" inkscape:connector-curvature="0" />
	<path style="fill:none;stroke:red;stroke-width:1px;stroke-linecap:butt;stroke-linejoin:miter;stroke-opacity:1" d="M 529.407,11.8419 541.17,51.0514 z" id="boundary" inkscape:connector-curvature="0" />
	<path style="fill:none;stroke:red;stroke-width:1px;stroke-linecap:butt;stroke-linejoin:miter;stroke-opacity:1" d="M 529.407,897.976 568.617,897.976 z" id="boundary" inkscape:connector-curvature="0" />
	<path style="fill:none;stroke:red;stroke-width:1px;stroke-linecap:butt;stroke-linejoin:miter;stroke-opacity:1" d="M 533.328,980.316 572.538,980.316 z" id="boundary" inkscape:connector-curvature="0" />
	<path style="fill:none;stroke:red;stroke-width:1px;stroke-linecap:butt;stroke-linejoin:miter;stroke-opacity:1" d="M 541.17,51.0514 541.17,90.2609 z" id="boundary" inkscape:connector-curvature="0" />
	<path style="fill:none;stroke:red;stroke-width:1px;stroke-linecap:butt;stroke-linejoin:miter;stroke-opacity:1" d="M 541.17,90.2609 541.17,129.47 z" id="boundary" inkscape:connector-curvature="0" />
	<path style="fill:none;stroke:red;stroke-width:1px;stroke-linecap:butt;stroke-linejoin:miter;stroke-opacity:1" d="M 541.17,129.47 541.17,168.68 z" id="boundary" inkscape:connector-curvature="0" />
	<path style="fill:none;stroke:red;stroke-width:1px;stroke-linecap:butt;stroke-linejoin:miter;stroke-opacity:1" d="M 541.17,168.68 541.17,207.889 z" id="boundary" inkscape:connector-curvature="0" />
	<path style="fill:none;stroke:red;stroke-width:1px;stroke-linecap:butt;stroke-linejoin:miter;stroke-opacity:1" d="M 541.17,207.889 541.17,247.099 z" id="boundary" inkscape:connector-curvature="0" />
	<path style="fill:none;stroke:red;stroke-width:1px;stroke-linecap:butt;stroke-linejoin:miter;stroke-opacity:1" d="M 541.17,247.099 541.17,286.308 z" id="boundary" inkscape:connector-curvature="0" />
	<path style="fill:none;stroke:red;stroke-width:1px;stroke-linecap:butt;stroke-linejoin:miter;stroke-opacity:1" d="M 541.17,286.308 541.17,325.518 z" id="boundary" inkscape:connector-curvature="0" />
	<path style="fill:none;stroke:red;stroke-width:1px;stroke-linecap:butt;stroke-linejoin:miter;stroke-opacity:1" d="M 541.17,325.518 541.17,364.727 z" id="boundary" inkscape:connector-curvature="0" />
	<path style="fill:none;stroke:red;stroke-width:1px;stroke-linecap:butt;stroke-linejoin:miter;stroke-opacity:1" d="M 541.17,364.727 541.17,403.937 z" id="boundary" inkscape:connector-curvature="0" />
	<path style="fill:none;stroke:red;stroke-width:1px;stroke-linecap:butt;stroke-linejoin:miter;stroke-opacity:1" d="M 541.17,403.937 541.17,443.146 z" id="boundary" inkscape:connector-curvature="0" />
	<path style="fill:none;stroke:red;stroke-width:1px;stroke-linecap:butt;stroke-linejoin:miter;stroke-opacity:1" d="M 541.17,443.146 541.17,482.356 z" id="boundary" inkscape:connector-curvature="0" />
	<path style="fill:none;stroke:red;stroke-width:1px;stroke-linecap:butt;stroke-linejoin:miter;stroke-opacity:1" d="M 568.617,897.976 607.826,897.976 z" id="boundary" inkscape:connector-curvature="0" />
	<path style="fill:none;stroke:red;stroke-width:1px;stroke-linecap:butt;stroke-linejoin:miter;stroke-opacity:1" d="M 572.538,980.316 611.747,980.316 z" id="boundary" inkscape:connector-curvature="0" />
	<path style="fill:none;stroke:red;stroke-width:1px;stroke-linecap:butt;stroke-linejoin:miter;stroke-opacity:1" d="M 607.826,897.976 647.036,897.976 z" id="boundary" inkscape:connector-curvature="0" />
	<path style="fill:none;stroke:red;stroke-width:1px;stroke-linecap:butt;stroke-linejoin:miter;stroke-opacity:1" d="M 611.747,980.316 650.957,980.316 z" id="boundary" inkscape:connector-curvature="0" />
	<path style="fill:none;stroke:red;stroke-width:1px;stroke-linecap:butt;stroke-linejoin:miter;stroke-opacity:1" d="M 647.036,897.976 686.245,897.976 z" id="boundary" inkscape:connector-curvature="0" />
	<path style="fill:none;stroke:red;stroke-width:1px;stroke-linecap:butt;stroke-linejoin:miter;stroke-opacity:1" d="M 650.957,980.316 690.166,996 z" id="boundary" inkscape:connector-curvature="0" />
	<path style="fill:none;stroke:red;stroke-width:1px;stroke-linecap:butt;stroke-linejoin:miter;stroke-opacity:1" d="M 686.245,897.976 725.455,897.976 z" id="boundary" inkscape:connector-curvature="0" />
	<path style="fill:none;stroke:red;stroke-width:1px;stroke-linecap:butt;stroke-linejoin:miter;stroke-opacity:1" d="M 690.166,996 729.375,980.316 z" id="boundary" inkscape:connector-curvature="0" />
	<path style="fill:none;stroke:red;stroke-width:1px;stroke-linecap:butt;stroke-linejoin:miter;stroke-opacity:1" d="M 725.455,897.976 745.059,933.265 z" id="boundary" inkscape:connector-curvature="0" />
	<path style="fill:none;stroke:red;stroke-width:1px;stroke-linecap:butt;stroke-linejoin:miter;stroke-opacity:1" d="M 729.375,980.316 745.059,933.265 z" id="boundary" inkscape:connector-curvature="0" />
	<circle cx="4" cy="905.818" r="4" fill="#0" id="circle0"/>
	<circle cx="4" cy="945.028" r="4" fill="#0" id="circle1"/>
	<circle cx="23.6047" cy="980.316" r="4" fill="#0" id="circle2"/>
	<circle cx="43.2095" cy="897.976" r="4" fill="#0" id="circle3"/>
	<circle cx="62.8142" cy="984.237" r="4" fill="#0" id="circle4"/>
	<circle cx="82.419" cy="897.976" r="4" fill="#0" id="circle5"/>
	<circle cx="102.024" cy="980.316" r="4" fill="#0" id="circle6"/>
	<circle cx="121.628" cy="897.976" r="4" fill="#0" id="circle7"/>
	<circle cx="129.47" cy="670.561" r="4" fill="#0" id="circle8"/>
	<circle cx="129.47" cy="788.19" r="4" fill="#0" id="circle9"/>
	<circle cx="141.233" cy="980.316" r="4" fill="#0" id="circle10"/>
	<circle cx="160.838" cy="815.636" r="4" fill="#0" id="circle11"/>
	<circle cx="160.838" cy="897.976" r="4" fill="#0" id="circle12"/>
	<circle cx="164.759" cy="690.166" r="4" fill="#0" id="circle13"/>
	<circle cx="168.68" cy="82.419" r="4" fill="#0" id="circle14"/>
	<circle cx="168.68" cy="121.628" r="4" fill="#0" id="circle15"/>
	<circle cx="168.68" cy="160.838" r="4" fill="#0" id="circle16"/>
	<circle cx="168.68" cy="200.047" r="4" fill="#0" id="circle17"/>
	<circle cx="172.601" cy="239.257" r="4" fill="#0" id="circle18"/>
	<circle cx="176.522" cy="19.6838" r="4" fill="#0" id="circle19"/>
	<circle cx="176.522" cy="278.466" r="4" fill="#0" id="circle20"/>
	<circle cx="176.522" cy="317.676" r="4" fill="#0" id="circle21"/>
	<circle cx="176.522" cy="356.885" r="4" fill="#0" id="circle22"/>
	<circle cx="176.522" cy="396.095" r="4" fill="#0" id="circle23"/>
	<circle cx="176.522" cy="435.304" r="4" fill="#0" id="circle24"/>
	<circle cx="176.522" cy="474.514" r="4" fill="#0" id="circle25"/>
	<circle cx="180.443" cy="513.723" r="4" fill="#0" id="circle26"/>
	<circle cx="180.443" cy="780.348" r="4" fill="#0" id="circle27"/>
	<circle cx="180.443" cy="980.316" r="4" fill="#0" id="circle28"/>
	<circle cx="184.364" cy="654.877" r="4" fill="#0" id="circle29"/>
	<circle cx="200.047" cy="815.636" r="4" fill="#0" id="circle30"/>
	<circle cx="200.047" cy="897.976" r="4" fill="#0" id="circle31"/>
	<circle cx="203.968" cy="690.166" r="4" fill="#0" id="circle32"/>
	<circle cx="215.731" cy="4" r="4" fill="#0" id="circle33"/>
	<circle cx="215.731" cy="533.328" r="4" fill="#0" id="circle34"/>
	<circle cx="215.731" cy="572.538" r="4" fill="#0" id="circle35"/>
	<circle cx="215.731" cy="611.747" r="4" fill="#0" id="circle36"/>
	<circle cx="215.731" cy="729.375" r="4" fill="#0" id="circle37"/>
	<circle cx="215.731" cy="854.846" r="4" fill="#0" id="circle38"/>
	<circle cx="219.652" cy="980.316" r="4" fill="#0" id="circle39"/>
	<circle cx="254.941" cy="4" r="4" fill="#0" id="circle40"/>
	<circle cx="258.862" cy="980.316" r="4" fill="#0" id="circle41"/>
	<circle cx="294.15" cy="4" r="4" fill="#0" id="circle42"/>
	<circle cx="298.071" cy="980.316" r="4" fill="#0" id="circle43"/>
	<circle cx="333.36" cy="4" r="4" fill="#0" id="circle44"/>
	<circle cx="337.281" cy="992.079" r="4" fill="#0" id="circle45"/>
	<circle cx="368.648" cy="529.407" r="4" fill="#0" id="circle46"/>
	<circle cx="368.648" cy="568.617" r="4" fill="#0" id="circle47"/>
	<circle cx="368.648" cy="607.826" r="4" fill="#0" id="circle48"/>
	<circle cx="368.648" cy="647.036" r="4" fill="#0" id="circle49"/>
	<circle cx="368.648" cy="701.929" r="4" fill="#0" id="circle50"/>
	<circle cx="368.648" cy="741.138" r="4" fill="#0" id="circle51"/>
	<circle cx="368.648" cy="819.557" r="4" fill="#0" id="circle52"/>
	<circle cx="368.648" cy="858.767" r="4" fill="#0" id="circle53"/>
	<circle cx="372.569" cy="4" r="4" fill="#0" id="circle54"/>
	<circle cx="372.569" cy="780.348" r="4" fill="#0" id="circle55"/>
	<circle cx="372.569" cy="897.976" r="4" fill="#0" id="circle56"/>
	<circle cx="376.49" cy="980.316" r="4" fill="#0" id="circle57"/>
	<circle cx="407.858" cy="525.486" r="4" fill="#0" id="circle58"/>
	<circle cx="407.858" cy="654.877" r="4" fill="#0" id="circle59"/>
	<circle cx="407.858" cy="815.636" r="4" fill="#0" id="circle60"/>
	<circle cx="411.779" cy="4" r="4" fill="#0" id="circle61"/>
	<circle cx="411.779" cy="897.976" r="4" fill="#0" id="circle62"/>
	<circle cx="415.7" cy="980.316" r="4" fill="#0" id="circle63"/>
	<circle cx="427.462" cy="690.166" r="4" fill="#0" id="circle64"/>
	<circle cx="427.462" cy="780.348" r="4" fill="#0" id="circle65"/>
	<circle cx="447.067" cy="525.486" r="4" fill="#0" id="circle66"/>
	<circle cx="447.067" cy="654.877" r="4" fill="#0" id="circle67"/>
	<circle cx="447.067" cy="815.636" r="4" fill="#0" id="circle68"/>
	<circle cx="450.988" cy="4" r="4" fill="#0" id="circle69"/>
	<circle cx="450.988" cy="897.976" r="4" fill="#0" id="circle70"/>
	<circle cx="454.909" cy="980.316" r="4" fill="#0" id="circle71"/>
	<circle cx="466.672" cy="690.166" r="4" fill="#0" id="circle72"/>
	<circle cx="466.672" cy="780.348" r="4" fill="#0" id="circle73"/>
	<circle cx="486.277" cy="525.486" r="4" fill="#0" id="circle74"/>
	<circle cx="486.277" cy="654.877" r="4" fill="#0" id="circle75"/>
	<circle cx="486.277" cy="815.636" r="4" fill="#0" id="circle76"/>
	<circle cx="490.198" cy="4" r="4" fill="#0" id="circle77"/>
	<circle cx="490.198" cy="897.976" r="4" fill="#0" id="circle78"/>
	<circle cx="494.119" cy="980.316" r="4" fill="#0" id="circle79"/>
	<circle cx="505.881" cy="690.166" r="4" fill="#0" id="circle80"/>
	<circle cx="505.881" cy="780.348" r="4" fill="#0" id="circle81"/>
	<circle cx="525.486" cy="521.565" r="4" fill="#0" id="circle82"/>
	<circle cx="525.486" cy="654.877" r="4" fill="#0" id="circle83"/>
	<circle cx="525.486" cy="815.636" r="4" fill="#0" id="circle84"/>
	<circle cx="529.407" cy="11.8419" r="4" fill="#0" id="circle85"/>
	<circle cx="529.407" cy="897.976" r="4" fill="#0" id="circle86"/>
	<circle cx="533.328" cy="980.316" r="4" fill="#0" id="circle87"/>
	<circle cx="541.17" cy="51.0514" r="4" fill="#0" id="circle88"/>
	<circle cx="541.17" cy="90.2609" r="4" fill="#0" id="circle89"/>
	<circle cx="541.17" cy="129.47" r="4" fill="#0" id="circle90"/>
	<circle cx="541.17" cy="168.68" r="4" fill="#0" id="circle91"/>
	<circle cx="541.17" cy="207.889" r="4" fill="#0" id="circle92"/>
	<circle cx="541.17" cy="247.099" r="4" fill="#0" id="circle93"/>
	<circle cx="541.17" cy="286.308" r="4" fill="#0" id="circle94"/>
	<circle cx="541.17" cy="325.518" r="4" fill="#0" id="circle95"/>
	<circle cx="541.17" cy="364.727" r="4" fill="#0" id="circle96"/>
	<circle cx="541.17" cy="403.937" r="4" fill="#0" id="circle97"/>
	<circle cx="541.17" cy="443.146" r="4" fill="#0" id="circle98"/>
	<circle cx="541.17" cy="482.356" r="4" fill="#0" id="circle99"/>
	<circle cx="545.091" cy="690.166" r="4" fill="#0" id="circle100"/>
	<circle cx="545.091" cy="780.348" r="4" fill="#0" id="circle101"/>
	<circle cx="564.696" cy="654.877" r="4" fill="#0" id="circle102"/>
	<circle cx="564.696" cy="815.636" r="4" fill="#0" id="circle103"/>
	<circle cx="568.617" cy="897.976" r="4" fill="#0" id="circle104"/>
	<circle cx="572.538" cy="980.316" r="4" fill="#0" id="circle105"/>
	<circle cx="584.3" cy="690.166" r="4" fill="#0" id="circle106"/>
	<circle cx="584.3" cy="780.348" r="4" fill="#0" id="circle107"/>
	<circle cx="603.905" cy="654.877" r="4" fill="#0" id="circle108"/>
	<circle cx="603.905" cy="815.636" r="4" fill="#0" id="circle109"/>
	<circle cx="607.826" cy="897.976" r="4" fill="#0" id="circle110"/>
	<circle cx="611.747" cy="980.316" r="4" fill="#0" id="circle111"/>
	<circle cx="623.51" cy="690.166" r="4" fill="#0" id="circle112"/>
	<circle cx="623.51" cy="780.348" r="4" fill="#0" id="circle113"/>
	<circle cx="643.115" cy="654.877" r="4" fill="#0" id="circle114"/>
	<circle cx="643.115" cy="815.636" r="4" fill="#0" id="circle115"/>
	<circle cx="647.036" cy="897.976" r="4" fill="#0" id="circle116"/>
	<circle cx="650.957" cy="980.316" r="4" fill="#0" id="circle117"/>
	<circle cx="662.719" cy="690.166" r="4" fill="#0" id="circle118"/>
	<circle cx="662.719" cy="780.348" r="4" fill="#0" id="circle119"/>
	<circle cx="682.324" cy="654.877" r="4" fill="#0" id="circle120"/>
	<circle cx="682.324" cy="815.636" r="4" fill="#0" id="circle121"/>
	<circle cx="686.245" cy="897.976" r="4" fill="#0" id="circle122"/>
	<circle cx="690.166" cy="996" r="4" fill="#0" id="circle123"/>
	<circle cx="701.929" cy="690.166" r="4" fill="#0" id="circle124"/>
	<circle cx="701.929" cy="780.348" r="4" fill="#0" id="circle125"/>
	<circle cx="725.455" cy="897.976" r="4" fill="#0" id="circle126"/>
	<circle cx="729.375" cy="980.316" r="4" fill="#0" id="circle127"/>
	<circle cx="745.059" cy="933.265" r="4" fill="#0" id="circle128"/>
	</g>
</svg>