<?xml version="1.0" encoding="UTF-8" standalone="no"?>
<!-- Created with CurveBenchmark -->
<svg
	xmlns:dc="http://purl.org/dc/elements/1.1/"
	xmlns:cc="http://creativecommons.org/ns#"
	xmlns:rdf="http://www.w3.org/1999/02/22-rdf-syntax-ns#"
	xmlns:svg="http://www.w3.org/2000/svg"
	xmlns="http://www.w3.org/2000/svg"
	xmlns:sodipodi="http://sodipodi.sourceforge.net/DTD/sodipodi-0.dtd"
	xmlns:inkscape="http://www.inkscape.org/namespaces/inkscape"
	width="1000"
	height="1000"
	id="svg2"
	version="1.1"
	sodipodi:docname="manifold/fitconnect-spoon-7.png.txt">
<defs
	id="defs4" />
<metadata
	id="metadata7">
	<rdf:RDF>
		<cc:Work
			rdf:about="">
			<dc:format>image/svg+xml</dc:format>
			<dc:type
				rdf:resource="http://purl.org/dc/dcmitype/StillImage" />
			<dc:title></dc:title>
		</cc:Work>
	</rdf:RDF>
</metadata>
<g
	inkscape:label="Layer 1"
	inkscape:groupmode="layer"
	id="layer1">
	<path style="fill:none;stroke:red;stroke-width:1px;stroke-linecap:butt;stroke-linejoin:miter;stroke-opacity:1" d="M 4,698.224 4,707.034 z" id="boundary" inkscape:connector-curvature="0" />
	<path style="fill:none;stroke:red;stroke-width:1px;stroke-linecap:butt;stroke-linejoin:miter;stroke-opacity:1" d="M 4,698.224 8.40497,689.414 z" id="boundary" inkscape:connector-curvature="0" />
	<path style="fill:none;stroke:red;stroke-width:1px;stroke-linecap:butt;stroke-linejoin:miter;stroke-opacity:1" d="M 4,707.034 4,715.844 z" id="boundary" inkscape:connector-curvature="0" />
	<path style="fill:none;stroke:red;stroke-width:1px;stroke-linecap:butt;stroke-linejoin:miter;stroke-opacity:1" d="M 4,715.844 4,724.654 z" id="boundary" inkscape:connector-curvature="0" />
	<path style="fill:none;stroke:red;stroke-width:1px;stroke-linecap:butt;stroke-linejoin:miter;stroke-opacity:1" d="M 4,724.654 8.40497,732.583 z" id="boundary" inkscape:connector-curvature="0" />
	<path style="fill:none;stroke:red;stroke-width:1px;stroke-linecap:butt;stroke-linejoin:miter;stroke-opacity:1" d="M 8.40497,689.414 15.4529,682.366 z" id="boundary" inkscape:connector-curvature="0" />
	<path style="fill:none;stroke:red;stroke-width:1px;stroke-linecap:butt;stroke-linejoin:miter;stroke-opacity:1" d="M 8.40497,732.583 14.5719,739.631 z" id="boundary" inkscape:connector-curvature="0" />
	<path style="fill:none;stroke:red;stroke-width:1px;stroke-linecap:butt;stroke-linejoin:miter;stroke-opacity:1" d="M 14.5719,739.631 21.6199,744.917 z" id="boundary" inkscape:connector-curvature="0" />
	<path style="fill:none;stroke:red;stroke-width:1px;stroke-linecap:butt;stroke-linejoin:miter;stroke-opacity:1" d="M 15.4529,682.366 22.5009,675.318 z" id="boundary" inkscape:connector-curvature="0" />
	<path style="fill:none;stroke:red;stroke-width:1px;stroke-linecap:butt;stroke-linejoin:miter;stroke-opacity:1" d="M 21.6199,744.917 26.9059,751.964 z" id="boundary" inkscape:connector-curvature="0" />
	<path style="fill:none;stroke:red;stroke-width:1px;stroke-linecap:butt;stroke-linejoin:miter;stroke-opacity:1" d="M 22.5009,675.318 29.5488,669.151 z" id="boundary" inkscape:connector-curvature="0" />
	<path style="fill:none;stroke:red;stroke-width:1px;stroke-linecap:butt;stroke-linejoin:miter;stroke-opacity:1" d="M 26.9059,751.964 33.9538,758.131 z" id="boundary" inkscape:connector-curvature="0" />
	<path style="fill:none;stroke:red;stroke-width:1px;stroke-linecap:butt;stroke-linejoin:miter;stroke-opacity:1" d="M 29.5488,669.151 35.7158,662.103 z" id="boundary" inkscape:connector-curvature="0" />
	<path style="fill:none;stroke:red;stroke-width:1px;stroke-linecap:butt;stroke-linejoin:miter;stroke-opacity:1" d="M 33.9538,758.131 41.8828,762.536 z" id="boundary" inkscape:connector-curvature="0" />
	<path style="fill:none;stroke:red;stroke-width:1px;stroke-linecap:butt;stroke-linejoin:miter;stroke-opacity:1" d="M 35.7158,662.103 44.5258,657.698 z" id="boundary" inkscape:connector-curvature="0" />
	<path style="fill:none;stroke:red;stroke-width:1px;stroke-linecap:butt;stroke-linejoin:miter;stroke-opacity:1" d="M 41.8828,762.536 49.8117,766.941 z" id="boundary" inkscape:connector-curvature="0" />
	<path style="fill:none;stroke:red;stroke-width:1px;stroke-linecap:butt;stroke-linejoin:miter;stroke-opacity:1" d="M 44.5258,657.698 51.5737,651.531 z" id="boundary" inkscape:connector-curvature="0" />
	<path style="fill:none;stroke:red;stroke-width:1px;stroke-linecap:butt;stroke-linejoin:miter;stroke-opacity:1" d="M 49.8117,766.941 58.6217,766.941 z" id="boundary" inkscape:connector-curvature="0" />
	<path style="fill:none;stroke:red;stroke-width:1px;stroke-linecap:butt;stroke-linejoin:miter;stroke-opacity:1" d="M 51.5737,651.531 59.5027,647.126 z" id="boundary" inkscape:connector-curvature="0" />
	<path style="fill:none;stroke:red;stroke-width:1px;stroke-linecap:butt;stroke-linejoin:miter;stroke-opacity:1" d="M 58.6217,766.941 66.5506,771.346 z" id="boundary" inkscape:connector-curvature="0" />
	<path style="fill:none;stroke:red;stroke-width:1px;stroke-linecap:butt;stroke-linejoin:miter;stroke-opacity:1" d="M 59.5027,647.126 67.4316,642.721 z" id="boundary" inkscape:connector-curvature="0" />
	<path style="fill:none;stroke:red;stroke-width:1px;stroke-linecap:butt;stroke-linejoin:miter;stroke-opacity:1" d="M 66.5506,771.346 75.3606,771.346 z" id="boundary" inkscape:connector-curvature="0" />
	<path style="fill:none;stroke:red;stroke-width:1px;stroke-linecap:butt;stroke-linejoin:miter;stroke-opacity:1" d="M 67.4316,642.721 75.3606,638.316 z" id="boundary" inkscape:connector-curvature="0" />
	<path style="fill:none;stroke:red;stroke-width:1px;stroke-linecap:butt;stroke-linejoin:miter;stroke-opacity:1" d="M 75.3606,638.316 83.2895,633.911 z" id="boundary" inkscape:connector-curvature="0" />
	<path style="fill:none;stroke:red;stroke-width:1px;stroke-linecap:butt;stroke-linejoin:miter;stroke-opacity:1" d="M 75.3606,771.346 84.1705,771.346 z" id="boundary" inkscape:connector-curvature="0" />
	<path style="fill:none;stroke:red;stroke-width:1px;stroke-linecap:butt;stroke-linejoin:miter;stroke-opacity:1" d="M 83.2895,633.911 91.2185,629.506 z" id="boundary" inkscape:connector-curvature="0" />
	<path style="fill:none;stroke:red;stroke-width:1px;stroke-linecap:butt;stroke-linejoin:miter;stroke-opacity:1" d="M 84.1705,771.346 92.9805,766.941 z" id="boundary" inkscape:connector-curvature="0" />
	<path style="fill:none;stroke:red;stroke-width:1px;stroke-linecap:butt;stroke-linejoin:miter;stroke-opacity:1" d="M 91.2185,629.506 99.1474,625.101 z" id="boundary" inkscape:connector-curvature="0" />
	<path style="fill:none;stroke:red;stroke-width:1px;stroke-linecap:butt;stroke-linejoin:miter;stroke-opacity:1" d="M 92.9805,766.941 101.79,766.941 z" id="boundary" inkscape:connector-curvature="0" />
	<path style="fill:none;stroke:red;stroke-width:1px;stroke-linecap:butt;stroke-linejoin:miter;stroke-opacity:1" d="M 99.1474,625.101 107.957,620.696 z" id="boundary" inkscape:connector-curvature="0" />
	<path style="fill:none;stroke:red;stroke-width:1px;stroke-linecap:butt;stroke-linejoin:miter;stroke-opacity:1" d="M 101.79,766.941 110.6,762.536 z" id="boundary" inkscape:connector-curvature="0" />
	<path style="fill:none;stroke:red;stroke-width:1px;stroke-linecap:butt;stroke-linejoin:miter;stroke-opacity:1" d="M 107.957,620.696 116.767,616.291 z" id="boundary" inkscape:connector-curvature="0" />
	<path style="fill:none;stroke:red;stroke-width:1px;stroke-linecap:butt;stroke-linejoin:miter;stroke-opacity:1" d="M 110.6,762.536 119.41,758.131 z" id="boundary" inkscape:connector-curvature="0" />
	<path style="fill:none;stroke:red;stroke-width:1px;stroke-linecap:butt;stroke-linejoin:miter;stroke-opacity:1" d="M 116.767,616.291 123.815,609.243 z" id="boundary" inkscape:connector-curvature="0" />
	<path style="fill:none;stroke:red;stroke-width:1px;stroke-linecap:butt;stroke-linejoin:miter;stroke-opacity:1" d="M 119.41,758.131 128.22,753.726 z" id="boundary" inkscape:connector-curvature="0" />
	<path style="fill:none;stroke:red;stroke-width:1px;stroke-linecap:butt;stroke-linejoin:miter;stroke-opacity:1" d="M 123.815,609.243 132.625,604.838 z" id="boundary" inkscape:connector-curvature="0" />
	<path style="fill:none;stroke:red;stroke-width:1px;stroke-linecap:butt;stroke-linejoin:miter;stroke-opacity:1" d="M 128.22,753.726 137.03,749.321 z" id="boundary" inkscape:connector-curvature="0" />
	<path style="fill:none;stroke:red;stroke-width:1px;stroke-linecap:butt;stroke-linejoin:miter;stroke-opacity:1" d="M 132.625,604.838 139.673,598.671 z" id="boundary" inkscape:connector-curvature="0" />
	<path style="fill:none;stroke:red;stroke-width:1px;stroke-linecap:butt;stroke-linejoin:miter;stroke-opacity:1" d="M 137.03,749.321 145.84,744.917 z" id="boundary" inkscape:connector-curvature="0" />
	<path style="fill:none;stroke:red;stroke-width:1px;stroke-linecap:butt;stroke-linejoin:miter;stroke-opacity:1" d="M 139.673,598.671 147.602,594.266 z" id="boundary" inkscape:connector-curvature="0" />
	<path style="fill:none;stroke:red;stroke-width:1px;stroke-linecap:butt;stroke-linejoin:miter;stroke-opacity:1" d="M 145.84,744.917 154.65,740.512 z" id="boundary" inkscape:connector-curvature="0" />
	<path style="fill:none;stroke:red;stroke-width:1px;stroke-linecap:butt;stroke-linejoin:miter;stroke-opacity:1" d="M 147.602,594.266 155.531,589.861 z" id="boundary" inkscape:connector-curvature="0" />
	<path style="fill:none;stroke:red;stroke-width:1px;stroke-linecap:butt;stroke-linejoin:miter;stroke-opacity:1" d="M 154.65,740.512 163.46,736.107 z" id="boundary" inkscape:connector-curvature="0" />
	<path style="fill:none;stroke:red;stroke-width:1px;stroke-linecap:butt;stroke-linejoin:miter;stroke-opacity:1" d="M 155.531,589.861 162.579,583.694 z" id="boundary" inkscape:connector-curvature="0" />
	<path style="fill:none;stroke:red;stroke-width:1px;stroke-linecap:butt;stroke-linejoin:miter;stroke-opacity:1" d="M 162.579,583.694 169.627,576.647 z" id="boundary" inkscape:connector-curvature="0" />
	<path style="fill:none;stroke:red;stroke-width:1px;stroke-linecap:butt;stroke-linejoin:miter;stroke-opacity:1" d="M 163.46,736.107 172.27,731.702 z" id="boundary" inkscape:connector-curvature="0" />
	<path style="fill:none;stroke:red;stroke-width:1px;stroke-linecap:butt;stroke-linejoin:miter;stroke-opacity:1" d="M 169.627,576.647 177.556,572.242 z" id="boundary" inkscape:connector-curvature="0" />
	<path style="fill:none;stroke:red;stroke-width:1px;stroke-linecap:butt;stroke-linejoin:miter;stroke-opacity:1" d="M 172.27,731.702 179.318,725.535 z" id="boundary" inkscape:connector-curvature="0" />
	<path style="fill:none;stroke:red;stroke-width:1px;stroke-linecap:butt;stroke-linejoin:miter;stroke-opacity:1" d="M 177.556,572.242 185.485,567.837 z" id="boundary" inkscape:connector-curvature="0" />
	<path style="fill:none;stroke:red;stroke-width:1px;stroke-linecap:butt;stroke-linejoin:miter;stroke-opacity:1" d="M 179.318,725.535 188.128,721.13 z" id="boundary" inkscape:connector-curvature="0" />
	<path style="fill:none;stroke:red;stroke-width:1px;stroke-linecap:butt;stroke-linejoin:miter;stroke-opacity:1" d="M 185.485,567.837 193.414,563.432 z" id="boundary" inkscape:connector-curvature="0" />
	<path style="fill:none;stroke:red;stroke-width:1px;stroke-linecap:butt;stroke-linejoin:miter;stroke-opacity:1" d="M 188.128,721.13 196.938,716.725 z" id="boundary" inkscape:connector-curvature="0" />
	<path style="fill:none;stroke:red;stroke-width:1px;stroke-linecap:butt;stroke-linejoin:miter;stroke-opacity:1" d="M 193.414,563.432 201.343,559.027 z" id="boundary" inkscape:connector-curvature="0" />
	<path style="fill:none;stroke:red;stroke-width:1px;stroke-linecap:butt;stroke-linejoin:miter;stroke-opacity:1" d="M 196.938,716.725 205.748,712.32 z" id="boundary" inkscape:connector-curvature="0" />
	<path style="fill:none;stroke:red;stroke-width:1px;stroke-linecap:butt;stroke-linejoin:miter;stroke-opacity:1" d="M 201.343,559.027 207.51,551.979 z" id="boundary" inkscape:connector-curvature="0" />
	<path style="fill:none;stroke:red;stroke-width:1px;stroke-linecap:butt;stroke-linejoin:miter;stroke-opacity:1" d="M 205.748,712.32 211.915,705.272 z" id="boundary" inkscape:connector-curvature="0" />
	<path style="fill:none;stroke:red;stroke-width:1px;stroke-linecap:butt;stroke-linejoin:miter;stroke-opacity:1" d="M 207.51,551.979 216.32,547.574 z" id="boundary" inkscape:connector-curvature="0" />
	<path style="fill:none;stroke:red;stroke-width:1px;stroke-linecap:butt;stroke-linejoin:miter;stroke-opacity:1" d="M 211.915,705.272 218.963,699.105 z" id="boundary" inkscape:connector-curvature="0" />
	<path style="fill:none;stroke:red;stroke-width:1px;stroke-linecap:butt;stroke-linejoin:miter;stroke-opacity:1" d="M 216.32,547.574 225.13,543.169 z" id="boundary" inkscape:connector-curvature="0" />
	<path style="fill:none;stroke:red;stroke-width:1px;stroke-linecap:butt;stroke-linejoin:miter;stroke-opacity:1" d="M 218.963,699.105 225.13,692.057 z" id="boundary" inkscape:connector-curvature="0" />
	<path style="fill:none;stroke:red;stroke-width:1px;stroke-linecap:butt;stroke-linejoin:miter;stroke-opacity:1" d="M 225.13,543.169 233.94,538.764 z" id="boundary" inkscape:connector-curvature="0" />
	<path style="fill:none;stroke:red;stroke-width:1px;stroke-linecap:butt;stroke-linejoin:miter;stroke-opacity:1" d="M 225.13,692.057 233.059,687.652 z" id="boundary" inkscape:connector-curvature="0" />
	<path style="fill:none;stroke:red;stroke-width:1px;stroke-linecap:butt;stroke-linejoin:miter;stroke-opacity:1" d="M 233.059,687.652 240.988,683.247 z" id="boundary" inkscape:connector-curvature="0" />
	<path style="fill:none;stroke:red;stroke-width:1px;stroke-linecap:butt;stroke-linejoin:miter;stroke-opacity:1" d="M 233.94,538.764 240.988,532.597 z" id="boundary" inkscape:connector-curvature="0" />
	<path style="fill:none;stroke:red;stroke-width:1px;stroke-linecap:butt;stroke-linejoin:miter;stroke-opacity:1" d="M 240.988,532.597 248.917,528.192 z" id="boundary" inkscape:connector-curvature="0" />
	<path style="fill:none;stroke:red;stroke-width:1px;stroke-linecap:butt;stroke-linejoin:miter;stroke-opacity:1" d="M 240.988,683.247 248.917,678.842 z" id="boundary" inkscape:connector-curvature="0" />
	<path style="fill:none;stroke:red;stroke-width:1px;stroke-linecap:butt;stroke-linejoin:miter;stroke-opacity:1" d="M 248.917,528.192 255.964,521.144 z" id="boundary" inkscape:connector-curvature="0" />
	<path style="fill:none;stroke:red;stroke-width:1px;stroke-linecap:butt;stroke-linejoin:miter;stroke-opacity:1" d="M 248.917,678.842 256.845,674.437 z" id="boundary" inkscape:connector-curvature="0" />
	<path style="fill:none;stroke:red;stroke-width:1px;stroke-linecap:butt;stroke-linejoin:miter;stroke-opacity:1" d="M 255.964,521.144 263.012,514.977 z" id="boundary" inkscape:connector-curvature="0" />
	<path style="fill:none;stroke:red;stroke-width:1px;stroke-linecap:butt;stroke-linejoin:miter;stroke-opacity:1" d="M 256.845,674.437 263.893,667.389 z" id="boundary" inkscape:connector-curvature="0" />
	<path style="fill:none;stroke:red;stroke-width:1px;stroke-linecap:butt;stroke-linejoin:miter;stroke-opacity:1" d="M 263.012,514.977 270.941,510.572 z" id="boundary" inkscape:connector-curvature="0" />
	<path style="fill:none;stroke:red;stroke-width:1px;stroke-linecap:butt;stroke-linejoin:miter;stroke-opacity:1" d="M 263.893,667.389 272.703,662.984 z" id="boundary" inkscape:connector-curvature="0" />
	<path style="fill:none;stroke:red;stroke-width:1px;stroke-linecap:butt;stroke-linejoin:miter;stroke-opacity:1" d="M 270.941,510.572 279.751,506.167 z" id="boundary" inkscape:connector-curvature="0" />
	<path style="fill:none;stroke:red;stroke-width:1px;stroke-linecap:butt;stroke-linejoin:miter;stroke-opacity:1" d="M 272.703,662.984 279.751,655.936 z" id="boundary" inkscape:connector-curvature="0" />
	<path style="fill:none;stroke:red;stroke-width:1px;stroke-linecap:butt;stroke-linejoin:miter;stroke-opacity:1" d="M 279.751,506.167 288.561,501.762 z" id="boundary" inkscape:connector-curvature="0" />
	<path style="fill:none;stroke:red;stroke-width:1px;stroke-linecap:butt;stroke-linejoin:miter;stroke-opacity:1" d="M 279.751,655.936 286.799,648.007 z" id="boundary" inkscape:connector-curvature="0" />
	<path style="fill:none;stroke:red;stroke-width:1px;stroke-linecap:butt;stroke-linejoin:miter;stroke-opacity:1" d="M 286.799,648.007 295.609,643.602 z" id="boundary" inkscape:connector-curvature="0" />
	<path style="fill:none;stroke:red;stroke-width:1px;stroke-linecap:butt;stroke-linejoin:miter;stroke-opacity:1" d="M 288.561,501.762 295.609,494.714 z" id="boundary" inkscape:connector-curvature="0" />
	<path style="fill:none;stroke:red;stroke-width:1px;stroke-linecap:butt;stroke-linejoin:miter;stroke-opacity:1" d="M 295.609,494.714 304.419,490.309 z" id="boundary" inkscape:connector-curvature="0" />
	<path style="fill:none;stroke:red;stroke-width:1px;stroke-linecap:butt;stroke-linejoin:miter;stroke-opacity:1" d="M 295.609,643.602 304.419,639.197 z" id="boundary" inkscape:connector-curvature="0" />
	<path style="fill:none;stroke:red;stroke-width:1px;stroke-linecap:butt;stroke-linejoin:miter;stroke-opacity:1" d="M 304.419,490.309 311.467,484.142 z" id="boundary" inkscape:connector-curvature="0" />
	<path style="fill:none;stroke:red;stroke-width:1px;stroke-linecap:butt;stroke-linejoin:miter;stroke-opacity:1" d="M 304.419,639.197 311.467,633.03 z" id="boundary" inkscape:connector-curvature="0" />
	<path style="fill:none;stroke:red;stroke-width:1px;stroke-linecap:butt;stroke-linejoin:miter;stroke-opacity:1" d="M 311.467,484.142 317.634,477.094 z" id="boundary" inkscape:connector-curvature="0" />
	<path style="fill:none;stroke:red;stroke-width:1px;stroke-linecap:butt;stroke-linejoin:miter;stroke-opacity:1" d="M 311.467,633.03 317.634,625.982 z" id="boundary" inkscape:connector-curvature="0" />
	<path style="fill:none;stroke:red;stroke-width:1px;stroke-linecap:butt;stroke-linejoin:miter;stroke-opacity:1" d="M 317.634,477.094 324.682,470.927 z" id="boundary" inkscape:connector-curvature="0" />
	<path style="fill:none;stroke:red;stroke-width:1px;stroke-linecap:butt;stroke-linejoin:miter;stroke-opacity:1" d="M 317.634,625.982 324.682,619.815 z" id="boundary" inkscape:connector-curvature="0" />
	<path style="fill:none;stroke:red;stroke-width:1px;stroke-linecap:butt;stroke-linejoin:miter;stroke-opacity:1" d="M 324.682,470.927 332.611,466.522 z" id="boundary" inkscape:connector-curvature="0" />
	<path style="fill:none;stroke:red;stroke-width:1px;stroke-linecap:butt;stroke-linejoin:miter;stroke-opacity:1" d="M 324.682,619.815 333.492,615.41 z" id="boundary" inkscape:connector-curvature="0" />
	<path style="fill:none;stroke:red;stroke-width:1px;stroke-linecap:butt;stroke-linejoin:miter;stroke-opacity:1" d="M 332.611,466.522 340.54,462.117 z" id="boundary" inkscape:connector-curvature="0" />
	<path style="fill:none;stroke:red;stroke-width:1px;stroke-linecap:butt;stroke-linejoin:miter;stroke-opacity:1" d="M 333.492,615.41 339.659,608.362 z" id="boundary" inkscape:connector-curvature="0" />
	<path style="fill:none;stroke:red;stroke-width:1px;stroke-linecap:butt;stroke-linejoin:miter;stroke-opacity:1" d="M 339.659,608.362 346.707,602.195 z" id="boundary" inkscape:connector-curvature="0" />
	<path style="fill:none;stroke:red;stroke-width:1px;stroke-linecap:butt;stroke-linejoin:miter;stroke-opacity:1" d="M 340.54,462.117 347.588,455.95 z" id="boundary" inkscape:connector-curvature="0" />
	<path style="fill:none;stroke:red;stroke-width:1px;stroke-linecap:butt;stroke-linejoin:miter;stroke-opacity:1" d="M 346.707,602.195 352.874,595.147 z" id="boundary" inkscape:connector-curvature="0" />
	<path style="fill:none;stroke:red;stroke-width:1px;stroke-linecap:butt;stroke-linejoin:miter;stroke-opacity:1" d="M 347.588,455.95 354.636,448.902 z" id="boundary" inkscape:connector-curvature="0" />
	<path style="fill:none;stroke:red;stroke-width:1px;stroke-linecap:butt;stroke-linejoin:miter;stroke-opacity:1" d="M 352.874,595.147 360.803,590.742 z" id="boundary" inkscape:connector-curvature="0" />
	<path style="fill:none;stroke:red;stroke-width:1px;stroke-linecap:butt;stroke-linejoin:miter;stroke-opacity:1" d="M 354.636,448.902 362.565,444.497 z" id="boundary" inkscape:connector-curvature="0" />
	<path style="fill:none;stroke:red;stroke-width:1px;stroke-linecap:butt;stroke-linejoin:miter;stroke-opacity:1" d="M 360.803,590.742 367.851,585.456 z" id="boundary" inkscape:connector-curvature="0" />
	<path style="fill:none;stroke:red;stroke-width:1px;stroke-linecap:butt;stroke-linejoin:miter;stroke-opacity:1" d="M 362.565,444.497 369.613,438.33 z" id="boundary" inkscape:connector-curvature="0" />
	<path style="fill:none;stroke:red;stroke-width:1px;stroke-linecap:butt;stroke-linejoin:miter;stroke-opacity:1" d="M 367.851,585.456 374.899,577.528 z" id="boundary" inkscape:connector-curvature="0" />
	<path style="fill:none;stroke:red;stroke-width:1px;stroke-linecap:butt;stroke-linejoin:miter;stroke-opacity:1" d="M 369.613,438.33 376.661,431.282 z" id="boundary" inkscape:connector-curvature="0" />
	<path style="fill:none;stroke:red;stroke-width:1px;stroke-linecap:butt;stroke-linejoin:miter;stroke-opacity:1" d="M 374.899,577.528 381.947,571.361 z" id="boundary" inkscape:connector-curvature="0" />
	<path style="fill:none;stroke:red;stroke-width:1px;stroke-linecap:butt;stroke-linejoin:miter;stroke-opacity:1" d="M 376.661,431.282 385.471,426.877 z" id="boundary" inkscape:connector-curvature="0" />
	<path style="fill:none;stroke:red;stroke-width:1px;stroke-linecap:butt;stroke-linejoin:miter;stroke-opacity:1" d="M 381.947,571.361 388.114,564.313 z" id="boundary" inkscape:connector-curvature="0" />
	<path style="fill:none;stroke:red;stroke-width:1px;stroke-linecap:butt;stroke-linejoin:miter;stroke-opacity:1" d="M 385.471,426.877 392.519,419.829 z" id="boundary" inkscape:connector-curvature="0" />
	<path style="fill:none;stroke:red;stroke-width:1px;stroke-linecap:butt;stroke-linejoin:miter;stroke-opacity:1" d="M 388.114,564.313 396.924,559.908 z" id="boundary" inkscape:connector-curvature="0" />
	<path style="fill:none;stroke:red;stroke-width:1px;stroke-linecap:butt;stroke-linejoin:miter;stroke-opacity:1" d="M 392.519,419.829 401.329,415.425 z" id="boundary" inkscape:connector-curvature="0" />
	<path style="fill:none;stroke:red;stroke-width:1px;stroke-linecap:butt;stroke-linejoin:miter;stroke-opacity:1" d="M 396.924,559.908 403.972,553.741 z" id="boundary" inkscape:connector-curvature="0" />
	<path style="fill:none;stroke:red;stroke-width:1px;stroke-linecap:butt;stroke-linejoin:miter;stroke-opacity:1" d="M 401.329,415.425 408.377,409.258 z" id="boundary" inkscape:connector-curvature="0" />
	<path style="fill:none;stroke:red;stroke-width:1px;stroke-linecap:butt;stroke-linejoin:miter;stroke-opacity:1" d="M 403.972,553.741 412.782,549.336 z" id="boundary" inkscape:connector-curvature="0" />
	<path style="fill:none;stroke:red;stroke-width:1px;stroke-linecap:butt;stroke-linejoin:miter;stroke-opacity:1" d="M 408.377,409.258 416.306,404.853 z" id="boundary" inkscape:connector-curvature="0" />
	<path style="fill:none;stroke:red;stroke-width:1px;stroke-linecap:butt;stroke-linejoin:miter;stroke-opacity:1" d="M 412.782,549.336 418.948,542.288 z" id="boundary" inkscape:connector-curvature="0" />
	<path style="fill:none;stroke:red;stroke-width:1px;stroke-linecap:butt;stroke-linejoin:miter;stroke-opacity:1" d="M 416.306,404.853 424.234,400.448 z" id="boundary" inkscape:connector-curvature="0" />
	<path style="fill:none;stroke:red;stroke-width:1px;stroke-linecap:butt;stroke-linejoin:miter;stroke-opacity:1" d="M 418.948,542.288 426.877,537.883 z" id="boundary" inkscape:connector-curvature="0" />
	<path style="fill:none;stroke:red;stroke-width:1px;stroke-linecap:butt;stroke-linejoin:miter;stroke-opacity:1" d="M 424.234,400.448 432.163,396.043 z" id="boundary" inkscape:connector-curvature="0" />
	<path style="fill:none;stroke:red;stroke-width:1px;stroke-linecap:butt;stroke-linejoin:miter;stroke-opacity:1" d="M 426.877,537.883 434.806,533.478 z" id="boundary" inkscape:connector-curvature="0" />
	<path style="fill:none;stroke:red;stroke-width:1px;stroke-linecap:butt;stroke-linejoin:miter;stroke-opacity:1" d="M 432.163,396.043 440.092,391.638 z" id="boundary" inkscape:connector-curvature="0" />
	<path style="fill:none;stroke:red;stroke-width:1px;stroke-linecap:butt;stroke-linejoin:miter;stroke-opacity:1" d="M 434.806,533.478 442.735,529.073 z" id="boundary" inkscape:connector-curvature="0" />
	<path style="fill:none;stroke:red;stroke-width:1px;stroke-linecap:butt;stroke-linejoin:miter;stroke-opacity:1" d="M 440.092,391.638 448.021,387.233 z" id="boundary" inkscape:connector-curvature="0" />
	<path style="fill:none;stroke:red;stroke-width:1px;stroke-linecap:butt;stroke-linejoin:miter;stroke-opacity:1" d="M 442.735,529.073 450.664,524.668 z" id="boundary" inkscape:connector-curvature="0" />
	<path style="fill:none;stroke:red;stroke-width:1px;stroke-linecap:butt;stroke-linejoin:miter;stroke-opacity:1" d="M 448.021,387.233 455.95,382.828 z" id="boundary" inkscape:connector-curvature="0" />
	<path style="fill:none;stroke:red;stroke-width:1px;stroke-linecap:butt;stroke-linejoin:miter;stroke-opacity:1" d="M 450.664,524.668 457.712,517.62 z" id="boundary" inkscape:connector-curvature="0" />
	<path style="fill:none;stroke:red;stroke-width:1px;stroke-linecap:butt;stroke-linejoin:miter;stroke-opacity:1" d="M 455.95,382.828 464.76,378.423 z" id="boundary" inkscape:connector-curvature="0" />
	<path style="fill:none;stroke:red;stroke-width:1px;stroke-linecap:butt;stroke-linejoin:miter;stroke-opacity:1" d="M 457.712,517.62 466.522,513.215 z" id="boundary" inkscape:connector-curvature="0" />
	<path style="fill:none;stroke:red;stroke-width:1px;stroke-linecap:butt;stroke-linejoin:miter;stroke-opacity:1" d="M 464.76,378.423 473.57,374.018 z" id="boundary" inkscape:connector-curvature="0" />
	<path style="fill:none;stroke:red;stroke-width:1px;stroke-linecap:butt;stroke-linejoin:miter;stroke-opacity:1" d="M 466.522,513.215 473.57,506.167 z" id="boundary" inkscape:connector-curvature="0" />
	<path style="fill:none;stroke:red;stroke-width:1px;stroke-linecap:butt;stroke-linejoin:miter;stroke-opacity:1" d="M 473.57,374.018 480.618,366.97 z" id="boundary" inkscape:connector-curvature="0" />
	<path style="fill:none;stroke:red;stroke-width:1px;stroke-linecap:butt;stroke-linejoin:miter;stroke-opacity:1" d="M 473.57,506.167 480.618,498.238 z" id="boundary" inkscape:connector-curvature="0" />
	<path style="fill:none;stroke:red;stroke-width:1px;stroke-linecap:butt;stroke-linejoin:miter;stroke-opacity:1" d="M 480.618,366.97 487.666,360.803 z" id="boundary" inkscape:connector-curvature="0" />
	<path style="fill:none;stroke:red;stroke-width:1px;stroke-linecap:butt;stroke-linejoin:miter;stroke-opacity:1" d="M 480.618,498.238 487.666,492.071 z" id="boundary" inkscape:connector-curvature="0" />
	<path style="fill:none;stroke:red;stroke-width:1px;stroke-linecap:butt;stroke-linejoin:miter;stroke-opacity:1" d="M 487.666,360.803 493.833,353.755 z" id="boundary" inkscape:connector-curvature="0" />
	<path style="fill:none;stroke:red;stroke-width:1px;stroke-linecap:butt;stroke-linejoin:miter;stroke-opacity:1" d="M 487.666,492.071 493.833,485.023 z" id="boundary" inkscape:connector-curvature="0" />
	<path style="fill:none;stroke:red;stroke-width:1px;stroke-linecap:butt;stroke-linejoin:miter;stroke-opacity:1" d="M 493.833,353.755 502.643,349.35 z" id="boundary" inkscape:connector-curvature="0" />
	<path style="fill:none;stroke:red;stroke-width:1px;stroke-linecap:butt;stroke-linejoin:miter;stroke-opacity:1" d="M 493.833,485.023 500.881,478.856 z" id="boundary" inkscape:connector-curvature="0" />
	<path style="fill:none;stroke:red;stroke-width:1px;stroke-linecap:butt;stroke-linejoin:miter;stroke-opacity:1" d="M 500.881,478.856 509.691,474.451 z" id="boundary" inkscape:connector-curvature="0" />
	<path style="fill:none;stroke:red;stroke-width:1px;stroke-linecap:butt;stroke-linejoin:miter;stroke-opacity:1" d="M 502.643,349.35 511.453,344.945 z" id="boundary" inkscape:connector-curvature="0" />
	<path style="fill:none;stroke:red;stroke-width:1px;stroke-linecap:butt;stroke-linejoin:miter;stroke-opacity:1" d="M 509.691,474.451 515.858,467.403 z" id="boundary" inkscape:connector-curvature="0" />
	<path style="fill:none;stroke:red;stroke-width:1px;stroke-linecap:butt;stroke-linejoin:miter;stroke-opacity:1" d="M 511.453,344.945 520.263,340.54 z" id="boundary" inkscape:connector-curvature="0" />
	<path style="fill:none;stroke:red;stroke-width:1px;stroke-linecap:butt;stroke-linejoin:miter;stroke-opacity:1" d="M 515.858,467.403 522.906,461.236 z" id="boundary" inkscape:connector-curvature="0" />
	<path style="fill:none;stroke:red;stroke-width:1px;stroke-linecap:butt;stroke-linejoin:miter;stroke-opacity:1" d="M 520.263,340.54 527.311,334.373 z" id="boundary" inkscape:connector-curvature="0" />
	<path style="fill:none;stroke:red;stroke-width:1px;stroke-linecap:butt;stroke-linejoin:miter;stroke-opacity:1" d="M 522.906,461.236 529.073,454.188 z" id="boundary" inkscape:connector-curvature="0" />
	<path style="fill:none;stroke:red;stroke-width:1px;stroke-linecap:butt;stroke-linejoin:miter;stroke-opacity:1" d="M 527.311,334.373 533.478,327.325 z" id="boundary" inkscape:connector-curvature="0" />
	<path style="fill:none;stroke:red;stroke-width:1px;stroke-linecap:butt;stroke-linejoin:miter;stroke-opacity:1" d="M 529.073,454.188 536.121,448.021 z" id="boundary" inkscape:connector-curvature="0" />
	<path style="fill:none;stroke:red;stroke-width:1px;stroke-linecap:butt;stroke-linejoin:miter;stroke-opacity:1" d="M 533.478,327.325 540.526,321.158 z" id="boundary" inkscape:connector-curvature="0" />
	<path style="fill:none;stroke:red;stroke-width:1px;stroke-linecap:butt;stroke-linejoin:miter;stroke-opacity:1" d="M 536.121,448.021 542.288,440.973 z" id="boundary" inkscape:connector-curvature="0" />
	<path style="fill:none;stroke:red;stroke-width:1px;stroke-linecap:butt;stroke-linejoin:miter;stroke-opacity:1" d="M 540.526,321.158 546.693,314.11 z" id="boundary" inkscape:connector-curvature="0" />
	<path style="fill:none;stroke:red;stroke-width:1px;stroke-linecap:butt;stroke-linejoin:miter;stroke-opacity:1" d="M 542.288,440.973 549.336,434.806 z" id="boundary" inkscape:connector-curvature="0" />
	<path style="fill:none;stroke:red;stroke-width:1px;stroke-linecap:butt;stroke-linejoin:miter;stroke-opacity:1" d="M 546.693,314.11 553.741,307.943 z" id="boundary" inkscape:connector-curvature="0" />
	<path style="fill:none;stroke:red;stroke-width:1px;stroke-linecap:butt;stroke-linejoin:miter;stroke-opacity:1" d="M 549.336,434.806 555.503,427.758 z" id="boundary" inkscape:connector-curvature="0" />
	<path style="fill:none;stroke:red;stroke-width:1px;stroke-linecap:butt;stroke-linejoin:miter;stroke-opacity:1" d="M 550.217,231.297 550.217,240.107 z" id="boundary" inkscape:connector-curvature="0" />
	<path style="fill:none;stroke:red;stroke-width:1px;stroke-linecap:butt;stroke-linejoin:miter;stroke-opacity:1" d="M 550.217,231.297 554.622,218.082 z" id="boundary" inkscape:connector-curvature="0" />
	<path style="fill:none;stroke:red;stroke-width:1px;stroke-linecap:butt;stroke-linejoin:miter;stroke-opacity:1" d="M 550.217,240.107 550.217,248.917 z" id="boundary" inkscape:connector-curvature="0" />
	<path style="fill:none;stroke:red;stroke-width:1px;stroke-linecap:butt;stroke-linejoin:miter;stroke-opacity:1" d="M 550.217,248.917 550.217,257.726 z" id="boundary" inkscape:connector-curvature="0" />
	<path style="fill:none;stroke:red;stroke-width:1px;stroke-linecap:butt;stroke-linejoin:miter;stroke-opacity:1" d="M 550.217,257.726 550.217,266.536 z" id="boundary" inkscape:connector-curvature="0" />
	<path style="fill:none;stroke:red;stroke-width:1px;stroke-linecap:butt;stroke-linejoin:miter;stroke-opacity:1" d="M 550.217,266.536 550.217,275.346 z" id="boundary" inkscape:connector-curvature="0" />
	<path style="fill:none;stroke:red;stroke-width:1px;stroke-linecap:butt;stroke-linejoin:miter;stroke-opacity:1" d="M 550.217,275.346 554.622,283.275 z" id="boundary" inkscape:connector-curvature="0" />
	<path style="fill:none;stroke:red;stroke-width:1px;stroke-linecap:butt;stroke-linejoin:miter;stroke-opacity:1" d="M 553.741,307.943 559.027,300.014 z" id="boundary" inkscape:connector-curvature="0" />
	<path style="fill:none;stroke:red;stroke-width:1px;stroke-linecap:butt;stroke-linejoin:miter;stroke-opacity:1" d="M 554.622,209.272 554.622,218.082 z" id="boundary" inkscape:connector-curvature="0" />
	<path style="fill:none;stroke:red;stroke-width:1px;stroke-linecap:butt;stroke-linejoin:miter;stroke-opacity:1" d="M 554.622,209.272 559.027,200.462 z" id="boundary" inkscape:connector-curvature="0" />
	<path style="fill:none;stroke:red;stroke-width:1px;stroke-linecap:butt;stroke-linejoin:miter;stroke-opacity:1" d="M 554.622,283.275 554.622,292.085 z" id="boundary" inkscape:connector-curvature="0" />
	<path style="fill:none;stroke:red;stroke-width:1px;stroke-linecap:butt;stroke-linejoin:miter;stroke-opacity:1" d="M 554.622,292.085 559.027,300.014 z" id="boundary" inkscape:connector-curvature="0" />
	<path style="fill:none;stroke:red;stroke-width:1px;stroke-linecap:butt;stroke-linejoin:miter;stroke-opacity:1" d="M 555.503,427.758 562.551,421.591 z" id="boundary" inkscape:connector-curvature="0" />
	<path style="fill:none;stroke:red;stroke-width:1px;stroke-linecap:butt;stroke-linejoin:miter;stroke-opacity:1" d="M 559.027,191.652 559.027,200.462 z" id="boundary" inkscape:connector-curvature="0" />
	<path style="fill:none;stroke:red;stroke-width:1px;stroke-linecap:butt;stroke-linejoin:miter;stroke-opacity:1" d="M 559.027,191.652 563.432,182.842 z" id="boundary" inkscape:connector-curvature="0" />
	<path style="fill:none;stroke:red;stroke-width:1px;stroke-linecap:butt;stroke-linejoin:miter;stroke-opacity:1" d="M 562.551,421.591 571.361,417.187 z" id="boundary" inkscape:connector-curvature="0" />
	<path style="fill:none;stroke:red;stroke-width:1px;stroke-linecap:butt;stroke-linejoin:miter;stroke-opacity:1" d="M 563.432,182.842 567.837,174.032 z" id="boundary" inkscape:connector-curvature="0" />
	<path style="fill:none;stroke:red;stroke-width:1px;stroke-linecap:butt;stroke-linejoin:miter;stroke-opacity:1" d="M 567.837,174.032 572.242,165.222 z" id="boundary" inkscape:connector-curvature="0" />
	<path style="fill:none;stroke:red;stroke-width:1px;stroke-linecap:butt;stroke-linejoin:miter;stroke-opacity:1" d="M 571.361,417.187 577.528,410.139 z" id="boundary" inkscape:connector-curvature="0" />
	<path style="fill:none;stroke:red;stroke-width:1px;stroke-linecap:butt;stroke-linejoin:miter;stroke-opacity:1" d="M 572.242,165.222 579.29,158.174 z" id="boundary" inkscape:connector-curvature="0" />
	<path style="fill:none;stroke:red;stroke-width:1px;stroke-linecap:butt;stroke-linejoin:miter;stroke-opacity:1" d="M 577.528,410.139 584.575,403.972 z" id="boundary" inkscape:connector-curvature="0" />
	<path style="fill:none;stroke:red;stroke-width:1px;stroke-linecap:butt;stroke-linejoin:miter;stroke-opacity:1" d="M 579.29,158.174 585.456,147.602 z" id="boundary" inkscape:connector-curvature="0" />
	<path style="fill:none;stroke:red;stroke-width:1px;stroke-linecap:butt;stroke-linejoin:miter;stroke-opacity:1" d="M 584.575,403.972 588.98,395.162 z" id="boundary" inkscape:connector-curvature="0" />
	<path style="fill:none;stroke:red;stroke-width:1px;stroke-linecap:butt;stroke-linejoin:miter;stroke-opacity:1" d="M 585.456,147.602 592.504,140.554 z" id="boundary" inkscape:connector-curvature="0" />
	<path style="fill:none;stroke:red;stroke-width:1px;stroke-linecap:butt;stroke-linejoin:miter;stroke-opacity:1" d="M 588.98,395.162 593.385,386.352 z" id="boundary" inkscape:connector-curvature="0" />
	<path style="fill:none;stroke:red;stroke-width:1px;stroke-linecap:butt;stroke-linejoin:miter;stroke-opacity:1" d="M 592.504,140.554 598.671,129.982 z" id="boundary" inkscape:connector-curvature="0" />
	<path style="fill:none;stroke:red;stroke-width:1px;stroke-linecap:butt;stroke-linejoin:miter;stroke-opacity:1" d="M 593.385,386.352 599.552,379.304 z" id="boundary" inkscape:connector-curvature="0" />
	<path style="fill:none;stroke:red;stroke-width:1px;stroke-linecap:butt;stroke-linejoin:miter;stroke-opacity:1" d="M 598.671,129.982 605.719,122.934 z" id="boundary" inkscape:connector-curvature="0" />
	<path style="fill:none;stroke:red;stroke-width:1px;stroke-linecap:butt;stroke-linejoin:miter;stroke-opacity:1" d="M 599.552,379.304 608.362,374.899 z" id="boundary" inkscape:connector-curvature="0" />
	<path style="fill:none;stroke:red;stroke-width:1px;stroke-linecap:butt;stroke-linejoin:miter;stroke-opacity:1" d="M 605.719,122.934 612.767,115.886 z" id="boundary" inkscape:connector-curvature="0" />
	<path style="fill:none;stroke:red;stroke-width:1px;stroke-linecap:butt;stroke-linejoin:miter;stroke-opacity:1" d="M 608.362,374.899 616.291,379.304 z" id="boundary" inkscape:connector-curvature="0" />
	<path style="fill:none;stroke:red;stroke-width:1px;stroke-linecap:butt;stroke-linejoin:miter;stroke-opacity:1" d="M 612.767,115.886 619.815,109.719 z" id="boundary" inkscape:connector-curvature="0" />
	<path style="fill:none;stroke:red;stroke-width:1px;stroke-linecap:butt;stroke-linejoin:miter;stroke-opacity:1" d="M 616.291,379.304 624.22,383.709 z" id="boundary" inkscape:connector-curvature="0" />
	<path style="fill:none;stroke:red;stroke-width:1px;stroke-linecap:butt;stroke-linejoin:miter;stroke-opacity:1" d="M 619.815,109.719 625.982,102.671 z" id="boundary" inkscape:connector-curvature="0" />
	<path style="fill:none;stroke:red;stroke-width:1px;stroke-linecap:butt;stroke-linejoin:miter;stroke-opacity:1" d="M 624.22,383.709 632.149,388.114 z" id="boundary" inkscape:connector-curvature="0" />
	<path style="fill:none;stroke:red;stroke-width:1px;stroke-linecap:butt;stroke-linejoin:miter;stroke-opacity:1" d="M 625.982,102.671 633.03,96.5044 z" id="boundary" inkscape:connector-curvature="0" />
	<path style="fill:none;stroke:red;stroke-width:1px;stroke-linecap:butt;stroke-linejoin:miter;stroke-opacity:1" d="M 632.149,388.114 640.959,388.114 z" id="boundary" inkscape:connector-curvature="0" />
	<path style="fill:none;stroke:red;stroke-width:1px;stroke-linecap:butt;stroke-linejoin:miter;stroke-opacity:1" d="M 633.03,96.5044 639.197,89.4565 z" id="boundary" inkscape:connector-curvature="0" />
	<path style="fill:none;stroke:red;stroke-width:1px;stroke-linecap:butt;stroke-linejoin:miter;stroke-opacity:1" d="M 639.197,89.4565 648.007,85.0515 z" id="boundary" inkscape:connector-curvature="0" />
	<path style="fill:none;stroke:red;stroke-width:1px;stroke-linecap:butt;stroke-linejoin:miter;stroke-opacity:1" d="M 640.959,388.114 649.769,388.114 z" id="boundary" inkscape:connector-curvature="0" />
	<path style="fill:none;stroke:red;stroke-width:1px;stroke-linecap:butt;stroke-linejoin:miter;stroke-opacity:1" d="M 648.007,85.0515 655.055,78.8845 z" id="boundary" inkscape:connector-curvature="0" />
	<path style="fill:none;stroke:red;stroke-width:1px;stroke-linecap:butt;stroke-linejoin:miter;stroke-opacity:1" d="M 649.769,388.114 658.579,388.114 z" id="boundary" inkscape:connector-curvature="0" />
	<path style="fill:none;stroke:red;stroke-width:1px;stroke-linecap:butt;stroke-linejoin:miter;stroke-opacity:1" d="M 655.055,78.8845 662.984,74.4796 z" id="boundary" inkscape:connector-curvature="0" />
	<path style="fill:none;stroke:red;stroke-width:1px;stroke-linecap:butt;stroke-linejoin:miter;stroke-opacity:1" d="M 658.579,388.114 667.389,388.114 z" id="boundary" inkscape:connector-curvature="0" />
	<path style="fill:none;stroke:red;stroke-width:1px;stroke-linecap:butt;stroke-linejoin:miter;stroke-opacity:1" d="M 662.984,74.4796 670.913,70.0746 z" id="boundary" inkscape:connector-curvature="0" />
	<path style="fill:none;stroke:red;stroke-width:1px;stroke-linecap:butt;stroke-linejoin:miter;stroke-opacity:1" d="M 667.389,388.114 676.199,391.638 z" id="boundary" inkscape:connector-curvature="0" />
	<path style="fill:none;stroke:red;stroke-width:1px;stroke-linecap:butt;stroke-linejoin:miter;stroke-opacity:1" d="M 670.913,70.0746 678.842,65.6696 z" id="boundary" inkscape:connector-curvature="0" />
	<path style="fill:none;stroke:red;stroke-width:1px;stroke-linecap:butt;stroke-linejoin:miter;stroke-opacity:1" d="M 676.199,391.638 685.009,392.519 z" id="boundary" inkscape:connector-curvature="0" />
	<path style="fill:none;stroke:red;stroke-width:1px;stroke-linecap:butt;stroke-linejoin:miter;stroke-opacity:1" d="M 678.842,65.6696 686.771,61.2647 z" id="boundary" inkscape:connector-curvature="0" />
	<path style="fill:none;stroke:red;stroke-width:1px;stroke-linecap:butt;stroke-linejoin:miter;stroke-opacity:1" d="M 685.009,392.519 693.819,392.519 z" id="boundary" inkscape:connector-curvature="0" />
	<path style="fill:none;stroke:red;stroke-width:1px;stroke-linecap:butt;stroke-linejoin:miter;stroke-opacity:1" d="M 686.771,61.2647 694.7,56.8597 z" id="boundary" inkscape:connector-curvature="0" />
	<path style="fill:none;stroke:red;stroke-width:1px;stroke-linecap:butt;stroke-linejoin:miter;stroke-opacity:1" d="M 693.819,392.519 702.629,392.519 z" id="boundary" inkscape:connector-curvature="0" />
	<path style="fill:none;stroke:red;stroke-width:1px;stroke-linecap:butt;stroke-linejoin:miter;stroke-opacity:1" d="M 694.7,56.8597 702.629,52.4547 z" id="boundary" inkscape:connector-curvature="0" />
	<path style="fill:none;stroke:red;stroke-width:1px;stroke-linecap:butt;stroke-linejoin:miter;stroke-opacity:1" d="M 702.629,52.4547 711.439,48.0497 z" id="boundary" inkscape:connector-curvature="0" />
	<path style="fill:none;stroke:red;stroke-width:1px;stroke-linecap:butt;stroke-linejoin:miter;stroke-opacity:1" d="M 702.629,392.519 711.439,392.519 z" id="boundary" inkscape:connector-curvature="0" />
	<path style="fill:none;stroke:red;stroke-width:1px;stroke-linecap:butt;stroke-linejoin:miter;stroke-opacity:1" d="M 711.439,48.0497 720.249,43.6448 z" id="boundary" inkscape:connector-curvature="0" />
	<path style="fill:none;stroke:red;stroke-width:1px;stroke-linecap:butt;stroke-linejoin:miter;stroke-opacity:1" d="M 711.439,392.519 720.249,392.519 z" id="boundary" inkscape:connector-curvature="0" />
	<path style="fill:none;stroke:red;stroke-width:1px;stroke-linecap:butt;stroke-linejoin:miter;stroke-opacity:1" d="M 720.249,43.6448 729.059,39.2398 z" id="boundary" inkscape:connector-curvature="0" />
	<path style="fill:none;stroke:red;stroke-width:1px;stroke-linecap:butt;stroke-linejoin:miter;stroke-opacity:1" d="M 720.249,392.519 729.059,392.519 z" id="boundary" inkscape:connector-curvature="0" />
	<path style="fill:none;stroke:red;stroke-width:1px;stroke-linecap:butt;stroke-linejoin:miter;stroke-opacity:1" d="M 729.059,39.2398 737.869,39.2398 z" id="boundary" inkscape:connector-curvature="0" />
	<path style="fill:none;stroke:red;stroke-width:1px;stroke-linecap:butt;stroke-linejoin:miter;stroke-opacity:1" d="M 729.059,392.519 737.869,392.519 z" id="boundary" inkscape:connector-curvature="0" />
	<path style="fill:none;stroke:red;stroke-width:1px;stroke-linecap:butt;stroke-linejoin:miter;stroke-opacity:1" d="M 737.869,39.2398 746.679,34.8348 z" id="boundary" inkscape:connector-curvature="0" />
	<path style="fill:none;stroke:red;stroke-width:1px;stroke-linecap:butt;stroke-linejoin:miter;stroke-opacity:1" d="M 737.869,392.519 745.798,388.114 z" id="boundary" inkscape:connector-curvature="0" />
	<path style="fill:none;stroke:red;stroke-width:1px;stroke-linecap:butt;stroke-linejoin:miter;stroke-opacity:1" d="M 745.798,388.114 754.607,388.114 z" id="boundary" inkscape:connector-curvature="0" />
	<path style="fill:none;stroke:red;stroke-width:1px;stroke-linecap:butt;stroke-linejoin:miter;stroke-opacity:1" d="M 746.679,34.8348 755.488,30.4298 z" id="boundary" inkscape:connector-curvature="0" />
	<path style="fill:none;stroke:red;stroke-width:1px;stroke-linecap:butt;stroke-linejoin:miter;stroke-opacity:1" d="M 754.607,388.114 763.417,388.114 z" id="boundary" inkscape:connector-curvature="0" />
	<path style="fill:none;stroke:red;stroke-width:1px;stroke-linecap:butt;stroke-linejoin:miter;stroke-opacity:1" d="M 755.488,30.4298 764.298,26.0249 z" id="boundary" inkscape:connector-curvature="0" />
	<path style="fill:none;stroke:red;stroke-width:1px;stroke-linecap:butt;stroke-linejoin:miter;stroke-opacity:1" d="M 763.417,388.114 771.346,383.709 z" id="boundary" inkscape:connector-curvature="0" />
	<path style="fill:none;stroke:red;stroke-width:1px;stroke-linecap:butt;stroke-linejoin:miter;stroke-opacity:1" d="M 764.298,26.0249 773.108,26.0249 z" id="boundary" inkscape:connector-curvature="0" />
	<path style="fill:none;stroke:red;stroke-width:1px;stroke-linecap:butt;stroke-linejoin:miter;stroke-opacity:1" d="M 771.346,383.709 779.275,379.304 z" id="boundary" inkscape:connector-curvature="0" />
	<path style="fill:none;stroke:red;stroke-width:1px;stroke-linecap:butt;stroke-linejoin:miter;stroke-opacity:1" d="M 773.108,26.0249 781.918,21.6199 z" id="boundary" inkscape:connector-curvature="0" />
	<path style="fill:none;stroke:red;stroke-width:1px;stroke-linecap:butt;stroke-linejoin:miter;stroke-opacity:1" d="M 779.275,379.304 787.204,374.899 z" id="boundary" inkscape:connector-curvature="0" />
	<path style="fill:none;stroke:red;stroke-width:1px;stroke-linecap:butt;stroke-linejoin:miter;stroke-opacity:1" d="M 781.918,21.6199 790.728,21.6199 z" id="boundary" inkscape:connector-curvature="0" />
	<path style="fill:none;stroke:red;stroke-width:1px;stroke-linecap:butt;stroke-linejoin:miter;stroke-opacity:1" d="M 787.204,374.899 795.133,370.494 z" id="boundary" inkscape:connector-curvature="0" />
	<path style="fill:none;stroke:red;stroke-width:1px;stroke-linecap:butt;stroke-linejoin:miter;stroke-opacity:1" d="M 790.728,21.6199 798.657,17.2149 z" id="boundary" inkscape:connector-curvature="0" />
	<path style="fill:none;stroke:red;stroke-width:1px;stroke-linecap:butt;stroke-linejoin:miter;stroke-opacity:1" d="M 795.133,370.494 803.062,366.089 z" id="boundary" inkscape:connector-curvature="0" />
	<path style="fill:none;stroke:red;stroke-width:1px;stroke-linecap:butt;stroke-linejoin:miter;stroke-opacity:1" d="M 798.657,17.2149 806.586,12.8099 z" id="boundary" inkscape:connector-curvature="0" />
	<path style="fill:none;stroke:red;stroke-width:1px;stroke-linecap:butt;stroke-linejoin:miter;stroke-opacity:1" d="M 803.062,366.089 810.991,361.684 z" id="boundary" inkscape:connector-curvature="0" />
	<path style="fill:none;stroke:red;stroke-width:1px;stroke-linecap:butt;stroke-linejoin:miter;stroke-opacity:1" d="M 806.586,12.8099 815.396,12.8099 z" id="boundary" inkscape:connector-curvature="0" />
	<path style="fill:none;stroke:red;stroke-width:1px;stroke-linecap:butt;stroke-linejoin:miter;stroke-opacity:1" d="M 810.991,361.684 819.801,357.279 z" id="boundary" inkscape:connector-curvature="0" />
	<path style="fill:none;stroke:red;stroke-width:1px;stroke-linecap:butt;stroke-linejoin:miter;stroke-opacity:1" d="M 815.396,12.8099 823.325,8.40497 z" id="boundary" inkscape:connector-curvature="0" />
	<path style="fill:none;stroke:red;stroke-width:1px;stroke-linecap:butt;stroke-linejoin:miter;stroke-opacity:1" d="M 819.801,357.279 828.611,352.874 z" id="boundary" inkscape:connector-curvature="0" />
	<path style="fill:none;stroke:red;stroke-width:1px;stroke-linecap:butt;stroke-linejoin:miter;stroke-opacity:1" d="M 823.325,8.40497 832.135,8.40497 z" id="boundary" inkscape:connector-curvature="0" />
	<path style="fill:none;stroke:red;stroke-width:1px;stroke-linecap:butt;stroke-linejoin:miter;stroke-opacity:1" d="M 828.611,352.874 835.659,346.707 z" id="boundary" inkscape:connector-curvature="0" />
	<path style="fill:none;stroke:red;stroke-width:1px;stroke-linecap:butt;stroke-linejoin:miter;stroke-opacity:1" d="M 832.135,8.40497 840.945,6.64298 z" id="boundary" inkscape:connector-curvature="0" />
	<path style="fill:none;stroke:red;stroke-width:1px;stroke-linecap:butt;stroke-linejoin:miter;stroke-opacity:1" d="M 835.659,346.707 844.469,342.302 z" id="boundary" inkscape:connector-curvature="0" />
	<path style="fill:none;stroke:red;stroke-width:1px;stroke-linecap:butt;stroke-linejoin:miter;stroke-opacity:1" d="M 840.945,6.64298 849.755,4 z" id="boundary" inkscape:connector-curvature="0" />
	<path style="fill:none;stroke:red;stroke-width:1px;stroke-linecap:butt;stroke-linejoin:miter;stroke-opacity:1" d="M 844.469,342.302 850.636,335.254 z" id="boundary" inkscape:connector-curvature="0" />
	<path style="fill:none;stroke:red;stroke-width:1px;stroke-linecap:butt;stroke-linejoin:miter;stroke-opacity:1" d="M 849.755,4 858.565,4 z" id="boundary" inkscape:connector-curvature="0" />
	<path style="fill:none;stroke:red;stroke-width:1px;stroke-linecap:butt;stroke-linejoin:miter;stroke-opacity:1" d="M 850.636,335.254 858.565,330.849 z" id="boundary" inkscape:connector-curvature="0" />
	<path style="fill:none;stroke:red;stroke-width:1px;stroke-linecap:butt;stroke-linejoin:miter;stroke-opacity:1" d="M 858.565,4 867.375,4 z" id="boundary" inkscape:connector-curvature="0" />
	<path style="fill:none;stroke:red;stroke-width:1px;stroke-linecap:butt;stroke-linejoin:miter;stroke-opacity:1" d="M 858.565,330.849 865.613,325.563 z" id="boundary" inkscape:connector-curvature="0" />
	<path style="fill:none;stroke:red;stroke-width:1px;stroke-linecap:butt;stroke-linejoin:miter;stroke-opacity:1" d="M 865.613,325.563 872.661,317.634 z" id="boundary" inkscape:connector-curvature="0" />
	<path style="fill:none;stroke:red;stroke-width:1px;stroke-linecap:butt;stroke-linejoin:miter;stroke-opacity:1" d="M 867.375,4 876.185,4 z" id="boundary" inkscape:connector-curvature="0" />
	<path style="fill:none;stroke:red;stroke-width:1px;stroke-linecap:butt;stroke-linejoin:miter;stroke-opacity:1" d="M 872.661,317.634 879.709,311.467 z" id="boundary" inkscape:connector-curvature="0" />
	<path style="fill:none;stroke:red;stroke-width:1px;stroke-linecap:butt;stroke-linejoin:miter;stroke-opacity:1" d="M 876.185,4 884.995,4 z" id="boundary" inkscape:connector-curvature="0" />
	<path style="fill:none;stroke:red;stroke-width:1px;stroke-linecap:butt;stroke-linejoin:miter;stroke-opacity:1" d="M 879.709,311.467 885.876,304.419 z" id="boundary" inkscape:connector-curvature="0" />
	<path style="fill:none;stroke:red;stroke-width:1px;stroke-linecap:butt;stroke-linejoin:miter;stroke-opacity:1" d="M 884.995,4 893.805,4 z" id="boundary" inkscape:connector-curvature="0" />
	<path style="fill:none;stroke:red;stroke-width:1px;stroke-linecap:butt;stroke-linejoin:miter;stroke-opacity:1" d="M 885.876,304.419 894.686,300.014 z" id="boundary" inkscape:connector-curvature="0" />
	<path style="fill:none;stroke:red;stroke-width:1px;stroke-linecap:butt;stroke-linejoin:miter;stroke-opacity:1" d="M 893.805,4 902.615,4 z" id="boundary" inkscape:connector-curvature="0" />
	<path style="fill:none;stroke:red;stroke-width:1px;stroke-linecap:butt;stroke-linejoin:miter;stroke-opacity:1" d="M 894.686,300.014 901.734,293.847 z" id="boundary" inkscape:connector-curvature="0" />
	<path style="fill:none;stroke:red;stroke-width:1px;stroke-linecap:butt;stroke-linejoin:miter;stroke-opacity:1" d="M 901.734,293.847 907.901,286.799 z" id="boundary" inkscape:connector-curvature="0" />
	<path style="fill:none;stroke:red;stroke-width:1px;stroke-linecap:butt;stroke-linejoin:miter;stroke-opacity:1" d="M 902.615,4 911.425,5.76199 z" id="boundary" inkscape:connector-curvature="0" />
	<path style="fill:none;stroke:red;stroke-width:1px;stroke-linecap:butt;stroke-linejoin:miter;stroke-opacity:1" d="M 907.901,286.799 914.948,280.632 z" id="boundary" inkscape:connector-curvature="0" />
	<path style="fill:none;stroke:red;stroke-width:1px;stroke-linecap:butt;stroke-linejoin:miter;stroke-opacity:1" d="M 911.425,5.76199 920.234,8.40497 z" id="boundary" inkscape:connector-curvature="0" />
	<path style="fill:none;stroke:red;stroke-width:1px;stroke-linecap:butt;stroke-linejoin:miter;stroke-opacity:1" d="M 914.948,280.632 921.115,273.584 z" id="boundary" inkscape:connector-curvature="0" />
	<path style="fill:none;stroke:red;stroke-width:1px;stroke-linecap:butt;stroke-linejoin:miter;stroke-opacity:1" d="M 920.234,8.40497 929.044,10.167 z" id="boundary" inkscape:connector-curvature="0" />
	<path style="fill:none;stroke:red;stroke-width:1px;stroke-linecap:butt;stroke-linejoin:miter;stroke-opacity:1" d="M 921.115,273.584 928.163,267.417 z" id="boundary" inkscape:connector-curvature="0" />
	<path style="fill:none;stroke:red;stroke-width:1px;stroke-linecap:butt;stroke-linejoin:miter;stroke-opacity:1" d="M 928.163,267.417 934.33,260.369 z" id="boundary" inkscape:connector-curvature="0" />
	<path style="fill:none;stroke:red;stroke-width:1px;stroke-linecap:butt;stroke-linejoin:miter;stroke-opacity:1" d="M 929.044,10.167 936.973,14.5719 z" id="boundary" inkscape:connector-curvature="0" />
	<path style="fill:none;stroke:red;stroke-width:1px;stroke-linecap:butt;stroke-linejoin:miter;stroke-opacity:1" d="M 934.33,260.369 941.378,254.202 z" id="boundary" inkscape:connector-curvature="0" />
	<path style="fill:none;stroke:red;stroke-width:1px;stroke-linecap:butt;stroke-linejoin:miter;stroke-opacity:1" d="M 936.973,14.5719 943.14,21.6199 z" id="boundary" inkscape:connector-curvature="0" />
	<path style="fill:none;stroke:red;stroke-width:1px;stroke-linecap:butt;stroke-linejoin:miter;stroke-opacity:1" d="M 941.378,254.202 947.545,247.155 z" id="boundary" inkscape:connector-curvature="0" />
	<path style="fill:none;stroke:red;stroke-width:1px;stroke-linecap:butt;stroke-linejoin:miter;stroke-opacity:1" d="M 943.14,21.6199 951.069,26.0249 z" id="boundary" inkscape:connector-curvature="0" />
	<path style="fill:none;stroke:red;stroke-width:1px;stroke-linecap:butt;stroke-linejoin:miter;stroke-opacity:1" d="M 947.545,247.155 951.95,238.345 z" id="boundary" inkscape:connector-curvature="0" />
	<path style="fill:none;stroke:red;stroke-width:1px;stroke-linecap:butt;stroke-linejoin:miter;stroke-opacity:1" d="M 951.069,26.0249 958.117,31.3108 z" id="boundary" inkscape:connector-curvature="0" />
	<path style="fill:none;stroke:red;stroke-width:1px;stroke-linecap:butt;stroke-linejoin:miter;stroke-opacity:1" d="M 951.95,238.345 956.355,229.535 z" id="boundary" inkscape:connector-curvature="0" />
	<path style="fill:none;stroke:red;stroke-width:1px;stroke-linecap:butt;stroke-linejoin:miter;stroke-opacity:1" d="M 956.355,229.535 960.76,220.725 z" id="boundary" inkscape:connector-curvature="0" />
	<path style="fill:none;stroke:red;stroke-width:1px;stroke-linecap:butt;stroke-linejoin:miter;stroke-opacity:1" d="M 958.117,31.3108 965.165,37.4778 z" id="boundary" inkscape:connector-curvature="0" />
	<path style="fill:none;stroke:red;stroke-width:1px;stroke-linecap:butt;stroke-linejoin:miter;stroke-opacity:1" d="M 960.76,220.725 967.808,214.558 z" id="boundary" inkscape:connector-curvature="0" />
	<path style="fill:none;stroke:red;stroke-width:1px;stroke-linecap:butt;stroke-linejoin:miter;stroke-opacity:1" d="M 965.165,37.4778 971.332,44.5258 z" id="boundary" inkscape:connector-curvature="0" />
	<path style="fill:none;stroke:red;stroke-width:1px;stroke-linecap:butt;stroke-linejoin:miter;stroke-opacity:1" d="M 967.808,214.558 972.213,205.748 z" id="boundary" inkscape:connector-curvature="0" />
	<path style="fill:none;stroke:red;stroke-width:1px;stroke-linecap:butt;stroke-linejoin:miter;stroke-opacity:1" d="M 971.332,44.5258 978.38,50.6927 z" id="boundary" inkscape:connector-curvature="0" />
	<path style="fill:none;stroke:red;stroke-width:1px;stroke-linecap:butt;stroke-linejoin:miter;stroke-opacity:1" d="M 972.213,205.748 976.618,196.938 z" id="boundary" inkscape:connector-curvature="0" />
	<path style="fill:none;stroke:red;stroke-width:1px;stroke-linecap:butt;stroke-linejoin:miter;stroke-opacity:1" d="M 976.618,196.938 981.023,188.128 z" id="boundary" inkscape:connector-curvature="0" />
	<path style="fill:none;stroke:red;stroke-width:1px;stroke-linecap:butt;stroke-linejoin:miter;stroke-opacity:1" d="M 978.38,50.6927 982.785,58.6217 z" id="boundary" inkscape:connector-curvature="0" />
	<path style="fill:none;stroke:red;stroke-width:1px;stroke-linecap:butt;stroke-linejoin:miter;stroke-opacity:1" d="M 981.023,188.128 982.785,176.675 z" id="boundary" inkscape:connector-curvature="0" />
	<path style="fill:none;stroke:red;stroke-width:1px;stroke-linecap:butt;stroke-linejoin:miter;stroke-opacity:1" d="M 982.785,58.6217 987.19,66.5506 z" id="boundary" inkscape:connector-curvature="0" />
	<path style="fill:none;stroke:red;stroke-width:1px;stroke-linecap:butt;stroke-linejoin:miter;stroke-opacity:1" d="M 982.785,167.865 982.785,176.675 z" id="boundary" inkscape:connector-curvature="0" />
	<path style="fill:none;stroke:red;stroke-width:1px;stroke-linecap:butt;stroke-linejoin:miter;stroke-opacity:1" d="M 982.785,167.865 987.19,159.055 z" id="boundary" inkscape:connector-curvature="0" />
	<path style="fill:none;stroke:red;stroke-width:1px;stroke-linecap:butt;stroke-linejoin:miter;stroke-opacity:1" d="M 987.19,66.5506 991.595,74.4796 z" id="boundary" inkscape:connector-curvature="0" />
	<path style="fill:none;stroke:red;stroke-width:1px;stroke-linecap:butt;stroke-linejoin:miter;stroke-opacity:1" d="M 987.19,159.055 991.595,150.245 z" id="boundary" inkscape:connector-curvature="0" />
	<path style="fill:none;stroke:red;stroke-width:1px;stroke-linecap:butt;stroke-linejoin:miter;stroke-opacity:1" d="M 991.595,74.4796 996,82.4085 z" id="boundary" inkscape:connector-curvature="0" />
	<path style="fill:none;stroke:red;stroke-width:1px;stroke-linecap:butt;stroke-linejoin:miter;stroke-opacity:1" d="M 991.595,150.245 996,135.268 z" id="boundary" inkscape:connector-curvature="0" />
	<path style="fill:none;stroke:red;stroke-width:1px;stroke-linecap:butt;stroke-linejoin:miter;stroke-opacity:1" d="M 996,82.4085 996,91.2185 z" id="boundary" inkscape:connector-curvature="0" />
	<path style="fill:none;stroke:red;stroke-width:1px;stroke-linecap:butt;stroke-linejoin:miter;stroke-opacity:1" d="M 996,91.2185 996,100.028 z" id="boundary" inkscape:connector-curvature="0" />
	<path style="fill:none;stroke:red;stroke-width:1px;stroke-linecap:butt;stroke-linejoin:miter;stroke-opacity:1" d="M 996,100.028 996,108.838 z" id="boundary" inkscape:connector-curvature="0" />
	<path style="fill:none;stroke:red;stroke-width:1px;stroke-linecap:butt;stroke-linejoin:miter;stroke-opacity:1" d="M 996,108.838 996,117.648 z" id="boundary" inkscape:connector-curvature="0" />
	<path style="fill:none;stroke:red;stroke-width:1px;stroke-linecap:butt;stroke-linejoin:miter;stroke-opacity:1" d="M 996,117.648 996,126.458 z" id="boundary" inkscape:connector-curvature="0" />
	<path style="fill:none;stroke:red;stroke-width:1px;stroke-linecap:butt;stroke-linejoin:miter;stroke-opacity:1" d="M 996,126.458 996,135.268 z" id="boundary" inkscape:connector-curvature="0" />
	<circle cx="4" cy="698.224" r="4" fill="#0" id="circle0"/>
	<circle cx="4" cy="707.034" r="4" fill="#0" id="circle1"/>
	<circle cx="4" cy="715.844" r="4" fill="#0" id="circle2"/>
	<circle cx="4" cy="724.654" r="4" fill="#0" id="circle3"/>
	<circle cx="8.40497" cy="689.414" r="4" fill="#0" id="circle4"/>
	<circle cx="8.40497" cy="732.583" r="4" fill="#0" id="circle5"/>
	<circle cx="14.5719" cy="739.631" r="4" fill="#0" id="circle6"/>
	<circle cx="15.4529" cy="682.366" r="4" fill="#0" id="circle7"/>
	<circle cx="21.6199" cy="744.917" r="4" fill="#0" id="circle8"/>
	<circle cx="22.5009" cy="675.318" r="4" fill="#0" id="circle9"/>
	<circle cx="26.9059" cy="751.964" r="4" fill="#0" id="circle10"/>
	<circle cx="29.5488" cy="669.151" r="4" fill="#0" id="circle11"/>
	<circle cx="33.9538" cy="758.131" r="4" fill="#0" id="circle12"/>
	<circle cx="35.7158" cy="662.103" r="4" fill="#0" id="circle13"/>
	<circle cx="41.8828" cy="762.536" r="4" fill="#0" id="circle14"/>
	<circle cx="44.5258" cy="657.698" r="4" fill="#0" id="circle15"/>
	<circle cx="49.8117" cy="766.941" r="4" fill="#0" id="circle16"/>
	<circle cx="51.5737" cy="651.531" r="4" fill="#0" id="circle17"/>
	<circle cx="58.6217" cy="766.941" r="4" fill="#0" id="circle18"/>
	<circle cx="59.5027" cy="647.126" r="4" fill="#0" id="circle19"/>
	<circle cx="66.5506" cy="771.346" r="4" fill="#0" id="circle20"/>
	<circle cx="67.4316" cy="642.721" r="4" fill="#0" id="circle21"/>
	<circle cx="75.3606" cy="638.316" r="4" fill="#0" id="circle22"/>
	<circle cx="75.3606" cy="771.346" r="4" fill="#0" id="circle23"/>
	<circle cx="83.2895" cy="633.911" r="4" fill="#0" id="circle24"/>
	<circle cx="84.1705" cy="771.346" r="4" fill="#0" id="circle25"/>
	<circle cx="91.2185" cy="629.506" r="4" fill="#0" id="circle26"/>
	<circle cx="92.9805" cy="766.941" r="4" fill="#0" id="circle27"/>
	<circle cx="99.1474" cy="625.101" r="4" fill="#0" id="circle28"/>
	<circle cx="101.79" cy="766.941" r="4" fill="#0" id="circle29"/>
	<circle cx="107.957" cy="620.696" r="4" fill="#0" id="circle30"/>
	<circle cx="110.6" cy="762.536" r="4" fill="#0" id="circle31"/>
	<circle cx="116.767" cy="616.291" r="4" fill="#0" id="circle32"/>
	<circle cx="119.41" cy="758.131" r="4" fill="#0" id="circle33"/>
	<circle cx="123.815" cy="609.243" r="4" fill="#0" id="circle34"/>
	<circle cx="128.22" cy="753.726" r="4" fill="#0" id="circle35"/>
	<circle cx="132.625" cy="604.838" r="4" fill="#0" id="circle36"/>
	<circle cx="137.03" cy="749.321" r="4" fill="#0" id="circle37"/>
	<circle cx="139.673" cy="598.671" r="4" fill="#0" id="circle38"/>
	<circle cx="145.84" cy="744.917" r="4" fill="#0" id="circle39"/>
	<circle cx="147.602" cy="594.266" r="4" fill="#0" id="circle40"/>
	<circle cx="154.65" cy="740.512" r="4" fill="#0" id="circle41"/>
	<circle cx="155.531" cy="589.861" r="4" fill="#0" id="circle42"/>
	<circle cx="162.579" cy="583.694" r="4" fill="#0" id="circle43"/>
	<circle cx="163.46" cy="736.107" r="4" fill="#0" id="circle44"/>
	<circle cx="169.627" cy="576.647" r="4" fill="#0" id="circle45"/>
	<circle cx="172.27" cy="731.702" r="4" fill="#0" id="circle46"/>
	<circle cx="177.556" cy="572.242" r="4" fill="#0" id="circle47"/>
	<circle cx="179.318" cy="725.535" r="4" fill="#0" id="circle48"/>
	<circle cx="185.485" cy="567.837" r="4" fill="#0" id="circle49"/>
	<circle cx="188.128" cy="721.13" r="4" fill="#0" id="circle50"/>
	<circle cx="193.414" cy="563.432" r="4" fill="#0" id="circle51"/>
	<circle cx="196.938" cy="716.725" r="4" fill="#0" id="circle52"/>
	<circle cx="201.343" cy="559.027" r="4" fill="#0" id="circle53"/>
	<circle cx="205.748" cy="712.32" r="4" fill="#0" id="circle54"/>
	<circle cx="207.51" cy="551.979" r="4" fill="#0" id="circle55"/>
	<circle cx="211.915" cy="705.272" r="4" fill="#0" id="circle56"/>
	<circle cx="216.32" cy="547.574" r="4" fill="#0" id="circle57"/>
	<circle cx="218.963" cy="699.105" r="4" fill="#0" id="circle58"/>
	<circle cx="225.13" cy="543.169" r="4" fill="#0" id="circle59"/>
	<circle cx="225.13" cy="692.057" r="4" fill="#0" id="circle60"/>
	<circle cx="233.059" cy="687.652" r="4" fill="#0" id="circle61"/>
	<circle cx="233.94" cy="538.764" r="4" fill="#0" id="circle62"/>
	<circle cx="240.988" cy="532.597" r="4" fill="#0" id="circle63"/>
	<circle cx="240.988" cy="683.247" r="4" fill="#0" id="circle64"/>
	<circle cx="248.917" cy="528.192" r="4" fill="#0" id="circle65"/>
	<circle cx="248.917" cy="678.842" r="4" fill="#0" id="circle66"/>
	<circle cx="255.964" cy="521.144" r="4" fill="#0" id="circle67"/>
	<circle cx="256.845" cy="674.437" r="4" fill="#0" id="circle68"/>
	<circle cx="263.012" cy="514.977" r="4" fill="#0" id="circle69"/>
	<circle cx="263.893" cy="667.389" r="4" fill="#0" id="circle70"/>
	<circle cx="270.941" cy="510.572" r="4" fill="#0" id="circle71"/>
	<circle cx="272.703" cy="662.984" r="4" fill="#0" id="circle72"/>
	<circle cx="279.751" cy="506.167" r="4" fill="#0" id="circle73"/>
	<circle cx="279.751" cy="655.936" r="4" fill="#0" id="circle74"/>
	<circle cx="286.799" cy="648.007" r="4" fill="#0" id="circle75"/>
	<circle cx="288.561" cy="501.762" r="4" fill="#0" id="circle76"/>
	<circle cx="295.609" cy="494.714" r="4" fill="#0" id="circle77"/>
	<circle cx="295.609" cy="643.602" r="4" fill="#0" id="circle78"/>
	<circle cx="304.419" cy="490.309" r="4" fill="#0" id="circle79"/>
	<circle cx="304.419" cy="639.197" r="4" fill="#0" id="circle80"/>
	<circle cx="311.467" cy="484.142" r="4" fill="#0" id="circle81"/>
	<circle cx="311.467" cy="633.03" r="4" fill="#0" id="circle82"/>
	<circle cx="317.634" cy="477.094" r="4" fill="#0" id="circle83"/>
	<circle cx="317.634" cy="625.982" r="4" fill="#0" id="circle84"/>
	<circle cx="324.682" cy="470.927" r="4" fill="#0" id="circle85"/>
	<circle cx="324.682" cy="619.815" r="4" fill="#0" id="circle86"/>
	<circle cx="332.611" cy="466.522" r="4" fill="#0" id="circle87"/>
	<circle cx="333.492" cy="615.41" r="4" fill="#0" id="circle88"/>
	<circle cx="339.659" cy="608.362" r="4" fill="#0" id="circle89"/>
	<circle cx="340.54" cy="462.117" r="4" fill="#0" id="circle90"/>
	<circle cx="346.707" cy="602.195" r="4" fill="#0" id="circle91"/>
	<circle cx="347.588" cy="455.95" r="4" fill="#0" id="circle92"/>
	<circle cx="352.874" cy="595.147" r="4" fill="#0" id="circle93"/>
	<circle cx="354.636" cy="448.902" r="4" fill="#0" id="circle94"/>
	<circle cx="360.803" cy="590.742" r="4" fill="#0" id="circle95"/>
	<circle cx="362.565" cy="444.497" r="4" fill="#0" id="circle96"/>
	<circle cx="367.851" cy="585.456" r="4" fill="#0" id="circle97"/>
	<circle cx="369.613" cy="438.33" r="4" fill="#0" id="circle98"/>
	<circle cx="374.899" cy="577.528" r="4" fill="#0" id="circle99"/>
	<circle cx="376.661" cy="431.282" r="4" fill="#0" id="circle100"/>
	<circle cx="381.947" cy="571.361" r="4" fill="#0" id="circle101"/>
	<circle cx="385.471" cy="426.877" r="4" fill="#0" id="circle102"/>
	<circle cx="388.114" cy="564.313" r="4" fill="#0" id="circle103"/>
	<circle cx="392.519" cy="419.829" r="4" fill="#0" id="circle104"/>
	<circle cx="396.924" cy="559.908" r="4" fill="#0" id="circle105"/>
	<circle cx="401.329" cy="415.425" r="4" fill="#0" id="circle106"/>
	<circle cx="403.972" cy="553.741" r="4" fill="#0" id="circle107"/>
	<circle cx="408.377" cy="409.258" r="4" fill="#0" id="circle108"/>
	<circle cx="412.782" cy="549.336" r="4" fill="#0" id="circle109"/>
	<circle cx="416.306" cy="404.853" r="4" fill="#0" id="circle110"/>
	<circle cx="418.948" cy="542.288" r="4" fill="#0" id="circle111"/>
	<circle cx="424.234" cy="400.448" r="4" fill="#0" id="circle112"/>
	<circle cx="426.877" cy="537.883" r="4" fill="#0" id="circle113"/>
	<circle cx="432.163" cy="396.043" r="4" fill="#0" id="circle114"/>
	<circle cx="434.806" cy="533.478" r="4" fill="#0" id="circle115"/>
	<circle cx="440.092" cy="391.638" r="4" fill="#0" id="circle116"/>
	<circle cx="442.735" cy="529.073" r="4" fill="#0" id="circle117"/>
	<circle cx="448.021" cy="387.233" r="4" fill="#0" id="circle118"/>
	<circle cx="450.664" cy="524.668" r="4" fill="#0" id="circle119"/>
	<circle cx="455.95" cy="382.828" r="4" fill="#0" id="circle120"/>
	<circle cx="457.712" cy="517.62" r="4" fill="#0" id="circle121"/>
	<circle cx="464.76" cy="378.423" r="4" fill="#0" id="circle122"/>
	<circle cx="466.522" cy="513.215" r="4" fill="#0" id="circle123"/>
	<circle cx="473.57" cy="374.018" r="4" fill="#0" id="circle124"/>
	<circle cx="473.57" cy="506.167" r="4" fill="#0" id="circle125"/>
	<circle cx="480.618" cy="366.97" r="4" fill="#0" id="circle126"/>
	<circle cx="480.618" cy="498.238" r="4" fill="#0" id="circle127"/>
	<circle cx="487.666" cy="360.803" r="4" fill="#0" id="circle128"/>
	<circle cx="487.666" cy="492.071" r="4" fill="#0" id="circle129"/>
	<circle cx="493.833" cy="353.755" r="4" fill="#0" id="circle130"/>
	<circle cx="493.833" cy="485.023" r="4" fill="#0" id="circle131"/>
	<circle cx="500.881" cy="478.856" r="4" fill="#0" id="circle132"/>
	<circle cx="502.643" cy="349.35" r="4" fill="#0" id="circle133"/>
	<circle cx="509.691" cy="474.451" r="4" fill="#0" id="circle134"/>
	<circle cx="511.453" cy="344.945" r="4" fill="#0" id="circle135"/>
	<circle cx="515.858" cy="467.403" r="4" fill="#0" id="circle136"/>
	<circle cx="520.263" cy="340.54" r="4" fill="#0" id="circle137"/>
	<circle cx="522.906" cy="461.236" r="4" fill="#0" id="circle138"/>
	<circle cx="527.311" cy="334.373" r="4" fill="#0" id="circle139"/>
	<circle cx="529.073" cy="454.188" r="4" fill="#0" id="circle140"/>
	<circle cx="533.478" cy="327.325" r="4" fill="#0" id="circle141"/>
	<circle cx="536.121" cy="448.021" r="4" fill="#0" id="circle142"/>
	<circle cx="540.526" cy="321.158" r="4" fill="#0" id="circle143"/>
	<circle cx="542.288" cy="440.973" r="4" fill="#0" id="circle144"/>
	<circle cx="546.693" cy="314.11" r="4" fill="#0" id="circle145"/>
	<circle cx="549.336" cy="434.806" r="4" fill="#0" id="circle146"/>
	<circle cx="550.217" cy="231.297" r="4" fill="#0" id="circle147"/>
	<circle cx="550.217" cy="240.107" r="4" fill="#0" id="circle148"/>
	<circle cx="550.217" cy="248.917" r="4" fill="#0" id="circle149"/>
	<circle cx="550.217" cy="257.726" r="4" fill="#0" id="circle150"/>
	<circle cx="550.217" cy="266.536" r="4" fill="#0" id="circle151"/>
	<circle cx="550.217" cy="275.346" r="4" fill="#0" id="circle152"/>
	<circle cx="553.741" cy="307.943" r="4" fill="#0" id="circle153"/>
	<circle cx="554.622" cy="209.272" r="4" fill="#0" id="circle154"/>
	<circle cx="554.622" cy="218.082" r="4" fill="#0" id="circle155"/>
	<circle cx="554.622" cy="283.275" r="4" fill="#0" id="circle156"/>
	<circle cx="554.622" cy="292.085" r="4" fill="#0" id="circle157"/>
	<circle cx="555.503" cy="427.758" r="4" fill="#0" id="circle158"/>
	<circle cx="559.027" cy="191.652" r="4" fill="#0" id="circle159"/>
	<circle cx="559.027" cy="200.462" r="4" fill="#0" id="circle160"/>
	<circle cx="559.027" cy="300.014" r="4" fill="#0" id="circle161"/>
	<circle cx="562.551" cy="421.591" r="4" fill="#0" id="circle162"/>
	<circle cx="563.432" cy="182.842" r="4" fill="#0" id="circle163"/>
	<circle cx="567.837" cy="174.032" r="4" fill="#0" id="circle164"/>
	<circle cx="571.361" cy="417.187" r="4" fill="#0" id="circle165"/>
	<circle cx="572.242" cy="165.222" r="4" fill="#0" id="circle166"/>
	<circle cx="577.528" cy="410.139" r="4" fill="#0" id="circle167"/>
	<circle cx="579.29" cy="158.174" r="4" fill="#0" id="circle168"/>
	<circle cx="584.575" cy="403.972" r="4" fill="#0" id="circle169"/>
	<circle cx="585.456" cy="147.602" r="4" fill="#0" id="circle170"/>
	<circle cx="588.98" cy="395.162" r="4" fill="#0" id="circle171"/>
	<circle cx="592.504" cy="140.554" r="4" fill="#0" id="circle172"/>
	<circle cx="593.385" cy="386.352" r="4" fill="#0" id="circle173"/>
	<circle cx="598.671" cy="129.982" r="4" fill="#0" id="circle174"/>
	<circle cx="599.552" cy="379.304" r="4" fill="#0" id="circle175"/>
	<circle cx="605.719" cy="122.934" r="4" fill="#0" id="circle176"/>
	<circle cx="608.362" cy="374.899" r="4" fill="#0" id="circle177"/>
	<circle cx="612.767" cy="115.886" r="4" fill="#0" id="circle178"/>
	<circle cx="616.291" cy="379.304" r="4" fill="#0" id="circle179"/>
	<circle cx="619.815" cy="109.719" r="4" fill="#0" id="circle180"/>
	<circle cx="624.22" cy="383.709" r="4" fill="#0" id="circle181"/>
	<circle cx="625.982" cy="102.671" r="4" fill="#0" id="circle182"/>
	<circle cx="632.149" cy="388.114" r="4" fill="#0" id="circle183"/>
	<circle cx="633.03" cy="96.5044" r="4" fill="#0" id="circle184"/>
	<circle cx="639.197" cy="89.4565" r="4" fill="#0" id="circle185"/>
	<circle cx="640.959" cy="388.114" r="4" fill="#0" id="circle186"/>
	<circle cx="648.007" cy="85.0515" r="4" fill="#0" id="circle187"/>
	<circle cx="649.769" cy="388.114" r="4" fill="#0" id="circle188"/>
	<circle cx="655.055" cy="78.8845" r="4" fill="#0" id="circle189"/>
	<circle cx="658.579" cy="388.114" r="4" fill="#0" id="circle190"/>
	<circle cx="662.984" cy="74.4796" r="4" fill="#0" id="circle191"/>
	<circle cx="667.389" cy="388.114" r="4" fill="#0" id="circle192"/>
	<circle cx="670.913" cy="70.0746" r="4" fill="#0" id="circle193"/>
	<circle cx="676.199" cy="391.638" r="4" fill="#0" id="circle194"/>
	<circle cx="678.842" cy="65.6696" r="4" fill="#0" id="circle195"/>
	<circle cx="685.009" cy="392.519" r="4" fill="#0" id="circle196"/>
	<circle cx="686.771" cy="61.2647" r="4" fill="#0" id="circle197"/>
	<circle cx="693.819" cy="392.519" r="4" fill="#0" id="circle198"/>
	<circle cx="694.7" cy="56.8597" r="4" fill="#0" id="circle199"/>
	<circle cx="702.629" cy="52.4547" r="4" fill="#0" id="circle200"/>
	<circle cx="702.629" cy="392.519" r="4" fill="#0" id="circle201"/>
	<circle cx="711.439" cy="48.0497" r="4" fill="#0" id="circle202"/>
	<circle cx="711.439" cy="392.519" r="4" fill="#0" id="circle203"/>
	<circle cx="720.249" cy="43.6448" r="4" fill="#0" id="circle204"/>
	<circle cx="720.249" cy="392.519" r="4" fill="#0" id="circle205"/>
	<circle cx="729.059" cy="39.2398" r="4" fill="#0" id="circle206"/>
	<circle cx="729.059" cy="392.519" r="4" fill="#0" id="circle207"/>
	<circle cx="737.869" cy="39.2398" r="4" fill="#0" id="circle208"/>
	<circle cx="737.869" cy="392.519" r="4" fill="#0" id="circle209"/>
	<circle cx="745.798" cy="388.114" r="4" fill="#0" id="circle210"/>
	<circle cx="746.679" cy="34.8348" r="4" fill="#0" id="circle211"/>
	<circle cx="754.607" cy="388.114" r="4" fill="#0" id="circle212"/>
	<circle cx="755.488" cy="30.4298" r="4" fill="#0" id="circle213"/>
	<circle cx="763.417" cy="388.114" r="4" fill="#0" id="circle214"/>
	<circle cx="764.298" cy="26.0249" r="4" fill="#0" id="circle215"/>
	<circle cx="771.346" cy="383.709" r="4" fill="#0" id="circle216"/>
	<circle cx="773.108" cy="26.0249" r="4" fill="#0" id="circle217"/>
	<circle cx="779.275" cy="379.304" r="4" fill="#0" id="circle218"/>
	<circle cx="781.918" cy="21.6199" r="4" fill="#0" id="circle219"/>
	<circle cx="787.204" cy="374.899" r="4" fill="#0" id="circle220"/>
	<circle cx="790.728" cy="21.6199" r="4" fill="#0" id="circle221"/>
	<circle cx="795.133" cy="370.494" r="4" fill="#0" id="circle222"/>
	<circle cx="798.657" cy="17.2149" r="4" fill="#0" id="circle223"/>
	<circle cx="803.062" cy="366.089" r="4" fill="#0" id="circle224"/>
	<circle cx="806.586" cy="12.8099" r="4" fill="#0" id="circle225"/>
	<circle cx="810.991" cy="361.684" r="4" fill="#0" id="circle226"/>
	<circle cx="815.396" cy="12.8099" r="4" fill="#0" id="circle227"/>
	<circle cx="819.801" cy="357.279" r="4" fill="#0" id="circle228"/>
	<circle cx="823.325" cy="8.40497" r="4" fill="#0" id="circle229"/>
	<circle cx="828.611" cy="352.874" r="4" fill="#0" id="circle230"/>
	<circle cx="832.135" cy="8.40497" r="4" fill="#0" id="circle231"/>
	<circle cx="835.659" cy="346.707" r="4" fill="#0" id="circle232"/>
	<circle cx="840.945" cy="6.64298" r="4" fill="#0" id="circle233"/>
	<circle cx="844.469" cy="342.302" r="4" fill="#0" id="circle234"/>
	<circle cx="849.755" cy="4" r="4" fill="#0" id="circle235"/>
	<circle cx="850.636" cy="335.254" r="4" fill="#0" id="circle236"/>
	<circle cx="858.565" cy="4" r="4" fill="#0" id="circle237"/>
	<circle cx="858.565" cy="330.849" r="4" fill="#0" id="circle238"/>
	<circle cx="865.613" cy="325.563" r="4" fill="#0" id="circle239"/>
	<circle cx="867.375" cy="4" r="4" fill="#0" id="circle240"/>
	<circle cx="872.661" cy="317.634" r="4" fill="#0" id="circle241"/>
	<circle cx="876.185" cy="4" r="4" fill="#0" id="circle242"/>
	<circle cx="879.709" cy="311.467" r="4" fill="#0" id="circle243"/>
	<circle cx="884.995" cy="4" r="4" fill="#0" id="circle244"/>
	<circle cx="885.876" cy="304.419" r="4" fill="#0" id="circle245"/>
	<circle cx="893.805" cy="4" r="4" fill="#0" id="circle246"/>
	<circle cx="894.686" cy="300.014" r="4" fill="#0" id="circle247"/>
	<circle cx="901.734" cy="293.847" r="4" fill="#0" id="circle248"/>
	<circle cx="902.615" cy="4" r="4" fill="#0" id="circle249"/>
	<circle cx="907.901" cy="286.799" r="4" fill="#0" id="circle250"/>
	<circle cx="911.425" cy="5.76199" r="4" fill="#0" id="circle251"/>
	<circle cx="914.948" cy="280.632" r="4" fill="#0" id="circle252"/>
	<circle cx="920.234" cy="8.40497" r="4" fill="#0" id="circle253"/>
	<circle cx="921.115" cy="273.584" r="4" fill="#0" id="circle254"/>
	<circle cx="928.163" cy="267.417" r="4" fill="#0" id="circle255"/>
	<circle cx="929.044" cy="10.167" r="4" fill="#0" id="circle256"/>
	<circle cx="934.33" cy="260.369" r="4" fill="#0" id="circle257"/>
	<circle cx="936.973" cy="14.5719" r="4" fill="#0" id="circle258"/>
	<circle cx="941.378" cy="254.202" r="4" fill="#0" id="circle259"/>
	<circle cx="943.14" cy="21.6199" r="4" fill="#0" id="circle260"/>
	<circle cx="947.545" cy="247.155" r="4" fill="#0" id="circle261"/>
	<circle cx="951.069" cy="26.0249" r="4" fill="#0" id="circle262"/>
	<circle cx="951.95" cy="238.345" r="4" fill="#0" id="circle263"/>
	<circle cx="956.355" cy="229.535" r="4" fill="#0" id="circle264"/>
	<circle cx="958.117" cy="31.3108" r="4" fill="#0" id="circle265"/>
	<circle cx="960.76" cy="220.725" r="4" fill="#0" id="circle266"/>
	<circle cx="965.165" cy="37.4778" r="4" fill="#0" id="circle267"/>
	<circle cx="967.808" cy="214.558" r="4" fill="#0" id="circle268"/>
	<circle cx="971.332" cy="44.5258" r="4" fill="#0" id="circle269"/>
	<circle cx="972.213" cy="205.748" r="4" fill="#0" id="circle270"/>
	<circle cx="976.618" cy="196.938" r="4" fill="#0" id="circle271"/>
	<circle cx="978.38" cy="50.6927" r="4" fill="#0" id="circle272"/>
	<circle cx="981.023" cy="188.128" r="4" fill="#0" id="circle273"/>
	<circle cx="982.785" cy="58.6217" r="4" fill="#0" id="circle274"/>
	<circle cx="982.785" cy="167.865" r="4" fill="#0" id="circle275"/>
	<circle cx="982.785" cy="176.675" r="4" fill="#0" id="circle276"/>
	<circle cx="987.19" cy="66.5506" r="4" fill="#0" id="circle277"/>
	<circle cx="987.19" cy="159.055" r="4" fill="#0" id="circle278"/>
	<circle cx="991.595" cy="74.4796" r="4" fill="#0" id="circle279"/>
	<circle cx="991.595" cy="150.245" r="4" fill="#0" id="circle280"/>
	<circle cx="996" cy="82.4085" r="4" fill="#0" id="circle281"/>
	<circle cx="996" cy="91.2185" r="4" fill="#0" id="circle282"/>
	<circle cx="996" cy="100.028" r="4" fill="#0" id="circle283"/>
	<circle cx="996" cy="108.838" r="4" fill="#0" id="circle284"/>
	<circle cx="996" cy="117.648" r="4" fill="#0" id="circle285"/>
	<circle cx="996" cy="126.458" r="4" fill="#0" id="circle286"/>
	<circle cx="996" cy="135.268" r="4" fill="#0" id="circle287"/>
	</g>
</svg>