<?xml version="1.0" encoding="UTF-8" standalone="no"?>
<!-- Created with CurveBenchmark -->
<svg
	xmlns:dc="http://purl.org/dc/elements/1.1/"
	xmlns:cc="http://creativecommons.org/ns#"
	xmlns:rdf="http://www.w3.org/1999/02/22-rdf-syntax-ns#"
	xmlns:svg="http://www.w3.org/2000/svg"
	xmlns="http://www.w3.org/2000/svg"
	xmlns:sodipodi="http://sodipodi.sourceforge.net/DTD/sodipodi-0.dtd"
	xmlns:inkscape="http://www.inkscape.org/namespaces/inkscape"
	width="1000"
	height="1000"
	id="svg2"
	version="1.1"
	sodipodi:docname="manifold/fitconnect-hammer200.png.txt">
<defs
	id="defs4" />
<metadata
	id="metadata7">
	<rdf:RDF>
		<cc:Work
			rdf:about="">
			<dc:format>image/svg+xml</dc:format>
			<dc:type
				rdf:resource="http://purl.org/dc/dcmitype/StillImage" />
			<dc:title></dc:title>
		</cc:Work>
	</rdf:RDF>
</metadata>
<g
	inkscape:label="Layer 1"
	inkscape:groupmode="layer"
	id="layer1">
	<path style="fill:none;stroke:red;stroke-width:1px;stroke-linecap:butt;stroke-linejoin:miter;stroke-opacity:1" d="M 4,21.2522 4,50.0058 z" id="boundary" inkscape:connector-curvature="0" />
	<path style="fill:none;stroke:red;stroke-width:1px;stroke-linecap:butt;stroke-linejoin:miter;stroke-opacity:1" d="M 4,21.2522 27.0029,4 z" id="boundary" inkscape:connector-curvature="0" />
	<path style="fill:none;stroke:red;stroke-width:1px;stroke-linecap:butt;stroke-linejoin:miter;stroke-opacity:1" d="M 4,50.0058 9.75072,78.7594 z" id="boundary" inkscape:connector-curvature="0" />
	<path style="fill:none;stroke:red;stroke-width:1px;stroke-linecap:butt;stroke-linejoin:miter;stroke-opacity:1" d="M 9.75072,78.7594 35.629,93.1362 z" id="boundary" inkscape:connector-curvature="0" />
	<path style="fill:none;stroke:red;stroke-width:1px;stroke-linecap:butt;stroke-linejoin:miter;stroke-opacity:1" d="M 27.0029,4 55.7565,4 z" id="boundary" inkscape:connector-curvature="0" />
	<path style="fill:none;stroke:red;stroke-width:1px;stroke-linecap:butt;stroke-linejoin:miter;stroke-opacity:1" d="M 35.629,93.1362 64.3826,81.6348 z" id="boundary" inkscape:connector-curvature="0" />
	<path style="fill:none;stroke:red;stroke-width:1px;stroke-linecap:butt;stroke-linejoin:miter;stroke-opacity:1" d="M 55.7565,4 84.5101,15.5014 z" id="boundary" inkscape:connector-curvature="0" />
	<path style="fill:none;stroke:red;stroke-width:1px;stroke-linecap:butt;stroke-linejoin:miter;stroke-opacity:1" d="M 64.3826,81.6348 93.1362,75.8841 z" id="boundary" inkscape:connector-curvature="0" />
	<path style="fill:none;stroke:red;stroke-width:1px;stroke-linecap:butt;stroke-linejoin:miter;stroke-opacity:1" d="M 84.5101,15.5014 113.264,15.5014 z" id="boundary" inkscape:connector-curvature="0" />
	<path style="fill:none;stroke:red;stroke-width:1px;stroke-linecap:butt;stroke-linejoin:miter;stroke-opacity:1" d="M 93.1362,75.8841 119.014,90.2609 z" id="boundary" inkscape:connector-curvature="0" />
	<path style="fill:none;stroke:red;stroke-width:1px;stroke-linecap:butt;stroke-linejoin:miter;stroke-opacity:1" d="M 113.264,15.5014 142.017,4 z" id="boundary" inkscape:connector-curvature="0" />
	<path style="fill:none;stroke:red;stroke-width:1px;stroke-linecap:butt;stroke-linejoin:miter;stroke-opacity:1" d="M 113.264,964.371 113.264,993.125 z" id="boundary" inkscape:connector-curvature="0" />
	<path style="fill:none;stroke:red;stroke-width:1px;stroke-linecap:butt;stroke-linejoin:miter;stroke-opacity:1" d="M 113.264,964.371 119.014,912.614 z" id="boundary" inkscape:connector-curvature="0" />
	<path style="fill:none;stroke:red;stroke-width:1px;stroke-linecap:butt;stroke-linejoin:miter;stroke-opacity:1" d="M 113.264,993.125 142.017,996 z" id="boundary" inkscape:connector-curvature="0" />
	<path style="fill:none;stroke:red;stroke-width:1px;stroke-linecap:butt;stroke-linejoin:miter;stroke-opacity:1" d="M 119.014,90.2609 124.765,119.014 z" id="boundary" inkscape:connector-curvature="0" />
	<path style="fill:none;stroke:red;stroke-width:1px;stroke-linecap:butt;stroke-linejoin:miter;stroke-opacity:1" d="M 119.014,855.107 119.014,883.861 z" id="boundary" inkscape:connector-curvature="0" />
	<path style="fill:none;stroke:red;stroke-width:1px;stroke-linecap:butt;stroke-linejoin:miter;stroke-opacity:1" d="M 119.014,855.107 124.765,803.351 z" id="boundary" inkscape:connector-curvature="0" />
	<path style="fill:none;stroke:red;stroke-width:1px;stroke-linecap:butt;stroke-linejoin:miter;stroke-opacity:1" d="M 119.014,883.861 119.014,912.614 z" id="boundary" inkscape:connector-curvature="0" />
	<path style="fill:none;stroke:red;stroke-width:1px;stroke-linecap:butt;stroke-linejoin:miter;stroke-opacity:1" d="M 124.765,119.014 124.765,147.768 z" id="boundary" inkscape:connector-curvature="0" />
	<path style="fill:none;stroke:red;stroke-width:1px;stroke-linecap:butt;stroke-linejoin:miter;stroke-opacity:1" d="M 124.765,147.768 139.142,173.646 z" id="boundary" inkscape:connector-curvature="0" />
	<path style="fill:none;stroke:red;stroke-width:1px;stroke-linecap:butt;stroke-linejoin:miter;stroke-opacity:1" d="M 124.765,487.061 124.765,515.814 z" id="boundary" inkscape:connector-curvature="0" />
	<path style="fill:none;stroke:red;stroke-width:1px;stroke-linecap:butt;stroke-linejoin:miter;stroke-opacity:1" d="M 124.765,487.061 139.142,461.183 z" id="boundary" inkscape:connector-curvature="0" />
	<path style="fill:none;stroke:red;stroke-width:1px;stroke-linecap:butt;stroke-linejoin:miter;stroke-opacity:1" d="M 124.765,515.814 124.765,544.568 z" id="boundary" inkscape:connector-curvature="0" />
	<path style="fill:none;stroke:red;stroke-width:1px;stroke-linecap:butt;stroke-linejoin:miter;stroke-opacity:1" d="M 124.765,544.568 124.765,573.322 z" id="boundary" inkscape:connector-curvature="0" />
	<path style="fill:none;stroke:red;stroke-width:1px;stroke-linecap:butt;stroke-linejoin:miter;stroke-opacity:1" d="M 124.765,573.322 124.765,602.075 z" id="boundary" inkscape:connector-curvature="0" />
	<path style="fill:none;stroke:red;stroke-width:1px;stroke-linecap:butt;stroke-linejoin:miter;stroke-opacity:1" d="M 124.765,602.075 124.765,630.829 z" id="boundary" inkscape:connector-curvature="0" />
	<path style="fill:none;stroke:red;stroke-width:1px;stroke-linecap:butt;stroke-linejoin:miter;stroke-opacity:1" d="M 124.765,630.829 124.765,659.583 z" id="boundary" inkscape:connector-curvature="0" />
	<path style="fill:none;stroke:red;stroke-width:1px;stroke-linecap:butt;stroke-linejoin:miter;stroke-opacity:1" d="M 124.765,659.583 124.765,688.336 z" id="boundary" inkscape:connector-curvature="0" />
	<path style="fill:none;stroke:red;stroke-width:1px;stroke-linecap:butt;stroke-linejoin:miter;stroke-opacity:1" d="M 124.765,688.336 124.765,717.09 z" id="boundary" inkscape:connector-curvature="0" />
	<path style="fill:none;stroke:red;stroke-width:1px;stroke-linecap:butt;stroke-linejoin:miter;stroke-opacity:1" d="M 124.765,717.09 124.765,745.843 z" id="boundary" inkscape:connector-curvature="0" />
	<path style="fill:none;stroke:red;stroke-width:1px;stroke-linecap:butt;stroke-linejoin:miter;stroke-opacity:1" d="M 124.765,745.843 124.765,774.597 z" id="boundary" inkscape:connector-curvature="0" />
	<path style="fill:none;stroke:red;stroke-width:1px;stroke-linecap:butt;stroke-linejoin:miter;stroke-opacity:1" d="M 124.765,774.597 124.765,803.351 z" id="boundary" inkscape:connector-curvature="0" />
	<path style="fill:none;stroke:red;stroke-width:1px;stroke-linecap:butt;stroke-linejoin:miter;stroke-opacity:1" d="M 139.142,173.646 147.768,202.4 z" id="boundary" inkscape:connector-curvature="0" />
	<path style="fill:none;stroke:red;stroke-width:1px;stroke-linecap:butt;stroke-linejoin:miter;stroke-opacity:1" d="M 139.142,461.183 147.768,423.803 z" id="boundary" inkscape:connector-curvature="0" />
	<path style="fill:none;stroke:red;stroke-width:1px;stroke-linecap:butt;stroke-linejoin:miter;stroke-opacity:1" d="M 142.017,4 170.771,4 z" id="boundary" inkscape:connector-curvature="0" />
	<path style="fill:none;stroke:red;stroke-width:1px;stroke-linecap:butt;stroke-linejoin:miter;stroke-opacity:1" d="M 142.017,996 170.771,996 z" id="boundary" inkscape:connector-curvature="0" />
	<path style="fill:none;stroke:red;stroke-width:1px;stroke-linecap:butt;stroke-linejoin:miter;stroke-opacity:1" d="M 147.768,202.4 147.768,231.154 z" id="boundary" inkscape:connector-curvature="0" />
	<path style="fill:none;stroke:red;stroke-width:1px;stroke-linecap:butt;stroke-linejoin:miter;stroke-opacity:1" d="M 147.768,231.154 153.519,259.907 z" id="boundary" inkscape:connector-curvature="0" />
	<path style="fill:none;stroke:red;stroke-width:1px;stroke-linecap:butt;stroke-linejoin:miter;stroke-opacity:1" d="M 147.768,423.803 153.519,374.922 z" id="boundary" inkscape:connector-curvature="0" />
	<path style="fill:none;stroke:red;stroke-width:1px;stroke-linecap:butt;stroke-linejoin:miter;stroke-opacity:1" d="M 153.519,259.907 153.519,288.661 z" id="boundary" inkscape:connector-curvature="0" />
	<path style="fill:none;stroke:red;stroke-width:1px;stroke-linecap:butt;stroke-linejoin:miter;stroke-opacity:1" d="M 153.519,288.661 153.519,317.414 z" id="boundary" inkscape:connector-curvature="0" />
	<path style="fill:none;stroke:red;stroke-width:1px;stroke-linecap:butt;stroke-linejoin:miter;stroke-opacity:1" d="M 153.519,317.414 153.519,346.168 z" id="boundary" inkscape:connector-curvature="0" />
	<path style="fill:none;stroke:red;stroke-width:1px;stroke-linecap:butt;stroke-linejoin:miter;stroke-opacity:1" d="M 153.519,346.168 153.519,374.922 z" id="boundary" inkscape:connector-curvature="0" />
	<path style="fill:none;stroke:red;stroke-width:1px;stroke-linecap:butt;stroke-linejoin:miter;stroke-opacity:1" d="M 170.771,4 199.525,4 z" id="boundary" inkscape:connector-curvature="0" />
	<path style="fill:none;stroke:red;stroke-width:1px;stroke-linecap:butt;stroke-linejoin:miter;stroke-opacity:1" d="M 170.771,996 199.525,996 z" id="boundary" inkscape:connector-curvature="0" />
	<path style="fill:none;stroke:red;stroke-width:1px;stroke-linecap:butt;stroke-linejoin:miter;stroke-opacity:1" d="M 199.525,4 228.278,4 z" id="boundary" inkscape:connector-curvature="0" />
	<path style="fill:none;stroke:red;stroke-width:1px;stroke-linecap:butt;stroke-linejoin:miter;stroke-opacity:1" d="M 199.525,996 228.278,996 z" id="boundary" inkscape:connector-curvature="0" />
	<path style="fill:none;stroke:red;stroke-width:1px;stroke-linecap:butt;stroke-linejoin:miter;stroke-opacity:1" d="M 228.278,4 257.032,4 z" id="boundary" inkscape:connector-curvature="0" />
	<path style="fill:none;stroke:red;stroke-width:1px;stroke-linecap:butt;stroke-linejoin:miter;stroke-opacity:1" d="M 228.278,996 257.032,996 z" id="boundary" inkscape:connector-curvature="0" />
	<path style="fill:none;stroke:red;stroke-width:1px;stroke-linecap:butt;stroke-linejoin:miter;stroke-opacity:1" d="M 231.154,228.278 231.154,257.032 z" id="boundary" inkscape:connector-curvature="0" />
	<path style="fill:none;stroke:red;stroke-width:1px;stroke-linecap:butt;stroke-linejoin:miter;stroke-opacity:1" d="M 231.154,228.278 236.904,193.774 z" id="boundary" inkscape:connector-curvature="0" />
	<path style="fill:none;stroke:red;stroke-width:1px;stroke-linecap:butt;stroke-linejoin:miter;stroke-opacity:1" d="M 231.154,257.032 231.154,285.786 z" id="boundary" inkscape:connector-curvature="0" />
	<path style="fill:none;stroke:red;stroke-width:1px;stroke-linecap:butt;stroke-linejoin:miter;stroke-opacity:1" d="M 231.154,285.786 231.154,314.539 z" id="boundary" inkscape:connector-curvature="0" />
	<path style="fill:none;stroke:red;stroke-width:1px;stroke-linecap:butt;stroke-linejoin:miter;stroke-opacity:1" d="M 231.154,314.539 231.154,343.293 z" id="boundary" inkscape:connector-curvature="0" />
	<path style="fill:none;stroke:red;stroke-width:1px;stroke-linecap:butt;stroke-linejoin:miter;stroke-opacity:1" d="M 231.154,343.293 231.154,372.046 z" id="boundary" inkscape:connector-curvature="0" />
	<path style="fill:none;stroke:red;stroke-width:1px;stroke-linecap:butt;stroke-linejoin:miter;stroke-opacity:1" d="M 231.154,372.046 231.154,400.8 z" id="boundary" inkscape:connector-curvature="0" />
	<path style="fill:none;stroke:red;stroke-width:1px;stroke-linecap:butt;stroke-linejoin:miter;stroke-opacity:1" d="M 231.154,400.8 234.029,429.554 z" id="boundary" inkscape:connector-curvature="0" />
	<path style="fill:none;stroke:red;stroke-width:1px;stroke-linecap:butt;stroke-linejoin:miter;stroke-opacity:1" d="M 234.029,429.554 242.655,458.307 z" id="boundary" inkscape:connector-curvature="0" />
	<path style="fill:none;stroke:red;stroke-width:1px;stroke-linecap:butt;stroke-linejoin:miter;stroke-opacity:1" d="M 236.904,193.774 248.406,159.27 z" id="boundary" inkscape:connector-curvature="0" />
	<path style="fill:none;stroke:red;stroke-width:1px;stroke-linecap:butt;stroke-linejoin:miter;stroke-opacity:1" d="M 242.655,458.307 254.157,487.061 z" id="boundary" inkscape:connector-curvature="0" />
	<path style="fill:none;stroke:red;stroke-width:1px;stroke-linecap:butt;stroke-linejoin:miter;stroke-opacity:1" d="M 248.406,159.27 259.907,124.765 z" id="boundary" inkscape:connector-curvature="0" />
	<path style="fill:none;stroke:red;stroke-width:1px;stroke-linecap:butt;stroke-linejoin:miter;stroke-opacity:1" d="M 254.157,487.061 259.907,515.814 z" id="boundary" inkscape:connector-curvature="0" />
	<path style="fill:none;stroke:red;stroke-width:1px;stroke-linecap:butt;stroke-linejoin:miter;stroke-opacity:1" d="M 257.032,4 285.786,15.5014 z" id="boundary" inkscape:connector-curvature="0" />
	<path style="fill:none;stroke:red;stroke-width:1px;stroke-linecap:butt;stroke-linejoin:miter;stroke-opacity:1" d="M 257.032,996 265.658,947.119 z" id="boundary" inkscape:connector-curvature="0" />
	<path style="fill:none;stroke:red;stroke-width:1px;stroke-linecap:butt;stroke-linejoin:miter;stroke-opacity:1" d="M 259.907,96.0116 259.907,124.765 z" id="boundary" inkscape:connector-curvature="0" />
	<path style="fill:none;stroke:red;stroke-width:1px;stroke-linecap:butt;stroke-linejoin:miter;stroke-opacity:1" d="M 259.907,96.0116 288.661,93.1362 z" id="boundary" inkscape:connector-curvature="0" />
	<path style="fill:none;stroke:red;stroke-width:1px;stroke-linecap:butt;stroke-linejoin:miter;stroke-opacity:1" d="M 259.907,515.814 259.907,544.568 z" id="boundary" inkscape:connector-curvature="0" />
	<path style="fill:none;stroke:red;stroke-width:1px;stroke-linecap:butt;stroke-linejoin:miter;stroke-opacity:1" d="M 259.907,544.568 259.907,573.322 z" id="boundary" inkscape:connector-curvature="0" />
	<path style="fill:none;stroke:red;stroke-width:1px;stroke-linecap:butt;stroke-linejoin:miter;stroke-opacity:1" d="M 259.907,573.322 259.907,602.075 z" id="boundary" inkscape:connector-curvature="0" />
	<path style="fill:none;stroke:red;stroke-width:1px;stroke-linecap:butt;stroke-linejoin:miter;stroke-opacity:1" d="M 259.907,602.075 259.907,630.829 z" id="boundary" inkscape:connector-curvature="0" />
	<path style="fill:none;stroke:red;stroke-width:1px;stroke-linecap:butt;stroke-linejoin:miter;stroke-opacity:1" d="M 259.907,630.829 259.907,659.583 z" id="boundary" inkscape:connector-curvature="0" />
	<path style="fill:none;stroke:red;stroke-width:1px;stroke-linecap:butt;stroke-linejoin:miter;stroke-opacity:1" d="M 259.907,659.583 259.907,688.336 z" id="boundary" inkscape:connector-curvature="0" />
	<path style="fill:none;stroke:red;stroke-width:1px;stroke-linecap:butt;stroke-linejoin:miter;stroke-opacity:1" d="M 259.907,688.336 259.907,717.09 z" id="boundary" inkscape:connector-curvature="0" />
	<path style="fill:none;stroke:red;stroke-width:1px;stroke-linecap:butt;stroke-linejoin:miter;stroke-opacity:1" d="M 259.907,717.09 259.907,745.843 z" id="boundary" inkscape:connector-curvature="0" />
	<path style="fill:none;stroke:red;stroke-width:1px;stroke-linecap:butt;stroke-linejoin:miter;stroke-opacity:1" d="M 259.907,745.843 259.907,774.597 z" id="boundary" inkscape:connector-curvature="0" />
	<path style="fill:none;stroke:red;stroke-width:1px;stroke-linecap:butt;stroke-linejoin:miter;stroke-opacity:1" d="M 259.907,774.597 259.907,803.351 z" id="boundary" inkscape:connector-curvature="0" />
	<path style="fill:none;stroke:red;stroke-width:1px;stroke-linecap:butt;stroke-linejoin:miter;stroke-opacity:1" d="M 259.907,803.351 259.907,832.104 z" id="boundary" inkscape:connector-curvature="0" />
	<path style="fill:none;stroke:red;stroke-width:1px;stroke-linecap:butt;stroke-linejoin:miter;stroke-opacity:1" d="M 259.907,832.104 259.907,860.858 z" id="boundary" inkscape:connector-curvature="0" />
	<path style="fill:none;stroke:red;stroke-width:1px;stroke-linecap:butt;stroke-linejoin:miter;stroke-opacity:1" d="M 259.907,860.858 259.907,889.612 z" id="boundary" inkscape:connector-curvature="0" />
	<path style="fill:none;stroke:red;stroke-width:1px;stroke-linecap:butt;stroke-linejoin:miter;stroke-opacity:1" d="M 259.907,889.612 265.658,918.365 z" id="boundary" inkscape:connector-curvature="0" />
	<path style="fill:none;stroke:red;stroke-width:1px;stroke-linecap:butt;stroke-linejoin:miter;stroke-opacity:1" d="M 265.658,918.365 265.658,947.119 z" id="boundary" inkscape:connector-curvature="0" />
	<path style="fill:none;stroke:red;stroke-width:1px;stroke-linecap:butt;stroke-linejoin:miter;stroke-opacity:1" d="M 285.786,15.5014 308.788,32.7536 z" id="boundary" inkscape:connector-curvature="0" />
	<path style="fill:none;stroke:red;stroke-width:1px;stroke-linecap:butt;stroke-linejoin:miter;stroke-opacity:1" d="M 288.661,93.1362 311.664,110.388 z" id="boundary" inkscape:connector-curvature="0" />
	<path style="fill:none;stroke:red;stroke-width:1px;stroke-linecap:butt;stroke-linejoin:miter;stroke-opacity:1" d="M 308.788,32.7536 331.791,52.8812 z" id="boundary" inkscape:connector-curvature="0" />
	<path style="fill:none;stroke:red;stroke-width:1px;stroke-linecap:butt;stroke-linejoin:miter;stroke-opacity:1" d="M 311.664,110.388 331.791,133.391 z" id="boundary" inkscape:connector-curvature="0" />
	<path style="fill:none;stroke:red;stroke-width:1px;stroke-linecap:butt;stroke-linejoin:miter;stroke-opacity:1" d="M 331.791,52.8812 349.043,75.8841 z" id="boundary" inkscape:connector-curvature="0" />
	<path style="fill:none;stroke:red;stroke-width:1px;stroke-linecap:butt;stroke-linejoin:miter;stroke-opacity:1" d="M 331.791,133.391 346.168,159.27 z" id="boundary" inkscape:connector-curvature="0" />
	<path style="fill:none;stroke:red;stroke-width:1px;stroke-linecap:butt;stroke-linejoin:miter;stroke-opacity:1" d="M 346.168,159.27 369.171,179.397 z" id="boundary" inkscape:connector-curvature="0" />
	<path style="fill:none;stroke:red;stroke-width:1px;stroke-linecap:butt;stroke-linejoin:miter;stroke-opacity:1" d="M 349.043,75.8841 366.296,98.887 z" id="boundary" inkscape:connector-curvature="0" />
	<path style="fill:none;stroke:red;stroke-width:1px;stroke-linecap:butt;stroke-linejoin:miter;stroke-opacity:1" d="M 366.296,98.887 380.672,124.765 z" id="boundary" inkscape:connector-curvature="0" />
	<path style="fill:none;stroke:red;stroke-width:1px;stroke-linecap:butt;stroke-linejoin:miter;stroke-opacity:1" d="M 369.171,179.397 386.423,153.519 z" id="boundary" inkscape:connector-curvature="0" />
	<path style="fill:none;stroke:red;stroke-width:1px;stroke-linecap:butt;stroke-linejoin:miter;stroke-opacity:1" d="M 380.672,124.765 386.423,153.519 z" id="boundary" inkscape:connector-curvature="0" />
	<circle cx="4" cy="21.2522" r="4" fill="#0" id="circle0"/>
	<circle cx="4" cy="50.0058" r="4" fill="#0" id="circle1"/>
	<circle cx="9.75072" cy="78.7594" r="4" fill="#0" id="circle2"/>
	<circle cx="27.0029" cy="4" r="4" fill="#0" id="circle3"/>
	<circle cx="35.629" cy="93.1362" r="4" fill="#0" id="circle4"/>
	<circle cx="55.7565" cy="4" r="4" fill="#0" id="circle5"/>
	<circle cx="64.3826" cy="81.6348" r="4" fill="#0" id="circle6"/>
	<circle cx="84.5101" cy="15.5014" r="4" fill="#0" id="circle7"/>
	<circle cx="93.1362" cy="75.8841" r="4" fill="#0" id="circle8"/>
	<circle cx="113.264" cy="15.5014" r="4" fill="#0" id="circle9"/>
	<circle cx="113.264" cy="964.371" r="4" fill="#0" id="circle10"/>
	<circle cx="113.264" cy="993.125" r="4" fill="#0" id="circle11"/>
	<circle cx="119.014" cy="90.2609" r="4" fill="#0" id="circle12"/>
	<circle cx="119.014" cy="855.107" r="4" fill="#0" id="circle13"/>
	<circle cx="119.014" cy="883.861" r="4" fill="#0" id="circle14"/>
	<circle cx="119.014" cy="912.614" r="4" fill="#0" id="circle15"/>
	<circle cx="124.765" cy="119.014" r="4" fill="#0" id="circle16"/>
	<circle cx="124.765" cy="147.768" r="4" fill="#0" id="circle17"/>
	<circle cx="124.765" cy="487.061" r="4" fill="#0" id="circle18"/>
	<circle cx="124.765" cy="515.814" r="4" fill="#0" id="circle19"/>
	<circle cx="124.765" cy="544.568" r="4" fill="#0" id="circle20"/>
	<circle cx="124.765" cy="573.322" r="4" fill="#0" id="circle21"/>
	<circle cx="124.765" cy="602.075" r="4" fill="#0" id="circle22"/>
	<circle cx="124.765" cy="630.829" r="4" fill="#0" id="circle23"/>
	<circle cx="124.765" cy="659.583" r="4" fill="#0" id="circle24"/>
	<circle cx="124.765" cy="688.336" r="4" fill="#0" id="circle25"/>
	<circle cx="124.765" cy="717.09" r="4" fill="#0" id="circle26"/>
	<circle cx="124.765" cy="745.843" r="4" fill="#0" id="circle27"/>
	<circle cx="124.765" cy="774.597" r="4" fill="#0" id="circle28"/>
	<circle cx="124.765" cy="803.351" r="4" fill="#0" id="circle29"/>
	<circle cx="139.142" cy="173.646" r="4" fill="#0" id="circle30"/>
	<circle cx="139.142" cy="461.183" r="4" fill="#0" id="circle31"/>
	<circle cx="142.017" cy="4" r="4" fill="#0" id="circle32"/>
	<circle cx="142.017" cy="996" r="4" fill="#0" id="circle33"/>
	<circle cx="147.768" cy="202.4" r="4" fill="#0" id="circle34"/>
	<circle cx="147.768" cy="231.154" r="4" fill="#0" id="circle35"/>
	<circle cx="147.768" cy="423.803" r="4" fill="#0" id="circle36"/>
	<circle cx="153.519" cy="259.907" r="4" fill="#0" id="circle37"/>
	<circle cx="153.519" cy="288.661" r="4" fill="#0" id="circle38"/>
	<circle cx="153.519" cy="317.414" r="4" fill="#0" id="circle39"/>
	<circle cx="153.519" cy="346.168" r="4" fill="#0" id="circle40"/>
	<circle cx="153.519" cy="374.922" r="4" fill="#0" id="circle41"/>
	<circle cx="170.771" cy="4" r="4" fill="#0" id="circle42"/>
	<circle cx="170.771" cy="996" r="4" fill="#0" id="circle43"/>
	<circle cx="199.525" cy="4" r="4" fill="#0" id="circle44"/>
	<circle cx="199.525" cy="996" r="4" fill="#0" id="circle45"/>
	<circle cx="228.278" cy="4" r="4" fill="#0" id="circle46"/>
	<circle cx="228.278" cy="996" r="4" fill="#0" id="circle47"/>
	<circle cx="231.154" cy="228.278" r="4" fill="#0" id="circle48"/>
	<circle cx="231.154" cy="257.032" r="4" fill="#0" id="circle49"/>
	<circle cx="231.154" cy="285.786" r="4" fill="#0" id="circle50"/>
	<circle cx="231.154" cy="314.539" r="4" fill="#0" id="circle51"/>
	<circle cx="231.154" cy="343.293" r="4" fill="#0" id="circle52"/>
	<circle cx="231.154" cy="372.046" r="4" fill="#0" id="circle53"/>
	<circle cx="231.154" cy="400.8" r="4" fill="#0" id="circle54"/>
	<circle cx="234.029" cy="429.554" r="4" fill="#0" id="circle55"/>
	<circle cx="236.904" cy="193.774" r="4" fill="#0" id="circle56"/>
	<circle cx="242.655" cy="458.307" r="4" fill="#0" id="circle57"/>
	<circle cx="248.406" cy="159.27" r="4" fill="#0" id="circle58"/>
	<circle cx="254.157" cy="487.061" r="4" fill="#0" id="circle59"/>
	<circle cx="257.032" cy="4" r="4" fill="#0" id="circle60"/>
	<circle cx="257.032" cy="996" r="4" fill="#0" id="circle61"/>
	<circle cx="259.907" cy="96.0116" r="4" fill="#0" id="circle62"/>
	<circle cx="259.907" cy="124.765" r="4" fill="#0" id="circle63"/>
	<circle cx="259.907" cy="515.814" r="4" fill="#0" id="circle64"/>
	<circle cx="259.907" cy="544.568" r="4" fill="#0" id="circle65"/>
	<circle cx="259.907" cy="573.322" r="4" fill="#0" id="circle66"/>
	<circle cx="259.907" cy="602.075" r="4" fill="#0" id="circle67"/>
	<circle cx="259.907" cy="630.829" r="4" fill="#0" id="circle68"/>
	<circle cx="259.907" cy="659.583" r="4" fill="#0" id="circle69"/>
	<circle cx="259.907" cy="688.336" r="4" fill="#0" id="circle70"/>
	<circle cx="259.907" cy="717.09" r="4" fill="#0" id="circle71"/>
	<circle cx="259.907" cy="745.843" r="4" fill="#0" id="circle72"/>
	<circle cx="259.907" cy="774.597" r="4" fill="#0" id="circle73"/>
	<circle cx="259.907" cy="803.351" r="4" fill="#0" id="circle74"/>
	<circle cx="259.907" cy="832.104" r="4" fill="#0" id="circle75"/>
	<circle cx="259.907" cy="860.858" r="4" fill="#0" id="circle76"/>
	<circle cx="259.907" cy="889.612" r="4" fill="#0" id="circle77"/>
	<circle cx="265.658" cy="918.365" r="4" fill="#0" id="circle78"/>
	<circle cx="265.658" cy="947.119" r="4" fill="#0" id="circle79"/>
	<circle cx="285.786" cy="15.5014" r="4" fill="#0" id="circle80"/>
	<circle cx="288.661" cy="93.1362" r="4" fill="#0" id="circle81"/>
	<circle cx="308.788" cy="32.7536" r="4" fill="#0" id="circle82"/>
	<circle cx="311.664" cy="110.388" r="4" fill="#0" id="circle83"/>
	<circle cx="331.791" cy="52.8812" r="4" fill="#0" id="circle84"/>
	<circle cx="331.791" cy="133.391" r="4" fill="#0" id="circle85"/>
	<circle cx="346.168" cy="159.27" r="4" fill="#0" id="circle86"/>
	<circle cx="349.043" cy="75.8841" r="4" fill="#0" id="circle87"/>
	<circle cx="366.296" cy="98.887" r="4" fill="#0" id="circle88"/>
	<circle cx="369.171" cy="179.397" r="4" fill="#0" id="circle89"/>
	<circle cx="380.672" cy="124.765" r="4" fill="#0" id="circle90"/>
	<circle cx="386.423" cy="153.519" r="4" fill="#0" id="circle91"/>
	</g>
</svg>