<?xml version="1.0" encoding="UTF-8" standalone="no"?>
<!-- Created with CurveBenchmark -->
<svg
	xmlns:dc="http://purl.org/dc/elements/1.1/"
	xmlns:cc="http://creativecommons.org/ns#"
	xmlns:rdf="http://www.w3.org/1999/02/22-rdf-syntax-ns#"
	xmlns:svg="http://www.w3.org/2000/svg"
	xmlns="http://www.w3.org/2000/svg"
	xmlns:sodipodi="http://sodipodi.sourceforge.net/DTD/sodipodi-0.dtd"
	xmlns:inkscape="http://www.inkscape.org/namespaces/inkscape"
	width="1000"
	height="1000"
	id="svg2"
	version="1.1"
	sodipodi:docname="manifold/fitconnect-children16.png.txt">
<defs
	id="defs4" />
<metadata
	id="metadata7">
	<rdf:RDF>
		<cc:Work
			rdf:about="">
			<dc:format>image/svg+xml</dc:format>
			<dc:type
				rdf:resource="http://purl.org/dc/dcmitype/StillImage" />
			<dc:title></dc:title>
		</cc:Work>
	</rdf:RDF>
</metadata>
<g
	inkscape:label="Layer 1"
	inkscape:groupmode="layer"
	id="layer1">
	<path style="fill:none;stroke:red;stroke-width:1px;stroke-linecap:butt;stroke-linejoin:miter;stroke-opacity:1" d="M 4,314.309 4,330.815 z" id="boundary" inkscape:connector-curvature="0" />
	<path style="fill:none;stroke:red;stroke-width:1px;stroke-linecap:butt;stroke-linejoin:miter;stroke-opacity:1" d="M 4,314.309 12.2529,289.551 z" id="boundary" inkscape:connector-curvature="0" />
	<path style="fill:none;stroke:red;stroke-width:1px;stroke-linecap:butt;stroke-linejoin:miter;stroke-opacity:1" d="M 4,330.815 4,347.321 z" id="boundary" inkscape:connector-curvature="0" />
	<path style="fill:none;stroke:red;stroke-width:1px;stroke-linecap:butt;stroke-linejoin:miter;stroke-opacity:1" d="M 4,347.321 12.2529,362.176 z" id="boundary" inkscape:connector-curvature="0" />
	<path style="fill:none;stroke:red;stroke-width:1px;stroke-linecap:butt;stroke-linejoin:miter;stroke-opacity:1" d="M 12.2529,99.7338 20.5058,83.228 z" id="boundary" inkscape:connector-curvature="0" />
	<path style="fill:none;stroke:red;stroke-width:1px;stroke-linecap:butt;stroke-linejoin:miter;stroke-opacity:1" d="M 12.2529,99.7338 20.5058,114.589 z" id="boundary" inkscape:connector-curvature="0" />
	<path style="fill:none;stroke:red;stroke-width:1px;stroke-linecap:butt;stroke-linejoin:miter;stroke-opacity:1" d="M 12.2529,289.551 20.5058,273.045 z" id="boundary" inkscape:connector-curvature="0" />
	<path style="fill:none;stroke:red;stroke-width:1px;stroke-linecap:butt;stroke-linejoin:miter;stroke-opacity:1" d="M 12.2529,362.176 20.5058,377.032 z" id="boundary" inkscape:connector-curvature="0" />
	<path style="fill:none;stroke:red;stroke-width:1px;stroke-linecap:butt;stroke-linejoin:miter;stroke-opacity:1" d="M 20.5058,83.228 28.7587,58.4692 z" id="boundary" inkscape:connector-curvature="0" />
	<path style="fill:none;stroke:red;stroke-width:1px;stroke-linecap:butt;stroke-linejoin:miter;stroke-opacity:1" d="M 20.5058,114.589 28.7587,129.444 z" id="boundary" inkscape:connector-curvature="0" />
	<path style="fill:none;stroke:red;stroke-width:1px;stroke-linecap:butt;stroke-linejoin:miter;stroke-opacity:1" d="M 20.5058,273.045 33.7105,259.84 z" id="boundary" inkscape:connector-curvature="0" />
	<path style="fill:none;stroke:red;stroke-width:1px;stroke-linecap:butt;stroke-linejoin:miter;stroke-opacity:1" d="M 20.5058,377.032 25.4576,393.537 z" id="boundary" inkscape:connector-curvature="0" />
	<path style="fill:none;stroke:red;stroke-width:1px;stroke-linecap:butt;stroke-linejoin:miter;stroke-opacity:1" d="M 25.4576,393.537 28.7587,410.043 z" id="boundary" inkscape:connector-curvature="0" />
	<path style="fill:none;stroke:red;stroke-width:1px;stroke-linecap:butt;stroke-linejoin:miter;stroke-opacity:1" d="M 28.7587,58.4692 37.0116,41.9634 z" id="boundary" inkscape:connector-curvature="0" />
	<path style="fill:none;stroke:red;stroke-width:1px;stroke-linecap:butt;stroke-linejoin:miter;stroke-opacity:1" d="M 28.7587,129.444 33.7105,145.95 z" id="boundary" inkscape:connector-curvature="0" />
	<path style="fill:none;stroke:red;stroke-width:1px;stroke-linecap:butt;stroke-linejoin:miter;stroke-opacity:1" d="M 28.7587,410.043 28.7587,426.549 z" id="boundary" inkscape:connector-curvature="0" />
	<path style="fill:none;stroke:red;stroke-width:1px;stroke-linecap:butt;stroke-linejoin:miter;stroke-opacity:1" d="M 28.7587,426.549 28.7587,443.055 z" id="boundary" inkscape:connector-curvature="0" />
	<path style="fill:none;stroke:red;stroke-width:1px;stroke-linecap:butt;stroke-linejoin:miter;stroke-opacity:1" d="M 28.7587,443.055 28.7587,459.561 z" id="boundary" inkscape:connector-curvature="0" />
	<path style="fill:none;stroke:red;stroke-width:1px;stroke-linecap:butt;stroke-linejoin:miter;stroke-opacity:1" d="M 28.7587,459.561 28.7587,476.067 z" id="boundary" inkscape:connector-curvature="0" />
	<path style="fill:none;stroke:red;stroke-width:1px;stroke-linecap:butt;stroke-linejoin:miter;stroke-opacity:1" d="M 28.7587,476.067 37.0116,490.922 z" id="boundary" inkscape:connector-curvature="0" />
	<path style="fill:none;stroke:red;stroke-width:1px;stroke-linecap:butt;stroke-linejoin:miter;stroke-opacity:1" d="M 28.7587,545.391 28.7587,561.897 z" id="boundary" inkscape:connector-curvature="0" />
	<path style="fill:none;stroke:red;stroke-width:1px;stroke-linecap:butt;stroke-linejoin:miter;stroke-opacity:1" d="M 28.7587,545.391 37.0116,523.933 z" id="boundary" inkscape:connector-curvature="0" />
	<path style="fill:none;stroke:red;stroke-width:1px;stroke-linecap:butt;stroke-linejoin:miter;stroke-opacity:1" d="M 28.7587,561.897 37.0116,576.752 z" id="boundary" inkscape:connector-curvature="0" />
	<path style="fill:none;stroke:red;stroke-width:1px;stroke-linecap:butt;stroke-linejoin:miter;stroke-opacity:1" d="M 33.7105,145.95 41.9634,160.805 z" id="boundary" inkscape:connector-curvature="0" />
	<path style="fill:none;stroke:red;stroke-width:1px;stroke-linecap:butt;stroke-linejoin:miter;stroke-opacity:1" d="M 33.7105,259.84 50.2163,251.587 z" id="boundary" inkscape:connector-curvature="0" />
	<path style="fill:none;stroke:red;stroke-width:1px;stroke-linecap:butt;stroke-linejoin:miter;stroke-opacity:1" d="M 37.0116,41.9634 53.5175,33.7105 z" id="boundary" inkscape:connector-curvature="0" />
	<path style="fill:none;stroke:red;stroke-width:1px;stroke-linecap:butt;stroke-linejoin:miter;stroke-opacity:1" d="M 37.0116,490.922 37.0116,507.428 z" id="boundary" inkscape:connector-curvature="0" />
	<path style="fill:none;stroke:red;stroke-width:1px;stroke-linecap:butt;stroke-linejoin:miter;stroke-opacity:1" d="M 37.0116,507.428 37.0116,523.933 z" id="boundary" inkscape:connector-curvature="0" />
	<path style="fill:none;stroke:red;stroke-width:1px;stroke-linecap:butt;stroke-linejoin:miter;stroke-opacity:1" d="M 37.0116,576.752 37.0116,593.258 z" id="boundary" inkscape:connector-curvature="0" />
	<path style="fill:none;stroke:red;stroke-width:1px;stroke-linecap:butt;stroke-linejoin:miter;stroke-opacity:1" d="M 37.0116,593.258 45.2646,608.113 z" id="boundary" inkscape:connector-curvature="0" />
	<path style="fill:none;stroke:red;stroke-width:1px;stroke-linecap:butt;stroke-linejoin:miter;stroke-opacity:1" d="M 41.9634,160.805 53.5175,174.01 z" id="boundary" inkscape:connector-curvature="0" />
	<path style="fill:none;stroke:red;stroke-width:1px;stroke-linecap:butt;stroke-linejoin:miter;stroke-opacity:1" d="M 45.2646,608.113 53.5175,622.968 z" id="boundary" inkscape:connector-curvature="0" />
	<path style="fill:none;stroke:red;stroke-width:1px;stroke-linecap:butt;stroke-linejoin:miter;stroke-opacity:1" d="M 50.2163,251.587 63.421,238.383 z" id="boundary" inkscape:connector-curvature="0" />
	<path style="fill:none;stroke:red;stroke-width:1px;stroke-linecap:butt;stroke-linejoin:miter;stroke-opacity:1" d="M 53.5175,33.7105 70.0233,25.4576 z" id="boundary" inkscape:connector-curvature="0" />
	<path style="fill:none;stroke:red;stroke-width:1px;stroke-linecap:butt;stroke-linejoin:miter;stroke-opacity:1" d="M 53.5175,174.01 61.7704,188.865 z" id="boundary" inkscape:connector-curvature="0" />
	<path style="fill:none;stroke:red;stroke-width:1px;stroke-linecap:butt;stroke-linejoin:miter;stroke-opacity:1" d="M 53.5175,622.968 53.5175,639.474 z" id="boundary" inkscape:connector-curvature="0" />
	<path style="fill:none;stroke:red;stroke-width:1px;stroke-linecap:butt;stroke-linejoin:miter;stroke-opacity:1" d="M 53.5175,639.474 56.8186,655.98 z" id="boundary" inkscape:connector-curvature="0" />
	<path style="fill:none;stroke:red;stroke-width:1px;stroke-linecap:butt;stroke-linejoin:miter;stroke-opacity:1" d="M 56.8186,655.98 65.0715,670.835 z" id="boundary" inkscape:connector-curvature="0" />
	<path style="fill:none;stroke:red;stroke-width:1px;stroke-linecap:butt;stroke-linejoin:miter;stroke-opacity:1" d="M 61.7704,188.865 70.0233,203.72 z" id="boundary" inkscape:connector-curvature="0" />
	<path style="fill:none;stroke:red;stroke-width:1px;stroke-linecap:butt;stroke-linejoin:miter;stroke-opacity:1" d="M 63.421,238.383 70.0233,220.226 z" id="boundary" inkscape:connector-curvature="0" />
	<path style="fill:none;stroke:red;stroke-width:1px;stroke-linecap:butt;stroke-linejoin:miter;stroke-opacity:1" d="M 65.0715,670.835 78.2762,682.389 z" id="boundary" inkscape:connector-curvature="0" />
	<path style="fill:none;stroke:red;stroke-width:1px;stroke-linecap:butt;stroke-linejoin:miter;stroke-opacity:1" d="M 70.0233,25.4576 83.228,12.2529 z" id="boundary" inkscape:connector-curvature="0" />
	<path style="fill:none;stroke:red;stroke-width:1px;stroke-linecap:butt;stroke-linejoin:miter;stroke-opacity:1" d="M 70.0233,203.72 70.0233,220.226 z" id="boundary" inkscape:connector-curvature="0" />
	<path style="fill:none;stroke:red;stroke-width:1px;stroke-linecap:butt;stroke-linejoin:miter;stroke-opacity:1" d="M 78.2762,682.389 88.1797,695.594 z" id="boundary" inkscape:connector-curvature="0" />
	<path style="fill:none;stroke:red;stroke-width:1px;stroke-linecap:butt;stroke-linejoin:miter;stroke-opacity:1" d="M 78.2762,792.978 78.2762,809.484 z" id="boundary" inkscape:connector-curvature="0" />
	<path style="fill:none;stroke:red;stroke-width:1px;stroke-linecap:butt;stroke-linejoin:miter;stroke-opacity:1" d="M 78.2762,792.978 86.5291,776.473 z" id="boundary" inkscape:connector-curvature="0" />
	<path style="fill:none;stroke:red;stroke-width:1px;stroke-linecap:butt;stroke-linejoin:miter;stroke-opacity:1" d="M 78.2762,809.484 78.2762,825.99 z" id="boundary" inkscape:connector-curvature="0" />
	<path style="fill:none;stroke:red;stroke-width:1px;stroke-linecap:butt;stroke-linejoin:miter;stroke-opacity:1" d="M 78.2762,825.99 78.2762,842.496 z" id="boundary" inkscape:connector-curvature="0" />
	<path style="fill:none;stroke:red;stroke-width:1px;stroke-linecap:butt;stroke-linejoin:miter;stroke-opacity:1" d="M 78.2762,842.496 78.2762,859.002 z" id="boundary" inkscape:connector-curvature="0" />
	<path style="fill:none;stroke:red;stroke-width:1px;stroke-linecap:butt;stroke-linejoin:miter;stroke-opacity:1" d="M 78.2762,859.002 86.5291,873.857 z" id="boundary" inkscape:connector-curvature="0" />
	<path style="fill:none;stroke:red;stroke-width:1px;stroke-linecap:butt;stroke-linejoin:miter;stroke-opacity:1" d="M 78.2762,941.531 86.5291,923.374 z" id="boundary" inkscape:connector-curvature="0" />
	<path style="fill:none;stroke:red;stroke-width:1px;stroke-linecap:butt;stroke-linejoin:miter;stroke-opacity:1" d="M 78.2762,941.531 86.5291,956.386 z" id="boundary" inkscape:connector-curvature="0" />
	<path style="fill:none;stroke:red;stroke-width:1px;stroke-linecap:butt;stroke-linejoin:miter;stroke-opacity:1" d="M 83.228,12.2529 99.7338,4 z" id="boundary" inkscape:connector-curvature="0" />
	<path style="fill:none;stroke:red;stroke-width:1px;stroke-linecap:butt;stroke-linejoin:miter;stroke-opacity:1" d="M 86.5291,776.473 94.782,761.617 z" id="boundary" inkscape:connector-curvature="0" />
	<path style="fill:none;stroke:red;stroke-width:1px;stroke-linecap:butt;stroke-linejoin:miter;stroke-opacity:1" d="M 86.5291,873.857 86.5291,890.363 z" id="boundary" inkscape:connector-curvature="0" />
	<path style="fill:none;stroke:red;stroke-width:1px;stroke-linecap:butt;stroke-linejoin:miter;stroke-opacity:1" d="M 86.5291,890.363 86.5291,906.869 z" id="boundary" inkscape:connector-curvature="0" />
	<path style="fill:none;stroke:red;stroke-width:1px;stroke-linecap:butt;stroke-linejoin:miter;stroke-opacity:1" d="M 86.5291,906.869 86.5291,923.374 z" id="boundary" inkscape:connector-curvature="0" />
	<path style="fill:none;stroke:red;stroke-width:1px;stroke-linecap:butt;stroke-linejoin:miter;stroke-opacity:1" d="M 86.5291,956.386 94.782,971.241 z" id="boundary" inkscape:connector-curvature="0" />
	<path style="fill:none;stroke:red;stroke-width:1px;stroke-linecap:butt;stroke-linejoin:miter;stroke-opacity:1" d="M 88.1797,695.594 94.782,712.1 z" id="boundary" inkscape:connector-curvature="0" />
	<path style="fill:none;stroke:red;stroke-width:1px;stroke-linecap:butt;stroke-linejoin:miter;stroke-opacity:1" d="M 94.782,712.1 94.782,728.606 z" id="boundary" inkscape:connector-curvature="0" />
	<path style="fill:none;stroke:red;stroke-width:1px;stroke-linecap:butt;stroke-linejoin:miter;stroke-opacity:1" d="M 94.782,728.606 94.782,745.111 z" id="boundary" inkscape:connector-curvature="0" />
	<path style="fill:none;stroke:red;stroke-width:1px;stroke-linecap:butt;stroke-linejoin:miter;stroke-opacity:1" d="M 94.782,745.111 94.782,761.617 z" id="boundary" inkscape:connector-curvature="0" />
	<path style="fill:none;stroke:red;stroke-width:1px;stroke-linecap:butt;stroke-linejoin:miter;stroke-opacity:1" d="M 94.782,971.241 109.637,979.494 z" id="boundary" inkscape:connector-curvature="0" />
	<path style="fill:none;stroke:red;stroke-width:1px;stroke-linecap:butt;stroke-linejoin:miter;stroke-opacity:1" d="M 99.7338,4 116.24,4 z" id="boundary" inkscape:connector-curvature="0" />
	<path style="fill:none;stroke:red;stroke-width:1px;stroke-linecap:butt;stroke-linejoin:miter;stroke-opacity:1" d="M 109.637,979.494 124.493,987.747 z" id="boundary" inkscape:connector-curvature="0" />
	<path style="fill:none;stroke:red;stroke-width:1px;stroke-linecap:butt;stroke-linejoin:miter;stroke-opacity:1" d="M 116.24,4 132.745,4 z" id="boundary" inkscape:connector-curvature="0" />
	<path style="fill:none;stroke:red;stroke-width:1px;stroke-linecap:butt;stroke-linejoin:miter;stroke-opacity:1" d="M 124.493,987.747 140.998,987.747 z" id="boundary" inkscape:connector-curvature="0" />
	<path style="fill:none;stroke:red;stroke-width:1px;stroke-linecap:butt;stroke-linejoin:miter;stroke-opacity:1" d="M 132.745,4 149.251,4 z" id="boundary" inkscape:connector-curvature="0" />
	<path style="fill:none;stroke:red;stroke-width:1px;stroke-linecap:butt;stroke-linejoin:miter;stroke-opacity:1" d="M 140.998,987.747 157.504,987.747 z" id="boundary" inkscape:connector-curvature="0" />
	<path style="fill:none;stroke:red;stroke-width:1px;stroke-linecap:butt;stroke-linejoin:miter;stroke-opacity:1" d="M 149.251,4 165.757,4 z" id="boundary" inkscape:connector-curvature="0" />
	<path style="fill:none;stroke:red;stroke-width:1px;stroke-linecap:butt;stroke-linejoin:miter;stroke-opacity:1" d="M 157.504,987.747 172.359,996 z" id="boundary" inkscape:connector-curvature="0" />
	<path style="fill:none;stroke:red;stroke-width:1px;stroke-linecap:butt;stroke-linejoin:miter;stroke-opacity:1" d="M 165.757,4 180.612,12.2529 z" id="boundary" inkscape:connector-curvature="0" />
	<path style="fill:none;stroke:red;stroke-width:1px;stroke-linecap:butt;stroke-linejoin:miter;stroke-opacity:1" d="M 172.359,996 188.865,996 z" id="boundary" inkscape:connector-curvature="0" />
	<path style="fill:none;stroke:red;stroke-width:1px;stroke-linecap:butt;stroke-linejoin:miter;stroke-opacity:1" d="M 180.612,12.2529 195.468,20.5058 z" id="boundary" inkscape:connector-curvature="0" />
	<path style="fill:none;stroke:red;stroke-width:1px;stroke-linecap:butt;stroke-linejoin:miter;stroke-opacity:1" d="M 188.865,996 205.371,996 z" id="boundary" inkscape:connector-curvature="0" />
	<path style="fill:none;stroke:red;stroke-width:1px;stroke-linecap:butt;stroke-linejoin:miter;stroke-opacity:1" d="M 195.468,20.5058 210.323,28.7587 z" id="boundary" inkscape:connector-curvature="0" />
	<path style="fill:none;stroke:red;stroke-width:1px;stroke-linecap:butt;stroke-linejoin:miter;stroke-opacity:1" d="M 205.371,996 221.877,996 z" id="boundary" inkscape:connector-curvature="0" />
	<path style="fill:none;stroke:red;stroke-width:1px;stroke-linecap:butt;stroke-linejoin:miter;stroke-opacity:1" d="M 210.323,28.7587 226.829,32.0599 z" id="boundary" inkscape:connector-curvature="0" />
	<path style="fill:none;stroke:red;stroke-width:1px;stroke-linecap:butt;stroke-linejoin:miter;stroke-opacity:1" d="M 221.877,996 236.732,987.747 z" id="boundary" inkscape:connector-curvature="0" />
	<path style="fill:none;stroke:red;stroke-width:1px;stroke-linecap:butt;stroke-linejoin:miter;stroke-opacity:1" d="M 226.829,32.0599 241.684,40.3128 z" id="boundary" inkscape:connector-curvature="0" />
	<path style="fill:none;stroke:red;stroke-width:1px;stroke-linecap:butt;stroke-linejoin:miter;stroke-opacity:1" d="M 228.479,880.459 236.732,863.953 z" id="boundary" inkscape:connector-curvature="0" />
	<path style="fill:none;stroke:red;stroke-width:1px;stroke-linecap:butt;stroke-linejoin:miter;stroke-opacity:1" d="M 228.479,880.459 236.732,895.314 z" id="boundary" inkscape:connector-curvature="0" />
	<path style="fill:none;stroke:red;stroke-width:1px;stroke-linecap:butt;stroke-linejoin:miter;stroke-opacity:1" d="M 236.732,830.942 236.732,847.448 z" id="boundary" inkscape:connector-curvature="0" />
	<path style="fill:none;stroke:red;stroke-width:1px;stroke-linecap:butt;stroke-linejoin:miter;stroke-opacity:1" d="M 236.732,830.942 244.985,806.183 z" id="boundary" inkscape:connector-curvature="0" />
	<path style="fill:none;stroke:red;stroke-width:1px;stroke-linecap:butt;stroke-linejoin:miter;stroke-opacity:1" d="M 236.732,847.448 236.732,863.953 z" id="boundary" inkscape:connector-curvature="0" />
	<path style="fill:none;stroke:red;stroke-width:1px;stroke-linecap:butt;stroke-linejoin:miter;stroke-opacity:1" d="M 236.732,895.314 244.985,910.17 z" id="boundary" inkscape:connector-curvature="0" />
	<path style="fill:none;stroke:red;stroke-width:1px;stroke-linecap:butt;stroke-linejoin:miter;stroke-opacity:1" d="M 236.732,987.747 253.238,987.747 z" id="boundary" inkscape:connector-curvature="0" />
	<path style="fill:none;stroke:red;stroke-width:1px;stroke-linecap:butt;stroke-linejoin:miter;stroke-opacity:1" d="M 241.684,40.3128 253.238,53.5175 z" id="boundary" inkscape:connector-curvature="0" />
	<path style="fill:none;stroke:red;stroke-width:1px;stroke-linecap:butt;stroke-linejoin:miter;stroke-opacity:1" d="M 244.985,773.171 244.985,789.677 z" id="boundary" inkscape:connector-curvature="0" />
	<path style="fill:none;stroke:red;stroke-width:1px;stroke-linecap:butt;stroke-linejoin:miter;stroke-opacity:1" d="M 244.985,773.171 253.238,756.666 z" id="boundary" inkscape:connector-curvature="0" />
	<path style="fill:none;stroke:red;stroke-width:1px;stroke-linecap:butt;stroke-linejoin:miter;stroke-opacity:1" d="M 244.985,789.677 244.985,806.183 z" id="boundary" inkscape:connector-curvature="0" />
	<path style="fill:none;stroke:red;stroke-width:1px;stroke-linecap:butt;stroke-linejoin:miter;stroke-opacity:1" d="M 244.985,910.17 261.491,911.82 z" id="boundary" inkscape:connector-curvature="0" />
	<path style="fill:none;stroke:red;stroke-width:1px;stroke-linecap:butt;stroke-linejoin:miter;stroke-opacity:1" d="M 253.238,53.5175 261.491,68.3727 z" id="boundary" inkscape:connector-curvature="0" />
	<path style="fill:none;stroke:red;stroke-width:1px;stroke-linecap:butt;stroke-linejoin:miter;stroke-opacity:1" d="M 253.238,211.973 253.238,228.479 z" id="boundary" inkscape:connector-curvature="0" />
	<path style="fill:none;stroke:red;stroke-width:1px;stroke-linecap:butt;stroke-linejoin:miter;stroke-opacity:1" d="M 253.238,211.973 261.491,183.913 z" id="boundary" inkscape:connector-curvature="0" />
	<path style="fill:none;stroke:red;stroke-width:1px;stroke-linecap:butt;stroke-linejoin:miter;stroke-opacity:1" d="M 253.238,228.479 253.238,244.985 z" id="boundary" inkscape:connector-curvature="0" />
	<path style="fill:none;stroke:red;stroke-width:1px;stroke-linecap:butt;stroke-linejoin:miter;stroke-opacity:1" d="M 253.238,244.985 261.491,259.84 z" id="boundary" inkscape:connector-curvature="0" />
	<path style="fill:none;stroke:red;stroke-width:1px;stroke-linecap:butt;stroke-linejoin:miter;stroke-opacity:1" d="M 253.238,756.666 261.491,740.16 z" id="boundary" inkscape:connector-curvature="0" />
	<path style="fill:none;stroke:red;stroke-width:1px;stroke-linecap:butt;stroke-linejoin:miter;stroke-opacity:1" d="M 253.238,987.747 269.744,987.747 z" id="boundary" inkscape:connector-curvature="0" />
	<path style="fill:none;stroke:red;stroke-width:1px;stroke-linecap:butt;stroke-linejoin:miter;stroke-opacity:1" d="M 261.491,68.3727 261.491,84.8785 z" id="boundary" inkscape:connector-curvature="0" />
	<path style="fill:none;stroke:red;stroke-width:1px;stroke-linecap:butt;stroke-linejoin:miter;stroke-opacity:1" d="M 261.491,84.8785 261.491,101.384 z" id="boundary" inkscape:connector-curvature="0" />
	<path style="fill:none;stroke:red;stroke-width:1px;stroke-linecap:butt;stroke-linejoin:miter;stroke-opacity:1" d="M 261.491,101.384 261.491,117.89 z" id="boundary" inkscape:connector-curvature="0" />
	<path style="fill:none;stroke:red;stroke-width:1px;stroke-linecap:butt;stroke-linejoin:miter;stroke-opacity:1" d="M 261.491,117.89 261.491,134.396 z" id="boundary" inkscape:connector-curvature="0" />
	<path style="fill:none;stroke:red;stroke-width:1px;stroke-linecap:butt;stroke-linejoin:miter;stroke-opacity:1" d="M 261.491,134.396 261.491,150.902 z" id="boundary" inkscape:connector-curvature="0" />
	<path style="fill:none;stroke:red;stroke-width:1px;stroke-linecap:butt;stroke-linejoin:miter;stroke-opacity:1" d="M 261.491,150.902 261.491,167.408 z" id="boundary" inkscape:connector-curvature="0" />
	<path style="fill:none;stroke:red;stroke-width:1px;stroke-linecap:butt;stroke-linejoin:miter;stroke-opacity:1" d="M 261.491,167.408 261.491,183.913 z" id="boundary" inkscape:connector-curvature="0" />
	<path style="fill:none;stroke:red;stroke-width:1px;stroke-linecap:butt;stroke-linejoin:miter;stroke-opacity:1" d="M 261.491,259.84 269.744,274.696 z" id="boundary" inkscape:connector-curvature="0" />
	<path style="fill:none;stroke:red;stroke-width:1px;stroke-linecap:butt;stroke-linejoin:miter;stroke-opacity:1" d="M 261.491,690.642 261.491,707.148 z" id="boundary" inkscape:connector-curvature="0" />
	<path style="fill:none;stroke:red;stroke-width:1px;stroke-linecap:butt;stroke-linejoin:miter;stroke-opacity:1" d="M 261.491,690.642 269.744,674.136 z" id="boundary" inkscape:connector-curvature="0" />
	<path style="fill:none;stroke:red;stroke-width:1px;stroke-linecap:butt;stroke-linejoin:miter;stroke-opacity:1" d="M 261.491,707.148 261.491,723.654 z" id="boundary" inkscape:connector-curvature="0" />
	<path style="fill:none;stroke:red;stroke-width:1px;stroke-linecap:butt;stroke-linejoin:miter;stroke-opacity:1" d="M 261.491,723.654 261.491,740.16 z" id="boundary" inkscape:connector-curvature="0" />
	<path style="fill:none;stroke:red;stroke-width:1px;stroke-linecap:butt;stroke-linejoin:miter;stroke-opacity:1" d="M 261.491,911.82 276.346,920.073 z" id="boundary" inkscape:connector-curvature="0" />
	<path style="fill:none;stroke:red;stroke-width:1px;stroke-linecap:butt;stroke-linejoin:miter;stroke-opacity:1" d="M 269.744,274.696 277.997,289.551 z" id="boundary" inkscape:connector-curvature="0" />
	<path style="fill:none;stroke:red;stroke-width:1px;stroke-linecap:butt;stroke-linejoin:miter;stroke-opacity:1" d="M 269.744,674.136 286.25,665.884 z" id="boundary" inkscape:connector-curvature="0" />
	<path style="fill:none;stroke:red;stroke-width:1px;stroke-linecap:butt;stroke-linejoin:miter;stroke-opacity:1" d="M 269.744,987.747 286.25,979.494 z" id="boundary" inkscape:connector-curvature="0" />
	<path style="fill:none;stroke:red;stroke-width:1px;stroke-linecap:butt;stroke-linejoin:miter;stroke-opacity:1" d="M 276.346,920.073 291.201,928.326 z" id="boundary" inkscape:connector-curvature="0" />
	<path style="fill:none;stroke:red;stroke-width:1px;stroke-linecap:butt;stroke-linejoin:miter;stroke-opacity:1" d="M 277.997,289.551 277.997,306.057 z" id="boundary" inkscape:connector-curvature="0" />
	<path style="fill:none;stroke:red;stroke-width:1px;stroke-linecap:butt;stroke-linejoin:miter;stroke-opacity:1" d="M 277.997,306.057 277.997,322.562 z" id="boundary" inkscape:connector-curvature="0" />
	<path style="fill:none;stroke:red;stroke-width:1px;stroke-linecap:butt;stroke-linejoin:miter;stroke-opacity:1" d="M 277.997,322.562 286.25,337.418 z" id="boundary" inkscape:connector-curvature="0" />
	<path style="fill:none;stroke:red;stroke-width:1px;stroke-linecap:butt;stroke-linejoin:miter;stroke-opacity:1" d="M 286.25,337.418 286.25,353.923 z" id="boundary" inkscape:connector-curvature="0" />
	<path style="fill:none;stroke:red;stroke-width:1px;stroke-linecap:butt;stroke-linejoin:miter;stroke-opacity:1" d="M 286.25,353.923 286.25,370.429 z" id="boundary" inkscape:connector-curvature="0" />
	<path style="fill:none;stroke:red;stroke-width:1px;stroke-linecap:butt;stroke-linejoin:miter;stroke-opacity:1" d="M 286.25,370.429 286.25,386.935 z" id="boundary" inkscape:connector-curvature="0" />
	<path style="fill:none;stroke:red;stroke-width:1px;stroke-linecap:butt;stroke-linejoin:miter;stroke-opacity:1" d="M 286.25,386.935 294.502,401.79 z" id="boundary" inkscape:connector-curvature="0" />
	<path style="fill:none;stroke:red;stroke-width:1px;stroke-linecap:butt;stroke-linejoin:miter;stroke-opacity:1" d="M 286.25,665.884 299.454,654.329 z" id="boundary" inkscape:connector-curvature="0" />
	<path style="fill:none;stroke:red;stroke-width:1px;stroke-linecap:butt;stroke-linejoin:miter;stroke-opacity:1" d="M 286.25,979.494 302.755,971.241 z" id="boundary" inkscape:connector-curvature="0" />
	<path style="fill:none;stroke:red;stroke-width:1px;stroke-linecap:butt;stroke-linejoin:miter;stroke-opacity:1" d="M 291.201,928.326 306.057,936.579 z" id="boundary" inkscape:connector-curvature="0" />
	<path style="fill:none;stroke:red;stroke-width:1px;stroke-linecap:butt;stroke-linejoin:miter;stroke-opacity:1" d="M 294.502,401.79 297.804,418.296 z" id="boundary" inkscape:connector-curvature="0" />
	<path style="fill:none;stroke:red;stroke-width:1px;stroke-linecap:butt;stroke-linejoin:miter;stroke-opacity:1" d="M 297.804,418.296 302.755,434.802 z" id="boundary" inkscape:connector-curvature="0" />
	<path style="fill:none;stroke:red;stroke-width:1px;stroke-linecap:butt;stroke-linejoin:miter;stroke-opacity:1" d="M 299.454,654.329 311.008,641.125 z" id="boundary" inkscape:connector-curvature="0" />
	<path style="fill:none;stroke:red;stroke-width:1px;stroke-linecap:butt;stroke-linejoin:miter;stroke-opacity:1" d="M 302.755,434.802 311.008,449.657 z" id="boundary" inkscape:connector-curvature="0" />
	<path style="fill:none;stroke:red;stroke-width:1px;stroke-linecap:butt;stroke-linejoin:miter;stroke-opacity:1" d="M 302.755,971.241 315.96,959.687 z" id="boundary" inkscape:connector-curvature="0" />
	<path style="fill:none;stroke:red;stroke-width:1px;stroke-linecap:butt;stroke-linejoin:miter;stroke-opacity:1" d="M 306.057,936.579 315.96,959.687 z" id="boundary" inkscape:connector-curvature="0" />
	<path style="fill:none;stroke:red;stroke-width:1px;stroke-linecap:butt;stroke-linejoin:miter;stroke-opacity:1" d="M 311.008,449.657 311.008,466.163 z" id="boundary" inkscape:connector-curvature="0" />
	<path style="fill:none;stroke:red;stroke-width:1px;stroke-linecap:butt;stroke-linejoin:miter;stroke-opacity:1" d="M 311.008,466.163 319.261,481.018 z" id="boundary" inkscape:connector-curvature="0" />
	<path style="fill:none;stroke:red;stroke-width:1px;stroke-linecap:butt;stroke-linejoin:miter;stroke-opacity:1" d="M 311.008,624.619 311.008,641.125 z" id="boundary" inkscape:connector-curvature="0" />
	<path style="fill:none;stroke:red;stroke-width:1px;stroke-linecap:butt;stroke-linejoin:miter;stroke-opacity:1" d="M 311.008,624.619 319.261,608.113 z" id="boundary" inkscape:connector-curvature="0" />
	<path style="fill:none;stroke:red;stroke-width:1px;stroke-linecap:butt;stroke-linejoin:miter;stroke-opacity:1" d="M 319.261,481.018 327.514,495.874 z" id="boundary" inkscape:connector-curvature="0" />
	<path style="fill:none;stroke:red;stroke-width:1px;stroke-linecap:butt;stroke-linejoin:miter;stroke-opacity:1" d="M 319.261,608.113 335.767,608.113 z" id="boundary" inkscape:connector-curvature="0" />
	<path style="fill:none;stroke:red;stroke-width:1px;stroke-linecap:butt;stroke-linejoin:miter;stroke-opacity:1" d="M 327.514,495.874 339.068,509.078 z" id="boundary" inkscape:connector-curvature="0" />
	<path style="fill:none;stroke:red;stroke-width:1px;stroke-linecap:butt;stroke-linejoin:miter;stroke-opacity:1" d="M 335.767,608.113 352.273,599.86 z" id="boundary" inkscape:connector-curvature="0" />
	<path style="fill:none;stroke:red;stroke-width:1px;stroke-linecap:butt;stroke-linejoin:miter;stroke-opacity:1" d="M 339.068,509.078 352.273,520.632 z" id="boundary" inkscape:connector-curvature="0" />
	<path style="fill:none;stroke:red;stroke-width:1px;stroke-linecap:butt;stroke-linejoin:miter;stroke-opacity:1" d="M 352.273,520.632 363.827,533.837 z" id="boundary" inkscape:connector-curvature="0" />
	<path style="fill:none;stroke:red;stroke-width:1px;stroke-linecap:butt;stroke-linejoin:miter;stroke-opacity:1" d="M 352.273,599.86 365.478,588.306 z" id="boundary" inkscape:connector-curvature="0" />
	<path style="fill:none;stroke:red;stroke-width:1px;stroke-linecap:butt;stroke-linejoin:miter;stroke-opacity:1" d="M 363.827,533.837 368.779,550.343 z" id="boundary" inkscape:connector-curvature="0" />
	<path style="fill:none;stroke:red;stroke-width:1px;stroke-linecap:butt;stroke-linejoin:miter;stroke-opacity:1" d="M 365.478,588.306 368.779,566.849 z" id="boundary" inkscape:connector-curvature="0" />
	<path style="fill:none;stroke:red;stroke-width:1px;stroke-linecap:butt;stroke-linejoin:miter;stroke-opacity:1" d="M 368.779,550.343 368.779,566.849 z" id="boundary" inkscape:connector-curvature="0" />
	<circle cx="4" cy="314.309" r="4" fill="#0" id="circle0"/>
	<circle cx="4" cy="330.815" r="4" fill="#0" id="circle1"/>
	<circle cx="4" cy="347.321" r="4" fill="#0" id="circle2"/>
	<circle cx="12.2529" cy="99.7338" r="4" fill="#0" id="circle3"/>
	<circle cx="12.2529" cy="289.551" r="4" fill="#0" id="circle4"/>
	<circle cx="12.2529" cy="362.176" r="4" fill="#0" id="circle5"/>
	<circle cx="20.5058" cy="83.228" r="4" fill="#0" id="circle6"/>
	<circle cx="20.5058" cy="114.589" r="4" fill="#0" id="circle7"/>
	<circle cx="20.5058" cy="273.045" r="4" fill="#0" id="circle8"/>
	<circle cx="20.5058" cy="377.032" r="4" fill="#0" id="circle9"/>
	<circle cx="25.4576" cy="393.537" r="4" fill="#0" id="circle10"/>
	<circle cx="28.7587" cy="58.4692" r="4" fill="#0" id="circle11"/>
	<circle cx="28.7587" cy="129.444" r="4" fill="#0" id="circle12"/>
	<circle cx="28.7587" cy="410.043" r="4" fill="#0" id="circle13"/>
	<circle cx="28.7587" cy="426.549" r="4" fill="#0" id="circle14"/>
	<circle cx="28.7587" cy="443.055" r="4" fill="#0" id="circle15"/>
	<circle cx="28.7587" cy="459.561" r="4" fill="#0" id="circle16"/>
	<circle cx="28.7587" cy="476.067" r="4" fill="#0" id="circle17"/>
	<circle cx="28.7587" cy="545.391" r="4" fill="#0" id="circle18"/>
	<circle cx="28.7587" cy="561.897" r="4" fill="#0" id="circle19"/>
	<circle cx="33.7105" cy="145.95" r="4" fill="#0" id="circle20"/>
	<circle cx="33.7105" cy="259.84" r="4" fill="#0" id="circle21"/>
	<circle cx="37.0116" cy="41.9634" r="4" fill="#0" id="circle22"/>
	<circle cx="37.0116" cy="490.922" r="4" fill="#0" id="circle23"/>
	<circle cx="37.0116" cy="507.428" r="4" fill="#0" id="circle24"/>
	<circle cx="37.0116" cy="523.933" r="4" fill="#0" id="circle25"/>
	<circle cx="37.0116" cy="576.752" r="4" fill="#0" id="circle26"/>
	<circle cx="37.0116" cy="593.258" r="4" fill="#0" id="circle27"/>
	<circle cx="41.9634" cy="160.805" r="4" fill="#0" id="circle28"/>
	<circle cx="45.2646" cy="608.113" r="4" fill="#0" id="circle29"/>
	<circle cx="50.2163" cy="251.587" r="4" fill="#0" id="circle30"/>
	<circle cx="53.5175" cy="33.7105" r="4" fill="#0" id="circle31"/>
	<circle cx="53.5175" cy="174.01" r="4" fill="#0" id="circle32"/>
	<circle cx="53.5175" cy="622.968" r="4" fill="#0" id="circle33"/>
	<circle cx="53.5175" cy="639.474" r="4" fill="#0" id="circle34"/>
	<circle cx="56.8186" cy="655.98" r="4" fill="#0" id="circle35"/>
	<circle cx="61.7704" cy="188.865" r="4" fill="#0" id="circle36"/>
	<circle cx="63.421" cy="238.383" r="4" fill="#0" id="circle37"/>
	<circle cx="65.0715" cy="670.835" r="4" fill="#0" id="circle38"/>
	<circle cx="70.0233" cy="25.4576" r="4" fill="#0" id="circle39"/>
	<circle cx="70.0233" cy="203.72" r="4" fill="#0" id="circle40"/>
	<circle cx="70.0233" cy="220.226" r="4" fill="#0" id="circle41"/>
	<circle cx="78.2762" cy="682.389" r="4" fill="#0" id="circle42"/>
	<circle cx="78.2762" cy="792.978" r="4" fill="#0" id="circle43"/>
	<circle cx="78.2762" cy="809.484" r="4" fill="#0" id="circle44"/>
	<circle cx="78.2762" cy="825.99" r="4" fill="#0" id="circle45"/>
	<circle cx="78.2762" cy="842.496" r="4" fill="#0" id="circle46"/>
	<circle cx="78.2762" cy="859.002" r="4" fill="#0" id="circle47"/>
	<circle cx="78.2762" cy="941.531" r="4" fill="#0" id="circle48"/>
	<circle cx="83.228" cy="12.2529" r="4" fill="#0" id="circle49"/>
	<circle cx="86.5291" cy="776.473" r="4" fill="#0" id="circle50"/>
	<circle cx="86.5291" cy="873.857" r="4" fill="#0" id="circle51"/>
	<circle cx="86.5291" cy="890.363" r="4" fill="#0" id="circle52"/>
	<circle cx="86.5291" cy="906.869" r="4" fill="#0" id="circle53"/>
	<circle cx="86.5291" cy="923.374" r="4" fill="#0" id="circle54"/>
	<circle cx="86.5291" cy="956.386" r="4" fill="#0" id="circle55"/>
	<circle cx="88.1797" cy="695.594" r="4" fill="#0" id="circle56"/>
	<circle cx="94.782" cy="712.1" r="4" fill="#0" id="circle57"/>
	<circle cx="94.782" cy="728.606" r="4" fill="#0" id="circle58"/>
	<circle cx="94.782" cy="745.111" r="4" fill="#0" id="circle59"/>
	<circle cx="94.782" cy="761.617" r="4" fill="#0" id="circle60"/>
	<circle cx="94.782" cy="971.241" r="4" fill="#0" id="circle61"/>
	<circle cx="99.7338" cy="4" r="4" fill="#0" id="circle62"/>
	<circle cx="109.637" cy="979.494" r="4" fill="#0" id="circle63"/>
	<circle cx="116.24" cy="4" r="4" fill="#0" id="circle64"/>
	<circle cx="124.493" cy="987.747" r="4" fill="#0" id="circle65"/>
	<circle cx="132.745" cy="4" r="4" fill="#0" id="circle66"/>
	<circle cx="140.998" cy="987.747" r="4" fill="#0" id="circle67"/>
	<circle cx="149.251" cy="4" r="4" fill="#0" id="circle68"/>
	<circle cx="157.504" cy="987.747" r="4" fill="#0" id="circle69"/>
	<circle cx="165.757" cy="4" r="4" fill="#0" id="circle70"/>
	<circle cx="172.359" cy="996" r="4" fill="#0" id="circle71"/>
	<circle cx="180.612" cy="12.2529" r="4" fill="#0" id="circle72"/>
	<circle cx="188.865" cy="996" r="4" fill="#0" id="circle73"/>
	<circle cx="195.468" cy="20.5058" r="4" fill="#0" id="circle74"/>
	<circle cx="205.371" cy="996" r="4" fill="#0" id="circle75"/>
	<circle cx="210.323" cy="28.7587" r="4" fill="#0" id="circle76"/>
	<circle cx="221.877" cy="996" r="4" fill="#0" id="circle77"/>
	<circle cx="226.829" cy="32.0599" r="4" fill="#0" id="circle78"/>
	<circle cx="228.479" cy="880.459" r="4" fill="#0" id="circle79"/>
	<circle cx="236.732" cy="830.942" r="4" fill="#0" id="circle80"/>
	<circle cx="236.732" cy="847.448" r="4" fill="#0" id="circle81"/>
	<circle cx="236.732" cy="863.953" r="4" fill="#0" id="circle82"/>
	<circle cx="236.732" cy="895.314" r="4" fill="#0" id="circle83"/>
	<circle cx="236.732" cy="987.747" r="4" fill="#0" id="circle84"/>
	<circle cx="241.684" cy="40.3128" r="4" fill="#0" id="circle85"/>
	<circle cx="244.985" cy="773.171" r="4" fill="#0" id="circle86"/>
	<circle cx="244.985" cy="789.677" r="4" fill="#0" id="circle87"/>
	<circle cx="244.985" cy="806.183" r="4" fill="#0" id="circle88"/>
	<circle cx="244.985" cy="910.17" r="4" fill="#0" id="circle89"/>
	<circle cx="253.238" cy="53.5175" r="4" fill="#0" id="circle90"/>
	<circle cx="253.238" cy="211.973" r="4" fill="#0" id="circle91"/>
	<circle cx="253.238" cy="228.479" r="4" fill="#0" id="circle92"/>
	<circle cx="253.238" cy="244.985" r="4" fill="#0" id="circle93"/>
	<circle cx="253.238" cy="756.666" r="4" fill="#0" id="circle94"/>
	<circle cx="253.238" cy="987.747" r="4" fill="#0" id="circle95"/>
	<circle cx="261.491" cy="68.3727" r="4" fill="#0" id="circle96"/>
	<circle cx="261.491" cy="84.8785" r="4" fill="#0" id="circle97"/>
	<circle cx="261.491" cy="101.384" r="4" fill="#0" id="circle98"/>
	<circle cx="261.491" cy="117.89" r="4" fill="#0" id="circle99"/>
	<circle cx="261.491" cy="134.396" r="4" fill="#0" id="circle100"/>
	<circle cx="261.491" cy="150.902" r="4" fill="#0" id="circle101"/>
	<circle cx="261.491" cy="167.408" r="4" fill="#0" id="circle102"/>
	<circle cx="261.491" cy="183.913" r="4" fill="#0" id="circle103"/>
	<circle cx="261.491" cy="259.84" r="4" fill="#0" id="circle104"/>
	<circle cx="261.491" cy="690.642" r="4" fill="#0" id="circle105"/>
	<circle cx="261.491" cy="707.148" r="4" fill="#0" id="circle106"/>
	<circle cx="261.491" cy="723.654" r="4" fill="#0" id="circle107"/>
	<circle cx="261.491" cy="740.16" r="4" fill="#0" id="circle108"/>
	<circle cx="261.491" cy="911.82" r="4" fill="#0" id="circle109"/>
	<circle cx="269.744" cy="274.696" r="4" fill="#0" id="circle110"/>
	<circle cx="269.744" cy="674.136" r="4" fill="#0" id="circle111"/>
	<circle cx="269.744" cy="987.747" r="4" fill="#0" id="circle112"/>
	<circle cx="276.346" cy="920.073" r="4" fill="#0" id="circle113"/>
	<circle cx="277.997" cy="289.551" r="4" fill="#0" id="circle114"/>
	<circle cx="277.997" cy="306.057" r="4" fill="#0" id="circle115"/>
	<circle cx="277.997" cy="322.562" r="4" fill="#0" id="circle116"/>
	<circle cx="286.25" cy="337.418" r="4" fill="#0" id="circle117"/>
	<circle cx="286.25" cy="353.923" r="4" fill="#0" id="circle118"/>
	<circle cx="286.25" cy="370.429" r="4" fill="#0" id="circle119"/>
	<circle cx="286.25" cy="386.935" r="4" fill="#0" id="circle120"/>
	<circle cx="286.25" cy="665.884" r="4" fill="#0" id="circle121"/>
	<circle cx="286.25" cy="979.494" r="4" fill="#0" id="circle122"/>
	<circle cx="291.201" cy="928.326" r="4" fill="#0" id="circle123"/>
	<circle cx="294.502" cy="401.79" r="4" fill="#0" id="circle124"/>
	<circle cx="297.804" cy="418.296" r="4" fill="#0" id="circle125"/>
	<circle cx="299.454" cy="654.329" r="4" fill="#0" id="circle126"/>
	<circle cx="302.755" cy="434.802" r="4" fill="#0" id="circle127"/>
	<circle cx="302.755" cy="971.241" r="4" fill="#0" id="circle128"/>
	<circle cx="306.057" cy="936.579" r="4" fill="#0" id="circle129"/>
	<circle cx="311.008" cy="449.657" r="4" fill="#0" id="circle130"/>
	<circle cx="311.008" cy="466.163" r="4" fill="#0" id="circle131"/>
	<circle cx="311.008" cy="624.619" r="4" fill="#0" id="circle132"/>
	<circle cx="311.008" cy="641.125" r="4" fill="#0" id="circle133"/>
	<circle cx="315.96" cy="959.687" r="4" fill="#0" id="circle134"/>
	<circle cx="319.261" cy="481.018" r="4" fill="#0" id="circle135"/>
	<circle cx="319.261" cy="608.113" r="4" fill="#0" id="circle136"/>
	<circle cx="327.514" cy="495.874" r="4" fill="#0" id="circle137"/>
	<circle cx="335.767" cy="608.113" r="4" fill="#0" id="circle138"/>
	<circle cx="339.068" cy="509.078" r="4" fill="#0" id="circle139"/>
	<circle cx="352.273" cy="520.632" r="4" fill="#0" id="circle140"/>
	<circle cx="352.273" cy="599.86" r="4" fill="#0" id="circle141"/>
	<circle cx="363.827" cy="533.837" r="4" fill="#0" id="circle142"/>
	<circle cx="365.478" cy="588.306" r="4" fill="#0" id="circle143"/>
	<circle cx="368.779" cy="550.343" r="4" fill="#0" id="circle144"/>
	<circle cx="368.779" cy="566.849" r="4" fill="#0" id="circle145"/>
	</g>
</svg>