<?xml version="1.0" encoding="UTF-8" standalone="no"?>
<!-- Created with CurveBenchmark -->
<svg
	xmlns:dc="http://purl.org/dc/elements/1.1/"
	xmlns:cc="http://creativecommons.org/ns#"
	xmlns:rdf="http://www.w3.org/1999/02/22-rdf-syntax-ns#"
	xmlns:svg="http://www.w3.org/2000/svg"
	xmlns="http://www.w3.org/2000/svg"
	xmlns:sodipodi="http://sodipodi.sourceforge.net/DTD/sodipodi-0.dtd"
	xmlns:inkscape="http://www.inkscape.org/namespaces/inkscape"
	width="1000"
	height="1000"
	id="svg2"
	version="1.1"
	sodipodi:docname="manifold/fitconnect-Misk25.png.txt">
<defs
	id="defs4" />
<metadata
	id="metadata7">
	<rdf:RDF>
		<cc:Work
			rdf:about="">
			<dc:format>image/svg+xml</dc:format>
			<dc:type
				rdf:resource="http://purl.org/dc/dcmitype/StillImage" />
			<dc:title></dc:title>
		</cc:Work>
	</rdf:RDF>
</metadata>
<g
	inkscape:label="Layer 1"
	inkscape:groupmode="layer"
	id="layer1">
	<path style="fill:none;stroke:red;stroke-width:1px;stroke-linecap:butt;stroke-linejoin:miter;stroke-opacity:1" d="M 4,270.573 4,285.14 z" id="boundary" inkscape:connector-curvature="0" />
	<path style="fill:none;stroke:red;stroke-width:1px;stroke-linecap:butt;stroke-linejoin:miter;stroke-opacity:1" d="M 4,270.573 18.5668,266.203 z" id="boundary" inkscape:connector-curvature="0" />
	<path style="fill:none;stroke:red;stroke-width:1px;stroke-linecap:butt;stroke-linejoin:miter;stroke-opacity:1" d="M 4,285.14 18.5668,289.51 z" id="boundary" inkscape:connector-curvature="0" />
	<path style="fill:none;stroke:red;stroke-width:1px;stroke-linecap:butt;stroke-linejoin:miter;stroke-opacity:1" d="M 18.5668,266.203 33.1336,263.289 z" id="boundary" inkscape:connector-curvature="0" />
	<path style="fill:none;stroke:red;stroke-width:1px;stroke-linecap:butt;stroke-linejoin:miter;stroke-opacity:1" d="M 18.5668,289.51 22.9369,304.076 z" id="boundary" inkscape:connector-curvature="0" />
	<path style="fill:none;stroke:red;stroke-width:1px;stroke-linecap:butt;stroke-linejoin:miter;stroke-opacity:1" d="M 22.9369,304.076 37.5037,304.076 z" id="boundary" inkscape:connector-curvature="0" />
	<path style="fill:none;stroke:red;stroke-width:1px;stroke-linecap:butt;stroke-linejoin:miter;stroke-opacity:1" d="M 33.1336,263.289 47.7004,258.919 z" id="boundary" inkscape:connector-curvature="0" />
	<path style="fill:none;stroke:red;stroke-width:1px;stroke-linecap:butt;stroke-linejoin:miter;stroke-opacity:1" d="M 37.5037,304.076 52.0705,304.076 z" id="boundary" inkscape:connector-curvature="0" />
	<path style="fill:none;stroke:red;stroke-width:1px;stroke-linecap:butt;stroke-linejoin:miter;stroke-opacity:1" d="M 47.7004,258.919 62.2673,258.919 z" id="boundary" inkscape:connector-curvature="0" />
	<path style="fill:none;stroke:red;stroke-width:1px;stroke-linecap:butt;stroke-linejoin:miter;stroke-opacity:1" d="M 52.0705,304.076 66.6373,304.076 z" id="boundary" inkscape:connector-curvature="0" />
	<path style="fill:none;stroke:red;stroke-width:1px;stroke-linecap:butt;stroke-linejoin:miter;stroke-opacity:1" d="M 62.2673,258.919 75.3774,251.636 z" id="boundary" inkscape:connector-curvature="0" />
	<path style="fill:none;stroke:red;stroke-width:1px;stroke-linecap:butt;stroke-linejoin:miter;stroke-opacity:1" d="M 66.6373,304.076 73.9207,317.186 z" id="boundary" inkscape:connector-curvature="0" />
	<path style="fill:none;stroke:red;stroke-width:1px;stroke-linecap:butt;stroke-linejoin:miter;stroke-opacity:1" d="M 73.9207,317.186 85.5742,325.927 z" id="boundary" inkscape:connector-curvature="0" />
	<path style="fill:none;stroke:red;stroke-width:1px;stroke-linecap:butt;stroke-linejoin:miter;stroke-opacity:1" d="M 75.3774,251.636 89.9442,251.636 z" id="boundary" inkscape:connector-curvature="0" />
	<path style="fill:none;stroke:red;stroke-width:1px;stroke-linecap:butt;stroke-linejoin:miter;stroke-opacity:1" d="M 85.5742,325.927 98.6843,333.21 z" id="boundary" inkscape:connector-curvature="0" />
	<path style="fill:none;stroke:red;stroke-width:1px;stroke-linecap:butt;stroke-linejoin:miter;stroke-opacity:1" d="M 89.9442,251.636 103.054,244.352 z" id="boundary" inkscape:connector-curvature="0" />
	<path style="fill:none;stroke:red;stroke-width:1px;stroke-linecap:butt;stroke-linejoin:miter;stroke-opacity:1" d="M 91.4009,707.577 91.4009,722.144 z" id="boundary" inkscape:connector-curvature="0" />
	<path style="fill:none;stroke:red;stroke-width:1px;stroke-linecap:butt;stroke-linejoin:miter;stroke-opacity:1" d="M 91.4009,707.577 98.6843,685.727 z" id="boundary" inkscape:connector-curvature="0" />
	<path style="fill:none;stroke:red;stroke-width:1px;stroke-linecap:butt;stroke-linejoin:miter;stroke-opacity:1" d="M 91.4009,722.144 91.4009,736.711 z" id="boundary" inkscape:connector-curvature="0" />
	<path style="fill:none;stroke:red;stroke-width:1px;stroke-linecap:butt;stroke-linejoin:miter;stroke-opacity:1" d="M 91.4009,736.711 91.4009,751.278 z" id="boundary" inkscape:connector-curvature="0" />
	<path style="fill:none;stroke:red;stroke-width:1px;stroke-linecap:butt;stroke-linejoin:miter;stroke-opacity:1" d="M 91.4009,751.278 98.6843,764.388 z" id="boundary" inkscape:connector-curvature="0" />
	<path style="fill:none;stroke:red;stroke-width:1px;stroke-linecap:butt;stroke-linejoin:miter;stroke-opacity:1" d="M 98.6843,333.21 107.424,344.863 z" id="boundary" inkscape:connector-curvature="0" />
	<path style="fill:none;stroke:red;stroke-width:1px;stroke-linecap:butt;stroke-linejoin:miter;stroke-opacity:1" d="M 98.6843,685.727 105.968,671.16 z" id="boundary" inkscape:connector-curvature="0" />
	<path style="fill:none;stroke:red;stroke-width:1px;stroke-linecap:butt;stroke-linejoin:miter;stroke-opacity:1" d="M 98.6843,764.388 98.6843,778.954 z" id="boundary" inkscape:connector-curvature="0" />
	<path style="fill:none;stroke:red;stroke-width:1px;stroke-linecap:butt;stroke-linejoin:miter;stroke-opacity:1" d="M 98.6843,778.954 105.968,792.065 z" id="boundary" inkscape:connector-curvature="0" />
	<path style="fill:none;stroke:red;stroke-width:1px;stroke-linecap:butt;stroke-linejoin:miter;stroke-opacity:1" d="M 103.054,244.352 117.621,244.352 z" id="boundary" inkscape:connector-curvature="0" />
	<path style="fill:none;stroke:red;stroke-width:1px;stroke-linecap:butt;stroke-linejoin:miter;stroke-opacity:1" d="M 105.968,671.16 117.621,659.507 z" id="boundary" inkscape:connector-curvature="0" />
	<path style="fill:none;stroke:red;stroke-width:1px;stroke-linecap:butt;stroke-linejoin:miter;stroke-opacity:1" d="M 105.968,792.065 114.708,803.718 z" id="boundary" inkscape:connector-curvature="0" />
	<path style="fill:none;stroke:red;stroke-width:1px;stroke-linecap:butt;stroke-linejoin:miter;stroke-opacity:1" d="M 107.424,344.863 119.078,355.06 z" id="boundary" inkscape:connector-curvature="0" />
	<path style="fill:none;stroke:red;stroke-width:1px;stroke-linecap:butt;stroke-linejoin:miter;stroke-opacity:1" d="M 114.708,803.718 126.361,813.915 z" id="boundary" inkscape:connector-curvature="0" />
	<path style="fill:none;stroke:red;stroke-width:1px;stroke-linecap:butt;stroke-linejoin:miter;stroke-opacity:1" d="M 117.621,244.352 132.188,237.069 z" id="boundary" inkscape:connector-curvature="0" />
	<path style="fill:none;stroke:red;stroke-width:1px;stroke-linecap:butt;stroke-linejoin:miter;stroke-opacity:1" d="M 117.621,659.507 127.818,642.026 z" id="boundary" inkscape:connector-curvature="0" />
	<path style="fill:none;stroke:red;stroke-width:1px;stroke-linecap:butt;stroke-linejoin:miter;stroke-opacity:1" d="M 119.078,355.06 129.275,366.714 z" id="boundary" inkscape:connector-curvature="0" />
	<path style="fill:none;stroke:red;stroke-width:1px;stroke-linecap:butt;stroke-linejoin:miter;stroke-opacity:1" d="M 126.361,813.915 139.471,806.631 z" id="boundary" inkscape:connector-curvature="0" />
	<path style="fill:none;stroke:red;stroke-width:1px;stroke-linecap:butt;stroke-linejoin:miter;stroke-opacity:1" d="M 127.818,642.026 135.101,620.176 z" id="boundary" inkscape:connector-curvature="0" />
	<path style="fill:none;stroke:red;stroke-width:1px;stroke-linecap:butt;stroke-linejoin:miter;stroke-opacity:1" d="M 129.275,366.714 136.558,379.824 z" id="boundary" inkscape:connector-curvature="0" />
	<path style="fill:none;stroke:red;stroke-width:1px;stroke-linecap:butt;stroke-linejoin:miter;stroke-opacity:1" d="M 132.188,237.069 143.841,225.416 z" id="boundary" inkscape:connector-curvature="0" />
	<path style="fill:none;stroke:red;stroke-width:1px;stroke-linecap:butt;stroke-linejoin:miter;stroke-opacity:1" d="M 135.101,620.176 142.385,605.609 z" id="boundary" inkscape:connector-curvature="0" />
	<path style="fill:none;stroke:red;stroke-width:1px;stroke-linecap:butt;stroke-linejoin:miter;stroke-opacity:1" d="M 136.558,379.824 146.755,391.477 z" id="boundary" inkscape:connector-curvature="0" />
	<path style="fill:none;stroke:red;stroke-width:1px;stroke-linecap:butt;stroke-linejoin:miter;stroke-opacity:1" d="M 139.471,806.631 154.038,806.631 z" id="boundary" inkscape:connector-curvature="0" />
	<path style="fill:none;stroke:red;stroke-width:1px;stroke-linecap:butt;stroke-linejoin:miter;stroke-opacity:1" d="M 142.385,605.609 149.668,583.759 z" id="boundary" inkscape:connector-curvature="0" />
	<path style="fill:none;stroke:red;stroke-width:1px;stroke-linecap:butt;stroke-linejoin:miter;stroke-opacity:1" d="M 143.841,225.416 149.668,205.022 z" id="boundary" inkscape:connector-curvature="0" />
	<path style="fill:none;stroke:red;stroke-width:1px;stroke-linecap:butt;stroke-linejoin:miter;stroke-opacity:1" d="M 146.755,391.477 156.952,403.131 z" id="boundary" inkscape:connector-curvature="0" />
	<path style="fill:none;stroke:red;stroke-width:1px;stroke-linecap:butt;stroke-linejoin:miter;stroke-opacity:1" d="M 149.668,190.455 149.668,205.022 z" id="boundary" inkscape:connector-curvature="0" />
	<path style="fill:none;stroke:red;stroke-width:1px;stroke-linecap:butt;stroke-linejoin:miter;stroke-opacity:1" d="M 149.668,190.455 156.952,168.605 z" id="boundary" inkscape:connector-curvature="0" />
	<path style="fill:none;stroke:red;stroke-width:1px;stroke-linecap:butt;stroke-linejoin:miter;stroke-opacity:1" d="M 149.668,583.759 156.952,569.192 z" id="boundary" inkscape:connector-curvature="0" />
	<path style="fill:none;stroke:red;stroke-width:1px;stroke-linecap:butt;stroke-linejoin:miter;stroke-opacity:1" d="M 154.038,806.631 168.605,806.631 z" id="boundary" inkscape:connector-curvature="0" />
	<path style="fill:none;stroke:red;stroke-width:1px;stroke-linecap:butt;stroke-linejoin:miter;stroke-opacity:1" d="M 156.952,154.038 156.952,168.605 z" id="boundary" inkscape:connector-curvature="0" />
	<path style="fill:none;stroke:red;stroke-width:1px;stroke-linecap:butt;stroke-linejoin:miter;stroke-opacity:1" d="M 156.952,154.038 164.235,139.471 z" id="boundary" inkscape:connector-curvature="0" />
	<path style="fill:none;stroke:red;stroke-width:1px;stroke-linecap:butt;stroke-linejoin:miter;stroke-opacity:1" d="M 156.952,403.131 158.408,417.698 z" id="boundary" inkscape:connector-curvature="0" />
	<path style="fill:none;stroke:red;stroke-width:1px;stroke-linecap:butt;stroke-linejoin:miter;stroke-opacity:1" d="M 156.952,569.192 164.235,547.342 z" id="boundary" inkscape:connector-curvature="0" />
	<path style="fill:none;stroke:red;stroke-width:1px;stroke-linecap:butt;stroke-linejoin:miter;stroke-opacity:1" d="M 158.408,417.698 165.692,430.808 z" id="boundary" inkscape:connector-curvature="0" />
	<path style="fill:none;stroke:red;stroke-width:1px;stroke-linecap:butt;stroke-linejoin:miter;stroke-opacity:1" d="M 164.235,110.338 164.235,124.905 z" id="boundary" inkscape:connector-curvature="0" />
	<path style="fill:none;stroke:red;stroke-width:1px;stroke-linecap:butt;stroke-linejoin:miter;stroke-opacity:1" d="M 164.235,110.338 171.518,88.4875 z" id="boundary" inkscape:connector-curvature="0" />
	<path style="fill:none;stroke:red;stroke-width:1px;stroke-linecap:butt;stroke-linejoin:miter;stroke-opacity:1" d="M 164.235,124.905 164.235,139.471 z" id="boundary" inkscape:connector-curvature="0" />
	<path style="fill:none;stroke:red;stroke-width:1px;stroke-linecap:butt;stroke-linejoin:miter;stroke-opacity:1" d="M 164.235,547.342 171.518,532.775 z" id="boundary" inkscape:connector-curvature="0" />
	<path style="fill:none;stroke:red;stroke-width:1px;stroke-linecap:butt;stroke-linejoin:miter;stroke-opacity:1" d="M 165.692,430.808 171.518,445.374 z" id="boundary" inkscape:connector-curvature="0" />
	<path style="fill:none;stroke:red;stroke-width:1px;stroke-linecap:butt;stroke-linejoin:miter;stroke-opacity:1" d="M 168.605,806.631 180.258,816.828 z" id="boundary" inkscape:connector-curvature="0" />
	<path style="fill:none;stroke:red;stroke-width:1px;stroke-linecap:butt;stroke-linejoin:miter;stroke-opacity:1" d="M 171.518,73.9207 171.518,88.4875 z" id="boundary" inkscape:connector-curvature="0" />
	<path style="fill:none;stroke:red;stroke-width:1px;stroke-linecap:butt;stroke-linejoin:miter;stroke-opacity:1" d="M 171.518,73.9207 178.802,52.0705 z" id="boundary" inkscape:connector-curvature="0" />
	<path style="fill:none;stroke:red;stroke-width:1px;stroke-linecap:butt;stroke-linejoin:miter;stroke-opacity:1" d="M 171.518,445.374 171.518,459.941 z" id="boundary" inkscape:connector-curvature="0" />
	<path style="fill:none;stroke:red;stroke-width:1px;stroke-linecap:butt;stroke-linejoin:miter;stroke-opacity:1" d="M 171.518,459.941 171.518,474.508 z" id="boundary" inkscape:connector-curvature="0" />
	<path style="fill:none;stroke:red;stroke-width:1px;stroke-linecap:butt;stroke-linejoin:miter;stroke-opacity:1" d="M 171.518,474.508 171.518,489.075 z" id="boundary" inkscape:connector-curvature="0" />
	<path style="fill:none;stroke:red;stroke-width:1px;stroke-linecap:butt;stroke-linejoin:miter;stroke-opacity:1" d="M 171.518,489.075 171.518,503.642 z" id="boundary" inkscape:connector-curvature="0" />
	<path style="fill:none;stroke:red;stroke-width:1px;stroke-linecap:butt;stroke-linejoin:miter;stroke-opacity:1" d="M 171.518,503.642 171.518,518.209 z" id="boundary" inkscape:connector-curvature="0" />
	<path style="fill:none;stroke:red;stroke-width:1px;stroke-linecap:butt;stroke-linejoin:miter;stroke-opacity:1" d="M 171.518,518.209 171.518,532.775 z" id="boundary" inkscape:connector-curvature="0" />
	<path style="fill:none;stroke:red;stroke-width:1px;stroke-linecap:butt;stroke-linejoin:miter;stroke-opacity:1" d="M 178.802,37.5037 178.802,52.0705 z" id="boundary" inkscape:connector-curvature="0" />
	<path style="fill:none;stroke:red;stroke-width:1px;stroke-linecap:butt;stroke-linejoin:miter;stroke-opacity:1" d="M 178.802,37.5037 186.085,15.6535 z" id="boundary" inkscape:connector-curvature="0" />
	<path style="fill:none;stroke:red;stroke-width:1px;stroke-linecap:butt;stroke-linejoin:miter;stroke-opacity:1" d="M 180.258,816.828 186.085,831.395 z" id="boundary" inkscape:connector-curvature="0" />
	<path style="fill:none;stroke:red;stroke-width:1px;stroke-linecap:butt;stroke-linejoin:miter;stroke-opacity:1" d="M 186.085,15.6535 200.652,11.2834 z" id="boundary" inkscape:connector-curvature="0" />
	<path style="fill:none;stroke:red;stroke-width:1px;stroke-linecap:butt;stroke-linejoin:miter;stroke-opacity:1" d="M 186.085,831.395 197.739,841.592 z" id="boundary" inkscape:connector-curvature="0" />
	<path style="fill:none;stroke:red;stroke-width:1px;stroke-linecap:butt;stroke-linejoin:miter;stroke-opacity:1" d="M 197.739,841.592 207.935,853.245 z" id="boundary" inkscape:connector-curvature="0" />
	<path style="fill:none;stroke:red;stroke-width:1px;stroke-linecap:butt;stroke-linejoin:miter;stroke-opacity:1" d="M 200.652,11.2834 215.219,11.2834 z" id="boundary" inkscape:connector-curvature="0" />
	<path style="fill:none;stroke:red;stroke-width:1px;stroke-linecap:butt;stroke-linejoin:miter;stroke-opacity:1" d="M 207.935,853.245 207.935,867.812 z" id="boundary" inkscape:connector-curvature="0" />
	<path style="fill:none;stroke:red;stroke-width:1px;stroke-linecap:butt;stroke-linejoin:miter;stroke-opacity:1" d="M 207.935,867.812 215.219,880.922 z" id="boundary" inkscape:connector-curvature="0" />
	<path style="fill:none;stroke:red;stroke-width:1px;stroke-linecap:butt;stroke-linejoin:miter;stroke-opacity:1" d="M 215.219,11.2834 229.786,11.2834 z" id="boundary" inkscape:connector-curvature="0" />
	<path style="fill:none;stroke:red;stroke-width:1px;stroke-linecap:butt;stroke-linejoin:miter;stroke-opacity:1" d="M 215.219,880.922 225.416,892.576 z" id="boundary" inkscape:connector-curvature="0" />
	<path style="fill:none;stroke:red;stroke-width:1px;stroke-linecap:butt;stroke-linejoin:miter;stroke-opacity:1" d="M 225.416,892.576 237.069,901.316 z" id="boundary" inkscape:connector-curvature="0" />
	<path style="fill:none;stroke:red;stroke-width:1px;stroke-linecap:butt;stroke-linejoin:miter;stroke-opacity:1" d="M 229.786,11.2834 244.352,11.2834 z" id="boundary" inkscape:connector-curvature="0" />
	<path style="fill:none;stroke:red;stroke-width:1px;stroke-linecap:butt;stroke-linejoin:miter;stroke-opacity:1" d="M 237.069,901.316 245.809,912.969 z" id="boundary" inkscape:connector-curvature="0" />
	<path style="fill:none;stroke:red;stroke-width:1px;stroke-linecap:butt;stroke-linejoin:miter;stroke-opacity:1" d="M 244.352,11.2834 258.919,11.2834 z" id="boundary" inkscape:connector-curvature="0" />
	<path style="fill:none;stroke:red;stroke-width:1px;stroke-linecap:butt;stroke-linejoin:miter;stroke-opacity:1" d="M 245.809,912.969 257.463,923.166 z" id="boundary" inkscape:connector-curvature="0" />
	<path style="fill:none;stroke:red;stroke-width:1px;stroke-linecap:butt;stroke-linejoin:miter;stroke-opacity:1" d="M 257.463,923.166 270.573,930.449 z" id="boundary" inkscape:connector-curvature="0" />
	<path style="fill:none;stroke:red;stroke-width:1px;stroke-linecap:butt;stroke-linejoin:miter;stroke-opacity:1" d="M 258.919,11.2834 273.486,11.2834 z" id="boundary" inkscape:connector-curvature="0" />
	<path style="fill:none;stroke:red;stroke-width:1px;stroke-linecap:butt;stroke-linejoin:miter;stroke-opacity:1" d="M 270.573,930.449 285.14,930.449 z" id="boundary" inkscape:connector-curvature="0" />
	<path style="fill:none;stroke:red;stroke-width:1px;stroke-linecap:butt;stroke-linejoin:miter;stroke-opacity:1" d="M 273.486,11.2834 288.053,11.2834 z" id="boundary" inkscape:connector-curvature="0" />
	<path style="fill:none;stroke:red;stroke-width:1px;stroke-linecap:butt;stroke-linejoin:miter;stroke-opacity:1" d="M 285.14,930.449 299.706,930.449 z" id="boundary" inkscape:connector-curvature="0" />
	<path style="fill:none;stroke:red;stroke-width:1px;stroke-linecap:butt;stroke-linejoin:miter;stroke-opacity:1" d="M 288.053,11.2834 302.62,11.2834 z" id="boundary" inkscape:connector-curvature="0" />
	<path style="fill:none;stroke:red;stroke-width:1px;stroke-linecap:butt;stroke-linejoin:miter;stroke-opacity:1" d="M 299.706,930.449 312.816,937.733 z" id="boundary" inkscape:connector-curvature="0" />
	<path style="fill:none;stroke:red;stroke-width:1px;stroke-linecap:butt;stroke-linejoin:miter;stroke-opacity:1" d="M 302.62,11.2834 317.186,11.2834 z" id="boundary" inkscape:connector-curvature="0" />
	<path style="fill:none;stroke:red;stroke-width:1px;stroke-linecap:butt;stroke-linejoin:miter;stroke-opacity:1" d="M 312.816,937.733 327.383,942.103 z" id="boundary" inkscape:connector-curvature="0" />
	<path style="fill:none;stroke:red;stroke-width:1px;stroke-linecap:butt;stroke-linejoin:miter;stroke-opacity:1" d="M 317.186,11.2834 330.297,4 z" id="boundary" inkscape:connector-curvature="0" />
	<path style="fill:none;stroke:red;stroke-width:1px;stroke-linecap:butt;stroke-linejoin:miter;stroke-opacity:1" d="M 327.383,942.103 340.493,949.386 z" id="boundary" inkscape:connector-curvature="0" />
	<path style="fill:none;stroke:red;stroke-width:1px;stroke-linecap:butt;stroke-linejoin:miter;stroke-opacity:1" d="M 330.297,4 344.863,4 z" id="boundary" inkscape:connector-curvature="0" />
	<path style="fill:none;stroke:red;stroke-width:1px;stroke-linecap:butt;stroke-linejoin:miter;stroke-opacity:1" d="M 340.493,949.386 355.06,955.213 z" id="boundary" inkscape:connector-curvature="0" />
	<path style="fill:none;stroke:red;stroke-width:1px;stroke-linecap:butt;stroke-linejoin:miter;stroke-opacity:1" d="M 344.863,4 359.43,4 z" id="boundary" inkscape:connector-curvature="0" />
	<path style="fill:none;stroke:red;stroke-width:1px;stroke-linecap:butt;stroke-linejoin:miter;stroke-opacity:1" d="M 355.06,955.213 369.627,959.583 z" id="boundary" inkscape:connector-curvature="0" />
	<path style="fill:none;stroke:red;stroke-width:1px;stroke-linecap:butt;stroke-linejoin:miter;stroke-opacity:1" d="M 359.43,4 373.997,4 z" id="boundary" inkscape:connector-curvature="0" />
	<path style="fill:none;stroke:red;stroke-width:1px;stroke-linecap:butt;stroke-linejoin:miter;stroke-opacity:1" d="M 369.627,959.583 382.737,966.866 z" id="boundary" inkscape:connector-curvature="0" />
	<path style="fill:none;stroke:red;stroke-width:1px;stroke-linecap:butt;stroke-linejoin:miter;stroke-opacity:1" d="M 373.997,4 388.564,4 z" id="boundary" inkscape:connector-curvature="0" />
	<path style="fill:none;stroke:red;stroke-width:1px;stroke-linecap:butt;stroke-linejoin:miter;stroke-opacity:1" d="M 382.737,966.866 395.847,974.15 z" id="boundary" inkscape:connector-curvature="0" />
	<path style="fill:none;stroke:red;stroke-width:1px;stroke-linecap:butt;stroke-linejoin:miter;stroke-opacity:1" d="M 388.564,4 403.131,4 z" id="boundary" inkscape:connector-curvature="0" />
	<path style="fill:none;stroke:red;stroke-width:1px;stroke-linecap:butt;stroke-linejoin:miter;stroke-opacity:1" d="M 395.847,974.15 410.414,974.15 z" id="boundary" inkscape:connector-curvature="0" />
	<path style="fill:none;stroke:red;stroke-width:1px;stroke-linecap:butt;stroke-linejoin:miter;stroke-opacity:1" d="M 403.131,4 417.698,4 z" id="boundary" inkscape:connector-curvature="0" />
	<path style="fill:none;stroke:red;stroke-width:1px;stroke-linecap:butt;stroke-linejoin:miter;stroke-opacity:1" d="M 410.414,974.15 423.524,981.433 z" id="boundary" inkscape:connector-curvature="0" />
	<path style="fill:none;stroke:red;stroke-width:1px;stroke-linecap:butt;stroke-linejoin:miter;stroke-opacity:1" d="M 417.698,4 432.264,4 z" id="boundary" inkscape:connector-curvature="0" />
	<path style="fill:none;stroke:red;stroke-width:1px;stroke-linecap:butt;stroke-linejoin:miter;stroke-opacity:1" d="M 423.524,981.433 436.634,988.717 z" id="boundary" inkscape:connector-curvature="0" />
	<path style="fill:none;stroke:red;stroke-width:1px;stroke-linecap:butt;stroke-linejoin:miter;stroke-opacity:1" d="M 432.264,4 446.831,4 z" id="boundary" inkscape:connector-curvature="0" />
	<path style="fill:none;stroke:red;stroke-width:1px;stroke-linecap:butt;stroke-linejoin:miter;stroke-opacity:1" d="M 436.634,988.717 451.201,988.717 z" id="boundary" inkscape:connector-curvature="0" />
	<path style="fill:none;stroke:red;stroke-width:1px;stroke-linecap:butt;stroke-linejoin:miter;stroke-opacity:1" d="M 446.831,4 461.398,4 z" id="boundary" inkscape:connector-curvature="0" />
	<path style="fill:none;stroke:red;stroke-width:1px;stroke-linecap:butt;stroke-linejoin:miter;stroke-opacity:1" d="M 451.201,988.717 465.768,993.087 z" id="boundary" inkscape:connector-curvature="0" />
	<path style="fill:none;stroke:red;stroke-width:1px;stroke-linecap:butt;stroke-linejoin:miter;stroke-opacity:1" d="M 461.398,4 475.965,4 z" id="boundary" inkscape:connector-curvature="0" />
	<path style="fill:none;stroke:red;stroke-width:1px;stroke-linecap:butt;stroke-linejoin:miter;stroke-opacity:1" d="M 465.768,993.087 480.335,996 z" id="boundary" inkscape:connector-curvature="0" />
	<path style="fill:none;stroke:red;stroke-width:1px;stroke-linecap:butt;stroke-linejoin:miter;stroke-opacity:1" d="M 475.965,4 490.532,4 z" id="boundary" inkscape:connector-curvature="0" />
	<path style="fill:none;stroke:red;stroke-width:1px;stroke-linecap:butt;stroke-linejoin:miter;stroke-opacity:1" d="M 480.335,996 494.902,996 z" id="boundary" inkscape:connector-curvature="0" />
	<path style="fill:none;stroke:red;stroke-width:1px;stroke-linecap:butt;stroke-linejoin:miter;stroke-opacity:1" d="M 490.532,4 505.098,4 z" id="boundary" inkscape:connector-curvature="0" />
	<path style="fill:none;stroke:red;stroke-width:1px;stroke-linecap:butt;stroke-linejoin:miter;stroke-opacity:1" d="M 494.902,996 509.468,996 z" id="boundary" inkscape:connector-curvature="0" />
	<path style="fill:none;stroke:red;stroke-width:1px;stroke-linecap:butt;stroke-linejoin:miter;stroke-opacity:1" d="M 505.098,4 519.665,4 z" id="boundary" inkscape:connector-curvature="0" />
	<path style="fill:none;stroke:red;stroke-width:1px;stroke-linecap:butt;stroke-linejoin:miter;stroke-opacity:1" d="M 508.012,784.781 508.012,799.348 z" id="boundary" inkscape:connector-curvature="0" />
	<path style="fill:none;stroke:red;stroke-width:1px;stroke-linecap:butt;stroke-linejoin:miter;stroke-opacity:1" d="M 508.012,784.781 515.295,762.931 z" id="boundary" inkscape:connector-curvature="0" />
	<path style="fill:none;stroke:red;stroke-width:1px;stroke-linecap:butt;stroke-linejoin:miter;stroke-opacity:1" d="M 508.012,799.348 515.295,812.458 z" id="boundary" inkscape:connector-curvature="0" />
	<path style="fill:none;stroke:red;stroke-width:1px;stroke-linecap:butt;stroke-linejoin:miter;stroke-opacity:1" d="M 509.468,996 524.035,996 z" id="boundary" inkscape:connector-curvature="0" />
	<path style="fill:none;stroke:red;stroke-width:1px;stroke-linecap:butt;stroke-linejoin:miter;stroke-opacity:1" d="M 515.295,762.931 522.579,748.364 z" id="boundary" inkscape:connector-curvature="0" />
	<path style="fill:none;stroke:red;stroke-width:1px;stroke-linecap:butt;stroke-linejoin:miter;stroke-opacity:1" d="M 515.295,812.458 529.862,812.458 z" id="boundary" inkscape:connector-curvature="0" />
	<path style="fill:none;stroke:red;stroke-width:1px;stroke-linecap:butt;stroke-linejoin:miter;stroke-opacity:1" d="M 519.665,4 532.775,11.2834 z" id="boundary" inkscape:connector-curvature="0" />
	<path style="fill:none;stroke:red;stroke-width:1px;stroke-linecap:butt;stroke-linejoin:miter;stroke-opacity:1" d="M 522.579,748.364 537.145,741.081 z" id="boundary" inkscape:connector-curvature="0" />
	<path style="fill:none;stroke:red;stroke-width:1px;stroke-linecap:butt;stroke-linejoin:miter;stroke-opacity:1" d="M 524.035,996 538.602,996 z" id="boundary" inkscape:connector-curvature="0" />
	<path style="fill:none;stroke:red;stroke-width:1px;stroke-linecap:butt;stroke-linejoin:miter;stroke-opacity:1" d="M 529.862,812.458 544.429,816.828 z" id="boundary" inkscape:connector-curvature="0" />
	<path style="fill:none;stroke:red;stroke-width:1px;stroke-linecap:butt;stroke-linejoin:miter;stroke-opacity:1" d="M 532.775,11.2834 547.342,11.2834 z" id="boundary" inkscape:connector-curvature="0" />
	<path style="fill:none;stroke:red;stroke-width:1px;stroke-linecap:butt;stroke-linejoin:miter;stroke-opacity:1" d="M 537.145,741.081 548.799,730.884 z" id="boundary" inkscape:connector-curvature="0" />
	<path style="fill:none;stroke:red;stroke-width:1px;stroke-linecap:butt;stroke-linejoin:miter;stroke-opacity:1" d="M 538.602,996 551.712,988.717 z" id="boundary" inkscape:connector-curvature="0" />
	<path style="fill:none;stroke:red;stroke-width:1px;stroke-linecap:butt;stroke-linejoin:miter;stroke-opacity:1" d="M 544.429,816.828 558.996,819.742 z" id="boundary" inkscape:connector-curvature="0" />
	<path style="fill:none;stroke:red;stroke-width:1px;stroke-linecap:butt;stroke-linejoin:miter;stroke-opacity:1" d="M 547.342,11.2834 561.909,11.2834 z" id="boundary" inkscape:connector-curvature="0" />
	<path style="fill:none;stroke:red;stroke-width:1px;stroke-linecap:butt;stroke-linejoin:miter;stroke-opacity:1" d="M 548.799,730.884 563.366,726.514 z" id="boundary" inkscape:connector-curvature="0" />
	<path style="fill:none;stroke:red;stroke-width:1px;stroke-linecap:butt;stroke-linejoin:miter;stroke-opacity:1" d="M 551.712,988.717 566.279,988.717 z" id="boundary" inkscape:connector-curvature="0" />
	<path style="fill:none;stroke:red;stroke-width:1px;stroke-linecap:butt;stroke-linejoin:miter;stroke-opacity:1" d="M 558.996,819.742 572.106,827.025 z" id="boundary" inkscape:connector-curvature="0" />
	<path style="fill:none;stroke:red;stroke-width:1px;stroke-linecap:butt;stroke-linejoin:miter;stroke-opacity:1" d="M 561.909,11.2834 576.476,11.2834 z" id="boundary" inkscape:connector-curvature="0" />
	<path style="fill:none;stroke:red;stroke-width:1px;stroke-linecap:butt;stroke-linejoin:miter;stroke-opacity:1" d="M 563.366,726.514 577.932,726.514 z" id="boundary" inkscape:connector-curvature="0" />
	<path style="fill:none;stroke:red;stroke-width:1px;stroke-linecap:butt;stroke-linejoin:miter;stroke-opacity:1" d="M 566.279,988.717 580.846,988.717 z" id="boundary" inkscape:connector-curvature="0" />
	<path style="fill:none;stroke:red;stroke-width:1px;stroke-linecap:butt;stroke-linejoin:miter;stroke-opacity:1" d="M 572.106,827.025 586.673,827.025 z" id="boundary" inkscape:connector-curvature="0" />
	<path style="fill:none;stroke:red;stroke-width:1px;stroke-linecap:butt;stroke-linejoin:miter;stroke-opacity:1" d="M 576.476,11.2834 591.043,11.2834 z" id="boundary" inkscape:connector-curvature="0" />
	<path style="fill:none;stroke:red;stroke-width:1px;stroke-linecap:butt;stroke-linejoin:miter;stroke-opacity:1" d="M 577.932,726.514 591.043,719.231 z" id="boundary" inkscape:connector-curvature="0" />
	<path style="fill:none;stroke:red;stroke-width:1px;stroke-linecap:butt;stroke-linejoin:miter;stroke-opacity:1" d="M 580.846,988.717 593.956,981.433 z" id="boundary" inkscape:connector-curvature="0" />
	<path style="fill:none;stroke:red;stroke-width:1px;stroke-linecap:butt;stroke-linejoin:miter;stroke-opacity:1" d="M 586.673,827.025 601.239,829.938 z" id="boundary" inkscape:connector-curvature="0" />
	<path style="fill:none;stroke:red;stroke-width:1px;stroke-linecap:butt;stroke-linejoin:miter;stroke-opacity:1" d="M 591.043,11.2834 604.153,18.5668 z" id="boundary" inkscape:connector-curvature="0" />
	<path style="fill:none;stroke:red;stroke-width:1px;stroke-linecap:butt;stroke-linejoin:miter;stroke-opacity:1" d="M 591.043,719.231 605.609,725.057 z" id="boundary" inkscape:connector-curvature="0" />
	<path style="fill:none;stroke:red;stroke-width:1px;stroke-linecap:butt;stroke-linejoin:miter;stroke-opacity:1" d="M 593.956,981.433 607.066,974.15 z" id="boundary" inkscape:connector-curvature="0" />
	<path style="fill:none;stroke:red;stroke-width:1px;stroke-linecap:butt;stroke-linejoin:miter;stroke-opacity:1" d="M 601.239,829.938 615.806,834.308 z" id="boundary" inkscape:connector-curvature="0" />
	<path style="fill:none;stroke:red;stroke-width:1px;stroke-linecap:butt;stroke-linejoin:miter;stroke-opacity:1" d="M 604.153,18.5668 609.979,33.1336 z" id="boundary" inkscape:connector-curvature="0" />
	<path style="fill:none;stroke:red;stroke-width:1px;stroke-linecap:butt;stroke-linejoin:miter;stroke-opacity:1" d="M 605.609,725.057 620.176,726.514 z" id="boundary" inkscape:connector-curvature="0" />
	<path style="fill:none;stroke:red;stroke-width:1px;stroke-linecap:butt;stroke-linejoin:miter;stroke-opacity:1" d="M 607.066,974.15 621.633,971.236 z" id="boundary" inkscape:connector-curvature="0" />
	<path style="fill:none;stroke:red;stroke-width:1px;stroke-linecap:butt;stroke-linejoin:miter;stroke-opacity:1" d="M 609.979,33.1336 617.263,46.2438 z" id="boundary" inkscape:connector-curvature="0" />
	<path style="fill:none;stroke:red;stroke-width:1px;stroke-linecap:butt;stroke-linejoin:miter;stroke-opacity:1" d="M 615.806,834.308 628.916,841.592 z" id="boundary" inkscape:connector-curvature="0" />
	<path style="fill:none;stroke:red;stroke-width:1px;stroke-linecap:butt;stroke-linejoin:miter;stroke-opacity:1" d="M 617.263,46.2438 624.546,59.3539 z" id="boundary" inkscape:connector-curvature="0" />
	<path style="fill:none;stroke:red;stroke-width:1px;stroke-linecap:butt;stroke-linejoin:miter;stroke-opacity:1" d="M 620.176,726.514 633.286,733.797 z" id="boundary" inkscape:connector-curvature="0" />
	<path style="fill:none;stroke:red;stroke-width:1px;stroke-linecap:butt;stroke-linejoin:miter;stroke-opacity:1" d="M 621.633,971.236 636.2,963.953 z" id="boundary" inkscape:connector-curvature="0" />
	<path style="fill:none;stroke:red;stroke-width:1px;stroke-linecap:butt;stroke-linejoin:miter;stroke-opacity:1" d="M 624.546,59.3539 624.546,73.9207 z" id="boundary" inkscape:connector-curvature="0" />
	<path style="fill:none;stroke:red;stroke-width:1px;stroke-linecap:butt;stroke-linejoin:miter;stroke-opacity:1" d="M 624.546,73.9207 631.83,87.0308 z" id="boundary" inkscape:connector-curvature="0" />
	<path style="fill:none;stroke:red;stroke-width:1px;stroke-linecap:butt;stroke-linejoin:miter;stroke-opacity:1" d="M 628.916,841.592 642.026,848.875 z" id="boundary" inkscape:connector-curvature="0" />
	<path style="fill:none;stroke:red;stroke-width:1px;stroke-linecap:butt;stroke-linejoin:miter;stroke-opacity:1" d="M 631.83,87.0308 639.113,100.141 z" id="boundary" inkscape:connector-curvature="0" />
	<path style="fill:none;stroke:red;stroke-width:1px;stroke-linecap:butt;stroke-linejoin:miter;stroke-opacity:1" d="M 633.286,733.797 647.853,733.797 z" id="boundary" inkscape:connector-curvature="0" />
	<path style="fill:none;stroke:red;stroke-width:1px;stroke-linecap:butt;stroke-linejoin:miter;stroke-opacity:1" d="M 636.2,963.953 650.767,959.583 z" id="boundary" inkscape:connector-curvature="0" />
	<path style="fill:none;stroke:red;stroke-width:1px;stroke-linecap:butt;stroke-linejoin:miter;stroke-opacity:1" d="M 639.113,100.141 642.026,114.708 z" id="boundary" inkscape:connector-curvature="0" />
	<path style="fill:none;stroke:red;stroke-width:1px;stroke-linecap:butt;stroke-linejoin:miter;stroke-opacity:1" d="M 642.026,114.708 649.31,127.818 z" id="boundary" inkscape:connector-curvature="0" />
	<path style="fill:none;stroke:red;stroke-width:1px;stroke-linecap:butt;stroke-linejoin:miter;stroke-opacity:1" d="M 642.026,848.875 655.137,856.159 z" id="boundary" inkscape:connector-curvature="0" />
	<path style="fill:none;stroke:red;stroke-width:1px;stroke-linecap:butt;stroke-linejoin:miter;stroke-opacity:1" d="M 647.853,733.797 662.42,738.167 z" id="boundary" inkscape:connector-curvature="0" />
	<path style="fill:none;stroke:red;stroke-width:1px;stroke-linecap:butt;stroke-linejoin:miter;stroke-opacity:1" d="M 649.31,127.818 653.68,142.385 z" id="boundary" inkscape:connector-curvature="0" />
	<path style="fill:none;stroke:red;stroke-width:1px;stroke-linecap:butt;stroke-linejoin:miter;stroke-opacity:1" d="M 650.767,959.583 663.877,952.3 z" id="boundary" inkscape:connector-curvature="0" />
	<path style="fill:none;stroke:red;stroke-width:1px;stroke-linecap:butt;stroke-linejoin:miter;stroke-opacity:1" d="M 653.68,142.385 660.963,155.495 z" id="boundary" inkscape:connector-curvature="0" />
	<path style="fill:none;stroke:red;stroke-width:1px;stroke-linecap:butt;stroke-linejoin:miter;stroke-opacity:1" d="M 655.137,856.159 669.703,856.159 z" id="boundary" inkscape:connector-curvature="0" />
	<path style="fill:none;stroke:red;stroke-width:1px;stroke-linecap:butt;stroke-linejoin:miter;stroke-opacity:1" d="M 660.963,155.495 668.247,168.605 z" id="boundary" inkscape:connector-curvature="0" />
	<path style="fill:none;stroke:red;stroke-width:1px;stroke-linecap:butt;stroke-linejoin:miter;stroke-opacity:1" d="M 662.42,738.167 675.53,745.451 z" id="boundary" inkscape:connector-curvature="0" />
	<path style="fill:none;stroke:red;stroke-width:1px;stroke-linecap:butt;stroke-linejoin:miter;stroke-opacity:1" d="M 663.877,952.3 676.987,945.016 z" id="boundary" inkscape:connector-curvature="0" />
	<path style="fill:none;stroke:red;stroke-width:1px;stroke-linecap:butt;stroke-linejoin:miter;stroke-opacity:1" d="M 668.247,168.605 668.247,183.172 z" id="boundary" inkscape:connector-curvature="0" />
	<path style="fill:none;stroke:red;stroke-width:1px;stroke-linecap:butt;stroke-linejoin:miter;stroke-opacity:1" d="M 668.247,183.172 675.53,196.282 z" id="boundary" inkscape:connector-curvature="0" />
	<path style="fill:none;stroke:red;stroke-width:1px;stroke-linecap:butt;stroke-linejoin:miter;stroke-opacity:1" d="M 669.703,856.159 682.814,863.442 z" id="boundary" inkscape:connector-curvature="0" />
	<path style="fill:none;stroke:red;stroke-width:1px;stroke-linecap:butt;stroke-linejoin:miter;stroke-opacity:1" d="M 675.53,196.282 679.9,210.849 z" id="boundary" inkscape:connector-curvature="0" />
	<path style="fill:none;stroke:red;stroke-width:1px;stroke-linecap:butt;stroke-linejoin:miter;stroke-opacity:1" d="M 675.53,745.451 690.097,748.364 z" id="boundary" inkscape:connector-curvature="0" />
	<path style="fill:none;stroke:red;stroke-width:1px;stroke-linecap:butt;stroke-linejoin:miter;stroke-opacity:1" d="M 676.987,945.016 690.097,937.733 z" id="boundary" inkscape:connector-curvature="0" />
	<path style="fill:none;stroke:red;stroke-width:1px;stroke-linecap:butt;stroke-linejoin:miter;stroke-opacity:1" d="M 679.9,210.849 688.64,222.502 z" id="boundary" inkscape:connector-curvature="0" />
	<path style="fill:none;stroke:red;stroke-width:1px;stroke-linecap:butt;stroke-linejoin:miter;stroke-opacity:1" d="M 682.814,508.012 682.814,522.579 z" id="boundary" inkscape:connector-curvature="0" />
	<path style="fill:none;stroke:red;stroke-width:1px;stroke-linecap:butt;stroke-linejoin:miter;stroke-opacity:1" d="M 682.814,508.012 697.38,500.728 z" id="boundary" inkscape:connector-curvature="0" />
	<path style="fill:none;stroke:red;stroke-width:1px;stroke-linecap:butt;stroke-linejoin:miter;stroke-opacity:1" d="M 682.814,522.579 690.097,535.689 z" id="boundary" inkscape:connector-curvature="0" />
	<path style="fill:none;stroke:red;stroke-width:1px;stroke-linecap:butt;stroke-linejoin:miter;stroke-opacity:1" d="M 682.814,863.442 695.924,870.725 z" id="boundary" inkscape:connector-curvature="0" />
	<path style="fill:none;stroke:red;stroke-width:1px;stroke-linecap:butt;stroke-linejoin:miter;stroke-opacity:1" d="M 688.64,222.502 703.207,222.502 z" id="boundary" inkscape:connector-curvature="0" />
	<path style="fill:none;stroke:red;stroke-width:1px;stroke-linecap:butt;stroke-linejoin:miter;stroke-opacity:1" d="M 690.097,535.689 697.38,548.799 z" id="boundary" inkscape:connector-curvature="0" />
	<path style="fill:none;stroke:red;stroke-width:1px;stroke-linecap:butt;stroke-linejoin:miter;stroke-opacity:1" d="M 690.097,748.364 703.207,755.648 z" id="boundary" inkscape:connector-curvature="0" />
	<path style="fill:none;stroke:red;stroke-width:1px;stroke-linecap:butt;stroke-linejoin:miter;stroke-opacity:1" d="M 690.097,937.733 703.207,930.449 z" id="boundary" inkscape:connector-curvature="0" />
	<path style="fill:none;stroke:red;stroke-width:1px;stroke-linecap:butt;stroke-linejoin:miter;stroke-opacity:1" d="M 695.924,870.725 709.034,878.009 z" id="boundary" inkscape:connector-curvature="0" />
	<path style="fill:none;stroke:red;stroke-width:1px;stroke-linecap:butt;stroke-linejoin:miter;stroke-opacity:1" d="M 697.38,500.728 711.947,493.445 z" id="boundary" inkscape:connector-curvature="0" />
	<path style="fill:none;stroke:red;stroke-width:1px;stroke-linecap:butt;stroke-linejoin:miter;stroke-opacity:1" d="M 697.38,548.799 704.664,561.909 z" id="boundary" inkscape:connector-curvature="0" />
	<path style="fill:none;stroke:red;stroke-width:1px;stroke-linecap:butt;stroke-linejoin:miter;stroke-opacity:1" d="M 703.207,222.502 717.774,225.416 z" id="boundary" inkscape:connector-curvature="0" />
	<path style="fill:none;stroke:red;stroke-width:1px;stroke-linecap:butt;stroke-linejoin:miter;stroke-opacity:1" d="M 703.207,755.648 716.317,762.931 z" id="boundary" inkscape:connector-curvature="0" />
	<path style="fill:none;stroke:red;stroke-width:1px;stroke-linecap:butt;stroke-linejoin:miter;stroke-opacity:1" d="M 703.207,930.449 714.86,921.709 z" id="boundary" inkscape:connector-curvature="0" />
	<path style="fill:none;stroke:red;stroke-width:1px;stroke-linecap:butt;stroke-linejoin:miter;stroke-opacity:1" d="M 704.664,561.909 711.947,575.019 z" id="boundary" inkscape:connector-curvature="0" />
	<path style="fill:none;stroke:red;stroke-width:1px;stroke-linecap:butt;stroke-linejoin:miter;stroke-opacity:1" d="M 709.034,878.009 722.144,885.292 z" id="boundary" inkscape:connector-curvature="0" />
	<path style="fill:none;stroke:red;stroke-width:1px;stroke-linecap:butt;stroke-linejoin:miter;stroke-opacity:1" d="M 711.947,493.445 725.057,486.162 z" id="boundary" inkscape:connector-curvature="0" />
	<path style="fill:none;stroke:red;stroke-width:1px;stroke-linecap:butt;stroke-linejoin:miter;stroke-opacity:1" d="M 711.947,575.019 720.687,586.673 z" id="boundary" inkscape:connector-curvature="0" />
	<path style="fill:none;stroke:red;stroke-width:1px;stroke-linecap:butt;stroke-linejoin:miter;stroke-opacity:1" d="M 714.86,921.709 726.514,899.859 z" id="boundary" inkscape:connector-curvature="0" />
	<path style="fill:none;stroke:red;stroke-width:1px;stroke-linecap:butt;stroke-linejoin:miter;stroke-opacity:1" d="M 716.317,762.931 730.884,762.931 z" id="boundary" inkscape:connector-curvature="0" />
	<path style="fill:none;stroke:red;stroke-width:1px;stroke-linecap:butt;stroke-linejoin:miter;stroke-opacity:1" d="M 717.774,225.416 732.341,229.786 z" id="boundary" inkscape:connector-curvature="0" />
	<path style="fill:none;stroke:red;stroke-width:1px;stroke-linecap:butt;stroke-linejoin:miter;stroke-opacity:1" d="M 720.687,586.673 732.341,596.869 z" id="boundary" inkscape:connector-curvature="0" />
	<path style="fill:none;stroke:red;stroke-width:1px;stroke-linecap:butt;stroke-linejoin:miter;stroke-opacity:1" d="M 722.144,885.292 726.514,899.859 z" id="boundary" inkscape:connector-curvature="0" />
	<path style="fill:none;stroke:red;stroke-width:1px;stroke-linecap:butt;stroke-linejoin:miter;stroke-opacity:1" d="M 725.057,486.162 738.167,478.878 z" id="boundary" inkscape:connector-curvature="0" />
	<path style="fill:none;stroke:red;stroke-width:1px;stroke-linecap:butt;stroke-linejoin:miter;stroke-opacity:1" d="M 730.884,762.931 745.451,762.931 z" id="boundary" inkscape:connector-curvature="0" />
	<path style="fill:none;stroke:red;stroke-width:1px;stroke-linecap:butt;stroke-linejoin:miter;stroke-opacity:1" d="M 732.341,229.786 746.907,229.786 z" id="boundary" inkscape:connector-curvature="0" />
	<path style="fill:none;stroke:red;stroke-width:1px;stroke-linecap:butt;stroke-linejoin:miter;stroke-opacity:1" d="M 732.341,596.869 745.451,604.153 z" id="boundary" inkscape:connector-curvature="0" />
	<path style="fill:none;stroke:red;stroke-width:1px;stroke-linecap:butt;stroke-linejoin:miter;stroke-opacity:1" d="M 738.167,478.878 751.278,470.138 z" id="boundary" inkscape:connector-curvature="0" />
	<path style="fill:none;stroke:red;stroke-width:1px;stroke-linecap:butt;stroke-linejoin:miter;stroke-opacity:1" d="M 741.081,318.643 741.081,333.21 z" id="boundary" inkscape:connector-curvature="0" />
	<path style="fill:none;stroke:red;stroke-width:1px;stroke-linecap:butt;stroke-linejoin:miter;stroke-opacity:1" d="M 741.081,318.643 748.364,304.076 z" id="boundary" inkscape:connector-curvature="0" />
	<path style="fill:none;stroke:red;stroke-width:1px;stroke-linecap:butt;stroke-linejoin:miter;stroke-opacity:1" d="M 741.081,333.21 741.081,347.777 z" id="boundary" inkscape:connector-curvature="0" />
	<path style="fill:none;stroke:red;stroke-width:1px;stroke-linecap:butt;stroke-linejoin:miter;stroke-opacity:1" d="M 741.081,347.777 748.364,360.887 z" id="boundary" inkscape:connector-curvature="0" />
	<path style="fill:none;stroke:red;stroke-width:1px;stroke-linecap:butt;stroke-linejoin:miter;stroke-opacity:1" d="M 745.451,604.153 752.734,617.263 z" id="boundary" inkscape:connector-curvature="0" />
	<path style="fill:none;stroke:red;stroke-width:1px;stroke-linecap:butt;stroke-linejoin:miter;stroke-opacity:1" d="M 745.451,762.931 758.561,754.191 z" id="boundary" inkscape:connector-curvature="0" />
	<path style="fill:none;stroke:red;stroke-width:1px;stroke-linecap:butt;stroke-linejoin:miter;stroke-opacity:1" d="M 746.907,229.786 760.018,237.069 z" id="boundary" inkscape:connector-curvature="0" />
	<path style="fill:none;stroke:red;stroke-width:1px;stroke-linecap:butt;stroke-linejoin:miter;stroke-opacity:1" d="M 748.364,304.076 755.648,282.226 z" id="boundary" inkscape:connector-curvature="0" />
	<path style="fill:none;stroke:red;stroke-width:1px;stroke-linecap:butt;stroke-linejoin:miter;stroke-opacity:1" d="M 748.364,360.887 760.018,369.627 z" id="boundary" inkscape:connector-curvature="0" />
	<path style="fill:none;stroke:red;stroke-width:1px;stroke-linecap:butt;stroke-linejoin:miter;stroke-opacity:1" d="M 751.278,470.138 758.561,455.571 z" id="boundary" inkscape:connector-curvature="0" />
	<path style="fill:none;stroke:red;stroke-width:1px;stroke-linecap:butt;stroke-linejoin:miter;stroke-opacity:1" d="M 752.734,617.263 762.931,628.916 z" id="boundary" inkscape:connector-curvature="0" />
	<path style="fill:none;stroke:red;stroke-width:1px;stroke-linecap:butt;stroke-linejoin:miter;stroke-opacity:1" d="M 755.648,282.226 762.931,267.659 z" id="boundary" inkscape:connector-curvature="0" />
	<path style="fill:none;stroke:red;stroke-width:1px;stroke-linecap:butt;stroke-linejoin:miter;stroke-opacity:1" d="M 758.561,455.571 770.214,442.461 z" id="boundary" inkscape:connector-curvature="0" />
	<path style="fill:none;stroke:red;stroke-width:1px;stroke-linecap:butt;stroke-linejoin:miter;stroke-opacity:1" d="M 758.561,754.191 770.214,741.081 z" id="boundary" inkscape:connector-curvature="0" />
	<path style="fill:none;stroke:red;stroke-width:1px;stroke-linecap:butt;stroke-linejoin:miter;stroke-opacity:1" d="M 760.018,237.069 774.584,237.069 z" id="boundary" inkscape:connector-curvature="0" />
	<path style="fill:none;stroke:red;stroke-width:1px;stroke-linecap:butt;stroke-linejoin:miter;stroke-opacity:1" d="M 760.018,369.627 770.214,381.28 z" id="boundary" inkscape:connector-curvature="0" />
	<path style="fill:none;stroke:red;stroke-width:1px;stroke-linecap:butt;stroke-linejoin:miter;stroke-opacity:1" d="M 762.931,267.659 777.498,267.659 z" id="boundary" inkscape:connector-curvature="0" />
	<path style="fill:none;stroke:red;stroke-width:1px;stroke-linecap:butt;stroke-linejoin:miter;stroke-opacity:1" d="M 762.931,628.916 770.214,642.026 z" id="boundary" inkscape:connector-curvature="0" />
	<path style="fill:none;stroke:red;stroke-width:1px;stroke-linecap:butt;stroke-linejoin:miter;stroke-opacity:1" d="M 770.214,381.28 777.498,394.391 z" id="boundary" inkscape:connector-curvature="0" />
	<path style="fill:none;stroke:red;stroke-width:1px;stroke-linecap:butt;stroke-linejoin:miter;stroke-opacity:1" d="M 770.214,442.461 777.498,423.524 z" id="boundary" inkscape:connector-curvature="0" />
	<path style="fill:none;stroke:red;stroke-width:1px;stroke-linecap:butt;stroke-linejoin:miter;stroke-opacity:1" d="M 770.214,642.026 776.041,656.593 z" id="boundary" inkscape:connector-curvature="0" />
	<path style="fill:none;stroke:red;stroke-width:1px;stroke-linecap:butt;stroke-linejoin:miter;stroke-opacity:1" d="M 770.214,741.081 777.498,714.86 z" id="boundary" inkscape:connector-curvature="0" />
	<path style="fill:none;stroke:red;stroke-width:1px;stroke-linecap:butt;stroke-linejoin:miter;stroke-opacity:1" d="M 774.584,237.069 789.151,237.069 z" id="boundary" inkscape:connector-curvature="0" />
	<path style="fill:none;stroke:red;stroke-width:1px;stroke-linecap:butt;stroke-linejoin:miter;stroke-opacity:1" d="M 776.041,656.593 777.498,671.16 z" id="boundary" inkscape:connector-curvature="0" />
	<path style="fill:none;stroke:red;stroke-width:1px;stroke-linecap:butt;stroke-linejoin:miter;stroke-opacity:1" d="M 777.498,267.659 792.065,251.636 z" id="boundary" inkscape:connector-curvature="0" />
	<path style="fill:none;stroke:red;stroke-width:1px;stroke-linecap:butt;stroke-linejoin:miter;stroke-opacity:1" d="M 777.498,394.391 777.498,408.957 z" id="boundary" inkscape:connector-curvature="0" />
	<path style="fill:none;stroke:red;stroke-width:1px;stroke-linecap:butt;stroke-linejoin:miter;stroke-opacity:1" d="M 777.498,408.957 777.498,423.524 z" id="boundary" inkscape:connector-curvature="0" />
	<path style="fill:none;stroke:red;stroke-width:1px;stroke-linecap:butt;stroke-linejoin:miter;stroke-opacity:1" d="M 777.498,671.16 777.498,685.727 z" id="boundary" inkscape:connector-curvature="0" />
	<path style="fill:none;stroke:red;stroke-width:1px;stroke-linecap:butt;stroke-linejoin:miter;stroke-opacity:1" d="M 777.498,685.727 777.498,700.294 z" id="boundary" inkscape:connector-curvature="0" />
	<path style="fill:none;stroke:red;stroke-width:1px;stroke-linecap:butt;stroke-linejoin:miter;stroke-opacity:1" d="M 777.498,700.294 777.498,714.86 z" id="boundary" inkscape:connector-curvature="0" />
	<path style="fill:none;stroke:red;stroke-width:1px;stroke-linecap:butt;stroke-linejoin:miter;stroke-opacity:1" d="M 789.151,237.069 792.065,251.636 z" id="boundary" inkscape:connector-curvature="0" />
	<circle cx="4" cy="270.573" r="4" fill="#0" id="circle0"/>
	<circle cx="4" cy="285.14" r="4" fill="#0" id="circle1"/>
	<circle cx="18.5668" cy="266.203" r="4" fill="#0" id="circle2"/>
	<circle cx="18.5668" cy="289.51" r="4" fill="#0" id="circle3"/>
	<circle cx="22.9369" cy="304.076" r="4" fill="#0" id="circle4"/>
	<circle cx="33.1336" cy="263.289" r="4" fill="#0" id="circle5"/>
	<circle cx="37.5037" cy="304.076" r="4" fill="#0" id="circle6"/>
	<circle cx="47.7004" cy="258.919" r="4" fill="#0" id="circle7"/>
	<circle cx="52.0705" cy="304.076" r="4" fill="#0" id="circle8"/>
	<circle cx="62.2673" cy="258.919" r="4" fill="#0" id="circle9"/>
	<circle cx="66.6373" cy="304.076" r="4" fill="#0" id="circle10"/>
	<circle cx="73.9207" cy="317.186" r="4" fill="#0" id="circle11"/>
	<circle cx="75.3774" cy="251.636" r="4" fill="#0" id="circle12"/>
	<circle cx="85.5742" cy="325.927" r="4" fill="#0" id="circle13"/>
	<circle cx="89.9442" cy="251.636" r="4" fill="#0" id="circle14"/>
	<circle cx="91.4009" cy="707.577" r="4" fill="#0" id="circle15"/>
	<circle cx="91.4009" cy="722.144" r="4" fill="#0" id="circle16"/>
	<circle cx="91.4009" cy="736.711" r="4" fill="#0" id="circle17"/>
	<circle cx="91.4009" cy="751.278" r="4" fill="#0" id="circle18"/>
	<circle cx="98.6843" cy="333.21" r="4" fill="#0" id="circle19"/>
	<circle cx="98.6843" cy="685.727" r="4" fill="#0" id="circle20"/>
	<circle cx="98.6843" cy="764.388" r="4" fill="#0" id="circle21"/>
	<circle cx="98.6843" cy="778.954" r="4" fill="#0" id="circle22"/>
	<circle cx="103.054" cy="244.352" r="4" fill="#0" id="circle23"/>
	<circle cx="105.968" cy="671.16" r="4" fill="#0" id="circle24"/>
	<circle cx="105.968" cy="792.065" r="4" fill="#0" id="circle25"/>
	<circle cx="107.424" cy="344.863" r="4" fill="#0" id="circle26"/>
	<circle cx="114.708" cy="803.718" r="4" fill="#0" id="circle27"/>
	<circle cx="117.621" cy="244.352" r="4" fill="#0" id="circle28"/>
	<circle cx="117.621" cy="659.507" r="4" fill="#0" id="circle29"/>
	<circle cx="119.078" cy="355.06" r="4" fill="#0" id="circle30"/>
	<circle cx="126.361" cy="813.915" r="4" fill="#0" id="circle31"/>
	<circle cx="127.818" cy="642.026" r="4" fill="#0" id="circle32"/>
	<circle cx="129.275" cy="366.714" r="4" fill="#0" id="circle33"/>
	<circle cx="132.188" cy="237.069" r="4" fill="#0" id="circle34"/>
	<circle cx="135.101" cy="620.176" r="4" fill="#0" id="circle35"/>
	<circle cx="136.558" cy="379.824" r="4" fill="#0" id="circle36"/>
	<circle cx="139.471" cy="806.631" r="4" fill="#0" id="circle37"/>
	<circle cx="142.385" cy="605.609" r="4" fill="#0" id="circle38"/>
	<circle cx="143.841" cy="225.416" r="4" fill="#0" id="circle39"/>
	<circle cx="146.755" cy="391.477" r="4" fill="#0" id="circle40"/>
	<circle cx="149.668" cy="190.455" r="4" fill="#0" id="circle41"/>
	<circle cx="149.668" cy="205.022" r="4" fill="#0" id="circle42"/>
	<circle cx="149.668" cy="583.759" r="4" fill="#0" id="circle43"/>
	<circle cx="154.038" cy="806.631" r="4" fill="#0" id="circle44"/>
	<circle cx="156.952" cy="154.038" r="4" fill="#0" id="circle45"/>
	<circle cx="156.952" cy="168.605" r="4" fill="#0" id="circle46"/>
	<circle cx="156.952" cy="403.131" r="4" fill="#0" id="circle47"/>
	<circle cx="156.952" cy="569.192" r="4" fill="#0" id="circle48"/>
	<circle cx="158.408" cy="417.698" r="4" fill="#0" id="circle49"/>
	<circle cx="164.235" cy="110.338" r="4" fill="#0" id="circle50"/>
	<circle cx="164.235" cy="124.905" r="4" fill="#0" id="circle51"/>
	<circle cx="164.235" cy="139.471" r="4" fill="#0" id="circle52"/>
	<circle cx="164.235" cy="547.342" r="4" fill="#0" id="circle53"/>
	<circle cx="165.692" cy="430.808" r="4" fill="#0" id="circle54"/>
	<circle cx="168.605" cy="806.631" r="4" fill="#0" id="circle55"/>
	<circle cx="171.518" cy="73.9207" r="4" fill="#0" id="circle56"/>
	<circle cx="171.518" cy="88.4875" r="4" fill="#0" id="circle57"/>
	<circle cx="171.518" cy="445.374" r="4" fill="#0" id="circle58"/>
	<circle cx="171.518" cy="459.941" r="4" fill="#0" id="circle59"/>
	<circle cx="171.518" cy="474.508" r="4" fill="#0" id="circle60"/>
	<circle cx="171.518" cy="489.075" r="4" fill="#0" id="circle61"/>
	<circle cx="171.518" cy="503.642" r="4" fill="#0" id="circle62"/>
	<circle cx="171.518" cy="518.209" r="4" fill="#0" id="circle63"/>
	<circle cx="171.518" cy="532.775" r="4" fill="#0" id="circle64"/>
	<circle cx="178.802" cy="37.5037" r="4" fill="#0" id="circle65"/>
	<circle cx="178.802" cy="52.0705" r="4" fill="#0" id="circle66"/>
	<circle cx="180.258" cy="816.828" r="4" fill="#0" id="circle67"/>
	<circle cx="186.085" cy="15.6535" r="4" fill="#0" id="circle68"/>
	<circle cx="186.085" cy="831.395" r="4" fill="#0" id="circle69"/>
	<circle cx="197.739" cy="841.592" r="4" fill="#0" id="circle70"/>
	<circle cx="200.652" cy="11.2834" r="4" fill="#0" id="circle71"/>
	<circle cx="207.935" cy="853.245" r="4" fill="#0" id="circle72"/>
	<circle cx="207.935" cy="867.812" r="4" fill="#0" id="circle73"/>
	<circle cx="215.219" cy="11.2834" r="4" fill="#0" id="circle74"/>
	<circle cx="215.219" cy="880.922" r="4" fill="#0" id="circle75"/>
	<circle cx="225.416" cy="892.576" r="4" fill="#0" id="circle76"/>
	<circle cx="229.786" cy="11.2834" r="4" fill="#0" id="circle77"/>
	<circle cx="237.069" cy="901.316" r="4" fill="#0" id="circle78"/>
	<circle cx="244.352" cy="11.2834" r="4" fill="#0" id="circle79"/>
	<circle cx="245.809" cy="912.969" r="4" fill="#0" id="circle80"/>
	<circle cx="257.463" cy="923.166" r="4" fill="#0" id="circle81"/>
	<circle cx="258.919" cy="11.2834" r="4" fill="#0" id="circle82"/>
	<circle cx="270.573" cy="930.449" r="4" fill="#0" id="circle83"/>
	<circle cx="273.486" cy="11.2834" r="4" fill="#0" id="circle84"/>
	<circle cx="285.14" cy="930.449" r="4" fill="#0" id="circle85"/>
	<circle cx="288.053" cy="11.2834" r="4" fill="#0" id="circle86"/>
	<circle cx="299.706" cy="930.449" r="4" fill="#0" id="circle87"/>
	<circle cx="302.62" cy="11.2834" r="4" fill="#0" id="circle88"/>
	<circle cx="312.816" cy="937.733" r="4" fill="#0" id="circle89"/>
	<circle cx="317.186" cy="11.2834" r="4" fill="#0" id="circle90"/>
	<circle cx="327.383" cy="942.103" r="4" fill="#0" id="circle91"/>
	<circle cx="330.297" cy="4" r="4" fill="#0" id="circle92"/>
	<circle cx="340.493" cy="949.386" r="4" fill="#0" id="circle93"/>
	<circle cx="344.863" cy="4" r="4" fill="#0" id="circle94"/>
	<circle cx="355.06" cy="955.213" r="4" fill="#0" id="circle95"/>
	<circle cx="359.43" cy="4" r="4" fill="#0" id="circle96"/>
	<circle cx="369.627" cy="959.583" r="4" fill="#0" id="circle97"/>
	<circle cx="373.997" cy="4" r="4" fill="#0" id="circle98"/>
	<circle cx="382.737" cy="966.866" r="4" fill="#0" id="circle99"/>
	<circle cx="388.564" cy="4" r="4" fill="#0" id="circle100"/>
	<circle cx="395.847" cy="974.15" r="4" fill="#0" id="circle101"/>
	<circle cx="403.131" cy="4" r="4" fill="#0" id="circle102"/>
	<circle cx="410.414" cy="974.15" r="4" fill="#0" id="circle103"/>
	<circle cx="417.698" cy="4" r="4" fill="#0" id="circle104"/>
	<circle cx="423.524" cy="981.433" r="4" fill="#0" id="circle105"/>
	<circle cx="432.264" cy="4" r="4" fill="#0" id="circle106"/>
	<circle cx="436.634" cy="988.717" r="4" fill="#0" id="circle107"/>
	<circle cx="446.831" cy="4" r="4" fill="#0" id="circle108"/>
	<circle cx="451.201" cy="988.717" r="4" fill="#0" id="circle109"/>
	<circle cx="461.398" cy="4" r="4" fill="#0" id="circle110"/>
	<circle cx="465.768" cy="993.087" r="4" fill="#0" id="circle111"/>
	<circle cx="475.965" cy="4" r="4" fill="#0" id="circle112"/>
	<circle cx="480.335" cy="996" r="4" fill="#0" id="circle113"/>
	<circle cx="490.532" cy="4" r="4" fill="#0" id="circle114"/>
	<circle cx="494.902" cy="996" r="4" fill="#0" id="circle115"/>
	<circle cx="505.098" cy="4" r="4" fill="#0" id="circle116"/>
	<circle cx="508.012" cy="784.781" r="4" fill="#0" id="circle117"/>
	<circle cx="508.012" cy="799.348" r="4" fill="#0" id="circle118"/>
	<circle cx="509.468" cy="996" r="4" fill="#0" id="circle119"/>
	<circle cx="515.295" cy="762.931" r="4" fill="#0" id="circle120"/>
	<circle cx="515.295" cy="812.458" r="4" fill="#0" id="circle121"/>
	<circle cx="519.665" cy="4" r="4" fill="#0" id="circle122"/>
	<circle cx="522.579" cy="748.364" r="4" fill="#0" id="circle123"/>
	<circle cx="524.035" cy="996" r="4" fill="#0" id="circle124"/>
	<circle cx="529.862" cy="812.458" r="4" fill="#0" id="circle125"/>
	<circle cx="532.775" cy="11.2834" r="4" fill="#0" id="circle126"/>
	<circle cx="537.145" cy="741.081" r="4" fill="#0" id="circle127"/>
	<circle cx="538.602" cy="996" r="4" fill="#0" id="circle128"/>
	<circle cx="544.429" cy="816.828" r="4" fill="#0" id="circle129"/>
	<circle cx="547.342" cy="11.2834" r="4" fill="#0" id="circle130"/>
	<circle cx="548.799" cy="730.884" r="4" fill="#0" id="circle131"/>
	<circle cx="551.712" cy="988.717" r="4" fill="#0" id="circle132"/>
	<circle cx="558.996" cy="819.742" r="4" fill="#0" id="circle133"/>
	<circle cx="561.909" cy="11.2834" r="4" fill="#0" id="circle134"/>
	<circle cx="563.366" cy="726.514" r="4" fill="#0" id="circle135"/>
	<circle cx="566.279" cy="988.717" r="4" fill="#0" id="circle136"/>
	<circle cx="572.106" cy="827.025" r="4" fill="#0" id="circle137"/>
	<circle cx="576.476" cy="11.2834" r="4" fill="#0" id="circle138"/>
	<circle cx="577.932" cy="726.514" r="4" fill="#0" id="circle139"/>
	<circle cx="580.846" cy="988.717" r="4" fill="#0" id="circle140"/>
	<circle cx="586.673" cy="827.025" r="4" fill="#0" id="circle141"/>
	<circle cx="591.043" cy="11.2834" r="4" fill="#0" id="circle142"/>
	<circle cx="591.043" cy="719.231" r="4" fill="#0" id="circle143"/>
	<circle cx="593.956" cy="981.433" r="4" fill="#0" id="circle144"/>
	<circle cx="601.239" cy="829.938" r="4" fill="#0" id="circle145"/>
	<circle cx="604.153" cy="18.5668" r="4" fill="#0" id="circle146"/>
	<circle cx="605.609" cy="725.057" r="4" fill="#0" id="circle147"/>
	<circle cx="607.066" cy="974.15" r="4" fill="#0" id="circle148"/>
	<circle cx="609.979" cy="33.1336" r="4" fill="#0" id="circle149"/>
	<circle cx="615.806" cy="834.308" r="4" fill="#0" id="circle150"/>
	<circle cx="617.263" cy="46.2438" r="4" fill="#0" id="circle151"/>
	<circle cx="620.176" cy="726.514" r="4" fill="#0" id="circle152"/>
	<circle cx="621.633" cy="971.236" r="4" fill="#0" id="circle153"/>
	<circle cx="624.546" cy="59.3539" r="4" fill="#0" id="circle154"/>
	<circle cx="624.546" cy="73.9207" r="4" fill="#0" id="circle155"/>
	<circle cx="628.916" cy="841.592" r="4" fill="#0" id="circle156"/>
	<circle cx="631.83" cy="87.0308" r="4" fill="#0" id="circle157"/>
	<circle cx="633.286" cy="733.797" r="4" fill="#0" id="circle158"/>
	<circle cx="636.2" cy="963.953" r="4" fill="#0" id="circle159"/>
	<circle cx="639.113" cy="100.141" r="4" fill="#0" id="circle160"/>
	<circle cx="642.026" cy="114.708" r="4" fill="#0" id="circle161"/>
	<circle cx="642.026" cy="848.875" r="4" fill="#0" id="circle162"/>
	<circle cx="647.853" cy="733.797" r="4" fill="#0" id="circle163"/>
	<circle cx="649.31" cy="127.818" r="4" fill="#0" id="circle164"/>
	<circle cx="650.767" cy="959.583" r="4" fill="#0" id="circle165"/>
	<circle cx="653.68" cy="142.385" r="4" fill="#0" id="circle166"/>
	<circle cx="655.137" cy="856.159" r="4" fill="#0" id="circle167"/>
	<circle cx="660.963" cy="155.495" r="4" fill="#0" id="circle168"/>
	<circle cx="662.42" cy="738.167" r="4" fill="#0" id="circle169"/>
	<circle cx="663.877" cy="952.3" r="4" fill="#0" id="circle170"/>
	<circle cx="668.247" cy="168.605" r="4" fill="#0" id="circle171"/>
	<circle cx="668.247" cy="183.172" r="4" fill="#0" id="circle172"/>
	<circle cx="669.703" cy="856.159" r="4" fill="#0" id="circle173"/>
	<circle cx="675.53" cy="196.282" r="4" fill="#0" id="circle174"/>
	<circle cx="675.53" cy="745.451" r="4" fill="#0" id="circle175"/>
	<circle cx="676.987" cy="945.016" r="4" fill="#0" id="circle176"/>
	<circle cx="679.9" cy="210.849" r="4" fill="#0" id="circle177"/>
	<circle cx="682.814" cy="508.012" r="4" fill="#0" id="circle178"/>
	<circle cx="682.814" cy="522.579" r="4" fill="#0" id="circle179"/>
	<circle cx="682.814" cy="863.442" r="4" fill="#0" id="circle180"/>
	<circle cx="688.64" cy="222.502" r="4" fill="#0" id="circle181"/>
	<circle cx="690.097" cy="535.689" r="4" fill="#0" id="circle182"/>
	<circle cx="690.097" cy="748.364" r="4" fill="#0" id="circle183"/>
	<circle cx="690.097" cy="937.733" r="4" fill="#0" id="circle184"/>
	<circle cx="695.924" cy="870.725" r="4" fill="#0" id="circle185"/>
	<circle cx="697.38" cy="500.728" r="4" fill="#0" id="circle186"/>
	<circle cx="697.38" cy="548.799" r="4" fill="#0" id="circle187"/>
	<circle cx="703.207" cy="222.502" r="4" fill="#0" id="circle188"/>
	<circle cx="703.207" cy="755.648" r="4" fill="#0" id="circle189"/>
	<circle cx="703.207" cy="930.449" r="4" fill="#0" id="circle190"/>
	<circle cx="704.664" cy="561.909" r="4" fill="#0" id="circle191"/>
	<circle cx="709.034" cy="878.009" r="4" fill="#0" id="circle192"/>
	<circle cx="711.947" cy="493.445" r="4" fill="#0" id="circle193"/>
	<circle cx="711.947" cy="575.019" r="4" fill="#0" id="circle194"/>
	<circle cx="714.86" cy="921.709" r="4" fill="#0" id="circle195"/>
	<circle cx="716.317" cy="762.931" r="4" fill="#0" id="circle196"/>
	<circle cx="717.774" cy="225.416" r="4" fill="#0" id="circle197"/>
	<circle cx="720.687" cy="586.673" r="4" fill="#0" id="circle198"/>
	<circle cx="722.144" cy="885.292" r="4" fill="#0" id="circle199"/>
	<circle cx="725.057" cy="486.162" r="4" fill="#0" id="circle200"/>
	<circle cx="726.514" cy="899.859" r="4" fill="#0" id="circle201"/>
	<circle cx="730.884" cy="762.931" r="4" fill="#0" id="circle202"/>
	<circle cx="732.341" cy="229.786" r="4" fill="#0" id="circle203"/>
	<circle cx="732.341" cy="596.869" r="4" fill="#0" id="circle204"/>
	<circle cx="738.167" cy="478.878" r="4" fill="#0" id="circle205"/>
	<circle cx="741.081" cy="318.643" r="4" fill="#0" id="circle206"/>
	<circle cx="741.081" cy="333.21" r="4" fill="#0" id="circle207"/>
	<circle cx="741.081" cy="347.777" r="4" fill="#0" id="circle208"/>
	<circle cx="745.451" cy="604.153" r="4" fill="#0" id="circle209"/>
	<circle cx="745.451" cy="762.931" r="4" fill="#0" id="circle210"/>
	<circle cx="746.907" cy="229.786" r="4" fill="#0" id="circle211"/>
	<circle cx="748.364" cy="304.076" r="4" fill="#0" id="circle212"/>
	<circle cx="748.364" cy="360.887" r="4" fill="#0" id="circle213"/>
	<circle cx="751.278" cy="470.138" r="4" fill="#0" id="circle214"/>
	<circle cx="752.734" cy="617.263" r="4" fill="#0" id="circle215"/>
	<circle cx="755.648" cy="282.226" r="4" fill="#0" id="circle216"/>
	<circle cx="758.561" cy="455.571" r="4" fill="#0" id="circle217"/>
	<circle cx="758.561" cy="754.191" r="4" fill="#0" id="circle218"/>
	<circle cx="760.018" cy="237.069" r="4" fill="#0" id="circle219"/>
	<circle cx="760.018" cy="369.627" r="4" fill="#0" id="circle220"/>
	<circle cx="762.931" cy="267.659" r="4" fill="#0" id="circle221"/>
	<circle cx="762.931" cy="628.916" r="4" fill="#0" id="circle222"/>
	<circle cx="770.214" cy="381.28" r="4" fill="#0" id="circle223"/>
	<circle cx="770.214" cy="442.461" r="4" fill="#0" id="circle224"/>
	<circle cx="770.214" cy="642.026" r="4" fill="#0" id="circle225"/>
	<circle cx="770.214" cy="741.081" r="4" fill="#0" id="circle226"/>
	<circle cx="774.584" cy="237.069" r="4" fill="#0" id="circle227"/>
	<circle cx="776.041" cy="656.593" r="4" fill="#0" id="circle228"/>
	<circle cx="777.498" cy="267.659" r="4" fill="#0" id="circle229"/>
	<circle cx="777.498" cy="394.391" r="4" fill="#0" id="circle230"/>
	<circle cx="777.498" cy="408.957" r="4" fill="#0" id="circle231"/>
	<circle cx="777.498" cy="423.524" r="4" fill="#0" id="circle232"/>
	<circle cx="777.498" cy="671.16" r="4" fill="#0" id="circle233"/>
	<circle cx="777.498" cy="685.727" r="4" fill="#0" id="circle234"/>
	<circle cx="777.498" cy="700.294" r="4" fill="#0" id="circle235"/>
	<circle cx="777.498" cy="714.86" r="4" fill="#0" id="circle236"/>
	<circle cx="789.151" cy="237.069" r="4" fill="#0" id="circle237"/>
	<circle cx="792.065" cy="251.636" r="4" fill="#0" id="circle238"/>
	</g>
</svg>