<?xml version="1.0" encoding="UTF-8" standalone="no"?>
<!-- Created with CurveBenchmark -->
<svg
	xmlns:dc="http://purl.org/dc/elements/1.1/"
	xmlns:cc="http://creativecommons.org/ns#"
	xmlns:rdf="http://www.w3.org/1999/02/22-rdf-syntax-ns#"
	xmlns:svg="http://www.w3.org/2000/svg"
	xmlns="http://www.w3.org/2000/svg"
	xmlns:sodipodi="http://sodipodi.sourceforge.net/DTD/sodipodi-0.dtd"
	xmlns:inkscape="http://www.inkscape.org/namespaces/inkscape"
	width="1000"
	height="1000"
	id="svg2"
	version="1.1"
	sodipodi:docname="manifold/fitconnect-hammer105.png.txt">
<defs
	id="defs4" />
<metadata
	id="metadata7">
	<rdf:RDF>
		<cc:Work
			rdf:about="">
			<dc:format>image/svg+xml</dc:format>
			<dc:type
				rdf:resource="http://purl.org/dc/dcmitype/StillImage" />
			<dc:title></dc:title>
		</cc:Work>
	</rdf:RDF>
</metadata>
<g
	inkscape:label="Layer 1"
	inkscape:groupmode="layer"
	id="layer1">
	<path style="fill:none;stroke:red;stroke-width:1px;stroke-linecap:butt;stroke-linejoin:miter;stroke-opacity:1" d="M 4,32.7536 6.87536,61.5072 z" id="boundary" inkscape:connector-curvature="0" />
	<path style="fill:none;stroke:red;stroke-width:1px;stroke-linecap:butt;stroke-linejoin:miter;stroke-opacity:1" d="M 4,32.7536 21.2522,9.75072 z" id="boundary" inkscape:connector-curvature="0" />
	<path style="fill:none;stroke:red;stroke-width:1px;stroke-linecap:butt;stroke-linejoin:miter;stroke-opacity:1" d="M 6.87536,61.5072 24.1275,84.5101 z" id="boundary" inkscape:connector-curvature="0" />
	<path style="fill:none;stroke:red;stroke-width:1px;stroke-linecap:butt;stroke-linejoin:miter;stroke-opacity:1" d="M 21.2522,9.75072 50.0058,4 z" id="boundary" inkscape:connector-curvature="0" />
	<path style="fill:none;stroke:red;stroke-width:1px;stroke-linecap:butt;stroke-linejoin:miter;stroke-opacity:1" d="M 24.1275,84.5101 38.5043,110.388 z" id="boundary" inkscape:connector-curvature="0" />
	<path style="fill:none;stroke:red;stroke-width:1px;stroke-linecap:butt;stroke-linejoin:miter;stroke-opacity:1" d="M 27.0029,981.623 32.7536,947.119 z" id="boundary" inkscape:connector-curvature="0" />
	<path style="fill:none;stroke:red;stroke-width:1px;stroke-linecap:butt;stroke-linejoin:miter;stroke-opacity:1" d="M 27.0029,981.623 52.8812,996 z" id="boundary" inkscape:connector-curvature="0" />
	<path style="fill:none;stroke:red;stroke-width:1px;stroke-linecap:butt;stroke-linejoin:miter;stroke-opacity:1" d="M 32.7536,487.061 32.7536,515.814 z" id="boundary" inkscape:connector-curvature="0" />
	<path style="fill:none;stroke:red;stroke-width:1px;stroke-linecap:butt;stroke-linejoin:miter;stroke-opacity:1" d="M 32.7536,487.061 50.0058,446.806 z" id="boundary" inkscape:connector-curvature="0" />
	<path style="fill:none;stroke:red;stroke-width:1px;stroke-linecap:butt;stroke-linejoin:miter;stroke-opacity:1" d="M 32.7536,515.814 32.7536,544.568 z" id="boundary" inkscape:connector-curvature="0" />
	<path style="fill:none;stroke:red;stroke-width:1px;stroke-linecap:butt;stroke-linejoin:miter;stroke-opacity:1" d="M 32.7536,544.568 32.7536,573.322 z" id="boundary" inkscape:connector-curvature="0" />
	<path style="fill:none;stroke:red;stroke-width:1px;stroke-linecap:butt;stroke-linejoin:miter;stroke-opacity:1" d="M 32.7536,573.322 32.7536,602.075 z" id="boundary" inkscape:connector-curvature="0" />
	<path style="fill:none;stroke:red;stroke-width:1px;stroke-linecap:butt;stroke-linejoin:miter;stroke-opacity:1" d="M 32.7536,602.075 32.7536,630.829 z" id="boundary" inkscape:connector-curvature="0" />
	<path style="fill:none;stroke:red;stroke-width:1px;stroke-linecap:butt;stroke-linejoin:miter;stroke-opacity:1" d="M 32.7536,630.829 32.7536,659.583 z" id="boundary" inkscape:connector-curvature="0" />
	<path style="fill:none;stroke:red;stroke-width:1px;stroke-linecap:butt;stroke-linejoin:miter;stroke-opacity:1" d="M 32.7536,659.583 32.7536,688.336 z" id="boundary" inkscape:connector-curvature="0" />
	<path style="fill:none;stroke:red;stroke-width:1px;stroke-linecap:butt;stroke-linejoin:miter;stroke-opacity:1" d="M 32.7536,688.336 32.7536,717.09 z" id="boundary" inkscape:connector-curvature="0" />
	<path style="fill:none;stroke:red;stroke-width:1px;stroke-linecap:butt;stroke-linejoin:miter;stroke-opacity:1" d="M 32.7536,717.09 32.7536,745.843 z" id="boundary" inkscape:connector-curvature="0" />
	<path style="fill:none;stroke:red;stroke-width:1px;stroke-linecap:butt;stroke-linejoin:miter;stroke-opacity:1" d="M 32.7536,745.843 32.7536,774.597 z" id="boundary" inkscape:connector-curvature="0" />
	<path style="fill:none;stroke:red;stroke-width:1px;stroke-linecap:butt;stroke-linejoin:miter;stroke-opacity:1" d="M 32.7536,774.597 32.7536,803.351 z" id="boundary" inkscape:connector-curvature="0" />
	<path style="fill:none;stroke:red;stroke-width:1px;stroke-linecap:butt;stroke-linejoin:miter;stroke-opacity:1" d="M 32.7536,803.351 32.7536,832.104 z" id="boundary" inkscape:connector-curvature="0" />
	<path style="fill:none;stroke:red;stroke-width:1px;stroke-linecap:butt;stroke-linejoin:miter;stroke-opacity:1" d="M 32.7536,832.104 32.7536,860.858 z" id="boundary" inkscape:connector-curvature="0" />
	<path style="fill:none;stroke:red;stroke-width:1px;stroke-linecap:butt;stroke-linejoin:miter;stroke-opacity:1" d="M 32.7536,860.858 32.7536,889.612 z" id="boundary" inkscape:connector-curvature="0" />
	<path style="fill:none;stroke:red;stroke-width:1px;stroke-linecap:butt;stroke-linejoin:miter;stroke-opacity:1" d="M 32.7536,889.612 32.7536,918.365 z" id="boundary" inkscape:connector-curvature="0" />
	<path style="fill:none;stroke:red;stroke-width:1px;stroke-linecap:butt;stroke-linejoin:miter;stroke-opacity:1" d="M 32.7536,918.365 32.7536,947.119 z" id="boundary" inkscape:connector-curvature="0" />
	<path style="fill:none;stroke:red;stroke-width:1px;stroke-linecap:butt;stroke-linejoin:miter;stroke-opacity:1" d="M 38.5043,110.388 38.5043,139.142 z" id="boundary" inkscape:connector-curvature="0" />
	<path style="fill:none;stroke:red;stroke-width:1px;stroke-linecap:butt;stroke-linejoin:miter;stroke-opacity:1" d="M 38.5043,139.142 44.2551,167.896 z" id="boundary" inkscape:connector-curvature="0" />
	<path style="fill:none;stroke:red;stroke-width:1px;stroke-linecap:butt;stroke-linejoin:miter;stroke-opacity:1" d="M 44.2551,167.896 50.0058,196.649 z" id="boundary" inkscape:connector-curvature="0" />
	<path style="fill:none;stroke:red;stroke-width:1px;stroke-linecap:butt;stroke-linejoin:miter;stroke-opacity:1" d="M 50.0058,4 78.7594,4 z" id="boundary" inkscape:connector-curvature="0" />
	<path style="fill:none;stroke:red;stroke-width:1px;stroke-linecap:butt;stroke-linejoin:miter;stroke-opacity:1" d="M 50.0058,196.649 55.7565,225.403 z" id="boundary" inkscape:connector-curvature="0" />
	<path style="fill:none;stroke:red;stroke-width:1px;stroke-linecap:butt;stroke-linejoin:miter;stroke-opacity:1" d="M 50.0058,446.806 61.5072,397.925 z" id="boundary" inkscape:connector-curvature="0" />
	<path style="fill:none;stroke:red;stroke-width:1px;stroke-linecap:butt;stroke-linejoin:miter;stroke-opacity:1" d="M 52.8812,996 81.6348,996 z" id="boundary" inkscape:connector-curvature="0" />
	<path style="fill:none;stroke:red;stroke-width:1px;stroke-linecap:butt;stroke-linejoin:miter;stroke-opacity:1" d="M 55.7565,225.403 61.5072,254.157 z" id="boundary" inkscape:connector-curvature="0" />
	<path style="fill:none;stroke:red;stroke-width:1px;stroke-linecap:butt;stroke-linejoin:miter;stroke-opacity:1" d="M 61.5072,254.157 61.5072,282.91 z" id="boundary" inkscape:connector-curvature="0" />
	<path style="fill:none;stroke:red;stroke-width:1px;stroke-linecap:butt;stroke-linejoin:miter;stroke-opacity:1" d="M 61.5072,282.91 61.5072,311.664 z" id="boundary" inkscape:connector-curvature="0" />
	<path style="fill:none;stroke:red;stroke-width:1px;stroke-linecap:butt;stroke-linejoin:miter;stroke-opacity:1" d="M 61.5072,311.664 61.5072,340.417 z" id="boundary" inkscape:connector-curvature="0" />
	<path style="fill:none;stroke:red;stroke-width:1px;stroke-linecap:butt;stroke-linejoin:miter;stroke-opacity:1" d="M 61.5072,340.417 61.5072,369.171 z" id="boundary" inkscape:connector-curvature="0" />
	<path style="fill:none;stroke:red;stroke-width:1px;stroke-linecap:butt;stroke-linejoin:miter;stroke-opacity:1" d="M 61.5072,369.171 61.5072,397.925 z" id="boundary" inkscape:connector-curvature="0" />
	<path style="fill:none;stroke:red;stroke-width:1px;stroke-linecap:butt;stroke-linejoin:miter;stroke-opacity:1" d="M 78.7594,4 107.513,4 z" id="boundary" inkscape:connector-curvature="0" />
	<path style="fill:none;stroke:red;stroke-width:1px;stroke-linecap:butt;stroke-linejoin:miter;stroke-opacity:1" d="M 81.6348,996 110.388,996 z" id="boundary" inkscape:connector-curvature="0" />
	<path style="fill:none;stroke:red;stroke-width:1px;stroke-linecap:butt;stroke-linejoin:miter;stroke-opacity:1" d="M 107.513,4 136.267,4 z" id="boundary" inkscape:connector-curvature="0" />
	<path style="fill:none;stroke:red;stroke-width:1px;stroke-linecap:butt;stroke-linejoin:miter;stroke-opacity:1" d="M 110.388,996 139.142,996 z" id="boundary" inkscape:connector-curvature="0" />
	<path style="fill:none;stroke:red;stroke-width:1px;stroke-linecap:butt;stroke-linejoin:miter;stroke-opacity:1" d="M 127.641,222.528 127.641,251.281 z" id="boundary" inkscape:connector-curvature="0" />
	<path style="fill:none;stroke:red;stroke-width:1px;stroke-linecap:butt;stroke-linejoin:miter;stroke-opacity:1" d="M 127.641,222.528 133.391,188.023 z" id="boundary" inkscape:connector-curvature="0" />
	<path style="fill:none;stroke:red;stroke-width:1px;stroke-linecap:butt;stroke-linejoin:miter;stroke-opacity:1" d="M 127.641,251.281 127.641,280.035 z" id="boundary" inkscape:connector-curvature="0" />
	<path style="fill:none;stroke:red;stroke-width:1px;stroke-linecap:butt;stroke-linejoin:miter;stroke-opacity:1" d="M 127.641,280.035 127.641,308.788 z" id="boundary" inkscape:connector-curvature="0" />
	<path style="fill:none;stroke:red;stroke-width:1px;stroke-linecap:butt;stroke-linejoin:miter;stroke-opacity:1" d="M 127.641,308.788 127.641,337.542 z" id="boundary" inkscape:connector-curvature="0" />
	<path style="fill:none;stroke:red;stroke-width:1px;stroke-linecap:butt;stroke-linejoin:miter;stroke-opacity:1" d="M 127.641,337.542 127.641,366.296 z" id="boundary" inkscape:connector-curvature="0" />
	<path style="fill:none;stroke:red;stroke-width:1px;stroke-linecap:butt;stroke-linejoin:miter;stroke-opacity:1" d="M 127.641,366.296 127.641,395.049 z" id="boundary" inkscape:connector-curvature="0" />
	<path style="fill:none;stroke:red;stroke-width:1px;stroke-linecap:butt;stroke-linejoin:miter;stroke-opacity:1" d="M 127.641,395.049 127.641,423.803 z" id="boundary" inkscape:connector-curvature="0" />
	<path style="fill:none;stroke:red;stroke-width:1px;stroke-linecap:butt;stroke-linejoin:miter;stroke-opacity:1" d="M 127.641,423.803 136.267,452.557 z" id="boundary" inkscape:connector-curvature="0" />
	<path style="fill:none;stroke:red;stroke-width:1px;stroke-linecap:butt;stroke-linejoin:miter;stroke-opacity:1" d="M 133.391,188.023 162.145,179.397 z" id="boundary" inkscape:connector-curvature="0" />
	<path style="fill:none;stroke:red;stroke-width:1px;stroke-linecap:butt;stroke-linejoin:miter;stroke-opacity:1" d="M 136.267,4 159.27,24.1275 z" id="boundary" inkscape:connector-curvature="0" />
	<path style="fill:none;stroke:red;stroke-width:1px;stroke-linecap:butt;stroke-linejoin:miter;stroke-opacity:1" d="M 136.267,452.557 150.643,478.435 z" id="boundary" inkscape:connector-curvature="0" />
	<path style="fill:none;stroke:red;stroke-width:1px;stroke-linecap:butt;stroke-linejoin:miter;stroke-opacity:1" d="M 139.142,996 156.394,958.62 z" id="boundary" inkscape:connector-curvature="0" />
	<path style="fill:none;stroke:red;stroke-width:1px;stroke-linecap:butt;stroke-linejoin:miter;stroke-opacity:1" d="M 150.643,478.435 150.643,507.188 z" id="boundary" inkscape:connector-curvature="0" />
	<path style="fill:none;stroke:red;stroke-width:1px;stroke-linecap:butt;stroke-linejoin:miter;stroke-opacity:1" d="M 150.643,507.188 156.394,535.942 z" id="boundary" inkscape:connector-curvature="0" />
	<path style="fill:none;stroke:red;stroke-width:1px;stroke-linecap:butt;stroke-linejoin:miter;stroke-opacity:1" d="M 150.643,699.838 150.643,728.591 z" id="boundary" inkscape:connector-curvature="0" />
	<path style="fill:none;stroke:red;stroke-width:1px;stroke-linecap:butt;stroke-linejoin:miter;stroke-opacity:1" d="M 150.643,699.838 156.394,650.957 z" id="boundary" inkscape:connector-curvature="0" />
	<path style="fill:none;stroke:red;stroke-width:1px;stroke-linecap:butt;stroke-linejoin:miter;stroke-opacity:1" d="M 150.643,728.591 150.643,757.345 z" id="boundary" inkscape:connector-curvature="0" />
	<path style="fill:none;stroke:red;stroke-width:1px;stroke-linecap:butt;stroke-linejoin:miter;stroke-opacity:1" d="M 150.643,757.345 150.643,786.099 z" id="boundary" inkscape:connector-curvature="0" />
	<path style="fill:none;stroke:red;stroke-width:1px;stroke-linecap:butt;stroke-linejoin:miter;stroke-opacity:1" d="M 150.643,786.099 150.643,814.852 z" id="boundary" inkscape:connector-curvature="0" />
	<path style="fill:none;stroke:red;stroke-width:1px;stroke-linecap:butt;stroke-linejoin:miter;stroke-opacity:1" d="M 150.643,814.852 150.643,843.606 z" id="boundary" inkscape:connector-curvature="0" />
	<path style="fill:none;stroke:red;stroke-width:1px;stroke-linecap:butt;stroke-linejoin:miter;stroke-opacity:1" d="M 150.643,843.606 150.643,872.359 z" id="boundary" inkscape:connector-curvature="0" />
	<path style="fill:none;stroke:red;stroke-width:1px;stroke-linecap:butt;stroke-linejoin:miter;stroke-opacity:1" d="M 150.643,872.359 150.643,901.113 z" id="boundary" inkscape:connector-curvature="0" />
	<path style="fill:none;stroke:red;stroke-width:1px;stroke-linecap:butt;stroke-linejoin:miter;stroke-opacity:1" d="M 150.643,901.113 156.394,929.867 z" id="boundary" inkscape:connector-curvature="0" />
	<path style="fill:none;stroke:red;stroke-width:1px;stroke-linecap:butt;stroke-linejoin:miter;stroke-opacity:1" d="M 156.394,535.942 156.394,564.696 z" id="boundary" inkscape:connector-curvature="0" />
	<path style="fill:none;stroke:red;stroke-width:1px;stroke-linecap:butt;stroke-linejoin:miter;stroke-opacity:1" d="M 156.394,564.696 156.394,593.449 z" id="boundary" inkscape:connector-curvature="0" />
	<path style="fill:none;stroke:red;stroke-width:1px;stroke-linecap:butt;stroke-linejoin:miter;stroke-opacity:1" d="M 156.394,593.449 156.394,622.203 z" id="boundary" inkscape:connector-curvature="0" />
	<path style="fill:none;stroke:red;stroke-width:1px;stroke-linecap:butt;stroke-linejoin:miter;stroke-opacity:1" d="M 156.394,622.203 156.394,650.957 z" id="boundary" inkscape:connector-curvature="0" />
	<path style="fill:none;stroke:red;stroke-width:1px;stroke-linecap:butt;stroke-linejoin:miter;stroke-opacity:1" d="M 156.394,929.867 156.394,958.62 z" id="boundary" inkscape:connector-curvature="0" />
	<path style="fill:none;stroke:red;stroke-width:1px;stroke-linecap:butt;stroke-linejoin:miter;stroke-opacity:1" d="M 159.27,24.1275 173.646,50.0058 z" id="boundary" inkscape:connector-curvature="0" />
	<path style="fill:none;stroke:red;stroke-width:1px;stroke-linecap:butt;stroke-linejoin:miter;stroke-opacity:1" d="M 162.145,179.397 190.899,179.397 z" id="boundary" inkscape:connector-curvature="0" />
	<path style="fill:none;stroke:red;stroke-width:1px;stroke-linecap:butt;stroke-linejoin:miter;stroke-opacity:1" d="M 173.646,50.0058 179.397,78.7594 z" id="boundary" inkscape:connector-curvature="0" />
	<path style="fill:none;stroke:red;stroke-width:1px;stroke-linecap:butt;stroke-linejoin:miter;stroke-opacity:1" d="M 179.397,78.7594 185.148,107.513 z" id="boundary" inkscape:connector-curvature="0" />
	<path style="fill:none;stroke:red;stroke-width:1px;stroke-linecap:butt;stroke-linejoin:miter;stroke-opacity:1" d="M 185.148,107.513 190.899,136.267 z" id="boundary" inkscape:connector-curvature="0" />
	<path style="fill:none;stroke:red;stroke-width:1px;stroke-linecap:butt;stroke-linejoin:miter;stroke-opacity:1" d="M 190.899,136.267 190.899,179.397 z" id="boundary" inkscape:connector-curvature="0" />
	<circle cx="4" cy="32.7536" r="4" fill="#0" id="circle0"/>
	<circle cx="6.87536" cy="61.5072" r="4" fill="#0" id="circle1"/>
	<circle cx="21.2522" cy="9.75072" r="4" fill="#0" id="circle2"/>
	<circle cx="24.1275" cy="84.5101" r="4" fill="#0" id="circle3"/>
	<circle cx="27.0029" cy="981.623" r="4" fill="#0" id="circle4"/>
	<circle cx="32.7536" cy="487.061" r="4" fill="#0" id="circle5"/>
	<circle cx="32.7536" cy="515.814" r="4" fill="#0" id="circle6"/>
	<circle cx="32.7536" cy="544.568" r="4" fill="#0" id="circle7"/>
	<circle cx="32.7536" cy="573.322" r="4" fill="#0" id="circle8"/>
	<circle cx="32.7536" cy="602.075" r="4" fill="#0" id="circle9"/>
	<circle cx="32.7536" cy="630.829" r="4" fill="#0" id="circle10"/>
	<circle cx="32.7536" cy="659.583" r="4" fill="#0" id="circle11"/>
	<circle cx="32.7536" cy="688.336" r="4" fill="#0" id="circle12"/>
	<circle cx="32.7536" cy="717.09" r="4" fill="#0" id="circle13"/>
	<circle cx="32.7536" cy="745.843" r="4" fill="#0" id="circle14"/>
	<circle cx="32.7536" cy="774.597" r="4" fill="#0" id="circle15"/>
	<circle cx="32.7536" cy="803.351" r="4" fill="#0" id="circle16"/>
	<circle cx="32.7536" cy="832.104" r="4" fill="#0" id="circle17"/>
	<circle cx="32.7536" cy="860.858" r="4" fill="#0" id="circle18"/>
	<circle cx="32.7536" cy="889.612" r="4" fill="#0" id="circle19"/>
	<circle cx="32.7536" cy="918.365" r="4" fill="#0" id="circle20"/>
	<circle cx="32.7536" cy="947.119" r="4" fill="#0" id="circle21"/>
	<circle cx="38.5043" cy="110.388" r="4" fill="#0" id="circle22"/>
	<circle cx="38.5043" cy="139.142" r="4" fill="#0" id="circle23"/>
	<circle cx="44.2551" cy="167.896" r="4" fill="#0" id="circle24"/>
	<circle cx="50.0058" cy="4" r="4" fill="#0" id="circle25"/>
	<circle cx="50.0058" cy="196.649" r="4" fill="#0" id="circle26"/>
	<circle cx="50.0058" cy="446.806" r="4" fill="#0" id="circle27"/>
	<circle cx="52.8812" cy="996" r="4" fill="#0" id="circle28"/>
	<circle cx="55.7565" cy="225.403" r="4" fill="#0" id="circle29"/>
	<circle cx="61.5072" cy="254.157" r="4" fill="#0" id="circle30"/>
	<circle cx="61.5072" cy="282.91" r="4" fill="#0" id="circle31"/>
	<circle cx="61.5072" cy="311.664" r="4" fill="#0" id="circle32"/>
	<circle cx="61.5072" cy="340.417" r="4" fill="#0" id="circle33"/>
	<circle cx="61.5072" cy="369.171" r="4" fill="#0" id="circle34"/>
	<circle cx="61.5072" cy="397.925" r="4" fill="#0" id="circle35"/>
	<circle cx="78.7594" cy="4" r="4" fill="#0" id="circle36"/>
	<circle cx="81.6348" cy="996" r="4" fill="#0" id="circle37"/>
	<circle cx="107.513" cy="4" r="4" fill="#0" id="circle38"/>
	<circle cx="110.388" cy="996" r="4" fill="#0" id="circle39"/>
	<circle cx="127.641" cy="222.528" r="4" fill="#0" id="circle40"/>
	<circle cx="127.641" cy="251.281" r="4" fill="#0" id="circle41"/>
	<circle cx="127.641" cy="280.035" r="4" fill="#0" id="circle42"/>
	<circle cx="127.641" cy="308.788" r="4" fill="#0" id="circle43"/>
	<circle cx="127.641" cy="337.542" r="4" fill="#0" id="circle44"/>
	<circle cx="127.641" cy="366.296" r="4" fill="#0" id="circle45"/>
	<circle cx="127.641" cy="395.049" r="4" fill="#0" id="circle46"/>
	<circle cx="127.641" cy="423.803" r="4" fill="#0" id="circle47"/>
	<circle cx="133.391" cy="188.023" r="4" fill="#0" id="circle48"/>
	<circle cx="136.267" cy="4" r="4" fill="#0" id="circle49"/>
	<circle cx="136.267" cy="452.557" r="4" fill="#0" id="circle50"/>
	<circle cx="139.142" cy="996" r="4" fill="#0" id="circle51"/>
	<circle cx="150.643" cy="478.435" r="4" fill="#0" id="circle52"/>
	<circle cx="150.643" cy="507.188" r="4" fill="#0" id="circle53"/>
	<circle cx="150.643" cy="699.838" r="4" fill="#0" id="circle54"/>
	<circle cx="150.643" cy="728.591" r="4" fill="#0" id="circle55"/>
	<circle cx="150.643" cy="757.345" r="4" fill="#0" id="circle56"/>
	<circle cx="150.643" cy="786.099" r="4" fill="#0" id="circle57"/>
	<circle cx="150.643" cy="814.852" r="4" fill="#0" id="circle58"/>
	<circle cx="150.643" cy="843.606" r="4" fill="#0" id="circle59"/>
	<circle cx="150.643" cy="872.359" r="4" fill="#0" id="circle60"/>
	<circle cx="150.643" cy="901.113" r="4" fill="#0" id="circle61"/>
	<circle cx="156.394" cy="535.942" r="4" fill="#0" id="circle62"/>
	<circle cx="156.394" cy="564.696" r="4" fill="#0" id="circle63"/>
	<circle cx="156.394" cy="593.449" r="4" fill="#0" id="circle64"/>
	<circle cx="156.394" cy="622.203" r="4" fill="#0" id="circle65"/>
	<circle cx="156.394" cy="650.957" r="4" fill="#0" id="circle66"/>
	<circle cx="156.394" cy="929.867" r="4" fill="#0" id="circle67"/>
	<circle cx="156.394" cy="958.62" r="4" fill="#0" id="circle68"/>
	<circle cx="159.27" cy="24.1275" r="4" fill="#0" id="circle69"/>
	<circle cx="162.145" cy="179.397" r="4" fill="#0" id="circle70"/>
	<circle cx="173.646" cy="50.0058" r="4" fill="#0" id="circle71"/>
	<circle cx="179.397" cy="78.7594" r="4" fill="#0" id="circle72"/>
	<circle cx="185.148" cy="107.513" r="4" fill="#0" id="circle73"/>
	<circle cx="190.899" cy="136.267" r="4" fill="#0" id="circle74"/>
	<circle cx="190.899" cy="179.397" r="4" fill="#0" id="circle75"/>
	</g>
</svg>