<?xml version="1.0" encoding="UTF-8" standalone="no"?>
<!-- Created with CurveBenchmark -->
<svg
	xmlns:dc="http://purl.org/dc/elements/1.1/"
	xmlns:cc="http://creativecommons.org/ns#"
	xmlns:rdf="http://www.w3.org/1999/02/22-rdf-syntax-ns#"
	xmlns:svg="http://www.w3.org/2000/svg"
	xmlns="http://www.w3.org/2000/svg"
	xmlns:sodipodi="http://sodipodi.sourceforge.net/DTD/sodipodi-0.dtd"
	xmlns:inkscape="http://www.inkscape.org/namespaces/inkscape"
	width="1000"
	height="1000"
	id="svg2"
	version="1.1"
	sodipodi:docname="manifold/fitconnect-guitar195.png.txt">
<defs
	id="defs4" />
<metadata
	id="metadata7">
	<rdf:RDF>
		<cc:Work
			rdf:about="">
			<dc:format>image/svg+xml</dc:format>
			<dc:type
				rdf:resource="http://purl.org/dc/dcmitype/StillImage" />
			<dc:title></dc:title>
		</cc:Work>
	</rdf:RDF>
</metadata>
<g
	inkscape:label="Layer 1"
	inkscape:groupmode="layer"
	id="layer1">
	<path style="fill:none;stroke:red;stroke-width:1px;stroke-linecap:butt;stroke-linejoin:miter;stroke-opacity:1" d="M 4,823.631 60.2837,633.674 z" id="boundary" inkscape:connector-curvature="0" />
	<path style="fill:none;stroke:red;stroke-width:1px;stroke-linecap:butt;stroke-linejoin:miter;stroke-opacity:1" d="M 4,823.631 91.9433,967.858 z" id="boundary" inkscape:connector-curvature="0" />
	<path style="fill:none;stroke:red;stroke-width:1px;stroke-linecap:butt;stroke-linejoin:miter;stroke-opacity:1" d="M 60.2837,633.674 352.255,605.532 z" id="boundary" inkscape:connector-curvature="0" />
	<path style="fill:none;stroke:red;stroke-width:1px;stroke-linecap:butt;stroke-linejoin:miter;stroke-opacity:1" d="M 91.9433,967.858 162.298,988.965 z" id="boundary" inkscape:connector-curvature="0" />
	<path style="fill:none;stroke:red;stroke-width:1px;stroke-linecap:butt;stroke-linejoin:miter;stroke-opacity:1" d="M 162.298,988.965 232.652,988.965 z" id="boundary" inkscape:connector-curvature="0" />
	<path style="fill:none;stroke:red;stroke-width:1px;stroke-linecap:butt;stroke-linejoin:miter;stroke-opacity:1" d="M 179.887,7.51773 215.064,4 z" id="boundary" inkscape:connector-curvature="0" />
	<path style="fill:none;stroke:red;stroke-width:1px;stroke-linecap:butt;stroke-linejoin:miter;stroke-opacity:1" d="M 232.652,988.965 362.809,939.716 z" id="boundary" inkscape:connector-curvature="0" />
	<path style="fill:none;stroke:red;stroke-width:1px;stroke-linecap:butt;stroke-linejoin:miter;stroke-opacity:1" d="M 338.184,640.709 348.738,711.064 z" id="boundary" inkscape:connector-curvature="0" />
	<path style="fill:none;stroke:red;stroke-width:1px;stroke-linecap:butt;stroke-linejoin:miter;stroke-opacity:1" d="M 338.184,640.709 352.255,605.532 z" id="boundary" inkscape:connector-curvature="0" />
	<path style="fill:none;stroke:red;stroke-width:1px;stroke-linecap:butt;stroke-linejoin:miter;stroke-opacity:1" d="M 348.738,711.064 401.504,806.043 z" id="boundary" inkscape:connector-curvature="0" />
	<path style="fill:none;stroke:red;stroke-width:1px;stroke-linecap:butt;stroke-linejoin:miter;stroke-opacity:1" d="M 362.809,939.716 401.504,806.043 z" id="boundary" inkscape:connector-curvature="0" />
	<circle cx="4" cy="823.631" r="4" fill="#0" id="circle0"/>
	<circle cx="4" cy="858.809" r="4" fill="#0" id="circle1"/>
	<circle cx="14.5532" cy="893.986" r="4" fill="#0" id="circle2"/>
	<circle cx="18.0709" cy="774.383" r="4" fill="#0" id="circle3"/>
	<circle cx="35.6596" cy="742.723" r="4" fill="#0" id="circle4"/>
	<circle cx="35.6596" cy="922.128" r="4" fill="#0" id="circle5"/>
	<circle cx="46.2128" cy="563.319" r="4" fill="#0" id="circle6"/>
	<circle cx="46.2128" cy="598.496" r="4" fill="#0" id="circle7"/>
	<circle cx="56.766" cy="714.582" r="4" fill="#0" id="circle8"/>
	<circle cx="60.2837" cy="633.674" r="4" fill="#0" id="circle9"/>
	<circle cx="63.8014" cy="946.752" r="4" fill="#0" id="circle10"/>
	<circle cx="70.8369" cy="679.404" r="4" fill="#0" id="circle11"/>
	<circle cx="74.3546" cy="542.213" r="4" fill="#0" id="circle12"/>
	<circle cx="91.9433" cy="967.858" r="4" fill="#0" id="circle13"/>
	<circle cx="102.496" cy="563.319" r="4" fill="#0" id="circle14"/>
	<circle cx="127.121" cy="981.929" r="4" fill="#0" id="circle15"/>
	<circle cx="137.674" cy="570.355" r="4" fill="#0" id="circle16"/>
	<circle cx="151.745" cy="28.6241" r="4" fill="#0" id="circle17"/>
	<circle cx="151.745" cy="63.8014" r="4" fill="#0" id="circle18"/>
	<circle cx="151.745" cy="98.9787" r="4" fill="#0" id="circle19"/>
	<circle cx="158.78" cy="415.574" r="4" fill="#0" id="circle20"/>
	<circle cx="158.78" cy="450.752" r="4" fill="#0" id="circle21"/>
	<circle cx="158.78" cy="485.929" r="4" fill="#0" id="circle22"/>
	<circle cx="158.78" cy="521.106" r="4" fill="#0" id="circle23"/>
	<circle cx="162.298" cy="988.965" r="4" fill="#0" id="circle24"/>
	<circle cx="165.816" cy="134.156" r="4" fill="#0" id="circle25"/>
	<circle cx="165.816" cy="169.333" r="4" fill="#0" id="circle26"/>
	<circle cx="165.816" cy="204.511" r="4" fill="#0" id="circle27"/>
	<circle cx="165.816" cy="239.688" r="4" fill="#0" id="circle28"/>
	<circle cx="165.816" cy="274.865" r="4" fill="#0" id="circle29"/>
	<circle cx="165.816" cy="310.043" r="4" fill="#0" id="circle30"/>
	<circle cx="165.816" cy="345.22" r="4" fill="#0" id="circle31"/>
	<circle cx="165.816" cy="380.397" r="4" fill="#0" id="circle32"/>
	<circle cx="179.887" cy="7.51773" r="4" fill="#0" id="circle33"/>
	<circle cx="197.475" cy="996" r="4" fill="#0" id="circle34"/>
	<circle cx="211.546" cy="134.156" r="4" fill="#0" id="circle35"/>
	<circle cx="211.546" cy="169.333" r="4" fill="#0" id="circle36"/>
	<circle cx="215.064" cy="4" r="4" fill="#0" id="circle37"/>
	<circle cx="218.582" cy="204.511" r="4" fill="#0" id="circle38"/>
	<circle cx="218.582" cy="239.688" r="4" fill="#0" id="circle39"/>
	<circle cx="218.582" cy="274.865" r="4" fill="#0" id="circle40"/>
	<circle cx="218.582" cy="310.043" r="4" fill="#0" id="circle41"/>
	<circle cx="218.582" cy="345.22" r="4" fill="#0" id="circle42"/>
	<circle cx="218.582" cy="380.397" r="4" fill="#0" id="circle43"/>
	<circle cx="218.582" cy="415.574" r="4" fill="#0" id="circle44"/>
	<circle cx="218.582" cy="450.752" r="4" fill="#0" id="circle45"/>
	<circle cx="225.617" cy="77.8723" r="4" fill="#0" id="circle46"/>
	<circle cx="232.652" cy="42.695" r="4" fill="#0" id="circle47"/>
	<circle cx="232.652" cy="988.965" r="4" fill="#0" id="circle48"/>
	<circle cx="236.17" cy="482.411" r="4" fill="#0" id="circle49"/>
	<circle cx="267.83" cy="500" r="4" fill="#0" id="circle50"/>
	<circle cx="267.83" cy="985.447" r="4" fill="#0" id="circle51"/>
	<circle cx="303.007" cy="507.035" r="4" fill="#0" id="circle52"/>
	<circle cx="303.007" cy="978.411" r="4" fill="#0" id="circle53"/>
	<circle cx="334.667" cy="524.624" r="4" fill="#0" id="circle54"/>
	<circle cx="334.667" cy="960.823" r="4" fill="#0" id="circle55"/>
	<circle cx="338.184" cy="640.709" r="4" fill="#0" id="circle56"/>
	<circle cx="338.184" cy="675.887" r="4" fill="#0" id="circle57"/>
	<circle cx="348.738" cy="711.064" r="4" fill="#0" id="circle58"/>
	<circle cx="352.255" cy="605.532" r="4" fill="#0" id="circle59"/>
	<circle cx="355.773" cy="552.766" r="4" fill="#0" id="circle60"/>
	<circle cx="362.809" cy="939.716" r="4" fill="#0" id="circle61"/>
	<circle cx="369.844" cy="739.206" r="4" fill="#0" id="circle62"/>
	<circle cx="383.915" cy="911.574" r="4" fill="#0" id="circle63"/>
	<circle cx="387.433" cy="770.865" r="4" fill="#0" id="circle64"/>
	<circle cx="401.504" cy="806.043" r="4" fill="#0" id="circle65"/>
	<circle cx="401.504" cy="865.844" r="4" fill="#0" id="circle66"/>
	</g>
</svg>