<?xml version="1.0" encoding="UTF-8" standalone="no"?>
<!-- Created with CurveBenchmark -->
<svg
	xmlns:dc="http://purl.org/dc/elements/1.1/"
	xmlns:cc="http://creativecommons.org/ns#"
	xmlns:rdf="http://www.w3.org/1999/02/22-rdf-syntax-ns#"
	xmlns:svg="http://www.w3.org/2000/svg"
	xmlns="http://www.w3.org/2000/svg"
	xmlns:sodipodi="http://sodipodi.sourceforge.net/DTD/sodipodi-0.dtd"
	xmlns:inkscape="http://www.inkscape.org/namespaces/inkscape"
	width="1000"
	height="1000"
	id="svg2"
	version="1.1"
	sodipodi:docname="manifold/fitconnect-teddy080.png.txt">
<defs
	id="defs4" />
<metadata
	id="metadata7">
	<rdf:RDF>
		<cc:Work
			rdf:about="">
			<dc:format>image/svg+xml</dc:format>
			<dc:type
				rdf:resource="http://purl.org/dc/dcmitype/StillImage" />
			<dc:title></dc:title>
		</cc:Work>
	</rdf:RDF>
</metadata>
<g
	inkscape:label="Layer 1"
	inkscape:groupmode="layer"
	id="layer1">
	<path style="fill:none;stroke:red;stroke-width:1px;stroke-linecap:butt;stroke-linejoin:miter;stroke-opacity:1" d="M 4,495.761 4,524.023 z" id="boundary" inkscape:connector-curvature="0" />
	<path style="fill:none;stroke:red;stroke-width:1px;stroke-linecap:butt;stroke-linejoin:miter;stroke-opacity:1" d="M 4,495.761 18.1311,470.325 z" id="boundary" inkscape:connector-curvature="0" />
	<path style="fill:none;stroke:red;stroke-width:1px;stroke-linecap:butt;stroke-linejoin:miter;stroke-opacity:1" d="M 4,524.023 9.65242,552.285 z" id="boundary" inkscape:connector-curvature="0" />
	<path style="fill:none;stroke:red;stroke-width:1px;stroke-linecap:butt;stroke-linejoin:miter;stroke-opacity:1" d="M 9.65242,552.285 18.1311,580.547 z" id="boundary" inkscape:connector-curvature="0" />
	<path style="fill:none;stroke:red;stroke-width:1px;stroke-linecap:butt;stroke-linejoin:miter;stroke-opacity:1" d="M 18.1311,470.325 32.2621,444.889 z" id="boundary" inkscape:connector-curvature="0" />
	<path style="fill:none;stroke:red;stroke-width:1px;stroke-linecap:butt;stroke-linejoin:miter;stroke-opacity:1" d="M 18.1311,580.547 37.9145,603.157 z" id="boundary" inkscape:connector-curvature="0" />
	<path style="fill:none;stroke:red;stroke-width:1px;stroke-linecap:butt;stroke-linejoin:miter;stroke-opacity:1" d="M 32.2621,444.889 54.8718,422.279 z" id="boundary" inkscape:connector-curvature="0" />
	<path style="fill:none;stroke:red;stroke-width:1px;stroke-linecap:butt;stroke-linejoin:miter;stroke-opacity:1" d="M 37.9145,603.157 57.698,625.766 z" id="boundary" inkscape:connector-curvature="0" />
	<path style="fill:none;stroke:red;stroke-width:1px;stroke-linecap:butt;stroke-linejoin:miter;stroke-opacity:1" d="M 54.8718,422.279 77.4815,405.322 z" id="boundary" inkscape:connector-curvature="0" />
	<path style="fill:none;stroke:red;stroke-width:1px;stroke-linecap:butt;stroke-linejoin:miter;stroke-opacity:1" d="M 57.698,625.766 80.3077,642.724 z" id="boundary" inkscape:connector-curvature="0" />
	<path style="fill:none;stroke:red;stroke-width:1px;stroke-linecap:butt;stroke-linejoin:miter;stroke-opacity:1" d="M 60.5242,66.1766 66.1766,94.4387 z" id="boundary" inkscape:connector-curvature="0" />
	<path style="fill:none;stroke:red;stroke-width:1px;stroke-linecap:butt;stroke-linejoin:miter;stroke-opacity:1" d="M 60.5242,66.1766 74.6553,40.7407 z" id="boundary" inkscape:connector-curvature="0" />
	<path style="fill:none;stroke:red;stroke-width:1px;stroke-linecap:butt;stroke-linejoin:miter;stroke-opacity:1" d="M 66.1766,94.4387 71.8291,122.701 z" id="boundary" inkscape:connector-curvature="0" />
	<path style="fill:none;stroke:red;stroke-width:1px;stroke-linecap:butt;stroke-linejoin:miter;stroke-opacity:1" d="M 71.8291,122.701 83.1339,150.963 z" id="boundary" inkscape:connector-curvature="0" />
	<path style="fill:none;stroke:red;stroke-width:1px;stroke-linecap:butt;stroke-linejoin:miter;stroke-opacity:1" d="M 74.6553,40.7407 97.265,20.9573 z" id="boundary" inkscape:connector-curvature="0" />
	<path style="fill:none;stroke:red;stroke-width:1px;stroke-linecap:butt;stroke-linejoin:miter;stroke-opacity:1" d="M 77.4815,207.487 77.4815,235.749 z" id="boundary" inkscape:connector-curvature="0" />
	<path style="fill:none;stroke:red;stroke-width:1px;stroke-linecap:butt;stroke-linejoin:miter;stroke-opacity:1" d="M 77.4815,207.487 88.7863,179.225 z" id="boundary" inkscape:connector-curvature="0" />
	<path style="fill:none;stroke:red;stroke-width:1px;stroke-linecap:butt;stroke-linejoin:miter;stroke-opacity:1" d="M 77.4815,235.749 77.4815,264.011 z" id="boundary" inkscape:connector-curvature="0" />
	<path style="fill:none;stroke:red;stroke-width:1px;stroke-linecap:butt;stroke-linejoin:miter;stroke-opacity:1" d="M 77.4815,264.011 85.9601,292.274 z" id="boundary" inkscape:connector-curvature="0" />
	<path style="fill:none;stroke:red;stroke-width:1px;stroke-linecap:butt;stroke-linejoin:miter;stroke-opacity:1" d="M 77.4815,405.322 100.091,388.365 z" id="boundary" inkscape:connector-curvature="0" />
	<path style="fill:none;stroke:red;stroke-width:1px;stroke-linecap:butt;stroke-linejoin:miter;stroke-opacity:1" d="M 80.3077,642.724 105.744,656.855 z" id="boundary" inkscape:connector-curvature="0" />
	<path style="fill:none;stroke:red;stroke-width:1px;stroke-linecap:butt;stroke-linejoin:miter;stroke-opacity:1" d="M 83.1339,150.963 88.7863,179.225 z" id="boundary" inkscape:connector-curvature="0" />
	<path style="fill:none;stroke:red;stroke-width:1px;stroke-linecap:butt;stroke-linejoin:miter;stroke-opacity:1" d="M 85.9601,292.274 100.091,317.709 z" id="boundary" inkscape:connector-curvature="0" />
	<path style="fill:none;stroke:red;stroke-width:1px;stroke-linecap:butt;stroke-linejoin:miter;stroke-opacity:1" d="M 97.265,20.9573 125.527,9.65242 z" id="boundary" inkscape:connector-curvature="0" />
	<path style="fill:none;stroke:red;stroke-width:1px;stroke-linecap:butt;stroke-linejoin:miter;stroke-opacity:1" d="M 100.091,317.709 111.396,345.972 z" id="boundary" inkscape:connector-curvature="0" />
	<path style="fill:none;stroke:red;stroke-width:1px;stroke-linecap:butt;stroke-linejoin:miter;stroke-opacity:1" d="M 100.091,388.365 111.396,345.972 z" id="boundary" inkscape:connector-curvature="0" />
	<path style="fill:none;stroke:red;stroke-width:1px;stroke-linecap:butt;stroke-linejoin:miter;stroke-opacity:1" d="M 105.744,656.855 117.048,685.117 z" id="boundary" inkscape:connector-curvature="0" />
	<path style="fill:none;stroke:red;stroke-width:1px;stroke-linecap:butt;stroke-linejoin:miter;stroke-opacity:1" d="M 105.744,750.12 108.57,778.382 z" id="boundary" inkscape:connector-curvature="0" />
	<path style="fill:none;stroke:red;stroke-width:1px;stroke-linecap:butt;stroke-linejoin:miter;stroke-opacity:1" d="M 105.744,750.12 111.396,721.858 z" id="boundary" inkscape:connector-curvature="0" />
	<path style="fill:none;stroke:red;stroke-width:1px;stroke-linecap:butt;stroke-linejoin:miter;stroke-opacity:1" d="M 108.57,778.382 117.048,829.254 z" id="boundary" inkscape:connector-curvature="0" />
	<path style="fill:none;stroke:red;stroke-width:1px;stroke-linecap:butt;stroke-linejoin:miter;stroke-opacity:1" d="M 111.396,721.858 117.048,685.117 z" id="boundary" inkscape:connector-curvature="0" />
	<path style="fill:none;stroke:red;stroke-width:1px;stroke-linecap:butt;stroke-linejoin:miter;stroke-opacity:1" d="M 117.048,829.254 117.048,857.516 z" id="boundary" inkscape:connector-curvature="0" />
	<path style="fill:none;stroke:red;stroke-width:1px;stroke-linecap:butt;stroke-linejoin:miter;stroke-opacity:1" d="M 117.048,857.516 122.701,885.778 z" id="boundary" inkscape:connector-curvature="0" />
	<path style="fill:none;stroke:red;stroke-width:1px;stroke-linecap:butt;stroke-linejoin:miter;stroke-opacity:1" d="M 122.701,885.778 128.353,914.04 z" id="boundary" inkscape:connector-curvature="0" />
	<path style="fill:none;stroke:red;stroke-width:1px;stroke-linecap:butt;stroke-linejoin:miter;stroke-opacity:1" d="M 125.527,9.65242 153.789,4 z" id="boundary" inkscape:connector-curvature="0" />
	<path style="fill:none;stroke:red;stroke-width:1px;stroke-linecap:butt;stroke-linejoin:miter;stroke-opacity:1" d="M 128.353,914.04 131.179,942.302 z" id="boundary" inkscape:connector-curvature="0" />
	<path style="fill:none;stroke:red;stroke-width:1px;stroke-linecap:butt;stroke-linejoin:miter;stroke-opacity:1" d="M 131.179,942.302 145.311,967.738 z" id="boundary" inkscape:connector-curvature="0" />
	<path style="fill:none;stroke:red;stroke-width:1px;stroke-linecap:butt;stroke-linejoin:miter;stroke-opacity:1" d="M 145.311,967.738 167.92,984.695 z" id="boundary" inkscape:connector-curvature="0" />
	<path style="fill:none;stroke:red;stroke-width:1px;stroke-linecap:butt;stroke-linejoin:miter;stroke-opacity:1" d="M 153.789,4 182.051,9.65242 z" id="boundary" inkscape:connector-curvature="0" />
	<path style="fill:none;stroke:red;stroke-width:1px;stroke-linecap:butt;stroke-linejoin:miter;stroke-opacity:1" d="M 167.92,984.695 196.182,996 z" id="boundary" inkscape:connector-curvature="0" />
	<path style="fill:none;stroke:red;stroke-width:1px;stroke-linecap:butt;stroke-linejoin:miter;stroke-opacity:1" d="M 182.051,9.65242 210.313,20.9573 z" id="boundary" inkscape:connector-curvature="0" />
	<path style="fill:none;stroke:red;stroke-width:1px;stroke-linecap:butt;stroke-linejoin:miter;stroke-opacity:1" d="M 196.182,996 224.444,996 z" id="boundary" inkscape:connector-curvature="0" />
	<path style="fill:none;stroke:red;stroke-width:1px;stroke-linecap:butt;stroke-linejoin:miter;stroke-opacity:1" d="M 210.313,20.9573 235.749,35.0883 z" id="boundary" inkscape:connector-curvature="0" />
	<path style="fill:none;stroke:red;stroke-width:1px;stroke-linecap:butt;stroke-linejoin:miter;stroke-opacity:1" d="M 224.444,996 252.707,996 z" id="boundary" inkscape:connector-curvature="0" />
	<path style="fill:none;stroke:red;stroke-width:1px;stroke-linecap:butt;stroke-linejoin:miter;stroke-opacity:1" d="M 235.749,35.0883 264.011,43.567 z" id="boundary" inkscape:connector-curvature="0" />
	<path style="fill:none;stroke:red;stroke-width:1px;stroke-linecap:butt;stroke-linejoin:miter;stroke-opacity:1" d="M 252.707,996 280.969,996 z" id="boundary" inkscape:connector-curvature="0" />
	<path style="fill:none;stroke:red;stroke-width:1px;stroke-linecap:butt;stroke-linejoin:miter;stroke-opacity:1" d="M 264.011,43.567 292.274,43.567 z" id="boundary" inkscape:connector-curvature="0" />
	<path style="fill:none;stroke:red;stroke-width:1px;stroke-linecap:butt;stroke-linejoin:miter;stroke-opacity:1" d="M 280.969,996 309.231,996 z" id="boundary" inkscape:connector-curvature="0" />
	<path style="fill:none;stroke:red;stroke-width:1px;stroke-linecap:butt;stroke-linejoin:miter;stroke-opacity:1" d="M 292.274,43.567 320.536,37.9145 z" id="boundary" inkscape:connector-curvature="0" />
	<path style="fill:none;stroke:red;stroke-width:1px;stroke-linecap:butt;stroke-linejoin:miter;stroke-opacity:1" d="M 309.231,996 337.493,990.348 z" id="boundary" inkscape:connector-curvature="0" />
	<path style="fill:none;stroke:red;stroke-width:1px;stroke-linecap:butt;stroke-linejoin:miter;stroke-opacity:1" d="M 320.536,37.9145 348.798,37.9145 z" id="boundary" inkscape:connector-curvature="0" />
	<path style="fill:none;stroke:red;stroke-width:1px;stroke-linecap:butt;stroke-linejoin:miter;stroke-opacity:1" d="M 337.493,990.348 365.755,990.348 z" id="boundary" inkscape:connector-curvature="0" />
	<path style="fill:none;stroke:red;stroke-width:1px;stroke-linecap:butt;stroke-linejoin:miter;stroke-opacity:1" d="M 348.798,37.9145 371.407,20.9573 z" id="boundary" inkscape:connector-curvature="0" />
	<path style="fill:none;stroke:red;stroke-width:1px;stroke-linecap:butt;stroke-linejoin:miter;stroke-opacity:1" d="M 365.755,990.348 394.017,984.695 z" id="boundary" inkscape:connector-curvature="0" />
	<path style="fill:none;stroke:red;stroke-width:1px;stroke-linecap:butt;stroke-linejoin:miter;stroke-opacity:1" d="M 371.407,20.9573 399.67,9.65242 z" id="boundary" inkscape:connector-curvature="0" />
	<path style="fill:none;stroke:red;stroke-width:1px;stroke-linecap:butt;stroke-linejoin:miter;stroke-opacity:1" d="M 394.017,984.695 422.279,979.043 z" id="boundary" inkscape:connector-curvature="0" />
	<path style="fill:none;stroke:red;stroke-width:1px;stroke-linecap:butt;stroke-linejoin:miter;stroke-opacity:1" d="M 399.67,9.65242 427.932,4 z" id="boundary" inkscape:connector-curvature="0" />
	<path style="fill:none;stroke:red;stroke-width:1px;stroke-linecap:butt;stroke-linejoin:miter;stroke-opacity:1" d="M 422.279,979.043 450.541,979.043 z" id="boundary" inkscape:connector-curvature="0" />
	<path style="fill:none;stroke:red;stroke-width:1px;stroke-linecap:butt;stroke-linejoin:miter;stroke-opacity:1" d="M 427.932,4 456.194,9.65242 z" id="boundary" inkscape:connector-curvature="0" />
	<path style="fill:none;stroke:red;stroke-width:1px;stroke-linecap:butt;stroke-linejoin:miter;stroke-opacity:1" d="M 450.541,979.043 478.803,973.39 z" id="boundary" inkscape:connector-curvature="0" />
	<path style="fill:none;stroke:red;stroke-width:1px;stroke-linecap:butt;stroke-linejoin:miter;stroke-opacity:1" d="M 456.194,9.65242 484.456,20.9573 z" id="boundary" inkscape:connector-curvature="0" />
	<path style="fill:none;stroke:red;stroke-width:1px;stroke-linecap:butt;stroke-linejoin:miter;stroke-opacity:1" d="M 478.803,973.39 507.066,973.39 z" id="boundary" inkscape:connector-curvature="0" />
	<path style="fill:none;stroke:red;stroke-width:1px;stroke-linecap:butt;stroke-linejoin:miter;stroke-opacity:1" d="M 484.456,20.9573 507.066,40.7407 z" id="boundary" inkscape:connector-curvature="0" />
	<path style="fill:none;stroke:red;stroke-width:1px;stroke-linecap:butt;stroke-linejoin:miter;stroke-opacity:1" d="M 498.587,371.407 515.544,348.798 z" id="boundary" inkscape:connector-curvature="0" />
	<path style="fill:none;stroke:red;stroke-width:1px;stroke-linecap:butt;stroke-linejoin:miter;stroke-opacity:1" d="M 498.587,371.407 526.849,382.712 z" id="boundary" inkscape:connector-curvature="0" />
	<path style="fill:none;stroke:red;stroke-width:1px;stroke-linecap:butt;stroke-linejoin:miter;stroke-opacity:1" d="M 501.413,170.746 509.892,199.009 z" id="boundary" inkscape:connector-curvature="0" />
	<path style="fill:none;stroke:red;stroke-width:1px;stroke-linecap:butt;stroke-linejoin:miter;stroke-opacity:1" d="M 501.413,170.746 512.718,142.484 z" id="boundary" inkscape:connector-curvature="0" />
	<path style="fill:none;stroke:red;stroke-width:1px;stroke-linecap:butt;stroke-linejoin:miter;stroke-opacity:1" d="M 507.066,40.7407 521.197,66.1766 z" id="boundary" inkscape:connector-curvature="0" />
	<path style="fill:none;stroke:red;stroke-width:1px;stroke-linecap:butt;stroke-linejoin:miter;stroke-opacity:1" d="M 507.066,973.39 535.328,967.738 z" id="boundary" inkscape:connector-curvature="0" />
	<path style="fill:none;stroke:red;stroke-width:1px;stroke-linecap:butt;stroke-linejoin:miter;stroke-opacity:1" d="M 509.892,199.009 524.023,224.444 z" id="boundary" inkscape:connector-curvature="0" />
	<path style="fill:none;stroke:red;stroke-width:1px;stroke-linecap:butt;stroke-linejoin:miter;stroke-opacity:1" d="M 512.718,142.484 521.197,94.4387 z" id="boundary" inkscape:connector-curvature="0" />
	<path style="fill:none;stroke:red;stroke-width:1px;stroke-linecap:butt;stroke-linejoin:miter;stroke-opacity:1" d="M 515.544,348.798 532.501,326.188 z" id="boundary" inkscape:connector-curvature="0" />
	<path style="fill:none;stroke:red;stroke-width:1px;stroke-linecap:butt;stroke-linejoin:miter;stroke-opacity:1" d="M 521.197,66.1766 521.197,94.4387 z" id="boundary" inkscape:connector-curvature="0" />
	<path style="fill:none;stroke:red;stroke-width:1px;stroke-linecap:butt;stroke-linejoin:miter;stroke-opacity:1" d="M 524.023,224.444 535.328,252.707 z" id="boundary" inkscape:connector-curvature="0" />
	<path style="fill:none;stroke:red;stroke-width:1px;stroke-linecap:butt;stroke-linejoin:miter;stroke-opacity:1" d="M 526.849,382.712 555.111,388.365 z" id="boundary" inkscape:connector-curvature="0" />
	<path style="fill:none;stroke:red;stroke-width:1px;stroke-linecap:butt;stroke-linejoin:miter;stroke-opacity:1" d="M 532.501,326.188 540.98,280.969 z" id="boundary" inkscape:connector-curvature="0" />
	<path style="fill:none;stroke:red;stroke-width:1px;stroke-linecap:butt;stroke-linejoin:miter;stroke-opacity:1" d="M 535.328,252.707 540.98,280.969 z" id="boundary" inkscape:connector-curvature="0" />
	<path style="fill:none;stroke:red;stroke-width:1px;stroke-linecap:butt;stroke-linejoin:miter;stroke-opacity:1" d="M 535.328,967.738 563.59,973.39 z" id="boundary" inkscape:connector-curvature="0" />
	<path style="fill:none;stroke:red;stroke-width:1px;stroke-linecap:butt;stroke-linejoin:miter;stroke-opacity:1" d="M 555.111,388.365 583.373,399.67 z" id="boundary" inkscape:connector-curvature="0" />
	<path style="fill:none;stroke:red;stroke-width:1px;stroke-linecap:butt;stroke-linejoin:miter;stroke-opacity:1" d="M 563.59,656.855 566.416,685.117 z" id="boundary" inkscape:connector-curvature="0" />
	<path style="fill:none;stroke:red;stroke-width:1px;stroke-linecap:butt;stroke-linejoin:miter;stroke-opacity:1" d="M 563.59,656.855 591.852,662.507 z" id="boundary" inkscape:connector-curvature="0" />
	<path style="fill:none;stroke:red;stroke-width:1px;stroke-linecap:butt;stroke-linejoin:miter;stroke-opacity:1" d="M 563.59,973.39 591.852,976.217 z" id="boundary" inkscape:connector-curvature="0" />
	<path style="fill:none;stroke:red;stroke-width:1px;stroke-linecap:butt;stroke-linejoin:miter;stroke-opacity:1" d="M 566.416,685.117 566.416,713.379 z" id="boundary" inkscape:connector-curvature="0" />
	<path style="fill:none;stroke:red;stroke-width:1px;stroke-linecap:butt;stroke-linejoin:miter;stroke-opacity:1" d="M 566.416,713.379 594.678,721.858 z" id="boundary" inkscape:connector-curvature="0" />
	<path style="fill:none;stroke:red;stroke-width:1px;stroke-linecap:butt;stroke-linejoin:miter;stroke-opacity:1" d="M 583.373,399.67 600.33,422.279 z" id="boundary" inkscape:connector-curvature="0" />
	<path style="fill:none;stroke:red;stroke-width:1px;stroke-linecap:butt;stroke-linejoin:miter;stroke-opacity:1" d="M 591.852,662.507 620.114,656.855 z" id="boundary" inkscape:connector-curvature="0" />
	<path style="fill:none;stroke:red;stroke-width:1px;stroke-linecap:butt;stroke-linejoin:miter;stroke-opacity:1" d="M 591.852,976.217 620.114,984.695 z" id="boundary" inkscape:connector-curvature="0" />
	<path style="fill:none;stroke:red;stroke-width:1px;stroke-linecap:butt;stroke-linejoin:miter;stroke-opacity:1" d="M 594.678,721.858 622.94,733.162 z" id="boundary" inkscape:connector-curvature="0" />
	<path style="fill:none;stroke:red;stroke-width:1px;stroke-linecap:butt;stroke-linejoin:miter;stroke-opacity:1" d="M 600.33,422.279 628.593,427.932 z" id="boundary" inkscape:connector-curvature="0" />
	<path style="fill:none;stroke:red;stroke-width:1px;stroke-linecap:butt;stroke-linejoin:miter;stroke-opacity:1" d="M 620.114,656.855 648.376,645.55 z" id="boundary" inkscape:connector-curvature="0" />
	<path style="fill:none;stroke:red;stroke-width:1px;stroke-linecap:butt;stroke-linejoin:miter;stroke-opacity:1" d="M 620.114,984.695 648.376,996 z" id="boundary" inkscape:connector-curvature="0" />
	<path style="fill:none;stroke:red;stroke-width:1px;stroke-linecap:butt;stroke-linejoin:miter;stroke-opacity:1" d="M 622.94,733.162 651.202,738.815 z" id="boundary" inkscape:connector-curvature="0" />
	<path style="fill:none;stroke:red;stroke-width:1px;stroke-linecap:butt;stroke-linejoin:miter;stroke-opacity:1" d="M 628.593,427.932 656.855,433.584 z" id="boundary" inkscape:connector-curvature="0" />
	<path style="fill:none;stroke:red;stroke-width:1px;stroke-linecap:butt;stroke-linejoin:miter;stroke-opacity:1" d="M 648.376,645.55 676.638,639.897 z" id="boundary" inkscape:connector-curvature="0" />
	<path style="fill:none;stroke:red;stroke-width:1px;stroke-linecap:butt;stroke-linejoin:miter;stroke-opacity:1" d="M 648.376,996 676.638,996 z" id="boundary" inkscape:connector-curvature="0" />
	<path style="fill:none;stroke:red;stroke-width:1px;stroke-linecap:butt;stroke-linejoin:miter;stroke-opacity:1" d="M 651.202,738.815 679.464,727.51 z" id="boundary" inkscape:connector-curvature="0" />
	<path style="fill:none;stroke:red;stroke-width:1px;stroke-linecap:butt;stroke-linejoin:miter;stroke-opacity:1" d="M 656.855,433.584 685.117,433.584 z" id="boundary" inkscape:connector-curvature="0" />
	<path style="fill:none;stroke:red;stroke-width:1px;stroke-linecap:butt;stroke-linejoin:miter;stroke-opacity:1" d="M 676.638,639.897 704.9,628.593 z" id="boundary" inkscape:connector-curvature="0" />
	<path style="fill:none;stroke:red;stroke-width:1px;stroke-linecap:butt;stroke-linejoin:miter;stroke-opacity:1" d="M 676.638,996 704.9,996 z" id="boundary" inkscape:connector-curvature="0" />
	<path style="fill:none;stroke:red;stroke-width:1px;stroke-linecap:butt;stroke-linejoin:miter;stroke-opacity:1" d="M 679.464,727.51 707.726,727.51 z" id="boundary" inkscape:connector-curvature="0" />
	<path style="fill:none;stroke:red;stroke-width:1px;stroke-linecap:butt;stroke-linejoin:miter;stroke-opacity:1" d="M 685.117,433.584 713.379,439.236 z" id="boundary" inkscape:connector-curvature="0" />
	<path style="fill:none;stroke:red;stroke-width:1px;stroke-linecap:butt;stroke-linejoin:miter;stroke-opacity:1" d="M 704.9,628.593 730.336,614.462 z" id="boundary" inkscape:connector-curvature="0" />
	<path style="fill:none;stroke:red;stroke-width:1px;stroke-linecap:butt;stroke-linejoin:miter;stroke-opacity:1" d="M 704.9,996 733.162,996 z" id="boundary" inkscape:connector-curvature="0" />
	<path style="fill:none;stroke:red;stroke-width:1px;stroke-linecap:butt;stroke-linejoin:miter;stroke-opacity:1" d="M 707.726,727.51 735.989,727.51 z" id="boundary" inkscape:connector-curvature="0" />
	<path style="fill:none;stroke:red;stroke-width:1px;stroke-linecap:butt;stroke-linejoin:miter;stroke-opacity:1" d="M 713.379,439.236 741.641,450.541 z" id="boundary" inkscape:connector-curvature="0" />
	<path style="fill:none;stroke:red;stroke-width:1px;stroke-linecap:butt;stroke-linejoin:miter;stroke-opacity:1" d="M 730.336,614.462 755.772,600.33 z" id="boundary" inkscape:connector-curvature="0" />
	<path style="fill:none;stroke:red;stroke-width:1px;stroke-linecap:butt;stroke-linejoin:miter;stroke-opacity:1" d="M 733.162,996 761.425,990.348 z" id="boundary" inkscape:connector-curvature="0" />
	<path style="fill:none;stroke:red;stroke-width:1px;stroke-linecap:butt;stroke-linejoin:miter;stroke-opacity:1" d="M 735.989,727.51 764.251,727.51 z" id="boundary" inkscape:connector-curvature="0" />
	<path style="fill:none;stroke:red;stroke-width:1px;stroke-linecap:butt;stroke-linejoin:miter;stroke-opacity:1" d="M 741.641,450.541 767.077,464.672 z" id="boundary" inkscape:connector-curvature="0" />
	<path style="fill:none;stroke:red;stroke-width:1px;stroke-linecap:butt;stroke-linejoin:miter;stroke-opacity:1" d="M 755.772,600.33 769.903,574.895 z" id="boundary" inkscape:connector-curvature="0" />
	<path style="fill:none;stroke:red;stroke-width:1px;stroke-linecap:butt;stroke-linejoin:miter;stroke-opacity:1" d="M 761.425,990.348 786.86,976.217 z" id="boundary" inkscape:connector-curvature="0" />
	<path style="fill:none;stroke:red;stroke-width:1px;stroke-linecap:butt;stroke-linejoin:miter;stroke-opacity:1" d="M 764.251,727.51 792.513,738.815 z" id="boundary" inkscape:connector-curvature="0" />
	<path style="fill:none;stroke:red;stroke-width:1px;stroke-linecap:butt;stroke-linejoin:miter;stroke-opacity:1" d="M 767.077,464.672 775.556,492.934 z" id="boundary" inkscape:connector-curvature="0" />
	<path style="fill:none;stroke:red;stroke-width:1px;stroke-linecap:butt;stroke-linejoin:miter;stroke-opacity:1" d="M 769.903,574.895 784.034,549.459 z" id="boundary" inkscape:connector-curvature="0" />
	<path style="fill:none;stroke:red;stroke-width:1px;stroke-linecap:butt;stroke-linejoin:miter;stroke-opacity:1" d="M 775.556,492.934 786.86,521.197 z" id="boundary" inkscape:connector-curvature="0" />
	<path style="fill:none;stroke:red;stroke-width:1px;stroke-linecap:butt;stroke-linejoin:miter;stroke-opacity:1" d="M 784.034,549.459 786.86,521.197 z" id="boundary" inkscape:connector-curvature="0" />
	<path style="fill:none;stroke:red;stroke-width:1px;stroke-linecap:butt;stroke-linejoin:miter;stroke-opacity:1" d="M 786.86,976.217 809.47,959.259 z" id="boundary" inkscape:connector-curvature="0" />
	<path style="fill:none;stroke:red;stroke-width:1px;stroke-linecap:butt;stroke-linejoin:miter;stroke-opacity:1" d="M 792.513,738.815 812.296,761.425 z" id="boundary" inkscape:connector-curvature="0" />
	<path style="fill:none;stroke:red;stroke-width:1px;stroke-linecap:butt;stroke-linejoin:miter;stroke-opacity:1" d="M 809.47,959.259 826.427,936.65 z" id="boundary" inkscape:connector-curvature="0" />
	<path style="fill:none;stroke:red;stroke-width:1px;stroke-linecap:butt;stroke-linejoin:miter;stroke-opacity:1" d="M 812.296,761.425 826.427,786.86 z" id="boundary" inkscape:connector-curvature="0" />
	<path style="fill:none;stroke:red;stroke-width:1px;stroke-linecap:butt;stroke-linejoin:miter;stroke-opacity:1" d="M 826.427,786.86 832.08,815.123 z" id="boundary" inkscape:connector-curvature="0" />
	<path style="fill:none;stroke:red;stroke-width:1px;stroke-linecap:butt;stroke-linejoin:miter;stroke-opacity:1" d="M 826.427,936.65 837.732,899.909 z" id="boundary" inkscape:connector-curvature="0" />
	<path style="fill:none;stroke:red;stroke-width:1px;stroke-linecap:butt;stroke-linejoin:miter;stroke-opacity:1" d="M 832.08,815.123 837.732,843.385 z" id="boundary" inkscape:connector-curvature="0" />
	<path style="fill:none;stroke:red;stroke-width:1px;stroke-linecap:butt;stroke-linejoin:miter;stroke-opacity:1" d="M 837.732,843.385 837.732,871.647 z" id="boundary" inkscape:connector-curvature="0" />
	<path style="fill:none;stroke:red;stroke-width:1px;stroke-linecap:butt;stroke-linejoin:miter;stroke-opacity:1" d="M 837.732,871.647 837.732,899.909 z" id="boundary" inkscape:connector-curvature="0" />
	<circle cx="4" cy="495.761" r="4" fill="#0" id="circle0"/>
	<circle cx="4" cy="524.023" r="4" fill="#0" id="circle1"/>
	<circle cx="9.65242" cy="552.285" r="4" fill="#0" id="circle2"/>
	<circle cx="18.1311" cy="470.325" r="4" fill="#0" id="circle3"/>
	<circle cx="18.1311" cy="580.547" r="4" fill="#0" id="circle4"/>
	<circle cx="32.2621" cy="444.889" r="4" fill="#0" id="circle5"/>
	<circle cx="37.9145" cy="603.157" r="4" fill="#0" id="circle6"/>
	<circle cx="54.8718" cy="422.279" r="4" fill="#0" id="circle7"/>
	<circle cx="57.698" cy="625.766" r="4" fill="#0" id="circle8"/>
	<circle cx="60.5242" cy="66.1766" r="4" fill="#0" id="circle9"/>
	<circle cx="66.1766" cy="94.4387" r="4" fill="#0" id="circle10"/>
	<circle cx="71.8291" cy="122.701" r="4" fill="#0" id="circle11"/>
	<circle cx="74.6553" cy="40.7407" r="4" fill="#0" id="circle12"/>
	<circle cx="77.4815" cy="207.487" r="4" fill="#0" id="circle13"/>
	<circle cx="77.4815" cy="235.749" r="4" fill="#0" id="circle14"/>
	<circle cx="77.4815" cy="264.011" r="4" fill="#0" id="circle15"/>
	<circle cx="77.4815" cy="405.322" r="4" fill="#0" id="circle16"/>
	<circle cx="80.3077" cy="642.724" r="4" fill="#0" id="circle17"/>
	<circle cx="83.1339" cy="150.963" r="4" fill="#0" id="circle18"/>
	<circle cx="85.9601" cy="292.274" r="4" fill="#0" id="circle19"/>
	<circle cx="88.7863" cy="179.225" r="4" fill="#0" id="circle20"/>
	<circle cx="97.265" cy="20.9573" r="4" fill="#0" id="circle21"/>
	<circle cx="100.091" cy="317.709" r="4" fill="#0" id="circle22"/>
	<circle cx="100.091" cy="388.365" r="4" fill="#0" id="circle23"/>
	<circle cx="105.744" cy="656.855" r="4" fill="#0" id="circle24"/>
	<circle cx="105.744" cy="750.12" r="4" fill="#0" id="circle25"/>
	<circle cx="108.57" cy="778.382" r="4" fill="#0" id="circle26"/>
	<circle cx="111.396" cy="345.972" r="4" fill="#0" id="circle27"/>
	<circle cx="111.396" cy="721.858" r="4" fill="#0" id="circle28"/>
	<circle cx="117.048" cy="685.117" r="4" fill="#0" id="circle29"/>
	<circle cx="117.048" cy="829.254" r="4" fill="#0" id="circle30"/>
	<circle cx="117.048" cy="857.516" r="4" fill="#0" id="circle31"/>
	<circle cx="122.701" cy="885.778" r="4" fill="#0" id="circle32"/>
	<circle cx="125.527" cy="9.65242" r="4" fill="#0" id="circle33"/>
	<circle cx="128.353" cy="914.04" r="4" fill="#0" id="circle34"/>
	<circle cx="131.179" cy="942.302" r="4" fill="#0" id="circle35"/>
	<circle cx="145.311" cy="967.738" r="4" fill="#0" id="circle36"/>
	<circle cx="153.789" cy="4" r="4" fill="#0" id="circle37"/>
	<circle cx="167.92" cy="984.695" r="4" fill="#0" id="circle38"/>
	<circle cx="182.051" cy="9.65242" r="4" fill="#0" id="circle39"/>
	<circle cx="196.182" cy="996" r="4" fill="#0" id="circle40"/>
	<circle cx="210.313" cy="20.9573" r="4" fill="#0" id="circle41"/>
	<circle cx="224.444" cy="996" r="4" fill="#0" id="circle42"/>
	<circle cx="235.749" cy="35.0883" r="4" fill="#0" id="circle43"/>
	<circle cx="252.707" cy="996" r="4" fill="#0" id="circle44"/>
	<circle cx="264.011" cy="43.567" r="4" fill="#0" id="circle45"/>
	<circle cx="280.969" cy="996" r="4" fill="#0" id="circle46"/>
	<circle cx="292.274" cy="43.567" r="4" fill="#0" id="circle47"/>
	<circle cx="309.231" cy="996" r="4" fill="#0" id="circle48"/>
	<circle cx="320.536" cy="37.9145" r="4" fill="#0" id="circle49"/>
	<circle cx="337.493" cy="990.348" r="4" fill="#0" id="circle50"/>
	<circle cx="348.798" cy="37.9145" r="4" fill="#0" id="circle51"/>
	<circle cx="365.755" cy="990.348" r="4" fill="#0" id="circle52"/>
	<circle cx="371.407" cy="20.9573" r="4" fill="#0" id="circle53"/>
	<circle cx="394.017" cy="984.695" r="4" fill="#0" id="circle54"/>
	<circle cx="399.67" cy="9.65242" r="4" fill="#0" id="circle55"/>
	<circle cx="422.279" cy="979.043" r="4" fill="#0" id="circle56"/>
	<circle cx="427.932" cy="4" r="4" fill="#0" id="circle57"/>
	<circle cx="450.541" cy="979.043" r="4" fill="#0" id="circle58"/>
	<circle cx="456.194" cy="9.65242" r="4" fill="#0" id="circle59"/>
	<circle cx="478.803" cy="973.39" r="4" fill="#0" id="circle60"/>
	<circle cx="484.456" cy="20.9573" r="4" fill="#0" id="circle61"/>
	<circle cx="498.587" cy="371.407" r="4" fill="#0" id="circle62"/>
	<circle cx="501.413" cy="170.746" r="4" fill="#0" id="circle63"/>
	<circle cx="507.066" cy="40.7407" r="4" fill="#0" id="circle64"/>
	<circle cx="507.066" cy="973.39" r="4" fill="#0" id="circle65"/>
	<circle cx="509.892" cy="199.009" r="4" fill="#0" id="circle66"/>
	<circle cx="512.718" cy="142.484" r="4" fill="#0" id="circle67"/>
	<circle cx="515.544" cy="348.798" r="4" fill="#0" id="circle68"/>
	<circle cx="521.197" cy="66.1766" r="4" fill="#0" id="circle69"/>
	<circle cx="521.197" cy="94.4387" r="4" fill="#0" id="circle70"/>
	<circle cx="524.023" cy="224.444" r="4" fill="#0" id="circle71"/>
	<circle cx="526.849" cy="382.712" r="4" fill="#0" id="circle72"/>
	<circle cx="532.501" cy="326.188" r="4" fill="#0" id="circle73"/>
	<circle cx="535.328" cy="252.707" r="4" fill="#0" id="circle74"/>
	<circle cx="535.328" cy="967.738" r="4" fill="#0" id="circle75"/>
	<circle cx="540.98" cy="280.969" r="4" fill="#0" id="circle76"/>
	<circle cx="555.111" cy="388.365" r="4" fill="#0" id="circle77"/>
	<circle cx="563.59" cy="656.855" r="4" fill="#0" id="circle78"/>
	<circle cx="563.59" cy="973.39" r="4" fill="#0" id="circle79"/>
	<circle cx="566.416" cy="685.117" r="4" fill="#0" id="circle80"/>
	<circle cx="566.416" cy="713.379" r="4" fill="#0" id="circle81"/>
	<circle cx="583.373" cy="399.67" r="4" fill="#0" id="circle82"/>
	<circle cx="591.852" cy="662.507" r="4" fill="#0" id="circle83"/>
	<circle cx="591.852" cy="976.217" r="4" fill="#0" id="circle84"/>
	<circle cx="594.678" cy="721.858" r="4" fill="#0" id="circle85"/>
	<circle cx="600.33" cy="422.279" r="4" fill="#0" id="circle86"/>
	<circle cx="620.114" cy="656.855" r="4" fill="#0" id="circle87"/>
	<circle cx="620.114" cy="984.695" r="4" fill="#0" id="circle88"/>
	<circle cx="622.94" cy="733.162" r="4" fill="#0" id="circle89"/>
	<circle cx="628.593" cy="427.932" r="4" fill="#0" id="circle90"/>
	<circle cx="648.376" cy="645.55" r="4" fill="#0" id="circle91"/>
	<circle cx="648.376" cy="996" r="4" fill="#0" id="circle92"/>
	<circle cx="651.202" cy="738.815" r="4" fill="#0" id="circle93"/>
	<circle cx="656.855" cy="433.584" r="4" fill="#0" id="circle94"/>
	<circle cx="676.638" cy="639.897" r="4" fill="#0" id="circle95"/>
	<circle cx="676.638" cy="996" r="4" fill="#0" id="circle96"/>
	<circle cx="679.464" cy="727.51" r="4" fill="#0" id="circle97"/>
	<circle cx="685.117" cy="433.584" r="4" fill="#0" id="circle98"/>
	<circle cx="704.9" cy="628.593" r="4" fill="#0" id="circle99"/>
	<circle cx="704.9" cy="996" r="4" fill="#0" id="circle100"/>
	<circle cx="707.726" cy="727.51" r="4" fill="#0" id="circle101"/>
	<circle cx="713.379" cy="439.236" r="4" fill="#0" id="circle102"/>
	<circle cx="730.336" cy="614.462" r="4" fill="#0" id="circle103"/>
	<circle cx="733.162" cy="996" r="4" fill="#0" id="circle104"/>
	<circle cx="735.989" cy="727.51" r="4" fill="#0" id="circle105"/>
	<circle cx="741.641" cy="450.541" r="4" fill="#0" id="circle106"/>
	<circle cx="755.772" cy="600.33" r="4" fill="#0" id="circle107"/>
	<circle cx="761.425" cy="990.348" r="4" fill="#0" id="circle108"/>
	<circle cx="764.251" cy="727.51" r="4" fill="#0" id="circle109"/>
	<circle cx="767.077" cy="464.672" r="4" fill="#0" id="circle110"/>
	<circle cx="769.903" cy="574.895" r="4" fill="#0" id="circle111"/>
	<circle cx="775.556" cy="492.934" r="4" fill="#0" id="circle112"/>
	<circle cx="784.034" cy="549.459" r="4" fill="#0" id="circle113"/>
	<circle cx="786.86" cy="521.197" r="4" fill="#0" id="circle114"/>
	<circle cx="786.86" cy="976.217" r="4" fill="#0" id="circle115"/>
	<circle cx="792.513" cy="738.815" r="4" fill="#0" id="circle116"/>
	<circle cx="809.47" cy="959.259" r="4" fill="#0" id="circle117"/>
	<circle cx="812.296" cy="761.425" r="4" fill="#0" id="circle118"/>
	<circle cx="826.427" cy="786.86" r="4" fill="#0" id="circle119"/>
	<circle cx="826.427" cy="936.65" r="4" fill="#0" id="circle120"/>
	<circle cx="832.08" cy="815.123" r="4" fill="#0" id="circle121"/>
	<circle cx="837.732" cy="843.385" r="4" fill="#0" id="circle122"/>
	<circle cx="837.732" cy="871.647" r="4" fill="#0" id="circle123"/>
	<circle cx="837.732" cy="899.909" r="4" fill="#0" id="circle124"/>
	</g>
</svg>