<?xml version="1.0" encoding="UTF-8" standalone="no"?>
<!-- Created with CurveBenchmark -->
<svg
	xmlns:dc="http://purl.org/dc/elements/1.1/"
	xmlns:cc="http://creativecommons.org/ns#"
	xmlns:rdf="http://www.w3.org/1999/02/22-rdf-syntax-ns#"
	xmlns:svg="http://www.w3.org/2000/svg"
	xmlns="http://www.w3.org/2000/svg"
	xmlns:sodipodi="http://sodipodi.sourceforge.net/DTD/sodipodi-0.dtd"
	xmlns:inkscape="http://www.inkscape.org/namespaces/inkscape"
	width="1000"
	height="1000"
	id="svg2"
	version="1.1"
	sodipodi:docname="manifold/fitconnect-textbox45.png.txt">
<defs
	id="defs4" />
<metadata
	id="metadata7">
	<rdf:RDF>
		<cc:Work
			rdf:about="">
			<dc:format>image/svg+xml</dc:format>
			<dc:type
				rdf:resource="http://purl.org/dc/dcmitype/StillImage" />
			<dc:title></dc:title>
		</cc:Work>
	</rdf:RDF>
</metadata>
<g
	inkscape:label="Layer 1"
	inkscape:groupmode="layer"
	id="layer1">
	<path style="fill:none;stroke:red;stroke-width:1px;stroke-linecap:butt;stroke-linejoin:miter;stroke-opacity:1" d="M 4,123.617 4,144.241 z" id="boundary" inkscape:connector-curvature="0" />
	<path style="fill:none;stroke:red;stroke-width:1px;stroke-linecap:butt;stroke-linejoin:miter;stroke-opacity:1" d="M 4,123.617 14.3119,102.994 z" id="boundary" inkscape:connector-curvature="0" />
	<path style="fill:none;stroke:red;stroke-width:1px;stroke-linecap:butt;stroke-linejoin:miter;stroke-opacity:1" d="M 4,144.241 14.3119,162.802 z" id="boundary" inkscape:connector-curvature="0" />
	<path style="fill:none;stroke:red;stroke-width:1px;stroke-linecap:butt;stroke-linejoin:miter;stroke-opacity:1" d="M 14.3119,102.994 34.9356,82.3701 z" id="boundary" inkscape:connector-curvature="0" />
	<path style="fill:none;stroke:red;stroke-width:1px;stroke-linecap:butt;stroke-linejoin:miter;stroke-opacity:1" d="M 14.3119,162.802 14.3119,183.426 z" id="boundary" inkscape:connector-curvature="0" />
	<path style="fill:none;stroke:red;stroke-width:1px;stroke-linecap:butt;stroke-linejoin:miter;stroke-opacity:1" d="M 14.3119,183.426 14.3119,204.05 z" id="boundary" inkscape:connector-curvature="0" />
	<path style="fill:none;stroke:red;stroke-width:1px;stroke-linecap:butt;stroke-linejoin:miter;stroke-opacity:1" d="M 14.3119,204.05 14.3119,224.674 z" id="boundary" inkscape:connector-curvature="0" />
	<path style="fill:none;stroke:red;stroke-width:1px;stroke-linecap:butt;stroke-linejoin:miter;stroke-opacity:1" d="M 14.3119,224.674 14.3119,245.297 z" id="boundary" inkscape:connector-curvature="0" />
	<path style="fill:none;stroke:red;stroke-width:1px;stroke-linecap:butt;stroke-linejoin:miter;stroke-opacity:1" d="M 14.3119,245.297 14.3119,265.921 z" id="boundary" inkscape:connector-curvature="0" />
	<path style="fill:none;stroke:red;stroke-width:1px;stroke-linecap:butt;stroke-linejoin:miter;stroke-opacity:1" d="M 14.3119,265.921 14.3119,286.545 z" id="boundary" inkscape:connector-curvature="0" />
	<path style="fill:none;stroke:red;stroke-width:1px;stroke-linecap:butt;stroke-linejoin:miter;stroke-opacity:1" d="M 14.3119,286.545 14.3119,307.168 z" id="boundary" inkscape:connector-curvature="0" />
	<path style="fill:none;stroke:red;stroke-width:1px;stroke-linecap:butt;stroke-linejoin:miter;stroke-opacity:1" d="M 14.3119,307.168 14.3119,327.792 z" id="boundary" inkscape:connector-curvature="0" />
	<path style="fill:none;stroke:red;stroke-width:1px;stroke-linecap:butt;stroke-linejoin:miter;stroke-opacity:1" d="M 14.3119,327.792 14.3119,348.416 z" id="boundary" inkscape:connector-curvature="0" />
	<path style="fill:none;stroke:red;stroke-width:1px;stroke-linecap:butt;stroke-linejoin:miter;stroke-opacity:1" d="M 14.3119,348.416 14.3119,369.04 z" id="boundary" inkscape:connector-curvature="0" />
	<path style="fill:none;stroke:red;stroke-width:1px;stroke-linecap:butt;stroke-linejoin:miter;stroke-opacity:1" d="M 14.3119,369.04 14.3119,389.663 z" id="boundary" inkscape:connector-curvature="0" />
	<path style="fill:none;stroke:red;stroke-width:1px;stroke-linecap:butt;stroke-linejoin:miter;stroke-opacity:1" d="M 14.3119,389.663 14.3119,410.287 z" id="boundary" inkscape:connector-curvature="0" />
	<path style="fill:none;stroke:red;stroke-width:1px;stroke-linecap:butt;stroke-linejoin:miter;stroke-opacity:1" d="M 14.3119,410.287 14.3119,430.911 z" id="boundary" inkscape:connector-curvature="0" />
	<path style="fill:none;stroke:red;stroke-width:1px;stroke-linecap:butt;stroke-linejoin:miter;stroke-opacity:1" d="M 14.3119,430.911 14.3119,451.534 z" id="boundary" inkscape:connector-curvature="0" />
	<path style="fill:none;stroke:red;stroke-width:1px;stroke-linecap:butt;stroke-linejoin:miter;stroke-opacity:1" d="M 14.3119,451.534 14.3119,472.158 z" id="boundary" inkscape:connector-curvature="0" />
	<path style="fill:none;stroke:red;stroke-width:1px;stroke-linecap:butt;stroke-linejoin:miter;stroke-opacity:1" d="M 14.3119,472.158 14.3119,492.782 z" id="boundary" inkscape:connector-curvature="0" />
	<path style="fill:none;stroke:red;stroke-width:1px;stroke-linecap:butt;stroke-linejoin:miter;stroke-opacity:1" d="M 14.3119,492.782 14.3119,513.405 z" id="boundary" inkscape:connector-curvature="0" />
	<path style="fill:none;stroke:red;stroke-width:1px;stroke-linecap:butt;stroke-linejoin:miter;stroke-opacity:1" d="M 14.3119,513.405 24.6237,531.967 z" id="boundary" inkscape:connector-curvature="0" />
	<path style="fill:none;stroke:red;stroke-width:1px;stroke-linecap:butt;stroke-linejoin:miter;stroke-opacity:1" d="M 24.6237,531.967 43.185,542.279 z" id="boundary" inkscape:connector-curvature="0" />
	<path style="fill:none;stroke:red;stroke-width:1px;stroke-linecap:butt;stroke-linejoin:miter;stroke-opacity:1" d="M 34.9356,82.3701 51.4345,65.8711 z" id="boundary" inkscape:connector-curvature="0" />
	<path style="fill:none;stroke:red;stroke-width:1px;stroke-linecap:butt;stroke-linejoin:miter;stroke-opacity:1" d="M 43.185,542.279 51.4345,562.902 z" id="boundary" inkscape:connector-curvature="0" />
	<path style="fill:none;stroke:red;stroke-width:1px;stroke-linecap:butt;stroke-linejoin:miter;stroke-opacity:1" d="M 51.4345,65.8711 69.9958,55.5593 z" id="boundary" inkscape:connector-curvature="0" />
	<path style="fill:none;stroke:red;stroke-width:1px;stroke-linecap:butt;stroke-linejoin:miter;stroke-opacity:1" d="M 51.4345,562.902 69.9958,573.214 z" id="boundary" inkscape:connector-curvature="0" />
	<path style="fill:none;stroke:red;stroke-width:1px;stroke-linecap:butt;stroke-linejoin:miter;stroke-opacity:1" d="M 69.9958,55.5593 86.4948,41.1227 z" id="boundary" inkscape:connector-curvature="0" />
	<path style="fill:none;stroke:red;stroke-width:1px;stroke-linecap:butt;stroke-linejoin:miter;stroke-opacity:1" d="M 69.9958,573.214 88.5572,583.526 z" id="boundary" inkscape:connector-curvature="0" />
	<path style="fill:none;stroke:red;stroke-width:1px;stroke-linecap:butt;stroke-linejoin:miter;stroke-opacity:1" d="M 86.4948,41.1227 107.119,34.9356 z" id="boundary" inkscape:connector-curvature="0" />
	<path style="fill:none;stroke:red;stroke-width:1px;stroke-linecap:butt;stroke-linejoin:miter;stroke-opacity:1" d="M 88.5572,583.526 96.8067,604.15 z" id="boundary" inkscape:connector-curvature="0" />
	<path style="fill:none;stroke:red;stroke-width:1px;stroke-linecap:butt;stroke-linejoin:miter;stroke-opacity:1" d="M 96.8067,604.15 115.368,614.462 z" id="boundary" inkscape:connector-curvature="0" />
	<path style="fill:none;stroke:red;stroke-width:1px;stroke-linecap:butt;stroke-linejoin:miter;stroke-opacity:1" d="M 107.119,34.9356 127.742,30.8108 z" id="boundary" inkscape:connector-curvature="0" />
	<path style="fill:none;stroke:red;stroke-width:1px;stroke-linecap:butt;stroke-linejoin:miter;stroke-opacity:1" d="M 115.368,614.462 135.992,614.462 z" id="boundary" inkscape:connector-curvature="0" />
	<path style="fill:none;stroke:red;stroke-width:1px;stroke-linecap:butt;stroke-linejoin:miter;stroke-opacity:1" d="M 127.742,30.8108 148.366,24.6237 z" id="boundary" inkscape:connector-curvature="0" />
	<path style="fill:none;stroke:red;stroke-width:1px;stroke-linecap:butt;stroke-linejoin:miter;stroke-opacity:1" d="M 135.992,614.462 156.615,614.462 z" id="boundary" inkscape:connector-curvature="0" />
	<path style="fill:none;stroke:red;stroke-width:1px;stroke-linecap:butt;stroke-linejoin:miter;stroke-opacity:1" d="M 148.366,24.6237 168.99,24.6237 z" id="boundary" inkscape:connector-curvature="0" />
	<path style="fill:none;stroke:red;stroke-width:1px;stroke-linecap:butt;stroke-linejoin:miter;stroke-opacity:1" d="M 156.615,614.462 177.239,614.462 z" id="boundary" inkscape:connector-curvature="0" />
	<path style="fill:none;stroke:red;stroke-width:1px;stroke-linecap:butt;stroke-linejoin:miter;stroke-opacity:1" d="M 168.99,24.6237 189.613,24.6237 z" id="boundary" inkscape:connector-curvature="0" />
	<path style="fill:none;stroke:red;stroke-width:1px;stroke-linecap:butt;stroke-linejoin:miter;stroke-opacity:1" d="M 177.239,614.462 191.676,630.96 z" id="boundary" inkscape:connector-curvature="0" />
	<path style="fill:none;stroke:red;stroke-width:1px;stroke-linecap:butt;stroke-linejoin:miter;stroke-opacity:1" d="M 189.613,24.6237 210.237,24.6237 z" id="boundary" inkscape:connector-curvature="0" />
	<path style="fill:none;stroke:red;stroke-width:1px;stroke-linecap:butt;stroke-linejoin:miter;stroke-opacity:1" d="M 191.676,630.96 210.237,641.272 z" id="boundary" inkscape:connector-curvature="0" />
	<path style="fill:none;stroke:red;stroke-width:1px;stroke-linecap:butt;stroke-linejoin:miter;stroke-opacity:1" d="M 210.237,24.6237 230.861,24.6237 z" id="boundary" inkscape:connector-curvature="0" />
	<path style="fill:none;stroke:red;stroke-width:1px;stroke-linecap:butt;stroke-linejoin:miter;stroke-opacity:1" d="M 210.237,641.272 212.299,661.896 z" id="boundary" inkscape:connector-curvature="0" />
	<path style="fill:none;stroke:red;stroke-width:1px;stroke-linecap:butt;stroke-linejoin:miter;stroke-opacity:1" d="M 212.299,661.896 230.861,672.208 z" id="boundary" inkscape:connector-curvature="0" />
	<path style="fill:none;stroke:red;stroke-width:1px;stroke-linecap:butt;stroke-linejoin:miter;stroke-opacity:1" d="M 230.861,24.6237 251.484,24.6237 z" id="boundary" inkscape:connector-curvature="0" />
	<path style="fill:none;stroke:red;stroke-width:1px;stroke-linecap:butt;stroke-linejoin:miter;stroke-opacity:1" d="M 230.861,672.208 232.923,692.832 z" id="boundary" inkscape:connector-curvature="0" />
	<path style="fill:none;stroke:red;stroke-width:1px;stroke-linecap:butt;stroke-linejoin:miter;stroke-opacity:1" d="M 232.923,692.832 243.235,711.393 z" id="boundary" inkscape:connector-curvature="0" />
	<path style="fill:none;stroke:red;stroke-width:1px;stroke-linecap:butt;stroke-linejoin:miter;stroke-opacity:1" d="M 243.235,711.393 261.796,721.705 z" id="boundary" inkscape:connector-curvature="0" />
	<path style="fill:none;stroke:red;stroke-width:1px;stroke-linecap:butt;stroke-linejoin:miter;stroke-opacity:1" d="M 251.484,24.6237 272.108,24.6237 z" id="boundary" inkscape:connector-curvature="0" />
	<path style="fill:none;stroke:red;stroke-width:1px;stroke-linecap:butt;stroke-linejoin:miter;stroke-opacity:1" d="M 261.796,721.705 261.796,742.328 z" id="boundary" inkscape:connector-curvature="0" />
	<path style="fill:none;stroke:red;stroke-width:1px;stroke-linecap:butt;stroke-linejoin:miter;stroke-opacity:1" d="M 261.796,742.328 274.17,758.827 z" id="boundary" inkscape:connector-curvature="0" />
	<path style="fill:none;stroke:red;stroke-width:1px;stroke-linecap:butt;stroke-linejoin:miter;stroke-opacity:1" d="M 272.108,24.6237 292.732,24.6237 z" id="boundary" inkscape:connector-curvature="0" />
	<path style="fill:none;stroke:red;stroke-width:1px;stroke-linecap:butt;stroke-linejoin:miter;stroke-opacity:1" d="M 274.17,758.827 294.794,758.827 z" id="boundary" inkscape:connector-curvature="0" />
	<path style="fill:none;stroke:red;stroke-width:1px;stroke-linecap:butt;stroke-linejoin:miter;stroke-opacity:1" d="M 292.732,24.6237 313.356,24.6237 z" id="boundary" inkscape:connector-curvature="0" />
	<path style="fill:none;stroke:red;stroke-width:1px;stroke-linecap:butt;stroke-linejoin:miter;stroke-opacity:1" d="M 294.794,758.827 305.106,727.892 z" id="boundary" inkscape:connector-curvature="0" />
	<path style="fill:none;stroke:red;stroke-width:1px;stroke-linecap:butt;stroke-linejoin:miter;stroke-opacity:1" d="M 305.106,727.892 321.605,713.455 z" id="boundary" inkscape:connector-curvature="0" />
	<path style="fill:none;stroke:red;stroke-width:1px;stroke-linecap:butt;stroke-linejoin:miter;stroke-opacity:1" d="M 313.356,24.6237 333.979,24.6237 z" id="boundary" inkscape:connector-curvature="0" />
	<path style="fill:none;stroke:red;stroke-width:1px;stroke-linecap:butt;stroke-linejoin:miter;stroke-opacity:1" d="M 321.605,713.455 333.979,696.956 z" id="boundary" inkscape:connector-curvature="0" />
	<path style="fill:none;stroke:red;stroke-width:1px;stroke-linecap:butt;stroke-linejoin:miter;stroke-opacity:1" d="M 333.979,24.6237 354.603,24.6237 z" id="boundary" inkscape:connector-curvature="0" />
	<path style="fill:none;stroke:red;stroke-width:1px;stroke-linecap:butt;stroke-linejoin:miter;stroke-opacity:1" d="M 333.979,696.956 354.603,690.769 z" id="boundary" inkscape:connector-curvature="0" />
	<path style="fill:none;stroke:red;stroke-width:1px;stroke-linecap:butt;stroke-linejoin:miter;stroke-opacity:1" d="M 354.603,24.6237 375.227,24.6237 z" id="boundary" inkscape:connector-curvature="0" />
	<path style="fill:none;stroke:red;stroke-width:1px;stroke-linecap:butt;stroke-linejoin:miter;stroke-opacity:1" d="M 354.603,690.769 364.915,670.146 z" id="boundary" inkscape:connector-curvature="0" />
	<path style="fill:none;stroke:red;stroke-width:1px;stroke-linecap:butt;stroke-linejoin:miter;stroke-opacity:1" d="M 364.915,670.146 375.227,649.522 z" id="boundary" inkscape:connector-curvature="0" />
	<path style="fill:none;stroke:red;stroke-width:1px;stroke-linecap:butt;stroke-linejoin:miter;stroke-opacity:1" d="M 375.227,24.6237 395.85,24.6237 z" id="boundary" inkscape:connector-curvature="0" />
	<path style="fill:none;stroke:red;stroke-width:1px;stroke-linecap:butt;stroke-linejoin:miter;stroke-opacity:1" d="M 375.227,649.522 391.726,633.023 z" id="boundary" inkscape:connector-curvature="0" />
	<path style="fill:none;stroke:red;stroke-width:1px;stroke-linecap:butt;stroke-linejoin:miter;stroke-opacity:1" d="M 391.726,633.023 408.225,614.462 z" id="boundary" inkscape:connector-curvature="0" />
	<path style="fill:none;stroke:red;stroke-width:1px;stroke-linecap:butt;stroke-linejoin:miter;stroke-opacity:1" d="M 395.85,24.6237 416.474,24.6237 z" id="boundary" inkscape:connector-curvature="0" />
	<path style="fill:none;stroke:red;stroke-width:1px;stroke-linecap:butt;stroke-linejoin:miter;stroke-opacity:1" d="M 408.225,614.462 418.536,583.526 z" id="boundary" inkscape:connector-curvature="0" />
	<path style="fill:none;stroke:red;stroke-width:1px;stroke-linecap:butt;stroke-linejoin:miter;stroke-opacity:1" d="M 416.474,24.6237 437.098,10.1871 z" id="boundary" inkscape:connector-curvature="0" />
	<path style="fill:none;stroke:red;stroke-width:1px;stroke-linecap:butt;stroke-linejoin:miter;stroke-opacity:1" d="M 418.536,583.526 439.16,583.526 z" id="boundary" inkscape:connector-curvature="0" />
	<path style="fill:none;stroke:red;stroke-width:1px;stroke-linecap:butt;stroke-linejoin:miter;stroke-opacity:1" d="M 437.098,10.1871 457.721,4 z" id="boundary" inkscape:connector-curvature="0" />
	<path style="fill:none;stroke:red;stroke-width:1px;stroke-linecap:butt;stroke-linejoin:miter;stroke-opacity:1" d="M 439.16,583.526 459.784,583.526 z" id="boundary" inkscape:connector-curvature="0" />
	<path style="fill:none;stroke:red;stroke-width:1px;stroke-linecap:butt;stroke-linejoin:miter;stroke-opacity:1" d="M 457.721,4 478.345,4 z" id="boundary" inkscape:connector-curvature="0" />
	<path style="fill:none;stroke:red;stroke-width:1px;stroke-linecap:butt;stroke-linejoin:miter;stroke-opacity:1" d="M 459.784,583.526 480.407,583.526 z" id="boundary" inkscape:connector-curvature="0" />
	<path style="fill:none;stroke:red;stroke-width:1px;stroke-linecap:butt;stroke-linejoin:miter;stroke-opacity:1" d="M 478.345,4 498.969,4 z" id="boundary" inkscape:connector-curvature="0" />
	<path style="fill:none;stroke:red;stroke-width:1px;stroke-linecap:butt;stroke-linejoin:miter;stroke-opacity:1" d="M 480.407,583.526 501.031,583.526 z" id="boundary" inkscape:connector-curvature="0" />
	<path style="fill:none;stroke:red;stroke-width:1px;stroke-linecap:butt;stroke-linejoin:miter;stroke-opacity:1" d="M 498.969,4 519.593,4 z" id="boundary" inkscape:connector-curvature="0" />
	<path style="fill:none;stroke:red;stroke-width:1px;stroke-linecap:butt;stroke-linejoin:miter;stroke-opacity:1" d="M 501.031,583.526 521.655,583.526 z" id="boundary" inkscape:connector-curvature="0" />
	<path style="fill:none;stroke:red;stroke-width:1px;stroke-linecap:butt;stroke-linejoin:miter;stroke-opacity:1" d="M 519.593,4 540.216,4 z" id="boundary" inkscape:connector-curvature="0" />
	<path style="fill:none;stroke:red;stroke-width:1px;stroke-linecap:butt;stroke-linejoin:miter;stroke-opacity:1" d="M 521.655,583.526 542.279,583.526 z" id="boundary" inkscape:connector-curvature="0" />
	<path style="fill:none;stroke:red;stroke-width:1px;stroke-linecap:butt;stroke-linejoin:miter;stroke-opacity:1" d="M 540.216,4 560.84,4 z" id="boundary" inkscape:connector-curvature="0" />
	<path style="fill:none;stroke:red;stroke-width:1px;stroke-linecap:butt;stroke-linejoin:miter;stroke-opacity:1" d="M 542.279,583.526 562.902,583.526 z" id="boundary" inkscape:connector-curvature="0" />
	<path style="fill:none;stroke:red;stroke-width:1px;stroke-linecap:butt;stroke-linejoin:miter;stroke-opacity:1" d="M 560.84,4 581.464,4 z" id="boundary" inkscape:connector-curvature="0" />
	<path style="fill:none;stroke:red;stroke-width:1px;stroke-linecap:butt;stroke-linejoin:miter;stroke-opacity:1" d="M 562.902,583.526 583.526,583.526 z" id="boundary" inkscape:connector-curvature="0" />
	<path style="fill:none;stroke:red;stroke-width:1px;stroke-linecap:butt;stroke-linejoin:miter;stroke-opacity:1" d="M 581.464,4 602.087,4 z" id="boundary" inkscape:connector-curvature="0" />
	<path style="fill:none;stroke:red;stroke-width:1px;stroke-linecap:butt;stroke-linejoin:miter;stroke-opacity:1" d="M 583.526,583.526 604.15,583.526 z" id="boundary" inkscape:connector-curvature="0" />
	<path style="fill:none;stroke:red;stroke-width:1px;stroke-linecap:butt;stroke-linejoin:miter;stroke-opacity:1" d="M 602.087,4 622.711,4 z" id="boundary" inkscape:connector-curvature="0" />
	<path style="fill:none;stroke:red;stroke-width:1px;stroke-linecap:butt;stroke-linejoin:miter;stroke-opacity:1" d="M 604.15,583.526 624.773,583.526 z" id="boundary" inkscape:connector-curvature="0" />
	<path style="fill:none;stroke:red;stroke-width:1px;stroke-linecap:butt;stroke-linejoin:miter;stroke-opacity:1" d="M 622.711,4 643.335,4 z" id="boundary" inkscape:connector-curvature="0" />
	<path style="fill:none;stroke:red;stroke-width:1px;stroke-linecap:butt;stroke-linejoin:miter;stroke-opacity:1" d="M 624.773,583.526 645.397,583.526 z" id="boundary" inkscape:connector-curvature="0" />
	<path style="fill:none;stroke:red;stroke-width:1px;stroke-linecap:butt;stroke-linejoin:miter;stroke-opacity:1" d="M 643.335,4 663.958,4 z" id="boundary" inkscape:connector-curvature="0" />
	<path style="fill:none;stroke:red;stroke-width:1px;stroke-linecap:butt;stroke-linejoin:miter;stroke-opacity:1" d="M 645.397,583.526 666.021,583.526 z" id="boundary" inkscape:connector-curvature="0" />
	<path style="fill:none;stroke:red;stroke-width:1px;stroke-linecap:butt;stroke-linejoin:miter;stroke-opacity:1" d="M 663.958,4 684.582,4 z" id="boundary" inkscape:connector-curvature="0" />
	<path style="fill:none;stroke:red;stroke-width:1px;stroke-linecap:butt;stroke-linejoin:miter;stroke-opacity:1" d="M 666.021,583.526 684.582,573.214 z" id="boundary" inkscape:connector-curvature="0" />
	<path style="fill:none;stroke:red;stroke-width:1px;stroke-linecap:butt;stroke-linejoin:miter;stroke-opacity:1" d="M 684.582,4 705.206,4 z" id="boundary" inkscape:connector-curvature="0" />
	<path style="fill:none;stroke:red;stroke-width:1px;stroke-linecap:butt;stroke-linejoin:miter;stroke-opacity:1" d="M 684.582,573.214 705.206,573.214 z" id="boundary" inkscape:connector-curvature="0" />
	<path style="fill:none;stroke:red;stroke-width:1px;stroke-linecap:butt;stroke-linejoin:miter;stroke-opacity:1" d="M 705.206,4 725.83,4 z" id="boundary" inkscape:connector-curvature="0" />
	<path style="fill:none;stroke:red;stroke-width:1px;stroke-linecap:butt;stroke-linejoin:miter;stroke-opacity:1" d="M 705.206,573.214 725.83,573.214 z" id="boundary" inkscape:connector-curvature="0" />
	<path style="fill:none;stroke:red;stroke-width:1px;stroke-linecap:butt;stroke-linejoin:miter;stroke-opacity:1" d="M 725.83,4 746.453,4 z" id="boundary" inkscape:connector-curvature="0" />
	<path style="fill:none;stroke:red;stroke-width:1px;stroke-linecap:butt;stroke-linejoin:miter;stroke-opacity:1" d="M 725.83,573.214 746.453,573.214 z" id="boundary" inkscape:connector-curvature="0" />
	<path style="fill:none;stroke:red;stroke-width:1px;stroke-linecap:butt;stroke-linejoin:miter;stroke-opacity:1" d="M 746.453,4 767.077,4 z" id="boundary" inkscape:connector-curvature="0" />
	<path style="fill:none;stroke:red;stroke-width:1px;stroke-linecap:butt;stroke-linejoin:miter;stroke-opacity:1" d="M 746.453,573.214 767.077,573.214 z" id="boundary" inkscape:connector-curvature="0" />
	<path style="fill:none;stroke:red;stroke-width:1px;stroke-linecap:butt;stroke-linejoin:miter;stroke-opacity:1" d="M 767.077,4 787.701,4 z" id="boundary" inkscape:connector-curvature="0" />
	<path style="fill:none;stroke:red;stroke-width:1px;stroke-linecap:butt;stroke-linejoin:miter;stroke-opacity:1" d="M 767.077,573.214 787.701,573.214 z" id="boundary" inkscape:connector-curvature="0" />
	<path style="fill:none;stroke:red;stroke-width:1px;stroke-linecap:butt;stroke-linejoin:miter;stroke-opacity:1" d="M 787.701,4 808.324,4 z" id="boundary" inkscape:connector-curvature="0" />
	<path style="fill:none;stroke:red;stroke-width:1px;stroke-linecap:butt;stroke-linejoin:miter;stroke-opacity:1" d="M 787.701,573.214 808.324,573.214 z" id="boundary" inkscape:connector-curvature="0" />
	<path style="fill:none;stroke:red;stroke-width:1px;stroke-linecap:butt;stroke-linejoin:miter;stroke-opacity:1" d="M 808.324,4 828.948,4 z" id="boundary" inkscape:connector-curvature="0" />
	<path style="fill:none;stroke:red;stroke-width:1px;stroke-linecap:butt;stroke-linejoin:miter;stroke-opacity:1" d="M 808.324,573.214 828.948,573.214 z" id="boundary" inkscape:connector-curvature="0" />
	<path style="fill:none;stroke:red;stroke-width:1px;stroke-linecap:butt;stroke-linejoin:miter;stroke-opacity:1" d="M 828.948,4 841.322,20.499 z" id="boundary" inkscape:connector-curvature="0" />
	<path style="fill:none;stroke:red;stroke-width:1px;stroke-linecap:butt;stroke-linejoin:miter;stroke-opacity:1" d="M 828.948,573.214 849.572,573.214 z" id="boundary" inkscape:connector-curvature="0" />
	<path style="fill:none;stroke:red;stroke-width:1px;stroke-linecap:butt;stroke-linejoin:miter;stroke-opacity:1" d="M 841.322,20.499 861.946,24.6237 z" id="boundary" inkscape:connector-curvature="0" />
	<path style="fill:none;stroke:red;stroke-width:1px;stroke-linecap:butt;stroke-linejoin:miter;stroke-opacity:1" d="M 849.572,573.214 870.195,573.214 z" id="boundary" inkscape:connector-curvature="0" />
	<path style="fill:none;stroke:red;stroke-width:1px;stroke-linecap:butt;stroke-linejoin:miter;stroke-opacity:1" d="M 861.946,24.6237 882.57,20.499 z" id="boundary" inkscape:connector-curvature="0" />
	<path style="fill:none;stroke:red;stroke-width:1px;stroke-linecap:butt;stroke-linejoin:miter;stroke-opacity:1" d="M 870.195,573.214 890.819,573.214 z" id="boundary" inkscape:connector-curvature="0" />
	<path style="fill:none;stroke:red;stroke-width:1px;stroke-linecap:butt;stroke-linejoin:miter;stroke-opacity:1" d="M 882.57,20.499 903.193,24.6237 z" id="boundary" inkscape:connector-curvature="0" />
	<path style="fill:none;stroke:red;stroke-width:1px;stroke-linecap:butt;stroke-linejoin:miter;stroke-opacity:1" d="M 890.819,573.214 909.38,562.902 z" id="boundary" inkscape:connector-curvature="0" />
	<path style="fill:none;stroke:red;stroke-width:1px;stroke-linecap:butt;stroke-linejoin:miter;stroke-opacity:1" d="M 903.193,24.6237 923.817,30.8108 z" id="boundary" inkscape:connector-curvature="0" />
	<path style="fill:none;stroke:red;stroke-width:1px;stroke-linecap:butt;stroke-linejoin:miter;stroke-opacity:1" d="M 909.38,562.902 930.004,562.902 z" id="boundary" inkscape:connector-curvature="0" />
	<path style="fill:none;stroke:red;stroke-width:1px;stroke-linecap:butt;stroke-linejoin:miter;stroke-opacity:1" d="M 923.817,30.8108 934.129,49.3721 z" id="boundary" inkscape:connector-curvature="0" />
	<path style="fill:none;stroke:red;stroke-width:1px;stroke-linecap:butt;stroke-linejoin:miter;stroke-opacity:1" d="M 930.004,562.902 950.628,558.778 z" id="boundary" inkscape:connector-curvature="0" />
	<path style="fill:none;stroke:red;stroke-width:1px;stroke-linecap:butt;stroke-linejoin:miter;stroke-opacity:1" d="M 934.129,49.3721 954.753,55.5593 z" id="boundary" inkscape:connector-curvature="0" />
	<path style="fill:none;stroke:red;stroke-width:1px;stroke-linecap:butt;stroke-linejoin:miter;stroke-opacity:1" d="M 950.628,558.778 960.94,538.154 z" id="boundary" inkscape:connector-curvature="0" />
	<path style="fill:none;stroke:red;stroke-width:1px;stroke-linecap:butt;stroke-linejoin:miter;stroke-opacity:1" d="M 954.753,55.5593 965.064,74.1206 z" id="boundary" inkscape:connector-curvature="0" />
	<path style="fill:none;stroke:red;stroke-width:1px;stroke-linecap:butt;stroke-linejoin:miter;stroke-opacity:1" d="M 960.94,538.154 975.376,511.343 z" id="boundary" inkscape:connector-curvature="0" />
	<path style="fill:none;stroke:red;stroke-width:1px;stroke-linecap:butt;stroke-linejoin:miter;stroke-opacity:1" d="M 965.064,74.1206 975.376,92.6819 z" id="boundary" inkscape:connector-curvature="0" />
	<path style="fill:none;stroke:red;stroke-width:1px;stroke-linecap:butt;stroke-linejoin:miter;stroke-opacity:1" d="M 975.376,92.6819 975.376,113.306 z" id="boundary" inkscape:connector-curvature="0" />
	<path style="fill:none;stroke:red;stroke-width:1px;stroke-linecap:butt;stroke-linejoin:miter;stroke-opacity:1" d="M 975.376,113.306 975.376,133.929 z" id="boundary" inkscape:connector-curvature="0" />
	<path style="fill:none;stroke:red;stroke-width:1px;stroke-linecap:butt;stroke-linejoin:miter;stroke-opacity:1" d="M 975.376,133.929 975.376,154.553 z" id="boundary" inkscape:connector-curvature="0" />
	<path style="fill:none;stroke:red;stroke-width:1px;stroke-linecap:butt;stroke-linejoin:miter;stroke-opacity:1" d="M 975.376,154.553 975.376,175.177 z" id="boundary" inkscape:connector-curvature="0" />
	<path style="fill:none;stroke:red;stroke-width:1px;stroke-linecap:butt;stroke-linejoin:miter;stroke-opacity:1" d="M 975.376,175.177 975.376,195.8 z" id="boundary" inkscape:connector-curvature="0" />
	<path style="fill:none;stroke:red;stroke-width:1px;stroke-linecap:butt;stroke-linejoin:miter;stroke-opacity:1" d="M 975.376,195.8 975.376,216.424 z" id="boundary" inkscape:connector-curvature="0" />
	<path style="fill:none;stroke:red;stroke-width:1px;stroke-linecap:butt;stroke-linejoin:miter;stroke-opacity:1" d="M 975.376,216.424 975.376,237.048 z" id="boundary" inkscape:connector-curvature="0" />
	<path style="fill:none;stroke:red;stroke-width:1px;stroke-linecap:butt;stroke-linejoin:miter;stroke-opacity:1" d="M 975.376,237.048 975.376,257.672 z" id="boundary" inkscape:connector-curvature="0" />
	<path style="fill:none;stroke:red;stroke-width:1px;stroke-linecap:butt;stroke-linejoin:miter;stroke-opacity:1" d="M 975.376,257.672 975.376,278.295 z" id="boundary" inkscape:connector-curvature="0" />
	<path style="fill:none;stroke:red;stroke-width:1px;stroke-linecap:butt;stroke-linejoin:miter;stroke-opacity:1" d="M 975.376,278.295 975.376,298.919 z" id="boundary" inkscape:connector-curvature="0" />
	<path style="fill:none;stroke:red;stroke-width:1px;stroke-linecap:butt;stroke-linejoin:miter;stroke-opacity:1" d="M 975.376,298.919 975.376,319.543 z" id="boundary" inkscape:connector-curvature="0" />
	<path style="fill:none;stroke:red;stroke-width:1px;stroke-linecap:butt;stroke-linejoin:miter;stroke-opacity:1" d="M 975.376,319.543 975.376,340.166 z" id="boundary" inkscape:connector-curvature="0" />
	<path style="fill:none;stroke:red;stroke-width:1px;stroke-linecap:butt;stroke-linejoin:miter;stroke-opacity:1" d="M 975.376,340.166 993.938,350.478 z" id="boundary" inkscape:connector-curvature="0" />
	<path style="fill:none;stroke:red;stroke-width:1px;stroke-linecap:butt;stroke-linejoin:miter;stroke-opacity:1" d="M 975.376,511.343 996,494.844 z" id="boundary" inkscape:connector-curvature="0" />
	<path style="fill:none;stroke:red;stroke-width:1px;stroke-linecap:butt;stroke-linejoin:miter;stroke-opacity:1" d="M 993.938,350.478 996,371.102 z" id="boundary" inkscape:connector-curvature="0" />
	<path style="fill:none;stroke:red;stroke-width:1px;stroke-linecap:butt;stroke-linejoin:miter;stroke-opacity:1" d="M 996,371.102 996,391.726 z" id="boundary" inkscape:connector-curvature="0" />
	<path style="fill:none;stroke:red;stroke-width:1px;stroke-linecap:butt;stroke-linejoin:miter;stroke-opacity:1" d="M 996,391.726 996,412.349 z" id="boundary" inkscape:connector-curvature="0" />
	<path style="fill:none;stroke:red;stroke-width:1px;stroke-linecap:butt;stroke-linejoin:miter;stroke-opacity:1" d="M 996,412.349 996,432.973 z" id="boundary" inkscape:connector-curvature="0" />
	<path style="fill:none;stroke:red;stroke-width:1px;stroke-linecap:butt;stroke-linejoin:miter;stroke-opacity:1" d="M 996,432.973 996,453.597 z" id="boundary" inkscape:connector-curvature="0" />
	<path style="fill:none;stroke:red;stroke-width:1px;stroke-linecap:butt;stroke-linejoin:miter;stroke-opacity:1" d="M 996,453.597 996,474.22 z" id="boundary" inkscape:connector-curvature="0" />
	<path style="fill:none;stroke:red;stroke-width:1px;stroke-linecap:butt;stroke-linejoin:miter;stroke-opacity:1" d="M 996,474.22 996,494.844 z" id="boundary" inkscape:connector-curvature="0" />
	<circle cx="4" cy="123.617" r="4" fill="#0" id="circle0"/>
	<circle cx="4" cy="144.241" r="4" fill="#0" id="circle1"/>
	<circle cx="14.3119" cy="102.994" r="4" fill="#0" id="circle2"/>
	<circle cx="14.3119" cy="162.802" r="4" fill="#0" id="circle3"/>
	<circle cx="14.3119" cy="183.426" r="4" fill="#0" id="circle4"/>
	<circle cx="14.3119" cy="204.05" r="4" fill="#0" id="circle5"/>
	<circle cx="14.3119" cy="224.674" r="4" fill="#0" id="circle6"/>
	<circle cx="14.3119" cy="245.297" r="4" fill="#0" id="circle7"/>
	<circle cx="14.3119" cy="265.921" r="4" fill="#0" id="circle8"/>
	<circle cx="14.3119" cy="286.545" r="4" fill="#0" id="circle9"/>
	<circle cx="14.3119" cy="307.168" r="4" fill="#0" id="circle10"/>
	<circle cx="14.3119" cy="327.792" r="4" fill="#0" id="circle11"/>
	<circle cx="14.3119" cy="348.416" r="4" fill="#0" id="circle12"/>
	<circle cx="14.3119" cy="369.04" r="4" fill="#0" id="circle13"/>
	<circle cx="14.3119" cy="389.663" r="4" fill="#0" id="circle14"/>
	<circle cx="14.3119" cy="410.287" r="4" fill="#0" id="circle15"/>
	<circle cx="14.3119" cy="430.911" r="4" fill="#0" id="circle16"/>
	<circle cx="14.3119" cy="451.534" r="4" fill="#0" id="circle17"/>
	<circle cx="14.3119" cy="472.158" r="4" fill="#0" id="circle18"/>
	<circle cx="14.3119" cy="492.782" r="4" fill="#0" id="circle19"/>
	<circle cx="14.3119" cy="513.405" r="4" fill="#0" id="circle20"/>
	<circle cx="24.6237" cy="531.967" r="4" fill="#0" id="circle21"/>
	<circle cx="34.9356" cy="82.3701" r="4" fill="#0" id="circle22"/>
	<circle cx="43.185" cy="542.279" r="4" fill="#0" id="circle23"/>
	<circle cx="51.4345" cy="65.8711" r="4" fill="#0" id="circle24"/>
	<circle cx="51.4345" cy="562.902" r="4" fill="#0" id="circle25"/>
	<circle cx="69.9958" cy="55.5593" r="4" fill="#0" id="circle26"/>
	<circle cx="69.9958" cy="573.214" r="4" fill="#0" id="circle27"/>
	<circle cx="86.4948" cy="41.1227" r="4" fill="#0" id="circle28"/>
	<circle cx="88.5572" cy="583.526" r="4" fill="#0" id="circle29"/>
	<circle cx="96.8067" cy="604.15" r="4" fill="#0" id="circle30"/>
	<circle cx="107.119" cy="34.9356" r="4" fill="#0" id="circle31"/>
	<circle cx="115.368" cy="614.462" r="4" fill="#0" id="circle32"/>
	<circle cx="127.742" cy="30.8108" r="4" fill="#0" id="circle33"/>
	<circle cx="135.992" cy="614.462" r="4" fill="#0" id="circle34"/>
	<circle cx="148.366" cy="24.6237" r="4" fill="#0" id="circle35"/>
	<circle cx="156.615" cy="614.462" r="4" fill="#0" id="circle36"/>
	<circle cx="168.99" cy="24.6237" r="4" fill="#0" id="circle37"/>
	<circle cx="177.239" cy="614.462" r="4" fill="#0" id="circle38"/>
	<circle cx="189.613" cy="24.6237" r="4" fill="#0" id="circle39"/>
	<circle cx="191.676" cy="630.96" r="4" fill="#0" id="circle40"/>
	<circle cx="210.237" cy="24.6237" r="4" fill="#0" id="circle41"/>
	<circle cx="210.237" cy="641.272" r="4" fill="#0" id="circle42"/>
	<circle cx="212.299" cy="661.896" r="4" fill="#0" id="circle43"/>
	<circle cx="230.861" cy="24.6237" r="4" fill="#0" id="circle44"/>
	<circle cx="230.861" cy="672.208" r="4" fill="#0" id="circle45"/>
	<circle cx="232.923" cy="692.832" r="4" fill="#0" id="circle46"/>
	<circle cx="243.235" cy="711.393" r="4" fill="#0" id="circle47"/>
	<circle cx="251.484" cy="24.6237" r="4" fill="#0" id="circle48"/>
	<circle cx="261.796" cy="721.705" r="4" fill="#0" id="circle49"/>
	<circle cx="261.796" cy="742.328" r="4" fill="#0" id="circle50"/>
	<circle cx="272.108" cy="24.6237" r="4" fill="#0" id="circle51"/>
	<circle cx="274.17" cy="758.827" r="4" fill="#0" id="circle52"/>
	<circle cx="292.732" cy="24.6237" r="4" fill="#0" id="circle53"/>
	<circle cx="294.794" cy="758.827" r="4" fill="#0" id="circle54"/>
	<circle cx="305.106" cy="727.892" r="4" fill="#0" id="circle55"/>
	<circle cx="313.356" cy="24.6237" r="4" fill="#0" id="circle56"/>
	<circle cx="321.605" cy="713.455" r="4" fill="#0" id="circle57"/>
	<circle cx="333.979" cy="24.6237" r="4" fill="#0" id="circle58"/>
	<circle cx="333.979" cy="696.956" r="4" fill="#0" id="circle59"/>
	<circle cx="354.603" cy="24.6237" r="4" fill="#0" id="circle60"/>
	<circle cx="354.603" cy="690.769" r="4" fill="#0" id="circle61"/>
	<circle cx="364.915" cy="670.146" r="4" fill="#0" id="circle62"/>
	<circle cx="375.227" cy="24.6237" r="4" fill="#0" id="circle63"/>
	<circle cx="375.227" cy="649.522" r="4" fill="#0" id="circle64"/>
	<circle cx="391.726" cy="633.023" r="4" fill="#0" id="circle65"/>
	<circle cx="395.85" cy="24.6237" r="4" fill="#0" id="circle66"/>
	<circle cx="408.225" cy="614.462" r="4" fill="#0" id="circle67"/>
	<circle cx="416.474" cy="24.6237" r="4" fill="#0" id="circle68"/>
	<circle cx="418.536" cy="583.526" r="4" fill="#0" id="circle69"/>
	<circle cx="437.098" cy="10.1871" r="4" fill="#0" id="circle70"/>
	<circle cx="439.16" cy="583.526" r="4" fill="#0" id="circle71"/>
	<circle cx="457.721" cy="4" r="4" fill="#0" id="circle72"/>
	<circle cx="459.784" cy="583.526" r="4" fill="#0" id="circle73"/>
	<circle cx="478.345" cy="4" r="4" fill="#0" id="circle74"/>
	<circle cx="480.407" cy="583.526" r="4" fill="#0" id="circle75"/>
	<circle cx="498.969" cy="4" r="4" fill="#0" id="circle76"/>
	<circle cx="501.031" cy="583.526" r="4" fill="#0" id="circle77"/>
	<circle cx="519.593" cy="4" r="4" fill="#0" id="circle78"/>
	<circle cx="521.655" cy="583.526" r="4" fill="#0" id="circle79"/>
	<circle cx="540.216" cy="4" r="4" fill="#0" id="circle80"/>
	<circle cx="542.279" cy="583.526" r="4" fill="#0" id="circle81"/>
	<circle cx="560.84" cy="4" r="4" fill="#0" id="circle82"/>
	<circle cx="562.902" cy="583.526" r="4" fill="#0" id="circle83"/>
	<circle cx="581.464" cy="4" r="4" fill="#0" id="circle84"/>
	<circle cx="583.526" cy="583.526" r="4" fill="#0" id="circle85"/>
	<circle cx="602.087" cy="4" r="4" fill="#0" id="circle86"/>
	<circle cx="604.15" cy="583.526" r="4" fill="#0" id="circle87"/>
	<circle cx="622.711" cy="4" r="4" fill="#0" id="circle88"/>
	<circle cx="624.773" cy="583.526" r="4" fill="#0" id="circle89"/>
	<circle cx="643.335" cy="4" r="4" fill="#0" id="circle90"/>
	<circle cx="645.397" cy="583.526" r="4" fill="#0" id="circle91"/>
	<circle cx="663.958" cy="4" r="4" fill="#0" id="circle92"/>
	<circle cx="666.021" cy="583.526" r="4" fill="#0" id="circle93"/>
	<circle cx="684.582" cy="4" r="4" fill="#0" id="circle94"/>
	<circle cx="684.582" cy="573.214" r="4" fill="#0" id="circle95"/>
	<circle cx="705.206" cy="4" r="4" fill="#0" id="circle96"/>
	<circle cx="705.206" cy="573.214" r="4" fill="#0" id="circle97"/>
	<circle cx="725.83" cy="4" r="4" fill="#0" id="circle98"/>
	<circle cx="725.83" cy="573.214" r="4" fill="#0" id="circle99"/>
	<circle cx="746.453" cy="4" r="4" fill="#0" id="circle100"/>
	<circle cx="746.453" cy="573.214" r="4" fill="#0" id="circle101"/>
	<circle cx="767.077" cy="4" r="4" fill="#0" id="circle102"/>
	<circle cx="767.077" cy="573.214" r="4" fill="#0" id="circle103"/>
	<circle cx="787.701" cy="4" r="4" fill="#0" id="circle104"/>
	<circle cx="787.701" cy="573.214" r="4" fill="#0" id="circle105"/>
	<circle cx="808.324" cy="4" r="4" fill="#0" id="circle106"/>
	<circle cx="808.324" cy="573.214" r="4" fill="#0" id="circle107"/>
	<circle cx="828.948" cy="4" r="4" fill="#0" id="circle108"/>
	<circle cx="828.948" cy="573.214" r="4" fill="#0" id="circle109"/>
	<circle cx="841.322" cy="20.499" r="4" fill="#0" id="circle110"/>
	<circle cx="849.572" cy="573.214" r="4" fill="#0" id="circle111"/>
	<circle cx="861.946" cy="24.6237" r="4" fill="#0" id="circle112"/>
	<circle cx="870.195" cy="573.214" r="4" fill="#0" id="circle113"/>
	<circle cx="882.57" cy="20.499" r="4" fill="#0" id="circle114"/>
	<circle cx="890.819" cy="573.214" r="4" fill="#0" id="circle115"/>
	<circle cx="903.193" cy="24.6237" r="4" fill="#0" id="circle116"/>
	<circle cx="909.38" cy="562.902" r="4" fill="#0" id="circle117"/>
	<circle cx="923.817" cy="30.8108" r="4" fill="#0" id="circle118"/>
	<circle cx="930.004" cy="562.902" r="4" fill="#0" id="circle119"/>
	<circle cx="934.129" cy="49.3721" r="4" fill="#0" id="circle120"/>
	<circle cx="950.628" cy="558.778" r="4" fill="#0" id="circle121"/>
	<circle cx="954.753" cy="55.5593" r="4" fill="#0" id="circle122"/>
	<circle cx="960.94" cy="538.154" r="4" fill="#0" id="circle123"/>
	<circle cx="965.064" cy="74.1206" r="4" fill="#0" id="circle124"/>
	<circle cx="975.376" cy="92.6819" r="4" fill="#0" id="circle125"/>
	<circle cx="975.376" cy="113.306" r="4" fill="#0" id="circle126"/>
	<circle cx="975.376" cy="133.929" r="4" fill="#0" id="circle127"/>
	<circle cx="975.376" cy="154.553" r="4" fill="#0" id="circle128"/>
	<circle cx="975.376" cy="175.177" r="4" fill="#0" id="circle129"/>
	<circle cx="975.376" cy="195.8" r="4" fill="#0" id="circle130"/>
	<circle cx="975.376" cy="216.424" r="4" fill="#0" id="circle131"/>
	<circle cx="975.376" cy="237.048" r="4" fill="#0" id="circle132"/>
	<circle cx="975.376" cy="257.672" r="4" fill="#0" id="circle133"/>
	<circle cx="975.376" cy="278.295" r="4" fill="#0" id="circle134"/>
	<circle cx="975.376" cy="298.919" r="4" fill="#0" id="circle135"/>
	<circle cx="975.376" cy="319.543" r="4" fill="#0" id="circle136"/>
	<circle cx="975.376" cy="340.166" r="4" fill="#0" id="circle137"/>
	<circle cx="975.376" cy="511.343" r="4" fill="#0" id="circle138"/>
	<circle cx="993.938" cy="350.478" r="4" fill="#0" id="circle139"/>
	<circle cx="996" cy="371.102" r="4" fill="#0" id="circle140"/>
	<circle cx="996" cy="391.726" r="4" fill="#0" id="circle141"/>
	<circle cx="996" cy="412.349" r="4" fill="#0" id="circle142"/>
	<circle cx="996" cy="432.973" r="4" fill="#0" id="circle143"/>
	<circle cx="996" cy="453.597" r="4" fill="#0" id="circle144"/>
	<circle cx="996" cy="474.22" r="4" fill="#0" id="circle145"/>
	<circle cx="996" cy="494.844" r="4" fill="#0" id="circle146"/>
	</g>
</svg>