<?xml version="1.0" encoding="UTF-8" standalone="no"?>
<!-- Created with CurveBenchmark -->
<svg
	xmlns:dc="http://purl.org/dc/elements/1.1/"
	xmlns:cc="http://creativecommons.org/ns#"
	xmlns:rdf="http://www.w3.org/1999/02/22-rdf-syntax-ns#"
	xmlns:svg="http://www.w3.org/2000/svg"
	xmlns="http://www.w3.org/2000/svg"
	xmlns:sodipodi="http://sodipodi.sourceforge.net/DTD/sodipodi-0.dtd"
	xmlns:inkscape="http://www.inkscape.org/namespaces/inkscape"
	width="1000"
	height="1000"
	id="svg2"
	version="1.1"
	sodipodi:docname="manifold/fitconnect-bed110.png.txt">
<defs
	id="defs4" />
<metadata
	id="metadata7">
	<rdf:RDF>
		<cc:Work
			rdf:about="">
			<dc:format>image/svg+xml</dc:format>
			<dc:type
				rdf:resource="http://purl.org/dc/dcmitype/StillImage" />
			<dc:title></dc:title>
		</cc:Work>
	</rdf:RDF>
</metadata>
<g
	inkscape:label="Layer 1"
	inkscape:groupmode="layer"
	id="layer1">
	<path style="fill:none;stroke:red;stroke-width:1px;stroke-linecap:butt;stroke-linejoin:miter;stroke-opacity:1" d="M 4,338.076 4,372.165 z" id="boundary" inkscape:connector-curvature="0" />
	<path style="fill:none;stroke:red;stroke-width:1px;stroke-linecap:butt;stroke-linejoin:miter;stroke-opacity:1" d="M 4,338.076 7.40893,310.804 z" id="boundary" inkscape:connector-curvature="0" />
	<path style="fill:none;stroke:red;stroke-width:1px;stroke-linecap:butt;stroke-linejoin:miter;stroke-opacity:1" d="M 4,372.165 4,389.21 z" id="boundary" inkscape:connector-curvature="0" />
	<path style="fill:none;stroke:red;stroke-width:1px;stroke-linecap:butt;stroke-linejoin:miter;stroke-opacity:1" d="M 4,389.21 4,423.299 z" id="boundary" inkscape:connector-curvature="0" />
	<path style="fill:none;stroke:red;stroke-width:1px;stroke-linecap:butt;stroke-linejoin:miter;stroke-opacity:1" d="M 4,423.299 7.40893,457.388 z" id="boundary" inkscape:connector-curvature="0" />
	<path style="fill:none;stroke:red;stroke-width:1px;stroke-linecap:butt;stroke-linejoin:miter;stroke-opacity:1" d="M 7.40893,126.722 7.40893,143.766 z" id="boundary" inkscape:connector-curvature="0" />
	<path style="fill:none;stroke:red;stroke-width:1px;stroke-linecap:butt;stroke-linejoin:miter;stroke-opacity:1" d="M 7.40893,126.722 15.9313,111.381 z" id="boundary" inkscape:connector-curvature="0" />
	<path style="fill:none;stroke:red;stroke-width:1px;stroke-linecap:butt;stroke-linejoin:miter;stroke-opacity:1" d="M 7.40893,143.766 7.40893,160.811 z" id="boundary" inkscape:connector-curvature="0" />
	<path style="fill:none;stroke:red;stroke-width:1px;stroke-linecap:butt;stroke-linejoin:miter;stroke-opacity:1" d="M 7.40893,160.811 9.1134,177.856 z" id="boundary" inkscape:connector-curvature="0" />
	<path style="fill:none;stroke:red;stroke-width:1px;stroke-linecap:butt;stroke-linejoin:miter;stroke-opacity:1" d="M 7.40893,293.759 7.40893,310.804 z" id="boundary" inkscape:connector-curvature="0" />
	<path style="fill:none;stroke:red;stroke-width:1px;stroke-linecap:butt;stroke-linejoin:miter;stroke-opacity:1" d="M 7.40893,293.759 10.8179,263.079 z" id="boundary" inkscape:connector-curvature="0" />
	<path style="fill:none;stroke:red;stroke-width:1px;stroke-linecap:butt;stroke-linejoin:miter;stroke-opacity:1" d="M 7.40893,457.388 36.3849,474.433 z" id="boundary" inkscape:connector-curvature="0" />
	<path style="fill:none;stroke:red;stroke-width:1px;stroke-linecap:butt;stroke-linejoin:miter;stroke-opacity:1" d="M 9.1134,177.856 10.8179,194.9 z" id="boundary" inkscape:connector-curvature="0" />
	<path style="fill:none;stroke:red;stroke-width:1px;stroke-linecap:butt;stroke-linejoin:miter;stroke-opacity:1" d="M 10.8179,194.9 10.8179,211.945 z" id="boundary" inkscape:connector-curvature="0" />
	<path style="fill:none;stroke:red;stroke-width:1px;stroke-linecap:butt;stroke-linejoin:miter;stroke-opacity:1" d="M 10.8179,211.945 10.8179,228.99 z" id="boundary" inkscape:connector-curvature="0" />
	<path style="fill:none;stroke:red;stroke-width:1px;stroke-linecap:butt;stroke-linejoin:miter;stroke-opacity:1" d="M 10.8179,228.99 10.8179,246.034 z" id="boundary" inkscape:connector-curvature="0" />
	<path style="fill:none;stroke:red;stroke-width:1px;stroke-linecap:butt;stroke-linejoin:miter;stroke-opacity:1" d="M 10.8179,246.034 10.8179,263.079 z" id="boundary" inkscape:connector-curvature="0" />
	<path style="fill:none;stroke:red;stroke-width:1px;stroke-linecap:butt;stroke-linejoin:miter;stroke-opacity:1" d="M 15.9313,111.381 29.567,97.7457 z" id="boundary" inkscape:connector-curvature="0" />
	<path style="fill:none;stroke:red;stroke-width:1px;stroke-linecap:butt;stroke-linejoin:miter;stroke-opacity:1" d="M 19.3402,525.567 36.3849,474.433 z" id="boundary" inkscape:connector-curvature="0" />
	<path style="fill:none;stroke:red;stroke-width:1px;stroke-linecap:butt;stroke-linejoin:miter;stroke-opacity:1" d="M 19.3402,525.567 96.0412,459.093 z" id="boundary" inkscape:connector-curvature="0" />
	<path style="fill:none;stroke:red;stroke-width:1px;stroke-linecap:butt;stroke-linejoin:miter;stroke-opacity:1" d="M 29.567,97.7457 43.2027,85.8144 z" id="boundary" inkscape:connector-curvature="0" />
	<path style="fill:none;stroke:red;stroke-width:1px;stroke-linecap:butt;stroke-linejoin:miter;stroke-opacity:1" d="M 43.2027,85.8144 58.543,75.5876 z" id="boundary" inkscape:connector-curvature="0" />
	<path style="fill:none;stroke:red;stroke-width:1px;stroke-linecap:butt;stroke-linejoin:miter;stroke-opacity:1" d="M 58.543,75.5876 75.5876,68.7698 z" id="boundary" inkscape:connector-curvature="0" />
	<path style="fill:none;stroke:red;stroke-width:1px;stroke-linecap:butt;stroke-linejoin:miter;stroke-opacity:1" d="M 75.5876,68.7698 89.2234,51.7251 z" id="boundary" inkscape:connector-curvature="0" />
	<path style="fill:none;stroke:red;stroke-width:1px;stroke-linecap:butt;stroke-linejoin:miter;stroke-opacity:1" d="M 89.2234,51.7251 102.859,38.0893 z" id="boundary" inkscape:connector-curvature="0" />
	<path style="fill:none;stroke:red;stroke-width:1px;stroke-linecap:butt;stroke-linejoin:miter;stroke-opacity:1" d="M 96.0412,459.093 198.309,460.797 z" id="boundary" inkscape:connector-curvature="0" />
	<path style="fill:none;stroke:red;stroke-width:1px;stroke-linecap:butt;stroke-linejoin:miter;stroke-opacity:1" d="M 102.859,38.0893 106.268,21.0447 z" id="boundary" inkscape:connector-curvature="0" />
	<path style="fill:none;stroke:red;stroke-width:1px;stroke-linecap:butt;stroke-linejoin:miter;stroke-opacity:1" d="M 106.268,21.0447 114.79,5.70447 z" id="boundary" inkscape:connector-curvature="0" />
	<path style="fill:none;stroke:red;stroke-width:1px;stroke-linecap:butt;stroke-linejoin:miter;stroke-opacity:1" d="M 114.79,5.70447 131.835,4 z" id="boundary" inkscape:connector-curvature="0" />
	<path style="fill:none;stroke:red;stroke-width:1px;stroke-linecap:butt;stroke-linejoin:miter;stroke-opacity:1" d="M 131.835,4 140.357,19.3402 z" id="boundary" inkscape:connector-curvature="0" />
	<path style="fill:none;stroke:red;stroke-width:1px;stroke-linecap:butt;stroke-linejoin:miter;stroke-opacity:1" d="M 140.357,19.3402 145.471,36.3849 z" id="boundary" inkscape:connector-curvature="0" />
	<path style="fill:none;stroke:red;stroke-width:1px;stroke-linecap:butt;stroke-linejoin:miter;stroke-opacity:1" d="M 145.471,36.3849 159.107,48.3162 z" id="boundary" inkscape:connector-curvature="0" />
	<path style="fill:none;stroke:red;stroke-width:1px;stroke-linecap:butt;stroke-linejoin:miter;stroke-opacity:1" d="M 159.107,48.3162 162.515,65.3608 z" id="boundary" inkscape:connector-curvature="0" />
	<path style="fill:none;stroke:red;stroke-width:1px;stroke-linecap:butt;stroke-linejoin:miter;stroke-opacity:1" d="M 162.515,65.3608 176.151,75.5876 z" id="boundary" inkscape:connector-curvature="0" />
	<path style="fill:none;stroke:red;stroke-width:1px;stroke-linecap:butt;stroke-linejoin:miter;stroke-opacity:1" d="M 176.151,75.5876 191.491,84.11 z" id="boundary" inkscape:connector-curvature="0" />
	<path style="fill:none;stroke:red;stroke-width:1px;stroke-linecap:butt;stroke-linejoin:miter;stroke-opacity:1" d="M 191.491,84.11 205.127,94.3368 z" id="boundary" inkscape:connector-curvature="0" />
	<path style="fill:none;stroke:red;stroke-width:1px;stroke-linecap:butt;stroke-linejoin:miter;stroke-opacity:1" d="M 198.309,460.797 242.625,459.093 z" id="boundary" inkscape:connector-curvature="0" />
	<path style="fill:none;stroke:red;stroke-width:1px;stroke-linecap:butt;stroke-linejoin:miter;stroke-opacity:1" d="M 205.127,94.3368 217.058,107.973 z" id="boundary" inkscape:connector-curvature="0" />
	<path style="fill:none;stroke:red;stroke-width:1px;stroke-linecap:butt;stroke-linejoin:miter;stroke-opacity:1" d="M 217.058,107.973 225.581,123.313 z" id="boundary" inkscape:connector-curvature="0" />
	<path style="fill:none;stroke:red;stroke-width:1px;stroke-linecap:butt;stroke-linejoin:miter;stroke-opacity:1" d="M 220.467,167.629 220.467,184.674 z" id="boundary" inkscape:connector-curvature="0" />
	<path style="fill:none;stroke:red;stroke-width:1px;stroke-linecap:butt;stroke-linejoin:miter;stroke-opacity:1" d="M 220.467,167.629 228.99,152.289 z" id="boundary" inkscape:connector-curvature="0" />
	<path style="fill:none;stroke:red;stroke-width:1px;stroke-linecap:butt;stroke-linejoin:miter;stroke-opacity:1" d="M 220.467,184.674 230.694,198.309 z" id="boundary" inkscape:connector-curvature="0" />
	<path style="fill:none;stroke:red;stroke-width:1px;stroke-linecap:butt;stroke-linejoin:miter;stroke-opacity:1" d="M 225.581,123.313 228.99,152.289 z" id="boundary" inkscape:connector-curvature="0" />
	<path style="fill:none;stroke:red;stroke-width:1px;stroke-linecap:butt;stroke-linejoin:miter;stroke-opacity:1" d="M 230.694,198.309 247.739,201.718 z" id="boundary" inkscape:connector-curvature="0" />
	<path style="fill:none;stroke:red;stroke-width:1px;stroke-linecap:butt;stroke-linejoin:miter;stroke-opacity:1" d="M 242.625,459.093 276.715,459.093 z" id="boundary" inkscape:connector-curvature="0" />
	<path style="fill:none;stroke:red;stroke-width:1px;stroke-linecap:butt;stroke-linejoin:miter;stroke-opacity:1" d="M 247.739,201.718 263.079,210.241 z" id="boundary" inkscape:connector-curvature="0" />
	<path style="fill:none;stroke:red;stroke-width:1px;stroke-linecap:butt;stroke-linejoin:miter;stroke-opacity:1" d="M 263.079,210.241 280.124,211.945 z" id="boundary" inkscape:connector-curvature="0" />
	<path style="fill:none;stroke:red;stroke-width:1px;stroke-linecap:butt;stroke-linejoin:miter;stroke-opacity:1" d="M 276.715,459.093 310.804,459.093 z" id="boundary" inkscape:connector-curvature="0" />
	<path style="fill:none;stroke:red;stroke-width:1px;stroke-linecap:butt;stroke-linejoin:miter;stroke-opacity:1" d="M 280.124,211.945 297.168,211.945 z" id="boundary" inkscape:connector-curvature="0" />
	<path style="fill:none;stroke:red;stroke-width:1px;stroke-linecap:butt;stroke-linejoin:miter;stroke-opacity:1" d="M 297.168,211.945 314.213,211.945 z" id="boundary" inkscape:connector-curvature="0" />
	<path style="fill:none;stroke:red;stroke-width:1px;stroke-linecap:butt;stroke-linejoin:miter;stroke-opacity:1" d="M 310.804,459.093 327.849,459.093 z" id="boundary" inkscape:connector-curvature="0" />
	<path style="fill:none;stroke:red;stroke-width:1px;stroke-linecap:butt;stroke-linejoin:miter;stroke-opacity:1" d="M 314.213,211.945 331.258,215.354 z" id="boundary" inkscape:connector-curvature="0" />
	<path style="fill:none;stroke:red;stroke-width:1px;stroke-linecap:butt;stroke-linejoin:miter;stroke-opacity:1" d="M 327.849,459.093 344.893,459.093 z" id="boundary" inkscape:connector-curvature="0" />
	<path style="fill:none;stroke:red;stroke-width:1px;stroke-linecap:butt;stroke-linejoin:miter;stroke-opacity:1" d="M 331.258,215.354 348.302,220.467 z" id="boundary" inkscape:connector-curvature="0" />
	<path style="fill:none;stroke:red;stroke-width:1px;stroke-linecap:butt;stroke-linejoin:miter;stroke-opacity:1" d="M 344.893,459.093 361.938,459.093 z" id="boundary" inkscape:connector-curvature="0" />
	<path style="fill:none;stroke:red;stroke-width:1px;stroke-linecap:butt;stroke-linejoin:miter;stroke-opacity:1" d="M 348.302,220.467 365.347,227.285 z" id="boundary" inkscape:connector-curvature="0" />
	<path style="fill:none;stroke:red;stroke-width:1px;stroke-linecap:butt;stroke-linejoin:miter;stroke-opacity:1" d="M 361.938,459.093 378.983,459.093 z" id="boundary" inkscape:connector-curvature="0" />
	<path style="fill:none;stroke:red;stroke-width:1px;stroke-linecap:butt;stroke-linejoin:miter;stroke-opacity:1" d="M 365.347,227.285 380.687,235.808 z" id="boundary" inkscape:connector-curvature="0" />
	<path style="fill:none;stroke:red;stroke-width:1px;stroke-linecap:butt;stroke-linejoin:miter;stroke-opacity:1" d="M 378.983,459.093 396.027,459.093 z" id="boundary" inkscape:connector-curvature="0" />
	<path style="fill:none;stroke:red;stroke-width:1px;stroke-linecap:butt;stroke-linejoin:miter;stroke-opacity:1" d="M 380.687,235.808 396.027,244.33 z" id="boundary" inkscape:connector-curvature="0" />
	<path style="fill:none;stroke:red;stroke-width:1px;stroke-linecap:butt;stroke-linejoin:miter;stroke-opacity:1" d="M 396.027,244.33 407.959,257.966 z" id="boundary" inkscape:connector-curvature="0" />
	<path style="fill:none;stroke:red;stroke-width:1px;stroke-linecap:butt;stroke-linejoin:miter;stroke-opacity:1" d="M 396.027,459.093 413.072,459.093 z" id="boundary" inkscape:connector-curvature="0" />
	<path style="fill:none;stroke:red;stroke-width:1px;stroke-linecap:butt;stroke-linejoin:miter;stroke-opacity:1" d="M 407.959,257.966 421.595,269.897 z" id="boundary" inkscape:connector-curvature="0" />
	<path style="fill:none;stroke:red;stroke-width:1px;stroke-linecap:butt;stroke-linejoin:miter;stroke-opacity:1" d="M 413.072,459.093 430.117,459.093 z" id="boundary" inkscape:connector-curvature="0" />
	<path style="fill:none;stroke:red;stroke-width:1px;stroke-linecap:butt;stroke-linejoin:miter;stroke-opacity:1" d="M 421.595,269.897 433.526,283.533 z" id="boundary" inkscape:connector-curvature="0" />
	<path style="fill:none;stroke:red;stroke-width:1px;stroke-linecap:butt;stroke-linejoin:miter;stroke-opacity:1" d="M 430.117,459.093 447.162,459.093 z" id="boundary" inkscape:connector-curvature="0" />
	<path style="fill:none;stroke:red;stroke-width:1px;stroke-linecap:butt;stroke-linejoin:miter;stroke-opacity:1" d="M 433.526,283.533 442.048,298.873 z" id="boundary" inkscape:connector-curvature="0" />
	<path style="fill:none;stroke:red;stroke-width:1px;stroke-linecap:butt;stroke-linejoin:miter;stroke-opacity:1" d="M 442.048,298.873 459.093,303.986 z" id="boundary" inkscape:connector-curvature="0" />
	<path style="fill:none;stroke:red;stroke-width:1px;stroke-linecap:butt;stroke-linejoin:miter;stroke-opacity:1" d="M 447.162,459.093 464.206,459.093 z" id="boundary" inkscape:connector-curvature="0" />
	<path style="fill:none;stroke:red;stroke-width:1px;stroke-linecap:butt;stroke-linejoin:miter;stroke-opacity:1" d="M 459.093,303.986 476.137,303.986 z" id="boundary" inkscape:connector-curvature="0" />
	<path style="fill:none;stroke:red;stroke-width:1px;stroke-linecap:butt;stroke-linejoin:miter;stroke-opacity:1" d="M 464.206,459.093 481.251,459.093 z" id="boundary" inkscape:connector-curvature="0" />
	<path style="fill:none;stroke:red;stroke-width:1px;stroke-linecap:butt;stroke-linejoin:miter;stroke-opacity:1" d="M 476.137,303.986 493.182,303.986 z" id="boundary" inkscape:connector-curvature="0" />
	<path style="fill:none;stroke:red;stroke-width:1px;stroke-linecap:butt;stroke-linejoin:miter;stroke-opacity:1" d="M 481.251,459.093 498.296,459.093 z" id="boundary" inkscape:connector-curvature="0" />
	<path style="fill:none;stroke:red;stroke-width:1px;stroke-linecap:butt;stroke-linejoin:miter;stroke-opacity:1" d="M 493.182,303.986 510.227,303.986 z" id="boundary" inkscape:connector-curvature="0" />
	<path style="fill:none;stroke:red;stroke-width:1px;stroke-linecap:butt;stroke-linejoin:miter;stroke-opacity:1" d="M 498.296,459.093 515.34,459.093 z" id="boundary" inkscape:connector-curvature="0" />
	<path style="fill:none;stroke:red;stroke-width:1px;stroke-linecap:butt;stroke-linejoin:miter;stroke-opacity:1" d="M 510.227,303.986 527.271,303.986 z" id="boundary" inkscape:connector-curvature="0" />
	<path style="fill:none;stroke:red;stroke-width:1px;stroke-linecap:butt;stroke-linejoin:miter;stroke-opacity:1" d="M 515.34,459.093 532.385,459.093 z" id="boundary" inkscape:connector-curvature="0" />
	<path style="fill:none;stroke:red;stroke-width:1px;stroke-linecap:butt;stroke-linejoin:miter;stroke-opacity:1" d="M 527.271,303.986 544.316,303.986 z" id="boundary" inkscape:connector-curvature="0" />
	<path style="fill:none;stroke:red;stroke-width:1px;stroke-linecap:butt;stroke-linejoin:miter;stroke-opacity:1" d="M 532.385,459.093 549.43,459.093 z" id="boundary" inkscape:connector-curvature="0" />
	<path style="fill:none;stroke:red;stroke-width:1px;stroke-linecap:butt;stroke-linejoin:miter;stroke-opacity:1" d="M 544.316,303.986 561.361,303.986 z" id="boundary" inkscape:connector-curvature="0" />
	<path style="fill:none;stroke:red;stroke-width:1px;stroke-linecap:butt;stroke-linejoin:miter;stroke-opacity:1" d="M 549.43,459.093 566.474,459.093 z" id="boundary" inkscape:connector-curvature="0" />
	<path style="fill:none;stroke:red;stroke-width:1px;stroke-linecap:butt;stroke-linejoin:miter;stroke-opacity:1" d="M 561.361,303.986 578.405,303.986 z" id="boundary" inkscape:connector-curvature="0" />
	<path style="fill:none;stroke:red;stroke-width:1px;stroke-linecap:butt;stroke-linejoin:miter;stroke-opacity:1" d="M 566.474,459.093 583.519,459.093 z" id="boundary" inkscape:connector-curvature="0" />
	<path style="fill:none;stroke:red;stroke-width:1px;stroke-linecap:butt;stroke-linejoin:miter;stroke-opacity:1" d="M 578.405,303.986 595.45,303.986 z" id="boundary" inkscape:connector-curvature="0" />
	<path style="fill:none;stroke:red;stroke-width:1px;stroke-linecap:butt;stroke-linejoin:miter;stroke-opacity:1" d="M 583.519,459.093 600.564,459.093 z" id="boundary" inkscape:connector-curvature="0" />
	<path style="fill:none;stroke:red;stroke-width:1px;stroke-linecap:butt;stroke-linejoin:miter;stroke-opacity:1" d="M 595.45,303.986 612.495,303.986 z" id="boundary" inkscape:connector-curvature="0" />
	<path style="fill:none;stroke:red;stroke-width:1px;stroke-linecap:butt;stroke-linejoin:miter;stroke-opacity:1" d="M 600.564,459.093 617.608,459.093 z" id="boundary" inkscape:connector-curvature="0" />
	<path style="fill:none;stroke:red;stroke-width:1px;stroke-linecap:butt;stroke-linejoin:miter;stroke-opacity:1" d="M 612.495,303.986 629.54,303.986 z" id="boundary" inkscape:connector-curvature="0" />
	<path style="fill:none;stroke:red;stroke-width:1px;stroke-linecap:butt;stroke-linejoin:miter;stroke-opacity:1" d="M 617.608,459.093 634.653,459.093 z" id="boundary" inkscape:connector-curvature="0" />
	<path style="fill:none;stroke:red;stroke-width:1px;stroke-linecap:butt;stroke-linejoin:miter;stroke-opacity:1" d="M 629.54,303.986 646.584,307.395 z" id="boundary" inkscape:connector-curvature="0" />
	<path style="fill:none;stroke:red;stroke-width:1px;stroke-linecap:butt;stroke-linejoin:miter;stroke-opacity:1" d="M 634.653,459.093 651.698,459.093 z" id="boundary" inkscape:connector-curvature="0" />
	<path style="fill:none;stroke:red;stroke-width:1px;stroke-linecap:butt;stroke-linejoin:miter;stroke-opacity:1" d="M 646.584,307.395 663.629,307.395 z" id="boundary" inkscape:connector-curvature="0" />
	<path style="fill:none;stroke:red;stroke-width:1px;stroke-linecap:butt;stroke-linejoin:miter;stroke-opacity:1" d="M 651.698,459.093 685.787,459.093 z" id="boundary" inkscape:connector-curvature="0" />
	<path style="fill:none;stroke:red;stroke-width:1px;stroke-linecap:butt;stroke-linejoin:miter;stroke-opacity:1" d="M 663.629,307.395 680.674,307.395 z" id="boundary" inkscape:connector-curvature="0" />
	<path style="fill:none;stroke:red;stroke-width:1px;stroke-linecap:butt;stroke-linejoin:miter;stroke-opacity:1" d="M 680.674,307.395 697.718,307.395 z" id="boundary" inkscape:connector-curvature="0" />
	<path style="fill:none;stroke:red;stroke-width:1px;stroke-linecap:butt;stroke-linejoin:miter;stroke-opacity:1" d="M 685.787,459.093 719.876,459.093 z" id="boundary" inkscape:connector-curvature="0" />
	<path style="fill:none;stroke:red;stroke-width:1px;stroke-linecap:butt;stroke-linejoin:miter;stroke-opacity:1" d="M 697.718,307.395 714.763,307.395 z" id="boundary" inkscape:connector-curvature="0" />
	<path style="fill:none;stroke:red;stroke-width:1px;stroke-linecap:butt;stroke-linejoin:miter;stroke-opacity:1" d="M 714.763,307.395 731.808,307.395 z" id="boundary" inkscape:connector-curvature="0" />
	<path style="fill:none;stroke:red;stroke-width:1px;stroke-linecap:butt;stroke-linejoin:miter;stroke-opacity:1" d="M 719.876,459.093 753.966,503.409 z" id="boundary" inkscape:connector-curvature="0" />
	<path style="fill:none;stroke:red;stroke-width:1px;stroke-linecap:butt;stroke-linejoin:miter;stroke-opacity:1" d="M 731.808,307.395 748.852,310.804 z" id="boundary" inkscape:connector-curvature="0" />
	<path style="fill:none;stroke:red;stroke-width:1px;stroke-linecap:butt;stroke-linejoin:miter;stroke-opacity:1" d="M 748.852,310.804 764.192,300.577 z" id="boundary" inkscape:connector-curvature="0" />
	<path style="fill:none;stroke:red;stroke-width:1px;stroke-linecap:butt;stroke-linejoin:miter;stroke-opacity:1" d="M 753.966,503.409 779.533,498.296 z" id="boundary" inkscape:connector-curvature="0" />
	<path style="fill:none;stroke:red;stroke-width:1px;stroke-linecap:butt;stroke-linejoin:miter;stroke-opacity:1" d="M 764.192,300.577 777.828,290.351 z" id="boundary" inkscape:connector-curvature="0" />
	<path style="fill:none;stroke:red;stroke-width:1px;stroke-linecap:butt;stroke-linejoin:miter;stroke-opacity:1" d="M 777.828,290.351 791.464,280.124 z" id="boundary" inkscape:connector-curvature="0" />
	<path style="fill:none;stroke:red;stroke-width:1px;stroke-linecap:butt;stroke-linejoin:miter;stroke-opacity:1" d="M 779.533,498.296 830.667,469.32 z" id="boundary" inkscape:connector-curvature="0" />
	<path style="fill:none;stroke:red;stroke-width:1px;stroke-linecap:butt;stroke-linejoin:miter;stroke-opacity:1" d="M 791.464,280.124 808.509,276.715 z" id="boundary" inkscape:connector-curvature="0" />
	<path style="fill:none;stroke:red;stroke-width:1px;stroke-linecap:butt;stroke-linejoin:miter;stroke-opacity:1" d="M 808.509,276.715 825.553,273.306 z" id="boundary" inkscape:connector-curvature="0" />
	<path style="fill:none;stroke:red;stroke-width:1px;stroke-linecap:butt;stroke-linejoin:miter;stroke-opacity:1" d="M 825.553,273.306 835.78,256.261 z" id="boundary" inkscape:connector-curvature="0" />
	<path style="fill:none;stroke:red;stroke-width:1px;stroke-linecap:butt;stroke-linejoin:miter;stroke-opacity:1" d="M 830.667,469.32 856.234,494.887 z" id="boundary" inkscape:connector-curvature="0" />
	<path style="fill:none;stroke:red;stroke-width:1px;stroke-linecap:butt;stroke-linejoin:miter;stroke-opacity:1" d="M 835.78,256.261 849.416,242.625 z" id="boundary" inkscape:connector-curvature="0" />
	<path style="fill:none;stroke:red;stroke-width:1px;stroke-linecap:butt;stroke-linejoin:miter;stroke-opacity:1" d="M 849.416,242.625 863.052,228.99 z" id="boundary" inkscape:connector-curvature="0" />
	<path style="fill:none;stroke:red;stroke-width:1px;stroke-linecap:butt;stroke-linejoin:miter;stroke-opacity:1" d="M 856.234,494.887 890.323,493.182 z" id="boundary" inkscape:connector-curvature="0" />
	<path style="fill:none;stroke:red;stroke-width:1px;stroke-linecap:butt;stroke-linejoin:miter;stroke-opacity:1" d="M 863.052,228.99 880.096,228.99 z" id="boundary" inkscape:connector-curvature="0" />
	<path style="fill:none;stroke:red;stroke-width:1px;stroke-linecap:butt;stroke-linejoin:miter;stroke-opacity:1" d="M 880.096,228.99 890.323,242.625 z" id="boundary" inkscape:connector-curvature="0" />
	<path style="fill:none;stroke:red;stroke-width:1px;stroke-linecap:butt;stroke-linejoin:miter;stroke-opacity:1" d="M 890.323,242.625 900.55,256.261 z" id="boundary" inkscape:connector-curvature="0" />
	<path style="fill:none;stroke:red;stroke-width:1px;stroke-linecap:butt;stroke-linejoin:miter;stroke-opacity:1" d="M 890.323,493.182 903.959,479.546 z" id="boundary" inkscape:connector-curvature="0" />
	<path style="fill:none;stroke:red;stroke-width:1px;stroke-linecap:butt;stroke-linejoin:miter;stroke-opacity:1" d="M 900.55,256.261 910.777,269.897 z" id="boundary" inkscape:connector-curvature="0" />
	<path style="fill:none;stroke:red;stroke-width:1px;stroke-linecap:butt;stroke-linejoin:miter;stroke-opacity:1" d="M 903.959,479.546 917.595,465.911 z" id="boundary" inkscape:connector-curvature="0" />
	<path style="fill:none;stroke:red;stroke-width:1px;stroke-linecap:butt;stroke-linejoin:miter;stroke-opacity:1" d="M 910.777,269.897 927.821,275.01 z" id="boundary" inkscape:connector-curvature="0" />
	<path style="fill:none;stroke:red;stroke-width:1px;stroke-linecap:butt;stroke-linejoin:miter;stroke-opacity:1" d="M 917.595,465.911 931.23,476.137 z" id="boundary" inkscape:connector-curvature="0" />
	<path style="fill:none;stroke:red;stroke-width:1px;stroke-linecap:butt;stroke-linejoin:miter;stroke-opacity:1" d="M 927.821,275.01 944.866,280.124 z" id="boundary" inkscape:connector-curvature="0" />
	<path style="fill:none;stroke:red;stroke-width:1px;stroke-linecap:butt;stroke-linejoin:miter;stroke-opacity:1" d="M 931.23,476.137 948.275,476.137 z" id="boundary" inkscape:connector-curvature="0" />
	<path style="fill:none;stroke:red;stroke-width:1px;stroke-linecap:butt;stroke-linejoin:miter;stroke-opacity:1" d="M 944.866,280.124 961.911,286.942 z" id="boundary" inkscape:connector-curvature="0" />
	<path style="fill:none;stroke:red;stroke-width:1px;stroke-linecap:butt;stroke-linejoin:miter;stroke-opacity:1" d="M 948.275,476.137 965.32,471.024 z" id="boundary" inkscape:connector-curvature="0" />
	<path style="fill:none;stroke:red;stroke-width:1px;stroke-linecap:butt;stroke-linejoin:miter;stroke-opacity:1" d="M 961.911,286.942 975.546,298.873 z" id="boundary" inkscape:connector-curvature="0" />
	<path style="fill:none;stroke:red;stroke-width:1px;stroke-linecap:butt;stroke-linejoin:miter;stroke-opacity:1" d="M 965.32,471.024 968.729,488.069 z" id="boundary" inkscape:connector-curvature="0" />
	<path style="fill:none;stroke:red;stroke-width:1px;stroke-linecap:butt;stroke-linejoin:miter;stroke-opacity:1" d="M 968.729,488.069 968.729,505.113 z" id="boundary" inkscape:connector-curvature="0" />
	<path style="fill:none;stroke:red;stroke-width:1px;stroke-linecap:butt;stroke-linejoin:miter;stroke-opacity:1" d="M 968.729,505.113 968.729,522.158 z" id="boundary" inkscape:connector-curvature="0" />
	<path style="fill:none;stroke:red;stroke-width:1px;stroke-linecap:butt;stroke-linejoin:miter;stroke-opacity:1" d="M 968.729,522.158 984.069,530.68 z" id="boundary" inkscape:connector-curvature="0" />
	<path style="fill:none;stroke:red;stroke-width:1px;stroke-linecap:butt;stroke-linejoin:miter;stroke-opacity:1" d="M 975.546,298.873 987.478,312.509 z" id="boundary" inkscape:connector-curvature="0" />
	<path style="fill:none;stroke:red;stroke-width:1px;stroke-linecap:butt;stroke-linejoin:miter;stroke-opacity:1" d="M 984.069,402.845 984.069,419.89 z" id="boundary" inkscape:connector-curvature="0" />
	<path style="fill:none;stroke:red;stroke-width:1px;stroke-linecap:butt;stroke-linejoin:miter;stroke-opacity:1" d="M 984.069,402.845 987.478,378.983 z" id="boundary" inkscape:connector-curvature="0" />
	<path style="fill:none;stroke:red;stroke-width:1px;stroke-linecap:butt;stroke-linejoin:miter;stroke-opacity:1" d="M 984.069,419.89 984.069,436.935 z" id="boundary" inkscape:connector-curvature="0" />
	<path style="fill:none;stroke:red;stroke-width:1px;stroke-linecap:butt;stroke-linejoin:miter;stroke-opacity:1" d="M 984.069,436.935 984.069,453.979 z" id="boundary" inkscape:connector-curvature="0" />
	<path style="fill:none;stroke:red;stroke-width:1px;stroke-linecap:butt;stroke-linejoin:miter;stroke-opacity:1" d="M 984.069,453.979 989.182,471.024 z" id="boundary" inkscape:connector-curvature="0" />
	<path style="fill:none;stroke:red;stroke-width:1px;stroke-linecap:butt;stroke-linejoin:miter;stroke-opacity:1" d="M 984.069,530.68 987.478,505.113 z" id="boundary" inkscape:connector-curvature="0" />
	<path style="fill:none;stroke:red;stroke-width:1px;stroke-linecap:butt;stroke-linejoin:miter;stroke-opacity:1" d="M 987.478,312.509 996,327.849 z" id="boundary" inkscape:connector-curvature="0" />
	<path style="fill:none;stroke:red;stroke-width:1px;stroke-linecap:butt;stroke-linejoin:miter;stroke-opacity:1" d="M 987.478,361.938 987.478,378.983 z" id="boundary" inkscape:connector-curvature="0" />
	<path style="fill:none;stroke:red;stroke-width:1px;stroke-linecap:butt;stroke-linejoin:miter;stroke-opacity:1" d="M 987.478,361.938 996,346.598 z" id="boundary" inkscape:connector-curvature="0" />
	<path style="fill:none;stroke:red;stroke-width:1px;stroke-linecap:butt;stroke-linejoin:miter;stroke-opacity:1" d="M 987.478,505.113 994.296,488.069 z" id="boundary" inkscape:connector-curvature="0" />
	<path style="fill:none;stroke:red;stroke-width:1px;stroke-linecap:butt;stroke-linejoin:miter;stroke-opacity:1" d="M 989.182,471.024 994.296,488.069 z" id="boundary" inkscape:connector-curvature="0" />
	<path style="fill:none;stroke:red;stroke-width:1px;stroke-linecap:butt;stroke-linejoin:miter;stroke-opacity:1" d="M 996,327.849 996,346.598 z" id="boundary" inkscape:connector-curvature="0" />
	<circle cx="4" cy="338.076" r="4" fill="#0" id="circle0"/>
	<circle cx="4" cy="355.12" r="4" fill="#0" id="circle1"/>
	<circle cx="4" cy="372.165" r="4" fill="#0" id="circle2"/>
	<circle cx="4" cy="389.21" r="4" fill="#0" id="circle3"/>
	<circle cx="4" cy="406.254" r="4" fill="#0" id="circle4"/>
	<circle cx="4" cy="423.299" r="4" fill="#0" id="circle5"/>
	<circle cx="4" cy="440.344" r="4" fill="#0" id="circle6"/>
	<circle cx="7.40893" cy="126.722" r="4" fill="#0" id="circle7"/>
	<circle cx="7.40893" cy="143.766" r="4" fill="#0" id="circle8"/>
	<circle cx="7.40893" cy="160.811" r="4" fill="#0" id="circle9"/>
	<circle cx="7.40893" cy="293.759" r="4" fill="#0" id="circle10"/>
	<circle cx="7.40893" cy="310.804" r="4" fill="#0" id="circle11"/>
	<circle cx="7.40893" cy="457.388" r="4" fill="#0" id="circle12"/>
	<circle cx="9.1134" cy="177.856" r="4" fill="#0" id="circle13"/>
	<circle cx="10.8179" cy="194.9" r="4" fill="#0" id="circle14"/>
	<circle cx="10.8179" cy="211.945" r="4" fill="#0" id="circle15"/>
	<circle cx="10.8179" cy="228.99" r="4" fill="#0" id="circle16"/>
	<circle cx="10.8179" cy="246.034" r="4" fill="#0" id="circle17"/>
	<circle cx="10.8179" cy="263.079" r="4" fill="#0" id="circle18"/>
	<circle cx="10.8179" cy="474.433" r="4" fill="#0" id="circle19"/>
	<circle cx="14.2268" cy="491.478" r="4" fill="#0" id="circle20"/>
	<circle cx="14.2268" cy="508.522" r="4" fill="#0" id="circle21"/>
	<circle cx="15.9313" cy="111.381" r="4" fill="#0" id="circle22"/>
	<circle cx="19.3402" cy="525.567" r="4" fill="#0" id="circle23"/>
	<circle cx="29.567" cy="97.7457" r="4" fill="#0" id="circle24"/>
	<circle cx="32.9759" cy="505.113" r="4" fill="#0" id="circle25"/>
	<circle cx="36.3849" cy="474.433" r="4" fill="#0" id="circle26"/>
	<circle cx="36.3849" cy="525.567" r="4" fill="#0" id="circle27"/>
	<circle cx="43.2027" cy="85.8144" r="4" fill="#0" id="circle28"/>
	<circle cx="44.9072" cy="459.093" r="4" fill="#0" id="circle29"/>
	<circle cx="58.543" cy="75.5876" r="4" fill="#0" id="circle30"/>
	<circle cx="61.9519" cy="459.093" r="4" fill="#0" id="circle31"/>
	<circle cx="75.5876" cy="68.7698" r="4" fill="#0" id="circle32"/>
	<circle cx="78.9966" cy="459.093" r="4" fill="#0" id="circle33"/>
	<circle cx="89.2234" cy="51.7251" r="4" fill="#0" id="circle34"/>
	<circle cx="96.0412" cy="459.093" r="4" fill="#0" id="circle35"/>
	<circle cx="102.859" cy="38.0893" r="4" fill="#0" id="circle36"/>
	<circle cx="106.268" cy="21.0447" r="4" fill="#0" id="circle37"/>
	<circle cx="113.086" cy="459.093" r="4" fill="#0" id="circle38"/>
	<circle cx="114.79" cy="5.70447" r="4" fill="#0" id="circle39"/>
	<circle cx="130.131" cy="459.093" r="4" fill="#0" id="circle40"/>
	<circle cx="131.835" cy="4" r="4" fill="#0" id="circle41"/>
	<circle cx="140.357" cy="19.3402" r="4" fill="#0" id="circle42"/>
	<circle cx="145.471" cy="36.3849" r="4" fill="#0" id="circle43"/>
	<circle cx="147.175" cy="459.093" r="4" fill="#0" id="circle44"/>
	<circle cx="159.107" cy="48.3162" r="4" fill="#0" id="circle45"/>
	<circle cx="162.515" cy="65.3608" r="4" fill="#0" id="circle46"/>
	<circle cx="164.22" cy="459.093" r="4" fill="#0" id="circle47"/>
	<circle cx="176.151" cy="75.5876" r="4" fill="#0" id="circle48"/>
	<circle cx="181.265" cy="459.093" r="4" fill="#0" id="circle49"/>
	<circle cx="191.491" cy="84.11" r="4" fill="#0" id="circle50"/>
	<circle cx="198.309" cy="460.797" r="4" fill="#0" id="circle51"/>
	<circle cx="203.423" cy="477.842" r="4" fill="#0" id="circle52"/>
	<circle cx="205.127" cy="94.3368" r="4" fill="#0" id="circle53"/>
	<circle cx="205.127" cy="498.296" r="4" fill="#0" id="circle54"/>
	<circle cx="205.127" cy="515.34" r="4" fill="#0" id="circle55"/>
	<circle cx="217.058" cy="107.973" r="4" fill="#0" id="circle56"/>
	<circle cx="218.763" cy="527.271" r="4" fill="#0" id="circle57"/>
	<circle cx="220.467" cy="167.629" r="4" fill="#0" id="circle58"/>
	<circle cx="220.467" cy="184.674" r="4" fill="#0" id="circle59"/>
	<circle cx="222.172" cy="506.818" r="4" fill="#0" id="circle60"/>
	<circle cx="225.581" cy="123.313" r="4" fill="#0" id="circle61"/>
	<circle cx="225.581" cy="459.093" r="4" fill="#0" id="circle62"/>
	<circle cx="227.285" cy="476.137" r="4" fill="#0" id="circle63"/>
	<circle cx="228.99" cy="152.289" r="4" fill="#0" id="circle64"/>
	<circle cx="230.694" cy="198.309" r="4" fill="#0" id="circle65"/>
	<circle cx="242.625" cy="459.093" r="4" fill="#0" id="circle66"/>
	<circle cx="247.739" cy="201.718" r="4" fill="#0" id="circle67"/>
	<circle cx="259.67" cy="459.093" r="4" fill="#0" id="circle68"/>
	<circle cx="263.079" cy="210.241" r="4" fill="#0" id="circle69"/>
	<circle cx="276.715" cy="459.093" r="4" fill="#0" id="circle70"/>
	<circle cx="280.124" cy="211.945" r="4" fill="#0" id="circle71"/>
	<circle cx="293.759" cy="459.093" r="4" fill="#0" id="circle72"/>
	<circle cx="297.168" cy="211.945" r="4" fill="#0" id="circle73"/>
	<circle cx="310.804" cy="459.093" r="4" fill="#0" id="circle74"/>
	<circle cx="314.213" cy="211.945" r="4" fill="#0" id="circle75"/>
	<circle cx="327.849" cy="459.093" r="4" fill="#0" id="circle76"/>
	<circle cx="331.258" cy="215.354" r="4" fill="#0" id="circle77"/>
	<circle cx="344.893" cy="459.093" r="4" fill="#0" id="circle78"/>
	<circle cx="348.302" cy="220.467" r="4" fill="#0" id="circle79"/>
	<circle cx="361.938" cy="459.093" r="4" fill="#0" id="circle80"/>
	<circle cx="365.347" cy="227.285" r="4" fill="#0" id="circle81"/>
	<circle cx="378.983" cy="459.093" r="4" fill="#0" id="circle82"/>
	<circle cx="380.687" cy="235.808" r="4" fill="#0" id="circle83"/>
	<circle cx="396.027" cy="244.33" r="4" fill="#0" id="circle84"/>
	<circle cx="396.027" cy="459.093" r="4" fill="#0" id="circle85"/>
	<circle cx="407.959" cy="257.966" r="4" fill="#0" id="circle86"/>
	<circle cx="413.072" cy="459.093" r="4" fill="#0" id="circle87"/>
	<circle cx="421.595" cy="269.897" r="4" fill="#0" id="circle88"/>
	<circle cx="430.117" cy="459.093" r="4" fill="#0" id="circle89"/>
	<circle cx="433.526" cy="283.533" r="4" fill="#0" id="circle90"/>
	<circle cx="442.048" cy="298.873" r="4" fill="#0" id="circle91"/>
	<circle cx="447.162" cy="459.093" r="4" fill="#0" id="circle92"/>
	<circle cx="459.093" cy="303.986" r="4" fill="#0" id="circle93"/>
	<circle cx="464.206" cy="459.093" r="4" fill="#0" id="circle94"/>
	<circle cx="476.137" cy="303.986" r="4" fill="#0" id="circle95"/>
	<circle cx="481.251" cy="459.093" r="4" fill="#0" id="circle96"/>
	<circle cx="493.182" cy="303.986" r="4" fill="#0" id="circle97"/>
	<circle cx="498.296" cy="459.093" r="4" fill="#0" id="circle98"/>
	<circle cx="510.227" cy="303.986" r="4" fill="#0" id="circle99"/>
	<circle cx="515.34" cy="459.093" r="4" fill="#0" id="circle100"/>
	<circle cx="527.271" cy="303.986" r="4" fill="#0" id="circle101"/>
	<circle cx="532.385" cy="459.093" r="4" fill="#0" id="circle102"/>
	<circle cx="544.316" cy="303.986" r="4" fill="#0" id="circle103"/>
	<circle cx="549.43" cy="459.093" r="4" fill="#0" id="circle104"/>
	<circle cx="561.361" cy="303.986" r="4" fill="#0" id="circle105"/>
	<circle cx="566.474" cy="459.093" r="4" fill="#0" id="circle106"/>
	<circle cx="578.405" cy="303.986" r="4" fill="#0" id="circle107"/>
	<circle cx="583.519" cy="459.093" r="4" fill="#0" id="circle108"/>
	<circle cx="595.45" cy="303.986" r="4" fill="#0" id="circle109"/>
	<circle cx="600.564" cy="459.093" r="4" fill="#0" id="circle110"/>
	<circle cx="612.495" cy="303.986" r="4" fill="#0" id="circle111"/>
	<circle cx="617.608" cy="459.093" r="4" fill="#0" id="circle112"/>
	<circle cx="629.54" cy="303.986" r="4" fill="#0" id="circle113"/>
	<circle cx="634.653" cy="459.093" r="4" fill="#0" id="circle114"/>
	<circle cx="646.584" cy="307.395" r="4" fill="#0" id="circle115"/>
	<circle cx="651.698" cy="459.093" r="4" fill="#0" id="circle116"/>
	<circle cx="663.629" cy="307.395" r="4" fill="#0" id="circle117"/>
	<circle cx="668.742" cy="459.093" r="4" fill="#0" id="circle118"/>
	<circle cx="680.674" cy="307.395" r="4" fill="#0" id="circle119"/>
	<circle cx="685.787" cy="459.093" r="4" fill="#0" id="circle120"/>
	<circle cx="697.718" cy="307.395" r="4" fill="#0" id="circle121"/>
	<circle cx="702.832" cy="459.093" r="4" fill="#0" id="circle122"/>
	<circle cx="714.763" cy="307.395" r="4" fill="#0" id="circle123"/>
	<circle cx="719.876" cy="459.093" r="4" fill="#0" id="circle124"/>
	<circle cx="731.808" cy="307.395" r="4" fill="#0" id="circle125"/>
	<circle cx="736.921" cy="459.093" r="4" fill="#0" id="circle126"/>
	<circle cx="748.852" cy="310.804" r="4" fill="#0" id="circle127"/>
	<circle cx="750.557" cy="469.32" r="4" fill="#0" id="circle128"/>
	<circle cx="753.966" cy="486.364" r="4" fill="#0" id="circle129"/>
	<circle cx="753.966" cy="503.409" r="4" fill="#0" id="circle130"/>
	<circle cx="757.375" cy="520.454" r="4" fill="#0" id="circle131"/>
	<circle cx="764.192" cy="300.577" r="4" fill="#0" id="circle132"/>
	<circle cx="771.01" cy="530.68" r="4" fill="#0" id="circle133"/>
	<circle cx="777.828" cy="290.351" r="4" fill="#0" id="circle134"/>
	<circle cx="779.533" cy="498.296" r="4" fill="#0" id="circle135"/>
	<circle cx="779.533" cy="515.34" r="4" fill="#0" id="circle136"/>
	<circle cx="781.237" cy="469.32" r="4" fill="#0" id="circle137"/>
	<circle cx="791.464" cy="280.124" r="4" fill="#0" id="circle138"/>
	<circle cx="796.577" cy="477.842" r="4" fill="#0" id="circle139"/>
	<circle cx="808.509" cy="276.715" r="4" fill="#0" id="circle140"/>
	<circle cx="813.622" cy="474.433" r="4" fill="#0" id="circle141"/>
	<circle cx="825.553" cy="273.306" r="4" fill="#0" id="circle142"/>
	<circle cx="830.667" cy="469.32" r="4" fill="#0" id="circle143"/>
	<circle cx="835.78" cy="256.261" r="4" fill="#0" id="circle144"/>
	<circle cx="842.598" cy="482.955" r="4" fill="#0" id="circle145"/>
	<circle cx="849.416" cy="242.625" r="4" fill="#0" id="circle146"/>
	<circle cx="856.234" cy="494.887" r="4" fill="#0" id="circle147"/>
	<circle cx="863.052" cy="228.99" r="4" fill="#0" id="circle148"/>
	<circle cx="873.278" cy="500" r="4" fill="#0" id="circle149"/>
	<circle cx="880.096" cy="228.99" r="4" fill="#0" id="circle150"/>
	<circle cx="890.323" cy="242.625" r="4" fill="#0" id="circle151"/>
	<circle cx="890.323" cy="493.182" r="4" fill="#0" id="circle152"/>
	<circle cx="900.55" cy="256.261" r="4" fill="#0" id="circle153"/>
	<circle cx="903.959" cy="479.546" r="4" fill="#0" id="circle154"/>
	<circle cx="910.777" cy="269.897" r="4" fill="#0" id="circle155"/>
	<circle cx="917.595" cy="465.911" r="4" fill="#0" id="circle156"/>
	<circle cx="927.821" cy="275.01" r="4" fill="#0" id="circle157"/>
	<circle cx="931.23" cy="476.137" r="4" fill="#0" id="circle158"/>
	<circle cx="944.866" cy="280.124" r="4" fill="#0" id="circle159"/>
	<circle cx="948.275" cy="476.137" r="4" fill="#0" id="circle160"/>
	<circle cx="961.911" cy="286.942" r="4" fill="#0" id="circle161"/>
	<circle cx="965.32" cy="471.024" r="4" fill="#0" id="circle162"/>
	<circle cx="968.729" cy="488.069" r="4" fill="#0" id="circle163"/>
	<circle cx="968.729" cy="505.113" r="4" fill="#0" id="circle164"/>
	<circle cx="968.729" cy="522.158" r="4" fill="#0" id="circle165"/>
	<circle cx="975.546" cy="298.873" r="4" fill="#0" id="circle166"/>
	<circle cx="984.069" cy="402.845" r="4" fill="#0" id="circle167"/>
	<circle cx="984.069" cy="419.89" r="4" fill="#0" id="circle168"/>
	<circle cx="984.069" cy="436.935" r="4" fill="#0" id="circle169"/>
	<circle cx="984.069" cy="453.979" r="4" fill="#0" id="circle170"/>
	<circle cx="984.069" cy="530.68" r="4" fill="#0" id="circle171"/>
	<circle cx="987.478" cy="312.509" r="4" fill="#0" id="circle172"/>
	<circle cx="987.478" cy="361.938" r="4" fill="#0" id="circle173"/>
	<circle cx="987.478" cy="378.983" r="4" fill="#0" id="circle174"/>
	<circle cx="987.478" cy="505.113" r="4" fill="#0" id="circle175"/>
	<circle cx="989.182" cy="471.024" r="4" fill="#0" id="circle176"/>
	<circle cx="994.296" cy="488.069" r="4" fill="#0" id="circle177"/>
	<circle cx="996" cy="327.849" r="4" fill="#0" id="circle178"/>
	<circle cx="996" cy="346.598" r="4" fill="#0" id="circle179"/>
	</g>
</svg>