<?xml version="1.0" encoding="UTF-8" standalone="no"?>
<!-- Created with CurveBenchmark -->
<svg
	xmlns:dc="http://purl.org/dc/elements/1.1/"
	xmlns:cc="http://creativecommons.org/ns#"
	xmlns:rdf="http://www.w3.org/1999/02/22-rdf-syntax-ns#"
	xmlns:svg="http://www.w3.org/2000/svg"
	xmlns="http://www.w3.org/2000/svg"
	xmlns:sodipodi="http://sodipodi.sourceforge.net/DTD/sodipodi-0.dtd"
	xmlns:inkscape="http://www.inkscape.org/namespaces/inkscape"
	width="1000"
	height="1000"
	id="svg2"
	version="1.1"
	sodipodi:docname="manifold/fitconnect-brick-19.png.txt">
<defs
	id="defs4" />
<metadata
	id="metadata7">
	<rdf:RDF>
		<cc:Work
			rdf:about="">
			<dc:format>image/svg+xml</dc:format>
			<dc:type
				rdf:resource="http://purl.org/dc/dcmitype/StillImage" />
			<dc:title></dc:title>
		</cc:Work>
	</rdf:RDF>
</metadata>
<g
	inkscape:label="Layer 1"
	inkscape:groupmode="layer"
	id="layer1">
	<path style="fill:none;stroke:red;stroke-width:1px;stroke-linecap:butt;stroke-linejoin:miter;stroke-opacity:1" d="M 4,284.82 4,293.514 z" id="boundary" inkscape:connector-curvature="0" />
	<path style="fill:none;stroke:red;stroke-width:1px;stroke-linecap:butt;stroke-linejoin:miter;stroke-opacity:1" d="M 4,284.82 8.34706,276.126 z" id="boundary" inkscape:connector-curvature="0" />
	<path style="fill:none;stroke:red;stroke-width:1px;stroke-linecap:butt;stroke-linejoin:miter;stroke-opacity:1" d="M 4,293.514 4,302.209 z" id="boundary" inkscape:connector-curvature="0" />
	<path style="fill:none;stroke:red;stroke-width:1px;stroke-linecap:butt;stroke-linejoin:miter;stroke-opacity:1" d="M 4,302.209 8.34706,310.033 z" id="boundary" inkscape:connector-curvature="0" />
	<path style="fill:none;stroke:red;stroke-width:1px;stroke-linecap:butt;stroke-linejoin:miter;stroke-opacity:1" d="M 8.34706,276.126 15.3024,269.171 z" id="boundary" inkscape:connector-curvature="0" />
	<path style="fill:none;stroke:red;stroke-width:1px;stroke-linecap:butt;stroke-linejoin:miter;stroke-opacity:1" d="M 8.34706,310.033 8.34706,318.727 z" id="boundary" inkscape:connector-curvature="0" />
	<path style="fill:none;stroke:red;stroke-width:1px;stroke-linecap:butt;stroke-linejoin:miter;stroke-opacity:1" d="M 8.34706,318.727 8.34706,327.422 z" id="boundary" inkscape:connector-curvature="0" />
	<path style="fill:none;stroke:red;stroke-width:1px;stroke-linecap:butt;stroke-linejoin:miter;stroke-opacity:1" d="M 8.34706,327.422 12.6941,335.246 z" id="boundary" inkscape:connector-curvature="0" />
	<path style="fill:none;stroke:red;stroke-width:1px;stroke-linecap:butt;stroke-linejoin:miter;stroke-opacity:1" d="M 12.6941,335.246 15.3024,343.94 z" id="boundary" inkscape:connector-curvature="0" />
	<path style="fill:none;stroke:red;stroke-width:1px;stroke-linecap:butt;stroke-linejoin:miter;stroke-opacity:1" d="M 15.3024,269.171 19.6494,260.477 z" id="boundary" inkscape:connector-curvature="0" />
	<path style="fill:none;stroke:red;stroke-width:1px;stroke-linecap:butt;stroke-linejoin:miter;stroke-opacity:1" d="M 15.3024,343.94 17.0412,352.635 z" id="boundary" inkscape:connector-curvature="0" />
	<path style="fill:none;stroke:red;stroke-width:1px;stroke-linecap:butt;stroke-linejoin:miter;stroke-opacity:1" d="M 17.0412,352.635 17.0412,361.329 z" id="boundary" inkscape:connector-curvature="0" />
	<path style="fill:none;stroke:red;stroke-width:1px;stroke-linecap:butt;stroke-linejoin:miter;stroke-opacity:1" d="M 17.0412,361.329 17.0412,370.023 z" id="boundary" inkscape:connector-curvature="0" />
	<path style="fill:none;stroke:red;stroke-width:1px;stroke-linecap:butt;stroke-linejoin:miter;stroke-opacity:1" d="M 17.0412,370.023 19.6494,378.717 z" id="boundary" inkscape:connector-curvature="0" />
	<path style="fill:none;stroke:red;stroke-width:1px;stroke-linecap:butt;stroke-linejoin:miter;stroke-opacity:1" d="M 19.6494,260.477 27.4741,256.13 z" id="boundary" inkscape:connector-curvature="0" />
	<path style="fill:none;stroke:red;stroke-width:1px;stroke-linecap:butt;stroke-linejoin:miter;stroke-opacity:1" d="M 19.6494,378.717 26.6047,384.803 z" id="boundary" inkscape:connector-curvature="0" />
	<path style="fill:none;stroke:red;stroke-width:1px;stroke-linecap:butt;stroke-linejoin:miter;stroke-opacity:1" d="M 26.6047,384.803 35.2989,387.411 z" id="boundary" inkscape:connector-curvature="0" />
	<path style="fill:none;stroke:red;stroke-width:1px;stroke-linecap:butt;stroke-linejoin:miter;stroke-opacity:1" d="M 27.4741,256.13 34.4294,250.044 z" id="boundary" inkscape:connector-curvature="0" />
	<path style="fill:none;stroke:red;stroke-width:1px;stroke-linecap:butt;stroke-linejoin:miter;stroke-opacity:1" d="M 34.4294,250.044 41.3848,243.089 z" id="boundary" inkscape:connector-curvature="0" />
	<path style="fill:none;stroke:red;stroke-width:1px;stroke-linecap:butt;stroke-linejoin:miter;stroke-opacity:1" d="M 35.2989,387.411 43.1236,383.064 z" id="boundary" inkscape:connector-curvature="0" />
	<path style="fill:none;stroke:red;stroke-width:1px;stroke-linecap:butt;stroke-linejoin:miter;stroke-opacity:1" d="M 41.3848,243.089 47.4706,228.309 z" id="boundary" inkscape:connector-curvature="0" />
	<path style="fill:none;stroke:red;stroke-width:1px;stroke-linecap:butt;stroke-linejoin:miter;stroke-opacity:1" d="M 43.1236,383.064 51.8177,383.064 z" id="boundary" inkscape:connector-curvature="0" />
	<path style="fill:none;stroke:red;stroke-width:1px;stroke-linecap:butt;stroke-linejoin:miter;stroke-opacity:1" d="M 47.4706,228.309 51.8177,219.614 z" id="boundary" inkscape:connector-curvature="0" />
	<path style="fill:none;stroke:red;stroke-width:1px;stroke-linecap:butt;stroke-linejoin:miter;stroke-opacity:1" d="M 51.8177,219.614 56.1648,210.92 z" id="boundary" inkscape:connector-curvature="0" />
	<path style="fill:none;stroke:red;stroke-width:1px;stroke-linecap:butt;stroke-linejoin:miter;stroke-opacity:1" d="M 51.8177,383.064 60.5118,383.064 z" id="boundary" inkscape:connector-curvature="0" />
	<path style="fill:none;stroke:red;stroke-width:1px;stroke-linecap:butt;stroke-linejoin:miter;stroke-opacity:1" d="M 56.1648,210.92 60.5118,202.226 z" id="boundary" inkscape:connector-curvature="0" />
	<path style="fill:none;stroke:red;stroke-width:1px;stroke-linecap:butt;stroke-linejoin:miter;stroke-opacity:1" d="M 60.5118,202.226 67.4671,195.271 z" id="boundary" inkscape:connector-curvature="0" />
	<path style="fill:none;stroke:red;stroke-width:1px;stroke-linecap:butt;stroke-linejoin:miter;stroke-opacity:1" d="M 60.5118,383.064 69.206,383.064 z" id="boundary" inkscape:connector-curvature="0" />
	<path style="fill:none;stroke:red;stroke-width:1px;stroke-linecap:butt;stroke-linejoin:miter;stroke-opacity:1" d="M 67.4671,195.271 74.4224,188.316 z" id="boundary" inkscape:connector-curvature="0" />
	<path style="fill:none;stroke:red;stroke-width:1px;stroke-linecap:butt;stroke-linejoin:miter;stroke-opacity:1" d="M 69.206,383.064 77.9001,380.456 z" id="boundary" inkscape:connector-curvature="0" />
	<path style="fill:none;stroke:red;stroke-width:1px;stroke-linecap:butt;stroke-linejoin:miter;stroke-opacity:1" d="M 74.4224,188.316 81.3777,182.23 z" id="boundary" inkscape:connector-curvature="0" />
	<path style="fill:none;stroke:red;stroke-width:1px;stroke-linecap:butt;stroke-linejoin:miter;stroke-opacity:1" d="M 77.9001,380.456 86.5942,378.717 z" id="boundary" inkscape:connector-curvature="0" />
	<path style="fill:none;stroke:red;stroke-width:1px;stroke-linecap:butt;stroke-linejoin:miter;stroke-opacity:1" d="M 81.3777,182.23 87.4636,175.274 z" id="boundary" inkscape:connector-curvature="0" />
	<path style="fill:none;stroke:red;stroke-width:1px;stroke-linecap:butt;stroke-linejoin:miter;stroke-opacity:1" d="M 82.2472,19.6494 82.2472,28.3436 z" id="boundary" inkscape:connector-curvature="0" />
	<path style="fill:none;stroke:red;stroke-width:1px;stroke-linecap:butt;stroke-linejoin:miter;stroke-opacity:1" d="M 82.2472,19.6494 89.2025,12.6941 z" id="boundary" inkscape:connector-curvature="0" />
	<path style="fill:none;stroke:red;stroke-width:1px;stroke-linecap:butt;stroke-linejoin:miter;stroke-opacity:1" d="M 82.2472,28.3436 86.5942,36.1683 z" id="boundary" inkscape:connector-curvature="0" />
	<path style="fill:none;stroke:red;stroke-width:1px;stroke-linecap:butt;stroke-linejoin:miter;stroke-opacity:1" d="M 86.5942,36.1683 86.5942,44.8624 z" id="boundary" inkscape:connector-curvature="0" />
	<path style="fill:none;stroke:red;stroke-width:1px;stroke-linecap:butt;stroke-linejoin:miter;stroke-opacity:1" d="M 86.5942,44.8624 90.9413,52.6871 z" id="boundary" inkscape:connector-curvature="0" />
	<path style="fill:none;stroke:red;stroke-width:1px;stroke-linecap:butt;stroke-linejoin:miter;stroke-opacity:1" d="M 86.5942,378.717 95.2883,378.717 z" id="boundary" inkscape:connector-curvature="0" />
	<path style="fill:none;stroke:red;stroke-width:1px;stroke-linecap:butt;stroke-linejoin:miter;stroke-opacity:1" d="M 87.4636,175.274 94.4189,169.188 z" id="boundary" inkscape:connector-curvature="0" />
	<path style="fill:none;stroke:red;stroke-width:1px;stroke-linecap:butt;stroke-linejoin:miter;stroke-opacity:1" d="M 89.2025,12.6941 97.8966,12.6941 z" id="boundary" inkscape:connector-curvature="0" />
	<path style="fill:none;stroke:red;stroke-width:1px;stroke-linecap:butt;stroke-linejoin:miter;stroke-opacity:1" d="M 90.9413,52.6871 95.2883,60.5118 z" id="boundary" inkscape:connector-curvature="0" />
	<path style="fill:none;stroke:red;stroke-width:1px;stroke-linecap:butt;stroke-linejoin:miter;stroke-opacity:1" d="M 94.4189,169.188 100.505,162.233 z" id="boundary" inkscape:connector-curvature="0" />
	<path style="fill:none;stroke:red;stroke-width:1px;stroke-linecap:butt;stroke-linejoin:miter;stroke-opacity:1" d="M 95.2883,60.5118 97.0272,69.206 z" id="boundary" inkscape:connector-curvature="0" />
	<path style="fill:none;stroke:red;stroke-width:1px;stroke-linecap:butt;stroke-linejoin:miter;stroke-opacity:1" d="M 95.2883,378.717 103.982,378.717 z" id="boundary" inkscape:connector-curvature="0" />
	<path style="fill:none;stroke:red;stroke-width:1px;stroke-linecap:butt;stroke-linejoin:miter;stroke-opacity:1" d="M 97.0272,69.206 99.6354,77.9001 z" id="boundary" inkscape:connector-curvature="0" />
	<path style="fill:none;stroke:red;stroke-width:1px;stroke-linecap:butt;stroke-linejoin:miter;stroke-opacity:1" d="M 97.8966,12.6941 106.591,12.6941 z" id="boundary" inkscape:connector-curvature="0" />
	<path style="fill:none;stroke:red;stroke-width:1px;stroke-linecap:butt;stroke-linejoin:miter;stroke-opacity:1" d="M 99.6354,77.9001 103.982,85.7248 z" id="boundary" inkscape:connector-curvature="0" />
	<path style="fill:none;stroke:red;stroke-width:1px;stroke-linecap:butt;stroke-linejoin:miter;stroke-opacity:1" d="M 100.505,162.233 107.46,156.147 z" id="boundary" inkscape:connector-curvature="0" />
	<path style="fill:none;stroke:red;stroke-width:1px;stroke-linecap:butt;stroke-linejoin:miter;stroke-opacity:1" d="M 103.982,85.7248 103.982,94.4189 z" id="boundary" inkscape:connector-curvature="0" />
	<path style="fill:none;stroke:red;stroke-width:1px;stroke-linecap:butt;stroke-linejoin:miter;stroke-opacity:1" d="M 103.982,94.4189 103.982,103.113 z" id="boundary" inkscape:connector-curvature="0" />
	<path style="fill:none;stroke:red;stroke-width:1px;stroke-linecap:butt;stroke-linejoin:miter;stroke-opacity:1" d="M 103.982,103.113 103.982,111.807 z" id="boundary" inkscape:connector-curvature="0" />
	<path style="fill:none;stroke:red;stroke-width:1px;stroke-linecap:butt;stroke-linejoin:miter;stroke-opacity:1" d="M 103.982,111.807 103.982,120.501 z" id="boundary" inkscape:connector-curvature="0" />
	<path style="fill:none;stroke:red;stroke-width:1px;stroke-linecap:butt;stroke-linejoin:miter;stroke-opacity:1" d="M 103.982,120.501 108.33,128.326 z" id="boundary" inkscape:connector-curvature="0" />
	<path style="fill:none;stroke:red;stroke-width:1px;stroke-linecap:butt;stroke-linejoin:miter;stroke-opacity:1" d="M 103.982,378.717 112.677,378.717 z" id="boundary" inkscape:connector-curvature="0" />
	<path style="fill:none;stroke:red;stroke-width:1px;stroke-linecap:butt;stroke-linejoin:miter;stroke-opacity:1" d="M 106.591,12.6941 115.285,12.6941 z" id="boundary" inkscape:connector-curvature="0" />
	<path style="fill:none;stroke:red;stroke-width:1px;stroke-linecap:butt;stroke-linejoin:miter;stroke-opacity:1" d="M 107.46,156.147 112.677,144.845 z" id="boundary" inkscape:connector-curvature="0" />
	<path style="fill:none;stroke:red;stroke-width:1px;stroke-linecap:butt;stroke-linejoin:miter;stroke-opacity:1" d="M 108.33,128.326 108.33,137.02 z" id="boundary" inkscape:connector-curvature="0" />
	<path style="fill:none;stroke:red;stroke-width:1px;stroke-linecap:butt;stroke-linejoin:miter;stroke-opacity:1" d="M 108.33,137.02 112.677,144.845 z" id="boundary" inkscape:connector-curvature="0" />
	<path style="fill:none;stroke:red;stroke-width:1px;stroke-linecap:butt;stroke-linejoin:miter;stroke-opacity:1" d="M 112.677,378.717 121.371,378.717 z" id="boundary" inkscape:connector-curvature="0" />
	<path style="fill:none;stroke:red;stroke-width:1px;stroke-linecap:butt;stroke-linejoin:miter;stroke-opacity:1" d="M 115.285,12.6941 123.979,12.6941 z" id="boundary" inkscape:connector-curvature="0" />
	<path style="fill:none;stroke:red;stroke-width:1px;stroke-linecap:butt;stroke-linejoin:miter;stroke-opacity:1" d="M 121.371,378.717 130.065,378.717 z" id="boundary" inkscape:connector-curvature="0" />
	<path style="fill:none;stroke:red;stroke-width:1px;stroke-linecap:butt;stroke-linejoin:miter;stroke-opacity:1" d="M 123.979,12.6941 131.804,8.34706 z" id="boundary" inkscape:connector-curvature="0" />
	<path style="fill:none;stroke:red;stroke-width:1px;stroke-linecap:butt;stroke-linejoin:miter;stroke-opacity:1" d="M 130.065,378.717 138.759,376.109 z" id="boundary" inkscape:connector-curvature="0" />
	<path style="fill:none;stroke:red;stroke-width:1px;stroke-linecap:butt;stroke-linejoin:miter;stroke-opacity:1" d="M 131.804,8.34706 140.498,8.34706 z" id="boundary" inkscape:connector-curvature="0" />
	<path style="fill:none;stroke:red;stroke-width:1px;stroke-linecap:butt;stroke-linejoin:miter;stroke-opacity:1" d="M 138.759,376.109 147.453,374.37 z" id="boundary" inkscape:connector-curvature="0" />
	<path style="fill:none;stroke:red;stroke-width:1px;stroke-linecap:butt;stroke-linejoin:miter;stroke-opacity:1" d="M 140.498,8.34706 148.323,4 z" id="boundary" inkscape:connector-curvature="0" />
	<path style="fill:none;stroke:red;stroke-width:1px;stroke-linecap:butt;stroke-linejoin:miter;stroke-opacity:1" d="M 147.453,374.37 156.147,374.37 z" id="boundary" inkscape:connector-curvature="0" />
	<path style="fill:none;stroke:red;stroke-width:1px;stroke-linecap:butt;stroke-linejoin:miter;stroke-opacity:1" d="M 148.323,4 157.017,4 z" id="boundary" inkscape:connector-curvature="0" />
	<path style="fill:none;stroke:red;stroke-width:1px;stroke-linecap:butt;stroke-linejoin:miter;stroke-opacity:1" d="M 156.147,374.37 164.841,374.37 z" id="boundary" inkscape:connector-curvature="0" />
	<path style="fill:none;stroke:red;stroke-width:1px;stroke-linecap:butt;stroke-linejoin:miter;stroke-opacity:1" d="M 157.017,4 165.711,4 z" id="boundary" inkscape:connector-curvature="0" />
	<path style="fill:none;stroke:red;stroke-width:1px;stroke-linecap:butt;stroke-linejoin:miter;stroke-opacity:1" d="M 164.841,374.37 172.666,370.023 z" id="boundary" inkscape:connector-curvature="0" />
	<path style="fill:none;stroke:red;stroke-width:1px;stroke-linecap:butt;stroke-linejoin:miter;stroke-opacity:1" d="M 165.711,4 174.405,4 z" id="boundary" inkscape:connector-curvature="0" />
	<path style="fill:none;stroke:red;stroke-width:1px;stroke-linecap:butt;stroke-linejoin:miter;stroke-opacity:1" d="M 172.666,370.023 181.36,370.023 z" id="boundary" inkscape:connector-curvature="0" />
	<path style="fill:none;stroke:red;stroke-width:1px;stroke-linecap:butt;stroke-linejoin:miter;stroke-opacity:1" d="M 174.405,4 183.099,4 z" id="boundary" inkscape:connector-curvature="0" />
	<path style="fill:none;stroke:red;stroke-width:1px;stroke-linecap:butt;stroke-linejoin:miter;stroke-opacity:1" d="M 181.36,370.023 190.054,370.023 z" id="boundary" inkscape:connector-curvature="0" />
	<path style="fill:none;stroke:red;stroke-width:1px;stroke-linecap:butt;stroke-linejoin:miter;stroke-opacity:1" d="M 183.099,4 191.793,4 z" id="boundary" inkscape:connector-curvature="0" />
	<path style="fill:none;stroke:red;stroke-width:1px;stroke-linecap:butt;stroke-linejoin:miter;stroke-opacity:1" d="M 190.054,370.023 197.879,365.676 z" id="boundary" inkscape:connector-curvature="0" />
	<path style="fill:none;stroke:red;stroke-width:1px;stroke-linecap:butt;stroke-linejoin:miter;stroke-opacity:1" d="M 191.793,4 200.487,4 z" id="boundary" inkscape:connector-curvature="0" />
	<path style="fill:none;stroke:red;stroke-width:1px;stroke-linecap:butt;stroke-linejoin:miter;stroke-opacity:1" d="M 197.879,365.676 206.573,365.676 z" id="boundary" inkscape:connector-curvature="0" />
	<path style="fill:none;stroke:red;stroke-width:1px;stroke-linecap:butt;stroke-linejoin:miter;stroke-opacity:1" d="M 200.487,4 209.181,4 z" id="boundary" inkscape:connector-curvature="0" />
	<path style="fill:none;stroke:red;stroke-width:1px;stroke-linecap:butt;stroke-linejoin:miter;stroke-opacity:1" d="M 206.573,365.676 215.267,365.676 z" id="boundary" inkscape:connector-curvature="0" />
	<path style="fill:none;stroke:red;stroke-width:1px;stroke-linecap:butt;stroke-linejoin:miter;stroke-opacity:1" d="M 209.181,4 217.876,4 z" id="boundary" inkscape:connector-curvature="0" />
	<path style="fill:none;stroke:red;stroke-width:1px;stroke-linecap:butt;stroke-linejoin:miter;stroke-opacity:1" d="M 215.267,365.676 223.961,365.676 z" id="boundary" inkscape:connector-curvature="0" />
	<path style="fill:none;stroke:red;stroke-width:1px;stroke-linecap:butt;stroke-linejoin:miter;stroke-opacity:1" d="M 217.876,4 226.57,4 z" id="boundary" inkscape:connector-curvature="0" />
	<path style="fill:none;stroke:red;stroke-width:1px;stroke-linecap:butt;stroke-linejoin:miter;stroke-opacity:1" d="M 223.961,365.676 232.656,365.676 z" id="boundary" inkscape:connector-curvature="0" />
	<path style="fill:none;stroke:red;stroke-width:1px;stroke-linecap:butt;stroke-linejoin:miter;stroke-opacity:1" d="M 226.57,4 235.264,6.60824 z" id="boundary" inkscape:connector-curvature="0" />
	<path style="fill:none;stroke:red;stroke-width:1px;stroke-linecap:butt;stroke-linejoin:miter;stroke-opacity:1" d="M 232.656,365.676 241.35,369.153 z" id="boundary" inkscape:connector-curvature="0" />
	<path style="fill:none;stroke:red;stroke-width:1px;stroke-linecap:butt;stroke-linejoin:miter;stroke-opacity:1" d="M 235.264,6.60824 243.089,10.9553 z" id="boundary" inkscape:connector-curvature="0" />
	<path style="fill:none;stroke:red;stroke-width:1px;stroke-linecap:butt;stroke-linejoin:miter;stroke-opacity:1" d="M 241.35,369.153 248.305,374.37 z" id="boundary" inkscape:connector-curvature="0" />
	<path style="fill:none;stroke:red;stroke-width:1px;stroke-linecap:butt;stroke-linejoin:miter;stroke-opacity:1" d="M 243.089,10.9553 250.044,17.0412 z" id="boundary" inkscape:connector-curvature="0" />
	<path style="fill:none;stroke:red;stroke-width:1px;stroke-linecap:butt;stroke-linejoin:miter;stroke-opacity:1" d="M 248.305,374.37 256.13,378.717 z" id="boundary" inkscape:connector-curvature="0" />
	<path style="fill:none;stroke:red;stroke-width:1px;stroke-linecap:butt;stroke-linejoin:miter;stroke-opacity:1" d="M 250.044,17.0412 257.869,21.3883 z" id="boundary" inkscape:connector-curvature="0" />
	<path style="fill:none;stroke:red;stroke-width:1px;stroke-linecap:butt;stroke-linejoin:miter;stroke-opacity:1" d="M 256.13,378.717 263.954,383.064 z" id="boundary" inkscape:connector-curvature="0" />
	<path style="fill:none;stroke:red;stroke-width:1px;stroke-linecap:butt;stroke-linejoin:miter;stroke-opacity:1" d="M 257.869,21.3883 264.824,27.4741 z" id="boundary" inkscape:connector-curvature="0" />
	<path style="fill:none;stroke:red;stroke-width:1px;stroke-linecap:butt;stroke-linejoin:miter;stroke-opacity:1" d="M 263.954,383.064 270.04,390.019 z" id="boundary" inkscape:connector-curvature="0" />
	<path style="fill:none;stroke:red;stroke-width:1px;stroke-linecap:butt;stroke-linejoin:miter;stroke-opacity:1" d="M 264.824,27.4741 272.649,31.8212 z" id="boundary" inkscape:connector-curvature="0" />
	<path style="fill:none;stroke:red;stroke-width:1px;stroke-linecap:butt;stroke-linejoin:miter;stroke-opacity:1" d="M 270.04,390.019 278.734,393.497 z" id="boundary" inkscape:connector-curvature="0" />
	<path style="fill:none;stroke:red;stroke-width:1px;stroke-linecap:butt;stroke-linejoin:miter;stroke-opacity:1" d="M 272.649,31.8212 278.734,38.7765 z" id="boundary" inkscape:connector-curvature="0" />
	<path style="fill:none;stroke:red;stroke-width:1px;stroke-linecap:butt;stroke-linejoin:miter;stroke-opacity:1" d="M 278.734,38.7765 283.082,46.6012 z" id="boundary" inkscape:connector-curvature="0" />
	<path style="fill:none;stroke:red;stroke-width:1px;stroke-linecap:butt;stroke-linejoin:miter;stroke-opacity:1" d="M 278.734,393.497 286.559,397.844 z" id="boundary" inkscape:connector-curvature="0" />
	<path style="fill:none;stroke:red;stroke-width:1px;stroke-linecap:butt;stroke-linejoin:miter;stroke-opacity:1" d="M 283.082,46.6012 291.776,47.4706 z" id="boundary" inkscape:connector-curvature="0" />
	<path style="fill:none;stroke:red;stroke-width:1px;stroke-linecap:butt;stroke-linejoin:miter;stroke-opacity:1" d="M 286.559,397.844 295.253,400.452 z" id="boundary" inkscape:connector-curvature="0" />
	<path style="fill:none;stroke:red;stroke-width:1px;stroke-linecap:butt;stroke-linejoin:miter;stroke-opacity:1" d="M 291.776,47.4706 299.6,51.8177 z" id="boundary" inkscape:connector-curvature="0" />
	<path style="fill:none;stroke:red;stroke-width:1px;stroke-linecap:butt;stroke-linejoin:miter;stroke-opacity:1" d="M 295.253,400.452 303.947,400.452 z" id="boundary" inkscape:connector-curvature="0" />
	<path style="fill:none;stroke:red;stroke-width:1px;stroke-linecap:butt;stroke-linejoin:miter;stroke-opacity:1" d="M 299.6,51.8177 307.425,56.1648 z" id="boundary" inkscape:connector-curvature="0" />
	<path style="fill:none;stroke:red;stroke-width:1px;stroke-linecap:butt;stroke-linejoin:miter;stroke-opacity:1" d="M 303.947,400.452 311.772,404.799 z" id="boundary" inkscape:connector-curvature="0" />
	<path style="fill:none;stroke:red;stroke-width:1px;stroke-linecap:butt;stroke-linejoin:miter;stroke-opacity:1" d="M 307.425,56.1648 315.25,60.5118 z" id="boundary" inkscape:connector-curvature="0" />
	<path style="fill:none;stroke:red;stroke-width:1px;stroke-linecap:butt;stroke-linejoin:miter;stroke-opacity:1" d="M 311.772,404.799 319.597,409.146 z" id="boundary" inkscape:connector-curvature="0" />
	<path style="fill:none;stroke:red;stroke-width:1px;stroke-linecap:butt;stroke-linejoin:miter;stroke-opacity:1" d="M 315.25,60.5118 323.944,60.5118 z" id="boundary" inkscape:connector-curvature="0" />
	<path style="fill:none;stroke:red;stroke-width:1px;stroke-linecap:butt;stroke-linejoin:miter;stroke-opacity:1" d="M 319.597,409.146 327.422,413.493 z" id="boundary" inkscape:connector-curvature="0" />
	<path style="fill:none;stroke:red;stroke-width:1px;stroke-linecap:butt;stroke-linejoin:miter;stroke-opacity:1" d="M 323.944,60.5118 331.769,64.8589 z" id="boundary" inkscape:connector-curvature="0" />
	<path style="fill:none;stroke:red;stroke-width:1px;stroke-linecap:butt;stroke-linejoin:miter;stroke-opacity:1" d="M 327.422,413.493 335.246,417.84 z" id="boundary" inkscape:connector-curvature="0" />
	<path style="fill:none;stroke:red;stroke-width:1px;stroke-linecap:butt;stroke-linejoin:miter;stroke-opacity:1" d="M 331.769,64.8589 338.724,70.9448 z" id="boundary" inkscape:connector-curvature="0" />
	<path style="fill:none;stroke:red;stroke-width:1px;stroke-linecap:butt;stroke-linejoin:miter;stroke-opacity:1" d="M 335.246,417.84 343.071,422.188 z" id="boundary" inkscape:connector-curvature="0" />
	<path style="fill:none;stroke:red;stroke-width:1px;stroke-linecap:butt;stroke-linejoin:miter;stroke-opacity:1" d="M 338.724,70.9448 343.94,77.9001 z" id="boundary" inkscape:connector-curvature="0" />
	<path style="fill:none;stroke:red;stroke-width:1px;stroke-linecap:butt;stroke-linejoin:miter;stroke-opacity:1" d="M 343.071,422.188 350.896,426.535 z" id="boundary" inkscape:connector-curvature="0" />
	<path style="fill:none;stroke:red;stroke-width:1px;stroke-linecap:butt;stroke-linejoin:miter;stroke-opacity:1" d="M 343.94,77.9001 351.765,82.2472 z" id="boundary" inkscape:connector-curvature="0" />
	<path style="fill:none;stroke:red;stroke-width:1px;stroke-linecap:butt;stroke-linejoin:miter;stroke-opacity:1" d="M 350.896,426.535 358.72,430.882 z" id="boundary" inkscape:connector-curvature="0" />
	<path style="fill:none;stroke:red;stroke-width:1px;stroke-linecap:butt;stroke-linejoin:miter;stroke-opacity:1" d="M 351.765,82.2472 358.72,87.4636 z" id="boundary" inkscape:connector-curvature="0" />
	<path style="fill:none;stroke:red;stroke-width:1px;stroke-linecap:butt;stroke-linejoin:miter;stroke-opacity:1" d="M 358.72,87.4636 367.415,90.9413 z" id="boundary" inkscape:connector-curvature="0" />
	<path style="fill:none;stroke:red;stroke-width:1px;stroke-linecap:butt;stroke-linejoin:miter;stroke-opacity:1" d="M 358.72,430.882 366.545,435.229 z" id="boundary" inkscape:connector-curvature="0" />
	<path style="fill:none;stroke:red;stroke-width:1px;stroke-linecap:butt;stroke-linejoin:miter;stroke-opacity:1" d="M 366.545,435.229 374.37,439.576 z" id="boundary" inkscape:connector-curvature="0" />
	<path style="fill:none;stroke:red;stroke-width:1px;stroke-linecap:butt;stroke-linejoin:miter;stroke-opacity:1" d="M 367.415,90.9413 376.109,90.9413 z" id="boundary" inkscape:connector-curvature="0" />
	<path style="fill:none;stroke:red;stroke-width:1px;stroke-linecap:butt;stroke-linejoin:miter;stroke-opacity:1" d="M 374.37,439.576 383.064,439.576 z" id="boundary" inkscape:connector-curvature="0" />
	<path style="fill:none;stroke:red;stroke-width:1px;stroke-linecap:butt;stroke-linejoin:miter;stroke-opacity:1" d="M 376.109,90.9413 384.803,90.9413 z" id="boundary" inkscape:connector-curvature="0" />
	<path style="fill:none;stroke:red;stroke-width:1px;stroke-linecap:butt;stroke-linejoin:miter;stroke-opacity:1" d="M 383.064,439.576 391.758,435.229 z" id="boundary" inkscape:connector-curvature="0" />
	<path style="fill:none;stroke:red;stroke-width:1px;stroke-linecap:butt;stroke-linejoin:miter;stroke-opacity:1" d="M 384.803,90.9413 393.497,86.5942 z" id="boundary" inkscape:connector-curvature="0" />
	<path style="fill:none;stroke:red;stroke-width:1px;stroke-linecap:butt;stroke-linejoin:miter;stroke-opacity:1" d="M 391.758,435.229 400.452,435.229 z" id="boundary" inkscape:connector-curvature="0" />
	<path style="fill:none;stroke:red;stroke-width:1px;stroke-linecap:butt;stroke-linejoin:miter;stroke-opacity:1" d="M 393.497,86.5942 402.191,86.5942 z" id="boundary" inkscape:connector-curvature="0" />
	<path style="fill:none;stroke:red;stroke-width:1px;stroke-linecap:butt;stroke-linejoin:miter;stroke-opacity:1" d="M 400.452,435.229 408.277,430.882 z" id="boundary" inkscape:connector-curvature="0" />
	<path style="fill:none;stroke:red;stroke-width:1px;stroke-linecap:butt;stroke-linejoin:miter;stroke-opacity:1" d="M 402.191,86.5942 410.885,86.5942 z" id="boundary" inkscape:connector-curvature="0" />
	<path style="fill:none;stroke:red;stroke-width:1px;stroke-linecap:butt;stroke-linejoin:miter;stroke-opacity:1" d="M 408.277,430.882 416.971,428.273 z" id="boundary" inkscape:connector-curvature="0" />
	<path style="fill:none;stroke:red;stroke-width:1px;stroke-linecap:butt;stroke-linejoin:miter;stroke-opacity:1" d="M 410.885,86.5942 418.71,82.2472 z" id="boundary" inkscape:connector-curvature="0" />
	<path style="fill:none;stroke:red;stroke-width:1px;stroke-linecap:butt;stroke-linejoin:miter;stroke-opacity:1" d="M 416.971,428.273 425.665,426.535 z" id="boundary" inkscape:connector-curvature="0" />
	<path style="fill:none;stroke:red;stroke-width:1px;stroke-linecap:butt;stroke-linejoin:miter;stroke-opacity:1" d="M 418.71,82.2472 427.404,82.2472 z" id="boundary" inkscape:connector-curvature="0" />
	<path style="fill:none;stroke:red;stroke-width:1px;stroke-linecap:butt;stroke-linejoin:miter;stroke-opacity:1" d="M 425.665,426.535 434.359,426.535 z" id="boundary" inkscape:connector-curvature="0" />
	<path style="fill:none;stroke:red;stroke-width:1px;stroke-linecap:butt;stroke-linejoin:miter;stroke-opacity:1" d="M 427.404,82.2472 436.098,78.7695 z" id="boundary" inkscape:connector-curvature="0" />
	<path style="fill:none;stroke:red;stroke-width:1px;stroke-linecap:butt;stroke-linejoin:miter;stroke-opacity:1" d="M 434.359,426.535 442.184,422.188 z" id="boundary" inkscape:connector-curvature="0" />
	<path style="fill:none;stroke:red;stroke-width:1px;stroke-linecap:butt;stroke-linejoin:miter;stroke-opacity:1" d="M 436.098,78.7695 444.792,77.9001 z" id="boundary" inkscape:connector-curvature="0" />
	<path style="fill:none;stroke:red;stroke-width:1px;stroke-linecap:butt;stroke-linejoin:miter;stroke-opacity:1" d="M 442.184,422.188 450.878,422.188 z" id="boundary" inkscape:connector-curvature="0" />
	<path style="fill:none;stroke:red;stroke-width:1px;stroke-linecap:butt;stroke-linejoin:miter;stroke-opacity:1" d="M 444.792,77.9001 453.486,77.9001 z" id="boundary" inkscape:connector-curvature="0" />
	<path style="fill:none;stroke:red;stroke-width:1px;stroke-linecap:butt;stroke-linejoin:miter;stroke-opacity:1" d="M 450.878,422.188 458.703,417.84 z" id="boundary" inkscape:connector-curvature="0" />
	<path style="fill:none;stroke:red;stroke-width:1px;stroke-linecap:butt;stroke-linejoin:miter;stroke-opacity:1" d="M 453.486,77.9001 462.181,74.4224 z" id="boundary" inkscape:connector-curvature="0" />
	<path style="fill:none;stroke:red;stroke-width:1px;stroke-linecap:butt;stroke-linejoin:miter;stroke-opacity:1" d="M 458.703,417.84 467.397,417.84 z" id="boundary" inkscape:connector-curvature="0" />
	<path style="fill:none;stroke:red;stroke-width:1px;stroke-linecap:butt;stroke-linejoin:miter;stroke-opacity:1" d="M 462.181,74.4224 470.875,73.553 z" id="boundary" inkscape:connector-curvature="0" />
	<path style="fill:none;stroke:red;stroke-width:1px;stroke-linecap:butt;stroke-linejoin:miter;stroke-opacity:1" d="M 467.397,417.84 476.091,417.84 z" id="boundary" inkscape:connector-curvature="0" />
	<path style="fill:none;stroke:red;stroke-width:1px;stroke-linecap:butt;stroke-linejoin:miter;stroke-opacity:1" d="M 470.875,73.553 479.569,73.553 z" id="boundary" inkscape:connector-curvature="0" />
	<path style="fill:none;stroke:red;stroke-width:1px;stroke-linecap:butt;stroke-linejoin:miter;stroke-opacity:1" d="M 476.091,417.84 484.785,417.84 z" id="boundary" inkscape:connector-curvature="0" />
	<path style="fill:none;stroke:red;stroke-width:1px;stroke-linecap:butt;stroke-linejoin:miter;stroke-opacity:1" d="M 479.569,73.553 488.263,73.553 z" id="boundary" inkscape:connector-curvature="0" />
	<path style="fill:none;stroke:red;stroke-width:1px;stroke-linecap:butt;stroke-linejoin:miter;stroke-opacity:1" d="M 484.785,417.84 493.479,417.84 z" id="boundary" inkscape:connector-curvature="0" />
	<path style="fill:none;stroke:red;stroke-width:1px;stroke-linecap:butt;stroke-linejoin:miter;stroke-opacity:1" d="M 488.263,73.553 496.088,69.206 z" id="boundary" inkscape:connector-curvature="0" />
	<path style="fill:none;stroke:red;stroke-width:1px;stroke-linecap:butt;stroke-linejoin:miter;stroke-opacity:1" d="M 493.479,417.84 502.174,417.84 z" id="boundary" inkscape:connector-curvature="0" />
	<path style="fill:none;stroke:red;stroke-width:1px;stroke-linecap:butt;stroke-linejoin:miter;stroke-opacity:1" d="M 496.088,69.206 504.782,69.206 z" id="boundary" inkscape:connector-curvature="0" />
	<path style="fill:none;stroke:red;stroke-width:1px;stroke-linecap:butt;stroke-linejoin:miter;stroke-opacity:1" d="M 502.174,417.84 510.868,417.84 z" id="boundary" inkscape:connector-curvature="0" />
	<path style="fill:none;stroke:red;stroke-width:1px;stroke-linecap:butt;stroke-linejoin:miter;stroke-opacity:1" d="M 504.782,69.206 513.476,66.5977 z" id="boundary" inkscape:connector-curvature="0" />
	<path style="fill:none;stroke:red;stroke-width:1px;stroke-linecap:butt;stroke-linejoin:miter;stroke-opacity:1" d="M 510.868,417.84 519.562,417.84 z" id="boundary" inkscape:connector-curvature="0" />
	<path style="fill:none;stroke:red;stroke-width:1px;stroke-linecap:butt;stroke-linejoin:miter;stroke-opacity:1" d="M 513.476,66.5977 522.17,64.8589 z" id="boundary" inkscape:connector-curvature="0" />
	<path style="fill:none;stroke:red;stroke-width:1px;stroke-linecap:butt;stroke-linejoin:miter;stroke-opacity:1" d="M 519.562,417.84 528.256,417.84 z" id="boundary" inkscape:connector-curvature="0" />
	<path style="fill:none;stroke:red;stroke-width:1px;stroke-linecap:butt;stroke-linejoin:miter;stroke-opacity:1" d="M 522.17,64.8589 530.864,64.8589 z" id="boundary" inkscape:connector-curvature="0" />
	<path style="fill:none;stroke:red;stroke-width:1px;stroke-linecap:butt;stroke-linejoin:miter;stroke-opacity:1" d="M 528.256,417.84 536.95,417.84 z" id="boundary" inkscape:connector-curvature="0" />
	<path style="fill:none;stroke:red;stroke-width:1px;stroke-linecap:butt;stroke-linejoin:miter;stroke-opacity:1" d="M 530.864,64.8589 538.689,60.5118 z" id="boundary" inkscape:connector-curvature="0" />
	<path style="fill:none;stroke:red;stroke-width:1px;stroke-linecap:butt;stroke-linejoin:miter;stroke-opacity:1" d="M 536.95,417.84 545.644,417.84 z" id="boundary" inkscape:connector-curvature="0" />
	<path style="fill:none;stroke:red;stroke-width:1px;stroke-linecap:butt;stroke-linejoin:miter;stroke-opacity:1" d="M 538.689,60.5118 547.383,60.5118 z" id="boundary" inkscape:connector-curvature="0" />
	<path style="fill:none;stroke:red;stroke-width:1px;stroke-linecap:butt;stroke-linejoin:miter;stroke-opacity:1" d="M 545.644,417.84 554.338,416.971 z" id="boundary" inkscape:connector-curvature="0" />
	<path style="fill:none;stroke:red;stroke-width:1px;stroke-linecap:butt;stroke-linejoin:miter;stroke-opacity:1" d="M 547.383,60.5118 556.077,58.773 z" id="boundary" inkscape:connector-curvature="0" />
	<path style="fill:none;stroke:red;stroke-width:1px;stroke-linecap:butt;stroke-linejoin:miter;stroke-opacity:1" d="M 554.338,416.971 563.032,413.493 z" id="boundary" inkscape:connector-curvature="0" />
	<path style="fill:none;stroke:red;stroke-width:1px;stroke-linecap:butt;stroke-linejoin:miter;stroke-opacity:1" d="M 556.077,58.773 564.771,56.1648 z" id="boundary" inkscape:connector-curvature="0" />
	<path style="fill:none;stroke:red;stroke-width:1px;stroke-linecap:butt;stroke-linejoin:miter;stroke-opacity:1" d="M 563.032,413.493 571.727,413.493 z" id="boundary" inkscape:connector-curvature="0" />
	<path style="fill:none;stroke:red;stroke-width:1px;stroke-linecap:butt;stroke-linejoin:miter;stroke-opacity:1" d="M 564.771,56.1648 573.465,56.1648 z" id="boundary" inkscape:connector-curvature="0" />
	<path style="fill:none;stroke:red;stroke-width:1px;stroke-linecap:butt;stroke-linejoin:miter;stroke-opacity:1" d="M 571.727,413.493 580.421,413.493 z" id="boundary" inkscape:connector-curvature="0" />
	<path style="fill:none;stroke:red;stroke-width:1px;stroke-linecap:butt;stroke-linejoin:miter;stroke-opacity:1" d="M 573.465,56.1648 581.29,51.8177 z" id="boundary" inkscape:connector-curvature="0" />
	<path style="fill:none;stroke:red;stroke-width:1px;stroke-linecap:butt;stroke-linejoin:miter;stroke-opacity:1" d="M 580.421,413.493 589.115,413.493 z" id="boundary" inkscape:connector-curvature="0" />
	<path style="fill:none;stroke:red;stroke-width:1px;stroke-linecap:butt;stroke-linejoin:miter;stroke-opacity:1" d="M 581.29,51.8177 589.984,51.8177 z" id="boundary" inkscape:connector-curvature="0" />
	<path style="fill:none;stroke:red;stroke-width:1px;stroke-linecap:butt;stroke-linejoin:miter;stroke-opacity:1" d="M 589.115,413.493 597.809,413.493 z" id="boundary" inkscape:connector-curvature="0" />
	<path style="fill:none;stroke:red;stroke-width:1px;stroke-linecap:butt;stroke-linejoin:miter;stroke-opacity:1" d="M 589.984,51.8177 598.678,51.8177 z" id="boundary" inkscape:connector-curvature="0" />
	<path style="fill:none;stroke:red;stroke-width:1px;stroke-linecap:butt;stroke-linejoin:miter;stroke-opacity:1" d="M 597.809,413.493 606.503,413.493 z" id="boundary" inkscape:connector-curvature="0" />
	<path style="fill:none;stroke:red;stroke-width:1px;stroke-linecap:butt;stroke-linejoin:miter;stroke-opacity:1" d="M 598.678,51.8177 606.503,47.4706 z" id="boundary" inkscape:connector-curvature="0" />
	<path style="fill:none;stroke:red;stroke-width:1px;stroke-linecap:butt;stroke-linejoin:miter;stroke-opacity:1" d="M 606.503,47.4706 615.197,47.4706 z" id="boundary" inkscape:connector-curvature="0" />
	<path style="fill:none;stroke:red;stroke-width:1px;stroke-linecap:butt;stroke-linejoin:miter;stroke-opacity:1" d="M 606.503,413.493 615.197,412.624 z" id="boundary" inkscape:connector-curvature="0" />
	<path style="fill:none;stroke:red;stroke-width:1px;stroke-linecap:butt;stroke-linejoin:miter;stroke-opacity:1" d="M 615.197,47.4706 623.891,43.1236 z" id="boundary" inkscape:connector-curvature="0" />
	<path style="fill:none;stroke:red;stroke-width:1px;stroke-linecap:butt;stroke-linejoin:miter;stroke-opacity:1" d="M 615.197,412.624 623.891,409.146 z" id="boundary" inkscape:connector-curvature="0" />
	<path style="fill:none;stroke:red;stroke-width:1px;stroke-linecap:butt;stroke-linejoin:miter;stroke-opacity:1" d="M 623.891,43.1236 632.585,43.1236 z" id="boundary" inkscape:connector-curvature="0" />
	<path style="fill:none;stroke:red;stroke-width:1px;stroke-linecap:butt;stroke-linejoin:miter;stroke-opacity:1" d="M 623.891,409.146 631.716,404.799 z" id="boundary" inkscape:connector-curvature="0" />
	<path style="fill:none;stroke:red;stroke-width:1px;stroke-linecap:butt;stroke-linejoin:miter;stroke-opacity:1" d="M 631.716,404.799 640.41,404.799 z" id="boundary" inkscape:connector-curvature="0" />
	<path style="fill:none;stroke:red;stroke-width:1px;stroke-linecap:butt;stroke-linejoin:miter;stroke-opacity:1" d="M 632.585,43.1236 640.41,38.7765 z" id="boundary" inkscape:connector-curvature="0" />
	<path style="fill:none;stroke:red;stroke-width:1px;stroke-linecap:butt;stroke-linejoin:miter;stroke-opacity:1" d="M 640.41,38.7765 649.104,35.2989 z" id="boundary" inkscape:connector-curvature="0" />
	<path style="fill:none;stroke:red;stroke-width:1px;stroke-linecap:butt;stroke-linejoin:miter;stroke-opacity:1" d="M 640.41,404.799 649.104,404.799 z" id="boundary" inkscape:connector-curvature="0" />
	<path style="fill:none;stroke:red;stroke-width:1px;stroke-linecap:butt;stroke-linejoin:miter;stroke-opacity:1" d="M 649.104,35.2989 657.798,34.4294 z" id="boundary" inkscape:connector-curvature="0" />
	<path style="fill:none;stroke:red;stroke-width:1px;stroke-linecap:butt;stroke-linejoin:miter;stroke-opacity:1" d="M 649.104,404.799 657.798,404.799 z" id="boundary" inkscape:connector-curvature="0" />
	<path style="fill:none;stroke:red;stroke-width:1px;stroke-linecap:butt;stroke-linejoin:miter;stroke-opacity:1" d="M 657.798,34.4294 665.623,30.0824 z" id="boundary" inkscape:connector-curvature="0" />
	<path style="fill:none;stroke:red;stroke-width:1px;stroke-linecap:butt;stroke-linejoin:miter;stroke-opacity:1" d="M 657.798,404.799 666.493,404.799 z" id="boundary" inkscape:connector-curvature="0" />
	<path style="fill:none;stroke:red;stroke-width:1px;stroke-linecap:butt;stroke-linejoin:miter;stroke-opacity:1" d="M 665.623,30.0824 673.448,25.7353 z" id="boundary" inkscape:connector-curvature="0" />
	<path style="fill:none;stroke:red;stroke-width:1px;stroke-linecap:butt;stroke-linejoin:miter;stroke-opacity:1" d="M 666.493,404.799 675.187,404.799 z" id="boundary" inkscape:connector-curvature="0" />
	<path style="fill:none;stroke:red;stroke-width:1px;stroke-linecap:butt;stroke-linejoin:miter;stroke-opacity:1" d="M 673.448,25.7353 682.142,25.7353 z" id="boundary" inkscape:connector-curvature="0" />
	<path style="fill:none;stroke:red;stroke-width:1px;stroke-linecap:butt;stroke-linejoin:miter;stroke-opacity:1" d="M 675.187,404.799 683.881,404.799 z" id="boundary" inkscape:connector-curvature="0" />
	<path style="fill:none;stroke:red;stroke-width:1px;stroke-linecap:butt;stroke-linejoin:miter;stroke-opacity:1" d="M 682.142,25.7353 689.967,30.0824 z" id="boundary" inkscape:connector-curvature="0" />
	<path style="fill:none;stroke:red;stroke-width:1px;stroke-linecap:butt;stroke-linejoin:miter;stroke-opacity:1" d="M 683.881,404.799 691.706,409.146 z" id="boundary" inkscape:connector-curvature="0" />
	<path style="fill:none;stroke:red;stroke-width:1px;stroke-linecap:butt;stroke-linejoin:miter;stroke-opacity:1" d="M 689.967,30.0824 697.791,34.4294 z" id="boundary" inkscape:connector-curvature="0" />
	<path style="fill:none;stroke:red;stroke-width:1px;stroke-linecap:butt;stroke-linejoin:miter;stroke-opacity:1" d="M 691.706,409.146 699.53,413.493 z" id="boundary" inkscape:connector-curvature="0" />
	<path style="fill:none;stroke:red;stroke-width:1px;stroke-linecap:butt;stroke-linejoin:miter;stroke-opacity:1" d="M 697.791,34.4294 703.877,41.3848 z" id="boundary" inkscape:connector-curvature="0" />
	<path style="fill:none;stroke:red;stroke-width:1px;stroke-linecap:butt;stroke-linejoin:miter;stroke-opacity:1" d="M 699.53,413.493 707.355,417.84 z" id="boundary" inkscape:connector-curvature="0" />
	<path style="fill:none;stroke:red;stroke-width:1px;stroke-linecap:butt;stroke-linejoin:miter;stroke-opacity:1" d="M 703.877,41.3848 710.833,47.4706 z" id="boundary" inkscape:connector-curvature="0" />
	<path style="fill:none;stroke:red;stroke-width:1px;stroke-linecap:butt;stroke-linejoin:miter;stroke-opacity:1" d="M 707.355,417.84 715.18,422.188 z" id="boundary" inkscape:connector-curvature="0" />
	<path style="fill:none;stroke:red;stroke-width:1px;stroke-linecap:butt;stroke-linejoin:miter;stroke-opacity:1" d="M 710.833,47.4706 718.657,51.8177 z" id="boundary" inkscape:connector-curvature="0" />
	<path style="fill:none;stroke:red;stroke-width:1px;stroke-linecap:butt;stroke-linejoin:miter;stroke-opacity:1" d="M 715.18,422.188 723.004,426.535 z" id="boundary" inkscape:connector-curvature="0" />
	<path style="fill:none;stroke:red;stroke-width:1px;stroke-linecap:butt;stroke-linejoin:miter;stroke-opacity:1" d="M 718.657,51.8177 725.613,57.9036 z" id="boundary" inkscape:connector-curvature="0" />
	<path style="fill:none;stroke:red;stroke-width:1px;stroke-linecap:butt;stroke-linejoin:miter;stroke-opacity:1" d="M 723.004,426.535 729.96,431.751 z" id="boundary" inkscape:connector-curvature="0" />
	<path style="fill:none;stroke:red;stroke-width:1px;stroke-linecap:butt;stroke-linejoin:miter;stroke-opacity:1" d="M 725.613,57.9036 733.437,62.2507 z" id="boundary" inkscape:connector-curvature="0" />
	<path style="fill:none;stroke:red;stroke-width:1px;stroke-linecap:butt;stroke-linejoin:miter;stroke-opacity:1" d="M 729.96,431.751 736.046,438.706 z" id="boundary" inkscape:connector-curvature="0" />
	<path style="fill:none;stroke:red;stroke-width:1px;stroke-linecap:butt;stroke-linejoin:miter;stroke-opacity:1" d="M 733.437,62.2507 742.131,65.7283 z" id="boundary" inkscape:connector-curvature="0" />
	<path style="fill:none;stroke:red;stroke-width:1px;stroke-linecap:butt;stroke-linejoin:miter;stroke-opacity:1" d="M 736.046,438.706 744.74,442.184 z" id="boundary" inkscape:connector-curvature="0" />
	<path style="fill:none;stroke:red;stroke-width:1px;stroke-linecap:butt;stroke-linejoin:miter;stroke-opacity:1" d="M 742.131,65.7283 748.217,72.6836 z" id="boundary" inkscape:connector-curvature="0" />
	<path style="fill:none;stroke:red;stroke-width:1px;stroke-linecap:butt;stroke-linejoin:miter;stroke-opacity:1" d="M 744.74,442.184 753.434,443.923 z" id="boundary" inkscape:connector-curvature="0" />
	<path style="fill:none;stroke:red;stroke-width:1px;stroke-linecap:butt;stroke-linejoin:miter;stroke-opacity:1" d="M 748.217,72.6836 755.173,78.7695 z" id="boundary" inkscape:connector-curvature="0" />
	<path style="fill:none;stroke:red;stroke-width:1px;stroke-linecap:butt;stroke-linejoin:miter;stroke-opacity:1" d="M 753.434,443.923 761.259,448.27 z" id="boundary" inkscape:connector-curvature="0" />
	<path style="fill:none;stroke:red;stroke-width:1px;stroke-linecap:butt;stroke-linejoin:miter;stroke-opacity:1" d="M 755.173,78.7695 762.997,83.1166 z" id="boundary" inkscape:connector-curvature="0" />
	<path style="fill:none;stroke:red;stroke-width:1px;stroke-linecap:butt;stroke-linejoin:miter;stroke-opacity:1" d="M 761.259,448.27 769.083,452.617 z" id="boundary" inkscape:connector-curvature="0" />
	<path style="fill:none;stroke:red;stroke-width:1px;stroke-linecap:butt;stroke-linejoin:miter;stroke-opacity:1" d="M 762.997,83.1166 769.953,89.2025 z" id="boundary" inkscape:connector-curvature="0" />
	<path style="fill:none;stroke:red;stroke-width:1px;stroke-linecap:butt;stroke-linejoin:miter;stroke-opacity:1" d="M 769.083,452.617 777.777,452.617 z" id="boundary" inkscape:connector-curvature="0" />
	<path style="fill:none;stroke:red;stroke-width:1px;stroke-linecap:butt;stroke-linejoin:miter;stroke-opacity:1" d="M 769.953,89.2025 773.43,97.8966 z" id="boundary" inkscape:connector-curvature="0" />
	<path style="fill:none;stroke:red;stroke-width:1px;stroke-linecap:butt;stroke-linejoin:miter;stroke-opacity:1" d="M 773.43,97.8966 780.386,103.982 z" id="boundary" inkscape:connector-curvature="0" />
	<path style="fill:none;stroke:red;stroke-width:1px;stroke-linecap:butt;stroke-linejoin:miter;stroke-opacity:1" d="M 777.777,452.617 785.602,456.964 z" id="boundary" inkscape:connector-curvature="0" />
	<path style="fill:none;stroke:red;stroke-width:1px;stroke-linecap:butt;stroke-linejoin:miter;stroke-opacity:1" d="M 780.386,103.982 786.472,110.938 z" id="boundary" inkscape:connector-curvature="0" />
	<path style="fill:none;stroke:red;stroke-width:1px;stroke-linecap:butt;stroke-linejoin:miter;stroke-opacity:1" d="M 785.602,456.964 794.296,456.964 z" id="boundary" inkscape:connector-curvature="0" />
	<path style="fill:none;stroke:red;stroke-width:1px;stroke-linecap:butt;stroke-linejoin:miter;stroke-opacity:1" d="M 786.472,110.938 793.427,117.024 z" id="boundary" inkscape:connector-curvature="0" />
	<path style="fill:none;stroke:red;stroke-width:1px;stroke-linecap:butt;stroke-linejoin:miter;stroke-opacity:1" d="M 793.427,117.024 802.121,117.024 z" id="boundary" inkscape:connector-curvature="0" />
	<path style="fill:none;stroke:red;stroke-width:1px;stroke-linecap:butt;stroke-linejoin:miter;stroke-opacity:1" d="M 794.296,456.964 802.99,456.964 z" id="boundary" inkscape:connector-curvature="0" />
	<path style="fill:none;stroke:red;stroke-width:1px;stroke-linecap:butt;stroke-linejoin:miter;stroke-opacity:1" d="M 802.121,117.024 810.815,117.024 z" id="boundary" inkscape:connector-curvature="0" />
	<path style="fill:none;stroke:red;stroke-width:1px;stroke-linecap:butt;stroke-linejoin:miter;stroke-opacity:1" d="M 802.99,456.964 810.815,452.617 z" id="boundary" inkscape:connector-curvature="0" />
	<path style="fill:none;stroke:red;stroke-width:1px;stroke-linecap:butt;stroke-linejoin:miter;stroke-opacity:1" d="M 810.815,117.024 819.509,117.024 z" id="boundary" inkscape:connector-curvature="0" />
	<path style="fill:none;stroke:red;stroke-width:1px;stroke-linecap:butt;stroke-linejoin:miter;stroke-opacity:1" d="M 810.815,452.617 818.64,448.27 z" id="boundary" inkscape:connector-curvature="0" />
	<path style="fill:none;stroke:red;stroke-width:1px;stroke-linecap:butt;stroke-linejoin:miter;stroke-opacity:1" d="M 818.64,448.27 827.334,448.27 z" id="boundary" inkscape:connector-curvature="0" />
	<path style="fill:none;stroke:red;stroke-width:1px;stroke-linecap:butt;stroke-linejoin:miter;stroke-opacity:1" d="M 819.509,117.024 827.334,112.677 z" id="boundary" inkscape:connector-curvature="0" />
	<path style="fill:none;stroke:red;stroke-width:1px;stroke-linecap:butt;stroke-linejoin:miter;stroke-opacity:1" d="M 827.334,112.677 836.028,112.677 z" id="boundary" inkscape:connector-curvature="0" />
	<path style="fill:none;stroke:red;stroke-width:1px;stroke-linecap:butt;stroke-linejoin:miter;stroke-opacity:1" d="M 827.334,448.27 836.028,448.27 z" id="boundary" inkscape:connector-curvature="0" />
	<path style="fill:none;stroke:red;stroke-width:1px;stroke-linecap:butt;stroke-linejoin:miter;stroke-opacity:1" d="M 836.028,112.677 844.722,112.677 z" id="boundary" inkscape:connector-curvature="0" />
	<path style="fill:none;stroke:red;stroke-width:1px;stroke-linecap:butt;stroke-linejoin:miter;stroke-opacity:1" d="M 836.028,448.27 843.853,443.923 z" id="boundary" inkscape:connector-curvature="0" />
	<path style="fill:none;stroke:red;stroke-width:1px;stroke-linecap:butt;stroke-linejoin:miter;stroke-opacity:1" d="M 843.853,443.923 852.547,443.923 z" id="boundary" inkscape:connector-curvature="0" />
	<path style="fill:none;stroke:red;stroke-width:1px;stroke-linecap:butt;stroke-linejoin:miter;stroke-opacity:1" d="M 844.722,112.677 853.416,112.677 z" id="boundary" inkscape:connector-curvature="0" />
	<path style="fill:none;stroke:red;stroke-width:1px;stroke-linecap:butt;stroke-linejoin:miter;stroke-opacity:1" d="M 852.547,443.923 860.372,439.576 z" id="boundary" inkscape:connector-curvature="0" />
	<path style="fill:none;stroke:red;stroke-width:1px;stroke-linecap:butt;stroke-linejoin:miter;stroke-opacity:1" d="M 853.416,112.677 861.241,108.33 z" id="boundary" inkscape:connector-curvature="0" />
	<path style="fill:none;stroke:red;stroke-width:1px;stroke-linecap:butt;stroke-linejoin:miter;stroke-opacity:1" d="M 860.372,439.576 869.066,436.968 z" id="boundary" inkscape:connector-curvature="0" />
	<path style="fill:none;stroke:red;stroke-width:1px;stroke-linecap:butt;stroke-linejoin:miter;stroke-opacity:1" d="M 861.241,108.33 869.935,108.33 z" id="boundary" inkscape:connector-curvature="0" />
	<path style="fill:none;stroke:red;stroke-width:1px;stroke-linecap:butt;stroke-linejoin:miter;stroke-opacity:1" d="M 869.066,436.968 877.76,435.229 z" id="boundary" inkscape:connector-curvature="0" />
	<path style="fill:none;stroke:red;stroke-width:1px;stroke-linecap:butt;stroke-linejoin:miter;stroke-opacity:1" d="M 869.935,108.33 878.629,108.33 z" id="boundary" inkscape:connector-curvature="0" />
	<path style="fill:none;stroke:red;stroke-width:1px;stroke-linecap:butt;stroke-linejoin:miter;stroke-opacity:1" d="M 877.76,435.229 885.585,430.882 z" id="boundary" inkscape:connector-curvature="0" />
	<path style="fill:none;stroke:red;stroke-width:1px;stroke-linecap:butt;stroke-linejoin:miter;stroke-opacity:1" d="M 878.629,108.33 887.323,108.33 z" id="boundary" inkscape:connector-curvature="0" />
	<path style="fill:none;stroke:red;stroke-width:1px;stroke-linecap:butt;stroke-linejoin:miter;stroke-opacity:1" d="M 885.585,430.882 894.279,429.143 z" id="boundary" inkscape:connector-curvature="0" />
	<path style="fill:none;stroke:red;stroke-width:1px;stroke-linecap:butt;stroke-linejoin:miter;stroke-opacity:1" d="M 887.323,108.33 895.148,103.982 z" id="boundary" inkscape:connector-curvature="0" />
	<path style="fill:none;stroke:red;stroke-width:1px;stroke-linecap:butt;stroke-linejoin:miter;stroke-opacity:1" d="M 894.279,429.143 902.973,426.535 z" id="boundary" inkscape:connector-curvature="0" />
	<path style="fill:none;stroke:red;stroke-width:1px;stroke-linecap:butt;stroke-linejoin:miter;stroke-opacity:1" d="M 895.148,103.982 903.842,103.982 z" id="boundary" inkscape:connector-curvature="0" />
	<path style="fill:none;stroke:red;stroke-width:1px;stroke-linecap:butt;stroke-linejoin:miter;stroke-opacity:1" d="M 902.973,426.535 911.667,426.535 z" id="boundary" inkscape:connector-curvature="0" />
	<path style="fill:none;stroke:red;stroke-width:1px;stroke-linecap:butt;stroke-linejoin:miter;stroke-opacity:1" d="M 903.842,103.982 911.667,99.6354 z" id="boundary" inkscape:connector-curvature="0" />
	<path style="fill:none;stroke:red;stroke-width:1px;stroke-linecap:butt;stroke-linejoin:miter;stroke-opacity:1" d="M 909.059,330.899 910.798,339.593 z" id="boundary" inkscape:connector-curvature="0" />
	<path style="fill:none;stroke:red;stroke-width:1px;stroke-linecap:butt;stroke-linejoin:miter;stroke-opacity:1" d="M 909.059,330.899 916.014,324.813 z" id="boundary" inkscape:connector-curvature="0" />
	<path style="fill:none;stroke:red;stroke-width:1px;stroke-linecap:butt;stroke-linejoin:miter;stroke-opacity:1" d="M 910.798,339.593 913.406,348.287 z" id="boundary" inkscape:connector-curvature="0" />
	<path style="fill:none;stroke:red;stroke-width:1px;stroke-linecap:butt;stroke-linejoin:miter;stroke-opacity:1" d="M 911.667,99.6354 920.361,99.6354 z" id="boundary" inkscape:connector-curvature="0" />
	<path style="fill:none;stroke:red;stroke-width:1px;stroke-linecap:butt;stroke-linejoin:miter;stroke-opacity:1" d="M 911.667,426.535 919.492,422.188 z" id="boundary" inkscape:connector-curvature="0" />
	<path style="fill:none;stroke:red;stroke-width:1px;stroke-linecap:butt;stroke-linejoin:miter;stroke-opacity:1" d="M 913.406,348.287 917.753,356.112 z" id="boundary" inkscape:connector-curvature="0" />
	<path style="fill:none;stroke:red;stroke-width:1px;stroke-linecap:butt;stroke-linejoin:miter;stroke-opacity:1" d="M 916.014,324.813 922.1,317.858 z" id="boundary" inkscape:connector-curvature="0" />
	<path style="fill:none;stroke:red;stroke-width:1px;stroke-linecap:butt;stroke-linejoin:miter;stroke-opacity:1" d="M 917.753,356.112 917.753,364.806 z" id="boundary" inkscape:connector-curvature="0" />
	<path style="fill:none;stroke:red;stroke-width:1px;stroke-linecap:butt;stroke-linejoin:miter;stroke-opacity:1" d="M 917.753,364.806 924.708,370.023 z" id="boundary" inkscape:connector-curvature="0" />
	<path style="fill:none;stroke:red;stroke-width:1px;stroke-linecap:butt;stroke-linejoin:miter;stroke-opacity:1" d="M 919.492,422.188 928.186,422.188 z" id="boundary" inkscape:connector-curvature="0" />
	<path style="fill:none;stroke:red;stroke-width:1px;stroke-linecap:butt;stroke-linejoin:miter;stroke-opacity:1" d="M 920.361,99.6354 929.055,99.6354 z" id="boundary" inkscape:connector-curvature="0" />
	<path style="fill:none;stroke:red;stroke-width:1px;stroke-linecap:butt;stroke-linejoin:miter;stroke-opacity:1" d="M 922.1,317.858 929.055,311.772 z" id="boundary" inkscape:connector-curvature="0" />
	<path style="fill:none;stroke:red;stroke-width:1px;stroke-linecap:butt;stroke-linejoin:miter;stroke-opacity:1" d="M 924.708,370.023 928.186,378.717 z" id="boundary" inkscape:connector-curvature="0" />
	<path style="fill:none;stroke:red;stroke-width:1px;stroke-linecap:butt;stroke-linejoin:miter;stroke-opacity:1" d="M 928.186,378.717 930.794,387.411 z" id="boundary" inkscape:connector-curvature="0" />
	<path style="fill:none;stroke:red;stroke-width:1px;stroke-linecap:butt;stroke-linejoin:miter;stroke-opacity:1" d="M 928.186,422.188 936.88,421.318 z" id="boundary" inkscape:connector-curvature="0" />
	<path style="fill:none;stroke:red;stroke-width:1px;stroke-linecap:butt;stroke-linejoin:miter;stroke-opacity:1" d="M 929.055,99.6354 937.749,99.6354 z" id="boundary" inkscape:connector-curvature="0" />
	<path style="fill:none;stroke:red;stroke-width:1px;stroke-linecap:butt;stroke-linejoin:miter;stroke-opacity:1" d="M 929.055,311.772 935.141,304.817 z" id="boundary" inkscape:connector-curvature="0" />
	<path style="fill:none;stroke:red;stroke-width:1px;stroke-linecap:butt;stroke-linejoin:miter;stroke-opacity:1" d="M 930.794,387.411 935.141,395.236 z" id="boundary" inkscape:connector-curvature="0" />
	<path style="fill:none;stroke:red;stroke-width:1px;stroke-linecap:butt;stroke-linejoin:miter;stroke-opacity:1" d="M 935.141,304.817 942.096,298.731 z" id="boundary" inkscape:connector-curvature="0" />
	<path style="fill:none;stroke:red;stroke-width:1px;stroke-linecap:butt;stroke-linejoin:miter;stroke-opacity:1" d="M 935.141,395.236 939.488,403.06 z" id="boundary" inkscape:connector-curvature="0" />
	<path style="fill:none;stroke:red;stroke-width:1px;stroke-linecap:butt;stroke-linejoin:miter;stroke-opacity:1" d="M 936.88,421.318 941.227,412.624 z" id="boundary" inkscape:connector-curvature="0" />
	<path style="fill:none;stroke:red;stroke-width:1px;stroke-linecap:butt;stroke-linejoin:miter;stroke-opacity:1" d="M 937.749,99.6354 945.574,95.2883 z" id="boundary" inkscape:connector-curvature="0" />
	<path style="fill:none;stroke:red;stroke-width:1px;stroke-linecap:butt;stroke-linejoin:miter;stroke-opacity:1" d="M 939.488,403.06 941.227,412.624 z" id="boundary" inkscape:connector-curvature="0" />
	<path style="fill:none;stroke:red;stroke-width:1px;stroke-linecap:butt;stroke-linejoin:miter;stroke-opacity:1" d="M 942.096,298.731 948.182,291.776 z" id="boundary" inkscape:connector-curvature="0" />
	<path style="fill:none;stroke:red;stroke-width:1px;stroke-linecap:butt;stroke-linejoin:miter;stroke-opacity:1" d="M 945.574,95.2883 954.268,95.2883 z" id="boundary" inkscape:connector-curvature="0" />
	<path style="fill:none;stroke:red;stroke-width:1px;stroke-linecap:butt;stroke-linejoin:miter;stroke-opacity:1" d="M 948.182,291.776 955.138,285.69 z" id="boundary" inkscape:connector-curvature="0" />
	<path style="fill:none;stroke:red;stroke-width:1px;stroke-linecap:butt;stroke-linejoin:miter;stroke-opacity:1" d="M 954.268,95.2883 962.093,90.9413 z" id="boundary" inkscape:connector-curvature="0" />
	<path style="fill:none;stroke:red;stroke-width:1px;stroke-linecap:butt;stroke-linejoin:miter;stroke-opacity:1" d="M 955.138,285.69 961.223,274.387 z" id="boundary" inkscape:connector-curvature="0" />
	<path style="fill:none;stroke:red;stroke-width:1px;stroke-linecap:butt;stroke-linejoin:miter;stroke-opacity:1" d="M 961.223,274.387 965.571,265.693 z" id="boundary" inkscape:connector-curvature="0" />
	<path style="fill:none;stroke:red;stroke-width:1px;stroke-linecap:butt;stroke-linejoin:miter;stroke-opacity:1" d="M 962.093,90.9413 970.787,90.9413 z" id="boundary" inkscape:connector-curvature="0" />
	<path style="fill:none;stroke:red;stroke-width:1px;stroke-linecap:butt;stroke-linejoin:miter;stroke-opacity:1" d="M 965.571,265.693 969.918,256.999 z" id="boundary" inkscape:connector-curvature="0" />
	<path style="fill:none;stroke:red;stroke-width:1px;stroke-linecap:butt;stroke-linejoin:miter;stroke-opacity:1" d="M 969.918,256.999 974.265,248.305 z" id="boundary" inkscape:connector-curvature="0" />
	<path style="fill:none;stroke:red;stroke-width:1px;stroke-linecap:butt;stroke-linejoin:miter;stroke-opacity:1" d="M 970.787,90.9413 974.265,99.6354 z" id="boundary" inkscape:connector-curvature="0" />
	<path style="fill:none;stroke:red;stroke-width:1px;stroke-linecap:butt;stroke-linejoin:miter;stroke-opacity:1" d="M 974.265,99.6354 978.612,107.46 z" id="boundary" inkscape:connector-curvature="0" />
	<path style="fill:none;stroke:red;stroke-width:1px;stroke-linecap:butt;stroke-linejoin:miter;stroke-opacity:1" d="M 974.265,248.305 978.612,239.611 z" id="boundary" inkscape:connector-curvature="0" />
	<path style="fill:none;stroke:red;stroke-width:1px;stroke-linecap:butt;stroke-linejoin:miter;stroke-opacity:1" d="M 978.612,107.46 982.959,115.285 z" id="boundary" inkscape:connector-curvature="0" />
	<path style="fill:none;stroke:red;stroke-width:1px;stroke-linecap:butt;stroke-linejoin:miter;stroke-opacity:1" d="M 978.612,239.611 982.959,230.917 z" id="boundary" inkscape:connector-curvature="0" />
	<path style="fill:none;stroke:red;stroke-width:1px;stroke-linecap:butt;stroke-linejoin:miter;stroke-opacity:1" d="M 982.959,115.285 982.959,123.979 z" id="boundary" inkscape:connector-curvature="0" />
	<path style="fill:none;stroke:red;stroke-width:1px;stroke-linecap:butt;stroke-linejoin:miter;stroke-opacity:1" d="M 982.959,123.979 986.436,132.673 z" id="boundary" inkscape:connector-curvature="0" />
	<path style="fill:none;stroke:red;stroke-width:1px;stroke-linecap:butt;stroke-linejoin:miter;stroke-opacity:1" d="M 982.959,230.917 987.306,222.223 z" id="boundary" inkscape:connector-curvature="0" />
	<path style="fill:none;stroke:red;stroke-width:1px;stroke-linecap:butt;stroke-linejoin:miter;stroke-opacity:1" d="M 986.436,132.673 987.306,141.367 z" id="boundary" inkscape:connector-curvature="0" />
	<path style="fill:none;stroke:red;stroke-width:1px;stroke-linecap:butt;stroke-linejoin:miter;stroke-opacity:1" d="M 987.306,141.367 987.306,150.061 z" id="boundary" inkscape:connector-curvature="0" />
	<path style="fill:none;stroke:red;stroke-width:1px;stroke-linecap:butt;stroke-linejoin:miter;stroke-opacity:1" d="M 987.306,150.061 991.653,157.886 z" id="boundary" inkscape:connector-curvature="0" />
	<path style="fill:none;stroke:red;stroke-width:1px;stroke-linecap:butt;stroke-linejoin:miter;stroke-opacity:1" d="M 987.306,222.223 991.653,213.528 z" id="boundary" inkscape:connector-curvature="0" />
	<path style="fill:none;stroke:red;stroke-width:1px;stroke-linecap:butt;stroke-linejoin:miter;stroke-opacity:1" d="M 991.653,157.886 991.653,166.58 z" id="boundary" inkscape:connector-curvature="0" />
	<path style="fill:none;stroke:red;stroke-width:1px;stroke-linecap:butt;stroke-linejoin:miter;stroke-opacity:1" d="M 991.653,166.58 994.261,175.274 z" id="boundary" inkscape:connector-curvature="0" />
	<path style="fill:none;stroke:red;stroke-width:1px;stroke-linecap:butt;stroke-linejoin:miter;stroke-opacity:1" d="M 991.653,213.528 996,201.357 z" id="boundary" inkscape:connector-curvature="0" />
	<path style="fill:none;stroke:red;stroke-width:1px;stroke-linecap:butt;stroke-linejoin:miter;stroke-opacity:1" d="M 994.261,175.274 996,183.968 z" id="boundary" inkscape:connector-curvature="0" />
	<path style="fill:none;stroke:red;stroke-width:1px;stroke-linecap:butt;stroke-linejoin:miter;stroke-opacity:1" d="M 996,183.968 996,192.663 z" id="boundary" inkscape:connector-curvature="0" />
	<path style="fill:none;stroke:red;stroke-width:1px;stroke-linecap:butt;stroke-linejoin:miter;stroke-opacity:1" d="M 996,192.663 996,201.357 z" id="boundary" inkscape:connector-curvature="0" />
	<circle cx="4" cy="284.82" r="4" fill="#0" id="circle0"/>
	<circle cx="4" cy="293.514" r="4" fill="#0" id="circle1"/>
	<circle cx="4" cy="302.209" r="4" fill="#0" id="circle2"/>
	<circle cx="8.34706" cy="276.126" r="4" fill="#0" id="circle3"/>
	<circle cx="8.34706" cy="310.033" r="4" fill="#0" id="circle4"/>
	<circle cx="8.34706" cy="318.727" r="4" fill="#0" id="circle5"/>
	<circle cx="8.34706" cy="327.422" r="4" fill="#0" id="circle6"/>
	<circle cx="12.6941" cy="335.246" r="4" fill="#0" id="circle7"/>
	<circle cx="15.3024" cy="269.171" r="4" fill="#0" id="circle8"/>
	<circle cx="15.3024" cy="343.94" r="4" fill="#0" id="circle9"/>
	<circle cx="17.0412" cy="352.635" r="4" fill="#0" id="circle10"/>
	<circle cx="17.0412" cy="361.329" r="4" fill="#0" id="circle11"/>
	<circle cx="17.0412" cy="370.023" r="4" fill="#0" id="circle12"/>
	<circle cx="19.6494" cy="260.477" r="4" fill="#0" id="circle13"/>
	<circle cx="19.6494" cy="378.717" r="4" fill="#0" id="circle14"/>
	<circle cx="26.6047" cy="384.803" r="4" fill="#0" id="circle15"/>
	<circle cx="27.4741" cy="256.13" r="4" fill="#0" id="circle16"/>
	<circle cx="34.4294" cy="250.044" r="4" fill="#0" id="circle17"/>
	<circle cx="35.2989" cy="387.411" r="4" fill="#0" id="circle18"/>
	<circle cx="41.3848" cy="243.089" r="4" fill="#0" id="circle19"/>
	<circle cx="43.1236" cy="383.064" r="4" fill="#0" id="circle20"/>
	<circle cx="47.4706" cy="228.309" r="4" fill="#0" id="circle21"/>
	<circle cx="51.8177" cy="219.614" r="4" fill="#0" id="circle22"/>
	<circle cx="51.8177" cy="383.064" r="4" fill="#0" id="circle23"/>
	<circle cx="56.1648" cy="210.92" r="4" fill="#0" id="circle24"/>
	<circle cx="60.5118" cy="202.226" r="4" fill="#0" id="circle25"/>
	<circle cx="60.5118" cy="383.064" r="4" fill="#0" id="circle26"/>
	<circle cx="67.4671" cy="195.271" r="4" fill="#0" id="circle27"/>
	<circle cx="69.206" cy="383.064" r="4" fill="#0" id="circle28"/>
	<circle cx="74.4224" cy="188.316" r="4" fill="#0" id="circle29"/>
	<circle cx="77.9001" cy="380.456" r="4" fill="#0" id="circle30"/>
	<circle cx="81.3777" cy="182.23" r="4" fill="#0" id="circle31"/>
	<circle cx="82.2472" cy="19.6494" r="4" fill="#0" id="circle32"/>
	<circle cx="82.2472" cy="28.3436" r="4" fill="#0" id="circle33"/>
	<circle cx="86.5942" cy="36.1683" r="4" fill="#0" id="circle34"/>
	<circle cx="86.5942" cy="44.8624" r="4" fill="#0" id="circle35"/>
	<circle cx="86.5942" cy="378.717" r="4" fill="#0" id="circle36"/>
	<circle cx="87.4636" cy="175.274" r="4" fill="#0" id="circle37"/>
	<circle cx="89.2025" cy="12.6941" r="4" fill="#0" id="circle38"/>
	<circle cx="90.9413" cy="52.6871" r="4" fill="#0" id="circle39"/>
	<circle cx="94.4189" cy="169.188" r="4" fill="#0" id="circle40"/>
	<circle cx="95.2883" cy="60.5118" r="4" fill="#0" id="circle41"/>
	<circle cx="95.2883" cy="378.717" r="4" fill="#0" id="circle42"/>
	<circle cx="97.0272" cy="69.206" r="4" fill="#0" id="circle43"/>
	<circle cx="97.8966" cy="12.6941" r="4" fill="#0" id="circle44"/>
	<circle cx="99.6354" cy="77.9001" r="4" fill="#0" id="circle45"/>
	<circle cx="100.505" cy="162.233" r="4" fill="#0" id="circle46"/>
	<circle cx="103.982" cy="85.7248" r="4" fill="#0" id="circle47"/>
	<circle cx="103.982" cy="94.4189" r="4" fill="#0" id="circle48"/>
	<circle cx="103.982" cy="103.113" r="4" fill="#0" id="circle49"/>
	<circle cx="103.982" cy="111.807" r="4" fill="#0" id="circle50"/>
	<circle cx="103.982" cy="120.501" r="4" fill="#0" id="circle51"/>
	<circle cx="103.982" cy="378.717" r="4" fill="#0" id="circle52"/>
	<circle cx="106.591" cy="12.6941" r="4" fill="#0" id="circle53"/>
	<circle cx="107.46" cy="156.147" r="4" fill="#0" id="circle54"/>
	<circle cx="108.33" cy="128.326" r="4" fill="#0" id="circle55"/>
	<circle cx="108.33" cy="137.02" r="4" fill="#0" id="circle56"/>
	<circle cx="112.677" cy="144.845" r="4" fill="#0" id="circle57"/>
	<circle cx="112.677" cy="378.717" r="4" fill="#0" id="circle58"/>
	<circle cx="115.285" cy="12.6941" r="4" fill="#0" id="circle59"/>
	<circle cx="121.371" cy="378.717" r="4" fill="#0" id="circle60"/>
	<circle cx="123.979" cy="12.6941" r="4" fill="#0" id="circle61"/>
	<circle cx="130.065" cy="378.717" r="4" fill="#0" id="circle62"/>
	<circle cx="131.804" cy="8.34706" r="4" fill="#0" id="circle63"/>
	<circle cx="138.759" cy="376.109" r="4" fill="#0" id="circle64"/>
	<circle cx="140.498" cy="8.34706" r="4" fill="#0" id="circle65"/>
	<circle cx="147.453" cy="374.37" r="4" fill="#0" id="circle66"/>
	<circle cx="148.323" cy="4" r="4" fill="#0" id="circle67"/>
	<circle cx="156.147" cy="374.37" r="4" fill="#0" id="circle68"/>
	<circle cx="157.017" cy="4" r="4" fill="#0" id="circle69"/>
	<circle cx="164.841" cy="374.37" r="4" fill="#0" id="circle70"/>
	<circle cx="165.711" cy="4" r="4" fill="#0" id="circle71"/>
	<circle cx="172.666" cy="370.023" r="4" fill="#0" id="circle72"/>
	<circle cx="174.405" cy="4" r="4" fill="#0" id="circle73"/>
	<circle cx="181.36" cy="370.023" r="4" fill="#0" id="circle74"/>
	<circle cx="183.099" cy="4" r="4" fill="#0" id="circle75"/>
	<circle cx="190.054" cy="370.023" r="4" fill="#0" id="circle76"/>
	<circle cx="191.793" cy="4" r="4" fill="#0" id="circle77"/>
	<circle cx="197.879" cy="365.676" r="4" fill="#0" id="circle78"/>
	<circle cx="200.487" cy="4" r="4" fill="#0" id="circle79"/>
	<circle cx="206.573" cy="365.676" r="4" fill="#0" id="circle80"/>
	<circle cx="209.181" cy="4" r="4" fill="#0" id="circle81"/>
	<circle cx="215.267" cy="365.676" r="4" fill="#0" id="circle82"/>
	<circle cx="217.876" cy="4" r="4" fill="#0" id="circle83"/>
	<circle cx="223.961" cy="365.676" r="4" fill="#0" id="circle84"/>
	<circle cx="226.57" cy="4" r="4" fill="#0" id="circle85"/>
	<circle cx="232.656" cy="365.676" r="4" fill="#0" id="circle86"/>
	<circle cx="235.264" cy="6.60824" r="4" fill="#0" id="circle87"/>
	<circle cx="241.35" cy="369.153" r="4" fill="#0" id="circle88"/>
	<circle cx="243.089" cy="10.9553" r="4" fill="#0" id="circle89"/>
	<circle cx="248.305" cy="374.37" r="4" fill="#0" id="circle90"/>
	<circle cx="250.044" cy="17.0412" r="4" fill="#0" id="circle91"/>
	<circle cx="256.13" cy="378.717" r="4" fill="#0" id="circle92"/>
	<circle cx="257.869" cy="21.3883" r="4" fill="#0" id="circle93"/>
	<circle cx="263.954" cy="383.064" r="4" fill="#0" id="circle94"/>
	<circle cx="264.824" cy="27.4741" r="4" fill="#0" id="circle95"/>
	<circle cx="270.04" cy="390.019" r="4" fill="#0" id="circle96"/>
	<circle cx="272.649" cy="31.8212" r="4" fill="#0" id="circle97"/>
	<circle cx="278.734" cy="38.7765" r="4" fill="#0" id="circle98"/>
	<circle cx="278.734" cy="393.497" r="4" fill="#0" id="circle99"/>
	<circle cx="283.082" cy="46.6012" r="4" fill="#0" id="circle100"/>
	<circle cx="286.559" cy="397.844" r="4" fill="#0" id="circle101"/>
	<circle cx="291.776" cy="47.4706" r="4" fill="#0" id="circle102"/>
	<circle cx="295.253" cy="400.452" r="4" fill="#0" id="circle103"/>
	<circle cx="299.6" cy="51.8177" r="4" fill="#0" id="circle104"/>
	<circle cx="303.947" cy="400.452" r="4" fill="#0" id="circle105"/>
	<circle cx="307.425" cy="56.1648" r="4" fill="#0" id="circle106"/>
	<circle cx="311.772" cy="404.799" r="4" fill="#0" id="circle107"/>
	<circle cx="315.25" cy="60.5118" r="4" fill="#0" id="circle108"/>
	<circle cx="319.597" cy="409.146" r="4" fill="#0" id="circle109"/>
	<circle cx="323.944" cy="60.5118" r="4" fill="#0" id="circle110"/>
	<circle cx="327.422" cy="413.493" r="4" fill="#0" id="circle111"/>
	<circle cx="331.769" cy="64.8589" r="4" fill="#0" id="circle112"/>
	<circle cx="335.246" cy="417.84" r="4" fill="#0" id="circle113"/>
	<circle cx="338.724" cy="70.9448" r="4" fill="#0" id="circle114"/>
	<circle cx="343.071" cy="422.188" r="4" fill="#0" id="circle115"/>
	<circle cx="343.94" cy="77.9001" r="4" fill="#0" id="circle116"/>
	<circle cx="350.896" cy="426.535" r="4" fill="#0" id="circle117"/>
	<circle cx="351.765" cy="82.2472" r="4" fill="#0" id="circle118"/>
	<circle cx="358.72" cy="87.4636" r="4" fill="#0" id="circle119"/>
	<circle cx="358.72" cy="430.882" r="4" fill="#0" id="circle120"/>
	<circle cx="366.545" cy="435.229" r="4" fill="#0" id="circle121"/>
	<circle cx="367.415" cy="90.9413" r="4" fill="#0" id="circle122"/>
	<circle cx="374.37" cy="439.576" r="4" fill="#0" id="circle123"/>
	<circle cx="376.109" cy="90.9413" r="4" fill="#0" id="circle124"/>
	<circle cx="383.064" cy="439.576" r="4" fill="#0" id="circle125"/>
	<circle cx="384.803" cy="90.9413" r="4" fill="#0" id="circle126"/>
	<circle cx="391.758" cy="435.229" r="4" fill="#0" id="circle127"/>
	<circle cx="393.497" cy="86.5942" r="4" fill="#0" id="circle128"/>
	<circle cx="400.452" cy="435.229" r="4" fill="#0" id="circle129"/>
	<circle cx="402.191" cy="86.5942" r="4" fill="#0" id="circle130"/>
	<circle cx="408.277" cy="430.882" r="4" fill="#0" id="circle131"/>
	<circle cx="410.885" cy="86.5942" r="4" fill="#0" id="circle132"/>
	<circle cx="416.971" cy="428.273" r="4" fill="#0" id="circle133"/>
	<circle cx="418.71" cy="82.2472" r="4" fill="#0" id="circle134"/>
	<circle cx="425.665" cy="426.535" r="4" fill="#0" id="circle135"/>
	<circle cx="427.404" cy="82.2472" r="4" fill="#0" id="circle136"/>
	<circle cx="434.359" cy="426.535" r="4" fill="#0" id="circle137"/>
	<circle cx="436.098" cy="78.7695" r="4" fill="#0" id="circle138"/>
	<circle cx="442.184" cy="422.188" r="4" fill="#0" id="circle139"/>
	<circle cx="444.792" cy="77.9001" r="4" fill="#0" id="circle140"/>
	<circle cx="450.878" cy="422.188" r="4" fill="#0" id="circle141"/>
	<circle cx="453.486" cy="77.9001" r="4" fill="#0" id="circle142"/>
	<circle cx="458.703" cy="417.84" r="4" fill="#0" id="circle143"/>
	<circle cx="462.181" cy="74.4224" r="4" fill="#0" id="circle144"/>
	<circle cx="467.397" cy="417.84" r="4" fill="#0" id="circle145"/>
	<circle cx="470.875" cy="73.553" r="4" fill="#0" id="circle146"/>
	<circle cx="476.091" cy="417.84" r="4" fill="#0" id="circle147"/>
	<circle cx="479.569" cy="73.553" r="4" fill="#0" id="circle148"/>
	<circle cx="484.785" cy="417.84" r="4" fill="#0" id="circle149"/>
	<circle cx="488.263" cy="73.553" r="4" fill="#0" id="circle150"/>
	<circle cx="493.479" cy="417.84" r="4" fill="#0" id="circle151"/>
	<circle cx="496.088" cy="69.206" r="4" fill="#0" id="circle152"/>
	<circle cx="502.174" cy="417.84" r="4" fill="#0" id="circle153"/>
	<circle cx="504.782" cy="69.206" r="4" fill="#0" id="circle154"/>
	<circle cx="510.868" cy="417.84" r="4" fill="#0" id="circle155"/>
	<circle cx="513.476" cy="66.5977" r="4" fill="#0" id="circle156"/>
	<circle cx="519.562" cy="417.84" r="4" fill="#0" id="circle157"/>
	<circle cx="522.17" cy="64.8589" r="4" fill="#0" id="circle158"/>
	<circle cx="528.256" cy="417.84" r="4" fill="#0" id="circle159"/>
	<circle cx="530.864" cy="64.8589" r="4" fill="#0" id="circle160"/>
	<circle cx="536.95" cy="417.84" r="4" fill="#0" id="circle161"/>
	<circle cx="538.689" cy="60.5118" r="4" fill="#0" id="circle162"/>
	<circle cx="545.644" cy="417.84" r="4" fill="#0" id="circle163"/>
	<circle cx="547.383" cy="60.5118" r="4" fill="#0" id="circle164"/>
	<circle cx="554.338" cy="416.971" r="4" fill="#0" id="circle165"/>
	<circle cx="556.077" cy="58.773" r="4" fill="#0" id="circle166"/>
	<circle cx="563.032" cy="413.493" r="4" fill="#0" id="circle167"/>
	<circle cx="564.771" cy="56.1648" r="4" fill="#0" id="circle168"/>
	<circle cx="571.727" cy="413.493" r="4" fill="#0" id="circle169"/>
	<circle cx="573.465" cy="56.1648" r="4" fill="#0" id="circle170"/>
	<circle cx="580.421" cy="413.493" r="4" fill="#0" id="circle171"/>
	<circle cx="581.29" cy="51.8177" r="4" fill="#0" id="circle172"/>
	<circle cx="589.115" cy="413.493" r="4" fill="#0" id="circle173"/>
	<circle cx="589.984" cy="51.8177" r="4" fill="#0" id="circle174"/>
	<circle cx="597.809" cy="413.493" r="4" fill="#0" id="circle175"/>
	<circle cx="598.678" cy="51.8177" r="4" fill="#0" id="circle176"/>
	<circle cx="606.503" cy="47.4706" r="4" fill="#0" id="circle177"/>
	<circle cx="606.503" cy="413.493" r="4" fill="#0" id="circle178"/>
	<circle cx="615.197" cy="47.4706" r="4" fill="#0" id="circle179"/>
	<circle cx="615.197" cy="412.624" r="4" fill="#0" id="circle180"/>
	<circle cx="623.891" cy="43.1236" r="4" fill="#0" id="circle181"/>
	<circle cx="623.891" cy="409.146" r="4" fill="#0" id="circle182"/>
	<circle cx="631.716" cy="404.799" r="4" fill="#0" id="circle183"/>
	<circle cx="632.585" cy="43.1236" r="4" fill="#0" id="circle184"/>
	<circle cx="640.41" cy="38.7765" r="4" fill="#0" id="circle185"/>
	<circle cx="640.41" cy="404.799" r="4" fill="#0" id="circle186"/>
	<circle cx="649.104" cy="35.2989" r="4" fill="#0" id="circle187"/>
	<circle cx="649.104" cy="404.799" r="4" fill="#0" id="circle188"/>
	<circle cx="657.798" cy="34.4294" r="4" fill="#0" id="circle189"/>
	<circle cx="657.798" cy="404.799" r="4" fill="#0" id="circle190"/>
	<circle cx="665.623" cy="30.0824" r="4" fill="#0" id="circle191"/>
	<circle cx="666.493" cy="404.799" r="4" fill="#0" id="circle192"/>
	<circle cx="673.448" cy="25.7353" r="4" fill="#0" id="circle193"/>
	<circle cx="675.187" cy="404.799" r="4" fill="#0" id="circle194"/>
	<circle cx="682.142" cy="25.7353" r="4" fill="#0" id="circle195"/>
	<circle cx="683.881" cy="404.799" r="4" fill="#0" id="circle196"/>
	<circle cx="689.967" cy="30.0824" r="4" fill="#0" id="circle197"/>
	<circle cx="691.706" cy="409.146" r="4" fill="#0" id="circle198"/>
	<circle cx="697.791" cy="34.4294" r="4" fill="#0" id="circle199"/>
	<circle cx="699.53" cy="413.493" r="4" fill="#0" id="circle200"/>
	<circle cx="703.877" cy="41.3848" r="4" fill="#0" id="circle201"/>
	<circle cx="707.355" cy="417.84" r="4" fill="#0" id="circle202"/>
	<circle cx="710.833" cy="47.4706" r="4" fill="#0" id="circle203"/>
	<circle cx="715.18" cy="422.188" r="4" fill="#0" id="circle204"/>
	<circle cx="718.657" cy="51.8177" r="4" fill="#0" id="circle205"/>
	<circle cx="723.004" cy="426.535" r="4" fill="#0" id="circle206"/>
	<circle cx="725.613" cy="57.9036" r="4" fill="#0" id="circle207"/>
	<circle cx="729.96" cy="431.751" r="4" fill="#0" id="circle208"/>
	<circle cx="733.437" cy="62.2507" r="4" fill="#0" id="circle209"/>
	<circle cx="736.046" cy="438.706" r="4" fill="#0" id="circle210"/>
	<circle cx="742.131" cy="65.7283" r="4" fill="#0" id="circle211"/>
	<circle cx="744.74" cy="442.184" r="4" fill="#0" id="circle212"/>
	<circle cx="748.217" cy="72.6836" r="4" fill="#0" id="circle213"/>
	<circle cx="753.434" cy="443.923" r="4" fill="#0" id="circle214"/>
	<circle cx="755.173" cy="78.7695" r="4" fill="#0" id="circle215"/>
	<circle cx="761.259" cy="448.27" r="4" fill="#0" id="circle216"/>
	<circle cx="762.997" cy="83.1166" r="4" fill="#0" id="circle217"/>
	<circle cx="769.083" cy="452.617" r="4" fill="#0" id="circle218"/>
	<circle cx="769.953" cy="89.2025" r="4" fill="#0" id="circle219"/>
	<circle cx="773.43" cy="97.8966" r="4" fill="#0" id="circle220"/>
	<circle cx="777.777" cy="452.617" r="4" fill="#0" id="circle221"/>
	<circle cx="780.386" cy="103.982" r="4" fill="#0" id="circle222"/>
	<circle cx="785.602" cy="456.964" r="4" fill="#0" id="circle223"/>
	<circle cx="786.472" cy="110.938" r="4" fill="#0" id="circle224"/>
	<circle cx="793.427" cy="117.024" r="4" fill="#0" id="circle225"/>
	<circle cx="794.296" cy="456.964" r="4" fill="#0" id="circle226"/>
	<circle cx="802.121" cy="117.024" r="4" fill="#0" id="circle227"/>
	<circle cx="802.99" cy="456.964" r="4" fill="#0" id="circle228"/>
	<circle cx="810.815" cy="117.024" r="4" fill="#0" id="circle229"/>
	<circle cx="810.815" cy="452.617" r="4" fill="#0" id="circle230"/>
	<circle cx="818.64" cy="448.27" r="4" fill="#0" id="circle231"/>
	<circle cx="819.509" cy="117.024" r="4" fill="#0" id="circle232"/>
	<circle cx="827.334" cy="112.677" r="4" fill="#0" id="circle233"/>
	<circle cx="827.334" cy="448.27" r="4" fill="#0" id="circle234"/>
	<circle cx="836.028" cy="112.677" r="4" fill="#0" id="circle235"/>
	<circle cx="836.028" cy="448.27" r="4" fill="#0" id="circle236"/>
	<circle cx="843.853" cy="443.923" r="4" fill="#0" id="circle237"/>
	<circle cx="844.722" cy="112.677" r="4" fill="#0" id="circle238"/>
	<circle cx="852.547" cy="443.923" r="4" fill="#0" id="circle239"/>
	<circle cx="853.416" cy="112.677" r="4" fill="#0" id="circle240"/>
	<circle cx="860.372" cy="439.576" r="4" fill="#0" id="circle241"/>
	<circle cx="861.241" cy="108.33" r="4" fill="#0" id="circle242"/>
	<circle cx="869.066" cy="436.968" r="4" fill="#0" id="circle243"/>
	<circle cx="869.935" cy="108.33" r="4" fill="#0" id="circle244"/>
	<circle cx="877.76" cy="435.229" r="4" fill="#0" id="circle245"/>
	<circle cx="878.629" cy="108.33" r="4" fill="#0" id="circle246"/>
	<circle cx="885.585" cy="430.882" r="4" fill="#0" id="circle247"/>
	<circle cx="887.323" cy="108.33" r="4" fill="#0" id="circle248"/>
	<circle cx="894.279" cy="429.143" r="4" fill="#0" id="circle249"/>
	<circle cx="895.148" cy="103.982" r="4" fill="#0" id="circle250"/>
	<circle cx="902.973" cy="426.535" r="4" fill="#0" id="circle251"/>
	<circle cx="903.842" cy="103.982" r="4" fill="#0" id="circle252"/>
	<circle cx="909.059" cy="330.899" r="4" fill="#0" id="circle253"/>
	<circle cx="910.798" cy="339.593" r="4" fill="#0" id="circle254"/>
	<circle cx="911.667" cy="99.6354" r="4" fill="#0" id="circle255"/>
	<circle cx="911.667" cy="426.535" r="4" fill="#0" id="circle256"/>
	<circle cx="913.406" cy="348.287" r="4" fill="#0" id="circle257"/>
	<circle cx="916.014" cy="324.813" r="4" fill="#0" id="circle258"/>
	<circle cx="917.753" cy="356.112" r="4" fill="#0" id="circle259"/>
	<circle cx="917.753" cy="364.806" r="4" fill="#0" id="circle260"/>
	<circle cx="919.492" cy="422.188" r="4" fill="#0" id="circle261"/>
	<circle cx="920.361" cy="99.6354" r="4" fill="#0" id="circle262"/>
	<circle cx="922.1" cy="317.858" r="4" fill="#0" id="circle263"/>
	<circle cx="924.708" cy="370.023" r="4" fill="#0" id="circle264"/>
	<circle cx="928.186" cy="378.717" r="4" fill="#0" id="circle265"/>
	<circle cx="928.186" cy="422.188" r="4" fill="#0" id="circle266"/>
	<circle cx="929.055" cy="99.6354" r="4" fill="#0" id="circle267"/>
	<circle cx="929.055" cy="311.772" r="4" fill="#0" id="circle268"/>
	<circle cx="930.794" cy="387.411" r="4" fill="#0" id="circle269"/>
	<circle cx="935.141" cy="304.817" r="4" fill="#0" id="circle270"/>
	<circle cx="935.141" cy="395.236" r="4" fill="#0" id="circle271"/>
	<circle cx="936.88" cy="421.318" r="4" fill="#0" id="circle272"/>
	<circle cx="937.749" cy="99.6354" r="4" fill="#0" id="circle273"/>
	<circle cx="939.488" cy="403.06" r="4" fill="#0" id="circle274"/>
	<circle cx="941.227" cy="412.624" r="4" fill="#0" id="circle275"/>
	<circle cx="942.096" cy="298.731" r="4" fill="#0" id="circle276"/>
	<circle cx="945.574" cy="95.2883" r="4" fill="#0" id="circle277"/>
	<circle cx="948.182" cy="291.776" r="4" fill="#0" id="circle278"/>
	<circle cx="954.268" cy="95.2883" r="4" fill="#0" id="circle279"/>
	<circle cx="955.138" cy="285.69" r="4" fill="#0" id="circle280"/>
	<circle cx="961.223" cy="274.387" r="4" fill="#0" id="circle281"/>
	<circle cx="962.093" cy="90.9413" r="4" fill="#0" id="circle282"/>
	<circle cx="965.571" cy="265.693" r="4" fill="#0" id="circle283"/>
	<circle cx="969.918" cy="256.999" r="4" fill="#0" id="circle284"/>
	<circle cx="970.787" cy="90.9413" r="4" fill="#0" id="circle285"/>
	<circle cx="974.265" cy="99.6354" r="4" fill="#0" id="circle286"/>
	<circle cx="974.265" cy="248.305" r="4" fill="#0" id="circle287"/>
	<circle cx="978.612" cy="107.46" r="4" fill="#0" id="circle288"/>
	<circle cx="978.612" cy="239.611" r="4" fill="#0" id="circle289"/>
	<circle cx="982.959" cy="115.285" r="4" fill="#0" id="circle290"/>
	<circle cx="982.959" cy="123.979" r="4" fill="#0" id="circle291"/>
	<circle cx="982.959" cy="230.917" r="4" fill="#0" id="circle292"/>
	<circle cx="986.436" cy="132.673" r="4" fill="#0" id="circle293"/>
	<circle cx="987.306" cy="141.367" r="4" fill="#0" id="circle294"/>
	<circle cx="987.306" cy="150.061" r="4" fill="#0" id="circle295"/>
	<circle cx="987.306" cy="222.223" r="4" fill="#0" id="circle296"/>
	<circle cx="991.653" cy="157.886" r="4" fill="#0" id="circle297"/>
	<circle cx="991.653" cy="166.58" r="4" fill="#0" id="circle298"/>
	<circle cx="991.653" cy="213.528" r="4" fill="#0" id="circle299"/>
	<circle cx="994.261" cy="175.274" r="4" fill="#0" id="circle300"/>
	<circle cx="996" cy="183.968" r="4" fill="#0" id="circle301"/>
	<circle cx="996" cy="192.663" r="4" fill="#0" id="circle302"/>
	<circle cx="996" cy="201.357" r="4" fill="#0" id="circle303"/>
	</g>
</svg>