<?xml version="1.0" encoding="UTF-8" standalone="no"?>
<!-- Created with CurveBenchmark -->
<svg
	xmlns:dc="http://purl.org/dc/elements/1.1/"
	xmlns:cc="http://creativecommons.org/ns#"
	xmlns:rdf="http://www.w3.org/1999/02/22-rdf-syntax-ns#"
	xmlns:svg="http://www.w3.org/2000/svg"
	xmlns="http://www.w3.org/2000/svg"
	xmlns:sodipodi="http://sodipodi.sourceforge.net/DTD/sodipodi-0.dtd"
	xmlns:inkscape="http://www.inkscape.org/namespaces/inkscape"
	width="1000"
	height="1000"
	id="svg2"
	version="1.1"
	sodipodi:docname="manifold/fitconnect-tree-1.png.txt">
<defs
	id="defs4" />
<metadata
	id="metadata7">
	<rdf:RDF>
		<cc:Work
			rdf:about="">
			<dc:format>image/svg+xml</dc:format>
			<dc:type
				rdf:resource="http://purl.org/dc/dcmitype/StillImage" />
			<dc:title></dc:title>
		</cc:Work>
	</rdf:RDF>
</metadata>
<g
	inkscape:label="Layer 1"
	inkscape:groupmode="layer"
	id="layer1">
	<path style="fill:none;stroke:red;stroke-width:1px;stroke-linecap:butt;stroke-linejoin:miter;stroke-opacity:1" d="M 4,633.986 4,644.098 z" id="boundary" inkscape:connector-curvature="0" />
	<path style="fill:none;stroke:red;stroke-width:1px;stroke-linecap:butt;stroke-linejoin:miter;stroke-opacity:1" d="M 4,633.986 12.0897,625.896 z" id="boundary" inkscape:connector-curvature="0" />
	<path style="fill:none;stroke:red;stroke-width:1px;stroke-linecap:butt;stroke-linejoin:miter;stroke-opacity:1" d="M 4,644.098 12.0897,651.176 z" id="boundary" inkscape:connector-curvature="0" />
	<path style="fill:none;stroke:red;stroke-width:1px;stroke-linecap:butt;stroke-linejoin:miter;stroke-opacity:1" d="M 12.0897,625.896 20.1794,617.806 z" id="boundary" inkscape:connector-curvature="0" />
	<path style="fill:none;stroke:red;stroke-width:1px;stroke-linecap:butt;stroke-linejoin:miter;stroke-opacity:1" d="M 12.0897,651.176 19.1682,659.266 z" id="boundary" inkscape:connector-curvature="0" />
	<path style="fill:none;stroke:red;stroke-width:1px;stroke-linecap:butt;stroke-linejoin:miter;stroke-opacity:1" d="M 19.1682,659.266 29.2803,662.3 z" id="boundary" inkscape:connector-curvature="0" />
	<path style="fill:none;stroke:red;stroke-width:1px;stroke-linecap:butt;stroke-linejoin:miter;stroke-opacity:1" d="M 20.1794,617.806 28.2691,610.728 z" id="boundary" inkscape:connector-curvature="0" />
	<path style="fill:none;stroke:red;stroke-width:1px;stroke-linecap:butt;stroke-linejoin:miter;stroke-opacity:1" d="M 28.2691,610.728 35.3476,602.638 z" id="boundary" inkscape:connector-curvature="0" />
	<path style="fill:none;stroke:red;stroke-width:1px;stroke-linecap:butt;stroke-linejoin:miter;stroke-opacity:1" d="M 29.2803,662.3 39.3925,662.3 z" id="boundary" inkscape:connector-curvature="0" />
	<path style="fill:none;stroke:red;stroke-width:1px;stroke-linecap:butt;stroke-linejoin:miter;stroke-opacity:1" d="M 35.3476,602.638 43.4373,595.56 z" id="boundary" inkscape:connector-curvature="0" />
	<path style="fill:none;stroke:red;stroke-width:1px;stroke-linecap:butt;stroke-linejoin:miter;stroke-opacity:1" d="M 39.3925,662.3 49.5046,662.3 z" id="boundary" inkscape:connector-curvature="0" />
	<path style="fill:none;stroke:red;stroke-width:1px;stroke-linecap:butt;stroke-linejoin:miter;stroke-opacity:1" d="M 43.4373,595.56 50.5158,587.47 z" id="boundary" inkscape:connector-curvature="0" />
	<path style="fill:none;stroke:red;stroke-width:1px;stroke-linecap:butt;stroke-linejoin:miter;stroke-opacity:1" d="M 49.5046,662.3 59.6167,659.266 z" id="boundary" inkscape:connector-curvature="0" />
	<path style="fill:none;stroke:red;stroke-width:1px;stroke-linecap:butt;stroke-linejoin:miter;stroke-opacity:1" d="M 50.5158,587.47 55.5719,577.358 z" id="boundary" inkscape:connector-curvature="0" />
	<path style="fill:none;stroke:red;stroke-width:1px;stroke-linecap:butt;stroke-linejoin:miter;stroke-opacity:1" d="M 55.5719,577.358 63.6616,570.279 z" id="boundary" inkscape:connector-curvature="0" />
	<path style="fill:none;stroke:red;stroke-width:1px;stroke-linecap:butt;stroke-linejoin:miter;stroke-opacity:1" d="M 59.6167,659.266 69.7288,657.244 z" id="boundary" inkscape:connector-curvature="0" />
	<path style="fill:none;stroke:red;stroke-width:1px;stroke-linecap:butt;stroke-linejoin:miter;stroke-opacity:1" d="M 63.6616,570.279 69.7288,558.145 z" id="boundary" inkscape:connector-curvature="0" />
	<path style="fill:none;stroke:red;stroke-width:1px;stroke-linecap:butt;stroke-linejoin:miter;stroke-opacity:1" d="M 69.7288,558.145 77.8186,550.055 z" id="boundary" inkscape:connector-curvature="0" />
	<path style="fill:none;stroke:red;stroke-width:1px;stroke-linecap:butt;stroke-linejoin:miter;stroke-opacity:1" d="M 69.7288,657.244 79.841,657.244 z" id="boundary" inkscape:connector-curvature="0" />
	<path style="fill:none;stroke:red;stroke-width:1px;stroke-linecap:butt;stroke-linejoin:miter;stroke-opacity:1" d="M 77.8186,550.055 84.897,537.92 z" id="boundary" inkscape:connector-curvature="0" />
	<path style="fill:none;stroke:red;stroke-width:1px;stroke-linecap:butt;stroke-linejoin:miter;stroke-opacity:1" d="M 79.841,657.244 89.9531,657.244 z" id="boundary" inkscape:connector-curvature="0" />
	<path style="fill:none;stroke:red;stroke-width:1px;stroke-linecap:butt;stroke-linejoin:miter;stroke-opacity:1" d="M 84.897,537.92 92.9867,529.831 z" id="boundary" inkscape:connector-curvature="0" />
	<path style="fill:none;stroke:red;stroke-width:1px;stroke-linecap:butt;stroke-linejoin:miter;stroke-opacity:1" d="M 89.9531,657.244 100.065,657.244 z" id="boundary" inkscape:connector-curvature="0" />
	<path style="fill:none;stroke:red;stroke-width:1px;stroke-linecap:butt;stroke-linejoin:miter;stroke-opacity:1" d="M 92.9867,529.831 98.0428,519.719 z" id="boundary" inkscape:connector-curvature="0" />
	<path style="fill:none;stroke:red;stroke-width:1px;stroke-linecap:butt;stroke-linejoin:miter;stroke-opacity:1" d="M 98.0428,519.719 105.121,507.584 z" id="boundary" inkscape:connector-curvature="0" />
	<path style="fill:none;stroke:red;stroke-width:1px;stroke-linecap:butt;stroke-linejoin:miter;stroke-opacity:1" d="M 100.065,376.126 100.065,386.239 z" id="boundary" inkscape:connector-curvature="0" />
	<path style="fill:none;stroke:red;stroke-width:1px;stroke-linecap:butt;stroke-linejoin:miter;stroke-opacity:1" d="M 100.065,376.126 108.155,368.037 z" id="boundary" inkscape:connector-curvature="0" />
	<path style="fill:none;stroke:red;stroke-width:1px;stroke-linecap:butt;stroke-linejoin:miter;stroke-opacity:1" d="M 100.065,386.239 108.155,393.317 z" id="boundary" inkscape:connector-curvature="0" />
	<path style="fill:none;stroke:red;stroke-width:1px;stroke-linecap:butt;stroke-linejoin:miter;stroke-opacity:1" d="M 100.065,657.244 110.177,657.244 z" id="boundary" inkscape:connector-curvature="0" />
	<path style="fill:none;stroke:red;stroke-width:1px;stroke-linecap:butt;stroke-linejoin:miter;stroke-opacity:1" d="M 105.121,507.584 113.211,499.494 z" id="boundary" inkscape:connector-curvature="0" />
	<path style="fill:none;stroke:red;stroke-width:1px;stroke-linecap:butt;stroke-linejoin:miter;stroke-opacity:1" d="M 108.155,368.037 116.245,359.947 z" id="boundary" inkscape:connector-curvature="0" />
	<path style="fill:none;stroke:red;stroke-width:1px;stroke-linecap:butt;stroke-linejoin:miter;stroke-opacity:1" d="M 108.155,393.317 116.245,399.384 z" id="boundary" inkscape:connector-curvature="0" />
	<path style="fill:none;stroke:red;stroke-width:1px;stroke-linecap:butt;stroke-linejoin:miter;stroke-opacity:1" d="M 110.177,657.244 120.29,657.244 z" id="boundary" inkscape:connector-curvature="0" />
	<path style="fill:none;stroke:red;stroke-width:1px;stroke-linecap:butt;stroke-linejoin:miter;stroke-opacity:1" d="M 113.211,499.494 118.267,489.382 z" id="boundary" inkscape:connector-curvature="0" />
	<path style="fill:none;stroke:red;stroke-width:1px;stroke-linecap:butt;stroke-linejoin:miter;stroke-opacity:1" d="M 116.245,359.947 124.334,352.869 z" id="boundary" inkscape:connector-curvature="0" />
	<path style="fill:none;stroke:red;stroke-width:1px;stroke-linecap:butt;stroke-linejoin:miter;stroke-opacity:1" d="M 116.245,399.384 126.357,399.384 z" id="boundary" inkscape:connector-curvature="0" />
	<path style="fill:none;stroke:red;stroke-width:1px;stroke-linecap:butt;stroke-linejoin:miter;stroke-opacity:1" d="M 118.267,489.382 123.323,479.27 z" id="boundary" inkscape:connector-curvature="0" />
	<path style="fill:none;stroke:red;stroke-width:1px;stroke-linecap:butt;stroke-linejoin:miter;stroke-opacity:1" d="M 120.29,657.244 130.402,657.244 z" id="boundary" inkscape:connector-curvature="0" />
	<path style="fill:none;stroke:red;stroke-width:1px;stroke-linecap:butt;stroke-linejoin:miter;stroke-opacity:1" d="M 123.323,479.27 128.379,469.158 z" id="boundary" inkscape:connector-curvature="0" />
	<path style="fill:none;stroke:red;stroke-width:1px;stroke-linecap:butt;stroke-linejoin:miter;stroke-opacity:1" d="M 124.334,352.869 125.346,340.734 z" id="boundary" inkscape:connector-curvature="0" />
	<path style="fill:none;stroke:red;stroke-width:1px;stroke-linecap:butt;stroke-linejoin:miter;stroke-opacity:1" d="M 125.346,340.734 133.435,332.644 z" id="boundary" inkscape:connector-curvature="0" />
	<path style="fill:none;stroke:red;stroke-width:1px;stroke-linecap:butt;stroke-linejoin:miter;stroke-opacity:1" d="M 126.357,399.384 136.469,399.384 z" id="boundary" inkscape:connector-curvature="0" />
	<path style="fill:none;stroke:red;stroke-width:1px;stroke-linecap:butt;stroke-linejoin:miter;stroke-opacity:1" d="M 128.379,469.158 135.458,457.023 z" id="boundary" inkscape:connector-curvature="0" />
	<path style="fill:none;stroke:red;stroke-width:1px;stroke-linecap:butt;stroke-linejoin:miter;stroke-opacity:1" d="M 130.402,657.244 140.514,657.244 z" id="boundary" inkscape:connector-curvature="0" />
	<path style="fill:none;stroke:red;stroke-width:1px;stroke-linecap:butt;stroke-linejoin:miter;stroke-opacity:1" d="M 133.435,332.644 142.536,327.588 z" id="boundary" inkscape:connector-curvature="0" />
	<path style="fill:none;stroke:red;stroke-width:1px;stroke-linecap:butt;stroke-linejoin:miter;stroke-opacity:1" d="M 135.458,457.023 143.547,448.934 z" id="boundary" inkscape:connector-curvature="0" />
	<path style="fill:none;stroke:red;stroke-width:1px;stroke-linecap:butt;stroke-linejoin:miter;stroke-opacity:1" d="M 136.469,399.384 146.581,399.384 z" id="boundary" inkscape:connector-curvature="0" />
	<path style="fill:none;stroke:red;stroke-width:1px;stroke-linecap:butt;stroke-linejoin:miter;stroke-opacity:1" d="M 140.514,657.244 150.626,657.244 z" id="boundary" inkscape:connector-curvature="0" />
	<path style="fill:none;stroke:red;stroke-width:1px;stroke-linecap:butt;stroke-linejoin:miter;stroke-opacity:1" d="M 142.536,327.588 150.626,315.454 z" id="boundary" inkscape:connector-curvature="0" />
	<path style="fill:none;stroke:red;stroke-width:1px;stroke-linecap:butt;stroke-linejoin:miter;stroke-opacity:1" d="M 143.547,448.934 145.57,436.799 z" id="boundary" inkscape:connector-curvature="0" />
	<path style="fill:none;stroke:red;stroke-width:1px;stroke-linecap:butt;stroke-linejoin:miter;stroke-opacity:1" d="M 145.57,436.799 150.626,426.687 z" id="boundary" inkscape:connector-curvature="0" />
	<path style="fill:none;stroke:red;stroke-width:1px;stroke-linecap:butt;stroke-linejoin:miter;stroke-opacity:1" d="M 146.581,399.384 155.682,394.328 z" id="boundary" inkscape:connector-curvature="0" />
	<path style="fill:none;stroke:red;stroke-width:1px;stroke-linecap:butt;stroke-linejoin:miter;stroke-opacity:1" d="M 150.626,315.454 158.716,307.364 z" id="boundary" inkscape:connector-curvature="0" />
	<path style="fill:none;stroke:red;stroke-width:1px;stroke-linecap:butt;stroke-linejoin:miter;stroke-opacity:1" d="M 150.626,426.687 158.716,418.597 z" id="boundary" inkscape:connector-curvature="0" />
	<path style="fill:none;stroke:red;stroke-width:1px;stroke-linecap:butt;stroke-linejoin:miter;stroke-opacity:1" d="M 150.626,657.244 159.727,662.3 z" id="boundary" inkscape:connector-curvature="0" />
	<path style="fill:none;stroke:red;stroke-width:1px;stroke-linecap:butt;stroke-linejoin:miter;stroke-opacity:1" d="M 155.682,394.328 165.794,394.328 z" id="boundary" inkscape:connector-curvature="0" />
	<path style="fill:none;stroke:red;stroke-width:1px;stroke-linecap:butt;stroke-linejoin:miter;stroke-opacity:1" d="M 158.716,307.364 165.794,295.229 z" id="boundary" inkscape:connector-curvature="0" />
	<path style="fill:none;stroke:red;stroke-width:1px;stroke-linecap:butt;stroke-linejoin:miter;stroke-opacity:1" d="M 158.716,418.597 163.772,408.485 z" id="boundary" inkscape:connector-curvature="0" />
	<path style="fill:none;stroke:red;stroke-width:1px;stroke-linecap:butt;stroke-linejoin:miter;stroke-opacity:1" d="M 159.727,662.3 169.839,662.3 z" id="boundary" inkscape:connector-curvature="0" />
	<path style="fill:none;stroke:red;stroke-width:1px;stroke-linecap:butt;stroke-linejoin:miter;stroke-opacity:1" d="M 163.772,408.485 165.794,394.328 z" id="boundary" inkscape:connector-curvature="0" />
	<path style="fill:none;stroke:red;stroke-width:1px;stroke-linecap:butt;stroke-linejoin:miter;stroke-opacity:1" d="M 165.794,189.052 165.794,199.164 z" id="boundary" inkscape:connector-curvature="0" />
	<path style="fill:none;stroke:red;stroke-width:1px;stroke-linecap:butt;stroke-linejoin:miter;stroke-opacity:1" d="M 165.794,189.052 173.884,180.962 z" id="boundary" inkscape:connector-curvature="0" />
	<path style="fill:none;stroke:red;stroke-width:1px;stroke-linecap:butt;stroke-linejoin:miter;stroke-opacity:1" d="M 165.794,199.164 173.884,206.243 z" id="boundary" inkscape:connector-curvature="0" />
	<path style="fill:none;stroke:red;stroke-width:1px;stroke-linecap:butt;stroke-linejoin:miter;stroke-opacity:1" d="M 165.794,295.229 173.884,287.14 z" id="boundary" inkscape:connector-curvature="0" />
	<path style="fill:none;stroke:red;stroke-width:1px;stroke-linecap:butt;stroke-linejoin:miter;stroke-opacity:1" d="M 169.839,662.3 178.94,667.356 z" id="boundary" inkscape:connector-curvature="0" />
	<path style="fill:none;stroke:red;stroke-width:1px;stroke-linecap:butt;stroke-linejoin:miter;stroke-opacity:1" d="M 173.884,180.962 182.985,175.906 z" id="boundary" inkscape:connector-curvature="0" />
	<path style="fill:none;stroke:red;stroke-width:1px;stroke-linecap:butt;stroke-linejoin:miter;stroke-opacity:1" d="M 173.884,206.243 181.973,212.31 z" id="boundary" inkscape:connector-curvature="0" />
	<path style="fill:none;stroke:red;stroke-width:1px;stroke-linecap:butt;stroke-linejoin:miter;stroke-opacity:1" d="M 173.884,287.14 178.94,277.028 z" id="boundary" inkscape:connector-curvature="0" />
	<path style="fill:none;stroke:red;stroke-width:1px;stroke-linecap:butt;stroke-linejoin:miter;stroke-opacity:1" d="M 178.94,277.028 187.03,268.938 z" id="boundary" inkscape:connector-curvature="0" />
	<path style="fill:none;stroke:red;stroke-width:1px;stroke-linecap:butt;stroke-linejoin:miter;stroke-opacity:1" d="M 178.94,667.356 189.052,667.356 z" id="boundary" inkscape:connector-curvature="0" />
	<path style="fill:none;stroke:red;stroke-width:1px;stroke-linecap:butt;stroke-linejoin:miter;stroke-opacity:1" d="M 181.973,212.31 192.086,212.31 z" id="boundary" inkscape:connector-curvature="0" />
	<path style="fill:none;stroke:red;stroke-width:1px;stroke-linecap:butt;stroke-linejoin:miter;stroke-opacity:1" d="M 182.985,175.906 192.086,170.85 z" id="boundary" inkscape:connector-curvature="0" />
	<path style="fill:none;stroke:red;stroke-width:1px;stroke-linecap:butt;stroke-linejoin:miter;stroke-opacity:1" d="M 187.03,268.938 192.086,258.826 z" id="boundary" inkscape:connector-curvature="0" />
	<path style="fill:none;stroke:red;stroke-width:1px;stroke-linecap:butt;stroke-linejoin:miter;stroke-opacity:1" d="M 189.052,667.356 199.164,667.356 z" id="boundary" inkscape:connector-curvature="0" />
	<path style="fill:none;stroke:red;stroke-width:1px;stroke-linecap:butt;stroke-linejoin:miter;stroke-opacity:1" d="M 192.086,170.85 201.187,163.772 z" id="boundary" inkscape:connector-curvature="0" />
	<path style="fill:none;stroke:red;stroke-width:1px;stroke-linecap:butt;stroke-linejoin:miter;stroke-opacity:1" d="M 192.086,212.31 202.198,212.31 z" id="boundary" inkscape:connector-curvature="0" />
	<path style="fill:none;stroke:red;stroke-width:1px;stroke-linecap:butt;stroke-linejoin:miter;stroke-opacity:1" d="M 192.086,258.826 200.175,251.747 z" id="boundary" inkscape:connector-curvature="0" />
	<path style="fill:none;stroke:red;stroke-width:1px;stroke-linecap:butt;stroke-linejoin:miter;stroke-opacity:1" d="M 199.164,667.356 209.276,667.356 z" id="boundary" inkscape:connector-curvature="0" />
	<path style="fill:none;stroke:red;stroke-width:1px;stroke-linecap:butt;stroke-linejoin:miter;stroke-opacity:1" d="M 200.175,251.747 204.22,241.635 z" id="boundary" inkscape:connector-curvature="0" />
	<path style="fill:none;stroke:red;stroke-width:1px;stroke-linecap:butt;stroke-linejoin:miter;stroke-opacity:1" d="M 201.187,163.772 209.276,155.682 z" id="boundary" inkscape:connector-curvature="0" />
	<path style="fill:none;stroke:red;stroke-width:1px;stroke-linecap:butt;stroke-linejoin:miter;stroke-opacity:1" d="M 202.198,212.31 212.31,212.31 z" id="boundary" inkscape:connector-curvature="0" />
	<path style="fill:none;stroke:red;stroke-width:1px;stroke-linecap:butt;stroke-linejoin:miter;stroke-opacity:1" d="M 204.22,241.635 211.299,224.444 z" id="boundary" inkscape:connector-curvature="0" />
	<path style="fill:none;stroke:red;stroke-width:1px;stroke-linecap:butt;stroke-linejoin:miter;stroke-opacity:1" d="M 209.276,155.682 218.377,150.626 z" id="boundary" inkscape:connector-curvature="0" />
	<path style="fill:none;stroke:red;stroke-width:1px;stroke-linecap:butt;stroke-linejoin:miter;stroke-opacity:1" d="M 209.276,667.356 219.388,667.356 z" id="boundary" inkscape:connector-curvature="0" />
	<path style="fill:none;stroke:red;stroke-width:1px;stroke-linecap:butt;stroke-linejoin:miter;stroke-opacity:1" d="M 211.299,224.444 212.31,212.31 z" id="boundary" inkscape:connector-curvature="0" />
	<path style="fill:none;stroke:red;stroke-width:1px;stroke-linecap:butt;stroke-linejoin:miter;stroke-opacity:1" d="M 218.377,150.626 226.467,143.547 z" id="boundary" inkscape:connector-curvature="0" />
	<path style="fill:none;stroke:red;stroke-width:1px;stroke-linecap:butt;stroke-linejoin:miter;stroke-opacity:1" d="M 219.388,667.356 229.501,667.356 z" id="boundary" inkscape:connector-curvature="0" />
	<path style="fill:none;stroke:red;stroke-width:1px;stroke-linecap:butt;stroke-linejoin:miter;stroke-opacity:1" d="M 226.467,143.547 234.557,135.458 z" id="boundary" inkscape:connector-curvature="0" />
	<path style="fill:none;stroke:red;stroke-width:1px;stroke-linecap:butt;stroke-linejoin:miter;stroke-opacity:1" d="M 229.501,667.356 239.613,667.356 z" id="boundary" inkscape:connector-curvature="0" />
	<path style="fill:none;stroke:red;stroke-width:1px;stroke-linecap:butt;stroke-linejoin:miter;stroke-opacity:1" d="M 234.557,135.458 239.613,125.346 z" id="boundary" inkscape:connector-curvature="0" />
	<path style="fill:none;stroke:red;stroke-width:1px;stroke-linecap:butt;stroke-linejoin:miter;stroke-opacity:1" d="M 239.613,125.346 247.702,117.256 z" id="boundary" inkscape:connector-curvature="0" />
	<path style="fill:none;stroke:red;stroke-width:1px;stroke-linecap:butt;stroke-linejoin:miter;stroke-opacity:1" d="M 239.613,667.356 249.725,667.356 z" id="boundary" inkscape:connector-curvature="0" />
	<path style="fill:none;stroke:red;stroke-width:1px;stroke-linecap:butt;stroke-linejoin:miter;stroke-opacity:1" d="M 247.702,117.256 255.792,110.177 z" id="boundary" inkscape:connector-curvature="0" />
	<path style="fill:none;stroke:red;stroke-width:1px;stroke-linecap:butt;stroke-linejoin:miter;stroke-opacity:1" d="M 249.725,667.356 259.837,667.356 z" id="boundary" inkscape:connector-curvature="0" />
	<path style="fill:none;stroke:red;stroke-width:1px;stroke-linecap:butt;stroke-linejoin:miter;stroke-opacity:1" d="M 255.792,110.177 261.859,98.0428 z" id="boundary" inkscape:connector-curvature="0" />
	<path style="fill:none;stroke:red;stroke-width:1px;stroke-linecap:butt;stroke-linejoin:miter;stroke-opacity:1" d="M 259.837,667.356 266.915,675.445 z" id="boundary" inkscape:connector-curvature="0" />
	<path style="fill:none;stroke:red;stroke-width:1px;stroke-linecap:butt;stroke-linejoin:miter;stroke-opacity:1" d="M 261.859,98.0428 266.915,87.9307 z" id="boundary" inkscape:connector-curvature="0" />
	<path style="fill:none;stroke:red;stroke-width:1px;stroke-linecap:butt;stroke-linejoin:miter;stroke-opacity:1" d="M 266.915,87.9307 275.005,79.841 z" id="boundary" inkscape:connector-curvature="0" />
	<path style="fill:none;stroke:red;stroke-width:1px;stroke-linecap:butt;stroke-linejoin:miter;stroke-opacity:1" d="M 266.915,675.445 266.915,685.558 z" id="boundary" inkscape:connector-curvature="0" />
	<path style="fill:none;stroke:red;stroke-width:1px;stroke-linecap:butt;stroke-linejoin:miter;stroke-opacity:1" d="M 266.915,685.558 266.915,695.67 z" id="boundary" inkscape:connector-curvature="0" />
	<path style="fill:none;stroke:red;stroke-width:1px;stroke-linecap:butt;stroke-linejoin:miter;stroke-opacity:1" d="M 266.915,695.67 266.915,705.782 z" id="boundary" inkscape:connector-curvature="0" />
	<path style="fill:none;stroke:red;stroke-width:1px;stroke-linecap:butt;stroke-linejoin:miter;stroke-opacity:1" d="M 266.915,705.782 266.915,715.894 z" id="boundary" inkscape:connector-curvature="0" />
	<path style="fill:none;stroke:red;stroke-width:1px;stroke-linecap:butt;stroke-linejoin:miter;stroke-opacity:1" d="M 266.915,715.894 266.915,726.006 z" id="boundary" inkscape:connector-curvature="0" />
	<path style="fill:none;stroke:red;stroke-width:1px;stroke-linecap:butt;stroke-linejoin:miter;stroke-opacity:1" d="M 266.915,726.006 266.915,736.118 z" id="boundary" inkscape:connector-curvature="0" />
	<path style="fill:none;stroke:red;stroke-width:1px;stroke-linecap:butt;stroke-linejoin:miter;stroke-opacity:1" d="M 266.915,736.118 266.915,746.23 z" id="boundary" inkscape:connector-curvature="0" />
	<path style="fill:none;stroke:red;stroke-width:1px;stroke-linecap:butt;stroke-linejoin:miter;stroke-opacity:1" d="M 266.915,746.23 266.915,756.343 z" id="boundary" inkscape:connector-curvature="0" />
	<path style="fill:none;stroke:red;stroke-width:1px;stroke-linecap:butt;stroke-linejoin:miter;stroke-opacity:1" d="M 266.915,756.343 266.915,766.455 z" id="boundary" inkscape:connector-curvature="0" />
	<path style="fill:none;stroke:red;stroke-width:1px;stroke-linecap:butt;stroke-linejoin:miter;stroke-opacity:1" d="M 266.915,766.455 266.915,776.567 z" id="boundary" inkscape:connector-curvature="0" />
	<path style="fill:none;stroke:red;stroke-width:1px;stroke-linecap:butt;stroke-linejoin:miter;stroke-opacity:1" d="M 266.915,776.567 266.915,786.679 z" id="boundary" inkscape:connector-curvature="0" />
	<path style="fill:none;stroke:red;stroke-width:1px;stroke-linecap:butt;stroke-linejoin:miter;stroke-opacity:1" d="M 266.915,786.679 267.927,796.791 z" id="boundary" inkscape:connector-curvature="0" />
	<path style="fill:none;stroke:red;stroke-width:1px;stroke-linecap:butt;stroke-linejoin:miter;stroke-opacity:1" d="M 267.927,796.791 271.971,806.903 z" id="boundary" inkscape:connector-curvature="0" />
	<path style="fill:none;stroke:red;stroke-width:1px;stroke-linecap:butt;stroke-linejoin:miter;stroke-opacity:1" d="M 271.971,806.903 271.971,817.015 z" id="boundary" inkscape:connector-curvature="0" />
	<path style="fill:none;stroke:red;stroke-width:1px;stroke-linecap:butt;stroke-linejoin:miter;stroke-opacity:1" d="M 271.971,817.015 271.971,827.127 z" id="boundary" inkscape:connector-curvature="0" />
	<path style="fill:none;stroke:red;stroke-width:1px;stroke-linecap:butt;stroke-linejoin:miter;stroke-opacity:1" d="M 271.971,827.127 277.028,836.228 z" id="boundary" inkscape:connector-curvature="0" />
	<path style="fill:none;stroke:red;stroke-width:1px;stroke-linecap:butt;stroke-linejoin:miter;stroke-opacity:1" d="M 275.005,79.841 283.095,71.7513 z" id="boundary" inkscape:connector-curvature="0" />
	<path style="fill:none;stroke:red;stroke-width:1px;stroke-linecap:butt;stroke-linejoin:miter;stroke-opacity:1" d="M 277.028,836.228 277.028,846.34 z" id="boundary" inkscape:connector-curvature="0" />
	<path style="fill:none;stroke:red;stroke-width:1px;stroke-linecap:butt;stroke-linejoin:miter;stroke-opacity:1" d="M 277.028,846.34 277.028,856.453 z" id="boundary" inkscape:connector-curvature="0" />
	<path style="fill:none;stroke:red;stroke-width:1px;stroke-linecap:butt;stroke-linejoin:miter;stroke-opacity:1" d="M 277.028,856.453 277.028,866.565 z" id="boundary" inkscape:connector-curvature="0" />
	<path style="fill:none;stroke:red;stroke-width:1px;stroke-linecap:butt;stroke-linejoin:miter;stroke-opacity:1" d="M 277.028,866.565 277.028,876.677 z" id="boundary" inkscape:connector-curvature="0" />
	<path style="fill:none;stroke:red;stroke-width:1px;stroke-linecap:butt;stroke-linejoin:miter;stroke-opacity:1" d="M 277.028,876.677 277.028,886.789 z" id="boundary" inkscape:connector-curvature="0" />
	<path style="fill:none;stroke:red;stroke-width:1px;stroke-linecap:butt;stroke-linejoin:miter;stroke-opacity:1" d="M 277.028,886.789 277.028,896.901 z" id="boundary" inkscape:connector-curvature="0" />
	<path style="fill:none;stroke:red;stroke-width:1px;stroke-linecap:butt;stroke-linejoin:miter;stroke-opacity:1" d="M 277.028,896.901 277.028,907.013 z" id="boundary" inkscape:connector-curvature="0" />
	<path style="fill:none;stroke:red;stroke-width:1px;stroke-linecap:butt;stroke-linejoin:miter;stroke-opacity:1" d="M 277.028,907.013 277.028,917.125 z" id="boundary" inkscape:connector-curvature="0" />
	<path style="fill:none;stroke:red;stroke-width:1px;stroke-linecap:butt;stroke-linejoin:miter;stroke-opacity:1" d="M 277.028,917.125 277.028,927.238 z" id="boundary" inkscape:connector-curvature="0" />
	<path style="fill:none;stroke:red;stroke-width:1px;stroke-linecap:butt;stroke-linejoin:miter;stroke-opacity:1" d="M 277.028,927.238 277.028,937.35 z" id="boundary" inkscape:connector-curvature="0" />
	<path style="fill:none;stroke:red;stroke-width:1px;stroke-linecap:butt;stroke-linejoin:miter;stroke-opacity:1" d="M 277.028,937.35 282.084,946.451 z" id="boundary" inkscape:connector-curvature="0" />
	<path style="fill:none;stroke:red;stroke-width:1px;stroke-linecap:butt;stroke-linejoin:miter;stroke-opacity:1" d="M 282.084,946.451 282.084,956.563 z" id="boundary" inkscape:connector-curvature="0" />
	<path style="fill:none;stroke:red;stroke-width:1px;stroke-linecap:butt;stroke-linejoin:miter;stroke-opacity:1" d="M 282.084,956.563 282.084,966.675 z" id="boundary" inkscape:connector-curvature="0" />
	<path style="fill:none;stroke:red;stroke-width:1px;stroke-linecap:butt;stroke-linejoin:miter;stroke-opacity:1" d="M 282.084,966.675 287.14,975.776 z" id="boundary" inkscape:connector-curvature="0" />
	<path style="fill:none;stroke:red;stroke-width:1px;stroke-linecap:butt;stroke-linejoin:miter;stroke-opacity:1" d="M 283.095,71.7513 291.185,64.6728 z" id="boundary" inkscape:connector-curvature="0" />
	<path style="fill:none;stroke:red;stroke-width:1px;stroke-linecap:butt;stroke-linejoin:miter;stroke-opacity:1" d="M 287.14,975.776 293.207,983.865 z" id="boundary" inkscape:connector-curvature="0" />
	<path style="fill:none;stroke:red;stroke-width:1px;stroke-linecap:butt;stroke-linejoin:miter;stroke-opacity:1" d="M 291.185,64.6728 295.229,54.5607 z" id="boundary" inkscape:connector-curvature="0" />
	<path style="fill:none;stroke:red;stroke-width:1px;stroke-linecap:butt;stroke-linejoin:miter;stroke-opacity:1" d="M 293.207,983.865 301.297,990.944 z" id="boundary" inkscape:connector-curvature="0" />
	<path style="fill:none;stroke:red;stroke-width:1px;stroke-linecap:butt;stroke-linejoin:miter;stroke-opacity:1" d="M 295.229,54.5607 302.308,42.4261 z" id="boundary" inkscape:connector-curvature="0" />
	<path style="fill:none;stroke:red;stroke-width:1px;stroke-linecap:butt;stroke-linejoin:miter;stroke-opacity:1" d="M 301.297,990.944 311.409,990.944 z" id="boundary" inkscape:connector-curvature="0" />
	<path style="fill:none;stroke:red;stroke-width:1px;stroke-linecap:butt;stroke-linejoin:miter;stroke-opacity:1" d="M 302.308,42.4261 310.398,34.3364 z" id="boundary" inkscape:connector-curvature="0" />
	<path style="fill:none;stroke:red;stroke-width:1px;stroke-linecap:butt;stroke-linejoin:miter;stroke-opacity:1" d="M 310.398,34.3364 317.476,17.1458 z" id="boundary" inkscape:connector-curvature="0" />
	<path style="fill:none;stroke:red;stroke-width:1px;stroke-linecap:butt;stroke-linejoin:miter;stroke-opacity:1" d="M 311.409,990.944 321.521,990.944 z" id="boundary" inkscape:connector-curvature="0" />
	<path style="fill:none;stroke:red;stroke-width:1px;stroke-linecap:butt;stroke-linejoin:miter;stroke-opacity:1" d="M 317.476,17.1458 325.566,9.05607 z" id="boundary" inkscape:connector-curvature="0" />
	<path style="fill:none;stroke:red;stroke-width:1px;stroke-linecap:butt;stroke-linejoin:miter;stroke-opacity:1" d="M 321.521,990.944 331.633,990.944 z" id="boundary" inkscape:connector-curvature="0" />
	<path style="fill:none;stroke:red;stroke-width:1px;stroke-linecap:butt;stroke-linejoin:miter;stroke-opacity:1" d="M 325.566,9.05607 334.667,4 z" id="boundary" inkscape:connector-curvature="0" />
	<path style="fill:none;stroke:red;stroke-width:1px;stroke-linecap:butt;stroke-linejoin:miter;stroke-opacity:1" d="M 331.633,990.944 341.745,990.944 z" id="boundary" inkscape:connector-curvature="0" />
	<path style="fill:none;stroke:red;stroke-width:1px;stroke-linecap:butt;stroke-linejoin:miter;stroke-opacity:1" d="M 334.667,4 343.768,9.05607 z" id="boundary" inkscape:connector-curvature="0" />
	<path style="fill:none;stroke:red;stroke-width:1px;stroke-linecap:butt;stroke-linejoin:miter;stroke-opacity:1" d="M 341.745,990.944 351.857,990.944 z" id="boundary" inkscape:connector-curvature="0" />
	<path style="fill:none;stroke:red;stroke-width:1px;stroke-linecap:butt;stroke-linejoin:miter;stroke-opacity:1" d="M 343.768,9.05607 351.857,15.1233 z" id="boundary" inkscape:connector-curvature="0" />
	<path style="fill:none;stroke:red;stroke-width:1px;stroke-linecap:butt;stroke-linejoin:miter;stroke-opacity:1" d="M 351.857,15.1233 358.936,23.213 z" id="boundary" inkscape:connector-curvature="0" />
	<path style="fill:none;stroke:red;stroke-width:1px;stroke-linecap:butt;stroke-linejoin:miter;stroke-opacity:1" d="M 351.857,990.944 361.969,990.944 z" id="boundary" inkscape:connector-curvature="0" />
	<path style="fill:none;stroke:red;stroke-width:1px;stroke-linecap:butt;stroke-linejoin:miter;stroke-opacity:1" d="M 358.936,23.213 363.992,32.314 z" id="boundary" inkscape:connector-curvature="0" />
	<path style="fill:none;stroke:red;stroke-width:1px;stroke-linecap:butt;stroke-linejoin:miter;stroke-opacity:1" d="M 361.969,990.944 371.07,996 z" id="boundary" inkscape:connector-curvature="0" />
	<path style="fill:none;stroke:red;stroke-width:1px;stroke-linecap:butt;stroke-linejoin:miter;stroke-opacity:1" d="M 363.992,32.314 371.07,40.4037 z" id="boundary" inkscape:connector-curvature="0" />
	<path style="fill:none;stroke:red;stroke-width:1px;stroke-linecap:butt;stroke-linejoin:miter;stroke-opacity:1" d="M 371.07,40.4037 379.16,47.4822 z" id="boundary" inkscape:connector-curvature="0" />
	<path style="fill:none;stroke:red;stroke-width:1px;stroke-linecap:butt;stroke-linejoin:miter;stroke-opacity:1" d="M 371.07,996 381.182,996 z" id="boundary" inkscape:connector-curvature="0" />
	<path style="fill:none;stroke:red;stroke-width:1px;stroke-linecap:butt;stroke-linejoin:miter;stroke-opacity:1" d="M 379.16,47.4822 386.239,55.5719 z" id="boundary" inkscape:connector-curvature="0" />
	<path style="fill:none;stroke:red;stroke-width:1px;stroke-linecap:butt;stroke-linejoin:miter;stroke-opacity:1" d="M 381.182,996 391.295,996 z" id="boundary" inkscape:connector-curvature="0" />
	<path style="fill:none;stroke:red;stroke-width:1px;stroke-linecap:butt;stroke-linejoin:miter;stroke-opacity:1" d="M 386.239,55.5719 394.328,62.6504 z" id="boundary" inkscape:connector-curvature="0" />
	<path style="fill:none;stroke:red;stroke-width:1px;stroke-linecap:butt;stroke-linejoin:miter;stroke-opacity:1" d="M 391.295,996 401.407,996 z" id="boundary" inkscape:connector-curvature="0" />
	<path style="fill:none;stroke:red;stroke-width:1px;stroke-linecap:butt;stroke-linejoin:miter;stroke-opacity:1" d="M 394.328,62.6504 401.407,70.7401 z" id="boundary" inkscape:connector-curvature="0" />
	<path style="fill:none;stroke:red;stroke-width:1px;stroke-linecap:butt;stroke-linejoin:miter;stroke-opacity:1" d="M 399.384,677.468 401.407,687.58 z" id="boundary" inkscape:connector-curvature="0" />
	<path style="fill:none;stroke:red;stroke-width:1px;stroke-linecap:butt;stroke-linejoin:miter;stroke-opacity:1" d="M 399.384,677.468 409.496,677.468 z" id="boundary" inkscape:connector-curvature="0" />
	<path style="fill:none;stroke:red;stroke-width:1px;stroke-linecap:butt;stroke-linejoin:miter;stroke-opacity:1" d="M 401.407,70.7401 409.496,77.8186 z" id="boundary" inkscape:connector-curvature="0" />
	<path style="fill:none;stroke:red;stroke-width:1px;stroke-linecap:butt;stroke-linejoin:miter;stroke-opacity:1" d="M 401.407,687.58 404.44,697.692 z" id="boundary" inkscape:connector-curvature="0" />
	<path style="fill:none;stroke:red;stroke-width:1px;stroke-linecap:butt;stroke-linejoin:miter;stroke-opacity:1" d="M 401.407,996 411.519,994.989 z" id="boundary" inkscape:connector-curvature="0" />
	<path style="fill:none;stroke:red;stroke-width:1px;stroke-linecap:butt;stroke-linejoin:miter;stroke-opacity:1" d="M 404.44,697.692 404.44,707.804 z" id="boundary" inkscape:connector-curvature="0" />
	<path style="fill:none;stroke:red;stroke-width:1px;stroke-linecap:butt;stroke-linejoin:miter;stroke-opacity:1" d="M 404.44,707.804 404.44,717.916 z" id="boundary" inkscape:connector-curvature="0" />
	<path style="fill:none;stroke:red;stroke-width:1px;stroke-linecap:butt;stroke-linejoin:miter;stroke-opacity:1" d="M 404.44,717.916 404.44,728.029 z" id="boundary" inkscape:connector-curvature="0" />
	<path style="fill:none;stroke:red;stroke-width:1px;stroke-linecap:butt;stroke-linejoin:miter;stroke-opacity:1" d="M 404.44,728.029 404.44,738.141 z" id="boundary" inkscape:connector-curvature="0" />
	<path style="fill:none;stroke:red;stroke-width:1px;stroke-linecap:butt;stroke-linejoin:miter;stroke-opacity:1" d="M 404.44,738.141 404.44,748.253 z" id="boundary" inkscape:connector-curvature="0" />
	<path style="fill:none;stroke:red;stroke-width:1px;stroke-linecap:butt;stroke-linejoin:miter;stroke-opacity:1" d="M 404.44,748.253 404.44,758.365 z" id="boundary" inkscape:connector-curvature="0" />
	<path style="fill:none;stroke:red;stroke-width:1px;stroke-linecap:butt;stroke-linejoin:miter;stroke-opacity:1" d="M 404.44,758.365 404.44,768.477 z" id="boundary" inkscape:connector-curvature="0" />
	<path style="fill:none;stroke:red;stroke-width:1px;stroke-linecap:butt;stroke-linejoin:miter;stroke-opacity:1" d="M 404.44,768.477 404.44,778.589 z" id="boundary" inkscape:connector-curvature="0" />
	<path style="fill:none;stroke:red;stroke-width:1px;stroke-linecap:butt;stroke-linejoin:miter;stroke-opacity:1" d="M 404.44,778.589 404.44,788.701 z" id="boundary" inkscape:connector-curvature="0" />
	<path style="fill:none;stroke:red;stroke-width:1px;stroke-linecap:butt;stroke-linejoin:miter;stroke-opacity:1" d="M 404.44,788.701 404.44,798.813 z" id="boundary" inkscape:connector-curvature="0" />
	<path style="fill:none;stroke:red;stroke-width:1px;stroke-linecap:butt;stroke-linejoin:miter;stroke-opacity:1" d="M 404.44,798.813 404.44,808.926 z" id="boundary" inkscape:connector-curvature="0" />
	<path style="fill:none;stroke:red;stroke-width:1px;stroke-linecap:butt;stroke-linejoin:miter;stroke-opacity:1" d="M 404.44,808.926 404.44,819.038 z" id="boundary" inkscape:connector-curvature="0" />
	<path style="fill:none;stroke:red;stroke-width:1px;stroke-linecap:butt;stroke-linejoin:miter;stroke-opacity:1" d="M 404.44,819.038 404.44,829.15 z" id="boundary" inkscape:connector-curvature="0" />
	<path style="fill:none;stroke:red;stroke-width:1px;stroke-linecap:butt;stroke-linejoin:miter;stroke-opacity:1" d="M 404.44,829.15 406.463,839.262 z" id="boundary" inkscape:connector-curvature="0" />
	<path style="fill:none;stroke:red;stroke-width:1px;stroke-linecap:butt;stroke-linejoin:miter;stroke-opacity:1" d="M 406.463,839.262 409.496,849.374 z" id="boundary" inkscape:connector-curvature="0" />
	<path style="fill:none;stroke:red;stroke-width:1px;stroke-linecap:butt;stroke-linejoin:miter;stroke-opacity:1" d="M 409.496,77.8186 414.552,86.9195 z" id="boundary" inkscape:connector-curvature="0" />
	<path style="fill:none;stroke:red;stroke-width:1px;stroke-linecap:butt;stroke-linejoin:miter;stroke-opacity:1" d="M 409.496,677.468 419.609,677.468 z" id="boundary" inkscape:connector-curvature="0" />
	<path style="fill:none;stroke:red;stroke-width:1px;stroke-linecap:butt;stroke-linejoin:miter;stroke-opacity:1" d="M 409.496,849.374 409.496,859.486 z" id="boundary" inkscape:connector-curvature="0" />
	<path style="fill:none;stroke:red;stroke-width:1px;stroke-linecap:butt;stroke-linejoin:miter;stroke-opacity:1" d="M 409.496,859.486 414.552,868.587 z" id="boundary" inkscape:connector-curvature="0" />
	<path style="fill:none;stroke:red;stroke-width:1px;stroke-linecap:butt;stroke-linejoin:miter;stroke-opacity:1" d="M 411.519,994.989 419.609,985.888 z" id="boundary" inkscape:connector-curvature="0" />
	<path style="fill:none;stroke:red;stroke-width:1px;stroke-linecap:butt;stroke-linejoin:miter;stroke-opacity:1" d="M 414.552,86.9195 420.62,95.0092 z" id="boundary" inkscape:connector-curvature="0" />
	<path style="fill:none;stroke:red;stroke-width:1px;stroke-linecap:butt;stroke-linejoin:miter;stroke-opacity:1" d="M 414.552,868.587 414.552,878.699 z" id="boundary" inkscape:connector-curvature="0" />
	<path style="fill:none;stroke:red;stroke-width:1px;stroke-linecap:butt;stroke-linejoin:miter;stroke-opacity:1" d="M 414.552,878.699 414.552,888.811 z" id="boundary" inkscape:connector-curvature="0" />
	<path style="fill:none;stroke:red;stroke-width:1px;stroke-linecap:butt;stroke-linejoin:miter;stroke-opacity:1" d="M 414.552,888.811 414.552,898.924 z" id="boundary" inkscape:connector-curvature="0" />
	<path style="fill:none;stroke:red;stroke-width:1px;stroke-linecap:butt;stroke-linejoin:miter;stroke-opacity:1" d="M 414.552,898.924 414.552,909.036 z" id="boundary" inkscape:connector-curvature="0" />
	<path style="fill:none;stroke:red;stroke-width:1px;stroke-linecap:butt;stroke-linejoin:miter;stroke-opacity:1" d="M 414.552,909.036 419.609,918.137 z" id="boundary" inkscape:connector-curvature="0" />
	<path style="fill:none;stroke:red;stroke-width:1px;stroke-linecap:butt;stroke-linejoin:miter;stroke-opacity:1" d="M 419.609,677.468 429.721,677.468 z" id="boundary" inkscape:connector-curvature="0" />
	<path style="fill:none;stroke:red;stroke-width:1px;stroke-linecap:butt;stroke-linejoin:miter;stroke-opacity:1" d="M 419.609,918.137 419.609,928.249 z" id="boundary" inkscape:connector-curvature="0" />
	<path style="fill:none;stroke:red;stroke-width:1px;stroke-linecap:butt;stroke-linejoin:miter;stroke-opacity:1" d="M 419.609,928.249 419.609,938.361 z" id="boundary" inkscape:connector-curvature="0" />
	<path style="fill:none;stroke:red;stroke-width:1px;stroke-linecap:butt;stroke-linejoin:miter;stroke-opacity:1" d="M 419.609,938.361 419.609,948.473 z" id="boundary" inkscape:connector-curvature="0" />
	<path style="fill:none;stroke:red;stroke-width:1px;stroke-linecap:butt;stroke-linejoin:miter;stroke-opacity:1" d="M 419.609,948.473 419.609,958.585 z" id="boundary" inkscape:connector-curvature="0" />
	<path style="fill:none;stroke:red;stroke-width:1px;stroke-linecap:butt;stroke-linejoin:miter;stroke-opacity:1" d="M 419.609,958.585 424.665,967.686 z" id="boundary" inkscape:connector-curvature="0" />
	<path style="fill:none;stroke:red;stroke-width:1px;stroke-linecap:butt;stroke-linejoin:miter;stroke-opacity:1" d="M 419.609,985.888 424.665,967.686 z" id="boundary" inkscape:connector-curvature="0" />
	<path style="fill:none;stroke:red;stroke-width:1px;stroke-linecap:butt;stroke-linejoin:miter;stroke-opacity:1" d="M 420.62,95.0092 428.709,102.088 z" id="boundary" inkscape:connector-curvature="0" />
	<path style="fill:none;stroke:red;stroke-width:1px;stroke-linecap:butt;stroke-linejoin:miter;stroke-opacity:1" d="M 428.709,102.088 434.777,110.177 z" id="boundary" inkscape:connector-curvature="0" />
	<path style="fill:none;stroke:red;stroke-width:1px;stroke-linecap:butt;stroke-linejoin:miter;stroke-opacity:1" d="M 429.721,677.468 439.833,677.468 z" id="boundary" inkscape:connector-curvature="0" />
	<path style="fill:none;stroke:red;stroke-width:1px;stroke-linecap:butt;stroke-linejoin:miter;stroke-opacity:1" d="M 434.777,110.177 439.833,119.278 z" id="boundary" inkscape:connector-curvature="0" />
	<path style="fill:none;stroke:red;stroke-width:1px;stroke-linecap:butt;stroke-linejoin:miter;stroke-opacity:1" d="M 439.833,119.278 449.945,123.323 z" id="boundary" inkscape:connector-curvature="0" />
	<path style="fill:none;stroke:red;stroke-width:1px;stroke-linecap:butt;stroke-linejoin:miter;stroke-opacity:1" d="M 439.833,677.468 449.945,677.468 z" id="boundary" inkscape:connector-curvature="0" />
	<path style="fill:none;stroke:red;stroke-width:1px;stroke-linecap:butt;stroke-linejoin:miter;stroke-opacity:1" d="M 449.945,123.323 457.023,131.413 z" id="boundary" inkscape:connector-curvature="0" />
	<path style="fill:none;stroke:red;stroke-width:1px;stroke-linecap:butt;stroke-linejoin:miter;stroke-opacity:1" d="M 449.945,677.468 460.057,677.468 z" id="boundary" inkscape:connector-curvature="0" />
	<path style="fill:none;stroke:red;stroke-width:1px;stroke-linecap:butt;stroke-linejoin:miter;stroke-opacity:1" d="M 457.023,131.413 465.113,138.491 z" id="boundary" inkscape:connector-curvature="0" />
	<path style="fill:none;stroke:red;stroke-width:1px;stroke-linecap:butt;stroke-linejoin:miter;stroke-opacity:1" d="M 460.057,677.468 470.169,677.468 z" id="boundary" inkscape:connector-curvature="0" />
	<path style="fill:none;stroke:red;stroke-width:1px;stroke-linecap:butt;stroke-linejoin:miter;stroke-opacity:1" d="M 465.113,138.491 472.192,146.581 z" id="boundary" inkscape:connector-curvature="0" />
	<path style="fill:none;stroke:red;stroke-width:1px;stroke-linecap:butt;stroke-linejoin:miter;stroke-opacity:1" d="M 470.169,216.355 475.225,207.254 z" id="boundary" inkscape:connector-curvature="0" />
	<path style="fill:none;stroke:red;stroke-width:1px;stroke-linecap:butt;stroke-linejoin:miter;stroke-opacity:1" d="M 470.169,216.355 475.225,225.456 z" id="boundary" inkscape:connector-curvature="0" />
	<path style="fill:none;stroke:red;stroke-width:1px;stroke-linecap:butt;stroke-linejoin:miter;stroke-opacity:1" d="M 470.169,677.468 480.281,677.468 z" id="boundary" inkscape:connector-curvature="0" />
	<path style="fill:none;stroke:red;stroke-width:1px;stroke-linecap:butt;stroke-linejoin:miter;stroke-opacity:1" d="M 472.192,146.581 480.281,153.66 z" id="boundary" inkscape:connector-curvature="0" />
	<path style="fill:none;stroke:red;stroke-width:1px;stroke-linecap:butt;stroke-linejoin:miter;stroke-opacity:1" d="M 475.225,207.254 485.337,207.254 z" id="boundary" inkscape:connector-curvature="0" />
	<path style="fill:none;stroke:red;stroke-width:1px;stroke-linecap:butt;stroke-linejoin:miter;stroke-opacity:1" d="M 475.225,225.456 483.315,232.534 z" id="boundary" inkscape:connector-curvature="0" />
	<path style="fill:none;stroke:red;stroke-width:1px;stroke-linecap:butt;stroke-linejoin:miter;stroke-opacity:1" d="M 480.281,153.66 489.382,158.716 z" id="boundary" inkscape:connector-curvature="0" />
	<path style="fill:none;stroke:red;stroke-width:1px;stroke-linecap:butt;stroke-linejoin:miter;stroke-opacity:1" d="M 480.281,677.468 490.393,677.468 z" id="boundary" inkscape:connector-curvature="0" />
	<path style="fill:none;stroke:red;stroke-width:1px;stroke-linecap:butt;stroke-linejoin:miter;stroke-opacity:1" d="M 483.315,232.534 490.393,240.624 z" id="boundary" inkscape:connector-curvature="0" />
	<path style="fill:none;stroke:red;stroke-width:1px;stroke-linecap:butt;stroke-linejoin:miter;stroke-opacity:1" d="M 485.337,207.254 495.45,207.254 z" id="boundary" inkscape:connector-curvature="0" />
	<path style="fill:none;stroke:red;stroke-width:1px;stroke-linecap:butt;stroke-linejoin:miter;stroke-opacity:1" d="M 489.382,158.716 497.472,165.794 z" id="boundary" inkscape:connector-curvature="0" />
	<path style="fill:none;stroke:red;stroke-width:1px;stroke-linecap:butt;stroke-linejoin:miter;stroke-opacity:1" d="M 490.393,240.624 495.45,249.725 z" id="boundary" inkscape:connector-curvature="0" />
	<path style="fill:none;stroke:red;stroke-width:1px;stroke-linecap:butt;stroke-linejoin:miter;stroke-opacity:1" d="M 490.393,677.468 500.506,677.468 z" id="boundary" inkscape:connector-curvature="0" />
	<path style="fill:none;stroke:red;stroke-width:1px;stroke-linecap:butt;stroke-linejoin:miter;stroke-opacity:1" d="M 495.45,207.254 505.562,202.198 z" id="boundary" inkscape:connector-curvature="0" />
	<path style="fill:none;stroke:red;stroke-width:1px;stroke-linecap:butt;stroke-linejoin:miter;stroke-opacity:1" d="M 495.45,249.725 502.528,257.814 z" id="boundary" inkscape:connector-curvature="0" />
	<path style="fill:none;stroke:red;stroke-width:1px;stroke-linecap:butt;stroke-linejoin:miter;stroke-opacity:1" d="M 497.472,165.794 504.55,173.884 z" id="boundary" inkscape:connector-curvature="0" />
	<path style="fill:none;stroke:red;stroke-width:1px;stroke-linecap:butt;stroke-linejoin:miter;stroke-opacity:1" d="M 500.506,677.468 510.618,677.468 z" id="boundary" inkscape:connector-curvature="0" />
	<path style="fill:none;stroke:red;stroke-width:1px;stroke-linecap:butt;stroke-linejoin:miter;stroke-opacity:1" d="M 502.528,257.814 507.584,266.915 z" id="boundary" inkscape:connector-curvature="0" />
	<path style="fill:none;stroke:red;stroke-width:1px;stroke-linecap:butt;stroke-linejoin:miter;stroke-opacity:1" d="M 504.55,173.884 512.64,180.962 z" id="boundary" inkscape:connector-curvature="0" />
	<path style="fill:none;stroke:red;stroke-width:1px;stroke-linecap:butt;stroke-linejoin:miter;stroke-opacity:1" d="M 505.562,202.198 513.651,195.119 z" id="boundary" inkscape:connector-curvature="0" />
	<path style="fill:none;stroke:red;stroke-width:1px;stroke-linecap:butt;stroke-linejoin:miter;stroke-opacity:1" d="M 507.584,266.915 514.663,275.005 z" id="boundary" inkscape:connector-curvature="0" />
	<path style="fill:none;stroke:red;stroke-width:1px;stroke-linecap:butt;stroke-linejoin:miter;stroke-opacity:1" d="M 510.618,677.468 520.73,677.468 z" id="boundary" inkscape:connector-curvature="0" />
	<path style="fill:none;stroke:red;stroke-width:1px;stroke-linecap:butt;stroke-linejoin:miter;stroke-opacity:1" d="M 512.64,180.962 513.651,195.119 z" id="boundary" inkscape:connector-curvature="0" />
	<path style="fill:none;stroke:red;stroke-width:1px;stroke-linecap:butt;stroke-linejoin:miter;stroke-opacity:1" d="M 514.663,275.005 522.752,282.084 z" id="boundary" inkscape:connector-curvature="0" />
	<path style="fill:none;stroke:red;stroke-width:1px;stroke-linecap:butt;stroke-linejoin:miter;stroke-opacity:1" d="M 520.73,677.468 530.842,677.468 z" id="boundary" inkscape:connector-curvature="0" />
	<path style="fill:none;stroke:red;stroke-width:1px;stroke-linecap:butt;stroke-linejoin:miter;stroke-opacity:1" d="M 522.752,282.084 529.831,290.173 z" id="boundary" inkscape:connector-curvature="0" />
	<path style="fill:none;stroke:red;stroke-width:1px;stroke-linecap:butt;stroke-linejoin:miter;stroke-opacity:1" d="M 529.831,290.173 537.92,297.252 z" id="boundary" inkscape:connector-curvature="0" />
	<path style="fill:none;stroke:red;stroke-width:1px;stroke-linecap:butt;stroke-linejoin:miter;stroke-opacity:1" d="M 530.842,677.468 540.954,677.468 z" id="boundary" inkscape:connector-curvature="0" />
	<path style="fill:none;stroke:red;stroke-width:1px;stroke-linecap:butt;stroke-linejoin:miter;stroke-opacity:1" d="M 537.92,297.252 544.999,305.341 z" id="boundary" inkscape:connector-curvature="0" />
	<path style="fill:none;stroke:red;stroke-width:1px;stroke-linecap:butt;stroke-linejoin:miter;stroke-opacity:1" d="M 540.954,677.468 551.066,672.412 z" id="boundary" inkscape:connector-curvature="0" />
	<path style="fill:none;stroke:red;stroke-width:1px;stroke-linecap:butt;stroke-linejoin:miter;stroke-opacity:1" d="M 544.999,305.341 550.055,314.442 z" id="boundary" inkscape:connector-curvature="0" />
	<path style="fill:none;stroke:red;stroke-width:1px;stroke-linecap:butt;stroke-linejoin:miter;stroke-opacity:1" d="M 550.055,314.442 559.156,319.498 z" id="boundary" inkscape:connector-curvature="0" />
	<path style="fill:none;stroke:red;stroke-width:1px;stroke-linecap:butt;stroke-linejoin:miter;stroke-opacity:1" d="M 551.066,672.412 561.178,672.412 z" id="boundary" inkscape:connector-curvature="0" />
	<path style="fill:none;stroke:red;stroke-width:1px;stroke-linecap:butt;stroke-linejoin:miter;stroke-opacity:1" d="M 556.122,408.485 561.178,399.384 z" id="boundary" inkscape:connector-curvature="0" />
	<path style="fill:none;stroke:red;stroke-width:1px;stroke-linecap:butt;stroke-linejoin:miter;stroke-opacity:1" d="M 556.122,408.485 561.178,417.586 z" id="boundary" inkscape:connector-curvature="0" />
	<path style="fill:none;stroke:red;stroke-width:1px;stroke-linecap:butt;stroke-linejoin:miter;stroke-opacity:1" d="M 559.156,319.498 566.234,327.588 z" id="boundary" inkscape:connector-curvature="0" />
	<path style="fill:none;stroke:red;stroke-width:1px;stroke-linecap:butt;stroke-linejoin:miter;stroke-opacity:1" d="M 561.178,399.384 571.291,399.384 z" id="boundary" inkscape:connector-curvature="0" />
	<path style="fill:none;stroke:red;stroke-width:1px;stroke-linecap:butt;stroke-linejoin:miter;stroke-opacity:1" d="M 561.178,417.586 569.268,424.665 z" id="boundary" inkscape:connector-curvature="0" />
	<path style="fill:none;stroke:red;stroke-width:1px;stroke-linecap:butt;stroke-linejoin:miter;stroke-opacity:1" d="M 561.178,672.412 571.291,667.356 z" id="boundary" inkscape:connector-curvature="0" />
	<path style="fill:none;stroke:red;stroke-width:1px;stroke-linecap:butt;stroke-linejoin:miter;stroke-opacity:1" d="M 566.234,327.588 574.324,333.655 z" id="boundary" inkscape:connector-curvature="0" />
	<path style="fill:none;stroke:red;stroke-width:1px;stroke-linecap:butt;stroke-linejoin:miter;stroke-opacity:1" d="M 569.268,424.665 573.313,434.777 z" id="boundary" inkscape:connector-curvature="0" />
	<path style="fill:none;stroke:red;stroke-width:1px;stroke-linecap:butt;stroke-linejoin:miter;stroke-opacity:1" d="M 571.291,399.384 581.403,394.328 z" id="boundary" inkscape:connector-curvature="0" />
	<path style="fill:none;stroke:red;stroke-width:1px;stroke-linecap:butt;stroke-linejoin:miter;stroke-opacity:1" d="M 571.291,667.356 581.403,667.356 z" id="boundary" inkscape:connector-curvature="0" />
	<path style="fill:none;stroke:red;stroke-width:1px;stroke-linecap:butt;stroke-linejoin:miter;stroke-opacity:1" d="M 573.313,434.777 581.403,441.855 z" id="boundary" inkscape:connector-curvature="0" />
	<path style="fill:none;stroke:red;stroke-width:1px;stroke-linecap:butt;stroke-linejoin:miter;stroke-opacity:1" d="M 574.324,333.655 578.369,343.768 z" id="boundary" inkscape:connector-curvature="0" />
	<path style="fill:none;stroke:red;stroke-width:1px;stroke-linecap:butt;stroke-linejoin:miter;stroke-opacity:1" d="M 578.369,343.768 586.459,350.846 z" id="boundary" inkscape:connector-curvature="0" />
	<path style="fill:none;stroke:red;stroke-width:1px;stroke-linecap:butt;stroke-linejoin:miter;stroke-opacity:1" d="M 581.403,394.328 591.515,389.272 z" id="boundary" inkscape:connector-curvature="0" />
	<path style="fill:none;stroke:red;stroke-width:1px;stroke-linecap:butt;stroke-linejoin:miter;stroke-opacity:1" d="M 581.403,441.855 586.459,450.956 z" id="boundary" inkscape:connector-curvature="0" />
	<path style="fill:none;stroke:red;stroke-width:1px;stroke-linecap:butt;stroke-linejoin:miter;stroke-opacity:1" d="M 581.403,667.356 591.515,667.356 z" id="boundary" inkscape:connector-curvature="0" />
	<path style="fill:none;stroke:red;stroke-width:1px;stroke-linecap:butt;stroke-linejoin:miter;stroke-opacity:1" d="M 586.459,350.846 591.515,359.947 z" id="boundary" inkscape:connector-curvature="0" />
	<path style="fill:none;stroke:red;stroke-width:1px;stroke-linecap:butt;stroke-linejoin:miter;stroke-opacity:1" d="M 586.459,450.956 592.526,459.046 z" id="boundary" inkscape:connector-curvature="0" />
	<path style="fill:none;stroke:red;stroke-width:1px;stroke-linecap:butt;stroke-linejoin:miter;stroke-opacity:1" d="M 591.515,359.947 597.582,368.037 z" id="boundary" inkscape:connector-curvature="0" />
	<path style="fill:none;stroke:red;stroke-width:1px;stroke-linecap:butt;stroke-linejoin:miter;stroke-opacity:1" d="M 591.515,389.272 599.604,382.194 z" id="boundary" inkscape:connector-curvature="0" />
	<path style="fill:none;stroke:red;stroke-width:1px;stroke-linecap:butt;stroke-linejoin:miter;stroke-opacity:1" d="M 591.515,667.356 601.627,667.356 z" id="boundary" inkscape:connector-curvature="0" />
	<path style="fill:none;stroke:red;stroke-width:1px;stroke-linecap:butt;stroke-linejoin:miter;stroke-opacity:1" d="M 592.526,459.046 596.571,469.158 z" id="boundary" inkscape:connector-curvature="0" />
	<path style="fill:none;stroke:red;stroke-width:1px;stroke-linecap:butt;stroke-linejoin:miter;stroke-opacity:1" d="M 596.571,469.158 601.627,478.259 z" id="boundary" inkscape:connector-curvature="0" />
	<path style="fill:none;stroke:red;stroke-width:1px;stroke-linecap:butt;stroke-linejoin:miter;stroke-opacity:1" d="M 597.582,368.037 599.604,382.194 z" id="boundary" inkscape:connector-curvature="0" />
	<path style="fill:none;stroke:red;stroke-width:1px;stroke-linecap:butt;stroke-linejoin:miter;stroke-opacity:1" d="M 601.627,478.259 606.683,487.36 z" id="boundary" inkscape:connector-curvature="0" />
	<path style="fill:none;stroke:red;stroke-width:1px;stroke-linecap:butt;stroke-linejoin:miter;stroke-opacity:1" d="M 601.627,667.356 611.739,667.356 z" id="boundary" inkscape:connector-curvature="0" />
	<path style="fill:none;stroke:red;stroke-width:1px;stroke-linecap:butt;stroke-linejoin:miter;stroke-opacity:1" d="M 606.683,487.36 611.739,496.461 z" id="boundary" inkscape:connector-curvature="0" />
	<path style="fill:none;stroke:red;stroke-width:1px;stroke-linecap:butt;stroke-linejoin:miter;stroke-opacity:1" d="M 611.739,496.461 617.806,504.55 z" id="boundary" inkscape:connector-curvature="0" />
	<path style="fill:none;stroke:red;stroke-width:1px;stroke-linecap:butt;stroke-linejoin:miter;stroke-opacity:1" d="M 611.739,667.356 621.851,667.356 z" id="boundary" inkscape:connector-curvature="0" />
	<path style="fill:none;stroke:red;stroke-width:1px;stroke-linecap:butt;stroke-linejoin:miter;stroke-opacity:1" d="M 617.806,504.55 621.851,514.663 z" id="boundary" inkscape:connector-curvature="0" />
	<path style="fill:none;stroke:red;stroke-width:1px;stroke-linecap:butt;stroke-linejoin:miter;stroke-opacity:1" d="M 621.851,514.663 629.941,520.73 z" id="boundary" inkscape:connector-curvature="0" />
	<path style="fill:none;stroke:red;stroke-width:1px;stroke-linecap:butt;stroke-linejoin:miter;stroke-opacity:1" d="M 621.851,667.356 631.963,667.356 z" id="boundary" inkscape:connector-curvature="0" />
	<path style="fill:none;stroke:red;stroke-width:1px;stroke-linecap:butt;stroke-linejoin:miter;stroke-opacity:1" d="M 629.941,520.73 631.963,530.842 z" id="boundary" inkscape:connector-curvature="0" />
	<path style="fill:none;stroke:red;stroke-width:1px;stroke-linecap:butt;stroke-linejoin:miter;stroke-opacity:1" d="M 631.963,530.842 637.019,539.943 z" id="boundary" inkscape:connector-curvature="0" />
	<path style="fill:none;stroke:red;stroke-width:1px;stroke-linecap:butt;stroke-linejoin:miter;stroke-opacity:1" d="M 631.963,667.356 642.075,667.356 z" id="boundary" inkscape:connector-curvature="0" />
	<path style="fill:none;stroke:red;stroke-width:1px;stroke-linecap:butt;stroke-linejoin:miter;stroke-opacity:1" d="M 637.019,539.943 642.075,549.044 z" id="boundary" inkscape:connector-curvature="0" />
	<path style="fill:none;stroke:red;stroke-width:1px;stroke-linecap:butt;stroke-linejoin:miter;stroke-opacity:1" d="M 642.075,549.044 647.131,558.145 z" id="boundary" inkscape:connector-curvature="0" />
	<path style="fill:none;stroke:red;stroke-width:1px;stroke-linecap:butt;stroke-linejoin:miter;stroke-opacity:1" d="M 642.075,667.356 652.188,667.356 z" id="boundary" inkscape:connector-curvature="0" />
	<path style="fill:none;stroke:red;stroke-width:1px;stroke-linecap:butt;stroke-linejoin:miter;stroke-opacity:1" d="M 647.131,558.145 654.21,566.234 z" id="boundary" inkscape:connector-curvature="0" />
	<path style="fill:none;stroke:red;stroke-width:1px;stroke-linecap:butt;stroke-linejoin:miter;stroke-opacity:1" d="M 652.188,667.356 662.3,667.356 z" id="boundary" inkscape:connector-curvature="0" />
	<path style="fill:none;stroke:red;stroke-width:1px;stroke-linecap:butt;stroke-linejoin:miter;stroke-opacity:1" d="M 654.21,566.234 662.3,573.313 z" id="boundary" inkscape:connector-curvature="0" />
	<path style="fill:none;stroke:red;stroke-width:1px;stroke-linecap:butt;stroke-linejoin:miter;stroke-opacity:1" d="M 662.3,573.313 667.356,582.414 z" id="boundary" inkscape:connector-curvature="0" />
	<path style="fill:none;stroke:red;stroke-width:1px;stroke-linecap:butt;stroke-linejoin:miter;stroke-opacity:1" d="M 662.3,667.356 672.412,667.356 z" id="boundary" inkscape:connector-curvature="0" />
	<path style="fill:none;stroke:red;stroke-width:1px;stroke-linecap:butt;stroke-linejoin:miter;stroke-opacity:1" d="M 667.356,582.414 673.423,590.504 z" id="boundary" inkscape:connector-curvature="0" />
	<path style="fill:none;stroke:red;stroke-width:1px;stroke-linecap:butt;stroke-linejoin:miter;stroke-opacity:1" d="M 672.412,667.356 682.524,667.356 z" id="boundary" inkscape:connector-curvature="0" />
	<path style="fill:none;stroke:red;stroke-width:1px;stroke-linecap:butt;stroke-linejoin:miter;stroke-opacity:1" d="M 673.423,590.504 681.513,597.582 z" id="boundary" inkscape:connector-curvature="0" />
	<path style="fill:none;stroke:red;stroke-width:1px;stroke-linecap:butt;stroke-linejoin:miter;stroke-opacity:1" d="M 681.513,597.582 685.558,607.694 z" id="boundary" inkscape:connector-curvature="0" />
	<path style="fill:none;stroke:red;stroke-width:1px;stroke-linecap:butt;stroke-linejoin:miter;stroke-opacity:1" d="M 682.524,667.356 692.636,667.356 z" id="boundary" inkscape:connector-curvature="0" />
	<path style="fill:none;stroke:red;stroke-width:1px;stroke-linecap:butt;stroke-linejoin:miter;stroke-opacity:1" d="M 685.558,607.694 692.636,615.784 z" id="boundary" inkscape:connector-curvature="0" />
	<path style="fill:none;stroke:red;stroke-width:1px;stroke-linecap:butt;stroke-linejoin:miter;stroke-opacity:1" d="M 692.636,615.784 697.692,624.885 z" id="boundary" inkscape:connector-curvature="0" />
	<path style="fill:none;stroke:red;stroke-width:1px;stroke-linecap:butt;stroke-linejoin:miter;stroke-opacity:1" d="M 692.636,667.356 700.726,660.277 z" id="boundary" inkscape:connector-curvature="0" />
	<path style="fill:none;stroke:red;stroke-width:1px;stroke-linecap:butt;stroke-linejoin:miter;stroke-opacity:1" d="M 697.692,624.885 702.748,633.986 z" id="boundary" inkscape:connector-curvature="0" />
	<path style="fill:none;stroke:red;stroke-width:1px;stroke-linecap:butt;stroke-linejoin:miter;stroke-opacity:1" d="M 700.726,660.277 706.793,644.098 z" id="boundary" inkscape:connector-curvature="0" />
	<path style="fill:none;stroke:red;stroke-width:1px;stroke-linecap:butt;stroke-linejoin:miter;stroke-opacity:1" d="M 702.748,633.986 706.793,644.098 z" id="boundary" inkscape:connector-curvature="0" />
	<circle cx="4" cy="633.986" r="4" fill="#0" id="circle0"/>
	<circle cx="4" cy="644.098" r="4" fill="#0" id="circle1"/>
	<circle cx="12.0897" cy="625.896" r="4" fill="#0" id="circle2"/>
	<circle cx="12.0897" cy="651.176" r="4" fill="#0" id="circle3"/>
	<circle cx="19.1682" cy="659.266" r="4" fill="#0" id="circle4"/>
	<circle cx="20.1794" cy="617.806" r="4" fill="#0" id="circle5"/>
	<circle cx="28.2691" cy="610.728" r="4" fill="#0" id="circle6"/>
	<circle cx="29.2803" cy="662.3" r="4" fill="#0" id="circle7"/>
	<circle cx="35.3476" cy="602.638" r="4" fill="#0" id="circle8"/>
	<circle cx="39.3925" cy="662.3" r="4" fill="#0" id="circle9"/>
	<circle cx="43.4373" cy="595.56" r="4" fill="#0" id="circle10"/>
	<circle cx="49.5046" cy="662.3" r="4" fill="#0" id="circle11"/>
	<circle cx="50.5158" cy="587.47" r="4" fill="#0" id="circle12"/>
	<circle cx="55.5719" cy="577.358" r="4" fill="#0" id="circle13"/>
	<circle cx="59.6167" cy="659.266" r="4" fill="#0" id="circle14"/>
	<circle cx="63.6616" cy="570.279" r="4" fill="#0" id="circle15"/>
	<circle cx="69.7288" cy="558.145" r="4" fill="#0" id="circle16"/>
	<circle cx="69.7288" cy="657.244" r="4" fill="#0" id="circle17"/>
	<circle cx="77.8186" cy="550.055" r="4" fill="#0" id="circle18"/>
	<circle cx="79.841" cy="657.244" r="4" fill="#0" id="circle19"/>
	<circle cx="84.897" cy="537.92" r="4" fill="#0" id="circle20"/>
	<circle cx="89.9531" cy="657.244" r="4" fill="#0" id="circle21"/>
	<circle cx="92.9867" cy="529.831" r="4" fill="#0" id="circle22"/>
	<circle cx="98.0428" cy="519.719" r="4" fill="#0" id="circle23"/>
	<circle cx="100.065" cy="376.126" r="4" fill="#0" id="circle24"/>
	<circle cx="100.065" cy="386.239" r="4" fill="#0" id="circle25"/>
	<circle cx="100.065" cy="657.244" r="4" fill="#0" id="circle26"/>
	<circle cx="105.121" cy="507.584" r="4" fill="#0" id="circle27"/>
	<circle cx="108.155" cy="368.037" r="4" fill="#0" id="circle28"/>
	<circle cx="108.155" cy="393.317" r="4" fill="#0" id="circle29"/>
	<circle cx="110.177" cy="657.244" r="4" fill="#0" id="circle30"/>
	<circle cx="113.211" cy="499.494" r="4" fill="#0" id="circle31"/>
	<circle cx="116.245" cy="359.947" r="4" fill="#0" id="circle32"/>
	<circle cx="116.245" cy="399.384" r="4" fill="#0" id="circle33"/>
	<circle cx="118.267" cy="489.382" r="4" fill="#0" id="circle34"/>
	<circle cx="120.29" cy="657.244" r="4" fill="#0" id="circle35"/>
	<circle cx="123.323" cy="479.27" r="4" fill="#0" id="circle36"/>
	<circle cx="124.334" cy="352.869" r="4" fill="#0" id="circle37"/>
	<circle cx="125.346" cy="340.734" r="4" fill="#0" id="circle38"/>
	<circle cx="126.357" cy="399.384" r="4" fill="#0" id="circle39"/>
	<circle cx="128.379" cy="469.158" r="4" fill="#0" id="circle40"/>
	<circle cx="130.402" cy="657.244" r="4" fill="#0" id="circle41"/>
	<circle cx="133.435" cy="332.644" r="4" fill="#0" id="circle42"/>
	<circle cx="135.458" cy="457.023" r="4" fill="#0" id="circle43"/>
	<circle cx="136.469" cy="399.384" r="4" fill="#0" id="circle44"/>
	<circle cx="140.514" cy="657.244" r="4" fill="#0" id="circle45"/>
	<circle cx="142.536" cy="327.588" r="4" fill="#0" id="circle46"/>
	<circle cx="143.547" cy="448.934" r="4" fill="#0" id="circle47"/>
	<circle cx="145.57" cy="436.799" r="4" fill="#0" id="circle48"/>
	<circle cx="146.581" cy="399.384" r="4" fill="#0" id="circle49"/>
	<circle cx="150.626" cy="315.454" r="4" fill="#0" id="circle50"/>
	<circle cx="150.626" cy="426.687" r="4" fill="#0" id="circle51"/>
	<circle cx="150.626" cy="657.244" r="4" fill="#0" id="circle52"/>
	<circle cx="155.682" cy="394.328" r="4" fill="#0" id="circle53"/>
	<circle cx="158.716" cy="307.364" r="4" fill="#0" id="circle54"/>
	<circle cx="158.716" cy="418.597" r="4" fill="#0" id="circle55"/>
	<circle cx="159.727" cy="662.3" r="4" fill="#0" id="circle56"/>
	<circle cx="163.772" cy="408.485" r="4" fill="#0" id="circle57"/>
	<circle cx="165.794" cy="189.052" r="4" fill="#0" id="circle58"/>
	<circle cx="165.794" cy="199.164" r="4" fill="#0" id="circle59"/>
	<circle cx="165.794" cy="295.229" r="4" fill="#0" id="circle60"/>
	<circle cx="165.794" cy="394.328" r="4" fill="#0" id="circle61"/>
	<circle cx="169.839" cy="662.3" r="4" fill="#0" id="circle62"/>
	<circle cx="173.884" cy="180.962" r="4" fill="#0" id="circle63"/>
	<circle cx="173.884" cy="206.243" r="4" fill="#0" id="circle64"/>
	<circle cx="173.884" cy="287.14" r="4" fill="#0" id="circle65"/>
	<circle cx="178.94" cy="277.028" r="4" fill="#0" id="circle66"/>
	<circle cx="178.94" cy="667.356" r="4" fill="#0" id="circle67"/>
	<circle cx="181.973" cy="212.31" r="4" fill="#0" id="circle68"/>
	<circle cx="182.985" cy="175.906" r="4" fill="#0" id="circle69"/>
	<circle cx="187.03" cy="268.938" r="4" fill="#0" id="circle70"/>
	<circle cx="189.052" cy="667.356" r="4" fill="#0" id="circle71"/>
	<circle cx="192.086" cy="170.85" r="4" fill="#0" id="circle72"/>
	<circle cx="192.086" cy="212.31" r="4" fill="#0" id="circle73"/>
	<circle cx="192.086" cy="258.826" r="4" fill="#0" id="circle74"/>
	<circle cx="199.164" cy="667.356" r="4" fill="#0" id="circle75"/>
	<circle cx="200.175" cy="251.747" r="4" fill="#0" id="circle76"/>
	<circle cx="201.187" cy="163.772" r="4" fill="#0" id="circle77"/>
	<circle cx="202.198" cy="212.31" r="4" fill="#0" id="circle78"/>
	<circle cx="204.22" cy="241.635" r="4" fill="#0" id="circle79"/>
	<circle cx="209.276" cy="155.682" r="4" fill="#0" id="circle80"/>
	<circle cx="209.276" cy="667.356" r="4" fill="#0" id="circle81"/>
	<circle cx="211.299" cy="224.444" r="4" fill="#0" id="circle82"/>
	<circle cx="212.31" cy="212.31" r="4" fill="#0" id="circle83"/>
	<circle cx="218.377" cy="150.626" r="4" fill="#0" id="circle84"/>
	<circle cx="219.388" cy="667.356" r="4" fill="#0" id="circle85"/>
	<circle cx="226.467" cy="143.547" r="4" fill="#0" id="circle86"/>
	<circle cx="229.501" cy="667.356" r="4" fill="#0" id="circle87"/>
	<circle cx="234.557" cy="135.458" r="4" fill="#0" id="circle88"/>
	<circle cx="239.613" cy="125.346" r="4" fill="#0" id="circle89"/>
	<circle cx="239.613" cy="667.356" r="4" fill="#0" id="circle90"/>
	<circle cx="247.702" cy="117.256" r="4" fill="#0" id="circle91"/>
	<circle cx="249.725" cy="667.356" r="4" fill="#0" id="circle92"/>
	<circle cx="255.792" cy="110.177" r="4" fill="#0" id="circle93"/>
	<circle cx="259.837" cy="667.356" r="4" fill="#0" id="circle94"/>
	<circle cx="261.859" cy="98.0428" r="4" fill="#0" id="circle95"/>
	<circle cx="266.915" cy="87.9307" r="4" fill="#0" id="circle96"/>
	<circle cx="266.915" cy="675.445" r="4" fill="#0" id="circle97"/>
	<circle cx="266.915" cy="685.558" r="4" fill="#0" id="circle98"/>
	<circle cx="266.915" cy="695.67" r="4" fill="#0" id="circle99"/>
	<circle cx="266.915" cy="705.782" r="4" fill="#0" id="circle100"/>
	<circle cx="266.915" cy="715.894" r="4" fill="#0" id="circle101"/>
	<circle cx="266.915" cy="726.006" r="4" fill="#0" id="circle102"/>
	<circle cx="266.915" cy="736.118" r="4" fill="#0" id="circle103"/>
	<circle cx="266.915" cy="746.23" r="4" fill="#0" id="circle104"/>
	<circle cx="266.915" cy="756.343" r="4" fill="#0" id="circle105"/>
	<circle cx="266.915" cy="766.455" r="4" fill="#0" id="circle106"/>
	<circle cx="266.915" cy="776.567" r="4" fill="#0" id="circle107"/>
	<circle cx="266.915" cy="786.679" r="4" fill="#0" id="circle108"/>
	<circle cx="267.927" cy="796.791" r="4" fill="#0" id="circle109"/>
	<circle cx="271.971" cy="806.903" r="4" fill="#0" id="circle110"/>
	<circle cx="271.971" cy="817.015" r="4" fill="#0" id="circle111"/>
	<circle cx="271.971" cy="827.127" r="4" fill="#0" id="circle112"/>
	<circle cx="275.005" cy="79.841" r="4" fill="#0" id="circle113"/>
	<circle cx="277.028" cy="836.228" r="4" fill="#0" id="circle114"/>
	<circle cx="277.028" cy="846.34" r="4" fill="#0" id="circle115"/>
	<circle cx="277.028" cy="856.453" r="4" fill="#0" id="circle116"/>
	<circle cx="277.028" cy="866.565" r="4" fill="#0" id="circle117"/>
	<circle cx="277.028" cy="876.677" r="4" fill="#0" id="circle118"/>
	<circle cx="277.028" cy="886.789" r="4" fill="#0" id="circle119"/>
	<circle cx="277.028" cy="896.901" r="4" fill="#0" id="circle120"/>
	<circle cx="277.028" cy="907.013" r="4" fill="#0" id="circle121"/>
	<circle cx="277.028" cy="917.125" r="4" fill="#0" id="circle122"/>
	<circle cx="277.028" cy="927.238" r="4" fill="#0" id="circle123"/>
	<circle cx="277.028" cy="937.35" r="4" fill="#0" id="circle124"/>
	<circle cx="282.084" cy="946.451" r="4" fill="#0" id="circle125"/>
	<circle cx="282.084" cy="956.563" r="4" fill="#0" id="circle126"/>
	<circle cx="282.084" cy="966.675" r="4" fill="#0" id="circle127"/>
	<circle cx="283.095" cy="71.7513" r="4" fill="#0" id="circle128"/>
	<circle cx="287.14" cy="975.776" r="4" fill="#0" id="circle129"/>
	<circle cx="291.185" cy="64.6728" r="4" fill="#0" id="circle130"/>
	<circle cx="293.207" cy="983.865" r="4" fill="#0" id="circle131"/>
	<circle cx="295.229" cy="54.5607" r="4" fill="#0" id="circle132"/>
	<circle cx="301.297" cy="990.944" r="4" fill="#0" id="circle133"/>
	<circle cx="302.308" cy="42.4261" r="4" fill="#0" id="circle134"/>
	<circle cx="310.398" cy="34.3364" r="4" fill="#0" id="circle135"/>
	<circle cx="311.409" cy="990.944" r="4" fill="#0" id="circle136"/>
	<circle cx="317.476" cy="17.1458" r="4" fill="#0" id="circle137"/>
	<circle cx="321.521" cy="990.944" r="4" fill="#0" id="circle138"/>
	<circle cx="325.566" cy="9.05607" r="4" fill="#0" id="circle139"/>
	<circle cx="331.633" cy="990.944" r="4" fill="#0" id="circle140"/>
	<circle cx="334.667" cy="4" r="4" fill="#0" id="circle141"/>
	<circle cx="341.745" cy="990.944" r="4" fill="#0" id="circle142"/>
	<circle cx="343.768" cy="9.05607" r="4" fill="#0" id="circle143"/>
	<circle cx="351.857" cy="15.1233" r="4" fill="#0" id="circle144"/>
	<circle cx="351.857" cy="990.944" r="4" fill="#0" id="circle145"/>
	<circle cx="358.936" cy="23.213" r="4" fill="#0" id="circle146"/>
	<circle cx="361.969" cy="990.944" r="4" fill="#0" id="circle147"/>
	<circle cx="363.992" cy="32.314" r="4" fill="#0" id="circle148"/>
	<circle cx="371.07" cy="40.4037" r="4" fill="#0" id="circle149"/>
	<circle cx="371.07" cy="996" r="4" fill="#0" id="circle150"/>
	<circle cx="379.16" cy="47.4822" r="4" fill="#0" id="circle151"/>
	<circle cx="381.182" cy="996" r="4" fill="#0" id="circle152"/>
	<circle cx="386.239" cy="55.5719" r="4" fill="#0" id="circle153"/>
	<circle cx="391.295" cy="996" r="4" fill="#0" id="circle154"/>
	<circle cx="394.328" cy="62.6504" r="4" fill="#0" id="circle155"/>
	<circle cx="399.384" cy="677.468" r="4" fill="#0" id="circle156"/>
	<circle cx="401.407" cy="70.7401" r="4" fill="#0" id="circle157"/>
	<circle cx="401.407" cy="687.58" r="4" fill="#0" id="circle158"/>
	<circle cx="401.407" cy="996" r="4" fill="#0" id="circle159"/>
	<circle cx="404.44" cy="697.692" r="4" fill="#0" id="circle160"/>
	<circle cx="404.44" cy="707.804" r="4" fill="#0" id="circle161"/>
	<circle cx="404.44" cy="717.916" r="4" fill="#0" id="circle162"/>
	<circle cx="404.44" cy="728.029" r="4" fill="#0" id="circle163"/>
	<circle cx="404.44" cy="738.141" r="4" fill="#0" id="circle164"/>
	<circle cx="404.44" cy="748.253" r="4" fill="#0" id="circle165"/>
	<circle cx="404.44" cy="758.365" r="4" fill="#0" id="circle166"/>
	<circle cx="404.44" cy="768.477" r="4" fill="#0" id="circle167"/>
	<circle cx="404.44" cy="778.589" r="4" fill="#0" id="circle168"/>
	<circle cx="404.44" cy="788.701" r="4" fill="#0" id="circle169"/>
	<circle cx="404.44" cy="798.813" r="4" fill="#0" id="circle170"/>
	<circle cx="404.44" cy="808.926" r="4" fill="#0" id="circle171"/>
	<circle cx="404.44" cy="819.038" r="4" fill="#0" id="circle172"/>
	<circle cx="404.44" cy="829.15" r="4" fill="#0" id="circle173"/>
	<circle cx="406.463" cy="839.262" r="4" fill="#0" id="circle174"/>
	<circle cx="409.496" cy="77.8186" r="4" fill="#0" id="circle175"/>
	<circle cx="409.496" cy="677.468" r="4" fill="#0" id="circle176"/>
	<circle cx="409.496" cy="849.374" r="4" fill="#0" id="circle177"/>
	<circle cx="409.496" cy="859.486" r="4" fill="#0" id="circle178"/>
	<circle cx="411.519" cy="994.989" r="4" fill="#0" id="circle179"/>
	<circle cx="414.552" cy="86.9195" r="4" fill="#0" id="circle180"/>
	<circle cx="414.552" cy="868.587" r="4" fill="#0" id="circle181"/>
	<circle cx="414.552" cy="878.699" r="4" fill="#0" id="circle182"/>
	<circle cx="414.552" cy="888.811" r="4" fill="#0" id="circle183"/>
	<circle cx="414.552" cy="898.924" r="4" fill="#0" id="circle184"/>
	<circle cx="414.552" cy="909.036" r="4" fill="#0" id="circle185"/>
	<circle cx="419.609" cy="677.468" r="4" fill="#0" id="circle186"/>
	<circle cx="419.609" cy="918.137" r="4" fill="#0" id="circle187"/>
	<circle cx="419.609" cy="928.249" r="4" fill="#0" id="circle188"/>
	<circle cx="419.609" cy="938.361" r="4" fill="#0" id="circle189"/>
	<circle cx="419.609" cy="948.473" r="4" fill="#0" id="circle190"/>
	<circle cx="419.609" cy="958.585" r="4" fill="#0" id="circle191"/>
	<circle cx="419.609" cy="985.888" r="4" fill="#0" id="circle192"/>
	<circle cx="420.62" cy="95.0092" r="4" fill="#0" id="circle193"/>
	<circle cx="424.665" cy="967.686" r="4" fill="#0" id="circle194"/>
	<circle cx="428.709" cy="102.088" r="4" fill="#0" id="circle195"/>
	<circle cx="429.721" cy="677.468" r="4" fill="#0" id="circle196"/>
	<circle cx="434.777" cy="110.177" r="4" fill="#0" id="circle197"/>
	<circle cx="439.833" cy="119.278" r="4" fill="#0" id="circle198"/>
	<circle cx="439.833" cy="677.468" r="4" fill="#0" id="circle199"/>
	<circle cx="449.945" cy="123.323" r="4" fill="#0" id="circle200"/>
	<circle cx="449.945" cy="677.468" r="4" fill="#0" id="circle201"/>
	<circle cx="457.023" cy="131.413" r="4" fill="#0" id="circle202"/>
	<circle cx="460.057" cy="677.468" r="4" fill="#0" id="circle203"/>
	<circle cx="465.113" cy="138.491" r="4" fill="#0" id="circle204"/>
	<circle cx="465.113" cy="207.254" r="4" fill="#0" id="circle205"/>
	<circle cx="470.169" cy="216.355" r="4" fill="#0" id="circle206"/>
	<circle cx="470.169" cy="677.468" r="4" fill="#0" id="circle207"/>
	<circle cx="472.192" cy="146.581" r="4" fill="#0" id="circle208"/>
	<circle cx="475.225" cy="207.254" r="4" fill="#0" id="circle209"/>
	<circle cx="475.225" cy="225.456" r="4" fill="#0" id="circle210"/>
	<circle cx="480.281" cy="153.66" r="4" fill="#0" id="circle211"/>
	<circle cx="480.281" cy="677.468" r="4" fill="#0" id="circle212"/>
	<circle cx="483.315" cy="232.534" r="4" fill="#0" id="circle213"/>
	<circle cx="485.337" cy="207.254" r="4" fill="#0" id="circle214"/>
	<circle cx="489.382" cy="158.716" r="4" fill="#0" id="circle215"/>
	<circle cx="490.393" cy="240.624" r="4" fill="#0" id="circle216"/>
	<circle cx="490.393" cy="677.468" r="4" fill="#0" id="circle217"/>
	<circle cx="495.45" cy="207.254" r="4" fill="#0" id="circle218"/>
	<circle cx="495.45" cy="249.725" r="4" fill="#0" id="circle219"/>
	<circle cx="497.472" cy="165.794" r="4" fill="#0" id="circle220"/>
	<circle cx="500.506" cy="677.468" r="4" fill="#0" id="circle221"/>
	<circle cx="502.528" cy="257.814" r="4" fill="#0" id="circle222"/>
	<circle cx="504.55" cy="173.884" r="4" fill="#0" id="circle223"/>
	<circle cx="505.562" cy="202.198" r="4" fill="#0" id="circle224"/>
	<circle cx="507.584" cy="266.915" r="4" fill="#0" id="circle225"/>
	<circle cx="510.618" cy="677.468" r="4" fill="#0" id="circle226"/>
	<circle cx="512.64" cy="180.962" r="4" fill="#0" id="circle227"/>
	<circle cx="513.651" cy="195.119" r="4" fill="#0" id="circle228"/>
	<circle cx="514.663" cy="275.005" r="4" fill="#0" id="circle229"/>
	<circle cx="520.73" cy="677.468" r="4" fill="#0" id="circle230"/>
	<circle cx="522.752" cy="282.084" r="4" fill="#0" id="circle231"/>
	<circle cx="529.831" cy="290.173" r="4" fill="#0" id="circle232"/>
	<circle cx="530.842" cy="677.468" r="4" fill="#0" id="circle233"/>
	<circle cx="537.92" cy="297.252" r="4" fill="#0" id="circle234"/>
	<circle cx="540.954" cy="677.468" r="4" fill="#0" id="circle235"/>
	<circle cx="544.999" cy="305.341" r="4" fill="#0" id="circle236"/>
	<circle cx="550.055" cy="314.442" r="4" fill="#0" id="circle237"/>
	<circle cx="551.066" cy="399.384" r="4" fill="#0" id="circle238"/>
	<circle cx="551.066" cy="672.412" r="4" fill="#0" id="circle239"/>
	<circle cx="556.122" cy="408.485" r="4" fill="#0" id="circle240"/>
	<circle cx="559.156" cy="319.498" r="4" fill="#0" id="circle241"/>
	<circle cx="561.178" cy="399.384" r="4" fill="#0" id="circle242"/>
	<circle cx="561.178" cy="417.586" r="4" fill="#0" id="circle243"/>
	<circle cx="561.178" cy="672.412" r="4" fill="#0" id="circle244"/>
	<circle cx="566.234" cy="327.588" r="4" fill="#0" id="circle245"/>
	<circle cx="569.268" cy="424.665" r="4" fill="#0" id="circle246"/>
	<circle cx="571.291" cy="399.384" r="4" fill="#0" id="circle247"/>
	<circle cx="571.291" cy="667.356" r="4" fill="#0" id="circle248"/>
	<circle cx="573.313" cy="434.777" r="4" fill="#0" id="circle249"/>
	<circle cx="574.324" cy="333.655" r="4" fill="#0" id="circle250"/>
	<circle cx="578.369" cy="343.768" r="4" fill="#0" id="circle251"/>
	<circle cx="581.403" cy="394.328" r="4" fill="#0" id="circle252"/>
	<circle cx="581.403" cy="441.855" r="4" fill="#0" id="circle253"/>
	<circle cx="581.403" cy="667.356" r="4" fill="#0" id="circle254"/>
	<circle cx="586.459" cy="350.846" r="4" fill="#0" id="circle255"/>
	<circle cx="586.459" cy="450.956" r="4" fill="#0" id="circle256"/>
	<circle cx="591.515" cy="359.947" r="4" fill="#0" id="circle257"/>
	<circle cx="591.515" cy="389.272" r="4" fill="#0" id="circle258"/>
	<circle cx="591.515" cy="667.356" r="4" fill="#0" id="circle259"/>
	<circle cx="592.526" cy="459.046" r="4" fill="#0" id="circle260"/>
	<circle cx="596.571" cy="469.158" r="4" fill="#0" id="circle261"/>
	<circle cx="597.582" cy="368.037" r="4" fill="#0" id="circle262"/>
	<circle cx="599.604" cy="382.194" r="4" fill="#0" id="circle263"/>
	<circle cx="601.627" cy="478.259" r="4" fill="#0" id="circle264"/>
	<circle cx="601.627" cy="667.356" r="4" fill="#0" id="circle265"/>
	<circle cx="606.683" cy="487.36" r="4" fill="#0" id="circle266"/>
	<circle cx="611.739" cy="496.461" r="4" fill="#0" id="circle267"/>
	<circle cx="611.739" cy="667.356" r="4" fill="#0" id="circle268"/>
	<circle cx="617.806" cy="504.55" r="4" fill="#0" id="circle269"/>
	<circle cx="621.851" cy="514.663" r="4" fill="#0" id="circle270"/>
	<circle cx="621.851" cy="667.356" r="4" fill="#0" id="circle271"/>
	<circle cx="629.941" cy="520.73" r="4" fill="#0" id="circle272"/>
	<circle cx="631.963" cy="530.842" r="4" fill="#0" id="circle273"/>
	<circle cx="631.963" cy="667.356" r="4" fill="#0" id="circle274"/>
	<circle cx="637.019" cy="539.943" r="4" fill="#0" id="circle275"/>
	<circle cx="642.075" cy="549.044" r="4" fill="#0" id="circle276"/>
	<circle cx="642.075" cy="667.356" r="4" fill="#0" id="circle277"/>
	<circle cx="647.131" cy="558.145" r="4" fill="#0" id="circle278"/>
	<circle cx="652.188" cy="667.356" r="4" fill="#0" id="circle279"/>
	<circle cx="654.21" cy="566.234" r="4" fill="#0" id="circle280"/>
	<circle cx="662.3" cy="573.313" r="4" fill="#0" id="circle281"/>
	<circle cx="662.3" cy="667.356" r="4" fill="#0" id="circle282"/>
	<circle cx="667.356" cy="582.414" r="4" fill="#0" id="circle283"/>
	<circle cx="672.412" cy="667.356" r="4" fill="#0" id="circle284"/>
	<circle cx="673.423" cy="590.504" r="4" fill="#0" id="circle285"/>
	<circle cx="681.513" cy="597.582" r="4" fill="#0" id="circle286"/>
	<circle cx="682.524" cy="667.356" r="4" fill="#0" id="circle287"/>
	<circle cx="685.558" cy="607.694" r="4" fill="#0" id="circle288"/>
	<circle cx="692.636" cy="615.784" r="4" fill="#0" id="circle289"/>
	<circle cx="692.636" cy="667.356" r="4" fill="#0" id="circle290"/>
	<circle cx="697.692" cy="624.885" r="4" fill="#0" id="circle291"/>
	<circle cx="700.726" cy="660.277" r="4" fill="#0" id="circle292"/>
	<circle cx="702.748" cy="633.986" r="4" fill="#0" id="circle293"/>
	<circle cx="706.793" cy="644.098" r="4" fill="#0" id="circle294"/>
	</g>
</svg>