<?xml version="1.0" encoding="UTF-8" standalone="no"?>
<!-- Created with CurveBenchmark -->
<svg
	xmlns:dc="http://purl.org/dc/elements/1.1/"
	xmlns:cc="http://creativecommons.org/ns#"
	xmlns:rdf="http://www.w3.org/1999/02/22-rdf-syntax-ns#"
	xmlns:svg="http://www.w3.org/2000/svg"
	xmlns="http://www.w3.org/2000/svg"
	xmlns:sodipodi="http://sodipodi.sourceforge.net/DTD/sodipodi-0.dtd"
	xmlns:inkscape="http://www.inkscape.org/namespaces/inkscape"
	width="1000"
	height="1000"
	id="svg2"
	version="1.1"
	sodipodi:docname="manifold/fitconnect-cat01.png.txt">
<defs
	id="defs4" />
<metadata
	id="metadata7">
	<rdf:RDF>
		<cc:Work
			rdf:about="">
			<dc:format>image/svg+xml</dc:format>
			<dc:type
				rdf:resource="http://purl.org/dc/dcmitype/StillImage" />
			<dc:title></dc:title>
		</cc:Work>
	</rdf:RDF>
</metadata>
<g
	inkscape:label="Layer 1"
	inkscape:groupmode="layer"
	id="layer1">
	<path style="fill:none;stroke:red;stroke-width:1px;stroke-linecap:butt;stroke-linejoin:miter;stroke-opacity:1" d="M 4,121.111 4,138.333 z" id="boundary" inkscape:connector-curvature="0" />
	<path style="fill:none;stroke:red;stroke-width:1px;stroke-linecap:butt;stroke-linejoin:miter;stroke-opacity:1" d="M 4,121.111 17.7778,107.333 z" id="boundary" inkscape:connector-curvature="0" />
	<path style="fill:none;stroke:red;stroke-width:1px;stroke-linecap:butt;stroke-linejoin:miter;stroke-opacity:1" d="M 4,138.333 4,155.556 z" id="boundary" inkscape:connector-curvature="0" />
	<path style="fill:none;stroke:red;stroke-width:1px;stroke-linecap:butt;stroke-linejoin:miter;stroke-opacity:1" d="M 4,155.556 4,172.778 z" id="boundary" inkscape:connector-curvature="0" />
	<path style="fill:none;stroke:red;stroke-width:1px;stroke-linecap:butt;stroke-linejoin:miter;stroke-opacity:1" d="M 4,172.778 12.6111,188.278 z" id="boundary" inkscape:connector-curvature="0" />
	<path style="fill:none;stroke:red;stroke-width:1px;stroke-linecap:butt;stroke-linejoin:miter;stroke-opacity:1" d="M 12.6111,17.7778 12.6111,35 z" id="boundary" inkscape:connector-curvature="0" />
	<path style="fill:none;stroke:red;stroke-width:1px;stroke-linecap:butt;stroke-linejoin:miter;stroke-opacity:1" d="M 12.6111,17.7778 26.3889,4 z" id="boundary" inkscape:connector-curvature="0" />
	<path style="fill:none;stroke:red;stroke-width:1px;stroke-linecap:butt;stroke-linejoin:miter;stroke-opacity:1" d="M 12.6111,35 21.2222,50.5 z" id="boundary" inkscape:connector-curvature="0" />
	<path style="fill:none;stroke:red;stroke-width:1px;stroke-linecap:butt;stroke-linejoin:miter;stroke-opacity:1" d="M 12.6111,188.278 12.6111,205.5 z" id="boundary" inkscape:connector-curvature="0" />
	<path style="fill:none;stroke:red;stroke-width:1px;stroke-linecap:butt;stroke-linejoin:miter;stroke-opacity:1" d="M 12.6111,205.5 21.2222,221 z" id="boundary" inkscape:connector-curvature="0" />
	<path style="fill:none;stroke:red;stroke-width:1px;stroke-linecap:butt;stroke-linejoin:miter;stroke-opacity:1" d="M 17.7778,107.333 21.2222,84.9444 z" id="boundary" inkscape:connector-curvature="0" />
	<path style="fill:none;stroke:red;stroke-width:1px;stroke-linecap:butt;stroke-linejoin:miter;stroke-opacity:1" d="M 21.2222,50.5 21.2222,67.7222 z" id="boundary" inkscape:connector-curvature="0" />
	<path style="fill:none;stroke:red;stroke-width:1px;stroke-linecap:butt;stroke-linejoin:miter;stroke-opacity:1" d="M 21.2222,67.7222 21.2222,84.9444 z" id="boundary" inkscape:connector-curvature="0" />
	<path style="fill:none;stroke:red;stroke-width:1px;stroke-linecap:butt;stroke-linejoin:miter;stroke-opacity:1" d="M 21.2222,221 21.2222,238.222 z" id="boundary" inkscape:connector-curvature="0" />
	<path style="fill:none;stroke:red;stroke-width:1px;stroke-linecap:butt;stroke-linejoin:miter;stroke-opacity:1" d="M 21.2222,238.222 31.5556,252 z" id="boundary" inkscape:connector-curvature="0" />
	<path style="fill:none;stroke:red;stroke-width:1px;stroke-linecap:butt;stroke-linejoin:miter;stroke-opacity:1" d="M 26.3889,4 40.1667,14.3333 z" id="boundary" inkscape:connector-curvature="0" />
	<path style="fill:none;stroke:red;stroke-width:1px;stroke-linecap:butt;stroke-linejoin:miter;stroke-opacity:1" d="M 31.5556,252 45.3333,264.056 z" id="boundary" inkscape:connector-curvature="0" />
	<path style="fill:none;stroke:red;stroke-width:1px;stroke-linecap:butt;stroke-linejoin:miter;stroke-opacity:1" d="M 40.1667,14.3333 48.7778,29.8333 z" id="boundary" inkscape:connector-curvature="0" />
	<path style="fill:none;stroke:red;stroke-width:1px;stroke-linecap:butt;stroke-linejoin:miter;stroke-opacity:1" d="M 45.3333,264.056 47.0556,281.278 z" id="boundary" inkscape:connector-curvature="0" />
	<path style="fill:none;stroke:red;stroke-width:1px;stroke-linecap:butt;stroke-linejoin:miter;stroke-opacity:1" d="M 47.0556,281.278 52.2222,298.5 z" id="boundary" inkscape:connector-curvature="0" />
	<path style="fill:none;stroke:red;stroke-width:1px;stroke-linecap:butt;stroke-linejoin:miter;stroke-opacity:1" d="M 48.7778,29.8333 62.5556,40.1667 z" id="boundary" inkscape:connector-curvature="0" />
	<path style="fill:none;stroke:red;stroke-width:1px;stroke-linecap:butt;stroke-linejoin:miter;stroke-opacity:1" d="M 52.2222,298.5 60.8333,314 z" id="boundary" inkscape:connector-curvature="0" />
	<path style="fill:none;stroke:red;stroke-width:1px;stroke-linecap:butt;stroke-linejoin:miter;stroke-opacity:1" d="M 55.6667,345 60.8333,314 z" id="boundary" inkscape:connector-curvature="0" />
	<path style="fill:none;stroke:red;stroke-width:1px;stroke-linecap:butt;stroke-linejoin:miter;stroke-opacity:1" d="M 55.6667,345 64.2778,360.5 z" id="boundary" inkscape:connector-curvature="0" />
	<path style="fill:none;stroke:red;stroke-width:1px;stroke-linecap:butt;stroke-linejoin:miter;stroke-opacity:1" d="M 62.5556,40.1667 78.0556,48.7778 z" id="boundary" inkscape:connector-curvature="0" />
	<path style="fill:none;stroke:red;stroke-width:1px;stroke-linecap:butt;stroke-linejoin:miter;stroke-opacity:1" d="M 64.2778,360.5 72.8889,376 z" id="boundary" inkscape:connector-curvature="0" />
	<path style="fill:none;stroke:red;stroke-width:1px;stroke-linecap:butt;stroke-linejoin:miter;stroke-opacity:1" d="M 72.8889,376 72.8889,393.222 z" id="boundary" inkscape:connector-curvature="0" />
	<path style="fill:none;stroke:red;stroke-width:1px;stroke-linecap:butt;stroke-linejoin:miter;stroke-opacity:1" d="M 72.8889,393.222 78.0556,410.444 z" id="boundary" inkscape:connector-curvature="0" />
	<path style="fill:none;stroke:red;stroke-width:1px;stroke-linecap:butt;stroke-linejoin:miter;stroke-opacity:1" d="M 78.0556,48.7778 95.2778,55.6667 z" id="boundary" inkscape:connector-curvature="0" />
	<path style="fill:none;stroke:red;stroke-width:1px;stroke-linecap:butt;stroke-linejoin:miter;stroke-opacity:1" d="M 78.0556,410.444 91.8333,422.5 z" id="boundary" inkscape:connector-curvature="0" />
	<path style="fill:none;stroke:red;stroke-width:1px;stroke-linecap:butt;stroke-linejoin:miter;stroke-opacity:1" d="M 91.8333,422.5 103.889,436.278 z" id="boundary" inkscape:connector-curvature="0" />
	<path style="fill:none;stroke:red;stroke-width:1px;stroke-linecap:butt;stroke-linejoin:miter;stroke-opacity:1" d="M 95.2778,55.6667 112.5,55.6667 z" id="boundary" inkscape:connector-curvature="0" />
	<path style="fill:none;stroke:red;stroke-width:1px;stroke-linecap:butt;stroke-linejoin:miter;stroke-opacity:1" d="M 103.889,436.278 112.5,451.778 z" id="boundary" inkscape:connector-curvature="0" />
	<path style="fill:none;stroke:red;stroke-width:1px;stroke-linecap:butt;stroke-linejoin:miter;stroke-opacity:1" d="M 112.5,55.6667 129.722,55.6667 z" id="boundary" inkscape:connector-curvature="0" />
	<path style="fill:none;stroke:red;stroke-width:1px;stroke-linecap:butt;stroke-linejoin:miter;stroke-opacity:1" d="M 112.5,451.778 124.556,465.556 z" id="boundary" inkscape:connector-curvature="0" />
	<path style="fill:none;stroke:red;stroke-width:1px;stroke-linecap:butt;stroke-linejoin:miter;stroke-opacity:1" d="M 124.556,465.556 133.167,481.056 z" id="boundary" inkscape:connector-curvature="0" />
	<path style="fill:none;stroke:red;stroke-width:1px;stroke-linecap:butt;stroke-linejoin:miter;stroke-opacity:1" d="M 129.722,55.6667 145.222,64.2778 z" id="boundary" inkscape:connector-curvature="0" />
	<path style="fill:none;stroke:red;stroke-width:1px;stroke-linecap:butt;stroke-linejoin:miter;stroke-opacity:1" d="M 133.167,481.056 145.222,494.833 z" id="boundary" inkscape:connector-curvature="0" />
	<path style="fill:none;stroke:red;stroke-width:1px;stroke-linecap:butt;stroke-linejoin:miter;stroke-opacity:1" d="M 145.222,64.2778 162.444,57.3889 z" id="boundary" inkscape:connector-curvature="0" />
	<path style="fill:none;stroke:red;stroke-width:1px;stroke-linecap:butt;stroke-linejoin:miter;stroke-opacity:1" d="M 145.222,494.833 153.833,510.333 z" id="boundary" inkscape:connector-curvature="0" />
	<path style="fill:none;stroke:red;stroke-width:1px;stroke-linecap:butt;stroke-linejoin:miter;stroke-opacity:1" d="M 153.833,510.333 193.444,618.833 z" id="boundary" inkscape:connector-curvature="0" />
	<path style="fill:none;stroke:red;stroke-width:1px;stroke-linecap:butt;stroke-linejoin:miter;stroke-opacity:1" d="M 162.444,57.3889 176.222,47.0556 z" id="boundary" inkscape:connector-curvature="0" />
	<path style="fill:none;stroke:red;stroke-width:1px;stroke-linecap:butt;stroke-linejoin:miter;stroke-opacity:1" d="M 176.222,47.0556 191.722,38.4444 z" id="boundary" inkscape:connector-curvature="0" />
	<path style="fill:none;stroke:red;stroke-width:1px;stroke-linecap:butt;stroke-linejoin:miter;stroke-opacity:1" d="M 191.722,38.4444 203.778,24.6667 z" id="boundary" inkscape:connector-curvature="0" />
	<path style="fill:none;stroke:red;stroke-width:1px;stroke-linecap:butt;stroke-linejoin:miter;stroke-opacity:1" d="M 193.444,618.833 589.556,789.333 z" id="boundary" inkscape:connector-curvature="0" />
	<path style="fill:none;stroke:red;stroke-width:1px;stroke-linecap:butt;stroke-linejoin:miter;stroke-opacity:1" d="M 203.778,24.6667 217.556,12.6111 z" id="boundary" inkscape:connector-curvature="0" />
	<path style="fill:none;stroke:red;stroke-width:1px;stroke-linecap:butt;stroke-linejoin:miter;stroke-opacity:1" d="M 217.556,12.6111 233.056,21.2222 z" id="boundary" inkscape:connector-curvature="0" />
	<path style="fill:none;stroke:red;stroke-width:1px;stroke-linecap:butt;stroke-linejoin:miter;stroke-opacity:1" d="M 233.056,21.2222 238.222,38.4444 z" id="boundary" inkscape:connector-curvature="0" />
	<path style="fill:none;stroke:red;stroke-width:1px;stroke-linecap:butt;stroke-linejoin:miter;stroke-opacity:1" d="M 238.222,38.4444 238.222,55.6667 z" id="boundary" inkscape:connector-curvature="0" />
	<path style="fill:none;stroke:red;stroke-width:1px;stroke-linecap:butt;stroke-linejoin:miter;stroke-opacity:1" d="M 238.222,55.6667 238.222,72.8889 z" id="boundary" inkscape:connector-curvature="0" />
	<path style="fill:none;stroke:red;stroke-width:1px;stroke-linecap:butt;stroke-linejoin:miter;stroke-opacity:1" d="M 238.222,72.8889 238.222,90.1111 z" id="boundary" inkscape:connector-curvature="0" />
	<path style="fill:none;stroke:red;stroke-width:1px;stroke-linecap:butt;stroke-linejoin:miter;stroke-opacity:1" d="M 238.222,90.1111 238.222,107.333 z" id="boundary" inkscape:connector-curvature="0" />
	<path style="fill:none;stroke:red;stroke-width:1px;stroke-linecap:butt;stroke-linejoin:miter;stroke-opacity:1" d="M 238.222,107.333 238.222,124.556 z" id="boundary" inkscape:connector-curvature="0" />
	<path style="fill:none;stroke:red;stroke-width:1px;stroke-linecap:butt;stroke-linejoin:miter;stroke-opacity:1" d="M 238.222,124.556 238.222,141.778 z" id="boundary" inkscape:connector-curvature="0" />
	<path style="fill:none;stroke:red;stroke-width:1px;stroke-linecap:butt;stroke-linejoin:miter;stroke-opacity:1" d="M 238.222,141.778 246.833,157.278 z" id="boundary" inkscape:connector-curvature="0" />
	<path style="fill:none;stroke:red;stroke-width:1px;stroke-linecap:butt;stroke-linejoin:miter;stroke-opacity:1" d="M 246.833,157.278 264.056,164.167 z" id="boundary" inkscape:connector-curvature="0" />
	<path style="fill:none;stroke:red;stroke-width:1px;stroke-linecap:butt;stroke-linejoin:miter;stroke-opacity:1" d="M 264.056,164.167 277.833,176.222 z" id="boundary" inkscape:connector-curvature="0" />
	<path style="fill:none;stroke:red;stroke-width:1px;stroke-linecap:butt;stroke-linejoin:miter;stroke-opacity:1" d="M 277.833,176.222 293.333,167.611 z" id="boundary" inkscape:connector-curvature="0" />
	<path style="fill:none;stroke:red;stroke-width:1px;stroke-linecap:butt;stroke-linejoin:miter;stroke-opacity:1" d="M 293.333,167.611 310.556,159 z" id="boundary" inkscape:connector-curvature="0" />
	<path style="fill:none;stroke:red;stroke-width:1px;stroke-linecap:butt;stroke-linejoin:miter;stroke-opacity:1" d="M 310.556,159 327.778,159 z" id="boundary" inkscape:connector-curvature="0" />
	<path style="fill:none;stroke:red;stroke-width:1px;stroke-linecap:butt;stroke-linejoin:miter;stroke-opacity:1" d="M 327.778,159 345,150.389 z" id="boundary" inkscape:connector-curvature="0" />
	<path style="fill:none;stroke:red;stroke-width:1px;stroke-linecap:butt;stroke-linejoin:miter;stroke-opacity:1" d="M 345,150.389 360.5,141.778 z" id="boundary" inkscape:connector-curvature="0" />
	<path style="fill:none;stroke:red;stroke-width:1px;stroke-linecap:butt;stroke-linejoin:miter;stroke-opacity:1" d="M 360.5,141.778 377.722,134.889 z" id="boundary" inkscape:connector-curvature="0" />
	<path style="fill:none;stroke:red;stroke-width:1px;stroke-linecap:butt;stroke-linejoin:miter;stroke-opacity:1" d="M 377.722,134.889 391.5,124.556 z" id="boundary" inkscape:connector-curvature="0" />
	<path style="fill:none;stroke:red;stroke-width:1px;stroke-linecap:butt;stroke-linejoin:miter;stroke-opacity:1" d="M 391.5,124.556 408.722,124.556 z" id="boundary" inkscape:connector-curvature="0" />
	<path style="fill:none;stroke:red;stroke-width:1px;stroke-linecap:butt;stroke-linejoin:miter;stroke-opacity:1" d="M 408.722,124.556 425.944,124.556 z" id="boundary" inkscape:connector-curvature="0" />
	<path style="fill:none;stroke:red;stroke-width:1px;stroke-linecap:butt;stroke-linejoin:miter;stroke-opacity:1" d="M 425.944,124.556 443.167,124.556 z" id="boundary" inkscape:connector-curvature="0" />
	<path style="fill:none;stroke:red;stroke-width:1px;stroke-linecap:butt;stroke-linejoin:miter;stroke-opacity:1" d="M 443.167,124.556 460.389,124.556 z" id="boundary" inkscape:connector-curvature="0" />
	<path style="fill:none;stroke:red;stroke-width:1px;stroke-linecap:butt;stroke-linejoin:miter;stroke-opacity:1" d="M 460.389,124.556 475.889,133.167 z" id="boundary" inkscape:connector-curvature="0" />
	<path style="fill:none;stroke:red;stroke-width:1px;stroke-linecap:butt;stroke-linejoin:miter;stroke-opacity:1" d="M 475.889,133.167 493.111,133.167 z" id="boundary" inkscape:connector-curvature="0" />
	<path style="fill:none;stroke:red;stroke-width:1px;stroke-linecap:butt;stroke-linejoin:miter;stroke-opacity:1" d="M 493.111,133.167 510.333,133.167 z" id="boundary" inkscape:connector-curvature="0" />
	<path style="fill:none;stroke:red;stroke-width:1px;stroke-linecap:butt;stroke-linejoin:miter;stroke-opacity:1" d="M 510.333,133.167 527.556,133.167 z" id="boundary" inkscape:connector-curvature="0" />
	<path style="fill:none;stroke:red;stroke-width:1px;stroke-linecap:butt;stroke-linejoin:miter;stroke-opacity:1" d="M 527.556,133.167 543.056,141.778 z" id="boundary" inkscape:connector-curvature="0" />
	<path style="fill:none;stroke:red;stroke-width:1px;stroke-linecap:butt;stroke-linejoin:miter;stroke-opacity:1" d="M 543.056,141.778 560.278,141.778 z" id="boundary" inkscape:connector-curvature="0" />
	<path style="fill:none;stroke:red;stroke-width:1px;stroke-linecap:butt;stroke-linejoin:miter;stroke-opacity:1" d="M 560.278,141.778 577.5,141.778 z" id="boundary" inkscape:connector-curvature="0" />
	<path style="fill:none;stroke:red;stroke-width:1px;stroke-linecap:butt;stroke-linejoin:miter;stroke-opacity:1" d="M 577.5,141.778 642.944,159 z" id="boundary" inkscape:connector-curvature="0" />
	<path style="fill:none;stroke:red;stroke-width:1px;stroke-linecap:butt;stroke-linejoin:miter;stroke-opacity:1" d="M 589.556,789.333 701.5,677.389 z" id="boundary" inkscape:connector-curvature="0" />
	<path style="fill:none;stroke:red;stroke-width:1px;stroke-linecap:butt;stroke-linejoin:miter;stroke-opacity:1" d="M 642.944,159 797.944,286.444 z" id="boundary" inkscape:connector-curvature="0" />
	<path style="fill:none;stroke:red;stroke-width:1px;stroke-linecap:butt;stroke-linejoin:miter;stroke-opacity:1" d="M 701.5,677.389 772.111,613.667 z" id="boundary" inkscape:connector-curvature="0" />
	<path style="fill:none;stroke:red;stroke-width:1px;stroke-linecap:butt;stroke-linejoin:miter;stroke-opacity:1" d="M 732.5,124.556 753.167,86.6667 z" id="boundary" inkscape:connector-curvature="0" />
	<path style="fill:none;stroke:red;stroke-width:1px;stroke-linecap:butt;stroke-linejoin:miter;stroke-opacity:1" d="M 732.5,124.556 815.167,152.111 z" id="boundary" inkscape:connector-curvature="0" />
	<path style="fill:none;stroke:red;stroke-width:1px;stroke-linecap:butt;stroke-linejoin:miter;stroke-opacity:1" d="M 753.167,86.6667 787.611,60.8333 z" id="boundary" inkscape:connector-curvature="0" />
	<path style="fill:none;stroke:red;stroke-width:1px;stroke-linecap:butt;stroke-linejoin:miter;stroke-opacity:1" d="M 754.889,513.778 754.889,548.222 z" id="boundary" inkscape:connector-curvature="0" />
	<path style="fill:none;stroke:red;stroke-width:1px;stroke-linecap:butt;stroke-linejoin:miter;stroke-opacity:1" d="M 754.889,513.778 797.944,419.056 z" id="boundary" inkscape:connector-curvature="0" />
	<path style="fill:none;stroke:red;stroke-width:1px;stroke-linecap:butt;stroke-linejoin:miter;stroke-opacity:1" d="M 754.889,548.222 772.111,613.667 z" id="boundary" inkscape:connector-curvature="0" />
	<path style="fill:none;stroke:red;stroke-width:1px;stroke-linecap:butt;stroke-linejoin:miter;stroke-opacity:1" d="M 787.611,60.8333 796.222,43.6111 z" id="boundary" inkscape:connector-curvature="0" />
	<path style="fill:none;stroke:red;stroke-width:1px;stroke-linecap:butt;stroke-linejoin:miter;stroke-opacity:1" d="M 796.222,43.6111 810,29.8333 z" id="boundary" inkscape:connector-curvature="0" />
	<path style="fill:none;stroke:red;stroke-width:1px;stroke-linecap:butt;stroke-linejoin:miter;stroke-opacity:1" d="M 797.944,286.444 806.556,336.389 z" id="boundary" inkscape:connector-curvature="0" />
	<path style="fill:none;stroke:red;stroke-width:1px;stroke-linecap:butt;stroke-linejoin:miter;stroke-opacity:1" d="M 797.944,419.056 806.556,336.389 z" id="boundary" inkscape:connector-curvature="0" />
	<path style="fill:none;stroke:red;stroke-width:1px;stroke-linecap:butt;stroke-linejoin:miter;stroke-opacity:1" d="M 810,29.8333 825.5,21.2222 z" id="boundary" inkscape:connector-curvature="0" />
	<path style="fill:none;stroke:red;stroke-width:1px;stroke-linecap:butt;stroke-linejoin:miter;stroke-opacity:1" d="M 815.167,152.111 832.389,126.278 z" id="boundary" inkscape:connector-curvature="0" />
	<path style="fill:none;stroke:red;stroke-width:1px;stroke-linecap:butt;stroke-linejoin:miter;stroke-opacity:1" d="M 825.5,21.2222 841,12.6111 z" id="boundary" inkscape:connector-curvature="0" />
	<path style="fill:none;stroke:red;stroke-width:1px;stroke-linecap:butt;stroke-linejoin:miter;stroke-opacity:1" d="M 832.389,126.278 846.167,114.222 z" id="boundary" inkscape:connector-curvature="0" />
	<path style="fill:none;stroke:red;stroke-width:1px;stroke-linecap:butt;stroke-linejoin:miter;stroke-opacity:1" d="M 841,12.6111 856.5,4 z" id="boundary" inkscape:connector-curvature="0" />
	<path style="fill:none;stroke:red;stroke-width:1px;stroke-linecap:butt;stroke-linejoin:miter;stroke-opacity:1" d="M 846.167,114.222 854.778,97 z" id="boundary" inkscape:connector-curvature="0" />
	<path style="fill:none;stroke:red;stroke-width:1px;stroke-linecap:butt;stroke-linejoin:miter;stroke-opacity:1" d="M 854.778,97 866.833,83.2222 z" id="boundary" inkscape:connector-curvature="0" />
	<path style="fill:none;stroke:red;stroke-width:1px;stroke-linecap:butt;stroke-linejoin:miter;stroke-opacity:1" d="M 856.5,4 873.722,4 z" id="boundary" inkscape:connector-curvature="0" />
	<path style="fill:none;stroke:red;stroke-width:1px;stroke-linecap:butt;stroke-linejoin:miter;stroke-opacity:1" d="M 866.833,83.2222 882.333,74.6111 z" id="boundary" inkscape:connector-curvature="0" />
	<path style="fill:none;stroke:red;stroke-width:1px;stroke-linecap:butt;stroke-linejoin:miter;stroke-opacity:1" d="M 873.722,4 890.944,4 z" id="boundary" inkscape:connector-curvature="0" />
	<path style="fill:none;stroke:red;stroke-width:1px;stroke-linecap:butt;stroke-linejoin:miter;stroke-opacity:1" d="M 882.333,74.6111 899.556,74.6111 z" id="boundary" inkscape:connector-curvature="0" />
	<path style="fill:none;stroke:red;stroke-width:1px;stroke-linecap:butt;stroke-linejoin:miter;stroke-opacity:1" d="M 890.944,4 908.167,4 z" id="boundary" inkscape:connector-curvature="0" />
	<path style="fill:none;stroke:red;stroke-width:1px;stroke-linecap:butt;stroke-linejoin:miter;stroke-opacity:1" d="M 899.556,74.6111 915.056,83.2222 z" id="boundary" inkscape:connector-curvature="0" />
	<path style="fill:none;stroke:red;stroke-width:1px;stroke-linecap:butt;stroke-linejoin:miter;stroke-opacity:1" d="M 908.167,4 925.389,4 z" id="boundary" inkscape:connector-curvature="0" />
	<path style="fill:none;stroke:red;stroke-width:1px;stroke-linecap:butt;stroke-linejoin:miter;stroke-opacity:1" d="M 915.056,83.2222 927.111,97 z" id="boundary" inkscape:connector-curvature="0" />
	<path style="fill:none;stroke:red;stroke-width:1px;stroke-linecap:butt;stroke-linejoin:miter;stroke-opacity:1" d="M 916.778,198.611 925.389,181.389 z" id="boundary" inkscape:connector-curvature="0" />
	<path style="fill:none;stroke:red;stroke-width:1px;stroke-linecap:butt;stroke-linejoin:miter;stroke-opacity:1" d="M 916.778,198.611 970.167,195.167 z" id="boundary" inkscape:connector-curvature="0" />
	<path style="fill:none;stroke:red;stroke-width:1px;stroke-linecap:butt;stroke-linejoin:miter;stroke-opacity:1" d="M 925.389,4 940.889,12.6111 z" id="boundary" inkscape:connector-curvature="0" />
	<path style="fill:none;stroke:red;stroke-width:1px;stroke-linecap:butt;stroke-linejoin:miter;stroke-opacity:1" d="M 925.389,181.389 934,165.889 z" id="boundary" inkscape:connector-curvature="0" />
	<path style="fill:none;stroke:red;stroke-width:1px;stroke-linecap:butt;stroke-linejoin:miter;stroke-opacity:1" d="M 927.111,97 934,114.222 z" id="boundary" inkscape:connector-curvature="0" />
	<path style="fill:none;stroke:red;stroke-width:1px;stroke-linecap:butt;stroke-linejoin:miter;stroke-opacity:1" d="M 934,114.222 934,131.444 z" id="boundary" inkscape:connector-curvature="0" />
	<path style="fill:none;stroke:red;stroke-width:1px;stroke-linecap:butt;stroke-linejoin:miter;stroke-opacity:1" d="M 934,131.444 934,148.667 z" id="boundary" inkscape:connector-curvature="0" />
	<path style="fill:none;stroke:red;stroke-width:1px;stroke-linecap:butt;stroke-linejoin:miter;stroke-opacity:1" d="M 934,148.667 934,165.889 z" id="boundary" inkscape:connector-curvature="0" />
	<path style="fill:none;stroke:red;stroke-width:1px;stroke-linecap:butt;stroke-linejoin:miter;stroke-opacity:1" d="M 940.889,12.6111 956.389,21.2222 z" id="boundary" inkscape:connector-curvature="0" />
	<path style="fill:none;stroke:red;stroke-width:1px;stroke-linecap:butt;stroke-linejoin:miter;stroke-opacity:1" d="M 956.389,21.2222 961.556,38.4444 z" id="boundary" inkscape:connector-curvature="0" />
	<path style="fill:none;stroke:red;stroke-width:1px;stroke-linecap:butt;stroke-linejoin:miter;stroke-opacity:1" d="M 961.556,38.4444 975.333,48.7778 z" id="boundary" inkscape:connector-curvature="0" />
	<path style="fill:none;stroke:red;stroke-width:1px;stroke-linecap:butt;stroke-linejoin:miter;stroke-opacity:1" d="M 970.167,195.167 983.944,183.111 z" id="boundary" inkscape:connector-curvature="0" />
	<path style="fill:none;stroke:red;stroke-width:1px;stroke-linecap:butt;stroke-linejoin:miter;stroke-opacity:1" d="M 975.333,48.7778 987.389,62.5556 z" id="boundary" inkscape:connector-curvature="0" />
	<path style="fill:none;stroke:red;stroke-width:1px;stroke-linecap:butt;stroke-linejoin:miter;stroke-opacity:1" d="M 983.944,183.111 992.556,165.889 z" id="boundary" inkscape:connector-curvature="0" />
	<path style="fill:none;stroke:red;stroke-width:1px;stroke-linecap:butt;stroke-linejoin:miter;stroke-opacity:1" d="M 987.389,62.5556 987.389,79.7778 z" id="boundary" inkscape:connector-curvature="0" />
	<path style="fill:none;stroke:red;stroke-width:1px;stroke-linecap:butt;stroke-linejoin:miter;stroke-opacity:1" d="M 987.389,79.7778 996,95.2778 z" id="boundary" inkscape:connector-curvature="0" />
	<path style="fill:none;stroke:red;stroke-width:1px;stroke-linecap:butt;stroke-linejoin:miter;stroke-opacity:1" d="M 992.556,165.889 996,146.944 z" id="boundary" inkscape:connector-curvature="0" />
	<path style="fill:none;stroke:red;stroke-width:1px;stroke-linecap:butt;stroke-linejoin:miter;stroke-opacity:1" d="M 996,95.2778 996,112.5 z" id="boundary" inkscape:connector-curvature="0" />
	<path style="fill:none;stroke:red;stroke-width:1px;stroke-linecap:butt;stroke-linejoin:miter;stroke-opacity:1" d="M 996,112.5 996,129.722 z" id="boundary" inkscape:connector-curvature="0" />
	<path style="fill:none;stroke:red;stroke-width:1px;stroke-linecap:butt;stroke-linejoin:miter;stroke-opacity:1" d="M 996,129.722 996,146.944 z" id="boundary" inkscape:connector-curvature="0" />
	<circle cx="4" cy="121.111" r="4" fill="#0" id="circle0"/>
	<circle cx="4" cy="138.333" r="4" fill="#0" id="circle1"/>
	<circle cx="4" cy="155.556" r="4" fill="#0" id="circle2"/>
	<circle cx="4" cy="172.778" r="4" fill="#0" id="circle3"/>
	<circle cx="12.6111" cy="17.7778" r="4" fill="#0" id="circle4"/>
	<circle cx="12.6111" cy="35" r="4" fill="#0" id="circle5"/>
	<circle cx="12.6111" cy="188.278" r="4" fill="#0" id="circle6"/>
	<circle cx="12.6111" cy="205.5" r="4" fill="#0" id="circle7"/>
	<circle cx="17.7778" cy="107.333" r="4" fill="#0" id="circle8"/>
	<circle cx="21.2222" cy="50.5" r="4" fill="#0" id="circle9"/>
	<circle cx="21.2222" cy="67.7222" r="4" fill="#0" id="circle10"/>
	<circle cx="21.2222" cy="84.9444" r="4" fill="#0" id="circle11"/>
	<circle cx="21.2222" cy="221" r="4" fill="#0" id="circle12"/>
	<circle cx="21.2222" cy="238.222" r="4" fill="#0" id="circle13"/>
	<circle cx="26.3889" cy="4" r="4" fill="#0" id="circle14"/>
	<circle cx="31.5556" cy="252" r="4" fill="#0" id="circle15"/>
	<circle cx="40.1667" cy="14.3333" r="4" fill="#0" id="circle16"/>
	<circle cx="45.3333" cy="264.056" r="4" fill="#0" id="circle17"/>
	<circle cx="47.0556" cy="281.278" r="4" fill="#0" id="circle18"/>
	<circle cx="48.7778" cy="29.8333" r="4" fill="#0" id="circle19"/>
	<circle cx="52.2222" cy="298.5" r="4" fill="#0" id="circle20"/>
	<circle cx="55.6667" cy="345" r="4" fill="#0" id="circle21"/>
	<circle cx="60.8333" cy="314" r="4" fill="#0" id="circle22"/>
	<circle cx="62.5556" cy="40.1667" r="4" fill="#0" id="circle23"/>
	<circle cx="64.2778" cy="360.5" r="4" fill="#0" id="circle24"/>
	<circle cx="72.8889" cy="376" r="4" fill="#0" id="circle25"/>
	<circle cx="72.8889" cy="393.222" r="4" fill="#0" id="circle26"/>
	<circle cx="78.0556" cy="48.7778" r="4" fill="#0" id="circle27"/>
	<circle cx="78.0556" cy="410.444" r="4" fill="#0" id="circle28"/>
	<circle cx="91.8333" cy="422.5" r="4" fill="#0" id="circle29"/>
	<circle cx="95.2778" cy="55.6667" r="4" fill="#0" id="circle30"/>
	<circle cx="103.889" cy="436.278" r="4" fill="#0" id="circle31"/>
	<circle cx="112.5" cy="55.6667" r="4" fill="#0" id="circle32"/>
	<circle cx="112.5" cy="451.778" r="4" fill="#0" id="circle33"/>
	<circle cx="124.556" cy="465.556" r="4" fill="#0" id="circle34"/>
	<circle cx="129.722" cy="55.6667" r="4" fill="#0" id="circle35"/>
	<circle cx="133.167" cy="481.056" r="4" fill="#0" id="circle36"/>
	<circle cx="133.167" cy="818.611" r="4" fill="#0" id="circle37"/>
	<circle cx="133.167" cy="835.833" r="4" fill="#0" id="circle38"/>
	<circle cx="145.222" cy="64.2778" r="4" fill="#0" id="circle39"/>
	<circle cx="145.222" cy="494.833" r="4" fill="#0" id="circle40"/>
	<circle cx="146.944" cy="804.833" r="4" fill="#0" id="circle41"/>
	<circle cx="146.944" cy="847.889" r="4" fill="#0" id="circle42"/>
	<circle cx="153.833" cy="510.333" r="4" fill="#0" id="circle43"/>
	<circle cx="162.444" cy="57.3889" r="4" fill="#0" id="circle44"/>
	<circle cx="164.167" cy="796.222" r="4" fill="#0" id="circle45"/>
	<circle cx="164.167" cy="849.611" r="4" fill="#0" id="circle46"/>
	<circle cx="167.611" cy="522.389" r="4" fill="#0" id="circle47"/>
	<circle cx="176.222" cy="47.0556" r="4" fill="#0" id="circle48"/>
	<circle cx="176.222" cy="766.944" r="4" fill="#0" id="circle49"/>
	<circle cx="177.944" cy="536.167" r="4" fill="#0" id="circle50"/>
	<circle cx="181.389" cy="849.611" r="4" fill="#0" id="circle51"/>
	<circle cx="184.833" cy="568.889" r="4" fill="#0" id="circle52"/>
	<circle cx="184.833" cy="586.111" r="4" fill="#0" id="circle53"/>
	<circle cx="184.833" cy="603.333" r="4" fill="#0" id="circle54"/>
	<circle cx="184.833" cy="706.667" r="4" fill="#0" id="circle55"/>
	<circle cx="184.833" cy="749.722" r="4" fill="#0" id="circle56"/>
	<circle cx="191.722" cy="38.4444" r="4" fill="#0" id="circle57"/>
	<circle cx="191.722" cy="548.222" r="4" fill="#0" id="circle58"/>
	<circle cx="193.444" cy="618.833" r="4" fill="#0" id="circle59"/>
	<circle cx="193.444" cy="689.444" r="4" fill="#0" id="circle60"/>
	<circle cx="193.444" cy="722.167" r="4" fill="#0" id="circle61"/>
	<circle cx="198.611" cy="847.889" r="4" fill="#0" id="circle62"/>
	<circle cx="202.056" cy="634.333" r="4" fill="#0" id="circle63"/>
	<circle cx="202.056" cy="651.556" r="4" fill="#0" id="circle64"/>
	<circle cx="202.056" cy="668.778" r="4" fill="#0" id="circle65"/>
	<circle cx="203.778" cy="24.6667" r="4" fill="#0" id="circle66"/>
	<circle cx="215.833" cy="839.278" r="4" fill="#0" id="circle67"/>
	<circle cx="217.556" cy="12.6111" r="4" fill="#0" id="circle68"/>
	<circle cx="229.611" cy="823.778" r="4" fill="#0" id="circle69"/>
	<circle cx="233.056" cy="21.2222" r="4" fill="#0" id="circle70"/>
	<circle cx="238.222" cy="38.4444" r="4" fill="#0" id="circle71"/>
	<circle cx="238.222" cy="55.6667" r="4" fill="#0" id="circle72"/>
	<circle cx="238.222" cy="72.8889" r="4" fill="#0" id="circle73"/>
	<circle cx="238.222" cy="90.1111" r="4" fill="#0" id="circle74"/>
	<circle cx="238.222" cy="107.333" r="4" fill="#0" id="circle75"/>
	<circle cx="238.222" cy="124.556" r="4" fill="#0" id="circle76"/>
	<circle cx="238.222" cy="141.778" r="4" fill="#0" id="circle77"/>
	<circle cx="238.222" cy="806.556" r="4" fill="#0" id="circle78"/>
	<circle cx="246.833" cy="157.278" r="4" fill="#0" id="circle79"/>
	<circle cx="246.833" cy="789.333" r="4" fill="#0" id="circle80"/>
	<circle cx="260.611" cy="777.278" r="4" fill="#0" id="circle81"/>
	<circle cx="264.056" cy="164.167" r="4" fill="#0" id="circle82"/>
	<circle cx="277.833" cy="176.222" r="4" fill="#0" id="circle83"/>
	<circle cx="277.833" cy="780.722" r="4" fill="#0" id="circle84"/>
	<circle cx="289.889" cy="686" r="4" fill="#0" id="circle85"/>
	<circle cx="289.889" cy="703.222" r="4" fill="#0" id="circle86"/>
	<circle cx="293.333" cy="167.611" r="4" fill="#0" id="circle87"/>
	<circle cx="293.333" cy="789.333" r="4" fill="#0" id="circle88"/>
	<circle cx="298.5" cy="660.167" r="4" fill="#0" id="circle89"/>
	<circle cx="303.667" cy="713.556" r="4" fill="#0" id="circle90"/>
	<circle cx="305.389" cy="775.556" r="4" fill="#0" id="circle91"/>
	<circle cx="307.111" cy="634.333" r="4" fill="#0" id="circle92"/>
	<circle cx="307.111" cy="730.778" r="4" fill="#0" id="circle93"/>
	<circle cx="310.556" cy="159" r="4" fill="#0" id="circle94"/>
	<circle cx="314" cy="758.333" r="4" fill="#0" id="circle95"/>
	<circle cx="320.889" cy="622.278" r="4" fill="#0" id="circle96"/>
	<circle cx="327.778" cy="159" r="4" fill="#0" id="circle97"/>
	<circle cx="329.5" cy="605.056" r="4" fill="#0" id="circle98"/>
	<circle cx="332.944" cy="582.667" r="4" fill="#0" id="circle99"/>
	<circle cx="341.556" cy="565.444" r="4" fill="#0" id="circle100"/>
	<circle cx="345" cy="150.389" r="4" fill="#0" id="circle101"/>
	<circle cx="350.167" cy="548.222" r="4" fill="#0" id="circle102"/>
	<circle cx="360.5" cy="141.778" r="4" fill="#0" id="circle103"/>
	<circle cx="363.944" cy="536.167" r="4" fill="#0" id="circle104"/>
	<circle cx="374.278" cy="522.389" r="4" fill="#0" id="circle105"/>
	<circle cx="377.722" cy="134.889" r="4" fill="#0" id="circle106"/>
	<circle cx="391.5" cy="124.556" r="4" fill="#0" id="circle107"/>
	<circle cx="391.5" cy="522.389" r="4" fill="#0" id="circle108"/>
	<circle cx="407" cy="531" r="4" fill="#0" id="circle109"/>
	<circle cx="408.722" cy="124.556" r="4" fill="#0" id="circle110"/>
	<circle cx="424.222" cy="531" r="4" fill="#0" id="circle111"/>
	<circle cx="425.944" cy="124.556" r="4" fill="#0" id="circle112"/>
	<circle cx="439.722" cy="539.611" r="4" fill="#0" id="circle113"/>
	<circle cx="443.167" cy="124.556" r="4" fill="#0" id="circle114"/>
	<circle cx="456.944" cy="539.611" r="4" fill="#0" id="circle115"/>
	<circle cx="460.389" cy="124.556" r="4" fill="#0" id="circle116"/>
	<circle cx="474.167" cy="546.5" r="4" fill="#0" id="circle117"/>
	<circle cx="475.889" cy="133.167" r="4" fill="#0" id="circle118"/>
	<circle cx="487.944" cy="556.833" r="4" fill="#0" id="circle119"/>
	<circle cx="493.111" cy="133.167" r="4" fill="#0" id="circle120"/>
	<circle cx="505.167" cy="556.833" r="4" fill="#0" id="circle121"/>
	<circle cx="510.333" cy="133.167" r="4" fill="#0" id="circle122"/>
	<circle cx="520.667" cy="565.444" r="4" fill="#0" id="circle123"/>
	<circle cx="527.556" cy="133.167" r="4" fill="#0" id="circle124"/>
	<circle cx="536.167" cy="574.056" r="4" fill="#0" id="circle125"/>
	<circle cx="543.056" cy="141.778" r="4" fill="#0" id="circle126"/>
	<circle cx="546.5" cy="766.944" r="4" fill="#0" id="circle127"/>
	<circle cx="548.222" cy="587.833" r="4" fill="#0" id="circle128"/>
	<circle cx="555.111" cy="782.444" r="4" fill="#0" id="circle129"/>
	<circle cx="560.278" cy="141.778" r="4" fill="#0" id="circle130"/>
	<circle cx="560.278" cy="753.167" r="4" fill="#0" id="circle131"/>
	<circle cx="562" cy="599.889" r="4" fill="#0" id="circle132"/>
	<circle cx="572.333" cy="789.333" r="4" fill="#0" id="circle133"/>
	<circle cx="574.056" cy="613.667" r="4" fill="#0" id="circle134"/>
	<circle cx="577.5" cy="141.778" r="4" fill="#0" id="circle135"/>
	<circle cx="577.5" cy="744.556" r="4" fill="#0" id="circle136"/>
	<circle cx="587.833" cy="625.722" r="4" fill="#0" id="circle137"/>
	<circle cx="589.556" cy="789.333" r="4" fill="#0" id="circle138"/>
	<circle cx="593" cy="150.389" r="4" fill="#0" id="circle139"/>
	<circle cx="594.722" cy="735.944" r="4" fill="#0" id="circle140"/>
	<circle cx="599.889" cy="639.5" r="4" fill="#0" id="circle141"/>
	<circle cx="603.333" cy="718.722" r="4" fill="#0" id="circle142"/>
	<circle cx="606.778" cy="789.333" r="4" fill="#0" id="circle143"/>
	<circle cx="610.222" cy="150.389" r="4" fill="#0" id="circle144"/>
	<circle cx="613.667" cy="651.556" r="4" fill="#0" id="circle145"/>
	<circle cx="615.389" cy="668.778" r="4" fill="#0" id="circle146"/>
	<circle cx="615.389" cy="686" r="4" fill="#0" id="circle147"/>
	<circle cx="615.389" cy="703.222" r="4" fill="#0" id="circle148"/>
	<circle cx="624" cy="784.167" r="4" fill="#0" id="circle149"/>
	<circle cx="627.444" cy="150.389" r="4" fill="#0" id="circle150"/>
	<circle cx="634.333" cy="754.889" r="4" fill="#0" id="circle151"/>
	<circle cx="642.944" cy="159" r="4" fill="#0" id="circle152"/>
	<circle cx="648.111" cy="742.833" r="4" fill="#0" id="circle153"/>
	<circle cx="658.444" cy="775.556" r="4" fill="#0" id="circle154"/>
	<circle cx="658.444" cy="792.778" r="4" fill="#0" id="circle155"/>
	<circle cx="660.167" cy="164.167" r="4" fill="#0" id="circle156"/>
	<circle cx="660.167" cy="729.056" r="4" fill="#0" id="circle157"/>
	<circle cx="668.778" cy="711.833" r="4" fill="#0" id="circle158"/>
	<circle cx="672.222" cy="761.778" r="4" fill="#0" id="circle159"/>
	<circle cx="675.667" cy="797.944" r="4" fill="#0" id="circle160"/>
	<circle cx="677.389" cy="164.167" r="4" fill="#0" id="circle161"/>
	<circle cx="677.389" cy="686" r="4" fill="#0" id="circle162"/>
	<circle cx="680.833" cy="744.556" r="4" fill="#0" id="circle163"/>
	<circle cx="686" cy="668.778" r="4" fill="#0" id="circle164"/>
	<circle cx="689.444" cy="727.333" r="4" fill="#0" id="circle165"/>
	<circle cx="692.889" cy="706.667" r="4" fill="#0" id="circle166"/>
	<circle cx="692.889" cy="797.944" r="4" fill="#0" id="circle167"/>
	<circle cx="694.611" cy="167.611" r="4" fill="#0" id="circle168"/>
	<circle cx="701.5" cy="677.389" r="4" fill="#0" id="circle169"/>
	<circle cx="710.111" cy="155.556" r="4" fill="#0" id="circle170"/>
	<circle cx="710.111" cy="797.944" r="4" fill="#0" id="circle171"/>
	<circle cx="723.889" cy="141.778" r="4" fill="#0" id="circle172"/>
	<circle cx="723.889" cy="787.611" r="4" fill="#0" id="circle173"/>
	<circle cx="732.5" cy="124.556" r="4" fill="#0" id="circle174"/>
	<circle cx="737.667" cy="763.5" r="4" fill="#0" id="circle175"/>
	<circle cx="744.556" cy="103.889" r="4" fill="#0" id="circle176"/>
	<circle cx="746.278" cy="737.667" r="4" fill="#0" id="circle177"/>
	<circle cx="753.167" cy="86.6667" r="4" fill="#0" id="circle178"/>
	<circle cx="754.889" cy="513.778" r="4" fill="#0" id="circle179"/>
	<circle cx="754.889" cy="531" r="4" fill="#0" id="circle180"/>
	<circle cx="754.889" cy="548.222" r="4" fill="#0" id="circle181"/>
	<circle cx="754.889" cy="711.833" r="4" fill="#0" id="circle182"/>
	<circle cx="763.5" cy="496.556" r="4" fill="#0" id="circle183"/>
	<circle cx="763.5" cy="563.722" r="4" fill="#0" id="circle184"/>
	<circle cx="763.5" cy="580.944" r="4" fill="#0" id="circle185"/>
	<circle cx="763.5" cy="677.389" r="4" fill="#0" id="circle186"/>
	<circle cx="763.5" cy="694.611" r="4" fill="#0" id="circle187"/>
	<circle cx="770.389" cy="69.4444" r="4" fill="#0" id="circle188"/>
	<circle cx="772.111" cy="221" r="4" fill="#0" id="circle189"/>
	<circle cx="772.111" cy="596.444" r="4" fill="#0" id="circle190"/>
	<circle cx="772.111" cy="613.667" r="4" fill="#0" id="circle191"/>
	<circle cx="772.111" cy="630.889" r="4" fill="#0" id="circle192"/>
	<circle cx="772.111" cy="648.111" r="4" fill="#0" id="circle193"/>
	<circle cx="775.556" cy="238.222" r="4" fill="#0" id="circle194"/>
	<circle cx="777.278" cy="484.5" r="4" fill="#0" id="circle195"/>
	<circle cx="780.722" cy="462.111" r="4" fill="#0" id="circle196"/>
	<circle cx="784.167" cy="253.722" r="4" fill="#0" id="circle197"/>
	<circle cx="785.889" cy="208.944" r="4" fill="#0" id="circle198"/>
	<circle cx="787.611" cy="60.8333" r="4" fill="#0" id="circle199"/>
	<circle cx="789.333" cy="270.944" r="4" fill="#0" id="circle200"/>
	<circle cx="789.333" cy="436.278" r="4" fill="#0" id="circle201"/>
	<circle cx="794.5" cy="191.722" r="4" fill="#0" id="circle202"/>
	<circle cx="796.222" cy="43.6111" r="4" fill="#0" id="circle203"/>
	<circle cx="797.944" cy="286.444" r="4" fill="#0" id="circle204"/>
	<circle cx="797.944" cy="303.667" r="4" fill="#0" id="circle205"/>
	<circle cx="797.944" cy="419.056" r="4" fill="#0" id="circle206"/>
	<circle cx="806.556" cy="169.333" r="4" fill="#0" id="circle207"/>
	<circle cx="806.556" cy="319.167" r="4" fill="#0" id="circle208"/>
	<circle cx="806.556" cy="336.389" r="4" fill="#0" id="circle209"/>
	<circle cx="806.556" cy="353.611" r="4" fill="#0" id="circle210"/>
	<circle cx="806.556" cy="370.833" r="4" fill="#0" id="circle211"/>
	<circle cx="806.556" cy="388.056" r="4" fill="#0" id="circle212"/>
	<circle cx="810" cy="29.8333" r="4" fill="#0" id="circle213"/>
	<circle cx="815.167" cy="152.111" r="4" fill="#0" id="circle214"/>
	<circle cx="825.5" cy="21.2222" r="4" fill="#0" id="circle215"/>
	<circle cx="832.389" cy="126.278" r="4" fill="#0" id="circle216"/>
	<circle cx="832.389" cy="143.5" r="4" fill="#0" id="circle217"/>
	<circle cx="841" cy="12.6111" r="4" fill="#0" id="circle218"/>
	<circle cx="846.167" cy="114.222" r="4" fill="#0" id="circle219"/>
	<circle cx="854.778" cy="97" r="4" fill="#0" id="circle220"/>
	<circle cx="856.5" cy="4" r="4" fill="#0" id="circle221"/>
	<circle cx="866.833" cy="83.2222" r="4" fill="#0" id="circle222"/>
	<circle cx="873.722" cy="4" r="4" fill="#0" id="circle223"/>
	<circle cx="882.333" cy="74.6111" r="4" fill="#0" id="circle224"/>
	<circle cx="890.944" cy="4" r="4" fill="#0" id="circle225"/>
	<circle cx="899.556" cy="74.6111" r="4" fill="#0" id="circle226"/>
	<circle cx="908.167" cy="4" r="4" fill="#0" id="circle227"/>
	<circle cx="915.056" cy="83.2222" r="4" fill="#0" id="circle228"/>
	<circle cx="916.778" cy="198.611" r="4" fill="#0" id="circle229"/>
	<circle cx="925.389" cy="4" r="4" fill="#0" id="circle230"/>
	<circle cx="925.389" cy="181.389" r="4" fill="#0" id="circle231"/>
	<circle cx="925.389" cy="214.111" r="4" fill="#0" id="circle232"/>
	<circle cx="927.111" cy="97" r="4" fill="#0" id="circle233"/>
	<circle cx="934" cy="114.222" r="4" fill="#0" id="circle234"/>
	<circle cx="934" cy="131.444" r="4" fill="#0" id="circle235"/>
	<circle cx="934" cy="148.667" r="4" fill="#0" id="circle236"/>
	<circle cx="934" cy="165.889" r="4" fill="#0" id="circle237"/>
	<circle cx="940.889" cy="12.6111" r="4" fill="#0" id="circle238"/>
	<circle cx="942.611" cy="215.833" r="4" fill="#0" id="circle239"/>
	<circle cx="956.389" cy="21.2222" r="4" fill="#0" id="circle240"/>
	<circle cx="959.833" cy="212.389" r="4" fill="#0" id="circle241"/>
	<circle cx="961.556" cy="38.4444" r="4" fill="#0" id="circle242"/>
	<circle cx="970.167" cy="195.167" r="4" fill="#0" id="circle243"/>
	<circle cx="975.333" cy="48.7778" r="4" fill="#0" id="circle244"/>
	<circle cx="983.944" cy="183.111" r="4" fill="#0" id="circle245"/>
	<circle cx="987.389" cy="62.5556" r="4" fill="#0" id="circle246"/>
	<circle cx="987.389" cy="79.7778" r="4" fill="#0" id="circle247"/>
	<circle cx="992.556" cy="165.889" r="4" fill="#0" id="circle248"/>
	<circle cx="996" cy="95.2778" r="4" fill="#0" id="circle249"/>
	<circle cx="996" cy="112.5" r="4" fill="#0" id="circle250"/>
	<circle cx="996" cy="129.722" r="4" fill="#0" id="circle251"/>
	<circle cx="996" cy="146.944" r="4" fill="#0" id="circle252"/>
	</g>
</svg>