<?xml version="1.0" encoding="UTF-8" standalone="no"?>
<!-- Created with CurveBenchmark -->
<svg
	xmlns:dc="http://purl.org/dc/elements/1.1/"
	xmlns:cc="http://creativecommons.org/ns#"
	xmlns:rdf="http://www.w3.org/1999/02/22-rdf-syntax-ns#"
	xmlns:svg="http://www.w3.org/2000/svg"
	xmlns="http://www.w3.org/2000/svg"
	xmlns:sodipodi="http://sodipodi.sourceforge.net/DTD/sodipodi-0.dtd"
	xmlns:inkscape="http://www.inkscape.org/namespaces/inkscape"
	width="1000"
	height="1000"
	id="svg2"
	version="1.1"
	sodipodi:docname="manifold/fitconnect-stef15.png.txt">
<defs
	id="defs4" />
<metadata
	id="metadata7">
	<rdf:RDF>
		<cc:Work
			rdf:about="">
			<dc:format>image/svg+xml</dc:format>
			<dc:type
				rdf:resource="http://purl.org/dc/dcmitype/StillImage" />
			<dc:title></dc:title>
		</cc:Work>
	</rdf:RDF>
</metadata>
<g
	inkscape:label="Layer 1"
	inkscape:groupmode="layer"
	id="layer1">
	<path style="fill:none;stroke:red;stroke-width:1px;stroke-linecap:butt;stroke-linejoin:miter;stroke-opacity:1" d="M 4,652.615 13.0842,634.447 z" id="boundary" inkscape:connector-curvature="0" />
	<path style="fill:none;stroke:red;stroke-width:1px;stroke-linecap:butt;stroke-linejoin:miter;stroke-opacity:1" d="M 4,652.615 18.5348,665.333 z" id="boundary" inkscape:connector-curvature="0" />
	<path style="fill:none;stroke:red;stroke-width:1px;stroke-linecap:butt;stroke-linejoin:miter;stroke-opacity:1" d="M 13.0842,634.447 27.619,619.912 z" id="boundary" inkscape:connector-curvature="0" />
	<path style="fill:none;stroke:red;stroke-width:1px;stroke-linecap:butt;stroke-linejoin:miter;stroke-opacity:1" d="M 18.5348,665.333 25.8022,683.502 z" id="boundary" inkscape:connector-curvature="0" />
	<path style="fill:none;stroke:red;stroke-width:1px;stroke-linecap:butt;stroke-linejoin:miter;stroke-opacity:1" d="M 22.1685,107.56 22.1685,125.729 z" id="boundary" inkscape:connector-curvature="0" />
	<path style="fill:none;stroke:red;stroke-width:1px;stroke-linecap:butt;stroke-linejoin:miter;stroke-opacity:1" d="M 22.1685,107.56 31.2527,89.3919 z" id="boundary" inkscape:connector-curvature="0" />
	<path style="fill:none;stroke:red;stroke-width:1px;stroke-linecap:butt;stroke-linejoin:miter;stroke-opacity:1" d="M 22.1685,125.729 31.2527,142.081 z" id="boundary" inkscape:connector-curvature="0" />
	<path style="fill:none;stroke:red;stroke-width:1px;stroke-linecap:butt;stroke-linejoin:miter;stroke-opacity:1" d="M 25.8022,683.502 34.8864,699.853 z" id="boundary" inkscape:connector-curvature="0" />
	<path style="fill:none;stroke:red;stroke-width:1px;stroke-linecap:butt;stroke-linejoin:miter;stroke-opacity:1" d="M 27.619,619.912 45.7875,619.912 z" id="boundary" inkscape:connector-curvature="0" />
	<path style="fill:none;stroke:red;stroke-width:1px;stroke-linecap:butt;stroke-linejoin:miter;stroke-opacity:1" d="M 31.2527,89.3919 45.7875,74.8571 z" id="boundary" inkscape:connector-curvature="0" />
	<path style="fill:none;stroke:red;stroke-width:1px;stroke-linecap:butt;stroke-linejoin:miter;stroke-opacity:1" d="M 31.2527,142.081 49.4212,149.348 z" id="boundary" inkscape:connector-curvature="0" />
	<path style="fill:none;stroke:red;stroke-width:1px;stroke-linecap:butt;stroke-linejoin:miter;stroke-opacity:1" d="M 34.8864,699.853 42.1538,718.022 z" id="boundary" inkscape:connector-curvature="0" />
	<path style="fill:none;stroke:red;stroke-width:1px;stroke-linecap:butt;stroke-linejoin:miter;stroke-opacity:1" d="M 42.1538,718.022 51.2381,734.374 z" id="boundary" inkscape:connector-curvature="0" />
	<path style="fill:none;stroke:red;stroke-width:1px;stroke-linecap:butt;stroke-linejoin:miter;stroke-opacity:1" d="M 45.7875,74.8571 54.8718,56.6886 z" id="boundary" inkscape:connector-curvature="0" />
	<path style="fill:none;stroke:red;stroke-width:1px;stroke-linecap:butt;stroke-linejoin:miter;stroke-opacity:1" d="M 45.7875,619.912 63.956,619.912 z" id="boundary" inkscape:connector-curvature="0" />
	<path style="fill:none;stroke:red;stroke-width:1px;stroke-linecap:butt;stroke-linejoin:miter;stroke-opacity:1" d="M 49.4212,149.348 65.7729,158.432 z" id="boundary" inkscape:connector-curvature="0" />
	<path style="fill:none;stroke:red;stroke-width:1px;stroke-linecap:butt;stroke-linejoin:miter;stroke-opacity:1" d="M 51.2381,734.374 67.5897,743.458 z" id="boundary" inkscape:connector-curvature="0" />
	<path style="fill:none;stroke:red;stroke-width:1px;stroke-linecap:butt;stroke-linejoin:miter;stroke-opacity:1" d="M 54.8718,56.6886 63.956,38.5201 z" id="boundary" inkscape:connector-curvature="0" />
	<path style="fill:none;stroke:red;stroke-width:1px;stroke-linecap:butt;stroke-linejoin:miter;stroke-opacity:1" d="M 63.956,38.5201 78.4908,23.9853 z" id="boundary" inkscape:connector-curvature="0" />
	<path style="fill:none;stroke:red;stroke-width:1px;stroke-linecap:butt;stroke-linejoin:miter;stroke-opacity:1" d="M 63.956,619.912 80.3077,610.828 z" id="boundary" inkscape:connector-curvature="0" />
	<path style="fill:none;stroke:red;stroke-width:1px;stroke-linecap:butt;stroke-linejoin:miter;stroke-opacity:1" d="M 65.7729,158.432 82.1245,167.516 z" id="boundary" inkscape:connector-curvature="0" />
	<path style="fill:none;stroke:red;stroke-width:1px;stroke-linecap:butt;stroke-linejoin:miter;stroke-opacity:1" d="M 67.5897,743.458 85.7582,748.908 z" id="boundary" inkscape:connector-curvature="0" />
	<path style="fill:none;stroke:red;stroke-width:1px;stroke-linecap:butt;stroke-linejoin:miter;stroke-opacity:1" d="M 78.4908,23.9853 96.6593,14.9011 z" id="boundary" inkscape:connector-curvature="0" />
	<path style="fill:none;stroke:red;stroke-width:1px;stroke-linecap:butt;stroke-linejoin:miter;stroke-opacity:1" d="M 80.3077,610.828 98.4762,610.828 z" id="boundary" inkscape:connector-curvature="0" />
	<path style="fill:none;stroke:red;stroke-width:1px;stroke-linecap:butt;stroke-linejoin:miter;stroke-opacity:1" d="M 82.1245,167.516 100.293,174.784 z" id="boundary" inkscape:connector-curvature="0" />
	<path style="fill:none;stroke:red;stroke-width:1px;stroke-linecap:butt;stroke-linejoin:miter;stroke-opacity:1" d="M 85.7582,748.908 102.11,739.824 z" id="boundary" inkscape:connector-curvature="0" />
	<path style="fill:none;stroke:red;stroke-width:1px;stroke-linecap:butt;stroke-linejoin:miter;stroke-opacity:1" d="M 96.6593,14.9011 111.194,4 z" id="boundary" inkscape:connector-curvature="0" />
	<path style="fill:none;stroke:red;stroke-width:1px;stroke-linecap:butt;stroke-linejoin:miter;stroke-opacity:1" d="M 98.4762,610.828 116.645,603.56 z" id="boundary" inkscape:connector-curvature="0" />
	<path style="fill:none;stroke:red;stroke-width:1px;stroke-linecap:butt;stroke-linejoin:miter;stroke-opacity:1" d="M 100.293,174.784 118.462,176.601 z" id="boundary" inkscape:connector-curvature="0" />
	<path style="fill:none;stroke:red;stroke-width:1px;stroke-linecap:butt;stroke-linejoin:miter;stroke-opacity:1" d="M 102.11,739.824 114.828,721.656 z" id="boundary" inkscape:connector-curvature="0" />
	<path style="fill:none;stroke:red;stroke-width:1px;stroke-linecap:butt;stroke-linejoin:miter;stroke-opacity:1" d="M 111.194,4 127.546,13.0842 z" id="boundary" inkscape:connector-curvature="0" />
	<path style="fill:none;stroke:red;stroke-width:1px;stroke-linecap:butt;stroke-linejoin:miter;stroke-opacity:1" d="M 114.828,721.656 129.363,708.938 z" id="boundary" inkscape:connector-curvature="0" />
	<path style="fill:none;stroke:red;stroke-width:1px;stroke-linecap:butt;stroke-linejoin:miter;stroke-opacity:1" d="M 116.645,603.56 131.179,589.026 z" id="boundary" inkscape:connector-curvature="0" />
	<path style="fill:none;stroke:red;stroke-width:1px;stroke-linecap:butt;stroke-linejoin:miter;stroke-opacity:1" d="M 118.462,176.601 132.996,189.319 z" id="boundary" inkscape:connector-curvature="0" />
	<path style="fill:none;stroke:red;stroke-width:1px;stroke-linecap:butt;stroke-linejoin:miter;stroke-opacity:1" d="M 127.546,13.0842 145.714,20.3516 z" id="boundary" inkscape:connector-curvature="0" />
	<path style="fill:none;stroke:red;stroke-width:1px;stroke-linecap:butt;stroke-linejoin:miter;stroke-opacity:1" d="M 129.363,708.938 132.996,685.319 z" id="boundary" inkscape:connector-curvature="0" />
	<path style="fill:none;stroke:red;stroke-width:1px;stroke-linecap:butt;stroke-linejoin:miter;stroke-opacity:1" d="M 131.179,589.026 149.348,579.941 z" id="boundary" inkscape:connector-curvature="0" />
	<path style="fill:none;stroke:red;stroke-width:1px;stroke-linecap:butt;stroke-linejoin:miter;stroke-opacity:1" d="M 132.996,189.319 151.165,189.319 z" id="boundary" inkscape:connector-curvature="0" />
	<path style="fill:none;stroke:red;stroke-width:1px;stroke-linecap:butt;stroke-linejoin:miter;stroke-opacity:1" d="M 132.996,685.319 142.081,667.15 z" id="boundary" inkscape:connector-curvature="0" />
	<path style="fill:none;stroke:red;stroke-width:1px;stroke-linecap:butt;stroke-linejoin:miter;stroke-opacity:1" d="M 142.081,667.15 151.165,648.982 z" id="boundary" inkscape:connector-curvature="0" />
	<path style="fill:none;stroke:red;stroke-width:1px;stroke-linecap:butt;stroke-linejoin:miter;stroke-opacity:1" d="M 145.714,20.3516 162.066,29.4359 z" id="boundary" inkscape:connector-curvature="0" />
	<path style="fill:none;stroke:red;stroke-width:1px;stroke-linecap:butt;stroke-linejoin:miter;stroke-opacity:1" d="M 149.348,561.773 149.348,579.941 z" id="boundary" inkscape:connector-curvature="0" />
	<path style="fill:none;stroke:red;stroke-width:1px;stroke-linecap:butt;stroke-linejoin:miter;stroke-opacity:1" d="M 149.348,561.773 158.432,543.604 z" id="boundary" inkscape:connector-curvature="0" />
	<path style="fill:none;stroke:red;stroke-width:1px;stroke-linecap:butt;stroke-linejoin:miter;stroke-opacity:1" d="M 151.165,189.319 167.516,198.403 z" id="boundary" inkscape:connector-curvature="0" />
	<path style="fill:none;stroke:red;stroke-width:1px;stroke-linecap:butt;stroke-linejoin:miter;stroke-opacity:1" d="M 151.165,630.813 151.165,648.982 z" id="boundary" inkscape:connector-curvature="0" />
	<path style="fill:none;stroke:red;stroke-width:1px;stroke-linecap:butt;stroke-linejoin:miter;stroke-opacity:1" d="M 151.165,630.813 169.333,612.645 z" id="boundary" inkscape:connector-curvature="0" />
	<path style="fill:none;stroke:red;stroke-width:1px;stroke-linecap:butt;stroke-linejoin:miter;stroke-opacity:1" d="M 158.432,543.604 172.967,529.07 z" id="boundary" inkscape:connector-curvature="0" />
	<path style="fill:none;stroke:red;stroke-width:1px;stroke-linecap:butt;stroke-linejoin:miter;stroke-opacity:1" d="M 162.066,29.4359 178.418,38.5201 z" id="boundary" inkscape:connector-curvature="0" />
	<path style="fill:none;stroke:red;stroke-width:1px;stroke-linecap:butt;stroke-linejoin:miter;stroke-opacity:1" d="M 167.516,198.403 185.685,203.853 z" id="boundary" inkscape:connector-curvature="0" />
	<path style="fill:none;stroke:red;stroke-width:1px;stroke-linecap:butt;stroke-linejoin:miter;stroke-opacity:1" d="M 169.333,612.645 187.502,603.56 z" id="boundary" inkscape:connector-curvature="0" />
	<path style="fill:none;stroke:red;stroke-width:1px;stroke-linecap:butt;stroke-linejoin:miter;stroke-opacity:1" d="M 172.967,529.07 182.051,510.901 z" id="boundary" inkscape:connector-curvature="0" />
	<path style="fill:none;stroke:red;stroke-width:1px;stroke-linecap:butt;stroke-linejoin:miter;stroke-opacity:1" d="M 178.418,38.5201 196.586,43.9707 z" id="boundary" inkscape:connector-curvature="0" />
	<path style="fill:none;stroke:red;stroke-width:1px;stroke-linecap:butt;stroke-linejoin:miter;stroke-opacity:1" d="M 182.051,510.901 191.136,492.733 z" id="boundary" inkscape:connector-curvature="0" />
	<path style="fill:none;stroke:red;stroke-width:1px;stroke-linecap:butt;stroke-linejoin:miter;stroke-opacity:1" d="M 185.685,203.853 191.136,222.022 z" id="boundary" inkscape:connector-curvature="0" />
	<path style="fill:none;stroke:red;stroke-width:1px;stroke-linecap:butt;stroke-linejoin:miter;stroke-opacity:1" d="M 187.502,603.56 205.67,594.476 z" id="boundary" inkscape:connector-curvature="0" />
	<path style="fill:none;stroke:red;stroke-width:1px;stroke-linecap:butt;stroke-linejoin:miter;stroke-opacity:1" d="M 191.136,222.022 209.304,229.289 z" id="boundary" inkscape:connector-curvature="0" />
	<path style="fill:none;stroke:red;stroke-width:1px;stroke-linecap:butt;stroke-linejoin:miter;stroke-opacity:1" d="M 191.136,492.733 207.487,483.648 z" id="boundary" inkscape:connector-curvature="0" />
	<path style="fill:none;stroke:red;stroke-width:1px;stroke-linecap:butt;stroke-linejoin:miter;stroke-opacity:1" d="M 196.586,43.9707 212.938,53.0549 z" id="boundary" inkscape:connector-curvature="0" />
	<path style="fill:none;stroke:red;stroke-width:1px;stroke-linecap:butt;stroke-linejoin:miter;stroke-opacity:1" d="M 205.67,594.476 220.205,581.758 z" id="boundary" inkscape:connector-curvature="0" />
	<path style="fill:none;stroke:red;stroke-width:1px;stroke-linecap:butt;stroke-linejoin:miter;stroke-opacity:1" d="M 207.487,483.648 222.022,461.846 z" id="boundary" inkscape:connector-curvature="0" />
	<path style="fill:none;stroke:red;stroke-width:1px;stroke-linecap:butt;stroke-linejoin:miter;stroke-opacity:1" d="M 209.304,229.289 222.022,243.824 z" id="boundary" inkscape:connector-curvature="0" />
	<path style="fill:none;stroke:red;stroke-width:1px;stroke-linecap:butt;stroke-linejoin:miter;stroke-opacity:1" d="M 212.938,53.0549 231.106,47.6044 z" id="boundary" inkscape:connector-curvature="0" />
	<path style="fill:none;stroke:red;stroke-width:1px;stroke-linecap:butt;stroke-linejoin:miter;stroke-opacity:1" d="M 220.205,581.758 231.106,567.223 z" id="boundary" inkscape:connector-curvature="0" />
	<path style="fill:none;stroke:red;stroke-width:1px;stroke-linecap:butt;stroke-linejoin:miter;stroke-opacity:1" d="M 222.022,243.824 240.19,249.275 z" id="boundary" inkscape:connector-curvature="0" />
	<path style="fill:none;stroke:red;stroke-width:1px;stroke-linecap:butt;stroke-linejoin:miter;stroke-opacity:1" d="M 222.022,461.846 231.106,443.678 z" id="boundary" inkscape:connector-curvature="0" />
	<path style="fill:none;stroke:red;stroke-width:1px;stroke-linecap:butt;stroke-linejoin:miter;stroke-opacity:1" d="M 231.106,47.6044 249.275,51.2381 z" id="boundary" inkscape:connector-curvature="0" />
	<path style="fill:none;stroke:red;stroke-width:1px;stroke-linecap:butt;stroke-linejoin:miter;stroke-opacity:1" d="M 231.106,443.678 240.19,425.509 z" id="boundary" inkscape:connector-curvature="0" />
	<path style="fill:none;stroke:red;stroke-width:1px;stroke-linecap:butt;stroke-linejoin:miter;stroke-opacity:1" d="M 231.106,567.223 245.641,556.322 z" id="boundary" inkscape:connector-curvature="0" />
	<path style="fill:none;stroke:red;stroke-width:1px;stroke-linecap:butt;stroke-linejoin:miter;stroke-opacity:1" d="M 240.19,249.275 256.542,258.359 z" id="boundary" inkscape:connector-curvature="0" />
	<path style="fill:none;stroke:red;stroke-width:1px;stroke-linecap:butt;stroke-linejoin:miter;stroke-opacity:1" d="M 240.19,425.509 249.275,407.341 z" id="boundary" inkscape:connector-curvature="0" />
	<path style="fill:none;stroke:red;stroke-width:1px;stroke-linecap:butt;stroke-linejoin:miter;stroke-opacity:1" d="M 245.641,556.322 254.725,538.154 z" id="boundary" inkscape:connector-curvature="0" />
	<path style="fill:none;stroke:red;stroke-width:1px;stroke-linecap:butt;stroke-linejoin:miter;stroke-opacity:1" d="M 249.275,51.2381 267.443,47.6044 z" id="boundary" inkscape:connector-curvature="0" />
	<path style="fill:none;stroke:red;stroke-width:1px;stroke-linecap:butt;stroke-linejoin:miter;stroke-opacity:1" d="M 249.275,407.341 267.443,389.172 z" id="boundary" inkscape:connector-curvature="0" />
	<path style="fill:none;stroke:red;stroke-width:1px;stroke-linecap:butt;stroke-linejoin:miter;stroke-opacity:1" d="M 254.725,538.154 263.81,519.985 z" id="boundary" inkscape:connector-curvature="0" />
	<path style="fill:none;stroke:red;stroke-width:1px;stroke-linecap:butt;stroke-linejoin:miter;stroke-opacity:1" d="M 256.542,258.359 269.26,272.894 z" id="boundary" inkscape:connector-curvature="0" />
	<path style="fill:none;stroke:red;stroke-width:1px;stroke-linecap:butt;stroke-linejoin:miter;stroke-opacity:1" d="M 263.81,519.985 272.894,501.817 z" id="boundary" inkscape:connector-curvature="0" />
	<path style="fill:none;stroke:red;stroke-width:1px;stroke-linecap:butt;stroke-linejoin:miter;stroke-opacity:1" d="M 267.443,47.6044 285.612,51.2381 z" id="boundary" inkscape:connector-curvature="0" />
	<path style="fill:none;stroke:red;stroke-width:1px;stroke-linecap:butt;stroke-linejoin:miter;stroke-opacity:1" d="M 267.443,389.172 285.612,380.088 z" id="boundary" inkscape:connector-curvature="0" />
	<path style="fill:none;stroke:red;stroke-width:1px;stroke-linecap:butt;stroke-linejoin:miter;stroke-opacity:1" d="M 269.26,272.894 287.429,280.161 z" id="boundary" inkscape:connector-curvature="0" />
	<path style="fill:none;stroke:red;stroke-width:1px;stroke-linecap:butt;stroke-linejoin:miter;stroke-opacity:1" d="M 272.894,501.817 281.978,483.648 z" id="boundary" inkscape:connector-curvature="0" />
	<path style="fill:none;stroke:red;stroke-width:1px;stroke-linecap:butt;stroke-linejoin:miter;stroke-opacity:1" d="M 281.978,483.648 291.062,465.48 z" id="boundary" inkscape:connector-curvature="0" />
	<path style="fill:none;stroke:red;stroke-width:1px;stroke-linecap:butt;stroke-linejoin:miter;stroke-opacity:1" d="M 285.612,51.2381 303.78,47.6044 z" id="boundary" inkscape:connector-curvature="0" />
	<path style="fill:none;stroke:red;stroke-width:1px;stroke-linecap:butt;stroke-linejoin:miter;stroke-opacity:1" d="M 285.612,380.088 303.78,371.004 z" id="boundary" inkscape:connector-curvature="0" />
	<path style="fill:none;stroke:red;stroke-width:1px;stroke-linecap:butt;stroke-linejoin:miter;stroke-opacity:1" d="M 287.429,280.161 305.597,285.612 z" id="boundary" inkscape:connector-curvature="0" />
	<path style="fill:none;stroke:red;stroke-width:1px;stroke-linecap:butt;stroke-linejoin:miter;stroke-opacity:1" d="M 291.062,465.48 300.147,447.311 z" id="boundary" inkscape:connector-curvature="0" />
	<path style="fill:none;stroke:red;stroke-width:1px;stroke-linecap:butt;stroke-linejoin:miter;stroke-opacity:1" d="M 300.147,447.311 314.681,430.96 z" id="boundary" inkscape:connector-curvature="0" />
	<path style="fill:none;stroke:red;stroke-width:1px;stroke-linecap:butt;stroke-linejoin:miter;stroke-opacity:1" d="M 303.78,47.6044 318.315,58.5055 z" id="boundary" inkscape:connector-curvature="0" />
	<path style="fill:none;stroke:red;stroke-width:1px;stroke-linecap:butt;stroke-linejoin:miter;stroke-opacity:1" d="M 303.78,371.004 321.949,361.919 z" id="boundary" inkscape:connector-curvature="0" />
	<path style="fill:none;stroke:red;stroke-width:1px;stroke-linecap:butt;stroke-linejoin:miter;stroke-opacity:1" d="M 305.597,285.612 323.766,289.245 z" id="boundary" inkscape:connector-curvature="0" />
	<path style="fill:none;stroke:red;stroke-width:1px;stroke-linecap:butt;stroke-linejoin:miter;stroke-opacity:1" d="M 314.681,430.96 332.85,421.875 z" id="boundary" inkscape:connector-curvature="0" />
	<path style="fill:none;stroke:red;stroke-width:1px;stroke-linecap:butt;stroke-linejoin:miter;stroke-opacity:1" d="M 318.315,58.5055 336.484,56.6886 z" id="boundary" inkscape:connector-curvature="0" />
	<path style="fill:none;stroke:red;stroke-width:1px;stroke-linecap:butt;stroke-linejoin:miter;stroke-opacity:1" d="M 321.949,361.919 340.117,352.835 z" id="boundary" inkscape:connector-curvature="0" />
	<path style="fill:none;stroke:red;stroke-width:1px;stroke-linecap:butt;stroke-linejoin:miter;stroke-opacity:1" d="M 323.766,289.245 341.934,294.696 z" id="boundary" inkscape:connector-curvature="0" />
	<path style="fill:none;stroke:red;stroke-width:1px;stroke-linecap:butt;stroke-linejoin:miter;stroke-opacity:1" d="M 332.85,421.875 351.018,412.791 z" id="boundary" inkscape:connector-curvature="0" />
	<path style="fill:none;stroke:red;stroke-width:1px;stroke-linecap:butt;stroke-linejoin:miter;stroke-opacity:1" d="M 336.484,56.6886 354.652,56.6886 z" id="boundary" inkscape:connector-curvature="0" />
	<path style="fill:none;stroke:red;stroke-width:1px;stroke-linecap:butt;stroke-linejoin:miter;stroke-opacity:1" d="M 340.117,352.835 354.652,338.3 z" id="boundary" inkscape:connector-curvature="0" />
	<path style="fill:none;stroke:red;stroke-width:1px;stroke-linecap:butt;stroke-linejoin:miter;stroke-opacity:1" d="M 341.934,294.696 360.103,294.696 z" id="boundary" inkscape:connector-curvature="0" />
	<path style="fill:none;stroke:red;stroke-width:1px;stroke-linecap:butt;stroke-linejoin:miter;stroke-opacity:1" d="M 351.018,412.791 369.187,403.707 z" id="boundary" inkscape:connector-curvature="0" />
	<path style="fill:none;stroke:red;stroke-width:1px;stroke-linecap:butt;stroke-linejoin:miter;stroke-opacity:1" d="M 354.652,56.6886 371.004,65.7729 z" id="boundary" inkscape:connector-curvature="0" />
	<path style="fill:none;stroke:red;stroke-width:1px;stroke-linecap:butt;stroke-linejoin:miter;stroke-opacity:1" d="M 354.652,338.3 369.187,323.766 z" id="boundary" inkscape:connector-curvature="0" />
	<path style="fill:none;stroke:red;stroke-width:1px;stroke-linecap:butt;stroke-linejoin:miter;stroke-opacity:1" d="M 360.103,294.696 376.454,303.78 z" id="boundary" inkscape:connector-curvature="0" />
	<path style="fill:none;stroke:red;stroke-width:1px;stroke-linecap:butt;stroke-linejoin:miter;stroke-opacity:1" d="M 369.187,323.766 376.454,303.78 z" id="boundary" inkscape:connector-curvature="0" />
	<path style="fill:none;stroke:red;stroke-width:1px;stroke-linecap:butt;stroke-linejoin:miter;stroke-opacity:1" d="M 369.187,403.707 387.355,403.707 z" id="boundary" inkscape:connector-curvature="0" />
	<path style="fill:none;stroke:red;stroke-width:1px;stroke-linecap:butt;stroke-linejoin:miter;stroke-opacity:1" d="M 371.004,65.7729 389.172,67.5897 z" id="boundary" inkscape:connector-curvature="0" />
	<path style="fill:none;stroke:red;stroke-width:1px;stroke-linecap:butt;stroke-linejoin:miter;stroke-opacity:1" d="M 387.355,403.707 405.524,403.707 z" id="boundary" inkscape:connector-curvature="0" />
	<path style="fill:none;stroke:red;stroke-width:1px;stroke-linecap:butt;stroke-linejoin:miter;stroke-opacity:1" d="M 389.172,67.5897 398.256,83.9414 z" id="boundary" inkscape:connector-curvature="0" />
	<path style="fill:none;stroke:red;stroke-width:1px;stroke-linecap:butt;stroke-linejoin:miter;stroke-opacity:1" d="M 398.256,83.9414 416.425,83.9414 z" id="boundary" inkscape:connector-curvature="0" />
	<path style="fill:none;stroke:red;stroke-width:1px;stroke-linecap:butt;stroke-linejoin:miter;stroke-opacity:1" d="M 405.524,403.707 421.875,394.623 z" id="boundary" inkscape:connector-curvature="0" />
	<path style="fill:none;stroke:red;stroke-width:1px;stroke-linecap:butt;stroke-linejoin:miter;stroke-opacity:1" d="M 416.425,83.9414 432.777,93.0256 z" id="boundary" inkscape:connector-curvature="0" />
	<path style="fill:none;stroke:red;stroke-width:1px;stroke-linecap:butt;stroke-linejoin:miter;stroke-opacity:1" d="M 421.875,394.623 436.41,383.722 z" id="boundary" inkscape:connector-curvature="0" />
	<path style="fill:none;stroke:red;stroke-width:1px;stroke-linecap:butt;stroke-linejoin:miter;stroke-opacity:1" d="M 432.777,93.0256 450.945,98.4762 z" id="boundary" inkscape:connector-curvature="0" />
	<path style="fill:none;stroke:red;stroke-width:1px;stroke-linecap:butt;stroke-linejoin:miter;stroke-opacity:1" d="M 436.41,383.722 454.579,383.722 z" id="boundary" inkscape:connector-curvature="0" />
	<path style="fill:none;stroke:red;stroke-width:1px;stroke-linecap:butt;stroke-linejoin:miter;stroke-opacity:1" d="M 450.945,98.4762 467.297,107.56 z" id="boundary" inkscape:connector-curvature="0" />
	<path style="fill:none;stroke:red;stroke-width:1px;stroke-linecap:butt;stroke-linejoin:miter;stroke-opacity:1" d="M 454.579,383.722 463.663,367.37 z" id="boundary" inkscape:connector-curvature="0" />
	<path style="fill:none;stroke:red;stroke-width:1px;stroke-linecap:butt;stroke-linejoin:miter;stroke-opacity:1" d="M 463.663,367.37 480.015,376.454 z" id="boundary" inkscape:connector-curvature="0" />
	<path style="fill:none;stroke:red;stroke-width:1px;stroke-linecap:butt;stroke-linejoin:miter;stroke-opacity:1" d="M 467.297,107.56 481.832,120.278 z" id="boundary" inkscape:connector-curvature="0" />
	<path style="fill:none;stroke:red;stroke-width:1px;stroke-linecap:butt;stroke-linejoin:miter;stroke-opacity:1" d="M 480.015,376.454 485.465,394.623 z" id="boundary" inkscape:connector-curvature="0" />
	<path style="fill:none;stroke:red;stroke-width:1px;stroke-linecap:butt;stroke-linejoin:miter;stroke-opacity:1" d="M 481.832,120.278 487.282,138.447 z" id="boundary" inkscape:connector-curvature="0" />
	<path style="fill:none;stroke:red;stroke-width:1px;stroke-linecap:butt;stroke-linejoin:miter;stroke-opacity:1" d="M 485.465,394.623 494.549,416.425 z" id="boundary" inkscape:connector-curvature="0" />
	<path style="fill:none;stroke:red;stroke-width:1px;stroke-linecap:butt;stroke-linejoin:miter;stroke-opacity:1" d="M 487.282,138.447 505.451,143.897 z" id="boundary" inkscape:connector-curvature="0" />
	<path style="fill:none;stroke:red;stroke-width:1px;stroke-linecap:butt;stroke-linejoin:miter;stroke-opacity:1" d="M 494.549,416.425 503.634,434.593 z" id="boundary" inkscape:connector-curvature="0" />
	<path style="fill:none;stroke:red;stroke-width:1px;stroke-linecap:butt;stroke-linejoin:miter;stroke-opacity:1" d="M 503.634,434.593 521.802,440.044 z" id="boundary" inkscape:connector-curvature="0" />
	<path style="fill:none;stroke:red;stroke-width:1px;stroke-linecap:butt;stroke-linejoin:miter;stroke-opacity:1" d="M 505.451,143.897 518.168,158.432 z" id="boundary" inkscape:connector-curvature="0" />
	<path style="fill:none;stroke:red;stroke-width:1px;stroke-linecap:butt;stroke-linejoin:miter;stroke-opacity:1" d="M 518.168,158.432 532.703,171.15 z" id="boundary" inkscape:connector-curvature="0" />
	<path style="fill:none;stroke:red;stroke-width:1px;stroke-linecap:butt;stroke-linejoin:miter;stroke-opacity:1" d="M 521.802,440.044 532.703,454.579 z" id="boundary" inkscape:connector-curvature="0" />
	<path style="fill:none;stroke:red;stroke-width:1px;stroke-linecap:butt;stroke-linejoin:miter;stroke-opacity:1" d="M 532.703,171.15 541.788,187.502 z" id="boundary" inkscape:connector-curvature="0" />
	<path style="fill:none;stroke:red;stroke-width:1px;stroke-linecap:butt;stroke-linejoin:miter;stroke-opacity:1" d="M 532.703,454.579 550.872,458.212 z" id="boundary" inkscape:connector-curvature="0" />
	<path style="fill:none;stroke:red;stroke-width:1px;stroke-linecap:butt;stroke-linejoin:miter;stroke-opacity:1" d="M 541.788,187.502 550.872,212.938 z" id="boundary" inkscape:connector-curvature="0" />
	<path style="fill:none;stroke:red;stroke-width:1px;stroke-linecap:butt;stroke-linejoin:miter;stroke-opacity:1" d="M 550.872,212.938 559.956,231.106 z" id="boundary" inkscape:connector-curvature="0" />
	<path style="fill:none;stroke:red;stroke-width:1px;stroke-linecap:butt;stroke-linejoin:miter;stroke-opacity:1" d="M 550.872,458.212 567.223,467.297 z" id="boundary" inkscape:connector-curvature="0" />
	<path style="fill:none;stroke:red;stroke-width:1px;stroke-linecap:butt;stroke-linejoin:miter;stroke-opacity:1" d="M 559.956,231.106 569.04,247.458 z" id="boundary" inkscape:connector-curvature="0" />
	<path style="fill:none;stroke:red;stroke-width:1px;stroke-linecap:butt;stroke-linejoin:miter;stroke-opacity:1" d="M 567.223,467.297 585.392,467.297 z" id="boundary" inkscape:connector-curvature="0" />
	<path style="fill:none;stroke:red;stroke-width:1px;stroke-linecap:butt;stroke-linejoin:miter;stroke-opacity:1" d="M 569.04,247.458 578.125,263.81 z" id="boundary" inkscape:connector-curvature="0" />
	<path style="fill:none;stroke:red;stroke-width:1px;stroke-linecap:butt;stroke-linejoin:miter;stroke-opacity:1" d="M 578.125,263.81 578.125,281.978 z" id="boundary" inkscape:connector-curvature="0" />
	<path style="fill:none;stroke:red;stroke-width:1px;stroke-linecap:butt;stroke-linejoin:miter;stroke-opacity:1" d="M 578.125,281.978 587.209,298.33 z" id="boundary" inkscape:connector-curvature="0" />
	<path style="fill:none;stroke:red;stroke-width:1px;stroke-linecap:butt;stroke-linejoin:miter;stroke-opacity:1" d="M 585.392,467.297 601.744,476.381 z" id="boundary" inkscape:connector-curvature="0" />
	<path style="fill:none;stroke:red;stroke-width:1px;stroke-linecap:butt;stroke-linejoin:miter;stroke-opacity:1" d="M 587.209,298.33 587.209,316.498 z" id="boundary" inkscape:connector-curvature="0" />
	<path style="fill:none;stroke:red;stroke-width:1px;stroke-linecap:butt;stroke-linejoin:miter;stroke-opacity:1" d="M 587.209,316.498 596.293,332.85 z" id="boundary" inkscape:connector-curvature="0" />
	<path style="fill:none;stroke:red;stroke-width:1px;stroke-linecap:butt;stroke-linejoin:miter;stroke-opacity:1" d="M 596.293,332.85 605.377,349.201 z" id="boundary" inkscape:connector-curvature="0" />
	<path style="fill:none;stroke:red;stroke-width:1px;stroke-linecap:butt;stroke-linejoin:miter;stroke-opacity:1" d="M 601.744,476.381 618.095,485.465 z" id="boundary" inkscape:connector-curvature="0" />
	<path style="fill:none;stroke:red;stroke-width:1px;stroke-linecap:butt;stroke-linejoin:miter;stroke-opacity:1" d="M 605.377,349.201 614.462,365.553 z" id="boundary" inkscape:connector-curvature="0" />
	<path style="fill:none;stroke:red;stroke-width:1px;stroke-linecap:butt;stroke-linejoin:miter;stroke-opacity:1" d="M 614.462,365.553 623.546,381.905 z" id="boundary" inkscape:connector-curvature="0" />
	<path style="fill:none;stroke:red;stroke-width:1px;stroke-linecap:butt;stroke-linejoin:miter;stroke-opacity:1" d="M 618.095,485.465 636.264,485.465 z" id="boundary" inkscape:connector-curvature="0" />
	<path style="fill:none;stroke:red;stroke-width:1px;stroke-linecap:butt;stroke-linejoin:miter;stroke-opacity:1" d="M 623.546,381.905 623.546,400.073 z" id="boundary" inkscape:connector-curvature="0" />
	<path style="fill:none;stroke:red;stroke-width:1px;stroke-linecap:butt;stroke-linejoin:miter;stroke-opacity:1" d="M 623.546,400.073 638.081,412.791 z" id="boundary" inkscape:connector-curvature="0" />
	<path style="fill:none;stroke:red;stroke-width:1px;stroke-linecap:butt;stroke-linejoin:miter;stroke-opacity:1" d="M 636.264,485.465 654.432,492.733 z" id="boundary" inkscape:connector-curvature="0" />
	<path style="fill:none;stroke:red;stroke-width:1px;stroke-linecap:butt;stroke-linejoin:miter;stroke-opacity:1" d="M 638.081,412.791 656.249,420.059 z" id="boundary" inkscape:connector-curvature="0" />
	<path style="fill:none;stroke:red;stroke-width:1px;stroke-linecap:butt;stroke-linejoin:miter;stroke-opacity:1" d="M 654.432,492.733 672.601,494.549 z" id="boundary" inkscape:connector-curvature="0" />
	<path style="fill:none;stroke:red;stroke-width:1px;stroke-linecap:butt;stroke-linejoin:miter;stroke-opacity:1" d="M 656.249,420.059 674.418,420.059 z" id="boundary" inkscape:connector-curvature="0" />
	<path style="fill:none;stroke:red;stroke-width:1px;stroke-linecap:butt;stroke-linejoin:miter;stroke-opacity:1" d="M 672.601,494.549 690.769,494.549 z" id="boundary" inkscape:connector-curvature="0" />
	<path style="fill:none;stroke:red;stroke-width:1px;stroke-linecap:butt;stroke-linejoin:miter;stroke-opacity:1" d="M 674.418,420.059 692.586,420.059 z" id="boundary" inkscape:connector-curvature="0" />
	<path style="fill:none;stroke:red;stroke-width:1px;stroke-linecap:butt;stroke-linejoin:miter;stroke-opacity:1" d="M 690.769,494.549 708.938,501.817 z" id="boundary" inkscape:connector-curvature="0" />
	<path style="fill:none;stroke:red;stroke-width:1px;stroke-linecap:butt;stroke-linejoin:miter;stroke-opacity:1" d="M 692.586,420.059 710.755,420.059 z" id="boundary" inkscape:connector-curvature="0" />
	<path style="fill:none;stroke:red;stroke-width:1px;stroke-linecap:butt;stroke-linejoin:miter;stroke-opacity:1" d="M 708.938,501.817 725.289,510.901 z" id="boundary" inkscape:connector-curvature="0" />
	<path style="fill:none;stroke:red;stroke-width:1px;stroke-linecap:butt;stroke-linejoin:miter;stroke-opacity:1" d="M 710.755,420.059 728.923,420.059 z" id="boundary" inkscape:connector-curvature="0" />
	<path style="fill:none;stroke:red;stroke-width:1px;stroke-linecap:butt;stroke-linejoin:miter;stroke-opacity:1" d="M 725.289,510.901 743.458,509.084 z" id="boundary" inkscape:connector-curvature="0" />
	<path style="fill:none;stroke:red;stroke-width:1px;stroke-linecap:butt;stroke-linejoin:miter;stroke-opacity:1" d="M 728.923,420.059 747.092,420.059 z" id="boundary" inkscape:connector-curvature="0" />
	<path style="fill:none;stroke:red;stroke-width:1px;stroke-linecap:butt;stroke-linejoin:miter;stroke-opacity:1" d="M 743.458,509.084 761.626,509.084 z" id="boundary" inkscape:connector-curvature="0" />
	<path style="fill:none;stroke:red;stroke-width:1px;stroke-linecap:butt;stroke-linejoin:miter;stroke-opacity:1" d="M 747.092,420.059 765.26,420.059 z" id="boundary" inkscape:connector-curvature="0" />
	<path style="fill:none;stroke:red;stroke-width:1px;stroke-linecap:butt;stroke-linejoin:miter;stroke-opacity:1" d="M 761.626,509.084 779.795,509.084 z" id="boundary" inkscape:connector-curvature="0" />
	<path style="fill:none;stroke:red;stroke-width:1px;stroke-linecap:butt;stroke-linejoin:miter;stroke-opacity:1" d="M 765.26,420.059 783.429,420.059 z" id="boundary" inkscape:connector-curvature="0" />
	<path style="fill:none;stroke:red;stroke-width:1px;stroke-linecap:butt;stroke-linejoin:miter;stroke-opacity:1" d="M 779.795,509.084 797.963,509.084 z" id="boundary" inkscape:connector-curvature="0" />
	<path style="fill:none;stroke:red;stroke-width:1px;stroke-linecap:butt;stroke-linejoin:miter;stroke-opacity:1" d="M 783.429,420.059 801.597,420.059 z" id="boundary" inkscape:connector-curvature="0" />
	<path style="fill:none;stroke:red;stroke-width:1px;stroke-linecap:butt;stroke-linejoin:miter;stroke-opacity:1" d="M 797.963,509.084 816.132,509.084 z" id="boundary" inkscape:connector-curvature="0" />
	<path style="fill:none;stroke:red;stroke-width:1px;stroke-linecap:butt;stroke-linejoin:miter;stroke-opacity:1" d="M 801.597,420.059 819.766,420.059 z" id="boundary" inkscape:connector-curvature="0" />
	<path style="fill:none;stroke:red;stroke-width:1px;stroke-linecap:butt;stroke-linejoin:miter;stroke-opacity:1" d="M 816.132,509.084 834.3,509.084 z" id="boundary" inkscape:connector-curvature="0" />
	<path style="fill:none;stroke:red;stroke-width:1px;stroke-linecap:butt;stroke-linejoin:miter;stroke-opacity:1" d="M 819.766,420.059 837.934,420.059 z" id="boundary" inkscape:connector-curvature="0" />
	<path style="fill:none;stroke:red;stroke-width:1px;stroke-linecap:butt;stroke-linejoin:miter;stroke-opacity:1" d="M 834.3,509.084 852.469,509.084 z" id="boundary" inkscape:connector-curvature="0" />
	<path style="fill:none;stroke:red;stroke-width:1px;stroke-linecap:butt;stroke-linejoin:miter;stroke-opacity:1" d="M 837.934,420.059 856.103,420.059 z" id="boundary" inkscape:connector-curvature="0" />
	<path style="fill:none;stroke:red;stroke-width:1px;stroke-linecap:butt;stroke-linejoin:miter;stroke-opacity:1" d="M 852.469,509.084 868.821,518.168 z" id="boundary" inkscape:connector-curvature="0" />
	<path style="fill:none;stroke:red;stroke-width:1px;stroke-linecap:butt;stroke-linejoin:miter;stroke-opacity:1" d="M 856.103,420.059 872.454,410.974 z" id="boundary" inkscape:connector-curvature="0" />
	<path style="fill:none;stroke:red;stroke-width:1px;stroke-linecap:butt;stroke-linejoin:miter;stroke-opacity:1" d="M 868.821,518.168 886.989,521.802 z" id="boundary" inkscape:connector-curvature="0" />
	<path style="fill:none;stroke:red;stroke-width:1px;stroke-linecap:butt;stroke-linejoin:miter;stroke-opacity:1" d="M 872.454,410.974 888.806,401.89 z" id="boundary" inkscape:connector-curvature="0" />
	<path style="fill:none;stroke:red;stroke-width:1px;stroke-linecap:butt;stroke-linejoin:miter;stroke-opacity:1" d="M 886.989,521.802 903.341,530.886 z" id="boundary" inkscape:connector-curvature="0" />
	<path style="fill:none;stroke:red;stroke-width:1px;stroke-linecap:butt;stroke-linejoin:miter;stroke-opacity:1" d="M 888.806,401.89 897.89,385.538 z" id="boundary" inkscape:connector-curvature="0" />
	<path style="fill:none;stroke:red;stroke-width:1px;stroke-linecap:butt;stroke-linejoin:miter;stroke-opacity:1" d="M 897.89,385.538 912.425,371.004 z" id="boundary" inkscape:connector-curvature="0" />
	<path style="fill:none;stroke:red;stroke-width:1px;stroke-linecap:butt;stroke-linejoin:miter;stroke-opacity:1" d="M 903.341,530.886 914.242,545.421 z" id="boundary" inkscape:connector-curvature="0" />
	<path style="fill:none;stroke:red;stroke-width:1px;stroke-linecap:butt;stroke-linejoin:miter;stroke-opacity:1" d="M 912.425,371.004 930.593,361.919 z" id="boundary" inkscape:connector-curvature="0" />
	<path style="fill:none;stroke:red;stroke-width:1px;stroke-linecap:butt;stroke-linejoin:miter;stroke-opacity:1" d="M 914.242,545.421 928.777,558.139 z" id="boundary" inkscape:connector-curvature="0" />
	<path style="fill:none;stroke:red;stroke-width:1px;stroke-linecap:butt;stroke-linejoin:miter;stroke-opacity:1" d="M 928.777,558.139 941.495,572.674 z" id="boundary" inkscape:connector-curvature="0" />
	<path style="fill:none;stroke:red;stroke-width:1px;stroke-linecap:butt;stroke-linejoin:miter;stroke-opacity:1" d="M 930.593,361.919 948.762,356.469 z" id="boundary" inkscape:connector-curvature="0" />
	<path style="fill:none;stroke:red;stroke-width:1px;stroke-linecap:butt;stroke-linejoin:miter;stroke-opacity:1" d="M 941.495,572.674 956.029,585.392 z" id="boundary" inkscape:connector-curvature="0" />
	<path style="fill:none;stroke:red;stroke-width:1px;stroke-linecap:butt;stroke-linejoin:miter;stroke-opacity:1" d="M 948.762,356.469 966.93,356.469 z" id="boundary" inkscape:connector-curvature="0" />
	<path style="fill:none;stroke:red;stroke-width:1px;stroke-linecap:butt;stroke-linejoin:miter;stroke-opacity:1" d="M 956.029,585.392 986.916,607.194 z" id="boundary" inkscape:connector-curvature="0" />
	<path style="fill:none;stroke:red;stroke-width:1px;stroke-linecap:butt;stroke-linejoin:miter;stroke-opacity:1" d="M 966.93,356.469 985.099,356.469 z" id="boundary" inkscape:connector-curvature="0" />
	<path style="fill:none;stroke:red;stroke-width:1px;stroke-linecap:butt;stroke-linejoin:miter;stroke-opacity:1" d="M 985.099,356.469 996,371.004 z" id="boundary" inkscape:connector-curvature="0" />
	<path style="fill:none;stroke:red;stroke-width:1px;stroke-linecap:butt;stroke-linejoin:miter;stroke-opacity:1" d="M 986.916,607.194 996,585.392 z" id="boundary" inkscape:connector-curvature="0" />
	<path style="fill:none;stroke:red;stroke-width:1px;stroke-linecap:butt;stroke-linejoin:miter;stroke-opacity:1" d="M 996,371.004 996,394.623 z" id="boundary" inkscape:connector-curvature="0" />
	<path style="fill:none;stroke:red;stroke-width:1px;stroke-linecap:butt;stroke-linejoin:miter;stroke-opacity:1" d="M 996,394.623 996,421.875 z" id="boundary" inkscape:connector-curvature="0" />
	<path style="fill:none;stroke:red;stroke-width:1px;stroke-linecap:butt;stroke-linejoin:miter;stroke-opacity:1" d="M 996,421.875 996,449.128 z" id="boundary" inkscape:connector-curvature="0" />
	<path style="fill:none;stroke:red;stroke-width:1px;stroke-linecap:butt;stroke-linejoin:miter;stroke-opacity:1" d="M 996,449.128 996,476.381 z" id="boundary" inkscape:connector-curvature="0" />
	<path style="fill:none;stroke:red;stroke-width:1px;stroke-linecap:butt;stroke-linejoin:miter;stroke-opacity:1" d="M 996,476.381 996,503.634 z" id="boundary" inkscape:connector-curvature="0" />
	<path style="fill:none;stroke:red;stroke-width:1px;stroke-linecap:butt;stroke-linejoin:miter;stroke-opacity:1" d="M 996,503.634 996,530.886 z" id="boundary" inkscape:connector-curvature="0" />
	<path style="fill:none;stroke:red;stroke-width:1px;stroke-linecap:butt;stroke-linejoin:miter;stroke-opacity:1" d="M 996,530.886 996,558.139 z" id="boundary" inkscape:connector-curvature="0" />
	<path style="fill:none;stroke:red;stroke-width:1px;stroke-linecap:butt;stroke-linejoin:miter;stroke-opacity:1" d="M 996,558.139 996,585.392 z" id="boundary" inkscape:connector-curvature="0" />
	<circle cx="4" cy="652.615" r="4" fill="#0" id="circle0"/>
	<circle cx="13.0842" cy="634.447" r="4" fill="#0" id="circle1"/>
	<circle cx="18.5348" cy="665.333" r="4" fill="#0" id="circle2"/>
	<circle cx="22.1685" cy="107.56" r="4" fill="#0" id="circle3"/>
	<circle cx="22.1685" cy="125.729" r="4" fill="#0" id="circle4"/>
	<circle cx="25.8022" cy="683.502" r="4" fill="#0" id="circle5"/>
	<circle cx="27.619" cy="619.912" r="4" fill="#0" id="circle6"/>
	<circle cx="31.2527" cy="89.3919" r="4" fill="#0" id="circle7"/>
	<circle cx="31.2527" cy="142.081" r="4" fill="#0" id="circle8"/>
	<circle cx="34.8864" cy="699.853" r="4" fill="#0" id="circle9"/>
	<circle cx="42.1538" cy="718.022" r="4" fill="#0" id="circle10"/>
	<circle cx="45.7875" cy="74.8571" r="4" fill="#0" id="circle11"/>
	<circle cx="45.7875" cy="619.912" r="4" fill="#0" id="circle12"/>
	<circle cx="49.4212" cy="149.348" r="4" fill="#0" id="circle13"/>
	<circle cx="51.2381" cy="734.374" r="4" fill="#0" id="circle14"/>
	<circle cx="54.8718" cy="56.6886" r="4" fill="#0" id="circle15"/>
	<circle cx="63.956" cy="38.5201" r="4" fill="#0" id="circle16"/>
	<circle cx="63.956" cy="619.912" r="4" fill="#0" id="circle17"/>
	<circle cx="65.7729" cy="158.432" r="4" fill="#0" id="circle18"/>
	<circle cx="67.5897" cy="743.458" r="4" fill="#0" id="circle19"/>
	<circle cx="78.4908" cy="23.9853" r="4" fill="#0" id="circle20"/>
	<circle cx="80.3077" cy="610.828" r="4" fill="#0" id="circle21"/>
	<circle cx="82.1245" cy="167.516" r="4" fill="#0" id="circle22"/>
	<circle cx="85.7582" cy="748.908" r="4" fill="#0" id="circle23"/>
	<circle cx="96.6593" cy="14.9011" r="4" fill="#0" id="circle24"/>
	<circle cx="98.4762" cy="610.828" r="4" fill="#0" id="circle25"/>
	<circle cx="100.293" cy="174.784" r="4" fill="#0" id="circle26"/>
	<circle cx="102.11" cy="739.824" r="4" fill="#0" id="circle27"/>
	<circle cx="111.194" cy="4" r="4" fill="#0" id="circle28"/>
	<circle cx="114.828" cy="721.656" r="4" fill="#0" id="circle29"/>
	<circle cx="116.645" cy="603.56" r="4" fill="#0" id="circle30"/>
	<circle cx="118.462" cy="176.601" r="4" fill="#0" id="circle31"/>
	<circle cx="127.546" cy="13.0842" r="4" fill="#0" id="circle32"/>
	<circle cx="129.363" cy="708.938" r="4" fill="#0" id="circle33"/>
	<circle cx="131.179" cy="589.026" r="4" fill="#0" id="circle34"/>
	<circle cx="132.996" cy="189.319" r="4" fill="#0" id="circle35"/>
	<circle cx="132.996" cy="685.319" r="4" fill="#0" id="circle36"/>
	<circle cx="142.081" cy="667.15" r="4" fill="#0" id="circle37"/>
	<circle cx="145.714" cy="20.3516" r="4" fill="#0" id="circle38"/>
	<circle cx="149.348" cy="561.773" r="4" fill="#0" id="circle39"/>
	<circle cx="149.348" cy="579.941" r="4" fill="#0" id="circle40"/>
	<circle cx="151.165" cy="189.319" r="4" fill="#0" id="circle41"/>
	<circle cx="151.165" cy="630.813" r="4" fill="#0" id="circle42"/>
	<circle cx="151.165" cy="648.982" r="4" fill="#0" id="circle43"/>
	<circle cx="158.432" cy="543.604" r="4" fill="#0" id="circle44"/>
	<circle cx="162.066" cy="29.4359" r="4" fill="#0" id="circle45"/>
	<circle cx="167.516" cy="198.403" r="4" fill="#0" id="circle46"/>
	<circle cx="169.333" cy="612.645" r="4" fill="#0" id="circle47"/>
	<circle cx="172.967" cy="529.07" r="4" fill="#0" id="circle48"/>
	<circle cx="178.418" cy="38.5201" r="4" fill="#0" id="circle49"/>
	<circle cx="182.051" cy="510.901" r="4" fill="#0" id="circle50"/>
	<circle cx="185.685" cy="203.853" r="4" fill="#0" id="circle51"/>
	<circle cx="187.502" cy="603.56" r="4" fill="#0" id="circle52"/>
	<circle cx="191.136" cy="222.022" r="4" fill="#0" id="circle53"/>
	<circle cx="191.136" cy="492.733" r="4" fill="#0" id="circle54"/>
	<circle cx="196.586" cy="43.9707" r="4" fill="#0" id="circle55"/>
	<circle cx="205.67" cy="594.476" r="4" fill="#0" id="circle56"/>
	<circle cx="207.487" cy="483.648" r="4" fill="#0" id="circle57"/>
	<circle cx="209.304" cy="229.289" r="4" fill="#0" id="circle58"/>
	<circle cx="212.938" cy="53.0549" r="4" fill="#0" id="circle59"/>
	<circle cx="220.205" cy="581.758" r="4" fill="#0" id="circle60"/>
	<circle cx="222.022" cy="243.824" r="4" fill="#0" id="circle61"/>
	<circle cx="222.022" cy="461.846" r="4" fill="#0" id="circle62"/>
	<circle cx="231.106" cy="47.6044" r="4" fill="#0" id="circle63"/>
	<circle cx="231.106" cy="443.678" r="4" fill="#0" id="circle64"/>
	<circle cx="231.106" cy="567.223" r="4" fill="#0" id="circle65"/>
	<circle cx="240.19" cy="249.275" r="4" fill="#0" id="circle66"/>
	<circle cx="240.19" cy="425.509" r="4" fill="#0" id="circle67"/>
	<circle cx="245.641" cy="556.322" r="4" fill="#0" id="circle68"/>
	<circle cx="249.275" cy="51.2381" r="4" fill="#0" id="circle69"/>
	<circle cx="249.275" cy="407.341" r="4" fill="#0" id="circle70"/>
	<circle cx="254.725" cy="538.154" r="4" fill="#0" id="circle71"/>
	<circle cx="256.542" cy="258.359" r="4" fill="#0" id="circle72"/>
	<circle cx="263.81" cy="519.985" r="4" fill="#0" id="circle73"/>
	<circle cx="267.443" cy="47.6044" r="4" fill="#0" id="circle74"/>
	<circle cx="267.443" cy="389.172" r="4" fill="#0" id="circle75"/>
	<circle cx="269.26" cy="272.894" r="4" fill="#0" id="circle76"/>
	<circle cx="272.894" cy="501.817" r="4" fill="#0" id="circle77"/>
	<circle cx="281.978" cy="483.648" r="4" fill="#0" id="circle78"/>
	<circle cx="285.612" cy="51.2381" r="4" fill="#0" id="circle79"/>
	<circle cx="285.612" cy="380.088" r="4" fill="#0" id="circle80"/>
	<circle cx="287.429" cy="280.161" r="4" fill="#0" id="circle81"/>
	<circle cx="291.062" cy="465.48" r="4" fill="#0" id="circle82"/>
	<circle cx="300.147" cy="447.311" r="4" fill="#0" id="circle83"/>
	<circle cx="303.78" cy="47.6044" r="4" fill="#0" id="circle84"/>
	<circle cx="303.78" cy="371.004" r="4" fill="#0" id="circle85"/>
	<circle cx="305.597" cy="285.612" r="4" fill="#0" id="circle86"/>
	<circle cx="314.681" cy="430.96" r="4" fill="#0" id="circle87"/>
	<circle cx="318.315" cy="58.5055" r="4" fill="#0" id="circle88"/>
	<circle cx="321.949" cy="361.919" r="4" fill="#0" id="circle89"/>
	<circle cx="323.766" cy="289.245" r="4" fill="#0" id="circle90"/>
	<circle cx="332.85" cy="421.875" r="4" fill="#0" id="circle91"/>
	<circle cx="336.484" cy="56.6886" r="4" fill="#0" id="circle92"/>
	<circle cx="340.117" cy="352.835" r="4" fill="#0" id="circle93"/>
	<circle cx="341.934" cy="294.696" r="4" fill="#0" id="circle94"/>
	<circle cx="351.018" cy="412.791" r="4" fill="#0" id="circle95"/>
	<circle cx="354.652" cy="56.6886" r="4" fill="#0" id="circle96"/>
	<circle cx="354.652" cy="338.3" r="4" fill="#0" id="circle97"/>
	<circle cx="360.103" cy="294.696" r="4" fill="#0" id="circle98"/>
	<circle cx="369.187" cy="323.766" r="4" fill="#0" id="circle99"/>
	<circle cx="369.187" cy="403.707" r="4" fill="#0" id="circle100"/>
	<circle cx="371.004" cy="65.7729" r="4" fill="#0" id="circle101"/>
	<circle cx="376.454" cy="303.78" r="4" fill="#0" id="circle102"/>
	<circle cx="387.355" cy="403.707" r="4" fill="#0" id="circle103"/>
	<circle cx="389.172" cy="67.5897" r="4" fill="#0" id="circle104"/>
	<circle cx="398.256" cy="83.9414" r="4" fill="#0" id="circle105"/>
	<circle cx="405.524" cy="403.707" r="4" fill="#0" id="circle106"/>
	<circle cx="416.425" cy="83.9414" r="4" fill="#0" id="circle107"/>
	<circle cx="421.875" cy="394.623" r="4" fill="#0" id="circle108"/>
	<circle cx="432.777" cy="93.0256" r="4" fill="#0" id="circle109"/>
	<circle cx="436.41" cy="383.722" r="4" fill="#0" id="circle110"/>
	<circle cx="450.945" cy="98.4762" r="4" fill="#0" id="circle111"/>
	<circle cx="454.579" cy="383.722" r="4" fill="#0" id="circle112"/>
	<circle cx="463.663" cy="367.37" r="4" fill="#0" id="circle113"/>
	<circle cx="467.297" cy="107.56" r="4" fill="#0" id="circle114"/>
	<circle cx="480.015" cy="376.454" r="4" fill="#0" id="circle115"/>
	<circle cx="481.832" cy="120.278" r="4" fill="#0" id="circle116"/>
	<circle cx="485.465" cy="394.623" r="4" fill="#0" id="circle117"/>
	<circle cx="487.282" cy="138.447" r="4" fill="#0" id="circle118"/>
	<circle cx="494.549" cy="416.425" r="4" fill="#0" id="circle119"/>
	<circle cx="503.634" cy="434.593" r="4" fill="#0" id="circle120"/>
	<circle cx="505.451" cy="143.897" r="4" fill="#0" id="circle121"/>
	<circle cx="518.168" cy="158.432" r="4" fill="#0" id="circle122"/>
	<circle cx="521.802" cy="440.044" r="4" fill="#0" id="circle123"/>
	<circle cx="532.703" cy="171.15" r="4" fill="#0" id="circle124"/>
	<circle cx="532.703" cy="454.579" r="4" fill="#0" id="circle125"/>
	<circle cx="541.788" cy="187.502" r="4" fill="#0" id="circle126"/>
	<circle cx="550.872" cy="212.938" r="4" fill="#0" id="circle127"/>
	<circle cx="550.872" cy="458.212" r="4" fill="#0" id="circle128"/>
	<circle cx="559.956" cy="231.106" r="4" fill="#0" id="circle129"/>
	<circle cx="567.223" cy="467.297" r="4" fill="#0" id="circle130"/>
	<circle cx="569.04" cy="247.458" r="4" fill="#0" id="circle131"/>
	<circle cx="578.125" cy="263.81" r="4" fill="#0" id="circle132"/>
	<circle cx="578.125" cy="281.978" r="4" fill="#0" id="circle133"/>
	<circle cx="585.392" cy="467.297" r="4" fill="#0" id="circle134"/>
	<circle cx="587.209" cy="298.33" r="4" fill="#0" id="circle135"/>
	<circle cx="587.209" cy="316.498" r="4" fill="#0" id="circle136"/>
	<circle cx="596.293" cy="332.85" r="4" fill="#0" id="circle137"/>
	<circle cx="601.744" cy="476.381" r="4" fill="#0" id="circle138"/>
	<circle cx="605.377" cy="349.201" r="4" fill="#0" id="circle139"/>
	<circle cx="614.462" cy="365.553" r="4" fill="#0" id="circle140"/>
	<circle cx="618.095" cy="485.465" r="4" fill="#0" id="circle141"/>
	<circle cx="623.546" cy="381.905" r="4" fill="#0" id="circle142"/>
	<circle cx="623.546" cy="400.073" r="4" fill="#0" id="circle143"/>
	<circle cx="636.264" cy="485.465" r="4" fill="#0" id="circle144"/>
	<circle cx="638.081" cy="412.791" r="4" fill="#0" id="circle145"/>
	<circle cx="654.432" cy="492.733" r="4" fill="#0" id="circle146"/>
	<circle cx="656.249" cy="420.059" r="4" fill="#0" id="circle147"/>
	<circle cx="672.601" cy="494.549" r="4" fill="#0" id="circle148"/>
	<circle cx="674.418" cy="420.059" r="4" fill="#0" id="circle149"/>
	<circle cx="690.769" cy="494.549" r="4" fill="#0" id="circle150"/>
	<circle cx="692.586" cy="420.059" r="4" fill="#0" id="circle151"/>
	<circle cx="708.938" cy="501.817" r="4" fill="#0" id="circle152"/>
	<circle cx="710.755" cy="420.059" r="4" fill="#0" id="circle153"/>
	<circle cx="725.289" cy="510.901" r="4" fill="#0" id="circle154"/>
	<circle cx="728.923" cy="420.059" r="4" fill="#0" id="circle155"/>
	<circle cx="743.458" cy="509.084" r="4" fill="#0" id="circle156"/>
	<circle cx="747.092" cy="420.059" r="4" fill="#0" id="circle157"/>
	<circle cx="761.626" cy="509.084" r="4" fill="#0" id="circle158"/>
	<circle cx="765.26" cy="420.059" r="4" fill="#0" id="circle159"/>
	<circle cx="779.795" cy="509.084" r="4" fill="#0" id="circle160"/>
	<circle cx="783.429" cy="420.059" r="4" fill="#0" id="circle161"/>
	<circle cx="797.963" cy="509.084" r="4" fill="#0" id="circle162"/>
	<circle cx="801.597" cy="420.059" r="4" fill="#0" id="circle163"/>
	<circle cx="816.132" cy="509.084" r="4" fill="#0" id="circle164"/>
	<circle cx="819.766" cy="420.059" r="4" fill="#0" id="circle165"/>
	<circle cx="834.3" cy="509.084" r="4" fill="#0" id="circle166"/>
	<circle cx="837.934" cy="420.059" r="4" fill="#0" id="circle167"/>
	<circle cx="852.469" cy="509.084" r="4" fill="#0" id="circle168"/>
	<circle cx="856.103" cy="420.059" r="4" fill="#0" id="circle169"/>
	<circle cx="868.821" cy="518.168" r="4" fill="#0" id="circle170"/>
	<circle cx="872.454" cy="410.974" r="4" fill="#0" id="circle171"/>
	<circle cx="886.989" cy="521.802" r="4" fill="#0" id="circle172"/>
	<circle cx="888.806" cy="401.89" r="4" fill="#0" id="circle173"/>
	<circle cx="897.89" cy="385.538" r="4" fill="#0" id="circle174"/>
	<circle cx="903.341" cy="530.886" r="4" fill="#0" id="circle175"/>
	<circle cx="912.425" cy="371.004" r="4" fill="#0" id="circle176"/>
	<circle cx="914.242" cy="545.421" r="4" fill="#0" id="circle177"/>
	<circle cx="928.777" cy="558.139" r="4" fill="#0" id="circle178"/>
	<circle cx="930.593" cy="361.919" r="4" fill="#0" id="circle179"/>
	<circle cx="941.495" cy="572.674" r="4" fill="#0" id="circle180"/>
	<circle cx="948.762" cy="356.469" r="4" fill="#0" id="circle181"/>
	<circle cx="956.029" cy="585.392" r="4" fill="#0" id="circle182"/>
	<circle cx="966.93" cy="356.469" r="4" fill="#0" id="circle183"/>
	<circle cx="972.381" cy="594.476" r="4" fill="#0" id="circle184"/>
	<circle cx="985.099" cy="356.469" r="4" fill="#0" id="circle185"/>
	<circle cx="986.916" cy="607.194" r="4" fill="#0" id="circle186"/>
	<circle cx="996" cy="371.004" r="4" fill="#0" id="circle187"/>
	<circle cx="996" cy="394.623" r="4" fill="#0" id="circle188"/>
	<circle cx="996" cy="421.875" r="4" fill="#0" id="circle189"/>
	<circle cx="996" cy="449.128" r="4" fill="#0" id="circle190"/>
	<circle cx="996" cy="476.381" r="4" fill="#0" id="circle191"/>
	<circle cx="996" cy="503.634" r="4" fill="#0" id="circle192"/>
	<circle cx="996" cy="530.886" r="4" fill="#0" id="circle193"/>
	<circle cx="996" cy="558.139" r="4" fill="#0" id="circle194"/>
	<circle cx="996" cy="585.392" r="4" fill="#0" id="circle195"/>
	</g>
</svg>