<?xml version="1.0" encoding="UTF-8" standalone="no"?>
<!-- Created with CurveBenchmark -->
<svg
	xmlns:dc="http://purl.org/dc/elements/1.1/"
	xmlns:cc="http://creativecommons.org/ns#"
	xmlns:rdf="http://www.w3.org/1999/02/22-rdf-syntax-ns#"
	xmlns:svg="http://www.w3.org/2000/svg"
	xmlns="http://www.w3.org/2000/svg"
	xmlns:sodipodi="http://sodipodi.sourceforge.net/DTD/sodipodi-0.dtd"
	xmlns:inkscape="http://www.inkscape.org/namespaces/inkscape"
	width="1000"
	height="1000"
	id="svg2"
	version="1.1"
	sodipodi:docname="manifold/fitconnect-bed245.png.txt">
<defs
	id="defs4" />
<metadata
	id="metadata7">
	<rdf:RDF>
		<cc:Work
			rdf:about="">
			<dc:format>image/svg+xml</dc:format>
			<dc:type
				rdf:resource="http://purl.org/dc/dcmitype/StillImage" />
			<dc:title></dc:title>
		</cc:Work>
	</rdf:RDF>
</metadata>
<g
	inkscape:label="Layer 1"
	inkscape:groupmode="layer"
	id="layer1">
	<path style="fill:none;stroke:red;stroke-width:1px;stroke-linecap:butt;stroke-linejoin:miter;stroke-opacity:1" d="M 4,317.611 4,334.116 z" id="boundary" inkscape:connector-curvature="0" />
	<path style="fill:none;stroke:red;stroke-width:1px;stroke-linecap:butt;stroke-linejoin:miter;stroke-opacity:1" d="M 4,317.611 12.2529,302.755 z" id="boundary" inkscape:connector-curvature="0" />
	<path style="fill:none;stroke:red;stroke-width:1px;stroke-linecap:butt;stroke-linejoin:miter;stroke-opacity:1" d="M 4,334.116 13.9035,347.321 z" id="boundary" inkscape:connector-curvature="0" />
	<path style="fill:none;stroke:red;stroke-width:1px;stroke-linecap:butt;stroke-linejoin:miter;stroke-opacity:1" d="M 7.30116,509.078 13.9035,439.754 z" id="boundary" inkscape:connector-curvature="0" />
	<path style="fill:none;stroke:red;stroke-width:1px;stroke-linecap:butt;stroke-linejoin:miter;stroke-opacity:1" d="M 7.30116,509.078 40.3128,451.308 z" id="boundary" inkscape:connector-curvature="0" />
	<path style="fill:none;stroke:red;stroke-width:1px;stroke-linecap:butt;stroke-linejoin:miter;stroke-opacity:1" d="M 12.2529,302.755 27.1082,294.502 z" id="boundary" inkscape:connector-curvature="0" />
	<path style="fill:none;stroke:red;stroke-width:1px;stroke-linecap:butt;stroke-linejoin:miter;stroke-opacity:1" d="M 13.9035,347.321 13.9035,363.827 z" id="boundary" inkscape:connector-curvature="0" />
	<path style="fill:none;stroke:red;stroke-width:1px;stroke-linecap:butt;stroke-linejoin:miter;stroke-opacity:1" d="M 13.9035,363.827 13.9035,380.333 z" id="boundary" inkscape:connector-curvature="0" />
	<path style="fill:none;stroke:red;stroke-width:1px;stroke-linecap:butt;stroke-linejoin:miter;stroke-opacity:1" d="M 13.9035,380.333 13.9035,396.839 z" id="boundary" inkscape:connector-curvature="0" />
	<path style="fill:none;stroke:red;stroke-width:1px;stroke-linecap:butt;stroke-linejoin:miter;stroke-opacity:1" d="M 13.9035,396.839 17.2047,413.344 z" id="boundary" inkscape:connector-curvature="0" />
	<path style="fill:none;stroke:red;stroke-width:1px;stroke-linecap:butt;stroke-linejoin:miter;stroke-opacity:1" d="M 13.9035,439.754 17.2047,413.344 z" id="boundary" inkscape:connector-curvature="0" />
	<path style="fill:none;stroke:red;stroke-width:1px;stroke-linecap:butt;stroke-linejoin:miter;stroke-opacity:1" d="M 27.1082,294.502 40.3128,284.599 z" id="boundary" inkscape:connector-curvature="0" />
	<path style="fill:none;stroke:red;stroke-width:1px;stroke-linecap:butt;stroke-linejoin:miter;stroke-opacity:1" d="M 40.3128,284.599 56.8186,277.997 z" id="boundary" inkscape:connector-curvature="0" />
	<path style="fill:none;stroke:red;stroke-width:1px;stroke-linecap:butt;stroke-linejoin:miter;stroke-opacity:1" d="M 40.3128,451.308 53.5175,461.211 z" id="boundary" inkscape:connector-curvature="0" />
	<path style="fill:none;stroke:red;stroke-width:1px;stroke-linecap:butt;stroke-linejoin:miter;stroke-opacity:1" d="M 53.5175,461.211 70.0233,454.609 z" id="boundary" inkscape:connector-curvature="0" />
	<path style="fill:none;stroke:red;stroke-width:1px;stroke-linecap:butt;stroke-linejoin:miter;stroke-opacity:1" d="M 56.8186,277.997 73.3245,271.394 z" id="boundary" inkscape:connector-curvature="0" />
	<path style="fill:none;stroke:red;stroke-width:1px;stroke-linecap:butt;stroke-linejoin:miter;stroke-opacity:1" d="M 70.0233,454.609 86.5291,449.657 z" id="boundary" inkscape:connector-curvature="0" />
	<path style="fill:none;stroke:red;stroke-width:1px;stroke-linecap:butt;stroke-linejoin:miter;stroke-opacity:1" d="M 73.3245,271.394 89.8303,268.093 z" id="boundary" inkscape:connector-curvature="0" />
	<path style="fill:none;stroke:red;stroke-width:1px;stroke-linecap:butt;stroke-linejoin:miter;stroke-opacity:1" d="M 86.5291,449.657 99.7338,459.561 z" id="boundary" inkscape:connector-curvature="0" />
	<path style="fill:none;stroke:red;stroke-width:1px;stroke-linecap:butt;stroke-linejoin:miter;stroke-opacity:1" d="M 89.8303,268.093 106.336,261.491 z" id="boundary" inkscape:connector-curvature="0" />
	<path style="fill:none;stroke:red;stroke-width:1px;stroke-linecap:butt;stroke-linejoin:miter;stroke-opacity:1" d="M 99.7338,459.561 112.938,469.464 z" id="boundary" inkscape:connector-curvature="0" />
	<path style="fill:none;stroke:red;stroke-width:1px;stroke-linecap:butt;stroke-linejoin:miter;stroke-opacity:1" d="M 106.336,261.491 119.541,248.286 z" id="boundary" inkscape:connector-curvature="0" />
	<path style="fill:none;stroke:red;stroke-width:1px;stroke-linecap:butt;stroke-linejoin:miter;stroke-opacity:1" d="M 112.938,469.464 126.143,479.368 z" id="boundary" inkscape:connector-curvature="0" />
	<path style="fill:none;stroke:red;stroke-width:1px;stroke-linecap:butt;stroke-linejoin:miter;stroke-opacity:1" d="M 119.541,248.286 132.745,235.082 z" id="boundary" inkscape:connector-curvature="0" />
	<path style="fill:none;stroke:red;stroke-width:1px;stroke-linecap:butt;stroke-linejoin:miter;stroke-opacity:1" d="M 126.143,479.368 142.649,484.319 z" id="boundary" inkscape:connector-curvature="0" />
	<path style="fill:none;stroke:red;stroke-width:1px;stroke-linecap:butt;stroke-linejoin:miter;stroke-opacity:1" d="M 132.745,235.082 145.95,225.178 z" id="boundary" inkscape:connector-curvature="0" />
	<path style="fill:none;stroke:red;stroke-width:1px;stroke-linecap:butt;stroke-linejoin:miter;stroke-opacity:1" d="M 142.649,484.319 159.155,477.717 z" id="boundary" inkscape:connector-curvature="0" />
	<path style="fill:none;stroke:red;stroke-width:1px;stroke-linecap:butt;stroke-linejoin:miter;stroke-opacity:1" d="M 145.95,225.178 159.155,235.082 z" id="boundary" inkscape:connector-curvature="0" />
	<path style="fill:none;stroke:red;stroke-width:1px;stroke-linecap:butt;stroke-linejoin:miter;stroke-opacity:1" d="M 159.155,235.082 172.359,244.985 z" id="boundary" inkscape:connector-curvature="0" />
	<path style="fill:none;stroke:red;stroke-width:1px;stroke-linecap:butt;stroke-linejoin:miter;stroke-opacity:1" d="M 159.155,477.717 175.661,471.115 z" id="boundary" inkscape:connector-curvature="0" />
	<path style="fill:none;stroke:red;stroke-width:1px;stroke-linecap:butt;stroke-linejoin:miter;stroke-opacity:1" d="M 172.359,244.985 183.913,258.19 z" id="boundary" inkscape:connector-curvature="0" />
	<path style="fill:none;stroke:red;stroke-width:1px;stroke-linecap:butt;stroke-linejoin:miter;stroke-opacity:1" d="M 175.661,471.115 188.865,457.91 z" id="boundary" inkscape:connector-curvature="0" />
	<path style="fill:none;stroke:red;stroke-width:1px;stroke-linecap:butt;stroke-linejoin:miter;stroke-opacity:1" d="M 183.913,258.19 197.118,268.093 z" id="boundary" inkscape:connector-curvature="0" />
	<path style="fill:none;stroke:red;stroke-width:1px;stroke-linecap:butt;stroke-linejoin:miter;stroke-opacity:1" d="M 188.865,457.91 202.07,448.007 z" id="boundary" inkscape:connector-curvature="0" />
	<path style="fill:none;stroke:red;stroke-width:1px;stroke-linecap:butt;stroke-linejoin:miter;stroke-opacity:1" d="M 197.118,268.093 213.624,271.394 z" id="boundary" inkscape:connector-curvature="0" />
	<path style="fill:none;stroke:red;stroke-width:1px;stroke-linecap:butt;stroke-linejoin:miter;stroke-opacity:1" d="M 202.07,448.007 218.576,452.958 z" id="boundary" inkscape:connector-curvature="0" />
	<path style="fill:none;stroke:red;stroke-width:1px;stroke-linecap:butt;stroke-linejoin:miter;stroke-opacity:1" d="M 213.624,271.394 230.13,274.696 z" id="boundary" inkscape:connector-curvature="0" />
	<path style="fill:none;stroke:red;stroke-width:1px;stroke-linecap:butt;stroke-linejoin:miter;stroke-opacity:1" d="M 218.576,452.958 226.829,467.814 z" id="boundary" inkscape:connector-curvature="0" />
	<path style="fill:none;stroke:red;stroke-width:1px;stroke-linecap:butt;stroke-linejoin:miter;stroke-opacity:1" d="M 226.829,467.814 240.033,456.26 z" id="boundary" inkscape:connector-curvature="0" />
	<path style="fill:none;stroke:red;stroke-width:1px;stroke-linecap:butt;stroke-linejoin:miter;stroke-opacity:1" d="M 230.13,274.696 246.636,281.298 z" id="boundary" inkscape:connector-curvature="0" />
	<path style="fill:none;stroke:red;stroke-width:1px;stroke-linecap:butt;stroke-linejoin:miter;stroke-opacity:1" d="M 240.033,456.26 256.539,451.308 z" id="boundary" inkscape:connector-curvature="0" />
	<path style="fill:none;stroke:red;stroke-width:1px;stroke-linecap:butt;stroke-linejoin:miter;stroke-opacity:1" d="M 246.636,281.298 261.491,289.551 z" id="boundary" inkscape:connector-curvature="0" />
	<path style="fill:none;stroke:red;stroke-width:1px;stroke-linecap:butt;stroke-linejoin:miter;stroke-opacity:1" d="M 256.539,451.308 261.491,469.464 z" id="boundary" inkscape:connector-curvature="0" />
	<path style="fill:none;stroke:red;stroke-width:1px;stroke-linecap:butt;stroke-linejoin:miter;stroke-opacity:1" d="M 261.491,289.551 276.346,297.804 z" id="boundary" inkscape:connector-curvature="0" />
	<path style="fill:none;stroke:red;stroke-width:1px;stroke-linecap:butt;stroke-linejoin:miter;stroke-opacity:1" d="M 261.491,469.464 264.792,485.97 z" id="boundary" inkscape:connector-curvature="0" />
	<path style="fill:none;stroke:red;stroke-width:1px;stroke-linecap:butt;stroke-linejoin:miter;stroke-opacity:1" d="M 264.792,485.97 282.948,479.368 z" id="boundary" inkscape:connector-curvature="0" />
	<path style="fill:none;stroke:red;stroke-width:1px;stroke-linecap:butt;stroke-linejoin:miter;stroke-opacity:1" d="M 276.346,297.804 292.852,301.105 z" id="boundary" inkscape:connector-curvature="0" />
	<path style="fill:none;stroke:red;stroke-width:1px;stroke-linecap:butt;stroke-linejoin:miter;stroke-opacity:1" d="M 282.948,479.368 286.25,462.862 z" id="boundary" inkscape:connector-curvature="0" />
	<path style="fill:none;stroke:red;stroke-width:1px;stroke-linecap:butt;stroke-linejoin:miter;stroke-opacity:1" d="M 286.25,446.356 286.25,462.862 z" id="boundary" inkscape:connector-curvature="0" />
	<path style="fill:none;stroke:red;stroke-width:1px;stroke-linecap:butt;stroke-linejoin:miter;stroke-opacity:1" d="M 286.25,446.356 302.755,444.705 z" id="boundary" inkscape:connector-curvature="0" />
	<path style="fill:none;stroke:red;stroke-width:1px;stroke-linecap:butt;stroke-linejoin:miter;stroke-opacity:1" d="M 292.852,301.105 309.358,301.105 z" id="boundary" inkscape:connector-curvature="0" />
	<path style="fill:none;stroke:red;stroke-width:1px;stroke-linecap:butt;stroke-linejoin:miter;stroke-opacity:1" d="M 302.755,444.705 319.261,444.705 z" id="boundary" inkscape:connector-curvature="0" />
	<path style="fill:none;stroke:red;stroke-width:1px;stroke-linecap:butt;stroke-linejoin:miter;stroke-opacity:1" d="M 309.358,301.105 325.864,301.105 z" id="boundary" inkscape:connector-curvature="0" />
	<path style="fill:none;stroke:red;stroke-width:1px;stroke-linecap:butt;stroke-linejoin:miter;stroke-opacity:1" d="M 319.261,444.705 335.767,444.705 z" id="boundary" inkscape:connector-curvature="0" />
	<path style="fill:none;stroke:red;stroke-width:1px;stroke-linecap:butt;stroke-linejoin:miter;stroke-opacity:1" d="M 325.864,301.105 342.369,301.105 z" id="boundary" inkscape:connector-curvature="0" />
	<path style="fill:none;stroke:red;stroke-width:1px;stroke-linecap:butt;stroke-linejoin:miter;stroke-opacity:1" d="M 335.767,444.705 352.273,444.705 z" id="boundary" inkscape:connector-curvature="0" />
	<path style="fill:none;stroke:red;stroke-width:1px;stroke-linecap:butt;stroke-linejoin:miter;stroke-opacity:1" d="M 342.369,301.105 358.875,301.105 z" id="boundary" inkscape:connector-curvature="0" />
	<path style="fill:none;stroke:red;stroke-width:1px;stroke-linecap:butt;stroke-linejoin:miter;stroke-opacity:1" d="M 352.273,444.705 368.779,444.705 z" id="boundary" inkscape:connector-curvature="0" />
	<path style="fill:none;stroke:red;stroke-width:1px;stroke-linecap:butt;stroke-linejoin:miter;stroke-opacity:1" d="M 358.875,301.105 375.381,301.105 z" id="boundary" inkscape:connector-curvature="0" />
	<path style="fill:none;stroke:red;stroke-width:1px;stroke-linecap:butt;stroke-linejoin:miter;stroke-opacity:1" d="M 368.779,444.705 385.285,444.705 z" id="boundary" inkscape:connector-curvature="0" />
	<path style="fill:none;stroke:red;stroke-width:1px;stroke-linecap:butt;stroke-linejoin:miter;stroke-opacity:1" d="M 375.381,301.105 391.887,301.105 z" id="boundary" inkscape:connector-curvature="0" />
	<path style="fill:none;stroke:red;stroke-width:1px;stroke-linecap:butt;stroke-linejoin:miter;stroke-opacity:1" d="M 385.285,444.705 401.79,444.705 z" id="boundary" inkscape:connector-curvature="0" />
	<path style="fill:none;stroke:red;stroke-width:1px;stroke-linecap:butt;stroke-linejoin:miter;stroke-opacity:1" d="M 391.887,301.105 408.393,301.105 z" id="boundary" inkscape:connector-curvature="0" />
	<path style="fill:none;stroke:red;stroke-width:1px;stroke-linecap:butt;stroke-linejoin:miter;stroke-opacity:1" d="M 401.79,444.705 418.296,444.705 z" id="boundary" inkscape:connector-curvature="0" />
	<path style="fill:none;stroke:red;stroke-width:1px;stroke-linecap:butt;stroke-linejoin:miter;stroke-opacity:1" d="M 408.393,301.105 424.899,301.105 z" id="boundary" inkscape:connector-curvature="0" />
	<path style="fill:none;stroke:red;stroke-width:1px;stroke-linecap:butt;stroke-linejoin:miter;stroke-opacity:1" d="M 418.296,444.705 434.802,444.705 z" id="boundary" inkscape:connector-curvature="0" />
	<path style="fill:none;stroke:red;stroke-width:1px;stroke-linecap:butt;stroke-linejoin:miter;stroke-opacity:1" d="M 424.899,301.105 441.404,301.105 z" id="boundary" inkscape:connector-curvature="0" />
	<path style="fill:none;stroke:red;stroke-width:1px;stroke-linecap:butt;stroke-linejoin:miter;stroke-opacity:1" d="M 434.802,444.705 451.308,444.705 z" id="boundary" inkscape:connector-curvature="0" />
	<path style="fill:none;stroke:red;stroke-width:1px;stroke-linecap:butt;stroke-linejoin:miter;stroke-opacity:1" d="M 441.404,301.105 457.91,301.105 z" id="boundary" inkscape:connector-curvature="0" />
	<path style="fill:none;stroke:red;stroke-width:1px;stroke-linecap:butt;stroke-linejoin:miter;stroke-opacity:1" d="M 451.308,444.705 467.814,444.705 z" id="boundary" inkscape:connector-curvature="0" />
	<path style="fill:none;stroke:red;stroke-width:1px;stroke-linecap:butt;stroke-linejoin:miter;stroke-opacity:1" d="M 457.91,301.105 474.416,301.105 z" id="boundary" inkscape:connector-curvature="0" />
	<path style="fill:none;stroke:red;stroke-width:1px;stroke-linecap:butt;stroke-linejoin:miter;stroke-opacity:1" d="M 467.814,444.705 484.319,444.705 z" id="boundary" inkscape:connector-curvature="0" />
	<path style="fill:none;stroke:red;stroke-width:1px;stroke-linecap:butt;stroke-linejoin:miter;stroke-opacity:1" d="M 474.416,301.105 490.922,301.105 z" id="boundary" inkscape:connector-curvature="0" />
	<path style="fill:none;stroke:red;stroke-width:1px;stroke-linecap:butt;stroke-linejoin:miter;stroke-opacity:1" d="M 484.319,444.705 500.825,444.705 z" id="boundary" inkscape:connector-curvature="0" />
	<path style="fill:none;stroke:red;stroke-width:1px;stroke-linecap:butt;stroke-linejoin:miter;stroke-opacity:1" d="M 490.922,301.105 507.428,299.454 z" id="boundary" inkscape:connector-curvature="0" />
	<path style="fill:none;stroke:red;stroke-width:1px;stroke-linecap:butt;stroke-linejoin:miter;stroke-opacity:1" d="M 500.825,444.705 517.331,444.705 z" id="boundary" inkscape:connector-curvature="0" />
	<path style="fill:none;stroke:red;stroke-width:1px;stroke-linecap:butt;stroke-linejoin:miter;stroke-opacity:1" d="M 507.428,299.454 523.933,292.852 z" id="boundary" inkscape:connector-curvature="0" />
	<path style="fill:none;stroke:red;stroke-width:1px;stroke-linecap:butt;stroke-linejoin:miter;stroke-opacity:1" d="M 517.331,444.705 533.837,444.705 z" id="boundary" inkscape:connector-curvature="0" />
	<path style="fill:none;stroke:red;stroke-width:1px;stroke-linecap:butt;stroke-linejoin:miter;stroke-opacity:1" d="M 523.933,292.852 532.186,274.696 z" id="boundary" inkscape:connector-curvature="0" />
	<path style="fill:none;stroke:red;stroke-width:1px;stroke-linecap:butt;stroke-linejoin:miter;stroke-opacity:1" d="M 532.186,274.696 545.391,264.792 z" id="boundary" inkscape:connector-curvature="0" />
	<path style="fill:none;stroke:red;stroke-width:1px;stroke-linecap:butt;stroke-linejoin:miter;stroke-opacity:1" d="M 533.837,444.705 550.343,444.705 z" id="boundary" inkscape:connector-curvature="0" />
	<path style="fill:none;stroke:red;stroke-width:1px;stroke-linecap:butt;stroke-linejoin:miter;stroke-opacity:1" d="M 545.391,264.792 558.596,251.587 z" id="boundary" inkscape:connector-curvature="0" />
	<path style="fill:none;stroke:red;stroke-width:1px;stroke-linecap:butt;stroke-linejoin:miter;stroke-opacity:1" d="M 550.343,444.705 566.849,444.705 z" id="boundary" inkscape:connector-curvature="0" />
	<path style="fill:none;stroke:red;stroke-width:1px;stroke-linecap:butt;stroke-linejoin:miter;stroke-opacity:1" d="M 558.596,251.587 571.8,238.383 z" id="boundary" inkscape:connector-curvature="0" />
	<path style="fill:none;stroke:red;stroke-width:1px;stroke-linecap:butt;stroke-linejoin:miter;stroke-opacity:1" d="M 566.849,444.705 583.354,444.705 z" id="boundary" inkscape:connector-curvature="0" />
	<path style="fill:none;stroke:red;stroke-width:1px;stroke-linecap:butt;stroke-linejoin:miter;stroke-opacity:1" d="M 571.8,238.383 585.005,228.479 z" id="boundary" inkscape:connector-curvature="0" />
	<path style="fill:none;stroke:red;stroke-width:1px;stroke-linecap:butt;stroke-linejoin:miter;stroke-opacity:1" d="M 583.354,444.705 599.86,444.705 z" id="boundary" inkscape:connector-curvature="0" />
	<path style="fill:none;stroke:red;stroke-width:1px;stroke-linecap:butt;stroke-linejoin:miter;stroke-opacity:1" d="M 585.005,228.479 601.511,221.877 z" id="boundary" inkscape:connector-curvature="0" />
	<path style="fill:none;stroke:red;stroke-width:1px;stroke-linecap:butt;stroke-linejoin:miter;stroke-opacity:1" d="M 599.86,444.705 616.366,444.705 z" id="boundary" inkscape:connector-curvature="0" />
	<path style="fill:none;stroke:red;stroke-width:1px;stroke-linecap:butt;stroke-linejoin:miter;stroke-opacity:1" d="M 601.511,221.877 618.017,215.275 z" id="boundary" inkscape:connector-curvature="0" />
	<path style="fill:none;stroke:red;stroke-width:1px;stroke-linecap:butt;stroke-linejoin:miter;stroke-opacity:1" d="M 616.366,444.705 632.872,444.705 z" id="boundary" inkscape:connector-curvature="0" />
	<path style="fill:none;stroke:red;stroke-width:1px;stroke-linecap:butt;stroke-linejoin:miter;stroke-opacity:1" d="M 618.017,215.275 634.522,211.973 z" id="boundary" inkscape:connector-curvature="0" />
	<path style="fill:none;stroke:red;stroke-width:1px;stroke-linecap:butt;stroke-linejoin:miter;stroke-opacity:1" d="M 632.872,444.705 649.378,444.705 z" id="boundary" inkscape:connector-curvature="0" />
	<path style="fill:none;stroke:red;stroke-width:1px;stroke-linecap:butt;stroke-linejoin:miter;stroke-opacity:1" d="M 634.522,211.973 651.028,208.672 z" id="boundary" inkscape:connector-curvature="0" />
	<path style="fill:none;stroke:red;stroke-width:1px;stroke-linecap:butt;stroke-linejoin:miter;stroke-opacity:1" d="M 649.378,444.705 665.884,444.705 z" id="boundary" inkscape:connector-curvature="0" />
	<path style="fill:none;stroke:red;stroke-width:1px;stroke-linecap:butt;stroke-linejoin:miter;stroke-opacity:1" d="M 651.028,208.672 667.534,208.672 z" id="boundary" inkscape:connector-curvature="0" />
	<path style="fill:none;stroke:red;stroke-width:1px;stroke-linecap:butt;stroke-linejoin:miter;stroke-opacity:1" d="M 665.884,444.705 682.389,444.705 z" id="boundary" inkscape:connector-curvature="0" />
	<path style="fill:none;stroke:red;stroke-width:1px;stroke-linecap:butt;stroke-linejoin:miter;stroke-opacity:1" d="M 667.534,208.672 684.04,211.973 z" id="boundary" inkscape:connector-curvature="0" />
	<path style="fill:none;stroke:red;stroke-width:1px;stroke-linecap:butt;stroke-linejoin:miter;stroke-opacity:1" d="M 682.389,444.705 698.895,444.705 z" id="boundary" inkscape:connector-curvature="0" />
	<path style="fill:none;stroke:red;stroke-width:1px;stroke-linecap:butt;stroke-linejoin:miter;stroke-opacity:1" d="M 684.04,211.973 698.895,203.72 z" id="boundary" inkscape:connector-curvature="0" />
	<path style="fill:none;stroke:red;stroke-width:1px;stroke-linecap:butt;stroke-linejoin:miter;stroke-opacity:1" d="M 698.895,203.72 713.75,195.468 z" id="boundary" inkscape:connector-curvature="0" />
	<path style="fill:none;stroke:red;stroke-width:1px;stroke-linecap:butt;stroke-linejoin:miter;stroke-opacity:1" d="M 698.895,444.705 715.401,444.705 z" id="boundary" inkscape:connector-curvature="0" />
	<path style="fill:none;stroke:red;stroke-width:1px;stroke-linecap:butt;stroke-linejoin:miter;stroke-opacity:1" d="M 713.75,195.468 730.256,188.865 z" id="boundary" inkscape:connector-curvature="0" />
	<path style="fill:none;stroke:red;stroke-width:1px;stroke-linecap:butt;stroke-linejoin:miter;stroke-opacity:1" d="M 715.401,444.705 731.907,444.705 z" id="boundary" inkscape:connector-curvature="0" />
	<path style="fill:none;stroke:red;stroke-width:1px;stroke-linecap:butt;stroke-linejoin:miter;stroke-opacity:1" d="M 730.256,188.865 746.762,172.359 z" id="boundary" inkscape:connector-curvature="0" />
	<path style="fill:none;stroke:red;stroke-width:1px;stroke-linecap:butt;stroke-linejoin:miter;stroke-opacity:1" d="M 731.907,444.705 740.16,459.561 z" id="boundary" inkscape:connector-curvature="0" />
	<path style="fill:none;stroke:red;stroke-width:1px;stroke-linecap:butt;stroke-linejoin:miter;stroke-opacity:1" d="M 736.859,126.143 736.859,142.649 z" id="boundary" inkscape:connector-curvature="0" />
	<path style="fill:none;stroke:red;stroke-width:1px;stroke-linecap:butt;stroke-linejoin:miter;stroke-opacity:1" d="M 736.859,126.143 745.111,111.288 z" id="boundary" inkscape:connector-curvature="0" />
	<path style="fill:none;stroke:red;stroke-width:1px;stroke-linecap:butt;stroke-linejoin:miter;stroke-opacity:1" d="M 736.859,142.649 746.762,155.854 z" id="boundary" inkscape:connector-curvature="0" />
	<path style="fill:none;stroke:red;stroke-width:1px;stroke-linecap:butt;stroke-linejoin:miter;stroke-opacity:1" d="M 740.16,459.561 740.16,476.067 z" id="boundary" inkscape:connector-curvature="0" />
	<path style="fill:none;stroke:red;stroke-width:1px;stroke-linecap:butt;stroke-linejoin:miter;stroke-opacity:1" d="M 740.16,476.067 743.461,492.572 z" id="boundary" inkscape:connector-curvature="0" />
	<path style="fill:none;stroke:red;stroke-width:1px;stroke-linecap:butt;stroke-linejoin:miter;stroke-opacity:1" d="M 743.461,492.572 758.316,446.356 z" id="boundary" inkscape:connector-curvature="0" />
	<path style="fill:none;stroke:red;stroke-width:1px;stroke-linecap:butt;stroke-linejoin:miter;stroke-opacity:1" d="M 745.111,111.288 758.316,98.0832 z" id="boundary" inkscape:connector-curvature="0" />
	<path style="fill:none;stroke:red;stroke-width:1px;stroke-linecap:butt;stroke-linejoin:miter;stroke-opacity:1" d="M 746.762,155.854 746.762,172.359 z" id="boundary" inkscape:connector-curvature="0" />
	<path style="fill:none;stroke:red;stroke-width:1px;stroke-linecap:butt;stroke-linejoin:miter;stroke-opacity:1" d="M 758.316,98.0832 771.521,88.1797 z" id="boundary" inkscape:connector-curvature="0" />
	<path style="fill:none;stroke:red;stroke-width:1px;stroke-linecap:butt;stroke-linejoin:miter;stroke-opacity:1" d="M 758.316,446.356 774.822,444.705 z" id="boundary" inkscape:connector-curvature="0" />
	<path style="fill:none;stroke:red;stroke-width:1px;stroke-linecap:butt;stroke-linejoin:miter;stroke-opacity:1" d="M 771.521,88.1797 786.376,79.9268 z" id="boundary" inkscape:connector-curvature="0" />
	<path style="fill:none;stroke:red;stroke-width:1px;stroke-linecap:butt;stroke-linejoin:miter;stroke-opacity:1" d="M 774.822,444.705 791.328,444.705 z" id="boundary" inkscape:connector-curvature="0" />
	<path style="fill:none;stroke:red;stroke-width:1px;stroke-linecap:butt;stroke-linejoin:miter;stroke-opacity:1" d="M 786.376,79.9268 802.882,73.3245 z" id="boundary" inkscape:connector-curvature="0" />
	<path style="fill:none;stroke:red;stroke-width:1px;stroke-linecap:butt;stroke-linejoin:miter;stroke-opacity:1" d="M 791.328,444.705 807.834,444.705 z" id="boundary" inkscape:connector-curvature="0" />
	<path style="fill:none;stroke:red;stroke-width:1px;stroke-linecap:butt;stroke-linejoin:miter;stroke-opacity:1" d="M 802.882,73.3245 816.087,50.2163 z" id="boundary" inkscape:connector-curvature="0" />
	<path style="fill:none;stroke:red;stroke-width:1px;stroke-linecap:butt;stroke-linejoin:miter;stroke-opacity:1" d="M 807.834,444.705 824.339,444.705 z" id="boundary" inkscape:connector-curvature="0" />
	<path style="fill:none;stroke:red;stroke-width:1px;stroke-linecap:butt;stroke-linejoin:miter;stroke-opacity:1" d="M 816.087,50.2163 829.291,40.3128 z" id="boundary" inkscape:connector-curvature="0" />
	<path style="fill:none;stroke:red;stroke-width:1px;stroke-linecap:butt;stroke-linejoin:miter;stroke-opacity:1" d="M 824.339,444.705 840.845,444.705 z" id="boundary" inkscape:connector-curvature="0" />
	<path style="fill:none;stroke:red;stroke-width:1px;stroke-linecap:butt;stroke-linejoin:miter;stroke-opacity:1" d="M 829.291,40.3128 837.544,25.4576 z" id="boundary" inkscape:connector-curvature="0" />
	<path style="fill:none;stroke:red;stroke-width:1px;stroke-linecap:butt;stroke-linejoin:miter;stroke-opacity:1" d="M 837.544,25.4576 849.098,4 z" id="boundary" inkscape:connector-curvature="0" />
	<path style="fill:none;stroke:red;stroke-width:1px;stroke-linecap:butt;stroke-linejoin:miter;stroke-opacity:1" d="M 840.845,444.705 857.351,444.705 z" id="boundary" inkscape:connector-curvature="0" />
	<path style="fill:none;stroke:red;stroke-width:1px;stroke-linecap:butt;stroke-linejoin:miter;stroke-opacity:1" d="M 849.098,4 863.953,12.2529 z" id="boundary" inkscape:connector-curvature="0" />
	<path style="fill:none;stroke:red;stroke-width:1px;stroke-linecap:butt;stroke-linejoin:miter;stroke-opacity:1" d="M 857.351,444.705 906.869,444.705 z" id="boundary" inkscape:connector-curvature="0" />
	<path style="fill:none;stroke:red;stroke-width:1px;stroke-linecap:butt;stroke-linejoin:miter;stroke-opacity:1" d="M 863.953,12.2529 873.857,25.4576 z" id="boundary" inkscape:connector-curvature="0" />
	<path style="fill:none;stroke:red;stroke-width:1px;stroke-linecap:butt;stroke-linejoin:miter;stroke-opacity:1" d="M 873.857,25.4576 882.11,40.3128 z" id="boundary" inkscape:connector-curvature="0" />
	<path style="fill:none;stroke:red;stroke-width:1px;stroke-linecap:butt;stroke-linejoin:miter;stroke-opacity:1" d="M 882.11,40.3128 895.314,50.2163 z" id="boundary" inkscape:connector-curvature="0" />
	<path style="fill:none;stroke:red;stroke-width:1px;stroke-linecap:butt;stroke-linejoin:miter;stroke-opacity:1" d="M 895.314,50.2163 905.218,63.421 z" id="boundary" inkscape:connector-curvature="0" />
	<path style="fill:none;stroke:red;stroke-width:1px;stroke-linecap:butt;stroke-linejoin:miter;stroke-opacity:1" d="M 905.218,63.421 921.724,70.0233 z" id="boundary" inkscape:connector-curvature="0" />
	<path style="fill:none;stroke:red;stroke-width:1px;stroke-linecap:butt;stroke-linejoin:miter;stroke-opacity:1" d="M 906.869,444.705 956.386,444.705 z" id="boundary" inkscape:connector-curvature="0" />
	<path style="fill:none;stroke:red;stroke-width:1px;stroke-linecap:butt;stroke-linejoin:miter;stroke-opacity:1" d="M 921.724,70.0233 938.23,76.6256 z" id="boundary" inkscape:connector-curvature="0" />
	<path style="fill:none;stroke:red;stroke-width:1px;stroke-linecap:butt;stroke-linejoin:miter;stroke-opacity:1" d="M 938.23,76.6256 953.085,84.8785 z" id="boundary" inkscape:connector-curvature="0" />
	<path style="fill:none;stroke:red;stroke-width:1px;stroke-linecap:butt;stroke-linejoin:miter;stroke-opacity:1" d="M 953.085,84.8785 966.29,94.782 z" id="boundary" inkscape:connector-curvature="0" />
	<path style="fill:none;stroke:red;stroke-width:1px;stroke-linecap:butt;stroke-linejoin:miter;stroke-opacity:1" d="M 956.386,444.705 992.699,419.947 z" id="boundary" inkscape:connector-curvature="0" />
	<path style="fill:none;stroke:red;stroke-width:1px;stroke-linecap:butt;stroke-linejoin:miter;stroke-opacity:1" d="M 966.29,94.782 979.494,104.686 z" id="boundary" inkscape:connector-curvature="0" />
	<path style="fill:none;stroke:red;stroke-width:1px;stroke-linecap:butt;stroke-linejoin:miter;stroke-opacity:1" d="M 979.494,104.686 989.398,117.89 z" id="boundary" inkscape:connector-curvature="0" />
	<path style="fill:none;stroke:red;stroke-width:1px;stroke-linecap:butt;stroke-linejoin:miter;stroke-opacity:1" d="M 989.398,117.89 992.699,134.396 z" id="boundary" inkscape:connector-curvature="0" />
	<path style="fill:none;stroke:red;stroke-width:1px;stroke-linecap:butt;stroke-linejoin:miter;stroke-opacity:1" d="M 989.398,152.552 989.398,169.058 z" id="boundary" inkscape:connector-curvature="0" />
	<path style="fill:none;stroke:red;stroke-width:1px;stroke-linecap:butt;stroke-linejoin:miter;stroke-opacity:1" d="M 989.398,152.552 992.699,134.396 z" id="boundary" inkscape:connector-curvature="0" />
	<path style="fill:none;stroke:red;stroke-width:1px;stroke-linecap:butt;stroke-linejoin:miter;stroke-opacity:1" d="M 989.398,169.058 989.398,185.564 z" id="boundary" inkscape:connector-curvature="0" />
	<path style="fill:none;stroke:red;stroke-width:1px;stroke-linecap:butt;stroke-linejoin:miter;stroke-opacity:1" d="M 989.398,185.564 989.398,202.07 z" id="boundary" inkscape:connector-curvature="0" />
	<path style="fill:none;stroke:red;stroke-width:1px;stroke-linecap:butt;stroke-linejoin:miter;stroke-opacity:1" d="M 989.398,202.07 989.398,218.576 z" id="boundary" inkscape:connector-curvature="0" />
	<path style="fill:none;stroke:red;stroke-width:1px;stroke-linecap:butt;stroke-linejoin:miter;stroke-opacity:1" d="M 989.398,218.576 989.398,235.082 z" id="boundary" inkscape:connector-curvature="0" />
	<path style="fill:none;stroke:red;stroke-width:1px;stroke-linecap:butt;stroke-linejoin:miter;stroke-opacity:1" d="M 989.398,235.082 989.398,251.587 z" id="boundary" inkscape:connector-curvature="0" />
	<path style="fill:none;stroke:red;stroke-width:1px;stroke-linecap:butt;stroke-linejoin:miter;stroke-opacity:1" d="M 989.398,251.587 989.398,268.093 z" id="boundary" inkscape:connector-curvature="0" />
	<path style="fill:none;stroke:red;stroke-width:1px;stroke-linecap:butt;stroke-linejoin:miter;stroke-opacity:1" d="M 989.398,268.093 989.398,284.599 z" id="boundary" inkscape:connector-curvature="0" />
	<path style="fill:none;stroke:red;stroke-width:1px;stroke-linecap:butt;stroke-linejoin:miter;stroke-opacity:1" d="M 989.398,284.599 992.699,317.611 z" id="boundary" inkscape:connector-curvature="0" />
	<path style="fill:none;stroke:red;stroke-width:1px;stroke-linecap:butt;stroke-linejoin:miter;stroke-opacity:1" d="M 992.699,317.611 992.699,367.128 z" id="boundary" inkscape:connector-curvature="0" />
	<path style="fill:none;stroke:red;stroke-width:1px;stroke-linecap:butt;stroke-linejoin:miter;stroke-opacity:1" d="M 992.699,367.128 992.699,419.947 z" id="boundary" inkscape:connector-curvature="0" />
	<circle cx="4" cy="317.611" r="4" fill="#0" id="circle0"/>
	<circle cx="4" cy="334.116" r="4" fill="#0" id="circle1"/>
	<circle cx="7.30116" cy="469.464" r="4" fill="#0" id="circle2"/>
	<circle cx="7.30116" cy="509.078" r="4" fill="#0" id="circle3"/>
	<circle cx="8.95175" cy="485.97" r="4" fill="#0" id="circle4"/>
	<circle cx="12.2529" cy="302.755" r="4" fill="#0" id="circle5"/>
	<circle cx="13.9035" cy="347.321" r="4" fill="#0" id="circle6"/>
	<circle cx="13.9035" cy="363.827" r="4" fill="#0" id="circle7"/>
	<circle cx="13.9035" cy="380.333" r="4" fill="#0" id="circle8"/>
	<circle cx="13.9035" cy="396.839" r="4" fill="#0" id="circle9"/>
	<circle cx="13.9035" cy="439.754" r="4" fill="#0" id="circle10"/>
	<circle cx="17.2047" cy="413.344" r="4" fill="#0" id="circle11"/>
	<circle cx="23.807" cy="477.717" r="4" fill="#0" id="circle12"/>
	<circle cx="23.807" cy="510.729" r="4" fill="#0" id="circle13"/>
	<circle cx="25.4576" cy="494.223" r="4" fill="#0" id="circle14"/>
	<circle cx="27.1082" cy="294.502" r="4" fill="#0" id="circle15"/>
	<circle cx="27.1082" cy="461.211" r="4" fill="#0" id="circle16"/>
	<circle cx="40.3128" cy="284.599" r="4" fill="#0" id="circle17"/>
	<circle cx="40.3128" cy="451.308" r="4" fill="#0" id="circle18"/>
	<circle cx="53.5175" cy="461.211" r="4" fill="#0" id="circle19"/>
	<circle cx="56.8186" cy="277.997" r="4" fill="#0" id="circle20"/>
	<circle cx="70.0233" cy="454.609" r="4" fill="#0" id="circle21"/>
	<circle cx="73.3245" cy="271.394" r="4" fill="#0" id="circle22"/>
	<circle cx="86.5291" cy="449.657" r="4" fill="#0" id="circle23"/>
	<circle cx="89.8303" cy="268.093" r="4" fill="#0" id="circle24"/>
	<circle cx="99.7338" cy="459.561" r="4" fill="#0" id="circle25"/>
	<circle cx="106.336" cy="261.491" r="4" fill="#0" id="circle26"/>
	<circle cx="112.938" cy="469.464" r="4" fill="#0" id="circle27"/>
	<circle cx="119.541" cy="248.286" r="4" fill="#0" id="circle28"/>
	<circle cx="126.143" cy="479.368" r="4" fill="#0" id="circle29"/>
	<circle cx="132.745" cy="235.082" r="4" fill="#0" id="circle30"/>
	<circle cx="142.649" cy="484.319" r="4" fill="#0" id="circle31"/>
	<circle cx="145.95" cy="225.178" r="4" fill="#0" id="circle32"/>
	<circle cx="159.155" cy="235.082" r="4" fill="#0" id="circle33"/>
	<circle cx="159.155" cy="477.717" r="4" fill="#0" id="circle34"/>
	<circle cx="172.359" cy="244.985" r="4" fill="#0" id="circle35"/>
	<circle cx="175.661" cy="471.115" r="4" fill="#0" id="circle36"/>
	<circle cx="183.913" cy="258.19" r="4" fill="#0" id="circle37"/>
	<circle cx="188.865" cy="457.91" r="4" fill="#0" id="circle38"/>
	<circle cx="197.118" cy="268.093" r="4" fill="#0" id="circle39"/>
	<circle cx="202.07" cy="448.007" r="4" fill="#0" id="circle40"/>
	<circle cx="213.624" cy="271.394" r="4" fill="#0" id="circle41"/>
	<circle cx="218.576" cy="452.958" r="4" fill="#0" id="circle42"/>
	<circle cx="226.829" cy="467.814" r="4" fill="#0" id="circle43"/>
	<circle cx="230.13" cy="274.696" r="4" fill="#0" id="circle44"/>
	<circle cx="240.033" cy="456.26" r="4" fill="#0" id="circle45"/>
	<circle cx="246.636" cy="281.298" r="4" fill="#0" id="circle46"/>
	<circle cx="256.539" cy="451.308" r="4" fill="#0" id="circle47"/>
	<circle cx="261.491" cy="289.551" r="4" fill="#0" id="circle48"/>
	<circle cx="261.491" cy="469.464" r="4" fill="#0" id="circle49"/>
	<circle cx="264.792" cy="485.97" r="4" fill="#0" id="circle50"/>
	<circle cx="264.792" cy="509.078" r="4" fill="#0" id="circle51"/>
	<circle cx="276.346" cy="297.804" r="4" fill="#0" id="circle52"/>
	<circle cx="281.298" cy="510.729" r="4" fill="#0" id="circle53"/>
	<circle cx="282.948" cy="479.368" r="4" fill="#0" id="circle54"/>
	<circle cx="286.25" cy="446.356" r="4" fill="#0" id="circle55"/>
	<circle cx="286.25" cy="462.862" r="4" fill="#0" id="circle56"/>
	<circle cx="292.852" cy="301.105" r="4" fill="#0" id="circle57"/>
	<circle cx="302.755" cy="444.705" r="4" fill="#0" id="circle58"/>
	<circle cx="309.358" cy="301.105" r="4" fill="#0" id="circle59"/>
	<circle cx="319.261" cy="444.705" r="4" fill="#0" id="circle60"/>
	<circle cx="325.864" cy="301.105" r="4" fill="#0" id="circle61"/>
	<circle cx="335.767" cy="444.705" r="4" fill="#0" id="circle62"/>
	<circle cx="342.369" cy="301.105" r="4" fill="#0" id="circle63"/>
	<circle cx="352.273" cy="444.705" r="4" fill="#0" id="circle64"/>
	<circle cx="358.875" cy="301.105" r="4" fill="#0" id="circle65"/>
	<circle cx="368.779" cy="444.705" r="4" fill="#0" id="circle66"/>
	<circle cx="375.381" cy="301.105" r="4" fill="#0" id="circle67"/>
	<circle cx="385.285" cy="444.705" r="4" fill="#0" id="circle68"/>
	<circle cx="391.887" cy="301.105" r="4" fill="#0" id="circle69"/>
	<circle cx="401.79" cy="444.705" r="4" fill="#0" id="circle70"/>
	<circle cx="408.393" cy="301.105" r="4" fill="#0" id="circle71"/>
	<circle cx="418.296" cy="444.705" r="4" fill="#0" id="circle72"/>
	<circle cx="424.899" cy="301.105" r="4" fill="#0" id="circle73"/>
	<circle cx="434.802" cy="444.705" r="4" fill="#0" id="circle74"/>
	<circle cx="441.404" cy="301.105" r="4" fill="#0" id="circle75"/>
	<circle cx="451.308" cy="444.705" r="4" fill="#0" id="circle76"/>
	<circle cx="457.91" cy="301.105" r="4" fill="#0" id="circle77"/>
	<circle cx="467.814" cy="444.705" r="4" fill="#0" id="circle78"/>
	<circle cx="474.416" cy="301.105" r="4" fill="#0" id="circle79"/>
	<circle cx="484.319" cy="444.705" r="4" fill="#0" id="circle80"/>
	<circle cx="490.922" cy="301.105" r="4" fill="#0" id="circle81"/>
	<circle cx="500.825" cy="444.705" r="4" fill="#0" id="circle82"/>
	<circle cx="507.428" cy="299.454" r="4" fill="#0" id="circle83"/>
	<circle cx="517.331" cy="444.705" r="4" fill="#0" id="circle84"/>
	<circle cx="523.933" cy="292.852" r="4" fill="#0" id="circle85"/>
	<circle cx="532.186" cy="274.696" r="4" fill="#0" id="circle86"/>
	<circle cx="533.837" cy="444.705" r="4" fill="#0" id="circle87"/>
	<circle cx="545.391" cy="264.792" r="4" fill="#0" id="circle88"/>
	<circle cx="550.343" cy="444.705" r="4" fill="#0" id="circle89"/>
	<circle cx="558.596" cy="251.587" r="4" fill="#0" id="circle90"/>
	<circle cx="566.849" cy="444.705" r="4" fill="#0" id="circle91"/>
	<circle cx="571.8" cy="238.383" r="4" fill="#0" id="circle92"/>
	<circle cx="583.354" cy="444.705" r="4" fill="#0" id="circle93"/>
	<circle cx="585.005" cy="228.479" r="4" fill="#0" id="circle94"/>
	<circle cx="599.86" cy="444.705" r="4" fill="#0" id="circle95"/>
	<circle cx="601.511" cy="221.877" r="4" fill="#0" id="circle96"/>
	<circle cx="616.366" cy="444.705" r="4" fill="#0" id="circle97"/>
	<circle cx="618.017" cy="215.275" r="4" fill="#0" id="circle98"/>
	<circle cx="632.872" cy="444.705" r="4" fill="#0" id="circle99"/>
	<circle cx="634.522" cy="211.973" r="4" fill="#0" id="circle100"/>
	<circle cx="649.378" cy="444.705" r="4" fill="#0" id="circle101"/>
	<circle cx="651.028" cy="208.672" r="4" fill="#0" id="circle102"/>
	<circle cx="665.884" cy="444.705" r="4" fill="#0" id="circle103"/>
	<circle cx="667.534" cy="208.672" r="4" fill="#0" id="circle104"/>
	<circle cx="682.389" cy="444.705" r="4" fill="#0" id="circle105"/>
	<circle cx="684.04" cy="211.973" r="4" fill="#0" id="circle106"/>
	<circle cx="698.895" cy="203.72" r="4" fill="#0" id="circle107"/>
	<circle cx="698.895" cy="444.705" r="4" fill="#0" id="circle108"/>
	<circle cx="713.75" cy="195.468" r="4" fill="#0" id="circle109"/>
	<circle cx="715.401" cy="444.705" r="4" fill="#0" id="circle110"/>
	<circle cx="730.256" cy="188.865" r="4" fill="#0" id="circle111"/>
	<circle cx="731.907" cy="444.705" r="4" fill="#0" id="circle112"/>
	<circle cx="736.859" cy="126.143" r="4" fill="#0" id="circle113"/>
	<circle cx="736.859" cy="142.649" r="4" fill="#0" id="circle114"/>
	<circle cx="736.859" cy="509.078" r="4" fill="#0" id="circle115"/>
	<circle cx="740.16" cy="459.561" r="4" fill="#0" id="circle116"/>
	<circle cx="740.16" cy="476.067" r="4" fill="#0" id="circle117"/>
	<circle cx="743.461" cy="492.572" r="4" fill="#0" id="circle118"/>
	<circle cx="745.111" cy="111.288" r="4" fill="#0" id="circle119"/>
	<circle cx="746.762" cy="155.854" r="4" fill="#0" id="circle120"/>
	<circle cx="746.762" cy="172.359" r="4" fill="#0" id="circle121"/>
	<circle cx="755.015" cy="467.814" r="4" fill="#0" id="circle122"/>
	<circle cx="758.316" cy="98.0832" r="4" fill="#0" id="circle123"/>
	<circle cx="758.316" cy="446.356" r="4" fill="#0" id="circle124"/>
	<circle cx="771.521" cy="88.1797" r="4" fill="#0" id="circle125"/>
	<circle cx="774.822" cy="444.705" r="4" fill="#0" id="circle126"/>
	<circle cx="786.376" cy="79.9268" r="4" fill="#0" id="circle127"/>
	<circle cx="791.328" cy="444.705" r="4" fill="#0" id="circle128"/>
	<circle cx="802.882" cy="73.3245" r="4" fill="#0" id="circle129"/>
	<circle cx="807.834" cy="444.705" r="4" fill="#0" id="circle130"/>
	<circle cx="816.087" cy="50.2163" r="4" fill="#0" id="circle131"/>
	<circle cx="824.339" cy="444.705" r="4" fill="#0" id="circle132"/>
	<circle cx="829.291" cy="40.3128" r="4" fill="#0" id="circle133"/>
	<circle cx="837.544" cy="25.4576" r="4" fill="#0" id="circle134"/>
	<circle cx="840.845" cy="444.705" r="4" fill="#0" id="circle135"/>
	<circle cx="849.098" cy="4" r="4" fill="#0" id="circle136"/>
	<circle cx="857.351" cy="444.705" r="4" fill="#0" id="circle137"/>
	<circle cx="863.953" cy="12.2529" r="4" fill="#0" id="circle138"/>
	<circle cx="873.857" cy="25.4576" r="4" fill="#0" id="circle139"/>
	<circle cx="873.857" cy="444.705" r="4" fill="#0" id="circle140"/>
	<circle cx="882.11" cy="40.3128" r="4" fill="#0" id="circle141"/>
	<circle cx="890.363" cy="444.705" r="4" fill="#0" id="circle142"/>
	<circle cx="895.314" cy="50.2163" r="4" fill="#0" id="circle143"/>
	<circle cx="905.218" cy="63.421" r="4" fill="#0" id="circle144"/>
	<circle cx="906.869" cy="444.705" r="4" fill="#0" id="circle145"/>
	<circle cx="921.724" cy="70.0233" r="4" fill="#0" id="circle146"/>
	<circle cx="923.374" cy="444.705" r="4" fill="#0" id="circle147"/>
	<circle cx="938.23" cy="76.6256" r="4" fill="#0" id="circle148"/>
	<circle cx="939.88" cy="444.705" r="4" fill="#0" id="circle149"/>
	<circle cx="953.085" cy="84.8785" r="4" fill="#0" id="circle150"/>
	<circle cx="956.386" cy="444.705" r="4" fill="#0" id="circle151"/>
	<circle cx="966.29" cy="94.782" r="4" fill="#0" id="circle152"/>
	<circle cx="967.94" cy="459.561" r="4" fill="#0" id="circle153"/>
	<circle cx="967.94" cy="476.067" r="4" fill="#0" id="circle154"/>
	<circle cx="967.94" cy="509.078" r="4" fill="#0" id="circle155"/>
	<circle cx="972.892" cy="492.572" r="4" fill="#0" id="circle156"/>
	<circle cx="979.494" cy="104.686" r="4" fill="#0" id="circle157"/>
	<circle cx="984.446" cy="507.428" r="4" fill="#0" id="circle158"/>
	<circle cx="986.097" cy="462.862" r="4" fill="#0" id="circle159"/>
	<circle cx="986.097" cy="479.368" r="4" fill="#0" id="circle160"/>
	<circle cx="989.398" cy="117.89" r="4" fill="#0" id="circle161"/>
	<circle cx="989.398" cy="152.552" r="4" fill="#0" id="circle162"/>
	<circle cx="989.398" cy="169.058" r="4" fill="#0" id="circle163"/>
	<circle cx="989.398" cy="185.564" r="4" fill="#0" id="circle164"/>
	<circle cx="989.398" cy="202.07" r="4" fill="#0" id="circle165"/>
	<circle cx="989.398" cy="218.576" r="4" fill="#0" id="circle166"/>
	<circle cx="989.398" cy="235.082" r="4" fill="#0" id="circle167"/>
	<circle cx="989.398" cy="251.587" r="4" fill="#0" id="circle168"/>
	<circle cx="989.398" cy="268.093" r="4" fill="#0" id="circle169"/>
	<circle cx="989.398" cy="284.599" r="4" fill="#0" id="circle170"/>
	<circle cx="989.398" cy="301.105" r="4" fill="#0" id="circle171"/>
	<circle cx="992.699" cy="134.396" r="4" fill="#0" id="circle172"/>
	<circle cx="992.699" cy="317.611" r="4" fill="#0" id="circle173"/>
	<circle cx="992.699" cy="334.116" r="4" fill="#0" id="circle174"/>
	<circle cx="992.699" cy="350.622" r="4" fill="#0" id="circle175"/>
	<circle cx="992.699" cy="367.128" r="4" fill="#0" id="circle176"/>
	<circle cx="992.699" cy="419.947" r="4" fill="#0" id="circle177"/>
	<circle cx="992.699" cy="436.453" r="4" fill="#0" id="circle178"/>
	<circle cx="996" cy="383.634" r="4" fill="#0" id="circle179"/>
	<circle cx="996" cy="400.14" r="4" fill="#0" id="circle180"/>
	</g>
</svg>