<?xml version="1.0" encoding="UTF-8" standalone="no"?>
<!-- Created with CurveBenchmark -->
<svg
	xmlns:dc="http://purl.org/dc/elements/1.1/"
	xmlns:cc="http://creativecommons.org/ns#"
	xmlns:rdf="http://www.w3.org/1999/02/22-rdf-syntax-ns#"
	xmlns:svg="http://www.w3.org/2000/svg"
	xmlns="http://www.w3.org/2000/svg"
	xmlns:sodipodi="http://sodipodi.sourceforge.net/DTD/sodipodi-0.dtd"
	xmlns:inkscape="http://www.inkscape.org/namespaces/inkscape"
	width="1000"
	height="1000"
	id="svg2"
	version="1.1"
	sodipodi:docname="manifold/fitconnect-hammer270.png.txt">
<defs
	id="defs4" />
<metadata
	id="metadata7">
	<rdf:RDF>
		<cc:Work
			rdf:about="">
			<dc:format>image/svg+xml</dc:format>
			<dc:type
				rdf:resource="http://purl.org/dc/dcmitype/StillImage" />
			<dc:title></dc:title>
		</cc:Work>
	</rdf:RDF>
</metadata>
<g
	inkscape:label="Layer 1"
	inkscape:groupmode="layer"
	id="layer1">
	<path style="fill:none;stroke:red;stroke-width:1px;stroke-linecap:butt;stroke-linejoin:miter;stroke-opacity:1" d="M 4,987.374 9.75072,952.87 z" id="boundary" inkscape:connector-curvature="0" />
	<path style="fill:none;stroke:red;stroke-width:1px;stroke-linecap:butt;stroke-linejoin:miter;stroke-opacity:1" d="M 4,987.374 32.7536,996 z" id="boundary" inkscape:connector-curvature="0" />
	<path style="fill:none;stroke:red;stroke-width:1px;stroke-linecap:butt;stroke-linejoin:miter;stroke-opacity:1" d="M 9.75072,492.812 9.75072,521.565 z" id="boundary" inkscape:connector-curvature="0" />
	<path style="fill:none;stroke:red;stroke-width:1px;stroke-linecap:butt;stroke-linejoin:miter;stroke-opacity:1" d="M 9.75072,492.812 27.0029,469.809 z" id="boundary" inkscape:connector-curvature="0" />
	<path style="fill:none;stroke:red;stroke-width:1px;stroke-linecap:butt;stroke-linejoin:miter;stroke-opacity:1" d="M 9.75072,521.565 9.75072,550.319 z" id="boundary" inkscape:connector-curvature="0" />
	<path style="fill:none;stroke:red;stroke-width:1px;stroke-linecap:butt;stroke-linejoin:miter;stroke-opacity:1" d="M 9.75072,550.319 9.75072,579.072 z" id="boundary" inkscape:connector-curvature="0" />
	<path style="fill:none;stroke:red;stroke-width:1px;stroke-linecap:butt;stroke-linejoin:miter;stroke-opacity:1" d="M 9.75072,579.072 9.75072,607.826 z" id="boundary" inkscape:connector-curvature="0" />
	<path style="fill:none;stroke:red;stroke-width:1px;stroke-linecap:butt;stroke-linejoin:miter;stroke-opacity:1" d="M 9.75072,607.826 9.75072,636.58 z" id="boundary" inkscape:connector-curvature="0" />
	<path style="fill:none;stroke:red;stroke-width:1px;stroke-linecap:butt;stroke-linejoin:miter;stroke-opacity:1" d="M 9.75072,636.58 9.75072,665.333 z" id="boundary" inkscape:connector-curvature="0" />
	<path style="fill:none;stroke:red;stroke-width:1px;stroke-linecap:butt;stroke-linejoin:miter;stroke-opacity:1" d="M 9.75072,665.333 9.75072,694.087 z" id="boundary" inkscape:connector-curvature="0" />
	<path style="fill:none;stroke:red;stroke-width:1px;stroke-linecap:butt;stroke-linejoin:miter;stroke-opacity:1" d="M 9.75072,694.087 9.75072,722.841 z" id="boundary" inkscape:connector-curvature="0" />
	<path style="fill:none;stroke:red;stroke-width:1px;stroke-linecap:butt;stroke-linejoin:miter;stroke-opacity:1" d="M 9.75072,722.841 9.75072,751.594 z" id="boundary" inkscape:connector-curvature="0" />
	<path style="fill:none;stroke:red;stroke-width:1px;stroke-linecap:butt;stroke-linejoin:miter;stroke-opacity:1" d="M 9.75072,751.594 9.75072,780.348 z" id="boundary" inkscape:connector-curvature="0" />
	<path style="fill:none;stroke:red;stroke-width:1px;stroke-linecap:butt;stroke-linejoin:miter;stroke-opacity:1" d="M 9.75072,780.348 9.75072,809.101 z" id="boundary" inkscape:connector-curvature="0" />
	<path style="fill:none;stroke:red;stroke-width:1px;stroke-linecap:butt;stroke-linejoin:miter;stroke-opacity:1" d="M 9.75072,809.101 9.75072,837.855 z" id="boundary" inkscape:connector-curvature="0" />
	<path style="fill:none;stroke:red;stroke-width:1px;stroke-linecap:butt;stroke-linejoin:miter;stroke-opacity:1" d="M 9.75072,837.855 9.75072,866.609 z" id="boundary" inkscape:connector-curvature="0" />
	<path style="fill:none;stroke:red;stroke-width:1px;stroke-linecap:butt;stroke-linejoin:miter;stroke-opacity:1" d="M 9.75072,866.609 9.75072,895.362 z" id="boundary" inkscape:connector-curvature="0" />
	<path style="fill:none;stroke:red;stroke-width:1px;stroke-linecap:butt;stroke-linejoin:miter;stroke-opacity:1" d="M 9.75072,895.362 9.75072,924.116 z" id="boundary" inkscape:connector-curvature="0" />
	<path style="fill:none;stroke:red;stroke-width:1px;stroke-linecap:butt;stroke-linejoin:miter;stroke-opacity:1" d="M 9.75072,924.116 9.75072,952.87 z" id="boundary" inkscape:connector-curvature="0" />
	<path style="fill:none;stroke:red;stroke-width:1px;stroke-linecap:butt;stroke-linejoin:miter;stroke-opacity:1" d="M 15.5014,124.765 15.5014,153.519 z" id="boundary" inkscape:connector-curvature="0" />
	<path style="fill:none;stroke:red;stroke-width:1px;stroke-linecap:butt;stroke-linejoin:miter;stroke-opacity:1" d="M 15.5014,124.765 21.2522,78.7594 z" id="boundary" inkscape:connector-curvature="0" />
	<path style="fill:none;stroke:red;stroke-width:1px;stroke-linecap:butt;stroke-linejoin:miter;stroke-opacity:1" d="M 15.5014,153.519 29.8783,179.397 z" id="boundary" inkscape:connector-curvature="0" />
	<path style="fill:none;stroke:red;stroke-width:1px;stroke-linecap:butt;stroke-linejoin:miter;stroke-opacity:1" d="M 21.2522,50.0058 21.2522,78.7594 z" id="boundary" inkscape:connector-curvature="0" />
	<path style="fill:none;stroke:red;stroke-width:1px;stroke-linecap:butt;stroke-linejoin:miter;stroke-opacity:1" d="M 21.2522,50.0058 27.0029,9.75072 z" id="boundary" inkscape:connector-curvature="0" />
	<path style="fill:none;stroke:red;stroke-width:1px;stroke-linecap:butt;stroke-linejoin:miter;stroke-opacity:1" d="M 27.0029,9.75072 55.7565,4 z" id="boundary" inkscape:connector-curvature="0" />
	<path style="fill:none;stroke:red;stroke-width:1px;stroke-linecap:butt;stroke-linejoin:miter;stroke-opacity:1" d="M 27.0029,469.809 38.5043,423.803 z" id="boundary" inkscape:connector-curvature="0" />
	<path style="fill:none;stroke:red;stroke-width:1px;stroke-linecap:butt;stroke-linejoin:miter;stroke-opacity:1" d="M 29.8783,179.397 38.5043,208.151 z" id="boundary" inkscape:connector-curvature="0" />
	<path style="fill:none;stroke:red;stroke-width:1px;stroke-linecap:butt;stroke-linejoin:miter;stroke-opacity:1" d="M 32.7536,996 61.5072,996 z" id="boundary" inkscape:connector-curvature="0" />
	<path style="fill:none;stroke:red;stroke-width:1px;stroke-linecap:butt;stroke-linejoin:miter;stroke-opacity:1" d="M 38.5043,208.151 38.5043,236.904 z" id="boundary" inkscape:connector-curvature="0" />
	<path style="fill:none;stroke:red;stroke-width:1px;stroke-linecap:butt;stroke-linejoin:miter;stroke-opacity:1" d="M 38.5043,236.904 44.2551,265.658 z" id="boundary" inkscape:connector-curvature="0" />
	<path style="fill:none;stroke:red;stroke-width:1px;stroke-linecap:butt;stroke-linejoin:miter;stroke-opacity:1" d="M 38.5043,423.803 44.2551,380.672 z" id="boundary" inkscape:connector-curvature="0" />
	<path style="fill:none;stroke:red;stroke-width:1px;stroke-linecap:butt;stroke-linejoin:miter;stroke-opacity:1" d="M 44.2551,265.658 44.2551,294.412 z" id="boundary" inkscape:connector-curvature="0" />
	<path style="fill:none;stroke:red;stroke-width:1px;stroke-linecap:butt;stroke-linejoin:miter;stroke-opacity:1" d="M 44.2551,294.412 44.2551,323.165 z" id="boundary" inkscape:connector-curvature="0" />
	<path style="fill:none;stroke:red;stroke-width:1px;stroke-linecap:butt;stroke-linejoin:miter;stroke-opacity:1" d="M 44.2551,323.165 44.2551,351.919 z" id="boundary" inkscape:connector-curvature="0" />
	<path style="fill:none;stroke:red;stroke-width:1px;stroke-linecap:butt;stroke-linejoin:miter;stroke-opacity:1" d="M 44.2551,351.919 44.2551,380.672 z" id="boundary" inkscape:connector-curvature="0" />
	<path style="fill:none;stroke:red;stroke-width:1px;stroke-linecap:butt;stroke-linejoin:miter;stroke-opacity:1" d="M 55.7565,4 84.5101,4 z" id="boundary" inkscape:connector-curvature="0" />
	<path style="fill:none;stroke:red;stroke-width:1px;stroke-linecap:butt;stroke-linejoin:miter;stroke-opacity:1" d="M 61.5072,996 90.2609,996 z" id="boundary" inkscape:connector-curvature="0" />
	<path style="fill:none;stroke:red;stroke-width:1px;stroke-linecap:butt;stroke-linejoin:miter;stroke-opacity:1" d="M 84.5101,4 110.388,18.3768 z" id="boundary" inkscape:connector-curvature="0" />
	<path style="fill:none;stroke:red;stroke-width:1px;stroke-linecap:butt;stroke-linejoin:miter;stroke-opacity:1" d="M 90.2609,996 119.014,996 z" id="boundary" inkscape:connector-curvature="0" />
	<path style="fill:none;stroke:red;stroke-width:1px;stroke-linecap:butt;stroke-linejoin:miter;stroke-opacity:1" d="M 98.887,211.026 98.887,239.78 z" id="boundary" inkscape:connector-curvature="0" />
	<path style="fill:none;stroke:red;stroke-width:1px;stroke-linecap:butt;stroke-linejoin:miter;stroke-opacity:1" d="M 98.887,211.026 104.638,182.272 z" id="boundary" inkscape:connector-curvature="0" />
	<path style="fill:none;stroke:red;stroke-width:1px;stroke-linecap:butt;stroke-linejoin:miter;stroke-opacity:1" d="M 98.887,239.78 98.887,268.533 z" id="boundary" inkscape:connector-curvature="0" />
	<path style="fill:none;stroke:red;stroke-width:1px;stroke-linecap:butt;stroke-linejoin:miter;stroke-opacity:1" d="M 98.887,268.533 98.887,297.287 z" id="boundary" inkscape:connector-curvature="0" />
	<path style="fill:none;stroke:red;stroke-width:1px;stroke-linecap:butt;stroke-linejoin:miter;stroke-opacity:1" d="M 98.887,297.287 98.887,326.041 z" id="boundary" inkscape:connector-curvature="0" />
	<path style="fill:none;stroke:red;stroke-width:1px;stroke-linecap:butt;stroke-linejoin:miter;stroke-opacity:1" d="M 98.887,326.041 98.887,354.794 z" id="boundary" inkscape:connector-curvature="0" />
	<path style="fill:none;stroke:red;stroke-width:1px;stroke-linecap:butt;stroke-linejoin:miter;stroke-opacity:1" d="M 98.887,354.794 98.887,383.548 z" id="boundary" inkscape:connector-curvature="0" />
	<path style="fill:none;stroke:red;stroke-width:1px;stroke-linecap:butt;stroke-linejoin:miter;stroke-opacity:1" d="M 98.887,383.548 98.887,412.301 z" id="boundary" inkscape:connector-curvature="0" />
	<path style="fill:none;stroke:red;stroke-width:1px;stroke-linecap:butt;stroke-linejoin:miter;stroke-opacity:1" d="M 98.887,412.301 104.638,441.055 z" id="boundary" inkscape:connector-curvature="0" />
	<path style="fill:none;stroke:red;stroke-width:1px;stroke-linecap:butt;stroke-linejoin:miter;stroke-opacity:1" d="M 104.638,182.272 121.89,133.391 z" id="boundary" inkscape:connector-curvature="0" />
	<path style="fill:none;stroke:red;stroke-width:1px;stroke-linecap:butt;stroke-linejoin:miter;stroke-opacity:1" d="M 104.638,441.055 113.264,469.809 z" id="boundary" inkscape:connector-curvature="0" />
	<path style="fill:none;stroke:red;stroke-width:1px;stroke-linecap:butt;stroke-linejoin:miter;stroke-opacity:1" d="M 110.388,18.3768 116.139,47.1304 z" id="boundary" inkscape:connector-curvature="0" />
	<path style="fill:none;stroke:red;stroke-width:1px;stroke-linecap:butt;stroke-linejoin:miter;stroke-opacity:1" d="M 113.264,469.809 127.641,495.687 z" id="boundary" inkscape:connector-curvature="0" />
	<path style="fill:none;stroke:red;stroke-width:1px;stroke-linecap:butt;stroke-linejoin:miter;stroke-opacity:1" d="M 116.139,47.1304 121.89,75.8841 z" id="boundary" inkscape:connector-curvature="0" />
	<path style="fill:none;stroke:red;stroke-width:1px;stroke-linecap:butt;stroke-linejoin:miter;stroke-opacity:1" d="M 119.014,996 133.391,947.119 z" id="boundary" inkscape:connector-curvature="0" />
	<path style="fill:none;stroke:red;stroke-width:1px;stroke-linecap:butt;stroke-linejoin:miter;stroke-opacity:1" d="M 121.89,75.8841 121.89,104.638 z" id="boundary" inkscape:connector-curvature="0" />
	<path style="fill:none;stroke:red;stroke-width:1px;stroke-linecap:butt;stroke-linejoin:miter;stroke-opacity:1" d="M 121.89,104.638 121.89,133.391 z" id="boundary" inkscape:connector-curvature="0" />
	<path style="fill:none;stroke:red;stroke-width:1px;stroke-linecap:butt;stroke-linejoin:miter;stroke-opacity:1" d="M 127.641,495.687 127.641,524.441 z" id="boundary" inkscape:connector-curvature="0" />
	<path style="fill:none;stroke:red;stroke-width:1px;stroke-linecap:butt;stroke-linejoin:miter;stroke-opacity:1" d="M 127.641,524.441 133.391,553.194 z" id="boundary" inkscape:connector-curvature="0" />
	<path style="fill:none;stroke:red;stroke-width:1px;stroke-linecap:butt;stroke-linejoin:miter;stroke-opacity:1" d="M 127.641,659.583 127.641,688.336 z" id="boundary" inkscape:connector-curvature="0" />
	<path style="fill:none;stroke:red;stroke-width:1px;stroke-linecap:butt;stroke-linejoin:miter;stroke-opacity:1" d="M 127.641,659.583 133.391,610.701 z" id="boundary" inkscape:connector-curvature="0" />
	<path style="fill:none;stroke:red;stroke-width:1px;stroke-linecap:butt;stroke-linejoin:miter;stroke-opacity:1" d="M 127.641,688.336 127.641,717.09 z" id="boundary" inkscape:connector-curvature="0" />
	<path style="fill:none;stroke:red;stroke-width:1px;stroke-linecap:butt;stroke-linejoin:miter;stroke-opacity:1" d="M 127.641,717.09 127.641,745.843 z" id="boundary" inkscape:connector-curvature="0" />
	<path style="fill:none;stroke:red;stroke-width:1px;stroke-linecap:butt;stroke-linejoin:miter;stroke-opacity:1" d="M 127.641,745.843 127.641,774.597 z" id="boundary" inkscape:connector-curvature="0" />
	<path style="fill:none;stroke:red;stroke-width:1px;stroke-linecap:butt;stroke-linejoin:miter;stroke-opacity:1" d="M 127.641,774.597 127.641,803.351 z" id="boundary" inkscape:connector-curvature="0" />
	<path style="fill:none;stroke:red;stroke-width:1px;stroke-linecap:butt;stroke-linejoin:miter;stroke-opacity:1" d="M 127.641,803.351 127.641,832.104 z" id="boundary" inkscape:connector-curvature="0" />
	<path style="fill:none;stroke:red;stroke-width:1px;stroke-linecap:butt;stroke-linejoin:miter;stroke-opacity:1" d="M 127.641,832.104 127.641,860.858 z" id="boundary" inkscape:connector-curvature="0" />
	<path style="fill:none;stroke:red;stroke-width:1px;stroke-linecap:butt;stroke-linejoin:miter;stroke-opacity:1" d="M 127.641,860.858 127.641,889.612 z" id="boundary" inkscape:connector-curvature="0" />
	<path style="fill:none;stroke:red;stroke-width:1px;stroke-linecap:butt;stroke-linejoin:miter;stroke-opacity:1" d="M 127.641,889.612 127.641,918.365 z" id="boundary" inkscape:connector-curvature="0" />
	<path style="fill:none;stroke:red;stroke-width:1px;stroke-linecap:butt;stroke-linejoin:miter;stroke-opacity:1" d="M 127.641,918.365 133.391,947.119 z" id="boundary" inkscape:connector-curvature="0" />
	<path style="fill:none;stroke:red;stroke-width:1px;stroke-linecap:butt;stroke-linejoin:miter;stroke-opacity:1" d="M 133.391,553.194 133.391,581.948 z" id="boundary" inkscape:connector-curvature="0" />
	<path style="fill:none;stroke:red;stroke-width:1px;stroke-linecap:butt;stroke-linejoin:miter;stroke-opacity:1" d="M 133.391,581.948 133.391,610.701 z" id="boundary" inkscape:connector-curvature="0" />
	<circle cx="4" cy="987.374" r="4" fill="#0" id="circle0"/>
	<circle cx="9.75072" cy="492.812" r="4" fill="#0" id="circle1"/>
	<circle cx="9.75072" cy="521.565" r="4" fill="#0" id="circle2"/>
	<circle cx="9.75072" cy="550.319" r="4" fill="#0" id="circle3"/>
	<circle cx="9.75072" cy="579.072" r="4" fill="#0" id="circle4"/>
	<circle cx="9.75072" cy="607.826" r="4" fill="#0" id="circle5"/>
	<circle cx="9.75072" cy="636.58" r="4" fill="#0" id="circle6"/>
	<circle cx="9.75072" cy="665.333" r="4" fill="#0" id="circle7"/>
	<circle cx="9.75072" cy="694.087" r="4" fill="#0" id="circle8"/>
	<circle cx="9.75072" cy="722.841" r="4" fill="#0" id="circle9"/>
	<circle cx="9.75072" cy="751.594" r="4" fill="#0" id="circle10"/>
	<circle cx="9.75072" cy="780.348" r="4" fill="#0" id="circle11"/>
	<circle cx="9.75072" cy="809.101" r="4" fill="#0" id="circle12"/>
	<circle cx="9.75072" cy="837.855" r="4" fill="#0" id="circle13"/>
	<circle cx="9.75072" cy="866.609" r="4" fill="#0" id="circle14"/>
	<circle cx="9.75072" cy="895.362" r="4" fill="#0" id="circle15"/>
	<circle cx="9.75072" cy="924.116" r="4" fill="#0" id="circle16"/>
	<circle cx="9.75072" cy="952.87" r="4" fill="#0" id="circle17"/>
	<circle cx="15.5014" cy="124.765" r="4" fill="#0" id="circle18"/>
	<circle cx="15.5014" cy="153.519" r="4" fill="#0" id="circle19"/>
	<circle cx="21.2522" cy="50.0058" r="4" fill="#0" id="circle20"/>
	<circle cx="21.2522" cy="78.7594" r="4" fill="#0" id="circle21"/>
	<circle cx="27.0029" cy="9.75072" r="4" fill="#0" id="circle22"/>
	<circle cx="27.0029" cy="469.809" r="4" fill="#0" id="circle23"/>
	<circle cx="29.8783" cy="179.397" r="4" fill="#0" id="circle24"/>
	<circle cx="32.7536" cy="996" r="4" fill="#0" id="circle25"/>
	<circle cx="38.5043" cy="208.151" r="4" fill="#0" id="circle26"/>
	<circle cx="38.5043" cy="236.904" r="4" fill="#0" id="circle27"/>
	<circle cx="38.5043" cy="423.803" r="4" fill="#0" id="circle28"/>
	<circle cx="44.2551" cy="265.658" r="4" fill="#0" id="circle29"/>
	<circle cx="44.2551" cy="294.412" r="4" fill="#0" id="circle30"/>
	<circle cx="44.2551" cy="323.165" r="4" fill="#0" id="circle31"/>
	<circle cx="44.2551" cy="351.919" r="4" fill="#0" id="circle32"/>
	<circle cx="44.2551" cy="380.672" r="4" fill="#0" id="circle33"/>
	<circle cx="55.7565" cy="4" r="4" fill="#0" id="circle34"/>
	<circle cx="61.5072" cy="996" r="4" fill="#0" id="circle35"/>
	<circle cx="84.5101" cy="4" r="4" fill="#0" id="circle36"/>
	<circle cx="90.2609" cy="996" r="4" fill="#0" id="circle37"/>
	<circle cx="98.887" cy="211.026" r="4" fill="#0" id="circle38"/>
	<circle cx="98.887" cy="239.78" r="4" fill="#0" id="circle39"/>
	<circle cx="98.887" cy="268.533" r="4" fill="#0" id="circle40"/>
	<circle cx="98.887" cy="297.287" r="4" fill="#0" id="circle41"/>
	<circle cx="98.887" cy="326.041" r="4" fill="#0" id="circle42"/>
	<circle cx="98.887" cy="354.794" r="4" fill="#0" id="circle43"/>
	<circle cx="98.887" cy="383.548" r="4" fill="#0" id="circle44"/>
	<circle cx="98.887" cy="412.301" r="4" fill="#0" id="circle45"/>
	<circle cx="104.638" cy="182.272" r="4" fill="#0" id="circle46"/>
	<circle cx="104.638" cy="441.055" r="4" fill="#0" id="circle47"/>
	<circle cx="110.388" cy="18.3768" r="4" fill="#0" id="circle48"/>
	<circle cx="113.264" cy="469.809" r="4" fill="#0" id="circle49"/>
	<circle cx="116.139" cy="47.1304" r="4" fill="#0" id="circle50"/>
	<circle cx="119.014" cy="996" r="4" fill="#0" id="circle51"/>
	<circle cx="121.89" cy="75.8841" r="4" fill="#0" id="circle52"/>
	<circle cx="121.89" cy="104.638" r="4" fill="#0" id="circle53"/>
	<circle cx="121.89" cy="133.391" r="4" fill="#0" id="circle54"/>
	<circle cx="127.641" cy="495.687" r="4" fill="#0" id="circle55"/>
	<circle cx="127.641" cy="524.441" r="4" fill="#0" id="circle56"/>
	<circle cx="127.641" cy="659.583" r="4" fill="#0" id="circle57"/>
	<circle cx="127.641" cy="688.336" r="4" fill="#0" id="circle58"/>
	<circle cx="127.641" cy="717.09" r="4" fill="#0" id="circle59"/>
	<circle cx="127.641" cy="745.843" r="4" fill="#0" id="circle60"/>
	<circle cx="127.641" cy="774.597" r="4" fill="#0" id="circle61"/>
	<circle cx="127.641" cy="803.351" r="4" fill="#0" id="circle62"/>
	<circle cx="127.641" cy="832.104" r="4" fill="#0" id="circle63"/>
	<circle cx="127.641" cy="860.858" r="4" fill="#0" id="circle64"/>
	<circle cx="127.641" cy="889.612" r="4" fill="#0" id="circle65"/>
	<circle cx="127.641" cy="918.365" r="4" fill="#0" id="circle66"/>
	<circle cx="133.391" cy="553.194" r="4" fill="#0" id="circle67"/>
	<circle cx="133.391" cy="581.948" r="4" fill="#0" id="circle68"/>
	<circle cx="133.391" cy="610.701" r="4" fill="#0" id="circle69"/>
	<circle cx="133.391" cy="947.119" r="4" fill="#0" id="circle70"/>
	</g>
</svg>