<?xml version="1.0" encoding="UTF-8" standalone="no"?>
<!-- Created with CurveBenchmark -->
<svg
	xmlns:dc="http://purl.org/dc/elements/1.1/"
	xmlns:cc="http://creativecommons.org/ns#"
	xmlns:rdf="http://www.w3.org/1999/02/22-rdf-syntax-ns#"
	xmlns:svg="http://www.w3.org/2000/svg"
	xmlns="http://www.w3.org/2000/svg"
	xmlns:sodipodi="http://sodipodi.sourceforge.net/DTD/sodipodi-0.dtd"
	xmlns:inkscape="http://www.inkscape.org/namespaces/inkscape"
	width="1000"
	height="1000"
	id="svg2"
	version="1.1"
	sodipodi:docname="manifold/fitconnect-bed190.png.txt">
<defs
	id="defs4" />
<metadata
	id="metadata7">
	<rdf:RDF>
		<cc:Work
			rdf:about="">
			<dc:format>image/svg+xml</dc:format>
			<dc:type
				rdf:resource="http://purl.org/dc/dcmitype/StillImage" />
			<dc:title></dc:title>
		</cc:Work>
	</rdf:RDF>
</metadata>
<g
	inkscape:label="Layer 1"
	inkscape:groupmode="layer"
	id="layer1">
	<path style="fill:none;stroke:red;stroke-width:1px;stroke-linecap:butt;stroke-linejoin:miter;stroke-opacity:1" d="M 4,432.615 8.41871,454.708 z" id="boundary" inkscape:connector-curvature="0" />
	<path style="fill:none;stroke:red;stroke-width:1px;stroke-linecap:butt;stroke-linejoin:miter;stroke-opacity:1" d="M 4,432.615 17.2561,414.94 z" id="boundary" inkscape:connector-curvature="0" />
	<path style="fill:none;stroke:red;stroke-width:1px;stroke-linecap:butt;stroke-linejoin:miter;stroke-opacity:1" d="M 8.41871,454.708 26.0935,467.964 z" id="boundary" inkscape:connector-curvature="0" />
	<path style="fill:none;stroke:red;stroke-width:1px;stroke-linecap:butt;stroke-linejoin:miter;stroke-opacity:1" d="M 17.2561,414.94 34.931,401.684 z" id="boundary" inkscape:connector-curvature="0" />
	<path style="fill:none;stroke:red;stroke-width:1px;stroke-linecap:butt;stroke-linejoin:miter;stroke-opacity:1" d="M 17.2561,635.875 21.6748,675.644 z" id="boundary" inkscape:connector-curvature="0" />
	<path style="fill:none;stroke:red;stroke-width:1px;stroke-linecap:butt;stroke-linejoin:miter;stroke-opacity:1" d="M 17.2561,635.875 30.5122,591.688 z" id="boundary" inkscape:connector-curvature="0" />
	<path style="fill:none;stroke:red;stroke-width:1px;stroke-linecap:butt;stroke-linejoin:miter;stroke-opacity:1" d="M 21.6748,675.644 43.7684,677.853 z" id="boundary" inkscape:connector-curvature="0" />
	<path style="fill:none;stroke:red;stroke-width:1px;stroke-linecap:butt;stroke-linejoin:miter;stroke-opacity:1" d="M 26.0935,467.964 30.5122,490.058 z" id="boundary" inkscape:connector-curvature="0" />
	<path style="fill:none;stroke:red;stroke-width:1px;stroke-linecap:butt;stroke-linejoin:miter;stroke-opacity:1" d="M 30.5122,490.058 30.5122,512.151 z" id="boundary" inkscape:connector-curvature="0" />
	<path style="fill:none;stroke:red;stroke-width:1px;stroke-linecap:butt;stroke-linejoin:miter;stroke-opacity:1" d="M 30.5122,512.151 30.5122,534.245 z" id="boundary" inkscape:connector-curvature="0" />
	<path style="fill:none;stroke:red;stroke-width:1px;stroke-linecap:butt;stroke-linejoin:miter;stroke-opacity:1" d="M 30.5122,534.245 34.931,556.339 z" id="boundary" inkscape:connector-curvature="0" />
	<path style="fill:none;stroke:red;stroke-width:1px;stroke-linecap:butt;stroke-linejoin:miter;stroke-opacity:1" d="M 30.5122,591.688 34.931,556.339 z" id="boundary" inkscape:connector-curvature="0" />
	<path style="fill:none;stroke:red;stroke-width:1px;stroke-linecap:butt;stroke-linejoin:miter;stroke-opacity:1" d="M 34.931,401.684 57.0245,392.846 z" id="boundary" inkscape:connector-curvature="0" />
	<path style="fill:none;stroke:red;stroke-width:1px;stroke-linecap:butt;stroke-linejoin:miter;stroke-opacity:1" d="M 43.7684,677.853 94.5835,602.735 z" id="boundary" inkscape:connector-curvature="0" />
	<path style="fill:none;stroke:red;stroke-width:1px;stroke-linecap:butt;stroke-linejoin:miter;stroke-opacity:1" d="M 57.0245,392.846 79.118,388.428 z" id="boundary" inkscape:connector-curvature="0" />
	<path style="fill:none;stroke:red;stroke-width:1px;stroke-linecap:butt;stroke-linejoin:miter;stroke-opacity:1" d="M 79.118,388.428 101.212,384.009 z" id="boundary" inkscape:connector-curvature="0" />
	<path style="fill:none;stroke:red;stroke-width:1px;stroke-linecap:butt;stroke-linejoin:miter;stroke-opacity:1" d="M 94.5835,602.735 116.677,607.154 z" id="boundary" inkscape:connector-curvature="0" />
	<path style="fill:none;stroke:red;stroke-width:1px;stroke-linecap:butt;stroke-linejoin:miter;stroke-opacity:1" d="M 101.212,384.009 123.305,379.59 z" id="boundary" inkscape:connector-curvature="0" />
	<path style="fill:none;stroke:red;stroke-width:1px;stroke-linecap:butt;stroke-linejoin:miter;stroke-opacity:1" d="M 116.677,607.154 138.771,607.154 z" id="boundary" inkscape:connector-curvature="0" />
	<path style="fill:none;stroke:red;stroke-width:1px;stroke-linecap:butt;stroke-linejoin:miter;stroke-opacity:1" d="M 123.305,379.59 145.399,375.171 z" id="boundary" inkscape:connector-curvature="0" />
	<path style="fill:none;stroke:red;stroke-width:1px;stroke-linecap:butt;stroke-linejoin:miter;stroke-opacity:1" d="M 138.771,607.154 160.864,615.991 z" id="boundary" inkscape:connector-curvature="0" />
	<path style="fill:none;stroke:red;stroke-width:1px;stroke-linecap:butt;stroke-linejoin:miter;stroke-opacity:1" d="M 145.399,375.171 167.492,366.334 z" id="boundary" inkscape:connector-curvature="0" />
	<path style="fill:none;stroke:red;stroke-width:1px;stroke-linecap:butt;stroke-linejoin:miter;stroke-opacity:1" d="M 160.864,615.991 182.958,622.619 z" id="boundary" inkscape:connector-curvature="0" />
	<path style="fill:none;stroke:red;stroke-width:1px;stroke-linecap:butt;stroke-linejoin:miter;stroke-opacity:1" d="M 167.492,366.334 189.586,366.334 z" id="boundary" inkscape:connector-curvature="0" />
	<path style="fill:none;stroke:red;stroke-width:1px;stroke-linecap:butt;stroke-linejoin:miter;stroke-opacity:1" d="M 182.958,622.619 200.633,604.944 z" id="boundary" inkscape:connector-curvature="0" />
	<path style="fill:none;stroke:red;stroke-width:1px;stroke-linecap:butt;stroke-linejoin:miter;stroke-opacity:1" d="M 189.586,366.334 211.679,361.915 z" id="boundary" inkscape:connector-curvature="0" />
	<path style="fill:none;stroke:red;stroke-width:1px;stroke-linecap:butt;stroke-linejoin:miter;stroke-opacity:1" d="M 200.633,604.944 222.726,598.316 z" id="boundary" inkscape:connector-curvature="0" />
	<path style="fill:none;stroke:red;stroke-width:1px;stroke-linecap:butt;stroke-linejoin:miter;stroke-opacity:1" d="M 211.679,361.915 233.773,361.915 z" id="boundary" inkscape:connector-curvature="0" />
	<path style="fill:none;stroke:red;stroke-width:1px;stroke-linecap:butt;stroke-linejoin:miter;stroke-opacity:1" d="M 222.726,598.316 244.82,598.316 z" id="boundary" inkscape:connector-curvature="0" />
	<path style="fill:none;stroke:red;stroke-width:1px;stroke-linecap:butt;stroke-linejoin:miter;stroke-opacity:1" d="M 233.773,361.915 255.866,357.497 z" id="boundary" inkscape:connector-curvature="0" />
	<path style="fill:none;stroke:red;stroke-width:1px;stroke-linecap:butt;stroke-linejoin:miter;stroke-opacity:1" d="M 242.61,176.33 249.238,198.423 z" id="boundary" inkscape:connector-curvature="0" />
	<path style="fill:none;stroke:red;stroke-width:1px;stroke-linecap:butt;stroke-linejoin:miter;stroke-opacity:1" d="M 242.61,176.33 251.448,154.236 z" id="boundary" inkscape:connector-curvature="0" />
	<path style="fill:none;stroke:red;stroke-width:1px;stroke-linecap:butt;stroke-linejoin:miter;stroke-opacity:1" d="M 244.82,598.316 266.913,653.55 z" id="boundary" inkscape:connector-curvature="0" />
	<path style="fill:none;stroke:red;stroke-width:1px;stroke-linecap:butt;stroke-linejoin:miter;stroke-opacity:1" d="M 249.238,198.423 260.285,218.307 z" id="boundary" inkscape:connector-curvature="0" />
	<path style="fill:none;stroke:red;stroke-width:1px;stroke-linecap:butt;stroke-linejoin:miter;stroke-opacity:1" d="M 251.448,154.236 273.541,145.399 z" id="boundary" inkscape:connector-curvature="0" />
	<path style="fill:none;stroke:red;stroke-width:1px;stroke-linecap:butt;stroke-linejoin:miter;stroke-opacity:1" d="M 255.866,357.497 269.122,328.775 z" id="boundary" inkscape:connector-curvature="0" />
	<path style="fill:none;stroke:red;stroke-width:1px;stroke-linecap:butt;stroke-linejoin:miter;stroke-opacity:1" d="M 260.285,218.307 269.122,240.401 z" id="boundary" inkscape:connector-curvature="0" />
	<path style="fill:none;stroke:red;stroke-width:1px;stroke-linecap:butt;stroke-linejoin:miter;stroke-opacity:1" d="M 266.913,653.55 271.332,627.038 z" id="boundary" inkscape:connector-curvature="0" />
	<path style="fill:none;stroke:red;stroke-width:1px;stroke-linecap:butt;stroke-linejoin:miter;stroke-opacity:1" d="M 269.122,240.401 269.122,262.494 z" id="boundary" inkscape:connector-curvature="0" />
	<path style="fill:none;stroke:red;stroke-width:1px;stroke-linecap:butt;stroke-linejoin:miter;stroke-opacity:1" d="M 269.122,262.494 269.122,284.588 z" id="boundary" inkscape:connector-curvature="0" />
	<path style="fill:none;stroke:red;stroke-width:1px;stroke-linecap:butt;stroke-linejoin:miter;stroke-opacity:1" d="M 269.122,284.588 269.122,306.682 z" id="boundary" inkscape:connector-curvature="0" />
	<path style="fill:none;stroke:red;stroke-width:1px;stroke-linecap:butt;stroke-linejoin:miter;stroke-opacity:1" d="M 269.122,306.682 269.122,328.775 z" id="boundary" inkscape:connector-curvature="0" />
	<path style="fill:none;stroke:red;stroke-width:1px;stroke-linecap:butt;stroke-linejoin:miter;stroke-opacity:1" d="M 271.332,604.944 271.332,627.038 z" id="boundary" inkscape:connector-curvature="0" />
	<path style="fill:none;stroke:red;stroke-width:1px;stroke-linecap:butt;stroke-linejoin:miter;stroke-opacity:1" d="M 271.332,604.944 293.425,607.154 z" id="boundary" inkscape:connector-curvature="0" />
	<path style="fill:none;stroke:red;stroke-width:1px;stroke-linecap:butt;stroke-linejoin:miter;stroke-opacity:1" d="M 273.541,145.399 293.425,134.352 z" id="boundary" inkscape:connector-curvature="0" />
	<path style="fill:none;stroke:red;stroke-width:1px;stroke-linecap:butt;stroke-linejoin:miter;stroke-opacity:1" d="M 293.425,134.352 313.31,123.305 z" id="boundary" inkscape:connector-curvature="0" />
	<path style="fill:none;stroke:red;stroke-width:1px;stroke-linecap:butt;stroke-linejoin:miter;stroke-opacity:1" d="M 293.425,607.154 313.31,618.2 z" id="boundary" inkscape:connector-curvature="0" />
	<path style="fill:none;stroke:red;stroke-width:1px;stroke-linecap:butt;stroke-linejoin:miter;stroke-opacity:1" d="M 313.31,123.305 335.403,118.886 z" id="boundary" inkscape:connector-curvature="0" />
	<path style="fill:none;stroke:red;stroke-width:1px;stroke-linecap:butt;stroke-linejoin:miter;stroke-opacity:1" d="M 313.31,618.2 335.403,627.038 z" id="boundary" inkscape:connector-curvature="0" />
	<path style="fill:none;stroke:red;stroke-width:1px;stroke-linecap:butt;stroke-linejoin:miter;stroke-opacity:1" d="M 335.403,118.886 357.497,110.049 z" id="boundary" inkscape:connector-curvature="0" />
	<path style="fill:none;stroke:red;stroke-width:1px;stroke-linecap:butt;stroke-linejoin:miter;stroke-opacity:1" d="M 335.403,627.038 357.497,633.666 z" id="boundary" inkscape:connector-curvature="0" />
	<path style="fill:none;stroke:red;stroke-width:1px;stroke-linecap:butt;stroke-linejoin:miter;stroke-opacity:1" d="M 357.497,110.049 379.59,105.63 z" id="boundary" inkscape:connector-curvature="0" />
	<path style="fill:none;stroke:red;stroke-width:1px;stroke-linecap:butt;stroke-linejoin:miter;stroke-opacity:1" d="M 357.497,633.666 379.59,638.085 z" id="boundary" inkscape:connector-curvature="0" />
	<path style="fill:none;stroke:red;stroke-width:1px;stroke-linecap:butt;stroke-linejoin:miter;stroke-opacity:1" d="M 379.59,105.63 401.684,101.212 z" id="boundary" inkscape:connector-curvature="0" />
	<path style="fill:none;stroke:red;stroke-width:1px;stroke-linecap:butt;stroke-linejoin:miter;stroke-opacity:1" d="M 379.59,638.085 401.684,642.503 z" id="boundary" inkscape:connector-curvature="0" />
	<path style="fill:none;stroke:red;stroke-width:1px;stroke-linecap:butt;stroke-linejoin:miter;stroke-opacity:1" d="M 401.684,101.212 423.777,96.7929 z" id="boundary" inkscape:connector-curvature="0" />
	<path style="fill:none;stroke:red;stroke-width:1px;stroke-linecap:butt;stroke-linejoin:miter;stroke-opacity:1" d="M 401.684,642.503 423.777,646.922 z" id="boundary" inkscape:connector-curvature="0" />
	<path style="fill:none;stroke:red;stroke-width:1px;stroke-linecap:butt;stroke-linejoin:miter;stroke-opacity:1" d="M 423.777,96.7929 445.871,92.3742 z" id="boundary" inkscape:connector-curvature="0" />
	<path style="fill:none;stroke:red;stroke-width:1px;stroke-linecap:butt;stroke-linejoin:miter;stroke-opacity:1" d="M 423.777,646.922 445.871,646.922 z" id="boundary" inkscape:connector-curvature="0" />
	<path style="fill:none;stroke:red;stroke-width:1px;stroke-linecap:butt;stroke-linejoin:miter;stroke-opacity:1" d="M 445.871,92.3742 467.964,87.9555 z" id="boundary" inkscape:connector-curvature="0" />
	<path style="fill:none;stroke:red;stroke-width:1px;stroke-linecap:butt;stroke-linejoin:miter;stroke-opacity:1" d="M 445.871,646.922 467.964,642.503 z" id="boundary" inkscape:connector-curvature="0" />
	<path style="fill:none;stroke:red;stroke-width:1px;stroke-linecap:butt;stroke-linejoin:miter;stroke-opacity:1" d="M 467.964,87.9555 490.058,87.9555 z" id="boundary" inkscape:connector-curvature="0" />
	<path style="fill:none;stroke:red;stroke-width:1px;stroke-linecap:butt;stroke-linejoin:miter;stroke-opacity:1" d="M 467.964,642.503 490.058,638.085 z" id="boundary" inkscape:connector-curvature="0" />
	<path style="fill:none;stroke:red;stroke-width:1px;stroke-linecap:butt;stroke-linejoin:miter;stroke-opacity:1" d="M 490.058,87.9555 507.733,70.2806 z" id="boundary" inkscape:connector-curvature="0" />
	<path style="fill:none;stroke:red;stroke-width:1px;stroke-linecap:butt;stroke-linejoin:miter;stroke-opacity:1" d="M 490.058,638.085 512.151,633.666 z" id="boundary" inkscape:connector-curvature="0" />
	<path style="fill:none;stroke:red;stroke-width:1px;stroke-linecap:butt;stroke-linejoin:miter;stroke-opacity:1" d="M 507.733,70.2806 525.408,57.0245 z" id="boundary" inkscape:connector-curvature="0" />
	<path style="fill:none;stroke:red;stroke-width:1px;stroke-linecap:butt;stroke-linejoin:miter;stroke-opacity:1" d="M 512.151,633.666 534.245,624.829 z" id="boundary" inkscape:connector-curvature="0" />
	<path style="fill:none;stroke:red;stroke-width:1px;stroke-linecap:butt;stroke-linejoin:miter;stroke-opacity:1" d="M 525.408,57.0245 547.501,52.6058 z" id="boundary" inkscape:connector-curvature="0" />
	<path style="fill:none;stroke:red;stroke-width:1px;stroke-linecap:butt;stroke-linejoin:miter;stroke-opacity:1" d="M 534.245,624.829 554.129,613.782 z" id="boundary" inkscape:connector-curvature="0" />
	<path style="fill:none;stroke:red;stroke-width:1px;stroke-linecap:butt;stroke-linejoin:miter;stroke-opacity:1" d="M 547.501,52.6058 569.595,48.1871 z" id="boundary" inkscape:connector-curvature="0" />
	<path style="fill:none;stroke:red;stroke-width:1px;stroke-linecap:butt;stroke-linejoin:miter;stroke-opacity:1" d="M 554.129,613.782 576.223,607.154 z" id="boundary" inkscape:connector-curvature="0" />
	<path style="fill:none;stroke:red;stroke-width:1px;stroke-linecap:butt;stroke-linejoin:miter;stroke-opacity:1" d="M 569.595,48.1871 582.851,30.5122 z" id="boundary" inkscape:connector-curvature="0" />
	<path style="fill:none;stroke:red;stroke-width:1px;stroke-linecap:butt;stroke-linejoin:miter;stroke-opacity:1" d="M 576.223,607.154 598.316,602.735 z" id="boundary" inkscape:connector-curvature="0" />
	<path style="fill:none;stroke:red;stroke-width:1px;stroke-linecap:butt;stroke-linejoin:miter;stroke-opacity:1" d="M 582.851,30.5122 600.526,8.41871 z" id="boundary" inkscape:connector-curvature="0" />
	<path style="fill:none;stroke:red;stroke-width:1px;stroke-linecap:butt;stroke-linejoin:miter;stroke-opacity:1" d="M 598.316,602.735 620.41,598.316 z" id="boundary" inkscape:connector-curvature="0" />
	<path style="fill:none;stroke:red;stroke-width:1px;stroke-linecap:butt;stroke-linejoin:miter;stroke-opacity:1" d="M 600.526,8.41871 622.619,4 z" id="boundary" inkscape:connector-curvature="0" />
	<path style="fill:none;stroke:red;stroke-width:1px;stroke-linecap:butt;stroke-linejoin:miter;stroke-opacity:1" d="M 620.41,598.316 642.503,598.316 z" id="boundary" inkscape:connector-curvature="0" />
	<path style="fill:none;stroke:red;stroke-width:1px;stroke-linecap:butt;stroke-linejoin:miter;stroke-opacity:1" d="M 622.619,4 635.875,21.6748 z" id="boundary" inkscape:connector-curvature="0" />
	<path style="fill:none;stroke:red;stroke-width:1px;stroke-linecap:butt;stroke-linejoin:miter;stroke-opacity:1" d="M 635.875,21.6748 653.55,34.931 z" id="boundary" inkscape:connector-curvature="0" />
	<path style="fill:none;stroke:red;stroke-width:1px;stroke-linecap:butt;stroke-linejoin:miter;stroke-opacity:1" d="M 642.503,598.316 664.597,607.154 z" id="boundary" inkscape:connector-curvature="0" />
	<path style="fill:none;stroke:red;stroke-width:1px;stroke-linecap:butt;stroke-linejoin:miter;stroke-opacity:1" d="M 653.55,34.931 671.225,48.1871 z" id="boundary" inkscape:connector-curvature="0" />
	<path style="fill:none;stroke:red;stroke-width:1px;stroke-linecap:butt;stroke-linejoin:miter;stroke-opacity:1" d="M 664.597,607.154 682.272,620.41 z" id="boundary" inkscape:connector-curvature="0" />
	<path style="fill:none;stroke:red;stroke-width:1px;stroke-linecap:butt;stroke-linejoin:miter;stroke-opacity:1" d="M 671.225,48.1871 693.318,57.0245 z" id="boundary" inkscape:connector-curvature="0" />
	<path style="fill:none;stroke:red;stroke-width:1px;stroke-linecap:butt;stroke-linejoin:miter;stroke-opacity:1" d="M 682.272,620.41 704.365,620.41 z" id="boundary" inkscape:connector-curvature="0" />
	<path style="fill:none;stroke:red;stroke-width:1px;stroke-linecap:butt;stroke-linejoin:miter;stroke-opacity:1" d="M 693.318,57.0245 715.412,63.6526 z" id="boundary" inkscape:connector-curvature="0" />
	<path style="fill:none;stroke:red;stroke-width:1px;stroke-linecap:butt;stroke-linejoin:miter;stroke-opacity:1" d="M 704.365,620.41 724.249,607.154 z" id="boundary" inkscape:connector-curvature="0" />
	<path style="fill:none;stroke:red;stroke-width:1px;stroke-linecap:butt;stroke-linejoin:miter;stroke-opacity:1" d="M 715.412,63.6526 730.878,81.3274 z" id="boundary" inkscape:connector-curvature="0" />
	<path style="fill:none;stroke:red;stroke-width:1px;stroke-linecap:butt;stroke-linejoin:miter;stroke-opacity:1" d="M 724.249,607.154 746.343,607.154 z" id="boundary" inkscape:connector-curvature="0" />
	<path style="fill:none;stroke:red;stroke-width:1px;stroke-linecap:butt;stroke-linejoin:miter;stroke-opacity:1" d="M 730.878,81.3274 752.971,87.9555 z" id="boundary" inkscape:connector-curvature="0" />
	<path style="fill:none;stroke:red;stroke-width:1px;stroke-linecap:butt;stroke-linejoin:miter;stroke-opacity:1" d="M 746.343,607.154 768.437,602.735 z" id="boundary" inkscape:connector-curvature="0" />
	<path style="fill:none;stroke:red;stroke-width:1px;stroke-linecap:butt;stroke-linejoin:miter;stroke-opacity:1" d="M 752.971,87.9555 775.065,87.9555 z" id="boundary" inkscape:connector-curvature="0" />
	<path style="fill:none;stroke:red;stroke-width:1px;stroke-linecap:butt;stroke-linejoin:miter;stroke-opacity:1" d="M 768.437,602.735 790.53,602.735 z" id="boundary" inkscape:connector-curvature="0" />
	<path style="fill:none;stroke:red;stroke-width:1px;stroke-linecap:butt;stroke-linejoin:miter;stroke-opacity:1" d="M 775.065,87.9555 797.158,92.3742 z" id="boundary" inkscape:connector-curvature="0" />
	<path style="fill:none;stroke:red;stroke-width:1px;stroke-linecap:butt;stroke-linejoin:miter;stroke-opacity:1" d="M 790.53,602.735 812.624,607.154 z" id="boundary" inkscape:connector-curvature="0" />
	<path style="fill:none;stroke:red;stroke-width:1px;stroke-linecap:butt;stroke-linejoin:miter;stroke-opacity:1" d="M 797.158,92.3742 819.252,96.7929 z" id="boundary" inkscape:connector-curvature="0" />
	<path style="fill:none;stroke:red;stroke-width:1px;stroke-linecap:butt;stroke-linejoin:miter;stroke-opacity:1" d="M 812.624,607.154 821.461,629.247 z" id="boundary" inkscape:connector-curvature="0" />
	<path style="fill:none;stroke:red;stroke-width:1px;stroke-linecap:butt;stroke-linejoin:miter;stroke-opacity:1" d="M 819.252,96.7929 841.345,101.212 z" id="boundary" inkscape:connector-curvature="0" />
	<path style="fill:none;stroke:red;stroke-width:1px;stroke-linecap:butt;stroke-linejoin:miter;stroke-opacity:1" d="M 821.461,629.247 825.88,651.341 z" id="boundary" inkscape:connector-curvature="0" />
	<path style="fill:none;stroke:red;stroke-width:1px;stroke-linecap:butt;stroke-linejoin:miter;stroke-opacity:1" d="M 825.88,651.341 825.88,673.434 z" id="boundary" inkscape:connector-curvature="0" />
	<path style="fill:none;stroke:red;stroke-width:1px;stroke-linecap:butt;stroke-linejoin:miter;stroke-opacity:1" d="M 825.88,673.434 843.555,686.69 z" id="boundary" inkscape:connector-curvature="0" />
	<path style="fill:none;stroke:red;stroke-width:1px;stroke-linecap:butt;stroke-linejoin:miter;stroke-opacity:1" d="M 841.345,101.212 863.439,105.63 z" id="boundary" inkscape:connector-curvature="0" />
	<path style="fill:none;stroke:red;stroke-width:1px;stroke-linecap:butt;stroke-linejoin:miter;stroke-opacity:1" d="M 843.555,686.69 845.764,662.388 z" id="boundary" inkscape:connector-curvature="0" />
	<path style="fill:none;stroke:red;stroke-width:1px;stroke-linecap:butt;stroke-linejoin:miter;stroke-opacity:1" d="M 845.764,596.107 850.183,618.2 z" id="boundary" inkscape:connector-curvature="0" />
	<path style="fill:none;stroke:red;stroke-width:1px;stroke-linecap:butt;stroke-linejoin:miter;stroke-opacity:1" d="M 845.764,596.107 867.857,593.898 z" id="boundary" inkscape:connector-curvature="0" />
	<path style="fill:none;stroke:red;stroke-width:1px;stroke-linecap:butt;stroke-linejoin:miter;stroke-opacity:1" d="M 845.764,662.388 850.183,640.294 z" id="boundary" inkscape:connector-curvature="0" />
	<path style="fill:none;stroke:red;stroke-width:1px;stroke-linecap:butt;stroke-linejoin:miter;stroke-opacity:1" d="M 850.183,618.2 850.183,640.294 z" id="boundary" inkscape:connector-curvature="0" />
	<path style="fill:none;stroke:red;stroke-width:1px;stroke-linecap:butt;stroke-linejoin:miter;stroke-opacity:1" d="M 863.439,105.63 885.532,110.049 z" id="boundary" inkscape:connector-curvature="0" />
	<path style="fill:none;stroke:red;stroke-width:1px;stroke-linecap:butt;stroke-linejoin:miter;stroke-opacity:1" d="M 867.857,593.898 889.951,593.898 z" id="boundary" inkscape:connector-curvature="0" />
	<path style="fill:none;stroke:red;stroke-width:1px;stroke-linecap:butt;stroke-linejoin:miter;stroke-opacity:1" d="M 885.532,110.049 907.626,118.886 z" id="boundary" inkscape:connector-curvature="0" />
	<path style="fill:none;stroke:red;stroke-width:1px;stroke-linecap:butt;stroke-linejoin:miter;stroke-opacity:1" d="M 889.951,593.898 912.045,593.898 z" id="boundary" inkscape:connector-curvature="0" />
	<path style="fill:none;stroke:red;stroke-width:1px;stroke-linecap:butt;stroke-linejoin:miter;stroke-opacity:1" d="M 907.626,118.886 929.719,123.305 z" id="boundary" inkscape:connector-curvature="0" />
	<path style="fill:none;stroke:red;stroke-width:1px;stroke-linecap:butt;stroke-linejoin:miter;stroke-opacity:1" d="M 912.045,593.898 934.138,593.898 z" id="boundary" inkscape:connector-curvature="0" />
	<path style="fill:none;stroke:red;stroke-width:1px;stroke-linecap:butt;stroke-linejoin:miter;stroke-opacity:1" d="M 929.719,123.305 949.604,134.352 z" id="boundary" inkscape:connector-curvature="0" />
	<path style="fill:none;stroke:red;stroke-width:1px;stroke-linecap:butt;stroke-linejoin:miter;stroke-opacity:1" d="M 934.138,593.898 956.232,593.898 z" id="boundary" inkscape:connector-curvature="0" />
	<path style="fill:none;stroke:red;stroke-width:1px;stroke-linecap:butt;stroke-linejoin:miter;stroke-opacity:1" d="M 949.604,134.352 969.488,145.399 z" id="boundary" inkscape:connector-curvature="0" />
	<path style="fill:none;stroke:red;stroke-width:1px;stroke-linecap:butt;stroke-linejoin:miter;stroke-opacity:1" d="M 956.232,593.898 971.697,657.969 z" id="boundary" inkscape:connector-curvature="0" />
	<path style="fill:none;stroke:red;stroke-width:1px;stroke-linecap:butt;stroke-linejoin:miter;stroke-opacity:1" d="M 969.488,145.399 989.372,156.445 z" id="boundary" inkscape:connector-curvature="0" />
	<path style="fill:none;stroke:red;stroke-width:1px;stroke-linecap:butt;stroke-linejoin:miter;stroke-opacity:1" d="M 971.697,657.969 991.581,587.269 z" id="boundary" inkscape:connector-curvature="0" />
	<path style="fill:none;stroke:red;stroke-width:1px;stroke-linecap:butt;stroke-linejoin:miter;stroke-opacity:1" d="M 973.906,233.773 973.906,255.866 z" id="boundary" inkscape:connector-curvature="0" />
	<path style="fill:none;stroke:red;stroke-width:1px;stroke-linecap:butt;stroke-linejoin:miter;stroke-opacity:1" d="M 973.906,233.773 982.744,207.261 z" id="boundary" inkscape:connector-curvature="0" />
	<path style="fill:none;stroke:red;stroke-width:1px;stroke-linecap:butt;stroke-linejoin:miter;stroke-opacity:1" d="M 973.906,255.866 973.906,277.96 z" id="boundary" inkscape:connector-curvature="0" />
	<path style="fill:none;stroke:red;stroke-width:1px;stroke-linecap:butt;stroke-linejoin:miter;stroke-opacity:1" d="M 973.906,277.96 973.906,300.053 z" id="boundary" inkscape:connector-curvature="0" />
	<path style="fill:none;stroke:red;stroke-width:1px;stroke-linecap:butt;stroke-linejoin:miter;stroke-opacity:1" d="M 973.906,300.053 973.906,322.147 z" id="boundary" inkscape:connector-curvature="0" />
	<path style="fill:none;stroke:red;stroke-width:1px;stroke-linecap:butt;stroke-linejoin:miter;stroke-opacity:1" d="M 973.906,322.147 973.906,344.241 z" id="boundary" inkscape:connector-curvature="0" />
	<path style="fill:none;stroke:red;stroke-width:1px;stroke-linecap:butt;stroke-linejoin:miter;stroke-opacity:1" d="M 973.906,344.241 973.906,366.334 z" id="boundary" inkscape:connector-curvature="0" />
	<path style="fill:none;stroke:red;stroke-width:1px;stroke-linecap:butt;stroke-linejoin:miter;stroke-opacity:1" d="M 973.906,366.334 982.744,388.428 z" id="boundary" inkscape:connector-curvature="0" />
	<path style="fill:none;stroke:red;stroke-width:1px;stroke-linecap:butt;stroke-linejoin:miter;stroke-opacity:1" d="M 982.744,207.261 996,189.586 z" id="boundary" inkscape:connector-curvature="0" />
	<path style="fill:none;stroke:red;stroke-width:1px;stroke-linecap:butt;stroke-linejoin:miter;stroke-opacity:1" d="M 982.744,388.428 982.744,410.521 z" id="boundary" inkscape:connector-curvature="0" />
	<path style="fill:none;stroke:red;stroke-width:1px;stroke-linecap:butt;stroke-linejoin:miter;stroke-opacity:1" d="M 982.744,410.521 987.163,432.615 z" id="boundary" inkscape:connector-curvature="0" />
	<path style="fill:none;stroke:red;stroke-width:1px;stroke-linecap:butt;stroke-linejoin:miter;stroke-opacity:1" d="M 987.163,432.615 989.372,454.708 z" id="boundary" inkscape:connector-curvature="0" />
	<path style="fill:none;stroke:red;stroke-width:1px;stroke-linecap:butt;stroke-linejoin:miter;stroke-opacity:1" d="M 989.372,156.445 996,189.586 z" id="boundary" inkscape:connector-curvature="0" />
	<path style="fill:none;stroke:red;stroke-width:1px;stroke-linecap:butt;stroke-linejoin:miter;stroke-opacity:1" d="M 989.372,454.708 991.581,476.802 z" id="boundary" inkscape:connector-curvature="0" />
	<path style="fill:none;stroke:red;stroke-width:1px;stroke-linecap:butt;stroke-linejoin:miter;stroke-opacity:1" d="M 991.581,476.802 991.581,498.895 z" id="boundary" inkscape:connector-curvature="0" />
	<path style="fill:none;stroke:red;stroke-width:1px;stroke-linecap:butt;stroke-linejoin:miter;stroke-opacity:1" d="M 991.581,498.895 991.581,520.989 z" id="boundary" inkscape:connector-curvature="0" />
	<path style="fill:none;stroke:red;stroke-width:1px;stroke-linecap:butt;stroke-linejoin:miter;stroke-opacity:1" d="M 991.581,520.989 991.581,543.082 z" id="boundary" inkscape:connector-curvature="0" />
	<path style="fill:none;stroke:red;stroke-width:1px;stroke-linecap:butt;stroke-linejoin:miter;stroke-opacity:1" d="M 991.581,543.082 991.581,565.176 z" id="boundary" inkscape:connector-curvature="0" />
	<path style="fill:none;stroke:red;stroke-width:1px;stroke-linecap:butt;stroke-linejoin:miter;stroke-opacity:1" d="M 991.581,565.176 991.581,587.269 z" id="boundary" inkscape:connector-curvature="0" />
	<circle cx="4" cy="432.615" r="4" fill="#0" id="circle0"/>
	<circle cx="8.41871" cy="454.708" r="4" fill="#0" id="circle1"/>
	<circle cx="17.2561" cy="414.94" r="4" fill="#0" id="circle2"/>
	<circle cx="17.2561" cy="635.875" r="4" fill="#0" id="circle3"/>
	<circle cx="21.6748" cy="675.644" r="4" fill="#0" id="circle4"/>
	<circle cx="26.0935" cy="467.964" r="4" fill="#0" id="circle5"/>
	<circle cx="26.0935" cy="613.782" r="4" fill="#0" id="circle6"/>
	<circle cx="30.5122" cy="490.058" r="4" fill="#0" id="circle7"/>
	<circle cx="30.5122" cy="512.151" r="4" fill="#0" id="circle8"/>
	<circle cx="30.5122" cy="534.245" r="4" fill="#0" id="circle9"/>
	<circle cx="30.5122" cy="591.688" r="4" fill="#0" id="circle10"/>
	<circle cx="34.931" cy="401.684" r="4" fill="#0" id="circle11"/>
	<circle cx="34.931" cy="556.339" r="4" fill="#0" id="circle12"/>
	<circle cx="41.559" cy="640.294" r="4" fill="#0" id="circle13"/>
	<circle cx="43.7684" cy="677.853" r="4" fill="#0" id="circle14"/>
	<circle cx="50.3964" cy="609.363" r="4" fill="#0" id="circle15"/>
	<circle cx="57.0245" cy="392.846" r="4" fill="#0" id="circle16"/>
	<circle cx="72.49" cy="602.735" r="4" fill="#0" id="circle17"/>
	<circle cx="79.118" cy="388.428" r="4" fill="#0" id="circle18"/>
	<circle cx="94.5835" cy="602.735" r="4" fill="#0" id="circle19"/>
	<circle cx="101.212" cy="384.009" r="4" fill="#0" id="circle20"/>
	<circle cx="116.677" cy="607.154" r="4" fill="#0" id="circle21"/>
	<circle cx="123.305" cy="379.59" r="4" fill="#0" id="circle22"/>
	<circle cx="138.771" cy="607.154" r="4" fill="#0" id="circle23"/>
	<circle cx="145.399" cy="375.171" r="4" fill="#0" id="circle24"/>
	<circle cx="160.864" cy="615.991" r="4" fill="#0" id="circle25"/>
	<circle cx="167.492" cy="366.334" r="4" fill="#0" id="circle26"/>
	<circle cx="182.958" cy="622.619" r="4" fill="#0" id="circle27"/>
	<circle cx="189.586" cy="366.334" r="4" fill="#0" id="circle28"/>
	<circle cx="200.633" cy="604.944" r="4" fill="#0" id="circle29"/>
	<circle cx="211.679" cy="361.915" r="4" fill="#0" id="circle30"/>
	<circle cx="222.726" cy="598.316" r="4" fill="#0" id="circle31"/>
	<circle cx="233.773" cy="361.915" r="4" fill="#0" id="circle32"/>
	<circle cx="242.61" cy="176.33" r="4" fill="#0" id="circle33"/>
	<circle cx="244.82" cy="598.316" r="4" fill="#0" id="circle34"/>
	<circle cx="247.029" cy="620.41" r="4" fill="#0" id="circle35"/>
	<circle cx="247.029" cy="642.503" r="4" fill="#0" id="circle36"/>
	<circle cx="247.029" cy="680.062" r="4" fill="#0" id="circle37"/>
	<circle cx="249.238" cy="198.423" r="4" fill="#0" id="circle38"/>
	<circle cx="251.448" cy="154.236" r="4" fill="#0" id="circle39"/>
	<circle cx="255.866" cy="357.497" r="4" fill="#0" id="circle40"/>
	<circle cx="260.285" cy="218.307" r="4" fill="#0" id="circle41"/>
	<circle cx="266.913" cy="653.55" r="4" fill="#0" id="circle42"/>
	<circle cx="269.122" cy="240.401" r="4" fill="#0" id="circle43"/>
	<circle cx="269.122" cy="262.494" r="4" fill="#0" id="circle44"/>
	<circle cx="269.122" cy="284.588" r="4" fill="#0" id="circle45"/>
	<circle cx="269.122" cy="306.682" r="4" fill="#0" id="circle46"/>
	<circle cx="269.122" cy="328.775" r="4" fill="#0" id="circle47"/>
	<circle cx="271.332" cy="604.944" r="4" fill="#0" id="circle48"/>
	<circle cx="271.332" cy="627.038" r="4" fill="#0" id="circle49"/>
	<circle cx="273.541" cy="145.399" r="4" fill="#0" id="circle50"/>
	<circle cx="293.425" cy="134.352" r="4" fill="#0" id="circle51"/>
	<circle cx="293.425" cy="607.154" r="4" fill="#0" id="circle52"/>
	<circle cx="313.31" cy="123.305" r="4" fill="#0" id="circle53"/>
	<circle cx="313.31" cy="618.2" r="4" fill="#0" id="circle54"/>
	<circle cx="335.403" cy="118.886" r="4" fill="#0" id="circle55"/>
	<circle cx="335.403" cy="627.038" r="4" fill="#0" id="circle56"/>
	<circle cx="357.497" cy="110.049" r="4" fill="#0" id="circle57"/>
	<circle cx="357.497" cy="633.666" r="4" fill="#0" id="circle58"/>
	<circle cx="379.59" cy="105.63" r="4" fill="#0" id="circle59"/>
	<circle cx="379.59" cy="638.085" r="4" fill="#0" id="circle60"/>
	<circle cx="401.684" cy="101.212" r="4" fill="#0" id="circle61"/>
	<circle cx="401.684" cy="642.503" r="4" fill="#0" id="circle62"/>
	<circle cx="423.777" cy="96.7929" r="4" fill="#0" id="circle63"/>
	<circle cx="423.777" cy="646.922" r="4" fill="#0" id="circle64"/>
	<circle cx="445.871" cy="92.3742" r="4" fill="#0" id="circle65"/>
	<circle cx="445.871" cy="646.922" r="4" fill="#0" id="circle66"/>
	<circle cx="467.964" cy="87.9555" r="4" fill="#0" id="circle67"/>
	<circle cx="467.964" cy="642.503" r="4" fill="#0" id="circle68"/>
	<circle cx="490.058" cy="87.9555" r="4" fill="#0" id="circle69"/>
	<circle cx="490.058" cy="638.085" r="4" fill="#0" id="circle70"/>
	<circle cx="507.733" cy="70.2806" r="4" fill="#0" id="circle71"/>
	<circle cx="512.151" cy="633.666" r="4" fill="#0" id="circle72"/>
	<circle cx="525.408" cy="57.0245" r="4" fill="#0" id="circle73"/>
	<circle cx="534.245" cy="624.829" r="4" fill="#0" id="circle74"/>
	<circle cx="547.501" cy="52.6058" r="4" fill="#0" id="circle75"/>
	<circle cx="554.129" cy="613.782" r="4" fill="#0" id="circle76"/>
	<circle cx="569.595" cy="48.1871" r="4" fill="#0" id="circle77"/>
	<circle cx="576.223" cy="607.154" r="4" fill="#0" id="circle78"/>
	<circle cx="582.851" cy="30.5122" r="4" fill="#0" id="circle79"/>
	<circle cx="598.316" cy="602.735" r="4" fill="#0" id="circle80"/>
	<circle cx="600.526" cy="8.41871" r="4" fill="#0" id="circle81"/>
	<circle cx="620.41" cy="598.316" r="4" fill="#0" id="circle82"/>
	<circle cx="622.619" cy="4" r="4" fill="#0" id="circle83"/>
	<circle cx="635.875" cy="21.6748" r="4" fill="#0" id="circle84"/>
	<circle cx="642.503" cy="598.316" r="4" fill="#0" id="circle85"/>
	<circle cx="653.55" cy="34.931" r="4" fill="#0" id="circle86"/>
	<circle cx="664.597" cy="607.154" r="4" fill="#0" id="circle87"/>
	<circle cx="671.225" cy="48.1871" r="4" fill="#0" id="circle88"/>
	<circle cx="682.272" cy="620.41" r="4" fill="#0" id="circle89"/>
	<circle cx="693.318" cy="57.0245" r="4" fill="#0" id="circle90"/>
	<circle cx="704.365" cy="620.41" r="4" fill="#0" id="circle91"/>
	<circle cx="715.412" cy="63.6526" r="4" fill="#0" id="circle92"/>
	<circle cx="724.249" cy="607.154" r="4" fill="#0" id="circle93"/>
	<circle cx="730.878" cy="81.3274" r="4" fill="#0" id="circle94"/>
	<circle cx="746.343" cy="607.154" r="4" fill="#0" id="circle95"/>
	<circle cx="752.971" cy="87.9555" r="4" fill="#0" id="circle96"/>
	<circle cx="768.437" cy="602.735" r="4" fill="#0" id="circle97"/>
	<circle cx="775.065" cy="87.9555" r="4" fill="#0" id="circle98"/>
	<circle cx="790.53" cy="602.735" r="4" fill="#0" id="circle99"/>
	<circle cx="797.158" cy="92.3742" r="4" fill="#0" id="circle100"/>
	<circle cx="812.624" cy="607.154" r="4" fill="#0" id="circle101"/>
	<circle cx="819.252" cy="96.7929" r="4" fill="#0" id="circle102"/>
	<circle cx="821.461" cy="629.247" r="4" fill="#0" id="circle103"/>
	<circle cx="825.88" cy="651.341" r="4" fill="#0" id="circle104"/>
	<circle cx="825.88" cy="673.434" r="4" fill="#0" id="circle105"/>
	<circle cx="841.345" cy="101.212" r="4" fill="#0" id="circle106"/>
	<circle cx="843.555" cy="686.69" r="4" fill="#0" id="circle107"/>
	<circle cx="845.764" cy="596.107" r="4" fill="#0" id="circle108"/>
	<circle cx="845.764" cy="662.388" r="4" fill="#0" id="circle109"/>
	<circle cx="850.183" cy="618.2" r="4" fill="#0" id="circle110"/>
	<circle cx="850.183" cy="640.294" r="4" fill="#0" id="circle111"/>
	<circle cx="863.439" cy="105.63" r="4" fill="#0" id="circle112"/>
	<circle cx="867.857" cy="593.898" r="4" fill="#0" id="circle113"/>
	<circle cx="885.532" cy="110.049" r="4" fill="#0" id="circle114"/>
	<circle cx="889.951" cy="593.898" r="4" fill="#0" id="circle115"/>
	<circle cx="907.626" cy="118.886" r="4" fill="#0" id="circle116"/>
	<circle cx="912.045" cy="593.898" r="4" fill="#0" id="circle117"/>
	<circle cx="929.719" cy="123.305" r="4" fill="#0" id="circle118"/>
	<circle cx="934.138" cy="593.898" r="4" fill="#0" id="circle119"/>
	<circle cx="949.604" cy="134.352" r="4" fill="#0" id="circle120"/>
	<circle cx="956.232" cy="593.898" r="4" fill="#0" id="circle121"/>
	<circle cx="967.278" cy="613.782" r="4" fill="#0" id="circle122"/>
	<circle cx="967.278" cy="635.875" r="4" fill="#0" id="circle123"/>
	<circle cx="969.488" cy="145.399" r="4" fill="#0" id="circle124"/>
	<circle cx="971.697" cy="657.969" r="4" fill="#0" id="circle125"/>
	<circle cx="971.697" cy="680.062" r="4" fill="#0" id="circle126"/>
	<circle cx="973.906" cy="233.773" r="4" fill="#0" id="circle127"/>
	<circle cx="973.906" cy="255.866" r="4" fill="#0" id="circle128"/>
	<circle cx="973.906" cy="277.96" r="4" fill="#0" id="circle129"/>
	<circle cx="973.906" cy="300.053" r="4" fill="#0" id="circle130"/>
	<circle cx="973.906" cy="322.147" r="4" fill="#0" id="circle131"/>
	<circle cx="973.906" cy="344.241" r="4" fill="#0" id="circle132"/>
	<circle cx="973.906" cy="366.334" r="4" fill="#0" id="circle133"/>
	<circle cx="982.744" cy="207.261" r="4" fill="#0" id="circle134"/>
	<circle cx="982.744" cy="388.428" r="4" fill="#0" id="circle135"/>
	<circle cx="982.744" cy="410.521" r="4" fill="#0" id="circle136"/>
	<circle cx="987.163" cy="432.615" r="4" fill="#0" id="circle137"/>
	<circle cx="989.372" cy="156.445" r="4" fill="#0" id="circle138"/>
	<circle cx="989.372" cy="454.708" r="4" fill="#0" id="circle139"/>
	<circle cx="991.581" cy="476.802" r="4" fill="#0" id="circle140"/>
	<circle cx="991.581" cy="498.895" r="4" fill="#0" id="circle141"/>
	<circle cx="991.581" cy="520.989" r="4" fill="#0" id="circle142"/>
	<circle cx="991.581" cy="543.082" r="4" fill="#0" id="circle143"/>
	<circle cx="991.581" cy="565.176" r="4" fill="#0" id="circle144"/>
	<circle cx="991.581" cy="587.269" r="4" fill="#0" id="circle145"/>
	<circle cx="991.581" cy="609.363" r="4" fill="#0" id="circle146"/>
	<circle cx="991.581" cy="631.457" r="4" fill="#0" id="circle147"/>
	<circle cx="996" cy="189.586" r="4" fill="#0" id="circle148"/>
	</g>
</svg>