<?xml version="1.0" encoding="UTF-8" standalone="no"?>
<!-- Created with CurveBenchmark -->
<svg
	xmlns:dc="http://purl.org/dc/elements/1.1/"
	xmlns:cc="http://creativecommons.org/ns#"
	xmlns:rdf="http://www.w3.org/1999/02/22-rdf-syntax-ns#"
	xmlns:svg="http://www.w3.org/2000/svg"
	xmlns="http://www.w3.org/2000/svg"
	xmlns:sodipodi="http://sodipodi.sourceforge.net/DTD/sodipodi-0.dtd"
	xmlns:inkscape="http://www.inkscape.org/namespaces/inkscape"
	width="1000"
	height="1000"
	id="svg2"
	version="1.1"
	sodipodi:docname="manifold/fitconnect-children-10.png.txt">
<defs
	id="defs4" />
<metadata
	id="metadata7">
	<rdf:RDF>
		<cc:Work
			rdf:about="">
			<dc:format>image/svg+xml</dc:format>
			<dc:type
				rdf:resource="http://purl.org/dc/dcmitype/StillImage" />
			<dc:title></dc:title>
		</cc:Work>
	</rdf:RDF>
</metadata>
<g
	inkscape:label="Layer 1"
	inkscape:groupmode="layer"
	id="layer1">
	<path style="fill:none;stroke:red;stroke-width:1px;stroke-linecap:butt;stroke-linejoin:miter;stroke-opacity:1" d="M 4,311.986 4,323.923 z" id="boundary" inkscape:connector-curvature="0" />
	<path style="fill:none;stroke:red;stroke-width:1px;stroke-linecap:butt;stroke-linejoin:miter;stroke-opacity:1" d="M 4,311.986 9.96871,300.048 z" id="boundary" inkscape:connector-curvature="0" />
	<path style="fill:none;stroke:red;stroke-width:1px;stroke-linecap:butt;stroke-linejoin:miter;stroke-opacity:1" d="M 4,323.923 9.96871,334.667 z" id="boundary" inkscape:connector-curvature="0" />
	<path style="fill:none;stroke:red;stroke-width:1px;stroke-linecap:butt;stroke-linejoin:miter;stroke-opacity:1" d="M 9.96871,300.048 15.9374,288.111 z" id="boundary" inkscape:connector-curvature="0" />
	<path style="fill:none;stroke:red;stroke-width:1px;stroke-linecap:butt;stroke-linejoin:miter;stroke-opacity:1" d="M 9.96871,334.667 9.96871,346.604 z" id="boundary" inkscape:connector-curvature="0" />
	<path style="fill:none;stroke:red;stroke-width:1px;stroke-linecap:butt;stroke-linejoin:miter;stroke-opacity:1" d="M 9.96871,346.604 9.96871,358.542 z" id="boundary" inkscape:connector-curvature="0" />
	<path style="fill:none;stroke:red;stroke-width:1px;stroke-linecap:butt;stroke-linejoin:miter;stroke-opacity:1" d="M 9.96871,358.542 9.96871,370.479 z" id="boundary" inkscape:connector-curvature="0" />
	<path style="fill:none;stroke:red;stroke-width:1px;stroke-linecap:butt;stroke-linejoin:miter;stroke-opacity:1" d="M 9.96871,370.479 15.9374,381.223 z" id="boundary" inkscape:connector-curvature="0" />
	<path style="fill:none;stroke:red;stroke-width:1px;stroke-linecap:butt;stroke-linejoin:miter;stroke-opacity:1" d="M 15.9374,288.111 25.4874,278.561 z" id="boundary" inkscape:connector-curvature="0" />
	<path style="fill:none;stroke:red;stroke-width:1px;stroke-linecap:butt;stroke-linejoin:miter;stroke-opacity:1" d="M 15.9374,381.223 15.9374,393.16 z" id="boundary" inkscape:connector-curvature="0" />
	<path style="fill:none;stroke:red;stroke-width:1px;stroke-linecap:butt;stroke-linejoin:miter;stroke-opacity:1" d="M 15.9374,393.16 21.9061,403.904 z" id="boundary" inkscape:connector-curvature="0" />
	<path style="fill:none;stroke:red;stroke-width:1px;stroke-linecap:butt;stroke-linejoin:miter;stroke-opacity:1" d="M 21.9061,403.904 21.9061,415.841 z" id="boundary" inkscape:connector-curvature="0" />
	<path style="fill:none;stroke:red;stroke-width:1px;stroke-linecap:butt;stroke-linejoin:miter;stroke-opacity:1" d="M 21.9061,415.841 21.9061,427.779 z" id="boundary" inkscape:connector-curvature="0" />
	<path style="fill:none;stroke:red;stroke-width:1px;stroke-linecap:butt;stroke-linejoin:miter;stroke-opacity:1" d="M 21.9061,427.779 21.9061,439.716 z" id="boundary" inkscape:connector-curvature="0" />
	<path style="fill:none;stroke:red;stroke-width:1px;stroke-linecap:butt;stroke-linejoin:miter;stroke-opacity:1" d="M 21.9061,439.716 21.9061,451.653 z" id="boundary" inkscape:connector-curvature="0" />
	<path style="fill:none;stroke:red;stroke-width:1px;stroke-linecap:butt;stroke-linejoin:miter;stroke-opacity:1" d="M 21.9061,451.653 21.9061,463.591 z" id="boundary" inkscape:connector-curvature="0" />
	<path style="fill:none;stroke:red;stroke-width:1px;stroke-linecap:butt;stroke-linejoin:miter;stroke-opacity:1" d="M 21.9061,463.591 24.2936,475.528 z" id="boundary" inkscape:connector-curvature="0" />
	<path style="fill:none;stroke:red;stroke-width:1px;stroke-linecap:butt;stroke-linejoin:miter;stroke-opacity:1" d="M 24.2936,475.528 27.8748,487.466 z" id="boundary" inkscape:connector-curvature="0" />
	<path style="fill:none;stroke:red;stroke-width:1px;stroke-linecap:butt;stroke-linejoin:miter;stroke-opacity:1" d="M 25.4874,278.561 31.4561,266.623 z" id="boundary" inkscape:connector-curvature="0" />
	<path style="fill:none;stroke:red;stroke-width:1px;stroke-linecap:butt;stroke-linejoin:miter;stroke-opacity:1" d="M 27.8748,79.2058 27.8748,91.1432 z" id="boundary" inkscape:connector-curvature="0" />
	<path style="fill:none;stroke:red;stroke-width:1px;stroke-linecap:butt;stroke-linejoin:miter;stroke-opacity:1" d="M 27.8748,79.2058 33.8436,67.2684 z" id="boundary" inkscape:connector-curvature="0" />
	<path style="fill:none;stroke:red;stroke-width:1px;stroke-linecap:butt;stroke-linejoin:miter;stroke-opacity:1" d="M 27.8748,91.1432 27.8748,103.081 z" id="boundary" inkscape:connector-curvature="0" />
	<path style="fill:none;stroke:red;stroke-width:1px;stroke-linecap:butt;stroke-linejoin:miter;stroke-opacity:1" d="M 27.8748,103.081 27.8748,115.018 z" id="boundary" inkscape:connector-curvature="0" />
	<path style="fill:none;stroke:red;stroke-width:1px;stroke-linecap:butt;stroke-linejoin:miter;stroke-opacity:1" d="M 27.8748,115.018 33.8436,125.762 z" id="boundary" inkscape:connector-curvature="0" />
	<path style="fill:none;stroke:red;stroke-width:1px;stroke-linecap:butt;stroke-linejoin:miter;stroke-opacity:1" d="M 27.8748,487.466 30.2623,499.403 z" id="boundary" inkscape:connector-curvature="0" />
	<path style="fill:none;stroke:red;stroke-width:1px;stroke-linecap:butt;stroke-linejoin:miter;stroke-opacity:1" d="M 30.2623,499.403 33.8436,511.341 z" id="boundary" inkscape:connector-curvature="0" />
	<path style="fill:none;stroke:red;stroke-width:1px;stroke-linecap:butt;stroke-linejoin:miter;stroke-opacity:1" d="M 31.4561,266.623 41.006,257.073 z" id="boundary" inkscape:connector-curvature="0" />
	<path style="fill:none;stroke:red;stroke-width:1px;stroke-linecap:butt;stroke-linejoin:miter;stroke-opacity:1" d="M 33.8436,67.2684 39.8123,55.3309 z" id="boundary" inkscape:connector-curvature="0" />
	<path style="fill:none;stroke:red;stroke-width:1px;stroke-linecap:butt;stroke-linejoin:miter;stroke-opacity:1" d="M 33.8436,125.762 33.8436,137.699 z" id="boundary" inkscape:connector-curvature="0" />
	<path style="fill:none;stroke:red;stroke-width:1px;stroke-linecap:butt;stroke-linejoin:miter;stroke-opacity:1" d="M 33.8436,137.699 39.8123,148.443 z" id="boundary" inkscape:connector-curvature="0" />
	<path style="fill:none;stroke:red;stroke-width:1px;stroke-linecap:butt;stroke-linejoin:miter;stroke-opacity:1" d="M 33.8436,511.341 36.231,523.278 z" id="boundary" inkscape:connector-curvature="0" />
	<path style="fill:none;stroke:red;stroke-width:1px;stroke-linecap:butt;stroke-linejoin:miter;stroke-opacity:1" d="M 36.231,523.278 42.1998,534.022 z" id="boundary" inkscape:connector-curvature="0" />
	<path style="fill:none;stroke:red;stroke-width:1px;stroke-linecap:butt;stroke-linejoin:miter;stroke-opacity:1" d="M 39.8123,55.3309 49.3622,45.781 z" id="boundary" inkscape:connector-curvature="0" />
	<path style="fill:none;stroke:red;stroke-width:1px;stroke-linecap:butt;stroke-linejoin:miter;stroke-opacity:1" d="M 39.8123,148.443 46.9747,157.993 z" id="boundary" inkscape:connector-curvature="0" />
	<path style="fill:none;stroke:red;stroke-width:1px;stroke-linecap:butt;stroke-linejoin:miter;stroke-opacity:1" d="M 41.006,257.073 52.9434,251.105 z" id="boundary" inkscape:connector-curvature="0" />
	<path style="fill:none;stroke:red;stroke-width:1px;stroke-linecap:butt;stroke-linejoin:miter;stroke-opacity:1" d="M 42.1998,534.022 45.781,545.959 z" id="boundary" inkscape:connector-curvature="0" />
	<path style="fill:none;stroke:red;stroke-width:1px;stroke-linecap:butt;stroke-linejoin:miter;stroke-opacity:1" d="M 45.781,545.959 45.781,557.897 z" id="boundary" inkscape:connector-curvature="0" />
	<path style="fill:none;stroke:red;stroke-width:1px;stroke-linecap:butt;stroke-linejoin:miter;stroke-opacity:1" d="M 45.781,557.897 45.781,569.834 z" id="boundary" inkscape:connector-curvature="0" />
	<path style="fill:none;stroke:red;stroke-width:1px;stroke-linecap:butt;stroke-linejoin:miter;stroke-opacity:1" d="M 45.781,569.834 45.781,581.771 z" id="boundary" inkscape:connector-curvature="0" />
	<path style="fill:none;stroke:red;stroke-width:1px;stroke-linecap:butt;stroke-linejoin:miter;stroke-opacity:1" d="M 45.781,581.771 51.7497,592.515 z" id="boundary" inkscape:connector-curvature="0" />
	<path style="fill:none;stroke:red;stroke-width:1px;stroke-linecap:butt;stroke-linejoin:miter;stroke-opacity:1" d="M 46.9747,157.993 56.5247,166.349 z" id="boundary" inkscape:connector-curvature="0" />
	<path style="fill:none;stroke:red;stroke-width:1px;stroke-linecap:butt;stroke-linejoin:miter;stroke-opacity:1" d="M 49.3622,45.781 58.9122,36.231 z" id="boundary" inkscape:connector-curvature="0" />
	<path style="fill:none;stroke:red;stroke-width:1px;stroke-linecap:butt;stroke-linejoin:miter;stroke-opacity:1" d="M 51.7497,592.515 51.7497,604.452 z" id="boundary" inkscape:connector-curvature="0" />
	<path style="fill:none;stroke:red;stroke-width:1px;stroke-linecap:butt;stroke-linejoin:miter;stroke-opacity:1" d="M 51.7497,604.452 51.7497,616.39 z" id="boundary" inkscape:connector-curvature="0" />
	<path style="fill:none;stroke:red;stroke-width:1px;stroke-linecap:butt;stroke-linejoin:miter;stroke-opacity:1" d="M 51.7497,616.39 57.7184,627.134 z" id="boundary" inkscape:connector-curvature="0" />
	<path style="fill:none;stroke:red;stroke-width:1px;stroke-linecap:butt;stroke-linejoin:miter;stroke-opacity:1" d="M 52.9434,251.105 62.4934,242.748 z" id="boundary" inkscape:connector-curvature="0" />
	<path style="fill:none;stroke:red;stroke-width:1px;stroke-linecap:butt;stroke-linejoin:miter;stroke-opacity:1" d="M 56.5247,166.349 64.8809,175.899 z" id="boundary" inkscape:connector-curvature="0" />
	<path style="fill:none;stroke:red;stroke-width:1px;stroke-linecap:butt;stroke-linejoin:miter;stroke-opacity:1" d="M 57.7184,627.134 63.6871,637.877 z" id="boundary" inkscape:connector-curvature="0" />
	<path style="fill:none;stroke:red;stroke-width:1px;stroke-linecap:butt;stroke-linejoin:miter;stroke-opacity:1" d="M 58.9122,36.231 68.4621,27.8748 z" id="boundary" inkscape:connector-curvature="0" />
	<path style="fill:none;stroke:red;stroke-width:1px;stroke-linecap:butt;stroke-linejoin:miter;stroke-opacity:1" d="M 62.4934,242.748 70.8496,233.199 z" id="boundary" inkscape:connector-curvature="0" />
	<path style="fill:none;stroke:red;stroke-width:1px;stroke-linecap:butt;stroke-linejoin:miter;stroke-opacity:1" d="M 63.6871,637.877 63.6871,649.815 z" id="boundary" inkscape:connector-curvature="0" />
	<path style="fill:none;stroke:red;stroke-width:1px;stroke-linecap:butt;stroke-linejoin:miter;stroke-opacity:1" d="M 63.6871,649.815 67.2684,661.752 z" id="boundary" inkscape:connector-curvature="0" />
	<path style="fill:none;stroke:red;stroke-width:1px;stroke-linecap:butt;stroke-linejoin:miter;stroke-opacity:1" d="M 64.8809,175.899 74.4308,184.255 z" id="boundary" inkscape:connector-curvature="0" />
	<path style="fill:none;stroke:red;stroke-width:1px;stroke-linecap:butt;stroke-linejoin:miter;stroke-opacity:1" d="M 67.2684,661.752 73.2371,672.496 z" id="boundary" inkscape:connector-curvature="0" />
	<path style="fill:none;stroke:red;stroke-width:1px;stroke-linecap:butt;stroke-linejoin:miter;stroke-opacity:1" d="M 68.4621,27.8748 76.8183,18.3249 z" id="boundary" inkscape:connector-curvature="0" />
	<path style="fill:none;stroke:red;stroke-width:1px;stroke-linecap:butt;stroke-linejoin:miter;stroke-opacity:1" d="M 70.8496,233.199 80.3995,224.842 z" id="boundary" inkscape:connector-curvature="0" />
	<path style="fill:none;stroke:red;stroke-width:1px;stroke-linecap:butt;stroke-linejoin:miter;stroke-opacity:1" d="M 73.2371,672.496 78.012,684.433 z" id="boundary" inkscape:connector-curvature="0" />
	<path style="fill:none;stroke:red;stroke-width:1px;stroke-linecap:butt;stroke-linejoin:miter;stroke-opacity:1" d="M 74.4308,184.255 79.2058,196.193 z" id="boundary" inkscape:connector-curvature="0" />
	<path style="fill:none;stroke:red;stroke-width:1px;stroke-linecap:butt;stroke-linejoin:miter;stroke-opacity:1" d="M 76.8183,18.3249 88.7557,12.3562 z" id="boundary" inkscape:connector-curvature="0" />
	<path style="fill:none;stroke:red;stroke-width:1px;stroke-linecap:butt;stroke-linejoin:miter;stroke-opacity:1" d="M 78.012,684.433 87.562,691.596 z" id="boundary" inkscape:connector-curvature="0" />
	<path style="fill:none;stroke:red;stroke-width:1px;stroke-linecap:butt;stroke-linejoin:miter;stroke-opacity:1" d="M 79.2058,196.193 81.5933,208.13 z" id="boundary" inkscape:connector-curvature="0" />
	<path style="fill:none;stroke:red;stroke-width:1px;stroke-linecap:butt;stroke-linejoin:miter;stroke-opacity:1" d="M 80.3995,224.842 81.5933,208.13 z" id="boundary" inkscape:connector-curvature="0" />
	<path style="fill:none;stroke:red;stroke-width:1px;stroke-linecap:butt;stroke-linejoin:miter;stroke-opacity:1" d="M 87.562,691.596 98.3057,697.564 z" id="boundary" inkscape:connector-curvature="0" />
	<path style="fill:none;stroke:red;stroke-width:1px;stroke-linecap:butt;stroke-linejoin:miter;stroke-opacity:1" d="M 87.562,801.42 87.562,813.357 z" id="boundary" inkscape:connector-curvature="0" />
	<path style="fill:none;stroke:red;stroke-width:1px;stroke-linecap:butt;stroke-linejoin:miter;stroke-opacity:1" d="M 87.562,801.42 93.5307,789.483 z" id="boundary" inkscape:connector-curvature="0" />
	<path style="fill:none;stroke:red;stroke-width:1px;stroke-linecap:butt;stroke-linejoin:miter;stroke-opacity:1" d="M 87.562,813.357 93.5307,824.101 z" id="boundary" inkscape:connector-curvature="0" />
	<path style="fill:none;stroke:red;stroke-width:1px;stroke-linecap:butt;stroke-linejoin:miter;stroke-opacity:1" d="M 88.7557,12.3562 100.693,6.38748 z" id="boundary" inkscape:connector-curvature="0" />
	<path style="fill:none;stroke:red;stroke-width:1px;stroke-linecap:butt;stroke-linejoin:miter;stroke-opacity:1" d="M 93.5307,789.483 99.4994,777.545 z" id="boundary" inkscape:connector-curvature="0" />
	<path style="fill:none;stroke:red;stroke-width:1px;stroke-linecap:butt;stroke-linejoin:miter;stroke-opacity:1" d="M 93.5307,824.101 93.5307,836.039 z" id="boundary" inkscape:connector-curvature="0" />
	<path style="fill:none;stroke:red;stroke-width:1px;stroke-linecap:butt;stroke-linejoin:miter;stroke-opacity:1" d="M 93.5307,836.039 99.4994,846.782 z" id="boundary" inkscape:connector-curvature="0" />
	<path style="fill:none;stroke:red;stroke-width:1px;stroke-linecap:butt;stroke-linejoin:miter;stroke-opacity:1" d="M 98.3057,697.564 106.662,707.114 z" id="boundary" inkscape:connector-curvature="0" />
	<path style="fill:none;stroke:red;stroke-width:1px;stroke-linecap:butt;stroke-linejoin:miter;stroke-opacity:1" d="M 99.4994,777.545 105.468,759.639 z" id="boundary" inkscape:connector-curvature="0" />
	<path style="fill:none;stroke:red;stroke-width:1px;stroke-linecap:butt;stroke-linejoin:miter;stroke-opacity:1" d="M 99.4994,846.782 103.081,858.72 z" id="boundary" inkscape:connector-curvature="0" />
	<path style="fill:none;stroke:red;stroke-width:1px;stroke-linecap:butt;stroke-linejoin:miter;stroke-opacity:1" d="M 100.693,6.38748 112.631,4 z" id="boundary" inkscape:connector-curvature="0" />
	<path style="fill:none;stroke:red;stroke-width:1px;stroke-linecap:butt;stroke-linejoin:miter;stroke-opacity:1" d="M 103.081,858.72 105.468,870.657 z" id="boundary" inkscape:connector-curvature="0" />
	<path style="fill:none;stroke:red;stroke-width:1px;stroke-linecap:butt;stroke-linejoin:miter;stroke-opacity:1" d="M 105.468,759.639 111.437,742.927 z" id="boundary" inkscape:connector-curvature="0" />
	<path style="fill:none;stroke:red;stroke-width:1px;stroke-linecap:butt;stroke-linejoin:miter;stroke-opacity:1" d="M 105.468,870.657 111.437,881.401 z" id="boundary" inkscape:connector-curvature="0" />
	<path style="fill:none;stroke:red;stroke-width:1px;stroke-linecap:butt;stroke-linejoin:miter;stroke-opacity:1" d="M 105.468,932.732 105.468,944.669 z" id="boundary" inkscape:connector-curvature="0" />
	<path style="fill:none;stroke:red;stroke-width:1px;stroke-linecap:butt;stroke-linejoin:miter;stroke-opacity:1" d="M 105.468,932.732 111.437,914.826 z" id="boundary" inkscape:connector-curvature="0" />
	<path style="fill:none;stroke:red;stroke-width:1px;stroke-linecap:butt;stroke-linejoin:miter;stroke-opacity:1" d="M 105.468,944.669 105.468,956.606 z" id="boundary" inkscape:connector-curvature="0" />
	<path style="fill:none;stroke:red;stroke-width:1px;stroke-linecap:butt;stroke-linejoin:miter;stroke-opacity:1" d="M 105.468,956.606 111.437,967.35 z" id="boundary" inkscape:connector-curvature="0" />
	<path style="fill:none;stroke:red;stroke-width:1px;stroke-linecap:butt;stroke-linejoin:miter;stroke-opacity:1" d="M 106.662,707.114 111.437,719.052 z" id="boundary" inkscape:connector-curvature="0" />
	<path style="fill:none;stroke:red;stroke-width:1px;stroke-linecap:butt;stroke-linejoin:miter;stroke-opacity:1" d="M 111.437,719.052 111.437,730.989 z" id="boundary" inkscape:connector-curvature="0" />
	<path style="fill:none;stroke:red;stroke-width:1px;stroke-linecap:butt;stroke-linejoin:miter;stroke-opacity:1" d="M 111.437,730.989 111.437,742.927 z" id="boundary" inkscape:connector-curvature="0" />
	<path style="fill:none;stroke:red;stroke-width:1px;stroke-linecap:butt;stroke-linejoin:miter;stroke-opacity:1" d="M 111.437,881.401 113.824,893.338 z" id="boundary" inkscape:connector-curvature="0" />
	<path style="fill:none;stroke:red;stroke-width:1px;stroke-linecap:butt;stroke-linejoin:miter;stroke-opacity:1" d="M 111.437,914.826 113.824,893.338 z" id="boundary" inkscape:connector-curvature="0" />
	<path style="fill:none;stroke:red;stroke-width:1px;stroke-linecap:butt;stroke-linejoin:miter;stroke-opacity:1" d="M 111.437,967.35 119.793,976.9 z" id="boundary" inkscape:connector-curvature="0" />
	<path style="fill:none;stroke:red;stroke-width:1px;stroke-linecap:butt;stroke-linejoin:miter;stroke-opacity:1" d="M 112.631,4 124.568,4 z" id="boundary" inkscape:connector-curvature="0" />
	<path style="fill:none;stroke:red;stroke-width:1px;stroke-linecap:butt;stroke-linejoin:miter;stroke-opacity:1" d="M 119.793,976.9 131.73,981.675 z" id="boundary" inkscape:connector-curvature="0" />
	<path style="fill:none;stroke:red;stroke-width:1px;stroke-linecap:butt;stroke-linejoin:miter;stroke-opacity:1" d="M 124.568,4 136.505,4 z" id="boundary" inkscape:connector-curvature="0" />
	<path style="fill:none;stroke:red;stroke-width:1px;stroke-linecap:butt;stroke-linejoin:miter;stroke-opacity:1" d="M 131.73,981.675 143.668,984.063 z" id="boundary" inkscape:connector-curvature="0" />
	<path style="fill:none;stroke:red;stroke-width:1px;stroke-linecap:butt;stroke-linejoin:miter;stroke-opacity:1" d="M 136.505,4 148.443,4 z" id="boundary" inkscape:connector-curvature="0" />
	<path style="fill:none;stroke:red;stroke-width:1px;stroke-linecap:butt;stroke-linejoin:miter;stroke-opacity:1" d="M 143.668,984.063 155.605,987.644 z" id="boundary" inkscape:connector-curvature="0" />
	<path style="fill:none;stroke:red;stroke-width:1px;stroke-linecap:butt;stroke-linejoin:miter;stroke-opacity:1" d="M 148.443,4 160.38,4 z" id="boundary" inkscape:connector-curvature="0" />
	<path style="fill:none;stroke:red;stroke-width:1px;stroke-linecap:butt;stroke-linejoin:miter;stroke-opacity:1" d="M 155.605,987.644 167.543,990.031 z" id="boundary" inkscape:connector-curvature="0" />
	<path style="fill:none;stroke:red;stroke-width:1px;stroke-linecap:butt;stroke-linejoin:miter;stroke-opacity:1" d="M 160.38,4 172.318,4 z" id="boundary" inkscape:connector-curvature="0" />
	<path style="fill:none;stroke:red;stroke-width:1px;stroke-linecap:butt;stroke-linejoin:miter;stroke-opacity:1" d="M 167.543,990.031 179.48,993.613 z" id="boundary" inkscape:connector-curvature="0" />
	<path style="fill:none;stroke:red;stroke-width:1px;stroke-linecap:butt;stroke-linejoin:miter;stroke-opacity:1" d="M 172.318,4 184.255,7.58123 z" id="boundary" inkscape:connector-curvature="0" />
	<path style="fill:none;stroke:red;stroke-width:1px;stroke-linecap:butt;stroke-linejoin:miter;stroke-opacity:1" d="M 179.48,993.613 191.418,996 z" id="boundary" inkscape:connector-curvature="0" />
	<path style="fill:none;stroke:red;stroke-width:1px;stroke-linecap:butt;stroke-linejoin:miter;stroke-opacity:1" d="M 184.255,7.58123 196.193,9.96871 z" id="boundary" inkscape:connector-curvature="0" />
	<path style="fill:none;stroke:red;stroke-width:1px;stroke-linecap:butt;stroke-linejoin:miter;stroke-opacity:1" d="M 191.418,996 203.355,996 z" id="boundary" inkscape:connector-curvature="0" />
	<path style="fill:none;stroke:red;stroke-width:1px;stroke-linecap:butt;stroke-linejoin:miter;stroke-opacity:1" d="M 196.193,9.96871 206.936,15.9374 z" id="boundary" inkscape:connector-curvature="0" />
	<path style="fill:none;stroke:red;stroke-width:1px;stroke-linecap:butt;stroke-linejoin:miter;stroke-opacity:1" d="M 203.355,996 215.292,996 z" id="boundary" inkscape:connector-curvature="0" />
	<path style="fill:none;stroke:red;stroke-width:1px;stroke-linecap:butt;stroke-linejoin:miter;stroke-opacity:1" d="M 206.936,15.9374 217.68,21.9061 z" id="boundary" inkscape:connector-curvature="0" />
	<path style="fill:none;stroke:red;stroke-width:1px;stroke-linecap:butt;stroke-linejoin:miter;stroke-opacity:1" d="M 215.292,996 227.23,996 z" id="boundary" inkscape:connector-curvature="0" />
	<path style="fill:none;stroke:red;stroke-width:1px;stroke-linecap:butt;stroke-linejoin:miter;stroke-opacity:1" d="M 217.68,21.9061 229.617,23.0999 z" id="boundary" inkscape:connector-curvature="0" />
	<path style="fill:none;stroke:red;stroke-width:1px;stroke-linecap:butt;stroke-linejoin:miter;stroke-opacity:1" d="M 227.23,996 239.167,996 z" id="boundary" inkscape:connector-curvature="0" />
	<path style="fill:none;stroke:red;stroke-width:1px;stroke-linecap:butt;stroke-linejoin:miter;stroke-opacity:1" d="M 229.617,23.0999 237.974,32.6498 z" id="boundary" inkscape:connector-curvature="0" />
	<path style="fill:none;stroke:red;stroke-width:1px;stroke-linecap:butt;stroke-linejoin:miter;stroke-opacity:1" d="M 237.974,32.6498 249.911,37.4248 z" id="boundary" inkscape:connector-curvature="0" />
	<path style="fill:none;stroke:red;stroke-width:1px;stroke-linecap:butt;stroke-linejoin:miter;stroke-opacity:1" d="M 239.167,996 251.105,996 z" id="boundary" inkscape:connector-curvature="0" />
	<path style="fill:none;stroke:red;stroke-width:1px;stroke-linecap:butt;stroke-linejoin:miter;stroke-opacity:1" d="M 249.911,37.4248 258.267,46.9747 z" id="boundary" inkscape:connector-curvature="0" />
	<path style="fill:none;stroke:red;stroke-width:1px;stroke-linecap:butt;stroke-linejoin:miter;stroke-opacity:1" d="M 249.911,888.563 255.88,876.626 z" id="boundary" inkscape:connector-curvature="0" />
	<path style="fill:none;stroke:red;stroke-width:1px;stroke-linecap:butt;stroke-linejoin:miter;stroke-opacity:1" d="M 249.911,888.563 255.88,899.307 z" id="boundary" inkscape:connector-curvature="0" />
	<path style="fill:none;stroke:red;stroke-width:1px;stroke-linecap:butt;stroke-linejoin:miter;stroke-opacity:1" d="M 251.105,996 263.042,996 z" id="boundary" inkscape:connector-curvature="0" />
	<path style="fill:none;stroke:red;stroke-width:1px;stroke-linecap:butt;stroke-linejoin:miter;stroke-opacity:1" d="M 255.88,232.005 261.848,214.099 z" id="boundary" inkscape:connector-curvature="0" />
	<path style="fill:none;stroke:red;stroke-width:1px;stroke-linecap:butt;stroke-linejoin:miter;stroke-opacity:1" d="M 255.88,232.005 261.848,242.748 z" id="boundary" inkscape:connector-curvature="0" />
	<path style="fill:none;stroke:red;stroke-width:1px;stroke-linecap:butt;stroke-linejoin:miter;stroke-opacity:1" d="M 255.88,864.688 255.88,876.626 z" id="boundary" inkscape:connector-curvature="0" />
	<path style="fill:none;stroke:red;stroke-width:1px;stroke-linecap:butt;stroke-linejoin:miter;stroke-opacity:1" d="M 255.88,864.688 261.848,852.751 z" id="boundary" inkscape:connector-curvature="0" />
	<path style="fill:none;stroke:red;stroke-width:1px;stroke-linecap:butt;stroke-linejoin:miter;stroke-opacity:1" d="M 255.88,899.307 266.623,905.276 z" id="boundary" inkscape:connector-curvature="0" />
	<path style="fill:none;stroke:red;stroke-width:1px;stroke-linecap:butt;stroke-linejoin:miter;stroke-opacity:1" d="M 258.267,46.9747 267.817,55.3309 z" id="boundary" inkscape:connector-curvature="0" />
	<path style="fill:none;stroke:red;stroke-width:1px;stroke-linecap:butt;stroke-linejoin:miter;stroke-opacity:1" d="M 261.848,214.099 267.817,196.193 z" id="boundary" inkscape:connector-curvature="0" />
	<path style="fill:none;stroke:red;stroke-width:1px;stroke-linecap:butt;stroke-linejoin:miter;stroke-opacity:1" d="M 261.848,242.748 267.817,253.492 z" id="boundary" inkscape:connector-curvature="0" />
	<path style="fill:none;stroke:red;stroke-width:1px;stroke-linecap:butt;stroke-linejoin:miter;stroke-opacity:1" d="M 261.848,852.751 267.817,840.813 z" id="boundary" inkscape:connector-curvature="0" />
	<path style="fill:none;stroke:red;stroke-width:1px;stroke-linecap:butt;stroke-linejoin:miter;stroke-opacity:1" d="M 263.042,996 273.786,990.031 z" id="boundary" inkscape:connector-curvature="0" />
	<path style="fill:none;stroke:red;stroke-width:1px;stroke-linecap:butt;stroke-linejoin:miter;stroke-opacity:1" d="M 266.623,905.276 277.367,911.244 z" id="boundary" inkscape:connector-curvature="0" />
	<path style="fill:none;stroke:red;stroke-width:1px;stroke-linecap:butt;stroke-linejoin:miter;stroke-opacity:1" d="M 267.817,55.3309 272.592,67.2684 z" id="boundary" inkscape:connector-curvature="0" />
	<path style="fill:none;stroke:red;stroke-width:1px;stroke-linecap:butt;stroke-linejoin:miter;stroke-opacity:1" d="M 267.817,196.193 273.786,178.286 z" id="boundary" inkscape:connector-curvature="0" />
	<path style="fill:none;stroke:red;stroke-width:1px;stroke-linecap:butt;stroke-linejoin:miter;stroke-opacity:1" d="M 267.817,253.492 277.367,261.848 z" id="boundary" inkscape:connector-curvature="0" />
	<path style="fill:none;stroke:red;stroke-width:1px;stroke-linecap:butt;stroke-linejoin:miter;stroke-opacity:1" d="M 267.817,828.876 267.817,840.813 z" id="boundary" inkscape:connector-curvature="0" />
	<path style="fill:none;stroke:red;stroke-width:1px;stroke-linecap:butt;stroke-linejoin:miter;stroke-opacity:1" d="M 267.817,828.876 273.786,810.97 z" id="boundary" inkscape:connector-curvature="0" />
	<path style="fill:none;stroke:red;stroke-width:1px;stroke-linecap:butt;stroke-linejoin:miter;stroke-opacity:1" d="M 272.592,67.2684 278.561,78.012 z" id="boundary" inkscape:connector-curvature="0" />
	<path style="fill:none;stroke:red;stroke-width:1px;stroke-linecap:butt;stroke-linejoin:miter;stroke-opacity:1" d="M 273.786,130.537 273.786,142.474 z" id="boundary" inkscape:connector-curvature="0" />
	<path style="fill:none;stroke:red;stroke-width:1px;stroke-linecap:butt;stroke-linejoin:miter;stroke-opacity:1" d="M 273.786,130.537 279.755,113.824 z" id="boundary" inkscape:connector-curvature="0" />
	<path style="fill:none;stroke:red;stroke-width:1px;stroke-linecap:butt;stroke-linejoin:miter;stroke-opacity:1" d="M 273.786,142.474 273.786,154.412 z" id="boundary" inkscape:connector-curvature="0" />
	<path style="fill:none;stroke:red;stroke-width:1px;stroke-linecap:butt;stroke-linejoin:miter;stroke-opacity:1" d="M 273.786,154.412 279.755,165.155 z" id="boundary" inkscape:connector-curvature="0" />
	<path style="fill:none;stroke:red;stroke-width:1px;stroke-linecap:butt;stroke-linejoin:miter;stroke-opacity:1" d="M 273.786,178.286 279.755,165.155 z" id="boundary" inkscape:connector-curvature="0" />
	<path style="fill:none;stroke:red;stroke-width:1px;stroke-linecap:butt;stroke-linejoin:miter;stroke-opacity:1" d="M 273.786,810.97 279.755,793.064 z" id="boundary" inkscape:connector-curvature="0" />
	<path style="fill:none;stroke:red;stroke-width:1px;stroke-linecap:butt;stroke-linejoin:miter;stroke-opacity:1" d="M 273.786,990.031 285.723,984.063 z" id="boundary" inkscape:connector-curvature="0" />
	<path style="fill:none;stroke:red;stroke-width:1px;stroke-linecap:butt;stroke-linejoin:miter;stroke-opacity:1" d="M 277.367,261.848 282.142,273.786 z" id="boundary" inkscape:connector-curvature="0" />
	<path style="fill:none;stroke:red;stroke-width:1px;stroke-linecap:butt;stroke-linejoin:miter;stroke-opacity:1" d="M 277.367,911.244 288.111,917.213 z" id="boundary" inkscape:connector-curvature="0" />
	<path style="fill:none;stroke:red;stroke-width:1px;stroke-linecap:butt;stroke-linejoin:miter;stroke-opacity:1" d="M 278.561,78.012 279.755,89.9495 z" id="boundary" inkscape:connector-curvature="0" />
	<path style="fill:none;stroke:red;stroke-width:1px;stroke-linecap:butt;stroke-linejoin:miter;stroke-opacity:1" d="M 279.755,89.9495 279.755,101.887 z" id="boundary" inkscape:connector-curvature="0" />
	<path style="fill:none;stroke:red;stroke-width:1px;stroke-linecap:butt;stroke-linejoin:miter;stroke-opacity:1" d="M 279.755,101.887 279.755,113.824 z" id="boundary" inkscape:connector-curvature="0" />
	<path style="fill:none;stroke:red;stroke-width:1px;stroke-linecap:butt;stroke-linejoin:miter;stroke-opacity:1" d="M 279.755,769.189 279.755,781.126 z" id="boundary" inkscape:connector-curvature="0" />
	<path style="fill:none;stroke:red;stroke-width:1px;stroke-linecap:butt;stroke-linejoin:miter;stroke-opacity:1" d="M 279.755,769.189 285.723,757.252 z" id="boundary" inkscape:connector-curvature="0" />
	<path style="fill:none;stroke:red;stroke-width:1px;stroke-linecap:butt;stroke-linejoin:miter;stroke-opacity:1" d="M 279.755,781.126 279.755,793.064 z" id="boundary" inkscape:connector-curvature="0" />
	<path style="fill:none;stroke:red;stroke-width:1px;stroke-linecap:butt;stroke-linejoin:miter;stroke-opacity:1" d="M 282.142,273.786 288.111,284.529 z" id="boundary" inkscape:connector-curvature="0" />
	<path style="fill:none;stroke:red;stroke-width:1px;stroke-linecap:butt;stroke-linejoin:miter;stroke-opacity:1" d="M 285.723,757.252 291.692,745.314 z" id="boundary" inkscape:connector-curvature="0" />
	<path style="fill:none;stroke:red;stroke-width:1px;stroke-linecap:butt;stroke-linejoin:miter;stroke-opacity:1" d="M 285.723,984.063 297.661,978.094 z" id="boundary" inkscape:connector-curvature="0" />
	<path style="fill:none;stroke:red;stroke-width:1px;stroke-linecap:butt;stroke-linejoin:miter;stroke-opacity:1" d="M 288.111,284.529 291.692,296.467 z" id="boundary" inkscape:connector-curvature="0" />
	<path style="fill:none;stroke:red;stroke-width:1px;stroke-linecap:butt;stroke-linejoin:miter;stroke-opacity:1" d="M 288.111,917.213 298.854,923.182 z" id="boundary" inkscape:connector-curvature="0" />
	<path style="fill:none;stroke:red;stroke-width:1px;stroke-linecap:butt;stroke-linejoin:miter;stroke-opacity:1" d="M 291.692,296.467 291.692,308.404 z" id="boundary" inkscape:connector-curvature="0" />
	<path style="fill:none;stroke:red;stroke-width:1px;stroke-linecap:butt;stroke-linejoin:miter;stroke-opacity:1" d="M 291.692,308.404 291.692,320.342 z" id="boundary" inkscape:connector-curvature="0" />
	<path style="fill:none;stroke:red;stroke-width:1px;stroke-linecap:butt;stroke-linejoin:miter;stroke-opacity:1" d="M 291.692,320.342 297.661,331.085 z" id="boundary" inkscape:connector-curvature="0" />
	<path style="fill:none;stroke:red;stroke-width:1px;stroke-linecap:butt;stroke-linejoin:miter;stroke-opacity:1" d="M 291.692,679.658 294.079,691.596 z" id="boundary" inkscape:connector-curvature="0" />
	<path style="fill:none;stroke:red;stroke-width:1px;stroke-linecap:butt;stroke-linejoin:miter;stroke-opacity:1" d="M 291.692,679.658 297.661,667.721 z" id="boundary" inkscape:connector-curvature="0" />
	<path style="fill:none;stroke:red;stroke-width:1px;stroke-linecap:butt;stroke-linejoin:miter;stroke-opacity:1" d="M 291.692,745.314 297.661,733.377 z" id="boundary" inkscape:connector-curvature="0" />
	<path style="fill:none;stroke:red;stroke-width:1px;stroke-linecap:butt;stroke-linejoin:miter;stroke-opacity:1" d="M 294.079,691.596 297.661,703.533 z" id="boundary" inkscape:connector-curvature="0" />
	<path style="fill:none;stroke:red;stroke-width:1px;stroke-linecap:butt;stroke-linejoin:miter;stroke-opacity:1" d="M 297.661,331.085 303.629,341.829 z" id="boundary" inkscape:connector-curvature="0" />
	<path style="fill:none;stroke:red;stroke-width:1px;stroke-linecap:butt;stroke-linejoin:miter;stroke-opacity:1" d="M 297.661,369.285 297.661,381.223 z" id="boundary" inkscape:connector-curvature="0" />
	<path style="fill:none;stroke:red;stroke-width:1px;stroke-linecap:butt;stroke-linejoin:miter;stroke-opacity:1" d="M 297.661,369.285 303.629,353.767 z" id="boundary" inkscape:connector-curvature="0" />
	<path style="fill:none;stroke:red;stroke-width:1px;stroke-linecap:butt;stroke-linejoin:miter;stroke-opacity:1" d="M 297.661,381.223 297.661,393.16 z" id="boundary" inkscape:connector-curvature="0" />
	<path style="fill:none;stroke:red;stroke-width:1px;stroke-linecap:butt;stroke-linejoin:miter;stroke-opacity:1" d="M 297.661,393.16 303.629,403.904 z" id="boundary" inkscape:connector-curvature="0" />
	<path style="fill:none;stroke:red;stroke-width:1px;stroke-linecap:butt;stroke-linejoin:miter;stroke-opacity:1" d="M 297.661,667.721 309.598,661.752 z" id="boundary" inkscape:connector-curvature="0" />
	<path style="fill:none;stroke:red;stroke-width:1px;stroke-linecap:butt;stroke-linejoin:miter;stroke-opacity:1" d="M 297.661,703.533 300.048,715.471 z" id="boundary" inkscape:connector-curvature="0" />
	<path style="fill:none;stroke:red;stroke-width:1px;stroke-linecap:butt;stroke-linejoin:miter;stroke-opacity:1" d="M 297.661,733.377 300.048,715.471 z" id="boundary" inkscape:connector-curvature="0" />
	<path style="fill:none;stroke:red;stroke-width:1px;stroke-linecap:butt;stroke-linejoin:miter;stroke-opacity:1" d="M 297.661,978.094 309.598,978.094 z" id="boundary" inkscape:connector-curvature="0" />
	<path style="fill:none;stroke:red;stroke-width:1px;stroke-linecap:butt;stroke-linejoin:miter;stroke-opacity:1" d="M 298.854,923.182 309.598,929.15 z" id="boundary" inkscape:connector-curvature="0" />
	<path style="fill:none;stroke:red;stroke-width:1px;stroke-linecap:butt;stroke-linejoin:miter;stroke-opacity:1" d="M 303.629,341.829 303.629,353.767 z" id="boundary" inkscape:connector-curvature="0" />
	<path style="fill:none;stroke:red;stroke-width:1px;stroke-linecap:butt;stroke-linejoin:miter;stroke-opacity:1" d="M 303.629,403.904 309.598,414.647 z" id="boundary" inkscape:connector-curvature="0" />
	<path style="fill:none;stroke:red;stroke-width:1px;stroke-linecap:butt;stroke-linejoin:miter;stroke-opacity:1" d="M 309.598,414.647 315.567,425.391 z" id="boundary" inkscape:connector-curvature="0" />
	<path style="fill:none;stroke:red;stroke-width:1px;stroke-linecap:butt;stroke-linejoin:miter;stroke-opacity:1" d="M 309.598,661.752 319.148,653.396 z" id="boundary" inkscape:connector-curvature="0" />
	<path style="fill:none;stroke:red;stroke-width:1px;stroke-linecap:butt;stroke-linejoin:miter;stroke-opacity:1" d="M 309.598,929.15 321.535,929.15 z" id="boundary" inkscape:connector-curvature="0" />
	<path style="fill:none;stroke:red;stroke-width:1px;stroke-linecap:butt;stroke-linejoin:miter;stroke-opacity:1" d="M 309.598,978.094 321.535,978.094 z" id="boundary" inkscape:connector-curvature="0" />
	<path style="fill:none;stroke:red;stroke-width:1px;stroke-linecap:butt;stroke-linejoin:miter;stroke-opacity:1" d="M 315.567,425.391 315.567,437.329 z" id="boundary" inkscape:connector-curvature="0" />
	<path style="fill:none;stroke:red;stroke-width:1px;stroke-linecap:butt;stroke-linejoin:miter;stroke-opacity:1" d="M 315.567,437.329 320.342,449.266 z" id="boundary" inkscape:connector-curvature="0" />
	<path style="fill:none;stroke:red;stroke-width:1px;stroke-linecap:butt;stroke-linejoin:miter;stroke-opacity:1" d="M 319.148,653.396 327.504,643.846 z" id="boundary" inkscape:connector-curvature="0" />
	<path style="fill:none;stroke:red;stroke-width:1px;stroke-linecap:butt;stroke-linejoin:miter;stroke-opacity:1" d="M 320.342,449.266 321.535,461.203 z" id="boundary" inkscape:connector-curvature="0" />
	<path style="fill:none;stroke:red;stroke-width:1px;stroke-linecap:butt;stroke-linejoin:miter;stroke-opacity:1" d="M 321.535,461.203 327.504,471.947 z" id="boundary" inkscape:connector-curvature="0" />
	<path style="fill:none;stroke:red;stroke-width:1px;stroke-linecap:butt;stroke-linejoin:miter;stroke-opacity:1" d="M 321.535,619.971 323.923,631.909 z" id="boundary" inkscape:connector-curvature="0" />
	<path style="fill:none;stroke:red;stroke-width:1px;stroke-linecap:butt;stroke-linejoin:miter;stroke-opacity:1" d="M 321.535,619.971 331.085,611.615 z" id="boundary" inkscape:connector-curvature="0" />
	<path style="fill:none;stroke:red;stroke-width:1px;stroke-linecap:butt;stroke-linejoin:miter;stroke-opacity:1" d="M 321.535,929.15 332.279,935.119 z" id="boundary" inkscape:connector-curvature="0" />
	<path style="fill:none;stroke:red;stroke-width:1px;stroke-linecap:butt;stroke-linejoin:miter;stroke-opacity:1" d="M 321.535,978.094 333.473,972.125 z" id="boundary" inkscape:connector-curvature="0" />
	<path style="fill:none;stroke:red;stroke-width:1px;stroke-linecap:butt;stroke-linejoin:miter;stroke-opacity:1" d="M 323.923,631.909 327.504,643.846 z" id="boundary" inkscape:connector-curvature="0" />
	<path style="fill:none;stroke:red;stroke-width:1px;stroke-linecap:butt;stroke-linejoin:miter;stroke-opacity:1" d="M 327.504,471.947 327.504,483.884 z" id="boundary" inkscape:connector-curvature="0" />
	<path style="fill:none;stroke:red;stroke-width:1px;stroke-linecap:butt;stroke-linejoin:miter;stroke-opacity:1" d="M 327.504,483.884 333.473,494.628 z" id="boundary" inkscape:connector-curvature="0" />
	<path style="fill:none;stroke:red;stroke-width:1px;stroke-linecap:butt;stroke-linejoin:miter;stroke-opacity:1" d="M 331.085,611.615 339.442,602.065 z" id="boundary" inkscape:connector-curvature="0" />
	<path style="fill:none;stroke:red;stroke-width:1px;stroke-linecap:butt;stroke-linejoin:miter;stroke-opacity:1" d="M 332.279,935.119 339.442,944.669 z" id="boundary" inkscape:connector-curvature="0" />
	<path style="fill:none;stroke:red;stroke-width:1px;stroke-linecap:butt;stroke-linejoin:miter;stroke-opacity:1" d="M 333.473,494.628 339.442,505.372 z" id="boundary" inkscape:connector-curvature="0" />
	<path style="fill:none;stroke:red;stroke-width:1px;stroke-linecap:butt;stroke-linejoin:miter;stroke-opacity:1" d="M 333.473,972.125 343.023,963.769 z" id="boundary" inkscape:connector-curvature="0" />
	<path style="fill:none;stroke:red;stroke-width:1px;stroke-linecap:butt;stroke-linejoin:miter;stroke-opacity:1" d="M 339.442,505.372 339.442,517.309 z" id="boundary" inkscape:connector-curvature="0" />
	<path style="fill:none;stroke:red;stroke-width:1px;stroke-linecap:butt;stroke-linejoin:miter;stroke-opacity:1" d="M 339.442,517.309 345.41,528.053 z" id="boundary" inkscape:connector-curvature="0" />
	<path style="fill:none;stroke:red;stroke-width:1px;stroke-linecap:butt;stroke-linejoin:miter;stroke-opacity:1" d="M 339.442,602.065 351.379,590.128 z" id="boundary" inkscape:connector-curvature="0" />
	<path style="fill:none;stroke:red;stroke-width:1px;stroke-linecap:butt;stroke-linejoin:miter;stroke-opacity:1" d="M 339.442,944.669 343.023,963.769 z" id="boundary" inkscape:connector-curvature="0" />
	<path style="fill:none;stroke:red;stroke-width:1px;stroke-linecap:butt;stroke-linejoin:miter;stroke-opacity:1" d="M 345.41,528.053 345.41,539.99 z" id="boundary" inkscape:connector-curvature="0" />
	<path style="fill:none;stroke:red;stroke-width:1px;stroke-linecap:butt;stroke-linejoin:miter;stroke-opacity:1" d="M 345.41,539.99 351.379,550.734 z" id="boundary" inkscape:connector-curvature="0" />
	<path style="fill:none;stroke:red;stroke-width:1px;stroke-linecap:butt;stroke-linejoin:miter;stroke-opacity:1" d="M 351.379,550.734 357.348,561.478 z" id="boundary" inkscape:connector-curvature="0" />
	<path style="fill:none;stroke:red;stroke-width:1px;stroke-linecap:butt;stroke-linejoin:miter;stroke-opacity:1" d="M 351.379,590.128 357.348,573.415 z" id="boundary" inkscape:connector-curvature="0" />
	<path style="fill:none;stroke:red;stroke-width:1px;stroke-linecap:butt;stroke-linejoin:miter;stroke-opacity:1" d="M 357.348,561.478 357.348,573.415 z" id="boundary" inkscape:connector-curvature="0" />
	<circle cx="4" cy="311.986" r="4" fill="#0" id="circle0"/>
	<circle cx="4" cy="323.923" r="4" fill="#0" id="circle1"/>
	<circle cx="9.96871" cy="300.048" r="4" fill="#0" id="circle2"/>
	<circle cx="9.96871" cy="334.667" r="4" fill="#0" id="circle3"/>
	<circle cx="9.96871" cy="346.604" r="4" fill="#0" id="circle4"/>
	<circle cx="9.96871" cy="358.542" r="4" fill="#0" id="circle5"/>
	<circle cx="9.96871" cy="370.479" r="4" fill="#0" id="circle6"/>
	<circle cx="15.9374" cy="288.111" r="4" fill="#0" id="circle7"/>
	<circle cx="15.9374" cy="381.223" r="4" fill="#0" id="circle8"/>
	<circle cx="15.9374" cy="393.16" r="4" fill="#0" id="circle9"/>
	<circle cx="21.9061" cy="403.904" r="4" fill="#0" id="circle10"/>
	<circle cx="21.9061" cy="415.841" r="4" fill="#0" id="circle11"/>
	<circle cx="21.9061" cy="427.779" r="4" fill="#0" id="circle12"/>
	<circle cx="21.9061" cy="439.716" r="4" fill="#0" id="circle13"/>
	<circle cx="21.9061" cy="451.653" r="4" fill="#0" id="circle14"/>
	<circle cx="21.9061" cy="463.591" r="4" fill="#0" id="circle15"/>
	<circle cx="24.2936" cy="475.528" r="4" fill="#0" id="circle16"/>
	<circle cx="25.4874" cy="278.561" r="4" fill="#0" id="circle17"/>
	<circle cx="27.8748" cy="79.2058" r="4" fill="#0" id="circle18"/>
	<circle cx="27.8748" cy="91.1432" r="4" fill="#0" id="circle19"/>
	<circle cx="27.8748" cy="103.081" r="4" fill="#0" id="circle20"/>
	<circle cx="27.8748" cy="115.018" r="4" fill="#0" id="circle21"/>
	<circle cx="27.8748" cy="487.466" r="4" fill="#0" id="circle22"/>
	<circle cx="30.2623" cy="499.403" r="4" fill="#0" id="circle23"/>
	<circle cx="31.4561" cy="266.623" r="4" fill="#0" id="circle24"/>
	<circle cx="33.8436" cy="67.2684" r="4" fill="#0" id="circle25"/>
	<circle cx="33.8436" cy="125.762" r="4" fill="#0" id="circle26"/>
	<circle cx="33.8436" cy="137.699" r="4" fill="#0" id="circle27"/>
	<circle cx="33.8436" cy="511.341" r="4" fill="#0" id="circle28"/>
	<circle cx="36.231" cy="523.278" r="4" fill="#0" id="circle29"/>
	<circle cx="39.8123" cy="55.3309" r="4" fill="#0" id="circle30"/>
	<circle cx="39.8123" cy="148.443" r="4" fill="#0" id="circle31"/>
	<circle cx="41.006" cy="257.073" r="4" fill="#0" id="circle32"/>
	<circle cx="42.1998" cy="534.022" r="4" fill="#0" id="circle33"/>
	<circle cx="45.781" cy="545.959" r="4" fill="#0" id="circle34"/>
	<circle cx="45.781" cy="557.897" r="4" fill="#0" id="circle35"/>
	<circle cx="45.781" cy="569.834" r="4" fill="#0" id="circle36"/>
	<circle cx="45.781" cy="581.771" r="4" fill="#0" id="circle37"/>
	<circle cx="46.9747" cy="157.993" r="4" fill="#0" id="circle38"/>
	<circle cx="49.3622" cy="45.781" r="4" fill="#0" id="circle39"/>
	<circle cx="51.7497" cy="592.515" r="4" fill="#0" id="circle40"/>
	<circle cx="51.7497" cy="604.452" r="4" fill="#0" id="circle41"/>
	<circle cx="51.7497" cy="616.39" r="4" fill="#0" id="circle42"/>
	<circle cx="52.9434" cy="251.105" r="4" fill="#0" id="circle43"/>
	<circle cx="56.5247" cy="166.349" r="4" fill="#0" id="circle44"/>
	<circle cx="57.7184" cy="627.134" r="4" fill="#0" id="circle45"/>
	<circle cx="58.9122" cy="36.231" r="4" fill="#0" id="circle46"/>
	<circle cx="62.4934" cy="242.748" r="4" fill="#0" id="circle47"/>
	<circle cx="63.6871" cy="637.877" r="4" fill="#0" id="circle48"/>
	<circle cx="63.6871" cy="649.815" r="4" fill="#0" id="circle49"/>
	<circle cx="64.8809" cy="175.899" r="4" fill="#0" id="circle50"/>
	<circle cx="67.2684" cy="661.752" r="4" fill="#0" id="circle51"/>
	<circle cx="68.4621" cy="27.8748" r="4" fill="#0" id="circle52"/>
	<circle cx="70.8496" cy="233.199" r="4" fill="#0" id="circle53"/>
	<circle cx="73.2371" cy="672.496" r="4" fill="#0" id="circle54"/>
	<circle cx="74.4308" cy="184.255" r="4" fill="#0" id="circle55"/>
	<circle cx="76.8183" cy="18.3249" r="4" fill="#0" id="circle56"/>
	<circle cx="78.012" cy="684.433" r="4" fill="#0" id="circle57"/>
	<circle cx="79.2058" cy="196.193" r="4" fill="#0" id="circle58"/>
	<circle cx="80.3995" cy="224.842" r="4" fill="#0" id="circle59"/>
	<circle cx="81.5933" cy="208.13" r="4" fill="#0" id="circle60"/>
	<circle cx="87.562" cy="691.596" r="4" fill="#0" id="circle61"/>
	<circle cx="87.562" cy="801.42" r="4" fill="#0" id="circle62"/>
	<circle cx="87.562" cy="813.357" r="4" fill="#0" id="circle63"/>
	<circle cx="88.7557" cy="12.3562" r="4" fill="#0" id="circle64"/>
	<circle cx="93.5307" cy="789.483" r="4" fill="#0" id="circle65"/>
	<circle cx="93.5307" cy="824.101" r="4" fill="#0" id="circle66"/>
	<circle cx="93.5307" cy="836.039" r="4" fill="#0" id="circle67"/>
	<circle cx="98.3057" cy="697.564" r="4" fill="#0" id="circle68"/>
	<circle cx="99.4994" cy="777.545" r="4" fill="#0" id="circle69"/>
	<circle cx="99.4994" cy="846.782" r="4" fill="#0" id="circle70"/>
	<circle cx="100.693" cy="6.38748" r="4" fill="#0" id="circle71"/>
	<circle cx="103.081" cy="858.72" r="4" fill="#0" id="circle72"/>
	<circle cx="105.468" cy="759.639" r="4" fill="#0" id="circle73"/>
	<circle cx="105.468" cy="870.657" r="4" fill="#0" id="circle74"/>
	<circle cx="105.468" cy="932.732" r="4" fill="#0" id="circle75"/>
	<circle cx="105.468" cy="944.669" r="4" fill="#0" id="circle76"/>
	<circle cx="105.468" cy="956.606" r="4" fill="#0" id="circle77"/>
	<circle cx="106.662" cy="707.114" r="4" fill="#0" id="circle78"/>
	<circle cx="111.437" cy="719.052" r="4" fill="#0" id="circle79"/>
	<circle cx="111.437" cy="730.989" r="4" fill="#0" id="circle80"/>
	<circle cx="111.437" cy="742.927" r="4" fill="#0" id="circle81"/>
	<circle cx="111.437" cy="881.401" r="4" fill="#0" id="circle82"/>
	<circle cx="111.437" cy="914.826" r="4" fill="#0" id="circle83"/>
	<circle cx="111.437" cy="967.35" r="4" fill="#0" id="circle84"/>
	<circle cx="112.631" cy="4" r="4" fill="#0" id="circle85"/>
	<circle cx="113.824" cy="893.338" r="4" fill="#0" id="circle86"/>
	<circle cx="119.793" cy="976.9" r="4" fill="#0" id="circle87"/>
	<circle cx="124.568" cy="4" r="4" fill="#0" id="circle88"/>
	<circle cx="131.73" cy="981.675" r="4" fill="#0" id="circle89"/>
	<circle cx="136.505" cy="4" r="4" fill="#0" id="circle90"/>
	<circle cx="143.668" cy="984.063" r="4" fill="#0" id="circle91"/>
	<circle cx="148.443" cy="4" r="4" fill="#0" id="circle92"/>
	<circle cx="155.605" cy="987.644" r="4" fill="#0" id="circle93"/>
	<circle cx="160.38" cy="4" r="4" fill="#0" id="circle94"/>
	<circle cx="167.543" cy="990.031" r="4" fill="#0" id="circle95"/>
	<circle cx="172.318" cy="4" r="4" fill="#0" id="circle96"/>
	<circle cx="179.48" cy="993.613" r="4" fill="#0" id="circle97"/>
	<circle cx="184.255" cy="7.58123" r="4" fill="#0" id="circle98"/>
	<circle cx="191.418" cy="996" r="4" fill="#0" id="circle99"/>
	<circle cx="196.193" cy="9.96871" r="4" fill="#0" id="circle100"/>
	<circle cx="203.355" cy="996" r="4" fill="#0" id="circle101"/>
	<circle cx="206.936" cy="15.9374" r="4" fill="#0" id="circle102"/>
	<circle cx="215.292" cy="996" r="4" fill="#0" id="circle103"/>
	<circle cx="217.68" cy="21.9061" r="4" fill="#0" id="circle104"/>
	<circle cx="227.23" cy="996" r="4" fill="#0" id="circle105"/>
	<circle cx="229.617" cy="23.0999" r="4" fill="#0" id="circle106"/>
	<circle cx="237.974" cy="32.6498" r="4" fill="#0" id="circle107"/>
	<circle cx="239.167" cy="996" r="4" fill="#0" id="circle108"/>
	<circle cx="249.911" cy="37.4248" r="4" fill="#0" id="circle109"/>
	<circle cx="249.911" cy="888.563" r="4" fill="#0" id="circle110"/>
	<circle cx="251.105" cy="996" r="4" fill="#0" id="circle111"/>
	<circle cx="255.88" cy="232.005" r="4" fill="#0" id="circle112"/>
	<circle cx="255.88" cy="864.688" r="4" fill="#0" id="circle113"/>
	<circle cx="255.88" cy="876.626" r="4" fill="#0" id="circle114"/>
	<circle cx="255.88" cy="899.307" r="4" fill="#0" id="circle115"/>
	<circle cx="258.267" cy="46.9747" r="4" fill="#0" id="circle116"/>
	<circle cx="261.848" cy="214.099" r="4" fill="#0" id="circle117"/>
	<circle cx="261.848" cy="242.748" r="4" fill="#0" id="circle118"/>
	<circle cx="261.848" cy="852.751" r="4" fill="#0" id="circle119"/>
	<circle cx="263.042" cy="996" r="4" fill="#0" id="circle120"/>
	<circle cx="266.623" cy="905.276" r="4" fill="#0" id="circle121"/>
	<circle cx="267.817" cy="55.3309" r="4" fill="#0" id="circle122"/>
	<circle cx="267.817" cy="196.193" r="4" fill="#0" id="circle123"/>
	<circle cx="267.817" cy="253.492" r="4" fill="#0" id="circle124"/>
	<circle cx="267.817" cy="828.876" r="4" fill="#0" id="circle125"/>
	<circle cx="267.817" cy="840.813" r="4" fill="#0" id="circle126"/>
	<circle cx="272.592" cy="67.2684" r="4" fill="#0" id="circle127"/>
	<circle cx="273.786" cy="130.537" r="4" fill="#0" id="circle128"/>
	<circle cx="273.786" cy="142.474" r="4" fill="#0" id="circle129"/>
	<circle cx="273.786" cy="154.412" r="4" fill="#0" id="circle130"/>
	<circle cx="273.786" cy="178.286" r="4" fill="#0" id="circle131"/>
	<circle cx="273.786" cy="810.97" r="4" fill="#0" id="circle132"/>
	<circle cx="273.786" cy="990.031" r="4" fill="#0" id="circle133"/>
	<circle cx="277.367" cy="261.848" r="4" fill="#0" id="circle134"/>
	<circle cx="277.367" cy="911.244" r="4" fill="#0" id="circle135"/>
	<circle cx="278.561" cy="78.012" r="4" fill="#0" id="circle136"/>
	<circle cx="279.755" cy="89.9495" r="4" fill="#0" id="circle137"/>
	<circle cx="279.755" cy="101.887" r="4" fill="#0" id="circle138"/>
	<circle cx="279.755" cy="113.824" r="4" fill="#0" id="circle139"/>
	<circle cx="279.755" cy="165.155" r="4" fill="#0" id="circle140"/>
	<circle cx="279.755" cy="769.189" r="4" fill="#0" id="circle141"/>
	<circle cx="279.755" cy="781.126" r="4" fill="#0" id="circle142"/>
	<circle cx="279.755" cy="793.064" r="4" fill="#0" id="circle143"/>
	<circle cx="282.142" cy="273.786" r="4" fill="#0" id="circle144"/>
	<circle cx="285.723" cy="757.252" r="4" fill="#0" id="circle145"/>
	<circle cx="285.723" cy="984.063" r="4" fill="#0" id="circle146"/>
	<circle cx="288.111" cy="284.529" r="4" fill="#0" id="circle147"/>
	<circle cx="288.111" cy="917.213" r="4" fill="#0" id="circle148"/>
	<circle cx="291.692" cy="296.467" r="4" fill="#0" id="circle149"/>
	<circle cx="291.692" cy="308.404" r="4" fill="#0" id="circle150"/>
	<circle cx="291.692" cy="320.342" r="4" fill="#0" id="circle151"/>
	<circle cx="291.692" cy="679.658" r="4" fill="#0" id="circle152"/>
	<circle cx="291.692" cy="745.314" r="4" fill="#0" id="circle153"/>
	<circle cx="294.079" cy="691.596" r="4" fill="#0" id="circle154"/>
	<circle cx="297.661" cy="331.085" r="4" fill="#0" id="circle155"/>
	<circle cx="297.661" cy="369.285" r="4" fill="#0" id="circle156"/>
	<circle cx="297.661" cy="381.223" r="4" fill="#0" id="circle157"/>
	<circle cx="297.661" cy="393.16" r="4" fill="#0" id="circle158"/>
	<circle cx="297.661" cy="667.721" r="4" fill="#0" id="circle159"/>
	<circle cx="297.661" cy="703.533" r="4" fill="#0" id="circle160"/>
	<circle cx="297.661" cy="733.377" r="4" fill="#0" id="circle161"/>
	<circle cx="297.661" cy="978.094" r="4" fill="#0" id="circle162"/>
	<circle cx="298.854" cy="923.182" r="4" fill="#0" id="circle163"/>
	<circle cx="300.048" cy="715.471" r="4" fill="#0" id="circle164"/>
	<circle cx="303.629" cy="341.829" r="4" fill="#0" id="circle165"/>
	<circle cx="303.629" cy="353.767" r="4" fill="#0" id="circle166"/>
	<circle cx="303.629" cy="403.904" r="4" fill="#0" id="circle167"/>
	<circle cx="309.598" cy="414.647" r="4" fill="#0" id="circle168"/>
	<circle cx="309.598" cy="661.752" r="4" fill="#0" id="circle169"/>
	<circle cx="309.598" cy="929.15" r="4" fill="#0" id="circle170"/>
	<circle cx="309.598" cy="978.094" r="4" fill="#0" id="circle171"/>
	<circle cx="315.567" cy="425.391" r="4" fill="#0" id="circle172"/>
	<circle cx="315.567" cy="437.329" r="4" fill="#0" id="circle173"/>
	<circle cx="319.148" cy="653.396" r="4" fill="#0" id="circle174"/>
	<circle cx="320.342" cy="449.266" r="4" fill="#0" id="circle175"/>
	<circle cx="321.535" cy="461.203" r="4" fill="#0" id="circle176"/>
	<circle cx="321.535" cy="619.971" r="4" fill="#0" id="circle177"/>
	<circle cx="321.535" cy="929.15" r="4" fill="#0" id="circle178"/>
	<circle cx="321.535" cy="978.094" r="4" fill="#0" id="circle179"/>
	<circle cx="323.923" cy="631.909" r="4" fill="#0" id="circle180"/>
	<circle cx="327.504" cy="471.947" r="4" fill="#0" id="circle181"/>
	<circle cx="327.504" cy="483.884" r="4" fill="#0" id="circle182"/>
	<circle cx="327.504" cy="643.846" r="4" fill="#0" id="circle183"/>
	<circle cx="331.085" cy="611.615" r="4" fill="#0" id="circle184"/>
	<circle cx="332.279" cy="935.119" r="4" fill="#0" id="circle185"/>
	<circle cx="333.473" cy="494.628" r="4" fill="#0" id="circle186"/>
	<circle cx="333.473" cy="972.125" r="4" fill="#0" id="circle187"/>
	<circle cx="339.442" cy="505.372" r="4" fill="#0" id="circle188"/>
	<circle cx="339.442" cy="517.309" r="4" fill="#0" id="circle189"/>
	<circle cx="339.442" cy="602.065" r="4" fill="#0" id="circle190"/>
	<circle cx="339.442" cy="944.669" r="4" fill="#0" id="circle191"/>
	<circle cx="343.023" cy="963.769" r="4" fill="#0" id="circle192"/>
	<circle cx="345.41" cy="528.053" r="4" fill="#0" id="circle193"/>
	<circle cx="345.41" cy="539.99" r="4" fill="#0" id="circle194"/>
	<circle cx="351.379" cy="550.734" r="4" fill="#0" id="circle195"/>
	<circle cx="351.379" cy="590.128" r="4" fill="#0" id="circle196"/>
	<circle cx="357.348" cy="561.478" r="4" fill="#0" id="circle197"/>
	<circle cx="357.348" cy="573.415" r="4" fill="#0" id="circle198"/>
	</g>
</svg>