<?xml version="1.0" encoding="UTF-8" standalone="no"?>
<!-- Created with CurveBenchmark -->
<svg
	xmlns:dc="http://purl.org/dc/elements/1.1/"
	xmlns:cc="http://creativecommons.org/ns#"
	xmlns:rdf="http://www.w3.org/1999/02/22-rdf-syntax-ns#"
	xmlns:svg="http://www.w3.org/2000/svg"
	xmlns="http://www.w3.org/2000/svg"
	xmlns:sodipodi="http://sodipodi.sourceforge.net/DTD/sodipodi-0.dtd"
	xmlns:inkscape="http://www.inkscape.org/namespaces/inkscape"
	width="1000"
	height="1000"
	id="svg2"
	version="1.1"
	sodipodi:docname="manifold/fitconnect-fish0757.png.txt">
<defs
	id="defs4" />
<metadata
	id="metadata7">
	<rdf:RDF>
		<cc:Work
			rdf:about="">
			<dc:format>image/svg+xml</dc:format>
			<dc:type
				rdf:resource="http://purl.org/dc/dcmitype/StillImage" />
			<dc:title></dc:title>
		</cc:Work>
	</rdf:RDF>
</metadata>
<g
	inkscape:label="Layer 1"
	inkscape:groupmode="layer"
	id="layer1">
	<path style="fill:none;stroke:red;stroke-width:1px;stroke-linecap:butt;stroke-linejoin:miter;stroke-opacity:1" d="M 4,97.4294 10.8698,109.795 z" id="boundary" inkscape:connector-curvature="0" />
	<path style="fill:none;stroke:red;stroke-width:1px;stroke-linecap:butt;stroke-linejoin:miter;stroke-opacity:1" d="M 4,97.4294 14.9917,86.4377 z" id="boundary" inkscape:connector-curvature="0" />
	<path style="fill:none;stroke:red;stroke-width:1px;stroke-linecap:butt;stroke-linejoin:miter;stroke-opacity:1" d="M 10.8698,109.795 20.4875,120.787 z" id="boundary" inkscape:connector-curvature="0" />
	<path style="fill:none;stroke:red;stroke-width:1px;stroke-linecap:butt;stroke-linejoin:miter;stroke-opacity:1" d="M 14.9917,86.4377 25.9834,75.446 z" id="boundary" inkscape:connector-curvature="0" />
	<path style="fill:none;stroke:red;stroke-width:1px;stroke-linecap:butt;stroke-linejoin:miter;stroke-opacity:1" d="M 20.4875,120.787 31.4792,129.03 z" id="boundary" inkscape:connector-curvature="0" />
	<path style="fill:none;stroke:red;stroke-width:1px;stroke-linecap:butt;stroke-linejoin:miter;stroke-opacity:1" d="M 25.9834,75.446 36.9751,65.8283 z" id="boundary" inkscape:connector-curvature="0" />
	<path style="fill:none;stroke:red;stroke-width:1px;stroke-linecap:butt;stroke-linejoin:miter;stroke-opacity:1" d="M 31.4792,129.03 43.8449,135.9 z" id="boundary" inkscape:connector-curvature="0" />
	<path style="fill:none;stroke:red;stroke-width:1px;stroke-linecap:butt;stroke-linejoin:miter;stroke-opacity:1" d="M 36.9751,65.8283 49.3407,58.9584 z" id="boundary" inkscape:connector-curvature="0" />
	<path style="fill:none;stroke:red;stroke-width:1px;stroke-linecap:butt;stroke-linejoin:miter;stroke-opacity:1" d="M 43.8449,135.9 56.2105,142.77 z" id="boundary" inkscape:connector-curvature="0" />
	<path style="fill:none;stroke:red;stroke-width:1px;stroke-linecap:butt;stroke-linejoin:miter;stroke-opacity:1" d="M 49.3407,58.9584 63.0803,52.0886 z" id="boundary" inkscape:connector-curvature="0" />
	<path style="fill:none;stroke:red;stroke-width:1px;stroke-linecap:butt;stroke-linejoin:miter;stroke-opacity:1" d="M 56.2105,142.77 69.9501,148.266 z" id="boundary" inkscape:connector-curvature="0" />
	<path style="fill:none;stroke:red;stroke-width:1px;stroke-linecap:butt;stroke-linejoin:miter;stroke-opacity:1" d="M 63.0803,52.0886 76.8199,52.0886 z" id="boundary" inkscape:connector-curvature="0" />
	<path style="fill:none;stroke:red;stroke-width:1px;stroke-linecap:butt;stroke-linejoin:miter;stroke-opacity:1" d="M 69.9501,148.266 82.3158,155.136 z" id="boundary" inkscape:connector-curvature="0" />
	<path style="fill:none;stroke:red;stroke-width:1px;stroke-linecap:butt;stroke-linejoin:miter;stroke-opacity:1" d="M 76.8199,52.0886 90.5596,52.0886 z" id="boundary" inkscape:connector-curvature="0" />
	<path style="fill:none;stroke:red;stroke-width:1px;stroke-linecap:butt;stroke-linejoin:miter;stroke-opacity:1" d="M 82.3158,155.136 96.0554,156.51 z" id="boundary" inkscape:connector-curvature="0" />
	<path style="fill:none;stroke:red;stroke-width:1px;stroke-linecap:butt;stroke-linejoin:miter;stroke-opacity:1" d="M 90.5596,52.0886 102.925,45.2188 z" id="boundary" inkscape:connector-curvature="0" />
	<path style="fill:none;stroke:red;stroke-width:1px;stroke-linecap:butt;stroke-linejoin:miter;stroke-opacity:1" d="M 96.0554,156.51 108.421,163.38 z" id="boundary" inkscape:connector-curvature="0" />
	<path style="fill:none;stroke:red;stroke-width:1px;stroke-linecap:butt;stroke-linejoin:miter;stroke-opacity:1" d="M 102.925,45.2188 116.665,45.2188 z" id="boundary" inkscape:connector-curvature="0" />
	<path style="fill:none;stroke:red;stroke-width:1px;stroke-linecap:butt;stroke-linejoin:miter;stroke-opacity:1" d="M 108.421,163.38 122.161,166.127 z" id="boundary" inkscape:connector-curvature="0" />
	<path style="fill:none;stroke:red;stroke-width:1px;stroke-linecap:butt;stroke-linejoin:miter;stroke-opacity:1" d="M 116.665,45.2188 130.404,45.2188 z" id="boundary" inkscape:connector-curvature="0" />
	<path style="fill:none;stroke:red;stroke-width:1px;stroke-linecap:butt;stroke-linejoin:miter;stroke-opacity:1" d="M 122.161,166.127 135.9,170.249 z" id="boundary" inkscape:connector-curvature="0" />
	<path style="fill:none;stroke:red;stroke-width:1px;stroke-linecap:butt;stroke-linejoin:miter;stroke-opacity:1" d="M 130.404,45.2188 144.144,45.2188 z" id="boundary" inkscape:connector-curvature="0" />
	<path style="fill:none;stroke:red;stroke-width:1px;stroke-linecap:butt;stroke-linejoin:miter;stroke-opacity:1" d="M 135.9,170.249 149.64,170.249 z" id="boundary" inkscape:connector-curvature="0" />
	<path style="fill:none;stroke:red;stroke-width:1px;stroke-linecap:butt;stroke-linejoin:miter;stroke-opacity:1" d="M 144.144,45.2188 156.51,38.349 z" id="boundary" inkscape:connector-curvature="0" />
	<path style="fill:none;stroke:red;stroke-width:1px;stroke-linecap:butt;stroke-linejoin:miter;stroke-opacity:1" d="M 149.64,170.249 163.38,172.997 z" id="boundary" inkscape:connector-curvature="0" />
	<path style="fill:none;stroke:red;stroke-width:1px;stroke-linecap:butt;stroke-linejoin:miter;stroke-opacity:1" d="M 156.51,38.349 170.249,38.349 z" id="boundary" inkscape:connector-curvature="0" />
	<path style="fill:none;stroke:red;stroke-width:1px;stroke-linecap:butt;stroke-linejoin:miter;stroke-opacity:1" d="M 163.38,172.997 177.119,177.119 z" id="boundary" inkscape:connector-curvature="0" />
	<path style="fill:none;stroke:red;stroke-width:1px;stroke-linecap:butt;stroke-linejoin:miter;stroke-opacity:1" d="M 170.249,38.349 183.989,38.349 z" id="boundary" inkscape:connector-curvature="0" />
	<path style="fill:none;stroke:red;stroke-width:1px;stroke-linecap:butt;stroke-linejoin:miter;stroke-opacity:1" d="M 177.119,177.119 190.859,177.119 z" id="boundary" inkscape:connector-curvature="0" />
	<path style="fill:none;stroke:red;stroke-width:1px;stroke-linecap:butt;stroke-linejoin:miter;stroke-opacity:1" d="M 183.989,38.349 197.729,38.349 z" id="boundary" inkscape:connector-curvature="0" />
	<path style="fill:none;stroke:red;stroke-width:1px;stroke-linecap:butt;stroke-linejoin:miter;stroke-opacity:1" d="M 190.859,177.119 204.598,177.119 z" id="boundary" inkscape:connector-curvature="0" />
	<path style="fill:none;stroke:red;stroke-width:1px;stroke-linecap:butt;stroke-linejoin:miter;stroke-opacity:1" d="M 197.729,38.349 211.468,38.349 z" id="boundary" inkscape:connector-curvature="0" />
	<path style="fill:none;stroke:red;stroke-width:1px;stroke-linecap:butt;stroke-linejoin:miter;stroke-opacity:1" d="M 204.598,177.119 218.338,177.119 z" id="boundary" inkscape:connector-curvature="0" />
	<path style="fill:none;stroke:red;stroke-width:1px;stroke-linecap:butt;stroke-linejoin:miter;stroke-opacity:1" d="M 211.468,38.349 225.208,38.349 z" id="boundary" inkscape:connector-curvature="0" />
	<path style="fill:none;stroke:red;stroke-width:1px;stroke-linecap:butt;stroke-linejoin:miter;stroke-opacity:1" d="M 218.338,177.119 232.078,177.119 z" id="boundary" inkscape:connector-curvature="0" />
	<path style="fill:none;stroke:red;stroke-width:1px;stroke-linecap:butt;stroke-linejoin:miter;stroke-opacity:1" d="M 225.208,38.349 238.947,38.349 z" id="boundary" inkscape:connector-curvature="0" />
	<path style="fill:none;stroke:red;stroke-width:1px;stroke-linecap:butt;stroke-linejoin:miter;stroke-opacity:1" d="M 232.078,177.119 245.817,177.119 z" id="boundary" inkscape:connector-curvature="0" />
	<path style="fill:none;stroke:red;stroke-width:1px;stroke-linecap:butt;stroke-linejoin:miter;stroke-opacity:1" d="M 238.947,38.349 252.687,38.349 z" id="boundary" inkscape:connector-curvature="0" />
	<path style="fill:none;stroke:red;stroke-width:1px;stroke-linecap:butt;stroke-linejoin:miter;stroke-opacity:1" d="M 245.817,177.119 259.557,179.867 z" id="boundary" inkscape:connector-curvature="0" />
	<path style="fill:none;stroke:red;stroke-width:1px;stroke-linecap:butt;stroke-linejoin:miter;stroke-opacity:1" d="M 252.687,38.349 266.427,38.349 z" id="boundary" inkscape:connector-curvature="0" />
	<path style="fill:none;stroke:red;stroke-width:1px;stroke-linecap:butt;stroke-linejoin:miter;stroke-opacity:1" d="M 259.557,179.867 273.296,183.989 z" id="boundary" inkscape:connector-curvature="0" />
	<path style="fill:none;stroke:red;stroke-width:1px;stroke-linecap:butt;stroke-linejoin:miter;stroke-opacity:1" d="M 266.427,38.349 280.166,38.349 z" id="boundary" inkscape:connector-curvature="0" />
	<path style="fill:none;stroke:red;stroke-width:1px;stroke-linecap:butt;stroke-linejoin:miter;stroke-opacity:1" d="M 273.296,183.989 287.036,183.989 z" id="boundary" inkscape:connector-curvature="0" />
	<path style="fill:none;stroke:red;stroke-width:1px;stroke-linecap:butt;stroke-linejoin:miter;stroke-opacity:1" d="M 280.166,38.349 293.906,38.349 z" id="boundary" inkscape:connector-curvature="0" />
	<path style="fill:none;stroke:red;stroke-width:1px;stroke-linecap:butt;stroke-linejoin:miter;stroke-opacity:1" d="M 287.036,183.989 300.776,183.989 z" id="boundary" inkscape:connector-curvature="0" />
	<path style="fill:none;stroke:red;stroke-width:1px;stroke-linecap:butt;stroke-linejoin:miter;stroke-opacity:1" d="M 293.906,38.349 307.645,38.349 z" id="boundary" inkscape:connector-curvature="0" />
	<path style="fill:none;stroke:red;stroke-width:1px;stroke-linecap:butt;stroke-linejoin:miter;stroke-opacity:1" d="M 300.776,183.989 314.515,183.989 z" id="boundary" inkscape:connector-curvature="0" />
	<path style="fill:none;stroke:red;stroke-width:1px;stroke-linecap:butt;stroke-linejoin:miter;stroke-opacity:1" d="M 307.645,38.349 321.385,38.349 z" id="boundary" inkscape:connector-curvature="0" />
	<path style="fill:none;stroke:red;stroke-width:1px;stroke-linecap:butt;stroke-linejoin:miter;stroke-opacity:1" d="M 314.515,183.989 326.881,177.119 z" id="boundary" inkscape:connector-curvature="0" />
	<path style="fill:none;stroke:red;stroke-width:1px;stroke-linecap:butt;stroke-linejoin:miter;stroke-opacity:1" d="M 321.385,38.349 333.751,31.4792 z" id="boundary" inkscape:connector-curvature="0" />
	<path style="fill:none;stroke:red;stroke-width:1px;stroke-linecap:butt;stroke-linejoin:miter;stroke-opacity:1" d="M 326.881,177.119 340.62,177.119 z" id="boundary" inkscape:connector-curvature="0" />
	<path style="fill:none;stroke:red;stroke-width:1px;stroke-linecap:butt;stroke-linejoin:miter;stroke-opacity:1" d="M 333.751,31.4792 347.49,31.4792 z" id="boundary" inkscape:connector-curvature="0" />
	<path style="fill:none;stroke:red;stroke-width:1px;stroke-linecap:butt;stroke-linejoin:miter;stroke-opacity:1" d="M 340.62,177.119 354.36,177.119 z" id="boundary" inkscape:connector-curvature="0" />
	<path style="fill:none;stroke:red;stroke-width:1px;stroke-linecap:butt;stroke-linejoin:miter;stroke-opacity:1" d="M 347.49,31.4792 361.23,31.4792 z" id="boundary" inkscape:connector-curvature="0" />
	<path style="fill:none;stroke:red;stroke-width:1px;stroke-linecap:butt;stroke-linejoin:miter;stroke-opacity:1" d="M 354.36,177.119 368.1,177.119 z" id="boundary" inkscape:connector-curvature="0" />
	<path style="fill:none;stroke:red;stroke-width:1px;stroke-linecap:butt;stroke-linejoin:miter;stroke-opacity:1" d="M 361.23,31.4792 374.97,31.4792 z" id="boundary" inkscape:connector-curvature="0" />
	<path style="fill:none;stroke:red;stroke-width:1px;stroke-linecap:butt;stroke-linejoin:miter;stroke-opacity:1" d="M 368.1,177.119 381.839,177.119 z" id="boundary" inkscape:connector-curvature="0" />
	<path style="fill:none;stroke:red;stroke-width:1px;stroke-linecap:butt;stroke-linejoin:miter;stroke-opacity:1" d="M 374.97,31.4792 388.709,28.7313 z" id="boundary" inkscape:connector-curvature="0" />
	<path style="fill:none;stroke:red;stroke-width:1px;stroke-linecap:butt;stroke-linejoin:miter;stroke-opacity:1" d="M 381.839,177.119 395.579,177.119 z" id="boundary" inkscape:connector-curvature="0" />
	<path style="fill:none;stroke:red;stroke-width:1px;stroke-linecap:butt;stroke-linejoin:miter;stroke-opacity:1" d="M 388.709,28.7313 402.449,21.8615 z" id="boundary" inkscape:connector-curvature="0" />
	<path style="fill:none;stroke:red;stroke-width:1px;stroke-linecap:butt;stroke-linejoin:miter;stroke-opacity:1" d="M 395.579,177.119 409.319,177.119 z" id="boundary" inkscape:connector-curvature="0" />
	<path style="fill:none;stroke:red;stroke-width:1px;stroke-linecap:butt;stroke-linejoin:miter;stroke-opacity:1" d="M 402.449,21.8615 416.188,14.9917 z" id="boundary" inkscape:connector-curvature="0" />
	<path style="fill:none;stroke:red;stroke-width:1px;stroke-linecap:butt;stroke-linejoin:miter;stroke-opacity:1" d="M 409.319,177.119 423.058,177.119 z" id="boundary" inkscape:connector-curvature="0" />
	<path style="fill:none;stroke:red;stroke-width:1px;stroke-linecap:butt;stroke-linejoin:miter;stroke-opacity:1" d="M 416.188,14.9917 427.18,4 z" id="boundary" inkscape:connector-curvature="0" />
	<path style="fill:none;stroke:red;stroke-width:1px;stroke-linecap:butt;stroke-linejoin:miter;stroke-opacity:1" d="M 423.058,177.119 435.424,183.989 z" id="boundary" inkscape:connector-curvature="0" />
	<path style="fill:none;stroke:red;stroke-width:1px;stroke-linecap:butt;stroke-linejoin:miter;stroke-opacity:1" d="M 427.18,4 440.92,4 z" id="boundary" inkscape:connector-curvature="0" />
	<path style="fill:none;stroke:red;stroke-width:1px;stroke-linecap:butt;stroke-linejoin:miter;stroke-opacity:1" d="M 435.424,183.989 445.042,194.981 z" id="boundary" inkscape:connector-curvature="0" />
	<path style="fill:none;stroke:red;stroke-width:1px;stroke-linecap:butt;stroke-linejoin:miter;stroke-opacity:1" d="M 440.92,4 454.659,4 z" id="boundary" inkscape:connector-curvature="0" />
	<path style="fill:none;stroke:red;stroke-width:1px;stroke-linecap:butt;stroke-linejoin:miter;stroke-opacity:1" d="M 445.042,194.981 456.033,204.598 z" id="boundary" inkscape:connector-curvature="0" />
	<path style="fill:none;stroke:red;stroke-width:1px;stroke-linecap:butt;stroke-linejoin:miter;stroke-opacity:1" d="M 454.659,4 458.781,17.7396 z" id="boundary" inkscape:connector-curvature="0" />
	<path style="fill:none;stroke:red;stroke-width:1px;stroke-linecap:butt;stroke-linejoin:miter;stroke-opacity:1" d="M 456.033,204.598 465.651,215.59 z" id="boundary" inkscape:connector-curvature="0" />
	<path style="fill:none;stroke:red;stroke-width:1px;stroke-linecap:butt;stroke-linejoin:miter;stroke-opacity:1" d="M 458.781,17.7396 469.773,25.9834 z" id="boundary" inkscape:connector-curvature="0" />
	<path style="fill:none;stroke:red;stroke-width:1px;stroke-linecap:butt;stroke-linejoin:miter;stroke-opacity:1" d="M 465.651,215.59 476.643,225.208 z" id="boundary" inkscape:connector-curvature="0" />
	<path style="fill:none;stroke:red;stroke-width:1px;stroke-linecap:butt;stroke-linejoin:miter;stroke-opacity:1" d="M 469.773,25.9834 482.139,32.8532 z" id="boundary" inkscape:connector-curvature="0" />
	<path style="fill:none;stroke:red;stroke-width:1px;stroke-linecap:butt;stroke-linejoin:miter;stroke-opacity:1" d="M 476.643,225.208 486.26,236.199 z" id="boundary" inkscape:connector-curvature="0" />
	<path style="fill:none;stroke:red;stroke-width:1px;stroke-linecap:butt;stroke-linejoin:miter;stroke-opacity:1" d="M 482.139,32.8532 495.878,38.349 z" id="boundary" inkscape:connector-curvature="0" />
	<path style="fill:none;stroke:red;stroke-width:1px;stroke-linecap:butt;stroke-linejoin:miter;stroke-opacity:1" d="M 486.26,236.199 497.252,245.817 z" id="boundary" inkscape:connector-curvature="0" />
	<path style="fill:none;stroke:red;stroke-width:1px;stroke-linecap:butt;stroke-linejoin:miter;stroke-opacity:1" d="M 495.878,38.349 509.618,38.349 z" id="boundary" inkscape:connector-curvature="0" />
	<path style="fill:none;stroke:red;stroke-width:1px;stroke-linecap:butt;stroke-linejoin:miter;stroke-opacity:1" d="M 497.252,245.817 509.618,252.687 z" id="boundary" inkscape:connector-curvature="0" />
	<path style="fill:none;stroke:red;stroke-width:1px;stroke-linecap:butt;stroke-linejoin:miter;stroke-opacity:1" d="M 509.618,38.349 523.357,38.349 z" id="boundary" inkscape:connector-curvature="0" />
	<path style="fill:none;stroke:red;stroke-width:1px;stroke-linecap:butt;stroke-linejoin:miter;stroke-opacity:1" d="M 509.618,252.687 521.983,245.817 z" id="boundary" inkscape:connector-curvature="0" />
	<path style="fill:none;stroke:red;stroke-width:1px;stroke-linecap:butt;stroke-linejoin:miter;stroke-opacity:1" d="M 521.983,245.817 527.479,232.078 z" id="boundary" inkscape:connector-curvature="0" />
	<path style="fill:none;stroke:red;stroke-width:1px;stroke-linecap:butt;stroke-linejoin:miter;stroke-opacity:1" d="M 523.357,38.349 537.097,38.349 z" id="boundary" inkscape:connector-curvature="0" />
	<path style="fill:none;stroke:red;stroke-width:1px;stroke-linecap:butt;stroke-linejoin:miter;stroke-opacity:1" d="M 527.479,232.078 534.349,218.338 z" id="boundary" inkscape:connector-curvature="0" />
	<path style="fill:none;stroke:red;stroke-width:1px;stroke-linecap:butt;stroke-linejoin:miter;stroke-opacity:1" d="M 534.349,218.338 545.341,208.72 z" id="boundary" inkscape:connector-curvature="0" />
	<path style="fill:none;stroke:red;stroke-width:1px;stroke-linecap:butt;stroke-linejoin:miter;stroke-opacity:1" d="M 537.097,38.349 550.837,38.349 z" id="boundary" inkscape:connector-curvature="0" />
	<path style="fill:none;stroke:red;stroke-width:1px;stroke-linecap:butt;stroke-linejoin:miter;stroke-opacity:1" d="M 545.341,208.72 554.958,190.859 z" id="boundary" inkscape:connector-curvature="0" />
	<path style="fill:none;stroke:red;stroke-width:1px;stroke-linecap:butt;stroke-linejoin:miter;stroke-opacity:1" d="M 550.837,38.349 564.576,38.349 z" id="boundary" inkscape:connector-curvature="0" />
	<path style="fill:none;stroke:red;stroke-width:1px;stroke-linecap:butt;stroke-linejoin:miter;stroke-opacity:1" d="M 554.958,190.859 561.828,177.119 z" id="boundary" inkscape:connector-curvature="0" />
	<path style="fill:none;stroke:red;stroke-width:1px;stroke-linecap:butt;stroke-linejoin:miter;stroke-opacity:1" d="M 561.828,177.119 575.568,170.249 z" id="boundary" inkscape:connector-curvature="0" />
	<path style="fill:none;stroke:red;stroke-width:1px;stroke-linecap:butt;stroke-linejoin:miter;stroke-opacity:1" d="M 564.576,38.349 578.316,38.349 z" id="boundary" inkscape:connector-curvature="0" />
	<path style="fill:none;stroke:red;stroke-width:1px;stroke-linecap:butt;stroke-linejoin:miter;stroke-opacity:1" d="M 575.568,170.249 589.307,163.38 z" id="boundary" inkscape:connector-curvature="0" />
	<path style="fill:none;stroke:red;stroke-width:1px;stroke-linecap:butt;stroke-linejoin:miter;stroke-opacity:1" d="M 578.316,38.349 590.681,31.4792 z" id="boundary" inkscape:connector-curvature="0" />
	<path style="fill:none;stroke:red;stroke-width:1px;stroke-linecap:butt;stroke-linejoin:miter;stroke-opacity:1" d="M 589.307,163.38 603.047,163.38 z" id="boundary" inkscape:connector-curvature="0" />
	<path style="fill:none;stroke:red;stroke-width:1px;stroke-linecap:butt;stroke-linejoin:miter;stroke-opacity:1" d="M 590.681,31.4792 603.047,24.6094 z" id="boundary" inkscape:connector-curvature="0" />
	<path style="fill:none;stroke:red;stroke-width:1px;stroke-linecap:butt;stroke-linejoin:miter;stroke-opacity:1" d="M 603.047,24.6094 615.413,17.7396 z" id="boundary" inkscape:connector-curvature="0" />
	<path style="fill:none;stroke:red;stroke-width:1px;stroke-linecap:butt;stroke-linejoin:miter;stroke-opacity:1" d="M 603.047,163.38 616.787,163.38 z" id="boundary" inkscape:connector-curvature="0" />
	<path style="fill:none;stroke:red;stroke-width:1px;stroke-linecap:butt;stroke-linejoin:miter;stroke-opacity:1" d="M 615.413,17.7396 627.778,10.8698 z" id="boundary" inkscape:connector-curvature="0" />
	<path style="fill:none;stroke:red;stroke-width:1px;stroke-linecap:butt;stroke-linejoin:miter;stroke-opacity:1" d="M 616.787,163.38 630.526,156.51 z" id="boundary" inkscape:connector-curvature="0" />
	<path style="fill:none;stroke:red;stroke-width:1px;stroke-linecap:butt;stroke-linejoin:miter;stroke-opacity:1" d="M 627.778,10.8698 641.518,10.8698 z" id="boundary" inkscape:connector-curvature="0" />
	<path style="fill:none;stroke:red;stroke-width:1px;stroke-linecap:butt;stroke-linejoin:miter;stroke-opacity:1" d="M 630.526,156.51 644.266,156.51 z" id="boundary" inkscape:connector-curvature="0" />
	<path style="fill:none;stroke:red;stroke-width:1px;stroke-linecap:butt;stroke-linejoin:miter;stroke-opacity:1" d="M 641.518,10.8698 655.258,10.8698 z" id="boundary" inkscape:connector-curvature="0" />
	<path style="fill:none;stroke:red;stroke-width:1px;stroke-linecap:butt;stroke-linejoin:miter;stroke-opacity:1" d="M 644.266,156.51 658.006,156.51 z" id="boundary" inkscape:connector-curvature="0" />
	<path style="fill:none;stroke:red;stroke-width:1px;stroke-linecap:butt;stroke-linejoin:miter;stroke-opacity:1" d="M 655.258,10.8698 668.997,12.2438 z" id="boundary" inkscape:connector-curvature="0" />
	<path style="fill:none;stroke:red;stroke-width:1px;stroke-linecap:butt;stroke-linejoin:miter;stroke-opacity:1" d="M 658.006,156.51 671.745,149.64 z" id="boundary" inkscape:connector-curvature="0" />
	<path style="fill:none;stroke:red;stroke-width:1px;stroke-linecap:butt;stroke-linejoin:miter;stroke-opacity:1" d="M 668.997,12.2438 681.363,19.1136 z" id="boundary" inkscape:connector-curvature="0" />
	<path style="fill:none;stroke:red;stroke-width:1px;stroke-linecap:butt;stroke-linejoin:miter;stroke-opacity:1" d="M 671.745,149.64 685.485,149.64 z" id="boundary" inkscape:connector-curvature="0" />
	<path style="fill:none;stroke:red;stroke-width:1px;stroke-linecap:butt;stroke-linejoin:miter;stroke-opacity:1" d="M 681.363,19.1136 695.102,24.6094 z" id="boundary" inkscape:connector-curvature="0" />
	<path style="fill:none;stroke:red;stroke-width:1px;stroke-linecap:butt;stroke-linejoin:miter;stroke-opacity:1" d="M 685.485,149.64 699.224,149.64 z" id="boundary" inkscape:connector-curvature="0" />
	<path style="fill:none;stroke:red;stroke-width:1px;stroke-linecap:butt;stroke-linejoin:miter;stroke-opacity:1" d="M 695.102,24.6094 707.468,31.4792 z" id="boundary" inkscape:connector-curvature="0" />
	<path style="fill:none;stroke:red;stroke-width:1px;stroke-linecap:butt;stroke-linejoin:miter;stroke-opacity:1" d="M 699.224,149.64 712.964,142.77 z" id="boundary" inkscape:connector-curvature="0" />
	<path style="fill:none;stroke:red;stroke-width:1px;stroke-linecap:butt;stroke-linejoin:miter;stroke-opacity:1" d="M 707.468,31.4792 719.834,38.349 z" id="boundary" inkscape:connector-curvature="0" />
	<path style="fill:none;stroke:red;stroke-width:1px;stroke-linecap:butt;stroke-linejoin:miter;stroke-opacity:1" d="M 712.964,142.77 726.704,142.77 z" id="boundary" inkscape:connector-curvature="0" />
	<path style="fill:none;stroke:red;stroke-width:1px;stroke-linecap:butt;stroke-linejoin:miter;stroke-opacity:1" d="M 719.834,38.349 733.573,42.4709 z" id="boundary" inkscape:connector-curvature="0" />
	<path style="fill:none;stroke:red;stroke-width:1px;stroke-linecap:butt;stroke-linejoin:miter;stroke-opacity:1" d="M 726.704,142.77 740.443,142.77 z" id="boundary" inkscape:connector-curvature="0" />
	<path style="fill:none;stroke:red;stroke-width:1px;stroke-linecap:butt;stroke-linejoin:miter;stroke-opacity:1" d="M 733.573,42.4709 744.565,52.0886 z" id="boundary" inkscape:connector-curvature="0" />
	<path style="fill:none;stroke:red;stroke-width:1px;stroke-linecap:butt;stroke-linejoin:miter;stroke-opacity:1" d="M 740.443,142.77 752.809,135.9 z" id="boundary" inkscape:connector-curvature="0" />
	<path style="fill:none;stroke:red;stroke-width:1px;stroke-linecap:butt;stroke-linejoin:miter;stroke-opacity:1" d="M 744.565,52.0886 758.305,52.0886 z" id="boundary" inkscape:connector-curvature="0" />
	<path style="fill:none;stroke:red;stroke-width:1px;stroke-linecap:butt;stroke-linejoin:miter;stroke-opacity:1" d="M 752.809,135.9 766.548,135.9 z" id="boundary" inkscape:connector-curvature="0" />
	<path style="fill:none;stroke:red;stroke-width:1px;stroke-linecap:butt;stroke-linejoin:miter;stroke-opacity:1" d="M 758.305,52.0886 772.044,52.0886 z" id="boundary" inkscape:connector-curvature="0" />
	<path style="fill:none;stroke:red;stroke-width:1px;stroke-linecap:butt;stroke-linejoin:miter;stroke-opacity:1" d="M 766.548,135.9 780.288,131.778 z" id="boundary" inkscape:connector-curvature="0" />
	<path style="fill:none;stroke:red;stroke-width:1px;stroke-linecap:butt;stroke-linejoin:miter;stroke-opacity:1" d="M 772.044,52.0886 785.784,52.0886 z" id="boundary" inkscape:connector-curvature="0" />
	<path style="fill:none;stroke:red;stroke-width:1px;stroke-linecap:butt;stroke-linejoin:miter;stroke-opacity:1" d="M 780.288,131.778 794.028,129.03 z" id="boundary" inkscape:connector-curvature="0" />
	<path style="fill:none;stroke:red;stroke-width:1px;stroke-linecap:butt;stroke-linejoin:miter;stroke-opacity:1" d="M 785.784,52.0886 799.524,52.0886 z" id="boundary" inkscape:connector-curvature="0" />
	<path style="fill:none;stroke:red;stroke-width:1px;stroke-linecap:butt;stroke-linejoin:miter;stroke-opacity:1" d="M 794.028,129.03 807.767,129.03 z" id="boundary" inkscape:connector-curvature="0" />
	<path style="fill:none;stroke:red;stroke-width:1px;stroke-linecap:butt;stroke-linejoin:miter;stroke-opacity:1" d="M 799.524,52.0886 813.263,52.0886 z" id="boundary" inkscape:connector-curvature="0" />
	<path style="fill:none;stroke:red;stroke-width:1px;stroke-linecap:butt;stroke-linejoin:miter;stroke-opacity:1" d="M 807.767,129.03 821.507,129.03 z" id="boundary" inkscape:connector-curvature="0" />
	<path style="fill:none;stroke:red;stroke-width:1px;stroke-linecap:butt;stroke-linejoin:miter;stroke-opacity:1" d="M 813.263,52.0886 827.003,52.0886 z" id="boundary" inkscape:connector-curvature="0" />
	<path style="fill:none;stroke:red;stroke-width:1px;stroke-linecap:butt;stroke-linejoin:miter;stroke-opacity:1" d="M 821.507,129.03 835.247,129.03 z" id="boundary" inkscape:connector-curvature="0" />
	<path style="fill:none;stroke:red;stroke-width:1px;stroke-linecap:butt;stroke-linejoin:miter;stroke-opacity:1" d="M 827.003,52.0886 840.742,52.0886 z" id="boundary" inkscape:connector-curvature="0" />
	<path style="fill:none;stroke:red;stroke-width:1px;stroke-linecap:butt;stroke-linejoin:miter;stroke-opacity:1" d="M 835.247,129.03 848.986,129.03 z" id="boundary" inkscape:connector-curvature="0" />
	<path style="fill:none;stroke:red;stroke-width:1px;stroke-linecap:butt;stroke-linejoin:miter;stroke-opacity:1" d="M 840.742,52.0886 853.108,45.2188 z" id="boundary" inkscape:connector-curvature="0" />
	<path style="fill:none;stroke:red;stroke-width:1px;stroke-linecap:butt;stroke-linejoin:miter;stroke-opacity:1" d="M 848.986,129.03 862.726,129.03 z" id="boundary" inkscape:connector-curvature="0" />
	<path style="fill:none;stroke:red;stroke-width:1px;stroke-linecap:butt;stroke-linejoin:miter;stroke-opacity:1" d="M 853.108,45.2188 866.848,38.349 z" id="boundary" inkscape:connector-curvature="0" />
	<path style="fill:none;stroke:red;stroke-width:1px;stroke-linecap:butt;stroke-linejoin:miter;stroke-opacity:1" d="M 862.726,129.03 875.091,135.9 z" id="boundary" inkscape:connector-curvature="0" />
	<path style="fill:none;stroke:red;stroke-width:1px;stroke-linecap:butt;stroke-linejoin:miter;stroke-opacity:1" d="M 866.848,38.349 880.587,38.349 z" id="boundary" inkscape:connector-curvature="0" />
	<path style="fill:none;stroke:red;stroke-width:1px;stroke-linecap:butt;stroke-linejoin:miter;stroke-opacity:1" d="M 875.091,135.9 888.831,135.9 z" id="boundary" inkscape:connector-curvature="0" />
	<path style="fill:none;stroke:red;stroke-width:1px;stroke-linecap:butt;stroke-linejoin:miter;stroke-opacity:1" d="M 880.587,38.349 892.953,31.4792 z" id="boundary" inkscape:connector-curvature="0" />
	<path style="fill:none;stroke:red;stroke-width:1px;stroke-linecap:butt;stroke-linejoin:miter;stroke-opacity:1" d="M 888.831,135.9 901.197,142.77 z" id="boundary" inkscape:connector-curvature="0" />
	<path style="fill:none;stroke:red;stroke-width:1px;stroke-linecap:butt;stroke-linejoin:miter;stroke-opacity:1" d="M 892.953,31.4792 906.693,25.9834 z" id="boundary" inkscape:connector-curvature="0" />
	<path style="fill:none;stroke:red;stroke-width:1px;stroke-linecap:butt;stroke-linejoin:miter;stroke-opacity:1" d="M 901.197,142.77 914.936,142.77 z" id="boundary" inkscape:connector-curvature="0" />
	<path style="fill:none;stroke:red;stroke-width:1px;stroke-linecap:butt;stroke-linejoin:miter;stroke-opacity:1" d="M 906.693,25.9834 920.432,24.6094 z" id="boundary" inkscape:connector-curvature="0" />
	<path style="fill:none;stroke:red;stroke-width:1px;stroke-linecap:butt;stroke-linejoin:miter;stroke-opacity:1" d="M 914.936,142.77 927.302,149.64 z" id="boundary" inkscape:connector-curvature="0" />
	<path style="fill:none;stroke:red;stroke-width:1px;stroke-linecap:butt;stroke-linejoin:miter;stroke-opacity:1" d="M 920.432,24.6094 932.798,17.7396 z" id="boundary" inkscape:connector-curvature="0" />
	<path style="fill:none;stroke:red;stroke-width:1px;stroke-linecap:butt;stroke-linejoin:miter;stroke-opacity:1" d="M 927.302,149.64 941.042,153.762 z" id="boundary" inkscape:connector-curvature="0" />
	<path style="fill:none;stroke:red;stroke-width:1px;stroke-linecap:butt;stroke-linejoin:miter;stroke-opacity:1" d="M 932.798,17.7396 946.537,13.6177 z" id="boundary" inkscape:connector-curvature="0" />
	<path style="fill:none;stroke:red;stroke-width:1px;stroke-linecap:butt;stroke-linejoin:miter;stroke-opacity:1" d="M 941.042,153.762 954.781,156.51 z" id="boundary" inkscape:connector-curvature="0" />
	<path style="fill:none;stroke:red;stroke-width:1px;stroke-linecap:butt;stroke-linejoin:miter;stroke-opacity:1" d="M 946.537,13.6177 960.277,10.8698 z" id="boundary" inkscape:connector-curvature="0" />
	<path style="fill:none;stroke:red;stroke-width:1px;stroke-linecap:butt;stroke-linejoin:miter;stroke-opacity:1" d="M 946.537,67.2022 946.537,80.9418 z" id="boundary" inkscape:connector-curvature="0" />
	<path style="fill:none;stroke:red;stroke-width:1px;stroke-linecap:butt;stroke-linejoin:miter;stroke-opacity:1" d="M 946.537,67.2022 957.529,57.5845 z" id="boundary" inkscape:connector-curvature="0" />
	<path style="fill:none;stroke:red;stroke-width:1px;stroke-linecap:butt;stroke-linejoin:miter;stroke-opacity:1" d="M 946.537,80.9418 949.285,94.6814 z" id="boundary" inkscape:connector-curvature="0" />
	<path style="fill:none;stroke:red;stroke-width:1px;stroke-linecap:butt;stroke-linejoin:miter;stroke-opacity:1" d="M 949.285,94.6814 960.277,104.299 z" id="boundary" inkscape:connector-curvature="0" />
	<path style="fill:none;stroke:red;stroke-width:1px;stroke-linecap:butt;stroke-linejoin:miter;stroke-opacity:1" d="M 954.781,156.51 968.521,156.51 z" id="boundary" inkscape:connector-curvature="0" />
	<path style="fill:none;stroke:red;stroke-width:1px;stroke-linecap:butt;stroke-linejoin:miter;stroke-opacity:1" d="M 957.529,57.5845 964.399,43.8449 z" id="boundary" inkscape:connector-curvature="0" />
	<path style="fill:none;stroke:red;stroke-width:1px;stroke-linecap:butt;stroke-linejoin:miter;stroke-opacity:1" d="M 960.277,10.8698 972.643,4 z" id="boundary" inkscape:connector-curvature="0" />
	<path style="fill:none;stroke:red;stroke-width:1px;stroke-linecap:butt;stroke-linejoin:miter;stroke-opacity:1" d="M 960.277,104.299 969.895,115.291 z" id="boundary" inkscape:connector-curvature="0" />
	<path style="fill:none;stroke:red;stroke-width:1px;stroke-linecap:butt;stroke-linejoin:miter;stroke-opacity:1" d="M 964.399,43.8449 974.017,32.8532 z" id="boundary" inkscape:connector-curvature="0" />
	<path style="fill:none;stroke:red;stroke-width:1px;stroke-linecap:butt;stroke-linejoin:miter;stroke-opacity:1" d="M 968.521,156.51 982.26,156.51 z" id="boundary" inkscape:connector-curvature="0" />
	<path style="fill:none;stroke:red;stroke-width:1px;stroke-linecap:butt;stroke-linejoin:miter;stroke-opacity:1" d="M 969.895,115.291 980.886,124.909 z" id="boundary" inkscape:connector-curvature="0" />
	<path style="fill:none;stroke:red;stroke-width:1px;stroke-linecap:butt;stroke-linejoin:miter;stroke-opacity:1" d="M 972.643,4 986.382,4 z" id="boundary" inkscape:connector-curvature="0" />
	<path style="fill:none;stroke:red;stroke-width:1px;stroke-linecap:butt;stroke-linejoin:miter;stroke-opacity:1" d="M 974.017,32.8532 985.008,23.2355 z" id="boundary" inkscape:connector-curvature="0" />
	<path style="fill:none;stroke:red;stroke-width:1px;stroke-linecap:butt;stroke-linejoin:miter;stroke-opacity:1" d="M 980.886,124.909 990.504,135.9 z" id="boundary" inkscape:connector-curvature="0" />
	<path style="fill:none;stroke:red;stroke-width:1px;stroke-linecap:butt;stroke-linejoin:miter;stroke-opacity:1" d="M 982.26,156.51 996,156.51 z" id="boundary" inkscape:connector-curvature="0" />
	<path style="fill:none;stroke:red;stroke-width:1px;stroke-linecap:butt;stroke-linejoin:miter;stroke-opacity:1" d="M 985.008,23.2355 986.382,4 z" id="boundary" inkscape:connector-curvature="0" />
	<path style="fill:none;stroke:red;stroke-width:1px;stroke-linecap:butt;stroke-linejoin:miter;stroke-opacity:1" d="M 990.504,135.9 996,156.51 z" id="boundary" inkscape:connector-curvature="0" />
	<circle cx="4" cy="97.4294" r="4" fill="#0" id="circle0"/>
	<circle cx="10.8698" cy="109.795" r="4" fill="#0" id="circle1"/>
	<circle cx="14.9917" cy="86.4377" r="4" fill="#0" id="circle2"/>
	<circle cx="20.4875" cy="120.787" r="4" fill="#0" id="circle3"/>
	<circle cx="25.9834" cy="75.446" r="4" fill="#0" id="circle4"/>
	<circle cx="31.4792" cy="129.03" r="4" fill="#0" id="circle5"/>
	<circle cx="36.9751" cy="65.8283" r="4" fill="#0" id="circle6"/>
	<circle cx="43.8449" cy="135.9" r="4" fill="#0" id="circle7"/>
	<circle cx="49.3407" cy="58.9584" r="4" fill="#0" id="circle8"/>
	<circle cx="56.2105" cy="142.77" r="4" fill="#0" id="circle9"/>
	<circle cx="63.0803" cy="52.0886" r="4" fill="#0" id="circle10"/>
	<circle cx="69.9501" cy="148.266" r="4" fill="#0" id="circle11"/>
	<circle cx="76.8199" cy="52.0886" r="4" fill="#0" id="circle12"/>
	<circle cx="82.3158" cy="155.136" r="4" fill="#0" id="circle13"/>
	<circle cx="90.5596" cy="52.0886" r="4" fill="#0" id="circle14"/>
	<circle cx="96.0554" cy="156.51" r="4" fill="#0" id="circle15"/>
	<circle cx="102.925" cy="45.2188" r="4" fill="#0" id="circle16"/>
	<circle cx="108.421" cy="163.38" r="4" fill="#0" id="circle17"/>
	<circle cx="116.665" cy="45.2188" r="4" fill="#0" id="circle18"/>
	<circle cx="122.161" cy="166.127" r="4" fill="#0" id="circle19"/>
	<circle cx="130.404" cy="45.2188" r="4" fill="#0" id="circle20"/>
	<circle cx="135.9" cy="170.249" r="4" fill="#0" id="circle21"/>
	<circle cx="144.144" cy="45.2188" r="4" fill="#0" id="circle22"/>
	<circle cx="149.64" cy="170.249" r="4" fill="#0" id="circle23"/>
	<circle cx="156.51" cy="38.349" r="4" fill="#0" id="circle24"/>
	<circle cx="163.38" cy="172.997" r="4" fill="#0" id="circle25"/>
	<circle cx="170.249" cy="38.349" r="4" fill="#0" id="circle26"/>
	<circle cx="177.119" cy="177.119" r="4" fill="#0" id="circle27"/>
	<circle cx="183.989" cy="38.349" r="4" fill="#0" id="circle28"/>
	<circle cx="190.859" cy="177.119" r="4" fill="#0" id="circle29"/>
	<circle cx="197.729" cy="38.349" r="4" fill="#0" id="circle30"/>
	<circle cx="204.598" cy="177.119" r="4" fill="#0" id="circle31"/>
	<circle cx="211.468" cy="38.349" r="4" fill="#0" id="circle32"/>
	<circle cx="218.338" cy="177.119" r="4" fill="#0" id="circle33"/>
	<circle cx="225.208" cy="38.349" r="4" fill="#0" id="circle34"/>
	<circle cx="232.078" cy="177.119" r="4" fill="#0" id="circle35"/>
	<circle cx="238.947" cy="38.349" r="4" fill="#0" id="circle36"/>
	<circle cx="245.817" cy="177.119" r="4" fill="#0" id="circle37"/>
	<circle cx="252.687" cy="38.349" r="4" fill="#0" id="circle38"/>
	<circle cx="259.557" cy="179.867" r="4" fill="#0" id="circle39"/>
	<circle cx="266.427" cy="38.349" r="4" fill="#0" id="circle40"/>
	<circle cx="273.296" cy="183.989" r="4" fill="#0" id="circle41"/>
	<circle cx="280.166" cy="38.349" r="4" fill="#0" id="circle42"/>
	<circle cx="287.036" cy="183.989" r="4" fill="#0" id="circle43"/>
	<circle cx="293.906" cy="38.349" r="4" fill="#0" id="circle44"/>
	<circle cx="300.776" cy="183.989" r="4" fill="#0" id="circle45"/>
	<circle cx="307.645" cy="38.349" r="4" fill="#0" id="circle46"/>
	<circle cx="314.515" cy="183.989" r="4" fill="#0" id="circle47"/>
	<circle cx="321.385" cy="38.349" r="4" fill="#0" id="circle48"/>
	<circle cx="326.881" cy="177.119" r="4" fill="#0" id="circle49"/>
	<circle cx="333.751" cy="31.4792" r="4" fill="#0" id="circle50"/>
	<circle cx="340.62" cy="177.119" r="4" fill="#0" id="circle51"/>
	<circle cx="347.49" cy="31.4792" r="4" fill="#0" id="circle52"/>
	<circle cx="354.36" cy="177.119" r="4" fill="#0" id="circle53"/>
	<circle cx="361.23" cy="31.4792" r="4" fill="#0" id="circle54"/>
	<circle cx="368.1" cy="177.119" r="4" fill="#0" id="circle55"/>
	<circle cx="374.97" cy="31.4792" r="4" fill="#0" id="circle56"/>
	<circle cx="381.839" cy="177.119" r="4" fill="#0" id="circle57"/>
	<circle cx="388.709" cy="28.7313" r="4" fill="#0" id="circle58"/>
	<circle cx="395.579" cy="177.119" r="4" fill="#0" id="circle59"/>
	<circle cx="402.449" cy="21.8615" r="4" fill="#0" id="circle60"/>
	<circle cx="409.319" cy="177.119" r="4" fill="#0" id="circle61"/>
	<circle cx="416.188" cy="14.9917" r="4" fill="#0" id="circle62"/>
	<circle cx="423.058" cy="177.119" r="4" fill="#0" id="circle63"/>
	<circle cx="427.18" cy="4" r="4" fill="#0" id="circle64"/>
	<circle cx="435.424" cy="183.989" r="4" fill="#0" id="circle65"/>
	<circle cx="440.92" cy="4" r="4" fill="#0" id="circle66"/>
	<circle cx="445.042" cy="194.981" r="4" fill="#0" id="circle67"/>
	<circle cx="454.659" cy="4" r="4" fill="#0" id="circle68"/>
	<circle cx="456.033" cy="204.598" r="4" fill="#0" id="circle69"/>
	<circle cx="458.781" cy="17.7396" r="4" fill="#0" id="circle70"/>
	<circle cx="465.651" cy="215.59" r="4" fill="#0" id="circle71"/>
	<circle cx="469.773" cy="25.9834" r="4" fill="#0" id="circle72"/>
	<circle cx="476.643" cy="225.208" r="4" fill="#0" id="circle73"/>
	<circle cx="482.139" cy="32.8532" r="4" fill="#0" id="circle74"/>
	<circle cx="486.26" cy="236.199" r="4" fill="#0" id="circle75"/>
	<circle cx="495.878" cy="38.349" r="4" fill="#0" id="circle76"/>
	<circle cx="497.252" cy="245.817" r="4" fill="#0" id="circle77"/>
	<circle cx="509.618" cy="38.349" r="4" fill="#0" id="circle78"/>
	<circle cx="509.618" cy="252.687" r="4" fill="#0" id="circle79"/>
	<circle cx="521.983" cy="245.817" r="4" fill="#0" id="circle80"/>
	<circle cx="523.357" cy="38.349" r="4" fill="#0" id="circle81"/>
	<circle cx="527.479" cy="232.078" r="4" fill="#0" id="circle82"/>
	<circle cx="534.349" cy="218.338" r="4" fill="#0" id="circle83"/>
	<circle cx="537.097" cy="38.349" r="4" fill="#0" id="circle84"/>
	<circle cx="545.341" cy="208.72" r="4" fill="#0" id="circle85"/>
	<circle cx="550.837" cy="38.349" r="4" fill="#0" id="circle86"/>
	<circle cx="554.958" cy="190.859" r="4" fill="#0" id="circle87"/>
	<circle cx="561.828" cy="177.119" r="4" fill="#0" id="circle88"/>
	<circle cx="564.576" cy="38.349" r="4" fill="#0" id="circle89"/>
	<circle cx="575.568" cy="170.249" r="4" fill="#0" id="circle90"/>
	<circle cx="578.316" cy="38.349" r="4" fill="#0" id="circle91"/>
	<circle cx="589.307" cy="163.38" r="4" fill="#0" id="circle92"/>
	<circle cx="590.681" cy="31.4792" r="4" fill="#0" id="circle93"/>
	<circle cx="603.047" cy="24.6094" r="4" fill="#0" id="circle94"/>
	<circle cx="603.047" cy="163.38" r="4" fill="#0" id="circle95"/>
	<circle cx="615.413" cy="17.7396" r="4" fill="#0" id="circle96"/>
	<circle cx="616.787" cy="163.38" r="4" fill="#0" id="circle97"/>
	<circle cx="627.778" cy="10.8698" r="4" fill="#0" id="circle98"/>
	<circle cx="630.526" cy="156.51" r="4" fill="#0" id="circle99"/>
	<circle cx="641.518" cy="10.8698" r="4" fill="#0" id="circle100"/>
	<circle cx="644.266" cy="156.51" r="4" fill="#0" id="circle101"/>
	<circle cx="655.258" cy="10.8698" r="4" fill="#0" id="circle102"/>
	<circle cx="658.006" cy="156.51" r="4" fill="#0" id="circle103"/>
	<circle cx="668.997" cy="12.2438" r="4" fill="#0" id="circle104"/>
	<circle cx="671.745" cy="149.64" r="4" fill="#0" id="circle105"/>
	<circle cx="681.363" cy="19.1136" r="4" fill="#0" id="circle106"/>
	<circle cx="685.485" cy="149.64" r="4" fill="#0" id="circle107"/>
	<circle cx="695.102" cy="24.6094" r="4" fill="#0" id="circle108"/>
	<circle cx="699.224" cy="149.64" r="4" fill="#0" id="circle109"/>
	<circle cx="707.468" cy="31.4792" r="4" fill="#0" id="circle110"/>
	<circle cx="712.964" cy="142.77" r="4" fill="#0" id="circle111"/>
	<circle cx="719.834" cy="38.349" r="4" fill="#0" id="circle112"/>
	<circle cx="726.704" cy="142.77" r="4" fill="#0" id="circle113"/>
	<circle cx="733.573" cy="42.4709" r="4" fill="#0" id="circle114"/>
	<circle cx="740.443" cy="142.77" r="4" fill="#0" id="circle115"/>
	<circle cx="744.565" cy="52.0886" r="4" fill="#0" id="circle116"/>
	<circle cx="752.809" cy="135.9" r="4" fill="#0" id="circle117"/>
	<circle cx="758.305" cy="52.0886" r="4" fill="#0" id="circle118"/>
	<circle cx="766.548" cy="135.9" r="4" fill="#0" id="circle119"/>
	<circle cx="772.044" cy="52.0886" r="4" fill="#0" id="circle120"/>
	<circle cx="780.288" cy="131.778" r="4" fill="#0" id="circle121"/>
	<circle cx="785.784" cy="52.0886" r="4" fill="#0" id="circle122"/>
	<circle cx="794.028" cy="129.03" r="4" fill="#0" id="circle123"/>
	<circle cx="799.524" cy="52.0886" r="4" fill="#0" id="circle124"/>
	<circle cx="807.767" cy="129.03" r="4" fill="#0" id="circle125"/>
	<circle cx="813.263" cy="52.0886" r="4" fill="#0" id="circle126"/>
	<circle cx="821.507" cy="129.03" r="4" fill="#0" id="circle127"/>
	<circle cx="827.003" cy="52.0886" r="4" fill="#0" id="circle128"/>
	<circle cx="835.247" cy="129.03" r="4" fill="#0" id="circle129"/>
	<circle cx="840.742" cy="52.0886" r="4" fill="#0" id="circle130"/>
	<circle cx="848.986" cy="129.03" r="4" fill="#0" id="circle131"/>
	<circle cx="853.108" cy="45.2188" r="4" fill="#0" id="circle132"/>
	<circle cx="862.726" cy="129.03" r="4" fill="#0" id="circle133"/>
	<circle cx="866.848" cy="38.349" r="4" fill="#0" id="circle134"/>
	<circle cx="875.091" cy="135.9" r="4" fill="#0" id="circle135"/>
	<circle cx="880.587" cy="38.349" r="4" fill="#0" id="circle136"/>
	<circle cx="888.831" cy="135.9" r="4" fill="#0" id="circle137"/>
	<circle cx="892.953" cy="31.4792" r="4" fill="#0" id="circle138"/>
	<circle cx="901.197" cy="142.77" r="4" fill="#0" id="circle139"/>
	<circle cx="906.693" cy="25.9834" r="4" fill="#0" id="circle140"/>
	<circle cx="914.936" cy="142.77" r="4" fill="#0" id="circle141"/>
	<circle cx="920.432" cy="24.6094" r="4" fill="#0" id="circle142"/>
	<circle cx="927.302" cy="149.64" r="4" fill="#0" id="circle143"/>
	<circle cx="932.798" cy="17.7396" r="4" fill="#0" id="circle144"/>
	<circle cx="941.042" cy="153.762" r="4" fill="#0" id="circle145"/>
	<circle cx="946.537" cy="13.6177" r="4" fill="#0" id="circle146"/>
	<circle cx="946.537" cy="67.2022" r="4" fill="#0" id="circle147"/>
	<circle cx="946.537" cy="80.9418" r="4" fill="#0" id="circle148"/>
	<circle cx="949.285" cy="94.6814" r="4" fill="#0" id="circle149"/>
	<circle cx="954.781" cy="156.51" r="4" fill="#0" id="circle150"/>
	<circle cx="957.529" cy="57.5845" r="4" fill="#0" id="circle151"/>
	<circle cx="960.277" cy="10.8698" r="4" fill="#0" id="circle152"/>
	<circle cx="960.277" cy="104.299" r="4" fill="#0" id="circle153"/>
	<circle cx="964.399" cy="43.8449" r="4" fill="#0" id="circle154"/>
	<circle cx="968.521" cy="156.51" r="4" fill="#0" id="circle155"/>
	<circle cx="969.895" cy="115.291" r="4" fill="#0" id="circle156"/>
	<circle cx="972.643" cy="4" r="4" fill="#0" id="circle157"/>
	<circle cx="974.017" cy="32.8532" r="4" fill="#0" id="circle158"/>
	<circle cx="980.886" cy="124.909" r="4" fill="#0" id="circle159"/>
	<circle cx="982.26" cy="156.51" r="4" fill="#0" id="circle160"/>
	<circle cx="985.008" cy="23.2355" r="4" fill="#0" id="circle161"/>
	<circle cx="986.382" cy="4" r="4" fill="#0" id="circle162"/>
	<circle cx="990.504" cy="135.9" r="4" fill="#0" id="circle163"/>
	<circle cx="996" cy="156.51" r="4" fill="#0" id="circle164"/>
	</g>
</svg>