<?xml version="1.0" encoding="UTF-8" standalone="no"?>
<!-- Created with CurveBenchmark -->
<svg
	xmlns:dc="http://purl.org/dc/elements/1.1/"
	xmlns:cc="http://creativecommons.org/ns#"
	xmlns:rdf="http://www.w3.org/1999/02/22-rdf-syntax-ns#"
	xmlns:svg="http://www.w3.org/2000/svg"
	xmlns="http://www.w3.org/2000/svg"
	xmlns:sodipodi="http://sodipodi.sourceforge.net/DTD/sodipodi-0.dtd"
	xmlns:inkscape="http://www.inkscape.org/namespaces/inkscape"
	width="1000"
	height="1000"
	id="svg2"
	version="1.1"
	sodipodi:docname="manifold/fitconnect-bird035.png.txt">
<defs
	id="defs4" />
<metadata
	id="metadata7">
	<rdf:RDF>
		<cc:Work
			rdf:about="">
			<dc:format>image/svg+xml</dc:format>
			<dc:type
				rdf:resource="http://purl.org/dc/dcmitype/StillImage" />
			<dc:title></dc:title>
		</cc:Work>
	</rdf:RDF>
</metadata>
<g
	inkscape:label="Layer 1"
	inkscape:groupmode="layer"
	id="layer1">
	<path style="fill:none;stroke:red;stroke-width:1px;stroke-linecap:butt;stroke-linejoin:miter;stroke-opacity:1" d="M 4,408.58 19.5608,354.118 z" id="boundary" inkscape:connector-curvature="0" />
	<path style="fill:none;stroke:red;stroke-width:1px;stroke-linecap:butt;stroke-linejoin:miter;stroke-opacity:1" d="M 4,408.58 39.0118,428.031 z" id="boundary" inkscape:connector-curvature="0" />
	<path style="fill:none;stroke:red;stroke-width:1px;stroke-linecap:butt;stroke-linejoin:miter;stroke-opacity:1" d="M 19.5608,354.118 35.1216,315.216 z" id="boundary" inkscape:connector-curvature="0" />
	<path style="fill:none;stroke:red;stroke-width:1px;stroke-linecap:butt;stroke-linejoin:miter;stroke-opacity:1" d="M 35.1216,315.216 58.4627,284.094 z" id="boundary" inkscape:connector-curvature="0" />
	<path style="fill:none;stroke:red;stroke-width:1px;stroke-linecap:butt;stroke-linejoin:miter;stroke-opacity:1" d="M 39.0118,428.031 77.9137,428.031 z" id="boundary" inkscape:connector-curvature="0" />
	<path style="fill:none;stroke:red;stroke-width:1px;stroke-linecap:butt;stroke-linejoin:miter;stroke-opacity:1" d="M 58.4627,284.094 77.9137,249.082 z" id="boundary" inkscape:connector-curvature="0" />
	<path style="fill:none;stroke:red;stroke-width:1px;stroke-linecap:butt;stroke-linejoin:miter;stroke-opacity:1" d="M 77.9137,249.082 101.255,217.961 z" id="boundary" inkscape:connector-curvature="0" />
	<path style="fill:none;stroke:red;stroke-width:1px;stroke-linecap:butt;stroke-linejoin:miter;stroke-opacity:1" d="M 77.9137,428.031 155.718,435.812 z" id="boundary" inkscape:connector-curvature="0" />
	<path style="fill:none;stroke:red;stroke-width:1px;stroke-linecap:butt;stroke-linejoin:miter;stroke-opacity:1" d="M 101.255,217.961 132.376,186.839 z" id="boundary" inkscape:connector-curvature="0" />
	<path style="fill:none;stroke:red;stroke-width:1px;stroke-linecap:butt;stroke-linejoin:miter;stroke-opacity:1" d="M 132.376,186.839 155.718,155.718 z" id="boundary" inkscape:connector-curvature="0" />
	<path style="fill:none;stroke:red;stroke-width:1px;stroke-linecap:butt;stroke-linejoin:miter;stroke-opacity:1" d="M 155.718,155.718 182.949,120.706 z" id="boundary" inkscape:connector-curvature="0" />
	<path style="fill:none;stroke:red;stroke-width:1px;stroke-linecap:butt;stroke-linejoin:miter;stroke-opacity:1" d="M 155.718,435.812 420.251,782.039 z" id="boundary" inkscape:connector-curvature="0" />
	<path style="fill:none;stroke:red;stroke-width:1px;stroke-linecap:butt;stroke-linejoin:miter;stroke-opacity:1" d="M 182.949,120.706 214.071,89.5843 z" id="boundary" inkscape:connector-curvature="0" />
	<path style="fill:none;stroke:red;stroke-width:1px;stroke-linecap:butt;stroke-linejoin:miter;stroke-opacity:1" d="M 214.071,89.5843 245.192,66.2431 z" id="boundary" inkscape:connector-curvature="0" />
	<path style="fill:none;stroke:red;stroke-width:1px;stroke-linecap:butt;stroke-linejoin:miter;stroke-opacity:1" d="M 245.192,66.2431 276.314,42.902 z" id="boundary" inkscape:connector-curvature="0" />
	<path style="fill:none;stroke:red;stroke-width:1px;stroke-linecap:butt;stroke-linejoin:miter;stroke-opacity:1" d="M 276.314,42.902 311.325,23.451 z" id="boundary" inkscape:connector-curvature="0" />
	<path style="fill:none;stroke:red;stroke-width:1px;stroke-linecap:butt;stroke-linejoin:miter;stroke-opacity:1" d="M 311.325,23.451 350.227,7.8902 z" id="boundary" inkscape:connector-curvature="0" />
	<path style="fill:none;stroke:red;stroke-width:1px;stroke-linecap:butt;stroke-linejoin:miter;stroke-opacity:1" d="M 350.227,7.8902 389.129,4 z" id="boundary" inkscape:connector-curvature="0" />
	<path style="fill:none;stroke:red;stroke-width:1px;stroke-linecap:butt;stroke-linejoin:miter;stroke-opacity:1" d="M 389.129,4 428.031,4 z" id="boundary" inkscape:connector-curvature="0" />
	<path style="fill:none;stroke:red;stroke-width:1px;stroke-linecap:butt;stroke-linejoin:miter;stroke-opacity:1" d="M 412.471,626.431 420.251,782.039 z" id="boundary" inkscape:connector-curvature="0" />
	<path style="fill:none;stroke:red;stroke-width:1px;stroke-linecap:butt;stroke-linejoin:miter;stroke-opacity:1" d="M 412.471,626.431 428.031,556.408 z" id="boundary" inkscape:connector-curvature="0" />
	<path style="fill:none;stroke:red;stroke-width:1px;stroke-linecap:butt;stroke-linejoin:miter;stroke-opacity:1" d="M 428.031,4 466.933,11.7804 z" id="boundary" inkscape:connector-curvature="0" />
	<path style="fill:none;stroke:red;stroke-width:1px;stroke-linecap:butt;stroke-linejoin:miter;stroke-opacity:1" d="M 428.031,556.408 443.592,494.165 z" id="boundary" inkscape:connector-curvature="0" />
	<path style="fill:none;stroke:red;stroke-width:1px;stroke-linecap:butt;stroke-linejoin:miter;stroke-opacity:1" d="M 443.592,494.165 466.933,377.459 z" id="boundary" inkscape:connector-curvature="0" />
	<path style="fill:none;stroke:red;stroke-width:1px;stroke-linecap:butt;stroke-linejoin:miter;stroke-opacity:1" d="M 466.933,11.7804 540.847,39.0118 z" id="boundary" inkscape:connector-curvature="0" />
	<path style="fill:none;stroke:red;stroke-width:1px;stroke-linecap:butt;stroke-linejoin:miter;stroke-opacity:1" d="M 466.933,377.459 482.494,291.875 z" id="boundary" inkscape:connector-curvature="0" />
	<path style="fill:none;stroke:red;stroke-width:1px;stroke-linecap:butt;stroke-linejoin:miter;stroke-opacity:1" d="M 482.494,291.875 529.176,953.208 z" id="boundary" inkscape:connector-curvature="0" />
	<path style="fill:none;stroke:red;stroke-width:1px;stroke-linecap:butt;stroke-linejoin:miter;stroke-opacity:1" d="M 529.176,953.208 669.224,354.118 z" id="boundary" inkscape:connector-curvature="0" />
	<path style="fill:none;stroke:red;stroke-width:1px;stroke-linecap:butt;stroke-linejoin:miter;stroke-opacity:1" d="M 540.847,39.0118 568.078,70.1333 z" id="boundary" inkscape:connector-curvature="0" />
	<path style="fill:none;stroke:red;stroke-width:1px;stroke-linecap:butt;stroke-linejoin:miter;stroke-opacity:1" d="M 568.078,70.1333 669.224,85.6941 z" id="boundary" inkscape:connector-curvature="0" />
	<path style="fill:none;stroke:red;stroke-width:1px;stroke-linecap:butt;stroke-linejoin:miter;stroke-opacity:1" d="M 669.224,85.6941 708.125,74.0235 z" id="boundary" inkscape:connector-curvature="0" />
	<path style="fill:none;stroke:red;stroke-width:1px;stroke-linecap:butt;stroke-linejoin:miter;stroke-opacity:1" d="M 669.224,354.118 692.565,299.655 z" id="boundary" inkscape:connector-curvature="0" />
	<path style="fill:none;stroke:red;stroke-width:1px;stroke-linecap:butt;stroke-linejoin:miter;stroke-opacity:1" d="M 692.565,229.631 692.565,299.655 z" id="boundary" inkscape:connector-curvature="0" />
	<path style="fill:none;stroke:red;stroke-width:1px;stroke-linecap:butt;stroke-linejoin:miter;stroke-opacity:1" d="M 692.565,229.631 731.467,194.62 z" id="boundary" inkscape:connector-curvature="0" />
	<path style="fill:none;stroke:red;stroke-width:1px;stroke-linecap:butt;stroke-linejoin:miter;stroke-opacity:1" d="M 708.125,74.0235 747.027,74.0235 z" id="boundary" inkscape:connector-curvature="0" />
	<path style="fill:none;stroke:red;stroke-width:1px;stroke-linecap:butt;stroke-linejoin:miter;stroke-opacity:1" d="M 731.467,194.62 766.478,214.071 z" id="boundary" inkscape:connector-curvature="0" />
	<path style="fill:none;stroke:red;stroke-width:1px;stroke-linecap:butt;stroke-linejoin:miter;stroke-opacity:1" d="M 747.027,74.0235 785.929,89.5843 z" id="boundary" inkscape:connector-curvature="0" />
	<path style="fill:none;stroke:red;stroke-width:1px;stroke-linecap:butt;stroke-linejoin:miter;stroke-opacity:1" d="M 766.478,214.071 801.49,233.522 z" id="boundary" inkscape:connector-curvature="0" />
	<path style="fill:none;stroke:red;stroke-width:1px;stroke-linecap:butt;stroke-linejoin:miter;stroke-opacity:1" d="M 785.929,89.5843 817.051,112.925 z" id="boundary" inkscape:connector-curvature="0" />
	<path style="fill:none;stroke:red;stroke-width:1px;stroke-linecap:butt;stroke-linejoin:miter;stroke-opacity:1" d="M 801.49,233.522 828.722,264.643 z" id="boundary" inkscape:connector-curvature="0" />
	<path style="fill:none;stroke:red;stroke-width:1px;stroke-linecap:butt;stroke-linejoin:miter;stroke-opacity:1" d="M 817.051,112.925 832.612,151.827 z" id="boundary" inkscape:connector-curvature="0" />
	<path style="fill:none;stroke:red;stroke-width:1px;stroke-linecap:butt;stroke-linejoin:miter;stroke-opacity:1" d="M 828.722,264.643 859.843,287.984 z" id="boundary" inkscape:connector-curvature="0" />
	<path style="fill:none;stroke:red;stroke-width:1px;stroke-linecap:butt;stroke-linejoin:miter;stroke-opacity:1" d="M 832.612,151.827 848.173,190.729 z" id="boundary" inkscape:connector-curvature="0" />
	<path style="fill:none;stroke:red;stroke-width:1px;stroke-linecap:butt;stroke-linejoin:miter;stroke-opacity:1" d="M 848.173,190.729 871.514,221.851 z" id="boundary" inkscape:connector-curvature="0" />
	<path style="fill:none;stroke:red;stroke-width:1px;stroke-linecap:butt;stroke-linejoin:miter;stroke-opacity:1" d="M 859.843,287.984 894.855,252.973 z" id="boundary" inkscape:connector-curvature="0" />
	<path style="fill:none;stroke:red;stroke-width:1px;stroke-linecap:butt;stroke-linejoin:miter;stroke-opacity:1" d="M 871.514,221.851 894.855,252.973 z" id="boundary" inkscape:connector-curvature="0" />
	<circle cx="4" cy="408.58" r="4" fill="#0" id="circle0"/>
	<circle cx="19.5608" cy="354.118" r="4" fill="#0" id="circle1"/>
	<circle cx="35.1216" cy="315.216" r="4" fill="#0" id="circle2"/>
	<circle cx="39.0118" cy="428.031" r="4" fill="#0" id="circle3"/>
	<circle cx="58.4627" cy="284.094" r="4" fill="#0" id="circle4"/>
	<circle cx="77.9137" cy="249.082" r="4" fill="#0" id="circle5"/>
	<circle cx="77.9137" cy="428.031" r="4" fill="#0" id="circle6"/>
	<circle cx="101.255" cy="217.961" r="4" fill="#0" id="circle7"/>
	<circle cx="116.816" cy="435.812" r="4" fill="#0" id="circle8"/>
	<circle cx="132.376" cy="186.839" r="4" fill="#0" id="circle9"/>
	<circle cx="155.718" cy="155.718" r="4" fill="#0" id="circle10"/>
	<circle cx="155.718" cy="435.812" r="4" fill="#0" id="circle11"/>
	<circle cx="182.949" cy="120.706" r="4" fill="#0" id="circle12"/>
	<circle cx="194.62" cy="424.141" r="4" fill="#0" id="circle13"/>
	<circle cx="214.071" cy="89.5843" r="4" fill="#0" id="circle14"/>
	<circle cx="233.522" cy="408.58" r="4" fill="#0" id="circle15"/>
	<circle cx="245.192" cy="66.2431" r="4" fill="#0" id="circle16"/>
	<circle cx="264.643" cy="385.239" r="4" fill="#0" id="circle17"/>
	<circle cx="276.314" cy="42.902" r="4" fill="#0" id="circle18"/>
	<circle cx="303.545" cy="373.569" r="4" fill="#0" id="circle19"/>
	<circle cx="307.435" cy="412.471" r="4" fill="#0" id="circle20"/>
	<circle cx="307.435" cy="451.373" r="4" fill="#0" id="circle21"/>
	<circle cx="307.435" cy="490.275" r="4" fill="#0" id="circle22"/>
	<circle cx="307.435" cy="529.176" r="4" fill="#0" id="circle23"/>
	<circle cx="307.435" cy="568.078" r="4" fill="#0" id="circle24"/>
	<circle cx="307.435" cy="606.98" r="4" fill="#0" id="circle25"/>
	<circle cx="307.435" cy="645.882" r="4" fill="#0" id="circle26"/>
	<circle cx="307.435" cy="684.784" r="4" fill="#0" id="circle27"/>
	<circle cx="311.325" cy="23.451" r="4" fill="#0" id="circle28"/>
	<circle cx="315.216" cy="723.686" r="4" fill="#0" id="circle29"/>
	<circle cx="315.216" cy="762.588" r="4" fill="#0" id="circle30"/>
	<circle cx="322.996" cy="801.49" r="4" fill="#0" id="circle31"/>
	<circle cx="322.996" cy="840.392" r="4" fill="#0" id="circle32"/>
	<circle cx="330.776" cy="879.294" r="4" fill="#0" id="circle33"/>
	<circle cx="338.557" cy="918.196" r="4" fill="#0" id="circle34"/>
	<circle cx="338.557" cy="957.098" r="4" fill="#0" id="circle35"/>
	<circle cx="350.227" cy="7.8902" r="4" fill="#0" id="circle36"/>
	<circle cx="354.118" cy="996" r="4" fill="#0" id="circle37"/>
	<circle cx="358.008" cy="603.09" r="4" fill="#0" id="circle38"/>
	<circle cx="358.008" cy="704.235" r="4" fill="#0" id="circle39"/>
	<circle cx="358.008" cy="743.137" r="4" fill="#0" id="circle40"/>
	<circle cx="365.788" cy="782.039" r="4" fill="#0" id="circle41"/>
	<circle cx="369.678" cy="820.941" r="4" fill="#0" id="circle42"/>
	<circle cx="373.569" cy="859.843" r="4" fill="#0" id="circle43"/>
	<circle cx="381.349" cy="898.745" r="4" fill="#0" id="circle44"/>
	<circle cx="385.239" cy="937.647" r="4" fill="#0" id="circle45"/>
	<circle cx="389.129" cy="4" r="4" fill="#0" id="circle46"/>
	<circle cx="393.02" cy="996" r="4" fill="#0" id="circle47"/>
	<circle cx="412.471" cy="626.431" r="4" fill="#0" id="circle48"/>
	<circle cx="412.471" cy="665.333" r="4" fill="#0" id="circle49"/>
	<circle cx="412.471" cy="704.235" r="4" fill="#0" id="circle50"/>
	<circle cx="420.251" cy="743.137" r="4" fill="#0" id="circle51"/>
	<circle cx="420.251" cy="782.039" r="4" fill="#0" id="circle52"/>
	<circle cx="428.031" cy="4" r="4" fill="#0" id="circle53"/>
	<circle cx="428.031" cy="556.408" r="4" fill="#0" id="circle54"/>
	<circle cx="428.031" cy="820.941" r="4" fill="#0" id="circle55"/>
	<circle cx="431.922" cy="996" r="4" fill="#0" id="circle56"/>
	<circle cx="435.812" cy="859.843" r="4" fill="#0" id="circle57"/>
	<circle cx="439.702" cy="898.745" r="4" fill="#0" id="circle58"/>
	<circle cx="443.592" cy="494.165" r="4" fill="#0" id="circle59"/>
	<circle cx="443.592" cy="937.647" r="4" fill="#0" id="circle60"/>
	<circle cx="451.373" cy="455.263" r="4" fill="#0" id="circle61"/>
	<circle cx="459.153" cy="416.361" r="4" fill="#0" id="circle62"/>
	<circle cx="466.933" cy="11.7804" r="4" fill="#0" id="circle63"/>
	<circle cx="466.933" cy="377.459" r="4" fill="#0" id="circle64"/>
	<circle cx="470.824" cy="996" r="4" fill="#0" id="circle65"/>
	<circle cx="474.714" cy="330.776" r="4" fill="#0" id="circle66"/>
	<circle cx="482.494" cy="291.875" r="4" fill="#0" id="circle67"/>
	<circle cx="482.494" cy="945.427" r="4" fill="#0" id="circle68"/>
	<circle cx="501.945" cy="256.863" r="4" fill="#0" id="circle69"/>
	<circle cx="505.835" cy="19.5608" r="4" fill="#0" id="circle70"/>
	<circle cx="509.725" cy="988.22" r="4" fill="#0" id="circle71"/>
	<circle cx="525.286" cy="225.741" r="4" fill="#0" id="circle72"/>
	<circle cx="529.176" cy="953.208" r="4" fill="#0" id="circle73"/>
	<circle cx="540.847" cy="39.0118" r="4" fill="#0" id="circle74"/>
	<circle cx="540.847" cy="264.643" r="4" fill="#0" id="circle75"/>
	<circle cx="548.627" cy="303.545" r="4" fill="#0" id="circle76"/>
	<circle cx="548.627" cy="988.22" r="4" fill="#0" id="circle77"/>
	<circle cx="564.188" cy="342.447" r="4" fill="#0" id="circle78"/>
	<circle cx="568.078" cy="70.1333" r="4" fill="#0" id="circle79"/>
	<circle cx="591.42" cy="101.255" r="4" fill="#0" id="circle80"/>
	<circle cx="595.31" cy="369.678" r="4" fill="#0" id="circle81"/>
	<circle cx="606.98" cy="140.157" r="4" fill="#0" id="circle82"/>
	<circle cx="634.212" cy="373.569" r="4" fill="#0" id="circle83"/>
	<circle cx="638.102" cy="116.816" r="4" fill="#0" id="circle84"/>
	<circle cx="669.224" cy="85.6941" r="4" fill="#0" id="circle85"/>
	<circle cx="669.224" cy="354.118" r="4" fill="#0" id="circle86"/>
	<circle cx="692.565" cy="190.729" r="4" fill="#0" id="circle87"/>
	<circle cx="692.565" cy="229.631" r="4" fill="#0" id="circle88"/>
	<circle cx="692.565" cy="299.655" r="4" fill="#0" id="circle89"/>
	<circle cx="708.125" cy="74.0235" r="4" fill="#0" id="circle90"/>
	<circle cx="731.467" cy="194.62" r="4" fill="#0" id="circle91"/>
	<circle cx="747.027" cy="74.0235" r="4" fill="#0" id="circle92"/>
	<circle cx="766.478" cy="214.071" r="4" fill="#0" id="circle93"/>
	<circle cx="785.929" cy="89.5843" r="4" fill="#0" id="circle94"/>
	<circle cx="801.49" cy="233.522" r="4" fill="#0" id="circle95"/>
	<circle cx="817.051" cy="112.925" r="4" fill="#0" id="circle96"/>
	<circle cx="828.722" cy="264.643" r="4" fill="#0" id="circle97"/>
	<circle cx="832.612" cy="151.827" r="4" fill="#0" id="circle98"/>
	<circle cx="848.173" cy="190.729" r="4" fill="#0" id="circle99"/>
	<circle cx="859.843" cy="287.984" r="4" fill="#0" id="circle100"/>
	<circle cx="871.514" cy="221.851" r="4" fill="#0" id="circle101"/>
	<circle cx="894.855" cy="252.973" r="4" fill="#0" id="circle102"/>
	</g>
</svg>