<?xml version="1.0" encoding="UTF-8" standalone="no"?>
<!-- Created with CurveBenchmark -->
<svg
	xmlns:dc="http://purl.org/dc/elements/1.1/"
	xmlns:cc="http://creativecommons.org/ns#"
	xmlns:rdf="http://www.w3.org/1999/02/22-rdf-syntax-ns#"
	xmlns:svg="http://www.w3.org/2000/svg"
	xmlns="http://www.w3.org/2000/svg"
	xmlns:sodipodi="http://sodipodi.sourceforge.net/DTD/sodipodi-0.dtd"
	xmlns:inkscape="http://www.inkscape.org/namespaces/inkscape"
	width="1000"
	height="1000"
	id="svg2"
	version="1.1"
	sodipodi:docname="manifold/fitconnect-sink345.png.txt">
<defs
	id="defs4" />
<metadata
	id="metadata7">
	<rdf:RDF>
		<cc:Work
			rdf:about="">
			<dc:format>image/svg+xml</dc:format>
			<dc:type
				rdf:resource="http://purl.org/dc/dcmitype/StillImage" />
			<dc:title></dc:title>
		</cc:Work>
	</rdf:RDF>
</metadata>
<g
	inkscape:label="Layer 1"
	inkscape:groupmode="layer"
	id="layer1">
	<path style="fill:none;stroke:red;stroke-width:1px;stroke-linecap:butt;stroke-linejoin:miter;stroke-opacity:1" d="M 4,304.02 13.678,216.917 z" id="boundary" inkscape:connector-curvature="0" />
	<path style="fill:none;stroke:red;stroke-width:1px;stroke-linecap:butt;stroke-linejoin:miter;stroke-opacity:1" d="M 13.678,168.527 13.678,216.917 z" id="boundary" inkscape:connector-curvature="0" />
	<path style="fill:none;stroke:red;stroke-width:1px;stroke-linecap:butt;stroke-linejoin:miter;stroke-opacity:1" d="M 226.595,357.249 255.629,168.527 z" id="boundary" inkscape:connector-curvature="0" />
	<path style="fill:none;stroke:red;stroke-width:1px;stroke-linecap:butt;stroke-linejoin:miter;stroke-opacity:1" d="M 226.595,357.249 337.893,454.029 z" id="boundary" inkscape:connector-curvature="0" />
	<path style="fill:none;stroke:red;stroke-width:1px;stroke-linecap:butt;stroke-linejoin:miter;stroke-opacity:1" d="M 255.629,168.527 357.249,168.527 z" id="boundary" inkscape:connector-curvature="0" />
	<path style="fill:none;stroke:red;stroke-width:1px;stroke-linecap:butt;stroke-linejoin:miter;stroke-opacity:1" d="M 337.893,454.029 570.166,865.346 z" id="boundary" inkscape:connector-curvature="0" />
	<path style="fill:none;stroke:red;stroke-width:1px;stroke-linecap:butt;stroke-linejoin:miter;stroke-opacity:1" d="M 342.732,952.449 415.317,996 z" id="boundary" inkscape:connector-curvature="0" />
	<path style="fill:none;stroke:red;stroke-width:1px;stroke-linecap:butt;stroke-linejoin:miter;stroke-opacity:1" d="M 357.249,168.527 454.029,168.527 z" id="boundary" inkscape:connector-curvature="0" />
	<path style="fill:none;stroke:red;stroke-width:1px;stroke-linecap:butt;stroke-linejoin:miter;stroke-opacity:1" d="M 415.317,996 512.098,996 z" id="boundary" inkscape:connector-curvature="0" />
	<path style="fill:none;stroke:red;stroke-width:1px;stroke-linecap:butt;stroke-linejoin:miter;stroke-opacity:1" d="M 454.029,168.527 550.81,168.527 z" id="boundary" inkscape:connector-curvature="0" />
	<path style="fill:none;stroke:red;stroke-width:1px;stroke-linecap:butt;stroke-linejoin:miter;stroke-opacity:1" d="M 550.81,168.527 623.395,212.078 z" id="boundary" inkscape:connector-curvature="0" />
	<path style="fill:none;stroke:red;stroke-width:1px;stroke-linecap:butt;stroke-linejoin:miter;stroke-opacity:1" d="M 570.166,865.346 623.395,212.078 z" id="boundary" inkscape:connector-curvature="0" />
	<circle cx="4" cy="304.02" r="4" fill="#0" id="circle0"/>
	<circle cx="13.678" cy="168.527" r="4" fill="#0" id="circle1"/>
	<circle cx="13.678" cy="216.917" r="4" fill="#0" id="circle2"/>
	<circle cx="52.3902" cy="318.537" r="4" fill="#0" id="circle3"/>
	<circle cx="62.0683" cy="168.527" r="4" fill="#0" id="circle4"/>
	<circle cx="100.78" cy="318.537" r="4" fill="#0" id="circle5"/>
	<circle cx="110.459" cy="168.527" r="4" fill="#0" id="circle6"/>
	<circle cx="149.171" cy="318.537" r="4" fill="#0" id="circle7"/>
	<circle cx="158.849" cy="168.527" r="4" fill="#0" id="circle8"/>
	<circle cx="197.561" cy="318.537" r="4" fill="#0" id="circle9"/>
	<circle cx="207.239" cy="168.527" r="4" fill="#0" id="circle10"/>
	<circle cx="226.595" cy="357.249" r="4" fill="#0" id="circle11"/>
	<circle cx="250.79" cy="400.8" r="4" fill="#0" id="circle12"/>
	<circle cx="255.629" cy="168.527" r="4" fill="#0" id="circle13"/>
	<circle cx="274.985" cy="62.0683" r="4" fill="#0" id="circle14"/>
	<circle cx="274.985" cy="110.459" r="4" fill="#0" id="circle15"/>
	<circle cx="289.502" cy="434.673" r="4" fill="#0" id="circle16"/>
	<circle cx="304.02" cy="23.3561" r="4" fill="#0" id="circle17"/>
	<circle cx="308.859" cy="149.171" r="4" fill="#0" id="circle18"/>
	<circle cx="337.893" cy="454.029" r="4" fill="#0" id="circle19"/>
	<circle cx="342.732" cy="952.449" r="4" fill="#0" id="circle20"/>
	<circle cx="352.41" cy="4" r="4" fill="#0" id="circle21"/>
	<circle cx="357.249" cy="168.527" r="4" fill="#0" id="circle22"/>
	<circle cx="366.927" cy="996" r="4" fill="#0" id="circle23"/>
	<circle cx="371.766" cy="904.059" r="4" fill="#0" id="circle24"/>
	<circle cx="376.605" cy="47.5512" r="4" fill="#0" id="circle25"/>
	<circle cx="386.283" cy="463.707" r="4" fill="#0" id="circle26"/>
	<circle cx="395.961" cy="860.507" r="4" fill="#0" id="circle27"/>
	<circle cx="400.8" cy="512.098" r="4" fill="#0" id="circle28"/>
	<circle cx="400.8" cy="560.488" r="4" fill="#0" id="circle29"/>
	<circle cx="400.8" cy="608.878" r="4" fill="#0" id="circle30"/>
	<circle cx="400.8" cy="657.268" r="4" fill="#0" id="circle31"/>
	<circle cx="400.8" cy="705.659" r="4" fill="#0" id="circle32"/>
	<circle cx="400.8" cy="754.049" r="4" fill="#0" id="circle33"/>
	<circle cx="400.8" cy="802.439" r="4" fill="#0" id="circle34"/>
	<circle cx="405.639" cy="86.2634" r="4" fill="#0" id="circle35"/>
	<circle cx="405.639" cy="168.527" r="4" fill="#0" id="circle36"/>
	<circle cx="415.317" cy="996" r="4" fill="#0" id="circle37"/>
	<circle cx="454.029" cy="168.527" r="4" fill="#0" id="circle38"/>
	<circle cx="463.707" cy="996" r="4" fill="#0" id="circle39"/>
	<circle cx="502.42" cy="168.527" r="4" fill="#0" id="circle40"/>
	<circle cx="512.098" cy="996" r="4" fill="#0" id="circle41"/>
	<circle cx="550.81" cy="168.527" r="4" fill="#0" id="circle42"/>
	<circle cx="560.488" cy="996" r="4" fill="#0" id="circle43"/>
	<circle cx="570.166" cy="429.834" r="4" fill="#0" id="circle44"/>
	<circle cx="570.166" cy="478.224" r="4" fill="#0" id="circle45"/>
	<circle cx="570.166" cy="526.615" r="4" fill="#0" id="circle46"/>
	<circle cx="570.166" cy="575.005" r="4" fill="#0" id="circle47"/>
	<circle cx="570.166" cy="623.395" r="4" fill="#0" id="circle48"/>
	<circle cx="570.166" cy="671.785" r="4" fill="#0" id="circle49"/>
	<circle cx="570.166" cy="720.176" r="4" fill="#0" id="circle50"/>
	<circle cx="570.166" cy="768.566" r="4" fill="#0" id="circle51"/>
	<circle cx="570.166" cy="816.956" r="4" fill="#0" id="circle52"/>
	<circle cx="570.166" cy="865.346" r="4" fill="#0" id="circle53"/>
	<circle cx="589.522" cy="913.737" r="4" fill="#0" id="circle54"/>
	<circle cx="599.2" cy="168.527" r="4" fill="#0" id="circle55"/>
	<circle cx="608.878" cy="391.122" r="4" fill="#0" id="circle56"/>
	<circle cx="608.878" cy="996" r="4" fill="#0" id="circle57"/>
	<circle cx="623.395" cy="212.078" r="4" fill="#0" id="circle58"/>
	<circle cx="637.912" cy="342.732" r="4" fill="#0" id="circle59"/>
	<circle cx="647.59" cy="255.629" r="4" fill="#0" id="circle60"/>
	<circle cx="681.463" cy="318.537" r="4" fill="#0" id="circle61"/>
	<circle cx="695.98" cy="265.307" r="4" fill="#0" id="circle62"/>
	<circle cx="729.854" cy="318.537" r="4" fill="#0" id="circle63"/>
	<circle cx="744.371" cy="265.307" r="4" fill="#0" id="circle64"/>
	<circle cx="778.244" cy="318.537" r="4" fill="#0" id="circle65"/>
	<circle cx="792.761" cy="265.307" r="4" fill="#0" id="circle66"/>
	</g>
</svg>