<?xml version="1.0" encoding="UTF-8" standalone="no"?>
<!-- Created with CurveBenchmark -->
<svg
	xmlns:dc="http://purl.org/dc/elements/1.1/"
	xmlns:cc="http://creativecommons.org/ns#"
	xmlns:rdf="http://www.w3.org/1999/02/22-rdf-syntax-ns#"
	xmlns:svg="http://www.w3.org/2000/svg"
	xmlns="http://www.w3.org/2000/svg"
	xmlns:sodipodi="http://sodipodi.sourceforge.net/DTD/sodipodi-0.dtd"
	xmlns:inkscape="http://www.inkscape.org/namespaces/inkscape"
	width="1000"
	height="1000"
	id="svg2"
	version="1.1"
	sodipodi:docname="manifold/fitconnect-cthand03.png.txt">
<defs
	id="defs4" />
<metadata
	id="metadata7">
	<rdf:RDF>
		<cc:Work
			rdf:about="">
			<dc:format>image/svg+xml</dc:format>
			<dc:type
				rdf:resource="http://purl.org/dc/dcmitype/StillImage" />
			<dc:title></dc:title>
		</cc:Work>
	</rdf:RDF>
</metadata>
<g
	inkscape:label="Layer 1"
	inkscape:groupmode="layer"
	id="layer1">
	<path style="fill:none;stroke:red;stroke-width:1px;stroke-linecap:butt;stroke-linejoin:miter;stroke-opacity:1" d="M 4,286.055 12.0129,270.029 z" id="boundary" inkscape:connector-curvature="0" />
	<path style="fill:none;stroke:red;stroke-width:1px;stroke-linecap:butt;stroke-linejoin:miter;stroke-opacity:1" d="M 4,286.055 12.0129,300.478 z" id="boundary" inkscape:connector-curvature="0" />
	<path style="fill:none;stroke:red;stroke-width:1px;stroke-linecap:butt;stroke-linejoin:miter;stroke-opacity:1" d="M 12.0129,270.029 20.0258,254.003 z" id="boundary" inkscape:connector-curvature="0" />
	<path style="fill:none;stroke:red;stroke-width:1px;stroke-linecap:butt;stroke-linejoin:miter;stroke-opacity:1" d="M 12.0129,300.478 12.0129,316.504 z" id="boundary" inkscape:connector-curvature="0" />
	<path style="fill:none;stroke:red;stroke-width:1px;stroke-linecap:butt;stroke-linejoin:miter;stroke-opacity:1" d="M 12.0129,316.504 12.0129,332.53 z" id="boundary" inkscape:connector-curvature="0" />
	<path style="fill:none;stroke:red;stroke-width:1px;stroke-linecap:butt;stroke-linejoin:miter;stroke-opacity:1" d="M 12.0129,332.53 20.0258,346.953 z" id="boundary" inkscape:connector-curvature="0" />
	<path style="fill:none;stroke:red;stroke-width:1px;stroke-linecap:butt;stroke-linejoin:miter;stroke-opacity:1" d="M 20.0258,254.003 28.0388,229.964 z" id="boundary" inkscape:connector-curvature="0" />
	<path style="fill:none;stroke:red;stroke-width:1px;stroke-linecap:butt;stroke-linejoin:miter;stroke-opacity:1" d="M 20.0258,346.953 20.0258,362.979 z" id="boundary" inkscape:connector-curvature="0" />
	<path style="fill:none;stroke:red;stroke-width:1px;stroke-linecap:butt;stroke-linejoin:miter;stroke-opacity:1" d="M 20.0258,362.979 28.0388,377.402 z" id="boundary" inkscape:connector-curvature="0" />
	<path style="fill:none;stroke:red;stroke-width:1px;stroke-linecap:butt;stroke-linejoin:miter;stroke-opacity:1" d="M 28.0388,229.964 44.0646,236.375 z" id="boundary" inkscape:connector-curvature="0" />
	<path style="fill:none;stroke:red;stroke-width:1px;stroke-linecap:butt;stroke-linejoin:miter;stroke-opacity:1" d="M 28.0388,377.402 28.0388,393.428 z" id="boundary" inkscape:connector-curvature="0" />
	<path style="fill:none;stroke:red;stroke-width:1px;stroke-linecap:butt;stroke-linejoin:miter;stroke-opacity:1" d="M 28.0388,393.428 28.0388,409.454 z" id="boundary" inkscape:connector-curvature="0" />
	<path style="fill:none;stroke:red;stroke-width:1px;stroke-linecap:butt;stroke-linejoin:miter;stroke-opacity:1" d="M 28.0388,409.454 36.0517,423.877 z" id="boundary" inkscape:connector-curvature="0" />
	<path style="fill:none;stroke:red;stroke-width:1px;stroke-linecap:butt;stroke-linejoin:miter;stroke-opacity:1" d="M 36.0517,423.877 37.6543,439.903 z" id="boundary" inkscape:connector-curvature="0" />
	<path style="fill:none;stroke:red;stroke-width:1px;stroke-linecap:butt;stroke-linejoin:miter;stroke-opacity:1" d="M 37.6543,439.903 50.475,451.121 z" id="boundary" inkscape:connector-curvature="0" />
	<path style="fill:none;stroke:red;stroke-width:1px;stroke-linecap:butt;stroke-linejoin:miter;stroke-opacity:1" d="M 44.0646,236.375 53.6801,249.195 z" id="boundary" inkscape:connector-curvature="0" />
	<path style="fill:none;stroke:red;stroke-width:1px;stroke-linecap:butt;stroke-linejoin:miter;stroke-opacity:1" d="M 50.475,451.121 52.0775,467.147 z" id="boundary" inkscape:connector-curvature="0" />
	<path style="fill:none;stroke:red;stroke-width:1px;stroke-linecap:butt;stroke-linejoin:miter;stroke-opacity:1" d="M 52.0775,467.147 60.0905,481.57 z" id="boundary" inkscape:connector-curvature="0" />
	<path style="fill:none;stroke:red;stroke-width:1px;stroke-linecap:butt;stroke-linejoin:miter;stroke-opacity:1" d="M 53.6801,249.195 69.706,254.003 z" id="boundary" inkscape:connector-curvature="0" />
	<path style="fill:none;stroke:red;stroke-width:1px;stroke-linecap:butt;stroke-linejoin:miter;stroke-opacity:1" d="M 60.0905,481.57 68.1034,495.994 z" id="boundary" inkscape:connector-curvature="0" />
	<path style="fill:none;stroke:red;stroke-width:1px;stroke-linecap:butt;stroke-linejoin:miter;stroke-opacity:1" d="M 68.1034,495.994 68.1034,512.019 z" id="boundary" inkscape:connector-curvature="0" />
	<path style="fill:none;stroke:red;stroke-width:1px;stroke-linecap:butt;stroke-linejoin:miter;stroke-opacity:1" d="M 68.1034,512.019 76.1163,526.443 z" id="boundary" inkscape:connector-curvature="0" />
	<path style="fill:none;stroke:red;stroke-width:1px;stroke-linecap:butt;stroke-linejoin:miter;stroke-opacity:1" d="M 69.706,254.003 76.1163,270.029 z" id="boundary" inkscape:connector-curvature="0" />
	<path style="fill:none;stroke:red;stroke-width:1px;stroke-linecap:butt;stroke-linejoin:miter;stroke-opacity:1" d="M 76.1163,270.029 77.7189,286.055 z" id="boundary" inkscape:connector-curvature="0" />
	<path style="fill:none;stroke:red;stroke-width:1px;stroke-linecap:butt;stroke-linejoin:miter;stroke-opacity:1" d="M 76.1163,526.443 76.1163,542.468 z" id="boundary" inkscape:connector-curvature="0" />
	<path style="fill:none;stroke:red;stroke-width:1px;stroke-linecap:butt;stroke-linejoin:miter;stroke-opacity:1" d="M 76.1163,542.468 84.1292,556.892 z" id="boundary" inkscape:connector-curvature="0" />
	<path style="fill:none;stroke:red;stroke-width:1px;stroke-linecap:butt;stroke-linejoin:miter;stroke-opacity:1" d="M 77.7189,286.055 85.7318,300.478 z" id="boundary" inkscape:connector-curvature="0" />
	<path style="fill:none;stroke:red;stroke-width:1px;stroke-linecap:butt;stroke-linejoin:miter;stroke-opacity:1" d="M 84.1292,556.892 92.1422,571.315 z" id="boundary" inkscape:connector-curvature="0" />
	<path style="fill:none;stroke:red;stroke-width:1px;stroke-linecap:butt;stroke-linejoin:miter;stroke-opacity:1" d="M 85.7318,300.478 90.5396,316.504 z" id="boundary" inkscape:connector-curvature="0" />
	<path style="fill:none;stroke:red;stroke-width:1px;stroke-linecap:butt;stroke-linejoin:miter;stroke-opacity:1" d="M 90.5396,316.504 93.7447,332.53 z" id="boundary" inkscape:connector-curvature="0" />
	<path style="fill:none;stroke:red;stroke-width:1px;stroke-linecap:butt;stroke-linejoin:miter;stroke-opacity:1" d="M 92.1422,571.315 92.1422,587.341 z" id="boundary" inkscape:connector-curvature="0" />
	<path style="fill:none;stroke:red;stroke-width:1px;stroke-linecap:butt;stroke-linejoin:miter;stroke-opacity:1" d="M 92.1422,587.341 100.155,601.764 z" id="boundary" inkscape:connector-curvature="0" />
	<path style="fill:none;stroke:red;stroke-width:1px;stroke-linecap:butt;stroke-linejoin:miter;stroke-opacity:1" d="M 93.7447,332.53 101.758,346.953 z" id="boundary" inkscape:connector-curvature="0" />
	<path style="fill:none;stroke:red;stroke-width:1px;stroke-linecap:butt;stroke-linejoin:miter;stroke-opacity:1" d="M 100.155,601.764 100.155,617.79 z" id="boundary" inkscape:connector-curvature="0" />
	<path style="fill:none;stroke:red;stroke-width:1px;stroke-linecap:butt;stroke-linejoin:miter;stroke-opacity:1" d="M 100.155,617.79 100.155,633.816 z" id="boundary" inkscape:connector-curvature="0" />
	<path style="fill:none;stroke:red;stroke-width:1px;stroke-linecap:butt;stroke-linejoin:miter;stroke-opacity:1" d="M 100.155,633.816 100.155,649.842 z" id="boundary" inkscape:connector-curvature="0" />
	<path style="fill:none;stroke:red;stroke-width:1px;stroke-linecap:butt;stroke-linejoin:miter;stroke-opacity:1" d="M 100.155,649.842 103.36,665.868 z" id="boundary" inkscape:connector-curvature="0" />
	<path style="fill:none;stroke:red;stroke-width:1px;stroke-linecap:butt;stroke-linejoin:miter;stroke-opacity:1" d="M 101.758,346.953 101.758,362.979 z" id="boundary" inkscape:connector-curvature="0" />
	<path style="fill:none;stroke:red;stroke-width:1px;stroke-linecap:butt;stroke-linejoin:miter;stroke-opacity:1" d="M 101.758,362.979 104.963,379.005 z" id="boundary" inkscape:connector-curvature="0" />
	<path style="fill:none;stroke:red;stroke-width:1px;stroke-linecap:butt;stroke-linejoin:miter;stroke-opacity:1" d="M 103.36,665.868 108.168,681.893 z" id="boundary" inkscape:connector-curvature="0" />
	<path style="fill:none;stroke:red;stroke-width:1px;stroke-linecap:butt;stroke-linejoin:miter;stroke-opacity:1" d="M 104.963,379.005 117.784,390.223 z" id="boundary" inkscape:connector-curvature="0" />
	<path style="fill:none;stroke:red;stroke-width:1px;stroke-linecap:butt;stroke-linejoin:miter;stroke-opacity:1" d="M 108.168,681.893 108.168,697.919 z" id="boundary" inkscape:connector-curvature="0" />
	<path style="fill:none;stroke:red;stroke-width:1px;stroke-linecap:butt;stroke-linejoin:miter;stroke-opacity:1" d="M 108.168,697.919 108.168,713.945 z" id="boundary" inkscape:connector-curvature="0" />
	<path style="fill:none;stroke:red;stroke-width:1px;stroke-linecap:butt;stroke-linejoin:miter;stroke-opacity:1" d="M 108.168,713.945 116.181,728.368 z" id="boundary" inkscape:connector-curvature="0" />
	<path style="fill:none;stroke:red;stroke-width:1px;stroke-linecap:butt;stroke-linejoin:miter;stroke-opacity:1" d="M 116.181,728.368 116.181,744.394 z" id="boundary" inkscape:connector-curvature="0" />
	<path style="fill:none;stroke:red;stroke-width:1px;stroke-linecap:butt;stroke-linejoin:miter;stroke-opacity:1" d="M 116.181,744.394 117.784,760.42 z" id="boundary" inkscape:connector-curvature="0" />
	<path style="fill:none;stroke:red;stroke-width:1px;stroke-linecap:butt;stroke-linejoin:miter;stroke-opacity:1" d="M 117.784,390.223 117.784,406.249 z" id="boundary" inkscape:connector-curvature="0" />
	<path style="fill:none;stroke:red;stroke-width:1px;stroke-linecap:butt;stroke-linejoin:miter;stroke-opacity:1" d="M 117.784,406.249 129.002,419.069 z" id="boundary" inkscape:connector-curvature="0" />
	<path style="fill:none;stroke:red;stroke-width:1px;stroke-linecap:butt;stroke-linejoin:miter;stroke-opacity:1" d="M 117.784,760.42 124.194,776.446 z" id="boundary" inkscape:connector-curvature="0" />
	<path style="fill:none;stroke:red;stroke-width:1px;stroke-linecap:butt;stroke-linejoin:miter;stroke-opacity:1" d="M 124.194,776.446 125.796,792.472 z" id="boundary" inkscape:connector-curvature="0" />
	<path style="fill:none;stroke:red;stroke-width:1px;stroke-linecap:butt;stroke-linejoin:miter;stroke-opacity:1" d="M 125.796,792.472 132.207,808.498 z" id="boundary" inkscape:connector-curvature="0" />
	<path style="fill:none;stroke:red;stroke-width:1px;stroke-linecap:butt;stroke-linejoin:miter;stroke-opacity:1" d="M 129.002,419.069 133.809,435.095 z" id="boundary" inkscape:connector-curvature="0" />
	<path style="fill:none;stroke:red;stroke-width:1px;stroke-linecap:butt;stroke-linejoin:miter;stroke-opacity:1" d="M 132.207,808.498 132.207,824.523 z" id="boundary" inkscape:connector-curvature="0" />
	<path style="fill:none;stroke:red;stroke-width:1px;stroke-linecap:butt;stroke-linejoin:miter;stroke-opacity:1" d="M 132.207,824.523 132.207,840.549 z" id="boundary" inkscape:connector-curvature="0" />
	<path style="fill:none;stroke:red;stroke-width:1px;stroke-linecap:butt;stroke-linejoin:miter;stroke-opacity:1" d="M 132.207,840.549 133.809,856.575 z" id="boundary" inkscape:connector-curvature="0" />
	<path style="fill:none;stroke:red;stroke-width:1px;stroke-linecap:butt;stroke-linejoin:miter;stroke-opacity:1" d="M 132.207,967.153 132.207,983.179 z" id="boundary" inkscape:connector-curvature="0" />
	<path style="fill:none;stroke:red;stroke-width:1px;stroke-linecap:butt;stroke-linejoin:miter;stroke-opacity:1" d="M 132.207,967.153 140.22,951.128 z" id="boundary" inkscape:connector-curvature="0" />
	<path style="fill:none;stroke:red;stroke-width:1px;stroke-linecap:butt;stroke-linejoin:miter;stroke-opacity:1" d="M 132.207,983.179 148.233,987.987 z" id="boundary" inkscape:connector-curvature="0" />
	<path style="fill:none;stroke:red;stroke-width:1px;stroke-linecap:butt;stroke-linejoin:miter;stroke-opacity:1" d="M 133.809,435.095 137.015,451.121 z" id="boundary" inkscape:connector-curvature="0" />
	<path style="fill:none;stroke:red;stroke-width:1px;stroke-linecap:butt;stroke-linejoin:miter;stroke-opacity:1" d="M 133.809,856.575 140.22,872.601 z" id="boundary" inkscape:connector-curvature="0" />
	<path style="fill:none;stroke:red;stroke-width:1px;stroke-linecap:butt;stroke-linejoin:miter;stroke-opacity:1" d="M 137.015,451.121 153.04,457.532 z" id="boundary" inkscape:connector-curvature="0" />
	<path style="fill:none;stroke:red;stroke-width:1px;stroke-linecap:butt;stroke-linejoin:miter;stroke-opacity:1" d="M 140.22,872.601 148.233,887.024 z" id="boundary" inkscape:connector-curvature="0" />
	<path style="fill:none;stroke:red;stroke-width:1px;stroke-linecap:butt;stroke-linejoin:miter;stroke-opacity:1" d="M 140.22,951.128 148.233,935.102 z" id="boundary" inkscape:connector-curvature="0" />
	<path style="fill:none;stroke:red;stroke-width:1px;stroke-linecap:butt;stroke-linejoin:miter;stroke-opacity:1" d="M 148.233,887.024 148.233,903.05 z" id="boundary" inkscape:connector-curvature="0" />
	<path style="fill:none;stroke:red;stroke-width:1px;stroke-linecap:butt;stroke-linejoin:miter;stroke-opacity:1" d="M 148.233,903.05 156.246,917.473 z" id="boundary" inkscape:connector-curvature="0" />
	<path style="fill:none;stroke:red;stroke-width:1px;stroke-linecap:butt;stroke-linejoin:miter;stroke-opacity:1" d="M 148.233,935.102 156.246,917.473 z" id="boundary" inkscape:connector-curvature="0" />
	<path style="fill:none;stroke:red;stroke-width:1px;stroke-linecap:butt;stroke-linejoin:miter;stroke-opacity:1" d="M 148.233,987.987 164.258,987.987 z" id="boundary" inkscape:connector-curvature="0" />
	<path style="fill:none;stroke:red;stroke-width:1px;stroke-linecap:butt;stroke-linejoin:miter;stroke-opacity:1" d="M 153.04,457.532 164.258,470.352 z" id="boundary" inkscape:connector-curvature="0" />
	<path style="fill:none;stroke:red;stroke-width:1px;stroke-linecap:butt;stroke-linejoin:miter;stroke-opacity:1" d="M 164.258,470.352 180.284,462.339 z" id="boundary" inkscape:connector-curvature="0" />
	<path style="fill:none;stroke:red;stroke-width:1px;stroke-linecap:butt;stroke-linejoin:miter;stroke-opacity:1" d="M 164.258,987.987 180.284,987.987 z" id="boundary" inkscape:connector-curvature="0" />
	<path style="fill:none;stroke:red;stroke-width:1px;stroke-linecap:butt;stroke-linejoin:miter;stroke-opacity:1" d="M 172.271,318.107 172.271,334.132 z" id="boundary" inkscape:connector-curvature="0" />
	<path style="fill:none;stroke:red;stroke-width:1px;stroke-linecap:butt;stroke-linejoin:miter;stroke-opacity:1" d="M 172.271,318.107 180.284,302.081 z" id="boundary" inkscape:connector-curvature="0" />
	<path style="fill:none;stroke:red;stroke-width:1px;stroke-linecap:butt;stroke-linejoin:miter;stroke-opacity:1" d="M 172.271,334.132 180.284,348.556 z" id="boundary" inkscape:connector-curvature="0" />
	<path style="fill:none;stroke:red;stroke-width:1px;stroke-linecap:butt;stroke-linejoin:miter;stroke-opacity:1" d="M 180.284,286.055 180.284,302.081 z" id="boundary" inkscape:connector-curvature="0" />
	<path style="fill:none;stroke:red;stroke-width:1px;stroke-linecap:butt;stroke-linejoin:miter;stroke-opacity:1" d="M 180.284,286.055 188.297,262.016 z" id="boundary" inkscape:connector-curvature="0" />
	<path style="fill:none;stroke:red;stroke-width:1px;stroke-linecap:butt;stroke-linejoin:miter;stroke-opacity:1" d="M 180.284,348.556 180.284,364.582 z" id="boundary" inkscape:connector-curvature="0" />
	<path style="fill:none;stroke:red;stroke-width:1px;stroke-linecap:butt;stroke-linejoin:miter;stroke-opacity:1" d="M 180.284,364.582 180.284,380.607 z" id="boundary" inkscape:connector-curvature="0" />
	<path style="fill:none;stroke:red;stroke-width:1px;stroke-linecap:butt;stroke-linejoin:miter;stroke-opacity:1" d="M 180.284,380.607 188.297,395.031 z" id="boundary" inkscape:connector-curvature="0" />
	<path style="fill:none;stroke:red;stroke-width:1px;stroke-linecap:butt;stroke-linejoin:miter;stroke-opacity:1" d="M 180.284,430.288 180.284,446.313 z" id="boundary" inkscape:connector-curvature="0" />
	<path style="fill:none;stroke:red;stroke-width:1px;stroke-linecap:butt;stroke-linejoin:miter;stroke-opacity:1" d="M 180.284,430.288 188.297,411.057 z" id="boundary" inkscape:connector-curvature="0" />
	<path style="fill:none;stroke:red;stroke-width:1px;stroke-linecap:butt;stroke-linejoin:miter;stroke-opacity:1" d="M 180.284,446.313 180.284,462.339 z" id="boundary" inkscape:connector-curvature="0" />
	<path style="fill:none;stroke:red;stroke-width:1px;stroke-linecap:butt;stroke-linejoin:miter;stroke-opacity:1" d="M 180.284,987.987 196.31,987.987 z" id="boundary" inkscape:connector-curvature="0" />
	<path style="fill:none;stroke:red;stroke-width:1px;stroke-linecap:butt;stroke-linejoin:miter;stroke-opacity:1" d="M 188.297,229.964 188.297,245.99 z" id="boundary" inkscape:connector-curvature="0" />
	<path style="fill:none;stroke:red;stroke-width:1px;stroke-linecap:butt;stroke-linejoin:miter;stroke-opacity:1" d="M 188.297,229.964 196.31,205.926 z" id="boundary" inkscape:connector-curvature="0" />
	<path style="fill:none;stroke:red;stroke-width:1px;stroke-linecap:butt;stroke-linejoin:miter;stroke-opacity:1" d="M 188.297,245.99 188.297,262.016 z" id="boundary" inkscape:connector-curvature="0" />
	<path style="fill:none;stroke:red;stroke-width:1px;stroke-linecap:butt;stroke-linejoin:miter;stroke-opacity:1" d="M 188.297,395.031 188.297,411.057 z" id="boundary" inkscape:connector-curvature="0" />
	<path style="fill:none;stroke:red;stroke-width:1px;stroke-linecap:butt;stroke-linejoin:miter;stroke-opacity:1" d="M 196.31,173.874 196.31,189.9 z" id="boundary" inkscape:connector-curvature="0" />
	<path style="fill:none;stroke:red;stroke-width:1px;stroke-linecap:butt;stroke-linejoin:miter;stroke-opacity:1" d="M 196.31,173.874 204.323,157.848 z" id="boundary" inkscape:connector-curvature="0" />
	<path style="fill:none;stroke:red;stroke-width:1px;stroke-linecap:butt;stroke-linejoin:miter;stroke-opacity:1" d="M 196.31,189.9 196.31,205.926 z" id="boundary" inkscape:connector-curvature="0" />
	<path style="fill:none;stroke:red;stroke-width:1px;stroke-linecap:butt;stroke-linejoin:miter;stroke-opacity:1" d="M 196.31,987.987 212.336,987.987 z" id="boundary" inkscape:connector-curvature="0" />
	<path style="fill:none;stroke:red;stroke-width:1px;stroke-linecap:butt;stroke-linejoin:miter;stroke-opacity:1" d="M 204.323,109.771 204.323,125.796 z" id="boundary" inkscape:connector-curvature="0" />
	<path style="fill:none;stroke:red;stroke-width:1px;stroke-linecap:butt;stroke-linejoin:miter;stroke-opacity:1" d="M 204.323,109.771 217.144,96.9499 z" id="boundary" inkscape:connector-curvature="0" />
	<path style="fill:none;stroke:red;stroke-width:1px;stroke-linecap:butt;stroke-linejoin:miter;stroke-opacity:1" d="M 204.323,125.796 204.323,141.822 z" id="boundary" inkscape:connector-curvature="0" />
	<path style="fill:none;stroke:red;stroke-width:1px;stroke-linecap:butt;stroke-linejoin:miter;stroke-opacity:1" d="M 204.323,141.822 204.323,157.848 z" id="boundary" inkscape:connector-curvature="0" />
	<path style="fill:none;stroke:red;stroke-width:1px;stroke-linecap:butt;stroke-linejoin:miter;stroke-opacity:1" d="M 212.336,987.987 228.362,987.987 z" id="boundary" inkscape:connector-curvature="0" />
	<path style="fill:none;stroke:red;stroke-width:1px;stroke-linecap:butt;stroke-linejoin:miter;stroke-opacity:1" d="M 217.144,96.9499 229.964,84.1292 z" id="boundary" inkscape:connector-curvature="0" />
	<path style="fill:none;stroke:red;stroke-width:1px;stroke-linecap:butt;stroke-linejoin:miter;stroke-opacity:1" d="M 228.362,987.987 244.388,987.987 z" id="boundary" inkscape:connector-curvature="0" />
	<path style="fill:none;stroke:red;stroke-width:1px;stroke-linecap:butt;stroke-linejoin:miter;stroke-opacity:1" d="M 229.964,84.1292 242.785,72.9111 z" id="boundary" inkscape:connector-curvature="0" />
	<path style="fill:none;stroke:red;stroke-width:1px;stroke-linecap:butt;stroke-linejoin:miter;stroke-opacity:1" d="M 242.785,72.9111 257.208,64.8982 z" id="boundary" inkscape:connector-curvature="0" />
	<path style="fill:none;stroke:red;stroke-width:1px;stroke-linecap:butt;stroke-linejoin:miter;stroke-opacity:1" d="M 244.388,987.987 260.414,987.987 z" id="boundary" inkscape:connector-curvature="0" />
	<path style="fill:none;stroke:red;stroke-width:1px;stroke-linecap:butt;stroke-linejoin:miter;stroke-opacity:1" d="M 257.208,64.8982 270.029,74.5137 z" id="boundary" inkscape:connector-curvature="0" />
	<path style="fill:none;stroke:red;stroke-width:1px;stroke-linecap:butt;stroke-linejoin:miter;stroke-opacity:1" d="M 260.414,987.987 276.439,987.987 z" id="boundary" inkscape:connector-curvature="0" />
	<path style="fill:none;stroke:red;stroke-width:1px;stroke-linecap:butt;stroke-linejoin:miter;stroke-opacity:1" d="M 270.029,74.5137 278.042,88.937 z" id="boundary" inkscape:connector-curvature="0" />
	<path style="fill:none;stroke:red;stroke-width:1px;stroke-linecap:butt;stroke-linejoin:miter;stroke-opacity:1" d="M 270.029,210.733 270.029,226.759 z" id="boundary" inkscape:connector-curvature="0" />
	<path style="fill:none;stroke:red;stroke-width:1px;stroke-linecap:butt;stroke-linejoin:miter;stroke-opacity:1" d="M 270.029,210.733 278.042,186.695 z" id="boundary" inkscape:connector-curvature="0" />
	<path style="fill:none;stroke:red;stroke-width:1px;stroke-linecap:butt;stroke-linejoin:miter;stroke-opacity:1" d="M 270.029,226.759 270.029,242.785 z" id="boundary" inkscape:connector-curvature="0" />
	<path style="fill:none;stroke:red;stroke-width:1px;stroke-linecap:butt;stroke-linejoin:miter;stroke-opacity:1" d="M 270.029,242.785 270.029,258.811 z" id="boundary" inkscape:connector-curvature="0" />
	<path style="fill:none;stroke:red;stroke-width:1px;stroke-linecap:butt;stroke-linejoin:miter;stroke-opacity:1" d="M 270.029,258.811 270.029,274.837 z" id="boundary" inkscape:connector-curvature="0" />
	<path style="fill:none;stroke:red;stroke-width:1px;stroke-linecap:butt;stroke-linejoin:miter;stroke-opacity:1" d="M 270.029,274.837 270.029,290.863 z" id="boundary" inkscape:connector-curvature="0" />
	<path style="fill:none;stroke:red;stroke-width:1px;stroke-linecap:butt;stroke-linejoin:miter;stroke-opacity:1" d="M 270.029,290.863 270.029,306.889 z" id="boundary" inkscape:connector-curvature="0" />
	<path style="fill:none;stroke:red;stroke-width:1px;stroke-linecap:butt;stroke-linejoin:miter;stroke-opacity:1" d="M 270.029,306.889 270.029,322.914 z" id="boundary" inkscape:connector-curvature="0" />
	<path style="fill:none;stroke:red;stroke-width:1px;stroke-linecap:butt;stroke-linejoin:miter;stroke-opacity:1" d="M 270.029,322.914 270.029,338.94 z" id="boundary" inkscape:connector-curvature="0" />
	<path style="fill:none;stroke:red;stroke-width:1px;stroke-linecap:butt;stroke-linejoin:miter;stroke-opacity:1" d="M 270.029,338.94 273.234,354.966 z" id="boundary" inkscape:connector-curvature="0" />
	<path style="fill:none;stroke:red;stroke-width:1px;stroke-linecap:butt;stroke-linejoin:miter;stroke-opacity:1" d="M 273.234,354.966 281.247,369.389 z" id="boundary" inkscape:connector-curvature="0" />
	<path style="fill:none;stroke:red;stroke-width:1px;stroke-linecap:butt;stroke-linejoin:miter;stroke-opacity:1" d="M 276.439,987.987 292.465,987.987 z" id="boundary" inkscape:connector-curvature="0" />
	<path style="fill:none;stroke:red;stroke-width:1px;stroke-linecap:butt;stroke-linejoin:miter;stroke-opacity:1" d="M 278.042,88.937 286.055,103.36 z" id="boundary" inkscape:connector-curvature="0" />
	<path style="fill:none;stroke:red;stroke-width:1px;stroke-linecap:butt;stroke-linejoin:miter;stroke-opacity:1" d="M 278.042,186.695 286.055,167.464 z" id="boundary" inkscape:connector-curvature="0" />
	<path style="fill:none;stroke:red;stroke-width:1px;stroke-linecap:butt;stroke-linejoin:miter;stroke-opacity:1" d="M 281.247,369.389 286.055,385.415 z" id="boundary" inkscape:connector-curvature="0" />
	<path style="fill:none;stroke:red;stroke-width:1px;stroke-linecap:butt;stroke-linejoin:miter;stroke-opacity:1" d="M 286.055,103.36 286.055,119.386 z" id="boundary" inkscape:connector-curvature="0" />
	<path style="fill:none;stroke:red;stroke-width:1px;stroke-linecap:butt;stroke-linejoin:miter;stroke-opacity:1" d="M 286.055,119.386 286.055,135.412 z" id="boundary" inkscape:connector-curvature="0" />
	<path style="fill:none;stroke:red;stroke-width:1px;stroke-linecap:butt;stroke-linejoin:miter;stroke-opacity:1" d="M 286.055,135.412 286.055,151.438 z" id="boundary" inkscape:connector-curvature="0" />
	<path style="fill:none;stroke:red;stroke-width:1px;stroke-linecap:butt;stroke-linejoin:miter;stroke-opacity:1" d="M 286.055,151.438 286.055,167.464 z" id="boundary" inkscape:connector-curvature="0" />
	<path style="fill:none;stroke:red;stroke-width:1px;stroke-linecap:butt;stroke-linejoin:miter;stroke-opacity:1" d="M 286.055,385.415 300.478,374.197 z" id="boundary" inkscape:connector-curvature="0" />
	<path style="fill:none;stroke:red;stroke-width:1px;stroke-linecap:butt;stroke-linejoin:miter;stroke-opacity:1" d="M 292.465,987.987 306.889,996 z" id="boundary" inkscape:connector-curvature="0" />
	<path style="fill:none;stroke:red;stroke-width:1px;stroke-linecap:butt;stroke-linejoin:miter;stroke-opacity:1" d="M 300.478,310.094 300.478,326.12 z" id="boundary" inkscape:connector-curvature="0" />
	<path style="fill:none;stroke:red;stroke-width:1px;stroke-linecap:butt;stroke-linejoin:miter;stroke-opacity:1" d="M 300.478,310.094 308.491,294.068 z" id="boundary" inkscape:connector-curvature="0" />
	<path style="fill:none;stroke:red;stroke-width:1px;stroke-linecap:butt;stroke-linejoin:miter;stroke-opacity:1" d="M 300.478,326.12 300.478,342.145 z" id="boundary" inkscape:connector-curvature="0" />
	<path style="fill:none;stroke:red;stroke-width:1px;stroke-linecap:butt;stroke-linejoin:miter;stroke-opacity:1" d="M 300.478,342.145 300.478,358.171 z" id="boundary" inkscape:connector-curvature="0" />
	<path style="fill:none;stroke:red;stroke-width:1px;stroke-linecap:butt;stroke-linejoin:miter;stroke-opacity:1" d="M 300.478,358.171 300.478,374.197 z" id="boundary" inkscape:connector-curvature="0" />
	<path style="fill:none;stroke:red;stroke-width:1px;stroke-linecap:butt;stroke-linejoin:miter;stroke-opacity:1" d="M 306.889,996 322.914,996 z" id="boundary" inkscape:connector-curvature="0" />
	<path style="fill:none;stroke:red;stroke-width:1px;stroke-linecap:butt;stroke-linejoin:miter;stroke-opacity:1" d="M 308.491,262.016 308.491,278.042 z" id="boundary" inkscape:connector-curvature="0" />
	<path style="fill:none;stroke:red;stroke-width:1px;stroke-linecap:butt;stroke-linejoin:miter;stroke-opacity:1" d="M 308.491,262.016 316.504,245.99 z" id="boundary" inkscape:connector-curvature="0" />
	<path style="fill:none;stroke:red;stroke-width:1px;stroke-linecap:butt;stroke-linejoin:miter;stroke-opacity:1" d="M 308.491,278.042 308.491,294.068 z" id="boundary" inkscape:connector-curvature="0" />
	<path style="fill:none;stroke:red;stroke-width:1px;stroke-linecap:butt;stroke-linejoin:miter;stroke-opacity:1" d="M 316.504,213.939 316.504,229.964 z" id="boundary" inkscape:connector-curvature="0" />
	<path style="fill:none;stroke:red;stroke-width:1px;stroke-linecap:butt;stroke-linejoin:miter;stroke-opacity:1" d="M 316.504,213.939 324.517,197.913 z" id="boundary" inkscape:connector-curvature="0" />
	<path style="fill:none;stroke:red;stroke-width:1px;stroke-linecap:butt;stroke-linejoin:miter;stroke-opacity:1" d="M 316.504,229.964 316.504,245.99 z" id="boundary" inkscape:connector-curvature="0" />
	<path style="fill:none;stroke:red;stroke-width:1px;stroke-linecap:butt;stroke-linejoin:miter;stroke-opacity:1" d="M 322.914,996 338.94,996 z" id="boundary" inkscape:connector-curvature="0" />
	<path style="fill:none;stroke:red;stroke-width:1px;stroke-linecap:butt;stroke-linejoin:miter;stroke-opacity:1" d="M 324.517,165.861 324.517,181.887 z" id="boundary" inkscape:connector-curvature="0" />
	<path style="fill:none;stroke:red;stroke-width:1px;stroke-linecap:butt;stroke-linejoin:miter;stroke-opacity:1" d="M 324.517,165.861 332.53,141.822 z" id="boundary" inkscape:connector-curvature="0" />
	<path style="fill:none;stroke:red;stroke-width:1px;stroke-linecap:butt;stroke-linejoin:miter;stroke-opacity:1" d="M 324.517,181.887 324.517,197.913 z" id="boundary" inkscape:connector-curvature="0" />
	<path style="fill:none;stroke:red;stroke-width:1px;stroke-linecap:butt;stroke-linejoin:miter;stroke-opacity:1" d="M 332.53,93.7447 332.53,109.771 z" id="boundary" inkscape:connector-curvature="0" />
	<path style="fill:none;stroke:red;stroke-width:1px;stroke-linecap:butt;stroke-linejoin:miter;stroke-opacity:1" d="M 332.53,93.7447 340.543,77.7189 z" id="boundary" inkscape:connector-curvature="0" />
	<path style="fill:none;stroke:red;stroke-width:1px;stroke-linecap:butt;stroke-linejoin:miter;stroke-opacity:1" d="M 332.53,109.771 332.53,125.796 z" id="boundary" inkscape:connector-curvature="0" />
	<path style="fill:none;stroke:red;stroke-width:1px;stroke-linecap:butt;stroke-linejoin:miter;stroke-opacity:1" d="M 332.53,125.796 332.53,141.822 z" id="boundary" inkscape:connector-curvature="0" />
	<path style="fill:none;stroke:red;stroke-width:1px;stroke-linecap:butt;stroke-linejoin:miter;stroke-opacity:1" d="M 338.94,996 354.966,996 z" id="boundary" inkscape:connector-curvature="0" />
	<path style="fill:none;stroke:red;stroke-width:1px;stroke-linecap:butt;stroke-linejoin:miter;stroke-opacity:1" d="M 340.543,45.6672 340.543,61.6931 z" id="boundary" inkscape:connector-curvature="0" />
	<path style="fill:none;stroke:red;stroke-width:1px;stroke-linecap:butt;stroke-linejoin:miter;stroke-opacity:1" d="M 340.543,45.6672 353.363,32.8465 z" id="boundary" inkscape:connector-curvature="0" />
	<path style="fill:none;stroke:red;stroke-width:1px;stroke-linecap:butt;stroke-linejoin:miter;stroke-opacity:1" d="M 340.543,61.6931 340.543,77.7189 z" id="boundary" inkscape:connector-curvature="0" />
	<path style="fill:none;stroke:red;stroke-width:1px;stroke-linecap:butt;stroke-linejoin:miter;stroke-opacity:1" d="M 353.363,32.8465 361.376,16.8207 z" id="boundary" inkscape:connector-curvature="0" />
	<path style="fill:none;stroke:red;stroke-width:1px;stroke-linecap:butt;stroke-linejoin:miter;stroke-opacity:1" d="M 354.966,996 370.992,996 z" id="boundary" inkscape:connector-curvature="0" />
	<path style="fill:none;stroke:red;stroke-width:1px;stroke-linecap:butt;stroke-linejoin:miter;stroke-opacity:1" d="M 361.376,16.8207 374.197,4 z" id="boundary" inkscape:connector-curvature="0" />
	<path style="fill:none;stroke:red;stroke-width:1px;stroke-linecap:butt;stroke-linejoin:miter;stroke-opacity:1" d="M 370.992,996 387.018,996 z" id="boundary" inkscape:connector-curvature="0" />
	<path style="fill:none;stroke:red;stroke-width:1px;stroke-linecap:butt;stroke-linejoin:miter;stroke-opacity:1" d="M 374.197,4 390.223,8.80775 z" id="boundary" inkscape:connector-curvature="0" />
	<path style="fill:none;stroke:red;stroke-width:1px;stroke-linecap:butt;stroke-linejoin:miter;stroke-opacity:1" d="M 387.018,996 403.044,996 z" id="boundary" inkscape:connector-curvature="0" />
	<path style="fill:none;stroke:red;stroke-width:1px;stroke-linecap:butt;stroke-linejoin:miter;stroke-opacity:1" d="M 390.223,8.80775 403.044,18.4233 z" id="boundary" inkscape:connector-curvature="0" />
	<path style="fill:none;stroke:red;stroke-width:1px;stroke-linecap:butt;stroke-linejoin:miter;stroke-opacity:1" d="M 398.236,322.914 398.236,338.94 z" id="boundary" inkscape:connector-curvature="0" />
	<path style="fill:none;stroke:red;stroke-width:1px;stroke-linecap:butt;stroke-linejoin:miter;stroke-opacity:1" d="M 398.236,322.914 406.249,298.876 z" id="boundary" inkscape:connector-curvature="0" />
	<path style="fill:none;stroke:red;stroke-width:1px;stroke-linecap:butt;stroke-linejoin:miter;stroke-opacity:1" d="M 398.236,338.94 398.236,354.966 z" id="boundary" inkscape:connector-curvature="0" />
	<path style="fill:none;stroke:red;stroke-width:1px;stroke-linecap:butt;stroke-linejoin:miter;stroke-opacity:1" d="M 398.236,354.966 406.249,369.389 z" id="boundary" inkscape:connector-curvature="0" />
	<path style="fill:none;stroke:red;stroke-width:1px;stroke-linecap:butt;stroke-linejoin:miter;stroke-opacity:1" d="M 403.044,18.4233 406.249,34.4491 z" id="boundary" inkscape:connector-curvature="0" />
	<path style="fill:none;stroke:red;stroke-width:1px;stroke-linecap:butt;stroke-linejoin:miter;stroke-opacity:1" d="M 403.044,996 419.069,996 z" id="boundary" inkscape:connector-curvature="0" />
	<path style="fill:none;stroke:red;stroke-width:1px;stroke-linecap:butt;stroke-linejoin:miter;stroke-opacity:1" d="M 406.249,34.4491 419.069,44.0646 z" id="boundary" inkscape:connector-curvature="0" />
	<path style="fill:none;stroke:red;stroke-width:1px;stroke-linecap:butt;stroke-linejoin:miter;stroke-opacity:1" d="M 406.249,170.669 406.249,186.695 z" id="boundary" inkscape:connector-curvature="0" />
	<path style="fill:none;stroke:red;stroke-width:1px;stroke-linecap:butt;stroke-linejoin:miter;stroke-opacity:1" d="M 406.249,170.669 414.262,146.63 z" id="boundary" inkscape:connector-curvature="0" />
	<path style="fill:none;stroke:red;stroke-width:1px;stroke-linecap:butt;stroke-linejoin:miter;stroke-opacity:1" d="M 406.249,186.695 406.249,202.721 z" id="boundary" inkscape:connector-curvature="0" />
	<path style="fill:none;stroke:red;stroke-width:1px;stroke-linecap:butt;stroke-linejoin:miter;stroke-opacity:1" d="M 406.249,202.721 406.249,218.746 z" id="boundary" inkscape:connector-curvature="0" />
	<path style="fill:none;stroke:red;stroke-width:1px;stroke-linecap:butt;stroke-linejoin:miter;stroke-opacity:1" d="M 406.249,218.746 406.249,234.772 z" id="boundary" inkscape:connector-curvature="0" />
	<path style="fill:none;stroke:red;stroke-width:1px;stroke-linecap:butt;stroke-linejoin:miter;stroke-opacity:1" d="M 406.249,234.772 406.249,250.798 z" id="boundary" inkscape:connector-curvature="0" />
	<path style="fill:none;stroke:red;stroke-width:1px;stroke-linecap:butt;stroke-linejoin:miter;stroke-opacity:1" d="M 406.249,250.798 406.249,266.824 z" id="boundary" inkscape:connector-curvature="0" />
	<path style="fill:none;stroke:red;stroke-width:1px;stroke-linecap:butt;stroke-linejoin:miter;stroke-opacity:1" d="M 406.249,266.824 406.249,282.85 z" id="boundary" inkscape:connector-curvature="0" />
	<path style="fill:none;stroke:red;stroke-width:1px;stroke-linecap:butt;stroke-linejoin:miter;stroke-opacity:1" d="M 406.249,282.85 406.249,298.876 z" id="boundary" inkscape:connector-curvature="0" />
	<path style="fill:none;stroke:red;stroke-width:1px;stroke-linecap:butt;stroke-linejoin:miter;stroke-opacity:1" d="M 406.249,369.389 406.249,385.415 z" id="boundary" inkscape:connector-curvature="0" />
	<path style="fill:none;stroke:red;stroke-width:1px;stroke-linecap:butt;stroke-linejoin:miter;stroke-opacity:1" d="M 406.249,385.415 420.672,393.428 z" id="boundary" inkscape:connector-curvature="0" />
	<path style="fill:none;stroke:red;stroke-width:1px;stroke-linecap:butt;stroke-linejoin:miter;stroke-opacity:1" d="M 414.262,98.5525 414.262,114.578 z" id="boundary" inkscape:connector-curvature="0" />
	<path style="fill:none;stroke:red;stroke-width:1px;stroke-linecap:butt;stroke-linejoin:miter;stroke-opacity:1" d="M 414.262,98.5525 422.275,76.1163 z" id="boundary" inkscape:connector-curvature="0" />
	<path style="fill:none;stroke:red;stroke-width:1px;stroke-linecap:butt;stroke-linejoin:miter;stroke-opacity:1" d="M 414.262,114.578 414.262,130.604 z" id="boundary" inkscape:connector-curvature="0" />
	<path style="fill:none;stroke:red;stroke-width:1px;stroke-linecap:butt;stroke-linejoin:miter;stroke-opacity:1" d="M 414.262,130.604 414.262,146.63 z" id="boundary" inkscape:connector-curvature="0" />
	<path style="fill:none;stroke:red;stroke-width:1px;stroke-linecap:butt;stroke-linejoin:miter;stroke-opacity:1" d="M 419.069,44.0646 422.275,60.0905 z" id="boundary" inkscape:connector-curvature="0" />
	<path style="fill:none;stroke:red;stroke-width:1px;stroke-linecap:butt;stroke-linejoin:miter;stroke-opacity:1" d="M 419.069,996 435.095,996 z" id="boundary" inkscape:connector-curvature="0" />
	<path style="fill:none;stroke:red;stroke-width:1px;stroke-linecap:butt;stroke-linejoin:miter;stroke-opacity:1" d="M 420.672,393.428 428.685,374.197 z" id="boundary" inkscape:connector-curvature="0" />
	<path style="fill:none;stroke:red;stroke-width:1px;stroke-linecap:butt;stroke-linejoin:miter;stroke-opacity:1" d="M 422.275,60.0905 422.275,76.1163 z" id="boundary" inkscape:connector-curvature="0" />
	<path style="fill:none;stroke:red;stroke-width:1px;stroke-linecap:butt;stroke-linejoin:miter;stroke-opacity:1" d="M 428.685,374.197 436.698,358.171 z" id="boundary" inkscape:connector-curvature="0" />
	<path style="fill:none;stroke:red;stroke-width:1px;stroke-linecap:butt;stroke-linejoin:miter;stroke-opacity:1" d="M 435.095,996 451.121,996 z" id="boundary" inkscape:connector-curvature="0" />
	<path style="fill:none;stroke:red;stroke-width:1px;stroke-linecap:butt;stroke-linejoin:miter;stroke-opacity:1" d="M 436.698,326.12 436.698,342.145 z" id="boundary" inkscape:connector-curvature="0" />
	<path style="fill:none;stroke:red;stroke-width:1px;stroke-linecap:butt;stroke-linejoin:miter;stroke-opacity:1" d="M 436.698,326.12 444.711,302.081 z" id="boundary" inkscape:connector-curvature="0" />
	<path style="fill:none;stroke:red;stroke-width:1px;stroke-linecap:butt;stroke-linejoin:miter;stroke-opacity:1" d="M 436.698,342.145 436.698,358.171 z" id="boundary" inkscape:connector-curvature="0" />
	<path style="fill:none;stroke:red;stroke-width:1px;stroke-linecap:butt;stroke-linejoin:miter;stroke-opacity:1" d="M 444.711,270.029 444.711,286.055 z" id="boundary" inkscape:connector-curvature="0" />
	<path style="fill:none;stroke:red;stroke-width:1px;stroke-linecap:butt;stroke-linejoin:miter;stroke-opacity:1" d="M 444.711,270.029 452.724,245.99 z" id="boundary" inkscape:connector-curvature="0" />
	<path style="fill:none;stroke:red;stroke-width:1px;stroke-linecap:butt;stroke-linejoin:miter;stroke-opacity:1" d="M 444.711,286.055 444.711,302.081 z" id="boundary" inkscape:connector-curvature="0" />
	<path style="fill:none;stroke:red;stroke-width:1px;stroke-linecap:butt;stroke-linejoin:miter;stroke-opacity:1" d="M 451.121,996 467.147,996 z" id="boundary" inkscape:connector-curvature="0" />
	<path style="fill:none;stroke:red;stroke-width:1px;stroke-linecap:butt;stroke-linejoin:miter;stroke-opacity:1" d="M 452.724,245.99 460.737,229.964 z" id="boundary" inkscape:connector-curvature="0" />
	<path style="fill:none;stroke:red;stroke-width:1px;stroke-linecap:butt;stroke-linejoin:miter;stroke-opacity:1" d="M 460.737,197.913 460.737,213.939 z" id="boundary" inkscape:connector-curvature="0" />
	<path style="fill:none;stroke:red;stroke-width:1px;stroke-linecap:butt;stroke-linejoin:miter;stroke-opacity:1" d="M 460.737,197.913 468.75,181.887 z" id="boundary" inkscape:connector-curvature="0" />
	<path style="fill:none;stroke:red;stroke-width:1px;stroke-linecap:butt;stroke-linejoin:miter;stroke-opacity:1" d="M 460.737,213.939 460.737,229.964 z" id="boundary" inkscape:connector-curvature="0" />
	<path style="fill:none;stroke:red;stroke-width:1px;stroke-linecap:butt;stroke-linejoin:miter;stroke-opacity:1" d="M 467.147,996 478.365,979.974 z" id="boundary" inkscape:connector-curvature="0" />
	<path style="fill:none;stroke:red;stroke-width:1px;stroke-linecap:butt;stroke-linejoin:miter;stroke-opacity:1" d="M 468.75,133.809 468.75,149.835 z" id="boundary" inkscape:connector-curvature="0" />
	<path style="fill:none;stroke:red;stroke-width:1px;stroke-linecap:butt;stroke-linejoin:miter;stroke-opacity:1" d="M 468.75,133.809 476.763,117.784 z" id="boundary" inkscape:connector-curvature="0" />
	<path style="fill:none;stroke:red;stroke-width:1px;stroke-linecap:butt;stroke-linejoin:miter;stroke-opacity:1" d="M 468.75,149.835 468.75,165.861 z" id="boundary" inkscape:connector-curvature="0" />
	<path style="fill:none;stroke:red;stroke-width:1px;stroke-linecap:butt;stroke-linejoin:miter;stroke-opacity:1" d="M 468.75,165.861 468.75,181.887 z" id="boundary" inkscape:connector-curvature="0" />
	<path style="fill:none;stroke:red;stroke-width:1px;stroke-linecap:butt;stroke-linejoin:miter;stroke-opacity:1" d="M 476.763,85.7318 476.763,101.758 z" id="boundary" inkscape:connector-curvature="0" />
	<path style="fill:none;stroke:red;stroke-width:1px;stroke-linecap:butt;stroke-linejoin:miter;stroke-opacity:1" d="M 476.763,85.7318 489.583,72.9111 z" id="boundary" inkscape:connector-curvature="0" />
	<path style="fill:none;stroke:red;stroke-width:1px;stroke-linecap:butt;stroke-linejoin:miter;stroke-opacity:1" d="M 476.763,101.758 476.763,117.784 z" id="boundary" inkscape:connector-curvature="0" />
	<path style="fill:none;stroke:red;stroke-width:1px;stroke-linecap:butt;stroke-linejoin:miter;stroke-opacity:1" d="M 478.365,979.974 486.378,963.948 z" id="boundary" inkscape:connector-curvature="0" />
	<path style="fill:none;stroke:red;stroke-width:1px;stroke-linecap:butt;stroke-linejoin:miter;stroke-opacity:1" d="M 486.378,963.948 502.404,955.935 z" id="boundary" inkscape:connector-curvature="0" />
	<path style="fill:none;stroke:red;stroke-width:1px;stroke-linecap:butt;stroke-linejoin:miter;stroke-opacity:1" d="M 489.583,72.9111 505.609,72.9111 z" id="boundary" inkscape:connector-curvature="0" />
	<path style="fill:none;stroke:red;stroke-width:1px;stroke-linecap:butt;stroke-linejoin:miter;stroke-opacity:1" d="M 502.404,955.935 510.417,939.91 z" id="boundary" inkscape:connector-curvature="0" />
	<path style="fill:none;stroke:red;stroke-width:1px;stroke-linecap:butt;stroke-linejoin:miter;stroke-opacity:1" d="M 505.609,72.9111 513.622,56.8853 z" id="boundary" inkscape:connector-curvature="0" />
	<path style="fill:none;stroke:red;stroke-width:1px;stroke-linecap:butt;stroke-linejoin:miter;stroke-opacity:1" d="M 510.417,939.91 524.84,931.897 z" id="boundary" inkscape:connector-curvature="0" />
	<path style="fill:none;stroke:red;stroke-width:1px;stroke-linecap:butt;stroke-linejoin:miter;stroke-opacity:1" d="M 513.622,56.8853 526.443,66.5008 z" id="boundary" inkscape:connector-curvature="0" />
	<path style="fill:none;stroke:red;stroke-width:1px;stroke-linecap:butt;stroke-linejoin:miter;stroke-opacity:1" d="M 524.84,931.897 537.661,922.281 z" id="boundary" inkscape:connector-curvature="0" />
	<path style="fill:none;stroke:red;stroke-width:1px;stroke-linecap:butt;stroke-linejoin:miter;stroke-opacity:1" d="M 526.443,66.5008 534.456,80.9241 z" id="boundary" inkscape:connector-curvature="0" />
	<path style="fill:none;stroke:red;stroke-width:1px;stroke-linecap:butt;stroke-linejoin:miter;stroke-opacity:1" d="M 526.443,419.069 526.443,435.095 z" id="boundary" inkscape:connector-curvature="0" />
	<path style="fill:none;stroke:red;stroke-width:1px;stroke-linecap:butt;stroke-linejoin:miter;stroke-opacity:1" d="M 526.443,419.069 534.456,395.031 z" id="boundary" inkscape:connector-curvature="0" />
	<path style="fill:none;stroke:red;stroke-width:1px;stroke-linecap:butt;stroke-linejoin:miter;stroke-opacity:1" d="M 526.443,435.095 526.443,451.121 z" id="boundary" inkscape:connector-curvature="0" />
	<path style="fill:none;stroke:red;stroke-width:1px;stroke-linecap:butt;stroke-linejoin:miter;stroke-opacity:1" d="M 526.443,451.121 526.443,467.147 z" id="boundary" inkscape:connector-curvature="0" />
	<path style="fill:none;stroke:red;stroke-width:1px;stroke-linecap:butt;stroke-linejoin:miter;stroke-opacity:1" d="M 526.443,467.147 529.648,483.173 z" id="boundary" inkscape:connector-curvature="0" />
	<path style="fill:none;stroke:red;stroke-width:1px;stroke-linecap:butt;stroke-linejoin:miter;stroke-opacity:1" d="M 529.648,483.173 534.456,499.199 z" id="boundary" inkscape:connector-curvature="0" />
	<path style="fill:none;stroke:red;stroke-width:1px;stroke-linecap:butt;stroke-linejoin:miter;stroke-opacity:1" d="M 534.456,80.9241 542.468,95.3473 z" id="boundary" inkscape:connector-curvature="0" />
	<path style="fill:none;stroke:red;stroke-width:1px;stroke-linecap:butt;stroke-linejoin:miter;stroke-opacity:1" d="M 534.456,362.979 534.456,379.005 z" id="boundary" inkscape:connector-curvature="0" />
	<path style="fill:none;stroke:red;stroke-width:1px;stroke-linecap:butt;stroke-linejoin:miter;stroke-opacity:1" d="M 534.456,362.979 542.468,346.953 z" id="boundary" inkscape:connector-curvature="0" />
	<path style="fill:none;stroke:red;stroke-width:1px;stroke-linecap:butt;stroke-linejoin:miter;stroke-opacity:1" d="M 534.456,379.005 534.456,395.031 z" id="boundary" inkscape:connector-curvature="0" />
	<path style="fill:none;stroke:red;stroke-width:1px;stroke-linecap:butt;stroke-linejoin:miter;stroke-opacity:1" d="M 534.456,499.199 534.456,515.225 z" id="boundary" inkscape:connector-curvature="0" />
	<path style="fill:none;stroke:red;stroke-width:1px;stroke-linecap:butt;stroke-linejoin:miter;stroke-opacity:1" d="M 534.456,515.225 534.456,531.25 z" id="boundary" inkscape:connector-curvature="0" />
	<path style="fill:none;stroke:red;stroke-width:1px;stroke-linecap:butt;stroke-linejoin:miter;stroke-opacity:1" d="M 534.456,531.25 534.456,547.276 z" id="boundary" inkscape:connector-curvature="0" />
	<path style="fill:none;stroke:red;stroke-width:1px;stroke-linecap:butt;stroke-linejoin:miter;stroke-opacity:1" d="M 534.456,547.276 542.468,561.7 z" id="boundary" inkscape:connector-curvature="0" />
	<path style="fill:none;stroke:red;stroke-width:1px;stroke-linecap:butt;stroke-linejoin:miter;stroke-opacity:1" d="M 537.661,922.281 542.468,899.845 z" id="boundary" inkscape:connector-curvature="0" />
	<path style="fill:none;stroke:red;stroke-width:1px;stroke-linecap:butt;stroke-linejoin:miter;stroke-opacity:1" d="M 542.468,95.3473 542.468,111.373 z" id="boundary" inkscape:connector-curvature="0" />
	<path style="fill:none;stroke:red;stroke-width:1px;stroke-linecap:butt;stroke-linejoin:miter;stroke-opacity:1" d="M 542.468,111.373 550.481,125.796 z" id="boundary" inkscape:connector-curvature="0" />
	<path style="fill:none;stroke:red;stroke-width:1px;stroke-linecap:butt;stroke-linejoin:miter;stroke-opacity:1" d="M 542.468,186.695 542.468,202.721 z" id="boundary" inkscape:connector-curvature="0" />
	<path style="fill:none;stroke:red;stroke-width:1px;stroke-linecap:butt;stroke-linejoin:miter;stroke-opacity:1" d="M 542.468,186.695 550.481,157.848 z" id="boundary" inkscape:connector-curvature="0" />
	<path style="fill:none;stroke:red;stroke-width:1px;stroke-linecap:butt;stroke-linejoin:miter;stroke-opacity:1" d="M 542.468,202.721 542.468,218.746 z" id="boundary" inkscape:connector-curvature="0" />
	<path style="fill:none;stroke:red;stroke-width:1px;stroke-linecap:butt;stroke-linejoin:miter;stroke-opacity:1" d="M 542.468,218.746 542.468,234.772 z" id="boundary" inkscape:connector-curvature="0" />
	<path style="fill:none;stroke:red;stroke-width:1px;stroke-linecap:butt;stroke-linejoin:miter;stroke-opacity:1" d="M 542.468,234.772 542.468,250.798 z" id="boundary" inkscape:connector-curvature="0" />
	<path style="fill:none;stroke:red;stroke-width:1px;stroke-linecap:butt;stroke-linejoin:miter;stroke-opacity:1" d="M 542.468,250.798 542.468,266.824 z" id="boundary" inkscape:connector-curvature="0" />
	<path style="fill:none;stroke:red;stroke-width:1px;stroke-linecap:butt;stroke-linejoin:miter;stroke-opacity:1" d="M 542.468,266.824 542.468,282.85 z" id="boundary" inkscape:connector-curvature="0" />
	<path style="fill:none;stroke:red;stroke-width:1px;stroke-linecap:butt;stroke-linejoin:miter;stroke-opacity:1" d="M 542.468,282.85 542.468,298.876 z" id="boundary" inkscape:connector-curvature="0" />
	<path style="fill:none;stroke:red;stroke-width:1px;stroke-linecap:butt;stroke-linejoin:miter;stroke-opacity:1" d="M 542.468,298.876 542.468,314.901 z" id="boundary" inkscape:connector-curvature="0" />
	<path style="fill:none;stroke:red;stroke-width:1px;stroke-linecap:butt;stroke-linejoin:miter;stroke-opacity:1" d="M 542.468,314.901 542.468,330.927 z" id="boundary" inkscape:connector-curvature="0" />
	<path style="fill:none;stroke:red;stroke-width:1px;stroke-linecap:butt;stroke-linejoin:miter;stroke-opacity:1" d="M 542.468,330.927 542.468,346.953 z" id="boundary" inkscape:connector-curvature="0" />
	<path style="fill:none;stroke:red;stroke-width:1px;stroke-linecap:butt;stroke-linejoin:miter;stroke-opacity:1" d="M 542.468,561.7 542.468,577.725 z" id="boundary" inkscape:connector-curvature="0" />
	<path style="fill:none;stroke:red;stroke-width:1px;stroke-linecap:butt;stroke-linejoin:miter;stroke-opacity:1" d="M 542.468,577.725 542.468,593.751 z" id="boundary" inkscape:connector-curvature="0" />
	<path style="fill:none;stroke:red;stroke-width:1px;stroke-linecap:butt;stroke-linejoin:miter;stroke-opacity:1" d="M 542.468,593.751 542.468,609.777 z" id="boundary" inkscape:connector-curvature="0" />
	<path style="fill:none;stroke:red;stroke-width:1px;stroke-linecap:butt;stroke-linejoin:miter;stroke-opacity:1" d="M 542.468,609.777 556.892,617.79 z" id="boundary" inkscape:connector-curvature="0" />
	<path style="fill:none;stroke:red;stroke-width:1px;stroke-linecap:butt;stroke-linejoin:miter;stroke-opacity:1" d="M 542.468,899.845 555.289,888.627 z" id="boundary" inkscape:connector-curvature="0" />
	<path style="fill:none;stroke:red;stroke-width:1px;stroke-linecap:butt;stroke-linejoin:miter;stroke-opacity:1" d="M 550.481,125.796 550.481,141.822 z" id="boundary" inkscape:connector-curvature="0" />
	<path style="fill:none;stroke:red;stroke-width:1px;stroke-linecap:butt;stroke-linejoin:miter;stroke-opacity:1" d="M 550.481,141.822 550.481,157.848 z" id="boundary" inkscape:connector-curvature="0" />
	<path style="fill:none;stroke:red;stroke-width:1px;stroke-linecap:butt;stroke-linejoin:miter;stroke-opacity:1" d="M 555.289,888.627 563.302,872.601 z" id="boundary" inkscape:connector-curvature="0" />
	<path style="fill:none;stroke:red;stroke-width:1px;stroke-linecap:butt;stroke-linejoin:miter;stroke-opacity:1" d="M 556.892,617.79 564.905,598.559 z" id="boundary" inkscape:connector-curvature="0" />
	<path style="fill:none;stroke:red;stroke-width:1px;stroke-linecap:butt;stroke-linejoin:miter;stroke-opacity:1" d="M 563.302,872.601 574.52,859.78 z" id="boundary" inkscape:connector-curvature="0" />
	<path style="fill:none;stroke:red;stroke-width:1px;stroke-linecap:butt;stroke-linejoin:miter;stroke-opacity:1" d="M 564.905,598.559 577.725,585.738 z" id="boundary" inkscape:connector-curvature="0" />
	<path style="fill:none;stroke:red;stroke-width:1px;stroke-linecap:butt;stroke-linejoin:miter;stroke-opacity:1" d="M 574.52,859.78 582.533,843.754 z" id="boundary" inkscape:connector-curvature="0" />
	<path style="fill:none;stroke:red;stroke-width:1px;stroke-linecap:butt;stroke-linejoin:miter;stroke-opacity:1" d="M 577.725,585.738 580.931,566.507 z" id="boundary" inkscape:connector-curvature="0" />
	<path style="fill:none;stroke:red;stroke-width:1px;stroke-linecap:butt;stroke-linejoin:miter;stroke-opacity:1" d="M 580.931,534.456 580.931,550.481 z" id="boundary" inkscape:connector-curvature="0" />
	<path style="fill:none;stroke:red;stroke-width:1px;stroke-linecap:butt;stroke-linejoin:miter;stroke-opacity:1" d="M 580.931,534.456 588.943,510.417 z" id="boundary" inkscape:connector-curvature="0" />
	<path style="fill:none;stroke:red;stroke-width:1px;stroke-linecap:butt;stroke-linejoin:miter;stroke-opacity:1" d="M 580.931,550.481 580.931,566.507 z" id="boundary" inkscape:connector-curvature="0" />
	<path style="fill:none;stroke:red;stroke-width:1px;stroke-linecap:butt;stroke-linejoin:miter;stroke-opacity:1" d="M 582.533,827.729 582.533,843.754 z" id="boundary" inkscape:connector-curvature="0" />
	<path style="fill:none;stroke:red;stroke-width:1px;stroke-linecap:butt;stroke-linejoin:miter;stroke-opacity:1" d="M 582.533,827.729 595.354,816.511 z" id="boundary" inkscape:connector-curvature="0" />
	<path style="fill:none;stroke:red;stroke-width:1px;stroke-linecap:butt;stroke-linejoin:miter;stroke-opacity:1" d="M 588.943,510.417 596.956,486.378 z" id="boundary" inkscape:connector-curvature="0" />
	<path style="fill:none;stroke:red;stroke-width:1px;stroke-linecap:butt;stroke-linejoin:miter;stroke-opacity:1" d="M 595.354,816.511 603.367,800.485 z" id="boundary" inkscape:connector-curvature="0" />
	<path style="fill:none;stroke:red;stroke-width:1px;stroke-linecap:butt;stroke-linejoin:miter;stroke-opacity:1" d="M 596.956,486.378 604.969,470.352 z" id="boundary" inkscape:connector-curvature="0" />
	<path style="fill:none;stroke:red;stroke-width:1px;stroke-linecap:butt;stroke-linejoin:miter;stroke-opacity:1" d="M 603.367,800.485 614.585,787.664 z" id="boundary" inkscape:connector-curvature="0" />
	<path style="fill:none;stroke:red;stroke-width:1px;stroke-linecap:butt;stroke-linejoin:miter;stroke-opacity:1" d="M 604.969,470.352 612.982,454.326 z" id="boundary" inkscape:connector-curvature="0" />
	<path style="fill:none;stroke:red;stroke-width:1px;stroke-linecap:butt;stroke-linejoin:miter;stroke-opacity:1" d="M 612.982,438.3 612.982,454.326 z" id="boundary" inkscape:connector-curvature="0" />
	<path style="fill:none;stroke:red;stroke-width:1px;stroke-linecap:butt;stroke-linejoin:miter;stroke-opacity:1" d="M 612.982,438.3 620.995,422.275 z" id="boundary" inkscape:connector-curvature="0" />
	<path style="fill:none;stroke:red;stroke-width:1px;stroke-linecap:butt;stroke-linejoin:miter;stroke-opacity:1" d="M 614.585,771.638 614.585,787.664 z" id="boundary" inkscape:connector-curvature="0" />
	<path style="fill:none;stroke:red;stroke-width:1px;stroke-linecap:butt;stroke-linejoin:miter;stroke-opacity:1" d="M 614.585,771.638 627.405,760.42 z" id="boundary" inkscape:connector-curvature="0" />
	<path style="fill:none;stroke:red;stroke-width:1px;stroke-linecap:butt;stroke-linejoin:miter;stroke-opacity:1" d="M 620.995,422.275 633.816,409.454 z" id="boundary" inkscape:connector-curvature="0" />
	<path style="fill:none;stroke:red;stroke-width:1px;stroke-linecap:butt;stroke-linejoin:miter;stroke-opacity:1" d="M 627.405,760.42 635.418,744.394 z" id="boundary" inkscape:connector-curvature="0" />
	<path style="fill:none;stroke:red;stroke-width:1px;stroke-linecap:butt;stroke-linejoin:miter;stroke-opacity:1" d="M 633.816,409.454 641.829,393.428 z" id="boundary" inkscape:connector-curvature="0" />
	<path style="fill:none;stroke:red;stroke-width:1px;stroke-linecap:butt;stroke-linejoin:miter;stroke-opacity:1" d="M 635.418,744.394 643.431,728.368 z" id="boundary" inkscape:connector-curvature="0" />
	<path style="fill:none;stroke:red;stroke-width:1px;stroke-linecap:butt;stroke-linejoin:miter;stroke-opacity:1" d="M 641.829,393.428 656.252,385.415 z" id="boundary" inkscape:connector-curvature="0" />
	<path style="fill:none;stroke:red;stroke-width:1px;stroke-linecap:butt;stroke-linejoin:miter;stroke-opacity:1" d="M 643.431,728.368 646.637,707.535 z" id="boundary" inkscape:connector-curvature="0" />
	<path style="fill:none;stroke:red;stroke-width:1px;stroke-linecap:butt;stroke-linejoin:miter;stroke-opacity:1" d="M 646.637,659.457 646.637,675.483 z" id="boundary" inkscape:connector-curvature="0" />
	<path style="fill:none;stroke:red;stroke-width:1px;stroke-linecap:butt;stroke-linejoin:miter;stroke-opacity:1" d="M 646.637,659.457 654.649,643.431 z" id="boundary" inkscape:connector-curvature="0" />
	<path style="fill:none;stroke:red;stroke-width:1px;stroke-linecap:butt;stroke-linejoin:miter;stroke-opacity:1" d="M 646.637,675.483 646.637,691.509 z" id="boundary" inkscape:connector-curvature="0" />
	<path style="fill:none;stroke:red;stroke-width:1px;stroke-linecap:butt;stroke-linejoin:miter;stroke-opacity:1" d="M 646.637,691.509 646.637,707.535 z" id="boundary" inkscape:connector-curvature="0" />
	<path style="fill:none;stroke:red;stroke-width:1px;stroke-linecap:butt;stroke-linejoin:miter;stroke-opacity:1" d="M 654.649,627.405 654.649,643.431 z" id="boundary" inkscape:connector-curvature="0" />
	<path style="fill:none;stroke:red;stroke-width:1px;stroke-linecap:butt;stroke-linejoin:miter;stroke-opacity:1" d="M 654.649,627.405 662.662,611.38 z" id="boundary" inkscape:connector-curvature="0" />
	<path style="fill:none;stroke:red;stroke-width:1px;stroke-linecap:butt;stroke-linejoin:miter;stroke-opacity:1" d="M 656.252,385.415 672.278,385.415 z" id="boundary" inkscape:connector-curvature="0" />
	<path style="fill:none;stroke:red;stroke-width:1px;stroke-linecap:butt;stroke-linejoin:miter;stroke-opacity:1" d="M 662.662,611.38 670.675,595.354 z" id="boundary" inkscape:connector-curvature="0" />
	<path style="fill:none;stroke:red;stroke-width:1px;stroke-linecap:butt;stroke-linejoin:miter;stroke-opacity:1" d="M 670.675,595.354 678.688,571.315 z" id="boundary" inkscape:connector-curvature="0" />
	<path style="fill:none;stroke:red;stroke-width:1px;stroke-linecap:butt;stroke-linejoin:miter;stroke-opacity:1" d="M 672.278,385.415 688.304,385.415 z" id="boundary" inkscape:connector-curvature="0" />
	<path style="fill:none;stroke:red;stroke-width:1px;stroke-linecap:butt;stroke-linejoin:miter;stroke-opacity:1" d="M 678.688,571.315 686.701,547.276 z" id="boundary" inkscape:connector-curvature="0" />
	<path style="fill:none;stroke:red;stroke-width:1px;stroke-linecap:butt;stroke-linejoin:miter;stroke-opacity:1" d="M 686.701,483.173 686.701,499.199 z" id="boundary" inkscape:connector-curvature="0" />
	<path style="fill:none;stroke:red;stroke-width:1px;stroke-linecap:butt;stroke-linejoin:miter;stroke-opacity:1" d="M 686.701,483.173 694.714,467.147 z" id="boundary" inkscape:connector-curvature="0" />
	<path style="fill:none;stroke:red;stroke-width:1px;stroke-linecap:butt;stroke-linejoin:miter;stroke-opacity:1" d="M 686.701,499.199 686.701,515.225 z" id="boundary" inkscape:connector-curvature="0" />
	<path style="fill:none;stroke:red;stroke-width:1px;stroke-linecap:butt;stroke-linejoin:miter;stroke-opacity:1" d="M 686.701,515.225 686.701,531.25 z" id="boundary" inkscape:connector-curvature="0" />
	<path style="fill:none;stroke:red;stroke-width:1px;stroke-linecap:butt;stroke-linejoin:miter;stroke-opacity:1" d="M 686.701,531.25 686.701,547.276 z" id="boundary" inkscape:connector-curvature="0" />
	<path style="fill:none;stroke:red;stroke-width:1px;stroke-linecap:butt;stroke-linejoin:miter;stroke-opacity:1" d="M 688.304,385.415 694.714,401.441 z" id="boundary" inkscape:connector-curvature="0" />
	<path style="fill:none;stroke:red;stroke-width:1px;stroke-linecap:butt;stroke-linejoin:miter;stroke-opacity:1" d="M 694.714,401.441 702.727,415.864 z" id="boundary" inkscape:connector-curvature="0" />
	<path style="fill:none;stroke:red;stroke-width:1px;stroke-linecap:butt;stroke-linejoin:miter;stroke-opacity:1" d="M 694.714,451.121 694.714,467.147 z" id="boundary" inkscape:connector-curvature="0" />
	<path style="fill:none;stroke:red;stroke-width:1px;stroke-linecap:butt;stroke-linejoin:miter;stroke-opacity:1" d="M 694.714,451.121 702.727,431.89 z" id="boundary" inkscape:connector-curvature="0" />
	<path style="fill:none;stroke:red;stroke-width:1px;stroke-linecap:butt;stroke-linejoin:miter;stroke-opacity:1" d="M 702.727,415.864 702.727,431.89 z" id="boundary" inkscape:connector-curvature="0" />
	<circle cx="4" cy="286.055" r="4" fill="#0" id="circle0"/>
	<circle cx="12.0129" cy="270.029" r="4" fill="#0" id="circle1"/>
	<circle cx="12.0129" cy="300.478" r="4" fill="#0" id="circle2"/>
	<circle cx="12.0129" cy="316.504" r="4" fill="#0" id="circle3"/>
	<circle cx="12.0129" cy="332.53" r="4" fill="#0" id="circle4"/>
	<circle cx="20.0258" cy="254.003" r="4" fill="#0" id="circle5"/>
	<circle cx="20.0258" cy="346.953" r="4" fill="#0" id="circle6"/>
	<circle cx="20.0258" cy="362.979" r="4" fill="#0" id="circle7"/>
	<circle cx="28.0388" cy="229.964" r="4" fill="#0" id="circle8"/>
	<circle cx="28.0388" cy="377.402" r="4" fill="#0" id="circle9"/>
	<circle cx="28.0388" cy="393.428" r="4" fill="#0" id="circle10"/>
	<circle cx="28.0388" cy="409.454" r="4" fill="#0" id="circle11"/>
	<circle cx="36.0517" cy="423.877" r="4" fill="#0" id="circle12"/>
	<circle cx="37.6543" cy="439.903" r="4" fill="#0" id="circle13"/>
	<circle cx="44.0646" cy="236.375" r="4" fill="#0" id="circle14"/>
	<circle cx="50.475" cy="451.121" r="4" fill="#0" id="circle15"/>
	<circle cx="52.0775" cy="467.147" r="4" fill="#0" id="circle16"/>
	<circle cx="53.6801" cy="249.195" r="4" fill="#0" id="circle17"/>
	<circle cx="60.0905" cy="481.57" r="4" fill="#0" id="circle18"/>
	<circle cx="68.1034" cy="495.994" r="4" fill="#0" id="circle19"/>
	<circle cx="68.1034" cy="512.019" r="4" fill="#0" id="circle20"/>
	<circle cx="69.706" cy="254.003" r="4" fill="#0" id="circle21"/>
	<circle cx="76.1163" cy="270.029" r="4" fill="#0" id="circle22"/>
	<circle cx="76.1163" cy="526.443" r="4" fill="#0" id="circle23"/>
	<circle cx="76.1163" cy="542.468" r="4" fill="#0" id="circle24"/>
	<circle cx="77.7189" cy="286.055" r="4" fill="#0" id="circle25"/>
	<circle cx="84.1292" cy="556.892" r="4" fill="#0" id="circle26"/>
	<circle cx="85.7318" cy="300.478" r="4" fill="#0" id="circle27"/>
	<circle cx="90.5396" cy="316.504" r="4" fill="#0" id="circle28"/>
	<circle cx="92.1422" cy="571.315" r="4" fill="#0" id="circle29"/>
	<circle cx="92.1422" cy="587.341" r="4" fill="#0" id="circle30"/>
	<circle cx="93.7447" cy="332.53" r="4" fill="#0" id="circle31"/>
	<circle cx="100.155" cy="601.764" r="4" fill="#0" id="circle32"/>
	<circle cx="100.155" cy="617.79" r="4" fill="#0" id="circle33"/>
	<circle cx="100.155" cy="633.816" r="4" fill="#0" id="circle34"/>
	<circle cx="100.155" cy="649.842" r="4" fill="#0" id="circle35"/>
	<circle cx="101.758" cy="346.953" r="4" fill="#0" id="circle36"/>
	<circle cx="101.758" cy="362.979" r="4" fill="#0" id="circle37"/>
	<circle cx="103.36" cy="665.868" r="4" fill="#0" id="circle38"/>
	<circle cx="104.963" cy="379.005" r="4" fill="#0" id="circle39"/>
	<circle cx="108.168" cy="681.893" r="4" fill="#0" id="circle40"/>
	<circle cx="108.168" cy="697.919" r="4" fill="#0" id="circle41"/>
	<circle cx="108.168" cy="713.945" r="4" fill="#0" id="circle42"/>
	<circle cx="116.181" cy="728.368" r="4" fill="#0" id="circle43"/>
	<circle cx="116.181" cy="744.394" r="4" fill="#0" id="circle44"/>
	<circle cx="117.784" cy="390.223" r="4" fill="#0" id="circle45"/>
	<circle cx="117.784" cy="406.249" r="4" fill="#0" id="circle46"/>
	<circle cx="117.784" cy="760.42" r="4" fill="#0" id="circle47"/>
	<circle cx="124.194" cy="776.446" r="4" fill="#0" id="circle48"/>
	<circle cx="125.796" cy="792.472" r="4" fill="#0" id="circle49"/>
	<circle cx="129.002" cy="419.069" r="4" fill="#0" id="circle50"/>
	<circle cx="132.207" cy="808.498" r="4" fill="#0" id="circle51"/>
	<circle cx="132.207" cy="824.523" r="4" fill="#0" id="circle52"/>
	<circle cx="132.207" cy="840.549" r="4" fill="#0" id="circle53"/>
	<circle cx="132.207" cy="967.153" r="4" fill="#0" id="circle54"/>
	<circle cx="132.207" cy="983.179" r="4" fill="#0" id="circle55"/>
	<circle cx="133.809" cy="435.095" r="4" fill="#0" id="circle56"/>
	<circle cx="133.809" cy="856.575" r="4" fill="#0" id="circle57"/>
	<circle cx="137.015" cy="451.121" r="4" fill="#0" id="circle58"/>
	<circle cx="140.22" cy="872.601" r="4" fill="#0" id="circle59"/>
	<circle cx="140.22" cy="951.128" r="4" fill="#0" id="circle60"/>
	<circle cx="148.233" cy="887.024" r="4" fill="#0" id="circle61"/>
	<circle cx="148.233" cy="903.05" r="4" fill="#0" id="circle62"/>
	<circle cx="148.233" cy="935.102" r="4" fill="#0" id="circle63"/>
	<circle cx="148.233" cy="987.987" r="4" fill="#0" id="circle64"/>
	<circle cx="153.04" cy="457.532" r="4" fill="#0" id="circle65"/>
	<circle cx="156.246" cy="917.473" r="4" fill="#0" id="circle66"/>
	<circle cx="164.258" cy="470.352" r="4" fill="#0" id="circle67"/>
	<circle cx="164.258" cy="987.987" r="4" fill="#0" id="circle68"/>
	<circle cx="172.271" cy="318.107" r="4" fill="#0" id="circle69"/>
	<circle cx="172.271" cy="334.132" r="4" fill="#0" id="circle70"/>
	<circle cx="180.284" cy="286.055" r="4" fill="#0" id="circle71"/>
	<circle cx="180.284" cy="302.081" r="4" fill="#0" id="circle72"/>
	<circle cx="180.284" cy="348.556" r="4" fill="#0" id="circle73"/>
	<circle cx="180.284" cy="364.582" r="4" fill="#0" id="circle74"/>
	<circle cx="180.284" cy="380.607" r="4" fill="#0" id="circle75"/>
	<circle cx="180.284" cy="430.288" r="4" fill="#0" id="circle76"/>
	<circle cx="180.284" cy="446.313" r="4" fill="#0" id="circle77"/>
	<circle cx="180.284" cy="462.339" r="4" fill="#0" id="circle78"/>
	<circle cx="180.284" cy="987.987" r="4" fill="#0" id="circle79"/>
	<circle cx="188.297" cy="229.964" r="4" fill="#0" id="circle80"/>
	<circle cx="188.297" cy="245.99" r="4" fill="#0" id="circle81"/>
	<circle cx="188.297" cy="262.016" r="4" fill="#0" id="circle82"/>
	<circle cx="188.297" cy="395.031" r="4" fill="#0" id="circle83"/>
	<circle cx="188.297" cy="411.057" r="4" fill="#0" id="circle84"/>
	<circle cx="196.31" cy="173.874" r="4" fill="#0" id="circle85"/>
	<circle cx="196.31" cy="189.9" r="4" fill="#0" id="circle86"/>
	<circle cx="196.31" cy="205.926" r="4" fill="#0" id="circle87"/>
	<circle cx="196.31" cy="987.987" r="4" fill="#0" id="circle88"/>
	<circle cx="204.323" cy="109.771" r="4" fill="#0" id="circle89"/>
	<circle cx="204.323" cy="125.796" r="4" fill="#0" id="circle90"/>
	<circle cx="204.323" cy="141.822" r="4" fill="#0" id="circle91"/>
	<circle cx="204.323" cy="157.848" r="4" fill="#0" id="circle92"/>
	<circle cx="212.336" cy="987.987" r="4" fill="#0" id="circle93"/>
	<circle cx="217.144" cy="96.9499" r="4" fill="#0" id="circle94"/>
	<circle cx="228.362" cy="987.987" r="4" fill="#0" id="circle95"/>
	<circle cx="229.964" cy="84.1292" r="4" fill="#0" id="circle96"/>
	<circle cx="242.785" cy="72.9111" r="4" fill="#0" id="circle97"/>
	<circle cx="244.388" cy="987.987" r="4" fill="#0" id="circle98"/>
	<circle cx="257.208" cy="64.8982" r="4" fill="#0" id="circle99"/>
	<circle cx="260.414" cy="987.987" r="4" fill="#0" id="circle100"/>
	<circle cx="270.029" cy="74.5137" r="4" fill="#0" id="circle101"/>
	<circle cx="270.029" cy="210.733" r="4" fill="#0" id="circle102"/>
	<circle cx="270.029" cy="226.759" r="4" fill="#0" id="circle103"/>
	<circle cx="270.029" cy="242.785" r="4" fill="#0" id="circle104"/>
	<circle cx="270.029" cy="258.811" r="4" fill="#0" id="circle105"/>
	<circle cx="270.029" cy="274.837" r="4" fill="#0" id="circle106"/>
	<circle cx="270.029" cy="290.863" r="4" fill="#0" id="circle107"/>
	<circle cx="270.029" cy="306.889" r="4" fill="#0" id="circle108"/>
	<circle cx="270.029" cy="322.914" r="4" fill="#0" id="circle109"/>
	<circle cx="270.029" cy="338.94" r="4" fill="#0" id="circle110"/>
	<circle cx="273.234" cy="354.966" r="4" fill="#0" id="circle111"/>
	<circle cx="276.439" cy="987.987" r="4" fill="#0" id="circle112"/>
	<circle cx="278.042" cy="88.937" r="4" fill="#0" id="circle113"/>
	<circle cx="278.042" cy="186.695" r="4" fill="#0" id="circle114"/>
	<circle cx="281.247" cy="369.389" r="4" fill="#0" id="circle115"/>
	<circle cx="286.055" cy="103.36" r="4" fill="#0" id="circle116"/>
	<circle cx="286.055" cy="119.386" r="4" fill="#0" id="circle117"/>
	<circle cx="286.055" cy="135.412" r="4" fill="#0" id="circle118"/>
	<circle cx="286.055" cy="151.438" r="4" fill="#0" id="circle119"/>
	<circle cx="286.055" cy="167.464" r="4" fill="#0" id="circle120"/>
	<circle cx="286.055" cy="385.415" r="4" fill="#0" id="circle121"/>
	<circle cx="292.465" cy="987.987" r="4" fill="#0" id="circle122"/>
	<circle cx="300.478" cy="310.094" r="4" fill="#0" id="circle123"/>
	<circle cx="300.478" cy="326.12" r="4" fill="#0" id="circle124"/>
	<circle cx="300.478" cy="342.145" r="4" fill="#0" id="circle125"/>
	<circle cx="300.478" cy="358.171" r="4" fill="#0" id="circle126"/>
	<circle cx="300.478" cy="374.197" r="4" fill="#0" id="circle127"/>
	<circle cx="306.889" cy="996" r="4" fill="#0" id="circle128"/>
	<circle cx="308.491" cy="262.016" r="4" fill="#0" id="circle129"/>
	<circle cx="308.491" cy="278.042" r="4" fill="#0" id="circle130"/>
	<circle cx="308.491" cy="294.068" r="4" fill="#0" id="circle131"/>
	<circle cx="316.504" cy="213.939" r="4" fill="#0" id="circle132"/>
	<circle cx="316.504" cy="229.964" r="4" fill="#0" id="circle133"/>
	<circle cx="316.504" cy="245.99" r="4" fill="#0" id="circle134"/>
	<circle cx="322.914" cy="996" r="4" fill="#0" id="circle135"/>
	<circle cx="324.517" cy="165.861" r="4" fill="#0" id="circle136"/>
	<circle cx="324.517" cy="181.887" r="4" fill="#0" id="circle137"/>
	<circle cx="324.517" cy="197.913" r="4" fill="#0" id="circle138"/>
	<circle cx="332.53" cy="93.7447" r="4" fill="#0" id="circle139"/>
	<circle cx="332.53" cy="109.771" r="4" fill="#0" id="circle140"/>
	<circle cx="332.53" cy="125.796" r="4" fill="#0" id="circle141"/>
	<circle cx="332.53" cy="141.822" r="4" fill="#0" id="circle142"/>
	<circle cx="338.94" cy="996" r="4" fill="#0" id="circle143"/>
	<circle cx="340.543" cy="45.6672" r="4" fill="#0" id="circle144"/>
	<circle cx="340.543" cy="61.6931" r="4" fill="#0" id="circle145"/>
	<circle cx="340.543" cy="77.7189" r="4" fill="#0" id="circle146"/>
	<circle cx="353.363" cy="32.8465" r="4" fill="#0" id="circle147"/>
	<circle cx="354.966" cy="996" r="4" fill="#0" id="circle148"/>
	<circle cx="361.376" cy="16.8207" r="4" fill="#0" id="circle149"/>
	<circle cx="370.992" cy="996" r="4" fill="#0" id="circle150"/>
	<circle cx="374.197" cy="4" r="4" fill="#0" id="circle151"/>
	<circle cx="387.018" cy="996" r="4" fill="#0" id="circle152"/>
	<circle cx="390.223" cy="8.80775" r="4" fill="#0" id="circle153"/>
	<circle cx="398.236" cy="322.914" r="4" fill="#0" id="circle154"/>
	<circle cx="398.236" cy="338.94" r="4" fill="#0" id="circle155"/>
	<circle cx="398.236" cy="354.966" r="4" fill="#0" id="circle156"/>
	<circle cx="403.044" cy="18.4233" r="4" fill="#0" id="circle157"/>
	<circle cx="403.044" cy="996" r="4" fill="#0" id="circle158"/>
	<circle cx="406.249" cy="34.4491" r="4" fill="#0" id="circle159"/>
	<circle cx="406.249" cy="170.669" r="4" fill="#0" id="circle160"/>
	<circle cx="406.249" cy="186.695" r="4" fill="#0" id="circle161"/>
	<circle cx="406.249" cy="202.721" r="4" fill="#0" id="circle162"/>
	<circle cx="406.249" cy="218.746" r="4" fill="#0" id="circle163"/>
	<circle cx="406.249" cy="234.772" r="4" fill="#0" id="circle164"/>
	<circle cx="406.249" cy="250.798" r="4" fill="#0" id="circle165"/>
	<circle cx="406.249" cy="266.824" r="4" fill="#0" id="circle166"/>
	<circle cx="406.249" cy="282.85" r="4" fill="#0" id="circle167"/>
	<circle cx="406.249" cy="298.876" r="4" fill="#0" id="circle168"/>
	<circle cx="406.249" cy="369.389" r="4" fill="#0" id="circle169"/>
	<circle cx="406.249" cy="385.415" r="4" fill="#0" id="circle170"/>
	<circle cx="414.262" cy="98.5525" r="4" fill="#0" id="circle171"/>
	<circle cx="414.262" cy="114.578" r="4" fill="#0" id="circle172"/>
	<circle cx="414.262" cy="130.604" r="4" fill="#0" id="circle173"/>
	<circle cx="414.262" cy="146.63" r="4" fill="#0" id="circle174"/>
	<circle cx="419.069" cy="44.0646" r="4" fill="#0" id="circle175"/>
	<circle cx="419.069" cy="996" r="4" fill="#0" id="circle176"/>
	<circle cx="420.672" cy="393.428" r="4" fill="#0" id="circle177"/>
	<circle cx="422.275" cy="60.0905" r="4" fill="#0" id="circle178"/>
	<circle cx="422.275" cy="76.1163" r="4" fill="#0" id="circle179"/>
	<circle cx="428.685" cy="374.197" r="4" fill="#0" id="circle180"/>
	<circle cx="435.095" cy="996" r="4" fill="#0" id="circle181"/>
	<circle cx="436.698" cy="326.12" r="4" fill="#0" id="circle182"/>
	<circle cx="436.698" cy="342.145" r="4" fill="#0" id="circle183"/>
	<circle cx="436.698" cy="358.171" r="4" fill="#0" id="circle184"/>
	<circle cx="444.711" cy="270.029" r="4" fill="#0" id="circle185"/>
	<circle cx="444.711" cy="286.055" r="4" fill="#0" id="circle186"/>
	<circle cx="444.711" cy="302.081" r="4" fill="#0" id="circle187"/>
	<circle cx="451.121" cy="996" r="4" fill="#0" id="circle188"/>
	<circle cx="452.724" cy="245.99" r="4" fill="#0" id="circle189"/>
	<circle cx="460.737" cy="197.913" r="4" fill="#0" id="circle190"/>
	<circle cx="460.737" cy="213.939" r="4" fill="#0" id="circle191"/>
	<circle cx="460.737" cy="229.964" r="4" fill="#0" id="circle192"/>
	<circle cx="467.147" cy="996" r="4" fill="#0" id="circle193"/>
	<circle cx="468.75" cy="133.809" r="4" fill="#0" id="circle194"/>
	<circle cx="468.75" cy="149.835" r="4" fill="#0" id="circle195"/>
	<circle cx="468.75" cy="165.861" r="4" fill="#0" id="circle196"/>
	<circle cx="468.75" cy="181.887" r="4" fill="#0" id="circle197"/>
	<circle cx="476.763" cy="85.7318" r="4" fill="#0" id="circle198"/>
	<circle cx="476.763" cy="101.758" r="4" fill="#0" id="circle199"/>
	<circle cx="476.763" cy="117.784" r="4" fill="#0" id="circle200"/>
	<circle cx="478.365" cy="979.974" r="4" fill="#0" id="circle201"/>
	<circle cx="486.378" cy="963.948" r="4" fill="#0" id="circle202"/>
	<circle cx="489.583" cy="72.9111" r="4" fill="#0" id="circle203"/>
	<circle cx="502.404" cy="955.935" r="4" fill="#0" id="circle204"/>
	<circle cx="505.609" cy="72.9111" r="4" fill="#0" id="circle205"/>
	<circle cx="510.417" cy="939.91" r="4" fill="#0" id="circle206"/>
	<circle cx="513.622" cy="56.8853" r="4" fill="#0" id="circle207"/>
	<circle cx="524.84" cy="931.897" r="4" fill="#0" id="circle208"/>
	<circle cx="526.443" cy="66.5008" r="4" fill="#0" id="circle209"/>
	<circle cx="526.443" cy="419.069" r="4" fill="#0" id="circle210"/>
	<circle cx="526.443" cy="435.095" r="4" fill="#0" id="circle211"/>
	<circle cx="526.443" cy="451.121" r="4" fill="#0" id="circle212"/>
	<circle cx="526.443" cy="467.147" r="4" fill="#0" id="circle213"/>
	<circle cx="529.648" cy="483.173" r="4" fill="#0" id="circle214"/>
	<circle cx="534.456" cy="80.9241" r="4" fill="#0" id="circle215"/>
	<circle cx="534.456" cy="362.979" r="4" fill="#0" id="circle216"/>
	<circle cx="534.456" cy="379.005" r="4" fill="#0" id="circle217"/>
	<circle cx="534.456" cy="395.031" r="4" fill="#0" id="circle218"/>
	<circle cx="534.456" cy="499.199" r="4" fill="#0" id="circle219"/>
	<circle cx="534.456" cy="515.225" r="4" fill="#0" id="circle220"/>
	<circle cx="534.456" cy="531.25" r="4" fill="#0" id="circle221"/>
	<circle cx="534.456" cy="547.276" r="4" fill="#0" id="circle222"/>
	<circle cx="537.661" cy="922.281" r="4" fill="#0" id="circle223"/>
	<circle cx="542.468" cy="95.3473" r="4" fill="#0" id="circle224"/>
	<circle cx="542.468" cy="111.373" r="4" fill="#0" id="circle225"/>
	<circle cx="542.468" cy="186.695" r="4" fill="#0" id="circle226"/>
	<circle cx="542.468" cy="202.721" r="4" fill="#0" id="circle227"/>
	<circle cx="542.468" cy="218.746" r="4" fill="#0" id="circle228"/>
	<circle cx="542.468" cy="234.772" r="4" fill="#0" id="circle229"/>
	<circle cx="542.468" cy="250.798" r="4" fill="#0" id="circle230"/>
	<circle cx="542.468" cy="266.824" r="4" fill="#0" id="circle231"/>
	<circle cx="542.468" cy="282.85" r="4" fill="#0" id="circle232"/>
	<circle cx="542.468" cy="298.876" r="4" fill="#0" id="circle233"/>
	<circle cx="542.468" cy="314.901" r="4" fill="#0" id="circle234"/>
	<circle cx="542.468" cy="330.927" r="4" fill="#0" id="circle235"/>
	<circle cx="542.468" cy="346.953" r="4" fill="#0" id="circle236"/>
	<circle cx="542.468" cy="561.7" r="4" fill="#0" id="circle237"/>
	<circle cx="542.468" cy="577.725" r="4" fill="#0" id="circle238"/>
	<circle cx="542.468" cy="593.751" r="4" fill="#0" id="circle239"/>
	<circle cx="542.468" cy="609.777" r="4" fill="#0" id="circle240"/>
	<circle cx="542.468" cy="625.803" r="4" fill="#0" id="circle241"/>
	<circle cx="542.468" cy="899.845" r="4" fill="#0" id="circle242"/>
	<circle cx="550.481" cy="125.796" r="4" fill="#0" id="circle243"/>
	<circle cx="550.481" cy="141.822" r="4" fill="#0" id="circle244"/>
	<circle cx="550.481" cy="157.848" r="4" fill="#0" id="circle245"/>
	<circle cx="555.289" cy="888.627" r="4" fill="#0" id="circle246"/>
	<circle cx="556.892" cy="617.79" r="4" fill="#0" id="circle247"/>
	<circle cx="563.302" cy="872.601" r="4" fill="#0" id="circle248"/>
	<circle cx="564.905" cy="598.559" r="4" fill="#0" id="circle249"/>
	<circle cx="574.52" cy="859.78" r="4" fill="#0" id="circle250"/>
	<circle cx="577.725" cy="585.738" r="4" fill="#0" id="circle251"/>
	<circle cx="580.931" cy="534.456" r="4" fill="#0" id="circle252"/>
	<circle cx="580.931" cy="550.481" r="4" fill="#0" id="circle253"/>
	<circle cx="580.931" cy="566.507" r="4" fill="#0" id="circle254"/>
	<circle cx="582.533" cy="827.729" r="4" fill="#0" id="circle255"/>
	<circle cx="582.533" cy="843.754" r="4" fill="#0" id="circle256"/>
	<circle cx="588.943" cy="510.417" r="4" fill="#0" id="circle257"/>
	<circle cx="595.354" cy="816.511" r="4" fill="#0" id="circle258"/>
	<circle cx="596.956" cy="486.378" r="4" fill="#0" id="circle259"/>
	<circle cx="603.367" cy="800.485" r="4" fill="#0" id="circle260"/>
	<circle cx="604.969" cy="470.352" r="4" fill="#0" id="circle261"/>
	<circle cx="612.982" cy="438.3" r="4" fill="#0" id="circle262"/>
	<circle cx="612.982" cy="454.326" r="4" fill="#0" id="circle263"/>
	<circle cx="614.585" cy="771.638" r="4" fill="#0" id="circle264"/>
	<circle cx="614.585" cy="787.664" r="4" fill="#0" id="circle265"/>
	<circle cx="620.995" cy="422.275" r="4" fill="#0" id="circle266"/>
	<circle cx="627.405" cy="760.42" r="4" fill="#0" id="circle267"/>
	<circle cx="633.816" cy="409.454" r="4" fill="#0" id="circle268"/>
	<circle cx="635.418" cy="744.394" r="4" fill="#0" id="circle269"/>
	<circle cx="641.829" cy="393.428" r="4" fill="#0" id="circle270"/>
	<circle cx="643.431" cy="728.368" r="4" fill="#0" id="circle271"/>
	<circle cx="646.637" cy="659.457" r="4" fill="#0" id="circle272"/>
	<circle cx="646.637" cy="675.483" r="4" fill="#0" id="circle273"/>
	<circle cx="646.637" cy="691.509" r="4" fill="#0" id="circle274"/>
	<circle cx="646.637" cy="707.535" r="4" fill="#0" id="circle275"/>
	<circle cx="654.649" cy="627.405" r="4" fill="#0" id="circle276"/>
	<circle cx="654.649" cy="643.431" r="4" fill="#0" id="circle277"/>
	<circle cx="656.252" cy="385.415" r="4" fill="#0" id="circle278"/>
	<circle cx="662.662" cy="611.38" r="4" fill="#0" id="circle279"/>
	<circle cx="670.675" cy="595.354" r="4" fill="#0" id="circle280"/>
	<circle cx="672.278" cy="385.415" r="4" fill="#0" id="circle281"/>
	<circle cx="678.688" cy="571.315" r="4" fill="#0" id="circle282"/>
	<circle cx="686.701" cy="483.173" r="4" fill="#0" id="circle283"/>
	<circle cx="686.701" cy="499.199" r="4" fill="#0" id="circle284"/>
	<circle cx="686.701" cy="515.225" r="4" fill="#0" id="circle285"/>
	<circle cx="686.701" cy="531.25" r="4" fill="#0" id="circle286"/>
	<circle cx="686.701" cy="547.276" r="4" fill="#0" id="circle287"/>
	<circle cx="688.304" cy="385.415" r="4" fill="#0" id="circle288"/>
	<circle cx="694.714" cy="401.441" r="4" fill="#0" id="circle289"/>
	<circle cx="694.714" cy="451.121" r="4" fill="#0" id="circle290"/>
	<circle cx="694.714" cy="467.147" r="4" fill="#0" id="circle291"/>
	<circle cx="702.727" cy="415.864" r="4" fill="#0" id="circle292"/>
	<circle cx="702.727" cy="431.89" r="4" fill="#0" id="circle293"/>
	</g>
</svg>