<?xml version="1.0" encoding="UTF-8" standalone="no"?>
<!-- Created with CurveBenchmark -->
<svg
	xmlns:dc="http://purl.org/dc/elements/1.1/"
	xmlns:cc="http://creativecommons.org/ns#"
	xmlns:rdf="http://www.w3.org/1999/02/22-rdf-syntax-ns#"
	xmlns:svg="http://www.w3.org/2000/svg"
	xmlns="http://www.w3.org/2000/svg"
	xmlns:sodipodi="http://sodipodi.sourceforge.net/DTD/sodipodi-0.dtd"
	xmlns:inkscape="http://www.inkscape.org/namespaces/inkscape"
	width="1000"
	height="1000"
	id="svg2"
	version="1.1"
	sodipodi:docname="manifold/fitconnect-stef07.png.txt">
<defs
	id="defs4" />
<metadata
	id="metadata7">
	<rdf:RDF>
		<cc:Work
			rdf:about="">
			<dc:format>image/svg+xml</dc:format>
			<dc:type
				rdf:resource="http://purl.org/dc/dcmitype/StillImage" />
			<dc:title></dc:title>
		</cc:Work>
	</rdf:RDF>
</metadata>
<g
	inkscape:label="Layer 1"
	inkscape:groupmode="layer"
	id="layer1">
	<path style="fill:none;stroke:red;stroke-width:1px;stroke-linecap:butt;stroke-linejoin:miter;stroke-opacity:1" d="M 4,77.2615 13.9002,57.4611 z" id="boundary" inkscape:connector-curvature="0" />
	<path style="fill:none;stroke:red;stroke-width:1px;stroke-linecap:butt;stroke-linejoin:miter;stroke-opacity:1" d="M 4,77.2615 13.9002,106.962 z" id="boundary" inkscape:connector-curvature="0" />
	<path style="fill:none;stroke:red;stroke-width:1px;stroke-linecap:butt;stroke-linejoin:miter;stroke-opacity:1" d="M 13.9002,57.4611 29.7405,41.6208 z" id="boundary" inkscape:connector-curvature="0" />
	<path style="fill:none;stroke:red;stroke-width:1px;stroke-linecap:butt;stroke-linejoin:miter;stroke-opacity:1" d="M 13.9002,106.962 29.7405,120.822 z" id="boundary" inkscape:connector-curvature="0" />
	<path style="fill:none;stroke:red;stroke-width:1px;stroke-linecap:butt;stroke-linejoin:miter;stroke-opacity:1" d="M 29.7405,41.6208 39.6407,21.8204 z" id="boundary" inkscape:connector-curvature="0" />
	<path style="fill:none;stroke:red;stroke-width:1px;stroke-linecap:butt;stroke-linejoin:miter;stroke-opacity:1" d="M 29.7405,120.822 47.5609,130.723 z" id="boundary" inkscape:connector-curvature="0" />
	<path style="fill:none;stroke:red;stroke-width:1px;stroke-linecap:butt;stroke-linejoin:miter;stroke-opacity:1" d="M 39.6407,21.8204 57.4611,11.9202 z" id="boundary" inkscape:connector-curvature="0" />
	<path style="fill:none;stroke:red;stroke-width:1px;stroke-linecap:butt;stroke-linejoin:miter;stroke-opacity:1" d="M 47.5609,130.723 67.3613,138.643 z" id="boundary" inkscape:connector-curvature="0" />
	<path style="fill:none;stroke:red;stroke-width:1px;stroke-linecap:butt;stroke-linejoin:miter;stroke-opacity:1" d="M 57.4611,11.9202 77.2615,11.9202 z" id="boundary" inkscape:connector-curvature="0" />
	<path style="fill:none;stroke:red;stroke-width:1px;stroke-linecap:butt;stroke-linejoin:miter;stroke-opacity:1" d="M 67.3613,138.643 85.1816,148.543 z" id="boundary" inkscape:connector-curvature="0" />
	<path style="fill:none;stroke:red;stroke-width:1px;stroke-linecap:butt;stroke-linejoin:miter;stroke-opacity:1" d="M 77.2615,11.9202 97.0619,4 z" id="boundary" inkscape:connector-curvature="0" />
	<path style="fill:none;stroke:red;stroke-width:1px;stroke-linecap:butt;stroke-linejoin:miter;stroke-opacity:1" d="M 83.2016,780.176 93.1018,750.475 z" id="boundary" inkscape:connector-curvature="0" />
	<path style="fill:none;stroke:red;stroke-width:1px;stroke-linecap:butt;stroke-linejoin:miter;stroke-opacity:1" d="M 83.2016,780.176 103.002,786.116 z" id="boundary" inkscape:connector-curvature="0" />
	<path style="fill:none;stroke:red;stroke-width:1px;stroke-linecap:butt;stroke-linejoin:miter;stroke-opacity:1" d="M 85.1816,148.543 103.002,158.443 z" id="boundary" inkscape:connector-curvature="0" />
	<path style="fill:none;stroke:red;stroke-width:1px;stroke-linecap:butt;stroke-linejoin:miter;stroke-opacity:1" d="M 93.1018,750.475 112.902,740.575 z" id="boundary" inkscape:connector-curvature="0" />
	<path style="fill:none;stroke:red;stroke-width:1px;stroke-linecap:butt;stroke-linejoin:miter;stroke-opacity:1" d="M 97.0619,4 116.862,11.9202 z" id="boundary" inkscape:connector-curvature="0" />
	<path style="fill:none;stroke:red;stroke-width:1px;stroke-linecap:butt;stroke-linejoin:miter;stroke-opacity:1" d="M 103.002,158.443 112.902,176.263 z" id="boundary" inkscape:connector-curvature="0" />
	<path style="fill:none;stroke:red;stroke-width:1px;stroke-linecap:butt;stroke-linejoin:miter;stroke-opacity:1" d="M 103.002,786.116 122.802,786.116 z" id="boundary" inkscape:connector-curvature="0" />
	<path style="fill:none;stroke:red;stroke-width:1px;stroke-linecap:butt;stroke-linejoin:miter;stroke-opacity:1" d="M 112.902,176.263 122.802,194.084 z" id="boundary" inkscape:connector-curvature="0" />
	<path style="fill:none;stroke:red;stroke-width:1px;stroke-linecap:butt;stroke-linejoin:miter;stroke-opacity:1" d="M 112.902,463.369 112.902,483.17 z" id="boundary" inkscape:connector-curvature="0" />
	<path style="fill:none;stroke:red;stroke-width:1px;stroke-linecap:butt;stroke-linejoin:miter;stroke-opacity:1" d="M 112.902,463.369 122.802,443.569 z" id="boundary" inkscape:connector-curvature="0" />
	<path style="fill:none;stroke:red;stroke-width:1px;stroke-linecap:butt;stroke-linejoin:miter;stroke-opacity:1" d="M 112.902,483.17 122.802,500.99 z" id="boundary" inkscape:connector-curvature="0" />
	<path style="fill:none;stroke:red;stroke-width:1px;stroke-linecap:butt;stroke-linejoin:miter;stroke-opacity:1" d="M 112.902,740.575 132.703,730.675 z" id="boundary" inkscape:connector-curvature="0" />
	<path style="fill:none;stroke:red;stroke-width:1px;stroke-linecap:butt;stroke-linejoin:miter;stroke-opacity:1" d="M 116.862,11.9202 136.663,13.9002 z" id="boundary" inkscape:connector-curvature="0" />
	<path style="fill:none;stroke:red;stroke-width:1px;stroke-linecap:butt;stroke-linejoin:miter;stroke-opacity:1" d="M 122.802,194.084 142.603,202.004 z" id="boundary" inkscape:connector-curvature="0" />
	<path style="fill:none;stroke:red;stroke-width:1px;stroke-linecap:butt;stroke-linejoin:miter;stroke-opacity:1" d="M 122.802,443.569 142.603,433.669 z" id="boundary" inkscape:connector-curvature="0" />
	<path style="fill:none;stroke:red;stroke-width:1px;stroke-linecap:butt;stroke-linejoin:miter;stroke-opacity:1" d="M 122.802,500.99 122.802,520.79 z" id="boundary" inkscape:connector-curvature="0" />
	<path style="fill:none;stroke:red;stroke-width:1px;stroke-linecap:butt;stroke-linejoin:miter;stroke-opacity:1" d="M 122.802,520.79 122.802,540.591 z" id="boundary" inkscape:connector-curvature="0" />
	<path style="fill:none;stroke:red;stroke-width:1px;stroke-linecap:butt;stroke-linejoin:miter;stroke-opacity:1" d="M 122.802,540.591 122.802,560.391 z" id="boundary" inkscape:connector-curvature="0" />
	<path style="fill:none;stroke:red;stroke-width:1px;stroke-linecap:butt;stroke-linejoin:miter;stroke-opacity:1" d="M 122.802,560.391 132.703,578.212 z" id="boundary" inkscape:connector-curvature="0" />
	<path style="fill:none;stroke:red;stroke-width:1px;stroke-linecap:butt;stroke-linejoin:miter;stroke-opacity:1" d="M 122.802,786.116 142.603,786.116 z" id="boundary" inkscape:connector-curvature="0" />
	<path style="fill:none;stroke:red;stroke-width:1px;stroke-linecap:butt;stroke-linejoin:miter;stroke-opacity:1" d="M 132.703,578.212 132.703,598.012 z" id="boundary" inkscape:connector-curvature="0" />
	<path style="fill:none;stroke:red;stroke-width:1px;stroke-linecap:butt;stroke-linejoin:miter;stroke-opacity:1" d="M 132.703,598.012 142.603,615.832 z" id="boundary" inkscape:connector-curvature="0" />
	<path style="fill:none;stroke:red;stroke-width:1px;stroke-linecap:butt;stroke-linejoin:miter;stroke-opacity:1" d="M 132.703,730.675 152.503,720.774 z" id="boundary" inkscape:connector-curvature="0" />
	<path style="fill:none;stroke:red;stroke-width:1px;stroke-linecap:butt;stroke-linejoin:miter;stroke-opacity:1" d="M 136.663,13.9002 146.563,31.7206 z" id="boundary" inkscape:connector-curvature="0" />
	<path style="fill:none;stroke:red;stroke-width:1px;stroke-linecap:butt;stroke-linejoin:miter;stroke-opacity:1" d="M 142.603,202.004 162.403,202.004 z" id="boundary" inkscape:connector-curvature="0" />
	<path style="fill:none;stroke:red;stroke-width:1px;stroke-linecap:butt;stroke-linejoin:miter;stroke-opacity:1" d="M 142.603,433.669 158.443,417.828 z" id="boundary" inkscape:connector-curvature="0" />
	<path style="fill:none;stroke:red;stroke-width:1px;stroke-linecap:butt;stroke-linejoin:miter;stroke-opacity:1" d="M 142.603,615.832 152.503,633.653 z" id="boundary" inkscape:connector-curvature="0" />
	<path style="fill:none;stroke:red;stroke-width:1px;stroke-linecap:butt;stroke-linejoin:miter;stroke-opacity:1" d="M 142.603,786.116 160.423,796.016 z" id="boundary" inkscape:connector-curvature="0" />
	<path style="fill:none;stroke:red;stroke-width:1px;stroke-linecap:butt;stroke-linejoin:miter;stroke-opacity:1" d="M 146.563,31.7206 162.403,45.5808 z" id="boundary" inkscape:connector-curvature="0" />
	<path style="fill:none;stroke:red;stroke-width:1px;stroke-linecap:butt;stroke-linejoin:miter;stroke-opacity:1" d="M 152.503,633.653 152.503,653.453 z" id="boundary" inkscape:connector-curvature="0" />
	<path style="fill:none;stroke:red;stroke-width:1px;stroke-linecap:butt;stroke-linejoin:miter;stroke-opacity:1" d="M 152.503,653.453 162.403,671.273 z" id="boundary" inkscape:connector-curvature="0" />
	<path style="fill:none;stroke:red;stroke-width:1px;stroke-linecap:butt;stroke-linejoin:miter;stroke-opacity:1" d="M 152.503,720.774 162.403,691.074 z" id="boundary" inkscape:connector-curvature="0" />
	<path style="fill:none;stroke:red;stroke-width:1px;stroke-linecap:butt;stroke-linejoin:miter;stroke-opacity:1" d="M 158.443,417.828 178.244,407.928 z" id="boundary" inkscape:connector-curvature="0" />
	<path style="fill:none;stroke:red;stroke-width:1px;stroke-linecap:butt;stroke-linejoin:miter;stroke-opacity:1" d="M 160.423,796.016 178.244,805.916 z" id="boundary" inkscape:connector-curvature="0" />
	<path style="fill:none;stroke:red;stroke-width:1px;stroke-linecap:butt;stroke-linejoin:miter;stroke-opacity:1" d="M 162.403,45.5808 164.383,65.3812 z" id="boundary" inkscape:connector-curvature="0" />
	<path style="fill:none;stroke:red;stroke-width:1px;stroke-linecap:butt;stroke-linejoin:miter;stroke-opacity:1" d="M 162.403,202.004 180.224,211.904 z" id="boundary" inkscape:connector-curvature="0" />
	<path style="fill:none;stroke:red;stroke-width:1px;stroke-linecap:butt;stroke-linejoin:miter;stroke-opacity:1" d="M 162.403,671.273 162.403,691.074 z" id="boundary" inkscape:connector-curvature="0" />
	<path style="fill:none;stroke:red;stroke-width:1px;stroke-linecap:butt;stroke-linejoin:miter;stroke-opacity:1" d="M 164.383,65.3812 184.184,65.3812 z" id="boundary" inkscape:connector-curvature="0" />
	<path style="fill:none;stroke:red;stroke-width:1px;stroke-linecap:butt;stroke-linejoin:miter;stroke-opacity:1" d="M 178.244,407.928 198.044,398.028 z" id="boundary" inkscape:connector-curvature="0" />
	<path style="fill:none;stroke:red;stroke-width:1px;stroke-linecap:butt;stroke-linejoin:miter;stroke-opacity:1" d="M 178.244,805.916 198.044,805.916 z" id="boundary" inkscape:connector-curvature="0" />
	<path style="fill:none;stroke:red;stroke-width:1px;stroke-linecap:butt;stroke-linejoin:miter;stroke-opacity:1" d="M 180.224,211.904 194.084,227.745 z" id="boundary" inkscape:connector-curvature="0" />
	<path style="fill:none;stroke:red;stroke-width:1px;stroke-linecap:butt;stroke-linejoin:miter;stroke-opacity:1" d="M 184.184,65.3812 203.984,55.481 z" id="boundary" inkscape:connector-curvature="0" />
	<path style="fill:none;stroke:red;stroke-width:1px;stroke-linecap:butt;stroke-linejoin:miter;stroke-opacity:1" d="M 184.184,489.11 194.084,469.309 z" id="boundary" inkscape:connector-curvature="0" />
	<path style="fill:none;stroke:red;stroke-width:1px;stroke-linecap:butt;stroke-linejoin:miter;stroke-opacity:1" d="M 184.184,489.11 194.084,506.93 z" id="boundary" inkscape:connector-curvature="0" />
	<path style="fill:none;stroke:red;stroke-width:1px;stroke-linecap:butt;stroke-linejoin:miter;stroke-opacity:1" d="M 184.184,528.711 194.084,506.93 z" id="boundary" inkscape:connector-curvature="0" />
	<path style="fill:none;stroke:red;stroke-width:1px;stroke-linecap:butt;stroke-linejoin:miter;stroke-opacity:1" d="M 184.184,528.711 194.084,546.531 z" id="boundary" inkscape:connector-curvature="0" />
	<path style="fill:none;stroke:red;stroke-width:1px;stroke-linecap:butt;stroke-linejoin:miter;stroke-opacity:1" d="M 184.184,568.311 194.084,546.531 z" id="boundary" inkscape:connector-curvature="0" />
	<path style="fill:none;stroke:red;stroke-width:1px;stroke-linecap:butt;stroke-linejoin:miter;stroke-opacity:1" d="M 184.184,568.311 194.084,586.132 z" id="boundary" inkscape:connector-curvature="0" />
	<path style="fill:none;stroke:red;stroke-width:1px;stroke-linecap:butt;stroke-linejoin:miter;stroke-opacity:1" d="M 194.084,227.745 213.884,235.665 z" id="boundary" inkscape:connector-curvature="0" />
	<path style="fill:none;stroke:red;stroke-width:1px;stroke-linecap:butt;stroke-linejoin:miter;stroke-opacity:1" d="M 194.084,469.309 213.884,459.409 z" id="boundary" inkscape:connector-curvature="0" />
	<path style="fill:none;stroke:red;stroke-width:1px;stroke-linecap:butt;stroke-linejoin:miter;stroke-opacity:1" d="M 194.084,586.132 194.084,607.912 z" id="boundary" inkscape:connector-curvature="0" />
	<path style="fill:none;stroke:red;stroke-width:1px;stroke-linecap:butt;stroke-linejoin:miter;stroke-opacity:1" d="M 194.084,607.912 203.984,625.733 z" id="boundary" inkscape:connector-curvature="0" />
	<path style="fill:none;stroke:red;stroke-width:1px;stroke-linecap:butt;stroke-linejoin:miter;stroke-opacity:1" d="M 198.044,398.028 215.864,388.128 z" id="boundary" inkscape:connector-curvature="0" />
	<path style="fill:none;stroke:red;stroke-width:1px;stroke-linecap:butt;stroke-linejoin:miter;stroke-opacity:1" d="M 198.044,805.916 217.844,803.936 z" id="boundary" inkscape:connector-curvature="0" />
	<path style="fill:none;stroke:red;stroke-width:1px;stroke-linecap:butt;stroke-linejoin:miter;stroke-opacity:1" d="M 203.984,55.481 223.784,57.4611 z" id="boundary" inkscape:connector-curvature="0" />
	<path style="fill:none;stroke:red;stroke-width:1px;stroke-linecap:butt;stroke-linejoin:miter;stroke-opacity:1" d="M 203.984,625.733 213.884,643.553 z" id="boundary" inkscape:connector-curvature="0" />
	<path style="fill:none;stroke:red;stroke-width:1px;stroke-linecap:butt;stroke-linejoin:miter;stroke-opacity:1" d="M 213.884,235.665 227.745,251.505 z" id="boundary" inkscape:connector-curvature="0" />
	<path style="fill:none;stroke:red;stroke-width:1px;stroke-linecap:butt;stroke-linejoin:miter;stroke-opacity:1" d="M 213.884,459.409 233.685,459.409 z" id="boundary" inkscape:connector-curvature="0" />
	<path style="fill:none;stroke:red;stroke-width:1px;stroke-linecap:butt;stroke-linejoin:miter;stroke-opacity:1" d="M 213.884,643.553 213.884,667.313 z" id="boundary" inkscape:connector-curvature="0" />
	<path style="fill:none;stroke:red;stroke-width:1px;stroke-linecap:butt;stroke-linejoin:miter;stroke-opacity:1" d="M 213.884,667.313 223.784,685.134 z" id="boundary" inkscape:connector-curvature="0" />
	<path style="fill:none;stroke:red;stroke-width:1px;stroke-linecap:butt;stroke-linejoin:miter;stroke-opacity:1" d="M 215.864,388.128 233.685,378.228 z" id="boundary" inkscape:connector-curvature="0" />
	<path style="fill:none;stroke:red;stroke-width:1px;stroke-linecap:butt;stroke-linejoin:miter;stroke-opacity:1" d="M 217.844,803.936 233.685,786.116 z" id="boundary" inkscape:connector-curvature="0" />
	<path style="fill:none;stroke:red;stroke-width:1px;stroke-linecap:butt;stroke-linejoin:miter;stroke-opacity:1" d="M 223.784,57.4611 243.585,61.4212 z" id="boundary" inkscape:connector-curvature="0" />
	<path style="fill:none;stroke:red;stroke-width:1px;stroke-linecap:butt;stroke-linejoin:miter;stroke-opacity:1" d="M 223.784,685.134 223.784,704.934 z" id="boundary" inkscape:connector-curvature="0" />
	<path style="fill:none;stroke:red;stroke-width:1px;stroke-linecap:butt;stroke-linejoin:miter;stroke-opacity:1" d="M 223.784,704.934 223.784,726.715 z" id="boundary" inkscape:connector-curvature="0" />
	<path style="fill:none;stroke:red;stroke-width:1px;stroke-linecap:butt;stroke-linejoin:miter;stroke-opacity:1" d="M 223.784,726.715 227.745,746.515 z" id="boundary" inkscape:connector-curvature="0" />
	<path style="fill:none;stroke:red;stroke-width:1px;stroke-linecap:butt;stroke-linejoin:miter;stroke-opacity:1" d="M 227.745,251.505 247.545,259.425 z" id="boundary" inkscape:connector-curvature="0" />
	<path style="fill:none;stroke:red;stroke-width:1px;stroke-linecap:butt;stroke-linejoin:miter;stroke-opacity:1" d="M 227.745,746.515 233.685,766.315 z" id="boundary" inkscape:connector-curvature="0" />
	<path style="fill:none;stroke:red;stroke-width:1px;stroke-linecap:butt;stroke-linejoin:miter;stroke-opacity:1" d="M 233.685,378.228 251.505,368.327 z" id="boundary" inkscape:connector-curvature="0" />
	<path style="fill:none;stroke:red;stroke-width:1px;stroke-linecap:butt;stroke-linejoin:miter;stroke-opacity:1" d="M 233.685,459.409 253.485,449.509 z" id="boundary" inkscape:connector-curvature="0" />
	<path style="fill:none;stroke:red;stroke-width:1px;stroke-linecap:butt;stroke-linejoin:miter;stroke-opacity:1" d="M 233.685,766.315 233.685,786.116 z" id="boundary" inkscape:connector-curvature="0" />
	<path style="fill:none;stroke:red;stroke-width:1px;stroke-linecap:butt;stroke-linejoin:miter;stroke-opacity:1" d="M 243.585,61.4212 263.385,61.4212 z" id="boundary" inkscape:connector-curvature="0" />
	<path style="fill:none;stroke:red;stroke-width:1px;stroke-linecap:butt;stroke-linejoin:miter;stroke-opacity:1" d="M 247.545,259.425 263.385,271.305 z" id="boundary" inkscape:connector-curvature="0" />
	<path style="fill:none;stroke:red;stroke-width:1px;stroke-linecap:butt;stroke-linejoin:miter;stroke-opacity:1" d="M 251.505,368.327 269.325,358.427 z" id="boundary" inkscape:connector-curvature="0" />
	<path style="fill:none;stroke:red;stroke-width:1px;stroke-linecap:butt;stroke-linejoin:miter;stroke-opacity:1" d="M 253.485,449.509 273.285,449.509 z" id="boundary" inkscape:connector-curvature="0" />
	<path style="fill:none;stroke:red;stroke-width:1px;stroke-linecap:butt;stroke-linejoin:miter;stroke-opacity:1" d="M 263.385,61.4212 281.206,71.3214 z" id="boundary" inkscape:connector-curvature="0" />
	<path style="fill:none;stroke:red;stroke-width:1px;stroke-linecap:butt;stroke-linejoin:miter;stroke-opacity:1" d="M 263.385,271.305 281.206,281.206 z" id="boundary" inkscape:connector-curvature="0" />
	<path style="fill:none;stroke:red;stroke-width:1px;stroke-linecap:butt;stroke-linejoin:miter;stroke-opacity:1" d="M 269.325,358.427 287.146,348.527 z" id="boundary" inkscape:connector-curvature="0" />
	<path style="fill:none;stroke:red;stroke-width:1px;stroke-linecap:butt;stroke-linejoin:miter;stroke-opacity:1" d="M 273.285,449.509 293.086,453.469 z" id="boundary" inkscape:connector-curvature="0" />
	<path style="fill:none;stroke:red;stroke-width:1px;stroke-linecap:butt;stroke-linejoin:miter;stroke-opacity:1" d="M 281.206,71.3214 297.046,83.2016 z" id="boundary" inkscape:connector-curvature="0" />
	<path style="fill:none;stroke:red;stroke-width:1px;stroke-linecap:butt;stroke-linejoin:miter;stroke-opacity:1" d="M 281.206,281.206 293.086,297.046 z" id="boundary" inkscape:connector-curvature="0" />
	<path style="fill:none;stroke:red;stroke-width:1px;stroke-linecap:butt;stroke-linejoin:miter;stroke-opacity:1" d="M 287.146,348.527 306.946,338.627 z" id="boundary" inkscape:connector-curvature="0" />
	<path style="fill:none;stroke:red;stroke-width:1px;stroke-linecap:butt;stroke-linejoin:miter;stroke-opacity:1" d="M 293.086,297.046 308.926,310.906 z" id="boundary" inkscape:connector-curvature="0" />
	<path style="fill:none;stroke:red;stroke-width:1px;stroke-linecap:butt;stroke-linejoin:miter;stroke-opacity:1" d="M 293.086,453.469 312.886,449.509 z" id="boundary" inkscape:connector-curvature="0" />
	<path style="fill:none;stroke:red;stroke-width:1px;stroke-linecap:butt;stroke-linejoin:miter;stroke-opacity:1" d="M 297.046,83.2016 312.886,97.0619 z" id="boundary" inkscape:connector-curvature="0" />
	<path style="fill:none;stroke:red;stroke-width:1px;stroke-linecap:butt;stroke-linejoin:miter;stroke-opacity:1" d="M 306.946,338.627 308.926,310.906 z" id="boundary" inkscape:connector-curvature="0" />
	<path style="fill:none;stroke:red;stroke-width:1px;stroke-linecap:butt;stroke-linejoin:miter;stroke-opacity:1" d="M 312.886,97.0619 330.707,106.962 z" id="boundary" inkscape:connector-curvature="0" />
	<path style="fill:none;stroke:red;stroke-width:1px;stroke-linecap:butt;stroke-linejoin:miter;stroke-opacity:1" d="M 312.886,449.509 330.707,439.609 z" id="boundary" inkscape:connector-curvature="0" />
	<path style="fill:none;stroke:red;stroke-width:1px;stroke-linecap:butt;stroke-linejoin:miter;stroke-opacity:1" d="M 330.707,106.962 346.547,120.822 z" id="boundary" inkscape:connector-curvature="0" />
	<path style="fill:none;stroke:red;stroke-width:1px;stroke-linecap:butt;stroke-linejoin:miter;stroke-opacity:1" d="M 330.707,439.609 350.507,439.609 z" id="boundary" inkscape:connector-curvature="0" />
	<path style="fill:none;stroke:red;stroke-width:1px;stroke-linecap:butt;stroke-linejoin:miter;stroke-opacity:1" d="M 346.547,120.822 360.407,136.663 z" id="boundary" inkscape:connector-curvature="0" />
	<path style="fill:none;stroke:red;stroke-width:1px;stroke-linecap:butt;stroke-linejoin:miter;stroke-opacity:1" d="M 350.507,439.609 370.307,439.609 z" id="boundary" inkscape:connector-curvature="0" />
	<path style="fill:none;stroke:red;stroke-width:1px;stroke-linecap:butt;stroke-linejoin:miter;stroke-opacity:1" d="M 360.407,136.663 376.248,150.523 z" id="boundary" inkscape:connector-curvature="0" />
	<path style="fill:none;stroke:red;stroke-width:1px;stroke-linecap:butt;stroke-linejoin:miter;stroke-opacity:1" d="M 370.307,439.609 390.108,439.609 z" id="boundary" inkscape:connector-curvature="0" />
	<path style="fill:none;stroke:red;stroke-width:1px;stroke-linecap:butt;stroke-linejoin:miter;stroke-opacity:1" d="M 376.248,150.523 390.108,166.363 z" id="boundary" inkscape:connector-curvature="0" />
	<path style="fill:none;stroke:red;stroke-width:1px;stroke-linecap:butt;stroke-linejoin:miter;stroke-opacity:1" d="M 390.108,166.363 400.008,184.184 z" id="boundary" inkscape:connector-curvature="0" />
	<path style="fill:none;stroke:red;stroke-width:1px;stroke-linecap:butt;stroke-linejoin:miter;stroke-opacity:1" d="M 390.108,439.609 409.908,439.609 z" id="boundary" inkscape:connector-curvature="0" />
	<path style="fill:none;stroke:red;stroke-width:1px;stroke-linecap:butt;stroke-linejoin:miter;stroke-opacity:1" d="M 400.008,184.184 411.888,200.024 z" id="boundary" inkscape:connector-curvature="0" />
	<path style="fill:none;stroke:red;stroke-width:1px;stroke-linecap:butt;stroke-linejoin:miter;stroke-opacity:1" d="M 409.908,439.609 427.729,449.509 z" id="boundary" inkscape:connector-curvature="0" />
	<path style="fill:none;stroke:red;stroke-width:1px;stroke-linecap:butt;stroke-linejoin:miter;stroke-opacity:1" d="M 411.888,200.024 427.729,211.904 z" id="boundary" inkscape:connector-curvature="0" />
	<path style="fill:none;stroke:red;stroke-width:1px;stroke-linecap:butt;stroke-linejoin:miter;stroke-opacity:1" d="M 427.729,211.904 435.649,231.705 z" id="boundary" inkscape:connector-curvature="0" />
	<path style="fill:none;stroke:red;stroke-width:1px;stroke-linecap:butt;stroke-linejoin:miter;stroke-opacity:1" d="M 427.729,449.509 439.609,465.349 z" id="boundary" inkscape:connector-curvature="0" />
	<path style="fill:none;stroke:red;stroke-width:1px;stroke-linecap:butt;stroke-linejoin:miter;stroke-opacity:1" d="M 435.649,231.705 451.489,245.565 z" id="boundary" inkscape:connector-curvature="0" />
	<path style="fill:none;stroke:red;stroke-width:1px;stroke-linecap:butt;stroke-linejoin:miter;stroke-opacity:1" d="M 439.609,465.349 449.509,483.17 z" id="boundary" inkscape:connector-curvature="0" />
	<path style="fill:none;stroke:red;stroke-width:1px;stroke-linecap:butt;stroke-linejoin:miter;stroke-opacity:1" d="M 449.509,483.17 465.349,497.03 z" id="boundary" inkscape:connector-curvature="0" />
	<path style="fill:none;stroke:red;stroke-width:1px;stroke-linecap:butt;stroke-linejoin:miter;stroke-opacity:1" d="M 451.489,245.565 465.349,261.405 z" id="boundary" inkscape:connector-curvature="0" />
	<path style="fill:none;stroke:red;stroke-width:1px;stroke-linecap:butt;stroke-linejoin:miter;stroke-opacity:1" d="M 465.349,261.405 481.19,275.265 z" id="boundary" inkscape:connector-curvature="0" />
	<path style="fill:none;stroke:red;stroke-width:1px;stroke-linecap:butt;stroke-linejoin:miter;stroke-opacity:1" d="M 465.349,497.03 481.19,508.91 z" id="boundary" inkscape:connector-curvature="0" />
	<path style="fill:none;stroke:red;stroke-width:1px;stroke-linecap:butt;stroke-linejoin:miter;stroke-opacity:1" d="M 481.19,275.265 495.05,291.106 z" id="boundary" inkscape:connector-curvature="0" />
	<path style="fill:none;stroke:red;stroke-width:1px;stroke-linecap:butt;stroke-linejoin:miter;stroke-opacity:1" d="M 481.19,508.91 499.01,518.81 z" id="boundary" inkscape:connector-curvature="0" />
	<path style="fill:none;stroke:red;stroke-width:1px;stroke-linecap:butt;stroke-linejoin:miter;stroke-opacity:1" d="M 495.05,291.106 510.89,304.966 z" id="boundary" inkscape:connector-curvature="0" />
	<path style="fill:none;stroke:red;stroke-width:1px;stroke-linecap:butt;stroke-linejoin:miter;stroke-opacity:1" d="M 499.01,518.81 508.91,536.631 z" id="boundary" inkscape:connector-curvature="0" />
	<path style="fill:none;stroke:red;stroke-width:1px;stroke-linecap:butt;stroke-linejoin:miter;stroke-opacity:1" d="M 508.91,536.631 520.79,552.471 z" id="boundary" inkscape:connector-curvature="0" />
	<path style="fill:none;stroke:red;stroke-width:1px;stroke-linecap:butt;stroke-linejoin:miter;stroke-opacity:1" d="M 510.89,304.966 518.81,324.766 z" id="boundary" inkscape:connector-curvature="0" />
	<path style="fill:none;stroke:red;stroke-width:1px;stroke-linecap:butt;stroke-linejoin:miter;stroke-opacity:1" d="M 518.81,324.766 534.651,338.627 z" id="boundary" inkscape:connector-curvature="0" />
	<path style="fill:none;stroke:red;stroke-width:1px;stroke-linecap:butt;stroke-linejoin:miter;stroke-opacity:1" d="M 520.79,552.471 534.651,568.311 z" id="boundary" inkscape:connector-curvature="0" />
	<path style="fill:none;stroke:red;stroke-width:1px;stroke-linecap:butt;stroke-linejoin:miter;stroke-opacity:1" d="M 534.651,338.627 540.591,358.427 z" id="boundary" inkscape:connector-curvature="0" />
	<path style="fill:none;stroke:red;stroke-width:1px;stroke-linecap:butt;stroke-linejoin:miter;stroke-opacity:1" d="M 534.651,568.311 552.471,578.212 z" id="boundary" inkscape:connector-curvature="0" />
	<path style="fill:none;stroke:red;stroke-width:1px;stroke-linecap:butt;stroke-linejoin:miter;stroke-opacity:1" d="M 540.591,358.427 550.491,376.248 z" id="boundary" inkscape:connector-curvature="0" />
	<path style="fill:none;stroke:red;stroke-width:1px;stroke-linecap:butt;stroke-linejoin:miter;stroke-opacity:1" d="M 550.491,376.248 560.391,394.068 z" id="boundary" inkscape:connector-curvature="0" />
	<path style="fill:none;stroke:red;stroke-width:1px;stroke-linecap:butt;stroke-linejoin:miter;stroke-opacity:1" d="M 552.471,578.212 570.291,588.112 z" id="boundary" inkscape:connector-curvature="0" />
	<path style="fill:none;stroke:red;stroke-width:1px;stroke-linecap:butt;stroke-linejoin:miter;stroke-opacity:1" d="M 560.391,394.068 570.291,411.888 z" id="boundary" inkscape:connector-curvature="0" />
	<path style="fill:none;stroke:red;stroke-width:1px;stroke-linecap:butt;stroke-linejoin:miter;stroke-opacity:1" d="M 570.291,411.888 582.172,427.729 z" id="boundary" inkscape:connector-curvature="0" />
	<path style="fill:none;stroke:red;stroke-width:1px;stroke-linecap:butt;stroke-linejoin:miter;stroke-opacity:1" d="M 570.291,588.112 588.112,598.012 z" id="boundary" inkscape:connector-curvature="0" />
	<path style="fill:none;stroke:red;stroke-width:1px;stroke-linecap:butt;stroke-linejoin:miter;stroke-opacity:1" d="M 582.172,427.729 590.092,447.529 z" id="boundary" inkscape:connector-curvature="0" />
	<path style="fill:none;stroke:red;stroke-width:1px;stroke-linecap:butt;stroke-linejoin:miter;stroke-opacity:1" d="M 588.112,598.012 607.912,598.012 z" id="boundary" inkscape:connector-curvature="0" />
	<path style="fill:none;stroke:red;stroke-width:1px;stroke-linecap:butt;stroke-linejoin:miter;stroke-opacity:1" d="M 590.092,447.529 605.932,459.409 z" id="boundary" inkscape:connector-curvature="0" />
	<path style="fill:none;stroke:red;stroke-width:1px;stroke-linecap:butt;stroke-linejoin:miter;stroke-opacity:1" d="M 605.932,459.409 619.792,475.25 z" id="boundary" inkscape:connector-curvature="0" />
	<path style="fill:none;stroke:red;stroke-width:1px;stroke-linecap:butt;stroke-linejoin:miter;stroke-opacity:1" d="M 607.912,598.012 619.792,613.852 z" id="boundary" inkscape:connector-curvature="0" />
	<path style="fill:none;stroke:red;stroke-width:1px;stroke-linecap:butt;stroke-linejoin:miter;stroke-opacity:1" d="M 619.792,475.25 629.693,493.07 z" id="boundary" inkscape:connector-curvature="0" />
	<path style="fill:none;stroke:red;stroke-width:1px;stroke-linecap:butt;stroke-linejoin:miter;stroke-opacity:1" d="M 619.792,613.852 639.593,621.772 z" id="boundary" inkscape:connector-curvature="0" />
	<path style="fill:none;stroke:red;stroke-width:1px;stroke-linecap:butt;stroke-linejoin:miter;stroke-opacity:1" d="M 629.693,493.07 643.553,508.91 z" id="boundary" inkscape:connector-curvature="0" />
	<path style="fill:none;stroke:red;stroke-width:1px;stroke-linecap:butt;stroke-linejoin:miter;stroke-opacity:1" d="M 639.593,621.772 657.413,631.673 z" id="boundary" inkscape:connector-curvature="0" />
	<path style="fill:none;stroke:red;stroke-width:1px;stroke-linecap:butt;stroke-linejoin:miter;stroke-opacity:1" d="M 643.553,508.91 659.393,522.77 z" id="boundary" inkscape:connector-curvature="0" />
	<path style="fill:none;stroke:red;stroke-width:1px;stroke-linecap:butt;stroke-linejoin:miter;stroke-opacity:1" d="M 657.413,631.673 677.214,637.613 z" id="boundary" inkscape:connector-curvature="0" />
	<path style="fill:none;stroke:red;stroke-width:1px;stroke-linecap:butt;stroke-linejoin:miter;stroke-opacity:1" d="M 659.393,522.77 677.214,532.671 z" id="boundary" inkscape:connector-curvature="0" />
	<path style="fill:none;stroke:red;stroke-width:1px;stroke-linecap:butt;stroke-linejoin:miter;stroke-opacity:1" d="M 677.214,532.671 697.014,540.591 z" id="boundary" inkscape:connector-curvature="0" />
	<path style="fill:none;stroke:red;stroke-width:1px;stroke-linecap:butt;stroke-linejoin:miter;stroke-opacity:1" d="M 677.214,637.613 697.014,637.613 z" id="boundary" inkscape:connector-curvature="0" />
	<path style="fill:none;stroke:red;stroke-width:1px;stroke-linecap:butt;stroke-linejoin:miter;stroke-opacity:1" d="M 697.014,540.591 716.814,546.531 z" id="boundary" inkscape:connector-curvature="0" />
	<path style="fill:none;stroke:red;stroke-width:1px;stroke-linecap:butt;stroke-linejoin:miter;stroke-opacity:1" d="M 697.014,637.613 702.954,657.413 z" id="boundary" inkscape:connector-curvature="0" />
	<path style="fill:none;stroke:red;stroke-width:1px;stroke-linecap:butt;stroke-linejoin:miter;stroke-opacity:1" d="M 702.954,657.413 722.754,655.433 z" id="boundary" inkscape:connector-curvature="0" />
	<path style="fill:none;stroke:red;stroke-width:1px;stroke-linecap:butt;stroke-linejoin:miter;stroke-opacity:1" d="M 716.814,546.531 734.635,556.431 z" id="boundary" inkscape:connector-curvature="0" />
	<path style="fill:none;stroke:red;stroke-width:1px;stroke-linecap:butt;stroke-linejoin:miter;stroke-opacity:1" d="M 722.754,655.433 738.595,667.313 z" id="boundary" inkscape:connector-curvature="0" />
	<path style="fill:none;stroke:red;stroke-width:1px;stroke-linecap:butt;stroke-linejoin:miter;stroke-opacity:1" d="M 734.635,556.431 752.455,566.331 z" id="boundary" inkscape:connector-curvature="0" />
	<path style="fill:none;stroke:red;stroke-width:1px;stroke-linecap:butt;stroke-linejoin:miter;stroke-opacity:1" d="M 738.595,667.313 758.395,671.273 z" id="boundary" inkscape:connector-curvature="0" />
	<path style="fill:none;stroke:red;stroke-width:1px;stroke-linecap:butt;stroke-linejoin:miter;stroke-opacity:1" d="M 752.455,566.331 770.275,576.232 z" id="boundary" inkscape:connector-curvature="0" />
	<path style="fill:none;stroke:red;stroke-width:1px;stroke-linecap:butt;stroke-linejoin:miter;stroke-opacity:1" d="M 758.395,671.273 778.196,677.214 z" id="boundary" inkscape:connector-curvature="0" />
	<path style="fill:none;stroke:red;stroke-width:1px;stroke-linecap:butt;stroke-linejoin:miter;stroke-opacity:1" d="M 770.275,576.232 778.196,596.032 z" id="boundary" inkscape:connector-curvature="0" />
	<path style="fill:none;stroke:red;stroke-width:1px;stroke-linecap:butt;stroke-linejoin:miter;stroke-opacity:1" d="M 778.196,596.032 796.016,605.932 z" id="boundary" inkscape:connector-curvature="0" />
	<path style="fill:none;stroke:red;stroke-width:1px;stroke-linecap:butt;stroke-linejoin:miter;stroke-opacity:1" d="M 778.196,677.214 796.016,687.114 z" id="boundary" inkscape:connector-curvature="0" />
	<path style="fill:none;stroke:red;stroke-width:1px;stroke-linecap:butt;stroke-linejoin:miter;stroke-opacity:1" d="M 796.016,605.932 811.856,617.812 z" id="boundary" inkscape:connector-curvature="0" />
	<path style="fill:none;stroke:red;stroke-width:1px;stroke-linecap:butt;stroke-linejoin:miter;stroke-opacity:1" d="M 796.016,687.114 813.836,697.014 z" id="boundary" inkscape:connector-curvature="0" />
	<path style="fill:none;stroke:red;stroke-width:1px;stroke-linecap:butt;stroke-linejoin:miter;stroke-opacity:1" d="M 811.856,617.812 821.756,635.633 z" id="boundary" inkscape:connector-curvature="0" />
	<path style="fill:none;stroke:red;stroke-width:1px;stroke-linecap:butt;stroke-linejoin:miter;stroke-opacity:1" d="M 813.836,697.014 827.697,712.854 z" id="boundary" inkscape:connector-curvature="0" />
	<path style="fill:none;stroke:red;stroke-width:1px;stroke-linecap:butt;stroke-linejoin:miter;stroke-opacity:1" d="M 821.756,635.633 839.577,645.533 z" id="boundary" inkscape:connector-curvature="0" />
	<path style="fill:none;stroke:red;stroke-width:1px;stroke-linecap:butt;stroke-linejoin:miter;stroke-opacity:1" d="M 827.697,712.854 843.537,726.715 z" id="boundary" inkscape:connector-curvature="0" />
	<path style="fill:none;stroke:red;stroke-width:1px;stroke-linecap:butt;stroke-linejoin:miter;stroke-opacity:1" d="M 839.577,645.533 855.417,659.393 z" id="boundary" inkscape:connector-curvature="0" />
	<path style="fill:none;stroke:red;stroke-width:1px;stroke-linecap:butt;stroke-linejoin:miter;stroke-opacity:1" d="M 843.537,726.715 861.357,736.615 z" id="boundary" inkscape:connector-curvature="0" />
	<path style="fill:none;stroke:red;stroke-width:1px;stroke-linecap:butt;stroke-linejoin:miter;stroke-opacity:1" d="M 855.417,659.393 867.297,675.234 z" id="boundary" inkscape:connector-curvature="0" />
	<path style="fill:none;stroke:red;stroke-width:1px;stroke-linecap:butt;stroke-linejoin:miter;stroke-opacity:1" d="M 861.357,736.615 877.198,750.475 z" id="boundary" inkscape:connector-curvature="0" />
	<path style="fill:none;stroke:red;stroke-width:1px;stroke-linecap:butt;stroke-linejoin:miter;stroke-opacity:1" d="M 867.297,675.234 885.118,685.134 z" id="boundary" inkscape:connector-curvature="0" />
	<path style="fill:none;stroke:red;stroke-width:1px;stroke-linecap:butt;stroke-linejoin:miter;stroke-opacity:1" d="M 877.198,750.475 891.058,766.315 z" id="boundary" inkscape:connector-curvature="0" />
	<path style="fill:none;stroke:red;stroke-width:1px;stroke-linecap:butt;stroke-linejoin:miter;stroke-opacity:1" d="M 885.118,685.134 904.918,685.134 z" id="boundary" inkscape:connector-curvature="0" />
	<path style="fill:none;stroke:red;stroke-width:1px;stroke-linecap:butt;stroke-linejoin:miter;stroke-opacity:1" d="M 891.058,766.315 900.958,784.136 z" id="boundary" inkscape:connector-curvature="0" />
	<path style="fill:none;stroke:red;stroke-width:1px;stroke-linecap:butt;stroke-linejoin:miter;stroke-opacity:1" d="M 900.958,784.136 914.818,799.976 z" id="boundary" inkscape:connector-curvature="0" />
	<path style="fill:none;stroke:red;stroke-width:1px;stroke-linecap:butt;stroke-linejoin:miter;stroke-opacity:1" d="M 904.918,685.134 924.719,685.134 z" id="boundary" inkscape:connector-curvature="0" />
	<path style="fill:none;stroke:red;stroke-width:1px;stroke-linecap:butt;stroke-linejoin:miter;stroke-opacity:1" d="M 914.818,799.976 924.719,817.796 z" id="boundary" inkscape:connector-curvature="0" />
	<path style="fill:none;stroke:red;stroke-width:1px;stroke-linecap:butt;stroke-linejoin:miter;stroke-opacity:1" d="M 924.719,685.134 944.519,685.134 z" id="boundary" inkscape:connector-curvature="0" />
	<path style="fill:none;stroke:red;stroke-width:1px;stroke-linecap:butt;stroke-linejoin:miter;stroke-opacity:1" d="M 924.719,817.796 934.619,835.617 z" id="boundary" inkscape:connector-curvature="0" />
	<path style="fill:none;stroke:red;stroke-width:1px;stroke-linecap:butt;stroke-linejoin:miter;stroke-opacity:1" d="M 934.619,835.617 940.559,855.417 z" id="boundary" inkscape:connector-curvature="0" />
	<path style="fill:none;stroke:red;stroke-width:1px;stroke-linecap:butt;stroke-linejoin:miter;stroke-opacity:1" d="M 940.559,855.417 960.359,853.437 z" id="boundary" inkscape:connector-curvature="0" />
	<path style="fill:none;stroke:red;stroke-width:1px;stroke-linecap:butt;stroke-linejoin:miter;stroke-opacity:1" d="M 944.519,685.134 964.319,685.134 z" id="boundary" inkscape:connector-curvature="0" />
	<path style="fill:none;stroke:red;stroke-width:1px;stroke-linecap:butt;stroke-linejoin:miter;stroke-opacity:1" d="M 960.359,853.437 976.2,833.637 z" id="boundary" inkscape:connector-curvature="0" />
	<path style="fill:none;stroke:red;stroke-width:1px;stroke-linecap:butt;stroke-linejoin:miter;stroke-opacity:1" d="M 964.319,685.134 980.16,697.014 z" id="boundary" inkscape:connector-curvature="0" />
	<path style="fill:none;stroke:red;stroke-width:1px;stroke-linecap:butt;stroke-linejoin:miter;stroke-opacity:1" d="M 966.299,796.016 976.2,776.216 z" id="boundary" inkscape:connector-curvature="0" />
	<path style="fill:none;stroke:red;stroke-width:1px;stroke-linecap:butt;stroke-linejoin:miter;stroke-opacity:1" d="M 966.299,796.016 976.2,813.836 z" id="boundary" inkscape:connector-curvature="0" />
	<path style="fill:none;stroke:red;stroke-width:1px;stroke-linecap:butt;stroke-linejoin:miter;stroke-opacity:1" d="M 976.2,756.415 976.2,776.216 z" id="boundary" inkscape:connector-curvature="0" />
	<path style="fill:none;stroke:red;stroke-width:1px;stroke-linecap:butt;stroke-linejoin:miter;stroke-opacity:1" d="M 976.2,756.415 986.1,736.615 z" id="boundary" inkscape:connector-curvature="0" />
	<path style="fill:none;stroke:red;stroke-width:1px;stroke-linecap:butt;stroke-linejoin:miter;stroke-opacity:1" d="M 976.2,813.836 976.2,833.637 z" id="boundary" inkscape:connector-curvature="0" />
	<path style="fill:none;stroke:red;stroke-width:1px;stroke-linecap:butt;stroke-linejoin:miter;stroke-opacity:1" d="M 980.16,697.014 996,716.814 z" id="boundary" inkscape:connector-curvature="0" />
	<path style="fill:none;stroke:red;stroke-width:1px;stroke-linecap:butt;stroke-linejoin:miter;stroke-opacity:1" d="M 986.1,736.615 996,716.814 z" id="boundary" inkscape:connector-curvature="0" />
	<circle cx="4" cy="77.2615" r="4" fill="#0" id="circle0"/>
	<circle cx="13.9002" cy="57.4611" r="4" fill="#0" id="circle1"/>
	<circle cx="13.9002" cy="106.962" r="4" fill="#0" id="circle2"/>
	<circle cx="29.7405" cy="41.6208" r="4" fill="#0" id="circle3"/>
	<circle cx="29.7405" cy="120.822" r="4" fill="#0" id="circle4"/>
	<circle cx="39.6407" cy="21.8204" r="4" fill="#0" id="circle5"/>
	<circle cx="47.5609" cy="130.723" r="4" fill="#0" id="circle6"/>
	<circle cx="57.4611" cy="11.9202" r="4" fill="#0" id="circle7"/>
	<circle cx="67.3613" cy="138.643" r="4" fill="#0" id="circle8"/>
	<circle cx="77.2615" cy="11.9202" r="4" fill="#0" id="circle9"/>
	<circle cx="83.2016" cy="780.176" r="4" fill="#0" id="circle10"/>
	<circle cx="85.1816" cy="148.543" r="4" fill="#0" id="circle11"/>
	<circle cx="93.1018" cy="750.475" r="4" fill="#0" id="circle12"/>
	<circle cx="97.0619" cy="4" r="4" fill="#0" id="circle13"/>
	<circle cx="103.002" cy="158.443" r="4" fill="#0" id="circle14"/>
	<circle cx="103.002" cy="786.116" r="4" fill="#0" id="circle15"/>
	<circle cx="112.902" cy="176.263" r="4" fill="#0" id="circle16"/>
	<circle cx="112.902" cy="463.369" r="4" fill="#0" id="circle17"/>
	<circle cx="112.902" cy="483.17" r="4" fill="#0" id="circle18"/>
	<circle cx="112.902" cy="740.575" r="4" fill="#0" id="circle19"/>
	<circle cx="116.862" cy="11.9202" r="4" fill="#0" id="circle20"/>
	<circle cx="122.802" cy="194.084" r="4" fill="#0" id="circle21"/>
	<circle cx="122.802" cy="443.569" r="4" fill="#0" id="circle22"/>
	<circle cx="122.802" cy="500.99" r="4" fill="#0" id="circle23"/>
	<circle cx="122.802" cy="520.79" r="4" fill="#0" id="circle24"/>
	<circle cx="122.802" cy="540.591" r="4" fill="#0" id="circle25"/>
	<circle cx="122.802" cy="560.391" r="4" fill="#0" id="circle26"/>
	<circle cx="122.802" cy="786.116" r="4" fill="#0" id="circle27"/>
	<circle cx="132.703" cy="578.212" r="4" fill="#0" id="circle28"/>
	<circle cx="132.703" cy="598.012" r="4" fill="#0" id="circle29"/>
	<circle cx="132.703" cy="730.675" r="4" fill="#0" id="circle30"/>
	<circle cx="136.663" cy="13.9002" r="4" fill="#0" id="circle31"/>
	<circle cx="142.603" cy="202.004" r="4" fill="#0" id="circle32"/>
	<circle cx="142.603" cy="433.669" r="4" fill="#0" id="circle33"/>
	<circle cx="142.603" cy="615.832" r="4" fill="#0" id="circle34"/>
	<circle cx="142.603" cy="786.116" r="4" fill="#0" id="circle35"/>
	<circle cx="146.563" cy="31.7206" r="4" fill="#0" id="circle36"/>
	<circle cx="152.503" cy="633.653" r="4" fill="#0" id="circle37"/>
	<circle cx="152.503" cy="653.453" r="4" fill="#0" id="circle38"/>
	<circle cx="152.503" cy="720.774" r="4" fill="#0" id="circle39"/>
	<circle cx="158.443" cy="417.828" r="4" fill="#0" id="circle40"/>
	<circle cx="160.423" cy="796.016" r="4" fill="#0" id="circle41"/>
	<circle cx="162.403" cy="45.5808" r="4" fill="#0" id="circle42"/>
	<circle cx="162.403" cy="202.004" r="4" fill="#0" id="circle43"/>
	<circle cx="162.403" cy="671.273" r="4" fill="#0" id="circle44"/>
	<circle cx="162.403" cy="691.074" r="4" fill="#0" id="circle45"/>
	<circle cx="164.383" cy="65.3812" r="4" fill="#0" id="circle46"/>
	<circle cx="178.244" cy="407.928" r="4" fill="#0" id="circle47"/>
	<circle cx="178.244" cy="805.916" r="4" fill="#0" id="circle48"/>
	<circle cx="180.224" cy="211.904" r="4" fill="#0" id="circle49"/>
	<circle cx="184.184" cy="65.3812" r="4" fill="#0" id="circle50"/>
	<circle cx="184.184" cy="489.11" r="4" fill="#0" id="circle51"/>
	<circle cx="184.184" cy="528.711" r="4" fill="#0" id="circle52"/>
	<circle cx="184.184" cy="568.311" r="4" fill="#0" id="circle53"/>
	<circle cx="194.084" cy="227.745" r="4" fill="#0" id="circle54"/>
	<circle cx="194.084" cy="469.309" r="4" fill="#0" id="circle55"/>
	<circle cx="194.084" cy="506.93" r="4" fill="#0" id="circle56"/>
	<circle cx="194.084" cy="546.531" r="4" fill="#0" id="circle57"/>
	<circle cx="194.084" cy="586.132" r="4" fill="#0" id="circle58"/>
	<circle cx="194.084" cy="607.912" r="4" fill="#0" id="circle59"/>
	<circle cx="198.044" cy="398.028" r="4" fill="#0" id="circle60"/>
	<circle cx="198.044" cy="805.916" r="4" fill="#0" id="circle61"/>
	<circle cx="203.984" cy="55.481" r="4" fill="#0" id="circle62"/>
	<circle cx="203.984" cy="625.733" r="4" fill="#0" id="circle63"/>
	<circle cx="213.884" cy="235.665" r="4" fill="#0" id="circle64"/>
	<circle cx="213.884" cy="459.409" r="4" fill="#0" id="circle65"/>
	<circle cx="213.884" cy="643.553" r="4" fill="#0" id="circle66"/>
	<circle cx="213.884" cy="667.313" r="4" fill="#0" id="circle67"/>
	<circle cx="215.864" cy="388.128" r="4" fill="#0" id="circle68"/>
	<circle cx="217.844" cy="803.936" r="4" fill="#0" id="circle69"/>
	<circle cx="223.784" cy="57.4611" r="4" fill="#0" id="circle70"/>
	<circle cx="223.784" cy="685.134" r="4" fill="#0" id="circle71"/>
	<circle cx="223.784" cy="704.934" r="4" fill="#0" id="circle72"/>
	<circle cx="223.784" cy="726.715" r="4" fill="#0" id="circle73"/>
	<circle cx="227.745" cy="251.505" r="4" fill="#0" id="circle74"/>
	<circle cx="227.745" cy="746.515" r="4" fill="#0" id="circle75"/>
	<circle cx="233.685" cy="378.228" r="4" fill="#0" id="circle76"/>
	<circle cx="233.685" cy="459.409" r="4" fill="#0" id="circle77"/>
	<circle cx="233.685" cy="766.315" r="4" fill="#0" id="circle78"/>
	<circle cx="233.685" cy="786.116" r="4" fill="#0" id="circle79"/>
	<circle cx="243.585" cy="61.4212" r="4" fill="#0" id="circle80"/>
	<circle cx="247.545" cy="259.425" r="4" fill="#0" id="circle81"/>
	<circle cx="251.505" cy="368.327" r="4" fill="#0" id="circle82"/>
	<circle cx="253.485" cy="449.509" r="4" fill="#0" id="circle83"/>
	<circle cx="263.385" cy="61.4212" r="4" fill="#0" id="circle84"/>
	<circle cx="263.385" cy="271.305" r="4" fill="#0" id="circle85"/>
	<circle cx="269.325" cy="358.427" r="4" fill="#0" id="circle86"/>
	<circle cx="273.285" cy="449.509" r="4" fill="#0" id="circle87"/>
	<circle cx="281.206" cy="71.3214" r="4" fill="#0" id="circle88"/>
	<circle cx="281.206" cy="281.206" r="4" fill="#0" id="circle89"/>
	<circle cx="287.146" cy="348.527" r="4" fill="#0" id="circle90"/>
	<circle cx="293.086" cy="297.046" r="4" fill="#0" id="circle91"/>
	<circle cx="293.086" cy="453.469" r="4" fill="#0" id="circle92"/>
	<circle cx="297.046" cy="83.2016" r="4" fill="#0" id="circle93"/>
	<circle cx="306.946" cy="338.627" r="4" fill="#0" id="circle94"/>
	<circle cx="308.926" cy="310.906" r="4" fill="#0" id="circle95"/>
	<circle cx="312.886" cy="97.0619" r="4" fill="#0" id="circle96"/>
	<circle cx="312.886" cy="449.509" r="4" fill="#0" id="circle97"/>
	<circle cx="330.707" cy="106.962" r="4" fill="#0" id="circle98"/>
	<circle cx="330.707" cy="439.609" r="4" fill="#0" id="circle99"/>
	<circle cx="346.547" cy="120.822" r="4" fill="#0" id="circle100"/>
	<circle cx="350.507" cy="439.609" r="4" fill="#0" id="circle101"/>
	<circle cx="360.407" cy="136.663" r="4" fill="#0" id="circle102"/>
	<circle cx="370.307" cy="439.609" r="4" fill="#0" id="circle103"/>
	<circle cx="376.248" cy="150.523" r="4" fill="#0" id="circle104"/>
	<circle cx="390.108" cy="166.363" r="4" fill="#0" id="circle105"/>
	<circle cx="390.108" cy="439.609" r="4" fill="#0" id="circle106"/>
	<circle cx="400.008" cy="184.184" r="4" fill="#0" id="circle107"/>
	<circle cx="409.908" cy="439.609" r="4" fill="#0" id="circle108"/>
	<circle cx="411.888" cy="200.024" r="4" fill="#0" id="circle109"/>
	<circle cx="427.729" cy="211.904" r="4" fill="#0" id="circle110"/>
	<circle cx="427.729" cy="449.509" r="4" fill="#0" id="circle111"/>
	<circle cx="435.649" cy="231.705" r="4" fill="#0" id="circle112"/>
	<circle cx="439.609" cy="465.349" r="4" fill="#0" id="circle113"/>
	<circle cx="449.509" cy="483.17" r="4" fill="#0" id="circle114"/>
	<circle cx="451.489" cy="245.565" r="4" fill="#0" id="circle115"/>
	<circle cx="465.349" cy="261.405" r="4" fill="#0" id="circle116"/>
	<circle cx="465.349" cy="497.03" r="4" fill="#0" id="circle117"/>
	<circle cx="481.19" cy="275.265" r="4" fill="#0" id="circle118"/>
	<circle cx="481.19" cy="508.91" r="4" fill="#0" id="circle119"/>
	<circle cx="495.05" cy="291.106" r="4" fill="#0" id="circle120"/>
	<circle cx="499.01" cy="518.81" r="4" fill="#0" id="circle121"/>
	<circle cx="508.91" cy="536.631" r="4" fill="#0" id="circle122"/>
	<circle cx="510.89" cy="304.966" r="4" fill="#0" id="circle123"/>
	<circle cx="518.81" cy="324.766" r="4" fill="#0" id="circle124"/>
	<circle cx="520.79" cy="552.471" r="4" fill="#0" id="circle125"/>
	<circle cx="534.651" cy="338.627" r="4" fill="#0" id="circle126"/>
	<circle cx="534.651" cy="568.311" r="4" fill="#0" id="circle127"/>
	<circle cx="540.591" cy="358.427" r="4" fill="#0" id="circle128"/>
	<circle cx="550.491" cy="376.248" r="4" fill="#0" id="circle129"/>
	<circle cx="552.471" cy="578.212" r="4" fill="#0" id="circle130"/>
	<circle cx="560.391" cy="394.068" r="4" fill="#0" id="circle131"/>
	<circle cx="570.291" cy="411.888" r="4" fill="#0" id="circle132"/>
	<circle cx="570.291" cy="588.112" r="4" fill="#0" id="circle133"/>
	<circle cx="582.172" cy="427.729" r="4" fill="#0" id="circle134"/>
	<circle cx="588.112" cy="598.012" r="4" fill="#0" id="circle135"/>
	<circle cx="590.092" cy="447.529" r="4" fill="#0" id="circle136"/>
	<circle cx="605.932" cy="459.409" r="4" fill="#0" id="circle137"/>
	<circle cx="607.912" cy="598.012" r="4" fill="#0" id="circle138"/>
	<circle cx="619.792" cy="475.25" r="4" fill="#0" id="circle139"/>
	<circle cx="619.792" cy="613.852" r="4" fill="#0" id="circle140"/>
	<circle cx="629.693" cy="493.07" r="4" fill="#0" id="circle141"/>
	<circle cx="639.593" cy="621.772" r="4" fill="#0" id="circle142"/>
	<circle cx="643.553" cy="508.91" r="4" fill="#0" id="circle143"/>
	<circle cx="657.413" cy="631.673" r="4" fill="#0" id="circle144"/>
	<circle cx="659.393" cy="522.77" r="4" fill="#0" id="circle145"/>
	<circle cx="677.214" cy="532.671" r="4" fill="#0" id="circle146"/>
	<circle cx="677.214" cy="637.613" r="4" fill="#0" id="circle147"/>
	<circle cx="697.014" cy="540.591" r="4" fill="#0" id="circle148"/>
	<circle cx="697.014" cy="637.613" r="4" fill="#0" id="circle149"/>
	<circle cx="702.954" cy="657.413" r="4" fill="#0" id="circle150"/>
	<circle cx="716.814" cy="546.531" r="4" fill="#0" id="circle151"/>
	<circle cx="722.754" cy="655.433" r="4" fill="#0" id="circle152"/>
	<circle cx="734.635" cy="556.431" r="4" fill="#0" id="circle153"/>
	<circle cx="738.595" cy="667.313" r="4" fill="#0" id="circle154"/>
	<circle cx="752.455" cy="566.331" r="4" fill="#0" id="circle155"/>
	<circle cx="758.395" cy="671.273" r="4" fill="#0" id="circle156"/>
	<circle cx="770.275" cy="576.232" r="4" fill="#0" id="circle157"/>
	<circle cx="778.196" cy="596.032" r="4" fill="#0" id="circle158"/>
	<circle cx="778.196" cy="677.214" r="4" fill="#0" id="circle159"/>
	<circle cx="796.016" cy="605.932" r="4" fill="#0" id="circle160"/>
	<circle cx="796.016" cy="687.114" r="4" fill="#0" id="circle161"/>
	<circle cx="811.856" cy="617.812" r="4" fill="#0" id="circle162"/>
	<circle cx="813.836" cy="697.014" r="4" fill="#0" id="circle163"/>
	<circle cx="821.756" cy="635.633" r="4" fill="#0" id="circle164"/>
	<circle cx="827.697" cy="712.854" r="4" fill="#0" id="circle165"/>
	<circle cx="839.577" cy="645.533" r="4" fill="#0" id="circle166"/>
	<circle cx="843.537" cy="726.715" r="4" fill="#0" id="circle167"/>
	<circle cx="855.417" cy="659.393" r="4" fill="#0" id="circle168"/>
	<circle cx="861.357" cy="736.615" r="4" fill="#0" id="circle169"/>
	<circle cx="867.297" cy="675.234" r="4" fill="#0" id="circle170"/>
	<circle cx="877.198" cy="750.475" r="4" fill="#0" id="circle171"/>
	<circle cx="885.118" cy="685.134" r="4" fill="#0" id="circle172"/>
	<circle cx="891.058" cy="766.315" r="4" fill="#0" id="circle173"/>
	<circle cx="900.958" cy="784.136" r="4" fill="#0" id="circle174"/>
	<circle cx="904.918" cy="685.134" r="4" fill="#0" id="circle175"/>
	<circle cx="914.818" cy="799.976" r="4" fill="#0" id="circle176"/>
	<circle cx="924.719" cy="685.134" r="4" fill="#0" id="circle177"/>
	<circle cx="924.719" cy="817.796" r="4" fill="#0" id="circle178"/>
	<circle cx="934.619" cy="835.617" r="4" fill="#0" id="circle179"/>
	<circle cx="940.559" cy="855.417" r="4" fill="#0" id="circle180"/>
	<circle cx="944.519" cy="685.134" r="4" fill="#0" id="circle181"/>
	<circle cx="960.359" cy="853.437" r="4" fill="#0" id="circle182"/>
	<circle cx="964.319" cy="685.134" r="4" fill="#0" id="circle183"/>
	<circle cx="966.299" cy="796.016" r="4" fill="#0" id="circle184"/>
	<circle cx="976.2" cy="756.415" r="4" fill="#0" id="circle185"/>
	<circle cx="976.2" cy="776.216" r="4" fill="#0" id="circle186"/>
	<circle cx="976.2" cy="813.836" r="4" fill="#0" id="circle187"/>
	<circle cx="976.2" cy="833.637" r="4" fill="#0" id="circle188"/>
	<circle cx="980.16" cy="697.014" r="4" fill="#0" id="circle189"/>
	<circle cx="986.1" cy="736.615" r="4" fill="#0" id="circle190"/>
	<circle cx="996" cy="716.814" r="4" fill="#0" id="circle191"/>
	</g>
</svg>