<?xml version="1.0" encoding="UTF-8" standalone="no"?>
<!-- Created with CurveBenchmark -->
<svg
	xmlns:dc="http://purl.org/dc/elements/1.1/"
	xmlns:cc="http://creativecommons.org/ns#"
	xmlns:rdf="http://www.w3.org/1999/02/22-rdf-syntax-ns#"
	xmlns:svg="http://www.w3.org/2000/svg"
	xmlns="http://www.w3.org/2000/svg"
	xmlns:sodipodi="http://sodipodi.sourceforge.net/DTD/sodipodi-0.dtd"
	xmlns:inkscape="http://www.inkscape.org/namespaces/inkscape"
	width="1000"
	height="1000"
	id="svg2"
	version="1.1"
	sodipodi:docname="manifold/fitconnect-hammer29.png.txt">
<defs
	id="defs4" />
<metadata
	id="metadata7">
	<rdf:RDF>
		<cc:Work
			rdf:about="">
			<dc:format>image/svg+xml</dc:format>
			<dc:type
				rdf:resource="http://purl.org/dc/dcmitype/StillImage" />
			<dc:title></dc:title>
		</cc:Work>
	</rdf:RDF>
</metadata>
<g
	inkscape:label="Layer 1"
	inkscape:groupmode="layer"
	id="layer1">
	<path style="fill:none;stroke:red;stroke-width:1px;stroke-linecap:butt;stroke-linejoin:miter;stroke-opacity:1" d="M 4,272.172 15.866,248.44 z" id="boundary" inkscape:connector-curvature="0" />
	<path style="fill:none;stroke:red;stroke-width:1px;stroke-linecap:butt;stroke-linejoin:miter;stroke-opacity:1" d="M 4,272.172 15.866,293.531 z" id="boundary" inkscape:connector-curvature="0" />
	<path style="fill:none;stroke:red;stroke-width:1px;stroke-linecap:butt;stroke-linejoin:miter;stroke-opacity:1" d="M 15.866,248.44 34.8517,229.455 z" id="boundary" inkscape:connector-curvature="0" />
	<path style="fill:none;stroke:red;stroke-width:1px;stroke-linecap:butt;stroke-linejoin:miter;stroke-opacity:1" d="M 15.866,293.531 32.4785,312.517 z" id="boundary" inkscape:connector-curvature="0" />
	<path style="fill:none;stroke:red;stroke-width:1px;stroke-linecap:butt;stroke-linejoin:miter;stroke-opacity:1" d="M 32.4785,312.517 51.4641,326.756 z" id="boundary" inkscape:connector-curvature="0" />
	<path style="fill:none;stroke:red;stroke-width:1px;stroke-linecap:butt;stroke-linejoin:miter;stroke-opacity:1" d="M 34.8517,229.455 46.7177,205.722 z" id="boundary" inkscape:connector-curvature="0" />
	<path style="fill:none;stroke:red;stroke-width:1px;stroke-linecap:butt;stroke-linejoin:miter;stroke-opacity:1" d="M 46.7177,205.722 65.7033,186.737 z" id="boundary" inkscape:connector-curvature="0" />
	<path style="fill:none;stroke:red;stroke-width:1px;stroke-linecap:butt;stroke-linejoin:miter;stroke-opacity:1" d="M 51.4641,326.756 72.823,338.622 z" id="boundary" inkscape:connector-curvature="0" />
	<path style="fill:none;stroke:red;stroke-width:1px;stroke-linecap:butt;stroke-linejoin:miter;stroke-opacity:1" d="M 65.7033,186.737 75.1962,153.512 z" id="boundary" inkscape:connector-curvature="0" />
	<path style="fill:none;stroke:red;stroke-width:1px;stroke-linecap:butt;stroke-linejoin:miter;stroke-opacity:1" d="M 72.823,338.622 96.555,333.876 z" id="boundary" inkscape:connector-curvature="0" />
	<path style="fill:none;stroke:red;stroke-width:1px;stroke-linecap:butt;stroke-linejoin:miter;stroke-opacity:1" d="M 75.1962,153.512 87.0622,129.78 z" id="boundary" inkscape:connector-curvature="0" />
	<path style="fill:none;stroke:red;stroke-width:1px;stroke-linecap:butt;stroke-linejoin:miter;stroke-opacity:1" d="M 87.0622,129.78 106.048,110.794 z" id="boundary" inkscape:connector-curvature="0" />
	<path style="fill:none;stroke:red;stroke-width:1px;stroke-linecap:butt;stroke-linejoin:miter;stroke-opacity:1" d="M 96.555,333.876 120.287,322.01 z" id="boundary" inkscape:connector-curvature="0" />
	<path style="fill:none;stroke:red;stroke-width:1px;stroke-linecap:butt;stroke-linejoin:miter;stroke-opacity:1" d="M 106.048,110.794 127.407,98.9282 z" id="boundary" inkscape:connector-curvature="0" />
	<path style="fill:none;stroke:red;stroke-width:1px;stroke-linecap:butt;stroke-linejoin:miter;stroke-opacity:1" d="M 120.287,322.01 136.9,303.024 z" id="boundary" inkscape:connector-curvature="0" />
	<path style="fill:none;stroke:red;stroke-width:1px;stroke-linecap:butt;stroke-linejoin:miter;stroke-opacity:1" d="M 127.407,98.9282 151.139,89.4354 z" id="boundary" inkscape:connector-curvature="0" />
	<path style="fill:none;stroke:red;stroke-width:1px;stroke-linecap:butt;stroke-linejoin:miter;stroke-opacity:1" d="M 136.9,303.024 148.766,279.292 z" id="boundary" inkscape:connector-curvature="0" />
	<path style="fill:none;stroke:red;stroke-width:1px;stroke-linecap:butt;stroke-linejoin:miter;stroke-opacity:1" d="M 148.766,279.292 160.632,255.56 z" id="boundary" inkscape:connector-curvature="0" />
	<path style="fill:none;stroke:red;stroke-width:1px;stroke-linecap:butt;stroke-linejoin:miter;stroke-opacity:1" d="M 151.139,89.4354 170.124,70.4498 z" id="boundary" inkscape:connector-curvature="0" />
	<path style="fill:none;stroke:red;stroke-width:1px;stroke-linecap:butt;stroke-linejoin:miter;stroke-opacity:1" d="M 160.632,255.56 181.99,243.694 z" id="boundary" inkscape:connector-curvature="0" />
	<path style="fill:none;stroke:red;stroke-width:1px;stroke-linecap:butt;stroke-linejoin:miter;stroke-opacity:1" d="M 170.124,70.4498 181.99,34.8517 z" id="boundary" inkscape:connector-curvature="0" />
	<path style="fill:none;stroke:red;stroke-width:1px;stroke-linecap:butt;stroke-linejoin:miter;stroke-opacity:1" d="M 181.99,34.8517 200.976,15.866 z" id="boundary" inkscape:connector-curvature="0" />
	<path style="fill:none;stroke:red;stroke-width:1px;stroke-linecap:butt;stroke-linejoin:miter;stroke-opacity:1" d="M 181.99,243.694 196.23,262.679 z" id="boundary" inkscape:connector-curvature="0" />
	<path style="fill:none;stroke:red;stroke-width:1px;stroke-linecap:butt;stroke-linejoin:miter;stroke-opacity:1" d="M 196.23,262.679 215.215,279.292 z" id="boundary" inkscape:connector-curvature="0" />
	<path style="fill:none;stroke:red;stroke-width:1px;stroke-linecap:butt;stroke-linejoin:miter;stroke-opacity:1" d="M 200.976,15.866 224.708,15.866 z" id="boundary" inkscape:connector-curvature="0" />
	<path style="fill:none;stroke:red;stroke-width:1px;stroke-linecap:butt;stroke-linejoin:miter;stroke-opacity:1" d="M 215.215,279.292 236.574,291.158 z" id="boundary" inkscape:connector-curvature="0" />
	<path style="fill:none;stroke:red;stroke-width:1px;stroke-linecap:butt;stroke-linejoin:miter;stroke-opacity:1" d="M 224.708,15.866 246.067,4 z" id="boundary" inkscape:connector-curvature="0" />
	<path style="fill:none;stroke:red;stroke-width:1px;stroke-linecap:butt;stroke-linejoin:miter;stroke-opacity:1" d="M 236.574,291.158 255.56,307.77 z" id="boundary" inkscape:connector-curvature="0" />
	<path style="fill:none;stroke:red;stroke-width:1px;stroke-linecap:butt;stroke-linejoin:miter;stroke-opacity:1" d="M 243.694,125.033 248.44,148.766 z" id="boundary" inkscape:connector-curvature="0" />
	<path style="fill:none;stroke:red;stroke-width:1px;stroke-linecap:butt;stroke-linejoin:miter;stroke-opacity:1" d="M 243.694,125.033 265.053,113.167 z" id="boundary" inkscape:connector-curvature="0" />
	<path style="fill:none;stroke:red;stroke-width:1px;stroke-linecap:butt;stroke-linejoin:miter;stroke-opacity:1" d="M 246.067,4 267.426,15.866 z" id="boundary" inkscape:connector-curvature="0" />
	<path style="fill:none;stroke:red;stroke-width:1px;stroke-linecap:butt;stroke-linejoin:miter;stroke-opacity:1" d="M 248.44,148.766 260.306,170.124 z" id="boundary" inkscape:connector-curvature="0" />
	<path style="fill:none;stroke:red;stroke-width:1px;stroke-linecap:butt;stroke-linejoin:miter;stroke-opacity:1" d="M 255.56,307.77 272.172,326.756 z" id="boundary" inkscape:connector-curvature="0" />
	<path style="fill:none;stroke:red;stroke-width:1px;stroke-linecap:butt;stroke-linejoin:miter;stroke-opacity:1" d="M 260.306,170.124 281.665,181.99 z" id="boundary" inkscape:connector-curvature="0" />
	<path style="fill:none;stroke:red;stroke-width:1px;stroke-linecap:butt;stroke-linejoin:miter;stroke-opacity:1" d="M 265.053,113.167 284.038,98.9282 z" id="boundary" inkscape:connector-curvature="0" />
	<path style="fill:none;stroke:red;stroke-width:1px;stroke-linecap:butt;stroke-linejoin:miter;stroke-opacity:1" d="M 267.426,15.866 286.411,30.1053 z" id="boundary" inkscape:connector-curvature="0" />
	<path style="fill:none;stroke:red;stroke-width:1px;stroke-linecap:butt;stroke-linejoin:miter;stroke-opacity:1" d="M 272.172,326.756 295.904,336.249 z" id="boundary" inkscape:connector-curvature="0" />
	<path style="fill:none;stroke:red;stroke-width:1px;stroke-linecap:butt;stroke-linejoin:miter;stroke-opacity:1" d="M 281.665,181.99 300.651,198.603 z" id="boundary" inkscape:connector-curvature="0" />
	<path style="fill:none;stroke:red;stroke-width:1px;stroke-linecap:butt;stroke-linejoin:miter;stroke-opacity:1" d="M 284.038,98.9282 291.158,53.8373 z" id="boundary" inkscape:connector-curvature="0" />
	<path style="fill:none;stroke:red;stroke-width:1px;stroke-linecap:butt;stroke-linejoin:miter;stroke-opacity:1" d="M 286.411,30.1053 291.158,53.8373 z" id="boundary" inkscape:connector-curvature="0" />
	<path style="fill:none;stroke:red;stroke-width:1px;stroke-linecap:butt;stroke-linejoin:miter;stroke-opacity:1" d="M 295.904,336.249 312.517,355.234 z" id="boundary" inkscape:connector-curvature="0" />
	<path style="fill:none;stroke:red;stroke-width:1px;stroke-linecap:butt;stroke-linejoin:miter;stroke-opacity:1" d="M 300.651,198.603 322.01,210.469 z" id="boundary" inkscape:connector-curvature="0" />
	<path style="fill:none;stroke:red;stroke-width:1px;stroke-linecap:butt;stroke-linejoin:miter;stroke-opacity:1" d="M 312.517,355.234 331.502,371.847 z" id="boundary" inkscape:connector-curvature="0" />
	<path style="fill:none;stroke:red;stroke-width:1px;stroke-linecap:butt;stroke-linejoin:miter;stroke-opacity:1" d="M 322.01,210.469 338.622,229.455 z" id="boundary" inkscape:connector-curvature="0" />
	<path style="fill:none;stroke:red;stroke-width:1px;stroke-linecap:butt;stroke-linejoin:miter;stroke-opacity:1" d="M 331.502,371.847 348.115,390.833 z" id="boundary" inkscape:connector-curvature="0" />
	<path style="fill:none;stroke:red;stroke-width:1px;stroke-linecap:butt;stroke-linejoin:miter;stroke-opacity:1" d="M 338.622,229.455 359.981,241.321 z" id="boundary" inkscape:connector-curvature="0" />
	<path style="fill:none;stroke:red;stroke-width:1px;stroke-linecap:butt;stroke-linejoin:miter;stroke-opacity:1" d="M 348.115,390.833 367.1,407.445 z" id="boundary" inkscape:connector-curvature="0" />
	<path style="fill:none;stroke:red;stroke-width:1px;stroke-linecap:butt;stroke-linejoin:miter;stroke-opacity:1" d="M 359.981,241.321 378.967,255.56 z" id="boundary" inkscape:connector-curvature="0" />
	<path style="fill:none;stroke:red;stroke-width:1px;stroke-linecap:butt;stroke-linejoin:miter;stroke-opacity:1" d="M 367.1,407.445 383.713,426.431 z" id="boundary" inkscape:connector-curvature="0" />
	<path style="fill:none;stroke:red;stroke-width:1px;stroke-linecap:butt;stroke-linejoin:miter;stroke-opacity:1" d="M 378.967,255.56 397.952,272.172 z" id="boundary" inkscape:connector-curvature="0" />
	<path style="fill:none;stroke:red;stroke-width:1px;stroke-linecap:butt;stroke-linejoin:miter;stroke-opacity:1" d="M 383.713,426.431 402.699,443.043 z" id="boundary" inkscape:connector-curvature="0" />
	<path style="fill:none;stroke:red;stroke-width:1px;stroke-linecap:butt;stroke-linejoin:miter;stroke-opacity:1" d="M 397.952,272.172 416.938,288.785 z" id="boundary" inkscape:connector-curvature="0" />
	<path style="fill:none;stroke:red;stroke-width:1px;stroke-linecap:butt;stroke-linejoin:miter;stroke-opacity:1" d="M 402.699,443.043 424.057,454.909 z" id="boundary" inkscape:connector-curvature="0" />
	<path style="fill:none;stroke:red;stroke-width:1px;stroke-linecap:butt;stroke-linejoin:miter;stroke-opacity:1" d="M 416.938,288.785 438.297,300.651 z" id="boundary" inkscape:connector-curvature="0" />
	<path style="fill:none;stroke:red;stroke-width:1px;stroke-linecap:butt;stroke-linejoin:miter;stroke-opacity:1" d="M 424.057,454.909 443.043,469.148 z" id="boundary" inkscape:connector-curvature="0" />
	<path style="fill:none;stroke:red;stroke-width:1px;stroke-linecap:butt;stroke-linejoin:miter;stroke-opacity:1" d="M 438.297,300.651 459.656,312.517 z" id="boundary" inkscape:connector-curvature="0" />
	<path style="fill:none;stroke:red;stroke-width:1px;stroke-linecap:butt;stroke-linejoin:miter;stroke-opacity:1" d="M 443.043,469.148 464.402,481.014 z" id="boundary" inkscape:connector-curvature="0" />
	<path style="fill:none;stroke:red;stroke-width:1px;stroke-linecap:butt;stroke-linejoin:miter;stroke-opacity:1" d="M 459.656,312.517 481.014,324.383 z" id="boundary" inkscape:connector-curvature="0" />
	<path style="fill:none;stroke:red;stroke-width:1px;stroke-linecap:butt;stroke-linejoin:miter;stroke-opacity:1" d="M 464.402,481.014 481.014,500 z" id="boundary" inkscape:connector-curvature="0" />
	<path style="fill:none;stroke:red;stroke-width:1px;stroke-linecap:butt;stroke-linejoin:miter;stroke-opacity:1" d="M 481.014,324.383 500,338.622 z" id="boundary" inkscape:connector-curvature="0" />
	<path style="fill:none;stroke:red;stroke-width:1px;stroke-linecap:butt;stroke-linejoin:miter;stroke-opacity:1" d="M 481.014,500 504.746,509.493 z" id="boundary" inkscape:connector-curvature="0" />
	<path style="fill:none;stroke:red;stroke-width:1px;stroke-linecap:butt;stroke-linejoin:miter;stroke-opacity:1" d="M 500,338.622 521.359,350.488 z" id="boundary" inkscape:connector-curvature="0" />
	<path style="fill:none;stroke:red;stroke-width:1px;stroke-linecap:butt;stroke-linejoin:miter;stroke-opacity:1" d="M 504.746,509.493 521.359,528.478 z" id="boundary" inkscape:connector-curvature="0" />
	<path style="fill:none;stroke:red;stroke-width:1px;stroke-linecap:butt;stroke-linejoin:miter;stroke-opacity:1" d="M 521.359,350.488 540.344,367.1 z" id="boundary" inkscape:connector-curvature="0" />
	<path style="fill:none;stroke:red;stroke-width:1px;stroke-linecap:butt;stroke-linejoin:miter;stroke-opacity:1" d="M 521.359,528.478 545.091,537.971 z" id="boundary" inkscape:connector-curvature="0" />
	<path style="fill:none;stroke:red;stroke-width:1px;stroke-linecap:butt;stroke-linejoin:miter;stroke-opacity:1" d="M 540.344,367.1 561.703,378.967 z" id="boundary" inkscape:connector-curvature="0" />
	<path style="fill:none;stroke:red;stroke-width:1px;stroke-linecap:butt;stroke-linejoin:miter;stroke-opacity:1" d="M 545.091,537.971 566.45,549.837 z" id="boundary" inkscape:connector-curvature="0" />
	<path style="fill:none;stroke:red;stroke-width:1px;stroke-linecap:butt;stroke-linejoin:miter;stroke-opacity:1" d="M 561.703,378.967 580.689,395.579 z" id="boundary" inkscape:connector-curvature="0" />
	<path style="fill:none;stroke:red;stroke-width:1px;stroke-linecap:butt;stroke-linejoin:miter;stroke-opacity:1" d="M 566.45,549.837 590.182,559.33 z" id="boundary" inkscape:connector-curvature="0" />
	<path style="fill:none;stroke:red;stroke-width:1px;stroke-linecap:butt;stroke-linejoin:miter;stroke-opacity:1" d="M 580.689,395.579 602.048,407.445 z" id="boundary" inkscape:connector-curvature="0" />
	<path style="fill:none;stroke:red;stroke-width:1px;stroke-linecap:butt;stroke-linejoin:miter;stroke-opacity:1" d="M 590.182,559.33 611.541,571.196 z" id="boundary" inkscape:connector-curvature="0" />
	<path style="fill:none;stroke:red;stroke-width:1px;stroke-linecap:butt;stroke-linejoin:miter;stroke-opacity:1" d="M 602.048,407.445 623.407,419.311 z" id="boundary" inkscape:connector-curvature="0" />
	<path style="fill:none;stroke:red;stroke-width:1px;stroke-linecap:butt;stroke-linejoin:miter;stroke-opacity:1" d="M 611.541,571.196 635.273,575.943 z" id="boundary" inkscape:connector-curvature="0" />
	<path style="fill:none;stroke:red;stroke-width:1px;stroke-linecap:butt;stroke-linejoin:miter;stroke-opacity:1" d="M 623.407,419.311 644.766,431.177 z" id="boundary" inkscape:connector-curvature="0" />
	<path style="fill:none;stroke:red;stroke-width:1px;stroke-linecap:butt;stroke-linejoin:miter;stroke-opacity:1" d="M 635.273,575.943 656.632,587.809 z" id="boundary" inkscape:connector-curvature="0" />
	<path style="fill:none;stroke:red;stroke-width:1px;stroke-linecap:butt;stroke-linejoin:miter;stroke-opacity:1" d="M 644.766,431.177 666.124,443.043 z" id="boundary" inkscape:connector-curvature="0" />
	<path style="fill:none;stroke:red;stroke-width:1px;stroke-linecap:butt;stroke-linejoin:miter;stroke-opacity:1" d="M 656.632,587.809 677.99,599.675 z" id="boundary" inkscape:connector-curvature="0" />
	<path style="fill:none;stroke:red;stroke-width:1px;stroke-linecap:butt;stroke-linejoin:miter;stroke-opacity:1" d="M 666.124,443.043 687.483,454.909 z" id="boundary" inkscape:connector-curvature="0" />
	<path style="fill:none;stroke:red;stroke-width:1px;stroke-linecap:butt;stroke-linejoin:miter;stroke-opacity:1" d="M 677.99,599.675 701.722,599.675 z" id="boundary" inkscape:connector-curvature="0" />
	<path style="fill:none;stroke:red;stroke-width:1px;stroke-linecap:butt;stroke-linejoin:miter;stroke-opacity:1" d="M 687.483,454.909 708.842,466.775 z" id="boundary" inkscape:connector-curvature="0" />
	<path style="fill:none;stroke:red;stroke-width:1px;stroke-linecap:butt;stroke-linejoin:miter;stroke-opacity:1" d="M 701.722,599.675 723.081,611.541 z" id="boundary" inkscape:connector-curvature="0" />
	<path style="fill:none;stroke:red;stroke-width:1px;stroke-linecap:butt;stroke-linejoin:miter;stroke-opacity:1" d="M 708.842,466.775 730.201,478.641 z" id="boundary" inkscape:connector-curvature="0" />
	<path style="fill:none;stroke:red;stroke-width:1px;stroke-linecap:butt;stroke-linejoin:miter;stroke-opacity:1" d="M 723.081,611.541 746.813,621.033 z" id="boundary" inkscape:connector-curvature="0" />
	<path style="fill:none;stroke:red;stroke-width:1px;stroke-linecap:butt;stroke-linejoin:miter;stroke-opacity:1" d="M 730.201,478.641 753.933,485.761 z" id="boundary" inkscape:connector-curvature="0" />
	<path style="fill:none;stroke:red;stroke-width:1px;stroke-linecap:butt;stroke-linejoin:miter;stroke-opacity:1" d="M 746.813,621.033 770.545,623.407 z" id="boundary" inkscape:connector-curvature="0" />
	<path style="fill:none;stroke:red;stroke-width:1px;stroke-linecap:butt;stroke-linejoin:miter;stroke-opacity:1" d="M 753.933,485.761 775.292,497.627 z" id="boundary" inkscape:connector-curvature="0" />
	<path style="fill:none;stroke:red;stroke-width:1px;stroke-linecap:butt;stroke-linejoin:miter;stroke-opacity:1" d="M 770.545,623.407 791.904,635.273 z" id="boundary" inkscape:connector-curvature="0" />
	<path style="fill:none;stroke:red;stroke-width:1px;stroke-linecap:butt;stroke-linejoin:miter;stroke-opacity:1" d="M 775.292,497.627 799.024,502.373 z" id="boundary" inkscape:connector-curvature="0" />
	<path style="fill:none;stroke:red;stroke-width:1px;stroke-linecap:butt;stroke-linejoin:miter;stroke-opacity:1" d="M 791.904,635.273 815.636,635.273 z" id="boundary" inkscape:connector-curvature="0" />
	<path style="fill:none;stroke:red;stroke-width:1px;stroke-linecap:butt;stroke-linejoin:miter;stroke-opacity:1" d="M 799.024,502.373 820.383,514.239 z" id="boundary" inkscape:connector-curvature="0" />
	<path style="fill:none;stroke:red;stroke-width:1px;stroke-linecap:butt;stroke-linejoin:miter;stroke-opacity:1" d="M 815.636,635.273 836.995,647.139 z" id="boundary" inkscape:connector-curvature="0" />
	<path style="fill:none;stroke:red;stroke-width:1px;stroke-linecap:butt;stroke-linejoin:miter;stroke-opacity:1" d="M 820.383,514.239 841.742,526.105 z" id="boundary" inkscape:connector-curvature="0" />
	<path style="fill:none;stroke:red;stroke-width:1px;stroke-linecap:butt;stroke-linejoin:miter;stroke-opacity:1" d="M 836.995,647.139 860.727,651.885 z" id="boundary" inkscape:connector-curvature="0" />
	<path style="fill:none;stroke:red;stroke-width:1px;stroke-linecap:butt;stroke-linejoin:miter;stroke-opacity:1" d="M 841.742,526.105 863.1,537.971 z" id="boundary" inkscape:connector-curvature="0" />
	<path style="fill:none;stroke:red;stroke-width:1px;stroke-linecap:butt;stroke-linejoin:miter;stroke-opacity:1" d="M 860.727,651.885 884.459,659.005 z" id="boundary" inkscape:connector-curvature="0" />
	<path style="fill:none;stroke:red;stroke-width:1px;stroke-linecap:butt;stroke-linejoin:miter;stroke-opacity:1" d="M 863.1,537.971 884.459,549.837 z" id="boundary" inkscape:connector-curvature="0" />
	<path style="fill:none;stroke:red;stroke-width:1px;stroke-linecap:butt;stroke-linejoin:miter;stroke-opacity:1" d="M 884.459,549.837 908.191,549.837 z" id="boundary" inkscape:connector-curvature="0" />
	<path style="fill:none;stroke:red;stroke-width:1px;stroke-linecap:butt;stroke-linejoin:miter;stroke-opacity:1" d="M 884.459,659.005 908.191,663.751 z" id="boundary" inkscape:connector-curvature="0" />
	<path style="fill:none;stroke:red;stroke-width:1px;stroke-linecap:butt;stroke-linejoin:miter;stroke-opacity:1" d="M 908.191,549.837 929.55,561.703 z" id="boundary" inkscape:connector-curvature="0" />
	<path style="fill:none;stroke:red;stroke-width:1px;stroke-linecap:butt;stroke-linejoin:miter;stroke-opacity:1" d="M 908.191,663.751 929.55,675.617 z" id="boundary" inkscape:connector-curvature="0" />
	<path style="fill:none;stroke:red;stroke-width:1px;stroke-linecap:butt;stroke-linejoin:miter;stroke-opacity:1" d="M 929.55,561.703 950.909,573.569 z" id="boundary" inkscape:connector-curvature="0" />
	<path style="fill:none;stroke:red;stroke-width:1px;stroke-linecap:butt;stroke-linejoin:miter;stroke-opacity:1" d="M 929.55,675.617 953.282,682.737 z" id="boundary" inkscape:connector-curvature="0" />
	<path style="fill:none;stroke:red;stroke-width:1px;stroke-linecap:butt;stroke-linejoin:miter;stroke-opacity:1" d="M 950.909,573.569 972.268,585.435 z" id="boundary" inkscape:connector-curvature="0" />
	<path style="fill:none;stroke:red;stroke-width:1px;stroke-linecap:butt;stroke-linejoin:miter;stroke-opacity:1" d="M 953.282,682.737 974.641,670.871 z" id="boundary" inkscape:connector-curvature="0" />
	<path style="fill:none;stroke:red;stroke-width:1px;stroke-linecap:butt;stroke-linejoin:miter;stroke-opacity:1" d="M 972.268,585.435 991.254,599.675 z" id="boundary" inkscape:connector-curvature="0" />
	<path style="fill:none;stroke:red;stroke-width:1px;stroke-linecap:butt;stroke-linejoin:miter;stroke-opacity:1" d="M 974.641,670.871 996,656.632 z" id="boundary" inkscape:connector-curvature="0" />
	<path style="fill:none;stroke:red;stroke-width:1px;stroke-linecap:butt;stroke-linejoin:miter;stroke-opacity:1" d="M 991.254,599.675 996,623.407 z" id="boundary" inkscape:connector-curvature="0" />
	<path style="fill:none;stroke:red;stroke-width:1px;stroke-linecap:butt;stroke-linejoin:miter;stroke-opacity:1" d="M 996,623.407 996,656.632 z" id="boundary" inkscape:connector-curvature="0" />
	<circle cx="4" cy="272.172" r="4" fill="#0" id="circle0"/>
	<circle cx="15.866" cy="248.44" r="4" fill="#0" id="circle1"/>
	<circle cx="15.866" cy="293.531" r="4" fill="#0" id="circle2"/>
	<circle cx="32.4785" cy="312.517" r="4" fill="#0" id="circle3"/>
	<circle cx="34.8517" cy="229.455" r="4" fill="#0" id="circle4"/>
	<circle cx="46.7177" cy="205.722" r="4" fill="#0" id="circle5"/>
	<circle cx="51.4641" cy="326.756" r="4" fill="#0" id="circle6"/>
	<circle cx="65.7033" cy="186.737" r="4" fill="#0" id="circle7"/>
	<circle cx="72.823" cy="338.622" r="4" fill="#0" id="circle8"/>
	<circle cx="75.1962" cy="153.512" r="4" fill="#0" id="circle9"/>
	<circle cx="87.0622" cy="129.78" r="4" fill="#0" id="circle10"/>
	<circle cx="96.555" cy="333.876" r="4" fill="#0" id="circle11"/>
	<circle cx="106.048" cy="110.794" r="4" fill="#0" id="circle12"/>
	<circle cx="120.287" cy="322.01" r="4" fill="#0" id="circle13"/>
	<circle cx="127.407" cy="98.9282" r="4" fill="#0" id="circle14"/>
	<circle cx="136.9" cy="303.024" r="4" fill="#0" id="circle15"/>
	<circle cx="148.766" cy="279.292" r="4" fill="#0" id="circle16"/>
	<circle cx="151.139" cy="89.4354" r="4" fill="#0" id="circle17"/>
	<circle cx="160.632" cy="255.56" r="4" fill="#0" id="circle18"/>
	<circle cx="170.124" cy="70.4498" r="4" fill="#0" id="circle19"/>
	<circle cx="181.99" cy="34.8517" r="4" fill="#0" id="circle20"/>
	<circle cx="181.99" cy="243.694" r="4" fill="#0" id="circle21"/>
	<circle cx="196.23" cy="262.679" r="4" fill="#0" id="circle22"/>
	<circle cx="200.976" cy="15.866" r="4" fill="#0" id="circle23"/>
	<circle cx="215.215" cy="279.292" r="4" fill="#0" id="circle24"/>
	<circle cx="224.708" cy="15.866" r="4" fill="#0" id="circle25"/>
	<circle cx="236.574" cy="291.158" r="4" fill="#0" id="circle26"/>
	<circle cx="243.694" cy="125.033" r="4" fill="#0" id="circle27"/>
	<circle cx="246.067" cy="4" r="4" fill="#0" id="circle28"/>
	<circle cx="248.44" cy="148.766" r="4" fill="#0" id="circle29"/>
	<circle cx="255.56" cy="307.77" r="4" fill="#0" id="circle30"/>
	<circle cx="260.306" cy="170.124" r="4" fill="#0" id="circle31"/>
	<circle cx="265.053" cy="113.167" r="4" fill="#0" id="circle32"/>
	<circle cx="267.426" cy="15.866" r="4" fill="#0" id="circle33"/>
	<circle cx="272.172" cy="326.756" r="4" fill="#0" id="circle34"/>
	<circle cx="281.665" cy="181.99" r="4" fill="#0" id="circle35"/>
	<circle cx="284.038" cy="98.9282" r="4" fill="#0" id="circle36"/>
	<circle cx="286.411" cy="30.1053" r="4" fill="#0" id="circle37"/>
	<circle cx="291.158" cy="53.8373" r="4" fill="#0" id="circle38"/>
	<circle cx="295.904" cy="336.249" r="4" fill="#0" id="circle39"/>
	<circle cx="300.651" cy="198.603" r="4" fill="#0" id="circle40"/>
	<circle cx="312.517" cy="355.234" r="4" fill="#0" id="circle41"/>
	<circle cx="322.01" cy="210.469" r="4" fill="#0" id="circle42"/>
	<circle cx="331.502" cy="371.847" r="4" fill="#0" id="circle43"/>
	<circle cx="338.622" cy="229.455" r="4" fill="#0" id="circle44"/>
	<circle cx="348.115" cy="390.833" r="4" fill="#0" id="circle45"/>
	<circle cx="359.981" cy="241.321" r="4" fill="#0" id="circle46"/>
	<circle cx="367.1" cy="407.445" r="4" fill="#0" id="circle47"/>
	<circle cx="378.967" cy="255.56" r="4" fill="#0" id="circle48"/>
	<circle cx="383.713" cy="426.431" r="4" fill="#0" id="circle49"/>
	<circle cx="397.952" cy="272.172" r="4" fill="#0" id="circle50"/>
	<circle cx="402.699" cy="443.043" r="4" fill="#0" id="circle51"/>
	<circle cx="416.938" cy="288.785" r="4" fill="#0" id="circle52"/>
	<circle cx="424.057" cy="454.909" r="4" fill="#0" id="circle53"/>
	<circle cx="438.297" cy="300.651" r="4" fill="#0" id="circle54"/>
	<circle cx="443.043" cy="469.148" r="4" fill="#0" id="circle55"/>
	<circle cx="459.656" cy="312.517" r="4" fill="#0" id="circle56"/>
	<circle cx="464.402" cy="481.014" r="4" fill="#0" id="circle57"/>
	<circle cx="481.014" cy="324.383" r="4" fill="#0" id="circle58"/>
	<circle cx="481.014" cy="500" r="4" fill="#0" id="circle59"/>
	<circle cx="500" cy="338.622" r="4" fill="#0" id="circle60"/>
	<circle cx="504.746" cy="509.493" r="4" fill="#0" id="circle61"/>
	<circle cx="521.359" cy="350.488" r="4" fill="#0" id="circle62"/>
	<circle cx="521.359" cy="528.478" r="4" fill="#0" id="circle63"/>
	<circle cx="540.344" cy="367.1" r="4" fill="#0" id="circle64"/>
	<circle cx="545.091" cy="537.971" r="4" fill="#0" id="circle65"/>
	<circle cx="561.703" cy="378.967" r="4" fill="#0" id="circle66"/>
	<circle cx="566.45" cy="549.837" r="4" fill="#0" id="circle67"/>
	<circle cx="580.689" cy="395.579" r="4" fill="#0" id="circle68"/>
	<circle cx="590.182" cy="559.33" r="4" fill="#0" id="circle69"/>
	<circle cx="602.048" cy="407.445" r="4" fill="#0" id="circle70"/>
	<circle cx="611.541" cy="571.196" r="4" fill="#0" id="circle71"/>
	<circle cx="623.407" cy="419.311" r="4" fill="#0" id="circle72"/>
	<circle cx="635.273" cy="575.943" r="4" fill="#0" id="circle73"/>
	<circle cx="644.766" cy="431.177" r="4" fill="#0" id="circle74"/>
	<circle cx="656.632" cy="587.809" r="4" fill="#0" id="circle75"/>
	<circle cx="666.124" cy="443.043" r="4" fill="#0" id="circle76"/>
	<circle cx="677.99" cy="599.675" r="4" fill="#0" id="circle77"/>
	<circle cx="687.483" cy="454.909" r="4" fill="#0" id="circle78"/>
	<circle cx="701.722" cy="599.675" r="4" fill="#0" id="circle79"/>
	<circle cx="708.842" cy="466.775" r="4" fill="#0" id="circle80"/>
	<circle cx="723.081" cy="611.541" r="4" fill="#0" id="circle81"/>
	<circle cx="730.201" cy="478.641" r="4" fill="#0" id="circle82"/>
	<circle cx="746.813" cy="621.033" r="4" fill="#0" id="circle83"/>
	<circle cx="753.933" cy="485.761" r="4" fill="#0" id="circle84"/>
	<circle cx="770.545" cy="623.407" r="4" fill="#0" id="circle85"/>
	<circle cx="775.292" cy="497.627" r="4" fill="#0" id="circle86"/>
	<circle cx="791.904" cy="635.273" r="4" fill="#0" id="circle87"/>
	<circle cx="799.024" cy="502.373" r="4" fill="#0" id="circle88"/>
	<circle cx="815.636" cy="635.273" r="4" fill="#0" id="circle89"/>
	<circle cx="820.383" cy="514.239" r="4" fill="#0" id="circle90"/>
	<circle cx="836.995" cy="647.139" r="4" fill="#0" id="circle91"/>
	<circle cx="841.742" cy="526.105" r="4" fill="#0" id="circle92"/>
	<circle cx="860.727" cy="651.885" r="4" fill="#0" id="circle93"/>
	<circle cx="863.1" cy="537.971" r="4" fill="#0" id="circle94"/>
	<circle cx="884.459" cy="549.837" r="4" fill="#0" id="circle95"/>
	<circle cx="884.459" cy="659.005" r="4" fill="#0" id="circle96"/>
	<circle cx="908.191" cy="549.837" r="4" fill="#0" id="circle97"/>
	<circle cx="908.191" cy="663.751" r="4" fill="#0" id="circle98"/>
	<circle cx="929.55" cy="561.703" r="4" fill="#0" id="circle99"/>
	<circle cx="929.55" cy="675.617" r="4" fill="#0" id="circle100"/>
	<circle cx="950.909" cy="573.569" r="4" fill="#0" id="circle101"/>
	<circle cx="953.282" cy="682.737" r="4" fill="#0" id="circle102"/>
	<circle cx="972.268" cy="585.435" r="4" fill="#0" id="circle103"/>
	<circle cx="974.641" cy="670.871" r="4" fill="#0" id="circle104"/>
	<circle cx="991.254" cy="599.675" r="4" fill="#0" id="circle105"/>
	<circle cx="996" cy="623.407" r="4" fill="#0" id="circle106"/>
	<circle cx="996" cy="656.632" r="4" fill="#0" id="circle107"/>
	</g>
</svg>