<?xml version="1.0" encoding="UTF-8" standalone="no"?>
<!-- Created with CurveBenchmark -->
<svg
	xmlns:dc="http://purl.org/dc/elements/1.1/"
	xmlns:cc="http://creativecommons.org/ns#"
	xmlns:rdf="http://www.w3.org/1999/02/22-rdf-syntax-ns#"
	xmlns:svg="http://www.w3.org/2000/svg"
	xmlns="http://www.w3.org/2000/svg"
	xmlns:sodipodi="http://sodipodi.sourceforge.net/DTD/sodipodi-0.dtd"
	xmlns:inkscape="http://www.inkscape.org/namespaces/inkscape"
	width="1000"
	height="1000"
	id="svg2"
	version="1.1"
	sodipodi:docname="manifold/fitconnect-chopper05.png.txt">
<defs
	id="defs4" />
<metadata
	id="metadata7">
	<rdf:RDF>
		<cc:Work
			rdf:about="">
			<dc:format>image/svg+xml</dc:format>
			<dc:type
				rdf:resource="http://purl.org/dc/dcmitype/StillImage" />
			<dc:title></dc:title>
		</cc:Work>
	</rdf:RDF>
</metadata>
<g
	inkscape:label="Layer 1"
	inkscape:groupmode="layer"
	id="layer1">
	<path style="fill:none;stroke:red;stroke-width:1px;stroke-linecap:butt;stroke-linejoin:miter;stroke-opacity:1" d="M 4,740.597 13.2537,722.09 z" id="boundary" inkscape:connector-curvature="0" />
	<path style="fill:none;stroke:red;stroke-width:1px;stroke-linecap:butt;stroke-linejoin:miter;stroke-opacity:1" d="M 4,740.597 18.806,753.552 z" id="boundary" inkscape:connector-curvature="0" />
	<path style="fill:none;stroke:red;stroke-width:1px;stroke-linecap:butt;stroke-linejoin:miter;stroke-opacity:1" d="M 13.2537,722.09 31.7612,725.791 z" id="boundary" inkscape:connector-curvature="0" />
	<path style="fill:none;stroke:red;stroke-width:1px;stroke-linecap:butt;stroke-linejoin:miter;stroke-opacity:1" d="M 18.806,753.552 37.3134,746.149 z" id="boundary" inkscape:connector-curvature="0" />
	<path style="fill:none;stroke:red;stroke-width:1px;stroke-linecap:butt;stroke-linejoin:miter;stroke-opacity:1" d="M 22.5075,509.254 22.5075,527.761 z" id="boundary" inkscape:connector-curvature="0" />
	<path style="fill:none;stroke:red;stroke-width:1px;stroke-linecap:butt;stroke-linejoin:miter;stroke-opacity:1" d="M 22.5075,509.254 31.7612,481.493 z" id="boundary" inkscape:connector-curvature="0" />
	<path style="fill:none;stroke:red;stroke-width:1px;stroke-linecap:butt;stroke-linejoin:miter;stroke-opacity:1" d="M 22.5075,527.761 22.5075,546.269 z" id="boundary" inkscape:connector-curvature="0" />
	<path style="fill:none;stroke:red;stroke-width:1px;stroke-linecap:butt;stroke-linejoin:miter;stroke-opacity:1" d="M 22.5075,546.269 22.5075,564.776 z" id="boundary" inkscape:connector-curvature="0" />
	<path style="fill:none;stroke:red;stroke-width:1px;stroke-linecap:butt;stroke-linejoin:miter;stroke-opacity:1" d="M 22.5075,564.776 31.7612,581.433 z" id="boundary" inkscape:connector-curvature="0" />
	<path style="fill:none;stroke:red;stroke-width:1px;stroke-linecap:butt;stroke-linejoin:miter;stroke-opacity:1" d="M 31.7612,481.493 41.0149,462.985 z" id="boundary" inkscape:connector-curvature="0" />
	<path style="fill:none;stroke:red;stroke-width:1px;stroke-linecap:butt;stroke-linejoin:miter;stroke-opacity:1" d="M 31.7612,581.433 44.7164,596.239 z" id="boundary" inkscape:connector-curvature="0" />
	<path style="fill:none;stroke:red;stroke-width:1px;stroke-linecap:butt;stroke-linejoin:miter;stroke-opacity:1" d="M 31.7612,725.791 50.2687,725.791 z" id="boundary" inkscape:connector-curvature="0" />
	<path style="fill:none;stroke:red;stroke-width:1px;stroke-linecap:butt;stroke-linejoin:miter;stroke-opacity:1" d="M 37.3134,746.149 55.8209,746.149 z" id="boundary" inkscape:connector-curvature="0" />
	<path style="fill:none;stroke:red;stroke-width:1px;stroke-linecap:butt;stroke-linejoin:miter;stroke-opacity:1" d="M 41.0149,444.478 41.0149,462.985 z" id="boundary" inkscape:connector-curvature="0" />
	<path style="fill:none;stroke:red;stroke-width:1px;stroke-linecap:butt;stroke-linejoin:miter;stroke-opacity:1" d="M 41.0149,444.478 50.2687,425.97 z" id="boundary" inkscape:connector-curvature="0" />
	<path style="fill:none;stroke:red;stroke-width:1px;stroke-linecap:butt;stroke-linejoin:miter;stroke-opacity:1" d="M 44.7164,596.239 59.5224,607.343 z" id="boundary" inkscape:connector-curvature="0" />
	<path style="fill:none;stroke:red;stroke-width:1px;stroke-linecap:butt;stroke-linejoin:miter;stroke-opacity:1" d="M 50.2687,407.463 50.2687,425.97 z" id="boundary" inkscape:connector-curvature="0" />
	<path style="fill:none;stroke:red;stroke-width:1px;stroke-linecap:butt;stroke-linejoin:miter;stroke-opacity:1" d="M 50.2687,407.463 59.5224,379.701 z" id="boundary" inkscape:connector-curvature="0" />
	<path style="fill:none;stroke:red;stroke-width:1px;stroke-linecap:butt;stroke-linejoin:miter;stroke-opacity:1" d="M 50.2687,725.791 68.7761,725.791 z" id="boundary" inkscape:connector-curvature="0" />
	<path style="fill:none;stroke:red;stroke-width:1px;stroke-linecap:butt;stroke-linejoin:miter;stroke-opacity:1" d="M 55.8209,746.149 74.3284,746.149 z" id="boundary" inkscape:connector-curvature="0" />
	<path style="fill:none;stroke:red;stroke-width:1px;stroke-linecap:butt;stroke-linejoin:miter;stroke-opacity:1" d="M 59.5224,379.701 68.7761,361.194 z" id="boundary" inkscape:connector-curvature="0" />
	<path style="fill:none;stroke:red;stroke-width:1px;stroke-linecap:butt;stroke-linejoin:miter;stroke-opacity:1" d="M 59.5224,607.343 78.0299,607.343 z" id="boundary" inkscape:connector-curvature="0" />
	<path style="fill:none;stroke:red;stroke-width:1px;stroke-linecap:butt;stroke-linejoin:miter;stroke-opacity:1" d="M 68.7761,342.687 68.7761,361.194 z" id="boundary" inkscape:connector-curvature="0" />
	<path style="fill:none;stroke:red;stroke-width:1px;stroke-linecap:butt;stroke-linejoin:miter;stroke-opacity:1" d="M 68.7761,342.687 78.0299,324.179 z" id="boundary" inkscape:connector-curvature="0" />
	<path style="fill:none;stroke:red;stroke-width:1px;stroke-linecap:butt;stroke-linejoin:miter;stroke-opacity:1" d="M 68.7761,725.791 87.2836,725.791 z" id="boundary" inkscape:connector-curvature="0" />
	<path style="fill:none;stroke:red;stroke-width:1px;stroke-linecap:butt;stroke-linejoin:miter;stroke-opacity:1" d="M 74.3284,746.149 92.8358,746.149 z" id="boundary" inkscape:connector-curvature="0" />
	<path style="fill:none;stroke:red;stroke-width:1px;stroke-linecap:butt;stroke-linejoin:miter;stroke-opacity:1" d="M 78.0299,324.179 87.2836,296.418 z" id="boundary" inkscape:connector-curvature="0" />
	<path style="fill:none;stroke:red;stroke-width:1px;stroke-linecap:butt;stroke-linejoin:miter;stroke-opacity:1" d="M 78.0299,607.343 94.6866,616.597 z" id="boundary" inkscape:connector-curvature="0" />
	<path style="fill:none;stroke:red;stroke-width:1px;stroke-linecap:butt;stroke-linejoin:miter;stroke-opacity:1" d="M 87.2836,296.418 102.09,281.612 z" id="boundary" inkscape:connector-curvature="0" />
	<path style="fill:none;stroke:red;stroke-width:1px;stroke-linecap:butt;stroke-linejoin:miter;stroke-opacity:1" d="M 87.2836,725.791 105.791,725.791 z" id="boundary" inkscape:connector-curvature="0" />
	<path style="fill:none;stroke:red;stroke-width:1px;stroke-linecap:butt;stroke-linejoin:miter;stroke-opacity:1" d="M 92.8358,746.149 111.343,746.149 z" id="boundary" inkscape:connector-curvature="0" />
	<path style="fill:none;stroke:red;stroke-width:1px;stroke-linecap:butt;stroke-linejoin:miter;stroke-opacity:1" d="M 94.6866,616.597 113.194,616.597 z" id="boundary" inkscape:connector-curvature="0" />
	<path style="fill:none;stroke:red;stroke-width:1px;stroke-linecap:butt;stroke-linejoin:miter;stroke-opacity:1" d="M 102.09,281.612 148.358,244.597 z" id="boundary" inkscape:connector-curvature="0" />
	<path style="fill:none;stroke:red;stroke-width:1px;stroke-linecap:butt;stroke-linejoin:miter;stroke-opacity:1" d="M 105.791,725.791 124.299,725.791 z" id="boundary" inkscape:connector-curvature="0" />
	<path style="fill:none;stroke:red;stroke-width:1px;stroke-linecap:butt;stroke-linejoin:miter;stroke-opacity:1" d="M 111.343,746.149 129.851,746.149 z" id="boundary" inkscape:connector-curvature="0" />
	<path style="fill:none;stroke:red;stroke-width:1px;stroke-linecap:butt;stroke-linejoin:miter;stroke-opacity:1" d="M 113.194,616.597 129.851,625.851 z" id="boundary" inkscape:connector-curvature="0" />
	<path style="fill:none;stroke:red;stroke-width:1px;stroke-linecap:butt;stroke-linejoin:miter;stroke-opacity:1" d="M 124.299,725.791 142.806,722.09 z" id="boundary" inkscape:connector-curvature="0" />
	<path style="fill:none;stroke:red;stroke-width:1px;stroke-linecap:butt;stroke-linejoin:miter;stroke-opacity:1" d="M 129.851,625.851 148.358,625.851 z" id="boundary" inkscape:connector-curvature="0" />
	<path style="fill:none;stroke:red;stroke-width:1px;stroke-linecap:butt;stroke-linejoin:miter;stroke-opacity:1" d="M 129.851,746.149 148.358,746.149 z" id="boundary" inkscape:connector-curvature="0" />
	<path style="fill:none;stroke:red;stroke-width:1px;stroke-linecap:butt;stroke-linejoin:miter;stroke-opacity:1" d="M 142.806,722.09 157.612,707.284 z" id="boundary" inkscape:connector-curvature="0" />
	<path style="fill:none;stroke:red;stroke-width:1px;stroke-linecap:butt;stroke-linejoin:miter;stroke-opacity:1" d="M 148.358,244.597 250.149,189.075 z" id="boundary" inkscape:connector-curvature="0" />
	<path style="fill:none;stroke:red;stroke-width:1px;stroke-linecap:butt;stroke-linejoin:miter;stroke-opacity:1" d="M 148.358,625.851 166.866,625.851 z" id="boundary" inkscape:connector-curvature="0" />
	<path style="fill:none;stroke:red;stroke-width:1px;stroke-linecap:butt;stroke-linejoin:miter;stroke-opacity:1" d="M 148.358,746.149 166.866,746.149 z" id="boundary" inkscape:connector-curvature="0" />
	<path style="fill:none;stroke:red;stroke-width:1px;stroke-linecap:butt;stroke-linejoin:miter;stroke-opacity:1" d="M 157.612,707.284 176.119,707.284 z" id="boundary" inkscape:connector-curvature="0" />
	<path style="fill:none;stroke:red;stroke-width:1px;stroke-linecap:butt;stroke-linejoin:miter;stroke-opacity:1" d="M 166.866,625.851 185.373,633.254 z" id="boundary" inkscape:connector-curvature="0" />
	<path style="fill:none;stroke:red;stroke-width:1px;stroke-linecap:butt;stroke-linejoin:miter;stroke-opacity:1" d="M 166.866,746.149 183.522,736.896 z" id="boundary" inkscape:connector-curvature="0" />
	<path style="fill:none;stroke:red;stroke-width:1px;stroke-linecap:butt;stroke-linejoin:miter;stroke-opacity:1" d="M 176.119,707.284 189.075,688.776 z" id="boundary" inkscape:connector-curvature="0" />
	<path style="fill:none;stroke:red;stroke-width:1px;stroke-linecap:butt;stroke-linejoin:miter;stroke-opacity:1" d="M 183.522,736.896 202.03,736.896 z" id="boundary" inkscape:connector-curvature="0" />
	<path style="fill:none;stroke:red;stroke-width:1px;stroke-linecap:butt;stroke-linejoin:miter;stroke-opacity:1" d="M 185.373,633.254 189.075,651.761 z" id="boundary" inkscape:connector-curvature="0" />
	<path style="fill:none;stroke:red;stroke-width:1px;stroke-linecap:butt;stroke-linejoin:miter;stroke-opacity:1" d="M 189.075,651.761 189.075,670.269 z" id="boundary" inkscape:connector-curvature="0" />
	<path style="fill:none;stroke:red;stroke-width:1px;stroke-linecap:butt;stroke-linejoin:miter;stroke-opacity:1" d="M 189.075,670.269 189.075,688.776 z" id="boundary" inkscape:connector-curvature="0" />
	<path style="fill:none;stroke:red;stroke-width:1px;stroke-linecap:butt;stroke-linejoin:miter;stroke-opacity:1" d="M 202.03,736.896 218.687,727.642 z" id="boundary" inkscape:connector-curvature="0" />
	<path style="fill:none;stroke:red;stroke-width:1px;stroke-linecap:butt;stroke-linejoin:miter;stroke-opacity:1" d="M 218.687,727.642 235.343,736.896 z" id="boundary" inkscape:connector-curvature="0" />
	<path style="fill:none;stroke:red;stroke-width:1px;stroke-linecap:butt;stroke-linejoin:miter;stroke-opacity:1" d="M 235.343,736.896 252,727.642 z" id="boundary" inkscape:connector-curvature="0" />
	<path style="fill:none;stroke:red;stroke-width:1px;stroke-linecap:butt;stroke-linejoin:miter;stroke-opacity:1" d="M 250.149,189.075 300.119,46.5672 z" id="boundary" inkscape:connector-curvature="0" />
	<path style="fill:none;stroke:red;stroke-width:1px;stroke-linecap:butt;stroke-linejoin:miter;stroke-opacity:1" d="M 252,727.642 268.657,718.388 z" id="boundary" inkscape:connector-curvature="0" />
	<path style="fill:none;stroke:red;stroke-width:1px;stroke-linecap:butt;stroke-linejoin:miter;stroke-opacity:1" d="M 268.657,718.388 287.164,718.388 z" id="boundary" inkscape:connector-curvature="0" />
	<path style="fill:none;stroke:red;stroke-width:1px;stroke-linecap:butt;stroke-linejoin:miter;stroke-opacity:1" d="M 287.164,718.388 303.821,709.134 z" id="boundary" inkscape:connector-curvature="0" />
	<path style="fill:none;stroke:red;stroke-width:1px;stroke-linecap:butt;stroke-linejoin:miter;stroke-opacity:1" d="M 300.119,46.5672 450.03,133.552 z" id="boundary" inkscape:connector-curvature="0" />
	<path style="fill:none;stroke:red;stroke-width:1px;stroke-linecap:butt;stroke-linejoin:miter;stroke-opacity:1" d="M 303.821,709.134 322.328,709.134 z" id="boundary" inkscape:connector-curvature="0" />
	<path style="fill:none;stroke:red;stroke-width:1px;stroke-linecap:butt;stroke-linejoin:miter;stroke-opacity:1" d="M 322.328,709.134 340.836,709.134 z" id="boundary" inkscape:connector-curvature="0" />
	<path style="fill:none;stroke:red;stroke-width:1px;stroke-linecap:butt;stroke-linejoin:miter;stroke-opacity:1" d="M 340.836,709.134 359.343,705.433 z" id="boundary" inkscape:connector-curvature="0" />
	<path style="fill:none;stroke:red;stroke-width:1px;stroke-linecap:butt;stroke-linejoin:miter;stroke-opacity:1" d="M 359.343,705.433 377.851,709.134 z" id="boundary" inkscape:connector-curvature="0" />
	<path style="fill:none;stroke:red;stroke-width:1px;stroke-linecap:butt;stroke-linejoin:miter;stroke-opacity:1" d="M 377.851,709.134 394.507,699.881 z" id="boundary" inkscape:connector-curvature="0" />
	<path style="fill:none;stroke:red;stroke-width:1px;stroke-linecap:butt;stroke-linejoin:miter;stroke-opacity:1" d="M 394.507,699.881 413.015,690.627 z" id="boundary" inkscape:connector-curvature="0" />
	<path style="fill:none;stroke:red;stroke-width:1px;stroke-linecap:butt;stroke-linejoin:miter;stroke-opacity:1" d="M 413.015,690.627 431.522,690.627 z" id="boundary" inkscape:connector-curvature="0" />
	<path style="fill:none;stroke:red;stroke-width:1px;stroke-linecap:butt;stroke-linejoin:miter;stroke-opacity:1" d="M 431.522,690.627 446.328,677.672 z" id="boundary" inkscape:connector-curvature="0" />
	<path style="fill:none;stroke:red;stroke-width:1px;stroke-linecap:butt;stroke-linejoin:miter;stroke-opacity:1" d="M 446.328,677.672 450.03,644.358 z" id="boundary" inkscape:connector-curvature="0" />
	<path style="fill:none;stroke:red;stroke-width:1px;stroke-linecap:butt;stroke-linejoin:miter;stroke-opacity:1" d="M 450.03,133.552 575.881,179.821 z" id="boundary" inkscape:connector-curvature="0" />
	<path style="fill:none;stroke:red;stroke-width:1px;stroke-linecap:butt;stroke-linejoin:miter;stroke-opacity:1" d="M 450.03,644.358 468.537,644.358 z" id="boundary" inkscape:connector-curvature="0" />
	<path style="fill:none;stroke:red;stroke-width:1px;stroke-linecap:butt;stroke-linejoin:miter;stroke-opacity:1" d="M 468.537,644.358 487.045,644.358 z" id="boundary" inkscape:connector-curvature="0" />
	<path style="fill:none;stroke:red;stroke-width:1px;stroke-linecap:butt;stroke-linejoin:miter;stroke-opacity:1" d="M 487.045,644.358 505.552,644.358 z" id="boundary" inkscape:connector-curvature="0" />
	<path style="fill:none;stroke:red;stroke-width:1px;stroke-linecap:butt;stroke-linejoin:miter;stroke-opacity:1" d="M 505.552,644.358 522.209,635.104 z" id="boundary" inkscape:connector-curvature="0" />
	<path style="fill:none;stroke:red;stroke-width:1px;stroke-linecap:butt;stroke-linejoin:miter;stroke-opacity:1" d="M 522.209,635.104 540.716,635.104 z" id="boundary" inkscape:connector-curvature="0" />
	<path style="fill:none;stroke:red;stroke-width:1px;stroke-linecap:butt;stroke-linejoin:miter;stroke-opacity:1" d="M 540.716,635.104 559.224,635.104 z" id="boundary" inkscape:connector-curvature="0" />
	<path style="fill:none;stroke:red;stroke-width:1px;stroke-linecap:butt;stroke-linejoin:miter;stroke-opacity:1" d="M 559.224,635.104 577.731,629.552 z" id="boundary" inkscape:connector-curvature="0" />
	<path style="fill:none;stroke:red;stroke-width:1px;stroke-linecap:butt;stroke-linejoin:miter;stroke-opacity:1" d="M 575.881,179.821 642.507,274.209 z" id="boundary" inkscape:connector-curvature="0" />
	<path style="fill:none;stroke:red;stroke-width:1px;stroke-linecap:butt;stroke-linejoin:miter;stroke-opacity:1" d="M 577.731,629.552 596.239,629.552 z" id="boundary" inkscape:connector-curvature="0" />
	<path style="fill:none;stroke:red;stroke-width:1px;stroke-linecap:butt;stroke-linejoin:miter;stroke-opacity:1" d="M 596.239,629.552 614.746,625.851 z" id="boundary" inkscape:connector-curvature="0" />
	<path style="fill:none;stroke:red;stroke-width:1px;stroke-linecap:butt;stroke-linejoin:miter;stroke-opacity:1" d="M 614.746,625.851 631.403,616.597 z" id="boundary" inkscape:connector-curvature="0" />
	<path style="fill:none;stroke:red;stroke-width:1px;stroke-linecap:butt;stroke-linejoin:miter;stroke-opacity:1" d="M 631.403,616.597 649.91,616.597 z" id="boundary" inkscape:connector-curvature="0" />
	<path style="fill:none;stroke:red;stroke-width:1px;stroke-linecap:butt;stroke-linejoin:miter;stroke-opacity:1" d="M 642.507,274.209 690.627,309.373 z" id="boundary" inkscape:connector-curvature="0" />
	<path style="fill:none;stroke:red;stroke-width:1px;stroke-linecap:butt;stroke-linejoin:miter;stroke-opacity:1" d="M 649.91,616.597 666.567,607.343 z" id="boundary" inkscape:connector-curvature="0" />
	<path style="fill:none;stroke:red;stroke-width:1px;stroke-linecap:butt;stroke-linejoin:miter;stroke-opacity:1" d="M 666.567,607.343 685.075,607.343 z" id="boundary" inkscape:connector-curvature="0" />
	<path style="fill:none;stroke:red;stroke-width:1px;stroke-linecap:butt;stroke-linejoin:miter;stroke-opacity:1" d="M 685.075,607.343 703.582,607.343 z" id="boundary" inkscape:connector-curvature="0" />
	<path style="fill:none;stroke:red;stroke-width:1px;stroke-linecap:butt;stroke-linejoin:miter;stroke-opacity:1" d="M 690.627,309.373 746.149,309.373 z" id="boundary" inkscape:connector-curvature="0" />
	<path style="fill:none;stroke:red;stroke-width:1px;stroke-linecap:butt;stroke-linejoin:miter;stroke-opacity:1" d="M 703.582,607.343 722.09,607.343 z" id="boundary" inkscape:connector-curvature="0" />
	<path style="fill:none;stroke:red;stroke-width:1px;stroke-linecap:butt;stroke-linejoin:miter;stroke-opacity:1" d="M 718.388,477.791 718.388,496.299 z" id="boundary" inkscape:connector-curvature="0" />
	<path style="fill:none;stroke:red;stroke-width:1px;stroke-linecap:butt;stroke-linejoin:miter;stroke-opacity:1" d="M 718.388,477.791 736.896,477.791 z" id="boundary" inkscape:connector-curvature="0" />
	<path style="fill:none;stroke:red;stroke-width:1px;stroke-linecap:butt;stroke-linejoin:miter;stroke-opacity:1" d="M 718.388,496.299 736.896,498.149 z" id="boundary" inkscape:connector-curvature="0" />
	<path style="fill:none;stroke:red;stroke-width:1px;stroke-linecap:butt;stroke-linejoin:miter;stroke-opacity:1" d="M 722.09,607.343 740.597,605.493 z" id="boundary" inkscape:connector-curvature="0" />
	<path style="fill:none;stroke:red;stroke-width:1px;stroke-linecap:butt;stroke-linejoin:miter;stroke-opacity:1" d="M 736.896,477.791 751.701,464.836 z" id="boundary" inkscape:connector-curvature="0" />
	<path style="fill:none;stroke:red;stroke-width:1px;stroke-linecap:butt;stroke-linejoin:miter;stroke-opacity:1" d="M 736.896,498.149 755.403,500 z" id="boundary" inkscape:connector-curvature="0" />
	<path style="fill:none;stroke:red;stroke-width:1px;stroke-linecap:butt;stroke-linejoin:miter;stroke-opacity:1" d="M 740.597,605.493 759.104,605.493 z" id="boundary" inkscape:connector-curvature="0" />
	<path style="fill:none;stroke:red;stroke-width:1px;stroke-linecap:butt;stroke-linejoin:miter;stroke-opacity:1" d="M 746.149,309.373 783.164,309.373 z" id="boundary" inkscape:connector-curvature="0" />
	<path style="fill:none;stroke:red;stroke-width:1px;stroke-linecap:butt;stroke-linejoin:miter;stroke-opacity:1" d="M 751.701,464.836 770.209,455.582 z" id="boundary" inkscape:connector-curvature="0" />
	<path style="fill:none;stroke:red;stroke-width:1px;stroke-linecap:butt;stroke-linejoin:miter;stroke-opacity:1" d="M 755.403,500 755.403,518.507 z" id="boundary" inkscape:connector-curvature="0" />
	<path style="fill:none;stroke:red;stroke-width:1px;stroke-linecap:butt;stroke-linejoin:miter;stroke-opacity:1" d="M 755.403,518.507 768.358,533.313 z" id="boundary" inkscape:connector-curvature="0" />
	<path style="fill:none;stroke:red;stroke-width:1px;stroke-linecap:butt;stroke-linejoin:miter;stroke-opacity:1" d="M 759.104,605.493 773.91,588.836 z" id="boundary" inkscape:connector-curvature="0" />
	<path style="fill:none;stroke:red;stroke-width:1px;stroke-linecap:butt;stroke-linejoin:miter;stroke-opacity:1" d="M 768.358,533.313 783.164,546.269 z" id="boundary" inkscape:connector-curvature="0" />
	<path style="fill:none;stroke:red;stroke-width:1px;stroke-linecap:butt;stroke-linejoin:miter;stroke-opacity:1" d="M 770.209,455.582 783.164,440.776 z" id="boundary" inkscape:connector-curvature="0" />
	<path style="fill:none;stroke:red;stroke-width:1px;stroke-linecap:butt;stroke-linejoin:miter;stroke-opacity:1" d="M 773.91,588.836 783.164,564.776 z" id="boundary" inkscape:connector-curvature="0" />
	<path style="fill:none;stroke:red;stroke-width:1px;stroke-linecap:butt;stroke-linejoin:miter;stroke-opacity:1" d="M 783.164,309.373 801.672,309.373 z" id="boundary" inkscape:connector-curvature="0" />
	<path style="fill:none;stroke:red;stroke-width:1px;stroke-linecap:butt;stroke-linejoin:miter;stroke-opacity:1" d="M 783.164,440.776 801.672,422.269 z" id="boundary" inkscape:connector-curvature="0" />
	<path style="fill:none;stroke:red;stroke-width:1px;stroke-linecap:butt;stroke-linejoin:miter;stroke-opacity:1" d="M 783.164,546.269 783.164,564.776 z" id="boundary" inkscape:connector-curvature="0" />
	<path style="fill:none;stroke:red;stroke-width:1px;stroke-linecap:butt;stroke-linejoin:miter;stroke-opacity:1" d="M 801.672,309.373 838.687,309.373 z" id="boundary" inkscape:connector-curvature="0" />
	<path style="fill:none;stroke:red;stroke-width:1px;stroke-linecap:butt;stroke-linejoin:miter;stroke-opacity:1" d="M 801.672,422.269 820.179,422.269 z" id="boundary" inkscape:connector-curvature="0" />
	<path style="fill:none;stroke:red;stroke-width:1px;stroke-linecap:butt;stroke-linejoin:miter;stroke-opacity:1" d="M 820.179,422.269 834.985,409.313 z" id="boundary" inkscape:connector-curvature="0" />
	<path style="fill:none;stroke:red;stroke-width:1px;stroke-linecap:butt;stroke-linejoin:miter;stroke-opacity:1" d="M 834.985,409.313 847.94,394.507 z" id="boundary" inkscape:connector-curvature="0" />
	<path style="fill:none;stroke:red;stroke-width:1px;stroke-linecap:butt;stroke-linejoin:miter;stroke-opacity:1" d="M 838.687,309.373 857.194,309.373 z" id="boundary" inkscape:connector-curvature="0" />
	<path style="fill:none;stroke:red;stroke-width:1px;stroke-linecap:butt;stroke-linejoin:miter;stroke-opacity:1" d="M 847.94,394.507 864.597,385.254 z" id="boundary" inkscape:connector-curvature="0" />
	<path style="fill:none;stroke:red;stroke-width:1px;stroke-linecap:butt;stroke-linejoin:miter;stroke-opacity:1" d="M 857.194,309.373 875.701,309.373 z" id="boundary" inkscape:connector-curvature="0" />
	<path style="fill:none;stroke:red;stroke-width:1px;stroke-linecap:butt;stroke-linejoin:miter;stroke-opacity:1" d="M 864.597,385.254 881.254,376 z" id="boundary" inkscape:connector-curvature="0" />
	<path style="fill:none;stroke:red;stroke-width:1px;stroke-linecap:butt;stroke-linejoin:miter;stroke-opacity:1" d="M 875.701,309.373 892.358,300.119 z" id="boundary" inkscape:connector-curvature="0" />
	<path style="fill:none;stroke:red;stroke-width:1px;stroke-linecap:butt;stroke-linejoin:miter;stroke-opacity:1" d="M 881.254,376 899.761,376 z" id="boundary" inkscape:connector-curvature="0" />
	<path style="fill:none;stroke:red;stroke-width:1px;stroke-linecap:butt;stroke-linejoin:miter;stroke-opacity:1" d="M 892.358,300.119 909.015,290.866 z" id="boundary" inkscape:connector-curvature="0" />
	<path style="fill:none;stroke:red;stroke-width:1px;stroke-linecap:butt;stroke-linejoin:miter;stroke-opacity:1" d="M 899.761,376 918.269,372.299 z" id="boundary" inkscape:connector-curvature="0" />
	<path style="fill:none;stroke:red;stroke-width:1px;stroke-linecap:butt;stroke-linejoin:miter;stroke-opacity:1" d="M 909.015,290.866 927.522,290.866 z" id="boundary" inkscape:connector-curvature="0" />
	<path style="fill:none;stroke:red;stroke-width:1px;stroke-linecap:butt;stroke-linejoin:miter;stroke-opacity:1" d="M 918.269,372.299 931.224,357.493 z" id="boundary" inkscape:connector-curvature="0" />
	<path style="fill:none;stroke:red;stroke-width:1px;stroke-linecap:butt;stroke-linejoin:miter;stroke-opacity:1" d="M 927.522,290.866 946.03,290.866 z" id="boundary" inkscape:connector-curvature="0" />
	<path style="fill:none;stroke:red;stroke-width:1px;stroke-linecap:butt;stroke-linejoin:miter;stroke-opacity:1" d="M 931.224,357.493 949.731,348.239 z" id="boundary" inkscape:connector-curvature="0" />
	<path style="fill:none;stroke:red;stroke-width:1px;stroke-linecap:butt;stroke-linejoin:miter;stroke-opacity:1" d="M 946.03,290.866 964.537,290.866 z" id="boundary" inkscape:connector-curvature="0" />
	<path style="fill:none;stroke:red;stroke-width:1px;stroke-linecap:butt;stroke-linejoin:miter;stroke-opacity:1" d="M 949.731,348.239 968.239,348.239 z" id="boundary" inkscape:connector-curvature="0" />
	<path style="fill:none;stroke:red;stroke-width:1px;stroke-linecap:butt;stroke-linejoin:miter;stroke-opacity:1" d="M 964.537,290.866 983.045,292.716 z" id="boundary" inkscape:connector-curvature="0" />
	<path style="fill:none;stroke:red;stroke-width:1px;stroke-linecap:butt;stroke-linejoin:miter;stroke-opacity:1" d="M 968.239,348.239 986.746,338.985 z" id="boundary" inkscape:connector-curvature="0" />
	<path style="fill:none;stroke:red;stroke-width:1px;stroke-linecap:butt;stroke-linejoin:miter;stroke-opacity:1" d="M 983.045,292.716 996,307.522 z" id="boundary" inkscape:connector-curvature="0" />
	<path style="fill:none;stroke:red;stroke-width:1px;stroke-linecap:butt;stroke-linejoin:miter;stroke-opacity:1" d="M 986.746,338.985 996,307.522 z" id="boundary" inkscape:connector-curvature="0" />
	<circle cx="4" cy="740.597" r="4" fill="#0" id="circle0"/>
	<circle cx="13.2537" cy="722.09" r="4" fill="#0" id="circle1"/>
	<circle cx="18.806" cy="753.552" r="4" fill="#0" id="circle2"/>
	<circle cx="22.5075" cy="509.254" r="4" fill="#0" id="circle3"/>
	<circle cx="22.5075" cy="527.761" r="4" fill="#0" id="circle4"/>
	<circle cx="22.5075" cy="546.269" r="4" fill="#0" id="circle5"/>
	<circle cx="22.5075" cy="564.776" r="4" fill="#0" id="circle6"/>
	<circle cx="31.7612" cy="481.493" r="4" fill="#0" id="circle7"/>
	<circle cx="31.7612" cy="581.433" r="4" fill="#0" id="circle8"/>
	<circle cx="31.7612" cy="725.791" r="4" fill="#0" id="circle9"/>
	<circle cx="37.3134" cy="746.149" r="4" fill="#0" id="circle10"/>
	<circle cx="41.0149" cy="444.478" r="4" fill="#0" id="circle11"/>
	<circle cx="41.0149" cy="462.985" r="4" fill="#0" id="circle12"/>
	<circle cx="44.7164" cy="596.239" r="4" fill="#0" id="circle13"/>
	<circle cx="50.2687" cy="407.463" r="4" fill="#0" id="circle14"/>
	<circle cx="50.2687" cy="425.97" r="4" fill="#0" id="circle15"/>
	<circle cx="50.2687" cy="725.791" r="4" fill="#0" id="circle16"/>
	<circle cx="55.8209" cy="746.149" r="4" fill="#0" id="circle17"/>
	<circle cx="59.5224" cy="379.701" r="4" fill="#0" id="circle18"/>
	<circle cx="59.5224" cy="607.343" r="4" fill="#0" id="circle19"/>
	<circle cx="68.7761" cy="342.687" r="4" fill="#0" id="circle20"/>
	<circle cx="68.7761" cy="361.194" r="4" fill="#0" id="circle21"/>
	<circle cx="68.7761" cy="725.791" r="4" fill="#0" id="circle22"/>
	<circle cx="74.3284" cy="746.149" r="4" fill="#0" id="circle23"/>
	<circle cx="78.0299" cy="324.179" r="4" fill="#0" id="circle24"/>
	<circle cx="78.0299" cy="607.343" r="4" fill="#0" id="circle25"/>
	<circle cx="87.2836" cy="296.418" r="4" fill="#0" id="circle26"/>
	<circle cx="87.2836" cy="725.791" r="4" fill="#0" id="circle27"/>
	<circle cx="92.8358" cy="746.149" r="4" fill="#0" id="circle28"/>
	<circle cx="94.6866" cy="616.597" r="4" fill="#0" id="circle29"/>
	<circle cx="102.09" cy="281.612" r="4" fill="#0" id="circle30"/>
	<circle cx="105.791" cy="725.791" r="4" fill="#0" id="circle31"/>
	<circle cx="111.343" cy="746.149" r="4" fill="#0" id="circle32"/>
	<circle cx="113.194" cy="616.597" r="4" fill="#0" id="circle33"/>
	<circle cx="118.746" cy="272.358" r="4" fill="#0" id="circle34"/>
	<circle cx="124.299" cy="725.791" r="4" fill="#0" id="circle35"/>
	<circle cx="129.851" cy="625.851" r="4" fill="#0" id="circle36"/>
	<circle cx="129.851" cy="746.149" r="4" fill="#0" id="circle37"/>
	<circle cx="133.552" cy="259.403" r="4" fill="#0" id="circle38"/>
	<circle cx="142.806" cy="722.09" r="4" fill="#0" id="circle39"/>
	<circle cx="148.358" cy="244.597" r="4" fill="#0" id="circle40"/>
	<circle cx="148.358" cy="625.851" r="4" fill="#0" id="circle41"/>
	<circle cx="148.358" cy="746.149" r="4" fill="#0" id="circle42"/>
	<circle cx="157.612" cy="707.284" r="4" fill="#0" id="circle43"/>
	<circle cx="163.164" cy="229.791" r="4" fill="#0" id="circle44"/>
	<circle cx="166.866" cy="625.851" r="4" fill="#0" id="circle45"/>
	<circle cx="166.866" cy="746.149" r="4" fill="#0" id="circle46"/>
	<circle cx="176.119" cy="707.284" r="4" fill="#0" id="circle47"/>
	<circle cx="179.821" cy="213.134" r="4" fill="#0" id="circle48"/>
	<circle cx="183.522" cy="736.896" r="4" fill="#0" id="circle49"/>
	<circle cx="185.373" cy="633.254" r="4" fill="#0" id="circle50"/>
	<circle cx="189.075" cy="651.761" r="4" fill="#0" id="circle51"/>
	<circle cx="189.075" cy="670.269" r="4" fill="#0" id="circle52"/>
	<circle cx="189.075" cy="688.776" r="4" fill="#0" id="circle53"/>
	<circle cx="194.627" cy="198.328" r="4" fill="#0" id="circle54"/>
	<circle cx="202.03" cy="736.896" r="4" fill="#0" id="circle55"/>
	<circle cx="213.134" cy="198.328" r="4" fill="#0" id="circle56"/>
	<circle cx="218.687" cy="727.642" r="4" fill="#0" id="circle57"/>
	<circle cx="231.642" cy="189.075" r="4" fill="#0" id="circle58"/>
	<circle cx="235.343" cy="736.896" r="4" fill="#0" id="circle59"/>
	<circle cx="250.149" cy="189.075" r="4" fill="#0" id="circle60"/>
	<circle cx="252" cy="727.642" r="4" fill="#0" id="circle61"/>
	<circle cx="268.657" cy="189.075" r="4" fill="#0" id="circle62"/>
	<circle cx="268.657" cy="718.388" r="4" fill="#0" id="circle63"/>
	<circle cx="287.164" cy="189.075" r="4" fill="#0" id="circle64"/>
	<circle cx="287.164" cy="718.388" r="4" fill="#0" id="circle65"/>
	<circle cx="300.119" cy="46.5672" r="4" fill="#0" id="circle66"/>
	<circle cx="303.821" cy="709.134" r="4" fill="#0" id="circle67"/>
	<circle cx="305.672" cy="189.075" r="4" fill="#0" id="circle68"/>
	<circle cx="309.373" cy="63.2239" r="4" fill="#0" id="circle69"/>
	<circle cx="318.627" cy="37.3134" r="4" fill="#0" id="circle70"/>
	<circle cx="322.328" cy="78.0299" r="4" fill="#0" id="circle71"/>
	<circle cx="322.328" cy="198.328" r="4" fill="#0" id="circle72"/>
	<circle cx="322.328" cy="709.134" r="4" fill="#0" id="circle73"/>
	<circle cx="337.134" cy="31.7612" r="4" fill="#0" id="circle74"/>
	<circle cx="340.836" cy="79.8806" r="4" fill="#0" id="circle75"/>
	<circle cx="340.836" cy="190.925" r="4" fill="#0" id="circle76"/>
	<circle cx="340.836" cy="709.134" r="4" fill="#0" id="circle77"/>
	<circle cx="355.642" cy="31.7612" r="4" fill="#0" id="circle78"/>
	<circle cx="357.493" cy="89.1343" r="4" fill="#0" id="circle79"/>
	<circle cx="359.343" cy="189.075" r="4" fill="#0" id="circle80"/>
	<circle cx="359.343" cy="705.433" r="4" fill="#0" id="circle81"/>
	<circle cx="364.896" cy="129.851" r="4" fill="#0" id="circle82"/>
	<circle cx="374.149" cy="28.0597" r="4" fill="#0" id="circle83"/>
	<circle cx="374.149" cy="146.507" r="4" fill="#0" id="circle84"/>
	<circle cx="376" cy="89.1343" r="4" fill="#0" id="circle85"/>
	<circle cx="377.851" cy="189.075" r="4" fill="#0" id="circle86"/>
	<circle cx="377.851" cy="709.134" r="4" fill="#0" id="circle87"/>
	<circle cx="383.403" cy="120.597" r="4" fill="#0" id="circle88"/>
	<circle cx="392.657" cy="26.209" r="4" fill="#0" id="circle89"/>
	<circle cx="392.657" cy="144.657" r="4" fill="#0" id="circle90"/>
	<circle cx="394.507" cy="699.881" r="4" fill="#0" id="circle91"/>
	<circle cx="396.358" cy="189.075" r="4" fill="#0" id="circle92"/>
	<circle cx="401.91" cy="161.313" r="4" fill="#0" id="circle93"/>
	<circle cx="411.164" cy="18.806" r="4" fill="#0" id="circle94"/>
	<circle cx="413.015" cy="690.627" r="4" fill="#0" id="circle95"/>
	<circle cx="422.269" cy="79.8806" r="4" fill="#0" id="circle96"/>
	<circle cx="425.97" cy="4" r="4" fill="#0" id="circle97"/>
	<circle cx="425.97" cy="98.3881" r="4" fill="#0" id="circle98"/>
	<circle cx="431.522" cy="690.627" r="4" fill="#0" id="circle99"/>
	<circle cx="440.776" cy="70.6269" r="4" fill="#0" id="circle100"/>
	<circle cx="440.776" cy="116.896" r="4" fill="#0" id="circle101"/>
	<circle cx="442.627" cy="13.2537" r="4" fill="#0" id="circle102"/>
	<circle cx="446.328" cy="677.672" r="4" fill="#0" id="circle103"/>
	<circle cx="450.03" cy="133.552" r="4" fill="#0" id="circle104"/>
	<circle cx="450.03" cy="152.06" r="4" fill="#0" id="circle105"/>
	<circle cx="450.03" cy="644.358" r="4" fill="#0" id="circle106"/>
	<circle cx="459.284" cy="22.5075" r="4" fill="#0" id="circle107"/>
	<circle cx="459.284" cy="42.8657" r="4" fill="#0" id="circle108"/>
	<circle cx="459.284" cy="61.3731" r="4" fill="#0" id="circle109"/>
	<circle cx="466.687" cy="161.313" r="4" fill="#0" id="circle110"/>
	<circle cx="468.537" cy="644.358" r="4" fill="#0" id="circle111"/>
	<circle cx="483.343" cy="170.567" r="4" fill="#0" id="circle112"/>
	<circle cx="487.045" cy="644.358" r="4" fill="#0" id="circle113"/>
	<circle cx="501.851" cy="170.567" r="4" fill="#0" id="circle114"/>
	<circle cx="505.552" cy="644.358" r="4" fill="#0" id="circle115"/>
	<circle cx="520.358" cy="170.567" r="4" fill="#0" id="circle116"/>
	<circle cx="522.209" cy="635.104" r="4" fill="#0" id="circle117"/>
	<circle cx="538.866" cy="172.418" r="4" fill="#0" id="circle118"/>
	<circle cx="540.716" cy="635.104" r="4" fill="#0" id="circle119"/>
	<circle cx="557.373" cy="179.821" r="4" fill="#0" id="circle120"/>
	<circle cx="559.224" cy="635.104" r="4" fill="#0" id="circle121"/>
	<circle cx="575.881" cy="179.821" r="4" fill="#0" id="circle122"/>
	<circle cx="577.731" cy="629.552" r="4" fill="#0" id="circle123"/>
	<circle cx="594.388" cy="179.821" r="4" fill="#0" id="circle124"/>
	<circle cx="596.239" cy="629.552" r="4" fill="#0" id="circle125"/>
	<circle cx="612.896" cy="181.672" r="4" fill="#0" id="circle126"/>
	<circle cx="614.746" cy="625.851" r="4" fill="#0" id="circle127"/>
	<circle cx="625.851" cy="283.463" r="4" fill="#0" id="circle128"/>
	<circle cx="631.403" cy="189.075" r="4" fill="#0" id="circle129"/>
	<circle cx="631.403" cy="616.597" r="4" fill="#0" id="circle130"/>
	<circle cx="640.657" cy="294.567" r="4" fill="#0" id="circle131"/>
	<circle cx="642.507" cy="274.209" r="4" fill="#0" id="circle132"/>
	<circle cx="649.91" cy="189.075" r="4" fill="#0" id="circle133"/>
	<circle cx="649.91" cy="616.597" r="4" fill="#0" id="circle134"/>
	<circle cx="653.612" cy="309.373" r="4" fill="#0" id="circle135"/>
	<circle cx="661.015" cy="277.91" r="4" fill="#0" id="circle136"/>
	<circle cx="666.567" cy="607.343" r="4" fill="#0" id="circle137"/>
	<circle cx="668.418" cy="190.925" r="4" fill="#0" id="circle138"/>
	<circle cx="672.119" cy="309.373" r="4" fill="#0" id="circle139"/>
	<circle cx="675.821" cy="209.433" r="4" fill="#0" id="circle140"/>
	<circle cx="679.522" cy="268.657" r="4" fill="#0" id="circle141"/>
	<circle cx="685.075" cy="226.09" r="4" fill="#0" id="circle142"/>
	<circle cx="685.075" cy="607.343" r="4" fill="#0" id="circle143"/>
	<circle cx="690.627" cy="246.448" r="4" fill="#0" id="circle144"/>
	<circle cx="690.627" cy="309.373" r="4" fill="#0" id="circle145"/>
	<circle cx="703.582" cy="607.343" r="4" fill="#0" id="circle146"/>
	<circle cx="709.134" cy="309.373" r="4" fill="#0" id="circle147"/>
	<circle cx="718.388" cy="477.791" r="4" fill="#0" id="circle148"/>
	<circle cx="718.388" cy="496.299" r="4" fill="#0" id="circle149"/>
	<circle cx="722.09" cy="607.343" r="4" fill="#0" id="circle150"/>
	<circle cx="727.642" cy="309.373" r="4" fill="#0" id="circle151"/>
	<circle cx="736.896" cy="477.791" r="4" fill="#0" id="circle152"/>
	<circle cx="736.896" cy="498.149" r="4" fill="#0" id="circle153"/>
	<circle cx="740.597" cy="605.493" r="4" fill="#0" id="circle154"/>
	<circle cx="746.149" cy="309.373" r="4" fill="#0" id="circle155"/>
	<circle cx="751.701" cy="464.836" r="4" fill="#0" id="circle156"/>
	<circle cx="755.403" cy="500" r="4" fill="#0" id="circle157"/>
	<circle cx="755.403" cy="518.507" r="4" fill="#0" id="circle158"/>
	<circle cx="759.104" cy="605.493" r="4" fill="#0" id="circle159"/>
	<circle cx="764.657" cy="309.373" r="4" fill="#0" id="circle160"/>
	<circle cx="768.358" cy="533.313" r="4" fill="#0" id="circle161"/>
	<circle cx="770.209" cy="455.582" r="4" fill="#0" id="circle162"/>
	<circle cx="773.91" cy="588.836" r="4" fill="#0" id="circle163"/>
	<circle cx="783.164" cy="309.373" r="4" fill="#0" id="circle164"/>
	<circle cx="783.164" cy="440.776" r="4" fill="#0" id="circle165"/>
	<circle cx="783.164" cy="546.269" r="4" fill="#0" id="circle166"/>
	<circle cx="783.164" cy="564.776" r="4" fill="#0" id="circle167"/>
	<circle cx="801.672" cy="309.373" r="4" fill="#0" id="circle168"/>
	<circle cx="801.672" cy="422.269" r="4" fill="#0" id="circle169"/>
	<circle cx="820.179" cy="309.373" r="4" fill="#0" id="circle170"/>
	<circle cx="820.179" cy="422.269" r="4" fill="#0" id="circle171"/>
	<circle cx="834.985" cy="409.313" r="4" fill="#0" id="circle172"/>
	<circle cx="838.687" cy="309.373" r="4" fill="#0" id="circle173"/>
	<circle cx="847.94" cy="394.507" r="4" fill="#0" id="circle174"/>
	<circle cx="857.194" cy="309.373" r="4" fill="#0" id="circle175"/>
	<circle cx="864.597" cy="385.254" r="4" fill="#0" id="circle176"/>
	<circle cx="875.701" cy="309.373" r="4" fill="#0" id="circle177"/>
	<circle cx="881.254" cy="376" r="4" fill="#0" id="circle178"/>
	<circle cx="892.358" cy="300.119" r="4" fill="#0" id="circle179"/>
	<circle cx="899.761" cy="376" r="4" fill="#0" id="circle180"/>
	<circle cx="909.015" cy="290.866" r="4" fill="#0" id="circle181"/>
	<circle cx="918.269" cy="372.299" r="4" fill="#0" id="circle182"/>
	<circle cx="927.522" cy="290.866" r="4" fill="#0" id="circle183"/>
	<circle cx="931.224" cy="357.493" r="4" fill="#0" id="circle184"/>
	<circle cx="946.03" cy="290.866" r="4" fill="#0" id="circle185"/>
	<circle cx="949.731" cy="348.239" r="4" fill="#0" id="circle186"/>
	<circle cx="964.537" cy="290.866" r="4" fill="#0" id="circle187"/>
	<circle cx="968.239" cy="348.239" r="4" fill="#0" id="circle188"/>
	<circle cx="983.045" cy="292.716" r="4" fill="#0" id="circle189"/>
	<circle cx="986.746" cy="338.985" r="4" fill="#0" id="circle190"/>
	<circle cx="996" cy="307.522" r="4" fill="#0" id="circle191"/>
	</g>
</svg>