<?xml version="1.0" encoding="UTF-8" standalone="no"?>
<!-- Created with CurveBenchmark -->
<svg
	xmlns:dc="http://purl.org/dc/elements/1.1/"
	xmlns:cc="http://creativecommons.org/ns#"
	xmlns:rdf="http://www.w3.org/1999/02/22-rdf-syntax-ns#"
	xmlns:svg="http://www.w3.org/2000/svg"
	xmlns="http://www.w3.org/2000/svg"
	xmlns:sodipodi="http://sodipodi.sourceforge.net/DTD/sodipodi-0.dtd"
	xmlns:inkscape="http://www.inkscape.org/namespaces/inkscape"
	width="1000"
	height="1000"
	id="svg2"
	version="1.1"
	sodipodi:docname="manifold/fitconnect-key14.png.txt">
<defs
	id="defs4" />
<metadata
	id="metadata7">
	<rdf:RDF>
		<cc:Work
			rdf:about="">
			<dc:format>image/svg+xml</dc:format>
			<dc:type
				rdf:resource="http://purl.org/dc/dcmitype/StillImage" />
			<dc:title></dc:title>
		</cc:Work>
	</rdf:RDF>
</metadata>
<g
	inkscape:label="Layer 1"
	inkscape:groupmode="layer"
	id="layer1">
	<path style="fill:none;stroke:red;stroke-width:1px;stroke-linecap:butt;stroke-linejoin:miter;stroke-opacity:1" d="M 4,213.134 13.2537,194.627 z" id="boundary" inkscape:connector-curvature="0" />
	<path style="fill:none;stroke:red;stroke-width:1px;stroke-linecap:butt;stroke-linejoin:miter;stroke-opacity:1" d="M 4,213.134 13.2537,229.791 z" id="boundary" inkscape:connector-curvature="0" />
	<path style="fill:none;stroke:red;stroke-width:1px;stroke-linecap:butt;stroke-linejoin:miter;stroke-opacity:1" d="M 4,259.403 4,277.91 z" id="boundary" inkscape:connector-curvature="0" />
	<path style="fill:none;stroke:red;stroke-width:1px;stroke-linecap:butt;stroke-linejoin:miter;stroke-opacity:1" d="M 4,259.403 13.2537,229.791 z" id="boundary" inkscape:connector-curvature="0" />
	<path style="fill:none;stroke:red;stroke-width:1px;stroke-linecap:butt;stroke-linejoin:miter;stroke-opacity:1" d="M 4,277.91 4,296.418 z" id="boundary" inkscape:connector-curvature="0" />
	<path style="fill:none;stroke:red;stroke-width:1px;stroke-linecap:butt;stroke-linejoin:miter;stroke-opacity:1" d="M 4,296.418 4,314.925 z" id="boundary" inkscape:connector-curvature="0" />
	<path style="fill:none;stroke:red;stroke-width:1px;stroke-linecap:butt;stroke-linejoin:miter;stroke-opacity:1" d="M 4,314.925 4,333.433 z" id="boundary" inkscape:connector-curvature="0" />
	<path style="fill:none;stroke:red;stroke-width:1px;stroke-linecap:butt;stroke-linejoin:miter;stroke-opacity:1" d="M 4,333.433 4,361.194 z" id="boundary" inkscape:connector-curvature="0" />
	<path style="fill:none;stroke:red;stroke-width:1px;stroke-linecap:butt;stroke-linejoin:miter;stroke-opacity:1" d="M 4,361.194 13.2537,377.851 z" id="boundary" inkscape:connector-curvature="0" />
	<path style="fill:none;stroke:red;stroke-width:1px;stroke-linecap:butt;stroke-linejoin:miter;stroke-opacity:1" d="M 13.2537,139.104 13.2537,157.612 z" id="boundary" inkscape:connector-curvature="0" />
	<path style="fill:none;stroke:red;stroke-width:1px;stroke-linecap:butt;stroke-linejoin:miter;stroke-opacity:1" d="M 13.2537,139.104 31.7612,120.597 z" id="boundary" inkscape:connector-curvature="0" />
	<path style="fill:none;stroke:red;stroke-width:1px;stroke-linecap:butt;stroke-linejoin:miter;stroke-opacity:1" d="M 13.2537,157.612 13.2537,176.119 z" id="boundary" inkscape:connector-curvature="0" />
	<path style="fill:none;stroke:red;stroke-width:1px;stroke-linecap:butt;stroke-linejoin:miter;stroke-opacity:1" d="M 13.2537,176.119 13.2537,194.627 z" id="boundary" inkscape:connector-curvature="0" />
	<path style="fill:none;stroke:red;stroke-width:1px;stroke-linecap:butt;stroke-linejoin:miter;stroke-opacity:1" d="M 13.2537,377.851 13.2537,407.463 z" id="boundary" inkscape:connector-curvature="0" />
	<path style="fill:none;stroke:red;stroke-width:1px;stroke-linecap:butt;stroke-linejoin:miter;stroke-opacity:1" d="M 13.2537,407.463 13.2537,425.97 z" id="boundary" inkscape:connector-curvature="0" />
	<path style="fill:none;stroke:red;stroke-width:1px;stroke-linecap:butt;stroke-linejoin:miter;stroke-opacity:1" d="M 13.2537,425.97 22.5075,442.627 z" id="boundary" inkscape:connector-curvature="0" />
	<path style="fill:none;stroke:red;stroke-width:1px;stroke-linecap:butt;stroke-linejoin:miter;stroke-opacity:1" d="M 22.5075,442.627 35.4627,457.433 z" id="boundary" inkscape:connector-curvature="0" />
	<path style="fill:none;stroke:red;stroke-width:1px;stroke-linecap:butt;stroke-linejoin:miter;stroke-opacity:1" d="M 31.7612,83.5821 31.7612,102.09 z" id="boundary" inkscape:connector-curvature="0" />
	<path style="fill:none;stroke:red;stroke-width:1px;stroke-linecap:butt;stroke-linejoin:miter;stroke-opacity:1" d="M 31.7612,83.5821 41.0149,65.0746 z" id="boundary" inkscape:connector-curvature="0" />
	<path style="fill:none;stroke:red;stroke-width:1px;stroke-linecap:butt;stroke-linejoin:miter;stroke-opacity:1" d="M 31.7612,102.09 31.7612,120.597 z" id="boundary" inkscape:connector-curvature="0" />
	<path style="fill:none;stroke:red;stroke-width:1px;stroke-linecap:butt;stroke-linejoin:miter;stroke-opacity:1" d="M 35.4627,457.433 50.2687,468.537 z" id="boundary" inkscape:connector-curvature="0" />
	<path style="fill:none;stroke:red;stroke-width:1px;stroke-linecap:butt;stroke-linejoin:miter;stroke-opacity:1" d="M 41.0149,65.0746 50.2687,37.3134 z" id="boundary" inkscape:connector-curvature="0" />
	<path style="fill:none;stroke:red;stroke-width:1px;stroke-linecap:butt;stroke-linejoin:miter;stroke-opacity:1" d="M 50.2687,37.3134 68.7761,31.7612 z" id="boundary" inkscape:connector-curvature="0" />
	<path style="fill:none;stroke:red;stroke-width:1px;stroke-linecap:butt;stroke-linejoin:miter;stroke-opacity:1" d="M 50.2687,468.537 66.9254,477.791 z" id="boundary" inkscape:connector-curvature="0" />
	<path style="fill:none;stroke:red;stroke-width:1px;stroke-linecap:butt;stroke-linejoin:miter;stroke-opacity:1" d="M 66.9254,477.791 83.5821,468.537 z" id="boundary" inkscape:connector-curvature="0" />
	<path style="fill:none;stroke:red;stroke-width:1px;stroke-linecap:butt;stroke-linejoin:miter;stroke-opacity:1" d="M 68.7761,31.7612 87.2836,31.7612 z" id="boundary" inkscape:connector-curvature="0" />
	<path style="fill:none;stroke:red;stroke-width:1px;stroke-linecap:butt;stroke-linejoin:miter;stroke-opacity:1" d="M 83.5821,468.537 102.09,475.94 z" id="boundary" inkscape:connector-curvature="0" />
	<path style="fill:none;stroke:red;stroke-width:1px;stroke-linecap:butt;stroke-linejoin:miter;stroke-opacity:1" d="M 87.2836,31.7612 105.791,31.7612 z" id="boundary" inkscape:connector-curvature="0" />
	<path style="fill:none;stroke:red;stroke-width:1px;stroke-linecap:butt;stroke-linejoin:miter;stroke-opacity:1" d="M 102.09,475.94 120.597,477.791 z" id="boundary" inkscape:connector-curvature="0" />
	<path style="fill:none;stroke:red;stroke-width:1px;stroke-linecap:butt;stroke-linejoin:miter;stroke-opacity:1" d="M 105.791,31.7612 122.448,22.5075 z" id="boundary" inkscape:connector-curvature="0" />
	<path style="fill:none;stroke:red;stroke-width:1px;stroke-linecap:butt;stroke-linejoin:miter;stroke-opacity:1" d="M 120.597,477.791 137.254,487.045 z" id="boundary" inkscape:connector-curvature="0" />
	<path style="fill:none;stroke:red;stroke-width:1px;stroke-linecap:butt;stroke-linejoin:miter;stroke-opacity:1" d="M 122.448,22.5075 139.104,13.2537 z" id="boundary" inkscape:connector-curvature="0" />
	<path style="fill:none;stroke:red;stroke-width:1px;stroke-linecap:butt;stroke-linejoin:miter;stroke-opacity:1" d="M 137.254,487.045 155.761,487.045 z" id="boundary" inkscape:connector-curvature="0" />
	<path style="fill:none;stroke:red;stroke-width:1px;stroke-linecap:butt;stroke-linejoin:miter;stroke-opacity:1" d="M 139.104,13.2537 155.761,22.5075 z" id="boundary" inkscape:connector-curvature="0" />
	<path style="fill:none;stroke:red;stroke-width:1px;stroke-linecap:butt;stroke-linejoin:miter;stroke-opacity:1" d="M 155.761,22.5075 174.269,22.5075 z" id="boundary" inkscape:connector-curvature="0" />
	<path style="fill:none;stroke:red;stroke-width:1px;stroke-linecap:butt;stroke-linejoin:miter;stroke-opacity:1" d="M 155.761,487.045 174.269,487.045 z" id="boundary" inkscape:connector-curvature="0" />
	<path style="fill:none;stroke:red;stroke-width:1px;stroke-linecap:butt;stroke-linejoin:miter;stroke-opacity:1" d="M 174.269,22.5075 192.776,22.5075 z" id="boundary" inkscape:connector-curvature="0" />
	<path style="fill:none;stroke:red;stroke-width:1px;stroke-linecap:butt;stroke-linejoin:miter;stroke-opacity:1" d="M 174.269,487.045 192.776,492.597 z" id="boundary" inkscape:connector-curvature="0" />
	<path style="fill:none;stroke:red;stroke-width:1px;stroke-linecap:butt;stroke-linejoin:miter;stroke-opacity:1" d="M 192.776,22.5075 209.433,13.2537 z" id="boundary" inkscape:connector-curvature="0" />
	<path style="fill:none;stroke:red;stroke-width:1px;stroke-linecap:butt;stroke-linejoin:miter;stroke-opacity:1" d="M 192.776,492.597 211.284,487.045 z" id="boundary" inkscape:connector-curvature="0" />
	<path style="fill:none;stroke:red;stroke-width:1px;stroke-linecap:butt;stroke-linejoin:miter;stroke-opacity:1" d="M 209.433,13.2537 227.94,9.55224 z" id="boundary" inkscape:connector-curvature="0" />
	<path style="fill:none;stroke:red;stroke-width:1px;stroke-linecap:butt;stroke-linejoin:miter;stroke-opacity:1" d="M 211.284,487.045 220.537,503.701 z" id="boundary" inkscape:connector-curvature="0" />
	<path style="fill:none;stroke:red;stroke-width:1px;stroke-linecap:butt;stroke-linejoin:miter;stroke-opacity:1" d="M 220.537,503.701 239.045,501.851 z" id="boundary" inkscape:connector-curvature="0" />
	<path style="fill:none;stroke:red;stroke-width:1px;stroke-linecap:butt;stroke-linejoin:miter;stroke-opacity:1" d="M 227.94,9.55224 246.448,9.55224 z" id="boundary" inkscape:connector-curvature="0" />
	<path style="fill:none;stroke:red;stroke-width:1px;stroke-linecap:butt;stroke-linejoin:miter;stroke-opacity:1" d="M 239.045,501.851 257.552,501.851 z" id="boundary" inkscape:connector-curvature="0" />
	<path style="fill:none;stroke:red;stroke-width:1px;stroke-linecap:butt;stroke-linejoin:miter;stroke-opacity:1" d="M 246.448,9.55224 264.955,4 z" id="boundary" inkscape:connector-curvature="0" />
	<path style="fill:none;stroke:red;stroke-width:1px;stroke-linecap:butt;stroke-linejoin:miter;stroke-opacity:1" d="M 257.552,501.851 274.209,511.104 z" id="boundary" inkscape:connector-curvature="0" />
	<path style="fill:none;stroke:red;stroke-width:1px;stroke-linecap:butt;stroke-linejoin:miter;stroke-opacity:1" d="M 264.955,4 281.612,13.2537 z" id="boundary" inkscape:connector-curvature="0" />
	<path style="fill:none;stroke:red;stroke-width:1px;stroke-linecap:butt;stroke-linejoin:miter;stroke-opacity:1" d="M 274.209,511.104 292.716,505.552 z" id="boundary" inkscape:connector-curvature="0" />
	<path style="fill:none;stroke:red;stroke-width:1px;stroke-linecap:butt;stroke-linejoin:miter;stroke-opacity:1" d="M 281.612,13.2537 298.269,4 z" id="boundary" inkscape:connector-curvature="0" />
	<path style="fill:none;stroke:red;stroke-width:1px;stroke-linecap:butt;stroke-linejoin:miter;stroke-opacity:1" d="M 292.716,505.552 311.224,505.552 z" id="boundary" inkscape:connector-curvature="0" />
	<path style="fill:none;stroke:red;stroke-width:1px;stroke-linecap:butt;stroke-linejoin:miter;stroke-opacity:1" d="M 298.269,4 316.776,4 z" id="boundary" inkscape:connector-curvature="0" />
	<path style="fill:none;stroke:red;stroke-width:1px;stroke-linecap:butt;stroke-linejoin:miter;stroke-opacity:1" d="M 311.224,505.552 327.881,514.806 z" id="boundary" inkscape:connector-curvature="0" />
	<path style="fill:none;stroke:red;stroke-width:1px;stroke-linecap:butt;stroke-linejoin:miter;stroke-opacity:1" d="M 316.776,4 335.284,4 z" id="boundary" inkscape:connector-curvature="0" />
	<path style="fill:none;stroke:red;stroke-width:1px;stroke-linecap:butt;stroke-linejoin:miter;stroke-opacity:1" d="M 327.881,514.806 344.537,505.552 z" id="boundary" inkscape:connector-curvature="0" />
	<path style="fill:none;stroke:red;stroke-width:1px;stroke-linecap:butt;stroke-linejoin:miter;stroke-opacity:1" d="M 335.284,4 353.791,4 z" id="boundary" inkscape:connector-curvature="0" />
	<path style="fill:none;stroke:red;stroke-width:1px;stroke-linecap:butt;stroke-linejoin:miter;stroke-opacity:1" d="M 344.537,505.552 363.045,501.851 z" id="boundary" inkscape:connector-curvature="0" />
	<path style="fill:none;stroke:red;stroke-width:1px;stroke-linecap:butt;stroke-linejoin:miter;stroke-opacity:1" d="M 353.791,4 372.299,4 z" id="boundary" inkscape:connector-curvature="0" />
	<path style="fill:none;stroke:red;stroke-width:1px;stroke-linecap:butt;stroke-linejoin:miter;stroke-opacity:1" d="M 363.045,501.851 381.552,501.851 z" id="boundary" inkscape:connector-curvature="0" />
	<path style="fill:none;stroke:red;stroke-width:1px;stroke-linecap:butt;stroke-linejoin:miter;stroke-opacity:1" d="M 372.299,4 388.955,13.2537 z" id="boundary" inkscape:connector-curvature="0" />
	<path style="fill:none;stroke:red;stroke-width:1px;stroke-linecap:butt;stroke-linejoin:miter;stroke-opacity:1" d="M 381.552,501.851 390.806,483.343 z" id="boundary" inkscape:connector-curvature="0" />
	<path style="fill:none;stroke:red;stroke-width:1px;stroke-linecap:butt;stroke-linejoin:miter;stroke-opacity:1" d="M 388.955,13.2537 394.507,31.7612 z" id="boundary" inkscape:connector-curvature="0" />
	<path style="fill:none;stroke:red;stroke-width:1px;stroke-linecap:butt;stroke-linejoin:miter;stroke-opacity:1" d="M 390.806,483.343 394.507,459.284 z" id="boundary" inkscape:connector-curvature="0" />
	<path style="fill:none;stroke:red;stroke-width:1px;stroke-linecap:butt;stroke-linejoin:miter;stroke-opacity:1" d="M 394.507,31.7612 409.313,42.8657 z" id="boundary" inkscape:connector-curvature="0" />
	<path style="fill:none;stroke:red;stroke-width:1px;stroke-linecap:butt;stroke-linejoin:miter;stroke-opacity:1" d="M 394.507,459.284 409.313,446.328 z" id="boundary" inkscape:connector-curvature="0" />
	<path style="fill:none;stroke:red;stroke-width:1px;stroke-linecap:butt;stroke-linejoin:miter;stroke-opacity:1" d="M 409.313,42.8657 422.269,57.6716 z" id="boundary" inkscape:connector-curvature="0" />
	<path style="fill:none;stroke:red;stroke-width:1px;stroke-linecap:butt;stroke-linejoin:miter;stroke-opacity:1" d="M 409.313,446.328 413.015,422.269 z" id="boundary" inkscape:connector-curvature="0" />
	<path style="fill:none;stroke:red;stroke-width:1px;stroke-linecap:butt;stroke-linejoin:miter;stroke-opacity:1" d="M 413.015,403.761 413.015,422.269 z" id="boundary" inkscape:connector-curvature="0" />
	<path style="fill:none;stroke:red;stroke-width:1px;stroke-linecap:butt;stroke-linejoin:miter;stroke-opacity:1" d="M 413.015,403.761 422.269,385.254 z" id="boundary" inkscape:connector-curvature="0" />
	<path style="fill:none;stroke:red;stroke-width:1px;stroke-linecap:butt;stroke-linejoin:miter;stroke-opacity:1" d="M 422.269,57.6716 422.269,76.1791 z" id="boundary" inkscape:connector-curvature="0" />
	<path style="fill:none;stroke:red;stroke-width:1px;stroke-linecap:butt;stroke-linejoin:miter;stroke-opacity:1" d="M 422.269,76.1791 422.269,94.6866 z" id="boundary" inkscape:connector-curvature="0" />
	<path style="fill:none;stroke:red;stroke-width:1px;stroke-linecap:butt;stroke-linejoin:miter;stroke-opacity:1" d="M 422.269,94.6866 431.522,111.343 z" id="boundary" inkscape:connector-curvature="0" />
	<path style="fill:none;stroke:red;stroke-width:1px;stroke-linecap:butt;stroke-linejoin:miter;stroke-opacity:1" d="M 422.269,385.254 440.776,376 z" id="boundary" inkscape:connector-curvature="0" />
	<path style="fill:none;stroke:red;stroke-width:1px;stroke-linecap:butt;stroke-linejoin:miter;stroke-opacity:1" d="M 431.522,111.343 431.522,129.851 z" id="boundary" inkscape:connector-curvature="0" />
	<path style="fill:none;stroke:red;stroke-width:1px;stroke-linecap:butt;stroke-linejoin:miter;stroke-opacity:1" d="M 431.522,129.851 440.776,146.507 z" id="boundary" inkscape:connector-curvature="0" />
	<path style="fill:none;stroke:red;stroke-width:1px;stroke-linecap:butt;stroke-linejoin:miter;stroke-opacity:1" d="M 440.776,146.507 451.881,161.313 z" id="boundary" inkscape:connector-curvature="0" />
	<path style="fill:none;stroke:red;stroke-width:1px;stroke-linecap:butt;stroke-linejoin:miter;stroke-opacity:1" d="M 440.776,376 457.433,366.746 z" id="boundary" inkscape:connector-curvature="0" />
	<path style="fill:none;stroke:red;stroke-width:1px;stroke-linecap:butt;stroke-linejoin:miter;stroke-opacity:1" d="M 451.881,161.313 459.284,179.821 z" id="boundary" inkscape:connector-curvature="0" />
	<path style="fill:none;stroke:red;stroke-width:1px;stroke-linecap:butt;stroke-linejoin:miter;stroke-opacity:1" d="M 457.433,366.746 475.94,366.746 z" id="boundary" inkscape:connector-curvature="0" />
	<path style="fill:none;stroke:red;stroke-width:1px;stroke-linecap:butt;stroke-linejoin:miter;stroke-opacity:1" d="M 459.284,179.821 477.791,174.269 z" id="boundary" inkscape:connector-curvature="0" />
	<path style="fill:none;stroke:red;stroke-width:1px;stroke-linecap:butt;stroke-linejoin:miter;stroke-opacity:1" d="M 475.94,366.746 494.448,366.746 z" id="boundary" inkscape:connector-curvature="0" />
	<path style="fill:none;stroke:red;stroke-width:1px;stroke-linecap:butt;stroke-linejoin:miter;stroke-opacity:1" d="M 477.791,174.269 496.299,179.821 z" id="boundary" inkscape:connector-curvature="0" />
	<path style="fill:none;stroke:red;stroke-width:1px;stroke-linecap:butt;stroke-linejoin:miter;stroke-opacity:1" d="M 494.448,366.746 512.955,361.194 z" id="boundary" inkscape:connector-curvature="0" />
	<path style="fill:none;stroke:red;stroke-width:1px;stroke-linecap:butt;stroke-linejoin:miter;stroke-opacity:1" d="M 496.299,179.821 514.806,185.373 z" id="boundary" inkscape:connector-curvature="0" />
	<path style="fill:none;stroke:red;stroke-width:1px;stroke-linecap:butt;stroke-linejoin:miter;stroke-opacity:1" d="M 512.955,361.194 531.463,357.493 z" id="boundary" inkscape:connector-curvature="0" />
	<path style="fill:none;stroke:red;stroke-width:1px;stroke-linecap:butt;stroke-linejoin:miter;stroke-opacity:1" d="M 514.806,185.373 531.463,194.627 z" id="boundary" inkscape:connector-curvature="0" />
	<path style="fill:none;stroke:red;stroke-width:1px;stroke-linecap:butt;stroke-linejoin:miter;stroke-opacity:1" d="M 531.463,194.627 549.97,189.075 z" id="boundary" inkscape:connector-curvature="0" />
	<path style="fill:none;stroke:red;stroke-width:1px;stroke-linecap:butt;stroke-linejoin:miter;stroke-opacity:1" d="M 531.463,357.493 548.119,348.239 z" id="boundary" inkscape:connector-curvature="0" />
	<path style="fill:none;stroke:red;stroke-width:1px;stroke-linecap:butt;stroke-linejoin:miter;stroke-opacity:1" d="M 548.119,348.239 566.627,348.239 z" id="boundary" inkscape:connector-curvature="0" />
	<path style="fill:none;stroke:red;stroke-width:1px;stroke-linecap:butt;stroke-linejoin:miter;stroke-opacity:1" d="M 549.97,189.075 568.478,192.776 z" id="boundary" inkscape:connector-curvature="0" />
	<path style="fill:none;stroke:red;stroke-width:1px;stroke-linecap:butt;stroke-linejoin:miter;stroke-opacity:1" d="M 566.627,348.239 583.284,357.493 z" id="boundary" inkscape:connector-curvature="0" />
	<path style="fill:none;stroke:red;stroke-width:1px;stroke-linecap:butt;stroke-linejoin:miter;stroke-opacity:1" d="M 568.478,192.776 586.985,198.328 z" id="boundary" inkscape:connector-curvature="0" />
	<path style="fill:none;stroke:red;stroke-width:1px;stroke-linecap:butt;stroke-linejoin:miter;stroke-opacity:1" d="M 583.284,357.493 601.791,355.642 z" id="boundary" inkscape:connector-curvature="0" />
	<path style="fill:none;stroke:red;stroke-width:1px;stroke-linecap:butt;stroke-linejoin:miter;stroke-opacity:1" d="M 586.985,198.328 605.493,194.627 z" id="boundary" inkscape:connector-curvature="0" />
	<path style="fill:none;stroke:red;stroke-width:1px;stroke-linecap:butt;stroke-linejoin:miter;stroke-opacity:1" d="M 601.791,355.642 620.299,348.239 z" id="boundary" inkscape:connector-curvature="0" />
	<path style="fill:none;stroke:red;stroke-width:1px;stroke-linecap:butt;stroke-linejoin:miter;stroke-opacity:1" d="M 605.493,194.627 624,192.776 z" id="boundary" inkscape:connector-curvature="0" />
	<path style="fill:none;stroke:red;stroke-width:1px;stroke-linecap:butt;stroke-linejoin:miter;stroke-opacity:1" d="M 620.299,348.239 638.806,348.239 z" id="boundary" inkscape:connector-curvature="0" />
	<path style="fill:none;stroke:red;stroke-width:1px;stroke-linecap:butt;stroke-linejoin:miter;stroke-opacity:1" d="M 624,192.776 642.507,198.328 z" id="boundary" inkscape:connector-curvature="0" />
	<path style="fill:none;stroke:red;stroke-width:1px;stroke-linecap:butt;stroke-linejoin:miter;stroke-opacity:1" d="M 638.806,348.239 655.463,357.493 z" id="boundary" inkscape:connector-curvature="0" />
	<path style="fill:none;stroke:red;stroke-width:1px;stroke-linecap:butt;stroke-linejoin:miter;stroke-opacity:1" d="M 642.507,198.328 661.015,192.776 z" id="boundary" inkscape:connector-curvature="0" />
	<path style="fill:none;stroke:red;stroke-width:1px;stroke-linecap:butt;stroke-linejoin:miter;stroke-opacity:1" d="M 655.463,357.493 673.97,353.791 z" id="boundary" inkscape:connector-curvature="0" />
	<path style="fill:none;stroke:red;stroke-width:1px;stroke-linecap:butt;stroke-linejoin:miter;stroke-opacity:1" d="M 661.015,192.776 679.522,198.328 z" id="boundary" inkscape:connector-curvature="0" />
	<path style="fill:none;stroke:red;stroke-width:1px;stroke-linecap:butt;stroke-linejoin:miter;stroke-opacity:1" d="M 673.97,353.791 692.478,348.239 z" id="boundary" inkscape:connector-curvature="0" />
	<path style="fill:none;stroke:red;stroke-width:1px;stroke-linecap:butt;stroke-linejoin:miter;stroke-opacity:1" d="M 679.522,198.328 698.03,192.776 z" id="boundary" inkscape:connector-curvature="0" />
	<path style="fill:none;stroke:red;stroke-width:1px;stroke-linecap:butt;stroke-linejoin:miter;stroke-opacity:1" d="M 692.478,348.239 709.134,357.493 z" id="boundary" inkscape:connector-curvature="0" />
	<path style="fill:none;stroke:red;stroke-width:1px;stroke-linecap:butt;stroke-linejoin:miter;stroke-opacity:1" d="M 698.03,192.776 716.537,194.627 z" id="boundary" inkscape:connector-curvature="0" />
	<path style="fill:none;stroke:red;stroke-width:1px;stroke-linecap:butt;stroke-linejoin:miter;stroke-opacity:1" d="M 709.134,357.493 727.642,348.239 z" id="boundary" inkscape:connector-curvature="0" />
	<path style="fill:none;stroke:red;stroke-width:1px;stroke-linecap:butt;stroke-linejoin:miter;stroke-opacity:1" d="M 716.537,194.627 735.045,192.776 z" id="boundary" inkscape:connector-curvature="0" />
	<path style="fill:none;stroke:red;stroke-width:1px;stroke-linecap:butt;stroke-linejoin:miter;stroke-opacity:1" d="M 727.642,348.239 746.149,351.94 z" id="boundary" inkscape:connector-curvature="0" />
	<path style="fill:none;stroke:red;stroke-width:1px;stroke-linecap:butt;stroke-linejoin:miter;stroke-opacity:1" d="M 735.045,192.776 753.552,198.328 z" id="boundary" inkscape:connector-curvature="0" />
	<path style="fill:none;stroke:red;stroke-width:1px;stroke-linecap:butt;stroke-linejoin:miter;stroke-opacity:1" d="M 746.149,351.94 764.657,351.94 z" id="boundary" inkscape:connector-curvature="0" />
	<path style="fill:none;stroke:red;stroke-width:1px;stroke-linecap:butt;stroke-linejoin:miter;stroke-opacity:1" d="M 753.552,198.328 770.209,207.582 z" id="boundary" inkscape:connector-curvature="0" />
	<path style="fill:none;stroke:red;stroke-width:1px;stroke-linecap:butt;stroke-linejoin:miter;stroke-opacity:1" d="M 764.657,351.94 783.164,351.94 z" id="boundary" inkscape:connector-curvature="0" />
	<path style="fill:none;stroke:red;stroke-width:1px;stroke-linecap:butt;stroke-linejoin:miter;stroke-opacity:1" d="M 770.209,207.582 788.716,207.582 z" id="boundary" inkscape:connector-curvature="0" />
	<path style="fill:none;stroke:red;stroke-width:1px;stroke-linecap:butt;stroke-linejoin:miter;stroke-opacity:1" d="M 783.164,351.94 801.672,348.239 z" id="boundary" inkscape:connector-curvature="0" />
	<path style="fill:none;stroke:red;stroke-width:1px;stroke-linecap:butt;stroke-linejoin:miter;stroke-opacity:1" d="M 788.716,207.582 805.373,198.328 z" id="boundary" inkscape:connector-curvature="0" />
	<path style="fill:none;stroke:red;stroke-width:1px;stroke-linecap:butt;stroke-linejoin:miter;stroke-opacity:1" d="M 801.672,348.239 820.179,348.239 z" id="boundary" inkscape:connector-curvature="0" />
	<path style="fill:none;stroke:red;stroke-width:1px;stroke-linecap:butt;stroke-linejoin:miter;stroke-opacity:1" d="M 805.373,198.328 823.881,198.328 z" id="boundary" inkscape:connector-curvature="0" />
	<path style="fill:none;stroke:red;stroke-width:1px;stroke-linecap:butt;stroke-linejoin:miter;stroke-opacity:1" d="M 820.179,348.239 836.836,357.493 z" id="boundary" inkscape:connector-curvature="0" />
	<path style="fill:none;stroke:red;stroke-width:1px;stroke-linecap:butt;stroke-linejoin:miter;stroke-opacity:1" d="M 823.881,198.328 842.388,198.328 z" id="boundary" inkscape:connector-curvature="0" />
	<path style="fill:none;stroke:red;stroke-width:1px;stroke-linecap:butt;stroke-linejoin:miter;stroke-opacity:1" d="M 836.836,357.493 853.493,348.239 z" id="boundary" inkscape:connector-curvature="0" />
	<path style="fill:none;stroke:red;stroke-width:1px;stroke-linecap:butt;stroke-linejoin:miter;stroke-opacity:1" d="M 842.388,198.328 860.896,198.328 z" id="boundary" inkscape:connector-curvature="0" />
	<path style="fill:none;stroke:red;stroke-width:1px;stroke-linecap:butt;stroke-linejoin:miter;stroke-opacity:1" d="M 853.493,348.239 872,348.239 z" id="boundary" inkscape:connector-curvature="0" />
	<path style="fill:none;stroke:red;stroke-width:1px;stroke-linecap:butt;stroke-linejoin:miter;stroke-opacity:1" d="M 860.896,198.328 877.552,207.582 z" id="boundary" inkscape:connector-curvature="0" />
	<path style="fill:none;stroke:red;stroke-width:1px;stroke-linecap:butt;stroke-linejoin:miter;stroke-opacity:1" d="M 872,348.239 888.657,338.985 z" id="boundary" inkscape:connector-curvature="0" />
	<path style="fill:none;stroke:red;stroke-width:1px;stroke-linecap:butt;stroke-linejoin:miter;stroke-opacity:1" d="M 877.552,207.582 894.209,198.328 z" id="boundary" inkscape:connector-curvature="0" />
	<path style="fill:none;stroke:red;stroke-width:1px;stroke-linecap:butt;stroke-linejoin:miter;stroke-opacity:1" d="M 888.657,338.985 905.313,348.239 z" id="boundary" inkscape:connector-curvature="0" />
	<path style="fill:none;stroke:red;stroke-width:1px;stroke-linecap:butt;stroke-linejoin:miter;stroke-opacity:1" d="M 894.209,198.328 910.866,207.582 z" id="boundary" inkscape:connector-curvature="0" />
	<path style="fill:none;stroke:red;stroke-width:1px;stroke-linecap:butt;stroke-linejoin:miter;stroke-opacity:1" d="M 905.313,348.239 921.97,357.493 z" id="boundary" inkscape:connector-curvature="0" />
	<path style="fill:none;stroke:red;stroke-width:1px;stroke-linecap:butt;stroke-linejoin:miter;stroke-opacity:1" d="M 910.866,207.582 927.522,216.836 z" id="boundary" inkscape:connector-curvature="0" />
	<path style="fill:none;stroke:red;stroke-width:1px;stroke-linecap:butt;stroke-linejoin:miter;stroke-opacity:1" d="M 921.97,357.493 938.627,348.239 z" id="boundary" inkscape:connector-curvature="0" />
	<path style="fill:none;stroke:red;stroke-width:1px;stroke-linecap:butt;stroke-linejoin:miter;stroke-opacity:1" d="M 927.522,216.836 944.179,207.582 z" id="boundary" inkscape:connector-curvature="0" />
	<path style="fill:none;stroke:red;stroke-width:1px;stroke-linecap:butt;stroke-linejoin:miter;stroke-opacity:1" d="M 938.627,348.239 955.284,338.985 z" id="boundary" inkscape:connector-curvature="0" />
	<path style="fill:none;stroke:red;stroke-width:1px;stroke-linecap:butt;stroke-linejoin:miter;stroke-opacity:1" d="M 944.179,207.582 960.836,216.836 z" id="boundary" inkscape:connector-curvature="0" />
	<path style="fill:none;stroke:red;stroke-width:1px;stroke-linecap:butt;stroke-linejoin:miter;stroke-opacity:1" d="M 955.284,338.985 973.791,338.985 z" id="boundary" inkscape:connector-curvature="0" />
	<path style="fill:none;stroke:red;stroke-width:1px;stroke-linecap:butt;stroke-linejoin:miter;stroke-opacity:1" d="M 960.836,216.836 977.493,226.09 z" id="boundary" inkscape:connector-curvature="0" />
	<path style="fill:none;stroke:red;stroke-width:1px;stroke-linecap:butt;stroke-linejoin:miter;stroke-opacity:1" d="M 973.791,338.985 986.746,311.224 z" id="boundary" inkscape:connector-curvature="0" />
	<path style="fill:none;stroke:red;stroke-width:1px;stroke-linecap:butt;stroke-linejoin:miter;stroke-opacity:1" d="M 977.493,226.09 986.746,242.746 z" id="boundary" inkscape:connector-curvature="0" />
	<path style="fill:none;stroke:red;stroke-width:1px;stroke-linecap:butt;stroke-linejoin:miter;stroke-opacity:1" d="M 986.746,242.746 986.746,274.209 z" id="boundary" inkscape:connector-curvature="0" />
	<path style="fill:none;stroke:red;stroke-width:1px;stroke-linecap:butt;stroke-linejoin:miter;stroke-opacity:1" d="M 986.746,274.209 996,290.866 z" id="boundary" inkscape:connector-curvature="0" />
	<path style="fill:none;stroke:red;stroke-width:1px;stroke-linecap:butt;stroke-linejoin:miter;stroke-opacity:1" d="M 986.746,311.224 996,290.866 z" id="boundary" inkscape:connector-curvature="0" />
	<circle cx="4" cy="213.134" r="4" fill="#0" id="circle0"/>
	<circle cx="4" cy="259.403" r="4" fill="#0" id="circle1"/>
	<circle cx="4" cy="277.91" r="4" fill="#0" id="circle2"/>
	<circle cx="4" cy="296.418" r="4" fill="#0" id="circle3"/>
	<circle cx="4" cy="314.925" r="4" fill="#0" id="circle4"/>
	<circle cx="4" cy="333.433" r="4" fill="#0" id="circle5"/>
	<circle cx="4" cy="361.194" r="4" fill="#0" id="circle6"/>
	<circle cx="13.2537" cy="139.104" r="4" fill="#0" id="circle7"/>
	<circle cx="13.2537" cy="157.612" r="4" fill="#0" id="circle8"/>
	<circle cx="13.2537" cy="176.119" r="4" fill="#0" id="circle9"/>
	<circle cx="13.2537" cy="194.627" r="4" fill="#0" id="circle10"/>
	<circle cx="13.2537" cy="229.791" r="4" fill="#0" id="circle11"/>
	<circle cx="13.2537" cy="377.851" r="4" fill="#0" id="circle12"/>
	<circle cx="13.2537" cy="407.463" r="4" fill="#0" id="circle13"/>
	<circle cx="13.2537" cy="425.97" r="4" fill="#0" id="circle14"/>
	<circle cx="22.5075" cy="442.627" r="4" fill="#0" id="circle15"/>
	<circle cx="31.7612" cy="83.5821" r="4" fill="#0" id="circle16"/>
	<circle cx="31.7612" cy="102.09" r="4" fill="#0" id="circle17"/>
	<circle cx="31.7612" cy="120.597" r="4" fill="#0" id="circle18"/>
	<circle cx="35.4627" cy="457.433" r="4" fill="#0" id="circle19"/>
	<circle cx="41.0149" cy="65.0746" r="4" fill="#0" id="circle20"/>
	<circle cx="50.2687" cy="37.3134" r="4" fill="#0" id="circle21"/>
	<circle cx="50.2687" cy="468.537" r="4" fill="#0" id="circle22"/>
	<circle cx="66.9254" cy="477.791" r="4" fill="#0" id="circle23"/>
	<circle cx="68.7761" cy="31.7612" r="4" fill="#0" id="circle24"/>
	<circle cx="83.5821" cy="468.537" r="4" fill="#0" id="circle25"/>
	<circle cx="87.2836" cy="31.7612" r="4" fill="#0" id="circle26"/>
	<circle cx="102.09" cy="475.94" r="4" fill="#0" id="circle27"/>
	<circle cx="105.791" cy="31.7612" r="4" fill="#0" id="circle28"/>
	<circle cx="120.597" cy="477.791" r="4" fill="#0" id="circle29"/>
	<circle cx="122.448" cy="22.5075" r="4" fill="#0" id="circle30"/>
	<circle cx="137.254" cy="487.045" r="4" fill="#0" id="circle31"/>
	<circle cx="139.104" cy="13.2537" r="4" fill="#0" id="circle32"/>
	<circle cx="155.761" cy="22.5075" r="4" fill="#0" id="circle33"/>
	<circle cx="155.761" cy="487.045" r="4" fill="#0" id="circle34"/>
	<circle cx="174.269" cy="22.5075" r="4" fill="#0" id="circle35"/>
	<circle cx="174.269" cy="487.045" r="4" fill="#0" id="circle36"/>
	<circle cx="192.776" cy="22.5075" r="4" fill="#0" id="circle37"/>
	<circle cx="192.776" cy="492.597" r="4" fill="#0" id="circle38"/>
	<circle cx="209.433" cy="13.2537" r="4" fill="#0" id="circle39"/>
	<circle cx="211.284" cy="487.045" r="4" fill="#0" id="circle40"/>
	<circle cx="220.537" cy="503.701" r="4" fill="#0" id="circle41"/>
	<circle cx="227.94" cy="9.55224" r="4" fill="#0" id="circle42"/>
	<circle cx="239.045" cy="501.851" r="4" fill="#0" id="circle43"/>
	<circle cx="246.448" cy="9.55224" r="4" fill="#0" id="circle44"/>
	<circle cx="257.552" cy="501.851" r="4" fill="#0" id="circle45"/>
	<circle cx="264.955" cy="4" r="4" fill="#0" id="circle46"/>
	<circle cx="274.209" cy="511.104" r="4" fill="#0" id="circle47"/>
	<circle cx="281.612" cy="13.2537" r="4" fill="#0" id="circle48"/>
	<circle cx="292.716" cy="505.552" r="4" fill="#0" id="circle49"/>
	<circle cx="298.269" cy="4" r="4" fill="#0" id="circle50"/>
	<circle cx="311.224" cy="505.552" r="4" fill="#0" id="circle51"/>
	<circle cx="316.776" cy="4" r="4" fill="#0" id="circle52"/>
	<circle cx="327.881" cy="514.806" r="4" fill="#0" id="circle53"/>
	<circle cx="335.284" cy="4" r="4" fill="#0" id="circle54"/>
	<circle cx="344.537" cy="505.552" r="4" fill="#0" id="circle55"/>
	<circle cx="353.791" cy="4" r="4" fill="#0" id="circle56"/>
	<circle cx="363.045" cy="501.851" r="4" fill="#0" id="circle57"/>
	<circle cx="372.299" cy="4" r="4" fill="#0" id="circle58"/>
	<circle cx="381.552" cy="501.851" r="4" fill="#0" id="circle59"/>
	<circle cx="388.955" cy="13.2537" r="4" fill="#0" id="circle60"/>
	<circle cx="390.806" cy="483.343" r="4" fill="#0" id="circle61"/>
	<circle cx="394.507" cy="31.7612" r="4" fill="#0" id="circle62"/>
	<circle cx="394.507" cy="459.284" r="4" fill="#0" id="circle63"/>
	<circle cx="409.313" cy="42.8657" r="4" fill="#0" id="circle64"/>
	<circle cx="409.313" cy="446.328" r="4" fill="#0" id="circle65"/>
	<circle cx="413.015" cy="403.761" r="4" fill="#0" id="circle66"/>
	<circle cx="413.015" cy="422.269" r="4" fill="#0" id="circle67"/>
	<circle cx="422.269" cy="57.6716" r="4" fill="#0" id="circle68"/>
	<circle cx="422.269" cy="76.1791" r="4" fill="#0" id="circle69"/>
	<circle cx="422.269" cy="94.6866" r="4" fill="#0" id="circle70"/>
	<circle cx="422.269" cy="385.254" r="4" fill="#0" id="circle71"/>
	<circle cx="431.522" cy="111.343" r="4" fill="#0" id="circle72"/>
	<circle cx="431.522" cy="129.851" r="4" fill="#0" id="circle73"/>
	<circle cx="440.776" cy="146.507" r="4" fill="#0" id="circle74"/>
	<circle cx="440.776" cy="376" r="4" fill="#0" id="circle75"/>
	<circle cx="451.881" cy="161.313" r="4" fill="#0" id="circle76"/>
	<circle cx="457.433" cy="366.746" r="4" fill="#0" id="circle77"/>
	<circle cx="459.284" cy="179.821" r="4" fill="#0" id="circle78"/>
	<circle cx="475.94" cy="366.746" r="4" fill="#0" id="circle79"/>
	<circle cx="477.791" cy="174.269" r="4" fill="#0" id="circle80"/>
	<circle cx="494.448" cy="366.746" r="4" fill="#0" id="circle81"/>
	<circle cx="496.299" cy="179.821" r="4" fill="#0" id="circle82"/>
	<circle cx="512.955" cy="361.194" r="4" fill="#0" id="circle83"/>
	<circle cx="514.806" cy="185.373" r="4" fill="#0" id="circle84"/>
	<circle cx="531.463" cy="194.627" r="4" fill="#0" id="circle85"/>
	<circle cx="531.463" cy="357.493" r="4" fill="#0" id="circle86"/>
	<circle cx="548.119" cy="348.239" r="4" fill="#0" id="circle87"/>
	<circle cx="549.97" cy="189.075" r="4" fill="#0" id="circle88"/>
	<circle cx="566.627" cy="348.239" r="4" fill="#0" id="circle89"/>
	<circle cx="568.478" cy="192.776" r="4" fill="#0" id="circle90"/>
	<circle cx="583.284" cy="357.493" r="4" fill="#0" id="circle91"/>
	<circle cx="586.985" cy="198.328" r="4" fill="#0" id="circle92"/>
	<circle cx="601.791" cy="355.642" r="4" fill="#0" id="circle93"/>
	<circle cx="605.493" cy="194.627" r="4" fill="#0" id="circle94"/>
	<circle cx="620.299" cy="348.239" r="4" fill="#0" id="circle95"/>
	<circle cx="624" cy="192.776" r="4" fill="#0" id="circle96"/>
	<circle cx="638.806" cy="348.239" r="4" fill="#0" id="circle97"/>
	<circle cx="642.507" cy="198.328" r="4" fill="#0" id="circle98"/>
	<circle cx="655.463" cy="357.493" r="4" fill="#0" id="circle99"/>
	<circle cx="661.015" cy="192.776" r="4" fill="#0" id="circle100"/>
	<circle cx="673.97" cy="353.791" r="4" fill="#0" id="circle101"/>
	<circle cx="679.522" cy="198.328" r="4" fill="#0" id="circle102"/>
	<circle cx="692.478" cy="348.239" r="4" fill="#0" id="circle103"/>
	<circle cx="698.03" cy="192.776" r="4" fill="#0" id="circle104"/>
	<circle cx="709.134" cy="357.493" r="4" fill="#0" id="circle105"/>
	<circle cx="716.537" cy="194.627" r="4" fill="#0" id="circle106"/>
	<circle cx="727.642" cy="348.239" r="4" fill="#0" id="circle107"/>
	<circle cx="735.045" cy="192.776" r="4" fill="#0" id="circle108"/>
	<circle cx="746.149" cy="351.94" r="4" fill="#0" id="circle109"/>
	<circle cx="753.552" cy="198.328" r="4" fill="#0" id="circle110"/>
	<circle cx="764.657" cy="351.94" r="4" fill="#0" id="circle111"/>
	<circle cx="770.209" cy="207.582" r="4" fill="#0" id="circle112"/>
	<circle cx="783.164" cy="351.94" r="4" fill="#0" id="circle113"/>
	<circle cx="788.716" cy="207.582" r="4" fill="#0" id="circle114"/>
	<circle cx="801.672" cy="348.239" r="4" fill="#0" id="circle115"/>
	<circle cx="805.373" cy="198.328" r="4" fill="#0" id="circle116"/>
	<circle cx="820.179" cy="348.239" r="4" fill="#0" id="circle117"/>
	<circle cx="823.881" cy="198.328" r="4" fill="#0" id="circle118"/>
	<circle cx="836.836" cy="357.493" r="4" fill="#0" id="circle119"/>
	<circle cx="842.388" cy="198.328" r="4" fill="#0" id="circle120"/>
	<circle cx="853.493" cy="348.239" r="4" fill="#0" id="circle121"/>
	<circle cx="860.896" cy="198.328" r="4" fill="#0" id="circle122"/>
	<circle cx="872" cy="348.239" r="4" fill="#0" id="circle123"/>
	<circle cx="877.552" cy="207.582" r="4" fill="#0" id="circle124"/>
	<circle cx="888.657" cy="338.985" r="4" fill="#0" id="circle125"/>
	<circle cx="894.209" cy="198.328" r="4" fill="#0" id="circle126"/>
	<circle cx="905.313" cy="348.239" r="4" fill="#0" id="circle127"/>
	<circle cx="910.866" cy="207.582" r="4" fill="#0" id="circle128"/>
	<circle cx="921.97" cy="357.493" r="4" fill="#0" id="circle129"/>
	<circle cx="927.522" cy="216.836" r="4" fill="#0" id="circle130"/>
	<circle cx="938.627" cy="348.239" r="4" fill="#0" id="circle131"/>
	<circle cx="944.179" cy="207.582" r="4" fill="#0" id="circle132"/>
	<circle cx="955.284" cy="338.985" r="4" fill="#0" id="circle133"/>
	<circle cx="960.836" cy="216.836" r="4" fill="#0" id="circle134"/>
	<circle cx="973.791" cy="338.985" r="4" fill="#0" id="circle135"/>
	<circle cx="977.493" cy="226.09" r="4" fill="#0" id="circle136"/>
	<circle cx="986.746" cy="242.746" r="4" fill="#0" id="circle137"/>
	<circle cx="986.746" cy="274.209" r="4" fill="#0" id="circle138"/>
	<circle cx="986.746" cy="311.224" r="4" fill="#0" id="circle139"/>
	<circle cx="996" cy="290.866" r="4" fill="#0" id="circle140"/>
	</g>
</svg>