<?xml version="1.0" encoding="UTF-8" standalone="no"?>
<!-- Created with CurveBenchmark -->
<svg
	xmlns:dc="http://purl.org/dc/elements/1.1/"
	xmlns:cc="http://creativecommons.org/ns#"
	xmlns:rdf="http://www.w3.org/1999/02/22-rdf-syntax-ns#"
	xmlns:svg="http://www.w3.org/2000/svg"
	xmlns="http://www.w3.org/2000/svg"
	xmlns:sodipodi="http://sodipodi.sourceforge.net/DTD/sodipodi-0.dtd"
	xmlns:inkscape="http://www.inkscape.org/namespaces/inkscape"
	width="1000"
	height="1000"
	id="svg2"
	version="1.1"
	sodipodi:docname="manifold/fitconnect-textbox47.png.txt">
<defs
	id="defs4" />
<metadata
	id="metadata7">
	<rdf:RDF>
		<cc:Work
			rdf:about="">
			<dc:format>image/svg+xml</dc:format>
			<dc:type
				rdf:resource="http://purl.org/dc/dcmitype/StillImage" />
			<dc:title></dc:title>
		</cc:Work>
	</rdf:RDF>
</metadata>
<g
	inkscape:label="Layer 1"
	inkscape:groupmode="layer"
	id="layer1">
	<path style="fill:none;stroke:red;stroke-width:1px;stroke-linecap:butt;stroke-linejoin:miter;stroke-opacity:1" d="M 4,113.306 4,133.929 z" id="boundary" inkscape:connector-curvature="0" />
	<path style="fill:none;stroke:red;stroke-width:1px;stroke-linecap:butt;stroke-linejoin:miter;stroke-opacity:1" d="M 4,113.306 14.3119,82.3701 z" id="boundary" inkscape:connector-curvature="0" />
	<path style="fill:none;stroke:red;stroke-width:1px;stroke-linecap:butt;stroke-linejoin:miter;stroke-opacity:1" d="M 4,133.929 4,154.553 z" id="boundary" inkscape:connector-curvature="0" />
	<path style="fill:none;stroke:red;stroke-width:1px;stroke-linecap:butt;stroke-linejoin:miter;stroke-opacity:1" d="M 4,154.553 4,175.177 z" id="boundary" inkscape:connector-curvature="0" />
	<path style="fill:none;stroke:red;stroke-width:1px;stroke-linecap:butt;stroke-linejoin:miter;stroke-opacity:1" d="M 4,175.177 14.3119,193.738 z" id="boundary" inkscape:connector-curvature="0" />
	<path style="fill:none;stroke:red;stroke-width:1px;stroke-linecap:butt;stroke-linejoin:miter;stroke-opacity:1" d="M 14.3119,82.3701 30.8108,65.8711 z" id="boundary" inkscape:connector-curvature="0" />
	<path style="fill:none;stroke:red;stroke-width:1px;stroke-linecap:butt;stroke-linejoin:miter;stroke-opacity:1" d="M 14.3119,193.738 14.3119,214.362 z" id="boundary" inkscape:connector-curvature="0" />
	<path style="fill:none;stroke:red;stroke-width:1px;stroke-linecap:butt;stroke-linejoin:miter;stroke-opacity:1" d="M 14.3119,214.362 14.3119,234.985 z" id="boundary" inkscape:connector-curvature="0" />
	<path style="fill:none;stroke:red;stroke-width:1px;stroke-linecap:butt;stroke-linejoin:miter;stroke-opacity:1" d="M 14.3119,234.985 14.3119,255.609 z" id="boundary" inkscape:connector-curvature="0" />
	<path style="fill:none;stroke:red;stroke-width:1px;stroke-linecap:butt;stroke-linejoin:miter;stroke-opacity:1" d="M 14.3119,255.609 14.3119,276.233 z" id="boundary" inkscape:connector-curvature="0" />
	<path style="fill:none;stroke:red;stroke-width:1px;stroke-linecap:butt;stroke-linejoin:miter;stroke-opacity:1" d="M 14.3119,276.233 14.3119,296.857 z" id="boundary" inkscape:connector-curvature="0" />
	<path style="fill:none;stroke:red;stroke-width:1px;stroke-linecap:butt;stroke-linejoin:miter;stroke-opacity:1" d="M 14.3119,296.857 14.3119,317.48 z" id="boundary" inkscape:connector-curvature="0" />
	<path style="fill:none;stroke:red;stroke-width:1px;stroke-linecap:butt;stroke-linejoin:miter;stroke-opacity:1" d="M 14.3119,317.48 14.3119,338.104 z" id="boundary" inkscape:connector-curvature="0" />
	<path style="fill:none;stroke:red;stroke-width:1px;stroke-linecap:butt;stroke-linejoin:miter;stroke-opacity:1" d="M 14.3119,338.104 14.3119,358.728 z" id="boundary" inkscape:connector-curvature="0" />
	<path style="fill:none;stroke:red;stroke-width:1px;stroke-linecap:butt;stroke-linejoin:miter;stroke-opacity:1" d="M 14.3119,358.728 14.3119,379.351 z" id="boundary" inkscape:connector-curvature="0" />
	<path style="fill:none;stroke:red;stroke-width:1px;stroke-linecap:butt;stroke-linejoin:miter;stroke-opacity:1" d="M 14.3119,379.351 14.3119,399.975 z" id="boundary" inkscape:connector-curvature="0" />
	<path style="fill:none;stroke:red;stroke-width:1px;stroke-linecap:butt;stroke-linejoin:miter;stroke-opacity:1" d="M 14.3119,399.975 14.3119,420.599 z" id="boundary" inkscape:connector-curvature="0" />
	<path style="fill:none;stroke:red;stroke-width:1px;stroke-linecap:butt;stroke-linejoin:miter;stroke-opacity:1" d="M 14.3119,420.599 14.3119,441.222 z" id="boundary" inkscape:connector-curvature="0" />
	<path style="fill:none;stroke:red;stroke-width:1px;stroke-linecap:butt;stroke-linejoin:miter;stroke-opacity:1" d="M 14.3119,441.222 14.3119,461.846 z" id="boundary" inkscape:connector-curvature="0" />
	<path style="fill:none;stroke:red;stroke-width:1px;stroke-linecap:butt;stroke-linejoin:miter;stroke-opacity:1" d="M 14.3119,461.846 14.3119,482.47 z" id="boundary" inkscape:connector-curvature="0" />
	<path style="fill:none;stroke:red;stroke-width:1px;stroke-linecap:butt;stroke-linejoin:miter;stroke-opacity:1" d="M 14.3119,482.47 14.3119,503.094 z" id="boundary" inkscape:connector-curvature="0" />
	<path style="fill:none;stroke:red;stroke-width:1px;stroke-linecap:butt;stroke-linejoin:miter;stroke-opacity:1" d="M 14.3119,503.094 14.3119,523.717 z" id="boundary" inkscape:connector-curvature="0" />
	<path style="fill:none;stroke:red;stroke-width:1px;stroke-linecap:butt;stroke-linejoin:miter;stroke-opacity:1" d="M 14.3119,523.717 28.7484,540.216 z" id="boundary" inkscape:connector-curvature="0" />
	<path style="fill:none;stroke:red;stroke-width:1px;stroke-linecap:butt;stroke-linejoin:miter;stroke-opacity:1" d="M 28.7484,540.216 49.3721,542.279 z" id="boundary" inkscape:connector-curvature="0" />
	<path style="fill:none;stroke:red;stroke-width:1px;stroke-linecap:butt;stroke-linejoin:miter;stroke-opacity:1" d="M 30.8108,65.8711 51.4345,65.8711 z" id="boundary" inkscape:connector-curvature="0" />
	<path style="fill:none;stroke:red;stroke-width:1px;stroke-linecap:butt;stroke-linejoin:miter;stroke-opacity:1" d="M 49.3721,542.279 59.684,560.84 z" id="boundary" inkscape:connector-curvature="0" />
	<path style="fill:none;stroke:red;stroke-width:1px;stroke-linecap:butt;stroke-linejoin:miter;stroke-opacity:1" d="M 51.4345,65.8711 72.0582,65.8711 z" id="boundary" inkscape:connector-curvature="0" />
	<path style="fill:none;stroke:red;stroke-width:1px;stroke-linecap:butt;stroke-linejoin:miter;stroke-opacity:1" d="M 59.684,560.84 69.9958,579.401 z" id="boundary" inkscape:connector-curvature="0" />
	<path style="fill:none;stroke:red;stroke-width:1px;stroke-linecap:butt;stroke-linejoin:miter;stroke-opacity:1" d="M 69.9958,579.401 86.4948,593.838 z" id="boundary" inkscape:connector-curvature="0" />
	<path style="fill:none;stroke:red;stroke-width:1px;stroke-linecap:butt;stroke-linejoin:miter;stroke-opacity:1" d="M 72.0582,65.8711 82.3701,45.2474 z" id="boundary" inkscape:connector-curvature="0" />
	<path style="fill:none;stroke:red;stroke-width:1px;stroke-linecap:butt;stroke-linejoin:miter;stroke-opacity:1" d="M 82.3701,45.2474 102.994,45.2474 z" id="boundary" inkscape:connector-curvature="0" />
	<path style="fill:none;stroke:red;stroke-width:1px;stroke-linecap:butt;stroke-linejoin:miter;stroke-opacity:1" d="M 86.4948,593.838 107.119,593.838 z" id="boundary" inkscape:connector-curvature="0" />
	<path style="fill:none;stroke:red;stroke-width:1px;stroke-linecap:butt;stroke-linejoin:miter;stroke-opacity:1" d="M 102.994,45.2474 123.617,45.2474 z" id="boundary" inkscape:connector-curvature="0" />
	<path style="fill:none;stroke:red;stroke-width:1px;stroke-linecap:butt;stroke-linejoin:miter;stroke-opacity:1" d="M 107.119,593.838 125.68,604.15 z" id="boundary" inkscape:connector-curvature="0" />
	<path style="fill:none;stroke:red;stroke-width:1px;stroke-linecap:butt;stroke-linejoin:miter;stroke-opacity:1" d="M 123.617,45.2474 142.179,34.9356 z" id="boundary" inkscape:connector-curvature="0" />
	<path style="fill:none;stroke:red;stroke-width:1px;stroke-linecap:butt;stroke-linejoin:miter;stroke-opacity:1" d="M 125.68,604.15 146.304,604.15 z" id="boundary" inkscape:connector-curvature="0" />
	<path style="fill:none;stroke:red;stroke-width:1px;stroke-linecap:butt;stroke-linejoin:miter;stroke-opacity:1" d="M 142.179,34.9356 162.802,34.9356 z" id="boundary" inkscape:connector-curvature="0" />
	<path style="fill:none;stroke:red;stroke-width:1px;stroke-linecap:butt;stroke-linejoin:miter;stroke-opacity:1" d="M 146.304,604.15 166.927,604.15 z" id="boundary" inkscape:connector-curvature="0" />
	<path style="fill:none;stroke:red;stroke-width:1px;stroke-linecap:butt;stroke-linejoin:miter;stroke-opacity:1" d="M 162.802,34.9356 183.426,26.6861 z" id="boundary" inkscape:connector-curvature="0" />
	<path style="fill:none;stroke:red;stroke-width:1px;stroke-linecap:butt;stroke-linejoin:miter;stroke-opacity:1" d="M 166.927,604.15 187.551,604.15 z" id="boundary" inkscape:connector-curvature="0" />
	<path style="fill:none;stroke:red;stroke-width:1px;stroke-linecap:butt;stroke-linejoin:miter;stroke-opacity:1" d="M 183.426,26.6861 204.05,24.6237 z" id="boundary" inkscape:connector-curvature="0" />
	<path style="fill:none;stroke:red;stroke-width:1px;stroke-linecap:butt;stroke-linejoin:miter;stroke-opacity:1" d="M 187.551,604.15 208.175,604.15 z" id="boundary" inkscape:connector-curvature="0" />
	<path style="fill:none;stroke:red;stroke-width:1px;stroke-linecap:butt;stroke-linejoin:miter;stroke-opacity:1" d="M 204.05,24.6237 224.674,24.6237 z" id="boundary" inkscape:connector-curvature="0" />
	<path style="fill:none;stroke:red;stroke-width:1px;stroke-linecap:butt;stroke-linejoin:miter;stroke-opacity:1" d="M 208.175,604.15 228.798,604.15 z" id="boundary" inkscape:connector-curvature="0" />
	<path style="fill:none;stroke:red;stroke-width:1px;stroke-linecap:butt;stroke-linejoin:miter;stroke-opacity:1" d="M 224.674,24.6237 245.297,24.6237 z" id="boundary" inkscape:connector-curvature="0" />
	<path style="fill:none;stroke:red;stroke-width:1px;stroke-linecap:butt;stroke-linejoin:miter;stroke-opacity:1" d="M 228.798,604.15 249.422,604.15 z" id="boundary" inkscape:connector-curvature="0" />
	<path style="fill:none;stroke:red;stroke-width:1px;stroke-linecap:butt;stroke-linejoin:miter;stroke-opacity:1" d="M 245.297,24.6237 265.921,24.6237 z" id="boundary" inkscape:connector-curvature="0" />
	<path style="fill:none;stroke:red;stroke-width:1px;stroke-linecap:butt;stroke-linejoin:miter;stroke-opacity:1" d="M 249.422,604.15 270.046,604.15 z" id="boundary" inkscape:connector-curvature="0" />
	<path style="fill:none;stroke:red;stroke-width:1px;stroke-linecap:butt;stroke-linejoin:miter;stroke-opacity:1" d="M 265.921,24.6237 286.545,24.6237 z" id="boundary" inkscape:connector-curvature="0" />
	<path style="fill:none;stroke:red;stroke-width:1px;stroke-linecap:butt;stroke-linejoin:miter;stroke-opacity:1" d="M 270.046,604.15 290.669,604.15 z" id="boundary" inkscape:connector-curvature="0" />
	<path style="fill:none;stroke:red;stroke-width:1px;stroke-linecap:butt;stroke-linejoin:miter;stroke-opacity:1" d="M 286.545,24.6237 307.168,24.6237 z" id="boundary" inkscape:connector-curvature="0" />
	<path style="fill:none;stroke:red;stroke-width:1px;stroke-linecap:butt;stroke-linejoin:miter;stroke-opacity:1" d="M 290.669,604.15 311.293,604.15 z" id="boundary" inkscape:connector-curvature="0" />
	<path style="fill:none;stroke:red;stroke-width:1px;stroke-linecap:butt;stroke-linejoin:miter;stroke-opacity:1" d="M 307.168,24.6237 327.792,24.6237 z" id="boundary" inkscape:connector-curvature="0" />
	<path style="fill:none;stroke:red;stroke-width:1px;stroke-linecap:butt;stroke-linejoin:miter;stroke-opacity:1" d="M 311.293,604.15 331.917,604.15 z" id="boundary" inkscape:connector-curvature="0" />
	<path style="fill:none;stroke:red;stroke-width:1px;stroke-linecap:butt;stroke-linejoin:miter;stroke-opacity:1" d="M 327.792,24.6237 348.416,24.6237 z" id="boundary" inkscape:connector-curvature="0" />
	<path style="fill:none;stroke:red;stroke-width:1px;stroke-linecap:butt;stroke-linejoin:miter;stroke-opacity:1" d="M 331.917,604.15 352.541,604.15 z" id="boundary" inkscape:connector-curvature="0" />
	<path style="fill:none;stroke:red;stroke-width:1px;stroke-linecap:butt;stroke-linejoin:miter;stroke-opacity:1" d="M 348.416,24.6237 369.04,24.6237 z" id="boundary" inkscape:connector-curvature="0" />
	<path style="fill:none;stroke:red;stroke-width:1px;stroke-linecap:butt;stroke-linejoin:miter;stroke-opacity:1" d="M 352.541,604.15 373.164,604.15 z" id="boundary" inkscape:connector-curvature="0" />
	<path style="fill:none;stroke:red;stroke-width:1px;stroke-linecap:butt;stroke-linejoin:miter;stroke-opacity:1" d="M 369.04,24.6237 389.663,24.6237 z" id="boundary" inkscape:connector-curvature="0" />
	<path style="fill:none;stroke:red;stroke-width:1px;stroke-linecap:butt;stroke-linejoin:miter;stroke-opacity:1" d="M 373.164,604.15 393.788,604.15 z" id="boundary" inkscape:connector-curvature="0" />
	<path style="fill:none;stroke:red;stroke-width:1px;stroke-linecap:butt;stroke-linejoin:miter;stroke-opacity:1" d="M 389.663,24.6237 410.287,24.6237 z" id="boundary" inkscape:connector-curvature="0" />
	<path style="fill:none;stroke:red;stroke-width:1px;stroke-linecap:butt;stroke-linejoin:miter;stroke-opacity:1" d="M 393.788,604.15 414.412,604.15 z" id="boundary" inkscape:connector-curvature="0" />
	<path style="fill:none;stroke:red;stroke-width:1px;stroke-linecap:butt;stroke-linejoin:miter;stroke-opacity:1" d="M 410.287,24.6237 430.911,24.6237 z" id="boundary" inkscape:connector-curvature="0" />
	<path style="fill:none;stroke:red;stroke-width:1px;stroke-linecap:butt;stroke-linejoin:miter;stroke-opacity:1" d="M 414.412,604.15 432.973,593.838 z" id="boundary" inkscape:connector-curvature="0" />
	<path style="fill:none;stroke:red;stroke-width:1px;stroke-linecap:butt;stroke-linejoin:miter;stroke-opacity:1" d="M 430.911,24.6237 451.534,24.6237 z" id="boundary" inkscape:connector-curvature="0" />
	<path style="fill:none;stroke:red;stroke-width:1px;stroke-linecap:butt;stroke-linejoin:miter;stroke-opacity:1" d="M 432.973,593.838 453.597,593.838 z" id="boundary" inkscape:connector-curvature="0" />
	<path style="fill:none;stroke:red;stroke-width:1px;stroke-linecap:butt;stroke-linejoin:miter;stroke-opacity:1" d="M 451.534,24.6237 472.158,24.6237 z" id="boundary" inkscape:connector-curvature="0" />
	<path style="fill:none;stroke:red;stroke-width:1px;stroke-linecap:butt;stroke-linejoin:miter;stroke-opacity:1" d="M 453.597,593.838 474.22,593.838 z" id="boundary" inkscape:connector-curvature="0" />
	<path style="fill:none;stroke:red;stroke-width:1px;stroke-linecap:butt;stroke-linejoin:miter;stroke-opacity:1" d="M 472.158,24.6237 492.782,24.6237 z" id="boundary" inkscape:connector-curvature="0" />
	<path style="fill:none;stroke:red;stroke-width:1px;stroke-linecap:butt;stroke-linejoin:miter;stroke-opacity:1" d="M 474.22,593.838 494.844,593.838 z" id="boundary" inkscape:connector-curvature="0" />
	<path style="fill:none;stroke:red;stroke-width:1px;stroke-linecap:butt;stroke-linejoin:miter;stroke-opacity:1" d="M 492.782,24.6237 513.405,24.6237 z" id="boundary" inkscape:connector-curvature="0" />
	<path style="fill:none;stroke:red;stroke-width:1px;stroke-linecap:butt;stroke-linejoin:miter;stroke-opacity:1" d="M 494.844,593.838 515.468,593.838 z" id="boundary" inkscape:connector-curvature="0" />
	<path style="fill:none;stroke:red;stroke-width:1px;stroke-linecap:butt;stroke-linejoin:miter;stroke-opacity:1" d="M 513.405,24.6237 534.029,24.6237 z" id="boundary" inkscape:connector-curvature="0" />
	<path style="fill:none;stroke:red;stroke-width:1px;stroke-linecap:butt;stroke-linejoin:miter;stroke-opacity:1" d="M 515.468,593.838 536.091,593.838 z" id="boundary" inkscape:connector-curvature="0" />
	<path style="fill:none;stroke:red;stroke-width:1px;stroke-linecap:butt;stroke-linejoin:miter;stroke-opacity:1" d="M 519.593,958.877 519.593,979.501 z" id="boundary" inkscape:connector-curvature="0" />
	<path style="fill:none;stroke:red;stroke-width:1px;stroke-linecap:butt;stroke-linejoin:miter;stroke-opacity:1" d="M 519.593,958.877 529.904,927.942 z" id="boundary" inkscape:connector-curvature="0" />
	<path style="fill:none;stroke:red;stroke-width:1px;stroke-linecap:butt;stroke-linejoin:miter;stroke-opacity:1" d="M 519.593,979.501 531.967,996 z" id="boundary" inkscape:connector-curvature="0" />
	<path style="fill:none;stroke:red;stroke-width:1px;stroke-linecap:butt;stroke-linejoin:miter;stroke-opacity:1" d="M 529.904,866.071 529.904,886.694 z" id="boundary" inkscape:connector-curvature="0" />
	<path style="fill:none;stroke:red;stroke-width:1px;stroke-linecap:butt;stroke-linejoin:miter;stroke-opacity:1" d="M 529.904,866.071 540.216,835.135 z" id="boundary" inkscape:connector-curvature="0" />
	<path style="fill:none;stroke:red;stroke-width:1px;stroke-linecap:butt;stroke-linejoin:miter;stroke-opacity:1" d="M 529.904,886.694 529.904,907.318 z" id="boundary" inkscape:connector-curvature="0" />
	<path style="fill:none;stroke:red;stroke-width:1px;stroke-linecap:butt;stroke-linejoin:miter;stroke-opacity:1" d="M 529.904,907.318 529.904,927.942 z" id="boundary" inkscape:connector-curvature="0" />
	<path style="fill:none;stroke:red;stroke-width:1px;stroke-linecap:butt;stroke-linejoin:miter;stroke-opacity:1" d="M 531.967,996 562.902,954.753 z" id="boundary" inkscape:connector-curvature="0" />
	<path style="fill:none;stroke:red;stroke-width:1px;stroke-linecap:butt;stroke-linejoin:miter;stroke-opacity:1" d="M 534.029,24.6237 554.653,24.6237 z" id="boundary" inkscape:connector-curvature="0" />
	<path style="fill:none;stroke:red;stroke-width:1px;stroke-linecap:butt;stroke-linejoin:miter;stroke-opacity:1" d="M 536.091,593.838 556.715,593.838 z" id="boundary" inkscape:connector-curvature="0" />
	<path style="fill:none;stroke:red;stroke-width:1px;stroke-linecap:butt;stroke-linejoin:miter;stroke-opacity:1" d="M 540.216,793.888 540.216,814.511 z" id="boundary" inkscape:connector-curvature="0" />
	<path style="fill:none;stroke:red;stroke-width:1px;stroke-linecap:butt;stroke-linejoin:miter;stroke-opacity:1" d="M 540.216,793.888 560.84,773.264 z" id="boundary" inkscape:connector-curvature="0" />
	<path style="fill:none;stroke:red;stroke-width:1px;stroke-linecap:butt;stroke-linejoin:miter;stroke-opacity:1" d="M 540.216,814.511 540.216,835.135 z" id="boundary" inkscape:connector-curvature="0" />
	<path style="fill:none;stroke:red;stroke-width:1px;stroke-linecap:butt;stroke-linejoin:miter;stroke-opacity:1" d="M 554.653,24.6237 575.277,24.6237 z" id="boundary" inkscape:connector-curvature="0" />
	<path style="fill:none;stroke:red;stroke-width:1px;stroke-linecap:butt;stroke-linejoin:miter;stroke-opacity:1" d="M 556.715,593.838 571.152,610.337 z" id="boundary" inkscape:connector-curvature="0" />
	<path style="fill:none;stroke:red;stroke-width:1px;stroke-linecap:butt;stroke-linejoin:miter;stroke-opacity:1" d="M 560.84,711.393 560.84,732.017 z" id="boundary" inkscape:connector-curvature="0" />
	<path style="fill:none;stroke:red;stroke-width:1px;stroke-linecap:butt;stroke-linejoin:miter;stroke-opacity:1" d="M 560.84,711.393 571.152,692.832 z" id="boundary" inkscape:connector-curvature="0" />
	<path style="fill:none;stroke:red;stroke-width:1px;stroke-linecap:butt;stroke-linejoin:miter;stroke-opacity:1" d="M 560.84,732.017 560.84,752.64 z" id="boundary" inkscape:connector-curvature="0" />
	<path style="fill:none;stroke:red;stroke-width:1px;stroke-linecap:butt;stroke-linejoin:miter;stroke-opacity:1" d="M 560.84,752.64 560.84,773.264 z" id="boundary" inkscape:connector-curvature="0" />
	<path style="fill:none;stroke:red;stroke-width:1px;stroke-linecap:butt;stroke-linejoin:miter;stroke-opacity:1" d="M 562.902,954.753 573.214,934.129 z" id="boundary" inkscape:connector-curvature="0" />
	<path style="fill:none;stroke:red;stroke-width:1px;stroke-linecap:butt;stroke-linejoin:miter;stroke-opacity:1" d="M 571.152,610.337 571.152,630.96 z" id="boundary" inkscape:connector-curvature="0" />
	<path style="fill:none;stroke:red;stroke-width:1px;stroke-linecap:butt;stroke-linejoin:miter;stroke-opacity:1" d="M 571.152,630.96 571.152,651.584 z" id="boundary" inkscape:connector-curvature="0" />
	<path style="fill:none;stroke:red;stroke-width:1px;stroke-linecap:butt;stroke-linejoin:miter;stroke-opacity:1" d="M 571.152,651.584 571.152,672.208 z" id="boundary" inkscape:connector-curvature="0" />
	<path style="fill:none;stroke:red;stroke-width:1px;stroke-linecap:butt;stroke-linejoin:miter;stroke-opacity:1" d="M 571.152,672.208 571.152,692.832 z" id="boundary" inkscape:connector-curvature="0" />
	<path style="fill:none;stroke:red;stroke-width:1px;stroke-linecap:butt;stroke-linejoin:miter;stroke-opacity:1" d="M 573.214,934.129 591.775,923.817 z" id="boundary" inkscape:connector-curvature="0" />
	<path style="fill:none;stroke:red;stroke-width:1px;stroke-linecap:butt;stroke-linejoin:miter;stroke-opacity:1" d="M 575.277,24.6237 595.9,24.6237 z" id="boundary" inkscape:connector-curvature="0" />
	<path style="fill:none;stroke:red;stroke-width:1px;stroke-linecap:butt;stroke-linejoin:miter;stroke-opacity:1" d="M 591.775,923.817 604.15,903.193 z" id="boundary" inkscape:connector-curvature="0" />
	<path style="fill:none;stroke:red;stroke-width:1px;stroke-linecap:butt;stroke-linejoin:miter;stroke-opacity:1" d="M 595.9,24.6237 616.524,24.6237 z" id="boundary" inkscape:connector-curvature="0" />
	<path style="fill:none;stroke:red;stroke-width:1px;stroke-linecap:butt;stroke-linejoin:miter;stroke-opacity:1" d="M 604.15,882.57 604.15,903.193 z" id="boundary" inkscape:connector-curvature="0" />
	<path style="fill:none;stroke:red;stroke-width:1px;stroke-linecap:butt;stroke-linejoin:miter;stroke-opacity:1" d="M 604.15,882.57 624.773,872.258 z" id="boundary" inkscape:connector-curvature="0" />
	<path style="fill:none;stroke:red;stroke-width:1px;stroke-linecap:butt;stroke-linejoin:miter;stroke-opacity:1" d="M 616.524,24.6237 626.836,6.06237 z" id="boundary" inkscape:connector-curvature="0" />
	<path style="fill:none;stroke:red;stroke-width:1px;stroke-linecap:butt;stroke-linejoin:miter;stroke-opacity:1" d="M 624.773,872.258 643.335,861.946 z" id="boundary" inkscape:connector-curvature="0" />
	<path style="fill:none;stroke:red;stroke-width:1px;stroke-linecap:butt;stroke-linejoin:miter;stroke-opacity:1" d="M 626.836,6.06237 647.459,4 z" id="boundary" inkscape:connector-curvature="0" />
	<path style="fill:none;stroke:red;stroke-width:1px;stroke-linecap:butt;stroke-linejoin:miter;stroke-opacity:1" d="M 643.335,861.946 655.709,841.322 z" id="boundary" inkscape:connector-curvature="0" />
	<path style="fill:none;stroke:red;stroke-width:1px;stroke-linecap:butt;stroke-linejoin:miter;stroke-opacity:1" d="M 647.459,4 668.083,4 z" id="boundary" inkscape:connector-curvature="0" />
	<path style="fill:none;stroke:red;stroke-width:1px;stroke-linecap:butt;stroke-linejoin:miter;stroke-opacity:1" d="M 655.709,820.699 655.709,841.322 z" id="boundary" inkscape:connector-curvature="0" />
	<path style="fill:none;stroke:red;stroke-width:1px;stroke-linecap:butt;stroke-linejoin:miter;stroke-opacity:1" d="M 655.709,820.699 666.021,800.075 z" id="boundary" inkscape:connector-curvature="0" />
	<path style="fill:none;stroke:red;stroke-width:1px;stroke-linecap:butt;stroke-linejoin:miter;stroke-opacity:1" d="M 666.021,800.075 676.333,769.139 z" id="boundary" inkscape:connector-curvature="0" />
	<path style="fill:none;stroke:red;stroke-width:1px;stroke-linecap:butt;stroke-linejoin:miter;stroke-opacity:1" d="M 668.083,4 688.707,4 z" id="boundary" inkscape:connector-curvature="0" />
	<path style="fill:none;stroke:red;stroke-width:1px;stroke-linecap:butt;stroke-linejoin:miter;stroke-opacity:1" d="M 676.333,769.139 696.956,748.516 z" id="boundary" inkscape:connector-curvature="0" />
	<path style="fill:none;stroke:red;stroke-width:1px;stroke-linecap:butt;stroke-linejoin:miter;stroke-opacity:1" d="M 688.707,4 709.331,4 z" id="boundary" inkscape:connector-curvature="0" />
	<path style="fill:none;stroke:red;stroke-width:1px;stroke-linecap:butt;stroke-linejoin:miter;stroke-opacity:1" d="M 696.956,748.516 713.455,734.079 z" id="boundary" inkscape:connector-curvature="0" />
	<path style="fill:none;stroke:red;stroke-width:1px;stroke-linecap:butt;stroke-linejoin:miter;stroke-opacity:1" d="M 709.331,4 729.954,4 z" id="boundary" inkscape:connector-curvature="0" />
	<path style="fill:none;stroke:red;stroke-width:1px;stroke-linecap:butt;stroke-linejoin:miter;stroke-opacity:1" d="M 713.455,734.079 717.58,707.268 z" id="boundary" inkscape:connector-curvature="0" />
	<path style="fill:none;stroke:red;stroke-width:1px;stroke-linecap:butt;stroke-linejoin:miter;stroke-opacity:1" d="M 717.58,707.268 736.141,696.956 z" id="boundary" inkscape:connector-curvature="0" />
	<path style="fill:none;stroke:red;stroke-width:1px;stroke-linecap:butt;stroke-linejoin:miter;stroke-opacity:1" d="M 729.954,4 750.578,4 z" id="boundary" inkscape:connector-curvature="0" />
	<path style="fill:none;stroke:red;stroke-width:1px;stroke-linecap:butt;stroke-linejoin:miter;stroke-opacity:1" d="M 736.141,696.956 756.765,690.769 z" id="boundary" inkscape:connector-curvature="0" />
	<path style="fill:none;stroke:red;stroke-width:1px;stroke-linecap:butt;stroke-linejoin:miter;stroke-opacity:1" d="M 750.578,4 771.202,4 z" id="boundary" inkscape:connector-curvature="0" />
	<path style="fill:none;stroke:red;stroke-width:1px;stroke-linecap:butt;stroke-linejoin:miter;stroke-opacity:1" d="M 756.765,690.769 769.139,666.021 z" id="boundary" inkscape:connector-curvature="0" />
	<path style="fill:none;stroke:red;stroke-width:1px;stroke-linecap:butt;stroke-linejoin:miter;stroke-opacity:1" d="M 769.139,645.397 769.139,666.021 z" id="boundary" inkscape:connector-curvature="0" />
	<path style="fill:none;stroke:red;stroke-width:1px;stroke-linecap:butt;stroke-linejoin:miter;stroke-opacity:1" d="M 769.139,645.397 787.701,635.085 z" id="boundary" inkscape:connector-curvature="0" />
	<path style="fill:none;stroke:red;stroke-width:1px;stroke-linecap:butt;stroke-linejoin:miter;stroke-opacity:1" d="M 771.202,4 791.825,4 z" id="boundary" inkscape:connector-curvature="0" />
	<path style="fill:none;stroke:red;stroke-width:1px;stroke-linecap:butt;stroke-linejoin:miter;stroke-opacity:1" d="M 787.701,635.085 800.075,614.462 z" id="boundary" inkscape:connector-curvature="0" />
	<path style="fill:none;stroke:red;stroke-width:1px;stroke-linecap:butt;stroke-linejoin:miter;stroke-opacity:1" d="M 791.825,4 812.449,4 z" id="boundary" inkscape:connector-curvature="0" />
	<path style="fill:none;stroke:red;stroke-width:1px;stroke-linecap:butt;stroke-linejoin:miter;stroke-opacity:1" d="M 800.075,614.462 810.387,593.838 z" id="boundary" inkscape:connector-curvature="0" />
	<path style="fill:none;stroke:red;stroke-width:1px;stroke-linecap:butt;stroke-linejoin:miter;stroke-opacity:1" d="M 810.387,593.838 831.01,593.838 z" id="boundary" inkscape:connector-curvature="0" />
	<path style="fill:none;stroke:red;stroke-width:1px;stroke-linecap:butt;stroke-linejoin:miter;stroke-opacity:1" d="M 812.449,4 833.073,4 z" id="boundary" inkscape:connector-curvature="0" />
	<path style="fill:none;stroke:red;stroke-width:1px;stroke-linecap:butt;stroke-linejoin:miter;stroke-opacity:1" d="M 831.01,593.838 849.572,583.526 z" id="boundary" inkscape:connector-curvature="0" />
	<path style="fill:none;stroke:red;stroke-width:1px;stroke-linecap:butt;stroke-linejoin:miter;stroke-opacity:1" d="M 833.073,4 853.696,4 z" id="boundary" inkscape:connector-curvature="0" />
	<path style="fill:none;stroke:red;stroke-width:1px;stroke-linecap:butt;stroke-linejoin:miter;stroke-opacity:1" d="M 849.572,583.526 870.195,583.526 z" id="boundary" inkscape:connector-curvature="0" />
	<path style="fill:none;stroke:red;stroke-width:1px;stroke-linecap:butt;stroke-linejoin:miter;stroke-opacity:1" d="M 853.696,4 874.32,4 z" id="boundary" inkscape:connector-curvature="0" />
	<path style="fill:none;stroke:red;stroke-width:1px;stroke-linecap:butt;stroke-linejoin:miter;stroke-opacity:1" d="M 870.195,583.526 890.819,577.339 z" id="boundary" inkscape:connector-curvature="0" />
	<path style="fill:none;stroke:red;stroke-width:1px;stroke-linecap:butt;stroke-linejoin:miter;stroke-opacity:1" d="M 874.32,4 892.881,14.3119 z" id="boundary" inkscape:connector-curvature="0" />
	<path style="fill:none;stroke:red;stroke-width:1px;stroke-linecap:butt;stroke-linejoin:miter;stroke-opacity:1" d="M 890.819,577.339 907.318,560.84 z" id="boundary" inkscape:connector-curvature="0" />
	<path style="fill:none;stroke:red;stroke-width:1px;stroke-linecap:butt;stroke-linejoin:miter;stroke-opacity:1" d="M 892.881,14.3119 909.38,26.6861 z" id="boundary" inkscape:connector-curvature="0" />
	<path style="fill:none;stroke:red;stroke-width:1px;stroke-linecap:butt;stroke-linejoin:miter;stroke-opacity:1" d="M 907.318,560.84 917.63,542.279 z" id="boundary" inkscape:connector-curvature="0" />
	<path style="fill:none;stroke:red;stroke-width:1px;stroke-linecap:butt;stroke-linejoin:miter;stroke-opacity:1" d="M 909.38,26.6861 930.004,34.9356 z" id="boundary" inkscape:connector-curvature="0" />
	<path style="fill:none;stroke:red;stroke-width:1px;stroke-linecap:butt;stroke-linejoin:miter;stroke-opacity:1" d="M 917.63,542.279 938.254,540.216 z" id="boundary" inkscape:connector-curvature="0" />
	<path style="fill:none;stroke:red;stroke-width:1px;stroke-linecap:butt;stroke-linejoin:miter;stroke-opacity:1" d="M 930.004,34.9356 948.565,45.2474 z" id="boundary" inkscape:connector-curvature="0" />
	<path style="fill:none;stroke:red;stroke-width:1px;stroke-linecap:butt;stroke-linejoin:miter;stroke-opacity:1" d="M 938.254,540.216 954.753,511.343 z" id="boundary" inkscape:connector-curvature="0" />
	<path style="fill:none;stroke:red;stroke-width:1px;stroke-linecap:butt;stroke-linejoin:miter;stroke-opacity:1" d="M 948.565,45.2474 954.753,65.8711 z" id="boundary" inkscape:connector-curvature="0" />
	<path style="fill:none;stroke:red;stroke-width:1px;stroke-linecap:butt;stroke-linejoin:miter;stroke-opacity:1" d="M 954.753,65.8711 973.314,76.183 z" id="boundary" inkscape:connector-curvature="0" />
	<path style="fill:none;stroke:red;stroke-width:1px;stroke-linecap:butt;stroke-linejoin:miter;stroke-opacity:1" d="M 954.753,511.343 975.376,511.343 z" id="boundary" inkscape:connector-curvature="0" />
	<path style="fill:none;stroke:red;stroke-width:1px;stroke-linecap:butt;stroke-linejoin:miter;stroke-opacity:1" d="M 973.314,76.183 985.688,92.6819 z" id="boundary" inkscape:connector-curvature="0" />
	<path style="fill:none;stroke:red;stroke-width:1px;stroke-linecap:butt;stroke-linejoin:miter;stroke-opacity:1" d="M 975.376,511.343 991.875,496.906 z" id="boundary" inkscape:connector-curvature="0" />
	<path style="fill:none;stroke:red;stroke-width:1px;stroke-linecap:butt;stroke-linejoin:miter;stroke-opacity:1" d="M 985.688,92.6819 985.688,113.306 z" id="boundary" inkscape:connector-curvature="0" />
	<path style="fill:none;stroke:red;stroke-width:1px;stroke-linecap:butt;stroke-linejoin:miter;stroke-opacity:1" d="M 985.688,113.306 985.688,133.929 z" id="boundary" inkscape:connector-curvature="0" />
	<path style="fill:none;stroke:red;stroke-width:1px;stroke-linecap:butt;stroke-linejoin:miter;stroke-opacity:1" d="M 985.688,133.929 985.688,154.553 z" id="boundary" inkscape:connector-curvature="0" />
	<path style="fill:none;stroke:red;stroke-width:1px;stroke-linecap:butt;stroke-linejoin:miter;stroke-opacity:1" d="M 985.688,154.553 985.688,175.177 z" id="boundary" inkscape:connector-curvature="0" />
	<path style="fill:none;stroke:red;stroke-width:1px;stroke-linecap:butt;stroke-linejoin:miter;stroke-opacity:1" d="M 985.688,175.177 985.688,195.8 z" id="boundary" inkscape:connector-curvature="0" />
	<path style="fill:none;stroke:red;stroke-width:1px;stroke-linecap:butt;stroke-linejoin:miter;stroke-opacity:1" d="M 985.688,195.8 985.688,216.424 z" id="boundary" inkscape:connector-curvature="0" />
	<path style="fill:none;stroke:red;stroke-width:1px;stroke-linecap:butt;stroke-linejoin:miter;stroke-opacity:1" d="M 985.688,216.424 985.688,237.048 z" id="boundary" inkscape:connector-curvature="0" />
	<path style="fill:none;stroke:red;stroke-width:1px;stroke-linecap:butt;stroke-linejoin:miter;stroke-opacity:1" d="M 985.688,237.048 985.688,257.672 z" id="boundary" inkscape:connector-curvature="0" />
	<path style="fill:none;stroke:red;stroke-width:1px;stroke-linecap:butt;stroke-linejoin:miter;stroke-opacity:1" d="M 985.688,257.672 985.688,278.295 z" id="boundary" inkscape:connector-curvature="0" />
	<path style="fill:none;stroke:red;stroke-width:1px;stroke-linecap:butt;stroke-linejoin:miter;stroke-opacity:1" d="M 985.688,278.295 985.688,298.919 z" id="boundary" inkscape:connector-curvature="0" />
	<path style="fill:none;stroke:red;stroke-width:1px;stroke-linecap:butt;stroke-linejoin:miter;stroke-opacity:1" d="M 985.688,298.919 985.688,319.543 z" id="boundary" inkscape:connector-curvature="0" />
	<path style="fill:none;stroke:red;stroke-width:1px;stroke-linecap:butt;stroke-linejoin:miter;stroke-opacity:1" d="M 985.688,319.543 985.688,340.166 z" id="boundary" inkscape:connector-curvature="0" />
	<path style="fill:none;stroke:red;stroke-width:1px;stroke-linecap:butt;stroke-linejoin:miter;stroke-opacity:1" d="M 985.688,340.166 985.688,360.79 z" id="boundary" inkscape:connector-curvature="0" />
	<path style="fill:none;stroke:red;stroke-width:1px;stroke-linecap:butt;stroke-linejoin:miter;stroke-opacity:1" d="M 985.688,360.79 993.938,381.414 z" id="boundary" inkscape:connector-curvature="0" />
	<path style="fill:none;stroke:red;stroke-width:1px;stroke-linecap:butt;stroke-linejoin:miter;stroke-opacity:1" d="M 991.875,496.906 996,463.909 z" id="boundary" inkscape:connector-curvature="0" />
	<path style="fill:none;stroke:red;stroke-width:1px;stroke-linecap:butt;stroke-linejoin:miter;stroke-opacity:1" d="M 993.938,381.414 996,402.037 z" id="boundary" inkscape:connector-curvature="0" />
	<path style="fill:none;stroke:red;stroke-width:1px;stroke-linecap:butt;stroke-linejoin:miter;stroke-opacity:1" d="M 996,402.037 996,422.661 z" id="boundary" inkscape:connector-curvature="0" />
	<path style="fill:none;stroke:red;stroke-width:1px;stroke-linecap:butt;stroke-linejoin:miter;stroke-opacity:1" d="M 996,422.661 996,443.285 z" id="boundary" inkscape:connector-curvature="0" />
	<path style="fill:none;stroke:red;stroke-width:1px;stroke-linecap:butt;stroke-linejoin:miter;stroke-opacity:1" d="M 996,443.285 996,463.909 z" id="boundary" inkscape:connector-curvature="0" />
	<circle cx="4" cy="113.306" r="4" fill="#0" id="circle0"/>
	<circle cx="4" cy="133.929" r="4" fill="#0" id="circle1"/>
	<circle cx="4" cy="154.553" r="4" fill="#0" id="circle2"/>
	<circle cx="4" cy="175.177" r="4" fill="#0" id="circle3"/>
	<circle cx="14.3119" cy="82.3701" r="4" fill="#0" id="circle4"/>
	<circle cx="14.3119" cy="193.738" r="4" fill="#0" id="circle5"/>
	<circle cx="14.3119" cy="214.362" r="4" fill="#0" id="circle6"/>
	<circle cx="14.3119" cy="234.985" r="4" fill="#0" id="circle7"/>
	<circle cx="14.3119" cy="255.609" r="4" fill="#0" id="circle8"/>
	<circle cx="14.3119" cy="276.233" r="4" fill="#0" id="circle9"/>
	<circle cx="14.3119" cy="296.857" r="4" fill="#0" id="circle10"/>
	<circle cx="14.3119" cy="317.48" r="4" fill="#0" id="circle11"/>
	<circle cx="14.3119" cy="338.104" r="4" fill="#0" id="circle12"/>
	<circle cx="14.3119" cy="358.728" r="4" fill="#0" id="circle13"/>
	<circle cx="14.3119" cy="379.351" r="4" fill="#0" id="circle14"/>
	<circle cx="14.3119" cy="399.975" r="4" fill="#0" id="circle15"/>
	<circle cx="14.3119" cy="420.599" r="4" fill="#0" id="circle16"/>
	<circle cx="14.3119" cy="441.222" r="4" fill="#0" id="circle17"/>
	<circle cx="14.3119" cy="461.846" r="4" fill="#0" id="circle18"/>
	<circle cx="14.3119" cy="482.47" r="4" fill="#0" id="circle19"/>
	<circle cx="14.3119" cy="503.094" r="4" fill="#0" id="circle20"/>
	<circle cx="14.3119" cy="523.717" r="4" fill="#0" id="circle21"/>
	<circle cx="28.7484" cy="540.216" r="4" fill="#0" id="circle22"/>
	<circle cx="30.8108" cy="65.8711" r="4" fill="#0" id="circle23"/>
	<circle cx="49.3721" cy="542.279" r="4" fill="#0" id="circle24"/>
	<circle cx="51.4345" cy="65.8711" r="4" fill="#0" id="circle25"/>
	<circle cx="59.684" cy="560.84" r="4" fill="#0" id="circle26"/>
	<circle cx="69.9958" cy="579.401" r="4" fill="#0" id="circle27"/>
	<circle cx="72.0582" cy="65.8711" r="4" fill="#0" id="circle28"/>
	<circle cx="82.3701" cy="45.2474" r="4" fill="#0" id="circle29"/>
	<circle cx="86.4948" cy="593.838" r="4" fill="#0" id="circle30"/>
	<circle cx="102.994" cy="45.2474" r="4" fill="#0" id="circle31"/>
	<circle cx="107.119" cy="593.838" r="4" fill="#0" id="circle32"/>
	<circle cx="123.617" cy="45.2474" r="4" fill="#0" id="circle33"/>
	<circle cx="125.68" cy="604.15" r="4" fill="#0" id="circle34"/>
	<circle cx="142.179" cy="34.9356" r="4" fill="#0" id="circle35"/>
	<circle cx="146.304" cy="604.15" r="4" fill="#0" id="circle36"/>
	<circle cx="162.802" cy="34.9356" r="4" fill="#0" id="circle37"/>
	<circle cx="166.927" cy="604.15" r="4" fill="#0" id="circle38"/>
	<circle cx="183.426" cy="26.6861" r="4" fill="#0" id="circle39"/>
	<circle cx="187.551" cy="604.15" r="4" fill="#0" id="circle40"/>
	<circle cx="204.05" cy="24.6237" r="4" fill="#0" id="circle41"/>
	<circle cx="208.175" cy="604.15" r="4" fill="#0" id="circle42"/>
	<circle cx="224.674" cy="24.6237" r="4" fill="#0" id="circle43"/>
	<circle cx="228.798" cy="604.15" r="4" fill="#0" id="circle44"/>
	<circle cx="245.297" cy="24.6237" r="4" fill="#0" id="circle45"/>
	<circle cx="249.422" cy="604.15" r="4" fill="#0" id="circle46"/>
	<circle cx="265.921" cy="24.6237" r="4" fill="#0" id="circle47"/>
	<circle cx="270.046" cy="604.15" r="4" fill="#0" id="circle48"/>
	<circle cx="286.545" cy="24.6237" r="4" fill="#0" id="circle49"/>
	<circle cx="290.669" cy="604.15" r="4" fill="#0" id="circle50"/>
	<circle cx="307.168" cy="24.6237" r="4" fill="#0" id="circle51"/>
	<circle cx="311.293" cy="604.15" r="4" fill="#0" id="circle52"/>
	<circle cx="327.792" cy="24.6237" r="4" fill="#0" id="circle53"/>
	<circle cx="331.917" cy="604.15" r="4" fill="#0" id="circle54"/>
	<circle cx="348.416" cy="24.6237" r="4" fill="#0" id="circle55"/>
	<circle cx="352.541" cy="604.15" r="4" fill="#0" id="circle56"/>
	<circle cx="369.04" cy="24.6237" r="4" fill="#0" id="circle57"/>
	<circle cx="373.164" cy="604.15" r="4" fill="#0" id="circle58"/>
	<circle cx="389.663" cy="24.6237" r="4" fill="#0" id="circle59"/>
	<circle cx="393.788" cy="604.15" r="4" fill="#0" id="circle60"/>
	<circle cx="410.287" cy="24.6237" r="4" fill="#0" id="circle61"/>
	<circle cx="414.412" cy="604.15" r="4" fill="#0" id="circle62"/>
	<circle cx="430.911" cy="24.6237" r="4" fill="#0" id="circle63"/>
	<circle cx="432.973" cy="593.838" r="4" fill="#0" id="circle64"/>
	<circle cx="451.534" cy="24.6237" r="4" fill="#0" id="circle65"/>
	<circle cx="453.597" cy="593.838" r="4" fill="#0" id="circle66"/>
	<circle cx="472.158" cy="24.6237" r="4" fill="#0" id="circle67"/>
	<circle cx="474.22" cy="593.838" r="4" fill="#0" id="circle68"/>
	<circle cx="492.782" cy="24.6237" r="4" fill="#0" id="circle69"/>
	<circle cx="494.844" cy="593.838" r="4" fill="#0" id="circle70"/>
	<circle cx="513.405" cy="24.6237" r="4" fill="#0" id="circle71"/>
	<circle cx="515.468" cy="593.838" r="4" fill="#0" id="circle72"/>
	<circle cx="519.593" cy="958.877" r="4" fill="#0" id="circle73"/>
	<circle cx="519.593" cy="979.501" r="4" fill="#0" id="circle74"/>
	<circle cx="529.904" cy="866.071" r="4" fill="#0" id="circle75"/>
	<circle cx="529.904" cy="886.694" r="4" fill="#0" id="circle76"/>
	<circle cx="529.904" cy="907.318" r="4" fill="#0" id="circle77"/>
	<circle cx="529.904" cy="927.942" r="4" fill="#0" id="circle78"/>
	<circle cx="531.967" cy="996" r="4" fill="#0" id="circle79"/>
	<circle cx="534.029" cy="24.6237" r="4" fill="#0" id="circle80"/>
	<circle cx="536.091" cy="593.838" r="4" fill="#0" id="circle81"/>
	<circle cx="540.216" cy="793.888" r="4" fill="#0" id="circle82"/>
	<circle cx="540.216" cy="814.511" r="4" fill="#0" id="circle83"/>
	<circle cx="540.216" cy="835.135" r="4" fill="#0" id="circle84"/>
	<circle cx="542.279" cy="975.376" r="4" fill="#0" id="circle85"/>
	<circle cx="554.653" cy="24.6237" r="4" fill="#0" id="circle86"/>
	<circle cx="556.715" cy="593.838" r="4" fill="#0" id="circle87"/>
	<circle cx="560.84" cy="711.393" r="4" fill="#0" id="circle88"/>
	<circle cx="560.84" cy="732.017" r="4" fill="#0" id="circle89"/>
	<circle cx="560.84" cy="752.64" r="4" fill="#0" id="circle90"/>
	<circle cx="560.84" cy="773.264" r="4" fill="#0" id="circle91"/>
	<circle cx="562.902" cy="954.753" r="4" fill="#0" id="circle92"/>
	<circle cx="571.152" cy="610.337" r="4" fill="#0" id="circle93"/>
	<circle cx="571.152" cy="630.96" r="4" fill="#0" id="circle94"/>
	<circle cx="571.152" cy="651.584" r="4" fill="#0" id="circle95"/>
	<circle cx="571.152" cy="672.208" r="4" fill="#0" id="circle96"/>
	<circle cx="571.152" cy="692.832" r="4" fill="#0" id="circle97"/>
	<circle cx="573.214" cy="934.129" r="4" fill="#0" id="circle98"/>
	<circle cx="575.277" cy="24.6237" r="4" fill="#0" id="circle99"/>
	<circle cx="591.775" cy="923.817" r="4" fill="#0" id="circle100"/>
	<circle cx="595.9" cy="24.6237" r="4" fill="#0" id="circle101"/>
	<circle cx="604.15" cy="882.57" r="4" fill="#0" id="circle102"/>
	<circle cx="604.15" cy="903.193" r="4" fill="#0" id="circle103"/>
	<circle cx="616.524" cy="24.6237" r="4" fill="#0" id="circle104"/>
	<circle cx="624.773" cy="872.258" r="4" fill="#0" id="circle105"/>
	<circle cx="626.836" cy="6.06237" r="4" fill="#0" id="circle106"/>
	<circle cx="643.335" cy="861.946" r="4" fill="#0" id="circle107"/>
	<circle cx="647.459" cy="4" r="4" fill="#0" id="circle108"/>
	<circle cx="655.709" cy="820.699" r="4" fill="#0" id="circle109"/>
	<circle cx="655.709" cy="841.322" r="4" fill="#0" id="circle110"/>
	<circle cx="666.021" cy="800.075" r="4" fill="#0" id="circle111"/>
	<circle cx="668.083" cy="4" r="4" fill="#0" id="circle112"/>
	<circle cx="676.333" cy="769.139" r="4" fill="#0" id="circle113"/>
	<circle cx="688.707" cy="4" r="4" fill="#0" id="circle114"/>
	<circle cx="696.956" cy="748.516" r="4" fill="#0" id="circle115"/>
	<circle cx="709.331" cy="4" r="4" fill="#0" id="circle116"/>
	<circle cx="713.455" cy="734.079" r="4" fill="#0" id="circle117"/>
	<circle cx="717.58" cy="707.268" r="4" fill="#0" id="circle118"/>
	<circle cx="729.954" cy="4" r="4" fill="#0" id="circle119"/>
	<circle cx="736.141" cy="696.956" r="4" fill="#0" id="circle120"/>
	<circle cx="750.578" cy="4" r="4" fill="#0" id="circle121"/>
	<circle cx="756.765" cy="690.769" r="4" fill="#0" id="circle122"/>
	<circle cx="769.139" cy="645.397" r="4" fill="#0" id="circle123"/>
	<circle cx="769.139" cy="666.021" r="4" fill="#0" id="circle124"/>
	<circle cx="771.202" cy="4" r="4" fill="#0" id="circle125"/>
	<circle cx="787.701" cy="635.085" r="4" fill="#0" id="circle126"/>
	<circle cx="791.825" cy="4" r="4" fill="#0" id="circle127"/>
	<circle cx="800.075" cy="614.462" r="4" fill="#0" id="circle128"/>
	<circle cx="810.387" cy="593.838" r="4" fill="#0" id="circle129"/>
	<circle cx="812.449" cy="4" r="4" fill="#0" id="circle130"/>
	<circle cx="831.01" cy="593.838" r="4" fill="#0" id="circle131"/>
	<circle cx="833.073" cy="4" r="4" fill="#0" id="circle132"/>
	<circle cx="849.572" cy="583.526" r="4" fill="#0" id="circle133"/>
	<circle cx="853.696" cy="4" r="4" fill="#0" id="circle134"/>
	<circle cx="870.195" cy="583.526" r="4" fill="#0" id="circle135"/>
	<circle cx="874.32" cy="4" r="4" fill="#0" id="circle136"/>
	<circle cx="890.819" cy="577.339" r="4" fill="#0" id="circle137"/>
	<circle cx="892.881" cy="14.3119" r="4" fill="#0" id="circle138"/>
	<circle cx="907.318" cy="560.84" r="4" fill="#0" id="circle139"/>
	<circle cx="909.38" cy="26.6861" r="4" fill="#0" id="circle140"/>
	<circle cx="917.63" cy="542.279" r="4" fill="#0" id="circle141"/>
	<circle cx="930.004" cy="34.9356" r="4" fill="#0" id="circle142"/>
	<circle cx="938.254" cy="540.216" r="4" fill="#0" id="circle143"/>
	<circle cx="948.565" cy="45.2474" r="4" fill="#0" id="circle144"/>
	<circle cx="954.753" cy="65.8711" r="4" fill="#0" id="circle145"/>
	<circle cx="954.753" cy="511.343" r="4" fill="#0" id="circle146"/>
	<circle cx="973.314" cy="76.183" r="4" fill="#0" id="circle147"/>
	<circle cx="975.376" cy="511.343" r="4" fill="#0" id="circle148"/>
	<circle cx="985.688" cy="92.6819" r="4" fill="#0" id="circle149"/>
	<circle cx="985.688" cy="113.306" r="4" fill="#0" id="circle150"/>
	<circle cx="985.688" cy="133.929" r="4" fill="#0" id="circle151"/>
	<circle cx="985.688" cy="154.553" r="4" fill="#0" id="circle152"/>
	<circle cx="985.688" cy="175.177" r="4" fill="#0" id="circle153"/>
	<circle cx="985.688" cy="195.8" r="4" fill="#0" id="circle154"/>
	<circle cx="985.688" cy="216.424" r="4" fill="#0" id="circle155"/>
	<circle cx="985.688" cy="237.048" r="4" fill="#0" id="circle156"/>
	<circle cx="985.688" cy="257.672" r="4" fill="#0" id="circle157"/>
	<circle cx="985.688" cy="278.295" r="4" fill="#0" id="circle158"/>
	<circle cx="985.688" cy="298.919" r="4" fill="#0" id="circle159"/>
	<circle cx="985.688" cy="319.543" r="4" fill="#0" id="circle160"/>
	<circle cx="985.688" cy="340.166" r="4" fill="#0" id="circle161"/>
	<circle cx="985.688" cy="360.79" r="4" fill="#0" id="circle162"/>
	<circle cx="991.875" cy="496.906" r="4" fill="#0" id="circle163"/>
	<circle cx="993.938" cy="381.414" r="4" fill="#0" id="circle164"/>
	<circle cx="996" cy="402.037" r="4" fill="#0" id="circle165"/>
	<circle cx="996" cy="422.661" r="4" fill="#0" id="circle166"/>
	<circle cx="996" cy="443.285" r="4" fill="#0" id="circle167"/>
	<circle cx="996" cy="463.909" r="4" fill="#0" id="circle168"/>
	</g>
</svg>