<?xml version="1.0" encoding="UTF-8" standalone="no"?>
<!-- Created with CurveBenchmark -->
<svg
	xmlns:dc="http://purl.org/dc/elements/1.1/"
	xmlns:cc="http://creativecommons.org/ns#"
	xmlns:rdf="http://www.w3.org/1999/02/22-rdf-syntax-ns#"
	xmlns:svg="http://www.w3.org/2000/svg"
	xmlns="http://www.w3.org/2000/svg"
	xmlns:sodipodi="http://sodipodi.sourceforge.net/DTD/sodipodi-0.dtd"
	xmlns:inkscape="http://www.inkscape.org/namespaces/inkscape"
	width="1000"
	height="1000"
	id="svg2"
	version="1.1"
	sodipodi:docname="manifold/fitconnect-teddy025.png.txt">
<defs
	id="defs4" />
<metadata
	id="metadata7">
	<rdf:RDF>
		<cc:Work
			rdf:about="">
			<dc:format>image/svg+xml</dc:format>
			<dc:type
				rdf:resource="http://purl.org/dc/dcmitype/StillImage" />
			<dc:title></dc:title>
		</cc:Work>
	</rdf:RDF>
</metadata>
<g
	inkscape:label="Layer 1"
	inkscape:groupmode="layer"
	id="layer1">
	<path style="fill:none;stroke:red;stroke-width:1px;stroke-linecap:butt;stroke-linejoin:miter;stroke-opacity:1" d="M 4,846.211 6.82621,874.473 z" id="boundary" inkscape:connector-curvature="0" />
	<path style="fill:none;stroke:red;stroke-width:1px;stroke-linecap:butt;stroke-linejoin:miter;stroke-opacity:1" d="M 4,846.211 15.3048,806.644 z" id="boundary" inkscape:connector-curvature="0" />
	<path style="fill:none;stroke:red;stroke-width:1px;stroke-linecap:butt;stroke-linejoin:miter;stroke-opacity:1" d="M 6.82621,874.473 9.65242,902.735 z" id="boundary" inkscape:connector-curvature="0" />
	<path style="fill:none;stroke:red;stroke-width:1px;stroke-linecap:butt;stroke-linejoin:miter;stroke-opacity:1" d="M 9.65242,495.761 9.65242,524.023 z" id="boundary" inkscape:connector-curvature="0" />
	<path style="fill:none;stroke:red;stroke-width:1px;stroke-linecap:butt;stroke-linejoin:miter;stroke-opacity:1" d="M 9.65242,495.761 23.7835,470.325 z" id="boundary" inkscape:connector-curvature="0" />
	<path style="fill:none;stroke:red;stroke-width:1px;stroke-linecap:butt;stroke-linejoin:miter;stroke-opacity:1" d="M 9.65242,524.023 15.3048,552.285 z" id="boundary" inkscape:connector-curvature="0" />
	<path style="fill:none;stroke:red;stroke-width:1px;stroke-linecap:butt;stroke-linejoin:miter;stroke-opacity:1" d="M 9.65242,902.735 9.65242,930.997 z" id="boundary" inkscape:connector-curvature="0" />
	<path style="fill:none;stroke:red;stroke-width:1px;stroke-linecap:butt;stroke-linejoin:miter;stroke-opacity:1" d="M 9.65242,930.997 26.6097,953.607 z" id="boundary" inkscape:connector-curvature="0" />
	<path style="fill:none;stroke:red;stroke-width:1px;stroke-linecap:butt;stroke-linejoin:miter;stroke-opacity:1" d="M 15.3048,552.285 26.6097,580.547 z" id="boundary" inkscape:connector-curvature="0" />
	<path style="fill:none;stroke:red;stroke-width:1px;stroke-linecap:butt;stroke-linejoin:miter;stroke-opacity:1" d="M 15.3048,806.644 26.6097,767.077 z" id="boundary" inkscape:connector-curvature="0" />
	<path style="fill:none;stroke:red;stroke-width:1px;stroke-linecap:butt;stroke-linejoin:miter;stroke-opacity:1" d="M 23.7835,470.325 46.3932,453.368 z" id="boundary" inkscape:connector-curvature="0" />
	<path style="fill:none;stroke:red;stroke-width:1px;stroke-linecap:butt;stroke-linejoin:miter;stroke-opacity:1" d="M 26.6097,580.547 46.3932,603.157 z" id="boundary" inkscape:connector-curvature="0" />
	<path style="fill:none;stroke:red;stroke-width:1px;stroke-linecap:butt;stroke-linejoin:miter;stroke-opacity:1" d="M 26.6097,767.077 49.2194,750.12 z" id="boundary" inkscape:connector-curvature="0" />
	<path style="fill:none;stroke:red;stroke-width:1px;stroke-linecap:butt;stroke-linejoin:miter;stroke-opacity:1" d="M 26.6097,953.607 49.2194,970.564 z" id="boundary" inkscape:connector-curvature="0" />
	<path style="fill:none;stroke:red;stroke-width:1px;stroke-linecap:butt;stroke-linejoin:miter;stroke-opacity:1" d="M 46.3932,453.368 74.6553,444.889 z" id="boundary" inkscape:connector-curvature="0" />
	<path style="fill:none;stroke:red;stroke-width:1px;stroke-linecap:butt;stroke-linejoin:miter;stroke-opacity:1" d="M 46.3932,603.157 71.8291,617.288 z" id="boundary" inkscape:connector-curvature="0" />
	<path style="fill:none;stroke:red;stroke-width:1px;stroke-linecap:butt;stroke-linejoin:miter;stroke-opacity:1" d="M 49.2194,750.12 71.8291,733.162 z" id="boundary" inkscape:connector-curvature="0" />
	<path style="fill:none;stroke:red;stroke-width:1px;stroke-linecap:butt;stroke-linejoin:miter;stroke-opacity:1" d="M 49.2194,970.564 74.6553,984.695 z" id="boundary" inkscape:connector-curvature="0" />
	<path style="fill:none;stroke:red;stroke-width:1px;stroke-linecap:butt;stroke-linejoin:miter;stroke-opacity:1" d="M 71.8291,617.288 94.4387,634.245 z" id="boundary" inkscape:connector-curvature="0" />
	<path style="fill:none;stroke:red;stroke-width:1px;stroke-linecap:butt;stroke-linejoin:miter;stroke-opacity:1" d="M 71.8291,733.162 100.091,727.51 z" id="boundary" inkscape:connector-curvature="0" />
	<path style="fill:none;stroke:red;stroke-width:1px;stroke-linecap:butt;stroke-linejoin:miter;stroke-opacity:1" d="M 74.6553,444.889 102.917,433.584 z" id="boundary" inkscape:connector-curvature="0" />
	<path style="fill:none;stroke:red;stroke-width:1px;stroke-linecap:butt;stroke-linejoin:miter;stroke-opacity:1" d="M 74.6553,984.695 102.917,996 z" id="boundary" inkscape:connector-curvature="0" />
	<path style="fill:none;stroke:red;stroke-width:1px;stroke-linecap:butt;stroke-linejoin:miter;stroke-opacity:1" d="M 94.4387,634.245 122.701,642.724 z" id="boundary" inkscape:connector-curvature="0" />
	<path style="fill:none;stroke:red;stroke-width:1px;stroke-linecap:butt;stroke-linejoin:miter;stroke-opacity:1" d="M 100.091,727.51 128.353,727.51 z" id="boundary" inkscape:connector-curvature="0" />
	<path style="fill:none;stroke:red;stroke-width:1px;stroke-linecap:butt;stroke-linejoin:miter;stroke-opacity:1" d="M 102.917,433.584 131.179,433.584 z" id="boundary" inkscape:connector-curvature="0" />
	<path style="fill:none;stroke:red;stroke-width:1px;stroke-linecap:butt;stroke-linejoin:miter;stroke-opacity:1" d="M 102.917,996 131.179,996 z" id="boundary" inkscape:connector-curvature="0" />
	<path style="fill:none;stroke:red;stroke-width:1px;stroke-linecap:butt;stroke-linejoin:miter;stroke-opacity:1" d="M 122.701,642.724 150.963,651.202 z" id="boundary" inkscape:connector-curvature="0" />
	<path style="fill:none;stroke:red;stroke-width:1px;stroke-linecap:butt;stroke-linejoin:miter;stroke-opacity:1" d="M 128.353,727.51 156.615,727.51 z" id="boundary" inkscape:connector-curvature="0" />
	<path style="fill:none;stroke:red;stroke-width:1px;stroke-linecap:butt;stroke-linejoin:miter;stroke-opacity:1" d="M 131.179,433.584 159.442,427.932 z" id="boundary" inkscape:connector-curvature="0" />
	<path style="fill:none;stroke:red;stroke-width:1px;stroke-linecap:butt;stroke-linejoin:miter;stroke-opacity:1" d="M 131.179,996 159.442,996 z" id="boundary" inkscape:connector-curvature="0" />
	<path style="fill:none;stroke:red;stroke-width:1px;stroke-linecap:butt;stroke-linejoin:miter;stroke-opacity:1" d="M 150.963,651.202 179.225,662.507 z" id="boundary" inkscape:connector-curvature="0" />
	<path style="fill:none;stroke:red;stroke-width:1px;stroke-linecap:butt;stroke-linejoin:miter;stroke-opacity:1" d="M 156.615,727.51 184.877,733.162 z" id="boundary" inkscape:connector-curvature="0" />
	<path style="fill:none;stroke:red;stroke-width:1px;stroke-linecap:butt;stroke-linejoin:miter;stroke-opacity:1" d="M 159.442,427.932 176.399,405.322 z" id="boundary" inkscape:connector-curvature="0" />
	<path style="fill:none;stroke:red;stroke-width:1px;stroke-linecap:butt;stroke-linejoin:miter;stroke-opacity:1" d="M 159.442,996 187.704,996 z" id="boundary" inkscape:connector-curvature="0" />
	<path style="fill:none;stroke:red;stroke-width:1px;stroke-linecap:butt;stroke-linejoin:miter;stroke-opacity:1" d="M 176.399,405.322 204.661,394.017 z" id="boundary" inkscape:connector-curvature="0" />
	<path style="fill:none;stroke:red;stroke-width:1px;stroke-linecap:butt;stroke-linejoin:miter;stroke-opacity:1" d="M 179.225,662.507 207.487,656.855 z" id="boundary" inkscape:connector-curvature="0" />
	<path style="fill:none;stroke:red;stroke-width:1px;stroke-linecap:butt;stroke-linejoin:miter;stroke-opacity:1" d="M 184.877,733.162 213.14,721.858 z" id="boundary" inkscape:connector-curvature="0" />
	<path style="fill:none;stroke:red;stroke-width:1px;stroke-linecap:butt;stroke-linejoin:miter;stroke-opacity:1" d="M 187.704,996 215.966,990.348 z" id="boundary" inkscape:connector-curvature="0" />
	<path style="fill:none;stroke:red;stroke-width:1px;stroke-linecap:butt;stroke-linejoin:miter;stroke-opacity:1" d="M 204.661,394.017 232.923,385.538 z" id="boundary" inkscape:connector-curvature="0" />
	<path style="fill:none;stroke:red;stroke-width:1px;stroke-linecap:butt;stroke-linejoin:miter;stroke-opacity:1" d="M 207.487,656.855 230.097,673.812 z" id="boundary" inkscape:connector-curvature="0" />
	<path style="fill:none;stroke:red;stroke-width:1px;stroke-linecap:butt;stroke-linejoin:miter;stroke-opacity:1" d="M 213.14,721.858 241.402,716.205 z" id="boundary" inkscape:connector-curvature="0" />
	<path style="fill:none;stroke:red;stroke-width:1px;stroke-linecap:butt;stroke-linejoin:miter;stroke-opacity:1" d="M 215.966,990.348 244.228,976.217 z" id="boundary" inkscape:connector-curvature="0" />
	<path style="fill:none;stroke:red;stroke-width:1px;stroke-linecap:butt;stroke-linejoin:miter;stroke-opacity:1" d="M 230.097,60.5242 230.097,88.7863 z" id="boundary" inkscape:connector-curvature="0" />
	<path style="fill:none;stroke:red;stroke-width:1px;stroke-linecap:butt;stroke-linejoin:miter;stroke-opacity:1" d="M 230.097,60.5242 247.054,37.9145 z" id="boundary" inkscape:connector-curvature="0" />
	<path style="fill:none;stroke:red;stroke-width:1px;stroke-linecap:butt;stroke-linejoin:miter;stroke-opacity:1" d="M 230.097,88.7863 235.749,117.048 z" id="boundary" inkscape:connector-curvature="0" />
	<path style="fill:none;stroke:red;stroke-width:1px;stroke-linecap:butt;stroke-linejoin:miter;stroke-opacity:1" d="M 230.097,673.812 258.359,668.16 z" id="boundary" inkscape:connector-curvature="0" />
	<path style="fill:none;stroke:red;stroke-width:1px;stroke-linecap:butt;stroke-linejoin:miter;stroke-opacity:1" d="M 232.923,385.538 261.185,382.712 z" id="boundary" inkscape:connector-curvature="0" />
	<path style="fill:none;stroke:red;stroke-width:1px;stroke-linecap:butt;stroke-linejoin:miter;stroke-opacity:1" d="M 235.749,117.048 247.054,145.311 z" id="boundary" inkscape:connector-curvature="0" />
	<path style="fill:none;stroke:red;stroke-width:1px;stroke-linecap:butt;stroke-linejoin:miter;stroke-opacity:1" d="M 241.402,716.205 264.011,696.422 z" id="boundary" inkscape:connector-curvature="0" />
	<path style="fill:none;stroke:red;stroke-width:1px;stroke-linecap:butt;stroke-linejoin:miter;stroke-opacity:1" d="M 244.228,976.217 272.49,970.564 z" id="boundary" inkscape:connector-curvature="0" />
	<path style="fill:none;stroke:red;stroke-width:1px;stroke-linecap:butt;stroke-linejoin:miter;stroke-opacity:1" d="M 247.054,37.9145 269.664,20.9573 z" id="boundary" inkscape:connector-curvature="0" />
	<path style="fill:none;stroke:red;stroke-width:1px;stroke-linecap:butt;stroke-linejoin:miter;stroke-opacity:1" d="M 247.054,145.311 258.359,173.573 z" id="boundary" inkscape:connector-curvature="0" />
	<path style="fill:none;stroke:red;stroke-width:1px;stroke-linecap:butt;stroke-linejoin:miter;stroke-opacity:1" d="M 252.707,264.011 258.359,213.14 z" id="boundary" inkscape:connector-curvature="0" />
	<path style="fill:none;stroke:red;stroke-width:1px;stroke-linecap:butt;stroke-linejoin:miter;stroke-opacity:1" d="M 252.707,264.011 258.359,292.274 z" id="boundary" inkscape:connector-curvature="0" />
	<path style="fill:none;stroke:red;stroke-width:1px;stroke-linecap:butt;stroke-linejoin:miter;stroke-opacity:1" d="M 258.359,173.573 258.359,213.14 z" id="boundary" inkscape:connector-curvature="0" />
	<path style="fill:none;stroke:red;stroke-width:1px;stroke-linecap:butt;stroke-linejoin:miter;stroke-opacity:1" d="M 258.359,292.274 264.011,320.536 z" id="boundary" inkscape:connector-curvature="0" />
	<path style="fill:none;stroke:red;stroke-width:1px;stroke-linecap:butt;stroke-linejoin:miter;stroke-opacity:1" d="M 258.359,668.16 264.011,696.422 z" id="boundary" inkscape:connector-curvature="0" />
	<path style="fill:none;stroke:red;stroke-width:1px;stroke-linecap:butt;stroke-linejoin:miter;stroke-opacity:1" d="M 261.185,382.712 289.447,374.234 z" id="boundary" inkscape:connector-curvature="0" />
	<path style="fill:none;stroke:red;stroke-width:1px;stroke-linecap:butt;stroke-linejoin:miter;stroke-opacity:1" d="M 264.011,320.536 275.316,348.798 z" id="boundary" inkscape:connector-curvature="0" />
	<path style="fill:none;stroke:red;stroke-width:1px;stroke-linecap:butt;stroke-linejoin:miter;stroke-opacity:1" d="M 269.664,20.9573 297.926,9.65242 z" id="boundary" inkscape:connector-curvature="0" />
	<path style="fill:none;stroke:red;stroke-width:1px;stroke-linecap:butt;stroke-linejoin:miter;stroke-opacity:1" d="M 272.49,970.564 300.752,973.39 z" id="boundary" inkscape:connector-curvature="0" />
	<path style="fill:none;stroke:red;stroke-width:1px;stroke-linecap:butt;stroke-linejoin:miter;stroke-opacity:1" d="M 275.316,348.798 289.447,374.234 z" id="boundary" inkscape:connector-curvature="0" />
	<path style="fill:none;stroke:red;stroke-width:1px;stroke-linecap:butt;stroke-linejoin:miter;stroke-opacity:1" d="M 297.926,9.65242 326.188,4 z" id="boundary" inkscape:connector-curvature="0" />
	<path style="fill:none;stroke:red;stroke-width:1px;stroke-linecap:butt;stroke-linejoin:miter;stroke-opacity:1" d="M 300.752,973.39 329.014,979.043 z" id="boundary" inkscape:connector-curvature="0" />
	<path style="fill:none;stroke:red;stroke-width:1px;stroke-linecap:butt;stroke-linejoin:miter;stroke-opacity:1" d="M 326.188,4 354.45,9.65242 z" id="boundary" inkscape:connector-curvature="0" />
	<path style="fill:none;stroke:red;stroke-width:1px;stroke-linecap:butt;stroke-linejoin:miter;stroke-opacity:1" d="M 329.014,979.043 357.276,984.695 z" id="boundary" inkscape:connector-curvature="0" />
	<path style="fill:none;stroke:red;stroke-width:1px;stroke-linecap:butt;stroke-linejoin:miter;stroke-opacity:1" d="M 354.45,9.65242 382.712,15.3048 z" id="boundary" inkscape:connector-curvature="0" />
	<path style="fill:none;stroke:red;stroke-width:1px;stroke-linecap:butt;stroke-linejoin:miter;stroke-opacity:1" d="M 357.276,984.695 385.538,984.695 z" id="boundary" inkscape:connector-curvature="0" />
	<path style="fill:none;stroke:red;stroke-width:1px;stroke-linecap:butt;stroke-linejoin:miter;stroke-opacity:1" d="M 382.712,15.3048 408.148,29.4359 z" id="boundary" inkscape:connector-curvature="0" />
	<path style="fill:none;stroke:red;stroke-width:1px;stroke-linecap:butt;stroke-linejoin:miter;stroke-opacity:1" d="M 385.538,984.695 413.801,990.348 z" id="boundary" inkscape:connector-curvature="0" />
	<path style="fill:none;stroke:red;stroke-width:1px;stroke-linecap:butt;stroke-linejoin:miter;stroke-opacity:1" d="M 408.148,29.4359 433.584,43.567 z" id="boundary" inkscape:connector-curvature="0" />
	<path style="fill:none;stroke:red;stroke-width:1px;stroke-linecap:butt;stroke-linejoin:miter;stroke-opacity:1" d="M 413.801,990.348 442.063,996 z" id="boundary" inkscape:connector-curvature="0" />
	<path style="fill:none;stroke:red;stroke-width:1px;stroke-linecap:butt;stroke-linejoin:miter;stroke-opacity:1" d="M 433.584,43.567 461.846,43.567 z" id="boundary" inkscape:connector-curvature="0" />
	<path style="fill:none;stroke:red;stroke-width:1px;stroke-linecap:butt;stroke-linejoin:miter;stroke-opacity:1" d="M 442.063,996 470.325,996 z" id="boundary" inkscape:connector-curvature="0" />
	<path style="fill:none;stroke:red;stroke-width:1px;stroke-linecap:butt;stroke-linejoin:miter;stroke-opacity:1" d="M 461.846,43.567 490.108,37.9145 z" id="boundary" inkscape:connector-curvature="0" />
	<path style="fill:none;stroke:red;stroke-width:1px;stroke-linecap:butt;stroke-linejoin:miter;stroke-opacity:1" d="M 470.325,996 498.587,996 z" id="boundary" inkscape:connector-curvature="0" />
	<path style="fill:none;stroke:red;stroke-width:1px;stroke-linecap:butt;stroke-linejoin:miter;stroke-opacity:1" d="M 490.108,37.9145 518.37,43.567 z" id="boundary" inkscape:connector-curvature="0" />
	<path style="fill:none;stroke:red;stroke-width:1px;stroke-linecap:butt;stroke-linejoin:miter;stroke-opacity:1" d="M 498.587,996 526.849,996 z" id="boundary" inkscape:connector-curvature="0" />
	<path style="fill:none;stroke:red;stroke-width:1px;stroke-linecap:butt;stroke-linejoin:miter;stroke-opacity:1" d="M 518.37,43.567 546.632,43.567 z" id="boundary" inkscape:connector-curvature="0" />
	<path style="fill:none;stroke:red;stroke-width:1px;stroke-linecap:butt;stroke-linejoin:miter;stroke-opacity:1" d="M 526.849,996 555.111,996 z" id="boundary" inkscape:connector-curvature="0" />
	<path style="fill:none;stroke:red;stroke-width:1px;stroke-linecap:butt;stroke-linejoin:miter;stroke-opacity:1" d="M 546.632,43.567 574.895,37.9145 z" id="boundary" inkscape:connector-curvature="0" />
	<path style="fill:none;stroke:red;stroke-width:1px;stroke-linecap:butt;stroke-linejoin:miter;stroke-opacity:1" d="M 555.111,996 583.373,990.348 z" id="boundary" inkscape:connector-curvature="0" />
	<path style="fill:none;stroke:red;stroke-width:1px;stroke-linecap:butt;stroke-linejoin:miter;stroke-opacity:1" d="M 574.895,37.9145 603.157,26.6097 z" id="boundary" inkscape:connector-curvature="0" />
	<path style="fill:none;stroke:red;stroke-width:1px;stroke-linecap:butt;stroke-linejoin:miter;stroke-opacity:1" d="M 583.373,990.348 611.635,990.348 z" id="boundary" inkscape:connector-curvature="0" />
	<path style="fill:none;stroke:red;stroke-width:1px;stroke-linecap:butt;stroke-linejoin:miter;stroke-opacity:1" d="M 603.157,26.6097 631.419,15.3048 z" id="boundary" inkscape:connector-curvature="0" />
	<path style="fill:none;stroke:red;stroke-width:1px;stroke-linecap:butt;stroke-linejoin:miter;stroke-opacity:1" d="M 611.635,990.348 639.897,990.348 z" id="boundary" inkscape:connector-curvature="0" />
	<path style="fill:none;stroke:red;stroke-width:1px;stroke-linecap:butt;stroke-linejoin:miter;stroke-opacity:1" d="M 631.419,15.3048 659.681,4 z" id="boundary" inkscape:connector-curvature="0" />
	<path style="fill:none;stroke:red;stroke-width:1px;stroke-linecap:butt;stroke-linejoin:miter;stroke-opacity:1" d="M 639.897,990.348 668.16,996 z" id="boundary" inkscape:connector-curvature="0" />
	<path style="fill:none;stroke:red;stroke-width:1px;stroke-linecap:butt;stroke-linejoin:miter;stroke-opacity:1" d="M 659.681,4 687.943,4 z" id="boundary" inkscape:connector-curvature="0" />
	<path style="fill:none;stroke:red;stroke-width:1px;stroke-linecap:butt;stroke-linejoin:miter;stroke-opacity:1" d="M 668.16,996 696.422,996 z" id="boundary" inkscape:connector-curvature="0" />
	<path style="fill:none;stroke:red;stroke-width:1px;stroke-linecap:butt;stroke-linejoin:miter;stroke-opacity:1" d="M 687.943,4 716.205,15.3048 z" id="boundary" inkscape:connector-curvature="0" />
	<path style="fill:none;stroke:red;stroke-width:1px;stroke-linecap:butt;stroke-linejoin:miter;stroke-opacity:1" d="M 696.422,665.333 702.074,693.595 z" id="boundary" inkscape:connector-curvature="0" />
	<path style="fill:none;stroke:red;stroke-width:1px;stroke-linecap:butt;stroke-linejoin:miter;stroke-opacity:1" d="M 696.422,665.333 724.684,668.16 z" id="boundary" inkscape:connector-curvature="0" />
	<path style="fill:none;stroke:red;stroke-width:1px;stroke-linecap:butt;stroke-linejoin:miter;stroke-opacity:1" d="M 696.422,996 724.684,996 z" id="boundary" inkscape:connector-curvature="0" />
	<path style="fill:none;stroke:red;stroke-width:1px;stroke-linecap:butt;stroke-linejoin:miter;stroke-opacity:1" d="M 699.248,374.234 713.379,343.145 z" id="boundary" inkscape:connector-curvature="0" />
	<path style="fill:none;stroke:red;stroke-width:1px;stroke-linecap:butt;stroke-linejoin:miter;stroke-opacity:1" d="M 699.248,374.234 727.51,382.712 z" id="boundary" inkscape:connector-curvature="0" />
	<path style="fill:none;stroke:red;stroke-width:1px;stroke-linecap:butt;stroke-linejoin:miter;stroke-opacity:1" d="M 702.074,693.595 716.205,719.031 z" id="boundary" inkscape:connector-curvature="0" />
	<path style="fill:none;stroke:red;stroke-width:1px;stroke-linecap:butt;stroke-linejoin:miter;stroke-opacity:1" d="M 713.379,343.145 724.684,309.231 z" id="boundary" inkscape:connector-curvature="0" />
	<path style="fill:none;stroke:red;stroke-width:1px;stroke-linecap:butt;stroke-linejoin:miter;stroke-opacity:1" d="M 716.205,15.3048 744.467,26.6097 z" id="boundary" inkscape:connector-curvature="0" />
	<path style="fill:none;stroke:red;stroke-width:1px;stroke-linecap:butt;stroke-linejoin:miter;stroke-opacity:1" d="M 716.205,719.031 744.467,727.51 z" id="boundary" inkscape:connector-curvature="0" />
	<path style="fill:none;stroke:red;stroke-width:1px;stroke-linecap:butt;stroke-linejoin:miter;stroke-opacity:1" d="M 724.684,309.231 730.336,264.011 z" id="boundary" inkscape:connector-curvature="0" />
	<path style="fill:none;stroke:red;stroke-width:1px;stroke-linecap:butt;stroke-linejoin:miter;stroke-opacity:1" d="M 724.684,668.16 752.946,662.507 z" id="boundary" inkscape:connector-curvature="0" />
	<path style="fill:none;stroke:red;stroke-width:1px;stroke-linecap:butt;stroke-linejoin:miter;stroke-opacity:1" d="M 724.684,996 752.946,996 z" id="boundary" inkscape:connector-curvature="0" />
	<path style="fill:none;stroke:red;stroke-width:1px;stroke-linecap:butt;stroke-linejoin:miter;stroke-opacity:1" d="M 727.51,382.712 755.772,388.365 z" id="boundary" inkscape:connector-curvature="0" />
	<path style="fill:none;stroke:red;stroke-width:1px;stroke-linecap:butt;stroke-linejoin:miter;stroke-opacity:1" d="M 730.336,264.011 735.989,218.792 z" id="boundary" inkscape:connector-curvature="0" />
	<path style="fill:none;stroke:red;stroke-width:1px;stroke-linecap:butt;stroke-linejoin:miter;stroke-opacity:1" d="M 735.989,190.53 735.989,218.792 z" id="boundary" inkscape:connector-curvature="0" />
	<path style="fill:none;stroke:red;stroke-width:1px;stroke-linecap:butt;stroke-linejoin:miter;stroke-opacity:1" d="M 735.989,190.53 750.12,165.094 z" id="boundary" inkscape:connector-curvature="0" />
	<path style="fill:none;stroke:red;stroke-width:1px;stroke-linecap:butt;stroke-linejoin:miter;stroke-opacity:1" d="M 744.467,26.6097 761.425,49.2194 z" id="boundary" inkscape:connector-curvature="0" />
	<path style="fill:none;stroke:red;stroke-width:1px;stroke-linecap:butt;stroke-linejoin:miter;stroke-opacity:1" d="M 744.467,727.51 772.729,738.815 z" id="boundary" inkscape:connector-curvature="0" />
	<path style="fill:none;stroke:red;stroke-width:1px;stroke-linecap:butt;stroke-linejoin:miter;stroke-opacity:1" d="M 750.12,165.094 761.425,136.832 z" id="boundary" inkscape:connector-curvature="0" />
	<path style="fill:none;stroke:red;stroke-width:1px;stroke-linecap:butt;stroke-linejoin:miter;stroke-opacity:1" d="M 752.946,662.507 781.208,651.202 z" id="boundary" inkscape:connector-curvature="0" />
	<path style="fill:none;stroke:red;stroke-width:1px;stroke-linecap:butt;stroke-linejoin:miter;stroke-opacity:1" d="M 752.946,996 781.208,993.174 z" id="boundary" inkscape:connector-curvature="0" />
	<path style="fill:none;stroke:red;stroke-width:1px;stroke-linecap:butt;stroke-linejoin:miter;stroke-opacity:1" d="M 755.772,388.365 784.034,399.67 z" id="boundary" inkscape:connector-curvature="0" />
	<path style="fill:none;stroke:red;stroke-width:1px;stroke-linecap:butt;stroke-linejoin:miter;stroke-opacity:1" d="M 761.425,49.2194 769.903,100.091 z" id="boundary" inkscape:connector-curvature="0" />
	<path style="fill:none;stroke:red;stroke-width:1px;stroke-linecap:butt;stroke-linejoin:miter;stroke-opacity:1" d="M 761.425,136.832 769.903,100.091 z" id="boundary" inkscape:connector-curvature="0" />
	<path style="fill:none;stroke:red;stroke-width:1px;stroke-linecap:butt;stroke-linejoin:miter;stroke-opacity:1" d="M 772.729,738.815 795.339,755.772 z" id="boundary" inkscape:connector-curvature="0" />
	<path style="fill:none;stroke:red;stroke-width:1px;stroke-linecap:butt;stroke-linejoin:miter;stroke-opacity:1" d="M 781.208,651.202 806.644,634.245 z" id="boundary" inkscape:connector-curvature="0" />
	<path style="fill:none;stroke:red;stroke-width:1px;stroke-linecap:butt;stroke-linejoin:miter;stroke-opacity:1" d="M 781.208,993.174 803.818,976.217 z" id="boundary" inkscape:connector-curvature="0" />
	<path style="fill:none;stroke:red;stroke-width:1px;stroke-linecap:butt;stroke-linejoin:miter;stroke-opacity:1" d="M 784.034,399.67 809.47,413.801 z" id="boundary" inkscape:connector-curvature="0" />
	<path style="fill:none;stroke:red;stroke-width:1px;stroke-linecap:butt;stroke-linejoin:miter;stroke-opacity:1" d="M 795.339,755.772 809.47,781.208 z" id="boundary" inkscape:connector-curvature="0" />
	<path style="fill:none;stroke:red;stroke-width:1px;stroke-linecap:butt;stroke-linejoin:miter;stroke-opacity:1" d="M 803.818,976.217 826.427,953.607 z" id="boundary" inkscape:connector-curvature="0" />
	<path style="fill:none;stroke:red;stroke-width:1px;stroke-linecap:butt;stroke-linejoin:miter;stroke-opacity:1" d="M 806.644,634.245 832.08,620.114 z" id="boundary" inkscape:connector-curvature="0" />
	<path style="fill:none;stroke:red;stroke-width:1px;stroke-linecap:butt;stroke-linejoin:miter;stroke-opacity:1" d="M 809.47,413.801 826.427,436.41 z" id="boundary" inkscape:connector-curvature="0" />
	<path style="fill:none;stroke:red;stroke-width:1px;stroke-linecap:butt;stroke-linejoin:miter;stroke-opacity:1" d="M 809.47,781.208 820.775,809.47 z" id="boundary" inkscape:connector-curvature="0" />
	<path style="fill:none;stroke:red;stroke-width:1px;stroke-linecap:butt;stroke-linejoin:miter;stroke-opacity:1" d="M 820.775,809.47 826.427,837.732 z" id="boundary" inkscape:connector-curvature="0" />
	<path style="fill:none;stroke:red;stroke-width:1px;stroke-linecap:butt;stroke-linejoin:miter;stroke-opacity:1" d="M 826.427,436.41 849.037,453.368 z" id="boundary" inkscape:connector-curvature="0" />
	<path style="fill:none;stroke:red;stroke-width:1px;stroke-linecap:butt;stroke-linejoin:miter;stroke-opacity:1" d="M 826.427,837.732 832.08,865.994 z" id="boundary" inkscape:connector-curvature="0" />
	<path style="fill:none;stroke:red;stroke-width:1px;stroke-linecap:butt;stroke-linejoin:miter;stroke-opacity:1" d="M 826.427,953.607 832.08,922.519 z" id="boundary" inkscape:connector-curvature="0" />
	<path style="fill:none;stroke:red;stroke-width:1px;stroke-linecap:butt;stroke-linejoin:miter;stroke-opacity:1" d="M 832.08,620.114 854.689,597.504 z" id="boundary" inkscape:connector-curvature="0" />
	<path style="fill:none;stroke:red;stroke-width:1px;stroke-linecap:butt;stroke-linejoin:miter;stroke-opacity:1" d="M 832.08,865.994 832.08,894.256 z" id="boundary" inkscape:connector-curvature="0" />
	<path style="fill:none;stroke:red;stroke-width:1px;stroke-linecap:butt;stroke-linejoin:miter;stroke-opacity:1" d="M 832.08,894.256 832.08,922.519 z" id="boundary" inkscape:connector-curvature="0" />
	<path style="fill:none;stroke:red;stroke-width:1px;stroke-linecap:butt;stroke-linejoin:miter;stroke-opacity:1" d="M 849.037,453.368 871.647,473.151 z" id="boundary" inkscape:connector-curvature="0" />
	<path style="fill:none;stroke:red;stroke-width:1px;stroke-linecap:butt;stroke-linejoin:miter;stroke-opacity:1" d="M 854.689,597.504 877.299,574.895 z" id="boundary" inkscape:connector-curvature="0" />
	<path style="fill:none;stroke:red;stroke-width:1px;stroke-linecap:butt;stroke-linejoin:miter;stroke-opacity:1" d="M 871.647,473.151 882.952,501.413 z" id="boundary" inkscape:connector-curvature="0" />
	<path style="fill:none;stroke:red;stroke-width:1px;stroke-linecap:butt;stroke-linejoin:miter;stroke-opacity:1" d="M 877.299,574.895 888.604,529.675 z" id="boundary" inkscape:connector-curvature="0" />
	<path style="fill:none;stroke:red;stroke-width:1px;stroke-linecap:butt;stroke-linejoin:miter;stroke-opacity:1" d="M 882.952,501.413 888.604,529.675 z" id="boundary" inkscape:connector-curvature="0" />
	<circle cx="4" cy="846.211" r="4" fill="#0" id="circle0"/>
	<circle cx="6.82621" cy="874.473" r="4" fill="#0" id="circle1"/>
	<circle cx="9.65242" cy="495.761" r="4" fill="#0" id="circle2"/>
	<circle cx="9.65242" cy="524.023" r="4" fill="#0" id="circle3"/>
	<circle cx="9.65242" cy="902.735" r="4" fill="#0" id="circle4"/>
	<circle cx="9.65242" cy="930.997" r="4" fill="#0" id="circle5"/>
	<circle cx="15.3048" cy="552.285" r="4" fill="#0" id="circle6"/>
	<circle cx="15.3048" cy="806.644" r="4" fill="#0" id="circle7"/>
	<circle cx="23.7835" cy="470.325" r="4" fill="#0" id="circle8"/>
	<circle cx="26.6097" cy="580.547" r="4" fill="#0" id="circle9"/>
	<circle cx="26.6097" cy="767.077" r="4" fill="#0" id="circle10"/>
	<circle cx="26.6097" cy="953.607" r="4" fill="#0" id="circle11"/>
	<circle cx="46.3932" cy="453.368" r="4" fill="#0" id="circle12"/>
	<circle cx="46.3932" cy="603.157" r="4" fill="#0" id="circle13"/>
	<circle cx="49.2194" cy="750.12" r="4" fill="#0" id="circle14"/>
	<circle cx="49.2194" cy="970.564" r="4" fill="#0" id="circle15"/>
	<circle cx="71.8291" cy="617.288" r="4" fill="#0" id="circle16"/>
	<circle cx="71.8291" cy="733.162" r="4" fill="#0" id="circle17"/>
	<circle cx="74.6553" cy="444.889" r="4" fill="#0" id="circle18"/>
	<circle cx="74.6553" cy="984.695" r="4" fill="#0" id="circle19"/>
	<circle cx="94.4387" cy="634.245" r="4" fill="#0" id="circle20"/>
	<circle cx="100.091" cy="727.51" r="4" fill="#0" id="circle21"/>
	<circle cx="102.917" cy="433.584" r="4" fill="#0" id="circle22"/>
	<circle cx="102.917" cy="996" r="4" fill="#0" id="circle23"/>
	<circle cx="122.701" cy="642.724" r="4" fill="#0" id="circle24"/>
	<circle cx="128.353" cy="727.51" r="4" fill="#0" id="circle25"/>
	<circle cx="131.179" cy="433.584" r="4" fill="#0" id="circle26"/>
	<circle cx="131.179" cy="996" r="4" fill="#0" id="circle27"/>
	<circle cx="150.963" cy="651.202" r="4" fill="#0" id="circle28"/>
	<circle cx="156.615" cy="727.51" r="4" fill="#0" id="circle29"/>
	<circle cx="159.442" cy="427.932" r="4" fill="#0" id="circle30"/>
	<circle cx="159.442" cy="996" r="4" fill="#0" id="circle31"/>
	<circle cx="176.399" cy="405.322" r="4" fill="#0" id="circle32"/>
	<circle cx="179.225" cy="662.507" r="4" fill="#0" id="circle33"/>
	<circle cx="184.877" cy="733.162" r="4" fill="#0" id="circle34"/>
	<circle cx="187.704" cy="996" r="4" fill="#0" id="circle35"/>
	<circle cx="204.661" cy="394.017" r="4" fill="#0" id="circle36"/>
	<circle cx="207.487" cy="656.855" r="4" fill="#0" id="circle37"/>
	<circle cx="213.14" cy="721.858" r="4" fill="#0" id="circle38"/>
	<circle cx="215.966" cy="990.348" r="4" fill="#0" id="circle39"/>
	<circle cx="230.097" cy="60.5242" r="4" fill="#0" id="circle40"/>
	<circle cx="230.097" cy="88.7863" r="4" fill="#0" id="circle41"/>
	<circle cx="230.097" cy="673.812" r="4" fill="#0" id="circle42"/>
	<circle cx="232.923" cy="385.538" r="4" fill="#0" id="circle43"/>
	<circle cx="235.749" cy="117.048" r="4" fill="#0" id="circle44"/>
	<circle cx="241.402" cy="716.205" r="4" fill="#0" id="circle45"/>
	<circle cx="244.228" cy="976.217" r="4" fill="#0" id="circle46"/>
	<circle cx="247.054" cy="37.9145" r="4" fill="#0" id="circle47"/>
	<circle cx="247.054" cy="145.311" r="4" fill="#0" id="circle48"/>
	<circle cx="252.707" cy="264.011" r="4" fill="#0" id="circle49"/>
	<circle cx="258.359" cy="173.573" r="4" fill="#0" id="circle50"/>
	<circle cx="258.359" cy="213.14" r="4" fill="#0" id="circle51"/>
	<circle cx="258.359" cy="292.274" r="4" fill="#0" id="circle52"/>
	<circle cx="258.359" cy="668.16" r="4" fill="#0" id="circle53"/>
	<circle cx="261.185" cy="382.712" r="4" fill="#0" id="circle54"/>
	<circle cx="264.011" cy="320.536" r="4" fill="#0" id="circle55"/>
	<circle cx="264.011" cy="696.422" r="4" fill="#0" id="circle56"/>
	<circle cx="269.664" cy="20.9573" r="4" fill="#0" id="circle57"/>
	<circle cx="272.49" cy="970.564" r="4" fill="#0" id="circle58"/>
	<circle cx="275.316" cy="348.798" r="4" fill="#0" id="circle59"/>
	<circle cx="289.447" cy="374.234" r="4" fill="#0" id="circle60"/>
	<circle cx="297.926" cy="9.65242" r="4" fill="#0" id="circle61"/>
	<circle cx="300.752" cy="973.39" r="4" fill="#0" id="circle62"/>
	<circle cx="326.188" cy="4" r="4" fill="#0" id="circle63"/>
	<circle cx="329.014" cy="979.043" r="4" fill="#0" id="circle64"/>
	<circle cx="354.45" cy="9.65242" r="4" fill="#0" id="circle65"/>
	<circle cx="357.276" cy="984.695" r="4" fill="#0" id="circle66"/>
	<circle cx="382.712" cy="15.3048" r="4" fill="#0" id="circle67"/>
	<circle cx="385.538" cy="984.695" r="4" fill="#0" id="circle68"/>
	<circle cx="408.148" cy="29.4359" r="4" fill="#0" id="circle69"/>
	<circle cx="413.801" cy="990.348" r="4" fill="#0" id="circle70"/>
	<circle cx="433.584" cy="43.567" r="4" fill="#0" id="circle71"/>
	<circle cx="442.063" cy="996" r="4" fill="#0" id="circle72"/>
	<circle cx="461.846" cy="43.567" r="4" fill="#0" id="circle73"/>
	<circle cx="470.325" cy="996" r="4" fill="#0" id="circle74"/>
	<circle cx="490.108" cy="37.9145" r="4" fill="#0" id="circle75"/>
	<circle cx="498.587" cy="996" r="4" fill="#0" id="circle76"/>
	<circle cx="518.37" cy="43.567" r="4" fill="#0" id="circle77"/>
	<circle cx="526.849" cy="996" r="4" fill="#0" id="circle78"/>
	<circle cx="546.632" cy="43.567" r="4" fill="#0" id="circle79"/>
	<circle cx="555.111" cy="996" r="4" fill="#0" id="circle80"/>
	<circle cx="574.895" cy="37.9145" r="4" fill="#0" id="circle81"/>
	<circle cx="583.373" cy="990.348" r="4" fill="#0" id="circle82"/>
	<circle cx="603.157" cy="26.6097" r="4" fill="#0" id="circle83"/>
	<circle cx="611.635" cy="990.348" r="4" fill="#0" id="circle84"/>
	<circle cx="631.419" cy="15.3048" r="4" fill="#0" id="circle85"/>
	<circle cx="639.897" cy="990.348" r="4" fill="#0" id="circle86"/>
	<circle cx="659.681" cy="4" r="4" fill="#0" id="circle87"/>
	<circle cx="668.16" cy="996" r="4" fill="#0" id="circle88"/>
	<circle cx="687.943" cy="4" r="4" fill="#0" id="circle89"/>
	<circle cx="696.422" cy="665.333" r="4" fill="#0" id="circle90"/>
	<circle cx="696.422" cy="996" r="4" fill="#0" id="circle91"/>
	<circle cx="699.248" cy="374.234" r="4" fill="#0" id="circle92"/>
	<circle cx="702.074" cy="693.595" r="4" fill="#0" id="circle93"/>
	<circle cx="713.379" cy="343.145" r="4" fill="#0" id="circle94"/>
	<circle cx="716.205" cy="15.3048" r="4" fill="#0" id="circle95"/>
	<circle cx="716.205" cy="719.031" r="4" fill="#0" id="circle96"/>
	<circle cx="724.684" cy="309.231" r="4" fill="#0" id="circle97"/>
	<circle cx="724.684" cy="668.16" r="4" fill="#0" id="circle98"/>
	<circle cx="724.684" cy="996" r="4" fill="#0" id="circle99"/>
	<circle cx="727.51" cy="382.712" r="4" fill="#0" id="circle100"/>
	<circle cx="730.336" cy="264.011" r="4" fill="#0" id="circle101"/>
	<circle cx="735.989" cy="190.53" r="4" fill="#0" id="circle102"/>
	<circle cx="735.989" cy="218.792" r="4" fill="#0" id="circle103"/>
	<circle cx="744.467" cy="26.6097" r="4" fill="#0" id="circle104"/>
	<circle cx="744.467" cy="727.51" r="4" fill="#0" id="circle105"/>
	<circle cx="750.12" cy="165.094" r="4" fill="#0" id="circle106"/>
	<circle cx="752.946" cy="662.507" r="4" fill="#0" id="circle107"/>
	<circle cx="752.946" cy="996" r="4" fill="#0" id="circle108"/>
	<circle cx="755.772" cy="388.365" r="4" fill="#0" id="circle109"/>
	<circle cx="761.425" cy="49.2194" r="4" fill="#0" id="circle110"/>
	<circle cx="761.425" cy="136.832" r="4" fill="#0" id="circle111"/>
	<circle cx="769.903" cy="100.091" r="4" fill="#0" id="circle112"/>
	<circle cx="772.729" cy="738.815" r="4" fill="#0" id="circle113"/>
	<circle cx="781.208" cy="651.202" r="4" fill="#0" id="circle114"/>
	<circle cx="781.208" cy="993.174" r="4" fill="#0" id="circle115"/>
	<circle cx="784.034" cy="399.67" r="4" fill="#0" id="circle116"/>
	<circle cx="795.339" cy="755.772" r="4" fill="#0" id="circle117"/>
	<circle cx="803.818" cy="976.217" r="4" fill="#0" id="circle118"/>
	<circle cx="806.644" cy="634.245" r="4" fill="#0" id="circle119"/>
	<circle cx="809.47" cy="413.801" r="4" fill="#0" id="circle120"/>
	<circle cx="809.47" cy="781.208" r="4" fill="#0" id="circle121"/>
	<circle cx="820.775" cy="809.47" r="4" fill="#0" id="circle122"/>
	<circle cx="826.427" cy="436.41" r="4" fill="#0" id="circle123"/>
	<circle cx="826.427" cy="837.732" r="4" fill="#0" id="circle124"/>
	<circle cx="826.427" cy="953.607" r="4" fill="#0" id="circle125"/>
	<circle cx="832.08" cy="620.114" r="4" fill="#0" id="circle126"/>
	<circle cx="832.08" cy="865.994" r="4" fill="#0" id="circle127"/>
	<circle cx="832.08" cy="894.256" r="4" fill="#0" id="circle128"/>
	<circle cx="832.08" cy="922.519" r="4" fill="#0" id="circle129"/>
	<circle cx="849.037" cy="453.368" r="4" fill="#0" id="circle130"/>
	<circle cx="854.689" cy="597.504" r="4" fill="#0" id="circle131"/>
	<circle cx="871.647" cy="473.151" r="4" fill="#0" id="circle132"/>
	<circle cx="877.299" cy="574.895" r="4" fill="#0" id="circle133"/>
	<circle cx="882.952" cy="501.413" r="4" fill="#0" id="circle134"/>
	<circle cx="888.604" cy="529.675" r="4" fill="#0" id="circle135"/>
	</g>
</svg>