<?xml version="1.0" encoding="UTF-8" standalone="no"?>
<!-- Created with CurveBenchmark -->
<svg
	xmlns:dc="http://purl.org/dc/elements/1.1/"
	xmlns:cc="http://creativecommons.org/ns#"
	xmlns:rdf="http://www.w3.org/1999/02/22-rdf-syntax-ns#"
	xmlns:svg="http://www.w3.org/2000/svg"
	xmlns="http://www.w3.org/2000/svg"
	xmlns:sodipodi="http://sodipodi.sourceforge.net/DTD/sodipodi-0.dtd"
	xmlns:inkscape="http://www.inkscape.org/namespaces/inkscape"
	width="1000"
	height="1000"
	id="svg2"
	version="1.1"
	sodipodi:docname="manifold/fitconnect-bed005.png.txt">
<defs
	id="defs4" />
<metadata
	id="metadata7">
	<rdf:RDF>
		<cc:Work
			rdf:about="">
			<dc:format>image/svg+xml</dc:format>
			<dc:type
				rdf:resource="http://purl.org/dc/dcmitype/StillImage" />
			<dc:title></dc:title>
		</cc:Work>
	</rdf:RDF>
</metadata>
<g
	inkscape:label="Layer 1"
	inkscape:groupmode="layer"
	id="layer1">
	<path style="fill:none;stroke:red;stroke-width:1px;stroke-linecap:butt;stroke-linejoin:miter;stroke-opacity:1" d="M 4,178.205 11.2585,226.595 z" id="boundary" inkscape:connector-curvature="0" />
	<path style="fill:none;stroke:red;stroke-width:1px;stroke-linecap:butt;stroke-linejoin:miter;stroke-opacity:1" d="M 4,178.205 23.3561,158.849 z" id="boundary" inkscape:connector-curvature="0" />
	<path style="fill:none;stroke:red;stroke-width:1px;stroke-linecap:butt;stroke-linejoin:miter;stroke-opacity:1" d="M 8.83902,497.58 23.3561,405.639 z" id="boundary" inkscape:connector-curvature="0" />
	<path style="fill:none;stroke:red;stroke-width:1px;stroke-linecap:butt;stroke-linejoin:miter;stroke-opacity:1" d="M 8.83902,497.58 66.9073,669.366 z" id="boundary" inkscape:connector-curvature="0" />
	<path style="fill:none;stroke:red;stroke-width:1px;stroke-linecap:butt;stroke-linejoin:miter;stroke-opacity:1" d="M 11.2585,226.595 28.1951,272.566 z" id="boundary" inkscape:connector-curvature="0" />
	<path style="fill:none;stroke:red;stroke-width:1px;stroke-linecap:butt;stroke-linejoin:miter;stroke-opacity:1" d="M 23.3561,158.849 45.1317,146.751 z" id="boundary" inkscape:connector-curvature="0" />
	<path style="fill:none;stroke:red;stroke-width:1px;stroke-linecap:butt;stroke-linejoin:miter;stroke-opacity:1" d="M 23.3561,405.639 28.1951,320.956 z" id="boundary" inkscape:connector-curvature="0" />
	<path style="fill:none;stroke:red;stroke-width:1px;stroke-linecap:butt;stroke-linejoin:miter;stroke-opacity:1" d="M 28.1951,272.566 28.1951,320.956 z" id="boundary" inkscape:connector-curvature="0" />
	<path style="fill:none;stroke:red;stroke-width:1px;stroke-linecap:butt;stroke-linejoin:miter;stroke-opacity:1" d="M 33.0341,749.21 66.9073,669.366 z" id="boundary" inkscape:connector-curvature="0" />
	<path style="fill:none;stroke:red;stroke-width:1px;stroke-linecap:butt;stroke-linejoin:miter;stroke-opacity:1" d="M 33.0341,749.21 195.141,669.366 z" id="boundary" inkscape:connector-curvature="0" />
	<path style="fill:none;stroke:red;stroke-width:1px;stroke-linecap:butt;stroke-linejoin:miter;stroke-opacity:1" d="M 45.1317,146.751 69.3268,137.073 z" id="boundary" inkscape:connector-curvature="0" />
	<path style="fill:none;stroke:red;stroke-width:1px;stroke-linecap:butt;stroke-linejoin:miter;stroke-opacity:1" d="M 69.3268,137.073 93.522,129.815 z" id="boundary" inkscape:connector-curvature="0" />
	<path style="fill:none;stroke:red;stroke-width:1px;stroke-linecap:butt;stroke-linejoin:miter;stroke-opacity:1" d="M 93.522,129.815 117.717,122.556 z" id="boundary" inkscape:connector-curvature="0" />
	<path style="fill:none;stroke:red;stroke-width:1px;stroke-linecap:butt;stroke-linejoin:miter;stroke-opacity:1" d="M 117.717,122.556 141.912,115.298 z" id="boundary" inkscape:connector-curvature="0" />
	<path style="fill:none;stroke:red;stroke-width:1px;stroke-linecap:butt;stroke-linejoin:miter;stroke-opacity:1" d="M 141.912,115.298 166.107,110.459 z" id="boundary" inkscape:connector-curvature="0" />
	<path style="fill:none;stroke:red;stroke-width:1px;stroke-linecap:butt;stroke-linejoin:miter;stroke-opacity:1" d="M 166.107,110.459 190.302,103.2 z" id="boundary" inkscape:connector-curvature="0" />
	<path style="fill:none;stroke:red;stroke-width:1px;stroke-linecap:butt;stroke-linejoin:miter;stroke-opacity:1" d="M 190.302,103.2 214.498,100.78 z" id="boundary" inkscape:connector-curvature="0" />
	<path style="fill:none;stroke:red;stroke-width:1px;stroke-linecap:butt;stroke-linejoin:miter;stroke-opacity:1" d="M 195.141,669.366 267.727,671.785 z" id="boundary" inkscape:connector-curvature="0" />
	<path style="fill:none;stroke:red;stroke-width:1px;stroke-linecap:butt;stroke-linejoin:miter;stroke-opacity:1" d="M 214.498,100.78 238.693,95.9415 z" id="boundary" inkscape:connector-curvature="0" />
	<path style="fill:none;stroke:red;stroke-width:1px;stroke-linecap:butt;stroke-linejoin:miter;stroke-opacity:1" d="M 238.693,95.9415 262.888,91.1024 z" id="boundary" inkscape:connector-curvature="0" />
	<path style="fill:none;stroke:red;stroke-width:1px;stroke-linecap:butt;stroke-linejoin:miter;stroke-opacity:1" d="M 262.888,91.1024 287.083,86.2634 z" id="boundary" inkscape:connector-curvature="0" />
	<path style="fill:none;stroke:red;stroke-width:1px;stroke-linecap:butt;stroke-linejoin:miter;stroke-opacity:1" d="M 267.727,671.785 316.117,659.688 z" id="boundary" inkscape:connector-curvature="0" />
	<path style="fill:none;stroke:red;stroke-width:1px;stroke-linecap:butt;stroke-linejoin:miter;stroke-opacity:1" d="M 287.083,86.2634 304.02,66.9073 z" id="boundary" inkscape:connector-curvature="0" />
	<path style="fill:none;stroke:red;stroke-width:1px;stroke-linecap:butt;stroke-linejoin:miter;stroke-opacity:1" d="M 304.02,66.9073 328.215,57.2293 z" id="boundary" inkscape:connector-curvature="0" />
	<path style="fill:none;stroke:red;stroke-width:1px;stroke-linecap:butt;stroke-linejoin:miter;stroke-opacity:1" d="M 316.117,659.688 388.702,674.205 z" id="boundary" inkscape:connector-curvature="0" />
	<path style="fill:none;stroke:red;stroke-width:1px;stroke-linecap:butt;stroke-linejoin:miter;stroke-opacity:1" d="M 328.215,57.2293 352.41,52.3902 z" id="boundary" inkscape:connector-curvature="0" />
	<path style="fill:none;stroke:red;stroke-width:1px;stroke-linecap:butt;stroke-linejoin:miter;stroke-opacity:1" d="M 352.41,52.3902 376.605,37.8732 z" id="boundary" inkscape:connector-curvature="0" />
	<path style="fill:none;stroke:red;stroke-width:1px;stroke-linecap:butt;stroke-linejoin:miter;stroke-opacity:1" d="M 376.605,37.8732 395.961,18.5171 z" id="boundary" inkscape:connector-curvature="0" />
	<path style="fill:none;stroke:red;stroke-width:1px;stroke-linecap:butt;stroke-linejoin:miter;stroke-opacity:1" d="M 388.702,674.205 412.898,683.883 z" id="boundary" inkscape:connector-curvature="0" />
	<path style="fill:none;stroke:red;stroke-width:1px;stroke-linecap:butt;stroke-linejoin:miter;stroke-opacity:1" d="M 395.961,18.5171 415.317,4 z" id="boundary" inkscape:connector-curvature="0" />
	<path style="fill:none;stroke:red;stroke-width:1px;stroke-linecap:butt;stroke-linejoin:miter;stroke-opacity:1" d="M 412.898,683.883 437.093,693.561 z" id="boundary" inkscape:connector-curvature="0" />
	<path style="fill:none;stroke:red;stroke-width:1px;stroke-linecap:butt;stroke-linejoin:miter;stroke-opacity:1" d="M 415.317,4 439.512,4 z" id="boundary" inkscape:connector-curvature="0" />
	<path style="fill:none;stroke:red;stroke-width:1px;stroke-linecap:butt;stroke-linejoin:miter;stroke-opacity:1" d="M 437.093,693.561 461.288,698.4 z" id="boundary" inkscape:connector-curvature="0" />
	<path style="fill:none;stroke:red;stroke-width:1px;stroke-linecap:butt;stroke-linejoin:miter;stroke-opacity:1" d="M 439.512,4 458.868,20.9366 z" id="boundary" inkscape:connector-curvature="0" />
	<path style="fill:none;stroke:red;stroke-width:1px;stroke-linecap:butt;stroke-linejoin:miter;stroke-opacity:1" d="M 458.868,20.9366 470.966,42.7122 z" id="boundary" inkscape:connector-curvature="0" />
	<path style="fill:none;stroke:red;stroke-width:1px;stroke-linecap:butt;stroke-linejoin:miter;stroke-opacity:1" d="M 461.288,698.4 485.483,703.239 z" id="boundary" inkscape:connector-curvature="0" />
	<path style="fill:none;stroke:red;stroke-width:1px;stroke-linecap:butt;stroke-linejoin:miter;stroke-opacity:1" d="M 470.966,42.7122 495.161,47.5512 z" id="boundary" inkscape:connector-curvature="0" />
	<path style="fill:none;stroke:red;stroke-width:1px;stroke-linecap:butt;stroke-linejoin:miter;stroke-opacity:1" d="M 485.483,703.239 509.678,708.078 z" id="boundary" inkscape:connector-curvature="0" />
	<path style="fill:none;stroke:red;stroke-width:1px;stroke-linecap:butt;stroke-linejoin:miter;stroke-opacity:1" d="M 495.161,47.5512 519.356,57.2293 z" id="boundary" inkscape:connector-curvature="0" />
	<path style="fill:none;stroke:red;stroke-width:1px;stroke-linecap:butt;stroke-linejoin:miter;stroke-opacity:1" d="M 509.678,708.078 533.873,708.078 z" id="boundary" inkscape:connector-curvature="0" />
	<path style="fill:none;stroke:red;stroke-width:1px;stroke-linecap:butt;stroke-linejoin:miter;stroke-opacity:1" d="M 519.356,57.2293 543.551,66.9073 z" id="boundary" inkscape:connector-curvature="0" />
	<path style="fill:none;stroke:red;stroke-width:1px;stroke-linecap:butt;stroke-linejoin:miter;stroke-opacity:1" d="M 533.873,708.078 558.068,708.078 z" id="boundary" inkscape:connector-curvature="0" />
	<path style="fill:none;stroke:red;stroke-width:1px;stroke-linecap:butt;stroke-linejoin:miter;stroke-opacity:1" d="M 543.551,66.9073 558.068,86.2634 z" id="boundary" inkscape:connector-curvature="0" />
	<path style="fill:none;stroke:red;stroke-width:1px;stroke-linecap:butt;stroke-linejoin:miter;stroke-opacity:1" d="M 558.068,86.2634 582.263,91.1024 z" id="boundary" inkscape:connector-curvature="0" />
	<path style="fill:none;stroke:red;stroke-width:1px;stroke-linecap:butt;stroke-linejoin:miter;stroke-opacity:1" d="M 558.068,708.078 582.263,703.239 z" id="boundary" inkscape:connector-curvature="0" />
	<path style="fill:none;stroke:red;stroke-width:1px;stroke-linecap:butt;stroke-linejoin:miter;stroke-opacity:1" d="M 582.263,91.1024 606.459,95.9415 z" id="boundary" inkscape:connector-curvature="0" />
	<path style="fill:none;stroke:red;stroke-width:1px;stroke-linecap:butt;stroke-linejoin:miter;stroke-opacity:1" d="M 582.263,703.239 606.459,695.98 z" id="boundary" inkscape:connector-curvature="0" />
	<path style="fill:none;stroke:red;stroke-width:1px;stroke-linecap:butt;stroke-linejoin:miter;stroke-opacity:1" d="M 606.459,95.9415 630.654,100.78 z" id="boundary" inkscape:connector-curvature="0" />
	<path style="fill:none;stroke:red;stroke-width:1px;stroke-linecap:butt;stroke-linejoin:miter;stroke-opacity:1" d="M 606.459,695.98 630.654,688.722 z" id="boundary" inkscape:connector-curvature="0" />
	<path style="fill:none;stroke:red;stroke-width:1px;stroke-linecap:butt;stroke-linejoin:miter;stroke-opacity:1" d="M 630.654,100.78 654.849,105.62 z" id="boundary" inkscape:connector-curvature="0" />
	<path style="fill:none;stroke:red;stroke-width:1px;stroke-linecap:butt;stroke-linejoin:miter;stroke-opacity:1" d="M 630.654,688.722 654.849,679.044 z" id="boundary" inkscape:connector-curvature="0" />
	<path style="fill:none;stroke:red;stroke-width:1px;stroke-linecap:butt;stroke-linejoin:miter;stroke-opacity:1" d="M 654.849,105.62 679.044,110.459 z" id="boundary" inkscape:connector-curvature="0" />
	<path style="fill:none;stroke:red;stroke-width:1px;stroke-linecap:butt;stroke-linejoin:miter;stroke-opacity:1" d="M 654.849,679.044 679.044,671.785 z" id="boundary" inkscape:connector-curvature="0" />
	<path style="fill:none;stroke:red;stroke-width:1px;stroke-linecap:butt;stroke-linejoin:miter;stroke-opacity:1" d="M 679.044,110.459 703.239,115.298 z" id="boundary" inkscape:connector-curvature="0" />
	<path style="fill:none;stroke:red;stroke-width:1px;stroke-linecap:butt;stroke-linejoin:miter;stroke-opacity:1" d="M 679.044,671.785 703.239,664.527 z" id="boundary" inkscape:connector-curvature="0" />
	<path style="fill:none;stroke:red;stroke-width:1px;stroke-linecap:butt;stroke-linejoin:miter;stroke-opacity:1" d="M 703.239,115.298 727.434,120.137 z" id="boundary" inkscape:connector-curvature="0" />
	<path style="fill:none;stroke:red;stroke-width:1px;stroke-linecap:butt;stroke-linejoin:miter;stroke-opacity:1" d="M 703.239,664.527 727.434,659.688 z" id="boundary" inkscape:connector-curvature="0" />
	<path style="fill:none;stroke:red;stroke-width:1px;stroke-linecap:butt;stroke-linejoin:miter;stroke-opacity:1" d="M 727.434,120.137 751.629,129.815 z" id="boundary" inkscape:connector-curvature="0" />
	<path style="fill:none;stroke:red;stroke-width:1px;stroke-linecap:butt;stroke-linejoin:miter;stroke-opacity:1" d="M 727.434,659.688 775.824,664.527 z" id="boundary" inkscape:connector-curvature="0" />
	<path style="fill:none;stroke:red;stroke-width:1px;stroke-linecap:butt;stroke-linejoin:miter;stroke-opacity:1" d="M 751.629,129.815 775.824,139.493 z" id="boundary" inkscape:connector-curvature="0" />
	<path style="fill:none;stroke:red;stroke-width:1px;stroke-linecap:butt;stroke-linejoin:miter;stroke-opacity:1" d="M 775.824,139.493 800.02,149.171 z" id="boundary" inkscape:connector-curvature="0" />
	<path style="fill:none;stroke:red;stroke-width:1px;stroke-linecap:butt;stroke-linejoin:miter;stroke-opacity:1" d="M 775.824,664.527 802.439,727.434 z" id="boundary" inkscape:connector-curvature="0" />
	<path style="fill:none;stroke:red;stroke-width:1px;stroke-linecap:butt;stroke-linejoin:miter;stroke-opacity:1" d="M 800.02,149.171 821.795,161.268 z" id="boundary" inkscape:connector-curvature="0" />
	<path style="fill:none;stroke:red;stroke-width:1px;stroke-linecap:butt;stroke-linejoin:miter;stroke-opacity:1" d="M 802.439,727.434 829.054,720.176 z" id="boundary" inkscape:connector-curvature="0" />
	<path style="fill:none;stroke:red;stroke-width:1px;stroke-linecap:butt;stroke-linejoin:miter;stroke-opacity:1" d="M 814.537,270.146 814.537,294.341 z" id="boundary" inkscape:connector-curvature="0" />
	<path style="fill:none;stroke:red;stroke-width:1px;stroke-linecap:butt;stroke-linejoin:miter;stroke-opacity:1" d="M 814.537,270.146 819.376,231.434 z" id="boundary" inkscape:connector-curvature="0" />
	<path style="fill:none;stroke:red;stroke-width:1px;stroke-linecap:butt;stroke-linejoin:miter;stroke-opacity:1" d="M 814.537,294.341 814.537,318.537 z" id="boundary" inkscape:connector-curvature="0" />
	<path style="fill:none;stroke:red;stroke-width:1px;stroke-linecap:butt;stroke-linejoin:miter;stroke-opacity:1" d="M 814.537,318.537 814.537,342.732 z" id="boundary" inkscape:connector-curvature="0" />
	<path style="fill:none;stroke:red;stroke-width:1px;stroke-linecap:butt;stroke-linejoin:miter;stroke-opacity:1" d="M 814.537,342.732 814.537,366.927 z" id="boundary" inkscape:connector-curvature="0" />
	<path style="fill:none;stroke:red;stroke-width:1px;stroke-linecap:butt;stroke-linejoin:miter;stroke-opacity:1" d="M 814.537,366.927 814.537,391.122 z" id="boundary" inkscape:connector-curvature="0" />
	<path style="fill:none;stroke:red;stroke-width:1px;stroke-linecap:butt;stroke-linejoin:miter;stroke-opacity:1" d="M 814.537,391.122 838.732,400.8 z" id="boundary" inkscape:connector-curvature="0" />
	<path style="fill:none;stroke:red;stroke-width:1px;stroke-linecap:butt;stroke-linejoin:miter;stroke-opacity:1" d="M 819.376,231.434 838.732,204.82 z" id="boundary" inkscape:connector-curvature="0" />
	<path style="fill:none;stroke:red;stroke-width:1px;stroke-linecap:butt;stroke-linejoin:miter;stroke-opacity:1" d="M 821.795,161.268 836.312,180.624 z" id="boundary" inkscape:connector-curvature="0" />
	<path style="fill:none;stroke:red;stroke-width:1px;stroke-linecap:butt;stroke-linejoin:miter;stroke-opacity:1" d="M 829.054,720.176 858.088,669.366 z" id="boundary" inkscape:connector-curvature="0" />
	<path style="fill:none;stroke:red;stroke-width:1px;stroke-linecap:butt;stroke-linejoin:miter;stroke-opacity:1" d="M 836.312,180.624 838.732,204.82 z" id="boundary" inkscape:connector-curvature="0" />
	<path style="fill:none;stroke:red;stroke-width:1px;stroke-linecap:butt;stroke-linejoin:miter;stroke-opacity:1" d="M 838.732,400.8 862.927,405.639 z" id="boundary" inkscape:connector-curvature="0" />
	<path style="fill:none;stroke:red;stroke-width:1px;stroke-linecap:butt;stroke-linejoin:miter;stroke-opacity:1" d="M 858.088,669.366 882.283,664.527 z" id="boundary" inkscape:connector-curvature="0" />
	<path style="fill:none;stroke:red;stroke-width:1px;stroke-linecap:butt;stroke-linejoin:miter;stroke-opacity:1" d="M 862.927,405.639 887.122,410.478 z" id="boundary" inkscape:connector-curvature="0" />
	<path style="fill:none;stroke:red;stroke-width:1px;stroke-linecap:butt;stroke-linejoin:miter;stroke-opacity:1" d="M 882.283,664.527 906.478,664.527 z" id="boundary" inkscape:connector-curvature="0" />
	<path style="fill:none;stroke:red;stroke-width:1px;stroke-linecap:butt;stroke-linejoin:miter;stroke-opacity:1" d="M 887.122,410.478 911.317,415.317 z" id="boundary" inkscape:connector-curvature="0" />
	<path style="fill:none;stroke:red;stroke-width:1px;stroke-linecap:butt;stroke-linejoin:miter;stroke-opacity:1" d="M 906.478,664.527 930.673,664.527 z" id="boundary" inkscape:connector-curvature="0" />
	<path style="fill:none;stroke:red;stroke-width:1px;stroke-linecap:butt;stroke-linejoin:miter;stroke-opacity:1" d="M 911.317,415.317 935.512,420.156 z" id="boundary" inkscape:connector-curvature="0" />
	<path style="fill:none;stroke:red;stroke-width:1px;stroke-linecap:butt;stroke-linejoin:miter;stroke-opacity:1" d="M 930.673,664.527 942.771,686.302 z" id="boundary" inkscape:connector-curvature="0" />
	<path style="fill:none;stroke:red;stroke-width:1px;stroke-linecap:butt;stroke-linejoin:miter;stroke-opacity:1" d="M 935.512,420.156 959.707,429.834 z" id="boundary" inkscape:connector-curvature="0" />
	<path style="fill:none;stroke:red;stroke-width:1px;stroke-linecap:butt;stroke-linejoin:miter;stroke-opacity:1" d="M 942.771,686.302 942.771,710.498 z" id="boundary" inkscape:connector-curvature="0" />
	<path style="fill:none;stroke:red;stroke-width:1px;stroke-linecap:butt;stroke-linejoin:miter;stroke-opacity:1" d="M 942.771,710.498 942.771,734.693 z" id="boundary" inkscape:connector-curvature="0" />
	<path style="fill:none;stroke:red;stroke-width:1px;stroke-linecap:butt;stroke-linejoin:miter;stroke-opacity:1" d="M 942.771,734.693 962.127,751.629 z" id="boundary" inkscape:connector-curvature="0" />
	<path style="fill:none;stroke:red;stroke-width:1px;stroke-linecap:butt;stroke-linejoin:miter;stroke-opacity:1" d="M 959.707,429.834 981.483,441.932 z" id="boundary" inkscape:connector-curvature="0" />
	<path style="fill:none;stroke:red;stroke-width:1px;stroke-linecap:butt;stroke-linejoin:miter;stroke-opacity:1" d="M 962.127,751.629 974.224,715.337 z" id="boundary" inkscape:connector-curvature="0" />
	<path style="fill:none;stroke:red;stroke-width:1px;stroke-linecap:butt;stroke-linejoin:miter;stroke-opacity:1" d="M 969.385,594.361 969.385,618.556 z" id="boundary" inkscape:connector-curvature="0" />
	<path style="fill:none;stroke:red;stroke-width:1px;stroke-linecap:butt;stroke-linejoin:miter;stroke-opacity:1" d="M 969.385,594.361 974.224,565.327 z" id="boundary" inkscape:connector-curvature="0" />
	<path style="fill:none;stroke:red;stroke-width:1px;stroke-linecap:butt;stroke-linejoin:miter;stroke-opacity:1" d="M 969.385,618.556 974.224,642.751 z" id="boundary" inkscape:connector-curvature="0" />
	<path style="fill:none;stroke:red;stroke-width:1px;stroke-linecap:butt;stroke-linejoin:miter;stroke-opacity:1" d="M 974.224,516.937 974.224,541.132 z" id="boundary" inkscape:connector-curvature="0" />
	<path style="fill:none;stroke:red;stroke-width:1px;stroke-linecap:butt;stroke-linejoin:miter;stroke-opacity:1" d="M 974.224,516.937 993.58,497.58 z" id="boundary" inkscape:connector-curvature="0" />
	<path style="fill:none;stroke:red;stroke-width:1px;stroke-linecap:butt;stroke-linejoin:miter;stroke-opacity:1" d="M 974.224,541.132 974.224,565.327 z" id="boundary" inkscape:connector-curvature="0" />
	<path style="fill:none;stroke:red;stroke-width:1px;stroke-linecap:butt;stroke-linejoin:miter;stroke-opacity:1" d="M 974.224,642.751 976.644,666.946 z" id="boundary" inkscape:connector-curvature="0" />
	<path style="fill:none;stroke:red;stroke-width:1px;stroke-linecap:butt;stroke-linejoin:miter;stroke-opacity:1" d="M 974.224,715.337 983.902,691.141 z" id="boundary" inkscape:connector-curvature="0" />
	<path style="fill:none;stroke:red;stroke-width:1px;stroke-linecap:butt;stroke-linejoin:miter;stroke-opacity:1" d="M 976.644,666.946 983.902,691.141 z" id="boundary" inkscape:connector-curvature="0" />
	<path style="fill:none;stroke:red;stroke-width:1px;stroke-linecap:butt;stroke-linejoin:miter;stroke-opacity:1" d="M 981.483,441.932 996,461.288 z" id="boundary" inkscape:connector-curvature="0" />
	<path style="fill:none;stroke:red;stroke-width:1px;stroke-linecap:butt;stroke-linejoin:miter;stroke-opacity:1" d="M 993.58,497.58 996,461.288 z" id="boundary" inkscape:connector-curvature="0" />
	<circle cx="4" cy="178.205" r="4" fill="#0" id="circle0"/>
	<circle cx="4" cy="202.4" r="4" fill="#0" id="circle1"/>
	<circle cx="8.83902" cy="497.58" r="4" fill="#0" id="circle2"/>
	<circle cx="8.83902" cy="521.776" r="4" fill="#0" id="circle3"/>
	<circle cx="8.83902" cy="545.971" r="4" fill="#0" id="circle4"/>
	<circle cx="8.83902" cy="570.166" r="4" fill="#0" id="circle5"/>
	<circle cx="8.83902" cy="594.361" r="4" fill="#0" id="circle6"/>
	<circle cx="8.83902" cy="618.556" r="4" fill="#0" id="circle7"/>
	<circle cx="8.83902" cy="662.107" r="4" fill="#0" id="circle8"/>
	<circle cx="8.83902" cy="686.302" r="4" fill="#0" id="circle9"/>
	<circle cx="11.2585" cy="226.595" r="4" fill="#0" id="circle10"/>
	<circle cx="11.2585" cy="710.498" r="4" fill="#0" id="circle11"/>
	<circle cx="13.678" cy="734.693" r="4" fill="#0" id="circle12"/>
	<circle cx="18.5171" cy="439.512" r="4" fill="#0" id="circle13"/>
	<circle cx="18.5171" cy="463.707" r="4" fill="#0" id="circle14"/>
	<circle cx="23.3561" cy="158.849" r="4" fill="#0" id="circle15"/>
	<circle cx="23.3561" cy="248.371" r="4" fill="#0" id="circle16"/>
	<circle cx="23.3561" cy="405.639" r="4" fill="#0" id="circle17"/>
	<circle cx="28.1951" cy="272.566" r="4" fill="#0" id="circle18"/>
	<circle cx="28.1951" cy="296.761" r="4" fill="#0" id="circle19"/>
	<circle cx="28.1951" cy="320.956" r="4" fill="#0" id="circle20"/>
	<circle cx="28.1951" cy="345.151" r="4" fill="#0" id="circle21"/>
	<circle cx="28.1951" cy="369.346" r="4" fill="#0" id="circle22"/>
	<circle cx="33.0341" cy="749.21" r="4" fill="#0" id="circle23"/>
	<circle cx="40.2927" cy="720.176" r="4" fill="#0" id="circle24"/>
	<circle cx="45.1317" cy="146.751" r="4" fill="#0" id="circle25"/>
	<circle cx="45.1317" cy="657.268" r="4" fill="#0" id="circle26"/>
	<circle cx="45.1317" cy="681.463" r="4" fill="#0" id="circle27"/>
	<circle cx="62.0683" cy="700.82" r="4" fill="#0" id="circle28"/>
	<circle cx="66.9073" cy="669.366" r="4" fill="#0" id="circle29"/>
	<circle cx="66.9073" cy="729.854" r="4" fill="#0" id="circle30"/>
	<circle cx="69.3268" cy="137.073" r="4" fill="#0" id="circle31"/>
	<circle cx="79.0049" cy="751.629" r="4" fill="#0" id="circle32"/>
	<circle cx="93.522" cy="129.815" r="4" fill="#0" id="circle33"/>
	<circle cx="98.361" cy="734.693" r="4" fill="#0" id="circle34"/>
	<circle cx="103.2" cy="681.463" r="4" fill="#0" id="circle35"/>
	<circle cx="103.2" cy="705.659" r="4" fill="#0" id="circle36"/>
	<circle cx="117.717" cy="122.556" r="4" fill="#0" id="circle37"/>
	<circle cx="122.556" cy="664.527" r="4" fill="#0" id="circle38"/>
	<circle cx="141.912" cy="115.298" r="4" fill="#0" id="circle39"/>
	<circle cx="146.751" cy="664.527" r="4" fill="#0" id="circle40"/>
	<circle cx="166.107" cy="110.459" r="4" fill="#0" id="circle41"/>
	<circle cx="170.946" cy="664.527" r="4" fill="#0" id="circle42"/>
	<circle cx="190.302" cy="103.2" r="4" fill="#0" id="circle43"/>
	<circle cx="195.141" cy="669.366" r="4" fill="#0" id="circle44"/>
	<circle cx="214.498" cy="100.78" r="4" fill="#0" id="circle45"/>
	<circle cx="219.337" cy="674.205" r="4" fill="#0" id="circle46"/>
	<circle cx="238.693" cy="95.9415" r="4" fill="#0" id="circle47"/>
	<circle cx="243.532" cy="683.883" r="4" fill="#0" id="circle48"/>
	<circle cx="262.888" cy="91.1024" r="4" fill="#0" id="circle49"/>
	<circle cx="267.727" cy="671.785" r="4" fill="#0" id="circle50"/>
	<circle cx="287.083" cy="86.2634" r="4" fill="#0" id="circle51"/>
	<circle cx="291.922" cy="662.107" r="4" fill="#0" id="circle52"/>
	<circle cx="304.02" cy="66.9073" r="4" fill="#0" id="circle53"/>
	<circle cx="316.117" cy="659.688" r="4" fill="#0" id="circle54"/>
	<circle cx="328.215" cy="57.2293" r="4" fill="#0" id="circle55"/>
	<circle cx="340.312" cy="659.688" r="4" fill="#0" id="circle56"/>
	<circle cx="352.41" cy="52.3902" r="4" fill="#0" id="circle57"/>
	<circle cx="364.507" cy="669.366" r="4" fill="#0" id="circle58"/>
	<circle cx="376.605" cy="37.8732" r="4" fill="#0" id="circle59"/>
	<circle cx="388.702" cy="674.205" r="4" fill="#0" id="circle60"/>
	<circle cx="395.961" cy="18.5171" r="4" fill="#0" id="circle61"/>
	<circle cx="412.898" cy="683.883" r="4" fill="#0" id="circle62"/>
	<circle cx="415.317" cy="4" r="4" fill="#0" id="circle63"/>
	<circle cx="437.093" cy="693.561" r="4" fill="#0" id="circle64"/>
	<circle cx="439.512" cy="4" r="4" fill="#0" id="circle65"/>
	<circle cx="458.868" cy="20.9366" r="4" fill="#0" id="circle66"/>
	<circle cx="461.288" cy="698.4" r="4" fill="#0" id="circle67"/>
	<circle cx="470.966" cy="42.7122" r="4" fill="#0" id="circle68"/>
	<circle cx="485.483" cy="703.239" r="4" fill="#0" id="circle69"/>
	<circle cx="495.161" cy="47.5512" r="4" fill="#0" id="circle70"/>
	<circle cx="509.678" cy="708.078" r="4" fill="#0" id="circle71"/>
	<circle cx="519.356" cy="57.2293" r="4" fill="#0" id="circle72"/>
	<circle cx="533.873" cy="708.078" r="4" fill="#0" id="circle73"/>
	<circle cx="543.551" cy="66.9073" r="4" fill="#0" id="circle74"/>
	<circle cx="558.068" cy="86.2634" r="4" fill="#0" id="circle75"/>
	<circle cx="558.068" cy="708.078" r="4" fill="#0" id="circle76"/>
	<circle cx="582.263" cy="91.1024" r="4" fill="#0" id="circle77"/>
	<circle cx="582.263" cy="703.239" r="4" fill="#0" id="circle78"/>
	<circle cx="606.459" cy="95.9415" r="4" fill="#0" id="circle79"/>
	<circle cx="606.459" cy="695.98" r="4" fill="#0" id="circle80"/>
	<circle cx="630.654" cy="100.78" r="4" fill="#0" id="circle81"/>
	<circle cx="630.654" cy="688.722" r="4" fill="#0" id="circle82"/>
	<circle cx="654.849" cy="105.62" r="4" fill="#0" id="circle83"/>
	<circle cx="654.849" cy="679.044" r="4" fill="#0" id="circle84"/>
	<circle cx="679.044" cy="110.459" r="4" fill="#0" id="circle85"/>
	<circle cx="679.044" cy="671.785" r="4" fill="#0" id="circle86"/>
	<circle cx="703.239" cy="115.298" r="4" fill="#0" id="circle87"/>
	<circle cx="703.239" cy="664.527" r="4" fill="#0" id="circle88"/>
	<circle cx="727.434" cy="120.137" r="4" fill="#0" id="circle89"/>
	<circle cx="727.434" cy="659.688" r="4" fill="#0" id="circle90"/>
	<circle cx="751.629" cy="129.815" r="4" fill="#0" id="circle91"/>
	<circle cx="751.629" cy="659.688" r="4" fill="#0" id="circle92"/>
	<circle cx="775.824" cy="139.493" r="4" fill="#0" id="circle93"/>
	<circle cx="775.824" cy="664.527" r="4" fill="#0" id="circle94"/>
	<circle cx="795.18" cy="679.044" r="4" fill="#0" id="circle95"/>
	<circle cx="800.02" cy="149.171" r="4" fill="#0" id="circle96"/>
	<circle cx="802.439" cy="703.239" r="4" fill="#0" id="circle97"/>
	<circle cx="802.439" cy="727.434" r="4" fill="#0" id="circle98"/>
	<circle cx="812.117" cy="751.629" r="4" fill="#0" id="circle99"/>
	<circle cx="814.537" cy="270.146" r="4" fill="#0" id="circle100"/>
	<circle cx="814.537" cy="294.341" r="4" fill="#0" id="circle101"/>
	<circle cx="814.537" cy="318.537" r="4" fill="#0" id="circle102"/>
	<circle cx="814.537" cy="342.732" r="4" fill="#0" id="circle103"/>
	<circle cx="814.537" cy="366.927" r="4" fill="#0" id="circle104"/>
	<circle cx="814.537" cy="391.122" r="4" fill="#0" id="circle105"/>
	<circle cx="819.376" cy="231.434" r="4" fill="#0" id="circle106"/>
	<circle cx="821.795" cy="161.268" r="4" fill="#0" id="circle107"/>
	<circle cx="829.054" cy="720.176" r="4" fill="#0" id="circle108"/>
	<circle cx="833.893" cy="676.624" r="4" fill="#0" id="circle109"/>
	<circle cx="836.312" cy="180.624" r="4" fill="#0" id="circle110"/>
	<circle cx="838.732" cy="204.82" r="4" fill="#0" id="circle111"/>
	<circle cx="838.732" cy="400.8" r="4" fill="#0" id="circle112"/>
	<circle cx="858.088" cy="669.366" r="4" fill="#0" id="circle113"/>
	<circle cx="862.927" cy="405.639" r="4" fill="#0" id="circle114"/>
	<circle cx="882.283" cy="664.527" r="4" fill="#0" id="circle115"/>
	<circle cx="887.122" cy="410.478" r="4" fill="#0" id="circle116"/>
	<circle cx="906.478" cy="664.527" r="4" fill="#0" id="circle117"/>
	<circle cx="911.317" cy="415.317" r="4" fill="#0" id="circle118"/>
	<circle cx="930.673" cy="664.527" r="4" fill="#0" id="circle119"/>
	<circle cx="935.512" cy="420.156" r="4" fill="#0" id="circle120"/>
	<circle cx="942.771" cy="686.302" r="4" fill="#0" id="circle121"/>
	<circle cx="942.771" cy="710.498" r="4" fill="#0" id="circle122"/>
	<circle cx="942.771" cy="734.693" r="4" fill="#0" id="circle123"/>
	<circle cx="959.707" cy="429.834" r="4" fill="#0" id="circle124"/>
	<circle cx="962.127" cy="751.629" r="4" fill="#0" id="circle125"/>
	<circle cx="969.385" cy="594.361" r="4" fill="#0" id="circle126"/>
	<circle cx="969.385" cy="618.556" r="4" fill="#0" id="circle127"/>
	<circle cx="974.224" cy="516.937" r="4" fill="#0" id="circle128"/>
	<circle cx="974.224" cy="541.132" r="4" fill="#0" id="circle129"/>
	<circle cx="974.224" cy="565.327" r="4" fill="#0" id="circle130"/>
	<circle cx="974.224" cy="642.751" r="4" fill="#0" id="circle131"/>
	<circle cx="974.224" cy="715.337" r="4" fill="#0" id="circle132"/>
	<circle cx="976.644" cy="666.946" r="4" fill="#0" id="circle133"/>
	<circle cx="981.483" cy="441.932" r="4" fill="#0" id="circle134"/>
	<circle cx="983.902" cy="691.141" r="4" fill="#0" id="circle135"/>
	<circle cx="993.58" cy="497.58" r="4" fill="#0" id="circle136"/>
	<circle cx="996" cy="461.288" r="4" fill="#0" id="circle137"/>
	</g>
</svg>