<?xml version="1.0" encoding="UTF-8" standalone="no"?>
<!-- Created with CurveBenchmark -->
<svg
	xmlns:dc="http://purl.org/dc/elements/1.1/"
	xmlns:cc="http://creativecommons.org/ns#"
	xmlns:rdf="http://www.w3.org/1999/02/22-rdf-syntax-ns#"
	xmlns:svg="http://www.w3.org/2000/svg"
	xmlns="http://www.w3.org/2000/svg"
	xmlns:sodipodi="http://sodipodi.sourceforge.net/DTD/sodipodi-0.dtd"
	xmlns:inkscape="http://www.inkscape.org/namespaces/inkscape"
	width="1000"
	height="1000"
	id="svg2"
	version="1.1"
	sodipodi:docname="manifold/fitconnect-guitar270.png.txt">
<defs
	id="defs4" />
<metadata
	id="metadata7">
	<rdf:RDF>
		<cc:Work
			rdf:about="">
			<dc:format>image/svg+xml</dc:format>
			<dc:type
				rdf:resource="http://purl.org/dc/dcmitype/StillImage" />
			<dc:title></dc:title>
		</cc:Work>
	</rdf:RDF>
</metadata>
<g
	inkscape:label="Layer 1"
	inkscape:groupmode="layer"
	id="layer1">
	<path style="fill:none;stroke:red;stroke-width:1px;stroke-linecap:butt;stroke-linejoin:miter;stroke-opacity:1" d="M 4,392.327 35.7722,364.085 z" id="boundary" inkscape:connector-curvature="0" />
	<path style="fill:none;stroke:red;stroke-width:1px;stroke-linecap:butt;stroke-linejoin:miter;stroke-opacity:1" d="M 4,392.327 35.7722,409.979 z" id="boundary" inkscape:connector-curvature="0" />
	<path style="fill:none;stroke:red;stroke-width:1px;stroke-linecap:butt;stroke-linejoin:miter;stroke-opacity:1" d="M 4,533.537 4,639.445 z" id="boundary" inkscape:connector-curvature="0" />
	<path style="fill:none;stroke:red;stroke-width:1px;stroke-linecap:butt;stroke-linejoin:miter;stroke-opacity:1" d="M 4,533.537 88.726,484.114 z" id="boundary" inkscape:connector-curvature="0" />
	<path style="fill:none;stroke:red;stroke-width:1px;stroke-linecap:butt;stroke-linejoin:miter;stroke-opacity:1" d="M 4,639.445 4,745.352 z" id="boundary" inkscape:connector-curvature="0" />
	<path style="fill:none;stroke:red;stroke-width:1px;stroke-linecap:butt;stroke-linejoin:miter;stroke-opacity:1" d="M 4,745.352 4,851.26 z" id="boundary" inkscape:connector-curvature="0" />
	<path style="fill:none;stroke:red;stroke-width:1px;stroke-linecap:butt;stroke-linejoin:miter;stroke-opacity:1" d="M 4,851.26 18.121,921.865 z" id="boundary" inkscape:connector-curvature="0" />
	<path style="fill:none;stroke:red;stroke-width:1px;stroke-linecap:butt;stroke-linejoin:miter;stroke-opacity:1" d="M 11.0605,124.028 11.0605,159.331 z" id="boundary" inkscape:connector-curvature="0" />
	<path style="fill:none;stroke:red;stroke-width:1px;stroke-linecap:butt;stroke-linejoin:miter;stroke-opacity:1" d="M 11.0605,124.028 42.8327,99.3167 z" id="boundary" inkscape:connector-curvature="0" />
	<path style="fill:none;stroke:red;stroke-width:1px;stroke-linecap:butt;stroke-linejoin:miter;stroke-opacity:1" d="M 11.0605,159.331 11.0605,194.633 z" id="boundary" inkscape:connector-curvature="0" />
	<path style="fill:none;stroke:red;stroke-width:1px;stroke-linecap:butt;stroke-linejoin:miter;stroke-opacity:1" d="M 11.0605,194.633 11.0605,229.936 z" id="boundary" inkscape:connector-curvature="0" />
	<path style="fill:none;stroke:red;stroke-width:1px;stroke-linecap:butt;stroke-linejoin:miter;stroke-opacity:1" d="M 11.0605,229.936 11.0605,265.238 z" id="boundary" inkscape:connector-curvature="0" />
	<path style="fill:none;stroke:red;stroke-width:1px;stroke-linecap:butt;stroke-linejoin:miter;stroke-opacity:1" d="M 11.0605,265.238 11.0605,300.541 z" id="boundary" inkscape:connector-curvature="0" />
	<path style="fill:none;stroke:red;stroke-width:1px;stroke-linecap:butt;stroke-linejoin:miter;stroke-opacity:1" d="M 11.0605,300.541 11.0605,335.843 z" id="boundary" inkscape:connector-curvature="0" />
	<path style="fill:none;stroke:red;stroke-width:1px;stroke-linecap:butt;stroke-linejoin:miter;stroke-opacity:1" d="M 11.0605,335.843 35.7722,364.085 z" id="boundary" inkscape:connector-curvature="0" />
	<path style="fill:none;stroke:red;stroke-width:1px;stroke-linecap:butt;stroke-linejoin:miter;stroke-opacity:1" d="M 18.121,921.865 88.726,996 z" id="boundary" inkscape:connector-curvature="0" />
	<path style="fill:none;stroke:red;stroke-width:1px;stroke-linecap:butt;stroke-linejoin:miter;stroke-opacity:1" d="M 25.1815,67.5445 42.8327,99.3167 z" id="boundary" inkscape:connector-curvature="0" />
	<path style="fill:none;stroke:red;stroke-width:1px;stroke-linecap:butt;stroke-linejoin:miter;stroke-opacity:1" d="M 25.1815,67.5445 53.4235,4 z" id="boundary" inkscape:connector-curvature="0" />
	<path style="fill:none;stroke:red;stroke-width:1px;stroke-linecap:butt;stroke-linejoin:miter;stroke-opacity:1" d="M 35.7722,409.979 53.4235,477.053 z" id="boundary" inkscape:connector-curvature="0" />
	<path style="fill:none;stroke:red;stroke-width:1px;stroke-linecap:butt;stroke-linejoin:miter;stroke-opacity:1" d="M 53.4235,477.053 88.726,484.114 z" id="boundary" inkscape:connector-curvature="0" />
	<circle cx="4" cy="392.327" r="4" fill="#0" id="circle0"/>
	<circle cx="4" cy="427.63" r="4" fill="#0" id="circle1"/>
	<circle cx="4" cy="462.932" r="4" fill="#0" id="circle2"/>
	<circle cx="4" cy="498.235" r="4" fill="#0" id="circle3"/>
	<circle cx="4" cy="533.537" r="4" fill="#0" id="circle4"/>
	<circle cx="4" cy="568.84" r="4" fill="#0" id="circle5"/>
	<circle cx="4" cy="604.142" r="4" fill="#0" id="circle6"/>
	<circle cx="4" cy="639.445" r="4" fill="#0" id="circle7"/>
	<circle cx="4" cy="674.747" r="4" fill="#0" id="circle8"/>
	<circle cx="4" cy="710.05" r="4" fill="#0" id="circle9"/>
	<circle cx="4" cy="745.352" r="4" fill="#0" id="circle10"/>
	<circle cx="4" cy="780.655" r="4" fill="#0" id="circle11"/>
	<circle cx="4" cy="815.957" r="4" fill="#0" id="circle12"/>
	<circle cx="4" cy="851.26" r="4" fill="#0" id="circle13"/>
	<circle cx="4" cy="886.562" r="4" fill="#0" id="circle14"/>
	<circle cx="11.0605" cy="124.028" r="4" fill="#0" id="circle15"/>
	<circle cx="11.0605" cy="159.331" r="4" fill="#0" id="circle16"/>
	<circle cx="11.0605" cy="194.633" r="4" fill="#0" id="circle17"/>
	<circle cx="11.0605" cy="229.936" r="4" fill="#0" id="circle18"/>
	<circle cx="11.0605" cy="265.238" r="4" fill="#0" id="circle19"/>
	<circle cx="11.0605" cy="300.541" r="4" fill="#0" id="circle20"/>
	<circle cx="11.0605" cy="335.843" r="4" fill="#0" id="circle21"/>
	<circle cx="18.121" cy="921.865" r="4" fill="#0" id="circle22"/>
	<circle cx="18.121" cy="957.167" r="4" fill="#0" id="circle23"/>
	<circle cx="18.121" cy="992.47" r="4" fill="#0" id="circle24"/>
	<circle cx="25.1815" cy="67.5445" r="4" fill="#0" id="circle25"/>
	<circle cx="32.242" cy="32.242" r="4" fill="#0" id="circle26"/>
	<circle cx="35.7722" cy="364.085" r="4" fill="#0" id="circle27"/>
	<circle cx="35.7722" cy="409.979" r="4" fill="#0" id="circle28"/>
	<circle cx="35.7722" cy="445.281" r="4" fill="#0" id="circle29"/>
	<circle cx="42.8327" cy="99.3167" r="4" fill="#0" id="circle30"/>
	<circle cx="53.4235" cy="4" r="4" fill="#0" id="circle31"/>
	<circle cx="53.4235" cy="477.053" r="4" fill="#0" id="circle32"/>
	<circle cx="53.4235" cy="996" r="4" fill="#0" id="circle33"/>
	<circle cx="60.484" cy="53.4235" r="4" fill="#0" id="circle34"/>
	<circle cx="88.726" cy="484.114" r="4" fill="#0" id="circle35"/>
	<circle cx="88.726" cy="996" r="4" fill="#0" id="circle36"/>
	<circle cx="113.438" cy="512.356" r="4" fill="#0" id="circle37"/>
	<circle cx="113.438" cy="547.658" r="4" fill="#0" id="circle38"/>
	<circle cx="113.438" cy="582.961" r="4" fill="#0" id="circle39"/>
	<circle cx="113.438" cy="618.263" r="4" fill="#0" id="circle40"/>
	<circle cx="113.438" cy="653.566" r="4" fill="#0" id="circle41"/>
	<circle cx="113.438" cy="688.868" r="4" fill="#0" id="circle42"/>
	<circle cx="113.438" cy="724.171" r="4" fill="#0" id="circle43"/>
	<circle cx="113.438" cy="759.473" r="4" fill="#0" id="circle44"/>
	<circle cx="113.438" cy="794.776" r="4" fill="#0" id="circle45"/>
	<circle cx="113.438" cy="830.078" r="4" fill="#0" id="circle46"/>
	<circle cx="113.438" cy="865.381" r="4" fill="#0" id="circle47"/>
	<circle cx="113.438" cy="900.683" r="4" fill="#0" id="circle48"/>
	<circle cx="113.438" cy="935.986" r="4" fill="#0" id="circle49"/>
	</g>
</svg>