<?xml version="1.0" encoding="UTF-8" standalone="no"?>
<!-- Created with CurveBenchmark -->
<svg
	xmlns:dc="http://purl.org/dc/elements/1.1/"
	xmlns:cc="http://creativecommons.org/ns#"
	xmlns:rdf="http://www.w3.org/1999/02/22-rdf-syntax-ns#"
	xmlns:svg="http://www.w3.org/2000/svg"
	xmlns="http://www.w3.org/2000/svg"
	xmlns:sodipodi="http://sodipodi.sourceforge.net/DTD/sodipodi-0.dtd"
	xmlns:inkscape="http://www.inkscape.org/namespaces/inkscape"
	width="1000"
	height="1000"
	id="svg2"
	version="1.1"
	sodipodi:docname="manifold/fitconnect-guitar145.png.txt">
<defs
	id="defs4" />
<metadata
	id="metadata7">
	<rdf:RDF>
		<cc:Work
			rdf:about="">
			<dc:format>image/svg+xml</dc:format>
			<dc:type
				rdf:resource="http://purl.org/dc/dcmitype/StillImage" />
			<dc:title></dc:title>
		</cc:Work>
	</rdf:RDF>
</metadata>
<g
	inkscape:label="Layer 1"
	inkscape:groupmode="layer"
	id="layer1">
	<path style="fill:none;stroke:red;stroke-width:1px;stroke-linecap:butt;stroke-linejoin:miter;stroke-opacity:1" d="M 4,836.571 39.4286,574.4 z" id="boundary" inkscape:connector-curvature="0" />
	<path style="fill:none;stroke:red;stroke-width:1px;stroke-linecap:butt;stroke-linejoin:miter;stroke-opacity:1" d="M 4,836.571 64.2286,964.114 z" id="boundary" inkscape:connector-curvature="0" />
	<path style="fill:none;stroke:red;stroke-width:1px;stroke-linecap:butt;stroke-linejoin:miter;stroke-opacity:1" d="M 39.4286,574.4 188.229,418.514 z" id="boundary" inkscape:connector-curvature="0" />
	<path style="fill:none;stroke:red;stroke-width:1px;stroke-linecap:butt;stroke-linejoin:miter;stroke-opacity:1" d="M 64.2286,964.114 131.543,992.457 z" id="boundary" inkscape:connector-curvature="0" />
	<path style="fill:none;stroke:red;stroke-width:1px;stroke-linecap:butt;stroke-linejoin:miter;stroke-opacity:1" d="M 131.543,992.457 237.829,996 z" id="boundary" inkscape:connector-curvature="0" />
	<path style="fill:none;stroke:red;stroke-width:1px;stroke-linecap:butt;stroke-linejoin:miter;stroke-opacity:1" d="M 152.8,28.8 166.971,99.6571 z" id="boundary" inkscape:connector-curvature="0" />
	<path style="fill:none;stroke:red;stroke-width:1px;stroke-linecap:butt;stroke-linejoin:miter;stroke-opacity:1" d="M 152.8,28.8 181.143,7.54286 z" id="boundary" inkscape:connector-curvature="0" />
	<path style="fill:none;stroke:red;stroke-width:1px;stroke-linecap:butt;stroke-linejoin:miter;stroke-opacity:1" d="M 166.971,99.6571 195.314,234.286 z" id="boundary" inkscape:connector-curvature="0" />
	<path style="fill:none;stroke:red;stroke-width:1px;stroke-linecap:butt;stroke-linejoin:miter;stroke-opacity:1" d="M 181.143,7.54286 333.486,709.029 z" id="boundary" inkscape:connector-curvature="0" />
	<path style="fill:none;stroke:red;stroke-width:1px;stroke-linecap:butt;stroke-linejoin:miter;stroke-opacity:1" d="M 188.229,418.514 241.371,326.4 z" id="boundary" inkscape:connector-curvature="0" />
	<path style="fill:none;stroke:red;stroke-width:1px;stroke-linecap:butt;stroke-linejoin:miter;stroke-opacity:1" d="M 195.314,234.286 241.371,326.4 z" id="boundary" inkscape:connector-curvature="0" />
	<path style="fill:none;stroke:red;stroke-width:1px;stroke-linecap:butt;stroke-linejoin:miter;stroke-opacity:1" d="M 237.829,996 361.829,921.6 z" id="boundary" inkscape:connector-curvature="0" />
	<path style="fill:none;stroke:red;stroke-width:1px;stroke-linecap:butt;stroke-linejoin:miter;stroke-opacity:1" d="M 333.486,709.029 376,808.229 z" id="boundary" inkscape:connector-curvature="0" />
	<path style="fill:none;stroke:red;stroke-width:1px;stroke-linecap:butt;stroke-linejoin:miter;stroke-opacity:1" d="M 361.829,921.6 376,808.229 z" id="boundary" inkscape:connector-curvature="0" />
	<circle cx="4" cy="836.571" r="4" fill="#0" id="circle0"/>
	<circle cx="11.0857" cy="794.057" r="4" fill="#0" id="circle1"/>
	<circle cx="11.0857" cy="872" r="4" fill="#0" id="circle2"/>
	<circle cx="18.1714" cy="907.429" r="4" fill="#0" id="circle3"/>
	<circle cx="25.2571" cy="758.629" r="4" fill="#0" id="circle4"/>
	<circle cx="39.4286" cy="574.4" r="4" fill="#0" id="circle5"/>
	<circle cx="39.4286" cy="935.771" r="4" fill="#0" id="circle6"/>
	<circle cx="42.9714" cy="726.743" r="4" fill="#0" id="circle7"/>
	<circle cx="46.5143" cy="609.829" r="4" fill="#0" id="circle8"/>
	<circle cx="57.1429" cy="645.257" r="4" fill="#0" id="circle9"/>
	<circle cx="60.6857" cy="546.057" r="4" fill="#0" id="circle10"/>
	<circle cx="60.6857" cy="680.686" r="4" fill="#0" id="circle11"/>
	<circle cx="64.2286" cy="964.114" r="4" fill="#0" id="circle12"/>
	<circle cx="96.1143" cy="546.057" r="4" fill="#0" id="circle13"/>
	<circle cx="96.1143" cy="981.829" r="4" fill="#0" id="circle14"/>
	<circle cx="128" cy="563.771" r="4" fill="#0" id="circle15"/>
	<circle cx="131.543" cy="992.457" r="4" fill="#0" id="circle16"/>
	<circle cx="138.629" cy="496.457" r="4" fill="#0" id="circle17"/>
	<circle cx="152.8" cy="28.8" r="4" fill="#0" id="circle18"/>
	<circle cx="159.886" cy="64.2286" r="4" fill="#0" id="circle19"/>
	<circle cx="166.971" cy="99.6571" r="4" fill="#0" id="circle20"/>
	<circle cx="166.971" cy="996" r="4" fill="#0" id="circle21"/>
	<circle cx="174.057" cy="482.286" r="4" fill="#0" id="circle22"/>
	<circle cx="181.143" cy="7.54286" r="4" fill="#0" id="circle23"/>
	<circle cx="188.229" cy="418.514" r="4" fill="#0" id="circle24"/>
	<circle cx="191.771" cy="128" r="4" fill="#0" id="circle25"/>
	<circle cx="195.314" cy="163.429" r="4" fill="#0" id="circle26"/>
	<circle cx="195.314" cy="198.857" r="4" fill="#0" id="circle27"/>
	<circle cx="195.314" cy="234.286" r="4" fill="#0" id="circle28"/>
	<circle cx="195.314" cy="269.714" r="4" fill="#0" id="circle29"/>
	<circle cx="195.314" cy="305.143" r="4" fill="#0" id="circle30"/>
	<circle cx="195.314" cy="340.571" r="4" fill="#0" id="circle31"/>
	<circle cx="195.314" cy="376" r="4" fill="#0" id="circle32"/>
	<circle cx="202.4" cy="996" r="4" fill="#0" id="circle33"/>
	<circle cx="216.571" cy="4" r="4" fill="#0" id="circle34"/>
	<circle cx="234.286" cy="42.9714" r="4" fill="#0" id="circle35"/>
	<circle cx="237.829" cy="996" r="4" fill="#0" id="circle36"/>
	<circle cx="241.371" cy="78.4" r="4" fill="#0" id="circle37"/>
	<circle cx="241.371" cy="113.829" r="4" fill="#0" id="circle38"/>
	<circle cx="241.371" cy="149.257" r="4" fill="#0" id="circle39"/>
	<circle cx="241.371" cy="184.686" r="4" fill="#0" id="circle40"/>
	<circle cx="241.371" cy="220.114" r="4" fill="#0" id="circle41"/>
	<circle cx="241.371" cy="255.543" r="4" fill="#0" id="circle42"/>
	<circle cx="241.371" cy="290.971" r="4" fill="#0" id="circle43"/>
	<circle cx="241.371" cy="326.4" r="4" fill="#0" id="circle44"/>
	<circle cx="248.457" cy="361.829" r="4" fill="#0" id="circle45"/>
	<circle cx="248.457" cy="397.257" r="4" fill="#0" id="circle46"/>
	<circle cx="248.457" cy="432.686" r="4" fill="#0" id="circle47"/>
	<circle cx="248.457" cy="468.114" r="4" fill="#0" id="circle48"/>
	<circle cx="252" cy="503.543" r="4" fill="#0" id="circle49"/>
	<circle cx="273.257" cy="988.914" r="4" fill="#0" id="circle50"/>
	<circle cx="287.429" cy="510.629" r="4" fill="#0" id="circle51"/>
	<circle cx="308.686" cy="974.743" r="4" fill="#0" id="circle52"/>
	<circle cx="319.314" cy="528.343" r="4" fill="#0" id="circle53"/>
	<circle cx="326.4" cy="638.171" r="4" fill="#0" id="circle54"/>
	<circle cx="326.4" cy="673.6" r="4" fill="#0" id="circle55"/>
	<circle cx="333.486" cy="709.029" r="4" fill="#0" id="circle56"/>
	<circle cx="337.029" cy="953.486" r="4" fill="#0" id="circle57"/>
	<circle cx="340.571" cy="556.686" r="4" fill="#0" id="circle58"/>
	<circle cx="340.571" cy="602.743" r="4" fill="#0" id="circle59"/>
	<circle cx="351.2" cy="740.914" r="4" fill="#0" id="circle60"/>
	<circle cx="361.829" cy="921.6" r="4" fill="#0" id="circle61"/>
	<circle cx="368.914" cy="772.8" r="4" fill="#0" id="circle62"/>
	<circle cx="376" cy="808.229" r="4" fill="#0" id="circle63"/>
	<circle cx="376" cy="886.171" r="4" fill="#0" id="circle64"/>
	<circle cx="383.086" cy="843.657" r="4" fill="#0" id="circle65"/>
	</g>
</svg>