<?xml version="1.0" encoding="UTF-8" standalone="no"?>
<!-- Created with CurveBenchmark -->
<svg
	xmlns:dc="http://purl.org/dc/elements/1.1/"
	xmlns:cc="http://creativecommons.org/ns#"
	xmlns:rdf="http://www.w3.org/1999/02/22-rdf-syntax-ns#"
	xmlns:svg="http://www.w3.org/2000/svg"
	xmlns="http://www.w3.org/2000/svg"
	xmlns:sodipodi="http://sodipodi.sourceforge.net/DTD/sodipodi-0.dtd"
	xmlns:inkscape="http://www.inkscape.org/namespaces/inkscape"
	width="1000"
	height="1000"
	id="svg2"
	version="1.1"
	sodipodi:docname="manifold/gathang-cat23.png.txt">
<defs
	id="defs4" />
<metadata
	id="metadata7">
	<rdf:RDF>
		<cc:Work
			rdf:about="">
			<dc:format>image/svg+xml</dc:format>
			<dc:type
				rdf:resource="http://purl.org/dc/dcmitype/StillImage" />
			<dc:title></dc:title>
		</cc:Work>
	</rdf:RDF>
</metadata>
<g
	inkscape:label="Layer 1"
	inkscape:groupmode="layer"
	id="layer1">
	<path style="fill:none;stroke:red;stroke-width:1px;stroke-linecap:butt;stroke-linejoin:miter;stroke-opacity:1" d="M 25.8502,8.37004 33.1336,21.4802 z" id="boundary" inkscape:connector-curvature="0" />
	<path style="fill:none;stroke:red;stroke-width:1px;stroke-linecap:butt;stroke-linejoin:miter;stroke-opacity:1" d="M 25.8502,8.37004 40.417,4 z" id="boundary" inkscape:connector-curvature="0" />
	<path style="fill:none;stroke:red;stroke-width:1px;stroke-linecap:butt;stroke-linejoin:miter;stroke-opacity:1" d="M 33.1336,36.047 33.1336,21.4802 z" id="boundary" inkscape:connector-curvature="0" />
	<path style="fill:none;stroke:red;stroke-width:1px;stroke-linecap:butt;stroke-linejoin:miter;stroke-opacity:1" d="M 33.1336,36.047 22.9369,47.7004 z" id="boundary" inkscape:connector-curvature="0" />
	<path style="fill:none;stroke:red;stroke-width:1px;stroke-linecap:butt;stroke-linejoin:miter;stroke-opacity:1" d="M 4,88.4875 4,73.9207 z" id="boundary" inkscape:connector-curvature="0" />
	<path style="fill:none;stroke:red;stroke-width:1px;stroke-linecap:butt;stroke-linejoin:miter;stroke-opacity:1" d="M 4,73.9207 11.2834,59.3539 z" id="boundary" inkscape:connector-curvature="0" />
	<path style="fill:none;stroke:red;stroke-width:1px;stroke-linecap:butt;stroke-linejoin:miter;stroke-opacity:1" d="M 22.9369,47.7004 11.2834,59.3539 z" id="boundary" inkscape:connector-curvature="0" />
	<path style="fill:none;stroke:red;stroke-width:1px;stroke-linecap:butt;stroke-linejoin:miter;stroke-opacity:1" d="M 68.094,11.2834 53.5272,11.2834 z" id="boundary" inkscape:connector-curvature="0" />
	<path style="fill:none;stroke:red;stroke-width:1px;stroke-linecap:butt;stroke-linejoin:miter;stroke-opacity:1" d="M 53.5272,11.2834 40.417,4 z" id="boundary" inkscape:connector-curvature="0" />
	<path style="fill:none;stroke:red;stroke-width:1px;stroke-linecap:butt;stroke-linejoin:miter;stroke-opacity:1" d="M 82.6608,11.2834 68.094,11.2834 z" id="boundary" inkscape:connector-curvature="0" />
	<path style="fill:none;stroke:red;stroke-width:1px;stroke-linecap:butt;stroke-linejoin:miter;stroke-opacity:1" d="M 82.6608,11.2834 95.7709,18.5668 z" id="boundary" inkscape:connector-curvature="0" />
	<path style="fill:none;stroke:red;stroke-width:1px;stroke-linecap:butt;stroke-linejoin:miter;stroke-opacity:1" d="M 110.338,18.5668 95.7709,18.5668 z" id="boundary" inkscape:connector-curvature="0" />
	<path style="fill:none;stroke:red;stroke-width:1px;stroke-linecap:butt;stroke-linejoin:miter;stroke-opacity:1" d="M 124.905,18.5668 110.338,18.5668 z" id="boundary" inkscape:connector-curvature="0" />
	<path style="fill:none;stroke:red;stroke-width:1px;stroke-linecap:butt;stroke-linejoin:miter;stroke-opacity:1" d="M 139.471,18.5668 124.905,18.5668 z" id="boundary" inkscape:connector-curvature="0" />
	<path style="fill:none;stroke:red;stroke-width:1px;stroke-linecap:butt;stroke-linejoin:miter;stroke-opacity:1" d="M 4,117.621 4,103.054 z" id="boundary" inkscape:connector-curvature="0" />
	<path style="fill:none;stroke:red;stroke-width:1px;stroke-linecap:butt;stroke-linejoin:miter;stroke-opacity:1" d="M 11.2834,145.298 4,132.188 z" id="boundary" inkscape:connector-curvature="0" />
	<path style="fill:none;stroke:red;stroke-width:1px;stroke-linecap:butt;stroke-linejoin:miter;stroke-opacity:1" d="M 4,132.188 4,117.621 z" id="boundary" inkscape:connector-curvature="0" />
	<path style="fill:none;stroke:red;stroke-width:1px;stroke-linecap:butt;stroke-linejoin:miter;stroke-opacity:1" d="M 21.4802,156.952 11.2834,145.298 z" id="boundary" inkscape:connector-curvature="0" />
	<path style="fill:none;stroke:red;stroke-width:1px;stroke-linecap:butt;stroke-linejoin:miter;stroke-opacity:1" d="M 4,103.054 4,88.4875 z" id="boundary" inkscape:connector-curvature="0" />
	<path style="fill:none;stroke:red;stroke-width:1px;stroke-linecap:butt;stroke-linejoin:miter;stroke-opacity:1" d="M 60.8106,172.975 46.2438,172.975 z" id="boundary" inkscape:connector-curvature="0" />
	<path style="fill:none;stroke:red;stroke-width:1px;stroke-linecap:butt;stroke-linejoin:miter;stroke-opacity:1" d="M 46.2438,172.975 33.1336,165.692 z" id="boundary" inkscape:connector-curvature="0" />
	<path style="fill:none;stroke:red;stroke-width:1px;stroke-linecap:butt;stroke-linejoin:miter;stroke-opacity:1" d="M 33.1336,165.692 21.4802,156.952 z" id="boundary" inkscape:connector-curvature="0" />
	<path style="fill:none;stroke:red;stroke-width:1px;stroke-linecap:butt;stroke-linejoin:miter;stroke-opacity:1" d="M 75.3774,172.975 89.9442,172.975 z" id="boundary" inkscape:connector-curvature="0" />
	<path style="fill:none;stroke:red;stroke-width:1px;stroke-linecap:butt;stroke-linejoin:miter;stroke-opacity:1" d="M 75.3774,172.975 60.8106,172.975 z" id="boundary" inkscape:connector-curvature="0" />
	<path style="fill:none;stroke:red;stroke-width:1px;stroke-linecap:butt;stroke-linejoin:miter;stroke-opacity:1" d="M 104.511,172.975 117.621,180.258 z" id="boundary" inkscape:connector-curvature="0" />
	<path style="fill:none;stroke:red;stroke-width:1px;stroke-linecap:butt;stroke-linejoin:miter;stroke-opacity:1" d="M 89.9442,172.975 104.511,172.975 z" id="boundary" inkscape:connector-curvature="0" />
	<path style="fill:none;stroke:red;stroke-width:1px;stroke-linecap:butt;stroke-linejoin:miter;stroke-opacity:1" d="M 117.621,180.258 129.275,190.455 z" id="boundary" inkscape:connector-curvature="0" />
	<path style="fill:none;stroke:red;stroke-width:1px;stroke-linecap:butt;stroke-linejoin:miter;stroke-opacity:1" d="M 167.148,25.8502 152.581,25.8502 z" id="boundary" inkscape:connector-curvature="0" />
	<path style="fill:none;stroke:red;stroke-width:1px;stroke-linecap:butt;stroke-linejoin:miter;stroke-opacity:1" d="M 152.581,25.8502 139.471,18.5668 z" id="boundary" inkscape:connector-curvature="0" />
	<path style="fill:none;stroke:red;stroke-width:1px;stroke-linecap:butt;stroke-linejoin:miter;stroke-opacity:1" d="M 167.148,25.8502 180.258,33.1336 z" id="boundary" inkscape:connector-curvature="0" />
	<path style="fill:none;stroke:red;stroke-width:1px;stroke-linecap:butt;stroke-linejoin:miter;stroke-opacity:1" d="M 237.069,25.8502 251.636,25.8502 z" id="boundary" inkscape:connector-curvature="0" />
	<path style="fill:none;stroke:red;stroke-width:1px;stroke-linecap:butt;stroke-linejoin:miter;stroke-opacity:1" d="M 223.959,33.1336 237.069,25.8502 z" id="boundary" inkscape:connector-curvature="0" />
	<path style="fill:none;stroke:red;stroke-width:1px;stroke-linecap:butt;stroke-linejoin:miter;stroke-opacity:1" d="M 266.203,25.8502 251.636,25.8502 z" id="boundary" inkscape:connector-curvature="0" />
	<path style="fill:none;stroke:red;stroke-width:1px;stroke-linecap:butt;stroke-linejoin:miter;stroke-opacity:1" d="M 381.28,18.5668 366.714,18.5668 z" id="boundary" inkscape:connector-curvature="0" />
	<path style="fill:none;stroke:red;stroke-width:1px;stroke-linecap:butt;stroke-linejoin:miter;stroke-opacity:1" d="M 280.769,25.8502 266.203,25.8502 z" id="boundary" inkscape:connector-curvature="0" />
	<path style="fill:none;stroke:red;stroke-width:1px;stroke-linecap:butt;stroke-linejoin:miter;stroke-opacity:1" d="M 423.524,11.2834 408.957,11.2834 z" id="boundary" inkscape:connector-curvature="0" />
	<path style="fill:none;stroke:red;stroke-width:1px;stroke-linecap:butt;stroke-linejoin:miter;stroke-opacity:1" d="M 395.847,18.5668 408.957,11.2834 z" id="boundary" inkscape:connector-curvature="0" />
	<path style="fill:none;stroke:red;stroke-width:1px;stroke-linecap:butt;stroke-linejoin:miter;stroke-opacity:1" d="M 295.336,25.8502 280.769,25.8502 z" id="boundary" inkscape:connector-curvature="0" />
	<path style="fill:none;stroke:red;stroke-width:1px;stroke-linecap:butt;stroke-linejoin:miter;stroke-opacity:1" d="M 353.604,25.8502 366.714,18.5668 z" id="boundary" inkscape:connector-curvature="0" />
	<path style="fill:none;stroke:red;stroke-width:1px;stroke-linecap:butt;stroke-linejoin:miter;stroke-opacity:1" d="M 395.847,18.5668 381.28,18.5668 z" id="boundary" inkscape:connector-curvature="0" />
	<path style="fill:none;stroke:red;stroke-width:1px;stroke-linecap:butt;stroke-linejoin:miter;stroke-opacity:1" d="M 309.903,25.8502 295.336,25.8502 z" id="boundary" inkscape:connector-curvature="0" />
	<path style="fill:none;stroke:red;stroke-width:1px;stroke-linecap:butt;stroke-linejoin:miter;stroke-opacity:1" d="M 139.471,202.109 129.275,190.455 z" id="boundary" inkscape:connector-curvature="0" />
	<path style="fill:none;stroke:red;stroke-width:1px;stroke-linecap:butt;stroke-linejoin:miter;stroke-opacity:1" d="M 151.125,212.305 139.471,202.109 z" id="boundary" inkscape:connector-curvature="0" />
	<path style="fill:none;stroke:red;stroke-width:1px;stroke-linecap:butt;stroke-linejoin:miter;stroke-opacity:1" d="M 151.125,212.305 161.322,223.959 z" id="boundary" inkscape:connector-curvature="0" />
	<path style="fill:none;stroke:red;stroke-width:1px;stroke-linecap:butt;stroke-linejoin:miter;stroke-opacity:1" d="M 172.975,234.156 161.322,223.959 z" id="boundary" inkscape:connector-curvature="0" />
	<path style="fill:none;stroke:red;stroke-width:1px;stroke-linecap:butt;stroke-linejoin:miter;stroke-opacity:1" d="M 180.258,33.1336 194.825,33.1336 z" id="boundary" inkscape:connector-curvature="0" />
	<path style="fill:none;stroke:red;stroke-width:1px;stroke-linecap:butt;stroke-linejoin:miter;stroke-opacity:1" d="M 324.47,25.8502 309.903,25.8502 z" id="boundary" inkscape:connector-curvature="0" />
	<path style="fill:none;stroke:red;stroke-width:1px;stroke-linecap:butt;stroke-linejoin:miter;stroke-opacity:1" d="M 339.037,25.8502 324.47,25.8502 z" id="boundary" inkscape:connector-curvature="0" />
	<path style="fill:none;stroke:red;stroke-width:1px;stroke-linecap:butt;stroke-linejoin:miter;stroke-opacity:1" d="M 194.825,33.1336 209.392,33.1336 z" id="boundary" inkscape:connector-curvature="0" />
	<path style="fill:none;stroke:red;stroke-width:1px;stroke-linecap:butt;stroke-linejoin:miter;stroke-opacity:1" d="M 194.825,256.006 183.172,245.809 z" id="boundary" inkscape:connector-curvature="0" />
	<path style="fill:none;stroke:red;stroke-width:1px;stroke-linecap:butt;stroke-linejoin:miter;stroke-opacity:1" d="M 183.172,245.809 172.975,234.156 z" id="boundary" inkscape:connector-curvature="0" />
	<path style="fill:none;stroke:red;stroke-width:1px;stroke-linecap:butt;stroke-linejoin:miter;stroke-opacity:1" d="M 223.959,33.1336 209.392,33.1336 z" id="boundary" inkscape:connector-curvature="0" />
	<path style="fill:none;stroke:red;stroke-width:1px;stroke-linecap:butt;stroke-linejoin:miter;stroke-opacity:1" d="M 353.604,25.8502 339.037,25.8502 z" id="boundary" inkscape:connector-curvature="0" />
	<path style="fill:none;stroke:red;stroke-width:1px;stroke-linecap:butt;stroke-linejoin:miter;stroke-opacity:1" d="M 446.831,282.226 432.264,282.226 z" id="boundary" inkscape:connector-curvature="0" />
	<path style="fill:none;stroke:red;stroke-width:1px;stroke-linecap:butt;stroke-linejoin:miter;stroke-opacity:1" d="M 438.091,11.2834 423.524,11.2834 z" id="boundary" inkscape:connector-curvature="0" />
	<path style="fill:none;stroke:red;stroke-width:1px;stroke-linecap:butt;stroke-linejoin:miter;stroke-opacity:1" d="M 194.825,256.006 205.022,267.659 z" id="boundary" inkscape:connector-curvature="0" />
	<path style="fill:none;stroke:red;stroke-width:1px;stroke-linecap:butt;stroke-linejoin:miter;stroke-opacity:1" d="M 330.297,286.596 318.643,296.793 z" id="boundary" inkscape:connector-curvature="0" />
	<path style="fill:none;stroke:red;stroke-width:1px;stroke-linecap:butt;stroke-linejoin:miter;stroke-opacity:1" d="M 212.305,280.769 205.022,267.659 z" id="boundary" inkscape:connector-curvature="0" />
	<path style="fill:none;stroke:red;stroke-width:1px;stroke-linecap:butt;stroke-linejoin:miter;stroke-opacity:1" d="M 212.305,280.769 215.219,295.336 z" id="boundary" inkscape:connector-curvature="0" />
	<path style="fill:none;stroke:red;stroke-width:1px;stroke-linecap:butt;stroke-linejoin:miter;stroke-opacity:1" d="M 215.219,295.336 215.219,309.903 z" id="boundary" inkscape:connector-curvature="0" />
	<path style="fill:none;stroke:red;stroke-width:1px;stroke-linecap:butt;stroke-linejoin:miter;stroke-opacity:1" d="M 215.219,309.903 215.219,324.47 z" id="boundary" inkscape:connector-curvature="0" />
	<path style="fill:none;stroke:red;stroke-width:1px;stroke-linecap:butt;stroke-linejoin:miter;stroke-opacity:1" d="M 215.219,324.47 207.935,350.69 z" id="boundary" inkscape:connector-curvature="0" />
	<path style="fill:none;stroke:red;stroke-width:1px;stroke-linecap:butt;stroke-linejoin:miter;stroke-opacity:1" d="M 295.336,340.493 280.769,340.493 z" id="boundary" inkscape:connector-curvature="0" />
	<path style="fill:none;stroke:red;stroke-width:1px;stroke-linecap:butt;stroke-linejoin:miter;stroke-opacity:1" d="M 280.769,340.493 272.029,352.147 z" id="boundary" inkscape:connector-curvature="0" />
	<path style="fill:none;stroke:red;stroke-width:1px;stroke-linecap:butt;stroke-linejoin:miter;stroke-opacity:1" d="M 295.336,340.493 308.446,347.777 z" id="boundary" inkscape:connector-curvature="0" />
	<path style="fill:none;stroke:red;stroke-width:1px;stroke-linecap:butt;stroke-linejoin:miter;stroke-opacity:1" d="M 264.746,366.714 272.029,352.147 z" id="boundary" inkscape:connector-curvature="0" />
	<path style="fill:none;stroke:red;stroke-width:1px;stroke-linecap:butt;stroke-linejoin:miter;stroke-opacity:1" d="M 318.643,359.43 308.446,347.777 z" id="boundary" inkscape:connector-curvature="0" />
	<path style="fill:none;stroke:red;stroke-width:1px;stroke-linecap:butt;stroke-linejoin:miter;stroke-opacity:1" d="M 318.643,296.793 325.927,309.903 z" id="boundary" inkscape:connector-curvature="0" />
	<path style="fill:none;stroke:red;stroke-width:1px;stroke-linecap:butt;stroke-linejoin:miter;stroke-opacity:1" d="M 200.652,372.54 191.912,390.021 z" id="boundary" inkscape:connector-curvature="0" />
	<path style="fill:none;stroke:red;stroke-width:1px;stroke-linecap:butt;stroke-linejoin:miter;stroke-opacity:1" d="M 191.912,390.021 178.802,397.304 z" id="boundary" inkscape:connector-curvature="0" />
	<path style="fill:none;stroke:red;stroke-width:1px;stroke-linecap:butt;stroke-linejoin:miter;stroke-opacity:1" d="M 178.802,397.304 164.235,401.674 z" id="boundary" inkscape:connector-curvature="0" />
	<path style="fill:none;stroke:red;stroke-width:1px;stroke-linecap:butt;stroke-linejoin:miter;stroke-opacity:1" d="M 156.952,416.241 164.235,401.674 z" id="boundary" inkscape:connector-curvature="0" />
	<path style="fill:none;stroke:red;stroke-width:1px;stroke-linecap:butt;stroke-linejoin:miter;stroke-opacity:1" d="M 165.692,427.894 156.952,416.241 z" id="boundary" inkscape:connector-curvature="0" />
	<path style="fill:none;stroke:red;stroke-width:1px;stroke-linecap:butt;stroke-linejoin:miter;stroke-opacity:1" d="M 180.258,427.894 165.692,427.894 z" id="boundary" inkscape:connector-curvature="0" />
	<path style="fill:none;stroke:red;stroke-width:1px;stroke-linecap:butt;stroke-linejoin:miter;stroke-opacity:1" d="M 194.825,427.894 180.258,427.894 z" id="boundary" inkscape:connector-curvature="0" />
	<path style="fill:none;stroke:red;stroke-width:1px;stroke-linecap:butt;stroke-linejoin:miter;stroke-opacity:1" d="M 209.392,427.894 194.825,427.894 z" id="boundary" inkscape:connector-curvature="0" />
	<path style="fill:none;stroke:red;stroke-width:1px;stroke-linecap:butt;stroke-linejoin:miter;stroke-opacity:1" d="M 200.652,372.54 207.935,350.69 z" id="boundary" inkscape:connector-curvature="0" />
	<path style="fill:none;stroke:red;stroke-width:1px;stroke-linecap:butt;stroke-linejoin:miter;stroke-opacity:1" d="M 264.746,366.714 253.093,376.91 z" id="boundary" inkscape:connector-curvature="0" />
	<path style="fill:none;stroke:red;stroke-width:1px;stroke-linecap:butt;stroke-linejoin:miter;stroke-opacity:1" d="M 242.896,395.847 253.093,376.91 z" id="boundary" inkscape:connector-curvature="0" />
	<path style="fill:none;stroke:red;stroke-width:1px;stroke-linecap:butt;stroke-linejoin:miter;stroke-opacity:1" d="M 209.392,427.894 221.046,417.698 z" id="boundary" inkscape:connector-curvature="0" />
	<path style="fill:none;stroke:red;stroke-width:1px;stroke-linecap:butt;stroke-linejoin:miter;stroke-opacity:1" d="M 221.046,417.698 231.242,406.044 z" id="boundary" inkscape:connector-curvature="0" />
	<path style="fill:none;stroke:red;stroke-width:1px;stroke-linecap:butt;stroke-linejoin:miter;stroke-opacity:1" d="M 242.896,395.847 231.242,406.044 z" id="boundary" inkscape:connector-curvature="0" />
	<path style="fill:none;stroke:red;stroke-width:1px;stroke-linecap:butt;stroke-linejoin:miter;stroke-opacity:1" d="M 318.643,359.43 325.927,372.54 z" id="boundary" inkscape:connector-curvature="0" />
	<path style="fill:none;stroke:red;stroke-width:1px;stroke-linecap:butt;stroke-linejoin:miter;stroke-opacity:1" d="M 337.58,318.643 325.927,309.903 z" id="boundary" inkscape:connector-curvature="0" />
	<path style="fill:none;stroke:red;stroke-width:1px;stroke-linecap:butt;stroke-linejoin:miter;stroke-opacity:1" d="M 330.297,286.596 344.863,282.226 z" id="boundary" inkscape:connector-curvature="0" />
	<path style="fill:none;stroke:red;stroke-width:1px;stroke-linecap:butt;stroke-linejoin:miter;stroke-opacity:1" d="M 347.777,330.297 355.06,343.407 z" id="boundary" inkscape:connector-curvature="0" />
	<path style="fill:none;stroke:red;stroke-width:1px;stroke-linecap:butt;stroke-linejoin:miter;stroke-opacity:1" d="M 347.777,330.297 337.58,318.643 z" id="boundary" inkscape:connector-curvature="0" />
	<path style="fill:none;stroke:red;stroke-width:1px;stroke-linecap:butt;stroke-linejoin:miter;stroke-opacity:1" d="M 344.863,282.226 359.43,282.226 z" id="boundary" inkscape:connector-curvature="0" />
	<path style="fill:none;stroke:red;stroke-width:1px;stroke-linecap:butt;stroke-linejoin:miter;stroke-opacity:1" d="M 355.06,343.407 355.06,357.974 z" id="boundary" inkscape:connector-curvature="0" />
	<path style="fill:none;stroke:red;stroke-width:1px;stroke-linecap:butt;stroke-linejoin:miter;stroke-opacity:1" d="M 373.997,282.226 388.564,282.226 z" id="boundary" inkscape:connector-curvature="0" />
	<path style="fill:none;stroke:red;stroke-width:1px;stroke-linecap:butt;stroke-linejoin:miter;stroke-opacity:1" d="M 373.997,282.226 359.43,282.226 z" id="boundary" inkscape:connector-curvature="0" />
	<path style="fill:none;stroke:red;stroke-width:1px;stroke-linecap:butt;stroke-linejoin:miter;stroke-opacity:1" d="M 403.131,282.226 417.698,282.226 z" id="boundary" inkscape:connector-curvature="0" />
	<path style="fill:none;stroke:red;stroke-width:1px;stroke-linecap:butt;stroke-linejoin:miter;stroke-opacity:1" d="M 403.131,282.226 388.564,282.226 z" id="boundary" inkscape:connector-curvature="0" />
	<path style="fill:none;stroke:red;stroke-width:1px;stroke-linecap:butt;stroke-linejoin:miter;stroke-opacity:1" d="M 442.461,327.383 432.264,339.037 z" id="boundary" inkscape:connector-curvature="0" />
	<path style="fill:none;stroke:red;stroke-width:1px;stroke-linecap:butt;stroke-linejoin:miter;stroke-opacity:1" d="M 417.698,282.226 432.264,282.226 z" id="boundary" inkscape:connector-curvature="0" />
	<path style="fill:none;stroke:red;stroke-width:1px;stroke-linecap:butt;stroke-linejoin:miter;stroke-opacity:1" d="M 432.264,339.037 419.154,346.32 z" id="boundary" inkscape:connector-curvature="0" />
	<path style="fill:none;stroke:red;stroke-width:1px;stroke-linecap:butt;stroke-linejoin:miter;stroke-opacity:1" d="M 375.454,357.974 355.06,357.974 z" id="boundary" inkscape:connector-curvature="0" />
	<path style="fill:none;stroke:red;stroke-width:1px;stroke-linecap:butt;stroke-linejoin:miter;stroke-opacity:1" d="M 336.123,384.194 349.233,376.91 z" id="boundary" inkscape:connector-curvature="0" />
	<path style="fill:none;stroke:red;stroke-width:1px;stroke-linecap:butt;stroke-linejoin:miter;stroke-opacity:1" d="M 349.233,376.91 375.454,387.107 z" id="boundary" inkscape:connector-curvature="0" />
	<path style="fill:none;stroke:red;stroke-width:1px;stroke-linecap:butt;stroke-linejoin:miter;stroke-opacity:1" d="M 336.123,384.194 325.927,372.54 z" id="boundary" inkscape:connector-curvature="0" />
	<path style="fill:none;stroke:red;stroke-width:1px;stroke-linecap:butt;stroke-linejoin:miter;stroke-opacity:1" d="M 390.021,391.477 375.454,387.107 z" id="boundary" inkscape:connector-curvature="0" />
	<path style="fill:none;stroke:red;stroke-width:1px;stroke-linecap:butt;stroke-linejoin:miter;stroke-opacity:1" d="M 375.454,357.974 390.021,353.604 z" id="boundary" inkscape:connector-curvature="0" />
	<path style="fill:none;stroke:red;stroke-width:1px;stroke-linecap:butt;stroke-linejoin:miter;stroke-opacity:1" d="M 404.587,350.69 390.021,353.604 z" id="boundary" inkscape:connector-curvature="0" />
	<path style="fill:none;stroke:red;stroke-width:1px;stroke-linecap:butt;stroke-linejoin:miter;stroke-opacity:1" d="M 404.587,350.69 419.154,346.32 z" id="boundary" inkscape:connector-curvature="0" />
	<path style="fill:none;stroke:red;stroke-width:1px;stroke-linecap:butt;stroke-linejoin:miter;stroke-opacity:1" d="M 390.021,391.477 404.587,391.477 z" id="boundary" inkscape:connector-curvature="0" />
	<path style="fill:none;stroke:red;stroke-width:1px;stroke-linecap:butt;stroke-linejoin:miter;stroke-opacity:1" d="M 417.698,384.194 432.264,381.28 z" id="boundary" inkscape:connector-curvature="0" />
	<path style="fill:none;stroke:red;stroke-width:1px;stroke-linecap:butt;stroke-linejoin:miter;stroke-opacity:1" d="M 404.587,391.477 417.698,384.194 z" id="boundary" inkscape:connector-curvature="0" />
	<path style="fill:none;stroke:red;stroke-width:1px;stroke-linecap:butt;stroke-linejoin:miter;stroke-opacity:1" d="M 446.831,373.997 432.264,381.28 z" id="boundary" inkscape:connector-curvature="0" />
	<path style="fill:none;stroke:red;stroke-width:1px;stroke-linecap:butt;stroke-linejoin:miter;stroke-opacity:1" d="M 438.091,11.2834 452.658,11.2834 z" id="boundary" inkscape:connector-curvature="0" />
	<path style="fill:none;stroke:red;stroke-width:1px;stroke-linecap:butt;stroke-linejoin:miter;stroke-opacity:1" d="M 467.225,11.2834 452.658,11.2834 z" id="boundary" inkscape:connector-curvature="0" />
	<path style="fill:none;stroke:red;stroke-width:1px;stroke-linecap:butt;stroke-linejoin:miter;stroke-opacity:1" d="M 481.791,11.2834 496.358,11.2834 z" id="boundary" inkscape:connector-curvature="0" />
	<path style="fill:none;stroke:red;stroke-width:1px;stroke-linecap:butt;stroke-linejoin:miter;stroke-opacity:1" d="M 496.358,11.2834 509.468,18.5668 z" id="boundary" inkscape:connector-curvature="0" />
	<path style="fill:none;stroke:red;stroke-width:1px;stroke-linecap:butt;stroke-linejoin:miter;stroke-opacity:1" d="M 524.035,18.5668 509.468,18.5668 z" id="boundary" inkscape:connector-curvature="0" />
	<path style="fill:none;stroke:red;stroke-width:1px;stroke-linecap:butt;stroke-linejoin:miter;stroke-opacity:1" d="M 467.225,11.2834 481.791,11.2834 z" id="boundary" inkscape:connector-curvature="0" />
	<path style="fill:none;stroke:red;stroke-width:1px;stroke-linecap:butt;stroke-linejoin:miter;stroke-opacity:1" d="M 524.035,18.5668 538.602,20.0235 z" id="boundary" inkscape:connector-curvature="0" />
	<path style="fill:none;stroke:red;stroke-width:1px;stroke-linecap:butt;stroke-linejoin:miter;stroke-opacity:1" d="M 538.602,20.0235 553.169,25.8502 z" id="boundary" inkscape:connector-curvature="0" />
	<path style="fill:none;stroke:red;stroke-width:1px;stroke-linecap:butt;stroke-linejoin:miter;stroke-opacity:1" d="M 567.736,25.8502 553.169,25.8502 z" id="boundary" inkscape:connector-curvature="0" />
	<path style="fill:none;stroke:red;stroke-width:1px;stroke-linecap:butt;stroke-linejoin:miter;stroke-opacity:1" d="M 567.736,25.8502 580.846,33.1336 z" id="boundary" inkscape:connector-curvature="0" />
	<path style="fill:none;stroke:red;stroke-width:1px;stroke-linecap:butt;stroke-linejoin:miter;stroke-opacity:1" d="M 608.523,43.3304 593.956,40.417 z" id="boundary" inkscape:connector-curvature="0" />
	<path style="fill:none;stroke:red;stroke-width:1px;stroke-linecap:butt;stroke-linejoin:miter;stroke-opacity:1" d="M 593.956,40.417 580.846,33.1336 z" id="boundary" inkscape:connector-curvature="0" />
	<path style="fill:none;stroke:red;stroke-width:1px;stroke-linecap:butt;stroke-linejoin:miter;stroke-opacity:1" d="M 623.09,47.7004 608.523,43.3304 z" id="boundary" inkscape:connector-curvature="0" />
	<path style="fill:none;stroke:red;stroke-width:1px;stroke-linecap:butt;stroke-linejoin:miter;stroke-opacity:1" d="M 649.31,62.2673 634.743,56.4405 z" id="boundary" inkscape:connector-curvature="0" />
	<path style="fill:none;stroke:red;stroke-width:1px;stroke-linecap:butt;stroke-linejoin:miter;stroke-opacity:1" d="M 634.743,56.4405 623.09,47.7004 z" id="boundary" inkscape:connector-curvature="0" />
	<path style="fill:none;stroke:red;stroke-width:1px;stroke-linecap:butt;stroke-linejoin:miter;stroke-opacity:1" d="M 649.31,62.2673 659.507,73.9207 z" id="boundary" inkscape:connector-curvature="0" />
	<path style="fill:none;stroke:red;stroke-width:1px;stroke-linecap:butt;stroke-linejoin:miter;stroke-opacity:1" d="M 671.16,84.1175 659.507,73.9207 z" id="boundary" inkscape:connector-curvature="0" />
	<path style="fill:none;stroke:red;stroke-width:1px;stroke-linecap:butt;stroke-linejoin:miter;stroke-opacity:1" d="M 684.27,91.4009 671.16,84.1175 z" id="boundary" inkscape:connector-curvature="0" />
	<path style="fill:none;stroke:red;stroke-width:1px;stroke-linecap:butt;stroke-linejoin:miter;stroke-opacity:1" d="M 684.27,91.4009 697.38,98.6843 z" id="boundary" inkscape:connector-curvature="0" />
	<path style="fill:none;stroke:red;stroke-width:1px;stroke-linecap:butt;stroke-linejoin:miter;stroke-opacity:1" d="M 711.947,103.054 697.38,98.6843 z" id="boundary" inkscape:connector-curvature="0" />
	<path style="fill:none;stroke:red;stroke-width:1px;stroke-linecap:butt;stroke-linejoin:miter;stroke-opacity:1" d="M 739.624,113.251 725.057,110.338 z" id="boundary" inkscape:connector-curvature="0" />
	<path style="fill:none;stroke:red;stroke-width:1px;stroke-linecap:butt;stroke-linejoin:miter;stroke-opacity:1" d="M 725.057,110.338 711.947,103.054 z" id="boundary" inkscape:connector-curvature="0" />
	<path style="fill:none;stroke:red;stroke-width:1px;stroke-linecap:butt;stroke-linejoin:miter;stroke-opacity:1" d="M 711.947,180.258 726.514,180.258 z" id="boundary" inkscape:connector-curvature="0" />
	<path style="fill:none;stroke:red;stroke-width:1px;stroke-linecap:butt;stroke-linejoin:miter;stroke-opacity:1" d="M 711.947,194.825 711.947,180.258 z" id="boundary" inkscape:connector-curvature="0" />
	<path style="fill:none;stroke:red;stroke-width:1px;stroke-linecap:butt;stroke-linejoin:miter;stroke-opacity:1" d="M 767.301,120.535 752.734,120.535 z" id="boundary" inkscape:connector-curvature="0" />
	<path style="fill:none;stroke:red;stroke-width:1px;stroke-linecap:butt;stroke-linejoin:miter;stroke-opacity:1" d="M 752.734,120.535 739.624,113.251 z" id="boundary" inkscape:connector-curvature="0" />
	<path style="fill:none;stroke:red;stroke-width:1px;stroke-linecap:butt;stroke-linejoin:miter;stroke-opacity:1" d="M 781.868,120.535 767.301,120.535 z" id="boundary" inkscape:connector-curvature="0" />
	<path style="fill:none;stroke:red;stroke-width:1px;stroke-linecap:butt;stroke-linejoin:miter;stroke-opacity:1" d="M 781.868,120.535 796.435,120.535 z" id="boundary" inkscape:connector-curvature="0" />
	<path style="fill:none;stroke:red;stroke-width:1px;stroke-linecap:butt;stroke-linejoin:miter;stroke-opacity:1" d="M 811.001,120.535 796.435,120.535 z" id="boundary" inkscape:connector-curvature="0" />
	<path style="fill:none;stroke:red;stroke-width:1px;stroke-linecap:butt;stroke-linejoin:miter;stroke-opacity:1" d="M 825.568,120.535 840.135,120.535 z" id="boundary" inkscape:connector-curvature="0" />
	<path style="fill:none;stroke:red;stroke-width:1px;stroke-linecap:butt;stroke-linejoin:miter;stroke-opacity:1" d="M 854.702,120.535 840.135,120.535 z" id="boundary" inkscape:connector-curvature="0" />
	<path style="fill:none;stroke:red;stroke-width:1px;stroke-linecap:butt;stroke-linejoin:miter;stroke-opacity:1" d="M 867.812,113.251 854.702,120.535 z" id="boundary" inkscape:connector-curvature="0" />
	<path style="fill:none;stroke:red;stroke-width:1px;stroke-linecap:butt;stroke-linejoin:miter;stroke-opacity:1" d="M 825.568,120.535 811.001,120.535 z" id="boundary" inkscape:connector-curvature="0" />
	<path style="fill:none;stroke:red;stroke-width:1px;stroke-linecap:butt;stroke-linejoin:miter;stroke-opacity:1" d="M 867.812,113.251 882.379,113.251 z" id="boundary" inkscape:connector-curvature="0" />
	<path style="fill:none;stroke:red;stroke-width:1px;stroke-linecap:butt;stroke-linejoin:miter;stroke-opacity:1" d="M 896.946,113.251 882.379,113.251 z" id="boundary" inkscape:connector-curvature="0" />
	<path style="fill:none;stroke:red;stroke-width:1px;stroke-linecap:butt;stroke-linejoin:miter;stroke-opacity:1" d="M 911.512,113.251 926.079,113.251 z" id="boundary" inkscape:connector-curvature="0" />
	<path style="fill:none;stroke:red;stroke-width:1px;stroke-linecap:butt;stroke-linejoin:miter;stroke-opacity:1" d="M 926.079,113.251 939.189,120.535 z" id="boundary" inkscape:connector-curvature="0" />
	<path style="fill:none;stroke:red;stroke-width:1px;stroke-linecap:butt;stroke-linejoin:miter;stroke-opacity:1" d="M 952.3,127.818 939.189,120.535 z" id="boundary" inkscape:connector-curvature="0" />
	<path style="fill:none;stroke:red;stroke-width:1px;stroke-linecap:butt;stroke-linejoin:miter;stroke-opacity:1" d="M 966.866,132.188 952.3,127.818 z" id="boundary" inkscape:connector-curvature="0" />
	<path style="fill:none;stroke:red;stroke-width:1px;stroke-linecap:butt;stroke-linejoin:miter;stroke-opacity:1" d="M 896.946,113.251 911.512,113.251 z" id="boundary" inkscape:connector-curvature="0" />
	<path style="fill:none;stroke:red;stroke-width:1px;stroke-linecap:butt;stroke-linejoin:miter;stroke-opacity:1" d="M 867.812,165.692 882.379,165.692 z" id="boundary" inkscape:connector-curvature="0" />
	<path style="fill:none;stroke:red;stroke-width:1px;stroke-linecap:butt;stroke-linejoin:miter;stroke-opacity:1" d="M 854.702,172.975 867.812,165.692 z" id="boundary" inkscape:connector-curvature="0" />
	<path style="fill:none;stroke:red;stroke-width:1px;stroke-linecap:butt;stroke-linejoin:miter;stroke-opacity:1" d="M 896.946,165.692 882.379,165.692 z" id="boundary" inkscape:connector-curvature="0" />
	<path style="fill:none;stroke:red;stroke-width:1px;stroke-linecap:butt;stroke-linejoin:miter;stroke-opacity:1" d="M 825.568,172.975 840.135,172.975 z" id="boundary" inkscape:connector-curvature="0" />
	<path style="fill:none;stroke:red;stroke-width:1px;stroke-linecap:butt;stroke-linejoin:miter;stroke-opacity:1" d="M 812.458,180.258 825.568,172.975 z" id="boundary" inkscape:connector-curvature="0" />
	<path style="fill:none;stroke:red;stroke-width:1px;stroke-linecap:butt;stroke-linejoin:miter;stroke-opacity:1" d="M 896.946,165.692 911.512,165.692 z" id="boundary" inkscape:connector-curvature="0" />
	<path style="fill:none;stroke:red;stroke-width:1px;stroke-linecap:butt;stroke-linejoin:miter;stroke-opacity:1" d="M 854.702,172.975 840.135,172.975 z" id="boundary" inkscape:connector-curvature="0" />
	<path style="fill:none;stroke:red;stroke-width:1px;stroke-linecap:butt;stroke-linejoin:miter;stroke-opacity:1" d="M 988.717,154.038 977.063,143.841 z" id="boundary" inkscape:connector-curvature="0" />
	<path style="fill:none;stroke:red;stroke-width:1px;stroke-linecap:butt;stroke-linejoin:miter;stroke-opacity:1" d="M 977.063,143.841 966.866,132.188 z" id="boundary" inkscape:connector-curvature="0" />
	<path style="fill:none;stroke:red;stroke-width:1px;stroke-linecap:butt;stroke-linejoin:miter;stroke-opacity:1" d="M 966.866,184.628 953.756,177.345 z" id="boundary" inkscape:connector-curvature="0" />
	<path style="fill:none;stroke:red;stroke-width:1px;stroke-linecap:butt;stroke-linejoin:miter;stroke-opacity:1" d="M 926.079,165.692 939.189,172.975 z" id="boundary" inkscape:connector-curvature="0" />
	<path style="fill:none;stroke:red;stroke-width:1px;stroke-linecap:butt;stroke-linejoin:miter;stroke-opacity:1" d="M 911.512,165.692 926.079,165.692 z" id="boundary" inkscape:connector-curvature="0" />
	<path style="fill:none;stroke:red;stroke-width:1px;stroke-linecap:butt;stroke-linejoin:miter;stroke-opacity:1" d="M 988.717,154.038 996,167.148 z" id="boundary" inkscape:connector-curvature="0" />
	<path style="fill:none;stroke:red;stroke-width:1px;stroke-linecap:butt;stroke-linejoin:miter;stroke-opacity:1" d="M 953.756,177.345 939.189,172.975 z" id="boundary" inkscape:connector-curvature="0" />
	<path style="fill:none;stroke:red;stroke-width:1px;stroke-linecap:butt;stroke-linejoin:miter;stroke-opacity:1" d="M 455.571,293.88 446.831,282.226 z" id="boundary" inkscape:connector-curvature="0" />
	<path style="fill:none;stroke:red;stroke-width:1px;stroke-linecap:butt;stroke-linejoin:miter;stroke-opacity:1" d="M 566.279,296.793 551.712,296.793 z" id="boundary" inkscape:connector-curvature="0" />
	<path style="fill:none;stroke:red;stroke-width:1px;stroke-linecap:butt;stroke-linejoin:miter;stroke-opacity:1" d="M 579.389,289.51 566.279,296.793 z" id="boundary" inkscape:connector-curvature="0" />
	<path style="fill:none;stroke:red;stroke-width:1px;stroke-linecap:butt;stroke-linejoin:miter;stroke-opacity:1" d="M 551.712,296.793 537.145,304.076 z" id="boundary" inkscape:connector-curvature="0" />
	<path style="fill:none;stroke:red;stroke-width:1px;stroke-linecap:butt;stroke-linejoin:miter;stroke-opacity:1" d="M 455.571,293.88 454.115,317.186 z" id="boundary" inkscape:connector-curvature="0" />
	<path style="fill:none;stroke:red;stroke-width:1px;stroke-linecap:butt;stroke-linejoin:miter;stroke-opacity:1" d="M 526.949,315.73 537.145,304.076 z" id="boundary" inkscape:connector-curvature="0" />
	<path style="fill:none;stroke:red;stroke-width:1px;stroke-linecap:butt;stroke-linejoin:miter;stroke-opacity:1" d="M 526.949,315.73 515.295,325.927 z" id="boundary" inkscape:connector-curvature="0" />
	<path style="fill:none;stroke:red;stroke-width:1px;stroke-linecap:butt;stroke-linejoin:miter;stroke-opacity:1" d="M 579.389,289.51 593.956,289.51 z" id="boundary" inkscape:connector-curvature="0" />
	<path style="fill:none;stroke:red;stroke-width:1px;stroke-linecap:butt;stroke-linejoin:miter;stroke-opacity:1" d="M 593.956,289.51 607.066,296.793 z" id="boundary" inkscape:connector-curvature="0" />
	<path style="fill:none;stroke:red;stroke-width:1px;stroke-linecap:butt;stroke-linejoin:miter;stroke-opacity:1" d="M 621.633,296.793 607.066,296.793 z" id="boundary" inkscape:connector-curvature="0" />
	<path style="fill:none;stroke:red;stroke-width:1px;stroke-linecap:butt;stroke-linejoin:miter;stroke-opacity:1" d="M 621.633,296.793 634.743,304.076 z" id="boundary" inkscape:connector-curvature="0" />
	<path style="fill:none;stroke:red;stroke-width:1px;stroke-linecap:butt;stroke-linejoin:miter;stroke-opacity:1" d="M 647.853,311.36 634.743,304.076 z" id="boundary" inkscape:connector-curvature="0" />
	<path style="fill:none;stroke:red;stroke-width:1px;stroke-linecap:butt;stroke-linejoin:miter;stroke-opacity:1" d="M 662.42,315.73 647.853,311.36 z" id="boundary" inkscape:connector-curvature="0" />
	<path style="fill:none;stroke:red;stroke-width:1px;stroke-linecap:butt;stroke-linejoin:miter;stroke-opacity:1" d="M 442.461,327.383 454.115,317.186 z" id="boundary" inkscape:connector-curvature="0" />
	<path style="fill:none;stroke:red;stroke-width:1px;stroke-linecap:butt;stroke-linejoin:miter;stroke-opacity:1" d="M 515.295,325.927 500.728,340.493 z" id="boundary" inkscape:connector-curvature="0" />
	<path style="fill:none;stroke:red;stroke-width:1px;stroke-linecap:butt;stroke-linejoin:miter;stroke-opacity:1" d="M 500.728,340.493 490.532,352.147 z" id="boundary" inkscape:connector-curvature="0" />
	<path style="fill:none;stroke:red;stroke-width:1px;stroke-linecap:butt;stroke-linejoin:miter;stroke-opacity:1" d="M 446.831,373.997 461.398,366.714 z" id="boundary" inkscape:connector-curvature="0" />
	<path style="fill:none;stroke:red;stroke-width:1px;stroke-linecap:butt;stroke-linejoin:miter;stroke-opacity:1" d="M 475.965,359.43 490.532,352.147 z" id="boundary" inkscape:connector-curvature="0" />
	<path style="fill:none;stroke:red;stroke-width:1px;stroke-linecap:butt;stroke-linejoin:miter;stroke-opacity:1" d="M 475.965,359.43 461.398,366.714 z" id="boundary" inkscape:connector-curvature="0" />
	<path style="fill:none;stroke:red;stroke-width:1px;stroke-linecap:butt;stroke-linejoin:miter;stroke-opacity:1" d="M 644.94,379.824 637.656,394.391 z" id="boundary" inkscape:connector-curvature="0" />
	<path style="fill:none;stroke:red;stroke-width:1px;stroke-linecap:butt;stroke-linejoin:miter;stroke-opacity:1" d="M 671.16,360.887 659.507,372.54 z" id="boundary" inkscape:connector-curvature="0" />
	<path style="fill:none;stroke:red;stroke-width:1px;stroke-linecap:butt;stroke-linejoin:miter;stroke-opacity:1" d="M 678.443,406.044 663.877,406.044 z" id="boundary" inkscape:connector-curvature="0" />
	<path style="fill:none;stroke:red;stroke-width:1px;stroke-linecap:butt;stroke-linejoin:miter;stroke-opacity:1" d="M 659.507,372.54 644.94,379.824 z" id="boundary" inkscape:connector-curvature="0" />
	<path style="fill:none;stroke:red;stroke-width:1px;stroke-linecap:butt;stroke-linejoin:miter;stroke-opacity:1" d="M 649.31,404.587 637.656,394.391 z" id="boundary" inkscape:connector-curvature="0" />
	<path style="fill:none;stroke:red;stroke-width:1px;stroke-linecap:butt;stroke-linejoin:miter;stroke-opacity:1" d="M 649.31,404.587 663.877,406.044 z" id="boundary" inkscape:connector-curvature="0" />
	<path style="fill:none;stroke:red;stroke-width:1px;stroke-linecap:butt;stroke-linejoin:miter;stroke-opacity:1" d="M 711.947,209.392 711.947,194.825 z" id="boundary" inkscape:connector-curvature="0" />
	<path style="fill:none;stroke:red;stroke-width:1px;stroke-linecap:butt;stroke-linejoin:miter;stroke-opacity:1" d="M 726.514,180.258 739.624,187.542 z" id="boundary" inkscape:connector-curvature="0" />
	<path style="fill:none;stroke:red;stroke-width:1px;stroke-linecap:butt;stroke-linejoin:miter;stroke-opacity:1" d="M 754.191,187.542 739.624,187.542 z" id="boundary" inkscape:connector-curvature="0" />
	<path style="fill:none;stroke:red;stroke-width:1px;stroke-linecap:butt;stroke-linejoin:miter;stroke-opacity:1" d="M 711.947,223.959 711.947,238.526 z" id="boundary" inkscape:connector-curvature="0" />
	<path style="fill:none;stroke:red;stroke-width:1px;stroke-linecap:butt;stroke-linejoin:miter;stroke-opacity:1" d="M 711.947,223.959 711.947,209.392 z" id="boundary" inkscape:connector-curvature="0" />
	<path style="fill:none;stroke:red;stroke-width:1px;stroke-linecap:butt;stroke-linejoin:miter;stroke-opacity:1" d="M 719.231,251.636 711.947,238.526 z" id="boundary" inkscape:connector-curvature="0" />
	<path style="fill:none;stroke:red;stroke-width:1px;stroke-linecap:butt;stroke-linejoin:miter;stroke-opacity:1" d="M 783.325,183.172 797.891,180.258 z" id="boundary" inkscape:connector-curvature="0" />
	<path style="fill:none;stroke:red;stroke-width:1px;stroke-linecap:butt;stroke-linejoin:miter;stroke-opacity:1" d="M 797.891,180.258 812.458,180.258 z" id="boundary" inkscape:connector-curvature="0" />
	<path style="fill:none;stroke:red;stroke-width:1px;stroke-linecap:butt;stroke-linejoin:miter;stroke-opacity:1" d="M 783.325,183.172 768.758,187.542 z" id="boundary" inkscape:connector-curvature="0" />
	<path style="fill:none;stroke:red;stroke-width:1px;stroke-linecap:butt;stroke-linejoin:miter;stroke-opacity:1" d="M 981.433,190.455 996,187.542 z" id="boundary" inkscape:connector-curvature="0" />
	<path style="fill:none;stroke:red;stroke-width:1px;stroke-linecap:butt;stroke-linejoin:miter;stroke-opacity:1" d="M 981.433,190.455 966.866,184.628 z" id="boundary" inkscape:connector-curvature="0" />
	<path style="fill:none;stroke:red;stroke-width:1px;stroke-linecap:butt;stroke-linejoin:miter;stroke-opacity:1" d="M 996,167.148 996,187.542 z" id="boundary" inkscape:connector-curvature="0" />
	<path style="fill:none;stroke:red;stroke-width:1px;stroke-linecap:butt;stroke-linejoin:miter;stroke-opacity:1" d="M 754.191,187.542 768.758,187.542 z" id="boundary" inkscape:connector-curvature="0" />
	<path style="fill:none;stroke:red;stroke-width:1px;stroke-linecap:butt;stroke-linejoin:miter;stroke-opacity:1" d="M 681.357,333.21 681.357,347.777 z" id="boundary" inkscape:connector-curvature="0" />
	<path style="fill:none;stroke:red;stroke-width:1px;stroke-linecap:butt;stroke-linejoin:miter;stroke-opacity:1" d="M 681.357,347.777 671.16,360.887 z" id="boundary" inkscape:connector-curvature="0" />
	<path style="fill:none;stroke:red;stroke-width:1px;stroke-linecap:butt;stroke-linejoin:miter;stroke-opacity:1" d="M 719.231,355.06 711.947,369.627 z" id="boundary" inkscape:connector-curvature="0" />
	<path style="fill:none;stroke:red;stroke-width:1px;stroke-linecap:butt;stroke-linejoin:miter;stroke-opacity:1" d="M 693.01,404.587 678.443,406.044 z" id="boundary" inkscape:connector-curvature="0" />
	<path style="fill:none;stroke:red;stroke-width:1px;stroke-linecap:butt;stroke-linejoin:miter;stroke-opacity:1" d="M 704.664,384.194 693.01,404.587 z" id="boundary" inkscape:connector-curvature="0" />
	<path style="fill:none;stroke:red;stroke-width:1px;stroke-linecap:butt;stroke-linejoin:miter;stroke-opacity:1" d="M 704.664,384.194 711.947,369.627 z" id="boundary" inkscape:connector-curvature="0" />
	<path style="fill:none;stroke:red;stroke-width:1px;stroke-linecap:butt;stroke-linejoin:miter;stroke-opacity:1" d="M 681.357,333.21 676.987,318.643 z" id="boundary" inkscape:connector-curvature="0" />
	<path style="fill:none;stroke:red;stroke-width:1px;stroke-linecap:butt;stroke-linejoin:miter;stroke-opacity:1" d="M 662.42,315.73 676.987,318.643 z" id="boundary" inkscape:connector-curvature="0" />
	<path style="fill:none;stroke:red;stroke-width:1px;stroke-linecap:butt;stroke-linejoin:miter;stroke-opacity:1" d="M 719.231,251.636 726.514,264.746 z" id="boundary" inkscape:connector-curvature="0" />
	<path style="fill:none;stroke:red;stroke-width:1px;stroke-linecap:butt;stroke-linejoin:miter;stroke-opacity:1" d="M 726.514,264.746 726.514,279.313 z" id="boundary" inkscape:connector-curvature="0" />
	<path style="fill:none;stroke:red;stroke-width:1px;stroke-linecap:butt;stroke-linejoin:miter;stroke-opacity:1" d="M 733.797,292.423 726.514,279.313 z" id="boundary" inkscape:connector-curvature="0" />
	<path style="fill:none;stroke:red;stroke-width:1px;stroke-linecap:butt;stroke-linejoin:miter;stroke-opacity:1" d="M 726.514,333.21 719.231,355.06 z" id="boundary" inkscape:connector-curvature="0" />
	<path style="fill:none;stroke:red;stroke-width:1px;stroke-linecap:butt;stroke-linejoin:miter;stroke-opacity:1" d="M 726.514,318.643 726.514,333.21 z" id="boundary" inkscape:connector-curvature="0" />
	<path style="fill:none;stroke:red;stroke-width:1px;stroke-linecap:butt;stroke-linejoin:miter;stroke-opacity:1" d="M 726.514,318.643 733.797,292.423 z" id="boundary" inkscape:connector-curvature="0" />
	<circle cx="4" cy="73.9207" r="4" fill="#0" id="circle0"/>
	<circle cx="4" cy="88.4875" r="4" fill="#0" id="circle1"/>
	<circle cx="4" cy="103.054" r="4" fill="#0" id="circle2"/>
	<circle cx="4" cy="117.621" r="4" fill="#0" id="circle3"/>
	<circle cx="4" cy="132.188" r="4" fill="#0" id="circle4"/>
	<circle cx="11.2834" cy="59.3539" r="4" fill="#0" id="circle5"/>
	<circle cx="11.2834" cy="145.298" r="4" fill="#0" id="circle6"/>
	<circle cx="21.4802" cy="156.952" r="4" fill="#0" id="circle7"/>
	<circle cx="22.9369" cy="47.7004" r="4" fill="#0" id="circle8"/>
	<circle cx="25.8502" cy="8.37004" r="4" fill="#0" id="circle9"/>
	<circle cx="33.1336" cy="21.4802" r="4" fill="#0" id="circle10"/>
	<circle cx="33.1336" cy="36.047" r="4" fill="#0" id="circle11"/>
	<circle cx="33.1336" cy="165.692" r="4" fill="#0" id="circle12"/>
	<circle cx="40.417" cy="4" r="4" fill="#0" id="circle13"/>
	<circle cx="46.2438" cy="172.975" r="4" fill="#0" id="circle14"/>
	<circle cx="53.5272" cy="11.2834" r="4" fill="#0" id="circle15"/>
	<circle cx="60.8106" cy="172.975" r="4" fill="#0" id="circle16"/>
	<circle cx="68.094" cy="11.2834" r="4" fill="#0" id="circle17"/>
	<circle cx="75.3774" cy="172.975" r="4" fill="#0" id="circle18"/>
	<circle cx="82.6608" cy="11.2834" r="4" fill="#0" id="circle19"/>
	<circle cx="89.9442" cy="172.975" r="4" fill="#0" id="circle20"/>
	<circle cx="95.7709" cy="18.5668" r="4" fill="#0" id="circle21"/>
	<circle cx="104.511" cy="172.975" r="4" fill="#0" id="circle22"/>
	<circle cx="110.338" cy="18.5668" r="4" fill="#0" id="circle23"/>
	<circle cx="117.621" cy="180.258" r="4" fill="#0" id="circle24"/>
	<circle cx="124.905" cy="18.5668" r="4" fill="#0" id="circle25"/>
	<circle cx="129.275" cy="190.455" r="4" fill="#0" id="circle26"/>
	<circle cx="139.471" cy="18.5668" r="4" fill="#0" id="circle27"/>
	<circle cx="139.471" cy="202.109" r="4" fill="#0" id="circle28"/>
	<circle cx="151.125" cy="212.305" r="4" fill="#0" id="circle29"/>
	<circle cx="152.581" cy="25.8502" r="4" fill="#0" id="circle30"/>
	<circle cx="156.952" cy="416.241" r="4" fill="#0" id="circle31"/>
	<circle cx="161.322" cy="223.959" r="4" fill="#0" id="circle32"/>
	<circle cx="164.235" cy="401.674" r="4" fill="#0" id="circle33"/>
	<circle cx="165.692" cy="427.894" r="4" fill="#0" id="circle34"/>
	<circle cx="167.148" cy="25.8502" r="4" fill="#0" id="circle35"/>
	<circle cx="172.975" cy="234.156" r="4" fill="#0" id="circle36"/>
	<circle cx="178.802" cy="397.304" r="4" fill="#0" id="circle37"/>
	<circle cx="180.258" cy="33.1336" r="4" fill="#0" id="circle38"/>
	<circle cx="180.258" cy="427.894" r="4" fill="#0" id="circle39"/>
	<circle cx="183.172" cy="245.809" r="4" fill="#0" id="circle40"/>
	<circle cx="191.912" cy="390.021" r="4" fill="#0" id="circle41"/>
	<circle cx="194.825" cy="33.1336" r="4" fill="#0" id="circle42"/>
	<circle cx="194.825" cy="256.006" r="4" fill="#0" id="circle43"/>
	<circle cx="194.825" cy="427.894" r="4" fill="#0" id="circle44"/>
	<circle cx="200.652" cy="372.54" r="4" fill="#0" id="circle45"/>
	<circle cx="205.022" cy="267.659" r="4" fill="#0" id="circle46"/>
	<circle cx="207.935" cy="350.69" r="4" fill="#0" id="circle47"/>
	<circle cx="209.392" cy="33.1336" r="4" fill="#0" id="circle48"/>
	<circle cx="209.392" cy="427.894" r="4" fill="#0" id="circle49"/>
	<circle cx="212.305" cy="280.769" r="4" fill="#0" id="circle50"/>
	<circle cx="215.219" cy="295.336" r="4" fill="#0" id="circle51"/>
	<circle cx="215.219" cy="309.903" r="4" fill="#0" id="circle52"/>
	<circle cx="215.219" cy="324.47" r="4" fill="#0" id="circle53"/>
	<circle cx="221.046" cy="417.698" r="4" fill="#0" id="circle54"/>
	<circle cx="223.959" cy="33.1336" r="4" fill="#0" id="circle55"/>
	<circle cx="231.242" cy="406.044" r="4" fill="#0" id="circle56"/>
	<circle cx="237.069" cy="25.8502" r="4" fill="#0" id="circle57"/>
	<circle cx="242.896" cy="395.847" r="4" fill="#0" id="circle58"/>
	<circle cx="251.636" cy="25.8502" r="4" fill="#0" id="circle59"/>
	<circle cx="253.093" cy="376.91" r="4" fill="#0" id="circle60"/>
	<circle cx="264.746" cy="366.714" r="4" fill="#0" id="circle61"/>
	<circle cx="266.203" cy="25.8502" r="4" fill="#0" id="circle62"/>
	<circle cx="272.029" cy="352.147" r="4" fill="#0" id="circle63"/>
	<circle cx="280.769" cy="25.8502" r="4" fill="#0" id="circle64"/>
	<circle cx="280.769" cy="340.493" r="4" fill="#0" id="circle65"/>
	<circle cx="295.336" cy="25.8502" r="4" fill="#0" id="circle66"/>
	<circle cx="295.336" cy="340.493" r="4" fill="#0" id="circle67"/>
	<circle cx="308.446" cy="347.777" r="4" fill="#0" id="circle68"/>
	<circle cx="309.903" cy="25.8502" r="4" fill="#0" id="circle69"/>
	<circle cx="318.643" cy="296.793" r="4" fill="#0" id="circle70"/>
	<circle cx="318.643" cy="359.43" r="4" fill="#0" id="circle71"/>
	<circle cx="324.47" cy="25.8502" r="4" fill="#0" id="circle72"/>
	<circle cx="325.927" cy="309.903" r="4" fill="#0" id="circle73"/>
	<circle cx="325.927" cy="372.54" r="4" fill="#0" id="circle74"/>
	<circle cx="330.297" cy="286.596" r="4" fill="#0" id="circle75"/>
	<circle cx="336.123" cy="384.194" r="4" fill="#0" id="circle76"/>
	<circle cx="337.58" cy="318.643" r="4" fill="#0" id="circle77"/>
	<circle cx="339.037" cy="25.8502" r="4" fill="#0" id="circle78"/>
	<circle cx="344.863" cy="282.226" r="4" fill="#0" id="circle79"/>
	<circle cx="347.777" cy="330.297" r="4" fill="#0" id="circle80"/>
	<circle cx="349.233" cy="376.91" r="4" fill="#0" id="circle81"/>
	<circle cx="353.604" cy="25.8502" r="4" fill="#0" id="circle82"/>
	<circle cx="355.06" cy="343.407" r="4" fill="#0" id="circle83"/>
	<circle cx="355.06" cy="357.974" r="4" fill="#0" id="circle84"/>
	<circle cx="359.43" cy="282.226" r="4" fill="#0" id="circle85"/>
	<circle cx="366.714" cy="18.5668" r="4" fill="#0" id="circle86"/>
	<circle cx="373.997" cy="282.226" r="4" fill="#0" id="circle87"/>
	<circle cx="375.454" cy="357.974" r="4" fill="#0" id="circle88"/>
	<circle cx="375.454" cy="372.54" r="4" fill="#0" id="circle89"/>
	<circle cx="375.454" cy="387.107" r="4" fill="#0" id="circle90"/>
	<circle cx="381.28" cy="18.5668" r="4" fill="#0" id="circle91"/>
	<circle cx="388.564" cy="282.226" r="4" fill="#0" id="circle92"/>
	<circle cx="390.021" cy="353.604" r="4" fill="#0" id="circle93"/>
	<circle cx="390.021" cy="391.477" r="4" fill="#0" id="circle94"/>
	<circle cx="395.847" cy="18.5668" r="4" fill="#0" id="circle95"/>
	<circle cx="403.131" cy="282.226" r="4" fill="#0" id="circle96"/>
	<circle cx="404.587" cy="350.69" r="4" fill="#0" id="circle97"/>
	<circle cx="404.587" cy="391.477" r="4" fill="#0" id="circle98"/>
	<circle cx="408.957" cy="11.2834" r="4" fill="#0" id="circle99"/>
	<circle cx="417.698" cy="282.226" r="4" fill="#0" id="circle100"/>
	<circle cx="417.698" cy="384.194" r="4" fill="#0" id="circle101"/>
	<circle cx="419.154" cy="346.32" r="4" fill="#0" id="circle102"/>
	<circle cx="423.524" cy="11.2834" r="4" fill="#0" id="circle103"/>
	<circle cx="432.264" cy="282.226" r="4" fill="#0" id="circle104"/>
	<circle cx="432.264" cy="339.037" r="4" fill="#0" id="circle105"/>
	<circle cx="432.264" cy="381.28" r="4" fill="#0" id="circle106"/>
	<circle cx="438.091" cy="11.2834" r="4" fill="#0" id="circle107"/>
	<circle cx="442.461" cy="327.383" r="4" fill="#0" id="circle108"/>
	<circle cx="446.831" cy="282.226" r="4" fill="#0" id="circle109"/>
	<circle cx="446.831" cy="373.997" r="4" fill="#0" id="circle110"/>
	<circle cx="452.658" cy="11.2834" r="4" fill="#0" id="circle111"/>
	<circle cx="454.115" cy="317.186" r="4" fill="#0" id="circle112"/>
	<circle cx="455.571" cy="293.88" r="4" fill="#0" id="circle113"/>
	<circle cx="461.398" cy="366.714" r="4" fill="#0" id="circle114"/>
	<circle cx="467.225" cy="11.2834" r="4" fill="#0" id="circle115"/>
	<circle cx="475.965" cy="359.43" r="4" fill="#0" id="circle116"/>
	<circle cx="481.791" cy="11.2834" r="4" fill="#0" id="circle117"/>
	<circle cx="490.532" cy="352.147" r="4" fill="#0" id="circle118"/>
	<circle cx="496.358" cy="11.2834" r="4" fill="#0" id="circle119"/>
	<circle cx="500.728" cy="340.493" r="4" fill="#0" id="circle120"/>
	<circle cx="509.468" cy="18.5668" r="4" fill="#0" id="circle121"/>
	<circle cx="515.295" cy="325.927" r="4" fill="#0" id="circle122"/>
	<circle cx="524.035" cy="18.5668" r="4" fill="#0" id="circle123"/>
	<circle cx="526.949" cy="315.73" r="4" fill="#0" id="circle124"/>
	<circle cx="537.145" cy="304.076" r="4" fill="#0" id="circle125"/>
	<circle cx="538.602" cy="20.0235" r="4" fill="#0" id="circle126"/>
	<circle cx="551.712" cy="296.793" r="4" fill="#0" id="circle127"/>
	<circle cx="553.169" cy="25.8502" r="4" fill="#0" id="circle128"/>
	<circle cx="566.279" cy="296.793" r="4" fill="#0" id="circle129"/>
	<circle cx="567.736" cy="25.8502" r="4" fill="#0" id="circle130"/>
	<circle cx="579.389" cy="289.51" r="4" fill="#0" id="circle131"/>
	<circle cx="580.846" cy="33.1336" r="4" fill="#0" id="circle132"/>
	<circle cx="593.956" cy="40.417" r="4" fill="#0" id="circle133"/>
	<circle cx="593.956" cy="289.51" r="4" fill="#0" id="circle134"/>
	<circle cx="607.066" cy="296.793" r="4" fill="#0" id="circle135"/>
	<circle cx="608.523" cy="43.3304" r="4" fill="#0" id="circle136"/>
	<circle cx="621.633" cy="296.793" r="4" fill="#0" id="circle137"/>
	<circle cx="623.09" cy="47.7004" r="4" fill="#0" id="circle138"/>
	<circle cx="634.743" cy="56.4405" r="4" fill="#0" id="circle139"/>
	<circle cx="634.743" cy="304.076" r="4" fill="#0" id="circle140"/>
	<circle cx="637.656" cy="394.391" r="4" fill="#0" id="circle141"/>
	<circle cx="644.94" cy="379.824" r="4" fill="#0" id="circle142"/>
	<circle cx="647.853" cy="311.36" r="4" fill="#0" id="circle143"/>
	<circle cx="649.31" cy="62.2673" r="4" fill="#0" id="circle144"/>
	<circle cx="649.31" cy="404.587" r="4" fill="#0" id="circle145"/>
	<circle cx="659.507" cy="73.9207" r="4" fill="#0" id="circle146"/>
	<circle cx="659.507" cy="372.54" r="4" fill="#0" id="circle147"/>
	<circle cx="662.42" cy="315.73" r="4" fill="#0" id="circle148"/>
	<circle cx="663.877" cy="406.044" r="4" fill="#0" id="circle149"/>
	<circle cx="671.16" cy="84.1175" r="4" fill="#0" id="circle150"/>
	<circle cx="671.16" cy="360.887" r="4" fill="#0" id="circle151"/>
	<circle cx="676.987" cy="318.643" r="4" fill="#0" id="circle152"/>
	<circle cx="678.443" cy="406.044" r="4" fill="#0" id="circle153"/>
	<circle cx="681.357" cy="333.21" r="4" fill="#0" id="circle154"/>
	<circle cx="681.357" cy="347.777" r="4" fill="#0" id="circle155"/>
	<circle cx="684.27" cy="91.4009" r="4" fill="#0" id="circle156"/>
	<circle cx="693.01" cy="404.587" r="4" fill="#0" id="circle157"/>
	<circle cx="697.38" cy="98.6843" r="4" fill="#0" id="circle158"/>
	<circle cx="704.664" cy="384.194" r="4" fill="#0" id="circle159"/>
	<circle cx="711.947" cy="103.054" r="4" fill="#0" id="circle160"/>
	<circle cx="711.947" cy="180.258" r="4" fill="#0" id="circle161"/>
	<circle cx="711.947" cy="194.825" r="4" fill="#0" id="circle162"/>
	<circle cx="711.947" cy="209.392" r="4" fill="#0" id="circle163"/>
	<circle cx="711.947" cy="223.959" r="4" fill="#0" id="circle164"/>
	<circle cx="711.947" cy="238.526" r="4" fill="#0" id="circle165"/>
	<circle cx="711.947" cy="369.627" r="4" fill="#0" id="circle166"/>
	<circle cx="719.231" cy="251.636" r="4" fill="#0" id="circle167"/>
	<circle cx="719.231" cy="355.06" r="4" fill="#0" id="circle168"/>
	<circle cx="725.057" cy="110.338" r="4" fill="#0" id="circle169"/>
	<circle cx="726.514" cy="180.258" r="4" fill="#0" id="circle170"/>
	<circle cx="726.514" cy="264.746" r="4" fill="#0" id="circle171"/>
	<circle cx="726.514" cy="279.313" r="4" fill="#0" id="circle172"/>
	<circle cx="726.514" cy="318.643" r="4" fill="#0" id="circle173"/>
	<circle cx="726.514" cy="333.21" r="4" fill="#0" id="circle174"/>
	<circle cx="733.797" cy="292.423" r="4" fill="#0" id="circle175"/>
	<circle cx="739.624" cy="113.251" r="4" fill="#0" id="circle176"/>
	<circle cx="739.624" cy="187.542" r="4" fill="#0" id="circle177"/>
	<circle cx="752.734" cy="120.535" r="4" fill="#0" id="circle178"/>
	<circle cx="754.191" cy="187.542" r="4" fill="#0" id="circle179"/>
	<circle cx="767.301" cy="120.535" r="4" fill="#0" id="circle180"/>
	<circle cx="768.758" cy="187.542" r="4" fill="#0" id="circle181"/>
	<circle cx="781.868" cy="120.535" r="4" fill="#0" id="circle182"/>
	<circle cx="783.325" cy="183.172" r="4" fill="#0" id="circle183"/>
	<circle cx="796.435" cy="120.535" r="4" fill="#0" id="circle184"/>
	<circle cx="797.891" cy="180.258" r="4" fill="#0" id="circle185"/>
	<circle cx="811.001" cy="120.535" r="4" fill="#0" id="circle186"/>
	<circle cx="812.458" cy="180.258" r="4" fill="#0" id="circle187"/>
	<circle cx="825.568" cy="120.535" r="4" fill="#0" id="circle188"/>
	<circle cx="825.568" cy="172.975" r="4" fill="#0" id="circle189"/>
	<circle cx="840.135" cy="120.535" r="4" fill="#0" id="circle190"/>
	<circle cx="840.135" cy="172.975" r="4" fill="#0" id="circle191"/>
	<circle cx="854.702" cy="120.535" r="4" fill="#0" id="circle192"/>
	<circle cx="854.702" cy="172.975" r="4" fill="#0" id="circle193"/>
	<circle cx="867.812" cy="113.251" r="4" fill="#0" id="circle194"/>
	<circle cx="867.812" cy="165.692" r="4" fill="#0" id="circle195"/>
	<circle cx="882.379" cy="113.251" r="4" fill="#0" id="circle196"/>
	<circle cx="882.379" cy="165.692" r="4" fill="#0" id="circle197"/>
	<circle cx="896.946" cy="113.251" r="4" fill="#0" id="circle198"/>
	<circle cx="896.946" cy="165.692" r="4" fill="#0" id="circle199"/>
	<circle cx="911.512" cy="113.251" r="4" fill="#0" id="circle200"/>
	<circle cx="911.512" cy="165.692" r="4" fill="#0" id="circle201"/>
	<circle cx="926.079" cy="113.251" r="4" fill="#0" id="circle202"/>
	<circle cx="926.079" cy="165.692" r="4" fill="#0" id="circle203"/>
	<circle cx="939.189" cy="120.535" r="4" fill="#0" id="circle204"/>
	<circle cx="939.189" cy="172.975" r="4" fill="#0" id="circle205"/>
	<circle cx="952.3" cy="127.818" r="4" fill="#0" id="circle206"/>
	<circle cx="953.756" cy="177.345" r="4" fill="#0" id="circle207"/>
	<circle cx="966.866" cy="132.188" r="4" fill="#0" id="circle208"/>
	<circle cx="966.866" cy="184.628" r="4" fill="#0" id="circle209"/>
	<circle cx="977.063" cy="143.841" r="4" fill="#0" id="circle210"/>
	<circle cx="981.433" cy="190.455" r="4" fill="#0" id="circle211"/>
	<circle cx="988.717" cy="154.038" r="4" fill="#0" id="circle212"/>
	<circle cx="996" cy="167.148" r="4" fill="#0" id="circle213"/>
	<circle cx="996" cy="187.542" r="4" fill="#0" id="circle214"/>
	</g>
</svg>