<?xml version="1.0" encoding="UTF-8" standalone="no"?>
<!-- Created with CurveBenchmark -->
<svg
	xmlns:dc="http://purl.org/dc/elements/1.1/"
	xmlns:cc="http://creativecommons.org/ns#"
	xmlns:rdf="http://www.w3.org/1999/02/22-rdf-syntax-ns#"
	xmlns:svg="http://www.w3.org/2000/svg"
	xmlns="http://www.w3.org/2000/svg"
	xmlns:sodipodi="http://sodipodi.sourceforge.net/DTD/sodipodi-0.dtd"
	xmlns:inkscape="http://www.inkscape.org/namespaces/inkscape"
	width="1000"
	height="1000"
	id="svg2"
	version="1.1"
	sodipodi:docname="manifold/gathan1-fgen2fp.png.txt">
<defs
	id="defs4" />
<metadata
	id="metadata7">
	<rdf:RDF>
		<cc:Work
			rdf:about="">
			<dc:format>image/svg+xml</dc:format>
			<dc:type
				rdf:resource="http://purl.org/dc/dcmitype/StillImage" />
			<dc:title></dc:title>
		</cc:Work>
	</rdf:RDF>
</metadata>
<g
	inkscape:label="Layer 1"
	inkscape:groupmode="layer"
	id="layer1">
	<path style="fill:none;stroke:red;stroke-width:1px;stroke-linecap:butt;stroke-linejoin:miter;stroke-opacity:1" d="M 28.7524,194.403 45.8887,184.883 z" id="boundary" inkscape:connector-curvature="0" />
	<path style="fill:none;stroke:red;stroke-width:1px;stroke-linecap:butt;stroke-linejoin:miter;stroke-opacity:1" d="M 61.1209,171.555 45.8887,184.883 z" id="boundary" inkscape:connector-curvature="0" />
	<path style="fill:none;stroke:red;stroke-width:1px;stroke-linecap:butt;stroke-linejoin:miter;stroke-opacity:1" d="M 13.5202,209.635 28.7524,222.964 z" id="boundary" inkscape:connector-curvature="0" />
	<path style="fill:none;stroke:red;stroke-width:1px;stroke-linecap:butt;stroke-linejoin:miter;stroke-opacity:1" d="M 13.5202,209.635 28.7524,194.403 z" id="boundary" inkscape:connector-curvature="0" />
	<path style="fill:none;stroke:red;stroke-width:1px;stroke-linecap:butt;stroke-linejoin:miter;stroke-opacity:1" d="M 45.8887,232.484 28.7524,222.964 z" id="boundary" inkscape:connector-curvature="0" />
	<path style="fill:none;stroke:red;stroke-width:1px;stroke-linecap:butt;stroke-linejoin:miter;stroke-opacity:1" d="M 95.3935,146.802 76.3532,156.322 z" id="boundary" inkscape:connector-curvature="0" />
	<path style="fill:none;stroke:red;stroke-width:1px;stroke-linecap:butt;stroke-linejoin:miter;stroke-opacity:1" d="M 64.929,240.1 45.8887,232.484 z" id="boundary" inkscape:connector-curvature="0" />
	<path style="fill:none;stroke:red;stroke-width:1px;stroke-linecap:butt;stroke-linejoin:miter;stroke-opacity:1" d="M 101.106,234.388 83.9693,243.908 z" id="boundary" inkscape:connector-curvature="0" />
	<path style="fill:none;stroke:red;stroke-width:1px;stroke-linecap:butt;stroke-linejoin:miter;stroke-opacity:1" d="M 83.9693,243.908 64.929,240.1 z" id="boundary" inkscape:connector-curvature="0" />
	<path style="fill:none;stroke:red;stroke-width:1px;stroke-linecap:butt;stroke-linejoin:miter;stroke-opacity:1" d="M 61.1209,171.555 76.3532,156.322 z" id="boundary" inkscape:connector-curvature="0" />
	<path style="fill:none;stroke:red;stroke-width:1px;stroke-linecap:butt;stroke-linejoin:miter;stroke-opacity:1" d="M 80.1612,371.478 80.1612,352.438 z" id="boundary" inkscape:connector-curvature="0" />
	<path style="fill:none;stroke:red;stroke-width:1px;stroke-linecap:butt;stroke-linejoin:miter;stroke-opacity:1" d="M 99.2015,377.19 80.1612,371.478 z" id="boundary" inkscape:connector-curvature="0" />
	<path style="fill:none;stroke:red;stroke-width:1px;stroke-linecap:butt;stroke-linejoin:miter;stroke-opacity:1" d="M 70.6411,514.28 70.6411,495.24 z" id="boundary" inkscape:connector-curvature="0" />
	<path style="fill:none;stroke:red;stroke-width:1px;stroke-linecap:butt;stroke-linejoin:miter;stroke-opacity:1" d="M 70.6411,495.24 80.1612,476.2 z" id="boundary" inkscape:connector-curvature="0" />
	<path style="fill:none;stroke:red;stroke-width:1px;stroke-linecap:butt;stroke-linejoin:miter;stroke-opacity:1" d="M 80.1612,457.159 80.1612,476.2 z" id="boundary" inkscape:connector-curvature="0" />
	<path style="fill:none;stroke:red;stroke-width:1px;stroke-linecap:butt;stroke-linejoin:miter;stroke-opacity:1" d="M 89.6814,438.119 80.1612,457.159 z" id="boundary" inkscape:connector-curvature="0" />
	<path style="fill:none;stroke:red;stroke-width:1px;stroke-linecap:butt;stroke-linejoin:miter;stroke-opacity:1" d="M 80.1612,352.438 95.3935,337.205 z" id="boundary" inkscape:connector-curvature="0" />
	<path style="fill:none;stroke:red;stroke-width:1px;stroke-linecap:butt;stroke-linejoin:miter;stroke-opacity:1" d="M 99.2015,419.079 89.6814,438.119 z" id="boundary" inkscape:connector-curvature="0" />
	<path style="fill:none;stroke:red;stroke-width:1px;stroke-linecap:butt;stroke-linejoin:miter;stroke-opacity:1" d="M 99.2015,377.19 108.722,400.038 z" id="boundary" inkscape:connector-curvature="0" />
	<path style="fill:none;stroke:red;stroke-width:1px;stroke-linecap:butt;stroke-linejoin:miter;stroke-opacity:1" d="M 95.3935,337.205 104.914,318.165 z" id="boundary" inkscape:connector-curvature="0" />
	<path style="fill:none;stroke:red;stroke-width:1px;stroke-linecap:butt;stroke-linejoin:miter;stroke-opacity:1" d="M 70.6411,533.321 70.6411,514.28 z" id="boundary" inkscape:connector-curvature="0" />
	<path style="fill:none;stroke:red;stroke-width:1px;stroke-linecap:butt;stroke-linejoin:miter;stroke-opacity:1" d="M 196.307,45.8887 215.347,36.3685 z" id="boundary" inkscape:connector-curvature="0" />
	<path style="fill:none;stroke:red;stroke-width:1px;stroke-linecap:butt;stroke-linejoin:miter;stroke-opacity:1" d="M 182.979,61.1209 196.307,45.8887 z" id="boundary" inkscape:connector-curvature="0" />
	<path style="fill:none;stroke:red;stroke-width:1px;stroke-linecap:butt;stroke-linejoin:miter;stroke-opacity:1" d="M 142.994,108.722 152.514,89.6814 z" id="boundary" inkscape:connector-curvature="0" />
	<path style="fill:none;stroke:red;stroke-width:1px;stroke-linecap:butt;stroke-linejoin:miter;stroke-opacity:1" d="M 152.514,89.6814 167.747,74.4491 z" id="boundary" inkscape:connector-curvature="0" />
	<path style="fill:none;stroke:red;stroke-width:1px;stroke-linecap:butt;stroke-linejoin:miter;stroke-opacity:1" d="M 182.979,61.1209 167.747,74.4491 z" id="boundary" inkscape:connector-curvature="0" />
	<path style="fill:none;stroke:red;stroke-width:1px;stroke-linecap:butt;stroke-linejoin:miter;stroke-opacity:1" d="M 215.347,36.3685 234.388,26.8484 z" id="boundary" inkscape:connector-curvature="0" />
	<path style="fill:none;stroke:red;stroke-width:1px;stroke-linecap:butt;stroke-linejoin:miter;stroke-opacity:1" d="M 289.605,4 308.645,4 z" id="boundary" inkscape:connector-curvature="0" />
	<path style="fill:none;stroke:red;stroke-width:1px;stroke-linecap:butt;stroke-linejoin:miter;stroke-opacity:1" d="M 272.468,13.5202 289.605,4 z" id="boundary" inkscape:connector-curvature="0" />
	<path style="fill:none;stroke:red;stroke-width:1px;stroke-linecap:butt;stroke-linejoin:miter;stroke-opacity:1" d="M 234.388,26.8484 253.428,17.3282 z" id="boundary" inkscape:connector-curvature="0" />
	<path style="fill:none;stroke:red;stroke-width:1px;stroke-linecap:butt;stroke-linejoin:miter;stroke-opacity:1" d="M 253.428,17.3282 272.468,13.5202 z" id="boundary" inkscape:connector-curvature="0" />
	<path style="fill:none;stroke:red;stroke-width:1px;stroke-linecap:butt;stroke-linejoin:miter;stroke-opacity:1" d="M 118.242,268.66 118.242,295.317 z" id="boundary" inkscape:connector-curvature="0" />
	<path style="fill:none;stroke:red;stroke-width:1px;stroke-linecap:butt;stroke-linejoin:miter;stroke-opacity:1" d="M 112.53,249.62 101.106,234.388 z" id="boundary" inkscape:connector-curvature="0" />
	<path style="fill:none;stroke:red;stroke-width:1px;stroke-linecap:butt;stroke-linejoin:miter;stroke-opacity:1" d="M 108.722,400.038 99.2015,419.079 z" id="boundary" inkscape:connector-curvature="0" />
	<path style="fill:none;stroke:red;stroke-width:1px;stroke-linecap:butt;stroke-linejoin:miter;stroke-opacity:1" d="M 104.914,318.165 118.242,295.317 z" id="boundary" inkscape:connector-curvature="0" />
	<path style="fill:none;stroke:red;stroke-width:1px;stroke-linecap:butt;stroke-linejoin:miter;stroke-opacity:1" d="M 112.53,249.62 118.242,268.66 z" id="boundary" inkscape:connector-curvature="0" />
	<path style="fill:none;stroke:red;stroke-width:1px;stroke-linecap:butt;stroke-linejoin:miter;stroke-opacity:1" d="M 133.474,127.762 142.994,108.722 z" id="boundary" inkscape:connector-curvature="0" />
	<path style="fill:none;stroke:red;stroke-width:1px;stroke-linecap:butt;stroke-linejoin:miter;stroke-opacity:1" d="M 133.474,127.762 114.434,137.282 z" id="boundary" inkscape:connector-curvature="0" />
	<path style="fill:none;stroke:red;stroke-width:1px;stroke-linecap:butt;stroke-linejoin:miter;stroke-opacity:1" d="M 95.3935,146.802 114.434,137.282 z" id="boundary" inkscape:connector-curvature="0" />
	<path style="fill:none;stroke:red;stroke-width:1px;stroke-linecap:butt;stroke-linejoin:miter;stroke-opacity:1" d="M 70.6411,533.321 70.6411,552.361 z" id="boundary" inkscape:connector-curvature="0" />
	<path style="fill:none;stroke:red;stroke-width:1px;stroke-linecap:butt;stroke-linejoin:miter;stroke-opacity:1" d="M 70.6411,571.401 70.6411,590.441 z" id="boundary" inkscape:connector-curvature="0" />
	<path style="fill:none;stroke:red;stroke-width:1px;stroke-linecap:butt;stroke-linejoin:miter;stroke-opacity:1" d="M 70.6411,552.361 70.6411,571.401 z" id="boundary" inkscape:connector-curvature="0" />
	<path style="fill:none;stroke:red;stroke-width:1px;stroke-linecap:butt;stroke-linejoin:miter;stroke-opacity:1" d="M 76.3532,708.491 66.833,727.532 z" id="boundary" inkscape:connector-curvature="0" />
	<path style="fill:none;stroke:red;stroke-width:1px;stroke-linecap:butt;stroke-linejoin:miter;stroke-opacity:1" d="M 66.833,727.532 51.6008,742.764 z" id="boundary" inkscape:connector-curvature="0" />
	<path style="fill:none;stroke:red;stroke-width:1px;stroke-linecap:butt;stroke-linejoin:miter;stroke-opacity:1" d="M 70.6411,590.441 70.6411,609.482 z" id="boundary" inkscape:connector-curvature="0" />
	<path style="fill:none;stroke:red;stroke-width:1px;stroke-linecap:butt;stroke-linejoin:miter;stroke-opacity:1" d="M 80.1612,626.618 70.6411,609.482 z" id="boundary" inkscape:connector-curvature="0" />
	<path style="fill:none;stroke:red;stroke-width:1px;stroke-linecap:butt;stroke-linejoin:miter;stroke-opacity:1" d="M 80.1612,626.618 80.1612,645.658 z" id="boundary" inkscape:connector-curvature="0" />
	<path style="fill:none;stroke:red;stroke-width:1px;stroke-linecap:butt;stroke-linejoin:miter;stroke-opacity:1" d="M 89.6814,662.795 80.1612,645.658 z" id="boundary" inkscape:connector-curvature="0" />
	<path style="fill:none;stroke:red;stroke-width:1px;stroke-linecap:butt;stroke-linejoin:miter;stroke-opacity:1" d="M 13.5202,828.445 23.0403,799.885 z" id="boundary" inkscape:connector-curvature="0" />
	<path style="fill:none;stroke:red;stroke-width:1px;stroke-linecap:butt;stroke-linejoin:miter;stroke-opacity:1" d="M 32.5605,780.845 23.0403,799.885 z" id="boundary" inkscape:connector-curvature="0" />
	<path style="fill:none;stroke:red;stroke-width:1px;stroke-linecap:butt;stroke-linejoin:miter;stroke-opacity:1" d="M 4,857.006 13.5202,828.445 z" id="boundary" inkscape:connector-curvature="0" />
	<path style="fill:none;stroke:red;stroke-width:1px;stroke-linecap:butt;stroke-linejoin:miter;stroke-opacity:1" d="M 19.2322,870.334 4,857.006 z" id="boundary" inkscape:connector-curvature="0" />
	<path style="fill:none;stroke:red;stroke-width:1px;stroke-linecap:butt;stroke-linejoin:miter;stroke-opacity:1" d="M 38.2726,870.334 19.2322,870.334 z" id="boundary" inkscape:connector-curvature="0" />
	<path style="fill:none;stroke:red;stroke-width:1px;stroke-linecap:butt;stroke-linejoin:miter;stroke-opacity:1" d="M 82.0653,824.637 68.737,839.869 z" id="boundary" inkscape:connector-curvature="0" />
	<path style="fill:none;stroke:red;stroke-width:1px;stroke-linecap:butt;stroke-linejoin:miter;stroke-opacity:1" d="M 42.0806,761.804 51.6008,742.764 z" id="boundary" inkscape:connector-curvature="0" />
	<path style="fill:none;stroke:red;stroke-width:1px;stroke-linecap:butt;stroke-linejoin:miter;stroke-opacity:1" d="M 38.2726,870.334 53.5048,853.198 z" id="boundary" inkscape:connector-curvature="0" />
	<path style="fill:none;stroke:red;stroke-width:1px;stroke-linecap:butt;stroke-linejoin:miter;stroke-opacity:1" d="M 68.737,839.869 53.5048,853.198 z" id="boundary" inkscape:connector-curvature="0" />
	<path style="fill:none;stroke:red;stroke-width:1px;stroke-linecap:butt;stroke-linejoin:miter;stroke-opacity:1" d="M 32.5605,780.845 42.0806,761.804 z" id="boundary" inkscape:connector-curvature="0" />
	<path style="fill:none;stroke:red;stroke-width:1px;stroke-linecap:butt;stroke-linejoin:miter;stroke-opacity:1" d="M 85.8733,689.451 76.3532,708.491 z" id="boundary" inkscape:connector-curvature="0" />
	<path style="fill:none;stroke:red;stroke-width:1px;stroke-linecap:butt;stroke-linejoin:miter;stroke-opacity:1" d="M 85.8733,689.451 89.6814,662.795 z" id="boundary" inkscape:connector-curvature="0" />
	<path style="fill:none;stroke:red;stroke-width:1px;stroke-linecap:butt;stroke-linejoin:miter;stroke-opacity:1" d="M 82.0653,824.637 101.106,815.117 z" id="boundary" inkscape:connector-curvature="0" />
	<path style="fill:none;stroke:red;stroke-width:1px;stroke-linecap:butt;stroke-linejoin:miter;stroke-opacity:1" d="M 101.106,815.117 118.242,824.637 z" id="boundary" inkscape:connector-curvature="0" />
	<path style="fill:none;stroke:red;stroke-width:1px;stroke-linecap:butt;stroke-linejoin:miter;stroke-opacity:1" d="M 118.242,824.637 123.954,843.678 z" id="boundary" inkscape:connector-curvature="0" />
	<path style="fill:none;stroke:red;stroke-width:1px;stroke-linecap:butt;stroke-linejoin:miter;stroke-opacity:1" d="M 123.954,843.678 127.762,862.718 z" id="boundary" inkscape:connector-curvature="0" />
	<path style="fill:none;stroke:red;stroke-width:1px;stroke-linecap:butt;stroke-linejoin:miter;stroke-opacity:1" d="M 137.282,879.854 127.762,862.718 z" id="boundary" inkscape:connector-curvature="0" />
	<path style="fill:none;stroke:red;stroke-width:1px;stroke-linecap:butt;stroke-linejoin:miter;stroke-opacity:1" d="M 137.282,879.854 146.802,896.99 z" id="boundary" inkscape:connector-curvature="0" />
	<path style="fill:none;stroke:red;stroke-width:1px;stroke-linecap:butt;stroke-linejoin:miter;stroke-opacity:1" d="M 146.802,896.99 156.322,914.127 z" id="boundary" inkscape:connector-curvature="0" />
	<path style="fill:none;stroke:red;stroke-width:1px;stroke-linecap:butt;stroke-linejoin:miter;stroke-opacity:1" d="M 171.555,927.455 156.322,914.127 z" id="boundary" inkscape:connector-curvature="0" />
	<path style="fill:none;stroke:red;stroke-width:1px;stroke-linecap:butt;stroke-linejoin:miter;stroke-opacity:1" d="M 171.555,927.455 184.883,942.687 z" id="boundary" inkscape:connector-curvature="0" />
	<path style="fill:none;stroke:red;stroke-width:1px;stroke-linecap:butt;stroke-linejoin:miter;stroke-opacity:1" d="M 203.923,948.399 184.883,942.687 z" id="boundary" inkscape:connector-curvature="0" />
	<path style="fill:none;stroke:red;stroke-width:1px;stroke-linecap:butt;stroke-linejoin:miter;stroke-opacity:1" d="M 234.388,971.248 215.347,963.631 z" id="boundary" inkscape:connector-curvature="0" />
	<path style="fill:none;stroke:red;stroke-width:1px;stroke-linecap:butt;stroke-linejoin:miter;stroke-opacity:1" d="M 215.347,963.631 203.923,948.399 z" id="boundary" inkscape:connector-curvature="0" />
	<path style="fill:none;stroke:red;stroke-width:1px;stroke-linecap:butt;stroke-linejoin:miter;stroke-opacity:1" d="M 234.388,971.248 251.524,980.768 z" id="boundary" inkscape:connector-curvature="0" />
	<path style="fill:none;stroke:red;stroke-width:1px;stroke-linecap:butt;stroke-linejoin:miter;stroke-opacity:1" d="M 270.564,986.48 251.524,980.768 z" id="boundary" inkscape:connector-curvature="0" />
	<path style="fill:none;stroke:red;stroke-width:1px;stroke-linecap:butt;stroke-linejoin:miter;stroke-opacity:1" d="M 289.605,986.48 270.564,986.48 z" id="boundary" inkscape:connector-curvature="0" />
	<path style="fill:none;stroke:red;stroke-width:1px;stroke-linecap:butt;stroke-linejoin:miter;stroke-opacity:1" d="M 289.605,986.48 308.645,986.48 z" id="boundary" inkscape:connector-curvature="0" />
	<path style="fill:none;stroke:red;stroke-width:1px;stroke-linecap:butt;stroke-linejoin:miter;stroke-opacity:1" d="M 308.645,986.48 325.781,996 z" id="boundary" inkscape:connector-curvature="0" />
	<path style="fill:none;stroke:red;stroke-width:1px;stroke-linecap:butt;stroke-linejoin:miter;stroke-opacity:1" d="M 308.645,4 327.685,4 z" id="boundary" inkscape:connector-curvature="0" />
	<path style="fill:none;stroke:red;stroke-width:1px;stroke-linecap:butt;stroke-linejoin:miter;stroke-opacity:1" d="M 327.685,4 346.726,4 z" id="boundary" inkscape:connector-curvature="0" />
	<path style="fill:none;stroke:red;stroke-width:1px;stroke-linecap:butt;stroke-linejoin:miter;stroke-opacity:1" d="M 365.766,4 384.806,7.80806 z" id="boundary" inkscape:connector-curvature="0" />
	<path style="fill:none;stroke:red;stroke-width:1px;stroke-linecap:butt;stroke-linejoin:miter;stroke-opacity:1" d="M 346.726,4 365.766,4 z" id="boundary" inkscape:connector-curvature="0" />
	<path style="fill:none;stroke:red;stroke-width:1px;stroke-linecap:butt;stroke-linejoin:miter;stroke-opacity:1" d="M 403.846,13.5202 420.983,23.0403 z" id="boundary" inkscape:connector-curvature="0" />
	<path style="fill:none;stroke:red;stroke-width:1px;stroke-linecap:butt;stroke-linejoin:miter;stroke-opacity:1" d="M 384.806,7.80806 403.846,13.5202 z" id="boundary" inkscape:connector-curvature="0" />
	<path style="fill:none;stroke:red;stroke-width:1px;stroke-linecap:butt;stroke-linejoin:miter;stroke-opacity:1" d="M 438.119,32.5605 455.255,42.0806 z" id="boundary" inkscape:connector-curvature="0" />
	<path style="fill:none;stroke:red;stroke-width:1px;stroke-linecap:butt;stroke-linejoin:miter;stroke-opacity:1" d="M 420.983,23.0403 438.119,32.5605 z" id="boundary" inkscape:connector-curvature="0" />
	<path style="fill:none;stroke:red;stroke-width:1px;stroke-linecap:butt;stroke-linejoin:miter;stroke-opacity:1" d="M 455.255,42.0806 472.392,51.6008 z" id="boundary" inkscape:connector-curvature="0" />
	<path style="fill:none;stroke:red;stroke-width:1px;stroke-linecap:butt;stroke-linejoin:miter;stroke-opacity:1" d="M 500.952,78.2572 487.624,63.025 z" id="boundary" inkscape:connector-curvature="0" />
	<path style="fill:none;stroke:red;stroke-width:1px;stroke-linecap:butt;stroke-linejoin:miter;stroke-opacity:1" d="M 516.184,91.5854 500.952,78.2572 z" id="boundary" inkscape:connector-curvature="0" />
	<path style="fill:none;stroke:red;stroke-width:1px;stroke-linecap:butt;stroke-linejoin:miter;stroke-opacity:1" d="M 529.512,106.818 539.033,123.954 z" id="boundary" inkscape:connector-curvature="0" />
	<path style="fill:none;stroke:red;stroke-width:1px;stroke-linecap:butt;stroke-linejoin:miter;stroke-opacity:1" d="M 516.184,91.5854 529.512,106.818 z" id="boundary" inkscape:connector-curvature="0" />
	<path style="fill:none;stroke:red;stroke-width:1px;stroke-linecap:butt;stroke-linejoin:miter;stroke-opacity:1" d="M 472.392,51.6008 487.624,63.025 z" id="boundary" inkscape:connector-curvature="0" />
	<path style="fill:none;stroke:red;stroke-width:1px;stroke-linecap:butt;stroke-linejoin:miter;stroke-opacity:1" d="M 539.033,123.954 548.553,141.09 z" id="boundary" inkscape:connector-curvature="0" />
	<path style="fill:none;stroke:red;stroke-width:1px;stroke-linecap:butt;stroke-linejoin:miter;stroke-opacity:1" d="M 548.553,141.09 554.265,160.131 z" id="boundary" inkscape:connector-curvature="0" />
	<path style="fill:none;stroke:red;stroke-width:1px;stroke-linecap:butt;stroke-linejoin:miter;stroke-opacity:1" d="M 529.512,356.246 519.992,339.109 z" id="boundary" inkscape:connector-curvature="0" />
	<path style="fill:none;stroke:red;stroke-width:1px;stroke-linecap:butt;stroke-linejoin:miter;stroke-opacity:1" d="M 519.992,339.109 535.225,325.781 z" id="boundary" inkscape:connector-curvature="0" />
	<path style="fill:none;stroke:red;stroke-width:1px;stroke-linecap:butt;stroke-linejoin:miter;stroke-opacity:1" d="M 554.265,160.131 558.073,179.171 z" id="boundary" inkscape:connector-curvature="0" />
	<path style="fill:none;stroke:red;stroke-width:1px;stroke-linecap:butt;stroke-linejoin:miter;stroke-opacity:1" d="M 535.225,325.781 554.265,320.069 z" id="boundary" inkscape:connector-curvature="0" />
	<path style="fill:none;stroke:red;stroke-width:1px;stroke-linecap:butt;stroke-linejoin:miter;stroke-opacity:1" d="M 529.512,356.246 539.033,373.382 z" id="boundary" inkscape:connector-curvature="0" />
	<path style="fill:none;stroke:red;stroke-width:1px;stroke-linecap:butt;stroke-linejoin:miter;stroke-opacity:1" d="M 563.785,198.211 558.073,179.171 z" id="boundary" inkscape:connector-curvature="0" />
	<path style="fill:none;stroke:red;stroke-width:1px;stroke-linecap:butt;stroke-linejoin:miter;stroke-opacity:1" d="M 582.825,205.827 563.785,198.211 z" id="boundary" inkscape:connector-curvature="0" />
	<path style="fill:none;stroke:red;stroke-width:1px;stroke-linecap:butt;stroke-linejoin:miter;stroke-opacity:1" d="M 615.194,228.676 596.154,221.06 z" id="boundary" inkscape:connector-curvature="0" />
	<path style="fill:none;stroke:red;stroke-width:1px;stroke-linecap:butt;stroke-linejoin:miter;stroke-opacity:1" d="M 596.154,221.06 582.825,205.827 z" id="boundary" inkscape:connector-curvature="0" />
	<path style="fill:none;stroke:red;stroke-width:1px;stroke-linecap:butt;stroke-linejoin:miter;stroke-opacity:1" d="M 615.194,228.676 628.522,243.908 z" id="boundary" inkscape:connector-curvature="0" />
	<path style="fill:none;stroke:red;stroke-width:1px;stroke-linecap:butt;stroke-linejoin:miter;stroke-opacity:1" d="M 628.522,243.908 643.754,257.236 z" id="boundary" inkscape:connector-curvature="0" />
	<path style="fill:none;stroke:red;stroke-width:1px;stroke-linecap:butt;stroke-linejoin:miter;stroke-opacity:1" d="M 657.083,272.468 672.315,285.797 z" id="boundary" inkscape:connector-curvature="0" />
	<path style="fill:none;stroke:red;stroke-width:1px;stroke-linecap:butt;stroke-linejoin:miter;stroke-opacity:1" d="M 672.315,285.797 679.931,304.837 z" id="boundary" inkscape:connector-curvature="0" />
	<path style="fill:none;stroke:red;stroke-width:1px;stroke-linecap:butt;stroke-linejoin:miter;stroke-opacity:1" d="M 657.083,272.468 643.754,257.236 z" id="boundary" inkscape:connector-curvature="0" />
	<path style="fill:none;stroke:red;stroke-width:1px;stroke-linecap:butt;stroke-linejoin:miter;stroke-opacity:1" d="M 695.163,318.165 679.931,304.837 z" id="boundary" inkscape:connector-curvature="0" />
	<path style="fill:none;stroke:red;stroke-width:1px;stroke-linecap:butt;stroke-linejoin:miter;stroke-opacity:1" d="M 554.265,320.069 573.305,320.069 z" id="boundary" inkscape:connector-curvature="0" />
	<path style="fill:none;stroke:red;stroke-width:1px;stroke-linecap:butt;stroke-linejoin:miter;stroke-opacity:1" d="M 573.305,320.069 586.633,335.301 z" id="boundary" inkscape:connector-curvature="0" />
	<path style="fill:none;stroke:red;stroke-width:1px;stroke-linecap:butt;stroke-linejoin:miter;stroke-opacity:1" d="M 619.002,358.15 601.866,348.63 z" id="boundary" inkscape:connector-curvature="0" />
	<path style="fill:none;stroke:red;stroke-width:1px;stroke-linecap:butt;stroke-linejoin:miter;stroke-opacity:1" d="M 601.866,348.63 586.633,335.301 z" id="boundary" inkscape:connector-curvature="0" />
	<path style="fill:none;stroke:red;stroke-width:1px;stroke-linecap:butt;stroke-linejoin:miter;stroke-opacity:1" d="M 695.163,318.165 708.491,333.397 z" id="boundary" inkscape:connector-curvature="0" />
	<path style="fill:none;stroke:red;stroke-width:1px;stroke-linecap:butt;stroke-linejoin:miter;stroke-opacity:1" d="M 708.491,333.397 695.163,356.246 z" id="boundary" inkscape:connector-curvature="0" />
	<path style="fill:none;stroke:red;stroke-width:1px;stroke-linecap:butt;stroke-linejoin:miter;stroke-opacity:1" d="M 657.083,367.67 638.042,365.766 z" id="boundary" inkscape:connector-curvature="0" />
	<path style="fill:none;stroke:red;stroke-width:1px;stroke-linecap:butt;stroke-linejoin:miter;stroke-opacity:1" d="M 695.163,356.246 676.123,365.766 z" id="boundary" inkscape:connector-curvature="0" />
	<path style="fill:none;stroke:red;stroke-width:1px;stroke-linecap:butt;stroke-linejoin:miter;stroke-opacity:1" d="M 676.123,365.766 657.083,367.67 z" id="boundary" inkscape:connector-curvature="0" />
	<path style="fill:none;stroke:red;stroke-width:1px;stroke-linecap:butt;stroke-linejoin:miter;stroke-opacity:1" d="M 638.042,365.766 619.002,358.15 z" id="boundary" inkscape:connector-curvature="0" />
	<path style="fill:none;stroke:red;stroke-width:1px;stroke-linecap:butt;stroke-linejoin:miter;stroke-opacity:1" d="M 558.073,738.956 558.073,757.996 z" id="boundary" inkscape:connector-curvature="0" />
	<path style="fill:none;stroke:red;stroke-width:1px;stroke-linecap:butt;stroke-linejoin:miter;stroke-opacity:1" d="M 510.472,900.798 525.704,887.47 z" id="boundary" inkscape:connector-curvature="0" />
	<path style="fill:none;stroke:red;stroke-width:1px;stroke-linecap:butt;stroke-linejoin:miter;stroke-opacity:1" d="M 500.952,919.839 510.472,900.798 z" id="boundary" inkscape:connector-curvature="0" />
	<path style="fill:none;stroke:red;stroke-width:1px;stroke-linecap:butt;stroke-linejoin:miter;stroke-opacity:1" d="M 535.225,868.43 525.704,887.47 z" id="boundary" inkscape:connector-curvature="0" />
	<path style="fill:none;stroke:red;stroke-width:1px;stroke-linecap:butt;stroke-linejoin:miter;stroke-opacity:1" d="M 539.033,373.382 554.265,386.71 z" id="boundary" inkscape:connector-curvature="0" />
	<path style="fill:none;stroke:red;stroke-width:1px;stroke-linecap:butt;stroke-linejoin:miter;stroke-opacity:1" d="M 554.265,386.71 561.881,405.75 z" id="boundary" inkscape:connector-curvature="0" />
	<path style="fill:none;stroke:red;stroke-width:1px;stroke-linecap:butt;stroke-linejoin:miter;stroke-opacity:1" d="M 544.745,849.39 548.553,815.117 z" id="boundary" inkscape:connector-curvature="0" />
	<path style="fill:none;stroke:red;stroke-width:1px;stroke-linecap:butt;stroke-linejoin:miter;stroke-opacity:1" d="M 548.553,815.117 558.073,796.077 z" id="boundary" inkscape:connector-curvature="0" />
	<path style="fill:none;stroke:red;stroke-width:1px;stroke-linecap:butt;stroke-linejoin:miter;stroke-opacity:1" d="M 544.745,849.39 535.225,868.43 z" id="boundary" inkscape:connector-curvature="0" />
	<path style="fill:none;stroke:red;stroke-width:1px;stroke-linecap:butt;stroke-linejoin:miter;stroke-opacity:1" d="M 558.073,757.996 558.073,777.036 z" id="boundary" inkscape:connector-curvature="0" />
	<path style="fill:none;stroke:red;stroke-width:1px;stroke-linecap:butt;stroke-linejoin:miter;stroke-opacity:1" d="M 558.073,738.956 567.593,719.916 z" id="boundary" inkscape:connector-curvature="0" />
	<path style="fill:none;stroke:red;stroke-width:1px;stroke-linecap:butt;stroke-linejoin:miter;stroke-opacity:1" d="M 380.998,986.48 361.958,986.48 z" id="boundary" inkscape:connector-curvature="0" />
	<path style="fill:none;stroke:red;stroke-width:1px;stroke-linecap:butt;stroke-linejoin:miter;stroke-opacity:1" d="M 434.311,967.44 417.175,976.96 z" id="boundary" inkscape:connector-curvature="0" />
	<path style="fill:none;stroke:red;stroke-width:1px;stroke-linecap:butt;stroke-linejoin:miter;stroke-opacity:1" d="M 380.998,986.48 400.038,986.48 z" id="boundary" inkscape:connector-curvature="0" />
	<path style="fill:none;stroke:red;stroke-width:1px;stroke-linecap:butt;stroke-linejoin:miter;stroke-opacity:1" d="M 344.821,996 361.958,986.48 z" id="boundary" inkscape:connector-curvature="0" />
	<path style="fill:none;stroke:red;stroke-width:1px;stroke-linecap:butt;stroke-linejoin:miter;stroke-opacity:1" d="M 417.175,976.96 400.038,986.48 z" id="boundary" inkscape:connector-curvature="0" />
	<path style="fill:none;stroke:red;stroke-width:1px;stroke-linecap:butt;stroke-linejoin:miter;stroke-opacity:1" d="M 344.821,996 325.781,996 z" id="boundary" inkscape:connector-curvature="0" />
	<path style="fill:none;stroke:red;stroke-width:1px;stroke-linecap:butt;stroke-linejoin:miter;stroke-opacity:1" d="M 485.72,936.975 470.488,948.399 z" id="boundary" inkscape:connector-curvature="0" />
	<path style="fill:none;stroke:red;stroke-width:1px;stroke-linecap:butt;stroke-linejoin:miter;stroke-opacity:1" d="M 453.351,957.919 434.311,967.44 z" id="boundary" inkscape:connector-curvature="0" />
	<path style="fill:none;stroke:red;stroke-width:1px;stroke-linecap:butt;stroke-linejoin:miter;stroke-opacity:1" d="M 470.488,948.399 453.351,957.919 z" id="boundary" inkscape:connector-curvature="0" />
	<path style="fill:none;stroke:red;stroke-width:1px;stroke-linecap:butt;stroke-linejoin:miter;stroke-opacity:1" d="M 500.952,919.839 485.72,936.975 z" id="boundary" inkscape:connector-curvature="0" />
	<path style="fill:none;stroke:red;stroke-width:1px;stroke-linecap:butt;stroke-linejoin:miter;stroke-opacity:1" d="M 561.881,405.75 571.401,422.887 z" id="boundary" inkscape:connector-curvature="0" />
	<path style="fill:none;stroke:red;stroke-width:1px;stroke-linecap:butt;stroke-linejoin:miter;stroke-opacity:1" d="M 571.401,422.887 577.113,441.927 z" id="boundary" inkscape:connector-curvature="0" />
	<path style="fill:none;stroke:red;stroke-width:1px;stroke-linecap:butt;stroke-linejoin:miter;stroke-opacity:1" d="M 577.113,441.927 586.633,459.063 z" id="boundary" inkscape:connector-curvature="0" />
	<path style="fill:none;stroke:red;stroke-width:1px;stroke-linecap:butt;stroke-linejoin:miter;stroke-opacity:1" d="M 586.633,459.063 586.633,478.104 z" id="boundary" inkscape:connector-curvature="0" />
	<path style="fill:none;stroke:red;stroke-width:1px;stroke-linecap:butt;stroke-linejoin:miter;stroke-opacity:1" d="M 596.154,495.24 586.633,478.104 z" id="boundary" inkscape:connector-curvature="0" />
	<path style="fill:none;stroke:red;stroke-width:1px;stroke-linecap:butt;stroke-linejoin:miter;stroke-opacity:1" d="M 596.154,514.28 596.154,533.321 z" id="boundary" inkscape:connector-curvature="0" />
	<path style="fill:none;stroke:red;stroke-width:1px;stroke-linecap:butt;stroke-linejoin:miter;stroke-opacity:1" d="M 596.154,514.28 596.154,495.24 z" id="boundary" inkscape:connector-curvature="0" />
	<path style="fill:none;stroke:red;stroke-width:1px;stroke-linecap:butt;stroke-linejoin:miter;stroke-opacity:1" d="M 596.154,533.321 596.154,552.361 z" id="boundary" inkscape:connector-curvature="0" />
	<path style="fill:none;stroke:red;stroke-width:1px;stroke-linecap:butt;stroke-linejoin:miter;stroke-opacity:1" d="M 596.154,552.361 596.154,571.401 z" id="boundary" inkscape:connector-curvature="0" />
	<path style="fill:none;stroke:red;stroke-width:1px;stroke-linecap:butt;stroke-linejoin:miter;stroke-opacity:1" d="M 577.113,681.835 577.113,700.875 z" id="boundary" inkscape:connector-curvature="0" />
	<path style="fill:none;stroke:red;stroke-width:1px;stroke-linecap:butt;stroke-linejoin:miter;stroke-opacity:1" d="M 577.113,700.875 567.593,719.916 z" id="boundary" inkscape:connector-curvature="0" />
	<path style="fill:none;stroke:red;stroke-width:1px;stroke-linecap:butt;stroke-linejoin:miter;stroke-opacity:1" d="M 577.113,681.835 586.633,662.795 z" id="boundary" inkscape:connector-curvature="0" />
	<path style="fill:none;stroke:red;stroke-width:1px;stroke-linecap:butt;stroke-linejoin:miter;stroke-opacity:1" d="M 558.073,796.077 558.073,777.036 z" id="boundary" inkscape:connector-curvature="0" />
	<path style="fill:none;stroke:red;stroke-width:1px;stroke-linecap:butt;stroke-linejoin:miter;stroke-opacity:1" d="M 596.154,571.401 596.154,590.441 z" id="boundary" inkscape:connector-curvature="0" />
	<path style="fill:none;stroke:red;stroke-width:1px;stroke-linecap:butt;stroke-linejoin:miter;stroke-opacity:1" d="M 586.633,643.754 596.154,609.482 z" id="boundary" inkscape:connector-curvature="0" />
	<path style="fill:none;stroke:red;stroke-width:1px;stroke-linecap:butt;stroke-linejoin:miter;stroke-opacity:1" d="M 586.633,662.795 586.633,643.754 z" id="boundary" inkscape:connector-curvature="0" />
	<path style="fill:none;stroke:red;stroke-width:1px;stroke-linecap:butt;stroke-linejoin:miter;stroke-opacity:1" d="M 596.154,590.441 596.154,609.482 z" id="boundary" inkscape:connector-curvature="0" />
	<circle cx="4" cy="857.006" r="4" fill="#0" id="circle0"/>
	<circle cx="13.5202" cy="209.635" r="4" fill="#0" id="circle1"/>
	<circle cx="13.5202" cy="828.445" r="4" fill="#0" id="circle2"/>
	<circle cx="19.2322" cy="870.334" r="4" fill="#0" id="circle3"/>
	<circle cx="23.0403" cy="799.885" r="4" fill="#0" id="circle4"/>
	<circle cx="28.7524" cy="194.403" r="4" fill="#0" id="circle5"/>
	<circle cx="28.7524" cy="222.964" r="4" fill="#0" id="circle6"/>
	<circle cx="32.5605" cy="780.845" r="4" fill="#0" id="circle7"/>
	<circle cx="38.2726" cy="870.334" r="4" fill="#0" id="circle8"/>
	<circle cx="42.0806" cy="761.804" r="4" fill="#0" id="circle9"/>
	<circle cx="45.8887" cy="184.883" r="4" fill="#0" id="circle10"/>
	<circle cx="45.8887" cy="232.484" r="4" fill="#0" id="circle11"/>
	<circle cx="51.6008" cy="742.764" r="4" fill="#0" id="circle12"/>
	<circle cx="53.5048" cy="853.198" r="4" fill="#0" id="circle13"/>
	<circle cx="61.1209" cy="171.555" r="4" fill="#0" id="circle14"/>
	<circle cx="64.929" cy="240.1" r="4" fill="#0" id="circle15"/>
	<circle cx="66.833" cy="727.532" r="4" fill="#0" id="circle16"/>
	<circle cx="68.737" cy="839.869" r="4" fill="#0" id="circle17"/>
	<circle cx="70.6411" cy="495.24" r="4" fill="#0" id="circle18"/>
	<circle cx="70.6411" cy="514.28" r="4" fill="#0" id="circle19"/>
	<circle cx="70.6411" cy="533.321" r="4" fill="#0" id="circle20"/>
	<circle cx="70.6411" cy="552.361" r="4" fill="#0" id="circle21"/>
	<circle cx="70.6411" cy="571.401" r="4" fill="#0" id="circle22"/>
	<circle cx="70.6411" cy="590.441" r="4" fill="#0" id="circle23"/>
	<circle cx="70.6411" cy="609.482" r="4" fill="#0" id="circle24"/>
	<circle cx="76.3532" cy="156.322" r="4" fill="#0" id="circle25"/>
	<circle cx="76.3532" cy="708.491" r="4" fill="#0" id="circle26"/>
	<circle cx="80.1612" cy="352.438" r="4" fill="#0" id="circle27"/>
	<circle cx="80.1612" cy="371.478" r="4" fill="#0" id="circle28"/>
	<circle cx="80.1612" cy="457.159" r="4" fill="#0" id="circle29"/>
	<circle cx="80.1612" cy="476.2" r="4" fill="#0" id="circle30"/>
	<circle cx="80.1612" cy="626.618" r="4" fill="#0" id="circle31"/>
	<circle cx="80.1612" cy="645.658" r="4" fill="#0" id="circle32"/>
	<circle cx="82.0653" cy="824.637" r="4" fill="#0" id="circle33"/>
	<circle cx="83.9693" cy="243.908" r="4" fill="#0" id="circle34"/>
	<circle cx="85.8733" cy="689.451" r="4" fill="#0" id="circle35"/>
	<circle cx="89.6814" cy="438.119" r="4" fill="#0" id="circle36"/>
	<circle cx="89.6814" cy="662.795" r="4" fill="#0" id="circle37"/>
	<circle cx="95.3935" cy="146.802" r="4" fill="#0" id="circle38"/>
	<circle cx="95.3935" cy="337.205" r="4" fill="#0" id="circle39"/>
	<circle cx="99.2015" cy="377.19" r="4" fill="#0" id="circle40"/>
	<circle cx="99.2015" cy="419.079" r="4" fill="#0" id="circle41"/>
	<circle cx="101.106" cy="234.388" r="4" fill="#0" id="circle42"/>
	<circle cx="101.106" cy="815.117" r="4" fill="#0" id="circle43"/>
	<circle cx="104.914" cy="318.165" r="4" fill="#0" id="circle44"/>
	<circle cx="108.722" cy="400.038" r="4" fill="#0" id="circle45"/>
	<circle cx="112.53" cy="249.62" r="4" fill="#0" id="circle46"/>
	<circle cx="114.434" cy="137.282" r="4" fill="#0" id="circle47"/>
	<circle cx="118.242" cy="268.66" r="4" fill="#0" id="circle48"/>
	<circle cx="118.242" cy="295.317" r="4" fill="#0" id="circle49"/>
	<circle cx="118.242" cy="824.637" r="4" fill="#0" id="circle50"/>
	<circle cx="123.954" cy="843.678" r="4" fill="#0" id="circle51"/>
	<circle cx="127.762" cy="862.718" r="4" fill="#0" id="circle52"/>
	<circle cx="133.474" cy="127.762" r="4" fill="#0" id="circle53"/>
	<circle cx="137.282" cy="879.854" r="4" fill="#0" id="circle54"/>
	<circle cx="142.994" cy="108.722" r="4" fill="#0" id="circle55"/>
	<circle cx="146.802" cy="896.99" r="4" fill="#0" id="circle56"/>
	<circle cx="152.514" cy="89.6814" r="4" fill="#0" id="circle57"/>
	<circle cx="156.322" cy="914.127" r="4" fill="#0" id="circle58"/>
	<circle cx="167.747" cy="74.4491" r="4" fill="#0" id="circle59"/>
	<circle cx="171.555" cy="927.455" r="4" fill="#0" id="circle60"/>
	<circle cx="182.979" cy="61.1209" r="4" fill="#0" id="circle61"/>
	<circle cx="184.883" cy="942.687" r="4" fill="#0" id="circle62"/>
	<circle cx="196.307" cy="45.8887" r="4" fill="#0" id="circle63"/>
	<circle cx="203.923" cy="948.399" r="4" fill="#0" id="circle64"/>
	<circle cx="215.347" cy="36.3685" r="4" fill="#0" id="circle65"/>
	<circle cx="215.347" cy="963.631" r="4" fill="#0" id="circle66"/>
	<circle cx="234.388" cy="26.8484" r="4" fill="#0" id="circle67"/>
	<circle cx="234.388" cy="971.248" r="4" fill="#0" id="circle68"/>
	<circle cx="251.524" cy="980.768" r="4" fill="#0" id="circle69"/>
	<circle cx="253.428" cy="17.3282" r="4" fill="#0" id="circle70"/>
	<circle cx="270.564" cy="986.48" r="4" fill="#0" id="circle71"/>
	<circle cx="272.468" cy="13.5202" r="4" fill="#0" id="circle72"/>
	<circle cx="289.605" cy="4" r="4" fill="#0" id="circle73"/>
	<circle cx="289.605" cy="986.48" r="4" fill="#0" id="circle74"/>
	<circle cx="308.645" cy="4" r="4" fill="#0" id="circle75"/>
	<circle cx="308.645" cy="986.48" r="4" fill="#0" id="circle76"/>
	<circle cx="325.781" cy="996" r="4" fill="#0" id="circle77"/>
	<circle cx="327.685" cy="4" r="4" fill="#0" id="circle78"/>
	<circle cx="344.821" cy="996" r="4" fill="#0" id="circle79"/>
	<circle cx="346.726" cy="4" r="4" fill="#0" id="circle80"/>
	<circle cx="361.958" cy="986.48" r="4" fill="#0" id="circle81"/>
	<circle cx="365.766" cy="4" r="4" fill="#0" id="circle82"/>
	<circle cx="380.998" cy="986.48" r="4" fill="#0" id="circle83"/>
	<circle cx="384.806" cy="7.80806" r="4" fill="#0" id="circle84"/>
	<circle cx="400.038" cy="986.48" r="4" fill="#0" id="circle85"/>
	<circle cx="403.846" cy="13.5202" r="4" fill="#0" id="circle86"/>
	<circle cx="417.175" cy="976.96" r="4" fill="#0" id="circle87"/>
	<circle cx="420.983" cy="23.0403" r="4" fill="#0" id="circle88"/>
	<circle cx="434.311" cy="967.44" r="4" fill="#0" id="circle89"/>
	<circle cx="438.119" cy="32.5605" r="4" fill="#0" id="circle90"/>
	<circle cx="453.351" cy="957.919" r="4" fill="#0" id="circle91"/>
	<circle cx="455.255" cy="42.0806" r="4" fill="#0" id="circle92"/>
	<circle cx="470.488" cy="948.399" r="4" fill="#0" id="circle93"/>
	<circle cx="472.392" cy="51.6008" r="4" fill="#0" id="circle94"/>
	<circle cx="485.72" cy="936.975" r="4" fill="#0" id="circle95"/>
	<circle cx="487.624" cy="63.025" r="4" fill="#0" id="circle96"/>
	<circle cx="500.952" cy="78.2572" r="4" fill="#0" id="circle97"/>
	<circle cx="500.952" cy="919.839" r="4" fill="#0" id="circle98"/>
	<circle cx="510.472" cy="900.798" r="4" fill="#0" id="circle99"/>
	<circle cx="516.184" cy="91.5854" r="4" fill="#0" id="circle100"/>
	<circle cx="519.992" cy="339.109" r="4" fill="#0" id="circle101"/>
	<circle cx="525.704" cy="887.47" r="4" fill="#0" id="circle102"/>
	<circle cx="529.512" cy="106.818" r="4" fill="#0" id="circle103"/>
	<circle cx="529.512" cy="356.246" r="4" fill="#0" id="circle104"/>
	<circle cx="535.225" cy="325.781" r="4" fill="#0" id="circle105"/>
	<circle cx="535.225" cy="868.43" r="4" fill="#0" id="circle106"/>
	<circle cx="539.033" cy="123.954" r="4" fill="#0" id="circle107"/>
	<circle cx="539.033" cy="373.382" r="4" fill="#0" id="circle108"/>
	<circle cx="544.745" cy="849.39" r="4" fill="#0" id="circle109"/>
	<circle cx="548.553" cy="141.09" r="4" fill="#0" id="circle110"/>
	<circle cx="548.553" cy="815.117" r="4" fill="#0" id="circle111"/>
	<circle cx="554.265" cy="160.131" r="4" fill="#0" id="circle112"/>
	<circle cx="554.265" cy="320.069" r="4" fill="#0" id="circle113"/>
	<circle cx="554.265" cy="386.71" r="4" fill="#0" id="circle114"/>
	<circle cx="558.073" cy="179.171" r="4" fill="#0" id="circle115"/>
	<circle cx="558.073" cy="738.956" r="4" fill="#0" id="circle116"/>
	<circle cx="558.073" cy="757.996" r="4" fill="#0" id="circle117"/>
	<circle cx="558.073" cy="777.036" r="4" fill="#0" id="circle118"/>
	<circle cx="558.073" cy="796.077" r="4" fill="#0" id="circle119"/>
	<circle cx="561.881" cy="405.75" r="4" fill="#0" id="circle120"/>
	<circle cx="563.785" cy="198.211" r="4" fill="#0" id="circle121"/>
	<circle cx="567.593" cy="719.916" r="4" fill="#0" id="circle122"/>
	<circle cx="571.401" cy="422.887" r="4" fill="#0" id="circle123"/>
	<circle cx="573.305" cy="320.069" r="4" fill="#0" id="circle124"/>
	<circle cx="577.113" cy="441.927" r="4" fill="#0" id="circle125"/>
	<circle cx="577.113" cy="681.835" r="4" fill="#0" id="circle126"/>
	<circle cx="577.113" cy="700.875" r="4" fill="#0" id="circle127"/>
	<circle cx="582.825" cy="205.827" r="4" fill="#0" id="circle128"/>
	<circle cx="586.633" cy="335.301" r="4" fill="#0" id="circle129"/>
	<circle cx="586.633" cy="459.063" r="4" fill="#0" id="circle130"/>
	<circle cx="586.633" cy="478.104" r="4" fill="#0" id="circle131"/>
	<circle cx="586.633" cy="643.754" r="4" fill="#0" id="circle132"/>
	<circle cx="586.633" cy="662.795" r="4" fill="#0" id="circle133"/>
	<circle cx="596.154" cy="221.06" r="4" fill="#0" id="circle134"/>
	<circle cx="596.154" cy="495.24" r="4" fill="#0" id="circle135"/>
	<circle cx="596.154" cy="514.28" r="4" fill="#0" id="circle136"/>
	<circle cx="596.154" cy="533.321" r="4" fill="#0" id="circle137"/>
	<circle cx="596.154" cy="552.361" r="4" fill="#0" id="circle138"/>
	<circle cx="596.154" cy="571.401" r="4" fill="#0" id="circle139"/>
	<circle cx="596.154" cy="590.441" r="4" fill="#0" id="circle140"/>
	<circle cx="596.154" cy="609.482" r="4" fill="#0" id="circle141"/>
	<circle cx="601.866" cy="348.63" r="4" fill="#0" id="circle142"/>
	<circle cx="615.194" cy="228.676" r="4" fill="#0" id="circle143"/>
	<circle cx="619.002" cy="358.15" r="4" fill="#0" id="circle144"/>
	<circle cx="628.522" cy="243.908" r="4" fill="#0" id="circle145"/>
	<circle cx="638.042" cy="365.766" r="4" fill="#0" id="circle146"/>
	<circle cx="643.754" cy="257.236" r="4" fill="#0" id="circle147"/>
	<circle cx="657.083" cy="272.468" r="4" fill="#0" id="circle148"/>
	<circle cx="657.083" cy="367.67" r="4" fill="#0" id="circle149"/>
	<circle cx="672.315" cy="285.797" r="4" fill="#0" id="circle150"/>
	<circle cx="676.123" cy="365.766" r="4" fill="#0" id="circle151"/>
	<circle cx="679.931" cy="304.837" r="4" fill="#0" id="circle152"/>
	<circle cx="695.163" cy="318.165" r="4" fill="#0" id="circle153"/>
	<circle cx="695.163" cy="356.246" r="4" fill="#0" id="circle154"/>
	<circle cx="708.491" cy="333.397" r="4" fill="#0" id="circle155"/>
	</g>
</svg>