<?xml version="1.0" encoding="UTF-8" standalone="no"?>
<!-- Created with CurveBenchmark -->
<svg
	xmlns:dc="http://purl.org/dc/elements/1.1/"
	xmlns:cc="http://creativecommons.org/ns#"
	xmlns:rdf="http://www.w3.org/1999/02/22-rdf-syntax-ns#"
	xmlns:svg="http://www.w3.org/2000/svg"
	xmlns="http://www.w3.org/2000/svg"
	xmlns:sodipodi="http://sodipodi.sourceforge.net/DTD/sodipodi-0.dtd"
	xmlns:inkscape="http://www.inkscape.org/namespaces/inkscape"
	width="1000"
	height="1000"
	id="svg2"
	version="1.1"
	sodipodi:docname="manifold/gathang-guitar275.png.txt">
<defs
	id="defs4" />
<metadata
	id="metadata7">
	<rdf:RDF>
		<cc:Work
			rdf:about="">
			<dc:format>image/svg+xml</dc:format>
			<dc:type
				rdf:resource="http://purl.org/dc/dcmitype/StillImage" />
			<dc:title></dc:title>
		</cc:Work>
	</rdf:RDF>
</metadata>
<g
	inkscape:label="Layer 1"
	inkscape:groupmode="layer"
	id="layer1">
	<path style="fill:none;stroke:red;stroke-width:1px;stroke-linecap:butt;stroke-linejoin:miter;stroke-opacity:1" d="M 18.0212,102.148 18.0212,137.201 z" id="boundary" inkscape:connector-curvature="0" />
	<path style="fill:none;stroke:red;stroke-width:1px;stroke-linecap:butt;stroke-linejoin:miter;stroke-opacity:1" d="M 11.0106,424.636 11.0106,389.583 z" id="boundary" inkscape:connector-curvature="0" />
	<path style="fill:none;stroke:red;stroke-width:1px;stroke-linecap:butt;stroke-linejoin:miter;stroke-opacity:1" d="M 11.0106,424.636 11.0106,459.689 z" id="boundary" inkscape:connector-curvature="0" />
	<path style="fill:none;stroke:red;stroke-width:1px;stroke-linecap:butt;stroke-linejoin:miter;stroke-opacity:1" d="M 11.0106,494.742 11.0106,459.689 z" id="boundary" inkscape:connector-curvature="0" />
	<path style="fill:none;stroke:red;stroke-width:1px;stroke-linecap:butt;stroke-linejoin:miter;stroke-opacity:1" d="M 18.0212,137.201 18.0212,172.254 z" id="boundary" inkscape:connector-curvature="0" />
	<path style="fill:none;stroke:red;stroke-width:1px;stroke-linecap:butt;stroke-linejoin:miter;stroke-opacity:1" d="M 18.0212,172.254 18.0212,207.307 z" id="boundary" inkscape:connector-curvature="0" />
	<path style="fill:none;stroke:red;stroke-width:1px;stroke-linecap:butt;stroke-linejoin:miter;stroke-opacity:1" d="M 18.0212,242.36 18.0212,207.307 z" id="boundary" inkscape:connector-curvature="0" />
	<path style="fill:none;stroke:red;stroke-width:1px;stroke-linecap:butt;stroke-linejoin:miter;stroke-opacity:1" d="M 18.0212,277.413 18.0212,312.466 z" id="boundary" inkscape:connector-curvature="0" />
	<path style="fill:none;stroke:red;stroke-width:1px;stroke-linecap:butt;stroke-linejoin:miter;stroke-opacity:1" d="M 18.0212,347.519 18.0212,312.466 z" id="boundary" inkscape:connector-curvature="0" />
	<path style="fill:none;stroke:red;stroke-width:1px;stroke-linecap:butt;stroke-linejoin:miter;stroke-opacity:1" d="M 18.0212,347.519 11.0106,389.583 z" id="boundary" inkscape:connector-curvature="0" />
	<path style="fill:none;stroke:red;stroke-width:1px;stroke-linecap:butt;stroke-linejoin:miter;stroke-opacity:1" d="M 18.0212,277.413 18.0212,242.36 z" id="boundary" inkscape:connector-curvature="0" />
	<path style="fill:none;stroke:red;stroke-width:1px;stroke-linecap:butt;stroke-linejoin:miter;stroke-opacity:1" d="M 11.0106,529.795 11.0106,494.742 z" id="boundary" inkscape:connector-curvature="0" />
	<path style="fill:none;stroke:red;stroke-width:1px;stroke-linecap:butt;stroke-linejoin:miter;stroke-opacity:1" d="M 4,831.251 4,796.198 z" id="boundary" inkscape:connector-curvature="0" />
	<path style="fill:none;stroke:red;stroke-width:1px;stroke-linecap:butt;stroke-linejoin:miter;stroke-opacity:1" d="M 4,796.198 4,761.145 z" id="boundary" inkscape:connector-curvature="0" />
	<path style="fill:none;stroke:red;stroke-width:1px;stroke-linecap:butt;stroke-linejoin:miter;stroke-opacity:1" d="M 7.5053,901.357 4,866.304 z" id="boundary" inkscape:connector-curvature="0" />
	<path style="fill:none;stroke:red;stroke-width:1px;stroke-linecap:butt;stroke-linejoin:miter;stroke-opacity:1" d="M 4,866.304 4,831.251 z" id="boundary" inkscape:connector-curvature="0" />
	<path style="fill:none;stroke:red;stroke-width:1px;stroke-linecap:butt;stroke-linejoin:miter;stroke-opacity:1" d="M 11.0106,529.795 11.0106,564.848 z" id="boundary" inkscape:connector-curvature="0" />
	<path style="fill:none;stroke:red;stroke-width:1px;stroke-linecap:butt;stroke-linejoin:miter;stroke-opacity:1" d="M 11.0106,564.848 11.0106,599.901 z" id="boundary" inkscape:connector-curvature="0" />
	<path style="fill:none;stroke:red;stroke-width:1px;stroke-linecap:butt;stroke-linejoin:miter;stroke-opacity:1" d="M 11.0106,634.954 11.0106,599.901 z" id="boundary" inkscape:connector-curvature="0" />
	<path style="fill:none;stroke:red;stroke-width:1px;stroke-linecap:butt;stroke-linejoin:miter;stroke-opacity:1" d="M 11.0106,670.007 11.0106,705.06 z" id="boundary" inkscape:connector-curvature="0" />
	<path style="fill:none;stroke:red;stroke-width:1px;stroke-linecap:butt;stroke-linejoin:miter;stroke-opacity:1" d="M 11.0106,705.06 4,761.145 z" id="boundary" inkscape:connector-curvature="0" />
	<path style="fill:none;stroke:red;stroke-width:1px;stroke-linecap:butt;stroke-linejoin:miter;stroke-opacity:1" d="M 46.0636,988.989 14.5159,971.463 z" id="boundary" inkscape:connector-curvature="0" />
	<path style="fill:none;stroke:red;stroke-width:1px;stroke-linecap:butt;stroke-linejoin:miter;stroke-opacity:1" d="M 14.5159,971.463 11.0106,936.41 z" id="boundary" inkscape:connector-curvature="0" />
	<path style="fill:none;stroke:red;stroke-width:1px;stroke-linecap:butt;stroke-linejoin:miter;stroke-opacity:1" d="M 11.0106,670.007 11.0106,634.954 z" id="boundary" inkscape:connector-curvature="0" />
	<path style="fill:none;stroke:red;stroke-width:1px;stroke-linecap:butt;stroke-linejoin:miter;stroke-opacity:1" d="M 11.0106,936.41 7.5053,901.357 z" id="boundary" inkscape:connector-curvature="0" />
	<path style="fill:none;stroke:red;stroke-width:1px;stroke-linecap:butt;stroke-linejoin:miter;stroke-opacity:1" d="M 32.0424,67.0954 39.053,32.0424 z" id="boundary" inkscape:connector-curvature="0" />
	<path style="fill:none;stroke:red;stroke-width:1px;stroke-linecap:butt;stroke-linejoin:miter;stroke-opacity:1" d="M 32.0424,67.0954 18.0212,102.148 z" id="boundary" inkscape:connector-curvature="0" />
	<path style="fill:none;stroke:red;stroke-width:1px;stroke-linecap:butt;stroke-linejoin:miter;stroke-opacity:1" d="M 42.5583,442.163 42.5583,407.11 z" id="boundary" inkscape:connector-curvature="0" />
	<path style="fill:none;stroke:red;stroke-width:1px;stroke-linecap:butt;stroke-linejoin:miter;stroke-opacity:1" d="M 39.053,32.0424 60.0848,4 z" id="boundary" inkscape:connector-curvature="0" />
	<path style="fill:none;stroke:red;stroke-width:1px;stroke-linecap:butt;stroke-linejoin:miter;stroke-opacity:1" d="M 42.5583,442.163 60.0848,473.71 z" id="boundary" inkscape:connector-curvature="0" />
	<path style="fill:none;stroke:red;stroke-width:1px;stroke-linecap:butt;stroke-linejoin:miter;stroke-opacity:1" d="M 95.1378,480.721 60.0848,473.71 z" id="boundary" inkscape:connector-curvature="0" />
	<path style="fill:none;stroke:red;stroke-width:1px;stroke-linecap:butt;stroke-linejoin:miter;stroke-opacity:1" d="M 126.686,498.247 95.1378,480.721 z" id="boundary" inkscape:connector-curvature="0" />
	<path style="fill:none;stroke:red;stroke-width:1px;stroke-linecap:butt;stroke-linejoin:miter;stroke-opacity:1" d="M 126.686,498.247 126.686,533.3 z" id="boundary" inkscape:connector-curvature="0" />
	<path style="fill:none;stroke:red;stroke-width:1px;stroke-linecap:butt;stroke-linejoin:miter;stroke-opacity:1" d="M 133.696,568.353 126.686,533.3 z" id="boundary" inkscape:connector-curvature="0" />
	<path style="fill:none;stroke:red;stroke-width:1px;stroke-linecap:butt;stroke-linejoin:miter;stroke-opacity:1" d="M 133.696,568.353 133.696,603.406 z" id="boundary" inkscape:connector-curvature="0" />
	<path style="fill:none;stroke:red;stroke-width:1px;stroke-linecap:butt;stroke-linejoin:miter;stroke-opacity:1" d="M 133.696,603.406 133.696,638.459 z" id="boundary" inkscape:connector-curvature="0" />
	<path style="fill:none;stroke:red;stroke-width:1px;stroke-linecap:butt;stroke-linejoin:miter;stroke-opacity:1" d="M 133.696,673.512 133.696,708.565 z" id="boundary" inkscape:connector-curvature="0" />
	<path style="fill:none;stroke:red;stroke-width:1px;stroke-linecap:butt;stroke-linejoin:miter;stroke-opacity:1" d="M 133.696,673.512 133.696,638.459 z" id="boundary" inkscape:connector-curvature="0" />
	<path style="fill:none;stroke:red;stroke-width:1px;stroke-linecap:butt;stroke-linejoin:miter;stroke-opacity:1" d="M 133.696,708.565 133.696,743.618 z" id="boundary" inkscape:connector-curvature="0" />
	<path style="fill:none;stroke:red;stroke-width:1px;stroke-linecap:butt;stroke-linejoin:miter;stroke-opacity:1" d="M 133.696,957.442 116.17,988.989 z" id="boundary" inkscape:connector-curvature="0" />
	<path style="fill:none;stroke:red;stroke-width:1px;stroke-linecap:butt;stroke-linejoin:miter;stroke-opacity:1" d="M 116.17,988.989 81.1166,996 z" id="boundary" inkscape:connector-curvature="0" />
	<path style="fill:none;stroke:red;stroke-width:1px;stroke-linecap:butt;stroke-linejoin:miter;stroke-opacity:1" d="M 81.1166,996 46.0636,988.989 z" id="boundary" inkscape:connector-curvature="0" />
	<path style="fill:none;stroke:red;stroke-width:1px;stroke-linecap:butt;stroke-linejoin:miter;stroke-opacity:1" d="M 133.696,743.618 140.707,778.671 z" id="boundary" inkscape:connector-curvature="0" />
	<path style="fill:none;stroke:red;stroke-width:1px;stroke-linecap:butt;stroke-linejoin:miter;stroke-opacity:1" d="M 140.707,778.671 140.707,813.724 z" id="boundary" inkscape:connector-curvature="0" />
	<path style="fill:none;stroke:red;stroke-width:1px;stroke-linecap:butt;stroke-linejoin:miter;stroke-opacity:1" d="M 140.707,848.777 140.707,883.83 z" id="boundary" inkscape:connector-curvature="0" />
	<path style="fill:none;stroke:red;stroke-width:1px;stroke-linecap:butt;stroke-linejoin:miter;stroke-opacity:1" d="M 133.696,922.389 133.696,957.442 z" id="boundary" inkscape:connector-curvature="0" />
	<path style="fill:none;stroke:red;stroke-width:1px;stroke-linecap:butt;stroke-linejoin:miter;stroke-opacity:1" d="M 133.696,922.389 140.707,883.83 z" id="boundary" inkscape:connector-curvature="0" />
	<path style="fill:none;stroke:red;stroke-width:1px;stroke-linecap:butt;stroke-linejoin:miter;stroke-opacity:1" d="M 140.707,813.724 140.707,848.777 z" id="boundary" inkscape:connector-curvature="0" />
	<circle cx="4" cy="761.145" r="4" fill="#0" id="circle0"/>
	<circle cx="4" cy="796.198" r="4" fill="#0" id="circle1"/>
	<circle cx="4" cy="831.251" r="4" fill="#0" id="circle2"/>
	<circle cx="4" cy="866.304" r="4" fill="#0" id="circle3"/>
	<circle cx="7.5053" cy="901.357" r="4" fill="#0" id="circle4"/>
	<circle cx="11.0106" cy="389.583" r="4" fill="#0" id="circle5"/>
	<circle cx="11.0106" cy="424.636" r="4" fill="#0" id="circle6"/>
	<circle cx="11.0106" cy="459.689" r="4" fill="#0" id="circle7"/>
	<circle cx="11.0106" cy="494.742" r="4" fill="#0" id="circle8"/>
	<circle cx="11.0106" cy="529.795" r="4" fill="#0" id="circle9"/>
	<circle cx="11.0106" cy="564.848" r="4" fill="#0" id="circle10"/>
	<circle cx="11.0106" cy="599.901" r="4" fill="#0" id="circle11"/>
	<circle cx="11.0106" cy="634.954" r="4" fill="#0" id="circle12"/>
	<circle cx="11.0106" cy="670.007" r="4" fill="#0" id="circle13"/>
	<circle cx="11.0106" cy="705.06" r="4" fill="#0" id="circle14"/>
	<circle cx="11.0106" cy="936.41" r="4" fill="#0" id="circle15"/>
	<circle cx="14.5159" cy="971.463" r="4" fill="#0" id="circle16"/>
	<circle cx="18.0212" cy="102.148" r="4" fill="#0" id="circle17"/>
	<circle cx="18.0212" cy="137.201" r="4" fill="#0" id="circle18"/>
	<circle cx="18.0212" cy="172.254" r="4" fill="#0" id="circle19"/>
	<circle cx="18.0212" cy="207.307" r="4" fill="#0" id="circle20"/>
	<circle cx="18.0212" cy="242.36" r="4" fill="#0" id="circle21"/>
	<circle cx="18.0212" cy="277.413" r="4" fill="#0" id="circle22"/>
	<circle cx="18.0212" cy="312.466" r="4" fill="#0" id="circle23"/>
	<circle cx="18.0212" cy="347.519" r="4" fill="#0" id="circle24"/>
	<circle cx="32.0424" cy="67.0954" r="4" fill="#0" id="circle25"/>
	<circle cx="39.053" cy="32.0424" r="4" fill="#0" id="circle26"/>
	<circle cx="42.5583" cy="407.11" r="4" fill="#0" id="circle27"/>
	<circle cx="42.5583" cy="442.163" r="4" fill="#0" id="circle28"/>
	<circle cx="46.0636" cy="988.989" r="4" fill="#0" id="circle29"/>
	<circle cx="49.5689" cy="119.675" r="4" fill="#0" id="circle30"/>
	<circle cx="60.0848" cy="4" r="4" fill="#0" id="circle31"/>
	<circle cx="60.0848" cy="473.71" r="4" fill="#0" id="circle32"/>
	<circle cx="67.0954" cy="56.5795" r="4" fill="#0" id="circle33"/>
	<circle cx="81.1166" cy="996" r="4" fill="#0" id="circle34"/>
	<circle cx="95.1378" cy="480.721" r="4" fill="#0" id="circle35"/>
	<circle cx="116.17" cy="988.989" r="4" fill="#0" id="circle36"/>
	<circle cx="126.686" cy="498.247" r="4" fill="#0" id="circle37"/>
	<circle cx="126.686" cy="533.3" r="4" fill="#0" id="circle38"/>
	<circle cx="133.696" cy="568.353" r="4" fill="#0" id="circle39"/>
	<circle cx="133.696" cy="603.406" r="4" fill="#0" id="circle40"/>
	<circle cx="133.696" cy="638.459" r="4" fill="#0" id="circle41"/>
	<circle cx="133.696" cy="673.512" r="4" fill="#0" id="circle42"/>
	<circle cx="133.696" cy="708.565" r="4" fill="#0" id="circle43"/>
	<circle cx="133.696" cy="743.618" r="4" fill="#0" id="circle44"/>
	<circle cx="133.696" cy="922.389" r="4" fill="#0" id="circle45"/>
	<circle cx="133.696" cy="957.442" r="4" fill="#0" id="circle46"/>
	<circle cx="140.707" cy="778.671" r="4" fill="#0" id="circle47"/>
	<circle cx="140.707" cy="813.724" r="4" fill="#0" id="circle48"/>
	<circle cx="140.707" cy="848.777" r="4" fill="#0" id="circle49"/>
	<circle cx="140.707" cy="883.83" r="4" fill="#0" id="circle50"/>
	</g>
</svg>