<?xml version="1.0" encoding="UTF-8" standalone="no"?>
<!-- Created with CurveBenchmark -->
<svg
	xmlns:dc="http://purl.org/dc/elements/1.1/"
	xmlns:cc="http://creativecommons.org/ns#"
	xmlns:rdf="http://www.w3.org/1999/02/22-rdf-syntax-ns#"
	xmlns:svg="http://www.w3.org/2000/svg"
	xmlns="http://www.w3.org/2000/svg"
	xmlns:sodipodi="http://sodipodi.sourceforge.net/DTD/sodipodi-0.dtd"
	xmlns:inkscape="http://www.inkscape.org/namespaces/inkscape"
	width="1000"
	height="1000"
	id="svg2"
	version="1.1"
	sodipodi:docname="manifold/gathang-carriage-20.png.txt">
<defs
	id="defs4" />
<metadata
	id="metadata7">
	<rdf:RDF>
		<cc:Work
			rdf:about="">
			<dc:format>image/svg+xml</dc:format>
			<dc:type
				rdf:resource="http://purl.org/dc/dcmitype/StillImage" />
			<dc:title></dc:title>
		</cc:Work>
	</rdf:RDF>
</metadata>
<g
	inkscape:label="Layer 1"
	inkscape:groupmode="layer"
	id="layer1">
	<path style="fill:none;stroke:red;stroke-width:1px;stroke-linecap:butt;stroke-linejoin:miter;stroke-opacity:1" d="M 38.471,68.1544 48.0463,63.3668 z" id="boundary" inkscape:connector-curvature="0" />
	<path style="fill:none;stroke:red;stroke-width:1px;stroke-linecap:butt;stroke-linejoin:miter;stroke-opacity:1" d="M 55.7066,56.6641 48.0463,63.3668 z" id="boundary" inkscape:connector-curvature="0" />
	<path style="fill:none;stroke:red;stroke-width:1px;stroke-linecap:butt;stroke-linejoin:miter;stroke-opacity:1" d="M 55.7066,56.6641 62.4093,49.0039 z" id="boundary" inkscape:connector-curvature="0" />
	<path style="fill:none;stroke:red;stroke-width:1px;stroke-linecap:butt;stroke-linejoin:miter;stroke-opacity:1" d="M 62.4093,49.0039 71.9846,47.0888 z" id="boundary" inkscape:connector-curvature="0" />
	<path style="fill:none;stroke:red;stroke-width:1px;stroke-linecap:butt;stroke-linejoin:miter;stroke-opacity:1" d="M 13.5753,102.625 13.5753,112.201 z" id="boundary" inkscape:connector-curvature="0" />
	<path style="fill:none;stroke:red;stroke-width:1px;stroke-linecap:butt;stroke-linejoin:miter;stroke-opacity:1" d="M 13.5753,112.201 8.78764,121.776 z" id="boundary" inkscape:connector-curvature="0" />
	<path style="fill:none;stroke:red;stroke-width:1px;stroke-linecap:butt;stroke-linejoin:miter;stroke-opacity:1" d="M 8.78764,121.776 4,131.351 z" id="boundary" inkscape:connector-curvature="0" />
	<path style="fill:none;stroke:red;stroke-width:1px;stroke-linecap:butt;stroke-linejoin:miter;stroke-opacity:1" d="M 13.5753,102.625 18.3629,93.0502 z" id="boundary" inkscape:connector-curvature="0" />
	<path style="fill:none;stroke:red;stroke-width:1px;stroke-linecap:butt;stroke-linejoin:miter;stroke-opacity:1" d="M 30.8108,75.8147 26.0232,85.39 z" id="boundary" inkscape:connector-curvature="0" />
	<path style="fill:none;stroke:red;stroke-width:1px;stroke-linecap:butt;stroke-linejoin:miter;stroke-opacity:1" d="M 26.0232,85.39 18.3629,93.0502 z" id="boundary" inkscape:connector-curvature="0" />
	<path style="fill:none;stroke:red;stroke-width:1px;stroke-linecap:butt;stroke-linejoin:miter;stroke-opacity:1" d="M 30.8108,75.8147 38.471,68.1544 z" id="boundary" inkscape:connector-curvature="0" />
	<path style="fill:none;stroke:red;stroke-width:1px;stroke-linecap:butt;stroke-linejoin:miter;stroke-opacity:1" d="M 71.9846,47.0888 81.5598,49.9614 z" id="boundary" inkscape:connector-curvature="0" />
	<path style="fill:none;stroke:red;stroke-width:1px;stroke-linecap:butt;stroke-linejoin:miter;stroke-opacity:1" d="M 90.1776,54.749 81.5598,49.9614 z" id="boundary" inkscape:connector-curvature="0" />
	<path style="fill:none;stroke:red;stroke-width:1px;stroke-linecap:butt;stroke-linejoin:miter;stroke-opacity:1" d="M 99.7529,58.5792 90.1776,54.749 z" id="boundary" inkscape:connector-curvature="0" />
	<path style="fill:none;stroke:red;stroke-width:1px;stroke-linecap:butt;stroke-linejoin:miter;stroke-opacity:1" d="M 114.116,71.027 105.498,66.2394 z" id="boundary" inkscape:connector-curvature="0" />
	<path style="fill:none;stroke:red;stroke-width:1px;stroke-linecap:butt;stroke-linejoin:miter;stroke-opacity:1" d="M 105.498,66.2394 99.7529,58.5792 z" id="boundary" inkscape:connector-curvature="0" />
	<path style="fill:none;stroke:red;stroke-width:1px;stroke-linecap:butt;stroke-linejoin:miter;stroke-opacity:1" d="M 121.776,76.7722 114.116,71.027 z" id="boundary" inkscape:connector-curvature="0" />
	<path style="fill:none;stroke:red;stroke-width:1px;stroke-linecap:butt;stroke-linejoin:miter;stroke-opacity:1" d="M 75.8147,124.649 85.39,124.649 z" id="boundary" inkscape:connector-curvature="0" />
	<path style="fill:none;stroke:red;stroke-width:1px;stroke-linecap:butt;stroke-linejoin:miter;stroke-opacity:1" d="M 70.0695,132.309 75.8147,124.649 z" id="boundary" inkscape:connector-curvature="0" />
	<path style="fill:none;stroke:red;stroke-width:1px;stroke-linecap:butt;stroke-linejoin:miter;stroke-opacity:1" d="M 94.9653,124.649 85.39,124.649 z" id="boundary" inkscape:connector-curvature="0" />
	<path style="fill:none;stroke:red;stroke-width:1px;stroke-linecap:butt;stroke-linejoin:miter;stroke-opacity:1" d="M 94.9653,124.649 99.7529,133.266 z" id="boundary" inkscape:connector-curvature="0" />
	<path style="fill:none;stroke:red;stroke-width:1px;stroke-linecap:butt;stroke-linejoin:miter;stroke-opacity:1" d="M 138.054,88.2625 129.436,83.4749 z" id="boundary" inkscape:connector-curvature="0" />
	<path style="fill:none;stroke:red;stroke-width:1px;stroke-linecap:butt;stroke-linejoin:miter;stroke-opacity:1" d="M 129.436,83.4749 121.776,76.7722 z" id="boundary" inkscape:connector-curvature="0" />
	<path style="fill:none;stroke:red;stroke-width:1px;stroke-linecap:butt;stroke-linejoin:miter;stroke-opacity:1" d="M 4,131.351 8.78764,139.969 z" id="boundary" inkscape:connector-curvature="0" />
	<path style="fill:none;stroke:red;stroke-width:1px;stroke-linecap:butt;stroke-linejoin:miter;stroke-opacity:1" d="M 62.4093,139.012 70.0695,132.309 z" id="boundary" inkscape:connector-curvature="0" />
	<path style="fill:none;stroke:red;stroke-width:1px;stroke-linecap:butt;stroke-linejoin:miter;stroke-opacity:1" d="M 99.7529,133.266 99.7529,142.842 z" id="boundary" inkscape:connector-curvature="0" />
	<path style="fill:none;stroke:red;stroke-width:1px;stroke-linecap:butt;stroke-linejoin:miter;stroke-opacity:1" d="M 62.4093,139.012 52.834,143.799 z" id="boundary" inkscape:connector-curvature="0" />
	<path style="fill:none;stroke:red;stroke-width:1px;stroke-linecap:butt;stroke-linejoin:miter;stroke-opacity:1" d="M 25.0656,148.587 15.4903,147.629 z" id="boundary" inkscape:connector-curvature="0" />
	<path style="fill:none;stroke:red;stroke-width:1px;stroke-linecap:butt;stroke-linejoin:miter;stroke-opacity:1" d="M 15.4903,147.629 8.78764,139.969 z" id="boundary" inkscape:connector-curvature="0" />
	<path style="fill:none;stroke:red;stroke-width:1px;stroke-linecap:butt;stroke-linejoin:miter;stroke-opacity:1" d="M 25.0656,148.587 34.6409,148.587 z" id="boundary" inkscape:connector-curvature="0" />
	<path style="fill:none;stroke:red;stroke-width:1px;stroke-linecap:butt;stroke-linejoin:miter;stroke-opacity:1" d="M 44.2162,148.587 52.834,143.799 z" id="boundary" inkscape:connector-curvature="0" />
	<path style="fill:none;stroke:red;stroke-width:1px;stroke-linecap:butt;stroke-linejoin:miter;stroke-opacity:1" d="M 44.2162,148.587 34.6409,148.587 z" id="boundary" inkscape:connector-curvature="0" />
	<path style="fill:none;stroke:red;stroke-width:1px;stroke-linecap:butt;stroke-linejoin:miter;stroke-opacity:1" d="M 99.7529,142.842 99.7529,152.417 z" id="boundary" inkscape:connector-curvature="0" />
	<path style="fill:none;stroke:red;stroke-width:1px;stroke-linecap:butt;stroke-linejoin:miter;stroke-opacity:1" d="M 99.7529,152.417 99.7529,161.992 z" id="boundary" inkscape:connector-curvature="0" />
	<path style="fill:none;stroke:red;stroke-width:1px;stroke-linecap:butt;stroke-linejoin:miter;stroke-opacity:1" d="M 104.541,170.61 99.7529,161.992 z" id="boundary" inkscape:connector-curvature="0" />
	<path style="fill:none;stroke:red;stroke-width:1px;stroke-linecap:butt;stroke-linejoin:miter;stroke-opacity:1" d="M 109.328,188.803 104.541,180.185 z" id="boundary" inkscape:connector-curvature="0" />
	<path style="fill:none;stroke:red;stroke-width:1px;stroke-linecap:butt;stroke-linejoin:miter;stroke-opacity:1" d="M 104.541,180.185 104.541,170.61 z" id="boundary" inkscape:connector-curvature="0" />
	<path style="fill:none;stroke:red;stroke-width:1px;stroke-linecap:butt;stroke-linejoin:miter;stroke-opacity:1" d="M 109.328,188.803 109.328,198.378 z" id="boundary" inkscape:connector-curvature="0" />
	<path style="fill:none;stroke:red;stroke-width:1px;stroke-linecap:butt;stroke-linejoin:miter;stroke-opacity:1" d="M 109.328,198.378 109.328,207.954 z" id="boundary" inkscape:connector-curvature="0" />
	<path style="fill:none;stroke:red;stroke-width:1px;stroke-linecap:butt;stroke-linejoin:miter;stroke-opacity:1" d="M 109.328,217.529 109.328,207.954 z" id="boundary" inkscape:connector-curvature="0" />
	<path style="fill:none;stroke:red;stroke-width:1px;stroke-linecap:butt;stroke-linejoin:miter;stroke-opacity:1" d="M 109.328,217.529 109.328,227.104 z" id="boundary" inkscape:connector-curvature="0" />
	<path style="fill:none;stroke:red;stroke-width:1px;stroke-linecap:butt;stroke-linejoin:miter;stroke-opacity:1" d="M 109.328,236.68 109.328,227.104 z" id="boundary" inkscape:connector-curvature="0" />
	<path style="fill:none;stroke:red;stroke-width:1px;stroke-linecap:butt;stroke-linejoin:miter;stroke-opacity:1" d="M 109.328,246.255 109.328,236.68 z" id="boundary" inkscape:connector-curvature="0" />
	<path style="fill:none;stroke:red;stroke-width:1px;stroke-linecap:butt;stroke-linejoin:miter;stroke-opacity:1" d="M 109.328,246.255 102.625,257.745 z" id="boundary" inkscape:connector-curvature="0" />
	<path style="fill:none;stroke:red;stroke-width:1px;stroke-linecap:butt;stroke-linejoin:miter;stroke-opacity:1" d="M 138.054,88.2625 145.714,94.9653 z" id="boundary" inkscape:connector-curvature="0" />
	<path style="fill:none;stroke:red;stroke-width:1px;stroke-linecap:butt;stroke-linejoin:miter;stroke-opacity:1" d="M 154.332,99.7529 161.992,106.456 z" id="boundary" inkscape:connector-curvature="0" />
	<path style="fill:none;stroke:red;stroke-width:1px;stroke-linecap:butt;stroke-linejoin:miter;stroke-opacity:1" d="M 167.737,114.116 172.525,122.734 z" id="boundary" inkscape:connector-curvature="0" />
	<path style="fill:none;stroke:red;stroke-width:1px;stroke-linecap:butt;stroke-linejoin:miter;stroke-opacity:1" d="M 167.737,114.116 161.992,106.456 z" id="boundary" inkscape:connector-curvature="0" />
	<path style="fill:none;stroke:red;stroke-width:1px;stroke-linecap:butt;stroke-linejoin:miter;stroke-opacity:1" d="M 180.185,129.436 172.525,122.734 z" id="boundary" inkscape:connector-curvature="0" />
	<path style="fill:none;stroke:red;stroke-width:1px;stroke-linecap:butt;stroke-linejoin:miter;stroke-opacity:1" d="M 236.68,138.054 227.104,138.054 z" id="boundary" inkscape:connector-curvature="0" />
	<path style="fill:none;stroke:red;stroke-width:1px;stroke-linecap:butt;stroke-linejoin:miter;stroke-opacity:1" d="M 145.714,94.9653 154.332,99.7529 z" id="boundary" inkscape:connector-curvature="0" />
	<path style="fill:none;stroke:red;stroke-width:1px;stroke-linecap:butt;stroke-linejoin:miter;stroke-opacity:1" d="M 189.761,133.266 198.378,138.054 z" id="boundary" inkscape:connector-curvature="0" />
	<path style="fill:none;stroke:red;stroke-width:1px;stroke-linecap:butt;stroke-linejoin:miter;stroke-opacity:1" d="M 189.761,133.266 180.185,129.436 z" id="boundary" inkscape:connector-curvature="0" />
	<path style="fill:none;stroke:red;stroke-width:1px;stroke-linecap:butt;stroke-linejoin:miter;stroke-opacity:1" d="M 207.954,138.054 198.378,138.054 z" id="boundary" inkscape:connector-curvature="0" />
	<path style="fill:none;stroke:red;stroke-width:1px;stroke-linecap:butt;stroke-linejoin:miter;stroke-opacity:1" d="M 207.954,138.054 217.529,138.054 z" id="boundary" inkscape:connector-curvature="0" />
	<path style="fill:none;stroke:red;stroke-width:1px;stroke-linecap:butt;stroke-linejoin:miter;stroke-opacity:1" d="M 217.529,138.054 227.104,138.054 z" id="boundary" inkscape:connector-curvature="0" />
	<path style="fill:none;stroke:red;stroke-width:1px;stroke-linecap:butt;stroke-linejoin:miter;stroke-opacity:1" d="M 236.68,138.054 246.255,138.054 z" id="boundary" inkscape:connector-curvature="0" />
	<path style="fill:none;stroke:red;stroke-width:1px;stroke-linecap:butt;stroke-linejoin:miter;stroke-opacity:1" d="M 255.83,138.054 265.405,138.054 z" id="boundary" inkscape:connector-curvature="0" />
	<path style="fill:none;stroke:red;stroke-width:1px;stroke-linecap:butt;stroke-linejoin:miter;stroke-opacity:1" d="M 274.981,138.054 265.405,138.054 z" id="boundary" inkscape:connector-curvature="0" />
	<path style="fill:none;stroke:red;stroke-width:1px;stroke-linecap:butt;stroke-linejoin:miter;stroke-opacity:1" d="M 255.83,138.054 246.255,138.054 z" id="boundary" inkscape:connector-curvature="0" />
	<path style="fill:none;stroke:red;stroke-width:1px;stroke-linecap:butt;stroke-linejoin:miter;stroke-opacity:1" d="M 284.556,138.054 294.131,138.054 z" id="boundary" inkscape:connector-curvature="0" />
	<path style="fill:none;stroke:red;stroke-width:1px;stroke-linecap:butt;stroke-linejoin:miter;stroke-opacity:1" d="M 294.131,138.054 303.707,138.054 z" id="boundary" inkscape:connector-curvature="0" />
	<path style="fill:none;stroke:red;stroke-width:1px;stroke-linecap:butt;stroke-linejoin:miter;stroke-opacity:1" d="M 313.282,138.054 322.857,138.054 z" id="boundary" inkscape:connector-curvature="0" />
	<path style="fill:none;stroke:red;stroke-width:1px;stroke-linecap:butt;stroke-linejoin:miter;stroke-opacity:1" d="M 313.282,138.054 303.707,138.054 z" id="boundary" inkscape:connector-curvature="0" />
	<path style="fill:none;stroke:red;stroke-width:1px;stroke-linecap:butt;stroke-linejoin:miter;stroke-opacity:1" d="M 322.857,138.054 332.432,138.054 z" id="boundary" inkscape:connector-curvature="0" />
	<path style="fill:none;stroke:red;stroke-width:1px;stroke-linecap:butt;stroke-linejoin:miter;stroke-opacity:1" d="M 332.432,138.054 341.05,142.842 z" id="boundary" inkscape:connector-curvature="0" />
	<path style="fill:none;stroke:red;stroke-width:1px;stroke-linecap:butt;stroke-linejoin:miter;stroke-opacity:1" d="M 284.556,138.054 274.981,138.054 z" id="boundary" inkscape:connector-curvature="0" />
	<path style="fill:none;stroke:red;stroke-width:1px;stroke-linecap:butt;stroke-linejoin:miter;stroke-opacity:1" d="M 341.05,142.842 350.625,142.842 z" id="boundary" inkscape:connector-curvature="0" />
	<path style="fill:none;stroke:red;stroke-width:1px;stroke-linecap:butt;stroke-linejoin:miter;stroke-opacity:1" d="M 360.201,142.842 368.819,147.629 z" id="boundary" inkscape:connector-curvature="0" />
	<path style="fill:none;stroke:red;stroke-width:1px;stroke-linecap:butt;stroke-linejoin:miter;stroke-opacity:1" d="M 350.625,142.842 360.201,142.842 z" id="boundary" inkscape:connector-curvature="0" />
	<path style="fill:none;stroke:red;stroke-width:1px;stroke-linecap:butt;stroke-linejoin:miter;stroke-opacity:1" d="M 377.436,152.417 368.819,147.629 z" id="boundary" inkscape:connector-curvature="0" />
	<path style="fill:none;stroke:red;stroke-width:1px;stroke-linecap:butt;stroke-linejoin:miter;stroke-opacity:1" d="M 385.097,158.162 392.757,164.865 z" id="boundary" inkscape:connector-curvature="0" />
	<path style="fill:none;stroke:red;stroke-width:1px;stroke-linecap:butt;stroke-linejoin:miter;stroke-opacity:1" d="M 392.757,164.865 396.587,174.44 z" id="boundary" inkscape:connector-curvature="0" />
	<path style="fill:none;stroke:red;stroke-width:1px;stroke-linecap:butt;stroke-linejoin:miter;stroke-opacity:1" d="M 405.205,202.208 402.332,192.633 z" id="boundary" inkscape:connector-curvature="0" />
	<path style="fill:none;stroke:red;stroke-width:1px;stroke-linecap:butt;stroke-linejoin:miter;stroke-opacity:1" d="M 402.332,192.633 401.375,183.058 z" id="boundary" inkscape:connector-curvature="0" />
	<path style="fill:none;stroke:red;stroke-width:1px;stroke-linecap:butt;stroke-linejoin:miter;stroke-opacity:1" d="M 396.587,174.44 401.375,183.058 z" id="boundary" inkscape:connector-curvature="0" />
	<path style="fill:none;stroke:red;stroke-width:1px;stroke-linecap:butt;stroke-linejoin:miter;stroke-opacity:1" d="M 377.436,152.417 385.097,158.162 z" id="boundary" inkscape:connector-curvature="0" />
	<path style="fill:none;stroke:red;stroke-width:1px;stroke-linecap:butt;stroke-linejoin:miter;stroke-opacity:1" d="M 407.12,211.784 411.907,220.402 z" id="boundary" inkscape:connector-curvature="0" />
	<path style="fill:none;stroke:red;stroke-width:1px;stroke-linecap:butt;stroke-linejoin:miter;stroke-opacity:1" d="M 411.907,220.402 413.822,229.977 z" id="boundary" inkscape:connector-curvature="0" />
	<path style="fill:none;stroke:red;stroke-width:1px;stroke-linecap:butt;stroke-linejoin:miter;stroke-opacity:1" d="M 463.614,222.317 473.189,219.444 z" id="boundary" inkscape:connector-curvature="0" />
	<path style="fill:none;stroke:red;stroke-width:1px;stroke-linecap:butt;stroke-linejoin:miter;stroke-opacity:1" d="M 463.614,222.317 454.039,224.232 z" id="boundary" inkscape:connector-curvature="0" />
	<path style="fill:none;stroke:red;stroke-width:1px;stroke-linecap:butt;stroke-linejoin:miter;stroke-opacity:1" d="M 482.764,217.529 473.189,219.444 z" id="boundary" inkscape:connector-curvature="0" />
	<path style="fill:none;stroke:red;stroke-width:1px;stroke-linecap:butt;stroke-linejoin:miter;stroke-opacity:1" d="M 454.039,224.232 445.421,229.019 z" id="boundary" inkscape:connector-curvature="0" />
	<path style="fill:none;stroke:red;stroke-width:1px;stroke-linecap:butt;stroke-linejoin:miter;stroke-opacity:1" d="M 428.185,238.595 418.61,238.595 z" id="boundary" inkscape:connector-curvature="0" />
	<path style="fill:none;stroke:red;stroke-width:1px;stroke-linecap:butt;stroke-linejoin:miter;stroke-opacity:1" d="M 418.61,238.595 413.822,229.977 z" id="boundary" inkscape:connector-curvature="0" />
	<path style="fill:none;stroke:red;stroke-width:1px;stroke-linecap:butt;stroke-linejoin:miter;stroke-opacity:1" d="M 436.803,233.807 428.185,238.595 z" id="boundary" inkscape:connector-curvature="0" />
	<path style="fill:none;stroke:red;stroke-width:1px;stroke-linecap:butt;stroke-linejoin:miter;stroke-opacity:1" d="M 436.803,233.807 445.421,229.019 z" id="boundary" inkscape:connector-curvature="0" />
	<path style="fill:none;stroke:red;stroke-width:1px;stroke-linecap:butt;stroke-linejoin:miter;stroke-opacity:1" d="M 407.12,211.784 405.205,202.208 z" id="boundary" inkscape:connector-curvature="0" />
	<path style="fill:none;stroke:red;stroke-width:1px;stroke-linecap:butt;stroke-linejoin:miter;stroke-opacity:1" d="M 90.1776,274.981 94.9653,265.405 z" id="boundary" inkscape:connector-curvature="0" />
	<path style="fill:none;stroke:red;stroke-width:1px;stroke-linecap:butt;stroke-linejoin:miter;stroke-opacity:1" d="M 161.992,273.066 153.375,277.853 z" id="boundary" inkscape:connector-curvature="0" />
	<path style="fill:none;stroke:red;stroke-width:1px;stroke-linecap:butt;stroke-linejoin:miter;stroke-opacity:1" d="M 153.375,277.853 143.799,277.853 z" id="boundary" inkscape:connector-curvature="0" />
	<path style="fill:none;stroke:red;stroke-width:1px;stroke-linecap:butt;stroke-linejoin:miter;stroke-opacity:1" d="M 94.9653,265.405 102.625,257.745 z" id="boundary" inkscape:connector-curvature="0" />
	<path style="fill:none;stroke:red;stroke-width:1px;stroke-linecap:butt;stroke-linejoin:miter;stroke-opacity:1" d="M 80.6023,298.919 85.39,284.556 z" id="boundary" inkscape:connector-curvature="0" />
	<path style="fill:none;stroke:red;stroke-width:1px;stroke-linecap:butt;stroke-linejoin:miter;stroke-opacity:1" d="M 80.6023,298.919 75.8147,308.494 z" id="boundary" inkscape:connector-curvature="0" />
	<path style="fill:none;stroke:red;stroke-width:1px;stroke-linecap:butt;stroke-linejoin:miter;stroke-opacity:1" d="M 85.39,284.556 90.1776,274.981 z" id="boundary" inkscape:connector-curvature="0" />
	<path style="fill:none;stroke:red;stroke-width:1px;stroke-linecap:butt;stroke-linejoin:miter;stroke-opacity:1" d="M 129.436,301.792 129.436,292.216 z" id="boundary" inkscape:connector-curvature="0" />
	<path style="fill:none;stroke:red;stroke-width:1px;stroke-linecap:butt;stroke-linejoin:miter;stroke-opacity:1" d="M 129.436,301.792 124.649,311.367 z" id="boundary" inkscape:connector-curvature="0" />
	<path style="fill:none;stroke:red;stroke-width:1px;stroke-linecap:butt;stroke-linejoin:miter;stroke-opacity:1" d="M 189.761,263.49 199.336,263.49 z" id="boundary" inkscape:connector-curvature="0" />
	<path style="fill:none;stroke:red;stroke-width:1px;stroke-linecap:butt;stroke-linejoin:miter;stroke-opacity:1" d="M 180.185,266.363 189.761,263.49 z" id="boundary" inkscape:connector-curvature="0" />
	<path style="fill:none;stroke:red;stroke-width:1px;stroke-linecap:butt;stroke-linejoin:miter;stroke-opacity:1" d="M 199.336,263.49 208.911,263.49 z" id="boundary" inkscape:connector-curvature="0" />
	<path style="fill:none;stroke:red;stroke-width:1px;stroke-linecap:butt;stroke-linejoin:miter;stroke-opacity:1" d="M 218.486,263.49 208.911,263.49 z" id="boundary" inkscape:connector-curvature="0" />
	<path style="fill:none;stroke:red;stroke-width:1px;stroke-linecap:butt;stroke-linejoin:miter;stroke-opacity:1" d="M 180.185,266.363 170.61,268.278 z" id="boundary" inkscape:connector-curvature="0" />
	<path style="fill:none;stroke:red;stroke-width:1px;stroke-linecap:butt;stroke-linejoin:miter;stroke-opacity:1" d="M 218.486,263.49 228.062,263.49 z" id="boundary" inkscape:connector-curvature="0" />
	<path style="fill:none;stroke:red;stroke-width:1px;stroke-linecap:butt;stroke-linejoin:miter;stroke-opacity:1" d="M 228.062,263.49 237.637,263.49 z" id="boundary" inkscape:connector-curvature="0" />
	<path style="fill:none;stroke:red;stroke-width:1px;stroke-linecap:butt;stroke-linejoin:miter;stroke-opacity:1" d="M 247.212,263.49 237.637,263.49 z" id="boundary" inkscape:connector-curvature="0" />
	<path style="fill:none;stroke:red;stroke-width:1px;stroke-linecap:butt;stroke-linejoin:miter;stroke-opacity:1" d="M 256.788,263.49 247.212,263.49 z" id="boundary" inkscape:connector-curvature="0" />
	<path style="fill:none;stroke:red;stroke-width:1px;stroke-linecap:butt;stroke-linejoin:miter;stroke-opacity:1" d="M 161.992,273.066 170.61,268.278 z" id="boundary" inkscape:connector-curvature="0" />
	<path style="fill:none;stroke:red;stroke-width:1px;stroke-linecap:butt;stroke-linejoin:miter;stroke-opacity:1" d="M 266.363,263.49 256.788,263.49 z" id="boundary" inkscape:connector-curvature="0" />
	<path style="fill:none;stroke:red;stroke-width:1px;stroke-linecap:butt;stroke-linejoin:miter;stroke-opacity:1" d="M 71.027,332.432 71.027,342.008 z" id="boundary" inkscape:connector-curvature="0" />
	<path style="fill:none;stroke:red;stroke-width:1px;stroke-linecap:butt;stroke-linejoin:miter;stroke-opacity:1" d="M 71.027,351.583 71.027,342.008 z" id="boundary" inkscape:connector-curvature="0" />
	<path style="fill:none;stroke:red;stroke-width:1px;stroke-linecap:butt;stroke-linejoin:miter;stroke-opacity:1" d="M 75.8147,318.069 71.027,332.432 z" id="boundary" inkscape:connector-curvature="0" />
	<path style="fill:none;stroke:red;stroke-width:1px;stroke-linecap:butt;stroke-linejoin:miter;stroke-opacity:1" d="M 75.8147,308.494 75.8147,318.069 z" id="boundary" inkscape:connector-curvature="0" />
	<path style="fill:none;stroke:red;stroke-width:1px;stroke-linecap:butt;stroke-linejoin:miter;stroke-opacity:1" d="M 71.027,351.583 66.2394,361.158 z" id="boundary" inkscape:connector-curvature="0" />
	<path style="fill:none;stroke:red;stroke-width:1px;stroke-linecap:butt;stroke-linejoin:miter;stroke-opacity:1" d="M 66.2394,361.158 66.2394,370.734 z" id="boundary" inkscape:connector-curvature="0" />
	<path style="fill:none;stroke:red;stroke-width:1px;stroke-linecap:butt;stroke-linejoin:miter;stroke-opacity:1" d="M 66.2394,370.734 66.2394,380.309 z" id="boundary" inkscape:connector-curvature="0" />
	<path style="fill:none;stroke:red;stroke-width:1px;stroke-linecap:butt;stroke-linejoin:miter;stroke-opacity:1" d="M 71.027,398.502 66.2394,389.884 z" id="boundary" inkscape:connector-curvature="0" />
	<path style="fill:none;stroke:red;stroke-width:1px;stroke-linecap:butt;stroke-linejoin:miter;stroke-opacity:1" d="M 66.2394,389.884 66.2394,380.309 z" id="boundary" inkscape:connector-curvature="0" />
	<path style="fill:none;stroke:red;stroke-width:1px;stroke-linecap:butt;stroke-linejoin:miter;stroke-opacity:1" d="M 77.7297,406.162 71.027,398.502 z" id="boundary" inkscape:connector-curvature="0" />
	<path style="fill:none;stroke:red;stroke-width:1px;stroke-linecap:butt;stroke-linejoin:miter;stroke-opacity:1" d="M 87.305,407.12 77.7297,406.162 z" id="boundary" inkscape:connector-curvature="0" />
	<path style="fill:none;stroke:red;stroke-width:1px;stroke-linecap:butt;stroke-linejoin:miter;stroke-opacity:1" d="M 119.861,340.093 119.861,349.668 z" id="boundary" inkscape:connector-curvature="0" />
	<path style="fill:none;stroke:red;stroke-width:1px;stroke-linecap:butt;stroke-linejoin:miter;stroke-opacity:1" d="M 119.861,349.668 115.073,359.243 z" id="boundary" inkscape:connector-curvature="0" />
	<path style="fill:none;stroke:red;stroke-width:1px;stroke-linecap:butt;stroke-linejoin:miter;stroke-opacity:1" d="M 119.861,340.093 124.649,330.517 z" id="boundary" inkscape:connector-curvature="0" />
	<path style="fill:none;stroke:red;stroke-width:1px;stroke-linecap:butt;stroke-linejoin:miter;stroke-opacity:1" d="M 124.649,320.942 124.649,311.367 z" id="boundary" inkscape:connector-curvature="0" />
	<path style="fill:none;stroke:red;stroke-width:1px;stroke-linecap:butt;stroke-linejoin:miter;stroke-opacity:1" d="M 124.649,330.517 124.649,320.942 z" id="boundary" inkscape:connector-curvature="0" />
	<path style="fill:none;stroke:red;stroke-width:1px;stroke-linecap:butt;stroke-linejoin:miter;stroke-opacity:1" d="M 103.583,395.629 95.9228,402.332 z" id="boundary" inkscape:connector-curvature="0" />
	<path style="fill:none;stroke:red;stroke-width:1px;stroke-linecap:butt;stroke-linejoin:miter;stroke-opacity:1" d="M 95.9228,402.332 87.305,407.12 z" id="boundary" inkscape:connector-curvature="0" />
	<path style="fill:none;stroke:red;stroke-width:1px;stroke-linecap:butt;stroke-linejoin:miter;stroke-opacity:1" d="M 113.158,376.479 108.371,386.054 z" id="boundary" inkscape:connector-curvature="0" />
	<path style="fill:none;stroke:red;stroke-width:1px;stroke-linecap:butt;stroke-linejoin:miter;stroke-opacity:1" d="M 108.371,386.054 103.583,395.629 z" id="boundary" inkscape:connector-curvature="0" />
	<path style="fill:none;stroke:red;stroke-width:1px;stroke-linecap:butt;stroke-linejoin:miter;stroke-opacity:1" d="M 113.158,376.479 115.073,359.243 z" id="boundary" inkscape:connector-curvature="0" />
	<path style="fill:none;stroke:red;stroke-width:1px;stroke-linecap:butt;stroke-linejoin:miter;stroke-opacity:1" d="M 266.363,263.49 274.981,268.278 z" id="boundary" inkscape:connector-curvature="0" />
	<path style="fill:none;stroke:red;stroke-width:1px;stroke-linecap:butt;stroke-linejoin:miter;stroke-opacity:1" d="M 274.981,268.278 283.598,273.066 z" id="boundary" inkscape:connector-curvature="0" />
	<path style="fill:none;stroke:red;stroke-width:1px;stroke-linecap:butt;stroke-linejoin:miter;stroke-opacity:1" d="M 283.598,273.066 288.386,281.683 z" id="boundary" inkscape:connector-curvature="0" />
	<path style="fill:none;stroke:red;stroke-width:1px;stroke-linecap:butt;stroke-linejoin:miter;stroke-opacity:1" d="M 288.386,281.683 296.046,287.429 z" id="boundary" inkscape:connector-curvature="0" />
	<path style="fill:none;stroke:red;stroke-width:1px;stroke-linecap:butt;stroke-linejoin:miter;stroke-opacity:1" d="M 296.046,287.429 296.046,297.004 z" id="boundary" inkscape:connector-curvature="0" />
	<path style="fill:none;stroke:red;stroke-width:1px;stroke-linecap:butt;stroke-linejoin:miter;stroke-opacity:1" d="M 296.046,297.004 296.046,306.579 z" id="boundary" inkscape:connector-curvature="0" />
	<path style="fill:none;stroke:red;stroke-width:1px;stroke-linecap:butt;stroke-linejoin:miter;stroke-opacity:1" d="M 296.046,316.154 296.046,306.579 z" id="boundary" inkscape:connector-curvature="0" />
	<path style="fill:none;stroke:red;stroke-width:1px;stroke-linecap:butt;stroke-linejoin:miter;stroke-opacity:1" d="M 340.093,297.004 340.093,306.579 z" id="boundary" inkscape:connector-curvature="0" />
	<path style="fill:none;stroke:red;stroke-width:1px;stroke-linecap:butt;stroke-linejoin:miter;stroke-opacity:1" d="M 340.093,306.579 340.093,316.154 z" id="boundary" inkscape:connector-curvature="0" />
	<path style="fill:none;stroke:red;stroke-width:1px;stroke-linecap:butt;stroke-linejoin:miter;stroke-opacity:1" d="M 340.093,325.73 340.093,316.154 z" id="boundary" inkscape:connector-curvature="0" />
	<path style="fill:none;stroke:red;stroke-width:1px;stroke-linecap:butt;stroke-linejoin:miter;stroke-opacity:1" d="M 340.093,297.004 349.668,292.216 z" id="boundary" inkscape:connector-curvature="0" />
	<path style="fill:none;stroke:red;stroke-width:1px;stroke-linecap:butt;stroke-linejoin:miter;stroke-opacity:1" d="M 296.046,316.154 291.259,327.645 z" id="boundary" inkscape:connector-curvature="0" />
	<path style="fill:none;stroke:red;stroke-width:1px;stroke-linecap:butt;stroke-linejoin:miter;stroke-opacity:1" d="M 349.668,292.216 357.328,285.514 z" id="boundary" inkscape:connector-curvature="0" />
	<path style="fill:none;stroke:red;stroke-width:1px;stroke-linecap:butt;stroke-linejoin:miter;stroke-opacity:1" d="M 357.328,285.514 366.903,282.641 z" id="boundary" inkscape:connector-curvature="0" />
	<path style="fill:none;stroke:red;stroke-width:1px;stroke-linecap:butt;stroke-linejoin:miter;stroke-opacity:1" d="M 366.903,282.641 376.479,282.641 z" id="boundary" inkscape:connector-curvature="0" />
	<path style="fill:none;stroke:red;stroke-width:1px;stroke-linecap:butt;stroke-linejoin:miter;stroke-opacity:1" d="M 376.479,282.641 386.054,282.641 z" id="boundary" inkscape:connector-curvature="0" />
	<path style="fill:none;stroke:red;stroke-width:1px;stroke-linecap:butt;stroke-linejoin:miter;stroke-opacity:1" d="M 386.054,282.641 395.629,282.641 z" id="boundary" inkscape:connector-curvature="0" />
	<path style="fill:none;stroke:red;stroke-width:1px;stroke-linecap:butt;stroke-linejoin:miter;stroke-opacity:1" d="M 395.629,282.641 402.332,290.301 z" id="boundary" inkscape:connector-curvature="0" />
	<path style="fill:none;stroke:red;stroke-width:1px;stroke-linecap:butt;stroke-linejoin:miter;stroke-opacity:1" d="M 415.737,316.154 415.737,325.73 z" id="boundary" inkscape:connector-curvature="0" />
	<path style="fill:none;stroke:red;stroke-width:1px;stroke-linecap:butt;stroke-linejoin:miter;stroke-opacity:1" d="M 402.332,290.301 409.992,297.004 z" id="boundary" inkscape:connector-curvature="0" />
	<path style="fill:none;stroke:red;stroke-width:1px;stroke-linecap:butt;stroke-linejoin:miter;stroke-opacity:1" d="M 409.992,297.004 413.822,306.579 z" id="boundary" inkscape:connector-curvature="0" />
	<path style="fill:none;stroke:red;stroke-width:1px;stroke-linecap:butt;stroke-linejoin:miter;stroke-opacity:1" d="M 415.737,316.154 413.822,306.579 z" id="boundary" inkscape:connector-curvature="0" />
	<path style="fill:none;stroke:red;stroke-width:1px;stroke-linecap:butt;stroke-linejoin:miter;stroke-opacity:1" d="M 420.525,334.347 415.737,325.73 z" id="boundary" inkscape:connector-curvature="0" />
	<path style="fill:none;stroke:red;stroke-width:1px;stroke-linecap:butt;stroke-linejoin:miter;stroke-opacity:1" d="M 340.093,335.305 340.093,325.73 z" id="boundary" inkscape:connector-curvature="0" />
	<path style="fill:none;stroke:red;stroke-width:1px;stroke-linecap:butt;stroke-linejoin:miter;stroke-opacity:1" d="M 291.259,327.645 291.259,337.22 z" id="boundary" inkscape:connector-curvature="0" />
	<path style="fill:none;stroke:red;stroke-width:1px;stroke-linecap:butt;stroke-linejoin:miter;stroke-opacity:1" d="M 291.259,337.22 286.471,346.795 z" id="boundary" inkscape:connector-curvature="0" />
	<path style="fill:none;stroke:red;stroke-width:1px;stroke-linecap:butt;stroke-linejoin:miter;stroke-opacity:1" d="M 335.305,354.456 335.305,344.88 z" id="boundary" inkscape:connector-curvature="0" />
	<path style="fill:none;stroke:red;stroke-width:1px;stroke-linecap:butt;stroke-linejoin:miter;stroke-opacity:1" d="M 335.305,344.88 340.093,335.305 z" id="boundary" inkscape:connector-curvature="0" />
	<path style="fill:none;stroke:red;stroke-width:1px;stroke-linecap:butt;stroke-linejoin:miter;stroke-opacity:1" d="M 301.792,368.819 294.131,363.073 z" id="boundary" inkscape:connector-curvature="0" />
	<path style="fill:none;stroke:red;stroke-width:1px;stroke-linecap:butt;stroke-linejoin:miter;stroke-opacity:1" d="M 294.131,363.073 286.471,356.371 z" id="boundary" inkscape:connector-curvature="0" />
	<path style="fill:none;stroke:red;stroke-width:1px;stroke-linecap:butt;stroke-linejoin:miter;stroke-opacity:1" d="M 286.471,356.371 286.471,346.795 z" id="boundary" inkscape:connector-curvature="0" />
	<path style="fill:none;stroke:red;stroke-width:1px;stroke-linecap:butt;stroke-linejoin:miter;stroke-opacity:1" d="M 327.645,367.861 319.985,373.606 z" id="boundary" inkscape:connector-curvature="0" />
	<path style="fill:none;stroke:red;stroke-width:1px;stroke-linecap:butt;stroke-linejoin:miter;stroke-opacity:1" d="M 319.985,373.606 310.409,373.606 z" id="boundary" inkscape:connector-curvature="0" />
	<path style="fill:none;stroke:red;stroke-width:1px;stroke-linecap:butt;stroke-linejoin:miter;stroke-opacity:1" d="M 310.409,373.606 301.792,368.819 z" id="boundary" inkscape:connector-curvature="0" />
	<path style="fill:none;stroke:red;stroke-width:1px;stroke-linecap:butt;stroke-linejoin:miter;stroke-opacity:1" d="M 335.305,354.456 327.645,367.861 z" id="boundary" inkscape:connector-curvature="0" />
	<path style="fill:none;stroke:red;stroke-width:1px;stroke-linecap:butt;stroke-linejoin:miter;stroke-opacity:1" d="M 422.44,343.923 420.525,334.347 z" id="boundary" inkscape:connector-curvature="0" />
	<path style="fill:none;stroke:red;stroke-width:1px;stroke-linecap:butt;stroke-linejoin:miter;stroke-opacity:1" d="M 427.228,352.541 422.44,343.923 z" id="boundary" inkscape:connector-curvature="0" />
	<path style="fill:none;stroke:red;stroke-width:1px;stroke-linecap:butt;stroke-linejoin:miter;stroke-opacity:1" d="M 434.888,370.734 430.1,362.116 z" id="boundary" inkscape:connector-curvature="0" />
	<path style="fill:none;stroke:red;stroke-width:1px;stroke-linecap:butt;stroke-linejoin:miter;stroke-opacity:1" d="M 430.1,362.116 427.228,352.541 z" id="boundary" inkscape:connector-curvature="0" />
	<path style="fill:none;stroke:red;stroke-width:1px;stroke-linecap:butt;stroke-linejoin:miter;stroke-opacity:1" d="M 434.888,370.734 439.676,379.351 z" id="boundary" inkscape:connector-curvature="0" />
	<path style="fill:none;stroke:red;stroke-width:1px;stroke-linecap:butt;stroke-linejoin:miter;stroke-opacity:1" d="M 455.954,387.969 446.378,387.012 z" id="boundary" inkscape:connector-curvature="0" />
	<path style="fill:none;stroke:red;stroke-width:1px;stroke-linecap:butt;stroke-linejoin:miter;stroke-opacity:1" d="M 446.378,387.012 439.676,379.351 z" id="boundary" inkscape:connector-curvature="0" />
	<path style="fill:none;stroke:red;stroke-width:1px;stroke-linecap:butt;stroke-linejoin:miter;stroke-opacity:1" d="M 455.954,387.969 464.571,392.757 z" id="boundary" inkscape:connector-curvature="0" />
	<path style="fill:none;stroke:red;stroke-width:1px;stroke-linecap:butt;stroke-linejoin:miter;stroke-opacity:1" d="M 482.764,397.544 473.189,397.544 z" id="boundary" inkscape:connector-curvature="0" />
	<path style="fill:none;stroke:red;stroke-width:1px;stroke-linecap:butt;stroke-linejoin:miter;stroke-opacity:1" d="M 473.189,397.544 464.571,392.757 z" id="boundary" inkscape:connector-curvature="0" />
	<path style="fill:none;stroke:red;stroke-width:1px;stroke-linecap:butt;stroke-linejoin:miter;stroke-opacity:1" d="M 492.34,397.544 482.764,397.544 z" id="boundary" inkscape:connector-curvature="0" />
	<path style="fill:none;stroke:red;stroke-width:1px;stroke-linecap:butt;stroke-linejoin:miter;stroke-opacity:1" d="M 545.004,40.3861 545.004,49.9614 z" id="boundary" inkscape:connector-curvature="0" />
	<path style="fill:none;stroke:red;stroke-width:1px;stroke-linecap:butt;stroke-linejoin:miter;stroke-opacity:1" d="M 545.004,40.3861 545.004,30.8108 z" id="boundary" inkscape:connector-curvature="0" />
	<path style="fill:none;stroke:red;stroke-width:1px;stroke-linecap:butt;stroke-linejoin:miter;stroke-opacity:1" d="M 549.792,21.2355 554.579,11.6602 z" id="boundary" inkscape:connector-curvature="0" />
	<path style="fill:none;stroke:red;stroke-width:1px;stroke-linecap:butt;stroke-linejoin:miter;stroke-opacity:1" d="M 562.239,4 554.579,11.6602 z" id="boundary" inkscape:connector-curvature="0" />
	<path style="fill:none;stroke:red;stroke-width:1px;stroke-linecap:butt;stroke-linejoin:miter;stroke-opacity:1" d="M 545.004,30.8108 549.792,21.2355 z" id="boundary" inkscape:connector-curvature="0" />
	<path style="fill:none;stroke:red;stroke-width:1px;stroke-linecap:butt;stroke-linejoin:miter;stroke-opacity:1" d="M 545.004,59.5367 545.004,49.9614 z" id="boundary" inkscape:connector-curvature="0" />
	<path style="fill:none;stroke:red;stroke-width:1px;stroke-linecap:butt;stroke-linejoin:miter;stroke-opacity:1" d="M 545.004,69.112 545.004,59.5367 z" id="boundary" inkscape:connector-curvature="0" />
	<path style="fill:none;stroke:red;stroke-width:1px;stroke-linecap:butt;stroke-linejoin:miter;stroke-opacity:1" d="M 545.004,78.6873 545.004,88.2625 z" id="boundary" inkscape:connector-curvature="0" />
	<path style="fill:none;stroke:red;stroke-width:1px;stroke-linecap:butt;stroke-linejoin:miter;stroke-opacity:1" d="M 545.004,97.8378 545.004,88.2625 z" id="boundary" inkscape:connector-curvature="0" />
	<path style="fill:none;stroke:red;stroke-width:1px;stroke-linecap:butt;stroke-linejoin:miter;stroke-opacity:1" d="M 545.004,78.6873 545.004,69.112 z" id="boundary" inkscape:connector-curvature="0" />
	<path style="fill:none;stroke:red;stroke-width:1px;stroke-linecap:butt;stroke-linejoin:miter;stroke-opacity:1" d="M 578.517,11.6602 579.475,21.2355 z" id="boundary" inkscape:connector-curvature="0" />
	<path style="fill:none;stroke:red;stroke-width:1px;stroke-linecap:butt;stroke-linejoin:miter;stroke-opacity:1" d="M 578.517,11.6602 571.815,4 z" id="boundary" inkscape:connector-curvature="0" />
	<path style="fill:none;stroke:red;stroke-width:1px;stroke-linecap:butt;stroke-linejoin:miter;stroke-opacity:1" d="M 584.263,29.8533 579.475,21.2355 z" id="boundary" inkscape:connector-curvature="0" />
	<path style="fill:none;stroke:red;stroke-width:1px;stroke-linecap:butt;stroke-linejoin:miter;stroke-opacity:1" d="M 590.008,37.5135 584.263,29.8533 z" id="boundary" inkscape:connector-curvature="0" />
	<path style="fill:none;stroke:red;stroke-width:1px;stroke-linecap:butt;stroke-linejoin:miter;stroke-opacity:1" d="M 590.008,37.5135 593.838,47.0888 z" id="boundary" inkscape:connector-curvature="0" />
	<path style="fill:none;stroke:red;stroke-width:1px;stroke-linecap:butt;stroke-linejoin:miter;stroke-opacity:1" d="M 562.239,4 571.815,4 z" id="boundary" inkscape:connector-curvature="0" />
	<path style="fill:none;stroke:red;stroke-width:1px;stroke-linecap:butt;stroke-linejoin:miter;stroke-opacity:1" d="M 598.625,55.7066 603.413,64.3243 z" id="boundary" inkscape:connector-curvature="0" />
	<path style="fill:none;stroke:red;stroke-width:1px;stroke-linecap:butt;stroke-linejoin:miter;stroke-opacity:1" d="M 598.625,55.7066 593.838,47.0888 z" id="boundary" inkscape:connector-curvature="0" />
	<path style="fill:none;stroke:red;stroke-width:1px;stroke-linecap:butt;stroke-linejoin:miter;stroke-opacity:1" d="M 603.413,64.3243 607.243,73.8996 z" id="boundary" inkscape:connector-curvature="0" />
	<path style="fill:none;stroke:red;stroke-width:1px;stroke-linecap:butt;stroke-linejoin:miter;stroke-opacity:1" d="M 612.988,92.0927 608.201,83.4749 z" id="boundary" inkscape:connector-curvature="0" />
	<path style="fill:none;stroke:red;stroke-width:1px;stroke-linecap:butt;stroke-linejoin:miter;stroke-opacity:1" d="M 608.201,83.4749 607.243,73.8996 z" id="boundary" inkscape:connector-curvature="0" />
	<path style="fill:none;stroke:red;stroke-width:1px;stroke-linecap:butt;stroke-linejoin:miter;stroke-opacity:1" d="M 618.734,99.7529 612.988,92.0927 z" id="boundary" inkscape:connector-curvature="0" />
	<path style="fill:none;stroke:red;stroke-width:1px;stroke-linecap:butt;stroke-linejoin:miter;stroke-opacity:1" d="M 545.004,107.413 545.004,97.8378 z" id="boundary" inkscape:connector-curvature="0" />
	<path style="fill:none;stroke:red;stroke-width:1px;stroke-linecap:butt;stroke-linejoin:miter;stroke-opacity:1" d="M 506.703,145.714 511.49,136.139 z" id="boundary" inkscape:connector-curvature="0" />
	<path style="fill:none;stroke:red;stroke-width:1px;stroke-linecap:butt;stroke-linejoin:miter;stroke-opacity:1" d="M 511.49,136.139 519.151,128.479 z" id="boundary" inkscape:connector-curvature="0" />
	<path style="fill:none;stroke:red;stroke-width:1px;stroke-linecap:butt;stroke-linejoin:miter;stroke-opacity:1" d="M 519.151,128.479 527.768,123.691 z" id="boundary" inkscape:connector-curvature="0" />
	<path style="fill:none;stroke:red;stroke-width:1px;stroke-linecap:butt;stroke-linejoin:miter;stroke-opacity:1" d="M 536.386,118.903 527.768,123.691 z" id="boundary" inkscape:connector-curvature="0" />
	<path style="fill:none;stroke:red;stroke-width:1px;stroke-linecap:butt;stroke-linejoin:miter;stroke-opacity:1" d="M 501.915,169.653 501.915,179.228 z" id="boundary" inkscape:connector-curvature="0" />
	<path style="fill:none;stroke:red;stroke-width:1px;stroke-linecap:butt;stroke-linejoin:miter;stroke-opacity:1" d="M 501.915,198.378 500.958,209.869 z" id="boundary" inkscape:connector-curvature="0" />
	<path style="fill:none;stroke:red;stroke-width:1px;stroke-linecap:butt;stroke-linejoin:miter;stroke-opacity:1" d="M 500.958,209.869 492.34,214.656 z" id="boundary" inkscape:connector-curvature="0" />
	<path style="fill:none;stroke:red;stroke-width:1px;stroke-linecap:butt;stroke-linejoin:miter;stroke-opacity:1" d="M 501.915,169.653 501.915,160.077 z" id="boundary" inkscape:connector-curvature="0" />
	<path style="fill:none;stroke:red;stroke-width:1px;stroke-linecap:butt;stroke-linejoin:miter;stroke-opacity:1" d="M 501.915,160.077 506.703,145.714 z" id="boundary" inkscape:connector-curvature="0" />
	<path style="fill:none;stroke:red;stroke-width:1px;stroke-linecap:butt;stroke-linejoin:miter;stroke-opacity:1" d="M 501.915,179.228 501.915,188.803 z" id="boundary" inkscape:connector-curvature="0" />
	<path style="fill:none;stroke:red;stroke-width:1px;stroke-linecap:butt;stroke-linejoin:miter;stroke-opacity:1" d="M 501.915,188.803 501.915,198.378 z" id="boundary" inkscape:connector-curvature="0" />
	<path style="fill:none;stroke:red;stroke-width:1px;stroke-linecap:butt;stroke-linejoin:miter;stroke-opacity:1" d="M 492.34,214.656 482.764,217.529 z" id="boundary" inkscape:connector-curvature="0" />
	<path style="fill:none;stroke:red;stroke-width:1px;stroke-linecap:butt;stroke-linejoin:miter;stroke-opacity:1" d="M 618.734,99.7529 622.564,109.328 z" id="boundary" inkscape:connector-curvature="0" />
	<path style="fill:none;stroke:red;stroke-width:1px;stroke-linecap:butt;stroke-linejoin:miter;stroke-opacity:1" d="M 622.564,109.328 627.351,117.946 z" id="boundary" inkscape:connector-curvature="0" />
	<path style="fill:none;stroke:red;stroke-width:1px;stroke-linecap:butt;stroke-linejoin:miter;stroke-opacity:1" d="M 632.139,126.564 627.351,117.946 z" id="boundary" inkscape:connector-curvature="0" />
	<path style="fill:none;stroke:red;stroke-width:1px;stroke-linecap:butt;stroke-linejoin:miter;stroke-opacity:1" d="M 632.139,126.564 632.139,136.139 z" id="boundary" inkscape:connector-curvature="0" />
	<path style="fill:none;stroke:red;stroke-width:1px;stroke-linecap:butt;stroke-linejoin:miter;stroke-opacity:1" d="M 632.139,136.139 632.139,145.714 z" id="boundary" inkscape:connector-curvature="0" />
	<path style="fill:none;stroke:red;stroke-width:1px;stroke-linecap:butt;stroke-linejoin:miter;stroke-opacity:1" d="M 632.139,155.29 632.139,145.714 z" id="boundary" inkscape:connector-curvature="0" />
	<path style="fill:none;stroke:red;stroke-width:1px;stroke-linecap:butt;stroke-linejoin:miter;stroke-opacity:1" d="M 632.139,164.865 632.139,174.44 z" id="boundary" inkscape:connector-curvature="0" />
	<path style="fill:none;stroke:red;stroke-width:1px;stroke-linecap:butt;stroke-linejoin:miter;stroke-opacity:1" d="M 632.139,184.015 632.139,174.44 z" id="boundary" inkscape:connector-curvature="0" />
	<path style="fill:none;stroke:red;stroke-width:1px;stroke-linecap:butt;stroke-linejoin:miter;stroke-opacity:1" d="M 632.139,164.865 632.139,155.29 z" id="boundary" inkscape:connector-curvature="0" />
	<path style="fill:none;stroke:red;stroke-width:1px;stroke-linecap:butt;stroke-linejoin:miter;stroke-opacity:1" d="M 536.386,118.903 545.004,107.413 z" id="boundary" inkscape:connector-curvature="0" />
	<path style="fill:none;stroke:red;stroke-width:1px;stroke-linecap:butt;stroke-linejoin:miter;stroke-opacity:1" d="M 632.139,184.015 632.139,193.591 z" id="boundary" inkscape:connector-curvature="0" />
	<path style="fill:none;stroke:red;stroke-width:1px;stroke-linecap:butt;stroke-linejoin:miter;stroke-opacity:1" d="M 798.749,88.2625 798.749,97.8378 z" id="boundary" inkscape:connector-curvature="0" />
	<path style="fill:none;stroke:red;stroke-width:1px;stroke-linecap:butt;stroke-linejoin:miter;stroke-opacity:1" d="M 798.749,97.8378 794.919,111.243 z" id="boundary" inkscape:connector-curvature="0" />
	<path style="fill:none;stroke:red;stroke-width:1px;stroke-linecap:butt;stroke-linejoin:miter;stroke-opacity:1" d="M 794.919,111.243 788.216,118.903 z" id="boundary" inkscape:connector-curvature="0" />
	<path style="fill:none;stroke:red;stroke-width:1px;stroke-linecap:butt;stroke-linejoin:miter;stroke-opacity:1" d="M 798.749,88.2625 803.537,78.6873 z" id="boundary" inkscape:connector-curvature="0" />
	<path style="fill:none;stroke:red;stroke-width:1px;stroke-linecap:butt;stroke-linejoin:miter;stroke-opacity:1" d="M 803.537,78.6873 811.197,71.027 z" id="boundary" inkscape:connector-curvature="0" />
	<path style="fill:none;stroke:red;stroke-width:1px;stroke-linecap:butt;stroke-linejoin:miter;stroke-opacity:1" d="M 744.17,142.842 752.788,138.054 z" id="boundary" inkscape:connector-curvature="0" />
	<path style="fill:none;stroke:red;stroke-width:1px;stroke-linecap:butt;stroke-linejoin:miter;stroke-opacity:1" d="M 761.405,133.266 752.788,138.054 z" id="boundary" inkscape:connector-curvature="0" />
	<path style="fill:none;stroke:red;stroke-width:1px;stroke-linecap:butt;stroke-linejoin:miter;stroke-opacity:1" d="M 761.405,133.266 770.981,130.394 z" id="boundary" inkscape:connector-curvature="0" />
	<path style="fill:none;stroke:red;stroke-width:1px;stroke-linecap:butt;stroke-linejoin:miter;stroke-opacity:1" d="M 788.216,118.903 780.556,125.606 z" id="boundary" inkscape:connector-curvature="0" />
	<path style="fill:none;stroke:red;stroke-width:1px;stroke-linecap:butt;stroke-linejoin:miter;stroke-opacity:1" d="M 780.556,125.606 770.981,130.394 z" id="boundary" inkscape:connector-curvature="0" />
	<path style="fill:none;stroke:red;stroke-width:1px;stroke-linecap:butt;stroke-linejoin:miter;stroke-opacity:1" d="M 744.17,142.842 734.595,147.629 z" id="boundary" inkscape:connector-curvature="0" />
	<path style="fill:none;stroke:red;stroke-width:1px;stroke-linecap:butt;stroke-linejoin:miter;stroke-opacity:1" d="M 828.432,71.027 819.815,66.2394 z" id="boundary" inkscape:connector-curvature="0" />
	<path style="fill:none;stroke:red;stroke-width:1px;stroke-linecap:butt;stroke-linejoin:miter;stroke-opacity:1" d="M 838.008,73.8996 828.432,71.027 z" id="boundary" inkscape:connector-curvature="0" />
	<path style="fill:none;stroke:red;stroke-width:1px;stroke-linecap:butt;stroke-linejoin:miter;stroke-opacity:1" d="M 844.71,81.5598 849.498,90.1776 z" id="boundary" inkscape:connector-curvature="0" />
	<path style="fill:none;stroke:red;stroke-width:1px;stroke-linecap:butt;stroke-linejoin:miter;stroke-opacity:1" d="M 844.71,81.5598 838.008,73.8996 z" id="boundary" inkscape:connector-curvature="0" />
	<path style="fill:none;stroke:red;stroke-width:1px;stroke-linecap:butt;stroke-linejoin:miter;stroke-opacity:1" d="M 856.201,97.8378 849.498,90.1776 z" id="boundary" inkscape:connector-curvature="0" />
	<path style="fill:none;stroke:red;stroke-width:1px;stroke-linecap:butt;stroke-linejoin:miter;stroke-opacity:1" d="M 856.201,97.8378 863.861,104.541 z" id="boundary" inkscape:connector-curvature="0" />
	<path style="fill:none;stroke:red;stroke-width:1px;stroke-linecap:butt;stroke-linejoin:miter;stroke-opacity:1" d="M 863.861,104.541 866.734,114.116 z" id="boundary" inkscape:connector-curvature="0" />
	<path style="fill:none;stroke:red;stroke-width:1px;stroke-linecap:butt;stroke-linejoin:miter;stroke-opacity:1" d="M 874.394,119.861 866.734,114.116 z" id="boundary" inkscape:connector-curvature="0" />
	<path style="fill:none;stroke:red;stroke-width:1px;stroke-linecap:butt;stroke-linejoin:miter;stroke-opacity:1" d="M 885.884,136.139 878.224,129.436 z" id="boundary" inkscape:connector-curvature="0" />
	<path style="fill:none;stroke:red;stroke-width:1px;stroke-linecap:butt;stroke-linejoin:miter;stroke-opacity:1" d="M 878.224,129.436 874.394,119.861 z" id="boundary" inkscape:connector-curvature="0" />
	<path style="fill:none;stroke:red;stroke-width:1px;stroke-linecap:butt;stroke-linejoin:miter;stroke-opacity:1" d="M 811.197,71.027 819.815,66.2394 z" id="boundary" inkscape:connector-curvature="0" />
	<path style="fill:none;stroke:red;stroke-width:1px;stroke-linecap:butt;stroke-linejoin:miter;stroke-opacity:1" d="M 885.884,136.139 893.544,142.842 z" id="boundary" inkscape:connector-curvature="0" />
	<path style="fill:none;stroke:red;stroke-width:1px;stroke-linecap:butt;stroke-linejoin:miter;stroke-opacity:1" d="M 700.124,166.78 708.741,161.992 z" id="boundary" inkscape:connector-curvature="0" />
	<path style="fill:none;stroke:red;stroke-width:1px;stroke-linecap:butt;stroke-linejoin:miter;stroke-opacity:1" d="M 700.124,166.78 691.506,171.568 z" id="boundary" inkscape:connector-curvature="0" />
	<path style="fill:none;stroke:red;stroke-width:1px;stroke-linecap:butt;stroke-linejoin:miter;stroke-opacity:1" d="M 717.359,157.205 708.741,161.992 z" id="boundary" inkscape:connector-curvature="0" />
	<path style="fill:none;stroke:red;stroke-width:1px;stroke-linecap:butt;stroke-linejoin:miter;stroke-opacity:1" d="M 725.977,152.417 717.359,157.205 z" id="boundary" inkscape:connector-curvature="0" />
	<path style="fill:none;stroke:red;stroke-width:1px;stroke-linecap:butt;stroke-linejoin:miter;stroke-opacity:1" d="M 632.139,203.166 632.139,193.591 z" id="boundary" inkscape:connector-curvature="0" />
	<path style="fill:none;stroke:red;stroke-width:1px;stroke-linecap:butt;stroke-linejoin:miter;stroke-opacity:1" d="M 683.846,179.228 691.506,171.568 z" id="boundary" inkscape:connector-curvature="0" />
	<path style="fill:none;stroke:red;stroke-width:1px;stroke-linecap:butt;stroke-linejoin:miter;stroke-opacity:1" d="M 679.058,198.378 679.058,188.803 z" id="boundary" inkscape:connector-curvature="0" />
	<path style="fill:none;stroke:red;stroke-width:1px;stroke-linecap:butt;stroke-linejoin:miter;stroke-opacity:1" d="M 679.058,188.803 683.846,179.228 z" id="boundary" inkscape:connector-curvature="0" />
	<path style="fill:none;stroke:red;stroke-width:1px;stroke-linecap:butt;stroke-linejoin:miter;stroke-opacity:1" d="M 725.977,152.417 734.595,147.629 z" id="boundary" inkscape:connector-curvature="0" />
	<path style="fill:none;stroke:red;stroke-width:1px;stroke-linecap:butt;stroke-linejoin:miter;stroke-opacity:1" d="M 893.544,142.842 903.12,142.842 z" id="boundary" inkscape:connector-curvature="0" />
	<path style="fill:none;stroke:red;stroke-width:1px;stroke-linecap:butt;stroke-linejoin:miter;stroke-opacity:1" d="M 912.695,142.842 922.27,142.842 z" id="boundary" inkscape:connector-curvature="0" />
	<path style="fill:none;stroke:red;stroke-width:1px;stroke-linecap:butt;stroke-linejoin:miter;stroke-opacity:1" d="M 922.27,142.842 930.888,147.629 z" id="boundary" inkscape:connector-curvature="0" />
	<path style="fill:none;stroke:red;stroke-width:1px;stroke-linecap:butt;stroke-linejoin:miter;stroke-opacity:1" d="M 903.12,142.842 912.695,142.842 z" id="boundary" inkscape:connector-curvature="0" />
	<path style="fill:none;stroke:red;stroke-width:1px;stroke-linecap:butt;stroke-linejoin:miter;stroke-opacity:1" d="M 938.548,153.375 943.336,161.992 z" id="boundary" inkscape:connector-curvature="0" />
	<path style="fill:none;stroke:red;stroke-width:1px;stroke-linecap:butt;stroke-linejoin:miter;stroke-opacity:1" d="M 943.336,161.992 943.336,171.568 z" id="boundary" inkscape:connector-curvature="0" />
	<path style="fill:none;stroke:red;stroke-width:1px;stroke-linecap:butt;stroke-linejoin:miter;stroke-opacity:1" d="M 943.336,171.568 943.336,181.143 z" id="boundary" inkscape:connector-curvature="0" />
	<path style="fill:none;stroke:red;stroke-width:1px;stroke-linecap:butt;stroke-linejoin:miter;stroke-opacity:1" d="M 943.336,181.143 943.336,190.718 z" id="boundary" inkscape:connector-curvature="0" />
	<path style="fill:none;stroke:red;stroke-width:1px;stroke-linecap:butt;stroke-linejoin:miter;stroke-opacity:1" d="M 943.336,200.293 943.336,190.718 z" id="boundary" inkscape:connector-curvature="0" />
	<path style="fill:none;stroke:red;stroke-width:1px;stroke-linecap:butt;stroke-linejoin:miter;stroke-opacity:1" d="M 930.888,147.629 938.548,153.375 z" id="boundary" inkscape:connector-curvature="0" />
	<path style="fill:none;stroke:red;stroke-width:1px;stroke-linecap:butt;stroke-linejoin:miter;stroke-opacity:1" d="M 632.139,203.166 635.969,212.741 z" id="boundary" inkscape:connector-curvature="0" />
	<path style="fill:none;stroke:red;stroke-width:1px;stroke-linecap:butt;stroke-linejoin:miter;stroke-opacity:1" d="M 943.336,200.293 943.336,209.869 z" id="boundary" inkscape:connector-curvature="0" />
	<path style="fill:none;stroke:red;stroke-width:1px;stroke-linecap:butt;stroke-linejoin:miter;stroke-opacity:1" d="M 593.838,325.73 589.05,340.093 z" id="boundary" inkscape:connector-curvature="0" />
	<path style="fill:none;stroke:red;stroke-width:1px;stroke-linecap:butt;stroke-linejoin:miter;stroke-opacity:1" d="M 645.544,214.656 635.969,212.741 z" id="boundary" inkscape:connector-curvature="0" />
	<path style="fill:none;stroke:red;stroke-width:1px;stroke-linecap:butt;stroke-linejoin:miter;stroke-opacity:1" d="M 655.12,214.656 645.544,214.656 z" id="boundary" inkscape:connector-curvature="0" />
	<path style="fill:none;stroke:red;stroke-width:1px;stroke-linecap:butt;stroke-linejoin:miter;stroke-opacity:1" d="M 603.413,325.73 593.838,325.73 z" id="boundary" inkscape:connector-curvature="0" />
	<path style="fill:none;stroke:red;stroke-width:1px;stroke-linecap:butt;stroke-linejoin:miter;stroke-opacity:1" d="M 603.413,325.73 612.988,325.73 z" id="boundary" inkscape:connector-curvature="0" />
	<path style="fill:none;stroke:red;stroke-width:1px;stroke-linecap:butt;stroke-linejoin:miter;stroke-opacity:1" d="M 622.564,325.73 612.988,325.73 z" id="boundary" inkscape:connector-curvature="0" />
	<path style="fill:none;stroke:red;stroke-width:1px;stroke-linecap:butt;stroke-linejoin:miter;stroke-opacity:1" d="M 632.139,325.73 641.714,325.73 z" id="boundary" inkscape:connector-curvature="0" />
	<path style="fill:none;stroke:red;stroke-width:1px;stroke-linecap:butt;stroke-linejoin:miter;stroke-opacity:1" d="M 660.865,320.942 651.29,325.73 z" id="boundary" inkscape:connector-curvature="0" />
	<path style="fill:none;stroke:red;stroke-width:1px;stroke-linecap:butt;stroke-linejoin:miter;stroke-opacity:1" d="M 651.29,325.73 641.714,325.73 z" id="boundary" inkscape:connector-curvature="0" />
	<path style="fill:none;stroke:red;stroke-width:1px;stroke-linecap:butt;stroke-linejoin:miter;stroke-opacity:1" d="M 632.139,325.73 622.564,325.73 z" id="boundary" inkscape:connector-curvature="0" />
	<path style="fill:none;stroke:red;stroke-width:1px;stroke-linecap:butt;stroke-linejoin:miter;stroke-opacity:1" d="M 670.44,320.942 660.865,320.942 z" id="boundary" inkscape:connector-curvature="0" />
	<path style="fill:none;stroke:red;stroke-width:1px;stroke-linecap:butt;stroke-linejoin:miter;stroke-opacity:1" d="M 655.12,214.656 664.695,214.656 z" id="boundary" inkscape:connector-curvature="0" />
	<path style="fill:none;stroke:red;stroke-width:1px;stroke-linecap:butt;stroke-linejoin:miter;stroke-opacity:1" d="M 680.015,320.942 670.44,320.942 z" id="boundary" inkscape:connector-curvature="0" />
	<path style="fill:none;stroke:red;stroke-width:1px;stroke-linecap:butt;stroke-linejoin:miter;stroke-opacity:1" d="M 689.591,320.942 680.015,320.942 z" id="boundary" inkscape:connector-curvature="0" />
	<path style="fill:none;stroke:red;stroke-width:1px;stroke-linecap:butt;stroke-linejoin:miter;stroke-opacity:1" d="M 664.695,214.656 673.313,209.869 z" id="boundary" inkscape:connector-curvature="0" />
	<path style="fill:none;stroke:red;stroke-width:1px;stroke-linecap:butt;stroke-linejoin:miter;stroke-opacity:1" d="M 689.591,320.942 699.166,320.942 z" id="boundary" inkscape:connector-curvature="0" />
	<path style="fill:none;stroke:red;stroke-width:1px;stroke-linecap:butt;stroke-linejoin:miter;stroke-opacity:1" d="M 708.741,320.942 699.166,320.942 z" id="boundary" inkscape:connector-curvature="0" />
	<path style="fill:none;stroke:red;stroke-width:1px;stroke-linecap:butt;stroke-linejoin:miter;stroke-opacity:1" d="M 727.892,322.857 718.317,320.942 z" id="boundary" inkscape:connector-curvature="0" />
	<path style="fill:none;stroke:red;stroke-width:1px;stroke-linecap:butt;stroke-linejoin:miter;stroke-opacity:1" d="M 673.313,209.869 679.058,198.378 z" id="boundary" inkscape:connector-curvature="0" />
	<path style="fill:none;stroke:red;stroke-width:1px;stroke-linecap:butt;stroke-linejoin:miter;stroke-opacity:1" d="M 708.741,320.942 718.317,320.942 z" id="boundary" inkscape:connector-curvature="0" />
	<path style="fill:none;stroke:red;stroke-width:1px;stroke-linecap:butt;stroke-linejoin:miter;stroke-opacity:1" d="M 737.467,325.73 727.892,322.857 z" id="boundary" inkscape:connector-curvature="0" />
	<path style="fill:none;stroke:red;stroke-width:1px;stroke-linecap:butt;stroke-linejoin:miter;stroke-opacity:1" d="M 737.467,325.73 746.085,330.517 z" id="boundary" inkscape:connector-curvature="0" />
	<path style="fill:none;stroke:red;stroke-width:1px;stroke-linecap:butt;stroke-linejoin:miter;stroke-opacity:1" d="M 569.9,378.394 564.154,387.969 z" id="boundary" inkscape:connector-curvature="0" />
	<path style="fill:none;stroke:red;stroke-width:1px;stroke-linecap:butt;stroke-linejoin:miter;stroke-opacity:1" d="M 564.154,387.969 555.537,392.757 z" id="boundary" inkscape:connector-curvature="0" />
	<path style="fill:none;stroke:red;stroke-width:1px;stroke-linecap:butt;stroke-linejoin:miter;stroke-opacity:1" d="M 574.687,368.819 569.9,378.394 z" id="boundary" inkscape:connector-curvature="0" />
	<path style="fill:none;stroke:red;stroke-width:1px;stroke-linecap:butt;stroke-linejoin:miter;stroke-opacity:1" d="M 574.687,368.819 582.347,362.116 z" id="boundary" inkscape:connector-curvature="0" />
	<path style="fill:none;stroke:red;stroke-width:1px;stroke-linecap:butt;stroke-linejoin:miter;stroke-opacity:1" d="M 547.876,401.375 555.537,392.757 z" id="boundary" inkscape:connector-curvature="0" />
	<path style="fill:none;stroke:red;stroke-width:1px;stroke-linecap:butt;stroke-linejoin:miter;stroke-opacity:1" d="M 500.958,402.332 510.533,402.332 z" id="boundary" inkscape:connector-curvature="0" />
	<path style="fill:none;stroke:red;stroke-width:1px;stroke-linecap:butt;stroke-linejoin:miter;stroke-opacity:1" d="M 510.533,402.332 519.151,407.12 z" id="boundary" inkscape:connector-curvature="0" />
	<path style="fill:none;stroke:red;stroke-width:1px;stroke-linecap:butt;stroke-linejoin:miter;stroke-opacity:1" d="M 500.958,402.332 492.34,397.544 z" id="boundary" inkscape:connector-curvature="0" />
	<path style="fill:none;stroke:red;stroke-width:1px;stroke-linecap:butt;stroke-linejoin:miter;stroke-opacity:1" d="M 528.726,407.12 519.151,407.12 z" id="boundary" inkscape:connector-curvature="0" />
	<path style="fill:none;stroke:red;stroke-width:1px;stroke-linecap:butt;stroke-linejoin:miter;stroke-opacity:1" d="M 547.876,401.375 538.301,406.162 z" id="boundary" inkscape:connector-curvature="0" />
	<path style="fill:none;stroke:red;stroke-width:1px;stroke-linecap:butt;stroke-linejoin:miter;stroke-opacity:1" d="M 538.301,406.162 528.726,407.12 z" id="boundary" inkscape:connector-curvature="0" />
	<path style="fill:none;stroke:red;stroke-width:1px;stroke-linecap:butt;stroke-linejoin:miter;stroke-opacity:1" d="M 587.135,352.541 589.05,340.093 z" id="boundary" inkscape:connector-curvature="0" />
	<path style="fill:none;stroke:red;stroke-width:1px;stroke-linecap:butt;stroke-linejoin:miter;stroke-opacity:1" d="M 769.066,344.88 761.405,338.178 z" id="boundary" inkscape:connector-curvature="0" />
	<path style="fill:none;stroke:red;stroke-width:1px;stroke-linecap:butt;stroke-linejoin:miter;stroke-opacity:1" d="M 761.405,338.178 755.66,330.517 z" id="boundary" inkscape:connector-curvature="0" />
	<path style="fill:none;stroke:red;stroke-width:1px;stroke-linecap:butt;stroke-linejoin:miter;stroke-opacity:1" d="M 746.085,330.517 755.66,330.517 z" id="boundary" inkscape:connector-curvature="0" />
	<path style="fill:none;stroke:red;stroke-width:1px;stroke-linecap:butt;stroke-linejoin:miter;stroke-opacity:1" d="M 582.347,362.116 587.135,352.541 z" id="boundary" inkscape:connector-curvature="0" />
	<path style="fill:none;stroke:red;stroke-width:1px;stroke-linecap:butt;stroke-linejoin:miter;stroke-opacity:1" d="M 769.066,344.88 775.768,352.541 z" id="boundary" inkscape:connector-curvature="0" />
	<path style="fill:none;stroke:red;stroke-width:1px;stroke-linecap:butt;stroke-linejoin:miter;stroke-opacity:1" d="M 789.174,377.436 784.386,368.819 z" id="boundary" inkscape:connector-curvature="0" />
	<path style="fill:none;stroke:red;stroke-width:1px;stroke-linecap:butt;stroke-linejoin:miter;stroke-opacity:1" d="M 784.386,368.819 783.429,359.243 z" id="boundary" inkscape:connector-curvature="0" />
	<path style="fill:none;stroke:red;stroke-width:1px;stroke-linecap:butt;stroke-linejoin:miter;stroke-opacity:1" d="M 775.768,352.541 783.429,359.243 z" id="boundary" inkscape:connector-curvature="0" />
	<path style="fill:none;stroke:red;stroke-width:1px;stroke-linecap:butt;stroke-linejoin:miter;stroke-opacity:1" d="M 789.174,377.436 791.089,387.012 z" id="boundary" inkscape:connector-curvature="0" />
	<path style="fill:none;stroke:red;stroke-width:1px;stroke-linecap:butt;stroke-linejoin:miter;stroke-opacity:1" d="M 943.336,219.444 943.336,209.869 z" id="boundary" inkscape:connector-curvature="0" />
	<path style="fill:none;stroke:red;stroke-width:1px;stroke-linecap:butt;stroke-linejoin:miter;stroke-opacity:1" d="M 948.124,228.062 943.336,219.444 z" id="boundary" inkscape:connector-curvature="0" />
	<path style="fill:none;stroke:red;stroke-width:1px;stroke-linecap:butt;stroke-linejoin:miter;stroke-opacity:1" d="M 948.124,228.062 948.124,237.637 z" id="boundary" inkscape:connector-curvature="0" />
	<path style="fill:none;stroke:red;stroke-width:1px;stroke-linecap:butt;stroke-linejoin:miter;stroke-opacity:1" d="M 948.124,247.212 948.124,237.637 z" id="boundary" inkscape:connector-curvature="0" />
	<path style="fill:none;stroke:red;stroke-width:1px;stroke-linecap:butt;stroke-linejoin:miter;stroke-opacity:1" d="M 955.784,252.958 948.124,247.212 z" id="boundary" inkscape:connector-curvature="0" />
	<path style="fill:none;stroke:red;stroke-width:1px;stroke-linecap:butt;stroke-linejoin:miter;stroke-opacity:1" d="M 965.359,253.915 955.784,252.958 z" id="boundary" inkscape:connector-curvature="0" />
	<path style="fill:none;stroke:red;stroke-width:1px;stroke-linecap:butt;stroke-linejoin:miter;stroke-opacity:1" d="M 965.359,253.915 973.977,258.703 z" id="boundary" inkscape:connector-curvature="0" />
	<path style="fill:none;stroke:red;stroke-width:1px;stroke-linecap:butt;stroke-linejoin:miter;stroke-opacity:1" d="M 979.722,376.479 974.934,386.054 z" id="boundary" inkscape:connector-curvature="0" />
	<path style="fill:none;stroke:red;stroke-width:1px;stroke-linecap:butt;stroke-linejoin:miter;stroke-opacity:1" d="M 979.722,376.479 986.425,364.031 z" id="boundary" inkscape:connector-curvature="0" />
	<path style="fill:none;stroke:red;stroke-width:1px;stroke-linecap:butt;stroke-linejoin:miter;stroke-opacity:1" d="M 985.467,274.981 981.637,265.405 z" id="boundary" inkscape:connector-curvature="0" />
	<path style="fill:none;stroke:red;stroke-width:1px;stroke-linecap:butt;stroke-linejoin:miter;stroke-opacity:1" d="M 990.255,283.598 985.467,274.981 z" id="boundary" inkscape:connector-curvature="0" />
	<path style="fill:none;stroke:red;stroke-width:1px;stroke-linecap:butt;stroke-linejoin:miter;stroke-opacity:1" d="M 994.085,302.749 991.212,293.174 z" id="boundary" inkscape:connector-curvature="0" />
	<path style="fill:none;stroke:red;stroke-width:1px;stroke-linecap:butt;stroke-linejoin:miter;stroke-opacity:1" d="M 991.212,293.174 990.255,283.598 z" id="boundary" inkscape:connector-curvature="0" />
	<path style="fill:none;stroke:red;stroke-width:1px;stroke-linecap:butt;stroke-linejoin:miter;stroke-opacity:1" d="M 991.212,340.093 991.212,349.668 z" id="boundary" inkscape:connector-curvature="0" />
	<path style="fill:none;stroke:red;stroke-width:1px;stroke-linecap:butt;stroke-linejoin:miter;stroke-opacity:1" d="M 991.212,349.668 986.425,364.031 z" id="boundary" inkscape:connector-curvature="0" />
	<path style="fill:none;stroke:red;stroke-width:1px;stroke-linecap:butt;stroke-linejoin:miter;stroke-opacity:1" d="M 991.212,340.093 996,331.475 z" id="boundary" inkscape:connector-curvature="0" />
	<path style="fill:none;stroke:red;stroke-width:1px;stroke-linecap:butt;stroke-linejoin:miter;stroke-opacity:1" d="M 996,321.9 996,331.475 z" id="boundary" inkscape:connector-curvature="0" />
	<path style="fill:none;stroke:red;stroke-width:1px;stroke-linecap:butt;stroke-linejoin:miter;stroke-opacity:1" d="M 996,312.324 996,321.9 z" id="boundary" inkscape:connector-curvature="0" />
	<path style="fill:none;stroke:red;stroke-width:1px;stroke-linecap:butt;stroke-linejoin:miter;stroke-opacity:1" d="M 994.085,302.749 996,312.324 z" id="boundary" inkscape:connector-curvature="0" />
	<path style="fill:none;stroke:red;stroke-width:1px;stroke-linecap:butt;stroke-linejoin:miter;stroke-opacity:1" d="M 973.977,258.703 981.637,265.405 z" id="boundary" inkscape:connector-curvature="0" />
	<path style="fill:none;stroke:red;stroke-width:1px;stroke-linecap:butt;stroke-linejoin:miter;stroke-opacity:1" d="M 970.147,395.629 974.934,386.054 z" id="boundary" inkscape:connector-curvature="0" />
	<path style="fill:none;stroke:red;stroke-width:1px;stroke-linecap:butt;stroke-linejoin:miter;stroke-opacity:1" d="M 795.876,395.629 803.537,402.332 z" id="boundary" inkscape:connector-curvature="0" />
	<path style="fill:none;stroke:red;stroke-width:1px;stroke-linecap:butt;stroke-linejoin:miter;stroke-opacity:1" d="M 803.537,402.332 809.282,409.992 z" id="boundary" inkscape:connector-curvature="0" />
	<path style="fill:none;stroke:red;stroke-width:1px;stroke-linecap:butt;stroke-linejoin:miter;stroke-opacity:1" d="M 825.56,421.483 816.942,416.695 z" id="boundary" inkscape:connector-curvature="0" />
	<path style="fill:none;stroke:red;stroke-width:1px;stroke-linecap:butt;stroke-linejoin:miter;stroke-opacity:1" d="M 816.942,416.695 809.282,409.992 z" id="boundary" inkscape:connector-curvature="0" />
	<path style="fill:none;stroke:red;stroke-width:1px;stroke-linecap:butt;stroke-linejoin:miter;stroke-opacity:1" d="M 834.178,426.27 825.56,421.483 z" id="boundary" inkscape:connector-curvature="0" />
	<path style="fill:none;stroke:red;stroke-width:1px;stroke-linecap:butt;stroke-linejoin:miter;stroke-opacity:1" d="M 851.413,435.846 841.838,432.015 z" id="boundary" inkscape:connector-curvature="0" />
	<path style="fill:none;stroke:red;stroke-width:1px;stroke-linecap:butt;stroke-linejoin:miter;stroke-opacity:1" d="M 841.838,432.015 834.178,426.27 z" id="boundary" inkscape:connector-curvature="0" />
	<path style="fill:none;stroke:red;stroke-width:1px;stroke-linecap:butt;stroke-linejoin:miter;stroke-opacity:1" d="M 860.031,440.633 851.413,435.846 z" id="boundary" inkscape:connector-curvature="0" />
	<path style="fill:none;stroke:red;stroke-width:1px;stroke-linecap:butt;stroke-linejoin:miter;stroke-opacity:1" d="M 878.224,445.421 868.649,445.421 z" id="boundary" inkscape:connector-curvature="0" />
	<path style="fill:none;stroke:red;stroke-width:1px;stroke-linecap:butt;stroke-linejoin:miter;stroke-opacity:1" d="M 868.649,445.421 860.031,440.633 z" id="boundary" inkscape:connector-curvature="0" />
	<path style="fill:none;stroke:red;stroke-width:1px;stroke-linecap:butt;stroke-linejoin:miter;stroke-opacity:1" d="M 887.799,445.421 878.224,445.421 z" id="boundary" inkscape:connector-curvature="0" />
	<path style="fill:none;stroke:red;stroke-width:1px;stroke-linecap:butt;stroke-linejoin:miter;stroke-opacity:1" d="M 795.876,395.629 791.089,387.012 z" id="boundary" inkscape:connector-curvature="0" />
	<path style="fill:none;stroke:red;stroke-width:1px;stroke-linecap:butt;stroke-linejoin:miter;stroke-opacity:1" d="M 943.336,440.633 948.124,431.058 z" id="boundary" inkscape:connector-curvature="0" />
	<path style="fill:none;stroke:red;stroke-width:1px;stroke-linecap:butt;stroke-linejoin:miter;stroke-opacity:1" d="M 943.336,440.633 934.718,445.421 z" id="boundary" inkscape:connector-curvature="0" />
	<path style="fill:none;stroke:red;stroke-width:1px;stroke-linecap:butt;stroke-linejoin:miter;stroke-opacity:1" d="M 952.911,421.483 948.124,431.058 z" id="boundary" inkscape:connector-curvature="0" />
	<path style="fill:none;stroke:red;stroke-width:1px;stroke-linecap:butt;stroke-linejoin:miter;stroke-opacity:1" d="M 970.147,395.629 965.359,405.205 z" id="boundary" inkscape:connector-curvature="0" />
	<path style="fill:none;stroke:red;stroke-width:1px;stroke-linecap:butt;stroke-linejoin:miter;stroke-opacity:1" d="M 965.359,405.205 957.699,411.907 z" id="boundary" inkscape:connector-curvature="0" />
	<path style="fill:none;stroke:red;stroke-width:1px;stroke-linecap:butt;stroke-linejoin:miter;stroke-opacity:1" d="M 952.911,421.483 957.699,411.907 z" id="boundary" inkscape:connector-curvature="0" />
	<path style="fill:none;stroke:red;stroke-width:1px;stroke-linecap:butt;stroke-linejoin:miter;stroke-opacity:1" d="M 906.95,450.208 897.375,449.251 z" id="boundary" inkscape:connector-curvature="0" />
	<path style="fill:none;stroke:red;stroke-width:1px;stroke-linecap:butt;stroke-linejoin:miter;stroke-opacity:1" d="M 897.375,449.251 887.799,445.421 z" id="boundary" inkscape:connector-curvature="0" />
	<path style="fill:none;stroke:red;stroke-width:1px;stroke-linecap:butt;stroke-linejoin:miter;stroke-opacity:1" d="M 934.718,445.421 926.1,450.208 z" id="boundary" inkscape:connector-curvature="0" />
	<path style="fill:none;stroke:red;stroke-width:1px;stroke-linecap:butt;stroke-linejoin:miter;stroke-opacity:1" d="M 926.1,450.208 916.525,450.208 z" id="boundary" inkscape:connector-curvature="0" />
	<path style="fill:none;stroke:red;stroke-width:1px;stroke-linecap:butt;stroke-linejoin:miter;stroke-opacity:1" d="M 916.525,450.208 906.95,450.208 z" id="boundary" inkscape:connector-curvature="0" />
	<circle cx="4" cy="131.351" r="4" fill="#0" id="circle0"/>
	<circle cx="8.78764" cy="121.776" r="4" fill="#0" id="circle1"/>
	<circle cx="8.78764" cy="139.969" r="4" fill="#0" id="circle2"/>
	<circle cx="13.5753" cy="102.625" r="4" fill="#0" id="circle3"/>
	<circle cx="13.5753" cy="112.201" r="4" fill="#0" id="circle4"/>
	<circle cx="15.4903" cy="147.629" r="4" fill="#0" id="circle5"/>
	<circle cx="18.3629" cy="93.0502" r="4" fill="#0" id="circle6"/>
	<circle cx="25.0656" cy="148.587" r="4" fill="#0" id="circle7"/>
	<circle cx="26.0232" cy="85.39" r="4" fill="#0" id="circle8"/>
	<circle cx="30.8108" cy="75.8147" r="4" fill="#0" id="circle9"/>
	<circle cx="34.6409" cy="148.587" r="4" fill="#0" id="circle10"/>
	<circle cx="38.471" cy="68.1544" r="4" fill="#0" id="circle11"/>
	<circle cx="44.2162" cy="148.587" r="4" fill="#0" id="circle12"/>
	<circle cx="48.0463" cy="63.3668" r="4" fill="#0" id="circle13"/>
	<circle cx="52.834" cy="143.799" r="4" fill="#0" id="circle14"/>
	<circle cx="55.7066" cy="56.6641" r="4" fill="#0" id="circle15"/>
	<circle cx="62.4093" cy="49.0039" r="4" fill="#0" id="circle16"/>
	<circle cx="62.4093" cy="139.012" r="4" fill="#0" id="circle17"/>
	<circle cx="66.2394" cy="361.158" r="4" fill="#0" id="circle18"/>
	<circle cx="66.2394" cy="370.734" r="4" fill="#0" id="circle19"/>
	<circle cx="66.2394" cy="380.309" r="4" fill="#0" id="circle20"/>
	<circle cx="66.2394" cy="389.884" r="4" fill="#0" id="circle21"/>
	<circle cx="70.0695" cy="132.309" r="4" fill="#0" id="circle22"/>
	<circle cx="71.027" cy="332.432" r="4" fill="#0" id="circle23"/>
	<circle cx="71.027" cy="342.008" r="4" fill="#0" id="circle24"/>
	<circle cx="71.027" cy="351.583" r="4" fill="#0" id="circle25"/>
	<circle cx="71.027" cy="398.502" r="4" fill="#0" id="circle26"/>
	<circle cx="71.9846" cy="47.0888" r="4" fill="#0" id="circle27"/>
	<circle cx="75.8147" cy="124.649" r="4" fill="#0" id="circle28"/>
	<circle cx="75.8147" cy="308.494" r="4" fill="#0" id="circle29"/>
	<circle cx="75.8147" cy="318.069" r="4" fill="#0" id="circle30"/>
	<circle cx="77.7297" cy="406.162" r="4" fill="#0" id="circle31"/>
	<circle cx="80.6023" cy="298.919" r="4" fill="#0" id="circle32"/>
	<circle cx="81.5598" cy="49.9614" r="4" fill="#0" id="circle33"/>
	<circle cx="85.39" cy="124.649" r="4" fill="#0" id="circle34"/>
	<circle cx="85.39" cy="284.556" r="4" fill="#0" id="circle35"/>
	<circle cx="87.305" cy="407.12" r="4" fill="#0" id="circle36"/>
	<circle cx="90.1776" cy="54.749" r="4" fill="#0" id="circle37"/>
	<circle cx="90.1776" cy="274.981" r="4" fill="#0" id="circle38"/>
	<circle cx="94.9653" cy="124.649" r="4" fill="#0" id="circle39"/>
	<circle cx="94.9653" cy="265.405" r="4" fill="#0" id="circle40"/>
	<circle cx="95.9228" cy="402.332" r="4" fill="#0" id="circle41"/>
	<circle cx="99.7529" cy="58.5792" r="4" fill="#0" id="circle42"/>
	<circle cx="99.7529" cy="133.266" r="4" fill="#0" id="circle43"/>
	<circle cx="99.7529" cy="142.842" r="4" fill="#0" id="circle44"/>
	<circle cx="99.7529" cy="152.417" r="4" fill="#0" id="circle45"/>
	<circle cx="99.7529" cy="161.992" r="4" fill="#0" id="circle46"/>
	<circle cx="102.625" cy="257.745" r="4" fill="#0" id="circle47"/>
	<circle cx="103.583" cy="395.629" r="4" fill="#0" id="circle48"/>
	<circle cx="104.541" cy="170.61" r="4" fill="#0" id="circle49"/>
	<circle cx="104.541" cy="180.185" r="4" fill="#0" id="circle50"/>
	<circle cx="105.498" cy="66.2394" r="4" fill="#0" id="circle51"/>
	<circle cx="108.371" cy="386.054" r="4" fill="#0" id="circle52"/>
	<circle cx="109.328" cy="188.803" r="4" fill="#0" id="circle53"/>
	<circle cx="109.328" cy="198.378" r="4" fill="#0" id="circle54"/>
	<circle cx="109.328" cy="207.954" r="4" fill="#0" id="circle55"/>
	<circle cx="109.328" cy="217.529" r="4" fill="#0" id="circle56"/>
	<circle cx="109.328" cy="227.104" r="4" fill="#0" id="circle57"/>
	<circle cx="109.328" cy="236.68" r="4" fill="#0" id="circle58"/>
	<circle cx="109.328" cy="246.255" r="4" fill="#0" id="circle59"/>
	<circle cx="113.158" cy="376.479" r="4" fill="#0" id="circle60"/>
	<circle cx="114.116" cy="71.027" r="4" fill="#0" id="circle61"/>
	<circle cx="115.073" cy="359.243" r="4" fill="#0" id="circle62"/>
	<circle cx="119.861" cy="340.093" r="4" fill="#0" id="circle63"/>
	<circle cx="119.861" cy="349.668" r="4" fill="#0" id="circle64"/>
	<circle cx="121.776" cy="76.7722" r="4" fill="#0" id="circle65"/>
	<circle cx="124.649" cy="311.367" r="4" fill="#0" id="circle66"/>
	<circle cx="124.649" cy="320.942" r="4" fill="#0" id="circle67"/>
	<circle cx="124.649" cy="330.517" r="4" fill="#0" id="circle68"/>
	<circle cx="129.436" cy="83.4749" r="4" fill="#0" id="circle69"/>
	<circle cx="129.436" cy="292.216" r="4" fill="#0" id="circle70"/>
	<circle cx="129.436" cy="301.792" r="4" fill="#0" id="circle71"/>
	<circle cx="137.097" cy="285.514" r="4" fill="#0" id="circle72"/>
	<circle cx="138.054" cy="88.2625" r="4" fill="#0" id="circle73"/>
	<circle cx="143.799" cy="277.853" r="4" fill="#0" id="circle74"/>
	<circle cx="145.714" cy="94.9653" r="4" fill="#0" id="circle75"/>
	<circle cx="153.375" cy="277.853" r="4" fill="#0" id="circle76"/>
	<circle cx="154.332" cy="99.7529" r="4" fill="#0" id="circle77"/>
	<circle cx="161.992" cy="106.456" r="4" fill="#0" id="circle78"/>
	<circle cx="161.992" cy="273.066" r="4" fill="#0" id="circle79"/>
	<circle cx="167.737" cy="114.116" r="4" fill="#0" id="circle80"/>
	<circle cx="170.61" cy="268.278" r="4" fill="#0" id="circle81"/>
	<circle cx="172.525" cy="122.734" r="4" fill="#0" id="circle82"/>
	<circle cx="180.185" cy="129.436" r="4" fill="#0" id="circle83"/>
	<circle cx="180.185" cy="266.363" r="4" fill="#0" id="circle84"/>
	<circle cx="189.761" cy="133.266" r="4" fill="#0" id="circle85"/>
	<circle cx="189.761" cy="263.49" r="4" fill="#0" id="circle86"/>
	<circle cx="198.378" cy="138.054" r="4" fill="#0" id="circle87"/>
	<circle cx="199.336" cy="263.49" r="4" fill="#0" id="circle88"/>
	<circle cx="207.954" cy="138.054" r="4" fill="#0" id="circle89"/>
	<circle cx="208.911" cy="263.49" r="4" fill="#0" id="circle90"/>
	<circle cx="217.529" cy="138.054" r="4" fill="#0" id="circle91"/>
	<circle cx="218.486" cy="263.49" r="4" fill="#0" id="circle92"/>
	<circle cx="227.104" cy="138.054" r="4" fill="#0" id="circle93"/>
	<circle cx="228.062" cy="263.49" r="4" fill="#0" id="circle94"/>
	<circle cx="236.68" cy="138.054" r="4" fill="#0" id="circle95"/>
	<circle cx="237.637" cy="263.49" r="4" fill="#0" id="circle96"/>
	<circle cx="246.255" cy="138.054" r="4" fill="#0" id="circle97"/>
	<circle cx="247.212" cy="263.49" r="4" fill="#0" id="circle98"/>
	<circle cx="255.83" cy="138.054" r="4" fill="#0" id="circle99"/>
	<circle cx="256.788" cy="263.49" r="4" fill="#0" id="circle100"/>
	<circle cx="265.405" cy="138.054" r="4" fill="#0" id="circle101"/>
	<circle cx="266.363" cy="263.49" r="4" fill="#0" id="circle102"/>
	<circle cx="274.981" cy="138.054" r="4" fill="#0" id="circle103"/>
	<circle cx="274.981" cy="268.278" r="4" fill="#0" id="circle104"/>
	<circle cx="283.598" cy="273.066" r="4" fill="#0" id="circle105"/>
	<circle cx="284.556" cy="138.054" r="4" fill="#0" id="circle106"/>
	<circle cx="286.471" cy="346.795" r="4" fill="#0" id="circle107"/>
	<circle cx="286.471" cy="356.371" r="4" fill="#0" id="circle108"/>
	<circle cx="288.386" cy="281.683" r="4" fill="#0" id="circle109"/>
	<circle cx="291.259" cy="327.645" r="4" fill="#0" id="circle110"/>
	<circle cx="291.259" cy="337.22" r="4" fill="#0" id="circle111"/>
	<circle cx="294.131" cy="138.054" r="4" fill="#0" id="circle112"/>
	<circle cx="294.131" cy="363.073" r="4" fill="#0" id="circle113"/>
	<circle cx="296.046" cy="287.429" r="4" fill="#0" id="circle114"/>
	<circle cx="296.046" cy="297.004" r="4" fill="#0" id="circle115"/>
	<circle cx="296.046" cy="306.579" r="4" fill="#0" id="circle116"/>
	<circle cx="296.046" cy="316.154" r="4" fill="#0" id="circle117"/>
	<circle cx="301.792" cy="368.819" r="4" fill="#0" id="circle118"/>
	<circle cx="303.707" cy="138.054" r="4" fill="#0" id="circle119"/>
	<circle cx="310.409" cy="373.606" r="4" fill="#0" id="circle120"/>
	<circle cx="313.282" cy="138.054" r="4" fill="#0" id="circle121"/>
	<circle cx="319.985" cy="373.606" r="4" fill="#0" id="circle122"/>
	<circle cx="322.857" cy="138.054" r="4" fill="#0" id="circle123"/>
	<circle cx="327.645" cy="367.861" r="4" fill="#0" id="circle124"/>
	<circle cx="332.432" cy="138.054" r="4" fill="#0" id="circle125"/>
	<circle cx="335.305" cy="344.88" r="4" fill="#0" id="circle126"/>
	<circle cx="335.305" cy="354.456" r="4" fill="#0" id="circle127"/>
	<circle cx="340.093" cy="297.004" r="4" fill="#0" id="circle128"/>
	<circle cx="340.093" cy="306.579" r="4" fill="#0" id="circle129"/>
	<circle cx="340.093" cy="316.154" r="4" fill="#0" id="circle130"/>
	<circle cx="340.093" cy="325.73" r="4" fill="#0" id="circle131"/>
	<circle cx="340.093" cy="335.305" r="4" fill="#0" id="circle132"/>
	<circle cx="341.05" cy="142.842" r="4" fill="#0" id="circle133"/>
	<circle cx="349.668" cy="292.216" r="4" fill="#0" id="circle134"/>
	<circle cx="350.625" cy="142.842" r="4" fill="#0" id="circle135"/>
	<circle cx="357.328" cy="285.514" r="4" fill="#0" id="circle136"/>
	<circle cx="360.201" cy="142.842" r="4" fill="#0" id="circle137"/>
	<circle cx="366.903" cy="282.641" r="4" fill="#0" id="circle138"/>
	<circle cx="368.819" cy="147.629" r="4" fill="#0" id="circle139"/>
	<circle cx="376.479" cy="282.641" r="4" fill="#0" id="circle140"/>
	<circle cx="377.436" cy="152.417" r="4" fill="#0" id="circle141"/>
	<circle cx="385.097" cy="158.162" r="4" fill="#0" id="circle142"/>
	<circle cx="386.054" cy="282.641" r="4" fill="#0" id="circle143"/>
	<circle cx="392.757" cy="164.865" r="4" fill="#0" id="circle144"/>
	<circle cx="395.629" cy="282.641" r="4" fill="#0" id="circle145"/>
	<circle cx="396.587" cy="174.44" r="4" fill="#0" id="circle146"/>
	<circle cx="401.375" cy="183.058" r="4" fill="#0" id="circle147"/>
	<circle cx="402.332" cy="192.633" r="4" fill="#0" id="circle148"/>
	<circle cx="402.332" cy="290.301" r="4" fill="#0" id="circle149"/>
	<circle cx="405.205" cy="202.208" r="4" fill="#0" id="circle150"/>
	<circle cx="407.12" cy="211.784" r="4" fill="#0" id="circle151"/>
	<circle cx="409.992" cy="297.004" r="4" fill="#0" id="circle152"/>
	<circle cx="411.907" cy="220.402" r="4" fill="#0" id="circle153"/>
	<circle cx="413.822" cy="229.977" r="4" fill="#0" id="circle154"/>
	<circle cx="413.822" cy="306.579" r="4" fill="#0" id="circle155"/>
	<circle cx="415.737" cy="316.154" r="4" fill="#0" id="circle156"/>
	<circle cx="415.737" cy="325.73" r="4" fill="#0" id="circle157"/>
	<circle cx="418.61" cy="238.595" r="4" fill="#0" id="circle158"/>
	<circle cx="420.525" cy="334.347" r="4" fill="#0" id="circle159"/>
	<circle cx="422.44" cy="343.923" r="4" fill="#0" id="circle160"/>
	<circle cx="427.228" cy="352.541" r="4" fill="#0" id="circle161"/>
	<circle cx="428.185" cy="238.595" r="4" fill="#0" id="circle162"/>
	<circle cx="430.1" cy="362.116" r="4" fill="#0" id="circle163"/>
	<circle cx="434.888" cy="370.734" r="4" fill="#0" id="circle164"/>
	<circle cx="436.803" cy="233.807" r="4" fill="#0" id="circle165"/>
	<circle cx="439.676" cy="379.351" r="4" fill="#0" id="circle166"/>
	<circle cx="445.421" cy="229.019" r="4" fill="#0" id="circle167"/>
	<circle cx="446.378" cy="387.012" r="4" fill="#0" id="circle168"/>
	<circle cx="454.039" cy="224.232" r="4" fill="#0" id="circle169"/>
	<circle cx="455.954" cy="387.969" r="4" fill="#0" id="circle170"/>
	<circle cx="463.614" cy="222.317" r="4" fill="#0" id="circle171"/>
	<circle cx="464.571" cy="392.757" r="4" fill="#0" id="circle172"/>
	<circle cx="473.189" cy="219.444" r="4" fill="#0" id="circle173"/>
	<circle cx="473.189" cy="397.544" r="4" fill="#0" id="circle174"/>
	<circle cx="482.764" cy="217.529" r="4" fill="#0" id="circle175"/>
	<circle cx="482.764" cy="397.544" r="4" fill="#0" id="circle176"/>
	<circle cx="492.34" cy="214.656" r="4" fill="#0" id="circle177"/>
	<circle cx="492.34" cy="397.544" r="4" fill="#0" id="circle178"/>
	<circle cx="500.958" cy="209.869" r="4" fill="#0" id="circle179"/>
	<circle cx="500.958" cy="402.332" r="4" fill="#0" id="circle180"/>
	<circle cx="501.915" cy="160.077" r="4" fill="#0" id="circle181"/>
	<circle cx="501.915" cy="169.653" r="4" fill="#0" id="circle182"/>
	<circle cx="501.915" cy="179.228" r="4" fill="#0" id="circle183"/>
	<circle cx="501.915" cy="188.803" r="4" fill="#0" id="circle184"/>
	<circle cx="501.915" cy="198.378" r="4" fill="#0" id="circle185"/>
	<circle cx="506.703" cy="145.714" r="4" fill="#0" id="circle186"/>
	<circle cx="510.533" cy="402.332" r="4" fill="#0" id="circle187"/>
	<circle cx="511.49" cy="136.139" r="4" fill="#0" id="circle188"/>
	<circle cx="519.151" cy="128.479" r="4" fill="#0" id="circle189"/>
	<circle cx="519.151" cy="407.12" r="4" fill="#0" id="circle190"/>
	<circle cx="527.768" cy="123.691" r="4" fill="#0" id="circle191"/>
	<circle cx="528.726" cy="407.12" r="4" fill="#0" id="circle192"/>
	<circle cx="536.386" cy="118.903" r="4" fill="#0" id="circle193"/>
	<circle cx="538.301" cy="406.162" r="4" fill="#0" id="circle194"/>
	<circle cx="545.004" cy="30.8108" r="4" fill="#0" id="circle195"/>
	<circle cx="545.004" cy="40.3861" r="4" fill="#0" id="circle196"/>
	<circle cx="545.004" cy="49.9614" r="4" fill="#0" id="circle197"/>
	<circle cx="545.004" cy="59.5367" r="4" fill="#0" id="circle198"/>
	<circle cx="545.004" cy="69.112" r="4" fill="#0" id="circle199"/>
	<circle cx="545.004" cy="78.6873" r="4" fill="#0" id="circle200"/>
	<circle cx="545.004" cy="88.2625" r="4" fill="#0" id="circle201"/>
	<circle cx="545.004" cy="97.8378" r="4" fill="#0" id="circle202"/>
	<circle cx="545.004" cy="107.413" r="4" fill="#0" id="circle203"/>
	<circle cx="547.876" cy="401.375" r="4" fill="#0" id="circle204"/>
	<circle cx="549.792" cy="21.2355" r="4" fill="#0" id="circle205"/>
	<circle cx="554.579" cy="11.6602" r="4" fill="#0" id="circle206"/>
	<circle cx="555.537" cy="392.757" r="4" fill="#0" id="circle207"/>
	<circle cx="562.239" cy="4" r="4" fill="#0" id="circle208"/>
	<circle cx="564.154" cy="387.969" r="4" fill="#0" id="circle209"/>
	<circle cx="569.9" cy="378.394" r="4" fill="#0" id="circle210"/>
	<circle cx="571.815" cy="4" r="4" fill="#0" id="circle211"/>
	<circle cx="574.687" cy="368.819" r="4" fill="#0" id="circle212"/>
	<circle cx="578.517" cy="11.6602" r="4" fill="#0" id="circle213"/>
	<circle cx="579.475" cy="21.2355" r="4" fill="#0" id="circle214"/>
	<circle cx="582.347" cy="362.116" r="4" fill="#0" id="circle215"/>
	<circle cx="584.263" cy="29.8533" r="4" fill="#0" id="circle216"/>
	<circle cx="587.135" cy="352.541" r="4" fill="#0" id="circle217"/>
	<circle cx="589.05" cy="340.093" r="4" fill="#0" id="circle218"/>
	<circle cx="590.008" cy="37.5135" r="4" fill="#0" id="circle219"/>
	<circle cx="593.838" cy="47.0888" r="4" fill="#0" id="circle220"/>
	<circle cx="593.838" cy="325.73" r="4" fill="#0" id="circle221"/>
	<circle cx="598.625" cy="55.7066" r="4" fill="#0" id="circle222"/>
	<circle cx="603.413" cy="64.3243" r="4" fill="#0" id="circle223"/>
	<circle cx="603.413" cy="325.73" r="4" fill="#0" id="circle224"/>
	<circle cx="607.243" cy="73.8996" r="4" fill="#0" id="circle225"/>
	<circle cx="608.201" cy="83.4749" r="4" fill="#0" id="circle226"/>
	<circle cx="612.988" cy="92.0927" r="4" fill="#0" id="circle227"/>
	<circle cx="612.988" cy="325.73" r="4" fill="#0" id="circle228"/>
	<circle cx="618.734" cy="99.7529" r="4" fill="#0" id="circle229"/>
	<circle cx="622.564" cy="109.328" r="4" fill="#0" id="circle230"/>
	<circle cx="622.564" cy="325.73" r="4" fill="#0" id="circle231"/>
	<circle cx="627.351" cy="117.946" r="4" fill="#0" id="circle232"/>
	<circle cx="632.139" cy="126.564" r="4" fill="#0" id="circle233"/>
	<circle cx="632.139" cy="136.139" r="4" fill="#0" id="circle234"/>
	<circle cx="632.139" cy="145.714" r="4" fill="#0" id="circle235"/>
	<circle cx="632.139" cy="155.29" r="4" fill="#0" id="circle236"/>
	<circle cx="632.139" cy="164.865" r="4" fill="#0" id="circle237"/>
	<circle cx="632.139" cy="174.44" r="4" fill="#0" id="circle238"/>
	<circle cx="632.139" cy="184.015" r="4" fill="#0" id="circle239"/>
	<circle cx="632.139" cy="193.591" r="4" fill="#0" id="circle240"/>
	<circle cx="632.139" cy="203.166" r="4" fill="#0" id="circle241"/>
	<circle cx="632.139" cy="325.73" r="4" fill="#0" id="circle242"/>
	<circle cx="635.969" cy="212.741" r="4" fill="#0" id="circle243"/>
	<circle cx="641.714" cy="325.73" r="4" fill="#0" id="circle244"/>
	<circle cx="645.544" cy="214.656" r="4" fill="#0" id="circle245"/>
	<circle cx="651.29" cy="325.73" r="4" fill="#0" id="circle246"/>
	<circle cx="655.12" cy="214.656" r="4" fill="#0" id="circle247"/>
	<circle cx="660.865" cy="320.942" r="4" fill="#0" id="circle248"/>
	<circle cx="664.695" cy="214.656" r="4" fill="#0" id="circle249"/>
	<circle cx="670.44" cy="320.942" r="4" fill="#0" id="circle250"/>
	<circle cx="673.313" cy="209.869" r="4" fill="#0" id="circle251"/>
	<circle cx="679.058" cy="188.803" r="4" fill="#0" id="circle252"/>
	<circle cx="679.058" cy="198.378" r="4" fill="#0" id="circle253"/>
	<circle cx="680.015" cy="320.942" r="4" fill="#0" id="circle254"/>
	<circle cx="683.846" cy="179.228" r="4" fill="#0" id="circle255"/>
	<circle cx="689.591" cy="320.942" r="4" fill="#0" id="circle256"/>
	<circle cx="691.506" cy="171.568" r="4" fill="#0" id="circle257"/>
	<circle cx="699.166" cy="320.942" r="4" fill="#0" id="circle258"/>
	<circle cx="700.124" cy="166.78" r="4" fill="#0" id="circle259"/>
	<circle cx="708.741" cy="161.992" r="4" fill="#0" id="circle260"/>
	<circle cx="708.741" cy="320.942" r="4" fill="#0" id="circle261"/>
	<circle cx="717.359" cy="157.205" r="4" fill="#0" id="circle262"/>
	<circle cx="718.317" cy="320.942" r="4" fill="#0" id="circle263"/>
	<circle cx="725.977" cy="152.417" r="4" fill="#0" id="circle264"/>
	<circle cx="727.892" cy="322.857" r="4" fill="#0" id="circle265"/>
	<circle cx="734.595" cy="147.629" r="4" fill="#0" id="circle266"/>
	<circle cx="737.467" cy="325.73" r="4" fill="#0" id="circle267"/>
	<circle cx="744.17" cy="142.842" r="4" fill="#0" id="circle268"/>
	<circle cx="746.085" cy="330.517" r="4" fill="#0" id="circle269"/>
	<circle cx="752.788" cy="138.054" r="4" fill="#0" id="circle270"/>
	<circle cx="755.66" cy="330.517" r="4" fill="#0" id="circle271"/>
	<circle cx="761.405" cy="133.266" r="4" fill="#0" id="circle272"/>
	<circle cx="761.405" cy="338.178" r="4" fill="#0" id="circle273"/>
	<circle cx="769.066" cy="344.88" r="4" fill="#0" id="circle274"/>
	<circle cx="770.981" cy="130.394" r="4" fill="#0" id="circle275"/>
	<circle cx="775.768" cy="352.541" r="4" fill="#0" id="circle276"/>
	<circle cx="780.556" cy="125.606" r="4" fill="#0" id="circle277"/>
	<circle cx="783.429" cy="359.243" r="4" fill="#0" id="circle278"/>
	<circle cx="784.386" cy="368.819" r="4" fill="#0" id="circle279"/>
	<circle cx="788.216" cy="118.903" r="4" fill="#0" id="circle280"/>
	<circle cx="789.174" cy="377.436" r="4" fill="#0" id="circle281"/>
	<circle cx="791.089" cy="387.012" r="4" fill="#0" id="circle282"/>
	<circle cx="794.919" cy="111.243" r="4" fill="#0" id="circle283"/>
	<circle cx="795.876" cy="395.629" r="4" fill="#0" id="circle284"/>
	<circle cx="798.749" cy="88.2625" r="4" fill="#0" id="circle285"/>
	<circle cx="798.749" cy="97.8378" r="4" fill="#0" id="circle286"/>
	<circle cx="803.537" cy="78.6873" r="4" fill="#0" id="circle287"/>
	<circle cx="803.537" cy="402.332" r="4" fill="#0" id="circle288"/>
	<circle cx="809.282" cy="409.992" r="4" fill="#0" id="circle289"/>
	<circle cx="811.197" cy="71.027" r="4" fill="#0" id="circle290"/>
	<circle cx="816.942" cy="416.695" r="4" fill="#0" id="circle291"/>
	<circle cx="819.815" cy="66.2394" r="4" fill="#0" id="circle292"/>
	<circle cx="825.56" cy="421.483" r="4" fill="#0" id="circle293"/>
	<circle cx="828.432" cy="71.027" r="4" fill="#0" id="circle294"/>
	<circle cx="834.178" cy="426.27" r="4" fill="#0" id="circle295"/>
	<circle cx="838.008" cy="73.8996" r="4" fill="#0" id="circle296"/>
	<circle cx="841.838" cy="432.015" r="4" fill="#0" id="circle297"/>
	<circle cx="844.71" cy="81.5598" r="4" fill="#0" id="circle298"/>
	<circle cx="849.498" cy="90.1776" r="4" fill="#0" id="circle299"/>
	<circle cx="851.413" cy="435.846" r="4" fill="#0" id="circle300"/>
	<circle cx="856.201" cy="97.8378" r="4" fill="#0" id="circle301"/>
	<circle cx="860.031" cy="440.633" r="4" fill="#0" id="circle302"/>
	<circle cx="863.861" cy="104.541" r="4" fill="#0" id="circle303"/>
	<circle cx="866.734" cy="114.116" r="4" fill="#0" id="circle304"/>
	<circle cx="868.649" cy="445.421" r="4" fill="#0" id="circle305"/>
	<circle cx="874.394" cy="119.861" r="4" fill="#0" id="circle306"/>
	<circle cx="878.224" cy="129.436" r="4" fill="#0" id="circle307"/>
	<circle cx="878.224" cy="445.421" r="4" fill="#0" id="circle308"/>
	<circle cx="885.884" cy="136.139" r="4" fill="#0" id="circle309"/>
	<circle cx="887.799" cy="445.421" r="4" fill="#0" id="circle310"/>
	<circle cx="893.544" cy="142.842" r="4" fill="#0" id="circle311"/>
	<circle cx="897.375" cy="449.251" r="4" fill="#0" id="circle312"/>
	<circle cx="903.12" cy="142.842" r="4" fill="#0" id="circle313"/>
	<circle cx="906.95" cy="450.208" r="4" fill="#0" id="circle314"/>
	<circle cx="912.695" cy="142.842" r="4" fill="#0" id="circle315"/>
	<circle cx="916.525" cy="450.208" r="4" fill="#0" id="circle316"/>
	<circle cx="922.27" cy="142.842" r="4" fill="#0" id="circle317"/>
	<circle cx="926.1" cy="450.208" r="4" fill="#0" id="circle318"/>
	<circle cx="930.888" cy="147.629" r="4" fill="#0" id="circle319"/>
	<circle cx="934.718" cy="445.421" r="4" fill="#0" id="circle320"/>
	<circle cx="938.548" cy="153.375" r="4" fill="#0" id="circle321"/>
	<circle cx="943.336" cy="161.992" r="4" fill="#0" id="circle322"/>
	<circle cx="943.336" cy="171.568" r="4" fill="#0" id="circle323"/>
	<circle cx="943.336" cy="181.143" r="4" fill="#0" id="circle324"/>
	<circle cx="943.336" cy="190.718" r="4" fill="#0" id="circle325"/>
	<circle cx="943.336" cy="200.293" r="4" fill="#0" id="circle326"/>
	<circle cx="943.336" cy="209.869" r="4" fill="#0" id="circle327"/>
	<circle cx="943.336" cy="219.444" r="4" fill="#0" id="circle328"/>
	<circle cx="943.336" cy="440.633" r="4" fill="#0" id="circle329"/>
	<circle cx="948.124" cy="228.062" r="4" fill="#0" id="circle330"/>
	<circle cx="948.124" cy="237.637" r="4" fill="#0" id="circle331"/>
	<circle cx="948.124" cy="247.212" r="4" fill="#0" id="circle332"/>
	<circle cx="948.124" cy="431.058" r="4" fill="#0" id="circle333"/>
	<circle cx="952.911" cy="421.483" r="4" fill="#0" id="circle334"/>
	<circle cx="955.784" cy="252.958" r="4" fill="#0" id="circle335"/>
	<circle cx="957.699" cy="411.907" r="4" fill="#0" id="circle336"/>
	<circle cx="965.359" cy="253.915" r="4" fill="#0" id="circle337"/>
	<circle cx="965.359" cy="405.205" r="4" fill="#0" id="circle338"/>
	<circle cx="970.147" cy="395.629" r="4" fill="#0" id="circle339"/>
	<circle cx="973.977" cy="258.703" r="4" fill="#0" id="circle340"/>
	<circle cx="974.934" cy="386.054" r="4" fill="#0" id="circle341"/>
	<circle cx="979.722" cy="376.479" r="4" fill="#0" id="circle342"/>
	<circle cx="981.637" cy="265.405" r="4" fill="#0" id="circle343"/>
	<circle cx="985.467" cy="274.981" r="4" fill="#0" id="circle344"/>
	<circle cx="986.425" cy="364.031" r="4" fill="#0" id="circle345"/>
	<circle cx="990.255" cy="283.598" r="4" fill="#0" id="circle346"/>
	<circle cx="991.212" cy="293.174" r="4" fill="#0" id="circle347"/>
	<circle cx="991.212" cy="340.093" r="4" fill="#0" id="circle348"/>
	<circle cx="991.212" cy="349.668" r="4" fill="#0" id="circle349"/>
	<circle cx="994.085" cy="302.749" r="4" fill="#0" id="circle350"/>
	<circle cx="996" cy="312.324" r="4" fill="#0" id="circle351"/>
	<circle cx="996" cy="321.9" r="4" fill="#0" id="circle352"/>
	<circle cx="996" cy="331.475" r="4" fill="#0" id="circle353"/>
	</g>
</svg>