<?xml version="1.0" encoding="UTF-8" standalone="no"?>
<!-- Created with CurveBenchmark -->
<svg
	xmlns:dc="http://purl.org/dc/elements/1.1/"
	xmlns:cc="http://creativecommons.org/ns#"
	xmlns:rdf="http://www.w3.org/1999/02/22-rdf-syntax-ns#"
	xmlns:svg="http://www.w3.org/2000/svg"
	xmlns="http://www.w3.org/2000/svg"
	xmlns:sodipodi="http://sodipodi.sourceforge.net/DTD/sodipodi-0.dtd"
	xmlns:inkscape="http://www.inkscape.org/namespaces/inkscape"
	width="1000"
	height="1000"
	id="svg2"
	version="1.1"
	sodipodi:docname="manifold/gathang-d4.png.txt">
<defs
	id="defs4" />
<metadata
	id="metadata7">
	<rdf:RDF>
		<cc:Work
			rdf:about="">
			<dc:format>image/svg+xml</dc:format>
			<dc:type
				rdf:resource="http://purl.org/dc/dcmitype/StillImage" />
			<dc:title></dc:title>
		</cc:Work>
	</rdf:RDF>
</metadata>
<g
	inkscape:label="Layer 1"
	inkscape:groupmode="layer"
	id="layer1">
	<path style="fill:none;stroke:red;stroke-width:1px;stroke-linecap:butt;stroke-linejoin:miter;stroke-opacity:1" d="M 11.8605,211.518 4,197.369 z" id="boundary" inkscape:connector-curvature="0" />
	<path style="fill:none;stroke:red;stroke-width:1px;stroke-linecap:butt;stroke-linejoin:miter;stroke-opacity:1" d="M 4,197.369 19.7211,192.653 z" id="boundary" inkscape:connector-curvature="0" />
	<path style="fill:none;stroke:red;stroke-width:1px;stroke-linecap:butt;stroke-linejoin:miter;stroke-opacity:1" d="M 35.4422,192.653 19.7211,192.653 z" id="boundary" inkscape:connector-curvature="0" />
	<path style="fill:none;stroke:red;stroke-width:1px;stroke-linecap:butt;stroke-linejoin:miter;stroke-opacity:1" d="M 11.8605,227.239 11.8605,211.518 z" id="boundary" inkscape:connector-curvature="0" />
	<path style="fill:none;stroke:red;stroke-width:1px;stroke-linecap:butt;stroke-linejoin:miter;stroke-opacity:1" d="M 19.7211,241.388 11.8605,227.239 z" id="boundary" inkscape:connector-curvature="0" />
	<path style="fill:none;stroke:red;stroke-width:1px;stroke-linecap:butt;stroke-linejoin:miter;stroke-opacity:1" d="M 19.7211,241.388 19.7211,257.109 z" id="boundary" inkscape:connector-curvature="0" />
	<path style="fill:none;stroke:red;stroke-width:1px;stroke-linecap:butt;stroke-linejoin:miter;stroke-opacity:1" d="M 35.4422,192.653 49.5911,200.513 z" id="boundary" inkscape:connector-curvature="0" />
	<path style="fill:none;stroke:red;stroke-width:1px;stroke-linecap:butt;stroke-linejoin:miter;stroke-opacity:1" d="M 63.7401,208.374 74.7448,220.951 z" id="boundary" inkscape:connector-curvature="0" />
	<path style="fill:none;stroke:red;stroke-width:1px;stroke-linecap:butt;stroke-linejoin:miter;stroke-opacity:1" d="M 87.3217,231.956 101.471,239.816 z" id="boundary" inkscape:connector-curvature="0" />
	<path style="fill:none;stroke:red;stroke-width:1px;stroke-linecap:butt;stroke-linejoin:miter;stroke-opacity:1" d="M 87.3217,231.956 74.7448,220.951 z" id="boundary" inkscape:connector-curvature="0" />
	<path style="fill:none;stroke:red;stroke-width:1px;stroke-linecap:butt;stroke-linejoin:miter;stroke-opacity:1" d="M 114.048,250.821 101.471,239.816 z" id="boundary" inkscape:connector-curvature="0" />
	<path style="fill:none;stroke:red;stroke-width:1px;stroke-linecap:butt;stroke-linejoin:miter;stroke-opacity:1" d="M 49.5911,200.513 63.7401,208.374 z" id="boundary" inkscape:connector-curvature="0" />
	<path style="fill:none;stroke:red;stroke-width:1px;stroke-linecap:butt;stroke-linejoin:miter;stroke-opacity:1" d="M 27.5816,271.258 19.7211,257.109 z" id="boundary" inkscape:connector-curvature="0" />
	<path style="fill:none;stroke:red;stroke-width:1px;stroke-linecap:butt;stroke-linejoin:miter;stroke-opacity:1" d="M 114.048,250.821 123.48,263.398 z" id="boundary" inkscape:connector-curvature="0" />
	<path style="fill:none;stroke:red;stroke-width:1px;stroke-linecap:butt;stroke-linejoin:miter;stroke-opacity:1" d="M 27.5816,271.258 27.5816,286.979 z" id="boundary" inkscape:connector-curvature="0" />
	<path style="fill:none;stroke:red;stroke-width:1px;stroke-linecap:butt;stroke-linejoin:miter;stroke-opacity:1" d="M 35.4422,301.128 27.5816,286.979 z" id="boundary" inkscape:connector-curvature="0" />
	<path style="fill:none;stroke:red;stroke-width:1px;stroke-linecap:butt;stroke-linejoin:miter;stroke-opacity:1" d="M 123.48,263.398 136.057,272.83 z" id="boundary" inkscape:connector-curvature="0" />
	<path style="fill:none;stroke:red;stroke-width:1px;stroke-linecap:butt;stroke-linejoin:miter;stroke-opacity:1" d="M 35.4422,301.128 27.5816,315.277 z" id="boundary" inkscape:connector-curvature="0" />
	<path style="fill:none;stroke:red;stroke-width:1px;stroke-linecap:butt;stroke-linejoin:miter;stroke-opacity:1" d="M 162.783,291.696 150.206,280.691 z" id="boundary" inkscape:connector-curvature="0" />
	<path style="fill:none;stroke:red;stroke-width:1px;stroke-linecap:butt;stroke-linejoin:miter;stroke-opacity:1" d="M 150.206,280.691 136.057,272.83 z" id="boundary" inkscape:connector-curvature="0" />
	<path style="fill:none;stroke:red;stroke-width:1px;stroke-linecap:butt;stroke-linejoin:miter;stroke-opacity:1" d="M 191.081,302.7 175.36,302.7 z" id="boundary" inkscape:connector-curvature="0" />
	<path style="fill:none;stroke:red;stroke-width:1px;stroke-linecap:butt;stroke-linejoin:miter;stroke-opacity:1" d="M 175.36,302.7 162.783,291.696 z" id="boundary" inkscape:connector-curvature="0" />
	<path style="fill:none;stroke:red;stroke-width:1px;stroke-linecap:butt;stroke-linejoin:miter;stroke-opacity:1" d="M 236.672,294.84 220.951,294.84 z" id="boundary" inkscape:connector-curvature="0" />
	<path style="fill:none;stroke:red;stroke-width:1px;stroke-linecap:butt;stroke-linejoin:miter;stroke-opacity:1" d="M 249.249,282.263 236.672,294.84 z" id="boundary" inkscape:connector-curvature="0" />
	<path style="fill:none;stroke:red;stroke-width:1px;stroke-linecap:butt;stroke-linejoin:miter;stroke-opacity:1" d="M 206.802,302.7 220.951,294.84 z" id="boundary" inkscape:connector-curvature="0" />
	<path style="fill:none;stroke:red;stroke-width:1px;stroke-linecap:butt;stroke-linejoin:miter;stroke-opacity:1" d="M 249.249,282.263 264.97,279.119 z" id="boundary" inkscape:connector-curvature="0" />
	<path style="fill:none;stroke:red;stroke-width:1px;stroke-linecap:butt;stroke-linejoin:miter;stroke-opacity:1" d="M 279.119,16.5769 291.696,4 z" id="boundary" inkscape:connector-curvature="0" />
	<path style="fill:none;stroke:red;stroke-width:1px;stroke-linecap:butt;stroke-linejoin:miter;stroke-opacity:1" d="M 279.119,32.2979 279.119,16.5769 z" id="boundary" inkscape:connector-curvature="0" />
	<path style="fill:none;stroke:red;stroke-width:1px;stroke-linecap:butt;stroke-linejoin:miter;stroke-opacity:1" d="M 279.119,32.2979 279.119,48.019 z" id="boundary" inkscape:connector-curvature="0" />
	<path style="fill:none;stroke:red;stroke-width:1px;stroke-linecap:butt;stroke-linejoin:miter;stroke-opacity:1" d="M 279.119,48.019 286.979,62.168 z" id="boundary" inkscape:connector-curvature="0" />
	<path style="fill:none;stroke:red;stroke-width:1px;stroke-linecap:butt;stroke-linejoin:miter;stroke-opacity:1" d="M 294.84,76.317 286.979,62.168 z" id="boundary" inkscape:connector-curvature="0" />
	<path style="fill:none;stroke:red;stroke-width:1px;stroke-linecap:butt;stroke-linejoin:miter;stroke-opacity:1" d="M 294.84,76.317 294.84,92.038 z" id="boundary" inkscape:connector-curvature="0" />
	<path style="fill:none;stroke:red;stroke-width:1px;stroke-linecap:butt;stroke-linejoin:miter;stroke-opacity:1" d="M 291.696,4 307.417,4 z" id="boundary" inkscape:connector-curvature="0" />
	<path style="fill:none;stroke:red;stroke-width:1px;stroke-linecap:butt;stroke-linejoin:miter;stroke-opacity:1" d="M 307.417,4 323.138,4 z" id="boundary" inkscape:connector-curvature="0" />
	<path style="fill:none;stroke:red;stroke-width:1px;stroke-linecap:butt;stroke-linejoin:miter;stroke-opacity:1" d="M 323.138,4 337.287,11.8605 z" id="boundary" inkscape:connector-curvature="0" />
	<path style="fill:none;stroke:red;stroke-width:1px;stroke-linecap:butt;stroke-linejoin:miter;stroke-opacity:1" d="M 353.008,11.8605 337.287,11.8605 z" id="boundary" inkscape:connector-curvature="0" />
	<path style="fill:none;stroke:red;stroke-width:1px;stroke-linecap:butt;stroke-linejoin:miter;stroke-opacity:1" d="M 299.556,123.48 294.84,107.759 z" id="boundary" inkscape:connector-curvature="0" />
	<path style="fill:none;stroke:red;stroke-width:1px;stroke-linecap:butt;stroke-linejoin:miter;stroke-opacity:1" d="M 294.84,107.759 294.84,92.038 z" id="boundary" inkscape:connector-curvature="0" />
	<path style="fill:none;stroke:red;stroke-width:1px;stroke-linecap:butt;stroke-linejoin:miter;stroke-opacity:1" d="M 307.417,137.629 299.556,123.48 z" id="boundary" inkscape:connector-curvature="0" />
	<path style="fill:none;stroke:red;stroke-width:1px;stroke-linecap:butt;stroke-linejoin:miter;stroke-opacity:1" d="M 310.561,153.35 313.705,169.071 z" id="boundary" inkscape:connector-curvature="0" />
	<path style="fill:none;stroke:red;stroke-width:1px;stroke-linecap:butt;stroke-linejoin:miter;stroke-opacity:1" d="M 310.561,153.35 307.417,137.629 z" id="boundary" inkscape:connector-curvature="0" />
	<path style="fill:none;stroke:red;stroke-width:1px;stroke-linecap:butt;stroke-linejoin:miter;stroke-opacity:1" d="M 313.705,169.071 318.422,184.792 z" id="boundary" inkscape:connector-curvature="0" />
	<path style="fill:none;stroke:red;stroke-width:1px;stroke-linecap:butt;stroke-linejoin:miter;stroke-opacity:1" d="M 280.691,279.119 264.97,279.119 z" id="boundary" inkscape:connector-curvature="0" />
	<path style="fill:none;stroke:red;stroke-width:1px;stroke-linecap:butt;stroke-linejoin:miter;stroke-opacity:1" d="M 296.412,279.119 280.691,279.119 z" id="boundary" inkscape:connector-curvature="0" />
	<path style="fill:none;stroke:red;stroke-width:1px;stroke-linecap:butt;stroke-linejoin:miter;stroke-opacity:1" d="M 310.561,268.114 296.412,279.119 z" id="boundary" inkscape:connector-curvature="0" />
	<path style="fill:none;stroke:red;stroke-width:1px;stroke-linecap:butt;stroke-linejoin:miter;stroke-opacity:1" d="M 310.561,268.114 326.282,266.542 z" id="boundary" inkscape:connector-curvature="0" />
	<path style="fill:none;stroke:red;stroke-width:1px;stroke-linecap:butt;stroke-linejoin:miter;stroke-opacity:1" d="M 326.282,198.941 318.422,184.792 z" id="boundary" inkscape:connector-curvature="0" />
	<path style="fill:none;stroke:red;stroke-width:1px;stroke-linecap:butt;stroke-linejoin:miter;stroke-opacity:1" d="M 326.282,198.941 326.282,214.662 z" id="boundary" inkscape:connector-curvature="0" />
	<path style="fill:none;stroke:red;stroke-width:1px;stroke-linecap:butt;stroke-linejoin:miter;stroke-opacity:1" d="M 334.143,228.811 334.143,244.532 z" id="boundary" inkscape:connector-curvature="0" />
	<path style="fill:none;stroke:red;stroke-width:1px;stroke-linecap:butt;stroke-linejoin:miter;stroke-opacity:1" d="M 326.282,214.662 334.143,228.811 z" id="boundary" inkscape:connector-curvature="0" />
	<path style="fill:none;stroke:red;stroke-width:1px;stroke-linecap:butt;stroke-linejoin:miter;stroke-opacity:1" d="M 334.143,244.532 342.003,258.681 z" id="boundary" inkscape:connector-curvature="0" />
	<path style="fill:none;stroke:red;stroke-width:1px;stroke-linecap:butt;stroke-linejoin:miter;stroke-opacity:1" d="M 342.003,258.681 326.282,266.542 z" id="boundary" inkscape:connector-curvature="0" />
	<path style="fill:none;stroke:red;stroke-width:1px;stroke-linecap:butt;stroke-linejoin:miter;stroke-opacity:1" d="M 35.4422,345.147 27.5816,330.998 z" id="boundary" inkscape:connector-curvature="0" />
	<path style="fill:none;stroke:red;stroke-width:1px;stroke-linecap:butt;stroke-linejoin:miter;stroke-opacity:1" d="M 27.5816,330.998 27.5816,315.277 z" id="boundary" inkscape:connector-curvature="0" />
	<path style="fill:none;stroke:red;stroke-width:1px;stroke-linecap:butt;stroke-linejoin:miter;stroke-opacity:1" d="M 35.4422,345.147 35.4422,360.868 z" id="boundary" inkscape:connector-curvature="0" />
	<path style="fill:none;stroke:red;stroke-width:1px;stroke-linecap:butt;stroke-linejoin:miter;stroke-opacity:1" d="M 27.5816,378.162 35.4422,360.868 z" id="boundary" inkscape:connector-curvature="0" />
	<path style="fill:none;stroke:red;stroke-width:1px;stroke-linecap:butt;stroke-linejoin:miter;stroke-opacity:1" d="M 27.5816,393.883 27.5816,378.162 z" id="boundary" inkscape:connector-curvature="0" />
	<path style="fill:none;stroke:red;stroke-width:1px;stroke-linecap:butt;stroke-linejoin:miter;stroke-opacity:1" d="M 178.504,359.296 167.499,371.873 z" id="boundary" inkscape:connector-curvature="0" />
	<path style="fill:none;stroke:red;stroke-width:1px;stroke-linecap:butt;stroke-linejoin:miter;stroke-opacity:1" d="M 192.653,351.436 178.504,359.296 z" id="boundary" inkscape:connector-curvature="0" />
	<path style="fill:none;stroke:red;stroke-width:1px;stroke-linecap:butt;stroke-linejoin:miter;stroke-opacity:1" d="M 143.918,395.455 131.341,406.46 z" id="boundary" inkscape:connector-curvature="0" />
	<path style="fill:none;stroke:red;stroke-width:1px;stroke-linecap:butt;stroke-linejoin:miter;stroke-opacity:1" d="M 154.922,382.878 143.918,395.455 z" id="boundary" inkscape:connector-curvature="0" />
	<path style="fill:none;stroke:red;stroke-width:1px;stroke-linecap:butt;stroke-linejoin:miter;stroke-opacity:1" d="M 154.922,382.878 167.499,371.873 z" id="boundary" inkscape:connector-curvature="0" />
	<path style="fill:none;stroke:red;stroke-width:1px;stroke-linecap:butt;stroke-linejoin:miter;stroke-opacity:1" d="M 131.341,406.46 115.62,414.32 z" id="boundary" inkscape:connector-curvature="0" />
	<path style="fill:none;stroke:red;stroke-width:1px;stroke-linecap:butt;stroke-linejoin:miter;stroke-opacity:1" d="M 27.5816,409.604 27.5816,425.325 z" id="boundary" inkscape:connector-curvature="0" />
	<path style="fill:none;stroke:red;stroke-width:1px;stroke-linecap:butt;stroke-linejoin:miter;stroke-opacity:1" d="M 27.5816,425.325 19.7211,441.046 z" id="boundary" inkscape:connector-curvature="0" />
	<path style="fill:none;stroke:red;stroke-width:1px;stroke-linecap:butt;stroke-linejoin:miter;stroke-opacity:1" d="M 27.5816,393.883 27.5816,409.604 z" id="boundary" inkscape:connector-curvature="0" />
	<path style="fill:none;stroke:red;stroke-width:1px;stroke-linecap:butt;stroke-linejoin:miter;stroke-opacity:1" d="M 19.7211,456.767 19.7211,441.046 z" id="boundary" inkscape:connector-curvature="0" />
	<path style="fill:none;stroke:red;stroke-width:1px;stroke-linecap:butt;stroke-linejoin:miter;stroke-opacity:1" d="M 35.4422,477.204 19.7211,472.488 z" id="boundary" inkscape:connector-curvature="0" />
	<path style="fill:none;stroke:red;stroke-width:1px;stroke-linecap:butt;stroke-linejoin:miter;stroke-opacity:1" d="M 19.7211,472.488 19.7211,456.767 z" id="boundary" inkscape:connector-curvature="0" />
	<path style="fill:none;stroke:red;stroke-width:1px;stroke-linecap:butt;stroke-linejoin:miter;stroke-opacity:1" d="M 51.1632,477.204 35.4422,477.204 z" id="boundary" inkscape:connector-curvature="0" />
	<path style="fill:none;stroke:red;stroke-width:1px;stroke-linecap:butt;stroke-linejoin:miter;stroke-opacity:1" d="M 79.4612,459.911 87.3217,445.762 z" id="boundary" inkscape:connector-curvature="0" />
	<path style="fill:none;stroke:red;stroke-width:1px;stroke-linecap:butt;stroke-linejoin:miter;stroke-opacity:1" d="M 87.3217,445.762 99.8986,430.041 z" id="boundary" inkscape:connector-curvature="0" />
	<path style="fill:none;stroke:red;stroke-width:1px;stroke-linecap:butt;stroke-linejoin:miter;stroke-opacity:1" d="M 99.8986,430.041 115.62,414.32 z" id="boundary" inkscape:connector-curvature="0" />
	<path style="fill:none;stroke:red;stroke-width:1px;stroke-linecap:butt;stroke-linejoin:miter;stroke-opacity:1" d="M 66.8843,472.488 51.1632,477.204 z" id="boundary" inkscape:connector-curvature="0" />
	<path style="fill:none;stroke:red;stroke-width:1px;stroke-linecap:butt;stroke-linejoin:miter;stroke-opacity:1" d="M 79.4612,459.911 66.8843,472.488 z" id="boundary" inkscape:connector-curvature="0" />
	<path style="fill:none;stroke:red;stroke-width:1px;stroke-linecap:butt;stroke-linejoin:miter;stroke-opacity:1" d="M 206.802,359.296 192.653,351.436 z" id="boundary" inkscape:connector-curvature="0" />
	<path style="fill:none;stroke:red;stroke-width:1px;stroke-linecap:butt;stroke-linejoin:miter;stroke-opacity:1" d="M 191.081,302.7 206.802,302.7 z" id="boundary" inkscape:connector-curvature="0" />
	<path style="fill:none;stroke:red;stroke-width:1px;stroke-linecap:butt;stroke-linejoin:miter;stroke-opacity:1" d="M 206.802,359.296 220.951,367.157 z" id="boundary" inkscape:connector-curvature="0" />
	<path style="fill:none;stroke:red;stroke-width:1px;stroke-linecap:butt;stroke-linejoin:miter;stroke-opacity:1" d="M 220.951,367.157 236.672,367.157 z" id="boundary" inkscape:connector-curvature="0" />
	<path style="fill:none;stroke:red;stroke-width:1px;stroke-linecap:butt;stroke-linejoin:miter;stroke-opacity:1" d="M 236.672,367.157 247.677,379.734 z" id="boundary" inkscape:connector-curvature="0" />
	<path style="fill:none;stroke:red;stroke-width:1px;stroke-linecap:butt;stroke-linejoin:miter;stroke-opacity:1" d="M 247.677,379.734 249.249,395.455 z" id="boundary" inkscape:connector-curvature="0" />
	<path style="fill:none;stroke:red;stroke-width:1px;stroke-linecap:butt;stroke-linejoin:miter;stroke-opacity:1" d="M 261.826,406.46 249.249,395.455 z" id="boundary" inkscape:connector-curvature="0" />
	<path style="fill:none;stroke:red;stroke-width:1px;stroke-linecap:butt;stroke-linejoin:miter;stroke-opacity:1" d="M 277.547,406.46 261.826,406.46 z" id="boundary" inkscape:connector-curvature="0" />
	<path style="fill:none;stroke:red;stroke-width:1px;stroke-linecap:butt;stroke-linejoin:miter;stroke-opacity:1" d="M 293.268,406.46 308.989,406.46 z" id="boundary" inkscape:connector-curvature="0" />
	<path style="fill:none;stroke:red;stroke-width:1px;stroke-linecap:butt;stroke-linejoin:miter;stroke-opacity:1" d="M 308.989,406.46 323.138,414.32 z" id="boundary" inkscape:connector-curvature="0" />
	<path style="fill:none;stroke:red;stroke-width:1px;stroke-linecap:butt;stroke-linejoin:miter;stroke-opacity:1" d="M 293.268,406.46 277.547,406.46 z" id="boundary" inkscape:connector-curvature="0" />
	<path style="fill:none;stroke:red;stroke-width:1px;stroke-linecap:butt;stroke-linejoin:miter;stroke-opacity:1" d="M 342.003,472.488 334.143,496.07 z" id="boundary" inkscape:connector-curvature="0" />
	<path style="fill:none;stroke:red;stroke-width:1px;stroke-linecap:butt;stroke-linejoin:miter;stroke-opacity:1" d="M 318.422,574.675 318.422,590.396 z" id="boundary" inkscape:connector-curvature="0" />
	<path style="fill:none;stroke:red;stroke-width:1px;stroke-linecap:butt;stroke-linejoin:miter;stroke-opacity:1" d="M 318.422,574.675 326.282,551.094 z" id="boundary" inkscape:connector-curvature="0" />
	<path style="fill:none;stroke:red;stroke-width:1px;stroke-linecap:butt;stroke-linejoin:miter;stroke-opacity:1" d="M 310.561,637.559 310.561,621.838 z" id="boundary" inkscape:connector-curvature="0" />
	<path style="fill:none;stroke:red;stroke-width:1px;stroke-linecap:butt;stroke-linejoin:miter;stroke-opacity:1" d="M 310.561,621.838 318.422,606.117 z" id="boundary" inkscape:connector-curvature="0" />
	<path style="fill:none;stroke:red;stroke-width:1px;stroke-linecap:butt;stroke-linejoin:miter;stroke-opacity:1" d="M 310.561,637.559 310.561,653.281 z" id="boundary" inkscape:connector-curvature="0" />
	<path style="fill:none;stroke:red;stroke-width:1px;stroke-linecap:butt;stroke-linejoin:miter;stroke-opacity:1" d="M 342.003,673.718 326.282,673.718 z" id="boundary" inkscape:connector-curvature="0" />
	<path style="fill:none;stroke:red;stroke-width:1px;stroke-linecap:butt;stroke-linejoin:miter;stroke-opacity:1" d="M 326.282,673.718 310.561,669.002 z" id="boundary" inkscape:connector-curvature="0" />
	<path style="fill:none;stroke:red;stroke-width:1px;stroke-linecap:butt;stroke-linejoin:miter;stroke-opacity:1" d="M 310.561,669.002 310.561,653.281 z" id="boundary" inkscape:connector-curvature="0" />
	<path style="fill:none;stroke:red;stroke-width:1px;stroke-linecap:butt;stroke-linejoin:miter;stroke-opacity:1" d="M 318.422,590.396 318.422,606.117 z" id="boundary" inkscape:connector-curvature="0" />
	<path style="fill:none;stroke:red;stroke-width:1px;stroke-linecap:butt;stroke-linejoin:miter;stroke-opacity:1" d="M 334.143,511.791 334.143,496.07 z" id="boundary" inkscape:connector-curvature="0" />
	<path style="fill:none;stroke:red;stroke-width:1px;stroke-linecap:butt;stroke-linejoin:miter;stroke-opacity:1" d="M 323.138,414.32 337.287,422.181 z" id="boundary" inkscape:connector-curvature="0" />
	<path style="fill:none;stroke:red;stroke-width:1px;stroke-linecap:butt;stroke-linejoin:miter;stroke-opacity:1" d="M 334.143,511.791 326.282,535.372 z" id="boundary" inkscape:connector-curvature="0" />
	<path style="fill:none;stroke:red;stroke-width:1px;stroke-linecap:butt;stroke-linejoin:miter;stroke-opacity:1" d="M 326.282,535.372 326.282,551.094 z" id="boundary" inkscape:connector-curvature="0" />
	<path style="fill:none;stroke:red;stroke-width:1px;stroke-linecap:butt;stroke-linejoin:miter;stroke-opacity:1" d="M 365.585,22.8653 375.017,35.4422 z" id="boundary" inkscape:connector-curvature="0" />
	<path style="fill:none;stroke:red;stroke-width:1px;stroke-linecap:butt;stroke-linejoin:miter;stroke-opacity:1" d="M 365.585,22.8653 353.008,11.8605 z" id="boundary" inkscape:connector-curvature="0" />
	<path style="fill:none;stroke:red;stroke-width:1px;stroke-linecap:butt;stroke-linejoin:miter;stroke-opacity:1" d="M 390.739,40.1585 375.017,35.4422 z" id="boundary" inkscape:connector-curvature="0" />
	<path style="fill:none;stroke:red;stroke-width:1px;stroke-linecap:butt;stroke-linejoin:miter;stroke-opacity:1" d="M 417.464,59.0238 401.743,52.7353 z" id="boundary" inkscape:connector-curvature="0" />
	<path style="fill:none;stroke:red;stroke-width:1px;stroke-linecap:butt;stroke-linejoin:miter;stroke-opacity:1" d="M 401.743,52.7353 390.739,40.1585 z" id="boundary" inkscape:connector-curvature="0" />
	<path style="fill:none;stroke:red;stroke-width:1px;stroke-linecap:butt;stroke-linejoin:miter;stroke-opacity:1" d="M 417.464,59.0238 428.469,71.6006 z" id="boundary" inkscape:connector-curvature="0" />
	<path style="fill:none;stroke:red;stroke-width:1px;stroke-linecap:butt;stroke-linejoin:miter;stroke-opacity:1" d="M 455.195,90.4659 441.046,82.6054 z" id="boundary" inkscape:connector-curvature="0" />
	<path style="fill:none;stroke:red;stroke-width:1px;stroke-linecap:butt;stroke-linejoin:miter;stroke-opacity:1" d="M 441.046,82.6054 428.469,71.6006 z" id="boundary" inkscape:connector-curvature="0" />
	<path style="fill:none;stroke:red;stroke-width:1px;stroke-linecap:butt;stroke-linejoin:miter;stroke-opacity:1" d="M 467.772,101.471 477.204,114.048 z" id="boundary" inkscape:connector-curvature="0" />
	<path style="fill:none;stroke:red;stroke-width:1px;stroke-linecap:butt;stroke-linejoin:miter;stroke-opacity:1" d="M 492.926,134.485 477.204,129.769 z" id="boundary" inkscape:connector-curvature="0" />
	<path style="fill:none;stroke:red;stroke-width:1px;stroke-linecap:butt;stroke-linejoin:miter;stroke-opacity:1" d="M 455.195,90.4659 467.772,101.471 z" id="boundary" inkscape:connector-curvature="0" />
	<path style="fill:none;stroke:red;stroke-width:1px;stroke-linecap:butt;stroke-linejoin:miter;stroke-opacity:1" d="M 540.089,173.788 524.368,169.071 z" id="boundary" inkscape:connector-curvature="0" />
	<path style="fill:none;stroke:red;stroke-width:1px;stroke-linecap:butt;stroke-linejoin:miter;stroke-opacity:1" d="M 540.089,173.788 551.094,186.365 z" id="boundary" inkscape:connector-curvature="0" />
	<path style="fill:none;stroke:red;stroke-width:1px;stroke-linecap:butt;stroke-linejoin:miter;stroke-opacity:1" d="M 551.094,186.365 566.815,192.653 z" id="boundary" inkscape:connector-curvature="0" />
	<path style="fill:none;stroke:red;stroke-width:1px;stroke-linecap:butt;stroke-linejoin:miter;stroke-opacity:1" d="M 566.815,192.653 577.819,205.23 z" id="boundary" inkscape:connector-curvature="0" />
	<path style="fill:none;stroke:red;stroke-width:1px;stroke-linecap:butt;stroke-linejoin:miter;stroke-opacity:1" d="M 590.396,216.235 577.819,205.23 z" id="boundary" inkscape:connector-curvature="0" />
	<path style="fill:none;stroke:red;stroke-width:1px;stroke-linecap:butt;stroke-linejoin:miter;stroke-opacity:1" d="M 602.973,225.667 590.396,216.235 z" id="boundary" inkscape:connector-curvature="0" />
	<path style="fill:none;stroke:red;stroke-width:1px;stroke-linecap:butt;stroke-linejoin:miter;stroke-opacity:1" d="M 615.55,235.1 602.973,225.667 z" id="boundary" inkscape:connector-curvature="0" />
	<path style="fill:none;stroke:red;stroke-width:1px;stroke-linecap:butt;stroke-linejoin:miter;stroke-opacity:1" d="M 615.55,235.1 626.555,247.677 z" id="boundary" inkscape:connector-curvature="0" />
	<path style="fill:none;stroke:red;stroke-width:1px;stroke-linecap:butt;stroke-linejoin:miter;stroke-opacity:1" d="M 626.555,247.677 642.276,252.393 z" id="boundary" inkscape:connector-curvature="0" />
	<path style="fill:none;stroke:red;stroke-width:1px;stroke-linecap:butt;stroke-linejoin:miter;stroke-opacity:1" d="M 642.276,252.393 653.281,264.97 z" id="boundary" inkscape:connector-curvature="0" />
	<path style="fill:none;stroke:red;stroke-width:1px;stroke-linecap:butt;stroke-linejoin:miter;stroke-opacity:1" d="M 669.002,271.258 653.281,264.97 z" id="boundary" inkscape:connector-curvature="0" />
	<path style="fill:none;stroke:red;stroke-width:1px;stroke-linecap:butt;stroke-linejoin:miter;stroke-opacity:1" d="M 669.002,271.258 684.723,271.258 z" id="boundary" inkscape:connector-curvature="0" />
	<path style="fill:none;stroke:red;stroke-width:1px;stroke-linecap:butt;stroke-linejoin:miter;stroke-opacity:1" d="M 700.444,271.258 684.723,271.258 z" id="boundary" inkscape:connector-curvature="0" />
	<path style="fill:none;stroke:red;stroke-width:1px;stroke-linecap:butt;stroke-linejoin:miter;stroke-opacity:1" d="M 716.165,271.258 700.444,271.258 z" id="boundary" inkscape:connector-curvature="0" />
	<path style="fill:none;stroke:red;stroke-width:1px;stroke-linecap:butt;stroke-linejoin:miter;stroke-opacity:1" d="M 716.165,271.258 731.886,271.258 z" id="boundary" inkscape:connector-curvature="0" />
	<path style="fill:none;stroke:red;stroke-width:1px;stroke-linecap:butt;stroke-linejoin:miter;stroke-opacity:1" d="M 731.886,271.258 746.035,279.119 z" id="boundary" inkscape:connector-curvature="0" />
	<path style="fill:none;stroke:red;stroke-width:1px;stroke-linecap:butt;stroke-linejoin:miter;stroke-opacity:1" d="M 761.756,279.119 746.035,279.119 z" id="boundary" inkscape:connector-curvature="0" />
	<path style="fill:none;stroke:red;stroke-width:1px;stroke-linecap:butt;stroke-linejoin:miter;stroke-opacity:1" d="M 761.756,279.119 775.905,286.979 z" id="boundary" inkscape:connector-curvature="0" />
	<path style="fill:none;stroke:red;stroke-width:1px;stroke-linecap:butt;stroke-linejoin:miter;stroke-opacity:1" d="M 790.054,294.84 775.905,286.979 z" id="boundary" inkscape:connector-curvature="0" />
	<path style="fill:none;stroke:red;stroke-width:1px;stroke-linecap:butt;stroke-linejoin:miter;stroke-opacity:1" d="M 830.929,318.422 815.208,315.277 z" id="boundary" inkscape:connector-curvature="0" />
	<path style="fill:none;stroke:red;stroke-width:1px;stroke-linecap:butt;stroke-linejoin:miter;stroke-opacity:1" d="M 815.208,315.277 802.631,304.273 z" id="boundary" inkscape:connector-curvature="0" />
	<path style="fill:none;stroke:red;stroke-width:1px;stroke-linecap:butt;stroke-linejoin:miter;stroke-opacity:1" d="M 846.65,318.422 830.929,318.422 z" id="boundary" inkscape:connector-curvature="0" />
	<path style="fill:none;stroke:red;stroke-width:1px;stroke-linecap:butt;stroke-linejoin:miter;stroke-opacity:1" d="M 790.054,294.84 802.631,304.273 z" id="boundary" inkscape:connector-curvature="0" />
	<path style="fill:none;stroke:red;stroke-width:1px;stroke-linecap:butt;stroke-linejoin:miter;stroke-opacity:1" d="M 846.65,318.422 862.371,318.422 z" id="boundary" inkscape:connector-curvature="0" />
	<path style="fill:none;stroke:red;stroke-width:1px;stroke-linecap:butt;stroke-linejoin:miter;stroke-opacity:1" d="M 878.092,323.138 862.371,318.422 z" id="boundary" inkscape:connector-curvature="0" />
	<path style="fill:none;stroke:red;stroke-width:1px;stroke-linecap:butt;stroke-linejoin:miter;stroke-opacity:1" d="M 893.813,326.282 909.534,326.282 z" id="boundary" inkscape:connector-curvature="0" />
	<path style="fill:none;stroke:red;stroke-width:1px;stroke-linecap:butt;stroke-linejoin:miter;stroke-opacity:1" d="M 909.534,326.282 922.111,335.715 z" id="boundary" inkscape:connector-curvature="0" />
	<path style="fill:none;stroke:red;stroke-width:1px;stroke-linecap:butt;stroke-linejoin:miter;stroke-opacity:1" d="M 893.813,326.282 878.092,323.138 z" id="boundary" inkscape:connector-curvature="0" />
	<path style="fill:none;stroke:red;stroke-width:1px;stroke-linecap:butt;stroke-linejoin:miter;stroke-opacity:1" d="M 937.832,342.003 953.553,342.003 z" id="boundary" inkscape:connector-curvature="0" />
	<path style="fill:none;stroke:red;stroke-width:1px;stroke-linecap:butt;stroke-linejoin:miter;stroke-opacity:1" d="M 937.832,342.003 922.111,335.715 z" id="boundary" inkscape:connector-curvature="0" />
	<path style="fill:none;stroke:red;stroke-width:1px;stroke-linecap:butt;stroke-linejoin:miter;stroke-opacity:1" d="M 953.553,342.003 967.702,349.864 z" id="boundary" inkscape:connector-curvature="0" />
	<path style="fill:none;stroke:red;stroke-width:1px;stroke-linecap:butt;stroke-linejoin:miter;stroke-opacity:1" d="M 996,354.58 967.702,349.864 z" id="boundary" inkscape:connector-curvature="0" />
	<path style="fill:none;stroke:red;stroke-width:1px;stroke-linecap:butt;stroke-linejoin:miter;stroke-opacity:1" d="M 996,354.58 980.279,359.296 z" id="boundary" inkscape:connector-curvature="0" />
	<path style="fill:none;stroke:red;stroke-width:1px;stroke-linecap:butt;stroke-linejoin:miter;stroke-opacity:1" d="M 349.864,431.613 342.003,456.767 z" id="boundary" inkscape:connector-curvature="0" />
	<path style="fill:none;stroke:red;stroke-width:1px;stroke-linecap:butt;stroke-linejoin:miter;stroke-opacity:1" d="M 351.436,414.32 349.864,431.613 z" id="boundary" inkscape:connector-curvature="0" />
	<path style="fill:none;stroke:red;stroke-width:1px;stroke-linecap:butt;stroke-linejoin:miter;stroke-opacity:1" d="M 342.003,472.488 342.003,456.767 z" id="boundary" inkscape:connector-curvature="0" />
	<path style="fill:none;stroke:red;stroke-width:1px;stroke-linecap:butt;stroke-linejoin:miter;stroke-opacity:1" d="M 524.368,547.949 513.363,560.526 z" id="boundary" inkscape:connector-curvature="0" />
	<path style="fill:none;stroke:red;stroke-width:1px;stroke-linecap:butt;stroke-linejoin:miter;stroke-opacity:1" d="M 524.368,547.949 540.089,540.089 z" id="boundary" inkscape:connector-curvature="0" />
	<path style="fill:none;stroke:red;stroke-width:1px;stroke-linecap:butt;stroke-linejoin:miter;stroke-opacity:1" d="M 513.363,560.526 500.786,571.531 z" id="boundary" inkscape:connector-curvature="0" />
	<path style="fill:none;stroke:red;stroke-width:1px;stroke-linecap:butt;stroke-linejoin:miter;stroke-opacity:1" d="M 602.973,485.065 590.396,499.214 z" id="boundary" inkscape:connector-curvature="0" />
	<path style="fill:none;stroke:red;stroke-width:1px;stroke-linecap:butt;stroke-linejoin:miter;stroke-opacity:1" d="M 590.396,499.214 577.819,508.647 z" id="boundary" inkscape:connector-curvature="0" />
	<path style="fill:none;stroke:red;stroke-width:1px;stroke-linecap:butt;stroke-linejoin:miter;stroke-opacity:1" d="M 602.973,485.065 617.122,477.204 z" id="boundary" inkscape:connector-curvature="0" />
	<path style="fill:none;stroke:red;stroke-width:1px;stroke-linecap:butt;stroke-linejoin:miter;stroke-opacity:1" d="M 568.387,521.223 577.819,508.647 z" id="boundary" inkscape:connector-curvature="0" />
	<path style="fill:none;stroke:red;stroke-width:1px;stroke-linecap:butt;stroke-linejoin:miter;stroke-opacity:1" d="M 540.089,540.089 552.666,529.084 z" id="boundary" inkscape:connector-curvature="0" />
	<path style="fill:none;stroke:red;stroke-width:1px;stroke-linecap:butt;stroke-linejoin:miter;stroke-opacity:1" d="M 552.666,529.084 568.387,521.223 z" id="boundary" inkscape:connector-curvature="0" />
	<path style="fill:none;stroke:red;stroke-width:1px;stroke-linecap:butt;stroke-linejoin:miter;stroke-opacity:1" d="M 403.315,657.997 417.464,650.136 z" id="boundary" inkscape:connector-curvature="0" />
	<path style="fill:none;stroke:red;stroke-width:1px;stroke-linecap:butt;stroke-linejoin:miter;stroke-opacity:1" d="M 403.315,657.997 389.166,665.857 z" id="boundary" inkscape:connector-curvature="0" />
	<path style="fill:none;stroke:red;stroke-width:1px;stroke-linecap:butt;stroke-linejoin:miter;stroke-opacity:1" d="M 389.166,665.857 373.445,669.002 z" id="boundary" inkscape:connector-curvature="0" />
	<path style="fill:none;stroke:red;stroke-width:1px;stroke-linecap:butt;stroke-linejoin:miter;stroke-opacity:1" d="M 417.464,650.136 431.613,642.276 z" id="boundary" inkscape:connector-curvature="0" />
	<path style="fill:none;stroke:red;stroke-width:1px;stroke-linecap:butt;stroke-linejoin:miter;stroke-opacity:1" d="M 357.724,673.718 342.003,673.718 z" id="boundary" inkscape:connector-curvature="0" />
	<path style="fill:none;stroke:red;stroke-width:1px;stroke-linecap:butt;stroke-linejoin:miter;stroke-opacity:1" d="M 373.445,669.002 357.724,673.718 z" id="boundary" inkscape:connector-curvature="0" />
	<path style="fill:none;stroke:red;stroke-width:1px;stroke-linecap:butt;stroke-linejoin:miter;stroke-opacity:1" d="M 485.065,602.973 492.926,587.252 z" id="boundary" inkscape:connector-curvature="0" />
	<path style="fill:none;stroke:red;stroke-width:1px;stroke-linecap:butt;stroke-linejoin:miter;stroke-opacity:1" d="M 485.065,602.973 470.916,610.834 z" id="boundary" inkscape:connector-curvature="0" />
	<path style="fill:none;stroke:red;stroke-width:1px;stroke-linecap:butt;stroke-linejoin:miter;stroke-opacity:1" d="M 500.786,571.531 492.926,587.252 z" id="boundary" inkscape:connector-curvature="0" />
	<path style="fill:none;stroke:red;stroke-width:1px;stroke-linecap:butt;stroke-linejoin:miter;stroke-opacity:1" d="M 431.613,642.276 444.19,629.699 z" id="boundary" inkscape:connector-curvature="0" />
	<path style="fill:none;stroke:red;stroke-width:1px;stroke-linecap:butt;stroke-linejoin:miter;stroke-opacity:1" d="M 456.767,618.694 470.916,610.834 z" id="boundary" inkscape:connector-curvature="0" />
	<path style="fill:none;stroke:red;stroke-width:1px;stroke-linecap:butt;stroke-linejoin:miter;stroke-opacity:1" d="M 444.19,629.699 456.767,618.694 z" id="boundary" inkscape:connector-curvature="0" />
	<path style="fill:none;stroke:red;stroke-width:1px;stroke-linecap:butt;stroke-linejoin:miter;stroke-opacity:1" d="M 799.487,382.878 815.208,382.878 z" id="boundary" inkscape:connector-curvature="0" />
	<path style="fill:none;stroke:red;stroke-width:1px;stroke-linecap:butt;stroke-linejoin:miter;stroke-opacity:1" d="M 786.91,398.599 799.487,382.878 z" id="boundary" inkscape:connector-curvature="0" />
	<path style="fill:none;stroke:red;stroke-width:1px;stroke-linecap:butt;stroke-linejoin:miter;stroke-opacity:1" d="M 830.929,382.878 815.208,382.878 z" id="boundary" inkscape:connector-curvature="0" />
	<path style="fill:none;stroke:red;stroke-width:1px;stroke-linecap:butt;stroke-linejoin:miter;stroke-opacity:1" d="M 846.65,382.878 862.371,382.878 z" id="boundary" inkscape:connector-curvature="0" />
	<path style="fill:none;stroke:red;stroke-width:1px;stroke-linecap:butt;stroke-linejoin:miter;stroke-opacity:1" d="M 878.092,382.878 862.371,382.878 z" id="boundary" inkscape:connector-curvature="0" />
	<path style="fill:none;stroke:red;stroke-width:1px;stroke-linecap:butt;stroke-linejoin:miter;stroke-opacity:1" d="M 846.65,382.878 830.929,382.878 z" id="boundary" inkscape:connector-curvature="0" />
	<path style="fill:none;stroke:red;stroke-width:1px;stroke-linecap:butt;stroke-linejoin:miter;stroke-opacity:1" d="M 955.125,367.157 939.404,367.157 z" id="boundary" inkscape:connector-curvature="0" />
	<path style="fill:none;stroke:red;stroke-width:1px;stroke-linecap:butt;stroke-linejoin:miter;stroke-opacity:1" d="M 893.813,375.017 878.092,382.878 z" id="boundary" inkscape:connector-curvature="0" />
	<path style="fill:none;stroke:red;stroke-width:1px;stroke-linecap:butt;stroke-linejoin:miter;stroke-opacity:1" d="M 955.125,367.157 980.279,359.296 z" id="boundary" inkscape:connector-curvature="0" />
	<path style="fill:none;stroke:red;stroke-width:1px;stroke-linecap:butt;stroke-linejoin:miter;stroke-opacity:1" d="M 925.255,375.017 939.404,367.157 z" id="boundary" inkscape:connector-curvature="0" />
	<path style="fill:none;stroke:red;stroke-width:1px;stroke-linecap:butt;stroke-linejoin:miter;stroke-opacity:1" d="M 893.813,375.017 909.534,375.017 z" id="boundary" inkscape:connector-curvature="0" />
	<path style="fill:none;stroke:red;stroke-width:1px;stroke-linecap:butt;stroke-linejoin:miter;stroke-opacity:1" d="M 925.255,375.017 909.534,375.017 z" id="boundary" inkscape:connector-curvature="0" />
	<path style="fill:none;stroke:red;stroke-width:1px;stroke-linecap:butt;stroke-linejoin:miter;stroke-opacity:1" d="M 654.853,442.618 665.857,430.041 z" id="boundary" inkscape:connector-curvature="0" />
	<path style="fill:none;stroke:red;stroke-width:1px;stroke-linecap:butt;stroke-linejoin:miter;stroke-opacity:1" d="M 654.853,442.618 642.276,453.623 z" id="boundary" inkscape:connector-curvature="0" />
	<path style="fill:none;stroke:red;stroke-width:1px;stroke-linecap:butt;stroke-linejoin:miter;stroke-opacity:1" d="M 642.276,453.623 629.699,467.772 z" id="boundary" inkscape:connector-curvature="0" />
	<path style="fill:none;stroke:red;stroke-width:1px;stroke-linecap:butt;stroke-linejoin:miter;stroke-opacity:1" d="M 629.699,467.772 617.122,477.204 z" id="boundary" inkscape:connector-curvature="0" />
	<path style="fill:none;stroke:red;stroke-width:1px;stroke-linecap:butt;stroke-linejoin:miter;stroke-opacity:1" d="M 665.857,430.041 681.578,422.181 z" id="boundary" inkscape:connector-curvature="0" />
	<path style="fill:none;stroke:red;stroke-width:1px;stroke-linecap:butt;stroke-linejoin:miter;stroke-opacity:1" d="M 681.578,422.181 697.3,422.181 z" id="boundary" inkscape:connector-curvature="0" />
	<path style="fill:none;stroke:red;stroke-width:1px;stroke-linecap:butt;stroke-linejoin:miter;stroke-opacity:1" d="M 786.91,398.599 774.333,409.604 z" id="boundary" inkscape:connector-curvature="0" />
	<path style="fill:none;stroke:red;stroke-width:1px;stroke-linecap:butt;stroke-linejoin:miter;stroke-opacity:1" d="M 774.333,409.604 758.612,414.32 z" id="boundary" inkscape:connector-curvature="0" />
	<path style="fill:none;stroke:red;stroke-width:1px;stroke-linecap:butt;stroke-linejoin:miter;stroke-opacity:1" d="M 744.463,422.181 758.612,414.32 z" id="boundary" inkscape:connector-curvature="0" />
	<path style="fill:none;stroke:red;stroke-width:1px;stroke-linecap:butt;stroke-linejoin:miter;stroke-opacity:1" d="M 697.3,422.181 713.021,422.181 z" id="boundary" inkscape:connector-curvature="0" />
	<path style="fill:none;stroke:red;stroke-width:1px;stroke-linecap:butt;stroke-linejoin:miter;stroke-opacity:1" d="M 728.742,422.181 744.463,422.181 z" id="boundary" inkscape:connector-curvature="0" />
	<path style="fill:none;stroke:red;stroke-width:1px;stroke-linecap:butt;stroke-linejoin:miter;stroke-opacity:1" d="M 728.742,422.181 713.021,422.181 z" id="boundary" inkscape:connector-curvature="0" />
	<circle cx="4" cy="197.369" r="4" fill="#0" id="circle0"/>
	<circle cx="11.8605" cy="211.518" r="4" fill="#0" id="circle1"/>
	<circle cx="11.8605" cy="227.239" r="4" fill="#0" id="circle2"/>
	<circle cx="19.7211" cy="192.653" r="4" fill="#0" id="circle3"/>
	<circle cx="19.7211" cy="241.388" r="4" fill="#0" id="circle4"/>
	<circle cx="19.7211" cy="257.109" r="4" fill="#0" id="circle5"/>
	<circle cx="19.7211" cy="441.046" r="4" fill="#0" id="circle6"/>
	<circle cx="19.7211" cy="456.767" r="4" fill="#0" id="circle7"/>
	<circle cx="19.7211" cy="472.488" r="4" fill="#0" id="circle8"/>
	<circle cx="27.5816" cy="271.258" r="4" fill="#0" id="circle9"/>
	<circle cx="27.5816" cy="286.979" r="4" fill="#0" id="circle10"/>
	<circle cx="27.5816" cy="315.277" r="4" fill="#0" id="circle11"/>
	<circle cx="27.5816" cy="330.998" r="4" fill="#0" id="circle12"/>
	<circle cx="27.5816" cy="378.162" r="4" fill="#0" id="circle13"/>
	<circle cx="27.5816" cy="393.883" r="4" fill="#0" id="circle14"/>
	<circle cx="27.5816" cy="409.604" r="4" fill="#0" id="circle15"/>
	<circle cx="27.5816" cy="425.325" r="4" fill="#0" id="circle16"/>
	<circle cx="35.4422" cy="192.653" r="4" fill="#0" id="circle17"/>
	<circle cx="35.4422" cy="301.128" r="4" fill="#0" id="circle18"/>
	<circle cx="35.4422" cy="345.147" r="4" fill="#0" id="circle19"/>
	<circle cx="35.4422" cy="360.868" r="4" fill="#0" id="circle20"/>
	<circle cx="35.4422" cy="477.204" r="4" fill="#0" id="circle21"/>
	<circle cx="49.5911" cy="200.513" r="4" fill="#0" id="circle22"/>
	<circle cx="51.1632" cy="477.204" r="4" fill="#0" id="circle23"/>
	<circle cx="63.7401" cy="208.374" r="4" fill="#0" id="circle24"/>
	<circle cx="66.8843" cy="472.488" r="4" fill="#0" id="circle25"/>
	<circle cx="74.7448" cy="220.951" r="4" fill="#0" id="circle26"/>
	<circle cx="79.4612" cy="459.911" r="4" fill="#0" id="circle27"/>
	<circle cx="87.3217" cy="231.956" r="4" fill="#0" id="circle28"/>
	<circle cx="87.3217" cy="445.762" r="4" fill="#0" id="circle29"/>
	<circle cx="99.8986" cy="430.041" r="4" fill="#0" id="circle30"/>
	<circle cx="101.471" cy="239.816" r="4" fill="#0" id="circle31"/>
	<circle cx="114.048" cy="250.821" r="4" fill="#0" id="circle32"/>
	<circle cx="115.62" cy="414.32" r="4" fill="#0" id="circle33"/>
	<circle cx="123.48" cy="263.398" r="4" fill="#0" id="circle34"/>
	<circle cx="131.341" cy="406.46" r="4" fill="#0" id="circle35"/>
	<circle cx="136.057" cy="272.83" r="4" fill="#0" id="circle36"/>
	<circle cx="143.918" cy="395.455" r="4" fill="#0" id="circle37"/>
	<circle cx="150.206" cy="280.691" r="4" fill="#0" id="circle38"/>
	<circle cx="154.922" cy="382.878" r="4" fill="#0" id="circle39"/>
	<circle cx="162.783" cy="291.696" r="4" fill="#0" id="circle40"/>
	<circle cx="167.499" cy="371.873" r="4" fill="#0" id="circle41"/>
	<circle cx="175.36" cy="302.7" r="4" fill="#0" id="circle42"/>
	<circle cx="178.504" cy="359.296" r="4" fill="#0" id="circle43"/>
	<circle cx="191.081" cy="302.7" r="4" fill="#0" id="circle44"/>
	<circle cx="192.653" cy="351.436" r="4" fill="#0" id="circle45"/>
	<circle cx="206.802" cy="302.7" r="4" fill="#0" id="circle46"/>
	<circle cx="206.802" cy="359.296" r="4" fill="#0" id="circle47"/>
	<circle cx="220.951" cy="294.84" r="4" fill="#0" id="circle48"/>
	<circle cx="220.951" cy="367.157" r="4" fill="#0" id="circle49"/>
	<circle cx="236.672" cy="294.84" r="4" fill="#0" id="circle50"/>
	<circle cx="236.672" cy="367.157" r="4" fill="#0" id="circle51"/>
	<circle cx="247.677" cy="379.734" r="4" fill="#0" id="circle52"/>
	<circle cx="249.249" cy="282.263" r="4" fill="#0" id="circle53"/>
	<circle cx="249.249" cy="395.455" r="4" fill="#0" id="circle54"/>
	<circle cx="261.826" cy="406.46" r="4" fill="#0" id="circle55"/>
	<circle cx="264.97" cy="279.119" r="4" fill="#0" id="circle56"/>
	<circle cx="277.547" cy="406.46" r="4" fill="#0" id="circle57"/>
	<circle cx="279.119" cy="16.5769" r="4" fill="#0" id="circle58"/>
	<circle cx="279.119" cy="32.2979" r="4" fill="#0" id="circle59"/>
	<circle cx="279.119" cy="48.019" r="4" fill="#0" id="circle60"/>
	<circle cx="280.691" cy="279.119" r="4" fill="#0" id="circle61"/>
	<circle cx="286.979" cy="62.168" r="4" fill="#0" id="circle62"/>
	<circle cx="291.696" cy="4" r="4" fill="#0" id="circle63"/>
	<circle cx="293.268" cy="406.46" r="4" fill="#0" id="circle64"/>
	<circle cx="294.84" cy="76.317" r="4" fill="#0" id="circle65"/>
	<circle cx="294.84" cy="92.038" r="4" fill="#0" id="circle66"/>
	<circle cx="294.84" cy="107.759" r="4" fill="#0" id="circle67"/>
	<circle cx="296.412" cy="279.119" r="4" fill="#0" id="circle68"/>
	<circle cx="299.556" cy="123.48" r="4" fill="#0" id="circle69"/>
	<circle cx="307.417" cy="4" r="4" fill="#0" id="circle70"/>
	<circle cx="307.417" cy="137.629" r="4" fill="#0" id="circle71"/>
	<circle cx="308.989" cy="406.46" r="4" fill="#0" id="circle72"/>
	<circle cx="310.561" cy="153.35" r="4" fill="#0" id="circle73"/>
	<circle cx="310.561" cy="268.114" r="4" fill="#0" id="circle74"/>
	<circle cx="310.561" cy="621.838" r="4" fill="#0" id="circle75"/>
	<circle cx="310.561" cy="637.559" r="4" fill="#0" id="circle76"/>
	<circle cx="310.561" cy="653.281" r="4" fill="#0" id="circle77"/>
	<circle cx="310.561" cy="669.002" r="4" fill="#0" id="circle78"/>
	<circle cx="313.705" cy="169.071" r="4" fill="#0" id="circle79"/>
	<circle cx="318.422" cy="184.792" r="4" fill="#0" id="circle80"/>
	<circle cx="318.422" cy="574.675" r="4" fill="#0" id="circle81"/>
	<circle cx="318.422" cy="590.396" r="4" fill="#0" id="circle82"/>
	<circle cx="318.422" cy="606.117" r="4" fill="#0" id="circle83"/>
	<circle cx="323.138" cy="4" r="4" fill="#0" id="circle84"/>
	<circle cx="323.138" cy="414.32" r="4" fill="#0" id="circle85"/>
	<circle cx="326.282" cy="198.941" r="4" fill="#0" id="circle86"/>
	<circle cx="326.282" cy="214.662" r="4" fill="#0" id="circle87"/>
	<circle cx="326.282" cy="266.542" r="4" fill="#0" id="circle88"/>
	<circle cx="326.282" cy="535.372" r="4" fill="#0" id="circle89"/>
	<circle cx="326.282" cy="551.094" r="4" fill="#0" id="circle90"/>
	<circle cx="326.282" cy="673.718" r="4" fill="#0" id="circle91"/>
	<circle cx="334.143" cy="228.811" r="4" fill="#0" id="circle92"/>
	<circle cx="334.143" cy="244.532" r="4" fill="#0" id="circle93"/>
	<circle cx="334.143" cy="496.07" r="4" fill="#0" id="circle94"/>
	<circle cx="334.143" cy="511.791" r="4" fill="#0" id="circle95"/>
	<circle cx="337.287" cy="11.8605" r="4" fill="#0" id="circle96"/>
	<circle cx="337.287" cy="422.181" r="4" fill="#0" id="circle97"/>
	<circle cx="342.003" cy="258.681" r="4" fill="#0" id="circle98"/>
	<circle cx="342.003" cy="456.767" r="4" fill="#0" id="circle99"/>
	<circle cx="342.003" cy="472.488" r="4" fill="#0" id="circle100"/>
	<circle cx="342.003" cy="673.718" r="4" fill="#0" id="circle101"/>
	<circle cx="349.864" cy="431.613" r="4" fill="#0" id="circle102"/>
	<circle cx="351.436" cy="414.32" r="4" fill="#0" id="circle103"/>
	<circle cx="353.008" cy="11.8605" r="4" fill="#0" id="circle104"/>
	<circle cx="357.724" cy="673.718" r="4" fill="#0" id="circle105"/>
	<circle cx="365.585" cy="22.8653" r="4" fill="#0" id="circle106"/>
	<circle cx="373.445" cy="669.002" r="4" fill="#0" id="circle107"/>
	<circle cx="375.017" cy="35.4422" r="4" fill="#0" id="circle108"/>
	<circle cx="389.166" cy="665.857" r="4" fill="#0" id="circle109"/>
	<circle cx="390.739" cy="40.1585" r="4" fill="#0" id="circle110"/>
	<circle cx="401.743" cy="52.7353" r="4" fill="#0" id="circle111"/>
	<circle cx="403.315" cy="657.997" r="4" fill="#0" id="circle112"/>
	<circle cx="417.464" cy="59.0238" r="4" fill="#0" id="circle113"/>
	<circle cx="417.464" cy="650.136" r="4" fill="#0" id="circle114"/>
	<circle cx="428.469" cy="71.6006" r="4" fill="#0" id="circle115"/>
	<circle cx="431.613" cy="642.276" r="4" fill="#0" id="circle116"/>
	<circle cx="441.046" cy="82.6054" r="4" fill="#0" id="circle117"/>
	<circle cx="444.19" cy="629.699" r="4" fill="#0" id="circle118"/>
	<circle cx="455.195" cy="90.4659" r="4" fill="#0" id="circle119"/>
	<circle cx="456.767" cy="618.694" r="4" fill="#0" id="circle120"/>
	<circle cx="467.772" cy="101.471" r="4" fill="#0" id="circle121"/>
	<circle cx="470.916" cy="610.834" r="4" fill="#0" id="circle122"/>
	<circle cx="477.204" cy="114.048" r="4" fill="#0" id="circle123"/>
	<circle cx="477.204" cy="129.769" r="4" fill="#0" id="circle124"/>
	<circle cx="485.065" cy="602.973" r="4" fill="#0" id="circle125"/>
	<circle cx="492.926" cy="134.485" r="4" fill="#0" id="circle126"/>
	<circle cx="492.926" cy="587.252" r="4" fill="#0" id="circle127"/>
	<circle cx="500.786" cy="571.531" r="4" fill="#0" id="circle128"/>
	<circle cx="503.93" cy="147.062" r="4" fill="#0" id="circle129"/>
	<circle cx="513.363" cy="560.526" r="4" fill="#0" id="circle130"/>
	<circle cx="519.651" cy="153.35" r="4" fill="#0" id="circle131"/>
	<circle cx="524.368" cy="169.071" r="4" fill="#0" id="circle132"/>
	<circle cx="524.368" cy="547.949" r="4" fill="#0" id="circle133"/>
	<circle cx="540.089" cy="173.788" r="4" fill="#0" id="circle134"/>
	<circle cx="540.089" cy="540.089" r="4" fill="#0" id="circle135"/>
	<circle cx="551.094" cy="186.365" r="4" fill="#0" id="circle136"/>
	<circle cx="552.666" cy="529.084" r="4" fill="#0" id="circle137"/>
	<circle cx="566.815" cy="192.653" r="4" fill="#0" id="circle138"/>
	<circle cx="568.387" cy="521.223" r="4" fill="#0" id="circle139"/>
	<circle cx="577.819" cy="205.23" r="4" fill="#0" id="circle140"/>
	<circle cx="577.819" cy="508.647" r="4" fill="#0" id="circle141"/>
	<circle cx="590.396" cy="216.235" r="4" fill="#0" id="circle142"/>
	<circle cx="590.396" cy="499.214" r="4" fill="#0" id="circle143"/>
	<circle cx="602.973" cy="225.667" r="4" fill="#0" id="circle144"/>
	<circle cx="602.973" cy="485.065" r="4" fill="#0" id="circle145"/>
	<circle cx="615.55" cy="235.1" r="4" fill="#0" id="circle146"/>
	<circle cx="617.122" cy="477.204" r="4" fill="#0" id="circle147"/>
	<circle cx="626.555" cy="247.677" r="4" fill="#0" id="circle148"/>
	<circle cx="629.699" cy="467.772" r="4" fill="#0" id="circle149"/>
	<circle cx="642.276" cy="252.393" r="4" fill="#0" id="circle150"/>
	<circle cx="642.276" cy="453.623" r="4" fill="#0" id="circle151"/>
	<circle cx="653.281" cy="264.97" r="4" fill="#0" id="circle152"/>
	<circle cx="654.853" cy="442.618" r="4" fill="#0" id="circle153"/>
	<circle cx="665.857" cy="430.041" r="4" fill="#0" id="circle154"/>
	<circle cx="669.002" cy="271.258" r="4" fill="#0" id="circle155"/>
	<circle cx="681.578" cy="422.181" r="4" fill="#0" id="circle156"/>
	<circle cx="684.723" cy="271.258" r="4" fill="#0" id="circle157"/>
	<circle cx="697.3" cy="422.181" r="4" fill="#0" id="circle158"/>
	<circle cx="700.444" cy="271.258" r="4" fill="#0" id="circle159"/>
	<circle cx="713.021" cy="422.181" r="4" fill="#0" id="circle160"/>
	<circle cx="716.165" cy="271.258" r="4" fill="#0" id="circle161"/>
	<circle cx="728.742" cy="422.181" r="4" fill="#0" id="circle162"/>
	<circle cx="731.886" cy="271.258" r="4" fill="#0" id="circle163"/>
	<circle cx="744.463" cy="422.181" r="4" fill="#0" id="circle164"/>
	<circle cx="746.035" cy="279.119" r="4" fill="#0" id="circle165"/>
	<circle cx="758.612" cy="414.32" r="4" fill="#0" id="circle166"/>
	<circle cx="761.756" cy="279.119" r="4" fill="#0" id="circle167"/>
	<circle cx="774.333" cy="409.604" r="4" fill="#0" id="circle168"/>
	<circle cx="775.905" cy="286.979" r="4" fill="#0" id="circle169"/>
	<circle cx="786.91" cy="398.599" r="4" fill="#0" id="circle170"/>
	<circle cx="790.054" cy="294.84" r="4" fill="#0" id="circle171"/>
	<circle cx="799.487" cy="382.878" r="4" fill="#0" id="circle172"/>
	<circle cx="802.631" cy="304.273" r="4" fill="#0" id="circle173"/>
	<circle cx="815.208" cy="315.277" r="4" fill="#0" id="circle174"/>
	<circle cx="815.208" cy="382.878" r="4" fill="#0" id="circle175"/>
	<circle cx="830.929" cy="318.422" r="4" fill="#0" id="circle176"/>
	<circle cx="830.929" cy="382.878" r="4" fill="#0" id="circle177"/>
	<circle cx="846.65" cy="318.422" r="4" fill="#0" id="circle178"/>
	<circle cx="846.65" cy="382.878" r="4" fill="#0" id="circle179"/>
	<circle cx="862.371" cy="318.422" r="4" fill="#0" id="circle180"/>
	<circle cx="862.371" cy="382.878" r="4" fill="#0" id="circle181"/>
	<circle cx="878.092" cy="323.138" r="4" fill="#0" id="circle182"/>
	<circle cx="878.092" cy="382.878" r="4" fill="#0" id="circle183"/>
	<circle cx="893.813" cy="326.282" r="4" fill="#0" id="circle184"/>
	<circle cx="893.813" cy="375.017" r="4" fill="#0" id="circle185"/>
	<circle cx="909.534" cy="326.282" r="4" fill="#0" id="circle186"/>
	<circle cx="909.534" cy="375.017" r="4" fill="#0" id="circle187"/>
	<circle cx="922.111" cy="335.715" r="4" fill="#0" id="circle188"/>
	<circle cx="925.255" cy="375.017" r="4" fill="#0" id="circle189"/>
	<circle cx="937.832" cy="342.003" r="4" fill="#0" id="circle190"/>
	<circle cx="939.404" cy="367.157" r="4" fill="#0" id="circle191"/>
	<circle cx="953.553" cy="342.003" r="4" fill="#0" id="circle192"/>
	<circle cx="955.125" cy="367.157" r="4" fill="#0" id="circle193"/>
	<circle cx="967.702" cy="349.864" r="4" fill="#0" id="circle194"/>
	<circle cx="980.279" cy="359.296" r="4" fill="#0" id="circle195"/>
	<circle cx="996" cy="354.58" r="4" fill="#0" id="circle196"/>
	</g>
</svg>