<?xml version="1.0" encoding="UTF-8" standalone="no"?>
<!-- Created with CurveBenchmark -->
<svg
	xmlns:dc="http://purl.org/dc/elements/1.1/"
	xmlns:cc="http://creativecommons.org/ns#"
	xmlns:rdf="http://www.w3.org/1999/02/22-rdf-syntax-ns#"
	xmlns:svg="http://www.w3.org/2000/svg"
	xmlns="http://www.w3.org/2000/svg"
	xmlns:sodipodi="http://sodipodi.sourceforge.net/DTD/sodipodi-0.dtd"
	xmlns:inkscape="http://www.inkscape.org/namespaces/inkscape"
	width="1000"
	height="1000"
	id="svg2"
	version="1.1"
	sodipodi:docname="manifold/gathan1-bed230.png.txt">
<defs
	id="defs4" />
<metadata
	id="metadata7">
	<rdf:RDF>
		<cc:Work
			rdf:about="">
			<dc:format>image/svg+xml</dc:format>
			<dc:type
				rdf:resource="http://purl.org/dc/dcmitype/StillImage" />
			<dc:title></dc:title>
		</cc:Work>
	</rdf:RDF>
</metadata>
<g
	inkscape:label="Layer 1"
	inkscape:groupmode="layer"
	id="layer1">
	<path style="fill:none;stroke:red;stroke-width:1px;stroke-linecap:butt;stroke-linejoin:miter;stroke-opacity:1" d="M 139.935,262.923 123.752,266.16 z" id="boundary" inkscape:connector-curvature="0" />
	<path style="fill:none;stroke:red;stroke-width:1px;stroke-linecap:butt;stroke-linejoin:miter;stroke-opacity:1" d="M 123.752,266.16 107.569,266.16 z" id="boundary" inkscape:connector-curvature="0" />
	<path style="fill:none;stroke:red;stroke-width:1px;stroke-linecap:butt;stroke-linejoin:miter;stroke-opacity:1" d="M 75.2039,275.869 91.3866,269.396 z" id="boundary" inkscape:connector-curvature="0" />
	<path style="fill:none;stroke:red;stroke-width:1px;stroke-linecap:butt;stroke-linejoin:miter;stroke-opacity:1" d="M 91.3866,269.396 107.569,266.16 z" id="boundary" inkscape:connector-curvature="0" />
	<path style="fill:none;stroke:red;stroke-width:1px;stroke-linecap:butt;stroke-linejoin:miter;stroke-opacity:1" d="M 194.956,230.558 207.902,220.848 z" id="boundary" inkscape:connector-curvature="0" />
	<path style="fill:none;stroke:red;stroke-width:1px;stroke-linecap:butt;stroke-linejoin:miter;stroke-opacity:1" d="M 207.902,220.848 224.085,225.703 z" id="boundary" inkscape:connector-curvature="0" />
	<path style="fill:none;stroke:red;stroke-width:1px;stroke-linecap:butt;stroke-linejoin:miter;stroke-opacity:1" d="M 238.649,233.794 224.085,225.703 z" id="boundary" inkscape:connector-curvature="0" />
	<path style="fill:none;stroke:red;stroke-width:1px;stroke-linecap:butt;stroke-linejoin:miter;stroke-opacity:1" d="M 182.01,240.268 194.956,230.558 z" id="boundary" inkscape:connector-curvature="0" />
	<path style="fill:none;stroke:red;stroke-width:1px;stroke-linecap:butt;stroke-linejoin:miter;stroke-opacity:1" d="M 156.117,259.687 165.827,246.741 z" id="boundary" inkscape:connector-curvature="0" />
	<path style="fill:none;stroke:red;stroke-width:1px;stroke-linecap:butt;stroke-linejoin:miter;stroke-opacity:1" d="M 165.827,246.741 182.01,240.268 z" id="boundary" inkscape:connector-curvature="0" />
	<path style="fill:none;stroke:red;stroke-width:1px;stroke-linecap:butt;stroke-linejoin:miter;stroke-opacity:1" d="M 156.117,259.687 139.935,262.923 z" id="boundary" inkscape:connector-curvature="0" />
	<path style="fill:none;stroke:red;stroke-width:1px;stroke-linecap:butt;stroke-linejoin:miter;stroke-opacity:1" d="M 75.2039,275.869 59.0212,279.106 z" id="boundary" inkscape:connector-curvature="0" />
	<path style="fill:none;stroke:red;stroke-width:1px;stroke-linecap:butt;stroke-linejoin:miter;stroke-opacity:1" d="M 4,317.945 13.7096,304.998 z" id="boundary" inkscape:connector-curvature="0" />
	<path style="fill:none;stroke:red;stroke-width:1px;stroke-linecap:butt;stroke-linejoin:miter;stroke-opacity:1" d="M 7.23654,334.127 4,317.945 z" id="boundary" inkscape:connector-curvature="0" />
	<path style="fill:none;stroke:red;stroke-width:1px;stroke-linecap:butt;stroke-linejoin:miter;stroke-opacity:1" d="M 16.9462,347.073 7.23654,334.127 z" id="boundary" inkscape:connector-curvature="0" />
	<path style="fill:none;stroke:red;stroke-width:1px;stroke-linecap:butt;stroke-linejoin:miter;stroke-opacity:1" d="M 23.4192,395.622 18.5644,379.439 z" id="boundary" inkscape:connector-curvature="0" />
	<path style="fill:none;stroke:red;stroke-width:1px;stroke-linecap:butt;stroke-linejoin:miter;stroke-opacity:1" d="M 16.9462,363.256 18.5644,379.439 z" id="boundary" inkscape:connector-curvature="0" />
	<path style="fill:none;stroke:red;stroke-width:1px;stroke-linecap:butt;stroke-linejoin:miter;stroke-opacity:1" d="M 16.9462,347.073 16.9462,363.256 z" id="boundary" inkscape:connector-curvature="0" />
	<path style="fill:none;stroke:red;stroke-width:1px;stroke-linecap:butt;stroke-linejoin:miter;stroke-opacity:1" d="M 13.7096,304.998 26.6558,292.052 z" id="boundary" inkscape:connector-curvature="0" />
	<path style="fill:none;stroke:red;stroke-width:1px;stroke-linecap:butt;stroke-linejoin:miter;stroke-opacity:1" d="M 42.8385,285.579 59.0212,279.106 z" id="boundary" inkscape:connector-curvature="0" />
	<path style="fill:none;stroke:red;stroke-width:1px;stroke-linecap:butt;stroke-linejoin:miter;stroke-opacity:1" d="M 23.4192,395.622 23.4192,411.804 z" id="boundary" inkscape:connector-curvature="0" />
	<path style="fill:none;stroke:red;stroke-width:1px;stroke-linecap:butt;stroke-linejoin:miter;stroke-opacity:1" d="M 23.4192,427.987 23.4192,411.804 z" id="boundary" inkscape:connector-curvature="0" />
	<path style="fill:none;stroke:red;stroke-width:1px;stroke-linecap:butt;stroke-linejoin:miter;stroke-opacity:1" d="M 26.6558,292.052 42.8385,285.579 z" id="boundary" inkscape:connector-curvature="0" />
	<path style="fill:none;stroke:red;stroke-width:1px;stroke-linecap:butt;stroke-linejoin:miter;stroke-opacity:1" d="M 23.4192,427.987 16.9462,444.17 z" id="boundary" inkscape:connector-curvature="0" />
	<path style="fill:none;stroke:red;stroke-width:1px;stroke-linecap:butt;stroke-linejoin:miter;stroke-opacity:1" d="M 238.649,233.794 249.977,246.741 z" id="boundary" inkscape:connector-curvature="0" />
	<path style="fill:none;stroke:red;stroke-width:1px;stroke-linecap:butt;stroke-linejoin:miter;stroke-opacity:1" d="M 266.16,248.359 249.977,246.741 z" id="boundary" inkscape:connector-curvature="0" />
	<path style="fill:none;stroke:red;stroke-width:1px;stroke-linecap:butt;stroke-linejoin:miter;stroke-opacity:1" d="M 290.434,262.923 274.251,262.923 z" id="boundary" inkscape:connector-curvature="0" />
	<path style="fill:none;stroke:red;stroke-width:1px;stroke-linecap:butt;stroke-linejoin:miter;stroke-opacity:1" d="M 274.251,262.923 266.16,248.359 z" id="boundary" inkscape:connector-curvature="0" />
	<path style="fill:none;stroke:red;stroke-width:1px;stroke-linecap:butt;stroke-linejoin:miter;stroke-opacity:1" d="M 306.617,262.923 290.434,262.923 z" id="boundary" inkscape:connector-curvature="0" />
	<path style="fill:none;stroke:red;stroke-width:1px;stroke-linecap:butt;stroke-linejoin:miter;stroke-opacity:1" d="M 322.799,266.16 306.617,262.923 z" id="boundary" inkscape:connector-curvature="0" />
	<path style="fill:none;stroke:red;stroke-width:1px;stroke-linecap:butt;stroke-linejoin:miter;stroke-opacity:1" d="M 504.046,254.832 516.992,241.886 z" id="boundary" inkscape:connector-curvature="0" />
	<path style="fill:none;stroke:red;stroke-width:1px;stroke-linecap:butt;stroke-linejoin:miter;stroke-opacity:1" d="M 338.982,269.396 322.799,266.16 z" id="boundary" inkscape:connector-curvature="0" />
	<path style="fill:none;stroke:red;stroke-width:1px;stroke-linecap:butt;stroke-linejoin:miter;stroke-opacity:1" d="M 516.992,241.886 529.938,230.558 z" id="boundary" inkscape:connector-curvature="0" />
	<path style="fill:none;stroke:red;stroke-width:1px;stroke-linecap:butt;stroke-linejoin:miter;stroke-opacity:1" d="M 544.502,220.848 529.938,230.558 z" id="boundary" inkscape:connector-curvature="0" />
	<path style="fill:none;stroke:red;stroke-width:1px;stroke-linecap:butt;stroke-linejoin:miter;stroke-opacity:1" d="M 578.486,436.078 562.303,436.078 z" id="boundary" inkscape:connector-curvature="0" />
	<path style="fill:none;stroke:red;stroke-width:1px;stroke-linecap:butt;stroke-linejoin:miter;stroke-opacity:1" d="M 504.046,254.832 489.481,262.923 z" id="boundary" inkscape:connector-curvature="0" />
	<path style="fill:none;stroke:red;stroke-width:1px;stroke-linecap:butt;stroke-linejoin:miter;stroke-opacity:1" d="M 559.067,212.757 544.502,220.848 z" id="boundary" inkscape:connector-curvature="0" />
	<path style="fill:none;stroke:red;stroke-width:1px;stroke-linecap:butt;stroke-linejoin:miter;stroke-opacity:1" d="M 355.165,275.869 338.982,269.396 z" id="boundary" inkscape:connector-curvature="0" />
	<path style="fill:none;stroke:red;stroke-width:1px;stroke-linecap:butt;stroke-linejoin:miter;stroke-opacity:1" d="M 371.347,279.106 355.165,275.869 z" id="boundary" inkscape:connector-curvature="0" />
	<path style="fill:none;stroke:red;stroke-width:1px;stroke-linecap:butt;stroke-linejoin:miter;stroke-opacity:1" d="M 387.53,285.579 371.347,279.106 z" id="boundary" inkscape:connector-curvature="0" />
	<path style="fill:none;stroke:red;stroke-width:1px;stroke-linecap:butt;stroke-linejoin:miter;stroke-opacity:1" d="M 403.713,292.052 387.53,285.579 z" id="boundary" inkscape:connector-curvature="0" />
	<path style="fill:none;stroke:red;stroke-width:1px;stroke-linecap:butt;stroke-linejoin:miter;stroke-opacity:1" d="M 479.772,275.869 489.481,262.923 z" id="boundary" inkscape:connector-curvature="0" />
	<path style="fill:none;stroke:red;stroke-width:1px;stroke-linecap:butt;stroke-linejoin:miter;stroke-opacity:1" d="M 479.772,275.869 468.444,292.052 z" id="boundary" inkscape:connector-curvature="0" />
	<path style="fill:none;stroke:red;stroke-width:1px;stroke-linecap:butt;stroke-linejoin:miter;stroke-opacity:1" d="M 468.444,292.052 452.261,295.289 z" id="boundary" inkscape:connector-curvature="0" />
	<path style="fill:none;stroke:red;stroke-width:1px;stroke-linecap:butt;stroke-linejoin:miter;stroke-opacity:1" d="M 403.713,292.052 419.896,295.289 z" id="boundary" inkscape:connector-curvature="0" />
	<path style="fill:none;stroke:red;stroke-width:1px;stroke-linecap:butt;stroke-linejoin:miter;stroke-opacity:1" d="M 436.078,295.289 419.896,295.289 z" id="boundary" inkscape:connector-curvature="0" />
	<path style="fill:none;stroke:red;stroke-width:1px;stroke-linecap:butt;stroke-linejoin:miter;stroke-opacity:1" d="M 452.261,295.289 436.078,295.289 z" id="boundary" inkscape:connector-curvature="0" />
	<path style="fill:none;stroke:red;stroke-width:1px;stroke-linecap:butt;stroke-linejoin:miter;stroke-opacity:1" d="M 33.1289,442.551 49.3116,442.551 z" id="boundary" inkscape:connector-curvature="0" />
	<path style="fill:none;stroke:red;stroke-width:1px;stroke-linecap:butt;stroke-linejoin:miter;stroke-opacity:1" d="M 49.3116,442.551 65.4943,445.788 z" id="boundary" inkscape:connector-curvature="0" />
	<path style="fill:none;stroke:red;stroke-width:1px;stroke-linecap:butt;stroke-linejoin:miter;stroke-opacity:1" d="M 78.4405,455.498 65.4943,445.788 z" id="boundary" inkscape:connector-curvature="0" />
	<path style="fill:none;stroke:red;stroke-width:1px;stroke-linecap:butt;stroke-linejoin:miter;stroke-opacity:1" d="M 94.6232,452.261 78.4405,455.498 z" id="boundary" inkscape:connector-curvature="0" />
	<path style="fill:none;stroke:red;stroke-width:1px;stroke-linecap:butt;stroke-linejoin:miter;stroke-opacity:1" d="M 107.569,442.551 123.752,439.315 z" id="boundary" inkscape:connector-curvature="0" />
	<path style="fill:none;stroke:red;stroke-width:1px;stroke-linecap:butt;stroke-linejoin:miter;stroke-opacity:1" d="M 123.752,439.315 139.935,444.17 z" id="boundary" inkscape:connector-curvature="0" />
	<path style="fill:none;stroke:red;stroke-width:1px;stroke-linecap:butt;stroke-linejoin:miter;stroke-opacity:1" d="M 154.499,452.261 139.935,444.17 z" id="boundary" inkscape:connector-curvature="0" />
	<path style="fill:none;stroke:red;stroke-width:1px;stroke-linecap:butt;stroke-linejoin:miter;stroke-opacity:1" d="M 94.6232,452.261 107.569,442.551 z" id="boundary" inkscape:connector-curvature="0" />
	<path style="fill:none;stroke:red;stroke-width:1px;stroke-linecap:butt;stroke-linejoin:miter;stroke-opacity:1" d="M 154.499,452.261 167.445,461.971 z" id="boundary" inkscape:connector-curvature="0" />
	<path style="fill:none;stroke:red;stroke-width:1px;stroke-linecap:butt;stroke-linejoin:miter;stroke-opacity:1" d="M 13.7096,476.535 10.4731,460.352 z" id="boundary" inkscape:connector-curvature="0" />
	<path style="fill:none;stroke:red;stroke-width:1px;stroke-linecap:butt;stroke-linejoin:miter;stroke-opacity:1" d="M 10.4731,460.352 16.9462,444.17 z" id="boundary" inkscape:connector-curvature="0" />
	<path style="fill:none;stroke:red;stroke-width:1px;stroke-linecap:butt;stroke-linejoin:miter;stroke-opacity:1" d="M 26.6558,465.207 28.2741,484.626 z" id="boundary" inkscape:connector-curvature="0" />
	<path style="fill:none;stroke:red;stroke-width:1px;stroke-linecap:butt;stroke-linejoin:miter;stroke-opacity:1" d="M 13.7096,476.535 10.4731,499.191 z" id="boundary" inkscape:connector-curvature="0" />
	<path style="fill:none;stroke:red;stroke-width:1px;stroke-linecap:butt;stroke-linejoin:miter;stroke-opacity:1" d="M 28.2741,484.626 26.6558,500.809 z" id="boundary" inkscape:connector-curvature="0" />
	<path style="fill:none;stroke:red;stroke-width:1px;stroke-linecap:butt;stroke-linejoin:miter;stroke-opacity:1" d="M 26.6558,500.809 10.4731,499.191 z" id="boundary" inkscape:connector-curvature="0" />
	<path style="fill:none;stroke:red;stroke-width:1px;stroke-linecap:butt;stroke-linejoin:miter;stroke-opacity:1" d="M 183.628,468.444 167.445,461.971 z" id="boundary" inkscape:connector-curvature="0" />
	<path style="fill:none;stroke:red;stroke-width:1px;stroke-linecap:butt;stroke-linejoin:miter;stroke-opacity:1" d="M 262.923,455.498 248.359,465.207 z" id="boundary" inkscape:connector-curvature="0" />
	<path style="fill:none;stroke:red;stroke-width:1px;stroke-linecap:butt;stroke-linejoin:miter;stroke-opacity:1" d="M 199.811,471.68 183.628,468.444 z" id="boundary" inkscape:connector-curvature="0" />
	<path style="fill:none;stroke:red;stroke-width:1px;stroke-linecap:butt;stroke-linejoin:miter;stroke-opacity:1" d="M 232.176,471.68 215.993,474.917 z" id="boundary" inkscape:connector-curvature="0" />
	<path style="fill:none;stroke:red;stroke-width:1px;stroke-linecap:butt;stroke-linejoin:miter;stroke-opacity:1" d="M 215.993,474.917 199.811,471.68 z" id="boundary" inkscape:connector-curvature="0" />
	<path style="fill:none;stroke:red;stroke-width:1px;stroke-linecap:butt;stroke-linejoin:miter;stroke-opacity:1" d="M 248.359,465.207 232.176,471.68 z" id="boundary" inkscape:connector-curvature="0" />
	<path style="fill:none;stroke:red;stroke-width:1px;stroke-linecap:butt;stroke-linejoin:miter;stroke-opacity:1" d="M 416.659,437.697 432.842,436.078 z" id="boundary" inkscape:connector-curvature="0" />
	<path style="fill:none;stroke:red;stroke-width:1px;stroke-linecap:butt;stroke-linejoin:miter;stroke-opacity:1" d="M 449.024,436.078 432.842,436.078 z" id="boundary" inkscape:connector-curvature="0" />
	<path style="fill:none;stroke:red;stroke-width:1px;stroke-linecap:butt;stroke-linejoin:miter;stroke-opacity:1" d="M 449.024,436.078 465.207,436.078 z" id="boundary" inkscape:connector-curvature="0" />
	<path style="fill:none;stroke:red;stroke-width:1px;stroke-linecap:butt;stroke-linejoin:miter;stroke-opacity:1" d="M 309.853,439.315 293.67,442.551 z" id="boundary" inkscape:connector-curvature="0" />
	<path style="fill:none;stroke:red;stroke-width:1px;stroke-linecap:butt;stroke-linejoin:miter;stroke-opacity:1" d="M 465.207,436.078 481.39,436.078 z" id="boundary" inkscape:connector-curvature="0" />
	<path style="fill:none;stroke:red;stroke-width:1px;stroke-linecap:butt;stroke-linejoin:miter;stroke-opacity:1" d="M 497.573,436.078 481.39,436.078 z" id="boundary" inkscape:connector-curvature="0" />
	<path style="fill:none;stroke:red;stroke-width:1px;stroke-linecap:butt;stroke-linejoin:miter;stroke-opacity:1" d="M 513.755,436.078 497.573,436.078 z" id="boundary" inkscape:connector-curvature="0" />
	<path style="fill:none;stroke:red;stroke-width:1px;stroke-linecap:butt;stroke-linejoin:miter;stroke-opacity:1" d="M 546.121,436.078 529.938,436.078 z" id="boundary" inkscape:connector-curvature="0" />
	<path style="fill:none;stroke:red;stroke-width:1px;stroke-linecap:butt;stroke-linejoin:miter;stroke-opacity:1" d="M 562.303,436.078 546.121,436.078 z" id="boundary" inkscape:connector-curvature="0" />
	<path style="fill:none;stroke:red;stroke-width:1px;stroke-linecap:butt;stroke-linejoin:miter;stroke-opacity:1" d="M 513.755,436.078 529.938,436.078 z" id="boundary" inkscape:connector-curvature="0" />
	<path style="fill:none;stroke:red;stroke-width:1px;stroke-linecap:butt;stroke-linejoin:miter;stroke-opacity:1" d="M 277.488,447.406 293.67,442.551 z" id="boundary" inkscape:connector-curvature="0" />
	<path style="fill:none;stroke:red;stroke-width:1px;stroke-linecap:butt;stroke-linejoin:miter;stroke-opacity:1" d="M 277.488,447.406 262.923,455.498 z" id="boundary" inkscape:connector-curvature="0" />
	<path style="fill:none;stroke:red;stroke-width:1px;stroke-linecap:butt;stroke-linejoin:miter;stroke-opacity:1" d="M 369.729,442.551 353.546,449.024 z" id="boundary" inkscape:connector-curvature="0" />
	<path style="fill:none;stroke:red;stroke-width:1px;stroke-linecap:butt;stroke-linejoin:miter;stroke-opacity:1" d="M 309.853,439.315 324.418,447.406 z" id="boundary" inkscape:connector-curvature="0" />
	<path style="fill:none;stroke:red;stroke-width:1px;stroke-linecap:butt;stroke-linejoin:miter;stroke-opacity:1" d="M 353.546,449.024 337.364,457.116 z" id="boundary" inkscape:connector-curvature="0" />
	<path style="fill:none;stroke:red;stroke-width:1px;stroke-linecap:butt;stroke-linejoin:miter;stroke-opacity:1" d="M 337.364,457.116 324.418,447.406 z" id="boundary" inkscape:connector-curvature="0" />
	<path style="fill:none;stroke:red;stroke-width:1px;stroke-linecap:butt;stroke-linejoin:miter;stroke-opacity:1" d="M 392.385,458.734 385.912,442.551 z" id="boundary" inkscape:connector-curvature="0" />
	<path style="fill:none;stroke:red;stroke-width:1px;stroke-linecap:butt;stroke-linejoin:miter;stroke-opacity:1" d="M 416.659,453.879 413.423,473.299 z" id="boundary" inkscape:connector-curvature="0" />
	<path style="fill:none;stroke:red;stroke-width:1px;stroke-linecap:butt;stroke-linejoin:miter;stroke-opacity:1" d="M 392.385,458.734 395.622,474.917 z" id="boundary" inkscape:connector-curvature="0" />
	<path style="fill:none;stroke:red;stroke-width:1px;stroke-linecap:butt;stroke-linejoin:miter;stroke-opacity:1" d="M 413.423,473.299 398.858,495.954 z" id="boundary" inkscape:connector-curvature="0" />
	<path style="fill:none;stroke:red;stroke-width:1px;stroke-linecap:butt;stroke-linejoin:miter;stroke-opacity:1" d="M 398.858,495.954 395.622,474.917 z" id="boundary" inkscape:connector-curvature="0" />
	<path style="fill:none;stroke:red;stroke-width:1px;stroke-linecap:butt;stroke-linejoin:miter;stroke-opacity:1" d="M 369.729,442.551 385.912,442.551 z" id="boundary" inkscape:connector-curvature="0" />
	<path style="fill:none;stroke:red;stroke-width:1px;stroke-linecap:butt;stroke-linejoin:miter;stroke-opacity:1" d="M 559.067,212.757 575.25,207.902 z" id="boundary" inkscape:connector-curvature="0" />
	<path style="fill:none;stroke:red;stroke-width:1px;stroke-linecap:butt;stroke-linejoin:miter;stroke-opacity:1" d="M 745.168,65.4943 728.985,68.7308 z" id="boundary" inkscape:connector-curvature="0" />
	<path style="fill:none;stroke:red;stroke-width:1px;stroke-linecap:butt;stroke-linejoin:miter;stroke-opacity:1" d="M 748.405,49.3116 745.168,65.4943 z" id="boundary" inkscape:connector-curvature="0" />
	<path style="fill:none;stroke:red;stroke-width:1px;stroke-linecap:butt;stroke-linejoin:miter;stroke-opacity:1" d="M 680.437,84.9135 696.62,78.4405 z" id="boundary" inkscape:connector-curvature="0" />
	<path style="fill:none;stroke:red;stroke-width:1px;stroke-linecap:butt;stroke-linejoin:miter;stroke-opacity:1" d="M 712.803,71.9674 696.62,78.4405 z" id="boundary" inkscape:connector-curvature="0" />
	<path style="fill:none;stroke:red;stroke-width:1px;stroke-linecap:butt;stroke-linejoin:miter;stroke-opacity:1" d="M 712.803,71.9674 728.985,68.7308 z" id="boundary" inkscape:connector-curvature="0" />
	<path style="fill:none;stroke:red;stroke-width:1px;stroke-linecap:butt;stroke-linejoin:miter;stroke-opacity:1" d="M 785.625,18.5644 793.716,4 z" id="boundary" inkscape:connector-curvature="0" />
	<path style="fill:none;stroke:red;stroke-width:1px;stroke-linecap:butt;stroke-linejoin:miter;stroke-opacity:1" d="M 793.716,4 809.899,4 z" id="boundary" inkscape:connector-curvature="0" />
	<path style="fill:none;stroke:red;stroke-width:1px;stroke-linecap:butt;stroke-linejoin:miter;stroke-opacity:1" d="M 779.152,34.7471 785.625,18.5644 z" id="boundary" inkscape:connector-curvature="0" />
	<path style="fill:none;stroke:red;stroke-width:1px;stroke-linecap:butt;stroke-linejoin:miter;stroke-opacity:1" d="M 762.969,41.2202 779.152,34.7471 z" id="boundary" inkscape:connector-curvature="0" />
	<path style="fill:none;stroke:red;stroke-width:1px;stroke-linecap:butt;stroke-linejoin:miter;stroke-opacity:1" d="M 762.969,41.2202 748.405,49.3116 z" id="boundary" inkscape:connector-curvature="0" />
	<path style="fill:none;stroke:red;stroke-width:1px;stroke-linecap:butt;stroke-linejoin:miter;stroke-opacity:1" d="M 680.437,84.9135 664.254,91.3866 z" id="boundary" inkscape:connector-curvature="0" />
	<path style="fill:none;stroke:red;stroke-width:1px;stroke-linecap:butt;stroke-linejoin:miter;stroke-opacity:1" d="M 623.798,203.047 607.615,204.666 z" id="boundary" inkscape:connector-curvature="0" />
	<path style="fill:none;stroke:red;stroke-width:1px;stroke-linecap:butt;stroke-linejoin:miter;stroke-opacity:1" d="M 625.416,136.698 625.416,120.515 z" id="boundary" inkscape:connector-curvature="0" />
	<path style="fill:none;stroke:red;stroke-width:1px;stroke-linecap:butt;stroke-linejoin:miter;stroke-opacity:1" d="M 625.416,120.515 635.126,107.569 z" id="boundary" inkscape:connector-curvature="0" />
	<path style="fill:none;stroke:red;stroke-width:1px;stroke-linecap:butt;stroke-linejoin:miter;stroke-opacity:1" d="M 575.25,207.902 591.432,204.666 z" id="boundary" inkscape:connector-curvature="0" />
	<path style="fill:none;stroke:red;stroke-width:1px;stroke-linecap:butt;stroke-linejoin:miter;stroke-opacity:1" d="M 591.432,204.666 607.615,204.666 z" id="boundary" inkscape:connector-curvature="0" />
	<path style="fill:none;stroke:red;stroke-width:1px;stroke-linecap:butt;stroke-linejoin:miter;stroke-opacity:1" d="M 664.254,91.3866 651.308,101.096 z" id="boundary" inkscape:connector-curvature="0" />
	<path style="fill:none;stroke:red;stroke-width:1px;stroke-linecap:butt;stroke-linejoin:miter;stroke-opacity:1" d="M 651.308,101.096 635.126,107.569 z" id="boundary" inkscape:connector-curvature="0" />
	<path style="fill:none;stroke:red;stroke-width:1px;stroke-linecap:butt;stroke-linejoin:miter;stroke-opacity:1" d="M 633.507,151.263 625.416,136.698 z" id="boundary" inkscape:connector-curvature="0" />
	<path style="fill:none;stroke:red;stroke-width:1px;stroke-linecap:butt;stroke-linejoin:miter;stroke-opacity:1" d="M 635.126,167.445 636.744,193.338 z" id="boundary" inkscape:connector-curvature="0" />
	<path style="fill:none;stroke:red;stroke-width:1px;stroke-linecap:butt;stroke-linejoin:miter;stroke-opacity:1" d="M 636.744,193.338 623.798,203.047 z" id="boundary" inkscape:connector-curvature="0" />
	<path style="fill:none;stroke:red;stroke-width:1px;stroke-linecap:butt;stroke-linejoin:miter;stroke-opacity:1" d="M 635.126,167.445 633.507,151.263 z" id="boundary" inkscape:connector-curvature="0" />
	<path style="fill:none;stroke:red;stroke-width:1px;stroke-linecap:butt;stroke-linejoin:miter;stroke-opacity:1" d="M 809.899,4 819.608,16.9462 z" id="boundary" inkscape:connector-curvature="0" />
	<path style="fill:none;stroke:red;stroke-width:1px;stroke-linecap:butt;stroke-linejoin:miter;stroke-opacity:1" d="M 819.608,16.9462 824.463,33.1289 z" id="boundary" inkscape:connector-curvature="0" />
	<path style="fill:none;stroke:red;stroke-width:1px;stroke-linecap:butt;stroke-linejoin:miter;stroke-opacity:1" d="M 840.646,39.602 824.463,33.1289 z" id="boundary" inkscape:connector-curvature="0" />
	<path style="fill:none;stroke:red;stroke-width:1px;stroke-linecap:butt;stroke-linejoin:miter;stroke-opacity:1" d="M 840.646,39.602 855.21,47.6933 z" id="boundary" inkscape:connector-curvature="0" />
	<path style="fill:none;stroke:red;stroke-width:1px;stroke-linecap:butt;stroke-linejoin:miter;stroke-opacity:1" d="M 855.21,47.6933 863.302,62.2577 z" id="boundary" inkscape:connector-curvature="0" />
	<path style="fill:none;stroke:red;stroke-width:1px;stroke-linecap:butt;stroke-linejoin:miter;stroke-opacity:1" d="M 879.485,65.4943 863.302,62.2577 z" id="boundary" inkscape:connector-curvature="0" />
	<path style="fill:none;stroke:red;stroke-width:1px;stroke-linecap:butt;stroke-linejoin:miter;stroke-opacity:1" d="M 879.485,65.4943 895.667,68.7308 z" id="boundary" inkscape:connector-curvature="0" />
	<path style="fill:none;stroke:red;stroke-width:1px;stroke-linecap:butt;stroke-linejoin:miter;stroke-opacity:1" d="M 911.85,71.9674 895.667,68.7308 z" id="boundary" inkscape:connector-curvature="0" />
	<path style="fill:none;stroke:red;stroke-width:1px;stroke-linecap:butt;stroke-linejoin:miter;stroke-opacity:1" d="M 911.85,71.9674 928.033,78.4405 z" id="boundary" inkscape:connector-curvature="0" />
	<path style="fill:none;stroke:red;stroke-width:1px;stroke-linecap:butt;stroke-linejoin:miter;stroke-opacity:1" d="M 928.033,78.4405 944.215,84.9135 z" id="boundary" inkscape:connector-curvature="0" />
	<path style="fill:none;stroke:red;stroke-width:1px;stroke-linecap:butt;stroke-linejoin:miter;stroke-opacity:1" d="M 944.215,84.9135 957.162,94.6232 z" id="boundary" inkscape:connector-curvature="0" />
	<path style="fill:none;stroke:red;stroke-width:1px;stroke-linecap:butt;stroke-linejoin:miter;stroke-opacity:1" d="M 973.344,101.096 957.162,94.6232 z" id="boundary" inkscape:connector-curvature="0" />
	<path style="fill:none;stroke:red;stroke-width:1px;stroke-linecap:butt;stroke-linejoin:miter;stroke-opacity:1" d="M 989.527,149.644 989.527,165.827 z" id="boundary" inkscape:connector-curvature="0" />
	<path style="fill:none;stroke:red;stroke-width:1px;stroke-linecap:butt;stroke-linejoin:miter;stroke-opacity:1" d="M 973.344,101.096 986.29,110.806 z" id="boundary" inkscape:connector-curvature="0" />
	<path style="fill:none;stroke:red;stroke-width:1px;stroke-linecap:butt;stroke-linejoin:miter;stroke-opacity:1" d="M 986.29,182.01 986.29,198.192 z" id="boundary" inkscape:connector-curvature="0" />
	<path style="fill:none;stroke:red;stroke-width:1px;stroke-linecap:butt;stroke-linejoin:miter;stroke-opacity:1" d="M 986.29,198.192 986.29,214.375 z" id="boundary" inkscape:connector-curvature="0" />
	<path style="fill:none;stroke:red;stroke-width:1px;stroke-linecap:butt;stroke-linejoin:miter;stroke-opacity:1" d="M 986.29,230.558 986.29,214.375 z" id="boundary" inkscape:connector-curvature="0" />
	<path style="fill:none;stroke:red;stroke-width:1px;stroke-linecap:butt;stroke-linejoin:miter;stroke-opacity:1" d="M 986.29,182.01 989.527,165.827 z" id="boundary" inkscape:connector-curvature="0" />
	<path style="fill:none;stroke:red;stroke-width:1px;stroke-linecap:butt;stroke-linejoin:miter;stroke-opacity:1" d="M 986.29,230.558 986.29,246.741 z" id="boundary" inkscape:connector-curvature="0" />
	<path style="fill:none;stroke:red;stroke-width:1px;stroke-linecap:butt;stroke-linejoin:miter;stroke-opacity:1" d="M 989.527,149.644 996,123.752 z" id="boundary" inkscape:connector-curvature="0" />
	<path style="fill:none;stroke:red;stroke-width:1px;stroke-linecap:butt;stroke-linejoin:miter;stroke-opacity:1" d="M 986.29,110.806 996,123.752 z" id="boundary" inkscape:connector-curvature="0" />
	<path style="fill:none;stroke:red;stroke-width:1px;stroke-linecap:butt;stroke-linejoin:miter;stroke-opacity:1" d="M 989.527,279.106 986.29,262.923 z" id="boundary" inkscape:connector-curvature="0" />
	<path style="fill:none;stroke:red;stroke-width:1px;stroke-linecap:butt;stroke-linejoin:miter;stroke-opacity:1" d="M 986.29,262.923 986.29,246.741 z" id="boundary" inkscape:connector-curvature="0" />
	<path style="fill:none;stroke:red;stroke-width:1px;stroke-linecap:butt;stroke-linejoin:miter;stroke-opacity:1" d="M 989.527,279.106 989.527,295.289 z" id="boundary" inkscape:connector-curvature="0" />
	<path style="fill:none;stroke:red;stroke-width:1px;stroke-linecap:butt;stroke-linejoin:miter;stroke-opacity:1" d="M 578.486,436.078 594.669,436.078 z" id="boundary" inkscape:connector-curvature="0" />
	<path style="fill:none;stroke:red;stroke-width:1px;stroke-linecap:butt;stroke-linejoin:miter;stroke-opacity:1" d="M 610.852,436.078 627.034,436.078 z" id="boundary" inkscape:connector-curvature="0" />
	<path style="fill:none;stroke:red;stroke-width:1px;stroke-linecap:butt;stroke-linejoin:miter;stroke-opacity:1" d="M 662.636,436.078 646.454,440.933 z" id="boundary" inkscape:connector-curvature="0" />
	<path style="fill:none;stroke:red;stroke-width:1px;stroke-linecap:butt;stroke-linejoin:miter;stroke-opacity:1" d="M 646.454,440.933 627.034,436.078 z" id="boundary" inkscape:connector-curvature="0" />
	<path style="fill:none;stroke:red;stroke-width:1px;stroke-linecap:butt;stroke-linejoin:miter;stroke-opacity:1" d="M 610.852,436.078 594.669,436.078 z" id="boundary" inkscape:connector-curvature="0" />
	<path style="fill:none;stroke:red;stroke-width:1px;stroke-linecap:butt;stroke-linejoin:miter;stroke-opacity:1" d="M 678.819,436.078 695.002,436.078 z" id="boundary" inkscape:connector-curvature="0" />
	<path style="fill:none;stroke:red;stroke-width:1px;stroke-linecap:butt;stroke-linejoin:miter;stroke-opacity:1" d="M 711.184,436.078 695.002,436.078 z" id="boundary" inkscape:connector-curvature="0" />
	<path style="fill:none;stroke:red;stroke-width:1px;stroke-linecap:butt;stroke-linejoin:miter;stroke-opacity:1" d="M 727.367,436.078 743.55,436.078 z" id="boundary" inkscape:connector-curvature="0" />
	<path style="fill:none;stroke:red;stroke-width:1px;stroke-linecap:butt;stroke-linejoin:miter;stroke-opacity:1" d="M 759.732,436.078 743.55,436.078 z" id="boundary" inkscape:connector-curvature="0" />
	<path style="fill:none;stroke:red;stroke-width:1px;stroke-linecap:butt;stroke-linejoin:miter;stroke-opacity:1" d="M 727.367,436.078 711.184,436.078 z" id="boundary" inkscape:connector-curvature="0" />
	<path style="fill:none;stroke:red;stroke-width:1px;stroke-linecap:butt;stroke-linejoin:miter;stroke-opacity:1" d="M 678.819,436.078 662.636,436.078 z" id="boundary" inkscape:connector-curvature="0" />
	<path style="fill:none;stroke:red;stroke-width:1px;stroke-linecap:butt;stroke-linejoin:miter;stroke-opacity:1" d="M 628.653,479.772 625.416,463.589 z" id="boundary" inkscape:connector-curvature="0" />
	<path style="fill:none;stroke:red;stroke-width:1px;stroke-linecap:butt;stroke-linejoin:miter;stroke-opacity:1" d="M 625.416,495.954 628.653,479.772 z" id="boundary" inkscape:connector-curvature="0" />
	<path style="fill:none;stroke:red;stroke-width:1px;stroke-linecap:butt;stroke-linejoin:miter;stroke-opacity:1" d="M 641.599,497.573 625.416,495.954 z" id="boundary" inkscape:connector-curvature="0" />
	<path style="fill:none;stroke:red;stroke-width:1px;stroke-linecap:butt;stroke-linejoin:miter;stroke-opacity:1" d="M 775.915,436.078 792.098,436.078 z" id="boundary" inkscape:connector-curvature="0" />
	<path style="fill:none;stroke:red;stroke-width:1px;stroke-linecap:butt;stroke-linejoin:miter;stroke-opacity:1" d="M 808.281,436.078 792.098,436.078 z" id="boundary" inkscape:connector-curvature="0" />
	<path style="fill:none;stroke:red;stroke-width:1px;stroke-linecap:butt;stroke-linejoin:miter;stroke-opacity:1" d="M 808.281,436.078 824.463,436.078 z" id="boundary" inkscape:connector-curvature="0" />
	<path style="fill:none;stroke:red;stroke-width:1px;stroke-linecap:butt;stroke-linejoin:miter;stroke-opacity:1" d="M 840.646,436.078 824.463,436.078 z" id="boundary" inkscape:connector-curvature="0" />
	<path style="fill:none;stroke:red;stroke-width:1px;stroke-linecap:butt;stroke-linejoin:miter;stroke-opacity:1" d="M 856.829,436.078 840.646,436.078 z" id="boundary" inkscape:connector-curvature="0" />
	<path style="fill:none;stroke:red;stroke-width:1px;stroke-linecap:butt;stroke-linejoin:miter;stroke-opacity:1" d="M 759.732,436.078 775.915,436.078 z" id="boundary" inkscape:connector-curvature="0" />
	<path style="fill:none;stroke:red;stroke-width:1px;stroke-linecap:butt;stroke-linejoin:miter;stroke-opacity:1" d="M 989.527,295.289 992.763,311.471 z" id="boundary" inkscape:connector-curvature="0" />
	<path style="fill:none;stroke:red;stroke-width:1px;stroke-linecap:butt;stroke-linejoin:miter;stroke-opacity:1" d="M 992.763,311.471 992.763,327.654 z" id="boundary" inkscape:connector-curvature="0" />
	<path style="fill:none;stroke:red;stroke-width:1px;stroke-linecap:butt;stroke-linejoin:miter;stroke-opacity:1" d="M 889.194,436.078 873.011,436.078 z" id="boundary" inkscape:connector-curvature="0" />
	<path style="fill:none;stroke:red;stroke-width:1px;stroke-linecap:butt;stroke-linejoin:miter;stroke-opacity:1" d="M 992.763,327.654 992.763,343.837 z" id="boundary" inkscape:connector-curvature="0" />
	<path style="fill:none;stroke:red;stroke-width:1px;stroke-linecap:butt;stroke-linejoin:miter;stroke-opacity:1" d="M 873.011,436.078 856.829,436.078 z" id="boundary" inkscape:connector-curvature="0" />
	<path style="fill:none;stroke:red;stroke-width:1px;stroke-linecap:butt;stroke-linejoin:miter;stroke-opacity:1" d="M 992.763,343.837 996,360.02 z" id="boundary" inkscape:connector-curvature="0" />
	<path style="fill:none;stroke:red;stroke-width:1px;stroke-linecap:butt;stroke-linejoin:miter;stroke-opacity:1" d="M 996,360.02 996,376.202 z" id="boundary" inkscape:connector-curvature="0" />
	<path style="fill:none;stroke:red;stroke-width:1px;stroke-linecap:butt;stroke-linejoin:miter;stroke-opacity:1" d="M 996,392.385 996,408.568 z" id="boundary" inkscape:connector-curvature="0" />
	<path style="fill:none;stroke:red;stroke-width:1px;stroke-linecap:butt;stroke-linejoin:miter;stroke-opacity:1" d="M 996,376.202 996,392.385 z" id="boundary" inkscape:connector-curvature="0" />
	<path style="fill:none;stroke:red;stroke-width:1px;stroke-linecap:butt;stroke-linejoin:miter;stroke-opacity:1" d="M 992.763,424.75 996,408.568 z" id="boundary" inkscape:connector-curvature="0" />
	<path style="fill:none;stroke:red;stroke-width:1px;stroke-linecap:butt;stroke-linejoin:miter;stroke-opacity:1" d="M 905.377,436.078 889.194,436.078 z" id="boundary" inkscape:connector-curvature="0" />
	<path style="fill:none;stroke:red;stroke-width:1px;stroke-linecap:butt;stroke-linejoin:miter;stroke-opacity:1" d="M 905.377,436.078 921.56,436.078 z" id="boundary" inkscape:connector-curvature="0" />
	<path style="fill:none;stroke:red;stroke-width:1px;stroke-linecap:butt;stroke-linejoin:miter;stroke-opacity:1" d="M 937.742,436.078 921.56,436.078 z" id="boundary" inkscape:connector-curvature="0" />
	<path style="fill:none;stroke:red;stroke-width:1px;stroke-linecap:butt;stroke-linejoin:miter;stroke-opacity:1" d="M 953.925,436.078 970.108,436.078 z" id="boundary" inkscape:connector-curvature="0" />
	<path style="fill:none;stroke:red;stroke-width:1px;stroke-linecap:butt;stroke-linejoin:miter;stroke-opacity:1" d="M 937.742,436.078 953.925,436.078 z" id="boundary" inkscape:connector-curvature="0" />
	<path style="fill:none;stroke:red;stroke-width:1px;stroke-linecap:butt;stroke-linejoin:miter;stroke-opacity:1" d="M 971.726,452.261 971.726,468.444 z" id="boundary" inkscape:connector-curvature="0" />
	<path style="fill:none;stroke:red;stroke-width:1px;stroke-linecap:butt;stroke-linejoin:miter;stroke-opacity:1" d="M 989.527,447.406 989.527,463.589 z" id="boundary" inkscape:connector-curvature="0" />
	<path style="fill:none;stroke:red;stroke-width:1px;stroke-linecap:butt;stroke-linejoin:miter;stroke-opacity:1" d="M 989.527,447.406 992.763,424.75 z" id="boundary" inkscape:connector-curvature="0" />
	<path style="fill:none;stroke:red;stroke-width:1px;stroke-linecap:butt;stroke-linejoin:miter;stroke-opacity:1" d="M 989.527,463.589 989.527,479.772 z" id="boundary" inkscape:connector-curvature="0" />
	<path style="fill:none;stroke:red;stroke-width:1px;stroke-linecap:butt;stroke-linejoin:miter;stroke-opacity:1" d="M 989.527,479.772 987.909,497.573 z" id="boundary" inkscape:connector-curvature="0" />
	<path style="fill:none;stroke:red;stroke-width:1px;stroke-linecap:butt;stroke-linejoin:miter;stroke-opacity:1" d="M 987.909,497.573 971.726,499.191 z" id="boundary" inkscape:connector-curvature="0" />
	<path style="fill:none;stroke:red;stroke-width:1px;stroke-linecap:butt;stroke-linejoin:miter;stroke-opacity:1" d="M 971.726,499.191 971.726,468.444 z" id="boundary" inkscape:connector-curvature="0" />
	<circle cx="4" cy="317.945" r="4" fill="#0" id="circle0"/>
	<circle cx="7.23654" cy="334.127" r="4" fill="#0" id="circle1"/>
	<circle cx="10.4731" cy="460.352" r="4" fill="#0" id="circle2"/>
	<circle cx="10.4731" cy="499.191" r="4" fill="#0" id="circle3"/>
	<circle cx="13.7096" cy="304.998" r="4" fill="#0" id="circle4"/>
	<circle cx="13.7096" cy="476.535" r="4" fill="#0" id="circle5"/>
	<circle cx="16.9462" cy="347.073" r="4" fill="#0" id="circle6"/>
	<circle cx="16.9462" cy="363.256" r="4" fill="#0" id="circle7"/>
	<circle cx="16.9462" cy="444.17" r="4" fill="#0" id="circle8"/>
	<circle cx="18.5644" cy="379.439" r="4" fill="#0" id="circle9"/>
	<circle cx="23.4192" cy="395.622" r="4" fill="#0" id="circle10"/>
	<circle cx="23.4192" cy="411.804" r="4" fill="#0" id="circle11"/>
	<circle cx="23.4192" cy="427.987" r="4" fill="#0" id="circle12"/>
	<circle cx="26.6558" cy="292.052" r="4" fill="#0" id="circle13"/>
	<circle cx="26.6558" cy="465.207" r="4" fill="#0" id="circle14"/>
	<circle cx="26.6558" cy="500.809" r="4" fill="#0" id="circle15"/>
	<circle cx="28.2741" cy="484.626" r="4" fill="#0" id="circle16"/>
	<circle cx="33.1289" cy="442.551" r="4" fill="#0" id="circle17"/>
	<circle cx="42.8385" cy="285.579" r="4" fill="#0" id="circle18"/>
	<circle cx="49.3116" cy="442.551" r="4" fill="#0" id="circle19"/>
	<circle cx="59.0212" cy="279.106" r="4" fill="#0" id="circle20"/>
	<circle cx="65.4943" cy="445.788" r="4" fill="#0" id="circle21"/>
	<circle cx="75.2039" cy="275.869" r="4" fill="#0" id="circle22"/>
	<circle cx="78.4405" cy="455.498" r="4" fill="#0" id="circle23"/>
	<circle cx="91.3866" cy="269.396" r="4" fill="#0" id="circle24"/>
	<circle cx="94.6232" cy="452.261" r="4" fill="#0" id="circle25"/>
	<circle cx="107.569" cy="266.16" r="4" fill="#0" id="circle26"/>
	<circle cx="107.569" cy="442.551" r="4" fill="#0" id="circle27"/>
	<circle cx="123.752" cy="266.16" r="4" fill="#0" id="circle28"/>
	<circle cx="123.752" cy="439.315" r="4" fill="#0" id="circle29"/>
	<circle cx="139.935" cy="262.923" r="4" fill="#0" id="circle30"/>
	<circle cx="139.935" cy="444.17" r="4" fill="#0" id="circle31"/>
	<circle cx="154.499" cy="452.261" r="4" fill="#0" id="circle32"/>
	<circle cx="156.117" cy="259.687" r="4" fill="#0" id="circle33"/>
	<circle cx="165.827" cy="246.741" r="4" fill="#0" id="circle34"/>
	<circle cx="167.445" cy="461.971" r="4" fill="#0" id="circle35"/>
	<circle cx="182.01" cy="240.268" r="4" fill="#0" id="circle36"/>
	<circle cx="183.628" cy="468.444" r="4" fill="#0" id="circle37"/>
	<circle cx="194.956" cy="230.558" r="4" fill="#0" id="circle38"/>
	<circle cx="199.811" cy="471.68" r="4" fill="#0" id="circle39"/>
	<circle cx="207.902" cy="220.848" r="4" fill="#0" id="circle40"/>
	<circle cx="215.993" cy="474.917" r="4" fill="#0" id="circle41"/>
	<circle cx="224.085" cy="225.703" r="4" fill="#0" id="circle42"/>
	<circle cx="232.176" cy="471.68" r="4" fill="#0" id="circle43"/>
	<circle cx="238.649" cy="233.794" r="4" fill="#0" id="circle44"/>
	<circle cx="248.359" cy="465.207" r="4" fill="#0" id="circle45"/>
	<circle cx="249.977" cy="246.741" r="4" fill="#0" id="circle46"/>
	<circle cx="262.923" cy="455.498" r="4" fill="#0" id="circle47"/>
	<circle cx="266.16" cy="248.359" r="4" fill="#0" id="circle48"/>
	<circle cx="274.251" cy="262.923" r="4" fill="#0" id="circle49"/>
	<circle cx="277.488" cy="447.406" r="4" fill="#0" id="circle50"/>
	<circle cx="290.434" cy="262.923" r="4" fill="#0" id="circle51"/>
	<circle cx="293.67" cy="442.551" r="4" fill="#0" id="circle52"/>
	<circle cx="306.617" cy="262.923" r="4" fill="#0" id="circle53"/>
	<circle cx="309.853" cy="439.315" r="4" fill="#0" id="circle54"/>
	<circle cx="322.799" cy="266.16" r="4" fill="#0" id="circle55"/>
	<circle cx="324.418" cy="447.406" r="4" fill="#0" id="circle56"/>
	<circle cx="337.364" cy="457.116" r="4" fill="#0" id="circle57"/>
	<circle cx="338.982" cy="269.396" r="4" fill="#0" id="circle58"/>
	<circle cx="353.546" cy="449.024" r="4" fill="#0" id="circle59"/>
	<circle cx="355.165" cy="275.869" r="4" fill="#0" id="circle60"/>
	<circle cx="369.729" cy="442.551" r="4" fill="#0" id="circle61"/>
	<circle cx="371.347" cy="279.106" r="4" fill="#0" id="circle62"/>
	<circle cx="385.912" cy="442.551" r="4" fill="#0" id="circle63"/>
	<circle cx="387.53" cy="285.579" r="4" fill="#0" id="circle64"/>
	<circle cx="392.385" cy="458.734" r="4" fill="#0" id="circle65"/>
	<circle cx="395.622" cy="474.917" r="4" fill="#0" id="circle66"/>
	<circle cx="398.858" cy="495.954" r="4" fill="#0" id="circle67"/>
	<circle cx="403.713" cy="292.052" r="4" fill="#0" id="circle68"/>
	<circle cx="413.423" cy="473.299" r="4" fill="#0" id="circle69"/>
	<circle cx="416.659" cy="437.697" r="4" fill="#0" id="circle70"/>
	<circle cx="416.659" cy="453.879" r="4" fill="#0" id="circle71"/>
	<circle cx="419.896" cy="295.289" r="4" fill="#0" id="circle72"/>
	<circle cx="432.842" cy="436.078" r="4" fill="#0" id="circle73"/>
	<circle cx="436.078" cy="295.289" r="4" fill="#0" id="circle74"/>
	<circle cx="449.024" cy="436.078" r="4" fill="#0" id="circle75"/>
	<circle cx="452.261" cy="295.289" r="4" fill="#0" id="circle76"/>
	<circle cx="465.207" cy="436.078" r="4" fill="#0" id="circle77"/>
	<circle cx="468.444" cy="292.052" r="4" fill="#0" id="circle78"/>
	<circle cx="479.772" cy="275.869" r="4" fill="#0" id="circle79"/>
	<circle cx="481.39" cy="436.078" r="4" fill="#0" id="circle80"/>
	<circle cx="489.481" cy="262.923" r="4" fill="#0" id="circle81"/>
	<circle cx="497.573" cy="436.078" r="4" fill="#0" id="circle82"/>
	<circle cx="504.046" cy="254.832" r="4" fill="#0" id="circle83"/>
	<circle cx="513.755" cy="436.078" r="4" fill="#0" id="circle84"/>
	<circle cx="516.992" cy="241.886" r="4" fill="#0" id="circle85"/>
	<circle cx="529.938" cy="230.558" r="4" fill="#0" id="circle86"/>
	<circle cx="529.938" cy="436.078" r="4" fill="#0" id="circle87"/>
	<circle cx="544.502" cy="220.848" r="4" fill="#0" id="circle88"/>
	<circle cx="546.121" cy="436.078" r="4" fill="#0" id="circle89"/>
	<circle cx="559.067" cy="212.757" r="4" fill="#0" id="circle90"/>
	<circle cx="562.303" cy="436.078" r="4" fill="#0" id="circle91"/>
	<circle cx="575.25" cy="207.902" r="4" fill="#0" id="circle92"/>
	<circle cx="578.486" cy="436.078" r="4" fill="#0" id="circle93"/>
	<circle cx="591.432" cy="204.666" r="4" fill="#0" id="circle94"/>
	<circle cx="594.669" cy="436.078" r="4" fill="#0" id="circle95"/>
	<circle cx="607.615" cy="204.666" r="4" fill="#0" id="circle96"/>
	<circle cx="610.852" cy="436.078" r="4" fill="#0" id="circle97"/>
	<circle cx="623.798" cy="203.047" r="4" fill="#0" id="circle98"/>
	<circle cx="625.416" cy="120.515" r="4" fill="#0" id="circle99"/>
	<circle cx="625.416" cy="136.698" r="4" fill="#0" id="circle100"/>
	<circle cx="625.416" cy="463.589" r="4" fill="#0" id="circle101"/>
	<circle cx="625.416" cy="495.954" r="4" fill="#0" id="circle102"/>
	<circle cx="627.034" cy="436.078" r="4" fill="#0" id="circle103"/>
	<circle cx="628.653" cy="479.772" r="4" fill="#0" id="circle104"/>
	<circle cx="633.507" cy="151.263" r="4" fill="#0" id="circle105"/>
	<circle cx="635.126" cy="107.569" r="4" fill="#0" id="circle106"/>
	<circle cx="635.126" cy="167.445" r="4" fill="#0" id="circle107"/>
	<circle cx="636.744" cy="193.338" r="4" fill="#0" id="circle108"/>
	<circle cx="641.599" cy="461.971" r="4" fill="#0" id="circle109"/>
	<circle cx="641.599" cy="497.573" r="4" fill="#0" id="circle110"/>
	<circle cx="646.454" cy="440.933" r="4" fill="#0" id="circle111"/>
	<circle cx="651.308" cy="101.096" r="4" fill="#0" id="circle112"/>
	<circle cx="662.636" cy="436.078" r="4" fill="#0" id="circle113"/>
	<circle cx="664.254" cy="91.3866" r="4" fill="#0" id="circle114"/>
	<circle cx="678.819" cy="436.078" r="4" fill="#0" id="circle115"/>
	<circle cx="680.437" cy="84.9135" r="4" fill="#0" id="circle116"/>
	<circle cx="695.002" cy="436.078" r="4" fill="#0" id="circle117"/>
	<circle cx="696.62" cy="78.4405" r="4" fill="#0" id="circle118"/>
	<circle cx="711.184" cy="436.078" r="4" fill="#0" id="circle119"/>
	<circle cx="712.803" cy="71.9674" r="4" fill="#0" id="circle120"/>
	<circle cx="727.367" cy="436.078" r="4" fill="#0" id="circle121"/>
	<circle cx="728.985" cy="68.7308" r="4" fill="#0" id="circle122"/>
	<circle cx="743.55" cy="436.078" r="4" fill="#0" id="circle123"/>
	<circle cx="745.168" cy="65.4943" r="4" fill="#0" id="circle124"/>
	<circle cx="748.405" cy="49.3116" r="4" fill="#0" id="circle125"/>
	<circle cx="759.732" cy="436.078" r="4" fill="#0" id="circle126"/>
	<circle cx="762.969" cy="41.2202" r="4" fill="#0" id="circle127"/>
	<circle cx="775.915" cy="436.078" r="4" fill="#0" id="circle128"/>
	<circle cx="779.152" cy="34.7471" r="4" fill="#0" id="circle129"/>
	<circle cx="785.625" cy="18.5644" r="4" fill="#0" id="circle130"/>
	<circle cx="792.098" cy="436.078" r="4" fill="#0" id="circle131"/>
	<circle cx="793.716" cy="4" r="4" fill="#0" id="circle132"/>
	<circle cx="808.281" cy="436.078" r="4" fill="#0" id="circle133"/>
	<circle cx="809.899" cy="4" r="4" fill="#0" id="circle134"/>
	<circle cx="819.608" cy="16.9462" r="4" fill="#0" id="circle135"/>
	<circle cx="824.463" cy="33.1289" r="4" fill="#0" id="circle136"/>
	<circle cx="824.463" cy="436.078" r="4" fill="#0" id="circle137"/>
	<circle cx="840.646" cy="39.602" r="4" fill="#0" id="circle138"/>
	<circle cx="840.646" cy="436.078" r="4" fill="#0" id="circle139"/>
	<circle cx="855.21" cy="47.6933" r="4" fill="#0" id="circle140"/>
	<circle cx="856.829" cy="436.078" r="4" fill="#0" id="circle141"/>
	<circle cx="863.302" cy="62.2577" r="4" fill="#0" id="circle142"/>
	<circle cx="873.011" cy="436.078" r="4" fill="#0" id="circle143"/>
	<circle cx="879.485" cy="65.4943" r="4" fill="#0" id="circle144"/>
	<circle cx="889.194" cy="436.078" r="4" fill="#0" id="circle145"/>
	<circle cx="895.667" cy="68.7308" r="4" fill="#0" id="circle146"/>
	<circle cx="905.377" cy="436.078" r="4" fill="#0" id="circle147"/>
	<circle cx="911.85" cy="71.9674" r="4" fill="#0" id="circle148"/>
	<circle cx="921.56" cy="436.078" r="4" fill="#0" id="circle149"/>
	<circle cx="928.033" cy="78.4405" r="4" fill="#0" id="circle150"/>
	<circle cx="937.742" cy="436.078" r="4" fill="#0" id="circle151"/>
	<circle cx="944.215" cy="84.9135" r="4" fill="#0" id="circle152"/>
	<circle cx="953.925" cy="436.078" r="4" fill="#0" id="circle153"/>
	<circle cx="957.162" cy="94.6232" r="4" fill="#0" id="circle154"/>
	<circle cx="970.108" cy="436.078" r="4" fill="#0" id="circle155"/>
	<circle cx="971.726" cy="452.261" r="4" fill="#0" id="circle156"/>
	<circle cx="971.726" cy="468.444" r="4" fill="#0" id="circle157"/>
	<circle cx="971.726" cy="499.191" r="4" fill="#0" id="circle158"/>
	<circle cx="973.344" cy="101.096" r="4" fill="#0" id="circle159"/>
	<circle cx="986.29" cy="110.806" r="4" fill="#0" id="circle160"/>
	<circle cx="986.29" cy="182.01" r="4" fill="#0" id="circle161"/>
	<circle cx="986.29" cy="198.192" r="4" fill="#0" id="circle162"/>
	<circle cx="986.29" cy="214.375" r="4" fill="#0" id="circle163"/>
	<circle cx="986.29" cy="230.558" r="4" fill="#0" id="circle164"/>
	<circle cx="986.29" cy="246.741" r="4" fill="#0" id="circle165"/>
	<circle cx="986.29" cy="262.923" r="4" fill="#0" id="circle166"/>
	<circle cx="987.909" cy="497.573" r="4" fill="#0" id="circle167"/>
	<circle cx="989.527" cy="149.644" r="4" fill="#0" id="circle168"/>
	<circle cx="989.527" cy="165.827" r="4" fill="#0" id="circle169"/>
	<circle cx="989.527" cy="279.106" r="4" fill="#0" id="circle170"/>
	<circle cx="989.527" cy="295.289" r="4" fill="#0" id="circle171"/>
	<circle cx="989.527" cy="447.406" r="4" fill="#0" id="circle172"/>
	<circle cx="989.527" cy="463.589" r="4" fill="#0" id="circle173"/>
	<circle cx="989.527" cy="479.772" r="4" fill="#0" id="circle174"/>
	<circle cx="992.763" cy="311.471" r="4" fill="#0" id="circle175"/>
	<circle cx="992.763" cy="327.654" r="4" fill="#0" id="circle176"/>
	<circle cx="992.763" cy="343.837" r="4" fill="#0" id="circle177"/>
	<circle cx="992.763" cy="424.75" r="4" fill="#0" id="circle178"/>
	<circle cx="996" cy="123.752" r="4" fill="#0" id="circle179"/>
	<circle cx="996" cy="360.02" r="4" fill="#0" id="circle180"/>
	<circle cx="996" cy="376.202" r="4" fill="#0" id="circle181"/>
	<circle cx="996" cy="392.385" r="4" fill="#0" id="circle182"/>
	<circle cx="996" cy="408.568" r="4" fill="#0" id="circle183"/>
	</g>
</svg>