<?xml version="1.0" encoding="UTF-8" standalone="no"?>
<!-- Created with CurveBenchmark -->
<svg
	xmlns:dc="http://purl.org/dc/elements/1.1/"
	xmlns:cc="http://creativecommons.org/ns#"
	xmlns:rdf="http://www.w3.org/1999/02/22-rdf-syntax-ns#"
	xmlns:svg="http://www.w3.org/2000/svg"
	xmlns="http://www.w3.org/2000/svg"
	xmlns:sodipodi="http://sodipodi.sourceforge.net/DTD/sodipodi-0.dtd"
	xmlns:inkscape="http://www.inkscape.org/namespaces/inkscape"
	width="1000"
	height="1000"
	id="svg2"
	version="1.1"
	sodipodi:docname="manifold/gathan1-tool12.png.txt">
<defs
	id="defs4" />
<metadata
	id="metadata7">
	<rdf:RDF>
		<cc:Work
			rdf:about="">
			<dc:format>image/svg+xml</dc:format>
			<dc:type
				rdf:resource="http://purl.org/dc/dcmitype/StillImage" />
			<dc:title></dc:title>
		</cc:Work>
	</rdf:RDF>
</metadata>
<g
	inkscape:label="Layer 1"
	inkscape:groupmode="layer"
	id="layer1">
	<path style="fill:none;stroke:red;stroke-width:1px;stroke-linecap:butt;stroke-linejoin:miter;stroke-opacity:1" d="M 115.045,448.179 78.0299,448.179 z" id="boundary" inkscape:connector-curvature="0" />
	<path style="fill:none;stroke:red;stroke-width:1px;stroke-linecap:butt;stroke-linejoin:miter;stroke-opacity:1" d="M 185.373,429.672 152.06,448.179 z" id="boundary" inkscape:connector-curvature="0" />
	<path style="fill:none;stroke:red;stroke-width:1px;stroke-linecap:butt;stroke-linejoin:miter;stroke-opacity:1" d="M 152.06,448.179 115.045,448.179 z" id="boundary" inkscape:connector-curvature="0" />
	<path style="fill:none;stroke:red;stroke-width:1px;stroke-linecap:butt;stroke-linejoin:miter;stroke-opacity:1" d="M 222.388,429.672 185.373,429.672 z" id="boundary" inkscape:connector-curvature="0" />
	<path style="fill:none;stroke:red;stroke-width:1px;stroke-linecap:butt;stroke-linejoin:miter;stroke-opacity:1" d="M 255.701,411.164 222.388,429.672 z" id="boundary" inkscape:connector-curvature="0" />
	<path style="fill:none;stroke:red;stroke-width:1px;stroke-linecap:butt;stroke-linejoin:miter;stroke-opacity:1" d="M 4,533.313 33.6119,503.701 z" id="boundary" inkscape:connector-curvature="0" />
	<path style="fill:none;stroke:red;stroke-width:1px;stroke-linecap:butt;stroke-linejoin:miter;stroke-opacity:1" d="M 41.0149,459.284 33.6119,503.701 z" id="boundary" inkscape:connector-curvature="0" />
	<path style="fill:none;stroke:red;stroke-width:1px;stroke-linecap:butt;stroke-linejoin:miter;stroke-opacity:1" d="M 41.0149,459.284 78.0299,448.179 z" id="boundary" inkscape:connector-curvature="0" />
	<path style="fill:none;stroke:red;stroke-width:1px;stroke-linecap:butt;stroke-linejoin:miter;stroke-opacity:1" d="M 322.328,374.149 359.343,374.149 z" id="boundary" inkscape:connector-curvature="0" />
	<path style="fill:none;stroke:red;stroke-width:1px;stroke-linecap:butt;stroke-linejoin:miter;stroke-opacity:1" d="M 381.552,340.836 359.343,374.149 z" id="boundary" inkscape:connector-curvature="0" />
	<path style="fill:none;stroke:red;stroke-width:1px;stroke-linecap:butt;stroke-linejoin:miter;stroke-opacity:1" d="M 448.179,451.881 414.866,470.388 z" id="boundary" inkscape:connector-curvature="0" />
	<path style="fill:none;stroke:red;stroke-width:1px;stroke-linecap:butt;stroke-linejoin:miter;stroke-opacity:1" d="M 411.164,318.627 381.552,340.836 z" id="boundary" inkscape:connector-curvature="0" />
	<path style="fill:none;stroke:red;stroke-width:1px;stroke-linecap:butt;stroke-linejoin:miter;stroke-opacity:1" d="M 322.328,374.149 289.015,392.657 z" id="boundary" inkscape:connector-curvature="0" />
	<path style="fill:none;stroke:red;stroke-width:1px;stroke-linecap:butt;stroke-linejoin:miter;stroke-opacity:1" d="M 255.701,411.164 289.015,392.657 z" id="boundary" inkscape:connector-curvature="0" />
	<path style="fill:none;stroke:red;stroke-width:1px;stroke-linecap:butt;stroke-linejoin:miter;stroke-opacity:1" d="M 388.955,500 359.343,525.91 z" id="boundary" inkscape:connector-curvature="0" />
	<path style="fill:none;stroke:red;stroke-width:1px;stroke-linecap:butt;stroke-linejoin:miter;stroke-opacity:1" d="M 414.866,470.388 388.955,500 z" id="boundary" inkscape:connector-curvature="0" />
	<path style="fill:none;stroke:red;stroke-width:1px;stroke-linecap:butt;stroke-linejoin:miter;stroke-opacity:1" d="M 359.343,525.91 340.836,562.925 z" id="boundary" inkscape:connector-curvature="0" />
	<path style="fill:none;stroke:red;stroke-width:1px;stroke-linecap:butt;stroke-linejoin:miter;stroke-opacity:1" d="M 4,570.328 4,533.313 z" id="boundary" inkscape:connector-curvature="0" />
	<path style="fill:none;stroke:red;stroke-width:1px;stroke-linecap:butt;stroke-linejoin:miter;stroke-opacity:1" d="M 100.239,562.925 63.2239,599.94 z" id="boundary" inkscape:connector-curvature="0" />
	<path style="fill:none;stroke:red;stroke-width:1px;stroke-linecap:butt;stroke-linejoin:miter;stroke-opacity:1" d="M 100.239,562.925 137.254,570.328 z" id="boundary" inkscape:connector-curvature="0" />
	<path style="fill:none;stroke:red;stroke-width:1px;stroke-linecap:butt;stroke-linejoin:miter;stroke-opacity:1" d="M 170.567,588.836 137.254,570.328 z" id="boundary" inkscape:connector-curvature="0" />
	<path style="fill:none;stroke:red;stroke-width:1px;stroke-linecap:butt;stroke-linejoin:miter;stroke-opacity:1" d="M 26.209,599.94 63.2239,599.94 z" id="boundary" inkscape:connector-curvature="0" />
	<path style="fill:none;stroke:red;stroke-width:1px;stroke-linecap:butt;stroke-linejoin:miter;stroke-opacity:1" d="M 26.209,599.94 4,570.328 z" id="boundary" inkscape:connector-curvature="0" />
	<path style="fill:none;stroke:red;stroke-width:1px;stroke-linecap:butt;stroke-linejoin:miter;stroke-opacity:1" d="M 115.045,699.881 144.657,670.269 z" id="boundary" inkscape:connector-curvature="0" />
	<path style="fill:none;stroke:red;stroke-width:1px;stroke-linecap:butt;stroke-linejoin:miter;stroke-opacity:1" d="M 152.06,710.985 115.045,699.881 z" id="boundary" inkscape:connector-curvature="0" />
	<path style="fill:none;stroke:red;stroke-width:1px;stroke-linecap:butt;stroke-linejoin:miter;stroke-opacity:1" d="M 144.657,670.269 177.97,651.761 z" id="boundary" inkscape:connector-curvature="0" />
	<path style="fill:none;stroke:red;stroke-width:1px;stroke-linecap:butt;stroke-linejoin:miter;stroke-opacity:1" d="M 152.06,710.985 185.373,729.493 z" id="boundary" inkscape:connector-curvature="0" />
	<path style="fill:none;stroke:red;stroke-width:1px;stroke-linecap:butt;stroke-linejoin:miter;stroke-opacity:1" d="M 170.567,588.836 177.97,651.761 z" id="boundary" inkscape:connector-curvature="0" />
	<path style="fill:none;stroke:red;stroke-width:1px;stroke-linecap:butt;stroke-linejoin:miter;stroke-opacity:1" d="M 340.836,562.925 340.836,599.94 z" id="boundary" inkscape:connector-curvature="0" />
	<path style="fill:none;stroke:red;stroke-width:1px;stroke-linecap:butt;stroke-linejoin:miter;stroke-opacity:1" d="M 340.836,636.955 340.836,599.94 z" id="boundary" inkscape:connector-curvature="0" />
	<path style="fill:none;stroke:red;stroke-width:1px;stroke-linecap:butt;stroke-linejoin:miter;stroke-opacity:1" d="M 340.836,636.955 322.328,673.97 z" id="boundary" inkscape:connector-curvature="0" />
	<path style="fill:none;stroke:red;stroke-width:1px;stroke-linecap:butt;stroke-linejoin:miter;stroke-opacity:1" d="M 222.388,729.493 185.373,729.493 z" id="boundary" inkscape:connector-curvature="0" />
	<path style="fill:none;stroke:red;stroke-width:1px;stroke-linecap:butt;stroke-linejoin:miter;stroke-opacity:1" d="M 296.418,703.582 259.403,722.09 z" id="boundary" inkscape:connector-curvature="0" />
	<path style="fill:none;stroke:red;stroke-width:1px;stroke-linecap:butt;stroke-linejoin:miter;stroke-opacity:1" d="M 259.403,722.09 222.388,729.493 z" id="boundary" inkscape:connector-curvature="0" />
	<path style="fill:none;stroke:red;stroke-width:1px;stroke-linecap:butt;stroke-linejoin:miter;stroke-opacity:1" d="M 296.418,703.582 322.328,673.97 z" id="boundary" inkscape:connector-curvature="0" />
	<path style="fill:none;stroke:red;stroke-width:1px;stroke-linecap:butt;stroke-linejoin:miter;stroke-opacity:1" d="M 744.299,115.045 777.612,96.5373 z" id="boundary" inkscape:connector-curvature="0" />
	<path style="fill:none;stroke:red;stroke-width:1px;stroke-linecap:butt;stroke-linejoin:miter;stroke-opacity:1" d="M 744.299,115.045 707.284,126.149 z" id="boundary" inkscape:connector-curvature="0" />
	<path style="fill:none;stroke:red;stroke-width:1px;stroke-linecap:butt;stroke-linejoin:miter;stroke-opacity:1" d="M 877.552,155.761 847.94,189.075 z" id="boundary" inkscape:connector-curvature="0" />
	<path style="fill:none;stroke:red;stroke-width:1px;stroke-linecap:butt;stroke-linejoin:miter;stroke-opacity:1" d="M 873.851,33.6119 844.239,59.5224 z" id="boundary" inkscape:connector-curvature="0" />
	<path style="fill:none;stroke:red;stroke-width:1px;stroke-linecap:butt;stroke-linejoin:miter;stroke-opacity:1" d="M 844.239,59.5224 810.925,78.0299 z" id="boundary" inkscape:connector-curvature="0" />
	<path style="fill:none;stroke:red;stroke-width:1px;stroke-linecap:butt;stroke-linejoin:miter;stroke-opacity:1" d="M 810.925,78.0299 777.612,96.5373 z" id="boundary" inkscape:connector-curvature="0" />
	<path style="fill:none;stroke:red;stroke-width:1px;stroke-linecap:butt;stroke-linejoin:miter;stroke-opacity:1" d="M 651.761,181.672 688.776,163.164 z" id="boundary" inkscape:connector-curvature="0" />
	<path style="fill:none;stroke:red;stroke-width:1px;stroke-linecap:butt;stroke-linejoin:miter;stroke-opacity:1" d="M 707.284,126.149 688.776,163.164 z" id="boundary" inkscape:connector-curvature="0" />
	<path style="fill:none;stroke:red;stroke-width:1px;stroke-linecap:butt;stroke-linejoin:miter;stroke-opacity:1" d="M 651.761,181.672 614.746,200.179 z" id="boundary" inkscape:connector-curvature="0" />
	<path style="fill:none;stroke:red;stroke-width:1px;stroke-linecap:butt;stroke-linejoin:miter;stroke-opacity:1" d="M 847.94,189.075 810.925,207.582 z" id="boundary" inkscape:connector-curvature="0" />
	<path style="fill:none;stroke:red;stroke-width:1px;stroke-linecap:butt;stroke-linejoin:miter;stroke-opacity:1" d="M 873.851,33.6119 910.866,22.5075 z" id="boundary" inkscape:connector-curvature="0" />
	<path style="fill:none;stroke:red;stroke-width:1px;stroke-linecap:butt;stroke-linejoin:miter;stroke-opacity:1" d="M 944.179,4 910.866,22.5075 z" id="boundary" inkscape:connector-curvature="0" />
	<path style="fill:none;stroke:red;stroke-width:1px;stroke-linecap:butt;stroke-linejoin:miter;stroke-opacity:1" d="M 981.194,7.70149 996,59.5224 z" id="boundary" inkscape:connector-curvature="0" />
	<path style="fill:none;stroke:red;stroke-width:1px;stroke-linecap:butt;stroke-linejoin:miter;stroke-opacity:1" d="M 944.179,4 981.194,7.70149 z" id="boundary" inkscape:connector-curvature="0" />
	<path style="fill:none;stroke:red;stroke-width:1px;stroke-linecap:butt;stroke-linejoin:miter;stroke-opacity:1" d="M 877.552,155.761 910.866,137.254 z" id="boundary" inkscape:connector-curvature="0" />
	<path style="fill:none;stroke:red;stroke-width:1px;stroke-linecap:butt;stroke-linejoin:miter;stroke-opacity:1" d="M 977.493,96.5373 944.179,118.746 z" id="boundary" inkscape:connector-curvature="0" />
	<path style="fill:none;stroke:red;stroke-width:1px;stroke-linecap:butt;stroke-linejoin:miter;stroke-opacity:1" d="M 944.179,118.746 910.866,137.254 z" id="boundary" inkscape:connector-curvature="0" />
	<path style="fill:none;stroke:red;stroke-width:1px;stroke-linecap:butt;stroke-linejoin:miter;stroke-opacity:1" d="M 996,59.5224 977.493,96.5373 z" id="boundary" inkscape:connector-curvature="0" />
	<path style="fill:none;stroke:red;stroke-width:1px;stroke-linecap:butt;stroke-linejoin:miter;stroke-opacity:1" d="M 477.791,281.612 514.806,263.104 z" id="boundary" inkscape:connector-curvature="0" />
	<path style="fill:none;stroke:red;stroke-width:1px;stroke-linecap:butt;stroke-linejoin:miter;stroke-opacity:1" d="M 548.119,244.597 514.806,263.104 z" id="boundary" inkscape:connector-curvature="0" />
	<path style="fill:none;stroke:red;stroke-width:1px;stroke-linecap:butt;stroke-linejoin:miter;stroke-opacity:1" d="M 614.746,200.179 581.433,226.09 z" id="boundary" inkscape:connector-curvature="0" />
	<path style="fill:none;stroke:red;stroke-width:1px;stroke-linecap:butt;stroke-linejoin:miter;stroke-opacity:1" d="M 581.433,226.09 548.119,244.597 z" id="boundary" inkscape:connector-curvature="0" />
	<path style="fill:none;stroke:red;stroke-width:1px;stroke-linecap:butt;stroke-linejoin:miter;stroke-opacity:1" d="M 581.433,359.343 544.418,377.851 z" id="boundary" inkscape:connector-curvature="0" />
	<path style="fill:none;stroke:red;stroke-width:1px;stroke-linecap:butt;stroke-linejoin:miter;stroke-opacity:1" d="M 411.164,318.627 448.179,311.224 z" id="boundary" inkscape:connector-curvature="0" />
	<path style="fill:none;stroke:red;stroke-width:1px;stroke-linecap:butt;stroke-linejoin:miter;stroke-opacity:1" d="M 485.194,440.776 448.179,451.881 z" id="boundary" inkscape:connector-curvature="0" />
	<path style="fill:none;stroke:red;stroke-width:1px;stroke-linecap:butt;stroke-linejoin:miter;stroke-opacity:1" d="M 514.806,411.164 485.194,440.776 z" id="boundary" inkscape:connector-curvature="0" />
	<path style="fill:none;stroke:red;stroke-width:1px;stroke-linecap:butt;stroke-linejoin:miter;stroke-opacity:1" d="M 544.418,377.851 514.806,411.164 z" id="boundary" inkscape:connector-curvature="0" />
	<path style="fill:none;stroke:red;stroke-width:1px;stroke-linecap:butt;stroke-linejoin:miter;stroke-opacity:1" d="M 448.179,311.224 477.791,281.612 z" id="boundary" inkscape:connector-curvature="0" />
	<path style="fill:none;stroke:red;stroke-width:1px;stroke-linecap:butt;stroke-linejoin:miter;stroke-opacity:1" d="M 781.313,229.791 810.925,207.582 z" id="boundary" inkscape:connector-curvature="0" />
	<path style="fill:none;stroke:red;stroke-width:1px;stroke-linecap:butt;stroke-linejoin:miter;stroke-opacity:1" d="M 781.313,229.791 748,248.299 z" id="boundary" inkscape:connector-curvature="0" />
	<path style="fill:none;stroke:red;stroke-width:1px;stroke-linecap:butt;stroke-linejoin:miter;stroke-opacity:1" d="M 748,248.299 710.985,248.299 z" id="boundary" inkscape:connector-curvature="0" />
	<path style="fill:none;stroke:red;stroke-width:1px;stroke-linecap:butt;stroke-linejoin:miter;stroke-opacity:1" d="M 581.433,359.343 618.448,340.836 z" id="boundary" inkscape:connector-curvature="0" />
	<path style="fill:none;stroke:red;stroke-width:1px;stroke-linecap:butt;stroke-linejoin:miter;stroke-opacity:1" d="M 685.075,303.821 651.761,322.328 z" id="boundary" inkscape:connector-curvature="0" />
	<path style="fill:none;stroke:red;stroke-width:1px;stroke-linecap:butt;stroke-linejoin:miter;stroke-opacity:1" d="M 651.761,322.328 618.448,340.836 z" id="boundary" inkscape:connector-curvature="0" />
	<circle cx="4" cy="533.313" r="4" fill="#0" id="circle0"/>
	<circle cx="4" cy="570.328" r="4" fill="#0" id="circle1"/>
	<circle cx="26.209" cy="599.94" r="4" fill="#0" id="circle2"/>
	<circle cx="33.6119" cy="503.701" r="4" fill="#0" id="circle3"/>
	<circle cx="41.0149" cy="459.284" r="4" fill="#0" id="circle4"/>
	<circle cx="63.2239" cy="599.94" r="4" fill="#0" id="circle5"/>
	<circle cx="78.0299" cy="448.179" r="4" fill="#0" id="circle6"/>
	<circle cx="100.239" cy="562.925" r="4" fill="#0" id="circle7"/>
	<circle cx="115.045" cy="448.179" r="4" fill="#0" id="circle8"/>
	<circle cx="115.045" cy="699.881" r="4" fill="#0" id="circle9"/>
	<circle cx="137.254" cy="570.328" r="4" fill="#0" id="circle10"/>
	<circle cx="144.657" cy="670.269" r="4" fill="#0" id="circle11"/>
	<circle cx="152.06" cy="448.179" r="4" fill="#0" id="circle12"/>
	<circle cx="152.06" cy="710.985" r="4" fill="#0" id="circle13"/>
	<circle cx="170.567" cy="588.836" r="4" fill="#0" id="circle14"/>
	<circle cx="177.97" cy="651.761" r="4" fill="#0" id="circle15"/>
	<circle cx="185.373" cy="429.672" r="4" fill="#0" id="circle16"/>
	<circle cx="185.373" cy="729.493" r="4" fill="#0" id="circle17"/>
	<circle cx="222.388" cy="429.672" r="4" fill="#0" id="circle18"/>
	<circle cx="222.388" cy="729.493" r="4" fill="#0" id="circle19"/>
	<circle cx="255.701" cy="411.164" r="4" fill="#0" id="circle20"/>
	<circle cx="259.403" cy="722.09" r="4" fill="#0" id="circle21"/>
	<circle cx="289.015" cy="392.657" r="4" fill="#0" id="circle22"/>
	<circle cx="296.418" cy="703.582" r="4" fill="#0" id="circle23"/>
	<circle cx="322.328" cy="374.149" r="4" fill="#0" id="circle24"/>
	<circle cx="322.328" cy="673.97" r="4" fill="#0" id="circle25"/>
	<circle cx="340.836" cy="562.925" r="4" fill="#0" id="circle26"/>
	<circle cx="340.836" cy="599.94" r="4" fill="#0" id="circle27"/>
	<circle cx="340.836" cy="636.955" r="4" fill="#0" id="circle28"/>
	<circle cx="359.343" cy="374.149" r="4" fill="#0" id="circle29"/>
	<circle cx="359.343" cy="525.91" r="4" fill="#0" id="circle30"/>
	<circle cx="381.552" cy="340.836" r="4" fill="#0" id="circle31"/>
	<circle cx="388.955" cy="500" r="4" fill="#0" id="circle32"/>
	<circle cx="411.164" cy="318.627" r="4" fill="#0" id="circle33"/>
	<circle cx="414.866" cy="470.388" r="4" fill="#0" id="circle34"/>
	<circle cx="448.179" cy="311.224" r="4" fill="#0" id="circle35"/>
	<circle cx="448.179" cy="451.881" r="4" fill="#0" id="circle36"/>
	<circle cx="477.791" cy="281.612" r="4" fill="#0" id="circle37"/>
	<circle cx="485.194" cy="440.776" r="4" fill="#0" id="circle38"/>
	<circle cx="514.806" cy="263.104" r="4" fill="#0" id="circle39"/>
	<circle cx="514.806" cy="411.164" r="4" fill="#0" id="circle40"/>
	<circle cx="544.418" cy="377.851" r="4" fill="#0" id="circle41"/>
	<circle cx="548.119" cy="244.597" r="4" fill="#0" id="circle42"/>
	<circle cx="581.433" cy="226.09" r="4" fill="#0" id="circle43"/>
	<circle cx="581.433" cy="359.343" r="4" fill="#0" id="circle44"/>
	<circle cx="614.746" cy="200.179" r="4" fill="#0" id="circle45"/>
	<circle cx="618.448" cy="340.836" r="4" fill="#0" id="circle46"/>
	<circle cx="651.761" cy="181.672" r="4" fill="#0" id="circle47"/>
	<circle cx="651.761" cy="322.328" r="4" fill="#0" id="circle48"/>
	<circle cx="685.075" cy="303.821" r="4" fill="#0" id="circle49"/>
	<circle cx="688.776" cy="163.164" r="4" fill="#0" id="circle50"/>
	<circle cx="707.284" cy="126.149" r="4" fill="#0" id="circle51"/>
	<circle cx="710.985" cy="248.299" r="4" fill="#0" id="circle52"/>
	<circle cx="744.299" cy="115.045" r="4" fill="#0" id="circle53"/>
	<circle cx="748" cy="248.299" r="4" fill="#0" id="circle54"/>
	<circle cx="777.612" cy="96.5373" r="4" fill="#0" id="circle55"/>
	<circle cx="781.313" cy="229.791" r="4" fill="#0" id="circle56"/>
	<circle cx="810.925" cy="78.0299" r="4" fill="#0" id="circle57"/>
	<circle cx="810.925" cy="207.582" r="4" fill="#0" id="circle58"/>
	<circle cx="844.239" cy="59.5224" r="4" fill="#0" id="circle59"/>
	<circle cx="847.94" cy="189.075" r="4" fill="#0" id="circle60"/>
	<circle cx="873.851" cy="33.6119" r="4" fill="#0" id="circle61"/>
	<circle cx="877.552" cy="155.761" r="4" fill="#0" id="circle62"/>
	<circle cx="910.866" cy="22.5075" r="4" fill="#0" id="circle63"/>
	<circle cx="910.866" cy="137.254" r="4" fill="#0" id="circle64"/>
	<circle cx="944.179" cy="4" r="4" fill="#0" id="circle65"/>
	<circle cx="944.179" cy="118.746" r="4" fill="#0" id="circle66"/>
	<circle cx="977.493" cy="96.5373" r="4" fill="#0" id="circle67"/>
	<circle cx="981.194" cy="7.70149" r="4" fill="#0" id="circle68"/>
	<circle cx="996" cy="59.5224" r="4" fill="#0" id="circle69"/>
	</g>
</svg>