<?xml version="1.0" encoding="UTF-8" standalone="no"?>
<!-- Created with CurveBenchmark -->
<svg
	xmlns:dc="http://purl.org/dc/elements/1.1/"
	xmlns:cc="http://creativecommons.org/ns#"
	xmlns:rdf="http://www.w3.org/1999/02/22-rdf-syntax-ns#"
	xmlns:svg="http://www.w3.org/2000/svg"
	xmlns="http://www.w3.org/2000/svg"
	xmlns:sodipodi="http://sodipodi.sourceforge.net/DTD/sodipodi-0.dtd"
	xmlns:inkscape="http://www.inkscape.org/namespaces/inkscape"
	width="1000"
	height="1000"
	id="svg2"
	version="1.1"
	sodipodi:docname="manifold/gathang-skyhawkocc4.png.txt">
<defs
	id="defs4" />
<metadata
	id="metadata7">
	<rdf:RDF>
		<cc:Work
			rdf:about="">
			<dc:format>image/svg+xml</dc:format>
			<dc:type
				rdf:resource="http://purl.org/dc/dcmitype/StillImage" />
			<dc:title></dc:title>
		</cc:Work>
	</rdf:RDF>
</metadata>
<g
	inkscape:label="Layer 1"
	inkscape:groupmode="layer"
	id="layer1">
	<path style="fill:none;stroke:red;stroke-width:1px;stroke-linecap:butt;stroke-linejoin:miter;stroke-opacity:1" d="M 200.315,281.968 217.688,281.968 z" id="boundary" inkscape:connector-curvature="0" />
	<path style="fill:none;stroke:red;stroke-width:1px;stroke-linecap:butt;stroke-linejoin:miter;stroke-opacity:1" d="M 186.417,295.867 200.315,281.968 z" id="boundary" inkscape:connector-curvature="0" />
	<path style="fill:none;stroke:red;stroke-width:1px;stroke-linecap:butt;stroke-linejoin:miter;stroke-opacity:1" d="M 235.061,281.968 217.688,281.968 z" id="boundary" inkscape:connector-curvature="0" />
	<path style="fill:none;stroke:red;stroke-width:1px;stroke-linecap:butt;stroke-linejoin:miter;stroke-opacity:1" d="M 235.061,281.968 250.697,290.655 z" id="boundary" inkscape:connector-curvature="0" />
	<path style="fill:none;stroke:red;stroke-width:1px;stroke-linecap:butt;stroke-linejoin:miter;stroke-opacity:1" d="M 177.73,313.24 186.417,295.867 z" id="boundary" inkscape:connector-curvature="0" />
	<path style="fill:none;stroke:red;stroke-width:1px;stroke-linecap:butt;stroke-linejoin:miter;stroke-opacity:1" d="M 250.697,290.655 268.07,290.655 z" id="boundary" inkscape:connector-curvature="0" />
	<path style="fill:none;stroke:red;stroke-width:1px;stroke-linecap:butt;stroke-linejoin:miter;stroke-opacity:1" d="M 285.443,290.655 268.07,290.655 z" id="boundary" inkscape:connector-curvature="0" />
	<path style="fill:none;stroke:red;stroke-width:1px;stroke-linecap:butt;stroke-linejoin:miter;stroke-opacity:1" d="M 290.655,261.121 304.553,247.222 z" id="boundary" inkscape:connector-curvature="0" />
	<path style="fill:none;stroke:red;stroke-width:1px;stroke-linecap:butt;stroke-linejoin:miter;stroke-opacity:1" d="M 318.452,233.324 304.553,247.222 z" id="boundary" inkscape:connector-curvature="0" />
	<path style="fill:none;stroke:red;stroke-width:1px;stroke-linecap:butt;stroke-linejoin:miter;stroke-opacity:1" d="M 304.553,273.282 321.926,275.019 z" id="boundary" inkscape:connector-curvature="0" />
	<path style="fill:none;stroke:red;stroke-width:1px;stroke-linecap:butt;stroke-linejoin:miter;stroke-opacity:1" d="M 302.816,290.655 285.443,290.655 z" id="boundary" inkscape:connector-curvature="0" />
	<path style="fill:none;stroke:red;stroke-width:1px;stroke-linecap:butt;stroke-linejoin:miter;stroke-opacity:1" d="M 323.664,379.257 306.291,379.257 z" id="boundary" inkscape:connector-curvature="0" />
	<path style="fill:none;stroke:red;stroke-width:1px;stroke-linecap:butt;stroke-linejoin:miter;stroke-opacity:1" d="M 318.452,299.342 302.816,290.655 z" id="boundary" inkscape:connector-curvature="0" />
	<path style="fill:none;stroke:red;stroke-width:1px;stroke-linecap:butt;stroke-linejoin:miter;stroke-opacity:1" d="M 339.299,275.019 321.926,275.019 z" id="boundary" inkscape:connector-curvature="0" />
	<path style="fill:none;stroke:red;stroke-width:1px;stroke-linecap:butt;stroke-linejoin:miter;stroke-opacity:1" d="M 160.357,347.986 169.044,330.613 z" id="boundary" inkscape:connector-curvature="0" />
	<path style="fill:none;stroke:red;stroke-width:1px;stroke-linecap:butt;stroke-linejoin:miter;stroke-opacity:1" d="M 170.781,361.884 160.357,347.986 z" id="boundary" inkscape:connector-curvature="0" />
	<path style="fill:none;stroke:red;stroke-width:1px;stroke-linecap:butt;stroke-linejoin:miter;stroke-opacity:1" d="M 177.73,313.24 169.044,330.613 z" id="boundary" inkscape:connector-curvature="0" />
	<path style="fill:none;stroke:red;stroke-width:1px;stroke-linecap:butt;stroke-linejoin:miter;stroke-opacity:1" d="M 170.781,361.884 188.154,361.884 z" id="boundary" inkscape:connector-curvature="0" />
	<path style="fill:none;stroke:red;stroke-width:1px;stroke-linecap:butt;stroke-linejoin:miter;stroke-opacity:1" d="M 188.154,361.884 203.79,370.571 z" id="boundary" inkscape:connector-curvature="0" />
	<path style="fill:none;stroke:red;stroke-width:1px;stroke-linecap:butt;stroke-linejoin:miter;stroke-opacity:1" d="M 203.79,370.571 221.163,370.571 z" id="boundary" inkscape:connector-curvature="0" />
	<path style="fill:none;stroke:red;stroke-width:1px;stroke-linecap:butt;stroke-linejoin:miter;stroke-opacity:1" d="M 238.536,370.571 255.909,370.571 z" id="boundary" inkscape:connector-curvature="0" />
	<path style="fill:none;stroke:red;stroke-width:1px;stroke-linecap:butt;stroke-linejoin:miter;stroke-opacity:1" d="M 238.536,370.571 221.163,370.571 z" id="boundary" inkscape:connector-curvature="0" />
	<path style="fill:none;stroke:red;stroke-width:1px;stroke-linecap:butt;stroke-linejoin:miter;stroke-opacity:1" d="M 255.909,370.571 273.282,370.571 z" id="boundary" inkscape:connector-curvature="0" />
	<path style="fill:none;stroke:red;stroke-width:1px;stroke-linecap:butt;stroke-linejoin:miter;stroke-opacity:1" d="M 288.918,379.257 273.282,370.571 z" id="boundary" inkscape:connector-curvature="0" />
	<path style="fill:none;stroke:red;stroke-width:1px;stroke-linecap:butt;stroke-linejoin:miter;stroke-opacity:1" d="M 306.291,379.257 288.918,379.257 z" id="boundary" inkscape:connector-curvature="0" />
	<path style="fill:none;stroke:red;stroke-width:1px;stroke-linecap:butt;stroke-linejoin:miter;stroke-opacity:1" d="M 281.968,417.478 299.342,408.792 z" id="boundary" inkscape:connector-curvature="0" />
	<path style="fill:none;stroke:red;stroke-width:1px;stroke-linecap:butt;stroke-linejoin:miter;stroke-opacity:1" d="M 313.24,396.63 299.342,408.792 z" id="boundary" inkscape:connector-curvature="0" />
	<path style="fill:none;stroke:red;stroke-width:1px;stroke-linecap:butt;stroke-linejoin:miter;stroke-opacity:1" d="M 323.664,379.257 313.24,396.63 z" id="boundary" inkscape:connector-curvature="0" />
	<path style="fill:none;stroke:red;stroke-width:1px;stroke-linecap:butt;stroke-linejoin:miter;stroke-opacity:1" d="M 281.968,417.478 264.595,426.165 z" id="boundary" inkscape:connector-curvature="0" />
	<path style="fill:none;stroke:red;stroke-width:1px;stroke-linecap:butt;stroke-linejoin:miter;stroke-opacity:1" d="M 335.825,299.342 318.452,299.342 z" id="boundary" inkscape:connector-curvature="0" />
	<path style="fill:none;stroke:red;stroke-width:1px;stroke-linecap:butt;stroke-linejoin:miter;stroke-opacity:1" d="M 448.75,24.8476 462.648,12.6865 z" id="boundary" inkscape:connector-curvature="0" />
	<path style="fill:none;stroke:red;stroke-width:1px;stroke-linecap:butt;stroke-linejoin:miter;stroke-opacity:1" d="M 434.851,38.7461 448.75,24.8476 z" id="boundary" inkscape:connector-curvature="0" />
	<path style="fill:none;stroke:red;stroke-width:1px;stroke-linecap:butt;stroke-linejoin:miter;stroke-opacity:1" d="M 403.58,96.0771 412.266,70.0175 z" id="boundary" inkscape:connector-curvature="0" />
	<path style="fill:none;stroke:red;stroke-width:1px;stroke-linecap:butt;stroke-linejoin:miter;stroke-opacity:1" d="M 403.58,96.0771 394.893,113.45 z" id="boundary" inkscape:connector-curvature="0" />
	<path style="fill:none;stroke:red;stroke-width:1px;stroke-linecap:butt;stroke-linejoin:miter;stroke-opacity:1" d="M 420.953,52.6445 434.851,38.7461 z" id="boundary" inkscape:connector-curvature="0" />
	<path style="fill:none;stroke:red;stroke-width:1px;stroke-linecap:butt;stroke-linejoin:miter;stroke-opacity:1" d="M 412.266,70.0175 420.953,52.6445 z" id="boundary" inkscape:connector-curvature="0" />
	<path style="fill:none;stroke:red;stroke-width:1px;stroke-linecap:butt;stroke-linejoin:miter;stroke-opacity:1" d="M 462.648,12.6865 478.284,4 z" id="boundary" inkscape:connector-curvature="0" />
	<path style="fill:none;stroke:red;stroke-width:1px;stroke-linecap:butt;stroke-linejoin:miter;stroke-opacity:1" d="M 509.555,14.4238 518.242,30.0595 z" id="boundary" inkscape:connector-curvature="0" />
	<path style="fill:none;stroke:red;stroke-width:1px;stroke-linecap:butt;stroke-linejoin:miter;stroke-opacity:1" d="M 509.555,14.4238 495.657,4 z" id="boundary" inkscape:connector-curvature="0" />
	<path style="fill:none;stroke:red;stroke-width:1px;stroke-linecap:butt;stroke-linejoin:miter;stroke-opacity:1" d="M 518.242,30.0595 526.928,45.6953 z" id="boundary" inkscape:connector-curvature="0" />
	<path style="fill:none;stroke:red;stroke-width:1px;stroke-linecap:butt;stroke-linejoin:miter;stroke-opacity:1" d="M 535.615,61.331 526.928,45.6953 z" id="boundary" inkscape:connector-curvature="0" />
	<path style="fill:none;stroke:red;stroke-width:1px;stroke-linecap:butt;stroke-linejoin:miter;stroke-opacity:1" d="M 535.615,61.331 544.301,76.9667 z" id="boundary" inkscape:connector-curvature="0" />
	<path style="fill:none;stroke:red;stroke-width:1px;stroke-linecap:butt;stroke-linejoin:miter;stroke-opacity:1" d="M 552.988,92.6025 544.301,76.9667 z" id="boundary" inkscape:connector-curvature="0" />
	<path style="fill:none;stroke:red;stroke-width:1px;stroke-linecap:butt;stroke-linejoin:miter;stroke-opacity:1" d="M 561.674,108.238 552.988,92.6025 z" id="boundary" inkscape:connector-curvature="0" />
	<path style="fill:none;stroke:red;stroke-width:1px;stroke-linecap:butt;stroke-linejoin:miter;stroke-opacity:1" d="M 605.107,94.3398 592.946,108.238 z" id="boundary" inkscape:connector-curvature="0" />
	<path style="fill:none;stroke:red;stroke-width:1px;stroke-linecap:butt;stroke-linejoin:miter;stroke-opacity:1" d="M 478.284,4 495.657,4 z" id="boundary" inkscape:connector-curvature="0" />
	<path style="fill:none;stroke:red;stroke-width:1px;stroke-linecap:butt;stroke-linejoin:miter;stroke-opacity:1" d="M 377.52,182.942 368.834,209.002 z" id="boundary" inkscape:connector-curvature="0" />
	<path style="fill:none;stroke:red;stroke-width:1px;stroke-linecap:butt;stroke-linejoin:miter;stroke-opacity:1" d="M 368.834,209.002 353.198,221.163 z" id="boundary" inkscape:connector-curvature="0" />
	<path style="fill:none;stroke:red;stroke-width:1px;stroke-linecap:butt;stroke-linejoin:miter;stroke-opacity:1" d="M 353.198,221.163 335.825,224.637 z" id="boundary" inkscape:connector-curvature="0" />
	<path style="fill:none;stroke:red;stroke-width:1px;stroke-linecap:butt;stroke-linejoin:miter;stroke-opacity:1" d="M 318.452,233.324 335.825,224.637 z" id="boundary" inkscape:connector-curvature="0" />
	<path style="fill:none;stroke:red;stroke-width:1px;stroke-linecap:butt;stroke-linejoin:miter;stroke-opacity:1" d="M 335.825,299.342 339.299,275.019 z" id="boundary" inkscape:connector-curvature="0" />
	<path style="fill:none;stroke:red;stroke-width:1px;stroke-linecap:butt;stroke-linejoin:miter;stroke-opacity:1" d="M 386.207,156.883 377.52,182.942 z" id="boundary" inkscape:connector-curvature="0" />
	<path style="fill:none;stroke:red;stroke-width:1px;stroke-linecap:butt;stroke-linejoin:miter;stroke-opacity:1" d="M 394.893,113.45 394.893,130.823 z" id="boundary" inkscape:connector-curvature="0" />
	<path style="fill:none;stroke:red;stroke-width:1px;stroke-linecap:butt;stroke-linejoin:miter;stroke-opacity:1" d="M 394.893,130.823 386.207,156.883 z" id="boundary" inkscape:connector-curvature="0" />
	<path style="fill:none;stroke:red;stroke-width:1px;stroke-linecap:butt;stroke-linejoin:miter;stroke-opacity:1" d="M 577.31,116.925 592.946,108.238 z" id="boundary" inkscape:connector-curvature="0" />
	<path style="fill:none;stroke:red;stroke-width:1px;stroke-linecap:butt;stroke-linejoin:miter;stroke-opacity:1" d="M 561.674,108.238 577.31,116.925 z" id="boundary" inkscape:connector-curvature="0" />
	<path style="fill:none;stroke:red;stroke-width:1px;stroke-linecap:butt;stroke-linejoin:miter;stroke-opacity:1" d="M 587.734,162.095 591.208,179.468 z" id="boundary" inkscape:connector-curvature="0" />
	<path style="fill:none;stroke:red;stroke-width:1px;stroke-linecap:butt;stroke-linejoin:miter;stroke-opacity:1" d="M 587.734,162.095 603.37,153.408 z" id="boundary" inkscape:connector-curvature="0" />
	<path style="fill:none;stroke:red;stroke-width:1px;stroke-linecap:butt;stroke-linejoin:miter;stroke-opacity:1" d="M 620.743,153.408 603.37,153.408 z" id="boundary" inkscape:connector-curvature="0" />
	<path style="fill:none;stroke:red;stroke-width:1px;stroke-linecap:butt;stroke-linejoin:miter;stroke-opacity:1" d="M 101.289,546.039 115.187,533.877 z" id="boundary" inkscape:connector-curvature="0" />
	<path style="fill:none;stroke:red;stroke-width:1px;stroke-linecap:butt;stroke-linejoin:miter;stroke-opacity:1" d="M 101.289,546.039 83.9159,554.725 z" id="boundary" inkscape:connector-curvature="0" />
	<path style="fill:none;stroke:red;stroke-width:1px;stroke-linecap:butt;stroke-linejoin:miter;stroke-opacity:1" d="M 130.823,525.191 115.187,533.877 z" id="boundary" inkscape:connector-curvature="0" />
	<path style="fill:none;stroke:red;stroke-width:1px;stroke-linecap:butt;stroke-linejoin:miter;stroke-opacity:1" d="M 144.722,511.292 130.823,525.191 z" id="boundary" inkscape:connector-curvature="0" />
	<path style="fill:none;stroke:red;stroke-width:1px;stroke-linecap:butt;stroke-linejoin:miter;stroke-opacity:1" d="M 31.7968,580.785 49.1699,572.098 z" id="boundary" inkscape:connector-curvature="0" />
	<path style="fill:none;stroke:red;stroke-width:1px;stroke-linecap:butt;stroke-linejoin:miter;stroke-opacity:1" d="M 66.5429,563.412 49.1699,572.098 z" id="boundary" inkscape:connector-curvature="0" />
	<path style="fill:none;stroke:red;stroke-width:1px;stroke-linecap:butt;stroke-linejoin:miter;stroke-opacity:1" d="M 66.5429,563.412 83.9159,554.725 z" id="boundary" inkscape:connector-curvature="0" />
	<path style="fill:none;stroke:red;stroke-width:1px;stroke-linecap:butt;stroke-linejoin:miter;stroke-opacity:1" d="M 238.536,570.361 221.163,573.835 z" id="boundary" inkscape:connector-curvature="0" />
	<path style="fill:none;stroke:red;stroke-width:1px;stroke-linecap:butt;stroke-linejoin:miter;stroke-opacity:1" d="M 214.214,476.546 196.841,485.233 z" id="boundary" inkscape:connector-curvature="0" />
	<path style="fill:none;stroke:red;stroke-width:1px;stroke-linecap:butt;stroke-linejoin:miter;stroke-opacity:1" d="M 231.587,467.86 214.214,476.546 z" id="boundary" inkscape:connector-curvature="0" />
	<path style="fill:none;stroke:red;stroke-width:1px;stroke-linecap:butt;stroke-linejoin:miter;stroke-opacity:1" d="M 144.722,511.292 162.095,502.606 z" id="boundary" inkscape:connector-curvature="0" />
	<path style="fill:none;stroke:red;stroke-width:1px;stroke-linecap:butt;stroke-linejoin:miter;stroke-opacity:1" d="M 162.095,502.606 179.468,493.919 z" id="boundary" inkscape:connector-curvature="0" />
	<path style="fill:none;stroke:red;stroke-width:1px;stroke-linecap:butt;stroke-linejoin:miter;stroke-opacity:1" d="M 179.468,493.919 196.841,485.233 z" id="boundary" inkscape:connector-curvature="0" />
	<path style="fill:none;stroke:red;stroke-width:1px;stroke-linecap:butt;stroke-linejoin:miter;stroke-opacity:1" d="M 221.163,573.835 203.79,582.522 z" id="boundary" inkscape:connector-curvature="0" />
	<path style="fill:none;stroke:red;stroke-width:1px;stroke-linecap:butt;stroke-linejoin:miter;stroke-opacity:1" d="M 4,625.954 4,608.581 z" id="boundary" inkscape:connector-curvature="0" />
	<path style="fill:none;stroke:red;stroke-width:1px;stroke-linecap:butt;stroke-linejoin:miter;stroke-opacity:1" d="M 17.8984,638.116 4,625.954 z" id="boundary" inkscape:connector-curvature="0" />
	<path style="fill:none;stroke:red;stroke-width:1px;stroke-linecap:butt;stroke-linejoin:miter;stroke-opacity:1" d="M 17.8984,594.683 4,608.581 z" id="boundary" inkscape:connector-curvature="0" />
	<path style="fill:none;stroke:red;stroke-width:1px;stroke-linecap:butt;stroke-linejoin:miter;stroke-opacity:1" d="M 35.2715,639.853 17.8984,638.116 z" id="boundary" inkscape:connector-curvature="0" />
	<path style="fill:none;stroke:red;stroke-width:1px;stroke-linecap:butt;stroke-linejoin:miter;stroke-opacity:1" d="M 52.6445,638.116 70.0175,631.166 z" id="boundary" inkscape:connector-curvature="0" />
	<path style="fill:none;stroke:red;stroke-width:1px;stroke-linecap:butt;stroke-linejoin:miter;stroke-opacity:1" d="M 52.6445,638.116 35.2715,639.853 z" id="boundary" inkscape:connector-curvature="0" />
	<path style="fill:none;stroke:red;stroke-width:1px;stroke-linecap:butt;stroke-linejoin:miter;stroke-opacity:1" d="M 17.8984,594.683 31.7968,580.785 z" id="boundary" inkscape:connector-curvature="0" />
	<path style="fill:none;stroke:red;stroke-width:1px;stroke-linecap:butt;stroke-linejoin:miter;stroke-opacity:1" d="M 153.408,596.42 170.781,596.42 z" id="boundary" inkscape:connector-curvature="0" />
	<path style="fill:none;stroke:red;stroke-width:1px;stroke-linecap:butt;stroke-linejoin:miter;stroke-opacity:1" d="M 136.035,605.107 153.408,596.42 z" id="boundary" inkscape:connector-curvature="0" />
	<path style="fill:none;stroke:red;stroke-width:1px;stroke-linecap:butt;stroke-linejoin:miter;stroke-opacity:1" d="M 186.417,587.734 170.781,596.42 z" id="boundary" inkscape:connector-curvature="0" />
	<path style="fill:none;stroke:red;stroke-width:1px;stroke-linecap:butt;stroke-linejoin:miter;stroke-opacity:1" d="M 186.417,587.734 203.79,582.522 z" id="boundary" inkscape:connector-curvature="0" />
	<path style="fill:none;stroke:red;stroke-width:1px;stroke-linecap:butt;stroke-linejoin:miter;stroke-opacity:1" d="M 85.6532,622.48 103.026,622.48 z" id="boundary" inkscape:connector-curvature="0" />
	<path style="fill:none;stroke:red;stroke-width:1px;stroke-linecap:butt;stroke-linejoin:miter;stroke-opacity:1" d="M 70.0175,631.166 85.6532,622.48 z" id="boundary" inkscape:connector-curvature="0" />
	<path style="fill:none;stroke:red;stroke-width:1px;stroke-linecap:butt;stroke-linejoin:miter;stroke-opacity:1" d="M 118.662,613.793 103.026,622.48 z" id="boundary" inkscape:connector-curvature="0" />
	<path style="fill:none;stroke:red;stroke-width:1px;stroke-linecap:butt;stroke-linejoin:miter;stroke-opacity:1" d="M 118.662,613.793 136.035,605.107 z" id="boundary" inkscape:connector-curvature="0" />
	<path style="fill:none;stroke:red;stroke-width:1px;stroke-linecap:butt;stroke-linejoin:miter;stroke-opacity:1" d="M 264.595,426.165 261.121,447.012 z" id="boundary" inkscape:connector-curvature="0" />
	<path style="fill:none;stroke:red;stroke-width:1px;stroke-linecap:butt;stroke-linejoin:miter;stroke-opacity:1" d="M 261.121,447.012 245.485,455.699 z" id="boundary" inkscape:connector-curvature="0" />
	<path style="fill:none;stroke:red;stroke-width:1px;stroke-linecap:butt;stroke-linejoin:miter;stroke-opacity:1" d="M 245.485,455.699 231.587,467.86 z" id="boundary" inkscape:connector-curvature="0" />
	<path style="fill:none;stroke:red;stroke-width:1px;stroke-linecap:butt;stroke-linejoin:miter;stroke-opacity:1" d="M 238.536,570.361 254.172,561.674 z" id="boundary" inkscape:connector-curvature="0" />
	<path style="fill:none;stroke:red;stroke-width:1px;stroke-linecap:butt;stroke-linejoin:miter;stroke-opacity:1" d="M 254.172,561.674 271.545,558.2 z" id="boundary" inkscape:connector-curvature="0" />
	<path style="fill:none;stroke:red;stroke-width:1px;stroke-linecap:butt;stroke-linejoin:miter;stroke-opacity:1" d="M 288.918,552.988 304.553,544.301 z" id="boundary" inkscape:connector-curvature="0" />
	<path style="fill:none;stroke:red;stroke-width:1px;stroke-linecap:butt;stroke-linejoin:miter;stroke-opacity:1" d="M 304.553,544.301 321.926,551.25 z" id="boundary" inkscape:connector-curvature="0" />
	<path style="fill:none;stroke:red;stroke-width:1px;stroke-linecap:butt;stroke-linejoin:miter;stroke-opacity:1" d="M 288.918,552.988 271.545,558.2 z" id="boundary" inkscape:connector-curvature="0" />
	<path style="fill:none;stroke:red;stroke-width:1px;stroke-linecap:butt;stroke-linejoin:miter;stroke-opacity:1" d="M 354.935,544.301 370.571,535.615 z" id="boundary" inkscape:connector-curvature="0" />
	<path style="fill:none;stroke:red;stroke-width:1px;stroke-linecap:butt;stroke-linejoin:miter;stroke-opacity:1" d="M 370.571,535.615 387.944,535.615 z" id="boundary" inkscape:connector-curvature="0" />
	<path style="fill:none;stroke:red;stroke-width:1px;stroke-linecap:butt;stroke-linejoin:miter;stroke-opacity:1" d="M 387.944,535.615 405.317,535.615 z" id="boundary" inkscape:connector-curvature="0" />
	<path style="fill:none;stroke:red;stroke-width:1px;stroke-linecap:butt;stroke-linejoin:miter;stroke-opacity:1" d="M 405.317,535.615 420.953,544.301 z" id="boundary" inkscape:connector-curvature="0" />
	<path style="fill:none;stroke:red;stroke-width:1px;stroke-linecap:butt;stroke-linejoin:miter;stroke-opacity:1" d="M 321.926,551.25 339.299,552.988 z" id="boundary" inkscape:connector-curvature="0" />
	<path style="fill:none;stroke:red;stroke-width:1px;stroke-linecap:butt;stroke-linejoin:miter;stroke-opacity:1" d="M 354.935,544.301 339.299,552.988 z" id="boundary" inkscape:connector-curvature="0" />
	<path style="fill:none;stroke:red;stroke-width:1px;stroke-linecap:butt;stroke-linejoin:miter;stroke-opacity:1" d="M 436.588,552.988 420.953,544.301 z" id="boundary" inkscape:connector-curvature="0" />
	<path style="fill:none;stroke:red;stroke-width:1px;stroke-linecap:butt;stroke-linejoin:miter;stroke-opacity:1" d="M 464.385,608.581 464.385,625.954 z" id="boundary" inkscape:connector-curvature="0" />
	<path style="fill:none;stroke:red;stroke-width:1px;stroke-linecap:butt;stroke-linejoin:miter;stroke-opacity:1" d="M 436.588,552.988 452.224,561.674 z" id="boundary" inkscape:connector-curvature="0" />
	<path style="fill:none;stroke:red;stroke-width:1px;stroke-linecap:butt;stroke-linejoin:miter;stroke-opacity:1" d="M 467.86,570.361 452.224,561.674 z" id="boundary" inkscape:connector-curvature="0" />
	<path style="fill:none;stroke:red;stroke-width:1px;stroke-linecap:butt;stroke-linejoin:miter;stroke-opacity:1" d="M 481.758,631.166 464.385,625.954 z" id="boundary" inkscape:connector-curvature="0" />
	<path style="fill:none;stroke:red;stroke-width:1px;stroke-linecap:butt;stroke-linejoin:miter;stroke-opacity:1" d="M 481.758,580.785 481.758,598.158 z" id="boundary" inkscape:connector-curvature="0" />
	<path style="fill:none;stroke:red;stroke-width:1px;stroke-linecap:butt;stroke-linejoin:miter;stroke-opacity:1" d="M 467.86,570.361 481.758,580.785 z" id="boundary" inkscape:connector-curvature="0" />
	<path style="fill:none;stroke:red;stroke-width:1px;stroke-linecap:butt;stroke-linejoin:miter;stroke-opacity:1" d="M 547.776,613.793 565.149,613.793 z" id="boundary" inkscape:connector-curvature="0" />
	<path style="fill:none;stroke:red;stroke-width:1px;stroke-linecap:butt;stroke-linejoin:miter;stroke-opacity:1" d="M 532.14,622.48 547.776,613.793 z" id="boundary" inkscape:connector-curvature="0" />
	<path style="fill:none;stroke:red;stroke-width:1px;stroke-linecap:butt;stroke-linejoin:miter;stroke-opacity:1" d="M 599.895,613.793 582.522,613.793 z" id="boundary" inkscape:connector-curvature="0" />
	<path style="fill:none;stroke:red;stroke-width:1px;stroke-linecap:butt;stroke-linejoin:miter;stroke-opacity:1" d="M 582.522,613.793 565.149,613.793 z" id="boundary" inkscape:connector-curvature="0" />
	<path style="fill:none;stroke:red;stroke-width:1px;stroke-linecap:butt;stroke-linejoin:miter;stroke-opacity:1" d="M 499.131,631.166 481.758,631.166 z" id="boundary" inkscape:connector-curvature="0" />
	<path style="fill:none;stroke:red;stroke-width:1px;stroke-linecap:butt;stroke-linejoin:miter;stroke-opacity:1" d="M 516.504,631.166 532.14,622.48 z" id="boundary" inkscape:connector-curvature="0" />
	<path style="fill:none;stroke:red;stroke-width:1px;stroke-linecap:butt;stroke-linejoin:miter;stroke-opacity:1" d="M 516.504,631.166 499.131,631.166 z" id="boundary" inkscape:connector-curvature="0" />
	<path style="fill:none;stroke:red;stroke-width:1px;stroke-linecap:butt;stroke-linejoin:miter;stroke-opacity:1" d="M 599.895,613.793 615.531,622.48 z" id="boundary" inkscape:connector-curvature="0" />
	<path style="fill:none;stroke:red;stroke-width:1px;stroke-linecap:butt;stroke-linejoin:miter;stroke-opacity:1" d="M 605.107,191.629 591.208,179.468 z" id="boundary" inkscape:connector-curvature="0" />
	<path style="fill:none;stroke:red;stroke-width:1px;stroke-linecap:butt;stroke-linejoin:miter;stroke-opacity:1" d="M 605.107,94.3398 622.48,90.8651 z" id="boundary" inkscape:connector-curvature="0" />
	<path style="fill:none;stroke:red;stroke-width:1px;stroke-linecap:butt;stroke-linejoin:miter;stroke-opacity:1" d="M 622.48,90.8651 636.378,101.289 z" id="boundary" inkscape:connector-curvature="0" />
	<path style="fill:none;stroke:red;stroke-width:1px;stroke-linecap:butt;stroke-linejoin:miter;stroke-opacity:1" d="M 612.056,209.002 613.793,226.375 z" id="boundary" inkscape:connector-curvature="0" />
	<path style="fill:none;stroke:red;stroke-width:1px;stroke-linecap:butt;stroke-linejoin:miter;stroke-opacity:1" d="M 612.056,209.002 605.107,191.629 z" id="boundary" inkscape:connector-curvature="0" />
	<path style="fill:none;stroke:red;stroke-width:1px;stroke-linecap:butt;stroke-linejoin:miter;stroke-opacity:1" d="M 620.743,153.408 638.116,148.196 z" id="boundary" inkscape:connector-curvature="0" />
	<path style="fill:none;stroke:red;stroke-width:1px;stroke-linecap:butt;stroke-linejoin:miter;stroke-opacity:1" d="M 622.48,242.011 613.793,226.375 z" id="boundary" inkscape:connector-curvature="0" />
	<path style="fill:none;stroke:red;stroke-width:1px;stroke-linecap:butt;stroke-linejoin:miter;stroke-opacity:1" d="M 636.378,101.289 639.853,118.662 z" id="boundary" inkscape:connector-curvature="0" />
	<path style="fill:none;stroke:red;stroke-width:1px;stroke-linecap:butt;stroke-linejoin:miter;stroke-opacity:1" d="M 639.853,118.662 648.539,134.298 z" id="boundary" inkscape:connector-curvature="0" />
	<path style="fill:none;stroke:red;stroke-width:1px;stroke-linecap:butt;stroke-linejoin:miter;stroke-opacity:1" d="M 648.539,134.298 638.116,148.196 z" id="boundary" inkscape:connector-curvature="0" />
	<path style="fill:none;stroke:red;stroke-width:1px;stroke-linecap:butt;stroke-linejoin:miter;stroke-opacity:1" d="M 784.049,221.163 799.685,212.476 z" id="boundary" inkscape:connector-curvature="0" />
	<path style="fill:none;stroke:red;stroke-width:1px;stroke-linecap:butt;stroke-linejoin:miter;stroke-opacity:1" d="M 811.846,191.629 799.685,212.476 z" id="boundary" inkscape:connector-curvature="0" />
	<path style="fill:none;stroke:red;stroke-width:1px;stroke-linecap:butt;stroke-linejoin:miter;stroke-opacity:1" d="M 820.532,174.256 811.846,191.629 z" id="boundary" inkscape:connector-curvature="0" />
	<path style="fill:none;stroke:red;stroke-width:1px;stroke-linecap:butt;stroke-linejoin:miter;stroke-opacity:1" d="M 844.855,275.019 827.482,280.231 z" id="boundary" inkscape:connector-curvature="0" />
	<path style="fill:none;stroke:red;stroke-width:1px;stroke-linecap:butt;stroke-linejoin:miter;stroke-opacity:1" d="M 829.219,156.883 820.532,174.256 z" id="boundary" inkscape:connector-curvature="0" />
	<path style="fill:none;stroke:red;stroke-width:1px;stroke-linecap:butt;stroke-linejoin:miter;stroke-opacity:1" d="M 733.667,238.536 718.032,247.222 z" id="boundary" inkscape:connector-curvature="0" />
	<path style="fill:none;stroke:red;stroke-width:1px;stroke-linecap:butt;stroke-linejoin:miter;stroke-opacity:1" d="M 718.032,247.222 700.658,250.697 z" id="boundary" inkscape:connector-curvature="0" />
	<path style="fill:none;stroke:red;stroke-width:1px;stroke-linecap:butt;stroke-linejoin:miter;stroke-opacity:1" d="M 700.658,250.697 683.285,255.909 z" id="boundary" inkscape:connector-curvature="0" />
	<path style="fill:none;stroke:red;stroke-width:1px;stroke-linecap:butt;stroke-linejoin:miter;stroke-opacity:1" d="M 683.285,255.909 665.912,259.384 z" id="boundary" inkscape:connector-curvature="0" />
	<path style="fill:none;stroke:red;stroke-width:1px;stroke-linecap:butt;stroke-linejoin:miter;stroke-opacity:1" d="M 631.166,257.646 648.539,264.595 z" id="boundary" inkscape:connector-curvature="0" />
	<path style="fill:none;stroke:red;stroke-width:1px;stroke-linecap:butt;stroke-linejoin:miter;stroke-opacity:1" d="M 631.166,257.646 622.48,242.011 z" id="boundary" inkscape:connector-curvature="0" />
	<path style="fill:none;stroke:red;stroke-width:1px;stroke-linecap:butt;stroke-linejoin:miter;stroke-opacity:1" d="M 648.539,264.595 665.912,259.384 z" id="boundary" inkscape:connector-curvature="0" />
	<path style="fill:none;stroke:red;stroke-width:1px;stroke-linecap:butt;stroke-linejoin:miter;stroke-opacity:1" d="M 733.667,238.536 751.04,235.061 z" id="boundary" inkscape:connector-curvature="0" />
	<path style="fill:none;stroke:red;stroke-width:1px;stroke-linecap:butt;stroke-linejoin:miter;stroke-opacity:1" d="M 751.04,235.061 768.413,229.849 z" id="boundary" inkscape:connector-curvature="0" />
	<path style="fill:none;stroke:red;stroke-width:1px;stroke-linecap:butt;stroke-linejoin:miter;stroke-opacity:1" d="M 827.482,280.231 810.109,288.918 z" id="boundary" inkscape:connector-curvature="0" />
	<path style="fill:none;stroke:red;stroke-width:1px;stroke-linecap:butt;stroke-linejoin:miter;stroke-opacity:1" d="M 768.413,229.849 784.049,221.163 z" id="boundary" inkscape:connector-curvature="0" />
	<path style="fill:none;stroke:red;stroke-width:1px;stroke-linecap:butt;stroke-linejoin:miter;stroke-opacity:1" d="M 761.464,318.452 775.363,306.291 z" id="boundary" inkscape:connector-curvature="0" />
	<path style="fill:none;stroke:red;stroke-width:1px;stroke-linecap:butt;stroke-linejoin:miter;stroke-opacity:1" d="M 775.363,306.291 792.736,297.604 z" id="boundary" inkscape:connector-curvature="0" />
	<path style="fill:none;stroke:red;stroke-width:1px;stroke-linecap:butt;stroke-linejoin:miter;stroke-opacity:1" d="M 810.109,288.918 792.736,297.604 z" id="boundary" inkscape:connector-curvature="0" />
	<path style="fill:none;stroke:red;stroke-width:1px;stroke-linecap:butt;stroke-linejoin:miter;stroke-opacity:1" d="M 761.464,318.452 744.091,327.138 z" id="boundary" inkscape:connector-curvature="0" />
	<path style="fill:none;stroke:red;stroke-width:1px;stroke-linecap:butt;stroke-linejoin:miter;stroke-opacity:1" d="M 855.278,96.0771 863.965,78.704 z" id="boundary" inkscape:connector-curvature="0" />
	<path style="fill:none;stroke:red;stroke-width:1px;stroke-linecap:butt;stroke-linejoin:miter;stroke-opacity:1" d="M 881.338,70.0175 863.965,78.704 z" id="boundary" inkscape:connector-curvature="0" />
	<path style="fill:none;stroke:red;stroke-width:1px;stroke-linecap:butt;stroke-linejoin:miter;stroke-opacity:1" d="M 837.905,130.823 846.592,113.45 z" id="boundary" inkscape:connector-curvature="0" />
	<path style="fill:none;stroke:red;stroke-width:1px;stroke-linecap:butt;stroke-linejoin:miter;stroke-opacity:1" d="M 837.905,130.823 829.219,156.883 z" id="boundary" inkscape:connector-curvature="0" />
	<path style="fill:none;stroke:red;stroke-width:1px;stroke-linecap:butt;stroke-linejoin:miter;stroke-opacity:1" d="M 846.592,113.45 855.278,96.0771 z" id="boundary" inkscape:connector-curvature="0" />
	<path style="fill:none;stroke:red;stroke-width:1px;stroke-linecap:butt;stroke-linejoin:miter;stroke-opacity:1" d="M 881.338,70.0175 898.711,68.2802 z" id="boundary" inkscape:connector-curvature="0" />
	<path style="fill:none;stroke:red;stroke-width:1px;stroke-linecap:butt;stroke-linejoin:miter;stroke-opacity:1" d="M 898.711,68.2802 909.135,82.1786 z" id="boundary" inkscape:connector-curvature="0" />
	<path style="fill:none;stroke:red;stroke-width:1px;stroke-linecap:butt;stroke-linejoin:miter;stroke-opacity:1" d="M 917.821,97.8144 917.821,115.187 z" id="boundary" inkscape:connector-curvature="0" />
	<path style="fill:none;stroke:red;stroke-width:1px;stroke-linecap:butt;stroke-linejoin:miter;stroke-opacity:1" d="M 926.508,130.823 935.194,146.459 z" id="boundary" inkscape:connector-curvature="0" />
	<path style="fill:none;stroke:red;stroke-width:1px;stroke-linecap:butt;stroke-linejoin:miter;stroke-opacity:1" d="M 926.508,130.823 917.821,115.187 z" id="boundary" inkscape:connector-curvature="0" />
	<path style="fill:none;stroke:red;stroke-width:1px;stroke-linecap:butt;stroke-linejoin:miter;stroke-opacity:1" d="M 909.135,82.1786 917.821,97.8144 z" id="boundary" inkscape:connector-curvature="0" />
	<path style="fill:none;stroke:red;stroke-width:1px;stroke-linecap:butt;stroke-linejoin:miter;stroke-opacity:1" d="M 935.194,146.459 943.881,162.095 z" id="boundary" inkscape:connector-curvature="0" />
	<path style="fill:none;stroke:red;stroke-width:1px;stroke-linecap:butt;stroke-linejoin:miter;stroke-opacity:1" d="M 943.881,162.095 947.356,179.468 z" id="boundary" inkscape:connector-curvature="0" />
	<path style="fill:none;stroke:red;stroke-width:1px;stroke-linecap:butt;stroke-linejoin:miter;stroke-opacity:1" d="M 961.254,191.629 947.356,179.468 z" id="boundary" inkscape:connector-curvature="0" />
	<path style="fill:none;stroke:red;stroke-width:1px;stroke-linecap:butt;stroke-linejoin:miter;stroke-opacity:1" d="M 969.94,207.264 961.254,191.629 z" id="boundary" inkscape:connector-curvature="0" />
	<path style="fill:none;stroke:red;stroke-width:1px;stroke-linecap:butt;stroke-linejoin:miter;stroke-opacity:1" d="M 877.863,283.706 860.49,283.706 z" id="boundary" inkscape:connector-curvature="0" />
	<path style="fill:none;stroke:red;stroke-width:1px;stroke-linecap:butt;stroke-linejoin:miter;stroke-opacity:1" d="M 860.49,283.706 844.855,275.019 z" id="boundary" inkscape:connector-curvature="0" />
	<path style="fill:none;stroke:red;stroke-width:1px;stroke-linecap:butt;stroke-linejoin:miter;stroke-opacity:1" d="M 877.863,283.706 893.499,292.392 z" id="boundary" inkscape:connector-curvature="0" />
	<path style="fill:none;stroke:red;stroke-width:1px;stroke-linecap:butt;stroke-linejoin:miter;stroke-opacity:1" d="M 910.872,297.604 893.499,292.392 z" id="boundary" inkscape:connector-curvature="0" />
	<path style="fill:none;stroke:red;stroke-width:1px;stroke-linecap:butt;stroke-linejoin:miter;stroke-opacity:1" d="M 910.872,297.604 928.245,301.079 z" id="boundary" inkscape:connector-curvature="0" />
	<path style="fill:none;stroke:red;stroke-width:1px;stroke-linecap:butt;stroke-linejoin:miter;stroke-opacity:1" d="M 945.618,306.291 928.245,301.079 z" id="boundary" inkscape:connector-curvature="0" />
	<path style="fill:none;stroke:red;stroke-width:1px;stroke-linecap:butt;stroke-linejoin:miter;stroke-opacity:1" d="M 975.152,224.637 983.839,240.273 z" id="boundary" inkscape:connector-curvature="0" />
	<path style="fill:none;stroke:red;stroke-width:1px;stroke-linecap:butt;stroke-linejoin:miter;stroke-opacity:1" d="M 975.152,224.637 969.94,207.264 z" id="boundary" inkscape:connector-curvature="0" />
	<path style="fill:none;stroke:red;stroke-width:1px;stroke-linecap:butt;stroke-linejoin:miter;stroke-opacity:1" d="M 983.839,240.273 990.788,257.646 z" id="boundary" inkscape:connector-curvature="0" />
	<path style="fill:none;stroke:red;stroke-width:1px;stroke-linecap:butt;stroke-linejoin:miter;stroke-opacity:1" d="M 962.991,309.765 945.618,306.291 z" id="boundary" inkscape:connector-curvature="0" />
	<path style="fill:none;stroke:red;stroke-width:1px;stroke-linecap:butt;stroke-linejoin:miter;stroke-opacity:1" d="M 980.364,309.765 962.991,309.765 z" id="boundary" inkscape:connector-curvature="0" />
	<path style="fill:none;stroke:red;stroke-width:1px;stroke-linecap:butt;stroke-linejoin:miter;stroke-opacity:1" d="M 996,275.019 996,301.079 z" id="boundary" inkscape:connector-curvature="0" />
	<path style="fill:none;stroke:red;stroke-width:1px;stroke-linecap:butt;stroke-linejoin:miter;stroke-opacity:1" d="M 996,301.079 980.364,309.765 z" id="boundary" inkscape:connector-curvature="0" />
	<path style="fill:none;stroke:red;stroke-width:1px;stroke-linecap:butt;stroke-linejoin:miter;stroke-opacity:1" d="M 990.788,257.646 996,275.019 z" id="boundary" inkscape:connector-curvature="0" />
	<path style="fill:none;stroke:red;stroke-width:1px;stroke-linecap:butt;stroke-linejoin:miter;stroke-opacity:1" d="M 726.718,335.825 740.616,346.249 z" id="boundary" inkscape:connector-curvature="0" />
	<path style="fill:none;stroke:red;stroke-width:1px;stroke-linecap:butt;stroke-linejoin:miter;stroke-opacity:1" d="M 718.032,422.69 721.506,440.063 z" id="boundary" inkscape:connector-curvature="0" />
	<path style="fill:none;stroke:red;stroke-width:1px;stroke-linecap:butt;stroke-linejoin:miter;stroke-opacity:1" d="M 726.718,335.825 744.091,327.138 z" id="boundary" inkscape:connector-curvature="0" />
	<path style="fill:none;stroke:red;stroke-width:1px;stroke-linecap:butt;stroke-linejoin:miter;stroke-opacity:1" d="M 735.405,422.69 718.032,422.69 z" id="boundary" inkscape:connector-curvature="0" />
	<path style="fill:none;stroke:red;stroke-width:1px;stroke-linecap:butt;stroke-linejoin:miter;stroke-opacity:1" d="M 730.193,455.699 721.506,440.063 z" id="boundary" inkscape:connector-curvature="0" />
	<path style="fill:none;stroke:red;stroke-width:1px;stroke-linecap:butt;stroke-linejoin:miter;stroke-opacity:1" d="M 759.727,460.911 742.354,469.597 z" id="boundary" inkscape:connector-curvature="0" />
	<path style="fill:none;stroke:red;stroke-width:1px;stroke-linecap:butt;stroke-linejoin:miter;stroke-opacity:1" d="M 742.354,469.597 730.193,455.699 z" id="boundary" inkscape:connector-curvature="0" />
	<path style="fill:none;stroke:red;stroke-width:1px;stroke-linecap:butt;stroke-linejoin:miter;stroke-opacity:1" d="M 735.405,422.69 752.778,422.69 z" id="boundary" inkscape:connector-curvature="0" />
	<path style="fill:none;stroke:red;stroke-width:1px;stroke-linecap:butt;stroke-linejoin:miter;stroke-opacity:1" d="M 740.616,346.249 757.989,351.461 z" id="boundary" inkscape:connector-curvature="0" />
	<path style="fill:none;stroke:red;stroke-width:1px;stroke-linecap:butt;stroke-linejoin:miter;stroke-opacity:1" d="M 775.363,351.461 757.989,351.461 z" id="boundary" inkscape:connector-curvature="0" />
	<path style="fill:none;stroke:red;stroke-width:1px;stroke-linecap:butt;stroke-linejoin:miter;stroke-opacity:1" d="M 773.625,447.012 759.727,460.911 z" id="boundary" inkscape:connector-curvature="0" />
	<path style="fill:none;stroke:red;stroke-width:1px;stroke-linecap:butt;stroke-linejoin:miter;stroke-opacity:1" d="M 752.778,422.69 770.151,422.69 z" id="boundary" inkscape:connector-curvature="0" />
	<path style="fill:none;stroke:red;stroke-width:1px;stroke-linecap:butt;stroke-linejoin:miter;stroke-opacity:1" d="M 770.151,422.69 787.524,422.69 z" id="boundary" inkscape:connector-curvature="0" />
	<path style="fill:none;stroke:red;stroke-width:1px;stroke-linecap:butt;stroke-linejoin:miter;stroke-opacity:1" d="M 615.531,622.48 631.166,631.166 z" id="boundary" inkscape:connector-curvature="0" />
	<path style="fill:none;stroke:red;stroke-width:1px;stroke-linecap:butt;stroke-linejoin:miter;stroke-opacity:1" d="M 646.802,639.853 631.166,631.166 z" id="boundary" inkscape:connector-curvature="0" />
	<path style="fill:none;stroke:red;stroke-width:1px;stroke-linecap:butt;stroke-linejoin:miter;stroke-opacity:1" d="M 662.438,648.539 646.802,639.853 z" id="boundary" inkscape:connector-curvature="0" />
	<path style="fill:none;stroke:red;stroke-width:1px;stroke-linecap:butt;stroke-linejoin:miter;stroke-opacity:1" d="M 662.438,648.539 678.074,657.226 z" id="boundary" inkscape:connector-curvature="0" />
	<path style="fill:none;stroke:red;stroke-width:1px;stroke-linecap:butt;stroke-linejoin:miter;stroke-opacity:1" d="M 695.447,657.226 678.074,657.226 z" id="boundary" inkscape:connector-curvature="0" />
	<path style="fill:none;stroke:red;stroke-width:1px;stroke-linecap:butt;stroke-linejoin:miter;stroke-opacity:1" d="M 695.447,657.226 711.082,665.912 z" id="boundary" inkscape:connector-curvature="0" />
	<path style="fill:none;stroke:red;stroke-width:1px;stroke-linecap:butt;stroke-linejoin:miter;stroke-opacity:1" d="M 711.082,665.912 728.455,671.124 z" id="boundary" inkscape:connector-curvature="0" />
	<path style="fill:none;stroke:red;stroke-width:1px;stroke-linecap:butt;stroke-linejoin:miter;stroke-opacity:1" d="M 761.464,526.928 764.939,544.301 z" id="boundary" inkscape:connector-curvature="0" />
	<path style="fill:none;stroke:red;stroke-width:1px;stroke-linecap:butt;stroke-linejoin:miter;stroke-opacity:1" d="M 761.464,526.928 761.464,509.555 z" id="boundary" inkscape:connector-curvature="0" />
	<path style="fill:none;stroke:red;stroke-width:1px;stroke-linecap:butt;stroke-linejoin:miter;stroke-opacity:1" d="M 761.464,509.555 778.837,509.555 z" id="boundary" inkscape:connector-curvature="0" />
	<path style="fill:none;stroke:red;stroke-width:1px;stroke-linecap:butt;stroke-linejoin:miter;stroke-opacity:1" d="M 773.625,559.937 764.939,544.301 z" id="boundary" inkscape:connector-curvature="0" />
	<path style="fill:none;stroke:red;stroke-width:1px;stroke-linecap:butt;stroke-linejoin:miter;stroke-opacity:1" d="M 728.455,671.124 745.828,674.599 z" id="boundary" inkscape:connector-curvature="0" />
	<path style="fill:none;stroke:red;stroke-width:1px;stroke-linecap:butt;stroke-linejoin:miter;stroke-opacity:1" d="M 761.464,665.912 745.828,674.599 z" id="boundary" inkscape:connector-curvature="0" />
	<path style="fill:none;stroke:red;stroke-width:1px;stroke-linecap:butt;stroke-linejoin:miter;stroke-opacity:1" d="M 773.625,559.937 778.837,577.31 z" id="boundary" inkscape:connector-curvature="0" />
	<path style="fill:none;stroke:red;stroke-width:1px;stroke-linecap:butt;stroke-linejoin:miter;stroke-opacity:1" d="M 761.464,665.912 778.837,665.912 z" id="boundary" inkscape:connector-curvature="0" />
	<path style="fill:none;stroke:red;stroke-width:1px;stroke-linecap:butt;stroke-linejoin:miter;stroke-opacity:1" d="M 778.837,509.555 796.21,509.555 z" id="boundary" inkscape:connector-curvature="0" />
	<path style="fill:none;stroke:red;stroke-width:1px;stroke-linecap:butt;stroke-linejoin:miter;stroke-opacity:1" d="M 792.736,351.461 810.109,353.198 z" id="boundary" inkscape:connector-curvature="0" />
	<path style="fill:none;stroke:red;stroke-width:1px;stroke-linecap:butt;stroke-linejoin:miter;stroke-opacity:1" d="M 792.736,351.461 775.363,351.461 z" id="boundary" inkscape:connector-curvature="0" />
	<path style="fill:none;stroke:red;stroke-width:1px;stroke-linecap:butt;stroke-linejoin:miter;stroke-opacity:1" d="M 827.482,360.147 810.109,353.198 z" id="boundary" inkscape:connector-curvature="0" />
	<path style="fill:none;stroke:red;stroke-width:1px;stroke-linecap:butt;stroke-linejoin:miter;stroke-opacity:1" d="M 787.524,422.69 803.159,431.377 z" id="boundary" inkscape:connector-curvature="0" />
	<path style="fill:none;stroke:red;stroke-width:1px;stroke-linecap:butt;stroke-linejoin:miter;stroke-opacity:1" d="M 820.532,431.377 803.159,431.377 z" id="boundary" inkscape:connector-curvature="0" />
	<path style="fill:none;stroke:red;stroke-width:1px;stroke-linecap:butt;stroke-linejoin:miter;stroke-opacity:1" d="M 820.532,431.377 837.905,431.377 z" id="boundary" inkscape:connector-curvature="0" />
	<path style="fill:none;stroke:red;stroke-width:1px;stroke-linecap:butt;stroke-linejoin:miter;stroke-opacity:1" d="M 827.482,360.147 844.855,360.147 z" id="boundary" inkscape:connector-curvature="0" />
	<path style="fill:none;stroke:red;stroke-width:1px;stroke-linecap:butt;stroke-linejoin:miter;stroke-opacity:1" d="M 844.855,360.147 862.228,360.147 z" id="boundary" inkscape:connector-curvature="0" />
	<path style="fill:none;stroke:red;stroke-width:1px;stroke-linecap:butt;stroke-linejoin:miter;stroke-opacity:1" d="M 862.228,360.147 879.601,361.884 z" id="boundary" inkscape:connector-curvature="0" />
	<path style="fill:none;stroke:red;stroke-width:1px;stroke-linecap:butt;stroke-linejoin:miter;stroke-opacity:1" d="M 896.974,368.834 879.601,361.884 z" id="boundary" inkscape:connector-curvature="0" />
	<path style="fill:none;stroke:red;stroke-width:1px;stroke-linecap:butt;stroke-linejoin:miter;stroke-opacity:1" d="M 917.821,387.944 917.821,405.317 z" id="boundary" inkscape:connector-curvature="0" />
	<path style="fill:none;stroke:red;stroke-width:1px;stroke-linecap:butt;stroke-linejoin:miter;stroke-opacity:1" d="M 917.821,387.944 914.347,370.571 z" id="boundary" inkscape:connector-curvature="0" />
	<path style="fill:none;stroke:red;stroke-width:1px;stroke-linecap:butt;stroke-linejoin:miter;stroke-opacity:1" d="M 917.821,422.69 917.821,405.317 z" id="boundary" inkscape:connector-curvature="0" />
	<path style="fill:none;stroke:red;stroke-width:1px;stroke-linecap:butt;stroke-linejoin:miter;stroke-opacity:1" d="M 896.974,368.834 914.347,370.571 z" id="boundary" inkscape:connector-curvature="0" />
	<path style="fill:none;stroke:red;stroke-width:1px;stroke-linecap:butt;stroke-linejoin:miter;stroke-opacity:1" d="M 855.278,431.377 837.905,431.377 z" id="boundary" inkscape:connector-curvature="0" />
	<path style="fill:none;stroke:red;stroke-width:1px;stroke-linecap:butt;stroke-linejoin:miter;stroke-opacity:1" d="M 790.998,447.012 803.159,460.911 z" id="boundary" inkscape:connector-curvature="0" />
	<path style="fill:none;stroke:red;stroke-width:1px;stroke-linecap:butt;stroke-linejoin:miter;stroke-opacity:1" d="M 773.625,447.012 790.998,447.012 z" id="boundary" inkscape:connector-curvature="0" />
	<path style="fill:none;stroke:red;stroke-width:1px;stroke-linecap:butt;stroke-linejoin:miter;stroke-opacity:1" d="M 787.524,592.946 778.837,577.31 z" id="boundary" inkscape:connector-curvature="0" />
	<path style="fill:none;stroke:red;stroke-width:1px;stroke-linecap:butt;stroke-linejoin:miter;stroke-opacity:1" d="M 787.524,592.946 796.21,608.581 z" id="boundary" inkscape:connector-curvature="0" />
	<path style="fill:none;stroke:red;stroke-width:1px;stroke-linecap:butt;stroke-linejoin:miter;stroke-opacity:1" d="M 796.21,608.581 803.159,625.954 z" id="boundary" inkscape:connector-curvature="0" />
	<path style="fill:none;stroke:red;stroke-width:1px;stroke-linecap:butt;stroke-linejoin:miter;stroke-opacity:1" d="M 803.159,625.954 792.736,653.751 z" id="boundary" inkscape:connector-curvature="0" />
	<path style="fill:none;stroke:red;stroke-width:1px;stroke-linecap:butt;stroke-linejoin:miter;stroke-opacity:1" d="M 792.736,653.751 778.837,665.912 z" id="boundary" inkscape:connector-curvature="0" />
	<path style="fill:none;stroke:red;stroke-width:1px;stroke-linecap:butt;stroke-linejoin:miter;stroke-opacity:1" d="M 796.21,509.555 813.583,492.182 z" id="boundary" inkscape:connector-curvature="0" />
	<path style="fill:none;stroke:red;stroke-width:1px;stroke-linecap:butt;stroke-linejoin:miter;stroke-opacity:1" d="M 855.278,431.377 872.651,431.377 z" id="boundary" inkscape:connector-curvature="0" />
	<path style="fill:none;stroke:red;stroke-width:1px;stroke-linecap:butt;stroke-linejoin:miter;stroke-opacity:1" d="M 872.651,431.377 888.287,440.063 z" id="boundary" inkscape:connector-curvature="0" />
	<path style="fill:none;stroke:red;stroke-width:1px;stroke-linecap:butt;stroke-linejoin:miter;stroke-opacity:1" d="M 888.287,440.063 905.66,440.063 z" id="boundary" inkscape:connector-curvature="0" />
	<path style="fill:none;stroke:red;stroke-width:1px;stroke-linecap:butt;stroke-linejoin:miter;stroke-opacity:1" d="M 917.821,422.69 905.66,440.063 z" id="boundary" inkscape:connector-curvature="0" />
	<path style="fill:none;stroke:red;stroke-width:1px;stroke-linecap:butt;stroke-linejoin:miter;stroke-opacity:1" d="M 813.583,474.809 813.583,492.182 z" id="boundary" inkscape:connector-curvature="0" />
	<path style="fill:none;stroke:red;stroke-width:1px;stroke-linecap:butt;stroke-linejoin:miter;stroke-opacity:1" d="M 803.159,460.911 813.583,474.809 z" id="boundary" inkscape:connector-curvature="0" />
	<circle cx="4" cy="608.581" r="4" fill="#0" id="circle0"/>
	<circle cx="4" cy="625.954" r="4" fill="#0" id="circle1"/>
	<circle cx="17.8984" cy="594.683" r="4" fill="#0" id="circle2"/>
	<circle cx="17.8984" cy="638.116" r="4" fill="#0" id="circle3"/>
	<circle cx="31.7968" cy="580.785" r="4" fill="#0" id="circle4"/>
	<circle cx="35.2715" cy="639.853" r="4" fill="#0" id="circle5"/>
	<circle cx="49.1699" cy="572.098" r="4" fill="#0" id="circle6"/>
	<circle cx="52.6445" cy="638.116" r="4" fill="#0" id="circle7"/>
	<circle cx="66.5429" cy="563.412" r="4" fill="#0" id="circle8"/>
	<circle cx="70.0175" cy="631.166" r="4" fill="#0" id="circle9"/>
	<circle cx="83.9159" cy="554.725" r="4" fill="#0" id="circle10"/>
	<circle cx="85.6532" cy="622.48" r="4" fill="#0" id="circle11"/>
	<circle cx="101.289" cy="546.039" r="4" fill="#0" id="circle12"/>
	<circle cx="103.026" cy="622.48" r="4" fill="#0" id="circle13"/>
	<circle cx="115.187" cy="533.877" r="4" fill="#0" id="circle14"/>
	<circle cx="118.662" cy="613.793" r="4" fill="#0" id="circle15"/>
	<circle cx="130.823" cy="525.191" r="4" fill="#0" id="circle16"/>
	<circle cx="136.035" cy="605.107" r="4" fill="#0" id="circle17"/>
	<circle cx="144.722" cy="511.292" r="4" fill="#0" id="circle18"/>
	<circle cx="153.408" cy="596.42" r="4" fill="#0" id="circle19"/>
	<circle cx="160.357" cy="347.986" r="4" fill="#0" id="circle20"/>
	<circle cx="162.095" cy="502.606" r="4" fill="#0" id="circle21"/>
	<circle cx="169.044" cy="330.613" r="4" fill="#0" id="circle22"/>
	<circle cx="170.781" cy="361.884" r="4" fill="#0" id="circle23"/>
	<circle cx="170.781" cy="596.42" r="4" fill="#0" id="circle24"/>
	<circle cx="177.73" cy="313.24" r="4" fill="#0" id="circle25"/>
	<circle cx="179.468" cy="493.919" r="4" fill="#0" id="circle26"/>
	<circle cx="186.417" cy="295.867" r="4" fill="#0" id="circle27"/>
	<circle cx="186.417" cy="587.734" r="4" fill="#0" id="circle28"/>
	<circle cx="188.154" cy="361.884" r="4" fill="#0" id="circle29"/>
	<circle cx="196.841" cy="485.233" r="4" fill="#0" id="circle30"/>
	<circle cx="200.315" cy="281.968" r="4" fill="#0" id="circle31"/>
	<circle cx="203.79" cy="370.571" r="4" fill="#0" id="circle32"/>
	<circle cx="203.79" cy="582.522" r="4" fill="#0" id="circle33"/>
	<circle cx="214.214" cy="476.546" r="4" fill="#0" id="circle34"/>
	<circle cx="217.688" cy="281.968" r="4" fill="#0" id="circle35"/>
	<circle cx="221.163" cy="370.571" r="4" fill="#0" id="circle36"/>
	<circle cx="221.163" cy="573.835" r="4" fill="#0" id="circle37"/>
	<circle cx="231.587" cy="467.86" r="4" fill="#0" id="circle38"/>
	<circle cx="235.061" cy="281.968" r="4" fill="#0" id="circle39"/>
	<circle cx="238.536" cy="370.571" r="4" fill="#0" id="circle40"/>
	<circle cx="238.536" cy="570.361" r="4" fill="#0" id="circle41"/>
	<circle cx="245.485" cy="455.699" r="4" fill="#0" id="circle42"/>
	<circle cx="250.697" cy="290.655" r="4" fill="#0" id="circle43"/>
	<circle cx="254.172" cy="561.674" r="4" fill="#0" id="circle44"/>
	<circle cx="255.909" cy="370.571" r="4" fill="#0" id="circle45"/>
	<circle cx="261.121" cy="447.012" r="4" fill="#0" id="circle46"/>
	<circle cx="264.595" cy="426.165" r="4" fill="#0" id="circle47"/>
	<circle cx="268.07" cy="290.655" r="4" fill="#0" id="circle48"/>
	<circle cx="271.545" cy="558.2" r="4" fill="#0" id="circle49"/>
	<circle cx="273.282" cy="370.571" r="4" fill="#0" id="circle50"/>
	<circle cx="281.968" cy="417.478" r="4" fill="#0" id="circle51"/>
	<circle cx="285.443" cy="290.655" r="4" fill="#0" id="circle52"/>
	<circle cx="288.918" cy="379.257" r="4" fill="#0" id="circle53"/>
	<circle cx="288.918" cy="552.988" r="4" fill="#0" id="circle54"/>
	<circle cx="290.655" cy="261.121" r="4" fill="#0" id="circle55"/>
	<circle cx="299.342" cy="408.792" r="4" fill="#0" id="circle56"/>
	<circle cx="302.816" cy="290.655" r="4" fill="#0" id="circle57"/>
	<circle cx="304.553" cy="247.222" r="4" fill="#0" id="circle58"/>
	<circle cx="304.553" cy="273.282" r="4" fill="#0" id="circle59"/>
	<circle cx="304.553" cy="544.301" r="4" fill="#0" id="circle60"/>
	<circle cx="306.291" cy="379.257" r="4" fill="#0" id="circle61"/>
	<circle cx="313.24" cy="396.63" r="4" fill="#0" id="circle62"/>
	<circle cx="318.452" cy="233.324" r="4" fill="#0" id="circle63"/>
	<circle cx="318.452" cy="299.342" r="4" fill="#0" id="circle64"/>
	<circle cx="321.926" cy="275.019" r="4" fill="#0" id="circle65"/>
	<circle cx="321.926" cy="551.25" r="4" fill="#0" id="circle66"/>
	<circle cx="323.664" cy="379.257" r="4" fill="#0" id="circle67"/>
	<circle cx="335.825" cy="224.637" r="4" fill="#0" id="circle68"/>
	<circle cx="335.825" cy="299.342" r="4" fill="#0" id="circle69"/>
	<circle cx="339.299" cy="275.019" r="4" fill="#0" id="circle70"/>
	<circle cx="339.299" cy="552.988" r="4" fill="#0" id="circle71"/>
	<circle cx="353.198" cy="221.163" r="4" fill="#0" id="circle72"/>
	<circle cx="354.935" cy="544.301" r="4" fill="#0" id="circle73"/>
	<circle cx="368.834" cy="209.002" r="4" fill="#0" id="circle74"/>
	<circle cx="370.571" cy="535.615" r="4" fill="#0" id="circle75"/>
	<circle cx="377.52" cy="182.942" r="4" fill="#0" id="circle76"/>
	<circle cx="386.207" cy="156.883" r="4" fill="#0" id="circle77"/>
	<circle cx="387.944" cy="535.615" r="4" fill="#0" id="circle78"/>
	<circle cx="394.893" cy="113.45" r="4" fill="#0" id="circle79"/>
	<circle cx="394.893" cy="130.823" r="4" fill="#0" id="circle80"/>
	<circle cx="403.58" cy="96.0771" r="4" fill="#0" id="circle81"/>
	<circle cx="405.317" cy="535.615" r="4" fill="#0" id="circle82"/>
	<circle cx="412.266" cy="70.0175" r="4" fill="#0" id="circle83"/>
	<circle cx="420.953" cy="52.6445" r="4" fill="#0" id="circle84"/>
	<circle cx="420.953" cy="544.301" r="4" fill="#0" id="circle85"/>
	<circle cx="434.851" cy="38.7461" r="4" fill="#0" id="circle86"/>
	<circle cx="436.588" cy="552.988" r="4" fill="#0" id="circle87"/>
	<circle cx="448.75" cy="24.8476" r="4" fill="#0" id="circle88"/>
	<circle cx="452.224" cy="561.674" r="4" fill="#0" id="circle89"/>
	<circle cx="462.648" cy="12.6865" r="4" fill="#0" id="circle90"/>
	<circle cx="464.385" cy="608.581" r="4" fill="#0" id="circle91"/>
	<circle cx="464.385" cy="625.954" r="4" fill="#0" id="circle92"/>
	<circle cx="467.86" cy="570.361" r="4" fill="#0" id="circle93"/>
	<circle cx="478.284" cy="4" r="4" fill="#0" id="circle94"/>
	<circle cx="481.758" cy="580.785" r="4" fill="#0" id="circle95"/>
	<circle cx="481.758" cy="598.158" r="4" fill="#0" id="circle96"/>
	<circle cx="481.758" cy="631.166" r="4" fill="#0" id="circle97"/>
	<circle cx="495.657" cy="4" r="4" fill="#0" id="circle98"/>
	<circle cx="499.131" cy="631.166" r="4" fill="#0" id="circle99"/>
	<circle cx="509.555" cy="14.4238" r="4" fill="#0" id="circle100"/>
	<circle cx="516.504" cy="631.166" r="4" fill="#0" id="circle101"/>
	<circle cx="518.242" cy="30.0595" r="4" fill="#0" id="circle102"/>
	<circle cx="526.928" cy="45.6953" r="4" fill="#0" id="circle103"/>
	<circle cx="532.14" cy="622.48" r="4" fill="#0" id="circle104"/>
	<circle cx="535.615" cy="61.331" r="4" fill="#0" id="circle105"/>
	<circle cx="544.301" cy="76.9667" r="4" fill="#0" id="circle106"/>
	<circle cx="547.776" cy="613.793" r="4" fill="#0" id="circle107"/>
	<circle cx="552.988" cy="92.6025" r="4" fill="#0" id="circle108"/>
	<circle cx="561.674" cy="108.238" r="4" fill="#0" id="circle109"/>
	<circle cx="565.149" cy="613.793" r="4" fill="#0" id="circle110"/>
	<circle cx="577.31" cy="116.925" r="4" fill="#0" id="circle111"/>
	<circle cx="582.522" cy="613.793" r="4" fill="#0" id="circle112"/>
	<circle cx="587.734" cy="162.095" r="4" fill="#0" id="circle113"/>
	<circle cx="591.208" cy="179.468" r="4" fill="#0" id="circle114"/>
	<circle cx="592.946" cy="108.238" r="4" fill="#0" id="circle115"/>
	<circle cx="599.895" cy="613.793" r="4" fill="#0" id="circle116"/>
	<circle cx="603.37" cy="153.408" r="4" fill="#0" id="circle117"/>
	<circle cx="605.107" cy="94.3398" r="4" fill="#0" id="circle118"/>
	<circle cx="605.107" cy="191.629" r="4" fill="#0" id="circle119"/>
	<circle cx="612.056" cy="209.002" r="4" fill="#0" id="circle120"/>
	<circle cx="613.793" cy="226.375" r="4" fill="#0" id="circle121"/>
	<circle cx="615.531" cy="622.48" r="4" fill="#0" id="circle122"/>
	<circle cx="620.743" cy="153.408" r="4" fill="#0" id="circle123"/>
	<circle cx="622.48" cy="90.8651" r="4" fill="#0" id="circle124"/>
	<circle cx="622.48" cy="242.011" r="4" fill="#0" id="circle125"/>
	<circle cx="631.166" cy="257.646" r="4" fill="#0" id="circle126"/>
	<circle cx="631.166" cy="631.166" r="4" fill="#0" id="circle127"/>
	<circle cx="636.378" cy="101.289" r="4" fill="#0" id="circle128"/>
	<circle cx="638.116" cy="148.196" r="4" fill="#0" id="circle129"/>
	<circle cx="639.853" cy="118.662" r="4" fill="#0" id="circle130"/>
	<circle cx="646.802" cy="639.853" r="4" fill="#0" id="circle131"/>
	<circle cx="648.539" cy="134.298" r="4" fill="#0" id="circle132"/>
	<circle cx="648.539" cy="264.595" r="4" fill="#0" id="circle133"/>
	<circle cx="662.438" cy="648.539" r="4" fill="#0" id="circle134"/>
	<circle cx="665.912" cy="259.384" r="4" fill="#0" id="circle135"/>
	<circle cx="678.074" cy="657.226" r="4" fill="#0" id="circle136"/>
	<circle cx="683.285" cy="255.909" r="4" fill="#0" id="circle137"/>
	<circle cx="695.447" cy="657.226" r="4" fill="#0" id="circle138"/>
	<circle cx="700.658" cy="250.697" r="4" fill="#0" id="circle139"/>
	<circle cx="711.082" cy="665.912" r="4" fill="#0" id="circle140"/>
	<circle cx="718.032" cy="247.222" r="4" fill="#0" id="circle141"/>
	<circle cx="718.032" cy="422.69" r="4" fill="#0" id="circle142"/>
	<circle cx="721.506" cy="440.063" r="4" fill="#0" id="circle143"/>
	<circle cx="726.718" cy="335.825" r="4" fill="#0" id="circle144"/>
	<circle cx="728.455" cy="671.124" r="4" fill="#0" id="circle145"/>
	<circle cx="730.193" cy="455.699" r="4" fill="#0" id="circle146"/>
	<circle cx="733.667" cy="238.536" r="4" fill="#0" id="circle147"/>
	<circle cx="735.405" cy="422.69" r="4" fill="#0" id="circle148"/>
	<circle cx="740.616" cy="346.249" r="4" fill="#0" id="circle149"/>
	<circle cx="742.354" cy="469.597" r="4" fill="#0" id="circle150"/>
	<circle cx="744.091" cy="327.138" r="4" fill="#0" id="circle151"/>
	<circle cx="745.828" cy="674.599" r="4" fill="#0" id="circle152"/>
	<circle cx="751.04" cy="235.061" r="4" fill="#0" id="circle153"/>
	<circle cx="752.778" cy="422.69" r="4" fill="#0" id="circle154"/>
	<circle cx="757.989" cy="351.461" r="4" fill="#0" id="circle155"/>
	<circle cx="759.727" cy="460.911" r="4" fill="#0" id="circle156"/>
	<circle cx="761.464" cy="318.452" r="4" fill="#0" id="circle157"/>
	<circle cx="761.464" cy="509.555" r="4" fill="#0" id="circle158"/>
	<circle cx="761.464" cy="526.928" r="4" fill="#0" id="circle159"/>
	<circle cx="761.464" cy="665.912" r="4" fill="#0" id="circle160"/>
	<circle cx="764.939" cy="544.301" r="4" fill="#0" id="circle161"/>
	<circle cx="768.413" cy="229.849" r="4" fill="#0" id="circle162"/>
	<circle cx="770.151" cy="422.69" r="4" fill="#0" id="circle163"/>
	<circle cx="773.625" cy="447.012" r="4" fill="#0" id="circle164"/>
	<circle cx="773.625" cy="559.937" r="4" fill="#0" id="circle165"/>
	<circle cx="775.363" cy="306.291" r="4" fill="#0" id="circle166"/>
	<circle cx="775.363" cy="351.461" r="4" fill="#0" id="circle167"/>
	<circle cx="778.837" cy="509.555" r="4" fill="#0" id="circle168"/>
	<circle cx="778.837" cy="577.31" r="4" fill="#0" id="circle169"/>
	<circle cx="778.837" cy="665.912" r="4" fill="#0" id="circle170"/>
	<circle cx="784.049" cy="221.163" r="4" fill="#0" id="circle171"/>
	<circle cx="787.524" cy="422.69" r="4" fill="#0" id="circle172"/>
	<circle cx="787.524" cy="592.946" r="4" fill="#0" id="circle173"/>
	<circle cx="790.998" cy="447.012" r="4" fill="#0" id="circle174"/>
	<circle cx="792.736" cy="297.604" r="4" fill="#0" id="circle175"/>
	<circle cx="792.736" cy="351.461" r="4" fill="#0" id="circle176"/>
	<circle cx="792.736" cy="653.751" r="4" fill="#0" id="circle177"/>
	<circle cx="796.21" cy="509.555" r="4" fill="#0" id="circle178"/>
	<circle cx="796.21" cy="608.581" r="4" fill="#0" id="circle179"/>
	<circle cx="799.685" cy="212.476" r="4" fill="#0" id="circle180"/>
	<circle cx="803.159" cy="431.377" r="4" fill="#0" id="circle181"/>
	<circle cx="803.159" cy="460.911" r="4" fill="#0" id="circle182"/>
	<circle cx="803.159" cy="625.954" r="4" fill="#0" id="circle183"/>
	<circle cx="810.109" cy="288.918" r="4" fill="#0" id="circle184"/>
	<circle cx="810.109" cy="353.198" r="4" fill="#0" id="circle185"/>
	<circle cx="811.846" cy="191.629" r="4" fill="#0" id="circle186"/>
	<circle cx="813.583" cy="474.809" r="4" fill="#0" id="circle187"/>
	<circle cx="813.583" cy="492.182" r="4" fill="#0" id="circle188"/>
	<circle cx="820.532" cy="174.256" r="4" fill="#0" id="circle189"/>
	<circle cx="820.532" cy="431.377" r="4" fill="#0" id="circle190"/>
	<circle cx="827.482" cy="280.231" r="4" fill="#0" id="circle191"/>
	<circle cx="827.482" cy="360.147" r="4" fill="#0" id="circle192"/>
	<circle cx="829.219" cy="156.883" r="4" fill="#0" id="circle193"/>
	<circle cx="837.905" cy="130.823" r="4" fill="#0" id="circle194"/>
	<circle cx="837.905" cy="431.377" r="4" fill="#0" id="circle195"/>
	<circle cx="844.855" cy="275.019" r="4" fill="#0" id="circle196"/>
	<circle cx="844.855" cy="360.147" r="4" fill="#0" id="circle197"/>
	<circle cx="846.592" cy="113.45" r="4" fill="#0" id="circle198"/>
	<circle cx="855.278" cy="96.0771" r="4" fill="#0" id="circle199"/>
	<circle cx="855.278" cy="431.377" r="4" fill="#0" id="circle200"/>
	<circle cx="860.49" cy="283.706" r="4" fill="#0" id="circle201"/>
	<circle cx="862.228" cy="360.147" r="4" fill="#0" id="circle202"/>
	<circle cx="863.965" cy="78.704" r="4" fill="#0" id="circle203"/>
	<circle cx="872.651" cy="431.377" r="4" fill="#0" id="circle204"/>
	<circle cx="877.863" cy="283.706" r="4" fill="#0" id="circle205"/>
	<circle cx="879.601" cy="361.884" r="4" fill="#0" id="circle206"/>
	<circle cx="881.338" cy="70.0175" r="4" fill="#0" id="circle207"/>
	<circle cx="888.287" cy="440.063" r="4" fill="#0" id="circle208"/>
	<circle cx="893.499" cy="292.392" r="4" fill="#0" id="circle209"/>
	<circle cx="896.974" cy="368.834" r="4" fill="#0" id="circle210"/>
	<circle cx="898.711" cy="68.2802" r="4" fill="#0" id="circle211"/>
	<circle cx="905.66" cy="440.063" r="4" fill="#0" id="circle212"/>
	<circle cx="909.135" cy="82.1786" r="4" fill="#0" id="circle213"/>
	<circle cx="910.872" cy="297.604" r="4" fill="#0" id="circle214"/>
	<circle cx="914.347" cy="370.571" r="4" fill="#0" id="circle215"/>
	<circle cx="917.821" cy="97.8144" r="4" fill="#0" id="circle216"/>
	<circle cx="917.821" cy="115.187" r="4" fill="#0" id="circle217"/>
	<circle cx="917.821" cy="387.944" r="4" fill="#0" id="circle218"/>
	<circle cx="917.821" cy="405.317" r="4" fill="#0" id="circle219"/>
	<circle cx="917.821" cy="422.69" r="4" fill="#0" id="circle220"/>
	<circle cx="926.508" cy="130.823" r="4" fill="#0" id="circle221"/>
	<circle cx="928.245" cy="301.079" r="4" fill="#0" id="circle222"/>
	<circle cx="935.194" cy="146.459" r="4" fill="#0" id="circle223"/>
	<circle cx="943.881" cy="162.095" r="4" fill="#0" id="circle224"/>
	<circle cx="945.618" cy="306.291" r="4" fill="#0" id="circle225"/>
	<circle cx="947.356" cy="179.468" r="4" fill="#0" id="circle226"/>
	<circle cx="961.254" cy="191.629" r="4" fill="#0" id="circle227"/>
	<circle cx="962.991" cy="309.765" r="4" fill="#0" id="circle228"/>
	<circle cx="969.94" cy="207.264" r="4" fill="#0" id="circle229"/>
	<circle cx="975.152" cy="224.637" r="4" fill="#0" id="circle230"/>
	<circle cx="980.364" cy="309.765" r="4" fill="#0" id="circle231"/>
	<circle cx="983.839" cy="240.273" r="4" fill="#0" id="circle232"/>
	<circle cx="990.788" cy="257.646" r="4" fill="#0" id="circle233"/>
	<circle cx="996" cy="275.019" r="4" fill="#0" id="circle234"/>
	<circle cx="996" cy="301.079" r="4" fill="#0" id="circle235"/>
	</g>
</svg>