<?xml version="1.0" encoding="UTF-8" standalone="no"?>
<!-- Created with CurveBenchmark -->
<svg
	xmlns:dc="http://purl.org/dc/elements/1.1/"
	xmlns:cc="http://creativecommons.org/ns#"
	xmlns:rdf="http://www.w3.org/1999/02/22-rdf-syntax-ns#"
	xmlns:svg="http://www.w3.org/2000/svg"
	xmlns="http://www.w3.org/2000/svg"
	xmlns:sodipodi="http://sodipodi.sourceforge.net/DTD/sodipodi-0.dtd"
	xmlns:inkscape="http://www.inkscape.org/namespaces/inkscape"
	width="1000"
	height="1000"
	id="svg2"
	version="1.1"
	sodipodi:docname="manifold/gathang-cat08.png.txt">
<defs
	id="defs4" />
<metadata
	id="metadata7">
	<rdf:RDF>
		<cc:Work
			rdf:about="">
			<dc:format>image/svg+xml</dc:format>
			<dc:type
				rdf:resource="http://purl.org/dc/dcmitype/StillImage" />
			<dc:title></dc:title>
		</cc:Work>
	</rdf:RDF>
</metadata>
<g
	inkscape:label="Layer 1"
	inkscape:groupmode="layer"
	id="layer1">
	<path style="fill:none;stroke:red;stroke-width:1px;stroke-linecap:butt;stroke-linejoin:miter;stroke-opacity:1" d="M 50.3885,307.309 61.0935,291.252 z" id="boundary" inkscape:connector-curvature="0" />
	<path style="fill:none;stroke:red;stroke-width:1px;stroke-linecap:butt;stroke-linejoin:miter;stroke-opacity:1" d="M 61.0935,291.252 78.9353,282.331 z" id="boundary" inkscape:connector-curvature="0" />
	<path style="fill:none;stroke:red;stroke-width:1px;stroke-linecap:butt;stroke-linejoin:miter;stroke-opacity:1" d="M 50.3885,307.309 34.3309,316.23 z" id="boundary" inkscape:connector-curvature="0" />
	<path style="fill:none;stroke:red;stroke-width:1px;stroke-linecap:butt;stroke-linejoin:miter;stroke-opacity:1" d="M 93.2086,271.626 78.9353,282.331 z" id="boundary" inkscape:connector-curvature="0" />
	<path style="fill:none;stroke:red;stroke-width:1px;stroke-linecap:butt;stroke-linejoin:miter;stroke-opacity:1" d="M 4,357.266 4,339.424 z" id="boundary" inkscape:connector-curvature="0" />
	<path style="fill:none;stroke:red;stroke-width:1px;stroke-linecap:butt;stroke-linejoin:miter;stroke-opacity:1" d="M 4,339.424 18.2734,325.151 z" id="boundary" inkscape:connector-curvature="0" />
	<path style="fill:none;stroke:red;stroke-width:1px;stroke-linecap:butt;stroke-linejoin:miter;stroke-opacity:1" d="M 18.2734,325.151 34.3309,316.23 z" id="boundary" inkscape:connector-curvature="0" />
	<path style="fill:none;stroke:red;stroke-width:1px;stroke-linecap:butt;stroke-linejoin:miter;stroke-opacity:1" d="M 144.95,262.705 146.734,241.295 z" id="boundary" inkscape:connector-curvature="0" />
	<path style="fill:none;stroke:red;stroke-width:1px;stroke-linecap:butt;stroke-linejoin:miter;stroke-opacity:1" d="M 155.655,223.453 146.734,241.295 z" id="boundary" inkscape:connector-curvature="0" />
	<path style="fill:none;stroke:red;stroke-width:1px;stroke-linecap:butt;stroke-linejoin:miter;stroke-opacity:1" d="M 169.928,209.18 155.655,223.453 z" id="boundary" inkscape:connector-curvature="0" />
	<path style="fill:none;stroke:red;stroke-width:1px;stroke-linecap:butt;stroke-linejoin:miter;stroke-opacity:1" d="M 93.2086,271.626 109.266,262.705 z" id="boundary" inkscape:connector-curvature="0" />
	<path style="fill:none;stroke:red;stroke-width:1px;stroke-linecap:butt;stroke-linejoin:miter;stroke-opacity:1" d="M 109.266,262.705 127.108,262.705 z" id="boundary" inkscape:connector-curvature="0" />
	<path style="fill:none;stroke:red;stroke-width:1px;stroke-linecap:butt;stroke-linejoin:miter;stroke-opacity:1" d="M 144.95,262.705 127.108,262.705 z" id="boundary" inkscape:connector-curvature="0" />
	<path style="fill:none;stroke:red;stroke-width:1px;stroke-linecap:butt;stroke-linejoin:miter;stroke-opacity:1" d="M 43.2518,412.576 25.4101,405.439 z" id="boundary" inkscape:connector-curvature="0" />
	<path style="fill:none;stroke:red;stroke-width:1px;stroke-linecap:butt;stroke-linejoin:miter;stroke-opacity:1" d="M 25.4101,405.439 12.9209,391.165 z" id="boundary" inkscape:connector-curvature="0" />
	<path style="fill:none;stroke:red;stroke-width:1px;stroke-linecap:butt;stroke-linejoin:miter;stroke-opacity:1" d="M 12.9209,391.165 4,375.108 z" id="boundary" inkscape:connector-curvature="0" />
	<path style="fill:none;stroke:red;stroke-width:1px;stroke-linecap:butt;stroke-linejoin:miter;stroke-opacity:1" d="M 4,375.108 4,357.266 z" id="boundary" inkscape:connector-curvature="0" />
	<path style="fill:none;stroke:red;stroke-width:1px;stroke-linecap:butt;stroke-linejoin:miter;stroke-opacity:1" d="M 43.2518,412.576 61.0935,416.144 z" id="boundary" inkscape:connector-curvature="0" />
	<path style="fill:none;stroke:red;stroke-width:1px;stroke-linecap:butt;stroke-linejoin:miter;stroke-opacity:1" d="M 61.0935,416.144 77.1511,425.065 z" id="boundary" inkscape:connector-curvature="0" />
	<path style="fill:none;stroke:red;stroke-width:1px;stroke-linecap:butt;stroke-linejoin:miter;stroke-opacity:1" d="M 93.2086,433.986 77.1511,425.065 z" id="boundary" inkscape:connector-curvature="0" />
	<path style="fill:none;stroke:red;stroke-width:1px;stroke-linecap:butt;stroke-linejoin:miter;stroke-opacity:1" d="M 136.029,469.669 152.086,478.59 z" id="boundary" inkscape:connector-curvature="0" />
	<path style="fill:none;stroke:red;stroke-width:1px;stroke-linecap:butt;stroke-linejoin:miter;stroke-opacity:1" d="M 152.086,478.59 161.007,494.647 z" id="boundary" inkscape:connector-curvature="0" />
	<path style="fill:none;stroke:red;stroke-width:1px;stroke-linecap:butt;stroke-linejoin:miter;stroke-opacity:1" d="M 136.029,469.669 121.755,457.18 z" id="boundary" inkscape:connector-curvature="0" />
	<path style="fill:none;stroke:red;stroke-width:1px;stroke-linecap:butt;stroke-linejoin:miter;stroke-opacity:1" d="M 121.755,457.18 109.266,442.906 z" id="boundary" inkscape:connector-curvature="0" />
	<path style="fill:none;stroke:red;stroke-width:1px;stroke-linecap:butt;stroke-linejoin:miter;stroke-opacity:1" d="M 161.007,494.647 173.496,508.921 z" id="boundary" inkscape:connector-curvature="0" />
	<path style="fill:none;stroke:red;stroke-width:1px;stroke-linecap:butt;stroke-linejoin:miter;stroke-opacity:1" d="M 182.417,524.978 182.417,542.82 z" id="boundary" inkscape:connector-curvature="0" />
	<path style="fill:none;stroke:red;stroke-width:1px;stroke-linecap:butt;stroke-linejoin:miter;stroke-opacity:1" d="M 173.496,508.921 182.417,524.978 z" id="boundary" inkscape:connector-curvature="0" />
	<path style="fill:none;stroke:red;stroke-width:1px;stroke-linecap:butt;stroke-linejoin:miter;stroke-opacity:1" d="M 191.338,558.878 182.417,542.82 z" id="boundary" inkscape:connector-curvature="0" />
	<path style="fill:none;stroke:red;stroke-width:1px;stroke-linecap:butt;stroke-linejoin:miter;stroke-opacity:1" d="M 93.2086,433.986 109.266,442.906 z" id="boundary" inkscape:connector-curvature="0" />
	<path style="fill:none;stroke:red;stroke-width:1px;stroke-linecap:butt;stroke-linejoin:miter;stroke-opacity:1" d="M 169.928,209.18 184.201,219.885 z" id="boundary" inkscape:connector-curvature="0" />
	<path style="fill:none;stroke:red;stroke-width:1px;stroke-linecap:butt;stroke-linejoin:miter;stroke-opacity:1" d="M 202.043,227.022 184.201,219.885 z" id="boundary" inkscape:connector-curvature="0" />
	<path style="fill:none;stroke:red;stroke-width:1px;stroke-linecap:butt;stroke-linejoin:miter;stroke-opacity:1" d="M 202.043,227.022 216.317,237.727 z" id="boundary" inkscape:connector-curvature="0" />
	<path style="fill:none;stroke:red;stroke-width:1px;stroke-linecap:butt;stroke-linejoin:miter;stroke-opacity:1" d="M 216.317,237.727 223.453,255.568 z" id="boundary" inkscape:connector-curvature="0" />
	<path style="fill:none;stroke:red;stroke-width:1px;stroke-linecap:butt;stroke-linejoin:miter;stroke-opacity:1" d="M 223.453,255.568 228.806,273.41 z" id="boundary" inkscape:connector-curvature="0" />
	<path style="fill:none;stroke:red;stroke-width:1px;stroke-linecap:butt;stroke-linejoin:miter;stroke-opacity:1" d="M 237.727,289.468 252,300.173 z" id="boundary" inkscape:connector-curvature="0" />
	<path style="fill:none;stroke:red;stroke-width:1px;stroke-linecap:butt;stroke-linejoin:miter;stroke-opacity:1" d="M 252,300.173 260.921,316.23 z" id="boundary" inkscape:connector-curvature="0" />
	<path style="fill:none;stroke:red;stroke-width:1px;stroke-linecap:butt;stroke-linejoin:miter;stroke-opacity:1" d="M 237.727,289.468 228.806,273.41 z" id="boundary" inkscape:connector-curvature="0" />
	<path style="fill:none;stroke:red;stroke-width:1px;stroke-linecap:butt;stroke-linejoin:miter;stroke-opacity:1" d="M 273.41,330.504 260.921,316.23 z" id="boundary" inkscape:connector-curvature="0" />
	<path style="fill:none;stroke:red;stroke-width:1px;stroke-linecap:butt;stroke-linejoin:miter;stroke-opacity:1" d="M 273.41,330.504 285.899,344.777 z" id="boundary" inkscape:connector-curvature="0" />
	<path style="fill:none;stroke:red;stroke-width:1px;stroke-linecap:butt;stroke-linejoin:miter;stroke-opacity:1" d="M 492.863,351.914 510.705,351.914 z" id="boundary" inkscape:connector-curvature="0" />
	<path style="fill:none;stroke:red;stroke-width:1px;stroke-linecap:butt;stroke-linejoin:miter;stroke-opacity:1" d="M 492.863,351.914 475.022,351.914 z" id="boundary" inkscape:connector-curvature="0" />
	<path style="fill:none;stroke:red;stroke-width:1px;stroke-linecap:butt;stroke-linejoin:miter;stroke-opacity:1" d="M 526.763,342.993 510.705,351.914 z" id="boundary" inkscape:connector-curvature="0" />
	<path style="fill:none;stroke:red;stroke-width:1px;stroke-linecap:butt;stroke-linejoin:miter;stroke-opacity:1" d="M 458.964,360.835 475.022,351.914 z" id="boundary" inkscape:connector-curvature="0" />
	<path style="fill:none;stroke:red;stroke-width:1px;stroke-linecap:butt;stroke-linejoin:miter;stroke-opacity:1" d="M 441.122,366.187 458.964,360.835 z" id="boundary" inkscape:connector-curvature="0" />
	<path style="fill:none;stroke:red;stroke-width:1px;stroke-linecap:butt;stroke-linejoin:miter;stroke-opacity:1" d="M 285.899,344.777 300.173,357.266 z" id="boundary" inkscape:connector-curvature="0" />
	<path style="fill:none;stroke:red;stroke-width:1px;stroke-linecap:butt;stroke-linejoin:miter;stroke-opacity:1" d="M 316.23,366.187 334.072,369.755 z" id="boundary" inkscape:connector-curvature="0" />
	<path style="fill:none;stroke:red;stroke-width:1px;stroke-linecap:butt;stroke-linejoin:miter;stroke-opacity:1" d="M 300.173,357.266 316.23,366.187 z" id="boundary" inkscape:connector-curvature="0" />
	<path style="fill:none;stroke:red;stroke-width:1px;stroke-linecap:butt;stroke-linejoin:miter;stroke-opacity:1" d="M 200.259,574.935 191.338,558.878 z" id="boundary" inkscape:connector-curvature="0" />
	<path style="fill:none;stroke:red;stroke-width:1px;stroke-linecap:butt;stroke-linejoin:miter;stroke-opacity:1" d="M 200.259,574.935 203.827,592.777 z" id="boundary" inkscape:connector-curvature="0" />
	<path style="fill:none;stroke:red;stroke-width:1px;stroke-linecap:butt;stroke-linejoin:miter;stroke-opacity:1" d="M 218.101,603.482 203.827,592.777 z" id="boundary" inkscape:connector-curvature="0" />
	<path style="fill:none;stroke:red;stroke-width:1px;stroke-linecap:butt;stroke-linejoin:miter;stroke-opacity:1" d="M 218.101,603.482 223.453,621.324 z" id="boundary" inkscape:connector-curvature="0" />
	<path style="fill:none;stroke:red;stroke-width:1px;stroke-linecap:butt;stroke-linejoin:miter;stroke-opacity:1" d="M 237.727,633.813 223.453,621.324 z" id="boundary" inkscape:connector-curvature="0" />
	<path style="fill:none;stroke:red;stroke-width:1px;stroke-linecap:butt;stroke-linejoin:miter;stroke-opacity:1" d="M 334.072,369.755 351.914,373.324 z" id="boundary" inkscape:connector-curvature="0" />
	<path style="fill:none;stroke:red;stroke-width:1px;stroke-linecap:butt;stroke-linejoin:miter;stroke-opacity:1" d="M 387.597,369.755 369.755,373.324 z" id="boundary" inkscape:connector-curvature="0" />
	<path style="fill:none;stroke:red;stroke-width:1px;stroke-linecap:butt;stroke-linejoin:miter;stroke-opacity:1" d="M 405.439,369.755 387.597,369.755 z" id="boundary" inkscape:connector-curvature="0" />
	<path style="fill:none;stroke:red;stroke-width:1px;stroke-linecap:butt;stroke-linejoin:miter;stroke-opacity:1" d="M 351.914,373.324 369.755,373.324 z" id="boundary" inkscape:connector-curvature="0" />
	<path style="fill:none;stroke:red;stroke-width:1px;stroke-linecap:butt;stroke-linejoin:miter;stroke-opacity:1" d="M 423.281,369.755 405.439,369.755 z" id="boundary" inkscape:connector-curvature="0" />
	<path style="fill:none;stroke:red;stroke-width:1px;stroke-linecap:butt;stroke-linejoin:miter;stroke-opacity:1" d="M 441.122,366.187 423.281,369.755 z" id="boundary" inkscape:connector-curvature="0" />
	<path style="fill:none;stroke:red;stroke-width:1px;stroke-linecap:butt;stroke-linejoin:miter;stroke-opacity:1" d="M 253.784,667.712 244.863,651.655 z" id="boundary" inkscape:connector-curvature="0" />
	<path style="fill:none;stroke:red;stroke-width:1px;stroke-linecap:butt;stroke-linejoin:miter;stroke-opacity:1" d="M 262.705,683.77 253.784,667.712 z" id="boundary" inkscape:connector-curvature="0" />
	<path style="fill:none;stroke:red;stroke-width:1px;stroke-linecap:butt;stroke-linejoin:miter;stroke-opacity:1" d="M 228.806,828.288 237.727,810.446 z" id="boundary" inkscape:connector-curvature="0" />
	<path style="fill:none;stroke:red;stroke-width:1px;stroke-linecap:butt;stroke-linejoin:miter;stroke-opacity:1" d="M 244.863,785.468 237.727,810.446 z" id="boundary" inkscape:connector-curvature="0" />
	<path style="fill:none;stroke:red;stroke-width:1px;stroke-linecap:butt;stroke-linejoin:miter;stroke-opacity:1" d="M 253.784,749.784 253.784,767.626 z" id="boundary" inkscape:connector-curvature="0" />
	<path style="fill:none;stroke:red;stroke-width:1px;stroke-linecap:butt;stroke-linejoin:miter;stroke-opacity:1" d="M 253.784,767.626 244.863,785.468 z" id="boundary" inkscape:connector-curvature="0" />
	<path style="fill:none;stroke:red;stroke-width:1px;stroke-linecap:butt;stroke-linejoin:miter;stroke-opacity:1" d="M 262.705,719.453 253.784,749.784 z" id="boundary" inkscape:connector-curvature="0" />
	<path style="fill:none;stroke:red;stroke-width:1px;stroke-linecap:butt;stroke-linejoin:miter;stroke-opacity:1" d="M 262.705,701.612 262.705,719.453 z" id="boundary" inkscape:connector-curvature="0" />
	<path style="fill:none;stroke:red;stroke-width:1px;stroke-linecap:butt;stroke-linejoin:miter;stroke-opacity:1" d="M 300.173,817.583 287.683,840.777 z" id="boundary" inkscape:connector-curvature="0" />
	<path style="fill:none;stroke:red;stroke-width:1px;stroke-linecap:butt;stroke-linejoin:miter;stroke-opacity:1" d="M 300.173,817.583 314.446,805.094 z" id="boundary" inkscape:connector-curvature="0" />
	<path style="fill:none;stroke:red;stroke-width:1px;stroke-linecap:butt;stroke-linejoin:miter;stroke-opacity:1" d="M 326.935,781.899 314.446,805.094 z" id="boundary" inkscape:connector-curvature="0" />
	<path style="fill:none;stroke:red;stroke-width:1px;stroke-linecap:butt;stroke-linejoin:miter;stroke-opacity:1" d="M 273.41,853.266 287.683,840.777 z" id="boundary" inkscape:connector-curvature="0" />
	<path style="fill:none;stroke:red;stroke-width:1px;stroke-linecap:butt;stroke-linejoin:miter;stroke-opacity:1" d="M 262.705,701.612 262.705,683.77 z" id="boundary" inkscape:connector-curvature="0" />
	<path style="fill:none;stroke:red;stroke-width:1px;stroke-linecap:butt;stroke-linejoin:miter;stroke-opacity:1" d="M 244.863,651.655 237.727,633.813 z" id="boundary" inkscape:connector-curvature="0" />
	<path style="fill:none;stroke:red;stroke-width:1px;stroke-linecap:butt;stroke-linejoin:miter;stroke-opacity:1" d="M 161.007,887.165 178.849,878.245 z" id="boundary" inkscape:connector-curvature="0" />
	<path style="fill:none;stroke:red;stroke-width:1px;stroke-linecap:butt;stroke-linejoin:miter;stroke-opacity:1" d="M 196.691,878.245 178.849,878.245 z" id="boundary" inkscape:connector-curvature="0" />
	<path style="fill:none;stroke:red;stroke-width:1px;stroke-linecap:butt;stroke-linejoin:miter;stroke-opacity:1" d="M 210.964,863.971 196.691,878.245 z" id="boundary" inkscape:connector-curvature="0" />
	<path style="fill:none;stroke:red;stroke-width:1px;stroke-linecap:butt;stroke-linejoin:miter;stroke-opacity:1" d="M 146.734,901.439 161.007,887.165 z" id="boundary" inkscape:connector-curvature="0" />
	<path style="fill:none;stroke:red;stroke-width:1px;stroke-linecap:butt;stroke-linejoin:miter;stroke-opacity:1" d="M 155.655,917.496 146.734,901.439 z" id="boundary" inkscape:connector-curvature="0" />
	<path style="fill:none;stroke:red;stroke-width:1px;stroke-linecap:butt;stroke-linejoin:miter;stroke-opacity:1" d="M 173.496,924.633 155.655,917.496 z" id="boundary" inkscape:connector-curvature="0" />
	<path style="fill:none;stroke:red;stroke-width:1px;stroke-linecap:butt;stroke-linejoin:miter;stroke-opacity:1" d="M 191.338,924.633 173.496,924.633 z" id="boundary" inkscape:connector-curvature="0" />
	<path style="fill:none;stroke:red;stroke-width:1px;stroke-linecap:butt;stroke-linejoin:miter;stroke-opacity:1" d="M 209.18,924.633 191.338,924.633 z" id="boundary" inkscape:connector-curvature="0" />
	<path style="fill:none;stroke:red;stroke-width:1px;stroke-linecap:butt;stroke-linejoin:miter;stroke-opacity:1" d="M 210.964,863.971 219.885,846.129 z" id="boundary" inkscape:connector-curvature="0" />
	<path style="fill:none;stroke:red;stroke-width:1px;stroke-linecap:butt;stroke-linejoin:miter;stroke-opacity:1" d="M 259.137,869.324 273.41,853.266 z" id="boundary" inkscape:connector-curvature="0" />
	<path style="fill:none;stroke:red;stroke-width:1px;stroke-linecap:butt;stroke-linejoin:miter;stroke-opacity:1" d="M 250.216,887.165 259.137,869.324 z" id="boundary" inkscape:connector-curvature="0" />
	<path style="fill:none;stroke:red;stroke-width:1px;stroke-linecap:butt;stroke-linejoin:miter;stroke-opacity:1" d="M 219.885,846.129 228.806,828.288 z" id="boundary" inkscape:connector-curvature="0" />
	<path style="fill:none;stroke:red;stroke-width:1px;stroke-linecap:butt;stroke-linejoin:miter;stroke-opacity:1" d="M 209.18,924.633 227.022,919.281 z" id="boundary" inkscape:connector-curvature="0" />
	<path style="fill:none;stroke:red;stroke-width:1px;stroke-linecap:butt;stroke-linejoin:miter;stroke-opacity:1" d="M 241.295,905.007 227.022,919.281 z" id="boundary" inkscape:connector-curvature="0" />
	<path style="fill:none;stroke:red;stroke-width:1px;stroke-linecap:butt;stroke-linejoin:miter;stroke-opacity:1" d="M 250.216,887.165 241.295,905.007 z" id="boundary" inkscape:connector-curvature="0" />
	<path style="fill:none;stroke:red;stroke-width:1px;stroke-linecap:butt;stroke-linejoin:miter;stroke-opacity:1" d="M 385.813,706.964 371.54,719.453 z" id="boundary" inkscape:connector-curvature="0" />
	<path style="fill:none;stroke:red;stroke-width:1px;stroke-linecap:butt;stroke-linejoin:miter;stroke-opacity:1" d="M 396.518,692.691 385.813,706.964 z" id="boundary" inkscape:connector-curvature="0" />
	<path style="fill:none;stroke:red;stroke-width:1px;stroke-linecap:butt;stroke-linejoin:miter;stroke-opacity:1" d="M 359.05,733.727 371.54,719.453 z" id="boundary" inkscape:connector-curvature="0" />
	<path style="fill:none;stroke:red;stroke-width:1px;stroke-linecap:butt;stroke-linejoin:miter;stroke-opacity:1" d="M 341.209,769.41 326.935,781.899 z" id="boundary" inkscape:connector-curvature="0" />
	<path style="fill:none;stroke:red;stroke-width:1px;stroke-linecap:butt;stroke-linejoin:miter;stroke-opacity:1" d="M 350.129,751.568 359.05,733.727 z" id="boundary" inkscape:connector-curvature="0" />
	<path style="fill:none;stroke:red;stroke-width:1px;stroke-linecap:butt;stroke-linejoin:miter;stroke-opacity:1" d="M 350.129,751.568 341.209,769.41 z" id="boundary" inkscape:connector-curvature="0" />
	<path style="fill:none;stroke:red;stroke-width:1px;stroke-linecap:butt;stroke-linejoin:miter;stroke-opacity:1" d="M 396.518,692.691 412.576,701.612 z" id="boundary" inkscape:connector-curvature="0" />
	<path style="fill:none;stroke:red;stroke-width:1px;stroke-linecap:butt;stroke-linejoin:miter;stroke-opacity:1" d="M 428.633,710.532 412.576,701.612 z" id="boundary" inkscape:connector-curvature="0" />
	<path style="fill:none;stroke:red;stroke-width:1px;stroke-linecap:butt;stroke-linejoin:miter;stroke-opacity:1" d="M 442.906,723.022 428.633,710.532 z" id="boundary" inkscape:connector-curvature="0" />
	<path style="fill:none;stroke:red;stroke-width:1px;stroke-linecap:butt;stroke-linejoin:miter;stroke-opacity:1" d="M 442.906,723.022 450.043,740.863 z" id="boundary" inkscape:connector-curvature="0" />
	<path style="fill:none;stroke:red;stroke-width:1px;stroke-linecap:butt;stroke-linejoin:miter;stroke-opacity:1" d="M 450.043,740.863 458.964,756.921 z" id="boundary" inkscape:connector-curvature="0" />
	<path style="fill:none;stroke:red;stroke-width:1px;stroke-linecap:butt;stroke-linejoin:miter;stroke-opacity:1" d="M 458.964,756.921 458.964,774.763 z" id="boundary" inkscape:connector-curvature="0" />
	<path style="fill:none;stroke:red;stroke-width:1px;stroke-linecap:butt;stroke-linejoin:miter;stroke-opacity:1" d="M 467.885,790.82 458.964,774.763 z" id="boundary" inkscape:connector-curvature="0" />
	<path style="fill:none;stroke:red;stroke-width:1px;stroke-linecap:butt;stroke-linejoin:miter;stroke-opacity:1" d="M 541.036,764.058 532.115,790.82 z" id="boundary" inkscape:connector-curvature="0" />
	<path style="fill:none;stroke:red;stroke-width:1px;stroke-linecap:butt;stroke-linejoin:miter;stroke-opacity:1" d="M 467.885,790.82 467.885,808.662 z" id="boundary" inkscape:connector-curvature="0" />
	<path style="fill:none;stroke:red;stroke-width:1px;stroke-linecap:butt;stroke-linejoin:miter;stroke-opacity:1" d="M 460.748,872.892 446.475,887.165 z" id="boundary" inkscape:connector-curvature="0" />
	<path style="fill:none;stroke:red;stroke-width:1px;stroke-linecap:butt;stroke-linejoin:miter;stroke-opacity:1" d="M 467.885,844.345 460.748,872.892 z" id="boundary" inkscape:connector-curvature="0" />
	<path style="fill:none;stroke:red;stroke-width:1px;stroke-linecap:butt;stroke-linejoin:miter;stroke-opacity:1" d="M 467.885,826.504 467.885,808.662 z" id="boundary" inkscape:connector-curvature="0" />
	<path style="fill:none;stroke:red;stroke-width:1px;stroke-linecap:butt;stroke-linejoin:miter;stroke-opacity:1" d="M 467.885,826.504 467.885,844.345 z" id="boundary" inkscape:connector-curvature="0" />
	<path style="fill:none;stroke:red;stroke-width:1px;stroke-linecap:butt;stroke-linejoin:miter;stroke-opacity:1" d="M 432.201,901.439 432.201,919.281 z" id="boundary" inkscape:connector-curvature="0" />
	<path style="fill:none;stroke:red;stroke-width:1px;stroke-linecap:butt;stroke-linejoin:miter;stroke-opacity:1" d="M 450.043,924.633 432.201,919.281 z" id="boundary" inkscape:connector-curvature="0" />
	<path style="fill:none;stroke:red;stroke-width:1px;stroke-linecap:butt;stroke-linejoin:miter;stroke-opacity:1" d="M 432.201,901.439 446.475,887.165 z" id="boundary" inkscape:connector-curvature="0" />
	<path style="fill:none;stroke:red;stroke-width:1px;stroke-linecap:butt;stroke-linejoin:miter;stroke-opacity:1" d="M 467.885,924.633 450.043,924.633 z" id="boundary" inkscape:connector-curvature="0" />
	<path style="fill:none;stroke:red;stroke-width:1px;stroke-linecap:butt;stroke-linejoin:miter;stroke-opacity:1" d="M 523.194,862.187 514.273,888.95 z" id="boundary" inkscape:connector-curvature="0" />
	<path style="fill:none;stroke:red;stroke-width:1px;stroke-linecap:butt;stroke-linejoin:miter;stroke-opacity:1" d="M 532.115,844.345 523.194,862.187 z" id="boundary" inkscape:connector-curvature="0" />
	<path style="fill:none;stroke:red;stroke-width:1px;stroke-linecap:butt;stroke-linejoin:miter;stroke-opacity:1" d="M 532.115,808.662 532.115,790.82 z" id="boundary" inkscape:connector-curvature="0" />
	<path style="fill:none;stroke:red;stroke-width:1px;stroke-linecap:butt;stroke-linejoin:miter;stroke-opacity:1" d="M 532.115,808.662 532.115,826.504 z" id="boundary" inkscape:connector-curvature="0" />
	<path style="fill:none;stroke:red;stroke-width:1px;stroke-linecap:butt;stroke-linejoin:miter;stroke-opacity:1" d="M 485.727,924.633 467.885,924.633 z" id="boundary" inkscape:connector-curvature="0" />
	<path style="fill:none;stroke:red;stroke-width:1px;stroke-linecap:butt;stroke-linejoin:miter;stroke-opacity:1" d="M 500,913.928 485.727,924.633 z" id="boundary" inkscape:connector-curvature="0" />
	<path style="fill:none;stroke:red;stroke-width:1px;stroke-linecap:butt;stroke-linejoin:miter;stroke-opacity:1" d="M 500,913.928 514.273,888.95 z" id="boundary" inkscape:connector-curvature="0" />
	<path style="fill:none;stroke:red;stroke-width:1px;stroke-linecap:butt;stroke-linejoin:miter;stroke-opacity:1" d="M 526.763,342.993 544.604,342.993 z" id="boundary" inkscape:connector-curvature="0" />
	<path style="fill:none;stroke:red;stroke-width:1px;stroke-linecap:butt;stroke-linejoin:miter;stroke-opacity:1" d="M 580.288,342.993 562.446,342.993 z" id="boundary" inkscape:connector-curvature="0" />
	<path style="fill:none;stroke:red;stroke-width:1px;stroke-linecap:butt;stroke-linejoin:miter;stroke-opacity:1" d="M 598.129,342.993 580.288,342.993 z" id="boundary" inkscape:connector-curvature="0" />
	<path style="fill:none;stroke:red;stroke-width:1px;stroke-linecap:butt;stroke-linejoin:miter;stroke-opacity:1" d="M 598.129,342.993 615.971,342.993 z" id="boundary" inkscape:connector-curvature="0" />
	<path style="fill:none;stroke:red;stroke-width:1px;stroke-linecap:butt;stroke-linejoin:miter;stroke-opacity:1" d="M 615.971,342.993 632.029,351.914 z" id="boundary" inkscape:connector-curvature="0" />
	<path style="fill:none;stroke:red;stroke-width:1px;stroke-linecap:butt;stroke-linejoin:miter;stroke-opacity:1" d="M 649.871,351.914 632.029,351.914 z" id="boundary" inkscape:connector-curvature="0" />
	<path style="fill:none;stroke:red;stroke-width:1px;stroke-linecap:butt;stroke-linejoin:miter;stroke-opacity:1" d="M 883.597,262.705 887.165,232.374 z" id="boundary" inkscape:connector-curvature="0" />
	<path style="fill:none;stroke:red;stroke-width:1px;stroke-linecap:butt;stroke-linejoin:miter;stroke-opacity:1" d="M 883.597,262.705 874.676,280.547 z" id="boundary" inkscape:connector-curvature="0" />
	<path style="fill:none;stroke:red;stroke-width:1px;stroke-linecap:butt;stroke-linejoin:miter;stroke-opacity:1" d="M 896.086,205.612 887.165,232.374 z" id="boundary" inkscape:connector-curvature="0" />
	<path style="fill:none;stroke:red;stroke-width:1px;stroke-linecap:butt;stroke-linejoin:miter;stroke-opacity:1" d="M 906.791,362.619 897.871,380.46 z" id="boundary" inkscape:connector-curvature="0" />
	<path style="fill:none;stroke:red;stroke-width:1px;stroke-linecap:butt;stroke-linejoin:miter;stroke-opacity:1" d="M 842.561,330.504 826.504,342.993 z" id="boundary" inkscape:connector-curvature="0" />
	<path style="fill:none;stroke:red;stroke-width:1px;stroke-linecap:butt;stroke-linejoin:miter;stroke-opacity:1" d="M 851.482,312.662 842.561,330.504 z" id="boundary" inkscape:connector-curvature="0" />
	<path style="fill:none;stroke:red;stroke-width:1px;stroke-linecap:butt;stroke-linejoin:miter;stroke-opacity:1" d="M 851.482,312.662 865.755,298.388 z" id="boundary" inkscape:connector-curvature="0" />
	<path style="fill:none;stroke:red;stroke-width:1px;stroke-linecap:butt;stroke-linejoin:miter;stroke-opacity:1" d="M 874.676,280.547 865.755,298.388 z" id="boundary" inkscape:connector-curvature="0" />
	<path style="fill:none;stroke:red;stroke-width:1px;stroke-linecap:butt;stroke-linejoin:miter;stroke-opacity:1" d="M 703.396,351.914 685.554,351.914 z" id="boundary" inkscape:connector-curvature="0" />
	<path style="fill:none;stroke:red;stroke-width:1px;stroke-linecap:butt;stroke-linejoin:miter;stroke-opacity:1" d="M 562.446,342.993 544.604,342.993 z" id="boundary" inkscape:connector-curvature="0" />
	<path style="fill:none;stroke:red;stroke-width:1px;stroke-linecap:butt;stroke-linejoin:miter;stroke-opacity:1" d="M 649.871,351.914 667.712,351.914 z" id="boundary" inkscape:connector-curvature="0" />
	<path style="fill:none;stroke:red;stroke-width:1px;stroke-linecap:butt;stroke-linejoin:miter;stroke-opacity:1" d="M 685.554,351.914 667.712,351.914 z" id="boundary" inkscape:connector-curvature="0" />
	<path style="fill:none;stroke:red;stroke-width:1px;stroke-linecap:butt;stroke-linejoin:miter;stroke-opacity:1" d="M 703.396,351.914 721.237,351.914 z" id="boundary" inkscape:connector-curvature="0" />
	<path style="fill:none;stroke:red;stroke-width:1px;stroke-linecap:butt;stroke-linejoin:miter;stroke-opacity:1" d="M 739.079,351.914 756.921,351.914 z" id="boundary" inkscape:connector-curvature="0" />
	<path style="fill:none;stroke:red;stroke-width:1px;stroke-linecap:butt;stroke-linejoin:miter;stroke-opacity:1" d="M 739.079,351.914 721.237,351.914 z" id="boundary" inkscape:connector-curvature="0" />
	<path style="fill:none;stroke:red;stroke-width:1px;stroke-linecap:butt;stroke-linejoin:miter;stroke-opacity:1" d="M 774.763,351.914 792.604,351.914 z" id="boundary" inkscape:connector-curvature="0" />
	<path style="fill:none;stroke:red;stroke-width:1px;stroke-linecap:butt;stroke-linejoin:miter;stroke-opacity:1" d="M 792.604,351.914 810.446,351.914 z" id="boundary" inkscape:connector-curvature="0" />
	<path style="fill:none;stroke:red;stroke-width:1px;stroke-linecap:butt;stroke-linejoin:miter;stroke-opacity:1" d="M 897.871,380.46 897.871,398.302 z" id="boundary" inkscape:connector-curvature="0" />
	<path style="fill:none;stroke:red;stroke-width:1px;stroke-linecap:butt;stroke-linejoin:miter;stroke-opacity:1" d="M 826.504,342.993 810.446,351.914 z" id="boundary" inkscape:connector-curvature="0" />
	<path style="fill:none;stroke:red;stroke-width:1px;stroke-linecap:butt;stroke-linejoin:miter;stroke-opacity:1" d="M 897.871,398.302 897.871,416.144 z" id="boundary" inkscape:connector-curvature="0" />
	<path style="fill:none;stroke:red;stroke-width:1px;stroke-linecap:butt;stroke-linejoin:miter;stroke-opacity:1" d="M 897.871,433.986 897.871,451.827 z" id="boundary" inkscape:connector-curvature="0" />
	<path style="fill:none;stroke:red;stroke-width:1px;stroke-linecap:butt;stroke-linejoin:miter;stroke-opacity:1" d="M 897.871,433.986 897.871,416.144 z" id="boundary" inkscape:connector-curvature="0" />
	<path style="fill:none;stroke:red;stroke-width:1px;stroke-linecap:butt;stroke-linejoin:miter;stroke-opacity:1" d="M 756.921,351.914 774.763,351.914 z" id="boundary" inkscape:connector-curvature="0" />
	<path style="fill:none;stroke:red;stroke-width:1px;stroke-linecap:butt;stroke-linejoin:miter;stroke-opacity:1" d="M 897.871,451.827 897.871,469.669 z" id="boundary" inkscape:connector-curvature="0" />
	<path style="fill:none;stroke:red;stroke-width:1px;stroke-linecap:butt;stroke-linejoin:miter;stroke-opacity:1" d="M 931.77,45.036 940.691,27.1942 z" id="boundary" inkscape:connector-curvature="0" />
	<path style="fill:none;stroke:red;stroke-width:1px;stroke-linecap:butt;stroke-linejoin:miter;stroke-opacity:1" d="M 958.532,18.2734 940.691,27.1942 z" id="boundary" inkscape:connector-curvature="0" />
	<path style="fill:none;stroke:red;stroke-width:1px;stroke-linecap:butt;stroke-linejoin:miter;stroke-opacity:1" d="M 972.806,4 958.532,18.2734 z" id="boundary" inkscape:connector-curvature="0" />
	<path style="fill:none;stroke:red;stroke-width:1px;stroke-linecap:butt;stroke-linejoin:miter;stroke-opacity:1" d="M 931.77,62.8777 931.77,45.036 z" id="boundary" inkscape:connector-curvature="0" />
	<path style="fill:none;stroke:red;stroke-width:1px;stroke-linecap:butt;stroke-linejoin:miter;stroke-opacity:1" d="M 922.849,80.7194 922.849,98.5612 z" id="boundary" inkscape:connector-curvature="0" />
	<path style="fill:none;stroke:red;stroke-width:1px;stroke-linecap:butt;stroke-linejoin:miter;stroke-opacity:1" d="M 922.849,80.7194 931.77,62.8777 z" id="boundary" inkscape:connector-curvature="0" />
	<path style="fill:none;stroke:red;stroke-width:1px;stroke-linecap:butt;stroke-linejoin:miter;stroke-opacity:1" d="M 922.849,116.403 922.849,98.5612 z" id="boundary" inkscape:connector-curvature="0" />
	<path style="fill:none;stroke:red;stroke-width:1px;stroke-linecap:butt;stroke-linejoin:miter;stroke-opacity:1" d="M 922.849,116.403 913.928,134.245 z" id="boundary" inkscape:connector-curvature="0" />
	<path style="fill:none;stroke:red;stroke-width:1px;stroke-linecap:butt;stroke-linejoin:miter;stroke-opacity:1" d="M 972.806,4 990.647,4 z" id="boundary" inkscape:connector-curvature="0" />
	<path style="fill:none;stroke:red;stroke-width:1px;stroke-linecap:butt;stroke-linejoin:miter;stroke-opacity:1" d="M 990.647,4 996,21.8417 z" id="boundary" inkscape:connector-curvature="0" />
	<path style="fill:none;stroke:red;stroke-width:1px;stroke-linecap:butt;stroke-linejoin:miter;stroke-opacity:1" d="M 996,21.8417 987.079,50.3885 z" id="boundary" inkscape:connector-curvature="0" />
	<path style="fill:none;stroke:red;stroke-width:1px;stroke-linecap:butt;stroke-linejoin:miter;stroke-opacity:1" d="M 987.079,50.3885 987.079,68.2302 z" id="boundary" inkscape:connector-curvature="0" />
	<path style="fill:none;stroke:red;stroke-width:1px;stroke-linecap:butt;stroke-linejoin:miter;stroke-opacity:1" d="M 987.079,86.0719 987.079,103.914 z" id="boundary" inkscape:connector-curvature="0" />
	<path style="fill:none;stroke:red;stroke-width:1px;stroke-linecap:butt;stroke-linejoin:miter;stroke-opacity:1" d="M 987.079,86.0719 987.079,68.2302 z" id="boundary" inkscape:connector-curvature="0" />
	<path style="fill:none;stroke:red;stroke-width:1px;stroke-linecap:butt;stroke-linejoin:miter;stroke-opacity:1" d="M 987.079,103.914 978.158,121.755 z" id="boundary" inkscape:connector-curvature="0" />
	<path style="fill:none;stroke:red;stroke-width:1px;stroke-linecap:butt;stroke-linejoin:miter;stroke-opacity:1" d="M 905.007,178.849 905.007,161.007 z" id="boundary" inkscape:connector-curvature="0" />
	<path style="fill:none;stroke:red;stroke-width:1px;stroke-linecap:butt;stroke-linejoin:miter;stroke-opacity:1" d="M 913.928,134.245 905.007,161.007 z" id="boundary" inkscape:connector-curvature="0" />
	<path style="fill:none;stroke:red;stroke-width:1px;stroke-linecap:butt;stroke-linejoin:miter;stroke-opacity:1" d="M 942.475,273.41 933.554,291.252 z" id="boundary" inkscape:connector-curvature="0" />
	<path style="fill:none;stroke:red;stroke-width:1px;stroke-linecap:butt;stroke-linejoin:miter;stroke-opacity:1" d="M 905.007,178.849 896.086,205.612 z" id="boundary" inkscape:connector-curvature="0" />
	<path style="fill:none;stroke:red;stroke-width:1px;stroke-linecap:butt;stroke-linejoin:miter;stroke-opacity:1" d="M 906.791,362.619 915.712,335.856 z" id="boundary" inkscape:connector-curvature="0" />
	<path style="fill:none;stroke:red;stroke-width:1px;stroke-linecap:butt;stroke-linejoin:miter;stroke-opacity:1" d="M 915.712,335.856 924.633,318.014 z" id="boundary" inkscape:connector-curvature="0" />
	<path style="fill:none;stroke:red;stroke-width:1px;stroke-linecap:butt;stroke-linejoin:miter;stroke-opacity:1" d="M 924.633,318.014 933.554,291.252 z" id="boundary" inkscape:connector-curvature="0" />
	<path style="fill:none;stroke:red;stroke-width:1px;stroke-linecap:butt;stroke-linejoin:miter;stroke-opacity:1" d="M 969.237,184.201 969.237,202.043 z" id="boundary" inkscape:connector-curvature="0" />
	<path style="fill:none;stroke:red;stroke-width:1px;stroke-linecap:butt;stroke-linejoin:miter;stroke-opacity:1" d="M 969.237,184.201 969.237,166.36 z" id="boundary" inkscape:connector-curvature="0" />
	<path style="fill:none;stroke:red;stroke-width:1px;stroke-linecap:butt;stroke-linejoin:miter;stroke-opacity:1" d="M 969.237,166.36 978.158,139.597 z" id="boundary" inkscape:connector-curvature="0" />
	<path style="fill:none;stroke:red;stroke-width:1px;stroke-linecap:butt;stroke-linejoin:miter;stroke-opacity:1" d="M 978.158,139.597 978.158,121.755 z" id="boundary" inkscape:connector-curvature="0" />
	<path style="fill:none;stroke:red;stroke-width:1px;stroke-linecap:butt;stroke-linejoin:miter;stroke-opacity:1" d="M 942.475,273.41 951.396,246.647 z" id="boundary" inkscape:connector-curvature="0" />
	<path style="fill:none;stroke:red;stroke-width:1px;stroke-linecap:butt;stroke-linejoin:miter;stroke-opacity:1" d="M 960.317,219.885 969.237,202.043 z" id="boundary" inkscape:connector-curvature="0" />
	<path style="fill:none;stroke:red;stroke-width:1px;stroke-linecap:butt;stroke-linejoin:miter;stroke-opacity:1" d="M 951.396,246.647 960.317,219.885 z" id="boundary" inkscape:connector-curvature="0" />
	<path style="fill:none;stroke:red;stroke-width:1px;stroke-linecap:butt;stroke-linejoin:miter;stroke-opacity:1" d="M 557.094,683.77 574.935,683.77 z" id="boundary" inkscape:connector-curvature="0" />
	<path style="fill:none;stroke:red;stroke-width:1px;stroke-linecap:butt;stroke-linejoin:miter;stroke-opacity:1" d="M 592.777,683.77 574.935,683.77 z" id="boundary" inkscape:connector-curvature="0" />
	<path style="fill:none;stroke:red;stroke-width:1px;stroke-linecap:butt;stroke-linejoin:miter;stroke-opacity:1" d="M 541.036,728.374 541.036,710.532 z" id="boundary" inkscape:connector-curvature="0" />
	<path style="fill:none;stroke:red;stroke-width:1px;stroke-linecap:butt;stroke-linejoin:miter;stroke-opacity:1" d="M 541.036,692.691 557.094,683.77 z" id="boundary" inkscape:connector-curvature="0" />
	<path style="fill:none;stroke:red;stroke-width:1px;stroke-linecap:butt;stroke-linejoin:miter;stroke-opacity:1" d="M 541.036,710.532 541.036,692.691 z" id="boundary" inkscape:connector-curvature="0" />
	<path style="fill:none;stroke:red;stroke-width:1px;stroke-linecap:butt;stroke-linejoin:miter;stroke-opacity:1" d="M 592.777,683.77 610.619,683.77 z" id="boundary" inkscape:connector-curvature="0" />
	<path style="fill:none;stroke:red;stroke-width:1px;stroke-linecap:butt;stroke-linejoin:miter;stroke-opacity:1" d="M 628.46,683.77 610.619,683.77 z" id="boundary" inkscape:connector-curvature="0" />
	<path style="fill:none;stroke:red;stroke-width:1px;stroke-linecap:butt;stroke-linejoin:miter;stroke-opacity:1" d="M 646.302,683.77 664.144,683.77 z" id="boundary" inkscape:connector-curvature="0" />
	<path style="fill:none;stroke:red;stroke-width:1px;stroke-linecap:butt;stroke-linejoin:miter;stroke-opacity:1" d="M 681.986,683.77 664.144,683.77 z" id="boundary" inkscape:connector-curvature="0" />
	<path style="fill:none;stroke:red;stroke-width:1px;stroke-linecap:butt;stroke-linejoin:miter;stroke-opacity:1" d="M 681.986,683.77 698.043,692.691 z" id="boundary" inkscape:connector-curvature="0" />
	<path style="fill:none;stroke:red;stroke-width:1px;stroke-linecap:butt;stroke-linejoin:miter;stroke-opacity:1" d="M 714.101,701.612 698.043,692.691 z" id="boundary" inkscape:connector-curvature="0" />
	<path style="fill:none;stroke:red;stroke-width:1px;stroke-linecap:butt;stroke-linejoin:miter;stroke-opacity:1" d="M 731.942,701.612 714.101,701.612 z" id="boundary" inkscape:connector-curvature="0" />
	<path style="fill:none;stroke:red;stroke-width:1px;stroke-linecap:butt;stroke-linejoin:miter;stroke-opacity:1" d="M 748,710.532 731.942,701.612 z" id="boundary" inkscape:connector-curvature="0" />
	<path style="fill:none;stroke:red;stroke-width:1px;stroke-linecap:butt;stroke-linejoin:miter;stroke-opacity:1" d="M 628.46,683.77 646.302,683.77 z" id="boundary" inkscape:connector-curvature="0" />
	<path style="fill:none;stroke:red;stroke-width:1px;stroke-linecap:butt;stroke-linejoin:miter;stroke-opacity:1" d="M 748,710.532 749.784,744.432 z" id="boundary" inkscape:connector-curvature="0" />
	<path style="fill:none;stroke:red;stroke-width:1px;stroke-linecap:butt;stroke-linejoin:miter;stroke-opacity:1" d="M 541.036,746.216 541.036,764.058 z" id="boundary" inkscape:connector-curvature="0" />
	<path style="fill:none;stroke:red;stroke-width:1px;stroke-linecap:butt;stroke-linejoin:miter;stroke-opacity:1" d="M 541.036,746.216 541.036,728.374 z" id="boundary" inkscape:connector-curvature="0" />
	<path style="fill:none;stroke:red;stroke-width:1px;stroke-linecap:butt;stroke-linejoin:miter;stroke-opacity:1" d="M 532.115,826.504 532.115,844.345 z" id="boundary" inkscape:connector-curvature="0" />
	<path style="fill:none;stroke:red;stroke-width:1px;stroke-linecap:butt;stroke-linejoin:miter;stroke-opacity:1" d="M 681.986,803.309 681.986,785.468 z" id="boundary" inkscape:connector-curvature="0" />
	<path style="fill:none;stroke:red;stroke-width:1px;stroke-linecap:butt;stroke-linejoin:miter;stroke-opacity:1" d="M 681.986,785.468 699.827,776.547 z" id="boundary" inkscape:connector-curvature="0" />
	<path style="fill:none;stroke:red;stroke-width:1px;stroke-linecap:butt;stroke-linejoin:miter;stroke-opacity:1" d="M 681.986,803.309 692.691,817.583 z" id="boundary" inkscape:connector-curvature="0" />
	<path style="fill:none;stroke:red;stroke-width:1px;stroke-linecap:butt;stroke-linejoin:miter;stroke-opacity:1" d="M 699.827,776.547 717.669,771.194 z" id="boundary" inkscape:connector-curvature="0" />
	<path style="fill:none;stroke:red;stroke-width:1px;stroke-linecap:butt;stroke-linejoin:miter;stroke-opacity:1" d="M 717.669,771.194 735.511,758.705 z" id="boundary" inkscape:connector-curvature="0" />
	<path style="fill:none;stroke:red;stroke-width:1px;stroke-linecap:butt;stroke-linejoin:miter;stroke-opacity:1" d="M 758.705,797.957 744.432,808.662 z" id="boundary" inkscape:connector-curvature="0" />
	<path style="fill:none;stroke:red;stroke-width:1px;stroke-linecap:butt;stroke-linejoin:miter;stroke-opacity:1" d="M 692.691,817.583 710.532,817.583 z" id="boundary" inkscape:connector-curvature="0" />
	<path style="fill:none;stroke:red;stroke-width:1px;stroke-linecap:butt;stroke-linejoin:miter;stroke-opacity:1" d="M 728.374,817.583 744.432,808.662 z" id="boundary" inkscape:connector-curvature="0" />
	<path style="fill:none;stroke:red;stroke-width:1px;stroke-linecap:butt;stroke-linejoin:miter;stroke-opacity:1" d="M 728.374,817.583 710.532,817.583 z" id="boundary" inkscape:connector-curvature="0" />
	<path style="fill:none;stroke:red;stroke-width:1px;stroke-linecap:butt;stroke-linejoin:miter;stroke-opacity:1" d="M 735.511,758.705 749.784,744.432 z" id="boundary" inkscape:connector-curvature="0" />
	<path style="fill:none;stroke:red;stroke-width:1px;stroke-linecap:butt;stroke-linejoin:miter;stroke-opacity:1" d="M 888.95,523.194 888.95,541.036 z" id="boundary" inkscape:connector-curvature="0" />
	<path style="fill:none;stroke:red;stroke-width:1px;stroke-linecap:butt;stroke-linejoin:miter;stroke-opacity:1" d="M 888.95,541.036 880.029,558.878 z" id="boundary" inkscape:connector-curvature="0" />
	<path style="fill:none;stroke:red;stroke-width:1px;stroke-linecap:butt;stroke-linejoin:miter;stroke-opacity:1" d="M 888.95,523.194 897.871,505.353 z" id="boundary" inkscape:connector-curvature="0" />
	<path style="fill:none;stroke:red;stroke-width:1px;stroke-linecap:butt;stroke-linejoin:miter;stroke-opacity:1" d="M 880.029,576.719 880.029,558.878 z" id="boundary" inkscape:connector-curvature="0" />
	<path style="fill:none;stroke:red;stroke-width:1px;stroke-linecap:butt;stroke-linejoin:miter;stroke-opacity:1" d="M 871.108,612.403 874.676,630.245 z" id="boundary" inkscape:connector-curvature="0" />
	<path style="fill:none;stroke:red;stroke-width:1px;stroke-linecap:butt;stroke-linejoin:miter;stroke-opacity:1" d="M 871.108,612.403 871.108,594.561 z" id="boundary" inkscape:connector-curvature="0" />
	<path style="fill:none;stroke:red;stroke-width:1px;stroke-linecap:butt;stroke-linejoin:miter;stroke-opacity:1" d="M 871.108,594.561 880.029,576.719 z" id="boundary" inkscape:connector-curvature="0" />
	<path style="fill:none;stroke:red;stroke-width:1px;stroke-linecap:butt;stroke-linejoin:miter;stroke-opacity:1" d="M 888.95,642.734 874.676,630.245 z" id="boundary" inkscape:connector-curvature="0" />
	<path style="fill:none;stroke:red;stroke-width:1px;stroke-linecap:butt;stroke-linejoin:miter;stroke-opacity:1" d="M 897.871,487.511 897.871,505.353 z" id="boundary" inkscape:connector-curvature="0" />
	<path style="fill:none;stroke:red;stroke-width:1px;stroke-linecap:butt;stroke-linejoin:miter;stroke-opacity:1" d="M 897.871,469.669 897.871,487.511 z" id="boundary" inkscape:connector-curvature="0" />
	<path style="fill:none;stroke:red;stroke-width:1px;stroke-linecap:butt;stroke-linejoin:miter;stroke-opacity:1" d="M 888.95,660.576 888.95,642.734 z" id="boundary" inkscape:connector-curvature="0" />
	<path style="fill:none;stroke:red;stroke-width:1px;stroke-linecap:butt;stroke-linejoin:miter;stroke-opacity:1" d="M 888.95,660.576 888.95,678.417 z" id="boundary" inkscape:connector-curvature="0" />
	<path style="fill:none;stroke:red;stroke-width:1px;stroke-linecap:butt;stroke-linejoin:miter;stroke-opacity:1" d="M 888.95,678.417 888.95,696.259 z" id="boundary" inkscape:connector-curvature="0" />
	<path style="fill:none;stroke:red;stroke-width:1px;stroke-linecap:butt;stroke-linejoin:miter;stroke-opacity:1" d="M 888.95,714.101 888.95,696.259 z" id="boundary" inkscape:connector-curvature="0" />
	<path style="fill:none;stroke:red;stroke-width:1px;stroke-linecap:butt;stroke-linejoin:miter;stroke-opacity:1" d="M 776.547,789.036 790.82,772.978 z" id="boundary" inkscape:connector-curvature="0" />
	<path style="fill:none;stroke:red;stroke-width:1px;stroke-linecap:butt;stroke-linejoin:miter;stroke-opacity:1" d="M 776.547,789.036 758.705,797.957 z" id="boundary" inkscape:connector-curvature="0" />
	<path style="fill:none;stroke:red;stroke-width:1px;stroke-linecap:butt;stroke-linejoin:miter;stroke-opacity:1" d="M 797.957,794.388 797.957,812.23 z" id="boundary" inkscape:connector-curvature="0" />
	<path style="fill:none;stroke:red;stroke-width:1px;stroke-linecap:butt;stroke-linejoin:miter;stroke-opacity:1" d="M 797.957,812.23 806.878,828.288 z" id="boundary" inkscape:connector-curvature="0" />
	<path style="fill:none;stroke:red;stroke-width:1px;stroke-linecap:butt;stroke-linejoin:miter;stroke-opacity:1" d="M 824.719,835.424 806.878,828.288 z" id="boundary" inkscape:connector-curvature="0" />
	<path style="fill:none;stroke:red;stroke-width:1px;stroke-linecap:butt;stroke-linejoin:miter;stroke-opacity:1" d="M 790.82,772.978 805.094,760.489 z" id="boundary" inkscape:connector-curvature="0" />
	<path style="fill:none;stroke:red;stroke-width:1px;stroke-linecap:butt;stroke-linejoin:miter;stroke-opacity:1" d="M 805.094,760.489 822.935,755.137 z" id="boundary" inkscape:connector-curvature="0" />
	<path style="fill:none;stroke:red;stroke-width:1px;stroke-linecap:butt;stroke-linejoin:miter;stroke-opacity:1" d="M 871.108,764.058 880.029,737.295 z" id="boundary" inkscape:connector-curvature="0" />
	<path style="fill:none;stroke:red;stroke-width:1px;stroke-linecap:butt;stroke-linejoin:miter;stroke-opacity:1" d="M 865.755,797.957 871.108,764.058 z" id="boundary" inkscape:connector-curvature="0" />
	<path style="fill:none;stroke:red;stroke-width:1px;stroke-linecap:butt;stroke-linejoin:miter;stroke-opacity:1" d="M 842.561,830.072 824.719,835.424 z" id="boundary" inkscape:connector-curvature="0" />
	<path style="fill:none;stroke:red;stroke-width:1px;stroke-linecap:butt;stroke-linejoin:miter;stroke-opacity:1" d="M 856.835,815.799 842.561,830.072 z" id="boundary" inkscape:connector-curvature="0" />
	<path style="fill:none;stroke:red;stroke-width:1px;stroke-linecap:butt;stroke-linejoin:miter;stroke-opacity:1" d="M 865.755,797.957 856.835,815.799 z" id="boundary" inkscape:connector-curvature="0" />
	<path style="fill:none;stroke:red;stroke-width:1px;stroke-linecap:butt;stroke-linejoin:miter;stroke-opacity:1" d="M 880.029,737.295 888.95,714.101 z" id="boundary" inkscape:connector-curvature="0" />
	<circle cx="4" cy="339.424" r="4" fill="#0" id="circle0"/>
	<circle cx="4" cy="357.266" r="4" fill="#0" id="circle1"/>
	<circle cx="4" cy="375.108" r="4" fill="#0" id="circle2"/>
	<circle cx="12.9209" cy="391.165" r="4" fill="#0" id="circle3"/>
	<circle cx="18.2734" cy="325.151" r="4" fill="#0" id="circle4"/>
	<circle cx="25.4101" cy="405.439" r="4" fill="#0" id="circle5"/>
	<circle cx="34.3309" cy="316.23" r="4" fill="#0" id="circle6"/>
	<circle cx="43.2518" cy="412.576" r="4" fill="#0" id="circle7"/>
	<circle cx="50.3885" cy="307.309" r="4" fill="#0" id="circle8"/>
	<circle cx="61.0935" cy="291.252" r="4" fill="#0" id="circle9"/>
	<circle cx="61.0935" cy="416.144" r="4" fill="#0" id="circle10"/>
	<circle cx="77.1511" cy="425.065" r="4" fill="#0" id="circle11"/>
	<circle cx="78.9353" cy="282.331" r="4" fill="#0" id="circle12"/>
	<circle cx="93.2086" cy="271.626" r="4" fill="#0" id="circle13"/>
	<circle cx="93.2086" cy="433.986" r="4" fill="#0" id="circle14"/>
	<circle cx="109.266" cy="262.705" r="4" fill="#0" id="circle15"/>
	<circle cx="109.266" cy="442.906" r="4" fill="#0" id="circle16"/>
	<circle cx="121.755" cy="457.18" r="4" fill="#0" id="circle17"/>
	<circle cx="127.108" cy="262.705" r="4" fill="#0" id="circle18"/>
	<circle cx="136.029" cy="469.669" r="4" fill="#0" id="circle19"/>
	<circle cx="144.95" cy="262.705" r="4" fill="#0" id="circle20"/>
	<circle cx="146.734" cy="241.295" r="4" fill="#0" id="circle21"/>
	<circle cx="146.734" cy="901.439" r="4" fill="#0" id="circle22"/>
	<circle cx="152.086" cy="478.59" r="4" fill="#0" id="circle23"/>
	<circle cx="155.655" cy="223.453" r="4" fill="#0" id="circle24"/>
	<circle cx="155.655" cy="917.496" r="4" fill="#0" id="circle25"/>
	<circle cx="161.007" cy="494.647" r="4" fill="#0" id="circle26"/>
	<circle cx="161.007" cy="887.165" r="4" fill="#0" id="circle27"/>
	<circle cx="169.928" cy="209.18" r="4" fill="#0" id="circle28"/>
	<circle cx="173.496" cy="508.921" r="4" fill="#0" id="circle29"/>
	<circle cx="173.496" cy="924.633" r="4" fill="#0" id="circle30"/>
	<circle cx="178.849" cy="878.245" r="4" fill="#0" id="circle31"/>
	<circle cx="182.417" cy="524.978" r="4" fill="#0" id="circle32"/>
	<circle cx="182.417" cy="542.82" r="4" fill="#0" id="circle33"/>
	<circle cx="184.201" cy="219.885" r="4" fill="#0" id="circle34"/>
	<circle cx="191.338" cy="558.878" r="4" fill="#0" id="circle35"/>
	<circle cx="191.338" cy="924.633" r="4" fill="#0" id="circle36"/>
	<circle cx="196.691" cy="878.245" r="4" fill="#0" id="circle37"/>
	<circle cx="200.259" cy="574.935" r="4" fill="#0" id="circle38"/>
	<circle cx="202.043" cy="227.022" r="4" fill="#0" id="circle39"/>
	<circle cx="203.827" cy="592.777" r="4" fill="#0" id="circle40"/>
	<circle cx="209.18" cy="924.633" r="4" fill="#0" id="circle41"/>
	<circle cx="210.964" cy="863.971" r="4" fill="#0" id="circle42"/>
	<circle cx="216.317" cy="237.727" r="4" fill="#0" id="circle43"/>
	<circle cx="218.101" cy="603.482" r="4" fill="#0" id="circle44"/>
	<circle cx="219.885" cy="846.129" r="4" fill="#0" id="circle45"/>
	<circle cx="223.453" cy="255.568" r="4" fill="#0" id="circle46"/>
	<circle cx="223.453" cy="621.324" r="4" fill="#0" id="circle47"/>
	<circle cx="227.022" cy="919.281" r="4" fill="#0" id="circle48"/>
	<circle cx="228.806" cy="273.41" r="4" fill="#0" id="circle49"/>
	<circle cx="228.806" cy="828.288" r="4" fill="#0" id="circle50"/>
	<circle cx="237.727" cy="289.468" r="4" fill="#0" id="circle51"/>
	<circle cx="237.727" cy="633.813" r="4" fill="#0" id="circle52"/>
	<circle cx="237.727" cy="810.446" r="4" fill="#0" id="circle53"/>
	<circle cx="241.295" cy="905.007" r="4" fill="#0" id="circle54"/>
	<circle cx="244.863" cy="651.655" r="4" fill="#0" id="circle55"/>
	<circle cx="244.863" cy="785.468" r="4" fill="#0" id="circle56"/>
	<circle cx="250.216" cy="887.165" r="4" fill="#0" id="circle57"/>
	<circle cx="252" cy="300.173" r="4" fill="#0" id="circle58"/>
	<circle cx="253.784" cy="667.712" r="4" fill="#0" id="circle59"/>
	<circle cx="253.784" cy="749.784" r="4" fill="#0" id="circle60"/>
	<circle cx="253.784" cy="767.626" r="4" fill="#0" id="circle61"/>
	<circle cx="259.137" cy="869.324" r="4" fill="#0" id="circle62"/>
	<circle cx="260.921" cy="316.23" r="4" fill="#0" id="circle63"/>
	<circle cx="262.705" cy="683.77" r="4" fill="#0" id="circle64"/>
	<circle cx="262.705" cy="701.612" r="4" fill="#0" id="circle65"/>
	<circle cx="262.705" cy="719.453" r="4" fill="#0" id="circle66"/>
	<circle cx="273.41" cy="330.504" r="4" fill="#0" id="circle67"/>
	<circle cx="273.41" cy="853.266" r="4" fill="#0" id="circle68"/>
	<circle cx="285.899" cy="344.777" r="4" fill="#0" id="circle69"/>
	<circle cx="287.683" cy="840.777" r="4" fill="#0" id="circle70"/>
	<circle cx="300.173" cy="357.266" r="4" fill="#0" id="circle71"/>
	<circle cx="300.173" cy="817.583" r="4" fill="#0" id="circle72"/>
	<circle cx="314.446" cy="805.094" r="4" fill="#0" id="circle73"/>
	<circle cx="316.23" cy="366.187" r="4" fill="#0" id="circle74"/>
	<circle cx="326.935" cy="781.899" r="4" fill="#0" id="circle75"/>
	<circle cx="334.072" cy="369.755" r="4" fill="#0" id="circle76"/>
	<circle cx="341.209" cy="769.41" r="4" fill="#0" id="circle77"/>
	<circle cx="350.129" cy="751.568" r="4" fill="#0" id="circle78"/>
	<circle cx="351.914" cy="373.324" r="4" fill="#0" id="circle79"/>
	<circle cx="359.05" cy="733.727" r="4" fill="#0" id="circle80"/>
	<circle cx="369.755" cy="373.324" r="4" fill="#0" id="circle81"/>
	<circle cx="371.54" cy="719.453" r="4" fill="#0" id="circle82"/>
	<circle cx="385.813" cy="706.964" r="4" fill="#0" id="circle83"/>
	<circle cx="387.597" cy="369.755" r="4" fill="#0" id="circle84"/>
	<circle cx="396.518" cy="692.691" r="4" fill="#0" id="circle85"/>
	<circle cx="405.439" cy="369.755" r="4" fill="#0" id="circle86"/>
	<circle cx="412.576" cy="701.612" r="4" fill="#0" id="circle87"/>
	<circle cx="423.281" cy="369.755" r="4" fill="#0" id="circle88"/>
	<circle cx="428.633" cy="710.532" r="4" fill="#0" id="circle89"/>
	<circle cx="432.201" cy="901.439" r="4" fill="#0" id="circle90"/>
	<circle cx="432.201" cy="919.281" r="4" fill="#0" id="circle91"/>
	<circle cx="441.122" cy="366.187" r="4" fill="#0" id="circle92"/>
	<circle cx="442.906" cy="723.022" r="4" fill="#0" id="circle93"/>
	<circle cx="446.475" cy="887.165" r="4" fill="#0" id="circle94"/>
	<circle cx="450.043" cy="740.863" r="4" fill="#0" id="circle95"/>
	<circle cx="450.043" cy="924.633" r="4" fill="#0" id="circle96"/>
	<circle cx="458.964" cy="360.835" r="4" fill="#0" id="circle97"/>
	<circle cx="458.964" cy="756.921" r="4" fill="#0" id="circle98"/>
	<circle cx="458.964" cy="774.763" r="4" fill="#0" id="circle99"/>
	<circle cx="460.748" cy="872.892" r="4" fill="#0" id="circle100"/>
	<circle cx="467.885" cy="790.82" r="4" fill="#0" id="circle101"/>
	<circle cx="467.885" cy="808.662" r="4" fill="#0" id="circle102"/>
	<circle cx="467.885" cy="826.504" r="4" fill="#0" id="circle103"/>
	<circle cx="467.885" cy="844.345" r="4" fill="#0" id="circle104"/>
	<circle cx="467.885" cy="924.633" r="4" fill="#0" id="circle105"/>
	<circle cx="475.022" cy="351.914" r="4" fill="#0" id="circle106"/>
	<circle cx="485.727" cy="924.633" r="4" fill="#0" id="circle107"/>
	<circle cx="492.863" cy="351.914" r="4" fill="#0" id="circle108"/>
	<circle cx="500" cy="913.928" r="4" fill="#0" id="circle109"/>
	<circle cx="510.705" cy="351.914" r="4" fill="#0" id="circle110"/>
	<circle cx="514.273" cy="888.95" r="4" fill="#0" id="circle111"/>
	<circle cx="523.194" cy="862.187" r="4" fill="#0" id="circle112"/>
	<circle cx="526.763" cy="342.993" r="4" fill="#0" id="circle113"/>
	<circle cx="532.115" cy="790.82" r="4" fill="#0" id="circle114"/>
	<circle cx="532.115" cy="808.662" r="4" fill="#0" id="circle115"/>
	<circle cx="532.115" cy="826.504" r="4" fill="#0" id="circle116"/>
	<circle cx="532.115" cy="844.345" r="4" fill="#0" id="circle117"/>
	<circle cx="541.036" cy="692.691" r="4" fill="#0" id="circle118"/>
	<circle cx="541.036" cy="710.532" r="4" fill="#0" id="circle119"/>
	<circle cx="541.036" cy="728.374" r="4" fill="#0" id="circle120"/>
	<circle cx="541.036" cy="746.216" r="4" fill="#0" id="circle121"/>
	<circle cx="541.036" cy="764.058" r="4" fill="#0" id="circle122"/>
	<circle cx="544.604" cy="342.993" r="4" fill="#0" id="circle123"/>
	<circle cx="557.094" cy="683.77" r="4" fill="#0" id="circle124"/>
	<circle cx="562.446" cy="342.993" r="4" fill="#0" id="circle125"/>
	<circle cx="574.935" cy="683.77" r="4" fill="#0" id="circle126"/>
	<circle cx="580.288" cy="342.993" r="4" fill="#0" id="circle127"/>
	<circle cx="592.777" cy="683.77" r="4" fill="#0" id="circle128"/>
	<circle cx="598.129" cy="342.993" r="4" fill="#0" id="circle129"/>
	<circle cx="610.619" cy="683.77" r="4" fill="#0" id="circle130"/>
	<circle cx="615.971" cy="342.993" r="4" fill="#0" id="circle131"/>
	<circle cx="628.46" cy="683.77" r="4" fill="#0" id="circle132"/>
	<circle cx="632.029" cy="351.914" r="4" fill="#0" id="circle133"/>
	<circle cx="646.302" cy="683.77" r="4" fill="#0" id="circle134"/>
	<circle cx="649.871" cy="351.914" r="4" fill="#0" id="circle135"/>
	<circle cx="664.144" cy="683.77" r="4" fill="#0" id="circle136"/>
	<circle cx="667.712" cy="351.914" r="4" fill="#0" id="circle137"/>
	<circle cx="681.986" cy="683.77" r="4" fill="#0" id="circle138"/>
	<circle cx="681.986" cy="785.468" r="4" fill="#0" id="circle139"/>
	<circle cx="681.986" cy="803.309" r="4" fill="#0" id="circle140"/>
	<circle cx="685.554" cy="351.914" r="4" fill="#0" id="circle141"/>
	<circle cx="692.691" cy="817.583" r="4" fill="#0" id="circle142"/>
	<circle cx="698.043" cy="692.691" r="4" fill="#0" id="circle143"/>
	<circle cx="699.827" cy="776.547" r="4" fill="#0" id="circle144"/>
	<circle cx="703.396" cy="351.914" r="4" fill="#0" id="circle145"/>
	<circle cx="710.532" cy="817.583" r="4" fill="#0" id="circle146"/>
	<circle cx="714.101" cy="701.612" r="4" fill="#0" id="circle147"/>
	<circle cx="717.669" cy="771.194" r="4" fill="#0" id="circle148"/>
	<circle cx="721.237" cy="351.914" r="4" fill="#0" id="circle149"/>
	<circle cx="728.374" cy="817.583" r="4" fill="#0" id="circle150"/>
	<circle cx="731.942" cy="701.612" r="4" fill="#0" id="circle151"/>
	<circle cx="735.511" cy="758.705" r="4" fill="#0" id="circle152"/>
	<circle cx="739.079" cy="351.914" r="4" fill="#0" id="circle153"/>
	<circle cx="744.432" cy="808.662" r="4" fill="#0" id="circle154"/>
	<circle cx="748" cy="710.532" r="4" fill="#0" id="circle155"/>
	<circle cx="749.784" cy="744.432" r="4" fill="#0" id="circle156"/>
	<circle cx="756.921" cy="351.914" r="4" fill="#0" id="circle157"/>
	<circle cx="758.705" cy="797.957" r="4" fill="#0" id="circle158"/>
	<circle cx="774.763" cy="351.914" r="4" fill="#0" id="circle159"/>
	<circle cx="776.547" cy="789.036" r="4" fill="#0" id="circle160"/>
	<circle cx="790.82" cy="772.978" r="4" fill="#0" id="circle161"/>
	<circle cx="792.604" cy="351.914" r="4" fill="#0" id="circle162"/>
	<circle cx="797.957" cy="794.388" r="4" fill="#0" id="circle163"/>
	<circle cx="797.957" cy="812.23" r="4" fill="#0" id="circle164"/>
	<circle cx="805.094" cy="760.489" r="4" fill="#0" id="circle165"/>
	<circle cx="806.878" cy="828.288" r="4" fill="#0" id="circle166"/>
	<circle cx="810.446" cy="351.914" r="4" fill="#0" id="circle167"/>
	<circle cx="812.23" cy="780.115" r="4" fill="#0" id="circle168"/>
	<circle cx="822.935" cy="755.137" r="4" fill="#0" id="circle169"/>
	<circle cx="824.719" cy="835.424" r="4" fill="#0" id="circle170"/>
	<circle cx="826.504" cy="342.993" r="4" fill="#0" id="circle171"/>
	<circle cx="842.561" cy="330.504" r="4" fill="#0" id="circle172"/>
	<circle cx="842.561" cy="830.072" r="4" fill="#0" id="circle173"/>
	<circle cx="851.482" cy="312.662" r="4" fill="#0" id="circle174"/>
	<circle cx="856.835" cy="815.799" r="4" fill="#0" id="circle175"/>
	<circle cx="865.755" cy="298.388" r="4" fill="#0" id="circle176"/>
	<circle cx="865.755" cy="797.957" r="4" fill="#0" id="circle177"/>
	<circle cx="871.108" cy="594.561" r="4" fill="#0" id="circle178"/>
	<circle cx="871.108" cy="612.403" r="4" fill="#0" id="circle179"/>
	<circle cx="871.108" cy="764.058" r="4" fill="#0" id="circle180"/>
	<circle cx="874.676" cy="280.547" r="4" fill="#0" id="circle181"/>
	<circle cx="874.676" cy="630.245" r="4" fill="#0" id="circle182"/>
	<circle cx="880.029" cy="558.878" r="4" fill="#0" id="circle183"/>
	<circle cx="880.029" cy="576.719" r="4" fill="#0" id="circle184"/>
	<circle cx="880.029" cy="737.295" r="4" fill="#0" id="circle185"/>
	<circle cx="883.597" cy="262.705" r="4" fill="#0" id="circle186"/>
	<circle cx="887.165" cy="232.374" r="4" fill="#0" id="circle187"/>
	<circle cx="888.95" cy="523.194" r="4" fill="#0" id="circle188"/>
	<circle cx="888.95" cy="541.036" r="4" fill="#0" id="circle189"/>
	<circle cx="888.95" cy="642.734" r="4" fill="#0" id="circle190"/>
	<circle cx="888.95" cy="660.576" r="4" fill="#0" id="circle191"/>
	<circle cx="888.95" cy="678.417" r="4" fill="#0" id="circle192"/>
	<circle cx="888.95" cy="696.259" r="4" fill="#0" id="circle193"/>
	<circle cx="888.95" cy="714.101" r="4" fill="#0" id="circle194"/>
	<circle cx="896.086" cy="205.612" r="4" fill="#0" id="circle195"/>
	<circle cx="897.871" cy="380.46" r="4" fill="#0" id="circle196"/>
	<circle cx="897.871" cy="398.302" r="4" fill="#0" id="circle197"/>
	<circle cx="897.871" cy="416.144" r="4" fill="#0" id="circle198"/>
	<circle cx="897.871" cy="433.986" r="4" fill="#0" id="circle199"/>
	<circle cx="897.871" cy="451.827" r="4" fill="#0" id="circle200"/>
	<circle cx="897.871" cy="469.669" r="4" fill="#0" id="circle201"/>
	<circle cx="897.871" cy="487.511" r="4" fill="#0" id="circle202"/>
	<circle cx="897.871" cy="505.353" r="4" fill="#0" id="circle203"/>
	<circle cx="905.007" cy="161.007" r="4" fill="#0" id="circle204"/>
	<circle cx="905.007" cy="178.849" r="4" fill="#0" id="circle205"/>
	<circle cx="906.791" cy="362.619" r="4" fill="#0" id="circle206"/>
	<circle cx="913.928" cy="134.245" r="4" fill="#0" id="circle207"/>
	<circle cx="915.712" cy="335.856" r="4" fill="#0" id="circle208"/>
	<circle cx="922.849" cy="80.7194" r="4" fill="#0" id="circle209"/>
	<circle cx="922.849" cy="98.5612" r="4" fill="#0" id="circle210"/>
	<circle cx="922.849" cy="116.403" r="4" fill="#0" id="circle211"/>
	<circle cx="924.633" cy="318.014" r="4" fill="#0" id="circle212"/>
	<circle cx="931.77" cy="45.036" r="4" fill="#0" id="circle213"/>
	<circle cx="931.77" cy="62.8777" r="4" fill="#0" id="circle214"/>
	<circle cx="933.554" cy="291.252" r="4" fill="#0" id="circle215"/>
	<circle cx="940.691" cy="27.1942" r="4" fill="#0" id="circle216"/>
	<circle cx="942.475" cy="273.41" r="4" fill="#0" id="circle217"/>
	<circle cx="951.396" cy="246.647" r="4" fill="#0" id="circle218"/>
	<circle cx="958.532" cy="18.2734" r="4" fill="#0" id="circle219"/>
	<circle cx="960.317" cy="219.885" r="4" fill="#0" id="circle220"/>
	<circle cx="969.237" cy="166.36" r="4" fill="#0" id="circle221"/>
	<circle cx="969.237" cy="184.201" r="4" fill="#0" id="circle222"/>
	<circle cx="969.237" cy="202.043" r="4" fill="#0" id="circle223"/>
	<circle cx="972.806" cy="4" r="4" fill="#0" id="circle224"/>
	<circle cx="978.158" cy="121.755" r="4" fill="#0" id="circle225"/>
	<circle cx="978.158" cy="139.597" r="4" fill="#0" id="circle226"/>
	<circle cx="987.079" cy="50.3885" r="4" fill="#0" id="circle227"/>
	<circle cx="987.079" cy="68.2302" r="4" fill="#0" id="circle228"/>
	<circle cx="987.079" cy="86.0719" r="4" fill="#0" id="circle229"/>
	<circle cx="987.079" cy="103.914" r="4" fill="#0" id="circle230"/>
	<circle cx="990.647" cy="4" r="4" fill="#0" id="circle231"/>
	<circle cx="996" cy="21.8417" r="4" fill="#0" id="circle232"/>
	</g>
</svg>