<?xml version="1.0" encoding="UTF-8" standalone="no"?>
<!-- Created with CurveBenchmark -->
<svg
	xmlns:dc="http://purl.org/dc/elements/1.1/"
	xmlns:cc="http://creativecommons.org/ns#"
	xmlns:rdf="http://www.w3.org/1999/02/22-rdf-syntax-ns#"
	xmlns:svg="http://www.w3.org/2000/svg"
	xmlns="http://www.w3.org/2000/svg"
	xmlns:sodipodi="http://sodipodi.sourceforge.net/DTD/sodipodi-0.dtd"
	xmlns:inkscape="http://www.inkscape.org/namespaces/inkscape"
	width="1000"
	height="1000"
	id="svg2"
	version="1.1"
	sodipodi:docname="manifold/gathan1-bed115.png.txt">
<defs
	id="defs4" />
<metadata
	id="metadata7">
	<rdf:RDF>
		<cc:Work
			rdf:about="">
			<dc:format>image/svg+xml</dc:format>
			<dc:type
				rdf:resource="http://purl.org/dc/dcmitype/StillImage" />
			<dc:title></dc:title>
		</cc:Work>
	</rdf:RDF>
</metadata>
<g
	inkscape:label="Layer 1"
	inkscape:groupmode="layer"
	id="layer1">
	<path style="fill:none;stroke:red;stroke-width:1px;stroke-linecap:butt;stroke-linejoin:miter;stroke-opacity:1" d="M 90.6958,67.3546 100.699,54.0168 z" id="boundary" inkscape:connector-curvature="0" />
	<path style="fill:none;stroke:red;stroke-width:1px;stroke-linecap:butt;stroke-linejoin:miter;stroke-opacity:1" d="M 90.6958,67.3546 74.0235,74.0235 z" id="boundary" inkscape:connector-curvature="0" />
	<path style="fill:none;stroke:red;stroke-width:1px;stroke-linecap:butt;stroke-linejoin:miter;stroke-opacity:1" d="M 42.3462,89.0286 57.3513,80.6924 z" id="boundary" inkscape:connector-curvature="0" />
	<path style="fill:none;stroke:red;stroke-width:1px;stroke-linecap:butt;stroke-linejoin:miter;stroke-opacity:1" d="M 74.0235,74.0235 57.3513,80.6924 z" id="boundary" inkscape:connector-curvature="0" />
	<path style="fill:none;stroke:red;stroke-width:1px;stroke-linecap:butt;stroke-linejoin:miter;stroke-opacity:1" d="M 130.709,10.6689 147.382,4 z" id="boundary" inkscape:connector-curvature="0" />
	<path style="fill:none;stroke:red;stroke-width:1px;stroke-linecap:butt;stroke-linejoin:miter;stroke-opacity:1" d="M 147.382,4 159.052,17.3378 z" id="boundary" inkscape:connector-curvature="0" />
	<path style="fill:none;stroke:red;stroke-width:1px;stroke-linecap:butt;stroke-linejoin:miter;stroke-opacity:1" d="M 124.04,27.3412 130.709,10.6689 z" id="boundary" inkscape:connector-curvature="0" />
	<path style="fill:none;stroke:red;stroke-width:1px;stroke-linecap:butt;stroke-linejoin:miter;stroke-opacity:1" d="M 114.037,40.679 124.04,27.3412 z" id="boundary" inkscape:connector-curvature="0" />
	<path style="fill:none;stroke:red;stroke-width:1px;stroke-linecap:butt;stroke-linejoin:miter;stroke-opacity:1" d="M 159.052,17.3378 167.388,32.3429 z" id="boundary" inkscape:connector-curvature="0" />
	<path style="fill:none;stroke:red;stroke-width:1px;stroke-linecap:butt;stroke-linejoin:miter;stroke-opacity:1" d="M 100.699,54.0168 114.037,40.679 z" id="boundary" inkscape:connector-curvature="0" />
	<path style="fill:none;stroke:red;stroke-width:1px;stroke-linecap:butt;stroke-linejoin:miter;stroke-opacity:1" d="M 180.726,42.3462 167.388,32.3429 z" id="boundary" inkscape:connector-curvature="0" />
	<path style="fill:none;stroke:red;stroke-width:1px;stroke-linecap:butt;stroke-linejoin:miter;stroke-opacity:1" d="M 42.3462,89.0286 29.0084,99.0319 z" id="boundary" inkscape:connector-curvature="0" />
	<path style="fill:none;stroke:red;stroke-width:1px;stroke-linecap:butt;stroke-linejoin:miter;stroke-opacity:1" d="M 7.33445,127.375 7.33445,144.047 z" id="boundary" inkscape:connector-curvature="0" />
	<path style="fill:none;stroke:red;stroke-width:1px;stroke-linecap:butt;stroke-linejoin:miter;stroke-opacity:1" d="M 10.6689,160.719 7.33445,144.047 z" id="boundary" inkscape:connector-curvature="0" />
	<path style="fill:none;stroke:red;stroke-width:1px;stroke-linecap:butt;stroke-linejoin:miter;stroke-opacity:1" d="M 10.6689,160.719 10.6689,177.392 z" id="boundary" inkscape:connector-curvature="0" />
	<path style="fill:none;stroke:red;stroke-width:1px;stroke-linecap:butt;stroke-linejoin:miter;stroke-opacity:1" d="M 10.6689,194.064 10.6689,177.392 z" id="boundary" inkscape:connector-curvature="0" />
	<path style="fill:none;stroke:red;stroke-width:1px;stroke-linecap:butt;stroke-linejoin:miter;stroke-opacity:1" d="M 14.0034,210.736 10.6689,194.064 z" id="boundary" inkscape:connector-curvature="0" />
	<path style="fill:none;stroke:red;stroke-width:1px;stroke-linecap:butt;stroke-linejoin:miter;stroke-opacity:1" d="M 7.33445,127.375 15.6706,112.37 z" id="boundary" inkscape:connector-curvature="0" />
	<path style="fill:none;stroke:red;stroke-width:1px;stroke-linecap:butt;stroke-linejoin:miter;stroke-opacity:1" d="M 14.0034,210.736 14.0034,227.408 z" id="boundary" inkscape:connector-curvature="0" />
	<path style="fill:none;stroke:red;stroke-width:1px;stroke-linecap:butt;stroke-linejoin:miter;stroke-opacity:1" d="M 14.0034,227.408 14.0034,244.081 z" id="boundary" inkscape:connector-curvature="0" />
	<path style="fill:none;stroke:red;stroke-width:1px;stroke-linecap:butt;stroke-linejoin:miter;stroke-opacity:1" d="M 14.0034,244.081 10.6689,260.753 z" id="boundary" inkscape:connector-curvature="0" />
	<path style="fill:none;stroke:red;stroke-width:1px;stroke-linecap:butt;stroke-linejoin:miter;stroke-opacity:1" d="M 10.6689,277.425 10.6689,260.753 z" id="boundary" inkscape:connector-curvature="0" />
	<path style="fill:none;stroke:red;stroke-width:1px;stroke-linecap:butt;stroke-linejoin:miter;stroke-opacity:1" d="M 15.6706,112.37 29.0084,99.0319 z" id="boundary" inkscape:connector-curvature="0" />
	<path style="fill:none;stroke:red;stroke-width:1px;stroke-linecap:butt;stroke-linejoin:miter;stroke-opacity:1" d="M 189.062,57.3513 199.066,70.6891 z" id="boundary" inkscape:connector-curvature="0" />
	<path style="fill:none;stroke:red;stroke-width:1px;stroke-linecap:butt;stroke-linejoin:miter;stroke-opacity:1" d="M 189.062,57.3513 180.726,42.3462 z" id="boundary" inkscape:connector-curvature="0" />
	<path style="fill:none;stroke:red;stroke-width:1px;stroke-linecap:butt;stroke-linejoin:miter;stroke-opacity:1" d="M 199.066,70.6891 215.738,77.358 z" id="boundary" inkscape:connector-curvature="0" />
	<path style="fill:none;stroke:red;stroke-width:1px;stroke-linecap:butt;stroke-linejoin:miter;stroke-opacity:1" d="M 230.743,85.6941 215.738,77.358 z" id="boundary" inkscape:connector-curvature="0" />
	<path style="fill:none;stroke:red;stroke-width:1px;stroke-linecap:butt;stroke-linejoin:miter;stroke-opacity:1" d="M 245.748,94.0303 230.743,85.6941 z" id="boundary" inkscape:connector-curvature="0" />
	<path style="fill:none;stroke:red;stroke-width:1px;stroke-linecap:butt;stroke-linejoin:miter;stroke-opacity:1" d="M 267.422,120.706 257.418,107.368 z" id="boundary" inkscape:connector-curvature="0" />
	<path style="fill:none;stroke:red;stroke-width:1px;stroke-linecap:butt;stroke-linejoin:miter;stroke-opacity:1" d="M 259.086,177.392 262.42,160.719 z" id="boundary" inkscape:connector-curvature="0" />
	<path style="fill:none;stroke:red;stroke-width:1px;stroke-linecap:butt;stroke-linejoin:miter;stroke-opacity:1" d="M 272.424,137.378 262.42,160.719 z" id="boundary" inkscape:connector-curvature="0" />
	<path style="fill:none;stroke:red;stroke-width:1px;stroke-linecap:butt;stroke-linejoin:miter;stroke-opacity:1" d="M 267.422,120.706 272.424,137.378 z" id="boundary" inkscape:connector-curvature="0" />
	<path style="fill:none;stroke:red;stroke-width:1px;stroke-linecap:butt;stroke-linejoin:miter;stroke-opacity:1" d="M 245.748,94.0303 257.418,107.368 z" id="boundary" inkscape:connector-curvature="0" />
	<path style="fill:none;stroke:red;stroke-width:1px;stroke-linecap:butt;stroke-linejoin:miter;stroke-opacity:1" d="M 259.086,177.392 260.753,194.064 z" id="boundary" inkscape:connector-curvature="0" />
	<path style="fill:none;stroke:red;stroke-width:1px;stroke-linecap:butt;stroke-linejoin:miter;stroke-opacity:1" d="M 260.753,194.064 277.425,199.066 z" id="boundary" inkscape:connector-curvature="0" />
	<path style="fill:none;stroke:red;stroke-width:1px;stroke-linecap:butt;stroke-linejoin:miter;stroke-opacity:1" d="M 294.097,205.734 277.425,199.066 z" id="boundary" inkscape:connector-curvature="0" />
	<path style="fill:none;stroke:red;stroke-width:1px;stroke-linecap:butt;stroke-linejoin:miter;stroke-opacity:1" d="M 310.77,207.402 327.442,207.402 z" id="boundary" inkscape:connector-curvature="0" />
	<path style="fill:none;stroke:red;stroke-width:1px;stroke-linecap:butt;stroke-linejoin:miter;stroke-opacity:1" d="M 310.77,207.402 294.097,205.734 z" id="boundary" inkscape:connector-curvature="0" />
	<path style="fill:none;stroke:red;stroke-width:1px;stroke-linecap:butt;stroke-linejoin:miter;stroke-opacity:1" d="M 327.442,207.402 344.114,207.402 z" id="boundary" inkscape:connector-curvature="0" />
	<path style="fill:none;stroke:red;stroke-width:1px;stroke-linecap:butt;stroke-linejoin:miter;stroke-opacity:1" d="M 344.114,207.402 360.787,210.736 z" id="boundary" inkscape:connector-curvature="0" />
	<path style="fill:none;stroke:red;stroke-width:1px;stroke-linecap:butt;stroke-linejoin:miter;stroke-opacity:1" d="M 377.459,217.405 392.464,225.741 z" id="boundary" inkscape:connector-curvature="0" />
	<path style="fill:none;stroke:red;stroke-width:1px;stroke-linecap:butt;stroke-linejoin:miter;stroke-opacity:1" d="M 377.459,217.405 360.787,210.736 z" id="boundary" inkscape:connector-curvature="0" />
	<path style="fill:none;stroke:red;stroke-width:1px;stroke-linecap:butt;stroke-linejoin:miter;stroke-opacity:1" d="M 420.807,245.748 432.477,259.086 z" id="boundary" inkscape:connector-curvature="0" />
	<path style="fill:none;stroke:red;stroke-width:1px;stroke-linecap:butt;stroke-linejoin:miter;stroke-opacity:1" d="M 420.807,245.748 407.469,234.077 z" id="boundary" inkscape:connector-curvature="0" />
	<path style="fill:none;stroke:red;stroke-width:1px;stroke-linecap:butt;stroke-linejoin:miter;stroke-opacity:1" d="M 445.815,269.089 432.477,259.086 z" id="boundary" inkscape:connector-curvature="0" />
	<path style="fill:none;stroke:red;stroke-width:1px;stroke-linecap:butt;stroke-linejoin:miter;stroke-opacity:1" d="M 392.464,225.741 407.469,234.077 z" id="boundary" inkscape:connector-curvature="0" />
	<path style="fill:none;stroke:red;stroke-width:1px;stroke-linecap:butt;stroke-linejoin:miter;stroke-opacity:1" d="M 60.6857,449.15 44.0134,449.15 z" id="boundary" inkscape:connector-curvature="0" />
	<path style="fill:none;stroke:red;stroke-width:1px;stroke-linecap:butt;stroke-linejoin:miter;stroke-opacity:1" d="M 5.66723,430.81 4,414.138 z" id="boundary" inkscape:connector-curvature="0" />
	<path style="fill:none;stroke:red;stroke-width:1px;stroke-linecap:butt;stroke-linejoin:miter;stroke-opacity:1" d="M 4,414.138 4,397.466 z" id="boundary" inkscape:connector-curvature="0" />
	<path style="fill:none;stroke:red;stroke-width:1px;stroke-linecap:butt;stroke-linejoin:miter;stroke-opacity:1" d="M 4,397.466 4,380.793 z" id="boundary" inkscape:connector-curvature="0" />
	<path style="fill:none;stroke:red;stroke-width:1px;stroke-linecap:butt;stroke-linejoin:miter;stroke-opacity:1" d="M 144.047,449.15 127.375,449.15 z" id="boundary" inkscape:connector-curvature="0" />
	<path style="fill:none;stroke:red;stroke-width:1px;stroke-linecap:butt;stroke-linejoin:miter;stroke-opacity:1" d="M 10.6689,277.425 7.33445,307.435 z" id="boundary" inkscape:connector-curvature="0" />
	<path style="fill:none;stroke:red;stroke-width:1px;stroke-linecap:butt;stroke-linejoin:miter;stroke-opacity:1" d="M 7.33445,340.78 7.33445,324.108 z" id="boundary" inkscape:connector-curvature="0" />
	<path style="fill:none;stroke:red;stroke-width:1px;stroke-linecap:butt;stroke-linejoin:miter;stroke-opacity:1" d="M 7.33445,307.435 7.33445,324.108 z" id="boundary" inkscape:connector-curvature="0" />
	<path style="fill:none;stroke:red;stroke-width:1px;stroke-linecap:butt;stroke-linejoin:miter;stroke-opacity:1" d="M 7.33445,447.482 5.66723,430.81 z" id="boundary" inkscape:connector-curvature="0" />
	<path style="fill:none;stroke:red;stroke-width:1px;stroke-linecap:butt;stroke-linejoin:miter;stroke-opacity:1" d="M 4,364.121 7.33445,340.78 z" id="boundary" inkscape:connector-curvature="0" />
	<path style="fill:none;stroke:red;stroke-width:1px;stroke-linecap:butt;stroke-linejoin:miter;stroke-opacity:1" d="M 44.0134,449.15 35.6773,464.155 z" id="boundary" inkscape:connector-curvature="0" />
	<path style="fill:none;stroke:red;stroke-width:1px;stroke-linecap:butt;stroke-linejoin:miter;stroke-opacity:1" d="M 4,380.793 4,364.121 z" id="boundary" inkscape:connector-curvature="0" />
	<path style="fill:none;stroke:red;stroke-width:1px;stroke-linecap:butt;stroke-linejoin:miter;stroke-opacity:1" d="M 14.0034,480.827 10.6689,464.155 z" id="boundary" inkscape:connector-curvature="0" />
	<path style="fill:none;stroke:red;stroke-width:1px;stroke-linecap:butt;stroke-linejoin:miter;stroke-opacity:1" d="M 10.6689,464.155 7.33445,447.482 z" id="boundary" inkscape:connector-curvature="0" />
	<path style="fill:none;stroke:red;stroke-width:1px;stroke-linecap:butt;stroke-linejoin:miter;stroke-opacity:1" d="M 14.0034,480.827 14.0034,497.499 z" id="boundary" inkscape:connector-curvature="0" />
	<path style="fill:none;stroke:red;stroke-width:1px;stroke-linecap:butt;stroke-linejoin:miter;stroke-opacity:1" d="M 19.005,514.171 14.0034,497.499 z" id="boundary" inkscape:connector-curvature="0" />
	<path style="fill:none;stroke:red;stroke-width:1px;stroke-linecap:butt;stroke-linejoin:miter;stroke-opacity:1" d="M 32.3429,494.165 35.6773,514.171 z" id="boundary" inkscape:connector-curvature="0" />
	<path style="fill:none;stroke:red;stroke-width:1px;stroke-linecap:butt;stroke-linejoin:miter;stroke-opacity:1" d="M 35.6773,514.171 19.005,514.171 z" id="boundary" inkscape:connector-curvature="0" />
	<path style="fill:none;stroke:red;stroke-width:1px;stroke-linecap:butt;stroke-linejoin:miter;stroke-opacity:1" d="M 77.358,449.15 60.6857,449.15 z" id="boundary" inkscape:connector-curvature="0" />
	<path style="fill:none;stroke:red;stroke-width:1px;stroke-linecap:butt;stroke-linejoin:miter;stroke-opacity:1" d="M 94.0303,449.15 77.358,449.15 z" id="boundary" inkscape:connector-curvature="0" />
	<path style="fill:none;stroke:red;stroke-width:1px;stroke-linecap:butt;stroke-linejoin:miter;stroke-opacity:1" d="M 110.703,449.15 127.375,449.15 z" id="boundary" inkscape:connector-curvature="0" />
	<path style="fill:none;stroke:red;stroke-width:1px;stroke-linecap:butt;stroke-linejoin:miter;stroke-opacity:1" d="M 94.0303,449.15 110.703,449.15 z" id="boundary" inkscape:connector-curvature="0" />
	<path style="fill:none;stroke:red;stroke-width:1px;stroke-linecap:butt;stroke-linejoin:miter;stroke-opacity:1" d="M 144.047,449.15 160.719,449.15 z" id="boundary" inkscape:connector-curvature="0" />
	<path style="fill:none;stroke:red;stroke-width:1px;stroke-linecap:butt;stroke-linejoin:miter;stroke-opacity:1" d="M 177.392,449.15 194.064,449.15 z" id="boundary" inkscape:connector-curvature="0" />
	<path style="fill:none;stroke:red;stroke-width:1px;stroke-linecap:butt;stroke-linejoin:miter;stroke-opacity:1" d="M 177.392,449.15 160.719,449.15 z" id="boundary" inkscape:connector-curvature="0" />
	<path style="fill:none;stroke:red;stroke-width:1px;stroke-linecap:butt;stroke-linejoin:miter;stroke-opacity:1" d="M 194.064,449.15 210.736,449.15 z" id="boundary" inkscape:connector-curvature="0" />
	<path style="fill:none;stroke:red;stroke-width:1px;stroke-linecap:butt;stroke-linejoin:miter;stroke-opacity:1" d="M 227.408,449.15 210.736,449.15 z" id="boundary" inkscape:connector-curvature="0" />
	<path style="fill:none;stroke:red;stroke-width:1px;stroke-linecap:butt;stroke-linejoin:miter;stroke-opacity:1" d="M 282.427,449.15 265.755,450.817 z" id="boundary" inkscape:connector-curvature="0" />
	<path style="fill:none;stroke:red;stroke-width:1px;stroke-linecap:butt;stroke-linejoin:miter;stroke-opacity:1" d="M 282.427,449.15 299.099,449.15 z" id="boundary" inkscape:connector-curvature="0" />
	<path style="fill:none;stroke:red;stroke-width:1px;stroke-linecap:butt;stroke-linejoin:miter;stroke-opacity:1" d="M 315.771,449.15 332.444,449.15 z" id="boundary" inkscape:connector-curvature="0" />
	<path style="fill:none;stroke:red;stroke-width:1px;stroke-linecap:butt;stroke-linejoin:miter;stroke-opacity:1" d="M 315.771,449.15 299.099,449.15 z" id="boundary" inkscape:connector-curvature="0" />
	<path style="fill:none;stroke:red;stroke-width:1px;stroke-linecap:butt;stroke-linejoin:miter;stroke-opacity:1" d="M 332.444,449.15 349.116,449.15 z" id="boundary" inkscape:connector-curvature="0" />
	<path style="fill:none;stroke:red;stroke-width:1px;stroke-linecap:butt;stroke-linejoin:miter;stroke-opacity:1" d="M 227.408,449.15 240.746,459.153 z" id="boundary" inkscape:connector-curvature="0" />
	<path style="fill:none;stroke:red;stroke-width:1px;stroke-linecap:butt;stroke-linejoin:miter;stroke-opacity:1" d="M 247.415,475.825 244.081,494.165 z" id="boundary" inkscape:connector-curvature="0" />
	<path style="fill:none;stroke:red;stroke-width:1px;stroke-linecap:butt;stroke-linejoin:miter;stroke-opacity:1" d="M 269.089,467.489 262.42,494.165 z" id="boundary" inkscape:connector-curvature="0" />
	<path style="fill:none;stroke:red;stroke-width:1px;stroke-linecap:butt;stroke-linejoin:miter;stroke-opacity:1" d="M 240.746,459.153 247.415,475.825 z" id="boundary" inkscape:connector-curvature="0" />
	<path style="fill:none;stroke:red;stroke-width:1px;stroke-linecap:butt;stroke-linejoin:miter;stroke-opacity:1" d="M 262.42,494.165 262.42,515.839 z" id="boundary" inkscape:connector-curvature="0" />
	<path style="fill:none;stroke:red;stroke-width:1px;stroke-linecap:butt;stroke-linejoin:miter;stroke-opacity:1" d="M 262.42,515.839 245.748,510.837 z" id="boundary" inkscape:connector-curvature="0" />
	<path style="fill:none;stroke:red;stroke-width:1px;stroke-linecap:butt;stroke-linejoin:miter;stroke-opacity:1" d="M 245.748,510.837 244.081,494.165 z" id="boundary" inkscape:connector-curvature="0" />
	<path style="fill:none;stroke:red;stroke-width:1px;stroke-linecap:butt;stroke-linejoin:miter;stroke-opacity:1" d="M 365.788,449.15 382.461,449.15 z" id="boundary" inkscape:connector-curvature="0" />
	<path style="fill:none;stroke:red;stroke-width:1px;stroke-linecap:butt;stroke-linejoin:miter;stroke-opacity:1" d="M 365.788,449.15 349.116,449.15 z" id="boundary" inkscape:connector-curvature="0" />
	<path style="fill:none;stroke:red;stroke-width:1px;stroke-linecap:butt;stroke-linejoin:miter;stroke-opacity:1" d="M 382.461,449.15 399.133,449.15 z" id="boundary" inkscape:connector-curvature="0" />
	<path style="fill:none;stroke:red;stroke-width:1px;stroke-linecap:butt;stroke-linejoin:miter;stroke-opacity:1" d="M 399.133,449.15 415.805,449.15 z" id="boundary" inkscape:connector-curvature="0" />
	<path style="fill:none;stroke:red;stroke-width:1px;stroke-linecap:butt;stroke-linejoin:miter;stroke-opacity:1" d="M 415.805,449.15 432.477,449.15 z" id="boundary" inkscape:connector-curvature="0" />
	<path style="fill:none;stroke:red;stroke-width:1px;stroke-linecap:butt;stroke-linejoin:miter;stroke-opacity:1" d="M 445.815,269.089 459.153,279.092 z" id="boundary" inkscape:connector-curvature="0" />
	<path style="fill:none;stroke:red;stroke-width:1px;stroke-linecap:butt;stroke-linejoin:miter;stroke-opacity:1" d="M 459.153,279.092 467.489,294.097 z" id="boundary" inkscape:connector-curvature="0" />
	<path style="fill:none;stroke:red;stroke-width:1px;stroke-linecap:butt;stroke-linejoin:miter;stroke-opacity:1" d="M 517.506,297.432 500.834,297.432 z" id="boundary" inkscape:connector-curvature="0" />
	<path style="fill:none;stroke:red;stroke-width:1px;stroke-linecap:butt;stroke-linejoin:miter;stroke-opacity:1" d="M 484.161,297.432 467.489,294.097 z" id="boundary" inkscape:connector-curvature="0" />
	<path style="fill:none;stroke:red;stroke-width:1px;stroke-linecap:butt;stroke-linejoin:miter;stroke-opacity:1" d="M 500.834,297.432 484.161,297.432 z" id="boundary" inkscape:connector-curvature="0" />
	<path style="fill:none;stroke:red;stroke-width:1px;stroke-linecap:butt;stroke-linejoin:miter;stroke-opacity:1" d="M 449.15,449.15 432.477,449.15 z" id="boundary" inkscape:connector-curvature="0" />
	<path style="fill:none;stroke:red;stroke-width:1px;stroke-linecap:butt;stroke-linejoin:miter;stroke-opacity:1" d="M 730.911,287.429 745.916,279.092 z" id="boundary" inkscape:connector-curvature="0" />
	<path style="fill:none;stroke:red;stroke-width:1px;stroke-linecap:butt;stroke-linejoin:miter;stroke-opacity:1" d="M 745.916,279.092 762.588,274.091 z" id="boundary" inkscape:connector-curvature="0" />
	<path style="fill:none;stroke:red;stroke-width:1px;stroke-linecap:butt;stroke-linejoin:miter;stroke-opacity:1" d="M 550.85,297.432 534.178,297.432 z" id="boundary" inkscape:connector-curvature="0" />
	<path style="fill:none;stroke:red;stroke-width:1px;stroke-linecap:butt;stroke-linejoin:miter;stroke-opacity:1" d="M 717.573,297.432 730.911,287.429 z" id="boundary" inkscape:connector-curvature="0" />
	<path style="fill:none;stroke:red;stroke-width:1px;stroke-linecap:butt;stroke-linejoin:miter;stroke-opacity:1" d="M 534.178,297.432 517.506,297.432 z" id="boundary" inkscape:connector-curvature="0" />
	<path style="fill:none;stroke:red;stroke-width:1px;stroke-linecap:butt;stroke-linejoin:miter;stroke-opacity:1" d="M 600.867,297.432 584.195,297.432 z" id="boundary" inkscape:connector-curvature="0" />
	<path style="fill:none;stroke:red;stroke-width:1px;stroke-linecap:butt;stroke-linejoin:miter;stroke-opacity:1" d="M 550.85,297.432 567.523,297.432 z" id="boundary" inkscape:connector-curvature="0" />
	<path style="fill:none;stroke:red;stroke-width:1px;stroke-linecap:butt;stroke-linejoin:miter;stroke-opacity:1" d="M 567.523,297.432 584.195,297.432 z" id="boundary" inkscape:connector-curvature="0" />
	<path style="fill:none;stroke:red;stroke-width:1px;stroke-linecap:butt;stroke-linejoin:miter;stroke-opacity:1" d="M 617.539,297.432 600.867,297.432 z" id="boundary" inkscape:connector-curvature="0" />
	<path style="fill:none;stroke:red;stroke-width:1px;stroke-linecap:butt;stroke-linejoin:miter;stroke-opacity:1" d="M 650.884,300.766 634.212,300.766 z" id="boundary" inkscape:connector-curvature="0" />
	<path style="fill:none;stroke:red;stroke-width:1px;stroke-linecap:butt;stroke-linejoin:miter;stroke-opacity:1" d="M 634.212,300.766 617.539,297.432 z" id="boundary" inkscape:connector-curvature="0" />
	<path style="fill:none;stroke:red;stroke-width:1px;stroke-linecap:butt;stroke-linejoin:miter;stroke-opacity:1" d="M 667.556,300.766 650.884,300.766 z" id="boundary" inkscape:connector-curvature="0" />
	<path style="fill:none;stroke:red;stroke-width:1px;stroke-linecap:butt;stroke-linejoin:miter;stroke-opacity:1" d="M 684.229,300.766 667.556,300.766 z" id="boundary" inkscape:connector-curvature="0" />
	<path style="fill:none;stroke:red;stroke-width:1px;stroke-linecap:butt;stroke-linejoin:miter;stroke-opacity:1" d="M 700.901,300.766 684.229,300.766 z" id="boundary" inkscape:connector-curvature="0" />
	<path style="fill:none;stroke:red;stroke-width:1px;stroke-linecap:butt;stroke-linejoin:miter;stroke-opacity:1" d="M 717.573,297.432 700.901,300.766 z" id="boundary" inkscape:connector-curvature="0" />
	<path style="fill:none;stroke:red;stroke-width:1px;stroke-linecap:butt;stroke-linejoin:miter;stroke-opacity:1" d="M 807.603,254.084 820.941,244.081 z" id="boundary" inkscape:connector-curvature="0" />
	<path style="fill:none;stroke:red;stroke-width:1px;stroke-linecap:butt;stroke-linejoin:miter;stroke-opacity:1" d="M 807.603,254.084 795.933,267.422 z" id="boundary" inkscape:connector-curvature="0" />
	<path style="fill:none;stroke:red;stroke-width:1px;stroke-linecap:butt;stroke-linejoin:miter;stroke-opacity:1" d="M 795.933,267.422 779.261,269.089 z" id="boundary" inkscape:connector-curvature="0" />
	<path style="fill:none;stroke:red;stroke-width:1px;stroke-linecap:butt;stroke-linejoin:miter;stroke-opacity:1" d="M 779.261,269.089 762.588,274.091 z" id="boundary" inkscape:connector-curvature="0" />
	<path style="fill:none;stroke:red;stroke-width:1px;stroke-linecap:butt;stroke-linejoin:miter;stroke-opacity:1" d="M 820.941,244.081 834.279,234.077 z" id="boundary" inkscape:connector-curvature="0" />
	<path style="fill:none;stroke:red;stroke-width:1px;stroke-linecap:butt;stroke-linejoin:miter;stroke-opacity:1" d="M 864.289,230.743 874.292,244.081 z" id="boundary" inkscape:connector-curvature="0" />
	<path style="fill:none;stroke:red;stroke-width:1px;stroke-linecap:butt;stroke-linejoin:miter;stroke-opacity:1" d="M 887.63,254.084 874.292,244.081 z" id="boundary" inkscape:connector-curvature="0" />
	<path style="fill:none;stroke:red;stroke-width:1px;stroke-linecap:butt;stroke-linejoin:miter;stroke-opacity:1" d="M 914.306,267.422 897.634,267.422 z" id="boundary" inkscape:connector-curvature="0" />
	<path style="fill:none;stroke:red;stroke-width:1px;stroke-linecap:butt;stroke-linejoin:miter;stroke-opacity:1" d="M 897.634,267.422 887.63,254.084 z" id="boundary" inkscape:connector-curvature="0" />
	<path style="fill:none;stroke:red;stroke-width:1px;stroke-linecap:butt;stroke-linejoin:miter;stroke-opacity:1" d="M 930.978,272.424 914.306,267.422 z" id="boundary" inkscape:connector-curvature="0" />
	<path style="fill:none;stroke:red;stroke-width:1px;stroke-linecap:butt;stroke-linejoin:miter;stroke-opacity:1" d="M 834.279,234.077 847.617,224.074 z" id="boundary" inkscape:connector-curvature="0" />
	<path style="fill:none;stroke:red;stroke-width:1px;stroke-linecap:butt;stroke-linejoin:miter;stroke-opacity:1" d="M 847.617,224.074 864.289,230.743 z" id="boundary" inkscape:connector-curvature="0" />
	<path style="fill:none;stroke:red;stroke-width:1px;stroke-linecap:butt;stroke-linejoin:miter;stroke-opacity:1" d="M 930.978,272.424 947.65,277.425 z" id="boundary" inkscape:connector-curvature="0" />
	<path style="fill:none;stroke:red;stroke-width:1px;stroke-linecap:butt;stroke-linejoin:miter;stroke-opacity:1" d="M 962.655,285.761 947.65,277.425 z" id="boundary" inkscape:connector-curvature="0" />
	<path style="fill:none;stroke:red;stroke-width:1px;stroke-linecap:butt;stroke-linejoin:miter;stroke-opacity:1" d="M 985.997,364.121 985.997,380.793 z" id="boundary" inkscape:connector-curvature="0" />
	<path style="fill:none;stroke:red;stroke-width:1px;stroke-linecap:butt;stroke-linejoin:miter;stroke-opacity:1" d="M 985.997,380.793 982.662,410.803 z" id="boundary" inkscape:connector-curvature="0" />
	<path style="fill:none;stroke:red;stroke-width:1px;stroke-linecap:butt;stroke-linejoin:miter;stroke-opacity:1" d="M 962.655,285.761 975.993,295.765 z" id="boundary" inkscape:connector-curvature="0" />
	<path style="fill:none;stroke:red;stroke-width:1px;stroke-linecap:butt;stroke-linejoin:miter;stroke-opacity:1" d="M 982.662,427.476 982.662,410.803 z" id="boundary" inkscape:connector-curvature="0" />
	<path style="fill:none;stroke:red;stroke-width:1px;stroke-linecap:butt;stroke-linejoin:miter;stroke-opacity:1" d="M 985.997,444.148 982.662,427.476 z" id="boundary" inkscape:connector-curvature="0" />
	<path style="fill:none;stroke:red;stroke-width:1px;stroke-linecap:butt;stroke-linejoin:miter;stroke-opacity:1" d="M 996,324.108 992.666,347.449 z" id="boundary" inkscape:connector-curvature="0" />
	<path style="fill:none;stroke:red;stroke-width:1px;stroke-linecap:butt;stroke-linejoin:miter;stroke-opacity:1" d="M 992.666,347.449 985.997,364.121 z" id="boundary" inkscape:connector-curvature="0" />
	<path style="fill:none;stroke:red;stroke-width:1px;stroke-linecap:butt;stroke-linejoin:miter;stroke-opacity:1" d="M 975.993,295.765 989.331,307.435 z" id="boundary" inkscape:connector-curvature="0" />
	<path style="fill:none;stroke:red;stroke-width:1px;stroke-linecap:butt;stroke-linejoin:miter;stroke-opacity:1" d="M 989.331,307.435 996,324.108 z" id="boundary" inkscape:connector-curvature="0" />
	<path style="fill:none;stroke:red;stroke-width:1px;stroke-linecap:butt;stroke-linejoin:miter;stroke-opacity:1" d="M 465.822,449.15 482.494,449.15 z" id="boundary" inkscape:connector-curvature="0" />
	<path style="fill:none;stroke:red;stroke-width:1px;stroke-linecap:butt;stroke-linejoin:miter;stroke-opacity:1" d="M 465.822,449.15 449.15,449.15 z" id="boundary" inkscape:connector-curvature="0" />
	<path style="fill:none;stroke:red;stroke-width:1px;stroke-linecap:butt;stroke-linejoin:miter;stroke-opacity:1" d="M 499.166,449.15 482.494,449.15 z" id="boundary" inkscape:connector-curvature="0" />
	<path style="fill:none;stroke:red;stroke-width:1px;stroke-linecap:butt;stroke-linejoin:miter;stroke-opacity:1" d="M 515.839,449.15 499.166,449.15 z" id="boundary" inkscape:connector-curvature="0" />
	<path style="fill:none;stroke:red;stroke-width:1px;stroke-linecap:butt;stroke-linejoin:miter;stroke-opacity:1" d="M 532.511,449.15 549.183,449.15 z" id="boundary" inkscape:connector-curvature="0" />
	<path style="fill:none;stroke:red;stroke-width:1px;stroke-linecap:butt;stroke-linejoin:miter;stroke-opacity:1" d="M 565.855,449.15 549.183,449.15 z" id="boundary" inkscape:connector-curvature="0" />
	<path style="fill:none;stroke:red;stroke-width:1px;stroke-linecap:butt;stroke-linejoin:miter;stroke-opacity:1" d="M 582.528,449.15 599.2,449.15 z" id="boundary" inkscape:connector-curvature="0" />
	<path style="fill:none;stroke:red;stroke-width:1px;stroke-linecap:butt;stroke-linejoin:miter;stroke-opacity:1" d="M 615.872,449.15 599.2,449.15 z" id="boundary" inkscape:connector-curvature="0" />
	<path style="fill:none;stroke:red;stroke-width:1px;stroke-linecap:butt;stroke-linejoin:miter;stroke-opacity:1" d="M 582.528,449.15 565.855,449.15 z" id="boundary" inkscape:connector-curvature="0" />
	<path style="fill:none;stroke:red;stroke-width:1px;stroke-linecap:butt;stroke-linejoin:miter;stroke-opacity:1" d="M 532.511,449.15 515.839,449.15 z" id="boundary" inkscape:connector-curvature="0" />
	<path style="fill:none;stroke:red;stroke-width:1px;stroke-linecap:butt;stroke-linejoin:miter;stroke-opacity:1" d="M 632.545,449.15 649.217,449.15 z" id="boundary" inkscape:connector-curvature="0" />
	<path style="fill:none;stroke:red;stroke-width:1px;stroke-linecap:butt;stroke-linejoin:miter;stroke-opacity:1" d="M 665.889,449.15 649.217,449.15 z" id="boundary" inkscape:connector-curvature="0" />
	<path style="fill:none;stroke:red;stroke-width:1px;stroke-linecap:butt;stroke-linejoin:miter;stroke-opacity:1" d="M 682.561,449.15 699.234,449.15 z" id="boundary" inkscape:connector-curvature="0" />
	<path style="fill:none;stroke:red;stroke-width:1px;stroke-linecap:butt;stroke-linejoin:miter;stroke-opacity:1" d="M 699.234,449.15 709.237,462.487 z" id="boundary" inkscape:connector-curvature="0" />
	<path style="fill:none;stroke:red;stroke-width:1px;stroke-linecap:butt;stroke-linejoin:miter;stroke-opacity:1" d="M 665.889,449.15 682.561,449.15 z" id="boundary" inkscape:connector-curvature="0" />
	<path style="fill:none;stroke:red;stroke-width:1px;stroke-linecap:butt;stroke-linejoin:miter;stroke-opacity:1" d="M 709.237,462.487 710.904,479.16 z" id="boundary" inkscape:connector-curvature="0" />
	<path style="fill:none;stroke:red;stroke-width:1px;stroke-linecap:butt;stroke-linejoin:miter;stroke-opacity:1" d="M 714.239,495.832 710.904,479.16 z" id="boundary" inkscape:connector-curvature="0" />
	<path style="fill:none;stroke:red;stroke-width:1px;stroke-linecap:butt;stroke-linejoin:miter;stroke-opacity:1" d="M 739.247,477.492 732.578,497.499 z" id="boundary" inkscape:connector-curvature="0" />
	<path style="fill:none;stroke:red;stroke-width:1px;stroke-linecap:butt;stroke-linejoin:miter;stroke-opacity:1" d="M 714.239,495.832 714.239,512.504 z" id="boundary" inkscape:connector-curvature="0" />
	<path style="fill:none;stroke:red;stroke-width:1px;stroke-linecap:butt;stroke-linejoin:miter;stroke-opacity:1" d="M 732.578,497.499 730.911,515.839 z" id="boundary" inkscape:connector-curvature="0" />
	<path style="fill:none;stroke:red;stroke-width:1px;stroke-linecap:butt;stroke-linejoin:miter;stroke-opacity:1" d="M 730.911,515.839 714.239,512.504 z" id="boundary" inkscape:connector-curvature="0" />
	<path style="fill:none;stroke:red;stroke-width:1px;stroke-linecap:butt;stroke-linejoin:miter;stroke-opacity:1" d="M 615.872,449.15 632.545,449.15 z" id="boundary" inkscape:connector-curvature="0" />
	<path style="fill:none;stroke:red;stroke-width:1px;stroke-linecap:butt;stroke-linejoin:miter;stroke-opacity:1" d="M 782.595,457.486 799.267,459.153 z" id="boundary" inkscape:connector-curvature="0" />
	<path style="fill:none;stroke:red;stroke-width:1px;stroke-linecap:butt;stroke-linejoin:miter;stroke-opacity:1" d="M 755.919,462.487 782.595,457.486 z" id="boundary" inkscape:connector-curvature="0" />
	<path style="fill:none;stroke:red;stroke-width:1px;stroke-linecap:butt;stroke-linejoin:miter;stroke-opacity:1" d="M 812.605,469.156 799.267,459.153 z" id="boundary" inkscape:connector-curvature="0" />
	<path style="fill:none;stroke:red;stroke-width:1px;stroke-linecap:butt;stroke-linejoin:miter;stroke-opacity:1" d="M 899.301,462.487 885.963,474.158 z" id="boundary" inkscape:connector-curvature="0" />
	<path style="fill:none;stroke:red;stroke-width:1px;stroke-linecap:butt;stroke-linejoin:miter;stroke-opacity:1" d="M 755.919,462.487 739.247,460.82 z" id="boundary" inkscape:connector-curvature="0" />
	<path style="fill:none;stroke:red;stroke-width:1px;stroke-linecap:butt;stroke-linejoin:miter;stroke-opacity:1" d="M 985.997,444.148 989.331,460.82 z" id="boundary" inkscape:connector-curvature="0" />
	<path style="fill:none;stroke:red;stroke-width:1px;stroke-linecap:butt;stroke-linejoin:miter;stroke-opacity:1" d="M 970.992,470.824 957.654,459.153 z" id="boundary" inkscape:connector-curvature="0" />
	<path style="fill:none;stroke:red;stroke-width:1px;stroke-linecap:butt;stroke-linejoin:miter;stroke-opacity:1" d="M 957.654,459.153 940.982,465.822 z" id="boundary" inkscape:connector-curvature="0" />
	<path style="fill:none;stroke:red;stroke-width:1px;stroke-linecap:butt;stroke-linejoin:miter;stroke-opacity:1" d="M 924.309,467.489 940.982,465.822 z" id="boundary" inkscape:connector-curvature="0" />
	<path style="fill:none;stroke:red;stroke-width:1px;stroke-linecap:butt;stroke-linejoin:miter;stroke-opacity:1" d="M 989.331,460.82 996,477.492 z" id="boundary" inkscape:connector-curvature="0" />
	<path style="fill:none;stroke:red;stroke-width:1px;stroke-linecap:butt;stroke-linejoin:miter;stroke-opacity:1" d="M 899.301,462.487 914.306,454.151 z" id="boundary" inkscape:connector-curvature="0" />
	<path style="fill:none;stroke:red;stroke-width:1px;stroke-linecap:butt;stroke-linejoin:miter;stroke-opacity:1" d="M 970.992,470.824 970.992,487.496 z" id="boundary" inkscape:connector-curvature="0" />
	<path style="fill:none;stroke:red;stroke-width:1px;stroke-linecap:butt;stroke-linejoin:miter;stroke-opacity:1" d="M 885.963,474.158 872.625,484.161 z" id="boundary" inkscape:connector-curvature="0" />
	<path style="fill:none;stroke:red;stroke-width:1px;stroke-linecap:butt;stroke-linejoin:miter;stroke-opacity:1" d="M 825.943,479.16 839.281,489.163 z" id="boundary" inkscape:connector-curvature="0" />
	<path style="fill:none;stroke:red;stroke-width:1px;stroke-linecap:butt;stroke-linejoin:miter;stroke-opacity:1" d="M 855.953,489.163 839.281,489.163 z" id="boundary" inkscape:connector-curvature="0" />
	<path style="fill:none;stroke:red;stroke-width:1px;stroke-linecap:butt;stroke-linejoin:miter;stroke-opacity:1" d="M 872.625,484.161 855.953,489.163 z" id="boundary" inkscape:connector-curvature="0" />
	<path style="fill:none;stroke:red;stroke-width:1px;stroke-linecap:butt;stroke-linejoin:miter;stroke-opacity:1" d="M 812.605,469.156 825.943,479.16 z" id="boundary" inkscape:connector-curvature="0" />
	<path style="fill:none;stroke:red;stroke-width:1px;stroke-linecap:butt;stroke-linejoin:miter;stroke-opacity:1" d="M 970.992,487.496 970.992,504.168 z" id="boundary" inkscape:connector-curvature="0" />
	<path style="fill:none;stroke:red;stroke-width:1px;stroke-linecap:butt;stroke-linejoin:miter;stroke-opacity:1" d="M 996,477.492 987.664,495.832 z" id="boundary" inkscape:connector-curvature="0" />
	<path style="fill:none;stroke:red;stroke-width:1px;stroke-linecap:butt;stroke-linejoin:miter;stroke-opacity:1" d="M 987.664,495.832 980.995,517.506 z" id="boundary" inkscape:connector-curvature="0" />
	<path style="fill:none;stroke:red;stroke-width:1px;stroke-linecap:butt;stroke-linejoin:miter;stroke-opacity:1" d="M 980.995,517.506 970.992,504.168 z" id="boundary" inkscape:connector-curvature="0" />
	<circle cx="4" cy="364.121" r="4" fill="#0" id="circle0"/>
	<circle cx="4" cy="380.793" r="4" fill="#0" id="circle1"/>
	<circle cx="4" cy="397.466" r="4" fill="#0" id="circle2"/>
	<circle cx="4" cy="414.138" r="4" fill="#0" id="circle3"/>
	<circle cx="5.66723" cy="430.81" r="4" fill="#0" id="circle4"/>
	<circle cx="7.33445" cy="127.375" r="4" fill="#0" id="circle5"/>
	<circle cx="7.33445" cy="144.047" r="4" fill="#0" id="circle6"/>
	<circle cx="7.33445" cy="307.435" r="4" fill="#0" id="circle7"/>
	<circle cx="7.33445" cy="324.108" r="4" fill="#0" id="circle8"/>
	<circle cx="7.33445" cy="340.78" r="4" fill="#0" id="circle9"/>
	<circle cx="7.33445" cy="447.482" r="4" fill="#0" id="circle10"/>
	<circle cx="10.6689" cy="160.719" r="4" fill="#0" id="circle11"/>
	<circle cx="10.6689" cy="177.392" r="4" fill="#0" id="circle12"/>
	<circle cx="10.6689" cy="194.064" r="4" fill="#0" id="circle13"/>
	<circle cx="10.6689" cy="260.753" r="4" fill="#0" id="circle14"/>
	<circle cx="10.6689" cy="277.425" r="4" fill="#0" id="circle15"/>
	<circle cx="10.6689" cy="464.155" r="4" fill="#0" id="circle16"/>
	<circle cx="14.0034" cy="210.736" r="4" fill="#0" id="circle17"/>
	<circle cx="14.0034" cy="227.408" r="4" fill="#0" id="circle18"/>
	<circle cx="14.0034" cy="244.081" r="4" fill="#0" id="circle19"/>
	<circle cx="14.0034" cy="480.827" r="4" fill="#0" id="circle20"/>
	<circle cx="14.0034" cy="497.499" r="4" fill="#0" id="circle21"/>
	<circle cx="15.6706" cy="112.37" r="4" fill="#0" id="circle22"/>
	<circle cx="19.005" cy="514.171" r="4" fill="#0" id="circle23"/>
	<circle cx="29.0084" cy="99.0319" r="4" fill="#0" id="circle24"/>
	<circle cx="32.3429" cy="494.165" r="4" fill="#0" id="circle25"/>
	<circle cx="35.6773" cy="464.155" r="4" fill="#0" id="circle26"/>
	<circle cx="35.6773" cy="514.171" r="4" fill="#0" id="circle27"/>
	<circle cx="42.3462" cy="89.0286" r="4" fill="#0" id="circle28"/>
	<circle cx="44.0134" cy="449.15" r="4" fill="#0" id="circle29"/>
	<circle cx="57.3513" cy="80.6924" r="4" fill="#0" id="circle30"/>
	<circle cx="60.6857" cy="449.15" r="4" fill="#0" id="circle31"/>
	<circle cx="74.0235" cy="74.0235" r="4" fill="#0" id="circle32"/>
	<circle cx="77.358" cy="449.15" r="4" fill="#0" id="circle33"/>
	<circle cx="90.6958" cy="67.3546" r="4" fill="#0" id="circle34"/>
	<circle cx="94.0303" cy="449.15" r="4" fill="#0" id="circle35"/>
	<circle cx="100.699" cy="54.0168" r="4" fill="#0" id="circle36"/>
	<circle cx="110.703" cy="449.15" r="4" fill="#0" id="circle37"/>
	<circle cx="114.037" cy="40.679" r="4" fill="#0" id="circle38"/>
	<circle cx="124.04" cy="27.3412" r="4" fill="#0" id="circle39"/>
	<circle cx="127.375" cy="449.15" r="4" fill="#0" id="circle40"/>
	<circle cx="130.709" cy="10.6689" r="4" fill="#0" id="circle41"/>
	<circle cx="144.047" cy="449.15" r="4" fill="#0" id="circle42"/>
	<circle cx="147.382" cy="4" r="4" fill="#0" id="circle43"/>
	<circle cx="159.052" cy="17.3378" r="4" fill="#0" id="circle44"/>
	<circle cx="160.719" cy="449.15" r="4" fill="#0" id="circle45"/>
	<circle cx="167.388" cy="32.3429" r="4" fill="#0" id="circle46"/>
	<circle cx="177.392" cy="449.15" r="4" fill="#0" id="circle47"/>
	<circle cx="180.726" cy="42.3462" r="4" fill="#0" id="circle48"/>
	<circle cx="189.062" cy="57.3513" r="4" fill="#0" id="circle49"/>
	<circle cx="194.064" cy="449.15" r="4" fill="#0" id="circle50"/>
	<circle cx="199.066" cy="70.6891" r="4" fill="#0" id="circle51"/>
	<circle cx="210.736" cy="449.15" r="4" fill="#0" id="circle52"/>
	<circle cx="215.738" cy="77.358" r="4" fill="#0" id="circle53"/>
	<circle cx="227.408" cy="449.15" r="4" fill="#0" id="circle54"/>
	<circle cx="230.743" cy="85.6941" r="4" fill="#0" id="circle55"/>
	<circle cx="240.746" cy="459.153" r="4" fill="#0" id="circle56"/>
	<circle cx="244.081" cy="494.165" r="4" fill="#0" id="circle57"/>
	<circle cx="245.748" cy="94.0303" r="4" fill="#0" id="circle58"/>
	<circle cx="245.748" cy="510.837" r="4" fill="#0" id="circle59"/>
	<circle cx="247.415" cy="475.825" r="4" fill="#0" id="circle60"/>
	<circle cx="257.418" cy="107.368" r="4" fill="#0" id="circle61"/>
	<circle cx="259.086" cy="177.392" r="4" fill="#0" id="circle62"/>
	<circle cx="260.753" cy="194.064" r="4" fill="#0" id="circle63"/>
	<circle cx="262.42" cy="160.719" r="4" fill="#0" id="circle64"/>
	<circle cx="262.42" cy="494.165" r="4" fill="#0" id="circle65"/>
	<circle cx="262.42" cy="515.839" r="4" fill="#0" id="circle66"/>
	<circle cx="265.755" cy="450.817" r="4" fill="#0" id="circle67"/>
	<circle cx="267.422" cy="120.706" r="4" fill="#0" id="circle68"/>
	<circle cx="269.089" cy="467.489" r="4" fill="#0" id="circle69"/>
	<circle cx="272.424" cy="137.378" r="4" fill="#0" id="circle70"/>
	<circle cx="277.425" cy="199.066" r="4" fill="#0" id="circle71"/>
	<circle cx="282.427" cy="449.15" r="4" fill="#0" id="circle72"/>
	<circle cx="294.097" cy="205.734" r="4" fill="#0" id="circle73"/>
	<circle cx="299.099" cy="449.15" r="4" fill="#0" id="circle74"/>
	<circle cx="310.77" cy="207.402" r="4" fill="#0" id="circle75"/>
	<circle cx="315.771" cy="449.15" r="4" fill="#0" id="circle76"/>
	<circle cx="327.442" cy="207.402" r="4" fill="#0" id="circle77"/>
	<circle cx="332.444" cy="449.15" r="4" fill="#0" id="circle78"/>
	<circle cx="344.114" cy="207.402" r="4" fill="#0" id="circle79"/>
	<circle cx="349.116" cy="449.15" r="4" fill="#0" id="circle80"/>
	<circle cx="360.787" cy="210.736" r="4" fill="#0" id="circle81"/>
	<circle cx="365.788" cy="449.15" r="4" fill="#0" id="circle82"/>
	<circle cx="377.459" cy="217.405" r="4" fill="#0" id="circle83"/>
	<circle cx="382.461" cy="449.15" r="4" fill="#0" id="circle84"/>
	<circle cx="392.464" cy="225.741" r="4" fill="#0" id="circle85"/>
	<circle cx="399.133" cy="449.15" r="4" fill="#0" id="circle86"/>
	<circle cx="407.469" cy="234.077" r="4" fill="#0" id="circle87"/>
	<circle cx="415.805" cy="449.15" r="4" fill="#0" id="circle88"/>
	<circle cx="420.807" cy="245.748" r="4" fill="#0" id="circle89"/>
	<circle cx="432.477" cy="259.086" r="4" fill="#0" id="circle90"/>
	<circle cx="432.477" cy="449.15" r="4" fill="#0" id="circle91"/>
	<circle cx="445.815" cy="269.089" r="4" fill="#0" id="circle92"/>
	<circle cx="449.15" cy="449.15" r="4" fill="#0" id="circle93"/>
	<circle cx="459.153" cy="279.092" r="4" fill="#0" id="circle94"/>
	<circle cx="465.822" cy="449.15" r="4" fill="#0" id="circle95"/>
	<circle cx="467.489" cy="294.097" r="4" fill="#0" id="circle96"/>
	<circle cx="482.494" cy="449.15" r="4" fill="#0" id="circle97"/>
	<circle cx="484.161" cy="297.432" r="4" fill="#0" id="circle98"/>
	<circle cx="499.166" cy="449.15" r="4" fill="#0" id="circle99"/>
	<circle cx="500.834" cy="297.432" r="4" fill="#0" id="circle100"/>
	<circle cx="515.839" cy="449.15" r="4" fill="#0" id="circle101"/>
	<circle cx="517.506" cy="297.432" r="4" fill="#0" id="circle102"/>
	<circle cx="532.511" cy="449.15" r="4" fill="#0" id="circle103"/>
	<circle cx="534.178" cy="297.432" r="4" fill="#0" id="circle104"/>
	<circle cx="549.183" cy="449.15" r="4" fill="#0" id="circle105"/>
	<circle cx="550.85" cy="297.432" r="4" fill="#0" id="circle106"/>
	<circle cx="565.855" cy="449.15" r="4" fill="#0" id="circle107"/>
	<circle cx="567.523" cy="297.432" r="4" fill="#0" id="circle108"/>
	<circle cx="582.528" cy="449.15" r="4" fill="#0" id="circle109"/>
	<circle cx="584.195" cy="297.432" r="4" fill="#0" id="circle110"/>
	<circle cx="599.2" cy="449.15" r="4" fill="#0" id="circle111"/>
	<circle cx="600.867" cy="297.432" r="4" fill="#0" id="circle112"/>
	<circle cx="615.872" cy="449.15" r="4" fill="#0" id="circle113"/>
	<circle cx="617.539" cy="297.432" r="4" fill="#0" id="circle114"/>
	<circle cx="632.545" cy="449.15" r="4" fill="#0" id="circle115"/>
	<circle cx="634.212" cy="300.766" r="4" fill="#0" id="circle116"/>
	<circle cx="649.217" cy="449.15" r="4" fill="#0" id="circle117"/>
	<circle cx="650.884" cy="300.766" r="4" fill="#0" id="circle118"/>
	<circle cx="665.889" cy="449.15" r="4" fill="#0" id="circle119"/>
	<circle cx="667.556" cy="300.766" r="4" fill="#0" id="circle120"/>
	<circle cx="682.561" cy="449.15" r="4" fill="#0" id="circle121"/>
	<circle cx="684.229" cy="300.766" r="4" fill="#0" id="circle122"/>
	<circle cx="699.234" cy="449.15" r="4" fill="#0" id="circle123"/>
	<circle cx="700.901" cy="300.766" r="4" fill="#0" id="circle124"/>
	<circle cx="709.237" cy="462.487" r="4" fill="#0" id="circle125"/>
	<circle cx="710.904" cy="479.16" r="4" fill="#0" id="circle126"/>
	<circle cx="714.239" cy="495.832" r="4" fill="#0" id="circle127"/>
	<circle cx="714.239" cy="512.504" r="4" fill="#0" id="circle128"/>
	<circle cx="717.573" cy="297.432" r="4" fill="#0" id="circle129"/>
	<circle cx="730.911" cy="287.429" r="4" fill="#0" id="circle130"/>
	<circle cx="730.911" cy="515.839" r="4" fill="#0" id="circle131"/>
	<circle cx="732.578" cy="497.499" r="4" fill="#0" id="circle132"/>
	<circle cx="739.247" cy="460.82" r="4" fill="#0" id="circle133"/>
	<circle cx="739.247" cy="477.492" r="4" fill="#0" id="circle134"/>
	<circle cx="745.916" cy="279.092" r="4" fill="#0" id="circle135"/>
	<circle cx="755.919" cy="462.487" r="4" fill="#0" id="circle136"/>
	<circle cx="762.588" cy="274.091" r="4" fill="#0" id="circle137"/>
	<circle cx="769.257" cy="472.491" r="4" fill="#0" id="circle138"/>
	<circle cx="779.261" cy="269.089" r="4" fill="#0" id="circle139"/>
	<circle cx="782.595" cy="457.486" r="4" fill="#0" id="circle140"/>
	<circle cx="795.933" cy="267.422" r="4" fill="#0" id="circle141"/>
	<circle cx="799.267" cy="459.153" r="4" fill="#0" id="circle142"/>
	<circle cx="807.603" cy="254.084" r="4" fill="#0" id="circle143"/>
	<circle cx="812.605" cy="469.156" r="4" fill="#0" id="circle144"/>
	<circle cx="820.941" cy="244.081" r="4" fill="#0" id="circle145"/>
	<circle cx="825.943" cy="479.16" r="4" fill="#0" id="circle146"/>
	<circle cx="834.279" cy="234.077" r="4" fill="#0" id="circle147"/>
	<circle cx="839.281" cy="489.163" r="4" fill="#0" id="circle148"/>
	<circle cx="847.617" cy="224.074" r="4" fill="#0" id="circle149"/>
	<circle cx="855.953" cy="489.163" r="4" fill="#0" id="circle150"/>
	<circle cx="864.289" cy="230.743" r="4" fill="#0" id="circle151"/>
	<circle cx="872.625" cy="484.161" r="4" fill="#0" id="circle152"/>
	<circle cx="874.292" cy="244.081" r="4" fill="#0" id="circle153"/>
	<circle cx="885.963" cy="474.158" r="4" fill="#0" id="circle154"/>
	<circle cx="887.63" cy="254.084" r="4" fill="#0" id="circle155"/>
	<circle cx="897.634" cy="267.422" r="4" fill="#0" id="circle156"/>
	<circle cx="899.301" cy="462.487" r="4" fill="#0" id="circle157"/>
	<circle cx="914.306" cy="267.422" r="4" fill="#0" id="circle158"/>
	<circle cx="914.306" cy="454.151" r="4" fill="#0" id="circle159"/>
	<circle cx="924.309" cy="467.489" r="4" fill="#0" id="circle160"/>
	<circle cx="930.978" cy="272.424" r="4" fill="#0" id="circle161"/>
	<circle cx="940.982" cy="465.822" r="4" fill="#0" id="circle162"/>
	<circle cx="947.65" cy="277.425" r="4" fill="#0" id="circle163"/>
	<circle cx="957.654" cy="459.153" r="4" fill="#0" id="circle164"/>
	<circle cx="962.655" cy="285.761" r="4" fill="#0" id="circle165"/>
	<circle cx="970.992" cy="470.824" r="4" fill="#0" id="circle166"/>
	<circle cx="970.992" cy="487.496" r="4" fill="#0" id="circle167"/>
	<circle cx="970.992" cy="504.168" r="4" fill="#0" id="circle168"/>
	<circle cx="975.993" cy="295.765" r="4" fill="#0" id="circle169"/>
	<circle cx="980.995" cy="517.506" r="4" fill="#0" id="circle170"/>
	<circle cx="982.662" cy="410.803" r="4" fill="#0" id="circle171"/>
	<circle cx="982.662" cy="427.476" r="4" fill="#0" id="circle172"/>
	<circle cx="985.997" cy="364.121" r="4" fill="#0" id="circle173"/>
	<circle cx="985.997" cy="380.793" r="4" fill="#0" id="circle174"/>
	<circle cx="985.997" cy="444.148" r="4" fill="#0" id="circle175"/>
	<circle cx="987.664" cy="495.832" r="4" fill="#0" id="circle176"/>
	<circle cx="989.331" cy="307.435" r="4" fill="#0" id="circle177"/>
	<circle cx="989.331" cy="460.82" r="4" fill="#0" id="circle178"/>
	<circle cx="992.666" cy="347.449" r="4" fill="#0" id="circle179"/>
	<circle cx="996" cy="324.108" r="4" fill="#0" id="circle180"/>
	<circle cx="996" cy="477.492" r="4" fill="#0" id="circle181"/>
	</g>
</svg>