<?xml version="1.0" encoding="UTF-8" standalone="no"?>
<!-- Created with CurveBenchmark -->
<svg
	xmlns:dc="http://purl.org/dc/elements/1.1/"
	xmlns:cc="http://creativecommons.org/ns#"
	xmlns:rdf="http://www.w3.org/1999/02/22-rdf-syntax-ns#"
	xmlns:svg="http://www.w3.org/2000/svg"
	xmlns="http://www.w3.org/2000/svg"
	xmlns:sodipodi="http://sodipodi.sourceforge.net/DTD/sodipodi-0.dtd"
	xmlns:inkscape="http://www.inkscape.org/namespaces/inkscape"
	width="1000"
	height="1000"
	id="svg2"
	version="1.1"
	sodipodi:docname="manifold/gathang-camel13.png.txt">
<defs
	id="defs4" />
<metadata
	id="metadata7">
	<rdf:RDF>
		<cc:Work
			rdf:about="">
			<dc:format>image/svg+xml</dc:format>
			<dc:type
				rdf:resource="http://purl.org/dc/dcmitype/StillImage" />
			<dc:title></dc:title>
		</cc:Work>
	</rdf:RDF>
</metadata>
<g
	inkscape:label="Layer 1"
	inkscape:groupmode="layer"
	id="layer1">
	<path style="fill:none;stroke:red;stroke-width:1px;stroke-linecap:butt;stroke-linejoin:miter;stroke-opacity:1" d="M 123.187,79.1793 104.85,88.3475 z" id="boundary" inkscape:connector-curvature="0" />
	<path style="fill:none;stroke:red;stroke-width:1px;stroke-linecap:butt;stroke-linejoin:miter;stroke-opacity:1" d="M 132.355,51.6747 123.187,79.1793 z" id="boundary" inkscape:connector-curvature="0" />
	<path style="fill:none;stroke:red;stroke-width:1px;stroke-linecap:butt;stroke-linejoin:miter;stroke-opacity:1" d="M 104.85,88.3475 86.5139,97.5157 z" id="boundary" inkscape:connector-curvature="0" />
	<path style="fill:none;stroke:red;stroke-width:1px;stroke-linecap:butt;stroke-linejoin:miter;stroke-opacity:1" d="M 132.355,33.3383 132.355,51.6747 z" id="boundary" inkscape:connector-curvature="0" />
	<path style="fill:none;stroke:red;stroke-width:1px;stroke-linecap:butt;stroke-linejoin:miter;stroke-opacity:1" d="M 37.0055,128.688 53.5083,119.519 z" id="boundary" inkscape:connector-curvature="0" />
	<path style="fill:none;stroke:red;stroke-width:1px;stroke-linecap:butt;stroke-linejoin:miter;stroke-opacity:1" d="M 68.1774,106.684 53.5083,119.519 z" id="boundary" inkscape:connector-curvature="0" />
	<path style="fill:none;stroke:red;stroke-width:1px;stroke-linecap:butt;stroke-linejoin:miter;stroke-opacity:1" d="M 68.1774,106.684 86.5139,97.5157 z" id="boundary" inkscape:connector-curvature="0" />
	<path style="fill:none;stroke:red;stroke-width:1px;stroke-linecap:butt;stroke-linejoin:miter;stroke-opacity:1" d="M 150.691,15.0018 169.028,9.50092 z" id="boundary" inkscape:connector-curvature="0" />
	<path style="fill:none;stroke:red;stroke-width:1px;stroke-linecap:butt;stroke-linejoin:miter;stroke-opacity:1" d="M 187.364,4 203.867,13.1682 z" id="boundary" inkscape:connector-curvature="0" />
	<path style="fill:none;stroke:red;stroke-width:1px;stroke-linecap:butt;stroke-linejoin:miter;stroke-opacity:1" d="M 169.028,9.50092 187.364,4 z" id="boundary" inkscape:connector-curvature="0" />
	<path style="fill:none;stroke:red;stroke-width:1px;stroke-linecap:butt;stroke-linejoin:miter;stroke-opacity:1" d="M 222.203,18.6691 203.867,13.1682 z" id="boundary" inkscape:connector-curvature="0" />
	<path style="fill:none;stroke:red;stroke-width:1px;stroke-linecap:butt;stroke-linejoin:miter;stroke-opacity:1" d="M 280.88,194.699 271.712,222.203 z" id="boundary" inkscape:connector-curvature="0" />
	<path style="fill:none;stroke:red;stroke-width:1px;stroke-linecap:butt;stroke-linejoin:miter;stroke-opacity:1" d="M 258.876,18.6691 240.54,20.5028 z" id="boundary" inkscape:connector-curvature="0" />
	<path style="fill:none;stroke:red;stroke-width:1px;stroke-linecap:butt;stroke-linejoin:miter;stroke-opacity:1" d="M 240.54,20.5028 222.203,18.6691 z" id="boundary" inkscape:connector-curvature="0" />
	<path style="fill:none;stroke:red;stroke-width:1px;stroke-linecap:butt;stroke-linejoin:miter;stroke-opacity:1" d="M 277.213,20.5028 258.876,18.6691 z" id="boundary" inkscape:connector-curvature="0" />
	<path style="fill:none;stroke:red;stroke-width:1px;stroke-linecap:butt;stroke-linejoin:miter;stroke-opacity:1" d="M 132.355,33.3383 150.691,15.0018 z" id="boundary" inkscape:connector-curvature="0" />
	<path style="fill:none;stroke:red;stroke-width:1px;stroke-linecap:butt;stroke-linejoin:miter;stroke-opacity:1" d="M 13.1682,161.693 13.1682,180.03 z" id="boundary" inkscape:connector-curvature="0" />
	<path style="fill:none;stroke:red;stroke-width:1px;stroke-linecap:butt;stroke-linejoin:miter;stroke-opacity:1" d="M 13.1682,180.03 4,207.534 z" id="boundary" inkscape:connector-curvature="0" />
	<path style="fill:none;stroke:red;stroke-width:1px;stroke-linecap:butt;stroke-linejoin:miter;stroke-opacity:1" d="M 62.6765,249.708 44.3401,246.041 z" id="boundary" inkscape:connector-curvature="0" />
	<path style="fill:none;stroke:red;stroke-width:1px;stroke-linecap:butt;stroke-linejoin:miter;stroke-opacity:1" d="M 13.1682,161.693 22.3364,143.357 z" id="boundary" inkscape:connector-curvature="0" />
	<path style="fill:none;stroke:red;stroke-width:1px;stroke-linecap:butt;stroke-linejoin:miter;stroke-opacity:1" d="M 13.1682,224.037 4,207.534 z" id="boundary" inkscape:connector-curvature="0" />
	<path style="fill:none;stroke:red;stroke-width:1px;stroke-linecap:butt;stroke-linejoin:miter;stroke-opacity:1" d="M 13.1682,224.037 26.0037,238.706 z" id="boundary" inkscape:connector-curvature="0" />
	<path style="fill:none;stroke:red;stroke-width:1px;stroke-linecap:butt;stroke-linejoin:miter;stroke-opacity:1" d="M 44.3401,246.041 26.0037,238.706 z" id="boundary" inkscape:connector-curvature="0" />
	<path style="fill:none;stroke:red;stroke-width:1px;stroke-linecap:butt;stroke-linejoin:miter;stroke-opacity:1" d="M 55.342,312.052 46.1738,330.388 z" id="boundary" inkscape:connector-curvature="0" />
	<path style="fill:none;stroke:red;stroke-width:1px;stroke-linecap:butt;stroke-linejoin:miter;stroke-opacity:1" d="M 22.3364,143.357 37.0055,128.688 z" id="boundary" inkscape:connector-curvature="0" />
	<path style="fill:none;stroke:red;stroke-width:1px;stroke-linecap:butt;stroke-linejoin:miter;stroke-opacity:1" d="M 46.1738,330.388 31.5046,345.057 z" id="boundary" inkscape:connector-curvature="0" />
	<path style="fill:none;stroke:red;stroke-width:1px;stroke-linecap:butt;stroke-linejoin:miter;stroke-opacity:1" d="M 68.1774,271.712 62.6765,249.708 z" id="boundary" inkscape:connector-curvature="0" />
	<path style="fill:none;stroke:red;stroke-width:1px;stroke-linecap:butt;stroke-linejoin:miter;stroke-opacity:1" d="M 271.712,222.203 271.712,249.708 z" id="boundary" inkscape:connector-curvature="0" />
	<path style="fill:none;stroke:red;stroke-width:1px;stroke-linecap:butt;stroke-linejoin:miter;stroke-opacity:1" d="M 271.712,268.044 271.712,249.708 z" id="boundary" inkscape:connector-curvature="0" />
	<path style="fill:none;stroke:red;stroke-width:1px;stroke-linecap:butt;stroke-linejoin:miter;stroke-opacity:1" d="M 55.342,312.052 64.5102,293.715 z" id="boundary" inkscape:connector-curvature="0" />
	<path style="fill:none;stroke:red;stroke-width:1px;stroke-linecap:butt;stroke-linejoin:miter;stroke-opacity:1" d="M 64.5102,293.715 68.1774,271.712 z" id="boundary" inkscape:connector-curvature="0" />
	<path style="fill:none;stroke:red;stroke-width:1px;stroke-linecap:butt;stroke-linejoin:miter;stroke-opacity:1" d="M 271.712,268.044 271.712,286.381 z" id="boundary" inkscape:connector-curvature="0" />
	<path style="fill:none;stroke:red;stroke-width:1px;stroke-linecap:butt;stroke-linejoin:miter;stroke-opacity:1" d="M 271.712,286.381 271.712,304.717 z" id="boundary" inkscape:connector-curvature="0" />
	<path style="fill:none;stroke:red;stroke-width:1px;stroke-linecap:butt;stroke-linejoin:miter;stroke-opacity:1" d="M 293.715,29.671 277.213,20.5028 z" id="boundary" inkscape:connector-curvature="0" />
	<path style="fill:none;stroke:red;stroke-width:1px;stroke-linecap:butt;stroke-linejoin:miter;stroke-opacity:1" d="M 308.384,42.5065 315.719,60.8429 z" id="boundary" inkscape:connector-curvature="0" />
	<path style="fill:none;stroke:red;stroke-width:1px;stroke-linecap:butt;stroke-linejoin:miter;stroke-opacity:1" d="M 293.715,29.671 308.384,42.5065 z" id="boundary" inkscape:connector-curvature="0" />
	<path style="fill:none;stroke:red;stroke-width:1px;stroke-linecap:butt;stroke-linejoin:miter;stroke-opacity:1" d="M 313.885,90.1811 315.719,60.8429 z" id="boundary" inkscape:connector-curvature="0" />
	<path style="fill:none;stroke:red;stroke-width:1px;stroke-linecap:butt;stroke-linejoin:miter;stroke-opacity:1" d="M 290.048,137.856 280.88,121.353 z" id="boundary" inkscape:connector-curvature="0" />
	<path style="fill:none;stroke:red;stroke-width:1px;stroke-linecap:butt;stroke-linejoin:miter;stroke-opacity:1" d="M 280.88,121.353 299.216,103.017 z" id="boundary" inkscape:connector-curvature="0" />
	<path style="fill:none;stroke:red;stroke-width:1px;stroke-linecap:butt;stroke-linejoin:miter;stroke-opacity:1" d="M 299.216,103.017 313.885,90.1811 z" id="boundary" inkscape:connector-curvature="0" />
	<path style="fill:none;stroke:red;stroke-width:1px;stroke-linecap:butt;stroke-linejoin:miter;stroke-opacity:1" d="M 389.065,106.684 379.896,125.02 z" id="boundary" inkscape:connector-curvature="0" />
	<path style="fill:none;stroke:red;stroke-width:1px;stroke-linecap:butt;stroke-linejoin:miter;stroke-opacity:1" d="M 379.896,125.02 370.728,143.357 z" id="boundary" inkscape:connector-curvature="0" />
	<path style="fill:none;stroke:red;stroke-width:1px;stroke-linecap:butt;stroke-linejoin:miter;stroke-opacity:1" d="M 427.571,40.6728 442.24,27.8373 z" id="boundary" inkscape:connector-curvature="0" />
	<path style="fill:none;stroke:red;stroke-width:1px;stroke-linecap:butt;stroke-linejoin:miter;stroke-opacity:1" d="M 458.743,18.6691 477.079,18.6691 z" id="boundary" inkscape:connector-curvature="0" />
	<path style="fill:none;stroke:red;stroke-width:1px;stroke-linecap:butt;stroke-linejoin:miter;stroke-opacity:1" d="M 442.24,27.8373 458.743,18.6691 z" id="boundary" inkscape:connector-curvature="0" />
	<path style="fill:none;stroke:red;stroke-width:1px;stroke-linecap:butt;stroke-linejoin:miter;stroke-opacity:1" d="M 389.065,88.3475 389.065,106.684 z" id="boundary" inkscape:connector-curvature="0" />
	<path style="fill:none;stroke:red;stroke-width:1px;stroke-linecap:butt;stroke-linejoin:miter;stroke-opacity:1" d="M 389.065,88.3475 403.734,73.6784 z" id="boundary" inkscape:connector-curvature="0" />
	<path style="fill:none;stroke:red;stroke-width:1px;stroke-linecap:butt;stroke-linejoin:miter;stroke-opacity:1" d="M 412.902,55.342 427.571,40.6728 z" id="boundary" inkscape:connector-curvature="0" />
	<path style="fill:none;stroke:red;stroke-width:1px;stroke-linecap:butt;stroke-linejoin:miter;stroke-opacity:1" d="M 403.734,73.6784 412.902,55.342 z" id="boundary" inkscape:connector-curvature="0" />
	<path style="fill:none;stroke:red;stroke-width:1px;stroke-linecap:butt;stroke-linejoin:miter;stroke-opacity:1" d="M 290.048,137.856 290.048,156.192 z" id="boundary" inkscape:connector-curvature="0" />
	<path style="fill:none;stroke:red;stroke-width:1px;stroke-linecap:butt;stroke-linejoin:miter;stroke-opacity:1" d="M 290.048,156.192 290.048,174.529 z" id="boundary" inkscape:connector-curvature="0" />
	<path style="fill:none;stroke:red;stroke-width:1px;stroke-linecap:butt;stroke-linejoin:miter;stroke-opacity:1" d="M 290.048,174.529 280.88,194.699 z" id="boundary" inkscape:connector-curvature="0" />
	<path style="fill:none;stroke:red;stroke-width:1px;stroke-linecap:butt;stroke-linejoin:miter;stroke-opacity:1" d="M 330.388,266.211 321.22,284.547 z" id="boundary" inkscape:connector-curvature="0" />
	<path style="fill:none;stroke:red;stroke-width:1px;stroke-linecap:butt;stroke-linejoin:miter;stroke-opacity:1" d="M 271.712,304.717 280.88,321.22 z" id="boundary" inkscape:connector-curvature="0" />
	<path style="fill:none;stroke:red;stroke-width:1px;stroke-linecap:butt;stroke-linejoin:miter;stroke-opacity:1" d="M 280.88,321.22 280.88,339.556 z" id="boundary" inkscape:connector-curvature="0" />
	<path style="fill:none;stroke:red;stroke-width:1px;stroke-linecap:butt;stroke-linejoin:miter;stroke-opacity:1" d="M 306.551,299.216 299.216,321.22 z" id="boundary" inkscape:connector-curvature="0" />
	<path style="fill:none;stroke:red;stroke-width:1px;stroke-linecap:butt;stroke-linejoin:miter;stroke-opacity:1" d="M 299.216,321.22 280.88,339.556 z" id="boundary" inkscape:connector-curvature="0" />
	<path style="fill:none;stroke:red;stroke-width:1px;stroke-linecap:butt;stroke-linejoin:miter;stroke-opacity:1" d="M 352.392,216.702 343.224,244.207 z" id="boundary" inkscape:connector-curvature="0" />
	<path style="fill:none;stroke:red;stroke-width:1px;stroke-linecap:butt;stroke-linejoin:miter;stroke-opacity:1" d="M 352.392,216.702 352.392,198.366 z" id="boundary" inkscape:connector-curvature="0" />
	<path style="fill:none;stroke:red;stroke-width:1px;stroke-linecap:butt;stroke-linejoin:miter;stroke-opacity:1" d="M 352.392,198.366 361.56,170.861 z" id="boundary" inkscape:connector-curvature="0" />
	<path style="fill:none;stroke:red;stroke-width:1px;stroke-linecap:butt;stroke-linejoin:miter;stroke-opacity:1" d="M 361.56,170.861 370.728,143.357 z" id="boundary" inkscape:connector-curvature="0" />
	<path style="fill:none;stroke:red;stroke-width:1px;stroke-linecap:butt;stroke-linejoin:miter;stroke-opacity:1" d="M 306.551,299.216 321.22,284.547 z" id="boundary" inkscape:connector-curvature="0" />
	<path style="fill:none;stroke:red;stroke-width:1px;stroke-linecap:butt;stroke-linejoin:miter;stroke-opacity:1" d="M 343.224,244.207 330.388,266.211 z" id="boundary" inkscape:connector-curvature="0" />
	<path style="fill:none;stroke:red;stroke-width:1px;stroke-linecap:butt;stroke-linejoin:miter;stroke-opacity:1" d="M 22.3364,363.394 31.5046,345.057 z" id="boundary" inkscape:connector-curvature="0" />
	<path style="fill:none;stroke:red;stroke-width:1px;stroke-linecap:butt;stroke-linejoin:miter;stroke-opacity:1" d="M 31.5046,379.896 22.3364,363.394 z" id="boundary" inkscape:connector-curvature="0" />
	<path style="fill:none;stroke:red;stroke-width:1px;stroke-linecap:butt;stroke-linejoin:miter;stroke-opacity:1" d="M 31.5046,379.896 31.5046,398.233 z" id="boundary" inkscape:connector-curvature="0" />
	<path style="fill:none;stroke:red;stroke-width:1px;stroke-linecap:butt;stroke-linejoin:miter;stroke-opacity:1" d="M 31.5046,416.569 31.5046,398.233 z" id="boundary" inkscape:connector-curvature="0" />
	<path style="fill:none;stroke:red;stroke-width:1px;stroke-linecap:butt;stroke-linejoin:miter;stroke-opacity:1" d="M 31.5046,416.569 31.5046,436.739 z" id="boundary" inkscape:connector-curvature="0" />
	<path style="fill:none;stroke:red;stroke-width:1px;stroke-linecap:butt;stroke-linejoin:miter;stroke-opacity:1" d="M 31.5046,455.076 31.5046,473.412 z" id="boundary" inkscape:connector-curvature="0" />
	<path style="fill:none;stroke:red;stroke-width:1px;stroke-linecap:butt;stroke-linejoin:miter;stroke-opacity:1" d="M 40.6728,489.915 31.5046,473.412 z" id="boundary" inkscape:connector-curvature="0" />
	<path style="fill:none;stroke:red;stroke-width:1px;stroke-linecap:butt;stroke-linejoin:miter;stroke-opacity:1" d="M 31.5046,455.076 31.5046,436.739 z" id="boundary" inkscape:connector-curvature="0" />
	<path style="fill:none;stroke:red;stroke-width:1px;stroke-linecap:butt;stroke-linejoin:miter;stroke-opacity:1" d="M 31.5046,510.085 31.5046,528.421 z" id="boundary" inkscape:connector-curvature="0" />
	<path style="fill:none;stroke:red;stroke-width:1px;stroke-linecap:butt;stroke-linejoin:miter;stroke-opacity:1" d="M 31.5046,510.085 40.6728,489.915 z" id="boundary" inkscape:connector-curvature="0" />
	<path style="fill:none;stroke:red;stroke-width:1px;stroke-linecap:butt;stroke-linejoin:miter;stroke-opacity:1" d="M 40.6728,563.261 31.5046,546.758 z" id="boundary" inkscape:connector-curvature="0" />
	<path style="fill:none;stroke:red;stroke-width:1px;stroke-linecap:butt;stroke-linejoin:miter;stroke-opacity:1" d="M 31.5046,546.758 31.5046,528.421 z" id="boundary" inkscape:connector-curvature="0" />
	<path style="fill:none;stroke:red;stroke-width:1px;stroke-linecap:butt;stroke-linejoin:miter;stroke-opacity:1" d="M 40.6728,563.261 49.841,579.763 z" id="boundary" inkscape:connector-curvature="0" />
	<path style="fill:none;stroke:red;stroke-width:1px;stroke-linecap:butt;stroke-linejoin:miter;stroke-opacity:1" d="M 49.841,579.763 55.342,598.1 z" id="boundary" inkscape:connector-curvature="0" />
	<path style="fill:none;stroke:red;stroke-width:1px;stroke-linecap:butt;stroke-linejoin:miter;stroke-opacity:1" d="M 59.0092,616.436 55.342,598.1 z" id="boundary" inkscape:connector-curvature="0" />
	<path style="fill:none;stroke:red;stroke-width:1px;stroke-linecap:butt;stroke-linejoin:miter;stroke-opacity:1" d="M 59.0092,616.436 59.0092,638.44 z" id="boundary" inkscape:connector-curvature="0" />
	<path style="fill:none;stroke:red;stroke-width:1px;stroke-linecap:butt;stroke-linejoin:miter;stroke-opacity:1" d="M 59.0092,638.44 68.1774,654.943 z" id="boundary" inkscape:connector-curvature="0" />
	<path style="fill:none;stroke:red;stroke-width:1px;stroke-linecap:butt;stroke-linejoin:miter;stroke-opacity:1" d="M 86.5139,662.277 68.1774,654.943 z" id="boundary" inkscape:connector-curvature="0" />
	<path style="fill:none;stroke:red;stroke-width:1px;stroke-linecap:butt;stroke-linejoin:miter;stroke-opacity:1" d="M 103.017,671.445 86.5139,662.277 z" id="boundary" inkscape:connector-curvature="0" />
	<path style="fill:none;stroke:red;stroke-width:1px;stroke-linecap:butt;stroke-linejoin:miter;stroke-opacity:1" d="M 103.017,671.445 115.852,686.115 z" id="boundary" inkscape:connector-curvature="0" />
	<path style="fill:none;stroke:red;stroke-width:1px;stroke-linecap:butt;stroke-linejoin:miter;stroke-opacity:1" d="M 115.852,686.115 130.521,698.95 z" id="boundary" inkscape:connector-curvature="0" />
	<path style="fill:none;stroke:red;stroke-width:1px;stroke-linecap:butt;stroke-linejoin:miter;stroke-opacity:1" d="M 147.024,708.118 130.521,698.95 z" id="boundary" inkscape:connector-curvature="0" />
	<path style="fill:none;stroke:red;stroke-width:1px;stroke-linecap:butt;stroke-linejoin:miter;stroke-opacity:1" d="M 165.36,862.144 150.691,876.813 z" id="boundary" inkscape:connector-curvature="0" />
	<path style="fill:none;stroke:red;stroke-width:1px;stroke-linecap:butt;stroke-linejoin:miter;stroke-opacity:1" d="M 163.527,717.287 181.863,722.787 z" id="boundary" inkscape:connector-curvature="0" />
	<path style="fill:none;stroke:red;stroke-width:1px;stroke-linecap:butt;stroke-linejoin:miter;stroke-opacity:1" d="M 163.527,717.287 147.024,708.118 z" id="boundary" inkscape:connector-curvature="0" />
	<path style="fill:none;stroke:red;stroke-width:1px;stroke-linecap:butt;stroke-linejoin:miter;stroke-opacity:1" d="M 183.697,852.976 202.033,852.976 z" id="boundary" inkscape:connector-curvature="0" />
	<path style="fill:none;stroke:red;stroke-width:1px;stroke-linecap:butt;stroke-linejoin:miter;stroke-opacity:1" d="M 200.2,726.455 181.863,722.787 z" id="boundary" inkscape:connector-curvature="0" />
	<path style="fill:none;stroke:red;stroke-width:1px;stroke-linecap:butt;stroke-linejoin:miter;stroke-opacity:1" d="M 183.697,852.976 165.36,862.144 z" id="boundary" inkscape:connector-curvature="0" />
	<path style="fill:none;stroke:red;stroke-width:1px;stroke-linecap:butt;stroke-linejoin:miter;stroke-opacity:1" d="M 178.196,900.651 159.86,893.316 z" id="boundary" inkscape:connector-curvature="0" />
	<path style="fill:none;stroke:red;stroke-width:1px;stroke-linecap:butt;stroke-linejoin:miter;stroke-opacity:1" d="M 159.86,893.316 150.691,876.813 z" id="boundary" inkscape:connector-curvature="0" />
	<path style="fill:none;stroke:red;stroke-width:1px;stroke-linecap:butt;stroke-linejoin:miter;stroke-opacity:1" d="M 178.196,900.651 189.198,915.32 z" id="boundary" inkscape:connector-curvature="0" />
	<path style="fill:none;stroke:red;stroke-width:1px;stroke-linecap:butt;stroke-linejoin:miter;stroke-opacity:1" d="M 207.534,918.987 189.198,915.32 z" id="boundary" inkscape:connector-curvature="0" />
	<path style="fill:none;stroke:red;stroke-width:1px;stroke-linecap:butt;stroke-linejoin:miter;stroke-opacity:1" d="M 200.2,726.455 216.702,735.623 z" id="boundary" inkscape:connector-curvature="0" />
	<path style="fill:none;stroke:red;stroke-width:1px;stroke-linecap:butt;stroke-linejoin:miter;stroke-opacity:1" d="M 216.702,735.623 233.205,744.791 z" id="boundary" inkscape:connector-curvature="0" />
	<path style="fill:none;stroke:red;stroke-width:1px;stroke-linecap:butt;stroke-linejoin:miter;stroke-opacity:1" d="M 249.708,753.959 233.205,744.791 z" id="boundary" inkscape:connector-curvature="0" />
	<path style="fill:none;stroke:red;stroke-width:1px;stroke-linecap:butt;stroke-linejoin:miter;stroke-opacity:1" d="M 262.543,768.628 249.708,753.959 z" id="boundary" inkscape:connector-curvature="0" />
	<path style="fill:none;stroke:red;stroke-width:1px;stroke-linecap:butt;stroke-linejoin:miter;stroke-opacity:1" d="M 262.543,768.628 251.542,794.299 z" id="boundary" inkscape:connector-curvature="0" />
	<path style="fill:none;stroke:red;stroke-width:1px;stroke-linecap:butt;stroke-linejoin:miter;stroke-opacity:1" d="M 247.874,825.471 251.542,794.299 z" id="boundary" inkscape:connector-curvature="0" />
	<path style="fill:none;stroke:red;stroke-width:1px;stroke-linecap:butt;stroke-linejoin:miter;stroke-opacity:1" d="M 381.73,799.8 381.73,818.137 z" id="boundary" inkscape:connector-curvature="0" />
	<path style="fill:none;stroke:red;stroke-width:1px;stroke-linecap:butt;stroke-linejoin:miter;stroke-opacity:1" d="M 390.898,834.64 381.73,818.137 z" id="boundary" inkscape:connector-curvature="0" />
	<path style="fill:none;stroke:red;stroke-width:1px;stroke-linecap:butt;stroke-linejoin:miter;stroke-opacity:1" d="M 418.403,708.118 433.072,695.283 z" id="boundary" inkscape:connector-curvature="0" />
	<path style="fill:none;stroke:red;stroke-width:1px;stroke-linecap:butt;stroke-linejoin:miter;stroke-opacity:1" d="M 445.908,680.614 433.072,695.283 z" id="boundary" inkscape:connector-curvature="0" />
	<path style="fill:none;stroke:red;stroke-width:1px;stroke-linecap:butt;stroke-linejoin:miter;stroke-opacity:1" d="M 445.908,680.614 464.244,680.614 z" id="boundary" inkscape:connector-curvature="0" />
	<path style="fill:none;stroke:red;stroke-width:1px;stroke-linecap:butt;stroke-linejoin:miter;stroke-opacity:1" d="M 390.898,735.623 390.898,763.128 z" id="boundary" inkscape:connector-curvature="0" />
	<path style="fill:none;stroke:red;stroke-width:1px;stroke-linecap:butt;stroke-linejoin:miter;stroke-opacity:1" d="M 390.898,735.623 405.567,722.787 z" id="boundary" inkscape:connector-curvature="0" />
	<path style="fill:none;stroke:red;stroke-width:1px;stroke-linecap:butt;stroke-linejoin:miter;stroke-opacity:1" d="M 390.898,781.464 390.898,763.128 z" id="boundary" inkscape:connector-curvature="0" />
	<path style="fill:none;stroke:red;stroke-width:1px;stroke-linecap:butt;stroke-linejoin:miter;stroke-opacity:1" d="M 405.567,722.787 418.403,708.118 z" id="boundary" inkscape:connector-curvature="0" />
	<path style="fill:none;stroke:red;stroke-width:1px;stroke-linecap:butt;stroke-linejoin:miter;stroke-opacity:1" d="M 390.898,781.464 381.73,799.8 z" id="boundary" inkscape:connector-curvature="0" />
	<path style="fill:none;stroke:red;stroke-width:1px;stroke-linecap:butt;stroke-linejoin:miter;stroke-opacity:1" d="M 225.871,918.987 207.534,918.987 z" id="boundary" inkscape:connector-curvature="0" />
	<path style="fill:none;stroke:red;stroke-width:1px;stroke-linecap:butt;stroke-linejoin:miter;stroke-opacity:1" d="M 202.033,852.976 220.37,843.808 z" id="boundary" inkscape:connector-curvature="0" />
	<path style="fill:none;stroke:red;stroke-width:1px;stroke-linecap:butt;stroke-linejoin:miter;stroke-opacity:1" d="M 247.874,825.471 238.706,843.808 z" id="boundary" inkscape:connector-curvature="0" />
	<path style="fill:none;stroke:red;stroke-width:1px;stroke-linecap:butt;stroke-linejoin:miter;stroke-opacity:1" d="M 238.706,843.808 220.37,843.808 z" id="boundary" inkscape:connector-curvature="0" />
	<path style="fill:none;stroke:red;stroke-width:1px;stroke-linecap:butt;stroke-linejoin:miter;stroke-opacity:1" d="M 225.871,918.987 244.207,918.987 z" id="boundary" inkscape:connector-curvature="0" />
	<path style="fill:none;stroke:red;stroke-width:1px;stroke-linecap:butt;stroke-linejoin:miter;stroke-opacity:1" d="M 262.543,918.987 280.88,918.987 z" id="boundary" inkscape:connector-curvature="0" />
	<path style="fill:none;stroke:red;stroke-width:1px;stroke-linecap:butt;stroke-linejoin:miter;stroke-opacity:1" d="M 262.543,918.987 244.207,918.987 z" id="boundary" inkscape:connector-curvature="0" />
	<path style="fill:none;stroke:red;stroke-width:1px;stroke-linecap:butt;stroke-linejoin:miter;stroke-opacity:1" d="M 370.728,895.15 389.065,885.982 z" id="boundary" inkscape:connector-curvature="0" />
	<path style="fill:none;stroke:red;stroke-width:1px;stroke-linecap:butt;stroke-linejoin:miter;stroke-opacity:1" d="M 390.898,852.976 389.065,885.982 z" id="boundary" inkscape:connector-curvature="0" />
	<path style="fill:none;stroke:red;stroke-width:1px;stroke-linecap:butt;stroke-linejoin:miter;stroke-opacity:1" d="M 390.898,852.976 390.898,834.64 z" id="boundary" inkscape:connector-curvature="0" />
	<path style="fill:none;stroke:red;stroke-width:1px;stroke-linecap:butt;stroke-linejoin:miter;stroke-opacity:1" d="M 370.728,895.15 352.392,900.651 z" id="boundary" inkscape:connector-curvature="0" />
	<path style="fill:none;stroke:red;stroke-width:1px;stroke-linecap:butt;stroke-linejoin:miter;stroke-opacity:1" d="M 299.216,918.987 317.553,909.819 z" id="boundary" inkscape:connector-curvature="0" />
	<path style="fill:none;stroke:red;stroke-width:1px;stroke-linecap:butt;stroke-linejoin:miter;stroke-opacity:1" d="M 317.553,909.819 335.889,909.819 z" id="boundary" inkscape:connector-curvature="0" />
	<path style="fill:none;stroke:red;stroke-width:1px;stroke-linecap:butt;stroke-linejoin:miter;stroke-opacity:1" d="M 299.216,918.987 280.88,918.987 z" id="boundary" inkscape:connector-curvature="0" />
	<path style="fill:none;stroke:red;stroke-width:1px;stroke-linecap:butt;stroke-linejoin:miter;stroke-opacity:1" d="M 335.889,909.819 352.392,900.651 z" id="boundary" inkscape:connector-curvature="0" />
	<path style="fill:none;stroke:red;stroke-width:1px;stroke-linecap:butt;stroke-linejoin:miter;stroke-opacity:1" d="M 480.747,671.445 464.244,680.614 z" id="boundary" inkscape:connector-curvature="0" />
	<path style="fill:none;stroke:red;stroke-width:1px;stroke-linecap:butt;stroke-linejoin:miter;stroke-opacity:1" d="M 477.079,18.6691 495.416,18.6691 z" id="boundary" inkscape:connector-curvature="0" />
	<path style="fill:none;stroke:red;stroke-width:1px;stroke-linecap:butt;stroke-linejoin:miter;stroke-opacity:1" d="M 495.416,18.6691 513.752,18.6691 z" id="boundary" inkscape:connector-curvature="0" />
	<path style="fill:none;stroke:red;stroke-width:1px;stroke-linecap:butt;stroke-linejoin:miter;stroke-opacity:1" d="M 513.752,18.6691 532.089,18.6691 z" id="boundary" inkscape:connector-curvature="0" />
	<path style="fill:none;stroke:red;stroke-width:1px;stroke-linecap:butt;stroke-linejoin:miter;stroke-opacity:1" d="M 709.952,15.0018 691.616,24.1701 z" id="boundary" inkscape:connector-curvature="0" />
	<path style="fill:none;stroke:red;stroke-width:1px;stroke-linecap:butt;stroke-linejoin:miter;stroke-opacity:1" d="M 548.591,27.8373 532.089,18.6691 z" id="boundary" inkscape:connector-curvature="0" />
	<path style="fill:none;stroke:red;stroke-width:1px;stroke-linecap:butt;stroke-linejoin:miter;stroke-opacity:1" d="M 548.591,27.8373 555.926,46.1738 z" id="boundary" inkscape:connector-curvature="0" />
	<path style="fill:none;stroke:red;stroke-width:1px;stroke-linecap:butt;stroke-linejoin:miter;stroke-opacity:1" d="M 570.595,57.1756 555.926,46.1738 z" id="boundary" inkscape:connector-curvature="0" />
	<path style="fill:none;stroke:red;stroke-width:1px;stroke-linecap:butt;stroke-linejoin:miter;stroke-opacity:1" d="M 651.275,73.6784 654.943,51.6747 z" id="boundary" inkscape:connector-curvature="0" />
	<path style="fill:none;stroke:red;stroke-width:1px;stroke-linecap:butt;stroke-linejoin:miter;stroke-opacity:1" d="M 654.943,51.6747 673.279,33.3383 z" id="boundary" inkscape:connector-curvature="0" />
	<path style="fill:none;stroke:red;stroke-width:1px;stroke-linecap:butt;stroke-linejoin:miter;stroke-opacity:1" d="M 691.616,24.1701 673.279,33.3383 z" id="boundary" inkscape:connector-curvature="0" />
	<path style="fill:none;stroke:red;stroke-width:1px;stroke-linecap:butt;stroke-linejoin:miter;stroke-opacity:1" d="M 728.288,9.50092 746.625,4 z" id="boundary" inkscape:connector-curvature="0" />
	<path style="fill:none;stroke:red;stroke-width:1px;stroke-linecap:butt;stroke-linejoin:miter;stroke-opacity:1" d="M 746.625,4 764.961,5.83364 z" id="boundary" inkscape:connector-curvature="0" />
	<path style="fill:none;stroke:red;stroke-width:1px;stroke-linecap:butt;stroke-linejoin:miter;stroke-opacity:1" d="M 764.961,5.83364 783.298,13.1682 z" id="boundary" inkscape:connector-curvature="0" />
	<path style="fill:none;stroke:red;stroke-width:1px;stroke-linecap:butt;stroke-linejoin:miter;stroke-opacity:1" d="M 709.952,15.0018 728.288,9.50092 z" id="boundary" inkscape:connector-curvature="0" />
	<path style="fill:none;stroke:red;stroke-width:1px;stroke-linecap:butt;stroke-linejoin:miter;stroke-opacity:1" d="M 783.298,13.1682 799.8,22.3364 z" id="boundary" inkscape:connector-curvature="0" />
	<path style="fill:none;stroke:red;stroke-width:1px;stroke-linecap:butt;stroke-linejoin:miter;stroke-opacity:1" d="M 799.8,22.3364 812.636,37.0055 z" id="boundary" inkscape:connector-curvature="0" />
	<path style="fill:none;stroke:red;stroke-width:1px;stroke-linecap:butt;stroke-linejoin:miter;stroke-opacity:1" d="M 827.305,48.0074 812.636,37.0055 z" id="boundary" inkscape:connector-curvature="0" />
	<path style="fill:none;stroke:red;stroke-width:1px;stroke-linecap:butt;stroke-linejoin:miter;stroke-opacity:1" d="M 827.305,48.0074 830.972,66.3438 z" id="boundary" inkscape:connector-curvature="0" />
	<path style="fill:none;stroke:red;stroke-width:1px;stroke-linecap:butt;stroke-linejoin:miter;stroke-opacity:1" d="M 577.93,75.512 583.431,93.8484 z" id="boundary" inkscape:connector-curvature="0" />
	<path style="fill:none;stroke:red;stroke-width:1px;stroke-linecap:butt;stroke-linejoin:miter;stroke-opacity:1" d="M 583.431,93.8484 592.599,110.351 z" id="boundary" inkscape:connector-curvature="0" />
	<path style="fill:none;stroke:red;stroke-width:1px;stroke-linecap:butt;stroke-linejoin:miter;stroke-opacity:1" d="M 592.599,110.351 592.599,128.688 z" id="boundary" inkscape:connector-curvature="0" />
	<path style="fill:none;stroke:red;stroke-width:1px;stroke-linecap:butt;stroke-linejoin:miter;stroke-opacity:1" d="M 577.93,75.512 570.595,57.1756 z" id="boundary" inkscape:connector-curvature="0" />
	<path style="fill:none;stroke:red;stroke-width:1px;stroke-linecap:butt;stroke-linejoin:miter;stroke-opacity:1" d="M 592.599,128.688 601.767,145.19 z" id="boundary" inkscape:connector-curvature="0" />
	<path style="fill:none;stroke:red;stroke-width:1px;stroke-linecap:butt;stroke-linejoin:miter;stroke-opacity:1" d="M 601.767,145.19 601.767,163.527 z" id="boundary" inkscape:connector-curvature="0" />
	<path style="fill:none;stroke:red;stroke-width:1px;stroke-linecap:butt;stroke-linejoin:miter;stroke-opacity:1" d="M 623.771,156.192 616.436,174.529 z" id="boundary" inkscape:connector-curvature="0" />
	<path style="fill:none;stroke:red;stroke-width:1px;stroke-linecap:butt;stroke-linejoin:miter;stroke-opacity:1" d="M 616.436,174.529 601.767,163.527 z" id="boundary" inkscape:connector-curvature="0" />
	<path style="fill:none;stroke:red;stroke-width:1px;stroke-linecap:butt;stroke-linejoin:miter;stroke-opacity:1" d="M 636.606,106.684 636.606,88.3475 z" id="boundary" inkscape:connector-curvature="0" />
	<path style="fill:none;stroke:red;stroke-width:1px;stroke-linecap:butt;stroke-linejoin:miter;stroke-opacity:1" d="M 834.64,84.6802 830.972,66.3438 z" id="boundary" inkscape:connector-curvature="0" />
	<path style="fill:none;stroke:red;stroke-width:1px;stroke-linecap:butt;stroke-linejoin:miter;stroke-opacity:1" d="M 840.14,103.017 834.64,84.6802 z" id="boundary" inkscape:connector-curvature="0" />
	<path style="fill:none;stroke:red;stroke-width:1px;stroke-linecap:butt;stroke-linejoin:miter;stroke-opacity:1" d="M 623.771,156.192 627.438,134.189 z" id="boundary" inkscape:connector-curvature="0" />
	<path style="fill:none;stroke:red;stroke-width:1px;stroke-linecap:butt;stroke-linejoin:miter;stroke-opacity:1" d="M 627.438,134.189 636.606,106.684 z" id="boundary" inkscape:connector-curvature="0" />
	<path style="fill:none;stroke:red;stroke-width:1px;stroke-linecap:butt;stroke-linejoin:miter;stroke-opacity:1" d="M 840.14,103.017 840.14,121.353 z" id="boundary" inkscape:connector-curvature="0" />
	<path style="fill:none;stroke:red;stroke-width:1px;stroke-linecap:butt;stroke-linejoin:miter;stroke-opacity:1" d="M 840.14,121.353 849.309,137.856 z" id="boundary" inkscape:connector-curvature="0" />
	<path style="fill:none;stroke:red;stroke-width:1px;stroke-linecap:butt;stroke-linejoin:miter;stroke-opacity:1" d="M 849.309,137.856 849.309,156.192 z" id="boundary" inkscape:connector-curvature="0" />
	<path style="fill:none;stroke:red;stroke-width:1px;stroke-linecap:butt;stroke-linejoin:miter;stroke-opacity:1" d="M 849.309,156.192 858.477,172.695 z" id="boundary" inkscape:connector-curvature="0" />
	<path style="fill:none;stroke:red;stroke-width:1px;stroke-linecap:butt;stroke-linejoin:miter;stroke-opacity:1" d="M 858.477,172.695 858.477,191.031 z" id="boundary" inkscape:connector-curvature="0" />
	<path style="fill:none;stroke:red;stroke-width:1px;stroke-linecap:butt;stroke-linejoin:miter;stroke-opacity:1" d="M 867.645,207.534 880.481,222.203 z" id="boundary" inkscape:connector-curvature="0" />
	<path style="fill:none;stroke:red;stroke-width:1px;stroke-linecap:butt;stroke-linejoin:miter;stroke-opacity:1" d="M 867.645,207.534 858.477,191.031 z" id="boundary" inkscape:connector-curvature="0" />
	<path style="fill:none;stroke:red;stroke-width:1px;stroke-linecap:butt;stroke-linejoin:miter;stroke-opacity:1" d="M 880.481,222.203 895.15,235.039 z" id="boundary" inkscape:connector-curvature="0" />
	<path style="fill:none;stroke:red;stroke-width:1px;stroke-linecap:butt;stroke-linejoin:miter;stroke-opacity:1" d="M 895.15,235.039 902.484,253.375 z" id="boundary" inkscape:connector-curvature="0" />
	<path style="fill:none;stroke:red;stroke-width:1px;stroke-linecap:butt;stroke-linejoin:miter;stroke-opacity:1" d="M 902.484,253.375 913.486,268.044 z" id="boundary" inkscape:connector-curvature="0" />
	<path style="fill:none;stroke:red;stroke-width:1px;stroke-linecap:butt;stroke-linejoin:miter;stroke-opacity:1" d="M 913.486,268.044 922.654,284.547 z" id="boundary" inkscape:connector-curvature="0" />
	<path style="fill:none;stroke:red;stroke-width:1px;stroke-linecap:butt;stroke-linejoin:miter;stroke-opacity:1" d="M 922.654,284.547 931.823,301.05 z" id="boundary" inkscape:connector-curvature="0" />
	<path style="fill:none;stroke:red;stroke-width:1px;stroke-linecap:butt;stroke-linejoin:miter;stroke-opacity:1" d="M 940.991,317.553 948.325,335.889 z" id="boundary" inkscape:connector-curvature="0" />
	<path style="fill:none;stroke:red;stroke-width:1px;stroke-linecap:butt;stroke-linejoin:miter;stroke-opacity:1" d="M 931.823,301.05 940.991,317.553 z" id="boundary" inkscape:connector-curvature="0" />
	<path style="fill:none;stroke:red;stroke-width:1px;stroke-linecap:butt;stroke-linejoin:miter;stroke-opacity:1" d="M 957.494,352.392 948.325,335.889 z" id="boundary" inkscape:connector-curvature="0" />
	<path style="fill:none;stroke:red;stroke-width:1px;stroke-linecap:butt;stroke-linejoin:miter;stroke-opacity:1" d="M 957.494,352.392 964.828,370.728 z" id="boundary" inkscape:connector-curvature="0" />
	<path style="fill:none;stroke:red;stroke-width:1px;stroke-linecap:butt;stroke-linejoin:miter;stroke-opacity:1" d="M 973.996,387.231 964.828,370.728 z" id="boundary" inkscape:connector-curvature="0" />
	<path style="fill:none;stroke:red;stroke-width:1px;stroke-linecap:butt;stroke-linejoin:miter;stroke-opacity:1" d="M 931.823,524.754 942.824,539.423 z" id="boundary" inkscape:connector-curvature="0" />
	<path style="fill:none;stroke:red;stroke-width:1px;stroke-linecap:butt;stroke-linejoin:miter;stroke-opacity:1" d="M 922.654,552.259 931.823,524.754 z" id="boundary" inkscape:connector-curvature="0" />
	<path style="fill:none;stroke:red;stroke-width:1px;stroke-linecap:butt;stroke-linejoin:miter;stroke-opacity:1" d="M 977.664,405.567 973.996,387.231 z" id="boundary" inkscape:connector-curvature="0" />
	<path style="fill:none;stroke:red;stroke-width:1px;stroke-linecap:butt;stroke-linejoin:miter;stroke-opacity:1" d="M 948.325,557.76 942.824,539.423 z" id="boundary" inkscape:connector-curvature="0" />
	<path style="fill:none;stroke:red;stroke-width:1px;stroke-linecap:butt;stroke-linejoin:miter;stroke-opacity:1" d="M 922.654,570.595 922.654,552.259 z" id="boundary" inkscape:connector-curvature="0" />
	<path style="fill:none;stroke:red;stroke-width:1px;stroke-linecap:butt;stroke-linejoin:miter;stroke-opacity:1" d="M 948.325,557.76 957.494,574.262 z" id="boundary" inkscape:connector-curvature="0" />
	<path style="fill:none;stroke:red;stroke-width:1px;stroke-linecap:butt;stroke-linejoin:miter;stroke-opacity:1" d="M 913.486,588.932 922.654,570.595 z" id="boundary" inkscape:connector-curvature="0" />
	<path style="fill:none;stroke:red;stroke-width:1px;stroke-linecap:butt;stroke-linejoin:miter;stroke-opacity:1" d="M 977.664,405.567 977.664,433.072 z" id="boundary" inkscape:connector-curvature="0" />
	<path style="fill:none;stroke:red;stroke-width:1px;stroke-linecap:butt;stroke-linejoin:miter;stroke-opacity:1" d="M 977.664,433.072 986.832,449.575 z" id="boundary" inkscape:connector-curvature="0" />
	<path style="fill:none;stroke:red;stroke-width:1px;stroke-linecap:butt;stroke-linejoin:miter;stroke-opacity:1" d="M 986.832,449.575 986.832,467.911 z" id="boundary" inkscape:connector-curvature="0" />
	<path style="fill:none;stroke:red;stroke-width:1px;stroke-linecap:butt;stroke-linejoin:miter;stroke-opacity:1" d="M 986.832,467.911 986.832,486.248 z" id="boundary" inkscape:connector-curvature="0" />
	<path style="fill:none;stroke:red;stroke-width:1px;stroke-linecap:butt;stroke-linejoin:miter;stroke-opacity:1" d="M 996,502.75 986.832,486.248 z" id="boundary" inkscape:connector-curvature="0" />
	<path style="fill:none;stroke:red;stroke-width:1px;stroke-linecap:butt;stroke-linejoin:miter;stroke-opacity:1" d="M 996,502.75 996,521.087 z" id="boundary" inkscape:connector-curvature="0" />
	<path style="fill:none;stroke:red;stroke-width:1px;stroke-linecap:butt;stroke-linejoin:miter;stroke-opacity:1" d="M 996,539.423 996,557.76 z" id="boundary" inkscape:connector-curvature="0" />
	<path style="fill:none;stroke:red;stroke-width:1px;stroke-linecap:butt;stroke-linejoin:miter;stroke-opacity:1" d="M 996,521.087 996,539.423 z" id="boundary" inkscape:connector-curvature="0" />
	<path style="fill:none;stroke:red;stroke-width:1px;stroke-linecap:butt;stroke-linejoin:miter;stroke-opacity:1" d="M 996,557.76 996,576.096 z" id="boundary" inkscape:connector-curvature="0" />
	<path style="fill:none;stroke:red;stroke-width:1px;stroke-linecap:butt;stroke-linejoin:miter;stroke-opacity:1" d="M 552.259,662.277 570.595,662.277 z" id="boundary" inkscape:connector-curvature="0" />
	<path style="fill:none;stroke:red;stroke-width:1px;stroke-linecap:butt;stroke-linejoin:miter;stroke-opacity:1" d="M 535.756,671.445 552.259,662.277 z" id="boundary" inkscape:connector-curvature="0" />
	<path style="fill:none;stroke:red;stroke-width:1px;stroke-linecap:butt;stroke-linejoin:miter;stroke-opacity:1" d="M 587.098,653.109 570.595,662.277 z" id="boundary" inkscape:connector-curvature="0" />
	<path style="fill:none;stroke:red;stroke-width:1px;stroke-linecap:butt;stroke-linejoin:miter;stroke-opacity:1" d="M 587.098,653.109 605.434,653.109 z" id="boundary" inkscape:connector-curvature="0" />
	<path style="fill:none;stroke:red;stroke-width:1px;stroke-linecap:butt;stroke-linejoin:miter;stroke-opacity:1" d="M 605.434,653.109 623.771,653.109 z" id="boundary" inkscape:connector-curvature="0" />
	<path style="fill:none;stroke:red;stroke-width:1px;stroke-linecap:butt;stroke-linejoin:miter;stroke-opacity:1" d="M 499.083,671.445 517.42,675.113 z" id="boundary" inkscape:connector-curvature="0" />
	<path style="fill:none;stroke:red;stroke-width:1px;stroke-linecap:butt;stroke-linejoin:miter;stroke-opacity:1" d="M 499.083,671.445 480.747,671.445 z" id="boundary" inkscape:connector-curvature="0" />
	<path style="fill:none;stroke:red;stroke-width:1px;stroke-linecap:butt;stroke-linejoin:miter;stroke-opacity:1" d="M 517.42,675.113 535.756,671.445 z" id="boundary" inkscape:connector-curvature="0" />
	<path style="fill:none;stroke:red;stroke-width:1px;stroke-linecap:butt;stroke-linejoin:miter;stroke-opacity:1" d="M 656.776,634.773 671.445,621.937 z" id="boundary" inkscape:connector-curvature="0" />
	<path style="fill:none;stroke:red;stroke-width:1px;stroke-linecap:butt;stroke-linejoin:miter;stroke-opacity:1" d="M 671.445,621.937 689.782,625.604 z" id="boundary" inkscape:connector-curvature="0" />
	<path style="fill:none;stroke:red;stroke-width:1px;stroke-linecap:butt;stroke-linejoin:miter;stroke-opacity:1" d="M 656.776,634.773 640.274,643.941 z" id="boundary" inkscape:connector-curvature="0" />
	<path style="fill:none;stroke:red;stroke-width:1px;stroke-linecap:butt;stroke-linejoin:miter;stroke-opacity:1" d="M 689.782,625.604 702.617,640.274 z" id="boundary" inkscape:connector-curvature="0" />
	<path style="fill:none;stroke:red;stroke-width:1px;stroke-linecap:butt;stroke-linejoin:miter;stroke-opacity:1" d="M 702.617,640.274 711.786,656.776 z" id="boundary" inkscape:connector-curvature="0" />
	<path style="fill:none;stroke:red;stroke-width:1px;stroke-linecap:butt;stroke-linejoin:miter;stroke-opacity:1" d="M 623.771,653.109 640.274,643.941 z" id="boundary" inkscape:connector-curvature="0" />
	<path style="fill:none;stroke:red;stroke-width:1px;stroke-linecap:butt;stroke-linejoin:miter;stroke-opacity:1" d="M 711.786,656.776 724.621,671.445 z" id="boundary" inkscape:connector-curvature="0" />
	<path style="fill:none;stroke:red;stroke-width:1px;stroke-linecap:butt;stroke-linejoin:miter;stroke-opacity:1" d="M 645.774,902.484 636.606,885.982 z" id="boundary" inkscape:connector-curvature="0" />
	<path style="fill:none;stroke:red;stroke-width:1px;stroke-linecap:butt;stroke-linejoin:miter;stroke-opacity:1" d="M 636.606,885.982 651.275,871.312 z" id="boundary" inkscape:connector-curvature="0" />
	<path style="fill:none;stroke:red;stroke-width:1px;stroke-linecap:butt;stroke-linejoin:miter;stroke-opacity:1" d="M 651.275,871.312 667.778,862.144 z" id="boundary" inkscape:connector-curvature="0" />
	<path style="fill:none;stroke:red;stroke-width:1px;stroke-linecap:butt;stroke-linejoin:miter;stroke-opacity:1" d="M 686.115,862.144 667.778,862.144 z" id="boundary" inkscape:connector-curvature="0" />
	<path style="fill:none;stroke:red;stroke-width:1px;stroke-linecap:butt;stroke-linejoin:miter;stroke-opacity:1" d="M 702.617,852.976 686.115,862.144 z" id="boundary" inkscape:connector-curvature="0" />
	<path style="fill:none;stroke:red;stroke-width:1px;stroke-linecap:butt;stroke-linejoin:miter;stroke-opacity:1" d="M 645.774,902.484 658.61,917.153 z" id="boundary" inkscape:connector-curvature="0" />
	<path style="fill:none;stroke:red;stroke-width:1px;stroke-linecap:butt;stroke-linejoin:miter;stroke-opacity:1" d="M 676.946,924.488 695.283,918.987 z" id="boundary" inkscape:connector-curvature="0" />
	<path style="fill:none;stroke:red;stroke-width:1px;stroke-linecap:butt;stroke-linejoin:miter;stroke-opacity:1" d="M 695.283,918.987 713.619,918.987 z" id="boundary" inkscape:connector-curvature="0" />
	<path style="fill:none;stroke:red;stroke-width:1px;stroke-linecap:butt;stroke-linejoin:miter;stroke-opacity:1" d="M 676.946,924.488 658.61,917.153 z" id="boundary" inkscape:connector-curvature="0" />
	<path style="fill:none;stroke:red;stroke-width:1px;stroke-linecap:butt;stroke-linejoin:miter;stroke-opacity:1" d="M 702.617,852.976 720.954,852.976 z" id="boundary" inkscape:connector-curvature="0" />
	<path style="fill:none;stroke:red;stroke-width:1px;stroke-linecap:butt;stroke-linejoin:miter;stroke-opacity:1" d="M 724.621,671.445 739.29,684.281 z" id="boundary" inkscape:connector-curvature="0" />
	<path style="fill:none;stroke:red;stroke-width:1px;stroke-linecap:butt;stroke-linejoin:miter;stroke-opacity:1" d="M 755.793,693.449 739.29,684.281 z" id="boundary" inkscape:connector-curvature="0" />
	<path style="fill:none;stroke:red;stroke-width:1px;stroke-linecap:butt;stroke-linejoin:miter;stroke-opacity:1" d="M 739.29,852.976 720.954,852.976 z" id="boundary" inkscape:connector-curvature="0" />
	<path style="fill:none;stroke:red;stroke-width:1px;stroke-linecap:butt;stroke-linejoin:miter;stroke-opacity:1" d="M 713.619,918.987 731.956,918.987 z" id="boundary" inkscape:connector-curvature="0" />
	<path style="fill:none;stroke:red;stroke-width:1px;stroke-linecap:butt;stroke-linejoin:miter;stroke-opacity:1" d="M 750.292,918.987 731.956,918.987 z" id="boundary" inkscape:connector-curvature="0" />
	<path style="fill:none;stroke:red;stroke-width:1px;stroke-linecap:butt;stroke-linejoin:miter;stroke-opacity:1" d="M 739.29,852.976 757.627,847.475 z" id="boundary" inkscape:connector-curvature="0" />
	<path style="fill:none;stroke:red;stroke-width:1px;stroke-linecap:butt;stroke-linejoin:miter;stroke-opacity:1" d="M 755.793,693.449 764.961,709.952 z" id="boundary" inkscape:connector-curvature="0" />
	<path style="fill:none;stroke:red;stroke-width:1px;stroke-linecap:butt;stroke-linejoin:miter;stroke-opacity:1" d="M 895.15,689.782 891.482,713.619 z" id="boundary" inkscape:connector-curvature="0" />
	<path style="fill:none;stroke:red;stroke-width:1px;stroke-linecap:butt;stroke-linejoin:miter;stroke-opacity:1" d="M 891.482,713.619 876.813,726.455 z" id="boundary" inkscape:connector-curvature="0" />
	<path style="fill:none;stroke:red;stroke-width:1px;stroke-linecap:butt;stroke-linejoin:miter;stroke-opacity:1" d="M 904.318,669.612 895.15,689.782 z" id="boundary" inkscape:connector-curvature="0" />
	<path style="fill:none;stroke:red;stroke-width:1px;stroke-linecap:butt;stroke-linejoin:miter;stroke-opacity:1" d="M 764.961,746.625 764.961,764.961 z" id="boundary" inkscape:connector-curvature="0" />
	<path style="fill:none;stroke:red;stroke-width:1px;stroke-linecap:butt;stroke-linejoin:miter;stroke-opacity:1" d="M 764.961,746.625 764.961,728.288 z" id="boundary" inkscape:connector-curvature="0" />
	<path style="fill:none;stroke:red;stroke-width:1px;stroke-linecap:butt;stroke-linejoin:miter;stroke-opacity:1" d="M 867.645,753.959 876.813,726.455 z" id="boundary" inkscape:connector-curvature="0" />
	<path style="fill:none;stroke:red;stroke-width:1px;stroke-linecap:butt;stroke-linejoin:miter;stroke-opacity:1" d="M 764.961,728.288 764.961,709.952 z" id="boundary" inkscape:connector-curvature="0" />
	<path style="fill:none;stroke:red;stroke-width:1px;stroke-linecap:butt;stroke-linejoin:miter;stroke-opacity:1" d="M 867.645,772.296 867.645,753.959 z" id="boundary" inkscape:connector-curvature="0" />
	<path style="fill:none;stroke:red;stroke-width:1px;stroke-linecap:butt;stroke-linejoin:miter;stroke-opacity:1" d="M 904.318,607.268 913.486,588.932 z" id="boundary" inkscape:connector-curvature="0" />
	<path style="fill:none;stroke:red;stroke-width:1px;stroke-linecap:butt;stroke-linejoin:miter;stroke-opacity:1" d="M 957.494,574.262 966.662,590.765 z" id="boundary" inkscape:connector-curvature="0" />
	<path style="fill:none;stroke:red;stroke-width:1px;stroke-linecap:butt;stroke-linejoin:miter;stroke-opacity:1" d="M 996,576.096 996,594.433 z" id="boundary" inkscape:connector-curvature="0" />
	<path style="fill:none;stroke:red;stroke-width:1px;stroke-linecap:butt;stroke-linejoin:miter;stroke-opacity:1" d="M 979.497,605.434 966.662,590.765 z" id="boundary" inkscape:connector-curvature="0" />
	<path style="fill:none;stroke:red;stroke-width:1px;stroke-linecap:butt;stroke-linejoin:miter;stroke-opacity:1" d="M 996,594.433 979.497,605.434 z" id="boundary" inkscape:connector-curvature="0" />
	<path style="fill:none;stroke:red;stroke-width:1px;stroke-linecap:butt;stroke-linejoin:miter;stroke-opacity:1" d="M 904.318,651.275 895.15,634.773 z" id="boundary" inkscape:connector-curvature="0" />
	<path style="fill:none;stroke:red;stroke-width:1px;stroke-linecap:butt;stroke-linejoin:miter;stroke-opacity:1" d="M 895.15,634.773 904.318,607.268 z" id="boundary" inkscape:connector-curvature="0" />
	<path style="fill:none;stroke:red;stroke-width:1px;stroke-linecap:butt;stroke-linejoin:miter;stroke-opacity:1" d="M 904.318,669.612 904.318,651.275 z" id="boundary" inkscape:connector-curvature="0" />
	<path style="fill:none;stroke:red;stroke-width:1px;stroke-linecap:butt;stroke-linejoin:miter;stroke-opacity:1" d="M 764.961,783.298 764.961,801.634 z" id="boundary" inkscape:connector-curvature="0" />
	<path style="fill:none;stroke:red;stroke-width:1px;stroke-linecap:butt;stroke-linejoin:miter;stroke-opacity:1" d="M 764.961,819.97 757.627,847.475 z" id="boundary" inkscape:connector-curvature="0" />
	<path style="fill:none;stroke:red;stroke-width:1px;stroke-linecap:butt;stroke-linejoin:miter;stroke-opacity:1" d="M 764.961,819.97 764.961,801.634 z" id="boundary" inkscape:connector-curvature="0" />
	<path style="fill:none;stroke:red;stroke-width:1px;stroke-linecap:butt;stroke-linejoin:miter;stroke-opacity:1" d="M 768.628,918.987 750.292,918.987 z" id="boundary" inkscape:connector-curvature="0" />
	<path style="fill:none;stroke:red;stroke-width:1px;stroke-linecap:butt;stroke-linejoin:miter;stroke-opacity:1" d="M 805.301,918.987 786.965,924.488 z" id="boundary" inkscape:connector-curvature="0" />
	<path style="fill:none;stroke:red;stroke-width:1px;stroke-linecap:butt;stroke-linejoin:miter;stroke-opacity:1" d="M 786.965,924.488 768.628,918.987 z" id="boundary" inkscape:connector-curvature="0" />
	<path style="fill:none;stroke:red;stroke-width:1px;stroke-linecap:butt;stroke-linejoin:miter;stroke-opacity:1" d="M 821.804,909.819 805.301,918.987 z" id="boundary" inkscape:connector-curvature="0" />
	<path style="fill:none;stroke:red;stroke-width:1px;stroke-linecap:butt;stroke-linejoin:miter;stroke-opacity:1" d="M 764.961,783.298 764.961,764.961 z" id="boundary" inkscape:connector-curvature="0" />
	<path style="fill:none;stroke:red;stroke-width:1px;stroke-linecap:butt;stroke-linejoin:miter;stroke-opacity:1" d="M 840.14,836.473 849.309,818.137 z" id="boundary" inkscape:connector-curvature="0" />
	<path style="fill:none;stroke:red;stroke-width:1px;stroke-linecap:butt;stroke-linejoin:miter;stroke-opacity:1" d="M 849.309,818.137 858.477,790.632 z" id="boundary" inkscape:connector-curvature="0" />
	<path style="fill:none;stroke:red;stroke-width:1px;stroke-linecap:butt;stroke-linejoin:miter;stroke-opacity:1" d="M 858.477,790.632 867.645,772.296 z" id="boundary" inkscape:connector-curvature="0" />
	<path style="fill:none;stroke:red;stroke-width:1px;stroke-linecap:butt;stroke-linejoin:miter;stroke-opacity:1" d="M 840.14,900.651 821.804,909.819 z" id="boundary" inkscape:connector-curvature="0" />
	<path style="fill:none;stroke:red;stroke-width:1px;stroke-linecap:butt;stroke-linejoin:miter;stroke-opacity:1" d="M 840.14,900.651 849.309,871.312 z" id="boundary" inkscape:connector-curvature="0" />
	<path style="fill:none;stroke:red;stroke-width:1px;stroke-linecap:butt;stroke-linejoin:miter;stroke-opacity:1" d="M 840.14,854.81 849.309,871.312 z" id="boundary" inkscape:connector-curvature="0" />
	<path style="fill:none;stroke:red;stroke-width:1px;stroke-linecap:butt;stroke-linejoin:miter;stroke-opacity:1" d="M 840.14,854.81 840.14,836.473 z" id="boundary" inkscape:connector-curvature="0" />
	<circle cx="4" cy="207.534" r="4" fill="#0" id="circle0"/>
	<circle cx="13.1682" cy="161.693" r="4" fill="#0" id="circle1"/>
	<circle cx="13.1682" cy="180.03" r="4" fill="#0" id="circle2"/>
	<circle cx="13.1682" cy="224.037" r="4" fill="#0" id="circle3"/>
	<circle cx="22.3364" cy="143.357" r="4" fill="#0" id="circle4"/>
	<circle cx="22.3364" cy="363.394" r="4" fill="#0" id="circle5"/>
	<circle cx="26.0037" cy="238.706" r="4" fill="#0" id="circle6"/>
	<circle cx="31.5046" cy="345.057" r="4" fill="#0" id="circle7"/>
	<circle cx="31.5046" cy="379.896" r="4" fill="#0" id="circle8"/>
	<circle cx="31.5046" cy="398.233" r="4" fill="#0" id="circle9"/>
	<circle cx="31.5046" cy="416.569" r="4" fill="#0" id="circle10"/>
	<circle cx="31.5046" cy="436.739" r="4" fill="#0" id="circle11"/>
	<circle cx="31.5046" cy="455.076" r="4" fill="#0" id="circle12"/>
	<circle cx="31.5046" cy="473.412" r="4" fill="#0" id="circle13"/>
	<circle cx="31.5046" cy="510.085" r="4" fill="#0" id="circle14"/>
	<circle cx="31.5046" cy="528.421" r="4" fill="#0" id="circle15"/>
	<circle cx="31.5046" cy="546.758" r="4" fill="#0" id="circle16"/>
	<circle cx="37.0055" cy="128.688" r="4" fill="#0" id="circle17"/>
	<circle cx="40.6728" cy="489.915" r="4" fill="#0" id="circle18"/>
	<circle cx="40.6728" cy="563.261" r="4" fill="#0" id="circle19"/>
	<circle cx="44.3401" cy="246.041" r="4" fill="#0" id="circle20"/>
	<circle cx="46.1738" cy="330.388" r="4" fill="#0" id="circle21"/>
	<circle cx="49.841" cy="579.763" r="4" fill="#0" id="circle22"/>
	<circle cx="53.5083" cy="119.519" r="4" fill="#0" id="circle23"/>
	<circle cx="55.342" cy="312.052" r="4" fill="#0" id="circle24"/>
	<circle cx="55.342" cy="598.1" r="4" fill="#0" id="circle25"/>
	<circle cx="59.0092" cy="616.436" r="4" fill="#0" id="circle26"/>
	<circle cx="59.0092" cy="638.44" r="4" fill="#0" id="circle27"/>
	<circle cx="62.6765" cy="249.708" r="4" fill="#0" id="circle28"/>
	<circle cx="64.5102" cy="293.715" r="4" fill="#0" id="circle29"/>
	<circle cx="68.1774" cy="106.684" r="4" fill="#0" id="circle30"/>
	<circle cx="68.1774" cy="271.712" r="4" fill="#0" id="circle31"/>
	<circle cx="68.1774" cy="654.943" r="4" fill="#0" id="circle32"/>
	<circle cx="86.5139" cy="97.5157" r="4" fill="#0" id="circle33"/>
	<circle cx="86.5139" cy="662.277" r="4" fill="#0" id="circle34"/>
	<circle cx="103.017" cy="671.445" r="4" fill="#0" id="circle35"/>
	<circle cx="104.85" cy="88.3475" r="4" fill="#0" id="circle36"/>
	<circle cx="115.852" cy="686.115" r="4" fill="#0" id="circle37"/>
	<circle cx="123.187" cy="79.1793" r="4" fill="#0" id="circle38"/>
	<circle cx="130.521" cy="698.95" r="4" fill="#0" id="circle39"/>
	<circle cx="132.355" cy="33.3383" r="4" fill="#0" id="circle40"/>
	<circle cx="132.355" cy="51.6747" r="4" fill="#0" id="circle41"/>
	<circle cx="147.024" cy="708.118" r="4" fill="#0" id="circle42"/>
	<circle cx="150.691" cy="15.0018" r="4" fill="#0" id="circle43"/>
	<circle cx="150.691" cy="876.813" r="4" fill="#0" id="circle44"/>
	<circle cx="159.86" cy="893.316" r="4" fill="#0" id="circle45"/>
	<circle cx="163.527" cy="717.287" r="4" fill="#0" id="circle46"/>
	<circle cx="165.36" cy="862.144" r="4" fill="#0" id="circle47"/>
	<circle cx="169.028" cy="9.50092" r="4" fill="#0" id="circle48"/>
	<circle cx="178.196" cy="900.651" r="4" fill="#0" id="circle49"/>
	<circle cx="181.863" cy="722.787" r="4" fill="#0" id="circle50"/>
	<circle cx="183.697" cy="852.976" r="4" fill="#0" id="circle51"/>
	<circle cx="187.364" cy="4" r="4" fill="#0" id="circle52"/>
	<circle cx="189.198" cy="915.32" r="4" fill="#0" id="circle53"/>
	<circle cx="200.2" cy="726.455" r="4" fill="#0" id="circle54"/>
	<circle cx="202.033" cy="852.976" r="4" fill="#0" id="circle55"/>
	<circle cx="203.867" cy="13.1682" r="4" fill="#0" id="circle56"/>
	<circle cx="207.534" cy="918.987" r="4" fill="#0" id="circle57"/>
	<circle cx="216.702" cy="735.623" r="4" fill="#0" id="circle58"/>
	<circle cx="220.37" cy="843.808" r="4" fill="#0" id="circle59"/>
	<circle cx="222.203" cy="18.6691" r="4" fill="#0" id="circle60"/>
	<circle cx="225.871" cy="918.987" r="4" fill="#0" id="circle61"/>
	<circle cx="233.205" cy="744.791" r="4" fill="#0" id="circle62"/>
	<circle cx="238.706" cy="843.808" r="4" fill="#0" id="circle63"/>
	<circle cx="240.54" cy="20.5028" r="4" fill="#0" id="circle64"/>
	<circle cx="244.207" cy="918.987" r="4" fill="#0" id="circle65"/>
	<circle cx="247.874" cy="825.471" r="4" fill="#0" id="circle66"/>
	<circle cx="249.708" cy="753.959" r="4" fill="#0" id="circle67"/>
	<circle cx="251.542" cy="794.299" r="4" fill="#0" id="circle68"/>
	<circle cx="258.876" cy="18.6691" r="4" fill="#0" id="circle69"/>
	<circle cx="262.543" cy="768.628" r="4" fill="#0" id="circle70"/>
	<circle cx="262.543" cy="918.987" r="4" fill="#0" id="circle71"/>
	<circle cx="271.712" cy="222.203" r="4" fill="#0" id="circle72"/>
	<circle cx="271.712" cy="249.708" r="4" fill="#0" id="circle73"/>
	<circle cx="271.712" cy="268.044" r="4" fill="#0" id="circle74"/>
	<circle cx="271.712" cy="286.381" r="4" fill="#0" id="circle75"/>
	<circle cx="271.712" cy="304.717" r="4" fill="#0" id="circle76"/>
	<circle cx="277.213" cy="20.5028" r="4" fill="#0" id="circle77"/>
	<circle cx="280.88" cy="121.353" r="4" fill="#0" id="circle78"/>
	<circle cx="280.88" cy="194.699" r="4" fill="#0" id="circle79"/>
	<circle cx="280.88" cy="321.22" r="4" fill="#0" id="circle80"/>
	<circle cx="280.88" cy="339.556" r="4" fill="#0" id="circle81"/>
	<circle cx="280.88" cy="918.987" r="4" fill="#0" id="circle82"/>
	<circle cx="290.048" cy="137.856" r="4" fill="#0" id="circle83"/>
	<circle cx="290.048" cy="156.192" r="4" fill="#0" id="circle84"/>
	<circle cx="290.048" cy="174.529" r="4" fill="#0" id="circle85"/>
	<circle cx="293.715" cy="29.671" r="4" fill="#0" id="circle86"/>
	<circle cx="299.216" cy="103.017" r="4" fill="#0" id="circle87"/>
	<circle cx="299.216" cy="321.22" r="4" fill="#0" id="circle88"/>
	<circle cx="299.216" cy="918.987" r="4" fill="#0" id="circle89"/>
	<circle cx="306.551" cy="299.216" r="4" fill="#0" id="circle90"/>
	<circle cx="308.384" cy="42.5065" r="4" fill="#0" id="circle91"/>
	<circle cx="313.885" cy="90.1811" r="4" fill="#0" id="circle92"/>
	<circle cx="315.719" cy="60.8429" r="4" fill="#0" id="circle93"/>
	<circle cx="317.553" cy="909.819" r="4" fill="#0" id="circle94"/>
	<circle cx="321.22" cy="284.547" r="4" fill="#0" id="circle95"/>
	<circle cx="330.388" cy="266.211" r="4" fill="#0" id="circle96"/>
	<circle cx="335.889" cy="909.819" r="4" fill="#0" id="circle97"/>
	<circle cx="343.224" cy="244.207" r="4" fill="#0" id="circle98"/>
	<circle cx="352.392" cy="198.366" r="4" fill="#0" id="circle99"/>
	<circle cx="352.392" cy="216.702" r="4" fill="#0" id="circle100"/>
	<circle cx="352.392" cy="900.651" r="4" fill="#0" id="circle101"/>
	<circle cx="361.56" cy="170.861" r="4" fill="#0" id="circle102"/>
	<circle cx="370.728" cy="143.357" r="4" fill="#0" id="circle103"/>
	<circle cx="370.728" cy="895.15" r="4" fill="#0" id="circle104"/>
	<circle cx="379.896" cy="125.02" r="4" fill="#0" id="circle105"/>
	<circle cx="381.73" cy="799.8" r="4" fill="#0" id="circle106"/>
	<circle cx="381.73" cy="818.137" r="4" fill="#0" id="circle107"/>
	<circle cx="389.065" cy="88.3475" r="4" fill="#0" id="circle108"/>
	<circle cx="389.065" cy="106.684" r="4" fill="#0" id="circle109"/>
	<circle cx="389.065" cy="885.982" r="4" fill="#0" id="circle110"/>
	<circle cx="390.898" cy="735.623" r="4" fill="#0" id="circle111"/>
	<circle cx="390.898" cy="763.128" r="4" fill="#0" id="circle112"/>
	<circle cx="390.898" cy="781.464" r="4" fill="#0" id="circle113"/>
	<circle cx="390.898" cy="834.64" r="4" fill="#0" id="circle114"/>
	<circle cx="390.898" cy="852.976" r="4" fill="#0" id="circle115"/>
	<circle cx="403.734" cy="73.6784" r="4" fill="#0" id="circle116"/>
	<circle cx="405.567" cy="722.787" r="4" fill="#0" id="circle117"/>
	<circle cx="412.902" cy="55.342" r="4" fill="#0" id="circle118"/>
	<circle cx="418.403" cy="708.118" r="4" fill="#0" id="circle119"/>
	<circle cx="427.571" cy="40.6728" r="4" fill="#0" id="circle120"/>
	<circle cx="433.072" cy="695.283" r="4" fill="#0" id="circle121"/>
	<circle cx="442.24" cy="27.8373" r="4" fill="#0" id="circle122"/>
	<circle cx="445.908" cy="680.614" r="4" fill="#0" id="circle123"/>
	<circle cx="458.743" cy="18.6691" r="4" fill="#0" id="circle124"/>
	<circle cx="464.244" cy="680.614" r="4" fill="#0" id="circle125"/>
	<circle cx="477.079" cy="18.6691" r="4" fill="#0" id="circle126"/>
	<circle cx="480.747" cy="671.445" r="4" fill="#0" id="circle127"/>
	<circle cx="495.416" cy="18.6691" r="4" fill="#0" id="circle128"/>
	<circle cx="499.083" cy="671.445" r="4" fill="#0" id="circle129"/>
	<circle cx="513.752" cy="18.6691" r="4" fill="#0" id="circle130"/>
	<circle cx="517.42" cy="675.113" r="4" fill="#0" id="circle131"/>
	<circle cx="532.089" cy="18.6691" r="4" fill="#0" id="circle132"/>
	<circle cx="535.756" cy="671.445" r="4" fill="#0" id="circle133"/>
	<circle cx="548.591" cy="27.8373" r="4" fill="#0" id="circle134"/>
	<circle cx="552.259" cy="662.277" r="4" fill="#0" id="circle135"/>
	<circle cx="555.926" cy="46.1738" r="4" fill="#0" id="circle136"/>
	<circle cx="570.595" cy="57.1756" r="4" fill="#0" id="circle137"/>
	<circle cx="570.595" cy="662.277" r="4" fill="#0" id="circle138"/>
	<circle cx="577.93" cy="75.512" r="4" fill="#0" id="circle139"/>
	<circle cx="583.431" cy="93.8484" r="4" fill="#0" id="circle140"/>
	<circle cx="587.098" cy="653.109" r="4" fill="#0" id="circle141"/>
	<circle cx="592.599" cy="110.351" r="4" fill="#0" id="circle142"/>
	<circle cx="592.599" cy="128.688" r="4" fill="#0" id="circle143"/>
	<circle cx="601.767" cy="145.19" r="4" fill="#0" id="circle144"/>
	<circle cx="601.767" cy="163.527" r="4" fill="#0" id="circle145"/>
	<circle cx="605.434" cy="653.109" r="4" fill="#0" id="circle146"/>
	<circle cx="616.436" cy="174.529" r="4" fill="#0" id="circle147"/>
	<circle cx="623.771" cy="156.192" r="4" fill="#0" id="circle148"/>
	<circle cx="623.771" cy="653.109" r="4" fill="#0" id="circle149"/>
	<circle cx="627.438" cy="134.189" r="4" fill="#0" id="circle150"/>
	<circle cx="636.606" cy="88.3475" r="4" fill="#0" id="circle151"/>
	<circle cx="636.606" cy="106.684" r="4" fill="#0" id="circle152"/>
	<circle cx="636.606" cy="885.982" r="4" fill="#0" id="circle153"/>
	<circle cx="640.274" cy="643.941" r="4" fill="#0" id="circle154"/>
	<circle cx="645.774" cy="902.484" r="4" fill="#0" id="circle155"/>
	<circle cx="651.275" cy="73.6784" r="4" fill="#0" id="circle156"/>
	<circle cx="651.275" cy="871.312" r="4" fill="#0" id="circle157"/>
	<circle cx="654.943" cy="51.6747" r="4" fill="#0" id="circle158"/>
	<circle cx="656.776" cy="634.773" r="4" fill="#0" id="circle159"/>
	<circle cx="658.61" cy="917.153" r="4" fill="#0" id="circle160"/>
	<circle cx="667.778" cy="862.144" r="4" fill="#0" id="circle161"/>
	<circle cx="671.445" cy="621.937" r="4" fill="#0" id="circle162"/>
	<circle cx="673.279" cy="33.3383" r="4" fill="#0" id="circle163"/>
	<circle cx="676.946" cy="924.488" r="4" fill="#0" id="circle164"/>
	<circle cx="686.115" cy="862.144" r="4" fill="#0" id="circle165"/>
	<circle cx="689.782" cy="625.604" r="4" fill="#0" id="circle166"/>
	<circle cx="691.616" cy="24.1701" r="4" fill="#0" id="circle167"/>
	<circle cx="695.283" cy="918.987" r="4" fill="#0" id="circle168"/>
	<circle cx="702.617" cy="640.274" r="4" fill="#0" id="circle169"/>
	<circle cx="702.617" cy="852.976" r="4" fill="#0" id="circle170"/>
	<circle cx="709.952" cy="15.0018" r="4" fill="#0" id="circle171"/>
	<circle cx="711.786" cy="656.776" r="4" fill="#0" id="circle172"/>
	<circle cx="713.619" cy="918.987" r="4" fill="#0" id="circle173"/>
	<circle cx="720.954" cy="852.976" r="4" fill="#0" id="circle174"/>
	<circle cx="724.621" cy="671.445" r="4" fill="#0" id="circle175"/>
	<circle cx="728.288" cy="9.50092" r="4" fill="#0" id="circle176"/>
	<circle cx="731.956" cy="918.987" r="4" fill="#0" id="circle177"/>
	<circle cx="739.29" cy="684.281" r="4" fill="#0" id="circle178"/>
	<circle cx="739.29" cy="852.976" r="4" fill="#0" id="circle179"/>
	<circle cx="746.625" cy="4" r="4" fill="#0" id="circle180"/>
	<circle cx="750.292" cy="918.987" r="4" fill="#0" id="circle181"/>
	<circle cx="755.793" cy="693.449" r="4" fill="#0" id="circle182"/>
	<circle cx="757.627" cy="847.475" r="4" fill="#0" id="circle183"/>
	<circle cx="764.961" cy="5.83364" r="4" fill="#0" id="circle184"/>
	<circle cx="764.961" cy="709.952" r="4" fill="#0" id="circle185"/>
	<circle cx="764.961" cy="728.288" r="4" fill="#0" id="circle186"/>
	<circle cx="764.961" cy="746.625" r="4" fill="#0" id="circle187"/>
	<circle cx="764.961" cy="764.961" r="4" fill="#0" id="circle188"/>
	<circle cx="764.961" cy="783.298" r="4" fill="#0" id="circle189"/>
	<circle cx="764.961" cy="801.634" r="4" fill="#0" id="circle190"/>
	<circle cx="764.961" cy="819.97" r="4" fill="#0" id="circle191"/>
	<circle cx="768.628" cy="918.987" r="4" fill="#0" id="circle192"/>
	<circle cx="783.298" cy="13.1682" r="4" fill="#0" id="circle193"/>
	<circle cx="786.965" cy="924.488" r="4" fill="#0" id="circle194"/>
	<circle cx="799.8" cy="22.3364" r="4" fill="#0" id="circle195"/>
	<circle cx="805.301" cy="918.987" r="4" fill="#0" id="circle196"/>
	<circle cx="812.636" cy="37.0055" r="4" fill="#0" id="circle197"/>
	<circle cx="821.804" cy="909.819" r="4" fill="#0" id="circle198"/>
	<circle cx="827.305" cy="48.0074" r="4" fill="#0" id="circle199"/>
	<circle cx="830.972" cy="66.3438" r="4" fill="#0" id="circle200"/>
	<circle cx="834.64" cy="84.6802" r="4" fill="#0" id="circle201"/>
	<circle cx="840.14" cy="103.017" r="4" fill="#0" id="circle202"/>
	<circle cx="840.14" cy="121.353" r="4" fill="#0" id="circle203"/>
	<circle cx="840.14" cy="836.473" r="4" fill="#0" id="circle204"/>
	<circle cx="840.14" cy="854.81" r="4" fill="#0" id="circle205"/>
	<circle cx="840.14" cy="900.651" r="4" fill="#0" id="circle206"/>
	<circle cx="849.309" cy="137.856" r="4" fill="#0" id="circle207"/>
	<circle cx="849.309" cy="156.192" r="4" fill="#0" id="circle208"/>
	<circle cx="849.309" cy="818.137" r="4" fill="#0" id="circle209"/>
	<circle cx="849.309" cy="871.312" r="4" fill="#0" id="circle210"/>
	<circle cx="858.477" cy="172.695" r="4" fill="#0" id="circle211"/>
	<circle cx="858.477" cy="191.031" r="4" fill="#0" id="circle212"/>
	<circle cx="858.477" cy="790.632" r="4" fill="#0" id="circle213"/>
	<circle cx="867.645" cy="207.534" r="4" fill="#0" id="circle214"/>
	<circle cx="867.645" cy="753.959" r="4" fill="#0" id="circle215"/>
	<circle cx="867.645" cy="772.296" r="4" fill="#0" id="circle216"/>
	<circle cx="876.813" cy="726.455" r="4" fill="#0" id="circle217"/>
	<circle cx="880.481" cy="222.203" r="4" fill="#0" id="circle218"/>
	<circle cx="891.482" cy="713.619" r="4" fill="#0" id="circle219"/>
	<circle cx="895.15" cy="235.039" r="4" fill="#0" id="circle220"/>
	<circle cx="895.15" cy="634.773" r="4" fill="#0" id="circle221"/>
	<circle cx="895.15" cy="689.782" r="4" fill="#0" id="circle222"/>
	<circle cx="902.484" cy="253.375" r="4" fill="#0" id="circle223"/>
	<circle cx="904.318" cy="607.268" r="4" fill="#0" id="circle224"/>
	<circle cx="904.318" cy="651.275" r="4" fill="#0" id="circle225"/>
	<circle cx="904.318" cy="669.612" r="4" fill="#0" id="circle226"/>
	<circle cx="913.486" cy="268.044" r="4" fill="#0" id="circle227"/>
	<circle cx="913.486" cy="588.932" r="4" fill="#0" id="circle228"/>
	<circle cx="922.654" cy="284.547" r="4" fill="#0" id="circle229"/>
	<circle cx="922.654" cy="552.259" r="4" fill="#0" id="circle230"/>
	<circle cx="922.654" cy="570.595" r="4" fill="#0" id="circle231"/>
	<circle cx="931.823" cy="301.05" r="4" fill="#0" id="circle232"/>
	<circle cx="931.823" cy="524.754" r="4" fill="#0" id="circle233"/>
	<circle cx="940.991" cy="317.553" r="4" fill="#0" id="circle234"/>
	<circle cx="942.824" cy="539.423" r="4" fill="#0" id="circle235"/>
	<circle cx="948.325" cy="335.889" r="4" fill="#0" id="circle236"/>
	<circle cx="948.325" cy="557.76" r="4" fill="#0" id="circle237"/>
	<circle cx="957.494" cy="352.392" r="4" fill="#0" id="circle238"/>
	<circle cx="957.494" cy="574.262" r="4" fill="#0" id="circle239"/>
	<circle cx="964.828" cy="370.728" r="4" fill="#0" id="circle240"/>
	<circle cx="966.662" cy="590.765" r="4" fill="#0" id="circle241"/>
	<circle cx="973.996" cy="387.231" r="4" fill="#0" id="circle242"/>
	<circle cx="977.664" cy="405.567" r="4" fill="#0" id="circle243"/>
	<circle cx="977.664" cy="433.072" r="4" fill="#0" id="circle244"/>
	<circle cx="979.497" cy="605.434" r="4" fill="#0" id="circle245"/>
	<circle cx="986.832" cy="449.575" r="4" fill="#0" id="circle246"/>
	<circle cx="986.832" cy="467.911" r="4" fill="#0" id="circle247"/>
	<circle cx="986.832" cy="486.248" r="4" fill="#0" id="circle248"/>
	<circle cx="996" cy="502.75" r="4" fill="#0" id="circle249"/>
	<circle cx="996" cy="521.087" r="4" fill="#0" id="circle250"/>
	<circle cx="996" cy="539.423" r="4" fill="#0" id="circle251"/>
	<circle cx="996" cy="557.76" r="4" fill="#0" id="circle252"/>
	<circle cx="996" cy="576.096" r="4" fill="#0" id="circle253"/>
	<circle cx="996" cy="594.433" r="4" fill="#0" id="circle254"/>
	</g>
</svg>