<?xml version="1.0" encoding="UTF-8" standalone="no"?>
<!-- Created with CurveBenchmark -->
<svg
	xmlns:dc="http://purl.org/dc/elements/1.1/"
	xmlns:cc="http://creativecommons.org/ns#"
	xmlns:rdf="http://www.w3.org/1999/02/22-rdf-syntax-ns#"
	xmlns:svg="http://www.w3.org/2000/svg"
	xmlns="http://www.w3.org/2000/svg"
	xmlns:sodipodi="http://sodipodi.sourceforge.net/DTD/sodipodi-0.dtd"
	xmlns:inkscape="http://www.inkscape.org/namespaces/inkscape"
	width="1000"
	height="1000"
	id="svg2"
	version="1.1"
	sodipodi:docname="manifold/gathan1-cat30.png.txt">
<defs
	id="defs4" />
<metadata
	id="metadata7">
	<rdf:RDF>
		<cc:Work
			rdf:about="">
			<dc:format>image/svg+xml</dc:format>
			<dc:type
				rdf:resource="http://purl.org/dc/dcmitype/StillImage" />
			<dc:title></dc:title>
		</cc:Work>
	</rdf:RDF>
</metadata>
<g
	inkscape:label="Layer 1"
	inkscape:groupmode="layer"
	id="layer1">
	<path style="fill:none;stroke:red;stroke-width:1px;stroke-linecap:butt;stroke-linejoin:miter;stroke-opacity:1" d="M 64.942,134.348 51.3993,147.891 z" id="boundary" inkscape:connector-curvature="0" />
	<path style="fill:none;stroke:red;stroke-width:1px;stroke-linecap:butt;stroke-linejoin:miter;stroke-opacity:1" d="M 51.3993,147.891 37.8567,161.433 z" id="boundary" inkscape:connector-curvature="0" />
	<path style="fill:none;stroke:red;stroke-width:1px;stroke-linecap:butt;stroke-linejoin:miter;stroke-opacity:1" d="M 71.7133,117.42 64.942,134.348 z" id="boundary" inkscape:connector-curvature="0" />
	<path style="fill:none;stroke:red;stroke-width:1px;stroke-linecap:butt;stroke-linejoin:miter;stroke-opacity:1" d="M 37.8567,161.433 34.471,181.747 z" id="boundary" inkscape:connector-curvature="0" />
	<path style="fill:none;stroke:red;stroke-width:1px;stroke-linecap:butt;stroke-linejoin:miter;stroke-opacity:1" d="M 34.471,181.747 17.5427,190.212 z" id="boundary" inkscape:connector-curvature="0" />
	<path style="fill:none;stroke:red;stroke-width:1px;stroke-linecap:butt;stroke-linejoin:miter;stroke-opacity:1" d="M 17.5427,190.212 4,203.754 z" id="boundary" inkscape:connector-curvature="0" />
	<path style="fill:none;stroke:red;stroke-width:1px;stroke-linecap:butt;stroke-linejoin:miter;stroke-opacity:1" d="M 110.648,114.034 93.7201,107.263 z" id="boundary" inkscape:connector-curvature="0" />
	<path style="fill:none;stroke:red;stroke-width:1px;stroke-linecap:butt;stroke-linejoin:miter;stroke-opacity:1" d="M 93.7201,107.263 80.1775,97.1058 z" id="boundary" inkscape:connector-curvature="0" />
	<path style="fill:none;stroke:red;stroke-width:1px;stroke-linecap:butt;stroke-linejoin:miter;stroke-opacity:1" d="M 125.884,122.498 139.427,134.348 z" id="boundary" inkscape:connector-curvature="0" />
	<path style="fill:none;stroke:red;stroke-width:1px;stroke-linecap:butt;stroke-linejoin:miter;stroke-opacity:1" d="M 110.648,114.034 125.884,122.498 z" id="boundary" inkscape:connector-curvature="0" />
	<path style="fill:none;stroke:red;stroke-width:1px;stroke-linecap:butt;stroke-linejoin:miter;stroke-opacity:1" d="M 139.427,134.348 149.584,147.891 z" id="boundary" inkscape:connector-curvature="0" />
	<path style="fill:none;stroke:red;stroke-width:1px;stroke-linecap:butt;stroke-linejoin:miter;stroke-opacity:1" d="M 166.512,152.969 149.584,147.891 z" id="boundary" inkscape:connector-curvature="0" />
	<path style="fill:none;stroke:red;stroke-width:1px;stroke-linecap:butt;stroke-linejoin:miter;stroke-opacity:1" d="M 63.2491,102.184 80.1775,97.1058 z" id="boundary" inkscape:connector-curvature="0" />
	<path style="fill:none;stroke:red;stroke-width:1px;stroke-linecap:butt;stroke-linejoin:miter;stroke-opacity:1" d="M 4,220.683 4,203.754 z" id="boundary" inkscape:connector-curvature="0" />
	<path style="fill:none;stroke:red;stroke-width:1px;stroke-linecap:butt;stroke-linejoin:miter;stroke-opacity:1" d="M 4,237.611 4,220.683 z" id="boundary" inkscape:connector-curvature="0" />
	<path style="fill:none;stroke:red;stroke-width:1px;stroke-linecap:butt;stroke-linejoin:miter;stroke-opacity:1" d="M 17.5427,249.461 4,237.611 z" id="boundary" inkscape:connector-curvature="0" />
	<path style="fill:none;stroke:red;stroke-width:1px;stroke-linecap:butt;stroke-linejoin:miter;stroke-opacity:1" d="M 48.0137,259.618 31.0853,259.618 z" id="boundary" inkscape:connector-curvature="0" />
	<path style="fill:none;stroke:red;stroke-width:1px;stroke-linecap:butt;stroke-linejoin:miter;stroke-opacity:1" d="M 31.0853,259.618 17.5427,249.461 z" id="boundary" inkscape:connector-curvature="0" />
	<path style="fill:none;stroke:red;stroke-width:1px;stroke-linecap:butt;stroke-linejoin:miter;stroke-opacity:1" d="M 48.0137,259.618 63.2491,268.082 z" id="boundary" inkscape:connector-curvature="0" />
	<path style="fill:none;stroke:red;stroke-width:1px;stroke-linecap:butt;stroke-linejoin:miter;stroke-opacity:1" d="M 78.4846,276.546 63.2491,268.082 z" id="boundary" inkscape:connector-curvature="0" />
	<path style="fill:none;stroke:red;stroke-width:1px;stroke-linecap:butt;stroke-linejoin:miter;stroke-opacity:1" d="M 78.4846,276.546 93.7201,285.01 z" id="boundary" inkscape:connector-curvature="0" />
	<path style="fill:none;stroke:red;stroke-width:1px;stroke-linecap:butt;stroke-linejoin:miter;stroke-opacity:1" d="M 93.7201,285.01 107.263,296.86 z" id="boundary" inkscape:connector-curvature="0" />
	<path style="fill:none;stroke:red;stroke-width:1px;stroke-linecap:butt;stroke-linejoin:miter;stroke-opacity:1" d="M 107.263,296.86 119.113,310.403 z" id="boundary" inkscape:connector-curvature="0" />
	<path style="fill:none;stroke:red;stroke-width:1px;stroke-linecap:butt;stroke-linejoin:miter;stroke-opacity:1" d="M 132.655,322.253 144.505,335.795 z" id="boundary" inkscape:connector-curvature="0" />
	<path style="fill:none;stroke:red;stroke-width:1px;stroke-linecap:butt;stroke-linejoin:miter;stroke-opacity:1" d="M 119.113,310.403 132.655,322.253 z" id="boundary" inkscape:connector-curvature="0" />
	<path style="fill:none;stroke:red;stroke-width:1px;stroke-linecap:butt;stroke-linejoin:miter;stroke-opacity:1" d="M 195.29,173.283 180.055,164.819 z" id="boundary" inkscape:connector-curvature="0" />
	<path style="fill:none;stroke:red;stroke-width:1px;stroke-linecap:butt;stroke-linejoin:miter;stroke-opacity:1" d="M 180.055,164.819 166.512,152.969 z" id="boundary" inkscape:connector-curvature="0" />
	<path style="fill:none;stroke:red;stroke-width:1px;stroke-linecap:butt;stroke-linejoin:miter;stroke-opacity:1" d="M 210.526,181.747 195.29,173.283 z" id="boundary" inkscape:connector-curvature="0" />
	<path style="fill:none;stroke:red;stroke-width:1px;stroke-linecap:butt;stroke-linejoin:miter;stroke-opacity:1" d="M 242.689,190.212 225.761,190.212 z" id="boundary" inkscape:connector-curvature="0" />
	<path style="fill:none;stroke:red;stroke-width:1px;stroke-linecap:butt;stroke-linejoin:miter;stroke-opacity:1" d="M 225.761,190.212 210.526,181.747 z" id="boundary" inkscape:connector-curvature="0" />
	<path style="fill:none;stroke:red;stroke-width:1px;stroke-linecap:butt;stroke-linejoin:miter;stroke-opacity:1" d="M 259.618,190.212 242.689,190.212 z" id="boundary" inkscape:connector-curvature="0" />
	<path style="fill:none;stroke:red;stroke-width:1px;stroke-linecap:butt;stroke-linejoin:miter;stroke-opacity:1" d="M 158.048,347.645 144.505,335.795 z" id="boundary" inkscape:connector-curvature="0" />
	<path style="fill:none;stroke:red;stroke-width:1px;stroke-linecap:butt;stroke-linejoin:miter;stroke-opacity:1" d="M 276.546,190.212 259.618,190.212 z" id="boundary" inkscape:connector-curvature="0" />
	<path style="fill:none;stroke:red;stroke-width:1px;stroke-linecap:butt;stroke-linejoin:miter;stroke-opacity:1" d="M 327.331,190.212 310.403,190.212 z" id="boundary" inkscape:connector-curvature="0" />
	<path style="fill:none;stroke:red;stroke-width:1px;stroke-linecap:butt;stroke-linejoin:miter;stroke-opacity:1" d="M 395.044,190.212 378.116,190.212 z" id="boundary" inkscape:connector-curvature="0" />
	<path style="fill:none;stroke:red;stroke-width:1px;stroke-linecap:butt;stroke-linejoin:miter;stroke-opacity:1" d="M 276.546,190.212 293.474,190.212 z" id="boundary" inkscape:connector-curvature="0" />
	<path style="fill:none;stroke:red;stroke-width:1px;stroke-linecap:butt;stroke-linejoin:miter;stroke-opacity:1" d="M 310.403,190.212 293.474,190.212 z" id="boundary" inkscape:connector-curvature="0" />
	<path style="fill:none;stroke:red;stroke-width:1px;stroke-linecap:butt;stroke-linejoin:miter;stroke-opacity:1" d="M 494.922,181.747 511.85,181.747 z" id="boundary" inkscape:connector-curvature="0" />
	<path style="fill:none;stroke:red;stroke-width:1px;stroke-linecap:butt;stroke-linejoin:miter;stroke-opacity:1" d="M 479.686,190.212 494.922,181.747 z" id="boundary" inkscape:connector-curvature="0" />
	<path style="fill:none;stroke:red;stroke-width:1px;stroke-linecap:butt;stroke-linejoin:miter;stroke-opacity:1" d="M 344.259,190.212 327.331,190.212 z" id="boundary" inkscape:connector-curvature="0" />
	<path style="fill:none;stroke:red;stroke-width:1px;stroke-linecap:butt;stroke-linejoin:miter;stroke-opacity:1" d="M 169.898,361.188 186.826,367.959 z" id="boundary" inkscape:connector-curvature="0" />
	<path style="fill:none;stroke:red;stroke-width:1px;stroke-linecap:butt;stroke-linejoin:miter;stroke-opacity:1" d="M 169.898,361.188 158.048,347.645 z" id="boundary" inkscape:connector-curvature="0" />
	<path style="fill:none;stroke:red;stroke-width:1px;stroke-linecap:butt;stroke-linejoin:miter;stroke-opacity:1" d="M 186.826,367.959 200.369,378.116 z" id="boundary" inkscape:connector-curvature="0" />
	<path style="fill:none;stroke:red;stroke-width:1px;stroke-linecap:butt;stroke-linejoin:miter;stroke-opacity:1" d="M 210.526,391.659 200.369,378.116 z" id="boundary" inkscape:connector-curvature="0" />
	<path style="fill:none;stroke:red;stroke-width:1px;stroke-linecap:butt;stroke-linejoin:miter;stroke-opacity:1" d="M 344.259,190.212 361.188,190.212 z" id="boundary" inkscape:connector-curvature="0" />
	<path style="fill:none;stroke:red;stroke-width:1px;stroke-linecap:butt;stroke-linejoin:miter;stroke-opacity:1" d="M 361.188,190.212 378.116,190.212 z" id="boundary" inkscape:connector-curvature="0" />
	<path style="fill:none;stroke:red;stroke-width:1px;stroke-linecap:butt;stroke-linejoin:miter;stroke-opacity:1" d="M 411.973,190.212 395.044,190.212 z" id="boundary" inkscape:connector-curvature="0" />
	<path style="fill:none;stroke:red;stroke-width:1px;stroke-linecap:butt;stroke-linejoin:miter;stroke-opacity:1" d="M 411.973,190.212 428.901,190.212 z" id="boundary" inkscape:connector-curvature="0" />
	<path style="fill:none;stroke:red;stroke-width:1px;stroke-linecap:butt;stroke-linejoin:miter;stroke-opacity:1" d="M 445.829,190.212 428.901,190.212 z" id="boundary" inkscape:connector-curvature="0" />
	<path style="fill:none;stroke:red;stroke-width:1px;stroke-linecap:butt;stroke-linejoin:miter;stroke-opacity:1" d="M 445.829,190.212 462.758,190.212 z" id="boundary" inkscape:connector-curvature="0" />
	<path style="fill:none;stroke:red;stroke-width:1px;stroke-linecap:butt;stroke-linejoin:miter;stroke-opacity:1" d="M 479.686,190.212 462.758,190.212 z" id="boundary" inkscape:connector-curvature="0" />
	<path style="fill:none;stroke:red;stroke-width:1px;stroke-linecap:butt;stroke-linejoin:miter;stroke-opacity:1" d="M 198.676,500 198.676,483.072 z" id="boundary" inkscape:connector-curvature="0" />
	<path style="fill:none;stroke:red;stroke-width:1px;stroke-linecap:butt;stroke-linejoin:miter;stroke-opacity:1" d="M 198.676,483.072 207.14,457.679 z" id="boundary" inkscape:connector-curvature="0" />
	<path style="fill:none;stroke:red;stroke-width:1px;stroke-linecap:butt;stroke-linejoin:miter;stroke-opacity:1" d="M 198.676,500 185.133,520.314 z" id="boundary" inkscape:connector-curvature="0" />
	<path style="fill:none;stroke:red;stroke-width:1px;stroke-linecap:butt;stroke-linejoin:miter;stroke-opacity:1" d="M 169.898,554.171 156.355,542.321 z" id="boundary" inkscape:connector-curvature="0" />
	<path style="fill:none;stroke:red;stroke-width:1px;stroke-linecap:butt;stroke-linejoin:miter;stroke-opacity:1" d="M 156.355,542.321 169.898,528.778 z" id="boundary" inkscape:connector-curvature="0" />
	<path style="fill:none;stroke:red;stroke-width:1px;stroke-linecap:butt;stroke-linejoin:miter;stroke-opacity:1" d="M 185.133,520.314 169.898,528.778 z" id="boundary" inkscape:connector-curvature="0" />
	<path style="fill:none;stroke:red;stroke-width:1px;stroke-linecap:butt;stroke-linejoin:miter;stroke-opacity:1" d="M 215.604,432.287 217.297,408.587 z" id="boundary" inkscape:connector-curvature="0" />
	<path style="fill:none;stroke:red;stroke-width:1px;stroke-linecap:butt;stroke-linejoin:miter;stroke-opacity:1" d="M 215.604,432.287 207.14,457.679 z" id="boundary" inkscape:connector-curvature="0" />
	<path style="fill:none;stroke:red;stroke-width:1px;stroke-linecap:butt;stroke-linejoin:miter;stroke-opacity:1" d="M 217.297,408.587 210.526,391.659 z" id="boundary" inkscape:connector-curvature="0" />
	<path style="fill:none;stroke:red;stroke-width:1px;stroke-linecap:butt;stroke-linejoin:miter;stroke-opacity:1" d="M 242.689,505.078 242.689,522.007 z" id="boundary" inkscape:connector-curvature="0" />
	<path style="fill:none;stroke:red;stroke-width:1px;stroke-linecap:butt;stroke-linejoin:miter;stroke-opacity:1" d="M 274.853,525.392 266.389,542.321 z" id="boundary" inkscape:connector-curvature="0" />
	<path style="fill:none;stroke:red;stroke-width:1px;stroke-linecap:butt;stroke-linejoin:miter;stroke-opacity:1" d="M 259.618,471.222 251.154,488.15 z" id="boundary" inkscape:connector-curvature="0" />
	<path style="fill:none;stroke:red;stroke-width:1px;stroke-linecap:butt;stroke-linejoin:miter;stroke-opacity:1" d="M 251.154,488.15 242.689,505.078 z" id="boundary" inkscape:connector-curvature="0" />
	<path style="fill:none;stroke:red;stroke-width:1px;stroke-linecap:butt;stroke-linejoin:miter;stroke-opacity:1" d="M 217.297,555.863 202.061,564.328 z" id="boundary" inkscape:connector-curvature="0" />
	<path style="fill:none;stroke:red;stroke-width:1px;stroke-linecap:butt;stroke-linejoin:miter;stroke-opacity:1" d="M 230.84,544.014 217.297,555.863 z" id="boundary" inkscape:connector-curvature="0" />
	<path style="fill:none;stroke:red;stroke-width:1px;stroke-linecap:butt;stroke-linejoin:miter;stroke-opacity:1" d="M 185.133,562.635 169.898,554.171 z" id="boundary" inkscape:connector-curvature="0" />
	<path style="fill:none;stroke:red;stroke-width:1px;stroke-linecap:butt;stroke-linejoin:miter;stroke-opacity:1" d="M 185.133,562.635 202.061,564.328 z" id="boundary" inkscape:connector-curvature="0" />
	<path style="fill:none;stroke:red;stroke-width:1px;stroke-linecap:butt;stroke-linejoin:miter;stroke-opacity:1" d="M 232.532,584.642 224.068,601.57 z" id="boundary" inkscape:connector-curvature="0" />
	<path style="fill:none;stroke:red;stroke-width:1px;stroke-linecap:butt;stroke-linejoin:miter;stroke-opacity:1" d="M 224.068,601.57 232.532,616.805 z" id="boundary" inkscape:connector-curvature="0" />
	<path style="fill:none;stroke:red;stroke-width:1px;stroke-linecap:butt;stroke-linejoin:miter;stroke-opacity:1" d="M 264.696,571.099 249.461,579.563 z" id="boundary" inkscape:connector-curvature="0" />
	<path style="fill:none;stroke:red;stroke-width:1px;stroke-linecap:butt;stroke-linejoin:miter;stroke-opacity:1" d="M 249.461,579.563 232.532,584.642 z" id="boundary" inkscape:connector-curvature="0" />
	<path style="fill:none;stroke:red;stroke-width:1px;stroke-linecap:butt;stroke-linejoin:miter;stroke-opacity:1" d="M 281.625,615.113 266.389,623.577 z" id="boundary" inkscape:connector-curvature="0" />
	<path style="fill:none;stroke:red;stroke-width:1px;stroke-linecap:butt;stroke-linejoin:miter;stroke-opacity:1" d="M 249.461,623.577 266.389,623.577 z" id="boundary" inkscape:connector-curvature="0" />
	<path style="fill:none;stroke:red;stroke-width:1px;stroke-linecap:butt;stroke-linejoin:miter;stroke-opacity:1" d="M 249.461,623.577 232.532,616.805 z" id="boundary" inkscape:connector-curvature="0" />
	<path style="fill:none;stroke:red;stroke-width:1px;stroke-linecap:butt;stroke-linejoin:miter;stroke-opacity:1" d="M 268.082,445.829 283.317,454.294 z" id="boundary" inkscape:connector-curvature="0" />
	<path style="fill:none;stroke:red;stroke-width:1px;stroke-linecap:butt;stroke-linejoin:miter;stroke-opacity:1" d="M 359.495,428.901 376.423,428.901 z" id="boundary" inkscape:connector-curvature="0" />
	<path style="fill:none;stroke:red;stroke-width:1px;stroke-linecap:butt;stroke-linejoin:miter;stroke-opacity:1" d="M 393.352,428.901 376.423,428.901 z" id="boundary" inkscape:connector-curvature="0" />
	<path style="fill:none;stroke:red;stroke-width:1px;stroke-linecap:butt;stroke-linejoin:miter;stroke-opacity:1" d="M 344.259,437.365 344.259,454.294 z" id="boundary" inkscape:connector-curvature="0" />
	<path style="fill:none;stroke:red;stroke-width:1px;stroke-linecap:butt;stroke-linejoin:miter;stroke-opacity:1" d="M 344.259,437.365 359.495,428.901 z" id="boundary" inkscape:connector-curvature="0" />
	<path style="fill:none;stroke:red;stroke-width:1px;stroke-linecap:butt;stroke-linejoin:miter;stroke-opacity:1" d="M 344.259,454.294 335.795,471.222 z" id="boundary" inkscape:connector-curvature="0" />
	<path style="fill:none;stroke:red;stroke-width:1px;stroke-linecap:butt;stroke-linejoin:miter;stroke-opacity:1" d="M 442.444,420.437 459.372,420.437 z" id="boundary" inkscape:connector-curvature="0" />
	<path style="fill:none;stroke:red;stroke-width:1px;stroke-linecap:butt;stroke-linejoin:miter;stroke-opacity:1" d="M 427.208,428.901 442.444,420.437 z" id="boundary" inkscape:connector-curvature="0" />
	<path style="fill:none;stroke:red;stroke-width:1px;stroke-linecap:butt;stroke-linejoin:miter;stroke-opacity:1" d="M 393.352,428.901 410.28,428.901 z" id="boundary" inkscape:connector-curvature="0" />
	<path style="fill:none;stroke:red;stroke-width:1px;stroke-linecap:butt;stroke-linejoin:miter;stroke-opacity:1" d="M 427.208,428.901 410.28,428.901 z" id="boundary" inkscape:connector-curvature="0" />
	<path style="fill:none;stroke:red;stroke-width:1px;stroke-linecap:butt;stroke-linejoin:miter;stroke-opacity:1" d="M 520.314,533.857 503.386,542.321 z" id="boundary" inkscape:connector-curvature="0" />
	<path style="fill:none;stroke:red;stroke-width:1px;stroke-linecap:butt;stroke-linejoin:miter;stroke-opacity:1" d="M 493.229,420.437 476.3,420.437 z" id="boundary" inkscape:connector-curvature="0" />
	<path style="fill:none;stroke:red;stroke-width:1px;stroke-linecap:butt;stroke-linejoin:miter;stroke-opacity:1" d="M 459.372,420.437 476.3,420.437 z" id="boundary" inkscape:connector-curvature="0" />
	<path style="fill:none;stroke:red;stroke-width:1px;stroke-linecap:butt;stroke-linejoin:miter;stroke-opacity:1" d="M 283.317,488.15 274.853,508.464 z" id="boundary" inkscape:connector-curvature="0" />
	<path style="fill:none;stroke:red;stroke-width:1px;stroke-linecap:butt;stroke-linejoin:miter;stroke-opacity:1" d="M 283.317,471.222 283.317,488.15 z" id="boundary" inkscape:connector-curvature="0" />
	<path style="fill:none;stroke:red;stroke-width:1px;stroke-linecap:butt;stroke-linejoin:miter;stroke-opacity:1" d="M 274.853,525.392 274.853,508.464 z" id="boundary" inkscape:connector-curvature="0" />
	<path style="fill:none;stroke:red;stroke-width:1px;stroke-linecap:butt;stroke-linejoin:miter;stroke-opacity:1" d="M 293.474,598.184 281.625,615.113 z" id="boundary" inkscape:connector-curvature="0" />
	<path style="fill:none;stroke:red;stroke-width:1px;stroke-linecap:butt;stroke-linejoin:miter;stroke-opacity:1" d="M 293.474,598.184 301.939,572.792 z" id="boundary" inkscape:connector-curvature="0" />
	<path style="fill:none;stroke:red;stroke-width:1px;stroke-linecap:butt;stroke-linejoin:miter;stroke-opacity:1" d="M 310.403,555.863 301.939,572.792 z" id="boundary" inkscape:connector-curvature="0" />
	<path style="fill:none;stroke:red;stroke-width:1px;stroke-linecap:butt;stroke-linejoin:miter;stroke-opacity:1" d="M 327.331,496.614 335.795,471.222 z" id="boundary" inkscape:connector-curvature="0" />
	<path style="fill:none;stroke:red;stroke-width:1px;stroke-linecap:butt;stroke-linejoin:miter;stroke-opacity:1" d="M 327.331,513.543 327.331,496.614 z" id="boundary" inkscape:connector-curvature="0" />
	<path style="fill:none;stroke:red;stroke-width:1px;stroke-linecap:butt;stroke-linejoin:miter;stroke-opacity:1" d="M 327.331,513.543 318.867,530.471 z" id="boundary" inkscape:connector-curvature="0" />
	<path style="fill:none;stroke:red;stroke-width:1px;stroke-linecap:butt;stroke-linejoin:miter;stroke-opacity:1" d="M 310.403,555.863 318.867,530.471 z" id="boundary" inkscape:connector-curvature="0" />
	<path style="fill:none;stroke:red;stroke-width:1px;stroke-linecap:butt;stroke-linejoin:miter;stroke-opacity:1" d="M 503.386,559.249 503.386,542.321 z" id="boundary" inkscape:connector-curvature="0" />
	<path style="fill:none;stroke:red;stroke-width:1px;stroke-linecap:butt;stroke-linejoin:miter;stroke-opacity:1" d="M 283.317,471.222 283.317,454.294 z" id="boundary" inkscape:connector-curvature="0" />
	<path style="fill:none;stroke:red;stroke-width:1px;stroke-linecap:butt;stroke-linejoin:miter;stroke-opacity:1" d="M 493.229,420.437 510.157,420.437 z" id="boundary" inkscape:connector-curvature="0" />
	<path style="fill:none;stroke:red;stroke-width:1px;stroke-linecap:butt;stroke-linejoin:miter;stroke-opacity:1" d="M 503.386,559.249 513.543,572.792 z" id="boundary" inkscape:connector-curvature="0" />
	<path style="fill:none;stroke:red;stroke-width:1px;stroke-linecap:butt;stroke-linejoin:miter;stroke-opacity:1" d="M 511.85,181.747 528.778,181.747 z" id="boundary" inkscape:connector-curvature="0" />
	<path style="fill:none;stroke:red;stroke-width:1px;stroke-linecap:butt;stroke-linejoin:miter;stroke-opacity:1" d="M 562.635,173.283 579.563,173.283 z" id="boundary" inkscape:connector-curvature="0" />
	<path style="fill:none;stroke:red;stroke-width:1px;stroke-linecap:butt;stroke-linejoin:miter;stroke-opacity:1" d="M 545.706,178.362 562.635,173.283 z" id="boundary" inkscape:connector-curvature="0" />
	<path style="fill:none;stroke:red;stroke-width:1px;stroke-linecap:butt;stroke-linejoin:miter;stroke-opacity:1" d="M 596.491,173.283 579.563,173.283 z" id="boundary" inkscape:connector-curvature="0" />
	<path style="fill:none;stroke:red;stroke-width:1px;stroke-linecap:butt;stroke-linejoin:miter;stroke-opacity:1" d="M 528.778,181.747 545.706,178.362 z" id="boundary" inkscape:connector-curvature="0" />
	<path style="fill:none;stroke:red;stroke-width:1px;stroke-linecap:butt;stroke-linejoin:miter;stroke-opacity:1" d="M 596.491,173.283 613.42,173.283 z" id="boundary" inkscape:connector-curvature="0" />
	<path style="fill:none;stroke:red;stroke-width:1px;stroke-linecap:butt;stroke-linejoin:miter;stroke-opacity:1" d="M 630.348,169.898 613.42,173.283 z" id="boundary" inkscape:connector-curvature="0" />
	<path style="fill:none;stroke:red;stroke-width:1px;stroke-linecap:butt;stroke-linejoin:miter;stroke-opacity:1" d="M 630.348,169.898 647.276,168.205 z" id="boundary" inkscape:connector-curvature="0" />
	<path style="fill:none;stroke:red;stroke-width:1px;stroke-linecap:butt;stroke-linejoin:miter;stroke-opacity:1" d="M 647.276,168.205 664.205,173.283 z" id="boundary" inkscape:connector-curvature="0" />
	<path style="fill:none;stroke:red;stroke-width:1px;stroke-linecap:butt;stroke-linejoin:miter;stroke-opacity:1" d="M 681.133,173.283 664.205,173.283 z" id="boundary" inkscape:connector-curvature="0" />
	<path style="fill:none;stroke:red;stroke-width:1px;stroke-linecap:butt;stroke-linejoin:miter;stroke-opacity:1" d="M 681.133,173.283 698.061,176.669 z" id="boundary" inkscape:connector-curvature="0" />
	<path style="fill:none;stroke:red;stroke-width:1px;stroke-linecap:butt;stroke-linejoin:miter;stroke-opacity:1" d="M 698.061,176.669 713.297,185.133 z" id="boundary" inkscape:connector-curvature="0" />
	<path style="fill:none;stroke:red;stroke-width:1px;stroke-linecap:butt;stroke-linejoin:miter;stroke-opacity:1" d="M 730.225,191.904 713.297,185.133 z" id="boundary" inkscape:connector-curvature="0" />
	<path style="fill:none;stroke:red;stroke-width:1px;stroke-linecap:butt;stroke-linejoin:miter;stroke-opacity:1" d="M 730.225,191.904 745.461,200.369 z" id="boundary" inkscape:connector-curvature="0" />
	<path style="fill:none;stroke:red;stroke-width:1px;stroke-linecap:butt;stroke-linejoin:miter;stroke-opacity:1" d="M 745.461,200.369 759.003,212.218 z" id="boundary" inkscape:connector-curvature="0" />
	<path style="fill:none;stroke:red;stroke-width:1px;stroke-linecap:butt;stroke-linejoin:miter;stroke-opacity:1" d="M 774.239,220.683 759.003,212.218 z" id="boundary" inkscape:connector-curvature="0" />
	<path style="fill:none;stroke:red;stroke-width:1px;stroke-linecap:butt;stroke-linejoin:miter;stroke-opacity:1" d="M 797.939,290.089 784.396,301.939 z" id="boundary" inkscape:connector-curvature="0" />
	<path style="fill:none;stroke:red;stroke-width:1px;stroke-linecap:butt;stroke-linejoin:miter;stroke-opacity:1" d="M 808.096,220.683 791.167,224.068 z" id="boundary" inkscape:connector-curvature="0" />
	<path style="fill:none;stroke:red;stroke-width:1px;stroke-linecap:butt;stroke-linejoin:miter;stroke-opacity:1" d="M 791.167,224.068 774.239,220.683 z" id="boundary" inkscape:connector-curvature="0" />
	<path style="fill:none;stroke:red;stroke-width:1px;stroke-linecap:butt;stroke-linejoin:miter;stroke-opacity:1" d="M 825.024,212.218 808.096,220.683 z" id="boundary" inkscape:connector-curvature="0" />
	<path style="fill:none;stroke:red;stroke-width:1px;stroke-linecap:butt;stroke-linejoin:miter;stroke-opacity:1" d="M 838.567,198.676 825.024,212.218 z" id="boundary" inkscape:connector-curvature="0" />
	<path style="fill:none;stroke:red;stroke-width:1px;stroke-linecap:butt;stroke-linejoin:miter;stroke-opacity:1" d="M 857.188,247.768 840.259,256.232 z" id="boundary" inkscape:connector-curvature="0" />
	<path style="fill:none;stroke:red;stroke-width:1px;stroke-linecap:butt;stroke-linejoin:miter;stroke-opacity:1" d="M 797.939,290.089 809.788,276.546 z" id="boundary" inkscape:connector-curvature="0" />
	<path style="fill:none;stroke:red;stroke-width:1px;stroke-linecap:butt;stroke-linejoin:miter;stroke-opacity:1" d="M 823.331,264.696 840.259,256.232 z" id="boundary" inkscape:connector-curvature="0" />
	<path style="fill:none;stroke:red;stroke-width:1px;stroke-linecap:butt;stroke-linejoin:miter;stroke-opacity:1" d="M 809.788,276.546 823.331,264.696 z" id="boundary" inkscape:connector-curvature="0" />
	<path style="fill:none;stroke:red;stroke-width:1px;stroke-linecap:butt;stroke-linejoin:miter;stroke-opacity:1" d="M 775.932,318.867 784.396,301.939 z" id="boundary" inkscape:connector-curvature="0" />
	<path style="fill:none;stroke:red;stroke-width:1px;stroke-linecap:butt;stroke-linejoin:miter;stroke-opacity:1" d="M 869.038,176.669 855.495,190.212 z" id="boundary" inkscape:connector-curvature="0" />
	<path style="fill:none;stroke:red;stroke-width:1px;stroke-linecap:butt;stroke-linejoin:miter;stroke-opacity:1" d="M 855.495,190.212 838.567,198.676 z" id="boundary" inkscape:connector-curvature="0" />
	<path style="fill:none;stroke:red;stroke-width:1px;stroke-linecap:butt;stroke-linejoin:miter;stroke-opacity:1" d="M 968.915,9.0785 968.915,26.0068 z" id="boundary" inkscape:connector-curvature="0" />
	<path style="fill:none;stroke:red;stroke-width:1px;stroke-linecap:butt;stroke-linejoin:miter;stroke-opacity:1" d="M 968.915,26.0068 960.451,51.3993 z" id="boundary" inkscape:connector-curvature="0" />
	<path style="fill:none;stroke:red;stroke-width:1px;stroke-linecap:butt;stroke-linejoin:miter;stroke-opacity:1" d="M 968.915,9.0785 985.843,4 z" id="boundary" inkscape:connector-curvature="0" />
	<path style="fill:none;stroke:red;stroke-width:1px;stroke-linecap:butt;stroke-linejoin:miter;stroke-opacity:1" d="M 951.986,76.7918 941.829,97.1058 z" id="boundary" inkscape:connector-curvature="0" />
	<path style="fill:none;stroke:red;stroke-width:1px;stroke-linecap:butt;stroke-linejoin:miter;stroke-opacity:1" d="M 941.829,97.1058 928.287,108.956 z" id="boundary" inkscape:connector-curvature="0" />
	<path style="fill:none;stroke:red;stroke-width:1px;stroke-linecap:butt;stroke-linejoin:miter;stroke-opacity:1" d="M 960.451,51.3993 951.986,76.7918 z" id="boundary" inkscape:connector-curvature="0" />
	<path style="fill:none;stroke:red;stroke-width:1px;stroke-linecap:butt;stroke-linejoin:miter;stroke-opacity:1" d="M 996,17.5427 996,34.471 z" id="boundary" inkscape:connector-curvature="0" />
	<path style="fill:none;stroke:red;stroke-width:1px;stroke-linecap:butt;stroke-linejoin:miter;stroke-opacity:1" d="M 996,34.471 996,51.3993 z" id="boundary" inkscape:connector-curvature="0" />
	<path style="fill:none;stroke:red;stroke-width:1px;stroke-linecap:butt;stroke-linejoin:miter;stroke-opacity:1" d="M 979.072,98.7986 970.608,115.727 z" id="boundary" inkscape:connector-curvature="0" />
	<path style="fill:none;stroke:red;stroke-width:1px;stroke-linecap:butt;stroke-linejoin:miter;stroke-opacity:1" d="M 987.536,81.8703 979.072,98.7986 z" id="boundary" inkscape:connector-curvature="0" />
	<path style="fill:none;stroke:red;stroke-width:1px;stroke-linecap:butt;stroke-linejoin:miter;stroke-opacity:1" d="M 996,51.3993 987.536,81.8703 z" id="boundary" inkscape:connector-curvature="0" />
	<path style="fill:none;stroke:red;stroke-width:1px;stroke-linecap:butt;stroke-linejoin:miter;stroke-opacity:1" d="M 985.843,4 996,17.5427 z" id="boundary" inkscape:connector-curvature="0" />
	<path style="fill:none;stroke:red;stroke-width:1px;stroke-linecap:butt;stroke-linejoin:miter;stroke-opacity:1" d="M 970.608,115.727 962.143,132.655 z" id="boundary" inkscape:connector-curvature="0" />
	<path style="fill:none;stroke:red;stroke-width:1px;stroke-linecap:butt;stroke-linejoin:miter;stroke-opacity:1" d="M 906.28,139.427 899.509,156.355 z" id="boundary" inkscape:connector-curvature="0" />
	<path style="fill:none;stroke:red;stroke-width:1px;stroke-linecap:butt;stroke-linejoin:miter;stroke-opacity:1" d="M 899.509,156.355 885.966,168.205 z" id="boundary" inkscape:connector-curvature="0" />
	<path style="fill:none;stroke:red;stroke-width:1px;stroke-linecap:butt;stroke-linejoin:miter;stroke-opacity:1" d="M 885.966,168.205 869.038,176.669 z" id="boundary" inkscape:connector-curvature="0" />
	<path style="fill:none;stroke:red;stroke-width:1px;stroke-linecap:butt;stroke-linejoin:miter;stroke-opacity:1" d="M 911.358,200.369 899.509,213.911 z" id="boundary" inkscape:connector-curvature="0" />
	<path style="fill:none;stroke:red;stroke-width:1px;stroke-linecap:butt;stroke-linejoin:miter;stroke-opacity:1" d="M 874.116,239.304 857.188,247.768 z" id="boundary" inkscape:connector-curvature="0" />
	<path style="fill:none;stroke:red;stroke-width:1px;stroke-linecap:butt;stroke-linejoin:miter;stroke-opacity:1" d="M 885.966,225.761 899.509,213.911 z" id="boundary" inkscape:connector-curvature="0" />
	<path style="fill:none;stroke:red;stroke-width:1px;stroke-linecap:butt;stroke-linejoin:miter;stroke-opacity:1" d="M 874.116,239.304 885.966,225.761 z" id="boundary" inkscape:connector-curvature="0" />
	<path style="fill:none;stroke:red;stroke-width:1px;stroke-linecap:butt;stroke-linejoin:miter;stroke-opacity:1" d="M 906.28,139.427 919.823,125.884 z" id="boundary" inkscape:connector-curvature="0" />
	<path style="fill:none;stroke:red;stroke-width:1px;stroke-linecap:butt;stroke-linejoin:miter;stroke-opacity:1" d="M 928.287,108.956 919.823,125.884 z" id="boundary" inkscape:connector-curvature="0" />
	<path style="fill:none;stroke:red;stroke-width:1px;stroke-linecap:butt;stroke-linejoin:miter;stroke-opacity:1" d="M 962.143,132.655 950.294,154.662 z" id="boundary" inkscape:connector-curvature="0" />
	<path style="fill:none;stroke:red;stroke-width:1px;stroke-linecap:butt;stroke-linejoin:miter;stroke-opacity:1" d="M 911.358,200.369 924.901,188.519 z" id="boundary" inkscape:connector-curvature="0" />
	<path style="fill:none;stroke:red;stroke-width:1px;stroke-linecap:butt;stroke-linejoin:miter;stroke-opacity:1" d="M 936.751,166.512 950.294,154.662 z" id="boundary" inkscape:connector-curvature="0" />
	<path style="fill:none;stroke:red;stroke-width:1px;stroke-linecap:butt;stroke-linejoin:miter;stroke-opacity:1" d="M 924.901,188.519 936.751,166.512 z" id="boundary" inkscape:connector-curvature="0" />
	<path style="fill:none;stroke:red;stroke-width:1px;stroke-linecap:butt;stroke-linejoin:miter;stroke-opacity:1" d="M 544.014,417.051 527.085,420.437 z" id="boundary" inkscape:connector-curvature="0" />
	<path style="fill:none;stroke:red;stroke-width:1px;stroke-linecap:butt;stroke-linejoin:miter;stroke-opacity:1" d="M 527.085,420.437 510.157,420.437 z" id="boundary" inkscape:connector-curvature="0" />
	<path style="fill:none;stroke:red;stroke-width:1px;stroke-linecap:butt;stroke-linejoin:miter;stroke-opacity:1" d="M 560.942,411.973 544.014,417.051 z" id="boundary" inkscape:connector-curvature="0" />
	<path style="fill:none;stroke:red;stroke-width:1px;stroke-linecap:butt;stroke-linejoin:miter;stroke-opacity:1" d="M 560.942,411.973 571.099,425.515 z" id="boundary" inkscape:connector-curvature="0" />
	<path style="fill:none;stroke:red;stroke-width:1px;stroke-linecap:butt;stroke-linejoin:miter;stroke-opacity:1" d="M 571.099,466.143 559.249,494.922 z" id="boundary" inkscape:connector-curvature="0" />
	<path style="fill:none;stroke:red;stroke-width:1px;stroke-linecap:butt;stroke-linejoin:miter;stroke-opacity:1" d="M 559.249,494.922 550.785,511.85 z" id="boundary" inkscape:connector-curvature="0" />
	<path style="fill:none;stroke:red;stroke-width:1px;stroke-linecap:butt;stroke-linejoin:miter;stroke-opacity:1" d="M 579.563,440.751 571.099,425.515 z" id="boundary" inkscape:connector-curvature="0" />
	<path style="fill:none;stroke:red;stroke-width:1px;stroke-linecap:butt;stroke-linejoin:miter;stroke-opacity:1" d="M 550.785,511.85 537.242,525.392 z" id="boundary" inkscape:connector-curvature="0" />
	<path style="fill:none;stroke:red;stroke-width:1px;stroke-linecap:butt;stroke-linejoin:miter;stroke-opacity:1" d="M 571.099,466.143 579.563,440.751 z" id="boundary" inkscape:connector-curvature="0" />
	<path style="fill:none;stroke:red;stroke-width:1px;stroke-linecap:butt;stroke-linejoin:miter;stroke-opacity:1" d="M 655.741,454.294 640.505,462.758 z" id="boundary" inkscape:connector-curvature="0" />
	<path style="fill:none;stroke:red;stroke-width:1px;stroke-linecap:butt;stroke-linejoin:miter;stroke-opacity:1" d="M 640.505,462.758 632.041,479.686 z" id="boundary" inkscape:connector-curvature="0" />
	<path style="fill:none;stroke:red;stroke-width:1px;stroke-linecap:butt;stroke-linejoin:miter;stroke-opacity:1" d="M 598.184,522.007 606.648,505.078 z" id="boundary" inkscape:connector-curvature="0" />
	<path style="fill:none;stroke:red;stroke-width:1px;stroke-linecap:butt;stroke-linejoin:miter;stroke-opacity:1" d="M 620.191,493.229 606.648,505.078 z" id="boundary" inkscape:connector-curvature="0" />
	<path style="fill:none;stroke:red;stroke-width:1px;stroke-linecap:butt;stroke-linejoin:miter;stroke-opacity:1" d="M 632.041,479.686 620.191,493.229 z" id="boundary" inkscape:connector-curvature="0" />
	<path style="fill:none;stroke:red;stroke-width:1px;stroke-linecap:butt;stroke-linejoin:miter;stroke-opacity:1" d="M 598.184,522.007 586.334,535.549 z" id="boundary" inkscape:connector-curvature="0" />
	<path style="fill:none;stroke:red;stroke-width:1px;stroke-linecap:butt;stroke-linejoin:miter;stroke-opacity:1" d="M 520.314,533.857 537.242,525.392 z" id="boundary" inkscape:connector-curvature="0" />
	<path style="fill:none;stroke:red;stroke-width:1px;stroke-linecap:butt;stroke-linejoin:miter;stroke-opacity:1" d="M 572.792,547.399 560.942,560.942 z" id="boundary" inkscape:connector-curvature="0" />
	<path style="fill:none;stroke:red;stroke-width:1px;stroke-linecap:butt;stroke-linejoin:miter;stroke-opacity:1" d="M 513.543,572.792 530.471,572.792 z" id="boundary" inkscape:connector-curvature="0" />
	<path style="fill:none;stroke:red;stroke-width:1px;stroke-linecap:butt;stroke-linejoin:miter;stroke-opacity:1" d="M 547.399,572.792 560.942,560.942 z" id="boundary" inkscape:connector-curvature="0" />
	<path style="fill:none;stroke:red;stroke-width:1px;stroke-linecap:butt;stroke-linejoin:miter;stroke-opacity:1" d="M 547.399,572.792 530.471,572.792 z" id="boundary" inkscape:connector-curvature="0" />
	<path style="fill:none;stroke:red;stroke-width:1px;stroke-linecap:butt;stroke-linejoin:miter;stroke-opacity:1" d="M 647.276,584.642 630.348,588.027 z" id="boundary" inkscape:connector-curvature="0" />
	<path style="fill:none;stroke:red;stroke-width:1px;stroke-linecap:butt;stroke-linejoin:miter;stroke-opacity:1" d="M 660.819,571.099 647.276,584.642 z" id="boundary" inkscape:connector-curvature="0" />
	<path style="fill:none;stroke:red;stroke-width:1px;stroke-linecap:butt;stroke-linejoin:miter;stroke-opacity:1" d="M 648.969,632.041 632.041,632.041 z" id="boundary" inkscape:connector-curvature="0" />
	<path style="fill:none;stroke:red;stroke-width:1px;stroke-linecap:butt;stroke-linejoin:miter;stroke-opacity:1" d="M 630.348,588.027 613.42,593.106 z" id="boundary" inkscape:connector-curvature="0" />
	<path style="fill:none;stroke:red;stroke-width:1px;stroke-linecap:butt;stroke-linejoin:miter;stroke-opacity:1" d="M 618.498,621.884 604.956,610.034 z" id="boundary" inkscape:connector-curvature="0" />
	<path style="fill:none;stroke:red;stroke-width:1px;stroke-linecap:butt;stroke-linejoin:miter;stroke-opacity:1" d="M 618.498,621.884 632.041,632.041 z" id="boundary" inkscape:connector-curvature="0" />
	<path style="fill:none;stroke:red;stroke-width:1px;stroke-linecap:butt;stroke-linejoin:miter;stroke-opacity:1" d="M 572.792,547.399 586.334,535.549 z" id="boundary" inkscape:connector-curvature="0" />
	<path style="fill:none;stroke:red;stroke-width:1px;stroke-linecap:butt;stroke-linejoin:miter;stroke-opacity:1" d="M 742.075,411.973 742.075,428.901 z" id="boundary" inkscape:connector-curvature="0" />
	<path style="fill:none;stroke:red;stroke-width:1px;stroke-linecap:butt;stroke-linejoin:miter;stroke-opacity:1" d="M 742.075,411.973 750.539,386.58 z" id="boundary" inkscape:connector-curvature="0" />
	<path style="fill:none;stroke:red;stroke-width:1px;stroke-linecap:butt;stroke-linejoin:miter;stroke-opacity:1" d="M 742.075,445.829 742.075,428.901 z" id="boundary" inkscape:connector-curvature="0" />
	<path style="fill:none;stroke:red;stroke-width:1px;stroke-linecap:butt;stroke-linejoin:miter;stroke-opacity:1" d="M 745.461,462.758 742.075,445.829 z" id="boundary" inkscape:connector-curvature="0" />
	<path style="fill:none;stroke:red;stroke-width:1px;stroke-linecap:butt;stroke-linejoin:miter;stroke-opacity:1" d="M 665.898,467.836 655.741,454.294 z" id="boundary" inkscape:connector-curvature="0" />
	<path style="fill:none;stroke:red;stroke-width:1px;stroke-linecap:butt;stroke-linejoin:miter;stroke-opacity:1" d="M 679.44,479.686 665.898,467.836 z" id="boundary" inkscape:connector-curvature="0" />
	<path style="fill:none;stroke:red;stroke-width:1px;stroke-linecap:butt;stroke-linejoin:miter;stroke-opacity:1" d="M 679.44,479.686 681.133,496.614 z" id="boundary" inkscape:connector-curvature="0" />
	<path style="fill:none;stroke:red;stroke-width:1px;stroke-linecap:butt;stroke-linejoin:miter;stroke-opacity:1" d="M 767.468,335.795 775.932,318.867 z" id="boundary" inkscape:connector-curvature="0" />
	<path style="fill:none;stroke:red;stroke-width:1px;stroke-linecap:butt;stroke-linejoin:miter;stroke-opacity:1" d="M 767.468,352.724 767.468,335.795 z" id="boundary" inkscape:connector-curvature="0" />
	<path style="fill:none;stroke:red;stroke-width:1px;stroke-linecap:butt;stroke-linejoin:miter;stroke-opacity:1" d="M 767.468,352.724 759.003,369.652 z" id="boundary" inkscape:connector-curvature="0" />
	<path style="fill:none;stroke:red;stroke-width:1px;stroke-linecap:butt;stroke-linejoin:miter;stroke-opacity:1" d="M 750.539,386.58 759.003,369.652 z" id="boundary" inkscape:connector-curvature="0" />
	<path style="fill:none;stroke:red;stroke-width:1px;stroke-linecap:butt;stroke-linejoin:miter;stroke-opacity:1" d="M 750.539,479.686 745.461,462.758 z" id="boundary" inkscape:connector-curvature="0" />
	<path style="fill:none;stroke:red;stroke-width:1px;stroke-linecap:butt;stroke-linejoin:miter;stroke-opacity:1" d="M 660.819,571.099 669.283,554.171 z" id="boundary" inkscape:connector-curvature="0" />
	<path style="fill:none;stroke:red;stroke-width:1px;stroke-linecap:butt;stroke-linejoin:miter;stroke-opacity:1" d="M 681.133,496.614 672.669,525.392 z" id="boundary" inkscape:connector-curvature="0" />
	<path style="fill:none;stroke:red;stroke-width:1px;stroke-linecap:butt;stroke-linejoin:miter;stroke-opacity:1" d="M 669.283,554.171 672.669,525.392 z" id="boundary" inkscape:connector-curvature="0" />
	<path style="fill:none;stroke:red;stroke-width:1px;stroke-linecap:butt;stroke-linejoin:miter;stroke-opacity:1" d="M 664.205,623.577 648.969,632.041 z" id="boundary" inkscape:connector-curvature="0" />
	<path style="fill:none;stroke:red;stroke-width:1px;stroke-linecap:butt;stroke-linejoin:miter;stroke-opacity:1" d="M 677.747,613.42 664.205,623.577 z" id="boundary" inkscape:connector-curvature="0" />
	<path style="fill:none;stroke:red;stroke-width:1px;stroke-linecap:butt;stroke-linejoin:miter;stroke-opacity:1" d="M 686.212,596.491 677.747,613.42 z" id="boundary" inkscape:connector-curvature="0" />
	<path style="fill:none;stroke:red;stroke-width:1px;stroke-linecap:butt;stroke-linejoin:miter;stroke-opacity:1" d="M 738.689,518.621 725.147,530.471 z" id="boundary" inkscape:connector-curvature="0" />
	<path style="fill:none;stroke:red;stroke-width:1px;stroke-linecap:butt;stroke-linejoin:miter;stroke-opacity:1" d="M 747.154,501.693 738.689,518.621 z" id="boundary" inkscape:connector-curvature="0" />
	<path style="fill:none;stroke:red;stroke-width:1px;stroke-linecap:butt;stroke-linejoin:miter;stroke-opacity:1" d="M 721.761,552.478 725.147,530.471 z" id="boundary" inkscape:connector-curvature="0" />
	<path style="fill:none;stroke:red;stroke-width:1px;stroke-linecap:butt;stroke-linejoin:miter;stroke-opacity:1" d="M 686.212,596.491 699.754,581.256 z" id="boundary" inkscape:connector-curvature="0" />
	<path style="fill:none;stroke:red;stroke-width:1px;stroke-linecap:butt;stroke-linejoin:miter;stroke-opacity:1" d="M 708.218,564.328 721.761,552.478 z" id="boundary" inkscape:connector-curvature="0" />
	<path style="fill:none;stroke:red;stroke-width:1px;stroke-linecap:butt;stroke-linejoin:miter;stroke-opacity:1" d="M 699.754,581.256 708.218,564.328 z" id="boundary" inkscape:connector-curvature="0" />
	<path style="fill:none;stroke:red;stroke-width:1px;stroke-linecap:butt;stroke-linejoin:miter;stroke-opacity:1" d="M 750.539,479.686 747.154,501.693 z" id="boundary" inkscape:connector-curvature="0" />
	<circle cx="4" cy="203.754" r="4" fill="#0" id="circle0"/>
	<circle cx="4" cy="220.683" r="4" fill="#0" id="circle1"/>
	<circle cx="4" cy="237.611" r="4" fill="#0" id="circle2"/>
	<circle cx="17.5427" cy="190.212" r="4" fill="#0" id="circle3"/>
	<circle cx="17.5427" cy="249.461" r="4" fill="#0" id="circle4"/>
	<circle cx="31.0853" cy="259.618" r="4" fill="#0" id="circle5"/>
	<circle cx="34.471" cy="181.747" r="4" fill="#0" id="circle6"/>
	<circle cx="37.8567" cy="161.433" r="4" fill="#0" id="circle7"/>
	<circle cx="48.0137" cy="259.618" r="4" fill="#0" id="circle8"/>
	<circle cx="51.3993" cy="147.891" r="4" fill="#0" id="circle9"/>
	<circle cx="63.2491" cy="102.184" r="4" fill="#0" id="circle10"/>
	<circle cx="63.2491" cy="268.082" r="4" fill="#0" id="circle11"/>
	<circle cx="64.942" cy="134.348" r="4" fill="#0" id="circle12"/>
	<circle cx="71.7133" cy="117.42" r="4" fill="#0" id="circle13"/>
	<circle cx="78.4846" cy="276.546" r="4" fill="#0" id="circle14"/>
	<circle cx="80.1775" cy="97.1058" r="4" fill="#0" id="circle15"/>
	<circle cx="93.7201" cy="107.263" r="4" fill="#0" id="circle16"/>
	<circle cx="93.7201" cy="285.01" r="4" fill="#0" id="circle17"/>
	<circle cx="107.263" cy="296.86" r="4" fill="#0" id="circle18"/>
	<circle cx="110.648" cy="114.034" r="4" fill="#0" id="circle19"/>
	<circle cx="119.113" cy="310.403" r="4" fill="#0" id="circle20"/>
	<circle cx="125.884" cy="122.498" r="4" fill="#0" id="circle21"/>
	<circle cx="132.655" cy="322.253" r="4" fill="#0" id="circle22"/>
	<circle cx="139.427" cy="134.348" r="4" fill="#0" id="circle23"/>
	<circle cx="144.505" cy="335.795" r="4" fill="#0" id="circle24"/>
	<circle cx="149.584" cy="147.891" r="4" fill="#0" id="circle25"/>
	<circle cx="156.355" cy="542.321" r="4" fill="#0" id="circle26"/>
	<circle cx="158.048" cy="347.645" r="4" fill="#0" id="circle27"/>
	<circle cx="166.512" cy="152.969" r="4" fill="#0" id="circle28"/>
	<circle cx="169.898" cy="361.188" r="4" fill="#0" id="circle29"/>
	<circle cx="169.898" cy="528.778" r="4" fill="#0" id="circle30"/>
	<circle cx="169.898" cy="554.171" r="4" fill="#0" id="circle31"/>
	<circle cx="180.055" cy="164.819" r="4" fill="#0" id="circle32"/>
	<circle cx="185.133" cy="520.314" r="4" fill="#0" id="circle33"/>
	<circle cx="185.133" cy="562.635" r="4" fill="#0" id="circle34"/>
	<circle cx="186.826" cy="367.959" r="4" fill="#0" id="circle35"/>
	<circle cx="195.29" cy="173.283" r="4" fill="#0" id="circle36"/>
	<circle cx="198.676" cy="483.072" r="4" fill="#0" id="circle37"/>
	<circle cx="198.676" cy="500" r="4" fill="#0" id="circle38"/>
	<circle cx="200.369" cy="378.116" r="4" fill="#0" id="circle39"/>
	<circle cx="202.061" cy="564.328" r="4" fill="#0" id="circle40"/>
	<circle cx="207.14" cy="457.679" r="4" fill="#0" id="circle41"/>
	<circle cx="210.526" cy="181.747" r="4" fill="#0" id="circle42"/>
	<circle cx="210.526" cy="391.659" r="4" fill="#0" id="circle43"/>
	<circle cx="215.604" cy="432.287" r="4" fill="#0" id="circle44"/>
	<circle cx="217.297" cy="408.587" r="4" fill="#0" id="circle45"/>
	<circle cx="217.297" cy="555.863" r="4" fill="#0" id="circle46"/>
	<circle cx="224.068" cy="601.57" r="4" fill="#0" id="circle47"/>
	<circle cx="225.761" cy="190.212" r="4" fill="#0" id="circle48"/>
	<circle cx="230.84" cy="544.014" r="4" fill="#0" id="circle49"/>
	<circle cx="232.532" cy="584.642" r="4" fill="#0" id="circle50"/>
	<circle cx="232.532" cy="616.805" r="4" fill="#0" id="circle51"/>
	<circle cx="242.689" cy="190.212" r="4" fill="#0" id="circle52"/>
	<circle cx="242.689" cy="505.078" r="4" fill="#0" id="circle53"/>
	<circle cx="242.689" cy="522.007" r="4" fill="#0" id="circle54"/>
	<circle cx="249.461" cy="579.563" r="4" fill="#0" id="circle55"/>
	<circle cx="249.461" cy="623.577" r="4" fill="#0" id="circle56"/>
	<circle cx="251.154" cy="488.15" r="4" fill="#0" id="circle57"/>
	<circle cx="259.618" cy="190.212" r="4" fill="#0" id="circle58"/>
	<circle cx="259.618" cy="471.222" r="4" fill="#0" id="circle59"/>
	<circle cx="264.696" cy="571.099" r="4" fill="#0" id="circle60"/>
	<circle cx="266.389" cy="542.321" r="4" fill="#0" id="circle61"/>
	<circle cx="266.389" cy="623.577" r="4" fill="#0" id="circle62"/>
	<circle cx="268.082" cy="445.829" r="4" fill="#0" id="circle63"/>
	<circle cx="274.853" cy="508.464" r="4" fill="#0" id="circle64"/>
	<circle cx="274.853" cy="525.392" r="4" fill="#0" id="circle65"/>
	<circle cx="276.546" cy="190.212" r="4" fill="#0" id="circle66"/>
	<circle cx="281.625" cy="615.113" r="4" fill="#0" id="circle67"/>
	<circle cx="283.317" cy="454.294" r="4" fill="#0" id="circle68"/>
	<circle cx="283.317" cy="471.222" r="4" fill="#0" id="circle69"/>
	<circle cx="283.317" cy="488.15" r="4" fill="#0" id="circle70"/>
	<circle cx="293.474" cy="190.212" r="4" fill="#0" id="circle71"/>
	<circle cx="293.474" cy="598.184" r="4" fill="#0" id="circle72"/>
	<circle cx="301.939" cy="572.792" r="4" fill="#0" id="circle73"/>
	<circle cx="310.403" cy="190.212" r="4" fill="#0" id="circle74"/>
	<circle cx="310.403" cy="555.863" r="4" fill="#0" id="circle75"/>
	<circle cx="318.867" cy="530.471" r="4" fill="#0" id="circle76"/>
	<circle cx="327.331" cy="190.212" r="4" fill="#0" id="circle77"/>
	<circle cx="327.331" cy="496.614" r="4" fill="#0" id="circle78"/>
	<circle cx="327.331" cy="513.543" r="4" fill="#0" id="circle79"/>
	<circle cx="335.795" cy="471.222" r="4" fill="#0" id="circle80"/>
	<circle cx="344.259" cy="190.212" r="4" fill="#0" id="circle81"/>
	<circle cx="344.259" cy="437.365" r="4" fill="#0" id="circle82"/>
	<circle cx="344.259" cy="454.294" r="4" fill="#0" id="circle83"/>
	<circle cx="359.495" cy="428.901" r="4" fill="#0" id="circle84"/>
	<circle cx="361.188" cy="190.212" r="4" fill="#0" id="circle85"/>
	<circle cx="376.423" cy="428.901" r="4" fill="#0" id="circle86"/>
	<circle cx="378.116" cy="190.212" r="4" fill="#0" id="circle87"/>
	<circle cx="393.352" cy="428.901" r="4" fill="#0" id="circle88"/>
	<circle cx="395.044" cy="190.212" r="4" fill="#0" id="circle89"/>
	<circle cx="410.28" cy="428.901" r="4" fill="#0" id="circle90"/>
	<circle cx="411.973" cy="190.212" r="4" fill="#0" id="circle91"/>
	<circle cx="427.208" cy="428.901" r="4" fill="#0" id="circle92"/>
	<circle cx="428.901" cy="190.212" r="4" fill="#0" id="circle93"/>
	<circle cx="442.444" cy="420.437" r="4" fill="#0" id="circle94"/>
	<circle cx="445.829" cy="190.212" r="4" fill="#0" id="circle95"/>
	<circle cx="459.372" cy="420.437" r="4" fill="#0" id="circle96"/>
	<circle cx="462.758" cy="190.212" r="4" fill="#0" id="circle97"/>
	<circle cx="476.3" cy="420.437" r="4" fill="#0" id="circle98"/>
	<circle cx="479.686" cy="190.212" r="4" fill="#0" id="circle99"/>
	<circle cx="493.229" cy="420.437" r="4" fill="#0" id="circle100"/>
	<circle cx="494.922" cy="181.747" r="4" fill="#0" id="circle101"/>
	<circle cx="503.386" cy="542.321" r="4" fill="#0" id="circle102"/>
	<circle cx="503.386" cy="559.249" r="4" fill="#0" id="circle103"/>
	<circle cx="510.157" cy="420.437" r="4" fill="#0" id="circle104"/>
	<circle cx="511.85" cy="181.747" r="4" fill="#0" id="circle105"/>
	<circle cx="513.543" cy="572.792" r="4" fill="#0" id="circle106"/>
	<circle cx="520.314" cy="533.857" r="4" fill="#0" id="circle107"/>
	<circle cx="527.085" cy="420.437" r="4" fill="#0" id="circle108"/>
	<circle cx="528.778" cy="181.747" r="4" fill="#0" id="circle109"/>
	<circle cx="530.471" cy="572.792" r="4" fill="#0" id="circle110"/>
	<circle cx="537.242" cy="525.392" r="4" fill="#0" id="circle111"/>
	<circle cx="544.014" cy="417.051" r="4" fill="#0" id="circle112"/>
	<circle cx="545.706" cy="178.362" r="4" fill="#0" id="circle113"/>
	<circle cx="547.399" cy="572.792" r="4" fill="#0" id="circle114"/>
	<circle cx="550.785" cy="511.85" r="4" fill="#0" id="circle115"/>
	<circle cx="559.249" cy="494.922" r="4" fill="#0" id="circle116"/>
	<circle cx="560.942" cy="411.973" r="4" fill="#0" id="circle117"/>
	<circle cx="560.942" cy="560.942" r="4" fill="#0" id="circle118"/>
	<circle cx="562.635" cy="173.283" r="4" fill="#0" id="circle119"/>
	<circle cx="571.099" cy="425.515" r="4" fill="#0" id="circle120"/>
	<circle cx="571.099" cy="466.143" r="4" fill="#0" id="circle121"/>
	<circle cx="572.792" cy="547.399" r="4" fill="#0" id="circle122"/>
	<circle cx="579.563" cy="173.283" r="4" fill="#0" id="circle123"/>
	<circle cx="579.563" cy="440.751" r="4" fill="#0" id="circle124"/>
	<circle cx="586.334" cy="535.549" r="4" fill="#0" id="circle125"/>
	<circle cx="596.491" cy="173.283" r="4" fill="#0" id="circle126"/>
	<circle cx="598.184" cy="522.007" r="4" fill="#0" id="circle127"/>
	<circle cx="604.956" cy="610.034" r="4" fill="#0" id="circle128"/>
	<circle cx="606.648" cy="505.078" r="4" fill="#0" id="circle129"/>
	<circle cx="613.42" cy="173.283" r="4" fill="#0" id="circle130"/>
	<circle cx="613.42" cy="593.106" r="4" fill="#0" id="circle131"/>
	<circle cx="618.498" cy="621.884" r="4" fill="#0" id="circle132"/>
	<circle cx="620.191" cy="493.229" r="4" fill="#0" id="circle133"/>
	<circle cx="630.348" cy="169.898" r="4" fill="#0" id="circle134"/>
	<circle cx="630.348" cy="588.027" r="4" fill="#0" id="circle135"/>
	<circle cx="632.041" cy="479.686" r="4" fill="#0" id="circle136"/>
	<circle cx="632.041" cy="632.041" r="4" fill="#0" id="circle137"/>
	<circle cx="640.505" cy="462.758" r="4" fill="#0" id="circle138"/>
	<circle cx="647.276" cy="168.205" r="4" fill="#0" id="circle139"/>
	<circle cx="647.276" cy="584.642" r="4" fill="#0" id="circle140"/>
	<circle cx="648.969" cy="632.041" r="4" fill="#0" id="circle141"/>
	<circle cx="655.741" cy="454.294" r="4" fill="#0" id="circle142"/>
	<circle cx="660.819" cy="571.099" r="4" fill="#0" id="circle143"/>
	<circle cx="664.205" cy="173.283" r="4" fill="#0" id="circle144"/>
	<circle cx="664.205" cy="623.577" r="4" fill="#0" id="circle145"/>
	<circle cx="665.898" cy="467.836" r="4" fill="#0" id="circle146"/>
	<circle cx="669.283" cy="554.171" r="4" fill="#0" id="circle147"/>
	<circle cx="672.669" cy="525.392" r="4" fill="#0" id="circle148"/>
	<circle cx="677.747" cy="613.42" r="4" fill="#0" id="circle149"/>
	<circle cx="679.44" cy="479.686" r="4" fill="#0" id="circle150"/>
	<circle cx="681.133" cy="173.283" r="4" fill="#0" id="circle151"/>
	<circle cx="681.133" cy="496.614" r="4" fill="#0" id="circle152"/>
	<circle cx="686.212" cy="596.491" r="4" fill="#0" id="circle153"/>
	<circle cx="698.061" cy="176.669" r="4" fill="#0" id="circle154"/>
	<circle cx="699.754" cy="581.256" r="4" fill="#0" id="circle155"/>
	<circle cx="708.218" cy="564.328" r="4" fill="#0" id="circle156"/>
	<circle cx="713.297" cy="185.133" r="4" fill="#0" id="circle157"/>
	<circle cx="721.761" cy="552.478" r="4" fill="#0" id="circle158"/>
	<circle cx="725.147" cy="530.471" r="4" fill="#0" id="circle159"/>
	<circle cx="730.225" cy="191.904" r="4" fill="#0" id="circle160"/>
	<circle cx="738.689" cy="518.621" r="4" fill="#0" id="circle161"/>
	<circle cx="742.075" cy="411.973" r="4" fill="#0" id="circle162"/>
	<circle cx="742.075" cy="428.901" r="4" fill="#0" id="circle163"/>
	<circle cx="742.075" cy="445.829" r="4" fill="#0" id="circle164"/>
	<circle cx="745.461" cy="200.369" r="4" fill="#0" id="circle165"/>
	<circle cx="745.461" cy="462.758" r="4" fill="#0" id="circle166"/>
	<circle cx="747.154" cy="501.693" r="4" fill="#0" id="circle167"/>
	<circle cx="750.539" cy="386.58" r="4" fill="#0" id="circle168"/>
	<circle cx="750.539" cy="479.686" r="4" fill="#0" id="circle169"/>
	<circle cx="759.003" cy="212.218" r="4" fill="#0" id="circle170"/>
	<circle cx="759.003" cy="369.652" r="4" fill="#0" id="circle171"/>
	<circle cx="767.468" cy="335.795" r="4" fill="#0" id="circle172"/>
	<circle cx="767.468" cy="352.724" r="4" fill="#0" id="circle173"/>
	<circle cx="774.239" cy="220.683" r="4" fill="#0" id="circle174"/>
	<circle cx="775.932" cy="318.867" r="4" fill="#0" id="circle175"/>
	<circle cx="784.396" cy="301.939" r="4" fill="#0" id="circle176"/>
	<circle cx="791.167" cy="224.068" r="4" fill="#0" id="circle177"/>
	<circle cx="797.939" cy="290.089" r="4" fill="#0" id="circle178"/>
	<circle cx="808.096" cy="220.683" r="4" fill="#0" id="circle179"/>
	<circle cx="809.788" cy="276.546" r="4" fill="#0" id="circle180"/>
	<circle cx="823.331" cy="264.696" r="4" fill="#0" id="circle181"/>
	<circle cx="825.024" cy="212.218" r="4" fill="#0" id="circle182"/>
	<circle cx="838.567" cy="198.676" r="4" fill="#0" id="circle183"/>
	<circle cx="840.259" cy="256.232" r="4" fill="#0" id="circle184"/>
	<circle cx="855.495" cy="190.212" r="4" fill="#0" id="circle185"/>
	<circle cx="857.188" cy="247.768" r="4" fill="#0" id="circle186"/>
	<circle cx="869.038" cy="176.669" r="4" fill="#0" id="circle187"/>
	<circle cx="874.116" cy="239.304" r="4" fill="#0" id="circle188"/>
	<circle cx="885.966" cy="168.205" r="4" fill="#0" id="circle189"/>
	<circle cx="885.966" cy="225.761" r="4" fill="#0" id="circle190"/>
	<circle cx="899.509" cy="156.355" r="4" fill="#0" id="circle191"/>
	<circle cx="899.509" cy="213.911" r="4" fill="#0" id="circle192"/>
	<circle cx="906.28" cy="139.427" r="4" fill="#0" id="circle193"/>
	<circle cx="911.358" cy="200.369" r="4" fill="#0" id="circle194"/>
	<circle cx="919.823" cy="125.884" r="4" fill="#0" id="circle195"/>
	<circle cx="924.901" cy="188.519" r="4" fill="#0" id="circle196"/>
	<circle cx="928.287" cy="108.956" r="4" fill="#0" id="circle197"/>
	<circle cx="936.751" cy="166.512" r="4" fill="#0" id="circle198"/>
	<circle cx="941.829" cy="97.1058" r="4" fill="#0" id="circle199"/>
	<circle cx="950.294" cy="154.662" r="4" fill="#0" id="circle200"/>
	<circle cx="951.986" cy="76.7918" r="4" fill="#0" id="circle201"/>
	<circle cx="960.451" cy="51.3993" r="4" fill="#0" id="circle202"/>
	<circle cx="962.143" cy="132.655" r="4" fill="#0" id="circle203"/>
	<circle cx="968.915" cy="9.0785" r="4" fill="#0" id="circle204"/>
	<circle cx="968.915" cy="26.0068" r="4" fill="#0" id="circle205"/>
	<circle cx="970.608" cy="115.727" r="4" fill="#0" id="circle206"/>
	<circle cx="979.072" cy="98.7986" r="4" fill="#0" id="circle207"/>
	<circle cx="985.843" cy="4" r="4" fill="#0" id="circle208"/>
	<circle cx="987.536" cy="81.8703" r="4" fill="#0" id="circle209"/>
	<circle cx="996" cy="17.5427" r="4" fill="#0" id="circle210"/>
	<circle cx="996" cy="34.471" r="4" fill="#0" id="circle211"/>
	<circle cx="996" cy="51.3993" r="4" fill="#0" id="circle212"/>
	</g>
</svg>