<?xml version="1.0" encoding="UTF-8" standalone="no"?>
<!-- Created with CurveBenchmark -->
<svg
	xmlns:dc="http://purl.org/dc/elements/1.1/"
	xmlns:cc="http://creativecommons.org/ns#"
	xmlns:rdf="http://www.w3.org/1999/02/22-rdf-syntax-ns#"
	xmlns:svg="http://www.w3.org/2000/svg"
	xmlns="http://www.w3.org/2000/svg"
	xmlns:sodipodi="http://sodipodi.sourceforge.net/DTD/sodipodi-0.dtd"
	xmlns:inkscape="http://www.inkscape.org/namespaces/inkscape"
	width="1000"
	height="1000"
	id="svg2"
	version="1.1"
	sodipodi:docname="manifold/gathang-dino13.png.txt">
<defs
	id="defs4" />
<metadata
	id="metadata7">
	<rdf:RDF>
		<cc:Work
			rdf:about="">
			<dc:format>image/svg+xml</dc:format>
			<dc:type
				rdf:resource="http://purl.org/dc/dcmitype/StillImage" />
			<dc:title></dc:title>
		</cc:Work>
	</rdf:RDF>
</metadata>
<g
	inkscape:label="Layer 1"
	inkscape:groupmode="layer"
	id="layer1">
	<path style="fill:none;stroke:red;stroke-width:1px;stroke-linecap:butt;stroke-linejoin:miter;stroke-opacity:1" d="M 4,101.333 4,88 z" id="boundary" inkscape:connector-curvature="0" />
	<path style="fill:none;stroke:red;stroke-width:1px;stroke-linecap:butt;stroke-linejoin:miter;stroke-opacity:1" d="M 4,88 14.6667,77.3333 z" id="boundary" inkscape:connector-curvature="0" />
	<path style="fill:none;stroke:red;stroke-width:1px;stroke-linecap:butt;stroke-linejoin:miter;stroke-opacity:1" d="M 38.6667,60 25.3333,66.6667 z" id="boundary" inkscape:connector-curvature="0" />
	<path style="fill:none;stroke:red;stroke-width:1px;stroke-linecap:butt;stroke-linejoin:miter;stroke-opacity:1" d="M 14.6667,77.3333 25.3333,66.6667 z" id="boundary" inkscape:connector-curvature="0" />
	<path style="fill:none;stroke:red;stroke-width:1px;stroke-linecap:butt;stroke-linejoin:miter;stroke-opacity:1" d="M 4,114.667 4,101.333 z" id="boundary" inkscape:connector-curvature="0" />
	<path style="fill:none;stroke:red;stroke-width:1px;stroke-linecap:butt;stroke-linejoin:miter;stroke-opacity:1" d="M 14.6667,137.333 4,128 z" id="boundary" inkscape:connector-curvature="0" />
	<path style="fill:none;stroke:red;stroke-width:1px;stroke-linecap:butt;stroke-linejoin:miter;stroke-opacity:1" d="M 4,128 4,114.667 z" id="boundary" inkscape:connector-curvature="0" />
	<path style="fill:none;stroke:red;stroke-width:1px;stroke-linecap:butt;stroke-linejoin:miter;stroke-opacity:1" d="M 28,138.667 14.6667,137.333 z" id="boundary" inkscape:connector-curvature="0" />
	<path style="fill:none;stroke:red;stroke-width:1px;stroke-linecap:butt;stroke-linejoin:miter;stroke-opacity:1" d="M 41.3333,137.333 28,138.667 z" id="boundary" inkscape:connector-curvature="0" />
	<path style="fill:none;stroke:red;stroke-width:1px;stroke-linecap:butt;stroke-linejoin:miter;stroke-opacity:1" d="M 54.6667,132 41.3333,137.333 z" id="boundary" inkscape:connector-curvature="0" />
	<path style="fill:none;stroke:red;stroke-width:1px;stroke-linecap:butt;stroke-linejoin:miter;stroke-opacity:1" d="M 52,57.3333 64,48 z" id="boundary" inkscape:connector-curvature="0" />
	<path style="fill:none;stroke:red;stroke-width:1px;stroke-linecap:butt;stroke-linejoin:miter;stroke-opacity:1" d="M 52,57.3333 38.6667,60 z" id="boundary" inkscape:connector-curvature="0" />
	<path style="fill:none;stroke:red;stroke-width:1px;stroke-linecap:butt;stroke-linejoin:miter;stroke-opacity:1" d="M 77.3333,41.3333 88,30.6667 z" id="boundary" inkscape:connector-curvature="0" />
	<path style="fill:none;stroke:red;stroke-width:1px;stroke-linecap:butt;stroke-linejoin:miter;stroke-opacity:1" d="M 77.3333,41.3333 64,48 z" id="boundary" inkscape:connector-curvature="0" />
	<path style="fill:none;stroke:red;stroke-width:1px;stroke-linecap:butt;stroke-linejoin:miter;stroke-opacity:1" d="M 108,118.667 93.3333,118.667 z" id="boundary" inkscape:connector-curvature="0" />
	<path style="fill:none;stroke:red;stroke-width:1px;stroke-linecap:butt;stroke-linejoin:miter;stroke-opacity:1" d="M 54.6667,132 68,130.667 z" id="boundary" inkscape:connector-curvature="0" />
	<path style="fill:none;stroke:red;stroke-width:1px;stroke-linecap:butt;stroke-linejoin:miter;stroke-opacity:1" d="M 81.3333,125.333 93.3333,118.667 z" id="boundary" inkscape:connector-curvature="0" />
	<path style="fill:none;stroke:red;stroke-width:1px;stroke-linecap:butt;stroke-linejoin:miter;stroke-opacity:1" d="M 81.3333,125.333 68,130.667 z" id="boundary" inkscape:connector-curvature="0" />
	<path style="fill:none;stroke:red;stroke-width:1px;stroke-linecap:butt;stroke-linejoin:miter;stroke-opacity:1" d="M 108,118.667 101.333,130.667 z" id="boundary" inkscape:connector-curvature="0" />
	<path style="fill:none;stroke:red;stroke-width:1px;stroke-linecap:butt;stroke-linejoin:miter;stroke-opacity:1" d="M 116,185.333 104,178.667 z" id="boundary" inkscape:connector-curvature="0" />
	<path style="fill:none;stroke:red;stroke-width:1px;stroke-linecap:butt;stroke-linejoin:miter;stroke-opacity:1" d="M 101.333,130.667 88,137.333 z" id="boundary" inkscape:connector-curvature="0" />
	<path style="fill:none;stroke:red;stroke-width:1px;stroke-linecap:butt;stroke-linejoin:miter;stroke-opacity:1" d="M 30.6667,161.333 30.6667,174.667 z" id="boundary" inkscape:connector-curvature="0" />
	<path style="fill:none;stroke:red;stroke-width:1px;stroke-linecap:butt;stroke-linejoin:miter;stroke-opacity:1" d="M 44,154.667 30.6667,161.333 z" id="boundary" inkscape:connector-curvature="0" />
	<path style="fill:none;stroke:red;stroke-width:1px;stroke-linecap:butt;stroke-linejoin:miter;stroke-opacity:1" d="M 41.3333,184 30.6667,174.667 z" id="boundary" inkscape:connector-curvature="0" />
	<path style="fill:none;stroke:red;stroke-width:1px;stroke-linecap:butt;stroke-linejoin:miter;stroke-opacity:1" d="M 44,154.667 57.3333,148 z" id="boundary" inkscape:connector-curvature="0" />
	<path style="fill:none;stroke:red;stroke-width:1px;stroke-linecap:butt;stroke-linejoin:miter;stroke-opacity:1" d="M 77.3333,288 68,304 z" id="boundary" inkscape:connector-curvature="0" />
	<path style="fill:none;stroke:red;stroke-width:1px;stroke-linecap:butt;stroke-linejoin:miter;stroke-opacity:1" d="M 53.3333,190.667 41.3333,184 z" id="boundary" inkscape:connector-curvature="0" />
	<path style="fill:none;stroke:red;stroke-width:1px;stroke-linecap:butt;stroke-linejoin:miter;stroke-opacity:1" d="M 53.3333,190.667 66.6667,192 z" id="boundary" inkscape:connector-curvature="0" />
	<path style="fill:none;stroke:red;stroke-width:1px;stroke-linecap:butt;stroke-linejoin:miter;stroke-opacity:1" d="M 61.3333,317.333 68,304 z" id="boundary" inkscape:connector-curvature="0" />
	<path style="fill:none;stroke:red;stroke-width:1px;stroke-linecap:butt;stroke-linejoin:miter;stroke-opacity:1" d="M 57.3333,148 70.6667,144 z" id="boundary" inkscape:connector-curvature="0" />
	<path style="fill:none;stroke:red;stroke-width:1px;stroke-linecap:butt;stroke-linejoin:miter;stroke-opacity:1" d="M 66.6667,192 80,192 z" id="boundary" inkscape:connector-curvature="0" />
	<path style="fill:none;stroke:red;stroke-width:1px;stroke-linecap:butt;stroke-linejoin:miter;stroke-opacity:1" d="M 92,185.333 80,192 z" id="boundary" inkscape:connector-curvature="0" />
	<path style="fill:none;stroke:red;stroke-width:1px;stroke-linecap:butt;stroke-linejoin:miter;stroke-opacity:1" d="M 104,178.667 92,185.333 z" id="boundary" inkscape:connector-curvature="0" />
	<path style="fill:none;stroke:red;stroke-width:1px;stroke-linecap:butt;stroke-linejoin:miter;stroke-opacity:1" d="M 70.6667,144 88,137.333 z" id="boundary" inkscape:connector-curvature="0" />
	<path style="fill:none;stroke:red;stroke-width:1px;stroke-linecap:butt;stroke-linejoin:miter;stroke-opacity:1" d="M 110.667,214.667 104,228 z" id="boundary" inkscape:connector-curvature="0" />
	<path style="fill:none;stroke:red;stroke-width:1px;stroke-linecap:butt;stroke-linejoin:miter;stroke-opacity:1" d="M 77.3333,288 84,268 z" id="boundary" inkscape:connector-curvature="0" />
	<path style="fill:none;stroke:red;stroke-width:1px;stroke-linecap:butt;stroke-linejoin:miter;stroke-opacity:1" d="M 84,268 90.6667,254.667 z" id="boundary" inkscape:connector-curvature="0" />
	<path style="fill:none;stroke:red;stroke-width:1px;stroke-linecap:butt;stroke-linejoin:miter;stroke-opacity:1" d="M 97.3333,241.333 90.6667,254.667 z" id="boundary" inkscape:connector-curvature="0" />
	<path style="fill:none;stroke:red;stroke-width:1px;stroke-linecap:butt;stroke-linejoin:miter;stroke-opacity:1" d="M 104,228 97.3333,241.333 z" id="boundary" inkscape:connector-curvature="0" />
	<path style="fill:none;stroke:red;stroke-width:1px;stroke-linecap:butt;stroke-linejoin:miter;stroke-opacity:1" d="M 88,30.6667 100,24 z" id="boundary" inkscape:connector-curvature="0" />
	<path style="fill:none;stroke:red;stroke-width:1px;stroke-linecap:butt;stroke-linejoin:miter;stroke-opacity:1" d="M 61.3333,317.333 50.6667,328 z" id="boundary" inkscape:connector-curvature="0" />
	<path style="fill:none;stroke:red;stroke-width:1px;stroke-linecap:butt;stroke-linejoin:miter;stroke-opacity:1" d="M 165.333,10.6667 177.333,4 z" id="boundary" inkscape:connector-curvature="0" />
	<path style="fill:none;stroke:red;stroke-width:1px;stroke-linecap:butt;stroke-linejoin:miter;stroke-opacity:1" d="M 177.333,4 190.667,4 z" id="boundary" inkscape:connector-curvature="0" />
	<path style="fill:none;stroke:red;stroke-width:1px;stroke-linecap:butt;stroke-linejoin:miter;stroke-opacity:1" d="M 165.333,10.6667 152,13.3333 z" id="boundary" inkscape:connector-curvature="0" />
	<path style="fill:none;stroke:red;stroke-width:1px;stroke-linecap:butt;stroke-linejoin:miter;stroke-opacity:1" d="M 100,24 112,17.3333 z" id="boundary" inkscape:connector-curvature="0" />
	<path style="fill:none;stroke:red;stroke-width:1px;stroke-linecap:butt;stroke-linejoin:miter;stroke-opacity:1" d="M 112,17.3333 125.333,17.3333 z" id="boundary" inkscape:connector-curvature="0" />
	<path style="fill:none;stroke:red;stroke-width:1px;stroke-linecap:butt;stroke-linejoin:miter;stroke-opacity:1" d="M 152,13.3333 138.667,17.3333 z" id="boundary" inkscape:connector-curvature="0" />
	<path style="fill:none;stroke:red;stroke-width:1px;stroke-linecap:butt;stroke-linejoin:miter;stroke-opacity:1" d="M 138.667,17.3333 125.333,17.3333 z" id="boundary" inkscape:connector-curvature="0" />
	<path style="fill:none;stroke:red;stroke-width:1px;stroke-linecap:butt;stroke-linejoin:miter;stroke-opacity:1" d="M 190.667,4 204,4 z" id="boundary" inkscape:connector-curvature="0" />
	<path style="fill:none;stroke:red;stroke-width:1px;stroke-linecap:butt;stroke-linejoin:miter;stroke-opacity:1" d="M 204,4 216,10.6667 z" id="boundary" inkscape:connector-curvature="0" />
	<path style="fill:none;stroke:red;stroke-width:1px;stroke-linecap:butt;stroke-linejoin:miter;stroke-opacity:1" d="M 216,10.6667 228,17.3333 z" id="boundary" inkscape:connector-curvature="0" />
	<path style="fill:none;stroke:red;stroke-width:1px;stroke-linecap:butt;stroke-linejoin:miter;stroke-opacity:1" d="M 228,17.3333 237.333,28 z" id="boundary" inkscape:connector-curvature="0" />
	<path style="fill:none;stroke:red;stroke-width:1px;stroke-linecap:butt;stroke-linejoin:miter;stroke-opacity:1" d="M 248,37.3333 237.333,28 z" id="boundary" inkscape:connector-curvature="0" />
	<path style="fill:none;stroke:red;stroke-width:1px;stroke-linecap:butt;stroke-linejoin:miter;stroke-opacity:1" d="M 257.333,48 248,37.3333 z" id="boundary" inkscape:connector-curvature="0" />
	<path style="fill:none;stroke:red;stroke-width:1px;stroke-linecap:butt;stroke-linejoin:miter;stroke-opacity:1" d="M 257.333,48 264,60 z" id="boundary" inkscape:connector-curvature="0" />
	<path style="fill:none;stroke:red;stroke-width:1px;stroke-linecap:butt;stroke-linejoin:miter;stroke-opacity:1" d="M 264,60 269.333,73.3333 z" id="boundary" inkscape:connector-curvature="0" />
	<path style="fill:none;stroke:red;stroke-width:1px;stroke-linecap:butt;stroke-linejoin:miter;stroke-opacity:1" d="M 269.333,73.3333 272,86.6667 z" id="boundary" inkscape:connector-curvature="0" />
	<path style="fill:none;stroke:red;stroke-width:1px;stroke-linecap:butt;stroke-linejoin:miter;stroke-opacity:1" d="M 272,86.6667 278.667,98.6667 z" id="boundary" inkscape:connector-curvature="0" />
	<path style="fill:none;stroke:red;stroke-width:1px;stroke-linecap:butt;stroke-linejoin:miter;stroke-opacity:1" d="M 278.667,98.6667 278.667,112 z" id="boundary" inkscape:connector-curvature="0" />
	<path style="fill:none;stroke:red;stroke-width:1px;stroke-linecap:butt;stroke-linejoin:miter;stroke-opacity:1" d="M 272,132 278.667,112 z" id="boundary" inkscape:connector-curvature="0" />
	<path style="fill:none;stroke:red;stroke-width:1px;stroke-linecap:butt;stroke-linejoin:miter;stroke-opacity:1" d="M 117.333,198.667 110.667,214.667 z" id="boundary" inkscape:connector-curvature="0" />
	<path style="fill:none;stroke:red;stroke-width:1px;stroke-linecap:butt;stroke-linejoin:miter;stroke-opacity:1" d="M 117.333,198.667 116,185.333 z" id="boundary" inkscape:connector-curvature="0" />
	<path style="fill:none;stroke:red;stroke-width:1px;stroke-linecap:butt;stroke-linejoin:miter;stroke-opacity:1" d="M 261.333,245.333 250.667,237.333 z" id="boundary" inkscape:connector-curvature="0" />
	<path style="fill:none;stroke:red;stroke-width:1px;stroke-linecap:butt;stroke-linejoin:miter;stroke-opacity:1" d="M 242.667,196 249.333,182.667 z" id="boundary" inkscape:connector-curvature="0" />
	<path style="fill:none;stroke:red;stroke-width:1px;stroke-linecap:butt;stroke-linejoin:miter;stroke-opacity:1" d="M 256,169.333 249.333,182.667 z" id="boundary" inkscape:connector-curvature="0" />
	<path style="fill:none;stroke:red;stroke-width:1px;stroke-linecap:butt;stroke-linejoin:miter;stroke-opacity:1" d="M 242.667,196 232,205.333 z" id="boundary" inkscape:connector-curvature="0" />
	<path style="fill:none;stroke:red;stroke-width:1px;stroke-linecap:butt;stroke-linejoin:miter;stroke-opacity:1" d="M 232,205.333 232,218.667 z" id="boundary" inkscape:connector-curvature="0" />
	<path style="fill:none;stroke:red;stroke-width:1px;stroke-linecap:butt;stroke-linejoin:miter;stroke-opacity:1" d="M 238.667,230.667 232,218.667 z" id="boundary" inkscape:connector-curvature="0" />
	<path style="fill:none;stroke:red;stroke-width:1px;stroke-linecap:butt;stroke-linejoin:miter;stroke-opacity:1" d="M 250.667,237.333 238.667,230.667 z" id="boundary" inkscape:connector-curvature="0" />
	<path style="fill:none;stroke:red;stroke-width:1px;stroke-linecap:butt;stroke-linejoin:miter;stroke-opacity:1" d="M 256,169.333 265.333,158.667 z" id="boundary" inkscape:connector-curvature="0" />
	<path style="fill:none;stroke:red;stroke-width:1px;stroke-linecap:butt;stroke-linejoin:miter;stroke-opacity:1" d="M 265.333,145.333 265.333,158.667 z" id="boundary" inkscape:connector-curvature="0" />
	<path style="fill:none;stroke:red;stroke-width:1px;stroke-linecap:butt;stroke-linejoin:miter;stroke-opacity:1" d="M 281.333,265.333 272,254.667 z" id="boundary" inkscape:connector-curvature="0" />
	<path style="fill:none;stroke:red;stroke-width:1px;stroke-linecap:butt;stroke-linejoin:miter;stroke-opacity:1" d="M 265.333,145.333 272,132 z" id="boundary" inkscape:connector-curvature="0" />
	<path style="fill:none;stroke:red;stroke-width:1px;stroke-linecap:butt;stroke-linejoin:miter;stroke-opacity:1" d="M 272,254.667 261.333,245.333 z" id="boundary" inkscape:connector-curvature="0" />
	<path style="fill:none;stroke:red;stroke-width:1px;stroke-linecap:butt;stroke-linejoin:miter;stroke-opacity:1" d="M 281.333,265.333 285.333,278.667 z" id="boundary" inkscape:connector-curvature="0" />
	<path style="fill:none;stroke:red;stroke-width:1px;stroke-linecap:butt;stroke-linejoin:miter;stroke-opacity:1" d="M 304,297.333 292,290.667 z" id="boundary" inkscape:connector-curvature="0" />
	<path style="fill:none;stroke:red;stroke-width:1px;stroke-linecap:butt;stroke-linejoin:miter;stroke-opacity:1" d="M 292,290.667 285.333,278.667 z" id="boundary" inkscape:connector-curvature="0" />
	<path style="fill:none;stroke:red;stroke-width:1px;stroke-linecap:butt;stroke-linejoin:miter;stroke-opacity:1" d="M 317.333,300 304,297.333 z" id="boundary" inkscape:connector-curvature="0" />
	<path style="fill:none;stroke:red;stroke-width:1px;stroke-linecap:butt;stroke-linejoin:miter;stroke-opacity:1" d="M 50.6667,328 50.6667,341.333 z" id="boundary" inkscape:connector-curvature="0" />
	<path style="fill:none;stroke:red;stroke-width:1px;stroke-linecap:butt;stroke-linejoin:miter;stroke-opacity:1" d="M 48,397.333 34.6667,404 z" id="boundary" inkscape:connector-curvature="0" />
	<path style="fill:none;stroke:red;stroke-width:1px;stroke-linecap:butt;stroke-linejoin:miter;stroke-opacity:1" d="M 50.6667,341.333 50.6667,354.667 z" id="boundary" inkscape:connector-curvature="0" />
	<path style="fill:none;stroke:red;stroke-width:1px;stroke-linecap:butt;stroke-linejoin:miter;stroke-opacity:1" d="M 50.6667,354.667 50.6667,368 z" id="boundary" inkscape:connector-curvature="0" />
	<path style="fill:none;stroke:red;stroke-width:1px;stroke-linecap:butt;stroke-linejoin:miter;stroke-opacity:1" d="M 17.3333,428 24,414.667 z" id="boundary" inkscape:connector-curvature="0" />
	<path style="fill:none;stroke:red;stroke-width:1px;stroke-linecap:butt;stroke-linejoin:miter;stroke-opacity:1" d="M 30.6667,432 17.3333,428 z" id="boundary" inkscape:connector-curvature="0" />
	<path style="fill:none;stroke:red;stroke-width:1px;stroke-linecap:butt;stroke-linejoin:miter;stroke-opacity:1" d="M 44,434.667 30.6667,432 z" id="boundary" inkscape:connector-curvature="0" />
	<path style="fill:none;stroke:red;stroke-width:1px;stroke-linecap:butt;stroke-linejoin:miter;stroke-opacity:1" d="M 24,414.667 34.6667,404 z" id="boundary" inkscape:connector-curvature="0" />
	<path style="fill:none;stroke:red;stroke-width:1px;stroke-linecap:butt;stroke-linejoin:miter;stroke-opacity:1" d="M 57.3333,380 50.6667,368 z" id="boundary" inkscape:connector-curvature="0" />
	<path style="fill:none;stroke:red;stroke-width:1px;stroke-linecap:butt;stroke-linejoin:miter;stroke-opacity:1" d="M 65.3333,412 78.6667,405.333 z" id="boundary" inkscape:connector-curvature="0" />
	<path style="fill:none;stroke:red;stroke-width:1px;stroke-linecap:butt;stroke-linejoin:miter;stroke-opacity:1" d="M 88,417.333 78.6667,405.333 z" id="boundary" inkscape:connector-curvature="0" />
	<path style="fill:none;stroke:red;stroke-width:1px;stroke-linecap:butt;stroke-linejoin:miter;stroke-opacity:1" d="M 88,417.333 77.3333,428 z" id="boundary" inkscape:connector-curvature="0" />
	<path style="fill:none;stroke:red;stroke-width:1px;stroke-linecap:butt;stroke-linejoin:miter;stroke-opacity:1" d="M 65.3333,412 54.6667,424 z" id="boundary" inkscape:connector-curvature="0" />
	<path style="fill:none;stroke:red;stroke-width:1px;stroke-linecap:butt;stroke-linejoin:miter;stroke-opacity:1" d="M 125.333,445.333 112,445.333 z" id="boundary" inkscape:connector-curvature="0" />
	<path style="fill:none;stroke:red;stroke-width:1px;stroke-linecap:butt;stroke-linejoin:miter;stroke-opacity:1" d="M 125.333,445.333 133.333,456 z" id="boundary" inkscape:connector-curvature="0" />
	<path style="fill:none;stroke:red;stroke-width:1px;stroke-linecap:butt;stroke-linejoin:miter;stroke-opacity:1" d="M 64,434.667 77.3333,428 z" id="boundary" inkscape:connector-curvature="0" />
	<path style="fill:none;stroke:red;stroke-width:1px;stroke-linecap:butt;stroke-linejoin:miter;stroke-opacity:1" d="M 57.3333,448 44,434.667 z" id="boundary" inkscape:connector-curvature="0" />
	<path style="fill:none;stroke:red;stroke-width:1px;stroke-linecap:butt;stroke-linejoin:miter;stroke-opacity:1" d="M 112,445.333 102.667,462.667 z" id="boundary" inkscape:connector-curvature="0" />
	<path style="fill:none;stroke:red;stroke-width:1px;stroke-linecap:butt;stroke-linejoin:miter;stroke-opacity:1" d="M 57.3333,448 57.3333,461.333 z" id="boundary" inkscape:connector-curvature="0" />
	<path style="fill:none;stroke:red;stroke-width:1px;stroke-linecap:butt;stroke-linejoin:miter;stroke-opacity:1" d="M 133.333,456 137.333,469.333 z" id="boundary" inkscape:connector-curvature="0" />
	<path style="fill:none;stroke:red;stroke-width:1px;stroke-linecap:butt;stroke-linejoin:miter;stroke-opacity:1" d="M 102.667,462.667 92,472 z" id="boundary" inkscape:connector-curvature="0" />
	<path style="fill:none;stroke:red;stroke-width:1px;stroke-linecap:butt;stroke-linejoin:miter;stroke-opacity:1" d="M 70.6667,478.667 57.3333,461.333 z" id="boundary" inkscape:connector-curvature="0" />
	<path style="fill:none;stroke:red;stroke-width:1px;stroke-linecap:butt;stroke-linejoin:miter;stroke-opacity:1" d="M 70.6667,478.667 82.6667,485.333 z" id="boundary" inkscape:connector-curvature="0" />
	<path style="fill:none;stroke:red;stroke-width:1px;stroke-linecap:butt;stroke-linejoin:miter;stroke-opacity:1" d="M 92,472 82.6667,485.333 z" id="boundary" inkscape:connector-curvature="0" />
	<path style="fill:none;stroke:red;stroke-width:1px;stroke-linecap:butt;stroke-linejoin:miter;stroke-opacity:1" d="M 137.333,469.333 144,481.333 z" id="boundary" inkscape:connector-curvature="0" />
	<path style="fill:none;stroke:red;stroke-width:1px;stroke-linecap:butt;stroke-linejoin:miter;stroke-opacity:1" d="M 150.667,493.333 150.667,506.667 z" id="boundary" inkscape:connector-curvature="0" />
	<path style="fill:none;stroke:red;stroke-width:1px;stroke-linecap:butt;stroke-linejoin:miter;stroke-opacity:1" d="M 144,481.333 150.667,493.333 z" id="boundary" inkscape:connector-curvature="0" />
	<path style="fill:none;stroke:red;stroke-width:1px;stroke-linecap:butt;stroke-linejoin:miter;stroke-opacity:1" d="M 157.333,518.667 150.667,506.667 z" id="boundary" inkscape:connector-curvature="0" />
	<path style="fill:none;stroke:red;stroke-width:1px;stroke-linecap:butt;stroke-linejoin:miter;stroke-opacity:1" d="M 157.333,518.667 164,530.667 z" id="boundary" inkscape:connector-curvature="0" />
	<path style="fill:none;stroke:red;stroke-width:1px;stroke-linecap:butt;stroke-linejoin:miter;stroke-opacity:1" d="M 164,530.667 166.667,544 z" id="boundary" inkscape:connector-curvature="0" />
	<path style="fill:none;stroke:red;stroke-width:1px;stroke-linecap:butt;stroke-linejoin:miter;stroke-opacity:1" d="M 177.333,552 166.667,544 z" id="boundary" inkscape:connector-curvature="0" />
	<path style="fill:none;stroke:red;stroke-width:1px;stroke-linecap:butt;stroke-linejoin:miter;stroke-opacity:1" d="M 170.667,874.667 170.667,888 z" id="boundary" inkscape:connector-curvature="0" />
	<path style="fill:none;stroke:red;stroke-width:1px;stroke-linecap:butt;stroke-linejoin:miter;stroke-opacity:1" d="M 178.667,898.667 170.667,888 z" id="boundary" inkscape:connector-curvature="0" />
	<path style="fill:none;stroke:red;stroke-width:1px;stroke-linecap:butt;stroke-linejoin:miter;stroke-opacity:1" d="M 192,898.667 178.667,898.667 z" id="boundary" inkscape:connector-curvature="0" />
	<path style="fill:none;stroke:red;stroke-width:1px;stroke-linecap:butt;stroke-linejoin:miter;stroke-opacity:1" d="M 170.667,874.667 177.333,861.333 z" id="boundary" inkscape:connector-curvature="0" />
	<path style="fill:none;stroke:red;stroke-width:1px;stroke-linecap:butt;stroke-linejoin:miter;stroke-opacity:1" d="M 177.333,552 181.333,565.333 z" id="boundary" inkscape:connector-curvature="0" />
	<path style="fill:none;stroke:red;stroke-width:1px;stroke-linecap:butt;stroke-linejoin:miter;stroke-opacity:1" d="M 181.333,565.333 192,574.667 z" id="boundary" inkscape:connector-curvature="0" />
	<path style="fill:none;stroke:red;stroke-width:1px;stroke-linecap:butt;stroke-linejoin:miter;stroke-opacity:1" d="M 192,574.667 197.333,588 z" id="boundary" inkscape:connector-curvature="0" />
	<path style="fill:none;stroke:red;stroke-width:1px;stroke-linecap:butt;stroke-linejoin:miter;stroke-opacity:1" d="M 197.333,588 210.667,592 z" id="boundary" inkscape:connector-curvature="0" />
	<path style="fill:none;stroke:red;stroke-width:1px;stroke-linecap:butt;stroke-linejoin:miter;stroke-opacity:1" d="M 210.667,592 218.667,602.667 z" id="boundary" inkscape:connector-curvature="0" />
	<path style="fill:none;stroke:red;stroke-width:1px;stroke-linecap:butt;stroke-linejoin:miter;stroke-opacity:1" d="M 232,605.333 218.667,602.667 z" id="boundary" inkscape:connector-curvature="0" />
	<path style="fill:none;stroke:red;stroke-width:1px;stroke-linecap:butt;stroke-linejoin:miter;stroke-opacity:1" d="M 188,850.667 177.333,861.333 z" id="boundary" inkscape:connector-curvature="0" />
	<path style="fill:none;stroke:red;stroke-width:1px;stroke-linecap:butt;stroke-linejoin:miter;stroke-opacity:1" d="M 232,605.333 244,612 z" id="boundary" inkscape:connector-curvature="0" />
	<path style="fill:none;stroke:red;stroke-width:1px;stroke-linecap:butt;stroke-linejoin:miter;stroke-opacity:1" d="M 244,612 248,625.333 z" id="boundary" inkscape:connector-curvature="0" />
	<path style="fill:none;stroke:red;stroke-width:1px;stroke-linecap:butt;stroke-linejoin:miter;stroke-opacity:1" d="M 257.333,650.667 250.667,638.667 z" id="boundary" inkscape:connector-curvature="0" />
	<path style="fill:none;stroke:red;stroke-width:1px;stroke-linecap:butt;stroke-linejoin:miter;stroke-opacity:1" d="M 250.667,638.667 248,625.333 z" id="boundary" inkscape:connector-curvature="0" />
	<path style="fill:none;stroke:red;stroke-width:1px;stroke-linecap:butt;stroke-linejoin:miter;stroke-opacity:1" d="M 257.333,650.667 260,664 z" id="boundary" inkscape:connector-curvature="0" />
	<path style="fill:none;stroke:red;stroke-width:1px;stroke-linecap:butt;stroke-linejoin:miter;stroke-opacity:1" d="M 260,664 264,677.333 z" id="boundary" inkscape:connector-curvature="0" />
	<path style="fill:none;stroke:red;stroke-width:1px;stroke-linecap:butt;stroke-linejoin:miter;stroke-opacity:1" d="M 270.667,689.333 264,677.333 z" id="boundary" inkscape:connector-curvature="0" />
	<path style="fill:none;stroke:red;stroke-width:1px;stroke-linecap:butt;stroke-linejoin:miter;stroke-opacity:1" d="M 270.667,689.333 277.333,701.333 z" id="boundary" inkscape:connector-curvature="0" />
	<path style="fill:none;stroke:red;stroke-width:1px;stroke-linecap:butt;stroke-linejoin:miter;stroke-opacity:1" d="M 277.333,701.333 284,713.333 z" id="boundary" inkscape:connector-curvature="0" />
	<path style="fill:none;stroke:red;stroke-width:1px;stroke-linecap:butt;stroke-linejoin:miter;stroke-opacity:1" d="M 284,713.333 284,726.667 z" id="boundary" inkscape:connector-curvature="0" />
	<path style="fill:none;stroke:red;stroke-width:1px;stroke-linecap:butt;stroke-linejoin:miter;stroke-opacity:1" d="M 284,726.667 293.333,737.333 z" id="boundary" inkscape:connector-curvature="0" />
	<path style="fill:none;stroke:red;stroke-width:1px;stroke-linecap:butt;stroke-linejoin:miter;stroke-opacity:1" d="M 300,749.333 304,762.667 z" id="boundary" inkscape:connector-curvature="0" />
	<path style="fill:none;stroke:red;stroke-width:1px;stroke-linecap:butt;stroke-linejoin:miter;stroke-opacity:1" d="M 304,762.667 297.333,774.667 z" id="boundary" inkscape:connector-curvature="0" />
	<path style="fill:none;stroke:red;stroke-width:1px;stroke-linecap:butt;stroke-linejoin:miter;stroke-opacity:1" d="M 293.333,737.333 300,749.333 z" id="boundary" inkscape:connector-curvature="0" />
	<path style="fill:none;stroke:red;stroke-width:1px;stroke-linecap:butt;stroke-linejoin:miter;stroke-opacity:1" d="M 290.667,788 297.333,774.667 z" id="boundary" inkscape:connector-curvature="0" />
	<path style="fill:none;stroke:red;stroke-width:1px;stroke-linecap:butt;stroke-linejoin:miter;stroke-opacity:1" d="M 201.333,850.667 188,850.667 z" id="boundary" inkscape:connector-curvature="0" />
	<path style="fill:none;stroke:red;stroke-width:1px;stroke-linecap:butt;stroke-linejoin:miter;stroke-opacity:1" d="M 213.333,844 201.333,850.667 z" id="boundary" inkscape:connector-curvature="0" />
	<path style="fill:none;stroke:red;stroke-width:1px;stroke-linecap:butt;stroke-linejoin:miter;stroke-opacity:1" d="M 226.667,844 213.333,844 z" id="boundary" inkscape:connector-curvature="0" />
	<path style="fill:none;stroke:red;stroke-width:1px;stroke-linecap:butt;stroke-linejoin:miter;stroke-opacity:1" d="M 240,844 226.667,844 z" id="boundary" inkscape:connector-curvature="0" />
	<path style="fill:none;stroke:red;stroke-width:1px;stroke-linecap:butt;stroke-linejoin:miter;stroke-opacity:1" d="M 253.333,838.667 240,844 z" id="boundary" inkscape:connector-curvature="0" />
	<path style="fill:none;stroke:red;stroke-width:1px;stroke-linecap:butt;stroke-linejoin:miter;stroke-opacity:1" d="M 205.333,898.667 192,898.667 z" id="boundary" inkscape:connector-curvature="0" />
	<path style="fill:none;stroke:red;stroke-width:1px;stroke-linecap:butt;stroke-linejoin:miter;stroke-opacity:1" d="M 244,898.667 230.667,898.667 z" id="boundary" inkscape:connector-curvature="0" />
	<path style="fill:none;stroke:red;stroke-width:1px;stroke-linecap:butt;stroke-linejoin:miter;stroke-opacity:1" d="M 230.667,898.667 218.667,892 z" id="boundary" inkscape:connector-curvature="0" />
	<path style="fill:none;stroke:red;stroke-width:1px;stroke-linecap:butt;stroke-linejoin:miter;stroke-opacity:1" d="M 205.333,898.667 218.667,892 z" id="boundary" inkscape:connector-curvature="0" />
	<path style="fill:none;stroke:red;stroke-width:1px;stroke-linecap:butt;stroke-linejoin:miter;stroke-opacity:1" d="M 257.333,898.667 244,898.667 z" id="boundary" inkscape:connector-curvature="0" />
	<path style="fill:none;stroke:red;stroke-width:1px;stroke-linecap:butt;stroke-linejoin:miter;stroke-opacity:1" d="M 253.333,838.667 266.667,832 z" id="boundary" inkscape:connector-curvature="0" />
	<path style="fill:none;stroke:red;stroke-width:1px;stroke-linecap:butt;stroke-linejoin:miter;stroke-opacity:1" d="M 277.333,814.667 266.667,832 z" id="boundary" inkscape:connector-curvature="0" />
	<path style="fill:none;stroke:red;stroke-width:1px;stroke-linecap:butt;stroke-linejoin:miter;stroke-opacity:1" d="M 284,801.333 277.333,814.667 z" id="boundary" inkscape:connector-curvature="0" />
	<path style="fill:none;stroke:red;stroke-width:1px;stroke-linecap:butt;stroke-linejoin:miter;stroke-opacity:1" d="M 270.667,898.667 257.333,898.667 z" id="boundary" inkscape:connector-curvature="0" />
	<path style="fill:none;stroke:red;stroke-width:1px;stroke-linecap:butt;stroke-linejoin:miter;stroke-opacity:1" d="M 297.333,898.667 284,898.667 z" id="boundary" inkscape:connector-curvature="0" />
	<path style="fill:none;stroke:red;stroke-width:1px;stroke-linecap:butt;stroke-linejoin:miter;stroke-opacity:1" d="M 284,898.667 270.667,898.667 z" id="boundary" inkscape:connector-curvature="0" />
	<path style="fill:none;stroke:red;stroke-width:1px;stroke-linecap:butt;stroke-linejoin:miter;stroke-opacity:1" d="M 297.333,898.667 310.667,894.667 z" id="boundary" inkscape:connector-curvature="0" />
	<path style="fill:none;stroke:red;stroke-width:1px;stroke-linecap:butt;stroke-linejoin:miter;stroke-opacity:1" d="M 284,801.333 290.667,788 z" id="boundary" inkscape:connector-curvature="0" />
	<path style="fill:none;stroke:red;stroke-width:1px;stroke-linecap:butt;stroke-linejoin:miter;stroke-opacity:1" d="M 317.333,300 329.333,306.667 z" id="boundary" inkscape:connector-curvature="0" />
	<path style="fill:none;stroke:red;stroke-width:1px;stroke-linecap:butt;stroke-linejoin:miter;stroke-opacity:1" d="M 329.333,306.667 342.667,310.667 z" id="boundary" inkscape:connector-curvature="0" />
	<path style="fill:none;stroke:red;stroke-width:1px;stroke-linecap:butt;stroke-linejoin:miter;stroke-opacity:1" d="M 342.667,310.667 354.667,317.333 z" id="boundary" inkscape:connector-curvature="0" />
	<path style="fill:none;stroke:red;stroke-width:1px;stroke-linecap:butt;stroke-linejoin:miter;stroke-opacity:1" d="M 354.667,317.333 368,317.333 z" id="boundary" inkscape:connector-curvature="0" />
	<path style="fill:none;stroke:red;stroke-width:1px;stroke-linecap:butt;stroke-linejoin:miter;stroke-opacity:1" d="M 368,317.333 380,324 z" id="boundary" inkscape:connector-curvature="0" />
	<path style="fill:none;stroke:red;stroke-width:1px;stroke-linecap:butt;stroke-linejoin:miter;stroke-opacity:1" d="M 380,324 392,330.667 z" id="boundary" inkscape:connector-curvature="0" />
	<path style="fill:none;stroke:red;stroke-width:1px;stroke-linecap:butt;stroke-linejoin:miter;stroke-opacity:1" d="M 405.333,330.667 392,330.667 z" id="boundary" inkscape:connector-curvature="0" />
	<path style="fill:none;stroke:red;stroke-width:1px;stroke-linecap:butt;stroke-linejoin:miter;stroke-opacity:1" d="M 432,337.333 418.667,334.667 z" id="boundary" inkscape:connector-curvature="0" />
	<path style="fill:none;stroke:red;stroke-width:1px;stroke-linecap:butt;stroke-linejoin:miter;stroke-opacity:1" d="M 418.667,334.667 405.333,330.667 z" id="boundary" inkscape:connector-curvature="0" />
	<path style="fill:none;stroke:red;stroke-width:1px;stroke-linecap:butt;stroke-linejoin:miter;stroke-opacity:1" d="M 432,337.333 444,344 z" id="boundary" inkscape:connector-curvature="0" />
	<path style="fill:none;stroke:red;stroke-width:1px;stroke-linecap:butt;stroke-linejoin:miter;stroke-opacity:1" d="M 456,350.667 444,344 z" id="boundary" inkscape:connector-curvature="0" />
	<path style="fill:none;stroke:red;stroke-width:1px;stroke-linecap:butt;stroke-linejoin:miter;stroke-opacity:1" d="M 469.333,352 456,350.667 z" id="boundary" inkscape:connector-curvature="0" />
	<path style="fill:none;stroke:red;stroke-width:1px;stroke-linecap:butt;stroke-linejoin:miter;stroke-opacity:1" d="M 492,368 478.667,362.667 z" id="boundary" inkscape:connector-curvature="0" />
	<path style="fill:none;stroke:red;stroke-width:1px;stroke-linecap:butt;stroke-linejoin:miter;stroke-opacity:1" d="M 478.667,362.667 469.333,352 z" id="boundary" inkscape:connector-curvature="0" />
	<path style="fill:none;stroke:red;stroke-width:1px;stroke-linecap:butt;stroke-linejoin:miter;stroke-opacity:1" d="M 492,368 501.333,378.667 z" id="boundary" inkscape:connector-curvature="0" />
	<path style="fill:none;stroke:red;stroke-width:1px;stroke-linecap:butt;stroke-linejoin:miter;stroke-opacity:1" d="M 501.333,378.667 512,388 z" id="boundary" inkscape:connector-curvature="0" />
	<path style="fill:none;stroke:red;stroke-width:1px;stroke-linecap:butt;stroke-linejoin:miter;stroke-opacity:1" d="M 512,388 518.667,400 z" id="boundary" inkscape:connector-curvature="0" />
	<path style="fill:none;stroke:red;stroke-width:1px;stroke-linecap:butt;stroke-linejoin:miter;stroke-opacity:1" d="M 518.667,400 526.667,410.667 z" id="boundary" inkscape:connector-curvature="0" />
	<path style="fill:none;stroke:red;stroke-width:1px;stroke-linecap:butt;stroke-linejoin:miter;stroke-opacity:1" d="M 526.667,410.667 532,424 z" id="boundary" inkscape:connector-curvature="0" />
	<path style="fill:none;stroke:red;stroke-width:1px;stroke-linecap:butt;stroke-linejoin:miter;stroke-opacity:1" d="M 542.667,432 532,424 z" id="boundary" inkscape:connector-curvature="0" />
	<path style="fill:none;stroke:red;stroke-width:1px;stroke-linecap:butt;stroke-linejoin:miter;stroke-opacity:1" d="M 548,445.333 552,458.667 z" id="boundary" inkscape:connector-curvature="0" />
	<path style="fill:none;stroke:red;stroke-width:1px;stroke-linecap:butt;stroke-linejoin:miter;stroke-opacity:1" d="M 552,458.667 558.667,470.667 z" id="boundary" inkscape:connector-curvature="0" />
	<path style="fill:none;stroke:red;stroke-width:1px;stroke-linecap:butt;stroke-linejoin:miter;stroke-opacity:1" d="M 565.333,482.667 558.667,470.667 z" id="boundary" inkscape:connector-curvature="0" />
	<path style="fill:none;stroke:red;stroke-width:1px;stroke-linecap:butt;stroke-linejoin:miter;stroke-opacity:1" d="M 565.333,482.667 565.333,496 z" id="boundary" inkscape:connector-curvature="0" />
	<path style="fill:none;stroke:red;stroke-width:1px;stroke-linecap:butt;stroke-linejoin:miter;stroke-opacity:1" d="M 548,445.333 542.667,432 z" id="boundary" inkscape:connector-curvature="0" />
	<path style="fill:none;stroke:red;stroke-width:1px;stroke-linecap:butt;stroke-linejoin:miter;stroke-opacity:1" d="M 532,785.333 545.333,785.333 z" id="boundary" inkscape:connector-curvature="0" />
	<path style="fill:none;stroke:red;stroke-width:1px;stroke-linecap:butt;stroke-linejoin:miter;stroke-opacity:1" d="M 545.333,785.333 553.333,796 z" id="boundary" inkscape:connector-curvature="0" />
	<path style="fill:none;stroke:red;stroke-width:1px;stroke-linecap:butt;stroke-linejoin:miter;stroke-opacity:1" d="M 572,508 565.333,496 z" id="boundary" inkscape:connector-curvature="0" />
	<path style="fill:none;stroke:red;stroke-width:1px;stroke-linecap:butt;stroke-linejoin:miter;stroke-opacity:1" d="M 578.667,520 572,508 z" id="boundary" inkscape:connector-curvature="0" />
	<path style="fill:none;stroke:red;stroke-width:1px;stroke-linecap:butt;stroke-linejoin:miter;stroke-opacity:1" d="M 578.667,520 582.667,533.333 z" id="boundary" inkscape:connector-curvature="0" />
	<path style="fill:none;stroke:red;stroke-width:1px;stroke-linecap:butt;stroke-linejoin:miter;stroke-opacity:1" d="M 582.667,533.333 585.333,546.667 z" id="boundary" inkscape:connector-curvature="0" />
	<path style="fill:none;stroke:red;stroke-width:1px;stroke-linecap:butt;stroke-linejoin:miter;stroke-opacity:1" d="M 589.333,560 585.333,546.667 z" id="boundary" inkscape:connector-curvature="0" />
	<path style="fill:none;stroke:red;stroke-width:1px;stroke-linecap:butt;stroke-linejoin:miter;stroke-opacity:1" d="M 598.667,585.333 592,573.333 z" id="boundary" inkscape:connector-curvature="0" />
	<path style="fill:none;stroke:red;stroke-width:1px;stroke-linecap:butt;stroke-linejoin:miter;stroke-opacity:1" d="M 592,573.333 589.333,560 z" id="boundary" inkscape:connector-curvature="0" />
	<path style="fill:none;stroke:red;stroke-width:1px;stroke-linecap:butt;stroke-linejoin:miter;stroke-opacity:1" d="M 605.333,597.333 598.667,585.333 z" id="boundary" inkscape:connector-curvature="0" />
	<path style="fill:none;stroke:red;stroke-width:1px;stroke-linecap:butt;stroke-linejoin:miter;stroke-opacity:1" d="M 605.333,597.333 605.333,610.667 z" id="boundary" inkscape:connector-curvature="0" />
	<path style="fill:none;stroke:red;stroke-width:1px;stroke-linecap:butt;stroke-linejoin:miter;stroke-opacity:1" d="M 612,622.667 605.333,610.667 z" id="boundary" inkscape:connector-curvature="0" />
	<path style="fill:none;stroke:red;stroke-width:1px;stroke-linecap:butt;stroke-linejoin:miter;stroke-opacity:1" d="M 618.667,634.667 624,648 z" id="boundary" inkscape:connector-curvature="0" />
	<path style="fill:none;stroke:red;stroke-width:1px;stroke-linecap:butt;stroke-linejoin:miter;stroke-opacity:1" d="M 618.667,634.667 612,622.667 z" id="boundary" inkscape:connector-curvature="0" />
	<path style="fill:none;stroke:red;stroke-width:1px;stroke-linecap:butt;stroke-linejoin:miter;stroke-opacity:1" d="M 630.667,660 624,648 z" id="boundary" inkscape:connector-curvature="0" />
	<path style="fill:none;stroke:red;stroke-width:1px;stroke-linecap:butt;stroke-linejoin:miter;stroke-opacity:1" d="M 630.667,660 636,673.333 z" id="boundary" inkscape:connector-curvature="0" />
	<path style="fill:none;stroke:red;stroke-width:1px;stroke-linecap:butt;stroke-linejoin:miter;stroke-opacity:1" d="M 652,696 642.667,685.333 z" id="boundary" inkscape:connector-curvature="0" />
	<path style="fill:none;stroke:red;stroke-width:1px;stroke-linecap:butt;stroke-linejoin:miter;stroke-opacity:1" d="M 642.667,685.333 636,673.333 z" id="boundary" inkscape:connector-curvature="0" />
	<path style="fill:none;stroke:red;stroke-width:1px;stroke-linecap:butt;stroke-linejoin:miter;stroke-opacity:1" d="M 658.667,708 652,696 z" id="boundary" inkscape:connector-curvature="0" />
	<path style="fill:none;stroke:red;stroke-width:1px;stroke-linecap:butt;stroke-linejoin:miter;stroke-opacity:1" d="M 948,697.333 937.333,708 z" id="boundary" inkscape:connector-curvature="0" />
	<path style="fill:none;stroke:red;stroke-width:1px;stroke-linecap:butt;stroke-linejoin:miter;stroke-opacity:1" d="M 950.667,681.333 948,697.333 z" id="boundary" inkscape:connector-curvature="0" />
	<path style="fill:none;stroke:red;stroke-width:1px;stroke-linecap:butt;stroke-linejoin:miter;stroke-opacity:1" d="M 658.667,708 665.333,720 z" id="boundary" inkscape:connector-curvature="0" />
	<path style="fill:none;stroke:red;stroke-width:1px;stroke-linecap:butt;stroke-linejoin:miter;stroke-opacity:1" d="M 673.333,730.667 665.333,720 z" id="boundary" inkscape:connector-curvature="0" />
	<path style="fill:none;stroke:red;stroke-width:1px;stroke-linecap:butt;stroke-linejoin:miter;stroke-opacity:1" d="M 685.333,737.333 673.333,730.667 z" id="boundary" inkscape:connector-curvature="0" />
	<path style="fill:none;stroke:red;stroke-width:1px;stroke-linecap:butt;stroke-linejoin:miter;stroke-opacity:1" d="M 928,724 937.333,708 z" id="boundary" inkscape:connector-curvature="0" />
	<path style="fill:none;stroke:red;stroke-width:1px;stroke-linecap:butt;stroke-linejoin:miter;stroke-opacity:1" d="M 957.333,648 957.333,661.333 z" id="boundary" inkscape:connector-curvature="0" />
	<path style="fill:none;stroke:red;stroke-width:1px;stroke-linecap:butt;stroke-linejoin:miter;stroke-opacity:1" d="M 957.333,661.333 950.667,681.333 z" id="boundary" inkscape:connector-curvature="0" />
	<path style="fill:none;stroke:red;stroke-width:1px;stroke-linecap:butt;stroke-linejoin:miter;stroke-opacity:1" d="M 980,644 990.667,653.333 z" id="boundary" inkscape:connector-curvature="0" />
	<path style="fill:none;stroke:red;stroke-width:1px;stroke-linecap:butt;stroke-linejoin:miter;stroke-opacity:1" d="M 957.333,648 968,637.333 z" id="boundary" inkscape:connector-curvature="0" />
	<path style="fill:none;stroke:red;stroke-width:1px;stroke-linecap:butt;stroke-linejoin:miter;stroke-opacity:1" d="M 968,637.333 980,644 z" id="boundary" inkscape:connector-curvature="0" />
	<path style="fill:none;stroke:red;stroke-width:1px;stroke-linecap:butt;stroke-linejoin:miter;stroke-opacity:1" d="M 990.667,653.333 992,666.667 z" id="boundary" inkscape:connector-curvature="0" />
	<path style="fill:none;stroke:red;stroke-width:1px;stroke-linecap:butt;stroke-linejoin:miter;stroke-opacity:1" d="M 992,666.667 996,680 z" id="boundary" inkscape:connector-curvature="0" />
	<path style="fill:none;stroke:red;stroke-width:1px;stroke-linecap:butt;stroke-linejoin:miter;stroke-opacity:1" d="M 992,698.667 996,680 z" id="boundary" inkscape:connector-curvature="0" />
	<path style="fill:none;stroke:red;stroke-width:1px;stroke-linecap:butt;stroke-linejoin:miter;stroke-opacity:1" d="M 992,712 992,698.667 z" id="boundary" inkscape:connector-curvature="0" />
	<path style="fill:none;stroke:red;stroke-width:1px;stroke-linecap:butt;stroke-linejoin:miter;stroke-opacity:1" d="M 992,712 985.333,732 z" id="boundary" inkscape:connector-curvature="0" />
	<path style="fill:none;stroke:red;stroke-width:1px;stroke-linecap:butt;stroke-linejoin:miter;stroke-opacity:1" d="M 685.333,737.333 696,745.333 z" id="boundary" inkscape:connector-curvature="0" />
	<path style="fill:none;stroke:red;stroke-width:1px;stroke-linecap:butt;stroke-linejoin:miter;stroke-opacity:1" d="M 728,772 716,765.333 z" id="boundary" inkscape:connector-curvature="0" />
	<path style="fill:none;stroke:red;stroke-width:1px;stroke-linecap:butt;stroke-linejoin:miter;stroke-opacity:1" d="M 716,765.333 705.333,756 z" id="boundary" inkscape:connector-curvature="0" />
	<path style="fill:none;stroke:red;stroke-width:1px;stroke-linecap:butt;stroke-linejoin:miter;stroke-opacity:1" d="M 705.333,756 696,745.333 z" id="boundary" inkscape:connector-curvature="0" />
	<path style="fill:none;stroke:red;stroke-width:1px;stroke-linecap:butt;stroke-linejoin:miter;stroke-opacity:1" d="M 741.333,777.333 728,772 z" id="boundary" inkscape:connector-curvature="0" />
	<path style="fill:none;stroke:red;stroke-width:1px;stroke-linecap:butt;stroke-linejoin:miter;stroke-opacity:1" d="M 792,790.667 778.667,790.667 z" id="boundary" inkscape:connector-curvature="0" />
	<path style="fill:none;stroke:red;stroke-width:1px;stroke-linecap:butt;stroke-linejoin:miter;stroke-opacity:1" d="M 778.667,790.667 765.333,790.667 z" id="boundary" inkscape:connector-curvature="0" />
	<path style="fill:none;stroke:red;stroke-width:1px;stroke-linecap:butt;stroke-linejoin:miter;stroke-opacity:1" d="M 765.333,790.667 753.333,784 z" id="boundary" inkscape:connector-curvature="0" />
	<path style="fill:none;stroke:red;stroke-width:1px;stroke-linecap:butt;stroke-linejoin:miter;stroke-opacity:1" d="M 753.333,784 741.333,777.333 z" id="boundary" inkscape:connector-curvature="0" />
	<path style="fill:none;stroke:red;stroke-width:1px;stroke-linecap:butt;stroke-linejoin:miter;stroke-opacity:1" d="M 901.333,757.333 912,746.667 z" id="boundary" inkscape:connector-curvature="0" />
	<path style="fill:none;stroke:red;stroke-width:1px;stroke-linecap:butt;stroke-linejoin:miter;stroke-opacity:1" d="M 901.333,757.333 890.667,768 z" id="boundary" inkscape:connector-curvature="0" />
	<path style="fill:none;stroke:red;stroke-width:1px;stroke-linecap:butt;stroke-linejoin:miter;stroke-opacity:1" d="M 922.667,737.333 928,724 z" id="boundary" inkscape:connector-curvature="0" />
	<path style="fill:none;stroke:red;stroke-width:1px;stroke-linecap:butt;stroke-linejoin:miter;stroke-opacity:1" d="M 922.667,737.333 912,746.667 z" id="boundary" inkscape:connector-curvature="0" />
	<path style="fill:none;stroke:red;stroke-width:1px;stroke-linecap:butt;stroke-linejoin:miter;stroke-opacity:1" d="M 978.667,752 985.333,732 z" id="boundary" inkscape:connector-curvature="0" />
	<path style="fill:none;stroke:red;stroke-width:1px;stroke-linecap:butt;stroke-linejoin:miter;stroke-opacity:1" d="M 976,769.333 978.667,752 z" id="boundary" inkscape:connector-curvature="0" />
	<path style="fill:none;stroke:red;stroke-width:1px;stroke-linecap:butt;stroke-linejoin:miter;stroke-opacity:1" d="M 868,784 880,777.333 z" id="boundary" inkscape:connector-curvature="0" />
	<path style="fill:none;stroke:red;stroke-width:1px;stroke-linecap:butt;stroke-linejoin:miter;stroke-opacity:1" d="M 868,784 854.667,784 z" id="boundary" inkscape:connector-curvature="0" />
	<path style="fill:none;stroke:red;stroke-width:1px;stroke-linecap:butt;stroke-linejoin:miter;stroke-opacity:1" d="M 976,769.333 969.333,782.667 z" id="boundary" inkscape:connector-curvature="0" />
	<path style="fill:none;stroke:red;stroke-width:1px;stroke-linecap:butt;stroke-linejoin:miter;stroke-opacity:1" d="M 880,777.333 890.667,768 z" id="boundary" inkscape:connector-curvature="0" />
	<path style="fill:none;stroke:red;stroke-width:1px;stroke-linecap:butt;stroke-linejoin:miter;stroke-opacity:1" d="M 842.667,790.667 854.667,784 z" id="boundary" inkscape:connector-curvature="0" />
	<path style="fill:none;stroke:red;stroke-width:1px;stroke-linecap:butt;stroke-linejoin:miter;stroke-opacity:1" d="M 969.333,782.667 962.667,796 z" id="boundary" inkscape:connector-curvature="0" />
	<path style="fill:none;stroke:red;stroke-width:1px;stroke-linecap:butt;stroke-linejoin:miter;stroke-opacity:1" d="M 378.667,832 389.333,822.667 z" id="boundary" inkscape:connector-curvature="0" />
	<path style="fill:none;stroke:red;stroke-width:1px;stroke-linecap:butt;stroke-linejoin:miter;stroke-opacity:1" d="M 396,809.333 389.333,822.667 z" id="boundary" inkscape:connector-curvature="0" />
	<path style="fill:none;stroke:red;stroke-width:1px;stroke-linecap:butt;stroke-linejoin:miter;stroke-opacity:1" d="M 409.333,802.667 396,809.333 z" id="boundary" inkscape:connector-curvature="0" />
	<path style="fill:none;stroke:red;stroke-width:1px;stroke-linecap:butt;stroke-linejoin:miter;stroke-opacity:1" d="M 409.333,844 398.667,853.333 z" id="boundary" inkscape:connector-curvature="0" />
	<path style="fill:none;stroke:red;stroke-width:1px;stroke-linecap:butt;stroke-linejoin:miter;stroke-opacity:1" d="M 342.667,856 356,849.333 z" id="boundary" inkscape:connector-curvature="0" />
	<path style="fill:none;stroke:red;stroke-width:1px;stroke-linecap:butt;stroke-linejoin:miter;stroke-opacity:1" d="M 369.333,842.667 378.667,832 z" id="boundary" inkscape:connector-curvature="0" />
	<path style="fill:none;stroke:red;stroke-width:1px;stroke-linecap:butt;stroke-linejoin:miter;stroke-opacity:1" d="M 398.667,853.333 385.333,857.333 z" id="boundary" inkscape:connector-curvature="0" />
	<path style="fill:none;stroke:red;stroke-width:1px;stroke-linecap:butt;stroke-linejoin:miter;stroke-opacity:1" d="M 356,849.333 369.333,842.667 z" id="boundary" inkscape:connector-curvature="0" />
	<path style="fill:none;stroke:red;stroke-width:1px;stroke-linecap:butt;stroke-linejoin:miter;stroke-opacity:1" d="M 385.333,857.333 372,860 z" id="boundary" inkscape:connector-curvature="0" />
	<path style="fill:none;stroke:red;stroke-width:1px;stroke-linecap:butt;stroke-linejoin:miter;stroke-opacity:1" d="M 422.667,798.667 434.667,805.333 z" id="boundary" inkscape:connector-curvature="0" />
	<path style="fill:none;stroke:red;stroke-width:1px;stroke-linecap:butt;stroke-linejoin:miter;stroke-opacity:1" d="M 525.333,805.333 525.333,818.667 z" id="boundary" inkscape:connector-curvature="0" />
	<path style="fill:none;stroke:red;stroke-width:1px;stroke-linecap:butt;stroke-linejoin:miter;stroke-opacity:1" d="M 444,816 434.667,805.333 z" id="boundary" inkscape:connector-curvature="0" />
	<path style="fill:none;stroke:red;stroke-width:1px;stroke-linecap:butt;stroke-linejoin:miter;stroke-opacity:1" d="M 532,830.667 525.333,818.667 z" id="boundary" inkscape:connector-curvature="0" />
	<path style="fill:none;stroke:red;stroke-width:1px;stroke-linecap:butt;stroke-linejoin:miter;stroke-opacity:1" d="M 532,785.333 525.333,805.333 z" id="boundary" inkscape:connector-curvature="0" />
	<path style="fill:none;stroke:red;stroke-width:1px;stroke-linecap:butt;stroke-linejoin:miter;stroke-opacity:1" d="M 444,816 432,826.667 z" id="boundary" inkscape:connector-curvature="0" />
	<path style="fill:none;stroke:red;stroke-width:1px;stroke-linecap:butt;stroke-linejoin:miter;stroke-opacity:1" d="M 409.333,844 421.333,837.333 z" id="boundary" inkscape:connector-curvature="0" />
	<path style="fill:none;stroke:red;stroke-width:1px;stroke-linecap:butt;stroke-linejoin:miter;stroke-opacity:1" d="M 532,830.667 532,844 z" id="boundary" inkscape:connector-curvature="0" />
	<path style="fill:none;stroke:red;stroke-width:1px;stroke-linecap:butt;stroke-linejoin:miter;stroke-opacity:1" d="M 421.333,837.333 432,826.667 z" id="boundary" inkscape:connector-curvature="0" />
	<path style="fill:none;stroke:red;stroke-width:1px;stroke-linecap:butt;stroke-linejoin:miter;stroke-opacity:1" d="M 409.333,802.667 422.667,798.667 z" id="boundary" inkscape:connector-curvature="0" />
	<path style="fill:none;stroke:red;stroke-width:1px;stroke-linecap:butt;stroke-linejoin:miter;stroke-opacity:1" d="M 324,888 332,865.333 z" id="boundary" inkscape:connector-curvature="0" />
	<path style="fill:none;stroke:red;stroke-width:1px;stroke-linecap:butt;stroke-linejoin:miter;stroke-opacity:1" d="M 324,888 310.667,894.667 z" id="boundary" inkscape:connector-curvature="0" />
	<path style="fill:none;stroke:red;stroke-width:1px;stroke-linecap:butt;stroke-linejoin:miter;stroke-opacity:1" d="M 350.667,881.333 361.333,870.667 z" id="boundary" inkscape:connector-curvature="0" />
	<path style="fill:none;stroke:red;stroke-width:1px;stroke-linecap:butt;stroke-linejoin:miter;stroke-opacity:1" d="M 332,865.333 342.667,856 z" id="boundary" inkscape:connector-curvature="0" />
	<path style="fill:none;stroke:red;stroke-width:1px;stroke-linecap:butt;stroke-linejoin:miter;stroke-opacity:1" d="M 361.333,870.667 372,860 z" id="boundary" inkscape:connector-curvature="0" />
	<path style="fill:none;stroke:red;stroke-width:1px;stroke-linecap:butt;stroke-linejoin:miter;stroke-opacity:1" d="M 350.667,881.333 350.667,894.667 z" id="boundary" inkscape:connector-curvature="0" />
	<path style="fill:none;stroke:red;stroke-width:1px;stroke-linecap:butt;stroke-linejoin:miter;stroke-opacity:1" d="M 350.667,894.667 364,898.667 z" id="boundary" inkscape:connector-curvature="0" />
	<path style="fill:none;stroke:red;stroke-width:1px;stroke-linecap:butt;stroke-linejoin:miter;stroke-opacity:1" d="M 376,892 389.333,892 z" id="boundary" inkscape:connector-curvature="0" />
	<path style="fill:none;stroke:red;stroke-width:1px;stroke-linecap:butt;stroke-linejoin:miter;stroke-opacity:1" d="M 389.333,892 401.333,898.667 z" id="boundary" inkscape:connector-curvature="0" />
	<path style="fill:none;stroke:red;stroke-width:1px;stroke-linecap:butt;stroke-linejoin:miter;stroke-opacity:1" d="M 364,898.667 376,892 z" id="boundary" inkscape:connector-curvature="0" />
	<path style="fill:none;stroke:red;stroke-width:1px;stroke-linecap:butt;stroke-linejoin:miter;stroke-opacity:1" d="M 488,884 477.333,892 z" id="boundary" inkscape:connector-curvature="0" />
	<path style="fill:none;stroke:red;stroke-width:1px;stroke-linecap:butt;stroke-linejoin:miter;stroke-opacity:1" d="M 512,872 498.667,872 z" id="boundary" inkscape:connector-curvature="0" />
	<path style="fill:none;stroke:red;stroke-width:1px;stroke-linecap:butt;stroke-linejoin:miter;stroke-opacity:1" d="M 498.667,872 488,884 z" id="boundary" inkscape:connector-curvature="0" />
	<path style="fill:none;stroke:red;stroke-width:1px;stroke-linecap:butt;stroke-linejoin:miter;stroke-opacity:1" d="M 426.667,892 414.667,898.667 z" id="boundary" inkscape:connector-curvature="0" />
	<path style="fill:none;stroke:red;stroke-width:1px;stroke-linecap:butt;stroke-linejoin:miter;stroke-opacity:1" d="M 426.667,892 438.667,898.667 z" id="boundary" inkscape:connector-curvature="0" />
	<path style="fill:none;stroke:red;stroke-width:1px;stroke-linecap:butt;stroke-linejoin:miter;stroke-opacity:1" d="M 477.333,892 465.333,898.667 z" id="boundary" inkscape:connector-curvature="0" />
	<path style="fill:none;stroke:red;stroke-width:1px;stroke-linecap:butt;stroke-linejoin:miter;stroke-opacity:1" d="M 465.333,898.667 452,898.667 z" id="boundary" inkscape:connector-curvature="0" />
	<path style="fill:none;stroke:red;stroke-width:1px;stroke-linecap:butt;stroke-linejoin:miter;stroke-opacity:1" d="M 452,898.667 438.667,898.667 z" id="boundary" inkscape:connector-curvature="0" />
	<path style="fill:none;stroke:red;stroke-width:1px;stroke-linecap:butt;stroke-linejoin:miter;stroke-opacity:1" d="M 512,872 525.333,865.333 z" id="boundary" inkscape:connector-curvature="0" />
	<path style="fill:none;stroke:red;stroke-width:1px;stroke-linecap:butt;stroke-linejoin:miter;stroke-opacity:1" d="M 414.667,898.667 401.333,898.667 z" id="boundary" inkscape:connector-curvature="0" />
	<path style="fill:none;stroke:red;stroke-width:1px;stroke-linecap:butt;stroke-linejoin:miter;stroke-opacity:1" d="M 532,844 525.333,865.333 z" id="boundary" inkscape:connector-curvature="0" />
	<path style="fill:none;stroke:red;stroke-width:1px;stroke-linecap:butt;stroke-linejoin:miter;stroke-opacity:1" d="M 553.333,796 564,805.333 z" id="boundary" inkscape:connector-curvature="0" />
	<path style="fill:none;stroke:red;stroke-width:1px;stroke-linecap:butt;stroke-linejoin:miter;stroke-opacity:1" d="M 576,812 564,805.333 z" id="boundary" inkscape:connector-curvature="0" />
	<path style="fill:none;stroke:red;stroke-width:1px;stroke-linecap:butt;stroke-linejoin:miter;stroke-opacity:1" d="M 598.667,828 585.333,822.667 z" id="boundary" inkscape:connector-curvature="0" />
	<path style="fill:none;stroke:red;stroke-width:1px;stroke-linecap:butt;stroke-linejoin:miter;stroke-opacity:1" d="M 585.333,822.667 576,812 z" id="boundary" inkscape:connector-curvature="0" />
	<path style="fill:none;stroke:red;stroke-width:1px;stroke-linecap:butt;stroke-linejoin:miter;stroke-opacity:1" d="M 598.667,828 610.667,834.667 z" id="boundary" inkscape:connector-curvature="0" />
	<path style="fill:none;stroke:red;stroke-width:1px;stroke-linecap:butt;stroke-linejoin:miter;stroke-opacity:1" d="M 624,838.667 610.667,834.667 z" id="boundary" inkscape:connector-curvature="0" />
	<path style="fill:none;stroke:red;stroke-width:1px;stroke-linecap:butt;stroke-linejoin:miter;stroke-opacity:1" d="M 624,838.667 636,845.333 z" id="boundary" inkscape:connector-curvature="0" />
	<path style="fill:none;stroke:red;stroke-width:1px;stroke-linecap:butt;stroke-linejoin:miter;stroke-opacity:1" d="M 661.333,852 648,852 z" id="boundary" inkscape:connector-curvature="0" />
	<path style="fill:none;stroke:red;stroke-width:1px;stroke-linecap:butt;stroke-linejoin:miter;stroke-opacity:1" d="M 648,852 636,845.333 z" id="boundary" inkscape:connector-curvature="0" />
	<path style="fill:none;stroke:red;stroke-width:1px;stroke-linecap:butt;stroke-linejoin:miter;stroke-opacity:1" d="M 661.333,852 673.333,858.667 z" id="boundary" inkscape:connector-curvature="0" />
	<path style="fill:none;stroke:red;stroke-width:1px;stroke-linecap:butt;stroke-linejoin:miter;stroke-opacity:1" d="M 804,797.333 792,790.667 z" id="boundary" inkscape:connector-curvature="0" />
	<path style="fill:none;stroke:red;stroke-width:1px;stroke-linecap:butt;stroke-linejoin:miter;stroke-opacity:1" d="M 817.333,797.333 829.333,790.667 z" id="boundary" inkscape:connector-curvature="0" />
	<path style="fill:none;stroke:red;stroke-width:1px;stroke-linecap:butt;stroke-linejoin:miter;stroke-opacity:1" d="M 829.333,790.667 842.667,790.667 z" id="boundary" inkscape:connector-curvature="0" />
	<path style="fill:none;stroke:red;stroke-width:1px;stroke-linecap:butt;stroke-linejoin:miter;stroke-opacity:1" d="M 962.667,796 952,805.333 z" id="boundary" inkscape:connector-curvature="0" />
	<path style="fill:none;stroke:red;stroke-width:1px;stroke-linecap:butt;stroke-linejoin:miter;stroke-opacity:1" d="M 817.333,797.333 804,797.333 z" id="boundary" inkscape:connector-curvature="0" />
	<path style="fill:none;stroke:red;stroke-width:1px;stroke-linecap:butt;stroke-linejoin:miter;stroke-opacity:1" d="M 952,805.333 945.333,818.667 z" id="boundary" inkscape:connector-curvature="0" />
	<path style="fill:none;stroke:red;stroke-width:1px;stroke-linecap:butt;stroke-linejoin:miter;stroke-opacity:1" d="M 934.667,830.667 924,841.333 z" id="boundary" inkscape:connector-curvature="0" />
	<path style="fill:none;stroke:red;stroke-width:1px;stroke-linecap:butt;stroke-linejoin:miter;stroke-opacity:1" d="M 924,841.333 913.333,852 z" id="boundary" inkscape:connector-curvature="0" />
	<path style="fill:none;stroke:red;stroke-width:1px;stroke-linecap:butt;stroke-linejoin:miter;stroke-opacity:1" d="M 945.333,818.667 934.667,830.667 z" id="boundary" inkscape:connector-curvature="0" />
	<path style="fill:none;stroke:red;stroke-width:1px;stroke-linecap:butt;stroke-linejoin:miter;stroke-opacity:1" d="M 913.333,852 901.333,858.667 z" id="boundary" inkscape:connector-curvature="0" />
	<path style="fill:none;stroke:red;stroke-width:1px;stroke-linecap:butt;stroke-linejoin:miter;stroke-opacity:1" d="M 684,866.667 693.333,877.333 z" id="boundary" inkscape:connector-curvature="0" />
	<path style="fill:none;stroke:red;stroke-width:1px;stroke-linecap:butt;stroke-linejoin:miter;stroke-opacity:1" d="M 706.667,882.667 693.333,877.333 z" id="boundary" inkscape:connector-curvature="0" />
	<path style="fill:none;stroke:red;stroke-width:1px;stroke-linecap:butt;stroke-linejoin:miter;stroke-opacity:1" d="M 720,885.333 706.667,882.667 z" id="boundary" inkscape:connector-curvature="0" />
	<path style="fill:none;stroke:red;stroke-width:1px;stroke-linecap:butt;stroke-linejoin:miter;stroke-opacity:1" d="M 720,885.333 733.333,889.333 z" id="boundary" inkscape:connector-curvature="0" />
	<path style="fill:none;stroke:red;stroke-width:1px;stroke-linecap:butt;stroke-linejoin:miter;stroke-opacity:1" d="M 684,866.667 673.333,858.667 z" id="boundary" inkscape:connector-curvature="0" />
	<path style="fill:none;stroke:red;stroke-width:1px;stroke-linecap:butt;stroke-linejoin:miter;stroke-opacity:1" d="M 733.333,889.333 746.667,892 z" id="boundary" inkscape:connector-curvature="0" />
	<path style="fill:none;stroke:red;stroke-width:1px;stroke-linecap:butt;stroke-linejoin:miter;stroke-opacity:1" d="M 760,892 773.333,892 z" id="boundary" inkscape:connector-curvature="0" />
	<path style="fill:none;stroke:red;stroke-width:1px;stroke-linecap:butt;stroke-linejoin:miter;stroke-opacity:1" d="M 760,892 746.667,892 z" id="boundary" inkscape:connector-curvature="0" />
	<path style="fill:none;stroke:red;stroke-width:1px;stroke-linecap:butt;stroke-linejoin:miter;stroke-opacity:1" d="M 773.333,892 786.667,892 z" id="boundary" inkscape:connector-curvature="0" />
	<path style="fill:none;stroke:red;stroke-width:1px;stroke-linecap:butt;stroke-linejoin:miter;stroke-opacity:1" d="M 877.333,872 865.333,878.667 z" id="boundary" inkscape:connector-curvature="0" />
	<path style="fill:none;stroke:red;stroke-width:1px;stroke-linecap:butt;stroke-linejoin:miter;stroke-opacity:1" d="M 865.333,878.667 852,878.667 z" id="boundary" inkscape:connector-curvature="0" />
	<path style="fill:none;stroke:red;stroke-width:1px;stroke-linecap:butt;stroke-linejoin:miter;stroke-opacity:1" d="M 889.333,865.333 877.333,872 z" id="boundary" inkscape:connector-curvature="0" />
	<path style="fill:none;stroke:red;stroke-width:1px;stroke-linecap:butt;stroke-linejoin:miter;stroke-opacity:1" d="M 800,892 813.333,892 z" id="boundary" inkscape:connector-curvature="0" />
	<path style="fill:none;stroke:red;stroke-width:1px;stroke-linecap:butt;stroke-linejoin:miter;stroke-opacity:1" d="M 825.333,885.333 813.333,892 z" id="boundary" inkscape:connector-curvature="0" />
	<path style="fill:none;stroke:red;stroke-width:1px;stroke-linecap:butt;stroke-linejoin:miter;stroke-opacity:1" d="M 852,878.667 838.667,885.333 z" id="boundary" inkscape:connector-curvature="0" />
	<path style="fill:none;stroke:red;stroke-width:1px;stroke-linecap:butt;stroke-linejoin:miter;stroke-opacity:1" d="M 838.667,885.333 825.333,885.333 z" id="boundary" inkscape:connector-curvature="0" />
	<path style="fill:none;stroke:red;stroke-width:1px;stroke-linecap:butt;stroke-linejoin:miter;stroke-opacity:1" d="M 800,892 786.667,892 z" id="boundary" inkscape:connector-curvature="0" />
	<path style="fill:none;stroke:red;stroke-width:1px;stroke-linecap:butt;stroke-linejoin:miter;stroke-opacity:1" d="M 901.333,858.667 889.333,865.333 z" id="boundary" inkscape:connector-curvature="0" />
	<circle cx="4" cy="88" r="4" fill="#0" id="circle0"/>
	<circle cx="4" cy="101.333" r="4" fill="#0" id="circle1"/>
	<circle cx="4" cy="114.667" r="4" fill="#0" id="circle2"/>
	<circle cx="4" cy="128" r="4" fill="#0" id="circle3"/>
	<circle cx="14.6667" cy="77.3333" r="4" fill="#0" id="circle4"/>
	<circle cx="14.6667" cy="137.333" r="4" fill="#0" id="circle5"/>
	<circle cx="17.3333" cy="428" r="4" fill="#0" id="circle6"/>
	<circle cx="24" cy="414.667" r="4" fill="#0" id="circle7"/>
	<circle cx="25.3333" cy="66.6667" r="4" fill="#0" id="circle8"/>
	<circle cx="28" cy="138.667" r="4" fill="#0" id="circle9"/>
	<circle cx="30.6667" cy="161.333" r="4" fill="#0" id="circle10"/>
	<circle cx="30.6667" cy="174.667" r="4" fill="#0" id="circle11"/>
	<circle cx="30.6667" cy="432" r="4" fill="#0" id="circle12"/>
	<circle cx="34.6667" cy="404" r="4" fill="#0" id="circle13"/>
	<circle cx="38.6667" cy="60" r="4" fill="#0" id="circle14"/>
	<circle cx="41.3333" cy="137.333" r="4" fill="#0" id="circle15"/>
	<circle cx="41.3333" cy="184" r="4" fill="#0" id="circle16"/>
	<circle cx="44" cy="154.667" r="4" fill="#0" id="circle17"/>
	<circle cx="44" cy="434.667" r="4" fill="#0" id="circle18"/>
	<circle cx="48" cy="397.333" r="4" fill="#0" id="circle19"/>
	<circle cx="50.6667" cy="328" r="4" fill="#0" id="circle20"/>
	<circle cx="50.6667" cy="341.333" r="4" fill="#0" id="circle21"/>
	<circle cx="50.6667" cy="354.667" r="4" fill="#0" id="circle22"/>
	<circle cx="50.6667" cy="368" r="4" fill="#0" id="circle23"/>
	<circle cx="52" cy="57.3333" r="4" fill="#0" id="circle24"/>
	<circle cx="53.3333" cy="190.667" r="4" fill="#0" id="circle25"/>
	<circle cx="54.6667" cy="132" r="4" fill="#0" id="circle26"/>
	<circle cx="54.6667" cy="424" r="4" fill="#0" id="circle27"/>
	<circle cx="57.3333" cy="148" r="4" fill="#0" id="circle28"/>
	<circle cx="57.3333" cy="380" r="4" fill="#0" id="circle29"/>
	<circle cx="57.3333" cy="448" r="4" fill="#0" id="circle30"/>
	<circle cx="57.3333" cy="461.333" r="4" fill="#0" id="circle31"/>
	<circle cx="61.3333" cy="317.333" r="4" fill="#0" id="circle32"/>
	<circle cx="64" cy="48" r="4" fill="#0" id="circle33"/>
	<circle cx="64" cy="434.667" r="4" fill="#0" id="circle34"/>
	<circle cx="65.3333" cy="412" r="4" fill="#0" id="circle35"/>
	<circle cx="66.6667" cy="192" r="4" fill="#0" id="circle36"/>
	<circle cx="68" cy="130.667" r="4" fill="#0" id="circle37"/>
	<circle cx="68" cy="304" r="4" fill="#0" id="circle38"/>
	<circle cx="70.6667" cy="144" r="4" fill="#0" id="circle39"/>
	<circle cx="70.6667" cy="465.333" r="4" fill="#0" id="circle40"/>
	<circle cx="70.6667" cy="478.667" r="4" fill="#0" id="circle41"/>
	<circle cx="77.3333" cy="41.3333" r="4" fill="#0" id="circle42"/>
	<circle cx="77.3333" cy="288" r="4" fill="#0" id="circle43"/>
	<circle cx="77.3333" cy="428" r="4" fill="#0" id="circle44"/>
	<circle cx="78.6667" cy="405.333" r="4" fill="#0" id="circle45"/>
	<circle cx="80" cy="192" r="4" fill="#0" id="circle46"/>
	<circle cx="81.3333" cy="125.333" r="4" fill="#0" id="circle47"/>
	<circle cx="82.6667" cy="485.333" r="4" fill="#0" id="circle48"/>
	<circle cx="84" cy="268" r="4" fill="#0" id="circle49"/>
	<circle cx="88" cy="30.6667" r="4" fill="#0" id="circle50"/>
	<circle cx="88" cy="137.333" r="4" fill="#0" id="circle51"/>
	<circle cx="88" cy="417.333" r="4" fill="#0" id="circle52"/>
	<circle cx="90.6667" cy="254.667" r="4" fill="#0" id="circle53"/>
	<circle cx="92" cy="185.333" r="4" fill="#0" id="circle54"/>
	<circle cx="92" cy="472" r="4" fill="#0" id="circle55"/>
	<circle cx="93.3333" cy="118.667" r="4" fill="#0" id="circle56"/>
	<circle cx="97.3333" cy="241.333" r="4" fill="#0" id="circle57"/>
	<circle cx="100" cy="24" r="4" fill="#0" id="circle58"/>
	<circle cx="101.333" cy="130.667" r="4" fill="#0" id="circle59"/>
	<circle cx="102.667" cy="462.667" r="4" fill="#0" id="circle60"/>
	<circle cx="104" cy="178.667" r="4" fill="#0" id="circle61"/>
	<circle cx="104" cy="228" r="4" fill="#0" id="circle62"/>
	<circle cx="108" cy="118.667" r="4" fill="#0" id="circle63"/>
	<circle cx="110.667" cy="214.667" r="4" fill="#0" id="circle64"/>
	<circle cx="112" cy="17.3333" r="4" fill="#0" id="circle65"/>
	<circle cx="112" cy="445.333" r="4" fill="#0" id="circle66"/>
	<circle cx="116" cy="185.333" r="4" fill="#0" id="circle67"/>
	<circle cx="117.333" cy="198.667" r="4" fill="#0" id="circle68"/>
	<circle cx="125.333" cy="17.3333" r="4" fill="#0" id="circle69"/>
	<circle cx="125.333" cy="445.333" r="4" fill="#0" id="circle70"/>
	<circle cx="133.333" cy="456" r="4" fill="#0" id="circle71"/>
	<circle cx="137.333" cy="469.333" r="4" fill="#0" id="circle72"/>
	<circle cx="138.667" cy="17.3333" r="4" fill="#0" id="circle73"/>
	<circle cx="144" cy="481.333" r="4" fill="#0" id="circle74"/>
	<circle cx="150.667" cy="493.333" r="4" fill="#0" id="circle75"/>
	<circle cx="150.667" cy="506.667" r="4" fill="#0" id="circle76"/>
	<circle cx="152" cy="13.3333" r="4" fill="#0" id="circle77"/>
	<circle cx="157.333" cy="518.667" r="4" fill="#0" id="circle78"/>
	<circle cx="164" cy="530.667" r="4" fill="#0" id="circle79"/>
	<circle cx="165.333" cy="10.6667" r="4" fill="#0" id="circle80"/>
	<circle cx="166.667" cy="544" r="4" fill="#0" id="circle81"/>
	<circle cx="170.667" cy="874.667" r="4" fill="#0" id="circle82"/>
	<circle cx="170.667" cy="888" r="4" fill="#0" id="circle83"/>
	<circle cx="177.333" cy="4" r="4" fill="#0" id="circle84"/>
	<circle cx="177.333" cy="552" r="4" fill="#0" id="circle85"/>
	<circle cx="177.333" cy="861.333" r="4" fill="#0" id="circle86"/>
	<circle cx="178.667" cy="898.667" r="4" fill="#0" id="circle87"/>
	<circle cx="181.333" cy="565.333" r="4" fill="#0" id="circle88"/>
	<circle cx="188" cy="850.667" r="4" fill="#0" id="circle89"/>
	<circle cx="190.667" cy="4" r="4" fill="#0" id="circle90"/>
	<circle cx="192" cy="574.667" r="4" fill="#0" id="circle91"/>
	<circle cx="192" cy="898.667" r="4" fill="#0" id="circle92"/>
	<circle cx="197.333" cy="588" r="4" fill="#0" id="circle93"/>
	<circle cx="201.333" cy="850.667" r="4" fill="#0" id="circle94"/>
	<circle cx="204" cy="4" r="4" fill="#0" id="circle95"/>
	<circle cx="205.333" cy="898.667" r="4" fill="#0" id="circle96"/>
	<circle cx="210.667" cy="592" r="4" fill="#0" id="circle97"/>
	<circle cx="213.333" cy="844" r="4" fill="#0" id="circle98"/>
	<circle cx="216" cy="10.6667" r="4" fill="#0" id="circle99"/>
	<circle cx="218.667" cy="602.667" r="4" fill="#0" id="circle100"/>
	<circle cx="218.667" cy="892" r="4" fill="#0" id="circle101"/>
	<circle cx="226.667" cy="844" r="4" fill="#0" id="circle102"/>
	<circle cx="228" cy="17.3333" r="4" fill="#0" id="circle103"/>
	<circle cx="230.667" cy="898.667" r="4" fill="#0" id="circle104"/>
	<circle cx="232" cy="205.333" r="4" fill="#0" id="circle105"/>
	<circle cx="232" cy="218.667" r="4" fill="#0" id="circle106"/>
	<circle cx="232" cy="605.333" r="4" fill="#0" id="circle107"/>
	<circle cx="237.333" cy="28" r="4" fill="#0" id="circle108"/>
	<circle cx="238.667" cy="230.667" r="4" fill="#0" id="circle109"/>
	<circle cx="240" cy="844" r="4" fill="#0" id="circle110"/>
	<circle cx="242.667" cy="196" r="4" fill="#0" id="circle111"/>
	<circle cx="244" cy="612" r="4" fill="#0" id="circle112"/>
	<circle cx="244" cy="898.667" r="4" fill="#0" id="circle113"/>
	<circle cx="248" cy="37.3333" r="4" fill="#0" id="circle114"/>
	<circle cx="248" cy="625.333" r="4" fill="#0" id="circle115"/>
	<circle cx="249.333" cy="182.667" r="4" fill="#0" id="circle116"/>
	<circle cx="250.667" cy="237.333" r="4" fill="#0" id="circle117"/>
	<circle cx="250.667" cy="638.667" r="4" fill="#0" id="circle118"/>
	<circle cx="253.333" cy="838.667" r="4" fill="#0" id="circle119"/>
	<circle cx="256" cy="169.333" r="4" fill="#0" id="circle120"/>
	<circle cx="257.333" cy="48" r="4" fill="#0" id="circle121"/>
	<circle cx="257.333" cy="650.667" r="4" fill="#0" id="circle122"/>
	<circle cx="257.333" cy="898.667" r="4" fill="#0" id="circle123"/>
	<circle cx="260" cy="664" r="4" fill="#0" id="circle124"/>
	<circle cx="261.333" cy="245.333" r="4" fill="#0" id="circle125"/>
	<circle cx="264" cy="60" r="4" fill="#0" id="circle126"/>
	<circle cx="264" cy="677.333" r="4" fill="#0" id="circle127"/>
	<circle cx="265.333" cy="145.333" r="4" fill="#0" id="circle128"/>
	<circle cx="265.333" cy="158.667" r="4" fill="#0" id="circle129"/>
	<circle cx="266.667" cy="832" r="4" fill="#0" id="circle130"/>
	<circle cx="269.333" cy="73.3333" r="4" fill="#0" id="circle131"/>
	<circle cx="270.667" cy="689.333" r="4" fill="#0" id="circle132"/>
	<circle cx="270.667" cy="898.667" r="4" fill="#0" id="circle133"/>
	<circle cx="272" cy="86.6667" r="4" fill="#0" id="circle134"/>
	<circle cx="272" cy="132" r="4" fill="#0" id="circle135"/>
	<circle cx="272" cy="254.667" r="4" fill="#0" id="circle136"/>
	<circle cx="277.333" cy="701.333" r="4" fill="#0" id="circle137"/>
	<circle cx="277.333" cy="814.667" r="4" fill="#0" id="circle138"/>
	<circle cx="278.667" cy="98.6667" r="4" fill="#0" id="circle139"/>
	<circle cx="278.667" cy="112" r="4" fill="#0" id="circle140"/>
	<circle cx="281.333" cy="265.333" r="4" fill="#0" id="circle141"/>
	<circle cx="284" cy="713.333" r="4" fill="#0" id="circle142"/>
	<circle cx="284" cy="726.667" r="4" fill="#0" id="circle143"/>
	<circle cx="284" cy="801.333" r="4" fill="#0" id="circle144"/>
	<circle cx="284" cy="898.667" r="4" fill="#0" id="circle145"/>
	<circle cx="285.333" cy="278.667" r="4" fill="#0" id="circle146"/>
	<circle cx="290.667" cy="788" r="4" fill="#0" id="circle147"/>
	<circle cx="292" cy="290.667" r="4" fill="#0" id="circle148"/>
	<circle cx="293.333" cy="737.333" r="4" fill="#0" id="circle149"/>
	<circle cx="297.333" cy="774.667" r="4" fill="#0" id="circle150"/>
	<circle cx="297.333" cy="898.667" r="4" fill="#0" id="circle151"/>
	<circle cx="300" cy="749.333" r="4" fill="#0" id="circle152"/>
	<circle cx="304" cy="297.333" r="4" fill="#0" id="circle153"/>
	<circle cx="304" cy="762.667" r="4" fill="#0" id="circle154"/>
	<circle cx="310.667" cy="894.667" r="4" fill="#0" id="circle155"/>
	<circle cx="317.333" cy="300" r="4" fill="#0" id="circle156"/>
	<circle cx="324" cy="888" r="4" fill="#0" id="circle157"/>
	<circle cx="329.333" cy="306.667" r="4" fill="#0" id="circle158"/>
	<circle cx="332" cy="865.333" r="4" fill="#0" id="circle159"/>
	<circle cx="342.667" cy="310.667" r="4" fill="#0" id="circle160"/>
	<circle cx="342.667" cy="856" r="4" fill="#0" id="circle161"/>
	<circle cx="350.667" cy="881.333" r="4" fill="#0" id="circle162"/>
	<circle cx="350.667" cy="894.667" r="4" fill="#0" id="circle163"/>
	<circle cx="354.667" cy="317.333" r="4" fill="#0" id="circle164"/>
	<circle cx="356" cy="849.333" r="4" fill="#0" id="circle165"/>
	<circle cx="361.333" cy="870.667" r="4" fill="#0" id="circle166"/>
	<circle cx="364" cy="898.667" r="4" fill="#0" id="circle167"/>
	<circle cx="368" cy="317.333" r="4" fill="#0" id="circle168"/>
	<circle cx="369.333" cy="842.667" r="4" fill="#0" id="circle169"/>
	<circle cx="372" cy="860" r="4" fill="#0" id="circle170"/>
	<circle cx="376" cy="892" r="4" fill="#0" id="circle171"/>
	<circle cx="378.667" cy="832" r="4" fill="#0" id="circle172"/>
	<circle cx="380" cy="324" r="4" fill="#0" id="circle173"/>
	<circle cx="385.333" cy="857.333" r="4" fill="#0" id="circle174"/>
	<circle cx="389.333" cy="822.667" r="4" fill="#0" id="circle175"/>
	<circle cx="389.333" cy="892" r="4" fill="#0" id="circle176"/>
	<circle cx="392" cy="330.667" r="4" fill="#0" id="circle177"/>
	<circle cx="396" cy="809.333" r="4" fill="#0" id="circle178"/>
	<circle cx="398.667" cy="853.333" r="4" fill="#0" id="circle179"/>
	<circle cx="401.333" cy="898.667" r="4" fill="#0" id="circle180"/>
	<circle cx="405.333" cy="330.667" r="4" fill="#0" id="circle181"/>
	<circle cx="409.333" cy="802.667" r="4" fill="#0" id="circle182"/>
	<circle cx="409.333" cy="844" r="4" fill="#0" id="circle183"/>
	<circle cx="414.667" cy="898.667" r="4" fill="#0" id="circle184"/>
	<circle cx="418.667" cy="334.667" r="4" fill="#0" id="circle185"/>
	<circle cx="421.333" cy="837.333" r="4" fill="#0" id="circle186"/>
	<circle cx="422.667" cy="798.667" r="4" fill="#0" id="circle187"/>
	<circle cx="426.667" cy="892" r="4" fill="#0" id="circle188"/>
	<circle cx="432" cy="337.333" r="4" fill="#0" id="circle189"/>
	<circle cx="432" cy="826.667" r="4" fill="#0" id="circle190"/>
	<circle cx="434.667" cy="805.333" r="4" fill="#0" id="circle191"/>
	<circle cx="438.667" cy="898.667" r="4" fill="#0" id="circle192"/>
	<circle cx="444" cy="344" r="4" fill="#0" id="circle193"/>
	<circle cx="444" cy="816" r="4" fill="#0" id="circle194"/>
	<circle cx="452" cy="898.667" r="4" fill="#0" id="circle195"/>
	<circle cx="456" cy="350.667" r="4" fill="#0" id="circle196"/>
	<circle cx="465.333" cy="898.667" r="4" fill="#0" id="circle197"/>
	<circle cx="469.333" cy="352" r="4" fill="#0" id="circle198"/>
	<circle cx="477.333" cy="892" r="4" fill="#0" id="circle199"/>
	<circle cx="478.667" cy="362.667" r="4" fill="#0" id="circle200"/>
	<circle cx="488" cy="884" r="4" fill="#0" id="circle201"/>
	<circle cx="492" cy="368" r="4" fill="#0" id="circle202"/>
	<circle cx="498.667" cy="872" r="4" fill="#0" id="circle203"/>
	<circle cx="501.333" cy="378.667" r="4" fill="#0" id="circle204"/>
	<circle cx="512" cy="388" r="4" fill="#0" id="circle205"/>
	<circle cx="512" cy="872" r="4" fill="#0" id="circle206"/>
	<circle cx="518.667" cy="400" r="4" fill="#0" id="circle207"/>
	<circle cx="525.333" cy="805.333" r="4" fill="#0" id="circle208"/>
	<circle cx="525.333" cy="818.667" r="4" fill="#0" id="circle209"/>
	<circle cx="525.333" cy="865.333" r="4" fill="#0" id="circle210"/>
	<circle cx="526.667" cy="410.667" r="4" fill="#0" id="circle211"/>
	<circle cx="532" cy="424" r="4" fill="#0" id="circle212"/>
	<circle cx="532" cy="785.333" r="4" fill="#0" id="circle213"/>
	<circle cx="532" cy="830.667" r="4" fill="#0" id="circle214"/>
	<circle cx="532" cy="844" r="4" fill="#0" id="circle215"/>
	<circle cx="542.667" cy="432" r="4" fill="#0" id="circle216"/>
	<circle cx="545.333" cy="785.333" r="4" fill="#0" id="circle217"/>
	<circle cx="548" cy="445.333" r="4" fill="#0" id="circle218"/>
	<circle cx="552" cy="458.667" r="4" fill="#0" id="circle219"/>
	<circle cx="553.333" cy="796" r="4" fill="#0" id="circle220"/>
	<circle cx="558.667" cy="470.667" r="4" fill="#0" id="circle221"/>
	<circle cx="564" cy="805.333" r="4" fill="#0" id="circle222"/>
	<circle cx="565.333" cy="482.667" r="4" fill="#0" id="circle223"/>
	<circle cx="565.333" cy="496" r="4" fill="#0" id="circle224"/>
	<circle cx="572" cy="508" r="4" fill="#0" id="circle225"/>
	<circle cx="576" cy="812" r="4" fill="#0" id="circle226"/>
	<circle cx="578.667" cy="520" r="4" fill="#0" id="circle227"/>
	<circle cx="582.667" cy="533.333" r="4" fill="#0" id="circle228"/>
	<circle cx="585.333" cy="546.667" r="4" fill="#0" id="circle229"/>
	<circle cx="585.333" cy="822.667" r="4" fill="#0" id="circle230"/>
	<circle cx="589.333" cy="560" r="4" fill="#0" id="circle231"/>
	<circle cx="592" cy="573.333" r="4" fill="#0" id="circle232"/>
	<circle cx="598.667" cy="585.333" r="4" fill="#0" id="circle233"/>
	<circle cx="598.667" cy="828" r="4" fill="#0" id="circle234"/>
	<circle cx="605.333" cy="597.333" r="4" fill="#0" id="circle235"/>
	<circle cx="605.333" cy="610.667" r="4" fill="#0" id="circle236"/>
	<circle cx="610.667" cy="834.667" r="4" fill="#0" id="circle237"/>
	<circle cx="612" cy="622.667" r="4" fill="#0" id="circle238"/>
	<circle cx="618.667" cy="634.667" r="4" fill="#0" id="circle239"/>
	<circle cx="624" cy="648" r="4" fill="#0" id="circle240"/>
	<circle cx="624" cy="838.667" r="4" fill="#0" id="circle241"/>
	<circle cx="630.667" cy="660" r="4" fill="#0" id="circle242"/>
	<circle cx="636" cy="673.333" r="4" fill="#0" id="circle243"/>
	<circle cx="636" cy="845.333" r="4" fill="#0" id="circle244"/>
	<circle cx="642.667" cy="685.333" r="4" fill="#0" id="circle245"/>
	<circle cx="648" cy="852" r="4" fill="#0" id="circle246"/>
	<circle cx="652" cy="696" r="4" fill="#0" id="circle247"/>
	<circle cx="658.667" cy="708" r="4" fill="#0" id="circle248"/>
	<circle cx="661.333" cy="852" r="4" fill="#0" id="circle249"/>
	<circle cx="665.333" cy="720" r="4" fill="#0" id="circle250"/>
	<circle cx="673.333" cy="730.667" r="4" fill="#0" id="circle251"/>
	<circle cx="673.333" cy="858.667" r="4" fill="#0" id="circle252"/>
	<circle cx="684" cy="866.667" r="4" fill="#0" id="circle253"/>
	<circle cx="685.333" cy="737.333" r="4" fill="#0" id="circle254"/>
	<circle cx="693.333" cy="877.333" r="4" fill="#0" id="circle255"/>
	<circle cx="696" cy="745.333" r="4" fill="#0" id="circle256"/>
	<circle cx="705.333" cy="756" r="4" fill="#0" id="circle257"/>
	<circle cx="706.667" cy="882.667" r="4" fill="#0" id="circle258"/>
	<circle cx="716" cy="765.333" r="4" fill="#0" id="circle259"/>
	<circle cx="720" cy="885.333" r="4" fill="#0" id="circle260"/>
	<circle cx="728" cy="772" r="4" fill="#0" id="circle261"/>
	<circle cx="733.333" cy="889.333" r="4" fill="#0" id="circle262"/>
	<circle cx="741.333" cy="777.333" r="4" fill="#0" id="circle263"/>
	<circle cx="746.667" cy="892" r="4" fill="#0" id="circle264"/>
	<circle cx="753.333" cy="784" r="4" fill="#0" id="circle265"/>
	<circle cx="760" cy="892" r="4" fill="#0" id="circle266"/>
	<circle cx="765.333" cy="790.667" r="4" fill="#0" id="circle267"/>
	<circle cx="773.333" cy="892" r="4" fill="#0" id="circle268"/>
	<circle cx="778.667" cy="790.667" r="4" fill="#0" id="circle269"/>
	<circle cx="786.667" cy="892" r="4" fill="#0" id="circle270"/>
	<circle cx="792" cy="790.667" r="4" fill="#0" id="circle271"/>
	<circle cx="800" cy="892" r="4" fill="#0" id="circle272"/>
	<circle cx="804" cy="797.333" r="4" fill="#0" id="circle273"/>
	<circle cx="813.333" cy="892" r="4" fill="#0" id="circle274"/>
	<circle cx="817.333" cy="797.333" r="4" fill="#0" id="circle275"/>
	<circle cx="825.333" cy="885.333" r="4" fill="#0" id="circle276"/>
	<circle cx="829.333" cy="790.667" r="4" fill="#0" id="circle277"/>
	<circle cx="838.667" cy="885.333" r="4" fill="#0" id="circle278"/>
	<circle cx="842.667" cy="790.667" r="4" fill="#0" id="circle279"/>
	<circle cx="852" cy="878.667" r="4" fill="#0" id="circle280"/>
	<circle cx="854.667" cy="784" r="4" fill="#0" id="circle281"/>
	<circle cx="865.333" cy="878.667" r="4" fill="#0" id="circle282"/>
	<circle cx="868" cy="784" r="4" fill="#0" id="circle283"/>
	<circle cx="877.333" cy="872" r="4" fill="#0" id="circle284"/>
	<circle cx="880" cy="777.333" r="4" fill="#0" id="circle285"/>
	<circle cx="889.333" cy="865.333" r="4" fill="#0" id="circle286"/>
	<circle cx="890.667" cy="768" r="4" fill="#0" id="circle287"/>
	<circle cx="901.333" cy="757.333" r="4" fill="#0" id="circle288"/>
	<circle cx="901.333" cy="858.667" r="4" fill="#0" id="circle289"/>
	<circle cx="912" cy="746.667" r="4" fill="#0" id="circle290"/>
	<circle cx="913.333" cy="852" r="4" fill="#0" id="circle291"/>
	<circle cx="922.667" cy="737.333" r="4" fill="#0" id="circle292"/>
	<circle cx="924" cy="841.333" r="4" fill="#0" id="circle293"/>
	<circle cx="928" cy="724" r="4" fill="#0" id="circle294"/>
	<circle cx="934.667" cy="830.667" r="4" fill="#0" id="circle295"/>
	<circle cx="937.333" cy="708" r="4" fill="#0" id="circle296"/>
	<circle cx="945.333" cy="818.667" r="4" fill="#0" id="circle297"/>
	<circle cx="948" cy="697.333" r="4" fill="#0" id="circle298"/>
	<circle cx="950.667" cy="681.333" r="4" fill="#0" id="circle299"/>
	<circle cx="952" cy="805.333" r="4" fill="#0" id="circle300"/>
	<circle cx="957.333" cy="648" r="4" fill="#0" id="circle301"/>
	<circle cx="957.333" cy="661.333" r="4" fill="#0" id="circle302"/>
	<circle cx="962.667" cy="796" r="4" fill="#0" id="circle303"/>
	<circle cx="968" cy="637.333" r="4" fill="#0" id="circle304"/>
	<circle cx="969.333" cy="782.667" r="4" fill="#0" id="circle305"/>
	<circle cx="976" cy="769.333" r="4" fill="#0" id="circle306"/>
	<circle cx="978.667" cy="752" r="4" fill="#0" id="circle307"/>
	<circle cx="980" cy="644" r="4" fill="#0" id="circle308"/>
	<circle cx="985.333" cy="732" r="4" fill="#0" id="circle309"/>
	<circle cx="990.667" cy="653.333" r="4" fill="#0" id="circle310"/>
	<circle cx="992" cy="666.667" r="4" fill="#0" id="circle311"/>
	<circle cx="992" cy="698.667" r="4" fill="#0" id="circle312"/>
	<circle cx="992" cy="712" r="4" fill="#0" id="circle313"/>
	<circle cx="996" cy="680" r="4" fill="#0" id="circle314"/>
	</g>
</svg>