<?xml version="1.0" encoding="UTF-8" standalone="no"?>
<!-- Created with CurveBenchmark -->
<svg
	xmlns:dc="http://purl.org/dc/elements/1.1/"
	xmlns:cc="http://creativecommons.org/ns#"
	xmlns:rdf="http://www.w3.org/1999/02/22-rdf-syntax-ns#"
	xmlns:svg="http://www.w3.org/2000/svg"
	xmlns="http://www.w3.org/2000/svg"
	xmlns:sodipodi="http://sodipodi.sourceforge.net/DTD/sodipodi-0.dtd"
	xmlns:inkscape="http://www.inkscape.org/namespaces/inkscape"
	width="1000"
	height="1000"
	id="svg2"
	version="1.1"
	sodipodi:docname="manifold/gathan1-fish355.png.txt">
<defs
	id="defs4" />
<metadata
	id="metadata7">
	<rdf:RDF>
		<cc:Work
			rdf:about="">
			<dc:format>image/svg+xml</dc:format>
			<dc:type
				rdf:resource="http://purl.org/dc/dcmitype/StillImage" />
			<dc:title></dc:title>
		</cc:Work>
	</rdf:RDF>
</metadata>
<g
	inkscape:label="Layer 1"
	inkscape:groupmode="layer"
	id="layer1">
	<path style="fill:none;stroke:red;stroke-width:1px;stroke-linecap:butt;stroke-linejoin:miter;stroke-opacity:1" d="M 104.881,160.927 130.102,146.915 z" id="boundary" inkscape:connector-curvature="0" />
	<path style="fill:none;stroke:red;stroke-width:1px;stroke-linecap:butt;stroke-linejoin:miter;stroke-opacity:1" d="M 158.124,138.508 130.102,146.915 z" id="boundary" inkscape:connector-curvature="0" />
	<path style="fill:none;stroke:red;stroke-width:1px;stroke-linecap:butt;stroke-linejoin:miter;stroke-opacity:1" d="M 186.147,127.299 158.124,138.508 z" id="boundary" inkscape:connector-curvature="0" />
	<path style="fill:none;stroke:red;stroke-width:1px;stroke-linecap:butt;stroke-linejoin:miter;stroke-opacity:1" d="M 186.147,127.299 214.169,116.09 z" id="boundary" inkscape:connector-curvature="0" />
	<path style="fill:none;stroke:red;stroke-width:1px;stroke-linecap:butt;stroke-linejoin:miter;stroke-opacity:1" d="M 242.192,110.486 214.169,116.09 z" id="boundary" inkscape:connector-curvature="0" />
	<path style="fill:none;stroke:red;stroke-width:1px;stroke-linecap:butt;stroke-linejoin:miter;stroke-opacity:1" d="M 4,211.367 26.4181,194.554 z" id="boundary" inkscape:connector-curvature="0" />
	<path style="fill:none;stroke:red;stroke-width:1px;stroke-linecap:butt;stroke-linejoin:miter;stroke-opacity:1" d="M 20.8136,233.785 4,211.367 z" id="boundary" inkscape:connector-curvature="0" />
	<path style="fill:none;stroke:red;stroke-width:1px;stroke-linecap:butt;stroke-linejoin:miter;stroke-opacity:1" d="M 26.4181,194.554 51.6384,180.542 z" id="boundary" inkscape:connector-curvature="0" />
	<path style="fill:none;stroke:red;stroke-width:1px;stroke-linecap:butt;stroke-linejoin:miter;stroke-opacity:1" d="M 51.6384,180.542 76.8588,166.531 z" id="boundary" inkscape:connector-curvature="0" />
	<path style="fill:none;stroke:red;stroke-width:1px;stroke-linecap:butt;stroke-linejoin:miter;stroke-opacity:1" d="M 104.881,160.927 76.8588,166.531 z" id="boundary" inkscape:connector-curvature="0" />
	<path style="fill:none;stroke:red;stroke-width:1px;stroke-linecap:butt;stroke-linejoin:miter;stroke-opacity:1" d="M 40.4294,256.203 20.8136,233.785 z" id="boundary" inkscape:connector-curvature="0" />
	<path style="fill:none;stroke:red;stroke-width:1px;stroke-linecap:butt;stroke-linejoin:miter;stroke-opacity:1" d="M 337.469,23.6158 359.887,4 z" id="boundary" inkscape:connector-curvature="0" />
	<path style="fill:none;stroke:red;stroke-width:1px;stroke-linecap:butt;stroke-linejoin:miter;stroke-opacity:1" d="M 359.887,4 387.91,9.60452 z" id="boundary" inkscape:connector-curvature="0" />
	<path style="fill:none;stroke:red;stroke-width:1px;stroke-linecap:butt;stroke-linejoin:miter;stroke-opacity:1" d="M 438.35,32.0226 410.328,26.4181 z" id="boundary" inkscape:connector-curvature="0" />
	<path style="fill:none;stroke:red;stroke-width:1px;stroke-linecap:butt;stroke-linejoin:miter;stroke-opacity:1" d="M 410.328,26.4181 387.91,9.60452 z" id="boundary" inkscape:connector-curvature="0" />
	<path style="fill:none;stroke:red;stroke-width:1px;stroke-linecap:butt;stroke-linejoin:miter;stroke-opacity:1" d="M 466.373,43.2316 438.35,32.0226 z" id="boundary" inkscape:connector-curvature="0" />
	<path style="fill:none;stroke:red;stroke-width:1px;stroke-linecap:butt;stroke-linejoin:miter;stroke-opacity:1" d="M 323.458,48.8362 337.469,23.6158 z" id="boundary" inkscape:connector-curvature="0" />
	<path style="fill:none;stroke:red;stroke-width:1px;stroke-linecap:butt;stroke-linejoin:miter;stroke-opacity:1" d="M 298.237,96.4746 270.215,104.881 z" id="boundary" inkscape:connector-curvature="0" />
	<path style="fill:none;stroke:red;stroke-width:1px;stroke-linecap:butt;stroke-linejoin:miter;stroke-opacity:1" d="M 270.215,104.881 242.192,110.486 z" id="boundary" inkscape:connector-curvature="0" />
	<path style="fill:none;stroke:red;stroke-width:1px;stroke-linecap:butt;stroke-linejoin:miter;stroke-opacity:1" d="M 295.435,60.0452 323.458,48.8362 z" id="boundary" inkscape:connector-curvature="0" />
	<path style="fill:none;stroke:red;stroke-width:1px;stroke-linecap:butt;stroke-linejoin:miter;stroke-opacity:1" d="M 466.373,43.2316 491.593,57.2429 z" id="boundary" inkscape:connector-curvature="0" />
	<path style="fill:none;stroke:red;stroke-width:1px;stroke-linecap:butt;stroke-linejoin:miter;stroke-opacity:1" d="M 519.616,60.0452 491.593,57.2429 z" id="boundary" inkscape:connector-curvature="0" />
	<path style="fill:none;stroke:red;stroke-width:1px;stroke-linecap:butt;stroke-linejoin:miter;stroke-opacity:1" d="M 40.4294,256.203 62.8475,275.819 z" id="boundary" inkscape:connector-curvature="0" />
	<path style="fill:none;stroke:red;stroke-width:1px;stroke-linecap:butt;stroke-linejoin:miter;stroke-opacity:1" d="M 62.8475,275.819 82.4633,298.237 z" id="boundary" inkscape:connector-curvature="0" />
	<path style="fill:none;stroke:red;stroke-width:1px;stroke-linecap:butt;stroke-linejoin:miter;stroke-opacity:1" d="M 135.706,320.655 107.684,312.249 z" id="boundary" inkscape:connector-curvature="0" />
	<path style="fill:none;stroke:red;stroke-width:1px;stroke-linecap:butt;stroke-linejoin:miter;stroke-opacity:1" d="M 107.684,312.249 82.4633,298.237 z" id="boundary" inkscape:connector-curvature="0" />
	<path style="fill:none;stroke:red;stroke-width:1px;stroke-linecap:butt;stroke-linejoin:miter;stroke-opacity:1" d="M 216.972,351.48 188.949,340.271 z" id="boundary" inkscape:connector-curvature="0" />
	<path style="fill:none;stroke:red;stroke-width:1px;stroke-linecap:butt;stroke-linejoin:miter;stroke-opacity:1" d="M 188.949,340.271 163.729,326.26 z" id="boundary" inkscape:connector-curvature="0" />
	<path style="fill:none;stroke:red;stroke-width:1px;stroke-linecap:butt;stroke-linejoin:miter;stroke-opacity:1" d="M 135.706,320.655 163.729,326.26 z" id="boundary" inkscape:connector-curvature="0" />
	<path style="fill:none;stroke:red;stroke-width:1px;stroke-linecap:butt;stroke-linejoin:miter;stroke-opacity:1" d="M 244.994,359.887 273.017,359.887 z" id="boundary" inkscape:connector-curvature="0" />
	<path style="fill:none;stroke:red;stroke-width:1px;stroke-linecap:butt;stroke-linejoin:miter;stroke-opacity:1" d="M 244.994,359.887 216.972,351.48 z" id="boundary" inkscape:connector-curvature="0" />
	<path style="fill:none;stroke:red;stroke-width:1px;stroke-linecap:butt;stroke-linejoin:miter;stroke-opacity:1" d="M 298.237,373.898 273.017,359.887 z" id="boundary" inkscape:connector-curvature="0" />
	<path style="fill:none;stroke:red;stroke-width:1px;stroke-linecap:butt;stroke-linejoin:miter;stroke-opacity:1" d="M 298.237,373.898 312.249,399.119 z" id="boundary" inkscape:connector-curvature="0" />
	<path style="fill:none;stroke:red;stroke-width:1px;stroke-linecap:butt;stroke-linejoin:miter;stroke-opacity:1" d="M 329.062,421.537 312.249,399.119 z" id="boundary" inkscape:connector-curvature="0" />
	<path style="fill:none;stroke:red;stroke-width:1px;stroke-linecap:butt;stroke-linejoin:miter;stroke-opacity:1" d="M 463.571,354.282 491.593,354.282 z" id="boundary" inkscape:connector-curvature="0" />
	<path style="fill:none;stroke:red;stroke-width:1px;stroke-linecap:butt;stroke-linejoin:miter;stroke-opacity:1" d="M 443.955,382.305 435.548,354.282 z" id="boundary" inkscape:connector-curvature="0" />
	<path style="fill:none;stroke:red;stroke-width:1px;stroke-linecap:butt;stroke-linejoin:miter;stroke-opacity:1" d="M 435.548,354.282 463.571,354.282 z" id="boundary" inkscape:connector-curvature="0" />
	<path style="fill:none;stroke:red;stroke-width:1px;stroke-linecap:butt;stroke-linejoin:miter;stroke-opacity:1" d="M 443.955,410.328 443.955,382.305 z" id="boundary" inkscape:connector-curvature="0" />
	<path style="fill:none;stroke:red;stroke-width:1px;stroke-linecap:butt;stroke-linejoin:miter;stroke-opacity:1" d="M 376.701,455.164 351.48,441.153 z" id="boundary" inkscape:connector-curvature="0" />
	<path style="fill:none;stroke:red;stroke-width:1px;stroke-linecap:butt;stroke-linejoin:miter;stroke-opacity:1" d="M 351.48,441.153 329.062,421.537 z" id="boundary" inkscape:connector-curvature="0" />
	<path style="fill:none;stroke:red;stroke-width:1px;stroke-linecap:butt;stroke-linejoin:miter;stroke-opacity:1" d="M 429.944,443.955 404.723,460.768 z" id="boundary" inkscape:connector-curvature="0" />
	<path style="fill:none;stroke:red;stroke-width:1px;stroke-linecap:butt;stroke-linejoin:miter;stroke-opacity:1" d="M 404.723,460.768 376.701,455.164 z" id="boundary" inkscape:connector-curvature="0" />
	<path style="fill:none;stroke:red;stroke-width:1px;stroke-linecap:butt;stroke-linejoin:miter;stroke-opacity:1" d="M 443.955,410.328 429.944,443.955 z" id="boundary" inkscape:connector-curvature="0" />
	<path style="fill:none;stroke:red;stroke-width:1px;stroke-linecap:butt;stroke-linejoin:miter;stroke-opacity:1" d="M 491.593,354.282 519.616,348.678 z" id="boundary" inkscape:connector-curvature="0" />
	<path style="fill:none;stroke:red;stroke-width:1px;stroke-linecap:butt;stroke-linejoin:miter;stroke-opacity:1" d="M 544.836,74.0565 567.254,90.8701 z" id="boundary" inkscape:connector-curvature="0" />
	<path style="fill:none;stroke:red;stroke-width:1px;stroke-linecap:butt;stroke-linejoin:miter;stroke-opacity:1" d="M 544.836,74.0565 519.616,60.0452 z" id="boundary" inkscape:connector-curvature="0" />
	<path style="fill:none;stroke:red;stroke-width:1px;stroke-linecap:butt;stroke-linejoin:miter;stroke-opacity:1" d="M 645.718,82.4633 673.74,76.8588 z" id="boundary" inkscape:connector-curvature="0" />
	<path style="fill:none;stroke:red;stroke-width:1px;stroke-linecap:butt;stroke-linejoin:miter;stroke-opacity:1" d="M 673.74,76.8588 701.763,88.0678 z" id="boundary" inkscape:connector-curvature="0" />
	<path style="fill:none;stroke:red;stroke-width:1px;stroke-linecap:butt;stroke-linejoin:miter;stroke-opacity:1" d="M 645.718,82.4633 617.695,90.8701 z" id="boundary" inkscape:connector-curvature="0" />
	<path style="fill:none;stroke:red;stroke-width:1px;stroke-linecap:butt;stroke-linejoin:miter;stroke-opacity:1" d="M 701.763,88.0678 724.181,104.881 z" id="boundary" inkscape:connector-curvature="0" />
	<path style="fill:none;stroke:red;stroke-width:1px;stroke-linecap:butt;stroke-linejoin:miter;stroke-opacity:1" d="M 617.695,90.8701 592.475,104.881 z" id="boundary" inkscape:connector-curvature="0" />
	<path style="fill:none;stroke:red;stroke-width:1px;stroke-linecap:butt;stroke-linejoin:miter;stroke-opacity:1" d="M 592.475,104.881 567.254,90.8701 z" id="boundary" inkscape:connector-curvature="0" />
	<path style="fill:none;stroke:red;stroke-width:1px;stroke-linecap:butt;stroke-linejoin:miter;stroke-opacity:1" d="M 746.599,121.695 724.181,104.881 z" id="boundary" inkscape:connector-curvature="0" />
	<path style="fill:none;stroke:red;stroke-width:1px;stroke-linecap:butt;stroke-linejoin:miter;stroke-opacity:1" d="M 766.215,144.113 746.599,121.695 z" id="boundary" inkscape:connector-curvature="0" />
	<path style="fill:none;stroke:red;stroke-width:1px;stroke-linecap:butt;stroke-linejoin:miter;stroke-opacity:1" d="M 886.712,152.52 911.932,138.508 z" id="boundary" inkscape:connector-curvature="0" />
	<path style="fill:none;stroke:red;stroke-width:1px;stroke-linecap:butt;stroke-linejoin:miter;stroke-opacity:1" d="M 886.712,152.52 858.689,163.729 z" id="boundary" inkscape:connector-curvature="0" />
	<path style="fill:none;stroke:red;stroke-width:1px;stroke-linecap:butt;stroke-linejoin:miter;stroke-opacity:1" d="M 939.955,132.904 967.977,121.695 z" id="boundary" inkscape:connector-curvature="0" />
	<path style="fill:none;stroke:red;stroke-width:1px;stroke-linecap:butt;stroke-linejoin:miter;stroke-opacity:1" d="M 939.955,132.904 911.932,138.508 z" id="boundary" inkscape:connector-curvature="0" />
	<path style="fill:none;stroke:red;stroke-width:1px;stroke-linecap:butt;stroke-linejoin:miter;stroke-opacity:1" d="M 996,124.497 967.977,121.695 z" id="boundary" inkscape:connector-curvature="0" />
	<path style="fill:none;stroke:red;stroke-width:1px;stroke-linecap:butt;stroke-linejoin:miter;stroke-opacity:1" d="M 996,124.497 993.198,160.927 z" id="boundary" inkscape:connector-curvature="0" />
	<path style="fill:none;stroke:red;stroke-width:1px;stroke-linecap:butt;stroke-linejoin:miter;stroke-opacity:1" d="M 833.469,177.74 805.446,183.345 z" id="boundary" inkscape:connector-curvature="0" />
	<path style="fill:none;stroke:red;stroke-width:1px;stroke-linecap:butt;stroke-linejoin:miter;stroke-opacity:1" d="M 805.446,183.345 783.028,166.531 z" id="boundary" inkscape:connector-curvature="0" />
	<path style="fill:none;stroke:red;stroke-width:1px;stroke-linecap:butt;stroke-linejoin:miter;stroke-opacity:1" d="M 858.689,163.729 833.469,177.74 z" id="boundary" inkscape:connector-curvature="0" />
	<path style="fill:none;stroke:red;stroke-width:1px;stroke-linecap:butt;stroke-linejoin:miter;stroke-opacity:1" d="M 766.215,144.113 783.028,166.531 z" id="boundary" inkscape:connector-curvature="0" />
	<path style="fill:none;stroke:red;stroke-width:1px;stroke-linecap:butt;stroke-linejoin:miter;stroke-opacity:1" d="M 993.198,160.927 981.989,194.554 z" id="boundary" inkscape:connector-curvature="0" />
	<path style="fill:none;stroke:red;stroke-width:1px;stroke-linecap:butt;stroke-linejoin:miter;stroke-opacity:1" d="M 981.989,222.576 981.989,194.554 z" id="boundary" inkscape:connector-curvature="0" />
	<path style="fill:none;stroke:red;stroke-width:1px;stroke-linecap:butt;stroke-linejoin:miter;stroke-opacity:1" d="M 547.638,348.678 575.661,348.678 z" id="boundary" inkscape:connector-curvature="0" />
	<path style="fill:none;stroke:red;stroke-width:1px;stroke-linecap:butt;stroke-linejoin:miter;stroke-opacity:1" d="M 785.831,278.621 777.424,320.655 z" id="boundary" inkscape:connector-curvature="0" />
	<path style="fill:none;stroke:red;stroke-width:1px;stroke-linecap:butt;stroke-linejoin:miter;stroke-opacity:1" d="M 763.412,345.876 777.424,320.655 z" id="boundary" inkscape:connector-curvature="0" />
	<path style="fill:none;stroke:red;stroke-width:1px;stroke-linecap:butt;stroke-linejoin:miter;stroke-opacity:1" d="M 631.706,343.073 603.684,348.678 z" id="boundary" inkscape:connector-curvature="0" />
	<path style="fill:none;stroke:red;stroke-width:1px;stroke-linecap:butt;stroke-linejoin:miter;stroke-opacity:1" d="M 547.638,348.678 519.616,348.678 z" id="boundary" inkscape:connector-curvature="0" />
	<path style="fill:none;stroke:red;stroke-width:1px;stroke-linecap:butt;stroke-linejoin:miter;stroke-opacity:1" d="M 603.684,348.678 575.661,348.678 z" id="boundary" inkscape:connector-curvature="0" />
	<path style="fill:none;stroke:red;stroke-width:1px;stroke-linecap:butt;stroke-linejoin:miter;stroke-opacity:1" d="M 631.706,343.073 656.927,357.085 z" id="boundary" inkscape:connector-curvature="0" />
	<path style="fill:none;stroke:red;stroke-width:1px;stroke-linecap:butt;stroke-linejoin:miter;stroke-opacity:1" d="M 712.972,365.492 684.949,359.887 z" id="boundary" inkscape:connector-curvature="0" />
	<path style="fill:none;stroke:red;stroke-width:1px;stroke-linecap:butt;stroke-linejoin:miter;stroke-opacity:1" d="M 684.949,359.887 656.927,357.085 z" id="boundary" inkscape:connector-curvature="0" />
	<path style="fill:none;stroke:red;stroke-width:1px;stroke-linecap:butt;stroke-linejoin:miter;stroke-opacity:1" d="M 712.972,365.492 740.994,365.492 z" id="boundary" inkscape:connector-curvature="0" />
	<path style="fill:none;stroke:red;stroke-width:1px;stroke-linecap:butt;stroke-linejoin:miter;stroke-opacity:1" d="M 763.412,345.876 740.994,365.492 z" id="boundary" inkscape:connector-curvature="0" />
	<path style="fill:none;stroke:red;stroke-width:1px;stroke-linecap:butt;stroke-linejoin:miter;stroke-opacity:1" d="M 813.853,275.819 841.876,287.028 z" id="boundary" inkscape:connector-curvature="0" />
	<path style="fill:none;stroke:red;stroke-width:1px;stroke-linecap:butt;stroke-linejoin:miter;stroke-opacity:1" d="M 813.853,275.819 785.831,278.621 z" id="boundary" inkscape:connector-curvature="0" />
	<path style="fill:none;stroke:red;stroke-width:1px;stroke-linecap:butt;stroke-linejoin:miter;stroke-opacity:1" d="M 841.876,287.028 867.096,301.04 z" id="boundary" inkscape:connector-curvature="0" />
	<path style="fill:none;stroke:red;stroke-width:1px;stroke-linecap:butt;stroke-linejoin:miter;stroke-opacity:1" d="M 987.593,278.621 981.989,250.599 z" id="boundary" inkscape:connector-curvature="0" />
	<path style="fill:none;stroke:red;stroke-width:1px;stroke-linecap:butt;stroke-linejoin:miter;stroke-opacity:1" d="M 981.989,250.599 981.989,222.576 z" id="boundary" inkscape:connector-curvature="0" />
	<path style="fill:none;stroke:red;stroke-width:1px;stroke-linecap:butt;stroke-linejoin:miter;stroke-opacity:1" d="M 920.339,326.26 892.316,315.051 z" id="boundary" inkscape:connector-curvature="0" />
	<path style="fill:none;stroke:red;stroke-width:1px;stroke-linecap:butt;stroke-linejoin:miter;stroke-opacity:1" d="M 892.316,315.051 867.096,301.04 z" id="boundary" inkscape:connector-curvature="0" />
	<path style="fill:none;stroke:red;stroke-width:1px;stroke-linecap:butt;stroke-linejoin:miter;stroke-opacity:1" d="M 996,306.644 976.384,337.469 z" id="boundary" inkscape:connector-curvature="0" />
	<path style="fill:none;stroke:red;stroke-width:1px;stroke-linecap:butt;stroke-linejoin:miter;stroke-opacity:1" d="M 976.384,337.469 948.362,337.469 z" id="boundary" inkscape:connector-curvature="0" />
	<path style="fill:none;stroke:red;stroke-width:1px;stroke-linecap:butt;stroke-linejoin:miter;stroke-opacity:1" d="M 948.362,337.469 920.339,326.26 z" id="boundary" inkscape:connector-curvature="0" />
	<path style="fill:none;stroke:red;stroke-width:1px;stroke-linecap:butt;stroke-linejoin:miter;stroke-opacity:1" d="M 987.593,278.621 996,306.644 z" id="boundary" inkscape:connector-curvature="0" />
	<circle cx="4" cy="211.367" r="4" fill="#0" id="circle0"/>
	<circle cx="20.8136" cy="233.785" r="4" fill="#0" id="circle1"/>
	<circle cx="26.4181" cy="194.554" r="4" fill="#0" id="circle2"/>
	<circle cx="40.4294" cy="256.203" r="4" fill="#0" id="circle3"/>
	<circle cx="51.6384" cy="180.542" r="4" fill="#0" id="circle4"/>
	<circle cx="62.8475" cy="275.819" r="4" fill="#0" id="circle5"/>
	<circle cx="76.8588" cy="166.531" r="4" fill="#0" id="circle6"/>
	<circle cx="82.4633" cy="298.237" r="4" fill="#0" id="circle7"/>
	<circle cx="104.881" cy="160.927" r="4" fill="#0" id="circle8"/>
	<circle cx="107.684" cy="312.249" r="4" fill="#0" id="circle9"/>
	<circle cx="130.102" cy="146.915" r="4" fill="#0" id="circle10"/>
	<circle cx="135.706" cy="320.655" r="4" fill="#0" id="circle11"/>
	<circle cx="158.124" cy="138.508" r="4" fill="#0" id="circle12"/>
	<circle cx="163.729" cy="326.26" r="4" fill="#0" id="circle13"/>
	<circle cx="186.147" cy="127.299" r="4" fill="#0" id="circle14"/>
	<circle cx="188.949" cy="340.271" r="4" fill="#0" id="circle15"/>
	<circle cx="214.169" cy="116.09" r="4" fill="#0" id="circle16"/>
	<circle cx="216.972" cy="351.48" r="4" fill="#0" id="circle17"/>
	<circle cx="242.192" cy="110.486" r="4" fill="#0" id="circle18"/>
	<circle cx="244.994" cy="359.887" r="4" fill="#0" id="circle19"/>
	<circle cx="270.215" cy="104.881" r="4" fill="#0" id="circle20"/>
	<circle cx="273.017" cy="359.887" r="4" fill="#0" id="circle21"/>
	<circle cx="295.435" cy="60.0452" r="4" fill="#0" id="circle22"/>
	<circle cx="298.237" cy="96.4746" r="4" fill="#0" id="circle23"/>
	<circle cx="298.237" cy="373.898" r="4" fill="#0" id="circle24"/>
	<circle cx="312.249" cy="399.119" r="4" fill="#0" id="circle25"/>
	<circle cx="323.458" cy="48.8362" r="4" fill="#0" id="circle26"/>
	<circle cx="329.062" cy="421.537" r="4" fill="#0" id="circle27"/>
	<circle cx="337.469" cy="23.6158" r="4" fill="#0" id="circle28"/>
	<circle cx="351.48" cy="441.153" r="4" fill="#0" id="circle29"/>
	<circle cx="359.887" cy="4" r="4" fill="#0" id="circle30"/>
	<circle cx="376.701" cy="455.164" r="4" fill="#0" id="circle31"/>
	<circle cx="387.91" cy="9.60452" r="4" fill="#0" id="circle32"/>
	<circle cx="404.723" cy="460.768" r="4" fill="#0" id="circle33"/>
	<circle cx="410.328" cy="26.4181" r="4" fill="#0" id="circle34"/>
	<circle cx="429.944" cy="443.955" r="4" fill="#0" id="circle35"/>
	<circle cx="435.548" cy="354.282" r="4" fill="#0" id="circle36"/>
	<circle cx="438.35" cy="32.0226" r="4" fill="#0" id="circle37"/>
	<circle cx="443.955" cy="382.305" r="4" fill="#0" id="circle38"/>
	<circle cx="443.955" cy="410.328" r="4" fill="#0" id="circle39"/>
	<circle cx="463.571" cy="354.282" r="4" fill="#0" id="circle40"/>
	<circle cx="466.373" cy="43.2316" r="4" fill="#0" id="circle41"/>
	<circle cx="491.593" cy="57.2429" r="4" fill="#0" id="circle42"/>
	<circle cx="491.593" cy="354.282" r="4" fill="#0" id="circle43"/>
	<circle cx="519.616" cy="60.0452" r="4" fill="#0" id="circle44"/>
	<circle cx="519.616" cy="348.678" r="4" fill="#0" id="circle45"/>
	<circle cx="544.836" cy="74.0565" r="4" fill="#0" id="circle46"/>
	<circle cx="547.638" cy="348.678" r="4" fill="#0" id="circle47"/>
	<circle cx="567.254" cy="90.8701" r="4" fill="#0" id="circle48"/>
	<circle cx="575.661" cy="348.678" r="4" fill="#0" id="circle49"/>
	<circle cx="592.475" cy="104.881" r="4" fill="#0" id="circle50"/>
	<circle cx="603.684" cy="348.678" r="4" fill="#0" id="circle51"/>
	<circle cx="617.695" cy="90.8701" r="4" fill="#0" id="circle52"/>
	<circle cx="631.706" cy="343.073" r="4" fill="#0" id="circle53"/>
	<circle cx="645.718" cy="82.4633" r="4" fill="#0" id="circle54"/>
	<circle cx="656.927" cy="357.085" r="4" fill="#0" id="circle55"/>
	<circle cx="673.74" cy="76.8588" r="4" fill="#0" id="circle56"/>
	<circle cx="684.949" cy="359.887" r="4" fill="#0" id="circle57"/>
	<circle cx="701.763" cy="88.0678" r="4" fill="#0" id="circle58"/>
	<circle cx="712.972" cy="365.492" r="4" fill="#0" id="circle59"/>
	<circle cx="724.181" cy="104.881" r="4" fill="#0" id="circle60"/>
	<circle cx="740.994" cy="365.492" r="4" fill="#0" id="circle61"/>
	<circle cx="746.599" cy="121.695" r="4" fill="#0" id="circle62"/>
	<circle cx="763.412" cy="345.876" r="4" fill="#0" id="circle63"/>
	<circle cx="766.215" cy="144.113" r="4" fill="#0" id="circle64"/>
	<circle cx="777.424" cy="320.655" r="4" fill="#0" id="circle65"/>
	<circle cx="783.028" cy="166.531" r="4" fill="#0" id="circle66"/>
	<circle cx="785.831" cy="278.621" r="4" fill="#0" id="circle67"/>
	<circle cx="805.446" cy="183.345" r="4" fill="#0" id="circle68"/>
	<circle cx="813.853" cy="275.819" r="4" fill="#0" id="circle69"/>
	<circle cx="833.469" cy="177.74" r="4" fill="#0" id="circle70"/>
	<circle cx="841.876" cy="287.028" r="4" fill="#0" id="circle71"/>
	<circle cx="858.689" cy="163.729" r="4" fill="#0" id="circle72"/>
	<circle cx="867.096" cy="301.04" r="4" fill="#0" id="circle73"/>
	<circle cx="886.712" cy="152.52" r="4" fill="#0" id="circle74"/>
	<circle cx="892.316" cy="315.051" r="4" fill="#0" id="circle75"/>
	<circle cx="911.932" cy="138.508" r="4" fill="#0" id="circle76"/>
	<circle cx="920.339" cy="326.26" r="4" fill="#0" id="circle77"/>
	<circle cx="939.955" cy="132.904" r="4" fill="#0" id="circle78"/>
	<circle cx="948.362" cy="337.469" r="4" fill="#0" id="circle79"/>
	<circle cx="967.977" cy="121.695" r="4" fill="#0" id="circle80"/>
	<circle cx="976.384" cy="337.469" r="4" fill="#0" id="circle81"/>
	<circle cx="981.989" cy="194.554" r="4" fill="#0" id="circle82"/>
	<circle cx="981.989" cy="222.576" r="4" fill="#0" id="circle83"/>
	<circle cx="981.989" cy="250.599" r="4" fill="#0" id="circle84"/>
	<circle cx="987.593" cy="278.621" r="4" fill="#0" id="circle85"/>
	<circle cx="993.198" cy="160.927" r="4" fill="#0" id="circle86"/>
	<circle cx="996" cy="124.497" r="4" fill="#0" id="circle87"/>
	<circle cx="996" cy="306.644" r="4" fill="#0" id="circle88"/>
	</g>
</svg>