<?xml version="1.0" encoding="UTF-8" standalone="no"?>
<!-- Created with CurveBenchmark -->
<svg
	xmlns:dc="http://purl.org/dc/elements/1.1/"
	xmlns:cc="http://creativecommons.org/ns#"
	xmlns:rdf="http://www.w3.org/1999/02/22-rdf-syntax-ns#"
	xmlns:svg="http://www.w3.org/2000/svg"
	xmlns="http://www.w3.org/2000/svg"
	xmlns:sodipodi="http://sodipodi.sourceforge.net/DTD/sodipodi-0.dtd"
	xmlns:inkscape="http://www.inkscape.org/namespaces/inkscape"
	width="1000"
	height="1000"
	id="svg2"
	version="1.1"
	sodipodi:docname="manifold/gathan1-cat29.png.txt">
<defs
	id="defs4" />
<metadata
	id="metadata7">
	<rdf:RDF>
		<cc:Work
			rdf:about="">
			<dc:format>image/svg+xml</dc:format>
			<dc:type
				rdf:resource="http://purl.org/dc/dcmitype/StillImage" />
			<dc:title></dc:title>
		</cc:Work>
	</rdf:RDF>
</metadata>
<g
	inkscape:label="Layer 1"
	inkscape:groupmode="layer"
	id="layer1">
	<path style="fill:none;stroke:red;stroke-width:1px;stroke-linecap:butt;stroke-linejoin:miter;stroke-opacity:1" d="M 66.7221,136.047 50.2163,144.3 z" id="boundary" inkscape:connector-curvature="0" />
	<path style="fill:none;stroke:red;stroke-width:1px;stroke-linecap:butt;stroke-linejoin:miter;stroke-opacity:1" d="M 70.0233,114.589 66.7221,136.047 z" id="boundary" inkscape:connector-curvature="0" />
	<path style="fill:none;stroke:red;stroke-width:1px;stroke-linecap:butt;stroke-linejoin:miter;stroke-opacity:1" d="M 50.2163,144.3 37.0116,157.504 z" id="boundary" inkscape:connector-curvature="0" />
	<path style="fill:none;stroke:red;stroke-width:1px;stroke-linecap:butt;stroke-linejoin:miter;stroke-opacity:1" d="M 61.7704,99.7338 70.0233,114.589 z" id="boundary" inkscape:connector-curvature="0" />
	<path style="fill:none;stroke:red;stroke-width:1px;stroke-linecap:butt;stroke-linejoin:miter;stroke-opacity:1" d="M 37.0116,157.504 28.7587,174.01 z" id="boundary" inkscape:connector-curvature="0" />
	<path style="fill:none;stroke:red;stroke-width:1px;stroke-linecap:butt;stroke-linejoin:miter;stroke-opacity:1" d="M 17.2047,193.817 28.7587,174.01 z" id="boundary" inkscape:connector-curvature="0" />
	<path style="fill:none;stroke:red;stroke-width:1px;stroke-linecap:butt;stroke-linejoin:miter;stroke-opacity:1" d="M 17.2047,193.817 4,207.022 z" id="boundary" inkscape:connector-curvature="0" />
	<path style="fill:none;stroke:red;stroke-width:1px;stroke-linecap:butt;stroke-linejoin:miter;stroke-opacity:1" d="M 107.987,111.288 91.4809,104.686 z" id="boundary" inkscape:connector-curvature="0" />
	<path style="fill:none;stroke:red;stroke-width:1px;stroke-linecap:butt;stroke-linejoin:miter;stroke-opacity:1" d="M 91.4809,104.686 78.2762,94.782 z" id="boundary" inkscape:connector-curvature="0" />
	<path style="fill:none;stroke:red;stroke-width:1px;stroke-linecap:butt;stroke-linejoin:miter;stroke-opacity:1" d="M 107.987,111.288 119.541,124.493 z" id="boundary" inkscape:connector-curvature="0" />
	<path style="fill:none;stroke:red;stroke-width:1px;stroke-linecap:butt;stroke-linejoin:miter;stroke-opacity:1" d="M 136.047,131.095 145.95,144.3 z" id="boundary" inkscape:connector-curvature="0" />
	<path style="fill:none;stroke:red;stroke-width:1px;stroke-linecap:butt;stroke-linejoin:miter;stroke-opacity:1" d="M 119.541,124.493 136.047,131.095 z" id="boundary" inkscape:connector-curvature="0" />
	<path style="fill:none;stroke:red;stroke-width:1px;stroke-linecap:butt;stroke-linejoin:miter;stroke-opacity:1" d="M 162.456,149.251 145.95,144.3 z" id="boundary" inkscape:connector-curvature="0" />
	<path style="fill:none;stroke:red;stroke-width:1px;stroke-linecap:butt;stroke-linejoin:miter;stroke-opacity:1" d="M 61.7704,99.7338 78.2762,94.782 z" id="boundary" inkscape:connector-curvature="0" />
	<path style="fill:none;stroke:red;stroke-width:1px;stroke-linecap:butt;stroke-linejoin:miter;stroke-opacity:1" d="M 4,223.527 4,207.022 z" id="boundary" inkscape:connector-curvature="0" />
	<path style="fill:none;stroke:red;stroke-width:1px;stroke-linecap:butt;stroke-linejoin:miter;stroke-opacity:1" d="M 4,240.033 4,223.527 z" id="boundary" inkscape:connector-curvature="0" />
	<path style="fill:none;stroke:red;stroke-width:1px;stroke-linecap:butt;stroke-linejoin:miter;stroke-opacity:1" d="M 17.2047,251.587 4,240.033 z" id="boundary" inkscape:connector-curvature="0" />
	<path style="fill:none;stroke:red;stroke-width:1px;stroke-linecap:butt;stroke-linejoin:miter;stroke-opacity:1" d="M 17.2047,251.587 30.4093,261.491 z" id="boundary" inkscape:connector-curvature="0" />
	<path style="fill:none;stroke:red;stroke-width:1px;stroke-linecap:butt;stroke-linejoin:miter;stroke-opacity:1" d="M 46.9151,264.792 30.4093,261.491 z" id="boundary" inkscape:connector-curvature="0" />
	<path style="fill:none;stroke:red;stroke-width:1px;stroke-linecap:butt;stroke-linejoin:miter;stroke-opacity:1" d="M 46.9151,264.792 63.421,269.744 z" id="boundary" inkscape:connector-curvature="0" />
	<path style="fill:none;stroke:red;stroke-width:1px;stroke-linecap:butt;stroke-linejoin:miter;stroke-opacity:1" d="M 63.421,269.744 78.2762,277.997 z" id="boundary" inkscape:connector-curvature="0" />
	<path style="fill:none;stroke:red;stroke-width:1px;stroke-linecap:butt;stroke-linejoin:miter;stroke-opacity:1" d="M 78.2762,277.997 94.782,277.997 z" id="boundary" inkscape:connector-curvature="0" />
	<path style="fill:none;stroke:red;stroke-width:1px;stroke-linecap:butt;stroke-linejoin:miter;stroke-opacity:1" d="M 94.782,277.997 104.686,291.201 z" id="boundary" inkscape:connector-curvature="0" />
	<path style="fill:none;stroke:red;stroke-width:1px;stroke-linecap:butt;stroke-linejoin:miter;stroke-opacity:1" d="M 117.89,302.755 104.686,291.201 z" id="boundary" inkscape:connector-curvature="0" />
	<path style="fill:none;stroke:red;stroke-width:1px;stroke-linecap:butt;stroke-linejoin:miter;stroke-opacity:1" d="M 117.89,302.755 129.444,315.96 z" id="boundary" inkscape:connector-curvature="0" />
	<path style="fill:none;stroke:red;stroke-width:1px;stroke-linecap:butt;stroke-linejoin:miter;stroke-opacity:1" d="M 142.649,327.514 154.203,340.719 z" id="boundary" inkscape:connector-curvature="0" />
	<path style="fill:none;stroke:red;stroke-width:1px;stroke-linecap:butt;stroke-linejoin:miter;stroke-opacity:1" d="M 129.444,315.96 142.649,327.514 z" id="boundary" inkscape:connector-curvature="0" />
	<path style="fill:none;stroke:red;stroke-width:1px;stroke-linecap:butt;stroke-linejoin:miter;stroke-opacity:1" d="M 190.516,169.058 174.01,162.456 z" id="boundary" inkscape:connector-curvature="0" />
	<path style="fill:none;stroke:red;stroke-width:1px;stroke-linecap:butt;stroke-linejoin:miter;stroke-opacity:1" d="M 174.01,162.456 162.456,149.251 z" id="boundary" inkscape:connector-curvature="0" />
	<path style="fill:none;stroke:red;stroke-width:1px;stroke-linecap:butt;stroke-linejoin:miter;stroke-opacity:1" d="M 205.371,177.311 190.516,169.058 z" id="boundary" inkscape:connector-curvature="0" />
	<path style="fill:none;stroke:red;stroke-width:1px;stroke-linecap:butt;stroke-linejoin:miter;stroke-opacity:1" d="M 236.732,185.564 220.226,185.564 z" id="boundary" inkscape:connector-curvature="0" />
	<path style="fill:none;stroke:red;stroke-width:1px;stroke-linecap:butt;stroke-linejoin:miter;stroke-opacity:1" d="M 220.226,185.564 205.371,177.311 z" id="boundary" inkscape:connector-curvature="0" />
	<path style="fill:none;stroke:red;stroke-width:1px;stroke-linecap:butt;stroke-linejoin:miter;stroke-opacity:1" d="M 253.238,185.564 236.732,185.564 z" id="boundary" inkscape:connector-curvature="0" />
	<path style="fill:none;stroke:red;stroke-width:1px;stroke-linecap:butt;stroke-linejoin:miter;stroke-opacity:1" d="M 167.408,352.273 154.203,340.719 z" id="boundary" inkscape:connector-curvature="0" />
	<path style="fill:none;stroke:red;stroke-width:1px;stroke-linecap:butt;stroke-linejoin:miter;stroke-opacity:1" d="M 253.238,185.564 269.744,185.564 z" id="boundary" inkscape:connector-curvature="0" />
	<path style="fill:none;stroke:red;stroke-width:1px;stroke-linecap:butt;stroke-linejoin:miter;stroke-opacity:1" d="M 269.744,185.564 286.25,190.516 z" id="boundary" inkscape:connector-curvature="0" />
	<path style="fill:none;stroke:red;stroke-width:1px;stroke-linecap:butt;stroke-linejoin:miter;stroke-opacity:1" d="M 367.128,185.564 383.634,185.564 z" id="boundary" inkscape:connector-curvature="0" />
	<path style="fill:none;stroke:red;stroke-width:1px;stroke-linecap:butt;stroke-linejoin:miter;stroke-opacity:1" d="M 367.128,185.564 350.622,185.564 z" id="boundary" inkscape:connector-curvature="0" />
	<path style="fill:none;stroke:red;stroke-width:1px;stroke-linecap:butt;stroke-linejoin:miter;stroke-opacity:1" d="M 383.634,185.564 400.14,185.564 z" id="boundary" inkscape:connector-curvature="0" />
	<path style="fill:none;stroke:red;stroke-width:1px;stroke-linecap:butt;stroke-linejoin:miter;stroke-opacity:1" d="M 335.767,193.817 350.622,185.564 z" id="boundary" inkscape:connector-curvature="0" />
	<path style="fill:none;stroke:red;stroke-width:1px;stroke-linecap:butt;stroke-linejoin:miter;stroke-opacity:1" d="M 416.646,185.564 400.14,185.564 z" id="boundary" inkscape:connector-curvature="0" />
	<path style="fill:none;stroke:red;stroke-width:1px;stroke-linecap:butt;stroke-linejoin:miter;stroke-opacity:1" d="M 319.261,193.817 302.755,193.817 z" id="boundary" inkscape:connector-curvature="0" />
	<path style="fill:none;stroke:red;stroke-width:1px;stroke-linecap:butt;stroke-linejoin:miter;stroke-opacity:1" d="M 302.755,193.817 286.25,190.516 z" id="boundary" inkscape:connector-curvature="0" />
	<path style="fill:none;stroke:red;stroke-width:1px;stroke-linecap:butt;stroke-linejoin:miter;stroke-opacity:1" d="M 178.962,365.478 167.408,352.273 z" id="boundary" inkscape:connector-curvature="0" />
	<path style="fill:none;stroke:red;stroke-width:1px;stroke-linecap:butt;stroke-linejoin:miter;stroke-opacity:1" d="M 192.166,377.032 207.022,385.285 z" id="boundary" inkscape:connector-curvature="0" />
	<path style="fill:none;stroke:red;stroke-width:1px;stroke-linecap:butt;stroke-linejoin:miter;stroke-opacity:1" d="M 207.022,385.285 210.323,401.79 z" id="boundary" inkscape:connector-curvature="0" />
	<path style="fill:none;stroke:red;stroke-width:1px;stroke-linecap:butt;stroke-linejoin:miter;stroke-opacity:1" d="M 192.166,377.032 178.962,365.478 z" id="boundary" inkscape:connector-curvature="0" />
	<path style="fill:none;stroke:red;stroke-width:1px;stroke-linecap:butt;stroke-linejoin:miter;stroke-opacity:1" d="M 416.646,185.564 433.151,185.564 z" id="boundary" inkscape:connector-curvature="0" />
	<path style="fill:none;stroke:red;stroke-width:1px;stroke-linecap:butt;stroke-linejoin:miter;stroke-opacity:1" d="M 449.657,185.564 433.151,185.564 z" id="boundary" inkscape:connector-curvature="0" />
	<path style="fill:none;stroke:red;stroke-width:1px;stroke-linecap:butt;stroke-linejoin:miter;stroke-opacity:1" d="M 466.163,185.564 482.669,185.564 z" id="boundary" inkscape:connector-curvature="0" />
	<path style="fill:none;stroke:red;stroke-width:1px;stroke-linecap:butt;stroke-linejoin:miter;stroke-opacity:1" d="M 449.657,185.564 466.163,185.564 z" id="boundary" inkscape:connector-curvature="0" />
	<path style="fill:none;stroke:red;stroke-width:1px;stroke-linecap:butt;stroke-linejoin:miter;stroke-opacity:1" d="M 499.175,185.564 482.669,185.564 z" id="boundary" inkscape:connector-curvature="0" />
	<path style="fill:none;stroke:red;stroke-width:1px;stroke-linecap:butt;stroke-linejoin:miter;stroke-opacity:1" d="M 319.261,193.817 335.767,193.817 z" id="boundary" inkscape:connector-curvature="0" />
	<path style="fill:none;stroke:red;stroke-width:1px;stroke-linecap:butt;stroke-linejoin:miter;stroke-opacity:1" d="M 532.186,182.263 515.681,185.564 z" id="boundary" inkscape:connector-curvature="0" />
	<path style="fill:none;stroke:red;stroke-width:1px;stroke-linecap:butt;stroke-linejoin:miter;stroke-opacity:1" d="M 515.681,185.564 499.175,185.564 z" id="boundary" inkscape:connector-curvature="0" />
	<path style="fill:none;stroke:red;stroke-width:1px;stroke-linecap:butt;stroke-linejoin:miter;stroke-opacity:1" d="M 210.323,446.356 202.07,471.115 z" id="boundary" inkscape:connector-curvature="0" />
	<path style="fill:none;stroke:red;stroke-width:1px;stroke-linecap:butt;stroke-linejoin:miter;stroke-opacity:1" d="M 210.323,401.79 218.576,416.646 z" id="boundary" inkscape:connector-curvature="0" />
	<path style="fill:none;stroke:red;stroke-width:1px;stroke-linecap:butt;stroke-linejoin:miter;stroke-opacity:1" d="M 218.576,416.646 210.323,446.356 z" id="boundary" inkscape:connector-curvature="0" />
	<path style="fill:none;stroke:red;stroke-width:1px;stroke-linecap:butt;stroke-linejoin:miter;stroke-opacity:1" d="M 193.817,495.874 185.564,520.632 z" id="boundary" inkscape:connector-curvature="0" />
	<path style="fill:none;stroke:red;stroke-width:1px;stroke-linecap:butt;stroke-linejoin:miter;stroke-opacity:1" d="M 185.564,520.632 169.058,528.885 z" id="boundary" inkscape:connector-curvature="0" />
	<path style="fill:none;stroke:red;stroke-width:1px;stroke-linecap:butt;stroke-linejoin:miter;stroke-opacity:1" d="M 202.07,471.115 193.817,495.874 z" id="boundary" inkscape:connector-curvature="0" />
	<path style="fill:none;stroke:red;stroke-width:1px;stroke-linecap:butt;stroke-linejoin:miter;stroke-opacity:1" d="M 169.058,528.885 160.805,545.391 z" id="boundary" inkscape:connector-curvature="0" />
	<path style="fill:none;stroke:red;stroke-width:1px;stroke-linecap:butt;stroke-linejoin:miter;stroke-opacity:1" d="M 276.346,451.308 261.491,459.561 z" id="boundary" inkscape:connector-curvature="0" />
	<path style="fill:none;stroke:red;stroke-width:1px;stroke-linecap:butt;stroke-linejoin:miter;stroke-opacity:1" d="M 236.732,525.584 244.985,509.078 z" id="boundary" inkscape:connector-curvature="0" />
	<path style="fill:none;stroke:red;stroke-width:1px;stroke-linecap:butt;stroke-linejoin:miter;stroke-opacity:1" d="M 236.732,525.584 228.479,542.09 z" id="boundary" inkscape:connector-curvature="0" />
	<path style="fill:none;stroke:red;stroke-width:1px;stroke-linecap:butt;stroke-linejoin:miter;stroke-opacity:1" d="M 268.093,545.391 268.093,528.885 z" id="boundary" inkscape:connector-curvature="0" />
	<path style="fill:none;stroke:red;stroke-width:1px;stroke-linecap:butt;stroke-linejoin:miter;stroke-opacity:1" d="M 169.058,560.246 160.805,545.391 z" id="boundary" inkscape:connector-curvature="0" />
	<path style="fill:none;stroke:red;stroke-width:1px;stroke-linecap:butt;stroke-linejoin:miter;stroke-opacity:1" d="M 216.925,558.596 202.07,566.849 z" id="boundary" inkscape:connector-curvature="0" />
	<path style="fill:none;stroke:red;stroke-width:1px;stroke-linecap:butt;stroke-linejoin:miter;stroke-opacity:1" d="M 185.564,566.849 169.058,560.246 z" id="boundary" inkscape:connector-curvature="0" />
	<path style="fill:none;stroke:red;stroke-width:1px;stroke-linecap:butt;stroke-linejoin:miter;stroke-opacity:1" d="M 185.564,566.849 202.07,566.849 z" id="boundary" inkscape:connector-curvature="0" />
	<path style="fill:none;stroke:red;stroke-width:1px;stroke-linecap:butt;stroke-linejoin:miter;stroke-opacity:1" d="M 218.576,611.414 226.829,594.908 z" id="boundary" inkscape:connector-curvature="0" />
	<path style="fill:none;stroke:red;stroke-width:1px;stroke-linecap:butt;stroke-linejoin:miter;stroke-opacity:1" d="M 231.78,622.968 218.576,611.414 z" id="boundary" inkscape:connector-curvature="0" />
	<path style="fill:none;stroke:red;stroke-width:1px;stroke-linecap:butt;stroke-linejoin:miter;stroke-opacity:1" d="M 243.334,586.656 226.829,594.908 z" id="boundary" inkscape:connector-curvature="0" />
	<path style="fill:none;stroke:red;stroke-width:1px;stroke-linecap:butt;stroke-linejoin:miter;stroke-opacity:1" d="M 243.334,586.656 259.84,570.15 z" id="boundary" inkscape:connector-curvature="0" />
	<path style="fill:none;stroke:red;stroke-width:1px;stroke-linecap:butt;stroke-linejoin:miter;stroke-opacity:1" d="M 248.286,624.619 231.78,622.968 z" id="boundary" inkscape:connector-curvature="0" />
	<path style="fill:none;stroke:red;stroke-width:1px;stroke-linecap:butt;stroke-linejoin:miter;stroke-opacity:1" d="M 248.286,624.619 264.792,624.619 z" id="boundary" inkscape:connector-curvature="0" />
	<path style="fill:none;stroke:red;stroke-width:1px;stroke-linecap:butt;stroke-linejoin:miter;stroke-opacity:1" d="M 216.925,558.596 228.479,542.09 z" id="boundary" inkscape:connector-curvature="0" />
	<path style="fill:none;stroke:red;stroke-width:1px;stroke-linecap:butt;stroke-linejoin:miter;stroke-opacity:1" d="M 276.346,451.308 284.599,466.163 z" id="boundary" inkscape:connector-curvature="0" />
	<path style="fill:none;stroke:red;stroke-width:1px;stroke-linecap:butt;stroke-linejoin:miter;stroke-opacity:1" d="M 358.875,434.802 375.381,434.802 z" id="boundary" inkscape:connector-curvature="0" />
	<path style="fill:none;stroke:red;stroke-width:1px;stroke-linecap:butt;stroke-linejoin:miter;stroke-opacity:1" d="M 391.887,434.802 375.381,434.802 z" id="boundary" inkscape:connector-curvature="0" />
	<path style="fill:none;stroke:red;stroke-width:1px;stroke-linecap:butt;stroke-linejoin:miter;stroke-opacity:1" d="M 408.393,429.85 391.887,434.802 z" id="boundary" inkscape:connector-curvature="0" />
	<path style="fill:none;stroke:red;stroke-width:1px;stroke-linecap:butt;stroke-linejoin:miter;stroke-opacity:1" d="M 335.767,459.561 335.767,476.067 z" id="boundary" inkscape:connector-curvature="0" />
	<path style="fill:none;stroke:red;stroke-width:1px;stroke-linecap:butt;stroke-linejoin:miter;stroke-opacity:1" d="M 335.767,459.561 344.02,443.055 z" id="boundary" inkscape:connector-curvature="0" />
	<path style="fill:none;stroke:red;stroke-width:1px;stroke-linecap:butt;stroke-linejoin:miter;stroke-opacity:1" d="M 344.02,443.055 358.875,434.802 z" id="boundary" inkscape:connector-curvature="0" />
	<path style="fill:none;stroke:red;stroke-width:1px;stroke-linecap:butt;stroke-linejoin:miter;stroke-opacity:1" d="M 335.767,476.067 327.514,492.572 z" id="boundary" inkscape:connector-curvature="0" />
	<path style="fill:none;stroke:red;stroke-width:1px;stroke-linecap:butt;stroke-linejoin:miter;stroke-opacity:1" d="M 424.899,429.85 441.404,426.549 z" id="boundary" inkscape:connector-curvature="0" />
	<path style="fill:none;stroke:red;stroke-width:1px;stroke-linecap:butt;stroke-linejoin:miter;stroke-opacity:1" d="M 457.91,426.549 441.404,426.549 z" id="boundary" inkscape:connector-curvature="0" />
	<path style="fill:none;stroke:red;stroke-width:1px;stroke-linecap:butt;stroke-linejoin:miter;stroke-opacity:1" d="M 408.393,429.85 424.899,429.85 z" id="boundary" inkscape:connector-curvature="0" />
	<path style="fill:none;stroke:red;stroke-width:1px;stroke-linecap:butt;stroke-linejoin:miter;stroke-opacity:1" d="M 515.681,537.138 499.175,545.391 z" id="boundary" inkscape:connector-curvature="0" />
	<path style="fill:none;stroke:red;stroke-width:1px;stroke-linecap:butt;stroke-linejoin:miter;stroke-opacity:1" d="M 490.922,426.549 474.416,426.549 z" id="boundary" inkscape:connector-curvature="0" />
	<path style="fill:none;stroke:red;stroke-width:1px;stroke-linecap:butt;stroke-linejoin:miter;stroke-opacity:1" d="M 457.91,426.549 474.416,426.549 z" id="boundary" inkscape:connector-curvature="0" />
	<path style="fill:none;stroke:red;stroke-width:1px;stroke-linecap:butt;stroke-linejoin:miter;stroke-opacity:1" d="M 319.261,542.09 311.008,558.596 z" id="boundary" inkscape:connector-curvature="0" />
	<path style="fill:none;stroke:red;stroke-width:1px;stroke-linecap:butt;stroke-linejoin:miter;stroke-opacity:1" d="M 276.346,504.126 276.346,487.621 z" id="boundary" inkscape:connector-curvature="0" />
	<path style="fill:none;stroke:red;stroke-width:1px;stroke-linecap:butt;stroke-linejoin:miter;stroke-opacity:1" d="M 311.008,558.596 302.755,575.101 z" id="boundary" inkscape:connector-curvature="0" />
	<path style="fill:none;stroke:red;stroke-width:1px;stroke-linecap:butt;stroke-linejoin:miter;stroke-opacity:1" d="M 281.298,622.968 289.551,606.463 z" id="boundary" inkscape:connector-curvature="0" />
	<path style="fill:none;stroke:red;stroke-width:1px;stroke-linecap:butt;stroke-linejoin:miter;stroke-opacity:1" d="M 289.551,606.463 302.755,591.607 z" id="boundary" inkscape:connector-curvature="0" />
	<path style="fill:none;stroke:red;stroke-width:1px;stroke-linecap:butt;stroke-linejoin:miter;stroke-opacity:1" d="M 281.298,622.968 264.792,624.619 z" id="boundary" inkscape:connector-curvature="0" />
	<path style="fill:none;stroke:red;stroke-width:1px;stroke-linecap:butt;stroke-linejoin:miter;stroke-opacity:1" d="M 302.755,591.607 302.755,575.101 z" id="boundary" inkscape:connector-curvature="0" />
	<path style="fill:none;stroke:red;stroke-width:1px;stroke-linecap:butt;stroke-linejoin:miter;stroke-opacity:1" d="M 327.514,509.078 319.261,525.584 z" id="boundary" inkscape:connector-curvature="0" />
	<path style="fill:none;stroke:red;stroke-width:1px;stroke-linecap:butt;stroke-linejoin:miter;stroke-opacity:1" d="M 327.514,492.572 327.514,509.078 z" id="boundary" inkscape:connector-curvature="0" />
	<path style="fill:none;stroke:red;stroke-width:1px;stroke-linecap:butt;stroke-linejoin:miter;stroke-opacity:1" d="M 319.261,542.09 319.261,525.584 z" id="boundary" inkscape:connector-curvature="0" />
	<path style="fill:none;stroke:red;stroke-width:1px;stroke-linecap:butt;stroke-linejoin:miter;stroke-opacity:1" d="M 499.175,545.391 499.175,561.897 z" id="boundary" inkscape:connector-curvature="0" />
	<path style="fill:none;stroke:red;stroke-width:1px;stroke-linecap:butt;stroke-linejoin:miter;stroke-opacity:1" d="M 499.175,561.897 512.379,573.451 z" id="boundary" inkscape:connector-curvature="0" />
	<path style="fill:none;stroke:red;stroke-width:1px;stroke-linecap:butt;stroke-linejoin:miter;stroke-opacity:1" d="M 276.346,487.621 284.599,466.163 z" id="boundary" inkscape:connector-curvature="0" />
	<path style="fill:none;stroke:red;stroke-width:1px;stroke-linecap:butt;stroke-linejoin:miter;stroke-opacity:1" d="M 490.922,426.549 507.428,426.549 z" id="boundary" inkscape:connector-curvature="0" />
	<path style="fill:none;stroke:red;stroke-width:1px;stroke-linecap:butt;stroke-linejoin:miter;stroke-opacity:1" d="M 523.933,421.597 507.428,426.549 z" id="boundary" inkscape:connector-curvature="0" />
	<path style="fill:none;stroke:red;stroke-width:1px;stroke-linecap:butt;stroke-linejoin:miter;stroke-opacity:1" d="M 565.198,177.311 548.692,177.311 z" id="boundary" inkscape:connector-curvature="0" />
	<path style="fill:none;stroke:red;stroke-width:1px;stroke-linecap:butt;stroke-linejoin:miter;stroke-opacity:1" d="M 613.065,169.058 596.559,169.058 z" id="boundary" inkscape:connector-curvature="0" />
	<path style="fill:none;stroke:red;stroke-width:1px;stroke-linecap:butt;stroke-linejoin:miter;stroke-opacity:1" d="M 581.704,177.311 596.559,169.058 z" id="boundary" inkscape:connector-curvature="0" />
	<path style="fill:none;stroke:red;stroke-width:1px;stroke-linecap:butt;stroke-linejoin:miter;stroke-opacity:1" d="M 532.186,182.263 548.692,177.311 z" id="boundary" inkscape:connector-curvature="0" />
	<path style="fill:none;stroke:red;stroke-width:1px;stroke-linecap:butt;stroke-linejoin:miter;stroke-opacity:1" d="M 581.704,177.311 565.198,177.311 z" id="boundary" inkscape:connector-curvature="0" />
	<path style="fill:none;stroke:red;stroke-width:1px;stroke-linecap:butt;stroke-linejoin:miter;stroke-opacity:1" d="M 613.065,169.058 629.571,169.058 z" id="boundary" inkscape:connector-curvature="0" />
	<path style="fill:none;stroke:red;stroke-width:1px;stroke-linecap:butt;stroke-linejoin:miter;stroke-opacity:1" d="M 629.571,169.058 646.077,169.058 z" id="boundary" inkscape:connector-curvature="0" />
	<path style="fill:none;stroke:red;stroke-width:1px;stroke-linecap:butt;stroke-linejoin:miter;stroke-opacity:1" d="M 662.582,169.058 646.077,169.058 z" id="boundary" inkscape:connector-curvature="0" />
	<path style="fill:none;stroke:red;stroke-width:1px;stroke-linecap:butt;stroke-linejoin:miter;stroke-opacity:1" d="M 695.594,177.311 710.449,185.564 z" id="boundary" inkscape:connector-curvature="0" />
	<path style="fill:none;stroke:red;stroke-width:1px;stroke-linecap:butt;stroke-linejoin:miter;stroke-opacity:1" d="M 883.76,169.058 870.556,182.263 z" id="boundary" inkscape:connector-curvature="0" />
	<path style="fill:none;stroke:red;stroke-width:1px;stroke-linecap:butt;stroke-linejoin:miter;stroke-opacity:1" d="M 725.304,193.817 710.449,185.564 z" id="boundary" inkscape:connector-curvature="0" />
	<path style="fill:none;stroke:red;stroke-width:1px;stroke-linecap:butt;stroke-linejoin:miter;stroke-opacity:1" d="M 695.594,177.311 679.088,170.709 z" id="boundary" inkscape:connector-curvature="0" />
	<path style="fill:none;stroke:red;stroke-width:1px;stroke-linecap:butt;stroke-linejoin:miter;stroke-opacity:1" d="M 662.582,169.058 679.088,170.709 z" id="boundary" inkscape:connector-curvature="0" />
	<path style="fill:none;stroke:red;stroke-width:1px;stroke-linecap:butt;stroke-linejoin:miter;stroke-opacity:1" d="M 725.304,193.817 740.16,202.07 z" id="boundary" inkscape:connector-curvature="0" />
	<path style="fill:none;stroke:red;stroke-width:1px;stroke-linecap:butt;stroke-linejoin:miter;stroke-opacity:1" d="M 755.015,210.323 740.16,202.07 z" id="boundary" inkscape:connector-curvature="0" />
	<path style="fill:none;stroke:red;stroke-width:1px;stroke-linecap:butt;stroke-linejoin:miter;stroke-opacity:1" d="M 771.521,213.624 755.015,210.323 z" id="boundary" inkscape:connector-curvature="0" />
	<path style="fill:none;stroke:red;stroke-width:1px;stroke-linecap:butt;stroke-linejoin:miter;stroke-opacity:1" d="M 771.521,213.624 781.424,226.829 z" id="boundary" inkscape:connector-curvature="0" />
	<path style="fill:none;stroke:red;stroke-width:1px;stroke-linecap:butt;stroke-linejoin:miter;stroke-opacity:1" d="M 797.93,226.829 781.424,226.829 z" id="boundary" inkscape:connector-curvature="0" />
	<path style="fill:none;stroke:red;stroke-width:1px;stroke-linecap:butt;stroke-linejoin:miter;stroke-opacity:1" d="M 797.93,226.829 814.436,221.877 z" id="boundary" inkscape:connector-curvature="0" />
	<path style="fill:none;stroke:red;stroke-width:1px;stroke-linecap:butt;stroke-linejoin:miter;stroke-opacity:1" d="M 827.641,210.323 814.436,221.877 z" id="boundary" inkscape:connector-curvature="0" />
	<path style="fill:none;stroke:red;stroke-width:1px;stroke-linecap:butt;stroke-linejoin:miter;stroke-opacity:1" d="M 827.641,210.323 842.496,202.07 z" id="boundary" inkscape:connector-curvature="0" />
	<path style="fill:none;stroke:red;stroke-width:1px;stroke-linecap:butt;stroke-linejoin:miter;stroke-opacity:1" d="M 875.507,243.334 859.002,251.587 z" id="boundary" inkscape:connector-curvature="0" />
	<path style="fill:none;stroke:red;stroke-width:1px;stroke-linecap:butt;stroke-linejoin:miter;stroke-opacity:1" d="M 814.436,277.997 830.942,269.744 z" id="boundary" inkscape:connector-curvature="0" />
	<path style="fill:none;stroke:red;stroke-width:1px;stroke-linecap:butt;stroke-linejoin:miter;stroke-opacity:1" d="M 802.882,291.201 814.436,277.997 z" id="boundary" inkscape:connector-curvature="0" />
	<path style="fill:none;stroke:red;stroke-width:1px;stroke-linecap:butt;stroke-linejoin:miter;stroke-opacity:1" d="M 845.797,261.491 859.002,251.587 z" id="boundary" inkscape:connector-curvature="0" />
	<path style="fill:none;stroke:red;stroke-width:1px;stroke-linecap:butt;stroke-linejoin:miter;stroke-opacity:1" d="M 845.797,261.491 830.942,269.744 z" id="boundary" inkscape:connector-curvature="0" />
	<path style="fill:none;stroke:red;stroke-width:1px;stroke-linecap:butt;stroke-linejoin:miter;stroke-opacity:1" d="M 842.496,202.07 857.351,193.817 z" id="boundary" inkscape:connector-curvature="0" />
	<path style="fill:none;stroke:red;stroke-width:1px;stroke-linecap:butt;stroke-linejoin:miter;stroke-opacity:1" d="M 870.556,182.263 857.351,193.817 z" id="boundary" inkscape:connector-curvature="0" />
	<path style="fill:none;stroke:red;stroke-width:1px;stroke-linecap:butt;stroke-linejoin:miter;stroke-opacity:1" d="M 969.591,48.5657 961.338,33.7105 z" id="boundary" inkscape:connector-curvature="0" />
	<path style="fill:none;stroke:red;stroke-width:1px;stroke-linecap:butt;stroke-linejoin:miter;stroke-opacity:1" d="M 961.338,33.7105 969.591,17.2047 z" id="boundary" inkscape:connector-curvature="0" />
	<path style="fill:none;stroke:red;stroke-width:1px;stroke-linecap:butt;stroke-linejoin:miter;stroke-opacity:1" d="M 969.591,48.5657 961.338,66.7221 z" id="boundary" inkscape:connector-curvature="0" />
	<path style="fill:none;stroke:red;stroke-width:1px;stroke-linecap:butt;stroke-linejoin:miter;stroke-opacity:1" d="M 943.181,103.035 953.085,83.228 z" id="boundary" inkscape:connector-curvature="0" />
	<path style="fill:none;stroke:red;stroke-width:1px;stroke-linecap:butt;stroke-linejoin:miter;stroke-opacity:1" d="M 961.338,66.7221 953.085,83.228 z" id="boundary" inkscape:connector-curvature="0" />
	<path style="fill:none;stroke:red;stroke-width:1px;stroke-linecap:butt;stroke-linejoin:miter;stroke-opacity:1" d="M 943.181,103.035 929.977,114.589 z" id="boundary" inkscape:connector-curvature="0" />
	<path style="fill:none;stroke:red;stroke-width:1px;stroke-linecap:butt;stroke-linejoin:miter;stroke-opacity:1" d="M 996,13.9035 996,30.4093 z" id="boundary" inkscape:connector-curvature="0" />
	<path style="fill:none;stroke:red;stroke-width:1px;stroke-linecap:butt;stroke-linejoin:miter;stroke-opacity:1" d="M 996,30.4093 996,46.9151 z" id="boundary" inkscape:connector-curvature="0" />
	<path style="fill:none;stroke:red;stroke-width:1px;stroke-linecap:butt;stroke-linejoin:miter;stroke-opacity:1" d="M 992.699,93.1314 984.446,109.637 z" id="boundary" inkscape:connector-curvature="0" />
	<path style="fill:none;stroke:red;stroke-width:1px;stroke-linecap:butt;stroke-linejoin:miter;stroke-opacity:1" d="M 996,63.421 992.699,93.1314 z" id="boundary" inkscape:connector-curvature="0" />
	<path style="fill:none;stroke:red;stroke-width:1px;stroke-linecap:butt;stroke-linejoin:miter;stroke-opacity:1" d="M 996,46.9151 996,63.421 z" id="boundary" inkscape:connector-curvature="0" />
	<path style="fill:none;stroke:red;stroke-width:1px;stroke-linecap:butt;stroke-linejoin:miter;stroke-opacity:1" d="M 969.591,17.2047 982.795,4 z" id="boundary" inkscape:connector-curvature="0" />
	<path style="fill:none;stroke:red;stroke-width:1px;stroke-linecap:butt;stroke-linejoin:miter;stroke-opacity:1" d="M 982.795,4 996,13.9035 z" id="boundary" inkscape:connector-curvature="0" />
	<path style="fill:none;stroke:red;stroke-width:1px;stroke-linecap:butt;stroke-linejoin:miter;stroke-opacity:1" d="M 984.446,109.637 971.241,121.191 z" id="boundary" inkscape:connector-curvature="0" />
	<path style="fill:none;stroke:red;stroke-width:1px;stroke-linecap:butt;stroke-linejoin:miter;stroke-opacity:1" d="M 926.676,192.166 913.471,203.72 z" id="boundary" inkscape:connector-curvature="0" />
	<path style="fill:none;stroke:red;stroke-width:1px;stroke-linecap:butt;stroke-linejoin:miter;stroke-opacity:1" d="M 896.965,155.854 883.76,169.058 z" id="boundary" inkscape:connector-curvature="0" />
	<path style="fill:none;stroke:red;stroke-width:1px;stroke-linecap:butt;stroke-linejoin:miter;stroke-opacity:1" d="M 910.17,144.3 896.965,155.854 z" id="boundary" inkscape:connector-curvature="0" />
	<path style="fill:none;stroke:red;stroke-width:1px;stroke-linecap:butt;stroke-linejoin:miter;stroke-opacity:1" d="M 875.507,243.334 888.712,228.479 z" id="boundary" inkscape:connector-curvature="0" />
	<path style="fill:none;stroke:red;stroke-width:1px;stroke-linecap:butt;stroke-linejoin:miter;stroke-opacity:1" d="M 888.712,228.479 901.917,216.925 z" id="boundary" inkscape:connector-curvature="0" />
	<path style="fill:none;stroke:red;stroke-width:1px;stroke-linecap:butt;stroke-linejoin:miter;stroke-opacity:1" d="M 901.917,216.925 913.471,203.72 z" id="boundary" inkscape:connector-curvature="0" />
	<path style="fill:none;stroke:red;stroke-width:1px;stroke-linecap:butt;stroke-linejoin:miter;stroke-opacity:1" d="M 921.724,131.095 929.977,114.589 z" id="boundary" inkscape:connector-curvature="0" />
	<path style="fill:none;stroke:red;stroke-width:1px;stroke-linecap:butt;stroke-linejoin:miter;stroke-opacity:1" d="M 921.724,131.095 910.17,144.3 z" id="boundary" inkscape:connector-curvature="0" />
	<path style="fill:none;stroke:red;stroke-width:1px;stroke-linecap:butt;stroke-linejoin:miter;stroke-opacity:1" d="M 971.241,121.191 962.988,137.697 z" id="boundary" inkscape:connector-curvature="0" />
	<path style="fill:none;stroke:red;stroke-width:1px;stroke-linecap:butt;stroke-linejoin:miter;stroke-opacity:1" d="M 926.676,192.166 938.23,170.709 z" id="boundary" inkscape:connector-curvature="0" />
	<path style="fill:none;stroke:red;stroke-width:1px;stroke-linecap:butt;stroke-linejoin:miter;stroke-opacity:1" d="M 938.23,170.709 951.434,159.155 z" id="boundary" inkscape:connector-curvature="0" />
	<path style="fill:none;stroke:red;stroke-width:1px;stroke-linecap:butt;stroke-linejoin:miter;stroke-opacity:1" d="M 951.434,159.155 962.988,137.697 z" id="boundary" inkscape:connector-curvature="0" />
	<path style="fill:none;stroke:red;stroke-width:1px;stroke-linecap:butt;stroke-linejoin:miter;stroke-opacity:1" d="M 573.451,471.115 565.198,487.621 z" id="boundary" inkscape:connector-curvature="0" />
	<path style="fill:none;stroke:red;stroke-width:1px;stroke-linecap:butt;stroke-linejoin:miter;stroke-opacity:1" d="M 540.439,418.296 523.933,421.597 z" id="boundary" inkscape:connector-curvature="0" />
	<path style="fill:none;stroke:red;stroke-width:1px;stroke-linecap:butt;stroke-linejoin:miter;stroke-opacity:1" d="M 556.945,418.296 540.439,418.296 z" id="boundary" inkscape:connector-curvature="0" />
	<path style="fill:none;stroke:red;stroke-width:1px;stroke-linecap:butt;stroke-linejoin:miter;stroke-opacity:1" d="M 547.042,523.933 553.644,507.428 z" id="boundary" inkscape:connector-curvature="0" />
	<path style="fill:none;stroke:red;stroke-width:1px;stroke-linecap:butt;stroke-linejoin:miter;stroke-opacity:1" d="M 565.198,487.621 553.644,507.428 z" id="boundary" inkscape:connector-curvature="0" />
	<path style="fill:none;stroke:red;stroke-width:1px;stroke-linecap:butt;stroke-linejoin:miter;stroke-opacity:1" d="M 547.042,523.933 532.186,532.186 z" id="boundary" inkscape:connector-curvature="0" />
	<path style="fill:none;stroke:red;stroke-width:1px;stroke-linecap:butt;stroke-linejoin:miter;stroke-opacity:1" d="M 573.451,443.055 571.8,426.549 z" id="boundary" inkscape:connector-curvature="0" />
	<path style="fill:none;stroke:red;stroke-width:1px;stroke-linecap:butt;stroke-linejoin:miter;stroke-opacity:1" d="M 647.727,467.814 632.872,476.067 z" id="boundary" inkscape:connector-curvature="0" />
	<path style="fill:none;stroke:red;stroke-width:1px;stroke-linecap:butt;stroke-linejoin:miter;stroke-opacity:1" d="M 573.451,443.055 573.451,471.115 z" id="boundary" inkscape:connector-curvature="0" />
	<path style="fill:none;stroke:red;stroke-width:1px;stroke-linecap:butt;stroke-linejoin:miter;stroke-opacity:1" d="M 621.318,497.524 608.113,509.078 z" id="boundary" inkscape:connector-curvature="0" />
	<path style="fill:none;stroke:red;stroke-width:1px;stroke-linecap:butt;stroke-linejoin:miter;stroke-opacity:1" d="M 621.318,497.524 632.872,476.067 z" id="boundary" inkscape:connector-curvature="0" />
	<path style="fill:none;stroke:red;stroke-width:1px;stroke-linecap:butt;stroke-linejoin:miter;stroke-opacity:1" d="M 596.559,530.536 608.113,509.078 z" id="boundary" inkscape:connector-curvature="0" />
	<path style="fill:none;stroke:red;stroke-width:1px;stroke-linecap:butt;stroke-linejoin:miter;stroke-opacity:1" d="M 556.945,418.296 571.8,426.549 z" id="boundary" inkscape:connector-curvature="0" />
	<path style="fill:none;stroke:red;stroke-width:1px;stroke-linecap:butt;stroke-linejoin:miter;stroke-opacity:1" d="M 515.681,537.138 532.186,532.186 z" id="boundary" inkscape:connector-curvature="0" />
	<path style="fill:none;stroke:red;stroke-width:1px;stroke-linecap:butt;stroke-linejoin:miter;stroke-opacity:1" d="M 583.354,542.09 575.101,558.596 z" id="boundary" inkscape:connector-curvature="0" />
	<path style="fill:none;stroke:red;stroke-width:1px;stroke-linecap:butt;stroke-linejoin:miter;stroke-opacity:1" d="M 575.101,558.596 560.246,566.849 z" id="boundary" inkscape:connector-curvature="0" />
	<path style="fill:none;stroke:red;stroke-width:1px;stroke-linecap:butt;stroke-linejoin:miter;stroke-opacity:1" d="M 528.885,575.101 545.391,575.101 z" id="boundary" inkscape:connector-curvature="0" />
	<path style="fill:none;stroke:red;stroke-width:1px;stroke-linecap:butt;stroke-linejoin:miter;stroke-opacity:1" d="M 560.246,566.849 545.391,575.101 z" id="boundary" inkscape:connector-curvature="0" />
	<path style="fill:none;stroke:red;stroke-width:1px;stroke-linecap:butt;stroke-linejoin:miter;stroke-opacity:1" d="M 528.885,575.101 512.379,573.451 z" id="boundary" inkscape:connector-curvature="0" />
	<path style="fill:none;stroke:red;stroke-width:1px;stroke-linecap:butt;stroke-linejoin:miter;stroke-opacity:1" d="M 634.522,589.957 619.667,598.21 z" id="boundary" inkscape:connector-curvature="0" />
	<path style="fill:none;stroke:red;stroke-width:1px;stroke-linecap:butt;stroke-linejoin:miter;stroke-opacity:1" d="M 619.667,598.21 606.463,611.414 z" id="boundary" inkscape:connector-curvature="0" />
	<path style="fill:none;stroke:red;stroke-width:1px;stroke-linecap:butt;stroke-linejoin:miter;stroke-opacity:1" d="M 606.463,611.414 614.715,626.27 z" id="boundary" inkscape:connector-curvature="0" />
	<path style="fill:none;stroke:red;stroke-width:1px;stroke-linecap:butt;stroke-linejoin:miter;stroke-opacity:1" d="M 631.221,632.872 614.715,626.27 z" id="boundary" inkscape:connector-curvature="0" />
	<path style="fill:none;stroke:red;stroke-width:1px;stroke-linecap:butt;stroke-linejoin:miter;stroke-opacity:1" d="M 647.727,632.872 631.221,632.872 z" id="boundary" inkscape:connector-curvature="0" />
	<path style="fill:none;stroke:red;stroke-width:1px;stroke-linecap:butt;stroke-linejoin:miter;stroke-opacity:1" d="M 634.522,589.957 651.028,589.957 z" id="boundary" inkscape:connector-curvature="0" />
	<path style="fill:none;stroke:red;stroke-width:1px;stroke-linecap:butt;stroke-linejoin:miter;stroke-opacity:1" d="M 583.354,542.09 596.559,530.536 z" id="boundary" inkscape:connector-curvature="0" />
	<path style="fill:none;stroke:red;stroke-width:1px;stroke-linecap:butt;stroke-linejoin:miter;stroke-opacity:1" d="M 748.413,401.79 748.413,418.296 z" id="boundary" inkscape:connector-curvature="0" />
	<path style="fill:none;stroke:red;stroke-width:1px;stroke-linecap:butt;stroke-linejoin:miter;stroke-opacity:1" d="M 748.413,401.79 756.666,385.285 z" id="boundary" inkscape:connector-curvature="0" />
	<path style="fill:none;stroke:red;stroke-width:1px;stroke-linecap:butt;stroke-linejoin:miter;stroke-opacity:1" d="M 748.413,434.802 748.413,418.296 z" id="boundary" inkscape:connector-curvature="0" />
	<path style="fill:none;stroke:red;stroke-width:1px;stroke-linecap:butt;stroke-linejoin:miter;stroke-opacity:1" d="M 674.136,481.018 664.233,467.814 z" id="boundary" inkscape:connector-curvature="0" />
	<path style="fill:none;stroke:red;stroke-width:1px;stroke-linecap:butt;stroke-linejoin:miter;stroke-opacity:1" d="M 748.413,451.308 748.413,467.814 z" id="boundary" inkscape:connector-curvature="0" />
	<path style="fill:none;stroke:red;stroke-width:1px;stroke-linecap:butt;stroke-linejoin:miter;stroke-opacity:1" d="M 687.341,492.572 674.136,481.018 z" id="boundary" inkscape:connector-curvature="0" />
	<path style="fill:none;stroke:red;stroke-width:1px;stroke-linecap:butt;stroke-linejoin:miter;stroke-opacity:1" d="M 748.413,434.802 748.413,451.308 z" id="boundary" inkscape:connector-curvature="0" />
	<path style="fill:none;stroke:red;stroke-width:1px;stroke-linecap:butt;stroke-linejoin:miter;stroke-opacity:1" d="M 687.341,492.572 680.739,512.379 z" id="boundary" inkscape:connector-curvature="0" />
	<path style="fill:none;stroke:red;stroke-width:1px;stroke-linecap:butt;stroke-linejoin:miter;stroke-opacity:1" d="M 664.233,467.814 647.727,467.814 z" id="boundary" inkscape:connector-curvature="0" />
	<path style="fill:none;stroke:red;stroke-width:1px;stroke-linecap:butt;stroke-linejoin:miter;stroke-opacity:1" d="M 781.424,319.261 789.677,302.755 z" id="boundary" inkscape:connector-curvature="0" />
	<path style="fill:none;stroke:red;stroke-width:1px;stroke-linecap:butt;stroke-linejoin:miter;stroke-opacity:1" d="M 789.677,302.755 802.882,291.201 z" id="boundary" inkscape:connector-curvature="0" />
	<path style="fill:none;stroke:red;stroke-width:1px;stroke-linecap:butt;stroke-linejoin:miter;stroke-opacity:1" d="M 773.171,335.767 764.918,360.526 z" id="boundary" inkscape:connector-curvature="0" />
	<path style="fill:none;stroke:red;stroke-width:1px;stroke-linecap:butt;stroke-linejoin:miter;stroke-opacity:1" d="M 756.666,385.285 764.918,360.526 z" id="boundary" inkscape:connector-curvature="0" />
	<path style="fill:none;stroke:red;stroke-width:1px;stroke-linecap:butt;stroke-linejoin:miter;stroke-opacity:1" d="M 773.171,335.767 781.424,319.261 z" id="boundary" inkscape:connector-curvature="0" />
	<path style="fill:none;stroke:red;stroke-width:1px;stroke-linecap:butt;stroke-linejoin:miter;stroke-opacity:1" d="M 748.413,467.814 748.413,492.572 z" id="boundary" inkscape:connector-curvature="0" />
	<path style="fill:none;stroke:red;stroke-width:1px;stroke-linecap:butt;stroke-linejoin:miter;stroke-opacity:1" d="M 672.486,537.138 664.233,553.644 z" id="boundary" inkscape:connector-curvature="0" />
	<path style="fill:none;stroke:red;stroke-width:1px;stroke-linecap:butt;stroke-linejoin:miter;stroke-opacity:1" d="M 680.739,512.379 672.486,537.138 z" id="boundary" inkscape:connector-curvature="0" />
	<path style="fill:none;stroke:red;stroke-width:1px;stroke-linecap:butt;stroke-linejoin:miter;stroke-opacity:1" d="M 659.281,575.101 664.233,553.644 z" id="boundary" inkscape:connector-curvature="0" />
	<path style="fill:none;stroke:red;stroke-width:1px;stroke-linecap:butt;stroke-linejoin:miter;stroke-opacity:1" d="M 690.642,599.86 677.438,614.715 z" id="boundary" inkscape:connector-curvature="0" />
	<path style="fill:none;stroke:red;stroke-width:1px;stroke-linecap:butt;stroke-linejoin:miter;stroke-opacity:1" d="M 659.281,575.101 651.028,589.957 z" id="boundary" inkscape:connector-curvature="0" />
	<path style="fill:none;stroke:red;stroke-width:1px;stroke-linecap:butt;stroke-linejoin:miter;stroke-opacity:1" d="M 677.438,614.715 664.233,627.92 z" id="boundary" inkscape:connector-curvature="0" />
	<path style="fill:none;stroke:red;stroke-width:1px;stroke-linecap:butt;stroke-linejoin:miter;stroke-opacity:1" d="M 664.233,627.92 647.727,632.872 z" id="boundary" inkscape:connector-curvature="0" />
	<path style="fill:none;stroke:red;stroke-width:1px;stroke-linecap:butt;stroke-linejoin:miter;stroke-opacity:1" d="M 740.16,517.331 728.606,538.789 z" id="boundary" inkscape:connector-curvature="0" />
	<path style="fill:none;stroke:red;stroke-width:1px;stroke-linecap:butt;stroke-linejoin:miter;stroke-opacity:1" d="M 728.606,538.789 720.353,555.295 z" id="boundary" inkscape:connector-curvature="0" />
	<path style="fill:none;stroke:red;stroke-width:1px;stroke-linecap:butt;stroke-linejoin:miter;stroke-opacity:1" d="M 740.16,517.331 748.413,492.572 z" id="boundary" inkscape:connector-curvature="0" />
	<path style="fill:none;stroke:red;stroke-width:1px;stroke-linecap:butt;stroke-linejoin:miter;stroke-opacity:1" d="M 690.642,599.86 698.895,583.354 z" id="boundary" inkscape:connector-curvature="0" />
	<path style="fill:none;stroke:red;stroke-width:1px;stroke-linecap:butt;stroke-linejoin:miter;stroke-opacity:1" d="M 698.895,583.354 712.1,571.8 z" id="boundary" inkscape:connector-curvature="0" />
	<path style="fill:none;stroke:red;stroke-width:1px;stroke-linecap:butt;stroke-linejoin:miter;stroke-opacity:1" d="M 712.1,571.8 720.353,555.295 z" id="boundary" inkscape:connector-curvature="0" />
	<circle cx="4" cy="207.022" r="4" fill="#0" id="circle0"/>
	<circle cx="4" cy="223.527" r="4" fill="#0" id="circle1"/>
	<circle cx="4" cy="240.033" r="4" fill="#0" id="circle2"/>
	<circle cx="17.2047" cy="193.817" r="4" fill="#0" id="circle3"/>
	<circle cx="17.2047" cy="251.587" r="4" fill="#0" id="circle4"/>
	<circle cx="28.7587" cy="174.01" r="4" fill="#0" id="circle5"/>
	<circle cx="30.4093" cy="261.491" r="4" fill="#0" id="circle6"/>
	<circle cx="37.0116" cy="157.504" r="4" fill="#0" id="circle7"/>
	<circle cx="46.9151" cy="264.792" r="4" fill="#0" id="circle8"/>
	<circle cx="50.2163" cy="144.3" r="4" fill="#0" id="circle9"/>
	<circle cx="61.7704" cy="99.7338" r="4" fill="#0" id="circle10"/>
	<circle cx="63.421" cy="269.744" r="4" fill="#0" id="circle11"/>
	<circle cx="66.7221" cy="136.047" r="4" fill="#0" id="circle12"/>
	<circle cx="70.0233" cy="114.589" r="4" fill="#0" id="circle13"/>
	<circle cx="78.2762" cy="94.782" r="4" fill="#0" id="circle14"/>
	<circle cx="78.2762" cy="277.997" r="4" fill="#0" id="circle15"/>
	<circle cx="91.4809" cy="104.686" r="4" fill="#0" id="circle16"/>
	<circle cx="94.782" cy="277.997" r="4" fill="#0" id="circle17"/>
	<circle cx="104.686" cy="291.201" r="4" fill="#0" id="circle18"/>
	<circle cx="107.987" cy="111.288" r="4" fill="#0" id="circle19"/>
	<circle cx="117.89" cy="302.755" r="4" fill="#0" id="circle20"/>
	<circle cx="119.541" cy="124.493" r="4" fill="#0" id="circle21"/>
	<circle cx="129.444" cy="315.96" r="4" fill="#0" id="circle22"/>
	<circle cx="136.047" cy="131.095" r="4" fill="#0" id="circle23"/>
	<circle cx="142.649" cy="327.514" r="4" fill="#0" id="circle24"/>
	<circle cx="145.95" cy="144.3" r="4" fill="#0" id="circle25"/>
	<circle cx="154.203" cy="340.719" r="4" fill="#0" id="circle26"/>
	<circle cx="160.805" cy="545.391" r="4" fill="#0" id="circle27"/>
	<circle cx="162.456" cy="149.251" r="4" fill="#0" id="circle28"/>
	<circle cx="167.408" cy="352.273" r="4" fill="#0" id="circle29"/>
	<circle cx="169.058" cy="528.885" r="4" fill="#0" id="circle30"/>
	<circle cx="169.058" cy="560.246" r="4" fill="#0" id="circle31"/>
	<circle cx="174.01" cy="162.456" r="4" fill="#0" id="circle32"/>
	<circle cx="178.962" cy="365.478" r="4" fill="#0" id="circle33"/>
	<circle cx="185.564" cy="520.632" r="4" fill="#0" id="circle34"/>
	<circle cx="185.564" cy="566.849" r="4" fill="#0" id="circle35"/>
	<circle cx="190.516" cy="169.058" r="4" fill="#0" id="circle36"/>
	<circle cx="192.166" cy="377.032" r="4" fill="#0" id="circle37"/>
	<circle cx="193.817" cy="495.874" r="4" fill="#0" id="circle38"/>
	<circle cx="202.07" cy="471.115" r="4" fill="#0" id="circle39"/>
	<circle cx="202.07" cy="566.849" r="4" fill="#0" id="circle40"/>
	<circle cx="205.371" cy="177.311" r="4" fill="#0" id="circle41"/>
	<circle cx="207.022" cy="385.285" r="4" fill="#0" id="circle42"/>
	<circle cx="210.323" cy="401.79" r="4" fill="#0" id="circle43"/>
	<circle cx="210.323" cy="446.356" r="4" fill="#0" id="circle44"/>
	<circle cx="216.925" cy="558.596" r="4" fill="#0" id="circle45"/>
	<circle cx="218.576" cy="416.646" r="4" fill="#0" id="circle46"/>
	<circle cx="218.576" cy="611.414" r="4" fill="#0" id="circle47"/>
	<circle cx="220.226" cy="185.564" r="4" fill="#0" id="circle48"/>
	<circle cx="226.829" cy="594.908" r="4" fill="#0" id="circle49"/>
	<circle cx="228.479" cy="542.09" r="4" fill="#0" id="circle50"/>
	<circle cx="231.78" cy="622.968" r="4" fill="#0" id="circle51"/>
	<circle cx="236.732" cy="185.564" r="4" fill="#0" id="circle52"/>
	<circle cx="236.732" cy="525.584" r="4" fill="#0" id="circle53"/>
	<circle cx="243.334" cy="586.656" r="4" fill="#0" id="circle54"/>
	<circle cx="244.985" cy="509.078" r="4" fill="#0" id="circle55"/>
	<circle cx="248.286" cy="624.619" r="4" fill="#0" id="circle56"/>
	<circle cx="253.238" cy="185.564" r="4" fill="#0" id="circle57"/>
	<circle cx="253.238" cy="484.319" r="4" fill="#0" id="circle58"/>
	<circle cx="259.84" cy="570.15" r="4" fill="#0" id="circle59"/>
	<circle cx="261.491" cy="459.561" r="4" fill="#0" id="circle60"/>
	<circle cx="264.792" cy="624.619" r="4" fill="#0" id="circle61"/>
	<circle cx="268.093" cy="528.885" r="4" fill="#0" id="circle62"/>
	<circle cx="268.093" cy="545.391" r="4" fill="#0" id="circle63"/>
	<circle cx="269.744" cy="185.564" r="4" fill="#0" id="circle64"/>
	<circle cx="276.346" cy="451.308" r="4" fill="#0" id="circle65"/>
	<circle cx="276.346" cy="487.621" r="4" fill="#0" id="circle66"/>
	<circle cx="276.346" cy="504.126" r="4" fill="#0" id="circle67"/>
	<circle cx="281.298" cy="622.968" r="4" fill="#0" id="circle68"/>
	<circle cx="284.599" cy="466.163" r="4" fill="#0" id="circle69"/>
	<circle cx="286.25" cy="190.516" r="4" fill="#0" id="circle70"/>
	<circle cx="289.551" cy="606.463" r="4" fill="#0" id="circle71"/>
	<circle cx="302.755" cy="193.817" r="4" fill="#0" id="circle72"/>
	<circle cx="302.755" cy="575.101" r="4" fill="#0" id="circle73"/>
	<circle cx="302.755" cy="591.607" r="4" fill="#0" id="circle74"/>
	<circle cx="311.008" cy="558.596" r="4" fill="#0" id="circle75"/>
	<circle cx="319.261" cy="193.817" r="4" fill="#0" id="circle76"/>
	<circle cx="319.261" cy="525.584" r="4" fill="#0" id="circle77"/>
	<circle cx="319.261" cy="542.09" r="4" fill="#0" id="circle78"/>
	<circle cx="327.514" cy="492.572" r="4" fill="#0" id="circle79"/>
	<circle cx="327.514" cy="509.078" r="4" fill="#0" id="circle80"/>
	<circle cx="335.767" cy="193.817" r="4" fill="#0" id="circle81"/>
	<circle cx="335.767" cy="459.561" r="4" fill="#0" id="circle82"/>
	<circle cx="335.767" cy="476.067" r="4" fill="#0" id="circle83"/>
	<circle cx="344.02" cy="443.055" r="4" fill="#0" id="circle84"/>
	<circle cx="350.622" cy="185.564" r="4" fill="#0" id="circle85"/>
	<circle cx="358.875" cy="434.802" r="4" fill="#0" id="circle86"/>
	<circle cx="367.128" cy="185.564" r="4" fill="#0" id="circle87"/>
	<circle cx="375.381" cy="434.802" r="4" fill="#0" id="circle88"/>
	<circle cx="383.634" cy="185.564" r="4" fill="#0" id="circle89"/>
	<circle cx="391.887" cy="434.802" r="4" fill="#0" id="circle90"/>
	<circle cx="400.14" cy="185.564" r="4" fill="#0" id="circle91"/>
	<circle cx="408.393" cy="429.85" r="4" fill="#0" id="circle92"/>
	<circle cx="416.646" cy="185.564" r="4" fill="#0" id="circle93"/>
	<circle cx="424.899" cy="429.85" r="4" fill="#0" id="circle94"/>
	<circle cx="433.151" cy="185.564" r="4" fill="#0" id="circle95"/>
	<circle cx="441.404" cy="426.549" r="4" fill="#0" id="circle96"/>
	<circle cx="449.657" cy="185.564" r="4" fill="#0" id="circle97"/>
	<circle cx="457.91" cy="426.549" r="4" fill="#0" id="circle98"/>
	<circle cx="466.163" cy="185.564" r="4" fill="#0" id="circle99"/>
	<circle cx="474.416" cy="426.549" r="4" fill="#0" id="circle100"/>
	<circle cx="482.669" cy="185.564" r="4" fill="#0" id="circle101"/>
	<circle cx="490.922" cy="426.549" r="4" fill="#0" id="circle102"/>
	<circle cx="499.175" cy="185.564" r="4" fill="#0" id="circle103"/>
	<circle cx="499.175" cy="545.391" r="4" fill="#0" id="circle104"/>
	<circle cx="499.175" cy="561.897" r="4" fill="#0" id="circle105"/>
	<circle cx="507.428" cy="426.549" r="4" fill="#0" id="circle106"/>
	<circle cx="512.379" cy="573.451" r="4" fill="#0" id="circle107"/>
	<circle cx="515.681" cy="185.564" r="4" fill="#0" id="circle108"/>
	<circle cx="515.681" cy="537.138" r="4" fill="#0" id="circle109"/>
	<circle cx="523.933" cy="421.597" r="4" fill="#0" id="circle110"/>
	<circle cx="528.885" cy="575.101" r="4" fill="#0" id="circle111"/>
	<circle cx="532.186" cy="182.263" r="4" fill="#0" id="circle112"/>
	<circle cx="532.186" cy="532.186" r="4" fill="#0" id="circle113"/>
	<circle cx="540.439" cy="418.296" r="4" fill="#0" id="circle114"/>
	<circle cx="545.391" cy="575.101" r="4" fill="#0" id="circle115"/>
	<circle cx="547.042" cy="523.933" r="4" fill="#0" id="circle116"/>
	<circle cx="548.692" cy="177.311" r="4" fill="#0" id="circle117"/>
	<circle cx="553.644" cy="507.428" r="4" fill="#0" id="circle118"/>
	<circle cx="556.945" cy="418.296" r="4" fill="#0" id="circle119"/>
	<circle cx="560.246" cy="566.849" r="4" fill="#0" id="circle120"/>
	<circle cx="565.198" cy="177.311" r="4" fill="#0" id="circle121"/>
	<circle cx="565.198" cy="487.621" r="4" fill="#0" id="circle122"/>
	<circle cx="571.8" cy="426.549" r="4" fill="#0" id="circle123"/>
	<circle cx="573.451" cy="443.055" r="4" fill="#0" id="circle124"/>
	<circle cx="573.451" cy="471.115" r="4" fill="#0" id="circle125"/>
	<circle cx="575.101" cy="558.596" r="4" fill="#0" id="circle126"/>
	<circle cx="581.704" cy="177.311" r="4" fill="#0" id="circle127"/>
	<circle cx="583.354" cy="542.09" r="4" fill="#0" id="circle128"/>
	<circle cx="596.559" cy="169.058" r="4" fill="#0" id="circle129"/>
	<circle cx="596.559" cy="530.536" r="4" fill="#0" id="circle130"/>
	<circle cx="606.463" cy="611.414" r="4" fill="#0" id="circle131"/>
	<circle cx="608.113" cy="509.078" r="4" fill="#0" id="circle132"/>
	<circle cx="613.065" cy="169.058" r="4" fill="#0" id="circle133"/>
	<circle cx="614.715" cy="626.27" r="4" fill="#0" id="circle134"/>
	<circle cx="619.667" cy="598.21" r="4" fill="#0" id="circle135"/>
	<circle cx="621.318" cy="497.524" r="4" fill="#0" id="circle136"/>
	<circle cx="629.571" cy="169.058" r="4" fill="#0" id="circle137"/>
	<circle cx="631.221" cy="632.872" r="4" fill="#0" id="circle138"/>
	<circle cx="632.872" cy="476.067" r="4" fill="#0" id="circle139"/>
	<circle cx="634.522" cy="589.957" r="4" fill="#0" id="circle140"/>
	<circle cx="646.077" cy="169.058" r="4" fill="#0" id="circle141"/>
	<circle cx="647.727" cy="467.814" r="4" fill="#0" id="circle142"/>
	<circle cx="647.727" cy="632.872" r="4" fill="#0" id="circle143"/>
	<circle cx="651.028" cy="589.957" r="4" fill="#0" id="circle144"/>
	<circle cx="659.281" cy="575.101" r="4" fill="#0" id="circle145"/>
	<circle cx="662.582" cy="169.058" r="4" fill="#0" id="circle146"/>
	<circle cx="664.233" cy="467.814" r="4" fill="#0" id="circle147"/>
	<circle cx="664.233" cy="553.644" r="4" fill="#0" id="circle148"/>
	<circle cx="664.233" cy="627.92" r="4" fill="#0" id="circle149"/>
	<circle cx="672.486" cy="537.138" r="4" fill="#0" id="circle150"/>
	<circle cx="674.136" cy="481.018" r="4" fill="#0" id="circle151"/>
	<circle cx="677.438" cy="614.715" r="4" fill="#0" id="circle152"/>
	<circle cx="679.088" cy="170.709" r="4" fill="#0" id="circle153"/>
	<circle cx="680.739" cy="512.379" r="4" fill="#0" id="circle154"/>
	<circle cx="687.341" cy="492.572" r="4" fill="#0" id="circle155"/>
	<circle cx="690.642" cy="599.86" r="4" fill="#0" id="circle156"/>
	<circle cx="695.594" cy="177.311" r="4" fill="#0" id="circle157"/>
	<circle cx="698.895" cy="583.354" r="4" fill="#0" id="circle158"/>
	<circle cx="710.449" cy="185.564" r="4" fill="#0" id="circle159"/>
	<circle cx="712.1" cy="571.8" r="4" fill="#0" id="circle160"/>
	<circle cx="720.353" cy="555.295" r="4" fill="#0" id="circle161"/>
	<circle cx="725.304" cy="193.817" r="4" fill="#0" id="circle162"/>
	<circle cx="728.606" cy="538.789" r="4" fill="#0" id="circle163"/>
	<circle cx="740.16" cy="202.07" r="4" fill="#0" id="circle164"/>
	<circle cx="740.16" cy="517.331" r="4" fill="#0" id="circle165"/>
	<circle cx="748.413" cy="401.79" r="4" fill="#0" id="circle166"/>
	<circle cx="748.413" cy="418.296" r="4" fill="#0" id="circle167"/>
	<circle cx="748.413" cy="434.802" r="4" fill="#0" id="circle168"/>
	<circle cx="748.413" cy="451.308" r="4" fill="#0" id="circle169"/>
	<circle cx="748.413" cy="467.814" r="4" fill="#0" id="circle170"/>
	<circle cx="748.413" cy="492.572" r="4" fill="#0" id="circle171"/>
	<circle cx="755.015" cy="210.323" r="4" fill="#0" id="circle172"/>
	<circle cx="756.666" cy="385.285" r="4" fill="#0" id="circle173"/>
	<circle cx="764.918" cy="360.526" r="4" fill="#0" id="circle174"/>
	<circle cx="771.521" cy="213.624" r="4" fill="#0" id="circle175"/>
	<circle cx="773.171" cy="335.767" r="4" fill="#0" id="circle176"/>
	<circle cx="781.424" cy="226.829" r="4" fill="#0" id="circle177"/>
	<circle cx="781.424" cy="319.261" r="4" fill="#0" id="circle178"/>
	<circle cx="789.677" cy="302.755" r="4" fill="#0" id="circle179"/>
	<circle cx="797.93" cy="226.829" r="4" fill="#0" id="circle180"/>
	<circle cx="802.882" cy="291.201" r="4" fill="#0" id="circle181"/>
	<circle cx="814.436" cy="221.877" r="4" fill="#0" id="circle182"/>
	<circle cx="814.436" cy="277.997" r="4" fill="#0" id="circle183"/>
	<circle cx="827.641" cy="210.323" r="4" fill="#0" id="circle184"/>
	<circle cx="830.942" cy="269.744" r="4" fill="#0" id="circle185"/>
	<circle cx="842.496" cy="202.07" r="4" fill="#0" id="circle186"/>
	<circle cx="845.797" cy="261.491" r="4" fill="#0" id="circle187"/>
	<circle cx="857.351" cy="193.817" r="4" fill="#0" id="circle188"/>
	<circle cx="859.002" cy="251.587" r="4" fill="#0" id="circle189"/>
	<circle cx="870.556" cy="182.263" r="4" fill="#0" id="circle190"/>
	<circle cx="875.507" cy="243.334" r="4" fill="#0" id="circle191"/>
	<circle cx="883.76" cy="169.058" r="4" fill="#0" id="circle192"/>
	<circle cx="888.712" cy="228.479" r="4" fill="#0" id="circle193"/>
	<circle cx="896.965" cy="155.854" r="4" fill="#0" id="circle194"/>
	<circle cx="901.917" cy="216.925" r="4" fill="#0" id="circle195"/>
	<circle cx="910.17" cy="144.3" r="4" fill="#0" id="circle196"/>
	<circle cx="913.471" cy="203.72" r="4" fill="#0" id="circle197"/>
	<circle cx="921.724" cy="131.095" r="4" fill="#0" id="circle198"/>
	<circle cx="926.676" cy="192.166" r="4" fill="#0" id="circle199"/>
	<circle cx="929.977" cy="114.589" r="4" fill="#0" id="circle200"/>
	<circle cx="938.23" cy="170.709" r="4" fill="#0" id="circle201"/>
	<circle cx="943.181" cy="103.035" r="4" fill="#0" id="circle202"/>
	<circle cx="951.434" cy="159.155" r="4" fill="#0" id="circle203"/>
	<circle cx="953.085" cy="83.228" r="4" fill="#0" id="circle204"/>
	<circle cx="961.338" cy="33.7105" r="4" fill="#0" id="circle205"/>
	<circle cx="961.338" cy="66.7221" r="4" fill="#0" id="circle206"/>
	<circle cx="962.988" cy="137.697" r="4" fill="#0" id="circle207"/>
	<circle cx="969.591" cy="17.2047" r="4" fill="#0" id="circle208"/>
	<circle cx="969.591" cy="48.5657" r="4" fill="#0" id="circle209"/>
	<circle cx="971.241" cy="121.191" r="4" fill="#0" id="circle210"/>
	<circle cx="982.795" cy="4" r="4" fill="#0" id="circle211"/>
	<circle cx="984.446" cy="109.637" r="4" fill="#0" id="circle212"/>
	<circle cx="992.699" cy="93.1314" r="4" fill="#0" id="circle213"/>
	<circle cx="996" cy="13.9035" r="4" fill="#0" id="circle214"/>
	<circle cx="996" cy="30.4093" r="4" fill="#0" id="circle215"/>
	<circle cx="996" cy="46.9151" r="4" fill="#0" id="circle216"/>
	<circle cx="996" cy="63.421" r="4" fill="#0" id="circle217"/>
	</g>
</svg>