<?xml version="1.0" encoding="UTF-8" standalone="no"?>
<!-- Created with CurveBenchmark -->
<svg
	xmlns:dc="http://purl.org/dc/elements/1.1/"
	xmlns:cc="http://creativecommons.org/ns#"
	xmlns:rdf="http://www.w3.org/1999/02/22-rdf-syntax-ns#"
	xmlns:svg="http://www.w3.org/2000/svg"
	xmlns="http://www.w3.org/2000/svg"
	xmlns:sodipodi="http://sodipodi.sourceforge.net/DTD/sodipodi-0.dtd"
	xmlns:inkscape="http://www.inkscape.org/namespaces/inkscape"
	width="1000"
	height="1000"
	id="svg2"
	version="1.1"
	sodipodi:docname="manifold/gathang-children-9.png.txt">
<defs
	id="defs4" />
<metadata
	id="metadata7">
	<rdf:RDF>
		<cc:Work
			rdf:about="">
			<dc:format>image/svg+xml</dc:format>
			<dc:type
				rdf:resource="http://purl.org/dc/dcmitype/StillImage" />
			<dc:title></dc:title>
		</cc:Work>
	</rdf:RDF>
</metadata>
<g
	inkscape:label="Layer 1"
	inkscape:groupmode="layer"
	id="layer1">
	<path style="fill:none;stroke:red;stroke-width:1px;stroke-linecap:butt;stroke-linejoin:miter;stroke-opacity:1" d="M 27.8748,73.2371 27.8748,85.1745 z" id="boundary" inkscape:connector-curvature="0" />
	<path style="fill:none;stroke:red;stroke-width:1px;stroke-linecap:butt;stroke-linejoin:miter;stroke-opacity:1" d="M 27.8748,73.2371 33.8436,61.2996 z" id="boundary" inkscape:connector-curvature="0" />
	<path style="fill:none;stroke:red;stroke-width:1px;stroke-linecap:butt;stroke-linejoin:miter;stroke-opacity:1" d="M 27.8748,97.1119 27.8748,85.1745 z" id="boundary" inkscape:connector-curvature="0" />
	<path style="fill:none;stroke:red;stroke-width:1px;stroke-linecap:butt;stroke-linejoin:miter;stroke-opacity:1" d="M 9.96871,300.048 15.9374,288.111 z" id="boundary" inkscape:connector-curvature="0" />
	<path style="fill:none;stroke:red;stroke-width:1px;stroke-linecap:butt;stroke-linejoin:miter;stroke-opacity:1" d="M 21.9061,276.173 15.9374,288.111 z" id="boundary" inkscape:connector-curvature="0" />
	<path style="fill:none;stroke:red;stroke-width:1px;stroke-linecap:butt;stroke-linejoin:miter;stroke-opacity:1" d="M 21.9061,276.173 31.4561,266.623 z" id="boundary" inkscape:connector-curvature="0" />
	<path style="fill:none;stroke:red;stroke-width:1px;stroke-linecap:butt;stroke-linejoin:miter;stroke-opacity:1" d="M 27.8748,97.1119 27.8748,109.049 z" id="boundary" inkscape:connector-curvature="0" />
	<path style="fill:none;stroke:red;stroke-width:1px;stroke-linecap:butt;stroke-linejoin:miter;stroke-opacity:1" d="M 9.96871,300.048 4,311.986 z" id="boundary" inkscape:connector-curvature="0" />
	<path style="fill:none;stroke:red;stroke-width:1px;stroke-linecap:butt;stroke-linejoin:miter;stroke-opacity:1" d="M 39.8123,142.474 33.8436,131.73 z" id="boundary" inkscape:connector-curvature="0" />
	<path style="fill:none;stroke:red;stroke-width:1px;stroke-linecap:butt;stroke-linejoin:miter;stroke-opacity:1" d="M 33.8436,131.73 27.8748,120.987 z" id="boundary" inkscape:connector-curvature="0" />
	<path style="fill:none;stroke:red;stroke-width:1px;stroke-linecap:butt;stroke-linejoin:miter;stroke-opacity:1" d="M 27.8748,120.987 27.8748,109.049 z" id="boundary" inkscape:connector-curvature="0" />
	<path style="fill:none;stroke:red;stroke-width:1px;stroke-linecap:butt;stroke-linejoin:miter;stroke-opacity:1" d="M 39.8123,49.3622 49.3622,39.8123 z" id="boundary" inkscape:connector-curvature="0" />
	<path style="fill:none;stroke:red;stroke-width:1px;stroke-linecap:butt;stroke-linejoin:miter;stroke-opacity:1" d="M 33.8436,61.2996 39.8123,49.3622 z" id="boundary" inkscape:connector-curvature="0" />
	<path style="fill:none;stroke:red;stroke-width:1px;stroke-linecap:butt;stroke-linejoin:miter;stroke-opacity:1" d="M 4,323.923 4,311.986 z" id="boundary" inkscape:connector-curvature="0" />
	<path style="fill:none;stroke:red;stroke-width:1px;stroke-linecap:butt;stroke-linejoin:miter;stroke-opacity:1" d="M 4,335.86 4,323.923 z" id="boundary" inkscape:connector-curvature="0" />
	<path style="fill:none;stroke:red;stroke-width:1px;stroke-linecap:butt;stroke-linejoin:miter;stroke-opacity:1" d="M 9.96871,370.479 4,359.735 z" id="boundary" inkscape:connector-curvature="0" />
	<path style="fill:none;stroke:red;stroke-width:1px;stroke-linecap:butt;stroke-linejoin:miter;stroke-opacity:1" d="M 4,359.735 4,347.798 z" id="boundary" inkscape:connector-curvature="0" />
	<path style="fill:none;stroke:red;stroke-width:1px;stroke-linecap:butt;stroke-linejoin:miter;stroke-opacity:1" d="M 4,347.798 4,335.86 z" id="boundary" inkscape:connector-curvature="0" />
	<path style="fill:none;stroke:red;stroke-width:1px;stroke-linecap:butt;stroke-linejoin:miter;stroke-opacity:1" d="M 9.96871,370.479 9.96871,382.416 z" id="boundary" inkscape:connector-curvature="0" />
	<path style="fill:none;stroke:red;stroke-width:1px;stroke-linecap:butt;stroke-linejoin:miter;stroke-opacity:1" d="M 9.96871,382.416 15.9374,393.16 z" id="boundary" inkscape:connector-curvature="0" />
	<path style="fill:none;stroke:red;stroke-width:1px;stroke-linecap:butt;stroke-linejoin:miter;stroke-opacity:1" d="M 15.9374,393.16 15.9374,405.097 z" id="boundary" inkscape:connector-curvature="0" />
	<path style="fill:none;stroke:red;stroke-width:1px;stroke-linecap:butt;stroke-linejoin:miter;stroke-opacity:1" d="M 15.9374,405.097 15.9374,417.035 z" id="boundary" inkscape:connector-curvature="0" />
	<path style="fill:none;stroke:red;stroke-width:1px;stroke-linecap:butt;stroke-linejoin:miter;stroke-opacity:1" d="M 15.9374,417.035 15.9374,428.972 z" id="boundary" inkscape:connector-curvature="0" />
	<path style="fill:none;stroke:red;stroke-width:1px;stroke-linecap:butt;stroke-linejoin:miter;stroke-opacity:1" d="M 15.9374,440.91 15.9374,452.847 z" id="boundary" inkscape:connector-curvature="0" />
	<path style="fill:none;stroke:red;stroke-width:1px;stroke-linecap:butt;stroke-linejoin:miter;stroke-opacity:1" d="M 19.5187,464.785 15.9374,452.847 z" id="boundary" inkscape:connector-curvature="0" />
	<path style="fill:none;stroke:red;stroke-width:1px;stroke-linecap:butt;stroke-linejoin:miter;stroke-opacity:1" d="M 15.9374,440.91 15.9374,428.972 z" id="boundary" inkscape:connector-curvature="0" />
	<path style="fill:none;stroke:red;stroke-width:1px;stroke-linecap:butt;stroke-linejoin:miter;stroke-opacity:1" d="M 31.4561,266.623 41.006,257.073 z" id="boundary" inkscape:connector-curvature="0" />
	<path style="fill:none;stroke:red;stroke-width:1px;stroke-linecap:butt;stroke-linejoin:miter;stroke-opacity:1" d="M 89.9495,9.96871 100.693,4 z" id="boundary" inkscape:connector-curvature="0" />
	<path style="fill:none;stroke:red;stroke-width:1px;stroke-linecap:butt;stroke-linejoin:miter;stroke-opacity:1" d="M 100.693,4 112.631,4 z" id="boundary" inkscape:connector-curvature="0" />
	<path style="fill:none;stroke:red;stroke-width:1px;stroke-linecap:butt;stroke-linejoin:miter;stroke-opacity:1" d="M 79.2058,15.9374 89.9495,9.96871 z" id="boundary" inkscape:connector-curvature="0" />
	<path style="fill:none;stroke:red;stroke-width:1px;stroke-linecap:butt;stroke-linejoin:miter;stroke-opacity:1" d="M 58.9122,30.2623 68.4621,21.9061 z" id="boundary" inkscape:connector-curvature="0" />
	<path style="fill:none;stroke:red;stroke-width:1px;stroke-linecap:butt;stroke-linejoin:miter;stroke-opacity:1" d="M 68.4621,21.9061 79.2058,15.9374 z" id="boundary" inkscape:connector-curvature="0" />
	<path style="fill:none;stroke:red;stroke-width:1px;stroke-linecap:butt;stroke-linejoin:miter;stroke-opacity:1" d="M 112.631,4 124.568,4 z" id="boundary" inkscape:connector-curvature="0" />
	<path style="fill:none;stroke:red;stroke-width:1px;stroke-linecap:butt;stroke-linejoin:miter;stroke-opacity:1" d="M 124.568,4 136.505,4 z" id="boundary" inkscape:connector-curvature="0" />
	<path style="fill:none;stroke:red;stroke-width:1px;stroke-linecap:butt;stroke-linejoin:miter;stroke-opacity:1" d="M 136.505,4 148.443,4 z" id="boundary" inkscape:connector-curvature="0" />
	<path style="fill:none;stroke:red;stroke-width:1px;stroke-linecap:butt;stroke-linejoin:miter;stroke-opacity:1" d="M 160.38,4 172.318,4 z" id="boundary" inkscape:connector-curvature="0" />
	<path style="fill:none;stroke:red;stroke-width:1px;stroke-linecap:butt;stroke-linejoin:miter;stroke-opacity:1" d="M 172.318,4 184.255,7.58123 z" id="boundary" inkscape:connector-curvature="0" />
	<path style="fill:none;stroke:red;stroke-width:1px;stroke-linecap:butt;stroke-linejoin:miter;stroke-opacity:1" d="M 196.193,9.96871 184.255,7.58123 z" id="boundary" inkscape:connector-curvature="0" />
	<path style="fill:none;stroke:red;stroke-width:1px;stroke-linecap:butt;stroke-linejoin:miter;stroke-opacity:1" d="M 148.443,4 160.38,4 z" id="boundary" inkscape:connector-curvature="0" />
	<path style="fill:none;stroke:red;stroke-width:1px;stroke-linecap:butt;stroke-linejoin:miter;stroke-opacity:1" d="M 43.3935,154.412 39.8123,142.474 z" id="boundary" inkscape:connector-curvature="0" />
	<path style="fill:none;stroke:red;stroke-width:1px;stroke-linecap:butt;stroke-linejoin:miter;stroke-opacity:1" d="M 52.9434,162.768 43.3935,154.412 z" id="boundary" inkscape:connector-curvature="0" />
	<path style="fill:none;stroke:red;stroke-width:1px;stroke-linecap:butt;stroke-linejoin:miter;stroke-opacity:1" d="M 49.3622,39.8123 58.9122,30.2623 z" id="boundary" inkscape:connector-curvature="0" />
	<path style="fill:none;stroke:red;stroke-width:1px;stroke-linecap:butt;stroke-linejoin:miter;stroke-opacity:1" d="M 50.556,248.717 41.006,257.073 z" id="boundary" inkscape:connector-curvature="0" />
	<path style="fill:none;stroke:red;stroke-width:1px;stroke-linecap:butt;stroke-linejoin:miter;stroke-opacity:1" d="M 52.9434,162.768 61.2996,172.318 z" id="boundary" inkscape:connector-curvature="0" />
	<path style="fill:none;stroke:red;stroke-width:1px;stroke-linecap:butt;stroke-linejoin:miter;stroke-opacity:1" d="M 50.556,248.717 61.2996,242.748 z" id="boundary" inkscape:connector-curvature="0" />
	<path style="fill:none;stroke:red;stroke-width:1px;stroke-linecap:butt;stroke-linejoin:miter;stroke-opacity:1" d="M 75.6245,192.611 67.2684,183.061 z" id="boundary" inkscape:connector-curvature="0" />
	<path style="fill:none;stroke:red;stroke-width:1px;stroke-linecap:butt;stroke-linejoin:miter;stroke-opacity:1" d="M 67.2684,183.061 61.2996,172.318 z" id="boundary" inkscape:connector-curvature="0" />
	<path style="fill:none;stroke:red;stroke-width:1px;stroke-linecap:butt;stroke-linejoin:miter;stroke-opacity:1" d="M 70.8496,233.199 61.2996,242.748 z" id="boundary" inkscape:connector-curvature="0" />
	<path style="fill:none;stroke:red;stroke-width:1px;stroke-linecap:butt;stroke-linejoin:miter;stroke-opacity:1" d="M 76.8183,221.261 81.5933,203.355 z" id="boundary" inkscape:connector-curvature="0" />
	<path style="fill:none;stroke:red;stroke-width:1px;stroke-linecap:butt;stroke-linejoin:miter;stroke-opacity:1" d="M 76.8183,221.261 70.8496,233.199 z" id="boundary" inkscape:connector-curvature="0" />
	<path style="fill:none;stroke:red;stroke-width:1px;stroke-linecap:butt;stroke-linejoin:miter;stroke-opacity:1" d="M 75.6245,192.611 81.5933,203.355 z" id="boundary" inkscape:connector-curvature="0" />
	<path style="fill:none;stroke:red;stroke-width:1px;stroke-linecap:butt;stroke-linejoin:miter;stroke-opacity:1" d="M 19.5187,464.785 21.9061,476.722 z" id="boundary" inkscape:connector-curvature="0" />
	<path style="fill:none;stroke:red;stroke-width:1px;stroke-linecap:butt;stroke-linejoin:miter;stroke-opacity:1" d="M 21.9061,476.722 21.9061,488.659 z" id="boundary" inkscape:connector-curvature="0" />
	<path style="fill:none;stroke:red;stroke-width:1px;stroke-linecap:butt;stroke-linejoin:miter;stroke-opacity:1" d="M 27.8748,499.403 21.9061,488.659 z" id="boundary" inkscape:connector-curvature="0" />
	<path style="fill:none;stroke:red;stroke-width:1px;stroke-linecap:butt;stroke-linejoin:miter;stroke-opacity:1" d="M 33.8436,522.084 27.8748,511.341 z" id="boundary" inkscape:connector-curvature="0" />
	<path style="fill:none;stroke:red;stroke-width:1px;stroke-linecap:butt;stroke-linejoin:miter;stroke-opacity:1" d="M 27.8748,511.341 27.8748,499.403 z" id="boundary" inkscape:connector-curvature="0" />
	<path style="fill:none;stroke:red;stroke-width:1px;stroke-linecap:butt;stroke-linejoin:miter;stroke-opacity:1" d="M 33.8436,522.084 35.0373,534.022 z" id="boundary" inkscape:connector-curvature="0" />
	<path style="fill:none;stroke:red;stroke-width:1px;stroke-linecap:butt;stroke-linejoin:miter;stroke-opacity:1" d="M 35.0373,534.022 39.8123,545.959 z" id="boundary" inkscape:connector-curvature="0" />
	<path style="fill:none;stroke:red;stroke-width:1px;stroke-linecap:butt;stroke-linejoin:miter;stroke-opacity:1" d="M 39.8123,545.959 41.006,557.897 z" id="boundary" inkscape:connector-curvature="0" />
	<path style="fill:none;stroke:red;stroke-width:1px;stroke-linecap:butt;stroke-linejoin:miter;stroke-opacity:1" d="M 45.781,569.834 41.006,557.897 z" id="boundary" inkscape:connector-curvature="0" />
	<path style="fill:none;stroke:red;stroke-width:1px;stroke-linecap:butt;stroke-linejoin:miter;stroke-opacity:1" d="M 45.781,569.834 45.781,581.771 z" id="boundary" inkscape:connector-curvature="0" />
	<path style="fill:none;stroke:red;stroke-width:1px;stroke-linecap:butt;stroke-linejoin:miter;stroke-opacity:1" d="M 45.781,593.709 45.781,581.771 z" id="boundary" inkscape:connector-curvature="0" />
	<path style="fill:none;stroke:red;stroke-width:1px;stroke-linecap:butt;stroke-linejoin:miter;stroke-opacity:1" d="M 45.781,593.709 45.781,605.646 z" id="boundary" inkscape:connector-curvature="0" />
	<path style="fill:none;stroke:red;stroke-width:1px;stroke-linecap:butt;stroke-linejoin:miter;stroke-opacity:1" d="M 56.5247,625.94 46.9747,617.584 z" id="boundary" inkscape:connector-curvature="0" />
	<path style="fill:none;stroke:red;stroke-width:1px;stroke-linecap:butt;stroke-linejoin:miter;stroke-opacity:1" d="M 46.9747,617.584 45.781,605.646 z" id="boundary" inkscape:connector-curvature="0" />
	<path style="fill:none;stroke:red;stroke-width:1px;stroke-linecap:butt;stroke-linejoin:miter;stroke-opacity:1" d="M 56.5247,625.94 61.2996,637.877 z" id="boundary" inkscape:connector-curvature="0" />
	<path style="fill:none;stroke:red;stroke-width:1px;stroke-linecap:butt;stroke-linejoin:miter;stroke-opacity:1" d="M 63.6871,649.815 63.6871,661.752 z" id="boundary" inkscape:connector-curvature="0" />
	<path style="fill:none;stroke:red;stroke-width:1px;stroke-linecap:butt;stroke-linejoin:miter;stroke-opacity:1" d="M 69.6558,672.496 63.6871,661.752 z" id="boundary" inkscape:connector-curvature="0" />
	<path style="fill:none;stroke:red;stroke-width:1px;stroke-linecap:butt;stroke-linejoin:miter;stroke-opacity:1" d="M 61.2996,637.877 63.6871,649.815 z" id="boundary" inkscape:connector-curvature="0" />
	<path style="fill:none;stroke:red;stroke-width:1px;stroke-linecap:butt;stroke-linejoin:miter;stroke-opacity:1" d="M 76.8183,682.046 69.6558,672.496 z" id="boundary" inkscape:connector-curvature="0" />
	<path style="fill:none;stroke:red;stroke-width:1px;stroke-linecap:butt;stroke-linejoin:miter;stroke-opacity:1" d="M 85.1745,691.596 76.8183,682.046 z" id="boundary" inkscape:connector-curvature="0" />
	<path style="fill:none;stroke:red;stroke-width:1px;stroke-linecap:butt;stroke-linejoin:miter;stroke-opacity:1" d="M 97.1119,696.371 85.1745,691.596 z" id="boundary" inkscape:connector-curvature="0" />
	<path style="fill:none;stroke:red;stroke-width:1px;stroke-linecap:butt;stroke-linejoin:miter;stroke-opacity:1" d="M 87.562,801.42 87.562,813.357 z" id="boundary" inkscape:connector-curvature="0" />
	<path style="fill:none;stroke:red;stroke-width:1px;stroke-linecap:butt;stroke-linejoin:miter;stroke-opacity:1" d="M 87.562,801.42 93.5307,783.514 z" id="boundary" inkscape:connector-curvature="0" />
	<path style="fill:none;stroke:red;stroke-width:1px;stroke-linecap:butt;stroke-linejoin:miter;stroke-opacity:1" d="M 93.5307,836.039 87.562,825.295 z" id="boundary" inkscape:connector-curvature="0" />
	<path style="fill:none;stroke:red;stroke-width:1px;stroke-linecap:butt;stroke-linejoin:miter;stroke-opacity:1" d="M 87.562,825.295 87.562,813.357 z" id="boundary" inkscape:connector-curvature="0" />
	<path style="fill:none;stroke:red;stroke-width:1px;stroke-linecap:butt;stroke-linejoin:miter;stroke-opacity:1" d="M 99.4994,771.576 93.5307,783.514 z" id="boundary" inkscape:connector-curvature="0" />
	<path style="fill:none;stroke:red;stroke-width:1px;stroke-linecap:butt;stroke-linejoin:miter;stroke-opacity:1" d="M 105.468,759.639 99.4994,771.576 z" id="boundary" inkscape:connector-curvature="0" />
	<path style="fill:none;stroke:red;stroke-width:1px;stroke-linecap:butt;stroke-linejoin:miter;stroke-opacity:1" d="M 105.468,705.921 97.1119,696.371 z" id="boundary" inkscape:connector-curvature="0" />
	<path style="fill:none;stroke:red;stroke-width:1px;stroke-linecap:butt;stroke-linejoin:miter;stroke-opacity:1" d="M 93.5307,836.039 99.4994,846.782 z" id="boundary" inkscape:connector-curvature="0" />
	<path style="fill:none;stroke:red;stroke-width:1px;stroke-linecap:butt;stroke-linejoin:miter;stroke-opacity:1" d="M 99.4994,846.782 99.4994,858.72 z" id="boundary" inkscape:connector-curvature="0" />
	<path style="fill:none;stroke:red;stroke-width:1px;stroke-linecap:butt;stroke-linejoin:miter;stroke-opacity:1" d="M 105.468,869.463 99.4994,858.72 z" id="boundary" inkscape:connector-curvature="0" />
	<path style="fill:none;stroke:red;stroke-width:1px;stroke-linecap:butt;stroke-linejoin:miter;stroke-opacity:1" d="M 111.437,728.602 111.437,740.539 z" id="boundary" inkscape:connector-curvature="0" />
	<path style="fill:none;stroke:red;stroke-width:1px;stroke-linecap:butt;stroke-linejoin:miter;stroke-opacity:1" d="M 105.468,759.639 111.437,740.539 z" id="boundary" inkscape:connector-curvature="0" />
	<path style="fill:none;stroke:red;stroke-width:1px;stroke-linecap:butt;stroke-linejoin:miter;stroke-opacity:1" d="M 107.856,881.401 105.468,869.463 z" id="boundary" inkscape:connector-curvature="0" />
	<path style="fill:none;stroke:red;stroke-width:1px;stroke-linecap:butt;stroke-linejoin:miter;stroke-opacity:1" d="M 113.824,892.144 107.856,881.401 z" id="boundary" inkscape:connector-curvature="0" />
	<path style="fill:none;stroke:red;stroke-width:1px;stroke-linecap:butt;stroke-linejoin:miter;stroke-opacity:1" d="M 105.468,705.921 111.437,716.664 z" id="boundary" inkscape:connector-curvature="0" />
	<path style="fill:none;stroke:red;stroke-width:1px;stroke-linecap:butt;stroke-linejoin:miter;stroke-opacity:1" d="M 111.437,716.664 111.437,728.602 z" id="boundary" inkscape:connector-curvature="0" />
	<path style="fill:none;stroke:red;stroke-width:1px;stroke-linecap:butt;stroke-linejoin:miter;stroke-opacity:1" d="M 111.437,908.857 105.468,926.763 z" id="boundary" inkscape:connector-curvature="0" />
	<path style="fill:none;stroke:red;stroke-width:1px;stroke-linecap:butt;stroke-linejoin:miter;stroke-opacity:1" d="M 113.824,892.144 111.437,908.857 z" id="boundary" inkscape:connector-curvature="0" />
	<path style="fill:none;stroke:red;stroke-width:1px;stroke-linecap:butt;stroke-linejoin:miter;stroke-opacity:1" d="M 105.468,938.7 105.468,926.763 z" id="boundary" inkscape:connector-curvature="0" />
	<path style="fill:none;stroke:red;stroke-width:1px;stroke-linecap:butt;stroke-linejoin:miter;stroke-opacity:1" d="M 105.468,938.7 105.468,950.638 z" id="boundary" inkscape:connector-curvature="0" />
	<path style="fill:none;stroke:red;stroke-width:1px;stroke-linecap:butt;stroke-linejoin:miter;stroke-opacity:1" d="M 115.018,970.931 105.468,962.575 z" id="boundary" inkscape:connector-curvature="0" />
	<path style="fill:none;stroke:red;stroke-width:1px;stroke-linecap:butt;stroke-linejoin:miter;stroke-opacity:1" d="M 105.468,962.575 105.468,950.638 z" id="boundary" inkscape:connector-curvature="0" />
	<path style="fill:none;stroke:red;stroke-width:1px;stroke-linecap:butt;stroke-linejoin:miter;stroke-opacity:1" d="M 147.249,984.063 135.312,984.063 z" id="boundary" inkscape:connector-curvature="0" />
	<path style="fill:none;stroke:red;stroke-width:1px;stroke-linecap:butt;stroke-linejoin:miter;stroke-opacity:1" d="M 135.312,984.063 124.568,978.094 z" id="boundary" inkscape:connector-curvature="0" />
	<path style="fill:none;stroke:red;stroke-width:1px;stroke-linecap:butt;stroke-linejoin:miter;stroke-opacity:1" d="M 124.568,978.094 115.018,970.931 z" id="boundary" inkscape:connector-curvature="0" />
	<path style="fill:none;stroke:red;stroke-width:1px;stroke-linecap:butt;stroke-linejoin:miter;stroke-opacity:1" d="M 147.249,984.063 157.993,990.031 z" id="boundary" inkscape:connector-curvature="0" />
	<path style="fill:none;stroke:red;stroke-width:1px;stroke-linecap:butt;stroke-linejoin:miter;stroke-opacity:1" d="M 169.93,990.031 157.993,990.031 z" id="boundary" inkscape:connector-curvature="0" />
	<path style="fill:none;stroke:red;stroke-width:1px;stroke-linecap:butt;stroke-linejoin:miter;stroke-opacity:1" d="M 169.93,990.031 180.674,996 z" id="boundary" inkscape:connector-curvature="0" />
	<path style="fill:none;stroke:red;stroke-width:1px;stroke-linecap:butt;stroke-linejoin:miter;stroke-opacity:1" d="M 192.611,996 180.674,996 z" id="boundary" inkscape:connector-curvature="0" />
	<path style="fill:none;stroke:red;stroke-width:1px;stroke-linecap:butt;stroke-linejoin:miter;stroke-opacity:1" d="M 196.193,9.96871 208.13,13.5499 z" id="boundary" inkscape:connector-curvature="0" />
	<path style="fill:none;stroke:red;stroke-width:1px;stroke-linecap:butt;stroke-linejoin:miter;stroke-opacity:1" d="M 208.13,13.5499 218.874,19.5187 z" id="boundary" inkscape:connector-curvature="0" />
	<path style="fill:none;stroke:red;stroke-width:1px;stroke-linecap:butt;stroke-linejoin:miter;stroke-opacity:1" d="M 230.811,24.2936 218.874,19.5187 z" id="boundary" inkscape:connector-curvature="0" />
	<path style="fill:none;stroke:red;stroke-width:1px;stroke-linecap:butt;stroke-linejoin:miter;stroke-opacity:1" d="M 247.523,41.006 237.974,33.8436 z" id="boundary" inkscape:connector-curvature="0" />
	<path style="fill:none;stroke:red;stroke-width:1px;stroke-linecap:butt;stroke-linejoin:miter;stroke-opacity:1" d="M 237.974,33.8436 230.811,24.2936 z" id="boundary" inkscape:connector-curvature="0" />
	<path style="fill:none;stroke:red;stroke-width:1px;stroke-linecap:butt;stroke-linejoin:miter;stroke-opacity:1" d="M 247.523,41.006 255.88,50.556 z" id="boundary" inkscape:connector-curvature="0" />
	<path style="fill:none;stroke:red;stroke-width:1px;stroke-linecap:butt;stroke-linejoin:miter;stroke-opacity:1" d="M 255.88,50.556 265.43,58.9122 z" id="boundary" inkscape:connector-curvature="0" />
	<path style="fill:none;stroke:red;stroke-width:1px;stroke-linecap:butt;stroke-linejoin:miter;stroke-opacity:1" d="M 265.43,58.9122 273.786,68.4621 z" id="boundary" inkscape:connector-curvature="0" />
	<path style="fill:none;stroke:red;stroke-width:1px;stroke-linecap:butt;stroke-linejoin:miter;stroke-opacity:1" d="M 279.755,79.2058 279.755,91.1432 z" id="boundary" inkscape:connector-curvature="0" />
	<path style="fill:none;stroke:red;stroke-width:1px;stroke-linecap:butt;stroke-linejoin:miter;stroke-opacity:1" d="M 273.786,68.4621 279.755,79.2058 z" id="boundary" inkscape:connector-curvature="0" />
	<path style="fill:none;stroke:red;stroke-width:1px;stroke-linecap:butt;stroke-linejoin:miter;stroke-opacity:1" d="M 279.755,103.081 279.755,91.1432 z" id="boundary" inkscape:connector-curvature="0" />
	<path style="fill:none;stroke:red;stroke-width:1px;stroke-linecap:butt;stroke-linejoin:miter;stroke-opacity:1" d="M 279.755,103.081 273.786,124.568 z" id="boundary" inkscape:connector-curvature="0" />
	<path style="fill:none;stroke:red;stroke-width:1px;stroke-linecap:butt;stroke-linejoin:miter;stroke-opacity:1" d="M 261.848,208.13 267.817,190.224 z" id="boundary" inkscape:connector-curvature="0" />
	<path style="fill:none;stroke:red;stroke-width:1px;stroke-linecap:butt;stroke-linejoin:miter;stroke-opacity:1" d="M 261.848,220.067 261.848,208.13 z" id="boundary" inkscape:connector-curvature="0" />
	<path style="fill:none;stroke:red;stroke-width:1px;stroke-linecap:butt;stroke-linejoin:miter;stroke-opacity:1" d="M 261.848,220.067 255.88,232.005 z" id="boundary" inkscape:connector-curvature="0" />
	<path style="fill:none;stroke:red;stroke-width:1px;stroke-linecap:butt;stroke-linejoin:miter;stroke-opacity:1" d="M 267.817,252.298 258.267,243.942 z" id="boundary" inkscape:connector-curvature="0" />
	<path style="fill:none;stroke:red;stroke-width:1px;stroke-linecap:butt;stroke-linejoin:miter;stroke-opacity:1" d="M 258.267,243.942 255.88,232.005 z" id="boundary" inkscape:connector-curvature="0" />
	<path style="fill:none;stroke:red;stroke-width:1px;stroke-linecap:butt;stroke-linejoin:miter;stroke-opacity:1" d="M 267.817,252.298 272.592,264.236 z" id="boundary" inkscape:connector-curvature="0" />
	<path style="fill:none;stroke:red;stroke-width:1px;stroke-linecap:butt;stroke-linejoin:miter;stroke-opacity:1" d="M 273.786,148.443 273.786,160.38 z" id="boundary" inkscape:connector-curvature="0" />
	<path style="fill:none;stroke:red;stroke-width:1px;stroke-linecap:butt;stroke-linejoin:miter;stroke-opacity:1" d="M 273.786,136.505 273.786,124.568 z" id="boundary" inkscape:connector-curvature="0" />
	<path style="fill:none;stroke:red;stroke-width:1px;stroke-linecap:butt;stroke-linejoin:miter;stroke-opacity:1" d="M 273.786,148.443 273.786,136.505 z" id="boundary" inkscape:connector-curvature="0" />
	<path style="fill:none;stroke:red;stroke-width:1px;stroke-linecap:butt;stroke-linejoin:miter;stroke-opacity:1" d="M 267.817,190.224 273.786,172.318 z" id="boundary" inkscape:connector-curvature="0" />
	<path style="fill:none;stroke:red;stroke-width:1px;stroke-linecap:butt;stroke-linejoin:miter;stroke-opacity:1" d="M 273.786,160.38 273.786,172.318 z" id="boundary" inkscape:connector-curvature="0" />
	<path style="fill:none;stroke:red;stroke-width:1px;stroke-linecap:butt;stroke-linejoin:miter;stroke-opacity:1" d="M 282.142,272.592 272.592,264.236 z" id="boundary" inkscape:connector-curvature="0" />
	<path style="fill:none;stroke:red;stroke-width:1px;stroke-linecap:butt;stroke-linejoin:miter;stroke-opacity:1" d="M 282.142,272.592 285.723,284.529 z" id="boundary" inkscape:connector-curvature="0" />
	<path style="fill:none;stroke:red;stroke-width:1px;stroke-linecap:butt;stroke-linejoin:miter;stroke-opacity:1" d="M 291.692,307.211 285.723,296.467 z" id="boundary" inkscape:connector-curvature="0" />
	<path style="fill:none;stroke:red;stroke-width:1px;stroke-linecap:butt;stroke-linejoin:miter;stroke-opacity:1" d="M 285.723,296.467 285.723,284.529 z" id="boundary" inkscape:connector-curvature="0" />
	<path style="fill:none;stroke:red;stroke-width:1px;stroke-linecap:butt;stroke-linejoin:miter;stroke-opacity:1" d="M 291.692,307.211 291.692,319.148 z" id="boundary" inkscape:connector-curvature="0" />
	<path style="fill:none;stroke:red;stroke-width:1px;stroke-linecap:butt;stroke-linejoin:miter;stroke-opacity:1" d="M 291.692,387.191 291.692,375.254 z" id="boundary" inkscape:connector-curvature="0" />
	<path style="fill:none;stroke:red;stroke-width:1px;stroke-linecap:butt;stroke-linejoin:miter;stroke-opacity:1" d="M 297.661,397.935 291.692,387.191 z" id="boundary" inkscape:connector-curvature="0" />
	<path style="fill:none;stroke:red;stroke-width:1px;stroke-linecap:butt;stroke-linejoin:miter;stroke-opacity:1" d="M 297.661,329.892 291.692,319.148 z" id="boundary" inkscape:connector-curvature="0" />
	<path style="fill:none;stroke:red;stroke-width:1px;stroke-linecap:butt;stroke-linejoin:miter;stroke-opacity:1" d="M 303.629,352.573 297.661,341.829 z" id="boundary" inkscape:connector-curvature="0" />
	<path style="fill:none;stroke:red;stroke-width:1px;stroke-linecap:butt;stroke-linejoin:miter;stroke-opacity:1" d="M 297.661,341.829 297.661,329.892 z" id="boundary" inkscape:connector-curvature="0" />
	<path style="fill:none;stroke:red;stroke-width:1px;stroke-linecap:butt;stroke-linejoin:miter;stroke-opacity:1" d="M 303.629,352.573 297.661,363.316 z" id="boundary" inkscape:connector-curvature="0" />
	<path style="fill:none;stroke:red;stroke-width:1px;stroke-linecap:butt;stroke-linejoin:miter;stroke-opacity:1" d="M 303.629,408.679 297.661,397.935 z" id="boundary" inkscape:connector-curvature="0" />
	<path style="fill:none;stroke:red;stroke-width:1px;stroke-linecap:butt;stroke-linejoin:miter;stroke-opacity:1" d="M 291.692,375.254 297.661,363.316 z" id="boundary" inkscape:connector-curvature="0" />
	<path style="fill:none;stroke:red;stroke-width:1px;stroke-linecap:butt;stroke-linejoin:miter;stroke-opacity:1" d="M 309.598,419.422 303.629,408.679 z" id="boundary" inkscape:connector-curvature="0" />
	<path style="fill:none;stroke:red;stroke-width:1px;stroke-linecap:butt;stroke-linejoin:miter;stroke-opacity:1" d="M 309.598,419.422 314.373,431.36 z" id="boundary" inkscape:connector-curvature="0" />
	<path style="fill:none;stroke:red;stroke-width:1px;stroke-linecap:butt;stroke-linejoin:miter;stroke-opacity:1" d="M 314.373,431.36 315.567,443.297 z" id="boundary" inkscape:connector-curvature="0" />
	<path style="fill:none;stroke:red;stroke-width:1px;stroke-linecap:butt;stroke-linejoin:miter;stroke-opacity:1" d="M 320.342,455.235 315.567,443.297 z" id="boundary" inkscape:connector-curvature="0" />
	<path style="fill:none;stroke:red;stroke-width:1px;stroke-linecap:butt;stroke-linejoin:miter;stroke-opacity:1" d="M 327.504,477.916 321.535,467.172 z" id="boundary" inkscape:connector-curvature="0" />
	<path style="fill:none;stroke:red;stroke-width:1px;stroke-linecap:butt;stroke-linejoin:miter;stroke-opacity:1" d="M 321.535,467.172 320.342,455.235 z" id="boundary" inkscape:connector-curvature="0" />
	<path style="fill:none;stroke:red;stroke-width:1px;stroke-linecap:butt;stroke-linejoin:miter;stroke-opacity:1" d="M 327.504,477.916 331.085,489.853 z" id="boundary" inkscape:connector-curvature="0" />
	<path style="fill:none;stroke:red;stroke-width:1px;stroke-linecap:butt;stroke-linejoin:miter;stroke-opacity:1" d="M 339.442,512.534 333.473,501.791 z" id="boundary" inkscape:connector-curvature="0" />
	<path style="fill:none;stroke:red;stroke-width:1px;stroke-linecap:butt;stroke-linejoin:miter;stroke-opacity:1" d="M 333.473,501.791 331.085,489.853 z" id="boundary" inkscape:connector-curvature="0" />
	<path style="fill:none;stroke:red;stroke-width:1px;stroke-linecap:butt;stroke-linejoin:miter;stroke-opacity:1" d="M 339.442,512.534 339.442,524.472 z" id="boundary" inkscape:connector-curvature="0" />
	<path style="fill:none;stroke:red;stroke-width:1px;stroke-linecap:butt;stroke-linejoin:miter;stroke-opacity:1" d="M 339.442,524.472 345.41,535.215 z" id="boundary" inkscape:connector-curvature="0" />
	<path style="fill:none;stroke:red;stroke-width:1px;stroke-linecap:butt;stroke-linejoin:miter;stroke-opacity:1" d="M 345.41,535.215 345.41,547.153 z" id="boundary" inkscape:connector-curvature="0" />
	<path style="fill:none;stroke:red;stroke-width:1px;stroke-linecap:butt;stroke-linejoin:miter;stroke-opacity:1" d="M 345.41,547.153 351.379,557.897 z" id="boundary" inkscape:connector-curvature="0" />
	<path style="fill:none;stroke:red;stroke-width:1px;stroke-linecap:butt;stroke-linejoin:miter;stroke-opacity:1" d="M 351.379,557.897 351.379,569.834 z" id="boundary" inkscape:connector-curvature="0" />
	<path style="fill:none;stroke:red;stroke-width:1px;stroke-linecap:butt;stroke-linejoin:miter;stroke-opacity:1" d="M 255.88,864.688 261.848,852.751 z" id="boundary" inkscape:connector-curvature="0" />
	<path style="fill:none;stroke:red;stroke-width:1px;stroke-linecap:butt;stroke-linejoin:miter;stroke-opacity:1" d="M 273.786,816.939 267.817,834.845 z" id="boundary" inkscape:connector-curvature="0" />
	<path style="fill:none;stroke:red;stroke-width:1px;stroke-linecap:butt;stroke-linejoin:miter;stroke-opacity:1" d="M 261.848,852.751 267.817,834.845 z" id="boundary" inkscape:connector-curvature="0" />
	<path style="fill:none;stroke:red;stroke-width:1px;stroke-linecap:butt;stroke-linejoin:miter;stroke-opacity:1" d="M 249.911,882.594 255.88,864.688 z" id="boundary" inkscape:connector-curvature="0" />
	<path style="fill:none;stroke:red;stroke-width:1px;stroke-linecap:butt;stroke-linejoin:miter;stroke-opacity:1" d="M 255.88,893.338 249.911,882.594 z" id="boundary" inkscape:connector-curvature="0" />
	<path style="fill:none;stroke:red;stroke-width:1px;stroke-linecap:butt;stroke-linejoin:miter;stroke-opacity:1" d="M 266.623,899.307 255.88,893.338 z" id="boundary" inkscape:connector-curvature="0" />
	<path style="fill:none;stroke:red;stroke-width:1px;stroke-linecap:butt;stroke-linejoin:miter;stroke-opacity:1" d="M 285.723,757.252 291.692,745.314 z" id="boundary" inkscape:connector-curvature="0" />
	<path style="fill:none;stroke:red;stroke-width:1px;stroke-linecap:butt;stroke-linejoin:miter;stroke-opacity:1" d="M 285.723,769.189 285.723,757.252 z" id="boundary" inkscape:connector-curvature="0" />
	<path style="fill:none;stroke:red;stroke-width:1px;stroke-linecap:butt;stroke-linejoin:miter;stroke-opacity:1" d="M 273.786,816.939 279.755,805.001 z" id="boundary" inkscape:connector-curvature="0" />
	<path style="fill:none;stroke:red;stroke-width:1px;stroke-linecap:butt;stroke-linejoin:miter;stroke-opacity:1" d="M 285.723,769.189 279.755,781.126 z" id="boundary" inkscape:connector-curvature="0" />
	<path style="fill:none;stroke:red;stroke-width:1px;stroke-linecap:butt;stroke-linejoin:miter;stroke-opacity:1" d="M 279.755,781.126 279.755,793.064 z" id="boundary" inkscape:connector-curvature="0" />
	<path style="fill:none;stroke:red;stroke-width:1px;stroke-linecap:butt;stroke-linejoin:miter;stroke-opacity:1" d="M 279.755,805.001 279.755,793.064 z" id="boundary" inkscape:connector-curvature="0" />
	<path style="fill:none;stroke:red;stroke-width:1px;stroke-linecap:butt;stroke-linejoin:miter;stroke-opacity:1" d="M 204.549,996 192.611,996 z" id="boundary" inkscape:connector-curvature="0" />
	<path style="fill:none;stroke:red;stroke-width:1px;stroke-linecap:butt;stroke-linejoin:miter;stroke-opacity:1" d="M 216.486,996 204.549,996 z" id="boundary" inkscape:connector-curvature="0" />
	<path style="fill:none;stroke:red;stroke-width:1px;stroke-linecap:butt;stroke-linejoin:miter;stroke-opacity:1" d="M 240.361,996 228.424,996 z" id="boundary" inkscape:connector-curvature="0" />
	<path style="fill:none;stroke:red;stroke-width:1px;stroke-linecap:butt;stroke-linejoin:miter;stroke-opacity:1" d="M 252.298,996 240.361,996 z" id="boundary" inkscape:connector-curvature="0" />
	<path style="fill:none;stroke:red;stroke-width:1px;stroke-linecap:butt;stroke-linejoin:miter;stroke-opacity:1" d="M 228.424,996 216.486,996 z" id="boundary" inkscape:connector-curvature="0" />
	<path style="fill:none;stroke:red;stroke-width:1px;stroke-linecap:butt;stroke-linejoin:miter;stroke-opacity:1" d="M 266.623,899.307 278.561,901.694 z" id="boundary" inkscape:connector-curvature="0" />
	<path style="fill:none;stroke:red;stroke-width:1px;stroke-linecap:butt;stroke-linejoin:miter;stroke-opacity:1" d="M 289.304,907.663 278.561,901.694 z" id="boundary" inkscape:connector-curvature="0" />
	<path style="fill:none;stroke:red;stroke-width:1px;stroke-linecap:butt;stroke-linejoin:miter;stroke-opacity:1" d="M 276.173,994.806 264.236,996 z" id="boundary" inkscape:connector-curvature="0" />
	<path style="fill:none;stroke:red;stroke-width:1px;stroke-linecap:butt;stroke-linejoin:miter;stroke-opacity:1" d="M 285.723,984.063 276.173,994.806 z" id="boundary" inkscape:connector-curvature="0" />
	<path style="fill:none;stroke:red;stroke-width:1px;stroke-linecap:butt;stroke-linejoin:miter;stroke-opacity:1" d="M 285.723,984.063 296.467,978.094 z" id="boundary" inkscape:connector-curvature="0" />
	<path style="fill:none;stroke:red;stroke-width:1px;stroke-linecap:butt;stroke-linejoin:miter;stroke-opacity:1" d="M 264.236,996 252.298,996 z" id="boundary" inkscape:connector-curvature="0" />
	<path style="fill:none;stroke:red;stroke-width:1px;stroke-linecap:butt;stroke-linejoin:miter;stroke-opacity:1" d="M 289.304,907.663 297.661,917.213 z" id="boundary" inkscape:connector-curvature="0" />
	<path style="fill:none;stroke:red;stroke-width:1px;stroke-linecap:butt;stroke-linejoin:miter;stroke-opacity:1" d="M 291.692,745.314 297.661,733.377 z" id="boundary" inkscape:connector-curvature="0" />
	<path style="fill:none;stroke:red;stroke-width:1px;stroke-linecap:butt;stroke-linejoin:miter;stroke-opacity:1" d="M 321.535,619.971 323.923,631.909 z" id="boundary" inkscape:connector-curvature="0" />
	<path style="fill:none;stroke:red;stroke-width:1px;stroke-linecap:butt;stroke-linejoin:miter;stroke-opacity:1" d="M 315.567,655.783 307.211,665.333 z" id="boundary" inkscape:connector-curvature="0" />
	<path style="fill:none;stroke:red;stroke-width:1px;stroke-linecap:butt;stroke-linejoin:miter;stroke-opacity:1" d="M 321.535,619.971 327.504,608.034 z" id="boundary" inkscape:connector-curvature="0" />
	<path style="fill:none;stroke:red;stroke-width:1px;stroke-linecap:butt;stroke-linejoin:miter;stroke-opacity:1" d="M 323.923,631.909 325.117,647.427 z" id="boundary" inkscape:connector-curvature="0" />
	<path style="fill:none;stroke:red;stroke-width:1px;stroke-linecap:butt;stroke-linejoin:miter;stroke-opacity:1" d="M 325.117,647.427 315.567,655.783 z" id="boundary" inkscape:connector-curvature="0" />
	<path style="fill:none;stroke:red;stroke-width:1px;stroke-linecap:butt;stroke-linejoin:miter;stroke-opacity:1" d="M 297.661,673.69 307.211,665.333 z" id="boundary" inkscape:connector-curvature="0" />
	<path style="fill:none;stroke:red;stroke-width:1px;stroke-linecap:butt;stroke-linejoin:miter;stroke-opacity:1" d="M 297.661,685.627 297.661,673.69 z" id="boundary" inkscape:connector-curvature="0" />
	<path style="fill:none;stroke:red;stroke-width:1px;stroke-linecap:butt;stroke-linejoin:miter;stroke-opacity:1" d="M 297.661,697.564 297.661,685.627 z" id="boundary" inkscape:connector-curvature="0" />
	<path style="fill:none;stroke:red;stroke-width:1px;stroke-linecap:butt;stroke-linejoin:miter;stroke-opacity:1" d="M 351.379,569.834 353.767,582.965 z" id="boundary" inkscape:connector-curvature="0" />
	<path style="fill:none;stroke:red;stroke-width:1px;stroke-linecap:butt;stroke-linejoin:miter;stroke-opacity:1" d="M 353.767,582.965 347.798,594.903 z" id="boundary" inkscape:connector-curvature="0" />
	<path style="fill:none;stroke:red;stroke-width:1px;stroke-linecap:butt;stroke-linejoin:miter;stroke-opacity:1" d="M 347.798,594.903 338.248,602.065 z" id="boundary" inkscape:connector-curvature="0" />
	<path style="fill:none;stroke:red;stroke-width:1px;stroke-linecap:butt;stroke-linejoin:miter;stroke-opacity:1" d="M 327.504,608.034 338.248,602.065 z" id="boundary" inkscape:connector-curvature="0" />
	<path style="fill:none;stroke:red;stroke-width:1px;stroke-linecap:butt;stroke-linejoin:miter;stroke-opacity:1" d="M 303.629,720.245 297.661,709.502 z" id="boundary" inkscape:connector-curvature="0" />
	<path style="fill:none;stroke:red;stroke-width:1px;stroke-linecap:butt;stroke-linejoin:miter;stroke-opacity:1" d="M 297.661,709.502 297.661,697.564 z" id="boundary" inkscape:connector-curvature="0" />
	<path style="fill:none;stroke:red;stroke-width:1px;stroke-linecap:butt;stroke-linejoin:miter;stroke-opacity:1" d="M 303.629,720.245 297.661,733.377 z" id="boundary" inkscape:connector-curvature="0" />
	<path style="fill:none;stroke:red;stroke-width:1px;stroke-linecap:butt;stroke-linejoin:miter;stroke-opacity:1" d="M 297.661,917.213 308.404,923.182 z" id="boundary" inkscape:connector-curvature="0" />
	<path style="fill:none;stroke:red;stroke-width:1px;stroke-linecap:butt;stroke-linejoin:miter;stroke-opacity:1" d="M 307.211,972.125 296.467,978.094 z" id="boundary" inkscape:connector-curvature="0" />
	<path style="fill:none;stroke:red;stroke-width:1px;stroke-linecap:butt;stroke-linejoin:miter;stroke-opacity:1" d="M 331.085,930.344 319.148,929.15 z" id="boundary" inkscape:connector-curvature="0" />
	<path style="fill:none;stroke:red;stroke-width:1px;stroke-linecap:butt;stroke-linejoin:miter;stroke-opacity:1" d="M 319.148,929.15 308.404,923.182 z" id="boundary" inkscape:connector-curvature="0" />
	<path style="fill:none;stroke:red;stroke-width:1px;stroke-linecap:butt;stroke-linejoin:miter;stroke-opacity:1" d="M 331.085,930.344 339.442,939.894 z" id="boundary" inkscape:connector-curvature="0" />
	<path style="fill:none;stroke:red;stroke-width:1px;stroke-linecap:butt;stroke-linejoin:miter;stroke-opacity:1" d="M 319.148,969.738 307.211,972.125 z" id="boundary" inkscape:connector-curvature="0" />
	<path style="fill:none;stroke:red;stroke-width:1px;stroke-linecap:butt;stroke-linejoin:miter;stroke-opacity:1" d="M 319.148,969.738 331.085,963.769 z" id="boundary" inkscape:connector-curvature="0" />
	<path style="fill:none;stroke:red;stroke-width:1px;stroke-linecap:butt;stroke-linejoin:miter;stroke-opacity:1" d="M 339.442,954.219 331.085,963.769 z" id="boundary" inkscape:connector-curvature="0" />
	<path style="fill:none;stroke:red;stroke-width:1px;stroke-linecap:butt;stroke-linejoin:miter;stroke-opacity:1" d="M 339.442,954.219 339.442,939.894 z" id="boundary" inkscape:connector-curvature="0" />
	<circle cx="4" cy="311.986" r="4" fill="#0" id="circle0"/>
	<circle cx="4" cy="323.923" r="4" fill="#0" id="circle1"/>
	<circle cx="4" cy="335.86" r="4" fill="#0" id="circle2"/>
	<circle cx="4" cy="347.798" r="4" fill="#0" id="circle3"/>
	<circle cx="4" cy="359.735" r="4" fill="#0" id="circle4"/>
	<circle cx="9.96871" cy="300.048" r="4" fill="#0" id="circle5"/>
	<circle cx="9.96871" cy="370.479" r="4" fill="#0" id="circle6"/>
	<circle cx="9.96871" cy="382.416" r="4" fill="#0" id="circle7"/>
	<circle cx="15.9374" cy="288.111" r="4" fill="#0" id="circle8"/>
	<circle cx="15.9374" cy="393.16" r="4" fill="#0" id="circle9"/>
	<circle cx="15.9374" cy="405.097" r="4" fill="#0" id="circle10"/>
	<circle cx="15.9374" cy="417.035" r="4" fill="#0" id="circle11"/>
	<circle cx="15.9374" cy="428.972" r="4" fill="#0" id="circle12"/>
	<circle cx="15.9374" cy="440.91" r="4" fill="#0" id="circle13"/>
	<circle cx="15.9374" cy="452.847" r="4" fill="#0" id="circle14"/>
	<circle cx="19.5187" cy="464.785" r="4" fill="#0" id="circle15"/>
	<circle cx="21.9061" cy="276.173" r="4" fill="#0" id="circle16"/>
	<circle cx="21.9061" cy="476.722" r="4" fill="#0" id="circle17"/>
	<circle cx="21.9061" cy="488.659" r="4" fill="#0" id="circle18"/>
	<circle cx="27.8748" cy="73.2371" r="4" fill="#0" id="circle19"/>
	<circle cx="27.8748" cy="85.1745" r="4" fill="#0" id="circle20"/>
	<circle cx="27.8748" cy="97.1119" r="4" fill="#0" id="circle21"/>
	<circle cx="27.8748" cy="109.049" r="4" fill="#0" id="circle22"/>
	<circle cx="27.8748" cy="120.987" r="4" fill="#0" id="circle23"/>
	<circle cx="27.8748" cy="499.403" r="4" fill="#0" id="circle24"/>
	<circle cx="27.8748" cy="511.341" r="4" fill="#0" id="circle25"/>
	<circle cx="31.4561" cy="266.623" r="4" fill="#0" id="circle26"/>
	<circle cx="33.8436" cy="61.2996" r="4" fill="#0" id="circle27"/>
	<circle cx="33.8436" cy="131.73" r="4" fill="#0" id="circle28"/>
	<circle cx="33.8436" cy="522.084" r="4" fill="#0" id="circle29"/>
	<circle cx="35.0373" cy="534.022" r="4" fill="#0" id="circle30"/>
	<circle cx="39.8123" cy="49.3622" r="4" fill="#0" id="circle31"/>
	<circle cx="39.8123" cy="142.474" r="4" fill="#0" id="circle32"/>
	<circle cx="39.8123" cy="545.959" r="4" fill="#0" id="circle33"/>
	<circle cx="41.006" cy="257.073" r="4" fill="#0" id="circle34"/>
	<circle cx="41.006" cy="557.897" r="4" fill="#0" id="circle35"/>
	<circle cx="43.3935" cy="154.412" r="4" fill="#0" id="circle36"/>
	<circle cx="45.781" cy="569.834" r="4" fill="#0" id="circle37"/>
	<circle cx="45.781" cy="581.771" r="4" fill="#0" id="circle38"/>
	<circle cx="45.781" cy="593.709" r="4" fill="#0" id="circle39"/>
	<circle cx="45.781" cy="605.646" r="4" fill="#0" id="circle40"/>
	<circle cx="46.9747" cy="617.584" r="4" fill="#0" id="circle41"/>
	<circle cx="49.3622" cy="39.8123" r="4" fill="#0" id="circle42"/>
	<circle cx="50.556" cy="248.717" r="4" fill="#0" id="circle43"/>
	<circle cx="52.9434" cy="162.768" r="4" fill="#0" id="circle44"/>
	<circle cx="56.5247" cy="625.94" r="4" fill="#0" id="circle45"/>
	<circle cx="58.9122" cy="30.2623" r="4" fill="#0" id="circle46"/>
	<circle cx="61.2996" cy="172.318" r="4" fill="#0" id="circle47"/>
	<circle cx="61.2996" cy="242.748" r="4" fill="#0" id="circle48"/>
	<circle cx="61.2996" cy="637.877" r="4" fill="#0" id="circle49"/>
	<circle cx="63.6871" cy="649.815" r="4" fill="#0" id="circle50"/>
	<circle cx="63.6871" cy="661.752" r="4" fill="#0" id="circle51"/>
	<circle cx="67.2684" cy="183.061" r="4" fill="#0" id="circle52"/>
	<circle cx="68.4621" cy="21.9061" r="4" fill="#0" id="circle53"/>
	<circle cx="69.6558" cy="672.496" r="4" fill="#0" id="circle54"/>
	<circle cx="70.8496" cy="233.199" r="4" fill="#0" id="circle55"/>
	<circle cx="75.6245" cy="192.611" r="4" fill="#0" id="circle56"/>
	<circle cx="76.8183" cy="221.261" r="4" fill="#0" id="circle57"/>
	<circle cx="76.8183" cy="682.046" r="4" fill="#0" id="circle58"/>
	<circle cx="79.2058" cy="15.9374" r="4" fill="#0" id="circle59"/>
	<circle cx="81.5933" cy="203.355" r="4" fill="#0" id="circle60"/>
	<circle cx="85.1745" cy="691.596" r="4" fill="#0" id="circle61"/>
	<circle cx="87.562" cy="801.42" r="4" fill="#0" id="circle62"/>
	<circle cx="87.562" cy="813.357" r="4" fill="#0" id="circle63"/>
	<circle cx="87.562" cy="825.295" r="4" fill="#0" id="circle64"/>
	<circle cx="89.9495" cy="9.96871" r="4" fill="#0" id="circle65"/>
	<circle cx="93.5307" cy="783.514" r="4" fill="#0" id="circle66"/>
	<circle cx="93.5307" cy="836.039" r="4" fill="#0" id="circle67"/>
	<circle cx="97.1119" cy="696.371" r="4" fill="#0" id="circle68"/>
	<circle cx="99.4994" cy="771.576" r="4" fill="#0" id="circle69"/>
	<circle cx="99.4994" cy="846.782" r="4" fill="#0" id="circle70"/>
	<circle cx="99.4994" cy="858.72" r="4" fill="#0" id="circle71"/>
	<circle cx="100.693" cy="4" r="4" fill="#0" id="circle72"/>
	<circle cx="105.468" cy="705.921" r="4" fill="#0" id="circle73"/>
	<circle cx="105.468" cy="759.639" r="4" fill="#0" id="circle74"/>
	<circle cx="105.468" cy="869.463" r="4" fill="#0" id="circle75"/>
	<circle cx="105.468" cy="926.763" r="4" fill="#0" id="circle76"/>
	<circle cx="105.468" cy="938.7" r="4" fill="#0" id="circle77"/>
	<circle cx="105.468" cy="950.638" r="4" fill="#0" id="circle78"/>
	<circle cx="105.468" cy="962.575" r="4" fill="#0" id="circle79"/>
	<circle cx="107.856" cy="881.401" r="4" fill="#0" id="circle80"/>
	<circle cx="111.437" cy="716.664" r="4" fill="#0" id="circle81"/>
	<circle cx="111.437" cy="728.602" r="4" fill="#0" id="circle82"/>
	<circle cx="111.437" cy="740.539" r="4" fill="#0" id="circle83"/>
	<circle cx="111.437" cy="908.857" r="4" fill="#0" id="circle84"/>
	<circle cx="112.631" cy="4" r="4" fill="#0" id="circle85"/>
	<circle cx="113.824" cy="892.144" r="4" fill="#0" id="circle86"/>
	<circle cx="115.018" cy="970.931" r="4" fill="#0" id="circle87"/>
	<circle cx="124.568" cy="4" r="4" fill="#0" id="circle88"/>
	<circle cx="124.568" cy="978.094" r="4" fill="#0" id="circle89"/>
	<circle cx="135.312" cy="984.063" r="4" fill="#0" id="circle90"/>
	<circle cx="136.505" cy="4" r="4" fill="#0" id="circle91"/>
	<circle cx="147.249" cy="984.063" r="4" fill="#0" id="circle92"/>
	<circle cx="148.443" cy="4" r="4" fill="#0" id="circle93"/>
	<circle cx="157.993" cy="990.031" r="4" fill="#0" id="circle94"/>
	<circle cx="160.38" cy="4" r="4" fill="#0" id="circle95"/>
	<circle cx="169.93" cy="990.031" r="4" fill="#0" id="circle96"/>
	<circle cx="172.318" cy="4" r="4" fill="#0" id="circle97"/>
	<circle cx="180.674" cy="996" r="4" fill="#0" id="circle98"/>
	<circle cx="184.255" cy="7.58123" r="4" fill="#0" id="circle99"/>
	<circle cx="192.611" cy="996" r="4" fill="#0" id="circle100"/>
	<circle cx="196.193" cy="9.96871" r="4" fill="#0" id="circle101"/>
	<circle cx="204.549" cy="996" r="4" fill="#0" id="circle102"/>
	<circle cx="208.13" cy="13.5499" r="4" fill="#0" id="circle103"/>
	<circle cx="216.486" cy="996" r="4" fill="#0" id="circle104"/>
	<circle cx="218.874" cy="19.5187" r="4" fill="#0" id="circle105"/>
	<circle cx="228.424" cy="996" r="4" fill="#0" id="circle106"/>
	<circle cx="230.811" cy="24.2936" r="4" fill="#0" id="circle107"/>
	<circle cx="237.974" cy="33.8436" r="4" fill="#0" id="circle108"/>
	<circle cx="240.361" cy="996" r="4" fill="#0" id="circle109"/>
	<circle cx="247.523" cy="41.006" r="4" fill="#0" id="circle110"/>
	<circle cx="249.911" cy="882.594" r="4" fill="#0" id="circle111"/>
	<circle cx="252.298" cy="996" r="4" fill="#0" id="circle112"/>
	<circle cx="255.88" cy="50.556" r="4" fill="#0" id="circle113"/>
	<circle cx="255.88" cy="232.005" r="4" fill="#0" id="circle114"/>
	<circle cx="255.88" cy="864.688" r="4" fill="#0" id="circle115"/>
	<circle cx="255.88" cy="893.338" r="4" fill="#0" id="circle116"/>
	<circle cx="258.267" cy="243.942" r="4" fill="#0" id="circle117"/>
	<circle cx="261.848" cy="208.13" r="4" fill="#0" id="circle118"/>
	<circle cx="261.848" cy="220.067" r="4" fill="#0" id="circle119"/>
	<circle cx="261.848" cy="852.751" r="4" fill="#0" id="circle120"/>
	<circle cx="264.236" cy="996" r="4" fill="#0" id="circle121"/>
	<circle cx="265.43" cy="58.9122" r="4" fill="#0" id="circle122"/>
	<circle cx="266.623" cy="899.307" r="4" fill="#0" id="circle123"/>
	<circle cx="267.817" cy="190.224" r="4" fill="#0" id="circle124"/>
	<circle cx="267.817" cy="252.298" r="4" fill="#0" id="circle125"/>
	<circle cx="267.817" cy="834.845" r="4" fill="#0" id="circle126"/>
	<circle cx="272.592" cy="264.236" r="4" fill="#0" id="circle127"/>
	<circle cx="273.786" cy="68.4621" r="4" fill="#0" id="circle128"/>
	<circle cx="273.786" cy="124.568" r="4" fill="#0" id="circle129"/>
	<circle cx="273.786" cy="136.505" r="4" fill="#0" id="circle130"/>
	<circle cx="273.786" cy="148.443" r="4" fill="#0" id="circle131"/>
	<circle cx="273.786" cy="160.38" r="4" fill="#0" id="circle132"/>
	<circle cx="273.786" cy="172.318" r="4" fill="#0" id="circle133"/>
	<circle cx="273.786" cy="816.939" r="4" fill="#0" id="circle134"/>
	<circle cx="276.173" cy="994.806" r="4" fill="#0" id="circle135"/>
	<circle cx="278.561" cy="901.694" r="4" fill="#0" id="circle136"/>
	<circle cx="279.755" cy="79.2058" r="4" fill="#0" id="circle137"/>
	<circle cx="279.755" cy="91.1432" r="4" fill="#0" id="circle138"/>
	<circle cx="279.755" cy="103.081" r="4" fill="#0" id="circle139"/>
	<circle cx="279.755" cy="781.126" r="4" fill="#0" id="circle140"/>
	<circle cx="279.755" cy="793.064" r="4" fill="#0" id="circle141"/>
	<circle cx="279.755" cy="805.001" r="4" fill="#0" id="circle142"/>
	<circle cx="282.142" cy="272.592" r="4" fill="#0" id="circle143"/>
	<circle cx="285.723" cy="284.529" r="4" fill="#0" id="circle144"/>
	<circle cx="285.723" cy="296.467" r="4" fill="#0" id="circle145"/>
	<circle cx="285.723" cy="757.252" r="4" fill="#0" id="circle146"/>
	<circle cx="285.723" cy="769.189" r="4" fill="#0" id="circle147"/>
	<circle cx="285.723" cy="984.063" r="4" fill="#0" id="circle148"/>
	<circle cx="289.304" cy="907.663" r="4" fill="#0" id="circle149"/>
	<circle cx="291.692" cy="307.211" r="4" fill="#0" id="circle150"/>
	<circle cx="291.692" cy="319.148" r="4" fill="#0" id="circle151"/>
	<circle cx="291.692" cy="375.254" r="4" fill="#0" id="circle152"/>
	<circle cx="291.692" cy="387.191" r="4" fill="#0" id="circle153"/>
	<circle cx="291.692" cy="745.314" r="4" fill="#0" id="circle154"/>
	<circle cx="296.467" cy="978.094" r="4" fill="#0" id="circle155"/>
	<circle cx="297.661" cy="329.892" r="4" fill="#0" id="circle156"/>
	<circle cx="297.661" cy="341.829" r="4" fill="#0" id="circle157"/>
	<circle cx="297.661" cy="363.316" r="4" fill="#0" id="circle158"/>
	<circle cx="297.661" cy="397.935" r="4" fill="#0" id="circle159"/>
	<circle cx="297.661" cy="673.69" r="4" fill="#0" id="circle160"/>
	<circle cx="297.661" cy="685.627" r="4" fill="#0" id="circle161"/>
	<circle cx="297.661" cy="697.564" r="4" fill="#0" id="circle162"/>
	<circle cx="297.661" cy="709.502" r="4" fill="#0" id="circle163"/>
	<circle cx="297.661" cy="733.377" r="4" fill="#0" id="circle164"/>
	<circle cx="297.661" cy="917.213" r="4" fill="#0" id="circle165"/>
	<circle cx="303.629" cy="352.573" r="4" fill="#0" id="circle166"/>
	<circle cx="303.629" cy="408.679" r="4" fill="#0" id="circle167"/>
	<circle cx="303.629" cy="720.245" r="4" fill="#0" id="circle168"/>
	<circle cx="307.211" cy="665.333" r="4" fill="#0" id="circle169"/>
	<circle cx="307.211" cy="972.125" r="4" fill="#0" id="circle170"/>
	<circle cx="308.404" cy="923.182" r="4" fill="#0" id="circle171"/>
	<circle cx="309.598" cy="419.422" r="4" fill="#0" id="circle172"/>
	<circle cx="314.373" cy="431.36" r="4" fill="#0" id="circle173"/>
	<circle cx="315.567" cy="443.297" r="4" fill="#0" id="circle174"/>
	<circle cx="315.567" cy="655.783" r="4" fill="#0" id="circle175"/>
	<circle cx="319.148" cy="929.15" r="4" fill="#0" id="circle176"/>
	<circle cx="319.148" cy="969.738" r="4" fill="#0" id="circle177"/>
	<circle cx="320.342" cy="455.235" r="4" fill="#0" id="circle178"/>
	<circle cx="321.535" cy="467.172" r="4" fill="#0" id="circle179"/>
	<circle cx="321.535" cy="619.971" r="4" fill="#0" id="circle180"/>
	<circle cx="323.923" cy="631.909" r="4" fill="#0" id="circle181"/>
	<circle cx="325.117" cy="647.427" r="4" fill="#0" id="circle182"/>
	<circle cx="327.504" cy="477.916" r="4" fill="#0" id="circle183"/>
	<circle cx="327.504" cy="608.034" r="4" fill="#0" id="circle184"/>
	<circle cx="331.085" cy="489.853" r="4" fill="#0" id="circle185"/>
	<circle cx="331.085" cy="930.344" r="4" fill="#0" id="circle186"/>
	<circle cx="331.085" cy="963.769" r="4" fill="#0" id="circle187"/>
	<circle cx="333.473" cy="501.791" r="4" fill="#0" id="circle188"/>
	<circle cx="338.248" cy="602.065" r="4" fill="#0" id="circle189"/>
	<circle cx="339.442" cy="512.534" r="4" fill="#0" id="circle190"/>
	<circle cx="339.442" cy="524.472" r="4" fill="#0" id="circle191"/>
	<circle cx="339.442" cy="939.894" r="4" fill="#0" id="circle192"/>
	<circle cx="339.442" cy="954.219" r="4" fill="#0" id="circle193"/>
	<circle cx="345.41" cy="535.215" r="4" fill="#0" id="circle194"/>
	<circle cx="345.41" cy="547.153" r="4" fill="#0" id="circle195"/>
	<circle cx="347.798" cy="594.903" r="4" fill="#0" id="circle196"/>
	<circle cx="351.379" cy="557.897" r="4" fill="#0" id="circle197"/>
	<circle cx="351.379" cy="569.834" r="4" fill="#0" id="circle198"/>
	<circle cx="353.767" cy="582.965" r="4" fill="#0" id="circle199"/>
	</g>
</svg>