<?xml version="1.0" encoding="UTF-8" standalone="no"?>
<!-- Created with CurveBenchmark -->
<svg
	xmlns:dc="http://purl.org/dc/elements/1.1/"
	xmlns:cc="http://creativecommons.org/ns#"
	xmlns:rdf="http://www.w3.org/1999/02/22-rdf-syntax-ns#"
	xmlns:svg="http://www.w3.org/2000/svg"
	xmlns="http://www.w3.org/2000/svg"
	xmlns:sodipodi="http://sodipodi.sourceforge.net/DTD/sodipodi-0.dtd"
	xmlns:inkscape="http://www.inkscape.org/namespaces/inkscape"
	width="1000"
	height="1000"
	id="svg2"
	version="1.1"
	sodipodi:docname="manifold/gathang-brick-01.png.txt">
<defs
	id="defs4" />
<metadata
	id="metadata7">
	<rdf:RDF>
		<cc:Work
			rdf:about="">
			<dc:format>image/svg+xml</dc:format>
			<dc:type
				rdf:resource="http://purl.org/dc/dcmitype/StillImage" />
			<dc:title></dc:title>
		</cc:Work>
	</rdf:RDF>
</metadata>
<g
	inkscape:label="Layer 1"
	inkscape:groupmode="layer"
	id="layer1">
	<path style="fill:none;stroke:red;stroke-width:1px;stroke-linecap:butt;stroke-linejoin:miter;stroke-opacity:1" d="M 120.257,19.2469 129.787,18.2939 z" id="boundary" inkscape:connector-curvature="0" />
	<path style="fill:none;stroke:red;stroke-width:1px;stroke-linecap:butt;stroke-linejoin:miter;stroke-opacity:1" d="M 139.316,18.2939 129.787,18.2939 z" id="boundary" inkscape:connector-curvature="0" />
	<path style="fill:none;stroke:red;stroke-width:1px;stroke-linecap:butt;stroke-linejoin:miter;stroke-opacity:1" d="M 147.892,13.5293 139.316,18.2939 z" id="boundary" inkscape:connector-curvature="0" />
	<path style="fill:none;stroke:red;stroke-width:1px;stroke-linecap:butt;stroke-linejoin:miter;stroke-opacity:1" d="M 147.892,13.5293 157.422,13.5293 z" id="boundary" inkscape:connector-curvature="0" />
	<path style="fill:none;stroke:red;stroke-width:1px;stroke-linecap:butt;stroke-linejoin:miter;stroke-opacity:1" d="M 166.951,10.6705 157.422,13.5293 z" id="boundary" inkscape:connector-curvature="0" />
	<path style="fill:none;stroke:red;stroke-width:1px;stroke-linecap:butt;stroke-linejoin:miter;stroke-opacity:1" d="M 99.293,44.0231 94.5283,35.4467 z" id="boundary" inkscape:connector-curvature="0" />
	<path style="fill:none;stroke:red;stroke-width:1px;stroke-linecap:butt;stroke-linejoin:miter;stroke-opacity:1" d="M 94.5283,35.4467 102.152,27.8232 z" id="boundary" inkscape:connector-curvature="0" />
	<path style="fill:none;stroke:red;stroke-width:1px;stroke-linecap:butt;stroke-linejoin:miter;stroke-opacity:1" d="M 110.728,23.0586 120.257,19.2469 z" id="boundary" inkscape:connector-curvature="0" />
	<path style="fill:none;stroke:red;stroke-width:1px;stroke-linecap:butt;stroke-linejoin:miter;stroke-opacity:1" d="M 102.152,27.8232 110.728,23.0586 z" id="boundary" inkscape:connector-curvature="0" />
	<path style="fill:none;stroke:red;stroke-width:1px;stroke-linecap:butt;stroke-linejoin:miter;stroke-opacity:1" d="M 186.01,8.76465 176.48,8.76465 z" id="boundary" inkscape:connector-curvature="0" />
	<path style="fill:none;stroke:red;stroke-width:1px;stroke-linecap:butt;stroke-linejoin:miter;stroke-opacity:1" d="M 205.068,8.76465 213.645,4 z" id="boundary" inkscape:connector-curvature="0" />
	<path style="fill:none;stroke:red;stroke-width:1px;stroke-linecap:butt;stroke-linejoin:miter;stroke-opacity:1" d="M 213.645,4 223.174,4 z" id="boundary" inkscape:connector-curvature="0" />
	<path style="fill:none;stroke:red;stroke-width:1px;stroke-linecap:butt;stroke-linejoin:miter;stroke-opacity:1" d="M 223.174,4 232.703,4 z" id="boundary" inkscape:connector-curvature="0" />
	<path style="fill:none;stroke:red;stroke-width:1px;stroke-linecap:butt;stroke-linejoin:miter;stroke-opacity:1" d="M 166.951,10.6705 176.48,8.76465 z" id="boundary" inkscape:connector-curvature="0" />
	<path style="fill:none;stroke:red;stroke-width:1px;stroke-linecap:butt;stroke-linejoin:miter;stroke-opacity:1" d="M 186.01,8.76465 195.539,8.76465 z" id="boundary" inkscape:connector-curvature="0" />
	<path style="fill:none;stroke:red;stroke-width:1px;stroke-linecap:butt;stroke-linejoin:miter;stroke-opacity:1" d="M 205.068,8.76465 195.539,8.76465 z" id="boundary" inkscape:connector-curvature="0" />
	<path style="fill:none;stroke:red;stroke-width:1px;stroke-linecap:butt;stroke-linejoin:miter;stroke-opacity:1" d="M 76.4227,144.081 84.0461,137.41 z" id="boundary" inkscape:connector-curvature="0" />
	<path style="fill:none;stroke:red;stroke-width:1px;stroke-linecap:butt;stroke-linejoin:miter;stroke-opacity:1" d="M 84.0461,137.41 92.6225,132.646 z" id="boundary" inkscape:connector-curvature="0" />
	<path style="fill:none;stroke:red;stroke-width:1px;stroke-linecap:butt;stroke-linejoin:miter;stroke-opacity:1" d="M 92.6225,132.646 97.3871,123.116 z" id="boundary" inkscape:connector-curvature="0" />
	<path style="fill:none;stroke:red;stroke-width:1px;stroke-linecap:butt;stroke-linejoin:miter;stroke-opacity:1" d="M 97.3871,123.116 106.916,118.352 z" id="boundary" inkscape:connector-curvature="0" />
	<path style="fill:none;stroke:red;stroke-width:1px;stroke-linecap:butt;stroke-linejoin:miter;stroke-opacity:1" d="M 69.7522,151.704 76.4227,144.081 z" id="boundary" inkscape:connector-curvature="0" />
	<path style="fill:none;stroke:red;stroke-width:1px;stroke-linecap:butt;stroke-linejoin:miter;stroke-opacity:1" d="M 62.1287,158.375 69.7522,151.704 z" id="boundary" inkscape:connector-curvature="0" />
	<path style="fill:none;stroke:red;stroke-width:1px;stroke-linecap:butt;stroke-linejoin:miter;stroke-opacity:1" d="M 62.1287,158.375 54.5053,165.998 z" id="boundary" inkscape:connector-curvature="0" />
	<path style="fill:none;stroke:red;stroke-width:1px;stroke-linecap:butt;stroke-linejoin:miter;stroke-opacity:1" d="M 46.8818,173.622 54.5053,165.998 z" id="boundary" inkscape:connector-curvature="0" />
	<path style="fill:none;stroke:red;stroke-width:1px;stroke-linecap:butt;stroke-linejoin:miter;stroke-opacity:1" d="M 99.293,53.5524 99.293,63.0817 z" id="boundary" inkscape:connector-curvature="0" />
	<path style="fill:none;stroke:red;stroke-width:1px;stroke-linecap:butt;stroke-linejoin:miter;stroke-opacity:1" d="M 99.293,53.5524 99.293,44.0231 z" id="boundary" inkscape:connector-curvature="0" />
	<path style="fill:none;stroke:red;stroke-width:1px;stroke-linecap:butt;stroke-linejoin:miter;stroke-opacity:1" d="M 99.293,63.0817 104.058,71.658 z" id="boundary" inkscape:connector-curvature="0" />
	<path style="fill:none;stroke:red;stroke-width:1px;stroke-linecap:butt;stroke-linejoin:miter;stroke-opacity:1" d="M 104.058,71.658 106.916,81.1873 z" id="boundary" inkscape:connector-curvature="0" />
	<path style="fill:none;stroke:red;stroke-width:1px;stroke-linecap:butt;stroke-linejoin:miter;stroke-opacity:1" d="M 106.916,81.1873 111.681,89.7637 z" id="boundary" inkscape:connector-curvature="0" />
	<path style="fill:none;stroke:red;stroke-width:1px;stroke-linecap:butt;stroke-linejoin:miter;stroke-opacity:1" d="M 115.493,99.293 116.446,113.587 z" id="boundary" inkscape:connector-curvature="0" />
	<path style="fill:none;stroke:red;stroke-width:1px;stroke-linecap:butt;stroke-linejoin:miter;stroke-opacity:1" d="M 116.446,113.587 106.916,118.352 z" id="boundary" inkscape:connector-curvature="0" />
	<path style="fill:none;stroke:red;stroke-width:1px;stroke-linecap:butt;stroke-linejoin:miter;stroke-opacity:1" d="M 111.681,89.7637 115.493,99.293 z" id="boundary" inkscape:connector-curvature="0" />
	<path style="fill:none;stroke:red;stroke-width:1px;stroke-linecap:butt;stroke-linejoin:miter;stroke-opacity:1" d="M 46.8818,173.622 37.3525,178.386 z" id="boundary" inkscape:connector-curvature="0" />
	<path style="fill:none;stroke:red;stroke-width:1px;stroke-linecap:butt;stroke-linejoin:miter;stroke-opacity:1" d="M 242.232,4 251.762,4 z" id="boundary" inkscape:connector-curvature="0" />
	<path style="fill:none;stroke:red;stroke-width:1px;stroke-linecap:butt;stroke-linejoin:miter;stroke-opacity:1" d="M 251.762,4 260.338,8.76465 z" id="boundary" inkscape:connector-curvature="0" />
	<path style="fill:none;stroke:red;stroke-width:1px;stroke-linecap:butt;stroke-linejoin:miter;stroke-opacity:1" d="M 268.915,13.5293 260.338,8.76465 z" id="boundary" inkscape:connector-curvature="0" />
	<path style="fill:none;stroke:red;stroke-width:1px;stroke-linecap:butt;stroke-linejoin:miter;stroke-opacity:1" d="M 268.915,13.5293 275.585,21.1527 z" id="boundary" inkscape:connector-curvature="0" />
	<path style="fill:none;stroke:red;stroke-width:1px;stroke-linecap:butt;stroke-linejoin:miter;stroke-opacity:1" d="M 281.303,28.7762 286.067,37.3525 z" id="boundary" inkscape:connector-curvature="0" />
	<path style="fill:none;stroke:red;stroke-width:1px;stroke-linecap:butt;stroke-linejoin:miter;stroke-opacity:1" d="M 281.303,28.7762 275.585,21.1527 z" id="boundary" inkscape:connector-curvature="0" />
	<path style="fill:none;stroke:red;stroke-width:1px;stroke-linecap:butt;stroke-linejoin:miter;stroke-opacity:1" d="M 286.067,37.3525 290.832,45.9289 z" id="boundary" inkscape:connector-curvature="0" />
	<path style="fill:none;stroke:red;stroke-width:1px;stroke-linecap:butt;stroke-linejoin:miter;stroke-opacity:1" d="M 473.794,46.8818 483.324,46.8818 z" id="boundary" inkscape:connector-curvature="0" />
	<path style="fill:none;stroke:red;stroke-width:1px;stroke-linecap:butt;stroke-linejoin:miter;stroke-opacity:1" d="M 465.218,51.6465 473.794,46.8818 z" id="boundary" inkscape:connector-curvature="0" />
	<path style="fill:none;stroke:red;stroke-width:1px;stroke-linecap:butt;stroke-linejoin:miter;stroke-opacity:1" d="M 510.959,42.1172 502.382,46.8818 z" id="boundary" inkscape:connector-curvature="0" />
	<path style="fill:none;stroke:red;stroke-width:1px;stroke-linecap:butt;stroke-linejoin:miter;stroke-opacity:1" d="M 502.382,46.8818 492.853,46.8818 z" id="boundary" inkscape:connector-curvature="0" />
	<path style="fill:none;stroke:red;stroke-width:1px;stroke-linecap:butt;stroke-linejoin:miter;stroke-opacity:1" d="M 492.853,46.8818 483.324,46.8818 z" id="boundary" inkscape:connector-curvature="0" />
	<path style="fill:none;stroke:red;stroke-width:1px;stroke-linecap:butt;stroke-linejoin:miter;stroke-opacity:1" d="M 295.597,54.5053 290.832,45.9289 z" id="boundary" inkscape:connector-curvature="0" />
	<path style="fill:none;stroke:red;stroke-width:1px;stroke-linecap:butt;stroke-linejoin:miter;stroke-opacity:1" d="M 465.218,51.6465 456.642,56.4111 z" id="boundary" inkscape:connector-curvature="0" />
	<path style="fill:none;stroke:red;stroke-width:1px;stroke-linecap:butt;stroke-linejoin:miter;stroke-opacity:1" d="M 456.642,56.4111 447.112,56.4111 z" id="boundary" inkscape:connector-curvature="0" />
	<path style="fill:none;stroke:red;stroke-width:1px;stroke-linecap:butt;stroke-linejoin:miter;stroke-opacity:1" d="M 295.597,54.5053 299.408,64.0346 z" id="boundary" inkscape:connector-curvature="0" />
	<path style="fill:none;stroke:red;stroke-width:1px;stroke-linecap:butt;stroke-linejoin:miter;stroke-opacity:1" d="M 299.408,64.0346 305.126,71.658 z" id="boundary" inkscape:connector-curvature="0" />
	<path style="fill:none;stroke:red;stroke-width:1px;stroke-linecap:butt;stroke-linejoin:miter;stroke-opacity:1" d="M 314.655,75.4697 305.126,71.658 z" id="boundary" inkscape:connector-curvature="0" />
	<path style="fill:none;stroke:red;stroke-width:1px;stroke-linecap:butt;stroke-linejoin:miter;stroke-opacity:1" d="M 352.772,70.7051 343.243,72.611 z" id="boundary" inkscape:connector-curvature="0" />
	<path style="fill:none;stroke:red;stroke-width:1px;stroke-linecap:butt;stroke-linejoin:miter;stroke-opacity:1" d="M 362.302,70.7051 352.772,70.7051 z" id="boundary" inkscape:connector-curvature="0" />
	<path style="fill:none;stroke:red;stroke-width:1px;stroke-linecap:butt;stroke-linejoin:miter;stroke-opacity:1" d="M 324.184,75.4697 314.655,75.4697 z" id="boundary" inkscape:connector-curvature="0" />
	<path style="fill:none;stroke:red;stroke-width:1px;stroke-linecap:butt;stroke-linejoin:miter;stroke-opacity:1" d="M 333.714,75.4697 343.243,72.611 z" id="boundary" inkscape:connector-curvature="0" />
	<path style="fill:none;stroke:red;stroke-width:1px;stroke-linecap:butt;stroke-linejoin:miter;stroke-opacity:1" d="M 333.714,75.4697 324.184,75.4697 z" id="boundary" inkscape:connector-curvature="0" />
	<path style="fill:none;stroke:red;stroke-width:1px;stroke-linecap:butt;stroke-linejoin:miter;stroke-opacity:1" d="M 362.302,70.7051 371.831,70.7051 z" id="boundary" inkscape:connector-curvature="0" />
	<path style="fill:none;stroke:red;stroke-width:1px;stroke-linecap:butt;stroke-linejoin:miter;stroke-opacity:1" d="M 419.477,65.9404 409.948,65.9404 z" id="boundary" inkscape:connector-curvature="0" />
	<path style="fill:none;stroke:red;stroke-width:1px;stroke-linecap:butt;stroke-linejoin:miter;stroke-opacity:1" d="M 428.054,61.1758 419.477,65.9404 z" id="boundary" inkscape:connector-curvature="0" />
	<path style="fill:none;stroke:red;stroke-width:1px;stroke-linecap:butt;stroke-linejoin:miter;stroke-opacity:1" d="M 428.054,61.1758 437.583,59.2699 z" id="boundary" inkscape:connector-curvature="0" />
	<path style="fill:none;stroke:red;stroke-width:1px;stroke-linecap:butt;stroke-linejoin:miter;stroke-opacity:1" d="M 447.112,56.4111 437.583,59.2699 z" id="boundary" inkscape:connector-curvature="0" />
	<path style="fill:none;stroke:red;stroke-width:1px;stroke-linecap:butt;stroke-linejoin:miter;stroke-opacity:1" d="M 409.948,65.9404 400.419,67.8463 z" id="boundary" inkscape:connector-curvature="0" />
	<path style="fill:none;stroke:red;stroke-width:1px;stroke-linecap:butt;stroke-linejoin:miter;stroke-opacity:1" d="M 381.36,70.7051 371.831,70.7051 z" id="boundary" inkscape:connector-curvature="0" />
	<path style="fill:none;stroke:red;stroke-width:1px;stroke-linecap:butt;stroke-linejoin:miter;stroke-opacity:1" d="M 390.89,70.7051 400.419,67.8463 z" id="boundary" inkscape:connector-curvature="0" />
	<path style="fill:none;stroke:red;stroke-width:1px;stroke-linecap:butt;stroke-linejoin:miter;stroke-opacity:1" d="M 390.89,70.7051 381.36,70.7051 z" id="boundary" inkscape:connector-curvature="0" />
	<path style="fill:none;stroke:red;stroke-width:1px;stroke-linecap:butt;stroke-linejoin:miter;stroke-opacity:1" d="M 232.703,4 242.232,4 z" id="boundary" inkscape:connector-curvature="0" />
	<path style="fill:none;stroke:red;stroke-width:1px;stroke-linecap:butt;stroke-linejoin:miter;stroke-opacity:1" d="M 4,202.209 11.6234,194.586 z" id="boundary" inkscape:connector-curvature="0" />
	<path style="fill:none;stroke:red;stroke-width:1px;stroke-linecap:butt;stroke-linejoin:miter;stroke-opacity:1" d="M 20.1998,189.821 27.8232,183.151 z" id="boundary" inkscape:connector-curvature="0" />
	<path style="fill:none;stroke:red;stroke-width:1px;stroke-linecap:butt;stroke-linejoin:miter;stroke-opacity:1" d="M 20.1998,189.821 11.6234,194.586 z" id="boundary" inkscape:connector-curvature="0" />
	<path style="fill:none;stroke:red;stroke-width:1px;stroke-linecap:butt;stroke-linejoin:miter;stroke-opacity:1" d="M 4,211.739 11.6234,218.409 z" id="boundary" inkscape:connector-curvature="0" />
	<path style="fill:none;stroke:red;stroke-width:1px;stroke-linecap:butt;stroke-linejoin:miter;stroke-opacity:1" d="M 4,211.739 4,202.209 z" id="boundary" inkscape:connector-curvature="0" />
	<path style="fill:none;stroke:red;stroke-width:1px;stroke-linecap:butt;stroke-linejoin:miter;stroke-opacity:1" d="M 18.2939,226.033 23.0586,234.609 z" id="boundary" inkscape:connector-curvature="0" />
	<path style="fill:none;stroke:red;stroke-width:1px;stroke-linecap:butt;stroke-linejoin:miter;stroke-opacity:1" d="M 11.6234,218.409 18.2939,226.033 z" id="boundary" inkscape:connector-curvature="0" />
	<path style="fill:none;stroke:red;stroke-width:1px;stroke-linecap:butt;stroke-linejoin:miter;stroke-opacity:1" d="M 27.8232,183.151 37.3525,178.386 z" id="boundary" inkscape:connector-curvature="0" />
	<path style="fill:none;stroke:red;stroke-width:1px;stroke-linecap:butt;stroke-linejoin:miter;stroke-opacity:1" d="M 27.8232,243.185 30.682,252.715 z" id="boundary" inkscape:connector-curvature="0" />
	<path style="fill:none;stroke:red;stroke-width:1px;stroke-linecap:butt;stroke-linejoin:miter;stroke-opacity:1" d="M 23.0586,234.609 27.8232,243.185 z" id="boundary" inkscape:connector-curvature="0" />
	<path style="fill:none;stroke:red;stroke-width:1px;stroke-linecap:butt;stroke-linejoin:miter;stroke-opacity:1" d="M 35.4467,261.291 30.682,252.715 z" id="boundary" inkscape:connector-curvature="0" />
	<path style="fill:none;stroke:red;stroke-width:1px;stroke-linecap:butt;stroke-linejoin:miter;stroke-opacity:1" d="M 35.4467,261.291 39.2584,270.82 z" id="boundary" inkscape:connector-curvature="0" />
	<path style="fill:none;stroke:red;stroke-width:1px;stroke-linecap:butt;stroke-linejoin:miter;stroke-opacity:1" d="M 39.2584,270.82 44.0231,279.397 z" id="boundary" inkscape:connector-curvature="0" />
	<path style="fill:none;stroke:red;stroke-width:1px;stroke-linecap:butt;stroke-linejoin:miter;stroke-opacity:1" d="M 44.0231,279.397 47.8348,288.926 z" id="boundary" inkscape:connector-curvature="0" />
	<path style="fill:none;stroke:red;stroke-width:1px;stroke-linecap:butt;stroke-linejoin:miter;stroke-opacity:1" d="M 132.646,305.126 123.116,305.126 z" id="boundary" inkscape:connector-curvature="0" />
	<path style="fill:none;stroke:red;stroke-width:1px;stroke-linecap:butt;stroke-linejoin:miter;stroke-opacity:1" d="M 47.8348,288.926 52.5994,297.502 z" id="boundary" inkscape:connector-curvature="0" />
	<path style="fill:none;stroke:red;stroke-width:1px;stroke-linecap:butt;stroke-linejoin:miter;stroke-opacity:1" d="M 59.2699,305.126 52.5994,297.502 z" id="boundary" inkscape:connector-curvature="0" />
	<path style="fill:none;stroke:red;stroke-width:1px;stroke-linecap:butt;stroke-linejoin:miter;stroke-opacity:1" d="M 85.952,309.89 76.4227,309.89 z" id="boundary" inkscape:connector-curvature="0" />
	<path style="fill:none;stroke:red;stroke-width:1px;stroke-linecap:butt;stroke-linejoin:miter;stroke-opacity:1" d="M 76.4227,309.89 66.8934,311.796 z" id="boundary" inkscape:connector-curvature="0" />
	<path style="fill:none;stroke:red;stroke-width:1px;stroke-linecap:butt;stroke-linejoin:miter;stroke-opacity:1" d="M 66.8934,311.796 59.2699,305.126 z" id="boundary" inkscape:connector-curvature="0" />
	<path style="fill:none;stroke:red;stroke-width:1px;stroke-linecap:butt;stroke-linejoin:miter;stroke-opacity:1" d="M 85.952,309.89 95.4813,309.89 z" id="boundary" inkscape:connector-curvature="0" />
	<path style="fill:none;stroke:red;stroke-width:1px;stroke-linecap:butt;stroke-linejoin:miter;stroke-opacity:1" d="M 95.4813,309.89 105.011,309.89 z" id="boundary" inkscape:connector-curvature="0" />
	<path style="fill:none;stroke:red;stroke-width:1px;stroke-linecap:butt;stroke-linejoin:miter;stroke-opacity:1" d="M 113.587,305.126 105.011,309.89 z" id="boundary" inkscape:connector-curvature="0" />
	<path style="fill:none;stroke:red;stroke-width:1px;stroke-linecap:butt;stroke-linejoin:miter;stroke-opacity:1" d="M 113.587,305.126 123.116,305.126 z" id="boundary" inkscape:connector-curvature="0" />
	<path style="fill:none;stroke:red;stroke-width:1px;stroke-linecap:butt;stroke-linejoin:miter;stroke-opacity:1" d="M 188.868,295.597 198.398,295.597 z" id="boundary" inkscape:connector-curvature="0" />
	<path style="fill:none;stroke:red;stroke-width:1px;stroke-linecap:butt;stroke-linejoin:miter;stroke-opacity:1" d="M 179.339,295.597 170.763,300.361 z" id="boundary" inkscape:connector-curvature="0" />
	<path style="fill:none;stroke:red;stroke-width:1px;stroke-linecap:butt;stroke-linejoin:miter;stroke-opacity:1" d="M 170.763,300.361 161.233,302.267 z" id="boundary" inkscape:connector-curvature="0" />
	<path style="fill:none;stroke:red;stroke-width:1px;stroke-linecap:butt;stroke-linejoin:miter;stroke-opacity:1" d="M 188.868,295.597 179.339,295.597 z" id="boundary" inkscape:connector-curvature="0" />
	<path style="fill:none;stroke:red;stroke-width:1px;stroke-linecap:butt;stroke-linejoin:miter;stroke-opacity:1" d="M 161.233,302.267 151.704,305.126 z" id="boundary" inkscape:connector-curvature="0" />
	<path style="fill:none;stroke:red;stroke-width:1px;stroke-linecap:butt;stroke-linejoin:miter;stroke-opacity:1" d="M 151.704,305.126 142.175,305.126 z" id="boundary" inkscape:connector-curvature="0" />
	<path style="fill:none;stroke:red;stroke-width:1px;stroke-linecap:butt;stroke-linejoin:miter;stroke-opacity:1" d="M 142.175,305.126 132.646,305.126 z" id="boundary" inkscape:connector-curvature="0" />
	<path style="fill:none;stroke:red;stroke-width:1px;stroke-linecap:butt;stroke-linejoin:miter;stroke-opacity:1" d="M 198.398,295.597 207.927,295.597 z" id="boundary" inkscape:connector-curvature="0" />
	<path style="fill:none;stroke:red;stroke-width:1px;stroke-linecap:butt;stroke-linejoin:miter;stroke-opacity:1" d="M 207.927,295.597 216.503,300.361 z" id="boundary" inkscape:connector-curvature="0" />
	<path style="fill:none;stroke:red;stroke-width:1px;stroke-linecap:butt;stroke-linejoin:miter;stroke-opacity:1" d="M 216.503,300.361 226.033,300.361 z" id="boundary" inkscape:connector-curvature="0" />
	<path style="fill:none;stroke:red;stroke-width:1px;stroke-linecap:butt;stroke-linejoin:miter;stroke-opacity:1" d="M 226.033,300.361 233.656,307.032 z" id="boundary" inkscape:connector-curvature="0" />
	<path style="fill:none;stroke:red;stroke-width:1px;stroke-linecap:butt;stroke-linejoin:miter;stroke-opacity:1" d="M 233.656,307.032 242.232,311.796 z" id="boundary" inkscape:connector-curvature="0" />
	<path style="fill:none;stroke:red;stroke-width:1px;stroke-linecap:butt;stroke-linejoin:miter;stroke-opacity:1" d="M 251.762,314.655 261.291,314.655 z" id="boundary" inkscape:connector-curvature="0" />
	<path style="fill:none;stroke:red;stroke-width:1px;stroke-linecap:butt;stroke-linejoin:miter;stroke-opacity:1" d="M 261.291,314.655 267.009,322.279 z" id="boundary" inkscape:connector-curvature="0" />
	<path style="fill:none;stroke:red;stroke-width:1px;stroke-linecap:butt;stroke-linejoin:miter;stroke-opacity:1" d="M 251.762,314.655 242.232,311.796 z" id="boundary" inkscape:connector-curvature="0" />
	<path style="fill:none;stroke:red;stroke-width:1px;stroke-linecap:butt;stroke-linejoin:miter;stroke-opacity:1" d="M 267.009,322.279 276.538,326.09 z" id="boundary" inkscape:connector-curvature="0" />
	<path style="fill:none;stroke:red;stroke-width:1px;stroke-linecap:butt;stroke-linejoin:miter;stroke-opacity:1" d="M 276.538,326.09 283.208,333.714 z" id="boundary" inkscape:connector-curvature="0" />
	<path style="fill:none;stroke:red;stroke-width:1px;stroke-linecap:butt;stroke-linejoin:miter;stroke-opacity:1" d="M 283.208,333.714 292.738,337.525 z" id="boundary" inkscape:connector-curvature="0" />
	<path style="fill:none;stroke:red;stroke-width:1px;stroke-linecap:butt;stroke-linejoin:miter;stroke-opacity:1" d="M 302.267,338.478 310.843,343.243 z" id="boundary" inkscape:connector-curvature="0" />
	<path style="fill:none;stroke:red;stroke-width:1px;stroke-linecap:butt;stroke-linejoin:miter;stroke-opacity:1" d="M 292.738,337.525 302.267,338.478 z" id="boundary" inkscape:connector-curvature="0" />
	<path style="fill:none;stroke:red;stroke-width:1px;stroke-linecap:butt;stroke-linejoin:miter;stroke-opacity:1" d="M 310.843,343.243 319.42,348.008 z" id="boundary" inkscape:connector-curvature="0" />
	<path style="fill:none;stroke:red;stroke-width:1px;stroke-linecap:butt;stroke-linejoin:miter;stroke-opacity:1" d="M 319.42,348.008 327.996,352.772 z" id="boundary" inkscape:connector-curvature="0" />
	<path style="fill:none;stroke:red;stroke-width:1px;stroke-linecap:butt;stroke-linejoin:miter;stroke-opacity:1" d="M 343.243,365.16 336.573,357.537 z" id="boundary" inkscape:connector-curvature="0" />
	<path style="fill:none;stroke:red;stroke-width:1px;stroke-linecap:butt;stroke-linejoin:miter;stroke-opacity:1" d="M 352.772,368.972 343.243,365.16 z" id="boundary" inkscape:connector-curvature="0" />
	<path style="fill:none;stroke:red;stroke-width:1px;stroke-linecap:butt;stroke-linejoin:miter;stroke-opacity:1" d="M 336.573,357.537 327.996,352.772 z" id="boundary" inkscape:connector-curvature="0" />
	<path style="fill:none;stroke:red;stroke-width:1px;stroke-linecap:butt;stroke-linejoin:miter;stroke-opacity:1" d="M 352.772,368.972 359.443,376.596 z" id="boundary" inkscape:connector-curvature="0" />
	<path style="fill:none;stroke:red;stroke-width:1px;stroke-linecap:butt;stroke-linejoin:miter;stroke-opacity:1" d="M 368.972,380.407 359.443,376.596 z" id="boundary" inkscape:connector-curvature="0" />
	<path style="fill:none;stroke:red;stroke-width:1px;stroke-linecap:butt;stroke-linejoin:miter;stroke-opacity:1" d="M 368.972,380.407 377.549,385.172 z" id="boundary" inkscape:connector-curvature="0" />
	<path style="fill:none;stroke:red;stroke-width:1px;stroke-linecap:butt;stroke-linejoin:miter;stroke-opacity:1" d="M 387.078,386.125 377.549,385.172 z" id="boundary" inkscape:connector-curvature="0" />
	<path style="fill:none;stroke:red;stroke-width:1px;stroke-linecap:butt;stroke-linejoin:miter;stroke-opacity:1" d="M 414.713,381.36 424.242,381.36 z" id="boundary" inkscape:connector-curvature="0" />
	<path style="fill:none;stroke:red;stroke-width:1px;stroke-linecap:butt;stroke-linejoin:miter;stroke-opacity:1" d="M 396.607,386.125 387.078,386.125 z" id="boundary" inkscape:connector-curvature="0" />
	<path style="fill:none;stroke:red;stroke-width:1px;stroke-linecap:butt;stroke-linejoin:miter;stroke-opacity:1" d="M 405.183,381.36 396.607,386.125 z" id="boundary" inkscape:connector-curvature="0" />
	<path style="fill:none;stroke:red;stroke-width:1px;stroke-linecap:butt;stroke-linejoin:miter;stroke-opacity:1" d="M 405.183,381.36 414.713,381.36 z" id="boundary" inkscape:connector-curvature="0" />
	<path style="fill:none;stroke:red;stroke-width:1px;stroke-linecap:butt;stroke-linejoin:miter;stroke-opacity:1" d="M 471.889,376.596 462.359,376.596 z" id="boundary" inkscape:connector-curvature="0" />
	<path style="fill:none;stroke:red;stroke-width:1px;stroke-linecap:butt;stroke-linejoin:miter;stroke-opacity:1" d="M 481.418,371.831 471.889,376.596 z" id="boundary" inkscape:connector-curvature="0" />
	<path style="fill:none;stroke:red;stroke-width:1px;stroke-linecap:butt;stroke-linejoin:miter;stroke-opacity:1" d="M 481.418,371.831 490.947,371.831 z" id="boundary" inkscape:connector-curvature="0" />
	<path style="fill:none;stroke:red;stroke-width:1px;stroke-linecap:butt;stroke-linejoin:miter;stroke-opacity:1" d="M 490.947,371.831 500.476,371.831 z" id="boundary" inkscape:connector-curvature="0" />
	<path style="fill:none;stroke:red;stroke-width:1px;stroke-linecap:butt;stroke-linejoin:miter;stroke-opacity:1" d="M 424.242,381.36 433.771,381.36 z" id="boundary" inkscape:connector-curvature="0" />
	<path style="fill:none;stroke:red;stroke-width:1px;stroke-linecap:butt;stroke-linejoin:miter;stroke-opacity:1" d="M 462.359,376.596 452.83,381.36 z" id="boundary" inkscape:connector-curvature="0" />
	<path style="fill:none;stroke:red;stroke-width:1px;stroke-linecap:butt;stroke-linejoin:miter;stroke-opacity:1" d="M 452.83,381.36 443.301,381.36 z" id="boundary" inkscape:connector-curvature="0" />
	<path style="fill:none;stroke:red;stroke-width:1px;stroke-linecap:butt;stroke-linejoin:miter;stroke-opacity:1" d="M 443.301,381.36 433.771,381.36 z" id="boundary" inkscape:connector-curvature="0" />
	<path style="fill:none;stroke:red;stroke-width:1px;stroke-linecap:butt;stroke-linejoin:miter;stroke-opacity:1" d="M 510.006,367.066 500.476,371.831 z" id="boundary" inkscape:connector-curvature="0" />
	<path style="fill:none;stroke:red;stroke-width:1px;stroke-linecap:butt;stroke-linejoin:miter;stroke-opacity:1" d="M 510.006,367.066 519.535,367.066 z" id="boundary" inkscape:connector-curvature="0" />
	<path style="fill:none;stroke:red;stroke-width:1px;stroke-linecap:butt;stroke-linejoin:miter;stroke-opacity:1" d="M 510.959,42.1172 520.488,42.1172 z" id="boundary" inkscape:connector-curvature="0" />
	<path style="fill:none;stroke:red;stroke-width:1px;stroke-linecap:butt;stroke-linejoin:miter;stroke-opacity:1" d="M 530.017,42.1172 539.547,42.1172 z" id="boundary" inkscape:connector-curvature="0" />
	<path style="fill:none;stroke:red;stroke-width:1px;stroke-linecap:butt;stroke-linejoin:miter;stroke-opacity:1" d="M 549.076,42.1172 539.547,42.1172 z" id="boundary" inkscape:connector-curvature="0" />
	<path style="fill:none;stroke:red;stroke-width:1px;stroke-linecap:butt;stroke-linejoin:miter;stroke-opacity:1" d="M 530.017,42.1172 520.488,42.1172 z" id="boundary" inkscape:connector-curvature="0" />
	<path style="fill:none;stroke:red;stroke-width:1px;stroke-linecap:butt;stroke-linejoin:miter;stroke-opacity:1" d="M 549.076,42.1172 558.605,42.1172 z" id="boundary" inkscape:connector-curvature="0" />
	<path style="fill:none;stroke:red;stroke-width:1px;stroke-linecap:butt;stroke-linejoin:miter;stroke-opacity:1" d="M 568.134,42.1172 577.664,42.1172 z" id="boundary" inkscape:connector-curvature="0" />
	<path style="fill:none;stroke:red;stroke-width:1px;stroke-linecap:butt;stroke-linejoin:miter;stroke-opacity:1" d="M 568.134,42.1172 558.605,42.1172 z" id="boundary" inkscape:connector-curvature="0" />
	<path style="fill:none;stroke:red;stroke-width:1px;stroke-linecap:butt;stroke-linejoin:miter;stroke-opacity:1" d="M 587.193,42.1172 577.664,42.1172 z" id="boundary" inkscape:connector-curvature="0" />
	<path style="fill:none;stroke:red;stroke-width:1px;stroke-linecap:butt;stroke-linejoin:miter;stroke-opacity:1" d="M 644.369,32.5879 653.898,32.5879 z" id="boundary" inkscape:connector-curvature="0" />
	<path style="fill:none;stroke:red;stroke-width:1px;stroke-linecap:butt;stroke-linejoin:miter;stroke-opacity:1" d="M 663.427,32.5879 672.957,32.5879 z" id="boundary" inkscape:connector-curvature="0" />
	<path style="fill:none;stroke:red;stroke-width:1px;stroke-linecap:butt;stroke-linejoin:miter;stroke-opacity:1" d="M 672.957,32.5879 681.533,37.3525 z" id="boundary" inkscape:connector-curvature="0" />
	<path style="fill:none;stroke:red;stroke-width:1px;stroke-linecap:butt;stroke-linejoin:miter;stroke-opacity:1" d="M 663.427,32.5879 653.898,32.5879 z" id="boundary" inkscape:connector-curvature="0" />
	<path style="fill:none;stroke:red;stroke-width:1px;stroke-linecap:butt;stroke-linejoin:miter;stroke-opacity:1" d="M 606.252,38.3055 615.781,37.3525 z" id="boundary" inkscape:connector-curvature="0" />
	<path style="fill:none;stroke:red;stroke-width:1px;stroke-linecap:butt;stroke-linejoin:miter;stroke-opacity:1" d="M 596.722,42.1172 606.252,38.3055 z" id="boundary" inkscape:connector-curvature="0" />
	<path style="fill:none;stroke:red;stroke-width:1px;stroke-linecap:butt;stroke-linejoin:miter;stroke-opacity:1" d="M 625.31,37.3525 615.781,37.3525 z" id="boundary" inkscape:connector-curvature="0" />
	<path style="fill:none;stroke:red;stroke-width:1px;stroke-linecap:butt;stroke-linejoin:miter;stroke-opacity:1" d="M 634.84,33.5408 625.31,37.3525 z" id="boundary" inkscape:connector-curvature="0" />
	<path style="fill:none;stroke:red;stroke-width:1px;stroke-linecap:butt;stroke-linejoin:miter;stroke-opacity:1" d="M 634.84,33.5408 644.369,32.5879 z" id="boundary" inkscape:connector-curvature="0" />
	<path style="fill:none;stroke:red;stroke-width:1px;stroke-linecap:butt;stroke-linejoin:miter;stroke-opacity:1" d="M 681.533,37.3525 689.157,43.0701 z" id="boundary" inkscape:connector-curvature="0" />
	<path style="fill:none;stroke:red;stroke-width:1px;stroke-linecap:butt;stroke-linejoin:miter;stroke-opacity:1" d="M 587.193,42.1172 596.722,42.1172 z" id="boundary" inkscape:connector-curvature="0" />
	<path style="fill:none;stroke:red;stroke-width:1px;stroke-linecap:butt;stroke-linejoin:miter;stroke-opacity:1" d="M 695.827,50.6936 689.157,43.0701 z" id="boundary" inkscape:connector-curvature="0" />
	<path style="fill:none;stroke:red;stroke-width:1px;stroke-linecap:butt;stroke-linejoin:miter;stroke-opacity:1" d="M 705.356,54.5053 695.827,50.6936 z" id="boundary" inkscape:connector-curvature="0" />
	<path style="fill:none;stroke:red;stroke-width:1px;stroke-linecap:butt;stroke-linejoin:miter;stroke-opacity:1" d="M 712.027,62.1287 719.65,68.7992 z" id="boundary" inkscape:connector-curvature="0" />
	<path style="fill:none;stroke:red;stroke-width:1px;stroke-linecap:butt;stroke-linejoin:miter;stroke-opacity:1" d="M 705.356,54.5053 712.027,62.1287 z" id="boundary" inkscape:connector-curvature="0" />
	<path style="fill:none;stroke:red;stroke-width:1px;stroke-linecap:butt;stroke-linejoin:miter;stroke-opacity:1" d="M 728.227,73.5639 719.65,68.7992 z" id="boundary" inkscape:connector-curvature="0" />
	<path style="fill:none;stroke:red;stroke-width:1px;stroke-linecap:butt;stroke-linejoin:miter;stroke-opacity:1" d="M 728.227,73.5639 735.85,80.2344 z" id="boundary" inkscape:connector-curvature="0" />
	<path style="fill:none;stroke:red;stroke-width:1px;stroke-linecap:butt;stroke-linejoin:miter;stroke-opacity:1" d="M 735.85,80.2344 744.427,84.999 z" id="boundary" inkscape:connector-curvature="0" />
	<path style="fill:none;stroke:red;stroke-width:1px;stroke-linecap:butt;stroke-linejoin:miter;stroke-opacity:1" d="M 744.427,84.999 752.05,91.6695 z" id="boundary" inkscape:connector-curvature="0" />
	<path style="fill:none;stroke:red;stroke-width:1px;stroke-linecap:butt;stroke-linejoin:miter;stroke-opacity:1" d="M 752.05,91.6695 757.768,99.293 z" id="boundary" inkscape:connector-curvature="0" />
	<path style="fill:none;stroke:red;stroke-width:1px;stroke-linecap:butt;stroke-linejoin:miter;stroke-opacity:1" d="M 765.391,105.011 757.768,99.293 z" id="boundary" inkscape:connector-curvature="0" />
	<path style="fill:none;stroke:red;stroke-width:1px;stroke-linecap:butt;stroke-linejoin:miter;stroke-opacity:1" d="M 765.391,105.011 772.061,112.634 z" id="boundary" inkscape:connector-curvature="0" />
	<path style="fill:none;stroke:red;stroke-width:1px;stroke-linecap:butt;stroke-linejoin:miter;stroke-opacity:1" d="M 781.591,116.446 772.061,112.634 z" id="boundary" inkscape:connector-curvature="0" />
	<path style="fill:none;stroke:red;stroke-width:1px;stroke-linecap:butt;stroke-linejoin:miter;stroke-opacity:1" d="M 797.791,118.352 789.214,123.116 z" id="boundary" inkscape:connector-curvature="0" />
	<path style="fill:none;stroke:red;stroke-width:1px;stroke-linecap:butt;stroke-linejoin:miter;stroke-opacity:1" d="M 789.214,123.116 781.591,116.446 z" id="boundary" inkscape:connector-curvature="0" />
	<path style="fill:none;stroke:red;stroke-width:1px;stroke-linecap:butt;stroke-linejoin:miter;stroke-opacity:1" d="M 797.791,118.352 807.32,118.352 z" id="boundary" inkscape:connector-curvature="0" />
	<path style="fill:none;stroke:red;stroke-width:1px;stroke-linecap:butt;stroke-linejoin:miter;stroke-opacity:1" d="M 863.543,108.822 873.072,108.822 z" id="boundary" inkscape:connector-curvature="0" />
	<path style="fill:none;stroke:red;stroke-width:1px;stroke-linecap:butt;stroke-linejoin:miter;stroke-opacity:1" d="M 901.66,105.011 892.131,108.822 z" id="boundary" inkscape:connector-curvature="0" />
	<path style="fill:none;stroke:red;stroke-width:1px;stroke-linecap:butt;stroke-linejoin:miter;stroke-opacity:1" d="M 892.131,108.822 882.601,108.822 z" id="boundary" inkscape:connector-curvature="0" />
	<path style="fill:none;stroke:red;stroke-width:1px;stroke-linecap:butt;stroke-linejoin:miter;stroke-opacity:1" d="M 882.601,108.822 873.072,108.822 z" id="boundary" inkscape:connector-curvature="0" />
	<path style="fill:none;stroke:red;stroke-width:1px;stroke-linecap:butt;stroke-linejoin:miter;stroke-opacity:1" d="M 834.955,113.587 844.484,113.587 z" id="boundary" inkscape:connector-curvature="0" />
	<path style="fill:none;stroke:red;stroke-width:1px;stroke-linecap:butt;stroke-linejoin:miter;stroke-opacity:1" d="M 826.378,118.352 834.955,113.587 z" id="boundary" inkscape:connector-curvature="0" />
	<path style="fill:none;stroke:red;stroke-width:1px;stroke-linecap:butt;stroke-linejoin:miter;stroke-opacity:1" d="M 854.013,109.775 844.484,113.587 z" id="boundary" inkscape:connector-curvature="0" />
	<path style="fill:none;stroke:red;stroke-width:1px;stroke-linecap:butt;stroke-linejoin:miter;stroke-opacity:1" d="M 854.013,109.775 863.543,108.822 z" id="boundary" inkscape:connector-curvature="0" />
	<path style="fill:none;stroke:red;stroke-width:1px;stroke-linecap:butt;stroke-linejoin:miter;stroke-opacity:1" d="M 901.66,105.011 911.189,104.058 z" id="boundary" inkscape:connector-curvature="0" />
	<path style="fill:none;stroke:red;stroke-width:1px;stroke-linecap:butt;stroke-linejoin:miter;stroke-opacity:1" d="M 930.248,99.293 938.824,94.5283 z" id="boundary" inkscape:connector-curvature="0" />
	<path style="fill:none;stroke:red;stroke-width:1px;stroke-linecap:butt;stroke-linejoin:miter;stroke-opacity:1" d="M 938.824,94.5283 948.354,94.5283 z" id="boundary" inkscape:connector-curvature="0" />
	<path style="fill:none;stroke:red;stroke-width:1px;stroke-linecap:butt;stroke-linejoin:miter;stroke-opacity:1" d="M 930.248,99.293 920.719,100.246 z" id="boundary" inkscape:connector-curvature="0" />
	<path style="fill:none;stroke:red;stroke-width:1px;stroke-linecap:butt;stroke-linejoin:miter;stroke-opacity:1" d="M 957.883,94.5283 948.354,94.5283 z" id="boundary" inkscape:connector-curvature="0" />
	<path style="fill:none;stroke:red;stroke-width:1px;stroke-linecap:butt;stroke-linejoin:miter;stroke-opacity:1" d="M 957.883,94.5283 965.506,100.246 z" id="boundary" inkscape:connector-curvature="0" />
	<path style="fill:none;stroke:red;stroke-width:1px;stroke-linecap:butt;stroke-linejoin:miter;stroke-opacity:1" d="M 911.189,104.058 920.719,100.246 z" id="boundary" inkscape:connector-curvature="0" />
	<path style="fill:none;stroke:red;stroke-width:1px;stroke-linecap:butt;stroke-linejoin:miter;stroke-opacity:1" d="M 965.506,100.246 972.177,107.869 z" id="boundary" inkscape:connector-curvature="0" />
	<path style="fill:none;stroke:red;stroke-width:1px;stroke-linecap:butt;stroke-linejoin:miter;stroke-opacity:1" d="M 972.177,107.869 976.941,116.446 z" id="boundary" inkscape:connector-curvature="0" />
	<path style="fill:none;stroke:red;stroke-width:1px;stroke-linecap:butt;stroke-linejoin:miter;stroke-opacity:1" d="M 816.849,118.352 807.32,118.352 z" id="boundary" inkscape:connector-curvature="0" />
	<path style="fill:none;stroke:red;stroke-width:1px;stroke-linecap:butt;stroke-linejoin:miter;stroke-opacity:1" d="M 826.378,118.352 816.849,118.352 z" id="boundary" inkscape:connector-curvature="0" />
	<path style="fill:none;stroke:red;stroke-width:1px;stroke-linecap:butt;stroke-linejoin:miter;stroke-opacity:1" d="M 976.941,116.446 980.753,125.975 z" id="boundary" inkscape:connector-curvature="0" />
	<path style="fill:none;stroke:red;stroke-width:1px;stroke-linecap:butt;stroke-linejoin:miter;stroke-opacity:1" d="M 957.883,233.656 965.506,226.986 z" id="boundary" inkscape:connector-curvature="0" />
	<path style="fill:none;stroke:red;stroke-width:1px;stroke-linecap:butt;stroke-linejoin:miter;stroke-opacity:1" d="M 951.212,241.28 957.883,233.656 z" id="boundary" inkscape:connector-curvature="0" />
	<path style="fill:none;stroke:red;stroke-width:1px;stroke-linecap:butt;stroke-linejoin:miter;stroke-opacity:1" d="M 970.271,217.456 965.506,226.986 z" id="boundary" inkscape:connector-curvature="0" />
	<path style="fill:none;stroke:red;stroke-width:1px;stroke-linecap:butt;stroke-linejoin:miter;stroke-opacity:1" d="M 970.271,217.456 976.941,209.833 z" id="boundary" inkscape:connector-curvature="0" />
	<path style="fill:none;stroke:red;stroke-width:1px;stroke-linecap:butt;stroke-linejoin:miter;stroke-opacity:1" d="M 981.706,200.304 976.941,209.833 z" id="boundary" inkscape:connector-curvature="0" />
	<path style="fill:none;stroke:red;stroke-width:1px;stroke-linecap:butt;stroke-linejoin:miter;stroke-opacity:1" d="M 980.753,125.975 985.518,134.551 z" id="boundary" inkscape:connector-curvature="0" />
	<path style="fill:none;stroke:red;stroke-width:1px;stroke-linecap:butt;stroke-linejoin:miter;stroke-opacity:1" d="M 991.235,142.175 985.518,134.551 z" id="boundary" inkscape:connector-curvature="0" />
	<path style="fill:none;stroke:red;stroke-width:1px;stroke-linecap:butt;stroke-linejoin:miter;stroke-opacity:1" d="M 991.235,142.175 996,150.751 z" id="boundary" inkscape:connector-curvature="0" />
	<path style="fill:none;stroke:red;stroke-width:1px;stroke-linecap:butt;stroke-linejoin:miter;stroke-opacity:1" d="M 996,150.751 996,160.28 z" id="boundary" inkscape:connector-curvature="0" />
	<path style="fill:none;stroke:red;stroke-width:1px;stroke-linecap:butt;stroke-linejoin:miter;stroke-opacity:1" d="M 981.706,200.304 986.471,190.774 z" id="boundary" inkscape:connector-curvature="0" />
	<path style="fill:none;stroke:red;stroke-width:1px;stroke-linecap:butt;stroke-linejoin:miter;stroke-opacity:1" d="M 996,160.28 996,169.81 z" id="boundary" inkscape:connector-curvature="0" />
	<path style="fill:none;stroke:red;stroke-width:1px;stroke-linecap:butt;stroke-linejoin:miter;stroke-opacity:1" d="M 996,169.81 991.235,181.245 z" id="boundary" inkscape:connector-curvature="0" />
	<path style="fill:none;stroke:red;stroke-width:1px;stroke-linecap:butt;stroke-linejoin:miter;stroke-opacity:1" d="M 991.235,181.245 986.471,190.774 z" id="boundary" inkscape:connector-curvature="0" />
	<path style="fill:none;stroke:red;stroke-width:1px;stroke-linecap:butt;stroke-linejoin:miter;stroke-opacity:1" d="M 537.641,362.302 547.17,362.302 z" id="boundary" inkscape:connector-curvature="0" />
	<path style="fill:none;stroke:red;stroke-width:1px;stroke-linecap:butt;stroke-linejoin:miter;stroke-opacity:1" d="M 529.064,367.066 537.641,362.302 z" id="boundary" inkscape:connector-curvature="0" />
	<path style="fill:none;stroke:red;stroke-width:1px;stroke-linecap:butt;stroke-linejoin:miter;stroke-opacity:1" d="M 604.346,359.443 613.875,354.678 z" id="boundary" inkscape:connector-curvature="0" />
	<path style="fill:none;stroke:red;stroke-width:1px;stroke-linecap:butt;stroke-linejoin:miter;stroke-opacity:1" d="M 613.875,354.678 623.404,352.772 z" id="boundary" inkscape:connector-curvature="0" />
	<path style="fill:none;stroke:red;stroke-width:1px;stroke-linecap:butt;stroke-linejoin:miter;stroke-opacity:1" d="M 556.699,362.302 547.17,362.302 z" id="boundary" inkscape:connector-curvature="0" />
	<path style="fill:none;stroke:red;stroke-width:1px;stroke-linecap:butt;stroke-linejoin:miter;stroke-opacity:1" d="M 556.699,362.302 566.229,362.302 z" id="boundary" inkscape:connector-curvature="0" />
	<path style="fill:none;stroke:red;stroke-width:1px;stroke-linecap:butt;stroke-linejoin:miter;stroke-opacity:1" d="M 575.758,362.302 585.287,362.302 z" id="boundary" inkscape:connector-curvature="0" />
	<path style="fill:none;stroke:red;stroke-width:1px;stroke-linecap:butt;stroke-linejoin:miter;stroke-opacity:1" d="M 575.758,362.302 566.229,362.302 z" id="boundary" inkscape:connector-curvature="0" />
	<path style="fill:none;stroke:red;stroke-width:1px;stroke-linecap:butt;stroke-linejoin:miter;stroke-opacity:1" d="M 604.346,359.443 594.817,362.302 z" id="boundary" inkscape:connector-curvature="0" />
	<path style="fill:none;stroke:red;stroke-width:1px;stroke-linecap:butt;stroke-linejoin:miter;stroke-opacity:1" d="M 594.817,362.302 585.287,362.302 z" id="boundary" inkscape:connector-curvature="0" />
	<path style="fill:none;stroke:red;stroke-width:1px;stroke-linecap:butt;stroke-linejoin:miter;stroke-opacity:1" d="M 632.934,352.772 641.51,348.008 z" id="boundary" inkscape:connector-curvature="0" />
	<path style="fill:none;stroke:red;stroke-width:1px;stroke-linecap:butt;stroke-linejoin:miter;stroke-opacity:1" d="M 641.51,348.008 651.039,346.102 z" id="boundary" inkscape:connector-curvature="0" />
	<path style="fill:none;stroke:red;stroke-width:1px;stroke-linecap:butt;stroke-linejoin:miter;stroke-opacity:1" d="M 660.569,343.243 651.039,346.102 z" id="boundary" inkscape:connector-curvature="0" />
	<path style="fill:none;stroke:red;stroke-width:1px;stroke-linecap:butt;stroke-linejoin:miter;stroke-opacity:1" d="M 670.098,343.243 660.569,343.243 z" id="boundary" inkscape:connector-curvature="0" />
	<path style="fill:none;stroke:red;stroke-width:1px;stroke-linecap:butt;stroke-linejoin:miter;stroke-opacity:1" d="M 670.098,343.243 678.674,348.008 z" id="boundary" inkscape:connector-curvature="0" />
	<path style="fill:none;stroke:red;stroke-width:1px;stroke-linecap:butt;stroke-linejoin:miter;stroke-opacity:1" d="M 632.934,352.772 623.404,352.772 z" id="boundary" inkscape:connector-curvature="0" />
	<path style="fill:none;stroke:red;stroke-width:1px;stroke-linecap:butt;stroke-linejoin:miter;stroke-opacity:1" d="M 678.674,348.008 686.298,354.678 z" id="boundary" inkscape:connector-curvature="0" />
	<path style="fill:none;stroke:red;stroke-width:1px;stroke-linecap:butt;stroke-linejoin:miter;stroke-opacity:1" d="M 686.298,354.678 692.968,362.302 z" id="boundary" inkscape:connector-curvature="0" />
	<path style="fill:none;stroke:red;stroke-width:1px;stroke-linecap:butt;stroke-linejoin:miter;stroke-opacity:1" d="M 529.064,367.066 519.535,367.066 z" id="boundary" inkscape:connector-curvature="0" />
	<path style="fill:none;stroke:red;stroke-width:1px;stroke-linecap:butt;stroke-linejoin:miter;stroke-opacity:1" d="M 692.968,362.302 700.592,368.972 z" id="boundary" inkscape:connector-curvature="0" />
	<path style="fill:none;stroke:red;stroke-width:1px;stroke-linecap:butt;stroke-linejoin:miter;stroke-opacity:1" d="M 700.592,368.972 709.168,373.737 z" id="boundary" inkscape:connector-curvature="0" />
	<path style="fill:none;stroke:red;stroke-width:1px;stroke-linecap:butt;stroke-linejoin:miter;stroke-opacity:1" d="M 709.168,373.737 716.792,380.407 z" id="boundary" inkscape:connector-curvature="0" />
	<path style="fill:none;stroke:red;stroke-width:1px;stroke-linecap:butt;stroke-linejoin:miter;stroke-opacity:1" d="M 716.792,380.407 724.415,386.125 z" id="boundary" inkscape:connector-curvature="0" />
	<path style="fill:none;stroke:red;stroke-width:1px;stroke-linecap:butt;stroke-linejoin:miter;stroke-opacity:1" d="M 732.991,390.89 724.415,386.125 z" id="boundary" inkscape:connector-curvature="0" />
	<path style="fill:none;stroke:red;stroke-width:1px;stroke-linecap:butt;stroke-linejoin:miter;stroke-opacity:1" d="M 732.991,390.89 741.568,395.654 z" id="boundary" inkscape:connector-curvature="0" />
	<path style="fill:none;stroke:red;stroke-width:1px;stroke-linecap:butt;stroke-linejoin:miter;stroke-opacity:1" d="M 750.144,400.419 759.673,404.231 z" id="boundary" inkscape:connector-curvature="0" />
	<path style="fill:none;stroke:red;stroke-width:1px;stroke-linecap:butt;stroke-linejoin:miter;stroke-opacity:1" d="M 759.673,404.231 768.25,408.995 z" id="boundary" inkscape:connector-curvature="0" />
	<path style="fill:none;stroke:red;stroke-width:1px;stroke-linecap:butt;stroke-linejoin:miter;stroke-opacity:1" d="M 750.144,400.419 741.568,395.654 z" id="boundary" inkscape:connector-curvature="0" />
	<path style="fill:none;stroke:red;stroke-width:1px;stroke-linecap:butt;stroke-linejoin:miter;stroke-opacity:1" d="M 768.25,408.995 777.779,412.807 z" id="boundary" inkscape:connector-curvature="0" />
	<path style="fill:none;stroke:red;stroke-width:1px;stroke-linecap:butt;stroke-linejoin:miter;stroke-opacity:1" d="M 796.838,414.713 787.308,414.713 z" id="boundary" inkscape:connector-curvature="0" />
	<path style="fill:none;stroke:red;stroke-width:1px;stroke-linecap:butt;stroke-linejoin:miter;stroke-opacity:1" d="M 787.308,414.713 777.779,412.807 z" id="boundary" inkscape:connector-curvature="0" />
	<path style="fill:none;stroke:red;stroke-width:1px;stroke-linecap:butt;stroke-linejoin:miter;stroke-opacity:1" d="M 806.367,414.713 796.838,414.713 z" id="boundary" inkscape:connector-curvature="0" />
	<path style="fill:none;stroke:red;stroke-width:1px;stroke-linecap:butt;stroke-linejoin:miter;stroke-opacity:1" d="M 921.671,276.538 919.766,267.009 z" id="boundary" inkscape:connector-curvature="0" />
	<path style="fill:none;stroke:red;stroke-width:1px;stroke-linecap:butt;stroke-linejoin:miter;stroke-opacity:1" d="M 919.766,267.009 928.342,262.244 z" id="boundary" inkscape:connector-curvature="0" />
	<path style="fill:none;stroke:red;stroke-width:1px;stroke-linecap:butt;stroke-linejoin:miter;stroke-opacity:1" d="M 926.436,285.114 921.671,276.538 z" id="boundary" inkscape:connector-curvature="0" />
	<path style="fill:none;stroke:red;stroke-width:1px;stroke-linecap:butt;stroke-linejoin:miter;stroke-opacity:1" d="M 943.589,247.95 935.965,256.526 z" id="boundary" inkscape:connector-curvature="0" />
	<path style="fill:none;stroke:red;stroke-width:1px;stroke-linecap:butt;stroke-linejoin:miter;stroke-opacity:1" d="M 935.965,256.526 928.342,262.244 z" id="boundary" inkscape:connector-curvature="0" />
	<path style="fill:none;stroke:red;stroke-width:1px;stroke-linecap:butt;stroke-linejoin:miter;stroke-opacity:1" d="M 926.436,285.114 929.295,294.644 z" id="boundary" inkscape:connector-curvature="0" />
	<path style="fill:none;stroke:red;stroke-width:1px;stroke-linecap:butt;stroke-linejoin:miter;stroke-opacity:1" d="M 929.295,294.644 929.295,304.173 z" id="boundary" inkscape:connector-curvature="0" />
	<path style="fill:none;stroke:red;stroke-width:1px;stroke-linecap:butt;stroke-linejoin:miter;stroke-opacity:1" d="M 929.295,304.173 934.06,312.749 z" id="boundary" inkscape:connector-curvature="0" />
	<path style="fill:none;stroke:red;stroke-width:1px;stroke-linecap:butt;stroke-linejoin:miter;stroke-opacity:1" d="M 938.824,321.326 934.06,312.749 z" id="boundary" inkscape:connector-curvature="0" />
	<path style="fill:none;stroke:red;stroke-width:1px;stroke-linecap:butt;stroke-linejoin:miter;stroke-opacity:1" d="M 943.589,247.95 951.212,241.28 z" id="boundary" inkscape:connector-curvature="0" />
	<path style="fill:none;stroke:red;stroke-width:1px;stroke-linecap:butt;stroke-linejoin:miter;stroke-opacity:1" d="M 943.589,329.902 938.824,321.326 z" id="boundary" inkscape:connector-curvature="0" />
	<path style="fill:none;stroke:red;stroke-width:1px;stroke-linecap:butt;stroke-linejoin:miter;stroke-opacity:1" d="M 943.589,329.902 943.589,339.431 z" id="boundary" inkscape:connector-curvature="0" />
	<path style="fill:none;stroke:red;stroke-width:1px;stroke-linecap:butt;stroke-linejoin:miter;stroke-opacity:1" d="M 943.589,339.431 948.354,348.008 z" id="boundary" inkscape:connector-curvature="0" />
	<path style="fill:none;stroke:red;stroke-width:1px;stroke-linecap:butt;stroke-linejoin:miter;stroke-opacity:1" d="M 953.118,356.584 957.883,365.16 z" id="boundary" inkscape:connector-curvature="0" />
	<path style="fill:none;stroke:red;stroke-width:1px;stroke-linecap:butt;stroke-linejoin:miter;stroke-opacity:1" d="M 957.883,365.16 962.647,373.737 z" id="boundary" inkscape:connector-curvature="0" />
	<path style="fill:none;stroke:red;stroke-width:1px;stroke-linecap:butt;stroke-linejoin:miter;stroke-opacity:1" d="M 953.118,356.584 948.354,348.008 z" id="boundary" inkscape:connector-curvature="0" />
	<path style="fill:none;stroke:red;stroke-width:1px;stroke-linecap:butt;stroke-linejoin:miter;stroke-opacity:1" d="M 834.002,409.948 843.531,409.948 z" id="boundary" inkscape:connector-curvature="0" />
	<path style="fill:none;stroke:red;stroke-width:1px;stroke-linecap:butt;stroke-linejoin:miter;stroke-opacity:1" d="M 825.426,414.713 834.002,409.948 z" id="boundary" inkscape:connector-curvature="0" />
	<path style="fill:none;stroke:red;stroke-width:1px;stroke-linecap:butt;stroke-linejoin:miter;stroke-opacity:1" d="M 853.061,409.948 862.59,409.948 z" id="boundary" inkscape:connector-curvature="0" />
	<path style="fill:none;stroke:red;stroke-width:1px;stroke-linecap:butt;stroke-linejoin:miter;stroke-opacity:1" d="M 853.061,409.948 843.531,409.948 z" id="boundary" inkscape:connector-curvature="0" />
	<path style="fill:none;stroke:red;stroke-width:1px;stroke-linecap:butt;stroke-linejoin:miter;stroke-opacity:1" d="M 825.426,414.713 815.896,414.713 z" id="boundary" inkscape:connector-curvature="0" />
	<path style="fill:none;stroke:red;stroke-width:1px;stroke-linecap:butt;stroke-linejoin:miter;stroke-opacity:1" d="M 872.119,409.948 881.648,409.948 z" id="boundary" inkscape:connector-curvature="0" />
	<path style="fill:none;stroke:red;stroke-width:1px;stroke-linecap:butt;stroke-linejoin:miter;stroke-opacity:1" d="M 862.59,409.948 872.119,409.948 z" id="boundary" inkscape:connector-curvature="0" />
	<path style="fill:none;stroke:red;stroke-width:1px;stroke-linecap:butt;stroke-linejoin:miter;stroke-opacity:1" d="M 881.648,409.948 891.178,409.948 z" id="boundary" inkscape:connector-curvature="0" />
	<path style="fill:none;stroke:red;stroke-width:1px;stroke-linecap:butt;stroke-linejoin:miter;stroke-opacity:1" d="M 815.896,414.713 806.367,414.713 z" id="boundary" inkscape:connector-curvature="0" />
	<path style="fill:none;stroke:red;stroke-width:1px;stroke-linecap:butt;stroke-linejoin:miter;stroke-opacity:1" d="M 937.871,400.419 947.401,400.419 z" id="boundary" inkscape:connector-curvature="0" />
	<path style="fill:none;stroke:red;stroke-width:1px;stroke-linecap:butt;stroke-linejoin:miter;stroke-opacity:1" d="M 929.295,405.183 937.871,400.419 z" id="boundary" inkscape:connector-curvature="0" />
	<path style="fill:none;stroke:red;stroke-width:1px;stroke-linecap:butt;stroke-linejoin:miter;stroke-opacity:1" d="M 956.93,397.56 947.401,400.419 z" id="boundary" inkscape:connector-curvature="0" />
	<path style="fill:none;stroke:red;stroke-width:1px;stroke-linecap:butt;stroke-linejoin:miter;stroke-opacity:1" d="M 891.178,409.948 900.707,409.948 z" id="boundary" inkscape:connector-curvature="0" />
	<path style="fill:none;stroke:red;stroke-width:1px;stroke-linecap:butt;stroke-linejoin:miter;stroke-opacity:1" d="M 910.236,409.948 919.766,405.183 z" id="boundary" inkscape:connector-curvature="0" />
	<path style="fill:none;stroke:red;stroke-width:1px;stroke-linecap:butt;stroke-linejoin:miter;stroke-opacity:1" d="M 919.766,405.183 929.295,405.183 z" id="boundary" inkscape:connector-curvature="0" />
	<path style="fill:none;stroke:red;stroke-width:1px;stroke-linecap:butt;stroke-linejoin:miter;stroke-opacity:1" d="M 910.236,409.948 900.707,409.948 z" id="boundary" inkscape:connector-curvature="0" />
	<path style="fill:none;stroke:red;stroke-width:1px;stroke-linecap:butt;stroke-linejoin:miter;stroke-opacity:1" d="M 964.553,389.937 956.93,397.56 z" id="boundary" inkscape:connector-curvature="0" />
	<path style="fill:none;stroke:red;stroke-width:1px;stroke-linecap:butt;stroke-linejoin:miter;stroke-opacity:1" d="M 962.647,373.737 964.553,389.937 z" id="boundary" inkscape:connector-curvature="0" />
	<circle cx="4" cy="202.209" r="4" fill="#0" id="circle0"/>
	<circle cx="4" cy="211.739" r="4" fill="#0" id="circle1"/>
	<circle cx="11.6234" cy="194.586" r="4" fill="#0" id="circle2"/>
	<circle cx="11.6234" cy="218.409" r="4" fill="#0" id="circle3"/>
	<circle cx="18.2939" cy="226.033" r="4" fill="#0" id="circle4"/>
	<circle cx="20.1998" cy="189.821" r="4" fill="#0" id="circle5"/>
	<circle cx="23.0586" cy="234.609" r="4" fill="#0" id="circle6"/>
	<circle cx="27.8232" cy="183.151" r="4" fill="#0" id="circle7"/>
	<circle cx="27.8232" cy="243.185" r="4" fill="#0" id="circle8"/>
	<circle cx="30.682" cy="252.715" r="4" fill="#0" id="circle9"/>
	<circle cx="35.4467" cy="261.291" r="4" fill="#0" id="circle10"/>
	<circle cx="37.3525" cy="178.386" r="4" fill="#0" id="circle11"/>
	<circle cx="39.2584" cy="270.82" r="4" fill="#0" id="circle12"/>
	<circle cx="44.0231" cy="279.397" r="4" fill="#0" id="circle13"/>
	<circle cx="46.8818" cy="173.622" r="4" fill="#0" id="circle14"/>
	<circle cx="47.8348" cy="288.926" r="4" fill="#0" id="circle15"/>
	<circle cx="52.5994" cy="297.502" r="4" fill="#0" id="circle16"/>
	<circle cx="54.5053" cy="165.998" r="4" fill="#0" id="circle17"/>
	<circle cx="59.2699" cy="305.126" r="4" fill="#0" id="circle18"/>
	<circle cx="62.1287" cy="158.375" r="4" fill="#0" id="circle19"/>
	<circle cx="66.8934" cy="311.796" r="4" fill="#0" id="circle20"/>
	<circle cx="69.7522" cy="151.704" r="4" fill="#0" id="circle21"/>
	<circle cx="76.4227" cy="144.081" r="4" fill="#0" id="circle22"/>
	<circle cx="76.4227" cy="309.89" r="4" fill="#0" id="circle23"/>
	<circle cx="84.0461" cy="137.41" r="4" fill="#0" id="circle24"/>
	<circle cx="85.952" cy="309.89" r="4" fill="#0" id="circle25"/>
	<circle cx="92.6225" cy="132.646" r="4" fill="#0" id="circle26"/>
	<circle cx="94.5283" cy="35.4467" r="4" fill="#0" id="circle27"/>
	<circle cx="95.4813" cy="309.89" r="4" fill="#0" id="circle28"/>
	<circle cx="97.3871" cy="123.116" r="4" fill="#0" id="circle29"/>
	<circle cx="99.293" cy="44.0231" r="4" fill="#0" id="circle30"/>
	<circle cx="99.293" cy="53.5524" r="4" fill="#0" id="circle31"/>
	<circle cx="99.293" cy="63.0817" r="4" fill="#0" id="circle32"/>
	<circle cx="102.152" cy="27.8232" r="4" fill="#0" id="circle33"/>
	<circle cx="104.058" cy="71.658" r="4" fill="#0" id="circle34"/>
	<circle cx="105.011" cy="309.89" r="4" fill="#0" id="circle35"/>
	<circle cx="106.916" cy="81.1873" r="4" fill="#0" id="circle36"/>
	<circle cx="106.916" cy="118.352" r="4" fill="#0" id="circle37"/>
	<circle cx="110.728" cy="23.0586" r="4" fill="#0" id="circle38"/>
	<circle cx="111.681" cy="89.7637" r="4" fill="#0" id="circle39"/>
	<circle cx="113.587" cy="305.126" r="4" fill="#0" id="circle40"/>
	<circle cx="115.493" cy="99.293" r="4" fill="#0" id="circle41"/>
	<circle cx="116.446" cy="113.587" r="4" fill="#0" id="circle42"/>
	<circle cx="120.257" cy="19.2469" r="4" fill="#0" id="circle43"/>
	<circle cx="123.116" cy="305.126" r="4" fill="#0" id="circle44"/>
	<circle cx="129.787" cy="18.2939" r="4" fill="#0" id="circle45"/>
	<circle cx="132.646" cy="305.126" r="4" fill="#0" id="circle46"/>
	<circle cx="139.316" cy="18.2939" r="4" fill="#0" id="circle47"/>
	<circle cx="142.175" cy="305.126" r="4" fill="#0" id="circle48"/>
	<circle cx="147.892" cy="13.5293" r="4" fill="#0" id="circle49"/>
	<circle cx="151.704" cy="305.126" r="4" fill="#0" id="circle50"/>
	<circle cx="157.422" cy="13.5293" r="4" fill="#0" id="circle51"/>
	<circle cx="161.233" cy="302.267" r="4" fill="#0" id="circle52"/>
	<circle cx="166.951" cy="10.6705" r="4" fill="#0" id="circle53"/>
	<circle cx="170.763" cy="300.361" r="4" fill="#0" id="circle54"/>
	<circle cx="176.48" cy="8.76465" r="4" fill="#0" id="circle55"/>
	<circle cx="179.339" cy="295.597" r="4" fill="#0" id="circle56"/>
	<circle cx="186.01" cy="8.76465" r="4" fill="#0" id="circle57"/>
	<circle cx="188.868" cy="295.597" r="4" fill="#0" id="circle58"/>
	<circle cx="195.539" cy="8.76465" r="4" fill="#0" id="circle59"/>
	<circle cx="198.398" cy="295.597" r="4" fill="#0" id="circle60"/>
	<circle cx="205.068" cy="8.76465" r="4" fill="#0" id="circle61"/>
	<circle cx="207.927" cy="295.597" r="4" fill="#0" id="circle62"/>
	<circle cx="213.645" cy="4" r="4" fill="#0" id="circle63"/>
	<circle cx="216.503" cy="300.361" r="4" fill="#0" id="circle64"/>
	<circle cx="223.174" cy="4" r="4" fill="#0" id="circle65"/>
	<circle cx="226.033" cy="300.361" r="4" fill="#0" id="circle66"/>
	<circle cx="232.703" cy="4" r="4" fill="#0" id="circle67"/>
	<circle cx="233.656" cy="307.032" r="4" fill="#0" id="circle68"/>
	<circle cx="242.232" cy="4" r="4" fill="#0" id="circle69"/>
	<circle cx="242.232" cy="311.796" r="4" fill="#0" id="circle70"/>
	<circle cx="251.762" cy="4" r="4" fill="#0" id="circle71"/>
	<circle cx="251.762" cy="314.655" r="4" fill="#0" id="circle72"/>
	<circle cx="260.338" cy="8.76465" r="4" fill="#0" id="circle73"/>
	<circle cx="261.291" cy="314.655" r="4" fill="#0" id="circle74"/>
	<circle cx="267.009" cy="322.279" r="4" fill="#0" id="circle75"/>
	<circle cx="268.915" cy="13.5293" r="4" fill="#0" id="circle76"/>
	<circle cx="275.585" cy="21.1527" r="4" fill="#0" id="circle77"/>
	<circle cx="276.538" cy="326.09" r="4" fill="#0" id="circle78"/>
	<circle cx="281.303" cy="28.7762" r="4" fill="#0" id="circle79"/>
	<circle cx="283.208" cy="333.714" r="4" fill="#0" id="circle80"/>
	<circle cx="286.067" cy="37.3525" r="4" fill="#0" id="circle81"/>
	<circle cx="290.832" cy="45.9289" r="4" fill="#0" id="circle82"/>
	<circle cx="292.738" cy="337.525" r="4" fill="#0" id="circle83"/>
	<circle cx="295.597" cy="54.5053" r="4" fill="#0" id="circle84"/>
	<circle cx="299.408" cy="64.0346" r="4" fill="#0" id="circle85"/>
	<circle cx="302.267" cy="338.478" r="4" fill="#0" id="circle86"/>
	<circle cx="305.126" cy="71.658" r="4" fill="#0" id="circle87"/>
	<circle cx="310.843" cy="343.243" r="4" fill="#0" id="circle88"/>
	<circle cx="314.655" cy="75.4697" r="4" fill="#0" id="circle89"/>
	<circle cx="319.42" cy="348.008" r="4" fill="#0" id="circle90"/>
	<circle cx="324.184" cy="75.4697" r="4" fill="#0" id="circle91"/>
	<circle cx="327.996" cy="352.772" r="4" fill="#0" id="circle92"/>
	<circle cx="333.714" cy="75.4697" r="4" fill="#0" id="circle93"/>
	<circle cx="336.573" cy="357.537" r="4" fill="#0" id="circle94"/>
	<circle cx="343.243" cy="72.611" r="4" fill="#0" id="circle95"/>
	<circle cx="343.243" cy="365.16" r="4" fill="#0" id="circle96"/>
	<circle cx="352.772" cy="70.7051" r="4" fill="#0" id="circle97"/>
	<circle cx="352.772" cy="368.972" r="4" fill="#0" id="circle98"/>
	<circle cx="359.443" cy="376.596" r="4" fill="#0" id="circle99"/>
	<circle cx="362.302" cy="70.7051" r="4" fill="#0" id="circle100"/>
	<circle cx="368.972" cy="380.407" r="4" fill="#0" id="circle101"/>
	<circle cx="371.831" cy="70.7051" r="4" fill="#0" id="circle102"/>
	<circle cx="377.549" cy="385.172" r="4" fill="#0" id="circle103"/>
	<circle cx="381.36" cy="70.7051" r="4" fill="#0" id="circle104"/>
	<circle cx="387.078" cy="386.125" r="4" fill="#0" id="circle105"/>
	<circle cx="390.89" cy="70.7051" r="4" fill="#0" id="circle106"/>
	<circle cx="396.607" cy="386.125" r="4" fill="#0" id="circle107"/>
	<circle cx="400.419" cy="67.8463" r="4" fill="#0" id="circle108"/>
	<circle cx="405.183" cy="381.36" r="4" fill="#0" id="circle109"/>
	<circle cx="409.948" cy="65.9404" r="4" fill="#0" id="circle110"/>
	<circle cx="414.713" cy="381.36" r="4" fill="#0" id="circle111"/>
	<circle cx="419.477" cy="65.9404" r="4" fill="#0" id="circle112"/>
	<circle cx="424.242" cy="381.36" r="4" fill="#0" id="circle113"/>
	<circle cx="428.054" cy="61.1758" r="4" fill="#0" id="circle114"/>
	<circle cx="433.771" cy="381.36" r="4" fill="#0" id="circle115"/>
	<circle cx="437.583" cy="59.2699" r="4" fill="#0" id="circle116"/>
	<circle cx="443.301" cy="381.36" r="4" fill="#0" id="circle117"/>
	<circle cx="447.112" cy="56.4111" r="4" fill="#0" id="circle118"/>
	<circle cx="452.83" cy="381.36" r="4" fill="#0" id="circle119"/>
	<circle cx="456.642" cy="56.4111" r="4" fill="#0" id="circle120"/>
	<circle cx="462.359" cy="376.596" r="4" fill="#0" id="circle121"/>
	<circle cx="465.218" cy="51.6465" r="4" fill="#0" id="circle122"/>
	<circle cx="471.889" cy="376.596" r="4" fill="#0" id="circle123"/>
	<circle cx="473.794" cy="46.8818" r="4" fill="#0" id="circle124"/>
	<circle cx="481.418" cy="371.831" r="4" fill="#0" id="circle125"/>
	<circle cx="483.324" cy="46.8818" r="4" fill="#0" id="circle126"/>
	<circle cx="490.947" cy="371.831" r="4" fill="#0" id="circle127"/>
	<circle cx="492.853" cy="46.8818" r="4" fill="#0" id="circle128"/>
	<circle cx="500.476" cy="371.831" r="4" fill="#0" id="circle129"/>
	<circle cx="502.382" cy="46.8818" r="4" fill="#0" id="circle130"/>
	<circle cx="510.006" cy="367.066" r="4" fill="#0" id="circle131"/>
	<circle cx="510.959" cy="42.1172" r="4" fill="#0" id="circle132"/>
	<circle cx="519.535" cy="367.066" r="4" fill="#0" id="circle133"/>
	<circle cx="520.488" cy="42.1172" r="4" fill="#0" id="circle134"/>
	<circle cx="529.064" cy="367.066" r="4" fill="#0" id="circle135"/>
	<circle cx="530.017" cy="42.1172" r="4" fill="#0" id="circle136"/>
	<circle cx="537.641" cy="362.302" r="4" fill="#0" id="circle137"/>
	<circle cx="539.547" cy="42.1172" r="4" fill="#0" id="circle138"/>
	<circle cx="547.17" cy="362.302" r="4" fill="#0" id="circle139"/>
	<circle cx="549.076" cy="42.1172" r="4" fill="#0" id="circle140"/>
	<circle cx="556.699" cy="362.302" r="4" fill="#0" id="circle141"/>
	<circle cx="558.605" cy="42.1172" r="4" fill="#0" id="circle142"/>
	<circle cx="566.229" cy="362.302" r="4" fill="#0" id="circle143"/>
	<circle cx="568.134" cy="42.1172" r="4" fill="#0" id="circle144"/>
	<circle cx="575.758" cy="362.302" r="4" fill="#0" id="circle145"/>
	<circle cx="577.664" cy="42.1172" r="4" fill="#0" id="circle146"/>
	<circle cx="585.287" cy="362.302" r="4" fill="#0" id="circle147"/>
	<circle cx="587.193" cy="42.1172" r="4" fill="#0" id="circle148"/>
	<circle cx="594.817" cy="362.302" r="4" fill="#0" id="circle149"/>
	<circle cx="596.722" cy="42.1172" r="4" fill="#0" id="circle150"/>
	<circle cx="604.346" cy="359.443" r="4" fill="#0" id="circle151"/>
	<circle cx="606.252" cy="38.3055" r="4" fill="#0" id="circle152"/>
	<circle cx="613.875" cy="354.678" r="4" fill="#0" id="circle153"/>
	<circle cx="615.781" cy="37.3525" r="4" fill="#0" id="circle154"/>
	<circle cx="623.404" cy="352.772" r="4" fill="#0" id="circle155"/>
	<circle cx="625.31" cy="37.3525" r="4" fill="#0" id="circle156"/>
	<circle cx="632.934" cy="352.772" r="4" fill="#0" id="circle157"/>
	<circle cx="634.84" cy="33.5408" r="4" fill="#0" id="circle158"/>
	<circle cx="641.51" cy="348.008" r="4" fill="#0" id="circle159"/>
	<circle cx="644.369" cy="32.5879" r="4" fill="#0" id="circle160"/>
	<circle cx="651.039" cy="346.102" r="4" fill="#0" id="circle161"/>
	<circle cx="653.898" cy="32.5879" r="4" fill="#0" id="circle162"/>
	<circle cx="660.569" cy="343.243" r="4" fill="#0" id="circle163"/>
	<circle cx="663.427" cy="32.5879" r="4" fill="#0" id="circle164"/>
	<circle cx="670.098" cy="343.243" r="4" fill="#0" id="circle165"/>
	<circle cx="672.957" cy="32.5879" r="4" fill="#0" id="circle166"/>
	<circle cx="678.674" cy="348.008" r="4" fill="#0" id="circle167"/>
	<circle cx="681.533" cy="37.3525" r="4" fill="#0" id="circle168"/>
	<circle cx="686.298" cy="354.678" r="4" fill="#0" id="circle169"/>
	<circle cx="689.157" cy="43.0701" r="4" fill="#0" id="circle170"/>
	<circle cx="692.968" cy="362.302" r="4" fill="#0" id="circle171"/>
	<circle cx="695.827" cy="50.6936" r="4" fill="#0" id="circle172"/>
	<circle cx="700.592" cy="368.972" r="4" fill="#0" id="circle173"/>
	<circle cx="705.356" cy="54.5053" r="4" fill="#0" id="circle174"/>
	<circle cx="709.168" cy="373.737" r="4" fill="#0" id="circle175"/>
	<circle cx="712.027" cy="62.1287" r="4" fill="#0" id="circle176"/>
	<circle cx="716.792" cy="380.407" r="4" fill="#0" id="circle177"/>
	<circle cx="719.65" cy="68.7992" r="4" fill="#0" id="circle178"/>
	<circle cx="724.415" cy="386.125" r="4" fill="#0" id="circle179"/>
	<circle cx="728.227" cy="73.5639" r="4" fill="#0" id="circle180"/>
	<circle cx="732.991" cy="390.89" r="4" fill="#0" id="circle181"/>
	<circle cx="735.85" cy="80.2344" r="4" fill="#0" id="circle182"/>
	<circle cx="741.568" cy="395.654" r="4" fill="#0" id="circle183"/>
	<circle cx="744.427" cy="84.999" r="4" fill="#0" id="circle184"/>
	<circle cx="750.144" cy="400.419" r="4" fill="#0" id="circle185"/>
	<circle cx="752.05" cy="91.6695" r="4" fill="#0" id="circle186"/>
	<circle cx="757.768" cy="99.293" r="4" fill="#0" id="circle187"/>
	<circle cx="759.673" cy="404.231" r="4" fill="#0" id="circle188"/>
	<circle cx="765.391" cy="105.011" r="4" fill="#0" id="circle189"/>
	<circle cx="768.25" cy="408.995" r="4" fill="#0" id="circle190"/>
	<circle cx="772.061" cy="112.634" r="4" fill="#0" id="circle191"/>
	<circle cx="777.779" cy="412.807" r="4" fill="#0" id="circle192"/>
	<circle cx="781.591" cy="116.446" r="4" fill="#0" id="circle193"/>
	<circle cx="787.308" cy="414.713" r="4" fill="#0" id="circle194"/>
	<circle cx="789.214" cy="123.116" r="4" fill="#0" id="circle195"/>
	<circle cx="796.838" cy="414.713" r="4" fill="#0" id="circle196"/>
	<circle cx="797.791" cy="118.352" r="4" fill="#0" id="circle197"/>
	<circle cx="806.367" cy="414.713" r="4" fill="#0" id="circle198"/>
	<circle cx="807.32" cy="118.352" r="4" fill="#0" id="circle199"/>
	<circle cx="815.896" cy="414.713" r="4" fill="#0" id="circle200"/>
	<circle cx="816.849" cy="118.352" r="4" fill="#0" id="circle201"/>
	<circle cx="825.426" cy="414.713" r="4" fill="#0" id="circle202"/>
	<circle cx="826.378" cy="118.352" r="4" fill="#0" id="circle203"/>
	<circle cx="834.002" cy="409.948" r="4" fill="#0" id="circle204"/>
	<circle cx="834.955" cy="113.587" r="4" fill="#0" id="circle205"/>
	<circle cx="843.531" cy="409.948" r="4" fill="#0" id="circle206"/>
	<circle cx="844.484" cy="113.587" r="4" fill="#0" id="circle207"/>
	<circle cx="853.061" cy="409.948" r="4" fill="#0" id="circle208"/>
	<circle cx="854.013" cy="109.775" r="4" fill="#0" id="circle209"/>
	<circle cx="862.59" cy="409.948" r="4" fill="#0" id="circle210"/>
	<circle cx="863.543" cy="108.822" r="4" fill="#0" id="circle211"/>
	<circle cx="872.119" cy="409.948" r="4" fill="#0" id="circle212"/>
	<circle cx="873.072" cy="108.822" r="4" fill="#0" id="circle213"/>
	<circle cx="881.648" cy="409.948" r="4" fill="#0" id="circle214"/>
	<circle cx="882.601" cy="108.822" r="4" fill="#0" id="circle215"/>
	<circle cx="891.178" cy="409.948" r="4" fill="#0" id="circle216"/>
	<circle cx="892.131" cy="108.822" r="4" fill="#0" id="circle217"/>
	<circle cx="900.707" cy="409.948" r="4" fill="#0" id="circle218"/>
	<circle cx="901.66" cy="105.011" r="4" fill="#0" id="circle219"/>
	<circle cx="910.236" cy="409.948" r="4" fill="#0" id="circle220"/>
	<circle cx="911.189" cy="104.058" r="4" fill="#0" id="circle221"/>
	<circle cx="919.766" cy="267.009" r="4" fill="#0" id="circle222"/>
	<circle cx="919.766" cy="405.183" r="4" fill="#0" id="circle223"/>
	<circle cx="920.719" cy="100.246" r="4" fill="#0" id="circle224"/>
	<circle cx="921.671" cy="276.538" r="4" fill="#0" id="circle225"/>
	<circle cx="926.436" cy="285.114" r="4" fill="#0" id="circle226"/>
	<circle cx="928.342" cy="262.244" r="4" fill="#0" id="circle227"/>
	<circle cx="929.295" cy="294.644" r="4" fill="#0" id="circle228"/>
	<circle cx="929.295" cy="304.173" r="4" fill="#0" id="circle229"/>
	<circle cx="929.295" cy="405.183" r="4" fill="#0" id="circle230"/>
	<circle cx="930.248" cy="99.293" r="4" fill="#0" id="circle231"/>
	<circle cx="934.06" cy="312.749" r="4" fill="#0" id="circle232"/>
	<circle cx="935.965" cy="256.526" r="4" fill="#0" id="circle233"/>
	<circle cx="937.871" cy="400.419" r="4" fill="#0" id="circle234"/>
	<circle cx="938.824" cy="94.5283" r="4" fill="#0" id="circle235"/>
	<circle cx="938.824" cy="321.326" r="4" fill="#0" id="circle236"/>
	<circle cx="943.589" cy="247.95" r="4" fill="#0" id="circle237"/>
	<circle cx="943.589" cy="329.902" r="4" fill="#0" id="circle238"/>
	<circle cx="943.589" cy="339.431" r="4" fill="#0" id="circle239"/>
	<circle cx="947.401" cy="400.419" r="4" fill="#0" id="circle240"/>
	<circle cx="948.354" cy="94.5283" r="4" fill="#0" id="circle241"/>
	<circle cx="948.354" cy="348.008" r="4" fill="#0" id="circle242"/>
	<circle cx="951.212" cy="241.28" r="4" fill="#0" id="circle243"/>
	<circle cx="953.118" cy="356.584" r="4" fill="#0" id="circle244"/>
	<circle cx="956.93" cy="397.56" r="4" fill="#0" id="circle245"/>
	<circle cx="957.883" cy="94.5283" r="4" fill="#0" id="circle246"/>
	<circle cx="957.883" cy="233.656" r="4" fill="#0" id="circle247"/>
	<circle cx="957.883" cy="365.16" r="4" fill="#0" id="circle248"/>
	<circle cx="962.647" cy="373.737" r="4" fill="#0" id="circle249"/>
	<circle cx="964.553" cy="389.937" r="4" fill="#0" id="circle250"/>
	<circle cx="965.506" cy="100.246" r="4" fill="#0" id="circle251"/>
	<circle cx="965.506" cy="226.986" r="4" fill="#0" id="circle252"/>
	<circle cx="970.271" cy="217.456" r="4" fill="#0" id="circle253"/>
	<circle cx="972.177" cy="107.869" r="4" fill="#0" id="circle254"/>
	<circle cx="976.941" cy="116.446" r="4" fill="#0" id="circle255"/>
	<circle cx="976.941" cy="209.833" r="4" fill="#0" id="circle256"/>
	<circle cx="980.753" cy="125.975" r="4" fill="#0" id="circle257"/>
	<circle cx="981.706" cy="200.304" r="4" fill="#0" id="circle258"/>
	<circle cx="985.518" cy="134.551" r="4" fill="#0" id="circle259"/>
	<circle cx="986.471" cy="190.774" r="4" fill="#0" id="circle260"/>
	<circle cx="991.235" cy="142.175" r="4" fill="#0" id="circle261"/>
	<circle cx="991.235" cy="181.245" r="4" fill="#0" id="circle262"/>
	<circle cx="996" cy="150.751" r="4" fill="#0" id="circle263"/>
	<circle cx="996" cy="160.28" r="4" fill="#0" id="circle264"/>
	<circle cx="996" cy="169.81" r="4" fill="#0" id="circle265"/>
	</g>
</svg>