<?xml version="1.0" encoding="UTF-8" standalone="no"?>
<!-- Created with CurveBenchmark -->
<svg
	xmlns:dc="http://purl.org/dc/elements/1.1/"
	xmlns:cc="http://creativecommons.org/ns#"
	xmlns:rdf="http://www.w3.org/1999/02/22-rdf-syntax-ns#"
	xmlns:svg="http://www.w3.org/2000/svg"
	xmlns="http://www.w3.org/2000/svg"
	xmlns:sodipodi="http://sodipodi.sourceforge.net/DTD/sodipodi-0.dtd"
	xmlns:inkscape="http://www.inkscape.org/namespaces/inkscape"
	width="1000"
	height="1000"
	id="svg2"
	version="1.1"
	sodipodi:docname="manifold/gathan1-hammer185.png.txt">
<defs
	id="defs4" />
<metadata
	id="metadata7">
	<rdf:RDF>
		<cc:Work
			rdf:about="">
			<dc:format>image/svg+xml</dc:format>
			<dc:type
				rdf:resource="http://purl.org/dc/dcmitype/StillImage" />
			<dc:title></dc:title>
		</cc:Work>
	</rdf:RDF>
</metadata>
<g
	inkscape:label="Layer 1"
	inkscape:groupmode="layer"
	id="layer1">
	<path style="fill:none;stroke:red;stroke-width:1px;stroke-linecap:butt;stroke-linejoin:miter;stroke-opacity:1" d="M 4,32.7536 15.5014,4 z" id="boundary" inkscape:connector-curvature="0" />
	<path style="fill:none;stroke:red;stroke-width:1px;stroke-linecap:butt;stroke-linejoin:miter;stroke-opacity:1" d="M 15.5014,4 44.2551,4 z" id="boundary" inkscape:connector-curvature="0" />
	<path style="fill:none;stroke:red;stroke-width:1px;stroke-linecap:butt;stroke-linejoin:miter;stroke-opacity:1" d="M 130.516,4 101.762,15.5014 z" id="boundary" inkscape:connector-curvature="0" />
	<path style="fill:none;stroke:red;stroke-width:1px;stroke-linecap:butt;stroke-linejoin:miter;stroke-opacity:1" d="M 101.762,15.5014 73.0087,15.5014 z" id="boundary" inkscape:connector-curvature="0" />
	<path style="fill:none;stroke:red;stroke-width:1px;stroke-linecap:butt;stroke-linejoin:miter;stroke-opacity:1" d="M 73.0087,15.5014 44.2551,4 z" id="boundary" inkscape:connector-curvature="0" />
	<path style="fill:none;stroke:red;stroke-width:1px;stroke-linecap:butt;stroke-linejoin:miter;stroke-opacity:1" d="M 130.516,84.5101 101.762,75.8841 z" id="boundary" inkscape:connector-curvature="0" />
	<path style="fill:none;stroke:red;stroke-width:1px;stroke-linecap:butt;stroke-linejoin:miter;stroke-opacity:1" d="M 47.1304,90.2609 18.3768,90.2609 z" id="boundary" inkscape:connector-curvature="0" />
	<path style="fill:none;stroke:red;stroke-width:1px;stroke-linecap:butt;stroke-linejoin:miter;stroke-opacity:1" d="M 18.3768,90.2609 6.87536,61.5072 z" id="boundary" inkscape:connector-curvature="0" />
	<path style="fill:none;stroke:red;stroke-width:1px;stroke-linecap:butt;stroke-linejoin:miter;stroke-opacity:1" d="M 6.87536,61.5072 4,32.7536 z" id="boundary" inkscape:connector-curvature="0" />
	<path style="fill:none;stroke:red;stroke-width:1px;stroke-linecap:butt;stroke-linejoin:miter;stroke-opacity:1" d="M 47.1304,90.2609 73.0087,75.8841 z" id="boundary" inkscape:connector-curvature="0" />
	<path style="fill:none;stroke:red;stroke-width:1px;stroke-linecap:butt;stroke-linejoin:miter;stroke-opacity:1" d="M 73.0087,75.8841 101.762,75.8841 z" id="boundary" inkscape:connector-curvature="0" />
	<path style="fill:none;stroke:red;stroke-width:1px;stroke-linecap:butt;stroke-linejoin:miter;stroke-opacity:1" d="M 136.267,113.264 136.267,142.017 z" id="boundary" inkscape:connector-curvature="0" />
	<path style="fill:none;stroke:red;stroke-width:1px;stroke-linecap:butt;stroke-linejoin:miter;stroke-opacity:1" d="M 136.267,113.264 130.516,84.5101 z" id="boundary" inkscape:connector-curvature="0" />
	<path style="fill:none;stroke:red;stroke-width:1px;stroke-linecap:butt;stroke-linejoin:miter;stroke-opacity:1" d="M 147.768,170.771 136.267,142.017 z" id="boundary" inkscape:connector-curvature="0" />
	<path style="fill:none;stroke:red;stroke-width:1px;stroke-linecap:butt;stroke-linejoin:miter;stroke-opacity:1" d="M 153.519,199.525 147.768,170.771 z" id="boundary" inkscape:connector-curvature="0" />
	<path style="fill:none;stroke:red;stroke-width:1px;stroke-linecap:butt;stroke-linejoin:miter;stroke-opacity:1" d="M 159.27,228.278 153.519,199.525 z" id="boundary" inkscape:connector-curvature="0" />
	<path style="fill:none;stroke:red;stroke-width:1px;stroke-linecap:butt;stroke-linejoin:miter;stroke-opacity:1" d="M 130.516,4 159.27,4 z" id="boundary" inkscape:connector-curvature="0" />
	<path style="fill:none;stroke:red;stroke-width:1px;stroke-linecap:butt;stroke-linejoin:miter;stroke-opacity:1" d="M 165.02,285.786 159.27,257.032 z" id="boundary" inkscape:connector-curvature="0" />
	<path style="fill:none;stroke:red;stroke-width:1px;stroke-linecap:butt;stroke-linejoin:miter;stroke-opacity:1" d="M 159.27,257.032 159.27,228.278 z" id="boundary" inkscape:connector-curvature="0" />
	<path style="fill:none;stroke:red;stroke-width:1px;stroke-linecap:butt;stroke-linejoin:miter;stroke-opacity:1" d="M 165.02,285.786 165.02,314.539 z" id="boundary" inkscape:connector-curvature="0" />
	<path style="fill:none;stroke:red;stroke-width:1px;stroke-linecap:butt;stroke-linejoin:miter;stroke-opacity:1" d="M 165.02,314.539 165.02,343.293 z" id="boundary" inkscape:connector-curvature="0" />
	<path style="fill:none;stroke:red;stroke-width:1px;stroke-linecap:butt;stroke-linejoin:miter;stroke-opacity:1" d="M 165.02,372.046 165.02,343.293 z" id="boundary" inkscape:connector-curvature="0" />
	<path style="fill:none;stroke:red;stroke-width:1px;stroke-linecap:butt;stroke-linejoin:miter;stroke-opacity:1" d="M 159.27,400.8 165.02,372.046 z" id="boundary" inkscape:connector-curvature="0" />
	<path style="fill:none;stroke:red;stroke-width:1px;stroke-linecap:butt;stroke-linejoin:miter;stroke-opacity:1" d="M 159.27,4 188.023,4 z" id="boundary" inkscape:connector-curvature="0" />
	<path style="fill:none;stroke:red;stroke-width:1px;stroke-linecap:butt;stroke-linejoin:miter;stroke-opacity:1" d="M 124.765,625.078 124.765,653.832 z" id="boundary" inkscape:connector-curvature="0" />
	<path style="fill:none;stroke:red;stroke-width:1px;stroke-linecap:butt;stroke-linejoin:miter;stroke-opacity:1" d="M 124.765,625.078 124.765,596.325 z" id="boundary" inkscape:connector-curvature="0" />
	<path style="fill:none;stroke:red;stroke-width:1px;stroke-linecap:butt;stroke-linejoin:miter;stroke-opacity:1" d="M 124.765,682.586 124.765,711.339 z" id="boundary" inkscape:connector-curvature="0" />
	<path style="fill:none;stroke:red;stroke-width:1px;stroke-linecap:butt;stroke-linejoin:miter;stroke-opacity:1" d="M 124.765,682.586 124.765,653.832 z" id="boundary" inkscape:connector-curvature="0" />
	<path style="fill:none;stroke:red;stroke-width:1px;stroke-linecap:butt;stroke-linejoin:miter;stroke-opacity:1" d="M 124.765,740.093 124.765,711.339 z" id="boundary" inkscape:connector-curvature="0" />
	<path style="fill:none;stroke:red;stroke-width:1px;stroke-linecap:butt;stroke-linejoin:miter;stroke-opacity:1" d="M 119.014,947.119 113.264,987.374 z" id="boundary" inkscape:connector-curvature="0" />
	<path style="fill:none;stroke:red;stroke-width:1px;stroke-linecap:butt;stroke-linejoin:miter;stroke-opacity:1" d="M 124.765,740.093 124.765,768.846 z" id="boundary" inkscape:connector-curvature="0" />
	<path style="fill:none;stroke:red;stroke-width:1px;stroke-linecap:butt;stroke-linejoin:miter;stroke-opacity:1" d="M 142.017,996 113.264,987.374 z" id="boundary" inkscape:connector-curvature="0" />
	<path style="fill:none;stroke:red;stroke-width:1px;stroke-linecap:butt;stroke-linejoin:miter;stroke-opacity:1" d="M 124.765,768.846 124.765,797.6 z" id="boundary" inkscape:connector-curvature="0" />
	<path style="fill:none;stroke:red;stroke-width:1px;stroke-linecap:butt;stroke-linejoin:miter;stroke-opacity:1" d="M 124.765,826.354 124.765,797.6 z" id="boundary" inkscape:connector-curvature="0" />
	<path style="fill:none;stroke:red;stroke-width:1px;stroke-linecap:butt;stroke-linejoin:miter;stroke-opacity:1" d="M 124.765,855.107 124.765,826.354 z" id="boundary" inkscape:connector-curvature="0" />
	<path style="fill:none;stroke:red;stroke-width:1px;stroke-linecap:butt;stroke-linejoin:miter;stroke-opacity:1" d="M 130.516,510.064 130.516,538.817 z" id="boundary" inkscape:connector-curvature="0" />
	<path style="fill:none;stroke:red;stroke-width:1px;stroke-linecap:butt;stroke-linejoin:miter;stroke-opacity:1" d="M 130.516,510.064 130.516,481.31 z" id="boundary" inkscape:connector-curvature="0" />
	<path style="fill:none;stroke:red;stroke-width:1px;stroke-linecap:butt;stroke-linejoin:miter;stroke-opacity:1" d="M 130.516,481.31 147.768,458.307 z" id="boundary" inkscape:connector-curvature="0" />
	<path style="fill:none;stroke:red;stroke-width:1px;stroke-linecap:butt;stroke-linejoin:miter;stroke-opacity:1" d="M 130.516,567.571 124.765,596.325 z" id="boundary" inkscape:connector-curvature="0" />
	<path style="fill:none;stroke:red;stroke-width:1px;stroke-linecap:butt;stroke-linejoin:miter;stroke-opacity:1" d="M 130.516,538.817 130.516,567.571 z" id="boundary" inkscape:connector-curvature="0" />
	<path style="fill:none;stroke:red;stroke-width:1px;stroke-linecap:butt;stroke-linejoin:miter;stroke-opacity:1" d="M 159.27,400.8 159.27,429.554 z" id="boundary" inkscape:connector-curvature="0" />
	<path style="fill:none;stroke:red;stroke-width:1px;stroke-linecap:butt;stroke-linejoin:miter;stroke-opacity:1" d="M 159.27,429.554 147.768,458.307 z" id="boundary" inkscape:connector-curvature="0" />
	<path style="fill:none;stroke:red;stroke-width:1px;stroke-linecap:butt;stroke-linejoin:miter;stroke-opacity:1" d="M 124.765,855.107 124.765,883.861 z" id="boundary" inkscape:connector-curvature="0" />
	<path style="fill:none;stroke:red;stroke-width:1px;stroke-linecap:butt;stroke-linejoin:miter;stroke-opacity:1" d="M 124.765,912.614 124.765,883.861 z" id="boundary" inkscape:connector-curvature="0" />
	<path style="fill:none;stroke:red;stroke-width:1px;stroke-linecap:butt;stroke-linejoin:miter;stroke-opacity:1" d="M 199.525,996 170.771,996 z" id="boundary" inkscape:connector-curvature="0" />
	<path style="fill:none;stroke:red;stroke-width:1px;stroke-linecap:butt;stroke-linejoin:miter;stroke-opacity:1" d="M 124.765,912.614 119.014,947.119 z" id="boundary" inkscape:connector-curvature="0" />
	<path style="fill:none;stroke:red;stroke-width:1px;stroke-linecap:butt;stroke-linejoin:miter;stroke-opacity:1" d="M 170.771,996 142.017,996 z" id="boundary" inkscape:connector-curvature="0" />
	<path style="fill:none;stroke:red;stroke-width:1px;stroke-linecap:butt;stroke-linejoin:miter;stroke-opacity:1" d="M 188.023,4 216.777,4 z" id="boundary" inkscape:connector-curvature="0" />
	<path style="fill:none;stroke:red;stroke-width:1px;stroke-linecap:butt;stroke-linejoin:miter;stroke-opacity:1" d="M 259.907,119.014 248.406,159.27 z" id="boundary" inkscape:connector-curvature="0" />
	<path style="fill:none;stroke:red;stroke-width:1px;stroke-linecap:butt;stroke-linejoin:miter;stroke-opacity:1" d="M 245.53,4 274.284,6.87536 z" id="boundary" inkscape:connector-curvature="0" />
	<path style="fill:none;stroke:red;stroke-width:1px;stroke-linecap:butt;stroke-linejoin:miter;stroke-opacity:1" d="M 236.904,205.275 248.406,159.27 z" id="boundary" inkscape:connector-curvature="0" />
	<path style="fill:none;stroke:red;stroke-width:1px;stroke-linecap:butt;stroke-linejoin:miter;stroke-opacity:1" d="M 216.777,4 245.53,4 z" id="boundary" inkscape:connector-curvature="0" />
	<path style="fill:none;stroke:red;stroke-width:1px;stroke-linecap:butt;stroke-linejoin:miter;stroke-opacity:1" d="M 231.154,268.533 231.154,297.287 z" id="boundary" inkscape:connector-curvature="0" />
	<path style="fill:none;stroke:red;stroke-width:1px;stroke-linecap:butt;stroke-linejoin:miter;stroke-opacity:1" d="M 231.154,326.041 231.154,297.287 z" id="boundary" inkscape:connector-curvature="0" />
	<path style="fill:none;stroke:red;stroke-width:1px;stroke-linecap:butt;stroke-linejoin:miter;stroke-opacity:1" d="M 231.154,268.533 236.904,234.029 z" id="boundary" inkscape:connector-curvature="0" />
	<path style="fill:none;stroke:red;stroke-width:1px;stroke-linecap:butt;stroke-linejoin:miter;stroke-opacity:1" d="M 236.904,234.029 236.904,205.275 z" id="boundary" inkscape:connector-curvature="0" />
	<path style="fill:none;stroke:red;stroke-width:1px;stroke-linecap:butt;stroke-linejoin:miter;stroke-opacity:1" d="M 231.154,354.794 231.154,326.041 z" id="boundary" inkscape:connector-curvature="0" />
	<path style="fill:none;stroke:red;stroke-width:1px;stroke-linecap:butt;stroke-linejoin:miter;stroke-opacity:1" d="M 259.907,90.2609 259.907,119.014 z" id="boundary" inkscape:connector-curvature="0" />
	<path style="fill:none;stroke:red;stroke-width:1px;stroke-linecap:butt;stroke-linejoin:miter;stroke-opacity:1" d="M 231.154,354.794 231.154,383.548 z" id="boundary" inkscape:connector-curvature="0" />
	<path style="fill:none;stroke:red;stroke-width:1px;stroke-linecap:butt;stroke-linejoin:miter;stroke-opacity:1" d="M 288.661,87.3855 259.907,90.2609 z" id="boundary" inkscape:connector-curvature="0" />
	<path style="fill:none;stroke:red;stroke-width:1px;stroke-linecap:butt;stroke-linejoin:miter;stroke-opacity:1" d="M 297.287,24.1275 320.29,41.3797 z" id="boundary" inkscape:connector-curvature="0" />
	<path style="fill:none;stroke:red;stroke-width:1px;stroke-linecap:butt;stroke-linejoin:miter;stroke-opacity:1" d="M 317.414,98.887 288.661,87.3855 z" id="boundary" inkscape:connector-curvature="0" />
	<path style="fill:none;stroke:red;stroke-width:1px;stroke-linecap:butt;stroke-linejoin:miter;stroke-opacity:1" d="M 320.29,41.3797 340.417,64.3826 z" id="boundary" inkscape:connector-curvature="0" />
	<path style="fill:none;stroke:red;stroke-width:1px;stroke-linecap:butt;stroke-linejoin:miter;stroke-opacity:1" d="M 340.417,64.3826 357.67,87.3855 z" id="boundary" inkscape:connector-curvature="0" />
	<path style="fill:none;stroke:red;stroke-width:1px;stroke-linecap:butt;stroke-linejoin:miter;stroke-opacity:1" d="M 317.414,98.887 343.293,113.264 z" id="boundary" inkscape:connector-curvature="0" />
	<path style="fill:none;stroke:red;stroke-width:1px;stroke-linecap:butt;stroke-linejoin:miter;stroke-opacity:1" d="M 343.293,113.264 360.545,136.267 z" id="boundary" inkscape:connector-curvature="0" />
	<path style="fill:none;stroke:red;stroke-width:1px;stroke-linecap:butt;stroke-linejoin:miter;stroke-opacity:1" d="M 374.922,110.388 377.797,159.27 z" id="boundary" inkscape:connector-curvature="0" />
	<path style="fill:none;stroke:red;stroke-width:1px;stroke-linecap:butt;stroke-linejoin:miter;stroke-opacity:1" d="M 377.797,159.27 360.545,136.267 z" id="boundary" inkscape:connector-curvature="0" />
	<path style="fill:none;stroke:red;stroke-width:1px;stroke-linecap:butt;stroke-linejoin:miter;stroke-opacity:1" d="M 357.67,87.3855 374.922,110.388 z" id="boundary" inkscape:connector-curvature="0" />
	<path style="fill:none;stroke:red;stroke-width:1px;stroke-linecap:butt;stroke-linejoin:miter;stroke-opacity:1" d="M 274.284,6.87536 297.287,24.1275 z" id="boundary" inkscape:connector-curvature="0" />
	<path style="fill:none;stroke:red;stroke-width:1px;stroke-linecap:butt;stroke-linejoin:miter;stroke-opacity:1" d="M 236.904,412.301 239.78,441.055 z" id="boundary" inkscape:connector-curvature="0" />
	<path style="fill:none;stroke:red;stroke-width:1px;stroke-linecap:butt;stroke-linejoin:miter;stroke-opacity:1" d="M 236.904,412.301 231.154,383.548 z" id="boundary" inkscape:connector-curvature="0" />
	<path style="fill:none;stroke:red;stroke-width:1px;stroke-linecap:butt;stroke-linejoin:miter;stroke-opacity:1" d="M 251.281,469.809 239.78,441.055 z" id="boundary" inkscape:connector-curvature="0" />
	<path style="fill:none;stroke:red;stroke-width:1px;stroke-linecap:butt;stroke-linejoin:miter;stroke-opacity:1" d="M 251.281,469.809 265.658,495.687 z" id="boundary" inkscape:connector-curvature="0" />
	<path style="fill:none;stroke:red;stroke-width:1px;stroke-linecap:butt;stroke-linejoin:miter;stroke-opacity:1" d="M 265.658,495.687 265.658,524.441 z" id="boundary" inkscape:connector-curvature="0" />
	<path style="fill:none;stroke:red;stroke-width:1px;stroke-linecap:butt;stroke-linejoin:miter;stroke-opacity:1" d="M 265.658,524.441 265.658,553.194 z" id="boundary" inkscape:connector-curvature="0" />
	<path style="fill:none;stroke:red;stroke-width:1px;stroke-linecap:butt;stroke-linejoin:miter;stroke-opacity:1" d="M 228.278,996 199.525,996 z" id="boundary" inkscape:connector-curvature="0" />
	<path style="fill:none;stroke:red;stroke-width:1px;stroke-linecap:butt;stroke-linejoin:miter;stroke-opacity:1" d="M 277.159,955.745 257.032,996 z" id="boundary" inkscape:connector-curvature="0" />
	<path style="fill:none;stroke:red;stroke-width:1px;stroke-linecap:butt;stroke-linejoin:miter;stroke-opacity:1" d="M 257.032,996 228.278,996 z" id="boundary" inkscape:connector-curvature="0" />
	<path style="fill:none;stroke:red;stroke-width:1px;stroke-linecap:butt;stroke-linejoin:miter;stroke-opacity:1" d="M 265.658,581.948 265.658,610.701 z" id="boundary" inkscape:connector-curvature="0" />
	<path style="fill:none;stroke:red;stroke-width:1px;stroke-linecap:butt;stroke-linejoin:miter;stroke-opacity:1" d="M 265.658,581.948 265.658,553.194 z" id="boundary" inkscape:connector-curvature="0" />
	<path style="fill:none;stroke:red;stroke-width:1px;stroke-linecap:butt;stroke-linejoin:miter;stroke-opacity:1" d="M 271.409,639.455 265.658,610.701 z" id="boundary" inkscape:connector-curvature="0" />
	<path style="fill:none;stroke:red;stroke-width:1px;stroke-linecap:butt;stroke-linejoin:miter;stroke-opacity:1" d="M 271.409,696.962 271.409,725.716 z" id="boundary" inkscape:connector-curvature="0" />
	<path style="fill:none;stroke:red;stroke-width:1px;stroke-linecap:butt;stroke-linejoin:miter;stroke-opacity:1" d="M 271.409,639.455 271.409,668.209 z" id="boundary" inkscape:connector-curvature="0" />
	<path style="fill:none;stroke:red;stroke-width:1px;stroke-linecap:butt;stroke-linejoin:miter;stroke-opacity:1" d="M 271.409,696.962 271.409,668.209 z" id="boundary" inkscape:connector-curvature="0" />
	<path style="fill:none;stroke:red;stroke-width:1px;stroke-linecap:butt;stroke-linejoin:miter;stroke-opacity:1" d="M 271.409,754.47 271.409,783.223 z" id="boundary" inkscape:connector-curvature="0" />
	<path style="fill:none;stroke:red;stroke-width:1px;stroke-linecap:butt;stroke-linejoin:miter;stroke-opacity:1" d="M 271.409,754.47 271.409,725.716 z" id="boundary" inkscape:connector-curvature="0" />
	<path style="fill:none;stroke:red;stroke-width:1px;stroke-linecap:butt;stroke-linejoin:miter;stroke-opacity:1" d="M 271.409,783.223 271.409,811.977 z" id="boundary" inkscape:connector-curvature="0" />
	<path style="fill:none;stroke:red;stroke-width:1px;stroke-linecap:butt;stroke-linejoin:miter;stroke-opacity:1" d="M 271.409,840.73 271.409,869.484 z" id="boundary" inkscape:connector-curvature="0" />
	<path style="fill:none;stroke:red;stroke-width:1px;stroke-linecap:butt;stroke-linejoin:miter;stroke-opacity:1" d="M 271.409,840.73 271.409,811.977 z" id="boundary" inkscape:connector-curvature="0" />
	<path style="fill:none;stroke:red;stroke-width:1px;stroke-linecap:butt;stroke-linejoin:miter;stroke-opacity:1" d="M 271.409,869.484 271.409,898.238 z" id="boundary" inkscape:connector-curvature="0" />
	<path style="fill:none;stroke:red;stroke-width:1px;stroke-linecap:butt;stroke-linejoin:miter;stroke-opacity:1" d="M 277.159,955.745 271.409,926.991 z" id="boundary" inkscape:connector-curvature="0" />
	<path style="fill:none;stroke:red;stroke-width:1px;stroke-linecap:butt;stroke-linejoin:miter;stroke-opacity:1" d="M 271.409,926.991 271.409,898.238 z" id="boundary" inkscape:connector-curvature="0" />
	<circle cx="4" cy="32.7536" r="4" fill="#0" id="circle0"/>
	<circle cx="6.87536" cy="61.5072" r="4" fill="#0" id="circle1"/>
	<circle cx="15.5014" cy="4" r="4" fill="#0" id="circle2"/>
	<circle cx="18.3768" cy="90.2609" r="4" fill="#0" id="circle3"/>
	<circle cx="44.2551" cy="4" r="4" fill="#0" id="circle4"/>
	<circle cx="47.1304" cy="90.2609" r="4" fill="#0" id="circle5"/>
	<circle cx="73.0087" cy="15.5014" r="4" fill="#0" id="circle6"/>
	<circle cx="73.0087" cy="75.8841" r="4" fill="#0" id="circle7"/>
	<circle cx="101.762" cy="15.5014" r="4" fill="#0" id="circle8"/>
	<circle cx="101.762" cy="75.8841" r="4" fill="#0" id="circle9"/>
	<circle cx="113.264" cy="987.374" r="4" fill="#0" id="circle10"/>
	<circle cx="119.014" cy="947.119" r="4" fill="#0" id="circle11"/>
	<circle cx="124.765" cy="596.325" r="4" fill="#0" id="circle12"/>
	<circle cx="124.765" cy="625.078" r="4" fill="#0" id="circle13"/>
	<circle cx="124.765" cy="653.832" r="4" fill="#0" id="circle14"/>
	<circle cx="124.765" cy="682.586" r="4" fill="#0" id="circle15"/>
	<circle cx="124.765" cy="711.339" r="4" fill="#0" id="circle16"/>
	<circle cx="124.765" cy="740.093" r="4" fill="#0" id="circle17"/>
	<circle cx="124.765" cy="768.846" r="4" fill="#0" id="circle18"/>
	<circle cx="124.765" cy="797.6" r="4" fill="#0" id="circle19"/>
	<circle cx="124.765" cy="826.354" r="4" fill="#0" id="circle20"/>
	<circle cx="124.765" cy="855.107" r="4" fill="#0" id="circle21"/>
	<circle cx="124.765" cy="883.861" r="4" fill="#0" id="circle22"/>
	<circle cx="124.765" cy="912.614" r="4" fill="#0" id="circle23"/>
	<circle cx="130.516" cy="4" r="4" fill="#0" id="circle24"/>
	<circle cx="130.516" cy="84.5101" r="4" fill="#0" id="circle25"/>
	<circle cx="130.516" cy="481.31" r="4" fill="#0" id="circle26"/>
	<circle cx="130.516" cy="510.064" r="4" fill="#0" id="circle27"/>
	<circle cx="130.516" cy="538.817" r="4" fill="#0" id="circle28"/>
	<circle cx="130.516" cy="567.571" r="4" fill="#0" id="circle29"/>
	<circle cx="136.267" cy="113.264" r="4" fill="#0" id="circle30"/>
	<circle cx="136.267" cy="142.017" r="4" fill="#0" id="circle31"/>
	<circle cx="142.017" cy="996" r="4" fill="#0" id="circle32"/>
	<circle cx="147.768" cy="170.771" r="4" fill="#0" id="circle33"/>
	<circle cx="147.768" cy="458.307" r="4" fill="#0" id="circle34"/>
	<circle cx="153.519" cy="199.525" r="4" fill="#0" id="circle35"/>
	<circle cx="159.27" cy="4" r="4" fill="#0" id="circle36"/>
	<circle cx="159.27" cy="228.278" r="4" fill="#0" id="circle37"/>
	<circle cx="159.27" cy="257.032" r="4" fill="#0" id="circle38"/>
	<circle cx="159.27" cy="400.8" r="4" fill="#0" id="circle39"/>
	<circle cx="159.27" cy="429.554" r="4" fill="#0" id="circle40"/>
	<circle cx="165.02" cy="285.786" r="4" fill="#0" id="circle41"/>
	<circle cx="165.02" cy="314.539" r="4" fill="#0" id="circle42"/>
	<circle cx="165.02" cy="343.293" r="4" fill="#0" id="circle43"/>
	<circle cx="165.02" cy="372.046" r="4" fill="#0" id="circle44"/>
	<circle cx="170.771" cy="996" r="4" fill="#0" id="circle45"/>
	<circle cx="188.023" cy="4" r="4" fill="#0" id="circle46"/>
	<circle cx="199.525" cy="996" r="4" fill="#0" id="circle47"/>
	<circle cx="216.777" cy="4" r="4" fill="#0" id="circle48"/>
	<circle cx="228.278" cy="996" r="4" fill="#0" id="circle49"/>
	<circle cx="231.154" cy="268.533" r="4" fill="#0" id="circle50"/>
	<circle cx="231.154" cy="297.287" r="4" fill="#0" id="circle51"/>
	<circle cx="231.154" cy="326.041" r="4" fill="#0" id="circle52"/>
	<circle cx="231.154" cy="354.794" r="4" fill="#0" id="circle53"/>
	<circle cx="231.154" cy="383.548" r="4" fill="#0" id="circle54"/>
	<circle cx="236.904" cy="205.275" r="4" fill="#0" id="circle55"/>
	<circle cx="236.904" cy="234.029" r="4" fill="#0" id="circle56"/>
	<circle cx="236.904" cy="412.301" r="4" fill="#0" id="circle57"/>
	<circle cx="239.78" cy="441.055" r="4" fill="#0" id="circle58"/>
	<circle cx="245.53" cy="4" r="4" fill="#0" id="circle59"/>
	<circle cx="248.406" cy="159.27" r="4" fill="#0" id="circle60"/>
	<circle cx="251.281" cy="469.809" r="4" fill="#0" id="circle61"/>
	<circle cx="257.032" cy="996" r="4" fill="#0" id="circle62"/>
	<circle cx="259.907" cy="90.2609" r="4" fill="#0" id="circle63"/>
	<circle cx="259.907" cy="119.014" r="4" fill="#0" id="circle64"/>
	<circle cx="265.658" cy="495.687" r="4" fill="#0" id="circle65"/>
	<circle cx="265.658" cy="524.441" r="4" fill="#0" id="circle66"/>
	<circle cx="265.658" cy="553.194" r="4" fill="#0" id="circle67"/>
	<circle cx="265.658" cy="581.948" r="4" fill="#0" id="circle68"/>
	<circle cx="265.658" cy="610.701" r="4" fill="#0" id="circle69"/>
	<circle cx="271.409" cy="639.455" r="4" fill="#0" id="circle70"/>
	<circle cx="271.409" cy="668.209" r="4" fill="#0" id="circle71"/>
	<circle cx="271.409" cy="696.962" r="4" fill="#0" id="circle72"/>
	<circle cx="271.409" cy="725.716" r="4" fill="#0" id="circle73"/>
	<circle cx="271.409" cy="754.47" r="4" fill="#0" id="circle74"/>
	<circle cx="271.409" cy="783.223" r="4" fill="#0" id="circle75"/>
	<circle cx="271.409" cy="811.977" r="4" fill="#0" id="circle76"/>
	<circle cx="271.409" cy="840.73" r="4" fill="#0" id="circle77"/>
	<circle cx="271.409" cy="869.484" r="4" fill="#0" id="circle78"/>
	<circle cx="271.409" cy="898.238" r="4" fill="#0" id="circle79"/>
	<circle cx="271.409" cy="926.991" r="4" fill="#0" id="circle80"/>
	<circle cx="274.284" cy="6.87536" r="4" fill="#0" id="circle81"/>
	<circle cx="277.159" cy="955.745" r="4" fill="#0" id="circle82"/>
	<circle cx="288.661" cy="87.3855" r="4" fill="#0" id="circle83"/>
	<circle cx="297.287" cy="24.1275" r="4" fill="#0" id="circle84"/>
	<circle cx="317.414" cy="98.887" r="4" fill="#0" id="circle85"/>
	<circle cx="320.29" cy="41.3797" r="4" fill="#0" id="circle86"/>
	<circle cx="340.417" cy="64.3826" r="4" fill="#0" id="circle87"/>
	<circle cx="343.293" cy="113.264" r="4" fill="#0" id="circle88"/>
	<circle cx="357.67" cy="87.3855" r="4" fill="#0" id="circle89"/>
	<circle cx="360.545" cy="136.267" r="4" fill="#0" id="circle90"/>
	<circle cx="374.922" cy="110.388" r="4" fill="#0" id="circle91"/>
	<circle cx="377.797" cy="159.27" r="4" fill="#0" id="circle92"/>
	</g>
</svg>