<?xml version="1.0" encoding="UTF-8" standalone="no"?>
<!-- Created with CurveBenchmark -->
<svg
	xmlns:dc="http://purl.org/dc/elements/1.1/"
	xmlns:cc="http://creativecommons.org/ns#"
	xmlns:rdf="http://www.w3.org/1999/02/22-rdf-syntax-ns#"
	xmlns:svg="http://www.w3.org/2000/svg"
	xmlns="http://www.w3.org/2000/svg"
	xmlns:sodipodi="http://sodipodi.sourceforge.net/DTD/sodipodi-0.dtd"
	xmlns:inkscape="http://www.inkscape.org/namespaces/inkscape"
	width="1000"
	height="1000"
	id="svg2"
	version="1.1"
	sodipodi:docname="manifold/gathan1-elephant22.png.txt">
<defs
	id="defs4" />
<metadata
	id="metadata7">
	<rdf:RDF>
		<cc:Work
			rdf:about="">
			<dc:format>image/svg+xml</dc:format>
			<dc:type
				rdf:resource="http://purl.org/dc/dcmitype/StillImage" />
			<dc:title></dc:title>
		</cc:Work>
	</rdf:RDF>
</metadata>
<g
	inkscape:label="Layer 1"
	inkscape:groupmode="layer"
	id="layer1">
	<path style="fill:none;stroke:red;stroke-width:1px;stroke-linecap:butt;stroke-linejoin:miter;stroke-opacity:1" d="M 13.8024,68.6957 23.6047,49.0909 z" id="boundary" inkscape:connector-curvature="0" />
	<path style="fill:none;stroke:red;stroke-width:1px;stroke-linecap:butt;stroke-linejoin:miter;stroke-opacity:1" d="M 23.6047,49.0909 39.2885,33.4071 z" id="boundary" inkscape:connector-curvature="0" />
	<path style="fill:none;stroke:red;stroke-width:1px;stroke-linecap:butt;stroke-linejoin:miter;stroke-opacity:1" d="M 4,117.708 4,98.1028 z" id="boundary" inkscape:connector-curvature="0" />
	<path style="fill:none;stroke:red;stroke-width:1px;stroke-linecap:butt;stroke-linejoin:miter;stroke-opacity:1" d="M 4,137.312 4,117.708 z" id="boundary" inkscape:connector-curvature="0" />
	<path style="fill:none;stroke:red;stroke-width:1px;stroke-linecap:butt;stroke-linejoin:miter;stroke-opacity:1" d="M 4,98.1028 13.8024,68.6957 z" id="boundary" inkscape:connector-curvature="0" />
	<path style="fill:none;stroke:red;stroke-width:1px;stroke-linecap:butt;stroke-linejoin:miter;stroke-opacity:1" d="M 39.2885,33.4071 54.9723,17.7233 z" id="boundary" inkscape:connector-curvature="0" />
	<path style="fill:none;stroke:red;stroke-width:1px;stroke-linecap:butt;stroke-linejoin:miter;stroke-opacity:1" d="M 80.4585,60.8538 64.7747,74.5771 z" id="boundary" inkscape:connector-curvature="0" />
	<path style="fill:none;stroke:red;stroke-width:1px;stroke-linecap:butt;stroke-linejoin:miter;stroke-opacity:1" d="M 100.063,54.9723 80.4585,60.8538 z" id="boundary" inkscape:connector-curvature="0" />
	<path style="fill:none;stroke:red;stroke-width:1px;stroke-linecap:butt;stroke-linejoin:miter;stroke-opacity:1" d="M 74.5771,7.92095 94.1818,4 z" id="boundary" inkscape:connector-curvature="0" />
	<path style="fill:none;stroke:red;stroke-width:1px;stroke-linecap:butt;stroke-linejoin:miter;stroke-opacity:1" d="M 94.1818,4 113.787,4 z" id="boundary" inkscape:connector-curvature="0" />
	<path style="fill:none;stroke:red;stroke-width:1px;stroke-linecap:butt;stroke-linejoin:miter;stroke-opacity:1" d="M 64.7747,74.5771 64.7747,94.1818 z" id="boundary" inkscape:connector-curvature="0" />
	<path style="fill:none;stroke:red;stroke-width:1px;stroke-linecap:butt;stroke-linejoin:miter;stroke-opacity:1" d="M 13.8024,154.957 4,137.312 z" id="boundary" inkscape:connector-curvature="0" />
	<path style="fill:none;stroke:red;stroke-width:1px;stroke-linecap:butt;stroke-linejoin:miter;stroke-opacity:1" d="M 74.5771,131.431 64.7747,113.787 z" id="boundary" inkscape:connector-curvature="0" />
	<path style="fill:none;stroke:red;stroke-width:1px;stroke-linecap:butt;stroke-linejoin:miter;stroke-opacity:1" d="M 64.7747,113.787 64.7747,94.1818 z" id="boundary" inkscape:connector-curvature="0" />
	<path style="fill:none;stroke:red;stroke-width:1px;stroke-linecap:butt;stroke-linejoin:miter;stroke-opacity:1" d="M 54.9723,17.7233 74.5771,7.92095 z" id="boundary" inkscape:connector-curvature="0" />
	<path style="fill:none;stroke:red;stroke-width:1px;stroke-linecap:butt;stroke-linejoin:miter;stroke-opacity:1" d="M 13.8024,154.957 23.6047,172.601 z" id="boundary" inkscape:connector-curvature="0" />
	<path style="fill:none;stroke:red;stroke-width:1px;stroke-linecap:butt;stroke-linejoin:miter;stroke-opacity:1" d="M 23.6047,172.601 23.6047,192.206 z" id="boundary" inkscape:connector-curvature="0" />
	<path style="fill:none;stroke:red;stroke-width:1px;stroke-linecap:butt;stroke-linejoin:miter;stroke-opacity:1" d="M 23.6047,192.206 35.3676,207.889 z" id="boundary" inkscape:connector-curvature="0" />
	<path style="fill:none;stroke:red;stroke-width:1px;stroke-linecap:butt;stroke-linejoin:miter;stroke-opacity:1" d="M 45.17,225.534 35.3676,207.889 z" id="boundary" inkscape:connector-curvature="0" />
	<path style="fill:none;stroke:red;stroke-width:1px;stroke-linecap:butt;stroke-linejoin:miter;stroke-opacity:1" d="M 45.17,225.534 58.8933,241.217 z" id="boundary" inkscape:connector-curvature="0" />
	<path style="fill:none;stroke:red;stroke-width:1px;stroke-linecap:butt;stroke-linejoin:miter;stroke-opacity:1" d="M 53.0119,301.992 43.2095,284.348 z" id="boundary" inkscape:connector-curvature="0" />
	<path style="fill:none;stroke:red;stroke-width:1px;stroke-linecap:butt;stroke-linejoin:miter;stroke-opacity:1" d="M 58.8933,241.217 78.498,249.059 z" id="boundary" inkscape:connector-curvature="0" />
	<path style="fill:none;stroke:red;stroke-width:1px;stroke-linecap:butt;stroke-linejoin:miter;stroke-opacity:1" d="M 86.3399,268.664 78.498,249.059 z" id="boundary" inkscape:connector-curvature="0" />
	<path style="fill:none;stroke:red;stroke-width:1px;stroke-linecap:butt;stroke-linejoin:miter;stroke-opacity:1" d="M 84.3794,168.68 100.063,182.403 z" id="boundary" inkscape:connector-curvature="0" />
	<path style="fill:none;stroke:red;stroke-width:1px;stroke-linecap:butt;stroke-linejoin:miter;stroke-opacity:1" d="M 74.5771,151.036 74.5771,131.431 z" id="boundary" inkscape:connector-curvature="0" />
	<path style="fill:none;stroke:red;stroke-width:1px;stroke-linecap:butt;stroke-linejoin:miter;stroke-opacity:1" d="M 84.3794,168.68 74.5771,151.036 z" id="boundary" inkscape:connector-curvature="0" />
	<path style="fill:none;stroke:red;stroke-width:1px;stroke-linecap:butt;stroke-linejoin:miter;stroke-opacity:1" d="M 72.6166,309.834 53.0119,301.992 z" id="boundary" inkscape:connector-curvature="0" />
	<path style="fill:none;stroke:red;stroke-width:1px;stroke-linecap:butt;stroke-linejoin:miter;stroke-opacity:1" d="M 90.2609,319.636 72.6166,309.834 z" id="boundary" inkscape:connector-curvature="0" />
	<path style="fill:none;stroke:red;stroke-width:1px;stroke-linecap:butt;stroke-linejoin:miter;stroke-opacity:1" d="M 86.3399,268.664 102.024,288.269 z" id="boundary" inkscape:connector-curvature="0" />
	<path style="fill:none;stroke:red;stroke-width:1px;stroke-linecap:butt;stroke-linejoin:miter;stroke-opacity:1" d="M 90.2609,319.636 102.024,343.162 z" id="boundary" inkscape:connector-curvature="0" />
	<path style="fill:none;stroke:red;stroke-width:1px;stroke-linecap:butt;stroke-linejoin:miter;stroke-opacity:1" d="M 100.063,54.9723 117.708,64.7747 z" id="boundary" inkscape:connector-curvature="0" />
	<path style="fill:none;stroke:red;stroke-width:1px;stroke-linecap:butt;stroke-linejoin:miter;stroke-opacity:1" d="M 133.391,78.498 117.708,64.7747 z" id="boundary" inkscape:connector-curvature="0" />
	<path style="fill:none;stroke:red;stroke-width:1px;stroke-linecap:butt;stroke-linejoin:miter;stroke-opacity:1" d="M 117.708,192.206 133.391,205.929 z" id="boundary" inkscape:connector-curvature="0" />
	<path style="fill:none;stroke:red;stroke-width:1px;stroke-linecap:butt;stroke-linejoin:miter;stroke-opacity:1" d="M 117.708,192.206 100.063,182.403 z" id="boundary" inkscape:connector-curvature="0" />
	<path style="fill:none;stroke:red;stroke-width:1px;stroke-linecap:butt;stroke-linejoin:miter;stroke-opacity:1" d="M 152.996,209.85 133.391,205.929 z" id="boundary" inkscape:connector-curvature="0" />
	<path style="fill:none;stroke:red;stroke-width:1px;stroke-linecap:butt;stroke-linejoin:miter;stroke-opacity:1" d="M 133.391,78.498 141.233,98.1028 z" id="boundary" inkscape:connector-curvature="0" />
	<path style="fill:none;stroke:red;stroke-width:1px;stroke-linecap:butt;stroke-linejoin:miter;stroke-opacity:1" d="M 131.431,13.8024 147.115,25.5652 z" id="boundary" inkscape:connector-curvature="0" />
	<path style="fill:none;stroke:red;stroke-width:1px;stroke-linecap:butt;stroke-linejoin:miter;stroke-opacity:1" d="M 113.787,4 131.431,13.8024 z" id="boundary" inkscape:connector-curvature="0" />
	<path style="fill:none;stroke:red;stroke-width:1px;stroke-linecap:butt;stroke-linejoin:miter;stroke-opacity:1" d="M 160.838,88.3004 141.233,98.1028 z" id="boundary" inkscape:connector-curvature="0" />
	<path style="fill:none;stroke:red;stroke-width:1px;stroke-linecap:butt;stroke-linejoin:miter;stroke-opacity:1" d="M 162.798,39.2885 172.601,56.9328 z" id="boundary" inkscape:connector-curvature="0" />
	<path style="fill:none;stroke:red;stroke-width:1px;stroke-linecap:butt;stroke-linejoin:miter;stroke-opacity:1" d="M 172.601,56.9328 160.838,88.3004 z" id="boundary" inkscape:connector-curvature="0" />
	<path style="fill:none;stroke:red;stroke-width:1px;stroke-linecap:butt;stroke-linejoin:miter;stroke-opacity:1" d="M 343.162,200.047 323.557,200.047 z" id="boundary" inkscape:connector-curvature="0" />
	<path style="fill:none;stroke:red;stroke-width:1px;stroke-linecap:butt;stroke-linejoin:miter;stroke-opacity:1" d="M 343.162,200.047 360.806,209.85 z" id="boundary" inkscape:connector-curvature="0" />
	<path style="fill:none;stroke:red;stroke-width:1px;stroke-linecap:butt;stroke-linejoin:miter;stroke-opacity:1" d="M 147.115,25.5652 162.798,39.2885 z" id="boundary" inkscape:connector-curvature="0" />
	<path style="fill:none;stroke:red;stroke-width:1px;stroke-linecap:butt;stroke-linejoin:miter;stroke-opacity:1" d="M 170.64,219.652 152.996,209.85 z" id="boundary" inkscape:connector-curvature="0" />
	<path style="fill:none;stroke:red;stroke-width:1px;stroke-linecap:butt;stroke-linejoin:miter;stroke-opacity:1" d="M 190.245,219.652 170.64,219.652 z" id="boundary" inkscape:connector-curvature="0" />
	<path style="fill:none;stroke:red;stroke-width:1px;stroke-linecap:butt;stroke-linejoin:miter;stroke-opacity:1" d="M 227.494,209.85 209.85,219.652 z" id="boundary" inkscape:connector-curvature="0" />
	<path style="fill:none;stroke:red;stroke-width:1px;stroke-linecap:butt;stroke-linejoin:miter;stroke-opacity:1" d="M 209.85,219.652 190.245,219.652 z" id="boundary" inkscape:connector-curvature="0" />
	<path style="fill:none;stroke:red;stroke-width:1px;stroke-linecap:butt;stroke-linejoin:miter;stroke-opacity:1" d="M 247.099,209.85 227.494,209.85 z" id="boundary" inkscape:connector-curvature="0" />
	<path style="fill:none;stroke:red;stroke-width:1px;stroke-linecap:butt;stroke-linejoin:miter;stroke-opacity:1" d="M 121.628,349.043 102.024,343.162 z" id="boundary" inkscape:connector-curvature="0" />
	<path style="fill:none;stroke:red;stroke-width:1px;stroke-linecap:butt;stroke-linejoin:miter;stroke-opacity:1" d="M 139.273,358.846 121.628,349.043 z" id="boundary" inkscape:connector-curvature="0" />
	<path style="fill:none;stroke:red;stroke-width:1px;stroke-linecap:butt;stroke-linejoin:miter;stroke-opacity:1" d="M 266.704,209.85 286.308,209.85 z" id="boundary" inkscape:connector-curvature="0" />
	<path style="fill:none;stroke:red;stroke-width:1px;stroke-linecap:butt;stroke-linejoin:miter;stroke-opacity:1" d="M 360.806,209.85 376.49,223.573 z" id="boundary" inkscape:connector-curvature="0" />
	<path style="fill:none;stroke:red;stroke-width:1px;stroke-linecap:butt;stroke-linejoin:miter;stroke-opacity:1" d="M 305.913,209.85 323.557,200.047 z" id="boundary" inkscape:connector-curvature="0" />
	<path style="fill:none;stroke:red;stroke-width:1px;stroke-linecap:butt;stroke-linejoin:miter;stroke-opacity:1" d="M 305.913,209.85 286.308,209.85 z" id="boundary" inkscape:connector-curvature="0" />
	<path style="fill:none;stroke:red;stroke-width:1px;stroke-linecap:butt;stroke-linejoin:miter;stroke-opacity:1" d="M 394.134,233.375 376.49,223.573 z" id="boundary" inkscape:connector-curvature="0" />
	<path style="fill:none;stroke:red;stroke-width:1px;stroke-linecap:butt;stroke-linejoin:miter;stroke-opacity:1" d="M 394.134,233.375 413.739,241.217 z" id="boundary" inkscape:connector-curvature="0" />
	<path style="fill:none;stroke:red;stroke-width:1px;stroke-linecap:butt;stroke-linejoin:miter;stroke-opacity:1" d="M 452.949,249.059 433.344,249.059 z" id="boundary" inkscape:connector-curvature="0" />
	<path style="fill:none;stroke:red;stroke-width:1px;stroke-linecap:butt;stroke-linejoin:miter;stroke-opacity:1" d="M 433.344,249.059 413.739,241.217 z" id="boundary" inkscape:connector-curvature="0" />
	<path style="fill:none;stroke:red;stroke-width:1px;stroke-linecap:butt;stroke-linejoin:miter;stroke-opacity:1" d="M 247.099,209.85 266.704,209.85 z" id="boundary" inkscape:connector-curvature="0" />
	<path style="fill:none;stroke:red;stroke-width:1px;stroke-linecap:butt;stroke-linejoin:miter;stroke-opacity:1" d="M 176.522,368.648 156.917,368.648 z" id="boundary" inkscape:connector-curvature="0" />
	<path style="fill:none;stroke:red;stroke-width:1px;stroke-linecap:butt;stroke-linejoin:miter;stroke-opacity:1" d="M 156.917,368.648 139.273,358.846 z" id="boundary" inkscape:connector-curvature="0" />
	<path style="fill:none;stroke:red;stroke-width:1px;stroke-linecap:butt;stroke-linejoin:miter;stroke-opacity:1" d="M 176.522,368.648 192.206,382.372 z" id="boundary" inkscape:connector-curvature="0" />
	<path style="fill:none;stroke:red;stroke-width:1px;stroke-linecap:butt;stroke-linejoin:miter;stroke-opacity:1" d="M 192.206,382.372 209.85,392.174 z" id="boundary" inkscape:connector-curvature="0" />
	<path style="fill:none;stroke:red;stroke-width:1px;stroke-linecap:butt;stroke-linejoin:miter;stroke-opacity:1" d="M 209.85,392.174 219.652,409.818 z" id="boundary" inkscape:connector-curvature="0" />
	<path style="fill:none;stroke:red;stroke-width:1px;stroke-linecap:butt;stroke-linejoin:miter;stroke-opacity:1" d="M 219.652,409.818 229.455,427.462 z" id="boundary" inkscape:connector-curvature="0" />
	<path style="fill:none;stroke:red;stroke-width:1px;stroke-linecap:butt;stroke-linejoin:miter;stroke-opacity:1" d="M 241.217,443.146 260.822,450.988 z" id="boundary" inkscape:connector-curvature="0" />
	<path style="fill:none;stroke:red;stroke-width:1px;stroke-linecap:butt;stroke-linejoin:miter;stroke-opacity:1" d="M 260.822,450.988 274.545,466.672 z" id="boundary" inkscape:connector-curvature="0" />
	<path style="fill:none;stroke:red;stroke-width:1px;stroke-linecap:butt;stroke-linejoin:miter;stroke-opacity:1" d="M 241.217,443.146 229.455,427.462 z" id="boundary" inkscape:connector-curvature="0" />
	<path style="fill:none;stroke:red;stroke-width:1px;stroke-linecap:butt;stroke-linejoin:miter;stroke-opacity:1" d="M 268.664,588.221 268.664,568.617 z" id="boundary" inkscape:connector-curvature="0" />
	<path style="fill:none;stroke:red;stroke-width:1px;stroke-linecap:butt;stroke-linejoin:miter;stroke-opacity:1" d="M 278.466,605.866 268.664,588.221 z" id="boundary" inkscape:connector-curvature="0" />
	<path style="fill:none;stroke:red;stroke-width:1px;stroke-linecap:butt;stroke-linejoin:miter;stroke-opacity:1" d="M 268.664,627.431 268.664,647.036 z" id="boundary" inkscape:connector-curvature="0" />
	<path style="fill:none;stroke:red;stroke-width:1px;stroke-linecap:butt;stroke-linejoin:miter;stroke-opacity:1" d="M 268.664,647.036 258.862,666.64 z" id="boundary" inkscape:connector-curvature="0" />
	<path style="fill:none;stroke:red;stroke-width:1px;stroke-linecap:butt;stroke-linejoin:miter;stroke-opacity:1" d="M 268.664,627.431 278.466,605.866 z" id="boundary" inkscape:connector-curvature="0" />
	<path style="fill:none;stroke:red;stroke-width:1px;stroke-linecap:butt;stroke-linejoin:miter;stroke-opacity:1" d="M 249.059,696.047 258.862,666.64 z" id="boundary" inkscape:connector-curvature="0" />
	<path style="fill:none;stroke:red;stroke-width:1px;stroke-linecap:butt;stroke-linejoin:miter;stroke-opacity:1" d="M 170.64,901.897 186.324,886.213 z" id="boundary" inkscape:connector-curvature="0" />
	<path style="fill:none;stroke:red;stroke-width:1px;stroke-linecap:butt;stroke-linejoin:miter;stroke-opacity:1" d="M 200.047,833.281 200.047,852.885 z" id="boundary" inkscape:connector-curvature="0" />
	<path style="fill:none;stroke:red;stroke-width:1px;stroke-linecap:butt;stroke-linejoin:miter;stroke-opacity:1" d="M 200.047,852.885 186.324,886.213 z" id="boundary" inkscape:connector-curvature="0" />
	<path style="fill:none;stroke:red;stroke-width:1px;stroke-linecap:butt;stroke-linejoin:miter;stroke-opacity:1" d="M 219.652,956.791 200.047,950.909 z" id="boundary" inkscape:connector-curvature="0" />
	<path style="fill:none;stroke:red;stroke-width:1px;stroke-linecap:butt;stroke-linejoin:miter;stroke-opacity:1" d="M 160.838,921.502 160.838,941.107 z" id="boundary" inkscape:connector-curvature="0" />
	<path style="fill:none;stroke:red;stroke-width:1px;stroke-linecap:butt;stroke-linejoin:miter;stroke-opacity:1" d="M 180.443,946.988 160.838,941.107 z" id="boundary" inkscape:connector-curvature="0" />
	<path style="fill:none;stroke:red;stroke-width:1px;stroke-linecap:butt;stroke-linejoin:miter;stroke-opacity:1" d="M 180.443,946.988 200.047,950.909 z" id="boundary" inkscape:connector-curvature="0" />
	<path style="fill:none;stroke:red;stroke-width:1px;stroke-linecap:butt;stroke-linejoin:miter;stroke-opacity:1" d="M 160.838,921.502 170.64,901.897 z" id="boundary" inkscape:connector-curvature="0" />
	<path style="fill:none;stroke:red;stroke-width:1px;stroke-linecap:butt;stroke-linejoin:miter;stroke-opacity:1" d="M 209.85,803.874 219.652,784.269 z" id="boundary" inkscape:connector-curvature="0" />
	<path style="fill:none;stroke:red;stroke-width:1px;stroke-linecap:butt;stroke-linejoin:miter;stroke-opacity:1" d="M 229.455,754.862 219.652,784.269 z" id="boundary" inkscape:connector-curvature="0" />
	<path style="fill:none;stroke:red;stroke-width:1px;stroke-linecap:butt;stroke-linejoin:miter;stroke-opacity:1" d="M 229.455,754.862 239.257,725.455 z" id="boundary" inkscape:connector-curvature="0" />
	<path style="fill:none;stroke:red;stroke-width:1px;stroke-linecap:butt;stroke-linejoin:miter;stroke-opacity:1" d="M 239.257,956.791 256.901,946.988 z" id="boundary" inkscape:connector-curvature="0" />
	<path style="fill:none;stroke:red;stroke-width:1px;stroke-linecap:butt;stroke-linejoin:miter;stroke-opacity:1" d="M 256.901,946.988 276.506,946.988 z" id="boundary" inkscape:connector-curvature="0" />
	<path style="fill:none;stroke:red;stroke-width:1px;stroke-linecap:butt;stroke-linejoin:miter;stroke-opacity:1" d="M 239.257,956.791 219.652,956.791 z" id="boundary" inkscape:connector-curvature="0" />
	<path style="fill:none;stroke:red;stroke-width:1px;stroke-linecap:butt;stroke-linejoin:miter;stroke-opacity:1" d="M 200.047,833.281 209.85,803.874 z" id="boundary" inkscape:connector-curvature="0" />
	<path style="fill:none;stroke:red;stroke-width:1px;stroke-linecap:butt;stroke-linejoin:miter;stroke-opacity:1" d="M 239.257,725.455 249.059,696.047 z" id="boundary" inkscape:connector-curvature="0" />
	<path style="fill:none;stroke:red;stroke-width:1px;stroke-linecap:butt;stroke-linejoin:miter;stroke-opacity:1" d="M 288.269,501.96 278.466,519.605 z" id="boundary" inkscape:connector-curvature="0" />
	<path style="fill:none;stroke:red;stroke-width:1px;stroke-linecap:butt;stroke-linejoin:miter;stroke-opacity:1" d="M 274.545,466.672 288.269,482.356 z" id="boundary" inkscape:connector-curvature="0" />
	<path style="fill:none;stroke:red;stroke-width:1px;stroke-linecap:butt;stroke-linejoin:miter;stroke-opacity:1" d="M 288.269,482.356 288.269,501.96 z" id="boundary" inkscape:connector-curvature="0" />
	<path style="fill:none;stroke:red;stroke-width:1px;stroke-linecap:butt;stroke-linejoin:miter;stroke-opacity:1" d="M 278.466,539.209 278.466,519.605 z" id="boundary" inkscape:connector-curvature="0" />
	<path style="fill:none;stroke:red;stroke-width:1px;stroke-linecap:butt;stroke-linejoin:miter;stroke-opacity:1" d="M 309.834,839.162 319.636,819.557 z" id="boundary" inkscape:connector-curvature="0" />
	<path style="fill:none;stroke:red;stroke-width:1px;stroke-linecap:butt;stroke-linejoin:miter;stroke-opacity:1" d="M 329.439,799.953 319.636,819.557 z" id="boundary" inkscape:connector-curvature="0" />
	<path style="fill:none;stroke:red;stroke-width:1px;stroke-linecap:butt;stroke-linejoin:miter;stroke-opacity:1" d="M 309.834,839.162 300.032,868.569 z" id="boundary" inkscape:connector-curvature="0" />
	<path style="fill:none;stroke:red;stroke-width:1px;stroke-linecap:butt;stroke-linejoin:miter;stroke-opacity:1" d="M 268.664,568.617 278.466,539.209 z" id="boundary" inkscape:connector-curvature="0" />
	<path style="fill:none;stroke:red;stroke-width:1px;stroke-linecap:butt;stroke-linejoin:miter;stroke-opacity:1" d="M 329.439,799.953 345.123,786.229 z" id="boundary" inkscape:connector-curvature="0" />
	<path style="fill:none;stroke:red;stroke-width:1px;stroke-linecap:butt;stroke-linejoin:miter;stroke-opacity:1" d="M 356.885,770.545 366.688,788.19 z" id="boundary" inkscape:connector-curvature="0" />
	<path style="fill:none;stroke:red;stroke-width:1px;stroke-linecap:butt;stroke-linejoin:miter;stroke-opacity:1" d="M 345.123,786.229 356.885,770.545 z" id="boundary" inkscape:connector-curvature="0" />
	<path style="fill:none;stroke:red;stroke-width:1px;stroke-linecap:butt;stroke-linejoin:miter;stroke-opacity:1" d="M 366.688,788.19 366.688,807.794 z" id="boundary" inkscape:connector-curvature="0" />
	<path style="fill:none;stroke:red;stroke-width:1px;stroke-linecap:butt;stroke-linejoin:miter;stroke-opacity:1" d="M 376.49,825.439 378.451,845.043 z" id="boundary" inkscape:connector-curvature="0" />
	<path style="fill:none;stroke:red;stroke-width:1px;stroke-linecap:butt;stroke-linejoin:miter;stroke-opacity:1" d="M 376.49,825.439 366.688,807.794 z" id="boundary" inkscape:connector-curvature="0" />
	<path style="fill:none;stroke:red;stroke-width:1px;stroke-linecap:butt;stroke-linejoin:miter;stroke-opacity:1" d="M 386.292,864.648 378.451,845.043 z" id="boundary" inkscape:connector-curvature="0" />
	<path style="fill:none;stroke:red;stroke-width:1px;stroke-linecap:butt;stroke-linejoin:miter;stroke-opacity:1" d="M 396.095,882.292 386.292,864.648 z" id="boundary" inkscape:connector-curvature="0" />
	<path style="fill:none;stroke:red;stroke-width:1px;stroke-linecap:butt;stroke-linejoin:miter;stroke-opacity:1" d="M 300.032,888.174 300.032,868.569 z" id="boundary" inkscape:connector-curvature="0" />
	<path style="fill:none;stroke:red;stroke-width:1px;stroke-linecap:butt;stroke-linejoin:miter;stroke-opacity:1" d="M 309.834,905.818 300.032,888.174 z" id="boundary" inkscape:connector-curvature="0" />
	<path style="fill:none;stroke:red;stroke-width:1px;stroke-linecap:butt;stroke-linejoin:miter;stroke-opacity:1" d="M 372.569,935.225 356.885,950.909 z" id="boundary" inkscape:connector-curvature="0" />
	<path style="fill:none;stroke:red;stroke-width:1px;stroke-linecap:butt;stroke-linejoin:miter;stroke-opacity:1" d="M 309.834,925.423 309.834,905.818 z" id="boundary" inkscape:connector-curvature="0" />
	<path style="fill:none;stroke:red;stroke-width:1px;stroke-linecap:butt;stroke-linejoin:miter;stroke-opacity:1" d="M 276.506,946.988 296.111,943.067 z" id="boundary" inkscape:connector-curvature="0" />
	<path style="fill:none;stroke:red;stroke-width:1px;stroke-linecap:butt;stroke-linejoin:miter;stroke-opacity:1" d="M 309.834,925.423 296.111,943.067 z" id="boundary" inkscape:connector-curvature="0" />
	<path style="fill:none;stroke:red;stroke-width:1px;stroke-linecap:butt;stroke-linejoin:miter;stroke-opacity:1" d="M 356.885,950.909 356.885,970.514 z" id="boundary" inkscape:connector-curvature="0" />
	<path style="fill:none;stroke:red;stroke-width:1px;stroke-linecap:butt;stroke-linejoin:miter;stroke-opacity:1" d="M 372.569,984.237 356.885,970.514 z" id="boundary" inkscape:connector-curvature="0" />
	<path style="fill:none;stroke:red;stroke-width:1px;stroke-linecap:butt;stroke-linejoin:miter;stroke-opacity:1" d="M 386.292,901.897 388.253,921.502 z" id="boundary" inkscape:connector-curvature="0" />
	<path style="fill:none;stroke:red;stroke-width:1px;stroke-linecap:butt;stroke-linejoin:miter;stroke-opacity:1" d="M 388.253,921.502 372.569,935.225 z" id="boundary" inkscape:connector-curvature="0" />
	<path style="fill:none;stroke:red;stroke-width:1px;stroke-linecap:butt;stroke-linejoin:miter;stroke-opacity:1" d="M 449.028,996 429.423,996 z" id="boundary" inkscape:connector-curvature="0" />
	<path style="fill:none;stroke:red;stroke-width:1px;stroke-linecap:butt;stroke-linejoin:miter;stroke-opacity:1" d="M 386.292,901.897 396.095,882.292 z" id="boundary" inkscape:connector-curvature="0" />
	<path style="fill:none;stroke:red;stroke-width:1px;stroke-linecap:butt;stroke-linejoin:miter;stroke-opacity:1" d="M 372.569,984.237 390.213,994.04 z" id="boundary" inkscape:connector-curvature="0" />
	<path style="fill:none;stroke:red;stroke-width:1px;stroke-linecap:butt;stroke-linejoin:miter;stroke-opacity:1" d="M 409.818,996 390.213,994.04 z" id="boundary" inkscape:connector-curvature="0" />
	<path style="fill:none;stroke:red;stroke-width:1px;stroke-linecap:butt;stroke-linejoin:miter;stroke-opacity:1" d="M 429.423,996 409.818,996 z" id="boundary" inkscape:connector-curvature="0" />
	<path style="fill:none;stroke:red;stroke-width:1px;stroke-linecap:butt;stroke-linejoin:miter;stroke-opacity:1" d="M 490.198,258.862 470.593,258.862 z" id="boundary" inkscape:connector-curvature="0" />
	<path style="fill:none;stroke:red;stroke-width:1px;stroke-linecap:butt;stroke-linejoin:miter;stroke-opacity:1" d="M 470.593,258.862 452.949,249.059 z" id="boundary" inkscape:connector-curvature="0" />
	<path style="fill:none;stroke:red;stroke-width:1px;stroke-linecap:butt;stroke-linejoin:miter;stroke-opacity:1" d="M 509.802,258.862 490.198,258.862 z" id="boundary" inkscape:connector-curvature="0" />
	<path style="fill:none;stroke:red;stroke-width:1px;stroke-linecap:butt;stroke-linejoin:miter;stroke-opacity:1" d="M 509.802,258.862 527.447,268.664 z" id="boundary" inkscape:connector-curvature="0" />
	<path style="fill:none;stroke:red;stroke-width:1px;stroke-linecap:butt;stroke-linejoin:miter;stroke-opacity:1" d="M 564.696,284.348 545.091,278.466 z" id="boundary" inkscape:connector-curvature="0" />
	<path style="fill:none;stroke:red;stroke-width:1px;stroke-linecap:butt;stroke-linejoin:miter;stroke-opacity:1" d="M 545.091,278.466 527.447,268.664 z" id="boundary" inkscape:connector-curvature="0" />
	<path style="fill:none;stroke:red;stroke-width:1px;stroke-linecap:butt;stroke-linejoin:miter;stroke-opacity:1" d="M 564.696,284.348 578.419,300.032 z" id="boundary" inkscape:connector-curvature="0" />
	<path style="fill:none;stroke:red;stroke-width:1px;stroke-linecap:butt;stroke-linejoin:miter;stroke-opacity:1" d="M 578.419,300.032 584.3,319.636 z" id="boundary" inkscape:connector-curvature="0" />
	<path style="fill:none;stroke:red;stroke-width:1px;stroke-linecap:butt;stroke-linejoin:miter;stroke-opacity:1" d="M 599.984,331.399 584.3,319.636 z" id="boundary" inkscape:connector-curvature="0" />
	<path style="fill:none;stroke:red;stroke-width:1px;stroke-linecap:butt;stroke-linejoin:miter;stroke-opacity:1" d="M 599.984,331.399 619.589,337.281 z" id="boundary" inkscape:connector-curvature="0" />
	<path style="fill:none;stroke:red;stroke-width:1px;stroke-linecap:butt;stroke-linejoin:miter;stroke-opacity:1" d="M 639.194,337.281 619.589,337.281 z" id="boundary" inkscape:connector-curvature="0" />
	<path style="fill:none;stroke:red;stroke-width:1px;stroke-linecap:butt;stroke-linejoin:miter;stroke-opacity:1" d="M 639.194,337.281 658.798,337.281 z" id="boundary" inkscape:connector-curvature="0" />
	<path style="fill:none;stroke:red;stroke-width:1px;stroke-linecap:butt;stroke-linejoin:miter;stroke-opacity:1" d="M 678.403,339.241 698.008,347.083 z" id="boundary" inkscape:connector-curvature="0" />
	<path style="fill:none;stroke:red;stroke-width:1px;stroke-linecap:butt;stroke-linejoin:miter;stroke-opacity:1" d="M 658.798,337.281 678.403,339.241 z" id="boundary" inkscape:connector-curvature="0" />
	<path style="fill:none;stroke:red;stroke-width:1px;stroke-linecap:butt;stroke-linejoin:miter;stroke-opacity:1" d="M 717.613,347.083 698.008,347.083 z" id="boundary" inkscape:connector-curvature="0" />
	<path style="fill:none;stroke:red;stroke-width:1px;stroke-linecap:butt;stroke-linejoin:miter;stroke-opacity:1" d="M 476.474,721.534 486.277,701.929 z" id="boundary" inkscape:connector-curvature="0" />
	<path style="fill:none;stroke:red;stroke-width:1px;stroke-linecap:butt;stroke-linejoin:miter;stroke-opacity:1" d="M 486.277,701.929 505.881,705.85 z" id="boundary" inkscape:connector-curvature="0" />
	<path style="fill:none;stroke:red;stroke-width:1px;stroke-linecap:butt;stroke-linejoin:miter;stroke-opacity:1" d="M 476.474,741.138 476.474,721.534 z" id="boundary" inkscape:connector-curvature="0" />
	<path style="fill:none;stroke:red;stroke-width:1px;stroke-linecap:butt;stroke-linejoin:miter;stroke-opacity:1" d="M 523.526,715.652 505.881,705.85 z" id="boundary" inkscape:connector-curvature="0" />
	<path style="fill:none;stroke:red;stroke-width:1px;stroke-linecap:butt;stroke-linejoin:miter;stroke-opacity:1" d="M 476.474,741.138 486.277,758.783 z" id="boundary" inkscape:connector-curvature="0" />
	<path style="fill:none;stroke:red;stroke-width:1px;stroke-linecap:butt;stroke-linejoin:miter;stroke-opacity:1" d="M 486.277,758.783 486.277,778.387 z" id="boundary" inkscape:connector-curvature="0" />
	<path style="fill:none;stroke:red;stroke-width:1px;stroke-linecap:butt;stroke-linejoin:miter;stroke-opacity:1" d="M 562.735,721.534 543.13,721.534 z" id="boundary" inkscape:connector-curvature="0" />
	<path style="fill:none;stroke:red;stroke-width:1px;stroke-linecap:butt;stroke-linejoin:miter;stroke-opacity:1" d="M 543.13,721.534 523.526,715.652 z" id="boundary" inkscape:connector-curvature="0" />
	<path style="fill:none;stroke:red;stroke-width:1px;stroke-linecap:butt;stroke-linejoin:miter;stroke-opacity:1" d="M 735.257,356.885 717.613,347.083 z" id="boundary" inkscape:connector-curvature="0" />
	<path style="fill:none;stroke:red;stroke-width:1px;stroke-linecap:butt;stroke-linejoin:miter;stroke-opacity:1" d="M 752.901,366.688 768.585,380.411 z" id="boundary" inkscape:connector-curvature="0" />
	<path style="fill:none;stroke:red;stroke-width:1px;stroke-linecap:butt;stroke-linejoin:miter;stroke-opacity:1" d="M 735.257,356.885 752.901,366.688 z" id="boundary" inkscape:connector-curvature="0" />
	<path style="fill:none;stroke:red;stroke-width:1px;stroke-linecap:butt;stroke-linejoin:miter;stroke-opacity:1" d="M 592.142,754.862 592.142,774.466 z" id="boundary" inkscape:connector-curvature="0" />
	<path style="fill:none;stroke:red;stroke-width:1px;stroke-linecap:butt;stroke-linejoin:miter;stroke-opacity:1" d="M 580.379,731.336 599.984,731.336 z" id="boundary" inkscape:connector-curvature="0" />
	<path style="fill:none;stroke:red;stroke-width:1px;stroke-linecap:butt;stroke-linejoin:miter;stroke-opacity:1" d="M 599.984,731.336 592.142,754.862 z" id="boundary" inkscape:connector-curvature="0" />
	<path style="fill:none;stroke:red;stroke-width:1px;stroke-linecap:butt;stroke-linejoin:miter;stroke-opacity:1" d="M 580.379,731.336 562.735,721.534 z" id="boundary" inkscape:connector-curvature="0" />
	<path style="fill:none;stroke:red;stroke-width:1px;stroke-linecap:butt;stroke-linejoin:miter;stroke-opacity:1" d="M 768.585,380.411 780.348,396.095 z" id="boundary" inkscape:connector-curvature="0" />
	<path style="fill:none;stroke:red;stroke-width:1px;stroke-linecap:butt;stroke-linejoin:miter;stroke-opacity:1" d="M 592.142,774.466 582.34,794.071 z" id="boundary" inkscape:connector-curvature="0" />
	<path style="fill:none;stroke:red;stroke-width:1px;stroke-linecap:butt;stroke-linejoin:miter;stroke-opacity:1" d="M 780.348,396.095 796.032,407.858 z" id="boundary" inkscape:connector-curvature="0" />
	<path style="fill:none;stroke:red;stroke-width:1px;stroke-linecap:butt;stroke-linejoin:miter;stroke-opacity:1" d="M 796.032,407.858 805.834,425.502 z" id="boundary" inkscape:connector-curvature="0" />
	<path style="fill:none;stroke:red;stroke-width:1px;stroke-linecap:butt;stroke-linejoin:miter;stroke-opacity:1" d="M 819.557,441.186 805.834,425.502 z" id="boundary" inkscape:connector-curvature="0" />
	<path style="fill:none;stroke:red;stroke-width:1px;stroke-linecap:butt;stroke-linejoin:miter;stroke-opacity:1" d="M 819.557,441.186 833.281,456.87 z" id="boundary" inkscape:connector-curvature="0" />
	<path style="fill:none;stroke:red;stroke-width:1px;stroke-linecap:butt;stroke-linejoin:miter;stroke-opacity:1" d="M 848.964,470.593 833.281,456.87 z" id="boundary" inkscape:connector-curvature="0" />
	<path style="fill:none;stroke:red;stroke-width:1px;stroke-linecap:butt;stroke-linejoin:miter;stroke-opacity:1" d="M 848.964,470.593 858.767,488.237 z" id="boundary" inkscape:connector-curvature="0" />
	<path style="fill:none;stroke:red;stroke-width:1px;stroke-linecap:butt;stroke-linejoin:miter;stroke-opacity:1" d="M 870.53,503.921 888.174,513.723 z" id="boundary" inkscape:connector-curvature="0" />
	<path style="fill:none;stroke:red;stroke-width:1px;stroke-linecap:butt;stroke-linejoin:miter;stroke-opacity:1" d="M 870.53,503.921 858.767,488.237 z" id="boundary" inkscape:connector-curvature="0" />
	<path style="fill:none;stroke:red;stroke-width:1px;stroke-linecap:butt;stroke-linejoin:miter;stroke-opacity:1" d="M 888.174,513.723 897.976,531.368 z" id="boundary" inkscape:connector-curvature="0" />
	<path style="fill:none;stroke:red;stroke-width:1px;stroke-linecap:butt;stroke-linejoin:miter;stroke-opacity:1" d="M 897.976,550.972 897.976,531.368 z" id="boundary" inkscape:connector-curvature="0" />
	<path style="fill:none;stroke:red;stroke-width:1px;stroke-linecap:butt;stroke-linejoin:miter;stroke-opacity:1" d="M 907.779,568.617 897.976,550.972 z" id="boundary" inkscape:connector-curvature="0" />
	<path style="fill:none;stroke:red;stroke-width:1px;stroke-linecap:butt;stroke-linejoin:miter;stroke-opacity:1" d="M 858.767,584.3 858.767,564.696 z" id="boundary" inkscape:connector-curvature="0" />
	<path style="fill:none;stroke:red;stroke-width:1px;stroke-linecap:butt;stroke-linejoin:miter;stroke-opacity:1" d="M 907.779,568.617 907.779,588.221 z" id="boundary" inkscape:connector-curvature="0" />
	<path style="fill:none;stroke:red;stroke-width:1px;stroke-linecap:butt;stroke-linejoin:miter;stroke-opacity:1" d="M 858.767,584.3 848.964,613.708 z" id="boundary" inkscape:connector-curvature="0" />
	<path style="fill:none;stroke:red;stroke-width:1px;stroke-linecap:butt;stroke-linejoin:miter;stroke-opacity:1" d="M 848.964,613.708 848.964,633.312 z" id="boundary" inkscape:connector-curvature="0" />
	<path style="fill:none;stroke:red;stroke-width:1px;stroke-linecap:butt;stroke-linejoin:miter;stroke-opacity:1" d="M 848.964,633.312 839.162,652.917 z" id="boundary" inkscape:connector-curvature="0" />
	<path style="fill:none;stroke:red;stroke-width:1px;stroke-linecap:butt;stroke-linejoin:miter;stroke-opacity:1" d="M 839.162,652.917 829.36,672.522 z" id="boundary" inkscape:connector-curvature="0" />
	<path style="fill:none;stroke:red;stroke-width:1px;stroke-linecap:butt;stroke-linejoin:miter;stroke-opacity:1" d="M 839.162,690.166 829.36,672.522 z" id="boundary" inkscape:connector-curvature="0" />
	<path style="fill:none;stroke:red;stroke-width:1px;stroke-linecap:butt;stroke-linejoin:miter;stroke-opacity:1" d="M 839.162,690.166 848.964,707.81 z" id="boundary" inkscape:connector-curvature="0" />
	<path style="fill:none;stroke:red;stroke-width:1px;stroke-linecap:butt;stroke-linejoin:miter;stroke-opacity:1" d="M 858.767,725.455 848.964,707.81 z" id="boundary" inkscape:connector-curvature="0" />
	<path style="fill:none;stroke:red;stroke-width:1px;stroke-linecap:butt;stroke-linejoin:miter;stroke-opacity:1" d="M 866.609,647.036 878.372,662.719 z" id="boundary" inkscape:connector-curvature="0" />
	<path style="fill:none;stroke:red;stroke-width:1px;stroke-linecap:butt;stroke-linejoin:miter;stroke-opacity:1" d="M 907.779,588.221 907.779,607.826 z" id="boundary" inkscape:connector-curvature="0" />
	<path style="fill:none;stroke:red;stroke-width:1px;stroke-linecap:butt;stroke-linejoin:miter;stroke-opacity:1" d="M 907.779,607.826 897.976,643.115 z" id="boundary" inkscape:connector-curvature="0" />
	<path style="fill:none;stroke:red;stroke-width:1px;stroke-linecap:butt;stroke-linejoin:miter;stroke-opacity:1" d="M 878.372,662.719 897.976,643.115 z" id="boundary" inkscape:connector-curvature="0" />
	<path style="fill:none;stroke:red;stroke-width:1px;stroke-linecap:butt;stroke-linejoin:miter;stroke-opacity:1" d="M 872.49,741.138 858.767,725.455 z" id="boundary" inkscape:connector-curvature="0" />
	<path style="fill:none;stroke:red;stroke-width:1px;stroke-linecap:butt;stroke-linejoin:miter;stroke-opacity:1" d="M 896.016,774.466 882.292,758.783 z" id="boundary" inkscape:connector-curvature="0" />
	<path style="fill:none;stroke:red;stroke-width:1px;stroke-linecap:butt;stroke-linejoin:miter;stroke-opacity:1" d="M 882.292,758.783 872.49,741.138 z" id="boundary" inkscape:connector-curvature="0" />
	<path style="fill:none;stroke:red;stroke-width:1px;stroke-linecap:butt;stroke-linejoin:miter;stroke-opacity:1" d="M 496.079,815.636 486.277,797.992 z" id="boundary" inkscape:connector-curvature="0" />
	<path style="fill:none;stroke:red;stroke-width:1px;stroke-linecap:butt;stroke-linejoin:miter;stroke-opacity:1" d="M 486.277,797.992 486.277,778.387 z" id="boundary" inkscape:connector-curvature="0" />
	<path style="fill:none;stroke:red;stroke-width:1px;stroke-linecap:butt;stroke-linejoin:miter;stroke-opacity:1" d="M 505.881,833.281 496.079,815.636 z" id="boundary" inkscape:connector-curvature="0" />
	<path style="fill:none;stroke:red;stroke-width:1px;stroke-linecap:butt;stroke-linejoin:miter;stroke-opacity:1" d="M 505.881,833.281 505.881,852.885 z" id="boundary" inkscape:connector-curvature="0" />
	<path style="fill:none;stroke:red;stroke-width:1px;stroke-linecap:butt;stroke-linejoin:miter;stroke-opacity:1" d="M 505.881,872.49 505.881,892.095 z" id="boundary" inkscape:connector-curvature="0" />
	<path style="fill:none;stroke:red;stroke-width:1px;stroke-linecap:butt;stroke-linejoin:miter;stroke-opacity:1" d="M 505.881,872.49 505.881,852.885 z" id="boundary" inkscape:connector-curvature="0" />
	<path style="fill:none;stroke:red;stroke-width:1px;stroke-linecap:butt;stroke-linejoin:miter;stroke-opacity:1" d="M 505.881,892.095 505.881,911.7 z" id="boundary" inkscape:connector-curvature="0" />
	<path style="fill:none;stroke:red;stroke-width:1px;stroke-linecap:butt;stroke-linejoin:miter;stroke-opacity:1" d="M 572.538,833.281 562.735,852.885 z" id="boundary" inkscape:connector-curvature="0" />
	<path style="fill:none;stroke:red;stroke-width:1px;stroke-linecap:butt;stroke-linejoin:miter;stroke-opacity:1" d="M 562.735,852.885 549.012,886.213 z" id="boundary" inkscape:connector-curvature="0" />
	<path style="fill:none;stroke:red;stroke-width:1px;stroke-linecap:butt;stroke-linejoin:miter;stroke-opacity:1" d="M 572.538,833.281 572.538,813.676 z" id="boundary" inkscape:connector-curvature="0" />
	<path style="fill:none;stroke:red;stroke-width:1px;stroke-linecap:butt;stroke-linejoin:miter;stroke-opacity:1" d="M 572.538,813.676 582.34,794.071 z" id="boundary" inkscape:connector-curvature="0" />
	<path style="fill:none;stroke:red;stroke-width:1px;stroke-linecap:butt;stroke-linejoin:miter;stroke-opacity:1" d="M 533.328,901.897 549.012,886.213 z" id="boundary" inkscape:connector-curvature="0" />
	<path style="fill:none;stroke:red;stroke-width:1px;stroke-linecap:butt;stroke-linejoin:miter;stroke-opacity:1" d="M 662.719,888.174 672.522,868.569 z" id="boundary" inkscape:connector-curvature="0" />
	<path style="fill:none;stroke:red;stroke-width:1px;stroke-linecap:butt;stroke-linejoin:miter;stroke-opacity:1" d="M 672.522,905.818 662.719,888.174 z" id="boundary" inkscape:connector-curvature="0" />
	<path style="fill:none;stroke:red;stroke-width:1px;stroke-linecap:butt;stroke-linejoin:miter;stroke-opacity:1" d="M 505.881,911.7 513.723,931.304 z" id="boundary" inkscape:connector-curvature="0" />
	<path style="fill:none;stroke:red;stroke-width:1px;stroke-linecap:butt;stroke-linejoin:miter;stroke-opacity:1" d="M 503.921,980.316 515.684,950.909 z" id="boundary" inkscape:connector-curvature="0" />
	<path style="fill:none;stroke:red;stroke-width:1px;stroke-linecap:butt;stroke-linejoin:miter;stroke-opacity:1" d="M 515.684,950.909 513.723,931.304 z" id="boundary" inkscape:connector-curvature="0" />
	<path style="fill:none;stroke:red;stroke-width:1px;stroke-linecap:butt;stroke-linejoin:miter;stroke-opacity:1" d="M 468.632,996 449.028,996 z" id="boundary" inkscape:connector-curvature="0" />
	<path style="fill:none;stroke:red;stroke-width:1px;stroke-linecap:butt;stroke-linejoin:miter;stroke-opacity:1" d="M 488.237,996 503.921,980.316 z" id="boundary" inkscape:connector-curvature="0" />
	<path style="fill:none;stroke:red;stroke-width:1px;stroke-linecap:butt;stroke-linejoin:miter;stroke-opacity:1" d="M 488.237,996 468.632,996 z" id="boundary" inkscape:connector-curvature="0" />
	<path style="fill:none;stroke:red;stroke-width:1px;stroke-linecap:butt;stroke-linejoin:miter;stroke-opacity:1" d="M 543.13,919.542 552.933,937.186 z" id="boundary" inkscape:connector-curvature="0" />
	<path style="fill:none;stroke:red;stroke-width:1px;stroke-linecap:butt;stroke-linejoin:miter;stroke-opacity:1" d="M 572.538,937.186 592.142,941.107 z" id="boundary" inkscape:connector-curvature="0" />
	<path style="fill:none;stroke:red;stroke-width:1px;stroke-linecap:butt;stroke-linejoin:miter;stroke-opacity:1" d="M 572.538,937.186 552.933,937.186 z" id="boundary" inkscape:connector-curvature="0" />
	<path style="fill:none;stroke:red;stroke-width:1px;stroke-linecap:butt;stroke-linejoin:miter;stroke-opacity:1" d="M 666.64,925.423 672.522,905.818 z" id="boundary" inkscape:connector-curvature="0" />
	<path style="fill:none;stroke:red;stroke-width:1px;stroke-linecap:butt;stroke-linejoin:miter;stroke-opacity:1" d="M 666.64,925.423 650.957,937.186 z" id="boundary" inkscape:connector-curvature="0" />
	<path style="fill:none;stroke:red;stroke-width:1px;stroke-linecap:butt;stroke-linejoin:miter;stroke-opacity:1" d="M 592.142,941.107 611.747,941.107 z" id="boundary" inkscape:connector-curvature="0" />
	<path style="fill:none;stroke:red;stroke-width:1px;stroke-linecap:butt;stroke-linejoin:miter;stroke-opacity:1" d="M 631.352,941.107 611.747,941.107 z" id="boundary" inkscape:connector-curvature="0" />
	<path style="fill:none;stroke:red;stroke-width:1px;stroke-linecap:butt;stroke-linejoin:miter;stroke-opacity:1" d="M 650.957,937.186 631.352,941.107 z" id="boundary" inkscape:connector-curvature="0" />
	<path style="fill:none;stroke:red;stroke-width:1px;stroke-linecap:butt;stroke-linejoin:miter;stroke-opacity:1" d="M 672.522,868.569 682.324,848.964 z" id="boundary" inkscape:connector-curvature="0" />
	<path style="fill:none;stroke:red;stroke-width:1px;stroke-linecap:butt;stroke-linejoin:miter;stroke-opacity:1" d="M 682.324,829.36 692.126,799.953 z" id="boundary" inkscape:connector-curvature="0" />
	<path style="fill:none;stroke:red;stroke-width:1px;stroke-linecap:butt;stroke-linejoin:miter;stroke-opacity:1" d="M 692.126,799.953 711.731,790.15 z" id="boundary" inkscape:connector-curvature="0" />
	<path style="fill:none;stroke:red;stroke-width:1px;stroke-linecap:butt;stroke-linejoin:miter;stroke-opacity:1" d="M 729.375,780.348 741.138,796.032 z" id="boundary" inkscape:connector-curvature="0" />
	<path style="fill:none;stroke:red;stroke-width:1px;stroke-linecap:butt;stroke-linejoin:miter;stroke-opacity:1" d="M 711.731,790.15 729.375,780.348 z" id="boundary" inkscape:connector-curvature="0" />
	<path style="fill:none;stroke:red;stroke-width:1px;stroke-linecap:butt;stroke-linejoin:miter;stroke-opacity:1" d="M 760.743,803.874 741.138,796.032 z" id="boundary" inkscape:connector-curvature="0" />
	<path style="fill:none;stroke:red;stroke-width:1px;stroke-linecap:butt;stroke-linejoin:miter;stroke-opacity:1" d="M 682.324,829.36 682.324,848.964 z" id="boundary" inkscape:connector-curvature="0" />
	<path style="fill:none;stroke:red;stroke-width:1px;stroke-linecap:butt;stroke-linejoin:miter;stroke-opacity:1" d="M 760.743,803.874 778.387,813.676 z" id="boundary" inkscape:connector-curvature="0" />
	<path style="fill:none;stroke:red;stroke-width:1px;stroke-linecap:butt;stroke-linejoin:miter;stroke-opacity:1" d="M 815.636,829.36 797.992,819.557 z" id="boundary" inkscape:connector-curvature="0" />
	<path style="fill:none;stroke:red;stroke-width:1px;stroke-linecap:butt;stroke-linejoin:miter;stroke-opacity:1" d="M 797.992,819.557 778.387,813.676 z" id="boundary" inkscape:connector-curvature="0" />
	<path style="fill:none;stroke:red;stroke-width:1px;stroke-linecap:butt;stroke-linejoin:miter;stroke-opacity:1" d="M 911.7,788.19 917.581,807.794 z" id="boundary" inkscape:connector-curvature="0" />
	<path style="fill:none;stroke:red;stroke-width:1px;stroke-linecap:butt;stroke-linejoin:miter;stroke-opacity:1" d="M 896.016,774.466 911.7,788.19 z" id="boundary" inkscape:connector-curvature="0" />
	<path style="fill:none;stroke:red;stroke-width:1px;stroke-linecap:butt;stroke-linejoin:miter;stroke-opacity:1" d="M 933.265,819.557 917.581,807.794 z" id="boundary" inkscape:connector-curvature="0" />
	<path style="fill:none;stroke:red;stroke-width:1px;stroke-linecap:butt;stroke-linejoin:miter;stroke-opacity:1" d="M 827.399,845.043 815.636,829.36 z" id="boundary" inkscape:connector-curvature="0" />
	<path style="fill:none;stroke:red;stroke-width:1px;stroke-linecap:butt;stroke-linejoin:miter;stroke-opacity:1" d="M 937.186,839.162 933.265,819.557 z" id="boundary" inkscape:connector-curvature="0" />
	<path style="fill:none;stroke:red;stroke-width:1px;stroke-linecap:butt;stroke-linejoin:miter;stroke-opacity:1" d="M 937.186,839.162 937.186,858.767 z" id="boundary" inkscape:connector-curvature="0" />
	<path style="fill:none;stroke:red;stroke-width:1px;stroke-linecap:butt;stroke-linejoin:miter;stroke-opacity:1" d="M 827.399,845.043 827.399,872.49 z" id="boundary" inkscape:connector-curvature="0" />
	<path style="fill:none;stroke:red;stroke-width:1px;stroke-linecap:butt;stroke-linejoin:miter;stroke-opacity:1" d="M 809.755,946.988 797.992,931.304 z" id="boundary" inkscape:connector-curvature="0" />
	<path style="fill:none;stroke:red;stroke-width:1px;stroke-linecap:butt;stroke-linejoin:miter;stroke-opacity:1" d="M 797.992,931.304 807.794,911.7 z" id="boundary" inkscape:connector-curvature="0" />
	<path style="fill:none;stroke:red;stroke-width:1px;stroke-linecap:butt;stroke-linejoin:miter;stroke-opacity:1" d="M 886.213,956.791 866.609,956.791 z" id="boundary" inkscape:connector-curvature="0" />
	<path style="fill:none;stroke:red;stroke-width:1px;stroke-linecap:butt;stroke-linejoin:miter;stroke-opacity:1" d="M 827.399,872.49 823.478,896.016 z" id="boundary" inkscape:connector-curvature="0" />
	<path style="fill:none;stroke:red;stroke-width:1px;stroke-linecap:butt;stroke-linejoin:miter;stroke-opacity:1" d="M 823.478,896.016 807.794,911.7 z" id="boundary" inkscape:connector-curvature="0" />
	<path style="fill:none;stroke:red;stroke-width:1px;stroke-linecap:butt;stroke-linejoin:miter;stroke-opacity:1" d="M 809.755,946.988 827.399,956.791 z" id="boundary" inkscape:connector-curvature="0" />
	<path style="fill:none;stroke:red;stroke-width:1px;stroke-linecap:butt;stroke-linejoin:miter;stroke-opacity:1" d="M 847.004,956.791 866.609,956.791 z" id="boundary" inkscape:connector-curvature="0" />
	<path style="fill:none;stroke:red;stroke-width:1px;stroke-linecap:butt;stroke-linejoin:miter;stroke-opacity:1" d="M 847.004,956.791 827.399,956.791 z" id="boundary" inkscape:connector-curvature="0" />
	<path style="fill:none;stroke:red;stroke-width:1px;stroke-linecap:butt;stroke-linejoin:miter;stroke-opacity:1" d="M 941.107,878.372 937.186,858.767 z" id="boundary" inkscape:connector-curvature="0" />
	<path style="fill:none;stroke:red;stroke-width:1px;stroke-linecap:butt;stroke-linejoin:miter;stroke-opacity:1" d="M 941.107,878.372 946.988,897.976 z" id="boundary" inkscape:connector-curvature="0" />
	<path style="fill:none;stroke:red;stroke-width:1px;stroke-linecap:butt;stroke-linejoin:miter;stroke-opacity:1" d="M 946.988,897.976 946.988,917.581 z" id="boundary" inkscape:connector-curvature="0" />
	<path style="fill:none;stroke:red;stroke-width:1px;stroke-linecap:butt;stroke-linejoin:miter;stroke-opacity:1" d="M 886.213,956.791 905.818,956.791 z" id="boundary" inkscape:connector-curvature="0" />
	<path style="fill:none;stroke:red;stroke-width:1px;stroke-linecap:butt;stroke-linejoin:miter;stroke-opacity:1" d="M 925.423,950.909 905.818,956.791 z" id="boundary" inkscape:connector-curvature="0" />
	<path style="fill:none;stroke:red;stroke-width:1px;stroke-linecap:butt;stroke-linejoin:miter;stroke-opacity:1" d="M 946.988,917.581 945.028,941.107 z" id="boundary" inkscape:connector-curvature="0" />
	<path style="fill:none;stroke:red;stroke-width:1px;stroke-linecap:butt;stroke-linejoin:miter;stroke-opacity:1" d="M 945.028,941.107 925.423,950.909 z" id="boundary" inkscape:connector-curvature="0" />
	<circle cx="4" cy="98.1028" r="4" fill="#0" id="circle0"/>
	<circle cx="4" cy="117.708" r="4" fill="#0" id="circle1"/>
	<circle cx="4" cy="137.312" r="4" fill="#0" id="circle2"/>
	<circle cx="13.8024" cy="68.6957" r="4" fill="#0" id="circle3"/>
	<circle cx="13.8024" cy="154.957" r="4" fill="#0" id="circle4"/>
	<circle cx="23.6047" cy="49.0909" r="4" fill="#0" id="circle5"/>
	<circle cx="23.6047" cy="172.601" r="4" fill="#0" id="circle6"/>
	<circle cx="23.6047" cy="192.206" r="4" fill="#0" id="circle7"/>
	<circle cx="35.3676" cy="207.889" r="4" fill="#0" id="circle8"/>
	<circle cx="39.2885" cy="33.4071" r="4" fill="#0" id="circle9"/>
	<circle cx="43.2095" cy="284.348" r="4" fill="#0" id="circle10"/>
	<circle cx="45.17" cy="225.534" r="4" fill="#0" id="circle11"/>
	<circle cx="53.0119" cy="301.992" r="4" fill="#0" id="circle12"/>
	<circle cx="54.9723" cy="17.7233" r="4" fill="#0" id="circle13"/>
	<circle cx="58.8933" cy="241.217" r="4" fill="#0" id="circle14"/>
	<circle cx="62.8142" cy="282.387" r="4" fill="#0" id="circle15"/>
	<circle cx="64.7747" cy="74.5771" r="4" fill="#0" id="circle16"/>
	<circle cx="64.7747" cy="94.1818" r="4" fill="#0" id="circle17"/>
	<circle cx="64.7747" cy="113.787" r="4" fill="#0" id="circle18"/>
	<circle cx="72.6166" cy="309.834" r="4" fill="#0" id="circle19"/>
	<circle cx="74.5771" cy="7.92095" r="4" fill="#0" id="circle20"/>
	<circle cx="74.5771" cy="131.431" r="4" fill="#0" id="circle21"/>
	<circle cx="74.5771" cy="151.036" r="4" fill="#0" id="circle22"/>
	<circle cx="78.498" cy="249.059" r="4" fill="#0" id="circle23"/>
	<circle cx="80.4585" cy="60.8538" r="4" fill="#0" id="circle24"/>
	<circle cx="82.419" cy="288.269" r="4" fill="#0" id="circle25"/>
	<circle cx="84.3794" cy="168.68" r="4" fill="#0" id="circle26"/>
	<circle cx="86.3399" cy="268.664" r="4" fill="#0" id="circle27"/>
	<circle cx="90.2609" cy="319.636" r="4" fill="#0" id="circle28"/>
	<circle cx="94.1818" cy="4" r="4" fill="#0" id="circle29"/>
	<circle cx="100.063" cy="54.9723" r="4" fill="#0" id="circle30"/>
	<circle cx="100.063" cy="182.403" r="4" fill="#0" id="circle31"/>
	<circle cx="102.024" cy="288.269" r="4" fill="#0" id="circle32"/>
	<circle cx="102.024" cy="343.162" r="4" fill="#0" id="circle33"/>
	<circle cx="113.787" cy="4" r="4" fill="#0" id="circle34"/>
	<circle cx="117.708" cy="64.7747" r="4" fill="#0" id="circle35"/>
	<circle cx="117.708" cy="192.206" r="4" fill="#0" id="circle36"/>
	<circle cx="121.628" cy="349.043" r="4" fill="#0" id="circle37"/>
	<circle cx="131.431" cy="13.8024" r="4" fill="#0" id="circle38"/>
	<circle cx="133.391" cy="78.498" r="4" fill="#0" id="circle39"/>
	<circle cx="133.391" cy="205.929" r="4" fill="#0" id="circle40"/>
	<circle cx="139.273" cy="358.846" r="4" fill="#0" id="circle41"/>
	<circle cx="141.233" cy="98.1028" r="4" fill="#0" id="circle42"/>
	<circle cx="147.115" cy="25.5652" r="4" fill="#0" id="circle43"/>
	<circle cx="152.996" cy="209.85" r="4" fill="#0" id="circle44"/>
	<circle cx="156.917" cy="368.648" r="4" fill="#0" id="circle45"/>
	<circle cx="160.838" cy="88.3004" r="4" fill="#0" id="circle46"/>
	<circle cx="160.838" cy="921.502" r="4" fill="#0" id="circle47"/>
	<circle cx="160.838" cy="941.107" r="4" fill="#0" id="circle48"/>
	<circle cx="162.798" cy="39.2885" r="4" fill="#0" id="circle49"/>
	<circle cx="170.64" cy="219.652" r="4" fill="#0" id="circle50"/>
	<circle cx="170.64" cy="901.897" r="4" fill="#0" id="circle51"/>
	<circle cx="172.601" cy="56.9328" r="4" fill="#0" id="circle52"/>
	<circle cx="176.522" cy="368.648" r="4" fill="#0" id="circle53"/>
	<circle cx="180.443" cy="946.988" r="4" fill="#0" id="circle54"/>
	<circle cx="186.324" cy="886.213" r="4" fill="#0" id="circle55"/>
	<circle cx="190.245" cy="219.652" r="4" fill="#0" id="circle56"/>
	<circle cx="192.206" cy="382.372" r="4" fill="#0" id="circle57"/>
	<circle cx="200.047" cy="833.281" r="4" fill="#0" id="circle58"/>
	<circle cx="200.047" cy="852.885" r="4" fill="#0" id="circle59"/>
	<circle cx="200.047" cy="950.909" r="4" fill="#0" id="circle60"/>
	<circle cx="209.85" cy="219.652" r="4" fill="#0" id="circle61"/>
	<circle cx="209.85" cy="392.174" r="4" fill="#0" id="circle62"/>
	<circle cx="209.85" cy="803.874" r="4" fill="#0" id="circle63"/>
	<circle cx="219.652" cy="409.818" r="4" fill="#0" id="circle64"/>
	<circle cx="219.652" cy="784.269" r="4" fill="#0" id="circle65"/>
	<circle cx="219.652" cy="956.791" r="4" fill="#0" id="circle66"/>
	<circle cx="227.494" cy="209.85" r="4" fill="#0" id="circle67"/>
	<circle cx="229.455" cy="427.462" r="4" fill="#0" id="circle68"/>
	<circle cx="229.455" cy="754.862" r="4" fill="#0" id="circle69"/>
	<circle cx="239.257" cy="725.455" r="4" fill="#0" id="circle70"/>
	<circle cx="239.257" cy="956.791" r="4" fill="#0" id="circle71"/>
	<circle cx="241.217" cy="443.146" r="4" fill="#0" id="circle72"/>
	<circle cx="247.099" cy="209.85" r="4" fill="#0" id="circle73"/>
	<circle cx="249.059" cy="696.047" r="4" fill="#0" id="circle74"/>
	<circle cx="256.901" cy="946.988" r="4" fill="#0" id="circle75"/>
	<circle cx="258.862" cy="666.64" r="4" fill="#0" id="circle76"/>
	<circle cx="260.822" cy="450.988" r="4" fill="#0" id="circle77"/>
	<circle cx="266.704" cy="209.85" r="4" fill="#0" id="circle78"/>
	<circle cx="268.664" cy="568.617" r="4" fill="#0" id="circle79"/>
	<circle cx="268.664" cy="588.221" r="4" fill="#0" id="circle80"/>
	<circle cx="268.664" cy="627.431" r="4" fill="#0" id="circle81"/>
	<circle cx="268.664" cy="647.036" r="4" fill="#0" id="circle82"/>
	<circle cx="274.545" cy="466.672" r="4" fill="#0" id="circle83"/>
	<circle cx="276.506" cy="946.988" r="4" fill="#0" id="circle84"/>
	<circle cx="278.466" cy="519.605" r="4" fill="#0" id="circle85"/>
	<circle cx="278.466" cy="539.209" r="4" fill="#0" id="circle86"/>
	<circle cx="278.466" cy="605.866" r="4" fill="#0" id="circle87"/>
	<circle cx="286.308" cy="209.85" r="4" fill="#0" id="circle88"/>
	<circle cx="288.269" cy="482.356" r="4" fill="#0" id="circle89"/>
	<circle cx="288.269" cy="501.96" r="4" fill="#0" id="circle90"/>
	<circle cx="296.111" cy="943.067" r="4" fill="#0" id="circle91"/>
	<circle cx="300.032" cy="868.569" r="4" fill="#0" id="circle92"/>
	<circle cx="300.032" cy="888.174" r="4" fill="#0" id="circle93"/>
	<circle cx="305.913" cy="209.85" r="4" fill="#0" id="circle94"/>
	<circle cx="309.834" cy="839.162" r="4" fill="#0" id="circle95"/>
	<circle cx="309.834" cy="905.818" r="4" fill="#0" id="circle96"/>
	<circle cx="309.834" cy="925.423" r="4" fill="#0" id="circle97"/>
	<circle cx="319.636" cy="819.557" r="4" fill="#0" id="circle98"/>
	<circle cx="323.557" cy="200.047" r="4" fill="#0" id="circle99"/>
	<circle cx="329.439" cy="799.953" r="4" fill="#0" id="circle100"/>
	<circle cx="343.162" cy="200.047" r="4" fill="#0" id="circle101"/>
	<circle cx="345.123" cy="786.229" r="4" fill="#0" id="circle102"/>
	<circle cx="356.885" cy="770.545" r="4" fill="#0" id="circle103"/>
	<circle cx="356.885" cy="950.909" r="4" fill="#0" id="circle104"/>
	<circle cx="356.885" cy="970.514" r="4" fill="#0" id="circle105"/>
	<circle cx="360.806" cy="209.85" r="4" fill="#0" id="circle106"/>
	<circle cx="366.688" cy="788.19" r="4" fill="#0" id="circle107"/>
	<circle cx="366.688" cy="807.794" r="4" fill="#0" id="circle108"/>
	<circle cx="372.569" cy="935.225" r="4" fill="#0" id="circle109"/>
	<circle cx="372.569" cy="984.237" r="4" fill="#0" id="circle110"/>
	<circle cx="376.49" cy="223.573" r="4" fill="#0" id="circle111"/>
	<circle cx="376.49" cy="825.439" r="4" fill="#0" id="circle112"/>
	<circle cx="378.451" cy="845.043" r="4" fill="#0" id="circle113"/>
	<circle cx="386.292" cy="864.648" r="4" fill="#0" id="circle114"/>
	<circle cx="386.292" cy="901.897" r="4" fill="#0" id="circle115"/>
	<circle cx="388.253" cy="921.502" r="4" fill="#0" id="circle116"/>
	<circle cx="390.213" cy="994.04" r="4" fill="#0" id="circle117"/>
	<circle cx="394.134" cy="233.375" r="4" fill="#0" id="circle118"/>
	<circle cx="396.095" cy="882.292" r="4" fill="#0" id="circle119"/>
	<circle cx="409.818" cy="996" r="4" fill="#0" id="circle120"/>
	<circle cx="413.739" cy="241.217" r="4" fill="#0" id="circle121"/>
	<circle cx="429.423" cy="996" r="4" fill="#0" id="circle122"/>
	<circle cx="433.344" cy="249.059" r="4" fill="#0" id="circle123"/>
	<circle cx="449.028" cy="996" r="4" fill="#0" id="circle124"/>
	<circle cx="452.949" cy="249.059" r="4" fill="#0" id="circle125"/>
	<circle cx="468.632" cy="996" r="4" fill="#0" id="circle126"/>
	<circle cx="470.593" cy="258.862" r="4" fill="#0" id="circle127"/>
	<circle cx="476.474" cy="721.534" r="4" fill="#0" id="circle128"/>
	<circle cx="476.474" cy="741.138" r="4" fill="#0" id="circle129"/>
	<circle cx="486.277" cy="701.929" r="4" fill="#0" id="circle130"/>
	<circle cx="486.277" cy="758.783" r="4" fill="#0" id="circle131"/>
	<circle cx="486.277" cy="778.387" r="4" fill="#0" id="circle132"/>
	<circle cx="486.277" cy="797.992" r="4" fill="#0" id="circle133"/>
	<circle cx="488.237" cy="996" r="4" fill="#0" id="circle134"/>
	<circle cx="490.198" cy="258.862" r="4" fill="#0" id="circle135"/>
	<circle cx="496.079" cy="815.636" r="4" fill="#0" id="circle136"/>
	<circle cx="503.921" cy="980.316" r="4" fill="#0" id="circle137"/>
	<circle cx="505.881" cy="705.85" r="4" fill="#0" id="circle138"/>
	<circle cx="505.881" cy="833.281" r="4" fill="#0" id="circle139"/>
	<circle cx="505.881" cy="852.885" r="4" fill="#0" id="circle140"/>
	<circle cx="505.881" cy="872.49" r="4" fill="#0" id="circle141"/>
	<circle cx="505.881" cy="892.095" r="4" fill="#0" id="circle142"/>
	<circle cx="505.881" cy="911.7" r="4" fill="#0" id="circle143"/>
	<circle cx="509.802" cy="258.862" r="4" fill="#0" id="circle144"/>
	<circle cx="513.723" cy="931.304" r="4" fill="#0" id="circle145"/>
	<circle cx="515.684" cy="950.909" r="4" fill="#0" id="circle146"/>
	<circle cx="523.526" cy="715.652" r="4" fill="#0" id="circle147"/>
	<circle cx="527.447" cy="268.664" r="4" fill="#0" id="circle148"/>
	<circle cx="533.328" cy="901.897" r="4" fill="#0" id="circle149"/>
	<circle cx="543.13" cy="721.534" r="4" fill="#0" id="circle150"/>
	<circle cx="543.13" cy="919.542" r="4" fill="#0" id="circle151"/>
	<circle cx="545.091" cy="278.466" r="4" fill="#0" id="circle152"/>
	<circle cx="549.012" cy="886.213" r="4" fill="#0" id="circle153"/>
	<circle cx="552.933" cy="937.186" r="4" fill="#0" id="circle154"/>
	<circle cx="562.735" cy="721.534" r="4" fill="#0" id="circle155"/>
	<circle cx="562.735" cy="852.885" r="4" fill="#0" id="circle156"/>
	<circle cx="564.696" cy="284.348" r="4" fill="#0" id="circle157"/>
	<circle cx="572.538" cy="813.676" r="4" fill="#0" id="circle158"/>
	<circle cx="572.538" cy="833.281" r="4" fill="#0" id="circle159"/>
	<circle cx="572.538" cy="937.186" r="4" fill="#0" id="circle160"/>
	<circle cx="578.419" cy="300.032" r="4" fill="#0" id="circle161"/>
	<circle cx="580.379" cy="731.336" r="4" fill="#0" id="circle162"/>
	<circle cx="582.34" cy="794.071" r="4" fill="#0" id="circle163"/>
	<circle cx="584.3" cy="319.636" r="4" fill="#0" id="circle164"/>
	<circle cx="592.142" cy="754.862" r="4" fill="#0" id="circle165"/>
	<circle cx="592.142" cy="774.466" r="4" fill="#0" id="circle166"/>
	<circle cx="592.142" cy="941.107" r="4" fill="#0" id="circle167"/>
	<circle cx="599.984" cy="331.399" r="4" fill="#0" id="circle168"/>
	<circle cx="599.984" cy="731.336" r="4" fill="#0" id="circle169"/>
	<circle cx="611.747" cy="941.107" r="4" fill="#0" id="circle170"/>
	<circle cx="619.589" cy="337.281" r="4" fill="#0" id="circle171"/>
	<circle cx="631.352" cy="941.107" r="4" fill="#0" id="circle172"/>
	<circle cx="639.194" cy="337.281" r="4" fill="#0" id="circle173"/>
	<circle cx="650.957" cy="937.186" r="4" fill="#0" id="circle174"/>
	<circle cx="658.798" cy="337.281" r="4" fill="#0" id="circle175"/>
	<circle cx="662.719" cy="888.174" r="4" fill="#0" id="circle176"/>
	<circle cx="666.64" cy="925.423" r="4" fill="#0" id="circle177"/>
	<circle cx="672.522" cy="868.569" r="4" fill="#0" id="circle178"/>
	<circle cx="672.522" cy="905.818" r="4" fill="#0" id="circle179"/>
	<circle cx="678.403" cy="339.241" r="4" fill="#0" id="circle180"/>
	<circle cx="682.324" cy="829.36" r="4" fill="#0" id="circle181"/>
	<circle cx="682.324" cy="848.964" r="4" fill="#0" id="circle182"/>
	<circle cx="692.126" cy="799.953" r="4" fill="#0" id="circle183"/>
	<circle cx="698.008" cy="347.083" r="4" fill="#0" id="circle184"/>
	<circle cx="711.731" cy="790.15" r="4" fill="#0" id="circle185"/>
	<circle cx="717.613" cy="347.083" r="4" fill="#0" id="circle186"/>
	<circle cx="729.375" cy="780.348" r="4" fill="#0" id="circle187"/>
	<circle cx="735.257" cy="356.885" r="4" fill="#0" id="circle188"/>
	<circle cx="741.138" cy="796.032" r="4" fill="#0" id="circle189"/>
	<circle cx="752.901" cy="366.688" r="4" fill="#0" id="circle190"/>
	<circle cx="760.743" cy="803.874" r="4" fill="#0" id="circle191"/>
	<circle cx="768.585" cy="380.411" r="4" fill="#0" id="circle192"/>
	<circle cx="778.387" cy="813.676" r="4" fill="#0" id="circle193"/>
	<circle cx="780.348" cy="396.095" r="4" fill="#0" id="circle194"/>
	<circle cx="796.032" cy="407.858" r="4" fill="#0" id="circle195"/>
	<circle cx="797.992" cy="819.557" r="4" fill="#0" id="circle196"/>
	<circle cx="797.992" cy="931.304" r="4" fill="#0" id="circle197"/>
	<circle cx="805.834" cy="425.502" r="4" fill="#0" id="circle198"/>
	<circle cx="807.794" cy="911.7" r="4" fill="#0" id="circle199"/>
	<circle cx="809.755" cy="946.988" r="4" fill="#0" id="circle200"/>
	<circle cx="815.636" cy="829.36" r="4" fill="#0" id="circle201"/>
	<circle cx="819.557" cy="441.186" r="4" fill="#0" id="circle202"/>
	<circle cx="823.478" cy="896.016" r="4" fill="#0" id="circle203"/>
	<circle cx="827.399" cy="845.043" r="4" fill="#0" id="circle204"/>
	<circle cx="827.399" cy="872.49" r="4" fill="#0" id="circle205"/>
	<circle cx="827.399" cy="956.791" r="4" fill="#0" id="circle206"/>
	<circle cx="829.36" cy="672.522" r="4" fill="#0" id="circle207"/>
	<circle cx="833.281" cy="456.87" r="4" fill="#0" id="circle208"/>
	<circle cx="839.162" cy="652.917" r="4" fill="#0" id="circle209"/>
	<circle cx="839.162" cy="690.166" r="4" fill="#0" id="circle210"/>
	<circle cx="847.004" cy="956.791" r="4" fill="#0" id="circle211"/>
	<circle cx="848.964" cy="470.593" r="4" fill="#0" id="circle212"/>
	<circle cx="848.964" cy="613.708" r="4" fill="#0" id="circle213"/>
	<circle cx="848.964" cy="633.312" r="4" fill="#0" id="circle214"/>
	<circle cx="848.964" cy="707.81" r="4" fill="#0" id="circle215"/>
	<circle cx="858.767" cy="488.237" r="4" fill="#0" id="circle216"/>
	<circle cx="858.767" cy="564.696" r="4" fill="#0" id="circle217"/>
	<circle cx="858.767" cy="584.3" r="4" fill="#0" id="circle218"/>
	<circle cx="858.767" cy="725.455" r="4" fill="#0" id="circle219"/>
	<circle cx="866.609" cy="647.036" r="4" fill="#0" id="circle220"/>
	<circle cx="866.609" cy="956.791" r="4" fill="#0" id="circle221"/>
	<circle cx="870.53" cy="503.921" r="4" fill="#0" id="circle222"/>
	<circle cx="872.49" cy="741.138" r="4" fill="#0" id="circle223"/>
	<circle cx="876.411" cy="574.498" r="4" fill="#0" id="circle224"/>
	<circle cx="876.411" cy="617.628" r="4" fill="#0" id="circle225"/>
	<circle cx="878.372" cy="662.719" r="4" fill="#0" id="circle226"/>
	<circle cx="882.292" cy="594.103" r="4" fill="#0" id="circle227"/>
	<circle cx="882.292" cy="758.783" r="4" fill="#0" id="circle228"/>
	<circle cx="886.213" cy="956.791" r="4" fill="#0" id="circle229"/>
	<circle cx="888.174" cy="513.723" r="4" fill="#0" id="circle230"/>
	<circle cx="896.016" cy="774.466" r="4" fill="#0" id="circle231"/>
	<circle cx="897.976" cy="531.368" r="4" fill="#0" id="circle232"/>
	<circle cx="897.976" cy="550.972" r="4" fill="#0" id="circle233"/>
	<circle cx="897.976" cy="643.115" r="4" fill="#0" id="circle234"/>
	<circle cx="905.818" cy="956.791" r="4" fill="#0" id="circle235"/>
	<circle cx="907.779" cy="568.617" r="4" fill="#0" id="circle236"/>
	<circle cx="907.779" cy="588.221" r="4" fill="#0" id="circle237"/>
	<circle cx="907.779" cy="607.826" r="4" fill="#0" id="circle238"/>
	<circle cx="911.7" cy="788.19" r="4" fill="#0" id="circle239"/>
	<circle cx="917.581" cy="807.794" r="4" fill="#0" id="circle240"/>
	<circle cx="925.423" cy="950.909" r="4" fill="#0" id="circle241"/>
	<circle cx="933.265" cy="819.557" r="4" fill="#0" id="circle242"/>
	<circle cx="937.186" cy="839.162" r="4" fill="#0" id="circle243"/>
	<circle cx="937.186" cy="858.767" r="4" fill="#0" id="circle244"/>
	<circle cx="941.107" cy="878.372" r="4" fill="#0" id="circle245"/>
	<circle cx="945.028" cy="941.107" r="4" fill="#0" id="circle246"/>
	<circle cx="946.988" cy="897.976" r="4" fill="#0" id="circle247"/>
	<circle cx="946.988" cy="917.581" r="4" fill="#0" id="circle248"/>
	</g>
</svg>