<?xml version="1.0" encoding="UTF-8" standalone="no"?>
<!-- Created with CurveBenchmark -->
<svg
	xmlns:dc="http://purl.org/dc/elements/1.1/"
	xmlns:cc="http://creativecommons.org/ns#"
	xmlns:rdf="http://www.w3.org/1999/02/22-rdf-syntax-ns#"
	xmlns:svg="http://www.w3.org/2000/svg"
	xmlns="http://www.w3.org/2000/svg"
	xmlns:sodipodi="http://sodipodi.sourceforge.net/DTD/sodipodi-0.dtd"
	xmlns:inkscape="http://www.inkscape.org/namespaces/inkscape"
	width="1000"
	height="1000"
	id="svg2"
	version="1.1"
	sodipodi:docname="manifold/gathang-teddy090.png.txt">
<defs
	id="defs4" />
<metadata
	id="metadata7">
	<rdf:RDF>
		<cc:Work
			rdf:about="">
			<dc:format>image/svg+xml</dc:format>
			<dc:type
				rdf:resource="http://purl.org/dc/dcmitype/StillImage" />
			<dc:title></dc:title>
		</cc:Work>
	</rdf:RDF>
</metadata>
<g
	inkscape:label="Layer 1"
	inkscape:groupmode="layer"
	id="layer1">
	<path style="fill:none;stroke:red;stroke-width:1px;stroke-linecap:butt;stroke-linejoin:miter;stroke-opacity:1" d="M 43.567,218.792 43.567,190.53 z" id="boundary" inkscape:connector-curvature="0" />
	<path style="fill:none;stroke:red;stroke-width:1px;stroke-linecap:butt;stroke-linejoin:miter;stroke-opacity:1" d="M 43.567,190.53 54.8718,156.615 z" id="boundary" inkscape:connector-curvature="0" />
	<path style="fill:none;stroke:red;stroke-width:1px;stroke-linecap:butt;stroke-linejoin:miter;stroke-opacity:1" d="M 49.2194,60.5242 49.2194,88.7863 z" id="boundary" inkscape:connector-curvature="0" />
	<path style="fill:none;stroke:red;stroke-width:1px;stroke-linecap:butt;stroke-linejoin:miter;stroke-opacity:1" d="M 54.8718,117.048 49.2194,88.7863 z" id="boundary" inkscape:connector-curvature="0" />
	<path style="fill:none;stroke:red;stroke-width:1px;stroke-linecap:butt;stroke-linejoin:miter;stroke-opacity:1" d="M 54.8718,117.048 54.8718,156.615 z" id="boundary" inkscape:connector-curvature="0" />
	<path style="fill:none;stroke:red;stroke-width:1px;stroke-linecap:butt;stroke-linejoin:miter;stroke-opacity:1" d="M 43.567,247.054 43.567,275.316 z" id="boundary" inkscape:connector-curvature="0" />
	<path style="fill:none;stroke:red;stroke-width:1px;stroke-linecap:butt;stroke-linejoin:miter;stroke-opacity:1" d="M 43.567,218.792 43.567,247.054 z" id="boundary" inkscape:connector-curvature="0" />
	<path style="fill:none;stroke:red;stroke-width:1px;stroke-linecap:butt;stroke-linejoin:miter;stroke-opacity:1" d="M 54.8718,303.578 43.567,275.316 z" id="boundary" inkscape:connector-curvature="0" />
	<path style="fill:none;stroke:red;stroke-width:1px;stroke-linecap:butt;stroke-linejoin:miter;stroke-opacity:1" d="M 54.8718,303.578 71.8291,326.188 z" id="boundary" inkscape:connector-curvature="0" />
	<path style="fill:none;stroke:red;stroke-width:1px;stroke-linecap:butt;stroke-linejoin:miter;stroke-opacity:1" d="M 71.8291,326.188 77.4815,354.45 z" id="boundary" inkscape:connector-curvature="0" />
	<path style="fill:none;stroke:red;stroke-width:1px;stroke-linecap:butt;stroke-linejoin:miter;stroke-opacity:1" d="M 77.4815,354.45 83.1339,399.67 z" id="boundary" inkscape:connector-curvature="0" />
	<path style="fill:none;stroke:red;stroke-width:1px;stroke-linecap:butt;stroke-linejoin:miter;stroke-opacity:1" d="M 83.1339,399.67 60.5242,416.627 z" id="boundary" inkscape:connector-curvature="0" />
	<path style="fill:none;stroke:red;stroke-width:1px;stroke-linecap:butt;stroke-linejoin:miter;stroke-opacity:1" d="M 60.5242,416.627 37.9145,433.584 z" id="boundary" inkscape:connector-curvature="0" />
	<path style="fill:none;stroke:red;stroke-width:1px;stroke-linecap:butt;stroke-linejoin:miter;stroke-opacity:1" d="M 49.2194,60.5242 60.5242,32.2621 z" id="boundary" inkscape:connector-curvature="0" />
	<path style="fill:none;stroke:red;stroke-width:1px;stroke-linecap:butt;stroke-linejoin:miter;stroke-opacity:1" d="M 60.5242,32.2621 83.1339,15.3048 z" id="boundary" inkscape:connector-curvature="0" />
	<path style="fill:none;stroke:red;stroke-width:1px;stroke-linecap:butt;stroke-linejoin:miter;stroke-opacity:1" d="M 37.9145,433.584 15.3048,456.194 z" id="boundary" inkscape:connector-curvature="0" />
	<path style="fill:none;stroke:red;stroke-width:1px;stroke-linecap:butt;stroke-linejoin:miter;stroke-opacity:1" d="M 111.396,9.65242 139.658,4 z" id="boundary" inkscape:connector-curvature="0" />
	<path style="fill:none;stroke:red;stroke-width:1px;stroke-linecap:butt;stroke-linejoin:miter;stroke-opacity:1" d="M 139.658,4 167.92,12.4786 z" id="boundary" inkscape:connector-curvature="0" />
	<path style="fill:none;stroke:red;stroke-width:1px;stroke-linecap:butt;stroke-linejoin:miter;stroke-opacity:1" d="M 354.45,4 382.712,6.82621 z" id="boundary" inkscape:connector-curvature="0" />
	<path style="fill:none;stroke:red;stroke-width:1px;stroke-linecap:butt;stroke-linejoin:miter;stroke-opacity:1" d="M 326.188,15.3048 354.45,4 z" id="boundary" inkscape:connector-curvature="0" />
	<path style="fill:none;stroke:red;stroke-width:1px;stroke-linecap:butt;stroke-linejoin:miter;stroke-opacity:1" d="M 167.92,12.4786 193.356,26.6097 z" id="boundary" inkscape:connector-curvature="0" />
	<path style="fill:none;stroke:red;stroke-width:1px;stroke-linecap:butt;stroke-linejoin:miter;stroke-opacity:1" d="M 382.712,6.82621 410.974,18.1311 z" id="boundary" inkscape:connector-curvature="0" />
	<path style="fill:none;stroke:red;stroke-width:1px;stroke-linecap:butt;stroke-linejoin:miter;stroke-opacity:1" d="M 326.188,15.3048 297.926,26.6097 z" id="boundary" inkscape:connector-curvature="0" />
	<path style="fill:none;stroke:red;stroke-width:1px;stroke-linecap:butt;stroke-linejoin:miter;stroke-opacity:1" d="M 215.966,43.567 244.228,43.567 z" id="boundary" inkscape:connector-curvature="0" />
	<path style="fill:none;stroke:red;stroke-width:1px;stroke-linecap:butt;stroke-linejoin:miter;stroke-opacity:1" d="M 215.966,43.567 193.356,26.6097 z" id="boundary" inkscape:connector-curvature="0" />
	<path style="fill:none;stroke:red;stroke-width:1px;stroke-linecap:butt;stroke-linejoin:miter;stroke-opacity:1" d="M 244.228,43.567 272.49,43.567 z" id="boundary" inkscape:connector-curvature="0" />
	<path style="fill:none;stroke:red;stroke-width:1px;stroke-linecap:butt;stroke-linejoin:miter;stroke-opacity:1" d="M 272.49,43.567 297.926,26.6097 z" id="boundary" inkscape:connector-curvature="0" />
	<path style="fill:none;stroke:red;stroke-width:1px;stroke-linecap:butt;stroke-linejoin:miter;stroke-opacity:1" d="M 83.1339,15.3048 111.396,9.65242 z" id="boundary" inkscape:connector-curvature="0" />
	<path style="fill:none;stroke:red;stroke-width:1px;stroke-linecap:butt;stroke-linejoin:miter;stroke-opacity:1" d="M 4,490.108 15.3048,456.194 z" id="boundary" inkscape:connector-curvature="0" />
	<path style="fill:none;stroke:red;stroke-width:1px;stroke-linecap:butt;stroke-linejoin:miter;stroke-opacity:1" d="M 4,546.632 4,518.37 z" id="boundary" inkscape:connector-curvature="0" />
	<path style="fill:none;stroke:red;stroke-width:1px;stroke-linecap:butt;stroke-linejoin:miter;stroke-opacity:1" d="M 29.4359,597.504 12.4786,574.895 z" id="boundary" inkscape:connector-curvature="0" />
	<path style="fill:none;stroke:red;stroke-width:1px;stroke-linecap:butt;stroke-linejoin:miter;stroke-opacity:1" d="M 12.4786,574.895 4,546.632 z" id="boundary" inkscape:connector-curvature="0" />
	<path style="fill:none;stroke:red;stroke-width:1px;stroke-linecap:butt;stroke-linejoin:miter;stroke-opacity:1" d="M 4,518.37 4,490.108 z" id="boundary" inkscape:connector-curvature="0" />
	<path style="fill:none;stroke:red;stroke-width:1px;stroke-linecap:butt;stroke-linejoin:miter;stroke-opacity:1" d="M 29.4359,597.504 46.3932,620.114 z" id="boundary" inkscape:connector-curvature="0" />
	<path style="fill:none;stroke:red;stroke-width:1px;stroke-linecap:butt;stroke-linejoin:miter;stroke-opacity:1" d="M 69.0028,639.897 46.3932,620.114 z" id="boundary" inkscape:connector-curvature="0" />
	<path style="fill:none;stroke:red;stroke-width:1px;stroke-linecap:butt;stroke-linejoin:miter;stroke-opacity:1" d="M 77.4815,716.205 71.8291,750.12 z" id="boundary" inkscape:connector-curvature="0" />
	<path style="fill:none;stroke:red;stroke-width:1px;stroke-linecap:butt;stroke-linejoin:miter;stroke-opacity:1" d="M 69.0028,639.897 83.1339,665.333 z" id="boundary" inkscape:connector-curvature="0" />
	<path style="fill:none;stroke:red;stroke-width:1px;stroke-linecap:butt;stroke-linejoin:miter;stroke-opacity:1" d="M 83.1339,665.333 77.4815,716.205 z" id="boundary" inkscape:connector-curvature="0" />
	<path style="fill:none;stroke:red;stroke-width:1px;stroke-linecap:butt;stroke-linejoin:miter;stroke-opacity:1" d="M 71.8291,750.12 74.6553,778.382 z" id="boundary" inkscape:connector-curvature="0" />
	<path style="fill:none;stroke:red;stroke-width:1px;stroke-linecap:butt;stroke-linejoin:miter;stroke-opacity:1" d="M 88.7863,803.818 74.6553,778.382 z" id="boundary" inkscape:connector-curvature="0" />
	<path style="fill:none;stroke:red;stroke-width:1px;stroke-linecap:butt;stroke-linejoin:miter;stroke-opacity:1" d="M 88.7863,803.818 88.7863,832.08 z" id="boundary" inkscape:connector-curvature="0" />
	<path style="fill:none;stroke:red;stroke-width:1px;stroke-linecap:butt;stroke-linejoin:miter;stroke-opacity:1" d="M 88.7863,832.08 88.7863,860.342 z" id="boundary" inkscape:connector-curvature="0" />
	<path style="fill:none;stroke:red;stroke-width:1px;stroke-linecap:butt;stroke-linejoin:miter;stroke-opacity:1" d="M 88.7863,860.342 88.7863,888.604 z" id="boundary" inkscape:connector-curvature="0" />
	<path style="fill:none;stroke:red;stroke-width:1px;stroke-linecap:butt;stroke-linejoin:miter;stroke-opacity:1" d="M 88.7863,888.604 100.091,916.866 z" id="boundary" inkscape:connector-curvature="0" />
	<path style="fill:none;stroke:red;stroke-width:1px;stroke-linecap:butt;stroke-linejoin:miter;stroke-opacity:1" d="M 100.091,916.866 105.744,945.128 z" id="boundary" inkscape:connector-curvature="0" />
	<path style="fill:none;stroke:red;stroke-width:1px;stroke-linecap:butt;stroke-linejoin:miter;stroke-opacity:1" d="M 119.875,970.564 105.744,945.128 z" id="boundary" inkscape:connector-curvature="0" />
	<path style="fill:none;stroke:red;stroke-width:1px;stroke-linecap:butt;stroke-linejoin:miter;stroke-opacity:1" d="M 145.311,984.695 119.875,970.564 z" id="boundary" inkscape:connector-curvature="0" />
	<path style="fill:none;stroke:red;stroke-width:1px;stroke-linecap:butt;stroke-linejoin:miter;stroke-opacity:1" d="M 371.407,979.043 399.67,979.043 z" id="boundary" inkscape:connector-curvature="0" />
	<path style="fill:none;stroke:red;stroke-width:1px;stroke-linecap:butt;stroke-linejoin:miter;stroke-opacity:1" d="M 343.145,990.348 371.407,979.043 z" id="boundary" inkscape:connector-curvature="0" />
	<path style="fill:none;stroke:red;stroke-width:1px;stroke-linecap:butt;stroke-linejoin:miter;stroke-opacity:1" d="M 427.932,973.39 399.67,979.043 z" id="boundary" inkscape:connector-curvature="0" />
	<path style="fill:none;stroke:red;stroke-width:1px;stroke-linecap:butt;stroke-linejoin:miter;stroke-opacity:1" d="M 427.932,973.39 456.194,973.39 z" id="boundary" inkscape:connector-curvature="0" />
	<path style="fill:none;stroke:red;stroke-width:1px;stroke-linecap:butt;stroke-linejoin:miter;stroke-opacity:1" d="M 286.621,996 258.359,996 z" id="boundary" inkscape:connector-curvature="0" />
	<path style="fill:none;stroke:red;stroke-width:1px;stroke-linecap:butt;stroke-linejoin:miter;stroke-opacity:1" d="M 230.097,996 201.835,996 z" id="boundary" inkscape:connector-curvature="0" />
	<path style="fill:none;stroke:red;stroke-width:1px;stroke-linecap:butt;stroke-linejoin:miter;stroke-opacity:1" d="M 201.835,996 173.573,990.348 z" id="boundary" inkscape:connector-curvature="0" />
	<path style="fill:none;stroke:red;stroke-width:1px;stroke-linecap:butt;stroke-linejoin:miter;stroke-opacity:1" d="M 173.573,990.348 145.311,984.695 z" id="boundary" inkscape:connector-curvature="0" />
	<path style="fill:none;stroke:red;stroke-width:1px;stroke-linecap:butt;stroke-linejoin:miter;stroke-opacity:1" d="M 258.359,996 230.097,996 z" id="boundary" inkscape:connector-curvature="0" />
	<path style="fill:none;stroke:red;stroke-width:1px;stroke-linecap:butt;stroke-linejoin:miter;stroke-opacity:1" d="M 314.883,996 286.621,996 z" id="boundary" inkscape:connector-curvature="0" />
	<path style="fill:none;stroke:red;stroke-width:1px;stroke-linecap:butt;stroke-linejoin:miter;stroke-opacity:1" d="M 343.145,990.348 314.883,996 z" id="boundary" inkscape:connector-curvature="0" />
	<path style="fill:none;stroke:red;stroke-width:1px;stroke-linecap:butt;stroke-linejoin:miter;stroke-opacity:1" d="M 410.974,18.1311 433.584,35.0883 z" id="boundary" inkscape:connector-curvature="0" />
	<path style="fill:none;stroke:red;stroke-width:1px;stroke-linecap:butt;stroke-linejoin:miter;stroke-opacity:1" d="M 444.889,173.573 442.063,145.311 z" id="boundary" inkscape:connector-curvature="0" />
	<path style="fill:none;stroke:red;stroke-width:1px;stroke-linecap:butt;stroke-linejoin:miter;stroke-opacity:1" d="M 461.846,196.182 444.889,173.573 z" id="boundary" inkscape:connector-curvature="0" />
	<path style="fill:none;stroke:red;stroke-width:1px;stroke-linecap:butt;stroke-linejoin:miter;stroke-opacity:1" d="M 433.584,35.0883 450.541,57.698 z" id="boundary" inkscape:connector-curvature="0" />
	<path style="fill:none;stroke:red;stroke-width:1px;stroke-linecap:butt;stroke-linejoin:miter;stroke-opacity:1" d="M 450.541,57.698 453.368,85.9601 z" id="boundary" inkscape:connector-curvature="0" />
	<path style="fill:none;stroke:red;stroke-width:1px;stroke-linecap:butt;stroke-linejoin:miter;stroke-opacity:1" d="M 453.368,85.9601 453.368,114.222 z" id="boundary" inkscape:connector-curvature="0" />
	<path style="fill:none;stroke:red;stroke-width:1px;stroke-linecap:butt;stroke-linejoin:miter;stroke-opacity:1" d="M 453.368,114.222 442.063,145.311 z" id="boundary" inkscape:connector-curvature="0" />
	<path style="fill:none;stroke:red;stroke-width:1px;stroke-linecap:butt;stroke-linejoin:miter;stroke-opacity:1" d="M 504.239,238.575 484.456,215.966 z" id="boundary" inkscape:connector-curvature="0" />
	<path style="fill:none;stroke:red;stroke-width:1px;stroke-linecap:butt;stroke-linejoin:miter;stroke-opacity:1" d="M 461.846,196.182 484.456,215.966 z" id="boundary" inkscape:connector-curvature="0" />
	<path style="fill:none;stroke:red;stroke-width:1px;stroke-linecap:butt;stroke-linejoin:miter;stroke-opacity:1" d="M 515.544,399.67 487.282,388.365 z" id="boundary" inkscape:connector-curvature="0" />
	<path style="fill:none;stroke:red;stroke-width:1px;stroke-linecap:butt;stroke-linejoin:miter;stroke-opacity:1" d="M 478.803,351.624 461.846,374.234 z" id="boundary" inkscape:connector-curvature="0" />
	<path style="fill:none;stroke:red;stroke-width:1px;stroke-linecap:butt;stroke-linejoin:miter;stroke-opacity:1" d="M 461.846,374.234 487.282,388.365 z" id="boundary" inkscape:connector-curvature="0" />
	<path style="fill:none;stroke:red;stroke-width:1px;stroke-linecap:butt;stroke-linejoin:miter;stroke-opacity:1" d="M 478.803,351.624 492.934,320.536 z" id="boundary" inkscape:connector-curvature="0" />
	<path style="fill:none;stroke:red;stroke-width:1px;stroke-linecap:butt;stroke-linejoin:miter;stroke-opacity:1" d="M 504.239,266.838 492.934,320.536 z" id="boundary" inkscape:connector-curvature="0" />
	<path style="fill:none;stroke:red;stroke-width:1px;stroke-linecap:butt;stroke-linejoin:miter;stroke-opacity:1" d="M 515.544,399.67 532.501,422.279 z" id="boundary" inkscape:connector-curvature="0" />
	<path style="fill:none;stroke:red;stroke-width:1px;stroke-linecap:butt;stroke-linejoin:miter;stroke-opacity:1" d="M 560.764,427.932 532.501,422.279 z" id="boundary" inkscape:connector-curvature="0" />
	<path style="fill:none;stroke:red;stroke-width:1px;stroke-linecap:butt;stroke-linejoin:miter;stroke-opacity:1" d="M 504.239,266.838 504.239,238.575 z" id="boundary" inkscape:connector-curvature="0" />
	<path style="fill:none;stroke:red;stroke-width:1px;stroke-linecap:butt;stroke-linejoin:miter;stroke-opacity:1" d="M 589.026,433.584 560.764,427.932 z" id="boundary" inkscape:connector-curvature="0" />
	<path style="fill:none;stroke:red;stroke-width:1px;stroke-linecap:butt;stroke-linejoin:miter;stroke-opacity:1" d="M 617.288,433.584 589.026,433.584 z" id="boundary" inkscape:connector-curvature="0" />
	<path style="fill:none;stroke:red;stroke-width:1px;stroke-linecap:butt;stroke-linejoin:miter;stroke-opacity:1" d="M 645.55,439.236 673.812,450.541 z" id="boundary" inkscape:connector-curvature="0" />
	<path style="fill:none;stroke:red;stroke-width:1px;stroke-linecap:butt;stroke-linejoin:miter;stroke-opacity:1" d="M 702.074,461.846 716.205,487.282 z" id="boundary" inkscape:connector-curvature="0" />
	<path style="fill:none;stroke:red;stroke-width:1px;stroke-linecap:butt;stroke-linejoin:miter;stroke-opacity:1" d="M 673.812,450.541 702.074,461.846 z" id="boundary" inkscape:connector-curvature="0" />
	<path style="fill:none;stroke:red;stroke-width:1px;stroke-linecap:butt;stroke-linejoin:miter;stroke-opacity:1" d="M 617.288,433.584 645.55,439.236 z" id="boundary" inkscape:connector-curvature="0" />
	<path style="fill:none;stroke:red;stroke-width:1px;stroke-linecap:butt;stroke-linejoin:miter;stroke-opacity:1" d="M 716.205,487.282 719.031,515.544 z" id="boundary" inkscape:connector-curvature="0" />
	<path style="fill:none;stroke:red;stroke-width:1px;stroke-linecap:butt;stroke-linejoin:miter;stroke-opacity:1" d="M 645.55,625.766 670.986,611.635 z" id="boundary" inkscape:connector-curvature="0" />
	<path style="fill:none;stroke:red;stroke-width:1px;stroke-linecap:butt;stroke-linejoin:miter;stroke-opacity:1" d="M 591.852,645.55 620.114,639.897 z" id="boundary" inkscape:connector-curvature="0" />
	<path style="fill:none;stroke:red;stroke-width:1px;stroke-linecap:butt;stroke-linejoin:miter;stroke-opacity:1" d="M 645.55,625.766 620.114,639.897 z" id="boundary" inkscape:connector-curvature="0" />
	<path style="fill:none;stroke:red;stroke-width:1px;stroke-linecap:butt;stroke-linejoin:miter;stroke-opacity:1" d="M 719.031,543.806 719.031,515.544 z" id="boundary" inkscape:connector-curvature="0" />
	<path style="fill:none;stroke:red;stroke-width:1px;stroke-linecap:butt;stroke-linejoin:miter;stroke-opacity:1" d="M 693.595,594.678 710.553,572.068 z" id="boundary" inkscape:connector-curvature="0" />
	<path style="fill:none;stroke:red;stroke-width:1px;stroke-linecap:butt;stroke-linejoin:miter;stroke-opacity:1" d="M 719.031,543.806 710.553,572.068 z" id="boundary" inkscape:connector-curvature="0" />
	<path style="fill:none;stroke:red;stroke-width:1px;stroke-linecap:butt;stroke-linejoin:miter;stroke-opacity:1" d="M 693.595,594.678 670.986,611.635 z" id="boundary" inkscape:connector-curvature="0" />
	<path style="fill:none;stroke:red;stroke-width:1px;stroke-linecap:butt;stroke-linejoin:miter;stroke-opacity:1" d="M 591.852,645.55 563.59,651.202 z" id="boundary" inkscape:connector-curvature="0" />
	<path style="fill:none;stroke:red;stroke-width:1px;stroke-linecap:butt;stroke-linejoin:miter;stroke-opacity:1" d="M 572.068,733.162 543.806,721.858 z" id="boundary" inkscape:connector-curvature="0" />
	<path style="fill:none;stroke:red;stroke-width:1px;stroke-linecap:butt;stroke-linejoin:miter;stroke-opacity:1" d="M 543.806,721.858 538.154,693.595 z" id="boundary" inkscape:connector-curvature="0" />
	<path style="fill:none;stroke:red;stroke-width:1px;stroke-linecap:butt;stroke-linejoin:miter;stroke-opacity:1" d="M 538.154,693.595 538.154,665.333 z" id="boundary" inkscape:connector-curvature="0" />
	<path style="fill:none;stroke:red;stroke-width:1px;stroke-linecap:butt;stroke-linejoin:miter;stroke-opacity:1" d="M 538.154,665.333 563.59,651.202 z" id="boundary" inkscape:connector-curvature="0" />
	<path style="fill:none;stroke:red;stroke-width:1px;stroke-linecap:butt;stroke-linejoin:miter;stroke-opacity:1" d="M 600.33,738.815 572.068,733.162 z" id="boundary" inkscape:connector-curvature="0" />
	<path style="fill:none;stroke:red;stroke-width:1px;stroke-linecap:butt;stroke-linejoin:miter;stroke-opacity:1" d="M 628.593,730.336 600.33,738.815 z" id="boundary" inkscape:connector-curvature="0" />
	<path style="fill:none;stroke:red;stroke-width:1px;stroke-linecap:butt;stroke-linejoin:miter;stroke-opacity:1" d="M 682.291,990.348 654.028,996 z" id="boundary" inkscape:connector-curvature="0" />
	<path style="fill:none;stroke:red;stroke-width:1px;stroke-linecap:butt;stroke-linejoin:miter;stroke-opacity:1" d="M 484.456,973.39 456.194,973.39 z" id="boundary" inkscape:connector-curvature="0" />
	<path style="fill:none;stroke:red;stroke-width:1px;stroke-linecap:butt;stroke-linejoin:miter;stroke-opacity:1" d="M 512.718,967.738 484.456,973.39 z" id="boundary" inkscape:connector-curvature="0" />
	<path style="fill:none;stroke:red;stroke-width:1px;stroke-linecap:butt;stroke-linejoin:miter;stroke-opacity:1" d="M 540.98,973.39 569.242,981.869 z" id="boundary" inkscape:connector-curvature="0" />
	<path style="fill:none;stroke:red;stroke-width:1px;stroke-linecap:butt;stroke-linejoin:miter;stroke-opacity:1" d="M 512.718,967.738 540.98,973.39 z" id="boundary" inkscape:connector-curvature="0" />
	<path style="fill:none;stroke:red;stroke-width:1px;stroke-linecap:butt;stroke-linejoin:miter;stroke-opacity:1" d="M 569.242,981.869 597.504,990.348 z" id="boundary" inkscape:connector-curvature="0" />
	<path style="fill:none;stroke:red;stroke-width:1px;stroke-linecap:butt;stroke-linejoin:miter;stroke-opacity:1" d="M 625.766,996 597.504,990.348 z" id="boundary" inkscape:connector-curvature="0" />
	<path style="fill:none;stroke:red;stroke-width:1px;stroke-linecap:butt;stroke-linejoin:miter;stroke-opacity:1" d="M 654.028,996 625.766,996 z" id="boundary" inkscape:connector-curvature="0" />
	<path style="fill:none;stroke:red;stroke-width:1px;stroke-linecap:butt;stroke-linejoin:miter;stroke-opacity:1" d="M 656.855,727.51 685.117,727.51 z" id="boundary" inkscape:connector-curvature="0" />
	<path style="fill:none;stroke:red;stroke-width:1px;stroke-linecap:butt;stroke-linejoin:miter;stroke-opacity:1" d="M 656.855,727.51 628.593,730.336 z" id="boundary" inkscape:connector-curvature="0" />
	<path style="fill:none;stroke:red;stroke-width:1px;stroke-linecap:butt;stroke-linejoin:miter;stroke-opacity:1" d="M 685.117,727.51 713.379,727.51 z" id="boundary" inkscape:connector-curvature="0" />
	<path style="fill:none;stroke:red;stroke-width:1px;stroke-linecap:butt;stroke-linejoin:miter;stroke-opacity:1" d="M 761.425,755.772 775.556,781.208 z" id="boundary" inkscape:connector-curvature="0" />
	<path style="fill:none;stroke:red;stroke-width:1px;stroke-linecap:butt;stroke-linejoin:miter;stroke-opacity:1" d="M 761.425,755.772 741.641,733.162 z" id="boundary" inkscape:connector-curvature="0" />
	<path style="fill:none;stroke:red;stroke-width:1px;stroke-linecap:butt;stroke-linejoin:miter;stroke-opacity:1" d="M 775.556,781.208 781.208,809.47 z" id="boundary" inkscape:connector-curvature="0" />
	<path style="fill:none;stroke:red;stroke-width:1px;stroke-linecap:butt;stroke-linejoin:miter;stroke-opacity:1" d="M 713.379,727.51 741.641,733.162 z" id="boundary" inkscape:connector-curvature="0" />
	<path style="fill:none;stroke:red;stroke-width:1px;stroke-linecap:butt;stroke-linejoin:miter;stroke-opacity:1" d="M 781.208,809.47 786.86,837.732 z" id="boundary" inkscape:connector-curvature="0" />
	<path style="fill:none;stroke:red;stroke-width:1px;stroke-linecap:butt;stroke-linejoin:miter;stroke-opacity:1" d="M 761.425,956.433 738.815,979.043 z" id="boundary" inkscape:connector-curvature="0" />
	<path style="fill:none;stroke:red;stroke-width:1px;stroke-linecap:butt;stroke-linejoin:miter;stroke-opacity:1" d="M 738.815,979.043 710.553,984.695 z" id="boundary" inkscape:connector-curvature="0" />
	<path style="fill:none;stroke:red;stroke-width:1px;stroke-linecap:butt;stroke-linejoin:miter;stroke-opacity:1" d="M 710.553,984.695 682.291,990.348 z" id="boundary" inkscape:connector-curvature="0" />
	<path style="fill:none;stroke:red;stroke-width:1px;stroke-linecap:butt;stroke-linejoin:miter;stroke-opacity:1" d="M 778.382,933.823 781.208,897.083 z" id="boundary" inkscape:connector-curvature="0" />
	<path style="fill:none;stroke:red;stroke-width:1px;stroke-linecap:butt;stroke-linejoin:miter;stroke-opacity:1" d="M 781.208,897.083 786.86,865.994 z" id="boundary" inkscape:connector-curvature="0" />
	<path style="fill:none;stroke:red;stroke-width:1px;stroke-linecap:butt;stroke-linejoin:miter;stroke-opacity:1" d="M 778.382,933.823 761.425,956.433 z" id="boundary" inkscape:connector-curvature="0" />
	<path style="fill:none;stroke:red;stroke-width:1px;stroke-linecap:butt;stroke-linejoin:miter;stroke-opacity:1" d="M 786.86,837.732 786.86,865.994 z" id="boundary" inkscape:connector-curvature="0" />
	<circle cx="4" cy="490.108" r="4" fill="#0" id="circle0"/>
	<circle cx="4" cy="518.37" r="4" fill="#0" id="circle1"/>
	<circle cx="4" cy="546.632" r="4" fill="#0" id="circle2"/>
	<circle cx="12.4786" cy="574.895" r="4" fill="#0" id="circle3"/>
	<circle cx="15.3048" cy="456.194" r="4" fill="#0" id="circle4"/>
	<circle cx="29.4359" cy="597.504" r="4" fill="#0" id="circle5"/>
	<circle cx="37.9145" cy="433.584" r="4" fill="#0" id="circle6"/>
	<circle cx="43.567" cy="190.53" r="4" fill="#0" id="circle7"/>
	<circle cx="43.567" cy="218.792" r="4" fill="#0" id="circle8"/>
	<circle cx="43.567" cy="247.054" r="4" fill="#0" id="circle9"/>
	<circle cx="43.567" cy="275.316" r="4" fill="#0" id="circle10"/>
	<circle cx="46.3932" cy="620.114" r="4" fill="#0" id="circle11"/>
	<circle cx="49.2194" cy="60.5242" r="4" fill="#0" id="circle12"/>
	<circle cx="49.2194" cy="88.7863" r="4" fill="#0" id="circle13"/>
	<circle cx="54.8718" cy="117.048" r="4" fill="#0" id="circle14"/>
	<circle cx="54.8718" cy="156.615" r="4" fill="#0" id="circle15"/>
	<circle cx="54.8718" cy="303.578" r="4" fill="#0" id="circle16"/>
	<circle cx="60.5242" cy="32.2621" r="4" fill="#0" id="circle17"/>
	<circle cx="60.5242" cy="416.627" r="4" fill="#0" id="circle18"/>
	<circle cx="69.0028" cy="639.897" r="4" fill="#0" id="circle19"/>
	<circle cx="71.8291" cy="326.188" r="4" fill="#0" id="circle20"/>
	<circle cx="71.8291" cy="750.12" r="4" fill="#0" id="circle21"/>
	<circle cx="74.6553" cy="778.382" r="4" fill="#0" id="circle22"/>
	<circle cx="77.4815" cy="354.45" r="4" fill="#0" id="circle23"/>
	<circle cx="77.4815" cy="716.205" r="4" fill="#0" id="circle24"/>
	<circle cx="83.1339" cy="15.3048" r="4" fill="#0" id="circle25"/>
	<circle cx="83.1339" cy="399.67" r="4" fill="#0" id="circle26"/>
	<circle cx="83.1339" cy="665.333" r="4" fill="#0" id="circle27"/>
	<circle cx="88.7863" cy="803.818" r="4" fill="#0" id="circle28"/>
	<circle cx="88.7863" cy="832.08" r="4" fill="#0" id="circle29"/>
	<circle cx="88.7863" cy="860.342" r="4" fill="#0" id="circle30"/>
	<circle cx="88.7863" cy="888.604" r="4" fill="#0" id="circle31"/>
	<circle cx="100.091" cy="916.866" r="4" fill="#0" id="circle32"/>
	<circle cx="105.744" cy="945.128" r="4" fill="#0" id="circle33"/>
	<circle cx="111.396" cy="9.65242" r="4" fill="#0" id="circle34"/>
	<circle cx="119.875" cy="970.564" r="4" fill="#0" id="circle35"/>
	<circle cx="139.658" cy="4" r="4" fill="#0" id="circle36"/>
	<circle cx="145.311" cy="984.695" r="4" fill="#0" id="circle37"/>
	<circle cx="167.92" cy="12.4786" r="4" fill="#0" id="circle38"/>
	<circle cx="173.573" cy="990.348" r="4" fill="#0" id="circle39"/>
	<circle cx="193.356" cy="26.6097" r="4" fill="#0" id="circle40"/>
	<circle cx="201.835" cy="996" r="4" fill="#0" id="circle41"/>
	<circle cx="215.966" cy="43.567" r="4" fill="#0" id="circle42"/>
	<circle cx="230.097" cy="996" r="4" fill="#0" id="circle43"/>
	<circle cx="244.228" cy="43.567" r="4" fill="#0" id="circle44"/>
	<circle cx="258.359" cy="996" r="4" fill="#0" id="circle45"/>
	<circle cx="272.49" cy="43.567" r="4" fill="#0" id="circle46"/>
	<circle cx="286.621" cy="996" r="4" fill="#0" id="circle47"/>
	<circle cx="297.926" cy="26.6097" r="4" fill="#0" id="circle48"/>
	<circle cx="314.883" cy="996" r="4" fill="#0" id="circle49"/>
	<circle cx="326.188" cy="15.3048" r="4" fill="#0" id="circle50"/>
	<circle cx="343.145" cy="990.348" r="4" fill="#0" id="circle51"/>
	<circle cx="354.45" cy="4" r="4" fill="#0" id="circle52"/>
	<circle cx="371.407" cy="979.043" r="4" fill="#0" id="circle53"/>
	<circle cx="382.712" cy="6.82621" r="4" fill="#0" id="circle54"/>
	<circle cx="399.67" cy="979.043" r="4" fill="#0" id="circle55"/>
	<circle cx="410.974" cy="18.1311" r="4" fill="#0" id="circle56"/>
	<circle cx="427.932" cy="973.39" r="4" fill="#0" id="circle57"/>
	<circle cx="433.584" cy="35.0883" r="4" fill="#0" id="circle58"/>
	<circle cx="442.063" cy="145.311" r="4" fill="#0" id="circle59"/>
	<circle cx="444.889" cy="173.573" r="4" fill="#0" id="circle60"/>
	<circle cx="450.541" cy="57.698" r="4" fill="#0" id="circle61"/>
	<circle cx="453.368" cy="85.9601" r="4" fill="#0" id="circle62"/>
	<circle cx="453.368" cy="114.222" r="4" fill="#0" id="circle63"/>
	<circle cx="456.194" cy="973.39" r="4" fill="#0" id="circle64"/>
	<circle cx="461.846" cy="196.182" r="4" fill="#0" id="circle65"/>
	<circle cx="461.846" cy="374.234" r="4" fill="#0" id="circle66"/>
	<circle cx="478.803" cy="351.624" r="4" fill="#0" id="circle67"/>
	<circle cx="484.456" cy="215.966" r="4" fill="#0" id="circle68"/>
	<circle cx="484.456" cy="973.39" r="4" fill="#0" id="circle69"/>
	<circle cx="487.282" cy="388.365" r="4" fill="#0" id="circle70"/>
	<circle cx="492.934" cy="320.536" r="4" fill="#0" id="circle71"/>
	<circle cx="504.239" cy="238.575" r="4" fill="#0" id="circle72"/>
	<circle cx="504.239" cy="266.838" r="4" fill="#0" id="circle73"/>
	<circle cx="512.718" cy="967.738" r="4" fill="#0" id="circle74"/>
	<circle cx="515.544" cy="399.67" r="4" fill="#0" id="circle75"/>
	<circle cx="532.501" cy="422.279" r="4" fill="#0" id="circle76"/>
	<circle cx="538.154" cy="665.333" r="4" fill="#0" id="circle77"/>
	<circle cx="538.154" cy="693.595" r="4" fill="#0" id="circle78"/>
	<circle cx="540.98" cy="973.39" r="4" fill="#0" id="circle79"/>
	<circle cx="543.806" cy="721.858" r="4" fill="#0" id="circle80"/>
	<circle cx="560.764" cy="427.932" r="4" fill="#0" id="circle81"/>
	<circle cx="563.59" cy="651.202" r="4" fill="#0" id="circle82"/>
	<circle cx="569.242" cy="981.869" r="4" fill="#0" id="circle83"/>
	<circle cx="572.068" cy="733.162" r="4" fill="#0" id="circle84"/>
	<circle cx="589.026" cy="433.584" r="4" fill="#0" id="circle85"/>
	<circle cx="591.852" cy="645.55" r="4" fill="#0" id="circle86"/>
	<circle cx="597.504" cy="990.348" r="4" fill="#0" id="circle87"/>
	<circle cx="600.33" cy="738.815" r="4" fill="#0" id="circle88"/>
	<circle cx="617.288" cy="433.584" r="4" fill="#0" id="circle89"/>
	<circle cx="620.114" cy="639.897" r="4" fill="#0" id="circle90"/>
	<circle cx="625.766" cy="996" r="4" fill="#0" id="circle91"/>
	<circle cx="628.593" cy="730.336" r="4" fill="#0" id="circle92"/>
	<circle cx="645.55" cy="439.236" r="4" fill="#0" id="circle93"/>
	<circle cx="645.55" cy="625.766" r="4" fill="#0" id="circle94"/>
	<circle cx="654.028" cy="996" r="4" fill="#0" id="circle95"/>
	<circle cx="656.855" cy="727.51" r="4" fill="#0" id="circle96"/>
	<circle cx="670.986" cy="611.635" r="4" fill="#0" id="circle97"/>
	<circle cx="673.812" cy="450.541" r="4" fill="#0" id="circle98"/>
	<circle cx="682.291" cy="990.348" r="4" fill="#0" id="circle99"/>
	<circle cx="685.117" cy="727.51" r="4" fill="#0" id="circle100"/>
	<circle cx="693.595" cy="594.678" r="4" fill="#0" id="circle101"/>
	<circle cx="702.074" cy="461.846" r="4" fill="#0" id="circle102"/>
	<circle cx="710.553" cy="572.068" r="4" fill="#0" id="circle103"/>
	<circle cx="710.553" cy="984.695" r="4" fill="#0" id="circle104"/>
	<circle cx="713.379" cy="727.51" r="4" fill="#0" id="circle105"/>
	<circle cx="716.205" cy="487.282" r="4" fill="#0" id="circle106"/>
	<circle cx="719.031" cy="515.544" r="4" fill="#0" id="circle107"/>
	<circle cx="719.031" cy="543.806" r="4" fill="#0" id="circle108"/>
	<circle cx="738.815" cy="979.043" r="4" fill="#0" id="circle109"/>
	<circle cx="741.641" cy="733.162" r="4" fill="#0" id="circle110"/>
	<circle cx="761.425" cy="755.772" r="4" fill="#0" id="circle111"/>
	<circle cx="761.425" cy="956.433" r="4" fill="#0" id="circle112"/>
	<circle cx="775.556" cy="781.208" r="4" fill="#0" id="circle113"/>
	<circle cx="778.382" cy="933.823" r="4" fill="#0" id="circle114"/>
	<circle cx="781.208" cy="809.47" r="4" fill="#0" id="circle115"/>
	<circle cx="781.208" cy="897.083" r="4" fill="#0" id="circle116"/>
	<circle cx="786.86" cy="837.732" r="4" fill="#0" id="circle117"/>
	<circle cx="786.86" cy="865.994" r="4" fill="#0" id="circle118"/>
	</g>
</svg>