<?xml version="1.0" encoding="UTF-8" standalone="no"?>
<!-- Created with CurveBenchmark -->
<svg
	xmlns:dc="http://purl.org/dc/elements/1.1/"
	xmlns:cc="http://creativecommons.org/ns#"
	xmlns:rdf="http://www.w3.org/1999/02/22-rdf-syntax-ns#"
	xmlns:svg="http://www.w3.org/2000/svg"
	xmlns="http://www.w3.org/2000/svg"
	xmlns:sodipodi="http://sodipodi.sourceforge.net/DTD/sodipodi-0.dtd"
	xmlns:inkscape="http://www.inkscape.org/namespaces/inkscape"
	width="1000"
	height="1000"
	id="svg2"
	version="1.1"
	sodipodi:docname="manifold/gathang-hammer20.png.txt">
<defs
	id="defs4" />
<metadata
	id="metadata7">
	<rdf:RDF>
		<cc:Work
			rdf:about="">
			<dc:format>image/svg+xml</dc:format>
			<dc:type
				rdf:resource="http://purl.org/dc/dcmitype/StillImage" />
			<dc:title></dc:title>
		</cc:Work>
	</rdf:RDF>
</metadata>
<g
	inkscape:label="Layer 1"
	inkscape:groupmode="layer"
	id="layer1">
	<path style="fill:none;stroke:red;stroke-width:1px;stroke-linecap:butt;stroke-linejoin:miter;stroke-opacity:1" d="M 65.766,69.5094 80.7396,54.5358 z" id="boundary" inkscape:connector-curvature="0" />
	<path style="fill:none;stroke:red;stroke-width:1px;stroke-linecap:butt;stroke-linejoin:miter;stroke-opacity:1" d="M 50.7925,84.483 65.766,69.5094 z" id="boundary" inkscape:connector-curvature="0" />
	<path style="fill:none;stroke:red;stroke-width:1px;stroke-linecap:butt;stroke-linejoin:miter;stroke-opacity:1" d="M 80.7396,54.5358 95.7132,41.434 z" id="boundary" inkscape:connector-curvature="0" />
	<path style="fill:none;stroke:red;stroke-width:1px;stroke-linecap:butt;stroke-linejoin:miter;stroke-opacity:1" d="M 112.558,32.0755 131.275,32.0755 z" id="boundary" inkscape:connector-curvature="0" />
	<path style="fill:none;stroke:red;stroke-width:1px;stroke-linecap:butt;stroke-linejoin:miter;stroke-opacity:1" d="M 151.864,58.2792 142.506,76.9962 z" id="boundary" inkscape:connector-curvature="0" />
	<path style="fill:none;stroke:red;stroke-width:1px;stroke-linecap:butt;stroke-linejoin:miter;stroke-opacity:1" d="M 149.992,32.0755 131.275,32.0755 z" id="boundary" inkscape:connector-curvature="0" />
	<path style="fill:none;stroke:red;stroke-width:1px;stroke-linecap:butt;stroke-linejoin:miter;stroke-opacity:1" d="M 95.7132,41.434 112.558,32.0755 z" id="boundary" inkscape:connector-curvature="0" />
	<path style="fill:none;stroke:red;stroke-width:1px;stroke-linecap:butt;stroke-linejoin:miter;stroke-opacity:1" d="M 142.506,76.9962 127.532,90.0981 z" id="boundary" inkscape:connector-curvature="0" />
	<path style="fill:none;stroke:red;stroke-width:1px;stroke-linecap:butt;stroke-linejoin:miter;stroke-opacity:1" d="M 13.3585,140.634 28.3321,125.66 z" id="boundary" inkscape:connector-curvature="0" />
	<path style="fill:none;stroke:red;stroke-width:1px;stroke-linecap:butt;stroke-linejoin:miter;stroke-opacity:1" d="M 37.6906,106.943 28.3321,125.66 z" id="boundary" inkscape:connector-curvature="0" />
	<path style="fill:none;stroke:red;stroke-width:1px;stroke-linecap:butt;stroke-linejoin:miter;stroke-opacity:1" d="M 4,168.709 13.3585,185.555 z" id="boundary" inkscape:connector-curvature="0" />
	<path style="fill:none;stroke:red;stroke-width:1px;stroke-linecap:butt;stroke-linejoin:miter;stroke-opacity:1" d="M 13.3585,185.555 13.3585,204.272 z" id="boundary" inkscape:connector-curvature="0" />
	<path style="fill:none;stroke:red;stroke-width:1px;stroke-linecap:butt;stroke-linejoin:miter;stroke-opacity:1" d="M 4,168.709 13.3585,140.634 z" id="boundary" inkscape:connector-curvature="0" />
	<path style="fill:none;stroke:red;stroke-width:1px;stroke-linecap:butt;stroke-linejoin:miter;stroke-opacity:1" d="M 37.6906,106.943 50.7925,84.483 z" id="boundary" inkscape:connector-curvature="0" />
	<path style="fill:none;stroke:red;stroke-width:1px;stroke-linecap:butt;stroke-linejoin:miter;stroke-opacity:1" d="M 127.532,90.0981 127.532,118.174 z" id="boundary" inkscape:connector-curvature="0" />
	<path style="fill:none;stroke:red;stroke-width:1px;stroke-linecap:butt;stroke-linejoin:miter;stroke-opacity:1" d="M 118.174,146.249 127.532,118.174 z" id="boundary" inkscape:connector-curvature="0" />
	<path style="fill:none;stroke:red;stroke-width:1px;stroke-linecap:butt;stroke-linejoin:miter;stroke-opacity:1" d="M 136.891,153.736 118.174,146.249 z" id="boundary" inkscape:connector-curvature="0" />
	<path style="fill:none;stroke:red;stroke-width:1px;stroke-linecap:butt;stroke-linejoin:miter;stroke-opacity:1" d="M 155.608,153.736 136.891,153.736 z" id="boundary" inkscape:connector-curvature="0" />
	<path style="fill:none;stroke:red;stroke-width:1px;stroke-linecap:butt;stroke-linejoin:miter;stroke-opacity:1" d="M 149.992,32.0755 151.864,58.2792 z" id="boundary" inkscape:connector-curvature="0" />
	<path style="fill:none;stroke:red;stroke-width:1px;stroke-linecap:butt;stroke-linejoin:miter;stroke-opacity:1" d="M 245.449,135.019 226.732,135.019 z" id="boundary" inkscape:connector-curvature="0" />
	<path style="fill:none;stroke:red;stroke-width:1px;stroke-linecap:butt;stroke-linejoin:miter;stroke-opacity:1" d="M 299.728,125.66 281.011,125.66 z" id="boundary" inkscape:connector-curvature="0" />
	<path style="fill:none;stroke:red;stroke-width:1px;stroke-linecap:butt;stroke-linejoin:miter;stroke-opacity:1" d="M 264.166,135.019 281.011,125.66 z" id="boundary" inkscape:connector-curvature="0" />
	<path style="fill:none;stroke:red;stroke-width:1px;stroke-linecap:butt;stroke-linejoin:miter;stroke-opacity:1" d="M 335.291,116.302 354.008,116.302 z" id="boundary" inkscape:connector-curvature="0" />
	<path style="fill:none;stroke:red;stroke-width:1px;stroke-linecap:butt;stroke-linejoin:miter;stroke-opacity:1" d="M 318.445,125.66 335.291,116.302 z" id="boundary" inkscape:connector-curvature="0" />
	<path style="fill:none;stroke:red;stroke-width:1px;stroke-linecap:butt;stroke-linejoin:miter;stroke-opacity:1" d="M 354.008,116.302 372.725,116.302 z" id="boundary" inkscape:connector-curvature="0" />
	<path style="fill:none;stroke:red;stroke-width:1px;stroke-linecap:butt;stroke-linejoin:miter;stroke-opacity:1" d="M 318.445,125.66 299.728,125.66 z" id="boundary" inkscape:connector-curvature="0" />
	<path style="fill:none;stroke:red;stroke-width:1px;stroke-linecap:butt;stroke-linejoin:miter;stroke-opacity:1" d="M 389.57,106.943 372.725,116.302 z" id="boundary" inkscape:connector-curvature="0" />
	<path style="fill:none;stroke:red;stroke-width:1px;stroke-linecap:butt;stroke-linejoin:miter;stroke-opacity:1" d="M 172.453,144.377 191.17,144.377 z" id="boundary" inkscape:connector-curvature="0" />
	<path style="fill:none;stroke:red;stroke-width:1px;stroke-linecap:butt;stroke-linejoin:miter;stroke-opacity:1" d="M 155.608,153.736 172.453,144.377 z" id="boundary" inkscape:connector-curvature="0" />
	<path style="fill:none;stroke:red;stroke-width:1px;stroke-linecap:butt;stroke-linejoin:miter;stroke-opacity:1" d="M 191.17,144.377 209.887,144.377 z" id="boundary" inkscape:connector-curvature="0" />
	<path style="fill:none;stroke:red;stroke-width:1px;stroke-linecap:butt;stroke-linejoin:miter;stroke-opacity:1" d="M 226.732,135.019 209.887,144.377 z" id="boundary" inkscape:connector-curvature="0" />
	<path style="fill:none;stroke:red;stroke-width:1px;stroke-linecap:butt;stroke-linejoin:miter;stroke-opacity:1" d="M 245.449,135.019 264.166,135.019 z" id="boundary" inkscape:connector-curvature="0" />
	<path style="fill:none;stroke:red;stroke-width:1px;stroke-linecap:butt;stroke-linejoin:miter;stroke-opacity:1" d="M 337.162,193.042 355.879,193.042 z" id="boundary" inkscape:connector-curvature="0" />
	<path style="fill:none;stroke:red;stroke-width:1px;stroke-linecap:butt;stroke-linejoin:miter;stroke-opacity:1" d="M 320.317,202.4 337.162,193.042 z" id="boundary" inkscape:connector-curvature="0" />
	<path style="fill:none;stroke:red;stroke-width:1px;stroke-linecap:butt;stroke-linejoin:miter;stroke-opacity:1" d="M 355.879,193.042 374.596,193.042 z" id="boundary" inkscape:connector-curvature="0" />
	<path style="fill:none;stroke:red;stroke-width:1px;stroke-linecap:butt;stroke-linejoin:miter;stroke-opacity:1" d="M 391.442,183.683 374.596,193.042 z" id="boundary" inkscape:connector-curvature="0" />
	<path style="fill:none;stroke:red;stroke-width:1px;stroke-linecap:butt;stroke-linejoin:miter;stroke-opacity:1" d="M 13.3585,222.989 13.3585,204.272 z" id="boundary" inkscape:connector-curvature="0" />
	<path style="fill:none;stroke:red;stroke-width:1px;stroke-linecap:butt;stroke-linejoin:miter;stroke-opacity:1" d="M 22.717,239.834 13.3585,222.989 z" id="boundary" inkscape:connector-curvature="0" />
	<path style="fill:none;stroke:red;stroke-width:1px;stroke-linecap:butt;stroke-linejoin:miter;stroke-opacity:1" d="M 13.3585,262.294 13.3585,281.011 z" id="boundary" inkscape:connector-curvature="0" />
	<path style="fill:none;stroke:red;stroke-width:1px;stroke-linecap:butt;stroke-linejoin:miter;stroke-opacity:1" d="M 22.717,239.834 13.3585,262.294 z" id="boundary" inkscape:connector-curvature="0" />
	<path style="fill:none;stroke:red;stroke-width:1px;stroke-linecap:butt;stroke-linejoin:miter;stroke-opacity:1" d="M 13.3585,281.011 13.3585,299.728 z" id="boundary" inkscape:connector-curvature="0" />
	<path style="fill:none;stroke:red;stroke-width:1px;stroke-linecap:butt;stroke-linejoin:miter;stroke-opacity:1" d="M 13.3585,299.728 4,318.445 z" id="boundary" inkscape:connector-curvature="0" />
	<path style="fill:none;stroke:red;stroke-width:1px;stroke-linecap:butt;stroke-linejoin:miter;stroke-opacity:1" d="M 32.0755,361.494 43.3057,376.468 z" id="boundary" inkscape:connector-curvature="0" />
	<path style="fill:none;stroke:red;stroke-width:1px;stroke-linecap:butt;stroke-linejoin:miter;stroke-opacity:1" d="M 43.3057,376.468 58.2792,389.57 z" id="boundary" inkscape:connector-curvature="0" />
	<path style="fill:none;stroke:red;stroke-width:1px;stroke-linecap:butt;stroke-linejoin:miter;stroke-opacity:1" d="M 131.275,370.853 114.43,380.211 z" id="boundary" inkscape:connector-curvature="0" />
	<path style="fill:none;stroke:red;stroke-width:1px;stroke-linecap:butt;stroke-linejoin:miter;stroke-opacity:1" d="M 114.43,380.211 95.7132,380.211 z" id="boundary" inkscape:connector-curvature="0" />
	<path style="fill:none;stroke:red;stroke-width:1px;stroke-linecap:butt;stroke-linejoin:miter;stroke-opacity:1" d="M 95.7132,380.211 76.9962,385.826 z" id="boundary" inkscape:connector-curvature="0" />
	<path style="fill:none;stroke:red;stroke-width:1px;stroke-linecap:butt;stroke-linejoin:miter;stroke-opacity:1" d="M 58.2792,389.57 76.9962,385.826 z" id="boundary" inkscape:connector-curvature="0" />
	<path style="fill:none;stroke:red;stroke-width:1px;stroke-linecap:butt;stroke-linejoin:miter;stroke-opacity:1" d="M 131.275,370.853 149.992,368.981 z" id="boundary" inkscape:connector-curvature="0" />
	<path style="fill:none;stroke:red;stroke-width:1px;stroke-linecap:butt;stroke-linejoin:miter;stroke-opacity:1" d="M 136.891,230.475 140.634,249.192 z" id="boundary" inkscape:connector-curvature="0" />
	<path style="fill:none;stroke:red;stroke-width:1px;stroke-linecap:butt;stroke-linejoin:miter;stroke-opacity:1" d="M 193.042,221.117 174.325,221.117 z" id="boundary" inkscape:connector-curvature="0" />
	<path style="fill:none;stroke:red;stroke-width:1px;stroke-linecap:butt;stroke-linejoin:miter;stroke-opacity:1" d="M 174.325,221.117 155.608,230.475 z" id="boundary" inkscape:connector-curvature="0" />
	<path style="fill:none;stroke:red;stroke-width:1px;stroke-linecap:butt;stroke-linejoin:miter;stroke-opacity:1" d="M 193.042,221.117 211.758,221.117 z" id="boundary" inkscape:connector-curvature="0" />
	<path style="fill:none;stroke:red;stroke-width:1px;stroke-linecap:butt;stroke-linejoin:miter;stroke-opacity:1" d="M 228.604,211.758 211.758,221.117 z" id="boundary" inkscape:connector-curvature="0" />
	<path style="fill:none;stroke:red;stroke-width:1px;stroke-linecap:butt;stroke-linejoin:miter;stroke-opacity:1" d="M 228.604,211.758 247.321,211.758 z" id="boundary" inkscape:connector-curvature="0" />
	<path style="fill:none;stroke:red;stroke-width:1px;stroke-linecap:butt;stroke-linejoin:miter;stroke-opacity:1" d="M 282.883,202.4 301.6,202.4 z" id="boundary" inkscape:connector-curvature="0" />
	<path style="fill:none;stroke:red;stroke-width:1px;stroke-linecap:butt;stroke-linejoin:miter;stroke-opacity:1" d="M 266.038,211.758 282.883,202.4 z" id="boundary" inkscape:connector-curvature="0" />
	<path style="fill:none;stroke:red;stroke-width:1px;stroke-linecap:butt;stroke-linejoin:miter;stroke-opacity:1" d="M 266.038,211.758 247.321,211.758 z" id="boundary" inkscape:connector-curvature="0" />
	<path style="fill:none;stroke:red;stroke-width:1px;stroke-linecap:butt;stroke-linejoin:miter;stroke-opacity:1" d="M 301.6,202.4 320.317,202.4 z" id="boundary" inkscape:connector-curvature="0" />
	<path style="fill:none;stroke:red;stroke-width:1px;stroke-linecap:butt;stroke-linejoin:miter;stroke-opacity:1" d="M 155.608,262.294 140.634,249.192 z" id="boundary" inkscape:connector-curvature="0" />
	<path style="fill:none;stroke:red;stroke-width:1px;stroke-linecap:butt;stroke-linejoin:miter;stroke-opacity:1" d="M 136.891,230.475 155.608,230.475 z" id="boundary" inkscape:connector-curvature="0" />
	<path style="fill:none;stroke:red;stroke-width:1px;stroke-linecap:butt;stroke-linejoin:miter;stroke-opacity:1" d="M 164.966,352.136 149.992,368.981 z" id="boundary" inkscape:connector-curvature="0" />
	<path style="fill:none;stroke:red;stroke-width:1px;stroke-linecap:butt;stroke-linejoin:miter;stroke-opacity:1" d="M 174.325,290.37 172.453,271.653 z" id="boundary" inkscape:connector-curvature="0" />
	<path style="fill:none;stroke:red;stroke-width:1px;stroke-linecap:butt;stroke-linejoin:miter;stroke-opacity:1" d="M 181.811,309.087 179.94,339.034 z" id="boundary" inkscape:connector-curvature="0" />
	<path style="fill:none;stroke:red;stroke-width:1px;stroke-linecap:butt;stroke-linejoin:miter;stroke-opacity:1" d="M 179.94,339.034 164.966,352.136 z" id="boundary" inkscape:connector-curvature="0" />
	<path style="fill:none;stroke:red;stroke-width:1px;stroke-linecap:butt;stroke-linejoin:miter;stroke-opacity:1" d="M 174.325,290.37 181.811,309.087 z" id="boundary" inkscape:connector-curvature="0" />
	<path style="fill:none;stroke:red;stroke-width:1px;stroke-linecap:butt;stroke-linejoin:miter;stroke-opacity:1" d="M 155.608,262.294 172.453,271.653 z" id="boundary" inkscape:connector-curvature="0" />
	<path style="fill:none;stroke:red;stroke-width:1px;stroke-linecap:butt;stroke-linejoin:miter;stroke-opacity:1" d="M 702.143,50.7925 685.298,60.1509 z" id="boundary" inkscape:connector-curvature="0" />
	<path style="fill:none;stroke:red;stroke-width:1px;stroke-linecap:butt;stroke-linejoin:miter;stroke-opacity:1" d="M 685.298,60.1509 666.581,60.1509 z" id="boundary" inkscape:connector-curvature="0" />
	<path style="fill:none;stroke:red;stroke-width:1px;stroke-linecap:butt;stroke-linejoin:miter;stroke-opacity:1" d="M 720.86,50.7925 702.143,50.7925 z" id="boundary" inkscape:connector-curvature="0" />
	<path style="fill:none;stroke:red;stroke-width:1px;stroke-linecap:butt;stroke-linejoin:miter;stroke-opacity:1" d="M 647.864,60.1509 666.581,60.1509 z" id="boundary" inkscape:connector-curvature="0" />
	<path style="fill:none;stroke:red;stroke-width:1px;stroke-linecap:butt;stroke-linejoin:miter;stroke-opacity:1" d="M 631.019,69.5094 647.864,60.1509 z" id="boundary" inkscape:connector-curvature="0" />
	<path style="fill:none;stroke:red;stroke-width:1px;stroke-linecap:butt;stroke-linejoin:miter;stroke-opacity:1" d="M 739.577,50.7925 758.294,41.434 z" id="boundary" inkscape:connector-curvature="0" />
	<path style="fill:none;stroke:red;stroke-width:1px;stroke-linecap:butt;stroke-linejoin:miter;stroke-opacity:1" d="M 777.011,41.434 758.294,41.434 z" id="boundary" inkscape:connector-curvature="0" />
	<path style="fill:none;stroke:red;stroke-width:1px;stroke-linecap:butt;stroke-linejoin:miter;stroke-opacity:1" d="M 720.86,50.7925 739.577,50.7925 z" id="boundary" inkscape:connector-curvature="0" />
	<path style="fill:none;stroke:red;stroke-width:1px;stroke-linecap:butt;stroke-linejoin:miter;stroke-opacity:1" d="M 812.574,32.0755 795.728,41.434 z" id="boundary" inkscape:connector-curvature="0" />
	<path style="fill:none;stroke:red;stroke-width:1px;stroke-linecap:butt;stroke-linejoin:miter;stroke-opacity:1" d="M 795.728,41.434 777.011,41.434 z" id="boundary" inkscape:connector-curvature="0" />
	<path style="fill:none;stroke:red;stroke-width:1px;stroke-linecap:butt;stroke-linejoin:miter;stroke-opacity:1" d="M 520.589,88.2264 539.306,82.6113 z" id="boundary" inkscape:connector-curvature="0" />
	<path style="fill:none;stroke:red;stroke-width:1px;stroke-linecap:butt;stroke-linejoin:miter;stroke-opacity:1" d="M 558.023,78.8679 539.306,82.6113 z" id="boundary" inkscape:connector-curvature="0" />
	<path style="fill:none;stroke:red;stroke-width:1px;stroke-linecap:butt;stroke-linejoin:miter;stroke-opacity:1" d="M 501.872,88.2264 520.589,88.2264 z" id="boundary" inkscape:connector-curvature="0" />
	<path style="fill:none;stroke:red;stroke-width:1px;stroke-linecap:butt;stroke-linejoin:miter;stroke-opacity:1" d="M 612.302,69.5094 593.585,69.5094 z" id="boundary" inkscape:connector-curvature="0" />
	<path style="fill:none;stroke:red;stroke-width:1px;stroke-linecap:butt;stroke-linejoin:miter;stroke-opacity:1" d="M 576.74,78.8679 593.585,69.5094 z" id="boundary" inkscape:connector-curvature="0" />
	<path style="fill:none;stroke:red;stroke-width:1px;stroke-linecap:butt;stroke-linejoin:miter;stroke-opacity:1" d="M 631.019,69.5094 612.302,69.5094 z" id="boundary" inkscape:connector-curvature="0" />
	<path style="fill:none;stroke:red;stroke-width:1px;stroke-linecap:butt;stroke-linejoin:miter;stroke-opacity:1" d="M 576.74,78.8679 558.023,78.8679 z" id="boundary" inkscape:connector-curvature="0" />
	<path style="fill:none;stroke:red;stroke-width:1px;stroke-linecap:butt;stroke-linejoin:miter;stroke-opacity:1" d="M 501.872,88.2264 483.155,91.9698 z" id="boundary" inkscape:connector-curvature="0" />
	<path style="fill:none;stroke:red;stroke-width:1px;stroke-linecap:butt;stroke-linejoin:miter;stroke-opacity:1" d="M 885.57,22.717 866.853,22.717 z" id="boundary" inkscape:connector-curvature="0" />
	<path style="fill:none;stroke:red;stroke-width:1px;stroke-linecap:butt;stroke-linejoin:miter;stroke-opacity:1" d="M 885.57,22.717 904.287,22.717 z" id="boundary" inkscape:connector-curvature="0" />
	<path style="fill:none;stroke:red;stroke-width:1px;stroke-linecap:butt;stroke-linejoin:miter;stroke-opacity:1" d="M 921.132,13.3585 904.287,22.717 z" id="boundary" inkscape:connector-curvature="0" />
	<path style="fill:none;stroke:red;stroke-width:1px;stroke-linecap:butt;stroke-linejoin:miter;stroke-opacity:1" d="M 921.132,13.3585 939.849,13.3585 z" id="boundary" inkscape:connector-curvature="0" />
	<path style="fill:none;stroke:red;stroke-width:1px;stroke-linecap:butt;stroke-linejoin:miter;stroke-opacity:1" d="M 850.008,32.0755 866.853,22.717 z" id="boundary" inkscape:connector-curvature="0" />
	<path style="fill:none;stroke:red;stroke-width:1px;stroke-linecap:butt;stroke-linejoin:miter;stroke-opacity:1" d="M 958.566,9.61509 977.283,4 z" id="boundary" inkscape:connector-curvature="0" />
	<path style="fill:none;stroke:red;stroke-width:1px;stroke-linecap:butt;stroke-linejoin:miter;stroke-opacity:1" d="M 977.283,4 988.513,18.9736 z" id="boundary" inkscape:connector-curvature="0" />
	<path style="fill:none;stroke:red;stroke-width:1px;stroke-linecap:butt;stroke-linejoin:miter;stroke-opacity:1" d="M 958.566,9.61509 939.849,13.3585 z" id="boundary" inkscape:connector-curvature="0" />
	<path style="fill:none;stroke:red;stroke-width:1px;stroke-linecap:butt;stroke-linejoin:miter;stroke-opacity:1" d="M 988.513,18.9736 996,37.6906 z" id="boundary" inkscape:connector-curvature="0" />
	<path style="fill:none;stroke:red;stroke-width:1px;stroke-linecap:butt;stroke-linejoin:miter;stroke-opacity:1" d="M 831.291,32.0755 812.574,32.0755 z" id="boundary" inkscape:connector-curvature="0" />
	<path style="fill:none;stroke:red;stroke-width:1px;stroke-linecap:butt;stroke-linejoin:miter;stroke-opacity:1" d="M 831.291,32.0755 850.008,32.0755 z" id="boundary" inkscape:connector-curvature="0" />
	<path style="fill:none;stroke:red;stroke-width:1px;stroke-linecap:butt;stroke-linejoin:miter;stroke-opacity:1" d="M 996,37.6906 992.257,69.5094 z" id="boundary" inkscape:connector-curvature="0" />
	<path style="fill:none;stroke:red;stroke-width:1px;stroke-linecap:butt;stroke-linejoin:miter;stroke-opacity:1" d="M 992.257,69.5094 973.54,78.8679 z" id="boundary" inkscape:connector-curvature="0" />
	<path style="fill:none;stroke:red;stroke-width:1px;stroke-linecap:butt;stroke-linejoin:miter;stroke-opacity:1" d="M 973.54,78.8679 958.566,90.0981 z" id="boundary" inkscape:connector-curvature="0" />
	<path style="fill:none;stroke:red;stroke-width:1px;stroke-linecap:butt;stroke-linejoin:miter;stroke-opacity:1" d="M 958.566,90.0981 939.849,90.0981 z" id="boundary" inkscape:connector-curvature="0" />
	<path style="fill:none;stroke:red;stroke-width:1px;stroke-linecap:butt;stroke-linejoin:miter;stroke-opacity:1" d="M 939.849,90.0981 921.132,90.0981 z" id="boundary" inkscape:connector-curvature="0" />
	<path style="fill:none;stroke:red;stroke-width:1px;stroke-linecap:butt;stroke-linejoin:miter;stroke-opacity:1" d="M 904.287,99.4566 921.132,90.0981 z" id="boundary" inkscape:connector-curvature="0" />
	<path style="fill:none;stroke:red;stroke-width:1px;stroke-linecap:butt;stroke-linejoin:miter;stroke-opacity:1" d="M 408.287,106.943 427.004,101.328 z" id="boundary" inkscape:connector-curvature="0" />
	<path style="fill:none;stroke:red;stroke-width:1px;stroke-linecap:butt;stroke-linejoin:miter;stroke-opacity:1" d="M 408.287,106.943 389.57,106.943 z" id="boundary" inkscape:connector-curvature="0" />
	<path style="fill:none;stroke:red;stroke-width:1px;stroke-linecap:butt;stroke-linejoin:miter;stroke-opacity:1" d="M 427.004,101.328 445.721,97.5849 z" id="boundary" inkscape:connector-curvature="0" />
	<path style="fill:none;stroke:red;stroke-width:1px;stroke-linecap:butt;stroke-linejoin:miter;stroke-opacity:1" d="M 464.438,97.5849 483.155,91.9698 z" id="boundary" inkscape:connector-curvature="0" />
	<path style="fill:none;stroke:red;stroke-width:1px;stroke-linecap:butt;stroke-linejoin:miter;stroke-opacity:1" d="M 464.438,97.5849 445.721,97.5849 z" id="boundary" inkscape:connector-curvature="0" />
	<path style="fill:none;stroke:red;stroke-width:1px;stroke-linecap:butt;stroke-linejoin:miter;stroke-opacity:1" d="M 554.279,155.608 572.996,155.608 z" id="boundary" inkscape:connector-curvature="0" />
	<path style="fill:none;stroke:red;stroke-width:1px;stroke-linecap:butt;stroke-linejoin:miter;stroke-opacity:1" d="M 537.434,164.966 554.279,155.608 z" id="boundary" inkscape:connector-curvature="0" />
	<path style="fill:none;stroke:red;stroke-width:1px;stroke-linecap:butt;stroke-linejoin:miter;stroke-opacity:1" d="M 518.717,164.966 500,164.966 z" id="boundary" inkscape:connector-curvature="0" />
	<path style="fill:none;stroke:red;stroke-width:1px;stroke-linecap:butt;stroke-linejoin:miter;stroke-opacity:1" d="M 410.158,183.683 391.442,183.683 z" id="boundary" inkscape:connector-curvature="0" />
	<path style="fill:none;stroke:red;stroke-width:1px;stroke-linecap:butt;stroke-linejoin:miter;stroke-opacity:1" d="M 410.158,183.683 428.875,183.683 z" id="boundary" inkscape:connector-curvature="0" />
	<path style="fill:none;stroke:red;stroke-width:1px;stroke-linecap:butt;stroke-linejoin:miter;stroke-opacity:1" d="M 445.721,174.325 428.875,183.683 z" id="boundary" inkscape:connector-curvature="0" />
	<path style="fill:none;stroke:red;stroke-width:1px;stroke-linecap:butt;stroke-linejoin:miter;stroke-opacity:1" d="M 445.721,174.325 464.438,174.325 z" id="boundary" inkscape:connector-curvature="0" />
	<path style="fill:none;stroke:red;stroke-width:1px;stroke-linecap:butt;stroke-linejoin:miter;stroke-opacity:1" d="M 483.155,174.325 500,164.966 z" id="boundary" inkscape:connector-curvature="0" />
	<path style="fill:none;stroke:red;stroke-width:1px;stroke-linecap:butt;stroke-linejoin:miter;stroke-opacity:1" d="M 483.155,174.325 464.438,174.325 z" id="boundary" inkscape:connector-curvature="0" />
	<path style="fill:none;stroke:red;stroke-width:1px;stroke-linecap:butt;stroke-linejoin:miter;stroke-opacity:1" d="M 518.717,164.966 537.434,164.966 z" id="boundary" inkscape:connector-curvature="0" />
	<path style="fill:none;stroke:red;stroke-width:1px;stroke-linecap:butt;stroke-linejoin:miter;stroke-opacity:1" d="M 572.996,155.608 591.713,151.864 z" id="boundary" inkscape:connector-curvature="0" />
	<path style="fill:none;stroke:red;stroke-width:1px;stroke-linecap:butt;stroke-linejoin:miter;stroke-opacity:1" d="M 777.011,118.174 758.294,118.174 z" id="boundary" inkscape:connector-curvature="0" />
	<path style="fill:none;stroke:red;stroke-width:1px;stroke-linecap:butt;stroke-linejoin:miter;stroke-opacity:1" d="M 777.011,118.174 795.728,118.174 z" id="boundary" inkscape:connector-curvature="0" />
	<path style="fill:none;stroke:red;stroke-width:1px;stroke-linecap:butt;stroke-linejoin:miter;stroke-opacity:1" d="M 812.574,108.815 795.728,118.174 z" id="boundary" inkscape:connector-curvature="0" />
	<path style="fill:none;stroke:red;stroke-width:1px;stroke-linecap:butt;stroke-linejoin:miter;stroke-opacity:1" d="M 812.574,108.815 831.291,108.815 z" id="boundary" inkscape:connector-curvature="0" />
	<path style="fill:none;stroke:red;stroke-width:1px;stroke-linecap:butt;stroke-linejoin:miter;stroke-opacity:1" d="M 741.449,127.532 758.294,118.174 z" id="boundary" inkscape:connector-curvature="0" />
	<path style="fill:none;stroke:red;stroke-width:1px;stroke-linecap:butt;stroke-linejoin:miter;stroke-opacity:1" d="M 866.853,99.4566 885.57,99.4566 z" id="boundary" inkscape:connector-curvature="0" />
	<path style="fill:none;stroke:red;stroke-width:1px;stroke-linecap:butt;stroke-linejoin:miter;stroke-opacity:1" d="M 850.008,108.815 866.853,99.4566 z" id="boundary" inkscape:connector-curvature="0" />
	<path style="fill:none;stroke:red;stroke-width:1px;stroke-linecap:butt;stroke-linejoin:miter;stroke-opacity:1" d="M 850.008,108.815 831.291,108.815 z" id="boundary" inkscape:connector-curvature="0" />
	<path style="fill:none;stroke:red;stroke-width:1px;stroke-linecap:butt;stroke-linejoin:miter;stroke-opacity:1" d="M 885.57,99.4566 904.287,99.4566 z" id="boundary" inkscape:connector-curvature="0" />
	<path style="fill:none;stroke:red;stroke-width:1px;stroke-linecap:butt;stroke-linejoin:miter;stroke-opacity:1" d="M 629.147,146.249 610.43,146.249 z" id="boundary" inkscape:connector-curvature="0" />
	<path style="fill:none;stroke:red;stroke-width:1px;stroke-linecap:butt;stroke-linejoin:miter;stroke-opacity:1" d="M 647.864,142.506 629.147,146.249 z" id="boundary" inkscape:connector-curvature="0" />
	<path style="fill:none;stroke:red;stroke-width:1px;stroke-linecap:butt;stroke-linejoin:miter;stroke-opacity:1" d="M 591.713,151.864 610.43,146.249 z" id="boundary" inkscape:connector-curvature="0" />
	<path style="fill:none;stroke:red;stroke-width:1px;stroke-linecap:butt;stroke-linejoin:miter;stroke-opacity:1" d="M 722.732,127.532 741.449,127.532 z" id="boundary" inkscape:connector-curvature="0" />
	<path style="fill:none;stroke:red;stroke-width:1px;stroke-linecap:butt;stroke-linejoin:miter;stroke-opacity:1" d="M 704.015,133.147 722.732,127.532 z" id="boundary" inkscape:connector-curvature="0" />
	<path style="fill:none;stroke:red;stroke-width:1px;stroke-linecap:butt;stroke-linejoin:miter;stroke-opacity:1" d="M 685.298,136.891 666.581,136.891 z" id="boundary" inkscape:connector-curvature="0" />
	<path style="fill:none;stroke:red;stroke-width:1px;stroke-linecap:butt;stroke-linejoin:miter;stroke-opacity:1" d="M 704.015,133.147 685.298,136.891 z" id="boundary" inkscape:connector-curvature="0" />
	<path style="fill:none;stroke:red;stroke-width:1px;stroke-linecap:butt;stroke-linejoin:miter;stroke-opacity:1" d="M 647.864,142.506 666.581,136.891 z" id="boundary" inkscape:connector-curvature="0" />
	<circle cx="4" cy="168.709" r="4" fill="#0" id="circle0"/>
	<circle cx="4" cy="318.445" r="4" fill="#0" id="circle1"/>
	<circle cx="13.3585" cy="140.634" r="4" fill="#0" id="circle2"/>
	<circle cx="13.3585" cy="185.555" r="4" fill="#0" id="circle3"/>
	<circle cx="13.3585" cy="204.272" r="4" fill="#0" id="circle4"/>
	<circle cx="13.3585" cy="222.989" r="4" fill="#0" id="circle5"/>
	<circle cx="13.3585" cy="262.294" r="4" fill="#0" id="circle6"/>
	<circle cx="13.3585" cy="281.011" r="4" fill="#0" id="circle7"/>
	<circle cx="13.3585" cy="299.728" r="4" fill="#0" id="circle8"/>
	<circle cx="13.3585" cy="335.291" r="4" fill="#0" id="circle9"/>
	<circle cx="13.3585" cy="355.879" r="4" fill="#0" id="circle10"/>
	<circle cx="22.717" cy="239.834" r="4" fill="#0" id="circle11"/>
	<circle cx="28.3321" cy="125.66" r="4" fill="#0" id="circle12"/>
	<circle cx="32.0755" cy="361.494" r="4" fill="#0" id="circle13"/>
	<circle cx="37.6906" cy="106.943" r="4" fill="#0" id="circle14"/>
	<circle cx="43.3057" cy="376.468" r="4" fill="#0" id="circle15"/>
	<circle cx="50.7925" cy="84.483" r="4" fill="#0" id="circle16"/>
	<circle cx="58.2792" cy="389.57" r="4" fill="#0" id="circle17"/>
	<circle cx="65.766" cy="69.5094" r="4" fill="#0" id="circle18"/>
	<circle cx="76.9962" cy="385.826" r="4" fill="#0" id="circle19"/>
	<circle cx="80.7396" cy="54.5358" r="4" fill="#0" id="circle20"/>
	<circle cx="95.7132" cy="41.434" r="4" fill="#0" id="circle21"/>
	<circle cx="95.7132" cy="380.211" r="4" fill="#0" id="circle22"/>
	<circle cx="112.558" cy="32.0755" r="4" fill="#0" id="circle23"/>
	<circle cx="114.43" cy="380.211" r="4" fill="#0" id="circle24"/>
	<circle cx="118.174" cy="146.249" r="4" fill="#0" id="circle25"/>
	<circle cx="127.532" cy="90.0981" r="4" fill="#0" id="circle26"/>
	<circle cx="127.532" cy="118.174" r="4" fill="#0" id="circle27"/>
	<circle cx="131.275" cy="32.0755" r="4" fill="#0" id="circle28"/>
	<circle cx="131.275" cy="370.853" r="4" fill="#0" id="circle29"/>
	<circle cx="136.891" cy="153.736" r="4" fill="#0" id="circle30"/>
	<circle cx="136.891" cy="230.475" r="4" fill="#0" id="circle31"/>
	<circle cx="140.634" cy="249.192" r="4" fill="#0" id="circle32"/>
	<circle cx="142.506" cy="76.9962" r="4" fill="#0" id="circle33"/>
	<circle cx="149.992" cy="32.0755" r="4" fill="#0" id="circle34"/>
	<circle cx="149.992" cy="368.981" r="4" fill="#0" id="circle35"/>
	<circle cx="151.864" cy="58.2792" r="4" fill="#0" id="circle36"/>
	<circle cx="155.608" cy="153.736" r="4" fill="#0" id="circle37"/>
	<circle cx="155.608" cy="230.475" r="4" fill="#0" id="circle38"/>
	<circle cx="155.608" cy="262.294" r="4" fill="#0" id="circle39"/>
	<circle cx="164.966" cy="352.136" r="4" fill="#0" id="circle40"/>
	<circle cx="172.453" cy="144.377" r="4" fill="#0" id="circle41"/>
	<circle cx="172.453" cy="271.653" r="4" fill="#0" id="circle42"/>
	<circle cx="174.325" cy="221.117" r="4" fill="#0" id="circle43"/>
	<circle cx="174.325" cy="290.37" r="4" fill="#0" id="circle44"/>
	<circle cx="179.94" cy="339.034" r="4" fill="#0" id="circle45"/>
	<circle cx="181.811" cy="309.087" r="4" fill="#0" id="circle46"/>
	<circle cx="191.17" cy="144.377" r="4" fill="#0" id="circle47"/>
	<circle cx="193.042" cy="221.117" r="4" fill="#0" id="circle48"/>
	<circle cx="209.887" cy="144.377" r="4" fill="#0" id="circle49"/>
	<circle cx="211.758" cy="221.117" r="4" fill="#0" id="circle50"/>
	<circle cx="226.732" cy="135.019" r="4" fill="#0" id="circle51"/>
	<circle cx="228.604" cy="211.758" r="4" fill="#0" id="circle52"/>
	<circle cx="245.449" cy="135.019" r="4" fill="#0" id="circle53"/>
	<circle cx="247.321" cy="211.758" r="4" fill="#0" id="circle54"/>
	<circle cx="264.166" cy="135.019" r="4" fill="#0" id="circle55"/>
	<circle cx="266.038" cy="211.758" r="4" fill="#0" id="circle56"/>
	<circle cx="281.011" cy="125.66" r="4" fill="#0" id="circle57"/>
	<circle cx="282.883" cy="202.4" r="4" fill="#0" id="circle58"/>
	<circle cx="299.728" cy="125.66" r="4" fill="#0" id="circle59"/>
	<circle cx="301.6" cy="202.4" r="4" fill="#0" id="circle60"/>
	<circle cx="318.445" cy="125.66" r="4" fill="#0" id="circle61"/>
	<circle cx="320.317" cy="202.4" r="4" fill="#0" id="circle62"/>
	<circle cx="335.291" cy="116.302" r="4" fill="#0" id="circle63"/>
	<circle cx="337.162" cy="193.042" r="4" fill="#0" id="circle64"/>
	<circle cx="354.008" cy="116.302" r="4" fill="#0" id="circle65"/>
	<circle cx="355.879" cy="193.042" r="4" fill="#0" id="circle66"/>
	<circle cx="372.725" cy="116.302" r="4" fill="#0" id="circle67"/>
	<circle cx="374.596" cy="193.042" r="4" fill="#0" id="circle68"/>
	<circle cx="389.57" cy="106.943" r="4" fill="#0" id="circle69"/>
	<circle cx="391.442" cy="183.683" r="4" fill="#0" id="circle70"/>
	<circle cx="408.287" cy="106.943" r="4" fill="#0" id="circle71"/>
	<circle cx="410.158" cy="183.683" r="4" fill="#0" id="circle72"/>
	<circle cx="427.004" cy="101.328" r="4" fill="#0" id="circle73"/>
	<circle cx="428.875" cy="183.683" r="4" fill="#0" id="circle74"/>
	<circle cx="445.721" cy="97.5849" r="4" fill="#0" id="circle75"/>
	<circle cx="445.721" cy="174.325" r="4" fill="#0" id="circle76"/>
	<circle cx="464.438" cy="97.5849" r="4" fill="#0" id="circle77"/>
	<circle cx="464.438" cy="174.325" r="4" fill="#0" id="circle78"/>
	<circle cx="483.155" cy="91.9698" r="4" fill="#0" id="circle79"/>
	<circle cx="483.155" cy="174.325" r="4" fill="#0" id="circle80"/>
	<circle cx="500" cy="164.966" r="4" fill="#0" id="circle81"/>
	<circle cx="501.872" cy="88.2264" r="4" fill="#0" id="circle82"/>
	<circle cx="518.717" cy="164.966" r="4" fill="#0" id="circle83"/>
	<circle cx="520.589" cy="88.2264" r="4" fill="#0" id="circle84"/>
	<circle cx="537.434" cy="164.966" r="4" fill="#0" id="circle85"/>
	<circle cx="539.306" cy="82.6113" r="4" fill="#0" id="circle86"/>
	<circle cx="554.279" cy="155.608" r="4" fill="#0" id="circle87"/>
	<circle cx="558.023" cy="78.8679" r="4" fill="#0" id="circle88"/>
	<circle cx="572.996" cy="155.608" r="4" fill="#0" id="circle89"/>
	<circle cx="576.74" cy="78.8679" r="4" fill="#0" id="circle90"/>
	<circle cx="591.713" cy="151.864" r="4" fill="#0" id="circle91"/>
	<circle cx="593.585" cy="69.5094" r="4" fill="#0" id="circle92"/>
	<circle cx="610.43" cy="146.249" r="4" fill="#0" id="circle93"/>
	<circle cx="612.302" cy="69.5094" r="4" fill="#0" id="circle94"/>
	<circle cx="629.147" cy="146.249" r="4" fill="#0" id="circle95"/>
	<circle cx="631.019" cy="69.5094" r="4" fill="#0" id="circle96"/>
	<circle cx="647.864" cy="60.1509" r="4" fill="#0" id="circle97"/>
	<circle cx="647.864" cy="142.506" r="4" fill="#0" id="circle98"/>
	<circle cx="666.581" cy="60.1509" r="4" fill="#0" id="circle99"/>
	<circle cx="666.581" cy="136.891" r="4" fill="#0" id="circle100"/>
	<circle cx="685.298" cy="60.1509" r="4" fill="#0" id="circle101"/>
	<circle cx="685.298" cy="136.891" r="4" fill="#0" id="circle102"/>
	<circle cx="702.143" cy="50.7925" r="4" fill="#0" id="circle103"/>
	<circle cx="704.015" cy="133.147" r="4" fill="#0" id="circle104"/>
	<circle cx="720.86" cy="50.7925" r="4" fill="#0" id="circle105"/>
	<circle cx="722.732" cy="127.532" r="4" fill="#0" id="circle106"/>
	<circle cx="739.577" cy="50.7925" r="4" fill="#0" id="circle107"/>
	<circle cx="741.449" cy="127.532" r="4" fill="#0" id="circle108"/>
	<circle cx="758.294" cy="41.434" r="4" fill="#0" id="circle109"/>
	<circle cx="758.294" cy="118.174" r="4" fill="#0" id="circle110"/>
	<circle cx="777.011" cy="41.434" r="4" fill="#0" id="circle111"/>
	<circle cx="777.011" cy="118.174" r="4" fill="#0" id="circle112"/>
	<circle cx="795.728" cy="41.434" r="4" fill="#0" id="circle113"/>
	<circle cx="795.728" cy="118.174" r="4" fill="#0" id="circle114"/>
	<circle cx="812.574" cy="32.0755" r="4" fill="#0" id="circle115"/>
	<circle cx="812.574" cy="108.815" r="4" fill="#0" id="circle116"/>
	<circle cx="831.291" cy="32.0755" r="4" fill="#0" id="circle117"/>
	<circle cx="831.291" cy="108.815" r="4" fill="#0" id="circle118"/>
	<circle cx="850.008" cy="32.0755" r="4" fill="#0" id="circle119"/>
	<circle cx="850.008" cy="108.815" r="4" fill="#0" id="circle120"/>
	<circle cx="866.853" cy="22.717" r="4" fill="#0" id="circle121"/>
	<circle cx="866.853" cy="99.4566" r="4" fill="#0" id="circle122"/>
	<circle cx="885.57" cy="22.717" r="4" fill="#0" id="circle123"/>
	<circle cx="885.57" cy="99.4566" r="4" fill="#0" id="circle124"/>
	<circle cx="904.287" cy="22.717" r="4" fill="#0" id="circle125"/>
	<circle cx="904.287" cy="99.4566" r="4" fill="#0" id="circle126"/>
	<circle cx="921.132" cy="13.3585" r="4" fill="#0" id="circle127"/>
	<circle cx="921.132" cy="90.0981" r="4" fill="#0" id="circle128"/>
	<circle cx="939.849" cy="13.3585" r="4" fill="#0" id="circle129"/>
	<circle cx="939.849" cy="90.0981" r="4" fill="#0" id="circle130"/>
	<circle cx="958.566" cy="9.61509" r="4" fill="#0" id="circle131"/>
	<circle cx="958.566" cy="90.0981" r="4" fill="#0" id="circle132"/>
	<circle cx="973.54" cy="78.8679" r="4" fill="#0" id="circle133"/>
	<circle cx="977.283" cy="4" r="4" fill="#0" id="circle134"/>
	<circle cx="988.513" cy="18.9736" r="4" fill="#0" id="circle135"/>
	<circle cx="992.257" cy="69.5094" r="4" fill="#0" id="circle136"/>
	<circle cx="996" cy="37.6906" r="4" fill="#0" id="circle137"/>
	</g>
</svg>