<?xml version="1.0" encoding="UTF-8" standalone="no"?>
<!-- Created with CurveBenchmark -->
<svg
	xmlns:dc="http://purl.org/dc/elements/1.1/"
	xmlns:cc="http://creativecommons.org/ns#"
	xmlns:rdf="http://www.w3.org/1999/02/22-rdf-syntax-ns#"
	xmlns:svg="http://www.w3.org/2000/svg"
	xmlns="http://www.w3.org/2000/svg"
	xmlns:sodipodi="http://sodipodi.sourceforge.net/DTD/sodipodi-0.dtd"
	xmlns:inkscape="http://www.inkscape.org/namespaces/inkscape"
	width="1000"
	height="1000"
	id="svg2"
	version="1.1"
	sodipodi:docname="manifold/gathang-television130.png.txt">
<defs
	id="defs4" />
<metadata
	id="metadata7">
	<rdf:RDF>
		<cc:Work
			rdf:about="">
			<dc:format>image/svg+xml</dc:format>
			<dc:type
				rdf:resource="http://purl.org/dc/dcmitype/StillImage" />
			<dc:title></dc:title>
		</cc:Work>
	</rdf:RDF>
</metadata>
<g
	inkscape:label="Layer 1"
	inkscape:groupmode="layer"
	id="layer1">
	<path style="fill:none;stroke:red;stroke-width:1px;stroke-linecap:butt;stroke-linejoin:miter;stroke-opacity:1" d="M 210.031,11.6308 210.031,49.7846 z" id="boundary" inkscape:connector-curvature="0" />
	<path style="fill:none;stroke:red;stroke-width:1px;stroke-linecap:butt;stroke-linejoin:miter;stroke-opacity:1" d="M 210.031,11.6308 248.185,4 z" id="boundary" inkscape:connector-curvature="0" />
	<path style="fill:none;stroke:red;stroke-width:1px;stroke-linecap:butt;stroke-linejoin:miter;stroke-opacity:1" d="M 210.031,87.9385 210.031,126.092 z" id="boundary" inkscape:connector-curvature="0" />
	<path style="fill:none;stroke:red;stroke-width:1px;stroke-linecap:butt;stroke-linejoin:miter;stroke-opacity:1" d="M 210.031,164.246 210.031,126.092 z" id="boundary" inkscape:connector-curvature="0" />
	<path style="fill:none;stroke:red;stroke-width:1px;stroke-linecap:butt;stroke-linejoin:miter;stroke-opacity:1" d="M 210.031,87.9385 210.031,49.7846 z" id="boundary" inkscape:connector-curvature="0" />
	<path style="fill:none;stroke:red;stroke-width:1px;stroke-linecap:butt;stroke-linejoin:miter;stroke-opacity:1" d="M 210.031,202.4 210.031,240.554 z" id="boundary" inkscape:connector-curvature="0" />
	<path style="fill:none;stroke:red;stroke-width:1px;stroke-linecap:butt;stroke-linejoin:miter;stroke-opacity:1" d="M 442.769,511.446 404.615,511.446 z" id="boundary" inkscape:connector-curvature="0" />
	<path style="fill:none;stroke:red;stroke-width:1px;stroke-linecap:butt;stroke-linejoin:miter;stroke-opacity:1" d="M 210.031,240.554 210.031,278.708 z" id="boundary" inkscape:connector-curvature="0" />
	<path style="fill:none;stroke:red;stroke-width:1px;stroke-linecap:butt;stroke-linejoin:miter;stroke-opacity:1" d="M 210.031,316.862 210.031,355.015 z" id="boundary" inkscape:connector-curvature="0" />
	<path style="fill:none;stroke:red;stroke-width:1px;stroke-linecap:butt;stroke-linejoin:miter;stroke-opacity:1" d="M 210.031,393.169 210.031,355.015 z" id="boundary" inkscape:connector-curvature="0" />
	<path style="fill:none;stroke:red;stroke-width:1px;stroke-linecap:butt;stroke-linejoin:miter;stroke-opacity:1" d="M 210.031,316.862 210.031,278.708 z" id="boundary" inkscape:connector-curvature="0" />
	<path style="fill:none;stroke:red;stroke-width:1px;stroke-linecap:butt;stroke-linejoin:miter;stroke-opacity:1" d="M 210.031,202.4 210.031,164.246 z" id="boundary" inkscape:connector-curvature="0" />
	<path style="fill:none;stroke:red;stroke-width:1px;stroke-linecap:butt;stroke-linejoin:miter;stroke-opacity:1" d="M 91.7538,637.354 129.908,637.354 z" id="boundary" inkscape:connector-curvature="0" />
	<path style="fill:none;stroke:red;stroke-width:1px;stroke-linecap:butt;stroke-linejoin:miter;stroke-opacity:1" d="M 72.6769,671.692 42.1538,644.985 z" id="boundary" inkscape:connector-curvature="0" />
	<path style="fill:none;stroke:red;stroke-width:1px;stroke-linecap:butt;stroke-linejoin:miter;stroke-opacity:1" d="M 42.1538,644.985 91.7538,637.354 z" id="boundary" inkscape:connector-curvature="0" />
	<path style="fill:none;stroke:red;stroke-width:1px;stroke-linecap:butt;stroke-linejoin:miter;stroke-opacity:1" d="M 110.831,671.692 72.6769,671.692 z" id="boundary" inkscape:connector-curvature="0" />
	<path style="fill:none;stroke:red;stroke-width:1px;stroke-linecap:butt;stroke-linejoin:miter;stroke-opacity:1" d="M 148.985,671.692 110.831,671.692 z" id="boundary" inkscape:connector-curvature="0" />
	<path style="fill:none;stroke:red;stroke-width:1px;stroke-linecap:butt;stroke-linejoin:miter;stroke-opacity:1" d="M 168.062,637.354 129.908,637.354 z" id="boundary" inkscape:connector-curvature="0" />
	<path style="fill:none;stroke:red;stroke-width:1px;stroke-linecap:butt;stroke-linejoin:miter;stroke-opacity:1" d="M 210.031,469.477 210.031,431.323 z" id="boundary" inkscape:connector-curvature="0" />
	<path style="fill:none;stroke:red;stroke-width:1px;stroke-linecap:butt;stroke-linejoin:miter;stroke-opacity:1" d="M 206.215,637.354 168.062,637.354 z" id="boundary" inkscape:connector-curvature="0" />
	<path style="fill:none;stroke:red;stroke-width:1px;stroke-linecap:butt;stroke-linejoin:miter;stroke-opacity:1" d="M 187.138,671.692 148.985,671.692 z" id="boundary" inkscape:connector-curvature="0" />
	<path style="fill:none;stroke:red;stroke-width:1px;stroke-linecap:butt;stroke-linejoin:miter;stroke-opacity:1" d="M 225.292,671.692 187.138,671.692 z" id="boundary" inkscape:connector-curvature="0" />
	<path style="fill:none;stroke:red;stroke-width:1px;stroke-linecap:butt;stroke-linejoin:miter;stroke-opacity:1" d="M 210.031,469.477 213.846,507.631 z" id="boundary" inkscape:connector-curvature="0" />
	<path style="fill:none;stroke:red;stroke-width:1px;stroke-linecap:butt;stroke-linejoin:miter;stroke-opacity:1" d="M 210.031,393.169 210.031,431.323 z" id="boundary" inkscape:connector-curvature="0" />
	<path style="fill:none;stroke:red;stroke-width:1px;stroke-linecap:butt;stroke-linejoin:miter;stroke-opacity:1" d="M 286.338,4 324.492,4 z" id="boundary" inkscape:connector-curvature="0" />
	<path style="fill:none;stroke:red;stroke-width:1px;stroke-linecap:butt;stroke-linejoin:miter;stroke-opacity:1" d="M 252,511.446 213.846,507.631 z" id="boundary" inkscape:connector-curvature="0" />
	<path style="fill:none;stroke:red;stroke-width:1px;stroke-linecap:butt;stroke-linejoin:miter;stroke-opacity:1" d="M 290.154,511.446 252,511.446 z" id="boundary" inkscape:connector-curvature="0" />
	<path style="fill:none;stroke:red;stroke-width:1px;stroke-linecap:butt;stroke-linejoin:miter;stroke-opacity:1" d="M 324.492,4 362.646,4 z" id="boundary" inkscape:connector-curvature="0" />
	<path style="fill:none;stroke:red;stroke-width:1px;stroke-linecap:butt;stroke-linejoin:miter;stroke-opacity:1" d="M 248.185,4 286.338,4 z" id="boundary" inkscape:connector-curvature="0" />
	<path style="fill:none;stroke:red;stroke-width:1px;stroke-linecap:butt;stroke-linejoin:miter;stroke-opacity:1" d="M 362.646,4 400.8,4 z" id="boundary" inkscape:connector-curvature="0" />
	<path style="fill:none;stroke:red;stroke-width:1px;stroke-linecap:butt;stroke-linejoin:miter;stroke-opacity:1" d="M 328.308,511.446 366.462,511.446 z" id="boundary" inkscape:connector-curvature="0" />
	<path style="fill:none;stroke:red;stroke-width:1px;stroke-linecap:butt;stroke-linejoin:miter;stroke-opacity:1" d="M 404.615,511.446 366.462,511.446 z" id="boundary" inkscape:connector-curvature="0" />
	<path style="fill:none;stroke:red;stroke-width:1px;stroke-linecap:butt;stroke-linejoin:miter;stroke-opacity:1" d="M 328.308,511.446 290.154,511.446 z" id="boundary" inkscape:connector-curvature="0" />
	<path style="fill:none;stroke:red;stroke-width:1px;stroke-linecap:butt;stroke-linejoin:miter;stroke-opacity:1" d="M 244.369,637.354 282.523,637.354 z" id="boundary" inkscape:connector-curvature="0" />
	<path style="fill:none;stroke:red;stroke-width:1px;stroke-linecap:butt;stroke-linejoin:miter;stroke-opacity:1" d="M 225.292,671.692 263.446,671.692 z" id="boundary" inkscape:connector-curvature="0" />
	<path style="fill:none;stroke:red;stroke-width:1px;stroke-linecap:butt;stroke-linejoin:miter;stroke-opacity:1" d="M 301.6,671.692 263.446,671.692 z" id="boundary" inkscape:connector-curvature="0" />
	<path style="fill:none;stroke:red;stroke-width:1px;stroke-linecap:butt;stroke-linejoin:miter;stroke-opacity:1" d="M 282.523,637.354 320.677,637.354 z" id="boundary" inkscape:connector-curvature="0" />
	<path style="fill:none;stroke:red;stroke-width:1px;stroke-linecap:butt;stroke-linejoin:miter;stroke-opacity:1" d="M 206.215,637.354 244.369,637.354 z" id="boundary" inkscape:connector-curvature="0" />
	<path style="fill:none;stroke:red;stroke-width:1px;stroke-linecap:butt;stroke-linejoin:miter;stroke-opacity:1" d="M 320.677,637.354 358.831,637.354 z" id="boundary" inkscape:connector-curvature="0" />
	<path style="fill:none;stroke:red;stroke-width:1px;stroke-linecap:butt;stroke-linejoin:miter;stroke-opacity:1" d="M 396.985,637.354 358.831,637.354 z" id="boundary" inkscape:connector-curvature="0" />
	<path style="fill:none;stroke:red;stroke-width:1px;stroke-linecap:butt;stroke-linejoin:miter;stroke-opacity:1" d="M 339.754,671.692 377.908,671.692 z" id="boundary" inkscape:connector-curvature="0" />
	<path style="fill:none;stroke:red;stroke-width:1px;stroke-linecap:butt;stroke-linejoin:miter;stroke-opacity:1" d="M 416.062,671.692 377.908,671.692 z" id="boundary" inkscape:connector-curvature="0" />
	<path style="fill:none;stroke:red;stroke-width:1px;stroke-linecap:butt;stroke-linejoin:miter;stroke-opacity:1" d="M 396.985,637.354 435.138,637.354 z" id="boundary" inkscape:connector-curvature="0" />
	<path style="fill:none;stroke:red;stroke-width:1px;stroke-linecap:butt;stroke-linejoin:miter;stroke-opacity:1" d="M 339.754,671.692 301.6,671.692 z" id="boundary" inkscape:connector-curvature="0" />
	<path style="fill:none;stroke:red;stroke-width:1px;stroke-linecap:butt;stroke-linejoin:miter;stroke-opacity:1" d="M 400.8,4 438.954,4 z" id="boundary" inkscape:connector-curvature="0" />
	<path style="fill:none;stroke:red;stroke-width:1px;stroke-linecap:butt;stroke-linejoin:miter;stroke-opacity:1" d="M 42.1538,767.077 91.7538,759.446 z" id="boundary" inkscape:connector-curvature="0" />
	<path style="fill:none;stroke:red;stroke-width:1px;stroke-linecap:butt;stroke-linejoin:miter;stroke-opacity:1" d="M 72.6769,793.785 42.1538,767.077 z" id="boundary" inkscape:connector-curvature="0" />
	<path style="fill:none;stroke:red;stroke-width:1px;stroke-linecap:butt;stroke-linejoin:miter;stroke-opacity:1" d="M 80.3077,873.908 42.1538,873.908 z" id="boundary" inkscape:connector-curvature="0" />
	<path style="fill:none;stroke:red;stroke-width:1px;stroke-linecap:butt;stroke-linejoin:miter;stroke-opacity:1" d="M 110.831,793.785 72.6769,793.785 z" id="boundary" inkscape:connector-curvature="0" />
	<path style="fill:none;stroke:red;stroke-width:1px;stroke-linecap:butt;stroke-linejoin:miter;stroke-opacity:1" d="M 91.7538,759.446 129.908,759.446 z" id="boundary" inkscape:connector-curvature="0" />
	<path style="fill:none;stroke:red;stroke-width:1px;stroke-linecap:butt;stroke-linejoin:miter;stroke-opacity:1" d="M 42.1538,873.908 4,889.169 z" id="boundary" inkscape:connector-curvature="0" />
	<path style="fill:none;stroke:red;stroke-width:1px;stroke-linecap:butt;stroke-linejoin:miter;stroke-opacity:1" d="M 129.908,759.446 168.062,759.446 z" id="boundary" inkscape:connector-curvature="0" />
	<path style="fill:none;stroke:red;stroke-width:1px;stroke-linecap:butt;stroke-linejoin:miter;stroke-opacity:1" d="M 206.215,759.446 168.062,759.446 z" id="boundary" inkscape:connector-curvature="0" />
	<path style="fill:none;stroke:red;stroke-width:1px;stroke-linecap:butt;stroke-linejoin:miter;stroke-opacity:1" d="M 110.831,793.785 148.985,793.785 z" id="boundary" inkscape:connector-curvature="0" />
	<path style="fill:none;stroke:red;stroke-width:1px;stroke-linecap:butt;stroke-linejoin:miter;stroke-opacity:1" d="M 187.138,793.785 148.985,793.785 z" id="boundary" inkscape:connector-curvature="0" />
	<path style="fill:none;stroke:red;stroke-width:1px;stroke-linecap:butt;stroke-linejoin:miter;stroke-opacity:1" d="M 225.292,793.785 187.138,793.785 z" id="boundary" inkscape:connector-curvature="0" />
	<path style="fill:none;stroke:red;stroke-width:1px;stroke-linecap:butt;stroke-linejoin:miter;stroke-opacity:1" d="M 206.215,759.446 244.369,759.446 z" id="boundary" inkscape:connector-curvature="0" />
	<path style="fill:none;stroke:red;stroke-width:1px;stroke-linecap:butt;stroke-linejoin:miter;stroke-opacity:1" d="M 4,927.323 4,889.169 z" id="boundary" inkscape:connector-curvature="0" />
	<path style="fill:none;stroke:red;stroke-width:1px;stroke-linecap:butt;stroke-linejoin:miter;stroke-opacity:1" d="M 34.5231,954.031 4,927.323 z" id="boundary" inkscape:connector-curvature="0" />
	<path style="fill:none;stroke:red;stroke-width:1px;stroke-linecap:butt;stroke-linejoin:miter;stroke-opacity:1" d="M 72.6769,961.662 34.5231,954.031 z" id="boundary" inkscape:connector-curvature="0" />
	<path style="fill:none;stroke:red;stroke-width:1px;stroke-linecap:butt;stroke-linejoin:miter;stroke-opacity:1" d="M 110.831,954.031 72.6769,961.662 z" id="boundary" inkscape:connector-curvature="0" />
	<path style="fill:none;stroke:red;stroke-width:1px;stroke-linecap:butt;stroke-linejoin:miter;stroke-opacity:1" d="M 118.462,873.908 156.615,873.908 z" id="boundary" inkscape:connector-curvature="0" />
	<path style="fill:none;stroke:red;stroke-width:1px;stroke-linecap:butt;stroke-linejoin:miter;stroke-opacity:1" d="M 194.769,873.908 156.615,873.908 z" id="boundary" inkscape:connector-curvature="0" />
	<path style="fill:none;stroke:red;stroke-width:1px;stroke-linecap:butt;stroke-linejoin:miter;stroke-opacity:1" d="M 110.831,954.031 148.985,954.031 z" id="boundary" inkscape:connector-curvature="0" />
	<path style="fill:none;stroke:red;stroke-width:1px;stroke-linecap:butt;stroke-linejoin:miter;stroke-opacity:1" d="M 187.138,954.031 148.985,954.031 z" id="boundary" inkscape:connector-curvature="0" />
	<path style="fill:none;stroke:red;stroke-width:1px;stroke-linecap:butt;stroke-linejoin:miter;stroke-opacity:1" d="M 225.292,954.031 187.138,954.031 z" id="boundary" inkscape:connector-curvature="0" />
	<path style="fill:none;stroke:red;stroke-width:1px;stroke-linecap:butt;stroke-linejoin:miter;stroke-opacity:1" d="M 80.3077,873.908 118.462,873.908 z" id="boundary" inkscape:connector-curvature="0" />
	<path style="fill:none;stroke:red;stroke-width:1px;stroke-linecap:butt;stroke-linejoin:miter;stroke-opacity:1" d="M 232.923,873.908 194.769,873.908 z" id="boundary" inkscape:connector-curvature="0" />
	<path style="fill:none;stroke:red;stroke-width:1px;stroke-linecap:butt;stroke-linejoin:miter;stroke-opacity:1" d="M 244.369,759.446 282.523,759.446 z" id="boundary" inkscape:connector-curvature="0" />
	<path style="fill:none;stroke:red;stroke-width:1px;stroke-linecap:butt;stroke-linejoin:miter;stroke-opacity:1" d="M 271.077,873.908 232.923,873.908 z" id="boundary" inkscape:connector-curvature="0" />
	<path style="fill:none;stroke:red;stroke-width:1px;stroke-linecap:butt;stroke-linejoin:miter;stroke-opacity:1" d="M 225.292,793.785 263.446,793.785 z" id="boundary" inkscape:connector-curvature="0" />
	<path style="fill:none;stroke:red;stroke-width:1px;stroke-linecap:butt;stroke-linejoin:miter;stroke-opacity:1" d="M 301.6,793.785 263.446,793.785 z" id="boundary" inkscape:connector-curvature="0" />
	<path style="fill:none;stroke:red;stroke-width:1px;stroke-linecap:butt;stroke-linejoin:miter;stroke-opacity:1" d="M 282.523,759.446 320.677,759.446 z" id="boundary" inkscape:connector-curvature="0" />
	<path style="fill:none;stroke:red;stroke-width:1px;stroke-linecap:butt;stroke-linejoin:miter;stroke-opacity:1" d="M 320.677,759.446 358.831,759.446 z" id="boundary" inkscape:connector-curvature="0" />
	<path style="fill:none;stroke:red;stroke-width:1px;stroke-linecap:butt;stroke-linejoin:miter;stroke-opacity:1" d="M 396.985,759.446 358.831,759.446 z" id="boundary" inkscape:connector-curvature="0" />
	<path style="fill:none;stroke:red;stroke-width:1px;stroke-linecap:butt;stroke-linejoin:miter;stroke-opacity:1" d="M 301.6,793.785 339.754,793.785 z" id="boundary" inkscape:connector-curvature="0" />
	<path style="fill:none;stroke:red;stroke-width:1px;stroke-linecap:butt;stroke-linejoin:miter;stroke-opacity:1" d="M 377.908,793.785 339.754,793.785 z" id="boundary" inkscape:connector-curvature="0" />
	<path style="fill:none;stroke:red;stroke-width:1px;stroke-linecap:butt;stroke-linejoin:miter;stroke-opacity:1" d="M 416.062,793.785 377.908,793.785 z" id="boundary" inkscape:connector-curvature="0" />
	<path style="fill:none;stroke:red;stroke-width:1px;stroke-linecap:butt;stroke-linejoin:miter;stroke-opacity:1" d="M 396.985,759.446 435.138,759.446 z" id="boundary" inkscape:connector-curvature="0" />
	<path style="fill:none;stroke:red;stroke-width:1px;stroke-linecap:butt;stroke-linejoin:miter;stroke-opacity:1" d="M 225.292,954.031 263.446,954.031 z" id="boundary" inkscape:connector-curvature="0" />
	<path style="fill:none;stroke:red;stroke-width:1px;stroke-linecap:butt;stroke-linejoin:miter;stroke-opacity:1" d="M 301.6,954.031 263.446,954.031 z" id="boundary" inkscape:connector-curvature="0" />
	<path style="fill:none;stroke:red;stroke-width:1px;stroke-linecap:butt;stroke-linejoin:miter;stroke-opacity:1" d="M 339.754,954.031 301.6,954.031 z" id="boundary" inkscape:connector-curvature="0" />
	<path style="fill:none;stroke:red;stroke-width:1px;stroke-linecap:butt;stroke-linejoin:miter;stroke-opacity:1" d="M 393.169,873.908 362.646,896.8 z" id="boundary" inkscape:connector-curvature="0" />
	<path style="fill:none;stroke:red;stroke-width:1px;stroke-linecap:butt;stroke-linejoin:miter;stroke-opacity:1" d="M 377.908,954.031 339.754,954.031 z" id="boundary" inkscape:connector-curvature="0" />
	<path style="fill:none;stroke:red;stroke-width:1px;stroke-linecap:butt;stroke-linejoin:miter;stroke-opacity:1" d="M 416.062,954.031 377.908,954.031 z" id="boundary" inkscape:connector-curvature="0" />
	<path style="fill:none;stroke:red;stroke-width:1px;stroke-linecap:butt;stroke-linejoin:miter;stroke-opacity:1" d="M 515.262,4 553.415,4 z" id="boundary" inkscape:connector-curvature="0" />
	<path style="fill:none;stroke:red;stroke-width:1px;stroke-linecap:butt;stroke-linejoin:miter;stroke-opacity:1" d="M 477.108,4 515.262,4 z" id="boundary" inkscape:connector-curvature="0" />
	<path style="fill:none;stroke:red;stroke-width:1px;stroke-linecap:butt;stroke-linejoin:miter;stroke-opacity:1" d="M 442.769,511.446 469.477,541.969 z" id="boundary" inkscape:connector-curvature="0" />
	<path style="fill:none;stroke:red;stroke-width:1px;stroke-linecap:butt;stroke-linejoin:miter;stroke-opacity:1" d="M 553.415,4 591.569,4 z" id="boundary" inkscape:connector-curvature="0" />
	<path style="fill:none;stroke:red;stroke-width:1px;stroke-linecap:butt;stroke-linejoin:miter;stroke-opacity:1" d="M 591.569,4 629.723,4 z" id="boundary" inkscape:connector-curvature="0" />
	<path style="fill:none;stroke:red;stroke-width:1px;stroke-linecap:butt;stroke-linejoin:miter;stroke-opacity:1" d="M 740.369,511.446 702.215,511.446 z" id="boundary" inkscape:connector-curvature="0" />
	<path style="fill:none;stroke:red;stroke-width:1px;stroke-linecap:butt;stroke-linejoin:miter;stroke-opacity:1" d="M 629.723,4 667.877,4 z" id="boundary" inkscape:connector-curvature="0" />
	<path style="fill:none;stroke:red;stroke-width:1px;stroke-linecap:butt;stroke-linejoin:miter;stroke-opacity:1" d="M 667.877,4 706.031,4 z" id="boundary" inkscape:connector-curvature="0" />
	<path style="fill:none;stroke:red;stroke-width:1px;stroke-linecap:butt;stroke-linejoin:miter;stroke-opacity:1" d="M 702.215,511.446 664.062,515.262 z" id="boundary" inkscape:connector-curvature="0" />
	<path style="fill:none;stroke:red;stroke-width:1px;stroke-linecap:butt;stroke-linejoin:miter;stroke-opacity:1" d="M 469.477,580.123 469.477,541.969 z" id="boundary" inkscape:connector-curvature="0" />
	<path style="fill:none;stroke:red;stroke-width:1px;stroke-linecap:butt;stroke-linejoin:miter;stroke-opacity:1" d="M 469.477,618.277 454.215,671.692 z" id="boundary" inkscape:connector-curvature="0" />
	<path style="fill:none;stroke:red;stroke-width:1px;stroke-linecap:butt;stroke-linejoin:miter;stroke-opacity:1" d="M 469.477,580.123 469.477,618.277 z" id="boundary" inkscape:connector-curvature="0" />
	<path style="fill:none;stroke:red;stroke-width:1px;stroke-linecap:butt;stroke-linejoin:miter;stroke-opacity:1" d="M 416.062,671.692 454.215,671.692 z" id="boundary" inkscape:connector-curvature="0" />
	<path style="fill:none;stroke:red;stroke-width:1px;stroke-linecap:butt;stroke-linejoin:miter;stroke-opacity:1" d="M 664.062,515.262 664.062,553.415 z" id="boundary" inkscape:connector-curvature="0" />
	<path style="fill:none;stroke:red;stroke-width:1px;stroke-linecap:butt;stroke-linejoin:miter;stroke-opacity:1" d="M 664.062,591.569 664.062,553.415 z" id="boundary" inkscape:connector-curvature="0" />
	<path style="fill:none;stroke:red;stroke-width:1px;stroke-linecap:butt;stroke-linejoin:miter;stroke-opacity:1" d="M 664.062,675.508 664.062,629.723 z" id="boundary" inkscape:connector-curvature="0" />
	<path style="fill:none;stroke:red;stroke-width:1px;stroke-linecap:butt;stroke-linejoin:miter;stroke-opacity:1" d="M 664.062,629.723 664.062,591.569 z" id="boundary" inkscape:connector-curvature="0" />
	<path style="fill:none;stroke:red;stroke-width:1px;stroke-linecap:butt;stroke-linejoin:miter;stroke-opacity:1" d="M 740.369,637.354 702.215,637.354 z" id="boundary" inkscape:connector-curvature="0" />
	<path style="fill:none;stroke:red;stroke-width:1px;stroke-linecap:butt;stroke-linejoin:miter;stroke-opacity:1" d="M 744.185,4 782.338,4 z" id="boundary" inkscape:connector-curvature="0" />
	<path style="fill:none;stroke:red;stroke-width:1px;stroke-linecap:butt;stroke-linejoin:miter;stroke-opacity:1" d="M 824.308,53.6 824.308,91.7538 z" id="boundary" inkscape:connector-curvature="0" />
	<path style="fill:none;stroke:red;stroke-width:1px;stroke-linecap:butt;stroke-linejoin:miter;stroke-opacity:1" d="M 824.308,53.6 820.492,15.4462 z" id="boundary" inkscape:connector-curvature="0" />
	<path style="fill:none;stroke:red;stroke-width:1px;stroke-linecap:butt;stroke-linejoin:miter;stroke-opacity:1" d="M 824.308,129.908 824.308,91.7538 z" id="boundary" inkscape:connector-curvature="0" />
	<path style="fill:none;stroke:red;stroke-width:1px;stroke-linecap:butt;stroke-linejoin:miter;stroke-opacity:1" d="M 782.338,4 820.492,15.4462 z" id="boundary" inkscape:connector-curvature="0" />
	<path style="fill:none;stroke:red;stroke-width:1px;stroke-linecap:butt;stroke-linejoin:miter;stroke-opacity:1" d="M 824.308,129.908 824.308,168.062 z" id="boundary" inkscape:connector-curvature="0" />
	<path style="fill:none;stroke:red;stroke-width:1px;stroke-linecap:butt;stroke-linejoin:miter;stroke-opacity:1" d="M 824.308,206.215 824.308,168.062 z" id="boundary" inkscape:connector-curvature="0" />
	<path style="fill:none;stroke:red;stroke-width:1px;stroke-linecap:butt;stroke-linejoin:miter;stroke-opacity:1" d="M 824.308,244.369 824.308,206.215 z" id="boundary" inkscape:connector-curvature="0" />
	<path style="fill:none;stroke:red;stroke-width:1px;stroke-linecap:butt;stroke-linejoin:miter;stroke-opacity:1" d="M 824.308,244.369 824.308,282.523 z" id="boundary" inkscape:connector-curvature="0" />
	<path style="fill:none;stroke:red;stroke-width:1px;stroke-linecap:butt;stroke-linejoin:miter;stroke-opacity:1" d="M 824.308,320.677 824.308,282.523 z" id="boundary" inkscape:connector-curvature="0" />
	<path style="fill:none;stroke:red;stroke-width:1px;stroke-linecap:butt;stroke-linejoin:miter;stroke-opacity:1" d="M 824.308,358.831 824.308,320.677 z" id="boundary" inkscape:connector-curvature="0" />
	<path style="fill:none;stroke:red;stroke-width:1px;stroke-linecap:butt;stroke-linejoin:miter;stroke-opacity:1" d="M 778.523,637.354 740.369,637.354 z" id="boundary" inkscape:connector-curvature="0" />
	<path style="fill:none;stroke:red;stroke-width:1px;stroke-linecap:butt;stroke-linejoin:miter;stroke-opacity:1" d="M 740.369,511.446 778.523,511.446 z" id="boundary" inkscape:connector-curvature="0" />
	<path style="fill:none;stroke:red;stroke-width:1px;stroke-linecap:butt;stroke-linejoin:miter;stroke-opacity:1" d="M 797.6,671.692 759.446,671.692 z" id="boundary" inkscape:connector-curvature="0" />
	<path style="fill:none;stroke:red;stroke-width:1px;stroke-linecap:butt;stroke-linejoin:miter;stroke-opacity:1" d="M 778.523,637.354 816.677,637.354 z" id="boundary" inkscape:connector-curvature="0" />
	<path style="fill:none;stroke:red;stroke-width:1px;stroke-linecap:butt;stroke-linejoin:miter;stroke-opacity:1" d="M 759.446,671.692 721.292,671.692 z" id="boundary" inkscape:connector-curvature="0" />
	<path style="fill:none;stroke:red;stroke-width:1px;stroke-linecap:butt;stroke-linejoin:miter;stroke-opacity:1" d="M 816.677,469.477 816.677,431.323 z" id="boundary" inkscape:connector-curvature="0" />
	<path style="fill:none;stroke:red;stroke-width:1px;stroke-linecap:butt;stroke-linejoin:miter;stroke-opacity:1" d="M 816.677,431.323 824.308,358.831 z" id="boundary" inkscape:connector-curvature="0" />
	<path style="fill:none;stroke:red;stroke-width:1px;stroke-linecap:butt;stroke-linejoin:miter;stroke-opacity:1" d="M 816.677,469.477 778.523,511.446 z" id="boundary" inkscape:connector-curvature="0" />
	<path style="fill:none;stroke:red;stroke-width:1px;stroke-linecap:butt;stroke-linejoin:miter;stroke-opacity:1" d="M 816.677,637.354 854.831,637.354 z" id="boundary" inkscape:connector-curvature="0" />
	<path style="fill:none;stroke:red;stroke-width:1px;stroke-linecap:butt;stroke-linejoin:miter;stroke-opacity:1" d="M 854.831,637.354 835.754,671.692 z" id="boundary" inkscape:connector-curvature="0" />
	<path style="fill:none;stroke:red;stroke-width:1px;stroke-linecap:butt;stroke-linejoin:miter;stroke-opacity:1" d="M 835.754,671.692 797.6,671.692 z" id="boundary" inkscape:connector-curvature="0" />
	<path style="fill:none;stroke:red;stroke-width:1px;stroke-linecap:butt;stroke-linejoin:miter;stroke-opacity:1" d="M 706.031,4 744.185,4 z" id="boundary" inkscape:connector-curvature="0" />
	<path style="fill:none;stroke:red;stroke-width:1px;stroke-linecap:butt;stroke-linejoin:miter;stroke-opacity:1" d="M 454.215,793.785 469.477,831.938 z" id="boundary" inkscape:connector-curvature="0" />
	<path style="fill:none;stroke:red;stroke-width:1px;stroke-linecap:butt;stroke-linejoin:miter;stroke-opacity:1" d="M 454.215,793.785 435.138,759.446 z" id="boundary" inkscape:connector-curvature="0" />
	<path style="fill:none;stroke:red;stroke-width:1px;stroke-linecap:butt;stroke-linejoin:miter;stroke-opacity:1" d="M 469.477,831.938 454.215,873.908 z" id="boundary" inkscape:connector-curvature="0" />
	<path style="fill:none;stroke:red;stroke-width:1px;stroke-linecap:butt;stroke-linejoin:miter;stroke-opacity:1" d="M 664.062,675.508 664.062,713.662 z" id="boundary" inkscape:connector-curvature="0" />
	<path style="fill:none;stroke:red;stroke-width:1px;stroke-linecap:butt;stroke-linejoin:miter;stroke-opacity:1" d="M 664.062,751.815 664.062,713.662 z" id="boundary" inkscape:connector-curvature="0" />
	<path style="fill:none;stroke:red;stroke-width:1px;stroke-linecap:butt;stroke-linejoin:miter;stroke-opacity:1" d="M 664.062,797.6 664.062,751.815 z" id="boundary" inkscape:connector-curvature="0" />
	<path style="fill:none;stroke:red;stroke-width:1px;stroke-linecap:butt;stroke-linejoin:miter;stroke-opacity:1" d="M 664.062,835.754 664.062,797.6 z" id="boundary" inkscape:connector-curvature="0" />
	<path style="fill:none;stroke:red;stroke-width:1px;stroke-linecap:butt;stroke-linejoin:miter;stroke-opacity:1" d="M 667.877,873.908 664.062,835.754 z" id="boundary" inkscape:connector-curvature="0" />
	<path style="fill:none;stroke:red;stroke-width:1px;stroke-linecap:butt;stroke-linejoin:miter;stroke-opacity:1" d="M 702.215,759.446 740.369,759.446 z" id="boundary" inkscape:connector-curvature="0" />
	<path style="fill:none;stroke:red;stroke-width:1px;stroke-linecap:butt;stroke-linejoin:miter;stroke-opacity:1" d="M 454.215,954.031 492.369,954.031 z" id="boundary" inkscape:connector-curvature="0" />
	<path style="fill:none;stroke:red;stroke-width:1px;stroke-linecap:butt;stroke-linejoin:miter;stroke-opacity:1" d="M 530.523,954.031 492.369,954.031 z" id="boundary" inkscape:connector-curvature="0" />
	<path style="fill:none;stroke:red;stroke-width:1px;stroke-linecap:butt;stroke-linejoin:miter;stroke-opacity:1" d="M 454.215,954.031 416.062,954.031 z" id="boundary" inkscape:connector-curvature="0" />
	<path style="fill:none;stroke:red;stroke-width:1px;stroke-linecap:butt;stroke-linejoin:miter;stroke-opacity:1" d="M 606.831,954.031 568.677,954.031 z" id="boundary" inkscape:connector-curvature="0" />
	<path style="fill:none;stroke:red;stroke-width:1px;stroke-linecap:butt;stroke-linejoin:miter;stroke-opacity:1" d="M 568.677,954.031 530.523,954.031 z" id="boundary" inkscape:connector-curvature="0" />
	<path style="fill:none;stroke:red;stroke-width:1px;stroke-linecap:butt;stroke-linejoin:miter;stroke-opacity:1" d="M 698.4,896.8 667.877,873.908 z" id="boundary" inkscape:connector-curvature="0" />
	<path style="fill:none;stroke:red;stroke-width:1px;stroke-linecap:butt;stroke-linejoin:miter;stroke-opacity:1" d="M 606.831,954.031 644.985,954.031 z" id="boundary" inkscape:connector-curvature="0" />
	<path style="fill:none;stroke:red;stroke-width:1px;stroke-linecap:butt;stroke-linejoin:miter;stroke-opacity:1" d="M 683.138,954.031 644.985,954.031 z" id="boundary" inkscape:connector-curvature="0" />
	<path style="fill:none;stroke:red;stroke-width:1px;stroke-linecap:butt;stroke-linejoin:miter;stroke-opacity:1" d="M 683.138,954.031 721.292,969.292 z" id="boundary" inkscape:connector-curvature="0" />
	<path style="fill:none;stroke:red;stroke-width:1px;stroke-linecap:butt;stroke-linejoin:miter;stroke-opacity:1" d="M 740.369,759.446 778.523,759.446 z" id="boundary" inkscape:connector-curvature="0" />
	<path style="fill:none;stroke:red;stroke-width:1px;stroke-linecap:butt;stroke-linejoin:miter;stroke-opacity:1" d="M 767.077,873.908 728.923,873.908 z" id="boundary" inkscape:connector-curvature="0" />
	<path style="fill:none;stroke:red;stroke-width:1px;stroke-linecap:butt;stroke-linejoin:miter;stroke-opacity:1" d="M 721.292,793.785 759.446,793.785 z" id="boundary" inkscape:connector-curvature="0" />
	<path style="fill:none;stroke:red;stroke-width:1px;stroke-linecap:butt;stroke-linejoin:miter;stroke-opacity:1" d="M 759.446,793.785 797.6,793.785 z" id="boundary" inkscape:connector-curvature="0" />
	<path style="fill:none;stroke:red;stroke-width:1px;stroke-linecap:butt;stroke-linejoin:miter;stroke-opacity:1" d="M 835.754,793.785 797.6,793.785 z" id="boundary" inkscape:connector-curvature="0" />
	<path style="fill:none;stroke:red;stroke-width:1px;stroke-linecap:butt;stroke-linejoin:miter;stroke-opacity:1" d="M 778.523,759.446 816.677,759.446 z" id="boundary" inkscape:connector-curvature="0" />
	<path style="fill:none;stroke:red;stroke-width:1px;stroke-linecap:butt;stroke-linejoin:miter;stroke-opacity:1" d="M 816.677,759.446 854.831,759.446 z" id="boundary" inkscape:connector-curvature="0" />
	<path style="fill:none;stroke:red;stroke-width:1px;stroke-linecap:butt;stroke-linejoin:miter;stroke-opacity:1" d="M 854.831,759.446 835.754,793.785 z" id="boundary" inkscape:connector-curvature="0" />
	<path style="fill:none;stroke:red;stroke-width:1px;stroke-linecap:butt;stroke-linejoin:miter;stroke-opacity:1" d="M 843.385,873.908 805.231,873.908 z" id="boundary" inkscape:connector-curvature="0" />
	<path style="fill:none;stroke:red;stroke-width:1px;stroke-linecap:butt;stroke-linejoin:miter;stroke-opacity:1" d="M 881.538,873.908 843.385,873.908 z" id="boundary" inkscape:connector-curvature="0" />
	<path style="fill:none;stroke:red;stroke-width:1px;stroke-linecap:butt;stroke-linejoin:miter;stroke-opacity:1" d="M 805.231,873.908 767.077,873.908 z" id="boundary" inkscape:connector-curvature="0" />
	<path style="fill:none;stroke:red;stroke-width:1px;stroke-linecap:butt;stroke-linejoin:miter;stroke-opacity:1" d="M 797.6,954.031 759.446,954.031 z" id="boundary" inkscape:connector-curvature="0" />
	<path style="fill:none;stroke:red;stroke-width:1px;stroke-linecap:butt;stroke-linejoin:miter;stroke-opacity:1" d="M 759.446,954.031 721.292,969.292 z" id="boundary" inkscape:connector-curvature="0" />
	<path style="fill:none;stroke:red;stroke-width:1px;stroke-linecap:butt;stroke-linejoin:miter;stroke-opacity:1" d="M 835.754,954.031 797.6,954.031 z" id="boundary" inkscape:connector-curvature="0" />
	<path style="fill:none;stroke:red;stroke-width:1px;stroke-linecap:butt;stroke-linejoin:miter;stroke-opacity:1" d="M 873.908,954.031 835.754,954.031 z" id="boundary" inkscape:connector-curvature="0" />
	<path style="fill:none;stroke:red;stroke-width:1px;stroke-linecap:butt;stroke-linejoin:miter;stroke-opacity:1" d="M 912.062,954.031 873.908,954.031 z" id="boundary" inkscape:connector-curvature="0" />
	<path style="fill:none;stroke:red;stroke-width:1px;stroke-linecap:butt;stroke-linejoin:miter;stroke-opacity:1" d="M 919.692,873.908 957.846,873.908 z" id="boundary" inkscape:connector-curvature="0" />
	<path style="fill:none;stroke:red;stroke-width:1px;stroke-linecap:butt;stroke-linejoin:miter;stroke-opacity:1" d="M 996,885.354 957.846,873.908 z" id="boundary" inkscape:connector-curvature="0" />
	<path style="fill:none;stroke:red;stroke-width:1px;stroke-linecap:butt;stroke-linejoin:miter;stroke-opacity:1" d="M 996,885.354 988.369,954.031 z" id="boundary" inkscape:connector-curvature="0" />
	<path style="fill:none;stroke:red;stroke-width:1px;stroke-linecap:butt;stroke-linejoin:miter;stroke-opacity:1" d="M 950.215,969.292 912.062,954.031 z" id="boundary" inkscape:connector-curvature="0" />
	<path style="fill:none;stroke:red;stroke-width:1px;stroke-linecap:butt;stroke-linejoin:miter;stroke-opacity:1" d="M 988.369,954.031 950.215,969.292 z" id="boundary" inkscape:connector-curvature="0" />
	<path style="fill:none;stroke:red;stroke-width:1px;stroke-linecap:butt;stroke-linejoin:miter;stroke-opacity:1" d="M 881.538,873.908 919.692,873.908 z" id="boundary" inkscape:connector-curvature="0" />
	<path style="fill:none;stroke:red;stroke-width:1px;stroke-linecap:butt;stroke-linejoin:miter;stroke-opacity:1" d="M 438.954,4 477.108,4 z" id="boundary" inkscape:connector-curvature="0" />
	<circle cx="4" cy="889.169" r="4" fill="#0" id="circle0"/>
	<circle cx="4" cy="927.323" r="4" fill="#0" id="circle1"/>
	<circle cx="34.5231" cy="954.031" r="4" fill="#0" id="circle2"/>
	<circle cx="42.1538" cy="644.985" r="4" fill="#0" id="circle3"/>
	<circle cx="42.1538" cy="767.077" r="4" fill="#0" id="circle4"/>
	<circle cx="42.1538" cy="873.908" r="4" fill="#0" id="circle5"/>
	<circle cx="72.6769" cy="671.692" r="4" fill="#0" id="circle6"/>
	<circle cx="72.6769" cy="793.785" r="4" fill="#0" id="circle7"/>
	<circle cx="72.6769" cy="961.662" r="4" fill="#0" id="circle8"/>
	<circle cx="80.3077" cy="873.908" r="4" fill="#0" id="circle9"/>
	<circle cx="91.7538" cy="637.354" r="4" fill="#0" id="circle10"/>
	<circle cx="91.7538" cy="759.446" r="4" fill="#0" id="circle11"/>
	<circle cx="110.831" cy="671.692" r="4" fill="#0" id="circle12"/>
	<circle cx="110.831" cy="793.785" r="4" fill="#0" id="circle13"/>
	<circle cx="110.831" cy="954.031" r="4" fill="#0" id="circle14"/>
	<circle cx="118.462" cy="873.908" r="4" fill="#0" id="circle15"/>
	<circle cx="129.908" cy="637.354" r="4" fill="#0" id="circle16"/>
	<circle cx="129.908" cy="759.446" r="4" fill="#0" id="circle17"/>
	<circle cx="148.985" cy="671.692" r="4" fill="#0" id="circle18"/>
	<circle cx="148.985" cy="793.785" r="4" fill="#0" id="circle19"/>
	<circle cx="148.985" cy="954.031" r="4" fill="#0" id="circle20"/>
	<circle cx="156.615" cy="873.908" r="4" fill="#0" id="circle21"/>
	<circle cx="168.062" cy="637.354" r="4" fill="#0" id="circle22"/>
	<circle cx="168.062" cy="759.446" r="4" fill="#0" id="circle23"/>
	<circle cx="187.138" cy="671.692" r="4" fill="#0" id="circle24"/>
	<circle cx="187.138" cy="793.785" r="4" fill="#0" id="circle25"/>
	<circle cx="187.138" cy="954.031" r="4" fill="#0" id="circle26"/>
	<circle cx="194.769" cy="873.908" r="4" fill="#0" id="circle27"/>
	<circle cx="206.215" cy="637.354" r="4" fill="#0" id="circle28"/>
	<circle cx="206.215" cy="759.446" r="4" fill="#0" id="circle29"/>
	<circle cx="210.031" cy="11.6308" r="4" fill="#0" id="circle30"/>
	<circle cx="210.031" cy="49.7846" r="4" fill="#0" id="circle31"/>
	<circle cx="210.031" cy="87.9385" r="4" fill="#0" id="circle32"/>
	<circle cx="210.031" cy="126.092" r="4" fill="#0" id="circle33"/>
	<circle cx="210.031" cy="164.246" r="4" fill="#0" id="circle34"/>
	<circle cx="210.031" cy="202.4" r="4" fill="#0" id="circle35"/>
	<circle cx="210.031" cy="240.554" r="4" fill="#0" id="circle36"/>
	<circle cx="210.031" cy="278.708" r="4" fill="#0" id="circle37"/>
	<circle cx="210.031" cy="316.862" r="4" fill="#0" id="circle38"/>
	<circle cx="210.031" cy="355.015" r="4" fill="#0" id="circle39"/>
	<circle cx="210.031" cy="393.169" r="4" fill="#0" id="circle40"/>
	<circle cx="210.031" cy="431.323" r="4" fill="#0" id="circle41"/>
	<circle cx="210.031" cy="469.477" r="4" fill="#0" id="circle42"/>
	<circle cx="213.846" cy="507.631" r="4" fill="#0" id="circle43"/>
	<circle cx="225.292" cy="671.692" r="4" fill="#0" id="circle44"/>
	<circle cx="225.292" cy="793.785" r="4" fill="#0" id="circle45"/>
	<circle cx="225.292" cy="954.031" r="4" fill="#0" id="circle46"/>
	<circle cx="232.923" cy="873.908" r="4" fill="#0" id="circle47"/>
	<circle cx="244.369" cy="637.354" r="4" fill="#0" id="circle48"/>
	<circle cx="244.369" cy="759.446" r="4" fill="#0" id="circle49"/>
	<circle cx="248.185" cy="4" r="4" fill="#0" id="circle50"/>
	<circle cx="252" cy="511.446" r="4" fill="#0" id="circle51"/>
	<circle cx="263.446" cy="671.692" r="4" fill="#0" id="circle52"/>
	<circle cx="263.446" cy="793.785" r="4" fill="#0" id="circle53"/>
	<circle cx="263.446" cy="954.031" r="4" fill="#0" id="circle54"/>
	<circle cx="271.077" cy="873.908" r="4" fill="#0" id="circle55"/>
	<circle cx="282.523" cy="637.354" r="4" fill="#0" id="circle56"/>
	<circle cx="282.523" cy="759.446" r="4" fill="#0" id="circle57"/>
	<circle cx="286.338" cy="4" r="4" fill="#0" id="circle58"/>
	<circle cx="290.154" cy="511.446" r="4" fill="#0" id="circle59"/>
	<circle cx="301.6" cy="671.692" r="4" fill="#0" id="circle60"/>
	<circle cx="301.6" cy="793.785" r="4" fill="#0" id="circle61"/>
	<circle cx="301.6" cy="896.8" r="4" fill="#0" id="circle62"/>
	<circle cx="301.6" cy="954.031" r="4" fill="#0" id="circle63"/>
	<circle cx="320.677" cy="637.354" r="4" fill="#0" id="circle64"/>
	<circle cx="320.677" cy="759.446" r="4" fill="#0" id="circle65"/>
	<circle cx="324.492" cy="4" r="4" fill="#0" id="circle66"/>
	<circle cx="328.308" cy="511.446" r="4" fill="#0" id="circle67"/>
	<circle cx="332.123" cy="873.908" r="4" fill="#0" id="circle68"/>
	<circle cx="339.754" cy="671.692" r="4" fill="#0" id="circle69"/>
	<circle cx="339.754" cy="793.785" r="4" fill="#0" id="circle70"/>
	<circle cx="339.754" cy="954.031" r="4" fill="#0" id="circle71"/>
	<circle cx="358.831" cy="637.354" r="4" fill="#0" id="circle72"/>
	<circle cx="358.831" cy="759.446" r="4" fill="#0" id="circle73"/>
	<circle cx="362.646" cy="4" r="4" fill="#0" id="circle74"/>
	<circle cx="362.646" cy="896.8" r="4" fill="#0" id="circle75"/>
	<circle cx="366.462" cy="511.446" r="4" fill="#0" id="circle76"/>
	<circle cx="377.908" cy="671.692" r="4" fill="#0" id="circle77"/>
	<circle cx="377.908" cy="793.785" r="4" fill="#0" id="circle78"/>
	<circle cx="377.908" cy="954.031" r="4" fill="#0" id="circle79"/>
	<circle cx="393.169" cy="873.908" r="4" fill="#0" id="circle80"/>
	<circle cx="396.985" cy="637.354" r="4" fill="#0" id="circle81"/>
	<circle cx="396.985" cy="759.446" r="4" fill="#0" id="circle82"/>
	<circle cx="400.8" cy="4" r="4" fill="#0" id="circle83"/>
	<circle cx="404.615" cy="511.446" r="4" fill="#0" id="circle84"/>
	<circle cx="416.062" cy="671.692" r="4" fill="#0" id="circle85"/>
	<circle cx="416.062" cy="793.785" r="4" fill="#0" id="circle86"/>
	<circle cx="416.062" cy="954.031" r="4" fill="#0" id="circle87"/>
	<circle cx="423.692" cy="896.8" r="4" fill="#0" id="circle88"/>
	<circle cx="435.138" cy="637.354" r="4" fill="#0" id="circle89"/>
	<circle cx="435.138" cy="759.446" r="4" fill="#0" id="circle90"/>
	<circle cx="438.954" cy="4" r="4" fill="#0" id="circle91"/>
	<circle cx="442.769" cy="511.446" r="4" fill="#0" id="circle92"/>
	<circle cx="454.215" cy="671.692" r="4" fill="#0" id="circle93"/>
	<circle cx="454.215" cy="793.785" r="4" fill="#0" id="circle94"/>
	<circle cx="454.215" cy="873.908" r="4" fill="#0" id="circle95"/>
	<circle cx="454.215" cy="954.031" r="4" fill="#0" id="circle96"/>
	<circle cx="469.477" cy="541.969" r="4" fill="#0" id="circle97"/>
	<circle cx="469.477" cy="580.123" r="4" fill="#0" id="circle98"/>
	<circle cx="469.477" cy="618.277" r="4" fill="#0" id="circle99"/>
	<circle cx="469.477" cy="709.846" r="4" fill="#0" id="circle100"/>
	<circle cx="469.477" cy="831.938" r="4" fill="#0" id="circle101"/>
	<circle cx="477.108" cy="4" r="4" fill="#0" id="circle102"/>
	<circle cx="492.369" cy="954.031" r="4" fill="#0" id="circle103"/>
	<circle cx="515.262" cy="4" r="4" fill="#0" id="circle104"/>
	<circle cx="530.523" cy="954.031" r="4" fill="#0" id="circle105"/>
	<circle cx="553.415" cy="4" r="4" fill="#0" id="circle106"/>
	<circle cx="568.677" cy="954.031" r="4" fill="#0" id="circle107"/>
	<circle cx="591.569" cy="4" r="4" fill="#0" id="circle108"/>
	<circle cx="606.831" cy="954.031" r="4" fill="#0" id="circle109"/>
	<circle cx="629.723" cy="4" r="4" fill="#0" id="circle110"/>
	<circle cx="644.985" cy="954.031" r="4" fill="#0" id="circle111"/>
	<circle cx="664.062" cy="515.262" r="4" fill="#0" id="circle112"/>
	<circle cx="664.062" cy="553.415" r="4" fill="#0" id="circle113"/>
	<circle cx="664.062" cy="591.569" r="4" fill="#0" id="circle114"/>
	<circle cx="664.062" cy="629.723" r="4" fill="#0" id="circle115"/>
	<circle cx="664.062" cy="675.508" r="4" fill="#0" id="circle116"/>
	<circle cx="664.062" cy="713.662" r="4" fill="#0" id="circle117"/>
	<circle cx="664.062" cy="751.815" r="4" fill="#0" id="circle118"/>
	<circle cx="664.062" cy="797.6" r="4" fill="#0" id="circle119"/>
	<circle cx="664.062" cy="835.754" r="4" fill="#0" id="circle120"/>
	<circle cx="667.877" cy="4" r="4" fill="#0" id="circle121"/>
	<circle cx="667.877" cy="873.908" r="4" fill="#0" id="circle122"/>
	<circle cx="683.138" cy="954.031" r="4" fill="#0" id="circle123"/>
	<circle cx="698.4" cy="896.8" r="4" fill="#0" id="circle124"/>
	<circle cx="702.215" cy="511.446" r="4" fill="#0" id="circle125"/>
	<circle cx="702.215" cy="637.354" r="4" fill="#0" id="circle126"/>
	<circle cx="702.215" cy="759.446" r="4" fill="#0" id="circle127"/>
	<circle cx="706.031" cy="4" r="4" fill="#0" id="circle128"/>
	<circle cx="721.292" cy="671.692" r="4" fill="#0" id="circle129"/>
	<circle cx="721.292" cy="793.785" r="4" fill="#0" id="circle130"/>
	<circle cx="721.292" cy="969.292" r="4" fill="#0" id="circle131"/>
	<circle cx="728.923" cy="873.908" r="4" fill="#0" id="circle132"/>
	<circle cx="740.369" cy="511.446" r="4" fill="#0" id="circle133"/>
	<circle cx="740.369" cy="637.354" r="4" fill="#0" id="circle134"/>
	<circle cx="740.369" cy="759.446" r="4" fill="#0" id="circle135"/>
	<circle cx="744.185" cy="4" r="4" fill="#0" id="circle136"/>
	<circle cx="759.446" cy="671.692" r="4" fill="#0" id="circle137"/>
	<circle cx="759.446" cy="793.785" r="4" fill="#0" id="circle138"/>
	<circle cx="759.446" cy="954.031" r="4" fill="#0" id="circle139"/>
	<circle cx="767.077" cy="873.908" r="4" fill="#0" id="circle140"/>
	<circle cx="778.523" cy="511.446" r="4" fill="#0" id="circle141"/>
	<circle cx="778.523" cy="637.354" r="4" fill="#0" id="circle142"/>
	<circle cx="778.523" cy="759.446" r="4" fill="#0" id="circle143"/>
	<circle cx="782.338" cy="4" r="4" fill="#0" id="circle144"/>
	<circle cx="797.6" cy="671.692" r="4" fill="#0" id="circle145"/>
	<circle cx="797.6" cy="793.785" r="4" fill="#0" id="circle146"/>
	<circle cx="797.6" cy="954.031" r="4" fill="#0" id="circle147"/>
	<circle cx="805.231" cy="873.908" r="4" fill="#0" id="circle148"/>
	<circle cx="816.677" cy="431.323" r="4" fill="#0" id="circle149"/>
	<circle cx="816.677" cy="469.477" r="4" fill="#0" id="circle150"/>
	<circle cx="816.677" cy="637.354" r="4" fill="#0" id="circle151"/>
	<circle cx="816.677" cy="759.446" r="4" fill="#0" id="circle152"/>
	<circle cx="820.492" cy="15.4462" r="4" fill="#0" id="circle153"/>
	<circle cx="824.308" cy="53.6" r="4" fill="#0" id="circle154"/>
	<circle cx="824.308" cy="91.7538" r="4" fill="#0" id="circle155"/>
	<circle cx="824.308" cy="129.908" r="4" fill="#0" id="circle156"/>
	<circle cx="824.308" cy="168.062" r="4" fill="#0" id="circle157"/>
	<circle cx="824.308" cy="206.215" r="4" fill="#0" id="circle158"/>
	<circle cx="824.308" cy="244.369" r="4" fill="#0" id="circle159"/>
	<circle cx="824.308" cy="282.523" r="4" fill="#0" id="circle160"/>
	<circle cx="824.308" cy="320.677" r="4" fill="#0" id="circle161"/>
	<circle cx="824.308" cy="358.831" r="4" fill="#0" id="circle162"/>
	<circle cx="835.754" cy="671.692" r="4" fill="#0" id="circle163"/>
	<circle cx="835.754" cy="793.785" r="4" fill="#0" id="circle164"/>
	<circle cx="835.754" cy="954.031" r="4" fill="#0" id="circle165"/>
	<circle cx="843.385" cy="873.908" r="4" fill="#0" id="circle166"/>
	<circle cx="854.831" cy="637.354" r="4" fill="#0" id="circle167"/>
	<circle cx="854.831" cy="759.446" r="4" fill="#0" id="circle168"/>
	<circle cx="873.908" cy="954.031" r="4" fill="#0" id="circle169"/>
	<circle cx="881.538" cy="873.908" r="4" fill="#0" id="circle170"/>
	<circle cx="912.062" cy="954.031" r="4" fill="#0" id="circle171"/>
	<circle cx="919.692" cy="873.908" r="4" fill="#0" id="circle172"/>
	<circle cx="950.215" cy="969.292" r="4" fill="#0" id="circle173"/>
	<circle cx="957.846" cy="873.908" r="4" fill="#0" id="circle174"/>
	<circle cx="988.369" cy="954.031" r="4" fill="#0" id="circle175"/>
	<circle cx="996" cy="885.354" r="4" fill="#0" id="circle176"/>
	</g>
</svg>