<?xml version="1.0" encoding="UTF-8" standalone="no"?>
<!-- Created with CurveBenchmark -->
<svg
	xmlns:dc="http://purl.org/dc/elements/1.1/"
	xmlns:cc="http://creativecommons.org/ns#"
	xmlns:rdf="http://www.w3.org/1999/02/22-rdf-syntax-ns#"
	xmlns:svg="http://www.w3.org/2000/svg"
	xmlns="http://www.w3.org/2000/svg"
	xmlns:sodipodi="http://sodipodi.sourceforge.net/DTD/sodipodi-0.dtd"
	xmlns:inkscape="http://www.inkscape.org/namespaces/inkscape"
	width="1000"
	height="1000"
	id="svg2"
	version="1.1"
	sodipodi:docname="manifold/gathan1-bed055.png.txt">
<defs
	id="defs4" />
<metadata
	id="metadata7">
	<rdf:RDF>
		<cc:Work
			rdf:about="">
			<dc:format>image/svg+xml</dc:format>
			<dc:type
				rdf:resource="http://purl.org/dc/dcmitype/StillImage" />
			<dc:title></dc:title>
		</cc:Work>
	</rdf:RDF>
</metadata>
<g
	inkscape:label="Layer 1"
	inkscape:groupmode="layer"
	id="layer1">
	<path style="fill:none;stroke:red;stroke-width:1px;stroke-linecap:butt;stroke-linejoin:miter;stroke-opacity:1" d="M 85.1784,68.9427 68.9427,75.437 z" id="boundary" inkscape:connector-curvature="0" />
	<path style="fill:none;stroke:red;stroke-width:1px;stroke-linecap:butt;stroke-linejoin:miter;stroke-opacity:1" d="M 52.707,81.9313 39.7185,91.6727 z" id="boundary" inkscape:connector-curvature="0" />
	<path style="fill:none;stroke:red;stroke-width:1px;stroke-linecap:butt;stroke-linejoin:miter;stroke-opacity:1" d="M 39.7185,91.6727 25.1064,99.7905 z" id="boundary" inkscape:connector-curvature="0" />
	<path style="fill:none;stroke:red;stroke-width:1px;stroke-linecap:butt;stroke-linejoin:miter;stroke-opacity:1" d="M 52.707,81.9313 68.9427,75.437 z" id="boundary" inkscape:connector-curvature="0" />
	<path style="fill:none;stroke:red;stroke-width:1px;stroke-linecap:butt;stroke-linejoin:miter;stroke-opacity:1" d="M 85.1784,68.9427 101.414,65.6956 z" id="boundary" inkscape:connector-curvature="0" />
	<path style="fill:none;stroke:red;stroke-width:1px;stroke-linecap:butt;stroke-linejoin:miter;stroke-opacity:1" d="M 166.357,7.24714 158.239,25.1064 z" id="boundary" inkscape:connector-curvature="0" />
	<path style="fill:none;stroke:red;stroke-width:1px;stroke-linecap:butt;stroke-linejoin:miter;stroke-opacity:1" d="M 158.239,25.1064 145.25,38.0949 z" id="boundary" inkscape:connector-curvature="0" />
	<path style="fill:none;stroke:red;stroke-width:1px;stroke-linecap:butt;stroke-linejoin:miter;stroke-opacity:1" d="M 145.25,38.0949 130.638,46.2128 z" id="boundary" inkscape:connector-curvature="0" />
	<path style="fill:none;stroke:red;stroke-width:1px;stroke-linecap:butt;stroke-linejoin:miter;stroke-opacity:1" d="M 166.357,7.24714 182.592,4 z" id="boundary" inkscape:connector-curvature="0" />
	<path style="fill:none;stroke:red;stroke-width:1px;stroke-linecap:butt;stroke-linejoin:miter;stroke-opacity:1" d="M 130.638,46.2128 117.65,59.2013 z" id="boundary" inkscape:connector-curvature="0" />
	<path style="fill:none;stroke:red;stroke-width:1px;stroke-linecap:butt;stroke-linejoin:miter;stroke-opacity:1" d="M 117.65,59.2013 101.414,65.6956 z" id="boundary" inkscape:connector-curvature="0" />
	<path style="fill:none;stroke:red;stroke-width:1px;stroke-linecap:butt;stroke-linejoin:miter;stroke-opacity:1" d="M 12.1178,109.532 25.1064,99.7905 z" id="boundary" inkscape:connector-curvature="0" />
	<path style="fill:none;stroke:red;stroke-width:1px;stroke-linecap:butt;stroke-linejoin:miter;stroke-opacity:1" d="M 4,140.38 4,124.144 z" id="boundary" inkscape:connector-curvature="0" />
	<path style="fill:none;stroke:red;stroke-width:1px;stroke-linecap:butt;stroke-linejoin:miter;stroke-opacity:1" d="M 4,124.144 12.1178,109.532 z" id="boundary" inkscape:connector-curvature="0" />
	<path style="fill:none;stroke:red;stroke-width:1px;stroke-linecap:butt;stroke-linejoin:miter;stroke-opacity:1" d="M 4,140.38 10.4943,156.615 z" id="boundary" inkscape:connector-curvature="0" />
	<path style="fill:none;stroke:red;stroke-width:1px;stroke-linecap:butt;stroke-linejoin:miter;stroke-opacity:1" d="M 10.4943,156.615 10.4943,172.851 z" id="boundary" inkscape:connector-curvature="0" />
	<path style="fill:none;stroke:red;stroke-width:1px;stroke-linecap:butt;stroke-linejoin:miter;stroke-opacity:1" d="M 10.4943,267.018 10.4943,283.254 z" id="boundary" inkscape:connector-curvature="0" />
	<path style="fill:none;stroke:red;stroke-width:1px;stroke-linecap:butt;stroke-linejoin:miter;stroke-opacity:1" d="M 10.4943,283.254 7.24714,299.489 z" id="boundary" inkscape:connector-curvature="0" />
	<path style="fill:none;stroke:red;stroke-width:1px;stroke-linecap:butt;stroke-linejoin:miter;stroke-opacity:1" d="M 13.7414,189.087 10.4943,172.851 z" id="boundary" inkscape:connector-curvature="0" />
	<path style="fill:none;stroke:red;stroke-width:1px;stroke-linecap:butt;stroke-linejoin:miter;stroke-opacity:1" d="M 13.7414,189.087 13.7414,205.322 z" id="boundary" inkscape:connector-curvature="0" />
	<path style="fill:none;stroke:red;stroke-width:1px;stroke-linecap:butt;stroke-linejoin:miter;stroke-opacity:1" d="M 13.7414,205.322 13.7414,221.558 z" id="boundary" inkscape:connector-curvature="0" />
	<path style="fill:none;stroke:red;stroke-width:1px;stroke-linecap:butt;stroke-linejoin:miter;stroke-opacity:1" d="M 13.7414,221.558 13.7414,237.794 z" id="boundary" inkscape:connector-curvature="0" />
	<path style="fill:none;stroke:red;stroke-width:1px;stroke-linecap:butt;stroke-linejoin:miter;stroke-opacity:1" d="M 13.7414,237.794 10.4943,267.018 z" id="boundary" inkscape:connector-curvature="0" />
	<path style="fill:none;stroke:red;stroke-width:1px;stroke-linecap:butt;stroke-linejoin:miter;stroke-opacity:1" d="M 7.24714,315.725 7.24714,299.489 z" id="boundary" inkscape:connector-curvature="0" />
	<path style="fill:none;stroke:red;stroke-width:1px;stroke-linecap:butt;stroke-linejoin:miter;stroke-opacity:1" d="M 197.205,12.1178 205.322,26.73 z" id="boundary" inkscape:connector-curvature="0" />
	<path style="fill:none;stroke:red;stroke-width:1px;stroke-linecap:butt;stroke-linejoin:miter;stroke-opacity:1" d="M 197.205,12.1178 182.592,4 z" id="boundary" inkscape:connector-curvature="0" />
	<path style="fill:none;stroke:red;stroke-width:1px;stroke-linecap:butt;stroke-linejoin:miter;stroke-opacity:1" d="M 218.311,38.0949 205.322,26.73 z" id="boundary" inkscape:connector-curvature="0" />
	<path style="fill:none;stroke:red;stroke-width:1px;stroke-linecap:butt;stroke-linejoin:miter;stroke-opacity:1" d="M 232.923,46.2128 218.311,38.0949 z" id="boundary" inkscape:connector-curvature="0" />
	<path style="fill:none;stroke:red;stroke-width:1px;stroke-linecap:butt;stroke-linejoin:miter;stroke-opacity:1" d="M 232.923,46.2128 237.794,62.4484 z" id="boundary" inkscape:connector-curvature="0" />
	<path style="fill:none;stroke:red;stroke-width:1px;stroke-linecap:butt;stroke-linejoin:miter;stroke-opacity:1" d="M 237.794,62.4484 254.029,65.6956 z" id="boundary" inkscape:connector-curvature="0" />
	<path style="fill:none;stroke:red;stroke-width:1px;stroke-linecap:butt;stroke-linejoin:miter;stroke-opacity:1" d="M 254.029,65.6956 270.265,72.1899 z" id="boundary" inkscape:connector-curvature="0" />
	<path style="fill:none;stroke:red;stroke-width:1px;stroke-linecap:butt;stroke-linejoin:miter;stroke-opacity:1" d="M 270.265,72.1899 286.501,78.6841 z" id="boundary" inkscape:connector-curvature="0" />
	<path style="fill:none;stroke:red;stroke-width:1px;stroke-linecap:butt;stroke-linejoin:miter;stroke-opacity:1" d="M 301.113,86.802 286.501,78.6841 z" id="boundary" inkscape:connector-curvature="0" />
	<path style="fill:none;stroke:red;stroke-width:1px;stroke-linecap:butt;stroke-linejoin:miter;stroke-opacity:1" d="M 315.725,94.9198 301.113,86.802 z" id="boundary" inkscape:connector-curvature="0" />
	<path style="fill:none;stroke:red;stroke-width:1px;stroke-linecap:butt;stroke-linejoin:miter;stroke-opacity:1" d="M 328.714,104.661 338.455,117.65 z" id="boundary" inkscape:connector-curvature="0" />
	<path style="fill:none;stroke:red;stroke-width:1px;stroke-linecap:butt;stroke-linejoin:miter;stroke-opacity:1" d="M 343.326,133.885 338.455,117.65 z" id="boundary" inkscape:connector-curvature="0" />
	<path style="fill:none;stroke:red;stroke-width:1px;stroke-linecap:butt;stroke-linejoin:miter;stroke-opacity:1" d="M 343.326,133.885 336.831,153.368 z" id="boundary" inkscape:connector-curvature="0" />
	<path style="fill:none;stroke:red;stroke-width:1px;stroke-linecap:butt;stroke-linejoin:miter;stroke-opacity:1" d="M 331.961,185.84 330.337,169.604 z" id="boundary" inkscape:connector-curvature="0" />
	<path style="fill:none;stroke:red;stroke-width:1px;stroke-linecap:butt;stroke-linejoin:miter;stroke-opacity:1" d="M 346.573,193.957 331.961,185.84 z" id="boundary" inkscape:connector-curvature="0" />
	<path style="fill:none;stroke:red;stroke-width:1px;stroke-linecap:butt;stroke-linejoin:miter;stroke-opacity:1" d="M 336.831,153.368 330.337,169.604 z" id="boundary" inkscape:connector-curvature="0" />
	<path style="fill:none;stroke:red;stroke-width:1px;stroke-linecap:butt;stroke-linejoin:miter;stroke-opacity:1" d="M 315.725,94.9198 328.714,104.661 z" id="boundary" inkscape:connector-curvature="0" />
	<path style="fill:none;stroke:red;stroke-width:1px;stroke-linecap:butt;stroke-linejoin:miter;stroke-opacity:1" d="M 362.809,198.828 346.573,193.957 z" id="boundary" inkscape:connector-curvature="0" />
	<path style="fill:none;stroke:red;stroke-width:1px;stroke-linecap:butt;stroke-linejoin:miter;stroke-opacity:1" d="M 379.044,198.828 362.809,198.828 z" id="boundary" inkscape:connector-curvature="0" />
	<path style="fill:none;stroke:red;stroke-width:1px;stroke-linecap:butt;stroke-linejoin:miter;stroke-opacity:1" d="M 395.28,198.828 411.516,202.075 z" id="boundary" inkscape:connector-curvature="0" />
	<path style="fill:none;stroke:red;stroke-width:1px;stroke-linecap:butt;stroke-linejoin:miter;stroke-opacity:1" d="M 427.751,208.57 411.516,202.075 z" id="boundary" inkscape:connector-curvature="0" />
	<path style="fill:none;stroke:red;stroke-width:1px;stroke-linecap:butt;stroke-linejoin:miter;stroke-opacity:1" d="M 379.044,198.828 395.28,198.828 z" id="boundary" inkscape:connector-curvature="0" />
	<path style="fill:none;stroke:red;stroke-width:1px;stroke-linecap:butt;stroke-linejoin:miter;stroke-opacity:1" d="M 91.6727,440.74 75.437,440.74 z" id="boundary" inkscape:connector-curvature="0" />
	<path style="fill:none;stroke:red;stroke-width:1px;stroke-linecap:butt;stroke-linejoin:miter;stroke-opacity:1" d="M 4,390.409 4,374.173 z" id="boundary" inkscape:connector-curvature="0" />
	<path style="fill:none;stroke:red;stroke-width:1px;stroke-linecap:butt;stroke-linejoin:miter;stroke-opacity:1" d="M 4,406.645 4,390.409 z" id="boundary" inkscape:connector-curvature="0" />
	<path style="fill:none;stroke:red;stroke-width:1px;stroke-linecap:butt;stroke-linejoin:miter;stroke-opacity:1" d="M 4,374.173 4,357.938 z" id="boundary" inkscape:connector-curvature="0" />
	<path style="fill:none;stroke:red;stroke-width:1px;stroke-linecap:butt;stroke-linejoin:miter;stroke-opacity:1" d="M 5.62357,422.881 4,406.645 z" id="boundary" inkscape:connector-curvature="0" />
	<path style="fill:none;stroke:red;stroke-width:1px;stroke-linecap:butt;stroke-linejoin:miter;stroke-opacity:1" d="M 4,357.938 4,341.702 z" id="boundary" inkscape:connector-curvature="0" />
	<path style="fill:none;stroke:red;stroke-width:1px;stroke-linecap:butt;stroke-linejoin:miter;stroke-opacity:1" d="M 59.2013,437.493 42.9656,437.493 z" id="boundary" inkscape:connector-curvature="0" />
	<path style="fill:none;stroke:red;stroke-width:1px;stroke-linecap:butt;stroke-linejoin:miter;stroke-opacity:1" d="M 7.24714,439.116 5.62357,422.881 z" id="boundary" inkscape:connector-curvature="0" />
	<path style="fill:none;stroke:red;stroke-width:1px;stroke-linecap:butt;stroke-linejoin:miter;stroke-opacity:1" d="M 42.9656,437.493 34.8478,452.105 z" id="boundary" inkscape:connector-curvature="0" />
	<path style="fill:none;stroke:red;stroke-width:1px;stroke-linecap:butt;stroke-linejoin:miter;stroke-opacity:1" d="M 75.437,440.74 59.2013,437.493 z" id="boundary" inkscape:connector-curvature="0" />
	<path style="fill:none;stroke:red;stroke-width:1px;stroke-linecap:butt;stroke-linejoin:miter;stroke-opacity:1" d="M 4,341.702 7.24714,315.725 z" id="boundary" inkscape:connector-curvature="0" />
	<path style="fill:none;stroke:red;stroke-width:1px;stroke-linecap:butt;stroke-linejoin:miter;stroke-opacity:1" d="M 13.7414,471.588 10.4943,455.352 z" id="boundary" inkscape:connector-curvature="0" />
	<path style="fill:none;stroke:red;stroke-width:1px;stroke-linecap:butt;stroke-linejoin:miter;stroke-opacity:1" d="M 10.4943,455.352 7.24714,439.116 z" id="boundary" inkscape:connector-curvature="0" />
	<path style="fill:none;stroke:red;stroke-width:1px;stroke-linecap:butt;stroke-linejoin:miter;stroke-opacity:1" d="M 13.7414,471.588 13.7414,487.823 z" id="boundary" inkscape:connector-curvature="0" />
	<path style="fill:none;stroke:red;stroke-width:1px;stroke-linecap:butt;stroke-linejoin:miter;stroke-opacity:1" d="M 18.6121,504.059 13.7414,487.823 z" id="boundary" inkscape:connector-curvature="0" />
	<path style="fill:none;stroke:red;stroke-width:1px;stroke-linecap:butt;stroke-linejoin:miter;stroke-opacity:1" d="M 34.8478,497.565 18.6121,504.059 z" id="boundary" inkscape:connector-curvature="0" />
	<path style="fill:none;stroke:red;stroke-width:1px;stroke-linecap:butt;stroke-linejoin:miter;stroke-opacity:1" d="M 31.6007,481.329 34.8478,497.565 z" id="boundary" inkscape:connector-curvature="0" />
	<path style="fill:none;stroke:red;stroke-width:1px;stroke-linecap:butt;stroke-linejoin:miter;stroke-opacity:1" d="M 91.6727,440.74 107.908,440.74 z" id="boundary" inkscape:connector-curvature="0" />
	<path style="fill:none;stroke:red;stroke-width:1px;stroke-linecap:butt;stroke-linejoin:miter;stroke-opacity:1" d="M 124.144,440.74 107.908,440.74 z" id="boundary" inkscape:connector-curvature="0" />
	<path style="fill:none;stroke:red;stroke-width:1px;stroke-linecap:butt;stroke-linejoin:miter;stroke-opacity:1" d="M 140.38,440.74 156.615,440.74 z" id="boundary" inkscape:connector-curvature="0" />
	<path style="fill:none;stroke:red;stroke-width:1px;stroke-linecap:butt;stroke-linejoin:miter;stroke-opacity:1" d="M 124.144,440.74 140.38,440.74 z" id="boundary" inkscape:connector-curvature="0" />
	<path style="fill:none;stroke:red;stroke-width:1px;stroke-linecap:butt;stroke-linejoin:miter;stroke-opacity:1" d="M 156.615,440.74 172.851,440.74 z" id="boundary" inkscape:connector-curvature="0" />
	<path style="fill:none;stroke:red;stroke-width:1px;stroke-linecap:butt;stroke-linejoin:miter;stroke-opacity:1" d="M 172.851,440.74 189.087,440.74 z" id="boundary" inkscape:connector-curvature="0" />
	<path style="fill:none;stroke:red;stroke-width:1px;stroke-linecap:butt;stroke-linejoin:miter;stroke-opacity:1" d="M 205.322,440.74 221.558,440.74 z" id="boundary" inkscape:connector-curvature="0" />
	<path style="fill:none;stroke:red;stroke-width:1px;stroke-linecap:butt;stroke-linejoin:miter;stroke-opacity:1" d="M 205.322,440.74 189.087,440.74 z" id="boundary" inkscape:connector-curvature="0" />
	<path style="fill:none;stroke:red;stroke-width:1px;stroke-linecap:butt;stroke-linejoin:miter;stroke-opacity:1" d="M 221.558,440.74 237.794,440.74 z" id="boundary" inkscape:connector-curvature="0" />
	<path style="fill:none;stroke:red;stroke-width:1px;stroke-linecap:butt;stroke-linejoin:miter;stroke-opacity:1" d="M 254.029,440.74 270.265,440.74 z" id="boundary" inkscape:connector-curvature="0" />
	<path style="fill:none;stroke:red;stroke-width:1px;stroke-linecap:butt;stroke-linejoin:miter;stroke-opacity:1" d="M 254.029,440.74 237.794,440.74 z" id="boundary" inkscape:connector-curvature="0" />
	<path style="fill:none;stroke:red;stroke-width:1px;stroke-linecap:butt;stroke-linejoin:miter;stroke-opacity:1" d="M 270.265,440.74 286.501,440.74 z" id="boundary" inkscape:connector-curvature="0" />
	<path style="fill:none;stroke:red;stroke-width:1px;stroke-linecap:butt;stroke-linejoin:miter;stroke-opacity:1" d="M 302.736,440.74 286.501,440.74 z" id="boundary" inkscape:connector-curvature="0" />
	<path style="fill:none;stroke:red;stroke-width:1px;stroke-linecap:butt;stroke-linejoin:miter;stroke-opacity:1" d="M 356.314,440.74 340.079,442.363 z" id="boundary" inkscape:connector-curvature="0" />
	<path style="fill:none;stroke:red;stroke-width:1px;stroke-linecap:butt;stroke-linejoin:miter;stroke-opacity:1" d="M 356.314,440.74 372.55,440.74 z" id="boundary" inkscape:connector-curvature="0" />
	<path style="fill:none;stroke:red;stroke-width:1px;stroke-linecap:butt;stroke-linejoin:miter;stroke-opacity:1" d="M 302.736,440.74 315.725,452.105 z" id="boundary" inkscape:connector-curvature="0" />
	<path style="fill:none;stroke:red;stroke-width:1px;stroke-linecap:butt;stroke-linejoin:miter;stroke-opacity:1" d="M 318.972,471.588 315.725,452.105 z" id="boundary" inkscape:connector-curvature="0" />
	<path style="fill:none;stroke:red;stroke-width:1px;stroke-linecap:butt;stroke-linejoin:miter;stroke-opacity:1" d="M 340.079,458.599 336.831,478.082 z" id="boundary" inkscape:connector-curvature="0" />
	<path style="fill:none;stroke:red;stroke-width:1px;stroke-linecap:butt;stroke-linejoin:miter;stroke-opacity:1" d="M 318.972,471.588 318.972,487.823 z" id="boundary" inkscape:connector-curvature="0" />
	<path style="fill:none;stroke:red;stroke-width:1px;stroke-linecap:butt;stroke-linejoin:miter;stroke-opacity:1" d="M 323.843,504.059 318.972,487.823 z" id="boundary" inkscape:connector-curvature="0" />
	<path style="fill:none;stroke:red;stroke-width:1px;stroke-linecap:butt;stroke-linejoin:miter;stroke-opacity:1" d="M 340.079,500.812 323.843,504.059 z" id="boundary" inkscape:connector-curvature="0" />
	<path style="fill:none;stroke:red;stroke-width:1px;stroke-linecap:butt;stroke-linejoin:miter;stroke-opacity:1" d="M 336.831,478.082 340.079,500.812 z" id="boundary" inkscape:connector-curvature="0" />
	<path style="fill:none;stroke:red;stroke-width:1px;stroke-linecap:butt;stroke-linejoin:miter;stroke-opacity:1" d="M 388.786,440.74 405.021,440.74 z" id="boundary" inkscape:connector-curvature="0" />
	<path style="fill:none;stroke:red;stroke-width:1px;stroke-linecap:butt;stroke-linejoin:miter;stroke-opacity:1" d="M 388.786,440.74 372.55,440.74 z" id="boundary" inkscape:connector-curvature="0" />
	<path style="fill:none;stroke:red;stroke-width:1px;stroke-linecap:butt;stroke-linejoin:miter;stroke-opacity:1" d="M 405.021,440.74 421.257,440.74 z" id="boundary" inkscape:connector-curvature="0" />
	<path style="fill:none;stroke:red;stroke-width:1px;stroke-linecap:butt;stroke-linejoin:miter;stroke-opacity:1" d="M 421.257,440.74 437.493,440.74 z" id="boundary" inkscape:connector-curvature="0" />
	<path style="fill:none;stroke:red;stroke-width:1px;stroke-linecap:butt;stroke-linejoin:miter;stroke-opacity:1" d="M 437.493,440.74 453.728,440.74 z" id="boundary" inkscape:connector-curvature="0" />
	<path style="fill:none;stroke:red;stroke-width:1px;stroke-linecap:butt;stroke-linejoin:miter;stroke-opacity:1" d="M 427.751,208.57 440.74,218.311 z" id="boundary" inkscape:connector-curvature="0" />
	<path style="fill:none;stroke:red;stroke-width:1px;stroke-linecap:butt;stroke-linejoin:miter;stroke-opacity:1" d="M 440.74,218.311 455.352,226.429 z" id="boundary" inkscape:connector-curvature="0" />
	<path style="fill:none;stroke:red;stroke-width:1px;stroke-linecap:butt;stroke-linejoin:miter;stroke-opacity:1" d="M 492.694,258.9 479.705,249.159 z" id="boundary" inkscape:connector-curvature="0" />
	<path style="fill:none;stroke:red;stroke-width:1px;stroke-linecap:butt;stroke-linejoin:miter;stroke-opacity:1" d="M 479.705,249.159 468.34,236.17 z" id="boundary" inkscape:connector-curvature="0" />
	<path style="fill:none;stroke:red;stroke-width:1px;stroke-linecap:butt;stroke-linejoin:miter;stroke-opacity:1" d="M 455.352,226.429 468.34,236.17 z" id="boundary" inkscape:connector-curvature="0" />
	<path style="fill:none;stroke:red;stroke-width:1px;stroke-linecap:butt;stroke-linejoin:miter;stroke-opacity:1" d="M 767.077,241.041 754.088,250.782 z" id="boundary" inkscape:connector-curvature="0" />
	<path style="fill:none;stroke:red;stroke-width:1px;stroke-linecap:butt;stroke-linejoin:miter;stroke-opacity:1" d="M 724.864,260.524 708.628,263.771 z" id="boundary" inkscape:connector-curvature="0" />
	<path style="fill:none;stroke:red;stroke-width:1px;stroke-linecap:butt;stroke-linejoin:miter;stroke-opacity:1" d="M 754.088,250.782 741.1,260.524 z" id="boundary" inkscape:connector-curvature="0" />
	<path style="fill:none;stroke:red;stroke-width:1px;stroke-linecap:butt;stroke-linejoin:miter;stroke-opacity:1" d="M 741.1,260.524 724.864,260.524 z" id="boundary" inkscape:connector-curvature="0" />
	<path style="fill:none;stroke:red;stroke-width:1px;stroke-linecap:butt;stroke-linejoin:miter;stroke-opacity:1" d="M 692.393,267.018 708.628,263.771 z" id="boundary" inkscape:connector-curvature="0" />
	<path style="fill:none;stroke:red;stroke-width:1px;stroke-linecap:butt;stroke-linejoin:miter;stroke-opacity:1" d="M 780.065,231.3 767.077,241.041 z" id="boundary" inkscape:connector-curvature="0" />
	<path style="fill:none;stroke:red;stroke-width:1px;stroke-linecap:butt;stroke-linejoin:miter;stroke-opacity:1" d="M 676.157,270.265 692.393,267.018 z" id="boundary" inkscape:connector-curvature="0" />
	<path style="fill:none;stroke:red;stroke-width:1px;stroke-linecap:butt;stroke-linejoin:miter;stroke-opacity:1" d="M 530.036,289.748 513.8,283.254 z" id="boundary" inkscape:connector-curvature="0" />
	<path style="fill:none;stroke:red;stroke-width:1px;stroke-linecap:butt;stroke-linejoin:miter;stroke-opacity:1" d="M 513.8,283.254 505.682,268.642 z" id="boundary" inkscape:connector-curvature="0" />
	<path style="fill:none;stroke:red;stroke-width:1px;stroke-linecap:butt;stroke-linejoin:miter;stroke-opacity:1" d="M 546.272,289.748 530.036,289.748 z" id="boundary" inkscape:connector-curvature="0" />
	<path style="fill:none;stroke:red;stroke-width:1px;stroke-linecap:butt;stroke-linejoin:miter;stroke-opacity:1" d="M 492.694,258.9 505.682,268.642 z" id="boundary" inkscape:connector-curvature="0" />
	<path style="fill:none;stroke:red;stroke-width:1px;stroke-linecap:butt;stroke-linejoin:miter;stroke-opacity:1" d="M 546.272,289.748 562.507,289.748 z" id="boundary" inkscape:connector-curvature="0" />
	<path style="fill:none;stroke:red;stroke-width:1px;stroke-linecap:butt;stroke-linejoin:miter;stroke-opacity:1" d="M 578.743,289.748 562.507,289.748 z" id="boundary" inkscape:connector-curvature="0" />
	<path style="fill:none;stroke:red;stroke-width:1px;stroke-linecap:butt;stroke-linejoin:miter;stroke-opacity:1" d="M 643.686,283.254 659.921,276.759 z" id="boundary" inkscape:connector-curvature="0" />
	<path style="fill:none;stroke:red;stroke-width:1px;stroke-linecap:butt;stroke-linejoin:miter;stroke-opacity:1" d="M 594.979,289.748 578.743,289.748 z" id="boundary" inkscape:connector-curvature="0" />
	<path style="fill:none;stroke:red;stroke-width:1px;stroke-linecap:butt;stroke-linejoin:miter;stroke-opacity:1" d="M 659.921,276.759 676.157,270.265 z" id="boundary" inkscape:connector-curvature="0" />
	<path style="fill:none;stroke:red;stroke-width:1px;stroke-linecap:butt;stroke-linejoin:miter;stroke-opacity:1" d="M 594.979,289.748 611.214,289.748 z" id="boundary" inkscape:connector-curvature="0" />
	<path style="fill:none;stroke:red;stroke-width:1px;stroke-linecap:butt;stroke-linejoin:miter;stroke-opacity:1" d="M 627.45,289.748 611.214,289.748 z" id="boundary" inkscape:connector-curvature="0" />
	<path style="fill:none;stroke:red;stroke-width:1px;stroke-linecap:butt;stroke-linejoin:miter;stroke-opacity:1" d="M 643.686,283.254 627.45,289.748 z" id="boundary" inkscape:connector-curvature="0" />
	<path style="fill:none;stroke:red;stroke-width:1px;stroke-linecap:butt;stroke-linejoin:miter;stroke-opacity:1" d="M 793.054,221.558 809.29,218.311 z" id="boundary" inkscape:connector-curvature="0" />
	<path style="fill:none;stroke:red;stroke-width:1px;stroke-linecap:butt;stroke-linejoin:miter;stroke-opacity:1" d="M 809.29,218.311 823.902,226.429 z" id="boundary" inkscape:connector-curvature="0" />
	<path style="fill:none;stroke:red;stroke-width:1px;stroke-linecap:butt;stroke-linejoin:miter;stroke-opacity:1" d="M 823.902,226.429 836.89,236.17 z" id="boundary" inkscape:connector-curvature="0" />
	<path style="fill:none;stroke:red;stroke-width:1px;stroke-linecap:butt;stroke-linejoin:miter;stroke-opacity:1" d="M 780.065,231.3 793.054,221.558 z" id="boundary" inkscape:connector-curvature="0" />
	<path style="fill:none;stroke:red;stroke-width:1px;stroke-linecap:butt;stroke-linejoin:miter;stroke-opacity:1" d="M 851.502,244.288 836.89,236.17 z" id="boundary" inkscape:connector-curvature="0" />
	<path style="fill:none;stroke:red;stroke-width:1px;stroke-linecap:butt;stroke-linejoin:miter;stroke-opacity:1" d="M 880.727,260.524 864.491,255.653 z" id="boundary" inkscape:connector-curvature="0" />
	<path style="fill:none;stroke:red;stroke-width:1px;stroke-linecap:butt;stroke-linejoin:miter;stroke-opacity:1" d="M 864.491,255.653 851.502,244.288 z" id="boundary" inkscape:connector-curvature="0" />
	<path style="fill:none;stroke:red;stroke-width:1px;stroke-linecap:butt;stroke-linejoin:miter;stroke-opacity:1" d="M 896.962,263.771 880.727,260.524 z" id="boundary" inkscape:connector-curvature="0" />
	<path style="fill:none;stroke:red;stroke-width:1px;stroke-linecap:butt;stroke-linejoin:miter;stroke-opacity:1" d="M 913.198,267.018 896.962,263.771 z" id="boundary" inkscape:connector-curvature="0" />
	<path style="fill:none;stroke:red;stroke-width:1px;stroke-linecap:butt;stroke-linejoin:miter;stroke-opacity:1" d="M 929.434,268.642 913.198,267.018 z" id="boundary" inkscape:connector-curvature="0" />
	<path style="fill:none;stroke:red;stroke-width:1px;stroke-linecap:butt;stroke-linejoin:miter;stroke-opacity:1" d="M 945.669,273.512 929.434,268.642 z" id="boundary" inkscape:connector-curvature="0" />
	<path style="fill:none;stroke:red;stroke-width:1px;stroke-linecap:butt;stroke-linejoin:miter;stroke-opacity:1" d="M 983.011,348.196 983.011,364.432 z" id="boundary" inkscape:connector-curvature="0" />
	<path style="fill:none;stroke:red;stroke-width:1px;stroke-linecap:butt;stroke-linejoin:miter;stroke-opacity:1" d="M 945.669,273.512 960.282,281.63 z" id="boundary" inkscape:connector-curvature="0" />
	<path style="fill:none;stroke:red;stroke-width:1px;stroke-linecap:butt;stroke-linejoin:miter;stroke-opacity:1" d="M 981.388,429.375 979.764,413.139 z" id="boundary" inkscape:connector-curvature="0" />
	<path style="fill:none;stroke:red;stroke-width:1px;stroke-linecap:butt;stroke-linejoin:miter;stroke-opacity:1" d="M 979.764,396.903 983.011,380.668 z" id="boundary" inkscape:connector-curvature="0" />
	<path style="fill:none;stroke:red;stroke-width:1px;stroke-linecap:butt;stroke-linejoin:miter;stroke-opacity:1" d="M 979.764,413.139 979.764,396.903 z" id="boundary" inkscape:connector-curvature="0" />
	<path style="fill:none;stroke:red;stroke-width:1px;stroke-linecap:butt;stroke-linejoin:miter;stroke-opacity:1" d="M 960.282,281.63 974.894,289.748 z" id="boundary" inkscape:connector-curvature="0" />
	<path style="fill:none;stroke:red;stroke-width:1px;stroke-linecap:butt;stroke-linejoin:miter;stroke-opacity:1" d="M 987.882,299.489 996,314.101 z" id="boundary" inkscape:connector-curvature="0" />
	<path style="fill:none;stroke:red;stroke-width:1px;stroke-linecap:butt;stroke-linejoin:miter;stroke-opacity:1" d="M 996,314.101 992.753,335.208 z" id="boundary" inkscape:connector-curvature="0" />
	<path style="fill:none;stroke:red;stroke-width:1px;stroke-linecap:butt;stroke-linejoin:miter;stroke-opacity:1" d="M 992.753,335.208 983.011,348.196 z" id="boundary" inkscape:connector-curvature="0" />
	<path style="fill:none;stroke:red;stroke-width:1px;stroke-linecap:butt;stroke-linejoin:miter;stroke-opacity:1" d="M 983.011,380.668 983.011,364.432 z" id="boundary" inkscape:connector-curvature="0" />
	<path style="fill:none;stroke:red;stroke-width:1px;stroke-linecap:butt;stroke-linejoin:miter;stroke-opacity:1" d="M 974.894,289.748 987.882,299.489 z" id="boundary" inkscape:connector-curvature="0" />
	<path style="fill:none;stroke:red;stroke-width:1px;stroke-linecap:butt;stroke-linejoin:miter;stroke-opacity:1" d="M 469.964,440.74 486.2,440.74 z" id="boundary" inkscape:connector-curvature="0" />
	<path style="fill:none;stroke:red;stroke-width:1px;stroke-linecap:butt;stroke-linejoin:miter;stroke-opacity:1" d="M 469.964,440.74 453.728,440.74 z" id="boundary" inkscape:connector-curvature="0" />
	<path style="fill:none;stroke:red;stroke-width:1px;stroke-linecap:butt;stroke-linejoin:miter;stroke-opacity:1" d="M 486.2,440.74 502.435,440.74 z" id="boundary" inkscape:connector-curvature="0" />
	<path style="fill:none;stroke:red;stroke-width:1px;stroke-linecap:butt;stroke-linejoin:miter;stroke-opacity:1" d="M 518.671,440.74 502.435,440.74 z" id="boundary" inkscape:connector-curvature="0" />
	<path style="fill:none;stroke:red;stroke-width:1px;stroke-linecap:butt;stroke-linejoin:miter;stroke-opacity:1" d="M 534.907,440.74 551.142,440.74 z" id="boundary" inkscape:connector-curvature="0" />
	<path style="fill:none;stroke:red;stroke-width:1px;stroke-linecap:butt;stroke-linejoin:miter;stroke-opacity:1" d="M 567.378,440.74 551.142,440.74 z" id="boundary" inkscape:connector-curvature="0" />
	<path style="fill:none;stroke:red;stroke-width:1px;stroke-linecap:butt;stroke-linejoin:miter;stroke-opacity:1" d="M 583.614,440.74 599.849,440.74 z" id="boundary" inkscape:connector-curvature="0" />
	<path style="fill:none;stroke:red;stroke-width:1px;stroke-linecap:butt;stroke-linejoin:miter;stroke-opacity:1" d="M 616.085,440.74 599.849,440.74 z" id="boundary" inkscape:connector-curvature="0" />
	<path style="fill:none;stroke:red;stroke-width:1px;stroke-linecap:butt;stroke-linejoin:miter;stroke-opacity:1" d="M 616.085,440.74 624.203,455.352 z" id="boundary" inkscape:connector-curvature="0" />
	<path style="fill:none;stroke:red;stroke-width:1px;stroke-linecap:butt;stroke-linejoin:miter;stroke-opacity:1" d="M 583.614,440.74 567.378,440.74 z" id="boundary" inkscape:connector-curvature="0" />
	<path style="fill:none;stroke:red;stroke-width:1px;stroke-linecap:butt;stroke-linejoin:miter;stroke-opacity:1" d="M 534.907,440.74 518.671,440.74 z" id="boundary" inkscape:connector-curvature="0" />
	<path style="fill:none;stroke:red;stroke-width:1px;stroke-linecap:butt;stroke-linejoin:miter;stroke-opacity:1" d="M 655.051,465.093 648.556,481.329 z" id="boundary" inkscape:connector-curvature="0" />
	<path style="fill:none;stroke:red;stroke-width:1px;stroke-linecap:butt;stroke-linejoin:miter;stroke-opacity:1" d="M 624.203,471.588 624.203,455.352 z" id="boundary" inkscape:connector-curvature="0" />
	<path style="fill:none;stroke:red;stroke-width:1px;stroke-linecap:butt;stroke-linejoin:miter;stroke-opacity:1" d="M 627.45,487.823 624.203,471.588 z" id="boundary" inkscape:connector-curvature="0" />
	<path style="fill:none;stroke:red;stroke-width:1px;stroke-linecap:butt;stroke-linejoin:miter;stroke-opacity:1" d="M 648.556,497.565 632.321,504.059 z" id="boundary" inkscape:connector-curvature="0" />
	<path style="fill:none;stroke:red;stroke-width:1px;stroke-linecap:butt;stroke-linejoin:miter;stroke-opacity:1" d="M 632.321,504.059 627.45,487.823 z" id="boundary" inkscape:connector-curvature="0" />
	<path style="fill:none;stroke:red;stroke-width:1px;stroke-linecap:butt;stroke-linejoin:miter;stroke-opacity:1" d="M 648.556,481.329 648.556,497.565 z" id="boundary" inkscape:connector-curvature="0" />
	<path style="fill:none;stroke:red;stroke-width:1px;stroke-linecap:butt;stroke-linejoin:miter;stroke-opacity:1" d="M 651.804,448.858 668.039,447.234 z" id="boundary" inkscape:connector-curvature="0" />
	<path style="fill:none;stroke:red;stroke-width:1px;stroke-linecap:butt;stroke-linejoin:miter;stroke-opacity:1" d="M 684.275,453.728 668.039,447.234 z" id="boundary" inkscape:connector-curvature="0" />
	<path style="fill:none;stroke:red;stroke-width:1px;stroke-linecap:butt;stroke-linejoin:miter;stroke-opacity:1" d="M 684.275,453.728 700.511,460.223 z" id="boundary" inkscape:connector-curvature="0" />
	<path style="fill:none;stroke:red;stroke-width:1px;stroke-linecap:butt;stroke-linejoin:miter;stroke-opacity:1" d="M 713.499,448.858 700.511,460.223 z" id="boundary" inkscape:connector-curvature="0" />
	<path style="fill:none;stroke:red;stroke-width:1px;stroke-linecap:butt;stroke-linejoin:miter;stroke-opacity:1" d="M 745.971,450.481 729.735,443.987 z" id="boundary" inkscape:connector-curvature="0" />
	<path style="fill:none;stroke:red;stroke-width:1px;stroke-linecap:butt;stroke-linejoin:miter;stroke-opacity:1" d="M 729.735,443.987 713.499,448.858 z" id="boundary" inkscape:connector-curvature="0" />
	<path style="fill:none;stroke:red;stroke-width:1px;stroke-linecap:butt;stroke-linejoin:miter;stroke-opacity:1" d="M 745.971,450.481 760.583,458.599 z" id="boundary" inkscape:connector-curvature="0" />
	<path style="fill:none;stroke:red;stroke-width:1px;stroke-linecap:butt;stroke-linejoin:miter;stroke-opacity:1" d="M 869.362,452.105 854.75,460.223 z" id="boundary" inkscape:connector-curvature="0" />
	<path style="fill:none;stroke:red;stroke-width:1px;stroke-linecap:butt;stroke-linejoin:miter;stroke-opacity:1" d="M 775.195,466.717 760.583,458.599 z" id="boundary" inkscape:connector-curvature="0" />
	<path style="fill:none;stroke:red;stroke-width:1px;stroke-linecap:butt;stroke-linejoin:miter;stroke-opacity:1" d="M 869.362,452.105 883.974,443.987 z" id="boundary" inkscape:connector-curvature="0" />
	<path style="fill:none;stroke:red;stroke-width:1px;stroke-linecap:butt;stroke-linejoin:miter;stroke-opacity:1" d="M 957.034,447.234 940.799,448.858 z" id="boundary" inkscape:connector-curvature="0" />
	<path style="fill:none;stroke:red;stroke-width:1px;stroke-linecap:butt;stroke-linejoin:miter;stroke-opacity:1" d="M 900.209,445.61 883.974,443.987 z" id="boundary" inkscape:connector-curvature="0" />
	<path style="fill:none;stroke:red;stroke-width:1px;stroke-linecap:butt;stroke-linejoin:miter;stroke-opacity:1" d="M 926.187,456.975 909.951,458.599 z" id="boundary" inkscape:connector-curvature="0" />
	<path style="fill:none;stroke:red;stroke-width:1px;stroke-linecap:butt;stroke-linejoin:miter;stroke-opacity:1" d="M 909.951,458.599 900.209,445.61 z" id="boundary" inkscape:connector-curvature="0" />
	<path style="fill:none;stroke:red;stroke-width:1px;stroke-linecap:butt;stroke-linejoin:miter;stroke-opacity:1" d="M 940.799,448.858 926.187,456.975 z" id="boundary" inkscape:connector-curvature="0" />
	<path style="fill:none;stroke:red;stroke-width:1px;stroke-linecap:butt;stroke-linejoin:miter;stroke-opacity:1" d="M 981.388,429.375 983.011,445.61 z" id="boundary" inkscape:connector-curvature="0" />
	<path style="fill:none;stroke:red;stroke-width:1px;stroke-linecap:butt;stroke-linejoin:miter;stroke-opacity:1" d="M 840.137,468.34 854.75,460.223 z" id="boundary" inkscape:connector-curvature="0" />
	<path style="fill:none;stroke:red;stroke-width:1px;stroke-linecap:butt;stroke-linejoin:miter;stroke-opacity:1" d="M 965.152,461.846 965.152,478.082 z" id="boundary" inkscape:connector-curvature="0" />
	<path style="fill:none;stroke:red;stroke-width:1px;stroke-linecap:butt;stroke-linejoin:miter;stroke-opacity:1" d="M 823.902,474.835 840.137,468.34 z" id="boundary" inkscape:connector-curvature="0" />
	<path style="fill:none;stroke:red;stroke-width:1px;stroke-linecap:butt;stroke-linejoin:miter;stroke-opacity:1" d="M 791.43,473.211 775.195,466.717 z" id="boundary" inkscape:connector-curvature="0" />
	<path style="fill:none;stroke:red;stroke-width:1px;stroke-linecap:butt;stroke-linejoin:miter;stroke-opacity:1" d="M 823.902,474.835 807.666,476.458 z" id="boundary" inkscape:connector-curvature="0" />
	<path style="fill:none;stroke:red;stroke-width:1px;stroke-linecap:butt;stroke-linejoin:miter;stroke-opacity:1" d="M 807.666,476.458 791.43,473.211 z" id="boundary" inkscape:connector-curvature="0" />
	<path style="fill:none;stroke:red;stroke-width:1px;stroke-linecap:butt;stroke-linejoin:miter;stroke-opacity:1" d="M 965.152,478.082 965.152,494.318 z" id="boundary" inkscape:connector-curvature="0" />
	<path style="fill:none;stroke:red;stroke-width:1px;stroke-linecap:butt;stroke-linejoin:miter;stroke-opacity:1" d="M 991.129,469.964 992.753,497.565 z" id="boundary" inkscape:connector-curvature="0" />
	<path style="fill:none;stroke:red;stroke-width:1px;stroke-linecap:butt;stroke-linejoin:miter;stroke-opacity:1" d="M 978.141,505.682 965.152,494.318 z" id="boundary" inkscape:connector-curvature="0" />
	<path style="fill:none;stroke:red;stroke-width:1px;stroke-linecap:butt;stroke-linejoin:miter;stroke-opacity:1" d="M 992.753,497.565 978.141,505.682 z" id="boundary" inkscape:connector-curvature="0" />
	<path style="fill:none;stroke:red;stroke-width:1px;stroke-linecap:butt;stroke-linejoin:miter;stroke-opacity:1" d="M 983.011,445.61 991.129,469.964 z" id="boundary" inkscape:connector-curvature="0" />
	<circle cx="4" cy="124.144" r="4" fill="#0" id="circle0"/>
	<circle cx="4" cy="140.38" r="4" fill="#0" id="circle1"/>
	<circle cx="4" cy="341.702" r="4" fill="#0" id="circle2"/>
	<circle cx="4" cy="357.938" r="4" fill="#0" id="circle3"/>
	<circle cx="4" cy="374.173" r="4" fill="#0" id="circle4"/>
	<circle cx="4" cy="390.409" r="4" fill="#0" id="circle5"/>
	<circle cx="4" cy="406.645" r="4" fill="#0" id="circle6"/>
	<circle cx="5.62357" cy="422.881" r="4" fill="#0" id="circle7"/>
	<circle cx="7.24714" cy="299.489" r="4" fill="#0" id="circle8"/>
	<circle cx="7.24714" cy="315.725" r="4" fill="#0" id="circle9"/>
	<circle cx="7.24714" cy="439.116" r="4" fill="#0" id="circle10"/>
	<circle cx="10.4943" cy="156.615" r="4" fill="#0" id="circle11"/>
	<circle cx="10.4943" cy="172.851" r="4" fill="#0" id="circle12"/>
	<circle cx="10.4943" cy="267.018" r="4" fill="#0" id="circle13"/>
	<circle cx="10.4943" cy="283.254" r="4" fill="#0" id="circle14"/>
	<circle cx="10.4943" cy="455.352" r="4" fill="#0" id="circle15"/>
	<circle cx="12.1178" cy="109.532" r="4" fill="#0" id="circle16"/>
	<circle cx="13.7414" cy="189.087" r="4" fill="#0" id="circle17"/>
	<circle cx="13.7414" cy="205.322" r="4" fill="#0" id="circle18"/>
	<circle cx="13.7414" cy="221.558" r="4" fill="#0" id="circle19"/>
	<circle cx="13.7414" cy="237.794" r="4" fill="#0" id="circle20"/>
	<circle cx="13.7414" cy="471.588" r="4" fill="#0" id="circle21"/>
	<circle cx="13.7414" cy="487.823" r="4" fill="#0" id="circle22"/>
	<circle cx="18.6121" cy="504.059" r="4" fill="#0" id="circle23"/>
	<circle cx="25.1064" cy="99.7905" r="4" fill="#0" id="circle24"/>
	<circle cx="31.6007" cy="481.329" r="4" fill="#0" id="circle25"/>
	<circle cx="34.8478" cy="452.105" r="4" fill="#0" id="circle26"/>
	<circle cx="34.8478" cy="497.565" r="4" fill="#0" id="circle27"/>
	<circle cx="39.7185" cy="91.6727" r="4" fill="#0" id="circle28"/>
	<circle cx="42.9656" cy="437.493" r="4" fill="#0" id="circle29"/>
	<circle cx="52.707" cy="81.9313" r="4" fill="#0" id="circle30"/>
	<circle cx="59.2013" cy="437.493" r="4" fill="#0" id="circle31"/>
	<circle cx="68.9427" cy="75.437" r="4" fill="#0" id="circle32"/>
	<circle cx="75.437" cy="440.74" r="4" fill="#0" id="circle33"/>
	<circle cx="85.1784" cy="68.9427" r="4" fill="#0" id="circle34"/>
	<circle cx="91.6727" cy="440.74" r="4" fill="#0" id="circle35"/>
	<circle cx="101.414" cy="65.6956" r="4" fill="#0" id="circle36"/>
	<circle cx="107.908" cy="440.74" r="4" fill="#0" id="circle37"/>
	<circle cx="117.65" cy="59.2013" r="4" fill="#0" id="circle38"/>
	<circle cx="124.144" cy="440.74" r="4" fill="#0" id="circle39"/>
	<circle cx="130.638" cy="46.2128" r="4" fill="#0" id="circle40"/>
	<circle cx="140.38" cy="440.74" r="4" fill="#0" id="circle41"/>
	<circle cx="145.25" cy="38.0949" r="4" fill="#0" id="circle42"/>
	<circle cx="156.615" cy="440.74" r="4" fill="#0" id="circle43"/>
	<circle cx="158.239" cy="25.1064" r="4" fill="#0" id="circle44"/>
	<circle cx="166.357" cy="7.24714" r="4" fill="#0" id="circle45"/>
	<circle cx="172.851" cy="440.74" r="4" fill="#0" id="circle46"/>
	<circle cx="182.592" cy="4" r="4" fill="#0" id="circle47"/>
	<circle cx="189.087" cy="440.74" r="4" fill="#0" id="circle48"/>
	<circle cx="197.205" cy="12.1178" r="4" fill="#0" id="circle49"/>
	<circle cx="205.322" cy="26.73" r="4" fill="#0" id="circle50"/>
	<circle cx="205.322" cy="440.74" r="4" fill="#0" id="circle51"/>
	<circle cx="218.311" cy="38.0949" r="4" fill="#0" id="circle52"/>
	<circle cx="221.558" cy="440.74" r="4" fill="#0" id="circle53"/>
	<circle cx="232.923" cy="46.2128" r="4" fill="#0" id="circle54"/>
	<circle cx="237.794" cy="62.4484" r="4" fill="#0" id="circle55"/>
	<circle cx="237.794" cy="440.74" r="4" fill="#0" id="circle56"/>
	<circle cx="254.029" cy="65.6956" r="4" fill="#0" id="circle57"/>
	<circle cx="254.029" cy="440.74" r="4" fill="#0" id="circle58"/>
	<circle cx="270.265" cy="72.1899" r="4" fill="#0" id="circle59"/>
	<circle cx="270.265" cy="440.74" r="4" fill="#0" id="circle60"/>
	<circle cx="286.501" cy="78.6841" r="4" fill="#0" id="circle61"/>
	<circle cx="286.501" cy="440.74" r="4" fill="#0" id="circle62"/>
	<circle cx="301.113" cy="86.802" r="4" fill="#0" id="circle63"/>
	<circle cx="302.736" cy="440.74" r="4" fill="#0" id="circle64"/>
	<circle cx="315.725" cy="94.9198" r="4" fill="#0" id="circle65"/>
	<circle cx="315.725" cy="452.105" r="4" fill="#0" id="circle66"/>
	<circle cx="318.972" cy="471.588" r="4" fill="#0" id="circle67"/>
	<circle cx="318.972" cy="487.823" r="4" fill="#0" id="circle68"/>
	<circle cx="323.843" cy="504.059" r="4" fill="#0" id="circle69"/>
	<circle cx="328.714" cy="104.661" r="4" fill="#0" id="circle70"/>
	<circle cx="330.337" cy="169.604" r="4" fill="#0" id="circle71"/>
	<circle cx="331.961" cy="185.84" r="4" fill="#0" id="circle72"/>
	<circle cx="336.831" cy="153.368" r="4" fill="#0" id="circle73"/>
	<circle cx="336.831" cy="478.082" r="4" fill="#0" id="circle74"/>
	<circle cx="338.455" cy="117.65" r="4" fill="#0" id="circle75"/>
	<circle cx="340.079" cy="442.363" r="4" fill="#0" id="circle76"/>
	<circle cx="340.079" cy="458.599" r="4" fill="#0" id="circle77"/>
	<circle cx="340.079" cy="500.812" r="4" fill="#0" id="circle78"/>
	<circle cx="343.326" cy="133.885" r="4" fill="#0" id="circle79"/>
	<circle cx="346.573" cy="193.957" r="4" fill="#0" id="circle80"/>
	<circle cx="356.314" cy="440.74" r="4" fill="#0" id="circle81"/>
	<circle cx="362.809" cy="198.828" r="4" fill="#0" id="circle82"/>
	<circle cx="372.55" cy="440.74" r="4" fill="#0" id="circle83"/>
	<circle cx="379.044" cy="198.828" r="4" fill="#0" id="circle84"/>
	<circle cx="388.786" cy="440.74" r="4" fill="#0" id="circle85"/>
	<circle cx="395.28" cy="198.828" r="4" fill="#0" id="circle86"/>
	<circle cx="405.021" cy="440.74" r="4" fill="#0" id="circle87"/>
	<circle cx="411.516" cy="202.075" r="4" fill="#0" id="circle88"/>
	<circle cx="421.257" cy="440.74" r="4" fill="#0" id="circle89"/>
	<circle cx="427.751" cy="208.57" r="4" fill="#0" id="circle90"/>
	<circle cx="437.493" cy="440.74" r="4" fill="#0" id="circle91"/>
	<circle cx="440.74" cy="218.311" r="4" fill="#0" id="circle92"/>
	<circle cx="453.728" cy="440.74" r="4" fill="#0" id="circle93"/>
	<circle cx="455.352" cy="226.429" r="4" fill="#0" id="circle94"/>
	<circle cx="468.34" cy="236.17" r="4" fill="#0" id="circle95"/>
	<circle cx="469.964" cy="440.74" r="4" fill="#0" id="circle96"/>
	<circle cx="479.705" cy="249.159" r="4" fill="#0" id="circle97"/>
	<circle cx="486.2" cy="440.74" r="4" fill="#0" id="circle98"/>
	<circle cx="492.694" cy="258.9" r="4" fill="#0" id="circle99"/>
	<circle cx="502.435" cy="440.74" r="4" fill="#0" id="circle100"/>
	<circle cx="505.682" cy="268.642" r="4" fill="#0" id="circle101"/>
	<circle cx="513.8" cy="283.254" r="4" fill="#0" id="circle102"/>
	<circle cx="518.671" cy="440.74" r="4" fill="#0" id="circle103"/>
	<circle cx="530.036" cy="289.748" r="4" fill="#0" id="circle104"/>
	<circle cx="534.907" cy="440.74" r="4" fill="#0" id="circle105"/>
	<circle cx="546.272" cy="289.748" r="4" fill="#0" id="circle106"/>
	<circle cx="551.142" cy="440.74" r="4" fill="#0" id="circle107"/>
	<circle cx="562.507" cy="289.748" r="4" fill="#0" id="circle108"/>
	<circle cx="567.378" cy="440.74" r="4" fill="#0" id="circle109"/>
	<circle cx="578.743" cy="289.748" r="4" fill="#0" id="circle110"/>
	<circle cx="583.614" cy="440.74" r="4" fill="#0" id="circle111"/>
	<circle cx="594.979" cy="289.748" r="4" fill="#0" id="circle112"/>
	<circle cx="599.849" cy="440.74" r="4" fill="#0" id="circle113"/>
	<circle cx="611.214" cy="289.748" r="4" fill="#0" id="circle114"/>
	<circle cx="616.085" cy="440.74" r="4" fill="#0" id="circle115"/>
	<circle cx="624.203" cy="455.352" r="4" fill="#0" id="circle116"/>
	<circle cx="624.203" cy="471.588" r="4" fill="#0" id="circle117"/>
	<circle cx="627.45" cy="289.748" r="4" fill="#0" id="circle118"/>
	<circle cx="627.45" cy="487.823" r="4" fill="#0" id="circle119"/>
	<circle cx="632.321" cy="504.059" r="4" fill="#0" id="circle120"/>
	<circle cx="643.686" cy="283.254" r="4" fill="#0" id="circle121"/>
	<circle cx="648.556" cy="481.329" r="4" fill="#0" id="circle122"/>
	<circle cx="648.556" cy="497.565" r="4" fill="#0" id="circle123"/>
	<circle cx="651.804" cy="448.858" r="4" fill="#0" id="circle124"/>
	<circle cx="655.051" cy="465.093" r="4" fill="#0" id="circle125"/>
	<circle cx="659.921" cy="276.759" r="4" fill="#0" id="circle126"/>
	<circle cx="668.039" cy="447.234" r="4" fill="#0" id="circle127"/>
	<circle cx="676.157" cy="270.265" r="4" fill="#0" id="circle128"/>
	<circle cx="684.275" cy="453.728" r="4" fill="#0" id="circle129"/>
	<circle cx="692.393" cy="267.018" r="4" fill="#0" id="circle130"/>
	<circle cx="700.511" cy="460.223" r="4" fill="#0" id="circle131"/>
	<circle cx="708.628" cy="263.771" r="4" fill="#0" id="circle132"/>
	<circle cx="713.499" cy="448.858" r="4" fill="#0" id="circle133"/>
	<circle cx="724.864" cy="260.524" r="4" fill="#0" id="circle134"/>
	<circle cx="729.735" cy="443.987" r="4" fill="#0" id="circle135"/>
	<circle cx="741.1" cy="260.524" r="4" fill="#0" id="circle136"/>
	<circle cx="745.971" cy="450.481" r="4" fill="#0" id="circle137"/>
	<circle cx="754.088" cy="250.782" r="4" fill="#0" id="circle138"/>
	<circle cx="760.583" cy="458.599" r="4" fill="#0" id="circle139"/>
	<circle cx="767.077" cy="241.041" r="4" fill="#0" id="circle140"/>
	<circle cx="775.195" cy="466.717" r="4" fill="#0" id="circle141"/>
	<circle cx="780.065" cy="231.3" r="4" fill="#0" id="circle142"/>
	<circle cx="791.43" cy="473.211" r="4" fill="#0" id="circle143"/>
	<circle cx="793.054" cy="221.558" r="4" fill="#0" id="circle144"/>
	<circle cx="807.666" cy="476.458" r="4" fill="#0" id="circle145"/>
	<circle cx="809.29" cy="218.311" r="4" fill="#0" id="circle146"/>
	<circle cx="823.902" cy="226.429" r="4" fill="#0" id="circle147"/>
	<circle cx="823.902" cy="474.835" r="4" fill="#0" id="circle148"/>
	<circle cx="836.89" cy="236.17" r="4" fill="#0" id="circle149"/>
	<circle cx="840.137" cy="468.34" r="4" fill="#0" id="circle150"/>
	<circle cx="851.502" cy="244.288" r="4" fill="#0" id="circle151"/>
	<circle cx="854.75" cy="460.223" r="4" fill="#0" id="circle152"/>
	<circle cx="864.491" cy="255.653" r="4" fill="#0" id="circle153"/>
	<circle cx="869.362" cy="452.105" r="4" fill="#0" id="circle154"/>
	<circle cx="880.727" cy="260.524" r="4" fill="#0" id="circle155"/>
	<circle cx="883.974" cy="443.987" r="4" fill="#0" id="circle156"/>
	<circle cx="896.962" cy="263.771" r="4" fill="#0" id="circle157"/>
	<circle cx="900.209" cy="445.61" r="4" fill="#0" id="circle158"/>
	<circle cx="909.951" cy="458.599" r="4" fill="#0" id="circle159"/>
	<circle cx="913.198" cy="267.018" r="4" fill="#0" id="circle160"/>
	<circle cx="926.187" cy="456.975" r="4" fill="#0" id="circle161"/>
	<circle cx="929.434" cy="268.642" r="4" fill="#0" id="circle162"/>
	<circle cx="940.799" cy="448.858" r="4" fill="#0" id="circle163"/>
	<circle cx="945.669" cy="273.512" r="4" fill="#0" id="circle164"/>
	<circle cx="957.034" cy="447.234" r="4" fill="#0" id="circle165"/>
	<circle cx="960.282" cy="281.63" r="4" fill="#0" id="circle166"/>
	<circle cx="965.152" cy="461.846" r="4" fill="#0" id="circle167"/>
	<circle cx="965.152" cy="478.082" r="4" fill="#0" id="circle168"/>
	<circle cx="965.152" cy="494.318" r="4" fill="#0" id="circle169"/>
	<circle cx="974.894" cy="289.748" r="4" fill="#0" id="circle170"/>
	<circle cx="978.141" cy="505.682" r="4" fill="#0" id="circle171"/>
	<circle cx="979.764" cy="396.903" r="4" fill="#0" id="circle172"/>
	<circle cx="979.764" cy="413.139" r="4" fill="#0" id="circle173"/>
	<circle cx="981.388" cy="429.375" r="4" fill="#0" id="circle174"/>
	<circle cx="983.011" cy="348.196" r="4" fill="#0" id="circle175"/>
	<circle cx="983.011" cy="364.432" r="4" fill="#0" id="circle176"/>
	<circle cx="983.011" cy="380.668" r="4" fill="#0" id="circle177"/>
	<circle cx="983.011" cy="445.61" r="4" fill="#0" id="circle178"/>
	<circle cx="983.011" cy="484.576" r="4" fill="#0" id="circle179"/>
	<circle cx="987.882" cy="299.489" r="4" fill="#0" id="circle180"/>
	<circle cx="991.129" cy="469.964" r="4" fill="#0" id="circle181"/>
	<circle cx="992.753" cy="335.208" r="4" fill="#0" id="circle182"/>
	<circle cx="992.753" cy="497.565" r="4" fill="#0" id="circle183"/>
	<circle cx="996" cy="314.101" r="4" fill="#0" id="circle184"/>
	</g>
</svg>