<?xml version="1.0" encoding="UTF-8" standalone="no"?>
<!-- Created with CurveBenchmark -->
<svg
	xmlns:dc="http://purl.org/dc/elements/1.1/"
	xmlns:cc="http://creativecommons.org/ns#"
	xmlns:rdf="http://www.w3.org/1999/02/22-rdf-syntax-ns#"
	xmlns:svg="http://www.w3.org/2000/svg"
	xmlns="http://www.w3.org/2000/svg"
	xmlns:sodipodi="http://sodipodi.sourceforge.net/DTD/sodipodi-0.dtd"
	xmlns:inkscape="http://www.inkscape.org/namespaces/inkscape"
	width="1000"
	height="1000"
	id="svg2"
	version="1.1"
	sodipodi:docname="manifold/gathan1-guitar000.png.txt">
<defs
	id="defs4" />
<metadata
	id="metadata7">
	<rdf:RDF>
		<cc:Work
			rdf:about="">
			<dc:format>image/svg+xml</dc:format>
			<dc:type
				rdf:resource="http://purl.org/dc/dcmitype/StillImage" />
			<dc:title></dc:title>
		</cc:Work>
	</rdf:RDF>
</metadata>
<g
	inkscape:label="Layer 1"
	inkscape:groupmode="layer"
	id="layer1">
	<path style="fill:none;stroke:red;stroke-width:1px;stroke-linecap:butt;stroke-linejoin:miter;stroke-opacity:1" d="M 152.8,28.8 152.8,64.2286 z" id="boundary" inkscape:connector-curvature="0" />
	<path style="fill:none;stroke:red;stroke-width:1px;stroke-linecap:butt;stroke-linejoin:miter;stroke-opacity:1" d="M 177.6,128 152.8,99.6571 z" id="boundary" inkscape:connector-curvature="0" />
	<path style="fill:none;stroke:red;stroke-width:1px;stroke-linecap:butt;stroke-linejoin:miter;stroke-opacity:1" d="M 181.143,198.857 174.057,262.629 z" id="boundary" inkscape:connector-curvature="0" />
	<path style="fill:none;stroke:red;stroke-width:1px;stroke-linecap:butt;stroke-linejoin:miter;stroke-opacity:1" d="M 152.8,28.8 181.143,7.54286 z" id="boundary" inkscape:connector-curvature="0" />
	<path style="fill:none;stroke:red;stroke-width:1px;stroke-linecap:butt;stroke-linejoin:miter;stroke-opacity:1" d="M 152.8,64.2286 152.8,99.6571 z" id="boundary" inkscape:connector-curvature="0" />
	<path style="fill:none;stroke:red;stroke-width:1px;stroke-linecap:butt;stroke-linejoin:miter;stroke-opacity:1" d="M 99.6571,514.171 135.086,503.543 z" id="boundary" inkscape:connector-curvature="0" />
	<path style="fill:none;stroke:red;stroke-width:1px;stroke-linecap:butt;stroke-linejoin:miter;stroke-opacity:1" d="M 174.057,298.057 174.057,333.486 z" id="boundary" inkscape:connector-curvature="0" />
	<path style="fill:none;stroke:red;stroke-width:1px;stroke-linecap:butt;stroke-linejoin:miter;stroke-opacity:1" d="M 170.514,500 135.086,503.543 z" id="boundary" inkscape:connector-curvature="0" />
	<path style="fill:none;stroke:red;stroke-width:1px;stroke-linecap:butt;stroke-linejoin:miter;stroke-opacity:1" d="M 174.057,262.629 174.057,298.057 z" id="boundary" inkscape:connector-curvature="0" />
	<path style="fill:none;stroke:red;stroke-width:1px;stroke-linecap:butt;stroke-linejoin:miter;stroke-opacity:1" d="M 99.6571,514.171 71.3143,535.429 z" id="boundary" inkscape:connector-curvature="0" />
	<path style="fill:none;stroke:red;stroke-width:1px;stroke-linecap:butt;stroke-linejoin:miter;stroke-opacity:1" d="M 181.143,163.429 177.6,128 z" id="boundary" inkscape:connector-curvature="0" />
	<path style="fill:none;stroke:red;stroke-width:1px;stroke-linecap:butt;stroke-linejoin:miter;stroke-opacity:1" d="M 181.143,163.429 181.143,198.857 z" id="boundary" inkscape:connector-curvature="0" />
	<path style="fill:none;stroke:red;stroke-width:1px;stroke-linecap:butt;stroke-linejoin:miter;stroke-opacity:1" d="M 174.057,333.486 174.057,368.914 z" id="boundary" inkscape:connector-curvature="0" />
	<path style="fill:none;stroke:red;stroke-width:1px;stroke-linecap:butt;stroke-linejoin:miter;stroke-opacity:1" d="M 174.057,404.343 174.057,439.771 z" id="boundary" inkscape:connector-curvature="0" />
	<path style="fill:none;stroke:red;stroke-width:1px;stroke-linecap:butt;stroke-linejoin:miter;stroke-opacity:1" d="M 174.057,404.343 174.057,368.914 z" id="boundary" inkscape:connector-curvature="0" />
	<path style="fill:none;stroke:red;stroke-width:1px;stroke-linecap:butt;stroke-linejoin:miter;stroke-opacity:1" d="M 18.1714,779.886 39.4286,744.457 z" id="boundary" inkscape:connector-curvature="0" />
	<path style="fill:none;stroke:red;stroke-width:1px;stroke-linecap:butt;stroke-linejoin:miter;stroke-opacity:1" d="M 53.6,567.314 53.6,602.743 z" id="boundary" inkscape:connector-curvature="0" />
	<path style="fill:none;stroke:red;stroke-width:1px;stroke-linecap:butt;stroke-linejoin:miter;stroke-opacity:1" d="M 53.6,567.314 71.3143,535.429 z" id="boundary" inkscape:connector-curvature="0" />
	<path style="fill:none;stroke:red;stroke-width:1px;stroke-linecap:butt;stroke-linejoin:miter;stroke-opacity:1" d="M 18.1714,779.886 4,822.4 z" id="boundary" inkscape:connector-curvature="0" />
	<path style="fill:none;stroke:red;stroke-width:1px;stroke-linecap:butt;stroke-linejoin:miter;stroke-opacity:1" d="M 4,857.829 4,822.4 z" id="boundary" inkscape:connector-curvature="0" />
	<path style="fill:none;stroke:red;stroke-width:1px;stroke-linecap:butt;stroke-linejoin:miter;stroke-opacity:1" d="M 32.3429,921.6 11.0857,893.257 z" id="boundary" inkscape:connector-curvature="0" />
	<path style="fill:none;stroke:red;stroke-width:1px;stroke-linecap:butt;stroke-linejoin:miter;stroke-opacity:1" d="M 11.0857,893.257 4,857.829 z" id="boundary" inkscape:connector-curvature="0" />
	<path style="fill:none;stroke:red;stroke-width:1px;stroke-linecap:butt;stroke-linejoin:miter;stroke-opacity:1" d="M 60.6857,716.114 39.4286,744.457 z" id="boundary" inkscape:connector-curvature="0" />
	<path style="fill:none;stroke:red;stroke-width:1px;stroke-linecap:butt;stroke-linejoin:miter;stroke-opacity:1" d="M 71.3143,634.629 74.8571,670.057 z" id="boundary" inkscape:connector-curvature="0" />
	<path style="fill:none;stroke:red;stroke-width:1px;stroke-linecap:butt;stroke-linejoin:miter;stroke-opacity:1" d="M 53.6,602.743 71.3143,634.629 z" id="boundary" inkscape:connector-curvature="0" />
	<path style="fill:none;stroke:red;stroke-width:1px;stroke-linecap:butt;stroke-linejoin:miter;stroke-opacity:1" d="M 74.8571,670.057 60.6857,716.114 z" id="boundary" inkscape:connector-curvature="0" />
	<path style="fill:none;stroke:red;stroke-width:1px;stroke-linecap:butt;stroke-linejoin:miter;stroke-opacity:1" d="M 53.6,949.943 32.3429,921.6 z" id="boundary" inkscape:connector-curvature="0" />
	<path style="fill:none;stroke:red;stroke-width:1px;stroke-linecap:butt;stroke-linejoin:miter;stroke-opacity:1" d="M 81.9429,971.2 53.6,949.943 z" id="boundary" inkscape:connector-curvature="0" />
	<path style="fill:none;stroke:red;stroke-width:1px;stroke-linecap:butt;stroke-linejoin:miter;stroke-opacity:1" d="M 188.229,996 152.8,996 z" id="boundary" inkscape:connector-curvature="0" />
	<path style="fill:none;stroke:red;stroke-width:1px;stroke-linecap:butt;stroke-linejoin:miter;stroke-opacity:1" d="M 152.8,996 117.371,985.371 z" id="boundary" inkscape:connector-curvature="0" />
	<path style="fill:none;stroke:red;stroke-width:1px;stroke-linecap:butt;stroke-linejoin:miter;stroke-opacity:1" d="M 117.371,985.371 81.9429,971.2 z" id="boundary" inkscape:connector-curvature="0" />
	<path style="fill:none;stroke:red;stroke-width:1px;stroke-linecap:butt;stroke-linejoin:miter;stroke-opacity:1" d="M 227.2,128 227.2,163.429 z" id="boundary" inkscape:connector-curvature="0" />
	<path style="fill:none;stroke:red;stroke-width:1px;stroke-linecap:butt;stroke-linejoin:miter;stroke-opacity:1" d="M 234.286,78.4 227.2,128 z" id="boundary" inkscape:connector-curvature="0" />
	<path style="fill:none;stroke:red;stroke-width:1px;stroke-linecap:butt;stroke-linejoin:miter;stroke-opacity:1" d="M 227.2,163.429 227.2,198.857 z" id="boundary" inkscape:connector-curvature="0" />
	<path style="fill:none;stroke:red;stroke-width:1px;stroke-linecap:butt;stroke-linejoin:miter;stroke-opacity:1" d="M 227.2,269.714 227.2,234.286 z" id="boundary" inkscape:connector-curvature="0" />
	<path style="fill:none;stroke:red;stroke-width:1px;stroke-linecap:butt;stroke-linejoin:miter;stroke-opacity:1" d="M 227.2,234.286 227.2,198.857 z" id="boundary" inkscape:connector-curvature="0" />
	<path style="fill:none;stroke:red;stroke-width:1px;stroke-linecap:butt;stroke-linejoin:miter;stroke-opacity:1" d="M 230.743,340.571 234.286,376 z" id="boundary" inkscape:connector-curvature="0" />
	<path style="fill:none;stroke:red;stroke-width:1px;stroke-linecap:butt;stroke-linejoin:miter;stroke-opacity:1" d="M 230.743,340.571 227.2,305.143 z" id="boundary" inkscape:connector-curvature="0" />
	<path style="fill:none;stroke:red;stroke-width:1px;stroke-linecap:butt;stroke-linejoin:miter;stroke-opacity:1" d="M 227.2,305.143 227.2,269.714 z" id="boundary" inkscape:connector-curvature="0" />
	<path style="fill:none;stroke:red;stroke-width:1px;stroke-linecap:butt;stroke-linejoin:miter;stroke-opacity:1" d="M 354.743,581.486 329.943,553.143 z" id="boundary" inkscape:connector-curvature="0" />
	<path style="fill:none;stroke:red;stroke-width:1px;stroke-linecap:butt;stroke-linejoin:miter;stroke-opacity:1" d="M 234.286,42.9714 234.286,78.4 z" id="boundary" inkscape:connector-curvature="0" />
	<path style="fill:none;stroke:red;stroke-width:1px;stroke-linecap:butt;stroke-linejoin:miter;stroke-opacity:1" d="M 234.286,376 234.286,411.429 z" id="boundary" inkscape:connector-curvature="0" />
	<path style="fill:none;stroke:red;stroke-width:1px;stroke-linecap:butt;stroke-linejoin:miter;stroke-opacity:1" d="M 234.286,446.857 234.286,482.286 z" id="boundary" inkscape:connector-curvature="0" />
	<path style="fill:none;stroke:red;stroke-width:1px;stroke-linecap:butt;stroke-linejoin:miter;stroke-opacity:1" d="M 241.371,553.143 234.286,517.714 z" id="boundary" inkscape:connector-curvature="0" />
	<path style="fill:none;stroke:red;stroke-width:1px;stroke-linecap:butt;stroke-linejoin:miter;stroke-opacity:1" d="M 234.286,517.714 234.286,482.286 z" id="boundary" inkscape:connector-curvature="0" />
	<path style="fill:none;stroke:red;stroke-width:1px;stroke-linecap:butt;stroke-linejoin:miter;stroke-opacity:1" d="M 241.371,553.143 266.171,581.486 z" id="boundary" inkscape:connector-curvature="0" />
	<path style="fill:none;stroke:red;stroke-width:1px;stroke-linecap:butt;stroke-linejoin:miter;stroke-opacity:1" d="M 234.286,446.857 234.286,411.429 z" id="boundary" inkscape:connector-curvature="0" />
	<path style="fill:none;stroke:red;stroke-width:1px;stroke-linecap:butt;stroke-linejoin:miter;stroke-opacity:1" d="M 266.171,581.486 301.6,581.486 z" id="boundary" inkscape:connector-curvature="0" />
	<path style="fill:none;stroke:red;stroke-width:1px;stroke-linecap:butt;stroke-linejoin:miter;stroke-opacity:1" d="M 326.4,659.429 329.943,694.857 z" id="boundary" inkscape:connector-curvature="0" />
	<path style="fill:none;stroke:red;stroke-width:1px;stroke-linecap:butt;stroke-linejoin:miter;stroke-opacity:1" d="M 326.4,659.429 340.571,624 z" id="boundary" inkscape:connector-curvature="0" />
	<path style="fill:none;stroke:red;stroke-width:1px;stroke-linecap:butt;stroke-linejoin:miter;stroke-opacity:1" d="M 329.943,694.857 347.657,726.743 z" id="boundary" inkscape:connector-curvature="0" />
	<path style="fill:none;stroke:red;stroke-width:1px;stroke-linecap:butt;stroke-linejoin:miter;stroke-opacity:1" d="M 259.086,988.914 223.657,996 z" id="boundary" inkscape:connector-curvature="0" />
	<path style="fill:none;stroke:red;stroke-width:1px;stroke-linecap:butt;stroke-linejoin:miter;stroke-opacity:1" d="M 326.4,964.114 294.514,981.829 z" id="boundary" inkscape:connector-curvature="0" />
	<path style="fill:none;stroke:red;stroke-width:1px;stroke-linecap:butt;stroke-linejoin:miter;stroke-opacity:1" d="M 294.514,981.829 259.086,988.914 z" id="boundary" inkscape:connector-curvature="0" />
	<path style="fill:none;stroke:red;stroke-width:1px;stroke-linecap:butt;stroke-linejoin:miter;stroke-opacity:1" d="M 354.743,935.771 326.4,964.114 z" id="boundary" inkscape:connector-curvature="0" />
	<path style="fill:none;stroke:red;stroke-width:1px;stroke-linecap:butt;stroke-linejoin:miter;stroke-opacity:1" d="M 223.657,996 188.229,996 z" id="boundary" inkscape:connector-curvature="0" />
	<path style="fill:none;stroke:red;stroke-width:1px;stroke-linecap:butt;stroke-linejoin:miter;stroke-opacity:1" d="M 368.914,755.086 347.657,726.743 z" id="boundary" inkscape:connector-curvature="0" />
	<path style="fill:none;stroke:red;stroke-width:1px;stroke-linecap:butt;stroke-linejoin:miter;stroke-opacity:1" d="M 340.571,624 354.743,581.486 z" id="boundary" inkscape:connector-curvature="0" />
	<path style="fill:none;stroke:red;stroke-width:1px;stroke-linecap:butt;stroke-linejoin:miter;stroke-opacity:1" d="M 383.086,790.514 368.914,755.086 z" id="boundary" inkscape:connector-curvature="0" />
	<path style="fill:none;stroke:red;stroke-width:1px;stroke-linecap:butt;stroke-linejoin:miter;stroke-opacity:1" d="M 376,907.429 354.743,935.771 z" id="boundary" inkscape:connector-curvature="0" />
	<path style="fill:none;stroke:red;stroke-width:1px;stroke-linecap:butt;stroke-linejoin:miter;stroke-opacity:1" d="M 383.086,790.514 397.257,825.943 z" id="boundary" inkscape:connector-curvature="0" />
	<path style="fill:none;stroke:red;stroke-width:1px;stroke-linecap:butt;stroke-linejoin:miter;stroke-opacity:1" d="M 397.257,825.943 390.171,872 z" id="boundary" inkscape:connector-curvature="0" />
	<path style="fill:none;stroke:red;stroke-width:1px;stroke-linecap:butt;stroke-linejoin:miter;stroke-opacity:1" d="M 390.171,872 376,907.429 z" id="boundary" inkscape:connector-curvature="0" />
	<path style="fill:none;stroke:red;stroke-width:1px;stroke-linecap:butt;stroke-linejoin:miter;stroke-opacity:1" d="M 181.143,7.54286 216.571,4 z" id="boundary" inkscape:connector-curvature="0" />
	<path style="fill:none;stroke:red;stroke-width:1px;stroke-linecap:butt;stroke-linejoin:miter;stroke-opacity:1" d="M 216.571,4 234.286,42.9714 z" id="boundary" inkscape:connector-curvature="0" />
	<circle cx="4" cy="822.4" r="4" fill="#0" id="circle0"/>
	<circle cx="4" cy="857.829" r="4" fill="#0" id="circle1"/>
	<circle cx="11.0857" cy="893.257" r="4" fill="#0" id="circle2"/>
	<circle cx="18.1714" cy="779.886" r="4" fill="#0" id="circle3"/>
	<circle cx="32.3429" cy="921.6" r="4" fill="#0" id="circle4"/>
	<circle cx="39.4286" cy="744.457" r="4" fill="#0" id="circle5"/>
	<circle cx="53.6" cy="567.314" r="4" fill="#0" id="circle6"/>
	<circle cx="53.6" cy="602.743" r="4" fill="#0" id="circle7"/>
	<circle cx="53.6" cy="949.943" r="4" fill="#0" id="circle8"/>
	<circle cx="60.6857" cy="716.114" r="4" fill="#0" id="circle9"/>
	<circle cx="71.3143" cy="535.429" r="4" fill="#0" id="circle10"/>
	<circle cx="71.3143" cy="634.629" r="4" fill="#0" id="circle11"/>
	<circle cx="74.8571" cy="670.057" r="4" fill="#0" id="circle12"/>
	<circle cx="81.9429" cy="971.2" r="4" fill="#0" id="circle13"/>
	<circle cx="99.6571" cy="514.171" r="4" fill="#0" id="circle14"/>
	<circle cx="117.371" cy="985.371" r="4" fill="#0" id="circle15"/>
	<circle cx="135.086" cy="503.543" r="4" fill="#0" id="circle16"/>
	<circle cx="152.8" cy="28.8" r="4" fill="#0" id="circle17"/>
	<circle cx="152.8" cy="64.2286" r="4" fill="#0" id="circle18"/>
	<circle cx="152.8" cy="99.6571" r="4" fill="#0" id="circle19"/>
	<circle cx="152.8" cy="996" r="4" fill="#0" id="circle20"/>
	<circle cx="170.514" cy="500" r="4" fill="#0" id="circle21"/>
	<circle cx="174.057" cy="262.629" r="4" fill="#0" id="circle22"/>
	<circle cx="174.057" cy="298.057" r="4" fill="#0" id="circle23"/>
	<circle cx="174.057" cy="333.486" r="4" fill="#0" id="circle24"/>
	<circle cx="174.057" cy="368.914" r="4" fill="#0" id="circle25"/>
	<circle cx="174.057" cy="404.343" r="4" fill="#0" id="circle26"/>
	<circle cx="174.057" cy="439.771" r="4" fill="#0" id="circle27"/>
	<circle cx="177.6" cy="128" r="4" fill="#0" id="circle28"/>
	<circle cx="181.143" cy="7.54286" r="4" fill="#0" id="circle29"/>
	<circle cx="181.143" cy="163.429" r="4" fill="#0" id="circle30"/>
	<circle cx="181.143" cy="198.857" r="4" fill="#0" id="circle31"/>
	<circle cx="188.229" cy="996" r="4" fill="#0" id="circle32"/>
	<circle cx="216.571" cy="4" r="4" fill="#0" id="circle33"/>
	<circle cx="223.657" cy="996" r="4" fill="#0" id="circle34"/>
	<circle cx="227.2" cy="128" r="4" fill="#0" id="circle35"/>
	<circle cx="227.2" cy="163.429" r="4" fill="#0" id="circle36"/>
	<circle cx="227.2" cy="198.857" r="4" fill="#0" id="circle37"/>
	<circle cx="227.2" cy="234.286" r="4" fill="#0" id="circle38"/>
	<circle cx="227.2" cy="269.714" r="4" fill="#0" id="circle39"/>
	<circle cx="227.2" cy="305.143" r="4" fill="#0" id="circle40"/>
	<circle cx="230.743" cy="340.571" r="4" fill="#0" id="circle41"/>
	<circle cx="234.286" cy="42.9714" r="4" fill="#0" id="circle42"/>
	<circle cx="234.286" cy="78.4" r="4" fill="#0" id="circle43"/>
	<circle cx="234.286" cy="376" r="4" fill="#0" id="circle44"/>
	<circle cx="234.286" cy="411.429" r="4" fill="#0" id="circle45"/>
	<circle cx="234.286" cy="446.857" r="4" fill="#0" id="circle46"/>
	<circle cx="234.286" cy="482.286" r="4" fill="#0" id="circle47"/>
	<circle cx="234.286" cy="517.714" r="4" fill="#0" id="circle48"/>
	<circle cx="241.371" cy="553.143" r="4" fill="#0" id="circle49"/>
	<circle cx="259.086" cy="988.914" r="4" fill="#0" id="circle50"/>
	<circle cx="266.171" cy="581.486" r="4" fill="#0" id="circle51"/>
	<circle cx="294.514" cy="981.829" r="4" fill="#0" id="circle52"/>
	<circle cx="301.6" cy="581.486" r="4" fill="#0" id="circle53"/>
	<circle cx="326.4" cy="659.429" r="4" fill="#0" id="circle54"/>
	<circle cx="326.4" cy="964.114" r="4" fill="#0" id="circle55"/>
	<circle cx="329.943" cy="553.143" r="4" fill="#0" id="circle56"/>
	<circle cx="329.943" cy="694.857" r="4" fill="#0" id="circle57"/>
	<circle cx="340.571" cy="624" r="4" fill="#0" id="circle58"/>
	<circle cx="347.657" cy="726.743" r="4" fill="#0" id="circle59"/>
	<circle cx="354.743" cy="581.486" r="4" fill="#0" id="circle60"/>
	<circle cx="354.743" cy="935.771" r="4" fill="#0" id="circle61"/>
	<circle cx="368.914" cy="755.086" r="4" fill="#0" id="circle62"/>
	<circle cx="376" cy="907.429" r="4" fill="#0" id="circle63"/>
	<circle cx="383.086" cy="790.514" r="4" fill="#0" id="circle64"/>
	<circle cx="390.171" cy="872" r="4" fill="#0" id="circle65"/>
	<circle cx="397.257" cy="825.943" r="4" fill="#0" id="circle66"/>
	</g>
</svg>