<?xml version="1.0" encoding="UTF-8" standalone="no"?>
<!-- Created with CurveBenchmark -->
<svg
	xmlns:dc="http://purl.org/dc/elements/1.1/"
	xmlns:cc="http://creativecommons.org/ns#"
	xmlns:rdf="http://www.w3.org/1999/02/22-rdf-syntax-ns#"
	xmlns:svg="http://www.w3.org/2000/svg"
	xmlns="http://www.w3.org/2000/svg"
	xmlns:sodipodi="http://sodipodi.sourceforge.net/DTD/sodipodi-0.dtd"
	xmlns:inkscape="http://www.inkscape.org/namespaces/inkscape"
	width="1000"
	height="1000"
	id="svg2"
	version="1.1"
	sodipodi:docname="manifold/gathan1-sink015.png.txt">
<defs
	id="defs4" />
<metadata
	id="metadata7">
	<rdf:RDF>
		<cc:Work
			rdf:about="">
			<dc:format>image/svg+xml</dc:format>
			<dc:type
				rdf:resource="http://purl.org/dc/dcmitype/StillImage" />
			<dc:title></dc:title>
		</cc:Work>
	</rdf:RDF>
</metadata>
<g
	inkscape:label="Layer 1"
	inkscape:groupmode="layer"
	id="layer1">
	<path style="fill:none;stroke:red;stroke-width:1px;stroke-linecap:butt;stroke-linejoin:miter;stroke-opacity:1" d="M 139.493,71.7463 139.493,120.137 z" id="boundary" inkscape:connector-curvature="0" />
	<path style="fill:none;stroke:red;stroke-width:1px;stroke-linecap:butt;stroke-linejoin:miter;stroke-opacity:1" d="M 163.688,28.1951 139.493,71.7463 z" id="boundary" inkscape:connector-curvature="0" />
	<path style="fill:none;stroke:red;stroke-width:1px;stroke-linecap:butt;stroke-linejoin:miter;stroke-opacity:1" d="M 91.1024,168.527 42.7122,168.527 z" id="boundary" inkscape:connector-curvature="0" />
	<path style="fill:none;stroke:red;stroke-width:1px;stroke-linecap:butt;stroke-linejoin:miter;stroke-opacity:1" d="M 4,197.561 42.7122,168.527 z" id="boundary" inkscape:connector-curvature="0" />
	<path style="fill:none;stroke:red;stroke-width:1px;stroke-linecap:butt;stroke-linejoin:miter;stroke-opacity:1" d="M 4,245.951 4,197.561 z" id="boundary" inkscape:connector-curvature="0" />
	<path style="fill:none;stroke:red;stroke-width:1px;stroke-linecap:butt;stroke-linejoin:miter;stroke-opacity:1" d="M 47.5512,318.537 4,294.341 z" id="boundary" inkscape:connector-curvature="0" />
	<path style="fill:none;stroke:red;stroke-width:1px;stroke-linecap:butt;stroke-linejoin:miter;stroke-opacity:1" d="M 4,294.341 4,245.951 z" id="boundary" inkscape:connector-curvature="0" />
	<path style="fill:none;stroke:red;stroke-width:1px;stroke-linecap:butt;stroke-linejoin:miter;stroke-opacity:1" d="M 139.493,120.137 163.688,163.688 z" id="boundary" inkscape:connector-curvature="0" />
	<path style="fill:none;stroke:red;stroke-width:1px;stroke-linecap:butt;stroke-linejoin:miter;stroke-opacity:1" d="M 163.688,28.1951 207.239,4 z" id="boundary" inkscape:connector-curvature="0" />
	<path style="fill:none;stroke:red;stroke-width:1px;stroke-linecap:butt;stroke-linejoin:miter;stroke-opacity:1" d="M 207.239,4 245.951,37.8732 z" id="boundary" inkscape:connector-curvature="0" />
	<path style="fill:none;stroke:red;stroke-width:1px;stroke-linecap:butt;stroke-linejoin:miter;stroke-opacity:1" d="M 284.663,66.9073 245.951,37.8732 z" id="boundary" inkscape:connector-curvature="0" />
	<path style="fill:none;stroke:red;stroke-width:1px;stroke-linecap:butt;stroke-linejoin:miter;stroke-opacity:1" d="M 212.078,168.527 163.688,163.688 z" id="boundary" inkscape:connector-curvature="0" />
	<path style="fill:none;stroke:red;stroke-width:1px;stroke-linecap:butt;stroke-linejoin:miter;stroke-opacity:1" d="M 212.078,168.527 260.468,168.527 z" id="boundary" inkscape:connector-curvature="0" />
	<path style="fill:none;stroke:red;stroke-width:1px;stroke-linecap:butt;stroke-linejoin:miter;stroke-opacity:1" d="M 308.859,168.527 260.468,168.527 z" id="boundary" inkscape:connector-curvature="0" />
	<path style="fill:none;stroke:red;stroke-width:1px;stroke-linecap:butt;stroke-linejoin:miter;stroke-opacity:1" d="M 357.249,168.527 308.859,168.527 z" id="boundary" inkscape:connector-curvature="0" />
	<path style="fill:none;stroke:red;stroke-width:1px;stroke-linecap:butt;stroke-linejoin:miter;stroke-opacity:1" d="M 47.5512,318.537 95.9415,318.537 z" id="boundary" inkscape:connector-curvature="0" />
	<path style="fill:none;stroke:red;stroke-width:1px;stroke-linecap:butt;stroke-linejoin:miter;stroke-opacity:1" d="M 144.332,318.537 95.9415,318.537 z" id="boundary" inkscape:connector-curvature="0" />
	<path style="fill:none;stroke:red;stroke-width:1px;stroke-linecap:butt;stroke-linejoin:miter;stroke-opacity:1" d="M 144.332,318.537 168.527,362.088 z" id="boundary" inkscape:connector-curvature="0" />
	<path style="fill:none;stroke:red;stroke-width:1px;stroke-linecap:butt;stroke-linejoin:miter;stroke-opacity:1" d="M 168.527,362.088 187.883,410.478 z" id="boundary" inkscape:connector-curvature="0" />
	<path style="fill:none;stroke:red;stroke-width:1px;stroke-linecap:butt;stroke-linejoin:miter;stroke-opacity:1" d="M 226.595,439.512 187.883,410.478 z" id="boundary" inkscape:connector-curvature="0" />
	<path style="fill:none;stroke:red;stroke-width:1px;stroke-linecap:butt;stroke-linejoin:miter;stroke-opacity:1" d="M 226.595,439.512 274.985,454.029 z" id="boundary" inkscape:connector-curvature="0" />
	<path style="fill:none;stroke:red;stroke-width:1px;stroke-linecap:butt;stroke-linejoin:miter;stroke-opacity:1" d="M 323.376,516.937 323.376,565.327 z" id="boundary" inkscape:connector-curvature="0" />
	<path style="fill:none;stroke:red;stroke-width:1px;stroke-linecap:butt;stroke-linejoin:miter;stroke-opacity:1" d="M 323.376,516.937 323.376,468.546 z" id="boundary" inkscape:connector-curvature="0" />
	<path style="fill:none;stroke:red;stroke-width:1px;stroke-linecap:butt;stroke-linejoin:miter;stroke-opacity:1" d="M 323.376,613.717 323.376,662.107 z" id="boundary" inkscape:connector-curvature="0" />
	<path style="fill:none;stroke:red;stroke-width:1px;stroke-linecap:butt;stroke-linejoin:miter;stroke-opacity:1" d="M 323.376,613.717 323.376,565.327 z" id="boundary" inkscape:connector-curvature="0" />
	<path style="fill:none;stroke:red;stroke-width:1px;stroke-linecap:butt;stroke-linejoin:miter;stroke-opacity:1" d="M 274.985,942.771 274.985,991.161 z" id="boundary" inkscape:connector-curvature="0" />
	<path style="fill:none;stroke:red;stroke-width:1px;stroke-linecap:butt;stroke-linejoin:miter;stroke-opacity:1" d="M 323.376,996 274.985,991.161 z" id="boundary" inkscape:connector-curvature="0" />
	<path style="fill:none;stroke:red;stroke-width:1px;stroke-linecap:butt;stroke-linejoin:miter;stroke-opacity:1" d="M 323.376,662.107 323.376,710.498 z" id="boundary" inkscape:connector-curvature="0" />
	<path style="fill:none;stroke:red;stroke-width:1px;stroke-linecap:butt;stroke-linejoin:miter;stroke-opacity:1" d="M 323.376,807.278 304.02,894.38 z" id="boundary" inkscape:connector-curvature="0" />
	<path style="fill:none;stroke:red;stroke-width:1px;stroke-linecap:butt;stroke-linejoin:miter;stroke-opacity:1" d="M 304.02,894.38 274.985,942.771 z" id="boundary" inkscape:connector-curvature="0" />
	<path style="fill:none;stroke:red;stroke-width:1px;stroke-linecap:butt;stroke-linejoin:miter;stroke-opacity:1" d="M 274.985,454.029 323.376,468.546 z" id="boundary" inkscape:connector-curvature="0" />
	<path style="fill:none;stroke:red;stroke-width:1px;stroke-linecap:butt;stroke-linejoin:miter;stroke-opacity:1" d="M 458.868,265.307 410.478,250.79 z" id="boundary" inkscape:connector-curvature="0" />
	<path style="fill:none;stroke:red;stroke-width:1px;stroke-linecap:butt;stroke-linejoin:miter;stroke-opacity:1" d="M 410.478,250.79 381.444,212.078 z" id="boundary" inkscape:connector-curvature="0" />
	<path style="fill:none;stroke:red;stroke-width:1px;stroke-linecap:butt;stroke-linejoin:miter;stroke-opacity:1" d="M 507.259,265.307 458.868,265.307 z" id="boundary" inkscape:connector-curvature="0" />
	<path style="fill:none;stroke:red;stroke-width:1px;stroke-linecap:butt;stroke-linejoin:miter;stroke-opacity:1" d="M 502.42,400.8 502.42,449.19 z" id="boundary" inkscape:connector-curvature="0" />
	<path style="fill:none;stroke:red;stroke-width:1px;stroke-linecap:butt;stroke-linejoin:miter;stroke-opacity:1" d="M 521.776,352.41 502.42,400.8 z" id="boundary" inkscape:connector-curvature="0" />
	<path style="fill:none;stroke:red;stroke-width:1px;stroke-linecap:butt;stroke-linejoin:miter;stroke-opacity:1" d="M 502.42,449.19 502.42,497.58 z" id="boundary" inkscape:connector-curvature="0" />
	<path style="fill:none;stroke:red;stroke-width:1px;stroke-linecap:butt;stroke-linejoin:miter;stroke-opacity:1" d="M 381.444,212.078 357.249,168.527 z" id="boundary" inkscape:connector-curvature="0" />
	<path style="fill:none;stroke:red;stroke-width:1px;stroke-linecap:butt;stroke-linejoin:miter;stroke-opacity:1" d="M 502.42,497.58 502.42,545.971 z" id="boundary" inkscape:connector-curvature="0" />
	<path style="fill:none;stroke:red;stroke-width:1px;stroke-linecap:butt;stroke-linejoin:miter;stroke-opacity:1" d="M 507.259,265.307 555.649,265.307 z" id="boundary" inkscape:connector-curvature="0" />
	<path style="fill:none;stroke:red;stroke-width:1px;stroke-linecap:butt;stroke-linejoin:miter;stroke-opacity:1" d="M 604.039,265.307 608.878,318.537 z" id="boundary" inkscape:connector-curvature="0" />
	<path style="fill:none;stroke:red;stroke-width:1px;stroke-linecap:butt;stroke-linejoin:miter;stroke-opacity:1" d="M 608.878,318.537 560.488,318.537 z" id="boundary" inkscape:connector-curvature="0" />
	<path style="fill:none;stroke:red;stroke-width:1px;stroke-linecap:butt;stroke-linejoin:miter;stroke-opacity:1" d="M 555.649,265.307 604.039,265.307 z" id="boundary" inkscape:connector-curvature="0" />
	<path style="fill:none;stroke:red;stroke-width:1px;stroke-linecap:butt;stroke-linejoin:miter;stroke-opacity:1" d="M 560.488,318.537 521.776,352.41 z" id="boundary" inkscape:connector-curvature="0" />
	<path style="fill:none;stroke:red;stroke-width:1px;stroke-linecap:butt;stroke-linejoin:miter;stroke-opacity:1" d="M 502.42,545.971 502.42,594.361 z" id="boundary" inkscape:connector-curvature="0" />
	<path style="fill:none;stroke:red;stroke-width:1px;stroke-linecap:butt;stroke-linejoin:miter;stroke-opacity:1" d="M 502.42,642.751 502.42,594.361 z" id="boundary" inkscape:connector-curvature="0" />
	<path style="fill:none;stroke:red;stroke-width:1px;stroke-linecap:butt;stroke-linejoin:miter;stroke-opacity:1" d="M 323.376,710.498 323.376,758.888 z" id="boundary" inkscape:connector-curvature="0" />
	<path style="fill:none;stroke:red;stroke-width:1px;stroke-linecap:butt;stroke-linejoin:miter;stroke-opacity:1" d="M 323.376,807.278 323.376,758.888 z" id="boundary" inkscape:connector-curvature="0" />
	<path style="fill:none;stroke:red;stroke-width:1px;stroke-linecap:butt;stroke-linejoin:miter;stroke-opacity:1" d="M 371.766,996 323.376,996 z" id="boundary" inkscape:connector-curvature="0" />
	<path style="fill:none;stroke:red;stroke-width:1px;stroke-linecap:butt;stroke-linejoin:miter;stroke-opacity:1" d="M 468.546,996 420.156,996 z" id="boundary" inkscape:connector-curvature="0" />
	<path style="fill:none;stroke:red;stroke-width:1px;stroke-linecap:butt;stroke-linejoin:miter;stroke-opacity:1" d="M 420.156,996 371.766,996 z" id="boundary" inkscape:connector-curvature="0" />
	<path style="fill:none;stroke:red;stroke-width:1px;stroke-linecap:butt;stroke-linejoin:miter;stroke-opacity:1" d="M 502.42,691.141 502.42,642.751 z" id="boundary" inkscape:connector-curvature="0" />
	<path style="fill:none;stroke:red;stroke-width:1px;stroke-linecap:butt;stroke-linejoin:miter;stroke-opacity:1" d="M 502.42,739.532 502.42,787.922 z" id="boundary" inkscape:connector-curvature="0" />
	<path style="fill:none;stroke:red;stroke-width:1px;stroke-linecap:butt;stroke-linejoin:miter;stroke-opacity:1" d="M 502.42,739.532 502.42,691.141 z" id="boundary" inkscape:connector-curvature="0" />
	<path style="fill:none;stroke:red;stroke-width:1px;stroke-linecap:butt;stroke-linejoin:miter;stroke-opacity:1" d="M 507.259,884.702 526.615,933.093 z" id="boundary" inkscape:connector-curvature="0" />
	<path style="fill:none;stroke:red;stroke-width:1px;stroke-linecap:butt;stroke-linejoin:miter;stroke-opacity:1" d="M 507.259,884.702 502.42,836.312 z" id="boundary" inkscape:connector-curvature="0" />
	<path style="fill:none;stroke:red;stroke-width:1px;stroke-linecap:butt;stroke-linejoin:miter;stroke-opacity:1" d="M 516.937,996 468.546,996 z" id="boundary" inkscape:connector-curvature="0" />
	<path style="fill:none;stroke:red;stroke-width:1px;stroke-linecap:butt;stroke-linejoin:miter;stroke-opacity:1" d="M 526.615,933.093 516.937,996 z" id="boundary" inkscape:connector-curvature="0" />
	<path style="fill:none;stroke:red;stroke-width:1px;stroke-linecap:butt;stroke-linejoin:miter;stroke-opacity:1" d="M 502.42,836.312 502.42,787.922 z" id="boundary" inkscape:connector-curvature="0" />
	<circle cx="4" cy="197.561" r="4" fill="#0" id="circle0"/>
	<circle cx="4" cy="245.951" r="4" fill="#0" id="circle1"/>
	<circle cx="4" cy="294.341" r="4" fill="#0" id="circle2"/>
	<circle cx="42.7122" cy="168.527" r="4" fill="#0" id="circle3"/>
	<circle cx="47.5512" cy="318.537" r="4" fill="#0" id="circle4"/>
	<circle cx="91.1024" cy="168.527" r="4" fill="#0" id="circle5"/>
	<circle cx="95.9415" cy="318.537" r="4" fill="#0" id="circle6"/>
	<circle cx="139.493" cy="71.7463" r="4" fill="#0" id="circle7"/>
	<circle cx="139.493" cy="120.137" r="4" fill="#0" id="circle8"/>
	<circle cx="144.332" cy="318.537" r="4" fill="#0" id="circle9"/>
	<circle cx="163.688" cy="28.1951" r="4" fill="#0" id="circle10"/>
	<circle cx="163.688" cy="163.688" r="4" fill="#0" id="circle11"/>
	<circle cx="168.527" cy="362.088" r="4" fill="#0" id="circle12"/>
	<circle cx="187.883" cy="410.478" r="4" fill="#0" id="circle13"/>
	<circle cx="207.239" cy="4" r="4" fill="#0" id="circle14"/>
	<circle cx="212.078" cy="168.527" r="4" fill="#0" id="circle15"/>
	<circle cx="226.595" cy="439.512" r="4" fill="#0" id="circle16"/>
	<circle cx="245.951" cy="37.8732" r="4" fill="#0" id="circle17"/>
	<circle cx="260.468" cy="168.527" r="4" fill="#0" id="circle18"/>
	<circle cx="274.985" cy="454.029" r="4" fill="#0" id="circle19"/>
	<circle cx="274.985" cy="942.771" r="4" fill="#0" id="circle20"/>
	<circle cx="274.985" cy="991.161" r="4" fill="#0" id="circle21"/>
	<circle cx="284.663" cy="66.9073" r="4" fill="#0" id="circle22"/>
	<circle cx="304.02" cy="894.38" r="4" fill="#0" id="circle23"/>
	<circle cx="308.859" cy="168.527" r="4" fill="#0" id="circle24"/>
	<circle cx="323.376" cy="468.546" r="4" fill="#0" id="circle25"/>
	<circle cx="323.376" cy="516.937" r="4" fill="#0" id="circle26"/>
	<circle cx="323.376" cy="565.327" r="4" fill="#0" id="circle27"/>
	<circle cx="323.376" cy="613.717" r="4" fill="#0" id="circle28"/>
	<circle cx="323.376" cy="662.107" r="4" fill="#0" id="circle29"/>
	<circle cx="323.376" cy="710.498" r="4" fill="#0" id="circle30"/>
	<circle cx="323.376" cy="758.888" r="4" fill="#0" id="circle31"/>
	<circle cx="323.376" cy="807.278" r="4" fill="#0" id="circle32"/>
	<circle cx="323.376" cy="996" r="4" fill="#0" id="circle33"/>
	<circle cx="357.249" cy="168.527" r="4" fill="#0" id="circle34"/>
	<circle cx="371.766" cy="996" r="4" fill="#0" id="circle35"/>
	<circle cx="381.444" cy="212.078" r="4" fill="#0" id="circle36"/>
	<circle cx="410.478" cy="250.79" r="4" fill="#0" id="circle37"/>
	<circle cx="420.156" cy="996" r="4" fill="#0" id="circle38"/>
	<circle cx="458.868" cy="265.307" r="4" fill="#0" id="circle39"/>
	<circle cx="468.546" cy="996" r="4" fill="#0" id="circle40"/>
	<circle cx="502.42" cy="400.8" r="4" fill="#0" id="circle41"/>
	<circle cx="502.42" cy="449.19" r="4" fill="#0" id="circle42"/>
	<circle cx="502.42" cy="497.58" r="4" fill="#0" id="circle43"/>
	<circle cx="502.42" cy="545.971" r="4" fill="#0" id="circle44"/>
	<circle cx="502.42" cy="594.361" r="4" fill="#0" id="circle45"/>
	<circle cx="502.42" cy="642.751" r="4" fill="#0" id="circle46"/>
	<circle cx="502.42" cy="691.141" r="4" fill="#0" id="circle47"/>
	<circle cx="502.42" cy="739.532" r="4" fill="#0" id="circle48"/>
	<circle cx="502.42" cy="787.922" r="4" fill="#0" id="circle49"/>
	<circle cx="502.42" cy="836.312" r="4" fill="#0" id="circle50"/>
	<circle cx="507.259" cy="265.307" r="4" fill="#0" id="circle51"/>
	<circle cx="507.259" cy="884.702" r="4" fill="#0" id="circle52"/>
	<circle cx="516.937" cy="996" r="4" fill="#0" id="circle53"/>
	<circle cx="521.776" cy="352.41" r="4" fill="#0" id="circle54"/>
	<circle cx="526.615" cy="933.093" r="4" fill="#0" id="circle55"/>
	<circle cx="555.649" cy="265.307" r="4" fill="#0" id="circle56"/>
	<circle cx="560.488" cy="318.537" r="4" fill="#0" id="circle57"/>
	<circle cx="604.039" cy="265.307" r="4" fill="#0" id="circle58"/>
	<circle cx="608.878" cy="318.537" r="4" fill="#0" id="circle59"/>
	</g>
</svg>