<?xml version="1.0" encoding="UTF-8" standalone="no"?>
<!-- Created with CurveBenchmark -->
<svg
	xmlns:dc="http://purl.org/dc/elements/1.1/"
	xmlns:cc="http://creativecommons.org/ns#"
	xmlns:rdf="http://www.w3.org/1999/02/22-rdf-syntax-ns#"
	xmlns:svg="http://www.w3.org/2000/svg"
	xmlns="http://www.w3.org/2000/svg"
	xmlns:sodipodi="http://sodipodi.sourceforge.net/DTD/sodipodi-0.dtd"
	xmlns:inkscape="http://www.inkscape.org/namespaces/inkscape"
	width="1000"
	height="1000"
	id="svg2"
	version="1.1"
	sodipodi:docname="manifold/gathan1-hammer170.png.txt">
<defs
	id="defs4" />
<metadata
	id="metadata7">
	<rdf:RDF>
		<cc:Work
			rdf:about="">
			<dc:format>image/svg+xml</dc:format>
			<dc:type
				rdf:resource="http://purl.org/dc/dcmitype/StillImage" />
			<dc:title></dc:title>
		</cc:Work>
	</rdf:RDF>
</metadata>
<g
	inkscape:label="Layer 1"
	inkscape:groupmode="layer"
	id="layer1">
	<path style="fill:none;stroke:red;stroke-width:1px;stroke-linecap:butt;stroke-linejoin:miter;stroke-opacity:1" d="M 4,44.2551 4,15.5014 z" id="boundary" inkscape:connector-curvature="0" />
	<path style="fill:none;stroke:red;stroke-width:1px;stroke-linecap:butt;stroke-linejoin:miter;stroke-opacity:1" d="M 4,15.5014 32.7536,4 z" id="boundary" inkscape:connector-curvature="0" />
	<path style="fill:none;stroke:red;stroke-width:1px;stroke-linecap:butt;stroke-linejoin:miter;stroke-opacity:1" d="M 90.2609,15.5014 61.5072,12.6261 z" id="boundary" inkscape:connector-curvature="0" />
	<path style="fill:none;stroke:red;stroke-width:1px;stroke-linecap:butt;stroke-linejoin:miter;stroke-opacity:1" d="M 119.014,15.5014 90.2609,15.5014 z" id="boundary" inkscape:connector-curvature="0" />
	<path style="fill:none;stroke:red;stroke-width:1px;stroke-linecap:butt;stroke-linejoin:miter;stroke-opacity:1" d="M 147.768,4 119.014,15.5014 z" id="boundary" inkscape:connector-curvature="0" />
	<path style="fill:none;stroke:red;stroke-width:1px;stroke-linecap:butt;stroke-linejoin:miter;stroke-opacity:1" d="M 32.7536,4 61.5072,12.6261 z" id="boundary" inkscape:connector-curvature="0" />
	<path style="fill:none;stroke:red;stroke-width:1px;stroke-linecap:butt;stroke-linejoin:miter;stroke-opacity:1" d="M 55.7565,81.6348 27.0029,93.1362 z" id="boundary" inkscape:connector-curvature="0" />
	<path style="fill:none;stroke:red;stroke-width:1px;stroke-linecap:butt;stroke-linejoin:miter;stroke-opacity:1" d="M 27.0029,93.1362 4,73.0087 z" id="boundary" inkscape:connector-curvature="0" />
	<path style="fill:none;stroke:red;stroke-width:1px;stroke-linecap:butt;stroke-linejoin:miter;stroke-opacity:1" d="M 4,73.0087 4,44.2551 z" id="boundary" inkscape:connector-curvature="0" />
	<path style="fill:none;stroke:red;stroke-width:1px;stroke-linecap:butt;stroke-linejoin:miter;stroke-opacity:1" d="M 55.7565,81.6348 84.5101,75.8841 z" id="boundary" inkscape:connector-curvature="0" />
	<path style="fill:none;stroke:red;stroke-width:1px;stroke-linecap:butt;stroke-linejoin:miter;stroke-opacity:1" d="M 113.264,78.7594 84.5101,75.8841 z" id="boundary" inkscape:connector-curvature="0" />
	<path style="fill:none;stroke:red;stroke-width:1px;stroke-linecap:butt;stroke-linejoin:miter;stroke-opacity:1" d="M 113.264,78.7594 130.516,101.762 z" id="boundary" inkscape:connector-curvature="0" />
	<path style="fill:none;stroke:red;stroke-width:1px;stroke-linecap:butt;stroke-linejoin:miter;stroke-opacity:1" d="M 139.142,159.27 130.516,130.516 z" id="boundary" inkscape:connector-curvature="0" />
	<path style="fill:none;stroke:red;stroke-width:1px;stroke-linecap:butt;stroke-linejoin:miter;stroke-opacity:1" d="M 130.516,130.516 130.516,101.762 z" id="boundary" inkscape:connector-curvature="0" />
	<path style="fill:none;stroke:red;stroke-width:1px;stroke-linecap:butt;stroke-linejoin:miter;stroke-opacity:1" d="M 139.142,159.27 147.768,188.023 z" id="boundary" inkscape:connector-curvature="0" />
	<path style="fill:none;stroke:red;stroke-width:1px;stroke-linecap:butt;stroke-linejoin:miter;stroke-opacity:1" d="M 176.522,4 205.275,4 z" id="boundary" inkscape:connector-curvature="0" />
	<path style="fill:none;stroke:red;stroke-width:1px;stroke-linecap:butt;stroke-linejoin:miter;stroke-opacity:1" d="M 147.768,4 176.522,4 z" id="boundary" inkscape:connector-curvature="0" />
	<path style="fill:none;stroke:red;stroke-width:1px;stroke-linecap:butt;stroke-linejoin:miter;stroke-opacity:1" d="M 153.519,216.777 153.519,245.53 z" id="boundary" inkscape:connector-curvature="0" />
	<path style="fill:none;stroke:red;stroke-width:1px;stroke-linecap:butt;stroke-linejoin:miter;stroke-opacity:1" d="M 153.519,216.777 147.768,188.023 z" id="boundary" inkscape:connector-curvature="0" />
	<path style="fill:none;stroke:red;stroke-width:1px;stroke-linecap:butt;stroke-linejoin:miter;stroke-opacity:1" d="M 159.27,274.284 153.519,245.53 z" id="boundary" inkscape:connector-curvature="0" />
	<path style="fill:none;stroke:red;stroke-width:1px;stroke-linecap:butt;stroke-linejoin:miter;stroke-opacity:1" d="M 159.27,274.284 159.27,303.038 z" id="boundary" inkscape:connector-curvature="0" />
	<path style="fill:none;stroke:red;stroke-width:1px;stroke-linecap:butt;stroke-linejoin:miter;stroke-opacity:1" d="M 159.27,331.791 159.27,303.038 z" id="boundary" inkscape:connector-curvature="0" />
	<path style="fill:none;stroke:red;stroke-width:1px;stroke-linecap:butt;stroke-linejoin:miter;stroke-opacity:1" d="M 159.27,360.545 159.27,331.791 z" id="boundary" inkscape:connector-curvature="0" />
	<path style="fill:none;stroke:red;stroke-width:1px;stroke-linecap:butt;stroke-linejoin:miter;stroke-opacity:1" d="M 124.765,538.817 124.765,567.571 z" id="boundary" inkscape:connector-curvature="0" />
	<path style="fill:none;stroke:red;stroke-width:1px;stroke-linecap:butt;stroke-linejoin:miter;stroke-opacity:1" d="M 124.765,538.817 124.765,510.064 z" id="boundary" inkscape:connector-curvature="0" />
	<path style="fill:none;stroke:red;stroke-width:1px;stroke-linecap:butt;stroke-linejoin:miter;stroke-opacity:1" d="M 124.765,596.325 124.765,625.078 z" id="boundary" inkscape:connector-curvature="0" />
	<path style="fill:none;stroke:red;stroke-width:1px;stroke-linecap:butt;stroke-linejoin:miter;stroke-opacity:1" d="M 124.765,596.325 124.765,567.571 z" id="boundary" inkscape:connector-curvature="0" />
	<path style="fill:none;stroke:red;stroke-width:1px;stroke-linecap:butt;stroke-linejoin:miter;stroke-opacity:1" d="M 124.765,625.078 124.765,653.832 z" id="boundary" inkscape:connector-curvature="0" />
	<path style="fill:none;stroke:red;stroke-width:1px;stroke-linecap:butt;stroke-linejoin:miter;stroke-opacity:1" d="M 119.014,906.864 119.014,935.617 z" id="boundary" inkscape:connector-curvature="0" />
	<path style="fill:none;stroke:red;stroke-width:1px;stroke-linecap:butt;stroke-linejoin:miter;stroke-opacity:1" d="M 119.014,935.617 113.264,975.872 z" id="boundary" inkscape:connector-curvature="0" />
	<path style="fill:none;stroke:red;stroke-width:1px;stroke-linecap:butt;stroke-linejoin:miter;stroke-opacity:1" d="M 136.267,996 113.264,975.872 z" id="boundary" inkscape:connector-curvature="0" />
	<path style="fill:none;stroke:red;stroke-width:1px;stroke-linecap:butt;stroke-linejoin:miter;stroke-opacity:1" d="M 124.765,682.586 124.765,711.339 z" id="boundary" inkscape:connector-curvature="0" />
	<path style="fill:none;stroke:red;stroke-width:1px;stroke-linecap:butt;stroke-linejoin:miter;stroke-opacity:1" d="M 124.765,740.093 124.765,711.339 z" id="boundary" inkscape:connector-curvature="0" />
	<path style="fill:none;stroke:red;stroke-width:1px;stroke-linecap:butt;stroke-linejoin:miter;stroke-opacity:1" d="M 124.765,653.832 124.765,682.586 z" id="boundary" inkscape:connector-curvature="0" />
	<path style="fill:none;stroke:red;stroke-width:1px;stroke-linecap:butt;stroke-linejoin:miter;stroke-opacity:1" d="M 124.765,740.093 124.765,768.846 z" id="boundary" inkscape:connector-curvature="0" />
	<path style="fill:none;stroke:red;stroke-width:1px;stroke-linecap:butt;stroke-linejoin:miter;stroke-opacity:1" d="M 124.765,797.6 124.765,768.846 z" id="boundary" inkscape:connector-curvature="0" />
	<path style="fill:none;stroke:red;stroke-width:1px;stroke-linecap:butt;stroke-linejoin:miter;stroke-opacity:1" d="M 124.765,510.064 130.516,469.809 z" id="boundary" inkscape:connector-curvature="0" />
	<path style="fill:none;stroke:red;stroke-width:1px;stroke-linecap:butt;stroke-linejoin:miter;stroke-opacity:1" d="M 159.27,389.299 147.768,441.055 z" id="boundary" inkscape:connector-curvature="0" />
	<path style="fill:none;stroke:red;stroke-width:1px;stroke-linecap:butt;stroke-linejoin:miter;stroke-opacity:1" d="M 147.768,441.055 130.516,469.809 z" id="boundary" inkscape:connector-curvature="0" />
	<path style="fill:none;stroke:red;stroke-width:1px;stroke-linecap:butt;stroke-linejoin:miter;stroke-opacity:1" d="M 159.27,360.545 159.27,389.299 z" id="boundary" inkscape:connector-curvature="0" />
	<path style="fill:none;stroke:red;stroke-width:1px;stroke-linecap:butt;stroke-linejoin:miter;stroke-opacity:1" d="M 124.765,797.6 124.765,826.354 z" id="boundary" inkscape:connector-curvature="0" />
	<path style="fill:none;stroke:red;stroke-width:1px;stroke-linecap:butt;stroke-linejoin:miter;stroke-opacity:1" d="M 124.765,855.107 124.765,826.354 z" id="boundary" inkscape:connector-curvature="0" />
	<path style="fill:none;stroke:red;stroke-width:1px;stroke-linecap:butt;stroke-linejoin:miter;stroke-opacity:1" d="M 119.014,906.864 124.765,855.107 z" id="boundary" inkscape:connector-curvature="0" />
	<path style="fill:none;stroke:red;stroke-width:1px;stroke-linecap:butt;stroke-linejoin:miter;stroke-opacity:1" d="M 165.02,996 136.267,996 z" id="boundary" inkscape:connector-curvature="0" />
	<path style="fill:none;stroke:red;stroke-width:1px;stroke-linecap:butt;stroke-linejoin:miter;stroke-opacity:1" d="M 193.774,996 165.02,996 z" id="boundary" inkscape:connector-curvature="0" />
	<path style="fill:none;stroke:red;stroke-width:1px;stroke-linecap:butt;stroke-linejoin:miter;stroke-opacity:1" d="M 248.406,159.27 236.904,193.774 z" id="boundary" inkscape:connector-curvature="0" />
	<path style="fill:none;stroke:red;stroke-width:1px;stroke-linecap:butt;stroke-linejoin:miter;stroke-opacity:1" d="M 254.157,130.516 248.406,159.27 z" id="boundary" inkscape:connector-curvature="0" />
	<path style="fill:none;stroke:red;stroke-width:1px;stroke-linecap:butt;stroke-linejoin:miter;stroke-opacity:1" d="M 259.907,84.5101 254.157,130.516 z" id="boundary" inkscape:connector-curvature="0" />
	<path style="fill:none;stroke:red;stroke-width:1px;stroke-linecap:butt;stroke-linejoin:miter;stroke-opacity:1" d="M 234.029,4 262.783,4 z" id="boundary" inkscape:connector-curvature="0" />
	<path style="fill:none;stroke:red;stroke-width:1px;stroke-linecap:butt;stroke-linejoin:miter;stroke-opacity:1" d="M 262.783,4 288.661,18.3768 z" id="boundary" inkscape:connector-curvature="0" />
	<path style="fill:none;stroke:red;stroke-width:1px;stroke-linecap:butt;stroke-linejoin:miter;stroke-opacity:1" d="M 231.154,268.533 231.154,297.287 z" id="boundary" inkscape:connector-curvature="0" />
	<path style="fill:none;stroke:red;stroke-width:1px;stroke-linecap:butt;stroke-linejoin:miter;stroke-opacity:1" d="M 231.154,239.78 236.904,193.774 z" id="boundary" inkscape:connector-curvature="0" />
	<path style="fill:none;stroke:red;stroke-width:1px;stroke-linecap:butt;stroke-linejoin:miter;stroke-opacity:1" d="M 231.154,268.533 231.154,239.78 z" id="boundary" inkscape:connector-curvature="0" />
	<path style="fill:none;stroke:red;stroke-width:1px;stroke-linecap:butt;stroke-linejoin:miter;stroke-opacity:1" d="M 231.154,297.287 231.154,326.041 z" id="boundary" inkscape:connector-curvature="0" />
	<path style="fill:none;stroke:red;stroke-width:1px;stroke-linecap:butt;stroke-linejoin:miter;stroke-opacity:1" d="M 231.154,354.794 231.154,326.041 z" id="boundary" inkscape:connector-curvature="0" />
	<path style="fill:none;stroke:red;stroke-width:1px;stroke-linecap:butt;stroke-linejoin:miter;stroke-opacity:1" d="M 231.154,354.794 231.154,383.548 z" id="boundary" inkscape:connector-curvature="0" />
	<path style="fill:none;stroke:red;stroke-width:1px;stroke-linecap:butt;stroke-linejoin:miter;stroke-opacity:1" d="M 259.907,84.5101 288.661,87.3855 z" id="boundary" inkscape:connector-curvature="0" />
	<path style="fill:none;stroke:red;stroke-width:1px;stroke-linecap:butt;stroke-linejoin:miter;stroke-opacity:1" d="M 205.275,4 234.029,4 z" id="boundary" inkscape:connector-curvature="0" />
	<path style="fill:none;stroke:red;stroke-width:1px;stroke-linecap:butt;stroke-linejoin:miter;stroke-opacity:1" d="M 288.661,18.3768 311.664,35.629 z" id="boundary" inkscape:connector-curvature="0" />
	<path style="fill:none;stroke:red;stroke-width:1px;stroke-linecap:butt;stroke-linejoin:miter;stroke-opacity:1" d="M 311.664,35.629 334.667,55.7565 z" id="boundary" inkscape:connector-curvature="0" />
	<path style="fill:none;stroke:red;stroke-width:1px;stroke-linecap:butt;stroke-linejoin:miter;stroke-opacity:1" d="M 334.667,55.7565 351.919,78.7594 z" id="boundary" inkscape:connector-curvature="0" />
	<path style="fill:none;stroke:red;stroke-width:1px;stroke-linecap:butt;stroke-linejoin:miter;stroke-opacity:1" d="M 314.539,101.762 288.661,87.3855 z" id="boundary" inkscape:connector-curvature="0" />
	<path style="fill:none;stroke:red;stroke-width:1px;stroke-linecap:butt;stroke-linejoin:miter;stroke-opacity:1" d="M 337.542,119.014 314.539,101.762 z" id="boundary" inkscape:connector-curvature="0" />
	<path style="fill:none;stroke:red;stroke-width:1px;stroke-linecap:butt;stroke-linejoin:miter;stroke-opacity:1" d="M 354.794,142.017 337.542,119.014 z" id="boundary" inkscape:connector-curvature="0" />
	<path style="fill:none;stroke:red;stroke-width:1px;stroke-linecap:butt;stroke-linejoin:miter;stroke-opacity:1" d="M 351.919,78.7594 369.171,101.762 z" id="boundary" inkscape:connector-curvature="0" />
	<path style="fill:none;stroke:red;stroke-width:1px;stroke-linecap:butt;stroke-linejoin:miter;stroke-opacity:1" d="M 369.171,101.762 383.548,127.641 z" id="boundary" inkscape:connector-curvature="0" />
	<path style="fill:none;stroke:red;stroke-width:1px;stroke-linecap:butt;stroke-linejoin:miter;stroke-opacity:1" d="M 383.548,127.641 397.925,179.397 z" id="boundary" inkscape:connector-curvature="0" />
	<path style="fill:none;stroke:red;stroke-width:1px;stroke-linecap:butt;stroke-linejoin:miter;stroke-opacity:1" d="M 397.925,179.397 372.046,165.02 z" id="boundary" inkscape:connector-curvature="0" />
	<path style="fill:none;stroke:red;stroke-width:1px;stroke-linecap:butt;stroke-linejoin:miter;stroke-opacity:1" d="M 372.046,165.02 354.794,142.017 z" id="boundary" inkscape:connector-curvature="0" />
	<path style="fill:none;stroke:red;stroke-width:1px;stroke-linecap:butt;stroke-linejoin:miter;stroke-opacity:1" d="M 231.154,412.301 236.904,441.055 z" id="boundary" inkscape:connector-curvature="0" />
	<path style="fill:none;stroke:red;stroke-width:1px;stroke-linecap:butt;stroke-linejoin:miter;stroke-opacity:1" d="M 231.154,412.301 231.154,383.548 z" id="boundary" inkscape:connector-curvature="0" />
	<path style="fill:none;stroke:red;stroke-width:1px;stroke-linecap:butt;stroke-linejoin:miter;stroke-opacity:1" d="M 259.907,495.687 245.53,469.809 z" id="boundary" inkscape:connector-curvature="0" />
	<path style="fill:none;stroke:red;stroke-width:1px;stroke-linecap:butt;stroke-linejoin:miter;stroke-opacity:1" d="M 245.53,469.809 236.904,441.055 z" id="boundary" inkscape:connector-curvature="0" />
	<path style="fill:none;stroke:red;stroke-width:1px;stroke-linecap:butt;stroke-linejoin:miter;stroke-opacity:1" d="M 259.907,495.687 259.907,524.441 z" id="boundary" inkscape:connector-curvature="0" />
	<path style="fill:none;stroke:red;stroke-width:1px;stroke-linecap:butt;stroke-linejoin:miter;stroke-opacity:1" d="M 271.409,955.745 251.281,996 z" id="boundary" inkscape:connector-curvature="0" />
	<path style="fill:none;stroke:red;stroke-width:1px;stroke-linecap:butt;stroke-linejoin:miter;stroke-opacity:1" d="M 251.281,996 222.528,996 z" id="boundary" inkscape:connector-curvature="0" />
	<path style="fill:none;stroke:red;stroke-width:1px;stroke-linecap:butt;stroke-linejoin:miter;stroke-opacity:1" d="M 259.907,524.441 265.658,553.194 z" id="boundary" inkscape:connector-curvature="0" />
	<path style="fill:none;stroke:red;stroke-width:1px;stroke-linecap:butt;stroke-linejoin:miter;stroke-opacity:1" d="M 265.658,696.962 265.658,725.716 z" id="boundary" inkscape:connector-curvature="0" />
	<path style="fill:none;stroke:red;stroke-width:1px;stroke-linecap:butt;stroke-linejoin:miter;stroke-opacity:1" d="M 265.658,553.194 265.658,581.948 z" id="boundary" inkscape:connector-curvature="0" />
	<path style="fill:none;stroke:red;stroke-width:1px;stroke-linecap:butt;stroke-linejoin:miter;stroke-opacity:1" d="M 265.658,610.701 265.658,581.948 z" id="boundary" inkscape:connector-curvature="0" />
	<path style="fill:none;stroke:red;stroke-width:1px;stroke-linecap:butt;stroke-linejoin:miter;stroke-opacity:1" d="M 265.658,610.701 265.658,639.455 z" id="boundary" inkscape:connector-curvature="0" />
	<path style="fill:none;stroke:red;stroke-width:1px;stroke-linecap:butt;stroke-linejoin:miter;stroke-opacity:1" d="M 265.658,639.455 265.658,668.209 z" id="boundary" inkscape:connector-curvature="0" />
	<path style="fill:none;stroke:red;stroke-width:1px;stroke-linecap:butt;stroke-linejoin:miter;stroke-opacity:1" d="M 265.658,696.962 265.658,668.209 z" id="boundary" inkscape:connector-curvature="0" />
	<path style="fill:none;stroke:red;stroke-width:1px;stroke-linecap:butt;stroke-linejoin:miter;stroke-opacity:1" d="M 265.658,754.47 265.658,783.223 z" id="boundary" inkscape:connector-curvature="0" />
	<path style="fill:none;stroke:red;stroke-width:1px;stroke-linecap:butt;stroke-linejoin:miter;stroke-opacity:1" d="M 265.658,754.47 265.658,725.716 z" id="boundary" inkscape:connector-curvature="0" />
	<path style="fill:none;stroke:red;stroke-width:1px;stroke-linecap:butt;stroke-linejoin:miter;stroke-opacity:1" d="M 265.658,783.223 265.658,811.977 z" id="boundary" inkscape:connector-curvature="0" />
	<path style="fill:none;stroke:red;stroke-width:1px;stroke-linecap:butt;stroke-linejoin:miter;stroke-opacity:1" d="M 265.658,840.73 265.658,869.484 z" id="boundary" inkscape:connector-curvature="0" />
	<path style="fill:none;stroke:red;stroke-width:1px;stroke-linecap:butt;stroke-linejoin:miter;stroke-opacity:1" d="M 265.658,840.73 265.658,811.977 z" id="boundary" inkscape:connector-curvature="0" />
	<path style="fill:none;stroke:red;stroke-width:1px;stroke-linecap:butt;stroke-linejoin:miter;stroke-opacity:1" d="M 265.658,869.484 265.658,898.238 z" id="boundary" inkscape:connector-curvature="0" />
	<path style="fill:none;stroke:red;stroke-width:1px;stroke-linecap:butt;stroke-linejoin:miter;stroke-opacity:1" d="M 271.409,955.745 265.658,926.991 z" id="boundary" inkscape:connector-curvature="0" />
	<path style="fill:none;stroke:red;stroke-width:1px;stroke-linecap:butt;stroke-linejoin:miter;stroke-opacity:1" d="M 265.658,926.991 265.658,898.238 z" id="boundary" inkscape:connector-curvature="0" />
	<path style="fill:none;stroke:red;stroke-width:1px;stroke-linecap:butt;stroke-linejoin:miter;stroke-opacity:1" d="M 222.528,996 193.774,996 z" id="boundary" inkscape:connector-curvature="0" />
	<circle cx="4" cy="15.5014" r="4" fill="#0" id="circle0"/>
	<circle cx="4" cy="44.2551" r="4" fill="#0" id="circle1"/>
	<circle cx="4" cy="73.0087" r="4" fill="#0" id="circle2"/>
	<circle cx="27.0029" cy="93.1362" r="4" fill="#0" id="circle3"/>
	<circle cx="32.7536" cy="4" r="4" fill="#0" id="circle4"/>
	<circle cx="55.7565" cy="81.6348" r="4" fill="#0" id="circle5"/>
	<circle cx="61.5072" cy="12.6261" r="4" fill="#0" id="circle6"/>
	<circle cx="84.5101" cy="75.8841" r="4" fill="#0" id="circle7"/>
	<circle cx="90.2609" cy="15.5014" r="4" fill="#0" id="circle8"/>
	<circle cx="113.264" cy="78.7594" r="4" fill="#0" id="circle9"/>
	<circle cx="113.264" cy="975.872" r="4" fill="#0" id="circle10"/>
	<circle cx="119.014" cy="15.5014" r="4" fill="#0" id="circle11"/>
	<circle cx="119.014" cy="906.864" r="4" fill="#0" id="circle12"/>
	<circle cx="119.014" cy="935.617" r="4" fill="#0" id="circle13"/>
	<circle cx="124.765" cy="510.064" r="4" fill="#0" id="circle14"/>
	<circle cx="124.765" cy="538.817" r="4" fill="#0" id="circle15"/>
	<circle cx="124.765" cy="567.571" r="4" fill="#0" id="circle16"/>
	<circle cx="124.765" cy="596.325" r="4" fill="#0" id="circle17"/>
	<circle cx="124.765" cy="625.078" r="4" fill="#0" id="circle18"/>
	<circle cx="124.765" cy="653.832" r="4" fill="#0" id="circle19"/>
	<circle cx="124.765" cy="682.586" r="4" fill="#0" id="circle20"/>
	<circle cx="124.765" cy="711.339" r="4" fill="#0" id="circle21"/>
	<circle cx="124.765" cy="740.093" r="4" fill="#0" id="circle22"/>
	<circle cx="124.765" cy="768.846" r="4" fill="#0" id="circle23"/>
	<circle cx="124.765" cy="797.6" r="4" fill="#0" id="circle24"/>
	<circle cx="124.765" cy="826.354" r="4" fill="#0" id="circle25"/>
	<circle cx="124.765" cy="855.107" r="4" fill="#0" id="circle26"/>
	<circle cx="130.516" cy="101.762" r="4" fill="#0" id="circle27"/>
	<circle cx="130.516" cy="130.516" r="4" fill="#0" id="circle28"/>
	<circle cx="130.516" cy="469.809" r="4" fill="#0" id="circle29"/>
	<circle cx="136.267" cy="996" r="4" fill="#0" id="circle30"/>
	<circle cx="139.142" cy="159.27" r="4" fill="#0" id="circle31"/>
	<circle cx="147.768" cy="4" r="4" fill="#0" id="circle32"/>
	<circle cx="147.768" cy="188.023" r="4" fill="#0" id="circle33"/>
	<circle cx="147.768" cy="441.055" r="4" fill="#0" id="circle34"/>
	<circle cx="153.519" cy="216.777" r="4" fill="#0" id="circle35"/>
	<circle cx="153.519" cy="245.53" r="4" fill="#0" id="circle36"/>
	<circle cx="159.27" cy="274.284" r="4" fill="#0" id="circle37"/>
	<circle cx="159.27" cy="303.038" r="4" fill="#0" id="circle38"/>
	<circle cx="159.27" cy="331.791" r="4" fill="#0" id="circle39"/>
	<circle cx="159.27" cy="360.545" r="4" fill="#0" id="circle40"/>
	<circle cx="159.27" cy="389.299" r="4" fill="#0" id="circle41"/>
	<circle cx="165.02" cy="996" r="4" fill="#0" id="circle42"/>
	<circle cx="176.522" cy="4" r="4" fill="#0" id="circle43"/>
	<circle cx="193.774" cy="996" r="4" fill="#0" id="circle44"/>
	<circle cx="205.275" cy="4" r="4" fill="#0" id="circle45"/>
	<circle cx="222.528" cy="996" r="4" fill="#0" id="circle46"/>
	<circle cx="231.154" cy="239.78" r="4" fill="#0" id="circle47"/>
	<circle cx="231.154" cy="268.533" r="4" fill="#0" id="circle48"/>
	<circle cx="231.154" cy="297.287" r="4" fill="#0" id="circle49"/>
	<circle cx="231.154" cy="326.041" r="4" fill="#0" id="circle50"/>
	<circle cx="231.154" cy="354.794" r="4" fill="#0" id="circle51"/>
	<circle cx="231.154" cy="383.548" r="4" fill="#0" id="circle52"/>
	<circle cx="231.154" cy="412.301" r="4" fill="#0" id="circle53"/>
	<circle cx="234.029" cy="4" r="4" fill="#0" id="circle54"/>
	<circle cx="236.904" cy="193.774" r="4" fill="#0" id="circle55"/>
	<circle cx="236.904" cy="441.055" r="4" fill="#0" id="circle56"/>
	<circle cx="245.53" cy="469.809" r="4" fill="#0" id="circle57"/>
	<circle cx="248.406" cy="159.27" r="4" fill="#0" id="circle58"/>
	<circle cx="251.281" cy="996" r="4" fill="#0" id="circle59"/>
	<circle cx="254.157" cy="130.516" r="4" fill="#0" id="circle60"/>
	<circle cx="259.907" cy="84.5101" r="4" fill="#0" id="circle61"/>
	<circle cx="259.907" cy="495.687" r="4" fill="#0" id="circle62"/>
	<circle cx="259.907" cy="524.441" r="4" fill="#0" id="circle63"/>
	<circle cx="262.783" cy="4" r="4" fill="#0" id="circle64"/>
	<circle cx="265.658" cy="553.194" r="4" fill="#0" id="circle65"/>
	<circle cx="265.658" cy="581.948" r="4" fill="#0" id="circle66"/>
	<circle cx="265.658" cy="610.701" r="4" fill="#0" id="circle67"/>
	<circle cx="265.658" cy="639.455" r="4" fill="#0" id="circle68"/>
	<circle cx="265.658" cy="668.209" r="4" fill="#0" id="circle69"/>
	<circle cx="265.658" cy="696.962" r="4" fill="#0" id="circle70"/>
	<circle cx="265.658" cy="725.716" r="4" fill="#0" id="circle71"/>
	<circle cx="265.658" cy="754.47" r="4" fill="#0" id="circle72"/>
	<circle cx="265.658" cy="783.223" r="4" fill="#0" id="circle73"/>
	<circle cx="265.658" cy="811.977" r="4" fill="#0" id="circle74"/>
	<circle cx="265.658" cy="840.73" r="4" fill="#0" id="circle75"/>
	<circle cx="265.658" cy="869.484" r="4" fill="#0" id="circle76"/>
	<circle cx="265.658" cy="898.238" r="4" fill="#0" id="circle77"/>
	<circle cx="265.658" cy="926.991" r="4" fill="#0" id="circle78"/>
	<circle cx="271.409" cy="955.745" r="4" fill="#0" id="circle79"/>
	<circle cx="288.661" cy="18.3768" r="4" fill="#0" id="circle80"/>
	<circle cx="288.661" cy="87.3855" r="4" fill="#0" id="circle81"/>
	<circle cx="311.664" cy="35.629" r="4" fill="#0" id="circle82"/>
	<circle cx="314.539" cy="101.762" r="4" fill="#0" id="circle83"/>
	<circle cx="334.667" cy="55.7565" r="4" fill="#0" id="circle84"/>
	<circle cx="337.542" cy="119.014" r="4" fill="#0" id="circle85"/>
	<circle cx="351.919" cy="78.7594" r="4" fill="#0" id="circle86"/>
	<circle cx="354.794" cy="142.017" r="4" fill="#0" id="circle87"/>
	<circle cx="369.171" cy="101.762" r="4" fill="#0" id="circle88"/>
	<circle cx="372.046" cy="165.02" r="4" fill="#0" id="circle89"/>
	<circle cx="383.548" cy="127.641" r="4" fill="#0" id="circle90"/>
	<circle cx="397.925" cy="179.397" r="4" fill="#0" id="circle91"/>
	</g>
</svg>