<?xml version="1.0" encoding="UTF-8" standalone="no"?>
<!-- Created with CurveBenchmark -->
<svg
	xmlns:dc="http://purl.org/dc/elements/1.1/"
	xmlns:cc="http://creativecommons.org/ns#"
	xmlns:rdf="http://www.w3.org/1999/02/22-rdf-syntax-ns#"
	xmlns:svg="http://www.w3.org/2000/svg"
	xmlns="http://www.w3.org/2000/svg"
	xmlns:sodipodi="http://sodipodi.sourceforge.net/DTD/sodipodi-0.dtd"
	xmlns:inkscape="http://www.inkscape.org/namespaces/inkscape"
	width="1000"
	height="1000"
	id="svg2"
	version="1.1"
	sodipodi:docname="manifold/gathang-dude10occ4.png.txt">
<defs
	id="defs4" />
<metadata
	id="metadata7">
	<rdf:RDF>
		<cc:Work
			rdf:about="">
			<dc:format>image/svg+xml</dc:format>
			<dc:type
				rdf:resource="http://purl.org/dc/dcmitype/StillImage" />
			<dc:title></dc:title>
		</cc:Work>
	</rdf:RDF>
</metadata>
<g
	inkscape:label="Layer 1"
	inkscape:groupmode="layer"
	id="layer1">
	<path style="fill:none;stroke:red;stroke-width:1px;stroke-linecap:butt;stroke-linejoin:miter;stroke-opacity:1" d="M 151.586,310.38 136.64,323.458 z" id="boundary" inkscape:connector-curvature="0" />
	<path style="fill:none;stroke:red;stroke-width:1px;stroke-linecap:butt;stroke-linejoin:miter;stroke-opacity:1" d="M 93.6723,256.203 86.1996,274.885 z" id="boundary" inkscape:connector-curvature="0" />
	<path style="fill:none;stroke:red;stroke-width:1px;stroke-linecap:butt;stroke-linejoin:miter;stroke-opacity:1" d="M 86.1996,274.885 71.2542,287.962 z" id="boundary" inkscape:connector-curvature="0" />
	<path style="fill:none;stroke:red;stroke-width:1px;stroke-linecap:butt;stroke-linejoin:miter;stroke-opacity:1" d="M 52.5725,325.326 61.9134,306.644 z" id="boundary" inkscape:connector-curvature="0" />
	<path style="fill:none;stroke:red;stroke-width:1px;stroke-linecap:butt;stroke-linejoin:miter;stroke-opacity:1" d="M 52.5725,325.326 37.6271,340.271 z" id="boundary" inkscape:connector-curvature="0" />
	<path style="fill:none;stroke:red;stroke-width:1px;stroke-linecap:butt;stroke-linejoin:miter;stroke-opacity:1" d="M 71.2542,287.962 61.9134,306.644 z" id="boundary" inkscape:connector-curvature="0" />
	<path style="fill:none;stroke:red;stroke-width:1px;stroke-linecap:butt;stroke-linejoin:miter;stroke-opacity:1" d="M 103.013,237.522 93.6723,256.203 z" id="boundary" inkscape:connector-curvature="0" />
	<path style="fill:none;stroke:red;stroke-width:1px;stroke-linecap:butt;stroke-linejoin:miter;stroke-opacity:1" d="M 149.718,190.817 134.772,205.763 z" id="boundary" inkscape:connector-curvature="0" />
	<path style="fill:none;stroke:red;stroke-width:1px;stroke-linecap:butt;stroke-linejoin:miter;stroke-opacity:1" d="M 134.772,205.763 116.09,215.104 z" id="boundary" inkscape:connector-curvature="0" />
	<path style="fill:none;stroke:red;stroke-width:1px;stroke-linecap:butt;stroke-linejoin:miter;stroke-opacity:1" d="M 103.013,237.522 116.09,215.104 z" id="boundary" inkscape:connector-curvature="0" />
	<path style="fill:none;stroke:red;stroke-width:1px;stroke-linecap:butt;stroke-linejoin:miter;stroke-opacity:1" d="M 136.64,323.458 123.563,347.744 z" id="boundary" inkscape:connector-curvature="0" />
	<path style="fill:none;stroke:red;stroke-width:1px;stroke-linecap:butt;stroke-linejoin:miter;stroke-opacity:1" d="M 18.9454,377.635 28.2863,358.953 z" id="boundary" inkscape:connector-curvature="0" />
	<path style="fill:none;stroke:red;stroke-width:1px;stroke-linecap:butt;stroke-linejoin:miter;stroke-opacity:1" d="M 37.6271,340.271 28.2863,358.953 z" id="boundary" inkscape:connector-curvature="0" />
	<path style="fill:none;stroke:red;stroke-width:1px;stroke-linecap:butt;stroke-linejoin:miter;stroke-opacity:1" d="M 4,392.58 18.9454,377.635 z" id="boundary" inkscape:connector-curvature="0" />
	<path style="fill:none;stroke:red;stroke-width:1px;stroke-linecap:butt;stroke-linejoin:miter;stroke-opacity:1" d="M 4,411.262 4,392.58 z" id="boundary" inkscape:connector-curvature="0" />
	<path style="fill:none;stroke:red;stroke-width:1px;stroke-linecap:butt;stroke-linejoin:miter;stroke-opacity:1" d="M 99.2768,379.503 108.618,360.821 z" id="boundary" inkscape:connector-curvature="0" />
	<path style="fill:none;stroke:red;stroke-width:1px;stroke-linecap:butt;stroke-linejoin:miter;stroke-opacity:1" d="M 108.618,360.821 123.563,347.744 z" id="boundary" inkscape:connector-curvature="0" />
	<path style="fill:none;stroke:red;stroke-width:1px;stroke-linecap:butt;stroke-linejoin:miter;stroke-opacity:1" d="M 99.2768,379.503 86.1996,394.448 z" id="boundary" inkscape:connector-curvature="0" />
	<path style="fill:none;stroke:red;stroke-width:1px;stroke-linecap:butt;stroke-linejoin:miter;stroke-opacity:1" d="M 71.2542,407.525 52.5725,416.866 z" id="boundary" inkscape:connector-curvature="0" />
	<path style="fill:none;stroke:red;stroke-width:1px;stroke-linecap:butt;stroke-linejoin:miter;stroke-opacity:1" d="M 86.1996,394.448 71.2542,407.525 z" id="boundary" inkscape:connector-curvature="0" />
	<path style="fill:none;stroke:red;stroke-width:1px;stroke-linecap:butt;stroke-linejoin:miter;stroke-opacity:1" d="M 37.6271,433.68 52.5725,416.866 z" id="boundary" inkscape:connector-curvature="0" />
	<path style="fill:none;stroke:red;stroke-width:1px;stroke-linecap:butt;stroke-linejoin:miter;stroke-opacity:1" d="M 239.39,162.795 220.708,162.795 z" id="boundary" inkscape:connector-curvature="0" />
	<path style="fill:none;stroke:red;stroke-width:1px;stroke-linecap:butt;stroke-linejoin:miter;stroke-opacity:1" d="M 256.203,140.377 239.39,162.795 z" id="boundary" inkscape:connector-curvature="0" />
	<path style="fill:none;stroke:red;stroke-width:1px;stroke-linecap:butt;stroke-linejoin:miter;stroke-opacity:1" d="M 220.708,162.795 202.026,166.531 z" id="boundary" inkscape:connector-curvature="0" />
	<path style="fill:none;stroke:red;stroke-width:1px;stroke-linecap:butt;stroke-linejoin:miter;stroke-opacity:1" d="M 183.345,172.136 202.026,166.531 z" id="boundary" inkscape:connector-curvature="0" />
	<path style="fill:none;stroke:red;stroke-width:1px;stroke-linecap:butt;stroke-linejoin:miter;stroke-opacity:1" d="M 246.863,65.6497 246.863,84.3315 z" id="boundary" inkscape:connector-curvature="0" />
	<path style="fill:none;stroke:red;stroke-width:1px;stroke-linecap:butt;stroke-linejoin:miter;stroke-opacity:1" d="M 166.531,181.476 149.718,190.817 z" id="boundary" inkscape:connector-curvature="0" />
	<path style="fill:none;stroke:red;stroke-width:1px;stroke-linecap:butt;stroke-linejoin:miter;stroke-opacity:1" d="M 256.203,101.145 246.863,84.3315 z" id="boundary" inkscape:connector-curvature="0" />
	<path style="fill:none;stroke:red;stroke-width:1px;stroke-linecap:butt;stroke-linejoin:miter;stroke-opacity:1" d="M 246.863,65.6497 256.203,46.968 z" id="boundary" inkscape:connector-curvature="0" />
	<path style="fill:none;stroke:red;stroke-width:1px;stroke-linecap:butt;stroke-linejoin:miter;stroke-opacity:1" d="M 256.203,101.145 265.544,117.959 z" id="boundary" inkscape:connector-curvature="0" />
	<path style="fill:none;stroke:red;stroke-width:1px;stroke-linecap:butt;stroke-linejoin:miter;stroke-opacity:1" d="M 265.544,117.959 256.203,140.377 z" id="boundary" inkscape:connector-curvature="0" />
	<path style="fill:none;stroke:red;stroke-width:1px;stroke-linecap:butt;stroke-linejoin:miter;stroke-opacity:1" d="M 183.345,172.136 166.531,181.476 z" id="boundary" inkscape:connector-curvature="0" />
	<path style="fill:none;stroke:red;stroke-width:1px;stroke-linecap:butt;stroke-linejoin:miter;stroke-opacity:1" d="M 188.949,295.435 170.267,301.04 z" id="boundary" inkscape:connector-curvature="0" />
	<path style="fill:none;stroke:red;stroke-width:1px;stroke-linecap:butt;stroke-linejoin:miter;stroke-opacity:1" d="M 151.586,310.38 170.267,301.04 z" id="boundary" inkscape:connector-curvature="0" />
	<path style="fill:none;stroke:red;stroke-width:1px;stroke-linecap:butt;stroke-linejoin:miter;stroke-opacity:1" d="M 188.949,295.435 205.763,304.776 z" id="boundary" inkscape:connector-curvature="0" />
	<path style="fill:none;stroke:red;stroke-width:1px;stroke-linecap:butt;stroke-linejoin:miter;stroke-opacity:1" d="M 205.763,304.776 215.104,321.589 z" id="boundary" inkscape:connector-curvature="0" />
	<path style="fill:none;stroke:red;stroke-width:1px;stroke-linecap:butt;stroke-linejoin:miter;stroke-opacity:1" d="M 222.576,340.271 228.181,358.953 z" id="boundary" inkscape:connector-curvature="0" />
	<path style="fill:none;stroke:red;stroke-width:1px;stroke-linecap:butt;stroke-linejoin:miter;stroke-opacity:1" d="M 222.576,340.271 215.104,321.589 z" id="boundary" inkscape:connector-curvature="0" />
	<path style="fill:none;stroke:red;stroke-width:1px;stroke-linecap:butt;stroke-linejoin:miter;stroke-opacity:1" d="M 237.522,375.766 228.181,358.953 z" id="boundary" inkscape:connector-curvature="0" />
	<path style="fill:none;stroke:red;stroke-width:1px;stroke-linecap:butt;stroke-linejoin:miter;stroke-opacity:1" d="M 237.522,375.766 246.863,392.58 z" id="boundary" inkscape:connector-curvature="0" />
	<path style="fill:none;stroke:red;stroke-width:1px;stroke-linecap:butt;stroke-linejoin:miter;stroke-opacity:1" d="M 246.863,392.58 246.863,411.262 z" id="boundary" inkscape:connector-curvature="0" />
	<path style="fill:none;stroke:red;stroke-width:1px;stroke-linecap:butt;stroke-linejoin:miter;stroke-opacity:1" d="M 256.203,428.075 246.863,411.262 z" id="boundary" inkscape:connector-curvature="0" />
	<path style="fill:none;stroke:red;stroke-width:1px;stroke-linecap:butt;stroke-linejoin:miter;stroke-opacity:1" d="M 265.544,28.2863 256.203,46.968 z" id="boundary" inkscape:connector-curvature="0" />
	<path style="fill:none;stroke:red;stroke-width:1px;stroke-linecap:butt;stroke-linejoin:miter;stroke-opacity:1" d="M 37.6271,433.68 18.9454,443.021 z" id="boundary" inkscape:connector-curvature="0" />
	<path style="fill:none;stroke:red;stroke-width:1px;stroke-linecap:butt;stroke-linejoin:miter;stroke-opacity:1" d="M 18.9454,443.021 4,429.944 z" id="boundary" inkscape:connector-curvature="0" />
	<path style="fill:none;stroke:red;stroke-width:1px;stroke-linecap:butt;stroke-linejoin:miter;stroke-opacity:1" d="M 4,429.944 4,411.262 z" id="boundary" inkscape:connector-curvature="0" />
	<path style="fill:none;stroke:red;stroke-width:1px;stroke-linecap:butt;stroke-linejoin:miter;stroke-opacity:1" d="M 106.75,868.964 97.4087,887.646 z" id="boundary" inkscape:connector-curvature="0" />
	<path style="fill:none;stroke:red;stroke-width:1px;stroke-linecap:butt;stroke-linejoin:miter;stroke-opacity:1" d="M 172.136,738.192 162.795,756.874 z" id="boundary" inkscape:connector-curvature="0" />
	<path style="fill:none;stroke:red;stroke-width:1px;stroke-linecap:butt;stroke-linejoin:miter;stroke-opacity:1" d="M 97.4087,887.646 88.0678,906.328 z" id="boundary" inkscape:connector-curvature="0" />
	<path style="fill:none;stroke:red;stroke-width:1px;stroke-linecap:butt;stroke-linejoin:miter;stroke-opacity:1" d="M 121.695,854.019 131.036,835.337 z" id="boundary" inkscape:connector-curvature="0" />
	<path style="fill:none;stroke:red;stroke-width:1px;stroke-linecap:butt;stroke-linejoin:miter;stroke-opacity:1" d="M 153.454,775.556 144.113,794.237 z" id="boundary" inkscape:connector-curvature="0" />
	<path style="fill:none;stroke:red;stroke-width:1px;stroke-linecap:butt;stroke-linejoin:miter;stroke-opacity:1" d="M 162.795,756.874 153.454,775.556 z" id="boundary" inkscape:connector-curvature="0" />
	<path style="fill:none;stroke:red;stroke-width:1px;stroke-linecap:butt;stroke-linejoin:miter;stroke-opacity:1" d="M 134.772,812.919 144.113,794.237 z" id="boundary" inkscape:connector-curvature="0" />
	<path style="fill:none;stroke:red;stroke-width:1px;stroke-linecap:butt;stroke-linejoin:miter;stroke-opacity:1" d="M 121.695,854.019 106.75,868.964 z" id="boundary" inkscape:connector-curvature="0" />
	<path style="fill:none;stroke:red;stroke-width:1px;stroke-linecap:butt;stroke-linejoin:miter;stroke-opacity:1" d="M 134.772,812.919 131.036,835.337 z" id="boundary" inkscape:connector-curvature="0" />
	<path style="fill:none;stroke:red;stroke-width:1px;stroke-linecap:butt;stroke-linejoin:miter;stroke-opacity:1" d="M 179.608,908.196 164.663,921.273 z" id="boundary" inkscape:connector-curvature="0" />
	<path style="fill:none;stroke:red;stroke-width:1px;stroke-linecap:butt;stroke-linejoin:miter;stroke-opacity:1" d="M 78.7269,953.032 78.7269,934.35 z" id="boundary" inkscape:connector-curvature="0" />
	<path style="fill:none;stroke:red;stroke-width:1px;stroke-linecap:butt;stroke-linejoin:miter;stroke-opacity:1" d="M 88.0678,906.328 78.7269,934.35 z" id="boundary" inkscape:connector-curvature="0" />
	<path style="fill:none;stroke:red;stroke-width:1px;stroke-linecap:butt;stroke-linejoin:miter;stroke-opacity:1" d="M 69.3861,971.714 78.7269,953.032 z" id="boundary" inkscape:connector-curvature="0" />
	<path style="fill:none;stroke:red;stroke-width:1px;stroke-linecap:butt;stroke-linejoin:miter;stroke-opacity:1" d="M 80.5951,986.659 69.3861,971.714 z" id="boundary" inkscape:connector-curvature="0" />
	<path style="fill:none;stroke:red;stroke-width:1px;stroke-linecap:butt;stroke-linejoin:miter;stroke-opacity:1" d="M 155.322,939.955 140.377,956.768 z" id="boundary" inkscape:connector-curvature="0" />
	<path style="fill:none;stroke:red;stroke-width:1px;stroke-linecap:butt;stroke-linejoin:miter;stroke-opacity:1" d="M 140.377,956.768 131.036,975.45 z" id="boundary" inkscape:connector-curvature="0" />
	<path style="fill:none;stroke:red;stroke-width:1px;stroke-linecap:butt;stroke-linejoin:miter;stroke-opacity:1" d="M 155.322,939.955 164.663,921.273 z" id="boundary" inkscape:connector-curvature="0" />
	<path style="fill:none;stroke:red;stroke-width:1px;stroke-linecap:butt;stroke-linejoin:miter;stroke-opacity:1" d="M 114.222,986.659 97.4087,996 z" id="boundary" inkscape:connector-curvature="0" />
	<path style="fill:none;stroke:red;stroke-width:1px;stroke-linecap:butt;stroke-linejoin:miter;stroke-opacity:1" d="M 97.4087,996 80.5951,986.659 z" id="boundary" inkscape:connector-curvature="0" />
	<path style="fill:none;stroke:red;stroke-width:1px;stroke-linecap:butt;stroke-linejoin:miter;stroke-opacity:1" d="M 131.036,975.45 114.222,986.659 z" id="boundary" inkscape:connector-curvature="0" />
	<path style="fill:none;stroke:red;stroke-width:1px;stroke-linecap:butt;stroke-linejoin:miter;stroke-opacity:1" d="M 224.444,648.52 233.785,629.838 z" id="boundary" inkscape:connector-curvature="0" />
	<path style="fill:none;stroke:red;stroke-width:1px;stroke-linecap:butt;stroke-linejoin:miter;stroke-opacity:1" d="M 243.126,611.156 233.785,629.838 z" id="boundary" inkscape:connector-curvature="0" />
	<path style="fill:none;stroke:red;stroke-width:1px;stroke-linecap:butt;stroke-linejoin:miter;stroke-opacity:1" d="M 196.422,704.565 205.763,685.883 z" id="boundary" inkscape:connector-curvature="0" />
	<path style="fill:none;stroke:red;stroke-width:1px;stroke-linecap:butt;stroke-linejoin:miter;stroke-opacity:1" d="M 215.104,667.202 205.763,685.883 z" id="boundary" inkscape:connector-curvature="0" />
	<path style="fill:none;stroke:red;stroke-width:1px;stroke-linecap:butt;stroke-linejoin:miter;stroke-opacity:1" d="M 224.444,648.52 215.104,667.202 z" id="boundary" inkscape:connector-curvature="0" />
	<path style="fill:none;stroke:red;stroke-width:1px;stroke-linecap:butt;stroke-linejoin:miter;stroke-opacity:1" d="M 256.203,428.075 265.544,444.889 z" id="boundary" inkscape:connector-curvature="0" />
	<path style="fill:none;stroke:red;stroke-width:1px;stroke-linecap:butt;stroke-linejoin:miter;stroke-opacity:1" d="M 265.544,444.889 265.544,463.571 z" id="boundary" inkscape:connector-curvature="0" />
	<path style="fill:none;stroke:red;stroke-width:1px;stroke-linecap:butt;stroke-linejoin:miter;stroke-opacity:1" d="M 274.885,480.384 265.544,463.571 z" id="boundary" inkscape:connector-curvature="0" />
	<path style="fill:none;stroke:red;stroke-width:1px;stroke-linecap:butt;stroke-linejoin:miter;stroke-opacity:1" d="M 265.544,551.375 256.203,579.397 z" id="boundary" inkscape:connector-curvature="0" />
	<path style="fill:none;stroke:red;stroke-width:1px;stroke-linecap:butt;stroke-linejoin:miter;stroke-opacity:1" d="M 243.126,611.156 256.203,579.397 z" id="boundary" inkscape:connector-curvature="0" />
	<path style="fill:none;stroke:red;stroke-width:1px;stroke-linecap:butt;stroke-linejoin:miter;stroke-opacity:1" d="M 172.136,738.192 187.081,723.247 z" id="boundary" inkscape:connector-curvature="0" />
	<path style="fill:none;stroke:red;stroke-width:1px;stroke-linecap:butt;stroke-linejoin:miter;stroke-opacity:1" d="M 196.422,704.565 187.081,723.247 z" id="boundary" inkscape:connector-curvature="0" />
	<path style="fill:none;stroke:red;stroke-width:1px;stroke-linecap:butt;stroke-linejoin:miter;stroke-opacity:1" d="M 192.685,883.91 179.608,908.196 z" id="boundary" inkscape:connector-curvature="0" />
	<path style="fill:none;stroke:red;stroke-width:1px;stroke-linecap:butt;stroke-linejoin:miter;stroke-opacity:1" d="M 216.972,852.151 207.631,870.832 z" id="boundary" inkscape:connector-curvature="0" />
	<path style="fill:none;stroke:red;stroke-width:1px;stroke-linecap:butt;stroke-linejoin:miter;stroke-opacity:1" d="M 192.685,883.91 207.631,870.832 z" id="boundary" inkscape:connector-curvature="0" />
	<path style="fill:none;stroke:red;stroke-width:1px;stroke-linecap:butt;stroke-linejoin:miter;stroke-opacity:1" d="M 276.753,753.137 263.676,777.424 z" id="boundary" inkscape:connector-curvature="0" />
	<path style="fill:none;stroke:red;stroke-width:1px;stroke-linecap:butt;stroke-linejoin:miter;stroke-opacity:1" d="M 244.994,814.787 254.335,796.105 z" id="boundary" inkscape:connector-curvature="0" />
	<path style="fill:none;stroke:red;stroke-width:1px;stroke-linecap:butt;stroke-linejoin:miter;stroke-opacity:1" d="M 244.994,814.787 230.049,827.864 z" id="boundary" inkscape:connector-curvature="0" />
	<path style="fill:none;stroke:red;stroke-width:1px;stroke-linecap:butt;stroke-linejoin:miter;stroke-opacity:1" d="M 254.335,796.105 263.676,777.424 z" id="boundary" inkscape:connector-curvature="0" />
	<path style="fill:none;stroke:red;stroke-width:1px;stroke-linecap:butt;stroke-linejoin:miter;stroke-opacity:1" d="M 216.972,852.151 230.049,827.864 z" id="boundary" inkscape:connector-curvature="0" />
	<path style="fill:none;stroke:red;stroke-width:1px;stroke-linecap:butt;stroke-linejoin:miter;stroke-opacity:1" d="M 274.885,480.384 274.885,499.066 z" id="boundary" inkscape:connector-curvature="0" />
	<path style="fill:none;stroke:red;stroke-width:1px;stroke-linecap:butt;stroke-linejoin:miter;stroke-opacity:1" d="M 299.171,4 317.853,4 z" id="boundary" inkscape:connector-curvature="0" />
	<path style="fill:none;stroke:red;stroke-width:1px;stroke-linecap:butt;stroke-linejoin:miter;stroke-opacity:1" d="M 280.49,13.3409 299.171,4 z" id="boundary" inkscape:connector-curvature="0" />
	<path style="fill:none;stroke:red;stroke-width:1px;stroke-linecap:butt;stroke-linejoin:miter;stroke-opacity:1" d="M 317.853,4 336.535,4 z" id="boundary" inkscape:connector-curvature="0" />
	<path style="fill:none;stroke:red;stroke-width:1px;stroke-linecap:butt;stroke-linejoin:miter;stroke-opacity:1" d="M 336.535,4 355.217,4 z" id="boundary" inkscape:connector-curvature="0" />
	<path style="fill:none;stroke:red;stroke-width:1px;stroke-linecap:butt;stroke-linejoin:miter;stroke-opacity:1" d="M 355.217,4 372.03,13.3409 z" id="boundary" inkscape:connector-curvature="0" />
	<path style="fill:none;stroke:red;stroke-width:1px;stroke-linecap:butt;stroke-linejoin:miter;stroke-opacity:1" d="M 398.185,41.3635 407.525,58.177 z" id="boundary" inkscape:connector-curvature="0" />
	<path style="fill:none;stroke:red;stroke-width:1px;stroke-linecap:butt;stroke-linejoin:miter;stroke-opacity:1" d="M 407.525,58.177 407.525,76.8588 z" id="boundary" inkscape:connector-curvature="0" />
	<path style="fill:none;stroke:red;stroke-width:1px;stroke-linecap:butt;stroke-linejoin:miter;stroke-opacity:1" d="M 495.33,153.454 476.648,153.454 z" id="boundary" inkscape:connector-curvature="0" />
	<path style="fill:none;stroke:red;stroke-width:1px;stroke-linecap:butt;stroke-linejoin:miter;stroke-opacity:1" d="M 386.976,26.4181 398.185,41.3635 z" id="boundary" inkscape:connector-curvature="0" />
	<path style="fill:none;stroke:red;stroke-width:1px;stroke-linecap:butt;stroke-linejoin:miter;stroke-opacity:1" d="M 372.03,13.3409 386.976,26.4181 z" id="boundary" inkscape:connector-curvature="0" />
	<path style="fill:none;stroke:red;stroke-width:1px;stroke-linecap:butt;stroke-linejoin:miter;stroke-opacity:1" d="M 407.525,76.8588 407.525,95.5405 z" id="boundary" inkscape:connector-curvature="0" />
	<path style="fill:none;stroke:red;stroke-width:1px;stroke-linecap:butt;stroke-linejoin:miter;stroke-opacity:1" d="M 407.525,95.5405 407.525,114.222 z" id="boundary" inkscape:connector-curvature="0" />
	<path style="fill:none;stroke:red;stroke-width:1px;stroke-linecap:butt;stroke-linejoin:miter;stroke-opacity:1" d="M 422.471,144.113 407.525,132.904 z" id="boundary" inkscape:connector-curvature="0" />
	<path style="fill:none;stroke:red;stroke-width:1px;stroke-linecap:butt;stroke-linejoin:miter;stroke-opacity:1" d="M 407.525,132.904 407.525,114.222 z" id="boundary" inkscape:connector-curvature="0" />
	<path style="fill:none;stroke:red;stroke-width:1px;stroke-linecap:butt;stroke-linejoin:miter;stroke-opacity:1" d="M 439.284,153.454 422.471,144.113 z" id="boundary" inkscape:connector-curvature="0" />
	<path style="fill:none;stroke:red;stroke-width:1px;stroke-linecap:butt;stroke-linejoin:miter;stroke-opacity:1" d="M 457.966,153.454 439.284,153.454 z" id="boundary" inkscape:connector-curvature="0" />
	<path style="fill:none;stroke:red;stroke-width:1px;stroke-linecap:butt;stroke-linejoin:miter;stroke-opacity:1" d="M 476.648,153.454 457.966,153.454 z" id="boundary" inkscape:connector-curvature="0" />
	<path style="fill:none;stroke:red;stroke-width:1px;stroke-linecap:butt;stroke-linejoin:miter;stroke-opacity:1" d="M 472.911,304.776 472.911,286.094 z" id="boundary" inkscape:connector-curvature="0" />
	<path style="fill:none;stroke:red;stroke-width:1px;stroke-linecap:butt;stroke-linejoin:miter;stroke-opacity:1" d="M 472.911,286.094 489.725,276.753 z" id="boundary" inkscape:connector-curvature="0" />
	<path style="fill:none;stroke:red;stroke-width:1px;stroke-linecap:butt;stroke-linejoin:miter;stroke-opacity:1" d="M 463.571,323.458 472.911,304.776 z" id="boundary" inkscape:connector-curvature="0" />
	<path style="fill:none;stroke:red;stroke-width:1px;stroke-linecap:butt;stroke-linejoin:miter;stroke-opacity:1" d="M 463.571,342.139 463.571,323.458 z" id="boundary" inkscape:connector-curvature="0" />
	<path style="fill:none;stroke:red;stroke-width:1px;stroke-linecap:butt;stroke-linejoin:miter;stroke-opacity:1" d="M 512.143,162.795 495.33,153.454 z" id="boundary" inkscape:connector-curvature="0" />
	<path style="fill:none;stroke:red;stroke-width:1px;stroke-linecap:butt;stroke-linejoin:miter;stroke-opacity:1" d="M 508.407,276.753 489.725,276.753 z" id="boundary" inkscape:connector-curvature="0" />
	<path style="fill:none;stroke:red;stroke-width:1px;stroke-linecap:butt;stroke-linejoin:miter;stroke-opacity:1" d="M 512.143,162.795 528.957,172.136 z" id="boundary" inkscape:connector-curvature="0" />
	<path style="fill:none;stroke:red;stroke-width:1px;stroke-linecap:butt;stroke-linejoin:miter;stroke-opacity:1" d="M 547.638,177.74 528.957,172.136 z" id="boundary" inkscape:connector-curvature="0" />
	<path style="fill:none;stroke:red;stroke-width:1px;stroke-linecap:butt;stroke-linejoin:miter;stroke-opacity:1" d="M 547.638,177.74 560.716,192.685 z" id="boundary" inkscape:connector-curvature="0" />
	<path style="fill:none;stroke:red;stroke-width:1px;stroke-linecap:butt;stroke-linejoin:miter;stroke-opacity:1" d="M 560.716,192.685 575.661,205.763 z" id="boundary" inkscape:connector-curvature="0" />
	<path style="fill:none;stroke:red;stroke-width:1px;stroke-linecap:butt;stroke-linejoin:miter;stroke-opacity:1" d="M 588.738,220.708 575.661,205.763 z" id="boundary" inkscape:connector-curvature="0" />
	<path style="fill:none;stroke:red;stroke-width:1px;stroke-linecap:butt;stroke-linejoin:miter;stroke-opacity:1" d="M 603.684,233.785 588.738,220.708 z" id="boundary" inkscape:connector-curvature="0" />
	<path style="fill:none;stroke:red;stroke-width:1px;stroke-linecap:butt;stroke-linejoin:miter;stroke-opacity:1" d="M 603.684,233.785 616.761,248.731 z" id="boundary" inkscape:connector-curvature="0" />
	<path style="fill:none;stroke:red;stroke-width:1px;stroke-linecap:butt;stroke-linejoin:miter;stroke-opacity:1" d="M 626.102,265.544 616.761,248.731 z" id="boundary" inkscape:connector-curvature="0" />
	<path style="fill:none;stroke:red;stroke-width:1px;stroke-linecap:butt;stroke-linejoin:miter;stroke-opacity:1" d="M 639.179,280.49 626.102,265.544 z" id="boundary" inkscape:connector-curvature="0" />
	<path style="fill:none;stroke:red;stroke-width:1px;stroke-linecap:butt;stroke-linejoin:miter;stroke-opacity:1" d="M 508.407,276.753 527.089,276.753 z" id="boundary" inkscape:connector-curvature="0" />
	<path style="fill:none;stroke:red;stroke-width:1px;stroke-linecap:butt;stroke-linejoin:miter;stroke-opacity:1" d="M 527.089,276.753 538.298,291.699 z" id="boundary" inkscape:connector-curvature="0" />
	<path style="fill:none;stroke:red;stroke-width:1px;stroke-linecap:butt;stroke-linejoin:miter;stroke-opacity:1" d="M 553.243,304.776 566.32,319.721 z" id="boundary" inkscape:connector-curvature="0" />
	<path style="fill:none;stroke:red;stroke-width:1px;stroke-linecap:butt;stroke-linejoin:miter;stroke-opacity:1" d="M 553.243,304.776 538.298,291.699 z" id="boundary" inkscape:connector-curvature="0" />
	<path style="fill:none;stroke:red;stroke-width:1px;stroke-linecap:butt;stroke-linejoin:miter;stroke-opacity:1" d="M 463.571,360.821 463.571,342.139 z" id="boundary" inkscape:connector-curvature="0" />
	<path style="fill:none;stroke:red;stroke-width:1px;stroke-linecap:butt;stroke-linejoin:miter;stroke-opacity:1" d="M 639.179,280.49 650.388,295.435 z" id="boundary" inkscape:connector-curvature="0" />
	<path style="fill:none;stroke:red;stroke-width:1px;stroke-linecap:butt;stroke-linejoin:miter;stroke-opacity:1" d="M 659.729,312.249 650.388,295.435 z" id="boundary" inkscape:connector-curvature="0" />
	<path style="fill:none;stroke:red;stroke-width:1px;stroke-linecap:butt;stroke-linejoin:miter;stroke-opacity:1" d="M 674.674,323.458 659.729,312.249 z" id="boundary" inkscape:connector-curvature="0" />
	<path style="fill:none;stroke:red;stroke-width:1px;stroke-linecap:butt;stroke-linejoin:miter;stroke-opacity:1" d="M 598.079,342.139 581.266,332.798 z" id="boundary" inkscape:connector-curvature="0" />
	<path style="fill:none;stroke:red;stroke-width:1px;stroke-linecap:butt;stroke-linejoin:miter;stroke-opacity:1" d="M 611.156,357.085 598.079,342.139 z" id="boundary" inkscape:connector-curvature="0" />
	<path style="fill:none;stroke:red;stroke-width:1px;stroke-linecap:butt;stroke-linejoin:miter;stroke-opacity:1" d="M 674.674,323.458 682.147,342.139 z" id="boundary" inkscape:connector-curvature="0" />
	<path style="fill:none;stroke:red;stroke-width:1px;stroke-linecap:butt;stroke-linejoin:miter;stroke-opacity:1" d="M 566.32,319.721 581.266,332.798 z" id="boundary" inkscape:connector-curvature="0" />
	<path style="fill:none;stroke:red;stroke-width:1px;stroke-linecap:butt;stroke-linejoin:miter;stroke-opacity:1" d="M 274.885,517.748 274.885,499.066 z" id="boundary" inkscape:connector-curvature="0" />
	<path style="fill:none;stroke:red;stroke-width:1px;stroke-linecap:butt;stroke-linejoin:miter;stroke-opacity:1" d="M 444.889,454.23 444.889,472.911 z" id="boundary" inkscape:connector-curvature="0" />
	<path style="fill:none;stroke:red;stroke-width:1px;stroke-linecap:butt;stroke-linejoin:miter;stroke-opacity:1" d="M 377.635,631.706 360.821,641.047 z" id="boundary" inkscape:connector-curvature="0" />
	<path style="fill:none;stroke:red;stroke-width:1px;stroke-linecap:butt;stroke-linejoin:miter;stroke-opacity:1" d="M 377.635,631.706 394.448,641.047 z" id="boundary" inkscape:connector-curvature="0" />
	<path style="fill:none;stroke:red;stroke-width:1px;stroke-linecap:butt;stroke-linejoin:miter;stroke-opacity:1" d="M 360.821,641.047 347.744,655.992 z" id="boundary" inkscape:connector-curvature="0" />
	<path style="fill:none;stroke:red;stroke-width:1px;stroke-linecap:butt;stroke-linejoin:miter;stroke-opacity:1" d="M 444.889,472.911 444.889,491.593 z" id="boundary" inkscape:connector-curvature="0" />
	<path style="fill:none;stroke:red;stroke-width:1px;stroke-linecap:butt;stroke-linejoin:miter;stroke-opacity:1" d="M 274.885,517.748 265.544,551.375 z" id="boundary" inkscape:connector-curvature="0" />
	<path style="fill:none;stroke:red;stroke-width:1px;stroke-linecap:butt;stroke-linejoin:miter;stroke-opacity:1" d="M 454.23,426.207 444.889,454.23 z" id="boundary" inkscape:connector-curvature="0" />
	<path style="fill:none;stroke:red;stroke-width:1px;stroke-linecap:butt;stroke-linejoin:miter;stroke-opacity:1" d="M 454.23,407.525 454.23,426.207 z" id="boundary" inkscape:connector-curvature="0" />
	<path style="fill:none;stroke:red;stroke-width:1px;stroke-linecap:butt;stroke-linejoin:miter;stroke-opacity:1" d="M 454.23,407.525 454.23,388.844 z" id="boundary" inkscape:connector-curvature="0" />
	<path style="fill:none;stroke:red;stroke-width:1px;stroke-linecap:butt;stroke-linejoin:miter;stroke-opacity:1" d="M 454.23,388.844 463.571,360.821 z" id="boundary" inkscape:connector-curvature="0" />
	<path style="fill:none;stroke:red;stroke-width:1px;stroke-linecap:butt;stroke-linejoin:miter;stroke-opacity:1" d="M 457.966,527.089 448.625,510.275 z" id="boundary" inkscape:connector-curvature="0" />
	<path style="fill:none;stroke:red;stroke-width:1px;stroke-linecap:butt;stroke-linejoin:miter;stroke-opacity:1" d="M 448.625,510.275 444.889,491.593 z" id="boundary" inkscape:connector-curvature="0" />
	<path style="fill:none;stroke:red;stroke-width:1px;stroke-linecap:butt;stroke-linejoin:miter;stroke-opacity:1" d="M 310.38,702.697 323.458,687.751 z" id="boundary" inkscape:connector-curvature="0" />
	<path style="fill:none;stroke:red;stroke-width:1px;stroke-linecap:butt;stroke-linejoin:miter;stroke-opacity:1" d="M 301.04,721.379 310.38,702.697 z" id="boundary" inkscape:connector-curvature="0" />
	<path style="fill:none;stroke:red;stroke-width:1px;stroke-linecap:butt;stroke-linejoin:miter;stroke-opacity:1" d="M 291.699,740.06 276.753,753.137 z" id="boundary" inkscape:connector-curvature="0" />
	<path style="fill:none;stroke:red;stroke-width:1px;stroke-linecap:butt;stroke-linejoin:miter;stroke-opacity:1" d="M 301.04,721.379 291.699,740.06 z" id="boundary" inkscape:connector-curvature="0" />
	<path style="fill:none;stroke:red;stroke-width:1px;stroke-linecap:butt;stroke-linejoin:miter;stroke-opacity:1" d="M 394.448,641.047 411.262,650.388 z" id="boundary" inkscape:connector-curvature="0" />
	<path style="fill:none;stroke:red;stroke-width:1px;stroke-linecap:butt;stroke-linejoin:miter;stroke-opacity:1" d="M 428.075,659.729 446.757,659.729 z" id="boundary" inkscape:connector-curvature="0" />
	<path style="fill:none;stroke:red;stroke-width:1px;stroke-linecap:butt;stroke-linejoin:miter;stroke-opacity:1" d="M 411.262,650.388 428.075,659.729 z" id="boundary" inkscape:connector-curvature="0" />
	<path style="fill:none;stroke:red;stroke-width:1px;stroke-linecap:butt;stroke-linejoin:miter;stroke-opacity:1" d="M 332.798,669.07 347.744,655.992 z" id="boundary" inkscape:connector-curvature="0" />
	<path style="fill:none;stroke:red;stroke-width:1px;stroke-linecap:butt;stroke-linejoin:miter;stroke-opacity:1" d="M 323.458,687.751 332.798,669.07 z" id="boundary" inkscape:connector-curvature="0" />
	<path style="fill:none;stroke:red;stroke-width:1px;stroke-linecap:butt;stroke-linejoin:miter;stroke-opacity:1" d="M 446.757,659.729 465.439,659.729 z" id="boundary" inkscape:connector-curvature="0" />
	<path style="fill:none;stroke:red;stroke-width:1px;stroke-linecap:butt;stroke-linejoin:miter;stroke-opacity:1" d="M 611.156,357.085 620.497,373.898 z" id="boundary" inkscape:connector-curvature="0" />
	<path style="fill:none;stroke:red;stroke-width:1px;stroke-linecap:butt;stroke-linejoin:miter;stroke-opacity:1" d="M 635.443,386.976 620.497,373.898 z" id="boundary" inkscape:connector-curvature="0" />
	<path style="fill:none;stroke:red;stroke-width:1px;stroke-linecap:butt;stroke-linejoin:miter;stroke-opacity:1" d="M 650.388,398.185 635.443,386.976 z" id="boundary" inkscape:connector-curvature="0" />
	<path style="fill:none;stroke:red;stroke-width:1px;stroke-linecap:butt;stroke-linejoin:miter;stroke-opacity:1" d="M 667.202,407.525 650.388,398.185 z" id="boundary" inkscape:connector-curvature="0" />
	<path style="fill:none;stroke:red;stroke-width:1px;stroke-linecap:butt;stroke-linejoin:miter;stroke-opacity:1" d="M 697.092,355.217 682.147,342.139 z" id="boundary" inkscape:connector-curvature="0" />
	<path style="fill:none;stroke:red;stroke-width:1px;stroke-linecap:butt;stroke-linejoin:miter;stroke-opacity:1" d="M 706.433,372.03 697.092,355.217 z" id="boundary" inkscape:connector-curvature="0" />
	<path style="fill:none;stroke:red;stroke-width:1px;stroke-linecap:butt;stroke-linejoin:miter;stroke-opacity:1" d="M 723.247,381.371 706.433,372.03 z" id="boundary" inkscape:connector-curvature="0" />
	<path style="fill:none;stroke:red;stroke-width:1px;stroke-linecap:butt;stroke-linejoin:miter;stroke-opacity:1" d="M 678.411,422.471 667.202,407.525 z" id="boundary" inkscape:connector-curvature="0" />
	<path style="fill:none;stroke:red;stroke-width:1px;stroke-linecap:butt;stroke-linejoin:miter;stroke-opacity:1" d="M 723.247,381.371 725.115,400.053 z" id="boundary" inkscape:connector-curvature="0" />
	<path style="fill:none;stroke:red;stroke-width:1px;stroke-linecap:butt;stroke-linejoin:miter;stroke-opacity:1" d="M 463.571,545.77 457.966,527.089 z" id="boundary" inkscape:connector-curvature="0" />
	<path style="fill:none;stroke:red;stroke-width:1px;stroke-linecap:butt;stroke-linejoin:miter;stroke-opacity:1" d="M 472.911,562.584 463.571,545.77 z" id="boundary" inkscape:connector-curvature="0" />
	<path style="fill:none;stroke:red;stroke-width:1px;stroke-linecap:butt;stroke-linejoin:miter;stroke-opacity:1" d="M 472.911,581.266 482.252,598.079 z" id="boundary" inkscape:connector-curvature="0" />
	<path style="fill:none;stroke:red;stroke-width:1px;stroke-linecap:butt;stroke-linejoin:miter;stroke-opacity:1" d="M 472.911,562.584 472.911,581.266 z" id="boundary" inkscape:connector-curvature="0" />
	<path style="fill:none;stroke:red;stroke-width:1px;stroke-linecap:butt;stroke-linejoin:miter;stroke-opacity:1" d="M 697.092,429.944 678.411,422.471 z" id="boundary" inkscape:connector-curvature="0" />
	<path style="fill:none;stroke:red;stroke-width:1px;stroke-linecap:butt;stroke-linejoin:miter;stroke-opacity:1" d="M 725.115,400.053 715.774,426.207 z" id="boundary" inkscape:connector-curvature="0" />
	<path style="fill:none;stroke:red;stroke-width:1px;stroke-linecap:butt;stroke-linejoin:miter;stroke-opacity:1" d="M 715.774,426.207 697.092,429.944 z" id="boundary" inkscape:connector-curvature="0" />
	<path style="fill:none;stroke:red;stroke-width:1px;stroke-linecap:butt;stroke-linejoin:miter;stroke-opacity:1" d="M 482.252,598.079 489.725,626.102 z" id="boundary" inkscape:connector-curvature="0" />
	<path style="fill:none;stroke:red;stroke-width:1px;stroke-linecap:butt;stroke-linejoin:miter;stroke-opacity:1" d="M 489.725,626.102 480.384,644.783 z" id="boundary" inkscape:connector-curvature="0" />
	<path style="fill:none;stroke:red;stroke-width:1px;stroke-linecap:butt;stroke-linejoin:miter;stroke-opacity:1" d="M 480.384,644.783 465.439,659.729 z" id="boundary" inkscape:connector-curvature="0" />
	<path style="fill:none;stroke:red;stroke-width:1px;stroke-linecap:butt;stroke-linejoin:miter;stroke-opacity:1" d="M 265.544,28.2863 280.49,13.3409 z" id="boundary" inkscape:connector-curvature="0" />
	<circle cx="4" cy="392.58" r="4" fill="#0" id="circle0"/>
	<circle cx="4" cy="411.262" r="4" fill="#0" id="circle1"/>
	<circle cx="4" cy="429.944" r="4" fill="#0" id="circle2"/>
	<circle cx="18.9454" cy="377.635" r="4" fill="#0" id="circle3"/>
	<circle cx="18.9454" cy="443.021" r="4" fill="#0" id="circle4"/>
	<circle cx="28.2863" cy="358.953" r="4" fill="#0" id="circle5"/>
	<circle cx="37.6271" cy="340.271" r="4" fill="#0" id="circle6"/>
	<circle cx="37.6271" cy="433.68" r="4" fill="#0" id="circle7"/>
	<circle cx="52.5725" cy="325.326" r="4" fill="#0" id="circle8"/>
	<circle cx="52.5725" cy="416.866" r="4" fill="#0" id="circle9"/>
	<circle cx="61.9134" cy="306.644" r="4" fill="#0" id="circle10"/>
	<circle cx="69.3861" cy="971.714" r="4" fill="#0" id="circle11"/>
	<circle cx="71.2542" cy="287.962" r="4" fill="#0" id="circle12"/>
	<circle cx="71.2542" cy="407.525" r="4" fill="#0" id="circle13"/>
	<circle cx="78.7269" cy="934.35" r="4" fill="#0" id="circle14"/>
	<circle cx="78.7269" cy="953.032" r="4" fill="#0" id="circle15"/>
	<circle cx="80.5951" cy="986.659" r="4" fill="#0" id="circle16"/>
	<circle cx="86.1996" cy="274.885" r="4" fill="#0" id="circle17"/>
	<circle cx="86.1996" cy="394.448" r="4" fill="#0" id="circle18"/>
	<circle cx="88.0678" cy="906.328" r="4" fill="#0" id="circle19"/>
	<circle cx="93.6723" cy="256.203" r="4" fill="#0" id="circle20"/>
	<circle cx="97.4087" cy="887.646" r="4" fill="#0" id="circle21"/>
	<circle cx="97.4087" cy="996" r="4" fill="#0" id="circle22"/>
	<circle cx="99.2768" cy="379.503" r="4" fill="#0" id="circle23"/>
	<circle cx="103.013" cy="237.522" r="4" fill="#0" id="circle24"/>
	<circle cx="106.75" cy="868.964" r="4" fill="#0" id="circle25"/>
	<circle cx="108.618" cy="360.821" r="4" fill="#0" id="circle26"/>
	<circle cx="114.222" cy="986.659" r="4" fill="#0" id="circle27"/>
	<circle cx="116.09" cy="215.104" r="4" fill="#0" id="circle28"/>
	<circle cx="121.695" cy="854.019" r="4" fill="#0" id="circle29"/>
	<circle cx="123.563" cy="347.744" r="4" fill="#0" id="circle30"/>
	<circle cx="131.036" cy="835.337" r="4" fill="#0" id="circle31"/>
	<circle cx="131.036" cy="975.45" r="4" fill="#0" id="circle32"/>
	<circle cx="134.772" cy="205.763" r="4" fill="#0" id="circle33"/>
	<circle cx="134.772" cy="812.919" r="4" fill="#0" id="circle34"/>
	<circle cx="136.64" cy="323.458" r="4" fill="#0" id="circle35"/>
	<circle cx="140.377" cy="956.768" r="4" fill="#0" id="circle36"/>
	<circle cx="144.113" cy="794.237" r="4" fill="#0" id="circle37"/>
	<circle cx="149.718" cy="190.817" r="4" fill="#0" id="circle38"/>
	<circle cx="151.586" cy="310.38" r="4" fill="#0" id="circle39"/>
	<circle cx="153.454" cy="775.556" r="4" fill="#0" id="circle40"/>
	<circle cx="155.322" cy="939.955" r="4" fill="#0" id="circle41"/>
	<circle cx="162.795" cy="756.874" r="4" fill="#0" id="circle42"/>
	<circle cx="164.663" cy="921.273" r="4" fill="#0" id="circle43"/>
	<circle cx="166.531" cy="181.476" r="4" fill="#0" id="circle44"/>
	<circle cx="170.267" cy="301.04" r="4" fill="#0" id="circle45"/>
	<circle cx="172.136" cy="738.192" r="4" fill="#0" id="circle46"/>
	<circle cx="179.608" cy="908.196" r="4" fill="#0" id="circle47"/>
	<circle cx="183.345" cy="172.136" r="4" fill="#0" id="circle48"/>
	<circle cx="187.081" cy="723.247" r="4" fill="#0" id="circle49"/>
	<circle cx="188.949" cy="295.435" r="4" fill="#0" id="circle50"/>
	<circle cx="192.685" cy="883.91" r="4" fill="#0" id="circle51"/>
	<circle cx="196.422" cy="704.565" r="4" fill="#0" id="circle52"/>
	<circle cx="202.026" cy="166.531" r="4" fill="#0" id="circle53"/>
	<circle cx="205.763" cy="304.776" r="4" fill="#0" id="circle54"/>
	<circle cx="205.763" cy="685.883" r="4" fill="#0" id="circle55"/>
	<circle cx="207.631" cy="870.832" r="4" fill="#0" id="circle56"/>
	<circle cx="215.104" cy="321.589" r="4" fill="#0" id="circle57"/>
	<circle cx="215.104" cy="667.202" r="4" fill="#0" id="circle58"/>
	<circle cx="216.972" cy="852.151" r="4" fill="#0" id="circle59"/>
	<circle cx="220.708" cy="162.795" r="4" fill="#0" id="circle60"/>
	<circle cx="222.576" cy="340.271" r="4" fill="#0" id="circle61"/>
	<circle cx="224.444" cy="648.52" r="4" fill="#0" id="circle62"/>
	<circle cx="228.181" cy="358.953" r="4" fill="#0" id="circle63"/>
	<circle cx="230.049" cy="827.864" r="4" fill="#0" id="circle64"/>
	<circle cx="233.785" cy="629.838" r="4" fill="#0" id="circle65"/>
	<circle cx="237.522" cy="375.766" r="4" fill="#0" id="circle66"/>
	<circle cx="239.39" cy="162.795" r="4" fill="#0" id="circle67"/>
	<circle cx="243.126" cy="611.156" r="4" fill="#0" id="circle68"/>
	<circle cx="244.994" cy="814.787" r="4" fill="#0" id="circle69"/>
	<circle cx="246.863" cy="65.6497" r="4" fill="#0" id="circle70"/>
	<circle cx="246.863" cy="84.3315" r="4" fill="#0" id="circle71"/>
	<circle cx="246.863" cy="392.58" r="4" fill="#0" id="circle72"/>
	<circle cx="246.863" cy="411.262" r="4" fill="#0" id="circle73"/>
	<circle cx="254.335" cy="796.105" r="4" fill="#0" id="circle74"/>
	<circle cx="256.203" cy="46.968" r="4" fill="#0" id="circle75"/>
	<circle cx="256.203" cy="101.145" r="4" fill="#0" id="circle76"/>
	<circle cx="256.203" cy="140.377" r="4" fill="#0" id="circle77"/>
	<circle cx="256.203" cy="428.075" r="4" fill="#0" id="circle78"/>
	<circle cx="256.203" cy="579.397" r="4" fill="#0" id="circle79"/>
	<circle cx="263.676" cy="777.424" r="4" fill="#0" id="circle80"/>
	<circle cx="265.544" cy="28.2863" r="4" fill="#0" id="circle81"/>
	<circle cx="265.544" cy="117.959" r="4" fill="#0" id="circle82"/>
	<circle cx="265.544" cy="444.889" r="4" fill="#0" id="circle83"/>
	<circle cx="265.544" cy="463.571" r="4" fill="#0" id="circle84"/>
	<circle cx="265.544" cy="551.375" r="4" fill="#0" id="circle85"/>
	<circle cx="274.885" cy="480.384" r="4" fill="#0" id="circle86"/>
	<circle cx="274.885" cy="499.066" r="4" fill="#0" id="circle87"/>
	<circle cx="274.885" cy="517.748" r="4" fill="#0" id="circle88"/>
	<circle cx="276.753" cy="753.137" r="4" fill="#0" id="circle89"/>
	<circle cx="280.49" cy="13.3409" r="4" fill="#0" id="circle90"/>
	<circle cx="291.699" cy="740.06" r="4" fill="#0" id="circle91"/>
	<circle cx="299.171" cy="4" r="4" fill="#0" id="circle92"/>
	<circle cx="301.04" cy="721.379" r="4" fill="#0" id="circle93"/>
	<circle cx="310.38" cy="702.697" r="4" fill="#0" id="circle94"/>
	<circle cx="317.853" cy="4" r="4" fill="#0" id="circle95"/>
	<circle cx="323.458" cy="687.751" r="4" fill="#0" id="circle96"/>
	<circle cx="332.798" cy="669.07" r="4" fill="#0" id="circle97"/>
	<circle cx="336.535" cy="4" r="4" fill="#0" id="circle98"/>
	<circle cx="347.744" cy="655.992" r="4" fill="#0" id="circle99"/>
	<circle cx="355.217" cy="4" r="4" fill="#0" id="circle100"/>
	<circle cx="360.821" cy="641.047" r="4" fill="#0" id="circle101"/>
	<circle cx="372.03" cy="13.3409" r="4" fill="#0" id="circle102"/>
	<circle cx="377.635" cy="631.706" r="4" fill="#0" id="circle103"/>
	<circle cx="386.976" cy="26.4181" r="4" fill="#0" id="circle104"/>
	<circle cx="394.448" cy="641.047" r="4" fill="#0" id="circle105"/>
	<circle cx="398.185" cy="41.3635" r="4" fill="#0" id="circle106"/>
	<circle cx="407.525" cy="58.177" r="4" fill="#0" id="circle107"/>
	<circle cx="407.525" cy="76.8588" r="4" fill="#0" id="circle108"/>
	<circle cx="407.525" cy="95.5405" r="4" fill="#0" id="circle109"/>
	<circle cx="407.525" cy="114.222" r="4" fill="#0" id="circle110"/>
	<circle cx="407.525" cy="132.904" r="4" fill="#0" id="circle111"/>
	<circle cx="411.262" cy="650.388" r="4" fill="#0" id="circle112"/>
	<circle cx="422.471" cy="144.113" r="4" fill="#0" id="circle113"/>
	<circle cx="428.075" cy="659.729" r="4" fill="#0" id="circle114"/>
	<circle cx="439.284" cy="153.454" r="4" fill="#0" id="circle115"/>
	<circle cx="444.889" cy="454.23" r="4" fill="#0" id="circle116"/>
	<circle cx="444.889" cy="472.911" r="4" fill="#0" id="circle117"/>
	<circle cx="444.889" cy="491.593" r="4" fill="#0" id="circle118"/>
	<circle cx="446.757" cy="659.729" r="4" fill="#0" id="circle119"/>
	<circle cx="448.625" cy="510.275" r="4" fill="#0" id="circle120"/>
	<circle cx="454.23" cy="388.844" r="4" fill="#0" id="circle121"/>
	<circle cx="454.23" cy="407.525" r="4" fill="#0" id="circle122"/>
	<circle cx="454.23" cy="426.207" r="4" fill="#0" id="circle123"/>
	<circle cx="457.966" cy="153.454" r="4" fill="#0" id="circle124"/>
	<circle cx="457.966" cy="527.089" r="4" fill="#0" id="circle125"/>
	<circle cx="463.571" cy="323.458" r="4" fill="#0" id="circle126"/>
	<circle cx="463.571" cy="342.139" r="4" fill="#0" id="circle127"/>
	<circle cx="463.571" cy="360.821" r="4" fill="#0" id="circle128"/>
	<circle cx="463.571" cy="545.77" r="4" fill="#0" id="circle129"/>
	<circle cx="465.439" cy="659.729" r="4" fill="#0" id="circle130"/>
	<circle cx="472.911" cy="286.094" r="4" fill="#0" id="circle131"/>
	<circle cx="472.911" cy="304.776" r="4" fill="#0" id="circle132"/>
	<circle cx="472.911" cy="562.584" r="4" fill="#0" id="circle133"/>
	<circle cx="472.911" cy="581.266" r="4" fill="#0" id="circle134"/>
	<circle cx="476.648" cy="153.454" r="4" fill="#0" id="circle135"/>
	<circle cx="480.384" cy="644.783" r="4" fill="#0" id="circle136"/>
	<circle cx="482.252" cy="598.079" r="4" fill="#0" id="circle137"/>
	<circle cx="489.725" cy="276.753" r="4" fill="#0" id="circle138"/>
	<circle cx="489.725" cy="626.102" r="4" fill="#0" id="circle139"/>
	<circle cx="495.33" cy="153.454" r="4" fill="#0" id="circle140"/>
	<circle cx="508.407" cy="276.753" r="4" fill="#0" id="circle141"/>
	<circle cx="512.143" cy="162.795" r="4" fill="#0" id="circle142"/>
	<circle cx="527.089" cy="276.753" r="4" fill="#0" id="circle143"/>
	<circle cx="528.957" cy="172.136" r="4" fill="#0" id="circle144"/>
	<circle cx="538.298" cy="291.699" r="4" fill="#0" id="circle145"/>
	<circle cx="547.638" cy="177.74" r="4" fill="#0" id="circle146"/>
	<circle cx="553.243" cy="304.776" r="4" fill="#0" id="circle147"/>
	<circle cx="560.716" cy="192.685" r="4" fill="#0" id="circle148"/>
	<circle cx="566.32" cy="319.721" r="4" fill="#0" id="circle149"/>
	<circle cx="575.661" cy="205.763" r="4" fill="#0" id="circle150"/>
	<circle cx="581.266" cy="332.798" r="4" fill="#0" id="circle151"/>
	<circle cx="588.738" cy="220.708" r="4" fill="#0" id="circle152"/>
	<circle cx="598.079" cy="342.139" r="4" fill="#0" id="circle153"/>
	<circle cx="603.684" cy="233.785" r="4" fill="#0" id="circle154"/>
	<circle cx="611.156" cy="357.085" r="4" fill="#0" id="circle155"/>
	<circle cx="616.761" cy="248.731" r="4" fill="#0" id="circle156"/>
	<circle cx="620.497" cy="373.898" r="4" fill="#0" id="circle157"/>
	<circle cx="626.102" cy="265.544" r="4" fill="#0" id="circle158"/>
	<circle cx="635.443" cy="386.976" r="4" fill="#0" id="circle159"/>
	<circle cx="639.179" cy="280.49" r="4" fill="#0" id="circle160"/>
	<circle cx="650.388" cy="295.435" r="4" fill="#0" id="circle161"/>
	<circle cx="650.388" cy="398.185" r="4" fill="#0" id="circle162"/>
	<circle cx="659.729" cy="312.249" r="4" fill="#0" id="circle163"/>
	<circle cx="667.202" cy="407.525" r="4" fill="#0" id="circle164"/>
	<circle cx="674.674" cy="323.458" r="4" fill="#0" id="circle165"/>
	<circle cx="678.411" cy="422.471" r="4" fill="#0" id="circle166"/>
	<circle cx="682.147" cy="342.139" r="4" fill="#0" id="circle167"/>
	<circle cx="697.092" cy="355.217" r="4" fill="#0" id="circle168"/>
	<circle cx="697.092" cy="429.944" r="4" fill="#0" id="circle169"/>
	<circle cx="706.433" cy="372.03" r="4" fill="#0" id="circle170"/>
	<circle cx="715.774" cy="426.207" r="4" fill="#0" id="circle171"/>
	<circle cx="723.247" cy="381.371" r="4" fill="#0" id="circle172"/>
	<circle cx="725.115" cy="400.053" r="4" fill="#0" id="circle173"/>
	</g>
</svg>