<?xml version="1.0" encoding="UTF-8" standalone="no"?>
<!-- Created with CurveBenchmark -->
<svg
	xmlns:dc="http://purl.org/dc/elements/1.1/"
	xmlns:cc="http://creativecommons.org/ns#"
	xmlns:rdf="http://www.w3.org/1999/02/22-rdf-syntax-ns#"
	xmlns:svg="http://www.w3.org/2000/svg"
	xmlns="http://www.w3.org/2000/svg"
	xmlns:sodipodi="http://sodipodi.sourceforge.net/DTD/sodipodi-0.dtd"
	xmlns:inkscape="http://www.inkscape.org/namespaces/inkscape"
	width="1000"
	height="1000"
	id="svg2"
	version="1.1"
	sodipodi:docname="manifold/gathan1-hammer195.png.txt">
<defs
	id="defs4" />
<metadata
	id="metadata7">
	<rdf:RDF>
		<cc:Work
			rdf:about="">
			<dc:format>image/svg+xml</dc:format>
			<dc:type
				rdf:resource="http://purl.org/dc/dcmitype/StillImage" />
			<dc:title></dc:title>
		</cc:Work>
	</rdf:RDF>
</metadata>
<g
	inkscape:label="Layer 1"
	inkscape:groupmode="layer"
	id="layer1">
	<path style="fill:none;stroke:red;stroke-width:1px;stroke-linecap:butt;stroke-linejoin:miter;stroke-opacity:1" d="M 4,38.5043 15.5014,9.75072 z" id="boundary" inkscape:connector-curvature="0" />
	<path style="fill:none;stroke:red;stroke-width:1px;stroke-linecap:butt;stroke-linejoin:miter;stroke-opacity:1" d="M 15.5014,9.75072 44.2551,4 z" id="boundary" inkscape:connector-curvature="0" />
	<path style="fill:none;stroke:red;stroke-width:1px;stroke-linecap:butt;stroke-linejoin:miter;stroke-opacity:1" d="M 130.516,4 101.762,15.5014 z" id="boundary" inkscape:connector-curvature="0" />
	<path style="fill:none;stroke:red;stroke-width:1px;stroke-linecap:butt;stroke-linejoin:miter;stroke-opacity:1" d="M 101.762,15.5014 73.0087,15.5014 z" id="boundary" inkscape:connector-curvature="0" />
	<path style="fill:none;stroke:red;stroke-width:1px;stroke-linecap:butt;stroke-linejoin:miter;stroke-opacity:1" d="M 73.0087,15.5014 44.2551,4 z" id="boundary" inkscape:connector-curvature="0" />
	<path style="fill:none;stroke:red;stroke-width:1px;stroke-linecap:butt;stroke-linejoin:miter;stroke-opacity:1" d="M 52.8812,93.1362 24.1275,93.1362 z" id="boundary" inkscape:connector-curvature="0" />
	<path style="fill:none;stroke:red;stroke-width:1px;stroke-linecap:butt;stroke-linejoin:miter;stroke-opacity:1" d="M 24.1275,93.1362 9.75072,67.258 z" id="boundary" inkscape:connector-curvature="0" />
	<path style="fill:none;stroke:red;stroke-width:1px;stroke-linecap:butt;stroke-linejoin:miter;stroke-opacity:1" d="M 9.75072,67.258 4,38.5043 z" id="boundary" inkscape:connector-curvature="0" />
	<path style="fill:none;stroke:red;stroke-width:1px;stroke-linecap:butt;stroke-linejoin:miter;stroke-opacity:1" d="M 52.8812,93.1362 75.8841,75.8841 z" id="boundary" inkscape:connector-curvature="0" />
	<path style="fill:none;stroke:red;stroke-width:1px;stroke-linecap:butt;stroke-linejoin:miter;stroke-opacity:1" d="M 75.8841,75.8841 104.638,75.8841 z" id="boundary" inkscape:connector-curvature="0" />
	<path style="fill:none;stroke:red;stroke-width:1px;stroke-linecap:butt;stroke-linejoin:miter;stroke-opacity:1" d="M 130.516,90.2609 104.638,75.8841 z" id="boundary" inkscape:connector-curvature="0" />
	<path style="fill:none;stroke:red;stroke-width:1px;stroke-linecap:butt;stroke-linejoin:miter;stroke-opacity:1" d="M 136.267,147.768 130.516,119.014 z" id="boundary" inkscape:connector-curvature="0" />
	<path style="fill:none;stroke:red;stroke-width:1px;stroke-linecap:butt;stroke-linejoin:miter;stroke-opacity:1" d="M 130.516,119.014 130.516,90.2609 z" id="boundary" inkscape:connector-curvature="0" />
	<path style="fill:none;stroke:red;stroke-width:1px;stroke-linecap:butt;stroke-linejoin:miter;stroke-opacity:1" d="M 136.267,147.768 147.768,176.522 z" id="boundary" inkscape:connector-curvature="0" />
	<path style="fill:none;stroke:red;stroke-width:1px;stroke-linecap:butt;stroke-linejoin:miter;stroke-opacity:1" d="M 159.27,4 188.023,4 z" id="boundary" inkscape:connector-curvature="0" />
	<path style="fill:none;stroke:red;stroke-width:1px;stroke-linecap:butt;stroke-linejoin:miter;stroke-opacity:1" d="M 130.516,4 159.27,4 z" id="boundary" inkscape:connector-curvature="0" />
	<path style="fill:none;stroke:red;stroke-width:1px;stroke-linecap:butt;stroke-linejoin:miter;stroke-opacity:1" d="M 153.519,205.275 147.768,176.522 z" id="boundary" inkscape:connector-curvature="0" />
	<path style="fill:none;stroke:red;stroke-width:1px;stroke-linecap:butt;stroke-linejoin:miter;stroke-opacity:1" d="M 159.27,234.029 153.519,205.275 z" id="boundary" inkscape:connector-curvature="0" />
	<path style="fill:none;stroke:red;stroke-width:1px;stroke-linecap:butt;stroke-linejoin:miter;stroke-opacity:1" d="M 159.27,234.029 159.27,262.783 z" id="boundary" inkscape:connector-curvature="0" />
	<path style="fill:none;stroke:red;stroke-width:1px;stroke-linecap:butt;stroke-linejoin:miter;stroke-opacity:1" d="M 159.27,262.783 159.27,291.536 z" id="boundary" inkscape:connector-curvature="0" />
	<path style="fill:none;stroke:red;stroke-width:1px;stroke-linecap:butt;stroke-linejoin:miter;stroke-opacity:1" d="M 159.27,320.29 159.27,291.536 z" id="boundary" inkscape:connector-curvature="0" />
	<path style="fill:none;stroke:red;stroke-width:1px;stroke-linecap:butt;stroke-linejoin:miter;stroke-opacity:1" d="M 159.27,349.043 159.27,320.29 z" id="boundary" inkscape:connector-curvature="0" />
	<path style="fill:none;stroke:red;stroke-width:1px;stroke-linecap:butt;stroke-linejoin:miter;stroke-opacity:1" d="M 130.516,521.565 130.516,550.319 z" id="boundary" inkscape:connector-curvature="0" />
	<path style="fill:none;stroke:red;stroke-width:1px;stroke-linecap:butt;stroke-linejoin:miter;stroke-opacity:1" d="M 130.516,521.565 130.516,492.812 z" id="boundary" inkscape:connector-curvature="0" />
	<path style="fill:none;stroke:red;stroke-width:1px;stroke-linecap:butt;stroke-linejoin:miter;stroke-opacity:1" d="M 130.516,492.812 144.893,466.933 z" id="boundary" inkscape:connector-curvature="0" />
	<path style="fill:none;stroke:red;stroke-width:1px;stroke-linecap:butt;stroke-linejoin:miter;stroke-opacity:1" d="M 130.516,579.072 130.516,607.826 z" id="boundary" inkscape:connector-curvature="0" />
	<path style="fill:none;stroke:red;stroke-width:1px;stroke-linecap:butt;stroke-linejoin:miter;stroke-opacity:1" d="M 130.516,579.072 130.516,550.319 z" id="boundary" inkscape:connector-curvature="0" />
	<path style="fill:none;stroke:red;stroke-width:1px;stroke-linecap:butt;stroke-linejoin:miter;stroke-opacity:1" d="M 130.516,607.826 130.516,636.58 z" id="boundary" inkscape:connector-curvature="0" />
	<path style="fill:none;stroke:red;stroke-width:1px;stroke-linecap:butt;stroke-linejoin:miter;stroke-opacity:1" d="M 124.765,889.612 124.765,918.365 z" id="boundary" inkscape:connector-curvature="0" />
	<path style="fill:none;stroke:red;stroke-width:1px;stroke-linecap:butt;stroke-linejoin:miter;stroke-opacity:1" d="M 124.765,918.365 119.014,970.122 z" id="boundary" inkscape:connector-curvature="0" />
	<path style="fill:none;stroke:red;stroke-width:1px;stroke-linecap:butt;stroke-linejoin:miter;stroke-opacity:1" d="M 130.516,665.333 130.516,694.087 z" id="boundary" inkscape:connector-curvature="0" />
	<path style="fill:none;stroke:red;stroke-width:1px;stroke-linecap:butt;stroke-linejoin:miter;stroke-opacity:1" d="M 130.516,722.841 130.516,694.087 z" id="boundary" inkscape:connector-curvature="0" />
	<path style="fill:none;stroke:red;stroke-width:1px;stroke-linecap:butt;stroke-linejoin:miter;stroke-opacity:1" d="M 130.516,636.58 130.516,665.333 z" id="boundary" inkscape:connector-curvature="0" />
	<path style="fill:none;stroke:red;stroke-width:1px;stroke-linecap:butt;stroke-linejoin:miter;stroke-opacity:1" d="M 130.516,722.841 130.516,751.594 z" id="boundary" inkscape:connector-curvature="0" />
	<path style="fill:none;stroke:red;stroke-width:1px;stroke-linecap:butt;stroke-linejoin:miter;stroke-opacity:1" d="M 130.516,780.348 130.516,751.594 z" id="boundary" inkscape:connector-curvature="0" />
	<path style="fill:none;stroke:red;stroke-width:1px;stroke-linecap:butt;stroke-linejoin:miter;stroke-opacity:1" d="M 159.27,377.797 153.519,429.554 z" id="boundary" inkscape:connector-curvature="0" />
	<path style="fill:none;stroke:red;stroke-width:1px;stroke-linecap:butt;stroke-linejoin:miter;stroke-opacity:1" d="M 153.519,429.554 144.893,466.933 z" id="boundary" inkscape:connector-curvature="0" />
	<path style="fill:none;stroke:red;stroke-width:1px;stroke-linecap:butt;stroke-linejoin:miter;stroke-opacity:1" d="M 159.27,377.797 159.27,349.043 z" id="boundary" inkscape:connector-curvature="0" />
	<path style="fill:none;stroke:red;stroke-width:1px;stroke-linecap:butt;stroke-linejoin:miter;stroke-opacity:1" d="M 130.516,780.348 130.516,809.101 z" id="boundary" inkscape:connector-curvature="0" />
	<path style="fill:none;stroke:red;stroke-width:1px;stroke-linecap:butt;stroke-linejoin:miter;stroke-opacity:1" d="M 130.516,837.855 130.516,809.101 z" id="boundary" inkscape:connector-curvature="0" />
	<path style="fill:none;stroke:red;stroke-width:1px;stroke-linecap:butt;stroke-linejoin:miter;stroke-opacity:1" d="M 124.765,889.612 130.516,837.855 z" id="boundary" inkscape:connector-curvature="0" />
	<path style="fill:none;stroke:red;stroke-width:1px;stroke-linecap:butt;stroke-linejoin:miter;stroke-opacity:1" d="M 133.391,996 119.014,970.122 z" id="boundary" inkscape:connector-curvature="0" />
	<path style="fill:none;stroke:red;stroke-width:1px;stroke-linecap:butt;stroke-linejoin:miter;stroke-opacity:1" d="M 162.145,996 133.391,996 z" id="boundary" inkscape:connector-curvature="0" />
	<path style="fill:none;stroke:red;stroke-width:1px;stroke-linecap:butt;stroke-linejoin:miter;stroke-opacity:1" d="M 190.899,996 162.145,996 z" id="boundary" inkscape:connector-curvature="0" />
	<path style="fill:none;stroke:red;stroke-width:1px;stroke-linecap:butt;stroke-linejoin:miter;stroke-opacity:1" d="M 188.023,4 216.777,4 z" id="boundary" inkscape:connector-curvature="0" />
	<path style="fill:none;stroke:red;stroke-width:1px;stroke-linecap:butt;stroke-linejoin:miter;stroke-opacity:1" d="M 254.157,159.27 242.655,193.774 z" id="boundary" inkscape:connector-curvature="0" />
	<path style="fill:none;stroke:red;stroke-width:1px;stroke-linecap:butt;stroke-linejoin:miter;stroke-opacity:1" d="M 259.907,130.516 254.157,159.27 z" id="boundary" inkscape:connector-curvature="0" />
	<path style="fill:none;stroke:red;stroke-width:1px;stroke-linecap:butt;stroke-linejoin:miter;stroke-opacity:1" d="M 265.658,84.5101 259.907,130.516 z" id="boundary" inkscape:connector-curvature="0" />
	<path style="fill:none;stroke:red;stroke-width:1px;stroke-linecap:butt;stroke-linejoin:miter;stroke-opacity:1" d="M 245.53,4 274.284,6.87536 z" id="boundary" inkscape:connector-curvature="0" />
	<path style="fill:none;stroke:red;stroke-width:1px;stroke-linecap:butt;stroke-linejoin:miter;stroke-opacity:1" d="M 274.284,6.87536 300.162,21.2522 z" id="boundary" inkscape:connector-curvature="0" />
	<path style="fill:none;stroke:red;stroke-width:1px;stroke-linecap:butt;stroke-linejoin:miter;stroke-opacity:1" d="M 236.904,257.032 236.904,285.786 z" id="boundary" inkscape:connector-curvature="0" />
	<path style="fill:none;stroke:red;stroke-width:1px;stroke-linecap:butt;stroke-linejoin:miter;stroke-opacity:1" d="M 236.904,257.032 236.904,228.278 z" id="boundary" inkscape:connector-curvature="0" />
	<path style="fill:none;stroke:red;stroke-width:1px;stroke-linecap:butt;stroke-linejoin:miter;stroke-opacity:1" d="M 236.904,228.278 242.655,193.774 z" id="boundary" inkscape:connector-curvature="0" />
	<path style="fill:none;stroke:red;stroke-width:1px;stroke-linecap:butt;stroke-linejoin:miter;stroke-opacity:1" d="M 236.904,285.786 236.904,314.539 z" id="boundary" inkscape:connector-curvature="0" />
	<path style="fill:none;stroke:red;stroke-width:1px;stroke-linecap:butt;stroke-linejoin:miter;stroke-opacity:1" d="M 236.904,343.293 236.904,314.539 z" id="boundary" inkscape:connector-curvature="0" />
	<path style="fill:none;stroke:red;stroke-width:1px;stroke-linecap:butt;stroke-linejoin:miter;stroke-opacity:1" d="M 236.904,343.293 236.904,372.046 z" id="boundary" inkscape:connector-curvature="0" />
	<path style="fill:none;stroke:red;stroke-width:1px;stroke-linecap:butt;stroke-linejoin:miter;stroke-opacity:1" d="M 265.658,84.5101 294.412,93.1362 z" id="boundary" inkscape:connector-curvature="0" />
	<path style="fill:none;stroke:red;stroke-width:1px;stroke-linecap:butt;stroke-linejoin:miter;stroke-opacity:1" d="M 216.777,4 245.53,4 z" id="boundary" inkscape:connector-curvature="0" />
	<path style="fill:none;stroke:red;stroke-width:1px;stroke-linecap:butt;stroke-linejoin:miter;stroke-opacity:1" d="M 320.29,107.513 294.412,93.1362 z" id="boundary" inkscape:connector-curvature="0" />
	<path style="fill:none;stroke:red;stroke-width:1px;stroke-linecap:butt;stroke-linejoin:miter;stroke-opacity:1" d="M 300.162,21.2522 323.165,38.5043 z" id="boundary" inkscape:connector-curvature="0" />
	<path style="fill:none;stroke:red;stroke-width:1px;stroke-linecap:butt;stroke-linejoin:miter;stroke-opacity:1" d="M 320.29,107.513 340.417,130.516 z" id="boundary" inkscape:connector-curvature="0" />
	<path style="fill:none;stroke:red;stroke-width:1px;stroke-linecap:butt;stroke-linejoin:miter;stroke-opacity:1" d="M 343.293,61.5072 360.545,84.5101 z" id="boundary" inkscape:connector-curvature="0" />
	<path style="fill:none;stroke:red;stroke-width:1px;stroke-linecap:butt;stroke-linejoin:miter;stroke-opacity:1" d="M 323.165,38.5043 343.293,61.5072 z" id="boundary" inkscape:connector-curvature="0" />
	<path style="fill:none;stroke:red;stroke-width:1px;stroke-linecap:butt;stroke-linejoin:miter;stroke-opacity:1" d="M 357.67,153.519 372.046,179.397 z" id="boundary" inkscape:connector-curvature="0" />
	<path style="fill:none;stroke:red;stroke-width:1px;stroke-linecap:butt;stroke-linejoin:miter;stroke-opacity:1" d="M 357.67,153.519 340.417,130.516 z" id="boundary" inkscape:connector-curvature="0" />
	<path style="fill:none;stroke:red;stroke-width:1px;stroke-linecap:butt;stroke-linejoin:miter;stroke-opacity:1" d="M 397.925,162.145 372.046,179.397 z" id="boundary" inkscape:connector-curvature="0" />
	<path style="fill:none;stroke:red;stroke-width:1px;stroke-linecap:butt;stroke-linejoin:miter;stroke-opacity:1" d="M 392.174,133.391 397.925,162.145 z" id="boundary" inkscape:connector-curvature="0" />
	<path style="fill:none;stroke:red;stroke-width:1px;stroke-linecap:butt;stroke-linejoin:miter;stroke-opacity:1" d="M 377.797,107.513 392.174,133.391 z" id="boundary" inkscape:connector-curvature="0" />
	<path style="fill:none;stroke:red;stroke-width:1px;stroke-linecap:butt;stroke-linejoin:miter;stroke-opacity:1" d="M 360.545,84.5101 377.797,107.513 z" id="boundary" inkscape:connector-curvature="0" />
	<path style="fill:none;stroke:red;stroke-width:1px;stroke-linecap:butt;stroke-linejoin:miter;stroke-opacity:1" d="M 248.406,458.307 239.78,429.554 z" id="boundary" inkscape:connector-curvature="0" />
	<path style="fill:none;stroke:red;stroke-width:1px;stroke-linecap:butt;stroke-linejoin:miter;stroke-opacity:1" d="M 239.78,429.554 236.904,400.8 z" id="boundary" inkscape:connector-curvature="0" />
	<path style="fill:none;stroke:red;stroke-width:1px;stroke-linecap:butt;stroke-linejoin:miter;stroke-opacity:1" d="M 236.904,400.8 236.904,372.046 z" id="boundary" inkscape:connector-curvature="0" />
	<path style="fill:none;stroke:red;stroke-width:1px;stroke-linecap:butt;stroke-linejoin:miter;stroke-opacity:1" d="M 259.907,487.061 265.658,515.814 z" id="boundary" inkscape:connector-curvature="0" />
	<path style="fill:none;stroke:red;stroke-width:1px;stroke-linecap:butt;stroke-linejoin:miter;stroke-opacity:1" d="M 265.658,515.814 265.658,544.568 z" id="boundary" inkscape:connector-curvature="0" />
	<path style="fill:none;stroke:red;stroke-width:1px;stroke-linecap:butt;stroke-linejoin:miter;stroke-opacity:1" d="M 259.907,487.061 248.406,458.307 z" id="boundary" inkscape:connector-curvature="0" />
	<path style="fill:none;stroke:red;stroke-width:1px;stroke-linecap:butt;stroke-linejoin:miter;stroke-opacity:1" d="M 248.406,996 219.652,996 z" id="boundary" inkscape:connector-curvature="0" />
	<path style="fill:none;stroke:red;stroke-width:1px;stroke-linecap:butt;stroke-linejoin:miter;stroke-opacity:1" d="M 265.658,544.568 265.658,573.322 z" id="boundary" inkscape:connector-curvature="0" />
	<path style="fill:none;stroke:red;stroke-width:1px;stroke-linecap:butt;stroke-linejoin:miter;stroke-opacity:1" d="M 265.658,573.322 265.658,602.075 z" id="boundary" inkscape:connector-curvature="0" />
	<path style="fill:none;stroke:red;stroke-width:1px;stroke-linecap:butt;stroke-linejoin:miter;stroke-opacity:1" d="M 265.658,602.075 265.658,630.829 z" id="boundary" inkscape:connector-curvature="0" />
	<path style="fill:none;stroke:red;stroke-width:1px;stroke-linecap:butt;stroke-linejoin:miter;stroke-opacity:1" d="M 265.658,659.583 265.658,688.336 z" id="boundary" inkscape:connector-curvature="0" />
	<path style="fill:none;stroke:red;stroke-width:1px;stroke-linecap:butt;stroke-linejoin:miter;stroke-opacity:1" d="M 265.658,630.829 265.658,659.583 z" id="boundary" inkscape:connector-curvature="0" />
	<path style="fill:none;stroke:red;stroke-width:1px;stroke-linecap:butt;stroke-linejoin:miter;stroke-opacity:1" d="M 265.658,688.336 265.658,717.09 z" id="boundary" inkscape:connector-curvature="0" />
	<path style="fill:none;stroke:red;stroke-width:1px;stroke-linecap:butt;stroke-linejoin:miter;stroke-opacity:1" d="M 265.658,717.09 265.658,745.843 z" id="boundary" inkscape:connector-curvature="0" />
	<path style="fill:none;stroke:red;stroke-width:1px;stroke-linecap:butt;stroke-linejoin:miter;stroke-opacity:1" d="M 265.658,774.597 265.658,803.351 z" id="boundary" inkscape:connector-curvature="0" />
	<path style="fill:none;stroke:red;stroke-width:1px;stroke-linecap:butt;stroke-linejoin:miter;stroke-opacity:1" d="M 265.658,774.597 265.658,745.843 z" id="boundary" inkscape:connector-curvature="0" />
	<path style="fill:none;stroke:red;stroke-width:1px;stroke-linecap:butt;stroke-linejoin:miter;stroke-opacity:1" d="M 265.658,803.351 265.658,832.104 z" id="boundary" inkscape:connector-curvature="0" />
	<path style="fill:none;stroke:red;stroke-width:1px;stroke-linecap:butt;stroke-linejoin:miter;stroke-opacity:1" d="M 271.409,889.612 265.658,860.858 z" id="boundary" inkscape:connector-curvature="0" />
	<path style="fill:none;stroke:red;stroke-width:1px;stroke-linecap:butt;stroke-linejoin:miter;stroke-opacity:1" d="M 265.658,860.858 265.658,832.104 z" id="boundary" inkscape:connector-curvature="0" />
	<path style="fill:none;stroke:red;stroke-width:1px;stroke-linecap:butt;stroke-linejoin:miter;stroke-opacity:1" d="M 219.652,996 190.899,996 z" id="boundary" inkscape:connector-curvature="0" />
	<path style="fill:none;stroke:red;stroke-width:1px;stroke-linecap:butt;stroke-linejoin:miter;stroke-opacity:1" d="M 277.159,975.872 271.409,947.119 z" id="boundary" inkscape:connector-curvature="0" />
	<path style="fill:none;stroke:red;stroke-width:1px;stroke-linecap:butt;stroke-linejoin:miter;stroke-opacity:1" d="M 271.409,947.119 271.409,918.365 z" id="boundary" inkscape:connector-curvature="0" />
	<path style="fill:none;stroke:red;stroke-width:1px;stroke-linecap:butt;stroke-linejoin:miter;stroke-opacity:1" d="M 271.409,918.365 271.409,889.612 z" id="boundary" inkscape:connector-curvature="0" />
	<path style="fill:none;stroke:red;stroke-width:1px;stroke-linecap:butt;stroke-linejoin:miter;stroke-opacity:1" d="M 277.159,975.872 248.406,996 z" id="boundary" inkscape:connector-curvature="0" />
	<circle cx="4" cy="38.5043" r="4" fill="#0" id="circle0"/>
	<circle cx="9.75072" cy="67.258" r="4" fill="#0" id="circle1"/>
	<circle cx="15.5014" cy="9.75072" r="4" fill="#0" id="circle2"/>
	<circle cx="24.1275" cy="93.1362" r="4" fill="#0" id="circle3"/>
	<circle cx="44.2551" cy="4" r="4" fill="#0" id="circle4"/>
	<circle cx="52.8812" cy="93.1362" r="4" fill="#0" id="circle5"/>
	<circle cx="73.0087" cy="15.5014" r="4" fill="#0" id="circle6"/>
	<circle cx="75.8841" cy="75.8841" r="4" fill="#0" id="circle7"/>
	<circle cx="101.762" cy="15.5014" r="4" fill="#0" id="circle8"/>
	<circle cx="104.638" cy="75.8841" r="4" fill="#0" id="circle9"/>
	<circle cx="119.014" cy="970.122" r="4" fill="#0" id="circle10"/>
	<circle cx="124.765" cy="889.612" r="4" fill="#0" id="circle11"/>
	<circle cx="124.765" cy="918.365" r="4" fill="#0" id="circle12"/>
	<circle cx="130.516" cy="4" r="4" fill="#0" id="circle13"/>
	<circle cx="130.516" cy="90.2609" r="4" fill="#0" id="circle14"/>
	<circle cx="130.516" cy="119.014" r="4" fill="#0" id="circle15"/>
	<circle cx="130.516" cy="492.812" r="4" fill="#0" id="circle16"/>
	<circle cx="130.516" cy="521.565" r="4" fill="#0" id="circle17"/>
	<circle cx="130.516" cy="550.319" r="4" fill="#0" id="circle18"/>
	<circle cx="130.516" cy="579.072" r="4" fill="#0" id="circle19"/>
	<circle cx="130.516" cy="607.826" r="4" fill="#0" id="circle20"/>
	<circle cx="130.516" cy="636.58" r="4" fill="#0" id="circle21"/>
	<circle cx="130.516" cy="665.333" r="4" fill="#0" id="circle22"/>
	<circle cx="130.516" cy="694.087" r="4" fill="#0" id="circle23"/>
	<circle cx="130.516" cy="722.841" r="4" fill="#0" id="circle24"/>
	<circle cx="130.516" cy="751.594" r="4" fill="#0" id="circle25"/>
	<circle cx="130.516" cy="780.348" r="4" fill="#0" id="circle26"/>
	<circle cx="130.516" cy="809.101" r="4" fill="#0" id="circle27"/>
	<circle cx="130.516" cy="837.855" r="4" fill="#0" id="circle28"/>
	<circle cx="133.391" cy="996" r="4" fill="#0" id="circle29"/>
	<circle cx="136.267" cy="147.768" r="4" fill="#0" id="circle30"/>
	<circle cx="144.893" cy="466.933" r="4" fill="#0" id="circle31"/>
	<circle cx="147.768" cy="176.522" r="4" fill="#0" id="circle32"/>
	<circle cx="153.519" cy="205.275" r="4" fill="#0" id="circle33"/>
	<circle cx="153.519" cy="429.554" r="4" fill="#0" id="circle34"/>
	<circle cx="159.27" cy="4" r="4" fill="#0" id="circle35"/>
	<circle cx="159.27" cy="234.029" r="4" fill="#0" id="circle36"/>
	<circle cx="159.27" cy="262.783" r="4" fill="#0" id="circle37"/>
	<circle cx="159.27" cy="291.536" r="4" fill="#0" id="circle38"/>
	<circle cx="159.27" cy="320.29" r="4" fill="#0" id="circle39"/>
	<circle cx="159.27" cy="349.043" r="4" fill="#0" id="circle40"/>
	<circle cx="159.27" cy="377.797" r="4" fill="#0" id="circle41"/>
	<circle cx="162.145" cy="996" r="4" fill="#0" id="circle42"/>
	<circle cx="188.023" cy="4" r="4" fill="#0" id="circle43"/>
	<circle cx="190.899" cy="996" r="4" fill="#0" id="circle44"/>
	<circle cx="216.777" cy="4" r="4" fill="#0" id="circle45"/>
	<circle cx="219.652" cy="996" r="4" fill="#0" id="circle46"/>
	<circle cx="236.904" cy="228.278" r="4" fill="#0" id="circle47"/>
	<circle cx="236.904" cy="257.032" r="4" fill="#0" id="circle48"/>
	<circle cx="236.904" cy="285.786" r="4" fill="#0" id="circle49"/>
	<circle cx="236.904" cy="314.539" r="4" fill="#0" id="circle50"/>
	<circle cx="236.904" cy="343.293" r="4" fill="#0" id="circle51"/>
	<circle cx="236.904" cy="372.046" r="4" fill="#0" id="circle52"/>
	<circle cx="236.904" cy="400.8" r="4" fill="#0" id="circle53"/>
	<circle cx="239.78" cy="429.554" r="4" fill="#0" id="circle54"/>
	<circle cx="242.655" cy="193.774" r="4" fill="#0" id="circle55"/>
	<circle cx="245.53" cy="4" r="4" fill="#0" id="circle56"/>
	<circle cx="248.406" cy="458.307" r="4" fill="#0" id="circle57"/>
	<circle cx="248.406" cy="996" r="4" fill="#0" id="circle58"/>
	<circle cx="254.157" cy="159.27" r="4" fill="#0" id="circle59"/>
	<circle cx="259.907" cy="130.516" r="4" fill="#0" id="circle60"/>
	<circle cx="259.907" cy="487.061" r="4" fill="#0" id="circle61"/>
	<circle cx="265.658" cy="84.5101" r="4" fill="#0" id="circle62"/>
	<circle cx="265.658" cy="515.814" r="4" fill="#0" id="circle63"/>
	<circle cx="265.658" cy="544.568" r="4" fill="#0" id="circle64"/>
	<circle cx="265.658" cy="573.322" r="4" fill="#0" id="circle65"/>
	<circle cx="265.658" cy="602.075" r="4" fill="#0" id="circle66"/>
	<circle cx="265.658" cy="630.829" r="4" fill="#0" id="circle67"/>
	<circle cx="265.658" cy="659.583" r="4" fill="#0" id="circle68"/>
	<circle cx="265.658" cy="688.336" r="4" fill="#0" id="circle69"/>
	<circle cx="265.658" cy="717.09" r="4" fill="#0" id="circle70"/>
	<circle cx="265.658" cy="745.843" r="4" fill="#0" id="circle71"/>
	<circle cx="265.658" cy="774.597" r="4" fill="#0" id="circle72"/>
	<circle cx="265.658" cy="803.351" r="4" fill="#0" id="circle73"/>
	<circle cx="265.658" cy="832.104" r="4" fill="#0" id="circle74"/>
	<circle cx="265.658" cy="860.858" r="4" fill="#0" id="circle75"/>
	<circle cx="271.409" cy="889.612" r="4" fill="#0" id="circle76"/>
	<circle cx="271.409" cy="918.365" r="4" fill="#0" id="circle77"/>
	<circle cx="271.409" cy="947.119" r="4" fill="#0" id="circle78"/>
	<circle cx="274.284" cy="6.87536" r="4" fill="#0" id="circle79"/>
	<circle cx="277.159" cy="975.872" r="4" fill="#0" id="circle80"/>
	<circle cx="294.412" cy="93.1362" r="4" fill="#0" id="circle81"/>
	<circle cx="300.162" cy="21.2522" r="4" fill="#0" id="circle82"/>
	<circle cx="320.29" cy="107.513" r="4" fill="#0" id="circle83"/>
	<circle cx="323.165" cy="38.5043" r="4" fill="#0" id="circle84"/>
	<circle cx="340.417" cy="130.516" r="4" fill="#0" id="circle85"/>
	<circle cx="343.293" cy="61.5072" r="4" fill="#0" id="circle86"/>
	<circle cx="357.67" cy="153.519" r="4" fill="#0" id="circle87"/>
	<circle cx="360.545" cy="84.5101" r="4" fill="#0" id="circle88"/>
	<circle cx="372.046" cy="179.397" r="4" fill="#0" id="circle89"/>
	<circle cx="377.797" cy="107.513" r="4" fill="#0" id="circle90"/>
	<circle cx="392.174" cy="133.391" r="4" fill="#0" id="circle91"/>
	<circle cx="397.925" cy="162.145" r="4" fill="#0" id="circle92"/>
	</g>
</svg>