<?xml version="1.0" encoding="UTF-8" standalone="no"?>
<!-- Created with CurveBenchmark -->
<svg
	xmlns:dc="http://purl.org/dc/elements/1.1/"
	xmlns:cc="http://creativecommons.org/ns#"
	xmlns:rdf="http://www.w3.org/1999/02/22-rdf-syntax-ns#"
	xmlns:svg="http://www.w3.org/2000/svg"
	xmlns="http://www.w3.org/2000/svg"
	xmlns:sodipodi="http://sodipodi.sourceforge.net/DTD/sodipodi-0.dtd"
	xmlns:inkscape="http://www.inkscape.org/namespaces/inkscape"
	width="1000"
	height="1000"
	id="svg2"
	version="1.1"
	sodipodi:docname="manifold/gathan1-children-14.png.txt">
<defs
	id="defs4" />
<metadata
	id="metadata7">
	<rdf:RDF>
		<cc:Work
			rdf:about="">
			<dc:format>image/svg+xml</dc:format>
			<dc:type
				rdf:resource="http://purl.org/dc/dcmitype/StillImage" />
			<dc:title></dc:title>
		</cc:Work>
	</rdf:RDF>
</metadata>
<g
	inkscape:label="Layer 1"
	inkscape:groupmode="layer"
	id="layer1">
	<path style="fill:none;stroke:red;stroke-width:1px;stroke-linecap:butt;stroke-linejoin:miter;stroke-opacity:1" d="M 21.799,84.689 21.799,96.555 z" id="boundary" inkscape:connector-curvature="0" />
	<path style="fill:none;stroke:red;stroke-width:1px;stroke-linecap:butt;stroke-linejoin:miter;stroke-opacity:1" d="M 21.799,84.689 27.7321,72.823 z" id="boundary" inkscape:connector-curvature="0" />
	<path style="fill:none;stroke:red;stroke-width:1px;stroke-linecap:butt;stroke-linejoin:miter;stroke-opacity:1" d="M 21.799,108.421 21.799,96.555 z" id="boundary" inkscape:connector-curvature="0" />
	<path style="fill:none;stroke:red;stroke-width:1px;stroke-linecap:butt;stroke-linejoin:miter;stroke-opacity:1" d="M 15.866,292.344 9.93301,304.211 z" id="boundary" inkscape:connector-curvature="0" />
	<path style="fill:none;stroke:red;stroke-width:1px;stroke-linecap:butt;stroke-linejoin:miter;stroke-opacity:1" d="M 21.799,108.421 21.799,120.287 z" id="boundary" inkscape:connector-curvature="0" />
	<path style="fill:none;stroke:red;stroke-width:1px;stroke-linecap:butt;stroke-linejoin:miter;stroke-opacity:1" d="M 21.799,280.478 15.866,292.344 z" id="boundary" inkscape:connector-curvature="0" />
	<path style="fill:none;stroke:red;stroke-width:1px;stroke-linecap:butt;stroke-linejoin:miter;stroke-opacity:1" d="M 27.7321,130.967 21.799,120.287 z" id="boundary" inkscape:connector-curvature="0" />
	<path style="fill:none;stroke:red;stroke-width:1px;stroke-linecap:butt;stroke-linejoin:miter;stroke-opacity:1" d="M 9.93301,304.211 4,316.077 z" id="boundary" inkscape:connector-curvature="0" />
	<path style="fill:none;stroke:red;stroke-width:1px;stroke-linecap:butt;stroke-linejoin:miter;stroke-opacity:1" d="M 33.6651,141.646 27.7321,130.967 z" id="boundary" inkscape:connector-curvature="0" />
	<path style="fill:none;stroke:red;stroke-width:1px;stroke-linecap:butt;stroke-linejoin:miter;stroke-opacity:1" d="M 27.7321,268.612 21.799,280.478 z" id="boundary" inkscape:connector-curvature="0" />
	<path style="fill:none;stroke:red;stroke-width:1px;stroke-linecap:butt;stroke-linejoin:miter;stroke-opacity:1" d="M 27.7321,268.612 37.2249,259.12 z" id="boundary" inkscape:connector-curvature="0" />
	<path style="fill:none;stroke:red;stroke-width:1px;stroke-linecap:butt;stroke-linejoin:miter;stroke-opacity:1" d="M 27.7321,72.823 33.6651,60.9569 z" id="boundary" inkscape:connector-curvature="0" />
	<path style="fill:none;stroke:red;stroke-width:1px;stroke-linecap:butt;stroke-linejoin:miter;stroke-opacity:1" d="M 33.6651,60.9569 43.1579,51.4641 z" id="boundary" inkscape:connector-curvature="0" />
	<path style="fill:none;stroke:red;stroke-width:1px;stroke-linecap:butt;stroke-linejoin:miter;stroke-opacity:1" d="M 4,327.943 4,316.077 z" id="boundary" inkscape:connector-curvature="0" />
	<path style="fill:none;stroke:red;stroke-width:1px;stroke-linecap:butt;stroke-linejoin:miter;stroke-opacity:1" d="M 4,339.809 4,327.943 z" id="boundary" inkscape:connector-curvature="0" />
	<path style="fill:none;stroke:red;stroke-width:1px;stroke-linecap:butt;stroke-linejoin:miter;stroke-opacity:1" d="M 9.93301,350.488 4,339.809 z" id="boundary" inkscape:connector-curvature="0" />
	<path style="fill:none;stroke:red;stroke-width:1px;stroke-linecap:butt;stroke-linejoin:miter;stroke-opacity:1" d="M 9.93301,350.488 9.93301,362.354 z" id="boundary" inkscape:connector-curvature="0" />
	<path style="fill:none;stroke:red;stroke-width:1px;stroke-linecap:butt;stroke-linejoin:miter;stroke-opacity:1" d="M 9.93301,374.22 9.93301,362.354 z" id="boundary" inkscape:connector-curvature="0" />
	<path style="fill:none;stroke:red;stroke-width:1px;stroke-linecap:butt;stroke-linejoin:miter;stroke-opacity:1" d="M 15.866,384.9 9.93301,374.22 z" id="boundary" inkscape:connector-curvature="0" />
	<path style="fill:none;stroke:red;stroke-width:1px;stroke-linecap:butt;stroke-linejoin:miter;stroke-opacity:1" d="M 21.799,407.445 15.866,396.766 z" id="boundary" inkscape:connector-curvature="0" />
	<path style="fill:none;stroke:red;stroke-width:1px;stroke-linecap:butt;stroke-linejoin:miter;stroke-opacity:1" d="M 15.866,396.766 15.866,384.9 z" id="boundary" inkscape:connector-curvature="0" />
	<path style="fill:none;stroke:red;stroke-width:1px;stroke-linecap:butt;stroke-linejoin:miter;stroke-opacity:1" d="M 21.799,407.445 21.799,419.311 z" id="boundary" inkscape:connector-curvature="0" />
	<path style="fill:none;stroke:red;stroke-width:1px;stroke-linecap:butt;stroke-linejoin:miter;stroke-opacity:1" d="M 21.799,419.311 21.799,431.177 z" id="boundary" inkscape:connector-curvature="0" />
	<path style="fill:none;stroke:red;stroke-width:1px;stroke-linecap:butt;stroke-linejoin:miter;stroke-opacity:1" d="M 21.799,443.043 21.799,454.909 z" id="boundary" inkscape:connector-curvature="0" />
	<path style="fill:none;stroke:red;stroke-width:1px;stroke-linecap:butt;stroke-linejoin:miter;stroke-opacity:1" d="M 27.7321,465.589 21.799,454.909 z" id="boundary" inkscape:connector-curvature="0" />
	<path style="fill:none;stroke:red;stroke-width:1px;stroke-linecap:butt;stroke-linejoin:miter;stroke-opacity:1" d="M 21.799,443.043 21.799,431.177 z" id="boundary" inkscape:connector-curvature="0" />
	<path style="fill:none;stroke:red;stroke-width:1px;stroke-linecap:butt;stroke-linejoin:miter;stroke-opacity:1" d="M 33.6651,141.646 37.2249,153.512 z" id="boundary" inkscape:connector-curvature="0" />
	<path style="fill:none;stroke:red;stroke-width:1px;stroke-linecap:butt;stroke-linejoin:miter;stroke-opacity:1" d="M 82.3158,18.2392 94.1818,12.3062 z" id="boundary" inkscape:connector-curvature="0" />
	<path style="fill:none;stroke:red;stroke-width:1px;stroke-linecap:butt;stroke-linejoin:miter;stroke-opacity:1" d="M 70.4498,24.1722 62.1435,33.6651 z" id="boundary" inkscape:connector-curvature="0" />
	<path style="fill:none;stroke:red;stroke-width:1px;stroke-linecap:butt;stroke-linejoin:miter;stroke-opacity:1" d="M 62.1435,33.6651 52.6507,41.9713 z" id="boundary" inkscape:connector-curvature="0" />
	<path style="fill:none;stroke:red;stroke-width:1px;stroke-linecap:butt;stroke-linejoin:miter;stroke-opacity:1" d="M 70.4498,24.1722 82.3158,18.2392 z" id="boundary" inkscape:connector-curvature="0" />
	<path style="fill:none;stroke:red;stroke-width:1px;stroke-linecap:butt;stroke-linejoin:miter;stroke-opacity:1" d="M 94.1818,12.3062 106.048,6.37321 z" id="boundary" inkscape:connector-curvature="0" />
	<path style="fill:none;stroke:red;stroke-width:1px;stroke-linecap:butt;stroke-linejoin:miter;stroke-opacity:1" d="M 106.048,6.37321 117.914,4 z" id="boundary" inkscape:connector-curvature="0" />
	<path style="fill:none;stroke:red;stroke-width:1px;stroke-linecap:butt;stroke-linejoin:miter;stroke-opacity:1" d="M 129.78,4 141.646,4 z" id="boundary" inkscape:connector-curvature="0" />
	<path style="fill:none;stroke:red;stroke-width:1px;stroke-linecap:butt;stroke-linejoin:miter;stroke-opacity:1" d="M 141.646,4 152.325,9.93301 z" id="boundary" inkscape:connector-curvature="0" />
	<path style="fill:none;stroke:red;stroke-width:1px;stroke-linecap:butt;stroke-linejoin:miter;stroke-opacity:1" d="M 164.191,9.93301 152.325,9.93301 z" id="boundary" inkscape:connector-curvature="0" />
	<path style="fill:none;stroke:red;stroke-width:1px;stroke-linecap:butt;stroke-linejoin:miter;stroke-opacity:1" d="M 176.057,9.93301 164.191,9.93301 z" id="boundary" inkscape:connector-curvature="0" />
	<path style="fill:none;stroke:red;stroke-width:1px;stroke-linecap:butt;stroke-linejoin:miter;stroke-opacity:1" d="M 117.914,4 129.78,4 z" id="boundary" inkscape:connector-curvature="0" />
	<path style="fill:none;stroke:red;stroke-width:1px;stroke-linecap:butt;stroke-linejoin:miter;stroke-opacity:1" d="M 43.1579,164.191 37.2249,153.512 z" id="boundary" inkscape:connector-curvature="0" />
	<path style="fill:none;stroke:red;stroke-width:1px;stroke-linecap:butt;stroke-linejoin:miter;stroke-opacity:1" d="M 43.1579,51.4641 52.6507,41.9713 z" id="boundary" inkscape:connector-curvature="0" />
	<path style="fill:none;stroke:red;stroke-width:1px;stroke-linecap:butt;stroke-linejoin:miter;stroke-opacity:1" d="M 51.4641,173.684 43.1579,164.191 z" id="boundary" inkscape:connector-curvature="0" />
	<path style="fill:none;stroke:red;stroke-width:1px;stroke-linecap:butt;stroke-linejoin:miter;stroke-opacity:1" d="M 49.0909,253.187 37.2249,259.12 z" id="boundary" inkscape:connector-curvature="0" />
	<path style="fill:none;stroke:red;stroke-width:1px;stroke-linecap:butt;stroke-linejoin:miter;stroke-opacity:1" d="M 58.5837,243.694 49.0909,253.187 z" id="boundary" inkscape:connector-curvature="0" />
	<path style="fill:none;stroke:red;stroke-width:1px;stroke-linecap:butt;stroke-linejoin:miter;stroke-opacity:1" d="M 60.9569,181.99 69.2632,191.483 z" id="boundary" inkscape:connector-curvature="0" />
	<path style="fill:none;stroke:red;stroke-width:1px;stroke-linecap:butt;stroke-linejoin:miter;stroke-opacity:1" d="M 60.9569,181.99 51.4641,173.684 z" id="boundary" inkscape:connector-curvature="0" />
	<path style="fill:none;stroke:red;stroke-width:1px;stroke-linecap:butt;stroke-linejoin:miter;stroke-opacity:1" d="M 69.2632,191.483 75.1962,202.163 z" id="boundary" inkscape:connector-curvature="0" />
	<path style="fill:none;stroke:red;stroke-width:1px;stroke-linecap:butt;stroke-linejoin:miter;stroke-opacity:1" d="M 75.1962,202.163 75.1962,214.029 z" id="boundary" inkscape:connector-curvature="0" />
	<path style="fill:none;stroke:red;stroke-width:1px;stroke-linecap:butt;stroke-linejoin:miter;stroke-opacity:1" d="M 68.0766,235.388 58.5837,243.694 z" id="boundary" inkscape:connector-curvature="0" />
	<path style="fill:none;stroke:red;stroke-width:1px;stroke-linecap:butt;stroke-linejoin:miter;stroke-opacity:1" d="M 75.1962,214.029 75.1962,225.895 z" id="boundary" inkscape:connector-curvature="0" />
	<path style="fill:none;stroke:red;stroke-width:1px;stroke-linecap:butt;stroke-linejoin:miter;stroke-opacity:1" d="M 75.1962,225.895 68.0766,235.388 z" id="boundary" inkscape:connector-curvature="0" />
	<path style="fill:none;stroke:red;stroke-width:1px;stroke-linecap:butt;stroke-linejoin:miter;stroke-opacity:1" d="M 33.6651,489.321 28.9187,477.455 z" id="boundary" inkscape:connector-curvature="0" />
	<path style="fill:none;stroke:red;stroke-width:1px;stroke-linecap:butt;stroke-linejoin:miter;stroke-opacity:1" d="M 28.9187,477.455 27.7321,465.589 z" id="boundary" inkscape:connector-curvature="0" />
	<path style="fill:none;stroke:red;stroke-width:1px;stroke-linecap:butt;stroke-linejoin:miter;stroke-opacity:1" d="M 33.6651,489.321 34.8517,501.187 z" id="boundary" inkscape:connector-curvature="0" />
	<path style="fill:none;stroke:red;stroke-width:1px;stroke-linecap:butt;stroke-linejoin:miter;stroke-opacity:1" d="M 39.5981,535.598 39.5981,547.464 z" id="boundary" inkscape:connector-curvature="0" />
	<path style="fill:none;stroke:red;stroke-width:1px;stroke-linecap:butt;stroke-linejoin:miter;stroke-opacity:1" d="M 34.8517,501.187 40.7847,511.866 z" id="boundary" inkscape:connector-curvature="0" />
	<path style="fill:none;stroke:red;stroke-width:1px;stroke-linecap:butt;stroke-linejoin:miter;stroke-opacity:1" d="M 39.5981,535.598 45.5311,523.732 z" id="boundary" inkscape:connector-curvature="0" />
	<path style="fill:none;stroke:red;stroke-width:1px;stroke-linecap:butt;stroke-linejoin:miter;stroke-opacity:1" d="M 39.5981,547.464 39.5981,559.33 z" id="boundary" inkscape:connector-curvature="0" />
	<path style="fill:none;stroke:red;stroke-width:1px;stroke-linecap:butt;stroke-linejoin:miter;stroke-opacity:1" d="M 40.7847,511.866 45.5311,523.732 z" id="boundary" inkscape:connector-curvature="0" />
	<path style="fill:none;stroke:red;stroke-width:1px;stroke-linecap:butt;stroke-linejoin:miter;stroke-opacity:1" d="M 45.5311,593.742 39.5981,583.062 z" id="boundary" inkscape:connector-curvature="0" />
	<path style="fill:none;stroke:red;stroke-width:1px;stroke-linecap:butt;stroke-linejoin:miter;stroke-opacity:1" d="M 39.5981,583.062 39.5981,571.196 z" id="boundary" inkscape:connector-curvature="0" />
	<path style="fill:none;stroke:red;stroke-width:1px;stroke-linecap:butt;stroke-linejoin:miter;stroke-opacity:1" d="M 39.5981,571.196 39.5981,559.33 z" id="boundary" inkscape:connector-curvature="0" />
	<path style="fill:none;stroke:red;stroke-width:1px;stroke-linecap:butt;stroke-linejoin:miter;stroke-opacity:1" d="M 45.5311,593.742 45.5311,605.608 z" id="boundary" inkscape:connector-curvature="0" />
	<path style="fill:none;stroke:red;stroke-width:1px;stroke-linecap:butt;stroke-linejoin:miter;stroke-opacity:1" d="M 45.5311,605.608 51.4641,616.287 z" id="boundary" inkscape:connector-curvature="0" />
	<path style="fill:none;stroke:red;stroke-width:1px;stroke-linecap:butt;stroke-linejoin:miter;stroke-opacity:1" d="M 51.4641,616.287 55.0239,628.153 z" id="boundary" inkscape:connector-curvature="0" />
	<path style="fill:none;stroke:red;stroke-width:1px;stroke-linecap:butt;stroke-linejoin:miter;stroke-opacity:1" d="M 57.3971,640.019 55.0239,628.153 z" id="boundary" inkscape:connector-curvature="0" />
	<path style="fill:none;stroke:red;stroke-width:1px;stroke-linecap:butt;stroke-linejoin:miter;stroke-opacity:1" d="M 63.3301,662.565 57.3971,651.885 z" id="boundary" inkscape:connector-curvature="0" />
	<path style="fill:none;stroke:red;stroke-width:1px;stroke-linecap:butt;stroke-linejoin:miter;stroke-opacity:1" d="M 57.3971,651.885 57.3971,640.019 z" id="boundary" inkscape:connector-curvature="0" />
	<path style="fill:none;stroke:red;stroke-width:1px;stroke-linecap:butt;stroke-linejoin:miter;stroke-opacity:1" d="M 69.2632,673.244 63.3301,662.565 z" id="boundary" inkscape:connector-curvature="0" />
	<path style="fill:none;stroke:red;stroke-width:1px;stroke-linecap:butt;stroke-linejoin:miter;stroke-opacity:1" d="M 84.689,692.23 75.1962,683.923 z" id="boundary" inkscape:connector-curvature="0" />
	<path style="fill:none;stroke:red;stroke-width:1px;stroke-linecap:butt;stroke-linejoin:miter;stroke-opacity:1" d="M 75.1962,683.923 69.2632,673.244 z" id="boundary" inkscape:connector-curvature="0" />
	<path style="fill:none;stroke:red;stroke-width:1px;stroke-linecap:butt;stroke-linejoin:miter;stroke-opacity:1" d="M 87.0622,778.852 81.1292,796.651 z" id="boundary" inkscape:connector-curvature="0" />
	<path style="fill:none;stroke:red;stroke-width:1px;stroke-linecap:butt;stroke-linejoin:miter;stroke-opacity:1" d="M 81.1292,796.651 81.1292,808.517 z" id="boundary" inkscape:connector-curvature="0" />
	<path style="fill:none;stroke:red;stroke-width:1px;stroke-linecap:butt;stroke-linejoin:miter;stroke-opacity:1" d="M 81.1292,820.383 81.1292,832.249 z" id="boundary" inkscape:connector-curvature="0" />
	<path style="fill:none;stroke:red;stroke-width:1px;stroke-linecap:butt;stroke-linejoin:miter;stroke-opacity:1" d="M 87.0622,842.928 81.1292,832.249 z" id="boundary" inkscape:connector-curvature="0" />
	<path style="fill:none;stroke:red;stroke-width:1px;stroke-linecap:butt;stroke-linejoin:miter;stroke-opacity:1" d="M 81.1292,820.383 81.1292,808.517 z" id="boundary" inkscape:connector-curvature="0" />
	<path style="fill:none;stroke:red;stroke-width:1px;stroke-linecap:butt;stroke-linejoin:miter;stroke-opacity:1" d="M 92.9952,766.986 87.0622,778.852 z" id="boundary" inkscape:connector-curvature="0" />
	<path style="fill:none;stroke:red;stroke-width:1px;stroke-linecap:butt;stroke-linejoin:miter;stroke-opacity:1" d="M 84.689,692.23 92.9952,701.722 z" id="boundary" inkscape:connector-curvature="0" />
	<path style="fill:none;stroke:red;stroke-width:1px;stroke-linecap:butt;stroke-linejoin:miter;stroke-opacity:1" d="M 98.9282,755.12 92.9952,766.986 z" id="boundary" inkscape:connector-curvature="0" />
	<path style="fill:none;stroke:red;stroke-width:1px;stroke-linecap:butt;stroke-linejoin:miter;stroke-opacity:1" d="M 92.9952,865.474 87.0622,854.794 z" id="boundary" inkscape:connector-curvature="0" />
	<path style="fill:none;stroke:red;stroke-width:1px;stroke-linecap:butt;stroke-linejoin:miter;stroke-opacity:1" d="M 87.0622,854.794 87.0622,842.928 z" id="boundary" inkscape:connector-curvature="0" />
	<path style="fill:none;stroke:red;stroke-width:1px;stroke-linecap:butt;stroke-linejoin:miter;stroke-opacity:1" d="M 98.9282,876.153 92.9952,865.474 z" id="boundary" inkscape:connector-curvature="0" />
	<path style="fill:none;stroke:red;stroke-width:1px;stroke-linecap:butt;stroke-linejoin:miter;stroke-opacity:1" d="M 104.861,721.895 104.861,733.761 z" id="boundary" inkscape:connector-curvature="0" />
	<path style="fill:none;stroke:red;stroke-width:1px;stroke-linecap:butt;stroke-linejoin:miter;stroke-opacity:1" d="M 104.861,721.895 102.488,710.029 z" id="boundary" inkscape:connector-curvature="0" />
	<path style="fill:none;stroke:red;stroke-width:1px;stroke-linecap:butt;stroke-linejoin:miter;stroke-opacity:1" d="M 98.9282,755.12 104.861,733.761 z" id="boundary" inkscape:connector-curvature="0" />
	<path style="fill:none;stroke:red;stroke-width:1px;stroke-linecap:butt;stroke-linejoin:miter;stroke-opacity:1" d="M 98.9282,888.019 104.861,898.699 z" id="boundary" inkscape:connector-curvature="0" />
	<path style="fill:none;stroke:red;stroke-width:1px;stroke-linecap:butt;stroke-linejoin:miter;stroke-opacity:1" d="M 104.861,898.699 98.9282,915.311 z" id="boundary" inkscape:connector-curvature="0" />
	<path style="fill:none;stroke:red;stroke-width:1px;stroke-linecap:butt;stroke-linejoin:miter;stroke-opacity:1" d="M 98.9282,888.019 98.9282,876.153 z" id="boundary" inkscape:connector-curvature="0" />
	<path style="fill:none;stroke:red;stroke-width:1px;stroke-linecap:butt;stroke-linejoin:miter;stroke-opacity:1" d="M 92.9952,701.722 102.488,710.029 z" id="boundary" inkscape:connector-curvature="0" />
	<path style="fill:none;stroke:red;stroke-width:1px;stroke-linecap:butt;stroke-linejoin:miter;stroke-opacity:1" d="M 98.9282,915.311 98.9282,927.177 z" id="boundary" inkscape:connector-curvature="0" />
	<path style="fill:none;stroke:red;stroke-width:1px;stroke-linecap:butt;stroke-linejoin:miter;stroke-opacity:1" d="M 98.9282,927.177 92.9952,939.043 z" id="boundary" inkscape:connector-curvature="0" />
	<path style="fill:none;stroke:red;stroke-width:1px;stroke-linecap:butt;stroke-linejoin:miter;stroke-opacity:1" d="M 111.981,978.201 102.488,971.081 z" id="boundary" inkscape:connector-curvature="0" />
	<path style="fill:none;stroke:red;stroke-width:1px;stroke-linecap:butt;stroke-linejoin:miter;stroke-opacity:1" d="M 92.9952,950.909 92.9952,939.043 z" id="boundary" inkscape:connector-curvature="0" />
	<path style="fill:none;stroke:red;stroke-width:1px;stroke-linecap:butt;stroke-linejoin:miter;stroke-opacity:1" d="M 102.488,971.081 92.9952,962.775 z" id="boundary" inkscape:connector-curvature="0" />
	<path style="fill:none;stroke:red;stroke-width:1px;stroke-linecap:butt;stroke-linejoin:miter;stroke-opacity:1" d="M 92.9952,962.775 92.9952,950.909 z" id="boundary" inkscape:connector-curvature="0" />
	<path style="fill:none;stroke:red;stroke-width:1px;stroke-linecap:butt;stroke-linejoin:miter;stroke-opacity:1" d="M 134.526,984.134 122.66,984.134 z" id="boundary" inkscape:connector-curvature="0" />
	<path style="fill:none;stroke:red;stroke-width:1px;stroke-linecap:butt;stroke-linejoin:miter;stroke-opacity:1" d="M 122.66,984.134 111.981,978.201 z" id="boundary" inkscape:connector-curvature="0" />
	<path style="fill:none;stroke:red;stroke-width:1px;stroke-linecap:butt;stroke-linejoin:miter;stroke-opacity:1" d="M 134.526,984.134 145.206,990.067 z" id="boundary" inkscape:connector-curvature="0" />
	<path style="fill:none;stroke:red;stroke-width:1px;stroke-linecap:butt;stroke-linejoin:miter;stroke-opacity:1" d="M 145.206,990.067 157.072,990.067 z" id="boundary" inkscape:connector-curvature="0" />
	<path style="fill:none;stroke:red;stroke-width:1px;stroke-linecap:butt;stroke-linejoin:miter;stroke-opacity:1" d="M 157.072,990.067 167.751,996 z" id="boundary" inkscape:connector-curvature="0" />
	<path style="fill:none;stroke:red;stroke-width:1px;stroke-linecap:butt;stroke-linejoin:miter;stroke-opacity:1" d="M 179.617,996 167.751,996 z" id="boundary" inkscape:connector-curvature="0" />
	<path style="fill:none;stroke:red;stroke-width:1px;stroke-linecap:butt;stroke-linejoin:miter;stroke-opacity:1" d="M 191.483,996 179.617,996 z" id="boundary" inkscape:connector-curvature="0" />
	<path style="fill:none;stroke:red;stroke-width:1px;stroke-linecap:butt;stroke-linejoin:miter;stroke-opacity:1" d="M 176.057,9.93301 186.737,15.866 z" id="boundary" inkscape:connector-curvature="0" />
	<path style="fill:none;stroke:red;stroke-width:1px;stroke-linecap:butt;stroke-linejoin:miter;stroke-opacity:1" d="M 186.737,15.866 198.603,15.866 z" id="boundary" inkscape:connector-curvature="0" />
	<path style="fill:none;stroke:red;stroke-width:1px;stroke-linecap:butt;stroke-linejoin:miter;stroke-opacity:1" d="M 198.603,15.866 209.282,21.799 z" id="boundary" inkscape:connector-curvature="0" />
	<path style="fill:none;stroke:red;stroke-width:1px;stroke-linecap:butt;stroke-linejoin:miter;stroke-opacity:1" d="M 209.282,21.799 219.962,27.7321 z" id="boundary" inkscape:connector-curvature="0" />
	<path style="fill:none;stroke:red;stroke-width:1px;stroke-linecap:butt;stroke-linejoin:miter;stroke-opacity:1" d="M 219.962,27.7321 230.641,33.6651 z" id="boundary" inkscape:connector-curvature="0" />
	<path style="fill:none;stroke:red;stroke-width:1px;stroke-linecap:butt;stroke-linejoin:miter;stroke-opacity:1" d="M 240.134,40.7847 248.44,50.2775 z" id="boundary" inkscape:connector-curvature="0" />
	<path style="fill:none;stroke:red;stroke-width:1px;stroke-linecap:butt;stroke-linejoin:miter;stroke-opacity:1" d="M 230.641,33.6651 240.134,40.7847 z" id="boundary" inkscape:connector-curvature="0" />
	<path style="fill:none;stroke:red;stroke-width:1px;stroke-linecap:butt;stroke-linejoin:miter;stroke-opacity:1" d="M 248.44,50.2775 257.933,58.5837 z" id="boundary" inkscape:connector-curvature="0" />
	<path style="fill:none;stroke:red;stroke-width:1px;stroke-linecap:butt;stroke-linejoin:miter;stroke-opacity:1" d="M 257.933,58.5837 266.239,68.0766 z" id="boundary" inkscape:connector-curvature="0" />
	<path style="fill:none;stroke:red;stroke-width:1px;stroke-linecap:butt;stroke-linejoin:miter;stroke-opacity:1" d="M 272.172,78.756 272.172,90.622 z" id="boundary" inkscape:connector-curvature="0" />
	<path style="fill:none;stroke:red;stroke-width:1px;stroke-linecap:butt;stroke-linejoin:miter;stroke-opacity:1" d="M 266.239,68.0766 272.172,78.756 z" id="boundary" inkscape:connector-curvature="0" />
	<path style="fill:none;stroke:red;stroke-width:1px;stroke-linecap:butt;stroke-linejoin:miter;stroke-opacity:1" d="M 272.172,102.488 272.172,90.622 z" id="boundary" inkscape:connector-curvature="0" />
	<path style="fill:none;stroke:red;stroke-width:1px;stroke-linecap:butt;stroke-linejoin:miter;stroke-opacity:1" d="M 272.172,102.488 272.172,114.354 z" id="boundary" inkscape:connector-curvature="0" />
	<path style="fill:none;stroke:red;stroke-width:1px;stroke-linecap:butt;stroke-linejoin:miter;stroke-opacity:1" d="M 260.306,200.976 260.306,212.842 z" id="boundary" inkscape:connector-curvature="0" />
	<path style="fill:none;stroke:red;stroke-width:1px;stroke-linecap:butt;stroke-linejoin:miter;stroke-opacity:1" d="M 260.306,212.842 254.373,224.708 z" id="boundary" inkscape:connector-curvature="0" />
	<path style="fill:none;stroke:red;stroke-width:1px;stroke-linecap:butt;stroke-linejoin:miter;stroke-opacity:1" d="M 270.986,268.612 262.679,259.12 z" id="boundary" inkscape:connector-curvature="0" />
	<path style="fill:none;stroke:red;stroke-width:1px;stroke-linecap:butt;stroke-linejoin:miter;stroke-opacity:1" d="M 254.373,236.574 254.373,224.708 z" id="boundary" inkscape:connector-curvature="0" />
	<path style="fill:none;stroke:red;stroke-width:1px;stroke-linecap:butt;stroke-linejoin:miter;stroke-opacity:1" d="M 262.679,259.12 256.746,248.44 z" id="boundary" inkscape:connector-curvature="0" />
	<path style="fill:none;stroke:red;stroke-width:1px;stroke-linecap:butt;stroke-linejoin:miter;stroke-opacity:1" d="M 256.746,248.44 254.373,236.574 z" id="boundary" inkscape:connector-curvature="0" />
	<path style="fill:none;stroke:red;stroke-width:1px;stroke-linecap:butt;stroke-linejoin:miter;stroke-opacity:1" d="M 260.306,200.976 266.239,183.177 z" id="boundary" inkscape:connector-curvature="0" />
	<path style="fill:none;stroke:red;stroke-width:1px;stroke-linecap:butt;stroke-linejoin:miter;stroke-opacity:1" d="M 272.172,114.354 272.172,126.22 z" id="boundary" inkscape:connector-curvature="0" />
	<path style="fill:none;stroke:red;stroke-width:1px;stroke-linecap:butt;stroke-linejoin:miter;stroke-opacity:1" d="M 272.172,126.22 266.239,141.646 z" id="boundary" inkscape:connector-curvature="0" />
	<path style="fill:none;stroke:red;stroke-width:1px;stroke-linecap:butt;stroke-linejoin:miter;stroke-opacity:1" d="M 266.239,153.512 266.239,141.646 z" id="boundary" inkscape:connector-curvature="0" />
	<path style="fill:none;stroke:red;stroke-width:1px;stroke-linecap:butt;stroke-linejoin:miter;stroke-opacity:1" d="M 266.239,153.512 268.612,165.378 z" id="boundary" inkscape:connector-curvature="0" />
	<path style="fill:none;stroke:red;stroke-width:1px;stroke-linecap:butt;stroke-linejoin:miter;stroke-opacity:1" d="M 268.612,165.378 266.239,183.177 z" id="boundary" inkscape:connector-curvature="0" />
	<path style="fill:none;stroke:red;stroke-width:1px;stroke-linecap:butt;stroke-linejoin:miter;stroke-opacity:1" d="M 278.105,278.105 270.986,268.612 z" id="boundary" inkscape:connector-curvature="0" />
	<path style="fill:none;stroke:red;stroke-width:1px;stroke-linecap:butt;stroke-linejoin:miter;stroke-opacity:1" d="M 278.105,278.105 284.038,288.785 z" id="boundary" inkscape:connector-curvature="0" />
	<path style="fill:none;stroke:red;stroke-width:1px;stroke-linecap:butt;stroke-linejoin:miter;stroke-opacity:1" d="M 284.038,288.785 284.038,300.651 z" id="boundary" inkscape:connector-curvature="0" />
	<path style="fill:none;stroke:red;stroke-width:1px;stroke-linecap:butt;stroke-linejoin:miter;stroke-opacity:1" d="M 284.038,300.651 284.038,312.517 z" id="boundary" inkscape:connector-curvature="0" />
	<path style="fill:none;stroke:red;stroke-width:1px;stroke-linecap:butt;stroke-linejoin:miter;stroke-opacity:1" d="M 284.038,312.517 289.971,323.196 z" id="boundary" inkscape:connector-curvature="0" />
	<path style="fill:none;stroke:red;stroke-width:1px;stroke-linecap:butt;stroke-linejoin:miter;stroke-opacity:1" d="M 289.971,323.196 289.971,335.062 z" id="boundary" inkscape:connector-curvature="0" />
	<path style="fill:none;stroke:red;stroke-width:1px;stroke-linecap:butt;stroke-linejoin:miter;stroke-opacity:1" d="M 295.904,345.742 289.971,335.062 z" id="boundary" inkscape:connector-curvature="0" />
	<path style="fill:none;stroke:red;stroke-width:1px;stroke-linecap:butt;stroke-linejoin:miter;stroke-opacity:1" d="M 295.904,357.608 289.971,373.033 z" id="boundary" inkscape:connector-curvature="0" />
	<path style="fill:none;stroke:red;stroke-width:1px;stroke-linecap:butt;stroke-linejoin:miter;stroke-opacity:1" d="M 295.904,345.742 295.904,357.608 z" id="boundary" inkscape:connector-curvature="0" />
	<path style="fill:none;stroke:red;stroke-width:1px;stroke-linecap:butt;stroke-linejoin:miter;stroke-opacity:1" d="M 289.971,384.9 289.971,373.033 z" id="boundary" inkscape:connector-curvature="0" />
	<path style="fill:none;stroke:red;stroke-width:1px;stroke-linecap:butt;stroke-linejoin:miter;stroke-opacity:1" d="M 295.904,407.445 289.971,396.766 z" id="boundary" inkscape:connector-curvature="0" />
	<path style="fill:none;stroke:red;stroke-width:1px;stroke-linecap:butt;stroke-linejoin:miter;stroke-opacity:1" d="M 289.971,396.766 289.971,384.9 z" id="boundary" inkscape:connector-curvature="0" />
	<path style="fill:none;stroke:red;stroke-width:1px;stroke-linecap:butt;stroke-linejoin:miter;stroke-opacity:1" d="M 295.904,407.445 301.837,418.124 z" id="boundary" inkscape:connector-curvature="0" />
	<path style="fill:none;stroke:red;stroke-width:1px;stroke-linecap:butt;stroke-linejoin:miter;stroke-opacity:1" d="M 301.837,418.124 307.77,428.804 z" id="boundary" inkscape:connector-curvature="0" />
	<path style="fill:none;stroke:red;stroke-width:1px;stroke-linecap:butt;stroke-linejoin:miter;stroke-opacity:1" d="M 312.517,440.67 307.77,428.804 z" id="boundary" inkscape:connector-curvature="0" />
	<path style="fill:none;stroke:red;stroke-width:1px;stroke-linecap:butt;stroke-linejoin:miter;stroke-opacity:1" d="M 312.517,440.67 313.703,452.536 z" id="boundary" inkscape:connector-curvature="0" />
	<path style="fill:none;stroke:red;stroke-width:1px;stroke-linecap:butt;stroke-linejoin:miter;stroke-opacity:1" d="M 313.703,452.536 318.45,464.402 z" id="boundary" inkscape:connector-curvature="0" />
	<path style="fill:none;stroke:red;stroke-width:1px;stroke-linecap:butt;stroke-linejoin:miter;stroke-opacity:1" d="M 318.45,464.402 319.636,476.268 z" id="boundary" inkscape:connector-curvature="0" />
	<path style="fill:none;stroke:red;stroke-width:1px;stroke-linecap:butt;stroke-linejoin:miter;stroke-opacity:1" d="M 325.569,486.947 319.636,476.268 z" id="boundary" inkscape:connector-curvature="0" />
	<path style="fill:none;stroke:red;stroke-width:1px;stroke-linecap:butt;stroke-linejoin:miter;stroke-opacity:1" d="M 325.569,486.947 331.502,497.627 z" id="boundary" inkscape:connector-curvature="0" />
	<path style="fill:none;stroke:red;stroke-width:1px;stroke-linecap:butt;stroke-linejoin:miter;stroke-opacity:1" d="M 331.502,497.627 333.876,509.493 z" id="boundary" inkscape:connector-curvature="0" />
	<path style="fill:none;stroke:red;stroke-width:1px;stroke-linecap:butt;stroke-linejoin:miter;stroke-opacity:1" d="M 337.435,521.359 343.368,532.038 z" id="boundary" inkscape:connector-curvature="0" />
	<path style="fill:none;stroke:red;stroke-width:1px;stroke-linecap:butt;stroke-linejoin:miter;stroke-opacity:1" d="M 343.368,532.038 343.368,543.904 z" id="boundary" inkscape:connector-curvature="0" />
	<path style="fill:none;stroke:red;stroke-width:1px;stroke-linecap:butt;stroke-linejoin:miter;stroke-opacity:1" d="M 337.435,521.359 333.876,509.493 z" id="boundary" inkscape:connector-curvature="0" />
	<path style="fill:none;stroke:red;stroke-width:1px;stroke-linecap:butt;stroke-linejoin:miter;stroke-opacity:1" d="M 343.368,543.904 349.301,554.584 z" id="boundary" inkscape:connector-curvature="0" />
	<path style="fill:none;stroke:red;stroke-width:1px;stroke-linecap:butt;stroke-linejoin:miter;stroke-opacity:1" d="M 355.234,565.263 349.301,554.584 z" id="boundary" inkscape:connector-curvature="0" />
	<path style="fill:none;stroke:red;stroke-width:1px;stroke-linecap:butt;stroke-linejoin:miter;stroke-opacity:1" d="M 260.306,788.344 260.306,776.478 z" id="boundary" inkscape:connector-curvature="0" />
	<path style="fill:none;stroke:red;stroke-width:1px;stroke-linecap:butt;stroke-linejoin:miter;stroke-opacity:1" d="M 260.306,776.478 266.239,758.679 z" id="boundary" inkscape:connector-curvature="0" />
	<path style="fill:none;stroke:red;stroke-width:1px;stroke-linecap:butt;stroke-linejoin:miter;stroke-opacity:1" d="M 254.373,835.809 254.373,823.943 z" id="boundary" inkscape:connector-curvature="0" />
	<path style="fill:none;stroke:red;stroke-width:1px;stroke-linecap:butt;stroke-linejoin:miter;stroke-opacity:1" d="M 254.373,823.943 260.306,812.077 z" id="boundary" inkscape:connector-curvature="0" />
	<path style="fill:none;stroke:red;stroke-width:1px;stroke-linecap:butt;stroke-linejoin:miter;stroke-opacity:1" d="M 242.507,865.474 248.44,847.675 z" id="boundary" inkscape:connector-curvature="0" />
	<path style="fill:none;stroke:red;stroke-width:1px;stroke-linecap:butt;stroke-linejoin:miter;stroke-opacity:1" d="M 254.373,835.809 248.44,847.675 z" id="boundary" inkscape:connector-curvature="0" />
	<path style="fill:none;stroke:red;stroke-width:1px;stroke-linecap:butt;stroke-linejoin:miter;stroke-opacity:1" d="M 260.306,788.344 260.306,800.211 z" id="boundary" inkscape:connector-curvature="0" />
	<path style="fill:none;stroke:red;stroke-width:1px;stroke-linecap:butt;stroke-linejoin:miter;stroke-opacity:1" d="M 272.172,746.813 266.239,758.679 z" id="boundary" inkscape:connector-curvature="0" />
	<path style="fill:none;stroke:red;stroke-width:1px;stroke-linecap:butt;stroke-linejoin:miter;stroke-opacity:1" d="M 278.105,693.416 278.105,681.55 z" id="boundary" inkscape:connector-curvature="0" />
	<path style="fill:none;stroke:red;stroke-width:1px;stroke-linecap:butt;stroke-linejoin:miter;stroke-opacity:1" d="M 278.105,681.55 287.598,673.244 z" id="boundary" inkscape:connector-curvature="0" />
	<path style="fill:none;stroke:red;stroke-width:1px;stroke-linecap:butt;stroke-linejoin:miter;stroke-opacity:1" d="M 260.306,812.077 260.306,800.211 z" id="boundary" inkscape:connector-curvature="0" />
	<path style="fill:none;stroke:red;stroke-width:1px;stroke-linecap:butt;stroke-linejoin:miter;stroke-opacity:1" d="M 242.507,865.474 242.507,877.34 z" id="boundary" inkscape:connector-curvature="0" />
	<path style="fill:none;stroke:red;stroke-width:1px;stroke-linecap:butt;stroke-linejoin:miter;stroke-opacity:1" d="M 203.349,996 191.483,996 z" id="boundary" inkscape:connector-curvature="0" />
	<path style="fill:none;stroke:red;stroke-width:1px;stroke-linecap:butt;stroke-linejoin:miter;stroke-opacity:1" d="M 242.507,877.34 242.507,889.206 z" id="boundary" inkscape:connector-curvature="0" />
	<path style="fill:none;stroke:red;stroke-width:1px;stroke-linecap:butt;stroke-linejoin:miter;stroke-opacity:1" d="M 215.215,996 203.349,996 z" id="boundary" inkscape:connector-curvature="0" />
	<path style="fill:none;stroke:red;stroke-width:1px;stroke-linecap:butt;stroke-linejoin:miter;stroke-opacity:1" d="M 227.081,996 215.215,996 z" id="boundary" inkscape:connector-curvature="0" />
	<path style="fill:none;stroke:red;stroke-width:1px;stroke-linecap:butt;stroke-linejoin:miter;stroke-opacity:1" d="M 238.947,996 227.081,996 z" id="boundary" inkscape:connector-curvature="0" />
	<path style="fill:none;stroke:red;stroke-width:1px;stroke-linecap:butt;stroke-linejoin:miter;stroke-opacity:1" d="M 248.44,899.885 242.507,889.206 z" id="boundary" inkscape:connector-curvature="0" />
	<path style="fill:none;stroke:red;stroke-width:1px;stroke-linecap:butt;stroke-linejoin:miter;stroke-opacity:1" d="M 257.933,907.005 248.44,899.885 z" id="boundary" inkscape:connector-curvature="0" />
	<path style="fill:none;stroke:red;stroke-width:1px;stroke-linecap:butt;stroke-linejoin:miter;stroke-opacity:1" d="M 250.813,996 261.493,990.067 z" id="boundary" inkscape:connector-curvature="0" />
	<path style="fill:none;stroke:red;stroke-width:1px;stroke-linecap:butt;stroke-linejoin:miter;stroke-opacity:1" d="M 261.493,990.067 273.359,990.067 z" id="boundary" inkscape:connector-curvature="0" />
	<path style="fill:none;stroke:red;stroke-width:1px;stroke-linecap:butt;stroke-linejoin:miter;stroke-opacity:1" d="M 250.813,996 238.947,996 z" id="boundary" inkscape:connector-curvature="0" />
	<path style="fill:none;stroke:red;stroke-width:1px;stroke-linecap:butt;stroke-linejoin:miter;stroke-opacity:1" d="M 284.038,984.134 273.359,990.067 z" id="boundary" inkscape:connector-curvature="0" />
	<path style="fill:none;stroke:red;stroke-width:1px;stroke-linecap:butt;stroke-linejoin:miter;stroke-opacity:1" d="M 268.612,912.938 278.105,921.244 z" id="boundary" inkscape:connector-curvature="0" />
	<path style="fill:none;stroke:red;stroke-width:1px;stroke-linecap:butt;stroke-linejoin:miter;stroke-opacity:1" d="M 257.933,907.005 268.612,912.938 z" id="boundary" inkscape:connector-curvature="0" />
	<path style="fill:none;stroke:red;stroke-width:1px;stroke-linecap:butt;stroke-linejoin:miter;stroke-opacity:1" d="M 278.105,729.014 272.172,746.813 z" id="boundary" inkscape:connector-curvature="0" />
	<path style="fill:none;stroke:red;stroke-width:1px;stroke-linecap:butt;stroke-linejoin:miter;stroke-opacity:1" d="M 313.703,622.22 316.077,634.086 z" id="boundary" inkscape:connector-curvature="0" />
	<path style="fill:none;stroke:red;stroke-width:1px;stroke-linecap:butt;stroke-linejoin:miter;stroke-opacity:1" d="M 307.77,657.818 295.904,663.751 z" id="boundary" inkscape:connector-curvature="0" />
	<path style="fill:none;stroke:red;stroke-width:1px;stroke-linecap:butt;stroke-linejoin:miter;stroke-opacity:1" d="M 313.703,622.22 319.636,610.354 z" id="boundary" inkscape:connector-curvature="0" />
	<path style="fill:none;stroke:red;stroke-width:1px;stroke-linecap:butt;stroke-linejoin:miter;stroke-opacity:1" d="M 316.077,634.086 317.263,649.512 z" id="boundary" inkscape:connector-curvature="0" />
	<path style="fill:none;stroke:red;stroke-width:1px;stroke-linecap:butt;stroke-linejoin:miter;stroke-opacity:1" d="M 317.263,649.512 307.77,657.818 z" id="boundary" inkscape:connector-curvature="0" />
	<path style="fill:none;stroke:red;stroke-width:1px;stroke-linecap:butt;stroke-linejoin:miter;stroke-opacity:1" d="M 287.598,673.244 295.904,663.751 z" id="boundary" inkscape:connector-curvature="0" />
	<path style="fill:none;stroke:red;stroke-width:1px;stroke-linecap:butt;stroke-linejoin:miter;stroke-opacity:1" d="M 280.478,705.282 278.105,693.416 z" id="boundary" inkscape:connector-curvature="0" />
	<path style="fill:none;stroke:red;stroke-width:1px;stroke-linecap:butt;stroke-linejoin:miter;stroke-opacity:1" d="M 284.038,717.148 280.478,705.282 z" id="boundary" inkscape:connector-curvature="0" />
	<path style="fill:none;stroke:red;stroke-width:1px;stroke-linecap:butt;stroke-linejoin:miter;stroke-opacity:1" d="M 355.234,577.129 352.861,590.182 z" id="boundary" inkscape:connector-curvature="0" />
	<path style="fill:none;stroke:red;stroke-width:1px;stroke-linecap:butt;stroke-linejoin:miter;stroke-opacity:1" d="M 352.861,590.182 343.368,598.488 z" id="boundary" inkscape:connector-curvature="0" />
	<path style="fill:none;stroke:red;stroke-width:1px;stroke-linecap:butt;stroke-linejoin:miter;stroke-opacity:1" d="M 331.502,604.421 343.368,598.488 z" id="boundary" inkscape:connector-curvature="0" />
	<path style="fill:none;stroke:red;stroke-width:1px;stroke-linecap:butt;stroke-linejoin:miter;stroke-opacity:1" d="M 319.636,610.354 331.502,604.421 z" id="boundary" inkscape:connector-curvature="0" />
	<path style="fill:none;stroke:red;stroke-width:1px;stroke-linecap:butt;stroke-linejoin:miter;stroke-opacity:1" d="M 355.234,565.263 355.234,577.129 z" id="boundary" inkscape:connector-curvature="0" />
	<path style="fill:none;stroke:red;stroke-width:1px;stroke-linecap:butt;stroke-linejoin:miter;stroke-opacity:1" d="M 288.785,927.177 278.105,921.244 z" id="boundary" inkscape:connector-curvature="0" />
	<path style="fill:none;stroke:red;stroke-width:1px;stroke-linecap:butt;stroke-linejoin:miter;stroke-opacity:1" d="M 300.651,929.55 288.785,927.177 z" id="boundary" inkscape:connector-curvature="0" />
	<path style="fill:none;stroke:red;stroke-width:1px;stroke-linecap:butt;stroke-linejoin:miter;stroke-opacity:1" d="M 284.038,717.148 278.105,729.014 z" id="boundary" inkscape:connector-curvature="0" />
	<path style="fill:none;stroke:red;stroke-width:1px;stroke-linecap:butt;stroke-linejoin:miter;stroke-opacity:1" d="M 294.718,978.201 284.038,984.134 z" id="boundary" inkscape:connector-curvature="0" />
	<path style="fill:none;stroke:red;stroke-width:1px;stroke-linecap:butt;stroke-linejoin:miter;stroke-opacity:1" d="M 294.718,978.201 306.584,978.201 z" id="boundary" inkscape:connector-curvature="0" />
	<path style="fill:none;stroke:red;stroke-width:1px;stroke-linecap:butt;stroke-linejoin:miter;stroke-opacity:1" d="M 300.651,929.55 312.517,931.923 z" id="boundary" inkscape:connector-curvature="0" />
	<path style="fill:none;stroke:red;stroke-width:1px;stroke-linecap:butt;stroke-linejoin:miter;stroke-opacity:1" d="M 323.196,937.856 312.517,931.923 z" id="boundary" inkscape:connector-curvature="0" />
	<path style="fill:none;stroke:red;stroke-width:1px;stroke-linecap:butt;stroke-linejoin:miter;stroke-opacity:1" d="M 323.196,937.856 329.129,948.536 z" id="boundary" inkscape:connector-curvature="0" />
	<path style="fill:none;stroke:red;stroke-width:1px;stroke-linecap:butt;stroke-linejoin:miter;stroke-opacity:1" d="M 306.584,978.201 318.45,974.641 z" id="boundary" inkscape:connector-curvature="0" />
	<path style="fill:none;stroke:red;stroke-width:1px;stroke-linecap:butt;stroke-linejoin:miter;stroke-opacity:1" d="M 329.129,948.536 327.943,965.148 z" id="boundary" inkscape:connector-curvature="0" />
	<path style="fill:none;stroke:red;stroke-width:1px;stroke-linecap:butt;stroke-linejoin:miter;stroke-opacity:1" d="M 327.943,965.148 318.45,974.641 z" id="boundary" inkscape:connector-curvature="0" />
	<circle cx="4" cy="316.077" r="4" fill="#0" id="circle0"/>
	<circle cx="4" cy="327.943" r="4" fill="#0" id="circle1"/>
	<circle cx="4" cy="339.809" r="4" fill="#0" id="circle2"/>
	<circle cx="9.93301" cy="304.211" r="4" fill="#0" id="circle3"/>
	<circle cx="9.93301" cy="350.488" r="4" fill="#0" id="circle4"/>
	<circle cx="9.93301" cy="362.354" r="4" fill="#0" id="circle5"/>
	<circle cx="9.93301" cy="374.22" r="4" fill="#0" id="circle6"/>
	<circle cx="15.866" cy="292.344" r="4" fill="#0" id="circle7"/>
	<circle cx="15.866" cy="384.9" r="4" fill="#0" id="circle8"/>
	<circle cx="15.866" cy="396.766" r="4" fill="#0" id="circle9"/>
	<circle cx="21.799" cy="84.689" r="4" fill="#0" id="circle10"/>
	<circle cx="21.799" cy="96.555" r="4" fill="#0" id="circle11"/>
	<circle cx="21.799" cy="108.421" r="4" fill="#0" id="circle12"/>
	<circle cx="21.799" cy="120.287" r="4" fill="#0" id="circle13"/>
	<circle cx="21.799" cy="280.478" r="4" fill="#0" id="circle14"/>
	<circle cx="21.799" cy="407.445" r="4" fill="#0" id="circle15"/>
	<circle cx="21.799" cy="419.311" r="4" fill="#0" id="circle16"/>
	<circle cx="21.799" cy="431.177" r="4" fill="#0" id="circle17"/>
	<circle cx="21.799" cy="443.043" r="4" fill="#0" id="circle18"/>
	<circle cx="21.799" cy="454.909" r="4" fill="#0" id="circle19"/>
	<circle cx="27.7321" cy="72.823" r="4" fill="#0" id="circle20"/>
	<circle cx="27.7321" cy="130.967" r="4" fill="#0" id="circle21"/>
	<circle cx="27.7321" cy="268.612" r="4" fill="#0" id="circle22"/>
	<circle cx="27.7321" cy="465.589" r="4" fill="#0" id="circle23"/>
	<circle cx="28.9187" cy="477.455" r="4" fill="#0" id="circle24"/>
	<circle cx="33.6651" cy="60.9569" r="4" fill="#0" id="circle25"/>
	<circle cx="33.6651" cy="141.646" r="4" fill="#0" id="circle26"/>
	<circle cx="33.6651" cy="489.321" r="4" fill="#0" id="circle27"/>
	<circle cx="34.8517" cy="501.187" r="4" fill="#0" id="circle28"/>
	<circle cx="37.2249" cy="153.512" r="4" fill="#0" id="circle29"/>
	<circle cx="37.2249" cy="259.12" r="4" fill="#0" id="circle30"/>
	<circle cx="39.5981" cy="535.598" r="4" fill="#0" id="circle31"/>
	<circle cx="39.5981" cy="547.464" r="4" fill="#0" id="circle32"/>
	<circle cx="39.5981" cy="559.33" r="4" fill="#0" id="circle33"/>
	<circle cx="39.5981" cy="571.196" r="4" fill="#0" id="circle34"/>
	<circle cx="39.5981" cy="583.062" r="4" fill="#0" id="circle35"/>
	<circle cx="40.7847" cy="511.866" r="4" fill="#0" id="circle36"/>
	<circle cx="43.1579" cy="51.4641" r="4" fill="#0" id="circle37"/>
	<circle cx="43.1579" cy="164.191" r="4" fill="#0" id="circle38"/>
	<circle cx="45.5311" cy="523.732" r="4" fill="#0" id="circle39"/>
	<circle cx="45.5311" cy="593.742" r="4" fill="#0" id="circle40"/>
	<circle cx="45.5311" cy="605.608" r="4" fill="#0" id="circle41"/>
	<circle cx="49.0909" cy="253.187" r="4" fill="#0" id="circle42"/>
	<circle cx="51.4641" cy="173.684" r="4" fill="#0" id="circle43"/>
	<circle cx="51.4641" cy="616.287" r="4" fill="#0" id="circle44"/>
	<circle cx="52.6507" cy="41.9713" r="4" fill="#0" id="circle45"/>
	<circle cx="55.0239" cy="628.153" r="4" fill="#0" id="circle46"/>
	<circle cx="57.3971" cy="640.019" r="4" fill="#0" id="circle47"/>
	<circle cx="57.3971" cy="651.885" r="4" fill="#0" id="circle48"/>
	<circle cx="58.5837" cy="243.694" r="4" fill="#0" id="circle49"/>
	<circle cx="60.9569" cy="181.99" r="4" fill="#0" id="circle50"/>
	<circle cx="62.1435" cy="33.6651" r="4" fill="#0" id="circle51"/>
	<circle cx="63.3301" cy="662.565" r="4" fill="#0" id="circle52"/>
	<circle cx="68.0766" cy="235.388" r="4" fill="#0" id="circle53"/>
	<circle cx="69.2632" cy="191.483" r="4" fill="#0" id="circle54"/>
	<circle cx="69.2632" cy="673.244" r="4" fill="#0" id="circle55"/>
	<circle cx="70.4498" cy="24.1722" r="4" fill="#0" id="circle56"/>
	<circle cx="75.1962" cy="202.163" r="4" fill="#0" id="circle57"/>
	<circle cx="75.1962" cy="214.029" r="4" fill="#0" id="circle58"/>
	<circle cx="75.1962" cy="225.895" r="4" fill="#0" id="circle59"/>
	<circle cx="75.1962" cy="683.923" r="4" fill="#0" id="circle60"/>
	<circle cx="81.1292" cy="796.651" r="4" fill="#0" id="circle61"/>
	<circle cx="81.1292" cy="808.517" r="4" fill="#0" id="circle62"/>
	<circle cx="81.1292" cy="820.383" r="4" fill="#0" id="circle63"/>
	<circle cx="81.1292" cy="832.249" r="4" fill="#0" id="circle64"/>
	<circle cx="82.3158" cy="18.2392" r="4" fill="#0" id="circle65"/>
	<circle cx="84.689" cy="692.23" r="4" fill="#0" id="circle66"/>
	<circle cx="87.0622" cy="778.852" r="4" fill="#0" id="circle67"/>
	<circle cx="87.0622" cy="842.928" r="4" fill="#0" id="circle68"/>
	<circle cx="87.0622" cy="854.794" r="4" fill="#0" id="circle69"/>
	<circle cx="92.9952" cy="701.722" r="4" fill="#0" id="circle70"/>
	<circle cx="92.9952" cy="766.986" r="4" fill="#0" id="circle71"/>
	<circle cx="92.9952" cy="865.474" r="4" fill="#0" id="circle72"/>
	<circle cx="92.9952" cy="939.043" r="4" fill="#0" id="circle73"/>
	<circle cx="92.9952" cy="950.909" r="4" fill="#0" id="circle74"/>
	<circle cx="92.9952" cy="962.775" r="4" fill="#0" id="circle75"/>
	<circle cx="94.1818" cy="12.3062" r="4" fill="#0" id="circle76"/>
	<circle cx="98.9282" cy="755.12" r="4" fill="#0" id="circle77"/>
	<circle cx="98.9282" cy="876.153" r="4" fill="#0" id="circle78"/>
	<circle cx="98.9282" cy="888.019" r="4" fill="#0" id="circle79"/>
	<circle cx="98.9282" cy="915.311" r="4" fill="#0" id="circle80"/>
	<circle cx="98.9282" cy="927.177" r="4" fill="#0" id="circle81"/>
	<circle cx="102.488" cy="710.029" r="4" fill="#0" id="circle82"/>
	<circle cx="102.488" cy="971.081" r="4" fill="#0" id="circle83"/>
	<circle cx="104.861" cy="721.895" r="4" fill="#0" id="circle84"/>
	<circle cx="104.861" cy="733.761" r="4" fill="#0" id="circle85"/>
	<circle cx="104.861" cy="898.699" r="4" fill="#0" id="circle86"/>
	<circle cx="106.048" cy="6.37321" r="4" fill="#0" id="circle87"/>
	<circle cx="111.981" cy="978.201" r="4" fill="#0" id="circle88"/>
	<circle cx="117.914" cy="4" r="4" fill="#0" id="circle89"/>
	<circle cx="122.66" cy="984.134" r="4" fill="#0" id="circle90"/>
	<circle cx="129.78" cy="4" r="4" fill="#0" id="circle91"/>
	<circle cx="134.526" cy="984.134" r="4" fill="#0" id="circle92"/>
	<circle cx="141.646" cy="4" r="4" fill="#0" id="circle93"/>
	<circle cx="145.206" cy="990.067" r="4" fill="#0" id="circle94"/>
	<circle cx="152.325" cy="9.93301" r="4" fill="#0" id="circle95"/>
	<circle cx="157.072" cy="990.067" r="4" fill="#0" id="circle96"/>
	<circle cx="164.191" cy="9.93301" r="4" fill="#0" id="circle97"/>
	<circle cx="167.751" cy="996" r="4" fill="#0" id="circle98"/>
	<circle cx="176.057" cy="9.93301" r="4" fill="#0" id="circle99"/>
	<circle cx="179.617" cy="996" r="4" fill="#0" id="circle100"/>
	<circle cx="186.737" cy="15.866" r="4" fill="#0" id="circle101"/>
	<circle cx="191.483" cy="996" r="4" fill="#0" id="circle102"/>
	<circle cx="198.603" cy="15.866" r="4" fill="#0" id="circle103"/>
	<circle cx="203.349" cy="996" r="4" fill="#0" id="circle104"/>
	<circle cx="209.282" cy="21.799" r="4" fill="#0" id="circle105"/>
	<circle cx="215.215" cy="996" r="4" fill="#0" id="circle106"/>
	<circle cx="219.962" cy="27.7321" r="4" fill="#0" id="circle107"/>
	<circle cx="227.081" cy="996" r="4" fill="#0" id="circle108"/>
	<circle cx="230.641" cy="33.6651" r="4" fill="#0" id="circle109"/>
	<circle cx="238.947" cy="996" r="4" fill="#0" id="circle110"/>
	<circle cx="240.134" cy="40.7847" r="4" fill="#0" id="circle111"/>
	<circle cx="242.507" cy="865.474" r="4" fill="#0" id="circle112"/>
	<circle cx="242.507" cy="877.34" r="4" fill="#0" id="circle113"/>
	<circle cx="242.507" cy="889.206" r="4" fill="#0" id="circle114"/>
	<circle cx="248.44" cy="50.2775" r="4" fill="#0" id="circle115"/>
	<circle cx="248.44" cy="847.675" r="4" fill="#0" id="circle116"/>
	<circle cx="248.44" cy="899.885" r="4" fill="#0" id="circle117"/>
	<circle cx="250.813" cy="996" r="4" fill="#0" id="circle118"/>
	<circle cx="254.373" cy="224.708" r="4" fill="#0" id="circle119"/>
	<circle cx="254.373" cy="236.574" r="4" fill="#0" id="circle120"/>
	<circle cx="254.373" cy="823.943" r="4" fill="#0" id="circle121"/>
	<circle cx="254.373" cy="835.809" r="4" fill="#0" id="circle122"/>
	<circle cx="256.746" cy="248.44" r="4" fill="#0" id="circle123"/>
	<circle cx="257.933" cy="58.5837" r="4" fill="#0" id="circle124"/>
	<circle cx="257.933" cy="907.005" r="4" fill="#0" id="circle125"/>
	<circle cx="260.306" cy="200.976" r="4" fill="#0" id="circle126"/>
	<circle cx="260.306" cy="212.842" r="4" fill="#0" id="circle127"/>
	<circle cx="260.306" cy="776.478" r="4" fill="#0" id="circle128"/>
	<circle cx="260.306" cy="788.344" r="4" fill="#0" id="circle129"/>
	<circle cx="260.306" cy="800.211" r="4" fill="#0" id="circle130"/>
	<circle cx="260.306" cy="812.077" r="4" fill="#0" id="circle131"/>
	<circle cx="261.493" cy="990.067" r="4" fill="#0" id="circle132"/>
	<circle cx="262.679" cy="259.12" r="4" fill="#0" id="circle133"/>
	<circle cx="266.239" cy="68.0766" r="4" fill="#0" id="circle134"/>
	<circle cx="266.239" cy="141.646" r="4" fill="#0" id="circle135"/>
	<circle cx="266.239" cy="153.512" r="4" fill="#0" id="circle136"/>
	<circle cx="266.239" cy="183.177" r="4" fill="#0" id="circle137"/>
	<circle cx="266.239" cy="758.679" r="4" fill="#0" id="circle138"/>
	<circle cx="268.612" cy="165.378" r="4" fill="#0" id="circle139"/>
	<circle cx="268.612" cy="912.938" r="4" fill="#0" id="circle140"/>
	<circle cx="270.986" cy="268.612" r="4" fill="#0" id="circle141"/>
	<circle cx="272.172" cy="78.756" r="4" fill="#0" id="circle142"/>
	<circle cx="272.172" cy="90.622" r="4" fill="#0" id="circle143"/>
	<circle cx="272.172" cy="102.488" r="4" fill="#0" id="circle144"/>
	<circle cx="272.172" cy="114.354" r="4" fill="#0" id="circle145"/>
	<circle cx="272.172" cy="126.22" r="4" fill="#0" id="circle146"/>
	<circle cx="272.172" cy="746.813" r="4" fill="#0" id="circle147"/>
	<circle cx="273.359" cy="990.067" r="4" fill="#0" id="circle148"/>
	<circle cx="278.105" cy="278.105" r="4" fill="#0" id="circle149"/>
	<circle cx="278.105" cy="681.55" r="4" fill="#0" id="circle150"/>
	<circle cx="278.105" cy="693.416" r="4" fill="#0" id="circle151"/>
	<circle cx="278.105" cy="729.014" r="4" fill="#0" id="circle152"/>
	<circle cx="278.105" cy="921.244" r="4" fill="#0" id="circle153"/>
	<circle cx="280.478" cy="705.282" r="4" fill="#0" id="circle154"/>
	<circle cx="284.038" cy="288.785" r="4" fill="#0" id="circle155"/>
	<circle cx="284.038" cy="300.651" r="4" fill="#0" id="circle156"/>
	<circle cx="284.038" cy="312.517" r="4" fill="#0" id="circle157"/>
	<circle cx="284.038" cy="717.148" r="4" fill="#0" id="circle158"/>
	<circle cx="284.038" cy="984.134" r="4" fill="#0" id="circle159"/>
	<circle cx="287.598" cy="673.244" r="4" fill="#0" id="circle160"/>
	<circle cx="288.785" cy="927.177" r="4" fill="#0" id="circle161"/>
	<circle cx="289.971" cy="323.196" r="4" fill="#0" id="circle162"/>
	<circle cx="289.971" cy="335.062" r="4" fill="#0" id="circle163"/>
	<circle cx="289.971" cy="373.033" r="4" fill="#0" id="circle164"/>
	<circle cx="289.971" cy="384.9" r="4" fill="#0" id="circle165"/>
	<circle cx="289.971" cy="396.766" r="4" fill="#0" id="circle166"/>
	<circle cx="294.718" cy="978.201" r="4" fill="#0" id="circle167"/>
	<circle cx="295.904" cy="345.742" r="4" fill="#0" id="circle168"/>
	<circle cx="295.904" cy="357.608" r="4" fill="#0" id="circle169"/>
	<circle cx="295.904" cy="407.445" r="4" fill="#0" id="circle170"/>
	<circle cx="295.904" cy="663.751" r="4" fill="#0" id="circle171"/>
	<circle cx="300.651" cy="929.55" r="4" fill="#0" id="circle172"/>
	<circle cx="301.837" cy="418.124" r="4" fill="#0" id="circle173"/>
	<circle cx="306.584" cy="978.201" r="4" fill="#0" id="circle174"/>
	<circle cx="307.77" cy="428.804" r="4" fill="#0" id="circle175"/>
	<circle cx="307.77" cy="657.818" r="4" fill="#0" id="circle176"/>
	<circle cx="312.517" cy="440.67" r="4" fill="#0" id="circle177"/>
	<circle cx="312.517" cy="931.923" r="4" fill="#0" id="circle178"/>
	<circle cx="313.703" cy="452.536" r="4" fill="#0" id="circle179"/>
	<circle cx="313.703" cy="622.22" r="4" fill="#0" id="circle180"/>
	<circle cx="316.077" cy="634.086" r="4" fill="#0" id="circle181"/>
	<circle cx="317.263" cy="649.512" r="4" fill="#0" id="circle182"/>
	<circle cx="318.45" cy="464.402" r="4" fill="#0" id="circle183"/>
	<circle cx="318.45" cy="974.641" r="4" fill="#0" id="circle184"/>
	<circle cx="319.636" cy="476.268" r="4" fill="#0" id="circle185"/>
	<circle cx="319.636" cy="610.354" r="4" fill="#0" id="circle186"/>
	<circle cx="323.196" cy="937.856" r="4" fill="#0" id="circle187"/>
	<circle cx="325.569" cy="486.947" r="4" fill="#0" id="circle188"/>
	<circle cx="327.943" cy="965.148" r="4" fill="#0" id="circle189"/>
	<circle cx="329.129" cy="948.536" r="4" fill="#0" id="circle190"/>
	<circle cx="331.502" cy="497.627" r="4" fill="#0" id="circle191"/>
	<circle cx="331.502" cy="604.421" r="4" fill="#0" id="circle192"/>
	<circle cx="333.876" cy="509.493" r="4" fill="#0" id="circle193"/>
	<circle cx="337.435" cy="521.359" r="4" fill="#0" id="circle194"/>
	<circle cx="343.368" cy="532.038" r="4" fill="#0" id="circle195"/>
	<circle cx="343.368" cy="543.904" r="4" fill="#0" id="circle196"/>
	<circle cx="343.368" cy="598.488" r="4" fill="#0" id="circle197"/>
	<circle cx="349.301" cy="554.584" r="4" fill="#0" id="circle198"/>
	<circle cx="352.861" cy="590.182" r="4" fill="#0" id="circle199"/>
	<circle cx="355.234" cy="565.263" r="4" fill="#0" id="circle200"/>
	<circle cx="355.234" cy="577.129" r="4" fill="#0" id="circle201"/>
	</g>
</svg>