<?xml version="1.0" encoding="UTF-8" standalone="no"?>
<!-- Created with CurveBenchmark -->
<svg
	xmlns:dc="http://purl.org/dc/elements/1.1/"
	xmlns:cc="http://creativecommons.org/ns#"
	xmlns:rdf="http://www.w3.org/1999/02/22-rdf-syntax-ns#"
	xmlns:svg="http://www.w3.org/2000/svg"
	xmlns="http://www.w3.org/2000/svg"
	xmlns:sodipodi="http://sodipodi.sourceforge.net/DTD/sodipodi-0.dtd"
	xmlns:inkscape="http://www.inkscape.org/namespaces/inkscape"
	width="1000"
	height="1000"
	id="svg2"
	version="1.1"
	sodipodi:docname="manifold/gathang-kk0740.png.txt">
<defs
	id="defs4" />
<metadata
	id="metadata7">
	<rdf:RDF>
		<cc:Work
			rdf:about="">
			<dc:format>image/svg+xml</dc:format>
			<dc:type
				rdf:resource="http://purl.org/dc/dcmitype/StillImage" />
			<dc:title></dc:title>
		</cc:Work>
	</rdf:RDF>
</metadata>
<g
	inkscape:label="Layer 1"
	inkscape:groupmode="layer"
	id="layer1">
	<path style="fill:none;stroke:red;stroke-width:1px;stroke-linecap:butt;stroke-linejoin:miter;stroke-opacity:1" d="M 129.61,173.091 142.494,160.208 z" id="boundary" inkscape:connector-curvature="0" />
	<path style="fill:none;stroke:red;stroke-width:1px;stroke-linecap:butt;stroke-linejoin:miter;stroke-opacity:1" d="M 100.623,194.026 116.727,185.974 z" id="boundary" inkscape:connector-curvature="0" />
	<path style="fill:none;stroke:red;stroke-width:1px;stroke-linecap:butt;stroke-linejoin:miter;stroke-opacity:1" d="M 92.5714,210.13 100.623,194.026 z" id="boundary" inkscape:connector-curvature="0" />
	<path style="fill:none;stroke:red;stroke-width:1px;stroke-linecap:butt;stroke-linejoin:miter;stroke-opacity:1" d="M 129.61,173.091 116.727,185.974 z" id="boundary" inkscape:connector-curvature="0" />
	<path style="fill:none;stroke:red;stroke-width:1px;stroke-linecap:butt;stroke-linejoin:miter;stroke-opacity:1" d="M 213.351,73.2468 202.078,92.5714 z" id="boundary" inkscape:connector-curvature="0" />
	<path style="fill:none;stroke:red;stroke-width:1px;stroke-linecap:butt;stroke-linejoin:miter;stroke-opacity:1" d="M 194.026,108.675 202.078,92.5714 z" id="boundary" inkscape:connector-curvature="0" />
	<path style="fill:none;stroke:red;stroke-width:1px;stroke-linecap:butt;stroke-linejoin:miter;stroke-opacity:1" d="M 194.026,108.675 181.143,121.558 z" id="boundary" inkscape:connector-curvature="0" />
	<path style="fill:none;stroke:red;stroke-width:1px;stroke-linecap:butt;stroke-linejoin:miter;stroke-opacity:1" d="M 181.143,121.558 169.87,140.883 z" id="boundary" inkscape:connector-curvature="0" />
	<path style="fill:none;stroke:red;stroke-width:1px;stroke-linecap:butt;stroke-linejoin:miter;stroke-opacity:1" d="M 169.87,140.883 155.377,148.935 z" id="boundary" inkscape:connector-curvature="0" />
	<path style="fill:none;stroke:red;stroke-width:1px;stroke-linecap:butt;stroke-linejoin:miter;stroke-opacity:1" d="M 155.377,148.935 142.494,160.208 z" id="boundary" inkscape:connector-curvature="0" />
	<path style="fill:none;stroke:red;stroke-width:1px;stroke-linecap:butt;stroke-linejoin:miter;stroke-opacity:1" d="M 12.0519,306.753 20.1039,290.649 z" id="boundary" inkscape:connector-curvature="0" />
	<path style="fill:none;stroke:red;stroke-width:1px;stroke-linecap:butt;stroke-linejoin:miter;stroke-opacity:1" d="M 32.987,277.766 20.1039,290.649 z" id="boundary" inkscape:connector-curvature="0" />
	<path style="fill:none;stroke:red;stroke-width:1px;stroke-linecap:butt;stroke-linejoin:miter;stroke-opacity:1" d="M 41.039,261.662 32.987,277.766 z" id="boundary" inkscape:connector-curvature="0" />
	<path style="fill:none;stroke:red;stroke-width:1px;stroke-linecap:butt;stroke-linejoin:miter;stroke-opacity:1" d="M 16.8831,334.13 4,322.857 z" id="boundary" inkscape:connector-curvature="0" />
	<path style="fill:none;stroke:red;stroke-width:1px;stroke-linecap:butt;stroke-linejoin:miter;stroke-opacity:1" d="M 4,322.857 12.0519,306.753 z" id="boundary" inkscape:connector-curvature="0" />
	<path style="fill:none;stroke:red;stroke-width:1px;stroke-linecap:butt;stroke-linejoin:miter;stroke-opacity:1" d="M 76.4675,218.182 92.5714,210.13 z" id="boundary" inkscape:connector-curvature="0" />
	<path style="fill:none;stroke:red;stroke-width:1px;stroke-linecap:butt;stroke-linejoin:miter;stroke-opacity:1" d="M 66.8052,237.506 76.4675,218.182 z" id="boundary" inkscape:connector-curvature="0" />
	<path style="fill:none;stroke:red;stroke-width:1px;stroke-linecap:butt;stroke-linejoin:miter;stroke-opacity:1" d="M 53.9221,248.779 41.039,261.662 z" id="boundary" inkscape:connector-curvature="0" />
	<path style="fill:none;stroke:red;stroke-width:1px;stroke-linecap:butt;stroke-linejoin:miter;stroke-opacity:1" d="M 66.8052,237.506 53.9221,248.779 z" id="boundary" inkscape:connector-curvature="0" />
	<path style="fill:none;stroke:red;stroke-width:1px;stroke-linecap:butt;stroke-linejoin:miter;stroke-opacity:1" d="M 261.662,24.9351 274.545,12.0519 z" id="boundary" inkscape:connector-curvature="0" />
	<path style="fill:none;stroke:red;stroke-width:1px;stroke-linecap:butt;stroke-linejoin:miter;stroke-opacity:1" d="M 248.779,36.2078 261.662,24.9351 z" id="boundary" inkscape:connector-curvature="0" />
	<path style="fill:none;stroke:red;stroke-width:1px;stroke-linecap:butt;stroke-linejoin:miter;stroke-opacity:1" d="M 274.545,12.0519 289.039,4 z" id="boundary" inkscape:connector-curvature="0" />
	<path style="fill:none;stroke:red;stroke-width:1px;stroke-linecap:butt;stroke-linejoin:miter;stroke-opacity:1" d="M 289.039,4 305.143,4 z" id="boundary" inkscape:connector-curvature="0" />
	<path style="fill:none;stroke:red;stroke-width:1px;stroke-linecap:butt;stroke-linejoin:miter;stroke-opacity:1" d="M 248.779,36.2078 234.286,44.2597 z" id="boundary" inkscape:connector-curvature="0" />
	<path style="fill:none;stroke:red;stroke-width:1px;stroke-linecap:butt;stroke-linejoin:miter;stroke-opacity:1" d="M 305.143,4 319.636,12.0519 z" id="boundary" inkscape:connector-curvature="0" />
	<path style="fill:none;stroke:red;stroke-width:1px;stroke-linecap:butt;stroke-linejoin:miter;stroke-opacity:1" d="M 335.74,16.8831 319.636,12.0519 z" id="boundary" inkscape:connector-curvature="0" />
	<path style="fill:none;stroke:red;stroke-width:1px;stroke-linecap:butt;stroke-linejoin:miter;stroke-opacity:1" d="M 350.234,24.9351 363.117,36.2078 z" id="boundary" inkscape:connector-curvature="0" />
	<path style="fill:none;stroke:red;stroke-width:1px;stroke-linecap:butt;stroke-linejoin:miter;stroke-opacity:1" d="M 350.234,24.9351 335.74,16.8831 z" id="boundary" inkscape:connector-curvature="0" />
	<path style="fill:none;stroke:red;stroke-width:1px;stroke-linecap:butt;stroke-linejoin:miter;stroke-opacity:1" d="M 363.117,36.2078 374.39,49.0909 z" id="boundary" inkscape:connector-curvature="0" />
	<path style="fill:none;stroke:red;stroke-width:1px;stroke-linecap:butt;stroke-linejoin:miter;stroke-opacity:1" d="M 226.234,60.3636 234.286,44.2597 z" id="boundary" inkscape:connector-curvature="0" />
	<path style="fill:none;stroke:red;stroke-width:1px;stroke-linecap:butt;stroke-linejoin:miter;stroke-opacity:1" d="M 226.234,60.3636 213.351,73.2468 z" id="boundary" inkscape:connector-curvature="0" />
	<path style="fill:none;stroke:red;stroke-width:1px;stroke-linecap:butt;stroke-linejoin:miter;stroke-opacity:1" d="M 374.39,49.0909 390.494,55.5325 z" id="boundary" inkscape:connector-curvature="0" />
	<path style="fill:none;stroke:red;stroke-width:1px;stroke-linecap:butt;stroke-linejoin:miter;stroke-opacity:1" d="M 390.494,55.5325 400.156,68.4156 z" id="boundary" inkscape:connector-curvature="0" />
	<path style="fill:none;stroke:red;stroke-width:1px;stroke-linecap:butt;stroke-linejoin:miter;stroke-opacity:1" d="M 400.156,68.4156 413.039,78.0779 z" id="boundary" inkscape:connector-curvature="0" />
	<path style="fill:none;stroke:red;stroke-width:1px;stroke-linecap:butt;stroke-linejoin:miter;stroke-opacity:1" d="M 413.039,78.0779 424.312,90.961 z" id="boundary" inkscape:connector-curvature="0" />
	<path style="fill:none;stroke:red;stroke-width:1px;stroke-linecap:butt;stroke-linejoin:miter;stroke-opacity:1" d="M 451.688,110.286 437.195,102.234 z" id="boundary" inkscape:connector-curvature="0" />
	<path style="fill:none;stroke:red;stroke-width:1px;stroke-linecap:butt;stroke-linejoin:miter;stroke-opacity:1" d="M 437.195,102.234 424.312,90.961 z" id="boundary" inkscape:connector-curvature="0" />
	<path style="fill:none;stroke:red;stroke-width:1px;stroke-linecap:butt;stroke-linejoin:miter;stroke-opacity:1" d="M 16.8831,334.13 28.1558,347.013 z" id="boundary" inkscape:connector-curvature="0" />
	<path style="fill:none;stroke:red;stroke-width:1px;stroke-linecap:butt;stroke-linejoin:miter;stroke-opacity:1" d="M 28.1558,347.013 36.2078,361.506 z" id="boundary" inkscape:connector-curvature="0" />
	<path style="fill:none;stroke:red;stroke-width:1px;stroke-linecap:butt;stroke-linejoin:miter;stroke-opacity:1" d="M 36.2078,361.506 44.2597,376 z" id="boundary" inkscape:connector-curvature="0" />
	<path style="fill:none;stroke:red;stroke-width:1px;stroke-linecap:butt;stroke-linejoin:miter;stroke-opacity:1" d="M 53.9221,388.883 61.974,403.377 z" id="boundary" inkscape:connector-curvature="0" />
	<path style="fill:none;stroke:red;stroke-width:1px;stroke-linecap:butt;stroke-linejoin:miter;stroke-opacity:1" d="M 44.2597,376 53.9221,388.883 z" id="boundary" inkscape:connector-curvature="0" />
	<path style="fill:none;stroke:red;stroke-width:1px;stroke-linecap:butt;stroke-linejoin:miter;stroke-opacity:1" d="M 73.2468,416.26 61.974,403.377 z" id="boundary" inkscape:connector-curvature="0" />
	<path style="fill:none;stroke:red;stroke-width:1px;stroke-linecap:butt;stroke-linejoin:miter;stroke-opacity:1" d="M 92.5714,443.636 81.2987,430.753 z" id="boundary" inkscape:connector-curvature="0" />
	<path style="fill:none;stroke:red;stroke-width:1px;stroke-linecap:butt;stroke-linejoin:miter;stroke-opacity:1" d="M 81.2987,430.753 73.2468,416.26 z" id="boundary" inkscape:connector-curvature="0" />
	<path style="fill:none;stroke:red;stroke-width:1px;stroke-linecap:butt;stroke-linejoin:miter;stroke-opacity:1" d="M 105.455,454.909 92.5714,443.636 z" id="boundary" inkscape:connector-curvature="0" />
	<path style="fill:none;stroke:red;stroke-width:1px;stroke-linecap:butt;stroke-linejoin:miter;stroke-opacity:1" d="M 116.727,467.792 105.455,454.909 z" id="boundary" inkscape:connector-curvature="0" />
	<path style="fill:none;stroke:red;stroke-width:1px;stroke-linecap:butt;stroke-linejoin:miter;stroke-opacity:1" d="M 129.61,479.065 116.727,467.792 z" id="boundary" inkscape:connector-curvature="0" />
	<path style="fill:none;stroke:red;stroke-width:1px;stroke-linecap:butt;stroke-linejoin:miter;stroke-opacity:1" d="M 168.26,511.273 153.766,503.221 z" id="boundary" inkscape:connector-curvature="0" />
	<path style="fill:none;stroke:red;stroke-width:1px;stroke-linecap:butt;stroke-linejoin:miter;stroke-opacity:1" d="M 153.766,503.221 140.883,491.948 z" id="boundary" inkscape:connector-curvature="0" />
	<path style="fill:none;stroke:red;stroke-width:1px;stroke-linecap:butt;stroke-linejoin:miter;stroke-opacity:1" d="M 140.883,491.948 129.61,479.065 z" id="boundary" inkscape:connector-curvature="0" />
	<path style="fill:none;stroke:red;stroke-width:1px;stroke-linecap:butt;stroke-linejoin:miter;stroke-opacity:1" d="M 168.26,511.273 176.312,525.766 z" id="boundary" inkscape:connector-curvature="0" />
	<path style="fill:none;stroke:red;stroke-width:1px;stroke-linecap:butt;stroke-linejoin:miter;stroke-opacity:1" d="M 189.195,537.039 176.312,525.766 z" id="boundary" inkscape:connector-curvature="0" />
	<path style="fill:none;stroke:red;stroke-width:1px;stroke-linecap:butt;stroke-linejoin:miter;stroke-opacity:1" d="M 202.078,567.636 194.026,553.143 z" id="boundary" inkscape:connector-curvature="0" />
	<path style="fill:none;stroke:red;stroke-width:1px;stroke-linecap:butt;stroke-linejoin:miter;stroke-opacity:1" d="M 194.026,553.143 189.195,537.039 z" id="boundary" inkscape:connector-curvature="0" />
	<path style="fill:none;stroke:red;stroke-width:1px;stroke-linecap:butt;stroke-linejoin:miter;stroke-opacity:1" d="M 213.351,580.519 202.078,567.636 z" id="boundary" inkscape:connector-curvature="0" />
	<path style="fill:none;stroke:red;stroke-width:1px;stroke-linecap:butt;stroke-linejoin:miter;stroke-opacity:1" d="M 464.571,528.987 451.688,543.481 z" id="boundary" inkscape:connector-curvature="0" />
	<path style="fill:none;stroke:red;stroke-width:1px;stroke-linecap:butt;stroke-linejoin:miter;stroke-opacity:1" d="M 213.351,580.519 221.403,595.013 z" id="boundary" inkscape:connector-curvature="0" />
	<path style="fill:none;stroke:red;stroke-width:1px;stroke-linecap:butt;stroke-linejoin:miter;stroke-opacity:1" d="M 229.455,609.506 221.403,595.013 z" id="boundary" inkscape:connector-curvature="0" />
	<path style="fill:none;stroke:red;stroke-width:1px;stroke-linecap:butt;stroke-linejoin:miter;stroke-opacity:1" d="M 438.805,556.364 451.688,543.481 z" id="boundary" inkscape:connector-curvature="0" />
	<path style="fill:none;stroke:red;stroke-width:1px;stroke-linecap:butt;stroke-linejoin:miter;stroke-opacity:1" d="M 430.753,572.468 438.805,556.364 z" id="boundary" inkscape:connector-curvature="0" />
	<path style="fill:none;stroke:red;stroke-width:1px;stroke-linecap:butt;stroke-linejoin:miter;stroke-opacity:1" d="M 401.766,593.403 414.649,580.519 z" id="boundary" inkscape:connector-curvature="0" />
	<path style="fill:none;stroke:red;stroke-width:1px;stroke-linecap:butt;stroke-linejoin:miter;stroke-opacity:1" d="M 414.649,580.519 430.753,572.468 z" id="boundary" inkscape:connector-curvature="0" />
	<path style="fill:none;stroke:red;stroke-width:1px;stroke-linecap:butt;stroke-linejoin:miter;stroke-opacity:1" d="M 401.766,593.403 387.273,601.455 z" id="boundary" inkscape:connector-curvature="0" />
	<path style="fill:none;stroke:red;stroke-width:1px;stroke-linecap:butt;stroke-linejoin:miter;stroke-opacity:1" d="M 374.39,612.727 387.273,601.455 z" id="boundary" inkscape:connector-curvature="0" />
	<path style="fill:none;stroke:red;stroke-width:1px;stroke-linecap:butt;stroke-linejoin:miter;stroke-opacity:1" d="M 266.494,641.714 252,633.662 z" id="boundary" inkscape:connector-curvature="0" />
	<path style="fill:none;stroke:red;stroke-width:1px;stroke-linecap:butt;stroke-linejoin:miter;stroke-opacity:1" d="M 297.091,649.766 280.987,649.766 z" id="boundary" inkscape:connector-curvature="0" />
	<path style="fill:none;stroke:red;stroke-width:1px;stroke-linecap:butt;stroke-linejoin:miter;stroke-opacity:1" d="M 280.987,649.766 266.494,641.714 z" id="boundary" inkscape:connector-curvature="0" />
	<path style="fill:none;stroke:red;stroke-width:1px;stroke-linecap:butt;stroke-linejoin:miter;stroke-opacity:1" d="M 311.584,641.714 297.091,649.766 z" id="boundary" inkscape:connector-curvature="0" />
	<path style="fill:none;stroke:red;stroke-width:1px;stroke-linecap:butt;stroke-linejoin:miter;stroke-opacity:1" d="M 252,633.662 239.117,622.39 z" id="boundary" inkscape:connector-curvature="0" />
	<path style="fill:none;stroke:red;stroke-width:1px;stroke-linecap:butt;stroke-linejoin:miter;stroke-opacity:1" d="M 358.286,620.779 374.39,612.727 z" id="boundary" inkscape:connector-curvature="0" />
	<path style="fill:none;stroke:red;stroke-width:1px;stroke-linecap:butt;stroke-linejoin:miter;stroke-opacity:1" d="M 239.117,622.39 229.455,609.506 z" id="boundary" inkscape:connector-curvature="0" />
	<path style="fill:none;stroke:red;stroke-width:1px;stroke-linecap:butt;stroke-linejoin:miter;stroke-opacity:1" d="M 311.584,641.714 326.078,633.662 z" id="boundary" inkscape:connector-curvature="0" />
	<path style="fill:none;stroke:red;stroke-width:1px;stroke-linecap:butt;stroke-linejoin:miter;stroke-opacity:1" d="M 326.078,633.662 342.182,628.831 z" id="boundary" inkscape:connector-curvature="0" />
	<path style="fill:none;stroke:red;stroke-width:1px;stroke-linecap:butt;stroke-linejoin:miter;stroke-opacity:1" d="M 358.286,620.779 342.182,628.831 z" id="boundary" inkscape:connector-curvature="0" />
	<path style="fill:none;stroke:red;stroke-width:1px;stroke-linecap:butt;stroke-linejoin:miter;stroke-opacity:1" d="M 451.688,110.286 464.571,121.558 z" id="boundary" inkscape:connector-curvature="0" />
	<path style="fill:none;stroke:red;stroke-width:1px;stroke-linecap:butt;stroke-linejoin:miter;stroke-opacity:1" d="M 475.844,134.442 464.571,121.558 z" id="boundary" inkscape:connector-curvature="0" />
	<path style="fill:none;stroke:red;stroke-width:1px;stroke-linecap:butt;stroke-linejoin:miter;stroke-opacity:1" d="M 488.727,145.714 475.844,134.442 z" id="boundary" inkscape:connector-curvature="0" />
	<path style="fill:none;stroke:red;stroke-width:1px;stroke-linecap:butt;stroke-linejoin:miter;stroke-opacity:1" d="M 488.727,145.714 496.779,160.208 z" id="boundary" inkscape:connector-curvature="0" />
	<path style="fill:none;stroke:red;stroke-width:1px;stroke-linecap:butt;stroke-linejoin:miter;stroke-opacity:1" d="M 504.831,174.701 512.883,189.195 z" id="boundary" inkscape:connector-curvature="0" />
	<path style="fill:none;stroke:red;stroke-width:1px;stroke-linecap:butt;stroke-linejoin:miter;stroke-opacity:1" d="M 512.883,189.195 512.883,205.299 z" id="boundary" inkscape:connector-curvature="0" />
	<path style="fill:none;stroke:red;stroke-width:1px;stroke-linecap:butt;stroke-linejoin:miter;stroke-opacity:1" d="M 520.935,219.792 512.883,205.299 z" id="boundary" inkscape:connector-curvature="0" />
	<path style="fill:none;stroke:red;stroke-width:1px;stroke-linecap:butt;stroke-linejoin:miter;stroke-opacity:1" d="M 533.818,229.455 520.935,219.792 z" id="boundary" inkscape:connector-curvature="0" />
	<path style="fill:none;stroke:red;stroke-width:1px;stroke-linecap:butt;stroke-linejoin:miter;stroke-opacity:1" d="M 548.312,237.506 533.818,229.455 z" id="boundary" inkscape:connector-curvature="0" />
	<path style="fill:none;stroke:red;stroke-width:1px;stroke-linecap:butt;stroke-linejoin:miter;stroke-opacity:1" d="M 496.779,160.208 504.831,174.701 z" id="boundary" inkscape:connector-curvature="0" />
	<path style="fill:none;stroke:red;stroke-width:1px;stroke-linecap:butt;stroke-linejoin:miter;stroke-opacity:1" d="M 548.312,237.506 562.805,245.558 z" id="boundary" inkscape:connector-curvature="0" />
	<path style="fill:none;stroke:red;stroke-width:1px;stroke-linecap:butt;stroke-linejoin:miter;stroke-opacity:1" d="M 577.299,253.61 593.403,258.442 z" id="boundary" inkscape:connector-curvature="0" />
	<path style="fill:none;stroke:red;stroke-width:1px;stroke-linecap:butt;stroke-linejoin:miter;stroke-opacity:1" d="M 593.403,258.442 604.675,271.325 z" id="boundary" inkscape:connector-curvature="0" />
	<path style="fill:none;stroke:red;stroke-width:1px;stroke-linecap:butt;stroke-linejoin:miter;stroke-opacity:1" d="M 577.299,253.61 562.805,245.558 z" id="boundary" inkscape:connector-curvature="0" />
	<path style="fill:none;stroke:red;stroke-width:1px;stroke-linecap:butt;stroke-linejoin:miter;stroke-opacity:1" d="M 617.558,282.597 632.052,290.649 z" id="boundary" inkscape:connector-curvature="0" />
	<path style="fill:none;stroke:red;stroke-width:1px;stroke-linecap:butt;stroke-linejoin:miter;stroke-opacity:1" d="M 648.156,293.87 632.052,290.649 z" id="boundary" inkscape:connector-curvature="0" />
	<path style="fill:none;stroke:red;stroke-width:1px;stroke-linecap:butt;stroke-linejoin:miter;stroke-opacity:1" d="M 648.156,293.87 664.26,293.87 z" id="boundary" inkscape:connector-curvature="0" />
	<path style="fill:none;stroke:red;stroke-width:1px;stroke-linecap:butt;stroke-linejoin:miter;stroke-opacity:1" d="M 617.558,282.597 604.675,271.325 z" id="boundary" inkscape:connector-curvature="0" />
	<path style="fill:none;stroke:red;stroke-width:1px;stroke-linecap:butt;stroke-linejoin:miter;stroke-opacity:1" d="M 664.26,293.87 680.364,293.87 z" id="boundary" inkscape:connector-curvature="0" />
	<path style="fill:none;stroke:red;stroke-width:1px;stroke-linecap:butt;stroke-linejoin:miter;stroke-opacity:1" d="M 694.857,301.922 710.961,301.922 z" id="boundary" inkscape:connector-curvature="0" />
	<path style="fill:none;stroke:red;stroke-width:1px;stroke-linecap:butt;stroke-linejoin:miter;stroke-opacity:1" d="M 694.857,301.922 680.364,293.87 z" id="boundary" inkscape:connector-curvature="0" />
	<path style="fill:none;stroke:red;stroke-width:1px;stroke-linecap:butt;stroke-linejoin:miter;stroke-opacity:1" d="M 710.961,301.922 727.065,303.532 z" id="boundary" inkscape:connector-curvature="0" />
	<path style="fill:none;stroke:red;stroke-width:1px;stroke-linecap:butt;stroke-linejoin:miter;stroke-opacity:1" d="M 743.169,309.974 727.065,303.532 z" id="boundary" inkscape:connector-curvature="0" />
	<path style="fill:none;stroke:red;stroke-width:1px;stroke-linecap:butt;stroke-linejoin:miter;stroke-opacity:1" d="M 759.273,309.974 743.169,309.974 z" id="boundary" inkscape:connector-curvature="0" />
	<path style="fill:none;stroke:red;stroke-width:1px;stroke-linecap:butt;stroke-linejoin:miter;stroke-opacity:1" d="M 789.87,301.922 775.377,309.974 z" id="boundary" inkscape:connector-curvature="0" />
	<path style="fill:none;stroke:red;stroke-width:1px;stroke-linecap:butt;stroke-linejoin:miter;stroke-opacity:1" d="M 775.377,309.974 759.273,309.974 z" id="boundary" inkscape:connector-curvature="0" />
	<path style="fill:none;stroke:red;stroke-width:1px;stroke-linecap:butt;stroke-linejoin:miter;stroke-opacity:1" d="M 789.87,301.922 804.364,309.974 z" id="boundary" inkscape:connector-curvature="0" />
	<path style="fill:none;stroke:red;stroke-width:1px;stroke-linecap:butt;stroke-linejoin:miter;stroke-opacity:1" d="M 820.468,309.974 804.364,309.974 z" id="boundary" inkscape:connector-curvature="0" />
	<path style="fill:none;stroke:red;stroke-width:1px;stroke-linecap:butt;stroke-linejoin:miter;stroke-opacity:1" d="M 836.571,309.974 820.468,309.974 z" id="boundary" inkscape:connector-curvature="0" />
	<path style="fill:none;stroke:red;stroke-width:1px;stroke-linecap:butt;stroke-linejoin:miter;stroke-opacity:1" d="M 836.571,309.974 852.675,309.974 z" id="boundary" inkscape:connector-curvature="0" />
	<path style="fill:none;stroke:red;stroke-width:1px;stroke-linecap:butt;stroke-linejoin:miter;stroke-opacity:1" d="M 868.779,309.974 884.883,309.974 z" id="boundary" inkscape:connector-curvature="0" />
	<path style="fill:none;stroke:red;stroke-width:1px;stroke-linecap:butt;stroke-linejoin:miter;stroke-opacity:1" d="M 884.883,309.974 900.987,309.974 z" id="boundary" inkscape:connector-curvature="0" />
	<path style="fill:none;stroke:red;stroke-width:1px;stroke-linecap:butt;stroke-linejoin:miter;stroke-opacity:1" d="M 868.779,309.974 852.675,309.974 z" id="boundary" inkscape:connector-curvature="0" />
	<path style="fill:none;stroke:red;stroke-width:1px;stroke-linecap:butt;stroke-linejoin:miter;stroke-opacity:1" d="M 917.091,309.974 933.195,309.974 z" id="boundary" inkscape:connector-curvature="0" />
	<path style="fill:none;stroke:red;stroke-width:1px;stroke-linecap:butt;stroke-linejoin:miter;stroke-opacity:1" d="M 917.091,309.974 900.987,309.974 z" id="boundary" inkscape:connector-curvature="0" />
	<path style="fill:none;stroke:red;stroke-width:1px;stroke-linecap:butt;stroke-linejoin:miter;stroke-opacity:1" d="M 979.896,318.026 963.792,318.026 z" id="boundary" inkscape:connector-curvature="0" />
	<path style="fill:none;stroke:red;stroke-width:1px;stroke-linecap:butt;stroke-linejoin:miter;stroke-opacity:1" d="M 963.792,318.026 949.299,309.974 z" id="boundary" inkscape:connector-curvature="0" />
	<path style="fill:none;stroke:red;stroke-width:1px;stroke-linecap:butt;stroke-linejoin:miter;stroke-opacity:1" d="M 933.195,309.974 949.299,309.974 z" id="boundary" inkscape:connector-curvature="0" />
	<path style="fill:none;stroke:red;stroke-width:1px;stroke-linecap:butt;stroke-linejoin:miter;stroke-opacity:1" d="M 606.286,372.779 622.39,364.727 z" id="boundary" inkscape:connector-curvature="0" />
	<path style="fill:none;stroke:red;stroke-width:1px;stroke-linecap:butt;stroke-linejoin:miter;stroke-opacity:1" d="M 580.519,406.597 593.403,384.052 z" id="boundary" inkscape:connector-curvature="0" />
	<path style="fill:none;stroke:red;stroke-width:1px;stroke-linecap:butt;stroke-linejoin:miter;stroke-opacity:1" d="M 593.403,384.052 606.286,372.779 z" id="boundary" inkscape:connector-curvature="0" />
	<path style="fill:none;stroke:red;stroke-width:1px;stroke-linecap:butt;stroke-linejoin:miter;stroke-opacity:1" d="M 580.519,406.597 564.416,408.208 z" id="boundary" inkscape:connector-curvature="0" />
	<path style="fill:none;stroke:red;stroke-width:1px;stroke-linecap:butt;stroke-linejoin:miter;stroke-opacity:1" d="M 622.39,364.727 638.494,359.896 z" id="boundary" inkscape:connector-curvature="0" />
	<path style="fill:none;stroke:red;stroke-width:1px;stroke-linecap:butt;stroke-linejoin:miter;stroke-opacity:1" d="M 683.584,343.792 699.688,343.792 z" id="boundary" inkscape:connector-curvature="0" />
	<path style="fill:none;stroke:red;stroke-width:1px;stroke-linecap:butt;stroke-linejoin:miter;stroke-opacity:1" d="M 669.091,351.844 683.584,343.792 z" id="boundary" inkscape:connector-curvature="0" />
	<path style="fill:none;stroke:red;stroke-width:1px;stroke-linecap:butt;stroke-linejoin:miter;stroke-opacity:1" d="M 638.494,359.896 652.987,351.844 z" id="boundary" inkscape:connector-curvature="0" />
	<path style="fill:none;stroke:red;stroke-width:1px;stroke-linecap:butt;stroke-linejoin:miter;stroke-opacity:1" d="M 652.987,351.844 669.091,351.844 z" id="boundary" inkscape:connector-curvature="0" />
	<path style="fill:none;stroke:red;stroke-width:1px;stroke-linecap:butt;stroke-linejoin:miter;stroke-opacity:1" d="M 496.779,480.675 509.662,469.403 z" id="boundary" inkscape:connector-curvature="0" />
	<path style="fill:none;stroke:red;stroke-width:1px;stroke-linecap:butt;stroke-linejoin:miter;stroke-opacity:1" d="M 485.506,501.61 496.779,480.675 z" id="boundary" inkscape:connector-curvature="0" />
	<path style="fill:none;stroke:red;stroke-width:1px;stroke-linecap:butt;stroke-linejoin:miter;stroke-opacity:1" d="M 512.883,448.468 509.662,469.403 z" id="boundary" inkscape:connector-curvature="0" />
	<path style="fill:none;stroke:red;stroke-width:1px;stroke-linecap:butt;stroke-linejoin:miter;stroke-opacity:1" d="M 485.506,501.61 477.455,517.714 z" id="boundary" inkscape:connector-curvature="0" />
	<path style="fill:none;stroke:red;stroke-width:1px;stroke-linecap:butt;stroke-linejoin:miter;stroke-opacity:1" d="M 477.455,517.714 464.571,528.987 z" id="boundary" inkscape:connector-curvature="0" />
	<path style="fill:none;stroke:red;stroke-width:1px;stroke-linecap:butt;stroke-linejoin:miter;stroke-opacity:1" d="M 549.922,416.26 564.416,408.208 z" id="boundary" inkscape:connector-curvature="0" />
	<path style="fill:none;stroke:red;stroke-width:1px;stroke-linecap:butt;stroke-linejoin:miter;stroke-opacity:1" d="M 512.883,448.468 520.935,432.364 z" id="boundary" inkscape:connector-curvature="0" />
	<path style="fill:none;stroke:red;stroke-width:1px;stroke-linecap:butt;stroke-linejoin:miter;stroke-opacity:1" d="M 520.935,432.364 535.429,424.312 z" id="boundary" inkscape:connector-curvature="0" />
	<path style="fill:none;stroke:red;stroke-width:1px;stroke-linecap:butt;stroke-linejoin:miter;stroke-opacity:1" d="M 535.429,424.312 549.922,416.26 z" id="boundary" inkscape:connector-curvature="0" />
	<path style="fill:none;stroke:red;stroke-width:1px;stroke-linecap:butt;stroke-linejoin:miter;stroke-opacity:1" d="M 699.688,343.792 715.792,343.792 z" id="boundary" inkscape:connector-curvature="0" />
	<path style="fill:none;stroke:red;stroke-width:1px;stroke-linecap:butt;stroke-linejoin:miter;stroke-opacity:1" d="M 762.494,335.74 778.597,335.74 z" id="boundary" inkscape:connector-curvature="0" />
	<path style="fill:none;stroke:red;stroke-width:1px;stroke-linecap:butt;stroke-linejoin:miter;stroke-opacity:1" d="M 748,343.792 762.494,335.74 z" id="boundary" inkscape:connector-curvature="0" />
	<path style="fill:none;stroke:red;stroke-width:1px;stroke-linecap:butt;stroke-linejoin:miter;stroke-opacity:1" d="M 794.701,335.74 810.805,335.74 z" id="boundary" inkscape:connector-curvature="0" />
	<path style="fill:none;stroke:red;stroke-width:1px;stroke-linecap:butt;stroke-linejoin:miter;stroke-opacity:1" d="M 794.701,335.74 778.597,335.74 z" id="boundary" inkscape:connector-curvature="0" />
	<path style="fill:none;stroke:red;stroke-width:1px;stroke-linecap:butt;stroke-linejoin:miter;stroke-opacity:1" d="M 875.221,335.74 859.117,335.74 z" id="boundary" inkscape:connector-curvature="0" />
	<path style="fill:none;stroke:red;stroke-width:1px;stroke-linecap:butt;stroke-linejoin:miter;stroke-opacity:1" d="M 979.896,318.026 996,322.857 z" id="boundary" inkscape:connector-curvature="0" />
	<path style="fill:none;stroke:red;stroke-width:1px;stroke-linecap:butt;stroke-linejoin:miter;stroke-opacity:1" d="M 996,322.857 986.338,335.74 z" id="boundary" inkscape:connector-curvature="0" />
	<path style="fill:none;stroke:red;stroke-width:1px;stroke-linecap:butt;stroke-linejoin:miter;stroke-opacity:1" d="M 826.909,335.74 843.013,335.74 z" id="boundary" inkscape:connector-curvature="0" />
	<path style="fill:none;stroke:red;stroke-width:1px;stroke-linecap:butt;stroke-linejoin:miter;stroke-opacity:1" d="M 859.117,335.74 843.013,335.74 z" id="boundary" inkscape:connector-curvature="0" />
	<path style="fill:none;stroke:red;stroke-width:1px;stroke-linecap:butt;stroke-linejoin:miter;stroke-opacity:1" d="M 938.026,335.74 921.922,335.74 z" id="boundary" inkscape:connector-curvature="0" />
	<path style="fill:none;stroke:red;stroke-width:1px;stroke-linecap:butt;stroke-linejoin:miter;stroke-opacity:1" d="M 826.909,335.74 810.805,335.74 z" id="boundary" inkscape:connector-curvature="0" />
	<path style="fill:none;stroke:red;stroke-width:1px;stroke-linecap:butt;stroke-linejoin:miter;stroke-opacity:1" d="M 891.325,327.688 875.221,335.74 z" id="boundary" inkscape:connector-curvature="0" />
	<path style="fill:none;stroke:red;stroke-width:1px;stroke-linecap:butt;stroke-linejoin:miter;stroke-opacity:1" d="M 891.325,327.688 905.818,335.74 z" id="boundary" inkscape:connector-curvature="0" />
	<path style="fill:none;stroke:red;stroke-width:1px;stroke-linecap:butt;stroke-linejoin:miter;stroke-opacity:1" d="M 715.792,343.792 731.896,343.792 z" id="boundary" inkscape:connector-curvature="0" />
	<path style="fill:none;stroke:red;stroke-width:1px;stroke-linecap:butt;stroke-linejoin:miter;stroke-opacity:1" d="M 748,343.792 731.896,343.792 z" id="boundary" inkscape:connector-curvature="0" />
	<path style="fill:none;stroke:red;stroke-width:1px;stroke-linecap:butt;stroke-linejoin:miter;stroke-opacity:1" d="M 905.818,335.74 921.922,335.74 z" id="boundary" inkscape:connector-curvature="0" />
	<path style="fill:none;stroke:red;stroke-width:1px;stroke-linecap:butt;stroke-linejoin:miter;stroke-opacity:1" d="M 954.13,335.74 970.234,335.74 z" id="boundary" inkscape:connector-curvature="0" />
	<path style="fill:none;stroke:red;stroke-width:1px;stroke-linecap:butt;stroke-linejoin:miter;stroke-opacity:1" d="M 986.338,335.74 970.234,335.74 z" id="boundary" inkscape:connector-curvature="0" />
	<path style="fill:none;stroke:red;stroke-width:1px;stroke-linecap:butt;stroke-linejoin:miter;stroke-opacity:1" d="M 954.13,335.74 938.026,335.74 z" id="boundary" inkscape:connector-curvature="0" />
	<circle cx="4" cy="322.857" r="4" fill="#0" id="circle0"/>
	<circle cx="12.0519" cy="306.753" r="4" fill="#0" id="circle1"/>
	<circle cx="16.8831" cy="334.13" r="4" fill="#0" id="circle2"/>
	<circle cx="20.1039" cy="290.649" r="4" fill="#0" id="circle3"/>
	<circle cx="28.1558" cy="347.013" r="4" fill="#0" id="circle4"/>
	<circle cx="32.987" cy="277.766" r="4" fill="#0" id="circle5"/>
	<circle cx="36.2078" cy="361.506" r="4" fill="#0" id="circle6"/>
	<circle cx="41.039" cy="261.662" r="4" fill="#0" id="circle7"/>
	<circle cx="44.2597" cy="376" r="4" fill="#0" id="circle8"/>
	<circle cx="53.9221" cy="248.779" r="4" fill="#0" id="circle9"/>
	<circle cx="53.9221" cy="388.883" r="4" fill="#0" id="circle10"/>
	<circle cx="61.974" cy="403.377" r="4" fill="#0" id="circle11"/>
	<circle cx="66.8052" cy="237.506" r="4" fill="#0" id="circle12"/>
	<circle cx="73.2468" cy="416.26" r="4" fill="#0" id="circle13"/>
	<circle cx="76.4675" cy="218.182" r="4" fill="#0" id="circle14"/>
	<circle cx="81.2987" cy="430.753" r="4" fill="#0" id="circle15"/>
	<circle cx="92.5714" cy="210.13" r="4" fill="#0" id="circle16"/>
	<circle cx="92.5714" cy="443.636" r="4" fill="#0" id="circle17"/>
	<circle cx="100.623" cy="194.026" r="4" fill="#0" id="circle18"/>
	<circle cx="105.455" cy="454.909" r="4" fill="#0" id="circle19"/>
	<circle cx="116.727" cy="185.974" r="4" fill="#0" id="circle20"/>
	<circle cx="116.727" cy="467.792" r="4" fill="#0" id="circle21"/>
	<circle cx="129.61" cy="173.091" r="4" fill="#0" id="circle22"/>
	<circle cx="129.61" cy="479.065" r="4" fill="#0" id="circle23"/>
	<circle cx="140.883" cy="491.948" r="4" fill="#0" id="circle24"/>
	<circle cx="142.494" cy="160.208" r="4" fill="#0" id="circle25"/>
	<circle cx="153.766" cy="503.221" r="4" fill="#0" id="circle26"/>
	<circle cx="155.377" cy="148.935" r="4" fill="#0" id="circle27"/>
	<circle cx="168.26" cy="511.273" r="4" fill="#0" id="circle28"/>
	<circle cx="169.87" cy="140.883" r="4" fill="#0" id="circle29"/>
	<circle cx="176.312" cy="525.766" r="4" fill="#0" id="circle30"/>
	<circle cx="181.143" cy="121.558" r="4" fill="#0" id="circle31"/>
	<circle cx="189.195" cy="537.039" r="4" fill="#0" id="circle32"/>
	<circle cx="194.026" cy="108.675" r="4" fill="#0" id="circle33"/>
	<circle cx="194.026" cy="553.143" r="4" fill="#0" id="circle34"/>
	<circle cx="202.078" cy="92.5714" r="4" fill="#0" id="circle35"/>
	<circle cx="202.078" cy="567.636" r="4" fill="#0" id="circle36"/>
	<circle cx="213.351" cy="73.2468" r="4" fill="#0" id="circle37"/>
	<circle cx="213.351" cy="580.519" r="4" fill="#0" id="circle38"/>
	<circle cx="221.403" cy="595.013" r="4" fill="#0" id="circle39"/>
	<circle cx="226.234" cy="60.3636" r="4" fill="#0" id="circle40"/>
	<circle cx="229.455" cy="609.506" r="4" fill="#0" id="circle41"/>
	<circle cx="234.286" cy="44.2597" r="4" fill="#0" id="circle42"/>
	<circle cx="239.117" cy="622.39" r="4" fill="#0" id="circle43"/>
	<circle cx="248.779" cy="36.2078" r="4" fill="#0" id="circle44"/>
	<circle cx="252" cy="633.662" r="4" fill="#0" id="circle45"/>
	<circle cx="261.662" cy="24.9351" r="4" fill="#0" id="circle46"/>
	<circle cx="266.494" cy="641.714" r="4" fill="#0" id="circle47"/>
	<circle cx="274.545" cy="12.0519" r="4" fill="#0" id="circle48"/>
	<circle cx="280.987" cy="649.766" r="4" fill="#0" id="circle49"/>
	<circle cx="289.039" cy="4" r="4" fill="#0" id="circle50"/>
	<circle cx="297.091" cy="649.766" r="4" fill="#0" id="circle51"/>
	<circle cx="305.143" cy="4" r="4" fill="#0" id="circle52"/>
	<circle cx="311.584" cy="641.714" r="4" fill="#0" id="circle53"/>
	<circle cx="319.636" cy="12.0519" r="4" fill="#0" id="circle54"/>
	<circle cx="326.078" cy="633.662" r="4" fill="#0" id="circle55"/>
	<circle cx="335.74" cy="16.8831" r="4" fill="#0" id="circle56"/>
	<circle cx="342.182" cy="628.831" r="4" fill="#0" id="circle57"/>
	<circle cx="350.234" cy="24.9351" r="4" fill="#0" id="circle58"/>
	<circle cx="358.286" cy="620.779" r="4" fill="#0" id="circle59"/>
	<circle cx="363.117" cy="36.2078" r="4" fill="#0" id="circle60"/>
	<circle cx="374.39" cy="49.0909" r="4" fill="#0" id="circle61"/>
	<circle cx="374.39" cy="612.727" r="4" fill="#0" id="circle62"/>
	<circle cx="387.273" cy="601.455" r="4" fill="#0" id="circle63"/>
	<circle cx="390.494" cy="55.5325" r="4" fill="#0" id="circle64"/>
	<circle cx="400.156" cy="68.4156" r="4" fill="#0" id="circle65"/>
	<circle cx="401.766" cy="593.403" r="4" fill="#0" id="circle66"/>
	<circle cx="413.039" cy="78.0779" r="4" fill="#0" id="circle67"/>
	<circle cx="414.649" cy="580.519" r="4" fill="#0" id="circle68"/>
	<circle cx="424.312" cy="90.961" r="4" fill="#0" id="circle69"/>
	<circle cx="430.753" cy="572.468" r="4" fill="#0" id="circle70"/>
	<circle cx="437.195" cy="102.234" r="4" fill="#0" id="circle71"/>
	<circle cx="438.805" cy="556.364" r="4" fill="#0" id="circle72"/>
	<circle cx="451.688" cy="110.286" r="4" fill="#0" id="circle73"/>
	<circle cx="451.688" cy="543.481" r="4" fill="#0" id="circle74"/>
	<circle cx="464.571" cy="121.558" r="4" fill="#0" id="circle75"/>
	<circle cx="464.571" cy="528.987" r="4" fill="#0" id="circle76"/>
	<circle cx="475.844" cy="134.442" r="4" fill="#0" id="circle77"/>
	<circle cx="477.455" cy="517.714" r="4" fill="#0" id="circle78"/>
	<circle cx="485.506" cy="501.61" r="4" fill="#0" id="circle79"/>
	<circle cx="488.727" cy="145.714" r="4" fill="#0" id="circle80"/>
	<circle cx="496.779" cy="160.208" r="4" fill="#0" id="circle81"/>
	<circle cx="496.779" cy="480.675" r="4" fill="#0" id="circle82"/>
	<circle cx="504.831" cy="174.701" r="4" fill="#0" id="circle83"/>
	<circle cx="509.662" cy="469.403" r="4" fill="#0" id="circle84"/>
	<circle cx="512.883" cy="189.195" r="4" fill="#0" id="circle85"/>
	<circle cx="512.883" cy="205.299" r="4" fill="#0" id="circle86"/>
	<circle cx="512.883" cy="448.468" r="4" fill="#0" id="circle87"/>
	<circle cx="520.935" cy="219.792" r="4" fill="#0" id="circle88"/>
	<circle cx="520.935" cy="432.364" r="4" fill="#0" id="circle89"/>
	<circle cx="533.818" cy="229.455" r="4" fill="#0" id="circle90"/>
	<circle cx="535.429" cy="424.312" r="4" fill="#0" id="circle91"/>
	<circle cx="548.312" cy="237.506" r="4" fill="#0" id="circle92"/>
	<circle cx="549.922" cy="416.26" r="4" fill="#0" id="circle93"/>
	<circle cx="562.805" cy="245.558" r="4" fill="#0" id="circle94"/>
	<circle cx="564.416" cy="408.208" r="4" fill="#0" id="circle95"/>
	<circle cx="577.299" cy="253.61" r="4" fill="#0" id="circle96"/>
	<circle cx="580.519" cy="406.597" r="4" fill="#0" id="circle97"/>
	<circle cx="593.403" cy="258.442" r="4" fill="#0" id="circle98"/>
	<circle cx="593.403" cy="384.052" r="4" fill="#0" id="circle99"/>
	<circle cx="604.675" cy="271.325" r="4" fill="#0" id="circle100"/>
	<circle cx="606.286" cy="372.779" r="4" fill="#0" id="circle101"/>
	<circle cx="617.558" cy="282.597" r="4" fill="#0" id="circle102"/>
	<circle cx="622.39" cy="364.727" r="4" fill="#0" id="circle103"/>
	<circle cx="632.052" cy="290.649" r="4" fill="#0" id="circle104"/>
	<circle cx="638.494" cy="359.896" r="4" fill="#0" id="circle105"/>
	<circle cx="648.156" cy="293.87" r="4" fill="#0" id="circle106"/>
	<circle cx="652.987" cy="351.844" r="4" fill="#0" id="circle107"/>
	<circle cx="664.26" cy="293.87" r="4" fill="#0" id="circle108"/>
	<circle cx="669.091" cy="351.844" r="4" fill="#0" id="circle109"/>
	<circle cx="680.364" cy="293.87" r="4" fill="#0" id="circle110"/>
	<circle cx="683.584" cy="343.792" r="4" fill="#0" id="circle111"/>
	<circle cx="694.857" cy="301.922" r="4" fill="#0" id="circle112"/>
	<circle cx="699.688" cy="343.792" r="4" fill="#0" id="circle113"/>
	<circle cx="710.961" cy="301.922" r="4" fill="#0" id="circle114"/>
	<circle cx="715.792" cy="343.792" r="4" fill="#0" id="circle115"/>
	<circle cx="727.065" cy="303.532" r="4" fill="#0" id="circle116"/>
	<circle cx="731.896" cy="343.792" r="4" fill="#0" id="circle117"/>
	<circle cx="743.169" cy="309.974" r="4" fill="#0" id="circle118"/>
	<circle cx="748" cy="343.792" r="4" fill="#0" id="circle119"/>
	<circle cx="759.273" cy="309.974" r="4" fill="#0" id="circle120"/>
	<circle cx="762.494" cy="335.74" r="4" fill="#0" id="circle121"/>
	<circle cx="775.377" cy="309.974" r="4" fill="#0" id="circle122"/>
	<circle cx="778.597" cy="335.74" r="4" fill="#0" id="circle123"/>
	<circle cx="789.87" cy="301.922" r="4" fill="#0" id="circle124"/>
	<circle cx="794.701" cy="335.74" r="4" fill="#0" id="circle125"/>
	<circle cx="804.364" cy="309.974" r="4" fill="#0" id="circle126"/>
	<circle cx="810.805" cy="335.74" r="4" fill="#0" id="circle127"/>
	<circle cx="820.468" cy="309.974" r="4" fill="#0" id="circle128"/>
	<circle cx="826.909" cy="335.74" r="4" fill="#0" id="circle129"/>
	<circle cx="836.571" cy="309.974" r="4" fill="#0" id="circle130"/>
	<circle cx="843.013" cy="335.74" r="4" fill="#0" id="circle131"/>
	<circle cx="852.675" cy="309.974" r="4" fill="#0" id="circle132"/>
	<circle cx="859.117" cy="335.74" r="4" fill="#0" id="circle133"/>
	<circle cx="868.779" cy="309.974" r="4" fill="#0" id="circle134"/>
	<circle cx="875.221" cy="335.74" r="4" fill="#0" id="circle135"/>
	<circle cx="884.883" cy="309.974" r="4" fill="#0" id="circle136"/>
	<circle cx="891.325" cy="327.688" r="4" fill="#0" id="circle137"/>
	<circle cx="900.987" cy="309.974" r="4" fill="#0" id="circle138"/>
	<circle cx="905.818" cy="335.74" r="4" fill="#0" id="circle139"/>
	<circle cx="917.091" cy="309.974" r="4" fill="#0" id="circle140"/>
	<circle cx="921.922" cy="335.74" r="4" fill="#0" id="circle141"/>
	<circle cx="933.195" cy="309.974" r="4" fill="#0" id="circle142"/>
	<circle cx="938.026" cy="335.74" r="4" fill="#0" id="circle143"/>
	<circle cx="949.299" cy="309.974" r="4" fill="#0" id="circle144"/>
	<circle cx="954.13" cy="335.74" r="4" fill="#0" id="circle145"/>
	<circle cx="963.792" cy="318.026" r="4" fill="#0" id="circle146"/>
	<circle cx="970.234" cy="335.74" r="4" fill="#0" id="circle147"/>
	<circle cx="979.896" cy="318.026" r="4" fill="#0" id="circle148"/>
	<circle cx="986.338" cy="335.74" r="4" fill="#0" id="circle149"/>
	<circle cx="996" cy="322.857" r="4" fill="#0" id="circle150"/>
	</g>
</svg>