<?xml version="1.0" encoding="UTF-8" standalone="no"?>
<!-- Created with CurveBenchmark -->
<svg
	xmlns:dc="http://purl.org/dc/elements/1.1/"
	xmlns:cc="http://creativecommons.org/ns#"
	xmlns:rdf="http://www.w3.org/1999/02/22-rdf-syntax-ns#"
	xmlns:svg="http://www.w3.org/2000/svg"
	xmlns="http://www.w3.org/2000/svg"
	xmlns:sodipodi="http://sodipodi.sourceforge.net/DTD/sodipodi-0.dtd"
	xmlns:inkscape="http://www.inkscape.org/namespaces/inkscape"
	width="1000"
	height="1000"
	id="svg2"
	version="1.1"
	sodipodi:docname="manifold/gathan1-cat42.png.txt">
<defs
	id="defs4" />
<metadata
	id="metadata7">
	<rdf:RDF>
		<cc:Work
			rdf:about="">
			<dc:format>image/svg+xml</dc:format>
			<dc:type
				rdf:resource="http://purl.org/dc/dcmitype/StillImage" />
			<dc:title></dc:title>
		</cc:Work>
	</rdf:RDF>
</metadata>
<g
	inkscape:label="Layer 1"
	inkscape:groupmode="layer"
	id="layer1">
	<path style="fill:none;stroke:red;stroke-width:1px;stroke-linecap:butt;stroke-linejoin:miter;stroke-opacity:1" d="M 13.1682,183.697 4,202.033 z" id="boundary" inkscape:connector-curvature="0" />
	<path style="fill:none;stroke:red;stroke-width:1px;stroke-linecap:butt;stroke-linejoin:miter;stroke-opacity:1" d="M 13.1682,92.0148 22.3364,108.518 z" id="boundary" inkscape:connector-curvature="0" />
	<path style="fill:none;stroke:red;stroke-width:1px;stroke-linecap:butt;stroke-linejoin:miter;stroke-opacity:1" d="M 13.1682,92.0148 27.8373,77.3457 z" id="boundary" inkscape:connector-curvature="0" />
	<path style="fill:none;stroke:red;stroke-width:1px;stroke-linecap:butt;stroke-linejoin:miter;stroke-opacity:1" d="M 13.1682,183.697 27.8373,169.028 z" id="boundary" inkscape:connector-curvature="0" />
	<path style="fill:none;stroke:red;stroke-width:1px;stroke-linecap:butt;stroke-linejoin:miter;stroke-opacity:1" d="M 4,220.37 4,202.033 z" id="boundary" inkscape:connector-curvature="0" />
	<path style="fill:none;stroke:red;stroke-width:1px;stroke-linecap:butt;stroke-linejoin:miter;stroke-opacity:1" d="M 4,257.043 4,238.706 z" id="boundary" inkscape:connector-curvature="0" />
	<path style="fill:none;stroke:red;stroke-width:1px;stroke-linecap:butt;stroke-linejoin:miter;stroke-opacity:1" d="M 4,238.706 4,220.37 z" id="boundary" inkscape:connector-curvature="0" />
	<path style="fill:none;stroke:red;stroke-width:1px;stroke-linecap:butt;stroke-linejoin:miter;stroke-opacity:1" d="M 27.8373,77.3457 44.3401,86.5139 z" id="boundary" inkscape:connector-curvature="0" />
	<path style="fill:none;stroke:red;stroke-width:1px;stroke-linecap:butt;stroke-linejoin:miter;stroke-opacity:1" d="M 44.3401,86.5139 60.8429,95.6821 z" id="boundary" inkscape:connector-curvature="0" />
	<path style="fill:none;stroke:red;stroke-width:1px;stroke-linecap:butt;stroke-linejoin:miter;stroke-opacity:1" d="M 77.3457,104.85 60.8429,95.6821 z" id="boundary" inkscape:connector-curvature="0" />
	<path style="fill:none;stroke:red;stroke-width:1px;stroke-linecap:butt;stroke-linejoin:miter;stroke-opacity:1" d="M 77.3457,104.85 93.8484,114.018 z" id="boundary" inkscape:connector-curvature="0" />
	<path style="fill:none;stroke:red;stroke-width:1px;stroke-linecap:butt;stroke-linejoin:miter;stroke-opacity:1" d="M 112.185,114.018 93.8484,114.018 z" id="boundary" inkscape:connector-curvature="0" />
	<path style="fill:none;stroke:red;stroke-width:1px;stroke-linecap:butt;stroke-linejoin:miter;stroke-opacity:1" d="M 31.5046,143.357 27.8373,169.028 z" id="boundary" inkscape:connector-curvature="0" />
	<path style="fill:none;stroke:red;stroke-width:1px;stroke-linecap:butt;stroke-linejoin:miter;stroke-opacity:1" d="M 22.3364,108.518 31.5046,125.02 z" id="boundary" inkscape:connector-curvature="0" />
	<path style="fill:none;stroke:red;stroke-width:1px;stroke-linecap:butt;stroke-linejoin:miter;stroke-opacity:1" d="M 31.5046,125.02 31.5046,143.357 z" id="boundary" inkscape:connector-curvature="0" />
	<path style="fill:none;stroke:red;stroke-width:1px;stroke-linecap:butt;stroke-linejoin:miter;stroke-opacity:1" d="M 4,275.379 13.1682,291.882 z" id="boundary" inkscape:connector-curvature="0" />
	<path style="fill:none;stroke:red;stroke-width:1px;stroke-linecap:butt;stroke-linejoin:miter;stroke-opacity:1" d="M 26.0037,306.551 13.1682,291.882 z" id="boundary" inkscape:connector-curvature="0" />
	<path style="fill:none;stroke:red;stroke-width:1px;stroke-linecap:butt;stroke-linejoin:miter;stroke-opacity:1" d="M 26.0037,306.551 40.6728,317.553 z" id="boundary" inkscape:connector-curvature="0" />
	<path style="fill:none;stroke:red;stroke-width:1px;stroke-linecap:butt;stroke-linejoin:miter;stroke-opacity:1" d="M 59.0092,317.553 40.6728,317.553 z" id="boundary" inkscape:connector-curvature="0" />
	<path style="fill:none;stroke:red;stroke-width:1px;stroke-linecap:butt;stroke-linejoin:miter;stroke-opacity:1" d="M 4,275.379 4,257.043 z" id="boundary" inkscape:connector-curvature="0" />
	<path style="fill:none;stroke:red;stroke-width:1px;stroke-linecap:butt;stroke-linejoin:miter;stroke-opacity:1" d="M 59.0092,317.553 77.3457,317.553 z" id="boundary" inkscape:connector-curvature="0" />
	<path style="fill:none;stroke:red;stroke-width:1px;stroke-linecap:butt;stroke-linejoin:miter;stroke-opacity:1" d="M 95.6821,317.553 95.6821,335.889 z" id="boundary" inkscape:connector-curvature="0" />
	<path style="fill:none;stroke:red;stroke-width:1px;stroke-linecap:butt;stroke-linejoin:miter;stroke-opacity:1" d="M 77.3457,317.553 95.6821,317.553 z" id="boundary" inkscape:connector-curvature="0" />
	<path style="fill:none;stroke:red;stroke-width:1px;stroke-linecap:butt;stroke-linejoin:miter;stroke-opacity:1" d="M 95.6821,335.889 95.6821,354.226 z" id="boundary" inkscape:connector-curvature="0" />
	<path style="fill:none;stroke:red;stroke-width:1px;stroke-linecap:butt;stroke-linejoin:miter;stroke-opacity:1" d="M 101.183,372.562 104.85,390.898 z" id="boundary" inkscape:connector-curvature="0" />
	<path style="fill:none;stroke:red;stroke-width:1px;stroke-linecap:butt;stroke-linejoin:miter;stroke-opacity:1" d="M 101.183,372.562 95.6821,354.226 z" id="boundary" inkscape:connector-curvature="0" />
	<path style="fill:none;stroke:red;stroke-width:1px;stroke-linecap:butt;stroke-linejoin:miter;stroke-opacity:1" d="M 104.85,390.898 104.85,409.235 z" id="boundary" inkscape:connector-curvature="0" />
	<path style="fill:none;stroke:red;stroke-width:1px;stroke-linecap:butt;stroke-linejoin:miter;stroke-opacity:1" d="M 104.85,409.235 104.85,427.571 z" id="boundary" inkscape:connector-curvature="0" />
	<path style="fill:none;stroke:red;stroke-width:1px;stroke-linecap:butt;stroke-linejoin:miter;stroke-opacity:1" d="M 104.85,427.571 114.018,444.074 z" id="boundary" inkscape:connector-curvature="0" />
	<path style="fill:none;stroke:red;stroke-width:1px;stroke-linecap:butt;stroke-linejoin:miter;stroke-opacity:1" d="M 114.018,444.074 117.686,462.41 z" id="boundary" inkscape:connector-curvature="0" />
	<path style="fill:none;stroke:red;stroke-width:1px;stroke-linecap:butt;stroke-linejoin:miter;stroke-opacity:1" d="M 126.854,478.913 117.686,462.41 z" id="boundary" inkscape:connector-curvature="0" />
	<path style="fill:none;stroke:red;stroke-width:1px;stroke-linecap:butt;stroke-linejoin:miter;stroke-opacity:1" d="M 126.854,478.913 132.355,497.25 z" id="boundary" inkscape:connector-curvature="0" />
	<path style="fill:none;stroke:red;stroke-width:1px;stroke-linecap:butt;stroke-linejoin:miter;stroke-opacity:1" d="M 137.856,86.5139 152.525,71.8447 z" id="boundary" inkscape:connector-curvature="0" />
	<path style="fill:none;stroke:red;stroke-width:1px;stroke-linecap:butt;stroke-linejoin:miter;stroke-opacity:1" d="M 170.861,68.1774 185.53,79.1793 z" id="boundary" inkscape:connector-curvature="0" />
	<path style="fill:none;stroke:red;stroke-width:1px;stroke-linecap:butt;stroke-linejoin:miter;stroke-opacity:1" d="M 152.525,71.8447 170.861,68.1774 z" id="boundary" inkscape:connector-curvature="0" />
	<path style="fill:none;stroke:red;stroke-width:1px;stroke-linecap:butt;stroke-linejoin:miter;stroke-opacity:1" d="M 198.366,93.8484 185.53,79.1793 z" id="boundary" inkscape:connector-curvature="0" />
	<path style="fill:none;stroke:red;stroke-width:1px;stroke-linecap:butt;stroke-linejoin:miter;stroke-opacity:1" d="M 198.366,93.8484 207.534,110.351 z" id="boundary" inkscape:connector-curvature="0" />
	<path style="fill:none;stroke:red;stroke-width:1px;stroke-linecap:butt;stroke-linejoin:miter;stroke-opacity:1" d="M 128.688,104.85 137.856,86.5139 z" id="boundary" inkscape:connector-curvature="0" />
	<path style="fill:none;stroke:red;stroke-width:1px;stroke-linecap:butt;stroke-linejoin:miter;stroke-opacity:1" d="M 207.534,110.351 214.869,128.688 z" id="boundary" inkscape:connector-curvature="0" />
	<path style="fill:none;stroke:red;stroke-width:1px;stroke-linecap:butt;stroke-linejoin:miter;stroke-opacity:1" d="M 229.538,141.523 214.869,128.688 z" id="boundary" inkscape:connector-curvature="0" />
	<path style="fill:none;stroke:red;stroke-width:1px;stroke-linecap:butt;stroke-linejoin:miter;stroke-opacity:1" d="M 128.688,104.85 112.185,114.018 z" id="boundary" inkscape:connector-curvature="0" />
	<path style="fill:none;stroke:red;stroke-width:1px;stroke-linecap:butt;stroke-linejoin:miter;stroke-opacity:1" d="M 229.538,141.523 235.039,159.86 z" id="boundary" inkscape:connector-curvature="0" />
	<path style="fill:none;stroke:red;stroke-width:1px;stroke-linecap:butt;stroke-linejoin:miter;stroke-opacity:1" d="M 244.207,176.362 235.039,159.86 z" id="boundary" inkscape:connector-curvature="0" />
	<path style="fill:none;stroke:red;stroke-width:1px;stroke-linecap:butt;stroke-linejoin:miter;stroke-opacity:1" d="M 244.207,176.362 253.375,192.865 z" id="boundary" inkscape:connector-curvature="0" />
	<path style="fill:none;stroke:red;stroke-width:1px;stroke-linecap:butt;stroke-linejoin:miter;stroke-opacity:1" d="M 266.211,207.534 253.375,192.865 z" id="boundary" inkscape:connector-curvature="0" />
	<path style="fill:none;stroke:red;stroke-width:1px;stroke-linecap:butt;stroke-linejoin:miter;stroke-opacity:1" d="M 280.88,220.37 293.715,235.039 z" id="boundary" inkscape:connector-curvature="0" />
	<path style="fill:none;stroke:red;stroke-width:1px;stroke-linecap:butt;stroke-linejoin:miter;stroke-opacity:1" d="M 280.88,220.37 266.211,207.534 z" id="boundary" inkscape:connector-curvature="0" />
	<path style="fill:none;stroke:red;stroke-width:1px;stroke-linecap:butt;stroke-linejoin:miter;stroke-opacity:1" d="M 293.715,235.039 312.052,242.373 z" id="boundary" inkscape:connector-curvature="0" />
	<path style="fill:none;stroke:red;stroke-width:1px;stroke-linecap:butt;stroke-linejoin:miter;stroke-opacity:1" d="M 328.555,251.542 312.052,242.373 z" id="boundary" inkscape:connector-curvature="0" />
	<path style="fill:none;stroke:red;stroke-width:1px;stroke-linecap:butt;stroke-linejoin:miter;stroke-opacity:1" d="M 343.224,264.377 354.226,279.046 z" id="boundary" inkscape:connector-curvature="0" />
	<path style="fill:none;stroke:red;stroke-width:1px;stroke-linecap:butt;stroke-linejoin:miter;stroke-opacity:1" d="M 368.895,290.048 354.226,279.046 z" id="boundary" inkscape:connector-curvature="0" />
	<path style="fill:none;stroke:red;stroke-width:1px;stroke-linecap:butt;stroke-linejoin:miter;stroke-opacity:1" d="M 385.397,299.216 368.895,290.048 z" id="boundary" inkscape:connector-curvature="0" />
	<path style="fill:none;stroke:red;stroke-width:1px;stroke-linecap:butt;stroke-linejoin:miter;stroke-opacity:1" d="M 141.523,513.752 132.355,497.25 z" id="boundary" inkscape:connector-curvature="0" />
	<path style="fill:none;stroke:red;stroke-width:1px;stroke-linecap:butt;stroke-linejoin:miter;stroke-opacity:1" d="M 156.192,526.588 141.523,513.752 z" id="boundary" inkscape:connector-curvature="0" />
	<path style="fill:none;stroke:red;stroke-width:1px;stroke-linecap:butt;stroke-linejoin:miter;stroke-opacity:1" d="M 169.028,541.257 156.192,526.588 z" id="boundary" inkscape:connector-curvature="0" />
	<path style="fill:none;stroke:red;stroke-width:1px;stroke-linecap:butt;stroke-linejoin:miter;stroke-opacity:1" d="M 343.224,264.377 328.555,251.542 z" id="boundary" inkscape:connector-curvature="0" />
	<path style="fill:none;stroke:red;stroke-width:1px;stroke-linecap:butt;stroke-linejoin:miter;stroke-opacity:1" d="M 403.734,306.551 422.07,306.551 z" id="boundary" inkscape:connector-curvature="0" />
	<path style="fill:none;stroke:red;stroke-width:1px;stroke-linecap:butt;stroke-linejoin:miter;stroke-opacity:1" d="M 422.07,306.551 438.573,315.719 z" id="boundary" inkscape:connector-curvature="0" />
	<path style="fill:none;stroke:red;stroke-width:1px;stroke-linecap:butt;stroke-linejoin:miter;stroke-opacity:1" d="M 403.734,306.551 385.397,299.216 z" id="boundary" inkscape:connector-curvature="0" />
	<path style="fill:none;stroke:red;stroke-width:1px;stroke-linecap:butt;stroke-linejoin:miter;stroke-opacity:1" d="M 438.573,315.719 456.909,315.719 z" id="boundary" inkscape:connector-curvature="0" />
	<path style="fill:none;stroke:red;stroke-width:1px;stroke-linecap:butt;stroke-linejoin:miter;stroke-opacity:1" d="M 456.909,315.719 473.412,324.887 z" id="boundary" inkscape:connector-curvature="0" />
	<path style="fill:none;stroke:red;stroke-width:1px;stroke-linecap:butt;stroke-linejoin:miter;stroke-opacity:1" d="M 473.412,324.887 491.749,324.887 z" id="boundary" inkscape:connector-curvature="0" />
	<path style="fill:none;stroke:red;stroke-width:1px;stroke-linecap:butt;stroke-linejoin:miter;stroke-opacity:1" d="M 565.094,334.055 546.758,334.055 z" id="boundary" inkscape:connector-curvature="0" />
	<path style="fill:none;stroke:red;stroke-width:1px;stroke-linecap:butt;stroke-linejoin:miter;stroke-opacity:1" d="M 546.758,334.055 528.421,330.388 z" id="boundary" inkscape:connector-curvature="0" />
	<path style="fill:none;stroke:red;stroke-width:1px;stroke-linecap:butt;stroke-linejoin:miter;stroke-opacity:1" d="M 510.085,324.887 528.421,330.388 z" id="boundary" inkscape:connector-curvature="0" />
	<path style="fill:none;stroke:red;stroke-width:1px;stroke-linecap:butt;stroke-linejoin:miter;stroke-opacity:1" d="M 491.749,324.887 510.085,324.887 z" id="boundary" inkscape:connector-curvature="0" />
	<path style="fill:none;stroke:red;stroke-width:1px;stroke-linecap:butt;stroke-linejoin:miter;stroke-opacity:1" d="M 169.028,559.593 169.028,577.93 z" id="boundary" inkscape:connector-curvature="0" />
	<path style="fill:none;stroke:red;stroke-width:1px;stroke-linecap:butt;stroke-linejoin:miter;stroke-opacity:1" d="M 169.028,596.266 169.028,614.603 z" id="boundary" inkscape:connector-curvature="0" />
	<path style="fill:none;stroke:red;stroke-width:1px;stroke-linecap:butt;stroke-linejoin:miter;stroke-opacity:1" d="M 169.028,596.266 169.028,577.93 z" id="boundary" inkscape:connector-curvature="0" />
	<path style="fill:none;stroke:red;stroke-width:1px;stroke-linecap:butt;stroke-linejoin:miter;stroke-opacity:1" d="M 169.028,632.939 169.028,614.603 z" id="boundary" inkscape:connector-curvature="0" />
	<path style="fill:none;stroke:red;stroke-width:1px;stroke-linecap:butt;stroke-linejoin:miter;stroke-opacity:1" d="M 169.028,651.275 169.028,669.612 z" id="boundary" inkscape:connector-curvature="0" />
	<path style="fill:none;stroke:red;stroke-width:1px;stroke-linecap:butt;stroke-linejoin:miter;stroke-opacity:1" d="M 169.028,651.275 169.028,632.939 z" id="boundary" inkscape:connector-curvature="0" />
	<path style="fill:none;stroke:red;stroke-width:1px;stroke-linecap:butt;stroke-linejoin:miter;stroke-opacity:1" d="M 271.712,620.104 262.543,638.44 z" id="boundary" inkscape:connector-curvature="0" />
	<path style="fill:none;stroke:red;stroke-width:1px;stroke-linecap:butt;stroke-linejoin:miter;stroke-opacity:1" d="M 169.028,687.948 169.028,669.612 z" id="boundary" inkscape:connector-curvature="0" />
	<path style="fill:none;stroke:red;stroke-width:1px;stroke-linecap:butt;stroke-linejoin:miter;stroke-opacity:1" d="M 253.375,675.113 244.207,693.449 z" id="boundary" inkscape:connector-curvature="0" />
	<path style="fill:none;stroke:red;stroke-width:1px;stroke-linecap:butt;stroke-linejoin:miter;stroke-opacity:1" d="M 262.543,638.44 262.543,656.776 z" id="boundary" inkscape:connector-curvature="0" />
	<path style="fill:none;stroke:red;stroke-width:1px;stroke-linecap:butt;stroke-linejoin:miter;stroke-opacity:1" d="M 262.543,656.776 253.375,675.113 z" id="boundary" inkscape:connector-curvature="0" />
	<path style="fill:none;stroke:red;stroke-width:1px;stroke-linecap:butt;stroke-linejoin:miter;stroke-opacity:1" d="M 235.039,720.954 244.207,693.449 z" id="boundary" inkscape:connector-curvature="0" />
	<path style="fill:none;stroke:red;stroke-width:1px;stroke-linecap:butt;stroke-linejoin:miter;stroke-opacity:1" d="M 169.028,706.285 169.028,724.621 z" id="boundary" inkscape:connector-curvature="0" />
	<path style="fill:none;stroke:red;stroke-width:1px;stroke-linecap:butt;stroke-linejoin:miter;stroke-opacity:1" d="M 225.871,739.29 235.039,720.954 z" id="boundary" inkscape:connector-curvature="0" />
	<path style="fill:none;stroke:red;stroke-width:1px;stroke-linecap:butt;stroke-linejoin:miter;stroke-opacity:1" d="M 169.028,706.285 169.028,687.948 z" id="boundary" inkscape:connector-curvature="0" />
	<path style="fill:none;stroke:red;stroke-width:1px;stroke-linecap:butt;stroke-linejoin:miter;stroke-opacity:1" d="M 169.028,559.593 169.028,541.257 z" id="boundary" inkscape:connector-curvature="0" />
	<path style="fill:none;stroke:red;stroke-width:1px;stroke-linecap:butt;stroke-linejoin:miter;stroke-opacity:1" d="M 114.018,779.63 128.688,764.961 z" id="boundary" inkscape:connector-curvature="0" />
	<path style="fill:none;stroke:red;stroke-width:1px;stroke-linecap:butt;stroke-linejoin:miter;stroke-opacity:1" d="M 147.024,764.961 163.527,755.793 z" id="boundary" inkscape:connector-curvature="0" />
	<path style="fill:none;stroke:red;stroke-width:1px;stroke-linecap:butt;stroke-linejoin:miter;stroke-opacity:1" d="M 147.024,764.961 128.688,764.961 z" id="boundary" inkscape:connector-curvature="0" />
	<path style="fill:none;stroke:red;stroke-width:1px;stroke-linecap:butt;stroke-linejoin:miter;stroke-opacity:1" d="M 169.028,724.621 163.527,755.793 z" id="boundary" inkscape:connector-curvature="0" />
	<path style="fill:none;stroke:red;stroke-width:1px;stroke-linecap:butt;stroke-linejoin:miter;stroke-opacity:1" d="M 114.018,797.967 132.355,803.468 z" id="boundary" inkscape:connector-curvature="0" />
	<path style="fill:none;stroke:red;stroke-width:1px;stroke-linecap:butt;stroke-linejoin:miter;stroke-opacity:1" d="M 132.355,803.468 148.858,812.636 z" id="boundary" inkscape:connector-curvature="0" />
	<path style="fill:none;stroke:red;stroke-width:1px;stroke-linecap:butt;stroke-linejoin:miter;stroke-opacity:1" d="M 114.018,797.967 114.018,779.63 z" id="boundary" inkscape:connector-curvature="0" />
	<path style="fill:none;stroke:red;stroke-width:1px;stroke-linecap:butt;stroke-linejoin:miter;stroke-opacity:1" d="M 148.858,812.636 167.194,812.636 z" id="boundary" inkscape:connector-curvature="0" />
	<path style="fill:none;stroke:red;stroke-width:1px;stroke-linecap:butt;stroke-linejoin:miter;stroke-opacity:1" d="M 185.53,808.969 167.194,812.636 z" id="boundary" inkscape:connector-curvature="0" />
	<path style="fill:none;stroke:red;stroke-width:1px;stroke-linecap:butt;stroke-linejoin:miter;stroke-opacity:1" d="M 207.534,775.963 222.203,763.128 z" id="boundary" inkscape:connector-curvature="0" />
	<path style="fill:none;stroke:red;stroke-width:1px;stroke-linecap:butt;stroke-linejoin:miter;stroke-opacity:1" d="M 225.871,739.29 222.203,763.128 z" id="boundary" inkscape:connector-curvature="0" />
	<path style="fill:none;stroke:red;stroke-width:1px;stroke-linecap:butt;stroke-linejoin:miter;stroke-opacity:1" d="M 284.547,774.129 269.878,788.799 z" id="boundary" inkscape:connector-curvature="0" />
	<path style="fill:none;stroke:red;stroke-width:1px;stroke-linecap:butt;stroke-linejoin:miter;stroke-opacity:1" d="M 207.534,775.963 198.366,794.299 z" id="boundary" inkscape:connector-curvature="0" />
	<path style="fill:none;stroke:red;stroke-width:1px;stroke-linecap:butt;stroke-linejoin:miter;stroke-opacity:1" d="M 269.878,788.799 260.71,807.135 z" id="boundary" inkscape:connector-curvature="0" />
	<path style="fill:none;stroke:red;stroke-width:1px;stroke-linecap:butt;stroke-linejoin:miter;stroke-opacity:1" d="M 185.53,808.969 198.366,794.299 z" id="boundary" inkscape:connector-curvature="0" />
	<path style="fill:none;stroke:red;stroke-width:1px;stroke-linecap:butt;stroke-linejoin:miter;stroke-opacity:1" d="M 260.71,807.135 260.71,825.471 z" id="boundary" inkscape:connector-curvature="0" />
	<path style="fill:none;stroke:red;stroke-width:1px;stroke-linecap:butt;stroke-linejoin:miter;stroke-opacity:1" d="M 279.046,830.972 260.71,825.471 z" id="boundary" inkscape:connector-curvature="0" />
	<path style="fill:none;stroke:red;stroke-width:1px;stroke-linecap:butt;stroke-linejoin:miter;stroke-opacity:1" d="M 271.712,620.104 288.214,610.935 z" id="boundary" inkscape:connector-curvature="0" />
	<path style="fill:none;stroke:red;stroke-width:1px;stroke-linecap:butt;stroke-linejoin:miter;stroke-opacity:1" d="M 288.214,610.935 297.383,627.438 z" id="boundary" inkscape:connector-curvature="0" />
	<path style="fill:none;stroke:red;stroke-width:1px;stroke-linecap:butt;stroke-linejoin:miter;stroke-opacity:1" d="M 297.383,627.438 297.383,645.774 z" id="boundary" inkscape:connector-curvature="0" />
	<path style="fill:none;stroke:red;stroke-width:1px;stroke-linecap:butt;stroke-linejoin:miter;stroke-opacity:1" d="M 297.383,645.774 297.383,664.111 z" id="boundary" inkscape:connector-curvature="0" />
	<path style="fill:none;stroke:red;stroke-width:1px;stroke-linecap:butt;stroke-linejoin:miter;stroke-opacity:1" d="M 297.383,664.111 297.383,682.447 z" id="boundary" inkscape:connector-curvature="0" />
	<path style="fill:none;stroke:red;stroke-width:1px;stroke-linecap:butt;stroke-linejoin:miter;stroke-opacity:1" d="M 400.067,665.945 400.067,647.608 z" id="boundary" inkscape:connector-curvature="0" />
	<path style="fill:none;stroke:red;stroke-width:1px;stroke-linecap:butt;stroke-linejoin:miter;stroke-opacity:1" d="M 400.067,647.608 416.569,638.44 z" id="boundary" inkscape:connector-curvature="0" />
	<path style="fill:none;stroke:red;stroke-width:1px;stroke-linecap:butt;stroke-linejoin:miter;stroke-opacity:1" d="M 400.067,665.945 390.898,684.281 z" id="boundary" inkscape:connector-curvature="0" />
	<path style="fill:none;stroke:red;stroke-width:1px;stroke-linecap:butt;stroke-linejoin:miter;stroke-opacity:1" d="M 297.383,682.447 297.383,700.784 z" id="boundary" inkscape:connector-curvature="0" />
	<path style="fill:none;stroke:red;stroke-width:1px;stroke-linecap:butt;stroke-linejoin:miter;stroke-opacity:1" d="M 434.906,638.44 451.409,647.608 z" id="boundary" inkscape:connector-curvature="0" />
	<path style="fill:none;stroke:red;stroke-width:1px;stroke-linecap:butt;stroke-linejoin:miter;stroke-opacity:1" d="M 451.409,647.608 469.745,647.608 z" id="boundary" inkscape:connector-curvature="0" />
	<path style="fill:none;stroke:red;stroke-width:1px;stroke-linecap:butt;stroke-linejoin:miter;stroke-opacity:1" d="M 488.081,647.608 469.745,647.608 z" id="boundary" inkscape:connector-curvature="0" />
	<path style="fill:none;stroke:red;stroke-width:1px;stroke-linecap:butt;stroke-linejoin:miter;stroke-opacity:1" d="M 416.569,638.44 434.906,638.44 z" id="boundary" inkscape:connector-curvature="0" />
	<path style="fill:none;stroke:red;stroke-width:1px;stroke-linecap:butt;stroke-linejoin:miter;stroke-opacity:1" d="M 488.081,647.608 504.584,656.776 z" id="boundary" inkscape:connector-curvature="0" />
	<path style="fill:none;stroke:red;stroke-width:1px;stroke-linecap:butt;stroke-linejoin:miter;stroke-opacity:1" d="M 522.921,656.776 504.584,656.776 z" id="boundary" inkscape:connector-curvature="0" />
	<path style="fill:none;stroke:red;stroke-width:1px;stroke-linecap:butt;stroke-linejoin:miter;stroke-opacity:1" d="M 522.921,656.776 539.423,665.945 z" id="boundary" inkscape:connector-curvature="0" />
	<path style="fill:none;stroke:red;stroke-width:1px;stroke-linecap:butt;stroke-linejoin:miter;stroke-opacity:1" d="M 555.926,656.776 539.423,665.945 z" id="boundary" inkscape:connector-curvature="0" />
	<path style="fill:none;stroke:red;stroke-width:1px;stroke-linecap:butt;stroke-linejoin:miter;stroke-opacity:1" d="M 297.383,719.12 297.383,737.457 z" id="boundary" inkscape:connector-curvature="0" />
	<path style="fill:none;stroke:red;stroke-width:1px;stroke-linecap:butt;stroke-linejoin:miter;stroke-opacity:1" d="M 297.383,737.457 297.383,755.793 z" id="boundary" inkscape:connector-curvature="0" />
	<path style="fill:none;stroke:red;stroke-width:1px;stroke-linecap:butt;stroke-linejoin:miter;stroke-opacity:1" d="M 297.383,755.793 284.547,774.129 z" id="boundary" inkscape:connector-curvature="0" />
	<path style="fill:none;stroke:red;stroke-width:1px;stroke-linecap:butt;stroke-linejoin:miter;stroke-opacity:1" d="M 297.383,830.972 279.046,830.972 z" id="boundary" inkscape:connector-curvature="0" />
	<path style="fill:none;stroke:red;stroke-width:1px;stroke-linecap:butt;stroke-linejoin:miter;stroke-opacity:1" d="M 315.719,830.972 297.383,830.972 z" id="boundary" inkscape:connector-curvature="0" />
	<path style="fill:none;stroke:red;stroke-width:1px;stroke-linecap:butt;stroke-linejoin:miter;stroke-opacity:1" d="M 297.383,719.12 297.383,700.784 z" id="boundary" inkscape:connector-curvature="0" />
	<path style="fill:none;stroke:red;stroke-width:1px;stroke-linecap:butt;stroke-linejoin:miter;stroke-opacity:1" d="M 381.73,720.954 381.73,739.29 z" id="boundary" inkscape:connector-curvature="0" />
	<path style="fill:none;stroke:red;stroke-width:1px;stroke-linecap:butt;stroke-linejoin:miter;stroke-opacity:1" d="M 381.73,739.29 372.562,757.627 z" id="boundary" inkscape:connector-curvature="0" />
	<path style="fill:none;stroke:red;stroke-width:1px;stroke-linecap:butt;stroke-linejoin:miter;stroke-opacity:1" d="M 381.73,720.954 390.898,702.617 z" id="boundary" inkscape:connector-curvature="0" />
	<path style="fill:none;stroke:red;stroke-width:1px;stroke-linecap:butt;stroke-linejoin:miter;stroke-opacity:1" d="M 390.898,684.281 390.898,702.617 z" id="boundary" inkscape:connector-curvature="0" />
	<path style="fill:none;stroke:red;stroke-width:1px;stroke-linecap:butt;stroke-linejoin:miter;stroke-opacity:1" d="M 334.055,830.972 345.057,812.636 z" id="boundary" inkscape:connector-curvature="0" />
	<path style="fill:none;stroke:red;stroke-width:1px;stroke-linecap:butt;stroke-linejoin:miter;stroke-opacity:1" d="M 345.057,812.636 359.726,799.8 z" id="boundary" inkscape:connector-curvature="0" />
	<path style="fill:none;stroke:red;stroke-width:1px;stroke-linecap:butt;stroke-linejoin:miter;stroke-opacity:1" d="M 334.055,830.972 315.719,830.972 z" id="boundary" inkscape:connector-curvature="0" />
	<path style="fill:none;stroke:red;stroke-width:1px;stroke-linecap:butt;stroke-linejoin:miter;stroke-opacity:1" d="M 359.726,799.8 363.394,775.963 z" id="boundary" inkscape:connector-curvature="0" />
	<path style="fill:none;stroke:red;stroke-width:1px;stroke-linecap:butt;stroke-linejoin:miter;stroke-opacity:1" d="M 363.394,775.963 372.562,757.627 z" id="boundary" inkscape:connector-curvature="0" />
	<path style="fill:none;stroke:red;stroke-width:1px;stroke-linecap:butt;stroke-linejoin:miter;stroke-opacity:1" d="M 858.477,70.0111 847.475,55.342 z" id="boundary" inkscape:connector-curvature="0" />
	<path style="fill:none;stroke:red;stroke-width:1px;stroke-linecap:butt;stroke-linejoin:miter;stroke-opacity:1" d="M 876.813,70.0111 858.477,70.0111 z" id="boundary" inkscape:connector-curvature="0" />
	<path style="fill:none;stroke:red;stroke-width:1px;stroke-linecap:butt;stroke-linejoin:miter;stroke-opacity:1" d="M 847.475,55.342 847.475,37.0055 z" id="boundary" inkscape:connector-curvature="0" />
	<path style="fill:none;stroke:red;stroke-width:1px;stroke-linecap:butt;stroke-linejoin:miter;stroke-opacity:1" d="M 847.475,37.0055 856.643,18.6691 z" id="boundary" inkscape:connector-curvature="0" />
	<path style="fill:none;stroke:red;stroke-width:1px;stroke-linecap:butt;stroke-linejoin:miter;stroke-opacity:1" d="M 856.643,312.052 847.475,330.388 z" id="boundary" inkscape:connector-curvature="0" />
	<path style="fill:none;stroke:red;stroke-width:1px;stroke-linecap:butt;stroke-linejoin:miter;stroke-opacity:1" d="M 847.475,330.388 832.806,343.224 z" id="boundary" inkscape:connector-curvature="0" />
	<path style="fill:none;stroke:red;stroke-width:1px;stroke-linecap:butt;stroke-linejoin:miter;stroke-opacity:1" d="M 865.811,293.715 856.643,312.052 z" id="boundary" inkscape:connector-curvature="0" />
	<path style="fill:none;stroke:red;stroke-width:1px;stroke-linecap:butt;stroke-linejoin:miter;stroke-opacity:1" d="M 909.819,387.231 895.15,400.067 z" id="boundary" inkscape:connector-curvature="0" />
	<path style="fill:none;stroke:red;stroke-width:1px;stroke-linecap:butt;stroke-linejoin:miter;stroke-opacity:1" d="M 893.316,60.8429 876.813,70.0111 z" id="boundary" inkscape:connector-curvature="0" />
	<path style="fill:none;stroke:red;stroke-width:1px;stroke-linecap:butt;stroke-linejoin:miter;stroke-opacity:1" d="M 874.98,9.50092 893.316,4 z" id="boundary" inkscape:connector-curvature="0" />
	<path style="fill:none;stroke:red;stroke-width:1px;stroke-linecap:butt;stroke-linejoin:miter;stroke-opacity:1" d="M 880.481,279.046 884.148,257.043 z" id="boundary" inkscape:connector-curvature="0" />
	<path style="fill:none;stroke:red;stroke-width:1px;stroke-linecap:butt;stroke-linejoin:miter;stroke-opacity:1" d="M 880.481,279.046 865.811,293.715 z" id="boundary" inkscape:connector-curvature="0" />
	<path style="fill:none;stroke:red;stroke-width:1px;stroke-linecap:butt;stroke-linejoin:miter;stroke-opacity:1" d="M 884.148,257.043 893.316,238.706 z" id="boundary" inkscape:connector-curvature="0" />
	<path style="fill:none;stroke:red;stroke-width:1px;stroke-linecap:butt;stroke-linejoin:miter;stroke-opacity:1" d="M 907.985,224.037 893.316,238.706 z" id="boundary" inkscape:connector-curvature="0" />
	<path style="fill:none;stroke:red;stroke-width:1px;stroke-linecap:butt;stroke-linejoin:miter;stroke-opacity:1" d="M 911.652,202.033 907.985,224.037 z" id="boundary" inkscape:connector-curvature="0" />
	<path style="fill:none;stroke:red;stroke-width:1px;stroke-linecap:butt;stroke-linejoin:miter;stroke-opacity:1" d="M 893.316,4 911.652,4 z" id="boundary" inkscape:connector-curvature="0" />
	<path style="fill:none;stroke:red;stroke-width:1px;stroke-linecap:butt;stroke-linejoin:miter;stroke-opacity:1" d="M 856.643,18.6691 874.98,9.50092 z" id="boundary" inkscape:connector-curvature="0" />
	<path style="fill:none;stroke:red;stroke-width:1px;stroke-linecap:butt;stroke-linejoin:miter;stroke-opacity:1" d="M 581.597,343.224 599.933,343.224 z" id="boundary" inkscape:connector-curvature="0" />
	<path style="fill:none;stroke:red;stroke-width:1px;stroke-linecap:butt;stroke-linejoin:miter;stroke-opacity:1" d="M 581.597,343.224 565.094,334.055 z" id="boundary" inkscape:connector-curvature="0" />
	<path style="fill:none;stroke:red;stroke-width:1px;stroke-linecap:butt;stroke-linejoin:miter;stroke-opacity:1" d="M 618.27,343.224 634.773,352.392 z" id="boundary" inkscape:connector-curvature="0" />
	<path style="fill:none;stroke:red;stroke-width:1px;stroke-linecap:butt;stroke-linejoin:miter;stroke-opacity:1" d="M 599.933,343.224 618.27,343.224 z" id="boundary" inkscape:connector-curvature="0" />
	<path style="fill:none;stroke:red;stroke-width:1px;stroke-linecap:butt;stroke-linejoin:miter;stroke-opacity:1" d="M 653.109,352.392 634.773,352.392 z" id="boundary" inkscape:connector-curvature="0" />
	<path style="fill:none;stroke:red;stroke-width:1px;stroke-linecap:butt;stroke-linejoin:miter;stroke-opacity:1" d="M 653.109,352.392 671.445,354.226 z" id="boundary" inkscape:connector-curvature="0" />
	<path style="fill:none;stroke:red;stroke-width:1px;stroke-linecap:butt;stroke-linejoin:miter;stroke-opacity:1" d="M 671.445,354.226 689.782,361.56 z" id="boundary" inkscape:connector-curvature="0" />
	<path style="fill:none;stroke:red;stroke-width:1px;stroke-linecap:butt;stroke-linejoin:miter;stroke-opacity:1" d="M 689.782,361.56 708.118,361.56 z" id="boundary" inkscape:connector-curvature="0" />
	<path style="fill:none;stroke:red;stroke-width:1px;stroke-linecap:butt;stroke-linejoin:miter;stroke-opacity:1" d="M 726.455,361.56 708.118,361.56 z" id="boundary" inkscape:connector-curvature="0" />
	<path style="fill:none;stroke:red;stroke-width:1px;stroke-linecap:butt;stroke-linejoin:miter;stroke-opacity:1" d="M 726.455,361.56 744.791,361.56 z" id="boundary" inkscape:connector-curvature="0" />
	<path style="fill:none;stroke:red;stroke-width:1px;stroke-linecap:butt;stroke-linejoin:miter;stroke-opacity:1" d="M 744.791,361.56 761.294,370.728 z" id="boundary" inkscape:connector-curvature="0" />
	<path style="fill:none;stroke:red;stroke-width:1px;stroke-linecap:butt;stroke-linejoin:miter;stroke-opacity:1" d="M 816.303,352.392 832.806,343.224 z" id="boundary" inkscape:connector-curvature="0" />
	<path style="fill:none;stroke:red;stroke-width:1px;stroke-linecap:butt;stroke-linejoin:miter;stroke-opacity:1" d="M 816.303,352.392 797.967,361.56 z" id="boundary" inkscape:connector-curvature="0" />
	<path style="fill:none;stroke:red;stroke-width:1px;stroke-linecap:butt;stroke-linejoin:miter;stroke-opacity:1" d="M 761.294,370.728 779.63,370.728 z" id="boundary" inkscape:connector-curvature="0" />
	<path style="fill:none;stroke:red;stroke-width:1px;stroke-linecap:butt;stroke-linejoin:miter;stroke-opacity:1" d="M 779.63,370.728 797.967,361.56 z" id="boundary" inkscape:connector-curvature="0" />
	<path style="fill:none;stroke:red;stroke-width:1px;stroke-linecap:butt;stroke-linejoin:miter;stroke-opacity:1" d="M 893.316,60.8429 911.652,60.8429 z" id="boundary" inkscape:connector-curvature="0" />
	<path style="fill:none;stroke:red;stroke-width:1px;stroke-linecap:butt;stroke-linejoin:miter;stroke-opacity:1" d="M 911.652,4 929.989,4 z" id="boundary" inkscape:connector-curvature="0" />
	<path style="fill:none;stroke:red;stroke-width:1px;stroke-linecap:butt;stroke-linejoin:miter;stroke-opacity:1" d="M 928.155,70.0111 911.652,60.8429 z" id="boundary" inkscape:connector-curvature="0" />
	<path style="fill:none;stroke:red;stroke-width:1px;stroke-linecap:butt;stroke-linejoin:miter;stroke-opacity:1" d="M 929.989,88.3475 929.989,106.684 z" id="boundary" inkscape:connector-curvature="0" />
	<path style="fill:none;stroke:red;stroke-width:1px;stroke-linecap:butt;stroke-linejoin:miter;stroke-opacity:1" d="M 929.989,88.3475 928.155,70.0111 z" id="boundary" inkscape:connector-curvature="0" />
	<path style="fill:none;stroke:red;stroke-width:1px;stroke-linecap:butt;stroke-linejoin:miter;stroke-opacity:1" d="M 929.989,106.684 929.989,125.02 z" id="boundary" inkscape:connector-curvature="0" />
	<path style="fill:none;stroke:red;stroke-width:1px;stroke-linecap:butt;stroke-linejoin:miter;stroke-opacity:1" d="M 929.989,4 948.325,4 z" id="boundary" inkscape:connector-curvature="0" />
	<path style="fill:none;stroke:red;stroke-width:1px;stroke-linecap:butt;stroke-linejoin:miter;stroke-opacity:1" d="M 948.325,4 962.994,15.0018 z" id="boundary" inkscape:connector-curvature="0" />
	<path style="fill:none;stroke:red;stroke-width:1px;stroke-linecap:butt;stroke-linejoin:miter;stroke-opacity:1" d="M 929.989,125.02 920.821,147.024 z" id="boundary" inkscape:connector-curvature="0" />
	<path style="fill:none;stroke:red;stroke-width:1px;stroke-linecap:butt;stroke-linejoin:miter;stroke-opacity:1" d="M 977.664,27.8373 984.998,46.1738 z" id="boundary" inkscape:connector-curvature="0" />
	<path style="fill:none;stroke:red;stroke-width:1px;stroke-linecap:butt;stroke-linejoin:miter;stroke-opacity:1" d="M 984.998,46.1738 986.832,64.5102 z" id="boundary" inkscape:connector-curvature="0" />
	<path style="fill:none;stroke:red;stroke-width:1px;stroke-linecap:butt;stroke-linejoin:miter;stroke-opacity:1" d="M 986.832,64.5102 986.832,82.8466 z" id="boundary" inkscape:connector-curvature="0" />
	<path style="fill:none;stroke:red;stroke-width:1px;stroke-linecap:butt;stroke-linejoin:miter;stroke-opacity:1" d="M 986.832,82.8466 986.832,101.183 z" id="boundary" inkscape:connector-curvature="0" />
	<path style="fill:none;stroke:red;stroke-width:1px;stroke-linecap:butt;stroke-linejoin:miter;stroke-opacity:1" d="M 986.832,119.519 986.832,137.856 z" id="boundary" inkscape:connector-curvature="0" />
	<path style="fill:none;stroke:red;stroke-width:1px;stroke-linecap:butt;stroke-linejoin:miter;stroke-opacity:1" d="M 986.832,119.519 986.832,101.183 z" id="boundary" inkscape:connector-curvature="0" />
	<path style="fill:none;stroke:red;stroke-width:1px;stroke-linecap:butt;stroke-linejoin:miter;stroke-opacity:1" d="M 962.994,15.0018 977.664,27.8373 z" id="boundary" inkscape:connector-curvature="0" />
	<path style="fill:none;stroke:red;stroke-width:1px;stroke-linecap:butt;stroke-linejoin:miter;stroke-opacity:1" d="M 986.832,137.856 986.832,156.192 z" id="boundary" inkscape:connector-curvature="0" />
	<path style="fill:none;stroke:red;stroke-width:1px;stroke-linecap:butt;stroke-linejoin:miter;stroke-opacity:1" d="M 911.652,202.033 911.652,183.697 z" id="boundary" inkscape:connector-curvature="0" />
	<path style="fill:none;stroke:red;stroke-width:1px;stroke-linecap:butt;stroke-linejoin:miter;stroke-opacity:1" d="M 920.821,147.024 920.821,165.36 z" id="boundary" inkscape:connector-curvature="0" />
	<path style="fill:none;stroke:red;stroke-width:1px;stroke-linecap:butt;stroke-linejoin:miter;stroke-opacity:1" d="M 920.821,165.36 911.652,183.697 z" id="boundary" inkscape:connector-curvature="0" />
	<path style="fill:none;stroke:red;stroke-width:1px;stroke-linecap:butt;stroke-linejoin:miter;stroke-opacity:1" d="M 946.492,323.054 937.323,341.39 z" id="boundary" inkscape:connector-curvature="0" />
	<path style="fill:none;stroke:red;stroke-width:1px;stroke-linecap:butt;stroke-linejoin:miter;stroke-opacity:1" d="M 922.654,354.226 922.654,372.562 z" id="boundary" inkscape:connector-curvature="0" />
	<path style="fill:none;stroke:red;stroke-width:1px;stroke-linecap:butt;stroke-linejoin:miter;stroke-opacity:1" d="M 922.654,372.562 909.819,387.231 z" id="boundary" inkscape:connector-curvature="0" />
	<path style="fill:none;stroke:red;stroke-width:1px;stroke-linecap:butt;stroke-linejoin:miter;stroke-opacity:1" d="M 922.654,354.226 937.323,341.39 z" id="boundary" inkscape:connector-curvature="0" />
	<path style="fill:none;stroke:red;stroke-width:1px;stroke-linecap:butt;stroke-linejoin:miter;stroke-opacity:1" d="M 986.832,174.529 986.832,192.865 z" id="boundary" inkscape:connector-curvature="0" />
	<path style="fill:none;stroke:red;stroke-width:1px;stroke-linecap:butt;stroke-linejoin:miter;stroke-opacity:1" d="M 986.832,174.529 986.832,156.192 z" id="boundary" inkscape:connector-curvature="0" />
	<path style="fill:none;stroke:red;stroke-width:1px;stroke-linecap:butt;stroke-linejoin:miter;stroke-opacity:1" d="M 986.832,211.201 977.664,235.039 z" id="boundary" inkscape:connector-curvature="0" />
	<path style="fill:none;stroke:red;stroke-width:1px;stroke-linecap:butt;stroke-linejoin:miter;stroke-opacity:1" d="M 986.832,211.201 986.832,192.865 z" id="boundary" inkscape:connector-curvature="0" />
	<path style="fill:none;stroke:red;stroke-width:1px;stroke-linecap:butt;stroke-linejoin:miter;stroke-opacity:1" d="M 955.66,304.717 946.492,323.054 z" id="boundary" inkscape:connector-curvature="0" />
	<path style="fill:none;stroke:red;stroke-width:1px;stroke-linecap:butt;stroke-linejoin:miter;stroke-opacity:1" d="M 964.828,286.381 968.495,253.375 z" id="boundary" inkscape:connector-curvature="0" />
	<path style="fill:none;stroke:red;stroke-width:1px;stroke-linecap:butt;stroke-linejoin:miter;stroke-opacity:1" d="M 968.495,253.375 977.664,235.039 z" id="boundary" inkscape:connector-curvature="0" />
	<path style="fill:none;stroke:red;stroke-width:1px;stroke-linecap:butt;stroke-linejoin:miter;stroke-opacity:1" d="M 964.828,286.381 955.66,304.717 z" id="boundary" inkscape:connector-curvature="0" />
	<path style="fill:none;stroke:red;stroke-width:1px;stroke-linecap:butt;stroke-linejoin:miter;stroke-opacity:1" d="M 895.15,418.403 895.15,400.067 z" id="boundary" inkscape:connector-curvature="0" />
	<path style="fill:none;stroke:red;stroke-width:1px;stroke-linecap:butt;stroke-linejoin:miter;stroke-opacity:1" d="M 625.604,675.113 607.268,675.113 z" id="boundary" inkscape:connector-curvature="0" />
	<path style="fill:none;stroke:red;stroke-width:1px;stroke-linecap:butt;stroke-linejoin:miter;stroke-opacity:1" d="M 588.932,675.113 607.268,675.113 z" id="boundary" inkscape:connector-curvature="0" />
	<path style="fill:none;stroke:red;stroke-width:1px;stroke-linecap:butt;stroke-linejoin:miter;stroke-opacity:1" d="M 588.932,675.113 572.429,665.945 z" id="boundary" inkscape:connector-curvature="0" />
	<path style="fill:none;stroke:red;stroke-width:1px;stroke-linecap:butt;stroke-linejoin:miter;stroke-opacity:1" d="M 572.429,665.945 555.926,656.776 z" id="boundary" inkscape:connector-curvature="0" />
	<path style="fill:none;stroke:red;stroke-width:1px;stroke-linecap:butt;stroke-linejoin:miter;stroke-opacity:1" d="M 625.604,675.113 634.773,691.616 z" id="boundary" inkscape:connector-curvature="0" />
	<path style="fill:none;stroke:red;stroke-width:1px;stroke-linecap:butt;stroke-linejoin:miter;stroke-opacity:1" d="M 634.773,691.616 620.104,704.451 z" id="boundary" inkscape:connector-curvature="0" />
	<path style="fill:none;stroke:red;stroke-width:1px;stroke-linecap:butt;stroke-linejoin:miter;stroke-opacity:1" d="M 739.29,702.617 722.787,711.786 z" id="boundary" inkscape:connector-curvature="0" />
	<path style="fill:none;stroke:red;stroke-width:1px;stroke-linecap:butt;stroke-linejoin:miter;stroke-opacity:1" d="M 722.787,711.786 706.285,720.954 z" id="boundary" inkscape:connector-curvature="0" />
	<path style="fill:none;stroke:red;stroke-width:1px;stroke-linecap:butt;stroke-linejoin:miter;stroke-opacity:1" d="M 620.104,704.451 605.434,719.12 z" id="boundary" inkscape:connector-curvature="0" />
	<path style="fill:none;stroke:red;stroke-width:1px;stroke-linecap:butt;stroke-linejoin:miter;stroke-opacity:1" d="M 858.477,500.917 858.477,519.253 z" id="boundary" inkscape:connector-curvature="0" />
	<path style="fill:none;stroke:red;stroke-width:1px;stroke-linecap:butt;stroke-linejoin:miter;stroke-opacity:1" d="M 858.477,482.58 867.645,464.244 z" id="boundary" inkscape:connector-curvature="0" />
	<path style="fill:none;stroke:red;stroke-width:1px;stroke-linecap:butt;stroke-linejoin:miter;stroke-opacity:1" d="M 858.477,500.917 858.477,482.58 z" id="boundary" inkscape:connector-curvature="0" />
	<path style="fill:none;stroke:red;stroke-width:1px;stroke-linecap:butt;stroke-linejoin:miter;stroke-opacity:1" d="M 755.793,711.786 774.129,711.786 z" id="boundary" inkscape:connector-curvature="0" />
	<path style="fill:none;stroke:red;stroke-width:1px;stroke-linecap:butt;stroke-linejoin:miter;stroke-opacity:1" d="M 755.793,711.786 739.29,702.617 z" id="boundary" inkscape:connector-curvature="0" />
	<path style="fill:none;stroke:red;stroke-width:1px;stroke-linecap:butt;stroke-linejoin:miter;stroke-opacity:1" d="M 792.466,711.786 774.129,711.786 z" id="boundary" inkscape:connector-curvature="0" />
	<path style="fill:none;stroke:red;stroke-width:1px;stroke-linecap:butt;stroke-linejoin:miter;stroke-opacity:1" d="M 810.802,711.786 792.466,711.786 z" id="boundary" inkscape:connector-curvature="0" />
	<path style="fill:none;stroke:red;stroke-width:1px;stroke-linecap:butt;stroke-linejoin:miter;stroke-opacity:1" d="M 858.477,519.253 862.144,537.59 z" id="boundary" inkscape:connector-curvature="0" />
	<path style="fill:none;stroke:red;stroke-width:1px;stroke-linecap:butt;stroke-linejoin:miter;stroke-opacity:1" d="M 554.092,733.789 568.762,719.12 z" id="boundary" inkscape:connector-curvature="0" />
	<path style="fill:none;stroke:red;stroke-width:1px;stroke-linecap:butt;stroke-linejoin:miter;stroke-opacity:1" d="M 568.762,719.12 587.098,719.12 z" id="boundary" inkscape:connector-curvature="0" />
	<path style="fill:none;stroke:red;stroke-width:1px;stroke-linecap:butt;stroke-linejoin:miter;stroke-opacity:1" d="M 605.434,719.12 587.098,719.12 z" id="boundary" inkscape:connector-curvature="0" />
	<path style="fill:none;stroke:red;stroke-width:1px;stroke-linecap:butt;stroke-linejoin:miter;stroke-opacity:1" d="M 554.092,752.126 568.762,764.961 z" id="boundary" inkscape:connector-curvature="0" />
	<path style="fill:none;stroke:red;stroke-width:1px;stroke-linecap:butt;stroke-linejoin:miter;stroke-opacity:1" d="M 554.092,752.126 554.092,733.789 z" id="boundary" inkscape:connector-curvature="0" />
	<path style="fill:none;stroke:red;stroke-width:1px;stroke-linecap:butt;stroke-linejoin:miter;stroke-opacity:1" d="M 605.434,766.795 623.771,766.795 z" id="boundary" inkscape:connector-curvature="0" />
	<path style="fill:none;stroke:red;stroke-width:1px;stroke-linecap:butt;stroke-linejoin:miter;stroke-opacity:1" d="M 587.098,766.795 568.762,764.961 z" id="boundary" inkscape:connector-curvature="0" />
	<path style="fill:none;stroke:red;stroke-width:1px;stroke-linecap:butt;stroke-linejoin:miter;stroke-opacity:1" d="M 605.434,766.795 587.098,766.795 z" id="boundary" inkscape:connector-curvature="0" />
	<path style="fill:none;stroke:red;stroke-width:1px;stroke-linecap:butt;stroke-linejoin:miter;stroke-opacity:1" d="M 691.616,733.789 706.285,720.954 z" id="boundary" inkscape:connector-curvature="0" />
	<path style="fill:none;stroke:red;stroke-width:1px;stroke-linecap:butt;stroke-linejoin:miter;stroke-opacity:1" d="M 829.139,711.786 810.802,711.786 z" id="boundary" inkscape:connector-curvature="0" />
	<path style="fill:none;stroke:red;stroke-width:1px;stroke-linecap:butt;stroke-linejoin:miter;stroke-opacity:1" d="M 845.641,702.617 829.139,711.786 z" id="boundary" inkscape:connector-curvature="0" />
	<path style="fill:none;stroke:red;stroke-width:1px;stroke-linecap:butt;stroke-linejoin:miter;stroke-opacity:1" d="M 623.771,766.795 640.274,757.627 z" id="boundary" inkscape:connector-curvature="0" />
	<path style="fill:none;stroke:red;stroke-width:1px;stroke-linecap:butt;stroke-linejoin:miter;stroke-opacity:1" d="M 640.274,757.627 658.61,757.627 z" id="boundary" inkscape:connector-curvature="0" />
	<path style="fill:none;stroke:red;stroke-width:1px;stroke-linecap:butt;stroke-linejoin:miter;stroke-opacity:1" d="M 658.61,757.627 673.279,742.957 z" id="boundary" inkscape:connector-curvature="0" />
	<path style="fill:none;stroke:red;stroke-width:1px;stroke-linecap:butt;stroke-linejoin:miter;stroke-opacity:1" d="M 673.279,742.957 691.616,733.789 z" id="boundary" inkscape:connector-curvature="0" />
	<path style="fill:none;stroke:red;stroke-width:1px;stroke-linecap:butt;stroke-linejoin:miter;stroke-opacity:1" d="M 845.641,702.617 863.978,702.617 z" id="boundary" inkscape:connector-curvature="0" />
	<path style="fill:none;stroke:red;stroke-width:1px;stroke-linecap:butt;stroke-linejoin:miter;stroke-opacity:1" d="M 867.645,464.244 867.645,445.908 z" id="boundary" inkscape:connector-curvature="0" />
	<path style="fill:none;stroke:red;stroke-width:1px;stroke-linecap:butt;stroke-linejoin:miter;stroke-opacity:1" d="M 867.645,445.908 882.314,433.072 z" id="boundary" inkscape:connector-curvature="0" />
	<path style="fill:none;stroke:red;stroke-width:1px;stroke-linecap:butt;stroke-linejoin:miter;stroke-opacity:1" d="M 882.314,433.072 895.15,418.403 z" id="boundary" inkscape:connector-curvature="0" />
	<path style="fill:none;stroke:red;stroke-width:1px;stroke-linecap:butt;stroke-linejoin:miter;stroke-opacity:1" d="M 862.144,537.59 876.813,550.425 z" id="boundary" inkscape:connector-curvature="0" />
	<path style="fill:none;stroke:red;stroke-width:1px;stroke-linecap:butt;stroke-linejoin:miter;stroke-opacity:1" d="M 876.813,550.425 884.148,568.762 z" id="boundary" inkscape:connector-curvature="0" />
	<path style="fill:none;stroke:red;stroke-width:1px;stroke-linecap:butt;stroke-linejoin:miter;stroke-opacity:1" d="M 898.817,581.597 884.148,568.762 z" id="boundary" inkscape:connector-curvature="0" />
	<path style="fill:none;stroke:red;stroke-width:1px;stroke-linecap:butt;stroke-linejoin:miter;stroke-opacity:1" d="M 915.32,590.765 898.817,581.597 z" id="boundary" inkscape:connector-curvature="0" />
	<path style="fill:none;stroke:red;stroke-width:1px;stroke-linecap:butt;stroke-linejoin:miter;stroke-opacity:1" d="M 915.32,590.765 931.823,599.933 z" id="boundary" inkscape:connector-curvature="0" />
	<path style="fill:none;stroke:red;stroke-width:1px;stroke-linecap:butt;stroke-linejoin:miter;stroke-opacity:1" d="M 931.823,599.933 948.325,609.102 z" id="boundary" inkscape:connector-curvature="0" />
	<path style="fill:none;stroke:red;stroke-width:1px;stroke-linecap:butt;stroke-linejoin:miter;stroke-opacity:1" d="M 948.325,609.102 962.994,620.104 z" id="boundary" inkscape:connector-curvature="0" />
	<path style="fill:none;stroke:red;stroke-width:1px;stroke-linecap:butt;stroke-linejoin:miter;stroke-opacity:1" d="M 977.664,632.939 962.994,620.104 z" id="boundary" inkscape:connector-curvature="0" />
	<path style="fill:none;stroke:red;stroke-width:1px;stroke-linecap:butt;stroke-linejoin:miter;stroke-opacity:1" d="M 984.998,651.275 986.832,669.612 z" id="boundary" inkscape:connector-curvature="0" />
	<path style="fill:none;stroke:red;stroke-width:1px;stroke-linecap:butt;stroke-linejoin:miter;stroke-opacity:1" d="M 986.832,687.948 986.832,669.612 z" id="boundary" inkscape:connector-curvature="0" />
	<path style="fill:none;stroke:red;stroke-width:1px;stroke-linecap:butt;stroke-linejoin:miter;stroke-opacity:1" d="M 994.166,706.285 986.832,687.948 z" id="boundary" inkscape:connector-curvature="0" />
	<path style="fill:none;stroke:red;stroke-width:1px;stroke-linecap:butt;stroke-linejoin:miter;stroke-opacity:1" d="M 977.664,632.939 984.998,651.275 z" id="boundary" inkscape:connector-curvature="0" />
	<path style="fill:none;stroke:red;stroke-width:1px;stroke-linecap:butt;stroke-linejoin:miter;stroke-opacity:1" d="M 863.978,702.617 880.481,693.449 z" id="boundary" inkscape:connector-curvature="0" />
	<path style="fill:none;stroke:red;stroke-width:1px;stroke-linecap:butt;stroke-linejoin:miter;stroke-opacity:1" d="M 880.481,693.449 898.817,693.449 z" id="boundary" inkscape:connector-curvature="0" />
	<path style="fill:none;stroke:red;stroke-width:1px;stroke-linecap:butt;stroke-linejoin:miter;stroke-opacity:1" d="M 917.153,700.784 898.817,693.449 z" id="boundary" inkscape:connector-curvature="0" />
	<path style="fill:none;stroke:red;stroke-width:1px;stroke-linecap:butt;stroke-linejoin:miter;stroke-opacity:1" d="M 929.989,733.789 917.153,755.793 z" id="boundary" inkscape:connector-curvature="0" />
	<path style="fill:none;stroke:red;stroke-width:1px;stroke-linecap:butt;stroke-linejoin:miter;stroke-opacity:1" d="M 902.484,770.462 913.486,785.131 z" id="boundary" inkscape:connector-curvature="0" />
	<path style="fill:none;stroke:red;stroke-width:1px;stroke-linecap:butt;stroke-linejoin:miter;stroke-opacity:1" d="M 902.484,770.462 917.153,755.793 z" id="boundary" inkscape:connector-curvature="0" />
	<path style="fill:none;stroke:red;stroke-width:1px;stroke-linecap:butt;stroke-linejoin:miter;stroke-opacity:1" d="M 929.989,794.299 913.486,785.131 z" id="boundary" inkscape:connector-curvature="0" />
	<path style="fill:none;stroke:red;stroke-width:1px;stroke-linecap:butt;stroke-linejoin:miter;stroke-opacity:1" d="M 929.989,715.453 929.989,733.789 z" id="boundary" inkscape:connector-curvature="0" />
	<path style="fill:none;stroke:red;stroke-width:1px;stroke-linecap:butt;stroke-linejoin:miter;stroke-opacity:1" d="M 917.153,700.784 929.989,715.453 z" id="boundary" inkscape:connector-curvature="0" />
	<path style="fill:none;stroke:red;stroke-width:1px;stroke-linecap:butt;stroke-linejoin:miter;stroke-opacity:1" d="M 994.166,706.285 996,724.621 z" id="boundary" inkscape:connector-curvature="0" />
	<path style="fill:none;stroke:red;stroke-width:1px;stroke-linecap:butt;stroke-linejoin:miter;stroke-opacity:1" d="M 996,724.621 996,742.957 z" id="boundary" inkscape:connector-curvature="0" />
	<path style="fill:none;stroke:red;stroke-width:1px;stroke-linecap:butt;stroke-linejoin:miter;stroke-opacity:1" d="M 996,742.957 996,761.294 z" id="boundary" inkscape:connector-curvature="0" />
	<path style="fill:none;stroke:red;stroke-width:1px;stroke-linecap:butt;stroke-linejoin:miter;stroke-opacity:1" d="M 929.989,794.299 948.325,794.299 z" id="boundary" inkscape:connector-curvature="0" />
	<path style="fill:none;stroke:red;stroke-width:1px;stroke-linecap:butt;stroke-linejoin:miter;stroke-opacity:1" d="M 996,761.294 984.998,788.799 z" id="boundary" inkscape:connector-curvature="0" />
	<path style="fill:none;stroke:red;stroke-width:1px;stroke-linecap:butt;stroke-linejoin:miter;stroke-opacity:1" d="M 984.998,788.799 966.662,794.299 z" id="boundary" inkscape:connector-curvature="0" />
	<path style="fill:none;stroke:red;stroke-width:1px;stroke-linecap:butt;stroke-linejoin:miter;stroke-opacity:1" d="M 966.662,794.299 948.325,794.299 z" id="boundary" inkscape:connector-curvature="0" />
	<circle cx="4" cy="202.033" r="4" fill="#0" id="circle0"/>
	<circle cx="4" cy="220.37" r="4" fill="#0" id="circle1"/>
	<circle cx="4" cy="238.706" r="4" fill="#0" id="circle2"/>
	<circle cx="4" cy="257.043" r="4" fill="#0" id="circle3"/>
	<circle cx="4" cy="275.379" r="4" fill="#0" id="circle4"/>
	<circle cx="13.1682" cy="92.0148" r="4" fill="#0" id="circle5"/>
	<circle cx="13.1682" cy="183.697" r="4" fill="#0" id="circle6"/>
	<circle cx="13.1682" cy="291.882" r="4" fill="#0" id="circle7"/>
	<circle cx="22.3364" cy="108.518" r="4" fill="#0" id="circle8"/>
	<circle cx="26.0037" cy="306.551" r="4" fill="#0" id="circle9"/>
	<circle cx="27.8373" cy="77.3457" r="4" fill="#0" id="circle10"/>
	<circle cx="27.8373" cy="169.028" r="4" fill="#0" id="circle11"/>
	<circle cx="31.5046" cy="125.02" r="4" fill="#0" id="circle12"/>
	<circle cx="31.5046" cy="143.357" r="4" fill="#0" id="circle13"/>
	<circle cx="40.6728" cy="317.553" r="4" fill="#0" id="circle14"/>
	<circle cx="44.3401" cy="86.5139" r="4" fill="#0" id="circle15"/>
	<circle cx="59.0092" cy="317.553" r="4" fill="#0" id="circle16"/>
	<circle cx="60.8429" cy="95.6821" r="4" fill="#0" id="circle17"/>
	<circle cx="77.3457" cy="104.85" r="4" fill="#0" id="circle18"/>
	<circle cx="77.3457" cy="317.553" r="4" fill="#0" id="circle19"/>
	<circle cx="93.8484" cy="114.018" r="4" fill="#0" id="circle20"/>
	<circle cx="95.6821" cy="317.553" r="4" fill="#0" id="circle21"/>
	<circle cx="95.6821" cy="335.889" r="4" fill="#0" id="circle22"/>
	<circle cx="95.6821" cy="354.226" r="4" fill="#0" id="circle23"/>
	<circle cx="101.183" cy="372.562" r="4" fill="#0" id="circle24"/>
	<circle cx="104.85" cy="390.898" r="4" fill="#0" id="circle25"/>
	<circle cx="104.85" cy="409.235" r="4" fill="#0" id="circle26"/>
	<circle cx="104.85" cy="427.571" r="4" fill="#0" id="circle27"/>
	<circle cx="112.185" cy="114.018" r="4" fill="#0" id="circle28"/>
	<circle cx="114.018" cy="444.074" r="4" fill="#0" id="circle29"/>
	<circle cx="114.018" cy="779.63" r="4" fill="#0" id="circle30"/>
	<circle cx="114.018" cy="797.967" r="4" fill="#0" id="circle31"/>
	<circle cx="117.686" cy="462.41" r="4" fill="#0" id="circle32"/>
	<circle cx="126.854" cy="478.913" r="4" fill="#0" id="circle33"/>
	<circle cx="128.688" cy="104.85" r="4" fill="#0" id="circle34"/>
	<circle cx="128.688" cy="764.961" r="4" fill="#0" id="circle35"/>
	<circle cx="132.355" cy="497.25" r="4" fill="#0" id="circle36"/>
	<circle cx="132.355" cy="803.468" r="4" fill="#0" id="circle37"/>
	<circle cx="137.856" cy="86.5139" r="4" fill="#0" id="circle38"/>
	<circle cx="141.523" cy="513.752" r="4" fill="#0" id="circle39"/>
	<circle cx="147.024" cy="764.961" r="4" fill="#0" id="circle40"/>
	<circle cx="148.858" cy="812.636" r="4" fill="#0" id="circle41"/>
	<circle cx="152.525" cy="71.8447" r="4" fill="#0" id="circle42"/>
	<circle cx="156.192" cy="526.588" r="4" fill="#0" id="circle43"/>
	<circle cx="163.527" cy="755.793" r="4" fill="#0" id="circle44"/>
	<circle cx="167.194" cy="812.636" r="4" fill="#0" id="circle45"/>
	<circle cx="169.028" cy="541.257" r="4" fill="#0" id="circle46"/>
	<circle cx="169.028" cy="559.593" r="4" fill="#0" id="circle47"/>
	<circle cx="169.028" cy="577.93" r="4" fill="#0" id="circle48"/>
	<circle cx="169.028" cy="596.266" r="4" fill="#0" id="circle49"/>
	<circle cx="169.028" cy="614.603" r="4" fill="#0" id="circle50"/>
	<circle cx="169.028" cy="632.939" r="4" fill="#0" id="circle51"/>
	<circle cx="169.028" cy="651.275" r="4" fill="#0" id="circle52"/>
	<circle cx="169.028" cy="669.612" r="4" fill="#0" id="circle53"/>
	<circle cx="169.028" cy="687.948" r="4" fill="#0" id="circle54"/>
	<circle cx="169.028" cy="706.285" r="4" fill="#0" id="circle55"/>
	<circle cx="169.028" cy="724.621" r="4" fill="#0" id="circle56"/>
	<circle cx="170.861" cy="68.1774" r="4" fill="#0" id="circle57"/>
	<circle cx="185.53" cy="79.1793" r="4" fill="#0" id="circle58"/>
	<circle cx="185.53" cy="808.969" r="4" fill="#0" id="circle59"/>
	<circle cx="198.366" cy="93.8484" r="4" fill="#0" id="circle60"/>
	<circle cx="198.366" cy="794.299" r="4" fill="#0" id="circle61"/>
	<circle cx="207.534" cy="110.351" r="4" fill="#0" id="circle62"/>
	<circle cx="207.534" cy="775.963" r="4" fill="#0" id="circle63"/>
	<circle cx="214.869" cy="128.688" r="4" fill="#0" id="circle64"/>
	<circle cx="222.203" cy="763.128" r="4" fill="#0" id="circle65"/>
	<circle cx="225.871" cy="739.29" r="4" fill="#0" id="circle66"/>
	<circle cx="229.538" cy="141.523" r="4" fill="#0" id="circle67"/>
	<circle cx="235.039" cy="159.86" r="4" fill="#0" id="circle68"/>
	<circle cx="235.039" cy="720.954" r="4" fill="#0" id="circle69"/>
	<circle cx="244.207" cy="176.362" r="4" fill="#0" id="circle70"/>
	<circle cx="244.207" cy="693.449" r="4" fill="#0" id="circle71"/>
	<circle cx="253.375" cy="192.865" r="4" fill="#0" id="circle72"/>
	<circle cx="253.375" cy="675.113" r="4" fill="#0" id="circle73"/>
	<circle cx="260.71" cy="807.135" r="4" fill="#0" id="circle74"/>
	<circle cx="260.71" cy="825.471" r="4" fill="#0" id="circle75"/>
	<circle cx="262.543" cy="638.44" r="4" fill="#0" id="circle76"/>
	<circle cx="262.543" cy="656.776" r="4" fill="#0" id="circle77"/>
	<circle cx="266.211" cy="207.534" r="4" fill="#0" id="circle78"/>
	<circle cx="269.878" cy="788.799" r="4" fill="#0" id="circle79"/>
	<circle cx="271.712" cy="620.104" r="4" fill="#0" id="circle80"/>
	<circle cx="279.046" cy="830.972" r="4" fill="#0" id="circle81"/>
	<circle cx="280.88" cy="220.37" r="4" fill="#0" id="circle82"/>
	<circle cx="284.547" cy="774.129" r="4" fill="#0" id="circle83"/>
	<circle cx="288.214" cy="610.935" r="4" fill="#0" id="circle84"/>
	<circle cx="293.715" cy="235.039" r="4" fill="#0" id="circle85"/>
	<circle cx="297.383" cy="627.438" r="4" fill="#0" id="circle86"/>
	<circle cx="297.383" cy="645.774" r="4" fill="#0" id="circle87"/>
	<circle cx="297.383" cy="664.111" r="4" fill="#0" id="circle88"/>
	<circle cx="297.383" cy="682.447" r="4" fill="#0" id="circle89"/>
	<circle cx="297.383" cy="700.784" r="4" fill="#0" id="circle90"/>
	<circle cx="297.383" cy="719.12" r="4" fill="#0" id="circle91"/>
	<circle cx="297.383" cy="737.457" r="4" fill="#0" id="circle92"/>
	<circle cx="297.383" cy="755.793" r="4" fill="#0" id="circle93"/>
	<circle cx="297.383" cy="830.972" r="4" fill="#0" id="circle94"/>
	<circle cx="312.052" cy="242.373" r="4" fill="#0" id="circle95"/>
	<circle cx="315.719" cy="830.972" r="4" fill="#0" id="circle96"/>
	<circle cx="328.555" cy="251.542" r="4" fill="#0" id="circle97"/>
	<circle cx="334.055" cy="830.972" r="4" fill="#0" id="circle98"/>
	<circle cx="343.224" cy="264.377" r="4" fill="#0" id="circle99"/>
	<circle cx="345.057" cy="812.636" r="4" fill="#0" id="circle100"/>
	<circle cx="354.226" cy="279.046" r="4" fill="#0" id="circle101"/>
	<circle cx="359.726" cy="799.8" r="4" fill="#0" id="circle102"/>
	<circle cx="363.394" cy="775.963" r="4" fill="#0" id="circle103"/>
	<circle cx="368.895" cy="290.048" r="4" fill="#0" id="circle104"/>
	<circle cx="372.562" cy="757.627" r="4" fill="#0" id="circle105"/>
	<circle cx="381.73" cy="720.954" r="4" fill="#0" id="circle106"/>
	<circle cx="381.73" cy="739.29" r="4" fill="#0" id="circle107"/>
	<circle cx="385.397" cy="299.216" r="4" fill="#0" id="circle108"/>
	<circle cx="390.898" cy="684.281" r="4" fill="#0" id="circle109"/>
	<circle cx="390.898" cy="702.617" r="4" fill="#0" id="circle110"/>
	<circle cx="400.067" cy="647.608" r="4" fill="#0" id="circle111"/>
	<circle cx="400.067" cy="665.945" r="4" fill="#0" id="circle112"/>
	<circle cx="403.734" cy="306.551" r="4" fill="#0" id="circle113"/>
	<circle cx="416.569" cy="638.44" r="4" fill="#0" id="circle114"/>
	<circle cx="422.07" cy="306.551" r="4" fill="#0" id="circle115"/>
	<circle cx="434.906" cy="638.44" r="4" fill="#0" id="circle116"/>
	<circle cx="438.573" cy="315.719" r="4" fill="#0" id="circle117"/>
	<circle cx="451.409" cy="647.608" r="4" fill="#0" id="circle118"/>
	<circle cx="456.909" cy="315.719" r="4" fill="#0" id="circle119"/>
	<circle cx="469.745" cy="647.608" r="4" fill="#0" id="circle120"/>
	<circle cx="473.412" cy="324.887" r="4" fill="#0" id="circle121"/>
	<circle cx="488.081" cy="647.608" r="4" fill="#0" id="circle122"/>
	<circle cx="491.749" cy="324.887" r="4" fill="#0" id="circle123"/>
	<circle cx="504.584" cy="656.776" r="4" fill="#0" id="circle124"/>
	<circle cx="510.085" cy="324.887" r="4" fill="#0" id="circle125"/>
	<circle cx="522.921" cy="656.776" r="4" fill="#0" id="circle126"/>
	<circle cx="528.421" cy="330.388" r="4" fill="#0" id="circle127"/>
	<circle cx="539.423" cy="665.945" r="4" fill="#0" id="circle128"/>
	<circle cx="546.758" cy="334.055" r="4" fill="#0" id="circle129"/>
	<circle cx="554.092" cy="733.789" r="4" fill="#0" id="circle130"/>
	<circle cx="554.092" cy="752.126" r="4" fill="#0" id="circle131"/>
	<circle cx="555.926" cy="656.776" r="4" fill="#0" id="circle132"/>
	<circle cx="565.094" cy="334.055" r="4" fill="#0" id="circle133"/>
	<circle cx="568.762" cy="719.12" r="4" fill="#0" id="circle134"/>
	<circle cx="568.762" cy="764.961" r="4" fill="#0" id="circle135"/>
	<circle cx="572.429" cy="665.945" r="4" fill="#0" id="circle136"/>
	<circle cx="581.597" cy="343.224" r="4" fill="#0" id="circle137"/>
	<circle cx="587.098" cy="719.12" r="4" fill="#0" id="circle138"/>
	<circle cx="587.098" cy="766.795" r="4" fill="#0" id="circle139"/>
	<circle cx="588.932" cy="675.113" r="4" fill="#0" id="circle140"/>
	<circle cx="599.933" cy="343.224" r="4" fill="#0" id="circle141"/>
	<circle cx="605.434" cy="719.12" r="4" fill="#0" id="circle142"/>
	<circle cx="605.434" cy="766.795" r="4" fill="#0" id="circle143"/>
	<circle cx="607.268" cy="675.113" r="4" fill="#0" id="circle144"/>
	<circle cx="618.27" cy="343.224" r="4" fill="#0" id="circle145"/>
	<circle cx="620.104" cy="704.451" r="4" fill="#0" id="circle146"/>
	<circle cx="623.771" cy="766.795" r="4" fill="#0" id="circle147"/>
	<circle cx="625.604" cy="675.113" r="4" fill="#0" id="circle148"/>
	<circle cx="634.773" cy="352.392" r="4" fill="#0" id="circle149"/>
	<circle cx="634.773" cy="691.616" r="4" fill="#0" id="circle150"/>
	<circle cx="640.274" cy="757.627" r="4" fill="#0" id="circle151"/>
	<circle cx="653.109" cy="352.392" r="4" fill="#0" id="circle152"/>
	<circle cx="658.61" cy="757.627" r="4" fill="#0" id="circle153"/>
	<circle cx="671.445" cy="354.226" r="4" fill="#0" id="circle154"/>
	<circle cx="673.279" cy="742.957" r="4" fill="#0" id="circle155"/>
	<circle cx="689.782" cy="361.56" r="4" fill="#0" id="circle156"/>
	<circle cx="691.616" cy="733.789" r="4" fill="#0" id="circle157"/>
	<circle cx="706.285" cy="720.954" r="4" fill="#0" id="circle158"/>
	<circle cx="708.118" cy="361.56" r="4" fill="#0" id="circle159"/>
	<circle cx="722.787" cy="711.786" r="4" fill="#0" id="circle160"/>
	<circle cx="726.455" cy="361.56" r="4" fill="#0" id="circle161"/>
	<circle cx="739.29" cy="702.617" r="4" fill="#0" id="circle162"/>
	<circle cx="744.791" cy="361.56" r="4" fill="#0" id="circle163"/>
	<circle cx="755.793" cy="711.786" r="4" fill="#0" id="circle164"/>
	<circle cx="761.294" cy="370.728" r="4" fill="#0" id="circle165"/>
	<circle cx="774.129" cy="711.786" r="4" fill="#0" id="circle166"/>
	<circle cx="779.63" cy="370.728" r="4" fill="#0" id="circle167"/>
	<circle cx="792.466" cy="711.786" r="4" fill="#0" id="circle168"/>
	<circle cx="797.967" cy="361.56" r="4" fill="#0" id="circle169"/>
	<circle cx="810.802" cy="711.786" r="4" fill="#0" id="circle170"/>
	<circle cx="816.303" cy="352.392" r="4" fill="#0" id="circle171"/>
	<circle cx="829.139" cy="711.786" r="4" fill="#0" id="circle172"/>
	<circle cx="832.806" cy="343.224" r="4" fill="#0" id="circle173"/>
	<circle cx="845.641" cy="702.617" r="4" fill="#0" id="circle174"/>
	<circle cx="847.475" cy="37.0055" r="4" fill="#0" id="circle175"/>
	<circle cx="847.475" cy="55.342" r="4" fill="#0" id="circle176"/>
	<circle cx="847.475" cy="330.388" r="4" fill="#0" id="circle177"/>
	<circle cx="856.643" cy="18.6691" r="4" fill="#0" id="circle178"/>
	<circle cx="856.643" cy="312.052" r="4" fill="#0" id="circle179"/>
	<circle cx="858.477" cy="70.0111" r="4" fill="#0" id="circle180"/>
	<circle cx="858.477" cy="482.58" r="4" fill="#0" id="circle181"/>
	<circle cx="858.477" cy="500.917" r="4" fill="#0" id="circle182"/>
	<circle cx="858.477" cy="519.253" r="4" fill="#0" id="circle183"/>
	<circle cx="862.144" cy="537.59" r="4" fill="#0" id="circle184"/>
	<circle cx="863.978" cy="702.617" r="4" fill="#0" id="circle185"/>
	<circle cx="865.811" cy="293.715" r="4" fill="#0" id="circle186"/>
	<circle cx="867.645" cy="445.908" r="4" fill="#0" id="circle187"/>
	<circle cx="867.645" cy="464.244" r="4" fill="#0" id="circle188"/>
	<circle cx="874.98" cy="9.50092" r="4" fill="#0" id="circle189"/>
	<circle cx="876.813" cy="70.0111" r="4" fill="#0" id="circle190"/>
	<circle cx="876.813" cy="550.425" r="4" fill="#0" id="circle191"/>
	<circle cx="880.481" cy="279.046" r="4" fill="#0" id="circle192"/>
	<circle cx="880.481" cy="693.449" r="4" fill="#0" id="circle193"/>
	<circle cx="882.314" cy="433.072" r="4" fill="#0" id="circle194"/>
	<circle cx="884.148" cy="257.043" r="4" fill="#0" id="circle195"/>
	<circle cx="884.148" cy="568.762" r="4" fill="#0" id="circle196"/>
	<circle cx="893.316" cy="4" r="4" fill="#0" id="circle197"/>
	<circle cx="893.316" cy="60.8429" r="4" fill="#0" id="circle198"/>
	<circle cx="893.316" cy="238.706" r="4" fill="#0" id="circle199"/>
	<circle cx="895.15" cy="400.067" r="4" fill="#0" id="circle200"/>
	<circle cx="895.15" cy="418.403" r="4" fill="#0" id="circle201"/>
	<circle cx="898.817" cy="581.597" r="4" fill="#0" id="circle202"/>
	<circle cx="898.817" cy="693.449" r="4" fill="#0" id="circle203"/>
	<circle cx="902.484" cy="770.462" r="4" fill="#0" id="circle204"/>
	<circle cx="907.985" cy="224.037" r="4" fill="#0" id="circle205"/>
	<circle cx="909.819" cy="387.231" r="4" fill="#0" id="circle206"/>
	<circle cx="911.652" cy="4" r="4" fill="#0" id="circle207"/>
	<circle cx="911.652" cy="60.8429" r="4" fill="#0" id="circle208"/>
	<circle cx="911.652" cy="183.697" r="4" fill="#0" id="circle209"/>
	<circle cx="911.652" cy="202.033" r="4" fill="#0" id="circle210"/>
	<circle cx="913.486" cy="785.131" r="4" fill="#0" id="circle211"/>
	<circle cx="915.32" cy="590.765" r="4" fill="#0" id="circle212"/>
	<circle cx="917.153" cy="700.784" r="4" fill="#0" id="circle213"/>
	<circle cx="917.153" cy="755.793" r="4" fill="#0" id="circle214"/>
	<circle cx="920.821" cy="147.024" r="4" fill="#0" id="circle215"/>
	<circle cx="920.821" cy="165.36" r="4" fill="#0" id="circle216"/>
	<circle cx="922.654" cy="354.226" r="4" fill="#0" id="circle217"/>
	<circle cx="922.654" cy="372.562" r="4" fill="#0" id="circle218"/>
	<circle cx="928.155" cy="70.0111" r="4" fill="#0" id="circle219"/>
	<circle cx="929.989" cy="4" r="4" fill="#0" id="circle220"/>
	<circle cx="929.989" cy="88.3475" r="4" fill="#0" id="circle221"/>
	<circle cx="929.989" cy="106.684" r="4" fill="#0" id="circle222"/>
	<circle cx="929.989" cy="125.02" r="4" fill="#0" id="circle223"/>
	<circle cx="929.989" cy="715.453" r="4" fill="#0" id="circle224"/>
	<circle cx="929.989" cy="733.789" r="4" fill="#0" id="circle225"/>
	<circle cx="929.989" cy="794.299" r="4" fill="#0" id="circle226"/>
	<circle cx="931.823" cy="599.933" r="4" fill="#0" id="circle227"/>
	<circle cx="937.323" cy="341.39" r="4" fill="#0" id="circle228"/>
	<circle cx="946.492" cy="323.054" r="4" fill="#0" id="circle229"/>
	<circle cx="948.325" cy="4" r="4" fill="#0" id="circle230"/>
	<circle cx="948.325" cy="609.102" r="4" fill="#0" id="circle231"/>
	<circle cx="948.325" cy="794.299" r="4" fill="#0" id="circle232"/>
	<circle cx="955.66" cy="304.717" r="4" fill="#0" id="circle233"/>
	<circle cx="962.994" cy="15.0018" r="4" fill="#0" id="circle234"/>
	<circle cx="962.994" cy="620.104" r="4" fill="#0" id="circle235"/>
	<circle cx="964.828" cy="286.381" r="4" fill="#0" id="circle236"/>
	<circle cx="966.662" cy="794.299" r="4" fill="#0" id="circle237"/>
	<circle cx="968.495" cy="253.375" r="4" fill="#0" id="circle238"/>
	<circle cx="977.664" cy="27.8373" r="4" fill="#0" id="circle239"/>
	<circle cx="977.664" cy="235.039" r="4" fill="#0" id="circle240"/>
	<circle cx="977.664" cy="632.939" r="4" fill="#0" id="circle241"/>
	<circle cx="984.998" cy="46.1738" r="4" fill="#0" id="circle242"/>
	<circle cx="984.998" cy="651.275" r="4" fill="#0" id="circle243"/>
	<circle cx="984.998" cy="788.799" r="4" fill="#0" id="circle244"/>
	<circle cx="986.832" cy="64.5102" r="4" fill="#0" id="circle245"/>
	<circle cx="986.832" cy="82.8466" r="4" fill="#0" id="circle246"/>
	<circle cx="986.832" cy="101.183" r="4" fill="#0" id="circle247"/>
	<circle cx="986.832" cy="119.519" r="4" fill="#0" id="circle248"/>
	<circle cx="986.832" cy="137.856" r="4" fill="#0" id="circle249"/>
	<circle cx="986.832" cy="156.192" r="4" fill="#0" id="circle250"/>
	<circle cx="986.832" cy="174.529" r="4" fill="#0" id="circle251"/>
	<circle cx="986.832" cy="192.865" r="4" fill="#0" id="circle252"/>
	<circle cx="986.832" cy="211.201" r="4" fill="#0" id="circle253"/>
	<circle cx="986.832" cy="669.612" r="4" fill="#0" id="circle254"/>
	<circle cx="986.832" cy="687.948" r="4" fill="#0" id="circle255"/>
	<circle cx="994.166" cy="706.285" r="4" fill="#0" id="circle256"/>
	<circle cx="996" cy="724.621" r="4" fill="#0" id="circle257"/>
	<circle cx="996" cy="742.957" r="4" fill="#0" id="circle258"/>
	<circle cx="996" cy="761.294" r="4" fill="#0" id="circle259"/>
	</g>
</svg>