<?xml version="1.0" encoding="UTF-8" standalone="no"?>
<!-- Created with CurveBenchmark -->
<svg
	xmlns:dc="http://purl.org/dc/elements/1.1/"
	xmlns:cc="http://creativecommons.org/ns#"
	xmlns:rdf="http://www.w3.org/1999/02/22-rdf-syntax-ns#"
	xmlns:svg="http://www.w3.org/2000/svg"
	xmlns="http://www.w3.org/2000/svg"
	xmlns:sodipodi="http://sodipodi.sourceforge.net/DTD/sodipodi-0.dtd"
	xmlns:inkscape="http://www.inkscape.org/namespaces/inkscape"
	width="1000"
	height="1000"
	id="svg2"
	version="1.1"
	sodipodi:docname="manifold/gathang-Misk15.png.txt">
<defs
	id="defs4" />
<metadata
	id="metadata7">
	<rdf:RDF>
		<cc:Work
			rdf:about="">
			<dc:format>image/svg+xml</dc:format>
			<dc:type
				rdf:resource="http://purl.org/dc/dcmitype/StillImage" />
			<dc:title></dc:title>
		</cc:Work>
	</rdf:RDF>
</metadata>
<g
	inkscape:label="Layer 1"
	inkscape:groupmode="layer"
	id="layer1">
	<path style="fill:none;stroke:red;stroke-width:1px;stroke-linecap:butt;stroke-linejoin:miter;stroke-opacity:1" d="M 41.6502,208.62 54.7459,195.525 z" id="boundary" inkscape:connector-curvature="0" />
	<path style="fill:none;stroke:red;stroke-width:1px;stroke-linecap:butt;stroke-linejoin:miter;stroke-opacity:1" d="M 4,295.38 4,279.01 z" id="boundary" inkscape:connector-curvature="0" />
	<path style="fill:none;stroke:red;stroke-width:1px;stroke-linecap:butt;stroke-linejoin:miter;stroke-opacity:1" d="M 4,279.01 12.1848,254.455 z" id="boundary" inkscape:connector-curvature="0" />
	<path style="fill:none;stroke:red;stroke-width:1px;stroke-linecap:butt;stroke-linejoin:miter;stroke-opacity:1" d="M 28.5545,221.716 41.6502,208.62 z" id="boundary" inkscape:connector-curvature="0" />
	<path style="fill:none;stroke:red;stroke-width:1px;stroke-linecap:butt;stroke-linejoin:miter;stroke-opacity:1" d="M 20.3696,238.086 28.5545,221.716 z" id="boundary" inkscape:connector-curvature="0" />
	<path style="fill:none;stroke:red;stroke-width:1px;stroke-linecap:butt;stroke-linejoin:miter;stroke-opacity:1" d="M 12.1848,254.455 20.3696,238.086 z" id="boundary" inkscape:connector-curvature="0" />
	<path style="fill:none;stroke:red;stroke-width:1px;stroke-linecap:butt;stroke-linejoin:miter;stroke-opacity:1" d="M 54.7459,195.525 67.8416,184.066 z" id="boundary" inkscape:connector-curvature="0" />
	<path style="fill:none;stroke:red;stroke-width:1px;stroke-linecap:butt;stroke-linejoin:miter;stroke-opacity:1" d="M 67.8416,184.066 82.5743,175.881 z" id="boundary" inkscape:connector-curvature="0" />
	<path style="fill:none;stroke:red;stroke-width:1px;stroke-linecap:butt;stroke-linejoin:miter;stroke-opacity:1" d="M 128.409,146.416 144.779,143.142 z" id="boundary" inkscape:connector-curvature="0" />
	<path style="fill:none;stroke:red;stroke-width:1px;stroke-linecap:butt;stroke-linejoin:miter;stroke-opacity:1" d="M 161.149,143.142 144.779,143.142 z" id="boundary" inkscape:connector-curvature="0" />
	<path style="fill:none;stroke:red;stroke-width:1px;stroke-linecap:butt;stroke-linejoin:miter;stroke-opacity:1" d="M 161.149,143.142 175.881,151.327 z" id="boundary" inkscape:connector-curvature="0" />
	<path style="fill:none;stroke:red;stroke-width:1px;stroke-linecap:butt;stroke-linejoin:miter;stroke-opacity:1" d="M 82.5743,175.881 95.67,162.785 z" id="boundary" inkscape:connector-curvature="0" />
	<path style="fill:none;stroke:red;stroke-width:1px;stroke-linecap:butt;stroke-linejoin:miter;stroke-opacity:1" d="M 95.67,162.785 112.04,154.601 z" id="boundary" inkscape:connector-curvature="0" />
	<path style="fill:none;stroke:red;stroke-width:1px;stroke-linecap:butt;stroke-linejoin:miter;stroke-opacity:1" d="M 112.04,154.601 128.409,146.416 z" id="boundary" inkscape:connector-curvature="0" />
	<path style="fill:none;stroke:red;stroke-width:1px;stroke-linecap:butt;stroke-linejoin:miter;stroke-opacity:1" d="M 192.251,151.327 175.881,151.327 z" id="boundary" inkscape:connector-curvature="0" />
	<path style="fill:none;stroke:red;stroke-width:1px;stroke-linecap:butt;stroke-linejoin:miter;stroke-opacity:1" d="M 162.785,431.248 146.416,431.248 z" id="boundary" inkscape:connector-curvature="0" />
	<path style="fill:none;stroke:red;stroke-width:1px;stroke-linecap:butt;stroke-linejoin:miter;stroke-opacity:1" d="M 4,328.119 4,311.749 z" id="boundary" inkscape:connector-curvature="0" />
	<path style="fill:none;stroke:red;stroke-width:1px;stroke-linecap:butt;stroke-linejoin:miter;stroke-opacity:1" d="M 4,344.488 12.1848,359.221 z" id="boundary" inkscape:connector-curvature="0" />
	<path style="fill:none;stroke:red;stroke-width:1px;stroke-linecap:butt;stroke-linejoin:miter;stroke-opacity:1" d="M 4,344.488 4,328.119 z" id="boundary" inkscape:connector-curvature="0" />
	<path style="fill:none;stroke:red;stroke-width:1px;stroke-linecap:butt;stroke-linejoin:miter;stroke-opacity:1" d="M 20.3696,373.954 28.5545,388.686 z" id="boundary" inkscape:connector-curvature="0" />
	<path style="fill:none;stroke:red;stroke-width:1px;stroke-linecap:butt;stroke-linejoin:miter;stroke-opacity:1" d="M 20.3696,373.954 12.1848,359.221 z" id="boundary" inkscape:connector-curvature="0" />
	<path style="fill:none;stroke:red;stroke-width:1px;stroke-linecap:butt;stroke-linejoin:miter;stroke-opacity:1" d="M 4,311.749 4,295.38 z" id="boundary" inkscape:connector-curvature="0" />
	<path style="fill:none;stroke:red;stroke-width:1px;stroke-linecap:butt;stroke-linejoin:miter;stroke-opacity:1" d="M 38.3762,401.782 49.835,414.878 z" id="boundary" inkscape:connector-curvature="0" />
	<path style="fill:none;stroke:red;stroke-width:1px;stroke-linecap:butt;stroke-linejoin:miter;stroke-opacity:1" d="M 66.2046,421.426 49.835,414.878 z" id="boundary" inkscape:connector-curvature="0" />
	<path style="fill:none;stroke:red;stroke-width:1px;stroke-linecap:butt;stroke-linejoin:miter;stroke-opacity:1" d="M 66.2046,421.426 80.9373,429.611 z" id="boundary" inkscape:connector-curvature="0" />
	<path style="fill:none;stroke:red;stroke-width:1px;stroke-linecap:butt;stroke-linejoin:miter;stroke-opacity:1" d="M 97.3069,431.248 80.9373,429.611 z" id="boundary" inkscape:connector-curvature="0" />
	<path style="fill:none;stroke:red;stroke-width:1px;stroke-linecap:butt;stroke-linejoin:miter;stroke-opacity:1" d="M 38.3762,401.782 28.5545,388.686 z" id="boundary" inkscape:connector-curvature="0" />
	<path style="fill:none;stroke:red;stroke-width:1px;stroke-linecap:butt;stroke-linejoin:miter;stroke-opacity:1" d="M 97.3069,431.248 113.677,431.248 z" id="boundary" inkscape:connector-curvature="0" />
	<path style="fill:none;stroke:red;stroke-width:1px;stroke-linecap:butt;stroke-linejoin:miter;stroke-opacity:1" d="M 130.046,431.248 146.416,431.248 z" id="boundary" inkscape:connector-curvature="0" />
	<path style="fill:none;stroke:red;stroke-width:1px;stroke-linecap:butt;stroke-linejoin:miter;stroke-opacity:1" d="M 130.046,431.248 113.677,431.248 z" id="boundary" inkscape:connector-curvature="0" />
	<path style="fill:none;stroke:red;stroke-width:1px;stroke-linecap:butt;stroke-linejoin:miter;stroke-opacity:1" d="M 470.535,17.0957 470.535,33.4653 z" id="boundary" inkscape:connector-curvature="0" />
	<path style="fill:none;stroke:red;stroke-width:1px;stroke-linecap:butt;stroke-linejoin:miter;stroke-opacity:1" d="M 470.535,17.0957 486.904,8.91089 z" id="boundary" inkscape:connector-curvature="0" />
	<path style="fill:none;stroke:red;stroke-width:1px;stroke-linecap:butt;stroke-linejoin:miter;stroke-opacity:1" d="M 470.535,49.835 470.535,33.4653 z" id="boundary" inkscape:connector-curvature="0" />
	<path style="fill:none;stroke:red;stroke-width:1px;stroke-linecap:butt;stroke-linejoin:miter;stroke-opacity:1" d="M 478.719,64.5677 470.535,49.835 z" id="boundary" inkscape:connector-curvature="0" />
	<path style="fill:none;stroke:red;stroke-width:1px;stroke-linecap:butt;stroke-linejoin:miter;stroke-opacity:1" d="M 254.455,175.881 239.723,167.696 z" id="boundary" inkscape:connector-curvature="0" />
	<path style="fill:none;stroke:red;stroke-width:1px;stroke-linecap:butt;stroke-linejoin:miter;stroke-opacity:1" d="M 192.251,151.327 208.62,154.601 z" id="boundary" inkscape:connector-curvature="0" />
	<path style="fill:none;stroke:red;stroke-width:1px;stroke-linecap:butt;stroke-linejoin:miter;stroke-opacity:1" d="M 208.62,154.601 223.353,162.785 z" id="boundary" inkscape:connector-curvature="0" />
	<path style="fill:none;stroke:red;stroke-width:1px;stroke-linecap:butt;stroke-linejoin:miter;stroke-opacity:1" d="M 223.353,162.785 239.723,167.696 z" id="boundary" inkscape:connector-curvature="0" />
	<path style="fill:none;stroke:red;stroke-width:1px;stroke-linecap:butt;stroke-linejoin:miter;stroke-opacity:1" d="M 478.719,80.9373 478.719,97.3069 z" id="boundary" inkscape:connector-curvature="0" />
	<path style="fill:none;stroke:red;stroke-width:1px;stroke-linecap:butt;stroke-linejoin:miter;stroke-opacity:1" d="M 478.719,80.9373 478.719,64.5677 z" id="boundary" inkscape:connector-curvature="0" />
	<path style="fill:none;stroke:red;stroke-width:1px;stroke-linecap:butt;stroke-linejoin:miter;stroke-opacity:1" d="M 478.719,97.3069 478.719,113.677 z" id="boundary" inkscape:connector-curvature="0" />
	<path style="fill:none;stroke:red;stroke-width:1px;stroke-linecap:butt;stroke-linejoin:miter;stroke-opacity:1" d="M 478.719,113.677 478.719,130.046 z" id="boundary" inkscape:connector-curvature="0" />
	<path style="fill:none;stroke:red;stroke-width:1px;stroke-linecap:butt;stroke-linejoin:miter;stroke-opacity:1" d="M 478.719,130.046 470.535,148.053 z" id="boundary" inkscape:connector-curvature="0" />
	<path style="fill:none;stroke:red;stroke-width:1px;stroke-linecap:butt;stroke-linejoin:miter;stroke-opacity:1" d="M 468.898,175.881 470.535,148.053 z" id="boundary" inkscape:connector-curvature="0" />
	<path style="fill:none;stroke:red;stroke-width:1px;stroke-linecap:butt;stroke-linejoin:miter;stroke-opacity:1" d="M 269.188,184.066 254.455,175.881 z" id="boundary" inkscape:connector-curvature="0" />
	<path style="fill:none;stroke:red;stroke-width:1px;stroke-linecap:butt;stroke-linejoin:miter;stroke-opacity:1" d="M 283.921,192.251 269.188,184.066 z" id="boundary" inkscape:connector-curvature="0" />
	<path style="fill:none;stroke:red;stroke-width:1px;stroke-linecap:butt;stroke-linejoin:miter;stroke-opacity:1" d="M 300.29,192.251 283.921,192.251 z" id="boundary" inkscape:connector-curvature="0" />
	<path style="fill:none;stroke:red;stroke-width:1px;stroke-linecap:butt;stroke-linejoin:miter;stroke-opacity:1" d="M 300.29,192.251 315.023,200.436 z" id="boundary" inkscape:connector-curvature="0" />
	<path style="fill:none;stroke:red;stroke-width:1px;stroke-linecap:butt;stroke-linejoin:miter;stroke-opacity:1" d="M 331.393,200.436 315.023,200.436 z" id="boundary" inkscape:connector-curvature="0" />
	<path style="fill:none;stroke:red;stroke-width:1px;stroke-linecap:butt;stroke-linejoin:miter;stroke-opacity:1" d="M 347.762,203.71 331.393,200.436 z" id="boundary" inkscape:connector-curvature="0" />
	<path style="fill:none;stroke:red;stroke-width:1px;stroke-linecap:butt;stroke-linejoin:miter;stroke-opacity:1" d="M 347.762,203.71 362.495,211.894 z" id="boundary" inkscape:connector-curvature="0" />
	<path style="fill:none;stroke:red;stroke-width:1px;stroke-linecap:butt;stroke-linejoin:miter;stroke-opacity:1" d="M 442.706,200.436 426.337,208.62 z" id="boundary" inkscape:connector-curvature="0" />
	<path style="fill:none;stroke:red;stroke-width:1px;stroke-linecap:butt;stroke-linejoin:miter;stroke-opacity:1" d="M 455.802,187.34 442.706,200.436 z" id="boundary" inkscape:connector-curvature="0" />
	<path style="fill:none;stroke:red;stroke-width:1px;stroke-linecap:butt;stroke-linejoin:miter;stroke-opacity:1" d="M 378.865,216.805 362.495,211.894 z" id="boundary" inkscape:connector-curvature="0" />
	<path style="fill:none;stroke:red;stroke-width:1px;stroke-linecap:butt;stroke-linejoin:miter;stroke-opacity:1" d="M 395.234,216.805 378.865,216.805 z" id="boundary" inkscape:connector-curvature="0" />
	<path style="fill:none;stroke:red;stroke-width:1px;stroke-linecap:butt;stroke-linejoin:miter;stroke-opacity:1" d="M 426.337,208.62 411.604,216.805 z" id="boundary" inkscape:connector-curvature="0" />
	<path style="fill:none;stroke:red;stroke-width:1px;stroke-linecap:butt;stroke-linejoin:miter;stroke-opacity:1" d="M 411.604,216.805 395.234,216.805 z" id="boundary" inkscape:connector-curvature="0" />
	<path style="fill:none;stroke:red;stroke-width:1px;stroke-linecap:butt;stroke-linejoin:miter;stroke-opacity:1" d="M 468.898,175.881 455.802,187.34 z" id="boundary" inkscape:connector-curvature="0" />
	<path style="fill:none;stroke:red;stroke-width:1px;stroke-linecap:butt;stroke-linejoin:miter;stroke-opacity:1" d="M 162.785,431.248 179.155,436.158 z" id="boundary" inkscape:connector-curvature="0" />
	<path style="fill:none;stroke:red;stroke-width:1px;stroke-linecap:butt;stroke-linejoin:miter;stroke-opacity:1" d="M 179.155,436.158 185.703,452.528 z" id="boundary" inkscape:connector-curvature="0" />
	<path style="fill:none;stroke:red;stroke-width:1px;stroke-linecap:butt;stroke-linejoin:miter;stroke-opacity:1" d="M 192.251,468.898 200.436,483.63 z" id="boundary" inkscape:connector-curvature="0" />
	<path style="fill:none;stroke:red;stroke-width:1px;stroke-linecap:butt;stroke-linejoin:miter;stroke-opacity:1" d="M 130.046,683.34 146.416,683.34 z" id="boundary" inkscape:connector-curvature="0" />
	<path style="fill:none;stroke:red;stroke-width:1px;stroke-linecap:butt;stroke-linejoin:miter;stroke-opacity:1" d="M 162.785,683.34 179.155,683.34 z" id="boundary" inkscape:connector-curvature="0" />
	<path style="fill:none;stroke:red;stroke-width:1px;stroke-linecap:butt;stroke-linejoin:miter;stroke-opacity:1" d="M 162.785,683.34 146.416,683.34 z" id="boundary" inkscape:connector-curvature="0" />
	<path style="fill:none;stroke:red;stroke-width:1px;stroke-linecap:butt;stroke-linejoin:miter;stroke-opacity:1" d="M 185.703,452.528 192.251,468.898 z" id="boundary" inkscape:connector-curvature="0" />
	<path style="fill:none;stroke:red;stroke-width:1px;stroke-linecap:butt;stroke-linejoin:miter;stroke-opacity:1" d="M 130.046,683.34 115.314,691.525 z" id="boundary" inkscape:connector-curvature="0" />
	<path style="fill:none;stroke:red;stroke-width:1px;stroke-linecap:butt;stroke-linejoin:miter;stroke-opacity:1" d="M 208.62,498.363 200.436,483.63 z" id="boundary" inkscape:connector-curvature="0" />
	<path style="fill:none;stroke:red;stroke-width:1px;stroke-linecap:butt;stroke-linejoin:miter;stroke-opacity:1" d="M 220.079,511.459 208.62,498.363 z" id="boundary" inkscape:connector-curvature="0" />
	<path style="fill:none;stroke:red;stroke-width:1px;stroke-linecap:butt;stroke-linejoin:miter;stroke-opacity:1" d="M 195.525,683.34 211.894,683.34 z" id="boundary" inkscape:connector-curvature="0" />
	<path style="fill:none;stroke:red;stroke-width:1px;stroke-linecap:butt;stroke-linejoin:miter;stroke-opacity:1" d="M 195.525,683.34 179.155,683.34 z" id="boundary" inkscape:connector-curvature="0" />
	<path style="fill:none;stroke:red;stroke-width:1px;stroke-linecap:butt;stroke-linejoin:miter;stroke-opacity:1" d="M 241.36,537.65 228.264,526.191 z" id="boundary" inkscape:connector-curvature="0" />
	<path style="fill:none;stroke:red;stroke-width:1px;stroke-linecap:butt;stroke-linejoin:miter;stroke-opacity:1" d="M 228.264,526.191 220.079,511.459 z" id="boundary" inkscape:connector-curvature="0" />
	<path style="fill:none;stroke:red;stroke-width:1px;stroke-linecap:butt;stroke-linejoin:miter;stroke-opacity:1" d="M 228.264,683.34 211.894,683.34 z" id="boundary" inkscape:connector-curvature="0" />
	<path style="fill:none;stroke:red;stroke-width:1px;stroke-linecap:butt;stroke-linejoin:miter;stroke-opacity:1" d="M 244.634,676.792 228.264,683.34 z" id="boundary" inkscape:connector-curvature="0" />
	<path style="fill:none;stroke:red;stroke-width:1px;stroke-linecap:butt;stroke-linejoin:miter;stroke-opacity:1" d="M 102.218,704.62 115.314,691.525 z" id="boundary" inkscape:connector-curvature="0" />
	<path style="fill:none;stroke:red;stroke-width:1px;stroke-linecap:butt;stroke-linejoin:miter;stroke-opacity:1" d="M 112.04,717.716 102.218,704.62 z" id="boundary" inkscape:connector-curvature="0" />
	<path style="fill:none;stroke:red;stroke-width:1px;stroke-linecap:butt;stroke-linejoin:miter;stroke-opacity:1" d="M 128.409,717.716 112.04,717.716 z" id="boundary" inkscape:connector-curvature="0" />
	<path style="fill:none;stroke:red;stroke-width:1px;stroke-linecap:butt;stroke-linejoin:miter;stroke-opacity:1" d="M 128.409,717.716 144.779,720.99 z" id="boundary" inkscape:connector-curvature="0" />
	<path style="fill:none;stroke:red;stroke-width:1px;stroke-linecap:butt;stroke-linejoin:miter;stroke-opacity:1" d="M 144.779,720.99 159.512,729.175 z" id="boundary" inkscape:connector-curvature="0" />
	<path style="fill:none;stroke:red;stroke-width:1px;stroke-linecap:butt;stroke-linejoin:miter;stroke-opacity:1" d="M 175.881,734.086 159.512,729.175 z" id="boundary" inkscape:connector-curvature="0" />
	<path style="fill:none;stroke:red;stroke-width:1px;stroke-linecap:butt;stroke-linejoin:miter;stroke-opacity:1" d="M 175.881,734.086 180.792,750.455 z" id="boundary" inkscape:connector-curvature="0" />
	<path style="fill:none;stroke:red;stroke-width:1px;stroke-linecap:butt;stroke-linejoin:miter;stroke-opacity:1" d="M 188.977,765.188 180.792,750.455 z" id="boundary" inkscape:connector-curvature="0" />
	<path style="fill:none;stroke:red;stroke-width:1px;stroke-linecap:butt;stroke-linejoin:miter;stroke-opacity:1" d="M 200.436,778.284 188.977,765.188 z" id="boundary" inkscape:connector-curvature="0" />
	<path style="fill:none;stroke:red;stroke-width:1px;stroke-linecap:butt;stroke-linejoin:miter;stroke-opacity:1" d="M 200.436,778.284 200.436,794.653 z" id="boundary" inkscape:connector-curvature="0" />
	<path style="fill:none;stroke:red;stroke-width:1px;stroke-linecap:butt;stroke-linejoin:miter;stroke-opacity:1" d="M 200.436,794.653 208.62,809.386 z" id="boundary" inkscape:connector-curvature="0" />
	<path style="fill:none;stroke:red;stroke-width:1px;stroke-linecap:butt;stroke-linejoin:miter;stroke-opacity:1" d="M 208.62,809.386 216.805,824.119 z" id="boundary" inkscape:connector-curvature="0" />
	<path style="fill:none;stroke:red;stroke-width:1px;stroke-linecap:butt;stroke-linejoin:miter;stroke-opacity:1" d="M 224.99,838.851 216.805,824.119 z" id="boundary" inkscape:connector-curvature="0" />
	<path style="fill:none;stroke:red;stroke-width:1px;stroke-linecap:butt;stroke-linejoin:miter;stroke-opacity:1" d="M 224.99,838.851 228.264,855.221 z" id="boundary" inkscape:connector-curvature="0" />
	<path style="fill:none;stroke:red;stroke-width:1px;stroke-linecap:butt;stroke-linejoin:miter;stroke-opacity:1" d="M 251.182,550.746 241.36,537.65 z" id="boundary" inkscape:connector-curvature="0" />
	<path style="fill:none;stroke:red;stroke-width:1px;stroke-linecap:butt;stroke-linejoin:miter;stroke-opacity:1" d="M 264.277,562.205 251.182,550.746 z" id="boundary" inkscape:connector-curvature="0" />
	<path style="fill:none;stroke:red;stroke-width:1px;stroke-linecap:butt;stroke-linejoin:miter;stroke-opacity:1" d="M 261.003,675.155 275.736,666.97 z" id="boundary" inkscape:connector-curvature="0" />
	<path style="fill:none;stroke:red;stroke-width:1px;stroke-linecap:butt;stroke-linejoin:miter;stroke-opacity:1" d="M 244.634,676.792 261.003,675.155 z" id="boundary" inkscape:connector-curvature="0" />
	<path style="fill:none;stroke:red;stroke-width:1px;stroke-linecap:butt;stroke-linejoin:miter;stroke-opacity:1" d="M 228.264,855.221 236.449,869.954 z" id="boundary" inkscape:connector-curvature="0" />
	<path style="fill:none;stroke:red;stroke-width:1px;stroke-linecap:butt;stroke-linejoin:miter;stroke-opacity:1" d="M 249.545,881.413 236.449,869.954 z" id="boundary" inkscape:connector-curvature="0" />
	<path style="fill:none;stroke:red;stroke-width:1px;stroke-linecap:butt;stroke-linejoin:miter;stroke-opacity:1" d="M 249.545,881.413 259.366,894.508 z" id="boundary" inkscape:connector-curvature="0" />
	<path style="fill:none;stroke:red;stroke-width:1px;stroke-linecap:butt;stroke-linejoin:miter;stroke-opacity:1" d="M 270.825,578.574 264.277,562.205 z" id="boundary" inkscape:connector-curvature="0" />
	<path style="fill:none;stroke:red;stroke-width:1px;stroke-linecap:butt;stroke-linejoin:miter;stroke-opacity:1" d="M 282.284,591.67 270.825,578.574 z" id="boundary" inkscape:connector-curvature="0" />
	<path style="fill:none;stroke:red;stroke-width:1px;stroke-linecap:butt;stroke-linejoin:miter;stroke-opacity:1" d="M 290.469,606.403 282.284,591.67 z" id="boundary" inkscape:connector-curvature="0" />
	<path style="fill:none;stroke:red;stroke-width:1px;stroke-linecap:butt;stroke-linejoin:miter;stroke-opacity:1" d="M 290.469,606.403 290.469,622.772 z" id="boundary" inkscape:connector-curvature="0" />
	<path style="fill:none;stroke:red;stroke-width:1px;stroke-linecap:butt;stroke-linejoin:miter;stroke-opacity:1" d="M 285.558,652.238 275.736,666.97 z" id="boundary" inkscape:connector-curvature="0" />
	<path style="fill:none;stroke:red;stroke-width:1px;stroke-linecap:butt;stroke-linejoin:miter;stroke-opacity:1" d="M 290.469,622.772 285.558,652.238 z" id="boundary" inkscape:connector-curvature="0" />
	<path style="fill:none;stroke:red;stroke-width:1px;stroke-linecap:butt;stroke-linejoin:miter;stroke-opacity:1" d="M 272.462,905.967 259.366,894.508 z" id="boundary" inkscape:connector-curvature="0" />
	<path style="fill:none;stroke:red;stroke-width:1px;stroke-linecap:butt;stroke-linejoin:miter;stroke-opacity:1" d="M 287.195,914.152 272.462,905.967 z" id="boundary" inkscape:connector-curvature="0" />
	<path style="fill:none;stroke:red;stroke-width:1px;stroke-linecap:butt;stroke-linejoin:miter;stroke-opacity:1" d="M 301.927,922.337 287.195,914.152 z" id="boundary" inkscape:connector-curvature="0" />
	<path style="fill:none;stroke:red;stroke-width:1px;stroke-linecap:butt;stroke-linejoin:miter;stroke-opacity:1" d="M 318.297,922.337 301.927,922.337 z" id="boundary" inkscape:connector-curvature="0" />
	<path style="fill:none;stroke:red;stroke-width:1px;stroke-linecap:butt;stroke-linejoin:miter;stroke-opacity:1" d="M 334.667,927.248 318.297,922.337 z" id="boundary" inkscape:connector-curvature="0" />
	<path style="fill:none;stroke:red;stroke-width:1px;stroke-linecap:butt;stroke-linejoin:miter;stroke-opacity:1" d="M 351.036,930.521 365.769,938.706 z" id="boundary" inkscape:connector-curvature="0" />
	<path style="fill:none;stroke:red;stroke-width:1px;stroke-linecap:butt;stroke-linejoin:miter;stroke-opacity:1" d="M 334.667,927.248 351.036,930.521 z" id="boundary" inkscape:connector-curvature="0" />
	<path style="fill:none;stroke:red;stroke-width:1px;stroke-linecap:butt;stroke-linejoin:miter;stroke-opacity:1" d="M 365.769,938.706 380.502,946.891 z" id="boundary" inkscape:connector-curvature="0" />
	<path style="fill:none;stroke:red;stroke-width:1px;stroke-linecap:butt;stroke-linejoin:miter;stroke-opacity:1" d="M 380.502,946.891 396.871,946.891 z" id="boundary" inkscape:connector-curvature="0" />
	<path style="fill:none;stroke:red;stroke-width:1px;stroke-linecap:butt;stroke-linejoin:miter;stroke-opacity:1" d="M 396.871,946.891 411.604,955.076 z" id="boundary" inkscape:connector-curvature="0" />
	<path style="fill:none;stroke:red;stroke-width:1px;stroke-linecap:butt;stroke-linejoin:miter;stroke-opacity:1" d="M 411.604,955.076 426.337,963.261 z" id="boundary" inkscape:connector-curvature="0" />
	<path style="fill:none;stroke:red;stroke-width:1px;stroke-linecap:butt;stroke-linejoin:miter;stroke-opacity:1" d="M 426.337,963.261 441.069,971.446 z" id="boundary" inkscape:connector-curvature="0" />
	<path style="fill:none;stroke:red;stroke-width:1px;stroke-linecap:butt;stroke-linejoin:miter;stroke-opacity:1" d="M 441.069,971.446 457.439,976.356 z" id="boundary" inkscape:connector-curvature="0" />
	<path style="fill:none;stroke:red;stroke-width:1px;stroke-linecap:butt;stroke-linejoin:miter;stroke-opacity:1" d="M 457.439,976.356 472.172,984.541 z" id="boundary" inkscape:connector-curvature="0" />
	<path style="fill:none;stroke:red;stroke-width:1px;stroke-linecap:butt;stroke-linejoin:miter;stroke-opacity:1" d="M 472.172,984.541 488.541,987.815 z" id="boundary" inkscape:connector-curvature="0" />
	<path style="fill:none;stroke:red;stroke-width:1px;stroke-linecap:butt;stroke-linejoin:miter;stroke-opacity:1" d="M 504.911,987.815 488.541,987.815 z" id="boundary" inkscape:connector-curvature="0" />
	<path style="fill:none;stroke:red;stroke-width:1px;stroke-linecap:butt;stroke-linejoin:miter;stroke-opacity:1" d="M 486.904,8.91089 503.274,4 z" id="boundary" inkscape:connector-curvature="0" />
	<path style="fill:none;stroke:red;stroke-width:1px;stroke-linecap:butt;stroke-linejoin:miter;stroke-opacity:1" d="M 503.274,4 518.007,12.1848 z" id="boundary" inkscape:connector-curvature="0" />
	<path style="fill:none;stroke:red;stroke-width:1px;stroke-linecap:butt;stroke-linejoin:miter;stroke-opacity:1" d="M 549.109,20.3696 532.739,20.3696 z" id="boundary" inkscape:connector-curvature="0" />
	<path style="fill:none;stroke:red;stroke-width:1px;stroke-linecap:butt;stroke-linejoin:miter;stroke-opacity:1" d="M 532.739,20.3696 518.007,12.1848 z" id="boundary" inkscape:connector-curvature="0" />
	<path style="fill:none;stroke:red;stroke-width:1px;stroke-linecap:butt;stroke-linejoin:miter;stroke-opacity:1" d="M 549.109,20.3696 563.842,28.5545 z" id="boundary" inkscape:connector-curvature="0" />
	<path style="fill:none;stroke:red;stroke-width:1px;stroke-linecap:butt;stroke-linejoin:miter;stroke-opacity:1" d="M 563.842,28.5545 578.574,36.7393 z" id="boundary" inkscape:connector-curvature="0" />
	<path style="fill:none;stroke:red;stroke-width:1px;stroke-linecap:butt;stroke-linejoin:miter;stroke-opacity:1" d="M 594.944,36.7393 578.574,36.7393 z" id="boundary" inkscape:connector-curvature="0" />
	<path style="fill:none;stroke:red;stroke-width:1px;stroke-linecap:butt;stroke-linejoin:miter;stroke-opacity:1" d="M 594.944,36.7393 611.314,36.7393 z" id="boundary" inkscape:connector-curvature="0" />
	<path style="fill:none;stroke:red;stroke-width:1px;stroke-linecap:butt;stroke-linejoin:miter;stroke-opacity:1" d="M 611.314,36.7393 627.683,41.6502 z" id="boundary" inkscape:connector-curvature="0" />
	<path style="fill:none;stroke:red;stroke-width:1px;stroke-linecap:butt;stroke-linejoin:miter;stroke-opacity:1" d="M 658.785,53.1089 642.416,49.835 z" id="boundary" inkscape:connector-curvature="0" />
	<path style="fill:none;stroke:red;stroke-width:1px;stroke-linecap:butt;stroke-linejoin:miter;stroke-opacity:1" d="M 642.416,49.835 627.683,41.6502 z" id="boundary" inkscape:connector-curvature="0" />
	<path style="fill:none;stroke:red;stroke-width:1px;stroke-linecap:butt;stroke-linejoin:miter;stroke-opacity:1" d="M 675.155,53.1089 658.785,53.1089 z" id="boundary" inkscape:connector-curvature="0" />
	<path style="fill:none;stroke:red;stroke-width:1px;stroke-linecap:butt;stroke-linejoin:miter;stroke-opacity:1" d="M 675.155,53.1089 689.888,61.2937 z" id="boundary" inkscape:connector-curvature="0" />
	<path style="fill:none;stroke:red;stroke-width:1px;stroke-linecap:butt;stroke-linejoin:miter;stroke-opacity:1" d="M 706.257,62.9307 689.888,61.2937 z" id="boundary" inkscape:connector-curvature="0" />
	<path style="fill:none;stroke:red;stroke-width:1px;stroke-linecap:butt;stroke-linejoin:miter;stroke-opacity:1" d="M 706.257,62.9307 720.99,71.1155 z" id="boundary" inkscape:connector-curvature="0" />
	<path style="fill:none;stroke:red;stroke-width:1px;stroke-linecap:butt;stroke-linejoin:miter;stroke-opacity:1" d="M 737.36,77.6634 720.99,71.1155 z" id="boundary" inkscape:connector-curvature="0" />
	<path style="fill:none;stroke:red;stroke-width:1px;stroke-linecap:butt;stroke-linejoin:miter;stroke-opacity:1" d="M 752.092,85.8482 737.36,77.6634 z" id="boundary" inkscape:connector-curvature="0" />
	<path style="fill:none;stroke:red;stroke-width:1px;stroke-linecap:butt;stroke-linejoin:miter;stroke-opacity:1" d="M 766.825,94.033 752.092,85.8482 z" id="boundary" inkscape:connector-curvature="0" />
	<path style="fill:none;stroke:red;stroke-width:1px;stroke-linecap:butt;stroke-linejoin:miter;stroke-opacity:1" d="M 783.195,98.9439 766.825,94.033 z" id="boundary" inkscape:connector-curvature="0" />
	<path style="fill:none;stroke:red;stroke-width:1px;stroke-linecap:butt;stroke-linejoin:miter;stroke-opacity:1" d="M 616.224,684.977 632.594,684.977 z" id="boundary" inkscape:connector-curvature="0" />
	<path style="fill:none;stroke:red;stroke-width:1px;stroke-linecap:butt;stroke-linejoin:miter;stroke-opacity:1" d="M 601.492,693.162 616.224,684.977 z" id="boundary" inkscape:connector-curvature="0" />
	<path style="fill:none;stroke:red;stroke-width:1px;stroke-linecap:butt;stroke-linejoin:miter;stroke-opacity:1" d="M 758.64,462.35 750.455,447.617 z" id="boundary" inkscape:connector-curvature="0" />
	<path style="fill:none;stroke:red;stroke-width:1px;stroke-linecap:butt;stroke-linejoin:miter;stroke-opacity:1" d="M 750.455,447.617 766.825,439.432 z" id="boundary" inkscape:connector-curvature="0" />
	<path style="fill:none;stroke:red;stroke-width:1px;stroke-linecap:butt;stroke-linejoin:miter;stroke-opacity:1" d="M 766.825,439.432 781.558,431.248 z" id="boundary" inkscape:connector-curvature="0" />
	<path style="fill:none;stroke:red;stroke-width:1px;stroke-linecap:butt;stroke-linejoin:miter;stroke-opacity:1" d="M 794.653,112.04 783.195,98.9439 z" id="boundary" inkscape:connector-curvature="0" />
	<path style="fill:none;stroke:red;stroke-width:1px;stroke-linecap:butt;stroke-linejoin:miter;stroke-opacity:1" d="M 807.749,123.498 794.653,112.04 z" id="boundary" inkscape:connector-curvature="0" />
	<path style="fill:none;stroke:red;stroke-width:1px;stroke-linecap:butt;stroke-linejoin:miter;stroke-opacity:1" d="M 781.558,431.248 796.29,423.063 z" id="boundary" inkscape:connector-curvature="0" />
	<path style="fill:none;stroke:red;stroke-width:1px;stroke-linecap:butt;stroke-linejoin:miter;stroke-opacity:1" d="M 766.825,477.083 766.825,493.452 z" id="boundary" inkscape:connector-curvature="0" />
	<path style="fill:none;stroke:red;stroke-width:1px;stroke-linecap:butt;stroke-linejoin:miter;stroke-opacity:1" d="M 758.64,462.35 766.825,477.083 z" id="boundary" inkscape:connector-curvature="0" />
	<path style="fill:none;stroke:red;stroke-width:1px;stroke-linecap:butt;stroke-linejoin:miter;stroke-opacity:1" d="M 775.01,508.185 766.825,493.452 z" id="boundary" inkscape:connector-curvature="0" />
	<path style="fill:none;stroke:red;stroke-width:1px;stroke-linecap:butt;stroke-linejoin:miter;stroke-opacity:1" d="M 786.469,521.281 775.01,508.185 z" id="boundary" inkscape:connector-curvature="0" />
	<path style="fill:none;stroke:red;stroke-width:1px;stroke-linecap:butt;stroke-linejoin:miter;stroke-opacity:1" d="M 648.964,684.977 632.594,684.977 z" id="boundary" inkscape:connector-curvature="0" />
	<path style="fill:none;stroke:red;stroke-width:1px;stroke-linecap:butt;stroke-linejoin:miter;stroke-opacity:1" d="M 807.749,259.366 815.934,242.997 z" id="boundary" inkscape:connector-curvature="0" />
	<path style="fill:none;stroke:red;stroke-width:1px;stroke-linecap:butt;stroke-linejoin:miter;stroke-opacity:1" d="M 815.934,274.099 807.749,259.366 z" id="boundary" inkscape:connector-curvature="0" />
	<path style="fill:none;stroke:red;stroke-width:1px;stroke-linecap:butt;stroke-linejoin:miter;stroke-opacity:1" d="M 824.119,218.442 815.934,242.997 z" id="boundary" inkscape:connector-curvature="0" />
	<path style="fill:none;stroke:red;stroke-width:1px;stroke-linecap:butt;stroke-linejoin:miter;stroke-opacity:1" d="M 824.119,202.073 824.119,218.442 z" id="boundary" inkscape:connector-curvature="0" />
	<path style="fill:none;stroke:red;stroke-width:1px;stroke-linecap:butt;stroke-linejoin:miter;stroke-opacity:1" d="M 832.304,279.01 815.934,274.099 z" id="boundary" inkscape:connector-curvature="0" />
	<path style="fill:none;stroke:red;stroke-width:1px;stroke-linecap:butt;stroke-linejoin:miter;stroke-opacity:1" d="M 815.934,138.231 824.119,152.964 z" id="boundary" inkscape:connector-curvature="0" />
	<path style="fill:none;stroke:red;stroke-width:1px;stroke-linecap:butt;stroke-linejoin:miter;stroke-opacity:1" d="M 824.119,152.964 827.393,169.333 z" id="boundary" inkscape:connector-curvature="0" />
	<path style="fill:none;stroke:red;stroke-width:1px;stroke-linecap:butt;stroke-linejoin:miter;stroke-opacity:1" d="M 824.119,202.073 832.304,185.703 z" id="boundary" inkscape:connector-curvature="0" />
	<path style="fill:none;stroke:red;stroke-width:1px;stroke-linecap:butt;stroke-linejoin:miter;stroke-opacity:1" d="M 827.393,169.333 832.304,185.703 z" id="boundary" inkscape:connector-curvature="0" />
	<path style="fill:none;stroke:red;stroke-width:1px;stroke-linecap:butt;stroke-linejoin:miter;stroke-opacity:1" d="M 843.762,292.106 832.304,279.01 z" id="boundary" inkscape:connector-curvature="0" />
	<path style="fill:none;stroke:red;stroke-width:1px;stroke-linecap:butt;stroke-linejoin:miter;stroke-opacity:1" d="M 851.947,306.838 856.858,323.208 z" id="boundary" inkscape:connector-curvature="0" />
	<path style="fill:none;stroke:red;stroke-width:1px;stroke-linecap:butt;stroke-linejoin:miter;stroke-opacity:1" d="M 851.947,306.838 843.762,292.106 z" id="boundary" inkscape:connector-curvature="0" />
	<path style="fill:none;stroke:red;stroke-width:1px;stroke-linecap:butt;stroke-linejoin:miter;stroke-opacity:1" d="M 856.858,349.399 856.858,323.208 z" id="boundary" inkscape:connector-curvature="0" />
	<path style="fill:none;stroke:red;stroke-width:1px;stroke-linecap:butt;stroke-linejoin:miter;stroke-opacity:1" d="M 856.858,349.399 848.673,365.769 z" id="boundary" inkscape:connector-curvature="0" />
	<path style="fill:none;stroke:red;stroke-width:1px;stroke-linecap:butt;stroke-linejoin:miter;stroke-opacity:1" d="M 799.564,532.739 786.469,521.281 z" id="boundary" inkscape:connector-curvature="0" />
	<path style="fill:none;stroke:red;stroke-width:1px;stroke-linecap:butt;stroke-linejoin:miter;stroke-opacity:1" d="M 811.023,414.878 796.29,423.063 z" id="boundary" inkscape:connector-curvature="0" />
	<path style="fill:none;stroke:red;stroke-width:1px;stroke-linecap:butt;stroke-linejoin:miter;stroke-opacity:1" d="M 825.756,406.693 811.023,414.878 z" id="boundary" inkscape:connector-curvature="0" />
	<path style="fill:none;stroke:red;stroke-width:1px;stroke-linecap:butt;stroke-linejoin:miter;stroke-opacity:1" d="M 799.564,532.739 811.023,545.835 z" id="boundary" inkscape:connector-curvature="0" />
	<path style="fill:none;stroke:red;stroke-width:1px;stroke-linecap:butt;stroke-linejoin:miter;stroke-opacity:1" d="M 811.023,545.835 824.119,557.294 z" id="boundary" inkscape:connector-curvature="0" />
	<path style="fill:none;stroke:red;stroke-width:1px;stroke-linecap:butt;stroke-linejoin:miter;stroke-opacity:1" d="M 835.578,570.389 824.119,557.294 z" id="boundary" inkscape:connector-curvature="0" />
	<path style="fill:none;stroke:red;stroke-width:1px;stroke-linecap:butt;stroke-linejoin:miter;stroke-opacity:1" d="M 825.756,406.693 838.851,393.597 z" id="boundary" inkscape:connector-curvature="0" />
	<path style="fill:none;stroke:red;stroke-width:1px;stroke-linecap:butt;stroke-linejoin:miter;stroke-opacity:1" d="M 843.762,585.122 835.578,570.389 z" id="boundary" inkscape:connector-curvature="0" />
	<path style="fill:none;stroke:red;stroke-width:1px;stroke-linecap:butt;stroke-linejoin:miter;stroke-opacity:1" d="M 856.858,616.224 848.673,601.492 z" id="boundary" inkscape:connector-curvature="0" />
	<path style="fill:none;stroke:red;stroke-width:1px;stroke-linecap:butt;stroke-linejoin:miter;stroke-opacity:1" d="M 848.673,601.492 843.762,585.122 z" id="boundary" inkscape:connector-curvature="0" />
	<path style="fill:none;stroke:red;stroke-width:1px;stroke-linecap:butt;stroke-linejoin:miter;stroke-opacity:1" d="M 838.851,393.597 848.673,365.769 z" id="boundary" inkscape:connector-curvature="0" />
	<path style="fill:none;stroke:red;stroke-width:1px;stroke-linecap:butt;stroke-linejoin:miter;stroke-opacity:1" d="M 856.858,616.224 856.858,632.594 z" id="boundary" inkscape:connector-curvature="0" />
	<path style="fill:none;stroke:red;stroke-width:1px;stroke-linecap:butt;stroke-linejoin:miter;stroke-opacity:1" d="M 865.043,647.327 856.858,632.594 z" id="boundary" inkscape:connector-curvature="0" />
	<path style="fill:none;stroke:red;stroke-width:1px;stroke-linecap:butt;stroke-linejoin:miter;stroke-opacity:1" d="M 856.858,668.607 865.043,647.327 z" id="boundary" inkscape:connector-curvature="0" />
	<path style="fill:none;stroke:red;stroke-width:1px;stroke-linecap:butt;stroke-linejoin:miter;stroke-opacity:1" d="M 856.858,684.977 856.858,668.607 z" id="boundary" inkscape:connector-curvature="0" />
	<path style="fill:none;stroke:red;stroke-width:1px;stroke-linecap:butt;stroke-linejoin:miter;stroke-opacity:1" d="M 807.749,123.498 815.934,138.231 z" id="boundary" inkscape:connector-curvature="0" />
	<path style="fill:none;stroke:red;stroke-width:1px;stroke-linecap:butt;stroke-linejoin:miter;stroke-opacity:1" d="M 578.574,717.716 567.116,730.812 z" id="boundary" inkscape:connector-curvature="0" />
	<path style="fill:none;stroke:red;stroke-width:1px;stroke-linecap:butt;stroke-linejoin:miter;stroke-opacity:1" d="M 567.116,730.812 554.02,742.271 z" id="boundary" inkscape:connector-curvature="0" />
	<path style="fill:none;stroke:red;stroke-width:1px;stroke-linecap:butt;stroke-linejoin:miter;stroke-opacity:1" d="M 599.855,789.743 583.485,789.743 z" id="boundary" inkscape:connector-curvature="0" />
	<path style="fill:none;stroke:red;stroke-width:1px;stroke-linecap:butt;stroke-linejoin:miter;stroke-opacity:1" d="M 554.02,773.373 567.116,783.195 z" id="boundary" inkscape:connector-curvature="0" />
	<path style="fill:none;stroke:red;stroke-width:1px;stroke-linecap:butt;stroke-linejoin:miter;stroke-opacity:1" d="M 545.835,758.64 554.02,742.271 z" id="boundary" inkscape:connector-curvature="0" />
	<path style="fill:none;stroke:red;stroke-width:1px;stroke-linecap:butt;stroke-linejoin:miter;stroke-opacity:1" d="M 554.02,773.373 545.835,758.64 z" id="boundary" inkscape:connector-curvature="0" />
	<path style="fill:none;stroke:red;stroke-width:1px;stroke-linecap:butt;stroke-linejoin:miter;stroke-opacity:1" d="M 567.116,783.195 583.485,789.743 z" id="boundary" inkscape:connector-curvature="0" />
	<path style="fill:none;stroke:red;stroke-width:1px;stroke-linecap:butt;stroke-linejoin:miter;stroke-opacity:1" d="M 591.67,706.257 601.492,693.162 z" id="boundary" inkscape:connector-curvature="0" />
	<path style="fill:none;stroke:red;stroke-width:1px;stroke-linecap:butt;stroke-linejoin:miter;stroke-opacity:1" d="M 665.333,684.977 648.964,684.977 z" id="boundary" inkscape:connector-curvature="0" />
	<path style="fill:none;stroke:red;stroke-width:1px;stroke-linecap:butt;stroke-linejoin:miter;stroke-opacity:1" d="M 665.333,684.977 680.066,693.162 z" id="boundary" inkscape:connector-curvature="0" />
	<path style="fill:none;stroke:red;stroke-width:1px;stroke-linecap:butt;stroke-linejoin:miter;stroke-opacity:1" d="M 578.574,717.716 591.67,706.257 z" id="boundary" inkscape:connector-curvature="0" />
	<path style="fill:none;stroke:red;stroke-width:1px;stroke-linecap:butt;stroke-linejoin:miter;stroke-opacity:1" d="M 616.224,791.38 599.855,789.743 z" id="boundary" inkscape:connector-curvature="0" />
	<path style="fill:none;stroke:red;stroke-width:1px;stroke-linecap:butt;stroke-linejoin:miter;stroke-opacity:1" d="M 630.957,799.564 616.224,791.38 z" id="boundary" inkscape:connector-curvature="0" />
	<path style="fill:none;stroke:red;stroke-width:1px;stroke-linecap:butt;stroke-linejoin:miter;stroke-opacity:1" d="M 519.644,996 504.911,987.815 z" id="boundary" inkscape:connector-curvature="0" />
	<path style="fill:none;stroke:red;stroke-width:1px;stroke-linecap:butt;stroke-linejoin:miter;stroke-opacity:1" d="M 536.013,996 519.644,996 z" id="boundary" inkscape:connector-curvature="0" />
	<path style="fill:none;stroke:red;stroke-width:1px;stroke-linecap:butt;stroke-linejoin:miter;stroke-opacity:1" d="M 568.752,996 552.383,996 z" id="boundary" inkscape:connector-curvature="0" />
	<path style="fill:none;stroke:red;stroke-width:1px;stroke-linecap:butt;stroke-linejoin:miter;stroke-opacity:1" d="M 552.383,996 536.013,996 z" id="boundary" inkscape:connector-curvature="0" />
	<path style="fill:none;stroke:red;stroke-width:1px;stroke-linecap:butt;stroke-linejoin:miter;stroke-opacity:1" d="M 585.122,996 568.752,996 z" id="boundary" inkscape:connector-curvature="0" />
	<path style="fill:none;stroke:red;stroke-width:1px;stroke-linecap:butt;stroke-linejoin:miter;stroke-opacity:1" d="M 601.492,991.089 585.122,996 z" id="boundary" inkscape:connector-curvature="0" />
	<path style="fill:none;stroke:red;stroke-width:1px;stroke-linecap:butt;stroke-linejoin:miter;stroke-opacity:1" d="M 601.492,991.089 617.861,987.815 z" id="boundary" inkscape:connector-curvature="0" />
	<path style="fill:none;stroke:red;stroke-width:1px;stroke-linecap:butt;stroke-linejoin:miter;stroke-opacity:1" d="M 630.957,799.564 647.327,806.112 z" id="boundary" inkscape:connector-curvature="0" />
	<path style="fill:none;stroke:red;stroke-width:1px;stroke-linecap:butt;stroke-linejoin:miter;stroke-opacity:1" d="M 678.429,814.297 662.059,814.297 z" id="boundary" inkscape:connector-curvature="0" />
	<path style="fill:none;stroke:red;stroke-width:1px;stroke-linecap:butt;stroke-linejoin:miter;stroke-opacity:1" d="M 662.059,814.297 647.327,806.112 z" id="boundary" inkscape:connector-curvature="0" />
	<path style="fill:none;stroke:red;stroke-width:1px;stroke-linecap:butt;stroke-linejoin:miter;stroke-opacity:1" d="M 617.861,987.815 632.594,979.63 z" id="boundary" inkscape:connector-curvature="0" />
	<path style="fill:none;stroke:red;stroke-width:1px;stroke-linecap:butt;stroke-linejoin:miter;stroke-opacity:1" d="M 632.594,979.63 648.964,976.356 z" id="boundary" inkscape:connector-curvature="0" />
	<path style="fill:none;stroke:red;stroke-width:1px;stroke-linecap:butt;stroke-linejoin:miter;stroke-opacity:1" d="M 648.964,976.356 665.333,971.446 z" id="boundary" inkscape:connector-curvature="0" />
	<path style="fill:none;stroke:red;stroke-width:1px;stroke-linecap:butt;stroke-linejoin:miter;stroke-opacity:1" d="M 680.066,963.261 665.333,971.446 z" id="boundary" inkscape:connector-curvature="0" />
	<path style="fill:none;stroke:red;stroke-width:1px;stroke-linecap:butt;stroke-linejoin:miter;stroke-opacity:1" d="M 680.066,693.162 696.436,699.71 z" id="boundary" inkscape:connector-curvature="0" />
	<path style="fill:none;stroke:red;stroke-width:1px;stroke-linecap:butt;stroke-linejoin:miter;stroke-opacity:1" d="M 712.805,701.347 696.436,699.71 z" id="boundary" inkscape:connector-curvature="0" />
	<path style="fill:none;stroke:red;stroke-width:1px;stroke-linecap:butt;stroke-linejoin:miter;stroke-opacity:1" d="M 729.175,701.347 712.805,701.347 z" id="boundary" inkscape:connector-curvature="0" />
	<path style="fill:none;stroke:red;stroke-width:1px;stroke-linecap:butt;stroke-linejoin:miter;stroke-opacity:1" d="M 729.175,701.347 743.908,709.531 z" id="boundary" inkscape:connector-curvature="0" />
	<path style="fill:none;stroke:red;stroke-width:1px;stroke-linecap:butt;stroke-linejoin:miter;stroke-opacity:1" d="M 709.531,822.482 694.799,814.297 z" id="boundary" inkscape:connector-curvature="0" />
	<path style="fill:none;stroke:red;stroke-width:1px;stroke-linecap:butt;stroke-linejoin:miter;stroke-opacity:1" d="M 743.908,709.531 760.277,714.442 z" id="boundary" inkscape:connector-curvature="0" />
	<path style="fill:none;stroke:red;stroke-width:1px;stroke-linecap:butt;stroke-linejoin:miter;stroke-opacity:1" d="M 724.264,830.667 709.531,822.482 z" id="boundary" inkscape:connector-curvature="0" />
	<path style="fill:none;stroke:red;stroke-width:1px;stroke-linecap:butt;stroke-linejoin:miter;stroke-opacity:1" d="M 740.634,833.941 724.264,830.667 z" id="boundary" inkscape:connector-curvature="0" />
	<path style="fill:none;stroke:red;stroke-width:1px;stroke-linecap:butt;stroke-linejoin:miter;stroke-opacity:1" d="M 678.429,814.297 694.799,814.297 z" id="boundary" inkscape:connector-curvature="0" />
	<path style="fill:none;stroke:red;stroke-width:1px;stroke-linecap:butt;stroke-linejoin:miter;stroke-opacity:1" d="M 848.673,701.347 838.851,720.99 z" id="boundary" inkscape:connector-curvature="0" />
	<path style="fill:none;stroke:red;stroke-width:1px;stroke-linecap:butt;stroke-linejoin:miter;stroke-opacity:1" d="M 838.851,720.99 822.482,729.175 z" id="boundary" inkscape:connector-curvature="0" />
	<path style="fill:none;stroke:red;stroke-width:1px;stroke-linecap:butt;stroke-linejoin:miter;stroke-opacity:1" d="M 848.673,701.347 856.858,684.977 z" id="boundary" inkscape:connector-curvature="0" />
	<path style="fill:none;stroke:red;stroke-width:1px;stroke-linecap:butt;stroke-linejoin:miter;stroke-opacity:1" d="M 775.01,722.627 791.38,725.901 z" id="boundary" inkscape:connector-curvature="0" />
	<path style="fill:none;stroke:red;stroke-width:1px;stroke-linecap:butt;stroke-linejoin:miter;stroke-opacity:1" d="M 791.38,725.901 806.112,734.086 z" id="boundary" inkscape:connector-curvature="0" />
	<path style="fill:none;stroke:red;stroke-width:1px;stroke-linecap:butt;stroke-linejoin:miter;stroke-opacity:1" d="M 775.01,722.627 760.277,714.442 z" id="boundary" inkscape:connector-curvature="0" />
	<path style="fill:none;stroke:red;stroke-width:1px;stroke-linecap:butt;stroke-linejoin:miter;stroke-opacity:1" d="M 822.482,729.175 806.112,734.086 z" id="boundary" inkscape:connector-curvature="0" />
	<path style="fill:none;stroke:red;stroke-width:1px;stroke-linecap:butt;stroke-linejoin:miter;stroke-opacity:1" d="M 740.634,833.941 755.366,842.125 z" id="boundary" inkscape:connector-curvature="0" />
	<path style="fill:none;stroke:red;stroke-width:1px;stroke-linecap:butt;stroke-linejoin:miter;stroke-opacity:1" d="M 725.901,938.706 709.531,946.891 z" id="boundary" inkscape:connector-curvature="0" />
	<path style="fill:none;stroke:red;stroke-width:1px;stroke-linecap:butt;stroke-linejoin:miter;stroke-opacity:1" d="M 742.271,938.706 725.901,938.706 z" id="boundary" inkscape:connector-curvature="0" />
	<path style="fill:none;stroke:red;stroke-width:1px;stroke-linecap:butt;stroke-linejoin:miter;stroke-opacity:1" d="M 757.003,930.521 742.271,938.706 z" id="boundary" inkscape:connector-curvature="0" />
	<path style="fill:none;stroke:red;stroke-width:1px;stroke-linecap:butt;stroke-linejoin:miter;stroke-opacity:1" d="M 680.066,963.261 694.799,955.076 z" id="boundary" inkscape:connector-curvature="0" />
	<path style="fill:none;stroke:red;stroke-width:1px;stroke-linecap:butt;stroke-linejoin:miter;stroke-opacity:1" d="M 694.799,955.076 709.531,946.891 z" id="boundary" inkscape:connector-curvature="0" />
	<path style="fill:none;stroke:red;stroke-width:1px;stroke-linecap:butt;stroke-linejoin:miter;stroke-opacity:1" d="M 783.195,861.769 771.736,848.673 z" id="boundary" inkscape:connector-curvature="0" />
	<path style="fill:none;stroke:red;stroke-width:1px;stroke-linecap:butt;stroke-linejoin:miter;stroke-opacity:1" d="M 783.195,861.769 796.29,873.228 z" id="boundary" inkscape:connector-curvature="0" />
	<path style="fill:none;stroke:red;stroke-width:1px;stroke-linecap:butt;stroke-linejoin:miter;stroke-opacity:1" d="M 807.749,886.323 796.29,873.228 z" id="boundary" inkscape:connector-curvature="0" />
	<path style="fill:none;stroke:red;stroke-width:1px;stroke-linecap:butt;stroke-linejoin:miter;stroke-opacity:1" d="M 807.749,886.323 802.838,904.33 z" id="boundary" inkscape:connector-curvature="0" />
	<path style="fill:none;stroke:red;stroke-width:1px;stroke-linecap:butt;stroke-linejoin:miter;stroke-opacity:1" d="M 757.003,930.521 770.099,920.7 z" id="boundary" inkscape:connector-curvature="0" />
	<path style="fill:none;stroke:red;stroke-width:1px;stroke-linecap:butt;stroke-linejoin:miter;stroke-opacity:1" d="M 770.099,920.7 786.469,912.515 z" id="boundary" inkscape:connector-curvature="0" />
	<path style="fill:none;stroke:red;stroke-width:1px;stroke-linecap:butt;stroke-linejoin:miter;stroke-opacity:1" d="M 786.469,912.515 802.838,904.33 z" id="boundary" inkscape:connector-curvature="0" />
	<path style="fill:none;stroke:red;stroke-width:1px;stroke-linecap:butt;stroke-linejoin:miter;stroke-opacity:1" d="M 755.366,842.125 771.736,848.673 z" id="boundary" inkscape:connector-curvature="0" />
	<circle cx="4" cy="279.01" r="4" fill="#0" id="circle0"/>
	<circle cx="4" cy="295.38" r="4" fill="#0" id="circle1"/>
	<circle cx="4" cy="311.749" r="4" fill="#0" id="circle2"/>
	<circle cx="4" cy="328.119" r="4" fill="#0" id="circle3"/>
	<circle cx="4" cy="344.488" r="4" fill="#0" id="circle4"/>
	<circle cx="12.1848" cy="254.455" r="4" fill="#0" id="circle5"/>
	<circle cx="12.1848" cy="359.221" r="4" fill="#0" id="circle6"/>
	<circle cx="20.3696" cy="238.086" r="4" fill="#0" id="circle7"/>
	<circle cx="20.3696" cy="373.954" r="4" fill="#0" id="circle8"/>
	<circle cx="28.5545" cy="221.716" r="4" fill="#0" id="circle9"/>
	<circle cx="28.5545" cy="388.686" r="4" fill="#0" id="circle10"/>
	<circle cx="38.3762" cy="401.782" r="4" fill="#0" id="circle11"/>
	<circle cx="41.6502" cy="208.62" r="4" fill="#0" id="circle12"/>
	<circle cx="49.835" cy="414.878" r="4" fill="#0" id="circle13"/>
	<circle cx="54.7459" cy="195.525" r="4" fill="#0" id="circle14"/>
	<circle cx="66.2046" cy="421.426" r="4" fill="#0" id="circle15"/>
	<circle cx="67.8416" cy="184.066" r="4" fill="#0" id="circle16"/>
	<circle cx="80.9373" cy="429.611" r="4" fill="#0" id="circle17"/>
	<circle cx="82.5743" cy="175.881" r="4" fill="#0" id="circle18"/>
	<circle cx="95.67" cy="162.785" r="4" fill="#0" id="circle19"/>
	<circle cx="97.3069" cy="431.248" r="4" fill="#0" id="circle20"/>
	<circle cx="102.218" cy="704.62" r="4" fill="#0" id="circle21"/>
	<circle cx="112.04" cy="154.601" r="4" fill="#0" id="circle22"/>
	<circle cx="112.04" cy="717.716" r="4" fill="#0" id="circle23"/>
	<circle cx="113.677" cy="431.248" r="4" fill="#0" id="circle24"/>
	<circle cx="115.314" cy="691.525" r="4" fill="#0" id="circle25"/>
	<circle cx="128.409" cy="146.416" r="4" fill="#0" id="circle26"/>
	<circle cx="128.409" cy="717.716" r="4" fill="#0" id="circle27"/>
	<circle cx="130.046" cy="431.248" r="4" fill="#0" id="circle28"/>
	<circle cx="130.046" cy="683.34" r="4" fill="#0" id="circle29"/>
	<circle cx="144.779" cy="143.142" r="4" fill="#0" id="circle30"/>
	<circle cx="144.779" cy="720.99" r="4" fill="#0" id="circle31"/>
	<circle cx="146.416" cy="431.248" r="4" fill="#0" id="circle32"/>
	<circle cx="146.416" cy="683.34" r="4" fill="#0" id="circle33"/>
	<circle cx="159.512" cy="729.175" r="4" fill="#0" id="circle34"/>
	<circle cx="161.149" cy="143.142" r="4" fill="#0" id="circle35"/>
	<circle cx="162.785" cy="431.248" r="4" fill="#0" id="circle36"/>
	<circle cx="162.785" cy="683.34" r="4" fill="#0" id="circle37"/>
	<circle cx="175.881" cy="151.327" r="4" fill="#0" id="circle38"/>
	<circle cx="175.881" cy="734.086" r="4" fill="#0" id="circle39"/>
	<circle cx="179.155" cy="436.158" r="4" fill="#0" id="circle40"/>
	<circle cx="179.155" cy="683.34" r="4" fill="#0" id="circle41"/>
	<circle cx="180.792" cy="750.455" r="4" fill="#0" id="circle42"/>
	<circle cx="185.703" cy="452.528" r="4" fill="#0" id="circle43"/>
	<circle cx="188.977" cy="765.188" r="4" fill="#0" id="circle44"/>
	<circle cx="192.251" cy="151.327" r="4" fill="#0" id="circle45"/>
	<circle cx="192.251" cy="468.898" r="4" fill="#0" id="circle46"/>
	<circle cx="195.525" cy="683.34" r="4" fill="#0" id="circle47"/>
	<circle cx="200.436" cy="483.63" r="4" fill="#0" id="circle48"/>
	<circle cx="200.436" cy="778.284" r="4" fill="#0" id="circle49"/>
	<circle cx="200.436" cy="794.653" r="4" fill="#0" id="circle50"/>
	<circle cx="208.62" cy="154.601" r="4" fill="#0" id="circle51"/>
	<circle cx="208.62" cy="498.363" r="4" fill="#0" id="circle52"/>
	<circle cx="208.62" cy="809.386" r="4" fill="#0" id="circle53"/>
	<circle cx="211.894" cy="683.34" r="4" fill="#0" id="circle54"/>
	<circle cx="216.805" cy="824.119" r="4" fill="#0" id="circle55"/>
	<circle cx="220.079" cy="511.459" r="4" fill="#0" id="circle56"/>
	<circle cx="223.353" cy="162.785" r="4" fill="#0" id="circle57"/>
	<circle cx="224.99" cy="838.851" r="4" fill="#0" id="circle58"/>
	<circle cx="228.264" cy="526.191" r="4" fill="#0" id="circle59"/>
	<circle cx="228.264" cy="683.34" r="4" fill="#0" id="circle60"/>
	<circle cx="228.264" cy="855.221" r="4" fill="#0" id="circle61"/>
	<circle cx="236.449" cy="869.954" r="4" fill="#0" id="circle62"/>
	<circle cx="239.723" cy="167.696" r="4" fill="#0" id="circle63"/>
	<circle cx="241.36" cy="537.65" r="4" fill="#0" id="circle64"/>
	<circle cx="244.634" cy="676.792" r="4" fill="#0" id="circle65"/>
	<circle cx="249.545" cy="881.413" r="4" fill="#0" id="circle66"/>
	<circle cx="251.182" cy="550.746" r="4" fill="#0" id="circle67"/>
	<circle cx="254.455" cy="175.881" r="4" fill="#0" id="circle68"/>
	<circle cx="259.366" cy="894.508" r="4" fill="#0" id="circle69"/>
	<circle cx="261.003" cy="675.155" r="4" fill="#0" id="circle70"/>
	<circle cx="264.277" cy="562.205" r="4" fill="#0" id="circle71"/>
	<circle cx="269.188" cy="184.066" r="4" fill="#0" id="circle72"/>
	<circle cx="270.825" cy="578.574" r="4" fill="#0" id="circle73"/>
	<circle cx="272.462" cy="905.967" r="4" fill="#0" id="circle74"/>
	<circle cx="275.736" cy="666.97" r="4" fill="#0" id="circle75"/>
	<circle cx="282.284" cy="591.67" r="4" fill="#0" id="circle76"/>
	<circle cx="283.921" cy="192.251" r="4" fill="#0" id="circle77"/>
	<circle cx="285.558" cy="652.238" r="4" fill="#0" id="circle78"/>
	<circle cx="287.195" cy="914.152" r="4" fill="#0" id="circle79"/>
	<circle cx="290.469" cy="606.403" r="4" fill="#0" id="circle80"/>
	<circle cx="290.469" cy="622.772" r="4" fill="#0" id="circle81"/>
	<circle cx="300.29" cy="192.251" r="4" fill="#0" id="circle82"/>
	<circle cx="301.927" cy="922.337" r="4" fill="#0" id="circle83"/>
	<circle cx="315.023" cy="200.436" r="4" fill="#0" id="circle84"/>
	<circle cx="318.297" cy="922.337" r="4" fill="#0" id="circle85"/>
	<circle cx="331.393" cy="200.436" r="4" fill="#0" id="circle86"/>
	<circle cx="334.667" cy="927.248" r="4" fill="#0" id="circle87"/>
	<circle cx="347.762" cy="203.71" r="4" fill="#0" id="circle88"/>
	<circle cx="351.036" cy="930.521" r="4" fill="#0" id="circle89"/>
	<circle cx="362.495" cy="211.894" r="4" fill="#0" id="circle90"/>
	<circle cx="365.769" cy="938.706" r="4" fill="#0" id="circle91"/>
	<circle cx="378.865" cy="216.805" r="4" fill="#0" id="circle92"/>
	<circle cx="380.502" cy="946.891" r="4" fill="#0" id="circle93"/>
	<circle cx="395.234" cy="216.805" r="4" fill="#0" id="circle94"/>
	<circle cx="396.871" cy="946.891" r="4" fill="#0" id="circle95"/>
	<circle cx="411.604" cy="216.805" r="4" fill="#0" id="circle96"/>
	<circle cx="411.604" cy="955.076" r="4" fill="#0" id="circle97"/>
	<circle cx="426.337" cy="208.62" r="4" fill="#0" id="circle98"/>
	<circle cx="426.337" cy="963.261" r="4" fill="#0" id="circle99"/>
	<circle cx="441.069" cy="971.446" r="4" fill="#0" id="circle100"/>
	<circle cx="442.706" cy="200.436" r="4" fill="#0" id="circle101"/>
	<circle cx="455.802" cy="187.34" r="4" fill="#0" id="circle102"/>
	<circle cx="457.439" cy="976.356" r="4" fill="#0" id="circle103"/>
	<circle cx="468.898" cy="175.881" r="4" fill="#0" id="circle104"/>
	<circle cx="470.535" cy="17.0957" r="4" fill="#0" id="circle105"/>
	<circle cx="470.535" cy="33.4653" r="4" fill="#0" id="circle106"/>
	<circle cx="470.535" cy="49.835" r="4" fill="#0" id="circle107"/>
	<circle cx="470.535" cy="148.053" r="4" fill="#0" id="circle108"/>
	<circle cx="472.172" cy="984.541" r="4" fill="#0" id="circle109"/>
	<circle cx="478.719" cy="64.5677" r="4" fill="#0" id="circle110"/>
	<circle cx="478.719" cy="80.9373" r="4" fill="#0" id="circle111"/>
	<circle cx="478.719" cy="97.3069" r="4" fill="#0" id="circle112"/>
	<circle cx="478.719" cy="113.677" r="4" fill="#0" id="circle113"/>
	<circle cx="478.719" cy="130.046" r="4" fill="#0" id="circle114"/>
	<circle cx="486.904" cy="8.91089" r="4" fill="#0" id="circle115"/>
	<circle cx="488.541" cy="987.815" r="4" fill="#0" id="circle116"/>
	<circle cx="503.274" cy="4" r="4" fill="#0" id="circle117"/>
	<circle cx="504.911" cy="987.815" r="4" fill="#0" id="circle118"/>
	<circle cx="518.007" cy="12.1848" r="4" fill="#0" id="circle119"/>
	<circle cx="519.644" cy="996" r="4" fill="#0" id="circle120"/>
	<circle cx="532.739" cy="20.3696" r="4" fill="#0" id="circle121"/>
	<circle cx="536.013" cy="996" r="4" fill="#0" id="circle122"/>
	<circle cx="545.835" cy="758.64" r="4" fill="#0" id="circle123"/>
	<circle cx="549.109" cy="20.3696" r="4" fill="#0" id="circle124"/>
	<circle cx="552.383" cy="996" r="4" fill="#0" id="circle125"/>
	<circle cx="554.02" cy="742.271" r="4" fill="#0" id="circle126"/>
	<circle cx="554.02" cy="773.373" r="4" fill="#0" id="circle127"/>
	<circle cx="563.842" cy="28.5545" r="4" fill="#0" id="circle128"/>
	<circle cx="567.116" cy="730.812" r="4" fill="#0" id="circle129"/>
	<circle cx="567.116" cy="783.195" r="4" fill="#0" id="circle130"/>
	<circle cx="568.752" cy="996" r="4" fill="#0" id="circle131"/>
	<circle cx="578.574" cy="36.7393" r="4" fill="#0" id="circle132"/>
	<circle cx="578.574" cy="717.716" r="4" fill="#0" id="circle133"/>
	<circle cx="583.485" cy="789.743" r="4" fill="#0" id="circle134"/>
	<circle cx="585.122" cy="996" r="4" fill="#0" id="circle135"/>
	<circle cx="591.67" cy="706.257" r="4" fill="#0" id="circle136"/>
	<circle cx="594.944" cy="36.7393" r="4" fill="#0" id="circle137"/>
	<circle cx="599.855" cy="789.743" r="4" fill="#0" id="circle138"/>
	<circle cx="601.492" cy="693.162" r="4" fill="#0" id="circle139"/>
	<circle cx="601.492" cy="991.089" r="4" fill="#0" id="circle140"/>
	<circle cx="611.314" cy="36.7393" r="4" fill="#0" id="circle141"/>
	<circle cx="616.224" cy="684.977" r="4" fill="#0" id="circle142"/>
	<circle cx="616.224" cy="791.38" r="4" fill="#0" id="circle143"/>
	<circle cx="617.861" cy="987.815" r="4" fill="#0" id="circle144"/>
	<circle cx="627.683" cy="41.6502" r="4" fill="#0" id="circle145"/>
	<circle cx="630.957" cy="799.564" r="4" fill="#0" id="circle146"/>
	<circle cx="632.594" cy="684.977" r="4" fill="#0" id="circle147"/>
	<circle cx="632.594" cy="979.63" r="4" fill="#0" id="circle148"/>
	<circle cx="642.416" cy="49.835" r="4" fill="#0" id="circle149"/>
	<circle cx="647.327" cy="806.112" r="4" fill="#0" id="circle150"/>
	<circle cx="648.964" cy="684.977" r="4" fill="#0" id="circle151"/>
	<circle cx="648.964" cy="976.356" r="4" fill="#0" id="circle152"/>
	<circle cx="658.785" cy="53.1089" r="4" fill="#0" id="circle153"/>
	<circle cx="662.059" cy="814.297" r="4" fill="#0" id="circle154"/>
	<circle cx="665.333" cy="684.977" r="4" fill="#0" id="circle155"/>
	<circle cx="665.333" cy="971.446" r="4" fill="#0" id="circle156"/>
	<circle cx="675.155" cy="53.1089" r="4" fill="#0" id="circle157"/>
	<circle cx="678.429" cy="814.297" r="4" fill="#0" id="circle158"/>
	<circle cx="680.066" cy="693.162" r="4" fill="#0" id="circle159"/>
	<circle cx="680.066" cy="963.261" r="4" fill="#0" id="circle160"/>
	<circle cx="689.888" cy="61.2937" r="4" fill="#0" id="circle161"/>
	<circle cx="694.799" cy="814.297" r="4" fill="#0" id="circle162"/>
	<circle cx="694.799" cy="955.076" r="4" fill="#0" id="circle163"/>
	<circle cx="696.436" cy="699.71" r="4" fill="#0" id="circle164"/>
	<circle cx="706.257" cy="62.9307" r="4" fill="#0" id="circle165"/>
	<circle cx="709.531" cy="822.482" r="4" fill="#0" id="circle166"/>
	<circle cx="709.531" cy="946.891" r="4" fill="#0" id="circle167"/>
	<circle cx="712.805" cy="701.347" r="4" fill="#0" id="circle168"/>
	<circle cx="720.99" cy="71.1155" r="4" fill="#0" id="circle169"/>
	<circle cx="724.264" cy="830.667" r="4" fill="#0" id="circle170"/>
	<circle cx="725.901" cy="938.706" r="4" fill="#0" id="circle171"/>
	<circle cx="729.175" cy="701.347" r="4" fill="#0" id="circle172"/>
	<circle cx="737.36" cy="77.6634" r="4" fill="#0" id="circle173"/>
	<circle cx="740.634" cy="833.941" r="4" fill="#0" id="circle174"/>
	<circle cx="742.271" cy="938.706" r="4" fill="#0" id="circle175"/>
	<circle cx="743.908" cy="709.531" r="4" fill="#0" id="circle176"/>
	<circle cx="750.455" cy="447.617" r="4" fill="#0" id="circle177"/>
	<circle cx="752.092" cy="85.8482" r="4" fill="#0" id="circle178"/>
	<circle cx="755.366" cy="842.125" r="4" fill="#0" id="circle179"/>
	<circle cx="757.003" cy="930.521" r="4" fill="#0" id="circle180"/>
	<circle cx="758.64" cy="462.35" r="4" fill="#0" id="circle181"/>
	<circle cx="760.277" cy="714.442" r="4" fill="#0" id="circle182"/>
	<circle cx="766.825" cy="94.033" r="4" fill="#0" id="circle183"/>
	<circle cx="766.825" cy="439.432" r="4" fill="#0" id="circle184"/>
	<circle cx="766.825" cy="477.083" r="4" fill="#0" id="circle185"/>
	<circle cx="766.825" cy="493.452" r="4" fill="#0" id="circle186"/>
	<circle cx="770.099" cy="920.7" r="4" fill="#0" id="circle187"/>
	<circle cx="771.736" cy="848.673" r="4" fill="#0" id="circle188"/>
	<circle cx="775.01" cy="508.185" r="4" fill="#0" id="circle189"/>
	<circle cx="775.01" cy="722.627" r="4" fill="#0" id="circle190"/>
	<circle cx="781.558" cy="431.248" r="4" fill="#0" id="circle191"/>
	<circle cx="783.195" cy="98.9439" r="4" fill="#0" id="circle192"/>
	<circle cx="783.195" cy="861.769" r="4" fill="#0" id="circle193"/>
	<circle cx="786.469" cy="521.281" r="4" fill="#0" id="circle194"/>
	<circle cx="786.469" cy="912.515" r="4" fill="#0" id="circle195"/>
	<circle cx="791.38" cy="725.901" r="4" fill="#0" id="circle196"/>
	<circle cx="794.653" cy="112.04" r="4" fill="#0" id="circle197"/>
	<circle cx="796.29" cy="423.063" r="4" fill="#0" id="circle198"/>
	<circle cx="796.29" cy="873.228" r="4" fill="#0" id="circle199"/>
	<circle cx="799.564" cy="532.739" r="4" fill="#0" id="circle200"/>
	<circle cx="802.838" cy="904.33" r="4" fill="#0" id="circle201"/>
	<circle cx="806.112" cy="734.086" r="4" fill="#0" id="circle202"/>
	<circle cx="807.749" cy="123.498" r="4" fill="#0" id="circle203"/>
	<circle cx="807.749" cy="259.366" r="4" fill="#0" id="circle204"/>
	<circle cx="807.749" cy="886.323" r="4" fill="#0" id="circle205"/>
	<circle cx="811.023" cy="414.878" r="4" fill="#0" id="circle206"/>
	<circle cx="811.023" cy="545.835" r="4" fill="#0" id="circle207"/>
	<circle cx="815.934" cy="138.231" r="4" fill="#0" id="circle208"/>
	<circle cx="815.934" cy="242.997" r="4" fill="#0" id="circle209"/>
	<circle cx="815.934" cy="274.099" r="4" fill="#0" id="circle210"/>
	<circle cx="822.482" cy="729.175" r="4" fill="#0" id="circle211"/>
	<circle cx="824.119" cy="152.964" r="4" fill="#0" id="circle212"/>
	<circle cx="824.119" cy="202.073" r="4" fill="#0" id="circle213"/>
	<circle cx="824.119" cy="218.442" r="4" fill="#0" id="circle214"/>
	<circle cx="824.119" cy="557.294" r="4" fill="#0" id="circle215"/>
	<circle cx="825.756" cy="406.693" r="4" fill="#0" id="circle216"/>
	<circle cx="827.393" cy="169.333" r="4" fill="#0" id="circle217"/>
	<circle cx="832.304" cy="185.703" r="4" fill="#0" id="circle218"/>
	<circle cx="832.304" cy="279.01" r="4" fill="#0" id="circle219"/>
	<circle cx="835.578" cy="570.389" r="4" fill="#0" id="circle220"/>
	<circle cx="838.851" cy="393.597" r="4" fill="#0" id="circle221"/>
	<circle cx="838.851" cy="720.99" r="4" fill="#0" id="circle222"/>
	<circle cx="843.762" cy="292.106" r="4" fill="#0" id="circle223"/>
	<circle cx="843.762" cy="585.122" r="4" fill="#0" id="circle224"/>
	<circle cx="848.673" cy="365.769" r="4" fill="#0" id="circle225"/>
	<circle cx="848.673" cy="601.492" r="4" fill="#0" id="circle226"/>
	<circle cx="848.673" cy="701.347" r="4" fill="#0" id="circle227"/>
	<circle cx="851.947" cy="306.838" r="4" fill="#0" id="circle228"/>
	<circle cx="856.858" cy="323.208" r="4" fill="#0" id="circle229"/>
	<circle cx="856.858" cy="349.399" r="4" fill="#0" id="circle230"/>
	<circle cx="856.858" cy="616.224" r="4" fill="#0" id="circle231"/>
	<circle cx="856.858" cy="632.594" r="4" fill="#0" id="circle232"/>
	<circle cx="856.858" cy="668.607" r="4" fill="#0" id="circle233"/>
	<circle cx="856.858" cy="684.977" r="4" fill="#0" id="circle234"/>
	<circle cx="865.043" cy="647.327" r="4" fill="#0" id="circle235"/>
	</g>
</svg>