<?xml version="1.0" encoding="UTF-8" standalone="no"?>
<!-- Created with CurveBenchmark -->
<svg
	xmlns:dc="http://purl.org/dc/elements/1.1/"
	xmlns:cc="http://creativecommons.org/ns#"
	xmlns:rdf="http://www.w3.org/1999/02/22-rdf-syntax-ns#"
	xmlns:svg="http://www.w3.org/2000/svg"
	xmlns="http://www.w3.org/2000/svg"
	xmlns:sodipodi="http://sodipodi.sourceforge.net/DTD/sodipodi-0.dtd"
	xmlns:inkscape="http://www.inkscape.org/namespaces/inkscape"
	width="1000"
	height="1000"
	id="svg2"
	version="1.1"
	sodipodi:docname="manifold/gathang-flightbird08.png.txt">
<defs
	id="defs4" />
<metadata
	id="metadata7">
	<rdf:RDF>
		<cc:Work
			rdf:about="">
			<dc:format>image/svg+xml</dc:format>
			<dc:type
				rdf:resource="http://purl.org/dc/dcmitype/StillImage" />
			<dc:title></dc:title>
		</cc:Work>
	</rdf:RDF>
</metadata>
<g
	inkscape:label="Layer 1"
	inkscape:groupmode="layer"
	id="layer1">
	<path style="fill:none;stroke:red;stroke-width:1px;stroke-linecap:butt;stroke-linejoin:miter;stroke-opacity:1" d="M 287.429,341.415 304.299,341.415 z" id="boundary" inkscape:connector-curvature="0" />
	<path style="fill:none;stroke:red;stroke-width:1px;stroke-linecap:butt;stroke-linejoin:miter;stroke-opacity:1" d="M 246.939,358.286 263.81,358.286 z" id="boundary" inkscape:connector-curvature="0" />
	<path style="fill:none;stroke:red;stroke-width:1px;stroke-linecap:butt;stroke-linejoin:miter;stroke-opacity:1" d="M 231.755,366.721 246.939,358.286 z" id="boundary" inkscape:connector-curvature="0" />
	<path style="fill:none;stroke:red;stroke-width:1px;stroke-linecap:butt;stroke-linejoin:miter;stroke-opacity:1" d="M 280.68,358.286 263.81,358.286 z" id="boundary" inkscape:connector-curvature="0" />
	<path style="fill:none;stroke:red;stroke-width:1px;stroke-linecap:butt;stroke-linejoin:miter;stroke-opacity:1" d="M 332.98,245.252 332.98,262.122 z" id="boundary" inkscape:connector-curvature="0" />
	<path style="fill:none;stroke:red;stroke-width:1px;stroke-linecap:butt;stroke-linejoin:miter;stroke-opacity:1" d="M 341.415,277.306 332.98,262.122 z" id="boundary" inkscape:connector-curvature="0" />
	<path style="fill:none;stroke:red;stroke-width:1px;stroke-linecap:butt;stroke-linejoin:miter;stroke-opacity:1" d="M 334.667,324.544 317.796,327.918 z" id="boundary" inkscape:connector-curvature="0" />
	<path style="fill:none;stroke:red;stroke-width:1px;stroke-linecap:butt;stroke-linejoin:miter;stroke-opacity:1" d="M 341.415,294.177 334.667,324.544 z" id="boundary" inkscape:connector-curvature="0" />
	<path style="fill:none;stroke:red;stroke-width:1px;stroke-linecap:butt;stroke-linejoin:miter;stroke-opacity:1" d="M 341.415,277.306 341.415,294.177 z" id="boundary" inkscape:connector-curvature="0" />
	<path style="fill:none;stroke:red;stroke-width:1px;stroke-linecap:butt;stroke-linejoin:miter;stroke-opacity:1" d="M 332.98,245.252 332.98,228.381 z" id="boundary" inkscape:connector-curvature="0" />
	<path style="fill:none;stroke:red;stroke-width:1px;stroke-linecap:butt;stroke-linejoin:miter;stroke-opacity:1" d="M 332.98,228.381 349.85,223.32 z" id="boundary" inkscape:connector-curvature="0" />
	<path style="fill:none;stroke:red;stroke-width:1px;stroke-linecap:butt;stroke-linejoin:miter;stroke-opacity:1" d="M 138.966,430.83 130.531,447.701 z" id="boundary" inkscape:connector-curvature="0" />
	<path style="fill:none;stroke:red;stroke-width:1px;stroke-linecap:butt;stroke-linejoin:miter;stroke-opacity:1" d="M 130.531,447.701 113.66,456.136 z" id="boundary" inkscape:connector-curvature="0" />
	<path style="fill:none;stroke:red;stroke-width:1px;stroke-linecap:butt;stroke-linejoin:miter;stroke-opacity:1" d="M 138.966,430.83 155.837,413.959 z" id="boundary" inkscape:connector-curvature="0" />
	<path style="fill:none;stroke:red;stroke-width:1px;stroke-linecap:butt;stroke-linejoin:miter;stroke-opacity:1" d="M 105.224,481.442 113.66,456.136 z" id="boundary" inkscape:connector-curvature="0" />
	<path style="fill:none;stroke:red;stroke-width:1px;stroke-linecap:butt;stroke-linejoin:miter;stroke-opacity:1" d="M 105.224,481.442 105.224,498.313 z" id="boundary" inkscape:connector-curvature="0" />
	<path style="fill:none;stroke:red;stroke-width:1px;stroke-linecap:butt;stroke-linejoin:miter;stroke-opacity:1" d="M 105.224,498.313 88.3537,506.748 z" id="boundary" inkscape:connector-curvature="0" />
	<path style="fill:none;stroke:red;stroke-width:1px;stroke-linecap:butt;stroke-linejoin:miter;stroke-opacity:1" d="M 79.9184,523.619 88.3537,506.748 z" id="boundary" inkscape:connector-curvature="0" />
	<path style="fill:none;stroke:red;stroke-width:1px;stroke-linecap:butt;stroke-linejoin:miter;stroke-opacity:1" d="M 214.884,371.782 231.755,366.721 z" id="boundary" inkscape:connector-curvature="0" />
	<path style="fill:none;stroke:red;stroke-width:1px;stroke-linecap:butt;stroke-linejoin:miter;stroke-opacity:1" d="M 214.884,371.782 198.014,375.156 z" id="boundary" inkscape:connector-curvature="0" />
	<path style="fill:none;stroke:red;stroke-width:1px;stroke-linecap:butt;stroke-linejoin:miter;stroke-opacity:1" d="M 164.272,397.088 181.143,380.218 z" id="boundary" inkscape:connector-curvature="0" />
	<path style="fill:none;stroke:red;stroke-width:1px;stroke-linecap:butt;stroke-linejoin:miter;stroke-opacity:1" d="M 181.143,380.218 198.014,375.156 z" id="boundary" inkscape:connector-curvature="0" />
	<path style="fill:none;stroke:red;stroke-width:1px;stroke-linecap:butt;stroke-linejoin:miter;stroke-opacity:1" d="M 164.272,397.088 155.837,413.959 z" id="boundary" inkscape:connector-curvature="0" />
	<path style="fill:none;stroke:red;stroke-width:1px;stroke-linecap:butt;stroke-linejoin:miter;stroke-opacity:1" d="M 383.592,223.32 366.721,223.32 z" id="boundary" inkscape:connector-curvature="0" />
	<path style="fill:none;stroke:red;stroke-width:1px;stroke-linecap:butt;stroke-linejoin:miter;stroke-opacity:1" d="M 366.721,223.32 349.85,223.32 z" id="boundary" inkscape:connector-curvature="0" />
	<path style="fill:none;stroke:red;stroke-width:1px;stroke-linecap:butt;stroke-linejoin:miter;stroke-opacity:1" d="M 383.592,223.32 398.776,231.755 z" id="boundary" inkscape:connector-curvature="0" />
	<path style="fill:none;stroke:red;stroke-width:1px;stroke-linecap:butt;stroke-linejoin:miter;stroke-opacity:1" d="M 467.946,203.075 464.571,223.32 z" id="boundary" inkscape:connector-curvature="0" />
	<path style="fill:none;stroke:red;stroke-width:1px;stroke-linecap:butt;stroke-linejoin:miter;stroke-opacity:1" d="M 464.571,223.32 447.701,231.755 z" id="boundary" inkscape:connector-curvature="0" />
	<path style="fill:none;stroke:red;stroke-width:1px;stroke-linecap:butt;stroke-linejoin:miter;stroke-opacity:1" d="M 467.946,203.075 484.816,194.639 z" id="boundary" inkscape:connector-curvature="0" />
	<path style="fill:none;stroke:red;stroke-width:1px;stroke-linecap:butt;stroke-linejoin:miter;stroke-opacity:1" d="M 535.429,118.721 523.619,138.966 z" id="boundary" inkscape:connector-curvature="0" />
	<path style="fill:none;stroke:red;stroke-width:1px;stroke-linecap:butt;stroke-linejoin:miter;stroke-opacity:1" d="M 523.619,138.966 510.122,152.463 z" id="boundary" inkscape:connector-curvature="0" />
	<path style="fill:none;stroke:red;stroke-width:1px;stroke-linecap:butt;stroke-linejoin:miter;stroke-opacity:1" d="M 484.816,194.639 493.252,177.769 z" id="boundary" inkscape:connector-curvature="0" />
	<path style="fill:none;stroke:red;stroke-width:1px;stroke-linecap:butt;stroke-linejoin:miter;stroke-opacity:1" d="M 548.925,105.224 535.429,118.721 z" id="boundary" inkscape:connector-curvature="0" />
	<path style="fill:none;stroke:red;stroke-width:1px;stroke-linecap:butt;stroke-linejoin:miter;stroke-opacity:1" d="M 415.646,233.442 398.776,231.755 z" id="boundary" inkscape:connector-curvature="0" />
	<path style="fill:none;stroke:red;stroke-width:1px;stroke-linecap:butt;stroke-linejoin:miter;stroke-opacity:1" d="M 424.082,248.626 415.646,233.442 z" id="boundary" inkscape:connector-curvature="0" />
	<path style="fill:none;stroke:red;stroke-width:1px;stroke-linecap:butt;stroke-linejoin:miter;stroke-opacity:1" d="M 424.082,248.626 440.952,248.626 z" id="boundary" inkscape:connector-curvature="0" />
	<path style="fill:none;stroke:red;stroke-width:1px;stroke-linecap:butt;stroke-linejoin:miter;stroke-opacity:1" d="M 447.701,231.755 440.952,248.626 z" id="boundary" inkscape:connector-curvature="0" />
	<path style="fill:none;stroke:red;stroke-width:1px;stroke-linecap:butt;stroke-linejoin:miter;stroke-opacity:1" d="M 501.687,486.503 518.558,481.442 z" id="boundary" inkscape:connector-curvature="0" />
	<path style="fill:none;stroke:red;stroke-width:1px;stroke-linecap:butt;stroke-linejoin:miter;stroke-opacity:1" d="M 535.429,478.068 518.558,481.442 z" id="boundary" inkscape:connector-curvature="0" />
	<path style="fill:none;stroke:red;stroke-width:1px;stroke-linecap:butt;stroke-linejoin:miter;stroke-opacity:1" d="M 535.429,478.068 535.429,494.939 z" id="boundary" inkscape:connector-curvature="0" />
	<path style="fill:none;stroke:red;stroke-width:1px;stroke-linecap:butt;stroke-linejoin:miter;stroke-opacity:1" d="M 459.51,511.81 474.694,503.374 z" id="boundary" inkscape:connector-curvature="0" />
	<path style="fill:none;stroke:red;stroke-width:1px;stroke-linecap:butt;stroke-linejoin:miter;stroke-opacity:1" d="M 474.694,503.374 491.565,500 z" id="boundary" inkscape:connector-curvature="0" />
	<path style="fill:none;stroke:red;stroke-width:1px;stroke-linecap:butt;stroke-linejoin:miter;stroke-opacity:1" d="M 501.687,486.503 491.565,500 z" id="boundary" inkscape:connector-curvature="0" />
	<path style="fill:none;stroke:red;stroke-width:1px;stroke-linecap:butt;stroke-linejoin:miter;stroke-opacity:1" d="M 535.429,494.939 545.551,508.435 z" id="boundary" inkscape:connector-curvature="0" />
	<path style="fill:none;stroke:red;stroke-width:1px;stroke-linecap:butt;stroke-linejoin:miter;stroke-opacity:1" d="M 562.422,515.184 545.551,508.435 z" id="boundary" inkscape:connector-curvature="0" />
	<path style="fill:none;stroke:red;stroke-width:1px;stroke-linecap:butt;stroke-linejoin:miter;stroke-opacity:1" d="M 29.3061,650.15 29.3061,633.279 z" id="boundary" inkscape:connector-curvature="0" />
	<path style="fill:none;stroke:red;stroke-width:1px;stroke-linecap:butt;stroke-linejoin:miter;stroke-opacity:1" d="M 29.3061,633.279 37.7415,616.408 z" id="boundary" inkscape:connector-curvature="0" />
	<path style="fill:none;stroke:red;stroke-width:1px;stroke-linecap:butt;stroke-linejoin:miter;stroke-opacity:1" d="M 12.4354,667.02 29.3061,650.15 z" id="boundary" inkscape:connector-curvature="0" />
	<path style="fill:none;stroke:red;stroke-width:1px;stroke-linecap:butt;stroke-linejoin:miter;stroke-opacity:1" d="M 12.4354,683.891 12.4354,667.02 z" id="boundary" inkscape:connector-curvature="0" />
	<path style="fill:none;stroke:red;stroke-width:1px;stroke-linecap:butt;stroke-linejoin:miter;stroke-opacity:1" d="M 37.7415,599.537 37.7415,616.408 z" id="boundary" inkscape:connector-curvature="0" />
	<path style="fill:none;stroke:red;stroke-width:1px;stroke-linecap:butt;stroke-linejoin:miter;stroke-opacity:1" d="M 79.9184,523.619 79.9184,540.49 z" id="boundary" inkscape:connector-curvature="0" />
	<path style="fill:none;stroke:red;stroke-width:1px;stroke-linecap:butt;stroke-linejoin:miter;stroke-opacity:1" d="M 63.0476,565.796 63.0476,548.925 z" id="boundary" inkscape:connector-curvature="0" />
	<path style="fill:none;stroke:red;stroke-width:1px;stroke-linecap:butt;stroke-linejoin:miter;stroke-opacity:1" d="M 137.279,680.517 122.095,688.952 z" id="boundary" inkscape:connector-curvature="0" />
	<path style="fill:none;stroke:red;stroke-width:1px;stroke-linecap:butt;stroke-linejoin:miter;stroke-opacity:1" d="M 37.7415,599.537 54.6122,582.667 z" id="boundary" inkscape:connector-curvature="0" />
	<path style="fill:none;stroke:red;stroke-width:1px;stroke-linecap:butt;stroke-linejoin:miter;stroke-opacity:1" d="M 63.0476,565.796 54.6122,582.667 z" id="boundary" inkscape:connector-curvature="0" />
	<path style="fill:none;stroke:red;stroke-width:1px;stroke-linecap:butt;stroke-linejoin:miter;stroke-opacity:1" d="M 4,742.939 4,726.068 z" id="boundary" inkscape:connector-curvature="0" />
	<path style="fill:none;stroke:red;stroke-width:1px;stroke-linecap:butt;stroke-linejoin:miter;stroke-opacity:1" d="M 12.4354,700.762 4,726.068 z" id="boundary" inkscape:connector-curvature="0" />
	<path style="fill:none;stroke:red;stroke-width:1px;stroke-linecap:butt;stroke-linejoin:miter;stroke-opacity:1" d="M 12.4354,683.891 12.4354,700.762 z" id="boundary" inkscape:connector-curvature="0" />
	<path style="fill:none;stroke:red;stroke-width:1px;stroke-linecap:butt;stroke-linejoin:miter;stroke-opacity:1" d="M 51.2381,737.878 37.7415,751.374 z" id="boundary" inkscape:connector-curvature="0" />
	<path style="fill:none;stroke:red;stroke-width:1px;stroke-linecap:butt;stroke-linejoin:miter;stroke-opacity:1" d="M 20.8707,756.435 4,759.81 z" id="boundary" inkscape:connector-curvature="0" />
	<path style="fill:none;stroke:red;stroke-width:1px;stroke-linecap:butt;stroke-linejoin:miter;stroke-opacity:1" d="M 4,759.81 4,742.939 z" id="boundary" inkscape:connector-curvature="0" />
	<path style="fill:none;stroke:red;stroke-width:1px;stroke-linecap:butt;stroke-linejoin:miter;stroke-opacity:1" d="M 37.7415,751.374 20.8707,756.435 z" id="boundary" inkscape:connector-curvature="0" />
	<path style="fill:none;stroke:red;stroke-width:1px;stroke-linecap:butt;stroke-linejoin:miter;stroke-opacity:1" d="M 106.912,697.388 90.0408,705.823 z" id="boundary" inkscape:connector-curvature="0" />
	<path style="fill:none;stroke:red;stroke-width:1px;stroke-linecap:butt;stroke-linejoin:miter;stroke-opacity:1" d="M 106.912,697.388 122.095,688.952 z" id="boundary" inkscape:connector-curvature="0" />
	<path style="fill:none;stroke:red;stroke-width:1px;stroke-linecap:butt;stroke-linejoin:miter;stroke-opacity:1" d="M 81.6054,722.694 90.0408,705.823 z" id="boundary" inkscape:connector-curvature="0" />
	<path style="fill:none;stroke:red;stroke-width:1px;stroke-linecap:butt;stroke-linejoin:miter;stroke-opacity:1" d="M 51.2381,737.878 64.7347,722.694 z" id="boundary" inkscape:connector-curvature="0" />
	<path style="fill:none;stroke:red;stroke-width:1px;stroke-linecap:butt;stroke-linejoin:miter;stroke-opacity:1" d="M 64.7347,722.694 81.6054,722.694 z" id="boundary" inkscape:connector-curvature="0" />
	<path style="fill:none;stroke:red;stroke-width:1px;stroke-linecap:butt;stroke-linejoin:miter;stroke-opacity:1" d="M 383.592,540.49 366.721,545.551 z" id="boundary" inkscape:connector-curvature="0" />
	<path style="fill:none;stroke:red;stroke-width:1px;stroke-linecap:butt;stroke-linejoin:miter;stroke-opacity:1" d="M 351.537,553.986 366.721,545.551 z" id="boundary" inkscape:connector-curvature="0" />
	<path style="fill:none;stroke:red;stroke-width:1px;stroke-linecap:butt;stroke-linejoin:miter;stroke-opacity:1" d="M 351.537,553.986 334.667,553.986 z" id="boundary" inkscape:connector-curvature="0" />
	<path style="fill:none;stroke:red;stroke-width:1px;stroke-linecap:butt;stroke-linejoin:miter;stroke-opacity:1" d="M 324.544,570.857 307.673,570.857 z" id="boundary" inkscape:connector-curvature="0" />
	<path style="fill:none;stroke:red;stroke-width:1px;stroke-linecap:butt;stroke-linejoin:miter;stroke-opacity:1" d="M 383.592,540.49 400.463,537.116 z" id="boundary" inkscape:connector-curvature="0" />
	<path style="fill:none;stroke:red;stroke-width:1px;stroke-linecap:butt;stroke-linejoin:miter;stroke-opacity:1" d="M 307.673,570.857 290.803,574.231 z" id="boundary" inkscape:connector-curvature="0" />
	<path style="fill:none;stroke:red;stroke-width:1px;stroke-linecap:butt;stroke-linejoin:miter;stroke-opacity:1" d="M 459.51,511.81 442.639,511.81 z" id="boundary" inkscape:connector-curvature="0" />
	<path style="fill:none;stroke:red;stroke-width:1px;stroke-linecap:butt;stroke-linejoin:miter;stroke-opacity:1" d="M 427.456,520.245 442.639,511.81 z" id="boundary" inkscape:connector-curvature="0" />
	<path style="fill:none;stroke:red;stroke-width:1px;stroke-linecap:butt;stroke-linejoin:miter;stroke-opacity:1" d="M 410.585,520.245 427.456,520.245 z" id="boundary" inkscape:connector-curvature="0" />
	<path style="fill:none;stroke:red;stroke-width:1px;stroke-linecap:butt;stroke-linejoin:miter;stroke-opacity:1" d="M 191.265,629.905 208.136,629.905 z" id="boundary" inkscape:connector-curvature="0" />
	<path style="fill:none;stroke:red;stroke-width:1px;stroke-linecap:butt;stroke-linejoin:miter;stroke-opacity:1" d="M 179.456,651.837 162.585,660.272 z" id="boundary" inkscape:connector-curvature="0" />
	<path style="fill:none;stroke:red;stroke-width:1px;stroke-linecap:butt;stroke-linejoin:miter;stroke-opacity:1" d="M 223.32,621.469 208.136,629.905 z" id="boundary" inkscape:connector-curvature="0" />
	<path style="fill:none;stroke:red;stroke-width:1px;stroke-linecap:butt;stroke-linejoin:miter;stroke-opacity:1" d="M 162.585,660.272 154.15,677.143 z" id="boundary" inkscape:connector-curvature="0" />
	<path style="fill:none;stroke:red;stroke-width:1px;stroke-linecap:butt;stroke-linejoin:miter;stroke-opacity:1" d="M 154.15,677.143 137.279,680.517 z" id="boundary" inkscape:connector-curvature="0" />
	<path style="fill:none;stroke:red;stroke-width:1px;stroke-linecap:butt;stroke-linejoin:miter;stroke-opacity:1" d="M 290.803,574.231 277.306,587.728 z" id="boundary" inkscape:connector-curvature="0" />
	<path style="fill:none;stroke:red;stroke-width:1px;stroke-linecap:butt;stroke-linejoin:miter;stroke-opacity:1" d="M 277.306,587.728 260.435,587.728 z" id="boundary" inkscape:connector-curvature="0" />
	<path style="fill:none;stroke:red;stroke-width:1px;stroke-linecap:butt;stroke-linejoin:miter;stroke-opacity:1" d="M 260.435,587.728 245.252,596.163 z" id="boundary" inkscape:connector-curvature="0" />
	<path style="fill:none;stroke:red;stroke-width:1px;stroke-linecap:butt;stroke-linejoin:miter;stroke-opacity:1" d="M 245.252,596.163 236.816,611.347 z" id="boundary" inkscape:connector-curvature="0" />
	<path style="fill:none;stroke:red;stroke-width:1px;stroke-linecap:butt;stroke-linejoin:miter;stroke-opacity:1" d="M 236.816,611.347 223.32,621.469 z" id="boundary" inkscape:connector-curvature="0" />
	<path style="fill:none;stroke:red;stroke-width:1px;stroke-linecap:butt;stroke-linejoin:miter;stroke-opacity:1" d="M 721.007,42.8027 704.136,46.1769 z" id="boundary" inkscape:connector-curvature="0" />
	<path style="fill:none;stroke:red;stroke-width:1px;stroke-linecap:butt;stroke-linejoin:miter;stroke-opacity:1" d="M 737.878,37.7415 721.007,42.8027 z" id="boundary" inkscape:connector-curvature="0" />
	<path style="fill:none;stroke:red;stroke-width:1px;stroke-linecap:butt;stroke-linejoin:miter;stroke-opacity:1" d="M 687.265,51.2381 672.082,63.0476 z" id="boundary" inkscape:connector-curvature="0" />
	<path style="fill:none;stroke:red;stroke-width:1px;stroke-linecap:butt;stroke-linejoin:miter;stroke-opacity:1" d="M 672.082,63.0476 655.211,63.0476 z" id="boundary" inkscape:connector-curvature="0" />
	<path style="fill:none;stroke:red;stroke-width:1px;stroke-linecap:butt;stroke-linejoin:miter;stroke-opacity:1" d="M 687.265,51.2381 704.136,46.1769 z" id="boundary" inkscape:connector-curvature="0" />
	<path style="fill:none;stroke:red;stroke-width:1px;stroke-linecap:butt;stroke-linejoin:miter;stroke-opacity:1" d="M 640.027,71.483 655.211,63.0476 z" id="boundary" inkscape:connector-curvature="0" />
	<path style="fill:none;stroke:red;stroke-width:1px;stroke-linecap:butt;stroke-linejoin:miter;stroke-opacity:1" d="M 786.803,29.3061 769.932,29.3061 z" id="boundary" inkscape:connector-curvature="0" />
	<path style="fill:none;stroke:red;stroke-width:1px;stroke-linecap:butt;stroke-linejoin:miter;stroke-opacity:1" d="M 815.483,15.8095 803.673,29.3061 z" id="boundary" inkscape:connector-curvature="0" />
	<path style="fill:none;stroke:red;stroke-width:1px;stroke-linecap:butt;stroke-linejoin:miter;stroke-opacity:1" d="M 803.673,29.3061 786.803,29.3061 z" id="boundary" inkscape:connector-curvature="0" />
	<path style="fill:none;stroke:red;stroke-width:1px;stroke-linecap:butt;stroke-linejoin:miter;stroke-opacity:1" d="M 754.748,37.7415 769.932,29.3061 z" id="boundary" inkscape:connector-curvature="0" />
	<path style="fill:none;stroke:red;stroke-width:1px;stroke-linecap:butt;stroke-linejoin:miter;stroke-opacity:1" d="M 754.748,37.7415 737.878,37.7415 z" id="boundary" inkscape:connector-curvature="0" />
	<path style="fill:none;stroke:red;stroke-width:1px;stroke-linecap:butt;stroke-linejoin:miter;stroke-opacity:1" d="M 830.667,157.524 820.544,171.02 z" id="boundary" inkscape:connector-curvature="0" />
	<path style="fill:none;stroke:red;stroke-width:1px;stroke-linecap:butt;stroke-linejoin:miter;stroke-opacity:1" d="M 623.156,73.1701 606.286,79.9184 z" id="boundary" inkscape:connector-curvature="0" />
	<path style="fill:none;stroke:red;stroke-width:1px;stroke-linecap:butt;stroke-linejoin:miter;stroke-opacity:1" d="M 591.102,88.3537 606.286,79.9184 z" id="boundary" inkscape:connector-curvature="0" />
	<path style="fill:none;stroke:red;stroke-width:1px;stroke-linecap:butt;stroke-linejoin:miter;stroke-opacity:1" d="M 591.102,88.3537 574.231,88.3537 z" id="boundary" inkscape:connector-curvature="0" />
	<path style="fill:none;stroke:red;stroke-width:1px;stroke-linecap:butt;stroke-linejoin:miter;stroke-opacity:1" d="M 565.796,105.224 548.925,105.224 z" id="boundary" inkscape:connector-curvature="0" />
	<path style="fill:none;stroke:red;stroke-width:1px;stroke-linecap:butt;stroke-linejoin:miter;stroke-opacity:1" d="M 623.156,73.1701 640.027,71.483 z" id="boundary" inkscape:connector-curvature="0" />
	<path style="fill:none;stroke:red;stroke-width:1px;stroke-linecap:butt;stroke-linejoin:miter;stroke-opacity:1" d="M 791.864,191.265 776.68,199.701 z" id="boundary" inkscape:connector-curvature="0" />
	<path style="fill:none;stroke:red;stroke-width:1px;stroke-linecap:butt;stroke-linejoin:miter;stroke-opacity:1" d="M 820.544,171.02 807.048,182.83 z" id="boundary" inkscape:connector-curvature="0" />
	<path style="fill:none;stroke:red;stroke-width:1px;stroke-linecap:butt;stroke-linejoin:miter;stroke-opacity:1" d="M 807.048,182.83 791.864,191.265 z" id="boundary" inkscape:connector-curvature="0" />
	<path style="fill:none;stroke:red;stroke-width:1px;stroke-linecap:butt;stroke-linejoin:miter;stroke-opacity:1" d="M 768.245,214.884 776.68,199.701 z" id="boundary" inkscape:connector-curvature="0" />
	<path style="fill:none;stroke:red;stroke-width:1px;stroke-linecap:butt;stroke-linejoin:miter;stroke-opacity:1" d="M 768.245,214.884 754.748,225.007 z" id="boundary" inkscape:connector-curvature="0" />
	<path style="fill:none;stroke:red;stroke-width:1px;stroke-linecap:butt;stroke-linejoin:miter;stroke-opacity:1" d="M 815.483,15.8095 832.354,12.4354 z" id="boundary" inkscape:connector-curvature="0" />
	<path style="fill:none;stroke:red;stroke-width:1px;stroke-linecap:butt;stroke-linejoin:miter;stroke-opacity:1" d="M 881.279,4 898.15,4 z" id="boundary" inkscape:connector-curvature="0" />
	<path style="fill:none;stroke:red;stroke-width:1px;stroke-linecap:butt;stroke-linejoin:miter;stroke-opacity:1" d="M 866.095,12.4354 881.279,4 z" id="boundary" inkscape:connector-curvature="0" />
	<path style="fill:none;stroke:red;stroke-width:1px;stroke-linecap:butt;stroke-linejoin:miter;stroke-opacity:1" d="M 849.224,12.4354 832.354,12.4354 z" id="boundary" inkscape:connector-curvature="0" />
	<path style="fill:none;stroke:red;stroke-width:1px;stroke-linecap:butt;stroke-linejoin:miter;stroke-opacity:1" d="M 866.095,12.4354 849.224,12.4354 z" id="boundary" inkscape:connector-curvature="0" />
	<path style="fill:none;stroke:red;stroke-width:1px;stroke-linecap:butt;stroke-linejoin:miter;stroke-opacity:1" d="M 915.02,4 931.891,4 z" id="boundary" inkscape:connector-curvature="0" />
	<path style="fill:none;stroke:red;stroke-width:1px;stroke-linecap:butt;stroke-linejoin:miter;stroke-opacity:1" d="M 931.891,4 948.762,4 z" id="boundary" inkscape:connector-curvature="0" />
	<path style="fill:none;stroke:red;stroke-width:1px;stroke-linecap:butt;stroke-linejoin:miter;stroke-opacity:1" d="M 965.633,4 982.503,4 z" id="boundary" inkscape:connector-curvature="0" />
	<path style="fill:none;stroke:red;stroke-width:1px;stroke-linecap:butt;stroke-linejoin:miter;stroke-opacity:1" d="M 948.762,4 965.633,4 z" id="boundary" inkscape:connector-curvature="0" />
	<path style="fill:none;stroke:red;stroke-width:1px;stroke-linecap:butt;stroke-linejoin:miter;stroke-opacity:1" d="M 898.15,4 915.02,4 z" id="boundary" inkscape:connector-curvature="0" />
	<path style="fill:none;stroke:red;stroke-width:1px;stroke-linecap:butt;stroke-linejoin:miter;stroke-opacity:1" d="M 982.503,4 996,14.1224 z" id="boundary" inkscape:connector-curvature="0" />
	<path style="fill:none;stroke:red;stroke-width:1px;stroke-linecap:butt;stroke-linejoin:miter;stroke-opacity:1" d="M 996,14.1224 984.19,30.9932 z" id="boundary" inkscape:connector-curvature="0" />
	<path style="fill:none;stroke:red;stroke-width:1px;stroke-linecap:butt;stroke-linejoin:miter;stroke-opacity:1" d="M 899.837,90.0408 886.34,113.66 z" id="boundary" inkscape:connector-curvature="0" />
	<path style="fill:none;stroke:red;stroke-width:1px;stroke-linecap:butt;stroke-linejoin:miter;stroke-opacity:1" d="M 886.34,113.66 869.469,122.095 z" id="boundary" inkscape:connector-curvature="0" />
	<path style="fill:none;stroke:red;stroke-width:1px;stroke-linecap:butt;stroke-linejoin:miter;stroke-opacity:1" d="M 899.837,90.0408 916.707,81.6054 z" id="boundary" inkscape:connector-curvature="0" />
	<path style="fill:none;stroke:red;stroke-width:1px;stroke-linecap:butt;stroke-linejoin:miter;stroke-opacity:1" d="M 861.034,138.966 869.469,122.095 z" id="boundary" inkscape:connector-curvature="0" />
	<path style="fill:none;stroke:red;stroke-width:1px;stroke-linecap:butt;stroke-linejoin:miter;stroke-opacity:1" d="M 844.163,147.401 861.034,138.966 z" id="boundary" inkscape:connector-curvature="0" />
	<path style="fill:none;stroke:red;stroke-width:1px;stroke-linecap:butt;stroke-linejoin:miter;stroke-opacity:1" d="M 844.163,147.401 830.667,157.524 z" id="boundary" inkscape:connector-curvature="0" />
	<path style="fill:none;stroke:red;stroke-width:1px;stroke-linecap:butt;stroke-linejoin:miter;stroke-opacity:1" d="M 953.823,47.8639 969.007,39.4286 z" id="boundary" inkscape:connector-curvature="0" />
	<path style="fill:none;stroke:red;stroke-width:1px;stroke-linecap:butt;stroke-linejoin:miter;stroke-opacity:1" d="M 945.388,63.0476 953.823,47.8639 z" id="boundary" inkscape:connector-curvature="0" />
	<path style="fill:none;stroke:red;stroke-width:1px;stroke-linecap:butt;stroke-linejoin:miter;stroke-opacity:1" d="M 984.19,30.9932 969.007,39.4286 z" id="boundary" inkscape:connector-curvature="0" />
	<path style="fill:none;stroke:red;stroke-width:1px;stroke-linecap:butt;stroke-linejoin:miter;stroke-opacity:1" d="M 931.891,73.1701 916.707,81.6054 z" id="boundary" inkscape:connector-curvature="0" />
	<path style="fill:none;stroke:red;stroke-width:1px;stroke-linecap:butt;stroke-linejoin:miter;stroke-opacity:1" d="M 945.388,63.0476 931.891,73.1701 z" id="boundary" inkscape:connector-curvature="0" />
	<path style="fill:none;stroke:red;stroke-width:1px;stroke-linecap:butt;stroke-linejoin:miter;stroke-opacity:1" d="M 613.034,402.15 628.218,393.714 z" id="boundary" inkscape:connector-curvature="0" />
	<path style="fill:none;stroke:red;stroke-width:1px;stroke-linecap:butt;stroke-linejoin:miter;stroke-opacity:1" d="M 638.34,368.408 628.218,393.714 z" id="boundary" inkscape:connector-curvature="0" />
	<path style="fill:none;stroke:red;stroke-width:1px;stroke-linecap:butt;stroke-linejoin:miter;stroke-opacity:1" d="M 604.599,425.769 596.163,410.585 z" id="boundary" inkscape:connector-curvature="0" />
	<path style="fill:none;stroke:red;stroke-width:1px;stroke-linecap:butt;stroke-linejoin:miter;stroke-opacity:1" d="M 596.163,410.585 613.034,402.15 z" id="boundary" inkscape:connector-curvature="0" />
	<path style="fill:none;stroke:red;stroke-width:1px;stroke-linecap:butt;stroke-linejoin:miter;stroke-opacity:1" d="M 618.095,435.891 604.599,425.769 z" id="boundary" inkscape:connector-curvature="0" />
	<path style="fill:none;stroke:red;stroke-width:1px;stroke-linecap:butt;stroke-linejoin:miter;stroke-opacity:1" d="M 633.279,444.327 618.095,435.891 z" id="boundary" inkscape:connector-curvature="0" />
	<path style="fill:none;stroke:red;stroke-width:1px;stroke-linecap:butt;stroke-linejoin:miter;stroke-opacity:1" d="M 672.082,326.231 663.646,343.102 z" id="boundary" inkscape:connector-curvature="0" />
	<path style="fill:none;stroke:red;stroke-width:1px;stroke-linecap:butt;stroke-linejoin:miter;stroke-opacity:1" d="M 663.646,343.102 653.524,359.973 z" id="boundary" inkscape:connector-curvature="0" />
	<path style="fill:none;stroke:red;stroke-width:1px;stroke-linecap:butt;stroke-linejoin:miter;stroke-opacity:1" d="M 653.524,359.973 638.34,368.408 z" id="boundary" inkscape:connector-curvature="0" />
	<path style="fill:none;stroke:red;stroke-width:1px;stroke-linecap:butt;stroke-linejoin:miter;stroke-opacity:1" d="M 658.585,469.633 646.776,456.136 z" id="boundary" inkscape:connector-curvature="0" />
	<path style="fill:none;stroke:red;stroke-width:1px;stroke-linecap:butt;stroke-linejoin:miter;stroke-opacity:1" d="M 646.776,456.136 633.279,444.327 z" id="boundary" inkscape:connector-curvature="0" />
	<path style="fill:none;stroke:red;stroke-width:1px;stroke-linecap:butt;stroke-linejoin:miter;stroke-opacity:1" d="M 594.476,553.986 579.293,545.551 z" id="boundary" inkscape:connector-curvature="0" />
	<path style="fill:none;stroke:red;stroke-width:1px;stroke-linecap:butt;stroke-linejoin:miter;stroke-opacity:1" d="M 579.293,545.551 569.17,532.054 z" id="boundary" inkscape:connector-curvature="0" />
	<path style="fill:none;stroke:red;stroke-width:1px;stroke-linecap:butt;stroke-linejoin:miter;stroke-opacity:1" d="M 562.422,515.184 569.17,532.054 z" id="boundary" inkscape:connector-curvature="0" />
	<path style="fill:none;stroke:red;stroke-width:1px;stroke-linecap:butt;stroke-linejoin:miter;stroke-opacity:1" d="M 616.408,577.605 599.537,570.857 z" id="boundary" inkscape:connector-curvature="0" />
	<path style="fill:none;stroke:red;stroke-width:1px;stroke-linecap:butt;stroke-linejoin:miter;stroke-opacity:1" d="M 599.537,570.857 594.476,553.986 z" id="boundary" inkscape:connector-curvature="0" />
	<path style="fill:none;stroke:red;stroke-width:1px;stroke-linecap:butt;stroke-linejoin:miter;stroke-opacity:1" d="M 616.408,577.605 623.156,594.476 z" id="boundary" inkscape:connector-curvature="0" />
	<path style="fill:none;stroke:red;stroke-width:1px;stroke-linecap:butt;stroke-linejoin:miter;stroke-opacity:1" d="M 636.653,604.599 623.156,594.476 z" id="boundary" inkscape:connector-curvature="0" />
	<path style="fill:none;stroke:red;stroke-width:1px;stroke-linecap:butt;stroke-linejoin:miter;stroke-opacity:1" d="M 636.653,604.599 646.776,618.095 z" id="boundary" inkscape:connector-curvature="0" />
	<path style="fill:none;stroke:red;stroke-width:1px;stroke-linecap:butt;stroke-linejoin:miter;stroke-opacity:1" d="M 646.776,618.095 663.646,624.844 z" id="boundary" inkscape:connector-curvature="0" />
	<path style="fill:none;stroke:red;stroke-width:1px;stroke-linecap:butt;stroke-linejoin:miter;stroke-opacity:1" d="M 663.646,624.844 670.395,641.714 z" id="boundary" inkscape:connector-curvature="0" />
	<path style="fill:none;stroke:red;stroke-width:1px;stroke-linecap:butt;stroke-linejoin:miter;stroke-opacity:1" d="M 687.265,646.776 670.395,641.714 z" id="boundary" inkscape:connector-curvature="0" />
	<path style="fill:none;stroke:red;stroke-width:1px;stroke-linecap:butt;stroke-linejoin:miter;stroke-opacity:1" d="M 658.585,469.633 672.082,481.442 z" id="boundary" inkscape:connector-curvature="0" />
	<path style="fill:none;stroke:red;stroke-width:1px;stroke-linecap:butt;stroke-linejoin:miter;stroke-opacity:1" d="M 672.082,326.231 688.952,317.796 z" id="boundary" inkscape:connector-curvature="0" />
	<path style="fill:none;stroke:red;stroke-width:1px;stroke-linecap:butt;stroke-linejoin:miter;stroke-opacity:1" d="M 687.265,489.878 672.082,481.442 z" id="boundary" inkscape:connector-curvature="0" />
	<path style="fill:none;stroke:red;stroke-width:1px;stroke-linecap:butt;stroke-linejoin:miter;stroke-opacity:1" d="M 697.388,292.49 688.952,317.796 z" id="boundary" inkscape:connector-curvature="0" />
	<path style="fill:none;stroke:red;stroke-width:1px;stroke-linecap:butt;stroke-linejoin:miter;stroke-opacity:1" d="M 710.884,513.497 695.701,505.061 z" id="boundary" inkscape:connector-curvature="0" />
	<path style="fill:none;stroke:red;stroke-width:1px;stroke-linecap:butt;stroke-linejoin:miter;stroke-opacity:1" d="M 695.701,505.061 687.265,489.878 z" id="boundary" inkscape:connector-curvature="0" />
	<path style="fill:none;stroke:red;stroke-width:1px;stroke-linecap:butt;stroke-linejoin:miter;stroke-opacity:1" d="M 710.884,513.497 722.694,526.993 z" id="boundary" inkscape:connector-curvature="0" />
	<path style="fill:none;stroke:red;stroke-width:1px;stroke-linecap:butt;stroke-linejoin:miter;stroke-opacity:1" d="M 697.388,292.49 714.259,284.054 z" id="boundary" inkscape:connector-curvature="0" />
	<path style="fill:none;stroke:red;stroke-width:1px;stroke-linecap:butt;stroke-linejoin:miter;stroke-opacity:1" d="M 722.694,250.313 739.565,233.442 z" id="boundary" inkscape:connector-curvature="0" />
	<path style="fill:none;stroke:red;stroke-width:1px;stroke-linecap:butt;stroke-linejoin:miter;stroke-opacity:1" d="M 754.748,225.007 739.565,233.442 z" id="boundary" inkscape:connector-curvature="0" />
	<path style="fill:none;stroke:red;stroke-width:1px;stroke-linecap:butt;stroke-linejoin:miter;stroke-opacity:1" d="M 714.259,284.054 714.259,267.184 z" id="boundary" inkscape:connector-curvature="0" />
	<path style="fill:none;stroke:red;stroke-width:1px;stroke-linecap:butt;stroke-linejoin:miter;stroke-opacity:1" d="M 714.259,267.184 722.694,250.313 z" id="boundary" inkscape:connector-curvature="0" />
	<path style="fill:none;stroke:red;stroke-width:1px;stroke-linecap:butt;stroke-linejoin:miter;stroke-opacity:1" d="M 736.19,537.116 722.694,526.993 z" id="boundary" inkscape:connector-curvature="0" />
	<path style="fill:none;stroke:red;stroke-width:1px;stroke-linecap:butt;stroke-linejoin:miter;stroke-opacity:1" d="M 742.939,628.218 734.503,645.088 z" id="boundary" inkscape:connector-curvature="0" />
	<path style="fill:none;stroke:red;stroke-width:1px;stroke-linecap:butt;stroke-linejoin:miter;stroke-opacity:1" d="M 734.503,645.088 717.633,646.776 z" id="boundary" inkscape:connector-curvature="0" />
	<path style="fill:none;stroke:red;stroke-width:1px;stroke-linecap:butt;stroke-linejoin:miter;stroke-opacity:1" d="M 742.939,628.218 759.81,619.782 z" id="boundary" inkscape:connector-curvature="0" />
	<path style="fill:none;stroke:red;stroke-width:1px;stroke-linecap:butt;stroke-linejoin:miter;stroke-opacity:1" d="M 717.633,646.776 702.449,655.211 z" id="boundary" inkscape:connector-curvature="0" />
	<path style="fill:none;stroke:red;stroke-width:1px;stroke-linecap:butt;stroke-linejoin:miter;stroke-opacity:1" d="M 702.449,655.211 687.265,646.776 z" id="boundary" inkscape:connector-curvature="0" />
	<path style="fill:none;stroke:red;stroke-width:1px;stroke-linecap:butt;stroke-linejoin:miter;stroke-opacity:1" d="M 736.19,537.116 748,550.612 z" id="boundary" inkscape:connector-curvature="0" />
	<path style="fill:none;stroke:red;stroke-width:1px;stroke-linecap:butt;stroke-linejoin:miter;stroke-opacity:1" d="M 748,550.612 764.871,557.361 z" id="boundary" inkscape:connector-curvature="0" />
	<path style="fill:none;stroke:red;stroke-width:1px;stroke-linecap:butt;stroke-linejoin:miter;stroke-opacity:1" d="M 764.871,557.361 764.871,574.231 z" id="boundary" inkscape:connector-curvature="0" />
	<path style="fill:none;stroke:red;stroke-width:1px;stroke-linecap:butt;stroke-linejoin:miter;stroke-opacity:1" d="M 773.306,589.415 764.871,574.231 z" id="boundary" inkscape:connector-curvature="0" />
	<path style="fill:none;stroke:red;stroke-width:1px;stroke-linecap:butt;stroke-linejoin:miter;stroke-opacity:1" d="M 773.306,589.415 773.306,606.286 z" id="boundary" inkscape:connector-curvature="0" />
	<path style="fill:none;stroke:red;stroke-width:1px;stroke-linecap:butt;stroke-linejoin:miter;stroke-opacity:1" d="M 773.306,606.286 759.81,619.782 z" id="boundary" inkscape:connector-curvature="0" />
	<circle cx="4" cy="726.068" r="4" fill="#0" id="circle0"/>
	<circle cx="4" cy="742.939" r="4" fill="#0" id="circle1"/>
	<circle cx="4" cy="759.81" r="4" fill="#0" id="circle2"/>
	<circle cx="12.4354" cy="667.02" r="4" fill="#0" id="circle3"/>
	<circle cx="12.4354" cy="683.891" r="4" fill="#0" id="circle4"/>
	<circle cx="12.4354" cy="700.762" r="4" fill="#0" id="circle5"/>
	<circle cx="20.8707" cy="756.435" r="4" fill="#0" id="circle6"/>
	<circle cx="29.3061" cy="633.279" r="4" fill="#0" id="circle7"/>
	<circle cx="29.3061" cy="650.15" r="4" fill="#0" id="circle8"/>
	<circle cx="37.7415" cy="599.537" r="4" fill="#0" id="circle9"/>
	<circle cx="37.7415" cy="616.408" r="4" fill="#0" id="circle10"/>
	<circle cx="37.7415" cy="751.374" r="4" fill="#0" id="circle11"/>
	<circle cx="51.2381" cy="737.878" r="4" fill="#0" id="circle12"/>
	<circle cx="54.6122" cy="582.667" r="4" fill="#0" id="circle13"/>
	<circle cx="63.0476" cy="548.925" r="4" fill="#0" id="circle14"/>
	<circle cx="63.0476" cy="565.796" r="4" fill="#0" id="circle15"/>
	<circle cx="64.7347" cy="722.694" r="4" fill="#0" id="circle16"/>
	<circle cx="79.9184" cy="523.619" r="4" fill="#0" id="circle17"/>
	<circle cx="79.9184" cy="540.49" r="4" fill="#0" id="circle18"/>
	<circle cx="81.6054" cy="722.694" r="4" fill="#0" id="circle19"/>
	<circle cx="88.3537" cy="506.748" r="4" fill="#0" id="circle20"/>
	<circle cx="90.0408" cy="705.823" r="4" fill="#0" id="circle21"/>
	<circle cx="105.224" cy="481.442" r="4" fill="#0" id="circle22"/>
	<circle cx="105.224" cy="498.313" r="4" fill="#0" id="circle23"/>
	<circle cx="106.912" cy="697.388" r="4" fill="#0" id="circle24"/>
	<circle cx="113.66" cy="456.136" r="4" fill="#0" id="circle25"/>
	<circle cx="122.095" cy="688.952" r="4" fill="#0" id="circle26"/>
	<circle cx="130.531" cy="447.701" r="4" fill="#0" id="circle27"/>
	<circle cx="137.279" cy="680.517" r="4" fill="#0" id="circle28"/>
	<circle cx="138.966" cy="430.83" r="4" fill="#0" id="circle29"/>
	<circle cx="154.15" cy="677.143" r="4" fill="#0" id="circle30"/>
	<circle cx="155.837" cy="413.959" r="4" fill="#0" id="circle31"/>
	<circle cx="162.585" cy="660.272" r="4" fill="#0" id="circle32"/>
	<circle cx="164.272" cy="397.088" r="4" fill="#0" id="circle33"/>
	<circle cx="179.456" cy="651.837" r="4" fill="#0" id="circle34"/>
	<circle cx="181.143" cy="380.218" r="4" fill="#0" id="circle35"/>
	<circle cx="191.265" cy="629.905" r="4" fill="#0" id="circle36"/>
	<circle cx="198.014" cy="375.156" r="4" fill="#0" id="circle37"/>
	<circle cx="208.136" cy="629.905" r="4" fill="#0" id="circle38"/>
	<circle cx="214.884" cy="371.782" r="4" fill="#0" id="circle39"/>
	<circle cx="223.32" cy="621.469" r="4" fill="#0" id="circle40"/>
	<circle cx="231.755" cy="366.721" r="4" fill="#0" id="circle41"/>
	<circle cx="236.816" cy="611.347" r="4" fill="#0" id="circle42"/>
	<circle cx="245.252" cy="596.163" r="4" fill="#0" id="circle43"/>
	<circle cx="246.939" cy="358.286" r="4" fill="#0" id="circle44"/>
	<circle cx="260.435" cy="587.728" r="4" fill="#0" id="circle45"/>
	<circle cx="263.81" cy="358.286" r="4" fill="#0" id="circle46"/>
	<circle cx="277.306" cy="587.728" r="4" fill="#0" id="circle47"/>
	<circle cx="280.68" cy="358.286" r="4" fill="#0" id="circle48"/>
	<circle cx="287.429" cy="341.415" r="4" fill="#0" id="circle49"/>
	<circle cx="290.803" cy="574.231" r="4" fill="#0" id="circle50"/>
	<circle cx="304.299" cy="341.415" r="4" fill="#0" id="circle51"/>
	<circle cx="307.673" cy="570.857" r="4" fill="#0" id="circle52"/>
	<circle cx="317.796" cy="327.918" r="4" fill="#0" id="circle53"/>
	<circle cx="324.544" cy="570.857" r="4" fill="#0" id="circle54"/>
	<circle cx="332.98" cy="228.381" r="4" fill="#0" id="circle55"/>
	<circle cx="332.98" cy="245.252" r="4" fill="#0" id="circle56"/>
	<circle cx="332.98" cy="262.122" r="4" fill="#0" id="circle57"/>
	<circle cx="334.667" cy="324.544" r="4" fill="#0" id="circle58"/>
	<circle cx="334.667" cy="553.986" r="4" fill="#0" id="circle59"/>
	<circle cx="341.415" cy="277.306" r="4" fill="#0" id="circle60"/>
	<circle cx="341.415" cy="294.177" r="4" fill="#0" id="circle61"/>
	<circle cx="349.85" cy="223.32" r="4" fill="#0" id="circle62"/>
	<circle cx="351.537" cy="553.986" r="4" fill="#0" id="circle63"/>
	<circle cx="366.721" cy="223.32" r="4" fill="#0" id="circle64"/>
	<circle cx="366.721" cy="545.551" r="4" fill="#0" id="circle65"/>
	<circle cx="383.592" cy="223.32" r="4" fill="#0" id="circle66"/>
	<circle cx="383.592" cy="540.49" r="4" fill="#0" id="circle67"/>
	<circle cx="398.776" cy="231.755" r="4" fill="#0" id="circle68"/>
	<circle cx="400.463" cy="537.116" r="4" fill="#0" id="circle69"/>
	<circle cx="410.585" cy="520.245" r="4" fill="#0" id="circle70"/>
	<circle cx="415.646" cy="233.442" r="4" fill="#0" id="circle71"/>
	<circle cx="424.082" cy="248.626" r="4" fill="#0" id="circle72"/>
	<circle cx="427.456" cy="520.245" r="4" fill="#0" id="circle73"/>
	<circle cx="440.952" cy="248.626" r="4" fill="#0" id="circle74"/>
	<circle cx="442.639" cy="511.81" r="4" fill="#0" id="circle75"/>
	<circle cx="447.701" cy="231.755" r="4" fill="#0" id="circle76"/>
	<circle cx="459.51" cy="511.81" r="4" fill="#0" id="circle77"/>
	<circle cx="464.571" cy="223.32" r="4" fill="#0" id="circle78"/>
	<circle cx="467.946" cy="203.075" r="4" fill="#0" id="circle79"/>
	<circle cx="474.694" cy="503.374" r="4" fill="#0" id="circle80"/>
	<circle cx="484.816" cy="194.639" r="4" fill="#0" id="circle81"/>
	<circle cx="491.565" cy="500" r="4" fill="#0" id="circle82"/>
	<circle cx="493.252" cy="177.769" r="4" fill="#0" id="circle83"/>
	<circle cx="501.687" cy="486.503" r="4" fill="#0" id="circle84"/>
	<circle cx="510.122" cy="152.463" r="4" fill="#0" id="circle85"/>
	<circle cx="510.122" cy="169.333" r="4" fill="#0" id="circle86"/>
	<circle cx="518.558" cy="481.442" r="4" fill="#0" id="circle87"/>
	<circle cx="523.619" cy="138.966" r="4" fill="#0" id="circle88"/>
	<circle cx="535.429" cy="118.721" r="4" fill="#0" id="circle89"/>
	<circle cx="535.429" cy="478.068" r="4" fill="#0" id="circle90"/>
	<circle cx="535.429" cy="494.939" r="4" fill="#0" id="circle91"/>
	<circle cx="545.551" cy="508.435" r="4" fill="#0" id="circle92"/>
	<circle cx="548.925" cy="105.224" r="4" fill="#0" id="circle93"/>
	<circle cx="562.422" cy="515.184" r="4" fill="#0" id="circle94"/>
	<circle cx="565.796" cy="105.224" r="4" fill="#0" id="circle95"/>
	<circle cx="569.17" cy="532.054" r="4" fill="#0" id="circle96"/>
	<circle cx="574.231" cy="88.3537" r="4" fill="#0" id="circle97"/>
	<circle cx="579.293" cy="545.551" r="4" fill="#0" id="circle98"/>
	<circle cx="591.102" cy="88.3537" r="4" fill="#0" id="circle99"/>
	<circle cx="594.476" cy="553.986" r="4" fill="#0" id="circle100"/>
	<circle cx="596.163" cy="410.585" r="4" fill="#0" id="circle101"/>
	<circle cx="599.537" cy="570.857" r="4" fill="#0" id="circle102"/>
	<circle cx="604.599" cy="425.769" r="4" fill="#0" id="circle103"/>
	<circle cx="606.286" cy="79.9184" r="4" fill="#0" id="circle104"/>
	<circle cx="613.034" cy="402.15" r="4" fill="#0" id="circle105"/>
	<circle cx="616.408" cy="577.605" r="4" fill="#0" id="circle106"/>
	<circle cx="618.095" cy="435.891" r="4" fill="#0" id="circle107"/>
	<circle cx="623.156" cy="73.1701" r="4" fill="#0" id="circle108"/>
	<circle cx="623.156" cy="594.476" r="4" fill="#0" id="circle109"/>
	<circle cx="628.218" cy="393.714" r="4" fill="#0" id="circle110"/>
	<circle cx="633.279" cy="444.327" r="4" fill="#0" id="circle111"/>
	<circle cx="636.653" cy="604.599" r="4" fill="#0" id="circle112"/>
	<circle cx="638.34" cy="368.408" r="4" fill="#0" id="circle113"/>
	<circle cx="640.027" cy="71.483" r="4" fill="#0" id="circle114"/>
	<circle cx="646.776" cy="456.136" r="4" fill="#0" id="circle115"/>
	<circle cx="646.776" cy="618.095" r="4" fill="#0" id="circle116"/>
	<circle cx="653.524" cy="359.973" r="4" fill="#0" id="circle117"/>
	<circle cx="655.211" cy="63.0476" r="4" fill="#0" id="circle118"/>
	<circle cx="658.585" cy="469.633" r="4" fill="#0" id="circle119"/>
	<circle cx="663.646" cy="343.102" r="4" fill="#0" id="circle120"/>
	<circle cx="663.646" cy="624.844" r="4" fill="#0" id="circle121"/>
	<circle cx="670.395" cy="641.714" r="4" fill="#0" id="circle122"/>
	<circle cx="672.082" cy="63.0476" r="4" fill="#0" id="circle123"/>
	<circle cx="672.082" cy="326.231" r="4" fill="#0" id="circle124"/>
	<circle cx="672.082" cy="481.442" r="4" fill="#0" id="circle125"/>
	<circle cx="687.265" cy="51.2381" r="4" fill="#0" id="circle126"/>
	<circle cx="687.265" cy="489.878" r="4" fill="#0" id="circle127"/>
	<circle cx="687.265" cy="646.776" r="4" fill="#0" id="circle128"/>
	<circle cx="688.952" cy="317.796" r="4" fill="#0" id="circle129"/>
	<circle cx="695.701" cy="505.061" r="4" fill="#0" id="circle130"/>
	<circle cx="697.388" cy="292.49" r="4" fill="#0" id="circle131"/>
	<circle cx="702.449" cy="655.211" r="4" fill="#0" id="circle132"/>
	<circle cx="704.136" cy="46.1769" r="4" fill="#0" id="circle133"/>
	<circle cx="710.884" cy="513.497" r="4" fill="#0" id="circle134"/>
	<circle cx="714.259" cy="267.184" r="4" fill="#0" id="circle135"/>
	<circle cx="714.259" cy="284.054" r="4" fill="#0" id="circle136"/>
	<circle cx="717.633" cy="646.776" r="4" fill="#0" id="circle137"/>
	<circle cx="721.007" cy="42.8027" r="4" fill="#0" id="circle138"/>
	<circle cx="722.694" cy="250.313" r="4" fill="#0" id="circle139"/>
	<circle cx="722.694" cy="526.993" r="4" fill="#0" id="circle140"/>
	<circle cx="734.503" cy="645.088" r="4" fill="#0" id="circle141"/>
	<circle cx="736.19" cy="537.116" r="4" fill="#0" id="circle142"/>
	<circle cx="737.878" cy="37.7415" r="4" fill="#0" id="circle143"/>
	<circle cx="739.565" cy="233.442" r="4" fill="#0" id="circle144"/>
	<circle cx="742.939" cy="628.218" r="4" fill="#0" id="circle145"/>
	<circle cx="748" cy="550.612" r="4" fill="#0" id="circle146"/>
	<circle cx="754.748" cy="37.7415" r="4" fill="#0" id="circle147"/>
	<circle cx="754.748" cy="225.007" r="4" fill="#0" id="circle148"/>
	<circle cx="759.81" cy="619.782" r="4" fill="#0" id="circle149"/>
	<circle cx="764.871" cy="557.361" r="4" fill="#0" id="circle150"/>
	<circle cx="764.871" cy="574.231" r="4" fill="#0" id="circle151"/>
	<circle cx="768.245" cy="214.884" r="4" fill="#0" id="circle152"/>
	<circle cx="769.932" cy="29.3061" r="4" fill="#0" id="circle153"/>
	<circle cx="773.306" cy="589.415" r="4" fill="#0" id="circle154"/>
	<circle cx="773.306" cy="606.286" r="4" fill="#0" id="circle155"/>
	<circle cx="776.68" cy="199.701" r="4" fill="#0" id="circle156"/>
	<circle cx="786.803" cy="29.3061" r="4" fill="#0" id="circle157"/>
	<circle cx="791.864" cy="191.265" r="4" fill="#0" id="circle158"/>
	<circle cx="803.673" cy="29.3061" r="4" fill="#0" id="circle159"/>
	<circle cx="807.048" cy="182.83" r="4" fill="#0" id="circle160"/>
	<circle cx="815.483" cy="15.8095" r="4" fill="#0" id="circle161"/>
	<circle cx="820.544" cy="171.02" r="4" fill="#0" id="circle162"/>
	<circle cx="830.667" cy="157.524" r="4" fill="#0" id="circle163"/>
	<circle cx="832.354" cy="12.4354" r="4" fill="#0" id="circle164"/>
	<circle cx="844.163" cy="147.401" r="4" fill="#0" id="circle165"/>
	<circle cx="849.224" cy="12.4354" r="4" fill="#0" id="circle166"/>
	<circle cx="861.034" cy="138.966" r="4" fill="#0" id="circle167"/>
	<circle cx="866.095" cy="12.4354" r="4" fill="#0" id="circle168"/>
	<circle cx="869.469" cy="122.095" r="4" fill="#0" id="circle169"/>
	<circle cx="881.279" cy="4" r="4" fill="#0" id="circle170"/>
	<circle cx="886.34" cy="113.66" r="4" fill="#0" id="circle171"/>
	<circle cx="898.15" cy="4" r="4" fill="#0" id="circle172"/>
	<circle cx="899.837" cy="90.0408" r="4" fill="#0" id="circle173"/>
	<circle cx="915.02" cy="4" r="4" fill="#0" id="circle174"/>
	<circle cx="916.707" cy="81.6054" r="4" fill="#0" id="circle175"/>
	<circle cx="931.891" cy="4" r="4" fill="#0" id="circle176"/>
	<circle cx="931.891" cy="73.1701" r="4" fill="#0" id="circle177"/>
	<circle cx="945.388" cy="63.0476" r="4" fill="#0" id="circle178"/>
	<circle cx="948.762" cy="4" r="4" fill="#0" id="circle179"/>
	<circle cx="953.823" cy="47.8639" r="4" fill="#0" id="circle180"/>
	<circle cx="965.633" cy="4" r="4" fill="#0" id="circle181"/>
	<circle cx="969.007" cy="39.4286" r="4" fill="#0" id="circle182"/>
	<circle cx="982.503" cy="4" r="4" fill="#0" id="circle183"/>
	<circle cx="984.19" cy="30.9932" r="4" fill="#0" id="circle184"/>
	<circle cx="996" cy="14.1224" r="4" fill="#0" id="circle185"/>
	</g>
</svg>