<?xml version="1.0" encoding="UTF-8" standalone="no"?>
<!-- Created with CurveBenchmark -->
<svg
	xmlns:dc="http://purl.org/dc/elements/1.1/"
	xmlns:cc="http://creativecommons.org/ns#"
	xmlns:rdf="http://www.w3.org/1999/02/22-rdf-syntax-ns#"
	xmlns:svg="http://www.w3.org/2000/svg"
	xmlns="http://www.w3.org/2000/svg"
	xmlns:sodipodi="http://sodipodi.sourceforge.net/DTD/sodipodi-0.dtd"
	xmlns:inkscape="http://www.inkscape.org/namespaces/inkscape"
	width="1000"
	height="1000"
	id="svg2"
	version="1.1"
	sodipodi:docname="manifold/gathan1-bunny04.png.txt">
<defs
	id="defs4" />
<metadata
	id="metadata7">
	<rdf:RDF>
		<cc:Work
			rdf:about="">
			<dc:format>image/svg+xml</dc:format>
			<dc:type
				rdf:resource="http://purl.org/dc/dcmitype/StillImage" />
			<dc:title></dc:title>
		</cc:Work>
	</rdf:RDF>
</metadata>
<g
	inkscape:label="Layer 1"
	inkscape:groupmode="layer"
	id="layer1">
	<path style="fill:none;stroke:red;stroke-width:1px;stroke-linecap:butt;stroke-linejoin:miter;stroke-opacity:1" d="M 220.147,147.339 220.147,170.092 z" id="boundary" inkscape:connector-curvature="0" />
	<path style="fill:none;stroke:red;stroke-width:1px;stroke-linecap:butt;stroke-linejoin:miter;stroke-opacity:1" d="M 220.147,147.339 238.349,129.138 z" id="boundary" inkscape:connector-curvature="0" />
	<path style="fill:none;stroke:red;stroke-width:1px;stroke-linecap:butt;stroke-linejoin:miter;stroke-opacity:1" d="M 199.67,208.771 220.147,192.844 z" id="boundary" inkscape:connector-curvature="0" />
	<path style="fill:none;stroke:red;stroke-width:1px;stroke-linecap:butt;stroke-linejoin:miter;stroke-opacity:1" d="M 220.147,170.092 220.147,192.844 z" id="boundary" inkscape:connector-curvature="0" />
	<path style="fill:none;stroke:red;stroke-width:1px;stroke-linecap:butt;stroke-linejoin:miter;stroke-opacity:1" d="M 242.899,101.835 254.275,79.0826 z" id="boundary" inkscape:connector-curvature="0" />
	<path style="fill:none;stroke:red;stroke-width:1px;stroke-linecap:butt;stroke-linejoin:miter;stroke-opacity:1" d="M 265.651,56.3303 254.275,79.0826 z" id="boundary" inkscape:connector-curvature="0" />
	<path style="fill:none;stroke:red;stroke-width:1px;stroke-linecap:butt;stroke-linejoin:miter;stroke-opacity:1" d="M 238.349,129.138 242.899,101.835 z" id="boundary" inkscape:connector-curvature="0" />
	<path style="fill:none;stroke:red;stroke-width:1px;stroke-linecap:butt;stroke-linejoin:miter;stroke-opacity:1" d="M 56.3303,288.404 72.2569,261.101 z" id="boundary" inkscape:connector-curvature="0" />
	<path style="fill:none;stroke:red;stroke-width:1px;stroke-linecap:butt;stroke-linejoin:miter;stroke-opacity:1" d="M 90.4587,242.899 72.2569,261.101 z" id="boundary" inkscape:connector-curvature="0" />
	<path style="fill:none;stroke:red;stroke-width:1px;stroke-linecap:butt;stroke-linejoin:miter;stroke-opacity:1" d="M 44.9541,311.156 56.3303,288.404 z" id="boundary" inkscape:connector-curvature="0" />
	<path style="fill:none;stroke:red;stroke-width:1px;stroke-linecap:butt;stroke-linejoin:miter;stroke-opacity:1" d="M 44.9541,311.156 26.7523,329.358 z" id="boundary" inkscape:connector-curvature="0" />
	<path style="fill:none;stroke:red;stroke-width:1px;stroke-linecap:butt;stroke-linejoin:miter;stroke-opacity:1" d="M 90.4587,242.899 110.936,231.523 z" id="boundary" inkscape:connector-curvature="0" />
	<path style="fill:none;stroke:red;stroke-width:1px;stroke-linecap:butt;stroke-linejoin:miter;stroke-opacity:1" d="M 156.44,220.147 179.193,220.147 z" id="boundary" inkscape:connector-curvature="0" />
	<path style="fill:none;stroke:red;stroke-width:1px;stroke-linecap:butt;stroke-linejoin:miter;stroke-opacity:1" d="M 199.67,208.771 179.193,220.147 z" id="boundary" inkscape:connector-curvature="0" />
	<path style="fill:none;stroke:red;stroke-width:1px;stroke-linecap:butt;stroke-linejoin:miter;stroke-opacity:1" d="M 110.936,231.523 133.688,222.422 z" id="boundary" inkscape:connector-curvature="0" />
	<path style="fill:none;stroke:red;stroke-width:1px;stroke-linecap:butt;stroke-linejoin:miter;stroke-opacity:1" d="M 133.688,222.422 156.44,220.147 z" id="boundary" inkscape:connector-curvature="0" />
	<path style="fill:none;stroke:red;stroke-width:1px;stroke-linecap:butt;stroke-linejoin:miter;stroke-opacity:1" d="M 306.606,15.3761 327.083,4 z" id="boundary" inkscape:connector-curvature="0" />
	<path style="fill:none;stroke:red;stroke-width:1px;stroke-linecap:butt;stroke-linejoin:miter;stroke-opacity:1" d="M 288.404,33.578 306.606,15.3761 z" id="boundary" inkscape:connector-curvature="0" />
	<path style="fill:none;stroke:red;stroke-width:1px;stroke-linecap:butt;stroke-linejoin:miter;stroke-opacity:1" d="M 327.083,4 349.835,4 z" id="boundary" inkscape:connector-curvature="0" />
	<path style="fill:none;stroke:red;stroke-width:1px;stroke-linecap:butt;stroke-linejoin:miter;stroke-opacity:1" d="M 377.138,65.4312 358.936,51.7798 z" id="boundary" inkscape:connector-curvature="0" />
	<path style="fill:none;stroke:red;stroke-width:1px;stroke-linecap:butt;stroke-linejoin:miter;stroke-opacity:1" d="M 349.835,4 370.312,15.3761 z" id="boundary" inkscape:connector-curvature="0" />
	<path style="fill:none;stroke:red;stroke-width:1px;stroke-linecap:butt;stroke-linejoin:miter;stroke-opacity:1" d="M 377.138,65.4312 381.688,88.1835 z" id="boundary" inkscape:connector-curvature="0" />
	<path style="fill:none;stroke:red;stroke-width:1px;stroke-linecap:butt;stroke-linejoin:miter;stroke-opacity:1" d="M 381.688,88.1835 381.688,110.936 z" id="boundary" inkscape:connector-curvature="0" />
	<path style="fill:none;stroke:red;stroke-width:1px;stroke-linecap:butt;stroke-linejoin:miter;stroke-opacity:1" d="M 368.037,231.523 347.56,242.899 z" id="boundary" inkscape:connector-curvature="0" />
	<path style="fill:none;stroke:red;stroke-width:1px;stroke-linecap:butt;stroke-linejoin:miter;stroke-opacity:1" d="M 354.385,195.119 336.183,211.046 z" id="boundary" inkscape:connector-curvature="0" />
	<path style="fill:none;stroke:red;stroke-width:1px;stroke-linecap:butt;stroke-linejoin:miter;stroke-opacity:1" d="M 365.761,172.367 354.385,195.119 z" id="boundary" inkscape:connector-curvature="0" />
	<path style="fill:none;stroke:red;stroke-width:1px;stroke-linecap:butt;stroke-linejoin:miter;stroke-opacity:1" d="M 347.56,242.899 324.807,233.798 z" id="boundary" inkscape:connector-curvature="0" />
	<path style="fill:none;stroke:red;stroke-width:1px;stroke-linecap:butt;stroke-linejoin:miter;stroke-opacity:1" d="M 324.807,233.798 336.183,211.046 z" id="boundary" inkscape:connector-curvature="0" />
	<path style="fill:none;stroke:red;stroke-width:1px;stroke-linecap:butt;stroke-linejoin:miter;stroke-opacity:1" d="M 365.761,172.367 377.138,149.615 z" id="boundary" inkscape:connector-curvature="0" />
	<path style="fill:none;stroke:red;stroke-width:1px;stroke-linecap:butt;stroke-linejoin:miter;stroke-opacity:1" d="M 390.789,231.523 368.037,231.523 z" id="boundary" inkscape:connector-curvature="0" />
	<path style="fill:none;stroke:red;stroke-width:1px;stroke-linecap:butt;stroke-linejoin:miter;stroke-opacity:1" d="M 413.541,231.523 390.789,231.523 z" id="boundary" inkscape:connector-curvature="0" />
	<path style="fill:none;stroke:red;stroke-width:1px;stroke-linecap:butt;stroke-linejoin:miter;stroke-opacity:1" d="M 377.138,149.615 381.688,110.936 z" id="boundary" inkscape:connector-curvature="0" />
	<path style="fill:none;stroke:red;stroke-width:1px;stroke-linecap:butt;stroke-linejoin:miter;stroke-opacity:1" d="M 265.651,56.3303 288.404,33.578 z" id="boundary" inkscape:connector-curvature="0" />
	<path style="fill:none;stroke:red;stroke-width:1px;stroke-linecap:butt;stroke-linejoin:miter;stroke-opacity:1" d="M 4,386.239 15.3761,352.11 z" id="boundary" inkscape:connector-curvature="0" />
	<path style="fill:none;stroke:red;stroke-width:1px;stroke-linecap:butt;stroke-linejoin:miter;stroke-opacity:1" d="M 15.3761,406.716 4,386.239 z" id="boundary" inkscape:connector-curvature="0" />
	<path style="fill:none;stroke:red;stroke-width:1px;stroke-linecap:butt;stroke-linejoin:miter;stroke-opacity:1" d="M 15.3761,406.716 15.3761,429.468 z" id="boundary" inkscape:connector-curvature="0" />
	<path style="fill:none;stroke:red;stroke-width:1px;stroke-linecap:butt;stroke-linejoin:miter;stroke-opacity:1" d="M 31.3028,447.67 15.3761,429.468 z" id="boundary" inkscape:connector-curvature="0" />
	<path style="fill:none;stroke:red;stroke-width:1px;stroke-linecap:butt;stroke-linejoin:miter;stroke-opacity:1" d="M 15.3761,352.11 26.7523,329.358 z" id="boundary" inkscape:connector-curvature="0" />
	<path style="fill:none;stroke:red;stroke-width:1px;stroke-linecap:butt;stroke-linejoin:miter;stroke-opacity:1" d="M 49.5046,461.321 31.3028,447.67 z" id="boundary" inkscape:connector-curvature="0" />
	<path style="fill:none;stroke:red;stroke-width:1px;stroke-linecap:butt;stroke-linejoin:miter;stroke-opacity:1" d="M 49.5046,461.321 69.9817,472.697 z" id="boundary" inkscape:connector-curvature="0" />
	<path style="fill:none;stroke:red;stroke-width:1px;stroke-linecap:butt;stroke-linejoin:miter;stroke-opacity:1" d="M 92.7339,472.697 69.9817,472.697 z" id="boundary" inkscape:connector-curvature="0" />
	<path style="fill:none;stroke:red;stroke-width:1px;stroke-linecap:butt;stroke-linejoin:miter;stroke-opacity:1" d="M 92.7339,472.697 115.486,472.697 z" id="boundary" inkscape:connector-curvature="0" />
	<path style="fill:none;stroke:red;stroke-width:1px;stroke-linecap:butt;stroke-linejoin:miter;stroke-opacity:1" d="M 115.486,472.697 135.963,484.073 z" id="boundary" inkscape:connector-curvature="0" />
	<path style="fill:none;stroke:red;stroke-width:1px;stroke-linecap:butt;stroke-linejoin:miter;stroke-opacity:1" d="M 135.963,484.073 158.716,493.174 z" id="boundary" inkscape:connector-curvature="0" />
	<path style="fill:none;stroke:red;stroke-width:1px;stroke-linecap:butt;stroke-linejoin:miter;stroke-opacity:1" d="M 179.193,504.55 197.394,518.202 z" id="boundary" inkscape:connector-curvature="0" />
	<path style="fill:none;stroke:red;stroke-width:1px;stroke-linecap:butt;stroke-linejoin:miter;stroke-opacity:1" d="M 197.394,518.202 211.046,536.404 z" id="boundary" inkscape:connector-curvature="0" />
	<path style="fill:none;stroke:red;stroke-width:1px;stroke-linecap:butt;stroke-linejoin:miter;stroke-opacity:1" d="M 179.193,504.55 158.716,493.174 z" id="boundary" inkscape:connector-curvature="0" />
	<path style="fill:none;stroke:red;stroke-width:1px;stroke-linecap:butt;stroke-linejoin:miter;stroke-opacity:1" d="M 242.899,727.523 231.523,750.275 z" id="boundary" inkscape:connector-curvature="0" />
	<path style="fill:none;stroke:red;stroke-width:1px;stroke-linecap:butt;stroke-linejoin:miter;stroke-opacity:1" d="M 249.725,563.706 229.248,552.33 z" id="boundary" inkscape:connector-curvature="0" />
	<path style="fill:none;stroke:red;stroke-width:1px;stroke-linecap:butt;stroke-linejoin:miter;stroke-opacity:1" d="M 229.248,552.33 211.046,536.404 z" id="boundary" inkscape:connector-curvature="0" />
	<path style="fill:none;stroke:red;stroke-width:1px;stroke-linecap:butt;stroke-linejoin:miter;stroke-opacity:1" d="M 249.725,563.706 270.202,575.083 z" id="boundary" inkscape:connector-curvature="0" />
	<path style="fill:none;stroke:red;stroke-width:1px;stroke-linecap:butt;stroke-linejoin:miter;stroke-opacity:1" d="M 270.202,575.083 288.404,588.734 z" id="boundary" inkscape:connector-curvature="0" />
	<path style="fill:none;stroke:red;stroke-width:1px;stroke-linecap:butt;stroke-linejoin:miter;stroke-opacity:1" d="M 288.404,588.734 299.78,609.211 z" id="boundary" inkscape:connector-curvature="0" />
	<path style="fill:none;stroke:red;stroke-width:1px;stroke-linecap:butt;stroke-linejoin:miter;stroke-opacity:1" d="M 283.853,697.945 261.101,709.321 z" id="boundary" inkscape:connector-curvature="0" />
	<path style="fill:none;stroke:red;stroke-width:1px;stroke-linecap:butt;stroke-linejoin:miter;stroke-opacity:1" d="M 306.606,686.569 283.853,697.945 z" id="boundary" inkscape:connector-curvature="0" />
	<path style="fill:none;stroke:red;stroke-width:1px;stroke-linecap:butt;stroke-linejoin:miter;stroke-opacity:1" d="M 311.156,629.688 299.78,609.211 z" id="boundary" inkscape:connector-curvature="0" />
	<path style="fill:none;stroke:red;stroke-width:1px;stroke-linecap:butt;stroke-linejoin:miter;stroke-opacity:1" d="M 306.606,686.569 322.532,650.165 z" id="boundary" inkscape:connector-curvature="0" />
	<path style="fill:none;stroke:red;stroke-width:1px;stroke-linecap:butt;stroke-linejoin:miter;stroke-opacity:1" d="M 311.156,629.688 322.532,650.165 z" id="boundary" inkscape:connector-curvature="0" />
	<path style="fill:none;stroke:red;stroke-width:1px;stroke-linecap:butt;stroke-linejoin:miter;stroke-opacity:1" d="M 242.899,727.523 261.101,709.321 z" id="boundary" inkscape:connector-curvature="0" />
	<path style="fill:none;stroke:red;stroke-width:1px;stroke-linecap:butt;stroke-linejoin:miter;stroke-opacity:1" d="M 290.679,779.853 267.927,779.853 z" id="boundary" inkscape:connector-curvature="0" />
	<path style="fill:none;stroke:red;stroke-width:1px;stroke-linecap:butt;stroke-linejoin:miter;stroke-opacity:1" d="M 267.927,779.853 249.725,766.202 z" id="boundary" inkscape:connector-curvature="0" />
	<path style="fill:none;stroke:red;stroke-width:1px;stroke-linecap:butt;stroke-linejoin:miter;stroke-opacity:1" d="M 249.725,766.202 231.523,750.275 z" id="boundary" inkscape:connector-curvature="0" />
	<path style="fill:none;stroke:red;stroke-width:1px;stroke-linecap:butt;stroke-linejoin:miter;stroke-opacity:1" d="M 290.679,779.853 313.431,779.853 z" id="boundary" inkscape:connector-curvature="0" />
	<path style="fill:none;stroke:red;stroke-width:1px;stroke-linecap:butt;stroke-linejoin:miter;stroke-opacity:1" d="M 336.183,779.853 358.936,779.853 z" id="boundary" inkscape:connector-curvature="0" />
	<path style="fill:none;stroke:red;stroke-width:1px;stroke-linecap:butt;stroke-linejoin:miter;stroke-opacity:1" d="M 336.183,779.853 313.431,779.853 z" id="boundary" inkscape:connector-curvature="0" />
	<path style="fill:none;stroke:red;stroke-width:1px;stroke-linecap:butt;stroke-linejoin:miter;stroke-opacity:1" d="M 358.936,779.853 381.688,779.853 z" id="boundary" inkscape:connector-curvature="0" />
	<path style="fill:none;stroke:red;stroke-width:1px;stroke-linecap:butt;stroke-linejoin:miter;stroke-opacity:1" d="M 404.44,779.853 381.688,779.853 z" id="boundary" inkscape:connector-curvature="0" />
	<path style="fill:none;stroke:red;stroke-width:1px;stroke-linecap:butt;stroke-linejoin:miter;stroke-opacity:1" d="M 504.55,226.972 527.303,220.147 z" id="boundary" inkscape:connector-curvature="0" />
	<path style="fill:none;stroke:red;stroke-width:1px;stroke-linecap:butt;stroke-linejoin:miter;stroke-opacity:1" d="M 527.303,220.147 550.055,220.147 z" id="boundary" inkscape:connector-curvature="0" />
	<path style="fill:none;stroke:red;stroke-width:1px;stroke-linecap:butt;stroke-linejoin:miter;stroke-opacity:1" d="M 595.56,220.147 572.807,220.147 z" id="boundary" inkscape:connector-curvature="0" />
	<path style="fill:none;stroke:red;stroke-width:1px;stroke-linecap:butt;stroke-linejoin:miter;stroke-opacity:1" d="M 572.807,220.147 550.055,220.147 z" id="boundary" inkscape:connector-curvature="0" />
	<path style="fill:none;stroke:red;stroke-width:1px;stroke-linecap:butt;stroke-linejoin:miter;stroke-opacity:1" d="M 618.312,220.147 641.064,220.147 z" id="boundary" inkscape:connector-curvature="0" />
	<path style="fill:none;stroke:red;stroke-width:1px;stroke-linecap:butt;stroke-linejoin:miter;stroke-opacity:1" d="M 663.817,220.147 686.569,224.697 z" id="boundary" inkscape:connector-curvature="0" />
	<path style="fill:none;stroke:red;stroke-width:1px;stroke-linecap:butt;stroke-linejoin:miter;stroke-opacity:1" d="M 641.064,220.147 663.817,220.147 z" id="boundary" inkscape:connector-curvature="0" />
	<path style="fill:none;stroke:red;stroke-width:1px;stroke-linecap:butt;stroke-linejoin:miter;stroke-opacity:1" d="M 595.56,220.147 618.312,220.147 z" id="boundary" inkscape:connector-curvature="0" />
	<path style="fill:none;stroke:red;stroke-width:1px;stroke-linecap:butt;stroke-linejoin:miter;stroke-opacity:1" d="M 686.569,224.697 709.321,231.523 z" id="boundary" inkscape:connector-curvature="0" />
	<path style="fill:none;stroke:red;stroke-width:1px;stroke-linecap:butt;stroke-linejoin:miter;stroke-opacity:1" d="M 436.294,231.523 459.046,231.523 z" id="boundary" inkscape:connector-curvature="0" />
	<path style="fill:none;stroke:red;stroke-width:1px;stroke-linecap:butt;stroke-linejoin:miter;stroke-opacity:1" d="M 436.294,231.523 413.541,231.523 z" id="boundary" inkscape:connector-curvature="0" />
	<path style="fill:none;stroke:red;stroke-width:1px;stroke-linecap:butt;stroke-linejoin:miter;stroke-opacity:1" d="M 481.798,231.523 504.55,226.972 z" id="boundary" inkscape:connector-curvature="0" />
	<path style="fill:none;stroke:red;stroke-width:1px;stroke-linecap:butt;stroke-linejoin:miter;stroke-opacity:1" d="M 481.798,231.523 459.046,231.523 z" id="boundary" inkscape:connector-curvature="0" />
	<path style="fill:none;stroke:red;stroke-width:1px;stroke-linecap:butt;stroke-linejoin:miter;stroke-opacity:1" d="M 709.321,231.523 732.073,231.523 z" id="boundary" inkscape:connector-curvature="0" />
	<path style="fill:none;stroke:red;stroke-width:1px;stroke-linecap:butt;stroke-linejoin:miter;stroke-opacity:1" d="M 754.826,236.073 732.073,231.523 z" id="boundary" inkscape:connector-curvature="0" />
	<path style="fill:none;stroke:red;stroke-width:1px;stroke-linecap:butt;stroke-linejoin:miter;stroke-opacity:1" d="M 754.826,236.073 768.477,254.275 z" id="boundary" inkscape:connector-curvature="0" />
	<path style="fill:none;stroke:red;stroke-width:1px;stroke-linecap:butt;stroke-linejoin:miter;stroke-opacity:1" d="M 786.679,267.927 768.477,254.275 z" id="boundary" inkscape:connector-curvature="0" />
	<path style="fill:none;stroke:red;stroke-width:1px;stroke-linecap:butt;stroke-linejoin:miter;stroke-opacity:1" d="M 807.156,279.303 825.358,295.229 z" id="boundary" inkscape:connector-curvature="0" />
	<path style="fill:none;stroke:red;stroke-width:1px;stroke-linecap:butt;stroke-linejoin:miter;stroke-opacity:1" d="M 786.679,267.927 807.156,279.303 z" id="boundary" inkscape:connector-curvature="0" />
	<path style="fill:none;stroke:red;stroke-width:1px;stroke-linecap:butt;stroke-linejoin:miter;stroke-opacity:1" d="M 825.358,295.229 841.284,313.431 z" id="boundary" inkscape:connector-curvature="0" />
	<path style="fill:none;stroke:red;stroke-width:1px;stroke-linecap:butt;stroke-linejoin:miter;stroke-opacity:1" d="M 841.284,313.431 864.037,322.532 z" id="boundary" inkscape:connector-curvature="0" />
	<path style="fill:none;stroke:red;stroke-width:1px;stroke-linecap:butt;stroke-linejoin:miter;stroke-opacity:1" d="M 882.239,336.183 886.789,358.936 z" id="boundary" inkscape:connector-curvature="0" />
	<path style="fill:none;stroke:red;stroke-width:1px;stroke-linecap:butt;stroke-linejoin:miter;stroke-opacity:1" d="M 864.037,322.532 882.239,336.183 z" id="boundary" inkscape:connector-curvature="0" />
	<path style="fill:none;stroke:red;stroke-width:1px;stroke-linecap:butt;stroke-linejoin:miter;stroke-opacity:1" d="M 898.165,379.413 886.789,358.936 z" id="boundary" inkscape:connector-curvature="0" />
	<path style="fill:none;stroke:red;stroke-width:1px;stroke-linecap:butt;stroke-linejoin:miter;stroke-opacity:1" d="M 898.165,379.413 914.092,397.615 z" id="boundary" inkscape:connector-curvature="0" />
	<path style="fill:none;stroke:red;stroke-width:1px;stroke-linecap:butt;stroke-linejoin:miter;stroke-opacity:1" d="M 932.294,413.541 939.119,436.294 z" id="boundary" inkscape:connector-curvature="0" />
	<path style="fill:none;stroke:red;stroke-width:1px;stroke-linecap:butt;stroke-linejoin:miter;stroke-opacity:1" d="M 914.092,397.615 932.294,413.541 z" id="boundary" inkscape:connector-curvature="0" />
	<path style="fill:none;stroke:red;stroke-width:1px;stroke-linecap:butt;stroke-linejoin:miter;stroke-opacity:1" d="M 950.495,456.771 939.119,436.294 z" id="boundary" inkscape:connector-curvature="0" />
	<path style="fill:none;stroke:red;stroke-width:1px;stroke-linecap:butt;stroke-linejoin:miter;stroke-opacity:1" d="M 950.495,479.523 950.495,456.771 z" id="boundary" inkscape:connector-curvature="0" />
	<path style="fill:none;stroke:red;stroke-width:1px;stroke-linecap:butt;stroke-linejoin:miter;stroke-opacity:1" d="M 961.872,500 950.495,479.523 z" id="boundary" inkscape:connector-curvature="0" />
	<path style="fill:none;stroke:red;stroke-width:1px;stroke-linecap:butt;stroke-linejoin:miter;stroke-opacity:1" d="M 939.119,563.706 950.495,529.578 z" id="boundary" inkscape:connector-curvature="0" />
	<path style="fill:none;stroke:red;stroke-width:1px;stroke-linecap:butt;stroke-linejoin:miter;stroke-opacity:1" d="M 961.872,500 950.495,529.578 z" id="boundary" inkscape:connector-curvature="0" />
	<path style="fill:none;stroke:red;stroke-width:1px;stroke-linecap:butt;stroke-linejoin:miter;stroke-opacity:1" d="M 404.44,779.853 427.193,779.853 z" id="boundary" inkscape:connector-curvature="0" />
	<path style="fill:none;stroke:red;stroke-width:1px;stroke-linecap:butt;stroke-linejoin:miter;stroke-opacity:1" d="M 449.945,779.853 472.697,779.853 z" id="boundary" inkscape:connector-curvature="0" />
	<path style="fill:none;stroke:red;stroke-width:1px;stroke-linecap:butt;stroke-linejoin:miter;stroke-opacity:1" d="M 449.945,779.853 427.193,779.853 z" id="boundary" inkscape:connector-curvature="0" />
	<path style="fill:none;stroke:red;stroke-width:1px;stroke-linecap:butt;stroke-linejoin:miter;stroke-opacity:1" d="M 495.45,779.853 518.202,779.853 z" id="boundary" inkscape:connector-curvature="0" />
	<path style="fill:none;stroke:red;stroke-width:1px;stroke-linecap:butt;stroke-linejoin:miter;stroke-opacity:1" d="M 540.954,779.853 563.706,779.853 z" id="boundary" inkscape:connector-curvature="0" />
	<path style="fill:none;stroke:red;stroke-width:1px;stroke-linecap:butt;stroke-linejoin:miter;stroke-opacity:1" d="M 540.954,779.853 518.202,779.853 z" id="boundary" inkscape:connector-curvature="0" />
	<path style="fill:none;stroke:red;stroke-width:1px;stroke-linecap:butt;stroke-linejoin:miter;stroke-opacity:1" d="M 495.45,779.853 472.697,779.853 z" id="boundary" inkscape:connector-curvature="0" />
	<path style="fill:none;stroke:red;stroke-width:1px;stroke-linecap:butt;stroke-linejoin:miter;stroke-opacity:1" d="M 586.459,779.853 609.211,779.853 z" id="boundary" inkscape:connector-curvature="0" />
	<path style="fill:none;stroke:red;stroke-width:1px;stroke-linecap:butt;stroke-linejoin:miter;stroke-opacity:1" d="M 631.963,779.853 654.716,784.404 z" id="boundary" inkscape:connector-curvature="0" />
	<path style="fill:none;stroke:red;stroke-width:1px;stroke-linecap:butt;stroke-linejoin:miter;stroke-opacity:1" d="M 609.211,779.853 631.963,779.853 z" id="boundary" inkscape:connector-curvature="0" />
	<path style="fill:none;stroke:red;stroke-width:1px;stroke-linecap:butt;stroke-linejoin:miter;stroke-opacity:1" d="M 677.468,779.853 654.716,784.404 z" id="boundary" inkscape:connector-curvature="0" />
	<path style="fill:none;stroke:red;stroke-width:1px;stroke-linecap:butt;stroke-linejoin:miter;stroke-opacity:1" d="M 563.706,779.853 586.459,779.853 z" id="boundary" inkscape:connector-curvature="0" />
	<path style="fill:none;stroke:red;stroke-width:1px;stroke-linecap:butt;stroke-linejoin:miter;stroke-opacity:1" d="M 677.468,779.853 700.22,779.853 z" id="boundary" inkscape:connector-curvature="0" />
	<path style="fill:none;stroke:red;stroke-width:1px;stroke-linecap:butt;stroke-linejoin:miter;stroke-opacity:1" d="M 722.972,779.853 745.725,779.853 z" id="boundary" inkscape:connector-curvature="0" />
	<path style="fill:none;stroke:red;stroke-width:1px;stroke-linecap:butt;stroke-linejoin:miter;stroke-opacity:1" d="M 768.477,779.853 745.725,779.853 z" id="boundary" inkscape:connector-curvature="0" />
	<path style="fill:none;stroke:red;stroke-width:1px;stroke-linecap:butt;stroke-linejoin:miter;stroke-opacity:1" d="M 722.972,779.853 700.22,779.853 z" id="boundary" inkscape:connector-curvature="0" />
	<path style="fill:none;stroke:red;stroke-width:1px;stroke-linecap:butt;stroke-linejoin:miter;stroke-opacity:1" d="M 768.477,779.853 791.229,779.853 z" id="boundary" inkscape:connector-curvature="0" />
	<path style="fill:none;stroke:red;stroke-width:1px;stroke-linecap:butt;stroke-linejoin:miter;stroke-opacity:1" d="M 939.119,586.459 950.495,606.936 z" id="boundary" inkscape:connector-curvature="0" />
	<path style="fill:none;stroke:red;stroke-width:1px;stroke-linecap:butt;stroke-linejoin:miter;stroke-opacity:1" d="M 973.248,613.761 950.495,606.936 z" id="boundary" inkscape:connector-curvature="0" />
	<path style="fill:none;stroke:red;stroke-width:1px;stroke-linecap:butt;stroke-linejoin:miter;stroke-opacity:1" d="M 948.22,711.596 970.972,704.771 z" id="boundary" inkscape:connector-curvature="0" />
	<path style="fill:none;stroke:red;stroke-width:1px;stroke-linecap:butt;stroke-linejoin:miter;stroke-opacity:1" d="M 927.743,722.972 948.22,711.596 z" id="boundary" inkscape:connector-curvature="0" />
	<path style="fill:none;stroke:red;stroke-width:1px;stroke-linecap:butt;stroke-linejoin:miter;stroke-opacity:1" d="M 989.174,686.569 970.972,704.771 z" id="boundary" inkscape:connector-curvature="0" />
	<path style="fill:none;stroke:red;stroke-width:1px;stroke-linecap:butt;stroke-linejoin:miter;stroke-opacity:1" d="M 984.624,634.239 973.248,613.761 z" id="boundary" inkscape:connector-curvature="0" />
	<path style="fill:none;stroke:red;stroke-width:1px;stroke-linecap:butt;stroke-linejoin:miter;stroke-opacity:1" d="M 996,654.716 989.174,686.569 z" id="boundary" inkscape:connector-curvature="0" />
	<path style="fill:none;stroke:red;stroke-width:1px;stroke-linecap:butt;stroke-linejoin:miter;stroke-opacity:1" d="M 984.624,634.239 996,654.716 z" id="boundary" inkscape:connector-curvature="0" />
	<path style="fill:none;stroke:red;stroke-width:1px;stroke-linecap:butt;stroke-linejoin:miter;stroke-opacity:1" d="M 939.119,586.459 939.119,563.706 z" id="boundary" inkscape:connector-curvature="0" />
	<path style="fill:none;stroke:red;stroke-width:1px;stroke-linecap:butt;stroke-linejoin:miter;stroke-opacity:1" d="M 813.982,779.853 791.229,779.853 z" id="boundary" inkscape:connector-curvature="0" />
	<path style="fill:none;stroke:red;stroke-width:1px;stroke-linecap:butt;stroke-linejoin:miter;stroke-opacity:1" d="M 813.982,779.853 836.734,779.853 z" id="boundary" inkscape:connector-curvature="0" />
	<path style="fill:none;stroke:red;stroke-width:1px;stroke-linecap:butt;stroke-linejoin:miter;stroke-opacity:1" d="M 848.11,743.45 836.734,779.853 z" id="boundary" inkscape:connector-curvature="0" />
	<path style="fill:none;stroke:red;stroke-width:1px;stroke-linecap:butt;stroke-linejoin:miter;stroke-opacity:1" d="M 859.486,722.972 882.239,722.972 z" id="boundary" inkscape:connector-curvature="0" />
	<path style="fill:none;stroke:red;stroke-width:1px;stroke-linecap:butt;stroke-linejoin:miter;stroke-opacity:1" d="M 904.991,722.972 927.743,722.972 z" id="boundary" inkscape:connector-curvature="0" />
	<path style="fill:none;stroke:red;stroke-width:1px;stroke-linecap:butt;stroke-linejoin:miter;stroke-opacity:1" d="M 882.239,722.972 904.991,722.972 z" id="boundary" inkscape:connector-curvature="0" />
	<path style="fill:none;stroke:red;stroke-width:1px;stroke-linecap:butt;stroke-linejoin:miter;stroke-opacity:1" d="M 836.734,722.972 859.486,722.972 z" id="boundary" inkscape:connector-curvature="0" />
	<circle cx="4" cy="386.239" r="4" fill="#0" id="circle0"/>
	<circle cx="15.3761" cy="352.11" r="4" fill="#0" id="circle1"/>
	<circle cx="15.3761" cy="406.716" r="4" fill="#0" id="circle2"/>
	<circle cx="15.3761" cy="429.468" r="4" fill="#0" id="circle3"/>
	<circle cx="26.7523" cy="329.358" r="4" fill="#0" id="circle4"/>
	<circle cx="31.3028" cy="447.67" r="4" fill="#0" id="circle5"/>
	<circle cx="44.9541" cy="311.156" r="4" fill="#0" id="circle6"/>
	<circle cx="49.5046" cy="461.321" r="4" fill="#0" id="circle7"/>
	<circle cx="56.3303" cy="288.404" r="4" fill="#0" id="circle8"/>
	<circle cx="69.9817" cy="472.697" r="4" fill="#0" id="circle9"/>
	<circle cx="72.2569" cy="261.101" r="4" fill="#0" id="circle10"/>
	<circle cx="90.4587" cy="242.899" r="4" fill="#0" id="circle11"/>
	<circle cx="92.7339" cy="472.697" r="4" fill="#0" id="circle12"/>
	<circle cx="110.936" cy="231.523" r="4" fill="#0" id="circle13"/>
	<circle cx="115.486" cy="472.697" r="4" fill="#0" id="circle14"/>
	<circle cx="133.688" cy="222.422" r="4" fill="#0" id="circle15"/>
	<circle cx="135.963" cy="484.073" r="4" fill="#0" id="circle16"/>
	<circle cx="156.44" cy="220.147" r="4" fill="#0" id="circle17"/>
	<circle cx="158.716" cy="493.174" r="4" fill="#0" id="circle18"/>
	<circle cx="179.193" cy="220.147" r="4" fill="#0" id="circle19"/>
	<circle cx="179.193" cy="504.55" r="4" fill="#0" id="circle20"/>
	<circle cx="197.394" cy="518.202" r="4" fill="#0" id="circle21"/>
	<circle cx="199.67" cy="208.771" r="4" fill="#0" id="circle22"/>
	<circle cx="211.046" cy="536.404" r="4" fill="#0" id="circle23"/>
	<circle cx="220.147" cy="147.339" r="4" fill="#0" id="circle24"/>
	<circle cx="220.147" cy="170.092" r="4" fill="#0" id="circle25"/>
	<circle cx="220.147" cy="192.844" r="4" fill="#0" id="circle26"/>
	<circle cx="229.248" cy="552.33" r="4" fill="#0" id="circle27"/>
	<circle cx="231.523" cy="750.275" r="4" fill="#0" id="circle28"/>
	<circle cx="238.349" cy="129.138" r="4" fill="#0" id="circle29"/>
	<circle cx="242.899" cy="101.835" r="4" fill="#0" id="circle30"/>
	<circle cx="242.899" cy="727.523" r="4" fill="#0" id="circle31"/>
	<circle cx="249.725" cy="563.706" r="4" fill="#0" id="circle32"/>
	<circle cx="249.725" cy="766.202" r="4" fill="#0" id="circle33"/>
	<circle cx="254.275" cy="79.0826" r="4" fill="#0" id="circle34"/>
	<circle cx="261.101" cy="709.321" r="4" fill="#0" id="circle35"/>
	<circle cx="265.651" cy="56.3303" r="4" fill="#0" id="circle36"/>
	<circle cx="267.927" cy="779.853" r="4" fill="#0" id="circle37"/>
	<circle cx="270.202" cy="575.083" r="4" fill="#0" id="circle38"/>
	<circle cx="283.853" cy="697.945" r="4" fill="#0" id="circle39"/>
	<circle cx="288.404" cy="33.578" r="4" fill="#0" id="circle40"/>
	<circle cx="288.404" cy="588.734" r="4" fill="#0" id="circle41"/>
	<circle cx="290.679" cy="779.853" r="4" fill="#0" id="circle42"/>
	<circle cx="299.78" cy="609.211" r="4" fill="#0" id="circle43"/>
	<circle cx="306.606" cy="15.3761" r="4" fill="#0" id="circle44"/>
	<circle cx="306.606" cy="686.569" r="4" fill="#0" id="circle45"/>
	<circle cx="311.156" cy="629.688" r="4" fill="#0" id="circle46"/>
	<circle cx="313.431" cy="779.853" r="4" fill="#0" id="circle47"/>
	<circle cx="322.532" cy="650.165" r="4" fill="#0" id="circle48"/>
	<circle cx="324.807" cy="233.798" r="4" fill="#0" id="circle49"/>
	<circle cx="327.083" cy="4" r="4" fill="#0" id="circle50"/>
	<circle cx="336.183" cy="211.046" r="4" fill="#0" id="circle51"/>
	<circle cx="336.183" cy="779.853" r="4" fill="#0" id="circle52"/>
	<circle cx="347.56" cy="242.899" r="4" fill="#0" id="circle53"/>
	<circle cx="349.835" cy="4" r="4" fill="#0" id="circle54"/>
	<circle cx="354.385" cy="195.119" r="4" fill="#0" id="circle55"/>
	<circle cx="358.936" cy="51.7798" r="4" fill="#0" id="circle56"/>
	<circle cx="358.936" cy="779.853" r="4" fill="#0" id="circle57"/>
	<circle cx="365.761" cy="172.367" r="4" fill="#0" id="circle58"/>
	<circle cx="368.037" cy="231.523" r="4" fill="#0" id="circle59"/>
	<circle cx="370.312" cy="15.3761" r="4" fill="#0" id="circle60"/>
	<circle cx="377.138" cy="65.4312" r="4" fill="#0" id="circle61"/>
	<circle cx="377.138" cy="149.615" r="4" fill="#0" id="circle62"/>
	<circle cx="381.688" cy="88.1835" r="4" fill="#0" id="circle63"/>
	<circle cx="381.688" cy="110.936" r="4" fill="#0" id="circle64"/>
	<circle cx="381.688" cy="779.853" r="4" fill="#0" id="circle65"/>
	<circle cx="390.789" cy="231.523" r="4" fill="#0" id="circle66"/>
	<circle cx="404.44" cy="779.853" r="4" fill="#0" id="circle67"/>
	<circle cx="413.541" cy="231.523" r="4" fill="#0" id="circle68"/>
	<circle cx="427.193" cy="779.853" r="4" fill="#0" id="circle69"/>
	<circle cx="436.294" cy="231.523" r="4" fill="#0" id="circle70"/>
	<circle cx="449.945" cy="779.853" r="4" fill="#0" id="circle71"/>
	<circle cx="459.046" cy="231.523" r="4" fill="#0" id="circle72"/>
	<circle cx="472.697" cy="779.853" r="4" fill="#0" id="circle73"/>
	<circle cx="481.798" cy="231.523" r="4" fill="#0" id="circle74"/>
	<circle cx="495.45" cy="779.853" r="4" fill="#0" id="circle75"/>
	<circle cx="504.55" cy="226.972" r="4" fill="#0" id="circle76"/>
	<circle cx="518.202" cy="779.853" r="4" fill="#0" id="circle77"/>
	<circle cx="527.303" cy="220.147" r="4" fill="#0" id="circle78"/>
	<circle cx="540.954" cy="779.853" r="4" fill="#0" id="circle79"/>
	<circle cx="550.055" cy="220.147" r="4" fill="#0" id="circle80"/>
	<circle cx="563.706" cy="779.853" r="4" fill="#0" id="circle81"/>
	<circle cx="572.807" cy="220.147" r="4" fill="#0" id="circle82"/>
	<circle cx="586.459" cy="779.853" r="4" fill="#0" id="circle83"/>
	<circle cx="595.56" cy="220.147" r="4" fill="#0" id="circle84"/>
	<circle cx="609.211" cy="779.853" r="4" fill="#0" id="circle85"/>
	<circle cx="618.312" cy="220.147" r="4" fill="#0" id="circle86"/>
	<circle cx="631.963" cy="779.853" r="4" fill="#0" id="circle87"/>
	<circle cx="641.064" cy="220.147" r="4" fill="#0" id="circle88"/>
	<circle cx="654.716" cy="784.404" r="4" fill="#0" id="circle89"/>
	<circle cx="663.817" cy="220.147" r="4" fill="#0" id="circle90"/>
	<circle cx="677.468" cy="779.853" r="4" fill="#0" id="circle91"/>
	<circle cx="686.569" cy="224.697" r="4" fill="#0" id="circle92"/>
	<circle cx="700.22" cy="779.853" r="4" fill="#0" id="circle93"/>
	<circle cx="709.321" cy="231.523" r="4" fill="#0" id="circle94"/>
	<circle cx="722.972" cy="779.853" r="4" fill="#0" id="circle95"/>
	<circle cx="732.073" cy="231.523" r="4" fill="#0" id="circle96"/>
	<circle cx="745.725" cy="779.853" r="4" fill="#0" id="circle97"/>
	<circle cx="754.826" cy="236.073" r="4" fill="#0" id="circle98"/>
	<circle cx="768.477" cy="254.275" r="4" fill="#0" id="circle99"/>
	<circle cx="768.477" cy="779.853" r="4" fill="#0" id="circle100"/>
	<circle cx="786.679" cy="267.927" r="4" fill="#0" id="circle101"/>
	<circle cx="791.229" cy="779.853" r="4" fill="#0" id="circle102"/>
	<circle cx="807.156" cy="279.303" r="4" fill="#0" id="circle103"/>
	<circle cx="813.982" cy="779.853" r="4" fill="#0" id="circle104"/>
	<circle cx="825.358" cy="295.229" r="4" fill="#0" id="circle105"/>
	<circle cx="836.734" cy="722.972" r="4" fill="#0" id="circle106"/>
	<circle cx="836.734" cy="779.853" r="4" fill="#0" id="circle107"/>
	<circle cx="841.284" cy="313.431" r="4" fill="#0" id="circle108"/>
	<circle cx="848.11" cy="743.45" r="4" fill="#0" id="circle109"/>
	<circle cx="859.486" cy="722.972" r="4" fill="#0" id="circle110"/>
	<circle cx="864.037" cy="322.532" r="4" fill="#0" id="circle111"/>
	<circle cx="882.239" cy="336.183" r="4" fill="#0" id="circle112"/>
	<circle cx="882.239" cy="722.972" r="4" fill="#0" id="circle113"/>
	<circle cx="886.789" cy="358.936" r="4" fill="#0" id="circle114"/>
	<circle cx="898.165" cy="379.413" r="4" fill="#0" id="circle115"/>
	<circle cx="904.991" cy="722.972" r="4" fill="#0" id="circle116"/>
	<circle cx="914.092" cy="397.615" r="4" fill="#0" id="circle117"/>
	<circle cx="927.743" cy="722.972" r="4" fill="#0" id="circle118"/>
	<circle cx="932.294" cy="413.541" r="4" fill="#0" id="circle119"/>
	<circle cx="939.119" cy="436.294" r="4" fill="#0" id="circle120"/>
	<circle cx="939.119" cy="563.706" r="4" fill="#0" id="circle121"/>
	<circle cx="939.119" cy="586.459" r="4" fill="#0" id="circle122"/>
	<circle cx="948.22" cy="711.596" r="4" fill="#0" id="circle123"/>
	<circle cx="950.495" cy="456.771" r="4" fill="#0" id="circle124"/>
	<circle cx="950.495" cy="479.523" r="4" fill="#0" id="circle125"/>
	<circle cx="950.495" cy="529.578" r="4" fill="#0" id="circle126"/>
	<circle cx="950.495" cy="606.936" r="4" fill="#0" id="circle127"/>
	<circle cx="961.872" cy="500" r="4" fill="#0" id="circle128"/>
	<circle cx="970.972" cy="704.771" r="4" fill="#0" id="circle129"/>
	<circle cx="973.248" cy="613.761" r="4" fill="#0" id="circle130"/>
	<circle cx="984.624" cy="634.239" r="4" fill="#0" id="circle131"/>
	<circle cx="989.174" cy="686.569" r="4" fill="#0" id="circle132"/>
	<circle cx="996" cy="654.716" r="4" fill="#0" id="circle133"/>
	</g>
</svg>