<?xml version="1.0" encoding="UTF-8" standalone="no"?>
<!-- Created with CurveBenchmark -->
<svg
	xmlns:dc="http://purl.org/dc/elements/1.1/"
	xmlns:cc="http://creativecommons.org/ns#"
	xmlns:rdf="http://www.w3.org/1999/02/22-rdf-syntax-ns#"
	xmlns:svg="http://www.w3.org/2000/svg"
	xmlns="http://www.w3.org/2000/svg"
	xmlns:sodipodi="http://sodipodi.sourceforge.net/DTD/sodipodi-0.dtd"
	xmlns:inkscape="http://www.inkscape.org/namespaces/inkscape"
	width="1000"
	height="1000"
	id="svg2"
	version="1.1"
	sodipodi:docname="manifold/gathang-fish0708.png.txt">
<defs
	id="defs4" />
<metadata
	id="metadata7">
	<rdf:RDF>
		<cc:Work
			rdf:about="">
			<dc:format>image/svg+xml</dc:format>
			<dc:type
				rdf:resource="http://purl.org/dc/dcmitype/StillImage" />
			<dc:title></dc:title>
		</cc:Work>
	</rdf:RDF>
</metadata>
<g
	inkscape:label="Layer 1"
	inkscape:groupmode="layer"
	id="layer1">
	<path style="fill:none;stroke:red;stroke-width:1px;stroke-linecap:butt;stroke-linejoin:miter;stroke-opacity:1" d="M 30.7727,81.5 44.8636,81.5 z" id="boundary" inkscape:connector-curvature="0" />
	<path style="fill:none;stroke:red;stroke-width:1px;stroke-linecap:butt;stroke-linejoin:miter;stroke-opacity:1" d="M 58.9545,81.5 73.0455,81.5 z" id="boundary" inkscape:connector-curvature="0" />
	<path style="fill:none;stroke:red;stroke-width:1px;stroke-linecap:butt;stroke-linejoin:miter;stroke-opacity:1" d="M 87.1364,81.5 73.0455,81.5 z" id="boundary" inkscape:connector-curvature="0" />
	<path style="fill:none;stroke:red;stroke-width:1px;stroke-linecap:butt;stroke-linejoin:miter;stroke-opacity:1" d="M 99.8182,74.4545 87.1364,81.5 z" id="boundary" inkscape:connector-curvature="0" />
	<path style="fill:none;stroke:red;stroke-width:1px;stroke-linecap:butt;stroke-linejoin:miter;stroke-opacity:1" d="M 58.9545,81.5 44.8636,81.5 z" id="boundary" inkscape:connector-curvature="0" />
	<path style="fill:none;stroke:red;stroke-width:1px;stroke-linecap:butt;stroke-linejoin:miter;stroke-opacity:1" d="M 99.8182,74.4545 113.909,74.4545 z" id="boundary" inkscape:connector-curvature="0" />
	<path style="fill:none;stroke:red;stroke-width:1px;stroke-linecap:butt;stroke-linejoin:miter;stroke-opacity:1" d="M 128,74.4545 113.909,74.4545 z" id="boundary" inkscape:connector-curvature="0" />
	<path style="fill:none;stroke:red;stroke-width:1px;stroke-linecap:butt;stroke-linejoin:miter;stroke-opacity:1" d="M 156.182,74.4545 142.091,74.4545 z" id="boundary" inkscape:connector-curvature="0" />
	<path style="fill:none;stroke:red;stroke-width:1px;stroke-linecap:butt;stroke-linejoin:miter;stroke-opacity:1" d="M 170.273,74.4545 156.182,74.4545 z" id="boundary" inkscape:connector-curvature="0" />
	<path style="fill:none;stroke:red;stroke-width:1px;stroke-linecap:butt;stroke-linejoin:miter;stroke-opacity:1" d="M 128,74.4545 142.091,74.4545 z" id="boundary" inkscape:connector-curvature="0" />
	<path style="fill:none;stroke:red;stroke-width:1px;stroke-linecap:butt;stroke-linejoin:miter;stroke-opacity:1" d="M 4,92.7727 18.0909,88.5455 z" id="boundary" inkscape:connector-curvature="0" />
	<path style="fill:none;stroke:red;stroke-width:1px;stroke-linecap:butt;stroke-linejoin:miter;stroke-opacity:1" d="M 4,106.864 4,92.7727 z" id="boundary" inkscape:connector-curvature="0" />
	<path style="fill:none;stroke:red;stroke-width:1px;stroke-linecap:butt;stroke-linejoin:miter;stroke-opacity:1" d="M 30.7727,81.5 18.0909,88.5455 z" id="boundary" inkscape:connector-curvature="0" />
	<path style="fill:none;stroke:red;stroke-width:1px;stroke-linecap:butt;stroke-linejoin:miter;stroke-opacity:1" d="M 15.2727,116.727 4,106.864 z" id="boundary" inkscape:connector-curvature="0" />
	<path style="fill:none;stroke:red;stroke-width:1px;stroke-linecap:butt;stroke-linejoin:miter;stroke-opacity:1" d="M 27.9545,123.773 15.2727,116.727 z" id="boundary" inkscape:connector-curvature="0" />
	<path style="fill:none;stroke:red;stroke-width:1px;stroke-linecap:butt;stroke-linejoin:miter;stroke-opacity:1" d="M 27.9545,123.773 42.0455,129.409 z" id="boundary" inkscape:connector-curvature="0" />
	<path style="fill:none;stroke:red;stroke-width:1px;stroke-linecap:butt;stroke-linejoin:miter;stroke-opacity:1" d="M 66,146.318 75.8636,157.591 z" id="boundary" inkscape:connector-curvature="0" />
	<path style="fill:none;stroke:red;stroke-width:1px;stroke-linecap:butt;stroke-linejoin:miter;stroke-opacity:1" d="M 66,146.318 54.7273,136.455 z" id="boundary" inkscape:connector-curvature="0" />
	<path style="fill:none;stroke:red;stroke-width:1px;stroke-linecap:butt;stroke-linejoin:miter;stroke-opacity:1" d="M 89.9545,163.227 75.8636,157.591 z" id="boundary" inkscape:connector-curvature="0" />
	<path style="fill:none;stroke:red;stroke-width:1px;stroke-linecap:butt;stroke-linejoin:miter;stroke-opacity:1" d="M 42.0455,129.409 54.7273,136.455 z" id="boundary" inkscape:connector-curvature="0" />
	<path style="fill:none;stroke:red;stroke-width:1px;stroke-linecap:butt;stroke-linejoin:miter;stroke-opacity:1" d="M 89.9545,163.227 104.045,167.455 z" id="boundary" inkscape:connector-curvature="0" />
	<path style="fill:none;stroke:red;stroke-width:1px;stroke-linecap:butt;stroke-linejoin:miter;stroke-opacity:1" d="M 104.045,167.455 116.727,174.5 z" id="boundary" inkscape:connector-curvature="0" />
	<path style="fill:none;stroke:red;stroke-width:1px;stroke-linecap:butt;stroke-linejoin:miter;stroke-opacity:1" d="M 130.818,174.5 116.727,174.5 z" id="boundary" inkscape:connector-curvature="0" />
	<path style="fill:none;stroke:red;stroke-width:1px;stroke-linecap:butt;stroke-linejoin:miter;stroke-opacity:1" d="M 390.091,46.2727 399.955,35 z" id="boundary" inkscape:connector-curvature="0" />
	<path style="fill:none;stroke:red;stroke-width:1px;stroke-linecap:butt;stroke-linejoin:miter;stroke-opacity:1" d="M 421.091,13.8636 411.227,25.1364 z" id="boundary" inkscape:connector-curvature="0" />
	<path style="fill:none;stroke:red;stroke-width:1px;stroke-linecap:butt;stroke-linejoin:miter;stroke-opacity:1" d="M 411.227,25.1364 399.955,35 z" id="boundary" inkscape:connector-curvature="0" />
	<path style="fill:none;stroke:red;stroke-width:1px;stroke-linecap:butt;stroke-linejoin:miter;stroke-opacity:1" d="M 390.091,46.2727 378.818,56.1364 z" id="boundary" inkscape:connector-curvature="0" />
	<path style="fill:none;stroke:red;stroke-width:1px;stroke-linecap:butt;stroke-linejoin:miter;stroke-opacity:1" d="M 367.545,67.4091 378.818,56.1364 z" id="boundary" inkscape:connector-curvature="0" />
	<path style="fill:none;stroke:red;stroke-width:1px;stroke-linecap:butt;stroke-linejoin:miter;stroke-opacity:1" d="M 432.364,4 421.091,13.8636 z" id="boundary" inkscape:connector-curvature="0" />
	<path style="fill:none;stroke:red;stroke-width:1px;stroke-linecap:butt;stroke-linejoin:miter;stroke-opacity:1" d="M 198.455,74.4545 184.364,74.4545 z" id="boundary" inkscape:connector-curvature="0" />
	<path style="fill:none;stroke:red;stroke-width:1px;stroke-linecap:butt;stroke-linejoin:miter;stroke-opacity:1" d="M 432.364,4 446.455,4 z" id="boundary" inkscape:connector-curvature="0" />
	<path style="fill:none;stroke:red;stroke-width:1px;stroke-linecap:butt;stroke-linejoin:miter;stroke-opacity:1" d="M 446.455,4 456.318,15.2727 z" id="boundary" inkscape:connector-curvature="0" />
	<path style="fill:none;stroke:red;stroke-width:1px;stroke-linecap:butt;stroke-linejoin:miter;stroke-opacity:1" d="M 456.318,15.2727 456.318,29.3636 z" id="boundary" inkscape:connector-curvature="0" />
	<path style="fill:none;stroke:red;stroke-width:1px;stroke-linecap:butt;stroke-linejoin:miter;stroke-opacity:1" d="M 456.318,43.4545 456.318,29.3636 z" id="boundary" inkscape:connector-curvature="0" />
	<path style="fill:none;stroke:red;stroke-width:1px;stroke-linecap:butt;stroke-linejoin:miter;stroke-opacity:1" d="M 184.364,74.4545 170.273,74.4545 z" id="boundary" inkscape:connector-curvature="0" />
	<path style="fill:none;stroke:red;stroke-width:1px;stroke-linecap:butt;stroke-linejoin:miter;stroke-opacity:1" d="M 353.455,74.4545 367.545,67.4091 z" id="boundary" inkscape:connector-curvature="0" />
	<path style="fill:none;stroke:red;stroke-width:1px;stroke-linecap:butt;stroke-linejoin:miter;stroke-opacity:1" d="M 212.545,74.4545 198.455,74.4545 z" id="boundary" inkscape:connector-curvature="0" />
	<path style="fill:none;stroke:red;stroke-width:1px;stroke-linecap:butt;stroke-linejoin:miter;stroke-opacity:1" d="M 226.636,74.4545 212.545,74.4545 z" id="boundary" inkscape:connector-curvature="0" />
	<path style="fill:none;stroke:red;stroke-width:1px;stroke-linecap:butt;stroke-linejoin:miter;stroke-opacity:1" d="M 226.636,74.4545 240.727,74.4545 z" id="boundary" inkscape:connector-curvature="0" />
	<path style="fill:none;stroke:red;stroke-width:1px;stroke-linecap:butt;stroke-linejoin:miter;stroke-opacity:1" d="M 254.818,74.4545 240.727,74.4545 z" id="boundary" inkscape:connector-curvature="0" />
	<path style="fill:none;stroke:red;stroke-width:1px;stroke-linecap:butt;stroke-linejoin:miter;stroke-opacity:1" d="M 268.909,74.4545 254.818,74.4545 z" id="boundary" inkscape:connector-curvature="0" />
	<path style="fill:none;stroke:red;stroke-width:1px;stroke-linecap:butt;stroke-linejoin:miter;stroke-opacity:1" d="M 268.909,74.4545 283,74.4545 z" id="boundary" inkscape:connector-curvature="0" />
	<path style="fill:none;stroke:red;stroke-width:1px;stroke-linecap:butt;stroke-linejoin:miter;stroke-opacity:1" d="M 297.091,74.4545 283,74.4545 z" id="boundary" inkscape:connector-curvature="0" />
	<path style="fill:none;stroke:red;stroke-width:1px;stroke-linecap:butt;stroke-linejoin:miter;stroke-opacity:1" d="M 311.182,74.4545 297.091,74.4545 z" id="boundary" inkscape:connector-curvature="0" />
	<path style="fill:none;stroke:red;stroke-width:1px;stroke-linecap:butt;stroke-linejoin:miter;stroke-opacity:1" d="M 311.182,74.4545 325.273,74.4545 z" id="boundary" inkscape:connector-curvature="0" />
	<path style="fill:none;stroke:red;stroke-width:1px;stroke-linecap:butt;stroke-linejoin:miter;stroke-opacity:1" d="M 339.364,74.4545 325.273,74.4545 z" id="boundary" inkscape:connector-curvature="0" />
	<path style="fill:none;stroke:red;stroke-width:1px;stroke-linecap:butt;stroke-linejoin:miter;stroke-opacity:1" d="M 353.455,74.4545 339.364,74.4545 z" id="boundary" inkscape:connector-curvature="0" />
	<path style="fill:none;stroke:red;stroke-width:1px;stroke-linecap:butt;stroke-linejoin:miter;stroke-opacity:1" d="M 130.818,174.5 144.909,174.5 z" id="boundary" inkscape:connector-curvature="0" />
	<path style="fill:none;stroke:red;stroke-width:1px;stroke-linecap:butt;stroke-linejoin:miter;stroke-opacity:1" d="M 144.909,174.5 157.591,181.545 z" id="boundary" inkscape:connector-curvature="0" />
	<path style="fill:none;stroke:red;stroke-width:1px;stroke-linecap:butt;stroke-linejoin:miter;stroke-opacity:1" d="M 171.682,181.545 157.591,181.545 z" id="boundary" inkscape:connector-curvature="0" />
	<path style="fill:none;stroke:red;stroke-width:1px;stroke-linecap:butt;stroke-linejoin:miter;stroke-opacity:1" d="M 198.455,188.591 184.364,188.591 z" id="boundary" inkscape:connector-curvature="0" />
	<path style="fill:none;stroke:red;stroke-width:1px;stroke-linecap:butt;stroke-linejoin:miter;stroke-opacity:1" d="M 184.364,188.591 171.682,181.545 z" id="boundary" inkscape:connector-curvature="0" />
	<path style="fill:none;stroke:red;stroke-width:1px;stroke-linecap:butt;stroke-linejoin:miter;stroke-opacity:1" d="M 239.318,195.636 225.227,195.636 z" id="boundary" inkscape:connector-curvature="0" />
	<path style="fill:none;stroke:red;stroke-width:1px;stroke-linecap:butt;stroke-linejoin:miter;stroke-opacity:1" d="M 225.227,195.636 212.545,188.591 z" id="boundary" inkscape:connector-curvature="0" />
	<path style="fill:none;stroke:red;stroke-width:1px;stroke-linecap:butt;stroke-linejoin:miter;stroke-opacity:1" d="M 253.409,199.864 259.045,213.955 z" id="boundary" inkscape:connector-curvature="0" />
	<path style="fill:none;stroke:red;stroke-width:1px;stroke-linecap:butt;stroke-linejoin:miter;stroke-opacity:1" d="M 239.318,195.636 253.409,199.864 z" id="boundary" inkscape:connector-curvature="0" />
	<path style="fill:none;stroke:red;stroke-width:1px;stroke-linecap:butt;stroke-linejoin:miter;stroke-opacity:1" d="M 264.682,228.045 259.045,213.955 z" id="boundary" inkscape:connector-curvature="0" />
	<path style="fill:none;stroke:red;stroke-width:1px;stroke-linecap:butt;stroke-linejoin:miter;stroke-opacity:1" d="M 271.727,240.727 264.682,228.045 z" id="boundary" inkscape:connector-curvature="0" />
	<path style="fill:none;stroke:red;stroke-width:1px;stroke-linecap:butt;stroke-linejoin:miter;stroke-opacity:1" d="M 198.455,188.591 212.545,188.591 z" id="boundary" inkscape:connector-curvature="0" />
	<path style="fill:none;stroke:red;stroke-width:1px;stroke-linecap:butt;stroke-linejoin:miter;stroke-opacity:1" d="M 271.727,240.727 278.773,253.409 z" id="boundary" inkscape:connector-curvature="0" />
	<path style="fill:none;stroke:red;stroke-width:1px;stroke-linecap:butt;stroke-linejoin:miter;stroke-opacity:1" d="M 278.773,253.409 278.773,267.5 z" id="boundary" inkscape:connector-curvature="0" />
	<path style="fill:none;stroke:red;stroke-width:1px;stroke-linecap:butt;stroke-linejoin:miter;stroke-opacity:1" d="M 285.818,280.182 278.773,267.5 z" id="boundary" inkscape:connector-curvature="0" />
	<path style="fill:none;stroke:red;stroke-width:1px;stroke-linecap:butt;stroke-linejoin:miter;stroke-opacity:1" d="M 285.818,280.182 292.864,292.864 z" id="boundary" inkscape:connector-curvature="0" />
	<path style="fill:none;stroke:red;stroke-width:1px;stroke-linecap:butt;stroke-linejoin:miter;stroke-opacity:1" d="M 299.909,305.545 292.864,292.864 z" id="boundary" inkscape:connector-curvature="0" />
	<path style="fill:none;stroke:red;stroke-width:1px;stroke-linecap:butt;stroke-linejoin:miter;stroke-opacity:1" d="M 306.955,318.227 299.909,305.545 z" id="boundary" inkscape:connector-curvature="0" />
	<path style="fill:none;stroke:red;stroke-width:1px;stroke-linecap:butt;stroke-linejoin:miter;stroke-opacity:1" d="M 306.955,318.227 314,330.909 z" id="boundary" inkscape:connector-curvature="0" />
	<path style="fill:none;stroke:red;stroke-width:1px;stroke-linecap:butt;stroke-linejoin:miter;stroke-opacity:1" d="M 321.045,343.591 314,330.909 z" id="boundary" inkscape:connector-curvature="0" />
	<path style="fill:none;stroke:red;stroke-width:1px;stroke-linecap:butt;stroke-linejoin:miter;stroke-opacity:1" d="M 329.5,354.864 321.045,343.591 z" id="boundary" inkscape:connector-curvature="0" />
	<path style="fill:none;stroke:red;stroke-width:1px;stroke-linecap:butt;stroke-linejoin:miter;stroke-opacity:1" d="M 346.409,378.818 336.545,367.545 z" id="boundary" inkscape:connector-curvature="0" />
	<path style="fill:none;stroke:red;stroke-width:1px;stroke-linecap:butt;stroke-linejoin:miter;stroke-opacity:1" d="M 329.5,354.864 336.545,367.545 z" id="boundary" inkscape:connector-curvature="0" />
	<path style="fill:none;stroke:red;stroke-width:1px;stroke-linecap:butt;stroke-linejoin:miter;stroke-opacity:1" d="M 346.409,378.818 353.455,391.5 z" id="boundary" inkscape:connector-curvature="0" />
	<path style="fill:none;stroke:red;stroke-width:1px;stroke-linecap:butt;stroke-linejoin:miter;stroke-opacity:1" d="M 350.636,209.727 363.318,202.682 z" id="boundary" inkscape:connector-curvature="0" />
	<path style="fill:none;stroke:red;stroke-width:1px;stroke-linecap:butt;stroke-linejoin:miter;stroke-opacity:1" d="M 353.455,223.818 350.636,209.727 z" id="boundary" inkscape:connector-curvature="0" />
	<path style="fill:none;stroke:red;stroke-width:1px;stroke-linecap:butt;stroke-linejoin:miter;stroke-opacity:1" d="M 357.682,237.909 353.455,223.818 z" id="boundary" inkscape:connector-curvature="0" />
	<path style="fill:none;stroke:red;stroke-width:1px;stroke-linecap:butt;stroke-linejoin:miter;stroke-opacity:1" d="M 364.727,264.682 357.682,252 z" id="boundary" inkscape:connector-curvature="0" />
	<path style="fill:none;stroke:red;stroke-width:1px;stroke-linecap:butt;stroke-linejoin:miter;stroke-opacity:1" d="M 357.682,252 357.682,237.909 z" id="boundary" inkscape:connector-curvature="0" />
	<path style="fill:none;stroke:red;stroke-width:1px;stroke-linecap:butt;stroke-linejoin:miter;stroke-opacity:1" d="M 364.727,264.682 364.727,278.773 z" id="boundary" inkscape:connector-curvature="0" />
	<path style="fill:none;stroke:red;stroke-width:1px;stroke-linecap:butt;stroke-linejoin:miter;stroke-opacity:1" d="M 363.318,202.682 377.409,202.682 z" id="boundary" inkscape:connector-curvature="0" />
	<path style="fill:none;stroke:red;stroke-width:1px;stroke-linecap:butt;stroke-linejoin:miter;stroke-opacity:1" d="M 391.5,202.682 377.409,202.682 z" id="boundary" inkscape:connector-curvature="0" />
	<path style="fill:none;stroke:red;stroke-width:1px;stroke-linecap:butt;stroke-linejoin:miter;stroke-opacity:1" d="M 391.5,202.682 405.591,202.682 z" id="boundary" inkscape:connector-curvature="0" />
	<path style="fill:none;stroke:red;stroke-width:1px;stroke-linecap:butt;stroke-linejoin:miter;stroke-opacity:1" d="M 405.591,202.682 418.273,209.727 z" id="boundary" inkscape:connector-curvature="0" />
	<path style="fill:none;stroke:red;stroke-width:1px;stroke-linecap:butt;stroke-linejoin:miter;stroke-opacity:1" d="M 445.045,202.682 432.364,209.727 z" id="boundary" inkscape:connector-curvature="0" />
	<path style="fill:none;stroke:red;stroke-width:1px;stroke-linecap:butt;stroke-linejoin:miter;stroke-opacity:1" d="M 432.364,209.727 418.273,209.727 z" id="boundary" inkscape:connector-curvature="0" />
	<path style="fill:none;stroke:red;stroke-width:1px;stroke-linecap:butt;stroke-linejoin:miter;stroke-opacity:1" d="M 371.773,291.455 378.818,304.136 z" id="boundary" inkscape:connector-curvature="0" />
	<path style="fill:none;stroke:red;stroke-width:1px;stroke-linecap:butt;stroke-linejoin:miter;stroke-opacity:1" d="M 371.773,291.455 364.727,278.773 z" id="boundary" inkscape:connector-curvature="0" />
	<path style="fill:none;stroke:red;stroke-width:1px;stroke-linecap:butt;stroke-linejoin:miter;stroke-opacity:1" d="M 378.818,304.136 384.455,318.227 z" id="boundary" inkscape:connector-curvature="0" />
	<path style="fill:none;stroke:red;stroke-width:1px;stroke-linecap:butt;stroke-linejoin:miter;stroke-opacity:1" d="M 385.864,385.864 380.227,399.955 z" id="boundary" inkscape:connector-curvature="0" />
	<path style="fill:none;stroke:red;stroke-width:1px;stroke-linecap:butt;stroke-linejoin:miter;stroke-opacity:1" d="M 380.227,399.955 366.136,398.545 z" id="boundary" inkscape:connector-curvature="0" />
	<path style="fill:none;stroke:red;stroke-width:1px;stroke-linecap:butt;stroke-linejoin:miter;stroke-opacity:1" d="M 366.136,398.545 353.455,391.5 z" id="boundary" inkscape:connector-curvature="0" />
	<path style="fill:none;stroke:red;stroke-width:1px;stroke-linecap:butt;stroke-linejoin:miter;stroke-opacity:1" d="M 392.909,345 385.864,332.318 z" id="boundary" inkscape:connector-curvature="0" />
	<path style="fill:none;stroke:red;stroke-width:1px;stroke-linecap:butt;stroke-linejoin:miter;stroke-opacity:1" d="M 385.864,332.318 384.455,318.227 z" id="boundary" inkscape:connector-curvature="0" />
	<path style="fill:none;stroke:red;stroke-width:1px;stroke-linecap:butt;stroke-linejoin:miter;stroke-opacity:1" d="M 392.909,345 392.909,359.091 z" id="boundary" inkscape:connector-curvature="0" />
	<path style="fill:none;stroke:red;stroke-width:1px;stroke-linecap:butt;stroke-linejoin:miter;stroke-opacity:1" d="M 392.909,359.091 392.909,373.182 z" id="boundary" inkscape:connector-curvature="0" />
	<path style="fill:none;stroke:red;stroke-width:1px;stroke-linecap:butt;stroke-linejoin:miter;stroke-opacity:1" d="M 392.909,373.182 385.864,385.864 z" id="boundary" inkscape:connector-curvature="0" />
	<path style="fill:none;stroke:red;stroke-width:1px;stroke-linecap:butt;stroke-linejoin:miter;stroke-opacity:1" d="M 445.045,202.682 459.136,202.682 z" id="boundary" inkscape:connector-curvature="0" />
	<path style="fill:none;stroke:red;stroke-width:1px;stroke-linecap:butt;stroke-linejoin:miter;stroke-opacity:1" d="M 456.318,43.4545 456.318,57.5455 z" id="boundary" inkscape:connector-curvature="0" />
	<path style="fill:none;stroke:red;stroke-width:1px;stroke-linecap:butt;stroke-linejoin:miter;stroke-opacity:1" d="M 471.818,81.5 463.364,70.2273 z" id="boundary" inkscape:connector-curvature="0" />
	<path style="fill:none;stroke:red;stroke-width:1px;stroke-linecap:butt;stroke-linejoin:miter;stroke-opacity:1" d="M 463.364,70.2273 456.318,57.5455 z" id="boundary" inkscape:connector-curvature="0" />
	<path style="fill:none;stroke:red;stroke-width:1px;stroke-linecap:butt;stroke-linejoin:miter;stroke-opacity:1" d="M 471.818,81.5 484.5,88.5455 z" id="boundary" inkscape:connector-curvature="0" />
	<path style="fill:none;stroke:red;stroke-width:1px;stroke-linecap:butt;stroke-linejoin:miter;stroke-opacity:1" d="M 484.5,88.5455 498.591,88.5455 z" id="boundary" inkscape:connector-curvature="0" />
	<path style="fill:none;stroke:red;stroke-width:1px;stroke-linecap:butt;stroke-linejoin:miter;stroke-opacity:1" d="M 498.591,88.5455 512.682,88.5455 z" id="boundary" inkscape:connector-curvature="0" />
	<path style="fill:none;stroke:red;stroke-width:1px;stroke-linecap:butt;stroke-linejoin:miter;stroke-opacity:1" d="M 569.045,95.5909 554.955,95.5909 z" id="boundary" inkscape:connector-curvature="0" />
	<path style="fill:none;stroke:red;stroke-width:1px;stroke-linecap:butt;stroke-linejoin:miter;stroke-opacity:1" d="M 554.955,95.5909 540.864,92.7727 z" id="boundary" inkscape:connector-curvature="0" />
	<path style="fill:none;stroke:red;stroke-width:1px;stroke-linecap:butt;stroke-linejoin:miter;stroke-opacity:1" d="M 540.864,92.7727 526.773,88.5455 z" id="boundary" inkscape:connector-curvature="0" />
	<path style="fill:none;stroke:red;stroke-width:1px;stroke-linecap:butt;stroke-linejoin:miter;stroke-opacity:1" d="M 512.682,88.5455 526.773,88.5455 z" id="boundary" inkscape:connector-curvature="0" />
	<path style="fill:none;stroke:red;stroke-width:1px;stroke-linecap:butt;stroke-linejoin:miter;stroke-opacity:1" d="M 569.045,95.5909 583.136,95.5909 z" id="boundary" inkscape:connector-curvature="0" />
	<path style="fill:none;stroke:red;stroke-width:1px;stroke-linecap:butt;stroke-linejoin:miter;stroke-opacity:1" d="M 583.136,95.5909 597.227,95.5909 z" id="boundary" inkscape:connector-curvature="0" />
	<path style="fill:none;stroke:red;stroke-width:1px;stroke-linecap:butt;stroke-linejoin:miter;stroke-opacity:1" d="M 597.227,95.5909 611.318,99.8182 z" id="boundary" inkscape:connector-curvature="0" />
	<path style="fill:none;stroke:red;stroke-width:1px;stroke-linecap:butt;stroke-linejoin:miter;stroke-opacity:1" d="M 639.5,102.636 625.409,102.636 z" id="boundary" inkscape:connector-curvature="0" />
	<path style="fill:none;stroke:red;stroke-width:1px;stroke-linecap:butt;stroke-linejoin:miter;stroke-opacity:1" d="M 625.409,102.636 611.318,99.8182 z" id="boundary" inkscape:connector-curvature="0" />
	<path style="fill:none;stroke:red;stroke-width:1px;stroke-linecap:butt;stroke-linejoin:miter;stroke-opacity:1" d="M 639.5,102.636 652.182,109.682 z" id="boundary" inkscape:connector-curvature="0" />
	<path style="fill:none;stroke:red;stroke-width:1px;stroke-linecap:butt;stroke-linejoin:miter;stroke-opacity:1" d="M 652.182,109.682 666.273,109.682 z" id="boundary" inkscape:connector-curvature="0" />
	<path style="fill:none;stroke:red;stroke-width:1px;stroke-linecap:butt;stroke-linejoin:miter;stroke-opacity:1" d="M 680.364,109.682 666.273,109.682 z" id="boundary" inkscape:connector-curvature="0" />
	<path style="fill:none;stroke:red;stroke-width:1px;stroke-linecap:butt;stroke-linejoin:miter;stroke-opacity:1" d="M 694.455,109.682 680.364,109.682 z" id="boundary" inkscape:connector-curvature="0" />
	<path style="fill:none;stroke:red;stroke-width:1px;stroke-linecap:butt;stroke-linejoin:miter;stroke-opacity:1" d="M 694.455,109.682 708.545,112.5 z" id="boundary" inkscape:connector-curvature="0" />
	<path style="fill:none;stroke:red;stroke-width:1px;stroke-linecap:butt;stroke-linejoin:miter;stroke-opacity:1" d="M 721.227,119.545 708.545,112.5 z" id="boundary" inkscape:connector-curvature="0" />
	<path style="fill:none;stroke:red;stroke-width:1px;stroke-linecap:butt;stroke-linejoin:miter;stroke-opacity:1" d="M 735.318,123.773 749.409,123.773 z" id="boundary" inkscape:connector-curvature="0" />
	<path style="fill:none;stroke:red;stroke-width:1px;stroke-linecap:butt;stroke-linejoin:miter;stroke-opacity:1" d="M 735.318,123.773 721.227,119.545 z" id="boundary" inkscape:connector-curvature="0" />
	<path style="fill:none;stroke:red;stroke-width:1px;stroke-linecap:butt;stroke-linejoin:miter;stroke-opacity:1" d="M 763.5,123.773 749.409,123.773 z" id="boundary" inkscape:connector-curvature="0" />
	<path style="fill:none;stroke:red;stroke-width:1px;stroke-linecap:butt;stroke-linejoin:miter;stroke-opacity:1" d="M 901.591,60.3636 887.5,60.3636 z" id="boundary" inkscape:connector-curvature="0" />
	<path style="fill:none;stroke:red;stroke-width:1px;stroke-linecap:butt;stroke-linejoin:miter;stroke-opacity:1" d="M 914.273,53.3182 901.591,60.3636 z" id="boundary" inkscape:connector-curvature="0" />
	<path style="fill:none;stroke:red;stroke-width:1px;stroke-linecap:butt;stroke-linejoin:miter;stroke-opacity:1" d="M 928.364,53.3182 914.273,53.3182 z" id="boundary" inkscape:connector-curvature="0" />
	<path style="fill:none;stroke:red;stroke-width:1px;stroke-linecap:butt;stroke-linejoin:miter;stroke-opacity:1" d="M 887.5,60.3636 874.818,67.4091 z" id="boundary" inkscape:connector-curvature="0" />
	<path style="fill:none;stroke:red;stroke-width:1px;stroke-linecap:butt;stroke-linejoin:miter;stroke-opacity:1" d="M 874.818,67.4091 860.727,67.4091 z" id="boundary" inkscape:connector-curvature="0" />
	<path style="fill:none;stroke:red;stroke-width:1px;stroke-linecap:butt;stroke-linejoin:miter;stroke-opacity:1" d="M 848.045,74.4545 860.727,67.4091 z" id="boundary" inkscape:connector-curvature="0" />
	<path style="fill:none;stroke:red;stroke-width:1px;stroke-linecap:butt;stroke-linejoin:miter;stroke-opacity:1" d="M 956.545,53.3182 942.455,53.3182 z" id="boundary" inkscape:connector-curvature="0" />
	<path style="fill:none;stroke:red;stroke-width:1px;stroke-linecap:butt;stroke-linejoin:miter;stroke-opacity:1" d="M 969.227,46.2727 956.545,53.3182 z" id="boundary" inkscape:connector-curvature="0" />
	<path style="fill:none;stroke:red;stroke-width:1px;stroke-linecap:butt;stroke-linejoin:miter;stroke-opacity:1" d="M 942.455,53.3182 928.364,53.3182 z" id="boundary" inkscape:connector-curvature="0" />
	<path style="fill:none;stroke:red;stroke-width:1px;stroke-linecap:butt;stroke-linejoin:miter;stroke-opacity:1" d="M 983.318,46.2727 969.227,46.2727 z" id="boundary" inkscape:connector-curvature="0" />
	<path style="fill:none;stroke:red;stroke-width:1px;stroke-linecap:butt;stroke-linejoin:miter;stroke-opacity:1" d="M 983.318,46.2727 996,53.3182 z" id="boundary" inkscape:connector-curvature="0" />
	<path style="fill:none;stroke:red;stroke-width:1px;stroke-linecap:butt;stroke-linejoin:miter;stroke-opacity:1" d="M 996,53.3182 994.591,67.4091 z" id="boundary" inkscape:connector-curvature="0" />
	<path style="fill:none;stroke:red;stroke-width:1px;stroke-linecap:butt;stroke-linejoin:miter;stroke-opacity:1" d="M 994.591,67.4091 981.909,75.8636 z" id="boundary" inkscape:connector-curvature="0" />
	<path style="fill:none;stroke:red;stroke-width:1px;stroke-linecap:butt;stroke-linejoin:miter;stroke-opacity:1" d="M 848.045,74.4545 836.773,84.3182 z" id="boundary" inkscape:connector-curvature="0" />
	<path style="fill:none;stroke:red;stroke-width:1px;stroke-linecap:butt;stroke-linejoin:miter;stroke-opacity:1" d="M 836.773,84.3182 822.682,91.3636 z" id="boundary" inkscape:connector-curvature="0" />
	<path style="fill:none;stroke:red;stroke-width:1px;stroke-linecap:butt;stroke-linejoin:miter;stroke-opacity:1" d="M 811.409,102.636 822.682,91.3636 z" id="boundary" inkscape:connector-curvature="0" />
	<path style="fill:none;stroke:red;stroke-width:1px;stroke-linecap:butt;stroke-linejoin:miter;stroke-opacity:1" d="M 804.364,116.727 811.409,102.636 z" id="boundary" inkscape:connector-curvature="0" />
	<path style="fill:none;stroke:red;stroke-width:1px;stroke-linecap:butt;stroke-linejoin:miter;stroke-opacity:1" d="M 777.591,123.773 763.5,123.773 z" id="boundary" inkscape:connector-curvature="0" />
	<path style="fill:none;stroke:red;stroke-width:1px;stroke-linecap:butt;stroke-linejoin:miter;stroke-opacity:1" d="M 804.364,116.727 791.682,123.773 z" id="boundary" inkscape:connector-curvature="0" />
	<path style="fill:none;stroke:red;stroke-width:1px;stroke-linecap:butt;stroke-linejoin:miter;stroke-opacity:1" d="M 969.227,82.9091 956.545,89.9545 z" id="boundary" inkscape:connector-curvature="0" />
	<path style="fill:none;stroke:red;stroke-width:1px;stroke-linecap:butt;stroke-linejoin:miter;stroke-opacity:1" d="M 942.455,89.9545 928.364,97 z" id="boundary" inkscape:connector-curvature="0" />
	<path style="fill:none;stroke:red;stroke-width:1px;stroke-linecap:butt;stroke-linejoin:miter;stroke-opacity:1" d="M 956.545,89.9545 942.455,89.9545 z" id="boundary" inkscape:connector-curvature="0" />
	<path style="fill:none;stroke:red;stroke-width:1px;stroke-linecap:butt;stroke-linejoin:miter;stroke-opacity:1" d="M 918.5,108.273 928.364,97 z" id="boundary" inkscape:connector-curvature="0" />
	<path style="fill:none;stroke:red;stroke-width:1px;stroke-linecap:butt;stroke-linejoin:miter;stroke-opacity:1" d="M 918.5,108.273 907.227,118.136 z" id="boundary" inkscape:connector-curvature="0" />
	<path style="fill:none;stroke:red;stroke-width:1px;stroke-linecap:butt;stroke-linejoin:miter;stroke-opacity:1" d="M 981.909,75.8636 969.227,82.9091 z" id="boundary" inkscape:connector-curvature="0" />
	<path style="fill:none;stroke:red;stroke-width:1px;stroke-linecap:butt;stroke-linejoin:miter;stroke-opacity:1" d="M 907.227,118.136 893.136,125.182 z" id="boundary" inkscape:connector-curvature="0" />
	<path style="fill:none;stroke:red;stroke-width:1px;stroke-linecap:butt;stroke-linejoin:miter;stroke-opacity:1" d="M 646.545,174.5 660.636,174.5 z" id="boundary" inkscape:connector-curvature="0" />
	<path style="fill:none;stroke:red;stroke-width:1px;stroke-linecap:butt;stroke-linejoin:miter;stroke-opacity:1" d="M 632.455,181.545 646.545,174.5 z" id="boundary" inkscape:connector-curvature="0" />
	<path style="fill:none;stroke:red;stroke-width:1px;stroke-linecap:butt;stroke-linejoin:miter;stroke-opacity:1" d="M 674.727,174.5 660.636,174.5 z" id="boundary" inkscape:connector-curvature="0" />
	<path style="fill:none;stroke:red;stroke-width:1px;stroke-linecap:butt;stroke-linejoin:miter;stroke-opacity:1" d="M 688.818,174.5 674.727,174.5 z" id="boundary" inkscape:connector-curvature="0" />
	<path style="fill:none;stroke:red;stroke-width:1px;stroke-linecap:butt;stroke-linejoin:miter;stroke-opacity:1" d="M 622.591,192.818 632.455,181.545 z" id="boundary" inkscape:connector-curvature="0" />
	<path style="fill:none;stroke:red;stroke-width:1px;stroke-linecap:butt;stroke-linejoin:miter;stroke-opacity:1" d="M 611.318,202.682 622.591,192.818 z" id="boundary" inkscape:connector-curvature="0" />
	<path style="fill:none;stroke:red;stroke-width:1px;stroke-linecap:butt;stroke-linejoin:miter;stroke-opacity:1" d="M 688.818,174.5 702.909,177.318 z" id="boundary" inkscape:connector-curvature="0" />
	<path style="fill:none;stroke:red;stroke-width:1px;stroke-linecap:butt;stroke-linejoin:miter;stroke-opacity:1" d="M 745.182,167.455 731.091,174.5 z" id="boundary" inkscape:connector-curvature="0" />
	<path style="fill:none;stroke:red;stroke-width:1px;stroke-linecap:butt;stroke-linejoin:miter;stroke-opacity:1" d="M 745.182,167.455 757.864,160.409 z" id="boundary" inkscape:connector-curvature="0" />
	<path style="fill:none;stroke:red;stroke-width:1px;stroke-linecap:butt;stroke-linejoin:miter;stroke-opacity:1" d="M 757.864,160.409 771.955,160.409 z" id="boundary" inkscape:connector-curvature="0" />
	<path style="fill:none;stroke:red;stroke-width:1px;stroke-linecap:butt;stroke-linejoin:miter;stroke-opacity:1" d="M 731.091,174.5 717,181.545 z" id="boundary" inkscape:connector-curvature="0" />
	<path style="fill:none;stroke:red;stroke-width:1px;stroke-linecap:butt;stroke-linejoin:miter;stroke-opacity:1" d="M 717,181.545 702.909,177.318 z" id="boundary" inkscape:connector-curvature="0" />
	<path style="fill:none;stroke:red;stroke-width:1px;stroke-linecap:butt;stroke-linejoin:miter;stroke-opacity:1" d="M 501.409,201.273 515.5,195.636 z" id="boundary" inkscape:connector-curvature="0" />
	<path style="fill:none;stroke:red;stroke-width:1px;stroke-linecap:butt;stroke-linejoin:miter;stroke-opacity:1" d="M 515.5,195.636 529.591,195.636 z" id="boundary" inkscape:connector-curvature="0" />
	<path style="fill:none;stroke:red;stroke-width:1px;stroke-linecap:butt;stroke-linejoin:miter;stroke-opacity:1" d="M 501.409,201.273 487.318,202.682 z" id="boundary" inkscape:connector-curvature="0" />
	<path style="fill:none;stroke:red;stroke-width:1px;stroke-linecap:butt;stroke-linejoin:miter;stroke-opacity:1" d="M 473.227,202.682 487.318,202.682 z" id="boundary" inkscape:connector-curvature="0" />
	<path style="fill:none;stroke:red;stroke-width:1px;stroke-linecap:butt;stroke-linejoin:miter;stroke-opacity:1" d="M 473.227,202.682 459.136,202.682 z" id="boundary" inkscape:connector-curvature="0" />
	<path style="fill:none;stroke:red;stroke-width:1px;stroke-linecap:butt;stroke-linejoin:miter;stroke-opacity:1" d="M 557.773,201.273 543.682,195.636 z" id="boundary" inkscape:connector-curvature="0" />
	<path style="fill:none;stroke:red;stroke-width:1px;stroke-linecap:butt;stroke-linejoin:miter;stroke-opacity:1" d="M 570.455,208.318 557.773,201.273 z" id="boundary" inkscape:connector-curvature="0" />
	<path style="fill:none;stroke:red;stroke-width:1px;stroke-linecap:butt;stroke-linejoin:miter;stroke-opacity:1" d="M 597.227,202.682 584.545,209.727 z" id="boundary" inkscape:connector-curvature="0" />
	<path style="fill:none;stroke:red;stroke-width:1px;stroke-linecap:butt;stroke-linejoin:miter;stroke-opacity:1" d="M 584.545,209.727 570.455,208.318 z" id="boundary" inkscape:connector-curvature="0" />
	<path style="fill:none;stroke:red;stroke-width:1px;stroke-linecap:butt;stroke-linejoin:miter;stroke-opacity:1" d="M 597.227,202.682 611.318,202.682 z" id="boundary" inkscape:connector-curvature="0" />
	<path style="fill:none;stroke:red;stroke-width:1px;stroke-linecap:butt;stroke-linejoin:miter;stroke-opacity:1" d="M 529.591,195.636 543.682,195.636 z" id="boundary" inkscape:connector-curvature="0" />
	<path style="fill:none;stroke:red;stroke-width:1px;stroke-linecap:butt;stroke-linejoin:miter;stroke-opacity:1" d="M 777.591,123.773 791.682,123.773 z" id="boundary" inkscape:connector-curvature="0" />
	<path style="fill:none;stroke:red;stroke-width:1px;stroke-linecap:butt;stroke-linejoin:miter;stroke-opacity:1" d="M 786.045,160.409 771.955,160.409 z" id="boundary" inkscape:connector-curvature="0" />
	<path style="fill:none;stroke:red;stroke-width:1px;stroke-linecap:butt;stroke-linejoin:miter;stroke-opacity:1" d="M 814.227,191.409 801.545,184.364 z" id="boundary" inkscape:connector-curvature="0" />
	<path style="fill:none;stroke:red;stroke-width:1px;stroke-linecap:butt;stroke-linejoin:miter;stroke-opacity:1" d="M 801.545,184.364 794.5,171.682 z" id="boundary" inkscape:connector-curvature="0" />
	<path style="fill:none;stroke:red;stroke-width:1px;stroke-linecap:butt;stroke-linejoin:miter;stroke-opacity:1" d="M 814.227,191.409 825.5,201.273 z" id="boundary" inkscape:connector-curvature="0" />
	<path style="fill:none;stroke:red;stroke-width:1px;stroke-linecap:butt;stroke-linejoin:miter;stroke-opacity:1" d="M 794.5,171.682 786.045,160.409 z" id="boundary" inkscape:connector-curvature="0" />
	<path style="fill:none;stroke:red;stroke-width:1px;stroke-linecap:butt;stroke-linejoin:miter;stroke-opacity:1" d="M 883.273,136.455 872,146.318 z" id="boundary" inkscape:connector-curvature="0" />
	<path style="fill:none;stroke:red;stroke-width:1px;stroke-linecap:butt;stroke-linejoin:miter;stroke-opacity:1" d="M 883.273,136.455 893.136,125.182 z" id="boundary" inkscape:connector-curvature="0" />
	<path style="fill:none;stroke:red;stroke-width:1px;stroke-linecap:butt;stroke-linejoin:miter;stroke-opacity:1" d="M 872,160.409 872,146.318 z" id="boundary" inkscape:connector-curvature="0" />
	<path style="fill:none;stroke:red;stroke-width:1px;stroke-linecap:butt;stroke-linejoin:miter;stroke-opacity:1" d="M 879.045,187.182 872,174.5 z" id="boundary" inkscape:connector-curvature="0" />
	<path style="fill:none;stroke:red;stroke-width:1px;stroke-linecap:butt;stroke-linejoin:miter;stroke-opacity:1" d="M 872,174.5 872,160.409 z" id="boundary" inkscape:connector-curvature="0" />
	<path style="fill:none;stroke:red;stroke-width:1px;stroke-linecap:butt;stroke-linejoin:miter;stroke-opacity:1" d="M 846.636,222.409 835.364,212.545 z" id="boundary" inkscape:connector-curvature="0" />
	<path style="fill:none;stroke:red;stroke-width:1px;stroke-linecap:butt;stroke-linejoin:miter;stroke-opacity:1" d="M 856.5,233.682 846.636,222.409 z" id="boundary" inkscape:connector-curvature="0" />
	<path style="fill:none;stroke:red;stroke-width:1px;stroke-linecap:butt;stroke-linejoin:miter;stroke-opacity:1" d="M 825.5,201.273 835.364,212.545 z" id="boundary" inkscape:connector-curvature="0" />
	<path style="fill:none;stroke:red;stroke-width:1px;stroke-linecap:butt;stroke-linejoin:miter;stroke-opacity:1" d="M 856.5,233.682 870.591,237.909 z" id="boundary" inkscape:connector-curvature="0" />
	<path style="fill:none;stroke:red;stroke-width:1px;stroke-linecap:butt;stroke-linejoin:miter;stroke-opacity:1" d="M 870.591,237.909 879.045,249.182 z" id="boundary" inkscape:connector-curvature="0" />
	<path style="fill:none;stroke:red;stroke-width:1px;stroke-linecap:butt;stroke-linejoin:miter;stroke-opacity:1" d="M 893.136,212.545 898.773,226.636 z" id="boundary" inkscape:connector-curvature="0" />
	<path style="fill:none;stroke:red;stroke-width:1px;stroke-linecap:butt;stroke-linejoin:miter;stroke-opacity:1" d="M 886.091,199.864 879.045,187.182 z" id="boundary" inkscape:connector-curvature="0" />
	<path style="fill:none;stroke:red;stroke-width:1px;stroke-linecap:butt;stroke-linejoin:miter;stroke-opacity:1" d="M 898.773,226.636 905.818,239.318 z" id="boundary" inkscape:connector-curvature="0" />
	<path style="fill:none;stroke:red;stroke-width:1px;stroke-linecap:butt;stroke-linejoin:miter;stroke-opacity:1" d="M 905.818,239.318 907.227,253.409 z" id="boundary" inkscape:connector-curvature="0" />
	<path style="fill:none;stroke:red;stroke-width:1px;stroke-linecap:butt;stroke-linejoin:miter;stroke-opacity:1" d="M 907.227,253.409 893.136,254.818 z" id="boundary" inkscape:connector-curvature="0" />
	<path style="fill:none;stroke:red;stroke-width:1px;stroke-linecap:butt;stroke-linejoin:miter;stroke-opacity:1" d="M 893.136,254.818 879.045,249.182 z" id="boundary" inkscape:connector-curvature="0" />
	<path style="fill:none;stroke:red;stroke-width:1px;stroke-linecap:butt;stroke-linejoin:miter;stroke-opacity:1" d="M 893.136,212.545 886.091,199.864 z" id="boundary" inkscape:connector-curvature="0" />
	<circle cx="4" cy="92.7727" r="4" fill="#0" id="circle0"/>
	<circle cx="4" cy="106.864" r="4" fill="#0" id="circle1"/>
	<circle cx="15.2727" cy="116.727" r="4" fill="#0" id="circle2"/>
	<circle cx="18.0909" cy="88.5455" r="4" fill="#0" id="circle3"/>
	<circle cx="27.9545" cy="123.773" r="4" fill="#0" id="circle4"/>
	<circle cx="30.7727" cy="81.5" r="4" fill="#0" id="circle5"/>
	<circle cx="42.0455" cy="129.409" r="4" fill="#0" id="circle6"/>
	<circle cx="44.8636" cy="81.5" r="4" fill="#0" id="circle7"/>
	<circle cx="54.7273" cy="136.455" r="4" fill="#0" id="circle8"/>
	<circle cx="58.9545" cy="81.5" r="4" fill="#0" id="circle9"/>
	<circle cx="66" cy="146.318" r="4" fill="#0" id="circle10"/>
	<circle cx="73.0455" cy="81.5" r="4" fill="#0" id="circle11"/>
	<circle cx="75.8636" cy="157.591" r="4" fill="#0" id="circle12"/>
	<circle cx="87.1364" cy="81.5" r="4" fill="#0" id="circle13"/>
	<circle cx="89.9545" cy="163.227" r="4" fill="#0" id="circle14"/>
	<circle cx="99.8182" cy="74.4545" r="4" fill="#0" id="circle15"/>
	<circle cx="104.045" cy="167.455" r="4" fill="#0" id="circle16"/>
	<circle cx="113.909" cy="74.4545" r="4" fill="#0" id="circle17"/>
	<circle cx="116.727" cy="174.5" r="4" fill="#0" id="circle18"/>
	<circle cx="128" cy="74.4545" r="4" fill="#0" id="circle19"/>
	<circle cx="130.818" cy="174.5" r="4" fill="#0" id="circle20"/>
	<circle cx="142.091" cy="74.4545" r="4" fill="#0" id="circle21"/>
	<circle cx="144.909" cy="174.5" r="4" fill="#0" id="circle22"/>
	<circle cx="156.182" cy="74.4545" r="4" fill="#0" id="circle23"/>
	<circle cx="157.591" cy="181.545" r="4" fill="#0" id="circle24"/>
	<circle cx="170.273" cy="74.4545" r="4" fill="#0" id="circle25"/>
	<circle cx="171.682" cy="181.545" r="4" fill="#0" id="circle26"/>
	<circle cx="184.364" cy="74.4545" r="4" fill="#0" id="circle27"/>
	<circle cx="184.364" cy="188.591" r="4" fill="#0" id="circle28"/>
	<circle cx="198.455" cy="74.4545" r="4" fill="#0" id="circle29"/>
	<circle cx="198.455" cy="188.591" r="4" fill="#0" id="circle30"/>
	<circle cx="212.545" cy="74.4545" r="4" fill="#0" id="circle31"/>
	<circle cx="212.545" cy="188.591" r="4" fill="#0" id="circle32"/>
	<circle cx="225.227" cy="195.636" r="4" fill="#0" id="circle33"/>
	<circle cx="226.636" cy="74.4545" r="4" fill="#0" id="circle34"/>
	<circle cx="239.318" cy="195.636" r="4" fill="#0" id="circle35"/>
	<circle cx="240.727" cy="74.4545" r="4" fill="#0" id="circle36"/>
	<circle cx="253.409" cy="199.864" r="4" fill="#0" id="circle37"/>
	<circle cx="254.818" cy="74.4545" r="4" fill="#0" id="circle38"/>
	<circle cx="259.045" cy="213.955" r="4" fill="#0" id="circle39"/>
	<circle cx="264.682" cy="228.045" r="4" fill="#0" id="circle40"/>
	<circle cx="268.909" cy="74.4545" r="4" fill="#0" id="circle41"/>
	<circle cx="271.727" cy="240.727" r="4" fill="#0" id="circle42"/>
	<circle cx="278.773" cy="253.409" r="4" fill="#0" id="circle43"/>
	<circle cx="278.773" cy="267.5" r="4" fill="#0" id="circle44"/>
	<circle cx="283" cy="74.4545" r="4" fill="#0" id="circle45"/>
	<circle cx="285.818" cy="280.182" r="4" fill="#0" id="circle46"/>
	<circle cx="292.864" cy="292.864" r="4" fill="#0" id="circle47"/>
	<circle cx="297.091" cy="74.4545" r="4" fill="#0" id="circle48"/>
	<circle cx="299.909" cy="305.545" r="4" fill="#0" id="circle49"/>
	<circle cx="306.955" cy="318.227" r="4" fill="#0" id="circle50"/>
	<circle cx="311.182" cy="74.4545" r="4" fill="#0" id="circle51"/>
	<circle cx="314" cy="330.909" r="4" fill="#0" id="circle52"/>
	<circle cx="321.045" cy="343.591" r="4" fill="#0" id="circle53"/>
	<circle cx="325.273" cy="74.4545" r="4" fill="#0" id="circle54"/>
	<circle cx="329.5" cy="354.864" r="4" fill="#0" id="circle55"/>
	<circle cx="336.545" cy="367.545" r="4" fill="#0" id="circle56"/>
	<circle cx="339.364" cy="74.4545" r="4" fill="#0" id="circle57"/>
	<circle cx="346.409" cy="378.818" r="4" fill="#0" id="circle58"/>
	<circle cx="350.636" cy="209.727" r="4" fill="#0" id="circle59"/>
	<circle cx="353.455" cy="74.4545" r="4" fill="#0" id="circle60"/>
	<circle cx="353.455" cy="223.818" r="4" fill="#0" id="circle61"/>
	<circle cx="353.455" cy="391.5" r="4" fill="#0" id="circle62"/>
	<circle cx="357.682" cy="237.909" r="4" fill="#0" id="circle63"/>
	<circle cx="357.682" cy="252" r="4" fill="#0" id="circle64"/>
	<circle cx="363.318" cy="202.682" r="4" fill="#0" id="circle65"/>
	<circle cx="364.727" cy="264.682" r="4" fill="#0" id="circle66"/>
	<circle cx="364.727" cy="278.773" r="4" fill="#0" id="circle67"/>
	<circle cx="366.136" cy="398.545" r="4" fill="#0" id="circle68"/>
	<circle cx="367.545" cy="67.4091" r="4" fill="#0" id="circle69"/>
	<circle cx="371.773" cy="291.455" r="4" fill="#0" id="circle70"/>
	<circle cx="377.409" cy="202.682" r="4" fill="#0" id="circle71"/>
	<circle cx="378.818" cy="56.1364" r="4" fill="#0" id="circle72"/>
	<circle cx="378.818" cy="304.136" r="4" fill="#0" id="circle73"/>
	<circle cx="380.227" cy="399.955" r="4" fill="#0" id="circle74"/>
	<circle cx="384.455" cy="318.227" r="4" fill="#0" id="circle75"/>
	<circle cx="385.864" cy="332.318" r="4" fill="#0" id="circle76"/>
	<circle cx="385.864" cy="385.864" r="4" fill="#0" id="circle77"/>
	<circle cx="390.091" cy="46.2727" r="4" fill="#0" id="circle78"/>
	<circle cx="391.5" cy="202.682" r="4" fill="#0" id="circle79"/>
	<circle cx="392.909" cy="345" r="4" fill="#0" id="circle80"/>
	<circle cx="392.909" cy="359.091" r="4" fill="#0" id="circle81"/>
	<circle cx="392.909" cy="373.182" r="4" fill="#0" id="circle82"/>
	<circle cx="399.955" cy="35" r="4" fill="#0" id="circle83"/>
	<circle cx="405.591" cy="202.682" r="4" fill="#0" id="circle84"/>
	<circle cx="411.227" cy="25.1364" r="4" fill="#0" id="circle85"/>
	<circle cx="418.273" cy="209.727" r="4" fill="#0" id="circle86"/>
	<circle cx="421.091" cy="13.8636" r="4" fill="#0" id="circle87"/>
	<circle cx="432.364" cy="4" r="4" fill="#0" id="circle88"/>
	<circle cx="432.364" cy="209.727" r="4" fill="#0" id="circle89"/>
	<circle cx="445.045" cy="202.682" r="4" fill="#0" id="circle90"/>
	<circle cx="446.455" cy="4" r="4" fill="#0" id="circle91"/>
	<circle cx="456.318" cy="15.2727" r="4" fill="#0" id="circle92"/>
	<circle cx="456.318" cy="29.3636" r="4" fill="#0" id="circle93"/>
	<circle cx="456.318" cy="43.4545" r="4" fill="#0" id="circle94"/>
	<circle cx="456.318" cy="57.5455" r="4" fill="#0" id="circle95"/>
	<circle cx="459.136" cy="202.682" r="4" fill="#0" id="circle96"/>
	<circle cx="463.364" cy="70.2273" r="4" fill="#0" id="circle97"/>
	<circle cx="471.818" cy="81.5" r="4" fill="#0" id="circle98"/>
	<circle cx="473.227" cy="202.682" r="4" fill="#0" id="circle99"/>
	<circle cx="484.5" cy="88.5455" r="4" fill="#0" id="circle100"/>
	<circle cx="487.318" cy="202.682" r="4" fill="#0" id="circle101"/>
	<circle cx="498.591" cy="88.5455" r="4" fill="#0" id="circle102"/>
	<circle cx="501.409" cy="201.273" r="4" fill="#0" id="circle103"/>
	<circle cx="512.682" cy="88.5455" r="4" fill="#0" id="circle104"/>
	<circle cx="515.5" cy="195.636" r="4" fill="#0" id="circle105"/>
	<circle cx="526.773" cy="88.5455" r="4" fill="#0" id="circle106"/>
	<circle cx="529.591" cy="195.636" r="4" fill="#0" id="circle107"/>
	<circle cx="540.864" cy="92.7727" r="4" fill="#0" id="circle108"/>
	<circle cx="543.682" cy="195.636" r="4" fill="#0" id="circle109"/>
	<circle cx="554.955" cy="95.5909" r="4" fill="#0" id="circle110"/>
	<circle cx="557.773" cy="201.273" r="4" fill="#0" id="circle111"/>
	<circle cx="569.045" cy="95.5909" r="4" fill="#0" id="circle112"/>
	<circle cx="570.455" cy="208.318" r="4" fill="#0" id="circle113"/>
	<circle cx="583.136" cy="95.5909" r="4" fill="#0" id="circle114"/>
	<circle cx="584.545" cy="209.727" r="4" fill="#0" id="circle115"/>
	<circle cx="597.227" cy="95.5909" r="4" fill="#0" id="circle116"/>
	<circle cx="597.227" cy="202.682" r="4" fill="#0" id="circle117"/>
	<circle cx="611.318" cy="99.8182" r="4" fill="#0" id="circle118"/>
	<circle cx="611.318" cy="202.682" r="4" fill="#0" id="circle119"/>
	<circle cx="622.591" cy="192.818" r="4" fill="#0" id="circle120"/>
	<circle cx="625.409" cy="102.636" r="4" fill="#0" id="circle121"/>
	<circle cx="632.455" cy="181.545" r="4" fill="#0" id="circle122"/>
	<circle cx="639.5" cy="102.636" r="4" fill="#0" id="circle123"/>
	<circle cx="646.545" cy="174.5" r="4" fill="#0" id="circle124"/>
	<circle cx="652.182" cy="109.682" r="4" fill="#0" id="circle125"/>
	<circle cx="660.636" cy="174.5" r="4" fill="#0" id="circle126"/>
	<circle cx="666.273" cy="109.682" r="4" fill="#0" id="circle127"/>
	<circle cx="674.727" cy="174.5" r="4" fill="#0" id="circle128"/>
	<circle cx="680.364" cy="109.682" r="4" fill="#0" id="circle129"/>
	<circle cx="688.818" cy="174.5" r="4" fill="#0" id="circle130"/>
	<circle cx="694.455" cy="109.682" r="4" fill="#0" id="circle131"/>
	<circle cx="702.909" cy="177.318" r="4" fill="#0" id="circle132"/>
	<circle cx="708.545" cy="112.5" r="4" fill="#0" id="circle133"/>
	<circle cx="717" cy="181.545" r="4" fill="#0" id="circle134"/>
	<circle cx="721.227" cy="119.545" r="4" fill="#0" id="circle135"/>
	<circle cx="731.091" cy="174.5" r="4" fill="#0" id="circle136"/>
	<circle cx="735.318" cy="123.773" r="4" fill="#0" id="circle137"/>
	<circle cx="745.182" cy="167.455" r="4" fill="#0" id="circle138"/>
	<circle cx="749.409" cy="123.773" r="4" fill="#0" id="circle139"/>
	<circle cx="757.864" cy="160.409" r="4" fill="#0" id="circle140"/>
	<circle cx="763.5" cy="123.773" r="4" fill="#0" id="circle141"/>
	<circle cx="771.955" cy="160.409" r="4" fill="#0" id="circle142"/>
	<circle cx="777.591" cy="123.773" r="4" fill="#0" id="circle143"/>
	<circle cx="786.045" cy="160.409" r="4" fill="#0" id="circle144"/>
	<circle cx="791.682" cy="123.773" r="4" fill="#0" id="circle145"/>
	<circle cx="794.5" cy="171.682" r="4" fill="#0" id="circle146"/>
	<circle cx="801.545" cy="184.364" r="4" fill="#0" id="circle147"/>
	<circle cx="804.364" cy="116.727" r="4" fill="#0" id="circle148"/>
	<circle cx="811.409" cy="102.636" r="4" fill="#0" id="circle149"/>
	<circle cx="814.227" cy="191.409" r="4" fill="#0" id="circle150"/>
	<circle cx="822.682" cy="91.3636" r="4" fill="#0" id="circle151"/>
	<circle cx="825.5" cy="201.273" r="4" fill="#0" id="circle152"/>
	<circle cx="835.364" cy="212.545" r="4" fill="#0" id="circle153"/>
	<circle cx="836.773" cy="84.3182" r="4" fill="#0" id="circle154"/>
	<circle cx="846.636" cy="222.409" r="4" fill="#0" id="circle155"/>
	<circle cx="848.045" cy="74.4545" r="4" fill="#0" id="circle156"/>
	<circle cx="856.5" cy="233.682" r="4" fill="#0" id="circle157"/>
	<circle cx="860.727" cy="67.4091" r="4" fill="#0" id="circle158"/>
	<circle cx="870.591" cy="237.909" r="4" fill="#0" id="circle159"/>
	<circle cx="872" cy="146.318" r="4" fill="#0" id="circle160"/>
	<circle cx="872" cy="160.409" r="4" fill="#0" id="circle161"/>
	<circle cx="872" cy="174.5" r="4" fill="#0" id="circle162"/>
	<circle cx="874.818" cy="67.4091" r="4" fill="#0" id="circle163"/>
	<circle cx="879.045" cy="187.182" r="4" fill="#0" id="circle164"/>
	<circle cx="879.045" cy="249.182" r="4" fill="#0" id="circle165"/>
	<circle cx="883.273" cy="136.455" r="4" fill="#0" id="circle166"/>
	<circle cx="886.091" cy="199.864" r="4" fill="#0" id="circle167"/>
	<circle cx="887.5" cy="60.3636" r="4" fill="#0" id="circle168"/>
	<circle cx="893.136" cy="125.182" r="4" fill="#0" id="circle169"/>
	<circle cx="893.136" cy="212.545" r="4" fill="#0" id="circle170"/>
	<circle cx="893.136" cy="254.818" r="4" fill="#0" id="circle171"/>
	<circle cx="898.773" cy="226.636" r="4" fill="#0" id="circle172"/>
	<circle cx="901.591" cy="60.3636" r="4" fill="#0" id="circle173"/>
	<circle cx="905.818" cy="239.318" r="4" fill="#0" id="circle174"/>
	<circle cx="907.227" cy="118.136" r="4" fill="#0" id="circle175"/>
	<circle cx="907.227" cy="253.409" r="4" fill="#0" id="circle176"/>
	<circle cx="914.273" cy="53.3182" r="4" fill="#0" id="circle177"/>
	<circle cx="918.5" cy="108.273" r="4" fill="#0" id="circle178"/>
	<circle cx="928.364" cy="53.3182" r="4" fill="#0" id="circle179"/>
	<circle cx="928.364" cy="97" r="4" fill="#0" id="circle180"/>
	<circle cx="942.455" cy="53.3182" r="4" fill="#0" id="circle181"/>
	<circle cx="942.455" cy="89.9545" r="4" fill="#0" id="circle182"/>
	<circle cx="956.545" cy="53.3182" r="4" fill="#0" id="circle183"/>
	<circle cx="956.545" cy="89.9545" r="4" fill="#0" id="circle184"/>
	<circle cx="969.227" cy="46.2727" r="4" fill="#0" id="circle185"/>
	<circle cx="969.227" cy="82.9091" r="4" fill="#0" id="circle186"/>
	<circle cx="981.909" cy="75.8636" r="4" fill="#0" id="circle187"/>
	<circle cx="983.318" cy="46.2727" r="4" fill="#0" id="circle188"/>
	<circle cx="994.591" cy="67.4091" r="4" fill="#0" id="circle189"/>
	<circle cx="996" cy="53.3182" r="4" fill="#0" id="circle190"/>
	</g>
</svg>