<?xml version="1.0" encoding="UTF-8" standalone="no"?>
<!-- Created with CurveBenchmark -->
<svg
	xmlns:dc="http://purl.org/dc/elements/1.1/"
	xmlns:cc="http://creativecommons.org/ns#"
	xmlns:rdf="http://www.w3.org/1999/02/22-rdf-syntax-ns#"
	xmlns:svg="http://www.w3.org/2000/svg"
	xmlns="http://www.w3.org/2000/svg"
	xmlns:sodipodi="http://sodipodi.sourceforge.net/DTD/sodipodi-0.dtd"
	xmlns:inkscape="http://www.inkscape.org/namespaces/inkscape"
	width="1000"
	height="1000"
	id="svg2"
	version="1.1"
	sodipodi:docname="manifold/gathan1-fountain-20.png.txt">
<defs
	id="defs4" />
<metadata
	id="metadata7">
	<rdf:RDF>
		<cc:Work
			rdf:about="">
			<dc:format>image/svg+xml</dc:format>
			<dc:type
				rdf:resource="http://purl.org/dc/dcmitype/StillImage" />
			<dc:title></dc:title>
		</cc:Work>
	</rdf:RDF>
</metadata>
<g
	inkscape:label="Layer 1"
	inkscape:groupmode="layer"
	id="layer1">
	<path style="fill:none;stroke:red;stroke-width:1px;stroke-linecap:butt;stroke-linejoin:miter;stroke-opacity:1" d="M 314.782,331.139 324.403,331.139 z" id="boundary" inkscape:connector-curvature="0" />
	<path style="fill:none;stroke:red;stroke-width:1px;stroke-linecap:butt;stroke-linejoin:miter;stroke-opacity:1" d="M 306.122,335.95 314.782,331.139 z" id="boundary" inkscape:connector-curvature="0" />
	<path style="fill:none;stroke:red;stroke-width:1px;stroke-linecap:butt;stroke-linejoin:miter;stroke-opacity:1" d="M 374.436,146.402 379.247,136.78 z" id="boundary" inkscape:connector-curvature="0" />
	<path style="fill:none;stroke:red;stroke-width:1px;stroke-linecap:butt;stroke-linejoin:miter;stroke-opacity:1" d="M 379.247,155.061 374.436,146.402 z" id="boundary" inkscape:connector-curvature="0" />
	<path style="fill:none;stroke:red;stroke-width:1px;stroke-linecap:butt;stroke-linejoin:miter;stroke-opacity:1" d="M 388.869,158.91 379.247,155.061 z" id="boundary" inkscape:connector-curvature="0" />
	<path style="fill:none;stroke:red;stroke-width:1px;stroke-linecap:butt;stroke-linejoin:miter;stroke-opacity:1" d="M 334.025,331.139 324.403,331.139 z" id="boundary" inkscape:connector-curvature="0" />
	<path style="fill:none;stroke:red;stroke-width:1px;stroke-linecap:butt;stroke-linejoin:miter;stroke-opacity:1" d="M 334.025,331.139 343.647,331.139 z" id="boundary" inkscape:connector-curvature="0" />
	<path style="fill:none;stroke:red;stroke-width:1px;stroke-linecap:butt;stroke-linejoin:miter;stroke-opacity:1" d="M 362.89,331.139 353.269,331.139 z" id="boundary" inkscape:connector-curvature="0" />
	<path style="fill:none;stroke:red;stroke-width:1px;stroke-linecap:butt;stroke-linejoin:miter;stroke-opacity:1" d="M 381.172,326.328 372.512,331.139 z" id="boundary" inkscape:connector-curvature="0" />
	<path style="fill:none;stroke:red;stroke-width:1px;stroke-linecap:butt;stroke-linejoin:miter;stroke-opacity:1" d="M 372.512,331.139 362.89,331.139 z" id="boundary" inkscape:connector-curvature="0" />
	<path style="fill:none;stroke:red;stroke-width:1px;stroke-linecap:butt;stroke-linejoin:miter;stroke-opacity:1" d="M 353.269,331.139 343.647,331.139 z" id="boundary" inkscape:connector-curvature="0" />
	<path style="fill:none;stroke:red;stroke-width:1px;stroke-linecap:butt;stroke-linejoin:miter;stroke-opacity:1" d="M 388.869,158.91 394.642,166.607 z" id="boundary" inkscape:connector-curvature="0" />
	<path style="fill:none;stroke:red;stroke-width:1px;stroke-linecap:butt;stroke-linejoin:miter;stroke-opacity:1" d="M 386.945,129.082 396.566,124.272 z" id="boundary" inkscape:connector-curvature="0" />
	<path style="fill:none;stroke:red;stroke-width:1px;stroke-linecap:butt;stroke-linejoin:miter;stroke-opacity:1" d="M 404.264,170.456 394.642,166.607 z" id="boundary" inkscape:connector-curvature="0" />
	<path style="fill:none;stroke:red;stroke-width:1px;stroke-linecap:butt;stroke-linejoin:miter;stroke-opacity:1" d="M 406.188,119.461 396.566,124.272 z" id="boundary" inkscape:connector-curvature="0" />
	<path style="fill:none;stroke:red;stroke-width:1px;stroke-linecap:butt;stroke-linejoin:miter;stroke-opacity:1" d="M 381.172,326.328 390.793,326.328 z" id="boundary" inkscape:connector-curvature="0" />
	<path style="fill:none;stroke:red;stroke-width:1px;stroke-linecap:butt;stroke-linejoin:miter;stroke-opacity:1" d="M 410.037,326.328 400.415,326.328 z" id="boundary" inkscape:connector-curvature="0" />
	<path style="fill:none;stroke:red;stroke-width:1px;stroke-linecap:butt;stroke-linejoin:miter;stroke-opacity:1" d="M 419.659,322.479 410.037,326.328 z" id="boundary" inkscape:connector-curvature="0" />
	<path style="fill:none;stroke:red;stroke-width:1px;stroke-linecap:butt;stroke-linejoin:miter;stroke-opacity:1" d="M 400.415,326.328 390.793,326.328 z" id="boundary" inkscape:connector-curvature="0" />
	<path style="fill:none;stroke:red;stroke-width:1px;stroke-linecap:butt;stroke-linejoin:miter;stroke-opacity:1" d="M 406.188,119.461 415.81,119.461 z" id="boundary" inkscape:connector-curvature="0" />
	<path style="fill:none;stroke:red;stroke-width:1px;stroke-linecap:butt;stroke-linejoin:miter;stroke-opacity:1" d="M 379.247,136.78 386.945,129.082 z" id="boundary" inkscape:connector-curvature="0" />
	<path style="fill:none;stroke:red;stroke-width:1px;stroke-linecap:butt;stroke-linejoin:miter;stroke-opacity:1" d="M 172.38,406.188 177.191,396.566 z" id="boundary" inkscape:connector-curvature="0" />
	<path style="fill:none;stroke:red;stroke-width:1px;stroke-linecap:butt;stroke-linejoin:miter;stroke-opacity:1" d="M 177.191,396.566 184.888,388.869 z" id="boundary" inkscape:connector-curvature="0" />
	<path style="fill:none;stroke:red;stroke-width:1px;stroke-linecap:butt;stroke-linejoin:miter;stroke-opacity:1" d="M 184.888,388.869 193.548,384.058 z" id="boundary" inkscape:connector-curvature="0" />
	<path style="fill:none;stroke:red;stroke-width:1px;stroke-linecap:butt;stroke-linejoin:miter;stroke-opacity:1" d="M 202.208,379.247 193.548,384.058 z" id="boundary" inkscape:connector-curvature="0" />
	<path style="fill:none;stroke:red;stroke-width:1px;stroke-linecap:butt;stroke-linejoin:miter;stroke-opacity:1" d="M 210.867,374.436 202.208,379.247 z" id="boundary" inkscape:connector-curvature="0" />
	<path style="fill:none;stroke:red;stroke-width:1px;stroke-linecap:butt;stroke-linejoin:miter;stroke-opacity:1" d="M 167.569,415.81 167.569,425.432 z" id="boundary" inkscape:connector-curvature="0" />
	<path style="fill:none;stroke:red;stroke-width:1px;stroke-linecap:butt;stroke-linejoin:miter;stroke-opacity:1" d="M 172.38,406.188 167.569,415.81 z" id="boundary" inkscape:connector-curvature="0" />
	<path style="fill:none;stroke:red;stroke-width:1px;stroke-linecap:butt;stroke-linejoin:miter;stroke-opacity:1" d="M 167.569,435.053 167.569,425.432 z" id="boundary" inkscape:connector-curvature="0" />
	<path style="fill:none;stroke:red;stroke-width:1px;stroke-linecap:butt;stroke-linejoin:miter;stroke-opacity:1" d="M 156.023,446.599 146.402,446.599 z" id="boundary" inkscape:connector-curvature="0" />
	<path style="fill:none;stroke:red;stroke-width:1px;stroke-linecap:butt;stroke-linejoin:miter;stroke-opacity:1" d="M 210.867,374.436 220.489,372.512 z" id="boundary" inkscape:connector-curvature="0" />
	<path style="fill:none;stroke:red;stroke-width:1px;stroke-linecap:butt;stroke-linejoin:miter;stroke-opacity:1" d="M 146.402,446.599 136.78,451.41 z" id="boundary" inkscape:connector-curvature="0" />
	<path style="fill:none;stroke:red;stroke-width:1px;stroke-linecap:butt;stroke-linejoin:miter;stroke-opacity:1" d="M 268.597,348.458 278.219,343.647 z" id="boundary" inkscape:connector-curvature="0" />
	<path style="fill:none;stroke:red;stroke-width:1px;stroke-linecap:butt;stroke-linejoin:miter;stroke-opacity:1" d="M 278.219,343.647 287.841,340.76 z" id="boundary" inkscape:connector-curvature="0" />
	<path style="fill:none;stroke:red;stroke-width:1px;stroke-linecap:butt;stroke-linejoin:miter;stroke-opacity:1" d="M 268.597,348.458 258.976,353.269 z" id="boundary" inkscape:connector-curvature="0" />
	<path style="fill:none;stroke:red;stroke-width:1px;stroke-linecap:butt;stroke-linejoin:miter;stroke-opacity:1" d="M 287.841,340.76 296.5,335.95 z" id="boundary" inkscape:connector-curvature="0" />
	<path style="fill:none;stroke:red;stroke-width:1px;stroke-linecap:butt;stroke-linejoin:miter;stroke-opacity:1" d="M 296.5,335.95 306.122,335.95 z" id="boundary" inkscape:connector-curvature="0" />
	<path style="fill:none;stroke:red;stroke-width:1px;stroke-linecap:butt;stroke-linejoin:miter;stroke-opacity:1" d="M 220.489,372.512 230.111,367.701 z" id="boundary" inkscape:connector-curvature="0" />
	<path style="fill:none;stroke:red;stroke-width:1px;stroke-linecap:butt;stroke-linejoin:miter;stroke-opacity:1" d="M 239.732,362.89 249.354,358.08 z" id="boundary" inkscape:connector-curvature="0" />
	<path style="fill:none;stroke:red;stroke-width:1px;stroke-linecap:butt;stroke-linejoin:miter;stroke-opacity:1" d="M 239.732,362.89 230.111,367.701 z" id="boundary" inkscape:connector-curvature="0" />
	<path style="fill:none;stroke:red;stroke-width:1px;stroke-linecap:butt;stroke-linejoin:miter;stroke-opacity:1" d="M 165.645,446.599 167.569,435.053 z" id="boundary" inkscape:connector-curvature="0" />
	<path style="fill:none;stroke:red;stroke-width:1px;stroke-linecap:butt;stroke-linejoin:miter;stroke-opacity:1" d="M 258.976,353.269 249.354,358.08 z" id="boundary" inkscape:connector-curvature="0" />
	<path style="fill:none;stroke:red;stroke-width:1px;stroke-linecap:butt;stroke-linejoin:miter;stroke-opacity:1" d="M 475.465,26.13 475.465,35.7517 z" id="boundary" inkscape:connector-curvature="0" />
	<path style="fill:none;stroke:red;stroke-width:1px;stroke-linecap:butt;stroke-linejoin:miter;stroke-opacity:1" d="M 480.275,54.033 475.465,45.3734 z" id="boundary" inkscape:connector-curvature="0" />
	<path style="fill:none;stroke:red;stroke-width:1px;stroke-linecap:butt;stroke-linejoin:miter;stroke-opacity:1" d="M 475.465,45.3734 475.465,35.7517 z" id="boundary" inkscape:connector-curvature="0" />
	<path style="fill:none;stroke:red;stroke-width:1px;stroke-linecap:butt;stroke-linejoin:miter;stroke-opacity:1" d="M 475.465,26.13 475.465,16.5082 z" id="boundary" inkscape:connector-curvature="0" />
	<path style="fill:none;stroke:red;stroke-width:1px;stroke-linecap:butt;stroke-linejoin:miter;stroke-opacity:1" d="M 475.465,16.5082 483.162,8.81086 z" id="boundary" inkscape:connector-curvature="0" />
	<path style="fill:none;stroke:red;stroke-width:1px;stroke-linecap:butt;stroke-linejoin:miter;stroke-opacity:1" d="M 434.091,110.801 443.713,109.839 z" id="boundary" inkscape:connector-curvature="0" />
	<path style="fill:none;stroke:red;stroke-width:1px;stroke-linecap:butt;stroke-linejoin:miter;stroke-opacity:1" d="M 443.713,109.839 453.335,109.839 z" id="boundary" inkscape:connector-curvature="0" />
	<path style="fill:none;stroke:red;stroke-width:1px;stroke-linecap:butt;stroke-linejoin:miter;stroke-opacity:1" d="M 462.956,109.839 453.335,109.839 z" id="boundary" inkscape:connector-curvature="0" />
	<path style="fill:none;stroke:red;stroke-width:1px;stroke-linecap:butt;stroke-linejoin:miter;stroke-opacity:1" d="M 472.578,109.839 462.956,109.839 z" id="boundary" inkscape:connector-curvature="0" />
	<path style="fill:none;stroke:red;stroke-width:1px;stroke-linecap:butt;stroke-linejoin:miter;stroke-opacity:1" d="M 480.275,54.033 485.086,62.6925 z" id="boundary" inkscape:connector-curvature="0" />
	<path style="fill:none;stroke:red;stroke-width:1px;stroke-linecap:butt;stroke-linejoin:miter;stroke-opacity:1" d="M 434.091,110.801 424.469,114.65 z" id="boundary" inkscape:connector-curvature="0" />
	<path style="fill:none;stroke:red;stroke-width:1px;stroke-linecap:butt;stroke-linejoin:miter;stroke-opacity:1" d="M 485.086,62.6925 487.973,72.3143 z" id="boundary" inkscape:connector-curvature="0" />
	<path style="fill:none;stroke:red;stroke-width:1px;stroke-linecap:butt;stroke-linejoin:miter;stroke-opacity:1" d="M 491.822,4 501.443,4 z" id="boundary" inkscape:connector-curvature="0" />
	<path style="fill:none;stroke:red;stroke-width:1px;stroke-linecap:butt;stroke-linejoin:miter;stroke-opacity:1" d="M 483.162,8.81086 491.822,4 z" id="boundary" inkscape:connector-curvature="0" />
	<path style="fill:none;stroke:red;stroke-width:1px;stroke-linecap:butt;stroke-linejoin:miter;stroke-opacity:1" d="M 489.897,81.936 489.897,91.5577 z" id="boundary" inkscape:connector-curvature="0" />
	<path style="fill:none;stroke:red;stroke-width:1px;stroke-linecap:butt;stroke-linejoin:miter;stroke-opacity:1" d="M 487.973,72.3143 489.897,81.936 z" id="boundary" inkscape:connector-curvature="0" />
	<path style="fill:none;stroke:red;stroke-width:1px;stroke-linecap:butt;stroke-linejoin:miter;stroke-opacity:1" d="M 489.897,91.5577 489.897,101.179 z" id="boundary" inkscape:connector-curvature="0" />
	<path style="fill:none;stroke:red;stroke-width:1px;stroke-linecap:butt;stroke-linejoin:miter;stroke-opacity:1" d="M 489.897,101.179 482.2,109.839 z" id="boundary" inkscape:connector-curvature="0" />
	<path style="fill:none;stroke:red;stroke-width:1px;stroke-linecap:butt;stroke-linejoin:miter;stroke-opacity:1" d="M 482.2,109.839 472.578,109.839 z" id="boundary" inkscape:connector-curvature="0" />
	<path style="fill:none;stroke:red;stroke-width:1px;stroke-linecap:butt;stroke-linejoin:miter;stroke-opacity:1" d="M 423.507,175.267 413.886,173.342 z" id="boundary" inkscape:connector-curvature="0" />
	<path style="fill:none;stroke:red;stroke-width:1px;stroke-linecap:butt;stroke-linejoin:miter;stroke-opacity:1" d="M 413.886,173.342 404.264,170.456 z" id="boundary" inkscape:connector-curvature="0" />
	<path style="fill:none;stroke:red;stroke-width:1px;stroke-linecap:butt;stroke-linejoin:miter;stroke-opacity:1" d="M 433.129,178.153 423.507,175.267 z" id="boundary" inkscape:connector-curvature="0" />
	<path style="fill:none;stroke:red;stroke-width:1px;stroke-linecap:butt;stroke-linejoin:miter;stroke-opacity:1" d="M 415.81,119.461 424.469,114.65 z" id="boundary" inkscape:connector-curvature="0" />
	<path style="fill:none;stroke:red;stroke-width:1px;stroke-linecap:butt;stroke-linejoin:miter;stroke-opacity:1" d="M 446.599,271.484 441.789,281.106 z" id="boundary" inkscape:connector-curvature="0" />
	<path style="fill:none;stroke:red;stroke-width:1px;stroke-linecap:butt;stroke-linejoin:miter;stroke-opacity:1" d="M 419.659,322.479 429.28,321.517 z" id="boundary" inkscape:connector-curvature="0" />
	<path style="fill:none;stroke:red;stroke-width:1px;stroke-linecap:butt;stroke-linejoin:miter;stroke-opacity:1" d="M 438.902,317.668 429.28,321.517 z" id="boundary" inkscape:connector-curvature="0" />
	<path style="fill:none;stroke:red;stroke-width:1px;stroke-linecap:butt;stroke-linejoin:miter;stroke-opacity:1" d="M 441.789,300.349 438.902,317.668 z" id="boundary" inkscape:connector-curvature="0" />
	<path style="fill:none;stroke:red;stroke-width:1px;stroke-linecap:butt;stroke-linejoin:miter;stroke-opacity:1" d="M 441.789,281.106 441.789,290.727 z" id="boundary" inkscape:connector-curvature="0" />
	<path style="fill:none;stroke:red;stroke-width:1px;stroke-linecap:butt;stroke-linejoin:miter;stroke-opacity:1" d="M 433.129,178.153 441.789,182.964 z" id="boundary" inkscape:connector-curvature="0" />
	<path style="fill:none;stroke:red;stroke-width:1px;stroke-linecap:butt;stroke-linejoin:miter;stroke-opacity:1" d="M 454.297,197.397 456.221,207.018 z" id="boundary" inkscape:connector-curvature="0" />
	<path style="fill:none;stroke:red;stroke-width:1px;stroke-linecap:butt;stroke-linejoin:miter;stroke-opacity:1" d="M 450.448,187.775 441.789,182.964 z" id="boundary" inkscape:connector-curvature="0" />
	<path style="fill:none;stroke:red;stroke-width:1px;stroke-linecap:butt;stroke-linejoin:miter;stroke-opacity:1" d="M 456.221,207.018 456.221,216.64 z" id="boundary" inkscape:connector-curvature="0" />
	<path style="fill:none;stroke:red;stroke-width:1px;stroke-linecap:butt;stroke-linejoin:miter;stroke-opacity:1" d="M 456.221,226.262 456.221,216.64 z" id="boundary" inkscape:connector-curvature="0" />
	<path style="fill:none;stroke:red;stroke-width:1px;stroke-linecap:butt;stroke-linejoin:miter;stroke-opacity:1" d="M 456.221,226.262 456.221,235.884 z" id="boundary" inkscape:connector-curvature="0" />
	<path style="fill:none;stroke:red;stroke-width:1px;stroke-linecap:butt;stroke-linejoin:miter;stroke-opacity:1" d="M 441.789,300.349 441.789,290.727 z" id="boundary" inkscape:connector-curvature="0" />
	<path style="fill:none;stroke:red;stroke-width:1px;stroke-linecap:butt;stroke-linejoin:miter;stroke-opacity:1" d="M 456.221,235.884 456.221,245.505 z" id="boundary" inkscape:connector-curvature="0" />
	<path style="fill:none;stroke:red;stroke-width:1px;stroke-linecap:butt;stroke-linejoin:miter;stroke-opacity:1" d="M 456.221,245.505 451.41,257.051 z" id="boundary" inkscape:connector-curvature="0" />
	<path style="fill:none;stroke:red;stroke-width:1px;stroke-linecap:butt;stroke-linejoin:miter;stroke-opacity:1" d="M 451.41,257.051 446.599,271.484 z" id="boundary" inkscape:connector-curvature="0" />
	<path style="fill:none;stroke:red;stroke-width:1px;stroke-linecap:butt;stroke-linejoin:miter;stroke-opacity:1" d="M 450.448,187.775 454.297,197.397 z" id="boundary" inkscape:connector-curvature="0" />
	<path style="fill:none;stroke:red;stroke-width:1px;stroke-linecap:butt;stroke-linejoin:miter;stroke-opacity:1" d="M 13.6217,531.271 21.3191,523.573 z" id="boundary" inkscape:connector-curvature="0" />
	<path style="fill:none;stroke:red;stroke-width:1px;stroke-linecap:butt;stroke-linejoin:miter;stroke-opacity:1" d="M 29.0165,515.876 36.7139,509.141 z" id="boundary" inkscape:connector-curvature="0" />
	<path style="fill:none;stroke:red;stroke-width:1px;stroke-linecap:butt;stroke-linejoin:miter;stroke-opacity:1" d="M 36.7139,509.141 45.3734,504.33 z" id="boundary" inkscape:connector-curvature="0" />
	<path style="fill:none;stroke:red;stroke-width:1px;stroke-linecap:butt;stroke-linejoin:miter;stroke-opacity:1" d="M 53.0708,496.632 45.3734,504.33 z" id="boundary" inkscape:connector-curvature="0" />
	<path style="fill:none;stroke:red;stroke-width:1px;stroke-linecap:butt;stroke-linejoin:miter;stroke-opacity:1" d="M 21.3191,523.573 29.0165,515.876 z" id="boundary" inkscape:connector-curvature="0" />
	<path style="fill:none;stroke:red;stroke-width:1px;stroke-linecap:butt;stroke-linejoin:miter;stroke-opacity:1" d="M 4,574.568 4,564.947 z" id="boundary" inkscape:connector-curvature="0" />
	<path style="fill:none;stroke:red;stroke-width:1px;stroke-linecap:butt;stroke-linejoin:miter;stroke-opacity:1" d="M 4,564.947 8.81086,550.514 z" id="boundary" inkscape:connector-curvature="0" />
	<path style="fill:none;stroke:red;stroke-width:1px;stroke-linecap:butt;stroke-linejoin:miter;stroke-opacity:1" d="M 4,584.19 4,574.568 z" id="boundary" inkscape:connector-curvature="0" />
	<path style="fill:none;stroke:red;stroke-width:1px;stroke-linecap:butt;stroke-linejoin:miter;stroke-opacity:1" d="M 8.81086,540.892 8.81086,550.514 z" id="boundary" inkscape:connector-curvature="0" />
	<path style="fill:none;stroke:red;stroke-width:1px;stroke-linecap:butt;stroke-linejoin:miter;stroke-opacity:1" d="M 8.81086,540.892 13.6217,531.271 z" id="boundary" inkscape:connector-curvature="0" />
	<path style="fill:none;stroke:red;stroke-width:1px;stroke-linecap:butt;stroke-linejoin:miter;stroke-opacity:1" d="M 98.2929,470.654 107.915,465.843 z" id="boundary" inkscape:connector-curvature="0" />
	<path style="fill:none;stroke:red;stroke-width:1px;stroke-linecap:butt;stroke-linejoin:miter;stroke-opacity:1" d="M 107.915,465.843 117.536,461.032 z" id="boundary" inkscape:connector-curvature="0" />
	<path style="fill:none;stroke:red;stroke-width:1px;stroke-linecap:butt;stroke-linejoin:miter;stroke-opacity:1" d="M 127.158,456.221 117.536,461.032 z" id="boundary" inkscape:connector-curvature="0" />
	<path style="fill:none;stroke:red;stroke-width:1px;stroke-linecap:butt;stroke-linejoin:miter;stroke-opacity:1" d="M 136.78,451.41 127.158,456.221 z" id="boundary" inkscape:connector-curvature="0" />
	<path style="fill:none;stroke:red;stroke-width:1px;stroke-linecap:butt;stroke-linejoin:miter;stroke-opacity:1" d="M 62.6925,491.822 72.3143,489.897 z" id="boundary" inkscape:connector-curvature="0" />
	<path style="fill:none;stroke:red;stroke-width:1px;stroke-linecap:butt;stroke-linejoin:miter;stroke-opacity:1" d="M 62.6925,491.822 53.0708,496.632 z" id="boundary" inkscape:connector-curvature="0" />
	<path style="fill:none;stroke:red;stroke-width:1px;stroke-linecap:butt;stroke-linejoin:miter;stroke-opacity:1" d="M 80.9738,483.162 72.3143,489.897 z" id="boundary" inkscape:connector-curvature="0" />
	<path style="fill:none;stroke:red;stroke-width:1px;stroke-linecap:butt;stroke-linejoin:miter;stroke-opacity:1" d="M 88.6712,475.465 80.9738,483.162 z" id="boundary" inkscape:connector-curvature="0" />
	<path style="fill:none;stroke:red;stroke-width:1px;stroke-linecap:butt;stroke-linejoin:miter;stroke-opacity:1" d="M 88.6712,475.465 98.2929,470.654 z" id="boundary" inkscape:connector-curvature="0" />
	<path style="fill:none;stroke:red;stroke-width:1px;stroke-linecap:butt;stroke-linejoin:miter;stroke-opacity:1" d="M 4,603.434 4,593.812 z" id="boundary" inkscape:connector-curvature="0" />
	<path style="fill:none;stroke:red;stroke-width:1px;stroke-linecap:butt;stroke-linejoin:miter;stroke-opacity:1" d="M 4,613.055 8.81086,621.715 z" id="boundary" inkscape:connector-curvature="0" />
	<path style="fill:none;stroke:red;stroke-width:1px;stroke-linecap:butt;stroke-linejoin:miter;stroke-opacity:1" d="M 4,613.055 4,603.434 z" id="boundary" inkscape:connector-curvature="0" />
	<path style="fill:none;stroke:red;stroke-width:1px;stroke-linecap:butt;stroke-linejoin:miter;stroke-opacity:1" d="M 13.6217,630.374 8.81086,621.715 z" id="boundary" inkscape:connector-curvature="0" />
	<path style="fill:none;stroke:red;stroke-width:1px;stroke-linecap:butt;stroke-linejoin:miter;stroke-opacity:1" d="M 13.6217,630.374 16.5082,639.996 z" id="boundary" inkscape:connector-curvature="0" />
	<path style="fill:none;stroke:red;stroke-width:1px;stroke-linecap:butt;stroke-linejoin:miter;stroke-opacity:1" d="M 21.3191,648.656 16.5082,639.996 z" id="boundary" inkscape:connector-curvature="0" />
	<path style="fill:none;stroke:red;stroke-width:1px;stroke-linecap:butt;stroke-linejoin:miter;stroke-opacity:1" d="M 29.0165,654.429 21.3191,648.656 z" id="boundary" inkscape:connector-curvature="0" />
	<path style="fill:none;stroke:red;stroke-width:1px;stroke-linecap:butt;stroke-linejoin:miter;stroke-opacity:1" d="M 37.676,659.24 29.0165,654.429 z" id="boundary" inkscape:connector-curvature="0" />
	<path style="fill:none;stroke:red;stroke-width:1px;stroke-linecap:butt;stroke-linejoin:miter;stroke-opacity:1" d="M 46.3356,664.05 37.676,659.24 z" id="boundary" inkscape:connector-curvature="0" />
	<path style="fill:none;stroke:red;stroke-width:1px;stroke-linecap:butt;stroke-linejoin:miter;stroke-opacity:1" d="M 4,593.812 4,584.19 z" id="boundary" inkscape:connector-curvature="0" />
	<path style="fill:none;stroke:red;stroke-width:1px;stroke-linecap:butt;stroke-linejoin:miter;stroke-opacity:1" d="M 54.9952,668.861 64.6169,672.71 z" id="boundary" inkscape:connector-curvature="0" />
	<path style="fill:none;stroke:red;stroke-width:1px;stroke-linecap:butt;stroke-linejoin:miter;stroke-opacity:1" d="M 64.6169,672.71 73.2764,677.521 z" id="boundary" inkscape:connector-curvature="0" />
	<path style="fill:none;stroke:red;stroke-width:1px;stroke-linecap:butt;stroke-linejoin:miter;stroke-opacity:1" d="M 54.9952,668.861 46.3356,664.05 z" id="boundary" inkscape:connector-curvature="0" />
	<path style="fill:none;stroke:red;stroke-width:1px;stroke-linecap:butt;stroke-linejoin:miter;stroke-opacity:1" d="M 73.2764,677.521 82.8982,681.37 z" id="boundary" inkscape:connector-curvature="0" />
	<path style="fill:none;stroke:red;stroke-width:1px;stroke-linecap:butt;stroke-linejoin:miter;stroke-opacity:1" d="M 82.8982,681.37 91.5577,686.18 z" id="boundary" inkscape:connector-curvature="0" />
	<path style="fill:none;stroke:red;stroke-width:1px;stroke-linecap:butt;stroke-linejoin:miter;stroke-opacity:1" d="M 101.179,688.105 91.5577,686.18 z" id="boundary" inkscape:connector-curvature="0" />
	<path style="fill:none;stroke:red;stroke-width:1px;stroke-linecap:butt;stroke-linejoin:miter;stroke-opacity:1" d="M 101.179,688.105 110.801,690.029 z" id="boundary" inkscape:connector-curvature="0" />
	<path style="fill:none;stroke:red;stroke-width:1px;stroke-linecap:butt;stroke-linejoin:miter;stroke-opacity:1" d="M 110.801,690.029 117.536,697.726 z" id="boundary" inkscape:connector-curvature="0" />
	<path style="fill:none;stroke:red;stroke-width:1px;stroke-linecap:butt;stroke-linejoin:miter;stroke-opacity:1" d="M 127.158,701.575 117.536,697.726 z" id="boundary" inkscape:connector-curvature="0" />
	<path style="fill:none;stroke:red;stroke-width:1px;stroke-linecap:butt;stroke-linejoin:miter;stroke-opacity:1" d="M 136.78,702.537 127.158,701.575 z" id="boundary" inkscape:connector-curvature="0" />
	<path style="fill:none;stroke:red;stroke-width:1px;stroke-linecap:butt;stroke-linejoin:miter;stroke-opacity:1" d="M 146.402,702.537 136.78,702.537 z" id="boundary" inkscape:connector-curvature="0" />
	<path style="fill:none;stroke:red;stroke-width:1px;stroke-linecap:butt;stroke-linejoin:miter;stroke-opacity:1" d="M 146.402,702.537 155.061,707.348 z" id="boundary" inkscape:connector-curvature="0" />
	<path style="fill:none;stroke:red;stroke-width:1px;stroke-linecap:butt;stroke-linejoin:miter;stroke-opacity:1" d="M 156.023,446.599 165.645,446.599 z" id="boundary" inkscape:connector-curvature="0" />
	<path style="fill:none;stroke:red;stroke-width:1px;stroke-linecap:butt;stroke-linejoin:miter;stroke-opacity:1" d="M 172.38,716.97 163.721,712.159 z" id="boundary" inkscape:connector-curvature="0" />
	<path style="fill:none;stroke:red;stroke-width:1px;stroke-linecap:butt;stroke-linejoin:miter;stroke-opacity:1" d="M 182.002,716.97 172.38,716.97 z" id="boundary" inkscape:connector-curvature="0" />
	<path style="fill:none;stroke:red;stroke-width:1px;stroke-linecap:butt;stroke-linejoin:miter;stroke-opacity:1" d="M 163.721,712.159 155.061,707.348 z" id="boundary" inkscape:connector-curvature="0" />
	<path style="fill:none;stroke:red;stroke-width:1px;stroke-linecap:butt;stroke-linejoin:miter;stroke-opacity:1" d="M 182.002,716.97 190.661,721.781 z" id="boundary" inkscape:connector-curvature="0" />
	<path style="fill:none;stroke:red;stroke-width:1px;stroke-linecap:butt;stroke-linejoin:miter;stroke-opacity:1" d="M 200.283,721.781 190.661,721.781 z" id="boundary" inkscape:connector-curvature="0" />
	<path style="fill:none;stroke:red;stroke-width:1px;stroke-linecap:butt;stroke-linejoin:miter;stroke-opacity:1" d="M 218.565,726.592 208.943,726.592 z" id="boundary" inkscape:connector-curvature="0" />
	<path style="fill:none;stroke:red;stroke-width:1px;stroke-linecap:butt;stroke-linejoin:miter;stroke-opacity:1" d="M 208.943,726.592 200.283,721.781 z" id="boundary" inkscape:connector-curvature="0" />
	<path style="fill:none;stroke:red;stroke-width:1px;stroke-linecap:butt;stroke-linejoin:miter;stroke-opacity:1" d="M 218.565,726.592 227.224,731.403 z" id="boundary" inkscape:connector-curvature="0" />
	<path style="fill:none;stroke:red;stroke-width:1px;stroke-linecap:butt;stroke-linejoin:miter;stroke-opacity:1" d="M 227.224,731.403 236.846,734.289 z" id="boundary" inkscape:connector-curvature="0" />
	<path style="fill:none;stroke:red;stroke-width:1px;stroke-linecap:butt;stroke-linejoin:miter;stroke-opacity:1" d="M 246.468,736.213 256.089,736.213 z" id="boundary" inkscape:connector-curvature="0" />
	<path style="fill:none;stroke:red;stroke-width:1px;stroke-linecap:butt;stroke-linejoin:miter;stroke-opacity:1" d="M 256.089,736.213 264.749,741.024 z" id="boundary" inkscape:connector-curvature="0" />
	<path style="fill:none;stroke:red;stroke-width:1px;stroke-linecap:butt;stroke-linejoin:miter;stroke-opacity:1" d="M 246.468,736.213 236.846,734.289 z" id="boundary" inkscape:connector-curvature="0" />
	<path style="fill:none;stroke:red;stroke-width:1px;stroke-linecap:butt;stroke-linejoin:miter;stroke-opacity:1" d="M 274.371,742.949 264.749,741.024 z" id="boundary" inkscape:connector-curvature="0" />
	<path style="fill:none;stroke:red;stroke-width:1px;stroke-linecap:butt;stroke-linejoin:miter;stroke-opacity:1" d="M 274.371,742.949 283.992,745.835 z" id="boundary" inkscape:connector-curvature="0" />
	<path style="fill:none;stroke:red;stroke-width:1px;stroke-linecap:butt;stroke-linejoin:miter;stroke-opacity:1" d="M 293.614,747.759 283.992,745.835 z" id="boundary" inkscape:connector-curvature="0" />
	<path style="fill:none;stroke:red;stroke-width:1px;stroke-linecap:butt;stroke-linejoin:miter;stroke-opacity:1" d="M 312.857,750.646 303.236,750.646 z" id="boundary" inkscape:connector-curvature="0" />
	<path style="fill:none;stroke:red;stroke-width:1px;stroke-linecap:butt;stroke-linejoin:miter;stroke-opacity:1" d="M 303.236,750.646 293.614,747.759 z" id="boundary" inkscape:connector-curvature="0" />
	<path style="fill:none;stroke:red;stroke-width:1px;stroke-linecap:butt;stroke-linejoin:miter;stroke-opacity:1" d="M 322.479,750.646 312.857,750.646 z" id="boundary" inkscape:connector-curvature="0" />
	<path style="fill:none;stroke:red;stroke-width:1px;stroke-linecap:butt;stroke-linejoin:miter;stroke-opacity:1" d="M 322.479,750.646 332.101,750.646 z" id="boundary" inkscape:connector-curvature="0" />
	<path style="fill:none;stroke:red;stroke-width:1px;stroke-linecap:butt;stroke-linejoin:miter;stroke-opacity:1" d="M 360.004,755.457 350.382,755.457 z" id="boundary" inkscape:connector-curvature="0" />
	<path style="fill:none;stroke:red;stroke-width:1px;stroke-linecap:butt;stroke-linejoin:miter;stroke-opacity:1" d="M 350.382,755.457 341.723,750.646 z" id="boundary" inkscape:connector-curvature="0" />
	<path style="fill:none;stroke:red;stroke-width:1px;stroke-linecap:butt;stroke-linejoin:miter;stroke-opacity:1" d="M 369.626,755.457 360.004,755.457 z" id="boundary" inkscape:connector-curvature="0" />
	<path style="fill:none;stroke:red;stroke-width:1px;stroke-linecap:butt;stroke-linejoin:miter;stroke-opacity:1" d="M 332.101,750.646 341.723,750.646 z" id="boundary" inkscape:connector-curvature="0" />
	<path style="fill:none;stroke:red;stroke-width:1px;stroke-linecap:butt;stroke-linejoin:miter;stroke-opacity:1" d="M 379.247,755.457 369.626,755.457 z" id="boundary" inkscape:connector-curvature="0" />
	<path style="fill:none;stroke:red;stroke-width:1px;stroke-linecap:butt;stroke-linejoin:miter;stroke-opacity:1" d="M 388.869,755.457 379.247,755.457 z" id="boundary" inkscape:connector-curvature="0" />
	<path style="fill:none;stroke:red;stroke-width:1px;stroke-linecap:butt;stroke-linejoin:miter;stroke-opacity:1" d="M 398.491,755.457 388.869,755.457 z" id="boundary" inkscape:connector-curvature="0" />
	<path style="fill:none;stroke:red;stroke-width:1px;stroke-linecap:butt;stroke-linejoin:miter;stroke-opacity:1" d="M 408.113,755.457 398.491,755.457 z" id="boundary" inkscape:connector-curvature="0" />
	<path style="fill:none;stroke:red;stroke-width:1px;stroke-linecap:butt;stroke-linejoin:miter;stroke-opacity:1" d="M 427.356,755.457 417.734,755.457 z" id="boundary" inkscape:connector-curvature="0" />
	<path style="fill:none;stroke:red;stroke-width:1px;stroke-linecap:butt;stroke-linejoin:miter;stroke-opacity:1" d="M 436.978,755.457 427.356,755.457 z" id="boundary" inkscape:connector-curvature="0" />
	<path style="fill:none;stroke:red;stroke-width:1px;stroke-linecap:butt;stroke-linejoin:miter;stroke-opacity:1" d="M 417.734,755.457 408.113,755.457 z" id="boundary" inkscape:connector-curvature="0" />
	<path style="fill:none;stroke:red;stroke-width:1px;stroke-linecap:butt;stroke-linejoin:miter;stroke-opacity:1" d="M 456.221,755.457 446.599,755.457 z" id="boundary" inkscape:connector-curvature="0" />
	<path style="fill:none;stroke:red;stroke-width:1px;stroke-linecap:butt;stroke-linejoin:miter;stroke-opacity:1" d="M 465.843,755.457 456.221,755.457 z" id="boundary" inkscape:connector-curvature="0" />
	<path style="fill:none;stroke:red;stroke-width:1px;stroke-linecap:butt;stroke-linejoin:miter;stroke-opacity:1" d="M 485.086,755.457 475.465,755.457 z" id="boundary" inkscape:connector-curvature="0" />
	<path style="fill:none;stroke:red;stroke-width:1px;stroke-linecap:butt;stroke-linejoin:miter;stroke-opacity:1" d="M 494.708,755.457 485.086,755.457 z" id="boundary" inkscape:connector-curvature="0" />
	<path style="fill:none;stroke:red;stroke-width:1px;stroke-linecap:butt;stroke-linejoin:miter;stroke-opacity:1" d="M 475.465,755.457 465.843,755.457 z" id="boundary" inkscape:connector-curvature="0" />
	<path style="fill:none;stroke:red;stroke-width:1px;stroke-linecap:butt;stroke-linejoin:miter;stroke-opacity:1" d="M 446.599,755.457 436.978,755.457 z" id="boundary" inkscape:connector-curvature="0" />
	<path style="fill:none;stroke:red;stroke-width:1px;stroke-linecap:butt;stroke-linejoin:miter;stroke-opacity:1" d="M 504.33,755.457 494.708,755.457 z" id="boundary" inkscape:connector-curvature="0" />
	<path style="fill:none;stroke:red;stroke-width:1px;stroke-linecap:butt;stroke-linejoin:miter;stroke-opacity:1" d="M 513.952,755.457 504.33,755.457 z" id="boundary" inkscape:connector-curvature="0" />
	<path style="fill:none;stroke:red;stroke-width:1px;stroke-linecap:butt;stroke-linejoin:miter;stroke-opacity:1" d="M 501.443,4 511.065,4 z" id="boundary" inkscape:connector-curvature="0" />
	<path style="fill:none;stroke:red;stroke-width:1px;stroke-linecap:butt;stroke-linejoin:miter;stroke-opacity:1" d="M 520.687,4 529.346,8.81086 z" id="boundary" inkscape:connector-curvature="0" />
	<path style="fill:none;stroke:red;stroke-width:1px;stroke-linecap:butt;stroke-linejoin:miter;stroke-opacity:1" d="M 529.346,8.81086 529.346,18.4326 z" id="boundary" inkscape:connector-curvature="0" />
	<path style="fill:none;stroke:red;stroke-width:1px;stroke-linecap:butt;stroke-linejoin:miter;stroke-opacity:1" d="M 529.346,18.4326 529.346,28.0543 z" id="boundary" inkscape:connector-curvature="0" />
	<path style="fill:none;stroke:red;stroke-width:1px;stroke-linecap:butt;stroke-linejoin:miter;stroke-opacity:1" d="M 529.346,37.676 529.346,28.0543 z" id="boundary" inkscape:connector-curvature="0" />
	<path style="fill:none;stroke:red;stroke-width:1px;stroke-linecap:butt;stroke-linejoin:miter;stroke-opacity:1" d="M 534.157,65.579 534.157,55.9573 z" id="boundary" inkscape:connector-curvature="0" />
	<path style="fill:none;stroke:red;stroke-width:1px;stroke-linecap:butt;stroke-linejoin:miter;stroke-opacity:1" d="M 529.346,37.676 529.346,47.2978 z" id="boundary" inkscape:connector-curvature="0" />
	<path style="fill:none;stroke:red;stroke-width:1px;stroke-linecap:butt;stroke-linejoin:miter;stroke-opacity:1" d="M 529.346,47.2978 534.157,55.9573 z" id="boundary" inkscape:connector-curvature="0" />
	<path style="fill:none;stroke:red;stroke-width:1px;stroke-linecap:butt;stroke-linejoin:miter;stroke-opacity:1" d="M 534.157,65.579 534.157,75.2008 z" id="boundary" inkscape:connector-curvature="0" />
	<path style="fill:none;stroke:red;stroke-width:1px;stroke-linecap:butt;stroke-linejoin:miter;stroke-opacity:1" d="M 534.157,84.8225 534.157,75.2008 z" id="boundary" inkscape:connector-curvature="0" />
	<path style="fill:none;stroke:red;stroke-width:1px;stroke-linecap:butt;stroke-linejoin:miter;stroke-opacity:1" d="M 538.968,93.4821 534.157,84.8225 z" id="boundary" inkscape:connector-curvature="0" />
	<path style="fill:none;stroke:red;stroke-width:1px;stroke-linecap:butt;stroke-linejoin:miter;stroke-opacity:1" d="M 538.968,93.4821 538.968,103.104 z" id="boundary" inkscape:connector-curvature="0" />
	<path style="fill:none;stroke:red;stroke-width:1px;stroke-linecap:butt;stroke-linejoin:miter;stroke-opacity:1" d="M 564.947,124.272 555.325,124.272 z" id="boundary" inkscape:connector-curvature="0" />
	<path style="fill:none;stroke:red;stroke-width:1px;stroke-linecap:butt;stroke-linejoin:miter;stroke-opacity:1" d="M 545.703,120.423 538.968,112.726 z" id="boundary" inkscape:connector-curvature="0" />
	<path style="fill:none;stroke:red;stroke-width:1px;stroke-linecap:butt;stroke-linejoin:miter;stroke-opacity:1" d="M 538.968,112.726 538.968,103.104 z" id="boundary" inkscape:connector-curvature="0" />
	<path style="fill:none;stroke:red;stroke-width:1px;stroke-linecap:butt;stroke-linejoin:miter;stroke-opacity:1" d="M 555.325,124.272 545.703,120.423 z" id="boundary" inkscape:connector-curvature="0" />
	<path style="fill:none;stroke:red;stroke-width:1px;stroke-linecap:butt;stroke-linejoin:miter;stroke-opacity:1" d="M 581.304,170.456 571.682,173.342 z" id="boundary" inkscape:connector-curvature="0" />
	<path style="fill:none;stroke:red;stroke-width:1px;stroke-linecap:butt;stroke-linejoin:miter;stroke-opacity:1" d="M 564.947,124.272 574.568,124.272 z" id="boundary" inkscape:connector-curvature="0" />
	<path style="fill:none;stroke:red;stroke-width:1px;stroke-linecap:butt;stroke-linejoin:miter;stroke-opacity:1" d="M 574.568,124.272 584.19,124.272 z" id="boundary" inkscape:connector-curvature="0" />
	<path style="fill:none;stroke:red;stroke-width:1px;stroke-linecap:butt;stroke-linejoin:miter;stroke-opacity:1" d="M 571.682,173.342 563.022,178.153 z" id="boundary" inkscape:connector-curvature="0" />
	<path style="fill:none;stroke:red;stroke-width:1px;stroke-linecap:butt;stroke-linejoin:miter;stroke-opacity:1" d="M 563.022,178.153 553.401,178.153 z" id="boundary" inkscape:connector-curvature="0" />
	<path style="fill:none;stroke:red;stroke-width:1px;stroke-linecap:butt;stroke-linejoin:miter;stroke-opacity:1" d="M 553.401,178.153 543.779,182.964 z" id="boundary" inkscape:connector-curvature="0" />
	<path style="fill:none;stroke:red;stroke-width:1px;stroke-linecap:butt;stroke-linejoin:miter;stroke-opacity:1" d="M 543.779,182.964 543.779,192.586 z" id="boundary" inkscape:connector-curvature="0" />
	<path style="fill:none;stroke:red;stroke-width:1px;stroke-linecap:butt;stroke-linejoin:miter;stroke-opacity:1" d="M 543.779,202.208 543.779,211.829 z" id="boundary" inkscape:connector-curvature="0" />
	<path style="fill:none;stroke:red;stroke-width:1px;stroke-linecap:butt;stroke-linejoin:miter;stroke-opacity:1" d="M 543.779,211.829 543.779,221.451 z" id="boundary" inkscape:connector-curvature="0" />
	<path style="fill:none;stroke:red;stroke-width:1px;stroke-linecap:butt;stroke-linejoin:miter;stroke-opacity:1" d="M 543.779,202.208 543.779,192.586 z" id="boundary" inkscape:connector-curvature="0" />
	<path style="fill:none;stroke:red;stroke-width:1px;stroke-linecap:butt;stroke-linejoin:miter;stroke-opacity:1" d="M 543.779,231.073 543.779,240.694 z" id="boundary" inkscape:connector-curvature="0" />
	<path style="fill:none;stroke:red;stroke-width:1px;stroke-linecap:butt;stroke-linejoin:miter;stroke-opacity:1" d="M 543.779,231.073 543.779,221.451 z" id="boundary" inkscape:connector-curvature="0" />
	<path style="fill:none;stroke:red;stroke-width:1px;stroke-linecap:butt;stroke-linejoin:miter;stroke-opacity:1" d="M 543.779,250.316 543.779,259.938 z" id="boundary" inkscape:connector-curvature="0" />
	<path style="fill:none;stroke:red;stroke-width:1px;stroke-linecap:butt;stroke-linejoin:miter;stroke-opacity:1" d="M 543.779,269.56 543.779,259.938 z" id="boundary" inkscape:connector-curvature="0" />
	<path style="fill:none;stroke:red;stroke-width:1px;stroke-linecap:butt;stroke-linejoin:miter;stroke-opacity:1" d="M 543.779,279.181 543.779,269.56 z" id="boundary" inkscape:connector-curvature="0" />
	<path style="fill:none;stroke:red;stroke-width:1px;stroke-linecap:butt;stroke-linejoin:miter;stroke-opacity:1" d="M 543.779,240.694 543.779,250.316 z" id="boundary" inkscape:connector-curvature="0" />
	<path style="fill:none;stroke:red;stroke-width:1px;stroke-linecap:butt;stroke-linejoin:miter;stroke-opacity:1" d="M 543.779,279.181 543.779,288.803 z" id="boundary" inkscape:connector-curvature="0" />
	<path style="fill:none;stroke:red;stroke-width:1px;stroke-linecap:butt;stroke-linejoin:miter;stroke-opacity:1" d="M 586.114,331.139 576.493,331.139 z" id="boundary" inkscape:connector-curvature="0" />
	<path style="fill:none;stroke:red;stroke-width:1px;stroke-linecap:butt;stroke-linejoin:miter;stroke-opacity:1" d="M 543.779,308.047 543.779,298.425 z" id="boundary" inkscape:connector-curvature="0" />
	<path style="fill:none;stroke:red;stroke-width:1px;stroke-linecap:butt;stroke-linejoin:miter;stroke-opacity:1" d="M 543.779,298.425 543.779,288.803 z" id="boundary" inkscape:connector-curvature="0" />
	<path style="fill:none;stroke:red;stroke-width:1px;stroke-linecap:butt;stroke-linejoin:miter;stroke-opacity:1" d="M 548.59,326.328 557.249,331.139 z" id="boundary" inkscape:connector-curvature="0" />
	<path style="fill:none;stroke:red;stroke-width:1px;stroke-linecap:butt;stroke-linejoin:miter;stroke-opacity:1" d="M 548.59,326.328 543.779,317.668 z" id="boundary" inkscape:connector-curvature="0" />
	<path style="fill:none;stroke:red;stroke-width:1px;stroke-linecap:butt;stroke-linejoin:miter;stroke-opacity:1" d="M 557.249,331.139 566.871,331.139 z" id="boundary" inkscape:connector-curvature="0" />
	<path style="fill:none;stroke:red;stroke-width:1px;stroke-linecap:butt;stroke-linejoin:miter;stroke-opacity:1" d="M 543.779,317.668 543.779,308.047 z" id="boundary" inkscape:connector-curvature="0" />
	<path style="fill:none;stroke:red;stroke-width:1px;stroke-linecap:butt;stroke-linejoin:miter;stroke-opacity:1" d="M 566.871,331.139 576.493,331.139 z" id="boundary" inkscape:connector-curvature="0" />
	<path style="fill:none;stroke:red;stroke-width:1px;stroke-linecap:butt;stroke-linejoin:miter;stroke-opacity:1" d="M 523.573,755.457 513.952,755.457 z" id="boundary" inkscape:connector-curvature="0" />
	<path style="fill:none;stroke:red;stroke-width:1px;stroke-linecap:butt;stroke-linejoin:miter;stroke-opacity:1" d="M 581.304,170.456 590.925,168.532 z" id="boundary" inkscape:connector-curvature="0" />
	<path style="fill:none;stroke:red;stroke-width:1px;stroke-linecap:butt;stroke-linejoin:miter;stroke-opacity:1" d="M 584.19,124.272 593.812,124.272 z" id="boundary" inkscape:connector-curvature="0" />
	<path style="fill:none;stroke:red;stroke-width:1px;stroke-linecap:butt;stroke-linejoin:miter;stroke-opacity:1" d="M 603.434,124.272 613.055,124.272 z" id="boundary" inkscape:connector-curvature="0" />
	<path style="fill:none;stroke:red;stroke-width:1px;stroke-linecap:butt;stroke-linejoin:miter;stroke-opacity:1" d="M 610.169,163.721 619.79,163.721 z" id="boundary" inkscape:connector-curvature="0" />
	<path style="fill:none;stroke:red;stroke-width:1px;stroke-linecap:butt;stroke-linejoin:miter;stroke-opacity:1" d="M 600.547,165.645 610.169,163.721 z" id="boundary" inkscape:connector-curvature="0" />
	<path style="fill:none;stroke:red;stroke-width:1px;stroke-linecap:butt;stroke-linejoin:miter;stroke-opacity:1" d="M 593.812,124.272 603.434,124.272 z" id="boundary" inkscape:connector-curvature="0" />
	<path style="fill:none;stroke:red;stroke-width:1px;stroke-linecap:butt;stroke-linejoin:miter;stroke-opacity:1" d="M 595.736,331.139 586.114,331.139 z" id="boundary" inkscape:connector-curvature="0" />
	<path style="fill:none;stroke:red;stroke-width:1px;stroke-linecap:butt;stroke-linejoin:miter;stroke-opacity:1" d="M 590.925,168.532 600.547,165.645 z" id="boundary" inkscape:connector-curvature="0" />
	<path style="fill:none;stroke:red;stroke-width:1px;stroke-linecap:butt;stroke-linejoin:miter;stroke-opacity:1" d="M 604.396,335.95 595.736,331.139 z" id="boundary" inkscape:connector-curvature="0" />
	<path style="fill:none;stroke:red;stroke-width:1px;stroke-linecap:butt;stroke-linejoin:miter;stroke-opacity:1" d="M 614.017,335.95 604.396,335.95 z" id="boundary" inkscape:connector-curvature="0" />
	<path style="fill:none;stroke:red;stroke-width:1px;stroke-linecap:butt;stroke-linejoin:miter;stroke-opacity:1" d="M 622.677,124.272 632.299,124.272 z" id="boundary" inkscape:connector-curvature="0" />
	<path style="fill:none;stroke:red;stroke-width:1px;stroke-linecap:butt;stroke-linejoin:miter;stroke-opacity:1" d="M 644.807,139.666 637.11,153.137 z" id="boundary" inkscape:connector-curvature="0" />
	<path style="fill:none;stroke:red;stroke-width:1px;stroke-linecap:butt;stroke-linejoin:miter;stroke-opacity:1" d="M 632.299,124.272 640.958,129.082 z" id="boundary" inkscape:connector-curvature="0" />
	<path style="fill:none;stroke:red;stroke-width:1px;stroke-linecap:butt;stroke-linejoin:miter;stroke-opacity:1" d="M 640.958,129.082 644.807,139.666 z" id="boundary" inkscape:connector-curvature="0" />
	<path style="fill:none;stroke:red;stroke-width:1px;stroke-linecap:butt;stroke-linejoin:miter;stroke-opacity:1" d="M 628.45,158.91 637.11,153.137 z" id="boundary" inkscape:connector-curvature="0" />
	<path style="fill:none;stroke:red;stroke-width:1px;stroke-linecap:butt;stroke-linejoin:miter;stroke-opacity:1" d="M 623.639,336.912 614.017,335.95 z" id="boundary" inkscape:connector-curvature="0" />
	<path style="fill:none;stroke:red;stroke-width:1px;stroke-linecap:butt;stroke-linejoin:miter;stroke-opacity:1" d="M 642.883,340.76 633.261,340.76 z" id="boundary" inkscape:connector-curvature="0" />
	<path style="fill:none;stroke:red;stroke-width:1px;stroke-linecap:butt;stroke-linejoin:miter;stroke-opacity:1" d="M 633.261,340.76 623.639,336.912 z" id="boundary" inkscape:connector-curvature="0" />
	<path style="fill:none;stroke:red;stroke-width:1px;stroke-linecap:butt;stroke-linejoin:miter;stroke-opacity:1" d="M 619.79,163.721 628.45,158.91 z" id="boundary" inkscape:connector-curvature="0" />
	<path style="fill:none;stroke:red;stroke-width:1px;stroke-linecap:butt;stroke-linejoin:miter;stroke-opacity:1" d="M 613.055,124.272 622.677,124.272 z" id="boundary" inkscape:connector-curvature="0" />
	<path style="fill:none;stroke:red;stroke-width:1px;stroke-linecap:butt;stroke-linejoin:miter;stroke-opacity:1" d="M 642.883,340.76 652.504,340.76 z" id="boundary" inkscape:connector-curvature="0" />
	<path style="fill:none;stroke:red;stroke-width:1px;stroke-linecap:butt;stroke-linejoin:miter;stroke-opacity:1" d="M 652.504,340.76 661.164,345.571 z" id="boundary" inkscape:connector-curvature="0" />
	<path style="fill:none;stroke:red;stroke-width:1px;stroke-linecap:butt;stroke-linejoin:miter;stroke-opacity:1" d="M 661.164,345.571 670.786,345.571 z" id="boundary" inkscape:connector-curvature="0" />
	<path style="fill:none;stroke:red;stroke-width:1px;stroke-linecap:butt;stroke-linejoin:miter;stroke-opacity:1" d="M 680.407,345.571 670.786,345.571 z" id="boundary" inkscape:connector-curvature="0" />
	<path style="fill:none;stroke:red;stroke-width:1px;stroke-linecap:butt;stroke-linejoin:miter;stroke-opacity:1" d="M 680.407,345.571 689.067,350.382 z" id="boundary" inkscape:connector-curvature="0" />
	<path style="fill:none;stroke:red;stroke-width:1px;stroke-linecap:butt;stroke-linejoin:miter;stroke-opacity:1" d="M 689.067,350.382 698.689,350.382 z" id="boundary" inkscape:connector-curvature="0" />
	<path style="fill:none;stroke:red;stroke-width:1px;stroke-linecap:butt;stroke-linejoin:miter;stroke-opacity:1" d="M 726.592,355.193 716.97,355.193 z" id="boundary" inkscape:connector-curvature="0" />
	<path style="fill:none;stroke:red;stroke-width:1px;stroke-linecap:butt;stroke-linejoin:miter;stroke-opacity:1" d="M 716.97,355.193 708.31,350.382 z" id="boundary" inkscape:connector-curvature="0" />
	<path style="fill:none;stroke:red;stroke-width:1px;stroke-linecap:butt;stroke-linejoin:miter;stroke-opacity:1" d="M 736.213,355.193 726.592,355.193 z" id="boundary" inkscape:connector-curvature="0" />
	<path style="fill:none;stroke:red;stroke-width:1px;stroke-linecap:butt;stroke-linejoin:miter;stroke-opacity:1" d="M 698.689,350.382 708.31,350.382 z" id="boundary" inkscape:connector-curvature="0" />
	<path style="fill:none;stroke:red;stroke-width:1px;stroke-linecap:butt;stroke-linejoin:miter;stroke-opacity:1" d="M 736.213,355.193 744.873,360.004 z" id="boundary" inkscape:connector-curvature="0" />
	<path style="fill:none;stroke:red;stroke-width:1px;stroke-linecap:butt;stroke-linejoin:miter;stroke-opacity:1" d="M 754.495,360.004 744.873,360.004 z" id="boundary" inkscape:connector-curvature="0" />
	<path style="fill:none;stroke:red;stroke-width:1px;stroke-linecap:butt;stroke-linejoin:miter;stroke-opacity:1" d="M 773.738,364.815 764.116,361.928 z" id="boundary" inkscape:connector-curvature="0" />
	<path style="fill:none;stroke:red;stroke-width:1px;stroke-linecap:butt;stroke-linejoin:miter;stroke-opacity:1" d="M 783.36,364.815 773.738,364.815 z" id="boundary" inkscape:connector-curvature="0" />
	<path style="fill:none;stroke:red;stroke-width:1px;stroke-linecap:butt;stroke-linejoin:miter;stroke-opacity:1" d="M 754.495,360.004 764.116,361.928 z" id="boundary" inkscape:connector-curvature="0" />
	<path style="fill:none;stroke:red;stroke-width:1px;stroke-linecap:butt;stroke-linejoin:miter;stroke-opacity:1" d="M 801.641,370.588 792.019,369.626 z" id="boundary" inkscape:connector-curvature="0" />
	<path style="fill:none;stroke:red;stroke-width:1px;stroke-linecap:butt;stroke-linejoin:miter;stroke-opacity:1" d="M 792.019,369.626 783.36,364.815 z" id="boundary" inkscape:connector-curvature="0" />
	<path style="fill:none;stroke:red;stroke-width:1px;stroke-linecap:butt;stroke-linejoin:miter;stroke-opacity:1" d="M 801.641,370.588 808.376,378.285 z" id="boundary" inkscape:connector-curvature="0" />
	<path style="fill:none;stroke:red;stroke-width:1px;stroke-linecap:butt;stroke-linejoin:miter;stroke-opacity:1" d="M 808.376,378.285 813.187,386.945 z" id="boundary" inkscape:connector-curvature="0" />
	<path style="fill:none;stroke:red;stroke-width:1px;stroke-linecap:butt;stroke-linejoin:miter;stroke-opacity:1" d="M 813.187,386.945 813.187,396.566 z" id="boundary" inkscape:connector-curvature="0" />
	<path style="fill:none;stroke:red;stroke-width:1px;stroke-linecap:butt;stroke-linejoin:miter;stroke-opacity:1" d="M 813.187,396.566 813.187,406.188 z" id="boundary" inkscape:connector-curvature="0" />
	<path style="fill:none;stroke:red;stroke-width:1px;stroke-linecap:butt;stroke-linejoin:miter;stroke-opacity:1" d="M 770.852,736.213 780.473,736.213 z" id="boundary" inkscape:connector-curvature="0" />
	<path style="fill:none;stroke:red;stroke-width:1px;stroke-linecap:butt;stroke-linejoin:miter;stroke-opacity:1" d="M 762.192,741.024 770.852,736.213 z" id="boundary" inkscape:connector-curvature="0" />
	<path style="fill:none;stroke:red;stroke-width:1px;stroke-linecap:butt;stroke-linejoin:miter;stroke-opacity:1" d="M 790.095,736.213 798.755,731.403 z" id="boundary" inkscape:connector-curvature="0" />
	<path style="fill:none;stroke:red;stroke-width:1px;stroke-linecap:butt;stroke-linejoin:miter;stroke-opacity:1" d="M 798.755,731.403 808.376,731.403 z" id="boundary" inkscape:connector-curvature="0" />
	<path style="fill:none;stroke:red;stroke-width:1px;stroke-linecap:butt;stroke-linejoin:miter;stroke-opacity:1" d="M 790.095,736.213 780.473,736.213 z" id="boundary" inkscape:connector-curvature="0" />
	<path style="fill:none;stroke:red;stroke-width:1px;stroke-linecap:butt;stroke-linejoin:miter;stroke-opacity:1" d="M 817.036,726.592 808.376,731.403 z" id="boundary" inkscape:connector-curvature="0" />
	<path style="fill:none;stroke:red;stroke-width:1px;stroke-linecap:butt;stroke-linejoin:miter;stroke-opacity:1" d="M 734.289,748.722 724.667,750.646 z" id="boundary" inkscape:connector-curvature="0" />
	<path style="fill:none;stroke:red;stroke-width:1px;stroke-linecap:butt;stroke-linejoin:miter;stroke-opacity:1" d="M 724.667,750.646 715.046,750.646 z" id="boundary" inkscape:connector-curvature="0" />
	<path style="fill:none;stroke:red;stroke-width:1px;stroke-linecap:butt;stroke-linejoin:miter;stroke-opacity:1" d="M 743.911,745.835 752.57,741.024 z" id="boundary" inkscape:connector-curvature="0" />
	<path style="fill:none;stroke:red;stroke-width:1px;stroke-linecap:butt;stroke-linejoin:miter;stroke-opacity:1" d="M 752.57,741.024 762.192,741.024 z" id="boundary" inkscape:connector-curvature="0" />
	<path style="fill:none;stroke:red;stroke-width:1px;stroke-linecap:butt;stroke-linejoin:miter;stroke-opacity:1" d="M 743.911,745.835 734.289,748.722 z" id="boundary" inkscape:connector-curvature="0" />
	<path style="fill:none;stroke:red;stroke-width:1px;stroke-linecap:butt;stroke-linejoin:miter;stroke-opacity:1" d="M 813.187,415.81 813.187,425.432 z" id="boundary" inkscape:connector-curvature="0" />
	<path style="fill:none;stroke:red;stroke-width:1px;stroke-linecap:butt;stroke-linejoin:miter;stroke-opacity:1" d="M 813.187,415.81 813.187,406.188 z" id="boundary" inkscape:connector-curvature="0" />
	<path style="fill:none;stroke:red;stroke-width:1px;stroke-linecap:butt;stroke-linejoin:miter;stroke-opacity:1" d="M 821.847,430.242 813.187,425.432 z" id="boundary" inkscape:connector-curvature="0" />
	<path style="fill:none;stroke:red;stroke-width:1px;stroke-linecap:butt;stroke-linejoin:miter;stroke-opacity:1" d="M 831.468,434.091 821.847,430.242 z" id="boundary" inkscape:connector-curvature="0" />
	<path style="fill:none;stroke:red;stroke-width:1px;stroke-linecap:butt;stroke-linejoin:miter;stroke-opacity:1" d="M 841.09,436.978 831.468,434.091 z" id="boundary" inkscape:connector-curvature="0" />
	<path style="fill:none;stroke:red;stroke-width:1px;stroke-linecap:butt;stroke-linejoin:miter;stroke-opacity:1" d="M 817.036,726.592 825.695,721.781 z" id="boundary" inkscape:connector-curvature="0" />
	<path style="fill:none;stroke:red;stroke-width:1px;stroke-linecap:butt;stroke-linejoin:miter;stroke-opacity:1" d="M 825.695,721.781 835.317,719.856 z" id="boundary" inkscape:connector-curvature="0" />
	<path style="fill:none;stroke:red;stroke-width:1px;stroke-linecap:butt;stroke-linejoin:miter;stroke-opacity:1" d="M 844.939,715.046 835.317,719.856 z" id="boundary" inkscape:connector-curvature="0" />
	<path style="fill:none;stroke:red;stroke-width:1px;stroke-linecap:butt;stroke-linejoin:miter;stroke-opacity:1" d="M 854.561,710.235 844.939,715.046 z" id="boundary" inkscape:connector-curvature="0" />
	<path style="fill:none;stroke:red;stroke-width:1px;stroke-linecap:butt;stroke-linejoin:miter;stroke-opacity:1" d="M 841.09,436.978 849.75,441.789 z" id="boundary" inkscape:connector-curvature="0" />
	<path style="fill:none;stroke:red;stroke-width:1px;stroke-linecap:butt;stroke-linejoin:miter;stroke-opacity:1" d="M 533.195,755.457 523.573,755.457 z" id="boundary" inkscape:connector-curvature="0" />
	<path style="fill:none;stroke:red;stroke-width:1px;stroke-linecap:butt;stroke-linejoin:miter;stroke-opacity:1" d="M 552.438,755.457 542.817,755.457 z" id="boundary" inkscape:connector-curvature="0" />
	<path style="fill:none;stroke:red;stroke-width:1px;stroke-linecap:butt;stroke-linejoin:miter;stroke-opacity:1" d="M 562.06,755.457 552.438,755.457 z" id="boundary" inkscape:connector-curvature="0" />
	<path style="fill:none;stroke:red;stroke-width:1px;stroke-linecap:butt;stroke-linejoin:miter;stroke-opacity:1" d="M 542.817,755.457 533.195,755.457 z" id="boundary" inkscape:connector-curvature="0" />
	<path style="fill:none;stroke:red;stroke-width:1px;stroke-linecap:butt;stroke-linejoin:miter;stroke-opacity:1" d="M 581.304,755.457 571.682,755.457 z" id="boundary" inkscape:connector-curvature="0" />
	<path style="fill:none;stroke:red;stroke-width:1px;stroke-linecap:butt;stroke-linejoin:miter;stroke-opacity:1" d="M 600.547,755.457 590.925,755.457 z" id="boundary" inkscape:connector-curvature="0" />
	<path style="fill:none;stroke:red;stroke-width:1px;stroke-linecap:butt;stroke-linejoin:miter;stroke-opacity:1" d="M 610.169,755.457 600.547,755.457 z" id="boundary" inkscape:connector-curvature="0" />
	<path style="fill:none;stroke:red;stroke-width:1px;stroke-linecap:butt;stroke-linejoin:miter;stroke-opacity:1" d="M 590.925,755.457 581.304,755.457 z" id="boundary" inkscape:connector-curvature="0" />
	<path style="fill:none;stroke:red;stroke-width:1px;stroke-linecap:butt;stroke-linejoin:miter;stroke-opacity:1" d="M 571.682,755.457 562.06,755.457 z" id="boundary" inkscape:connector-curvature="0" />
	<path style="fill:none;stroke:red;stroke-width:1px;stroke-linecap:butt;stroke-linejoin:miter;stroke-opacity:1" d="M 629.412,755.457 619.79,755.457 z" id="boundary" inkscape:connector-curvature="0" />
	<path style="fill:none;stroke:red;stroke-width:1px;stroke-linecap:butt;stroke-linejoin:miter;stroke-opacity:1" d="M 648.656,755.457 639.034,755.457 z" id="boundary" inkscape:connector-curvature="0" />
	<path style="fill:none;stroke:red;stroke-width:1px;stroke-linecap:butt;stroke-linejoin:miter;stroke-opacity:1" d="M 639.034,755.457 629.412,755.457 z" id="boundary" inkscape:connector-curvature="0" />
	<path style="fill:none;stroke:red;stroke-width:1px;stroke-linecap:butt;stroke-linejoin:miter;stroke-opacity:1" d="M 658.277,755.457 648.656,755.457 z" id="boundary" inkscape:connector-curvature="0" />
	<path style="fill:none;stroke:red;stroke-width:1px;stroke-linecap:butt;stroke-linejoin:miter;stroke-opacity:1" d="M 619.79,755.457 610.169,755.457 z" id="boundary" inkscape:connector-curvature="0" />
	<path style="fill:none;stroke:red;stroke-width:1px;stroke-linecap:butt;stroke-linejoin:miter;stroke-opacity:1" d="M 667.899,755.457 658.277,755.457 z" id="boundary" inkscape:connector-curvature="0" />
	<path style="fill:none;stroke:red;stroke-width:1px;stroke-linecap:butt;stroke-linejoin:miter;stroke-opacity:1" d="M 677.521,755.457 667.899,755.457 z" id="boundary" inkscape:connector-curvature="0" />
	<path style="fill:none;stroke:red;stroke-width:1px;stroke-linecap:butt;stroke-linejoin:miter;stroke-opacity:1" d="M 696.764,755.457 687.143,755.457 z" id="boundary" inkscape:connector-curvature="0" />
	<path style="fill:none;stroke:red;stroke-width:1px;stroke-linecap:butt;stroke-linejoin:miter;stroke-opacity:1" d="M 715.046,750.646 706.386,755.457 z" id="boundary" inkscape:connector-curvature="0" />
	<path style="fill:none;stroke:red;stroke-width:1px;stroke-linecap:butt;stroke-linejoin:miter;stroke-opacity:1" d="M 706.386,755.457 696.764,755.457 z" id="boundary" inkscape:connector-curvature="0" />
	<path style="fill:none;stroke:red;stroke-width:1px;stroke-linecap:butt;stroke-linejoin:miter;stroke-opacity:1" d="M 687.143,755.457 677.521,755.457 z" id="boundary" inkscape:connector-curvature="0" />
	<path style="fill:none;stroke:red;stroke-width:1px;stroke-linecap:butt;stroke-linejoin:miter;stroke-opacity:1" d="M 867.069,451.41 875.728,456.221 z" id="boundary" inkscape:connector-curvature="0" />
	<path style="fill:none;stroke:red;stroke-width:1px;stroke-linecap:butt;stroke-linejoin:miter;stroke-opacity:1" d="M 867.069,451.41 858.409,446.599 z" id="boundary" inkscape:connector-curvature="0" />
	<path style="fill:none;stroke:red;stroke-width:1px;stroke-linecap:butt;stroke-linejoin:miter;stroke-opacity:1" d="M 875.728,456.221 884.388,461.032 z" id="boundary" inkscape:connector-curvature="0" />
	<path style="fill:none;stroke:red;stroke-width:1px;stroke-linecap:butt;stroke-linejoin:miter;stroke-opacity:1" d="M 858.409,446.599 849.75,441.789 z" id="boundary" inkscape:connector-curvature="0" />
	<path style="fill:none;stroke:red;stroke-width:1px;stroke-linecap:butt;stroke-linejoin:miter;stroke-opacity:1" d="M 893.048,465.843 901.707,470.654 z" id="boundary" inkscape:connector-curvature="0" />
	<path style="fill:none;stroke:red;stroke-width:1px;stroke-linecap:butt;stroke-linejoin:miter;stroke-opacity:1" d="M 893.048,465.843 884.388,461.032 z" id="boundary" inkscape:connector-curvature="0" />
	<path style="fill:none;stroke:red;stroke-width:1px;stroke-linecap:butt;stroke-linejoin:miter;stroke-opacity:1" d="M 926.724,487.011 918.064,482.2 z" id="boundary" inkscape:connector-curvature="0" />
	<path style="fill:none;stroke:red;stroke-width:1px;stroke-linecap:butt;stroke-linejoin:miter;stroke-opacity:1" d="M 918.064,482.2 910.367,475.465 z" id="boundary" inkscape:connector-curvature="0" />
	<path style="fill:none;stroke:red;stroke-width:1px;stroke-linecap:butt;stroke-linejoin:miter;stroke-opacity:1" d="M 926.724,487.011 933.459,494.708 z" id="boundary" inkscape:connector-curvature="0" />
	<path style="fill:none;stroke:red;stroke-width:1px;stroke-linecap:butt;stroke-linejoin:miter;stroke-opacity:1" d="M 901.707,470.654 910.367,475.465 z" id="boundary" inkscape:connector-curvature="0" />
	<path style="fill:none;stroke:red;stroke-width:1px;stroke-linecap:butt;stroke-linejoin:miter;stroke-opacity:1" d="M 933.459,494.708 943.081,497.595 z" id="boundary" inkscape:connector-curvature="0" />
	<path style="fill:none;stroke:red;stroke-width:1px;stroke-linecap:butt;stroke-linejoin:miter;stroke-opacity:1" d="M 952.702,499.519 961.362,504.33 z" id="boundary" inkscape:connector-curvature="0" />
	<path style="fill:none;stroke:red;stroke-width:1px;stroke-linecap:butt;stroke-linejoin:miter;stroke-opacity:1" d="M 943.081,497.595 952.702,499.519 z" id="boundary" inkscape:connector-curvature="0" />
	<path style="fill:none;stroke:red;stroke-width:1px;stroke-linecap:butt;stroke-linejoin:miter;stroke-opacity:1" d="M 970.021,509.141 961.362,504.33 z" id="boundary" inkscape:connector-curvature="0" />
	<path style="fill:none;stroke:red;stroke-width:1px;stroke-linecap:butt;stroke-linejoin:miter;stroke-opacity:1" d="M 979.643,510.103 970.021,509.141 z" id="boundary" inkscape:connector-curvature="0" />
	<path style="fill:none;stroke:red;stroke-width:1px;stroke-linecap:butt;stroke-linejoin:miter;stroke-opacity:1" d="M 979.643,510.103 988.303,514.914 z" id="boundary" inkscape:connector-curvature="0" />
	<path style="fill:none;stroke:red;stroke-width:1px;stroke-linecap:butt;stroke-linejoin:miter;stroke-opacity:1" d="M 988.303,514.914 993.113,523.573 z" id="boundary" inkscape:connector-curvature="0" />
	<path style="fill:none;stroke:red;stroke-width:1px;stroke-linecap:butt;stroke-linejoin:miter;stroke-opacity:1" d="M 996,533.195 996,542.817 z" id="boundary" inkscape:connector-curvature="0" />
	<path style="fill:none;stroke:red;stroke-width:1px;stroke-linecap:butt;stroke-linejoin:miter;stroke-opacity:1" d="M 993.113,523.573 996,533.195 z" id="boundary" inkscape:connector-curvature="0" />
	<path style="fill:none;stroke:red;stroke-width:1px;stroke-linecap:butt;stroke-linejoin:miter;stroke-opacity:1" d="M 899.783,683.294 909.404,678.483 z" id="boundary" inkscape:connector-curvature="0" />
	<path style="fill:none;stroke:red;stroke-width:1px;stroke-linecap:butt;stroke-linejoin:miter;stroke-opacity:1" d="M 917.102,671.748 909.404,678.483 z" id="boundary" inkscape:connector-curvature="0" />
	<path style="fill:none;stroke:red;stroke-width:1px;stroke-linecap:butt;stroke-linejoin:miter;stroke-opacity:1" d="M 917.102,671.748 923.837,664.05 z" id="boundary" inkscape:connector-curvature="0" />
	<path style="fill:none;stroke:red;stroke-width:1px;stroke-linecap:butt;stroke-linejoin:miter;stroke-opacity:1" d="M 923.837,664.05 931.534,657.315 z" id="boundary" inkscape:connector-curvature="0" />
	<path style="fill:none;stroke:red;stroke-width:1px;stroke-linecap:butt;stroke-linejoin:miter;stroke-opacity:1" d="M 938.27,649.618 931.534,657.315 z" id="boundary" inkscape:connector-curvature="0" />
	<path style="fill:none;stroke:red;stroke-width:1px;stroke-linecap:butt;stroke-linejoin:miter;stroke-opacity:1" d="M 899.783,683.294 890.161,688.105 z" id="boundary" inkscape:connector-curvature="0" />
	<path style="fill:none;stroke:red;stroke-width:1px;stroke-linecap:butt;stroke-linejoin:miter;stroke-opacity:1" d="M 864.182,705.424 854.561,710.235 z" id="boundary" inkscape:connector-curvature="0" />
	<path style="fill:none;stroke:red;stroke-width:1px;stroke-linecap:butt;stroke-linejoin:miter;stroke-opacity:1" d="M 890.161,688.105 883.426,695.802 z" id="boundary" inkscape:connector-curvature="0" />
	<path style="fill:none;stroke:red;stroke-width:1px;stroke-linecap:butt;stroke-linejoin:miter;stroke-opacity:1" d="M 883.426,695.802 873.804,700.613 z" id="boundary" inkscape:connector-curvature="0" />
	<path style="fill:none;stroke:red;stroke-width:1px;stroke-linecap:butt;stroke-linejoin:miter;stroke-opacity:1" d="M 873.804,700.613 864.182,705.424 z" id="boundary" inkscape:connector-curvature="0" />
	<path style="fill:none;stroke:red;stroke-width:1px;stroke-linecap:butt;stroke-linejoin:miter;stroke-opacity:1" d="M 986.378,572.644 984.454,585.152 z" id="boundary" inkscape:connector-curvature="0" />
	<path style="fill:none;stroke:red;stroke-width:1px;stroke-linecap:butt;stroke-linejoin:miter;stroke-opacity:1" d="M 991.189,563.022 986.378,572.644 z" id="boundary" inkscape:connector-curvature="0" />
	<path style="fill:none;stroke:red;stroke-width:1px;stroke-linecap:butt;stroke-linejoin:miter;stroke-opacity:1" d="M 971.946,601.509 967.135,611.131 z" id="boundary" inkscape:connector-curvature="0" />
	<path style="fill:none;stroke:red;stroke-width:1px;stroke-linecap:butt;stroke-linejoin:miter;stroke-opacity:1" d="M 991.189,563.022 996,552.438 z" id="boundary" inkscape:connector-curvature="0" />
	<path style="fill:none;stroke:red;stroke-width:1px;stroke-linecap:butt;stroke-linejoin:miter;stroke-opacity:1" d="M 984.454,585.152 979.643,594.774 z" id="boundary" inkscape:connector-curvature="0" />
	<path style="fill:none;stroke:red;stroke-width:1px;stroke-linecap:butt;stroke-linejoin:miter;stroke-opacity:1" d="M 979.643,594.774 971.946,601.509 z" id="boundary" inkscape:connector-curvature="0" />
	<path style="fill:none;stroke:red;stroke-width:1px;stroke-linecap:butt;stroke-linejoin:miter;stroke-opacity:1" d="M 938.27,649.618 947.891,639.996 z" id="boundary" inkscape:connector-curvature="0" />
	<path style="fill:none;stroke:red;stroke-width:1px;stroke-linecap:butt;stroke-linejoin:miter;stroke-opacity:1" d="M 947.891,639.996 955.589,633.261 z" id="boundary" inkscape:connector-curvature="0" />
	<path style="fill:none;stroke:red;stroke-width:1px;stroke-linecap:butt;stroke-linejoin:miter;stroke-opacity:1" d="M 962.324,620.753 955.589,633.261 z" id="boundary" inkscape:connector-curvature="0" />
	<path style="fill:none;stroke:red;stroke-width:1px;stroke-linecap:butt;stroke-linejoin:miter;stroke-opacity:1" d="M 962.324,620.753 967.135,611.131 z" id="boundary" inkscape:connector-curvature="0" />
	<path style="fill:none;stroke:red;stroke-width:1px;stroke-linecap:butt;stroke-linejoin:miter;stroke-opacity:1" d="M 996,542.817 996,552.438 z" id="boundary" inkscape:connector-curvature="0" />
	<path style="fill:none;stroke:red;stroke-width:1px;stroke-linecap:butt;stroke-linejoin:miter;stroke-opacity:1" d="M 511.065,4 520.687,4 z" id="boundary" inkscape:connector-curvature="0" />
	<circle cx="4" cy="564.947" r="4" fill="#0" id="circle0"/>
	<circle cx="4" cy="574.568" r="4" fill="#0" id="circle1"/>
	<circle cx="4" cy="584.19" r="4" fill="#0" id="circle2"/>
	<circle cx="4" cy="593.812" r="4" fill="#0" id="circle3"/>
	<circle cx="4" cy="603.434" r="4" fill="#0" id="circle4"/>
	<circle cx="4" cy="613.055" r="4" fill="#0" id="circle5"/>
	<circle cx="8.81086" cy="540.892" r="4" fill="#0" id="circle6"/>
	<circle cx="8.81086" cy="550.514" r="4" fill="#0" id="circle7"/>
	<circle cx="8.81086" cy="621.715" r="4" fill="#0" id="circle8"/>
	<circle cx="13.6217" cy="531.271" r="4" fill="#0" id="circle9"/>
	<circle cx="13.6217" cy="630.374" r="4" fill="#0" id="circle10"/>
	<circle cx="16.5082" cy="639.996" r="4" fill="#0" id="circle11"/>
	<circle cx="21.3191" cy="523.573" r="4" fill="#0" id="circle12"/>
	<circle cx="21.3191" cy="648.656" r="4" fill="#0" id="circle13"/>
	<circle cx="29.0165" cy="515.876" r="4" fill="#0" id="circle14"/>
	<circle cx="29.0165" cy="654.429" r="4" fill="#0" id="circle15"/>
	<circle cx="36.7139" cy="509.141" r="4" fill="#0" id="circle16"/>
	<circle cx="37.676" cy="659.24" r="4" fill="#0" id="circle17"/>
	<circle cx="45.3734" cy="504.33" r="4" fill="#0" id="circle18"/>
	<circle cx="46.3356" cy="664.05" r="4" fill="#0" id="circle19"/>
	<circle cx="53.0708" cy="496.632" r="4" fill="#0" id="circle20"/>
	<circle cx="54.9952" cy="668.861" r="4" fill="#0" id="circle21"/>
	<circle cx="62.6925" cy="491.822" r="4" fill="#0" id="circle22"/>
	<circle cx="64.6169" cy="672.71" r="4" fill="#0" id="circle23"/>
	<circle cx="72.3143" cy="489.897" r="4" fill="#0" id="circle24"/>
	<circle cx="73.2764" cy="677.521" r="4" fill="#0" id="circle25"/>
	<circle cx="80.9738" cy="483.162" r="4" fill="#0" id="circle26"/>
	<circle cx="82.8982" cy="681.37" r="4" fill="#0" id="circle27"/>
	<circle cx="88.6712" cy="475.465" r="4" fill="#0" id="circle28"/>
	<circle cx="91.5577" cy="686.18" r="4" fill="#0" id="circle29"/>
	<circle cx="98.2929" cy="470.654" r="4" fill="#0" id="circle30"/>
	<circle cx="101.179" cy="688.105" r="4" fill="#0" id="circle31"/>
	<circle cx="107.915" cy="465.843" r="4" fill="#0" id="circle32"/>
	<circle cx="110.801" cy="690.029" r="4" fill="#0" id="circle33"/>
	<circle cx="117.536" cy="461.032" r="4" fill="#0" id="circle34"/>
	<circle cx="117.536" cy="697.726" r="4" fill="#0" id="circle35"/>
	<circle cx="127.158" cy="456.221" r="4" fill="#0" id="circle36"/>
	<circle cx="127.158" cy="701.575" r="4" fill="#0" id="circle37"/>
	<circle cx="136.78" cy="451.41" r="4" fill="#0" id="circle38"/>
	<circle cx="136.78" cy="702.537" r="4" fill="#0" id="circle39"/>
	<circle cx="146.402" cy="446.599" r="4" fill="#0" id="circle40"/>
	<circle cx="146.402" cy="702.537" r="4" fill="#0" id="circle41"/>
	<circle cx="155.061" cy="707.348" r="4" fill="#0" id="circle42"/>
	<circle cx="156.023" cy="446.599" r="4" fill="#0" id="circle43"/>
	<circle cx="163.721" cy="712.159" r="4" fill="#0" id="circle44"/>
	<circle cx="165.645" cy="446.599" r="4" fill="#0" id="circle45"/>
	<circle cx="167.569" cy="415.81" r="4" fill="#0" id="circle46"/>
	<circle cx="167.569" cy="425.432" r="4" fill="#0" id="circle47"/>
	<circle cx="167.569" cy="435.053" r="4" fill="#0" id="circle48"/>
	<circle cx="172.38" cy="406.188" r="4" fill="#0" id="circle49"/>
	<circle cx="172.38" cy="716.97" r="4" fill="#0" id="circle50"/>
	<circle cx="177.191" cy="396.566" r="4" fill="#0" id="circle51"/>
	<circle cx="182.002" cy="716.97" r="4" fill="#0" id="circle52"/>
	<circle cx="184.888" cy="388.869" r="4" fill="#0" id="circle53"/>
	<circle cx="190.661" cy="721.781" r="4" fill="#0" id="circle54"/>
	<circle cx="193.548" cy="384.058" r="4" fill="#0" id="circle55"/>
	<circle cx="200.283" cy="721.781" r="4" fill="#0" id="circle56"/>
	<circle cx="202.208" cy="379.247" r="4" fill="#0" id="circle57"/>
	<circle cx="208.943" cy="726.592" r="4" fill="#0" id="circle58"/>
	<circle cx="210.867" cy="374.436" r="4" fill="#0" id="circle59"/>
	<circle cx="218.565" cy="726.592" r="4" fill="#0" id="circle60"/>
	<circle cx="220.489" cy="372.512" r="4" fill="#0" id="circle61"/>
	<circle cx="227.224" cy="731.403" r="4" fill="#0" id="circle62"/>
	<circle cx="230.111" cy="367.701" r="4" fill="#0" id="circle63"/>
	<circle cx="236.846" cy="734.289" r="4" fill="#0" id="circle64"/>
	<circle cx="239.732" cy="362.89" r="4" fill="#0" id="circle65"/>
	<circle cx="246.468" cy="736.213" r="4" fill="#0" id="circle66"/>
	<circle cx="249.354" cy="358.08" r="4" fill="#0" id="circle67"/>
	<circle cx="256.089" cy="736.213" r="4" fill="#0" id="circle68"/>
	<circle cx="258.976" cy="353.269" r="4" fill="#0" id="circle69"/>
	<circle cx="264.749" cy="741.024" r="4" fill="#0" id="circle70"/>
	<circle cx="268.597" cy="348.458" r="4" fill="#0" id="circle71"/>
	<circle cx="274.371" cy="742.949" r="4" fill="#0" id="circle72"/>
	<circle cx="278.219" cy="343.647" r="4" fill="#0" id="circle73"/>
	<circle cx="283.992" cy="745.835" r="4" fill="#0" id="circle74"/>
	<circle cx="287.841" cy="340.76" r="4" fill="#0" id="circle75"/>
	<circle cx="293.614" cy="747.759" r="4" fill="#0" id="circle76"/>
	<circle cx="296.5" cy="335.95" r="4" fill="#0" id="circle77"/>
	<circle cx="303.236" cy="750.646" r="4" fill="#0" id="circle78"/>
	<circle cx="306.122" cy="335.95" r="4" fill="#0" id="circle79"/>
	<circle cx="312.857" cy="750.646" r="4" fill="#0" id="circle80"/>
	<circle cx="314.782" cy="331.139" r="4" fill="#0" id="circle81"/>
	<circle cx="322.479" cy="750.646" r="4" fill="#0" id="circle82"/>
	<circle cx="324.403" cy="331.139" r="4" fill="#0" id="circle83"/>
	<circle cx="332.101" cy="750.646" r="4" fill="#0" id="circle84"/>
	<circle cx="334.025" cy="331.139" r="4" fill="#0" id="circle85"/>
	<circle cx="341.723" cy="750.646" r="4" fill="#0" id="circle86"/>
	<circle cx="343.647" cy="331.139" r="4" fill="#0" id="circle87"/>
	<circle cx="350.382" cy="755.457" r="4" fill="#0" id="circle88"/>
	<circle cx="353.269" cy="331.139" r="4" fill="#0" id="circle89"/>
	<circle cx="360.004" cy="755.457" r="4" fill="#0" id="circle90"/>
	<circle cx="362.89" cy="331.139" r="4" fill="#0" id="circle91"/>
	<circle cx="369.626" cy="755.457" r="4" fill="#0" id="circle92"/>
	<circle cx="372.512" cy="331.139" r="4" fill="#0" id="circle93"/>
	<circle cx="374.436" cy="146.402" r="4" fill="#0" id="circle94"/>
	<circle cx="379.247" cy="136.78" r="4" fill="#0" id="circle95"/>
	<circle cx="379.247" cy="155.061" r="4" fill="#0" id="circle96"/>
	<circle cx="379.247" cy="755.457" r="4" fill="#0" id="circle97"/>
	<circle cx="381.172" cy="326.328" r="4" fill="#0" id="circle98"/>
	<circle cx="386.945" cy="129.082" r="4" fill="#0" id="circle99"/>
	<circle cx="388.869" cy="158.91" r="4" fill="#0" id="circle100"/>
	<circle cx="388.869" cy="755.457" r="4" fill="#0" id="circle101"/>
	<circle cx="390.793" cy="326.328" r="4" fill="#0" id="circle102"/>
	<circle cx="394.642" cy="166.607" r="4" fill="#0" id="circle103"/>
	<circle cx="396.566" cy="124.272" r="4" fill="#0" id="circle104"/>
	<circle cx="398.491" cy="755.457" r="4" fill="#0" id="circle105"/>
	<circle cx="400.415" cy="326.328" r="4" fill="#0" id="circle106"/>
	<circle cx="404.264" cy="170.456" r="4" fill="#0" id="circle107"/>
	<circle cx="406.188" cy="119.461" r="4" fill="#0" id="circle108"/>
	<circle cx="408.113" cy="755.457" r="4" fill="#0" id="circle109"/>
	<circle cx="410.037" cy="326.328" r="4" fill="#0" id="circle110"/>
	<circle cx="413.886" cy="173.342" r="4" fill="#0" id="circle111"/>
	<circle cx="415.81" cy="119.461" r="4" fill="#0" id="circle112"/>
	<circle cx="417.734" cy="755.457" r="4" fill="#0" id="circle113"/>
	<circle cx="419.659" cy="322.479" r="4" fill="#0" id="circle114"/>
	<circle cx="423.507" cy="175.267" r="4" fill="#0" id="circle115"/>
	<circle cx="424.469" cy="114.65" r="4" fill="#0" id="circle116"/>
	<circle cx="427.356" cy="755.457" r="4" fill="#0" id="circle117"/>
	<circle cx="429.28" cy="321.517" r="4" fill="#0" id="circle118"/>
	<circle cx="433.129" cy="178.153" r="4" fill="#0" id="circle119"/>
	<circle cx="434.091" cy="110.801" r="4" fill="#0" id="circle120"/>
	<circle cx="436.978" cy="755.457" r="4" fill="#0" id="circle121"/>
	<circle cx="438.902" cy="317.668" r="4" fill="#0" id="circle122"/>
	<circle cx="441.789" cy="182.964" r="4" fill="#0" id="circle123"/>
	<circle cx="441.789" cy="281.106" r="4" fill="#0" id="circle124"/>
	<circle cx="441.789" cy="290.727" r="4" fill="#0" id="circle125"/>
	<circle cx="441.789" cy="300.349" r="4" fill="#0" id="circle126"/>
	<circle cx="443.713" cy="109.839" r="4" fill="#0" id="circle127"/>
	<circle cx="446.599" cy="271.484" r="4" fill="#0" id="circle128"/>
	<circle cx="446.599" cy="755.457" r="4" fill="#0" id="circle129"/>
	<circle cx="450.448" cy="187.775" r="4" fill="#0" id="circle130"/>
	<circle cx="451.41" cy="257.051" r="4" fill="#0" id="circle131"/>
	<circle cx="453.335" cy="109.839" r="4" fill="#0" id="circle132"/>
	<circle cx="454.297" cy="197.397" r="4" fill="#0" id="circle133"/>
	<circle cx="456.221" cy="207.018" r="4" fill="#0" id="circle134"/>
	<circle cx="456.221" cy="216.64" r="4" fill="#0" id="circle135"/>
	<circle cx="456.221" cy="226.262" r="4" fill="#0" id="circle136"/>
	<circle cx="456.221" cy="235.884" r="4" fill="#0" id="circle137"/>
	<circle cx="456.221" cy="245.505" r="4" fill="#0" id="circle138"/>
	<circle cx="456.221" cy="755.457" r="4" fill="#0" id="circle139"/>
	<circle cx="462.956" cy="109.839" r="4" fill="#0" id="circle140"/>
	<circle cx="465.843" cy="755.457" r="4" fill="#0" id="circle141"/>
	<circle cx="472.578" cy="109.839" r="4" fill="#0" id="circle142"/>
	<circle cx="475.465" cy="16.5082" r="4" fill="#0" id="circle143"/>
	<circle cx="475.465" cy="26.13" r="4" fill="#0" id="circle144"/>
	<circle cx="475.465" cy="35.7517" r="4" fill="#0" id="circle145"/>
	<circle cx="475.465" cy="45.3734" r="4" fill="#0" id="circle146"/>
	<circle cx="475.465" cy="755.457" r="4" fill="#0" id="circle147"/>
	<circle cx="480.275" cy="54.033" r="4" fill="#0" id="circle148"/>
	<circle cx="482.2" cy="109.839" r="4" fill="#0" id="circle149"/>
	<circle cx="483.162" cy="8.81086" r="4" fill="#0" id="circle150"/>
	<circle cx="485.086" cy="62.6925" r="4" fill="#0" id="circle151"/>
	<circle cx="485.086" cy="755.457" r="4" fill="#0" id="circle152"/>
	<circle cx="487.973" cy="72.3143" r="4" fill="#0" id="circle153"/>
	<circle cx="489.897" cy="81.936" r="4" fill="#0" id="circle154"/>
	<circle cx="489.897" cy="91.5577" r="4" fill="#0" id="circle155"/>
	<circle cx="489.897" cy="101.179" r="4" fill="#0" id="circle156"/>
	<circle cx="491.822" cy="4" r="4" fill="#0" id="circle157"/>
	<circle cx="494.708" cy="755.457" r="4" fill="#0" id="circle158"/>
	<circle cx="501.443" cy="4" r="4" fill="#0" id="circle159"/>
	<circle cx="504.33" cy="755.457" r="4" fill="#0" id="circle160"/>
	<circle cx="511.065" cy="4" r="4" fill="#0" id="circle161"/>
	<circle cx="513.952" cy="755.457" r="4" fill="#0" id="circle162"/>
	<circle cx="520.687" cy="4" r="4" fill="#0" id="circle163"/>
	<circle cx="523.573" cy="755.457" r="4" fill="#0" id="circle164"/>
	<circle cx="529.346" cy="8.81086" r="4" fill="#0" id="circle165"/>
	<circle cx="529.346" cy="18.4326" r="4" fill="#0" id="circle166"/>
	<circle cx="529.346" cy="28.0543" r="4" fill="#0" id="circle167"/>
	<circle cx="529.346" cy="37.676" r="4" fill="#0" id="circle168"/>
	<circle cx="529.346" cy="47.2978" r="4" fill="#0" id="circle169"/>
	<circle cx="533.195" cy="755.457" r="4" fill="#0" id="circle170"/>
	<circle cx="534.157" cy="55.9573" r="4" fill="#0" id="circle171"/>
	<circle cx="534.157" cy="65.579" r="4" fill="#0" id="circle172"/>
	<circle cx="534.157" cy="75.2008" r="4" fill="#0" id="circle173"/>
	<circle cx="534.157" cy="84.8225" r="4" fill="#0" id="circle174"/>
	<circle cx="538.968" cy="93.4821" r="4" fill="#0" id="circle175"/>
	<circle cx="538.968" cy="103.104" r="4" fill="#0" id="circle176"/>
	<circle cx="538.968" cy="112.726" r="4" fill="#0" id="circle177"/>
	<circle cx="542.817" cy="755.457" r="4" fill="#0" id="circle178"/>
	<circle cx="543.779" cy="182.964" r="4" fill="#0" id="circle179"/>
	<circle cx="543.779" cy="192.586" r="4" fill="#0" id="circle180"/>
	<circle cx="543.779" cy="202.208" r="4" fill="#0" id="circle181"/>
	<circle cx="543.779" cy="211.829" r="4" fill="#0" id="circle182"/>
	<circle cx="543.779" cy="221.451" r="4" fill="#0" id="circle183"/>
	<circle cx="543.779" cy="231.073" r="4" fill="#0" id="circle184"/>
	<circle cx="543.779" cy="240.694" r="4" fill="#0" id="circle185"/>
	<circle cx="543.779" cy="250.316" r="4" fill="#0" id="circle186"/>
	<circle cx="543.779" cy="259.938" r="4" fill="#0" id="circle187"/>
	<circle cx="543.779" cy="269.56" r="4" fill="#0" id="circle188"/>
	<circle cx="543.779" cy="279.181" r="4" fill="#0" id="circle189"/>
	<circle cx="543.779" cy="288.803" r="4" fill="#0" id="circle190"/>
	<circle cx="543.779" cy="298.425" r="4" fill="#0" id="circle191"/>
	<circle cx="543.779" cy="308.047" r="4" fill="#0" id="circle192"/>
	<circle cx="543.779" cy="317.668" r="4" fill="#0" id="circle193"/>
	<circle cx="545.703" cy="120.423" r="4" fill="#0" id="circle194"/>
	<circle cx="548.59" cy="326.328" r="4" fill="#0" id="circle195"/>
	<circle cx="552.438" cy="755.457" r="4" fill="#0" id="circle196"/>
	<circle cx="553.401" cy="178.153" r="4" fill="#0" id="circle197"/>
	<circle cx="555.325" cy="124.272" r="4" fill="#0" id="circle198"/>
	<circle cx="557.249" cy="331.139" r="4" fill="#0" id="circle199"/>
	<circle cx="562.06" cy="755.457" r="4" fill="#0" id="circle200"/>
	<circle cx="563.022" cy="178.153" r="4" fill="#0" id="circle201"/>
	<circle cx="564.947" cy="124.272" r="4" fill="#0" id="circle202"/>
	<circle cx="566.871" cy="331.139" r="4" fill="#0" id="circle203"/>
	<circle cx="571.682" cy="173.342" r="4" fill="#0" id="circle204"/>
	<circle cx="571.682" cy="755.457" r="4" fill="#0" id="circle205"/>
	<circle cx="574.568" cy="124.272" r="4" fill="#0" id="circle206"/>
	<circle cx="576.493" cy="331.139" r="4" fill="#0" id="circle207"/>
	<circle cx="581.304" cy="170.456" r="4" fill="#0" id="circle208"/>
	<circle cx="581.304" cy="755.457" r="4" fill="#0" id="circle209"/>
	<circle cx="584.19" cy="124.272" r="4" fill="#0" id="circle210"/>
	<circle cx="586.114" cy="331.139" r="4" fill="#0" id="circle211"/>
	<circle cx="590.925" cy="168.532" r="4" fill="#0" id="circle212"/>
	<circle cx="590.925" cy="755.457" r="4" fill="#0" id="circle213"/>
	<circle cx="593.812" cy="124.272" r="4" fill="#0" id="circle214"/>
	<circle cx="595.736" cy="331.139" r="4" fill="#0" id="circle215"/>
	<circle cx="600.547" cy="165.645" r="4" fill="#0" id="circle216"/>
	<circle cx="600.547" cy="755.457" r="4" fill="#0" id="circle217"/>
	<circle cx="603.434" cy="124.272" r="4" fill="#0" id="circle218"/>
	<circle cx="604.396" cy="335.95" r="4" fill="#0" id="circle219"/>
	<circle cx="610.169" cy="163.721" r="4" fill="#0" id="circle220"/>
	<circle cx="610.169" cy="755.457" r="4" fill="#0" id="circle221"/>
	<circle cx="613.055" cy="124.272" r="4" fill="#0" id="circle222"/>
	<circle cx="614.017" cy="335.95" r="4" fill="#0" id="circle223"/>
	<circle cx="619.79" cy="163.721" r="4" fill="#0" id="circle224"/>
	<circle cx="619.79" cy="755.457" r="4" fill="#0" id="circle225"/>
	<circle cx="622.677" cy="124.272" r="4" fill="#0" id="circle226"/>
	<circle cx="623.639" cy="336.912" r="4" fill="#0" id="circle227"/>
	<circle cx="628.45" cy="158.91" r="4" fill="#0" id="circle228"/>
	<circle cx="629.412" cy="755.457" r="4" fill="#0" id="circle229"/>
	<circle cx="632.299" cy="124.272" r="4" fill="#0" id="circle230"/>
	<circle cx="633.261" cy="340.76" r="4" fill="#0" id="circle231"/>
	<circle cx="637.11" cy="153.137" r="4" fill="#0" id="circle232"/>
	<circle cx="639.034" cy="755.457" r="4" fill="#0" id="circle233"/>
	<circle cx="640.958" cy="129.082" r="4" fill="#0" id="circle234"/>
	<circle cx="642.883" cy="340.76" r="4" fill="#0" id="circle235"/>
	<circle cx="644.807" cy="139.666" r="4" fill="#0" id="circle236"/>
	<circle cx="648.656" cy="755.457" r="4" fill="#0" id="circle237"/>
	<circle cx="652.504" cy="340.76" r="4" fill="#0" id="circle238"/>
	<circle cx="658.277" cy="755.457" r="4" fill="#0" id="circle239"/>
	<circle cx="661.164" cy="345.571" r="4" fill="#0" id="circle240"/>
	<circle cx="667.899" cy="755.457" r="4" fill="#0" id="circle241"/>
	<circle cx="670.786" cy="345.571" r="4" fill="#0" id="circle242"/>
	<circle cx="677.521" cy="755.457" r="4" fill="#0" id="circle243"/>
	<circle cx="680.407" cy="345.571" r="4" fill="#0" id="circle244"/>
	<circle cx="687.143" cy="755.457" r="4" fill="#0" id="circle245"/>
	<circle cx="689.067" cy="350.382" r="4" fill="#0" id="circle246"/>
	<circle cx="696.764" cy="755.457" r="4" fill="#0" id="circle247"/>
	<circle cx="698.689" cy="350.382" r="4" fill="#0" id="circle248"/>
	<circle cx="706.386" cy="755.457" r="4" fill="#0" id="circle249"/>
	<circle cx="708.31" cy="350.382" r="4" fill="#0" id="circle250"/>
	<circle cx="715.046" cy="750.646" r="4" fill="#0" id="circle251"/>
	<circle cx="716.97" cy="355.193" r="4" fill="#0" id="circle252"/>
	<circle cx="724.667" cy="750.646" r="4" fill="#0" id="circle253"/>
	<circle cx="726.592" cy="355.193" r="4" fill="#0" id="circle254"/>
	<circle cx="734.289" cy="748.722" r="4" fill="#0" id="circle255"/>
	<circle cx="736.213" cy="355.193" r="4" fill="#0" id="circle256"/>
	<circle cx="743.911" cy="745.835" r="4" fill="#0" id="circle257"/>
	<circle cx="744.873" cy="360.004" r="4" fill="#0" id="circle258"/>
	<circle cx="752.57" cy="741.024" r="4" fill="#0" id="circle259"/>
	<circle cx="754.495" cy="360.004" r="4" fill="#0" id="circle260"/>
	<circle cx="762.192" cy="741.024" r="4" fill="#0" id="circle261"/>
	<circle cx="764.116" cy="361.928" r="4" fill="#0" id="circle262"/>
	<circle cx="770.852" cy="736.213" r="4" fill="#0" id="circle263"/>
	<circle cx="773.738" cy="364.815" r="4" fill="#0" id="circle264"/>
	<circle cx="780.473" cy="736.213" r="4" fill="#0" id="circle265"/>
	<circle cx="783.36" cy="364.815" r="4" fill="#0" id="circle266"/>
	<circle cx="790.095" cy="736.213" r="4" fill="#0" id="circle267"/>
	<circle cx="792.019" cy="369.626" r="4" fill="#0" id="circle268"/>
	<circle cx="798.755" cy="731.403" r="4" fill="#0" id="circle269"/>
	<circle cx="801.641" cy="370.588" r="4" fill="#0" id="circle270"/>
	<circle cx="808.376" cy="378.285" r="4" fill="#0" id="circle271"/>
	<circle cx="808.376" cy="731.403" r="4" fill="#0" id="circle272"/>
	<circle cx="813.187" cy="386.945" r="4" fill="#0" id="circle273"/>
	<circle cx="813.187" cy="396.566" r="4" fill="#0" id="circle274"/>
	<circle cx="813.187" cy="406.188" r="4" fill="#0" id="circle275"/>
	<circle cx="813.187" cy="415.81" r="4" fill="#0" id="circle276"/>
	<circle cx="813.187" cy="425.432" r="4" fill="#0" id="circle277"/>
	<circle cx="817.036" cy="726.592" r="4" fill="#0" id="circle278"/>
	<circle cx="821.847" cy="430.242" r="4" fill="#0" id="circle279"/>
	<circle cx="825.695" cy="721.781" r="4" fill="#0" id="circle280"/>
	<circle cx="831.468" cy="434.091" r="4" fill="#0" id="circle281"/>
	<circle cx="835.317" cy="719.856" r="4" fill="#0" id="circle282"/>
	<circle cx="841.09" cy="436.978" r="4" fill="#0" id="circle283"/>
	<circle cx="844.939" cy="715.046" r="4" fill="#0" id="circle284"/>
	<circle cx="849.75" cy="441.789" r="4" fill="#0" id="circle285"/>
	<circle cx="854.561" cy="710.235" r="4" fill="#0" id="circle286"/>
	<circle cx="858.409" cy="446.599" r="4" fill="#0" id="circle287"/>
	<circle cx="864.182" cy="705.424" r="4" fill="#0" id="circle288"/>
	<circle cx="867.069" cy="451.41" r="4" fill="#0" id="circle289"/>
	<circle cx="873.804" cy="700.613" r="4" fill="#0" id="circle290"/>
	<circle cx="875.728" cy="456.221" r="4" fill="#0" id="circle291"/>
	<circle cx="883.426" cy="695.802" r="4" fill="#0" id="circle292"/>
	<circle cx="884.388" cy="461.032" r="4" fill="#0" id="circle293"/>
	<circle cx="890.161" cy="688.105" r="4" fill="#0" id="circle294"/>
	<circle cx="893.048" cy="465.843" r="4" fill="#0" id="circle295"/>
	<circle cx="899.783" cy="683.294" r="4" fill="#0" id="circle296"/>
	<circle cx="901.707" cy="470.654" r="4" fill="#0" id="circle297"/>
	<circle cx="909.404" cy="678.483" r="4" fill="#0" id="circle298"/>
	<circle cx="910.367" cy="475.465" r="4" fill="#0" id="circle299"/>
	<circle cx="917.102" cy="671.748" r="4" fill="#0" id="circle300"/>
	<circle cx="918.064" cy="482.2" r="4" fill="#0" id="circle301"/>
	<circle cx="923.837" cy="664.05" r="4" fill="#0" id="circle302"/>
	<circle cx="926.724" cy="487.011" r="4" fill="#0" id="circle303"/>
	<circle cx="931.534" cy="657.315" r="4" fill="#0" id="circle304"/>
	<circle cx="933.459" cy="494.708" r="4" fill="#0" id="circle305"/>
	<circle cx="938.27" cy="649.618" r="4" fill="#0" id="circle306"/>
	<circle cx="943.081" cy="497.595" r="4" fill="#0" id="circle307"/>
	<circle cx="947.891" cy="639.996" r="4" fill="#0" id="circle308"/>
	<circle cx="952.702" cy="499.519" r="4" fill="#0" id="circle309"/>
	<circle cx="955.589" cy="633.261" r="4" fill="#0" id="circle310"/>
	<circle cx="961.362" cy="504.33" r="4" fill="#0" id="circle311"/>
	<circle cx="962.324" cy="620.753" r="4" fill="#0" id="circle312"/>
	<circle cx="967.135" cy="611.131" r="4" fill="#0" id="circle313"/>
	<circle cx="970.021" cy="509.141" r="4" fill="#0" id="circle314"/>
	<circle cx="971.946" cy="601.509" r="4" fill="#0" id="circle315"/>
	<circle cx="979.643" cy="510.103" r="4" fill="#0" id="circle316"/>
	<circle cx="979.643" cy="594.774" r="4" fill="#0" id="circle317"/>
	<circle cx="984.454" cy="585.152" r="4" fill="#0" id="circle318"/>
	<circle cx="986.378" cy="572.644" r="4" fill="#0" id="circle319"/>
	<circle cx="988.303" cy="514.914" r="4" fill="#0" id="circle320"/>
	<circle cx="991.189" cy="563.022" r="4" fill="#0" id="circle321"/>
	<circle cx="993.113" cy="523.573" r="4" fill="#0" id="circle322"/>
	<circle cx="996" cy="533.195" r="4" fill="#0" id="circle323"/>
	<circle cx="996" cy="542.817" r="4" fill="#0" id="circle324"/>
	<circle cx="996" cy="552.438" r="4" fill="#0" id="circle325"/>
	</g>
</svg>