<?xml version="1.0" encoding="UTF-8" standalone="no"?>
<!-- Created with CurveBenchmark -->
<svg
	xmlns:dc="http://purl.org/dc/elements/1.1/"
	xmlns:cc="http://creativecommons.org/ns#"
	xmlns:rdf="http://www.w3.org/1999/02/22-rdf-syntax-ns#"
	xmlns:svg="http://www.w3.org/2000/svg"
	xmlns="http://www.w3.org/2000/svg"
	xmlns:sodipodi="http://sodipodi.sourceforge.net/DTD/sodipodi-0.dtd"
	xmlns:inkscape="http://www.inkscape.org/namespaces/inkscape"
	width="1000"
	height="1000"
	id="svg2"
	version="1.1"
	sodipodi:docname="manifold/gathang-sink300.png.txt">
<defs
	id="defs4" />
<metadata
	id="metadata7">
	<rdf:RDF>
		<cc:Work
			rdf:about="">
			<dc:format>image/svg+xml</dc:format>
			<dc:type
				rdf:resource="http://purl.org/dc/dcmitype/StillImage" />
			<dc:title></dc:title>
		</cc:Work>
	</rdf:RDF>
</metadata>
<g
	inkscape:label="Layer 1"
	inkscape:groupmode="layer"
	id="layer1">
	<path style="fill:none;stroke:red;stroke-width:1px;stroke-linecap:butt;stroke-linejoin:miter;stroke-opacity:1" d="M 13.9698,193.427 13.9698,143.578 z" id="boundary" inkscape:connector-curvature="0" />
	<path style="fill:none;stroke:red;stroke-width:1px;stroke-linecap:butt;stroke-linejoin:miter;stroke-opacity:1" d="M 13.9698,143.578 63.8191,143.578 z" id="boundary" inkscape:connector-curvature="0" />
	<path style="fill:none;stroke:red;stroke-width:1px;stroke-linecap:butt;stroke-linejoin:miter;stroke-opacity:1" d="M 113.668,148.563 63.8191,143.578 z" id="boundary" inkscape:connector-curvature="0" />
	<path style="fill:none;stroke:red;stroke-width:1px;stroke-linecap:butt;stroke-linejoin:miter;stroke-opacity:1" d="M 4,273.186 13.9698,193.427 z" id="boundary" inkscape:connector-curvature="0" />
	<path style="fill:none;stroke:red;stroke-width:1px;stroke-linecap:butt;stroke-linejoin:miter;stroke-opacity:1" d="M 48.8643,298.111 4,273.186 z" id="boundary" inkscape:connector-curvature="0" />
	<path style="fill:none;stroke:red;stroke-width:1px;stroke-linecap:butt;stroke-linejoin:miter;stroke-opacity:1" d="M 48.8643,298.111 98.7136,298.111 z" id="boundary" inkscape:connector-curvature="0" />
	<path style="fill:none;stroke:red;stroke-width:1px;stroke-linecap:butt;stroke-linejoin:miter;stroke-opacity:1" d="M 98.7136,298.111 123.638,342.975 z" id="boundary" inkscape:connector-curvature="0" />
	<path style="fill:none;stroke:red;stroke-width:1px;stroke-linecap:butt;stroke-linejoin:miter;stroke-opacity:1" d="M 113.668,148.563 163.518,143.578 z" id="boundary" inkscape:connector-curvature="0" />
	<path style="fill:none;stroke:red;stroke-width:1px;stroke-linecap:butt;stroke-linejoin:miter;stroke-opacity:1" d="M 213.367,143.578 163.518,143.578 z" id="boundary" inkscape:connector-curvature="0" />
	<path style="fill:none;stroke:red;stroke-width:1px;stroke-linecap:butt;stroke-linejoin:miter;stroke-opacity:1" d="M 263.216,143.578 213.367,143.578 z" id="boundary" inkscape:connector-curvature="0" />
	<path style="fill:none;stroke:red;stroke-width:1px;stroke-linecap:butt;stroke-linejoin:miter;stroke-opacity:1" d="M 123.638,342.975 158.533,382.854 z" id="boundary" inkscape:connector-curvature="0" />
	<path style="fill:none;stroke:red;stroke-width:1px;stroke-linecap:butt;stroke-linejoin:miter;stroke-opacity:1" d="M 203.397,407.779 158.533,382.854 z" id="boundary" inkscape:connector-curvature="0" />
	<path style="fill:none;stroke:red;stroke-width:1px;stroke-linecap:butt;stroke-linejoin:miter;stroke-opacity:1" d="M 313.065,143.578 263.216,143.578 z" id="boundary" inkscape:connector-curvature="0" />
	<path style="fill:none;stroke:red;stroke-width:1px;stroke-linecap:butt;stroke-linejoin:miter;stroke-opacity:1" d="M 313.065,143.578 367.899,143.578 z" id="boundary" inkscape:connector-curvature="0" />
	<path style="fill:none;stroke:red;stroke-width:1px;stroke-linecap:butt;stroke-linejoin:miter;stroke-opacity:1" d="M 203.397,407.779 253.246,427.719 z" id="boundary" inkscape:connector-curvature="0" />
	<path style="fill:none;stroke:red;stroke-width:1px;stroke-linecap:butt;stroke-linejoin:miter;stroke-opacity:1" d="M 253.246,427.719 263.216,477.568 z" id="boundary" inkscape:connector-curvature="0" />
	<path style="fill:none;stroke:red;stroke-width:1px;stroke-linecap:butt;stroke-linejoin:miter;stroke-opacity:1" d="M 263.216,477.568 263.216,527.417 z" id="boundary" inkscape:connector-curvature="0" />
	<path style="fill:none;stroke:red;stroke-width:1px;stroke-linecap:butt;stroke-linejoin:miter;stroke-opacity:1" d="M 213.367,941.166 213.367,991.015 z" id="boundary" inkscape:connector-curvature="0" />
	<path style="fill:none;stroke:red;stroke-width:1px;stroke-linecap:butt;stroke-linejoin:miter;stroke-opacity:1" d="M 263.216,996 213.367,991.015 z" id="boundary" inkscape:connector-curvature="0" />
	<path style="fill:none;stroke:red;stroke-width:1px;stroke-linecap:butt;stroke-linejoin:miter;stroke-opacity:1" d="M 263.216,527.417 263.216,577.266 z" id="boundary" inkscape:connector-curvature="0" />
	<path style="fill:none;stroke:red;stroke-width:1px;stroke-linecap:butt;stroke-linejoin:miter;stroke-opacity:1" d="M 243.276,891.317 213.367,941.166 z" id="boundary" inkscape:connector-curvature="0" />
	<path style="fill:none;stroke:red;stroke-width:1px;stroke-linecap:butt;stroke-linejoin:miter;stroke-opacity:1" d="M 263.216,676.965 263.216,726.814 z" id="boundary" inkscape:connector-curvature="0" />
	<path style="fill:none;stroke:red;stroke-width:1px;stroke-linecap:butt;stroke-linejoin:miter;stroke-opacity:1" d="M 263.216,577.266 263.216,627.116 z" id="boundary" inkscape:connector-curvature="0" />
	<path style="fill:none;stroke:red;stroke-width:1px;stroke-linecap:butt;stroke-linejoin:miter;stroke-opacity:1" d="M 263.216,676.965 263.216,627.116 z" id="boundary" inkscape:connector-curvature="0" />
	<path style="fill:none;stroke:red;stroke-width:1px;stroke-linecap:butt;stroke-linejoin:miter;stroke-opacity:1" d="M 263.216,776.663 263.216,726.814 z" id="boundary" inkscape:connector-curvature="0" />
	<path style="fill:none;stroke:red;stroke-width:1px;stroke-linecap:butt;stroke-linejoin:miter;stroke-opacity:1" d="M 263.216,776.663 263.216,826.513 z" id="boundary" inkscape:connector-curvature="0" />
	<path style="fill:none;stroke:red;stroke-width:1px;stroke-linecap:butt;stroke-linejoin:miter;stroke-opacity:1" d="M 263.216,826.513 243.276,891.317 z" id="boundary" inkscape:connector-curvature="0" />
	<path style="fill:none;stroke:red;stroke-width:1px;stroke-linecap:butt;stroke-linejoin:miter;stroke-opacity:1" d="M 313.065,996 263.216,996 z" id="boundary" inkscape:connector-curvature="0" />
	<path style="fill:none;stroke:red;stroke-width:1px;stroke-linecap:butt;stroke-linejoin:miter;stroke-opacity:1" d="M 362.915,996 313.065,996 z" id="boundary" inkscape:connector-curvature="0" />
	<path style="fill:none;stroke:red;stroke-width:1px;stroke-linecap:butt;stroke-linejoin:miter;stroke-opacity:1" d="M 417.749,143.578 367.899,143.578 z" id="boundary" inkscape:connector-curvature="0" />
	<path style="fill:none;stroke:red;stroke-width:1px;stroke-linecap:butt;stroke-linejoin:miter;stroke-opacity:1" d="M 467.598,143.578 417.749,143.578 z" id="boundary" inkscape:connector-curvature="0" />
	<path style="fill:none;stroke:red;stroke-width:1px;stroke-linecap:butt;stroke-linejoin:miter;stroke-opacity:1" d="M 577.266,352.945 537.387,387.839 z" id="boundary" inkscape:connector-curvature="0" />
	<path style="fill:none;stroke:red;stroke-width:1px;stroke-linecap:butt;stroke-linejoin:miter;stroke-opacity:1" d="M 517.447,143.578 567.296,143.578 z" id="boundary" inkscape:connector-curvature="0" />
	<path style="fill:none;stroke:red;stroke-width:1px;stroke-linecap:butt;stroke-linejoin:miter;stroke-opacity:1" d="M 467.598,143.578 517.447,143.578 z" id="boundary" inkscape:connector-curvature="0" />
	<path style="fill:none;stroke:red;stroke-width:1px;stroke-linecap:butt;stroke-linejoin:miter;stroke-opacity:1" d="M 537.387,387.839 497.508,417.749 z" id="boundary" inkscape:connector-curvature="0" />
	<path style="fill:none;stroke:red;stroke-width:1px;stroke-linecap:butt;stroke-linejoin:miter;stroke-opacity:1" d="M 617.146,143.578 666.995,143.578 z" id="boundary" inkscape:connector-curvature="0" />
	<path style="fill:none;stroke:red;stroke-width:1px;stroke-linecap:butt;stroke-linejoin:miter;stroke-opacity:1" d="M 666.995,143.578 696.905,183.457 z" id="boundary" inkscape:connector-curvature="0" />
	<path style="fill:none;stroke:red;stroke-width:1px;stroke-linecap:butt;stroke-linejoin:miter;stroke-opacity:1" d="M 617.146,143.578 567.296,143.578 z" id="boundary" inkscape:connector-curvature="0" />
	<path style="fill:none;stroke:red;stroke-width:1px;stroke-linecap:butt;stroke-linejoin:miter;stroke-opacity:1" d="M 696.905,183.457 696.905,233.307 z" id="boundary" inkscape:connector-curvature="0" />
	<path style="fill:none;stroke:red;stroke-width:1px;stroke-linecap:butt;stroke-linejoin:miter;stroke-opacity:1" d="M 706.874,283.156 696.905,233.307 z" id="boundary" inkscape:connector-curvature="0" />
	<path style="fill:none;stroke:red;stroke-width:1px;stroke-linecap:butt;stroke-linejoin:miter;stroke-opacity:1" d="M 577.266,352.945 607.176,303.095 z" id="boundary" inkscape:connector-curvature="0" />
	<path style="fill:none;stroke:red;stroke-width:1px;stroke-linecap:butt;stroke-linejoin:miter;stroke-opacity:1" d="M 607.176,303.095 657.025,298.111 z" id="boundary" inkscape:connector-curvature="0" />
	<path style="fill:none;stroke:red;stroke-width:1px;stroke-linecap:butt;stroke-linejoin:miter;stroke-opacity:1" d="M 657.025,298.111 706.874,283.156 z" id="boundary" inkscape:connector-curvature="0" />
	<path style="fill:none;stroke:red;stroke-width:1px;stroke-linecap:butt;stroke-linejoin:miter;stroke-opacity:1" d="M 447.658,482.553 447.658,532.402 z" id="boundary" inkscape:connector-curvature="0" />
	<path style="fill:none;stroke:red;stroke-width:1px;stroke-linecap:butt;stroke-linejoin:miter;stroke-opacity:1" d="M 447.658,482.553 447.658,432.704 z" id="boundary" inkscape:connector-curvature="0" />
	<path style="fill:none;stroke:red;stroke-width:1px;stroke-linecap:butt;stroke-linejoin:miter;stroke-opacity:1" d="M 447.658,432.704 497.508,417.749 z" id="boundary" inkscape:connector-curvature="0" />
	<path style="fill:none;stroke:red;stroke-width:1px;stroke-linecap:butt;stroke-linejoin:miter;stroke-opacity:1" d="M 447.658,582.251 447.658,632.101 z" id="boundary" inkscape:connector-curvature="0" />
	<path style="fill:none;stroke:red;stroke-width:1px;stroke-linecap:butt;stroke-linejoin:miter;stroke-opacity:1" d="M 447.658,532.402 447.658,582.251 z" id="boundary" inkscape:connector-curvature="0" />
	<path style="fill:none;stroke:red;stroke-width:1px;stroke-linecap:butt;stroke-linejoin:miter;stroke-opacity:1" d="M 412.764,996 362.915,996 z" id="boundary" inkscape:connector-curvature="0" />
	<path style="fill:none;stroke:red;stroke-width:1px;stroke-linecap:butt;stroke-linejoin:miter;stroke-opacity:1" d="M 447.658,681.95 447.658,731.799 z" id="boundary" inkscape:connector-curvature="0" />
	<path style="fill:none;stroke:red;stroke-width:1px;stroke-linecap:butt;stroke-linejoin:miter;stroke-opacity:1" d="M 447.658,632.101 447.658,681.95 z" id="boundary" inkscape:connector-curvature="0" />
	<path style="fill:none;stroke:red;stroke-width:1px;stroke-linecap:butt;stroke-linejoin:miter;stroke-opacity:1" d="M 447.658,731.799 447.658,781.648 z" id="boundary" inkscape:connector-curvature="0" />
	<path style="fill:none;stroke:red;stroke-width:1px;stroke-linecap:butt;stroke-linejoin:miter;stroke-opacity:1" d="M 447.658,781.648 447.658,831.497 z" id="boundary" inkscape:connector-curvature="0" />
	<path style="fill:none;stroke:red;stroke-width:1px;stroke-linecap:butt;stroke-linejoin:miter;stroke-opacity:1" d="M 447.658,831.497 457.628,881.347 z" id="boundary" inkscape:connector-curvature="0" />
	<path style="fill:none;stroke:red;stroke-width:1px;stroke-linecap:butt;stroke-linejoin:miter;stroke-opacity:1" d="M 457.628,881.347 482.553,926.211 z" id="boundary" inkscape:connector-curvature="0" />
	<path style="fill:none;stroke:red;stroke-width:1px;stroke-linecap:butt;stroke-linejoin:miter;stroke-opacity:1" d="M 462.613,996 412.764,996 z" id="boundary" inkscape:connector-curvature="0" />
	<path style="fill:none;stroke:red;stroke-width:1px;stroke-linecap:butt;stroke-linejoin:miter;stroke-opacity:1" d="M 482.553,926.211 507.477,971.075 z" id="boundary" inkscape:connector-curvature="0" />
	<path style="fill:none;stroke:red;stroke-width:1px;stroke-linecap:butt;stroke-linejoin:miter;stroke-opacity:1" d="M 507.477,971.075 462.613,996 z" id="boundary" inkscape:connector-curvature="0" />
	<circle cx="4" cy="273.186" r="4" fill="#0" id="circle0"/>
	<circle cx="13.9698" cy="143.578" r="4" fill="#0" id="circle1"/>
	<circle cx="13.9698" cy="193.427" r="4" fill="#0" id="circle2"/>
	<circle cx="48.8643" cy="298.111" r="4" fill="#0" id="circle3"/>
	<circle cx="63.8191" cy="143.578" r="4" fill="#0" id="circle4"/>
	<circle cx="98.7136" cy="298.111" r="4" fill="#0" id="circle5"/>
	<circle cx="113.668" cy="148.563" r="4" fill="#0" id="circle6"/>
	<circle cx="123.638" cy="342.975" r="4" fill="#0" id="circle7"/>
	<circle cx="158.533" cy="382.854" r="4" fill="#0" id="circle8"/>
	<circle cx="163.518" cy="143.578" r="4" fill="#0" id="circle9"/>
	<circle cx="203.397" cy="407.779" r="4" fill="#0" id="circle10"/>
	<circle cx="213.367" cy="143.578" r="4" fill="#0" id="circle11"/>
	<circle cx="213.367" cy="941.166" r="4" fill="#0" id="circle12"/>
	<circle cx="213.367" cy="991.015" r="4" fill="#0" id="circle13"/>
	<circle cx="243.276" cy="891.317" r="4" fill="#0" id="circle14"/>
	<circle cx="253.246" cy="427.719" r="4" fill="#0" id="circle15"/>
	<circle cx="263.216" cy="143.578" r="4" fill="#0" id="circle16"/>
	<circle cx="263.216" cy="477.568" r="4" fill="#0" id="circle17"/>
	<circle cx="263.216" cy="527.417" r="4" fill="#0" id="circle18"/>
	<circle cx="263.216" cy="577.266" r="4" fill="#0" id="circle19"/>
	<circle cx="263.216" cy="627.116" r="4" fill="#0" id="circle20"/>
	<circle cx="263.216" cy="676.965" r="4" fill="#0" id="circle21"/>
	<circle cx="263.216" cy="726.814" r="4" fill="#0" id="circle22"/>
	<circle cx="263.216" cy="776.663" r="4" fill="#0" id="circle23"/>
	<circle cx="263.216" cy="826.513" r="4" fill="#0" id="circle24"/>
	<circle cx="263.216" cy="996" r="4" fill="#0" id="circle25"/>
	<circle cx="313.065" cy="143.578" r="4" fill="#0" id="circle26"/>
	<circle cx="313.065" cy="996" r="4" fill="#0" id="circle27"/>
	<circle cx="333.005" cy="4" r="4" fill="#0" id="circle28"/>
	<circle cx="333.005" cy="53.8492" r="4" fill="#0" id="circle29"/>
	<circle cx="362.915" cy="996" r="4" fill="#0" id="circle30"/>
	<circle cx="367.899" cy="93.7286" r="4" fill="#0" id="circle31"/>
	<circle cx="367.899" cy="143.578" r="4" fill="#0" id="circle32"/>
	<circle cx="412.764" cy="996" r="4" fill="#0" id="circle33"/>
	<circle cx="417.749" cy="143.578" r="4" fill="#0" id="circle34"/>
	<circle cx="447.658" cy="432.704" r="4" fill="#0" id="circle35"/>
	<circle cx="447.658" cy="482.553" r="4" fill="#0" id="circle36"/>
	<circle cx="447.658" cy="532.402" r="4" fill="#0" id="circle37"/>
	<circle cx="447.658" cy="582.251" r="4" fill="#0" id="circle38"/>
	<circle cx="447.658" cy="632.101" r="4" fill="#0" id="circle39"/>
	<circle cx="447.658" cy="681.95" r="4" fill="#0" id="circle40"/>
	<circle cx="447.658" cy="731.799" r="4" fill="#0" id="circle41"/>
	<circle cx="447.658" cy="781.648" r="4" fill="#0" id="circle42"/>
	<circle cx="447.658" cy="831.497" r="4" fill="#0" id="circle43"/>
	<circle cx="457.628" cy="881.347" r="4" fill="#0" id="circle44"/>
	<circle cx="462.613" cy="996" r="4" fill="#0" id="circle45"/>
	<circle cx="467.598" cy="143.578" r="4" fill="#0" id="circle46"/>
	<circle cx="482.553" cy="926.211" r="4" fill="#0" id="circle47"/>
	<circle cx="497.508" cy="417.749" r="4" fill="#0" id="circle48"/>
	<circle cx="507.477" cy="971.075" r="4" fill="#0" id="circle49"/>
	<circle cx="517.447" cy="143.578" r="4" fill="#0" id="circle50"/>
	<circle cx="537.387" cy="387.839" r="4" fill="#0" id="circle51"/>
	<circle cx="567.296" cy="143.578" r="4" fill="#0" id="circle52"/>
	<circle cx="577.266" cy="352.945" r="4" fill="#0" id="circle53"/>
	<circle cx="607.176" cy="303.095" r="4" fill="#0" id="circle54"/>
	<circle cx="617.146" cy="143.578" r="4" fill="#0" id="circle55"/>
	<circle cx="657.025" cy="298.111" r="4" fill="#0" id="circle56"/>
	<circle cx="666.995" cy="143.578" r="4" fill="#0" id="circle57"/>
	<circle cx="696.905" cy="183.457" r="4" fill="#0" id="circle58"/>
	<circle cx="696.905" cy="233.307" r="4" fill="#0" id="circle59"/>
	<circle cx="706.874" cy="283.156" r="4" fill="#0" id="circle60"/>
	</g>
</svg>