<?xml version="1.0" encoding="UTF-8" standalone="no"?>
<!-- Created with CurveBenchmark -->
<svg
	xmlns:dc="http://purl.org/dc/elements/1.1/"
	xmlns:cc="http://creativecommons.org/ns#"
	xmlns:rdf="http://www.w3.org/1999/02/22-rdf-syntax-ns#"
	xmlns:svg="http://www.w3.org/2000/svg"
	xmlns="http://www.w3.org/2000/svg"
	xmlns:sodipodi="http://sodipodi.sourceforge.net/DTD/sodipodi-0.dtd"
	xmlns:inkscape="http://www.inkscape.org/namespaces/inkscape"
	width="1000"
	height="1000"
	id="svg2"
	version="1.1"
	sodipodi:docname="manifold/gathan1-lmfish-6.png.txt">
<defs
	id="defs4" />
<metadata
	id="metadata7">
	<rdf:RDF>
		<cc:Work
			rdf:about="">
			<dc:format>image/svg+xml</dc:format>
			<dc:type
				rdf:resource="http://purl.org/dc/dcmitype/StillImage" />
			<dc:title></dc:title>
		</cc:Work>
	</rdf:RDF>
</metadata>
<g
	inkscape:label="Layer 1"
	inkscape:groupmode="layer"
	id="layer1">
	<path style="fill:none;stroke:red;stroke-width:1px;stroke-linecap:butt;stroke-linejoin:miter;stroke-opacity:1" d="M 188.152,145.138 194.873,145.138 z" id="boundary" inkscape:connector-curvature="0" />
	<path style="fill:none;stroke:red;stroke-width:1px;stroke-linecap:butt;stroke-linejoin:miter;stroke-opacity:1" d="M 182.103,148.499 188.152,145.138 z" id="boundary" inkscape:connector-curvature="0" />
	<path style="fill:none;stroke:red;stroke-width:1px;stroke-linecap:butt;stroke-linejoin:miter;stroke-opacity:1" d="M 200.921,141.778 194.873,145.138 z" id="boundary" inkscape:connector-curvature="0" />
	<path style="fill:none;stroke:red;stroke-width:1px;stroke-linecap:butt;stroke-linejoin:miter;stroke-opacity:1" d="M 200.921,141.778 207.642,138.417 z" id="boundary" inkscape:connector-curvature="0" />
	<path style="fill:none;stroke:red;stroke-width:1px;stroke-linecap:butt;stroke-linejoin:miter;stroke-opacity:1" d="M 207.642,138.417 214.363,138.417 z" id="boundary" inkscape:connector-curvature="0" />
	<path style="fill:none;stroke:red;stroke-width:1px;stroke-linecap:butt;stroke-linejoin:miter;stroke-opacity:1" d="M 214.363,138.417 221.084,138.417 z" id="boundary" inkscape:connector-curvature="0" />
	<path style="fill:none;stroke:red;stroke-width:1px;stroke-linecap:butt;stroke-linejoin:miter;stroke-opacity:1" d="M 148.499,153.875 155.22,151.859 z" id="boundary" inkscape:connector-curvature="0" />
	<path style="fill:none;stroke:red;stroke-width:1px;stroke-linecap:butt;stroke-linejoin:miter;stroke-opacity:1" d="M 155.22,151.859 161.94,151.859 z" id="boundary" inkscape:connector-curvature="0" />
	<path style="fill:none;stroke:red;stroke-width:1px;stroke-linecap:butt;stroke-linejoin:miter;stroke-opacity:1" d="M 148.499,153.875 141.778,155.22 z" id="boundary" inkscape:connector-curvature="0" />
	<path style="fill:none;stroke:red;stroke-width:1px;stroke-linecap:butt;stroke-linejoin:miter;stroke-opacity:1" d="M 168.661,150.515 161.94,151.859 z" id="boundary" inkscape:connector-curvature="0" />
	<path style="fill:none;stroke:red;stroke-width:1px;stroke-linecap:butt;stroke-linejoin:miter;stroke-opacity:1" d="M 168.661,150.515 175.382,148.499 z" id="boundary" inkscape:connector-curvature="0" />
	<path style="fill:none;stroke:red;stroke-width:1px;stroke-linecap:butt;stroke-linejoin:miter;stroke-opacity:1" d="M 175.382,148.499 182.103,148.499 z" id="boundary" inkscape:connector-curvature="0" />
	<path style="fill:none;stroke:red;stroke-width:1px;stroke-linecap:butt;stroke-linejoin:miter;stroke-opacity:1" d="M 260.737,131.696 254.016,131.696 z" id="boundary" inkscape:connector-curvature="0" />
	<path style="fill:none;stroke:red;stroke-width:1px;stroke-linecap:butt;stroke-linejoin:miter;stroke-opacity:1" d="M 267.458,129.008 260.737,131.696 z" id="boundary" inkscape:connector-curvature="0" />
	<path style="fill:none;stroke:red;stroke-width:1px;stroke-linecap:butt;stroke-linejoin:miter;stroke-opacity:1" d="M 274.179,128.336 267.458,129.008 z" id="boundary" inkscape:connector-curvature="0" />
	<path style="fill:none;stroke:red;stroke-width:1px;stroke-linecap:butt;stroke-linejoin:miter;stroke-opacity:1" d="M 286.276,120.271 280.9,125.648 z" id="boundary" inkscape:connector-curvature="0" />
	<path style="fill:none;stroke:red;stroke-width:1px;stroke-linecap:butt;stroke-linejoin:miter;stroke-opacity:1" d="M 280.9,125.648 274.179,128.336 z" id="boundary" inkscape:connector-curvature="0" />
	<path style="fill:none;stroke:red;stroke-width:1px;stroke-linecap:butt;stroke-linejoin:miter;stroke-opacity:1" d="M 289.637,113.55 286.276,120.271 z" id="boundary" inkscape:connector-curvature="0" />
	<path style="fill:none;stroke:red;stroke-width:1px;stroke-linecap:butt;stroke-linejoin:miter;stroke-opacity:1" d="M 221.084,138.417 227.133,135.057 z" id="boundary" inkscape:connector-curvature="0" />
	<path style="fill:none;stroke:red;stroke-width:1px;stroke-linecap:butt;stroke-linejoin:miter;stroke-opacity:1" d="M 227.133,135.057 233.854,135.057 z" id="boundary" inkscape:connector-curvature="0" />
	<path style="fill:none;stroke:red;stroke-width:1px;stroke-linecap:butt;stroke-linejoin:miter;stroke-opacity:1" d="M 233.854,135.057 240.575,135.057 z" id="boundary" inkscape:connector-curvature="0" />
	<path style="fill:none;stroke:red;stroke-width:1px;stroke-linecap:butt;stroke-linejoin:miter;stroke-opacity:1" d="M 247.295,132.369 254.016,131.696 z" id="boundary" inkscape:connector-curvature="0" />
	<path style="fill:none;stroke:red;stroke-width:1px;stroke-linecap:butt;stroke-linejoin:miter;stroke-opacity:1" d="M 240.575,135.057 247.295,132.369 z" id="boundary" inkscape:connector-curvature="0" />
	<path style="fill:none;stroke:red;stroke-width:1px;stroke-linecap:butt;stroke-linejoin:miter;stroke-opacity:1" d="M 43.6531,182.103 50.374,182.103 z" id="boundary" inkscape:connector-curvature="0" />
	<path style="fill:none;stroke:red;stroke-width:1px;stroke-linecap:butt;stroke-linejoin:miter;stroke-opacity:1" d="M 38.2764,186.808 43.6531,182.103 z" id="boundary" inkscape:connector-curvature="0" />
	<path style="fill:none;stroke:red;stroke-width:1px;stroke-linecap:butt;stroke-linejoin:miter;stroke-opacity:1" d="M 56.4228,178.743 50.374,182.103 z" id="boundary" inkscape:connector-curvature="0" />
	<path style="fill:none;stroke:red;stroke-width:1px;stroke-linecap:butt;stroke-linejoin:miter;stroke-opacity:1" d="M 63.1436,175.382 56.4228,178.743 z" id="boundary" inkscape:connector-curvature="0" />
	<path style="fill:none;stroke:red;stroke-width:1px;stroke-linecap:butt;stroke-linejoin:miter;stroke-opacity:1" d="M 69.8645,172.022 63.1436,175.382 z" id="boundary" inkscape:connector-curvature="0" />
	<path style="fill:none;stroke:red;stroke-width:1px;stroke-linecap:butt;stroke-linejoin:miter;stroke-opacity:1" d="M 76.5854,168.661 69.8645,172.022 z" id="boundary" inkscape:connector-curvature="0" />
	<path style="fill:none;stroke:red;stroke-width:1px;stroke-linecap:butt;stroke-linejoin:miter;stroke-opacity:1" d="M 22.8184,198.905 20.1301,205.626 z" id="boundary" inkscape:connector-curvature="0" />
	<path style="fill:none;stroke:red;stroke-width:1px;stroke-linecap:butt;stroke-linejoin:miter;stroke-opacity:1" d="M 20.1301,205.626 14.7534,210.331 z" id="boundary" inkscape:connector-curvature="0" />
	<path style="fill:none;stroke:red;stroke-width:1px;stroke-linecap:butt;stroke-linejoin:miter;stroke-opacity:1" d="M 26.1789,192.184 22.8184,198.905 z" id="boundary" inkscape:connector-curvature="0" />
	<path style="fill:none;stroke:red;stroke-width:1px;stroke-linecap:butt;stroke-linejoin:miter;stroke-opacity:1" d="M 38.2764,186.808 32.8997,192.184 z" id="boundary" inkscape:connector-curvature="0" />
	<path style="fill:none;stroke:red;stroke-width:1px;stroke-linecap:butt;stroke-linejoin:miter;stroke-opacity:1" d="M 32.8997,192.184 26.1789,192.184 z" id="boundary" inkscape:connector-curvature="0" />
	<path style="fill:none;stroke:red;stroke-width:1px;stroke-linecap:butt;stroke-linejoin:miter;stroke-opacity:1" d="M 14.7534,210.331 9.37669,215.707 z" id="boundary" inkscape:connector-curvature="0" />
	<path style="fill:none;stroke:red;stroke-width:1px;stroke-linecap:butt;stroke-linejoin:miter;stroke-opacity:1" d="M 108.846,166.645 115.566,163.285 z" id="boundary" inkscape:connector-curvature="0" />
	<path style="fill:none;stroke:red;stroke-width:1px;stroke-linecap:butt;stroke-linejoin:miter;stroke-opacity:1" d="M 115.566,163.285 122.287,161.94 z" id="boundary" inkscape:connector-curvature="0" />
	<path style="fill:none;stroke:red;stroke-width:1px;stroke-linecap:butt;stroke-linejoin:miter;stroke-opacity:1" d="M 129.008,161.94 135.057,157.236 z" id="boundary" inkscape:connector-curvature="0" />
	<path style="fill:none;stroke:red;stroke-width:1px;stroke-linecap:butt;stroke-linejoin:miter;stroke-opacity:1" d="M 135.057,157.236 141.778,155.22 z" id="boundary" inkscape:connector-curvature="0" />
	<path style="fill:none;stroke:red;stroke-width:1px;stroke-linecap:butt;stroke-linejoin:miter;stroke-opacity:1" d="M 129.008,161.94 122.287,161.94 z" id="boundary" inkscape:connector-curvature="0" />
	<path style="fill:none;stroke:red;stroke-width:1px;stroke-linecap:butt;stroke-linejoin:miter;stroke-opacity:1" d="M 89.355,172.022 82.6341,172.022 z" id="boundary" inkscape:connector-curvature="0" />
	<path style="fill:none;stroke:red;stroke-width:1px;stroke-linecap:butt;stroke-linejoin:miter;stroke-opacity:1" d="M 82.6341,172.022 76.5854,168.661 z" id="boundary" inkscape:connector-curvature="0" />
	<path style="fill:none;stroke:red;stroke-width:1px;stroke-linecap:butt;stroke-linejoin:miter;stroke-opacity:1" d="M 95.4038,168.661 89.355,172.022 z" id="boundary" inkscape:connector-curvature="0" />
	<path style="fill:none;stroke:red;stroke-width:1px;stroke-linecap:butt;stroke-linejoin:miter;stroke-opacity:1" d="M 108.846,166.645 102.125,168.661 z" id="boundary" inkscape:connector-curvature="0" />
	<path style="fill:none;stroke:red;stroke-width:1px;stroke-linecap:butt;stroke-linejoin:miter;stroke-opacity:1" d="M 102.125,168.661 95.4038,168.661 z" id="boundary" inkscape:connector-curvature="0" />
	<path style="fill:none;stroke:red;stroke-width:1px;stroke-linecap:butt;stroke-linejoin:miter;stroke-opacity:1" d="M 344.748,67.8482 351.469,67.8482 z" id="boundary" inkscape:connector-curvature="0" />
	<path style="fill:none;stroke:red;stroke-width:1px;stroke-linecap:butt;stroke-linejoin:miter;stroke-opacity:1" d="M 338.699,71.2087 344.748,67.8482 z" id="boundary" inkscape:connector-curvature="0" />
	<path style="fill:none;stroke:red;stroke-width:1px;stroke-linecap:butt;stroke-linejoin:miter;stroke-opacity:1" d="M 364.911,67.8482 358.19,67.8482 z" id="boundary" inkscape:connector-curvature="0" />
	<path style="fill:none;stroke:red;stroke-width:1px;stroke-linecap:butt;stroke-linejoin:miter;stroke-opacity:1" d="M 371.631,65.1599 364.911,67.8482 z" id="boundary" inkscape:connector-curvature="0" />
	<path style="fill:none;stroke:red;stroke-width:1px;stroke-linecap:butt;stroke-linejoin:miter;stroke-opacity:1" d="M 358.19,67.8482 351.469,67.8482 z" id="boundary" inkscape:connector-curvature="0" />
	<path style="fill:none;stroke:red;stroke-width:1px;stroke-linecap:butt;stroke-linejoin:miter;stroke-opacity:1" d="M 378.352,64.4878 371.631,65.1599 z" id="boundary" inkscape:connector-curvature="0" />
	<path style="fill:none;stroke:red;stroke-width:1px;stroke-linecap:butt;stroke-linejoin:miter;stroke-opacity:1" d="M 378.352,64.4878 384.401,67.8482 z" id="boundary" inkscape:connector-curvature="0" />
	<path style="fill:none;stroke:red;stroke-width:1px;stroke-linecap:butt;stroke-linejoin:miter;stroke-opacity:1" d="M 338.699,71.2087 332.65,74.5691 z" id="boundary" inkscape:connector-curvature="0" />
	<path style="fill:none;stroke:red;stroke-width:1px;stroke-linecap:butt;stroke-linejoin:miter;stroke-opacity:1" d="M 332.65,74.5691 325.93,74.5691 z" id="boundary" inkscape:connector-curvature="0" />
	<path style="fill:none;stroke:red;stroke-width:1px;stroke-linecap:butt;stroke-linejoin:miter;stroke-opacity:1" d="M 320.553,79.2737 325.93,74.5691 z" id="boundary" inkscape:connector-curvature="0" />
	<path style="fill:none;stroke:red;stroke-width:1px;stroke-linecap:butt;stroke-linejoin:miter;stroke-opacity:1" d="M 391.122,67.8482 384.401,67.8482 z" id="boundary" inkscape:connector-curvature="0" />
	<path style="fill:none;stroke:red;stroke-width:1px;stroke-linecap:butt;stroke-linejoin:miter;stroke-opacity:1" d="M 391.122,67.8482 396.499,71.8808 z" id="boundary" inkscape:connector-curvature="0" />
	<path style="fill:none;stroke:red;stroke-width:1px;stroke-linecap:butt;stroke-linejoin:miter;stroke-opacity:1" d="M 479.165,51.0461 485.214,47.6856 z" id="boundary" inkscape:connector-curvature="0" />
	<path style="fill:none;stroke:red;stroke-width:1px;stroke-linecap:butt;stroke-linejoin:miter;stroke-opacity:1" d="M 479.165,51.0461 473.117,54.4065 z" id="boundary" inkscape:connector-curvature="0" />
	<path style="fill:none;stroke:red;stroke-width:1px;stroke-linecap:butt;stroke-linejoin:miter;stroke-opacity:1" d="M 491.263,44.3252 497.984,44.3252 z" id="boundary" inkscape:connector-curvature="0" />
	<path style="fill:none;stroke:red;stroke-width:1px;stroke-linecap:butt;stroke-linejoin:miter;stroke-opacity:1" d="M 485.214,47.6856 491.263,44.3252 z" id="boundary" inkscape:connector-curvature="0" />
	<path style="fill:none;stroke:red;stroke-width:1px;stroke-linecap:butt;stroke-linejoin:miter;stroke-opacity:1" d="M 504.705,44.3252 497.984,44.3252 z" id="boundary" inkscape:connector-curvature="0" />
	<path style="fill:none;stroke:red;stroke-width:1px;stroke-linecap:butt;stroke-linejoin:miter;stroke-opacity:1" d="M 510.753,40.9648 504.705,44.3252 z" id="boundary" inkscape:connector-curvature="0" />
	<path style="fill:none;stroke:red;stroke-width:1px;stroke-linecap:butt;stroke-linejoin:miter;stroke-opacity:1" d="M 402.547,75.2412 396.499,71.8808 z" id="boundary" inkscape:connector-curvature="0" />
	<path style="fill:none;stroke:red;stroke-width:1px;stroke-linecap:butt;stroke-linejoin:miter;stroke-opacity:1" d="M 449.593,71.2087 454.97,65.832 z" id="boundary" inkscape:connector-curvature="0" />
	<path style="fill:none;stroke:red;stroke-width:1px;stroke-linecap:butt;stroke-linejoin:miter;stroke-opacity:1" d="M 454.97,65.832 461.691,62.4715 z" id="boundary" inkscape:connector-curvature="0" />
	<path style="fill:none;stroke:red;stroke-width:1px;stroke-linecap:butt;stroke-linejoin:miter;stroke-opacity:1" d="M 461.691,62.4715 467.068,57.7669 z" id="boundary" inkscape:connector-curvature="0" />
	<path style="fill:none;stroke:red;stroke-width:1px;stroke-linecap:butt;stroke-linejoin:miter;stroke-opacity:1" d="M 467.068,57.7669 473.117,54.4065 z" id="boundary" inkscape:connector-curvature="0" />
	<path style="fill:none;stroke:red;stroke-width:1px;stroke-linecap:butt;stroke-linejoin:miter;stroke-opacity:1" d="M 446.233,77.9295 449.593,71.2087 z" id="boundary" inkscape:connector-curvature="0" />
	<path style="fill:none;stroke:red;stroke-width:1px;stroke-linecap:butt;stroke-linejoin:miter;stroke-opacity:1" d="M 309.127,88.0108 313.832,82.6341 z" id="boundary" inkscape:connector-curvature="0" />
	<path style="fill:none;stroke:red;stroke-width:1px;stroke-linecap:butt;stroke-linejoin:miter;stroke-opacity:1" d="M 313.832,82.6341 320.553,79.2737 z" id="boundary" inkscape:connector-curvature="0" />
	<path style="fill:none;stroke:red;stroke-width:1px;stroke-linecap:butt;stroke-linejoin:miter;stroke-opacity:1" d="M 402.547,75.2412 407.924,79.9458 z" id="boundary" inkscape:connector-curvature="0" />
	<path style="fill:none;stroke:red;stroke-width:1px;stroke-linecap:butt;stroke-linejoin:miter;stroke-opacity:1" d="M 407.924,79.9458 410.612,86.6667 z" id="boundary" inkscape:connector-curvature="0" />
	<path style="fill:none;stroke:red;stroke-width:1px;stroke-linecap:butt;stroke-linejoin:miter;stroke-opacity:1" d="M 415.989,91.3713 410.612,86.6667 z" id="boundary" inkscape:connector-curvature="0" />
	<path style="fill:none;stroke:red;stroke-width:1px;stroke-linecap:butt;stroke-linejoin:miter;stroke-opacity:1" d="M 289.637,113.55 292.997,103.469 z" id="boundary" inkscape:connector-curvature="0" />
	<path style="fill:none;stroke:red;stroke-width:1px;stroke-linecap:butt;stroke-linejoin:miter;stroke-opacity:1" d="M 292.997,103.469 298.374,98.0921 z" id="boundary" inkscape:connector-curvature="0" />
	<path style="fill:none;stroke:red;stroke-width:1px;stroke-linecap:butt;stroke-linejoin:miter;stroke-opacity:1" d="M 298.374,98.0921 303.751,92.7154 z" id="boundary" inkscape:connector-curvature="0" />
	<path style="fill:none;stroke:red;stroke-width:1px;stroke-linecap:butt;stroke-linejoin:miter;stroke-opacity:1" d="M 309.127,88.0108 303.751,92.7154 z" id="boundary" inkscape:connector-curvature="0" />
	<path style="fill:none;stroke:red;stroke-width:1px;stroke-linecap:butt;stroke-linejoin:miter;stroke-opacity:1" d="M 424.054,102.797 420.694,96.748 z" id="boundary" inkscape:connector-curvature="0" />
	<path style="fill:none;stroke:red;stroke-width:1px;stroke-linecap:butt;stroke-linejoin:miter;stroke-opacity:1" d="M 437.496,90.0271 434.136,96.748 z" id="boundary" inkscape:connector-curvature="0" />
	<path style="fill:none;stroke:red;stroke-width:1px;stroke-linecap:butt;stroke-linejoin:miter;stroke-opacity:1" d="M 434.136,96.748 430.775,104.813 z" id="boundary" inkscape:connector-curvature="0" />
	<path style="fill:none;stroke:red;stroke-width:1px;stroke-linecap:butt;stroke-linejoin:miter;stroke-opacity:1" d="M 430.775,104.813 424.054,102.797 z" id="boundary" inkscape:connector-curvature="0" />
	<path style="fill:none;stroke:red;stroke-width:1px;stroke-linecap:butt;stroke-linejoin:miter;stroke-opacity:1" d="M 442.873,84.6504 437.496,90.0271 z" id="boundary" inkscape:connector-curvature="0" />
	<path style="fill:none;stroke:red;stroke-width:1px;stroke-linecap:butt;stroke-linejoin:miter;stroke-opacity:1" d="M 420.694,96.748 415.989,91.3713 z" id="boundary" inkscape:connector-curvature="0" />
	<path style="fill:none;stroke:red;stroke-width:1px;stroke-linecap:butt;stroke-linejoin:miter;stroke-opacity:1" d="M 442.873,84.6504 446.233,77.9295 z" id="boundary" inkscape:connector-curvature="0" />
	<path style="fill:none;stroke:red;stroke-width:1px;stroke-linecap:butt;stroke-linejoin:miter;stroke-opacity:1" d="M 471.1,209.659 464.379,209.659 z" id="boundary" inkscape:connector-curvature="0" />
	<path style="fill:none;stroke:red;stroke-width:1px;stroke-linecap:butt;stroke-linejoin:miter;stroke-opacity:1" d="M 477.821,209.659 483.87,206.298 z" id="boundary" inkscape:connector-curvature="0" />
	<path style="fill:none;stroke:red;stroke-width:1px;stroke-linecap:butt;stroke-linejoin:miter;stroke-opacity:1" d="M 483.87,206.298 489.919,209.659 z" id="boundary" inkscape:connector-curvature="0" />
	<path style="fill:none;stroke:red;stroke-width:1px;stroke-linecap:butt;stroke-linejoin:miter;stroke-opacity:1" d="M 477.821,209.659 471.1,209.659 z" id="boundary" inkscape:connector-curvature="0" />
	<path style="fill:none;stroke:red;stroke-width:1px;stroke-linecap:butt;stroke-linejoin:miter;stroke-opacity:1" d="M 458.331,213.019 464.379,209.659 z" id="boundary" inkscape:connector-curvature="0" />
	<path style="fill:none;stroke:red;stroke-width:1px;stroke-linecap:butt;stroke-linejoin:miter;stroke-opacity:1" d="M 489.919,209.659 496.64,212.347 z" id="boundary" inkscape:connector-curvature="0" />
	<path style="fill:none;stroke:red;stroke-width:1px;stroke-linecap:butt;stroke-linejoin:miter;stroke-opacity:1" d="M 4,227.805 4,221.084 z" id="boundary" inkscape:connector-curvature="0" />
	<path style="fill:none;stroke:red;stroke-width:1px;stroke-linecap:butt;stroke-linejoin:miter;stroke-opacity:1" d="M 4,221.084 9.37669,215.707 z" id="boundary" inkscape:connector-curvature="0" />
	<path style="fill:none;stroke:red;stroke-width:1px;stroke-linecap:butt;stroke-linejoin:miter;stroke-opacity:1" d="M 12.065,239.23 7.36043,233.854 z" id="boundary" inkscape:connector-curvature="0" />
	<path style="fill:none;stroke:red;stroke-width:1px;stroke-linecap:butt;stroke-linejoin:miter;stroke-opacity:1" d="M 7.36043,233.854 4,227.805 z" id="boundary" inkscape:connector-curvature="0" />
	<path style="fill:none;stroke:red;stroke-width:1px;stroke-linecap:butt;stroke-linejoin:miter;stroke-opacity:1" d="M 17.4417,243.263 23.4905,246.623 z" id="boundary" inkscape:connector-curvature="0" />
	<path style="fill:none;stroke:red;stroke-width:1px;stroke-linecap:butt;stroke-linejoin:miter;stroke-opacity:1" d="M 17.4417,243.263 12.065,239.23 z" id="boundary" inkscape:connector-curvature="0" />
	<path style="fill:none;stroke:red;stroke-width:1px;stroke-linecap:butt;stroke-linejoin:miter;stroke-opacity:1" d="M 23.4905,246.623 29.5393,249.984 z" id="boundary" inkscape:connector-curvature="0" />
	<path style="fill:none;stroke:red;stroke-width:1px;stroke-linecap:butt;stroke-linejoin:miter;stroke-opacity:1" d="M 29.5393,249.984 34.916,254.688 z" id="boundary" inkscape:connector-curvature="0" />
	<path style="fill:none;stroke:red;stroke-width:1px;stroke-linecap:butt;stroke-linejoin:miter;stroke-opacity:1" d="M 34.916,254.688 41.6369,256.705 z" id="boundary" inkscape:connector-curvature="0" />
	<path style="fill:none;stroke:red;stroke-width:1px;stroke-linecap:butt;stroke-linejoin:miter;stroke-opacity:1" d="M 41.6369,256.705 47.6856,260.065 z" id="boundary" inkscape:connector-curvature="0" />
	<path style="fill:none;stroke:red;stroke-width:1px;stroke-linecap:butt;stroke-linejoin:miter;stroke-opacity:1" d="M 47.6856,260.065 53.7344,263.425 z" id="boundary" inkscape:connector-curvature="0" />
	<path style="fill:none;stroke:red;stroke-width:1px;stroke-linecap:butt;stroke-linejoin:miter;stroke-opacity:1" d="M 193.528,263.425 199.577,260.065 z" id="boundary" inkscape:connector-curvature="0" />
	<path style="fill:none;stroke:red;stroke-width:1px;stroke-linecap:butt;stroke-linejoin:miter;stroke-opacity:1" d="M 199.577,260.065 206.298,260.065 z" id="boundary" inkscape:connector-curvature="0" />
	<path style="fill:none;stroke:red;stroke-width:1px;stroke-linecap:butt;stroke-linejoin:miter;stroke-opacity:1" d="M 213.019,260.065 219.068,256.705 z" id="boundary" inkscape:connector-curvature="0" />
	<path style="fill:none;stroke:red;stroke-width:1px;stroke-linecap:butt;stroke-linejoin:miter;stroke-opacity:1" d="M 213.019,260.065 206.298,260.065 z" id="boundary" inkscape:connector-curvature="0" />
	<path style="fill:none;stroke:red;stroke-width:1px;stroke-linecap:butt;stroke-linejoin:miter;stroke-opacity:1" d="M 225.789,256.705 219.068,256.705 z" id="boundary" inkscape:connector-curvature="0" />
	<path style="fill:none;stroke:red;stroke-width:1px;stroke-linecap:butt;stroke-linejoin:miter;stroke-opacity:1" d="M 225.789,256.705 229.821,262.081 z" id="boundary" inkscape:connector-curvature="0" />
	<path style="fill:none;stroke:red;stroke-width:1px;stroke-linecap:butt;stroke-linejoin:miter;stroke-opacity:1" d="M 80.6179,263.425 73.897,263.425 z" id="boundary" inkscape:connector-curvature="0" />
	<path style="fill:none;stroke:red;stroke-width:1px;stroke-linecap:butt;stroke-linejoin:miter;stroke-opacity:1" d="M 53.7344,263.425 60.4553,263.425 z" id="boundary" inkscape:connector-curvature="0" />
	<path style="fill:none;stroke:red;stroke-width:1px;stroke-linecap:butt;stroke-linejoin:miter;stroke-opacity:1" d="M 67.1762,263.425 60.4553,263.425 z" id="boundary" inkscape:connector-curvature="0" />
	<path style="fill:none;stroke:red;stroke-width:1px;stroke-linecap:butt;stroke-linejoin:miter;stroke-opacity:1" d="M 73.897,263.425 67.1762,263.425 z" id="boundary" inkscape:connector-curvature="0" />
	<path style="fill:none;stroke:red;stroke-width:1px;stroke-linecap:butt;stroke-linejoin:miter;stroke-opacity:1" d="M 80.6179,263.425 86.6667,266.786 z" id="boundary" inkscape:connector-curvature="0" />
	<path style="fill:none;stroke:red;stroke-width:1px;stroke-linecap:butt;stroke-linejoin:miter;stroke-opacity:1" d="M 236.542,264.77 229.821,262.081 z" id="boundary" inkscape:connector-curvature="0" />
	<path style="fill:none;stroke:red;stroke-width:1px;stroke-linecap:butt;stroke-linejoin:miter;stroke-opacity:1" d="M 86.6667,266.786 93.3875,266.786 z" id="boundary" inkscape:connector-curvature="0" />
	<path style="fill:none;stroke:red;stroke-width:1px;stroke-linecap:butt;stroke-linejoin:miter;stroke-opacity:1" d="M 100.108,266.786 106.829,266.786 z" id="boundary" inkscape:connector-curvature="0" />
	<path style="fill:none;stroke:red;stroke-width:1px;stroke-linecap:butt;stroke-linejoin:miter;stroke-opacity:1" d="M 106.829,266.786 113.55,266.786 z" id="boundary" inkscape:connector-curvature="0" />
	<path style="fill:none;stroke:red;stroke-width:1px;stroke-linecap:butt;stroke-linejoin:miter;stroke-opacity:1" d="M 100.108,266.786 93.3875,266.786 z" id="boundary" inkscape:connector-curvature="0" />
	<path style="fill:none;stroke:red;stroke-width:1px;stroke-linecap:butt;stroke-linejoin:miter;stroke-opacity:1" d="M 120.271,266.786 126.992,266.786 z" id="boundary" inkscape:connector-curvature="0" />
	<path style="fill:none;stroke:red;stroke-width:1px;stroke-linecap:butt;stroke-linejoin:miter;stroke-opacity:1" d="M 126.992,266.786 133.713,269.474 z" id="boundary" inkscape:connector-curvature="0" />
	<path style="fill:none;stroke:red;stroke-width:1px;stroke-linecap:butt;stroke-linejoin:miter;stroke-opacity:1" d="M 120.271,266.786 113.55,266.786 z" id="boundary" inkscape:connector-curvature="0" />
	<path style="fill:none;stroke:red;stroke-width:1px;stroke-linecap:butt;stroke-linejoin:miter;stroke-opacity:1" d="M 140.434,269.474 147.154,266.786 z" id="boundary" inkscape:connector-curvature="0" />
	<path style="fill:none;stroke:red;stroke-width:1px;stroke-linecap:butt;stroke-linejoin:miter;stroke-opacity:1" d="M 147.154,266.786 153.875,266.786 z" id="boundary" inkscape:connector-curvature="0" />
	<path style="fill:none;stroke:red;stroke-width:1px;stroke-linecap:butt;stroke-linejoin:miter;stroke-opacity:1" d="M 140.434,269.474 133.713,269.474 z" id="boundary" inkscape:connector-curvature="0" />
	<path style="fill:none;stroke:red;stroke-width:1px;stroke-linecap:butt;stroke-linejoin:miter;stroke-opacity:1" d="M 153.875,266.786 160.596,266.786 z" id="boundary" inkscape:connector-curvature="0" />
	<path style="fill:none;stroke:red;stroke-width:1px;stroke-linecap:butt;stroke-linejoin:miter;stroke-opacity:1" d="M 167.317,266.786 160.596,266.786 z" id="boundary" inkscape:connector-curvature="0" />
	<path style="fill:none;stroke:red;stroke-width:1px;stroke-linecap:butt;stroke-linejoin:miter;stroke-opacity:1" d="M 186.808,263.425 193.528,263.425 z" id="boundary" inkscape:connector-curvature="0" />
	<path style="fill:none;stroke:red;stroke-width:1px;stroke-linecap:butt;stroke-linejoin:miter;stroke-opacity:1" d="M 236.542,264.77 241.247,270.146 z" id="boundary" inkscape:connector-curvature="0" />
	<path style="fill:none;stroke:red;stroke-width:1px;stroke-linecap:butt;stroke-linejoin:miter;stroke-opacity:1" d="M 180.087,263.425 186.808,263.425 z" id="boundary" inkscape:connector-curvature="0" />
	<path style="fill:none;stroke:red;stroke-width:1px;stroke-linecap:butt;stroke-linejoin:miter;stroke-opacity:1" d="M 174.038,266.786 180.087,263.425 z" id="boundary" inkscape:connector-curvature="0" />
	<path style="fill:none;stroke:red;stroke-width:1px;stroke-linecap:butt;stroke-linejoin:miter;stroke-opacity:1" d="M 174.038,266.786 167.317,266.786 z" id="boundary" inkscape:connector-curvature="0" />
	<path style="fill:none;stroke:red;stroke-width:1px;stroke-linecap:butt;stroke-linejoin:miter;stroke-opacity:1" d="M 241.247,270.146 246.623,274.851 z" id="boundary" inkscape:connector-curvature="0" />
	<path style="fill:none;stroke:red;stroke-width:1px;stroke-linecap:butt;stroke-linejoin:miter;stroke-opacity:1" d="M 258.049,280.228 251.328,280.228 z" id="boundary" inkscape:connector-curvature="0" />
	<path style="fill:none;stroke:red;stroke-width:1px;stroke-linecap:butt;stroke-linejoin:miter;stroke-opacity:1" d="M 251.328,280.228 246.623,274.851 z" id="boundary" inkscape:connector-curvature="0" />
	<path style="fill:none;stroke:red;stroke-width:1px;stroke-linecap:butt;stroke-linejoin:miter;stroke-opacity:1" d="M 258.049,280.228 263.425,284.932 z" id="boundary" inkscape:connector-curvature="0" />
	<path style="fill:none;stroke:red;stroke-width:1px;stroke-linecap:butt;stroke-linejoin:miter;stroke-opacity:1" d="M 386.417,228.477 379.696,229.821 z" id="boundary" inkscape:connector-curvature="0" />
	<path style="fill:none;stroke:red;stroke-width:1px;stroke-linecap:butt;stroke-linejoin:miter;stroke-opacity:1" d="M 379.696,229.821 372.976,229.821 z" id="boundary" inkscape:connector-curvature="0" />
	<path style="fill:none;stroke:red;stroke-width:1px;stroke-linecap:butt;stroke-linejoin:miter;stroke-opacity:1" d="M 393.138,226.461 386.417,228.477 z" id="boundary" inkscape:connector-curvature="0" />
	<path style="fill:none;stroke:red;stroke-width:1px;stroke-linecap:butt;stroke-linejoin:miter;stroke-opacity:1" d="M 405.908,223.1 399.859,226.461 z" id="boundary" inkscape:connector-curvature="0" />
	<path style="fill:none;stroke:red;stroke-width:1px;stroke-linecap:butt;stroke-linejoin:miter;stroke-opacity:1" d="M 399.859,226.461 393.138,226.461 z" id="boundary" inkscape:connector-curvature="0" />
	<path style="fill:none;stroke:red;stroke-width:1px;stroke-linecap:butt;stroke-linejoin:miter;stroke-opacity:1" d="M 405.908,223.1 412.629,223.1 z" id="boundary" inkscape:connector-curvature="0" />
	<path style="fill:none;stroke:red;stroke-width:1px;stroke-linecap:butt;stroke-linejoin:miter;stroke-opacity:1" d="M 340.715,236.542 333.995,236.542 z" id="boundary" inkscape:connector-curvature="0" />
	<path style="fill:none;stroke:red;stroke-width:1px;stroke-linecap:butt;stroke-linejoin:miter;stroke-opacity:1" d="M 347.436,236.542 340.715,236.542 z" id="boundary" inkscape:connector-curvature="0" />
	<path style="fill:none;stroke:red;stroke-width:1px;stroke-linecap:butt;stroke-linejoin:miter;stroke-opacity:1" d="M 353.485,233.182 347.436,236.542 z" id="boundary" inkscape:connector-curvature="0" />
	<path style="fill:none;stroke:red;stroke-width:1px;stroke-linecap:butt;stroke-linejoin:miter;stroke-opacity:1" d="M 337.355,242.591 333.995,236.542 z" id="boundary" inkscape:connector-curvature="0" />
	<path style="fill:none;stroke:red;stroke-width:1px;stroke-linecap:butt;stroke-linejoin:miter;stroke-opacity:1" d="M 372.976,229.821 366.927,233.182 z" id="boundary" inkscape:connector-curvature="0" />
	<path style="fill:none;stroke:red;stroke-width:1px;stroke-linecap:butt;stroke-linejoin:miter;stroke-opacity:1" d="M 366.927,233.182 360.206,233.182 z" id="boundary" inkscape:connector-curvature="0" />
	<path style="fill:none;stroke:red;stroke-width:1px;stroke-linecap:butt;stroke-linejoin:miter;stroke-opacity:1" d="M 360.206,233.182 353.485,233.182 z" id="boundary" inkscape:connector-curvature="0" />
	<path style="fill:none;stroke:red;stroke-width:1px;stroke-linecap:butt;stroke-linejoin:miter;stroke-opacity:1" d="M 444.889,213.019 451.61,213.019 z" id="boundary" inkscape:connector-curvature="0" />
	<path style="fill:none;stroke:red;stroke-width:1px;stroke-linecap:butt;stroke-linejoin:miter;stroke-opacity:1" d="M 438.168,216.379 444.889,213.019 z" id="boundary" inkscape:connector-curvature="0" />
	<path style="fill:none;stroke:red;stroke-width:1px;stroke-linecap:butt;stroke-linejoin:miter;stroke-opacity:1" d="M 458.331,213.019 451.61,213.019 z" id="boundary" inkscape:connector-curvature="0" />
	<path style="fill:none;stroke:red;stroke-width:1px;stroke-linecap:butt;stroke-linejoin:miter;stroke-opacity:1" d="M 503.36,213.019 496.64,212.347 z" id="boundary" inkscape:connector-curvature="0" />
	<path style="fill:none;stroke:red;stroke-width:1px;stroke-linecap:butt;stroke-linejoin:miter;stroke-opacity:1" d="M 503.36,213.019 508.737,217.724 z" id="boundary" inkscape:connector-curvature="0" />
	<path style="fill:none;stroke:red;stroke-width:1px;stroke-linecap:butt;stroke-linejoin:miter;stroke-opacity:1" d="M 425.398,219.74 419.35,223.1 z" id="boundary" inkscape:connector-curvature="0" />
	<path style="fill:none;stroke:red;stroke-width:1px;stroke-linecap:butt;stroke-linejoin:miter;stroke-opacity:1" d="M 419.35,223.1 412.629,223.1 z" id="boundary" inkscape:connector-curvature="0" />
	<path style="fill:none;stroke:red;stroke-width:1px;stroke-linecap:butt;stroke-linejoin:miter;stroke-opacity:1" d="M 438.168,216.379 431.447,216.379 z" id="boundary" inkscape:connector-curvature="0" />
	<path style="fill:none;stroke:red;stroke-width:1px;stroke-linecap:butt;stroke-linejoin:miter;stroke-opacity:1" d="M 425.398,219.74 431.447,216.379 z" id="boundary" inkscape:connector-curvature="0" />
	<path style="fill:none;stroke:red;stroke-width:1px;stroke-linecap:butt;stroke-linejoin:miter;stroke-opacity:1" d="M 515.458,219.74 508.737,217.724 z" id="boundary" inkscape:connector-curvature="0" />
	<path style="fill:none;stroke:red;stroke-width:1px;stroke-linecap:butt;stroke-linejoin:miter;stroke-opacity:1" d="M 302.407,276.867 309.127,276.867 z" id="boundary" inkscape:connector-curvature="0" />
	<path style="fill:none;stroke:red;stroke-width:1px;stroke-linecap:butt;stroke-linejoin:miter;stroke-opacity:1" d="M 315.176,273.507 309.127,276.867 z" id="boundary" inkscape:connector-curvature="0" />
	<path style="fill:none;stroke:red;stroke-width:1px;stroke-linecap:butt;stroke-linejoin:miter;stroke-opacity:1" d="M 315.176,273.507 321.897,273.507 z" id="boundary" inkscape:connector-curvature="0" />
	<path style="fill:none;stroke:red;stroke-width:1px;stroke-linecap:butt;stroke-linejoin:miter;stroke-opacity:1" d="M 328.618,273.507 321.897,273.507 z" id="boundary" inkscape:connector-curvature="0" />
	<path style="fill:none;stroke:red;stroke-width:1px;stroke-linecap:butt;stroke-linejoin:miter;stroke-opacity:1" d="M 334.667,270.146 328.618,273.507 z" id="boundary" inkscape:connector-curvature="0" />
	<path style="fill:none;stroke:red;stroke-width:1px;stroke-linecap:butt;stroke-linejoin:miter;stroke-opacity:1" d="M 276.867,283.588 270.146,286.949 z" id="boundary" inkscape:connector-curvature="0" />
	<path style="fill:none;stroke:red;stroke-width:1px;stroke-linecap:butt;stroke-linejoin:miter;stroke-opacity:1" d="M 270.146,286.949 263.425,284.932 z" id="boundary" inkscape:connector-curvature="0" />
	<path style="fill:none;stroke:red;stroke-width:1px;stroke-linecap:butt;stroke-linejoin:miter;stroke-opacity:1" d="M 276.867,283.588 283.588,283.588 z" id="boundary" inkscape:connector-curvature="0" />
	<path style="fill:none;stroke:red;stroke-width:1px;stroke-linecap:butt;stroke-linejoin:miter;stroke-opacity:1" d="M 295.686,278.883 290.309,283.588 z" id="boundary" inkscape:connector-curvature="0" />
	<path style="fill:none;stroke:red;stroke-width:1px;stroke-linecap:butt;stroke-linejoin:miter;stroke-opacity:1" d="M 290.309,283.588 283.588,283.588 z" id="boundary" inkscape:connector-curvature="0" />
	<path style="fill:none;stroke:red;stroke-width:1px;stroke-linecap:butt;stroke-linejoin:miter;stroke-opacity:1" d="M 295.686,278.883 302.407,276.867 z" id="boundary" inkscape:connector-curvature="0" />
	<path style="fill:none;stroke:red;stroke-width:1px;stroke-linecap:butt;stroke-linejoin:miter;stroke-opacity:1" d="M 344.076,242.591 337.355,242.591 z" id="boundary" inkscape:connector-curvature="0" />
	<path style="fill:none;stroke:red;stroke-width:1px;stroke-linecap:butt;stroke-linejoin:miter;stroke-opacity:1" d="M 350.797,244.607 344.076,242.591 z" id="boundary" inkscape:connector-curvature="0" />
	<path style="fill:none;stroke:red;stroke-width:1px;stroke-linecap:butt;stroke-linejoin:miter;stroke-opacity:1" d="M 350.797,244.607 357.518,245.951 z" id="boundary" inkscape:connector-curvature="0" />
	<path style="fill:none;stroke:red;stroke-width:1px;stroke-linecap:butt;stroke-linejoin:miter;stroke-opacity:1" d="M 362.894,249.984 357.518,245.951 z" id="boundary" inkscape:connector-curvature="0" />
	<path style="fill:none;stroke:red;stroke-width:1px;stroke-linecap:butt;stroke-linejoin:miter;stroke-opacity:1" d="M 334.667,270.146 340.715,266.786 z" id="boundary" inkscape:connector-curvature="0" />
	<path style="fill:none;stroke:red;stroke-width:1px;stroke-linecap:butt;stroke-linejoin:miter;stroke-opacity:1" d="M 340.715,266.786 347.436,266.786 z" id="boundary" inkscape:connector-curvature="0" />
	<path style="fill:none;stroke:red;stroke-width:1px;stroke-linecap:butt;stroke-linejoin:miter;stroke-opacity:1" d="M 360.878,263.425 354.157,263.425 z" id="boundary" inkscape:connector-curvature="0" />
	<path style="fill:none;stroke:red;stroke-width:1px;stroke-linecap:butt;stroke-linejoin:miter;stroke-opacity:1" d="M 354.157,263.425 347.436,266.786 z" id="boundary" inkscape:connector-curvature="0" />
	<path style="fill:none;stroke:red;stroke-width:1px;stroke-linecap:butt;stroke-linejoin:miter;stroke-opacity:1" d="M 360.878,263.425 367.599,255.36 z" id="boundary" inkscape:connector-curvature="0" />
	<path style="fill:none;stroke:red;stroke-width:1px;stroke-linecap:butt;stroke-linejoin:miter;stroke-opacity:1" d="M 362.894,249.984 367.599,255.36 z" id="boundary" inkscape:connector-curvature="0" />
	<path style="fill:none;stroke:red;stroke-width:1px;stroke-linecap:butt;stroke-linejoin:miter;stroke-opacity:1" d="M 622.32,24.1626 616.271,27.523 z" id="boundary" inkscape:connector-curvature="0" />
	<path style="fill:none;stroke:red;stroke-width:1px;stroke-linecap:butt;stroke-linejoin:miter;stroke-opacity:1" d="M 616.271,27.523 609.55,27.523 z" id="boundary" inkscape:connector-curvature="0" />
	<path style="fill:none;stroke:red;stroke-width:1px;stroke-linecap:butt;stroke-linejoin:miter;stroke-opacity:1" d="M 629.041,24.1626 622.32,24.1626 z" id="boundary" inkscape:connector-curvature="0" />
	<path style="fill:none;stroke:red;stroke-width:1px;stroke-linecap:butt;stroke-linejoin:miter;stroke-opacity:1" d="M 642.482,24.1626 635.762,24.1626 z" id="boundary" inkscape:connector-curvature="0" />
	<path style="fill:none;stroke:red;stroke-width:1px;stroke-linecap:butt;stroke-linejoin:miter;stroke-opacity:1" d="M 635.762,24.1626 629.041,24.1626 z" id="boundary" inkscape:connector-curvature="0" />
	<path style="fill:none;stroke:red;stroke-width:1px;stroke-linecap:butt;stroke-linejoin:miter;stroke-opacity:1" d="M 649.203,24.1626 642.482,24.1626 z" id="boundary" inkscape:connector-curvature="0" />
	<path style="fill:none;stroke:red;stroke-width:1px;stroke-linecap:butt;stroke-linejoin:miter;stroke-opacity:1" d="M 655.924,24.1626 649.203,24.1626 z" id="boundary" inkscape:connector-curvature="0" />
	<path style="fill:none;stroke:red;stroke-width:1px;stroke-linecap:butt;stroke-linejoin:miter;stroke-opacity:1" d="M 655.924,24.1626 662.645,24.1626 z" id="boundary" inkscape:connector-curvature="0" />
	<path style="fill:none;stroke:red;stroke-width:1px;stroke-linecap:butt;stroke-linejoin:miter;stroke-opacity:1" d="M 669.366,24.1626 662.645,24.1626 z" id="boundary" inkscape:connector-curvature="0" />
	<path style="fill:none;stroke:red;stroke-width:1px;stroke-linecap:butt;stroke-linejoin:miter;stroke-opacity:1" d="M 676.087,24.1626 669.366,24.1626 z" id="boundary" inkscape:connector-curvature="0" />
	<path style="fill:none;stroke:red;stroke-width:1px;stroke-linecap:butt;stroke-linejoin:miter;stroke-opacity:1" d="M 682.136,20.8022 676.087,24.1626 z" id="boundary" inkscape:connector-curvature="0" />
	<path style="fill:none;stroke:red;stroke-width:1px;stroke-linecap:butt;stroke-linejoin:miter;stroke-opacity:1" d="M 682.136,20.8022 688.856,20.8022 z" id="boundary" inkscape:connector-curvature="0" />
	<path style="fill:none;stroke:red;stroke-width:1px;stroke-linecap:butt;stroke-linejoin:miter;stroke-opacity:1" d="M 695.577,20.8022 688.856,20.8022 z" id="boundary" inkscape:connector-curvature="0" />
	<path style="fill:none;stroke:red;stroke-width:1px;stroke-linecap:butt;stroke-linejoin:miter;stroke-opacity:1" d="M 740.607,17.4417 734.558,20.8022 z" id="boundary" inkscape:connector-curvature="0" />
	<path style="fill:none;stroke:red;stroke-width:1px;stroke-linecap:butt;stroke-linejoin:miter;stroke-opacity:1" d="M 747.328,19.458 740.607,17.4417 z" id="boundary" inkscape:connector-curvature="0" />
	<path style="fill:none;stroke:red;stroke-width:1px;stroke-linecap:butt;stroke-linejoin:miter;stroke-opacity:1" d="M 754.049,20.8022 747.328,19.458 z" id="boundary" inkscape:connector-curvature="0" />
	<path style="fill:none;stroke:red;stroke-width:1px;stroke-linecap:butt;stroke-linejoin:miter;stroke-opacity:1" d="M 702.298,20.8022 695.577,20.8022 z" id="boundary" inkscape:connector-curvature="0" />
	<path style="fill:none;stroke:red;stroke-width:1px;stroke-linecap:butt;stroke-linejoin:miter;stroke-opacity:1" d="M 709.019,20.8022 702.298,20.8022 z" id="boundary" inkscape:connector-curvature="0" />
	<path style="fill:none;stroke:red;stroke-width:1px;stroke-linecap:butt;stroke-linejoin:miter;stroke-opacity:1" d="M 715.74,20.8022 709.019,20.8022 z" id="boundary" inkscape:connector-curvature="0" />
	<path style="fill:none;stroke:red;stroke-width:1px;stroke-linecap:butt;stroke-linejoin:miter;stroke-opacity:1" d="M 721.789,17.4417 715.74,20.8022 z" id="boundary" inkscape:connector-curvature="0" />
	<path style="fill:none;stroke:red;stroke-width:1px;stroke-linecap:butt;stroke-linejoin:miter;stroke-opacity:1" d="M 734.558,20.8022 727.837,20.8022 z" id="boundary" inkscape:connector-curvature="0" />
	<path style="fill:none;stroke:red;stroke-width:1px;stroke-linecap:butt;stroke-linejoin:miter;stroke-opacity:1" d="M 727.837,20.8022 721.789,17.4417 z" id="boundary" inkscape:connector-curvature="0" />
	<path style="fill:none;stroke:red;stroke-width:1px;stroke-linecap:butt;stroke-linejoin:miter;stroke-opacity:1" d="M 755.393,40.9648 749.344,44.9973 z" id="boundary" inkscape:connector-curvature="0" />
	<path style="fill:none;stroke:red;stroke-width:1px;stroke-linecap:butt;stroke-linejoin:miter;stroke-opacity:1" d="M 549.734,34.2439 556.455,34.2439 z" id="boundary" inkscape:connector-curvature="0" />
	<path style="fill:none;stroke:red;stroke-width:1px;stroke-linecap:butt;stroke-linejoin:miter;stroke-opacity:1" d="M 543.686,37.6043 549.734,34.2439 z" id="boundary" inkscape:connector-curvature="0" />
	<path style="fill:none;stroke:red;stroke-width:1px;stroke-linecap:butt;stroke-linejoin:miter;stroke-opacity:1" d="M 563.176,34.2439 569.225,30.8835 z" id="boundary" inkscape:connector-curvature="0" />
	<path style="fill:none;stroke:red;stroke-width:1px;stroke-linecap:butt;stroke-linejoin:miter;stroke-opacity:1" d="M 569.225,30.8835 575.946,30.8835 z" id="boundary" inkscape:connector-curvature="0" />
	<path style="fill:none;stroke:red;stroke-width:1px;stroke-linecap:butt;stroke-linejoin:miter;stroke-opacity:1" d="M 563.176,34.2439 556.455,34.2439 z" id="boundary" inkscape:connector-curvature="0" />
	<path style="fill:none;stroke:red;stroke-width:1px;stroke-linecap:butt;stroke-linejoin:miter;stroke-opacity:1" d="M 575.946,30.8835 582.667,30.8835 z" id="boundary" inkscape:connector-curvature="0" />
	<path style="fill:none;stroke:red;stroke-width:1px;stroke-linecap:butt;stroke-linejoin:miter;stroke-opacity:1" d="M 517.474,40.9648 524.195,40.9648 z" id="boundary" inkscape:connector-curvature="0" />
	<path style="fill:none;stroke:red;stroke-width:1px;stroke-linecap:butt;stroke-linejoin:miter;stroke-opacity:1" d="M 517.474,40.9648 510.753,40.9648 z" id="boundary" inkscape:connector-curvature="0" />
	<path style="fill:none;stroke:red;stroke-width:1px;stroke-linecap:butt;stroke-linejoin:miter;stroke-opacity:1" d="M 530.244,37.6043 524.195,40.9648 z" id="boundary" inkscape:connector-curvature="0" />
	<path style="fill:none;stroke:red;stroke-width:1px;stroke-linecap:butt;stroke-linejoin:miter;stroke-opacity:1" d="M 530.244,37.6043 536.965,37.6043 z" id="boundary" inkscape:connector-curvature="0" />
	<path style="fill:none;stroke:red;stroke-width:1px;stroke-linecap:butt;stroke-linejoin:miter;stroke-opacity:1" d="M 543.686,37.6043 536.965,37.6043 z" id="boundary" inkscape:connector-curvature="0" />
	<path style="fill:none;stroke:red;stroke-width:1px;stroke-linecap:butt;stroke-linejoin:miter;stroke-opacity:1" d="M 589.388,30.8835 582.667,30.8835 z" id="boundary" inkscape:connector-curvature="0" />
	<path style="fill:none;stroke:red;stroke-width:1px;stroke-linecap:butt;stroke-linejoin:miter;stroke-opacity:1" d="M 596.108,30.8835 602.829,28.8672 z" id="boundary" inkscape:connector-curvature="0" />
	<path style="fill:none;stroke:red;stroke-width:1px;stroke-linecap:butt;stroke-linejoin:miter;stroke-opacity:1" d="M 596.108,30.8835 589.388,30.8835 z" id="boundary" inkscape:connector-curvature="0" />
	<path style="fill:none;stroke:red;stroke-width:1px;stroke-linecap:butt;stroke-linejoin:miter;stroke-opacity:1" d="M 609.55,27.523 602.829,28.8672 z" id="boundary" inkscape:connector-curvature="0" />
	<path style="fill:none;stroke:red;stroke-width:1px;stroke-linecap:butt;stroke-linejoin:miter;stroke-opacity:1" d="M 735.902,50.374 730.526,55.0786 z" id="boundary" inkscape:connector-curvature="0" />
	<path style="fill:none;stroke:red;stroke-width:1px;stroke-linecap:butt;stroke-linejoin:miter;stroke-opacity:1" d="M 730.526,55.0786 723.805,55.0786 z" id="boundary" inkscape:connector-curvature="0" />
	<path style="fill:none;stroke:red;stroke-width:1px;stroke-linecap:butt;stroke-linejoin:miter;stroke-opacity:1" d="M 727.165,61.1274 723.805,55.0786 z" id="boundary" inkscape:connector-curvature="0" />
	<path style="fill:none;stroke:red;stroke-width:1px;stroke-linecap:butt;stroke-linejoin:miter;stroke-opacity:1" d="M 742.623,47.0136 749.344,44.9973 z" id="boundary" inkscape:connector-curvature="0" />
	<path style="fill:none;stroke:red;stroke-width:1px;stroke-linecap:butt;stroke-linejoin:miter;stroke-opacity:1" d="M 742.623,47.0136 735.902,50.374 z" id="boundary" inkscape:connector-curvature="0" />
	<path style="fill:none;stroke:red;stroke-width:1px;stroke-linecap:butt;stroke-linejoin:miter;stroke-opacity:1" d="M 754.049,57.7669 747.328,57.7669 z" id="boundary" inkscape:connector-curvature="0" />
	<path style="fill:none;stroke:red;stroke-width:1px;stroke-linecap:butt;stroke-linejoin:miter;stroke-opacity:1" d="M 747.328,57.7669 740.607,59.1111 z" id="boundary" inkscape:connector-curvature="0" />
	<path style="fill:none;stroke:red;stroke-width:1px;stroke-linecap:butt;stroke-linejoin:miter;stroke-opacity:1" d="M 877.713,14.0813 884.434,14.0813 z" id="boundary" inkscape:connector-curvature="0" />
	<path style="fill:none;stroke:red;stroke-width:1px;stroke-linecap:butt;stroke-linejoin:miter;stroke-opacity:1" d="M 870.992,16.0976 877.713,14.0813 z" id="boundary" inkscape:connector-curvature="0" />
	<path style="fill:none;stroke:red;stroke-width:1px;stroke-linecap:butt;stroke-linejoin:miter;stroke-opacity:1" d="M 891.154,12.7371 884.434,14.0813 z" id="boundary" inkscape:connector-curvature="0" />
	<path style="fill:none;stroke:red;stroke-width:1px;stroke-linecap:butt;stroke-linejoin:miter;stroke-opacity:1" d="M 891.154,12.7371 897.875,10.7209 z" id="boundary" inkscape:connector-curvature="0" />
	<path style="fill:none;stroke:red;stroke-width:1px;stroke-linecap:butt;stroke-linejoin:miter;stroke-opacity:1" d="M 897.875,10.7209 904.596,10.7209 z" id="boundary" inkscape:connector-curvature="0" />
	<path style="fill:none;stroke:red;stroke-width:1px;stroke-linecap:butt;stroke-linejoin:miter;stroke-opacity:1" d="M 911.317,9.37669 904.596,10.7209 z" id="boundary" inkscape:connector-curvature="0" />
	<path style="fill:none;stroke:red;stroke-width:1px;stroke-linecap:butt;stroke-linejoin:miter;stroke-opacity:1" d="M 838.06,25.5068 831.339,28.8672 z" id="boundary" inkscape:connector-curvature="0" />
	<path style="fill:none;stroke:red;stroke-width:1px;stroke-linecap:butt;stroke-linejoin:miter;stroke-opacity:1" d="M 844.78,24.1626 850.829,19.458 z" id="boundary" inkscape:connector-curvature="0" />
	<path style="fill:none;stroke:red;stroke-width:1px;stroke-linecap:butt;stroke-linejoin:miter;stroke-opacity:1" d="M 850.829,19.458 857.55,17.4417 z" id="boundary" inkscape:connector-curvature="0" />
	<path style="fill:none;stroke:red;stroke-width:1px;stroke-linecap:butt;stroke-linejoin:miter;stroke-opacity:1" d="M 844.78,24.1626 838.06,25.5068 z" id="boundary" inkscape:connector-curvature="0" />
	<path style="fill:none;stroke:red;stroke-width:1px;stroke-linecap:butt;stroke-linejoin:miter;stroke-opacity:1" d="M 870.992,16.0976 864.271,17.4417 z" id="boundary" inkscape:connector-curvature="0" />
	<path style="fill:none;stroke:red;stroke-width:1px;stroke-linecap:butt;stroke-linejoin:miter;stroke-opacity:1" d="M 864.271,17.4417 857.55,17.4417 z" id="boundary" inkscape:connector-curvature="0" />
	<path style="fill:none;stroke:red;stroke-width:1px;stroke-linecap:butt;stroke-linejoin:miter;stroke-opacity:1" d="M 918.038,7.36043 924.759,7.36043 z" id="boundary" inkscape:connector-curvature="0" />
	<path style="fill:none;stroke:red;stroke-width:1px;stroke-linecap:butt;stroke-linejoin:miter;stroke-opacity:1" d="M 911.317,9.37669 918.038,7.36043 z" id="boundary" inkscape:connector-curvature="0" />
	<path style="fill:none;stroke:red;stroke-width:1px;stroke-linecap:butt;stroke-linejoin:miter;stroke-opacity:1" d="M 930.808,4 924.759,7.36043 z" id="boundary" inkscape:connector-curvature="0" />
	<path style="fill:none;stroke:red;stroke-width:1px;stroke-linecap:butt;stroke-linejoin:miter;stroke-opacity:1" d="M 937.528,4.67209 944.249,7.36043 z" id="boundary" inkscape:connector-curvature="0" />
	<path style="fill:none;stroke:red;stroke-width:1px;stroke-linecap:butt;stroke-linejoin:miter;stroke-opacity:1" d="M 950.97,7.36043 944.249,7.36043 z" id="boundary" inkscape:connector-curvature="0" />
	<path style="fill:none;stroke:red;stroke-width:1px;stroke-linecap:butt;stroke-linejoin:miter;stroke-opacity:1" d="M 930.808,4 937.528,4.67209 z" id="boundary" inkscape:connector-curvature="0" />
	<path style="fill:none;stroke:red;stroke-width:1px;stroke-linecap:butt;stroke-linejoin:miter;stroke-opacity:1" d="M 957.019,10.7209 963.068,14.0813 z" id="boundary" inkscape:connector-curvature="0" />
	<path style="fill:none;stroke:red;stroke-width:1px;stroke-linecap:butt;stroke-linejoin:miter;stroke-opacity:1" d="M 950.97,7.36043 957.019,10.7209 z" id="boundary" inkscape:connector-curvature="0" />
	<path style="fill:none;stroke:red;stroke-width:1px;stroke-linecap:butt;stroke-linejoin:miter;stroke-opacity:1" d="M 963.068,14.0813 969.117,17.4417 z" id="boundary" inkscape:connector-curvature="0" />
	<path style="fill:none;stroke:red;stroke-width:1px;stroke-linecap:butt;stroke-linejoin:miter;stroke-opacity:1" d="M 969.117,17.4417 974.493,21.4743 z" id="boundary" inkscape:connector-curvature="0" />
	<path style="fill:none;stroke:red;stroke-width:1px;stroke-linecap:butt;stroke-linejoin:miter;stroke-opacity:1" d="M 974.493,21.4743 977.182,28.1951 z" id="boundary" inkscape:connector-curvature="0" />
	<path style="fill:none;stroke:red;stroke-width:1px;stroke-linecap:butt;stroke-linejoin:miter;stroke-opacity:1" d="M 755.393,40.9648 762.114,37.6043 z" id="boundary" inkscape:connector-curvature="0" />
	<path style="fill:none;stroke:red;stroke-width:1px;stroke-linecap:butt;stroke-linejoin:miter;stroke-opacity:1" d="M 799.079,44.3252 793.03,47.6856 z" id="boundary" inkscape:connector-curvature="0" />
	<path style="fill:none;stroke:red;stroke-width:1px;stroke-linecap:butt;stroke-linejoin:miter;stroke-opacity:1" d="M 805.799,40.9648 799.079,44.3252 z" id="boundary" inkscape:connector-curvature="0" />
	<path style="fill:none;stroke:red;stroke-width:1px;stroke-linecap:butt;stroke-linejoin:miter;stroke-opacity:1" d="M 762.114,37.6043 764.13,30.2114 z" id="boundary" inkscape:connector-curvature="0" />
	<path style="fill:none;stroke:red;stroke-width:1px;stroke-linecap:butt;stroke-linejoin:miter;stroke-opacity:1" d="M 759.425,24.8347 764.13,30.2114 z" id="boundary" inkscape:connector-curvature="0" />
	<path style="fill:none;stroke:red;stroke-width:1px;stroke-linecap:butt;stroke-linejoin:miter;stroke-opacity:1" d="M 754.049,57.7669 760.77,55.7507 z" id="boundary" inkscape:connector-curvature="0" />
	<path style="fill:none;stroke:red;stroke-width:1px;stroke-linecap:butt;stroke-linejoin:miter;stroke-opacity:1" d="M 767.491,54.4065 760.77,55.7507 z" id="boundary" inkscape:connector-curvature="0" />
	<path style="fill:none;stroke:red;stroke-width:1px;stroke-linecap:butt;stroke-linejoin:miter;stroke-opacity:1" d="M 767.491,54.4065 774.211,54.4065 z" id="boundary" inkscape:connector-curvature="0" />
	<path style="fill:none;stroke:red;stroke-width:1px;stroke-linecap:butt;stroke-linejoin:miter;stroke-opacity:1" d="M 774.211,54.4065 780.26,51.0461 z" id="boundary" inkscape:connector-curvature="0" />
	<path style="fill:none;stroke:red;stroke-width:1px;stroke-linecap:butt;stroke-linejoin:miter;stroke-opacity:1" d="M 780.26,51.0461 786.981,51.0461 z" id="boundary" inkscape:connector-curvature="0" />
	<path style="fill:none;stroke:red;stroke-width:1px;stroke-linecap:butt;stroke-linejoin:miter;stroke-opacity:1" d="M 793.03,47.6856 786.981,51.0461 z" id="boundary" inkscape:connector-curvature="0" />
	<path style="fill:none;stroke:red;stroke-width:1px;stroke-linecap:butt;stroke-linejoin:miter;stroke-opacity:1" d="M 812.52,40.9648 817.897,35.5881 z" id="boundary" inkscape:connector-curvature="0" />
	<path style="fill:none;stroke:red;stroke-width:1px;stroke-linecap:butt;stroke-linejoin:miter;stroke-opacity:1" d="M 817.897,35.5881 824.618,32.2276 z" id="boundary" inkscape:connector-curvature="0" />
	<path style="fill:none;stroke:red;stroke-width:1px;stroke-linecap:butt;stroke-linejoin:miter;stroke-opacity:1" d="M 982.558,32.8997 977.182,28.1951 z" id="boundary" inkscape:connector-curvature="0" />
	<path style="fill:none;stroke:red;stroke-width:1px;stroke-linecap:butt;stroke-linejoin:miter;stroke-opacity:1" d="M 812.52,40.9648 805.799,40.9648 z" id="boundary" inkscape:connector-curvature="0" />
	<path style="fill:none;stroke:red;stroke-width:1px;stroke-linecap:butt;stroke-linejoin:miter;stroke-opacity:1" d="M 982.558,32.8997 987.263,38.2764 z" id="boundary" inkscape:connector-curvature="0" />
	<path style="fill:none;stroke:red;stroke-width:1px;stroke-linecap:butt;stroke-linejoin:miter;stroke-opacity:1" d="M 824.618,32.2276 831.339,28.8672 z" id="boundary" inkscape:connector-curvature="0" />
	<path style="fill:none;stroke:red;stroke-width:1px;stroke-linecap:butt;stroke-linejoin:miter;stroke-opacity:1" d="M 992.64,42.981 992.64,49.7019 z" id="boundary" inkscape:connector-curvature="0" />
	<path style="fill:none;stroke:red;stroke-width:1px;stroke-linecap:butt;stroke-linejoin:miter;stroke-opacity:1" d="M 987.263,38.2764 992.64,42.981 z" id="boundary" inkscape:connector-curvature="0" />
	<path style="fill:none;stroke:red;stroke-width:1px;stroke-linecap:butt;stroke-linejoin:miter;stroke-opacity:1" d="M 992.64,56.4228 992.64,49.7019 z" id="boundary" inkscape:connector-curvature="0" />
	<path style="fill:none;stroke:red;stroke-width:1px;stroke-linecap:butt;stroke-linejoin:miter;stroke-opacity:1" d="M 759.425,24.8347 754.049,20.8022 z" id="boundary" inkscape:connector-curvature="0" />
	<path style="fill:none;stroke:red;stroke-width:1px;stroke-linecap:butt;stroke-linejoin:miter;stroke-opacity:1" d="M 992.64,56.4228 992.64,63.1436 z" id="boundary" inkscape:connector-curvature="0" />
	<path style="fill:none;stroke:red;stroke-width:1px;stroke-linecap:butt;stroke-linejoin:miter;stroke-opacity:1" d="M 702.97,189.496 709.691,189.496 z" id="boundary" inkscape:connector-curvature="0" />
	<path style="fill:none;stroke:red;stroke-width:1px;stroke-linecap:butt;stroke-linejoin:miter;stroke-opacity:1" d="M 696.921,192.856 702.97,189.496 z" id="boundary" inkscape:connector-curvature="0" />
	<path style="fill:none;stroke:red;stroke-width:1px;stroke-linecap:butt;stroke-linejoin:miter;stroke-opacity:1" d="M 715.74,186.136 709.691,189.496 z" id="boundary" inkscape:connector-curvature="0" />
	<path style="fill:none;stroke:red;stroke-width:1px;stroke-linecap:butt;stroke-linejoin:miter;stroke-opacity:1" d="M 721.789,182.775 715.74,186.136 z" id="boundary" inkscape:connector-curvature="0" />
	<path style="fill:none;stroke:red;stroke-width:1px;stroke-linecap:butt;stroke-linejoin:miter;stroke-opacity:1" d="M 721.789,182.775 728.509,182.103 z" id="boundary" inkscape:connector-curvature="0" />
	<path style="fill:none;stroke:red;stroke-width:1px;stroke-linecap:butt;stroke-linejoin:miter;stroke-opacity:1" d="M 664.661,199.577 657.94,199.577 z" id="boundary" inkscape:connector-curvature="0" />
	<path style="fill:none;stroke:red;stroke-width:1px;stroke-linecap:butt;stroke-linejoin:miter;stroke-opacity:1" d="M 671.382,199.577 664.661,199.577 z" id="boundary" inkscape:connector-curvature="0" />
	<path style="fill:none;stroke:red;stroke-width:1px;stroke-linecap:butt;stroke-linejoin:miter;stroke-opacity:1" d="M 677.431,196.217 671.382,199.577 z" id="boundary" inkscape:connector-curvature="0" />
	<path style="fill:none;stroke:red;stroke-width:1px;stroke-linecap:butt;stroke-linejoin:miter;stroke-opacity:1" d="M 651.892,202.938 657.94,199.577 z" id="boundary" inkscape:connector-curvature="0" />
	<path style="fill:none;stroke:red;stroke-width:1px;stroke-linecap:butt;stroke-linejoin:miter;stroke-opacity:1" d="M 696.921,192.856 690.873,196.217 z" id="boundary" inkscape:connector-curvature="0" />
	<path style="fill:none;stroke:red;stroke-width:1px;stroke-linecap:butt;stroke-linejoin:miter;stroke-opacity:1" d="M 690.873,196.217 684.152,196.217 z" id="boundary" inkscape:connector-curvature="0" />
	<path style="fill:none;stroke:red;stroke-width:1px;stroke-linecap:butt;stroke-linejoin:miter;stroke-opacity:1" d="M 684.152,196.217 677.431,196.217 z" id="boundary" inkscape:connector-curvature="0" />
	<path style="fill:none;stroke:red;stroke-width:1px;stroke-linecap:butt;stroke-linejoin:miter;stroke-opacity:1" d="M 733.886,61.1274 740.607,59.1111 z" id="boundary" inkscape:connector-curvature="0" />
	<path style="fill:none;stroke:red;stroke-width:1px;stroke-linecap:butt;stroke-linejoin:miter;stroke-opacity:1" d="M 733.886,61.1274 727.165,61.1274 z" id="boundary" inkscape:connector-curvature="0" />
	<path style="fill:none;stroke:red;stroke-width:1px;stroke-linecap:butt;stroke-linejoin:miter;stroke-opacity:1" d="M 743.967,149.171 750.016,145.81 z" id="boundary" inkscape:connector-curvature="0" />
	<path style="fill:none;stroke:red;stroke-width:1px;stroke-linecap:butt;stroke-linejoin:miter;stroke-opacity:1" d="M 750.016,145.81 756.737,145.81 z" id="boundary" inkscape:connector-curvature="0" />
	<path style="fill:none;stroke:red;stroke-width:1px;stroke-linecap:butt;stroke-linejoin:miter;stroke-opacity:1" d="M 728.509,182.103 735.23,179.415 z" id="boundary" inkscape:connector-curvature="0" />
	<path style="fill:none;stroke:red;stroke-width:1px;stroke-linecap:butt;stroke-linejoin:miter;stroke-opacity:1" d="M 735.23,179.415 741.951,178.743 z" id="boundary" inkscape:connector-curvature="0" />
	<path style="fill:none;stroke:red;stroke-width:1px;stroke-linecap:butt;stroke-linejoin:miter;stroke-opacity:1" d="M 755.393,172.694 748.672,175.382 z" id="boundary" inkscape:connector-curvature="0" />
	<path style="fill:none;stroke:red;stroke-width:1px;stroke-linecap:butt;stroke-linejoin:miter;stroke-opacity:1" d="M 748.672,175.382 741.951,178.743 z" id="boundary" inkscape:connector-curvature="0" />
	<path style="fill:none;stroke:red;stroke-width:1px;stroke-linecap:butt;stroke-linejoin:miter;stroke-opacity:1" d="M 753.377,151.859 759.425,155.22 z" id="boundary" inkscape:connector-curvature="0" />
	<path style="fill:none;stroke:red;stroke-width:1px;stroke-linecap:butt;stroke-linejoin:miter;stroke-opacity:1" d="M 515.458,219.74 521.507,223.1 z" id="boundary" inkscape:connector-curvature="0" />
	<path style="fill:none;stroke:red;stroke-width:1px;stroke-linecap:butt;stroke-linejoin:miter;stroke-opacity:1" d="M 528.228,223.1 521.507,223.1 z" id="boundary" inkscape:connector-curvature="0" />
	<path style="fill:none;stroke:red;stroke-width:1px;stroke-linecap:butt;stroke-linejoin:miter;stroke-opacity:1" d="M 574.602,225.117 581.322,221.756 z" id="boundary" inkscape:connector-curvature="0" />
	<path style="fill:none;stroke:red;stroke-width:1px;stroke-linecap:butt;stroke-linejoin:miter;stroke-opacity:1" d="M 528.228,223.1 534.276,226.461 z" id="boundary" inkscape:connector-curvature="0" />
	<path style="fill:none;stroke:red;stroke-width:1px;stroke-linecap:butt;stroke-linejoin:miter;stroke-opacity:1" d="M 574.602,225.117 567.881,226.461 z" id="boundary" inkscape:connector-curvature="0" />
	<path style="fill:none;stroke:red;stroke-width:1px;stroke-linecap:butt;stroke-linejoin:miter;stroke-opacity:1" d="M 534.276,226.461 540.997,226.461 z" id="boundary" inkscape:connector-curvature="0" />
	<path style="fill:none;stroke:red;stroke-width:1px;stroke-linecap:butt;stroke-linejoin:miter;stroke-opacity:1" d="M 547.718,226.461 540.997,226.461 z" id="boundary" inkscape:connector-curvature="0" />
	<path style="fill:none;stroke:red;stroke-width:1px;stroke-linecap:butt;stroke-linejoin:miter;stroke-opacity:1" d="M 554.439,226.461 561.16,226.461 z" id="boundary" inkscape:connector-curvature="0" />
	<path style="fill:none;stroke:red;stroke-width:1px;stroke-linecap:butt;stroke-linejoin:miter;stroke-opacity:1" d="M 567.881,226.461 561.16,226.461 z" id="boundary" inkscape:connector-curvature="0" />
	<path style="fill:none;stroke:red;stroke-width:1px;stroke-linecap:butt;stroke-linejoin:miter;stroke-opacity:1" d="M 554.439,226.461 547.718,226.461 z" id="boundary" inkscape:connector-curvature="0" />
	<path style="fill:none;stroke:red;stroke-width:1px;stroke-linecap:butt;stroke-linejoin:miter;stroke-opacity:1" d="M 639.122,206.298 633.073,209.659 z" id="boundary" inkscape:connector-curvature="0" />
	<path style="fill:none;stroke:red;stroke-width:1px;stroke-linecap:butt;stroke-linejoin:miter;stroke-opacity:1" d="M 633.073,209.659 626.352,209.659 z" id="boundary" inkscape:connector-curvature="0" />
	<path style="fill:none;stroke:red;stroke-width:1px;stroke-linecap:butt;stroke-linejoin:miter;stroke-opacity:1" d="M 639.122,206.298 645.843,206.298 z" id="boundary" inkscape:connector-curvature="0" />
	<path style="fill:none;stroke:red;stroke-width:1px;stroke-linecap:butt;stroke-linejoin:miter;stroke-opacity:1" d="M 620.304,213.019 626.352,209.659 z" id="boundary" inkscape:connector-curvature="0" />
	<path style="fill:none;stroke:red;stroke-width:1px;stroke-linecap:butt;stroke-linejoin:miter;stroke-opacity:1" d="M 645.843,206.298 651.892,202.938 z" id="boundary" inkscape:connector-curvature="0" />
	<path style="fill:none;stroke:red;stroke-width:1px;stroke-linecap:butt;stroke-linejoin:miter;stroke-opacity:1" d="M 600.813,216.379 594.764,219.74 z" id="boundary" inkscape:connector-curvature="0" />
	<path style="fill:none;stroke:red;stroke-width:1px;stroke-linecap:butt;stroke-linejoin:miter;stroke-opacity:1" d="M 594.764,219.74 588.043,219.74 z" id="boundary" inkscape:connector-curvature="0" />
	<path style="fill:none;stroke:red;stroke-width:1px;stroke-linecap:butt;stroke-linejoin:miter;stroke-opacity:1" d="M 588.043,219.74 581.322,221.756 z" id="boundary" inkscape:connector-curvature="0" />
	<path style="fill:none;stroke:red;stroke-width:1px;stroke-linecap:butt;stroke-linejoin:miter;stroke-opacity:1" d="M 600.813,216.379 607.534,216.379 z" id="boundary" inkscape:connector-curvature="0" />
	<path style="fill:none;stroke:red;stroke-width:1px;stroke-linecap:butt;stroke-linejoin:miter;stroke-opacity:1" d="M 620.304,213.019 614.255,216.379 z" id="boundary" inkscape:connector-curvature="0" />
	<path style="fill:none;stroke:red;stroke-width:1px;stroke-linecap:butt;stroke-linejoin:miter;stroke-opacity:1" d="M 614.255,216.379 607.534,216.379 z" id="boundary" inkscape:connector-curvature="0" />
	<path style="fill:none;stroke:red;stroke-width:1px;stroke-linecap:butt;stroke-linejoin:miter;stroke-opacity:1" d="M 935.512,135.729 928.791,139.089 z" id="boundary" inkscape:connector-curvature="0" />
	<path style="fill:none;stroke:red;stroke-width:1px;stroke-linecap:butt;stroke-linejoin:miter;stroke-opacity:1" d="M 928.791,139.089 922.07,139.089 z" id="boundary" inkscape:connector-curvature="0" />
	<path style="fill:none;stroke:red;stroke-width:1px;stroke-linecap:butt;stroke-linejoin:miter;stroke-opacity:1" d="M 942.233,132.369 935.512,135.729 z" id="boundary" inkscape:connector-curvature="0" />
	<path style="fill:none;stroke:red;stroke-width:1px;stroke-linecap:butt;stroke-linejoin:miter;stroke-opacity:1" d="M 955.675,129.008 948.954,132.369 z" id="boundary" inkscape:connector-curvature="0" />
	<path style="fill:none;stroke:red;stroke-width:1px;stroke-linecap:butt;stroke-linejoin:miter;stroke-opacity:1" d="M 948.954,132.369 942.233,132.369 z" id="boundary" inkscape:connector-curvature="0" />
	<path style="fill:none;stroke:red;stroke-width:1px;stroke-linecap:butt;stroke-linejoin:miter;stroke-opacity:1" d="M 961.724,125.648 955.675,129.008 z" id="boundary" inkscape:connector-curvature="0" />
	<path style="fill:none;stroke:red;stroke-width:1px;stroke-linecap:butt;stroke-linejoin:miter;stroke-opacity:1" d="M 829.995,142.45 823.274,144.466 z" id="boundary" inkscape:connector-curvature="0" />
	<path style="fill:none;stroke:red;stroke-width:1px;stroke-linecap:butt;stroke-linejoin:miter;stroke-opacity:1" d="M 915.35,142.45 922.07,139.089 z" id="boundary" inkscape:connector-curvature="0" />
	<path style="fill:none;stroke:red;stroke-width:1px;stroke-linecap:butt;stroke-linejoin:miter;stroke-opacity:1" d="M 888.466,143.794 881.745,142.45 z" id="boundary" inkscape:connector-curvature="0" />
	<path style="fill:none;stroke:red;stroke-width:1px;stroke-linecap:butt;stroke-linejoin:miter;stroke-opacity:1" d="M 908.629,142.45 901.908,142.45 z" id="boundary" inkscape:connector-curvature="0" />
	<path style="fill:none;stroke:red;stroke-width:1px;stroke-linecap:butt;stroke-linejoin:miter;stroke-opacity:1" d="M 868.976,144.466 862.255,142.45 z" id="boundary" inkscape:connector-curvature="0" />
	<path style="fill:none;stroke:red;stroke-width:1px;stroke-linecap:butt;stroke-linejoin:miter;stroke-opacity:1" d="M 810.504,142.45 803.783,143.794 z" id="boundary" inkscape:connector-curvature="0" />
	<path style="fill:none;stroke:red;stroke-width:1px;stroke-linecap:butt;stroke-linejoin:miter;stroke-opacity:1" d="M 992.64,85.3225 989.279,92.0434 z" id="boundary" inkscape:connector-curvature="0" />
	<path style="fill:none;stroke:red;stroke-width:1px;stroke-linecap:butt;stroke-linejoin:miter;stroke-opacity:1" d="M 989.279,92.0434 985.919,98.7642 z" id="boundary" inkscape:connector-curvature="0" />
	<path style="fill:none;stroke:red;stroke-width:1px;stroke-linecap:butt;stroke-linejoin:miter;stroke-opacity:1" d="M 995.328,69.8645 996,76.5854 z" id="boundary" inkscape:connector-curvature="0" />
	<path style="fill:none;stroke:red;stroke-width:1px;stroke-linecap:butt;stroke-linejoin:miter;stroke-opacity:1" d="M 996,76.5854 992.64,85.3225 z" id="boundary" inkscape:connector-curvature="0" />
	<path style="fill:none;stroke:red;stroke-width:1px;stroke-linecap:butt;stroke-linejoin:miter;stroke-opacity:1" d="M 992.64,63.1436 995.328,69.8645 z" id="boundary" inkscape:connector-curvature="0" />
	<path style="fill:none;stroke:red;stroke-width:1px;stroke-linecap:butt;stroke-linejoin:miter;stroke-opacity:1" d="M 975.165,120.271 968.444,123.631 z" id="boundary" inkscape:connector-curvature="0" />
	<path style="fill:none;stroke:red;stroke-width:1px;stroke-linecap:butt;stroke-linejoin:miter;stroke-opacity:1" d="M 968.444,123.631 961.724,125.648 z" id="boundary" inkscape:connector-curvature="0" />
	<path style="fill:none;stroke:red;stroke-width:1px;stroke-linecap:butt;stroke-linejoin:miter;stroke-opacity:1" d="M 983.902,108.173 980.542,114.894 z" id="boundary" inkscape:connector-curvature="0" />
	<path style="fill:none;stroke:red;stroke-width:1px;stroke-linecap:butt;stroke-linejoin:miter;stroke-opacity:1" d="M 980.542,114.894 975.165,120.271 z" id="boundary" inkscape:connector-curvature="0" />
	<path style="fill:none;stroke:red;stroke-width:1px;stroke-linecap:butt;stroke-linejoin:miter;stroke-opacity:1" d="M 985.919,98.7642 983.902,108.173 z" id="boundary" inkscape:connector-curvature="0" />
	<path style="fill:none;stroke:red;stroke-width:1px;stroke-linecap:butt;stroke-linejoin:miter;stroke-opacity:1" d="M 763.458,145.81 770.179,145.81 z" id="boundary" inkscape:connector-curvature="0" />
	<path style="fill:none;stroke:red;stroke-width:1px;stroke-linecap:butt;stroke-linejoin:miter;stroke-opacity:1" d="M 763.458,145.81 756.737,145.81 z" id="boundary" inkscape:connector-curvature="0" />
	<path style="fill:none;stroke:red;stroke-width:1px;stroke-linecap:butt;stroke-linejoin:miter;stroke-opacity:1" d="M 776.9,145.81 770.179,145.81 z" id="boundary" inkscape:connector-curvature="0" />
	<path style="fill:none;stroke:red;stroke-width:1px;stroke-linecap:butt;stroke-linejoin:miter;stroke-opacity:1" d="M 783.621,145.81 776.9,145.81 z" id="boundary" inkscape:connector-curvature="0" />
	<path style="fill:none;stroke:red;stroke-width:1px;stroke-linecap:butt;stroke-linejoin:miter;stroke-opacity:1" d="M 790.341,145.81 783.621,145.81 z" id="boundary" inkscape:connector-curvature="0" />
	<path style="fill:none;stroke:red;stroke-width:1px;stroke-linecap:butt;stroke-linejoin:miter;stroke-opacity:1" d="M 767.491,165.973 761.442,169.333 z" id="boundary" inkscape:connector-curvature="0" />
	<path style="fill:none;stroke:red;stroke-width:1px;stroke-linecap:butt;stroke-linejoin:miter;stroke-opacity:1" d="M 766.146,155.22 767.491,165.973 z" id="boundary" inkscape:connector-curvature="0" />
	<path style="fill:none;stroke:red;stroke-width:1px;stroke-linecap:butt;stroke-linejoin:miter;stroke-opacity:1" d="M 761.442,169.333 755.393,172.694 z" id="boundary" inkscape:connector-curvature="0" />
	<path style="fill:none;stroke:red;stroke-width:1px;stroke-linecap:butt;stroke-linejoin:miter;stroke-opacity:1" d="M 790.341,145.81 797.062,145.81 z" id="boundary" inkscape:connector-curvature="0" />
	<path style="fill:none;stroke:red;stroke-width:1px;stroke-linecap:butt;stroke-linejoin:miter;stroke-opacity:1" d="M 803.783,143.794 797.062,145.81 z" id="boundary" inkscape:connector-curvature="0" />
	<path style="fill:none;stroke:red;stroke-width:1px;stroke-linecap:butt;stroke-linejoin:miter;stroke-opacity:1" d="M 816.553,145.81 823.274,144.466 z" id="boundary" inkscape:connector-curvature="0" />
	<path style="fill:none;stroke:red;stroke-width:1px;stroke-linecap:butt;stroke-linejoin:miter;stroke-opacity:1" d="M 810.504,142.45 816.553,145.81 z" id="boundary" inkscape:connector-curvature="0" />
	<path style="fill:none;stroke:red;stroke-width:1px;stroke-linecap:butt;stroke-linejoin:miter;stroke-opacity:1" d="M 856.206,145.81 862.255,142.45 z" id="boundary" inkscape:connector-curvature="0" />
	<path style="fill:none;stroke:red;stroke-width:1px;stroke-linecap:butt;stroke-linejoin:miter;stroke-opacity:1" d="M 849.485,145.81 842.764,145.81 z" id="boundary" inkscape:connector-curvature="0" />
	<path style="fill:none;stroke:red;stroke-width:1px;stroke-linecap:butt;stroke-linejoin:miter;stroke-opacity:1" d="M 901.908,142.45 895.187,145.81 z" id="boundary" inkscape:connector-curvature="0" />
	<path style="fill:none;stroke:red;stroke-width:1px;stroke-linecap:butt;stroke-linejoin:miter;stroke-opacity:1" d="M 895.187,145.81 888.466,143.794 z" id="boundary" inkscape:connector-curvature="0" />
	<path style="fill:none;stroke:red;stroke-width:1px;stroke-linecap:butt;stroke-linejoin:miter;stroke-opacity:1" d="M 875.696,145.81 881.745,142.45 z" id="boundary" inkscape:connector-curvature="0" />
	<path style="fill:none;stroke:red;stroke-width:1px;stroke-linecap:butt;stroke-linejoin:miter;stroke-opacity:1" d="M 915.35,142.45 908.629,142.45 z" id="boundary" inkscape:connector-curvature="0" />
	<path style="fill:none;stroke:red;stroke-width:1px;stroke-linecap:butt;stroke-linejoin:miter;stroke-opacity:1" d="M 875.696,145.81 868.976,144.466 z" id="boundary" inkscape:connector-curvature="0" />
	<path style="fill:none;stroke:red;stroke-width:1px;stroke-linecap:butt;stroke-linejoin:miter;stroke-opacity:1" d="M 836.043,145.81 842.764,145.81 z" id="boundary" inkscape:connector-curvature="0" />
	<path style="fill:none;stroke:red;stroke-width:1px;stroke-linecap:butt;stroke-linejoin:miter;stroke-opacity:1" d="M 829.995,142.45 836.043,145.81 z" id="boundary" inkscape:connector-curvature="0" />
	<path style="fill:none;stroke:red;stroke-width:1px;stroke-linecap:butt;stroke-linejoin:miter;stroke-opacity:1" d="M 856.206,145.81 849.485,145.81 z" id="boundary" inkscape:connector-curvature="0" />
	<circle cx="4" cy="221.084" r="4" fill="#0" id="circle0"/>
	<circle cx="4" cy="227.805" r="4" fill="#0" id="circle1"/>
	<circle cx="7.36043" cy="233.854" r="4" fill="#0" id="circle2"/>
	<circle cx="9.37669" cy="215.707" r="4" fill="#0" id="circle3"/>
	<circle cx="12.065" cy="239.23" r="4" fill="#0" id="circle4"/>
	<circle cx="14.7534" cy="210.331" r="4" fill="#0" id="circle5"/>
	<circle cx="17.4417" cy="243.263" r="4" fill="#0" id="circle6"/>
	<circle cx="20.1301" cy="205.626" r="4" fill="#0" id="circle7"/>
	<circle cx="22.8184" cy="198.905" r="4" fill="#0" id="circle8"/>
	<circle cx="23.4905" cy="246.623" r="4" fill="#0" id="circle9"/>
	<circle cx="26.1789" cy="192.184" r="4" fill="#0" id="circle10"/>
	<circle cx="29.5393" cy="249.984" r="4" fill="#0" id="circle11"/>
	<circle cx="32.8997" cy="192.184" r="4" fill="#0" id="circle12"/>
	<circle cx="34.916" cy="254.688" r="4" fill="#0" id="circle13"/>
	<circle cx="38.2764" cy="186.808" r="4" fill="#0" id="circle14"/>
	<circle cx="41.6369" cy="256.705" r="4" fill="#0" id="circle15"/>
	<circle cx="43.6531" cy="182.103" r="4" fill="#0" id="circle16"/>
	<circle cx="47.6856" cy="260.065" r="4" fill="#0" id="circle17"/>
	<circle cx="50.374" cy="182.103" r="4" fill="#0" id="circle18"/>
	<circle cx="53.7344" cy="263.425" r="4" fill="#0" id="circle19"/>
	<circle cx="56.4228" cy="178.743" r="4" fill="#0" id="circle20"/>
	<circle cx="60.4553" cy="263.425" r="4" fill="#0" id="circle21"/>
	<circle cx="63.1436" cy="175.382" r="4" fill="#0" id="circle22"/>
	<circle cx="67.1762" cy="263.425" r="4" fill="#0" id="circle23"/>
	<circle cx="69.8645" cy="172.022" r="4" fill="#0" id="circle24"/>
	<circle cx="73.897" cy="263.425" r="4" fill="#0" id="circle25"/>
	<circle cx="76.5854" cy="168.661" r="4" fill="#0" id="circle26"/>
	<circle cx="80.6179" cy="263.425" r="4" fill="#0" id="circle27"/>
	<circle cx="82.6341" cy="172.022" r="4" fill="#0" id="circle28"/>
	<circle cx="86.6667" cy="266.786" r="4" fill="#0" id="circle29"/>
	<circle cx="89.355" cy="172.022" r="4" fill="#0" id="circle30"/>
	<circle cx="93.3875" cy="266.786" r="4" fill="#0" id="circle31"/>
	<circle cx="95.4038" cy="168.661" r="4" fill="#0" id="circle32"/>
	<circle cx="100.108" cy="266.786" r="4" fill="#0" id="circle33"/>
	<circle cx="102.125" cy="168.661" r="4" fill="#0" id="circle34"/>
	<circle cx="106.829" cy="266.786" r="4" fill="#0" id="circle35"/>
	<circle cx="108.846" cy="166.645" r="4" fill="#0" id="circle36"/>
	<circle cx="113.55" cy="266.786" r="4" fill="#0" id="circle37"/>
	<circle cx="115.566" cy="163.285" r="4" fill="#0" id="circle38"/>
	<circle cx="120.271" cy="266.786" r="4" fill="#0" id="circle39"/>
	<circle cx="122.287" cy="161.94" r="4" fill="#0" id="circle40"/>
	<circle cx="126.992" cy="266.786" r="4" fill="#0" id="circle41"/>
	<circle cx="129.008" cy="161.94" r="4" fill="#0" id="circle42"/>
	<circle cx="133.713" cy="269.474" r="4" fill="#0" id="circle43"/>
	<circle cx="135.057" cy="157.236" r="4" fill="#0" id="circle44"/>
	<circle cx="140.434" cy="269.474" r="4" fill="#0" id="circle45"/>
	<circle cx="141.778" cy="155.22" r="4" fill="#0" id="circle46"/>
	<circle cx="147.154" cy="266.786" r="4" fill="#0" id="circle47"/>
	<circle cx="148.499" cy="153.875" r="4" fill="#0" id="circle48"/>
	<circle cx="153.875" cy="266.786" r="4" fill="#0" id="circle49"/>
	<circle cx="155.22" cy="151.859" r="4" fill="#0" id="circle50"/>
	<circle cx="160.596" cy="266.786" r="4" fill="#0" id="circle51"/>
	<circle cx="161.94" cy="151.859" r="4" fill="#0" id="circle52"/>
	<circle cx="167.317" cy="266.786" r="4" fill="#0" id="circle53"/>
	<circle cx="168.661" cy="150.515" r="4" fill="#0" id="circle54"/>
	<circle cx="174.038" cy="266.786" r="4" fill="#0" id="circle55"/>
	<circle cx="175.382" cy="148.499" r="4" fill="#0" id="circle56"/>
	<circle cx="180.087" cy="263.425" r="4" fill="#0" id="circle57"/>
	<circle cx="182.103" cy="148.499" r="4" fill="#0" id="circle58"/>
	<circle cx="186.808" cy="263.425" r="4" fill="#0" id="circle59"/>
	<circle cx="188.152" cy="145.138" r="4" fill="#0" id="circle60"/>
	<circle cx="193.528" cy="263.425" r="4" fill="#0" id="circle61"/>
	<circle cx="194.873" cy="145.138" r="4" fill="#0" id="circle62"/>
	<circle cx="199.577" cy="260.065" r="4" fill="#0" id="circle63"/>
	<circle cx="200.921" cy="141.778" r="4" fill="#0" id="circle64"/>
	<circle cx="206.298" cy="260.065" r="4" fill="#0" id="circle65"/>
	<circle cx="207.642" cy="138.417" r="4" fill="#0" id="circle66"/>
	<circle cx="213.019" cy="260.065" r="4" fill="#0" id="circle67"/>
	<circle cx="214.363" cy="138.417" r="4" fill="#0" id="circle68"/>
	<circle cx="219.068" cy="256.705" r="4" fill="#0" id="circle69"/>
	<circle cx="221.084" cy="138.417" r="4" fill="#0" id="circle70"/>
	<circle cx="225.789" cy="256.705" r="4" fill="#0" id="circle71"/>
	<circle cx="227.133" cy="135.057" r="4" fill="#0" id="circle72"/>
	<circle cx="229.821" cy="262.081" r="4" fill="#0" id="circle73"/>
	<circle cx="233.854" cy="135.057" r="4" fill="#0" id="circle74"/>
	<circle cx="236.542" cy="264.77" r="4" fill="#0" id="circle75"/>
	<circle cx="240.575" cy="135.057" r="4" fill="#0" id="circle76"/>
	<circle cx="241.247" cy="270.146" r="4" fill="#0" id="circle77"/>
	<circle cx="246.623" cy="274.851" r="4" fill="#0" id="circle78"/>
	<circle cx="247.295" cy="132.369" r="4" fill="#0" id="circle79"/>
	<circle cx="251.328" cy="280.228" r="4" fill="#0" id="circle80"/>
	<circle cx="254.016" cy="131.696" r="4" fill="#0" id="circle81"/>
	<circle cx="258.049" cy="280.228" r="4" fill="#0" id="circle82"/>
	<circle cx="260.737" cy="131.696" r="4" fill="#0" id="circle83"/>
	<circle cx="263.425" cy="284.932" r="4" fill="#0" id="circle84"/>
	<circle cx="267.458" cy="129.008" r="4" fill="#0" id="circle85"/>
	<circle cx="270.146" cy="286.949" r="4" fill="#0" id="circle86"/>
	<circle cx="274.179" cy="128.336" r="4" fill="#0" id="circle87"/>
	<circle cx="276.867" cy="283.588" r="4" fill="#0" id="circle88"/>
	<circle cx="280.9" cy="125.648" r="4" fill="#0" id="circle89"/>
	<circle cx="283.588" cy="283.588" r="4" fill="#0" id="circle90"/>
	<circle cx="286.276" cy="120.271" r="4" fill="#0" id="circle91"/>
	<circle cx="289.637" cy="113.55" r="4" fill="#0" id="circle92"/>
	<circle cx="290.309" cy="283.588" r="4" fill="#0" id="circle93"/>
	<circle cx="292.997" cy="103.469" r="4" fill="#0" id="circle94"/>
	<circle cx="295.686" cy="278.883" r="4" fill="#0" id="circle95"/>
	<circle cx="298.374" cy="98.0921" r="4" fill="#0" id="circle96"/>
	<circle cx="302.407" cy="276.867" r="4" fill="#0" id="circle97"/>
	<circle cx="303.751" cy="92.7154" r="4" fill="#0" id="circle98"/>
	<circle cx="309.127" cy="88.0108" r="4" fill="#0" id="circle99"/>
	<circle cx="309.127" cy="276.867" r="4" fill="#0" id="circle100"/>
	<circle cx="313.832" cy="82.6341" r="4" fill="#0" id="circle101"/>
	<circle cx="315.176" cy="273.507" r="4" fill="#0" id="circle102"/>
	<circle cx="320.553" cy="79.2737" r="4" fill="#0" id="circle103"/>
	<circle cx="321.897" cy="273.507" r="4" fill="#0" id="circle104"/>
	<circle cx="325.93" cy="74.5691" r="4" fill="#0" id="circle105"/>
	<circle cx="328.618" cy="273.507" r="4" fill="#0" id="circle106"/>
	<circle cx="332.65" cy="74.5691" r="4" fill="#0" id="circle107"/>
	<circle cx="333.995" cy="236.542" r="4" fill="#0" id="circle108"/>
	<circle cx="334.667" cy="270.146" r="4" fill="#0" id="circle109"/>
	<circle cx="337.355" cy="242.591" r="4" fill="#0" id="circle110"/>
	<circle cx="338.699" cy="71.2087" r="4" fill="#0" id="circle111"/>
	<circle cx="340.715" cy="236.542" r="4" fill="#0" id="circle112"/>
	<circle cx="340.715" cy="266.786" r="4" fill="#0" id="circle113"/>
	<circle cx="344.076" cy="242.591" r="4" fill="#0" id="circle114"/>
	<circle cx="344.748" cy="67.8482" r="4" fill="#0" id="circle115"/>
	<circle cx="347.436" cy="236.542" r="4" fill="#0" id="circle116"/>
	<circle cx="347.436" cy="266.786" r="4" fill="#0" id="circle117"/>
	<circle cx="350.797" cy="244.607" r="4" fill="#0" id="circle118"/>
	<circle cx="351.469" cy="67.8482" r="4" fill="#0" id="circle119"/>
	<circle cx="353.485" cy="233.182" r="4" fill="#0" id="circle120"/>
	<circle cx="354.157" cy="263.425" r="4" fill="#0" id="circle121"/>
	<circle cx="357.518" cy="245.951" r="4" fill="#0" id="circle122"/>
	<circle cx="358.19" cy="67.8482" r="4" fill="#0" id="circle123"/>
	<circle cx="360.206" cy="233.182" r="4" fill="#0" id="circle124"/>
	<circle cx="360.878" cy="263.425" r="4" fill="#0" id="circle125"/>
	<circle cx="362.894" cy="249.984" r="4" fill="#0" id="circle126"/>
	<circle cx="364.911" cy="67.8482" r="4" fill="#0" id="circle127"/>
	<circle cx="366.927" cy="233.182" r="4" fill="#0" id="circle128"/>
	<circle cx="367.599" cy="255.36" r="4" fill="#0" id="circle129"/>
	<circle cx="371.631" cy="65.1599" r="4" fill="#0" id="circle130"/>
	<circle cx="372.976" cy="229.821" r="4" fill="#0" id="circle131"/>
	<circle cx="378.352" cy="64.4878" r="4" fill="#0" id="circle132"/>
	<circle cx="379.696" cy="229.821" r="4" fill="#0" id="circle133"/>
	<circle cx="384.401" cy="67.8482" r="4" fill="#0" id="circle134"/>
	<circle cx="386.417" cy="228.477" r="4" fill="#0" id="circle135"/>
	<circle cx="391.122" cy="67.8482" r="4" fill="#0" id="circle136"/>
	<circle cx="393.138" cy="226.461" r="4" fill="#0" id="circle137"/>
	<circle cx="396.499" cy="71.8808" r="4" fill="#0" id="circle138"/>
	<circle cx="399.859" cy="226.461" r="4" fill="#0" id="circle139"/>
	<circle cx="402.547" cy="75.2412" r="4" fill="#0" id="circle140"/>
	<circle cx="405.908" cy="223.1" r="4" fill="#0" id="circle141"/>
	<circle cx="407.924" cy="79.9458" r="4" fill="#0" id="circle142"/>
	<circle cx="410.612" cy="86.6667" r="4" fill="#0" id="circle143"/>
	<circle cx="412.629" cy="223.1" r="4" fill="#0" id="circle144"/>
	<circle cx="415.989" cy="91.3713" r="4" fill="#0" id="circle145"/>
	<circle cx="419.35" cy="223.1" r="4" fill="#0" id="circle146"/>
	<circle cx="420.694" cy="96.748" r="4" fill="#0" id="circle147"/>
	<circle cx="424.054" cy="102.797" r="4" fill="#0" id="circle148"/>
	<circle cx="425.398" cy="219.74" r="4" fill="#0" id="circle149"/>
	<circle cx="430.775" cy="104.813" r="4" fill="#0" id="circle150"/>
	<circle cx="431.447" cy="216.379" r="4" fill="#0" id="circle151"/>
	<circle cx="434.136" cy="96.748" r="4" fill="#0" id="circle152"/>
	<circle cx="437.496" cy="90.0271" r="4" fill="#0" id="circle153"/>
	<circle cx="438.168" cy="216.379" r="4" fill="#0" id="circle154"/>
	<circle cx="442.873" cy="84.6504" r="4" fill="#0" id="circle155"/>
	<circle cx="444.889" cy="213.019" r="4" fill="#0" id="circle156"/>
	<circle cx="446.233" cy="77.9295" r="4" fill="#0" id="circle157"/>
	<circle cx="449.593" cy="71.2087" r="4" fill="#0" id="circle158"/>
	<circle cx="451.61" cy="213.019" r="4" fill="#0" id="circle159"/>
	<circle cx="454.97" cy="65.832" r="4" fill="#0" id="circle160"/>
	<circle cx="458.331" cy="213.019" r="4" fill="#0" id="circle161"/>
	<circle cx="461.691" cy="62.4715" r="4" fill="#0" id="circle162"/>
	<circle cx="464.379" cy="209.659" r="4" fill="#0" id="circle163"/>
	<circle cx="467.068" cy="57.7669" r="4" fill="#0" id="circle164"/>
	<circle cx="471.1" cy="209.659" r="4" fill="#0" id="circle165"/>
	<circle cx="473.117" cy="54.4065" r="4" fill="#0" id="circle166"/>
	<circle cx="477.821" cy="209.659" r="4" fill="#0" id="circle167"/>
	<circle cx="479.165" cy="51.0461" r="4" fill="#0" id="circle168"/>
	<circle cx="483.87" cy="206.298" r="4" fill="#0" id="circle169"/>
	<circle cx="485.214" cy="47.6856" r="4" fill="#0" id="circle170"/>
	<circle cx="489.919" cy="209.659" r="4" fill="#0" id="circle171"/>
	<circle cx="491.263" cy="44.3252" r="4" fill="#0" id="circle172"/>
	<circle cx="496.64" cy="212.347" r="4" fill="#0" id="circle173"/>
	<circle cx="497.984" cy="44.3252" r="4" fill="#0" id="circle174"/>
	<circle cx="503.36" cy="213.019" r="4" fill="#0" id="circle175"/>
	<circle cx="504.705" cy="44.3252" r="4" fill="#0" id="circle176"/>
	<circle cx="508.737" cy="217.724" r="4" fill="#0" id="circle177"/>
	<circle cx="510.753" cy="40.9648" r="4" fill="#0" id="circle178"/>
	<circle cx="515.458" cy="219.74" r="4" fill="#0" id="circle179"/>
	<circle cx="517.474" cy="40.9648" r="4" fill="#0" id="circle180"/>
	<circle cx="521.507" cy="223.1" r="4" fill="#0" id="circle181"/>
	<circle cx="524.195" cy="40.9648" r="4" fill="#0" id="circle182"/>
	<circle cx="528.228" cy="223.1" r="4" fill="#0" id="circle183"/>
	<circle cx="530.244" cy="37.6043" r="4" fill="#0" id="circle184"/>
	<circle cx="534.276" cy="226.461" r="4" fill="#0" id="circle185"/>
	<circle cx="536.965" cy="37.6043" r="4" fill="#0" id="circle186"/>
	<circle cx="540.997" cy="226.461" r="4" fill="#0" id="circle187"/>
	<circle cx="543.686" cy="37.6043" r="4" fill="#0" id="circle188"/>
	<circle cx="547.718" cy="226.461" r="4" fill="#0" id="circle189"/>
	<circle cx="549.734" cy="34.2439" r="4" fill="#0" id="circle190"/>
	<circle cx="554.439" cy="226.461" r="4" fill="#0" id="circle191"/>
	<circle cx="556.455" cy="34.2439" r="4" fill="#0" id="circle192"/>
	<circle cx="561.16" cy="226.461" r="4" fill="#0" id="circle193"/>
	<circle cx="563.176" cy="34.2439" r="4" fill="#0" id="circle194"/>
	<circle cx="567.881" cy="226.461" r="4" fill="#0" id="circle195"/>
	<circle cx="569.225" cy="30.8835" r="4" fill="#0" id="circle196"/>
	<circle cx="574.602" cy="225.117" r="4" fill="#0" id="circle197"/>
	<circle cx="575.946" cy="30.8835" r="4" fill="#0" id="circle198"/>
	<circle cx="581.322" cy="221.756" r="4" fill="#0" id="circle199"/>
	<circle cx="582.667" cy="30.8835" r="4" fill="#0" id="circle200"/>
	<circle cx="588.043" cy="219.74" r="4" fill="#0" id="circle201"/>
	<circle cx="589.388" cy="30.8835" r="4" fill="#0" id="circle202"/>
	<circle cx="594.764" cy="219.74" r="4" fill="#0" id="circle203"/>
	<circle cx="596.108" cy="30.8835" r="4" fill="#0" id="circle204"/>
	<circle cx="600.813" cy="216.379" r="4" fill="#0" id="circle205"/>
	<circle cx="602.829" cy="28.8672" r="4" fill="#0" id="circle206"/>
	<circle cx="607.534" cy="216.379" r="4" fill="#0" id="circle207"/>
	<circle cx="609.55" cy="27.523" r="4" fill="#0" id="circle208"/>
	<circle cx="614.255" cy="216.379" r="4" fill="#0" id="circle209"/>
	<circle cx="616.271" cy="27.523" r="4" fill="#0" id="circle210"/>
	<circle cx="620.304" cy="213.019" r="4" fill="#0" id="circle211"/>
	<circle cx="622.32" cy="24.1626" r="4" fill="#0" id="circle212"/>
	<circle cx="626.352" cy="209.659" r="4" fill="#0" id="circle213"/>
	<circle cx="629.041" cy="24.1626" r="4" fill="#0" id="circle214"/>
	<circle cx="633.073" cy="209.659" r="4" fill="#0" id="circle215"/>
	<circle cx="635.762" cy="24.1626" r="4" fill="#0" id="circle216"/>
	<circle cx="639.122" cy="206.298" r="4" fill="#0" id="circle217"/>
	<circle cx="642.482" cy="24.1626" r="4" fill="#0" id="circle218"/>
	<circle cx="645.843" cy="206.298" r="4" fill="#0" id="circle219"/>
	<circle cx="649.203" cy="24.1626" r="4" fill="#0" id="circle220"/>
	<circle cx="651.892" cy="202.938" r="4" fill="#0" id="circle221"/>
	<circle cx="655.924" cy="24.1626" r="4" fill="#0" id="circle222"/>
	<circle cx="657.94" cy="199.577" r="4" fill="#0" id="circle223"/>
	<circle cx="662.645" cy="24.1626" r="4" fill="#0" id="circle224"/>
	<circle cx="664.661" cy="199.577" r="4" fill="#0" id="circle225"/>
	<circle cx="669.366" cy="24.1626" r="4" fill="#0" id="circle226"/>
	<circle cx="671.382" cy="199.577" r="4" fill="#0" id="circle227"/>
	<circle cx="676.087" cy="24.1626" r="4" fill="#0" id="circle228"/>
	<circle cx="677.431" cy="196.217" r="4" fill="#0" id="circle229"/>
	<circle cx="682.136" cy="20.8022" r="4" fill="#0" id="circle230"/>
	<circle cx="684.152" cy="196.217" r="4" fill="#0" id="circle231"/>
	<circle cx="688.856" cy="20.8022" r="4" fill="#0" id="circle232"/>
	<circle cx="690.873" cy="196.217" r="4" fill="#0" id="circle233"/>
	<circle cx="695.577" cy="20.8022" r="4" fill="#0" id="circle234"/>
	<circle cx="696.921" cy="192.856" r="4" fill="#0" id="circle235"/>
	<circle cx="702.298" cy="20.8022" r="4" fill="#0" id="circle236"/>
	<circle cx="702.97" cy="189.496" r="4" fill="#0" id="circle237"/>
	<circle cx="709.019" cy="20.8022" r="4" fill="#0" id="circle238"/>
	<circle cx="709.691" cy="189.496" r="4" fill="#0" id="circle239"/>
	<circle cx="715.74" cy="20.8022" r="4" fill="#0" id="circle240"/>
	<circle cx="715.74" cy="186.136" r="4" fill="#0" id="circle241"/>
	<circle cx="721.789" cy="17.4417" r="4" fill="#0" id="circle242"/>
	<circle cx="721.789" cy="182.775" r="4" fill="#0" id="circle243"/>
	<circle cx="723.805" cy="55.0786" r="4" fill="#0" id="circle244"/>
	<circle cx="727.165" cy="61.1274" r="4" fill="#0" id="circle245"/>
	<circle cx="727.837" cy="20.8022" r="4" fill="#0" id="circle246"/>
	<circle cx="728.509" cy="182.103" r="4" fill="#0" id="circle247"/>
	<circle cx="730.526" cy="55.0786" r="4" fill="#0" id="circle248"/>
	<circle cx="733.886" cy="61.1274" r="4" fill="#0" id="circle249"/>
	<circle cx="734.558" cy="20.8022" r="4" fill="#0" id="circle250"/>
	<circle cx="735.23" cy="179.415" r="4" fill="#0" id="circle251"/>
	<circle cx="735.902" cy="50.374" r="4" fill="#0" id="circle252"/>
	<circle cx="740.607" cy="17.4417" r="4" fill="#0" id="circle253"/>
	<circle cx="740.607" cy="59.1111" r="4" fill="#0" id="circle254"/>
	<circle cx="741.951" cy="178.743" r="4" fill="#0" id="circle255"/>
	<circle cx="742.623" cy="47.0136" r="4" fill="#0" id="circle256"/>
	<circle cx="743.967" cy="149.171" r="4" fill="#0" id="circle257"/>
	<circle cx="747.328" cy="19.458" r="4" fill="#0" id="circle258"/>
	<circle cx="747.328" cy="57.7669" r="4" fill="#0" id="circle259"/>
	<circle cx="748.672" cy="175.382" r="4" fill="#0" id="circle260"/>
	<circle cx="749.344" cy="44.9973" r="4" fill="#0" id="circle261"/>
	<circle cx="750.016" cy="145.81" r="4" fill="#0" id="circle262"/>
	<circle cx="753.377" cy="151.859" r="4" fill="#0" id="circle263"/>
	<circle cx="754.049" cy="20.8022" r="4" fill="#0" id="circle264"/>
	<circle cx="754.049" cy="57.7669" r="4" fill="#0" id="circle265"/>
	<circle cx="755.393" cy="40.9648" r="4" fill="#0" id="circle266"/>
	<circle cx="755.393" cy="172.694" r="4" fill="#0" id="circle267"/>
	<circle cx="756.737" cy="145.81" r="4" fill="#0" id="circle268"/>
	<circle cx="759.425" cy="24.8347" r="4" fill="#0" id="circle269"/>
	<circle cx="759.425" cy="155.22" r="4" fill="#0" id="circle270"/>
	<circle cx="760.77" cy="55.7507" r="4" fill="#0" id="circle271"/>
	<circle cx="761.442" cy="169.333" r="4" fill="#0" id="circle272"/>
	<circle cx="762.114" cy="37.6043" r="4" fill="#0" id="circle273"/>
	<circle cx="763.458" cy="145.81" r="4" fill="#0" id="circle274"/>
	<circle cx="764.13" cy="30.2114" r="4" fill="#0" id="circle275"/>
	<circle cx="766.146" cy="155.22" r="4" fill="#0" id="circle276"/>
	<circle cx="767.491" cy="54.4065" r="4" fill="#0" id="circle277"/>
	<circle cx="767.491" cy="165.973" r="4" fill="#0" id="circle278"/>
	<circle cx="770.179" cy="145.81" r="4" fill="#0" id="circle279"/>
	<circle cx="774.211" cy="54.4065" r="4" fill="#0" id="circle280"/>
	<circle cx="776.9" cy="145.81" r="4" fill="#0" id="circle281"/>
	<circle cx="780.26" cy="51.0461" r="4" fill="#0" id="circle282"/>
	<circle cx="783.621" cy="145.81" r="4" fill="#0" id="circle283"/>
	<circle cx="786.981" cy="51.0461" r="4" fill="#0" id="circle284"/>
	<circle cx="790.341" cy="145.81" r="4" fill="#0" id="circle285"/>
	<circle cx="793.03" cy="47.6856" r="4" fill="#0" id="circle286"/>
	<circle cx="797.062" cy="145.81" r="4" fill="#0" id="circle287"/>
	<circle cx="799.079" cy="44.3252" r="4" fill="#0" id="circle288"/>
	<circle cx="803.783" cy="143.794" r="4" fill="#0" id="circle289"/>
	<circle cx="805.799" cy="40.9648" r="4" fill="#0" id="circle290"/>
	<circle cx="810.504" cy="142.45" r="4" fill="#0" id="circle291"/>
	<circle cx="812.52" cy="40.9648" r="4" fill="#0" id="circle292"/>
	<circle cx="816.553" cy="145.81" r="4" fill="#0" id="circle293"/>
	<circle cx="817.897" cy="35.5881" r="4" fill="#0" id="circle294"/>
	<circle cx="823.274" cy="144.466" r="4" fill="#0" id="circle295"/>
	<circle cx="824.618" cy="32.2276" r="4" fill="#0" id="circle296"/>
	<circle cx="829.995" cy="142.45" r="4" fill="#0" id="circle297"/>
	<circle cx="831.339" cy="28.8672" r="4" fill="#0" id="circle298"/>
	<circle cx="836.043" cy="145.81" r="4" fill="#0" id="circle299"/>
	<circle cx="838.06" cy="25.5068" r="4" fill="#0" id="circle300"/>
	<circle cx="842.764" cy="145.81" r="4" fill="#0" id="circle301"/>
	<circle cx="844.78" cy="24.1626" r="4" fill="#0" id="circle302"/>
	<circle cx="849.485" cy="145.81" r="4" fill="#0" id="circle303"/>
	<circle cx="850.829" cy="19.458" r="4" fill="#0" id="circle304"/>
	<circle cx="856.206" cy="145.81" r="4" fill="#0" id="circle305"/>
	<circle cx="857.55" cy="17.4417" r="4" fill="#0" id="circle306"/>
	<circle cx="862.255" cy="142.45" r="4" fill="#0" id="circle307"/>
	<circle cx="864.271" cy="17.4417" r="4" fill="#0" id="circle308"/>
	<circle cx="868.976" cy="144.466" r="4" fill="#0" id="circle309"/>
	<circle cx="870.992" cy="16.0976" r="4" fill="#0" id="circle310"/>
	<circle cx="875.696" cy="145.81" r="4" fill="#0" id="circle311"/>
	<circle cx="877.713" cy="14.0813" r="4" fill="#0" id="circle312"/>
	<circle cx="881.745" cy="142.45" r="4" fill="#0" id="circle313"/>
	<circle cx="884.434" cy="14.0813" r="4" fill="#0" id="circle314"/>
	<circle cx="888.466" cy="143.794" r="4" fill="#0" id="circle315"/>
	<circle cx="891.154" cy="12.7371" r="4" fill="#0" id="circle316"/>
	<circle cx="895.187" cy="145.81" r="4" fill="#0" id="circle317"/>
	<circle cx="897.875" cy="10.7209" r="4" fill="#0" id="circle318"/>
	<circle cx="901.908" cy="142.45" r="4" fill="#0" id="circle319"/>
	<circle cx="904.596" cy="10.7209" r="4" fill="#0" id="circle320"/>
	<circle cx="908.629" cy="142.45" r="4" fill="#0" id="circle321"/>
	<circle cx="911.317" cy="9.37669" r="4" fill="#0" id="circle322"/>
	<circle cx="915.35" cy="142.45" r="4" fill="#0" id="circle323"/>
	<circle cx="918.038" cy="7.36043" r="4" fill="#0" id="circle324"/>
	<circle cx="922.07" cy="139.089" r="4" fill="#0" id="circle325"/>
	<circle cx="924.759" cy="7.36043" r="4" fill="#0" id="circle326"/>
	<circle cx="928.791" cy="139.089" r="4" fill="#0" id="circle327"/>
	<circle cx="930.808" cy="4" r="4" fill="#0" id="circle328"/>
	<circle cx="935.512" cy="135.729" r="4" fill="#0" id="circle329"/>
	<circle cx="937.528" cy="4.67209" r="4" fill="#0" id="circle330"/>
	<circle cx="942.233" cy="132.369" r="4" fill="#0" id="circle331"/>
	<circle cx="944.249" cy="7.36043" r="4" fill="#0" id="circle332"/>
	<circle cx="948.954" cy="132.369" r="4" fill="#0" id="circle333"/>
	<circle cx="950.97" cy="7.36043" r="4" fill="#0" id="circle334"/>
	<circle cx="955.675" cy="129.008" r="4" fill="#0" id="circle335"/>
	<circle cx="957.019" cy="10.7209" r="4" fill="#0" id="circle336"/>
	<circle cx="961.724" cy="125.648" r="4" fill="#0" id="circle337"/>
	<circle cx="963.068" cy="14.0813" r="4" fill="#0" id="circle338"/>
	<circle cx="968.444" cy="123.631" r="4" fill="#0" id="circle339"/>
	<circle cx="969.117" cy="17.4417" r="4" fill="#0" id="circle340"/>
	<circle cx="974.493" cy="21.4743" r="4" fill="#0" id="circle341"/>
	<circle cx="975.165" cy="120.271" r="4" fill="#0" id="circle342"/>
	<circle cx="977.182" cy="28.1951" r="4" fill="#0" id="circle343"/>
	<circle cx="980.542" cy="114.894" r="4" fill="#0" id="circle344"/>
	<circle cx="982.558" cy="32.8997" r="4" fill="#0" id="circle345"/>
	<circle cx="983.902" cy="108.173" r="4" fill="#0" id="circle346"/>
	<circle cx="985.919" cy="98.7642" r="4" fill="#0" id="circle347"/>
	<circle cx="987.263" cy="38.2764" r="4" fill="#0" id="circle348"/>
	<circle cx="989.279" cy="92.0434" r="4" fill="#0" id="circle349"/>
	<circle cx="992.64" cy="42.981" r="4" fill="#0" id="circle350"/>
	<circle cx="992.64" cy="49.7019" r="4" fill="#0" id="circle351"/>
	<circle cx="992.64" cy="56.4228" r="4" fill="#0" id="circle352"/>
	<circle cx="992.64" cy="63.1436" r="4" fill="#0" id="circle353"/>
	<circle cx="992.64" cy="85.3225" r="4" fill="#0" id="circle354"/>
	<circle cx="995.328" cy="69.8645" r="4" fill="#0" id="circle355"/>
	<circle cx="996" cy="76.5854" r="4" fill="#0" id="circle356"/>
	</g>
</svg>