<?xml version="1.0" encoding="UTF-8" standalone="no"?>
<!-- Created with CurveBenchmark -->
<svg
	xmlns:dc="http://purl.org/dc/elements/1.1/"
	xmlns:cc="http://creativecommons.org/ns#"
	xmlns:rdf="http://www.w3.org/1999/02/22-rdf-syntax-ns#"
	xmlns:svg="http://www.w3.org/2000/svg"
	xmlns="http://www.w3.org/2000/svg"
	xmlns:sodipodi="http://sodipodi.sourceforge.net/DTD/sodipodi-0.dtd"
	xmlns:inkscape="http://www.inkscape.org/namespaces/inkscape"
	width="1000"
	height="1000"
	id="svg2"
	version="1.1"
	sodipodi:docname="manifold/gathan1-chicken-6.png.txt">
<defs
	id="defs4" />
<metadata
	id="metadata7">
	<rdf:RDF>
		<cc:Work
			rdf:about="">
			<dc:format>image/svg+xml</dc:format>
			<dc:type
				rdf:resource="http://purl.org/dc/dcmitype/StillImage" />
			<dc:title></dc:title>
		</cc:Work>
	</rdf:RDF>
</metadata>
<g
	inkscape:label="Layer 1"
	inkscape:groupmode="layer"
	id="layer1">
	<path style="fill:none;stroke:red;stroke-width:1px;stroke-linecap:butt;stroke-linejoin:miter;stroke-opacity:1" d="M 121.957,365.606 106.487,381.076 z" id="boundary" inkscape:connector-curvature="0" />
	<path style="fill:none;stroke:red;stroke-width:1px;stroke-linecap:butt;stroke-linejoin:miter;stroke-opacity:1" d="M 106.487,381.076 87.1501,381.076 z" id="boundary" inkscape:connector-curvature="0" />
	<path style="fill:none;stroke:red;stroke-width:1px;stroke-linecap:butt;stroke-linejoin:miter;stroke-opacity:1" d="M 137.427,352.07 121.957,365.606 z" id="boundary" inkscape:connector-curvature="0" />
	<path style="fill:none;stroke:red;stroke-width:1px;stroke-linecap:butt;stroke-linejoin:miter;stroke-opacity:1" d="M 69.7466,390.745 87.1501,381.076 z" id="boundary" inkscape:connector-curvature="0" />
	<path style="fill:none;stroke:red;stroke-width:1px;stroke-linecap:butt;stroke-linejoin:miter;stroke-opacity:1" d="M 54.2768,404.281 69.7466,390.745 z" id="boundary" inkscape:connector-curvature="0" />
	<path style="fill:none;stroke:red;stroke-width:1px;stroke-linecap:butt;stroke-linejoin:miter;stroke-opacity:1" d="M 38.807,419.75 54.2768,404.281 z" id="boundary" inkscape:connector-curvature="0" />
	<path style="fill:none;stroke:red;stroke-width:1px;stroke-linecap:butt;stroke-linejoin:miter;stroke-opacity:1" d="M 29.1384,439.088 38.807,419.75 z" id="boundary" inkscape:connector-curvature="0" />
	<path style="fill:none;stroke:red;stroke-width:1px;stroke-linecap:butt;stroke-linejoin:miter;stroke-opacity:1" d="M 193.505,323.064 210.908,313.396 z" id="boundary" inkscape:connector-curvature="0" />
	<path style="fill:none;stroke:red;stroke-width:1px;stroke-linecap:butt;stroke-linejoin:miter;stroke-opacity:1" d="M 210.908,313.396 230.246,313.396 z" id="boundary" inkscape:connector-curvature="0" />
	<path style="fill:none;stroke:red;stroke-width:1px;stroke-linecap:butt;stroke-linejoin:miter;stroke-opacity:1" d="M 193.505,323.064 174.168,332.733 z" id="boundary" inkscape:connector-curvature="0" />
	<path style="fill:none;stroke:red;stroke-width:1px;stroke-linecap:butt;stroke-linejoin:miter;stroke-opacity:1" d="M 249.583,305.661 230.246,313.396 z" id="boundary" inkscape:connector-curvature="0" />
	<path style="fill:none;stroke:red;stroke-width:1px;stroke-linecap:butt;stroke-linejoin:miter;stroke-opacity:1" d="M 154.83,342.402 137.427,352.07 z" id="boundary" inkscape:connector-curvature="0" />
	<path style="fill:none;stroke:red;stroke-width:1px;stroke-linecap:butt;stroke-linejoin:miter;stroke-opacity:1" d="M 174.168,332.733 154.83,342.402 z" id="boundary" inkscape:connector-curvature="0" />
	<path style="fill:none;stroke:red;stroke-width:1px;stroke-linecap:butt;stroke-linejoin:miter;stroke-opacity:1" d="M 4,493.232 4,473.895 z" id="boundary" inkscape:connector-curvature="0" />
	<path style="fill:none;stroke:red;stroke-width:1px;stroke-linecap:butt;stroke-linejoin:miter;stroke-opacity:1" d="M 4,473.895 13.6686,454.558 z" id="boundary" inkscape:connector-curvature="0" />
	<path style="fill:none;stroke:red;stroke-width:1px;stroke-linecap:butt;stroke-linejoin:miter;stroke-opacity:1" d="M 4,512.569 4,493.232 z" id="boundary" inkscape:connector-curvature="0" />
	<path style="fill:none;stroke:red;stroke-width:1px;stroke-linecap:butt;stroke-linejoin:miter;stroke-opacity:1" d="M 4,551.244 4,531.906 z" id="boundary" inkscape:connector-curvature="0" />
	<path style="fill:none;stroke:red;stroke-width:1px;stroke-linecap:butt;stroke-linejoin:miter;stroke-opacity:1" d="M 4,570.581 4,551.244 z" id="boundary" inkscape:connector-curvature="0" />
	<path style="fill:none;stroke:red;stroke-width:1px;stroke-linecap:butt;stroke-linejoin:miter;stroke-opacity:1" d="M 13.6686,587.984 4,570.581 z" id="boundary" inkscape:connector-curvature="0" />
	<path style="fill:none;stroke:red;stroke-width:1px;stroke-linecap:butt;stroke-linejoin:miter;stroke-opacity:1" d="M 4,531.906 4,512.569 z" id="boundary" inkscape:connector-curvature="0" />
	<path style="fill:none;stroke:red;stroke-width:1px;stroke-linecap:butt;stroke-linejoin:miter;stroke-opacity:1" d="M 29.1384,439.088 13.6686,454.558 z" id="boundary" inkscape:connector-curvature="0" />
	<path style="fill:none;stroke:red;stroke-width:1px;stroke-linecap:butt;stroke-linejoin:miter;stroke-opacity:1" d="M 23.3372,605.388 13.6686,587.984 z" id="boundary" inkscape:connector-curvature="0" />
	<path style="fill:none;stroke:red;stroke-width:1px;stroke-linecap:butt;stroke-linejoin:miter;stroke-opacity:1" d="M 23.3372,605.388 29.1384,624.725 z" id="boundary" inkscape:connector-curvature="0" />
	<path style="fill:none;stroke:red;stroke-width:1px;stroke-linecap:butt;stroke-linejoin:miter;stroke-opacity:1" d="M 38.807,642.129 29.1384,624.725 z" id="boundary" inkscape:connector-curvature="0" />
	<path style="fill:none;stroke:red;stroke-width:1px;stroke-linecap:butt;stroke-linejoin:miter;stroke-opacity:1" d="M 38.807,642.129 46.5419,661.466 z" id="boundary" inkscape:connector-curvature="0" />
	<path style="fill:none;stroke:red;stroke-width:1px;stroke-linecap:butt;stroke-linejoin:miter;stroke-opacity:1" d="M 268.92,303.727 288.257,303.727 z" id="boundary" inkscape:connector-curvature="0" />
	<path style="fill:none;stroke:red;stroke-width:1px;stroke-linecap:butt;stroke-linejoin:miter;stroke-opacity:1" d="M 307.595,303.727 288.257,303.727 z" id="boundary" inkscape:connector-curvature="0" />
	<path style="fill:none;stroke:red;stroke-width:1px;stroke-linecap:butt;stroke-linejoin:miter;stroke-opacity:1" d="M 307.595,303.727 324.998,313.396 z" id="boundary" inkscape:connector-curvature="0" />
	<path style="fill:none;stroke:red;stroke-width:1px;stroke-linecap:butt;stroke-linejoin:miter;stroke-opacity:1" d="M 324.998,313.396 342.402,323.064 z" id="boundary" inkscape:connector-curvature="0" />
	<path style="fill:none;stroke:red;stroke-width:1px;stroke-linecap:butt;stroke-linejoin:miter;stroke-opacity:1" d="M 361.739,326.932 342.402,323.064 z" id="boundary" inkscape:connector-curvature="0" />
	<path style="fill:none;stroke:red;stroke-width:1px;stroke-linecap:butt;stroke-linejoin:miter;stroke-opacity:1" d="M 268.92,303.727 249.583,305.661 z" id="boundary" inkscape:connector-curvature="0" />
	<path style="fill:none;stroke:red;stroke-width:1px;stroke-linecap:butt;stroke-linejoin:miter;stroke-opacity:1" d="M 379.142,336.6 361.739,326.932 z" id="boundary" inkscape:connector-curvature="0" />
	<path style="fill:none;stroke:red;stroke-width:1px;stroke-linecap:butt;stroke-linejoin:miter;stroke-opacity:1" d="M 599.587,332.733 615.057,317.263 z" id="boundary" inkscape:connector-curvature="0" />
	<path style="fill:none;stroke:red;stroke-width:1px;stroke-linecap:butt;stroke-linejoin:miter;stroke-opacity:1" d="M 632.46,280.522 630.526,303.727 z" id="boundary" inkscape:connector-curvature="0" />
	<path style="fill:none;stroke:red;stroke-width:1px;stroke-linecap:butt;stroke-linejoin:miter;stroke-opacity:1" d="M 630.526,303.727 615.057,317.263 z" id="boundary" inkscape:connector-curvature="0" />
	<path style="fill:none;stroke:red;stroke-width:1px;stroke-linecap:butt;stroke-linejoin:miter;stroke-opacity:1" d="M 379.142,336.6 392.678,352.07 z" id="boundary" inkscape:connector-curvature="0" />
	<path style="fill:none;stroke:red;stroke-width:1px;stroke-linecap:butt;stroke-linejoin:miter;stroke-opacity:1" d="M 582.183,342.402 599.587,332.733 z" id="boundary" inkscape:connector-curvature="0" />
	<path style="fill:none;stroke:red;stroke-width:1px;stroke-linecap:butt;stroke-linejoin:miter;stroke-opacity:1" d="M 566.713,355.938 582.183,342.402 z" id="boundary" inkscape:connector-curvature="0" />
	<path style="fill:none;stroke:red;stroke-width:1px;stroke-linecap:butt;stroke-linejoin:miter;stroke-opacity:1" d="M 537.708,384.943 553.177,371.407 z" id="boundary" inkscape:connector-curvature="0" />
	<path style="fill:none;stroke:red;stroke-width:1px;stroke-linecap:butt;stroke-linejoin:miter;stroke-opacity:1" d="M 392.678,352.07 402.347,369.474 z" id="boundary" inkscape:connector-curvature="0" />
	<path style="fill:none;stroke:red;stroke-width:1px;stroke-linecap:butt;stroke-linejoin:miter;stroke-opacity:1" d="M 402.347,369.474 417.817,383.01 z" id="boundary" inkscape:connector-curvature="0" />
	<path style="fill:none;stroke:red;stroke-width:1px;stroke-linecap:butt;stroke-linejoin:miter;stroke-opacity:1" d="M 417.817,383.01 425.552,402.347 z" id="boundary" inkscape:connector-curvature="0" />
	<path style="fill:none;stroke:red;stroke-width:1px;stroke-linecap:butt;stroke-linejoin:miter;stroke-opacity:1" d="M 435.22,419.75 425.552,402.347 z" id="boundary" inkscape:connector-curvature="0" />
	<path style="fill:none;stroke:red;stroke-width:1px;stroke-linecap:butt;stroke-linejoin:miter;stroke-opacity:1" d="M 458.425,448.756 441.021,439.088 z" id="boundary" inkscape:connector-curvature="0" />
	<path style="fill:none;stroke:red;stroke-width:1px;stroke-linecap:butt;stroke-linejoin:miter;stroke-opacity:1" d="M 441.021,439.088 435.22,419.75 z" id="boundary" inkscape:connector-curvature="0" />
	<path style="fill:none;stroke:red;stroke-width:1px;stroke-linecap:butt;stroke-linejoin:miter;stroke-opacity:1" d="M 477.762,448.756 458.425,448.756 z" id="boundary" inkscape:connector-curvature="0" />
	<path style="fill:none;stroke:red;stroke-width:1px;stroke-linecap:butt;stroke-linejoin:miter;stroke-opacity:1" d="M 553.177,371.407 566.713,355.938 z" id="boundary" inkscape:connector-curvature="0" />
	<path style="fill:none;stroke:red;stroke-width:1px;stroke-linecap:butt;stroke-linejoin:miter;stroke-opacity:1" d="M 497.099,435.22 477.762,448.756 z" id="boundary" inkscape:connector-curvature="0" />
	<path style="fill:none;stroke:red;stroke-width:1px;stroke-linecap:butt;stroke-linejoin:miter;stroke-opacity:1" d="M 506.768,415.883 522.238,400.413 z" id="boundary" inkscape:connector-curvature="0" />
	<path style="fill:none;stroke:red;stroke-width:1px;stroke-linecap:butt;stroke-linejoin:miter;stroke-opacity:1" d="M 497.099,435.22 506.768,415.883 z" id="boundary" inkscape:connector-curvature="0" />
	<path style="fill:none;stroke:red;stroke-width:1px;stroke-linecap:butt;stroke-linejoin:miter;stroke-opacity:1" d="M 522.238,400.413 537.708,384.943 z" id="boundary" inkscape:connector-curvature="0" />
	<path style="fill:none;stroke:red;stroke-width:1px;stroke-linecap:butt;stroke-linejoin:miter;stroke-opacity:1" d="M 56.2105,678.869 71.6803,692.405 z" id="boundary" inkscape:connector-curvature="0" />
	<path style="fill:none;stroke:red;stroke-width:1px;stroke-linecap:butt;stroke-linejoin:miter;stroke-opacity:1" d="M 71.6803,692.405 83.2827,707.875 z" id="boundary" inkscape:connector-curvature="0" />
	<path style="fill:none;stroke:red;stroke-width:1px;stroke-linecap:butt;stroke-linejoin:miter;stroke-opacity:1" d="M 98.7524,721.411 83.2827,707.875 z" id="boundary" inkscape:connector-curvature="0" />
	<path style="fill:none;stroke:red;stroke-width:1px;stroke-linecap:butt;stroke-linejoin:miter;stroke-opacity:1" d="M 131.626,744.616 112.288,736.881 z" id="boundary" inkscape:connector-curvature="0" />
	<path style="fill:none;stroke:red;stroke-width:1px;stroke-linecap:butt;stroke-linejoin:miter;stroke-opacity:1" d="M 112.288,736.881 98.7524,721.411 z" id="boundary" inkscape:connector-curvature="0" />
	<path style="fill:none;stroke:red;stroke-width:1px;stroke-linecap:butt;stroke-linejoin:miter;stroke-opacity:1" d="M 56.2105,678.869 46.5419,661.466 z" id="boundary" inkscape:connector-curvature="0" />
	<path style="fill:none;stroke:red;stroke-width:1px;stroke-linecap:butt;stroke-linejoin:miter;stroke-opacity:1" d="M 245.715,734.947 265.053,731.08 z" id="boundary" inkscape:connector-curvature="0" />
	<path style="fill:none;stroke:red;stroke-width:1px;stroke-linecap:butt;stroke-linejoin:miter;stroke-opacity:1" d="M 265.053,731.08 282.456,740.749 z" id="boundary" inkscape:connector-curvature="0" />
	<path style="fill:none;stroke:red;stroke-width:1px;stroke-linecap:butt;stroke-linejoin:miter;stroke-opacity:1" d="M 301.793,736.881 282.456,740.749 z" id="boundary" inkscape:connector-curvature="0" />
	<path style="fill:none;stroke:red;stroke-width:1px;stroke-linecap:butt;stroke-linejoin:miter;stroke-opacity:1" d="M 226.378,740.749 207.041,740.749 z" id="boundary" inkscape:connector-curvature="0" />
	<path style="fill:none;stroke:red;stroke-width:1px;stroke-linecap:butt;stroke-linejoin:miter;stroke-opacity:1" d="M 245.715,734.947 226.378,740.749 z" id="boundary" inkscape:connector-curvature="0" />
	<path style="fill:none;stroke:red;stroke-width:1px;stroke-linecap:butt;stroke-linejoin:miter;stroke-opacity:1" d="M 189.637,750.417 207.041,740.749 z" id="boundary" inkscape:connector-curvature="0" />
	<path style="fill:none;stroke:red;stroke-width:1px;stroke-linecap:butt;stroke-linejoin:miter;stroke-opacity:1" d="M 301.793,736.881 313.396,752.351 z" id="boundary" inkscape:connector-curvature="0" />
	<path style="fill:none;stroke:red;stroke-width:1px;stroke-linecap:butt;stroke-linejoin:miter;stroke-opacity:1" d="M 150.963,750.417 170.3,750.417 z" id="boundary" inkscape:connector-curvature="0" />
	<path style="fill:none;stroke:red;stroke-width:1px;stroke-linecap:butt;stroke-linejoin:miter;stroke-opacity:1" d="M 150.963,750.417 131.626,744.616 z" id="boundary" inkscape:connector-curvature="0" />
	<path style="fill:none;stroke:red;stroke-width:1px;stroke-linecap:butt;stroke-linejoin:miter;stroke-opacity:1" d="M 189.637,750.417 170.3,750.417 z" id="boundary" inkscape:connector-curvature="0" />
	<path style="fill:none;stroke:red;stroke-width:1px;stroke-linecap:butt;stroke-linejoin:miter;stroke-opacity:1" d="M 323.064,769.754 313.396,752.351 z" id="boundary" inkscape:connector-curvature="0" />
	<path style="fill:none;stroke:red;stroke-width:1px;stroke-linecap:butt;stroke-linejoin:miter;stroke-opacity:1" d="M 328.865,789.092 323.064,769.754 z" id="boundary" inkscape:connector-curvature="0" />
	<path style="fill:none;stroke:red;stroke-width:1px;stroke-linecap:butt;stroke-linejoin:miter;stroke-opacity:1" d="M 348.203,789.092 328.865,789.092 z" id="boundary" inkscape:connector-curvature="0" />
	<path style="fill:none;stroke:red;stroke-width:1px;stroke-linecap:butt;stroke-linejoin:miter;stroke-opacity:1" d="M 363.673,802.628 371.407,821.965 z" id="boundary" inkscape:connector-curvature="0" />
	<path style="fill:none;stroke:red;stroke-width:1px;stroke-linecap:butt;stroke-linejoin:miter;stroke-opacity:1" d="M 348.203,789.092 363.673,802.628 z" id="boundary" inkscape:connector-curvature="0" />
	<path style="fill:none;stroke:red;stroke-width:1px;stroke-linecap:butt;stroke-linejoin:miter;stroke-opacity:1" d="M 383.01,837.435 402.347,837.435 z" id="boundary" inkscape:connector-curvature="0" />
	<path style="fill:none;stroke:red;stroke-width:1px;stroke-linecap:butt;stroke-linejoin:miter;stroke-opacity:1" d="M 383.01,837.435 371.407,821.965 z" id="boundary" inkscape:connector-curvature="0" />
	<path style="fill:none;stroke:red;stroke-width:1px;stroke-linecap:butt;stroke-linejoin:miter;stroke-opacity:1" d="M 421.684,837.435 439.088,847.103 z" id="boundary" inkscape:connector-curvature="0" />
	<path style="fill:none;stroke:red;stroke-width:1px;stroke-linecap:butt;stroke-linejoin:miter;stroke-opacity:1" d="M 402.347,837.435 421.684,837.435 z" id="boundary" inkscape:connector-curvature="0" />
	<path style="fill:none;stroke:red;stroke-width:1px;stroke-linecap:butt;stroke-linejoin:miter;stroke-opacity:1" d="M 458.425,847.103 439.088,847.103 z" id="boundary" inkscape:connector-curvature="0" />
	<path style="fill:none;stroke:red;stroke-width:1px;stroke-linecap:butt;stroke-linejoin:miter;stroke-opacity:1" d="M 458.425,847.103 477.762,847.103 z" id="boundary" inkscape:connector-curvature="0" />
	<path style="fill:none;stroke:red;stroke-width:1px;stroke-linecap:butt;stroke-linejoin:miter;stroke-opacity:1" d="M 497.099,847.103 477.762,847.103 z" id="boundary" inkscape:connector-curvature="0" />
	<path style="fill:none;stroke:red;stroke-width:1px;stroke-linecap:butt;stroke-linejoin:miter;stroke-opacity:1" d="M 543.509,876.109 528.039,862.573 z" id="boundary" inkscape:connector-curvature="0" />
	<path style="fill:none;stroke:red;stroke-width:1px;stroke-linecap:butt;stroke-linejoin:miter;stroke-opacity:1" d="M 528.039,862.573 516.437,847.103 z" id="boundary" inkscape:connector-curvature="0" />
	<path style="fill:none;stroke:red;stroke-width:1px;stroke-linecap:butt;stroke-linejoin:miter;stroke-opacity:1" d="M 497.099,847.103 516.437,847.103 z" id="boundary" inkscape:connector-curvature="0" />
	<path style="fill:none;stroke:red;stroke-width:1px;stroke-linecap:butt;stroke-linejoin:miter;stroke-opacity:1" d="M 595.719,866.441 605.388,847.103 z" id="boundary" inkscape:connector-curvature="0" />
	<path style="fill:none;stroke:red;stroke-width:1px;stroke-linecap:butt;stroke-linejoin:miter;stroke-opacity:1" d="M 605.388,847.103 624.725,847.103 z" id="boundary" inkscape:connector-curvature="0" />
	<path style="fill:none;stroke:red;stroke-width:1px;stroke-linecap:butt;stroke-linejoin:miter;stroke-opacity:1" d="M 595.719,866.441 595.719,885.778 z" id="boundary" inkscape:connector-curvature="0" />
	<path style="fill:none;stroke:red;stroke-width:1px;stroke-linecap:butt;stroke-linejoin:miter;stroke-opacity:1" d="M 543.509,876.109 551.244,895.446 z" id="boundary" inkscape:connector-curvature="0" />
	<path style="fill:none;stroke:red;stroke-width:1px;stroke-linecap:butt;stroke-linejoin:miter;stroke-opacity:1" d="M 555.111,914.784 551.244,895.446 z" id="boundary" inkscape:connector-curvature="0" />
	<path style="fill:none;stroke:red;stroke-width:1px;stroke-linecap:butt;stroke-linejoin:miter;stroke-opacity:1" d="M 595.719,885.778 595.719,905.115 z" id="boundary" inkscape:connector-curvature="0" />
	<path style="fill:none;stroke:red;stroke-width:1px;stroke-linecap:butt;stroke-linejoin:miter;stroke-opacity:1" d="M 605.388,922.519 595.719,905.115 z" id="boundary" inkscape:connector-curvature="0" />
	<path style="fill:none;stroke:red;stroke-width:1px;stroke-linecap:butt;stroke-linejoin:miter;stroke-opacity:1" d="M 555.111,914.784 537.708,932.187 z" id="boundary" inkscape:connector-curvature="0" />
	<path style="fill:none;stroke:red;stroke-width:1px;stroke-linecap:butt;stroke-linejoin:miter;stroke-opacity:1" d="M 502.901,951.524 518.37,936.055 z" id="boundary" inkscape:connector-curvature="0" />
	<path style="fill:none;stroke:red;stroke-width:1px;stroke-linecap:butt;stroke-linejoin:miter;stroke-opacity:1" d="M 537.708,932.187 518.37,936.055 z" id="boundary" inkscape:connector-curvature="0" />
	<path style="fill:none;stroke:red;stroke-width:1px;stroke-linecap:butt;stroke-linejoin:miter;stroke-opacity:1" d="M 506.768,972.795 487.431,966.994 z" id="boundary" inkscape:connector-curvature="0" />
	<path style="fill:none;stroke:red;stroke-width:1px;stroke-linecap:butt;stroke-linejoin:miter;stroke-opacity:1" d="M 487.431,966.994 502.901,951.524 z" id="boundary" inkscape:connector-curvature="0" />
	<path style="fill:none;stroke:red;stroke-width:1px;stroke-linecap:butt;stroke-linejoin:miter;stroke-opacity:1" d="M 524.172,963.127 506.768,972.795 z" id="boundary" inkscape:connector-curvature="0" />
	<path style="fill:none;stroke:red;stroke-width:1px;stroke-linecap:butt;stroke-linejoin:miter;stroke-opacity:1" d="M 524.172,963.127 543.509,963.127 z" id="boundary" inkscape:connector-curvature="0" />
	<path style="fill:none;stroke:red;stroke-width:1px;stroke-linecap:butt;stroke-linejoin:miter;stroke-opacity:1" d="M 562.846,963.127 543.509,963.127 z" id="boundary" inkscape:connector-curvature="0" />
	<path style="fill:none;stroke:red;stroke-width:1px;stroke-linecap:butt;stroke-linejoin:miter;stroke-opacity:1" d="M 634.394,941.856 615.057,939.922 z" id="boundary" inkscape:connector-curvature="0" />
	<path style="fill:none;stroke:red;stroke-width:1px;stroke-linecap:butt;stroke-linejoin:miter;stroke-opacity:1" d="M 615.057,939.922 605.388,922.519 z" id="boundary" inkscape:connector-curvature="0" />
	<path style="fill:none;stroke:red;stroke-width:1px;stroke-linecap:butt;stroke-linejoin:miter;stroke-opacity:1" d="M 562.846,963.127 582.183,963.127 z" id="boundary" inkscape:connector-curvature="0" />
	<path style="fill:none;stroke:red;stroke-width:1px;stroke-linecap:butt;stroke-linejoin:miter;stroke-opacity:1" d="M 582.183,963.127 599.587,972.795 z" id="boundary" inkscape:connector-curvature="0" />
	<path style="fill:none;stroke:red;stroke-width:1px;stroke-linecap:butt;stroke-linejoin:miter;stroke-opacity:1" d="M 618.924,980.53 599.587,972.795 z" id="boundary" inkscape:connector-curvature="0" />
	<path style="fill:none;stroke:red;stroke-width:1px;stroke-linecap:butt;stroke-linejoin:miter;stroke-opacity:1" d="M 618.924,980.53 632.46,996 z" id="boundary" inkscape:connector-curvature="0" />
	<path style="fill:none;stroke:red;stroke-width:1px;stroke-linecap:butt;stroke-linejoin:miter;stroke-opacity:1" d="M 642.129,837.435 624.725,847.103 z" id="boundary" inkscape:connector-curvature="0" />
	<path style="fill:none;stroke:red;stroke-width:1px;stroke-linecap:butt;stroke-linejoin:miter;stroke-opacity:1" d="M 758.152,13.6686 738.815,13.6686 z" id="boundary" inkscape:connector-curvature="0" />
	<path style="fill:none;stroke:red;stroke-width:1px;stroke-linecap:butt;stroke-linejoin:miter;stroke-opacity:1" d="M 775.556,4 758.152,13.6686 z" id="boundary" inkscape:connector-curvature="0" />
	<path style="fill:none;stroke:red;stroke-width:1px;stroke-linecap:butt;stroke-linejoin:miter;stroke-opacity:1" d="M 775.556,4 794.893,4 z" id="boundary" inkscape:connector-curvature="0" />
	<path style="fill:none;stroke:red;stroke-width:1px;stroke-linecap:butt;stroke-linejoin:miter;stroke-opacity:1" d="M 719.478,19.4698 738.815,13.6686 z" id="boundary" inkscape:connector-curvature="0" />
	<path style="fill:none;stroke:red;stroke-width:1px;stroke-linecap:butt;stroke-linejoin:miter;stroke-opacity:1" d="M 709.809,38.807 719.478,19.4698 z" id="boundary" inkscape:connector-curvature="0" />
	<path style="fill:none;stroke:red;stroke-width:1px;stroke-linecap:butt;stroke-linejoin:miter;stroke-opacity:1" d="M 709.809,58.1442 709.809,38.807 z" id="boundary" inkscape:connector-curvature="0" />
	<path style="fill:none;stroke:red;stroke-width:1px;stroke-linecap:butt;stroke-linejoin:miter;stroke-opacity:1" d="M 852.904,13.6686 833.567,13.6686 z" id="boundary" inkscape:connector-curvature="0" />
	<path style="fill:none;stroke:red;stroke-width:1px;stroke-linecap:butt;stroke-linejoin:miter;stroke-opacity:1" d="M 833.567,13.6686 814.23,5.93372 z" id="boundary" inkscape:connector-curvature="0" />
	<path style="fill:none;stroke:red;stroke-width:1px;stroke-linecap:butt;stroke-linejoin:miter;stroke-opacity:1" d="M 872.242,13.6686 852.904,13.6686 z" id="boundary" inkscape:connector-curvature="0" />
	<path style="fill:none;stroke:red;stroke-width:1px;stroke-linecap:butt;stroke-linejoin:miter;stroke-opacity:1" d="M 794.893,4 814.23,5.93372 z" id="boundary" inkscape:connector-curvature="0" />
	<path style="fill:none;stroke:red;stroke-width:1px;stroke-linecap:butt;stroke-linejoin:miter;stroke-opacity:1" d="M 889.645,23.3372 903.181,38.807 z" id="boundary" inkscape:connector-curvature="0" />
	<path style="fill:none;stroke:red;stroke-width:1px;stroke-linecap:butt;stroke-linejoin:miter;stroke-opacity:1" d="M 872.242,13.6686 889.645,23.3372 z" id="boundary" inkscape:connector-curvature="0" />
	<path style="fill:none;stroke:red;stroke-width:1px;stroke-linecap:butt;stroke-linejoin:miter;stroke-opacity:1" d="M 680.803,183.836 667.267,207.041 z" id="boundary" inkscape:connector-curvature="0" />
	<path style="fill:none;stroke:red;stroke-width:1px;stroke-linecap:butt;stroke-linejoin:miter;stroke-opacity:1" d="M 667.267,207.041 651.797,222.511 z" id="boundary" inkscape:connector-curvature="0" />
	<path style="fill:none;stroke:red;stroke-width:1px;stroke-linecap:butt;stroke-linejoin:miter;stroke-opacity:1" d="M 642.129,241.848 651.797,222.511 z" id="boundary" inkscape:connector-curvature="0" />
	<path style="fill:none;stroke:red;stroke-width:1px;stroke-linecap:butt;stroke-linejoin:miter;stroke-opacity:1" d="M 632.46,261.185 642.129,241.848 z" id="boundary" inkscape:connector-curvature="0" />
	<path style="fill:none;stroke:red;stroke-width:1px;stroke-linecap:butt;stroke-linejoin:miter;stroke-opacity:1" d="M 632.46,280.522 632.46,261.185 z" id="boundary" inkscape:connector-curvature="0" />
	<path style="fill:none;stroke:red;stroke-width:1px;stroke-linecap:butt;stroke-linejoin:miter;stroke-opacity:1" d="M 709.809,58.1442 719.478,75.5478 z" id="boundary" inkscape:connector-curvature="0" />
	<path style="fill:none;stroke:red;stroke-width:1px;stroke-linecap:butt;stroke-linejoin:miter;stroke-opacity:1" d="M 719.478,75.5478 709.809,96.8187 z" id="boundary" inkscape:connector-curvature="0" />
	<path style="fill:none;stroke:red;stroke-width:1px;stroke-linecap:butt;stroke-linejoin:miter;stroke-opacity:1" d="M 709.809,96.8187 700.14,116.156 z" id="boundary" inkscape:connector-curvature="0" />
	<path style="fill:none;stroke:red;stroke-width:1px;stroke-linecap:butt;stroke-linejoin:miter;stroke-opacity:1" d="M 700.14,116.156 700.14,135.493 z" id="boundary" inkscape:connector-curvature="0" />
	<path style="fill:none;stroke:red;stroke-width:1px;stroke-linecap:butt;stroke-linejoin:miter;stroke-opacity:1" d="M 700.14,135.493 690.472,164.499 z" id="boundary" inkscape:connector-curvature="0" />
	<path style="fill:none;stroke:red;stroke-width:1px;stroke-linecap:butt;stroke-linejoin:miter;stroke-opacity:1" d="M 690.472,164.499 680.803,183.836 z" id="boundary" inkscape:connector-curvature="0" />
	<path style="fill:none;stroke:red;stroke-width:1px;stroke-linecap:butt;stroke-linejoin:miter;stroke-opacity:1" d="M 895.446,218.643 905.115,236.047 z" id="boundary" inkscape:connector-curvature="0" />
	<path style="fill:none;stroke:red;stroke-width:1px;stroke-linecap:butt;stroke-linejoin:miter;stroke-opacity:1" d="M 903.181,38.807 912.85,56.2105 z" id="boundary" inkscape:connector-curvature="0" />
	<path style="fill:none;stroke:red;stroke-width:1px;stroke-linecap:butt;stroke-linejoin:miter;stroke-opacity:1" d="M 912.85,56.2105 914.784,75.5478 z" id="boundary" inkscape:connector-curvature="0" />
	<path style="fill:none;stroke:red;stroke-width:1px;stroke-linecap:butt;stroke-linejoin:miter;stroke-opacity:1" d="M 926.386,91.0175 914.784,75.5478 z" id="boundary" inkscape:connector-curvature="0" />
	<path style="fill:none;stroke:red;stroke-width:1px;stroke-linecap:butt;stroke-linejoin:miter;stroke-opacity:1" d="M 905.115,179.969 905.115,160.632 z" id="boundary" inkscape:connector-curvature="0" />
	<path style="fill:none;stroke:red;stroke-width:1px;stroke-linecap:butt;stroke-linejoin:miter;stroke-opacity:1" d="M 905.115,160.632 924.452,160.632 z" id="boundary" inkscape:connector-curvature="0" />
	<path style="fill:none;stroke:red;stroke-width:1px;stroke-linecap:butt;stroke-linejoin:miter;stroke-opacity:1" d="M 905.115,179.969 905.115,199.306 z" id="boundary" inkscape:connector-curvature="0" />
	<path style="fill:none;stroke:red;stroke-width:1px;stroke-linecap:butt;stroke-linejoin:miter;stroke-opacity:1" d="M 905.115,199.306 895.446,218.643 z" id="boundary" inkscape:connector-curvature="0" />
	<path style="fill:none;stroke:red;stroke-width:1px;stroke-linecap:butt;stroke-linejoin:miter;stroke-opacity:1" d="M 920.585,247.649 905.115,236.047 z" id="boundary" inkscape:connector-curvature="0" />
	<path style="fill:none;stroke:red;stroke-width:1px;stroke-linecap:butt;stroke-linejoin:miter;stroke-opacity:1" d="M 926.386,91.0175 943.789,100.686 z" id="boundary" inkscape:connector-curvature="0" />
	<path style="fill:none;stroke:red;stroke-width:1px;stroke-linecap:butt;stroke-linejoin:miter;stroke-opacity:1" d="M 943.789,100.686 953.458,118.09 z" id="boundary" inkscape:connector-curvature="0" />
	<path style="fill:none;stroke:red;stroke-width:1px;stroke-linecap:butt;stroke-linejoin:miter;stroke-opacity:1" d="M 924.452,160.632 943.789,150.963 z" id="boundary" inkscape:connector-curvature="0" />
	<path style="fill:none;stroke:red;stroke-width:1px;stroke-linecap:butt;stroke-linejoin:miter;stroke-opacity:1" d="M 934.121,284.39 924.452,266.986 z" id="boundary" inkscape:connector-curvature="0" />
	<path style="fill:none;stroke:red;stroke-width:1px;stroke-linecap:butt;stroke-linejoin:miter;stroke-opacity:1" d="M 924.452,266.986 920.585,247.649 z" id="boundary" inkscape:connector-curvature="0" />
	<path style="fill:none;stroke:red;stroke-width:1px;stroke-linecap:butt;stroke-linejoin:miter;stroke-opacity:1" d="M 953.458,118.09 943.789,150.963 z" id="boundary" inkscape:connector-curvature="0" />
	<path style="fill:none;stroke:red;stroke-width:1px;stroke-linecap:butt;stroke-linejoin:miter;stroke-opacity:1" d="M 949.591,315.329 934.121,303.727 z" id="boundary" inkscape:connector-curvature="0" />
	<path style="fill:none;stroke:red;stroke-width:1px;stroke-linecap:butt;stroke-linejoin:miter;stroke-opacity:1" d="M 934.121,303.727 934.121,284.39 z" id="boundary" inkscape:connector-curvature="0" />
	<path style="fill:none;stroke:red;stroke-width:1px;stroke-linecap:butt;stroke-linejoin:miter;stroke-opacity:1" d="M 949.591,315.329 957.326,334.667 z" id="boundary" inkscape:connector-curvature="0" />
	<path style="fill:none;stroke:red;stroke-width:1px;stroke-linecap:butt;stroke-linejoin:miter;stroke-opacity:1" d="M 963.127,354.004 957.326,334.667 z" id="boundary" inkscape:connector-curvature="0" />
	<path style="fill:none;stroke:red;stroke-width:1px;stroke-linecap:butt;stroke-linejoin:miter;stroke-opacity:1" d="M 972.795,371.407 963.127,354.004 z" id="boundary" inkscape:connector-curvature="0" />
	<path style="fill:none;stroke:red;stroke-width:1px;stroke-linecap:butt;stroke-linejoin:miter;stroke-opacity:1" d="M 972.795,371.407 982.464,388.811 z" id="boundary" inkscape:connector-curvature="0" />
	<path style="fill:none;stroke:red;stroke-width:1px;stroke-linecap:butt;stroke-linejoin:miter;stroke-opacity:1" d="M 982.464,388.811 982.464,408.148 z" id="boundary" inkscape:connector-curvature="0" />
	<path style="fill:none;stroke:red;stroke-width:1px;stroke-linecap:butt;stroke-linejoin:miter;stroke-opacity:1" d="M 982.464,408.148 982.464,427.485 z" id="boundary" inkscape:connector-curvature="0" />
	<path style="fill:none;stroke:red;stroke-width:1px;stroke-linecap:butt;stroke-linejoin:miter;stroke-opacity:1" d="M 972.795,470.027 972.795,489.365 z" id="boundary" inkscape:connector-curvature="0" />
	<path style="fill:none;stroke:red;stroke-width:1px;stroke-linecap:butt;stroke-linejoin:miter;stroke-opacity:1" d="M 972.795,470.027 982.464,446.823 z" id="boundary" inkscape:connector-curvature="0" />
	<path style="fill:none;stroke:red;stroke-width:1px;stroke-linecap:butt;stroke-linejoin:miter;stroke-opacity:1" d="M 982.464,427.485 982.464,446.823 z" id="boundary" inkscape:connector-curvature="0" />
	<path style="fill:none;stroke:red;stroke-width:1px;stroke-linecap:butt;stroke-linejoin:miter;stroke-opacity:1" d="M 968.928,524.172 972.795,489.365 z" id="boundary" inkscape:connector-curvature="0" />
	<path style="fill:none;stroke:red;stroke-width:1px;stroke-linecap:butt;stroke-linejoin:miter;stroke-opacity:1" d="M 719.478,837.435 700.14,837.435 z" id="boundary" inkscape:connector-curvature="0" />
	<path style="fill:none;stroke:red;stroke-width:1px;stroke-linecap:butt;stroke-linejoin:miter;stroke-opacity:1" d="M 700.14,837.435 680.803,841.302 z" id="boundary" inkscape:connector-curvature="0" />
	<path style="fill:none;stroke:red;stroke-width:1px;stroke-linecap:butt;stroke-linejoin:miter;stroke-opacity:1" d="M 680.803,841.302 661.466,837.435 z" id="boundary" inkscape:connector-curvature="0" />
	<path style="fill:none;stroke:red;stroke-width:1px;stroke-linecap:butt;stroke-linejoin:miter;stroke-opacity:1" d="M 818.097,808.429 808.429,827.766 z" id="boundary" inkscape:connector-curvature="0" />
	<path style="fill:none;stroke:red;stroke-width:1px;stroke-linecap:butt;stroke-linejoin:miter;stroke-opacity:1" d="M 736.881,847.103 719.478,837.435 z" id="boundary" inkscape:connector-curvature="0" />
	<path style="fill:none;stroke:red;stroke-width:1px;stroke-linecap:butt;stroke-linejoin:miter;stroke-opacity:1" d="M 748.483,862.573 736.881,847.103 z" id="boundary" inkscape:connector-curvature="0" />
	<path style="fill:none;stroke:red;stroke-width:1px;stroke-linecap:butt;stroke-linejoin:miter;stroke-opacity:1" d="M 808.429,827.766 798.76,856.772 z" id="boundary" inkscape:connector-curvature="0" />
	<path style="fill:none;stroke:red;stroke-width:1px;stroke-linecap:butt;stroke-linejoin:miter;stroke-opacity:1" d="M 798.76,856.772 789.092,876.109 z" id="boundary" inkscape:connector-curvature="0" />
	<path style="fill:none;stroke:red;stroke-width:1px;stroke-linecap:butt;stroke-linejoin:miter;stroke-opacity:1" d="M 789.092,876.109 798.76,893.513 z" id="boundary" inkscape:connector-curvature="0" />
	<path style="fill:none;stroke:red;stroke-width:1px;stroke-linecap:butt;stroke-linejoin:miter;stroke-opacity:1" d="M 738.815,879.977 748.483,862.573 z" id="boundary" inkscape:connector-curvature="0" />
	<path style="fill:none;stroke:red;stroke-width:1px;stroke-linecap:butt;stroke-linejoin:miter;stroke-opacity:1" d="M 798.76,893.513 808.429,910.916 z" id="boundary" inkscape:connector-curvature="0" />
	<path style="fill:none;stroke:red;stroke-width:1px;stroke-linecap:butt;stroke-linejoin:miter;stroke-opacity:1" d="M 661.466,837.435 642.129,837.435 z" id="boundary" inkscape:connector-curvature="0" />
	<path style="fill:none;stroke:red;stroke-width:1px;stroke-linecap:butt;stroke-linejoin:miter;stroke-opacity:1" d="M 738.815,879.977 725.279,903.181 z" id="boundary" inkscape:connector-curvature="0" />
	<path style="fill:none;stroke:red;stroke-width:1px;stroke-linecap:butt;stroke-linejoin:miter;stroke-opacity:1" d="M 649.864,953.458 634.394,941.856 z" id="boundary" inkscape:connector-curvature="0" />
	<path style="fill:none;stroke:red;stroke-width:1px;stroke-linecap:butt;stroke-linejoin:miter;stroke-opacity:1" d="M 663.4,968.928 649.864,953.458 z" id="boundary" inkscape:connector-curvature="0" />
	<path style="fill:none;stroke:red;stroke-width:1px;stroke-linecap:butt;stroke-linejoin:miter;stroke-opacity:1" d="M 663.4,968.928 651.797,996 z" id="boundary" inkscape:connector-curvature="0" />
	<path style="fill:none;stroke:red;stroke-width:1px;stroke-linecap:butt;stroke-linejoin:miter;stroke-opacity:1" d="M 651.797,996 632.46,996 z" id="boundary" inkscape:connector-curvature="0" />
	<path style="fill:none;stroke:red;stroke-width:1px;stroke-linecap:butt;stroke-linejoin:miter;stroke-opacity:1" d="M 709.809,918.651 709.809,937.988 z" id="boundary" inkscape:connector-curvature="0" />
	<path style="fill:none;stroke:red;stroke-width:1px;stroke-linecap:butt;stroke-linejoin:miter;stroke-opacity:1" d="M 729.146,943.789 709.809,937.988 z" id="boundary" inkscape:connector-curvature="0" />
	<path style="fill:none;stroke:red;stroke-width:1px;stroke-linecap:butt;stroke-linejoin:miter;stroke-opacity:1" d="M 709.809,918.651 725.279,903.181 z" id="boundary" inkscape:connector-curvature="0" />
	<path style="fill:none;stroke:red;stroke-width:1px;stroke-linecap:butt;stroke-linejoin:miter;stroke-opacity:1" d="M 748.483,943.789 729.146,943.789 z" id="boundary" inkscape:connector-curvature="0" />
	<path style="fill:none;stroke:red;stroke-width:1px;stroke-linecap:butt;stroke-linejoin:miter;stroke-opacity:1" d="M 748.483,943.789 767.821,943.789 z" id="boundary" inkscape:connector-curvature="0" />
	<path style="fill:none;stroke:red;stroke-width:1px;stroke-linecap:butt;stroke-linejoin:miter;stroke-opacity:1" d="M 767.821,943.789 779.423,959.259 z" id="boundary" inkscape:connector-curvature="0" />
	<path style="fill:none;stroke:red;stroke-width:1px;stroke-linecap:butt;stroke-linejoin:miter;stroke-opacity:1" d="M 779.423,959.259 798.76,963.127 z" id="boundary" inkscape:connector-curvature="0" />
	<path style="fill:none;stroke:red;stroke-width:1px;stroke-linecap:butt;stroke-linejoin:miter;stroke-opacity:1" d="M 905.115,692.405 891.579,717.544 z" id="boundary" inkscape:connector-curvature="0" />
	<path style="fill:none;stroke:red;stroke-width:1px;stroke-linecap:butt;stroke-linejoin:miter;stroke-opacity:1" d="M 891.579,717.544 876.109,731.08 z" id="boundary" inkscape:connector-curvature="0" />
	<path style="fill:none;stroke:red;stroke-width:1px;stroke-linecap:butt;stroke-linejoin:miter;stroke-opacity:1" d="M 862.573,756.218 876.109,731.08 z" id="boundary" inkscape:connector-curvature="0" />
	<path style="fill:none;stroke:red;stroke-width:1px;stroke-linecap:butt;stroke-linejoin:miter;stroke-opacity:1" d="M 818.097,808.429 827.766,789.092 z" id="boundary" inkscape:connector-curvature="0" />
	<path style="fill:none;stroke:red;stroke-width:1px;stroke-linecap:butt;stroke-linejoin:miter;stroke-opacity:1" d="M 827.766,789.092 847.103,769.754 z" id="boundary" inkscape:connector-curvature="0" />
	<path style="fill:none;stroke:red;stroke-width:1px;stroke-linecap:butt;stroke-linejoin:miter;stroke-opacity:1" d="M 862.573,756.218 847.103,769.754 z" id="boundary" inkscape:connector-curvature="0" />
	<path style="fill:none;stroke:red;stroke-width:1px;stroke-linecap:butt;stroke-linejoin:miter;stroke-opacity:1" d="M 943.789,557.045 959.259,543.509 z" id="boundary" inkscape:connector-curvature="0" />
	<path style="fill:none;stroke:red;stroke-width:1px;stroke-linecap:butt;stroke-linejoin:miter;stroke-opacity:1" d="M 943.789,576.382 943.789,557.045 z" id="boundary" inkscape:connector-curvature="0" />
	<path style="fill:none;stroke:red;stroke-width:1px;stroke-linecap:butt;stroke-linejoin:miter;stroke-opacity:1" d="M 968.928,524.172 959.259,543.509 z" id="boundary" inkscape:connector-curvature="0" />
	<path style="fill:none;stroke:red;stroke-width:1px;stroke-linecap:butt;stroke-linejoin:miter;stroke-opacity:1" d="M 943.789,576.382 934.121,595.719 z" id="boundary" inkscape:connector-curvature="0" />
	<path style="fill:none;stroke:red;stroke-width:1px;stroke-linecap:butt;stroke-linejoin:miter;stroke-opacity:1" d="M 924.452,624.725 924.452,644.062 z" id="boundary" inkscape:connector-curvature="0" />
	<path style="fill:none;stroke:red;stroke-width:1px;stroke-linecap:butt;stroke-linejoin:miter;stroke-opacity:1" d="M 924.452,644.062 914.784,673.068 z" id="boundary" inkscape:connector-curvature="0" />
	<path style="fill:none;stroke:red;stroke-width:1px;stroke-linecap:butt;stroke-linejoin:miter;stroke-opacity:1" d="M 914.784,673.068 905.115,692.405 z" id="boundary" inkscape:connector-curvature="0" />
	<path style="fill:none;stroke:red;stroke-width:1px;stroke-linecap:butt;stroke-linejoin:miter;stroke-opacity:1" d="M 924.452,624.725 934.121,595.719 z" id="boundary" inkscape:connector-curvature="0" />
	<path style="fill:none;stroke:red;stroke-width:1px;stroke-linecap:butt;stroke-linejoin:miter;stroke-opacity:1" d="M 823.899,922.519 808.429,910.916 z" id="boundary" inkscape:connector-curvature="0" />
	<path style="fill:none;stroke:red;stroke-width:1px;stroke-linecap:butt;stroke-linejoin:miter;stroke-opacity:1" d="M 841.302,932.187 823.899,922.519 z" id="boundary" inkscape:connector-curvature="0" />
	<path style="fill:none;stroke:red;stroke-width:1px;stroke-linecap:butt;stroke-linejoin:miter;stroke-opacity:1" d="M 818.097,966.994 798.76,963.127 z" id="boundary" inkscape:connector-curvature="0" />
	<path style="fill:none;stroke:red;stroke-width:1px;stroke-linecap:butt;stroke-linejoin:miter;stroke-opacity:1" d="M 837.435,972.795 818.097,966.994 z" id="boundary" inkscape:connector-curvature="0" />
	<path style="fill:none;stroke:red;stroke-width:1px;stroke-linecap:butt;stroke-linejoin:miter;stroke-opacity:1" d="M 841.302,932.187 858.706,941.856 z" id="boundary" inkscape:connector-curvature="0" />
	<path style="fill:none;stroke:red;stroke-width:1px;stroke-linecap:butt;stroke-linejoin:miter;stroke-opacity:1" d="M 837.435,972.795 854.838,982.464 z" id="boundary" inkscape:connector-curvature="0" />
	<path style="fill:none;stroke:red;stroke-width:1px;stroke-linecap:butt;stroke-linejoin:miter;stroke-opacity:1" d="M 858.706,941.856 876.109,951.524 z" id="boundary" inkscape:connector-curvature="0" />
	<path style="fill:none;stroke:red;stroke-width:1px;stroke-linecap:butt;stroke-linejoin:miter;stroke-opacity:1" d="M 876.109,951.524 891.579,963.127 z" id="boundary" inkscape:connector-curvature="0" />
	<path style="fill:none;stroke:red;stroke-width:1px;stroke-linecap:butt;stroke-linejoin:miter;stroke-opacity:1" d="M 854.838,982.464 872.242,992.133 z" id="boundary" inkscape:connector-curvature="0" />
	<path style="fill:none;stroke:red;stroke-width:1px;stroke-linecap:butt;stroke-linejoin:miter;stroke-opacity:1" d="M 891.579,992.133 872.242,992.133 z" id="boundary" inkscape:connector-curvature="0" />
	<path style="fill:none;stroke:red;stroke-width:1px;stroke-linecap:butt;stroke-linejoin:miter;stroke-opacity:1" d="M 907.049,980.53 891.579,992.133 z" id="boundary" inkscape:connector-curvature="0" />
	<path style="fill:none;stroke:red;stroke-width:1px;stroke-linecap:butt;stroke-linejoin:miter;stroke-opacity:1" d="M 891.579,963.127 907.049,980.53 z" id="boundary" inkscape:connector-curvature="0" />
	<circle cx="4" cy="473.895" r="4" fill="#0" id="circle0"/>
	<circle cx="4" cy="493.232" r="4" fill="#0" id="circle1"/>
	<circle cx="4" cy="512.569" r="4" fill="#0" id="circle2"/>
	<circle cx="4" cy="531.906" r="4" fill="#0" id="circle3"/>
	<circle cx="4" cy="551.244" r="4" fill="#0" id="circle4"/>
	<circle cx="4" cy="570.581" r="4" fill="#0" id="circle5"/>
	<circle cx="13.6686" cy="454.558" r="4" fill="#0" id="circle6"/>
	<circle cx="13.6686" cy="587.984" r="4" fill="#0" id="circle7"/>
	<circle cx="23.3372" cy="605.388" r="4" fill="#0" id="circle8"/>
	<circle cx="29.1384" cy="439.088" r="4" fill="#0" id="circle9"/>
	<circle cx="29.1384" cy="624.725" r="4" fill="#0" id="circle10"/>
	<circle cx="38.807" cy="419.75" r="4" fill="#0" id="circle11"/>
	<circle cx="38.807" cy="642.129" r="4" fill="#0" id="circle12"/>
	<circle cx="46.5419" cy="661.466" r="4" fill="#0" id="circle13"/>
	<circle cx="54.2768" cy="404.281" r="4" fill="#0" id="circle14"/>
	<circle cx="56.2105" cy="678.869" r="4" fill="#0" id="circle15"/>
	<circle cx="69.7466" cy="390.745" r="4" fill="#0" id="circle16"/>
	<circle cx="71.6803" cy="692.405" r="4" fill="#0" id="circle17"/>
	<circle cx="83.2827" cy="707.875" r="4" fill="#0" id="circle18"/>
	<circle cx="87.1501" cy="381.076" r="4" fill="#0" id="circle19"/>
	<circle cx="98.7524" cy="721.411" r="4" fill="#0" id="circle20"/>
	<circle cx="106.487" cy="381.076" r="4" fill="#0" id="circle21"/>
	<circle cx="112.288" cy="736.881" r="4" fill="#0" id="circle22"/>
	<circle cx="121.957" cy="365.606" r="4" fill="#0" id="circle23"/>
	<circle cx="131.626" cy="744.616" r="4" fill="#0" id="circle24"/>
	<circle cx="137.427" cy="352.07" r="4" fill="#0" id="circle25"/>
	<circle cx="150.963" cy="750.417" r="4" fill="#0" id="circle26"/>
	<circle cx="154.83" cy="342.402" r="4" fill="#0" id="circle27"/>
	<circle cx="170.3" cy="750.417" r="4" fill="#0" id="circle28"/>
	<circle cx="174.168" cy="332.733" r="4" fill="#0" id="circle29"/>
	<circle cx="189.637" cy="750.417" r="4" fill="#0" id="circle30"/>
	<circle cx="193.505" cy="323.064" r="4" fill="#0" id="circle31"/>
	<circle cx="207.041" cy="740.749" r="4" fill="#0" id="circle32"/>
	<circle cx="210.908" cy="313.396" r="4" fill="#0" id="circle33"/>
	<circle cx="226.378" cy="740.749" r="4" fill="#0" id="circle34"/>
	<circle cx="230.246" cy="313.396" r="4" fill="#0" id="circle35"/>
	<circle cx="245.715" cy="734.947" r="4" fill="#0" id="circle36"/>
	<circle cx="249.583" cy="305.661" r="4" fill="#0" id="circle37"/>
	<circle cx="265.053" cy="731.08" r="4" fill="#0" id="circle38"/>
	<circle cx="268.92" cy="303.727" r="4" fill="#0" id="circle39"/>
	<circle cx="282.456" cy="740.749" r="4" fill="#0" id="circle40"/>
	<circle cx="288.257" cy="303.727" r="4" fill="#0" id="circle41"/>
	<circle cx="301.793" cy="736.881" r="4" fill="#0" id="circle42"/>
	<circle cx="307.595" cy="303.727" r="4" fill="#0" id="circle43"/>
	<circle cx="313.396" cy="752.351" r="4" fill="#0" id="circle44"/>
	<circle cx="323.064" cy="769.754" r="4" fill="#0" id="circle45"/>
	<circle cx="324.998" cy="313.396" r="4" fill="#0" id="circle46"/>
	<circle cx="328.865" cy="789.092" r="4" fill="#0" id="circle47"/>
	<circle cx="342.402" cy="323.064" r="4" fill="#0" id="circle48"/>
	<circle cx="348.203" cy="789.092" r="4" fill="#0" id="circle49"/>
	<circle cx="361.739" cy="326.932" r="4" fill="#0" id="circle50"/>
	<circle cx="363.673" cy="802.628" r="4" fill="#0" id="circle51"/>
	<circle cx="371.407" cy="821.965" r="4" fill="#0" id="circle52"/>
	<circle cx="379.142" cy="336.6" r="4" fill="#0" id="circle53"/>
	<circle cx="383.01" cy="837.435" r="4" fill="#0" id="circle54"/>
	<circle cx="392.678" cy="352.07" r="4" fill="#0" id="circle55"/>
	<circle cx="402.347" cy="369.474" r="4" fill="#0" id="circle56"/>
	<circle cx="402.347" cy="837.435" r="4" fill="#0" id="circle57"/>
	<circle cx="417.817" cy="383.01" r="4" fill="#0" id="circle58"/>
	<circle cx="421.684" cy="837.435" r="4" fill="#0" id="circle59"/>
	<circle cx="425.552" cy="402.347" r="4" fill="#0" id="circle60"/>
	<circle cx="435.22" cy="419.75" r="4" fill="#0" id="circle61"/>
	<circle cx="439.088" cy="847.103" r="4" fill="#0" id="circle62"/>
	<circle cx="441.021" cy="439.088" r="4" fill="#0" id="circle63"/>
	<circle cx="458.425" cy="448.756" r="4" fill="#0" id="circle64"/>
	<circle cx="458.425" cy="847.103" r="4" fill="#0" id="circle65"/>
	<circle cx="477.762" cy="448.756" r="4" fill="#0" id="circle66"/>
	<circle cx="477.762" cy="847.103" r="4" fill="#0" id="circle67"/>
	<circle cx="487.431" cy="966.994" r="4" fill="#0" id="circle68"/>
	<circle cx="497.099" cy="435.22" r="4" fill="#0" id="circle69"/>
	<circle cx="497.099" cy="847.103" r="4" fill="#0" id="circle70"/>
	<circle cx="502.901" cy="951.524" r="4" fill="#0" id="circle71"/>
	<circle cx="506.768" cy="415.883" r="4" fill="#0" id="circle72"/>
	<circle cx="506.768" cy="972.795" r="4" fill="#0" id="circle73"/>
	<circle cx="516.437" cy="847.103" r="4" fill="#0" id="circle74"/>
	<circle cx="518.37" cy="936.055" r="4" fill="#0" id="circle75"/>
	<circle cx="522.238" cy="400.413" r="4" fill="#0" id="circle76"/>
	<circle cx="524.172" cy="963.127" r="4" fill="#0" id="circle77"/>
	<circle cx="528.039" cy="862.573" r="4" fill="#0" id="circle78"/>
	<circle cx="537.708" cy="384.943" r="4" fill="#0" id="circle79"/>
	<circle cx="537.708" cy="932.187" r="4" fill="#0" id="circle80"/>
	<circle cx="543.509" cy="876.109" r="4" fill="#0" id="circle81"/>
	<circle cx="543.509" cy="963.127" r="4" fill="#0" id="circle82"/>
	<circle cx="551.244" cy="895.446" r="4" fill="#0" id="circle83"/>
	<circle cx="553.177" cy="371.407" r="4" fill="#0" id="circle84"/>
	<circle cx="555.111" cy="914.784" r="4" fill="#0" id="circle85"/>
	<circle cx="562.846" cy="963.127" r="4" fill="#0" id="circle86"/>
	<circle cx="566.713" cy="355.938" r="4" fill="#0" id="circle87"/>
	<circle cx="582.183" cy="342.402" r="4" fill="#0" id="circle88"/>
	<circle cx="582.183" cy="963.127" r="4" fill="#0" id="circle89"/>
	<circle cx="595.719" cy="866.441" r="4" fill="#0" id="circle90"/>
	<circle cx="595.719" cy="885.778" r="4" fill="#0" id="circle91"/>
	<circle cx="595.719" cy="905.115" r="4" fill="#0" id="circle92"/>
	<circle cx="599.587" cy="332.733" r="4" fill="#0" id="circle93"/>
	<circle cx="599.587" cy="972.795" r="4" fill="#0" id="circle94"/>
	<circle cx="605.388" cy="847.103" r="4" fill="#0" id="circle95"/>
	<circle cx="605.388" cy="922.519" r="4" fill="#0" id="circle96"/>
	<circle cx="615.057" cy="317.263" r="4" fill="#0" id="circle97"/>
	<circle cx="615.057" cy="939.922" r="4" fill="#0" id="circle98"/>
	<circle cx="618.924" cy="980.53" r="4" fill="#0" id="circle99"/>
	<circle cx="624.725" cy="847.103" r="4" fill="#0" id="circle100"/>
	<circle cx="630.526" cy="303.727" r="4" fill="#0" id="circle101"/>
	<circle cx="632.46" cy="261.185" r="4" fill="#0" id="circle102"/>
	<circle cx="632.46" cy="280.522" r="4" fill="#0" id="circle103"/>
	<circle cx="632.46" cy="996" r="4" fill="#0" id="circle104"/>
	<circle cx="634.394" cy="941.856" r="4" fill="#0" id="circle105"/>
	<circle cx="642.129" cy="241.848" r="4" fill="#0" id="circle106"/>
	<circle cx="642.129" cy="837.435" r="4" fill="#0" id="circle107"/>
	<circle cx="649.864" cy="953.458" r="4" fill="#0" id="circle108"/>
	<circle cx="651.797" cy="222.511" r="4" fill="#0" id="circle109"/>
	<circle cx="651.797" cy="996" r="4" fill="#0" id="circle110"/>
	<circle cx="661.466" cy="837.435" r="4" fill="#0" id="circle111"/>
	<circle cx="663.4" cy="968.928" r="4" fill="#0" id="circle112"/>
	<circle cx="667.267" cy="207.041" r="4" fill="#0" id="circle113"/>
	<circle cx="680.803" cy="183.836" r="4" fill="#0" id="circle114"/>
	<circle cx="680.803" cy="841.302" r="4" fill="#0" id="circle115"/>
	<circle cx="690.472" cy="164.499" r="4" fill="#0" id="circle116"/>
	<circle cx="700.14" cy="116.156" r="4" fill="#0" id="circle117"/>
	<circle cx="700.14" cy="135.493" r="4" fill="#0" id="circle118"/>
	<circle cx="700.14" cy="837.435" r="4" fill="#0" id="circle119"/>
	<circle cx="709.809" cy="38.807" r="4" fill="#0" id="circle120"/>
	<circle cx="709.809" cy="58.1442" r="4" fill="#0" id="circle121"/>
	<circle cx="709.809" cy="96.8187" r="4" fill="#0" id="circle122"/>
	<circle cx="709.809" cy="918.651" r="4" fill="#0" id="circle123"/>
	<circle cx="709.809" cy="937.988" r="4" fill="#0" id="circle124"/>
	<circle cx="719.478" cy="19.4698" r="4" fill="#0" id="circle125"/>
	<circle cx="719.478" cy="75.5478" r="4" fill="#0" id="circle126"/>
	<circle cx="719.478" cy="837.435" r="4" fill="#0" id="circle127"/>
	<circle cx="725.279" cy="903.181" r="4" fill="#0" id="circle128"/>
	<circle cx="729.146" cy="943.789" r="4" fill="#0" id="circle129"/>
	<circle cx="736.881" cy="847.103" r="4" fill="#0" id="circle130"/>
	<circle cx="738.815" cy="13.6686" r="4" fill="#0" id="circle131"/>
	<circle cx="738.815" cy="879.977" r="4" fill="#0" id="circle132"/>
	<circle cx="748.483" cy="862.573" r="4" fill="#0" id="circle133"/>
	<circle cx="748.483" cy="943.789" r="4" fill="#0" id="circle134"/>
	<circle cx="758.152" cy="13.6686" r="4" fill="#0" id="circle135"/>
	<circle cx="767.821" cy="943.789" r="4" fill="#0" id="circle136"/>
	<circle cx="775.556" cy="4" r="4" fill="#0" id="circle137"/>
	<circle cx="779.423" cy="959.259" r="4" fill="#0" id="circle138"/>
	<circle cx="789.092" cy="876.109" r="4" fill="#0" id="circle139"/>
	<circle cx="794.893" cy="4" r="4" fill="#0" id="circle140"/>
	<circle cx="798.76" cy="856.772" r="4" fill="#0" id="circle141"/>
	<circle cx="798.76" cy="893.513" r="4" fill="#0" id="circle142"/>
	<circle cx="798.76" cy="963.127" r="4" fill="#0" id="circle143"/>
	<circle cx="808.429" cy="827.766" r="4" fill="#0" id="circle144"/>
	<circle cx="808.429" cy="910.916" r="4" fill="#0" id="circle145"/>
	<circle cx="814.23" cy="5.93372" r="4" fill="#0" id="circle146"/>
	<circle cx="818.097" cy="808.429" r="4" fill="#0" id="circle147"/>
	<circle cx="818.097" cy="966.994" r="4" fill="#0" id="circle148"/>
	<circle cx="823.899" cy="922.519" r="4" fill="#0" id="circle149"/>
	<circle cx="827.766" cy="789.092" r="4" fill="#0" id="circle150"/>
	<circle cx="833.567" cy="13.6686" r="4" fill="#0" id="circle151"/>
	<circle cx="837.435" cy="972.795" r="4" fill="#0" id="circle152"/>
	<circle cx="841.302" cy="932.187" r="4" fill="#0" id="circle153"/>
	<circle cx="847.103" cy="769.754" r="4" fill="#0" id="circle154"/>
	<circle cx="852.904" cy="13.6686" r="4" fill="#0" id="circle155"/>
	<circle cx="854.838" cy="982.464" r="4" fill="#0" id="circle156"/>
	<circle cx="858.706" cy="941.856" r="4" fill="#0" id="circle157"/>
	<circle cx="862.573" cy="756.218" r="4" fill="#0" id="circle158"/>
	<circle cx="872.242" cy="13.6686" r="4" fill="#0" id="circle159"/>
	<circle cx="872.242" cy="992.133" r="4" fill="#0" id="circle160"/>
	<circle cx="876.109" cy="731.08" r="4" fill="#0" id="circle161"/>
	<circle cx="876.109" cy="951.524" r="4" fill="#0" id="circle162"/>
	<circle cx="889.645" cy="23.3372" r="4" fill="#0" id="circle163"/>
	<circle cx="891.579" cy="717.544" r="4" fill="#0" id="circle164"/>
	<circle cx="891.579" cy="963.127" r="4" fill="#0" id="circle165"/>
	<circle cx="891.579" cy="992.133" r="4" fill="#0" id="circle166"/>
	<circle cx="895.446" cy="218.643" r="4" fill="#0" id="circle167"/>
	<circle cx="903.181" cy="38.807" r="4" fill="#0" id="circle168"/>
	<circle cx="905.115" cy="160.632" r="4" fill="#0" id="circle169"/>
	<circle cx="905.115" cy="179.969" r="4" fill="#0" id="circle170"/>
	<circle cx="905.115" cy="199.306" r="4" fill="#0" id="circle171"/>
	<circle cx="905.115" cy="236.047" r="4" fill="#0" id="circle172"/>
	<circle cx="905.115" cy="692.405" r="4" fill="#0" id="circle173"/>
	<circle cx="907.049" cy="980.53" r="4" fill="#0" id="circle174"/>
	<circle cx="912.85" cy="56.2105" r="4" fill="#0" id="circle175"/>
	<circle cx="914.784" cy="75.5478" r="4" fill="#0" id="circle176"/>
	<circle cx="914.784" cy="673.068" r="4" fill="#0" id="circle177"/>
	<circle cx="920.585" cy="247.649" r="4" fill="#0" id="circle178"/>
	<circle cx="924.452" cy="160.632" r="4" fill="#0" id="circle179"/>
	<circle cx="924.452" cy="266.986" r="4" fill="#0" id="circle180"/>
	<circle cx="924.452" cy="624.725" r="4" fill="#0" id="circle181"/>
	<circle cx="924.452" cy="644.062" r="4" fill="#0" id="circle182"/>
	<circle cx="926.386" cy="91.0175" r="4" fill="#0" id="circle183"/>
	<circle cx="934.121" cy="284.39" r="4" fill="#0" id="circle184"/>
	<circle cx="934.121" cy="303.727" r="4" fill="#0" id="circle185"/>
	<circle cx="934.121" cy="595.719" r="4" fill="#0" id="circle186"/>
	<circle cx="943.789" cy="100.686" r="4" fill="#0" id="circle187"/>
	<circle cx="943.789" cy="150.963" r="4" fill="#0" id="circle188"/>
	<circle cx="943.789" cy="557.045" r="4" fill="#0" id="circle189"/>
	<circle cx="943.789" cy="576.382" r="4" fill="#0" id="circle190"/>
	<circle cx="949.591" cy="315.329" r="4" fill="#0" id="circle191"/>
	<circle cx="953.458" cy="118.09" r="4" fill="#0" id="circle192"/>
	<circle cx="957.326" cy="334.667" r="4" fill="#0" id="circle193"/>
	<circle cx="959.259" cy="543.509" r="4" fill="#0" id="circle194"/>
	<circle cx="963.127" cy="354.004" r="4" fill="#0" id="circle195"/>
	<circle cx="968.928" cy="524.172" r="4" fill="#0" id="circle196"/>
	<circle cx="972.795" cy="371.407" r="4" fill="#0" id="circle197"/>
	<circle cx="972.795" cy="470.027" r="4" fill="#0" id="circle198"/>
	<circle cx="972.795" cy="489.365" r="4" fill="#0" id="circle199"/>
	<circle cx="982.464" cy="388.811" r="4" fill="#0" id="circle200"/>
	<circle cx="982.464" cy="408.148" r="4" fill="#0" id="circle201"/>
	<circle cx="982.464" cy="427.485" r="4" fill="#0" id="circle202"/>
	<circle cx="982.464" cy="446.823" r="4" fill="#0" id="circle203"/>
	</g>
</svg>