<?xml version="1.0" encoding="UTF-8" standalone="no"?>
<!-- Created with CurveBenchmark -->
<svg
	xmlns:dc="http://purl.org/dc/elements/1.1/"
	xmlns:cc="http://creativecommons.org/ns#"
	xmlns:rdf="http://www.w3.org/1999/02/22-rdf-syntax-ns#"
	xmlns:svg="http://www.w3.org/2000/svg"
	xmlns="http://www.w3.org/2000/svg"
	xmlns:sodipodi="http://sodipodi.sourceforge.net/DTD/sodipodi-0.dtd"
	xmlns:inkscape="http://www.inkscape.org/namespaces/inkscape"
	width="1000"
	height="1000"
	id="svg2"
	version="1.1"
	sodipodi:docname="manifold/gathan1-hammer26.png.txt">
<defs
	id="defs4" />
<metadata
	id="metadata7">
	<rdf:RDF>
		<cc:Work
			rdf:about="">
			<dc:format>image/svg+xml</dc:format>
			<dc:type
				rdf:resource="http://purl.org/dc/dcmitype/StillImage" />
			<dc:title></dc:title>
		</cc:Work>
	</rdf:RDF>
</metadata>
<g
	inkscape:label="Layer 1"
	inkscape:groupmode="layer"
	id="layer1">
	<path style="fill:none;stroke:red;stroke-width:1px;stroke-linecap:butt;stroke-linejoin:miter;stroke-opacity:1" d="M 81.3578,265.651 60.8807,277.028 z" id="boundary" inkscape:connector-curvature="0" />
	<path style="fill:none;stroke:red;stroke-width:1px;stroke-linecap:butt;stroke-linejoin:miter;stroke-opacity:1" d="M 60.8807,277.028 38.1284,277.028 z" id="boundary" inkscape:connector-curvature="0" />
	<path style="fill:none;stroke:red;stroke-width:1px;stroke-linecap:butt;stroke-linejoin:miter;stroke-opacity:1" d="M 81.3578,265.651 104.11,267.927 z" id="boundary" inkscape:connector-curvature="0" />
	<path style="fill:none;stroke:red;stroke-width:1px;stroke-linecap:butt;stroke-linejoin:miter;stroke-opacity:1" d="M 15.3761,283.853 38.1284,277.028 z" id="boundary" inkscape:connector-curvature="0" />
	<path style="fill:none;stroke:red;stroke-width:1px;stroke-linecap:butt;stroke-linejoin:miter;stroke-opacity:1" d="M 149.615,277.028 126.862,277.028 z" id="boundary" inkscape:connector-curvature="0" />
	<path style="fill:none;stroke:red;stroke-width:1px;stroke-linecap:butt;stroke-linejoin:miter;stroke-opacity:1" d="M 126.862,277.028 104.11,267.927 z" id="boundary" inkscape:connector-curvature="0" />
	<path style="fill:none;stroke:red;stroke-width:1px;stroke-linecap:butt;stroke-linejoin:miter;stroke-opacity:1" d="M 4,306.606 15.3761,283.853 z" id="boundary" inkscape:connector-curvature="0" />
	<path style="fill:none;stroke:red;stroke-width:1px;stroke-linecap:butt;stroke-linejoin:miter;stroke-opacity:1" d="M 149.615,277.028 170.092,288.404 z" id="boundary" inkscape:connector-curvature="0" />
	<path style="fill:none;stroke:red;stroke-width:1px;stroke-linecap:butt;stroke-linejoin:miter;stroke-opacity:1" d="M 192.844,288.404 215.596,288.404 z" id="boundary" inkscape:connector-curvature="0" />
	<path style="fill:none;stroke:red;stroke-width:1px;stroke-linecap:butt;stroke-linejoin:miter;stroke-opacity:1" d="M 192.844,288.404 170.092,288.404 z" id="boundary" inkscape:connector-curvature="0" />
	<path style="fill:none;stroke:red;stroke-width:1px;stroke-linecap:butt;stroke-linejoin:miter;stroke-opacity:1" d="M 215.596,288.404 236.073,299.78 z" id="boundary" inkscape:connector-curvature="0" />
	<path style="fill:none;stroke:red;stroke-width:1px;stroke-linecap:butt;stroke-linejoin:miter;stroke-opacity:1" d="M 258.826,299.78 236.073,299.78 z" id="boundary" inkscape:connector-curvature="0" />
	<path style="fill:none;stroke:red;stroke-width:1px;stroke-linecap:butt;stroke-linejoin:miter;stroke-opacity:1" d="M 324.807,311.156 302.055,311.156 z" id="boundary" inkscape:connector-curvature="0" />
	<path style="fill:none;stroke:red;stroke-width:1px;stroke-linecap:butt;stroke-linejoin:miter;stroke-opacity:1" d="M 302.055,311.156 279.303,311.156 z" id="boundary" inkscape:connector-curvature="0" />
	<path style="fill:none;stroke:red;stroke-width:1px;stroke-linecap:butt;stroke-linejoin:miter;stroke-opacity:1" d="M 279.303,311.156 258.826,299.78 z" id="boundary" inkscape:connector-curvature="0" />
	<path style="fill:none;stroke:red;stroke-width:1px;stroke-linecap:butt;stroke-linejoin:miter;stroke-opacity:1" d="M 602.385,358.936 579.633,368.037 z" id="boundary" inkscape:connector-curvature="0" />
	<path style="fill:none;stroke:red;stroke-width:1px;stroke-linecap:butt;stroke-linejoin:miter;stroke-opacity:1" d="M 584.183,265.651 565.982,279.303 z" id="boundary" inkscape:connector-curvature="0" />
	<path style="fill:none;stroke:red;stroke-width:1px;stroke-linecap:butt;stroke-linejoin:miter;stroke-opacity:1" d="M 565.982,279.303 543.229,288.404 z" id="boundary" inkscape:connector-curvature="0" />
	<path style="fill:none;stroke:red;stroke-width:1px;stroke-linecap:butt;stroke-linejoin:miter;stroke-opacity:1" d="M 522.752,299.78 543.229,288.404 z" id="boundary" inkscape:connector-curvature="0" />
	<path style="fill:none;stroke:red;stroke-width:1px;stroke-linecap:butt;stroke-linejoin:miter;stroke-opacity:1" d="M 522.752,299.78 500,299.78 z" id="boundary" inkscape:connector-curvature="0" />
	<path style="fill:none;stroke:red;stroke-width:1px;stroke-linecap:butt;stroke-linejoin:miter;stroke-opacity:1" d="M 479.523,311.156 500,299.78 z" id="boundary" inkscape:connector-curvature="0" />
	<path style="fill:none;stroke:red;stroke-width:1px;stroke-linecap:butt;stroke-linejoin:miter;stroke-opacity:1" d="M 324.807,311.156 347.56,311.156 z" id="boundary" inkscape:connector-curvature="0" />
	<path style="fill:none;stroke:red;stroke-width:1px;stroke-linecap:butt;stroke-linejoin:miter;stroke-opacity:1" d="M 368.037,322.532 347.56,311.156 z" id="boundary" inkscape:connector-curvature="0" />
	<path style="fill:none;stroke:red;stroke-width:1px;stroke-linecap:butt;stroke-linejoin:miter;stroke-opacity:1" d="M 390.789,322.532 368.037,322.532 z" id="boundary" inkscape:connector-curvature="0" />
	<path style="fill:none;stroke:red;stroke-width:1px;stroke-linecap:butt;stroke-linejoin:miter;stroke-opacity:1" d="M 434.018,311.156 413.541,322.532 z" id="boundary" inkscape:connector-curvature="0" />
	<path style="fill:none;stroke:red;stroke-width:1px;stroke-linecap:butt;stroke-linejoin:miter;stroke-opacity:1" d="M 413.541,322.532 390.789,322.532 z" id="boundary" inkscape:connector-curvature="0" />
	<path style="fill:none;stroke:red;stroke-width:1px;stroke-linecap:butt;stroke-linejoin:miter;stroke-opacity:1" d="M 456.771,311.156 434.018,311.156 z" id="boundary" inkscape:connector-curvature="0" />
	<path style="fill:none;stroke:red;stroke-width:1px;stroke-linecap:butt;stroke-linejoin:miter;stroke-opacity:1" d="M 456.771,311.156 479.523,311.156 z" id="boundary" inkscape:connector-curvature="0" />
	<path style="fill:none;stroke:red;stroke-width:1px;stroke-linecap:butt;stroke-linejoin:miter;stroke-opacity:1" d="M 4,329.358 26.7523,336.183 z" id="boundary" inkscape:connector-curvature="0" />
	<path style="fill:none;stroke:red;stroke-width:1px;stroke-linecap:butt;stroke-linejoin:miter;stroke-opacity:1" d="M 26.7523,336.183 47.2294,347.56 z" id="boundary" inkscape:connector-curvature="0" />
	<path style="fill:none;stroke:red;stroke-width:1px;stroke-linecap:butt;stroke-linejoin:miter;stroke-opacity:1" d="M 69.9817,347.56 47.2294,347.56 z" id="boundary" inkscape:connector-curvature="0" />
	<path style="fill:none;stroke:red;stroke-width:1px;stroke-linecap:butt;stroke-linejoin:miter;stroke-opacity:1" d="M 69.9817,347.56 90.4587,358.936 z" id="boundary" inkscape:connector-curvature="0" />
	<path style="fill:none;stroke:red;stroke-width:1px;stroke-linecap:butt;stroke-linejoin:miter;stroke-opacity:1" d="M 113.211,358.936 135.963,358.936 z" id="boundary" inkscape:connector-curvature="0" />
	<path style="fill:none;stroke:red;stroke-width:1px;stroke-linecap:butt;stroke-linejoin:miter;stroke-opacity:1" d="M 135.963,358.936 156.44,370.312 z" id="boundary" inkscape:connector-curvature="0" />
	<path style="fill:none;stroke:red;stroke-width:1px;stroke-linecap:butt;stroke-linejoin:miter;stroke-opacity:1" d="M 113.211,358.936 90.4587,358.936 z" id="boundary" inkscape:connector-curvature="0" />
	<path style="fill:none;stroke:red;stroke-width:1px;stroke-linecap:butt;stroke-linejoin:miter;stroke-opacity:1" d="M 201.945,370.312 179.193,370.312 z" id="boundary" inkscape:connector-curvature="0" />
	<path style="fill:none;stroke:red;stroke-width:1px;stroke-linecap:butt;stroke-linejoin:miter;stroke-opacity:1" d="M 156.44,370.312 179.193,370.312 z" id="boundary" inkscape:connector-curvature="0" />
	<path style="fill:none;stroke:red;stroke-width:1px;stroke-linecap:butt;stroke-linejoin:miter;stroke-opacity:1" d="M 201.945,370.312 222.422,381.688 z" id="boundary" inkscape:connector-curvature="0" />
	<path style="fill:none;stroke:red;stroke-width:1px;stroke-linecap:butt;stroke-linejoin:miter;stroke-opacity:1" d="M 222.422,381.688 245.174,381.688 z" id="boundary" inkscape:connector-curvature="0" />
	<path style="fill:none;stroke:red;stroke-width:1px;stroke-linecap:butt;stroke-linejoin:miter;stroke-opacity:1" d="M 267.927,381.688 288.404,393.064 z" id="boundary" inkscape:connector-curvature="0" />
	<path style="fill:none;stroke:red;stroke-width:1px;stroke-linecap:butt;stroke-linejoin:miter;stroke-opacity:1" d="M 245.174,381.688 267.927,381.688 z" id="boundary" inkscape:connector-curvature="0" />
	<path style="fill:none;stroke:red;stroke-width:1px;stroke-linecap:butt;stroke-linejoin:miter;stroke-opacity:1" d="M 4,329.358 4,306.606 z" id="boundary" inkscape:connector-curvature="0" />
	<path style="fill:none;stroke:red;stroke-width:1px;stroke-linecap:butt;stroke-linejoin:miter;stroke-opacity:1" d="M 468.147,388.514 445.394,393.064 z" id="boundary" inkscape:connector-curvature="0" />
	<path style="fill:none;stroke:red;stroke-width:1px;stroke-linecap:butt;stroke-linejoin:miter;stroke-opacity:1" d="M 490.899,381.688 468.147,388.514 z" id="boundary" inkscape:connector-curvature="0" />
	<path style="fill:none;stroke:red;stroke-width:1px;stroke-linecap:butt;stroke-linejoin:miter;stroke-opacity:1" d="M 490.899,381.688 513.651,381.688 z" id="boundary" inkscape:connector-curvature="0" />
	<path style="fill:none;stroke:red;stroke-width:1px;stroke-linecap:butt;stroke-linejoin:miter;stroke-opacity:1" d="M 556.881,370.312 579.633,368.037 z" id="boundary" inkscape:connector-curvature="0" />
	<path style="fill:none;stroke:red;stroke-width:1px;stroke-linecap:butt;stroke-linejoin:miter;stroke-opacity:1" d="M 536.404,381.688 556.881,370.312 z" id="boundary" inkscape:connector-curvature="0" />
	<path style="fill:none;stroke:red;stroke-width:1px;stroke-linecap:butt;stroke-linejoin:miter;stroke-opacity:1" d="M 513.651,381.688 536.404,381.688 z" id="boundary" inkscape:connector-curvature="0" />
	<path style="fill:none;stroke:red;stroke-width:1px;stroke-linecap:butt;stroke-linejoin:miter;stroke-opacity:1" d="M 311.156,393.064 333.908,393.064 z" id="boundary" inkscape:connector-curvature="0" />
	<path style="fill:none;stroke:red;stroke-width:1px;stroke-linecap:butt;stroke-linejoin:miter;stroke-opacity:1" d="M 356.661,393.064 333.908,393.064 z" id="boundary" inkscape:connector-curvature="0" />
	<path style="fill:none;stroke:red;stroke-width:1px;stroke-linecap:butt;stroke-linejoin:miter;stroke-opacity:1" d="M 356.661,393.064 377.138,404.44 z" id="boundary" inkscape:connector-curvature="0" />
	<path style="fill:none;stroke:red;stroke-width:1px;stroke-linecap:butt;stroke-linejoin:miter;stroke-opacity:1" d="M 422.642,393.064 445.394,393.064 z" id="boundary" inkscape:connector-curvature="0" />
	<path style="fill:none;stroke:red;stroke-width:1px;stroke-linecap:butt;stroke-linejoin:miter;stroke-opacity:1" d="M 399.89,399.89 422.642,393.064 z" id="boundary" inkscape:connector-curvature="0" />
	<path style="fill:none;stroke:red;stroke-width:1px;stroke-linecap:butt;stroke-linejoin:miter;stroke-opacity:1" d="M 377.138,404.44 399.89,399.89 z" id="boundary" inkscape:connector-curvature="0" />
	<path style="fill:none;stroke:red;stroke-width:1px;stroke-linecap:butt;stroke-linejoin:miter;stroke-opacity:1" d="M 288.404,393.064 311.156,393.064 z" id="boundary" inkscape:connector-curvature="0" />
	<path style="fill:none;stroke:red;stroke-width:1px;stroke-linecap:butt;stroke-linejoin:miter;stroke-opacity:1" d="M 584.183,265.651 606.936,265.651 z" id="boundary" inkscape:connector-curvature="0" />
	<path style="fill:none;stroke:red;stroke-width:1px;stroke-linecap:butt;stroke-linejoin:miter;stroke-opacity:1" d="M 800.33,44.9541 800.33,67.7064 z" id="boundary" inkscape:connector-curvature="0" />
	<path style="fill:none;stroke:red;stroke-width:1px;stroke-linecap:butt;stroke-linejoin:miter;stroke-opacity:1" d="M 800.33,44.9541 818.532,26.7523 z" id="boundary" inkscape:connector-curvature="0" />
	<path style="fill:none;stroke:red;stroke-width:1px;stroke-linecap:butt;stroke-linejoin:miter;stroke-opacity:1" d="M 800.33,67.7064 800.33,90.4587 z" id="boundary" inkscape:connector-curvature="0" />
	<path style="fill:none;stroke:red;stroke-width:1px;stroke-linecap:butt;stroke-linejoin:miter;stroke-opacity:1" d="M 811.706,110.936 800.33,90.4587 z" id="boundary" inkscape:connector-curvature="0" />
	<path style="fill:none;stroke:red;stroke-width:1px;stroke-linecap:butt;stroke-linejoin:miter;stroke-opacity:1" d="M 807.156,140.514 811.706,110.936 z" id="boundary" inkscape:connector-curvature="0" />
	<path style="fill:none;stroke:red;stroke-width:1px;stroke-linecap:butt;stroke-linejoin:miter;stroke-opacity:1" d="M 818.532,26.7523 839.009,15.3761 z" id="boundary" inkscape:connector-curvature="0" />
	<path style="fill:none;stroke:red;stroke-width:1px;stroke-linecap:butt;stroke-linejoin:miter;stroke-opacity:1" d="M 807.156,140.514 788.954,158.716 z" id="boundary" inkscape:connector-curvature="0" />
	<path style="fill:none;stroke:red;stroke-width:1px;stroke-linecap:butt;stroke-linejoin:miter;stroke-opacity:1" d="M 773.028,186.018 788.954,158.716 z" id="boundary" inkscape:connector-curvature="0" />
	<path style="fill:none;stroke:red;stroke-width:1px;stroke-linecap:butt;stroke-linejoin:miter;stroke-opacity:1" d="M 691.119,231.523 670.642,242.899 z" id="boundary" inkscape:connector-curvature="0" />
	<path style="fill:none;stroke:red;stroke-width:1px;stroke-linecap:butt;stroke-linejoin:miter;stroke-opacity:1" d="M 670.642,242.899 647.89,242.899 z" id="boundary" inkscape:connector-curvature="0" />
	<path style="fill:none;stroke:red;stroke-width:1px;stroke-linecap:butt;stroke-linejoin:miter;stroke-opacity:1" d="M 711.596,220.147 691.119,231.523 z" id="boundary" inkscape:connector-curvature="0" />
	<path style="fill:none;stroke:red;stroke-width:1px;stroke-linecap:butt;stroke-linejoin:miter;stroke-opacity:1" d="M 627.413,254.275 647.89,242.899 z" id="boundary" inkscape:connector-curvature="0" />
	<path style="fill:none;stroke:red;stroke-width:1px;stroke-linecap:butt;stroke-linejoin:miter;stroke-opacity:1" d="M 752.55,197.394 773.028,186.018 z" id="boundary" inkscape:connector-curvature="0" />
	<path style="fill:none;stroke:red;stroke-width:1px;stroke-linecap:butt;stroke-linejoin:miter;stroke-opacity:1" d="M 752.55,197.394 732.073,208.771 z" id="boundary" inkscape:connector-curvature="0" />
	<path style="fill:none;stroke:red;stroke-width:1px;stroke-linecap:butt;stroke-linejoin:miter;stroke-opacity:1" d="M 711.596,220.147 732.073,208.771 z" id="boundary" inkscape:connector-curvature="0" />
	<path style="fill:none;stroke:red;stroke-width:1px;stroke-linecap:butt;stroke-linejoin:miter;stroke-opacity:1" d="M 839.009,15.3761 859.486,4 z" id="boundary" inkscape:connector-curvature="0" />
	<path style="fill:none;stroke:red;stroke-width:1px;stroke-linecap:butt;stroke-linejoin:miter;stroke-opacity:1" d="M 859.486,4 882.239,10.8257 z" id="boundary" inkscape:connector-curvature="0" />
	<path style="fill:none;stroke:red;stroke-width:1px;stroke-linecap:butt;stroke-linejoin:miter;stroke-opacity:1" d="M 882.239,10.8257 898.165,29.0275 z" id="boundary" inkscape:connector-curvature="0" />
	<path style="fill:none;stroke:red;stroke-width:1px;stroke-linecap:butt;stroke-linejoin:miter;stroke-opacity:1" d="M 898.165,29.0275 909.541,49.5046 z" id="boundary" inkscape:connector-curvature="0" />
	<path style="fill:none;stroke:red;stroke-width:1px;stroke-linecap:butt;stroke-linejoin:miter;stroke-opacity:1" d="M 925.468,67.7064 909.541,49.5046 z" id="boundary" inkscape:connector-curvature="0" />
	<path style="fill:none;stroke:red;stroke-width:1px;stroke-linecap:butt;stroke-linejoin:miter;stroke-opacity:1" d="M 925.468,67.7064 936.844,88.1835 z" id="boundary" inkscape:connector-curvature="0" />
	<path style="fill:none;stroke:red;stroke-width:1px;stroke-linecap:butt;stroke-linejoin:miter;stroke-opacity:1" d="M 950.495,106.385 936.844,88.1835 z" id="boundary" inkscape:connector-curvature="0" />
	<path style="fill:none;stroke:red;stroke-width:1px;stroke-linecap:butt;stroke-linejoin:miter;stroke-opacity:1" d="M 961.872,149.615 950.495,129.138 z" id="boundary" inkscape:connector-curvature="0" />
	<path style="fill:none;stroke:red;stroke-width:1px;stroke-linecap:butt;stroke-linejoin:miter;stroke-opacity:1" d="M 950.495,129.138 950.495,106.385 z" id="boundary" inkscape:connector-curvature="0" />
	<path style="fill:none;stroke:red;stroke-width:1px;stroke-linecap:butt;stroke-linejoin:miter;stroke-opacity:1" d="M 973.248,170.092 961.872,149.615 z" id="boundary" inkscape:connector-curvature="0" />
	<path style="fill:none;stroke:red;stroke-width:1px;stroke-linecap:butt;stroke-linejoin:miter;stroke-opacity:1" d="M 973.248,170.092 973.248,192.844 z" id="boundary" inkscape:connector-curvature="0" />
	<path style="fill:none;stroke:red;stroke-width:1px;stroke-linecap:butt;stroke-linejoin:miter;stroke-opacity:1" d="M 993.725,258.826 982.349,238.349 z" id="boundary" inkscape:connector-curvature="0" />
	<path style="fill:none;stroke:red;stroke-width:1px;stroke-linecap:butt;stroke-linejoin:miter;stroke-opacity:1" d="M 973.248,192.844 973.248,215.596 z" id="boundary" inkscape:connector-curvature="0" />
	<path style="fill:none;stroke:red;stroke-width:1px;stroke-linecap:butt;stroke-linejoin:miter;stroke-opacity:1" d="M 982.349,238.349 973.248,215.596 z" id="boundary" inkscape:connector-curvature="0" />
	<path style="fill:none;stroke:red;stroke-width:1px;stroke-linecap:butt;stroke-linejoin:miter;stroke-opacity:1" d="M 606.936,265.651 627.413,254.275 z" id="boundary" inkscape:connector-curvature="0" />
	<path style="fill:none;stroke:red;stroke-width:1px;stroke-linecap:butt;stroke-linejoin:miter;stroke-opacity:1" d="M 748,290.679 727.523,302.055 z" id="boundary" inkscape:connector-curvature="0" />
	<path style="fill:none;stroke:red;stroke-width:1px;stroke-linecap:butt;stroke-linejoin:miter;stroke-opacity:1" d="M 727.523,302.055 709.321,317.982 z" id="boundary" inkscape:connector-curvature="0" />
	<path style="fill:none;stroke:red;stroke-width:1px;stroke-linecap:butt;stroke-linejoin:miter;stroke-opacity:1" d="M 791.229,279.303 811.706,267.927 z" id="boundary" inkscape:connector-curvature="0" />
	<path style="fill:none;stroke:red;stroke-width:1px;stroke-linecap:butt;stroke-linejoin:miter;stroke-opacity:1" d="M 834.459,261.101 811.706,267.927 z" id="boundary" inkscape:connector-curvature="0" />
	<path style="fill:none;stroke:red;stroke-width:1px;stroke-linecap:butt;stroke-linejoin:miter;stroke-opacity:1" d="M 770.752,290.679 791.229,279.303 z" id="boundary" inkscape:connector-curvature="0" />
	<path style="fill:none;stroke:red;stroke-width:1px;stroke-linecap:butt;stroke-linejoin:miter;stroke-opacity:1" d="M 770.752,290.679 748,290.679 z" id="boundary" inkscape:connector-curvature="0" />
	<path style="fill:none;stroke:red;stroke-width:1px;stroke-linecap:butt;stroke-linejoin:miter;stroke-opacity:1" d="M 602.385,358.936 622.862,347.56 z" id="boundary" inkscape:connector-curvature="0" />
	<path style="fill:none;stroke:red;stroke-width:1px;stroke-linecap:butt;stroke-linejoin:miter;stroke-opacity:1" d="M 622.862,347.56 645.615,347.56 z" id="boundary" inkscape:connector-curvature="0" />
	<path style="fill:none;stroke:red;stroke-width:1px;stroke-linecap:butt;stroke-linejoin:miter;stroke-opacity:1" d="M 666.092,336.183 645.615,347.56 z" id="boundary" inkscape:connector-curvature="0" />
	<path style="fill:none;stroke:red;stroke-width:1px;stroke-linecap:butt;stroke-linejoin:miter;stroke-opacity:1" d="M 666.092,336.183 686.569,324.807 z" id="boundary" inkscape:connector-curvature="0" />
	<path style="fill:none;stroke:red;stroke-width:1px;stroke-linecap:butt;stroke-linejoin:miter;stroke-opacity:1" d="M 686.569,324.807 709.321,317.982 z" id="boundary" inkscape:connector-curvature="0" />
	<path style="fill:none;stroke:red;stroke-width:1px;stroke-linecap:butt;stroke-linejoin:miter;stroke-opacity:1" d="M 868.587,288.404 857.211,267.927 z" id="boundary" inkscape:connector-curvature="0" />
	<path style="fill:none;stroke:red;stroke-width:1px;stroke-linecap:butt;stroke-linejoin:miter;stroke-opacity:1" d="M 857.211,267.927 852.661,245.174 z" id="boundary" inkscape:connector-curvature="0" />
	<path style="fill:none;stroke:red;stroke-width:1px;stroke-linecap:butt;stroke-linejoin:miter;stroke-opacity:1" d="M 868.587,288.404 873.138,311.156 z" id="boundary" inkscape:connector-curvature="0" />
	<path style="fill:none;stroke:red;stroke-width:1px;stroke-linecap:butt;stroke-linejoin:miter;stroke-opacity:1" d="M 996,281.578 996,304.33 z" id="boundary" inkscape:connector-curvature="0" />
	<path style="fill:none;stroke:red;stroke-width:1px;stroke-linecap:butt;stroke-linejoin:miter;stroke-opacity:1" d="M 993.725,258.826 996,281.578 z" id="boundary" inkscape:connector-curvature="0" />
	<path style="fill:none;stroke:red;stroke-width:1px;stroke-linecap:butt;stroke-linejoin:miter;stroke-opacity:1" d="M 873.138,311.156 879.963,333.908 z" id="boundary" inkscape:connector-curvature="0" />
	<path style="fill:none;stroke:red;stroke-width:1px;stroke-linecap:butt;stroke-linejoin:miter;stroke-opacity:1" d="M 932.294,368.037 909.541,370.312 z" id="boundary" inkscape:connector-curvature="0" />
	<path style="fill:none;stroke:red;stroke-width:1px;stroke-linecap:butt;stroke-linejoin:miter;stroke-opacity:1" d="M 909.541,370.312 893.615,352.11 z" id="boundary" inkscape:connector-curvature="0" />
	<path style="fill:none;stroke:red;stroke-width:1px;stroke-linecap:butt;stroke-linejoin:miter;stroke-opacity:1" d="M 893.615,352.11 879.963,333.908 z" id="boundary" inkscape:connector-curvature="0" />
	<path style="fill:none;stroke:red;stroke-width:1px;stroke-linecap:butt;stroke-linejoin:miter;stroke-opacity:1" d="M 955.046,358.936 932.294,368.037 z" id="boundary" inkscape:connector-curvature="0" />
	<path style="fill:none;stroke:red;stroke-width:1px;stroke-linecap:butt;stroke-linejoin:miter;stroke-opacity:1" d="M 975.523,347.56 955.046,358.936 z" id="boundary" inkscape:connector-curvature="0" />
	<path style="fill:none;stroke:red;stroke-width:1px;stroke-linecap:butt;stroke-linejoin:miter;stroke-opacity:1" d="M 996,304.33 996,336.183 z" id="boundary" inkscape:connector-curvature="0" />
	<path style="fill:none;stroke:red;stroke-width:1px;stroke-linecap:butt;stroke-linejoin:miter;stroke-opacity:1" d="M 996,336.183 975.523,347.56 z" id="boundary" inkscape:connector-curvature="0" />
	<circle cx="4" cy="306.606" r="4" fill="#0" id="circle0"/>
	<circle cx="4" cy="329.358" r="4" fill="#0" id="circle1"/>
	<circle cx="15.3761" cy="283.853" r="4" fill="#0" id="circle2"/>
	<circle cx="26.7523" cy="336.183" r="4" fill="#0" id="circle3"/>
	<circle cx="38.1284" cy="277.028" r="4" fill="#0" id="circle4"/>
	<circle cx="47.2294" cy="347.56" r="4" fill="#0" id="circle5"/>
	<circle cx="60.8807" cy="277.028" r="4" fill="#0" id="circle6"/>
	<circle cx="69.9817" cy="347.56" r="4" fill="#0" id="circle7"/>
	<circle cx="81.3578" cy="265.651" r="4" fill="#0" id="circle8"/>
	<circle cx="90.4587" cy="358.936" r="4" fill="#0" id="circle9"/>
	<circle cx="104.11" cy="267.927" r="4" fill="#0" id="circle10"/>
	<circle cx="113.211" cy="358.936" r="4" fill="#0" id="circle11"/>
	<circle cx="126.862" cy="277.028" r="4" fill="#0" id="circle12"/>
	<circle cx="135.963" cy="358.936" r="4" fill="#0" id="circle13"/>
	<circle cx="149.615" cy="277.028" r="4" fill="#0" id="circle14"/>
	<circle cx="156.44" cy="370.312" r="4" fill="#0" id="circle15"/>
	<circle cx="170.092" cy="288.404" r="4" fill="#0" id="circle16"/>
	<circle cx="179.193" cy="370.312" r="4" fill="#0" id="circle17"/>
	<circle cx="192.844" cy="288.404" r="4" fill="#0" id="circle18"/>
	<circle cx="201.945" cy="370.312" r="4" fill="#0" id="circle19"/>
	<circle cx="215.596" cy="288.404" r="4" fill="#0" id="circle20"/>
	<circle cx="222.422" cy="381.688" r="4" fill="#0" id="circle21"/>
	<circle cx="236.073" cy="299.78" r="4" fill="#0" id="circle22"/>
	<circle cx="245.174" cy="381.688" r="4" fill="#0" id="circle23"/>
	<circle cx="258.826" cy="299.78" r="4" fill="#0" id="circle24"/>
	<circle cx="267.927" cy="381.688" r="4" fill="#0" id="circle25"/>
	<circle cx="279.303" cy="311.156" r="4" fill="#0" id="circle26"/>
	<circle cx="288.404" cy="393.064" r="4" fill="#0" id="circle27"/>
	<circle cx="302.055" cy="311.156" r="4" fill="#0" id="circle28"/>
	<circle cx="311.156" cy="393.064" r="4" fill="#0" id="circle29"/>
	<circle cx="324.807" cy="311.156" r="4" fill="#0" id="circle30"/>
	<circle cx="333.908" cy="393.064" r="4" fill="#0" id="circle31"/>
	<circle cx="347.56" cy="311.156" r="4" fill="#0" id="circle32"/>
	<circle cx="356.661" cy="393.064" r="4" fill="#0" id="circle33"/>
	<circle cx="368.037" cy="322.532" r="4" fill="#0" id="circle34"/>
	<circle cx="377.138" cy="404.44" r="4" fill="#0" id="circle35"/>
	<circle cx="390.789" cy="322.532" r="4" fill="#0" id="circle36"/>
	<circle cx="399.89" cy="399.89" r="4" fill="#0" id="circle37"/>
	<circle cx="413.541" cy="322.532" r="4" fill="#0" id="circle38"/>
	<circle cx="422.642" cy="393.064" r="4" fill="#0" id="circle39"/>
	<circle cx="434.018" cy="311.156" r="4" fill="#0" id="circle40"/>
	<circle cx="445.394" cy="393.064" r="4" fill="#0" id="circle41"/>
	<circle cx="456.771" cy="311.156" r="4" fill="#0" id="circle42"/>
	<circle cx="468.147" cy="388.514" r="4" fill="#0" id="circle43"/>
	<circle cx="479.523" cy="311.156" r="4" fill="#0" id="circle44"/>
	<circle cx="490.899" cy="381.688" r="4" fill="#0" id="circle45"/>
	<circle cx="500" cy="299.78" r="4" fill="#0" id="circle46"/>
	<circle cx="513.651" cy="381.688" r="4" fill="#0" id="circle47"/>
	<circle cx="522.752" cy="299.78" r="4" fill="#0" id="circle48"/>
	<circle cx="536.404" cy="381.688" r="4" fill="#0" id="circle49"/>
	<circle cx="543.229" cy="288.404" r="4" fill="#0" id="circle50"/>
	<circle cx="556.881" cy="370.312" r="4" fill="#0" id="circle51"/>
	<circle cx="565.982" cy="279.303" r="4" fill="#0" id="circle52"/>
	<circle cx="579.633" cy="368.037" r="4" fill="#0" id="circle53"/>
	<circle cx="584.183" cy="265.651" r="4" fill="#0" id="circle54"/>
	<circle cx="602.385" cy="358.936" r="4" fill="#0" id="circle55"/>
	<circle cx="606.936" cy="265.651" r="4" fill="#0" id="circle56"/>
	<circle cx="622.862" cy="347.56" r="4" fill="#0" id="circle57"/>
	<circle cx="627.413" cy="254.275" r="4" fill="#0" id="circle58"/>
	<circle cx="645.615" cy="347.56" r="4" fill="#0" id="circle59"/>
	<circle cx="647.89" cy="242.899" r="4" fill="#0" id="circle60"/>
	<circle cx="666.092" cy="336.183" r="4" fill="#0" id="circle61"/>
	<circle cx="670.642" cy="242.899" r="4" fill="#0" id="circle62"/>
	<circle cx="686.569" cy="324.807" r="4" fill="#0" id="circle63"/>
	<circle cx="691.119" cy="231.523" r="4" fill="#0" id="circle64"/>
	<circle cx="709.321" cy="317.982" r="4" fill="#0" id="circle65"/>
	<circle cx="711.596" cy="220.147" r="4" fill="#0" id="circle66"/>
	<circle cx="727.523" cy="302.055" r="4" fill="#0" id="circle67"/>
	<circle cx="732.073" cy="208.771" r="4" fill="#0" id="circle68"/>
	<circle cx="748" cy="290.679" r="4" fill="#0" id="circle69"/>
	<circle cx="752.55" cy="197.394" r="4" fill="#0" id="circle70"/>
	<circle cx="770.752" cy="290.679" r="4" fill="#0" id="circle71"/>
	<circle cx="773.028" cy="186.018" r="4" fill="#0" id="circle72"/>
	<circle cx="788.954" cy="158.716" r="4" fill="#0" id="circle73"/>
	<circle cx="791.229" cy="279.303" r="4" fill="#0" id="circle74"/>
	<circle cx="800.33" cy="44.9541" r="4" fill="#0" id="circle75"/>
	<circle cx="800.33" cy="67.7064" r="4" fill="#0" id="circle76"/>
	<circle cx="800.33" cy="90.4587" r="4" fill="#0" id="circle77"/>
	<circle cx="807.156" cy="140.514" r="4" fill="#0" id="circle78"/>
	<circle cx="811.706" cy="110.936" r="4" fill="#0" id="circle79"/>
	<circle cx="811.706" cy="267.927" r="4" fill="#0" id="circle80"/>
	<circle cx="818.532" cy="26.7523" r="4" fill="#0" id="circle81"/>
	<circle cx="834.459" cy="261.101" r="4" fill="#0" id="circle82"/>
	<circle cx="839.009" cy="15.3761" r="4" fill="#0" id="circle83"/>
	<circle cx="852.661" cy="245.174" r="4" fill="#0" id="circle84"/>
	<circle cx="857.211" cy="267.927" r="4" fill="#0" id="circle85"/>
	<circle cx="859.486" cy="4" r="4" fill="#0" id="circle86"/>
	<circle cx="868.587" cy="288.404" r="4" fill="#0" id="circle87"/>
	<circle cx="873.138" cy="311.156" r="4" fill="#0" id="circle88"/>
	<circle cx="879.963" cy="333.908" r="4" fill="#0" id="circle89"/>
	<circle cx="882.239" cy="10.8257" r="4" fill="#0" id="circle90"/>
	<circle cx="893.615" cy="352.11" r="4" fill="#0" id="circle91"/>
	<circle cx="898.165" cy="29.0275" r="4" fill="#0" id="circle92"/>
	<circle cx="909.541" cy="49.5046" r="4" fill="#0" id="circle93"/>
	<circle cx="909.541" cy="370.312" r="4" fill="#0" id="circle94"/>
	<circle cx="925.468" cy="67.7064" r="4" fill="#0" id="circle95"/>
	<circle cx="932.294" cy="368.037" r="4" fill="#0" id="circle96"/>
	<circle cx="936.844" cy="88.1835" r="4" fill="#0" id="circle97"/>
	<circle cx="950.495" cy="106.385" r="4" fill="#0" id="circle98"/>
	<circle cx="950.495" cy="129.138" r="4" fill="#0" id="circle99"/>
	<circle cx="955.046" cy="358.936" r="4" fill="#0" id="circle100"/>
	<circle cx="961.872" cy="149.615" r="4" fill="#0" id="circle101"/>
	<circle cx="973.248" cy="170.092" r="4" fill="#0" id="circle102"/>
	<circle cx="973.248" cy="192.844" r="4" fill="#0" id="circle103"/>
	<circle cx="973.248" cy="215.596" r="4" fill="#0" id="circle104"/>
	<circle cx="975.523" cy="347.56" r="4" fill="#0" id="circle105"/>
	<circle cx="982.349" cy="238.349" r="4" fill="#0" id="circle106"/>
	<circle cx="993.725" cy="258.826" r="4" fill="#0" id="circle107"/>
	<circle cx="996" cy="281.578" r="4" fill="#0" id="circle108"/>
	<circle cx="996" cy="304.33" r="4" fill="#0" id="circle109"/>
	<circle cx="996" cy="336.183" r="4" fill="#0" id="circle110"/>
	</g>
</svg>