<?xml version="1.0" encoding="UTF-8" standalone="no"?>
<!-- Created with CurveBenchmark -->
<svg
	xmlns:dc="http://purl.org/dc/elements/1.1/"
	xmlns:cc="http://creativecommons.org/ns#"
	xmlns:rdf="http://www.w3.org/1999/02/22-rdf-syntax-ns#"
	xmlns:svg="http://www.w3.org/2000/svg"
	xmlns="http://www.w3.org/2000/svg"
	xmlns:sodipodi="http://sodipodi.sourceforge.net/DTD/sodipodi-0.dtd"
	xmlns:inkscape="http://www.inkscape.org/namespaces/inkscape"
	width="1000"
	height="1000"
	id="svg2"
	version="1.1"
	sodipodi:docname="manifold/gathan1-brick05.png.txt">
<defs
	id="defs4" />
<metadata
	id="metadata7">
	<rdf:RDF>
		<cc:Work
			rdf:about="">
			<dc:format>image/svg+xml</dc:format>
			<dc:type
				rdf:resource="http://purl.org/dc/dcmitype/StillImage" />
			<dc:title></dc:title>
		</cc:Work>
	</rdf:RDF>
</metadata>
<g
	inkscape:label="Layer 1"
	inkscape:groupmode="layer"
	id="layer1">
	<path style="fill:none;stroke:red;stroke-width:1px;stroke-linecap:butt;stroke-linejoin:miter;stroke-opacity:1" d="M 116.09,56.3089 116.09,37.6271 z" id="boundary" inkscape:connector-curvature="0" />
	<path style="fill:none;stroke:red;stroke-width:1px;stroke-linecap:butt;stroke-linejoin:miter;stroke-opacity:1" d="M 125.431,18.9454 116.09,37.6271 z" id="boundary" inkscape:connector-curvature="0" />
	<path style="fill:none;stroke:red;stroke-width:1px;stroke-linecap:butt;stroke-linejoin:miter;stroke-opacity:1" d="M 116.09,56.3089 116.09,74.9906 z" id="boundary" inkscape:connector-curvature="0" />
	<path style="fill:none;stroke:red;stroke-width:1px;stroke-linecap:butt;stroke-linejoin:miter;stroke-opacity:1" d="M 125.431,18.9454 144.113,13.3409 z" id="boundary" inkscape:connector-curvature="0" />
	<path style="fill:none;stroke:red;stroke-width:1px;stroke-linecap:butt;stroke-linejoin:miter;stroke-opacity:1" d="M 181.476,4 200.158,4 z" id="boundary" inkscape:connector-curvature="0" />
	<path style="fill:none;stroke:red;stroke-width:1px;stroke-linecap:butt;stroke-linejoin:miter;stroke-opacity:1" d="M 162.795,9.60452 181.476,4 z" id="boundary" inkscape:connector-curvature="0" />
	<path style="fill:none;stroke:red;stroke-width:1px;stroke-linecap:butt;stroke-linejoin:miter;stroke-opacity:1" d="M 162.795,9.60452 144.113,13.3409 z" id="boundary" inkscape:connector-curvature="0" />
	<path style="fill:none;stroke:red;stroke-width:1px;stroke-linecap:butt;stroke-linejoin:miter;stroke-opacity:1" d="M 116.09,93.6723 116.09,74.9906 z" id="boundary" inkscape:connector-curvature="0" />
	<path style="fill:none;stroke:red;stroke-width:1px;stroke-linecap:butt;stroke-linejoin:miter;stroke-opacity:1" d="M 71.2542,175.872 56.3089,190.817 z" id="boundary" inkscape:connector-curvature="0" />
	<path style="fill:none;stroke:red;stroke-width:1px;stroke-linecap:butt;stroke-linejoin:miter;stroke-opacity:1" d="M 80.5951,157.19 71.2542,175.872 z" id="boundary" inkscape:connector-curvature="0" />
	<path style="fill:none;stroke:red;stroke-width:1px;stroke-linecap:butt;stroke-linejoin:miter;stroke-opacity:1" d="M 32.0226,224.444 41.3635,205.763 z" id="boundary" inkscape:connector-curvature="0" />
	<path style="fill:none;stroke:red;stroke-width:1px;stroke-linecap:butt;stroke-linejoin:miter;stroke-opacity:1" d="M 41.3635,205.763 56.3089,190.817 z" id="boundary" inkscape:connector-curvature="0" />
	<path style="fill:none;stroke:red;stroke-width:1px;stroke-linecap:butt;stroke-linejoin:miter;stroke-opacity:1" d="M 108.618,129.168 116.09,93.6723 z" id="boundary" inkscape:connector-curvature="0" />
	<path style="fill:none;stroke:red;stroke-width:1px;stroke-linecap:butt;stroke-linejoin:miter;stroke-opacity:1" d="M 108.618,129.168 95.5405,144.113 z" id="boundary" inkscape:connector-curvature="0" />
	<path style="fill:none;stroke:red;stroke-width:1px;stroke-linecap:butt;stroke-linejoin:miter;stroke-opacity:1" d="M 80.5951,157.19 95.5405,144.113 z" id="boundary" inkscape:connector-curvature="0" />
	<path style="fill:none;stroke:red;stroke-width:1px;stroke-linecap:butt;stroke-linejoin:miter;stroke-opacity:1" d="M 200.158,4 218.84,4 z" id="boundary" inkscape:connector-curvature="0" />
	<path style="fill:none;stroke:red;stroke-width:1px;stroke-linecap:butt;stroke-linejoin:miter;stroke-opacity:1" d="M 32.0226,224.444 13.3409,233.785 z" id="boundary" inkscape:connector-curvature="0" />
	<path style="fill:none;stroke:red;stroke-width:1px;stroke-linecap:butt;stroke-linejoin:miter;stroke-opacity:1" d="M 218.84,4 237.522,4 z" id="boundary" inkscape:connector-curvature="0" />
	<path style="fill:none;stroke:red;stroke-width:1px;stroke-linecap:butt;stroke-linejoin:miter;stroke-opacity:1" d="M 256.203,4 271.149,15.209 z" id="boundary" inkscape:connector-curvature="0" />
	<path style="fill:none;stroke:red;stroke-width:1px;stroke-linecap:butt;stroke-linejoin:miter;stroke-opacity:1" d="M 237.522,4 256.203,4 z" id="boundary" inkscape:connector-curvature="0" />
	<path style="fill:none;stroke:red;stroke-width:1px;stroke-linecap:butt;stroke-linejoin:miter;stroke-opacity:1" d="M 271.149,15.209 286.094,28.2863 z" id="boundary" inkscape:connector-curvature="0" />
	<path style="fill:none;stroke:red;stroke-width:1px;stroke-linecap:butt;stroke-linejoin:miter;stroke-opacity:1" d="M 299.171,43.2316 286.094,28.2863 z" id="boundary" inkscape:connector-curvature="0" />
	<path style="fill:none;stroke:red;stroke-width:1px;stroke-linecap:butt;stroke-linejoin:miter;stroke-opacity:1" d="M 457.966,50.7043 439.284,50.7043 z" id="boundary" inkscape:connector-curvature="0" />
	<path style="fill:none;stroke:red;stroke-width:1px;stroke-linecap:butt;stroke-linejoin:miter;stroke-opacity:1" d="M 299.171,43.2316 314.117,56.3089 z" id="boundary" inkscape:connector-curvature="0" />
	<path style="fill:none;stroke:red;stroke-width:1px;stroke-linecap:butt;stroke-linejoin:miter;stroke-opacity:1" d="M 314.117,56.3089 330.93,65.6497 z" id="boundary" inkscape:connector-curvature="0" />
	<path style="fill:none;stroke:red;stroke-width:1px;stroke-linecap:butt;stroke-linejoin:miter;stroke-opacity:1" d="M 349.612,69.3861 330.93,65.6497 z" id="boundary" inkscape:connector-curvature="0" />
	<path style="fill:none;stroke:red;stroke-width:1px;stroke-linecap:butt;stroke-linejoin:miter;stroke-opacity:1" d="M 385.107,60.0452 368.294,69.3861 z" id="boundary" inkscape:connector-curvature="0" />
	<path style="fill:none;stroke:red;stroke-width:1px;stroke-linecap:butt;stroke-linejoin:miter;stroke-opacity:1" d="M 368.294,69.3861 349.612,69.3861 z" id="boundary" inkscape:connector-curvature="0" />
	<path style="fill:none;stroke:red;stroke-width:1px;stroke-linecap:butt;stroke-linejoin:miter;stroke-opacity:1" d="M 457.966,50.7043 476.648,50.7043 z" id="boundary" inkscape:connector-curvature="0" />
	<path style="fill:none;stroke:red;stroke-width:1px;stroke-linecap:butt;stroke-linejoin:miter;stroke-opacity:1" d="M 495.33,41.3635 476.648,50.7043 z" id="boundary" inkscape:connector-curvature="0" />
	<path style="fill:none;stroke:red;stroke-width:1px;stroke-linecap:butt;stroke-linejoin:miter;stroke-opacity:1" d="M 385.107,60.0452 403.789,60.0452 z" id="boundary" inkscape:connector-curvature="0" />
	<path style="fill:none;stroke:red;stroke-width:1px;stroke-linecap:butt;stroke-linejoin:miter;stroke-opacity:1" d="M 439.284,50.7043 422.471,60.0452 z" id="boundary" inkscape:connector-curvature="0" />
	<path style="fill:none;stroke:red;stroke-width:1px;stroke-linecap:butt;stroke-linejoin:miter;stroke-opacity:1" d="M 422.471,60.0452 403.789,60.0452 z" id="boundary" inkscape:connector-curvature="0" />
	<path style="fill:none;stroke:red;stroke-width:1px;stroke-linecap:butt;stroke-linejoin:miter;stroke-opacity:1" d="M 4,252.467 13.3409,233.785 z" id="boundary" inkscape:connector-curvature="0" />
	<path style="fill:none;stroke:red;stroke-width:1px;stroke-linecap:butt;stroke-linejoin:miter;stroke-opacity:1" d="M 4,271.149 13.3409,287.962 z" id="boundary" inkscape:connector-curvature="0" />
	<path style="fill:none;stroke:red;stroke-width:1px;stroke-linecap:butt;stroke-linejoin:miter;stroke-opacity:1" d="M 13.3409,287.962 13.3409,306.644 z" id="boundary" inkscape:connector-curvature="0" />
	<path style="fill:none;stroke:red;stroke-width:1px;stroke-linecap:butt;stroke-linejoin:miter;stroke-opacity:1" d="M 4,271.149 4,252.467 z" id="boundary" inkscape:connector-curvature="0" />
	<path style="fill:none;stroke:red;stroke-width:1px;stroke-linecap:butt;stroke-linejoin:miter;stroke-opacity:1" d="M 13.3409,306.644 22.6817,323.458 z" id="boundary" inkscape:connector-curvature="0" />
	<path style="fill:none;stroke:red;stroke-width:1px;stroke-linecap:butt;stroke-linejoin:miter;stroke-opacity:1" d="M 22.6817,323.458 28.2863,342.139 z" id="boundary" inkscape:connector-curvature="0" />
	<path style="fill:none;stroke:red;stroke-width:1px;stroke-linecap:butt;stroke-linejoin:miter;stroke-opacity:1" d="M 28.2863,342.139 46.968,342.139 z" id="boundary" inkscape:connector-curvature="0" />
	<path style="fill:none;stroke:red;stroke-width:1px;stroke-linecap:butt;stroke-linejoin:miter;stroke-opacity:1" d="M 65.6497,342.139 46.968,342.139 z" id="boundary" inkscape:connector-curvature="0" />
	<path style="fill:none;stroke:red;stroke-width:1px;stroke-linecap:butt;stroke-linejoin:miter;stroke-opacity:1" d="M 65.6497,342.139 84.3315,342.139 z" id="boundary" inkscape:connector-curvature="0" />
	<path style="fill:none;stroke:red;stroke-width:1px;stroke-linecap:butt;stroke-linejoin:miter;stroke-opacity:1" d="M 103.013,342.139 121.695,342.139 z" id="boundary" inkscape:connector-curvature="0" />
	<path style="fill:none;stroke:red;stroke-width:1px;stroke-linecap:butt;stroke-linejoin:miter;stroke-opacity:1" d="M 103.013,342.139 84.3315,342.139 z" id="boundary" inkscape:connector-curvature="0" />
	<path style="fill:none;stroke:red;stroke-width:1px;stroke-linecap:butt;stroke-linejoin:miter;stroke-opacity:1" d="M 140.377,342.139 159.058,342.139 z" id="boundary" inkscape:connector-curvature="0" />
	<path style="fill:none;stroke:red;stroke-width:1px;stroke-linecap:butt;stroke-linejoin:miter;stroke-opacity:1" d="M 140.377,342.139 121.695,342.139 z" id="boundary" inkscape:connector-curvature="0" />
	<path style="fill:none;stroke:red;stroke-width:1px;stroke-linecap:butt;stroke-linejoin:miter;stroke-opacity:1" d="M 177.74,342.139 196.422,342.139 z" id="boundary" inkscape:connector-curvature="0" />
	<path style="fill:none;stroke:red;stroke-width:1px;stroke-linecap:butt;stroke-linejoin:miter;stroke-opacity:1" d="M 196.422,342.139 215.104,349.612 z" id="boundary" inkscape:connector-curvature="0" />
	<path style="fill:none;stroke:red;stroke-width:1px;stroke-linecap:butt;stroke-linejoin:miter;stroke-opacity:1" d="M 177.74,342.139 159.058,342.139 z" id="boundary" inkscape:connector-curvature="0" />
	<path style="fill:none;stroke:red;stroke-width:1px;stroke-linecap:butt;stroke-linejoin:miter;stroke-opacity:1" d="M 231.917,358.953 215.104,349.612 z" id="boundary" inkscape:connector-curvature="0" />
	<path style="fill:none;stroke:red;stroke-width:1px;stroke-linecap:butt;stroke-linejoin:miter;stroke-opacity:1" d="M 250.599,366.426 231.917,358.953 z" id="boundary" inkscape:connector-curvature="0" />
	<path style="fill:none;stroke:red;stroke-width:1px;stroke-linecap:butt;stroke-linejoin:miter;stroke-opacity:1" d="M 250.599,366.426 267.412,375.766 z" id="boundary" inkscape:connector-curvature="0" />
	<path style="fill:none;stroke:red;stroke-width:1px;stroke-linecap:butt;stroke-linejoin:miter;stroke-opacity:1" d="M 286.094,383.239 267.412,375.766 z" id="boundary" inkscape:connector-curvature="0" />
	<path style="fill:none;stroke:red;stroke-width:1px;stroke-linecap:butt;stroke-linejoin:miter;stroke-opacity:1" d="M 299.171,398.185 286.094,383.239 z" id="boundary" inkscape:connector-curvature="0" />
	<path style="fill:none;stroke:red;stroke-width:1px;stroke-linecap:butt;stroke-linejoin:miter;stroke-opacity:1" d="M 454.23,398.185 472.911,388.844 z" id="boundary" inkscape:connector-curvature="0" />
	<path style="fill:none;stroke:red;stroke-width:1px;stroke-linecap:butt;stroke-linejoin:miter;stroke-opacity:1" d="M 472.911,388.844 491.593,388.844 z" id="boundary" inkscape:connector-curvature="0" />
	<path style="fill:none;stroke:red;stroke-width:1px;stroke-linecap:butt;stroke-linejoin:miter;stroke-opacity:1" d="M 344.008,416.866 327.194,426.207 z" id="boundary" inkscape:connector-curvature="0" />
	<path style="fill:none;stroke:red;stroke-width:1px;stroke-linecap:butt;stroke-linejoin:miter;stroke-opacity:1" d="M 327.194,426.207 314.117,411.262 z" id="boundary" inkscape:connector-curvature="0" />
	<path style="fill:none;stroke:red;stroke-width:1px;stroke-linecap:butt;stroke-linejoin:miter;stroke-opacity:1" d="M 362.689,416.866 344.008,416.866 z" id="boundary" inkscape:connector-curvature="0" />
	<path style="fill:none;stroke:red;stroke-width:1px;stroke-linecap:butt;stroke-linejoin:miter;stroke-opacity:1" d="M 362.689,416.866 381.371,416.866 z" id="boundary" inkscape:connector-curvature="0" />
	<path style="fill:none;stroke:red;stroke-width:1px;stroke-linecap:butt;stroke-linejoin:miter;stroke-opacity:1" d="M 314.117,411.262 299.171,398.185 z" id="boundary" inkscape:connector-curvature="0" />
	<path style="fill:none;stroke:red;stroke-width:1px;stroke-linecap:butt;stroke-linejoin:miter;stroke-opacity:1" d="M 435.548,398.185 454.23,398.185 z" id="boundary" inkscape:connector-curvature="0" />
	<path style="fill:none;stroke:red;stroke-width:1px;stroke-linecap:butt;stroke-linejoin:miter;stroke-opacity:1" d="M 416.866,407.525 435.548,398.185 z" id="boundary" inkscape:connector-curvature="0" />
	<path style="fill:none;stroke:red;stroke-width:1px;stroke-linecap:butt;stroke-linejoin:miter;stroke-opacity:1" d="M 381.371,416.866 398.185,407.525 z" id="boundary" inkscape:connector-curvature="0" />
	<path style="fill:none;stroke:red;stroke-width:1px;stroke-linecap:butt;stroke-linejoin:miter;stroke-opacity:1" d="M 398.185,407.525 416.866,407.525 z" id="boundary" inkscape:connector-curvature="0" />
	<path style="fill:none;stroke:red;stroke-width:1px;stroke-linecap:butt;stroke-linejoin:miter;stroke-opacity:1" d="M 491.593,388.844 510.275,388.844 z" id="boundary" inkscape:connector-curvature="0" />
	<path style="fill:none;stroke:red;stroke-width:1px;stroke-linecap:butt;stroke-linejoin:miter;stroke-opacity:1" d="M 495.33,41.3635 514.011,41.3635 z" id="boundary" inkscape:connector-curvature="0" />
	<path style="fill:none;stroke:red;stroke-width:1px;stroke-linecap:butt;stroke-linejoin:miter;stroke-opacity:1" d="M 532.693,41.3635 514.011,41.3635 z" id="boundary" inkscape:connector-curvature="0" />
	<path style="fill:none;stroke:red;stroke-width:1px;stroke-linecap:butt;stroke-linejoin:miter;stroke-opacity:1" d="M 605.552,32.0226 586.87,32.0226 z" id="boundary" inkscape:connector-curvature="0" />
	<path style="fill:none;stroke:red;stroke-width:1px;stroke-linecap:butt;stroke-linejoin:miter;stroke-opacity:1" d="M 605.552,32.0226 624.234,32.0226 z" id="boundary" inkscape:connector-curvature="0" />
	<path style="fill:none;stroke:red;stroke-width:1px;stroke-linecap:butt;stroke-linejoin:miter;stroke-opacity:1" d="M 570.056,41.3635 586.87,32.0226 z" id="boundary" inkscape:connector-curvature="0" />
	<path style="fill:none;stroke:red;stroke-width:1px;stroke-linecap:butt;stroke-linejoin:miter;stroke-opacity:1" d="M 642.915,24.5499 624.234,32.0226 z" id="boundary" inkscape:connector-curvature="0" />
	<path style="fill:none;stroke:red;stroke-width:1px;stroke-linecap:butt;stroke-linejoin:miter;stroke-opacity:1" d="M 642.915,24.5499 661.597,32.0226 z" id="boundary" inkscape:connector-curvature="0" />
	<path style="fill:none;stroke:red;stroke-width:1px;stroke-linecap:butt;stroke-linejoin:miter;stroke-opacity:1" d="M 680.279,32.0226 661.597,32.0226 z" id="boundary" inkscape:connector-curvature="0" />
	<path style="fill:none;stroke:red;stroke-width:1px;stroke-linecap:butt;stroke-linejoin:miter;stroke-opacity:1" d="M 698.96,32.0226 680.279,32.0226 z" id="boundary" inkscape:connector-curvature="0" />
	<path style="fill:none;stroke:red;stroke-width:1px;stroke-linecap:butt;stroke-linejoin:miter;stroke-opacity:1" d="M 698.96,32.0226 715.774,41.3635 z" id="boundary" inkscape:connector-curvature="0" />
	<path style="fill:none;stroke:red;stroke-width:1px;stroke-linecap:butt;stroke-linejoin:miter;stroke-opacity:1" d="M 532.693,41.3635 551.375,41.3635 z" id="boundary" inkscape:connector-curvature="0" />
	<path style="fill:none;stroke:red;stroke-width:1px;stroke-linecap:butt;stroke-linejoin:miter;stroke-opacity:1" d="M 570.056,41.3635 551.375,41.3635 z" id="boundary" inkscape:connector-curvature="0" />
	<path style="fill:none;stroke:red;stroke-width:1px;stroke-linecap:butt;stroke-linejoin:miter;stroke-opacity:1" d="M 751.269,50.7043 766.215,61.9134 z" id="boundary" inkscape:connector-curvature="0" />
	<path style="fill:none;stroke:red;stroke-width:1px;stroke-linecap:butt;stroke-linejoin:miter;stroke-opacity:1" d="M 751.269,50.7043 734.456,41.3635 z" id="boundary" inkscape:connector-curvature="0" />
	<path style="fill:none;stroke:red;stroke-width:1px;stroke-linecap:butt;stroke-linejoin:miter;stroke-opacity:1" d="M 784.896,69.3861 766.215,61.9134 z" id="boundary" inkscape:connector-curvature="0" />
	<path style="fill:none;stroke:red;stroke-width:1px;stroke-linecap:butt;stroke-linejoin:miter;stroke-opacity:1" d="M 715.774,41.3635 734.456,41.3635 z" id="boundary" inkscape:connector-curvature="0" />
	<path style="fill:none;stroke:red;stroke-width:1px;stroke-linecap:butt;stroke-linejoin:miter;stroke-opacity:1" d="M 801.71,78.7269 816.655,91.8041 z" id="boundary" inkscape:connector-curvature="0" />
	<path style="fill:none;stroke:red;stroke-width:1px;stroke-linecap:butt;stroke-linejoin:miter;stroke-opacity:1" d="M 784.896,69.3861 801.71,78.7269 z" id="boundary" inkscape:connector-curvature="0" />
	<path style="fill:none;stroke:red;stroke-width:1px;stroke-linecap:butt;stroke-linejoin:miter;stroke-opacity:1" d="M 835.337,97.4087 816.655,91.8041 z" id="boundary" inkscape:connector-curvature="0" />
	<path style="fill:none;stroke:red;stroke-width:1px;stroke-linecap:butt;stroke-linejoin:miter;stroke-opacity:1" d="M 835.337,97.4087 854.019,97.4087 z" id="boundary" inkscape:connector-curvature="0" />
	<path style="fill:none;stroke:red;stroke-width:1px;stroke-linecap:butt;stroke-linejoin:miter;stroke-opacity:1" d="M 872.701,97.4087 854.019,97.4087 z" id="boundary" inkscape:connector-curvature="0" />
	<path style="fill:none;stroke:red;stroke-width:1px;stroke-linecap:butt;stroke-linejoin:miter;stroke-opacity:1" d="M 910.064,93.6723 928.746,88.0678 z" id="boundary" inkscape:connector-curvature="0" />
	<path style="fill:none;stroke:red;stroke-width:1px;stroke-linecap:butt;stroke-linejoin:miter;stroke-opacity:1" d="M 910.064,93.6723 891.382,97.4087 z" id="boundary" inkscape:connector-curvature="0" />
	<path style="fill:none;stroke:red;stroke-width:1px;stroke-linecap:butt;stroke-linejoin:miter;stroke-opacity:1" d="M 891.382,97.4087 872.701,97.4087 z" id="boundary" inkscape:connector-curvature="0" />
	<path style="fill:none;stroke:red;stroke-width:1px;stroke-linecap:butt;stroke-linejoin:miter;stroke-opacity:1" d="M 928.746,88.0678 947.427,88.0678 z" id="boundary" inkscape:connector-curvature="0" />
	<path style="fill:none;stroke:red;stroke-width:1px;stroke-linecap:butt;stroke-linejoin:miter;stroke-opacity:1" d="M 947.427,88.0678 962.373,99.2768 z" id="boundary" inkscape:connector-curvature="0" />
	<path style="fill:none;stroke:red;stroke-width:1px;stroke-linecap:butt;stroke-linejoin:miter;stroke-opacity:1" d="M 971.714,116.09 977.318,134.772 z" id="boundary" inkscape:connector-curvature="0" />
	<path style="fill:none;stroke:red;stroke-width:1px;stroke-linecap:butt;stroke-linejoin:miter;stroke-opacity:1" d="M 962.373,99.2768 971.714,116.09 z" id="boundary" inkscape:connector-curvature="0" />
	<path style="fill:none;stroke:red;stroke-width:1px;stroke-linecap:butt;stroke-linejoin:miter;stroke-opacity:1" d="M 977.318,134.772 986.659,151.586 z" id="boundary" inkscape:connector-curvature="0" />
	<path style="fill:none;stroke:red;stroke-width:1px;stroke-linecap:butt;stroke-linejoin:miter;stroke-opacity:1" d="M 992.264,188.949 977.318,202.026 z" id="boundary" inkscape:connector-curvature="0" />
	<path style="fill:none;stroke:red;stroke-width:1px;stroke-linecap:butt;stroke-linejoin:miter;stroke-opacity:1" d="M 986.659,151.586 996,168.399 z" id="boundary" inkscape:connector-curvature="0" />
	<path style="fill:none;stroke:red;stroke-width:1px;stroke-linecap:butt;stroke-linejoin:miter;stroke-opacity:1" d="M 996,168.399 992.264,188.949 z" id="boundary" inkscape:connector-curvature="0" />
	<path style="fill:none;stroke:red;stroke-width:1px;stroke-linecap:butt;stroke-linejoin:miter;stroke-opacity:1" d="M 964.241,216.972 977.318,202.026 z" id="boundary" inkscape:connector-curvature="0" />
	<path style="fill:none;stroke:red;stroke-width:1px;stroke-linecap:butt;stroke-linejoin:miter;stroke-opacity:1" d="M 964.241,216.972 949.296,230.049 z" id="boundary" inkscape:connector-curvature="0" />
	<path style="fill:none;stroke:red;stroke-width:1px;stroke-linecap:butt;stroke-linejoin:miter;stroke-opacity:1" d="M 543.902,370.162 562.584,370.162 z" id="boundary" inkscape:connector-curvature="0" />
	<path style="fill:none;stroke:red;stroke-width:1px;stroke-linecap:butt;stroke-linejoin:miter;stroke-opacity:1" d="M 527.089,379.503 543.902,370.162 z" id="boundary" inkscape:connector-curvature="0" />
	<path style="fill:none;stroke:red;stroke-width:1px;stroke-linecap:butt;stroke-linejoin:miter;stroke-opacity:1" d="M 581.266,370.162 599.947,370.162 z" id="boundary" inkscape:connector-curvature="0" />
	<path style="fill:none;stroke:red;stroke-width:1px;stroke-linecap:butt;stroke-linejoin:miter;stroke-opacity:1" d="M 581.266,370.162 562.584,370.162 z" id="boundary" inkscape:connector-curvature="0" />
	<path style="fill:none;stroke:red;stroke-width:1px;stroke-linecap:butt;stroke-linejoin:miter;stroke-opacity:1" d="M 618.629,370.162 637.311,370.162 z" id="boundary" inkscape:connector-curvature="0" />
	<path style="fill:none;stroke:red;stroke-width:1px;stroke-linecap:butt;stroke-linejoin:miter;stroke-opacity:1" d="M 655.992,370.162 674.674,370.162 z" id="boundary" inkscape:connector-curvature="0" />
	<path style="fill:none;stroke:red;stroke-width:1px;stroke-linecap:butt;stroke-linejoin:miter;stroke-opacity:1" d="M 655.992,370.162 637.311,370.162 z" id="boundary" inkscape:connector-curvature="0" />
	<path style="fill:none;stroke:red;stroke-width:1px;stroke-linecap:butt;stroke-linejoin:miter;stroke-opacity:1" d="M 618.629,370.162 599.947,370.162 z" id="boundary" inkscape:connector-curvature="0" />
	<path style="fill:none;stroke:red;stroke-width:1px;stroke-linecap:butt;stroke-linejoin:miter;stroke-opacity:1" d="M 710.169,379.503 726.983,388.844 z" id="boundary" inkscape:connector-curvature="0" />
	<path style="fill:none;stroke:red;stroke-width:1px;stroke-linecap:butt;stroke-linejoin:miter;stroke-opacity:1" d="M 674.674,370.162 693.356,370.162 z" id="boundary" inkscape:connector-curvature="0" />
	<path style="fill:none;stroke:red;stroke-width:1px;stroke-linecap:butt;stroke-linejoin:miter;stroke-opacity:1" d="M 693.356,370.162 710.169,379.503 z" id="boundary" inkscape:connector-curvature="0" />
	<path style="fill:none;stroke:red;stroke-width:1px;stroke-linecap:butt;stroke-linejoin:miter;stroke-opacity:1" d="M 510.275,388.844 527.089,379.503 z" id="boundary" inkscape:connector-curvature="0" />
	<path style="fill:none;stroke:red;stroke-width:1px;stroke-linecap:butt;stroke-linejoin:miter;stroke-opacity:1" d="M 726.983,388.844 741.928,400.053 z" id="boundary" inkscape:connector-curvature="0" />
	<path style="fill:none;stroke:red;stroke-width:1px;stroke-linecap:butt;stroke-linejoin:miter;stroke-opacity:1" d="M 741.928,400.053 755.006,414.998 z" id="boundary" inkscape:connector-curvature="0" />
	<path style="fill:none;stroke:red;stroke-width:1px;stroke-linecap:butt;stroke-linejoin:miter;stroke-opacity:1" d="M 755.006,414.998 773.687,422.471 z" id="boundary" inkscape:connector-curvature="0" />
	<path style="fill:none;stroke:red;stroke-width:1px;stroke-linecap:butt;stroke-linejoin:miter;stroke-opacity:1" d="M 773.687,422.471 790.501,431.812 z" id="boundary" inkscape:connector-curvature="0" />
	<path style="fill:none;stroke:red;stroke-width:1px;stroke-linecap:butt;stroke-linejoin:miter;stroke-opacity:1" d="M 790.501,431.812 809.183,435.548 z" id="boundary" inkscape:connector-curvature="0" />
	<path style="fill:none;stroke:red;stroke-width:1px;stroke-linecap:butt;stroke-linejoin:miter;stroke-opacity:1" d="M 911.932,295.435 911.932,314.117 z" id="boundary" inkscape:connector-curvature="0" />
	<path style="fill:none;stroke:red;stroke-width:1px;stroke-linecap:butt;stroke-linejoin:miter;stroke-opacity:1" d="M 911.932,295.435 911.932,276.753 z" id="boundary" inkscape:connector-curvature="0" />
	<path style="fill:none;stroke:red;stroke-width:1px;stroke-linecap:butt;stroke-linejoin:miter;stroke-opacity:1" d="M 911.932,276.753 921.273,258.072 z" id="boundary" inkscape:connector-curvature="0" />
	<path style="fill:none;stroke:red;stroke-width:1px;stroke-linecap:butt;stroke-linejoin:miter;stroke-opacity:1" d="M 911.932,332.798 911.932,314.117 z" id="boundary" inkscape:connector-curvature="0" />
	<path style="fill:none;stroke:red;stroke-width:1px;stroke-linecap:butt;stroke-linejoin:miter;stroke-opacity:1" d="M 921.273,349.612 911.932,332.798 z" id="boundary" inkscape:connector-curvature="0" />
	<path style="fill:none;stroke:red;stroke-width:1px;stroke-linecap:butt;stroke-linejoin:miter;stroke-opacity:1" d="M 930.614,366.426 921.273,349.612 z" id="boundary" inkscape:connector-curvature="0" />
	<path style="fill:none;stroke:red;stroke-width:1px;stroke-linecap:butt;stroke-linejoin:miter;stroke-opacity:1" d="M 936.218,244.994 921.273,258.072 z" id="boundary" inkscape:connector-curvature="0" />
	<path style="fill:none;stroke:red;stroke-width:1px;stroke-linecap:butt;stroke-linejoin:miter;stroke-opacity:1" d="M 936.218,244.994 949.296,230.049 z" id="boundary" inkscape:connector-curvature="0" />
	<path style="fill:none;stroke:red;stroke-width:1px;stroke-linecap:butt;stroke-linejoin:miter;stroke-opacity:1" d="M 861.492,416.866 844.678,426.207 z" id="boundary" inkscape:connector-curvature="0" />
	<path style="fill:none;stroke:red;stroke-width:1px;stroke-linecap:butt;stroke-linejoin:miter;stroke-opacity:1" d="M 844.678,426.207 825.996,426.207 z" id="boundary" inkscape:connector-curvature="0" />
	<path style="fill:none;stroke:red;stroke-width:1px;stroke-linecap:butt;stroke-linejoin:miter;stroke-opacity:1" d="M 809.183,435.548 825.996,426.207 z" id="boundary" inkscape:connector-curvature="0" />
	<path style="fill:none;stroke:red;stroke-width:1px;stroke-linecap:butt;stroke-linejoin:miter;stroke-opacity:1" d="M 861.492,416.866 880.173,416.866 z" id="boundary" inkscape:connector-curvature="0" />
	<path style="fill:none;stroke:red;stroke-width:1px;stroke-linecap:butt;stroke-linejoin:miter;stroke-opacity:1" d="M 930.614,366.426 930.614,385.107 z" id="boundary" inkscape:connector-curvature="0" />
	<path style="fill:none;stroke:red;stroke-width:1px;stroke-linecap:butt;stroke-linejoin:miter;stroke-opacity:1" d="M 930.614,385.107 917.537,403.789 z" id="boundary" inkscape:connector-curvature="0" />
	<path style="fill:none;stroke:red;stroke-width:1px;stroke-linecap:butt;stroke-linejoin:miter;stroke-opacity:1" d="M 898.855,413.13 880.173,416.866 z" id="boundary" inkscape:connector-curvature="0" />
	<path style="fill:none;stroke:red;stroke-width:1px;stroke-linecap:butt;stroke-linejoin:miter;stroke-opacity:1" d="M 917.537,403.789 898.855,413.13 z" id="boundary" inkscape:connector-curvature="0" />
	<circle cx="4" cy="252.467" r="4" fill="#0" id="circle0"/>
	<circle cx="4" cy="271.149" r="4" fill="#0" id="circle1"/>
	<circle cx="13.3409" cy="233.785" r="4" fill="#0" id="circle2"/>
	<circle cx="13.3409" cy="287.962" r="4" fill="#0" id="circle3"/>
	<circle cx="13.3409" cy="306.644" r="4" fill="#0" id="circle4"/>
	<circle cx="22.6817" cy="323.458" r="4" fill="#0" id="circle5"/>
	<circle cx="28.2863" cy="342.139" r="4" fill="#0" id="circle6"/>
	<circle cx="32.0226" cy="224.444" r="4" fill="#0" id="circle7"/>
	<circle cx="41.3635" cy="205.763" r="4" fill="#0" id="circle8"/>
	<circle cx="46.968" cy="342.139" r="4" fill="#0" id="circle9"/>
	<circle cx="56.3089" cy="190.817" r="4" fill="#0" id="circle10"/>
	<circle cx="65.6497" cy="342.139" r="4" fill="#0" id="circle11"/>
	<circle cx="71.2542" cy="175.872" r="4" fill="#0" id="circle12"/>
	<circle cx="80.5951" cy="157.19" r="4" fill="#0" id="circle13"/>
	<circle cx="84.3315" cy="342.139" r="4" fill="#0" id="circle14"/>
	<circle cx="95.5405" cy="144.113" r="4" fill="#0" id="circle15"/>
	<circle cx="103.013" cy="342.139" r="4" fill="#0" id="circle16"/>
	<circle cx="108.618" cy="129.168" r="4" fill="#0" id="circle17"/>
	<circle cx="116.09" cy="37.6271" r="4" fill="#0" id="circle18"/>
	<circle cx="116.09" cy="56.3089" r="4" fill="#0" id="circle19"/>
	<circle cx="116.09" cy="74.9906" r="4" fill="#0" id="circle20"/>
	<circle cx="116.09" cy="93.6723" r="4" fill="#0" id="circle21"/>
	<circle cx="121.695" cy="342.139" r="4" fill="#0" id="circle22"/>
	<circle cx="125.431" cy="18.9454" r="4" fill="#0" id="circle23"/>
	<circle cx="140.377" cy="342.139" r="4" fill="#0" id="circle24"/>
	<circle cx="144.113" cy="13.3409" r="4" fill="#0" id="circle25"/>
	<circle cx="159.058" cy="342.139" r="4" fill="#0" id="circle26"/>
	<circle cx="162.795" cy="9.60452" r="4" fill="#0" id="circle27"/>
	<circle cx="177.74" cy="342.139" r="4" fill="#0" id="circle28"/>
	<circle cx="181.476" cy="4" r="4" fill="#0" id="circle29"/>
	<circle cx="196.422" cy="342.139" r="4" fill="#0" id="circle30"/>
	<circle cx="200.158" cy="4" r="4" fill="#0" id="circle31"/>
	<circle cx="215.104" cy="349.612" r="4" fill="#0" id="circle32"/>
	<circle cx="218.84" cy="4" r="4" fill="#0" id="circle33"/>
	<circle cx="231.917" cy="358.953" r="4" fill="#0" id="circle34"/>
	<circle cx="237.522" cy="4" r="4" fill="#0" id="circle35"/>
	<circle cx="250.599" cy="366.426" r="4" fill="#0" id="circle36"/>
	<circle cx="256.203" cy="4" r="4" fill="#0" id="circle37"/>
	<circle cx="267.412" cy="375.766" r="4" fill="#0" id="circle38"/>
	<circle cx="271.149" cy="15.209" r="4" fill="#0" id="circle39"/>
	<circle cx="286.094" cy="28.2863" r="4" fill="#0" id="circle40"/>
	<circle cx="286.094" cy="383.239" r="4" fill="#0" id="circle41"/>
	<circle cx="299.171" cy="43.2316" r="4" fill="#0" id="circle42"/>
	<circle cx="299.171" cy="398.185" r="4" fill="#0" id="circle43"/>
	<circle cx="314.117" cy="56.3089" r="4" fill="#0" id="circle44"/>
	<circle cx="314.117" cy="411.262" r="4" fill="#0" id="circle45"/>
	<circle cx="327.194" cy="426.207" r="4" fill="#0" id="circle46"/>
	<circle cx="330.93" cy="65.6497" r="4" fill="#0" id="circle47"/>
	<circle cx="344.008" cy="416.866" r="4" fill="#0" id="circle48"/>
	<circle cx="349.612" cy="69.3861" r="4" fill="#0" id="circle49"/>
	<circle cx="362.689" cy="416.866" r="4" fill="#0" id="circle50"/>
	<circle cx="368.294" cy="69.3861" r="4" fill="#0" id="circle51"/>
	<circle cx="381.371" cy="416.866" r="4" fill="#0" id="circle52"/>
	<circle cx="385.107" cy="60.0452" r="4" fill="#0" id="circle53"/>
	<circle cx="398.185" cy="407.525" r="4" fill="#0" id="circle54"/>
	<circle cx="403.789" cy="60.0452" r="4" fill="#0" id="circle55"/>
	<circle cx="416.866" cy="407.525" r="4" fill="#0" id="circle56"/>
	<circle cx="422.471" cy="60.0452" r="4" fill="#0" id="circle57"/>
	<circle cx="435.548" cy="398.185" r="4" fill="#0" id="circle58"/>
	<circle cx="439.284" cy="50.7043" r="4" fill="#0" id="circle59"/>
	<circle cx="454.23" cy="398.185" r="4" fill="#0" id="circle60"/>
	<circle cx="457.966" cy="50.7043" r="4" fill="#0" id="circle61"/>
	<circle cx="472.911" cy="388.844" r="4" fill="#0" id="circle62"/>
	<circle cx="476.648" cy="50.7043" r="4" fill="#0" id="circle63"/>
	<circle cx="491.593" cy="388.844" r="4" fill="#0" id="circle64"/>
	<circle cx="495.33" cy="41.3635" r="4" fill="#0" id="circle65"/>
	<circle cx="510.275" cy="388.844" r="4" fill="#0" id="circle66"/>
	<circle cx="514.011" cy="41.3635" r="4" fill="#0" id="circle67"/>
	<circle cx="527.089" cy="379.503" r="4" fill="#0" id="circle68"/>
	<circle cx="532.693" cy="41.3635" r="4" fill="#0" id="circle69"/>
	<circle cx="543.902" cy="370.162" r="4" fill="#0" id="circle70"/>
	<circle cx="551.375" cy="41.3635" r="4" fill="#0" id="circle71"/>
	<circle cx="562.584" cy="370.162" r="4" fill="#0" id="circle72"/>
	<circle cx="570.056" cy="41.3635" r="4" fill="#0" id="circle73"/>
	<circle cx="581.266" cy="370.162" r="4" fill="#0" id="circle74"/>
	<circle cx="586.87" cy="32.0226" r="4" fill="#0" id="circle75"/>
	<circle cx="599.947" cy="370.162" r="4" fill="#0" id="circle76"/>
	<circle cx="605.552" cy="32.0226" r="4" fill="#0" id="circle77"/>
	<circle cx="618.629" cy="370.162" r="4" fill="#0" id="circle78"/>
	<circle cx="624.234" cy="32.0226" r="4" fill="#0" id="circle79"/>
	<circle cx="637.311" cy="370.162" r="4" fill="#0" id="circle80"/>
	<circle cx="642.915" cy="24.5499" r="4" fill="#0" id="circle81"/>
	<circle cx="655.992" cy="370.162" r="4" fill="#0" id="circle82"/>
	<circle cx="661.597" cy="32.0226" r="4" fill="#0" id="circle83"/>
	<circle cx="674.674" cy="370.162" r="4" fill="#0" id="circle84"/>
	<circle cx="680.279" cy="32.0226" r="4" fill="#0" id="circle85"/>
	<circle cx="693.356" cy="370.162" r="4" fill="#0" id="circle86"/>
	<circle cx="698.96" cy="32.0226" r="4" fill="#0" id="circle87"/>
	<circle cx="710.169" cy="379.503" r="4" fill="#0" id="circle88"/>
	<circle cx="715.774" cy="41.3635" r="4" fill="#0" id="circle89"/>
	<circle cx="726.983" cy="388.844" r="4" fill="#0" id="circle90"/>
	<circle cx="734.456" cy="41.3635" r="4" fill="#0" id="circle91"/>
	<circle cx="741.928" cy="400.053" r="4" fill="#0" id="circle92"/>
	<circle cx="751.269" cy="50.7043" r="4" fill="#0" id="circle93"/>
	<circle cx="755.006" cy="414.998" r="4" fill="#0" id="circle94"/>
	<circle cx="766.215" cy="61.9134" r="4" fill="#0" id="circle95"/>
	<circle cx="773.687" cy="422.471" r="4" fill="#0" id="circle96"/>
	<circle cx="784.896" cy="69.3861" r="4" fill="#0" id="circle97"/>
	<circle cx="790.501" cy="431.812" r="4" fill="#0" id="circle98"/>
	<circle cx="801.71" cy="78.7269" r="4" fill="#0" id="circle99"/>
	<circle cx="809.183" cy="435.548" r="4" fill="#0" id="circle100"/>
	<circle cx="816.655" cy="91.8041" r="4" fill="#0" id="circle101"/>
	<circle cx="825.996" cy="426.207" r="4" fill="#0" id="circle102"/>
	<circle cx="835.337" cy="97.4087" r="4" fill="#0" id="circle103"/>
	<circle cx="844.678" cy="426.207" r="4" fill="#0" id="circle104"/>
	<circle cx="854.019" cy="97.4087" r="4" fill="#0" id="circle105"/>
	<circle cx="861.492" cy="416.866" r="4" fill="#0" id="circle106"/>
	<circle cx="872.701" cy="97.4087" r="4" fill="#0" id="circle107"/>
	<circle cx="880.173" cy="416.866" r="4" fill="#0" id="circle108"/>
	<circle cx="891.382" cy="97.4087" r="4" fill="#0" id="circle109"/>
	<circle cx="898.855" cy="413.13" r="4" fill="#0" id="circle110"/>
	<circle cx="910.064" cy="93.6723" r="4" fill="#0" id="circle111"/>
	<circle cx="911.932" cy="276.753" r="4" fill="#0" id="circle112"/>
	<circle cx="911.932" cy="295.435" r="4" fill="#0" id="circle113"/>
	<circle cx="911.932" cy="314.117" r="4" fill="#0" id="circle114"/>
	<circle cx="911.932" cy="332.798" r="4" fill="#0" id="circle115"/>
	<circle cx="917.537" cy="403.789" r="4" fill="#0" id="circle116"/>
	<circle cx="921.273" cy="258.072" r="4" fill="#0" id="circle117"/>
	<circle cx="921.273" cy="349.612" r="4" fill="#0" id="circle118"/>
	<circle cx="928.746" cy="88.0678" r="4" fill="#0" id="circle119"/>
	<circle cx="930.614" cy="366.426" r="4" fill="#0" id="circle120"/>
	<circle cx="930.614" cy="385.107" r="4" fill="#0" id="circle121"/>
	<circle cx="936.218" cy="244.994" r="4" fill="#0" id="circle122"/>
	<circle cx="947.427" cy="88.0678" r="4" fill="#0" id="circle123"/>
	<circle cx="949.296" cy="230.049" r="4" fill="#0" id="circle124"/>
	<circle cx="962.373" cy="99.2768" r="4" fill="#0" id="circle125"/>
	<circle cx="964.241" cy="216.972" r="4" fill="#0" id="circle126"/>
	<circle cx="971.714" cy="116.09" r="4" fill="#0" id="circle127"/>
	<circle cx="977.318" cy="134.772" r="4" fill="#0" id="circle128"/>
	<circle cx="977.318" cy="202.026" r="4" fill="#0" id="circle129"/>
	<circle cx="986.659" cy="151.586" r="4" fill="#0" id="circle130"/>
	<circle cx="992.264" cy="188.949" r="4" fill="#0" id="circle131"/>
	<circle cx="996" cy="168.399" r="4" fill="#0" id="circle132"/>
	</g>
</svg>