<?xml version="1.0" encoding="UTF-8" standalone="no"?>
<!-- Created with CurveBenchmark -->
<svg
	xmlns:dc="http://purl.org/dc/elements/1.1/"
	xmlns:cc="http://creativecommons.org/ns#"
	xmlns:rdf="http://www.w3.org/1999/02/22-rdf-syntax-ns#"
	xmlns:svg="http://www.w3.org/2000/svg"
	xmlns="http://www.w3.org/2000/svg"
	xmlns:sodipodi="http://sodipodi.sourceforge.net/DTD/sodipodi-0.dtd"
	xmlns:inkscape="http://www.inkscape.org/namespaces/inkscape"
	width="1000"
	height="1000"
	id="svg2"
	version="1.1"
	sodipodi:docname="manifold/gathang-fish-18.png.txt">
<defs
	id="defs4" />
<metadata
	id="metadata7">
	<rdf:RDF>
		<cc:Work
			rdf:about="">
			<dc:format>image/svg+xml</dc:format>
			<dc:type
				rdf:resource="http://purl.org/dc/dcmitype/StillImage" />
			<dc:title></dc:title>
		</cc:Work>
	</rdf:RDF>
</metadata>
<g
	inkscape:label="Layer 1"
	inkscape:groupmode="layer"
	id="layer1">
	<path style="fill:none;stroke:red;stroke-width:1px;stroke-linecap:butt;stroke-linejoin:miter;stroke-opacity:1" d="M 46.357,98.0325 54.8284,95.491 z" id="boundary" inkscape:connector-curvature="0" />
	<path style="fill:none;stroke:red;stroke-width:1px;stroke-linecap:butt;stroke-linejoin:miter;stroke-opacity:1" d="M 54.8284,95.491 62.4526,99.7267 z" id="boundary" inkscape:connector-curvature="0" />
	<path style="fill:none;stroke:red;stroke-width:1px;stroke-linecap:butt;stroke-linejoin:miter;stroke-opacity:1" d="M 86.1725,108.198 77.7011,108.198 z" id="boundary" inkscape:connector-curvature="0" />
	<path style="fill:none;stroke:red;stroke-width:1px;stroke-linecap:butt;stroke-linejoin:miter;stroke-opacity:1" d="M 77.7011,108.198 70.0769,103.962 z" id="boundary" inkscape:connector-curvature="0" />
	<path style="fill:none;stroke:red;stroke-width:1px;stroke-linecap:butt;stroke-linejoin:miter;stroke-opacity:1" d="M 70.0769,103.962 62.4526,99.7267 z" id="boundary" inkscape:connector-curvature="0" />
	<path style="fill:none;stroke:red;stroke-width:1px;stroke-linecap:butt;stroke-linejoin:miter;stroke-opacity:1" d="M 37.8856,102.268 46.357,98.0325 z" id="boundary" inkscape:connector-curvature="0" />
	<path style="fill:none;stroke:red;stroke-width:1px;stroke-linecap:butt;stroke-linejoin:miter;stroke-opacity:1" d="M 31.1085,108.198 37.8856,102.268 z" id="boundary" inkscape:connector-curvature="0" />
	<path style="fill:none;stroke:red;stroke-width:1px;stroke-linecap:butt;stroke-linejoin:miter;stroke-opacity:1" d="M 31.1085,108.198 23.4842,112.434 z" id="boundary" inkscape:connector-curvature="0" />
	<path style="fill:none;stroke:red;stroke-width:1px;stroke-linecap:butt;stroke-linejoin:miter;stroke-opacity:1" d="M 156.485,93.7968 156.485,102.268 z" id="boundary" inkscape:connector-curvature="0" />
	<path style="fill:none;stroke:red;stroke-width:1px;stroke-linecap:butt;stroke-linejoin:miter;stroke-opacity:1" d="M 160.721,81.0897 156.485,93.7968 z" id="boundary" inkscape:connector-curvature="0" />
	<path style="fill:none;stroke:red;stroke-width:1px;stroke-linecap:butt;stroke-linejoin:miter;stroke-opacity:1" d="M 197.148,53.1341 204.772,48.8984 z" id="boundary" inkscape:connector-curvature="0" />
	<path style="fill:none;stroke:red;stroke-width:1px;stroke-linecap:butt;stroke-linejoin:miter;stroke-opacity:1" d="M 213.243,45.5098 221.715,44.6627 z" id="boundary" inkscape:connector-curvature="0" />
	<path style="fill:none;stroke:red;stroke-width:1px;stroke-linecap:butt;stroke-linejoin:miter;stroke-opacity:1" d="M 204.772,48.8984 213.243,45.5098 z" id="boundary" inkscape:connector-curvature="0" />
	<path style="fill:none;stroke:red;stroke-width:1px;stroke-linecap:butt;stroke-linejoin:miter;stroke-opacity:1" d="M 230.186,41.2741 221.715,44.6627 z" id="boundary" inkscape:connector-curvature="0" />
	<path style="fill:none;stroke:red;stroke-width:1px;stroke-linecap:butt;stroke-linejoin:miter;stroke-opacity:1" d="M 167.498,74.3126 160.721,81.0897 z" id="boundary" inkscape:connector-curvature="0" />
	<path style="fill:none;stroke:red;stroke-width:1px;stroke-linecap:butt;stroke-linejoin:miter;stroke-opacity:1" d="M 189.523,57.3698 182.746,63.2997 z" id="boundary" inkscape:connector-curvature="0" />
	<path style="fill:none;stroke:red;stroke-width:1px;stroke-linecap:butt;stroke-linejoin:miter;stroke-opacity:1" d="M 182.746,63.2997 174.275,67.5354 z" id="boundary" inkscape:connector-curvature="0" />
	<path style="fill:none;stroke:red;stroke-width:1px;stroke-linecap:butt;stroke-linejoin:miter;stroke-opacity:1" d="M 189.523,57.3698 197.148,53.1341 z" id="boundary" inkscape:connector-curvature="0" />
	<path style="fill:none;stroke:red;stroke-width:1px;stroke-linecap:butt;stroke-linejoin:miter;stroke-opacity:1" d="M 167.498,74.3126 174.275,67.5354 z" id="boundary" inkscape:connector-curvature="0" />
	<path style="fill:none;stroke:red;stroke-width:1px;stroke-linecap:butt;stroke-linejoin:miter;stroke-opacity:1" d="M 156.485,110.74 156.485,102.268 z" id="boundary" inkscape:connector-curvature="0" />
	<path style="fill:none;stroke:red;stroke-width:1px;stroke-linecap:butt;stroke-linejoin:miter;stroke-opacity:1" d="M 12.4714,131.918 16.7071,119.211 z" id="boundary" inkscape:connector-curvature="0" />
	<path style="fill:none;stroke:red;stroke-width:1px;stroke-linecap:butt;stroke-linejoin:miter;stroke-opacity:1" d="M 16.7071,119.211 23.4842,112.434 z" id="boundary" inkscape:connector-curvature="0" />
	<path style="fill:none;stroke:red;stroke-width:1px;stroke-linecap:butt;stroke-linejoin:miter;stroke-opacity:1" d="M 12.4714,131.918 8.2357,140.389 z" id="boundary" inkscape:connector-curvature="0" />
	<path style="fill:none;stroke:red;stroke-width:1px;stroke-linecap:butt;stroke-linejoin:miter;stroke-opacity:1" d="M 86.1725,108.198 93.7968,112.434 z" id="boundary" inkscape:connector-curvature="0" />
	<path style="fill:none;stroke:red;stroke-width:1px;stroke-linecap:butt;stroke-linejoin:miter;stroke-opacity:1" d="M 4,165.804 4,157.332 z" id="boundary" inkscape:connector-curvature="0" />
	<path style="fill:none;stroke:red;stroke-width:1px;stroke-linecap:butt;stroke-linejoin:miter;stroke-opacity:1" d="M 4,157.332 8.2357,148.861 z" id="boundary" inkscape:connector-curvature="0" />
	<path style="fill:none;stroke:red;stroke-width:1px;stroke-linecap:butt;stroke-linejoin:miter;stroke-opacity:1" d="M 4,174.275 4,165.804 z" id="boundary" inkscape:connector-curvature="0" />
	<path style="fill:none;stroke:red;stroke-width:1px;stroke-linecap:butt;stroke-linejoin:miter;stroke-opacity:1" d="M 8.2357,181.899 4,174.275 z" id="boundary" inkscape:connector-curvature="0" />
	<path style="fill:none;stroke:red;stroke-width:1px;stroke-linecap:butt;stroke-linejoin:miter;stroke-opacity:1" d="M 8.2357,140.389 8.2357,148.861 z" id="boundary" inkscape:connector-curvature="0" />
	<path style="fill:none;stroke:red;stroke-width:1px;stroke-linecap:butt;stroke-linejoin:miter;stroke-opacity:1" d="M 93.7968,112.434 102.268,112.434 z" id="boundary" inkscape:connector-curvature="0" />
	<path style="fill:none;stroke:red;stroke-width:1px;stroke-linecap:butt;stroke-linejoin:miter;stroke-opacity:1" d="M 102.268,112.434 109.892,116.67 z" id="boundary" inkscape:connector-curvature="0" />
	<path style="fill:none;stroke:red;stroke-width:1px;stroke-linecap:butt;stroke-linejoin:miter;stroke-opacity:1" d="M 118.364,116.67 109.892,116.67 z" id="boundary" inkscape:connector-curvature="0" />
	<path style="fill:none;stroke:red;stroke-width:1px;stroke-linecap:butt;stroke-linejoin:miter;stroke-opacity:1" d="M 125.988,120.905 118.364,116.67 z" id="boundary" inkscape:connector-curvature="0" />
	<path style="fill:none;stroke:red;stroke-width:1px;stroke-linecap:butt;stroke-linejoin:miter;stroke-opacity:1" d="M 133.612,125.141 125.988,120.905 z" id="boundary" inkscape:connector-curvature="0" />
	<path style="fill:none;stroke:red;stroke-width:1px;stroke-linecap:butt;stroke-linejoin:miter;stroke-opacity:1" d="M 156.485,123.447 149.708,129.377 z" id="boundary" inkscape:connector-curvature="0" />
	<path style="fill:none;stroke:red;stroke-width:1px;stroke-linecap:butt;stroke-linejoin:miter;stroke-opacity:1" d="M 149.708,129.377 141.237,129.377 z" id="boundary" inkscape:connector-curvature="0" />
	<path style="fill:none;stroke:red;stroke-width:1px;stroke-linecap:butt;stroke-linejoin:miter;stroke-opacity:1" d="M 141.237,129.377 133.612,125.141 z" id="boundary" inkscape:connector-curvature="0" />
	<path style="fill:none;stroke:red;stroke-width:1px;stroke-linecap:butt;stroke-linejoin:miter;stroke-opacity:1" d="M 156.485,110.74 156.485,123.447 z" id="boundary" inkscape:connector-curvature="0" />
	<path style="fill:none;stroke:red;stroke-width:1px;stroke-linecap:butt;stroke-linejoin:miter;stroke-opacity:1" d="M 295.416,27.7199 286.944,27.7199 z" id="boundary" inkscape:connector-curvature="0" />
	<path style="fill:none;stroke:red;stroke-width:1px;stroke-linecap:butt;stroke-linejoin:miter;stroke-opacity:1" d="M 319.983,23.4842 311.512,23.4842 z" id="boundary" inkscape:connector-curvature="0" />
	<path style="fill:none;stroke:red;stroke-width:1px;stroke-linecap:butt;stroke-linejoin:miter;stroke-opacity:1" d="M 319.983,23.4842 328.454,23.4842 z" id="boundary" inkscape:connector-curvature="0" />
	<path style="fill:none;stroke:red;stroke-width:1px;stroke-linecap:butt;stroke-linejoin:miter;stroke-opacity:1" d="M 336.926,23.4842 328.454,23.4842 z" id="boundary" inkscape:connector-curvature="0" />
	<path style="fill:none;stroke:red;stroke-width:1px;stroke-linecap:butt;stroke-linejoin:miter;stroke-opacity:1" d="M 303.887,27.7199 311.512,23.4842 z" id="boundary" inkscape:connector-curvature="0" />
	<path style="fill:none;stroke:red;stroke-width:1px;stroke-linecap:butt;stroke-linejoin:miter;stroke-opacity:1" d="M 278.473,27.7199 286.944,27.7199 z" id="boundary" inkscape:connector-curvature="0" />
	<path style="fill:none;stroke:red;stroke-width:1px;stroke-linecap:butt;stroke-linejoin:miter;stroke-opacity:1" d="M 270.849,31.9556 278.473,27.7199 z" id="boundary" inkscape:connector-curvature="0" />
	<path style="fill:none;stroke:red;stroke-width:1px;stroke-linecap:butt;stroke-linejoin:miter;stroke-opacity:1" d="M 353.868,23.4842 345.397,23.4842 z" id="boundary" inkscape:connector-curvature="0" />
	<path style="fill:none;stroke:red;stroke-width:1px;stroke-linecap:butt;stroke-linejoin:miter;stroke-opacity:1" d="M 362.34,23.4842 353.868,23.4842 z" id="boundary" inkscape:connector-curvature="0" />
	<path style="fill:none;stroke:red;stroke-width:1px;stroke-linecap:butt;stroke-linejoin:miter;stroke-opacity:1" d="M 336.926,23.4842 345.397,23.4842 z" id="boundary" inkscape:connector-curvature="0" />
	<path style="fill:none;stroke:red;stroke-width:1px;stroke-linecap:butt;stroke-linejoin:miter;stroke-opacity:1" d="M 370.811,23.4842 379.283,19.2485 z" id="boundary" inkscape:connector-curvature="0" />
	<path style="fill:none;stroke:red;stroke-width:1px;stroke-linecap:butt;stroke-linejoin:miter;stroke-opacity:1" d="M 379.283,19.2485 386.907,23.4842 z" id="boundary" inkscape:connector-curvature="0" />
	<path style="fill:none;stroke:red;stroke-width:1px;stroke-linecap:butt;stroke-linejoin:miter;stroke-opacity:1" d="M 370.811,23.4842 362.34,23.4842 z" id="boundary" inkscape:connector-curvature="0" />
	<path style="fill:none;stroke:red;stroke-width:1px;stroke-linecap:butt;stroke-linejoin:miter;stroke-opacity:1" d="M 395.378,23.4842 386.907,23.4842 z" id="boundary" inkscape:connector-curvature="0" />
	<path style="fill:none;stroke:red;stroke-width:1px;stroke-linecap:butt;stroke-linejoin:miter;stroke-opacity:1" d="M 403.85,23.4842 395.378,23.4842 z" id="boundary" inkscape:connector-curvature="0" />
	<path style="fill:none;stroke:red;stroke-width:1px;stroke-linecap:butt;stroke-linejoin:miter;stroke-opacity:1" d="M 412.321,23.4842 403.85,23.4842 z" id="boundary" inkscape:connector-curvature="0" />
	<path style="fill:none;stroke:red;stroke-width:1px;stroke-linecap:butt;stroke-linejoin:miter;stroke-opacity:1" d="M 412.321,23.4842 420.792,23.4842 z" id="boundary" inkscape:connector-curvature="0" />
	<path style="fill:none;stroke:red;stroke-width:1px;stroke-linecap:butt;stroke-linejoin:miter;stroke-opacity:1" d="M 429.264,23.4842 420.792,23.4842 z" id="boundary" inkscape:connector-curvature="0" />
	<path style="fill:none;stroke:red;stroke-width:1px;stroke-linecap:butt;stroke-linejoin:miter;stroke-opacity:1" d="M 437.735,23.4842 429.264,23.4842 z" id="boundary" inkscape:connector-curvature="0" />
	<path style="fill:none;stroke:red;stroke-width:1px;stroke-linecap:butt;stroke-linejoin:miter;stroke-opacity:1" d="M 437.735,23.4842 445.36,27.7199 z" id="boundary" inkscape:connector-curvature="0" />
	<path style="fill:none;stroke:red;stroke-width:1px;stroke-linecap:butt;stroke-linejoin:miter;stroke-opacity:1" d="M 262.377,31.9556 253.906,31.9556 z" id="boundary" inkscape:connector-curvature="0" />
	<path style="fill:none;stroke:red;stroke-width:1px;stroke-linecap:butt;stroke-linejoin:miter;stroke-opacity:1" d="M 295.416,27.7199 303.887,27.7199 z" id="boundary" inkscape:connector-curvature="0" />
	<path style="fill:none;stroke:red;stroke-width:1px;stroke-linecap:butt;stroke-linejoin:miter;stroke-opacity:1" d="M 230.186,41.2741 236.963,36.1913 z" id="boundary" inkscape:connector-curvature="0" />
	<path style="fill:none;stroke:red;stroke-width:1px;stroke-linecap:butt;stroke-linejoin:miter;stroke-opacity:1" d="M 236.963,36.1913 245.435,34.497 z" id="boundary" inkscape:connector-curvature="0" />
	<path style="fill:none;stroke:red;stroke-width:1px;stroke-linecap:butt;stroke-linejoin:miter;stroke-opacity:1" d="M 262.377,31.9556 270.849,31.9556 z" id="boundary" inkscape:connector-curvature="0" />
	<path style="fill:none;stroke:red;stroke-width:1px;stroke-linecap:butt;stroke-linejoin:miter;stroke-opacity:1" d="M 245.435,34.497 253.906,31.9556 z" id="boundary" inkscape:connector-curvature="0" />
	<path style="fill:none;stroke:red;stroke-width:1px;stroke-linecap:butt;stroke-linejoin:miter;stroke-opacity:1" d="M 445.36,27.7199 453.831,27.7199 z" id="boundary" inkscape:connector-curvature="0" />
	<path style="fill:none;stroke:red;stroke-width:1px;stroke-linecap:butt;stroke-linejoin:miter;stroke-opacity:1" d="M 462.302,27.7199 453.831,27.7199 z" id="boundary" inkscape:connector-curvature="0" />
	<path style="fill:none;stroke:red;stroke-width:1px;stroke-linecap:butt;stroke-linejoin:miter;stroke-opacity:1" d="M 462.302,27.7199 470.774,27.7199 z" id="boundary" inkscape:connector-curvature="0" />
	<path style="fill:none;stroke:red;stroke-width:1px;stroke-linecap:butt;stroke-linejoin:miter;stroke-opacity:1" d="M 479.245,27.7199 470.774,27.7199 z" id="boundary" inkscape:connector-curvature="0" />
	<path style="fill:none;stroke:red;stroke-width:1px;stroke-linecap:butt;stroke-linejoin:miter;stroke-opacity:1" d="M 487.716,27.7199 479.245,27.7199 z" id="boundary" inkscape:connector-curvature="0" />
	<path style="fill:none;stroke:red;stroke-width:1px;stroke-linecap:butt;stroke-linejoin:miter;stroke-opacity:1" d="M 487.716,27.7199 496.188,27.7199 z" id="boundary" inkscape:connector-curvature="0" />
	<path style="fill:none;stroke:red;stroke-width:1px;stroke-linecap:butt;stroke-linejoin:miter;stroke-opacity:1" d="M 504.659,27.7199 496.188,27.7199 z" id="boundary" inkscape:connector-curvature="0" />
	<path style="fill:none;stroke:red;stroke-width:1px;stroke-linecap:butt;stroke-linejoin:miter;stroke-opacity:1" d="M 521.602,27.7199 513.131,27.7199 z" id="boundary" inkscape:connector-curvature="0" />
	<path style="fill:none;stroke:red;stroke-width:1px;stroke-linecap:butt;stroke-linejoin:miter;stroke-opacity:1" d="M 530.073,27.7199 521.602,27.7199 z" id="boundary" inkscape:connector-curvature="0" />
	<path style="fill:none;stroke:red;stroke-width:1px;stroke-linecap:butt;stroke-linejoin:miter;stroke-opacity:1" d="M 504.659,27.7199 513.131,27.7199 z" id="boundary" inkscape:connector-curvature="0" />
	<path style="fill:none;stroke:red;stroke-width:1px;stroke-linecap:butt;stroke-linejoin:miter;stroke-opacity:1" d="M 8.2357,181.899 8.2357,190.371 z" id="boundary" inkscape:connector-curvature="0" />
	<path style="fill:none;stroke:red;stroke-width:1px;stroke-linecap:butt;stroke-linejoin:miter;stroke-opacity:1" d="M 12.4714,197.995 8.2357,190.371 z" id="boundary" inkscape:connector-curvature="0" />
	<path style="fill:none;stroke:red;stroke-width:1px;stroke-linecap:butt;stroke-linejoin:miter;stroke-opacity:1" d="M 12.4714,197.995 16.7071,205.619 z" id="boundary" inkscape:connector-curvature="0" />
	<path style="fill:none;stroke:red;stroke-width:1px;stroke-linecap:butt;stroke-linejoin:miter;stroke-opacity:1" d="M 16.7071,205.619 16.7071,214.091 z" id="boundary" inkscape:connector-curvature="0" />
	<path style="fill:none;stroke:red;stroke-width:1px;stroke-linecap:butt;stroke-linejoin:miter;stroke-opacity:1" d="M 16.7071,214.091 21.7899,220.868 z" id="boundary" inkscape:connector-curvature="0" />
	<path style="fill:none;stroke:red;stroke-width:1px;stroke-linecap:butt;stroke-linejoin:miter;stroke-opacity:1" d="M 21.7899,220.868 25.1785,229.339 z" id="boundary" inkscape:connector-curvature="0" />
	<path style="fill:none;stroke:red;stroke-width:1px;stroke-linecap:butt;stroke-linejoin:miter;stroke-opacity:1" d="M 92.1025,214.938 84.4782,219.173 z" id="boundary" inkscape:connector-curvature="0" />
	<path style="fill:none;stroke:red;stroke-width:1px;stroke-linecap:butt;stroke-linejoin:miter;stroke-opacity:1" d="M 84.4782,219.173 76.0068,220.868 z" id="boundary" inkscape:connector-curvature="0" />
	<path style="fill:none;stroke:red;stroke-width:1px;stroke-linecap:butt;stroke-linejoin:miter;stroke-opacity:1" d="M 92.1025,214.938 100.574,213.243 z" id="boundary" inkscape:connector-curvature="0" />
	<path style="fill:none;stroke:red;stroke-width:1px;stroke-linecap:butt;stroke-linejoin:miter;stroke-opacity:1" d="M 76.0068,220.868 67.5354,223.409 z" id="boundary" inkscape:connector-curvature="0" />
	<path style="fill:none;stroke:red;stroke-width:1px;stroke-linecap:butt;stroke-linejoin:miter;stroke-opacity:1" d="M 124.294,202.231 132.765,202.231 z" id="boundary" inkscape:connector-curvature="0" />
	<path style="fill:none;stroke:red;stroke-width:1px;stroke-linecap:butt;stroke-linejoin:miter;stroke-opacity:1" d="M 116.67,206.466 124.294,202.231 z" id="boundary" inkscape:connector-curvature="0" />
	<path style="fill:none;stroke:red;stroke-width:1px;stroke-linecap:butt;stroke-linejoin:miter;stroke-opacity:1" d="M 141.237,202.231 149.708,202.231 z" id="boundary" inkscape:connector-curvature="0" />
	<path style="fill:none;stroke:red;stroke-width:1px;stroke-linecap:butt;stroke-linejoin:miter;stroke-opacity:1" d="M 141.237,202.231 132.765,202.231 z" id="boundary" inkscape:connector-curvature="0" />
	<path style="fill:none;stroke:red;stroke-width:1px;stroke-linecap:butt;stroke-linejoin:miter;stroke-opacity:1" d="M 100.574,213.243 109.045,210.702 z" id="boundary" inkscape:connector-curvature="0" />
	<path style="fill:none;stroke:red;stroke-width:1px;stroke-linecap:butt;stroke-linejoin:miter;stroke-opacity:1" d="M 116.67,206.466 109.045,210.702 z" id="boundary" inkscape:connector-curvature="0" />
	<path style="fill:none;stroke:red;stroke-width:1px;stroke-linecap:butt;stroke-linejoin:miter;stroke-opacity:1" d="M 149.708,202.231 158.179,202.231 z" id="boundary" inkscape:connector-curvature="0" />
	<path style="fill:none;stroke:red;stroke-width:1px;stroke-linecap:butt;stroke-linejoin:miter;stroke-opacity:1" d="M 164.956,207.313 158.179,202.231 z" id="boundary" inkscape:connector-curvature="0" />
	<path style="fill:none;stroke:red;stroke-width:1px;stroke-linecap:butt;stroke-linejoin:miter;stroke-opacity:1" d="M 164.956,207.313 160.721,220.868 z" id="boundary" inkscape:connector-curvature="0" />
	<path style="fill:none;stroke:red;stroke-width:1px;stroke-linecap:butt;stroke-linejoin:miter;stroke-opacity:1" d="M 50.5927,229.339 42.1213,231.88 z" id="boundary" inkscape:connector-curvature="0" />
	<path style="fill:none;stroke:red;stroke-width:1px;stroke-linecap:butt;stroke-linejoin:miter;stroke-opacity:1" d="M 59.064,225.103 50.5927,229.339 z" id="boundary" inkscape:connector-curvature="0" />
	<path style="fill:none;stroke:red;stroke-width:1px;stroke-linecap:butt;stroke-linejoin:miter;stroke-opacity:1" d="M 59.064,225.103 67.5354,223.409 z" id="boundary" inkscape:connector-curvature="0" />
	<path style="fill:none;stroke:red;stroke-width:1px;stroke-linecap:butt;stroke-linejoin:miter;stroke-opacity:1" d="M 160.721,220.868 156.485,229.339 z" id="boundary" inkscape:connector-curvature="0" />
	<path style="fill:none;stroke:red;stroke-width:1px;stroke-linecap:butt;stroke-linejoin:miter;stroke-opacity:1" d="M 156.485,229.339 156.485,237.81 z" id="boundary" inkscape:connector-curvature="0" />
	<path style="fill:none;stroke:red;stroke-width:1px;stroke-linecap:butt;stroke-linejoin:miter;stroke-opacity:1" d="M 33.6499,231.88 42.1213,231.88 z" id="boundary" inkscape:connector-curvature="0" />
	<path style="fill:none;stroke:red;stroke-width:1px;stroke-linecap:butt;stroke-linejoin:miter;stroke-opacity:1" d="M 160.721,245.435 156.485,237.81 z" id="boundary" inkscape:connector-curvature="0" />
	<path style="fill:none;stroke:red;stroke-width:1px;stroke-linecap:butt;stroke-linejoin:miter;stroke-opacity:1" d="M 33.6499,231.88 25.1785,229.339 z" id="boundary" inkscape:connector-curvature="0" />
	<path style="fill:none;stroke:red;stroke-width:1px;stroke-linecap:butt;stroke-linejoin:miter;stroke-opacity:1" d="M 160.721,245.435 160.721,253.906 z" id="boundary" inkscape:connector-curvature="0" />
	<path style="fill:none;stroke:red;stroke-width:1px;stroke-linecap:butt;stroke-linejoin:miter;stroke-opacity:1" d="M 166.651,260.683 160.721,253.906 z" id="boundary" inkscape:connector-curvature="0" />
	<path style="fill:none;stroke:red;stroke-width:1px;stroke-linecap:butt;stroke-linejoin:miter;stroke-opacity:1" d="M 166.651,260.683 175.122,264.072 z" id="boundary" inkscape:connector-curvature="0" />
	<path style="fill:none;stroke:red;stroke-width:1px;stroke-linecap:butt;stroke-linejoin:miter;stroke-opacity:1" d="M 175.122,264.072 181.899,270.002 z" id="boundary" inkscape:connector-curvature="0" />
	<path style="fill:none;stroke:red;stroke-width:1px;stroke-linecap:butt;stroke-linejoin:miter;stroke-opacity:1" d="M 190.371,270.002 181.899,270.002 z" id="boundary" inkscape:connector-curvature="0" />
	<path style="fill:none;stroke:red;stroke-width:1px;stroke-linecap:butt;stroke-linejoin:miter;stroke-opacity:1" d="M 190.371,270.002 197.995,274.237 z" id="boundary" inkscape:connector-curvature="0" />
	<path style="fill:none;stroke:red;stroke-width:1px;stroke-linecap:butt;stroke-linejoin:miter;stroke-opacity:1" d="M 221.715,282.709 213.243,282.709 z" id="boundary" inkscape:connector-curvature="0" />
	<path style="fill:none;stroke:red;stroke-width:1px;stroke-linecap:butt;stroke-linejoin:miter;stroke-opacity:1" d="M 213.243,282.709 205.619,278.473 z" id="boundary" inkscape:connector-curvature="0" />
	<path style="fill:none;stroke:red;stroke-width:1px;stroke-linecap:butt;stroke-linejoin:miter;stroke-opacity:1" d="M 205.619,278.473 197.995,274.237 z" id="boundary" inkscape:connector-curvature="0" />
	<path style="fill:none;stroke:red;stroke-width:1px;stroke-linecap:butt;stroke-linejoin:miter;stroke-opacity:1" d="M 221.715,282.709 229.339,286.944 z" id="boundary" inkscape:connector-curvature="0" />
	<path style="fill:none;stroke:red;stroke-width:1px;stroke-linecap:butt;stroke-linejoin:miter;stroke-opacity:1" d="M 229.339,286.944 236.963,291.18 z" id="boundary" inkscape:connector-curvature="0" />
	<path style="fill:none;stroke:red;stroke-width:1px;stroke-linecap:butt;stroke-linejoin:miter;stroke-opacity:1" d="M 261.53,295.416 253.059,295.416 z" id="boundary" inkscape:connector-curvature="0" />
	<path style="fill:none;stroke:red;stroke-width:1px;stroke-linecap:butt;stroke-linejoin:miter;stroke-opacity:1" d="M 244.588,295.416 253.059,295.416 z" id="boundary" inkscape:connector-curvature="0" />
	<path style="fill:none;stroke:red;stroke-width:1px;stroke-linecap:butt;stroke-linejoin:miter;stroke-opacity:1" d="M 244.588,295.416 236.963,291.18 z" id="boundary" inkscape:connector-curvature="0" />
	<path style="fill:none;stroke:red;stroke-width:1px;stroke-linecap:butt;stroke-linejoin:miter;stroke-opacity:1" d="M 261.53,295.416 269.155,299.652 z" id="boundary" inkscape:connector-curvature="0" />
	<path style="fill:none;stroke:red;stroke-width:1px;stroke-linecap:butt;stroke-linejoin:miter;stroke-opacity:1" d="M 277.626,299.652 269.155,299.652 z" id="boundary" inkscape:connector-curvature="0" />
	<path style="fill:none;stroke:red;stroke-width:1px;stroke-linecap:butt;stroke-linejoin:miter;stroke-opacity:1" d="M 294.569,303.887 286.097,303.04 z" id="boundary" inkscape:connector-curvature="0" />
	<path style="fill:none;stroke:red;stroke-width:1px;stroke-linecap:butt;stroke-linejoin:miter;stroke-opacity:1" d="M 286.097,303.04 277.626,299.652 z" id="boundary" inkscape:connector-curvature="0" />
	<path style="fill:none;stroke:red;stroke-width:1px;stroke-linecap:butt;stroke-linejoin:miter;stroke-opacity:1" d="M 303.04,303.887 294.569,303.887 z" id="boundary" inkscape:connector-curvature="0" />
	<path style="fill:none;stroke:red;stroke-width:1px;stroke-linecap:butt;stroke-linejoin:miter;stroke-opacity:1" d="M 303.04,303.887 311.512,303.887 z" id="boundary" inkscape:connector-curvature="0" />
	<path style="fill:none;stroke:red;stroke-width:1px;stroke-linecap:butt;stroke-linejoin:miter;stroke-opacity:1" d="M 319.983,303.887 328.454,303.887 z" id="boundary" inkscape:connector-curvature="0" />
	<path style="fill:none;stroke:red;stroke-width:1px;stroke-linecap:butt;stroke-linejoin:miter;stroke-opacity:1" d="M 328.454,303.887 336.079,308.123 z" id="boundary" inkscape:connector-curvature="0" />
	<path style="fill:none;stroke:red;stroke-width:1px;stroke-linecap:butt;stroke-linejoin:miter;stroke-opacity:1" d="M 311.512,303.887 319.983,303.887 z" id="boundary" inkscape:connector-curvature="0" />
	<path style="fill:none;stroke:red;stroke-width:1px;stroke-linecap:butt;stroke-linejoin:miter;stroke-opacity:1" d="M 336.079,308.123 344.55,308.123 z" id="boundary" inkscape:connector-curvature="0" />
	<path style="fill:none;stroke:red;stroke-width:1px;stroke-linecap:butt;stroke-linejoin:miter;stroke-opacity:1" d="M 353.021,308.123 361.493,308.123 z" id="boundary" inkscape:connector-curvature="0" />
	<path style="fill:none;stroke:red;stroke-width:1px;stroke-linecap:butt;stroke-linejoin:miter;stroke-opacity:1" d="M 361.493,308.123 369.964,308.123 z" id="boundary" inkscape:connector-curvature="0" />
	<path style="fill:none;stroke:red;stroke-width:1px;stroke-linecap:butt;stroke-linejoin:miter;stroke-opacity:1" d="M 353.021,308.123 344.55,308.123 z" id="boundary" inkscape:connector-curvature="0" />
	<path style="fill:none;stroke:red;stroke-width:1px;stroke-linecap:butt;stroke-linejoin:miter;stroke-opacity:1" d="M 378.436,308.123 386.907,308.123 z" id="boundary" inkscape:connector-curvature="0" />
	<path style="fill:none;stroke:red;stroke-width:1px;stroke-linecap:butt;stroke-linejoin:miter;stroke-opacity:1" d="M 395.378,308.123 403.85,308.123 z" id="boundary" inkscape:connector-curvature="0" />
	<path style="fill:none;stroke:red;stroke-width:1px;stroke-linecap:butt;stroke-linejoin:miter;stroke-opacity:1" d="M 378.436,308.123 369.964,308.123 z" id="boundary" inkscape:connector-curvature="0" />
	<path style="fill:none;stroke:red;stroke-width:1px;stroke-linecap:butt;stroke-linejoin:miter;stroke-opacity:1" d="M 386.907,308.123 395.378,308.123 z" id="boundary" inkscape:connector-curvature="0" />
	<path style="fill:none;stroke:red;stroke-width:1px;stroke-linecap:butt;stroke-linejoin:miter;stroke-opacity:1" d="M 412.321,308.123 420.792,308.123 z" id="boundary" inkscape:connector-curvature="0" />
	<path style="fill:none;stroke:red;stroke-width:1px;stroke-linecap:butt;stroke-linejoin:miter;stroke-opacity:1" d="M 420.792,308.123 428.417,312.359 z" id="boundary" inkscape:connector-curvature="0" />
	<path style="fill:none;stroke:red;stroke-width:1px;stroke-linecap:butt;stroke-linejoin:miter;stroke-opacity:1" d="M 428.417,312.359 436.041,308.123 z" id="boundary" inkscape:connector-curvature="0" />
	<path style="fill:none;stroke:red;stroke-width:1px;stroke-linecap:butt;stroke-linejoin:miter;stroke-opacity:1" d="M 436.041,308.123 444.512,309.817 z" id="boundary" inkscape:connector-curvature="0" />
	<path style="fill:none;stroke:red;stroke-width:1px;stroke-linecap:butt;stroke-linejoin:miter;stroke-opacity:1" d="M 452.984,308.123 444.512,309.817 z" id="boundary" inkscape:connector-curvature="0" />
	<path style="fill:none;stroke:red;stroke-width:1px;stroke-linecap:butt;stroke-linejoin:miter;stroke-opacity:1" d="M 412.321,308.123 403.85,308.123 z" id="boundary" inkscape:connector-curvature="0" />
	<path style="fill:none;stroke:red;stroke-width:1px;stroke-linecap:butt;stroke-linejoin:miter;stroke-opacity:1" d="M 452.984,308.123 461.455,308.123 z" id="boundary" inkscape:connector-curvature="0" />
	<path style="fill:none;stroke:red;stroke-width:1px;stroke-linecap:butt;stroke-linejoin:miter;stroke-opacity:1" d="M 461.455,308.123 469.079,312.359 z" id="boundary" inkscape:connector-curvature="0" />
	<path style="fill:none;stroke:red;stroke-width:1px;stroke-linecap:butt;stroke-linejoin:miter;stroke-opacity:1" d="M 469.079,312.359 477.551,312.359 z" id="boundary" inkscape:connector-curvature="0" />
	<path style="fill:none;stroke:red;stroke-width:1px;stroke-linecap:butt;stroke-linejoin:miter;stroke-opacity:1" d="M 486.022,312.359 477.551,312.359 z" id="boundary" inkscape:connector-curvature="0" />
	<path style="fill:none;stroke:red;stroke-width:1px;stroke-linecap:butt;stroke-linejoin:miter;stroke-opacity:1" d="M 486.022,312.359 493.646,316.594 z" id="boundary" inkscape:connector-curvature="0" />
	<path style="fill:none;stroke:red;stroke-width:1px;stroke-linecap:butt;stroke-linejoin:miter;stroke-opacity:1" d="M 493.646,316.594 502.118,316.594 z" id="boundary" inkscape:connector-curvature="0" />
	<path style="fill:none;stroke:red;stroke-width:1px;stroke-linecap:butt;stroke-linejoin:miter;stroke-opacity:1" d="M 525.838,316.594 518.213,320.83 z" id="boundary" inkscape:connector-curvature="0" />
	<path style="fill:none;stroke:red;stroke-width:1px;stroke-linecap:butt;stroke-linejoin:miter;stroke-opacity:1" d="M 518.213,320.83 510.589,316.594 z" id="boundary" inkscape:connector-curvature="0" />
	<path style="fill:none;stroke:red;stroke-width:1px;stroke-linecap:butt;stroke-linejoin:miter;stroke-opacity:1" d="M 525.838,316.594 534.309,316.594 z" id="boundary" inkscape:connector-curvature="0" />
	<path style="fill:none;stroke:red;stroke-width:1px;stroke-linecap:butt;stroke-linejoin:miter;stroke-opacity:1" d="M 502.118,316.594 510.589,316.594 z" id="boundary" inkscape:connector-curvature="0" />
	<path style="fill:none;stroke:red;stroke-width:1px;stroke-linecap:butt;stroke-linejoin:miter;stroke-opacity:1" d="M 664.769,23.4842 656.297,23.4842 z" id="boundary" inkscape:connector-curvature="0" />
	<path style="fill:none;stroke:red;stroke-width:1px;stroke-linecap:butt;stroke-linejoin:miter;stroke-opacity:1" d="M 697.807,19.2485 705.431,15.0128 z" id="boundary" inkscape:connector-curvature="0" />
	<path style="fill:none;stroke:red;stroke-width:1px;stroke-linecap:butt;stroke-linejoin:miter;stroke-opacity:1" d="M 705.431,15.0128 713.903,15.0128 z" id="boundary" inkscape:connector-curvature="0" />
	<path style="fill:none;stroke:red;stroke-width:1px;stroke-linecap:butt;stroke-linejoin:miter;stroke-opacity:1" d="M 697.807,19.2485 689.336,19.2485 z" id="boundary" inkscape:connector-curvature="0" />
	<path style="fill:none;stroke:red;stroke-width:1px;stroke-linecap:butt;stroke-linejoin:miter;stroke-opacity:1" d="M 681.711,23.4842 689.336,19.2485 z" id="boundary" inkscape:connector-curvature="0" />
	<path style="fill:none;stroke:red;stroke-width:1px;stroke-linecap:butt;stroke-linejoin:miter;stroke-opacity:1" d="M 648.673,27.7199 656.297,23.4842 z" id="boundary" inkscape:connector-curvature="0" />
	<path style="fill:none;stroke:red;stroke-width:1px;stroke-linecap:butt;stroke-linejoin:miter;stroke-opacity:1" d="M 673.24,23.4842 664.769,23.4842 z" id="boundary" inkscape:connector-curvature="0" />
	<path style="fill:none;stroke:red;stroke-width:1px;stroke-linecap:butt;stroke-linejoin:miter;stroke-opacity:1" d="M 681.711,23.4842 673.24,23.4842 z" id="boundary" inkscape:connector-curvature="0" />
	<path style="fill:none;stroke:red;stroke-width:1px;stroke-linecap:butt;stroke-linejoin:miter;stroke-opacity:1" d="M 648.673,27.7199 640.202,25.1785 z" id="boundary" inkscape:connector-curvature="0" />
	<path style="fill:none;stroke:red;stroke-width:1px;stroke-linecap:butt;stroke-linejoin:miter;stroke-opacity:1" d="M 547.016,27.7199 538.545,27.7199 z" id="boundary" inkscape:connector-curvature="0" />
	<path style="fill:none;stroke:red;stroke-width:1px;stroke-linecap:butt;stroke-linejoin:miter;stroke-opacity:1" d="M 721.527,10.7771 729.998,10.7771 z" id="boundary" inkscape:connector-curvature="0" />
	<path style="fill:none;stroke:red;stroke-width:1px;stroke-linecap:butt;stroke-linejoin:miter;stroke-opacity:1" d="M 713.903,15.0128 721.527,10.7771 z" id="boundary" inkscape:connector-curvature="0" />
	<path style="fill:none;stroke:red;stroke-width:1px;stroke-linecap:butt;stroke-linejoin:miter;stroke-opacity:1" d="M 738.47,10.7771 746.941,7.38856 z" id="boundary" inkscape:connector-curvature="0" />
	<path style="fill:none;stroke:red;stroke-width:1px;stroke-linecap:butt;stroke-linejoin:miter;stroke-opacity:1" d="M 746.941,7.38856 755.412,10.7771 z" id="boundary" inkscape:connector-curvature="0" />
	<path style="fill:none;stroke:red;stroke-width:1px;stroke-linecap:butt;stroke-linejoin:miter;stroke-opacity:1" d="M 738.47,10.7771 729.998,10.7771 z" id="boundary" inkscape:connector-curvature="0" />
	<path style="fill:none;stroke:red;stroke-width:1px;stroke-linecap:butt;stroke-linejoin:miter;stroke-opacity:1" d="M 538.545,27.7199 530.073,27.7199 z" id="boundary" inkscape:connector-curvature="0" />
	<path style="fill:none;stroke:red;stroke-width:1px;stroke-linecap:butt;stroke-linejoin:miter;stroke-opacity:1" d="M 763.884,10.7771 771.508,15.0128 z" id="boundary" inkscape:connector-curvature="0" />
	<path style="fill:none;stroke:red;stroke-width:1px;stroke-linecap:butt;stroke-linejoin:miter;stroke-opacity:1" d="M 771.508,15.0128 775.744,22.6371 z" id="boundary" inkscape:connector-curvature="0" />
	<path style="fill:none;stroke:red;stroke-width:1px;stroke-linecap:butt;stroke-linejoin:miter;stroke-opacity:1" d="M 782.521,28.567 775.744,22.6371 z" id="boundary" inkscape:connector-curvature="0" />
	<path style="fill:none;stroke:red;stroke-width:1px;stroke-linecap:butt;stroke-linejoin:miter;stroke-opacity:1" d="M 755.412,10.7771 763.884,10.7771 z" id="boundary" inkscape:connector-curvature="0" />
	<path style="fill:none;stroke:red;stroke-width:1px;stroke-linecap:butt;stroke-linejoin:miter;stroke-opacity:1" d="M 547.016,27.7199 555.488,27.7199 z" id="boundary" inkscape:connector-curvature="0" />
	<path style="fill:none;stroke:red;stroke-width:1px;stroke-linecap:butt;stroke-linejoin:miter;stroke-opacity:1" d="M 563.959,27.7199 572.43,27.7199 z" id="boundary" inkscape:connector-curvature="0" />
	<path style="fill:none;stroke:red;stroke-width:1px;stroke-linecap:butt;stroke-linejoin:miter;stroke-opacity:1" d="M 563.959,27.7199 555.488,27.7199 z" id="boundary" inkscape:connector-curvature="0" />
	<path style="fill:none;stroke:red;stroke-width:1px;stroke-linecap:butt;stroke-linejoin:miter;stroke-opacity:1" d="M 580.902,27.7199 589.373,27.7199 z" id="boundary" inkscape:connector-curvature="0" />
	<path style="fill:none;stroke:red;stroke-width:1px;stroke-linecap:butt;stroke-linejoin:miter;stroke-opacity:1" d="M 597.845,27.7199 606.316,27.7199 z" id="boundary" inkscape:connector-curvature="0" />
	<path style="fill:none;stroke:red;stroke-width:1px;stroke-linecap:butt;stroke-linejoin:miter;stroke-opacity:1" d="M 614.787,27.7199 606.316,27.7199 z" id="boundary" inkscape:connector-curvature="0" />
	<path style="fill:none;stroke:red;stroke-width:1px;stroke-linecap:butt;stroke-linejoin:miter;stroke-opacity:1" d="M 597.845,27.7199 589.373,27.7199 z" id="boundary" inkscape:connector-curvature="0" />
	<path style="fill:none;stroke:red;stroke-width:1px;stroke-linecap:butt;stroke-linejoin:miter;stroke-opacity:1" d="M 580.902,27.7199 572.43,27.7199 z" id="boundary" inkscape:connector-curvature="0" />
	<path style="fill:none;stroke:red;stroke-width:1px;stroke-linecap:butt;stroke-linejoin:miter;stroke-opacity:1" d="M 623.259,27.7199 631.73,27.7199 z" id="boundary" inkscape:connector-curvature="0" />
	<path style="fill:none;stroke:red;stroke-width:1px;stroke-linecap:butt;stroke-linejoin:miter;stroke-opacity:1" d="M 640.202,25.1785 631.73,27.7199 z" id="boundary" inkscape:connector-curvature="0" />
	<path style="fill:none;stroke:red;stroke-width:1px;stroke-linecap:butt;stroke-linejoin:miter;stroke-opacity:1" d="M 794.381,40.427 800.311,47.2041 z" id="boundary" inkscape:connector-curvature="0" />
	<path style="fill:none;stroke:red;stroke-width:1px;stroke-linecap:butt;stroke-linejoin:miter;stroke-opacity:1" d="M 790.145,32.8027 782.521,28.567 z" id="boundary" inkscape:connector-curvature="0" />
	<path style="fill:none;stroke:red;stroke-width:1px;stroke-linecap:butt;stroke-linejoin:miter;stroke-opacity:1" d="M 790.145,32.8027 794.381,40.427 z" id="boundary" inkscape:connector-curvature="0" />
	<path style="fill:none;stroke:red;stroke-width:1px;stroke-linecap:butt;stroke-linejoin:miter;stroke-opacity:1" d="M 808.782,50.5927 800.311,47.2041 z" id="boundary" inkscape:connector-curvature="0" />
	<path style="fill:none;stroke:red;stroke-width:1px;stroke-linecap:butt;stroke-linejoin:miter;stroke-opacity:1" d="M 825.725,51.4398 817.254,53.1341 z" id="boundary" inkscape:connector-curvature="0" />
	<path style="fill:none;stroke:red;stroke-width:1px;stroke-linecap:butt;stroke-linejoin:miter;stroke-opacity:1" d="M 817.254,53.1341 808.782,50.5927 z" id="boundary" inkscape:connector-curvature="0" />
	<path style="fill:none;stroke:red;stroke-width:1px;stroke-linecap:butt;stroke-linejoin:miter;stroke-opacity:1" d="M 834.196,48.8984 825.725,51.4398 z" id="boundary" inkscape:connector-curvature="0" />
	<path style="fill:none;stroke:red;stroke-width:1px;stroke-linecap:butt;stroke-linejoin:miter;stroke-opacity:1" d="M 614.787,27.7199 623.259,27.7199 z" id="boundary" inkscape:connector-curvature="0" />
	<path style="fill:none;stroke:red;stroke-width:1px;stroke-linecap:butt;stroke-linejoin:miter;stroke-opacity:1" d="M 850.292,44.6627 858.763,44.6627 z" id="boundary" inkscape:connector-curvature="0" />
	<path style="fill:none;stroke:red;stroke-width:1px;stroke-linecap:butt;stroke-linejoin:miter;stroke-opacity:1" d="M 842.668,48.8984 850.292,44.6627 z" id="boundary" inkscape:connector-curvature="0" />
	<path style="fill:none;stroke:red;stroke-width:1px;stroke-linecap:butt;stroke-linejoin:miter;stroke-opacity:1" d="M 867.235,44.6627 858.763,44.6627 z" id="boundary" inkscape:connector-curvature="0" />
	<path style="fill:none;stroke:red;stroke-width:1px;stroke-linecap:butt;stroke-linejoin:miter;stroke-opacity:1" d="M 909.592,44.6627 901.12,44.6627 z" id="boundary" inkscape:connector-curvature="0" />
	<path style="fill:none;stroke:red;stroke-width:1px;stroke-linecap:butt;stroke-linejoin:miter;stroke-opacity:1" d="M 867.235,44.6627 875.706,44.6627 z" id="boundary" inkscape:connector-curvature="0" />
	<path style="fill:none;stroke:red;stroke-width:1px;stroke-linecap:butt;stroke-linejoin:miter;stroke-opacity:1" d="M 884.178,44.6627 892.649,44.6627 z" id="boundary" inkscape:connector-curvature="0" />
	<path style="fill:none;stroke:red;stroke-width:1px;stroke-linecap:butt;stroke-linejoin:miter;stroke-opacity:1" d="M 901.12,44.6627 892.649,44.6627 z" id="boundary" inkscape:connector-curvature="0" />
	<path style="fill:none;stroke:red;stroke-width:1px;stroke-linecap:butt;stroke-linejoin:miter;stroke-opacity:1" d="M 884.178,44.6627 875.706,44.6627 z" id="boundary" inkscape:connector-curvature="0" />
	<path style="fill:none;stroke:red;stroke-width:1px;stroke-linecap:butt;stroke-linejoin:miter;stroke-opacity:1" d="M 944.325,4.84714 952.796,4 z" id="boundary" inkscape:connector-curvature="0" />
	<path style="fill:none;stroke:red;stroke-width:1px;stroke-linecap:butt;stroke-linejoin:miter;stroke-opacity:1" d="M 945.172,20.0956 940.089,13.3185 z" id="boundary" inkscape:connector-curvature="0" />
	<path style="fill:none;stroke:red;stroke-width:1px;stroke-linecap:butt;stroke-linejoin:miter;stroke-opacity:1" d="M 935.853,25.1785 927.382,26.0256 z" id="boundary" inkscape:connector-curvature="0" />
	<path style="fill:none;stroke:red;stroke-width:1px;stroke-linecap:butt;stroke-linejoin:miter;stroke-opacity:1" d="M 949.407,27.7199 947.713,43.8155 z" id="boundary" inkscape:connector-curvature="0" />
	<path style="fill:none;stroke:red;stroke-width:1px;stroke-linecap:butt;stroke-linejoin:miter;stroke-opacity:1" d="M 949.407,27.7199 945.172,20.0956 z" id="boundary" inkscape:connector-curvature="0" />
	<path style="fill:none;stroke:red;stroke-width:1px;stroke-linecap:butt;stroke-linejoin:miter;stroke-opacity:1" d="M 947.713,43.8155 940.936,49.7455 z" id="boundary" inkscape:connector-curvature="0" />
	<path style="fill:none;stroke:red;stroke-width:1px;stroke-linecap:butt;stroke-linejoin:miter;stroke-opacity:1" d="M 842.668,48.8984 834.196,48.8984 z" id="boundary" inkscape:connector-curvature="0" />
	<path style="fill:none;stroke:red;stroke-width:1px;stroke-linecap:butt;stroke-linejoin:miter;stroke-opacity:1" d="M 953.643,81.9368 957.879,89.5611 z" id="boundary" inkscape:connector-curvature="0" />
	<path style="fill:none;stroke:red;stroke-width:1px;stroke-linecap:butt;stroke-linejoin:miter;stroke-opacity:1" d="M 940.936,49.7455 942.63,58.2169 z" id="boundary" inkscape:connector-curvature="0" />
	<path style="fill:none;stroke:red;stroke-width:1px;stroke-linecap:butt;stroke-linejoin:miter;stroke-opacity:1" d="M 946.866,65.8412 949.407,74.3126 z" id="boundary" inkscape:connector-curvature="0" />
	<path style="fill:none;stroke:red;stroke-width:1px;stroke-linecap:butt;stroke-linejoin:miter;stroke-opacity:1" d="M 949.407,74.3126 953.643,81.9368 z" id="boundary" inkscape:connector-curvature="0" />
	<path style="fill:none;stroke:red;stroke-width:1px;stroke-linecap:butt;stroke-linejoin:miter;stroke-opacity:1" d="M 942.63,58.2169 946.866,65.8412 z" id="boundary" inkscape:connector-curvature="0" />
	<path style="fill:none;stroke:red;stroke-width:1px;stroke-linecap:butt;stroke-linejoin:miter;stroke-opacity:1" d="M 962.114,97.1853 966.35,104.81 z" id="boundary" inkscape:connector-curvature="0" />
	<path style="fill:none;stroke:red;stroke-width:1px;stroke-linecap:butt;stroke-linejoin:miter;stroke-opacity:1" d="M 966.35,104.81 968.044,113.281 z" id="boundary" inkscape:connector-curvature="0" />
	<path style="fill:none;stroke:red;stroke-width:1px;stroke-linecap:butt;stroke-linejoin:miter;stroke-opacity:1" d="M 962.114,97.1853 957.879,89.5611 z" id="boundary" inkscape:connector-curvature="0" />
	<path style="fill:none;stroke:red;stroke-width:1px;stroke-linecap:butt;stroke-linejoin:miter;stroke-opacity:1" d="M 968.044,113.281 974.822,119.211 z" id="boundary" inkscape:connector-curvature="0" />
	<path style="fill:none;stroke:red;stroke-width:1px;stroke-linecap:butt;stroke-linejoin:miter;stroke-opacity:1" d="M 974.822,119.211 974.822,127.682 z" id="boundary" inkscape:connector-curvature="0" />
	<path style="fill:none;stroke:red;stroke-width:1px;stroke-linecap:butt;stroke-linejoin:miter;stroke-opacity:1" d="M 980.751,134.459 974.822,127.682 z" id="boundary" inkscape:connector-curvature="0" />
	<path style="fill:none;stroke:red;stroke-width:1px;stroke-linecap:butt;stroke-linejoin:miter;stroke-opacity:1" d="M 980.751,134.459 984.987,142.084 z" id="boundary" inkscape:connector-curvature="0" />
	<path style="fill:none;stroke:red;stroke-width:1px;stroke-linecap:butt;stroke-linejoin:miter;stroke-opacity:1" d="M 984.987,142.084 987.529,150.555 z" id="boundary" inkscape:connector-curvature="0" />
	<path style="fill:none;stroke:red;stroke-width:1px;stroke-linecap:butt;stroke-linejoin:miter;stroke-opacity:1" d="M 991.764,158.179 987.529,150.555 z" id="boundary" inkscape:connector-curvature="0" />
	<path style="fill:none;stroke:red;stroke-width:1px;stroke-linecap:butt;stroke-linejoin:miter;stroke-opacity:1" d="M 996,165.804 991.764,158.179 z" id="boundary" inkscape:connector-curvature="0" />
	<path style="fill:none;stroke:red;stroke-width:1px;stroke-linecap:butt;stroke-linejoin:miter;stroke-opacity:1" d="M 996,165.804 991.764,176.816 z" id="boundary" inkscape:connector-curvature="0" />
	<path style="fill:none;stroke:red;stroke-width:1px;stroke-linecap:butt;stroke-linejoin:miter;stroke-opacity:1" d="M 608.857,261.53 617.329,261.53 z" id="boundary" inkscape:connector-curvature="0" />
	<path style="fill:none;stroke:red;stroke-width:1px;stroke-linecap:butt;stroke-linejoin:miter;stroke-opacity:1" d="M 625.8,261.53 617.329,261.53 z" id="boundary" inkscape:connector-curvature="0" />
	<path style="fill:none;stroke:red;stroke-width:1px;stroke-linecap:butt;stroke-linejoin:miter;stroke-opacity:1" d="M 625.8,261.53 634.272,261.53 z" id="boundary" inkscape:connector-curvature="0" />
	<path style="fill:none;stroke:red;stroke-width:1px;stroke-linecap:butt;stroke-linejoin:miter;stroke-opacity:1" d="M 642.743,261.53 634.272,261.53 z" id="boundary" inkscape:connector-curvature="0" />
	<path style="fill:none;stroke:red;stroke-width:1px;stroke-linecap:butt;stroke-linejoin:miter;stroke-opacity:1" d="M 642.743,261.53 651.214,261.53 z" id="boundary" inkscape:connector-curvature="0" />
	<path style="fill:none;stroke:red;stroke-width:1px;stroke-linecap:butt;stroke-linejoin:miter;stroke-opacity:1" d="M 659.686,261.53 651.214,261.53 z" id="boundary" inkscape:connector-curvature="0" />
	<path style="fill:none;stroke:red;stroke-width:1px;stroke-linecap:butt;stroke-linejoin:miter;stroke-opacity:1" d="M 659.686,261.53 668.157,261.53 z" id="boundary" inkscape:connector-curvature="0" />
	<path style="fill:none;stroke:red;stroke-width:1px;stroke-linecap:butt;stroke-linejoin:miter;stroke-opacity:1" d="M 676.629,261.53 668.157,261.53 z" id="boundary" inkscape:connector-curvature="0" />
	<path style="fill:none;stroke:red;stroke-width:1px;stroke-linecap:butt;stroke-linejoin:miter;stroke-opacity:1" d="M 685.1,261.53 676.629,261.53 z" id="boundary" inkscape:connector-curvature="0" />
	<path style="fill:none;stroke:red;stroke-width:1px;stroke-linecap:butt;stroke-linejoin:miter;stroke-opacity:1" d="M 777.438,261.53 768.967,261.53 z" id="boundary" inkscape:connector-curvature="0" />
	<path style="fill:none;stroke:red;stroke-width:1px;stroke-linecap:butt;stroke-linejoin:miter;stroke-opacity:1" d="M 743.553,261.53 735.081,261.53 z" id="boundary" inkscape:connector-curvature="0" />
	<path style="fill:none;stroke:red;stroke-width:1px;stroke-linecap:butt;stroke-linejoin:miter;stroke-opacity:1" d="M 802.852,260.683 811.324,257.295 z" id="boundary" inkscape:connector-curvature="0" />
	<path style="fill:none;stroke:red;stroke-width:1px;stroke-linecap:butt;stroke-linejoin:miter;stroke-opacity:1" d="M 819.795,257.295 811.324,257.295 z" id="boundary" inkscape:connector-curvature="0" />
	<path style="fill:none;stroke:red;stroke-width:1px;stroke-linecap:butt;stroke-linejoin:miter;stroke-opacity:1" d="M 794.381,261.53 802.852,260.683 z" id="boundary" inkscape:connector-curvature="0" />
	<path style="fill:none;stroke:red;stroke-width:1px;stroke-linecap:butt;stroke-linejoin:miter;stroke-opacity:1" d="M 726.61,264.919 735.081,261.53 z" id="boundary" inkscape:connector-curvature="0" />
	<path style="fill:none;stroke:red;stroke-width:1px;stroke-linecap:butt;stroke-linejoin:miter;stroke-opacity:1" d="M 752.024,261.53 743.553,261.53 z" id="boundary" inkscape:connector-curvature="0" />
	<path style="fill:none;stroke:red;stroke-width:1px;stroke-linecap:butt;stroke-linejoin:miter;stroke-opacity:1" d="M 752.024,261.53 760.495,261.53 z" id="boundary" inkscape:connector-curvature="0" />
	<path style="fill:none;stroke:red;stroke-width:1px;stroke-linecap:butt;stroke-linejoin:miter;stroke-opacity:1" d="M 768.967,261.53 760.495,261.53 z" id="boundary" inkscape:connector-curvature="0" />
	<path style="fill:none;stroke:red;stroke-width:1px;stroke-linecap:butt;stroke-linejoin:miter;stroke-opacity:1" d="M 685.1,261.53 692.724,265.766 z" id="boundary" inkscape:connector-curvature="0" />
	<path style="fill:none;stroke:red;stroke-width:1px;stroke-linecap:butt;stroke-linejoin:miter;stroke-opacity:1" d="M 574.125,294.569 580.902,282.709 z" id="boundary" inkscape:connector-curvature="0" />
	<path style="fill:none;stroke:red;stroke-width:1px;stroke-linecap:butt;stroke-linejoin:miter;stroke-opacity:1" d="M 580.902,282.709 589.373,278.473 z" id="boundary" inkscape:connector-curvature="0" />
	<path style="fill:none;stroke:red;stroke-width:1px;stroke-linecap:butt;stroke-linejoin:miter;stroke-opacity:1" d="M 574.125,294.569 566.5,299.652 z" id="boundary" inkscape:connector-curvature="0" />
	<path style="fill:none;stroke:red;stroke-width:1px;stroke-linecap:butt;stroke-linejoin:miter;stroke-opacity:1" d="M 600.386,264.072 596.15,272.543 z" id="boundary" inkscape:connector-curvature="0" />
	<path style="fill:none;stroke:red;stroke-width:1px;stroke-linecap:butt;stroke-linejoin:miter;stroke-opacity:1" d="M 596.15,272.543 589.373,278.473 z" id="boundary" inkscape:connector-curvature="0" />
	<path style="fill:none;stroke:red;stroke-width:1px;stroke-linecap:butt;stroke-linejoin:miter;stroke-opacity:1" d="M 534.309,316.594 542.781,312.359 z" id="boundary" inkscape:connector-curvature="0" />
	<path style="fill:none;stroke:red;stroke-width:1px;stroke-linecap:butt;stroke-linejoin:miter;stroke-opacity:1" d="M 551.252,308.123 558.876,303.887 z" id="boundary" inkscape:connector-curvature="0" />
	<path style="fill:none;stroke:red;stroke-width:1px;stroke-linecap:butt;stroke-linejoin:miter;stroke-opacity:1" d="M 551.252,308.123 542.781,312.359 z" id="boundary" inkscape:connector-curvature="0" />
	<path style="fill:none;stroke:red;stroke-width:1px;stroke-linecap:butt;stroke-linejoin:miter;stroke-opacity:1" d="M 558.876,303.887 566.5,299.652 z" id="boundary" inkscape:connector-curvature="0" />
	<path style="fill:none;stroke:red;stroke-width:1px;stroke-linecap:butt;stroke-linejoin:miter;stroke-opacity:1" d="M 726.61,264.919 718.138,265.766 z" id="boundary" inkscape:connector-curvature="0" />
	<path style="fill:none;stroke:red;stroke-width:1px;stroke-linecap:butt;stroke-linejoin:miter;stroke-opacity:1" d="M 785.909,261.53 777.438,261.53 z" id="boundary" inkscape:connector-curvature="0" />
	<path style="fill:none;stroke:red;stroke-width:1px;stroke-linecap:butt;stroke-linejoin:miter;stroke-opacity:1" d="M 794.381,261.53 785.909,261.53 z" id="boundary" inkscape:connector-curvature="0" />
	<path style="fill:none;stroke:red;stroke-width:1px;stroke-linecap:butt;stroke-linejoin:miter;stroke-opacity:1" d="M 821.489,314.053 817.254,322.524 z" id="boundary" inkscape:connector-curvature="0" />
	<path style="fill:none;stroke:red;stroke-width:1px;stroke-linecap:butt;stroke-linejoin:miter;stroke-opacity:1" d="M 692.724,265.766 701.196,265.766 z" id="boundary" inkscape:connector-curvature="0" />
	<path style="fill:none;stroke:red;stroke-width:1px;stroke-linecap:butt;stroke-linejoin:miter;stroke-opacity:1" d="M 709.667,265.766 718.138,265.766 z" id="boundary" inkscape:connector-curvature="0" />
	<path style="fill:none;stroke:red;stroke-width:1px;stroke-linecap:butt;stroke-linejoin:miter;stroke-opacity:1" d="M 701.196,265.766 709.667,265.766 z" id="boundary" inkscape:connector-curvature="0" />
	<path style="fill:none;stroke:red;stroke-width:1px;stroke-linecap:butt;stroke-linejoin:miter;stroke-opacity:1" d="M 600.386,264.072 608.857,261.53 z" id="boundary" inkscape:connector-curvature="0" />
	<path style="fill:none;stroke:red;stroke-width:1px;stroke-linecap:butt;stroke-linejoin:miter;stroke-opacity:1" d="M 885.872,244.588 877.401,244.588 z" id="boundary" inkscape:connector-curvature="0" />
	<path style="fill:none;stroke:red;stroke-width:1px;stroke-linecap:butt;stroke-linejoin:miter;stroke-opacity:1" d="M 910.439,242.046 917.216,236.116 z" id="boundary" inkscape:connector-curvature="0" />
	<path style="fill:none;stroke:red;stroke-width:1px;stroke-linecap:butt;stroke-linejoin:miter;stroke-opacity:1" d="M 917.216,236.116 924.84,231.88 z" id="boundary" inkscape:connector-curvature="0" />
	<path style="fill:none;stroke:red;stroke-width:1px;stroke-linecap:butt;stroke-linejoin:miter;stroke-opacity:1" d="M 910.439,242.046 901.968,240.352 z" id="boundary" inkscape:connector-curvature="0" />
	<path style="fill:none;stroke:red;stroke-width:1px;stroke-linecap:butt;stroke-linejoin:miter;stroke-opacity:1" d="M 894.343,244.588 901.968,240.352 z" id="boundary" inkscape:connector-curvature="0" />
	<path style="fill:none;stroke:red;stroke-width:1px;stroke-linecap:butt;stroke-linejoin:miter;stroke-opacity:1" d="M 868.929,248.823 860.458,253.059 z" id="boundary" inkscape:connector-curvature="0" />
	<path style="fill:none;stroke:red;stroke-width:1px;stroke-linecap:butt;stroke-linejoin:miter;stroke-opacity:1" d="M 836.738,257.295 828.266,257.295 z" id="boundary" inkscape:connector-curvature="0" />
	<path style="fill:none;stroke:red;stroke-width:1px;stroke-linecap:butt;stroke-linejoin:miter;stroke-opacity:1" d="M 877.401,244.588 868.929,248.823 z" id="boundary" inkscape:connector-curvature="0" />
	<path style="fill:none;stroke:red;stroke-width:1px;stroke-linecap:butt;stroke-linejoin:miter;stroke-opacity:1" d="M 894.343,244.588 885.872,244.588 z" id="boundary" inkscape:connector-curvature="0" />
	<path style="fill:none;stroke:red;stroke-width:1px;stroke-linecap:butt;stroke-linejoin:miter;stroke-opacity:1" d="M 860.458,261.53 860.458,253.059 z" id="boundary" inkscape:connector-curvature="0" />
	<path style="fill:none;stroke:red;stroke-width:1px;stroke-linecap:butt;stroke-linejoin:miter;stroke-opacity:1" d="M 828.266,257.295 819.795,257.295 z" id="boundary" inkscape:connector-curvature="0" />
	<path style="fill:none;stroke:red;stroke-width:1px;stroke-linecap:butt;stroke-linejoin:miter;stroke-opacity:1" d="M 963.809,205.619 972.28,201.383 z" id="boundary" inkscape:connector-curvature="0" />
	<path style="fill:none;stroke:red;stroke-width:1px;stroke-linecap:butt;stroke-linejoin:miter;stroke-opacity:1" d="M 957.032,212.396 963.809,205.619 z" id="boundary" inkscape:connector-curvature="0" />
	<path style="fill:none;stroke:red;stroke-width:1px;stroke-linecap:butt;stroke-linejoin:miter;stroke-opacity:1" d="M 987.529,185.288 980.751,197.148 z" id="boundary" inkscape:connector-curvature="0" />
	<path style="fill:none;stroke:red;stroke-width:1px;stroke-linecap:butt;stroke-linejoin:miter;stroke-opacity:1" d="M 980.751,197.148 972.28,201.383 z" id="boundary" inkscape:connector-curvature="0" />
	<path style="fill:none;stroke:red;stroke-width:1px;stroke-linecap:butt;stroke-linejoin:miter;stroke-opacity:1" d="M 924.84,231.88 931.617,225.103 z" id="boundary" inkscape:connector-curvature="0" />
	<path style="fill:none;stroke:red;stroke-width:1px;stroke-linecap:butt;stroke-linejoin:miter;stroke-opacity:1" d="M 931.617,225.103 940.089,220.868 z" id="boundary" inkscape:connector-curvature="0" />
	<path style="fill:none;stroke:red;stroke-width:1px;stroke-linecap:butt;stroke-linejoin:miter;stroke-opacity:1" d="M 940.089,220.868 948.56,216.632 z" id="boundary" inkscape:connector-curvature="0" />
	<path style="fill:none;stroke:red;stroke-width:1px;stroke-linecap:butt;stroke-linejoin:miter;stroke-opacity:1" d="M 957.032,212.396 948.56,216.632 z" id="boundary" inkscape:connector-curvature="0" />
	<path style="fill:none;stroke:red;stroke-width:1px;stroke-linecap:butt;stroke-linejoin:miter;stroke-opacity:1" d="M 825.725,301.346 832.502,294.569 z" id="boundary" inkscape:connector-curvature="0" />
	<path style="fill:none;stroke:red;stroke-width:1px;stroke-linecap:butt;stroke-linejoin:miter;stroke-opacity:1" d="M 834.196,284.403 832.502,294.569 z" id="boundary" inkscape:connector-curvature="0" />
	<path style="fill:none;stroke:red;stroke-width:1px;stroke-linecap:butt;stroke-linejoin:miter;stroke-opacity:1" d="M 825.725,301.346 821.489,314.053 z" id="boundary" inkscape:connector-curvature="0" />
	<path style="fill:none;stroke:red;stroke-width:1px;stroke-linecap:butt;stroke-linejoin:miter;stroke-opacity:1" d="M 825.725,322.524 817.254,322.524 z" id="boundary" inkscape:connector-curvature="0" />
	<path style="fill:none;stroke:red;stroke-width:1px;stroke-linecap:butt;stroke-linejoin:miter;stroke-opacity:1" d="M 838.432,319.136 825.725,322.524 z" id="boundary" inkscape:connector-curvature="0" />
	<path style="fill:none;stroke:red;stroke-width:1px;stroke-linecap:butt;stroke-linejoin:miter;stroke-opacity:1" d="M 840.974,277.626 834.196,284.403 z" id="boundary" inkscape:connector-curvature="0" />
	<path style="fill:none;stroke:red;stroke-width:1px;stroke-linecap:butt;stroke-linejoin:miter;stroke-opacity:1" d="M 836.738,257.295 842.668,264.072 z" id="boundary" inkscape:connector-curvature="0" />
	<path style="fill:none;stroke:red;stroke-width:1px;stroke-linecap:butt;stroke-linejoin:miter;stroke-opacity:1" d="M 858.763,276.779 851.986,282.709 z" id="boundary" inkscape:connector-curvature="0" />
	<path style="fill:none;stroke:red;stroke-width:1px;stroke-linecap:butt;stroke-linejoin:miter;stroke-opacity:1" d="M 860.458,261.53 858.763,276.779 z" id="boundary" inkscape:connector-curvature="0" />
	<path style="fill:none;stroke:red;stroke-width:1px;stroke-linecap:butt;stroke-linejoin:miter;stroke-opacity:1" d="M 851.986,291.18 851.986,282.709 z" id="boundary" inkscape:connector-curvature="0" />
	<path style="fill:none;stroke:red;stroke-width:1px;stroke-linecap:butt;stroke-linejoin:miter;stroke-opacity:1" d="M 838.432,319.136 845.209,324.219 z" id="boundary" inkscape:connector-curvature="0" />
	<path style="fill:none;stroke:red;stroke-width:1px;stroke-linecap:butt;stroke-linejoin:miter;stroke-opacity:1" d="M 851.986,299.652 847.751,308.123 z" id="boundary" inkscape:connector-curvature="0" />
	<path style="fill:none;stroke:red;stroke-width:1px;stroke-linecap:butt;stroke-linejoin:miter;stroke-opacity:1" d="M 851.986,299.652 851.986,291.18 z" id="boundary" inkscape:connector-curvature="0" />
	<path style="fill:none;stroke:red;stroke-width:1px;stroke-linecap:butt;stroke-linejoin:miter;stroke-opacity:1" d="M 991.764,176.816 987.529,185.288 z" id="boundary" inkscape:connector-curvature="0" />
	<circle cx="4" cy="157.332" r="4" fill="#0" id="circle0"/>
	<circle cx="4" cy="165.804" r="4" fill="#0" id="circle1"/>
	<circle cx="4" cy="174.275" r="4" fill="#0" id="circle2"/>
	<circle cx="8.2357" cy="140.389" r="4" fill="#0" id="circle3"/>
	<circle cx="8.2357" cy="148.861" r="4" fill="#0" id="circle4"/>
	<circle cx="8.2357" cy="181.899" r="4" fill="#0" id="circle5"/>
	<circle cx="8.2357" cy="190.371" r="4" fill="#0" id="circle6"/>
	<circle cx="12.4714" cy="131.918" r="4" fill="#0" id="circle7"/>
	<circle cx="12.4714" cy="197.995" r="4" fill="#0" id="circle8"/>
	<circle cx="16.7071" cy="119.211" r="4" fill="#0" id="circle9"/>
	<circle cx="16.7071" cy="205.619" r="4" fill="#0" id="circle10"/>
	<circle cx="16.7071" cy="214.091" r="4" fill="#0" id="circle11"/>
	<circle cx="21.7899" cy="220.868" r="4" fill="#0" id="circle12"/>
	<circle cx="23.4842" cy="112.434" r="4" fill="#0" id="circle13"/>
	<circle cx="25.1785" cy="229.339" r="4" fill="#0" id="circle14"/>
	<circle cx="31.1085" cy="108.198" r="4" fill="#0" id="circle15"/>
	<circle cx="33.6499" cy="231.88" r="4" fill="#0" id="circle16"/>
	<circle cx="37.8856" cy="102.268" r="4" fill="#0" id="circle17"/>
	<circle cx="42.1213" cy="231.88" r="4" fill="#0" id="circle18"/>
	<circle cx="46.357" cy="98.0325" r="4" fill="#0" id="circle19"/>
	<circle cx="50.5927" cy="229.339" r="4" fill="#0" id="circle20"/>
	<circle cx="54.8284" cy="95.491" r="4" fill="#0" id="circle21"/>
	<circle cx="59.064" cy="225.103" r="4" fill="#0" id="circle22"/>
	<circle cx="62.4526" cy="99.7267" r="4" fill="#0" id="circle23"/>
	<circle cx="67.5354" cy="223.409" r="4" fill="#0" id="circle24"/>
	<circle cx="70.0769" cy="103.962" r="4" fill="#0" id="circle25"/>
	<circle cx="76.0068" cy="220.868" r="4" fill="#0" id="circle26"/>
	<circle cx="77.7011" cy="108.198" r="4" fill="#0" id="circle27"/>
	<circle cx="84.4782" cy="219.173" r="4" fill="#0" id="circle28"/>
	<circle cx="86.1725" cy="108.198" r="4" fill="#0" id="circle29"/>
	<circle cx="92.1025" cy="214.938" r="4" fill="#0" id="circle30"/>
	<circle cx="93.7968" cy="112.434" r="4" fill="#0" id="circle31"/>
	<circle cx="100.574" cy="213.243" r="4" fill="#0" id="circle32"/>
	<circle cx="102.268" cy="112.434" r="4" fill="#0" id="circle33"/>
	<circle cx="109.045" cy="210.702" r="4" fill="#0" id="circle34"/>
	<circle cx="109.892" cy="116.67" r="4" fill="#0" id="circle35"/>
	<circle cx="116.67" cy="206.466" r="4" fill="#0" id="circle36"/>
	<circle cx="118.364" cy="116.67" r="4" fill="#0" id="circle37"/>
	<circle cx="124.294" cy="202.231" r="4" fill="#0" id="circle38"/>
	<circle cx="125.988" cy="120.905" r="4" fill="#0" id="circle39"/>
	<circle cx="132.765" cy="202.231" r="4" fill="#0" id="circle40"/>
	<circle cx="133.612" cy="125.141" r="4" fill="#0" id="circle41"/>
	<circle cx="141.237" cy="129.377" r="4" fill="#0" id="circle42"/>
	<circle cx="141.237" cy="202.231" r="4" fill="#0" id="circle43"/>
	<circle cx="149.708" cy="129.377" r="4" fill="#0" id="circle44"/>
	<circle cx="149.708" cy="202.231" r="4" fill="#0" id="circle45"/>
	<circle cx="156.485" cy="93.7968" r="4" fill="#0" id="circle46"/>
	<circle cx="156.485" cy="102.268" r="4" fill="#0" id="circle47"/>
	<circle cx="156.485" cy="110.74" r="4" fill="#0" id="circle48"/>
	<circle cx="156.485" cy="123.447" r="4" fill="#0" id="circle49"/>
	<circle cx="156.485" cy="229.339" r="4" fill="#0" id="circle50"/>
	<circle cx="156.485" cy="237.81" r="4" fill="#0" id="circle51"/>
	<circle cx="158.179" cy="202.231" r="4" fill="#0" id="circle52"/>
	<circle cx="160.721" cy="81.0897" r="4" fill="#0" id="circle53"/>
	<circle cx="160.721" cy="220.868" r="4" fill="#0" id="circle54"/>
	<circle cx="160.721" cy="245.435" r="4" fill="#0" id="circle55"/>
	<circle cx="160.721" cy="253.906" r="4" fill="#0" id="circle56"/>
	<circle cx="164.956" cy="207.313" r="4" fill="#0" id="circle57"/>
	<circle cx="166.651" cy="260.683" r="4" fill="#0" id="circle58"/>
	<circle cx="167.498" cy="74.3126" r="4" fill="#0" id="circle59"/>
	<circle cx="174.275" cy="67.5354" r="4" fill="#0" id="circle60"/>
	<circle cx="175.122" cy="264.072" r="4" fill="#0" id="circle61"/>
	<circle cx="181.899" cy="270.002" r="4" fill="#0" id="circle62"/>
	<circle cx="182.746" cy="63.2997" r="4" fill="#0" id="circle63"/>
	<circle cx="189.523" cy="57.3698" r="4" fill="#0" id="circle64"/>
	<circle cx="190.371" cy="270.002" r="4" fill="#0" id="circle65"/>
	<circle cx="197.148" cy="53.1341" r="4" fill="#0" id="circle66"/>
	<circle cx="197.995" cy="274.237" r="4" fill="#0" id="circle67"/>
	<circle cx="204.772" cy="48.8984" r="4" fill="#0" id="circle68"/>
	<circle cx="205.619" cy="278.473" r="4" fill="#0" id="circle69"/>
	<circle cx="213.243" cy="45.5098" r="4" fill="#0" id="circle70"/>
	<circle cx="213.243" cy="282.709" r="4" fill="#0" id="circle71"/>
	<circle cx="221.715" cy="44.6627" r="4" fill="#0" id="circle72"/>
	<circle cx="221.715" cy="282.709" r="4" fill="#0" id="circle73"/>
	<circle cx="229.339" cy="286.944" r="4" fill="#0" id="circle74"/>
	<circle cx="230.186" cy="41.2741" r="4" fill="#0" id="circle75"/>
	<circle cx="236.963" cy="36.1913" r="4" fill="#0" id="circle76"/>
	<circle cx="236.963" cy="291.18" r="4" fill="#0" id="circle77"/>
	<circle cx="244.588" cy="295.416" r="4" fill="#0" id="circle78"/>
	<circle cx="245.435" cy="34.497" r="4" fill="#0" id="circle79"/>
	<circle cx="253.059" cy="295.416" r="4" fill="#0" id="circle80"/>
	<circle cx="253.906" cy="31.9556" r="4" fill="#0" id="circle81"/>
	<circle cx="261.53" cy="295.416" r="4" fill="#0" id="circle82"/>
	<circle cx="262.377" cy="31.9556" r="4" fill="#0" id="circle83"/>
	<circle cx="269.155" cy="299.652" r="4" fill="#0" id="circle84"/>
	<circle cx="270.849" cy="31.9556" r="4" fill="#0" id="circle85"/>
	<circle cx="277.626" cy="299.652" r="4" fill="#0" id="circle86"/>
	<circle cx="278.473" cy="27.7199" r="4" fill="#0" id="circle87"/>
	<circle cx="286.097" cy="303.04" r="4" fill="#0" id="circle88"/>
	<circle cx="286.944" cy="27.7199" r="4" fill="#0" id="circle89"/>
	<circle cx="294.569" cy="303.887" r="4" fill="#0" id="circle90"/>
	<circle cx="295.416" cy="27.7199" r="4" fill="#0" id="circle91"/>
	<circle cx="303.04" cy="303.887" r="4" fill="#0" id="circle92"/>
	<circle cx="303.887" cy="27.7199" r="4" fill="#0" id="circle93"/>
	<circle cx="311.512" cy="23.4842" r="4" fill="#0" id="circle94"/>
	<circle cx="311.512" cy="303.887" r="4" fill="#0" id="circle95"/>
	<circle cx="319.983" cy="23.4842" r="4" fill="#0" id="circle96"/>
	<circle cx="319.983" cy="303.887" r="4" fill="#0" id="circle97"/>
	<circle cx="328.454" cy="23.4842" r="4" fill="#0" id="circle98"/>
	<circle cx="328.454" cy="303.887" r="4" fill="#0" id="circle99"/>
	<circle cx="336.079" cy="308.123" r="4" fill="#0" id="circle100"/>
	<circle cx="336.926" cy="23.4842" r="4" fill="#0" id="circle101"/>
	<circle cx="344.55" cy="308.123" r="4" fill="#0" id="circle102"/>
	<circle cx="345.397" cy="23.4842" r="4" fill="#0" id="circle103"/>
	<circle cx="353.021" cy="308.123" r="4" fill="#0" id="circle104"/>
	<circle cx="353.868" cy="23.4842" r="4" fill="#0" id="circle105"/>
	<circle cx="361.493" cy="308.123" r="4" fill="#0" id="circle106"/>
	<circle cx="362.34" cy="23.4842" r="4" fill="#0" id="circle107"/>
	<circle cx="369.964" cy="308.123" r="4" fill="#0" id="circle108"/>
	<circle cx="370.811" cy="23.4842" r="4" fill="#0" id="circle109"/>
	<circle cx="378.436" cy="308.123" r="4" fill="#0" id="circle110"/>
	<circle cx="379.283" cy="19.2485" r="4" fill="#0" id="circle111"/>
	<circle cx="386.907" cy="23.4842" r="4" fill="#0" id="circle112"/>
	<circle cx="386.907" cy="308.123" r="4" fill="#0" id="circle113"/>
	<circle cx="395.378" cy="23.4842" r="4" fill="#0" id="circle114"/>
	<circle cx="395.378" cy="308.123" r="4" fill="#0" id="circle115"/>
	<circle cx="403.85" cy="23.4842" r="4" fill="#0" id="circle116"/>
	<circle cx="403.85" cy="308.123" r="4" fill="#0" id="circle117"/>
	<circle cx="412.321" cy="23.4842" r="4" fill="#0" id="circle118"/>
	<circle cx="412.321" cy="308.123" r="4" fill="#0" id="circle119"/>
	<circle cx="420.792" cy="23.4842" r="4" fill="#0" id="circle120"/>
	<circle cx="420.792" cy="308.123" r="4" fill="#0" id="circle121"/>
	<circle cx="428.417" cy="312.359" r="4" fill="#0" id="circle122"/>
	<circle cx="429.264" cy="23.4842" r="4" fill="#0" id="circle123"/>
	<circle cx="436.041" cy="308.123" r="4" fill="#0" id="circle124"/>
	<circle cx="437.735" cy="23.4842" r="4" fill="#0" id="circle125"/>
	<circle cx="444.512" cy="309.817" r="4" fill="#0" id="circle126"/>
	<circle cx="445.36" cy="27.7199" r="4" fill="#0" id="circle127"/>
	<circle cx="452.984" cy="308.123" r="4" fill="#0" id="circle128"/>
	<circle cx="453.831" cy="27.7199" r="4" fill="#0" id="circle129"/>
	<circle cx="461.455" cy="308.123" r="4" fill="#0" id="circle130"/>
	<circle cx="462.302" cy="27.7199" r="4" fill="#0" id="circle131"/>
	<circle cx="469.079" cy="312.359" r="4" fill="#0" id="circle132"/>
	<circle cx="470.774" cy="27.7199" r="4" fill="#0" id="circle133"/>
	<circle cx="477.551" cy="312.359" r="4" fill="#0" id="circle134"/>
	<circle cx="479.245" cy="27.7199" r="4" fill="#0" id="circle135"/>
	<circle cx="486.022" cy="312.359" r="4" fill="#0" id="circle136"/>
	<circle cx="487.716" cy="27.7199" r="4" fill="#0" id="circle137"/>
	<circle cx="493.646" cy="316.594" r="4" fill="#0" id="circle138"/>
	<circle cx="496.188" cy="27.7199" r="4" fill="#0" id="circle139"/>
	<circle cx="502.118" cy="316.594" r="4" fill="#0" id="circle140"/>
	<circle cx="504.659" cy="27.7199" r="4" fill="#0" id="circle141"/>
	<circle cx="510.589" cy="316.594" r="4" fill="#0" id="circle142"/>
	<circle cx="513.131" cy="27.7199" r="4" fill="#0" id="circle143"/>
	<circle cx="518.213" cy="320.83" r="4" fill="#0" id="circle144"/>
	<circle cx="521.602" cy="27.7199" r="4" fill="#0" id="circle145"/>
	<circle cx="525.838" cy="316.594" r="4" fill="#0" id="circle146"/>
	<circle cx="530.073" cy="27.7199" r="4" fill="#0" id="circle147"/>
	<circle cx="534.309" cy="316.594" r="4" fill="#0" id="circle148"/>
	<circle cx="538.545" cy="27.7199" r="4" fill="#0" id="circle149"/>
	<circle cx="542.781" cy="312.359" r="4" fill="#0" id="circle150"/>
	<circle cx="547.016" cy="27.7199" r="4" fill="#0" id="circle151"/>
	<circle cx="551.252" cy="308.123" r="4" fill="#0" id="circle152"/>
	<circle cx="555.488" cy="27.7199" r="4" fill="#0" id="circle153"/>
	<circle cx="558.876" cy="303.887" r="4" fill="#0" id="circle154"/>
	<circle cx="563.959" cy="27.7199" r="4" fill="#0" id="circle155"/>
	<circle cx="566.5" cy="299.652" r="4" fill="#0" id="circle156"/>
	<circle cx="572.43" cy="27.7199" r="4" fill="#0" id="circle157"/>
	<circle cx="574.125" cy="294.569" r="4" fill="#0" id="circle158"/>
	<circle cx="580.902" cy="27.7199" r="4" fill="#0" id="circle159"/>
	<circle cx="580.902" cy="282.709" r="4" fill="#0" id="circle160"/>
	<circle cx="589.373" cy="27.7199" r="4" fill="#0" id="circle161"/>
	<circle cx="589.373" cy="278.473" r="4" fill="#0" id="circle162"/>
	<circle cx="596.15" cy="272.543" r="4" fill="#0" id="circle163"/>
	<circle cx="597.845" cy="27.7199" r="4" fill="#0" id="circle164"/>
	<circle cx="600.386" cy="264.072" r="4" fill="#0" id="circle165"/>
	<circle cx="606.316" cy="27.7199" r="4" fill="#0" id="circle166"/>
	<circle cx="608.857" cy="261.53" r="4" fill="#0" id="circle167"/>
	<circle cx="614.787" cy="27.7199" r="4" fill="#0" id="circle168"/>
	<circle cx="617.329" cy="261.53" r="4" fill="#0" id="circle169"/>
	<circle cx="623.259" cy="27.7199" r="4" fill="#0" id="circle170"/>
	<circle cx="625.8" cy="261.53" r="4" fill="#0" id="circle171"/>
	<circle cx="631.73" cy="27.7199" r="4" fill="#0" id="circle172"/>
	<circle cx="634.272" cy="261.53" r="4" fill="#0" id="circle173"/>
	<circle cx="640.202" cy="25.1785" r="4" fill="#0" id="circle174"/>
	<circle cx="642.743" cy="261.53" r="4" fill="#0" id="circle175"/>
	<circle cx="648.673" cy="27.7199" r="4" fill="#0" id="circle176"/>
	<circle cx="651.214" cy="261.53" r="4" fill="#0" id="circle177"/>
	<circle cx="656.297" cy="23.4842" r="4" fill="#0" id="circle178"/>
	<circle cx="659.686" cy="261.53" r="4" fill="#0" id="circle179"/>
	<circle cx="664.769" cy="23.4842" r="4" fill="#0" id="circle180"/>
	<circle cx="668.157" cy="261.53" r="4" fill="#0" id="circle181"/>
	<circle cx="673.24" cy="23.4842" r="4" fill="#0" id="circle182"/>
	<circle cx="676.629" cy="261.53" r="4" fill="#0" id="circle183"/>
	<circle cx="681.711" cy="23.4842" r="4" fill="#0" id="circle184"/>
	<circle cx="685.1" cy="261.53" r="4" fill="#0" id="circle185"/>
	<circle cx="689.336" cy="19.2485" r="4" fill="#0" id="circle186"/>
	<circle cx="692.724" cy="265.766" r="4" fill="#0" id="circle187"/>
	<circle cx="697.807" cy="19.2485" r="4" fill="#0" id="circle188"/>
	<circle cx="701.196" cy="265.766" r="4" fill="#0" id="circle189"/>
	<circle cx="705.431" cy="15.0128" r="4" fill="#0" id="circle190"/>
	<circle cx="709.667" cy="265.766" r="4" fill="#0" id="circle191"/>
	<circle cx="713.903" cy="15.0128" r="4" fill="#0" id="circle192"/>
	<circle cx="718.138" cy="265.766" r="4" fill="#0" id="circle193"/>
	<circle cx="721.527" cy="10.7771" r="4" fill="#0" id="circle194"/>
	<circle cx="726.61" cy="264.919" r="4" fill="#0" id="circle195"/>
	<circle cx="729.998" cy="10.7771" r="4" fill="#0" id="circle196"/>
	<circle cx="735.081" cy="261.53" r="4" fill="#0" id="circle197"/>
	<circle cx="738.47" cy="10.7771" r="4" fill="#0" id="circle198"/>
	<circle cx="743.553" cy="261.53" r="4" fill="#0" id="circle199"/>
	<circle cx="746.941" cy="7.38856" r="4" fill="#0" id="circle200"/>
	<circle cx="752.024" cy="261.53" r="4" fill="#0" id="circle201"/>
	<circle cx="755.412" cy="10.7771" r="4" fill="#0" id="circle202"/>
	<circle cx="760.495" cy="261.53" r="4" fill="#0" id="circle203"/>
	<circle cx="763.884" cy="10.7771" r="4" fill="#0" id="circle204"/>
	<circle cx="768.967" cy="261.53" r="4" fill="#0" id="circle205"/>
	<circle cx="771.508" cy="15.0128" r="4" fill="#0" id="circle206"/>
	<circle cx="775.744" cy="22.6371" r="4" fill="#0" id="circle207"/>
	<circle cx="777.438" cy="261.53" r="4" fill="#0" id="circle208"/>
	<circle cx="782.521" cy="28.567" r="4" fill="#0" id="circle209"/>
	<circle cx="785.909" cy="261.53" r="4" fill="#0" id="circle210"/>
	<circle cx="790.145" cy="32.8027" r="4" fill="#0" id="circle211"/>
	<circle cx="794.381" cy="40.427" r="4" fill="#0" id="circle212"/>
	<circle cx="794.381" cy="261.53" r="4" fill="#0" id="circle213"/>
	<circle cx="800.311" cy="47.2041" r="4" fill="#0" id="circle214"/>
	<circle cx="802.852" cy="260.683" r="4" fill="#0" id="circle215"/>
	<circle cx="808.782" cy="50.5927" r="4" fill="#0" id="circle216"/>
	<circle cx="811.324" cy="257.295" r="4" fill="#0" id="circle217"/>
	<circle cx="817.254" cy="53.1341" r="4" fill="#0" id="circle218"/>
	<circle cx="817.254" cy="322.524" r="4" fill="#0" id="circle219"/>
	<circle cx="819.795" cy="257.295" r="4" fill="#0" id="circle220"/>
	<circle cx="821.489" cy="314.053" r="4" fill="#0" id="circle221"/>
	<circle cx="825.725" cy="51.4398" r="4" fill="#0" id="circle222"/>
	<circle cx="825.725" cy="301.346" r="4" fill="#0" id="circle223"/>
	<circle cx="825.725" cy="322.524" r="4" fill="#0" id="circle224"/>
	<circle cx="828.266" cy="257.295" r="4" fill="#0" id="circle225"/>
	<circle cx="829.961" cy="312.359" r="4" fill="#0" id="circle226"/>
	<circle cx="832.502" cy="294.569" r="4" fill="#0" id="circle227"/>
	<circle cx="834.196" cy="48.8984" r="4" fill="#0" id="circle228"/>
	<circle cx="834.196" cy="284.403" r="4" fill="#0" id="circle229"/>
	<circle cx="834.196" cy="303.04" r="4" fill="#0" id="circle230"/>
	<circle cx="836.738" cy="257.295" r="4" fill="#0" id="circle231"/>
	<circle cx="838.432" cy="310.664" r="4" fill="#0" id="circle232"/>
	<circle cx="838.432" cy="319.136" r="4" fill="#0" id="circle233"/>
	<circle cx="840.974" cy="277.626" r="4" fill="#0" id="circle234"/>
	<circle cx="842.668" cy="48.8984" r="4" fill="#0" id="circle235"/>
	<circle cx="842.668" cy="264.072" r="4" fill="#0" id="circle236"/>
	<circle cx="845.209" cy="324.219" r="4" fill="#0" id="circle237"/>
	<circle cx="847.751" cy="308.123" r="4" fill="#0" id="circle238"/>
	<circle cx="850.292" cy="44.6627" r="4" fill="#0" id="circle239"/>
	<circle cx="851.986" cy="282.709" r="4" fill="#0" id="circle240"/>
	<circle cx="851.986" cy="291.18" r="4" fill="#0" id="circle241"/>
	<circle cx="851.986" cy="299.652" r="4" fill="#0" id="circle242"/>
	<circle cx="858.763" cy="44.6627" r="4" fill="#0" id="circle243"/>
	<circle cx="858.763" cy="276.779" r="4" fill="#0" id="circle244"/>
	<circle cx="860.458" cy="253.059" r="4" fill="#0" id="circle245"/>
	<circle cx="860.458" cy="261.53" r="4" fill="#0" id="circle246"/>
	<circle cx="867.235" cy="44.6627" r="4" fill="#0" id="circle247"/>
	<circle cx="868.929" cy="248.823" r="4" fill="#0" id="circle248"/>
	<circle cx="875.706" cy="44.6627" r="4" fill="#0" id="circle249"/>
	<circle cx="877.401" cy="244.588" r="4" fill="#0" id="circle250"/>
	<circle cx="884.178" cy="44.6627" r="4" fill="#0" id="circle251"/>
	<circle cx="885.872" cy="244.588" r="4" fill="#0" id="circle252"/>
	<circle cx="892.649" cy="44.6627" r="4" fill="#0" id="circle253"/>
	<circle cx="894.343" cy="244.588" r="4" fill="#0" id="circle254"/>
	<circle cx="901.12" cy="44.6627" r="4" fill="#0" id="circle255"/>
	<circle cx="901.968" cy="240.352" r="4" fill="#0" id="circle256"/>
	<circle cx="909.592" cy="44.6627" r="4" fill="#0" id="circle257"/>
	<circle cx="910.439" cy="242.046" r="4" fill="#0" id="circle258"/>
	<circle cx="914.675" cy="30.2613" r="4" fill="#0" id="circle259"/>
	<circle cx="917.216" cy="236.116" r="4" fill="#0" id="circle260"/>
	<circle cx="923.146" cy="33.6499" r="4" fill="#0" id="circle261"/>
	<circle cx="924.84" cy="231.88" r="4" fill="#0" id="circle262"/>
	<circle cx="927.382" cy="26.0256" r="4" fill="#0" id="circle263"/>
	<circle cx="931.617" cy="225.103" r="4" fill="#0" id="circle264"/>
	<circle cx="935.853" cy="25.1785" r="4" fill="#0" id="circle265"/>
	<circle cx="940.089" cy="13.3185" r="4" fill="#0" id="circle266"/>
	<circle cx="940.089" cy="220.868" r="4" fill="#0" id="circle267"/>
	<circle cx="940.936" cy="49.7455" r="4" fill="#0" id="circle268"/>
	<circle cx="942.63" cy="58.2169" r="4" fill="#0" id="circle269"/>
	<circle cx="944.325" cy="4.84714" r="4" fill="#0" id="circle270"/>
	<circle cx="945.172" cy="20.0956" r="4" fill="#0" id="circle271"/>
	<circle cx="946.866" cy="65.8412" r="4" fill="#0" id="circle272"/>
	<circle cx="947.713" cy="43.8155" r="4" fill="#0" id="circle273"/>
	<circle cx="948.56" cy="216.632" r="4" fill="#0" id="circle274"/>
	<circle cx="949.407" cy="27.7199" r="4" fill="#0" id="circle275"/>
	<circle cx="949.407" cy="74.3126" r="4" fill="#0" id="circle276"/>
	<circle cx="952.796" cy="4" r="4" fill="#0" id="circle277"/>
	<circle cx="953.643" cy="12.4714" r="4" fill="#0" id="circle278"/>
	<circle cx="953.643" cy="81.9368" r="4" fill="#0" id="circle279"/>
	<circle cx="957.032" cy="212.396" r="4" fill="#0" id="circle280"/>
	<circle cx="957.879" cy="89.5611" r="4" fill="#0" id="circle281"/>
	<circle cx="962.114" cy="97.1853" r="4" fill="#0" id="circle282"/>
	<circle cx="963.809" cy="205.619" r="4" fill="#0" id="circle283"/>
	<circle cx="966.35" cy="104.81" r="4" fill="#0" id="circle284"/>
	<circle cx="968.044" cy="113.281" r="4" fill="#0" id="circle285"/>
	<circle cx="972.28" cy="201.383" r="4" fill="#0" id="circle286"/>
	<circle cx="974.822" cy="119.211" r="4" fill="#0" id="circle287"/>
	<circle cx="974.822" cy="127.682" r="4" fill="#0" id="circle288"/>
	<circle cx="980.751" cy="134.459" r="4" fill="#0" id="circle289"/>
	<circle cx="980.751" cy="197.148" r="4" fill="#0" id="circle290"/>
	<circle cx="984.987" cy="142.084" r="4" fill="#0" id="circle291"/>
	<circle cx="987.529" cy="150.555" r="4" fill="#0" id="circle292"/>
	<circle cx="987.529" cy="185.288" r="4" fill="#0" id="circle293"/>
	<circle cx="991.764" cy="158.179" r="4" fill="#0" id="circle294"/>
	<circle cx="991.764" cy="176.816" r="4" fill="#0" id="circle295"/>
	<circle cx="996" cy="165.804" r="4" fill="#0" id="circle296"/>
	</g>
</svg>