<?xml version="1.0" encoding="UTF-8" standalone="no"?>
<!-- Created with CurveBenchmark -->
<svg
	xmlns:dc="http://purl.org/dc/elements/1.1/"
	xmlns:cc="http://creativecommons.org/ns#"
	xmlns:rdf="http://www.w3.org/1999/02/22-rdf-syntax-ns#"
	xmlns:svg="http://www.w3.org/2000/svg"
	xmlns="http://www.w3.org/2000/svg"
	xmlns:sodipodi="http://sodipodi.sourceforge.net/DTD/sodipodi-0.dtd"
	xmlns:inkscape="http://www.inkscape.org/namespaces/inkscape"
	width="1000"
	height="1000"
	id="svg2"
	version="1.1"
	sodipodi:docname="manifold/gathang-fish0724.png.txt">
<defs
	id="defs4" />
<metadata
	id="metadata7">
	<rdf:RDF>
		<cc:Work
			rdf:about="">
			<dc:format>image/svg+xml</dc:format>
			<dc:type
				rdf:resource="http://purl.org/dc/dcmitype/StillImage" />
			<dc:title></dc:title>
		</cc:Work>
	</rdf:RDF>
</metadata>
<g
	inkscape:label="Layer 1"
	inkscape:groupmode="layer"
	id="layer1">
	<path style="fill:none;stroke:red;stroke-width:1px;stroke-linecap:butt;stroke-linejoin:miter;stroke-opacity:1" d="M 225.452,129.619 212.501,133.504 z" id="boundary" inkscape:connector-curvature="0" />
	<path style="fill:none;stroke:red;stroke-width:1px;stroke-linecap:butt;stroke-linejoin:miter;stroke-opacity:1" d="M 212.501,133.504 199.551,133.504 z" id="boundary" inkscape:connector-curvature="0" />
	<path style="fill:none;stroke:red;stroke-width:1px;stroke-linecap:butt;stroke-linejoin:miter;stroke-opacity:1" d="M 186.601,136.094 199.551,133.504 z" id="boundary" inkscape:connector-curvature="0" />
	<path style="fill:none;stroke:red;stroke-width:1px;stroke-linecap:butt;stroke-linejoin:miter;stroke-opacity:1" d="M 173.65,142.569 186.601,136.094 z" id="boundary" inkscape:connector-curvature="0" />
	<path style="fill:none;stroke:red;stroke-width:1px;stroke-linecap:butt;stroke-linejoin:miter;stroke-opacity:1" d="M 160.7,146.454 173.65,142.569 z" id="boundary" inkscape:connector-curvature="0" />
	<path style="fill:none;stroke:red;stroke-width:1px;stroke-linecap:butt;stroke-linejoin:miter;stroke-opacity:1" d="M 282.433,79.1123 279.843,94.6527 z" id="boundary" inkscape:connector-curvature="0" />
	<path style="fill:none;stroke:red;stroke-width:1px;stroke-linecap:butt;stroke-linejoin:miter;stroke-opacity:1" d="M 279.843,94.6527 269.483,105.013 z" id="boundary" inkscape:connector-curvature="0" />
	<path style="fill:none;stroke:red;stroke-width:1px;stroke-linecap:butt;stroke-linejoin:miter;stroke-opacity:1" d="M 282.433,79.1123 292.794,68.752 z" id="boundary" inkscape:connector-curvature="0" />
	<path style="fill:none;stroke:red;stroke-width:1px;stroke-linecap:butt;stroke-linejoin:miter;stroke-opacity:1" d="M 263.008,117.963 269.483,105.013 z" id="boundary" inkscape:connector-curvature="0" />
	<path style="fill:none;stroke:red;stroke-width:1px;stroke-linecap:butt;stroke-linejoin:miter;stroke-opacity:1" d="M 238.402,127.029 250.057,120.554 z" id="boundary" inkscape:connector-curvature="0" />
	<path style="fill:none;stroke:red;stroke-width:1px;stroke-linecap:butt;stroke-linejoin:miter;stroke-opacity:1" d="M 250.057,120.554 263.008,117.963 z" id="boundary" inkscape:connector-curvature="0" />
	<path style="fill:none;stroke:red;stroke-width:1px;stroke-linecap:butt;stroke-linejoin:miter;stroke-opacity:1" d="M 238.402,127.029 225.452,129.619 z" id="boundary" inkscape:connector-curvature="0" />
	<path style="fill:none;stroke:red;stroke-width:1px;stroke-linecap:butt;stroke-linejoin:miter;stroke-opacity:1" d="M 62.2768,185.305 73.9321,178.83 z" id="boundary" inkscape:connector-curvature="0" />
	<path style="fill:none;stroke:red;stroke-width:1px;stroke-linecap:butt;stroke-linejoin:miter;stroke-opacity:1" d="M 73.9321,178.83 86.8825,178.83 z" id="boundary" inkscape:connector-curvature="0" />
	<path style="fill:none;stroke:red;stroke-width:1px;stroke-linecap:butt;stroke-linejoin:miter;stroke-opacity:1" d="M 98.5379,172.355 86.8825,178.83 z" id="boundary" inkscape:connector-curvature="0" />
	<path style="fill:none;stroke:red;stroke-width:1px;stroke-linecap:butt;stroke-linejoin:miter;stroke-opacity:1" d="M 50.6214,191.781 62.2768,185.305 z" id="boundary" inkscape:connector-curvature="0" />
	<path style="fill:none;stroke:red;stroke-width:1px;stroke-linecap:butt;stroke-linejoin:miter;stroke-opacity:1" d="M 27.3107,204.731 14.3603,204.731 z" id="boundary" inkscape:connector-curvature="0" />
	<path style="fill:none;stroke:red;stroke-width:1px;stroke-linecap:butt;stroke-linejoin:miter;stroke-opacity:1" d="M 37.671,194.371 27.3107,204.731 z" id="boundary" inkscape:connector-curvature="0" />
	<path style="fill:none;stroke:red;stroke-width:1px;stroke-linecap:butt;stroke-linejoin:miter;stroke-opacity:1" d="M 50.6214,191.781 37.671,194.371 z" id="boundary" inkscape:connector-curvature="0" />
	<path style="fill:none;stroke:red;stroke-width:1px;stroke-linecap:butt;stroke-linejoin:miter;stroke-opacity:1" d="M 134.799,155.52 147.749,149.044 z" id="boundary" inkscape:connector-curvature="0" />
	<path style="fill:none;stroke:red;stroke-width:1px;stroke-linecap:butt;stroke-linejoin:miter;stroke-opacity:1" d="M 147.749,149.044 160.7,146.454 z" id="boundary" inkscape:connector-curvature="0" />
	<path style="fill:none;stroke:red;stroke-width:1px;stroke-linecap:butt;stroke-linejoin:miter;stroke-opacity:1" d="M 134.799,155.52 121.849,159.405 z" id="boundary" inkscape:connector-curvature="0" />
	<path style="fill:none;stroke:red;stroke-width:1px;stroke-linecap:butt;stroke-linejoin:miter;stroke-opacity:1" d="M 98.5379,172.355 110.193,165.88 z" id="boundary" inkscape:connector-curvature="0" />
	<path style="fill:none;stroke:red;stroke-width:1px;stroke-linecap:butt;stroke-linejoin:miter;stroke-opacity:1" d="M 121.849,159.405 110.193,165.88 z" id="boundary" inkscape:connector-curvature="0" />
	<path style="fill:none;stroke:red;stroke-width:1px;stroke-linecap:butt;stroke-linejoin:miter;stroke-opacity:1" d="M 308.334,40.2611 314.809,27.3107 z" id="boundary" inkscape:connector-curvature="0" />
	<path style="fill:none;stroke:red;stroke-width:1px;stroke-linecap:butt;stroke-linejoin:miter;stroke-opacity:1" d="M 325.17,16.9504 314.809,27.3107 z" id="boundary" inkscape:connector-curvature="0" />
	<path style="fill:none;stroke:red;stroke-width:1px;stroke-linecap:butt;stroke-linejoin:miter;stroke-opacity:1" d="M 335.53,6.59008 325.17,16.9504 z" id="boundary" inkscape:connector-curvature="0" />
	<path style="fill:none;stroke:red;stroke-width:1px;stroke-linecap:butt;stroke-linejoin:miter;stroke-opacity:1" d="M 292.794,68.752 295.384,53.2115 z" id="boundary" inkscape:connector-curvature="0" />
	<path style="fill:none;stroke:red;stroke-width:1px;stroke-linecap:butt;stroke-linejoin:miter;stroke-opacity:1" d="M 295.384,53.2115 308.334,40.2611 z" id="boundary" inkscape:connector-curvature="0" />
	<path style="fill:none;stroke:red;stroke-width:1px;stroke-linecap:butt;stroke-linejoin:miter;stroke-opacity:1" d="M 354.956,15.6554 354.956,28.6057 z" id="boundary" inkscape:connector-curvature="0" />
	<path style="fill:none;stroke:red;stroke-width:1px;stroke-linecap:butt;stroke-linejoin:miter;stroke-opacity:1" d="M 354.956,28.6057 354.956,41.5561 z" id="boundary" inkscape:connector-curvature="0" />
	<path style="fill:none;stroke:red;stroke-width:1px;stroke-linecap:butt;stroke-linejoin:miter;stroke-opacity:1" d="M 354.956,41.5561 354.956,54.5065 z" id="boundary" inkscape:connector-curvature="0" />
	<path style="fill:none;stroke:red;stroke-width:1px;stroke-linecap:butt;stroke-linejoin:miter;stroke-opacity:1" d="M 354.956,67.4569 354.956,54.5065 z" id="boundary" inkscape:connector-curvature="0" />
	<path style="fill:none;stroke:red;stroke-width:1px;stroke-linecap:butt;stroke-linejoin:miter;stroke-opacity:1" d="M 361.431,79.1123 354.956,67.4569 z" id="boundary" inkscape:connector-curvature="0" />
	<path style="fill:none;stroke:red;stroke-width:1px;stroke-linecap:butt;stroke-linejoin:miter;stroke-opacity:1" d="M 335.53,6.59008 348.48,4 z" id="boundary" inkscape:connector-curvature="0" />
	<path style="fill:none;stroke:red;stroke-width:1px;stroke-linecap:butt;stroke-linejoin:miter;stroke-opacity:1" d="M 348.48,4 354.956,15.6554 z" id="boundary" inkscape:connector-curvature="0" />
	<path style="fill:none;stroke:red;stroke-width:1px;stroke-linecap:butt;stroke-linejoin:miter;stroke-opacity:1" d="M 379.561,110.193 367.906,103.718 z" id="boundary" inkscape:connector-curvature="0" />
	<path style="fill:none;stroke:red;stroke-width:1px;stroke-linecap:butt;stroke-linejoin:miter;stroke-opacity:1" d="M 367.906,103.718 361.431,92.0627 z" id="boundary" inkscape:connector-curvature="0" />
	<path style="fill:none;stroke:red;stroke-width:1px;stroke-linecap:butt;stroke-linejoin:miter;stroke-opacity:1" d="M 361.431,92.0627 361.431,79.1123 z" id="boundary" inkscape:connector-curvature="0" />
	<path style="fill:none;stroke:red;stroke-width:1px;stroke-linecap:butt;stroke-linejoin:miter;stroke-opacity:1" d="M 398.987,127.029 387.332,120.554 z" id="boundary" inkscape:connector-curvature="0" />
	<path style="fill:none;stroke:red;stroke-width:1px;stroke-linecap:butt;stroke-linejoin:miter;stroke-opacity:1" d="M 387.332,120.554 379.561,110.193 z" id="boundary" inkscape:connector-curvature="0" />
	<path style="fill:none;stroke:red;stroke-width:1px;stroke-linecap:butt;stroke-linejoin:miter;stroke-opacity:1" d="M 410.642,133.504 423.593,133.504 z" id="boundary" inkscape:connector-curvature="0" />
	<path style="fill:none;stroke:red;stroke-width:1px;stroke-linecap:butt;stroke-linejoin:miter;stroke-opacity:1" d="M 410.642,133.504 398.987,127.029 z" id="boundary" inkscape:connector-curvature="0" />
	<path style="fill:none;stroke:red;stroke-width:1px;stroke-linecap:butt;stroke-linejoin:miter;stroke-opacity:1" d="M 436.543,133.504 423.593,133.504 z" id="boundary" inkscape:connector-curvature="0" />
	<path style="fill:none;stroke:red;stroke-width:1px;stroke-linecap:butt;stroke-linejoin:miter;stroke-opacity:1" d="M 449.493,133.504 462.444,133.504 z" id="boundary" inkscape:connector-curvature="0" />
	<path style="fill:none;stroke:red;stroke-width:1px;stroke-linecap:butt;stroke-linejoin:miter;stroke-opacity:1" d="M 462.444,133.504 474.099,139.979 z" id="boundary" inkscape:connector-curvature="0" />
	<path style="fill:none;stroke:red;stroke-width:1px;stroke-linecap:butt;stroke-linejoin:miter;stroke-opacity:1" d="M 449.493,133.504 436.543,133.504 z" id="boundary" inkscape:connector-curvature="0" />
	<path style="fill:none;stroke:red;stroke-width:1px;stroke-linecap:butt;stroke-linejoin:miter;stroke-opacity:1" d="M 487.05,139.979 474.099,139.979 z" id="boundary" inkscape:connector-curvature="0" />
	<path style="fill:none;stroke:red;stroke-width:1px;stroke-linecap:butt;stroke-linejoin:miter;stroke-opacity:1" d="M 4,228.042 4,215.091 z" id="boundary" inkscape:connector-curvature="0" />
	<path style="fill:none;stroke:red;stroke-width:1px;stroke-linecap:butt;stroke-linejoin:miter;stroke-opacity:1" d="M 16.9504,231.927 4,228.042 z" id="boundary" inkscape:connector-curvature="0" />
	<path style="fill:none;stroke:red;stroke-width:1px;stroke-linecap:butt;stroke-linejoin:miter;stroke-opacity:1" d="M 4,215.091 14.3603,204.731 z" id="boundary" inkscape:connector-curvature="0" />
	<path style="fill:none;stroke:red;stroke-width:1px;stroke-linecap:butt;stroke-linejoin:miter;stroke-opacity:1" d="M 16.9504,231.927 29.9008,231.927 z" id="boundary" inkscape:connector-curvature="0" />
	<path style="fill:none;stroke:red;stroke-width:1px;stroke-linecap:butt;stroke-linejoin:miter;stroke-opacity:1" d="M 29.9008,231.927 41.5561,238.402 z" id="boundary" inkscape:connector-curvature="0" />
	<path style="fill:none;stroke:red;stroke-width:1px;stroke-linecap:butt;stroke-linejoin:miter;stroke-opacity:1" d="M 41.5561,238.402 53.2115,244.877 z" id="boundary" inkscape:connector-curvature="0" />
	<path style="fill:none;stroke:red;stroke-width:1px;stroke-linecap:butt;stroke-linejoin:miter;stroke-opacity:1" d="M 53.2115,244.877 66.1619,244.877 z" id="boundary" inkscape:connector-curvature="0" />
	<path style="fill:none;stroke:red;stroke-width:1px;stroke-linecap:butt;stroke-linejoin:miter;stroke-opacity:1" d="M 66.1619,244.877 77.8172,251.352 z" id="boundary" inkscape:connector-curvature="0" />
	<path style="fill:none;stroke:red;stroke-width:1px;stroke-linecap:butt;stroke-linejoin:miter;stroke-opacity:1" d="M 77.8172,251.352 89.4726,257.828 z" id="boundary" inkscape:connector-curvature="0" />
	<path style="fill:none;stroke:red;stroke-width:1px;stroke-linecap:butt;stroke-linejoin:miter;stroke-opacity:1" d="M 89.4726,257.828 102.423,257.828 z" id="boundary" inkscape:connector-curvature="0" />
	<path style="fill:none;stroke:red;stroke-width:1px;stroke-linecap:butt;stroke-linejoin:miter;stroke-opacity:1" d="M 102.423,257.828 115.373,257.828 z" id="boundary" inkscape:connector-curvature="0" />
	<path style="fill:none;stroke:red;stroke-width:1px;stroke-linecap:butt;stroke-linejoin:miter;stroke-opacity:1" d="M 128.324,257.828 141.274,257.828 z" id="boundary" inkscape:connector-curvature="0" />
	<path style="fill:none;stroke:red;stroke-width:1px;stroke-linecap:butt;stroke-linejoin:miter;stroke-opacity:1" d="M 128.324,257.828 115.373,257.828 z" id="boundary" inkscape:connector-curvature="0" />
	<path style="fill:none;stroke:red;stroke-width:1px;stroke-linecap:butt;stroke-linejoin:miter;stroke-opacity:1" d="M 141.274,257.828 154.225,257.828 z" id="boundary" inkscape:connector-curvature="0" />
	<path style="fill:none;stroke:red;stroke-width:1px;stroke-linecap:butt;stroke-linejoin:miter;stroke-opacity:1" d="M 167.175,257.828 180.125,260.418 z" id="boundary" inkscape:connector-curvature="0" />
	<path style="fill:none;stroke:red;stroke-width:1px;stroke-linecap:butt;stroke-linejoin:miter;stroke-opacity:1" d="M 180.125,260.418 191.781,266.893 z" id="boundary" inkscape:connector-curvature="0" />
	<path style="fill:none;stroke:red;stroke-width:1px;stroke-linecap:butt;stroke-linejoin:miter;stroke-opacity:1" d="M 154.225,257.828 167.175,257.828 z" id="boundary" inkscape:connector-curvature="0" />
	<path style="fill:none;stroke:red;stroke-width:1px;stroke-linecap:butt;stroke-linejoin:miter;stroke-opacity:1" d="M 224.157,308.334 213.796,300.564 z" id="boundary" inkscape:connector-curvature="0" />
	<path style="fill:none;stroke:red;stroke-width:1px;stroke-linecap:butt;stroke-linejoin:miter;stroke-opacity:1" d="M 213.796,300.564 207.321,288.909 z" id="boundary" inkscape:connector-curvature="0" />
	<path style="fill:none;stroke:red;stroke-width:1px;stroke-linecap:butt;stroke-linejoin:miter;stroke-opacity:1" d="M 202.141,275.958 207.321,288.909 z" id="boundary" inkscape:connector-curvature="0" />
	<path style="fill:none;stroke:red;stroke-width:1px;stroke-linecap:butt;stroke-linejoin:miter;stroke-opacity:1" d="M 191.781,266.893 202.141,275.958 z" id="boundary" inkscape:connector-curvature="0" />
	<path style="fill:none;stroke:red;stroke-width:1px;stroke-linecap:butt;stroke-linejoin:miter;stroke-opacity:1" d="M 240.992,329.055 231.927,318.695 z" id="boundary" inkscape:connector-curvature="0" />
	<path style="fill:none;stroke:red;stroke-width:1px;stroke-linecap:butt;stroke-linejoin:miter;stroke-opacity:1" d="M 231.927,318.695 224.157,308.334 z" id="boundary" inkscape:connector-curvature="0" />
	<path style="fill:none;stroke:red;stroke-width:1px;stroke-linecap:butt;stroke-linejoin:miter;stroke-opacity:1" d="M 319.99,257.828 332.94,257.828 z" id="boundary" inkscape:connector-curvature="0" />
	<path style="fill:none;stroke:red;stroke-width:1px;stroke-linecap:butt;stroke-linejoin:miter;stroke-opacity:1" d="M 307.039,261.713 319.99,257.828 z" id="boundary" inkscape:connector-curvature="0" />
	<path style="fill:none;stroke:red;stroke-width:1px;stroke-linecap:butt;stroke-linejoin:miter;stroke-opacity:1" d="M 294.089,264.303 307.039,261.713 z" id="boundary" inkscape:connector-curvature="0" />
	<path style="fill:none;stroke:red;stroke-width:1px;stroke-linecap:butt;stroke-linejoin:miter;stroke-opacity:1" d="M 332.94,257.828 345.89,257.828 z" id="boundary" inkscape:connector-curvature="0" />
	<path style="fill:none;stroke:red;stroke-width:1px;stroke-linecap:butt;stroke-linejoin:miter;stroke-opacity:1" d="M 345.89,257.828 358.841,257.828 z" id="boundary" inkscape:connector-curvature="0" />
	<path style="fill:none;stroke:red;stroke-width:1px;stroke-linecap:butt;stroke-linejoin:miter;stroke-opacity:1" d="M 294.089,264.303 281.138,268.188 z" id="boundary" inkscape:connector-curvature="0" />
	<path style="fill:none;stroke:red;stroke-width:1px;stroke-linecap:butt;stroke-linejoin:miter;stroke-opacity:1" d="M 371.791,257.828 384.742,257.828 z" id="boundary" inkscape:connector-curvature="0" />
	<path style="fill:none;stroke:red;stroke-width:1px;stroke-linecap:butt;stroke-linejoin:miter;stroke-opacity:1" d="M 371.791,257.828 358.841,257.828 z" id="boundary" inkscape:connector-curvature="0" />
	<path style="fill:none;stroke:red;stroke-width:1px;stroke-linecap:butt;stroke-linejoin:miter;stroke-opacity:1" d="M 384.742,257.828 397.692,257.828 z" id="boundary" inkscape:connector-curvature="0" />
	<path style="fill:none;stroke:red;stroke-width:1px;stroke-linecap:butt;stroke-linejoin:miter;stroke-opacity:1" d="M 410.642,257.828 423.593,257.828 z" id="boundary" inkscape:connector-curvature="0" />
	<path style="fill:none;stroke:red;stroke-width:1px;stroke-linecap:butt;stroke-linejoin:miter;stroke-opacity:1" d="M 423.593,257.828 435.248,264.303 z" id="boundary" inkscape:connector-curvature="0" />
	<path style="fill:none;stroke:red;stroke-width:1px;stroke-linecap:butt;stroke-linejoin:miter;stroke-opacity:1" d="M 410.642,257.828 397.692,257.828 z" id="boundary" inkscape:connector-curvature="0" />
	<path style="fill:none;stroke:red;stroke-width:1px;stroke-linecap:butt;stroke-linejoin:miter;stroke-opacity:1" d="M 435.248,264.303 445.608,273.368 z" id="boundary" inkscape:connector-curvature="0" />
	<path style="fill:none;stroke:red;stroke-width:1px;stroke-linecap:butt;stroke-linejoin:miter;stroke-opacity:1" d="M 270.778,290.204 270.778,277.253 z" id="boundary" inkscape:connector-curvature="0" />
	<path style="fill:none;stroke:red;stroke-width:1px;stroke-linecap:butt;stroke-linejoin:miter;stroke-opacity:1" d="M 270.778,277.253 281.138,268.188 z" id="boundary" inkscape:connector-curvature="0" />
	<path style="fill:none;stroke:red;stroke-width:1px;stroke-linecap:butt;stroke-linejoin:miter;stroke-opacity:1" d="M 253.943,334.235 240.992,329.055 z" id="boundary" inkscape:connector-curvature="0" />
	<path style="fill:none;stroke:red;stroke-width:1px;stroke-linecap:butt;stroke-linejoin:miter;stroke-opacity:1" d="M 270.778,290.204 273.368,303.154 z" id="boundary" inkscape:connector-curvature="0" />
	<path style="fill:none;stroke:red;stroke-width:1px;stroke-linecap:butt;stroke-linejoin:miter;stroke-opacity:1" d="M 264.303,342.005 253.943,334.235 z" id="boundary" inkscape:connector-curvature="0" />
	<path style="fill:none;stroke:red;stroke-width:1px;stroke-linecap:butt;stroke-linejoin:miter;stroke-opacity:1" d="M 277.253,342.005 264.303,342.005 z" id="boundary" inkscape:connector-curvature="0" />
	<path style="fill:none;stroke:red;stroke-width:1px;stroke-linecap:butt;stroke-linejoin:miter;stroke-opacity:1" d="M 283.728,327.76 277.253,342.005 z" id="boundary" inkscape:connector-curvature="0" />
	<path style="fill:none;stroke:red;stroke-width:1px;stroke-linecap:butt;stroke-linejoin:miter;stroke-opacity:1" d="M 273.368,303.154 279.843,314.809 z" id="boundary" inkscape:connector-curvature="0" />
	<path style="fill:none;stroke:red;stroke-width:1px;stroke-linecap:butt;stroke-linejoin:miter;stroke-opacity:1" d="M 445.608,273.368 454.674,283.728 z" id="boundary" inkscape:connector-curvature="0" />
	<path style="fill:none;stroke:red;stroke-width:1px;stroke-linecap:butt;stroke-linejoin:miter;stroke-opacity:1" d="M 466.329,290.204 454.674,283.728 z" id="boundary" inkscape:connector-curvature="0" />
	<path style="fill:none;stroke:red;stroke-width:1px;stroke-linecap:butt;stroke-linejoin:miter;stroke-opacity:1" d="M 283.728,327.76 279.843,314.809 z" id="boundary" inkscape:connector-curvature="0" />
	<path style="fill:none;stroke:red;stroke-width:1px;stroke-linecap:butt;stroke-linejoin:miter;stroke-opacity:1" d="M 611.373,127.029 623.029,120.554 z" id="boundary" inkscape:connector-curvature="0" />
	<path style="fill:none;stroke:red;stroke-width:1px;stroke-linecap:butt;stroke-linejoin:miter;stroke-opacity:1" d="M 623.029,120.554 634.684,127.029 z" id="boundary" inkscape:connector-curvature="0" />
	<path style="fill:none;stroke:red;stroke-width:1px;stroke-linecap:butt;stroke-linejoin:miter;stroke-opacity:1" d="M 599.718,133.504 611.373,127.029 z" id="boundary" inkscape:connector-curvature="0" />
	<path style="fill:none;stroke:red;stroke-width:1px;stroke-linecap:butt;stroke-linejoin:miter;stroke-opacity:1" d="M 634.684,127.029 645.044,136.094 z" id="boundary" inkscape:connector-curvature="0" />
	<path style="fill:none;stroke:red;stroke-width:1px;stroke-linecap:butt;stroke-linejoin:miter;stroke-opacity:1" d="M 645.044,136.094 652.815,146.454 z" id="boundary" inkscape:connector-curvature="0" />
	<path style="fill:none;stroke:red;stroke-width:1px;stroke-linecap:butt;stroke-linejoin:miter;stroke-opacity:1" d="M 793.974,120.554 805.629,114.078 z" id="boundary" inkscape:connector-curvature="0" />
	<path style="fill:none;stroke:red;stroke-width:1px;stroke-linecap:butt;stroke-linejoin:miter;stroke-opacity:1" d="M 793.974,120.554 781.023,124.439 z" id="boundary" inkscape:connector-curvature="0" />
	<path style="fill:none;stroke:red;stroke-width:1px;stroke-linecap:butt;stroke-linejoin:miter;stroke-opacity:1" d="M 817.285,107.603 805.629,114.078 z" id="boundary" inkscape:connector-curvature="0" />
	<path style="fill:none;stroke:red;stroke-width:1px;stroke-linecap:butt;stroke-linejoin:miter;stroke-opacity:1" d="M 817.285,107.603 830.235,107.603 z" id="boundary" inkscape:connector-curvature="0" />
	<path style="fill:none;stroke:red;stroke-width:1px;stroke-linecap:butt;stroke-linejoin:miter;stroke-opacity:1" d="M 781.023,124.439 769.368,133.504 z" id="boundary" inkscape:connector-curvature="0" />
	<path style="fill:none;stroke:red;stroke-width:1px;stroke-linecap:butt;stroke-linejoin:miter;stroke-opacity:1" d="M 769.368,133.504 756.418,136.094 z" id="boundary" inkscape:connector-curvature="0" />
	<path style="fill:none;stroke:red;stroke-width:1px;stroke-linecap:butt;stroke-linejoin:miter;stroke-opacity:1" d="M 487.05,139.979 500,139.979 z" id="boundary" inkscape:connector-curvature="0" />
	<path style="fill:none;stroke:red;stroke-width:1px;stroke-linecap:butt;stroke-linejoin:miter;stroke-opacity:1" d="M 500,139.979 511.655,146.454 z" id="boundary" inkscape:connector-curvature="0" />
	<path style="fill:none;stroke:red;stroke-width:1px;stroke-linecap:butt;stroke-linejoin:miter;stroke-opacity:1" d="M 524.606,146.454 511.655,146.454 z" id="boundary" inkscape:connector-curvature="0" />
	<path style="fill:none;stroke:red;stroke-width:1px;stroke-linecap:butt;stroke-linejoin:miter;stroke-opacity:1" d="M 524.606,146.454 537.556,146.454 z" id="boundary" inkscape:connector-curvature="0" />
	<path style="fill:none;stroke:red;stroke-width:1px;stroke-linecap:butt;stroke-linejoin:miter;stroke-opacity:1" d="M 537.556,146.454 550.507,146.454 z" id="boundary" inkscape:connector-curvature="0" />
	<path style="fill:none;stroke:red;stroke-width:1px;stroke-linecap:butt;stroke-linejoin:miter;stroke-opacity:1" d="M 588.063,139.979 576.407,146.454 z" id="boundary" inkscape:connector-curvature="0" />
	<path style="fill:none;stroke:red;stroke-width:1px;stroke-linecap:butt;stroke-linejoin:miter;stroke-opacity:1" d="M 576.407,146.454 563.457,146.454 z" id="boundary" inkscape:connector-curvature="0" />
	<path style="fill:none;stroke:red;stroke-width:1px;stroke-linecap:butt;stroke-linejoin:miter;stroke-opacity:1" d="M 563.457,146.454 550.507,146.454 z" id="boundary" inkscape:connector-curvature="0" />
	<path style="fill:none;stroke:red;stroke-width:1px;stroke-linecap:butt;stroke-linejoin:miter;stroke-opacity:1" d="M 588.063,139.979 599.718,133.504 z" id="boundary" inkscape:connector-curvature="0" />
	<path style="fill:none;stroke:red;stroke-width:1px;stroke-linecap:butt;stroke-linejoin:miter;stroke-opacity:1" d="M 664.47,152.93 652.815,146.454 z" id="boundary" inkscape:connector-curvature="0" />
	<path style="fill:none;stroke:red;stroke-width:1px;stroke-linecap:butt;stroke-linejoin:miter;stroke-opacity:1" d="M 733.107,146.454 746.057,146.454 z" id="boundary" inkscape:connector-curvature="0" />
	<path style="fill:none;stroke:red;stroke-width:1px;stroke-linecap:butt;stroke-linejoin:miter;stroke-opacity:1" d="M 905.347,88.1775 892.397,88.1775 z" id="boundary" inkscape:connector-curvature="0" />
	<path style="fill:none;stroke:red;stroke-width:1px;stroke-linecap:butt;stroke-linejoin:miter;stroke-opacity:1" d="M 917.003,81.7023 905.347,88.1775 z" id="boundary" inkscape:connector-curvature="0" />
	<path style="fill:none;stroke:red;stroke-width:1px;stroke-linecap:butt;stroke-linejoin:miter;stroke-opacity:1" d="M 929.953,79.1123 917.003,81.7023 z" id="boundary" inkscape:connector-curvature="0" />
	<path style="fill:none;stroke:red;stroke-width:1px;stroke-linecap:butt;stroke-linejoin:miter;stroke-opacity:1" d="M 942.903,75.2272 929.953,79.1123 z" id="boundary" inkscape:connector-curvature="0" />
	<path style="fill:none;stroke:red;stroke-width:1px;stroke-linecap:butt;stroke-linejoin:miter;stroke-opacity:1" d="M 892.397,88.1775 880.742,94.6527 z" id="boundary" inkscape:connector-curvature="0" />
	<path style="fill:none;stroke:red;stroke-width:1px;stroke-linecap:butt;stroke-linejoin:miter;stroke-opacity:1" d="M 880.742,94.6527 867.791,94.6527 z" id="boundary" inkscape:connector-curvature="0" />
	<path style="fill:none;stroke:red;stroke-width:1px;stroke-linecap:butt;stroke-linejoin:miter;stroke-opacity:1" d="M 856.136,101.128 867.791,94.6527 z" id="boundary" inkscape:connector-curvature="0" />
	<path style="fill:none;stroke:red;stroke-width:1px;stroke-linecap:butt;stroke-linejoin:miter;stroke-opacity:1" d="M 942.903,75.2272 955.854,75.2272 z" id="boundary" inkscape:connector-curvature="0" />
	<path style="fill:none;stroke:red;stroke-width:1px;stroke-linecap:butt;stroke-linejoin:miter;stroke-opacity:1" d="M 968.804,75.2272 955.854,75.2272 z" id="boundary" inkscape:connector-curvature="0" />
	<path style="fill:none;stroke:red;stroke-width:1px;stroke-linecap:butt;stroke-linejoin:miter;stroke-opacity:1" d="M 981.755,75.2272 994.705,77.8172 z" id="boundary" inkscape:connector-curvature="0" />
	<path style="fill:none;stroke:red;stroke-width:1px;stroke-linecap:butt;stroke-linejoin:miter;stroke-opacity:1" d="M 994.705,77.8172 996,90.7676 z" id="boundary" inkscape:connector-curvature="0" />
	<path style="fill:none;stroke:red;stroke-width:1px;stroke-linecap:butt;stroke-linejoin:miter;stroke-opacity:1" d="M 968.804,75.2272 981.755,75.2272 z" id="boundary" inkscape:connector-curvature="0" />
	<path style="fill:none;stroke:red;stroke-width:1px;stroke-linecap:butt;stroke-linejoin:miter;stroke-opacity:1" d="M 996,90.7676 988.23,105.013 z" id="boundary" inkscape:connector-curvature="0" />
	<path style="fill:none;stroke:red;stroke-width:1px;stroke-linecap:butt;stroke-linejoin:miter;stroke-opacity:1" d="M 830.235,107.603 843.185,101.128 z" id="boundary" inkscape:connector-curvature="0" />
	<path style="fill:none;stroke:red;stroke-width:1px;stroke-linecap:butt;stroke-linejoin:miter;stroke-opacity:1" d="M 843.185,101.128 856.136,101.128 z" id="boundary" inkscape:connector-curvature="0" />
	<path style="fill:none;stroke:red;stroke-width:1px;stroke-linecap:butt;stroke-linejoin:miter;stroke-opacity:1" d="M 888.512,147.749 900.167,141.274 z" id="boundary" inkscape:connector-curvature="0" />
	<path style="fill:none;stroke:red;stroke-width:1px;stroke-linecap:butt;stroke-linejoin:miter;stroke-opacity:1" d="M 900.167,141.274 911.822,134.799 z" id="boundary" inkscape:connector-curvature="0" />
	<path style="fill:none;stroke:red;stroke-width:1px;stroke-linecap:butt;stroke-linejoin:miter;stroke-opacity:1" d="M 975.279,111.488 962.329,115.373 z" id="boundary" inkscape:connector-curvature="0" />
	<path style="fill:none;stroke:red;stroke-width:1px;stroke-linecap:butt;stroke-linejoin:miter;stroke-opacity:1" d="M 962.329,115.373 949.379,117.963 z" id="boundary" inkscape:connector-curvature="0" />
	<path style="fill:none;stroke:red;stroke-width:1px;stroke-linecap:butt;stroke-linejoin:miter;stroke-opacity:1" d="M 975.279,111.488 988.23,105.013 z" id="boundary" inkscape:connector-curvature="0" />
	<path style="fill:none;stroke:red;stroke-width:1px;stroke-linecap:butt;stroke-linejoin:miter;stroke-opacity:1" d="M 924.773,128.324 936.428,121.849 z" id="boundary" inkscape:connector-curvature="0" />
	<path style="fill:none;stroke:red;stroke-width:1px;stroke-linecap:butt;stroke-linejoin:miter;stroke-opacity:1" d="M 936.428,121.849 949.379,117.963 z" id="boundary" inkscape:connector-curvature="0" />
	<path style="fill:none;stroke:red;stroke-width:1px;stroke-linecap:butt;stroke-linejoin:miter;stroke-opacity:1" d="M 924.773,128.324 911.822,134.799 z" id="boundary" inkscape:connector-curvature="0" />
	<path style="fill:none;stroke:red;stroke-width:1px;stroke-linecap:butt;stroke-linejoin:miter;stroke-opacity:1" d="M 888.512,147.749 875.561,152.93 z" id="boundary" inkscape:connector-curvature="0" />
	<path style="fill:none;stroke:red;stroke-width:1px;stroke-linecap:butt;stroke-linejoin:miter;stroke-opacity:1" d="M 541.441,244.877 528.491,244.877 z" id="boundary" inkscape:connector-curvature="0" />
	<path style="fill:none;stroke:red;stroke-width:1px;stroke-linecap:butt;stroke-linejoin:miter;stroke-opacity:1" d="M 516.836,251.352 528.491,244.877 z" id="boundary" inkscape:connector-curvature="0" />
	<path style="fill:none;stroke:red;stroke-width:1px;stroke-linecap:butt;stroke-linejoin:miter;stroke-opacity:1" d="M 515.54,273.368 516.836,251.352 z" id="boundary" inkscape:connector-curvature="0" />
	<path style="fill:none;stroke:red;stroke-width:1px;stroke-linecap:butt;stroke-linejoin:miter;stroke-opacity:1" d="M 646.339,244.877 633.389,244.877 z" id="boundary" inkscape:connector-curvature="0" />
	<path style="fill:none;stroke:red;stroke-width:1px;stroke-linecap:butt;stroke-linejoin:miter;stroke-opacity:1" d="M 656.7,235.812 646.339,244.877 z" id="boundary" inkscape:connector-curvature="0" />
	<path style="fill:none;stroke:red;stroke-width:1px;stroke-linecap:butt;stroke-linejoin:miter;stroke-opacity:1" d="M 624.324,255.238 633.389,244.877 z" id="boundary" inkscape:connector-curvature="0" />
	<path style="fill:none;stroke:red;stroke-width:1px;stroke-linecap:butt;stroke-linejoin:miter;stroke-opacity:1" d="M 689.076,160.7 676.125,159.405 z" id="boundary" inkscape:connector-curvature="0" />
	<path style="fill:none;stroke:red;stroke-width:1px;stroke-linecap:butt;stroke-linejoin:miter;stroke-opacity:1" d="M 676.125,159.405 664.47,152.93 z" id="boundary" inkscape:connector-curvature="0" />
	<path style="fill:none;stroke:red;stroke-width:1px;stroke-linecap:butt;stroke-linejoin:miter;stroke-opacity:1" d="M 669.65,229.337 682.601,225.452 z" id="boundary" inkscape:connector-curvature="0" />
	<path style="fill:none;stroke:red;stroke-width:1px;stroke-linecap:butt;stroke-linejoin:miter;stroke-opacity:1" d="M 695.551,225.452 682.601,225.452 z" id="boundary" inkscape:connector-curvature="0" />
	<path style="fill:none;stroke:red;stroke-width:1px;stroke-linecap:butt;stroke-linejoin:miter;stroke-opacity:1" d="M 656.7,235.812 669.65,229.337 z" id="boundary" inkscape:connector-curvature="0" />
	<path style="fill:none;stroke:red;stroke-width:1px;stroke-linecap:butt;stroke-linejoin:miter;stroke-opacity:1" d="M 689.076,160.7 702.026,165.88 z" id="boundary" inkscape:connector-curvature="0" />
	<path style="fill:none;stroke:red;stroke-width:1px;stroke-linecap:butt;stroke-linejoin:miter;stroke-opacity:1" d="M 509.065,286.319 515.54,273.368 z" id="boundary" inkscape:connector-curvature="0" />
	<path style="fill:none;stroke:red;stroke-width:1px;stroke-linecap:butt;stroke-linejoin:miter;stroke-opacity:1" d="M 502.59,299.269 509.065,286.319 z" id="boundary" inkscape:connector-curvature="0" />
	<path style="fill:none;stroke:red;stroke-width:1px;stroke-linecap:butt;stroke-linejoin:miter;stroke-opacity:1" d="M 502.59,299.269 489.64,303.154 z" id="boundary" inkscape:connector-curvature="0" />
	<path style="fill:none;stroke:red;stroke-width:1px;stroke-linecap:butt;stroke-linejoin:miter;stroke-opacity:1" d="M 489.64,303.154 479.279,294.089 z" id="boundary" inkscape:connector-curvature="0" />
	<path style="fill:none;stroke:red;stroke-width:1px;stroke-linecap:butt;stroke-linejoin:miter;stroke-opacity:1" d="M 466.329,290.204 479.279,294.089 z" id="boundary" inkscape:connector-curvature="0" />
	<path style="fill:none;stroke:red;stroke-width:1px;stroke-linecap:butt;stroke-linejoin:miter;stroke-opacity:1" d="M 553.097,251.352 564.752,257.828 z" id="boundary" inkscape:connector-curvature="0" />
	<path style="fill:none;stroke:red;stroke-width:1px;stroke-linecap:butt;stroke-linejoin:miter;stroke-opacity:1" d="M 541.441,244.877 553.097,251.352 z" id="boundary" inkscape:connector-curvature="0" />
	<path style="fill:none;stroke:red;stroke-width:1px;stroke-linecap:butt;stroke-linejoin:miter;stroke-opacity:1" d="M 577.702,257.828 564.752,257.828 z" id="boundary" inkscape:connector-curvature="0" />
	<path style="fill:none;stroke:red;stroke-width:1px;stroke-linecap:butt;stroke-linejoin:miter;stroke-opacity:1" d="M 589.358,264.303 577.702,257.828 z" id="boundary" inkscape:connector-curvature="0" />
	<path style="fill:none;stroke:red;stroke-width:1px;stroke-linecap:butt;stroke-linejoin:miter;stroke-opacity:1" d="M 613.963,264.303 601.013,270.778 z" id="boundary" inkscape:connector-curvature="0" />
	<path style="fill:none;stroke:red;stroke-width:1px;stroke-linecap:butt;stroke-linejoin:miter;stroke-opacity:1" d="M 601.013,270.778 589.358,264.303 z" id="boundary" inkscape:connector-curvature="0" />
	<path style="fill:none;stroke:red;stroke-width:1px;stroke-linecap:butt;stroke-linejoin:miter;stroke-opacity:1" d="M 624.324,255.238 613.963,264.303 z" id="boundary" inkscape:connector-curvature="0" />
	<path style="fill:none;stroke:red;stroke-width:1px;stroke-linecap:butt;stroke-linejoin:miter;stroke-opacity:1" d="M 695.551,225.452 707.206,231.927 z" id="boundary" inkscape:connector-curvature="0" />
	<path style="fill:none;stroke:red;stroke-width:1px;stroke-linecap:butt;stroke-linejoin:miter;stroke-opacity:1" d="M 702.026,165.88 713.681,159.405 z" id="boundary" inkscape:connector-curvature="0" />
	<path style="fill:none;stroke:red;stroke-width:1px;stroke-linecap:butt;stroke-linejoin:miter;stroke-opacity:1" d="M 713.681,159.405 726.632,159.405 z" id="boundary" inkscape:connector-curvature="0" />
	<path style="fill:none;stroke:red;stroke-width:1px;stroke-linecap:butt;stroke-linejoin:miter;stroke-opacity:1" d="M 786.204,209.911 795.269,199.551 z" id="boundary" inkscape:connector-curvature="0" />
	<path style="fill:none;stroke:red;stroke-width:1px;stroke-linecap:butt;stroke-linejoin:miter;stroke-opacity:1" d="M 795.269,199.551 806.924,193.076 z" id="boundary" inkscape:connector-curvature="0" />
	<path style="fill:none;stroke:red;stroke-width:1px;stroke-linecap:butt;stroke-linejoin:miter;stroke-opacity:1" d="M 786.204,209.911 775.843,218.977 z" id="boundary" inkscape:connector-curvature="0" />
	<path style="fill:none;stroke:red;stroke-width:1px;stroke-linecap:butt;stroke-linejoin:miter;stroke-opacity:1" d="M 865.201,160.7 853.546,167.175 z" id="boundary" inkscape:connector-curvature="0" />
	<path style="fill:none;stroke:red;stroke-width:1px;stroke-linecap:butt;stroke-linejoin:miter;stroke-opacity:1" d="M 841.89,173.65 830.235,180.125 z" id="boundary" inkscape:connector-curvature="0" />
	<path style="fill:none;stroke:red;stroke-width:1px;stroke-linecap:butt;stroke-linejoin:miter;stroke-opacity:1" d="M 865.201,160.7 875.561,152.93 z" id="boundary" inkscape:connector-curvature="0" />
	<path style="fill:none;stroke:red;stroke-width:1px;stroke-linecap:butt;stroke-linejoin:miter;stroke-opacity:1" d="M 841.89,173.65 853.546,167.175 z" id="boundary" inkscape:connector-curvature="0" />
	<path style="fill:none;stroke:red;stroke-width:1px;stroke-linecap:butt;stroke-linejoin:miter;stroke-opacity:1" d="M 817.285,185.305 806.924,193.076 z" id="boundary" inkscape:connector-curvature="0" />
	<path style="fill:none;stroke:red;stroke-width:1px;stroke-linecap:butt;stroke-linejoin:miter;stroke-opacity:1" d="M 830.235,180.125 817.285,185.305 z" id="boundary" inkscape:connector-curvature="0" />
	<path style="fill:none;stroke:red;stroke-width:1px;stroke-linecap:butt;stroke-linejoin:miter;stroke-opacity:1" d="M 742.172,251.352 729.222,247.467 z" id="boundary" inkscape:connector-curvature="0" />
	<path style="fill:none;stroke:red;stroke-width:1px;stroke-linecap:butt;stroke-linejoin:miter;stroke-opacity:1" d="M 729.222,247.467 717.567,240.992 z" id="boundary" inkscape:connector-curvature="0" />
	<path style="fill:none;stroke:red;stroke-width:1px;stroke-linecap:butt;stroke-linejoin:miter;stroke-opacity:1" d="M 707.206,231.927 717.567,240.992 z" id="boundary" inkscape:connector-curvature="0" />
	<path style="fill:none;stroke:red;stroke-width:1px;stroke-linecap:butt;stroke-linejoin:miter;stroke-opacity:1" d="M 742.172,251.352 753.828,257.828 z" id="boundary" inkscape:connector-curvature="0" />
	<path style="fill:none;stroke:red;stroke-width:1px;stroke-linecap:butt;stroke-linejoin:miter;stroke-opacity:1" d="M 765.483,264.303 753.828,257.828 z" id="boundary" inkscape:connector-curvature="0" />
	<path style="fill:none;stroke:red;stroke-width:1px;stroke-linecap:butt;stroke-linejoin:miter;stroke-opacity:1" d="M 778.433,231.927 775.843,218.977 z" id="boundary" inkscape:connector-curvature="0" />
	<path style="fill:none;stroke:red;stroke-width:1px;stroke-linecap:butt;stroke-linejoin:miter;stroke-opacity:1" d="M 784.909,243.582 778.433,231.927 z" id="boundary" inkscape:connector-curvature="0" />
	<path style="fill:none;stroke:red;stroke-width:1px;stroke-linecap:butt;stroke-linejoin:miter;stroke-opacity:1" d="M 778.433,269.483 765.483,264.303 z" id="boundary" inkscape:connector-curvature="0" />
	<path style="fill:none;stroke:red;stroke-width:1px;stroke-linecap:butt;stroke-linejoin:miter;stroke-opacity:1" d="M 793.974,253.943 791.384,270.778 z" id="boundary" inkscape:connector-curvature="0" />
	<path style="fill:none;stroke:red;stroke-width:1px;stroke-linecap:butt;stroke-linejoin:miter;stroke-opacity:1" d="M 791.384,270.778 778.433,269.483 z" id="boundary" inkscape:connector-curvature="0" />
	<path style="fill:none;stroke:red;stroke-width:1px;stroke-linecap:butt;stroke-linejoin:miter;stroke-opacity:1" d="M 784.909,243.582 793.974,253.943 z" id="boundary" inkscape:connector-curvature="0" />
	<circle cx="4" cy="215.091" r="4" fill="#0" id="circle0"/>
	<circle cx="4" cy="228.042" r="4" fill="#0" id="circle1"/>
	<circle cx="14.3603" cy="204.731" r="4" fill="#0" id="circle2"/>
	<circle cx="16.9504" cy="231.927" r="4" fill="#0" id="circle3"/>
	<circle cx="27.3107" cy="204.731" r="4" fill="#0" id="circle4"/>
	<circle cx="29.9008" cy="231.927" r="4" fill="#0" id="circle5"/>
	<circle cx="37.671" cy="194.371" r="4" fill="#0" id="circle6"/>
	<circle cx="41.5561" cy="238.402" r="4" fill="#0" id="circle7"/>
	<circle cx="50.6214" cy="191.781" r="4" fill="#0" id="circle8"/>
	<circle cx="53.2115" cy="244.877" r="4" fill="#0" id="circle9"/>
	<circle cx="62.2768" cy="185.305" r="4" fill="#0" id="circle10"/>
	<circle cx="66.1619" cy="244.877" r="4" fill="#0" id="circle11"/>
	<circle cx="73.9321" cy="178.83" r="4" fill="#0" id="circle12"/>
	<circle cx="77.8172" cy="251.352" r="4" fill="#0" id="circle13"/>
	<circle cx="86.8825" cy="178.83" r="4" fill="#0" id="circle14"/>
	<circle cx="89.4726" cy="257.828" r="4" fill="#0" id="circle15"/>
	<circle cx="98.5379" cy="172.355" r="4" fill="#0" id="circle16"/>
	<circle cx="102.423" cy="257.828" r="4" fill="#0" id="circle17"/>
	<circle cx="110.193" cy="165.88" r="4" fill="#0" id="circle18"/>
	<circle cx="115.373" cy="257.828" r="4" fill="#0" id="circle19"/>
	<circle cx="121.849" cy="159.405" r="4" fill="#0" id="circle20"/>
	<circle cx="128.324" cy="257.828" r="4" fill="#0" id="circle21"/>
	<circle cx="134.799" cy="155.52" r="4" fill="#0" id="circle22"/>
	<circle cx="141.274" cy="257.828" r="4" fill="#0" id="circle23"/>
	<circle cx="147.749" cy="149.044" r="4" fill="#0" id="circle24"/>
	<circle cx="154.225" cy="257.828" r="4" fill="#0" id="circle25"/>
	<circle cx="160.7" cy="146.454" r="4" fill="#0" id="circle26"/>
	<circle cx="167.175" cy="257.828" r="4" fill="#0" id="circle27"/>
	<circle cx="173.65" cy="142.569" r="4" fill="#0" id="circle28"/>
	<circle cx="180.125" cy="260.418" r="4" fill="#0" id="circle29"/>
	<circle cx="186.601" cy="136.094" r="4" fill="#0" id="circle30"/>
	<circle cx="191.781" cy="266.893" r="4" fill="#0" id="circle31"/>
	<circle cx="199.551" cy="133.504" r="4" fill="#0" id="circle32"/>
	<circle cx="202.141" cy="275.958" r="4" fill="#0" id="circle33"/>
	<circle cx="207.321" cy="288.909" r="4" fill="#0" id="circle34"/>
	<circle cx="212.501" cy="133.504" r="4" fill="#0" id="circle35"/>
	<circle cx="213.796" cy="300.564" r="4" fill="#0" id="circle36"/>
	<circle cx="224.157" cy="308.334" r="4" fill="#0" id="circle37"/>
	<circle cx="225.452" cy="129.619" r="4" fill="#0" id="circle38"/>
	<circle cx="231.927" cy="318.695" r="4" fill="#0" id="circle39"/>
	<circle cx="238.402" cy="127.029" r="4" fill="#0" id="circle40"/>
	<circle cx="240.992" cy="329.055" r="4" fill="#0" id="circle41"/>
	<circle cx="250.057" cy="120.554" r="4" fill="#0" id="circle42"/>
	<circle cx="253.943" cy="334.235" r="4" fill="#0" id="circle43"/>
	<circle cx="263.008" cy="117.963" r="4" fill="#0" id="circle44"/>
	<circle cx="264.303" cy="342.005" r="4" fill="#0" id="circle45"/>
	<circle cx="269.483" cy="105.013" r="4" fill="#0" id="circle46"/>
	<circle cx="270.778" cy="277.253" r="4" fill="#0" id="circle47"/>
	<circle cx="270.778" cy="290.204" r="4" fill="#0" id="circle48"/>
	<circle cx="273.368" cy="303.154" r="4" fill="#0" id="circle49"/>
	<circle cx="277.253" cy="342.005" r="4" fill="#0" id="circle50"/>
	<circle cx="279.843" cy="94.6527" r="4" fill="#0" id="circle51"/>
	<circle cx="279.843" cy="314.809" r="4" fill="#0" id="circle52"/>
	<circle cx="281.138" cy="268.188" r="4" fill="#0" id="circle53"/>
	<circle cx="282.433" cy="79.1123" r="4" fill="#0" id="circle54"/>
	<circle cx="283.728" cy="327.76" r="4" fill="#0" id="circle55"/>
	<circle cx="292.794" cy="68.752" r="4" fill="#0" id="circle56"/>
	<circle cx="294.089" cy="264.303" r="4" fill="#0" id="circle57"/>
	<circle cx="295.384" cy="53.2115" r="4" fill="#0" id="circle58"/>
	<circle cx="307.039" cy="261.713" r="4" fill="#0" id="circle59"/>
	<circle cx="308.334" cy="40.2611" r="4" fill="#0" id="circle60"/>
	<circle cx="314.809" cy="27.3107" r="4" fill="#0" id="circle61"/>
	<circle cx="319.99" cy="257.828" r="4" fill="#0" id="circle62"/>
	<circle cx="325.17" cy="16.9504" r="4" fill="#0" id="circle63"/>
	<circle cx="332.94" cy="257.828" r="4" fill="#0" id="circle64"/>
	<circle cx="335.53" cy="6.59008" r="4" fill="#0" id="circle65"/>
	<circle cx="345.89" cy="257.828" r="4" fill="#0" id="circle66"/>
	<circle cx="348.48" cy="4" r="4" fill="#0" id="circle67"/>
	<circle cx="354.956" cy="15.6554" r="4" fill="#0" id="circle68"/>
	<circle cx="354.956" cy="28.6057" r="4" fill="#0" id="circle69"/>
	<circle cx="354.956" cy="41.5561" r="4" fill="#0" id="circle70"/>
	<circle cx="354.956" cy="54.5065" r="4" fill="#0" id="circle71"/>
	<circle cx="354.956" cy="67.4569" r="4" fill="#0" id="circle72"/>
	<circle cx="358.841" cy="257.828" r="4" fill="#0" id="circle73"/>
	<circle cx="361.431" cy="79.1123" r="4" fill="#0" id="circle74"/>
	<circle cx="361.431" cy="92.0627" r="4" fill="#0" id="circle75"/>
	<circle cx="367.906" cy="103.718" r="4" fill="#0" id="circle76"/>
	<circle cx="371.791" cy="257.828" r="4" fill="#0" id="circle77"/>
	<circle cx="379.561" cy="110.193" r="4" fill="#0" id="circle78"/>
	<circle cx="384.742" cy="257.828" r="4" fill="#0" id="circle79"/>
	<circle cx="387.332" cy="120.554" r="4" fill="#0" id="circle80"/>
	<circle cx="397.692" cy="257.828" r="4" fill="#0" id="circle81"/>
	<circle cx="398.987" cy="127.029" r="4" fill="#0" id="circle82"/>
	<circle cx="410.642" cy="133.504" r="4" fill="#0" id="circle83"/>
	<circle cx="410.642" cy="257.828" r="4" fill="#0" id="circle84"/>
	<circle cx="423.593" cy="133.504" r="4" fill="#0" id="circle85"/>
	<circle cx="423.593" cy="257.828" r="4" fill="#0" id="circle86"/>
	<circle cx="435.248" cy="264.303" r="4" fill="#0" id="circle87"/>
	<circle cx="436.543" cy="133.504" r="4" fill="#0" id="circle88"/>
	<circle cx="445.608" cy="273.368" r="4" fill="#0" id="circle89"/>
	<circle cx="449.493" cy="133.504" r="4" fill="#0" id="circle90"/>
	<circle cx="454.674" cy="283.728" r="4" fill="#0" id="circle91"/>
	<circle cx="462.444" cy="133.504" r="4" fill="#0" id="circle92"/>
	<circle cx="466.329" cy="290.204" r="4" fill="#0" id="circle93"/>
	<circle cx="474.099" cy="139.979" r="4" fill="#0" id="circle94"/>
	<circle cx="479.279" cy="294.089" r="4" fill="#0" id="circle95"/>
	<circle cx="487.05" cy="139.979" r="4" fill="#0" id="circle96"/>
	<circle cx="489.64" cy="303.154" r="4" fill="#0" id="circle97"/>
	<circle cx="500" cy="139.979" r="4" fill="#0" id="circle98"/>
	<circle cx="502.59" cy="299.269" r="4" fill="#0" id="circle99"/>
	<circle cx="509.065" cy="286.319" r="4" fill="#0" id="circle100"/>
	<circle cx="511.655" cy="146.454" r="4" fill="#0" id="circle101"/>
	<circle cx="515.54" cy="273.368" r="4" fill="#0" id="circle102"/>
	<circle cx="516.836" cy="251.352" r="4" fill="#0" id="circle103"/>
	<circle cx="524.606" cy="146.454" r="4" fill="#0" id="circle104"/>
	<circle cx="528.491" cy="244.877" r="4" fill="#0" id="circle105"/>
	<circle cx="537.556" cy="146.454" r="4" fill="#0" id="circle106"/>
	<circle cx="541.441" cy="244.877" r="4" fill="#0" id="circle107"/>
	<circle cx="550.507" cy="146.454" r="4" fill="#0" id="circle108"/>
	<circle cx="553.097" cy="251.352" r="4" fill="#0" id="circle109"/>
	<circle cx="563.457" cy="146.454" r="4" fill="#0" id="circle110"/>
	<circle cx="564.752" cy="257.828" r="4" fill="#0" id="circle111"/>
	<circle cx="576.407" cy="146.454" r="4" fill="#0" id="circle112"/>
	<circle cx="577.702" cy="257.828" r="4" fill="#0" id="circle113"/>
	<circle cx="588.063" cy="139.979" r="4" fill="#0" id="circle114"/>
	<circle cx="589.358" cy="264.303" r="4" fill="#0" id="circle115"/>
	<circle cx="599.718" cy="133.504" r="4" fill="#0" id="circle116"/>
	<circle cx="601.013" cy="270.778" r="4" fill="#0" id="circle117"/>
	<circle cx="611.373" cy="127.029" r="4" fill="#0" id="circle118"/>
	<circle cx="613.963" cy="264.303" r="4" fill="#0" id="circle119"/>
	<circle cx="623.029" cy="120.554" r="4" fill="#0" id="circle120"/>
	<circle cx="624.324" cy="255.238" r="4" fill="#0" id="circle121"/>
	<circle cx="633.389" cy="244.877" r="4" fill="#0" id="circle122"/>
	<circle cx="634.684" cy="127.029" r="4" fill="#0" id="circle123"/>
	<circle cx="645.044" cy="136.094" r="4" fill="#0" id="circle124"/>
	<circle cx="646.339" cy="244.877" r="4" fill="#0" id="circle125"/>
	<circle cx="652.815" cy="146.454" r="4" fill="#0" id="circle126"/>
	<circle cx="656.7" cy="235.812" r="4" fill="#0" id="circle127"/>
	<circle cx="664.47" cy="152.93" r="4" fill="#0" id="circle128"/>
	<circle cx="669.65" cy="229.337" r="4" fill="#0" id="circle129"/>
	<circle cx="676.125" cy="159.405" r="4" fill="#0" id="circle130"/>
	<circle cx="682.601" cy="225.452" r="4" fill="#0" id="circle131"/>
	<circle cx="689.076" cy="160.7" r="4" fill="#0" id="circle132"/>
	<circle cx="695.551" cy="225.452" r="4" fill="#0" id="circle133"/>
	<circle cx="702.026" cy="165.88" r="4" fill="#0" id="circle134"/>
	<circle cx="707.206" cy="231.927" r="4" fill="#0" id="circle135"/>
	<circle cx="713.681" cy="159.405" r="4" fill="#0" id="circle136"/>
	<circle cx="717.567" cy="240.992" r="4" fill="#0" id="circle137"/>
	<circle cx="726.632" cy="159.405" r="4" fill="#0" id="circle138"/>
	<circle cx="729.222" cy="247.467" r="4" fill="#0" id="circle139"/>
	<circle cx="733.107" cy="146.454" r="4" fill="#0" id="circle140"/>
	<circle cx="742.172" cy="251.352" r="4" fill="#0" id="circle141"/>
	<circle cx="746.057" cy="146.454" r="4" fill="#0" id="circle142"/>
	<circle cx="753.828" cy="257.828" r="4" fill="#0" id="circle143"/>
	<circle cx="756.418" cy="136.094" r="4" fill="#0" id="circle144"/>
	<circle cx="765.483" cy="264.303" r="4" fill="#0" id="circle145"/>
	<circle cx="769.368" cy="133.504" r="4" fill="#0" id="circle146"/>
	<circle cx="775.843" cy="218.977" r="4" fill="#0" id="circle147"/>
	<circle cx="778.433" cy="231.927" r="4" fill="#0" id="circle148"/>
	<circle cx="778.433" cy="269.483" r="4" fill="#0" id="circle149"/>
	<circle cx="781.023" cy="124.439" r="4" fill="#0" id="circle150"/>
	<circle cx="784.909" cy="243.582" r="4" fill="#0" id="circle151"/>
	<circle cx="786.204" cy="209.911" r="4" fill="#0" id="circle152"/>
	<circle cx="791.384" cy="270.778" r="4" fill="#0" id="circle153"/>
	<circle cx="793.974" cy="120.554" r="4" fill="#0" id="circle154"/>
	<circle cx="793.974" cy="253.943" r="4" fill="#0" id="circle155"/>
	<circle cx="795.269" cy="199.551" r="4" fill="#0" id="circle156"/>
	<circle cx="805.629" cy="114.078" r="4" fill="#0" id="circle157"/>
	<circle cx="806.924" cy="193.076" r="4" fill="#0" id="circle158"/>
	<circle cx="817.285" cy="107.603" r="4" fill="#0" id="circle159"/>
	<circle cx="817.285" cy="185.305" r="4" fill="#0" id="circle160"/>
	<circle cx="830.235" cy="107.603" r="4" fill="#0" id="circle161"/>
	<circle cx="830.235" cy="180.125" r="4" fill="#0" id="circle162"/>
	<circle cx="841.89" cy="173.65" r="4" fill="#0" id="circle163"/>
	<circle cx="843.185" cy="101.128" r="4" fill="#0" id="circle164"/>
	<circle cx="853.546" cy="167.175" r="4" fill="#0" id="circle165"/>
	<circle cx="856.136" cy="101.128" r="4" fill="#0" id="circle166"/>
	<circle cx="865.201" cy="160.7" r="4" fill="#0" id="circle167"/>
	<circle cx="867.791" cy="94.6527" r="4" fill="#0" id="circle168"/>
	<circle cx="875.561" cy="152.93" r="4" fill="#0" id="circle169"/>
	<circle cx="880.742" cy="94.6527" r="4" fill="#0" id="circle170"/>
	<circle cx="888.512" cy="147.749" r="4" fill="#0" id="circle171"/>
	<circle cx="892.397" cy="88.1775" r="4" fill="#0" id="circle172"/>
	<circle cx="900.167" cy="141.274" r="4" fill="#0" id="circle173"/>
	<circle cx="905.347" cy="88.1775" r="4" fill="#0" id="circle174"/>
	<circle cx="911.822" cy="134.799" r="4" fill="#0" id="circle175"/>
	<circle cx="917.003" cy="81.7023" r="4" fill="#0" id="circle176"/>
	<circle cx="924.773" cy="128.324" r="4" fill="#0" id="circle177"/>
	<circle cx="929.953" cy="79.1123" r="4" fill="#0" id="circle178"/>
	<circle cx="936.428" cy="121.849" r="4" fill="#0" id="circle179"/>
	<circle cx="942.903" cy="75.2272" r="4" fill="#0" id="circle180"/>
	<circle cx="949.379" cy="117.963" r="4" fill="#0" id="circle181"/>
	<circle cx="955.854" cy="75.2272" r="4" fill="#0" id="circle182"/>
	<circle cx="962.329" cy="115.373" r="4" fill="#0" id="circle183"/>
	<circle cx="968.804" cy="75.2272" r="4" fill="#0" id="circle184"/>
	<circle cx="975.279" cy="111.488" r="4" fill="#0" id="circle185"/>
	<circle cx="981.755" cy="75.2272" r="4" fill="#0" id="circle186"/>
	<circle cx="988.23" cy="105.013" r="4" fill="#0" id="circle187"/>
	<circle cx="994.705" cy="77.8172" r="4" fill="#0" id="circle188"/>
	<circle cx="996" cy="90.7676" r="4" fill="#0" id="circle189"/>
	</g>
</svg>