<?xml version="1.0" encoding="UTF-8" standalone="no"?>
<!-- Created with CurveBenchmark -->
<svg
	xmlns:dc="http://purl.org/dc/elements/1.1/"
	xmlns:cc="http://creativecommons.org/ns#"
	xmlns:rdf="http://www.w3.org/1999/02/22-rdf-syntax-ns#"
	xmlns:svg="http://www.w3.org/2000/svg"
	xmlns="http://www.w3.org/2000/svg"
	xmlns:sodipodi="http://sodipodi.sourceforge.net/DTD/sodipodi-0.dtd"
	xmlns:inkscape="http://www.inkscape.org/namespaces/inkscape"
	width="1000"
	height="1000"
	id="svg2"
	version="1.1"
	sodipodi:docname="manifold/gathan1-dino14.png.txt">
<defs
	id="defs4" />
<metadata
	id="metadata7">
	<rdf:RDF>
		<cc:Work
			rdf:about="">
			<dc:format>image/svg+xml</dc:format>
			<dc:type
				rdf:resource="http://purl.org/dc/dcmitype/StillImage" />
			<dc:title></dc:title>
		</cc:Work>
	</rdf:RDF>
</metadata>
<g
	inkscape:label="Layer 1"
	inkscape:groupmode="layer"
	id="layer1">
	<path style="fill:none;stroke:red;stroke-width:1px;stroke-linecap:butt;stroke-linejoin:miter;stroke-opacity:1" d="M 4,90.6473 4,79.5386 z" id="boundary" inkscape:connector-curvature="0" />
	<path style="fill:none;stroke:red;stroke-width:1px;stroke-linecap:butt;stroke-linejoin:miter;stroke-opacity:1" d="M 4,79.5386 12.8869,70.6517 z" id="boundary" inkscape:connector-curvature="0" />
	<path style="fill:none;stroke:red;stroke-width:1px;stroke-linecap:butt;stroke-linejoin:miter;stroke-opacity:1" d="M 31.7716,57.3214 22.8847,65.0974 z" id="boundary" inkscape:connector-curvature="0" />
	<path style="fill:none;stroke:red;stroke-width:1px;stroke-linecap:butt;stroke-linejoin:miter;stroke-opacity:1" d="M 22.8847,65.0974 12.8869,70.6517 z" id="boundary" inkscape:connector-curvature="0" />
	<path style="fill:none;stroke:red;stroke-width:1px;stroke-linecap:butt;stroke-linejoin:miter;stroke-opacity:1" d="M 42.8802,46.2128 31.7716,57.3214 z" id="boundary" inkscape:connector-curvature="0" />
	<path style="fill:none;stroke:red;stroke-width:1px;stroke-linecap:butt;stroke-linejoin:miter;stroke-opacity:1" d="M 48.4345,35.1041 42.8802,46.2128 z" id="boundary" inkscape:connector-curvature="0" />
	<path style="fill:none;stroke:red;stroke-width:1px;stroke-linecap:butt;stroke-linejoin:miter;stroke-opacity:1" d="M 4,101.756 4,90.6473 z" id="boundary" inkscape:connector-curvature="0" />
	<path style="fill:none;stroke:red;stroke-width:1px;stroke-linecap:butt;stroke-linejoin:miter;stroke-opacity:1" d="M 4,123.973 4,112.865 z" id="boundary" inkscape:connector-curvature="0" />
	<path style="fill:none;stroke:red;stroke-width:1px;stroke-linecap:butt;stroke-linejoin:miter;stroke-opacity:1" d="M 4,112.865 4,101.756 z" id="boundary" inkscape:connector-curvature="0" />
	<path style="fill:none;stroke:red;stroke-width:1px;stroke-linecap:butt;stroke-linejoin:miter;stroke-opacity:1" d="M 33.9933,132.86 23.9955,138.414 z" id="boundary" inkscape:connector-curvature="0" />
	<path style="fill:none;stroke:red;stroke-width:1px;stroke-linecap:butt;stroke-linejoin:miter;stroke-opacity:1" d="M 53.9888,23.9955 59.5431,12.8869 z" id="boundary" inkscape:connector-curvature="0" />
	<path style="fill:none;stroke:red;stroke-width:1px;stroke-linecap:butt;stroke-linejoin:miter;stroke-opacity:1" d="M 59.5431,12.8869 70.6517,9.55431 z" id="boundary" inkscape:connector-curvature="0" />
	<path style="fill:none;stroke:red;stroke-width:1px;stroke-linecap:butt;stroke-linejoin:miter;stroke-opacity:1" d="M 70.6517,9.55431 81.7604,9.55431 z" id="boundary" inkscape:connector-curvature="0" />
	<path style="fill:none;stroke:red;stroke-width:1px;stroke-linecap:butt;stroke-linejoin:miter;stroke-opacity:1" d="M 81.7604,9.55431 91.7581,15.1086 z" id="boundary" inkscape:connector-curvature="0" />
	<path style="fill:none;stroke:red;stroke-width:1px;stroke-linecap:butt;stroke-linejoin:miter;stroke-opacity:1" d="M 48.4345,35.1041 53.9888,23.9955 z" id="boundary" inkscape:connector-curvature="0" />
	<path style="fill:none;stroke:red;stroke-width:1px;stroke-linecap:butt;stroke-linejoin:miter;stroke-opacity:1" d="M 55.0997,127.306 45.1019,132.86 z" id="boundary" inkscape:connector-curvature="0" />
	<path style="fill:none;stroke:red;stroke-width:1px;stroke-linecap:butt;stroke-linejoin:miter;stroke-opacity:1" d="M 45.1019,132.86 33.9933,132.86 z" id="boundary" inkscape:connector-curvature="0" />
	<path style="fill:none;stroke:red;stroke-width:1px;stroke-linecap:butt;stroke-linejoin:miter;stroke-opacity:1" d="M 55.0997,127.306 65.0974,121.751 z" id="boundary" inkscape:connector-curvature="0" />
	<path style="fill:none;stroke:red;stroke-width:1px;stroke-linecap:butt;stroke-linejoin:miter;stroke-opacity:1" d="M 65.0974,121.751 67.3191,132.86 z" id="boundary" inkscape:connector-curvature="0" />
	<path style="fill:none;stroke:red;stroke-width:1px;stroke-linecap:butt;stroke-linejoin:miter;stroke-opacity:1" d="M 107.31,187.292 96.2016,188.403 z" id="boundary" inkscape:connector-curvature="0" />
	<path style="fill:none;stroke:red;stroke-width:1px;stroke-linecap:butt;stroke-linejoin:miter;stroke-opacity:1" d="M 67.3191,132.86 57.3214,138.414 z" id="boundary" inkscape:connector-curvature="0" />
	<path style="fill:none;stroke:red;stroke-width:1px;stroke-linecap:butt;stroke-linejoin:miter;stroke-opacity:1" d="M 4,135.082 12.8869,142.858 z" id="boundary" inkscape:connector-curvature="0" />
	<path style="fill:none;stroke:red;stroke-width:1px;stroke-linecap:butt;stroke-linejoin:miter;stroke-opacity:1" d="M 23.9955,138.414 12.8869,142.858 z" id="boundary" inkscape:connector-curvature="0" />
	<path style="fill:none;stroke:red;stroke-width:1px;stroke-linecap:butt;stroke-linejoin:miter;stroke-opacity:1" d="M 39.5476,153.966 29.5498,159.521 z" id="boundary" inkscape:connector-curvature="0" />
	<path style="fill:none;stroke:red;stroke-width:1px;stroke-linecap:butt;stroke-linejoin:miter;stroke-opacity:1" d="M 4,135.082 4,123.973 z" id="boundary" inkscape:connector-curvature="0" />
	<path style="fill:none;stroke:red;stroke-width:1px;stroke-linecap:butt;stroke-linejoin:miter;stroke-opacity:1" d="M 29.5498,159.521 20.6629,168.408 z" id="boundary" inkscape:connector-curvature="0" />
	<path style="fill:none;stroke:red;stroke-width:1px;stroke-linecap:butt;stroke-linejoin:miter;stroke-opacity:1" d="M 20.6629,168.408 26.2172,178.405 z" id="boundary" inkscape:connector-curvature="0" />
	<path style="fill:none;stroke:red;stroke-width:1px;stroke-linecap:butt;stroke-linejoin:miter;stroke-opacity:1" d="M 40.6585,265.053 29.5498,265.053 z" id="boundary" inkscape:connector-curvature="0" />
	<path style="fill:none;stroke:red;stroke-width:1px;stroke-linecap:butt;stroke-linejoin:miter;stroke-opacity:1" d="M 26.2172,178.405 33.9933,187.292 z" id="boundary" inkscape:connector-curvature="0" />
	<path style="fill:none;stroke:red;stroke-width:1px;stroke-linecap:butt;stroke-linejoin:miter;stroke-opacity:1" d="M 33.9933,187.292 42.8802,193.957 z" id="boundary" inkscape:connector-curvature="0" />
	<path style="fill:none;stroke:red;stroke-width:1px;stroke-linecap:butt;stroke-linejoin:miter;stroke-opacity:1" d="M 29.5498,265.053 20.6629,273.94 z" id="boundary" inkscape:connector-curvature="0" />
	<path style="fill:none;stroke:red;stroke-width:1px;stroke-linecap:butt;stroke-linejoin:miter;stroke-opacity:1" d="M 39.5476,153.966 48.4345,146.19 z" id="boundary" inkscape:connector-curvature="0" />
	<path style="fill:none;stroke:red;stroke-width:1px;stroke-linecap:butt;stroke-linejoin:miter;stroke-opacity:1" d="M 96.2016,188.403 86.2038,193.957 z" id="boundary" inkscape:connector-curvature="0" />
	<path style="fill:none;stroke:red;stroke-width:1px;stroke-linecap:butt;stroke-linejoin:miter;stroke-opacity:1" d="M 75.0952,197.29 86.2038,193.957 z" id="boundary" inkscape:connector-curvature="0" />
	<path style="fill:none;stroke:red;stroke-width:1px;stroke-linecap:butt;stroke-linejoin:miter;stroke-opacity:1" d="M 48.4345,146.19 57.3214,138.414 z" id="boundary" inkscape:connector-curvature="0" />
	<path style="fill:none;stroke:red;stroke-width:1px;stroke-linecap:butt;stroke-linejoin:miter;stroke-opacity:1" d="M 62.8757,265.053 51.7671,265.053 z" id="boundary" inkscape:connector-curvature="0" />
	<path style="fill:none;stroke:red;stroke-width:1px;stroke-linecap:butt;stroke-linejoin:miter;stroke-opacity:1" d="M 51.7671,265.053 40.6585,265.053 z" id="boundary" inkscape:connector-curvature="0" />
	<path style="fill:none;stroke:red;stroke-width:1px;stroke-linecap:butt;stroke-linejoin:miter;stroke-opacity:1" d="M 52.8779,199.512 63.9866,199.512 z" id="boundary" inkscape:connector-curvature="0" />
	<path style="fill:none;stroke:red;stroke-width:1px;stroke-linecap:butt;stroke-linejoin:miter;stroke-opacity:1" d="M 52.8779,199.512 42.8802,193.957 z" id="boundary" inkscape:connector-curvature="0" />
	<path style="fill:none;stroke:red;stroke-width:1px;stroke-linecap:butt;stroke-linejoin:miter;stroke-opacity:1" d="M 63.9866,199.512 75.0952,197.29 z" id="boundary" inkscape:connector-curvature="0" />
	<path style="fill:none;stroke:red;stroke-width:1px;stroke-linecap:butt;stroke-linejoin:miter;stroke-opacity:1" d="M 62.8757,265.053 72.8735,270.607 z" id="boundary" inkscape:connector-curvature="0" />
	<path style="fill:none;stroke:red;stroke-width:1px;stroke-linecap:butt;stroke-linejoin:miter;stroke-opacity:1" d="M 91.7581,15.1086 102.867,15.1086 z" id="boundary" inkscape:connector-curvature="0" />
	<path style="fill:none;stroke:red;stroke-width:1px;stroke-linecap:butt;stroke-linejoin:miter;stroke-opacity:1" d="M 112.865,9.55431 123.973,9.55431 z" id="boundary" inkscape:connector-curvature="0" />
	<path style="fill:none;stroke:red;stroke-width:1px;stroke-linecap:butt;stroke-linejoin:miter;stroke-opacity:1" d="M 102.867,15.1086 112.865,9.55431 z" id="boundary" inkscape:connector-curvature="0" />
	<path style="fill:none;stroke:red;stroke-width:1px;stroke-linecap:butt;stroke-linejoin:miter;stroke-opacity:1" d="M 135.082,4 123.973,9.55431 z" id="boundary" inkscape:connector-curvature="0" />
	<path style="fill:none;stroke:red;stroke-width:1px;stroke-linecap:butt;stroke-linejoin:miter;stroke-opacity:1" d="M 135.082,4 146.19,4 z" id="boundary" inkscape:connector-curvature="0" />
	<path style="fill:none;stroke:red;stroke-width:1px;stroke-linecap:butt;stroke-linejoin:miter;stroke-opacity:1" d="M 146.19,4 157.299,4 z" id="boundary" inkscape:connector-curvature="0" />
	<path style="fill:none;stroke:red;stroke-width:1px;stroke-linecap:butt;stroke-linejoin:miter;stroke-opacity:1" d="M 157.299,4 167.297,9.55431 z" id="boundary" inkscape:connector-curvature="0" />
	<path style="fill:none;stroke:red;stroke-width:1px;stroke-linecap:butt;stroke-linejoin:miter;stroke-opacity:1" d="M 197.29,22.8847 187.292,17.3303 z" id="boundary" inkscape:connector-curvature="0" />
	<path style="fill:none;stroke:red;stroke-width:1px;stroke-linecap:butt;stroke-linejoin:miter;stroke-opacity:1" d="M 187.292,17.3303 178.405,9.55431 z" id="boundary" inkscape:connector-curvature="0" />
	<path style="fill:none;stroke:red;stroke-width:1px;stroke-linecap:butt;stroke-linejoin:miter;stroke-opacity:1" d="M 167.297,9.55431 178.405,9.55431 z" id="boundary" inkscape:connector-curvature="0" />
	<path style="fill:none;stroke:red;stroke-width:1px;stroke-linecap:butt;stroke-linejoin:miter;stroke-opacity:1" d="M 197.29,22.8847 205.066,31.7716 z" id="boundary" inkscape:connector-curvature="0" />
	<path style="fill:none;stroke:red;stroke-width:1px;stroke-linecap:butt;stroke-linejoin:miter;stroke-opacity:1" d="M 210.62,41.7693 205.066,31.7716 z" id="boundary" inkscape:connector-curvature="0" />
	<path style="fill:none;stroke:red;stroke-width:1px;stroke-linecap:butt;stroke-linejoin:miter;stroke-opacity:1" d="M 219.507,49.5454 210.62,41.7693 z" id="boundary" inkscape:connector-curvature="0" />
	<path style="fill:none;stroke:red;stroke-width:1px;stroke-linecap:butt;stroke-linejoin:miter;stroke-opacity:1" d="M 229.505,70.6517 223.951,60.654 z" id="boundary" inkscape:connector-curvature="0" />
	<path style="fill:none;stroke:red;stroke-width:1px;stroke-linecap:butt;stroke-linejoin:miter;stroke-opacity:1" d="M 223.951,60.654 219.507,49.5454 z" id="boundary" inkscape:connector-curvature="0" />
	<path style="fill:none;stroke:red;stroke-width:1px;stroke-linecap:butt;stroke-linejoin:miter;stroke-opacity:1" d="M 229.505,70.6517 232.838,81.7604 z" id="boundary" inkscape:connector-curvature="0" />
	<path style="fill:none;stroke:red;stroke-width:1px;stroke-linecap:butt;stroke-linejoin:miter;stroke-opacity:1" d="M 232.838,81.7604 238.392,91.7581 z" id="boundary" inkscape:connector-curvature="0" />
	<path style="fill:none;stroke:red;stroke-width:1px;stroke-linecap:butt;stroke-linejoin:miter;stroke-opacity:1" d="M 257.277,120.641 248.39,112.865 z" id="boundary" inkscape:connector-curvature="0" />
	<path style="fill:none;stroke:red;stroke-width:1px;stroke-linecap:butt;stroke-linejoin:miter;stroke-opacity:1" d="M 248.39,112.865 243.946,101.756 z" id="boundary" inkscape:connector-curvature="0" />
	<path style="fill:none;stroke:red;stroke-width:1px;stroke-linecap:butt;stroke-linejoin:miter;stroke-opacity:1" d="M 243.946,101.756 238.392,91.7581 z" id="boundary" inkscape:connector-curvature="0" />
	<path style="fill:none;stroke:red;stroke-width:1px;stroke-linecap:butt;stroke-linejoin:miter;stroke-opacity:1" d="M 267.274,126.195 257.277,120.641 z" id="boundary" inkscape:connector-curvature="0" />
	<path style="fill:none;stroke:red;stroke-width:1px;stroke-linecap:butt;stroke-linejoin:miter;stroke-opacity:1" d="M 107.31,187.292 118.419,182.849 z" id="boundary" inkscape:connector-curvature="0" />
	<path style="fill:none;stroke:red;stroke-width:1px;stroke-linecap:butt;stroke-linejoin:miter;stroke-opacity:1" d="M 129.527,182.849 123.973,192.847 z" id="boundary" inkscape:connector-curvature="0" />
	<path style="fill:none;stroke:red;stroke-width:1px;stroke-linecap:butt;stroke-linejoin:miter;stroke-opacity:1" d="M 118.419,182.849 129.527,182.849 z" id="boundary" inkscape:connector-curvature="0" />
	<path style="fill:none;stroke:red;stroke-width:1px;stroke-linecap:butt;stroke-linejoin:miter;stroke-opacity:1" d="M 123.973,192.847 115.086,201.733 z" id="boundary" inkscape:connector-curvature="0" />
	<path style="fill:none;stroke:red;stroke-width:1px;stroke-linecap:butt;stroke-linejoin:miter;stroke-opacity:1" d="M 109.532,218.396 109.532,229.505 z" id="boundary" inkscape:connector-curvature="0" />
	<path style="fill:none;stroke:red;stroke-width:1px;stroke-linecap:butt;stroke-linejoin:miter;stroke-opacity:1" d="M 115.086,239.503 109.532,229.505 z" id="boundary" inkscape:connector-curvature="0" />
	<path style="fill:none;stroke:red;stroke-width:1px;stroke-linecap:butt;stroke-linejoin:miter;stroke-opacity:1" d="M 109.532,218.396 115.086,201.733 z" id="boundary" inkscape:connector-curvature="0" />
	<path style="fill:none;stroke:red;stroke-width:1px;stroke-linecap:butt;stroke-linejoin:miter;stroke-opacity:1" d="M 112.865,259.498 115.086,239.503 z" id="boundary" inkscape:connector-curvature="0" />
	<path style="fill:none;stroke:red;stroke-width:1px;stroke-linecap:butt;stroke-linejoin:miter;stroke-opacity:1" d="M 267.274,126.195 277.272,131.749 z" id="boundary" inkscape:connector-curvature="0" />
	<path style="fill:none;stroke:red;stroke-width:1px;stroke-linecap:butt;stroke-linejoin:miter;stroke-opacity:1" d="M 287.27,137.303 277.272,131.749 z" id="boundary" inkscape:connector-curvature="0" />
	<path style="fill:none;stroke:red;stroke-width:1px;stroke-linecap:butt;stroke-linejoin:miter;stroke-opacity:1" d="M 297.268,142.858 308.376,143.969 z" id="boundary" inkscape:connector-curvature="0" />
	<path style="fill:none;stroke:red;stroke-width:1px;stroke-linecap:butt;stroke-linejoin:miter;stroke-opacity:1" d="M 308.376,143.969 316.152,152.856 z" id="boundary" inkscape:connector-curvature="0" />
	<path style="fill:none;stroke:red;stroke-width:1px;stroke-linecap:butt;stroke-linejoin:miter;stroke-opacity:1" d="M 297.268,142.858 287.27,137.303 z" id="boundary" inkscape:connector-curvature="0" />
	<path style="fill:none;stroke:red;stroke-width:1px;stroke-linecap:butt;stroke-linejoin:miter;stroke-opacity:1" d="M 327.261,157.299 316.152,152.856 z" id="boundary" inkscape:connector-curvature="0" />
	<path style="fill:none;stroke:red;stroke-width:1px;stroke-linecap:butt;stroke-linejoin:miter;stroke-opacity:1" d="M 327.261,157.299 338.37,159.521 z" id="boundary" inkscape:connector-curvature="0" />
	<path style="fill:none;stroke:red;stroke-width:1px;stroke-linecap:butt;stroke-linejoin:miter;stroke-opacity:1" d="M 338.37,159.521 347.256,166.186 z" id="boundary" inkscape:connector-curvature="0" />
	<path style="fill:none;stroke:red;stroke-width:1px;stroke-linecap:butt;stroke-linejoin:miter;stroke-opacity:1" d="M 357.254,171.74 347.256,166.186 z" id="boundary" inkscape:connector-curvature="0" />
	<path style="fill:none;stroke:red;stroke-width:1px;stroke-linecap:butt;stroke-linejoin:miter;stroke-opacity:1" d="M 357.254,171.74 368.363,176.184 z" id="boundary" inkscape:connector-curvature="0" />
	<path style="fill:none;stroke:red;stroke-width:1px;stroke-linecap:butt;stroke-linejoin:miter;stroke-opacity:1" d="M 368.363,176.184 378.361,181.738 z" id="boundary" inkscape:connector-curvature="0" />
	<path style="fill:none;stroke:red;stroke-width:1px;stroke-linecap:butt;stroke-linejoin:miter;stroke-opacity:1" d="M 20.6629,273.94 20.6629,285.048 z" id="boundary" inkscape:connector-curvature="0" />
	<path style="fill:none;stroke:red;stroke-width:1px;stroke-linecap:butt;stroke-linejoin:miter;stroke-opacity:1" d="M 37.3259,310.598 26.2172,306.155 z" id="boundary" inkscape:connector-curvature="0" />
	<path style="fill:none;stroke:red;stroke-width:1px;stroke-linecap:butt;stroke-linejoin:miter;stroke-opacity:1" d="M 26.2172,306.155 20.6629,296.157 z" id="boundary" inkscape:connector-curvature="0" />
	<path style="fill:none;stroke:red;stroke-width:1px;stroke-linecap:butt;stroke-linejoin:miter;stroke-opacity:1" d="M 20.6629,296.157 20.6629,285.048 z" id="boundary" inkscape:connector-curvature="0" />
	<path style="fill:none;stroke:red;stroke-width:1px;stroke-linecap:butt;stroke-linejoin:miter;stroke-opacity:1" d="M 37.3259,310.598 48.4345,310.598 z" id="boundary" inkscape:connector-curvature="0" />
	<path style="fill:none;stroke:red;stroke-width:1px;stroke-linecap:butt;stroke-linejoin:miter;stroke-opacity:1" d="M 59.5431,310.598 70.6517,310.598 z" id="boundary" inkscape:connector-curvature="0" />
	<path style="fill:none;stroke:red;stroke-width:1px;stroke-linecap:butt;stroke-linejoin:miter;stroke-opacity:1" d="M 81.7604,310.598 70.6517,310.598 z" id="boundary" inkscape:connector-curvature="0" />
	<path style="fill:none;stroke:red;stroke-width:1px;stroke-linecap:butt;stroke-linejoin:miter;stroke-opacity:1" d="M 59.5431,310.598 48.4345,310.598 z" id="boundary" inkscape:connector-curvature="0" />
	<path style="fill:none;stroke:red;stroke-width:1px;stroke-linecap:butt;stroke-linejoin:miter;stroke-opacity:1" d="M 72.8735,270.607 82.8712,276.161 z" id="boundary" inkscape:connector-curvature="0" />
	<path style="fill:none;stroke:red;stroke-width:1px;stroke-linecap:butt;stroke-linejoin:miter;stroke-opacity:1" d="M 82.8712,276.161 92.869,270.607 z" id="boundary" inkscape:connector-curvature="0" />
	<path style="fill:none;stroke:red;stroke-width:1px;stroke-linecap:butt;stroke-linejoin:miter;stroke-opacity:1" d="M 103.978,268.385 112.865,259.498 z" id="boundary" inkscape:connector-curvature="0" />
	<path style="fill:none;stroke:red;stroke-width:1px;stroke-linecap:butt;stroke-linejoin:miter;stroke-opacity:1" d="M 165.075,293.935 155.077,299.489 z" id="boundary" inkscape:connector-curvature="0" />
	<path style="fill:none;stroke:red;stroke-width:1px;stroke-linecap:butt;stroke-linejoin:miter;stroke-opacity:1" d="M 165.075,293.935 170.629,303.933 z" id="boundary" inkscape:connector-curvature="0" />
	<path style="fill:none;stroke:red;stroke-width:1px;stroke-linecap:butt;stroke-linejoin:miter;stroke-opacity:1" d="M 92.869,270.607 103.978,268.385 z" id="boundary" inkscape:connector-curvature="0" />
	<path style="fill:none;stroke:red;stroke-width:1px;stroke-linecap:butt;stroke-linejoin:miter;stroke-opacity:1" d="M 155.077,299.489 146.19,309.487 z" id="boundary" inkscape:connector-curvature="0" />
	<path style="fill:none;stroke:red;stroke-width:1px;stroke-linecap:butt;stroke-linejoin:miter;stroke-opacity:1" d="M 92.869,310.598 102.867,316.152 z" id="boundary" inkscape:connector-curvature="0" />
	<path style="fill:none;stroke:red;stroke-width:1px;stroke-linecap:butt;stroke-linejoin:miter;stroke-opacity:1" d="M 81.7604,310.598 92.869,310.598 z" id="boundary" inkscape:connector-curvature="0" />
	<path style="fill:none;stroke:red;stroke-width:1px;stroke-linecap:butt;stroke-linejoin:miter;stroke-opacity:1" d="M 113.975,316.152 102.867,316.152 z" id="boundary" inkscape:connector-curvature="0" />
	<path style="fill:none;stroke:red;stroke-width:1px;stroke-linecap:butt;stroke-linejoin:miter;stroke-opacity:1" d="M 170.629,303.933 176.184,313.931 z" id="boundary" inkscape:connector-curvature="0" />
	<path style="fill:none;stroke:red;stroke-width:1px;stroke-linecap:butt;stroke-linejoin:miter;stroke-opacity:1" d="M 176.184,313.931 177.295,325.039 z" id="boundary" inkscape:connector-curvature="0" />
	<path style="fill:none;stroke:red;stroke-width:1px;stroke-linecap:butt;stroke-linejoin:miter;stroke-opacity:1" d="M 113.975,316.152 125.084,316.152 z" id="boundary" inkscape:connector-curvature="0" />
	<path style="fill:none;stroke:red;stroke-width:1px;stroke-linecap:butt;stroke-linejoin:miter;stroke-opacity:1" d="M 177.295,325.039 182.849,335.037 z" id="boundary" inkscape:connector-curvature="0" />
	<path style="fill:none;stroke:red;stroke-width:1px;stroke-linecap:butt;stroke-linejoin:miter;stroke-opacity:1" d="M 136.193,316.152 146.19,309.487 z" id="boundary" inkscape:connector-curvature="0" />
	<path style="fill:none;stroke:red;stroke-width:1px;stroke-linecap:butt;stroke-linejoin:miter;stroke-opacity:1" d="M 125.084,316.152 136.193,316.152 z" id="boundary" inkscape:connector-curvature="0" />
	<path style="fill:none;stroke:red;stroke-width:1px;stroke-linecap:butt;stroke-linejoin:miter;stroke-opacity:1" d="M 182.849,335.037 187.292,346.146 z" id="boundary" inkscape:connector-curvature="0" />
	<path style="fill:none;stroke:red;stroke-width:1px;stroke-linecap:butt;stroke-linejoin:miter;stroke-opacity:1" d="M 187.292,346.146 196.179,353.922 z" id="boundary" inkscape:connector-curvature="0" />
	<path style="fill:none;stroke:red;stroke-width:1px;stroke-linecap:butt;stroke-linejoin:miter;stroke-opacity:1" d="M 196.179,353.922 203.955,362.809 z" id="boundary" inkscape:connector-curvature="0" />
	<path style="fill:none;stroke:red;stroke-width:1px;stroke-linecap:butt;stroke-linejoin:miter;stroke-opacity:1" d="M 222.84,376.139 212.842,370.585 z" id="boundary" inkscape:connector-curvature="0" />
	<path style="fill:none;stroke:red;stroke-width:1px;stroke-linecap:butt;stroke-linejoin:miter;stroke-opacity:1" d="M 212.842,370.585 203.955,362.809 z" id="boundary" inkscape:connector-curvature="0" />
	<path style="fill:none;stroke:red;stroke-width:1px;stroke-linecap:butt;stroke-linejoin:miter;stroke-opacity:1" d="M 231.727,382.804 241.725,388.358 z" id="boundary" inkscape:connector-curvature="0" />
	<path style="fill:none;stroke:red;stroke-width:1px;stroke-linecap:butt;stroke-linejoin:miter;stroke-opacity:1" d="M 231.727,382.804 222.84,376.139 z" id="boundary" inkscape:connector-curvature="0" />
	<path style="fill:none;stroke:red;stroke-width:1px;stroke-linecap:butt;stroke-linejoin:miter;stroke-opacity:1" d="M 251.722,393.913 259.498,402.8 z" id="boundary" inkscape:connector-curvature="0" />
	<path style="fill:none;stroke:red;stroke-width:1px;stroke-linecap:butt;stroke-linejoin:miter;stroke-opacity:1" d="M 251.722,393.913 241.725,388.358 z" id="boundary" inkscape:connector-curvature="0" />
	<path style="fill:none;stroke:red;stroke-width:1px;stroke-linecap:butt;stroke-linejoin:miter;stroke-opacity:1" d="M 265.053,423.906 259.498,435.015 z" id="boundary" inkscape:connector-curvature="0" />
	<path style="fill:none;stroke:red;stroke-width:1px;stroke-linecap:butt;stroke-linejoin:miter;stroke-opacity:1" d="M 248.39,468.34 253.944,457.232 z" id="boundary" inkscape:connector-curvature="0" />
	<path style="fill:none;stroke:red;stroke-width:1px;stroke-linecap:butt;stroke-linejoin:miter;stroke-opacity:1" d="M 253.944,478.338 248.39,468.34 z" id="boundary" inkscape:connector-curvature="0" />
	<path style="fill:none;stroke:red;stroke-width:1px;stroke-linecap:butt;stroke-linejoin:miter;stroke-opacity:1" d="M 253.944,457.232 259.498,446.123 z" id="boundary" inkscape:connector-curvature="0" />
	<path style="fill:none;stroke:red;stroke-width:1px;stroke-linecap:butt;stroke-linejoin:miter;stroke-opacity:1" d="M 253.944,478.338 253.944,489.447 z" id="boundary" inkscape:connector-curvature="0" />
	<path style="fill:none;stroke:red;stroke-width:1px;stroke-linecap:butt;stroke-linejoin:miter;stroke-opacity:1" d="M 259.498,499.445 253.944,489.447 z" id="boundary" inkscape:connector-curvature="0" />
	<path style="fill:none;stroke:red;stroke-width:1px;stroke-linecap:butt;stroke-linejoin:miter;stroke-opacity:1" d="M 380.582,524.994 371.695,532.77 z" id="boundary" inkscape:connector-curvature="0" />
	<path style="fill:none;stroke:red;stroke-width:1px;stroke-linecap:butt;stroke-linejoin:miter;stroke-opacity:1" d="M 259.498,435.015 259.498,446.123 z" id="boundary" inkscape:connector-curvature="0" />
	<path style="fill:none;stroke:red;stroke-width:1px;stroke-linecap:butt;stroke-linejoin:miter;stroke-opacity:1" d="M 259.498,499.445 262.831,510.553 z" id="boundary" inkscape:connector-curvature="0" />
	<path style="fill:none;stroke:red;stroke-width:1px;stroke-linecap:butt;stroke-linejoin:miter;stroke-opacity:1" d="M 259.498,402.8 265.053,412.797 z" id="boundary" inkscape:connector-curvature="0" />
	<path style="fill:none;stroke:red;stroke-width:1px;stroke-linecap:butt;stroke-linejoin:miter;stroke-opacity:1" d="M 265.053,412.797 265.053,423.906 z" id="boundary" inkscape:connector-curvature="0" />
	<path style="fill:none;stroke:red;stroke-width:1px;stroke-linecap:butt;stroke-linejoin:miter;stroke-opacity:1" d="M 278.383,541.657 272.829,531.66 z" id="boundary" inkscape:connector-curvature="0" />
	<path style="fill:none;stroke:red;stroke-width:1px;stroke-linecap:butt;stroke-linejoin:miter;stroke-opacity:1" d="M 272.829,531.66 268.385,520.551 z" id="boundary" inkscape:connector-curvature="0" />
	<path style="fill:none;stroke:red;stroke-width:1px;stroke-linecap:butt;stroke-linejoin:miter;stroke-opacity:1" d="M 262.831,510.553 268.385,520.551 z" id="boundary" inkscape:connector-curvature="0" />
	<path style="fill:none;stroke:red;stroke-width:1px;stroke-linecap:butt;stroke-linejoin:miter;stroke-opacity:1" d="M 278.383,541.657 282.826,552.766 z" id="boundary" inkscape:connector-curvature="0" />
	<path style="fill:none;stroke:red;stroke-width:1px;stroke-linecap:butt;stroke-linejoin:miter;stroke-opacity:1" d="M 291.713,560.542 282.826,552.766 z" id="boundary" inkscape:connector-curvature="0" />
	<path style="fill:none;stroke:red;stroke-width:1px;stroke-linecap:butt;stroke-linejoin:miter;stroke-opacity:1" d="M 310.598,573.872 299.489,569.429 z" id="boundary" inkscape:connector-curvature="0" />
	<path style="fill:none;stroke:red;stroke-width:1px;stroke-linecap:butt;stroke-linejoin:miter;stroke-opacity:1" d="M 299.489,569.429 291.713,560.542 z" id="boundary" inkscape:connector-curvature="0" />
	<path style="fill:none;stroke:red;stroke-width:1px;stroke-linecap:butt;stroke-linejoin:miter;stroke-opacity:1" d="M 320.596,593.868 320.596,604.976 z" id="boundary" inkscape:connector-curvature="0" />
	<path style="fill:none;stroke:red;stroke-width:1px;stroke-linecap:butt;stroke-linejoin:miter;stroke-opacity:1" d="M 320.596,593.868 318.374,582.759 z" id="boundary" inkscape:connector-curvature="0" />
	<path style="fill:none;stroke:red;stroke-width:1px;stroke-linecap:butt;stroke-linejoin:miter;stroke-opacity:1" d="M 373.917,554.988 371.695,543.879 z" id="boundary" inkscape:connector-curvature="0" />
	<path style="fill:none;stroke:red;stroke-width:1px;stroke-linecap:butt;stroke-linejoin:miter;stroke-opacity:1" d="M 371.695,543.879 371.695,532.77 z" id="boundary" inkscape:connector-curvature="0" />
	<path style="fill:none;stroke:red;stroke-width:1px;stroke-linecap:butt;stroke-linejoin:miter;stroke-opacity:1" d="M 318.374,582.759 310.598,573.872 z" id="boundary" inkscape:connector-curvature="0" />
	<path style="fill:none;stroke:red;stroke-width:1px;stroke-linecap:butt;stroke-linejoin:miter;stroke-opacity:1" d="M 320.596,604.976 320.596,616.085 z" id="boundary" inkscape:connector-curvature="0" />
	<path style="fill:none;stroke:red;stroke-width:1px;stroke-linecap:butt;stroke-linejoin:miter;stroke-opacity:1" d="M 320.596,627.194 320.596,616.085 z" id="boundary" inkscape:connector-curvature="0" />
	<path style="fill:none;stroke:red;stroke-width:1px;stroke-linecap:butt;stroke-linejoin:miter;stroke-opacity:1" d="M 320.596,638.302 320.596,627.194 z" id="boundary" inkscape:connector-curvature="0" />
	<path style="fill:none;stroke:red;stroke-width:1px;stroke-linecap:butt;stroke-linejoin:miter;stroke-opacity:1" d="M 382.804,638.302 377.25,649.411 z" id="boundary" inkscape:connector-curvature="0" />
	<path style="fill:none;stroke:red;stroke-width:1px;stroke-linecap:butt;stroke-linejoin:miter;stroke-opacity:1" d="M 319.485,653.854 320.596,638.302 z" id="boundary" inkscape:connector-curvature="0" />
	<path style="fill:none;stroke:red;stroke-width:1px;stroke-linecap:butt;stroke-linejoin:miter;stroke-opacity:1" d="M 373.917,554.988 379.471,564.985 z" id="boundary" inkscape:connector-curvature="0" />
	<path style="fill:none;stroke:red;stroke-width:1px;stroke-linecap:butt;stroke-linejoin:miter;stroke-opacity:1" d="M 265.053,668.296 265.053,679.404 z" id="boundary" inkscape:connector-curvature="0" />
	<path style="fill:none;stroke:red;stroke-width:1px;stroke-linecap:butt;stroke-linejoin:miter;stroke-opacity:1" d="M 265.053,668.296 276.161,662.741 z" id="boundary" inkscape:connector-curvature="0" />
	<path style="fill:none;stroke:red;stroke-width:1px;stroke-linecap:butt;stroke-linejoin:miter;stroke-opacity:1" d="M 287.27,659.409 276.161,662.741 z" id="boundary" inkscape:connector-curvature="0" />
	<path style="fill:none;stroke:red;stroke-width:1px;stroke-linecap:butt;stroke-linejoin:miter;stroke-opacity:1" d="M 298.378,659.409 287.27,659.409 z" id="boundary" inkscape:connector-curvature="0" />
	<path style="fill:none;stroke:red;stroke-width:1px;stroke-linecap:butt;stroke-linejoin:miter;stroke-opacity:1" d="M 265.053,696.067 265.053,707.176 z" id="boundary" inkscape:connector-curvature="0" />
	<path style="fill:none;stroke:red;stroke-width:1px;stroke-linecap:butt;stroke-linejoin:miter;stroke-opacity:1" d="M 273.94,714.952 265.053,707.176 z" id="boundary" inkscape:connector-curvature="0" />
	<path style="fill:none;stroke:red;stroke-width:1px;stroke-linecap:butt;stroke-linejoin:miter;stroke-opacity:1" d="M 285.048,716.063 273.94,714.952 z" id="boundary" inkscape:connector-curvature="0" />
	<path style="fill:none;stroke:red;stroke-width:1px;stroke-linecap:butt;stroke-linejoin:miter;stroke-opacity:1" d="M 296.157,716.063 285.048,716.063 z" id="boundary" inkscape:connector-curvature="0" />
	<path style="fill:none;stroke:red;stroke-width:1px;stroke-linecap:butt;stroke-linejoin:miter;stroke-opacity:1" d="M 265.053,696.067 265.053,679.404 z" id="boundary" inkscape:connector-curvature="0" />
	<path style="fill:none;stroke:red;stroke-width:1px;stroke-linecap:butt;stroke-linejoin:miter;stroke-opacity:1" d="M 309.487,659.409 319.485,653.854 z" id="boundary" inkscape:connector-curvature="0" />
	<path style="fill:none;stroke:red;stroke-width:1px;stroke-linecap:butt;stroke-linejoin:miter;stroke-opacity:1" d="M 309.487,659.409 298.378,659.409 z" id="boundary" inkscape:connector-curvature="0" />
	<path style="fill:none;stroke:red;stroke-width:1px;stroke-linecap:butt;stroke-linejoin:miter;stroke-opacity:1" d="M 370.585,679.404 365.03,690.513 z" id="boundary" inkscape:connector-curvature="0" />
	<path style="fill:none;stroke:red;stroke-width:1px;stroke-linecap:butt;stroke-linejoin:miter;stroke-opacity:1" d="M 371.695,666.074 370.585,679.404 z" id="boundary" inkscape:connector-curvature="0" />
	<path style="fill:none;stroke:red;stroke-width:1px;stroke-linecap:butt;stroke-linejoin:miter;stroke-opacity:1" d="M 377.25,649.411 371.695,666.074 z" id="boundary" inkscape:connector-curvature="0" />
	<path style="fill:none;stroke:red;stroke-width:1px;stroke-linecap:butt;stroke-linejoin:miter;stroke-opacity:1" d="M 307.265,716.063 317.263,710.508 z" id="boundary" inkscape:connector-curvature="0" />
	<path style="fill:none;stroke:red;stroke-width:1px;stroke-linecap:butt;stroke-linejoin:miter;stroke-opacity:1" d="M 317.263,710.508 328.372,710.508 z" id="boundary" inkscape:connector-curvature="0" />
	<path style="fill:none;stroke:red;stroke-width:1px;stroke-linecap:butt;stroke-linejoin:miter;stroke-opacity:1" d="M 307.265,716.063 296.157,716.063 z" id="boundary" inkscape:connector-curvature="0" />
	<path style="fill:none;stroke:red;stroke-width:1px;stroke-linecap:butt;stroke-linejoin:miter;stroke-opacity:1" d="M 328.372,710.508 339.48,710.508 z" id="boundary" inkscape:connector-curvature="0" />
	<path style="fill:none;stroke:red;stroke-width:1px;stroke-linecap:butt;stroke-linejoin:miter;stroke-opacity:1" d="M 359.476,701.622 350.589,710.508 z" id="boundary" inkscape:connector-curvature="0" />
	<path style="fill:none;stroke:red;stroke-width:1px;stroke-linecap:butt;stroke-linejoin:miter;stroke-opacity:1" d="M 350.589,710.508 339.48,710.508 z" id="boundary" inkscape:connector-curvature="0" />
	<path style="fill:none;stroke:red;stroke-width:1px;stroke-linecap:butt;stroke-linejoin:miter;stroke-opacity:1" d="M 365.03,690.513 359.476,701.622 z" id="boundary" inkscape:connector-curvature="0" />
	<path style="fill:none;stroke:red;stroke-width:1px;stroke-linecap:butt;stroke-linejoin:miter;stroke-opacity:1" d="M 378.361,181.738 388.358,187.292 z" id="boundary" inkscape:connector-curvature="0" />
	<path style="fill:none;stroke:red;stroke-width:1px;stroke-linecap:butt;stroke-linejoin:miter;stroke-opacity:1" d="M 388.358,187.292 399.467,187.292 z" id="boundary" inkscape:connector-curvature="0" />
	<path style="fill:none;stroke:red;stroke-width:1px;stroke-linecap:butt;stroke-linejoin:miter;stroke-opacity:1" d="M 399.467,187.292 409.465,192.847 z" id="boundary" inkscape:connector-curvature="0" />
	<path style="fill:none;stroke:red;stroke-width:1px;stroke-linecap:butt;stroke-linejoin:miter;stroke-opacity:1" d="M 409.465,192.847 420.573,195.068 z" id="boundary" inkscape:connector-curvature="0" />
	<path style="fill:none;stroke:red;stroke-width:1px;stroke-linecap:butt;stroke-linejoin:miter;stroke-opacity:1" d="M 431.682,198.401 420.573,195.068 z" id="boundary" inkscape:connector-curvature="0" />
	<path style="fill:none;stroke:red;stroke-width:1px;stroke-linecap:butt;stroke-linejoin:miter;stroke-opacity:1" d="M 431.682,198.401 441.68,203.955 z" id="boundary" inkscape:connector-curvature="0" />
	<path style="fill:none;stroke:red;stroke-width:1px;stroke-linecap:butt;stroke-linejoin:miter;stroke-opacity:1" d="M 441.68,203.955 452.788,205.066 z" id="boundary" inkscape:connector-curvature="0" />
	<path style="fill:none;stroke:red;stroke-width:1px;stroke-linecap:butt;stroke-linejoin:miter;stroke-opacity:1" d="M 452.788,205.066 460.564,213.953 z" id="boundary" inkscape:connector-curvature="0" />
	<path style="fill:none;stroke:red;stroke-width:1px;stroke-linecap:butt;stroke-linejoin:miter;stroke-opacity:1" d="M 460.564,213.953 471.673,215.064 z" id="boundary" inkscape:connector-curvature="0" />
	<path style="fill:none;stroke:red;stroke-width:1px;stroke-linecap:butt;stroke-linejoin:miter;stroke-opacity:1" d="M 471.673,215.064 481.671,220.618 z" id="boundary" inkscape:connector-curvature="0" />
	<path style="fill:none;stroke:red;stroke-width:1px;stroke-linecap:butt;stroke-linejoin:miter;stroke-opacity:1" d="M 481.671,220.618 491.669,226.172 z" id="boundary" inkscape:connector-curvature="0" />
	<path style="fill:none;stroke:red;stroke-width:1px;stroke-linecap:butt;stroke-linejoin:miter;stroke-opacity:1" d="M 491.669,226.172 501.666,231.727 z" id="boundary" inkscape:connector-curvature="0" />
	<path style="fill:none;stroke:red;stroke-width:1px;stroke-linecap:butt;stroke-linejoin:miter;stroke-opacity:1" d="M 501.666,231.727 509.442,240.614 z" id="boundary" inkscape:connector-curvature="0" />
	<path style="fill:none;stroke:red;stroke-width:1px;stroke-linecap:butt;stroke-linejoin:miter;stroke-opacity:1" d="M 516.108,249.501 521.662,259.498 z" id="boundary" inkscape:connector-curvature="0" />
	<path style="fill:none;stroke:red;stroke-width:1px;stroke-linecap:butt;stroke-linejoin:miter;stroke-opacity:1" d="M 516.108,249.501 509.442,240.614 z" id="boundary" inkscape:connector-curvature="0" />
	<path style="fill:none;stroke:red;stroke-width:1px;stroke-linecap:butt;stroke-linejoin:miter;stroke-opacity:1" d="M 530.549,266.163 521.662,259.498 z" id="boundary" inkscape:connector-curvature="0" />
	<path style="fill:none;stroke:red;stroke-width:1px;stroke-linecap:butt;stroke-linejoin:miter;stroke-opacity:1" d="M 530.549,266.163 534.992,277.272 z" id="boundary" inkscape:connector-curvature="0" />
	<path style="fill:none;stroke:red;stroke-width:1px;stroke-linecap:butt;stroke-linejoin:miter;stroke-opacity:1" d="M 540.546,287.27 534.992,277.272 z" id="boundary" inkscape:connector-curvature="0" />
	<path style="fill:none;stroke:red;stroke-width:1px;stroke-linecap:butt;stroke-linejoin:miter;stroke-opacity:1" d="M 558.32,316.152 549.433,308.376 z" id="boundary" inkscape:connector-curvature="0" />
	<path style="fill:none;stroke:red;stroke-width:1px;stroke-linecap:butt;stroke-linejoin:miter;stroke-opacity:1" d="M 549.433,308.376 543.879,298.378 z" id="boundary" inkscape:connector-curvature="0" />
	<path style="fill:none;stroke:red;stroke-width:1px;stroke-linecap:butt;stroke-linejoin:miter;stroke-opacity:1" d="M 543.879,298.378 540.546,287.27 z" id="boundary" inkscape:connector-curvature="0" />
	<path style="fill:none;stroke:red;stroke-width:1px;stroke-linecap:butt;stroke-linejoin:miter;stroke-opacity:1" d="M 558.32,316.152 568.318,321.707 z" id="boundary" inkscape:connector-curvature="0" />
	<path style="fill:none;stroke:red;stroke-width:1px;stroke-linecap:butt;stroke-linejoin:miter;stroke-opacity:1" d="M 568.318,321.707 577.205,329.483 z" id="boundary" inkscape:connector-curvature="0" />
	<path style="fill:none;stroke:red;stroke-width:1px;stroke-linecap:butt;stroke-linejoin:miter;stroke-opacity:1" d="M 597.2,338.37 586.092,337.259 z" id="boundary" inkscape:connector-curvature="0" />
	<path style="fill:none;stroke:red;stroke-width:1px;stroke-linecap:butt;stroke-linejoin:miter;stroke-opacity:1" d="M 586.092,337.259 577.205,329.483 z" id="boundary" inkscape:connector-curvature="0" />
	<path style="fill:none;stroke:red;stroke-width:1px;stroke-linecap:butt;stroke-linejoin:miter;stroke-opacity:1" d="M 597.2,338.37 607.198,343.924 z" id="boundary" inkscape:connector-curvature="0" />
	<path style="fill:none;stroke:red;stroke-width:1px;stroke-linecap:butt;stroke-linejoin:miter;stroke-opacity:1" d="M 587.203,504.999 577.205,510.553 z" id="boundary" inkscape:connector-curvature="0" />
	<path style="fill:none;stroke:red;stroke-width:1px;stroke-linecap:butt;stroke-linejoin:miter;stroke-opacity:1" d="M 618.307,348.367 628.305,353.922 z" id="boundary" inkscape:connector-curvature="0" />
	<path style="fill:none;stroke:red;stroke-width:1px;stroke-linecap:butt;stroke-linejoin:miter;stroke-opacity:1" d="M 618.307,348.367 607.198,343.924 z" id="boundary" inkscape:connector-curvature="0" />
	<path style="fill:none;stroke:red;stroke-width:1px;stroke-linecap:butt;stroke-linejoin:miter;stroke-opacity:1" d="M 628.305,353.922 638.302,359.476 z" id="boundary" inkscape:connector-curvature="0" />
	<path style="fill:none;stroke:red;stroke-width:1px;stroke-linecap:butt;stroke-linejoin:miter;stroke-opacity:1" d="M 419.462,510.553 409.465,504.999 z" id="boundary" inkscape:connector-curvature="0" />
	<path style="fill:none;stroke:red;stroke-width:1px;stroke-linecap:butt;stroke-linejoin:miter;stroke-opacity:1" d="M 638.302,359.476 649.411,359.476 z" id="boundary" inkscape:connector-curvature="0" />
	<path style="fill:none;stroke:red;stroke-width:1px;stroke-linecap:butt;stroke-linejoin:miter;stroke-opacity:1" d="M 649.411,359.476 659.409,365.03 z" id="boundary" inkscape:connector-curvature="0" />
	<path style="fill:none;stroke:red;stroke-width:1px;stroke-linecap:butt;stroke-linejoin:miter;stroke-opacity:1" d="M 680.515,370.585 669.406,370.585 z" id="boundary" inkscape:connector-curvature="0" />
	<path style="fill:none;stroke:red;stroke-width:1px;stroke-linecap:butt;stroke-linejoin:miter;stroke-opacity:1" d="M 669.406,370.585 659.409,365.03 z" id="boundary" inkscape:connector-curvature="0" />
	<path style="fill:none;stroke:red;stroke-width:1px;stroke-linecap:butt;stroke-linejoin:miter;stroke-opacity:1" d="M 691.624,371.695 680.515,370.585 z" id="boundary" inkscape:connector-curvature="0" />
	<path style="fill:none;stroke:red;stroke-width:1px;stroke-linecap:butt;stroke-linejoin:miter;stroke-opacity:1" d="M 702.732,376.139 712.73,381.693 z" id="boundary" inkscape:connector-curvature="0" />
	<path style="fill:none;stroke:red;stroke-width:1px;stroke-linecap:butt;stroke-linejoin:miter;stroke-opacity:1" d="M 702.732,376.139 691.624,371.695 z" id="boundary" inkscape:connector-curvature="0" />
	<path style="fill:none;stroke:red;stroke-width:1px;stroke-linecap:butt;stroke-linejoin:miter;stroke-opacity:1" d="M 723.839,381.693 712.73,381.693 z" id="boundary" inkscape:connector-curvature="0" />
	<path style="fill:none;stroke:red;stroke-width:1px;stroke-linecap:butt;stroke-linejoin:miter;stroke-opacity:1" d="M 744.945,387.247 733.837,387.247 z" id="boundary" inkscape:connector-curvature="0" />
	<path style="fill:none;stroke:red;stroke-width:1px;stroke-linecap:butt;stroke-linejoin:miter;stroke-opacity:1" d="M 733.837,387.247 723.839,381.693 z" id="boundary" inkscape:connector-curvature="0" />
	<path style="fill:none;stroke:red;stroke-width:1px;stroke-linecap:butt;stroke-linejoin:miter;stroke-opacity:1" d="M 756.054,387.247 744.945,387.247 z" id="boundary" inkscape:connector-curvature="0" />
	<path style="fill:none;stroke:red;stroke-width:1px;stroke-linecap:butt;stroke-linejoin:miter;stroke-opacity:1" d="M 409.465,504.999 399.467,510.553 z" id="boundary" inkscape:connector-curvature="0" />
	<path style="fill:none;stroke:red;stroke-width:1px;stroke-linecap:butt;stroke-linejoin:miter;stroke-opacity:1" d="M 766.052,392.802 756.054,387.247 z" id="boundary" inkscape:connector-curvature="0" />
	<path style="fill:none;stroke:red;stroke-width:1px;stroke-linecap:butt;stroke-linejoin:miter;stroke-opacity:1" d="M 777.16,392.802 766.052,392.802 z" id="boundary" inkscape:connector-curvature="0" />
	<path style="fill:none;stroke:red;stroke-width:1px;stroke-linecap:butt;stroke-linejoin:miter;stroke-opacity:1" d="M 777.16,392.802 788.269,392.802 z" id="boundary" inkscape:connector-curvature="0" />
	<path style="fill:none;stroke:red;stroke-width:1px;stroke-linecap:butt;stroke-linejoin:miter;stroke-opacity:1" d="M 799.377,392.802 788.269,392.802 z" id="boundary" inkscape:connector-curvature="0" />
	<path style="fill:none;stroke:red;stroke-width:1px;stroke-linecap:butt;stroke-linejoin:miter;stroke-opacity:1" d="M 810.486,392.802 799.377,392.802 z" id="boundary" inkscape:connector-curvature="0" />
	<path style="fill:none;stroke:red;stroke-width:1px;stroke-linecap:butt;stroke-linejoin:miter;stroke-opacity:1" d="M 810.486,392.802 821.595,392.802 z" id="boundary" inkscape:connector-curvature="0" />
	<path style="fill:none;stroke:red;stroke-width:1px;stroke-linecap:butt;stroke-linejoin:miter;stroke-opacity:1" d="M 866.029,398.356 854.92,398.356 z" id="boundary" inkscape:connector-curvature="0" />
	<path style="fill:none;stroke:red;stroke-width:1px;stroke-linecap:butt;stroke-linejoin:miter;stroke-opacity:1" d="M 854.92,398.356 843.812,396.134 z" id="boundary" inkscape:connector-curvature="0" />
	<path style="fill:none;stroke:red;stroke-width:1px;stroke-linecap:butt;stroke-linejoin:miter;stroke-opacity:1" d="M 843.812,396.134 832.703,392.802 z" id="boundary" inkscape:connector-curvature="0" />
	<path style="fill:none;stroke:red;stroke-width:1px;stroke-linecap:butt;stroke-linejoin:miter;stroke-opacity:1" d="M 821.595,392.802 832.703,392.802 z" id="boundary" inkscape:connector-curvature="0" />
	<path style="fill:none;stroke:red;stroke-width:1px;stroke-linecap:butt;stroke-linejoin:miter;stroke-opacity:1" d="M 918.24,392.802 907.131,392.802 z" id="boundary" inkscape:connector-curvature="0" />
	<path style="fill:none;stroke:red;stroke-width:1px;stroke-linecap:butt;stroke-linejoin:miter;stroke-opacity:1" d="M 929.348,392.802 918.24,392.802 z" id="boundary" inkscape:connector-curvature="0" />
	<path style="fill:none;stroke:red;stroke-width:1px;stroke-linecap:butt;stroke-linejoin:miter;stroke-opacity:1" d="M 984.891,387.247 973.783,387.247 z" id="boundary" inkscape:connector-curvature="0" />
	<path style="fill:none;stroke:red;stroke-width:1px;stroke-linecap:butt;stroke-linejoin:miter;stroke-opacity:1" d="M 996,387.247 984.891,387.247 z" id="boundary" inkscape:connector-curvature="0" />
	<path style="fill:none;stroke:red;stroke-width:1px;stroke-linecap:butt;stroke-linejoin:miter;stroke-opacity:1" d="M 962.674,392.802 973.783,387.247 z" id="boundary" inkscape:connector-curvature="0" />
	<path style="fill:none;stroke:red;stroke-width:1px;stroke-linecap:butt;stroke-linejoin:miter;stroke-opacity:1" d="M 897.133,398.356 907.131,392.802 z" id="boundary" inkscape:connector-curvature="0" />
	<path style="fill:none;stroke:red;stroke-width:1px;stroke-linecap:butt;stroke-linejoin:miter;stroke-opacity:1" d="M 929.348,392.802 940.457,392.802 z" id="boundary" inkscape:connector-curvature="0" />
	<path style="fill:none;stroke:red;stroke-width:1px;stroke-linecap:butt;stroke-linejoin:miter;stroke-opacity:1" d="M 951.566,392.802 940.457,392.802 z" id="boundary" inkscape:connector-curvature="0" />
	<path style="fill:none;stroke:red;stroke-width:1px;stroke-linecap:butt;stroke-linejoin:miter;stroke-opacity:1" d="M 962.674,392.802 951.566,392.802 z" id="boundary" inkscape:connector-curvature="0" />
	<path style="fill:none;stroke:red;stroke-width:1px;stroke-linecap:butt;stroke-linejoin:miter;stroke-opacity:1" d="M 996,387.247 993.778,405.021 z" id="boundary" inkscape:connector-curvature="0" />
	<path style="fill:none;stroke:red;stroke-width:1px;stroke-linecap:butt;stroke-linejoin:miter;stroke-opacity:1" d="M 866.029,398.356 876.027,403.91 z" id="boundary" inkscape:connector-curvature="0" />
	<path style="fill:none;stroke:red;stroke-width:1px;stroke-linecap:butt;stroke-linejoin:miter;stroke-opacity:1" d="M 876.027,403.91 886.025,398.356 z" id="boundary" inkscape:connector-curvature="0" />
	<path style="fill:none;stroke:red;stroke-width:1px;stroke-linecap:butt;stroke-linejoin:miter;stroke-opacity:1" d="M 886.025,398.356 897.133,398.356 z" id="boundary" inkscape:connector-curvature="0" />
	<path style="fill:none;stroke:red;stroke-width:1px;stroke-linecap:butt;stroke-linejoin:miter;stroke-opacity:1" d="M 902.688,458.343 893.801,466.119 z" id="boundary" inkscape:connector-curvature="0" />
	<path style="fill:none;stroke:red;stroke-width:1px;stroke-linecap:butt;stroke-linejoin:miter;stroke-opacity:1" d="M 888.246,477.227 893.801,466.119 z" id="boundary" inkscape:connector-curvature="0" />
	<path style="fill:none;stroke:red;stroke-width:1px;stroke-linecap:butt;stroke-linejoin:miter;stroke-opacity:1" d="M 837.147,507.221 848.255,501.666 z" id="boundary" inkscape:connector-curvature="0" />
	<path style="fill:none;stroke:red;stroke-width:1px;stroke-linecap:butt;stroke-linejoin:miter;stroke-opacity:1" d="M 848.255,501.666 859.364,499.445 z" id="boundary" inkscape:connector-curvature="0" />
	<path style="fill:none;stroke:red;stroke-width:1px;stroke-linecap:butt;stroke-linejoin:miter;stroke-opacity:1" d="M 859.364,499.445 868.251,492.779 z" id="boundary" inkscape:connector-curvature="0" />
	<path style="fill:none;stroke:red;stroke-width:1px;stroke-linecap:butt;stroke-linejoin:miter;stroke-opacity:1" d="M 868.251,492.779 879.359,487.225 z" id="boundary" inkscape:connector-curvature="0" />
	<path style="fill:none;stroke:red;stroke-width:1px;stroke-linecap:butt;stroke-linejoin:miter;stroke-opacity:1" d="M 888.246,477.227 879.359,487.225 z" id="boundary" inkscape:connector-curvature="0" />
	<path style="fill:none;stroke:red;stroke-width:1px;stroke-linecap:butt;stroke-linejoin:miter;stroke-opacity:1" d="M 967.118,438.347 956.009,438.347 z" id="boundary" inkscape:connector-curvature="0" />
	<path style="fill:none;stroke:red;stroke-width:1px;stroke-linecap:butt;stroke-linejoin:miter;stroke-opacity:1" d="M 976.004,429.46 967.118,438.347 z" id="boundary" inkscape:connector-curvature="0" />
	<path style="fill:none;stroke:red;stroke-width:1px;stroke-linecap:butt;stroke-linejoin:miter;stroke-opacity:1" d="M 956.009,438.347 946.011,443.901 z" id="boundary" inkscape:connector-curvature="0" />
	<path style="fill:none;stroke:red;stroke-width:1px;stroke-linecap:butt;stroke-linejoin:miter;stroke-opacity:1" d="M 993.778,416.13 987.113,427.239 z" id="boundary" inkscape:connector-curvature="0" />
	<path style="fill:none;stroke:red;stroke-width:1px;stroke-linecap:butt;stroke-linejoin:miter;stroke-opacity:1" d="M 987.113,427.239 976.004,429.46 z" id="boundary" inkscape:connector-curvature="0" />
	<path style="fill:none;stroke:red;stroke-width:1px;stroke-linecap:butt;stroke-linejoin:miter;stroke-opacity:1" d="M 993.778,405.021 993.778,416.13 z" id="boundary" inkscape:connector-curvature="0" />
	<path style="fill:none;stroke:red;stroke-width:1px;stroke-linecap:butt;stroke-linejoin:miter;stroke-opacity:1" d="M 946.011,443.901 934.903,448.345 z" id="boundary" inkscape:connector-curvature="0" />
	<path style="fill:none;stroke:red;stroke-width:1px;stroke-linecap:butt;stroke-linejoin:miter;stroke-opacity:1" d="M 913.796,455.01 902.688,458.343 z" id="boundary" inkscape:connector-curvature="0" />
	<path style="fill:none;stroke:red;stroke-width:1px;stroke-linecap:butt;stroke-linejoin:miter;stroke-opacity:1" d="M 923.794,449.456 913.796,455.01 z" id="boundary" inkscape:connector-curvature="0" />
	<path style="fill:none;stroke:red;stroke-width:1px;stroke-linecap:butt;stroke-linejoin:miter;stroke-opacity:1" d="M 923.794,449.456 934.903,448.345 z" id="boundary" inkscape:connector-curvature="0" />
	<path style="fill:none;stroke:red;stroke-width:1px;stroke-linecap:butt;stroke-linejoin:miter;stroke-opacity:1" d="M 837.147,507.221 826.038,510.553 z" id="boundary" inkscape:connector-curvature="0" />
	<path style="fill:none;stroke:red;stroke-width:1px;stroke-linecap:butt;stroke-linejoin:miter;stroke-opacity:1" d="M 391.691,519.44 380.582,524.994 z" id="boundary" inkscape:connector-curvature="0" />
	<path style="fill:none;stroke:red;stroke-width:1px;stroke-linecap:butt;stroke-linejoin:miter;stroke-opacity:1" d="M 399.467,510.553 391.691,519.44 z" id="boundary" inkscape:connector-curvature="0" />
	<path style="fill:none;stroke:red;stroke-width:1px;stroke-linecap:butt;stroke-linejoin:miter;stroke-opacity:1" d="M 419.462,510.553 429.46,516.108 z" id="boundary" inkscape:connector-curvature="0" />
	<path style="fill:none;stroke:red;stroke-width:1px;stroke-linecap:butt;stroke-linejoin:miter;stroke-opacity:1" d="M 429.46,516.108 437.236,524.994 z" id="boundary" inkscape:connector-curvature="0" />
	<path style="fill:none;stroke:red;stroke-width:1px;stroke-linecap:butt;stroke-linejoin:miter;stroke-opacity:1" d="M 379.471,564.985 389.469,570.54 z" id="boundary" inkscape:connector-curvature="0" />
	<path style="fill:none;stroke:red;stroke-width:1px;stroke-linecap:butt;stroke-linejoin:miter;stroke-opacity:1" d="M 402.8,589.424 398.356,578.316 z" id="boundary" inkscape:connector-curvature="0" />
	<path style="fill:none;stroke:red;stroke-width:1px;stroke-linecap:butt;stroke-linejoin:miter;stroke-opacity:1" d="M 398.356,578.316 389.469,570.54 z" id="boundary" inkscape:connector-curvature="0" />
	<path style="fill:none;stroke:red;stroke-width:1px;stroke-linecap:butt;stroke-linejoin:miter;stroke-opacity:1" d="M 437.236,524.994 442.791,534.992 z" id="boundary" inkscape:connector-curvature="0" />
	<path style="fill:none;stroke:red;stroke-width:1px;stroke-linecap:butt;stroke-linejoin:miter;stroke-opacity:1" d="M 442.791,534.992 448.345,544.99 z" id="boundary" inkscape:connector-curvature="0" />
	<path style="fill:none;stroke:red;stroke-width:1px;stroke-linecap:butt;stroke-linejoin:miter;stroke-opacity:1" d="M 456.121,553.877 448.345,544.99 z" id="boundary" inkscape:connector-curvature="0" />
	<path style="fill:none;stroke:red;stroke-width:1px;stroke-linecap:butt;stroke-linejoin:miter;stroke-opacity:1" d="M 465.008,560.542 456.121,553.877 z" id="boundary" inkscape:connector-curvature="0" />
	<path style="fill:none;stroke:red;stroke-width:1px;stroke-linecap:butt;stroke-linejoin:miter;stroke-opacity:1" d="M 475.006,566.096 465.008,560.542 z" id="boundary" inkscape:connector-curvature="0" />
	<path style="fill:none;stroke:red;stroke-width:1px;stroke-linecap:butt;stroke-linejoin:miter;stroke-opacity:1" d="M 405.021,600.533 402.8,589.424 z" id="boundary" inkscape:connector-curvature="0" />
	<path style="fill:none;stroke:red;stroke-width:1px;stroke-linecap:butt;stroke-linejoin:miter;stroke-opacity:1" d="M 485.003,571.651 496.112,571.651 z" id="boundary" inkscape:connector-curvature="0" />
	<path style="fill:none;stroke:red;stroke-width:1px;stroke-linecap:butt;stroke-linejoin:miter;stroke-opacity:1" d="M 485.003,571.651 475.006,566.096 z" id="boundary" inkscape:connector-curvature="0" />
	<path style="fill:none;stroke:red;stroke-width:1px;stroke-linecap:butt;stroke-linejoin:miter;stroke-opacity:1" d="M 511.664,587.203 514.997,598.311 z" id="boundary" inkscape:connector-curvature="0" />
	<path style="fill:none;stroke:red;stroke-width:1px;stroke-linecap:butt;stroke-linejoin:miter;stroke-opacity:1" d="M 511.664,587.203 506.11,577.205 z" id="boundary" inkscape:connector-curvature="0" />
	<path style="fill:none;stroke:red;stroke-width:1px;stroke-linecap:butt;stroke-linejoin:miter;stroke-opacity:1" d="M 517.218,609.42 514.997,598.311 z" id="boundary" inkscape:connector-curvature="0" />
	<path style="fill:none;stroke:red;stroke-width:1px;stroke-linecap:butt;stroke-linejoin:miter;stroke-opacity:1" d="M 496.112,571.651 506.11,577.205 z" id="boundary" inkscape:connector-curvature="0" />
	<path style="fill:none;stroke:red;stroke-width:1px;stroke-linecap:butt;stroke-linejoin:miter;stroke-opacity:1" d="M 382.804,638.302 388.358,627.194 z" id="boundary" inkscape:connector-curvature="0" />
	<path style="fill:none;stroke:red;stroke-width:1px;stroke-linecap:butt;stroke-linejoin:miter;stroke-opacity:1" d="M 388.358,627.194 397.245,619.418 z" id="boundary" inkscape:connector-curvature="0" />
	<path style="fill:none;stroke:red;stroke-width:1px;stroke-linecap:butt;stroke-linejoin:miter;stroke-opacity:1" d="M 397.245,619.418 405.021,600.533 z" id="boundary" inkscape:connector-curvature="0" />
	<path style="fill:none;stroke:red;stroke-width:1px;stroke-linecap:butt;stroke-linejoin:miter;stroke-opacity:1" d="M 492.779,651.633 481.671,657.187 z" id="boundary" inkscape:connector-curvature="0" />
	<path style="fill:none;stroke:red;stroke-width:1px;stroke-linecap:butt;stroke-linejoin:miter;stroke-opacity:1" d="M 481.671,657.187 481.671,668.296 z" id="boundary" inkscape:connector-curvature="0" />
	<path style="fill:none;stroke:red;stroke-width:1px;stroke-linecap:butt;stroke-linejoin:miter;stroke-opacity:1" d="M 487.225,689.402 481.671,679.404 z" id="boundary" inkscape:connector-curvature="0" />
	<path style="fill:none;stroke:red;stroke-width:1px;stroke-linecap:butt;stroke-linejoin:miter;stroke-opacity:1" d="M 481.671,679.404 481.671,668.296 z" id="boundary" inkscape:connector-curvature="0" />
	<path style="fill:none;stroke:red;stroke-width:1px;stroke-linecap:butt;stroke-linejoin:miter;stroke-opacity:1" d="M 487.225,689.402 495.001,698.289 z" id="boundary" inkscape:connector-curvature="0" />
	<path style="fill:none;stroke:red;stroke-width:1px;stroke-linecap:butt;stroke-linejoin:miter;stroke-opacity:1" d="M 506.11,699.4 495.001,698.289 z" id="boundary" inkscape:connector-curvature="0" />
	<path style="fill:none;stroke:red;stroke-width:1px;stroke-linecap:butt;stroke-linejoin:miter;stroke-opacity:1" d="M 492.779,651.633 503.888,648.3 z" id="boundary" inkscape:connector-curvature="0" />
	<path style="fill:none;stroke:red;stroke-width:1px;stroke-linecap:butt;stroke-linejoin:miter;stroke-opacity:1" d="M 503.888,648.3 513.886,642.746 z" id="boundary" inkscape:connector-curvature="0" />
	<path style="fill:none;stroke:red;stroke-width:1px;stroke-linecap:butt;stroke-linejoin:miter;stroke-opacity:1" d="M 520.551,620.529 522.773,631.637 z" id="boundary" inkscape:connector-curvature="0" />
	<path style="fill:none;stroke:red;stroke-width:1px;stroke-linecap:butt;stroke-linejoin:miter;stroke-opacity:1" d="M 520.551,620.529 517.218,609.42 z" id="boundary" inkscape:connector-curvature="0" />
	<path style="fill:none;stroke:red;stroke-width:1px;stroke-linecap:butt;stroke-linejoin:miter;stroke-opacity:1" d="M 523.884,648.3 522.773,631.637 z" id="boundary" inkscape:connector-curvature="0" />
	<path style="fill:none;stroke:red;stroke-width:1px;stroke-linecap:butt;stroke-linejoin:miter;stroke-opacity:1" d="M 517.218,699.4 506.11,699.4 z" id="boundary" inkscape:connector-curvature="0" />
	<path style="fill:none;stroke:red;stroke-width:1px;stroke-linecap:butt;stroke-linejoin:miter;stroke-opacity:1" d="M 528.327,699.4 517.218,699.4 z" id="boundary" inkscape:connector-curvature="0" />
	<path style="fill:none;stroke:red;stroke-width:1px;stroke-linecap:butt;stroke-linejoin:miter;stroke-opacity:1" d="M 528.327,699.4 539.436,699.4 z" id="boundary" inkscape:connector-curvature="0" />
	<path style="fill:none;stroke:red;stroke-width:1px;stroke-linecap:butt;stroke-linejoin:miter;stroke-opacity:1" d="M 550.544,699.4 539.436,699.4 z" id="boundary" inkscape:connector-curvature="0" />
	<path style="fill:none;stroke:red;stroke-width:1px;stroke-linecap:butt;stroke-linejoin:miter;stroke-opacity:1" d="M 577.205,510.553 582.759,520.551 z" id="boundary" inkscape:connector-curvature="0" />
	<path style="fill:none;stroke:red;stroke-width:1px;stroke-linecap:butt;stroke-linejoin:miter;stroke-opacity:1" d="M 582.759,520.551 582.759,531.66 z" id="boundary" inkscape:connector-curvature="0" />
	<path style="fill:none;stroke:red;stroke-width:1px;stroke-linecap:butt;stroke-linejoin:miter;stroke-opacity:1" d="M 618.307,516.108 607.198,516.108 z" id="boundary" inkscape:connector-curvature="0" />
	<path style="fill:none;stroke:red;stroke-width:1px;stroke-linecap:butt;stroke-linejoin:miter;stroke-opacity:1" d="M 607.198,516.108 597.2,510.553 z" id="boundary" inkscape:connector-curvature="0" />
	<path style="fill:none;stroke:red;stroke-width:1px;stroke-linecap:butt;stroke-linejoin:miter;stroke-opacity:1" d="M 587.203,504.999 597.2,510.553 z" id="boundary" inkscape:connector-curvature="0" />
	<path style="fill:none;stroke:red;stroke-width:1px;stroke-linecap:butt;stroke-linejoin:miter;stroke-opacity:1" d="M 618.307,516.108 628.305,521.662 z" id="boundary" inkscape:connector-curvature="0" />
	<path style="fill:none;stroke:red;stroke-width:1px;stroke-linecap:butt;stroke-linejoin:miter;stroke-opacity:1" d="M 628.305,521.662 639.413,521.662 z" id="boundary" inkscape:connector-curvature="0" />
	<path style="fill:none;stroke:red;stroke-width:1px;stroke-linecap:butt;stroke-linejoin:miter;stroke-opacity:1" d="M 639.413,521.662 649.411,527.216 z" id="boundary" inkscape:connector-curvature="0" />
	<path style="fill:none;stroke:red;stroke-width:1px;stroke-linecap:butt;stroke-linejoin:miter;stroke-opacity:1" d="M 649.411,527.216 660.52,527.216 z" id="boundary" inkscape:connector-curvature="0" />
	<path style="fill:none;stroke:red;stroke-width:1px;stroke-linecap:butt;stroke-linejoin:miter;stroke-opacity:1" d="M 671.628,527.216 660.52,527.216 z" id="boundary" inkscape:connector-curvature="0" />
	<path style="fill:none;stroke:red;stroke-width:1px;stroke-linecap:butt;stroke-linejoin:miter;stroke-opacity:1" d="M 738.28,527.216 727.171,527.216 z" id="boundary" inkscape:connector-curvature="0" />
	<path style="fill:none;stroke:red;stroke-width:1px;stroke-linecap:butt;stroke-linejoin:miter;stroke-opacity:1" d="M 793.823,521.662 782.714,521.662 z" id="boundary" inkscape:connector-curvature="0" />
	<path style="fill:none;stroke:red;stroke-width:1px;stroke-linecap:butt;stroke-linejoin:miter;stroke-opacity:1" d="M 804.932,516.108 793.823,521.662 z" id="boundary" inkscape:connector-curvature="0" />
	<path style="fill:none;stroke:red;stroke-width:1px;stroke-linecap:butt;stroke-linejoin:miter;stroke-opacity:1" d="M 826.038,510.553 816.04,516.108 z" id="boundary" inkscape:connector-curvature="0" />
	<path style="fill:none;stroke:red;stroke-width:1px;stroke-linecap:butt;stroke-linejoin:miter;stroke-opacity:1" d="M 816.04,516.108 804.932,516.108 z" id="boundary" inkscape:connector-curvature="0" />
	<path style="fill:none;stroke:red;stroke-width:1px;stroke-linecap:butt;stroke-linejoin:miter;stroke-opacity:1" d="M 716.063,527.216 704.954,527.216 z" id="boundary" inkscape:connector-curvature="0" />
	<path style="fill:none;stroke:red;stroke-width:1px;stroke-linecap:butt;stroke-linejoin:miter;stroke-opacity:1" d="M 682.737,527.216 693.845,527.216 z" id="boundary" inkscape:connector-curvature="0" />
	<path style="fill:none;stroke:red;stroke-width:1px;stroke-linecap:butt;stroke-linejoin:miter;stroke-opacity:1" d="M 682.737,527.216 671.628,527.216 z" id="boundary" inkscape:connector-curvature="0" />
	<path style="fill:none;stroke:red;stroke-width:1px;stroke-linecap:butt;stroke-linejoin:miter;stroke-opacity:1" d="M 704.954,527.216 693.845,527.216 z" id="boundary" inkscape:connector-curvature="0" />
	<path style="fill:none;stroke:red;stroke-width:1px;stroke-linecap:butt;stroke-linejoin:miter;stroke-opacity:1" d="M 727.171,527.216 716.063,527.216 z" id="boundary" inkscape:connector-curvature="0" />
	<path style="fill:none;stroke:red;stroke-width:1px;stroke-linecap:butt;stroke-linejoin:miter;stroke-opacity:1" d="M 771.606,527.216 782.714,521.662 z" id="boundary" inkscape:connector-curvature="0" />
	<path style="fill:none;stroke:red;stroke-width:1px;stroke-linecap:butt;stroke-linejoin:miter;stroke-opacity:1" d="M 571.651,577.205 571.651,588.314 z" id="boundary" inkscape:connector-curvature="0" />
	<path style="fill:none;stroke:red;stroke-width:1px;stroke-linecap:butt;stroke-linejoin:miter;stroke-opacity:1" d="M 571.651,577.205 571.651,566.096 z" id="boundary" inkscape:connector-curvature="0" />
	<path style="fill:none;stroke:red;stroke-width:1px;stroke-linecap:butt;stroke-linejoin:miter;stroke-opacity:1" d="M 571.651,566.096 577.205,554.988 z" id="boundary" inkscape:connector-curvature="0" />
	<path style="fill:none;stroke:red;stroke-width:1px;stroke-linecap:butt;stroke-linejoin:miter;stroke-opacity:1" d="M 571.651,599.422 571.651,588.314 z" id="boundary" inkscape:connector-curvature="0" />
	<path style="fill:none;stroke:red;stroke-width:1px;stroke-linecap:butt;stroke-linejoin:miter;stroke-opacity:1" d="M 571.651,599.422 571.651,610.531 z" id="boundary" inkscape:connector-curvature="0" />
	<path style="fill:none;stroke:red;stroke-width:1px;stroke-linecap:butt;stroke-linejoin:miter;stroke-opacity:1" d="M 577.205,642.746 577.205,653.854 z" id="boundary" inkscape:connector-curvature="0" />
	<path style="fill:none;stroke:red;stroke-width:1px;stroke-linecap:butt;stroke-linejoin:miter;stroke-opacity:1" d="M 572.761,699.4 561.653,699.4 z" id="boundary" inkscape:connector-curvature="0" />
	<path style="fill:none;stroke:red;stroke-width:1px;stroke-linecap:butt;stroke-linejoin:miter;stroke-opacity:1" d="M 577.205,687.18 572.761,699.4 z" id="boundary" inkscape:connector-curvature="0" />
	<path style="fill:none;stroke:red;stroke-width:1px;stroke-linecap:butt;stroke-linejoin:miter;stroke-opacity:1" d="M 571.651,610.531 577.205,620.529 z" id="boundary" inkscape:connector-curvature="0" />
	<path style="fill:none;stroke:red;stroke-width:1px;stroke-linecap:butt;stroke-linejoin:miter;stroke-opacity:1" d="M 577.205,620.529 577.205,631.637 z" id="boundary" inkscape:connector-curvature="0" />
	<path style="fill:none;stroke:red;stroke-width:1px;stroke-linecap:butt;stroke-linejoin:miter;stroke-opacity:1" d="M 577.205,631.637 577.205,642.746 z" id="boundary" inkscape:connector-curvature="0" />
	<path style="fill:none;stroke:red;stroke-width:1px;stroke-linecap:butt;stroke-linejoin:miter;stroke-opacity:1" d="M 577.205,554.988 586.092,547.212 z" id="boundary" inkscape:connector-curvature="0" />
	<path style="fill:none;stroke:red;stroke-width:1px;stroke-linecap:butt;stroke-linejoin:miter;stroke-opacity:1" d="M 586.092,547.212 582.759,531.66 z" id="boundary" inkscape:connector-curvature="0" />
	<path style="fill:none;stroke:red;stroke-width:1px;stroke-linecap:butt;stroke-linejoin:miter;stroke-opacity:1" d="M 738.28,527.216 749.389,527.216 z" id="boundary" inkscape:connector-curvature="0" />
	<path style="fill:none;stroke:red;stroke-width:1px;stroke-linecap:butt;stroke-linejoin:miter;stroke-opacity:1" d="M 760.497,527.216 749.389,527.216 z" id="boundary" inkscape:connector-curvature="0" />
	<path style="fill:none;stroke:red;stroke-width:1px;stroke-linecap:butt;stroke-linejoin:miter;stroke-opacity:1" d="M 771.606,527.216 760.497,527.216 z" id="boundary" inkscape:connector-curvature="0" />
	<path style="fill:none;stroke:red;stroke-width:1px;stroke-linecap:butt;stroke-linejoin:miter;stroke-opacity:1" d="M 577.205,653.854 577.205,664.963 z" id="boundary" inkscape:connector-curvature="0" />
	<path style="fill:none;stroke:red;stroke-width:1px;stroke-linecap:butt;stroke-linejoin:miter;stroke-opacity:1" d="M 577.205,664.963 577.205,676.072 z" id="boundary" inkscape:connector-curvature="0" />
	<path style="fill:none;stroke:red;stroke-width:1px;stroke-linecap:butt;stroke-linejoin:miter;stroke-opacity:1" d="M 577.205,687.18 577.205,676.072 z" id="boundary" inkscape:connector-curvature="0" />
	<path style="fill:none;stroke:red;stroke-width:1px;stroke-linecap:butt;stroke-linejoin:miter;stroke-opacity:1" d="M 561.653,699.4 550.544,699.4 z" id="boundary" inkscape:connector-curvature="0" />
	<circle cx="4" cy="79.5386" r="4" fill="#0" id="circle0"/>
	<circle cx="4" cy="90.6473" r="4" fill="#0" id="circle1"/>
	<circle cx="4" cy="101.756" r="4" fill="#0" id="circle2"/>
	<circle cx="4" cy="112.865" r="4" fill="#0" id="circle3"/>
	<circle cx="4" cy="123.973" r="4" fill="#0" id="circle4"/>
	<circle cx="4" cy="135.082" r="4" fill="#0" id="circle5"/>
	<circle cx="12.8869" cy="70.6517" r="4" fill="#0" id="circle6"/>
	<circle cx="12.8869" cy="142.858" r="4" fill="#0" id="circle7"/>
	<circle cx="20.6629" cy="168.408" r="4" fill="#0" id="circle8"/>
	<circle cx="20.6629" cy="273.94" r="4" fill="#0" id="circle9"/>
	<circle cx="20.6629" cy="285.048" r="4" fill="#0" id="circle10"/>
	<circle cx="20.6629" cy="296.157" r="4" fill="#0" id="circle11"/>
	<circle cx="22.8847" cy="65.0974" r="4" fill="#0" id="circle12"/>
	<circle cx="23.9955" cy="138.414" r="4" fill="#0" id="circle13"/>
	<circle cx="26.2172" cy="178.405" r="4" fill="#0" id="circle14"/>
	<circle cx="26.2172" cy="306.155" r="4" fill="#0" id="circle15"/>
	<circle cx="29.5498" cy="159.521" r="4" fill="#0" id="circle16"/>
	<circle cx="29.5498" cy="265.053" r="4" fill="#0" id="circle17"/>
	<circle cx="31.7716" cy="57.3214" r="4" fill="#0" id="circle18"/>
	<circle cx="33.9933" cy="132.86" r="4" fill="#0" id="circle19"/>
	<circle cx="33.9933" cy="187.292" r="4" fill="#0" id="circle20"/>
	<circle cx="37.3259" cy="310.598" r="4" fill="#0" id="circle21"/>
	<circle cx="39.5476" cy="153.966" r="4" fill="#0" id="circle22"/>
	<circle cx="40.6585" cy="265.053" r="4" fill="#0" id="circle23"/>
	<circle cx="42.8802" cy="46.2128" r="4" fill="#0" id="circle24"/>
	<circle cx="42.8802" cy="193.957" r="4" fill="#0" id="circle25"/>
	<circle cx="45.1019" cy="132.86" r="4" fill="#0" id="circle26"/>
	<circle cx="48.4345" cy="35.1041" r="4" fill="#0" id="circle27"/>
	<circle cx="48.4345" cy="146.19" r="4" fill="#0" id="circle28"/>
	<circle cx="48.4345" cy="310.598" r="4" fill="#0" id="circle29"/>
	<circle cx="51.7671" cy="265.053" r="4" fill="#0" id="circle30"/>
	<circle cx="52.8779" cy="199.512" r="4" fill="#0" id="circle31"/>
	<circle cx="53.9888" cy="23.9955" r="4" fill="#0" id="circle32"/>
	<circle cx="55.0997" cy="127.306" r="4" fill="#0" id="circle33"/>
	<circle cx="57.3214" cy="138.414" r="4" fill="#0" id="circle34"/>
	<circle cx="59.5431" cy="12.8869" r="4" fill="#0" id="circle35"/>
	<circle cx="59.5431" cy="310.598" r="4" fill="#0" id="circle36"/>
	<circle cx="62.8757" cy="265.053" r="4" fill="#0" id="circle37"/>
	<circle cx="63.9866" cy="199.512" r="4" fill="#0" id="circle38"/>
	<circle cx="65.0974" cy="121.751" r="4" fill="#0" id="circle39"/>
	<circle cx="67.3191" cy="132.86" r="4" fill="#0" id="circle40"/>
	<circle cx="70.6517" cy="9.55431" r="4" fill="#0" id="circle41"/>
	<circle cx="70.6517" cy="310.598" r="4" fill="#0" id="circle42"/>
	<circle cx="72.8735" cy="270.607" r="4" fill="#0" id="circle43"/>
	<circle cx="75.0952" cy="197.29" r="4" fill="#0" id="circle44"/>
	<circle cx="81.7604" cy="9.55431" r="4" fill="#0" id="circle45"/>
	<circle cx="81.7604" cy="310.598" r="4" fill="#0" id="circle46"/>
	<circle cx="82.8712" cy="276.161" r="4" fill="#0" id="circle47"/>
	<circle cx="86.2038" cy="193.957" r="4" fill="#0" id="circle48"/>
	<circle cx="91.7581" cy="15.1086" r="4" fill="#0" id="circle49"/>
	<circle cx="92.869" cy="270.607" r="4" fill="#0" id="circle50"/>
	<circle cx="92.869" cy="310.598" r="4" fill="#0" id="circle51"/>
	<circle cx="96.2016" cy="188.403" r="4" fill="#0" id="circle52"/>
	<circle cx="102.867" cy="15.1086" r="4" fill="#0" id="circle53"/>
	<circle cx="102.867" cy="316.152" r="4" fill="#0" id="circle54"/>
	<circle cx="103.978" cy="268.385" r="4" fill="#0" id="circle55"/>
	<circle cx="107.31" cy="187.292" r="4" fill="#0" id="circle56"/>
	<circle cx="109.532" cy="218.396" r="4" fill="#0" id="circle57"/>
	<circle cx="109.532" cy="229.505" r="4" fill="#0" id="circle58"/>
	<circle cx="112.865" cy="9.55431" r="4" fill="#0" id="circle59"/>
	<circle cx="112.865" cy="259.498" r="4" fill="#0" id="circle60"/>
	<circle cx="113.975" cy="316.152" r="4" fill="#0" id="circle61"/>
	<circle cx="115.086" cy="201.733" r="4" fill="#0" id="circle62"/>
	<circle cx="115.086" cy="239.503" r="4" fill="#0" id="circle63"/>
	<circle cx="118.419" cy="182.849" r="4" fill="#0" id="circle64"/>
	<circle cx="123.973" cy="9.55431" r="4" fill="#0" id="circle65"/>
	<circle cx="123.973" cy="192.847" r="4" fill="#0" id="circle66"/>
	<circle cx="125.084" cy="316.152" r="4" fill="#0" id="circle67"/>
	<circle cx="129.527" cy="182.849" r="4" fill="#0" id="circle68"/>
	<circle cx="135.082" cy="4" r="4" fill="#0" id="circle69"/>
	<circle cx="136.193" cy="316.152" r="4" fill="#0" id="circle70"/>
	<circle cx="146.19" cy="4" r="4" fill="#0" id="circle71"/>
	<circle cx="146.19" cy="309.487" r="4" fill="#0" id="circle72"/>
	<circle cx="155.077" cy="299.489" r="4" fill="#0" id="circle73"/>
	<circle cx="157.299" cy="4" r="4" fill="#0" id="circle74"/>
	<circle cx="165.075" cy="293.935" r="4" fill="#0" id="circle75"/>
	<circle cx="167.297" cy="9.55431" r="4" fill="#0" id="circle76"/>
	<circle cx="170.629" cy="303.933" r="4" fill="#0" id="circle77"/>
	<circle cx="176.184" cy="313.931" r="4" fill="#0" id="circle78"/>
	<circle cx="177.295" cy="325.039" r="4" fill="#0" id="circle79"/>
	<circle cx="178.405" cy="9.55431" r="4" fill="#0" id="circle80"/>
	<circle cx="182.849" cy="335.037" r="4" fill="#0" id="circle81"/>
	<circle cx="187.292" cy="17.3303" r="4" fill="#0" id="circle82"/>
	<circle cx="187.292" cy="346.146" r="4" fill="#0" id="circle83"/>
	<circle cx="196.179" cy="353.922" r="4" fill="#0" id="circle84"/>
	<circle cx="197.29" cy="22.8847" r="4" fill="#0" id="circle85"/>
	<circle cx="203.955" cy="362.809" r="4" fill="#0" id="circle86"/>
	<circle cx="205.066" cy="31.7716" r="4" fill="#0" id="circle87"/>
	<circle cx="210.62" cy="41.7693" r="4" fill="#0" id="circle88"/>
	<circle cx="212.842" cy="370.585" r="4" fill="#0" id="circle89"/>
	<circle cx="219.507" cy="49.5454" r="4" fill="#0" id="circle90"/>
	<circle cx="222.84" cy="376.139" r="4" fill="#0" id="circle91"/>
	<circle cx="223.951" cy="60.654" r="4" fill="#0" id="circle92"/>
	<circle cx="229.505" cy="70.6517" r="4" fill="#0" id="circle93"/>
	<circle cx="231.727" cy="382.804" r="4" fill="#0" id="circle94"/>
	<circle cx="232.838" cy="81.7604" r="4" fill="#0" id="circle95"/>
	<circle cx="238.392" cy="91.7581" r="4" fill="#0" id="circle96"/>
	<circle cx="241.725" cy="388.358" r="4" fill="#0" id="circle97"/>
	<circle cx="243.946" cy="101.756" r="4" fill="#0" id="circle98"/>
	<circle cx="248.39" cy="112.865" r="4" fill="#0" id="circle99"/>
	<circle cx="248.39" cy="468.34" r="4" fill="#0" id="circle100"/>
	<circle cx="251.722" cy="393.913" r="4" fill="#0" id="circle101"/>
	<circle cx="253.944" cy="457.232" r="4" fill="#0" id="circle102"/>
	<circle cx="253.944" cy="478.338" r="4" fill="#0" id="circle103"/>
	<circle cx="253.944" cy="489.447" r="4" fill="#0" id="circle104"/>
	<circle cx="257.277" cy="120.641" r="4" fill="#0" id="circle105"/>
	<circle cx="259.498" cy="402.8" r="4" fill="#0" id="circle106"/>
	<circle cx="259.498" cy="435.015" r="4" fill="#0" id="circle107"/>
	<circle cx="259.498" cy="446.123" r="4" fill="#0" id="circle108"/>
	<circle cx="259.498" cy="499.445" r="4" fill="#0" id="circle109"/>
	<circle cx="262.831" cy="510.553" r="4" fill="#0" id="circle110"/>
	<circle cx="265.053" cy="412.797" r="4" fill="#0" id="circle111"/>
	<circle cx="265.053" cy="423.906" r="4" fill="#0" id="circle112"/>
	<circle cx="265.053" cy="668.296" r="4" fill="#0" id="circle113"/>
	<circle cx="265.053" cy="679.404" r="4" fill="#0" id="circle114"/>
	<circle cx="265.053" cy="696.067" r="4" fill="#0" id="circle115"/>
	<circle cx="265.053" cy="707.176" r="4" fill="#0" id="circle116"/>
	<circle cx="267.274" cy="126.195" r="4" fill="#0" id="circle117"/>
	<circle cx="268.385" cy="520.551" r="4" fill="#0" id="circle118"/>
	<circle cx="272.829" cy="531.66" r="4" fill="#0" id="circle119"/>
	<circle cx="273.94" cy="714.952" r="4" fill="#0" id="circle120"/>
	<circle cx="276.161" cy="662.741" r="4" fill="#0" id="circle121"/>
	<circle cx="277.272" cy="131.749" r="4" fill="#0" id="circle122"/>
	<circle cx="278.383" cy="541.657" r="4" fill="#0" id="circle123"/>
	<circle cx="282.826" cy="552.766" r="4" fill="#0" id="circle124"/>
	<circle cx="285.048" cy="716.063" r="4" fill="#0" id="circle125"/>
	<circle cx="287.27" cy="137.303" r="4" fill="#0" id="circle126"/>
	<circle cx="287.27" cy="659.409" r="4" fill="#0" id="circle127"/>
	<circle cx="291.713" cy="560.542" r="4" fill="#0" id="circle128"/>
	<circle cx="296.157" cy="716.063" r="4" fill="#0" id="circle129"/>
	<circle cx="297.268" cy="142.858" r="4" fill="#0" id="circle130"/>
	<circle cx="298.378" cy="659.409" r="4" fill="#0" id="circle131"/>
	<circle cx="299.489" cy="569.429" r="4" fill="#0" id="circle132"/>
	<circle cx="307.265" cy="716.063" r="4" fill="#0" id="circle133"/>
	<circle cx="308.376" cy="143.969" r="4" fill="#0" id="circle134"/>
	<circle cx="309.487" cy="659.409" r="4" fill="#0" id="circle135"/>
	<circle cx="310.598" cy="573.872" r="4" fill="#0" id="circle136"/>
	<circle cx="316.152" cy="152.856" r="4" fill="#0" id="circle137"/>
	<circle cx="317.263" cy="710.508" r="4" fill="#0" id="circle138"/>
	<circle cx="318.374" cy="582.759" r="4" fill="#0" id="circle139"/>
	<circle cx="319.485" cy="653.854" r="4" fill="#0" id="circle140"/>
	<circle cx="320.596" cy="593.868" r="4" fill="#0" id="circle141"/>
	<circle cx="320.596" cy="604.976" r="4" fill="#0" id="circle142"/>
	<circle cx="320.596" cy="616.085" r="4" fill="#0" id="circle143"/>
	<circle cx="320.596" cy="627.194" r="4" fill="#0" id="circle144"/>
	<circle cx="320.596" cy="638.302" r="4" fill="#0" id="circle145"/>
	<circle cx="327.261" cy="157.299" r="4" fill="#0" id="circle146"/>
	<circle cx="328.372" cy="710.508" r="4" fill="#0" id="circle147"/>
	<circle cx="338.37" cy="159.521" r="4" fill="#0" id="circle148"/>
	<circle cx="339.48" cy="710.508" r="4" fill="#0" id="circle149"/>
	<circle cx="347.256" cy="166.186" r="4" fill="#0" id="circle150"/>
	<circle cx="350.589" cy="710.508" r="4" fill="#0" id="circle151"/>
	<circle cx="357.254" cy="171.74" r="4" fill="#0" id="circle152"/>
	<circle cx="359.476" cy="701.622" r="4" fill="#0" id="circle153"/>
	<circle cx="365.03" cy="690.513" r="4" fill="#0" id="circle154"/>
	<circle cx="368.363" cy="176.184" r="4" fill="#0" id="circle155"/>
	<circle cx="370.585" cy="679.404" r="4" fill="#0" id="circle156"/>
	<circle cx="371.695" cy="532.77" r="4" fill="#0" id="circle157"/>
	<circle cx="371.695" cy="543.879" r="4" fill="#0" id="circle158"/>
	<circle cx="371.695" cy="666.074" r="4" fill="#0" id="circle159"/>
	<circle cx="373.917" cy="554.988" r="4" fill="#0" id="circle160"/>
	<circle cx="377.25" cy="649.411" r="4" fill="#0" id="circle161"/>
	<circle cx="378.361" cy="181.738" r="4" fill="#0" id="circle162"/>
	<circle cx="379.471" cy="564.985" r="4" fill="#0" id="circle163"/>
	<circle cx="380.582" cy="524.994" r="4" fill="#0" id="circle164"/>
	<circle cx="382.804" cy="638.302" r="4" fill="#0" id="circle165"/>
	<circle cx="388.358" cy="187.292" r="4" fill="#0" id="circle166"/>
	<circle cx="388.358" cy="627.194" r="4" fill="#0" id="circle167"/>
	<circle cx="389.469" cy="570.54" r="4" fill="#0" id="circle168"/>
	<circle cx="391.691" cy="519.44" r="4" fill="#0" id="circle169"/>
	<circle cx="397.245" cy="619.418" r="4" fill="#0" id="circle170"/>
	<circle cx="398.356" cy="578.316" r="4" fill="#0" id="circle171"/>
	<circle cx="399.467" cy="187.292" r="4" fill="#0" id="circle172"/>
	<circle cx="399.467" cy="510.553" r="4" fill="#0" id="circle173"/>
	<circle cx="402.8" cy="589.424" r="4" fill="#0" id="circle174"/>
	<circle cx="405.021" cy="600.533" r="4" fill="#0" id="circle175"/>
	<circle cx="409.465" cy="192.847" r="4" fill="#0" id="circle176"/>
	<circle cx="409.465" cy="504.999" r="4" fill="#0" id="circle177"/>
	<circle cx="419.462" cy="510.553" r="4" fill="#0" id="circle178"/>
	<circle cx="420.573" cy="195.068" r="4" fill="#0" id="circle179"/>
	<circle cx="429.46" cy="516.108" r="4" fill="#0" id="circle180"/>
	<circle cx="431.682" cy="198.401" r="4" fill="#0" id="circle181"/>
	<circle cx="437.236" cy="524.994" r="4" fill="#0" id="circle182"/>
	<circle cx="441.68" cy="203.955" r="4" fill="#0" id="circle183"/>
	<circle cx="442.791" cy="534.992" r="4" fill="#0" id="circle184"/>
	<circle cx="448.345" cy="544.99" r="4" fill="#0" id="circle185"/>
	<circle cx="452.788" cy="205.066" r="4" fill="#0" id="circle186"/>
	<circle cx="456.121" cy="553.877" r="4" fill="#0" id="circle187"/>
	<circle cx="460.564" cy="213.953" r="4" fill="#0" id="circle188"/>
	<circle cx="465.008" cy="560.542" r="4" fill="#0" id="circle189"/>
	<circle cx="471.673" cy="215.064" r="4" fill="#0" id="circle190"/>
	<circle cx="475.006" cy="566.096" r="4" fill="#0" id="circle191"/>
	<circle cx="481.671" cy="220.618" r="4" fill="#0" id="circle192"/>
	<circle cx="481.671" cy="657.187" r="4" fill="#0" id="circle193"/>
	<circle cx="481.671" cy="668.296" r="4" fill="#0" id="circle194"/>
	<circle cx="481.671" cy="679.404" r="4" fill="#0" id="circle195"/>
	<circle cx="485.003" cy="571.651" r="4" fill="#0" id="circle196"/>
	<circle cx="487.225" cy="689.402" r="4" fill="#0" id="circle197"/>
	<circle cx="491.669" cy="226.172" r="4" fill="#0" id="circle198"/>
	<circle cx="492.779" cy="651.633" r="4" fill="#0" id="circle199"/>
	<circle cx="495.001" cy="698.289" r="4" fill="#0" id="circle200"/>
	<circle cx="496.112" cy="571.651" r="4" fill="#0" id="circle201"/>
	<circle cx="501.666" cy="231.727" r="4" fill="#0" id="circle202"/>
	<circle cx="503.888" cy="648.3" r="4" fill="#0" id="circle203"/>
	<circle cx="506.11" cy="577.205" r="4" fill="#0" id="circle204"/>
	<circle cx="506.11" cy="699.4" r="4" fill="#0" id="circle205"/>
	<circle cx="509.442" cy="240.614" r="4" fill="#0" id="circle206"/>
	<circle cx="511.664" cy="587.203" r="4" fill="#0" id="circle207"/>
	<circle cx="513.886" cy="642.746" r="4" fill="#0" id="circle208"/>
	<circle cx="514.997" cy="598.311" r="4" fill="#0" id="circle209"/>
	<circle cx="516.108" cy="249.501" r="4" fill="#0" id="circle210"/>
	<circle cx="517.218" cy="609.42" r="4" fill="#0" id="circle211"/>
	<circle cx="517.218" cy="699.4" r="4" fill="#0" id="circle212"/>
	<circle cx="520.551" cy="620.529" r="4" fill="#0" id="circle213"/>
	<circle cx="521.662" cy="259.498" r="4" fill="#0" id="circle214"/>
	<circle cx="522.773" cy="631.637" r="4" fill="#0" id="circle215"/>
	<circle cx="523.884" cy="648.3" r="4" fill="#0" id="circle216"/>
	<circle cx="528.327" cy="699.4" r="4" fill="#0" id="circle217"/>
	<circle cx="530.549" cy="266.163" r="4" fill="#0" id="circle218"/>
	<circle cx="534.992" cy="277.272" r="4" fill="#0" id="circle219"/>
	<circle cx="539.436" cy="699.4" r="4" fill="#0" id="circle220"/>
	<circle cx="540.546" cy="287.27" r="4" fill="#0" id="circle221"/>
	<circle cx="543.879" cy="298.378" r="4" fill="#0" id="circle222"/>
	<circle cx="549.433" cy="308.376" r="4" fill="#0" id="circle223"/>
	<circle cx="550.544" cy="699.4" r="4" fill="#0" id="circle224"/>
	<circle cx="558.32" cy="316.152" r="4" fill="#0" id="circle225"/>
	<circle cx="561.653" cy="699.4" r="4" fill="#0" id="circle226"/>
	<circle cx="568.318" cy="321.707" r="4" fill="#0" id="circle227"/>
	<circle cx="571.651" cy="566.096" r="4" fill="#0" id="circle228"/>
	<circle cx="571.651" cy="577.205" r="4" fill="#0" id="circle229"/>
	<circle cx="571.651" cy="588.314" r="4" fill="#0" id="circle230"/>
	<circle cx="571.651" cy="599.422" r="4" fill="#0" id="circle231"/>
	<circle cx="571.651" cy="610.531" r="4" fill="#0" id="circle232"/>
	<circle cx="572.761" cy="699.4" r="4" fill="#0" id="circle233"/>
	<circle cx="577.205" cy="329.483" r="4" fill="#0" id="circle234"/>
	<circle cx="577.205" cy="510.553" r="4" fill="#0" id="circle235"/>
	<circle cx="577.205" cy="554.988" r="4" fill="#0" id="circle236"/>
	<circle cx="577.205" cy="620.529" r="4" fill="#0" id="circle237"/>
	<circle cx="577.205" cy="631.637" r="4" fill="#0" id="circle238"/>
	<circle cx="577.205" cy="642.746" r="4" fill="#0" id="circle239"/>
	<circle cx="577.205" cy="653.854" r="4" fill="#0" id="circle240"/>
	<circle cx="577.205" cy="664.963" r="4" fill="#0" id="circle241"/>
	<circle cx="577.205" cy="676.072" r="4" fill="#0" id="circle242"/>
	<circle cx="577.205" cy="687.18" r="4" fill="#0" id="circle243"/>
	<circle cx="582.759" cy="520.551" r="4" fill="#0" id="circle244"/>
	<circle cx="582.759" cy="531.66" r="4" fill="#0" id="circle245"/>
	<circle cx="586.092" cy="337.259" r="4" fill="#0" id="circle246"/>
	<circle cx="586.092" cy="547.212" r="4" fill="#0" id="circle247"/>
	<circle cx="587.203" cy="504.999" r="4" fill="#0" id="circle248"/>
	<circle cx="597.2" cy="338.37" r="4" fill="#0" id="circle249"/>
	<circle cx="597.2" cy="510.553" r="4" fill="#0" id="circle250"/>
	<circle cx="607.198" cy="343.924" r="4" fill="#0" id="circle251"/>
	<circle cx="607.198" cy="516.108" r="4" fill="#0" id="circle252"/>
	<circle cx="618.307" cy="348.367" r="4" fill="#0" id="circle253"/>
	<circle cx="618.307" cy="516.108" r="4" fill="#0" id="circle254"/>
	<circle cx="628.305" cy="353.922" r="4" fill="#0" id="circle255"/>
	<circle cx="628.305" cy="521.662" r="4" fill="#0" id="circle256"/>
	<circle cx="638.302" cy="359.476" r="4" fill="#0" id="circle257"/>
	<circle cx="639.413" cy="521.662" r="4" fill="#0" id="circle258"/>
	<circle cx="649.411" cy="359.476" r="4" fill="#0" id="circle259"/>
	<circle cx="649.411" cy="527.216" r="4" fill="#0" id="circle260"/>
	<circle cx="659.409" cy="365.03" r="4" fill="#0" id="circle261"/>
	<circle cx="660.52" cy="527.216" r="4" fill="#0" id="circle262"/>
	<circle cx="669.406" cy="370.585" r="4" fill="#0" id="circle263"/>
	<circle cx="671.628" cy="527.216" r="4" fill="#0" id="circle264"/>
	<circle cx="680.515" cy="370.585" r="4" fill="#0" id="circle265"/>
	<circle cx="682.737" cy="527.216" r="4" fill="#0" id="circle266"/>
	<circle cx="691.624" cy="371.695" r="4" fill="#0" id="circle267"/>
	<circle cx="693.845" cy="527.216" r="4" fill="#0" id="circle268"/>
	<circle cx="702.732" cy="376.139" r="4" fill="#0" id="circle269"/>
	<circle cx="704.954" cy="527.216" r="4" fill="#0" id="circle270"/>
	<circle cx="712.73" cy="381.693" r="4" fill="#0" id="circle271"/>
	<circle cx="716.063" cy="527.216" r="4" fill="#0" id="circle272"/>
	<circle cx="723.839" cy="381.693" r="4" fill="#0" id="circle273"/>
	<circle cx="727.171" cy="527.216" r="4" fill="#0" id="circle274"/>
	<circle cx="733.837" cy="387.247" r="4" fill="#0" id="circle275"/>
	<circle cx="738.28" cy="527.216" r="4" fill="#0" id="circle276"/>
	<circle cx="744.945" cy="387.247" r="4" fill="#0" id="circle277"/>
	<circle cx="749.389" cy="527.216" r="4" fill="#0" id="circle278"/>
	<circle cx="756.054" cy="387.247" r="4" fill="#0" id="circle279"/>
	<circle cx="760.497" cy="527.216" r="4" fill="#0" id="circle280"/>
	<circle cx="766.052" cy="392.802" r="4" fill="#0" id="circle281"/>
	<circle cx="771.606" cy="527.216" r="4" fill="#0" id="circle282"/>
	<circle cx="777.16" cy="392.802" r="4" fill="#0" id="circle283"/>
	<circle cx="782.714" cy="521.662" r="4" fill="#0" id="circle284"/>
	<circle cx="788.269" cy="392.802" r="4" fill="#0" id="circle285"/>
	<circle cx="793.823" cy="521.662" r="4" fill="#0" id="circle286"/>
	<circle cx="799.377" cy="392.802" r="4" fill="#0" id="circle287"/>
	<circle cx="804.932" cy="516.108" r="4" fill="#0" id="circle288"/>
	<circle cx="810.486" cy="392.802" r="4" fill="#0" id="circle289"/>
	<circle cx="816.04" cy="516.108" r="4" fill="#0" id="circle290"/>
	<circle cx="821.595" cy="392.802" r="4" fill="#0" id="circle291"/>
	<circle cx="826.038" cy="510.553" r="4" fill="#0" id="circle292"/>
	<circle cx="832.703" cy="392.802" r="4" fill="#0" id="circle293"/>
	<circle cx="837.147" cy="507.221" r="4" fill="#0" id="circle294"/>
	<circle cx="843.812" cy="396.134" r="4" fill="#0" id="circle295"/>
	<circle cx="848.255" cy="501.666" r="4" fill="#0" id="circle296"/>
	<circle cx="854.92" cy="398.356" r="4" fill="#0" id="circle297"/>
	<circle cx="859.364" cy="499.445" r="4" fill="#0" id="circle298"/>
	<circle cx="866.029" cy="398.356" r="4" fill="#0" id="circle299"/>
	<circle cx="868.251" cy="492.779" r="4" fill="#0" id="circle300"/>
	<circle cx="876.027" cy="403.91" r="4" fill="#0" id="circle301"/>
	<circle cx="879.359" cy="487.225" r="4" fill="#0" id="circle302"/>
	<circle cx="886.025" cy="398.356" r="4" fill="#0" id="circle303"/>
	<circle cx="888.246" cy="477.227" r="4" fill="#0" id="circle304"/>
	<circle cx="893.801" cy="466.119" r="4" fill="#0" id="circle305"/>
	<circle cx="897.133" cy="398.356" r="4" fill="#0" id="circle306"/>
	<circle cx="902.688" cy="458.343" r="4" fill="#0" id="circle307"/>
	<circle cx="907.131" cy="392.802" r="4" fill="#0" id="circle308"/>
	<circle cx="913.796" cy="455.01" r="4" fill="#0" id="circle309"/>
	<circle cx="918.24" cy="392.802" r="4" fill="#0" id="circle310"/>
	<circle cx="923.794" cy="449.456" r="4" fill="#0" id="circle311"/>
	<circle cx="929.348" cy="392.802" r="4" fill="#0" id="circle312"/>
	<circle cx="934.903" cy="448.345" r="4" fill="#0" id="circle313"/>
	<circle cx="940.457" cy="392.802" r="4" fill="#0" id="circle314"/>
	<circle cx="946.011" cy="443.901" r="4" fill="#0" id="circle315"/>
	<circle cx="951.566" cy="392.802" r="4" fill="#0" id="circle316"/>
	<circle cx="956.009" cy="438.347" r="4" fill="#0" id="circle317"/>
	<circle cx="962.674" cy="392.802" r="4" fill="#0" id="circle318"/>
	<circle cx="967.118" cy="438.347" r="4" fill="#0" id="circle319"/>
	<circle cx="973.783" cy="387.247" r="4" fill="#0" id="circle320"/>
	<circle cx="976.004" cy="429.46" r="4" fill="#0" id="circle321"/>
	<circle cx="984.891" cy="387.247" r="4" fill="#0" id="circle322"/>
	<circle cx="987.113" cy="427.239" r="4" fill="#0" id="circle323"/>
	<circle cx="993.778" cy="405.021" r="4" fill="#0" id="circle324"/>
	<circle cx="993.778" cy="416.13" r="4" fill="#0" id="circle325"/>
	<circle cx="996" cy="387.247" r="4" fill="#0" id="circle326"/>
	</g>
</svg>