<?xml version="1.0" encoding="UTF-8" standalone="no"?>
<!-- Created with CurveBenchmark -->
<svg
	xmlns:dc="http://purl.org/dc/elements/1.1/"
	xmlns:cc="http://creativecommons.org/ns#"
	xmlns:rdf="http://www.w3.org/1999/02/22-rdf-syntax-ns#"
	xmlns:svg="http://www.w3.org/2000/svg"
	xmlns="http://www.w3.org/2000/svg"
	xmlns:sodipodi="http://sodipodi.sourceforge.net/DTD/sodipodi-0.dtd"
	xmlns:inkscape="http://www.inkscape.org/namespaces/inkscape"
	width="1000"
	height="1000"
	id="svg2"
	version="1.1"
	sodipodi:docname="manifold/gathang-flatfish24.png.txt">
<defs
	id="defs4" />
<metadata
	id="metadata7">
	<rdf:RDF>
		<cc:Work
			rdf:about="">
			<dc:format>image/svg+xml</dc:format>
			<dc:type
				rdf:resource="http://purl.org/dc/dcmitype/StillImage" />
			<dc:title></dc:title>
		</cc:Work>
	</rdf:RDF>
</metadata>
<g
	inkscape:label="Layer 1"
	inkscape:groupmode="layer"
	id="layer1">
	<path style="fill:none;stroke:red;stroke-width:1px;stroke-linecap:butt;stroke-linejoin:miter;stroke-opacity:1" d="M 95.0689,137.351 111.331,129.22 z" id="boundary" inkscape:connector-curvature="0" />
	<path style="fill:none;stroke:red;stroke-width:1px;stroke-linecap:butt;stroke-linejoin:miter;stroke-opacity:1" d="M 86.9377,153.613 95.0689,137.351 z" id="boundary" inkscape:connector-curvature="0" />
	<path style="fill:none;stroke:red;stroke-width:1px;stroke-linecap:butt;stroke-linejoin:miter;stroke-opacity:1" d="M 75.5541,166.623 62.5443,178.007 z" id="boundary" inkscape:connector-curvature="0" />
	<path style="fill:none;stroke:red;stroke-width:1px;stroke-linecap:butt;stroke-linejoin:miter;stroke-opacity:1" d="M 86.9377,153.613 75.5541,166.623 z" id="boundary" inkscape:connector-curvature="0" />
	<path style="fill:none;stroke:red;stroke-width:1px;stroke-linecap:butt;stroke-linejoin:miter;stroke-opacity:1" d="M 51.1607,191.016 62.5443,178.007 z" id="boundary" inkscape:connector-curvature="0" />
	<path style="fill:none;stroke:red;stroke-width:1px;stroke-linecap:butt;stroke-linejoin:miter;stroke-opacity:1" d="M 111.331,129.22 127.593,121.089 z" id="boundary" inkscape:connector-curvature="0" />
	<path style="fill:none;stroke:red;stroke-width:1px;stroke-linecap:butt;stroke-linejoin:miter;stroke-opacity:1" d="M 192.643,64.1705 181.259,77.1803 z" id="boundary" inkscape:connector-curvature="0" />
	<path style="fill:none;stroke:red;stroke-width:1px;stroke-linecap:butt;stroke-linejoin:miter;stroke-opacity:1" d="M 181.259,77.1803 168.249,88.5639 z" id="boundary" inkscape:connector-curvature="0" />
	<path style="fill:none;stroke:red;stroke-width:1px;stroke-linecap:butt;stroke-linejoin:miter;stroke-opacity:1" d="M 160.118,104.826 168.249,88.5639 z" id="boundary" inkscape:connector-curvature="0" />
	<path style="fill:none;stroke:red;stroke-width:1px;stroke-linecap:butt;stroke-linejoin:miter;stroke-opacity:1" d="M 127.593,121.089 143.856,112.957 z" id="boundary" inkscape:connector-curvature="0" />
	<path style="fill:none;stroke:red;stroke-width:1px;stroke-linecap:butt;stroke-linejoin:miter;stroke-opacity:1" d="M 160.118,104.826 143.856,112.957 z" id="boundary" inkscape:connector-curvature="0" />
	<path style="fill:none;stroke:red;stroke-width:1px;stroke-linecap:butt;stroke-linejoin:miter;stroke-opacity:1" d="M 205.652,52.7869 192.643,64.1705 z" id="boundary" inkscape:connector-curvature="0" />
	<path style="fill:none;stroke:red;stroke-width:1px;stroke-linecap:butt;stroke-linejoin:miter;stroke-opacity:1" d="M 12.1311,228.42 12.1311,244.682 z" id="boundary" inkscape:connector-curvature="0" />
	<path style="fill:none;stroke:red;stroke-width:1px;stroke-linecap:butt;stroke-linejoin:miter;stroke-opacity:1" d="M 12.1311,228.42 25.141,215.41 z" id="boundary" inkscape:connector-curvature="0" />
	<path style="fill:none;stroke:red;stroke-width:1px;stroke-linecap:butt;stroke-linejoin:miter;stroke-opacity:1" d="M 4,293.469 4,277.207 z" id="boundary" inkscape:connector-curvature="0" />
	<path style="fill:none;stroke:red;stroke-width:1px;stroke-linecap:butt;stroke-linejoin:miter;stroke-opacity:1" d="M 12.1311,308.105 4,293.469 z" id="boundary" inkscape:connector-curvature="0" />
	<path style="fill:none;stroke:red;stroke-width:1px;stroke-linecap:butt;stroke-linejoin:miter;stroke-opacity:1" d="M 12.1311,260.944 4,277.207 z" id="boundary" inkscape:connector-curvature="0" />
	<path style="fill:none;stroke:red;stroke-width:1px;stroke-linecap:butt;stroke-linejoin:miter;stroke-opacity:1" d="M 12.1311,244.682 12.1311,260.944 z" id="boundary" inkscape:connector-curvature="0" />
	<path style="fill:none;stroke:red;stroke-width:1px;stroke-linecap:butt;stroke-linejoin:miter;stroke-opacity:1" d="M 38.1508,202.4 51.1607,191.016 z" id="boundary" inkscape:connector-curvature="0" />
	<path style="fill:none;stroke:red;stroke-width:1px;stroke-linecap:butt;stroke-linejoin:miter;stroke-opacity:1" d="M 38.1508,202.4 25.141,215.41 z" id="boundary" inkscape:connector-curvature="0" />
	<path style="fill:none;stroke:red;stroke-width:1px;stroke-linecap:butt;stroke-linejoin:miter;stroke-opacity:1" d="M 12.1311,308.105 20.2623,322.741 z" id="boundary" inkscape:connector-curvature="0" />
	<path style="fill:none;stroke:red;stroke-width:1px;stroke-linecap:butt;stroke-linejoin:miter;stroke-opacity:1" d="M 20.2623,322.741 25.141,339.003 z" id="boundary" inkscape:connector-curvature="0" />
	<path style="fill:none;stroke:red;stroke-width:1px;stroke-linecap:butt;stroke-linejoin:miter;stroke-opacity:1" d="M 38.1508,350.387 25.141,339.003 z" id="boundary" inkscape:connector-curvature="0" />
	<path style="fill:none;stroke:red;stroke-width:1px;stroke-linecap:butt;stroke-linejoin:miter;stroke-opacity:1" d="M 314.61,12.1311 298.348,12.1311 z" id="boundary" inkscape:connector-curvature="0" />
	<path style="fill:none;stroke:red;stroke-width:1px;stroke-linecap:butt;stroke-linejoin:miter;stroke-opacity:1" d="M 282.085,15.3836 298.348,12.1311 z" id="boundary" inkscape:connector-curvature="0" />
	<path style="fill:none;stroke:red;stroke-width:1px;stroke-linecap:butt;stroke-linejoin:miter;stroke-opacity:1" d="M 330.872,12.1311 314.61,12.1311 z" id="boundary" inkscape:connector-curvature="0" />
	<path style="fill:none;stroke:red;stroke-width:1px;stroke-linecap:butt;stroke-linejoin:miter;stroke-opacity:1" d="M 345.508,4 330.872,12.1311 z" id="boundary" inkscape:connector-curvature="0" />
	<path style="fill:none;stroke:red;stroke-width:1px;stroke-linecap:butt;stroke-linejoin:miter;stroke-opacity:1" d="M 345.508,4 361.77,4 z" id="boundary" inkscape:connector-curvature="0" />
	<path style="fill:none;stroke:red;stroke-width:1px;stroke-linecap:butt;stroke-linejoin:miter;stroke-opacity:1" d="M 378.033,4 394.295,4 z" id="boundary" inkscape:connector-curvature="0" />
	<path style="fill:none;stroke:red;stroke-width:1px;stroke-linecap:butt;stroke-linejoin:miter;stroke-opacity:1" d="M 394.295,4 410.557,7.25246 z" id="boundary" inkscape:connector-curvature="0" />
	<path style="fill:none;stroke:red;stroke-width:1px;stroke-linecap:butt;stroke-linejoin:miter;stroke-opacity:1" d="M 410.557,7.25246 426.82,7.25246 z" id="boundary" inkscape:connector-curvature="0" />
	<path style="fill:none;stroke:red;stroke-width:1px;stroke-linecap:butt;stroke-linejoin:miter;stroke-opacity:1" d="M 426.82,7.25246 441.456,15.3836 z" id="boundary" inkscape:connector-curvature="0" />
	<path style="fill:none;stroke:red;stroke-width:1px;stroke-linecap:butt;stroke-linejoin:miter;stroke-opacity:1" d="M 457.718,20.2623 441.456,15.3836 z" id="boundary" inkscape:connector-curvature="0" />
	<path style="fill:none;stroke:red;stroke-width:1px;stroke-linecap:butt;stroke-linejoin:miter;stroke-opacity:1" d="M 361.77,4 378.033,4 z" id="boundary" inkscape:connector-curvature="0" />
	<path style="fill:none;stroke:red;stroke-width:1px;stroke-linecap:butt;stroke-linejoin:miter;stroke-opacity:1" d="M 236.551,36.5246 249.561,23.5148 z" id="boundary" inkscape:connector-curvature="0" />
	<path style="fill:none;stroke:red;stroke-width:1px;stroke-linecap:butt;stroke-linejoin:miter;stroke-opacity:1" d="M 249.561,23.5148 265.823,20.2623 z" id="boundary" inkscape:connector-curvature="0" />
	<path style="fill:none;stroke:red;stroke-width:1px;stroke-linecap:butt;stroke-linejoin:miter;stroke-opacity:1" d="M 282.085,15.3836 265.823,20.2623 z" id="boundary" inkscape:connector-curvature="0" />
	<path style="fill:none;stroke:red;stroke-width:1px;stroke-linecap:butt;stroke-linejoin:miter;stroke-opacity:1" d="M 457.718,20.2623 472.354,28.3934 z" id="boundary" inkscape:connector-curvature="0" />
	<path style="fill:none;stroke:red;stroke-width:1px;stroke-linecap:butt;stroke-linejoin:miter;stroke-opacity:1" d="M 220.289,44.6557 205.652,52.7869 z" id="boundary" inkscape:connector-curvature="0" />
	<path style="fill:none;stroke:red;stroke-width:1px;stroke-linecap:butt;stroke-linejoin:miter;stroke-opacity:1" d="M 236.551,36.5246 220.289,44.6557 z" id="boundary" inkscape:connector-curvature="0" />
	<path style="fill:none;stroke:red;stroke-width:1px;stroke-linecap:butt;stroke-linejoin:miter;stroke-opacity:1" d="M 472.354,28.3934 488.616,28.3934 z" id="boundary" inkscape:connector-curvature="0" />
	<path style="fill:none;stroke:red;stroke-width:1px;stroke-linecap:butt;stroke-linejoin:miter;stroke-opacity:1" d="M 488.616,28.3934 503.252,36.5246 z" id="boundary" inkscape:connector-curvature="0" />
	<path style="fill:none;stroke:red;stroke-width:1px;stroke-linecap:butt;stroke-linejoin:miter;stroke-opacity:1" d="M 519.515,36.5246 503.252,36.5246 z" id="boundary" inkscape:connector-curvature="0" />
	<path style="fill:none;stroke:red;stroke-width:1px;stroke-linecap:butt;stroke-linejoin:miter;stroke-opacity:1" d="M 519.515,36.5246 535.777,36.5246 z" id="boundary" inkscape:connector-curvature="0" />
	<path style="fill:none;stroke:red;stroke-width:1px;stroke-linecap:butt;stroke-linejoin:miter;stroke-opacity:1" d="M 535.777,36.5246 550.413,44.6557 z" id="boundary" inkscape:connector-curvature="0" />
	<path style="fill:none;stroke:red;stroke-width:1px;stroke-linecap:butt;stroke-linejoin:miter;stroke-opacity:1" d="M 38.1508,350.387 44.6557,366.649 z" id="boundary" inkscape:connector-curvature="0" />
	<path style="fill:none;stroke:red;stroke-width:1px;stroke-linecap:butt;stroke-linejoin:miter;stroke-opacity:1" d="M 52.7869,381.285 69.0492,387.79 z" id="boundary" inkscape:connector-curvature="0" />
	<path style="fill:none;stroke:red;stroke-width:1px;stroke-linecap:butt;stroke-linejoin:miter;stroke-opacity:1" d="M 69.0492,387.79 78.8066,400.8 z" id="boundary" inkscape:connector-curvature="0" />
	<path style="fill:none;stroke:red;stroke-width:1px;stroke-linecap:butt;stroke-linejoin:miter;stroke-opacity:1" d="M 52.7869,381.285 44.6557,366.649 z" id="boundary" inkscape:connector-curvature="0" />
	<path style="fill:none;stroke:red;stroke-width:1px;stroke-linecap:butt;stroke-linejoin:miter;stroke-opacity:1" d="M 78.8066,400.8 91.8164,412.184 z" id="boundary" inkscape:connector-curvature="0" />
	<path style="fill:none;stroke:red;stroke-width:1px;stroke-linecap:butt;stroke-linejoin:miter;stroke-opacity:1" d="M 91.8164,412.184 106.452,420.315 z" id="boundary" inkscape:connector-curvature="0" />
	<path style="fill:none;stroke:red;stroke-width:1px;stroke-linecap:butt;stroke-linejoin:miter;stroke-opacity:1" d="M 121.089,428.446 106.452,420.315 z" id="boundary" inkscape:connector-curvature="0" />
	<path style="fill:none;stroke:red;stroke-width:1px;stroke-linecap:butt;stroke-linejoin:miter;stroke-opacity:1" d="M 166.623,444.708 150.361,444.708 z" id="boundary" inkscape:connector-curvature="0" />
	<path style="fill:none;stroke:red;stroke-width:1px;stroke-linecap:butt;stroke-linejoin:miter;stroke-opacity:1" d="M 150.361,444.708 135.725,436.577 z" id="boundary" inkscape:connector-curvature="0" />
	<path style="fill:none;stroke:red;stroke-width:1px;stroke-linecap:butt;stroke-linejoin:miter;stroke-opacity:1" d="M 135.725,436.577 121.089,428.446 z" id="boundary" inkscape:connector-curvature="0" />
	<path style="fill:none;stroke:red;stroke-width:1px;stroke-linecap:butt;stroke-linejoin:miter;stroke-opacity:1" d="M 166.623,444.708 181.259,452.839 z" id="boundary" inkscape:connector-curvature="0" />
	<path style="fill:none;stroke:red;stroke-width:1px;stroke-linecap:butt;stroke-linejoin:miter;stroke-opacity:1" d="M 181.259,452.839 195.895,460.97 z" id="boundary" inkscape:connector-curvature="0" />
	<path style="fill:none;stroke:red;stroke-width:1px;stroke-linecap:butt;stroke-linejoin:miter;stroke-opacity:1" d="M 212.157,467.475 195.895,460.97 z" id="boundary" inkscape:connector-curvature="0" />
	<path style="fill:none;stroke:red;stroke-width:1px;stroke-linecap:butt;stroke-linejoin:miter;stroke-opacity:1" d="M 212.157,467.475 223.541,480.485 z" id="boundary" inkscape:connector-curvature="0" />
	<path style="fill:none;stroke:red;stroke-width:1px;stroke-linecap:butt;stroke-linejoin:miter;stroke-opacity:1" d="M 223.541,480.485 223.541,496.748 z" id="boundary" inkscape:connector-curvature="0" />
	<path style="fill:none;stroke:red;stroke-width:1px;stroke-linecap:butt;stroke-linejoin:miter;stroke-opacity:1" d="M 236.551,508.131 223.541,496.748 z" id="boundary" inkscape:connector-curvature="0" />
	<path style="fill:none;stroke:red;stroke-width:1px;stroke-linecap:butt;stroke-linejoin:miter;stroke-opacity:1" d="M 247.934,521.141 236.551,508.131 z" id="boundary" inkscape:connector-curvature="0" />
	<path style="fill:none;stroke:red;stroke-width:1px;stroke-linecap:butt;stroke-linejoin:miter;stroke-opacity:1" d="M 256.066,535.777 247.934,521.141 z" id="boundary" inkscape:connector-curvature="0" />
	<path style="fill:none;stroke:red;stroke-width:1px;stroke-linecap:butt;stroke-linejoin:miter;stroke-opacity:1" d="M 267.449,548.787 256.066,535.777 z" id="boundary" inkscape:connector-curvature="0" />
	<path style="fill:none;stroke:red;stroke-width:1px;stroke-linecap:butt;stroke-linejoin:miter;stroke-opacity:1" d="M 280.459,558.544 267.449,548.787 z" id="boundary" inkscape:connector-curvature="0" />
	<path style="fill:none;stroke:red;stroke-width:1px;stroke-linecap:butt;stroke-linejoin:miter;stroke-opacity:1" d="M 290.216,477.233 290.216,501.626 z" id="boundary" inkscape:connector-curvature="0" />
	<path style="fill:none;stroke:red;stroke-width:1px;stroke-linecap:butt;stroke-linejoin:miter;stroke-opacity:1" d="M 306.479,477.233 316.236,490.243 z" id="boundary" inkscape:connector-curvature="0" />
	<path style="fill:none;stroke:red;stroke-width:1px;stroke-linecap:butt;stroke-linejoin:miter;stroke-opacity:1" d="M 330.872,498.374 316.236,490.243 z" id="boundary" inkscape:connector-curvature="0" />
	<path style="fill:none;stroke:red;stroke-width:1px;stroke-linecap:butt;stroke-linejoin:miter;stroke-opacity:1" d="M 293.469,517.889 290.216,501.626 z" id="boundary" inkscape:connector-curvature="0" />
	<path style="fill:none;stroke:red;stroke-width:1px;stroke-linecap:butt;stroke-linejoin:miter;stroke-opacity:1" d="M 306.479,529.272 293.469,517.889 z" id="boundary" inkscape:connector-curvature="0" />
	<path style="fill:none;stroke:red;stroke-width:1px;stroke-linecap:butt;stroke-linejoin:miter;stroke-opacity:1" d="M 306.479,529.272 306.479,545.534 z" id="boundary" inkscape:connector-curvature="0" />
	<path style="fill:none;stroke:red;stroke-width:1px;stroke-linecap:butt;stroke-linejoin:miter;stroke-opacity:1" d="M 290.216,477.233 306.479,477.233 z" id="boundary" inkscape:connector-curvature="0" />
	<path style="fill:none;stroke:red;stroke-width:1px;stroke-linecap:butt;stroke-linejoin:miter;stroke-opacity:1" d="M 343.882,509.757 355.266,522.767 z" id="boundary" inkscape:connector-curvature="0" />
	<path style="fill:none;stroke:red;stroke-width:1px;stroke-linecap:butt;stroke-linejoin:miter;stroke-opacity:1" d="M 343.882,509.757 330.872,498.374 z" id="boundary" inkscape:connector-curvature="0" />
	<path style="fill:none;stroke:red;stroke-width:1px;stroke-linecap:butt;stroke-linejoin:miter;stroke-opacity:1" d="M 521.141,532.525 537.403,526.02 z" id="boundary" inkscape:connector-curvature="0" />
	<path style="fill:none;stroke:red;stroke-width:1px;stroke-linecap:butt;stroke-linejoin:miter;stroke-opacity:1" d="M 537.403,526.02 553.666,524.393 z" id="boundary" inkscape:connector-curvature="0" />
	<path style="fill:none;stroke:red;stroke-width:1px;stroke-linecap:butt;stroke-linejoin:miter;stroke-opacity:1" d="M 521.141,532.525 504.879,534.151 z" id="boundary" inkscape:connector-curvature="0" />
	<path style="fill:none;stroke:red;stroke-width:1px;stroke-linecap:butt;stroke-linejoin:miter;stroke-opacity:1" d="M 296.721,558.544 306.479,545.534 z" id="boundary" inkscape:connector-curvature="0" />
	<path style="fill:none;stroke:red;stroke-width:1px;stroke-linecap:butt;stroke-linejoin:miter;stroke-opacity:1" d="M 355.266,522.767 368.275,534.151 z" id="boundary" inkscape:connector-curvature="0" />
	<path style="fill:none;stroke:red;stroke-width:1px;stroke-linecap:butt;stroke-linejoin:miter;stroke-opacity:1" d="M 382.911,542.282 368.275,534.151 z" id="boundary" inkscape:connector-curvature="0" />
	<path style="fill:none;stroke:red;stroke-width:1px;stroke-linecap:butt;stroke-linejoin:miter;stroke-opacity:1" d="M 395.921,553.666 412.184,558.544 z" id="boundary" inkscape:connector-curvature="0" />
	<path style="fill:none;stroke:red;stroke-width:1px;stroke-linecap:butt;stroke-linejoin:miter;stroke-opacity:1" d="M 382.911,542.282 395.921,553.666 z" id="boundary" inkscape:connector-curvature="0" />
	<path style="fill:none;stroke:red;stroke-width:1px;stroke-linecap:butt;stroke-linejoin:miter;stroke-opacity:1" d="M 428.446,558.544 412.184,558.544 z" id="boundary" inkscape:connector-curvature="0" />
	<path style="fill:none;stroke:red;stroke-width:1px;stroke-linecap:butt;stroke-linejoin:miter;stroke-opacity:1" d="M 296.721,558.544 280.459,558.544 z" id="boundary" inkscape:connector-curvature="0" />
	<path style="fill:none;stroke:red;stroke-width:1px;stroke-linecap:butt;stroke-linejoin:miter;stroke-opacity:1" d="M 504.879,534.151 491.869,545.534 z" id="boundary" inkscape:connector-curvature="0" />
	<path style="fill:none;stroke:red;stroke-width:1px;stroke-linecap:butt;stroke-linejoin:miter;stroke-opacity:1" d="M 491.869,545.534 475.607,542.282 z" id="boundary" inkscape:connector-curvature="0" />
	<path style="fill:none;stroke:red;stroke-width:1px;stroke-linecap:butt;stroke-linejoin:miter;stroke-opacity:1" d="M 460.97,550.413 475.607,542.282 z" id="boundary" inkscape:connector-curvature="0" />
	<path style="fill:none;stroke:red;stroke-width:1px;stroke-linecap:butt;stroke-linejoin:miter;stroke-opacity:1" d="M 460.97,550.413 444.708,558.544 z" id="boundary" inkscape:connector-curvature="0" />
	<path style="fill:none;stroke:red;stroke-width:1px;stroke-linecap:butt;stroke-linejoin:miter;stroke-opacity:1" d="M 444.708,558.544 428.446,558.544 z" id="boundary" inkscape:connector-curvature="0" />
	<path style="fill:none;stroke:red;stroke-width:1px;stroke-linecap:butt;stroke-linejoin:miter;stroke-opacity:1" d="M 569.928,516.262 553.666,524.393 z" id="boundary" inkscape:connector-curvature="0" />
	<path style="fill:none;stroke:red;stroke-width:1px;stroke-linecap:butt;stroke-linejoin:miter;stroke-opacity:1" d="M 550.413,44.6557 563.423,54.4131 z" id="boundary" inkscape:connector-curvature="0" />
	<path style="fill:none;stroke:red;stroke-width:1px;stroke-linecap:butt;stroke-linejoin:miter;stroke-opacity:1" d="M 578.059,62.5443 563.423,54.4131 z" id="boundary" inkscape:connector-curvature="0" />
	<path style="fill:none;stroke:red;stroke-width:1px;stroke-linecap:butt;stroke-linejoin:miter;stroke-opacity:1" d="M 594.321,69.0492 608.957,77.1803 z" id="boundary" inkscape:connector-curvature="0" />
	<path style="fill:none;stroke:red;stroke-width:1px;stroke-linecap:butt;stroke-linejoin:miter;stroke-opacity:1" d="M 578.059,62.5443 594.321,69.0492 z" id="boundary" inkscape:connector-curvature="0" />
	<path style="fill:none;stroke:red;stroke-width:1px;stroke-linecap:butt;stroke-linejoin:miter;stroke-opacity:1" d="M 623.593,85.3115 608.957,77.1803 z" id="boundary" inkscape:connector-curvature="0" />
	<path style="fill:none;stroke:red;stroke-width:1px;stroke-linecap:butt;stroke-linejoin:miter;stroke-opacity:1" d="M 623.593,85.3115 636.603,95.0689 z" id="boundary" inkscape:connector-curvature="0" />
	<path style="fill:none;stroke:red;stroke-width:1px;stroke-linecap:butt;stroke-linejoin:miter;stroke-opacity:1" d="M 636.603,95.0689 651.239,103.2 z" id="boundary" inkscape:connector-curvature="0" />
	<path style="fill:none;stroke:red;stroke-width:1px;stroke-linecap:butt;stroke-linejoin:miter;stroke-opacity:1" d="M 651.239,103.2 664.249,114.584 z" id="boundary" inkscape:connector-curvature="0" />
	<path style="fill:none;stroke:red;stroke-width:1px;stroke-linecap:butt;stroke-linejoin:miter;stroke-opacity:1" d="M 664.249,114.584 675.633,127.593 z" id="boundary" inkscape:connector-curvature="0" />
	<path style="fill:none;stroke:red;stroke-width:1px;stroke-linecap:butt;stroke-linejoin:miter;stroke-opacity:1" d="M 675.633,127.593 688.643,138.977 z" id="boundary" inkscape:connector-curvature="0" />
	<path style="fill:none;stroke:red;stroke-width:1px;stroke-linecap:butt;stroke-linejoin:miter;stroke-opacity:1" d="M 688.643,138.977 700.026,151.987 z" id="boundary" inkscape:connector-curvature="0" />
	<path style="fill:none;stroke:red;stroke-width:1px;stroke-linecap:butt;stroke-linejoin:miter;stroke-opacity:1" d="M 713.036,163.37 700.026,151.987 z" id="boundary" inkscape:connector-curvature="0" />
	<path style="fill:none;stroke:red;stroke-width:1px;stroke-linecap:butt;stroke-linejoin:miter;stroke-opacity:1" d="M 730.925,191.016 721.167,178.007 z" id="boundary" inkscape:connector-curvature="0" />
	<path style="fill:none;stroke:red;stroke-width:1px;stroke-linecap:butt;stroke-linejoin:miter;stroke-opacity:1" d="M 730.925,191.016 737.43,207.279 z" id="boundary" inkscape:connector-curvature="0" />
	<path style="fill:none;stroke:red;stroke-width:1px;stroke-linecap:butt;stroke-linejoin:miter;stroke-opacity:1" d="M 737.43,207.279 737.43,223.541 z" id="boundary" inkscape:connector-curvature="0" />
	<path style="fill:none;stroke:red;stroke-width:1px;stroke-linecap:butt;stroke-linejoin:miter;stroke-opacity:1" d="M 753.692,228.42 737.43,223.541 z" id="boundary" inkscape:connector-curvature="0" />
	<path style="fill:none;stroke:red;stroke-width:1px;stroke-linecap:butt;stroke-linejoin:miter;stroke-opacity:1" d="M 721.167,178.007 713.036,163.37 z" id="boundary" inkscape:connector-curvature="0" />
	<path style="fill:none;stroke:red;stroke-width:1px;stroke-linecap:butt;stroke-linejoin:miter;stroke-opacity:1" d="M 782.964,215.41 794.348,202.4 z" id="boundary" inkscape:connector-curvature="0" />
	<path style="fill:none;stroke:red;stroke-width:1px;stroke-linecap:butt;stroke-linejoin:miter;stroke-opacity:1" d="M 810.61,194.269 794.348,202.4 z" id="boundary" inkscape:connector-curvature="0" />
	<path style="fill:none;stroke:red;stroke-width:1px;stroke-linecap:butt;stroke-linejoin:miter;stroke-opacity:1" d="M 839.882,174.754 826.872,186.138 z" id="boundary" inkscape:connector-curvature="0" />
	<path style="fill:none;stroke:red;stroke-width:1px;stroke-linecap:butt;stroke-linejoin:miter;stroke-opacity:1" d="M 826.872,186.138 810.61,194.269 z" id="boundary" inkscape:connector-curvature="0" />
	<path style="fill:none;stroke:red;stroke-width:1px;stroke-linecap:butt;stroke-linejoin:miter;stroke-opacity:1" d="M 769.954,226.793 753.692,228.42 z" id="boundary" inkscape:connector-curvature="0" />
	<path style="fill:none;stroke:red;stroke-width:1px;stroke-linecap:butt;stroke-linejoin:miter;stroke-opacity:1" d="M 782.964,215.41 769.954,226.793 z" id="boundary" inkscape:connector-curvature="0" />
	<path style="fill:none;stroke:red;stroke-width:1px;stroke-linecap:butt;stroke-linejoin:miter;stroke-opacity:1" d="M 916.315,147.108 930.951,138.977 z" id="boundary" inkscape:connector-curvature="0" />
	<path style="fill:none;stroke:red;stroke-width:1px;stroke-linecap:butt;stroke-linejoin:miter;stroke-opacity:1" d="M 916.315,147.108 900.052,150.361 z" id="boundary" inkscape:connector-curvature="0" />
	<path style="fill:none;stroke:red;stroke-width:1px;stroke-linecap:butt;stroke-linejoin:miter;stroke-opacity:1" d="M 870.78,166.623 854.518,166.623 z" id="boundary" inkscape:connector-curvature="0" />
	<path style="fill:none;stroke:red;stroke-width:1px;stroke-linecap:butt;stroke-linejoin:miter;stroke-opacity:1" d="M 883.79,153.613 870.78,166.623 z" id="boundary" inkscape:connector-curvature="0" />
	<path style="fill:none;stroke:red;stroke-width:1px;stroke-linecap:butt;stroke-linejoin:miter;stroke-opacity:1" d="M 900.052,150.361 883.79,153.613 z" id="boundary" inkscape:connector-curvature="0" />
	<path style="fill:none;stroke:red;stroke-width:1px;stroke-linecap:butt;stroke-linejoin:miter;stroke-opacity:1" d="M 947.213,134.098 963.475,134.098 z" id="boundary" inkscape:connector-curvature="0" />
	<path style="fill:none;stroke:red;stroke-width:1px;stroke-linecap:butt;stroke-linejoin:miter;stroke-opacity:1" d="M 963.475,134.098 979.738,134.098 z" id="boundary" inkscape:connector-curvature="0" />
	<path style="fill:none;stroke:red;stroke-width:1px;stroke-linecap:butt;stroke-linejoin:miter;stroke-opacity:1" d="M 981.364,151.987 965.102,151.987 z" id="boundary" inkscape:connector-curvature="0" />
	<path style="fill:none;stroke:red;stroke-width:1px;stroke-linecap:butt;stroke-linejoin:miter;stroke-opacity:1" d="M 979.738,134.098 996,137.351 z" id="boundary" inkscape:connector-curvature="0" />
	<path style="fill:none;stroke:red;stroke-width:1px;stroke-linecap:butt;stroke-linejoin:miter;stroke-opacity:1" d="M 996,137.351 981.364,151.987 z" id="boundary" inkscape:connector-curvature="0" />
	<path style="fill:none;stroke:red;stroke-width:1px;stroke-linecap:butt;stroke-linejoin:miter;stroke-opacity:1" d="M 965.102,151.987 952.092,166.623 z" id="boundary" inkscape:connector-curvature="0" />
	<path style="fill:none;stroke:red;stroke-width:1px;stroke-linecap:butt;stroke-linejoin:miter;stroke-opacity:1" d="M 930.951,138.977 947.213,134.098 z" id="boundary" inkscape:connector-curvature="0" />
	<path style="fill:none;stroke:red;stroke-width:1px;stroke-linecap:butt;stroke-linejoin:miter;stroke-opacity:1" d="M 880.538,221.915 867.528,233.298 z" id="boundary" inkscape:connector-curvature="0" />
	<path style="fill:none;stroke:red;stroke-width:1px;stroke-linecap:butt;stroke-linejoin:miter;stroke-opacity:1" d="M 839.882,174.754 854.518,166.623 z" id="boundary" inkscape:connector-curvature="0" />
	<path style="fill:none;stroke:red;stroke-width:1px;stroke-linecap:butt;stroke-linejoin:miter;stroke-opacity:1" d="M 867.528,233.298 859.397,249.561 z" id="boundary" inkscape:connector-curvature="0" />
	<path style="fill:none;stroke:red;stroke-width:1px;stroke-linecap:butt;stroke-linejoin:miter;stroke-opacity:1" d="M 859.397,249.561 859.397,265.823 z" id="boundary" inkscape:connector-curvature="0" />
	<path style="fill:none;stroke:red;stroke-width:1px;stroke-linecap:butt;stroke-linejoin:miter;stroke-opacity:1" d="M 859.397,282.085 859.397,265.823 z" id="boundary" inkscape:connector-curvature="0" />
	<path style="fill:none;stroke:red;stroke-width:1px;stroke-linecap:butt;stroke-linejoin:miter;stroke-opacity:1" d="M 921.193,184.511 935.83,174.754 z" id="boundary" inkscape:connector-curvature="0" />
	<path style="fill:none;stroke:red;stroke-width:1px;stroke-linecap:butt;stroke-linejoin:miter;stroke-opacity:1" d="M 880.538,221.915 891.921,200.774 z" id="boundary" inkscape:connector-curvature="0" />
	<path style="fill:none;stroke:red;stroke-width:1px;stroke-linecap:butt;stroke-linejoin:miter;stroke-opacity:1" d="M 891.921,200.774 906.557,192.643 z" id="boundary" inkscape:connector-curvature="0" />
	<path style="fill:none;stroke:red;stroke-width:1px;stroke-linecap:butt;stroke-linejoin:miter;stroke-opacity:1" d="M 906.557,192.643 921.193,184.511 z" id="boundary" inkscape:connector-curvature="0" />
	<path style="fill:none;stroke:red;stroke-width:1px;stroke-linecap:butt;stroke-linejoin:miter;stroke-opacity:1" d="M 952.092,166.623 935.83,174.754 z" id="boundary" inkscape:connector-curvature="0" />
	<path style="fill:none;stroke:red;stroke-width:1px;stroke-linecap:butt;stroke-linejoin:miter;stroke-opacity:1" d="M 859.397,282.085 859.397,298.348 z" id="boundary" inkscape:connector-curvature="0" />
	<path style="fill:none;stroke:red;stroke-width:1px;stroke-linecap:butt;stroke-linejoin:miter;stroke-opacity:1" d="M 704.905,355.266 721.167,355.266 z" id="boundary" inkscape:connector-curvature="0" />
	<path style="fill:none;stroke:red;stroke-width:1px;stroke-linecap:butt;stroke-linejoin:miter;stroke-opacity:1" d="M 726.046,379.659 721.167,404.052 z" id="boundary" inkscape:connector-curvature="0" />
	<path style="fill:none;stroke:red;stroke-width:1px;stroke-linecap:butt;stroke-linejoin:miter;stroke-opacity:1" d="M 721.167,355.266 737.43,358.518 z" id="boundary" inkscape:connector-curvature="0" />
	<path style="fill:none;stroke:red;stroke-width:1px;stroke-linecap:butt;stroke-linejoin:miter;stroke-opacity:1" d="M 721.167,404.052 709.784,417.062 z" id="boundary" inkscape:connector-curvature="0" />
	<path style="fill:none;stroke:red;stroke-width:1px;stroke-linecap:butt;stroke-linejoin:miter;stroke-opacity:1" d="M 753.692,363.397 768.328,371.528 z" id="boundary" inkscape:connector-curvature="0" />
	<path style="fill:none;stroke:red;stroke-width:1px;stroke-linecap:butt;stroke-linejoin:miter;stroke-opacity:1" d="M 784.59,371.528 768.328,371.528 z" id="boundary" inkscape:connector-curvature="0" />
	<path style="fill:none;stroke:red;stroke-width:1px;stroke-linecap:butt;stroke-linejoin:miter;stroke-opacity:1" d="M 810.61,382.911 794.348,384.538 z" id="boundary" inkscape:connector-curvature="0" />
	<path style="fill:none;stroke:red;stroke-width:1px;stroke-linecap:butt;stroke-linejoin:miter;stroke-opacity:1" d="M 794.348,384.538 784.59,371.528 z" id="boundary" inkscape:connector-curvature="0" />
	<path style="fill:none;stroke:red;stroke-width:1px;stroke-linecap:butt;stroke-linejoin:miter;stroke-opacity:1" d="M 753.692,363.397 737.43,358.518 z" id="boundary" inkscape:connector-curvature="0" />
	<path style="fill:none;stroke:red;stroke-width:1px;stroke-linecap:butt;stroke-linejoin:miter;stroke-opacity:1" d="M 610.584,485.364 625.22,477.233 z" id="boundary" inkscape:connector-curvature="0" />
	<path style="fill:none;stroke:red;stroke-width:1px;stroke-linecap:butt;stroke-linejoin:miter;stroke-opacity:1" d="M 610.584,485.364 594.321,491.869 z" id="boundary" inkscape:connector-curvature="0" />
	<path style="fill:none;stroke:red;stroke-width:1px;stroke-linecap:butt;stroke-linejoin:miter;stroke-opacity:1" d="M 594.321,491.869 586.19,508.131 z" id="boundary" inkscape:connector-curvature="0" />
	<path style="fill:none;stroke:red;stroke-width:1px;stroke-linecap:butt;stroke-linejoin:miter;stroke-opacity:1" d="M 586.19,508.131 569.928,516.262 z" id="boundary" inkscape:connector-curvature="0" />
	<path style="fill:none;stroke:red;stroke-width:1px;stroke-linecap:butt;stroke-linejoin:miter;stroke-opacity:1" d="M 625.22,477.233 639.856,469.102 z" id="boundary" inkscape:connector-curvature="0" />
	<path style="fill:none;stroke:red;stroke-width:1px;stroke-linecap:butt;stroke-linejoin:miter;stroke-opacity:1" d="M 685.39,441.456 696.774,428.446 z" id="boundary" inkscape:connector-curvature="0" />
	<path style="fill:none;stroke:red;stroke-width:1px;stroke-linecap:butt;stroke-linejoin:miter;stroke-opacity:1" d="M 685.39,441.456 669.128,449.587 z" id="boundary" inkscape:connector-curvature="0" />
	<path style="fill:none;stroke:red;stroke-width:1px;stroke-linecap:butt;stroke-linejoin:miter;stroke-opacity:1" d="M 696.774,428.446 709.784,417.062 z" id="boundary" inkscape:connector-curvature="0" />
	<path style="fill:none;stroke:red;stroke-width:1px;stroke-linecap:butt;stroke-linejoin:miter;stroke-opacity:1" d="M 639.856,469.102 652.866,457.718 z" id="boundary" inkscape:connector-curvature="0" />
	<path style="fill:none;stroke:red;stroke-width:1px;stroke-linecap:butt;stroke-linejoin:miter;stroke-opacity:1" d="M 652.866,457.718 669.128,449.587 z" id="boundary" inkscape:connector-curvature="0" />
	<path style="fill:none;stroke:red;stroke-width:1px;stroke-linecap:butt;stroke-linejoin:miter;stroke-opacity:1" d="M 810.61,382.911 821.993,395.921 z" id="boundary" inkscape:connector-curvature="0" />
	<path style="fill:none;stroke:red;stroke-width:1px;stroke-linecap:butt;stroke-linejoin:miter;stroke-opacity:1" d="M 859.397,314.61 862.649,330.872 z" id="boundary" inkscape:connector-curvature="0" />
	<path style="fill:none;stroke:red;stroke-width:1px;stroke-linecap:butt;stroke-linejoin:miter;stroke-opacity:1" d="M 838.256,402.426 821.993,395.921 z" id="boundary" inkscape:connector-curvature="0" />
	<path style="fill:none;stroke:red;stroke-width:1px;stroke-linecap:butt;stroke-linejoin:miter;stroke-opacity:1" d="M 862.649,330.872 867.528,347.134 z" id="boundary" inkscape:connector-curvature="0" />
	<path style="fill:none;stroke:red;stroke-width:1px;stroke-linecap:butt;stroke-linejoin:miter;stroke-opacity:1" d="M 859.397,314.61 859.397,298.348 z" id="boundary" inkscape:connector-curvature="0" />
	<path style="fill:none;stroke:red;stroke-width:1px;stroke-linecap:butt;stroke-linejoin:miter;stroke-opacity:1" d="M 891.921,366.649 875.659,361.77 z" id="boundary" inkscape:connector-curvature="0" />
	<path style="fill:none;stroke:red;stroke-width:1px;stroke-linecap:butt;stroke-linejoin:miter;stroke-opacity:1" d="M 875.659,361.77 867.528,347.134 z" id="boundary" inkscape:connector-curvature="0" />
	<path style="fill:none;stroke:red;stroke-width:1px;stroke-linecap:butt;stroke-linejoin:miter;stroke-opacity:1" d="M 891.921,366.649 898.426,382.911 z" id="boundary" inkscape:connector-curvature="0" />
	<path style="fill:none;stroke:red;stroke-width:1px;stroke-linecap:butt;stroke-linejoin:miter;stroke-opacity:1" d="M 927.698,394.295 911.436,394.295 z" id="boundary" inkscape:connector-curvature="0" />
	<path style="fill:none;stroke:red;stroke-width:1px;stroke-linecap:butt;stroke-linejoin:miter;stroke-opacity:1" d="M 911.436,394.295 898.426,382.911 z" id="boundary" inkscape:connector-curvature="0" />
	<path style="fill:none;stroke:red;stroke-width:1px;stroke-linecap:butt;stroke-linejoin:miter;stroke-opacity:1" d="M 854.518,404.052 838.256,402.426 z" id="boundary" inkscape:connector-curvature="0" />
	<path style="fill:none;stroke:red;stroke-width:1px;stroke-linecap:butt;stroke-linejoin:miter;stroke-opacity:1" d="M 885.416,417.062 869.154,412.184 z" id="boundary" inkscape:connector-curvature="0" />
	<path style="fill:none;stroke:red;stroke-width:1px;stroke-linecap:butt;stroke-linejoin:miter;stroke-opacity:1" d="M 885.416,417.062 898.426,428.446 z" id="boundary" inkscape:connector-curvature="0" />
	<path style="fill:none;stroke:red;stroke-width:1px;stroke-linecap:butt;stroke-linejoin:miter;stroke-opacity:1" d="M 854.518,404.052 869.154,412.184 z" id="boundary" inkscape:connector-curvature="0" />
	<path style="fill:none;stroke:red;stroke-width:1px;stroke-linecap:butt;stroke-linejoin:miter;stroke-opacity:1" d="M 919.567,436.577 898.426,428.446 z" id="boundary" inkscape:connector-curvature="0" />
	<path style="fill:none;stroke:red;stroke-width:1px;stroke-linecap:butt;stroke-linejoin:miter;stroke-opacity:1" d="M 935.83,436.577 919.567,436.577 z" id="boundary" inkscape:connector-curvature="0" />
	<path style="fill:none;stroke:red;stroke-width:1px;stroke-linecap:butt;stroke-linejoin:miter;stroke-opacity:1" d="M 973.233,415.436 956.97,410.557 z" id="boundary" inkscape:connector-curvature="0" />
	<path style="fill:none;stroke:red;stroke-width:1px;stroke-linecap:butt;stroke-linejoin:miter;stroke-opacity:1" d="M 956.97,410.557 942.334,402.426 z" id="boundary" inkscape:connector-curvature="0" />
	<path style="fill:none;stroke:red;stroke-width:1px;stroke-linecap:butt;stroke-linejoin:miter;stroke-opacity:1" d="M 942.334,402.426 927.698,394.295 z" id="boundary" inkscape:connector-curvature="0" />
	<path style="fill:none;stroke:red;stroke-width:1px;stroke-linecap:butt;stroke-linejoin:miter;stroke-opacity:1" d="M 973.233,415.436 968.354,434.951 z" id="boundary" inkscape:connector-curvature="0" />
	<path style="fill:none;stroke:red;stroke-width:1px;stroke-linecap:butt;stroke-linejoin:miter;stroke-opacity:1" d="M 952.092,436.577 935.83,436.577 z" id="boundary" inkscape:connector-curvature="0" />
	<path style="fill:none;stroke:red;stroke-width:1px;stroke-linecap:butt;stroke-linejoin:miter;stroke-opacity:1" d="M 968.354,434.951 952.092,436.577 z" id="boundary" inkscape:connector-curvature="0" />
	<circle cx="4" cy="277.207" r="4" fill="#0" id="circle0"/>
	<circle cx="4" cy="293.469" r="4" fill="#0" id="circle1"/>
	<circle cx="12.1311" cy="228.42" r="4" fill="#0" id="circle2"/>
	<circle cx="12.1311" cy="244.682" r="4" fill="#0" id="circle3"/>
	<circle cx="12.1311" cy="260.944" r="4" fill="#0" id="circle4"/>
	<circle cx="12.1311" cy="308.105" r="4" fill="#0" id="circle5"/>
	<circle cx="20.2623" cy="322.741" r="4" fill="#0" id="circle6"/>
	<circle cx="25.141" cy="215.41" r="4" fill="#0" id="circle7"/>
	<circle cx="25.141" cy="339.003" r="4" fill="#0" id="circle8"/>
	<circle cx="38.1508" cy="202.4" r="4" fill="#0" id="circle9"/>
	<circle cx="38.1508" cy="350.387" r="4" fill="#0" id="circle10"/>
	<circle cx="44.6557" cy="366.649" r="4" fill="#0" id="circle11"/>
	<circle cx="51.1607" cy="191.016" r="4" fill="#0" id="circle12"/>
	<circle cx="52.7869" cy="381.285" r="4" fill="#0" id="circle13"/>
	<circle cx="62.5443" cy="178.007" r="4" fill="#0" id="circle14"/>
	<circle cx="69.0492" cy="387.79" r="4" fill="#0" id="circle15"/>
	<circle cx="75.5541" cy="166.623" r="4" fill="#0" id="circle16"/>
	<circle cx="78.8066" cy="400.8" r="4" fill="#0" id="circle17"/>
	<circle cx="86.9377" cy="153.613" r="4" fill="#0" id="circle18"/>
	<circle cx="91.8164" cy="412.184" r="4" fill="#0" id="circle19"/>
	<circle cx="95.0689" cy="137.351" r="4" fill="#0" id="circle20"/>
	<circle cx="106.452" cy="420.315" r="4" fill="#0" id="circle21"/>
	<circle cx="111.331" cy="129.22" r="4" fill="#0" id="circle22"/>
	<circle cx="121.089" cy="428.446" r="4" fill="#0" id="circle23"/>
	<circle cx="127.593" cy="121.089" r="4" fill="#0" id="circle24"/>
	<circle cx="135.725" cy="436.577" r="4" fill="#0" id="circle25"/>
	<circle cx="143.856" cy="112.957" r="4" fill="#0" id="circle26"/>
	<circle cx="150.361" cy="444.708" r="4" fill="#0" id="circle27"/>
	<circle cx="160.118" cy="104.826" r="4" fill="#0" id="circle28"/>
	<circle cx="166.623" cy="444.708" r="4" fill="#0" id="circle29"/>
	<circle cx="168.249" cy="88.5639" r="4" fill="#0" id="circle30"/>
	<circle cx="181.259" cy="77.1803" r="4" fill="#0" id="circle31"/>
	<circle cx="181.259" cy="452.839" r="4" fill="#0" id="circle32"/>
	<circle cx="192.643" cy="64.1705" r="4" fill="#0" id="circle33"/>
	<circle cx="195.895" cy="460.97" r="4" fill="#0" id="circle34"/>
	<circle cx="205.652" cy="52.7869" r="4" fill="#0" id="circle35"/>
	<circle cx="212.157" cy="467.475" r="4" fill="#0" id="circle36"/>
	<circle cx="220.289" cy="44.6557" r="4" fill="#0" id="circle37"/>
	<circle cx="223.541" cy="480.485" r="4" fill="#0" id="circle38"/>
	<circle cx="223.541" cy="496.748" r="4" fill="#0" id="circle39"/>
	<circle cx="236.551" cy="36.5246" r="4" fill="#0" id="circle40"/>
	<circle cx="236.551" cy="508.131" r="4" fill="#0" id="circle41"/>
	<circle cx="247.934" cy="521.141" r="4" fill="#0" id="circle42"/>
	<circle cx="249.561" cy="23.5148" r="4" fill="#0" id="circle43"/>
	<circle cx="256.066" cy="535.777" r="4" fill="#0" id="circle44"/>
	<circle cx="265.823" cy="20.2623" r="4" fill="#0" id="circle45"/>
	<circle cx="267.449" cy="548.787" r="4" fill="#0" id="circle46"/>
	<circle cx="280.459" cy="558.544" r="4" fill="#0" id="circle47"/>
	<circle cx="282.085" cy="15.3836" r="4" fill="#0" id="circle48"/>
	<circle cx="290.216" cy="477.233" r="4" fill="#0" id="circle49"/>
	<circle cx="290.216" cy="501.626" r="4" fill="#0" id="circle50"/>
	<circle cx="293.469" cy="517.889" r="4" fill="#0" id="circle51"/>
	<circle cx="296.721" cy="558.544" r="4" fill="#0" id="circle52"/>
	<circle cx="298.348" cy="12.1311" r="4" fill="#0" id="circle53"/>
	<circle cx="306.479" cy="477.233" r="4" fill="#0" id="circle54"/>
	<circle cx="306.479" cy="529.272" r="4" fill="#0" id="circle55"/>
	<circle cx="306.479" cy="545.534" r="4" fill="#0" id="circle56"/>
	<circle cx="314.61" cy="12.1311" r="4" fill="#0" id="circle57"/>
	<circle cx="316.236" cy="490.243" r="4" fill="#0" id="circle58"/>
	<circle cx="330.872" cy="12.1311" r="4" fill="#0" id="circle59"/>
	<circle cx="330.872" cy="498.374" r="4" fill="#0" id="circle60"/>
	<circle cx="343.882" cy="509.757" r="4" fill="#0" id="circle61"/>
	<circle cx="345.508" cy="4" r="4" fill="#0" id="circle62"/>
	<circle cx="355.266" cy="522.767" r="4" fill="#0" id="circle63"/>
	<circle cx="361.77" cy="4" r="4" fill="#0" id="circle64"/>
	<circle cx="368.275" cy="534.151" r="4" fill="#0" id="circle65"/>
	<circle cx="378.033" cy="4" r="4" fill="#0" id="circle66"/>
	<circle cx="382.911" cy="542.282" r="4" fill="#0" id="circle67"/>
	<circle cx="394.295" cy="4" r="4" fill="#0" id="circle68"/>
	<circle cx="395.921" cy="553.666" r="4" fill="#0" id="circle69"/>
	<circle cx="410.557" cy="7.25246" r="4" fill="#0" id="circle70"/>
	<circle cx="412.184" cy="558.544" r="4" fill="#0" id="circle71"/>
	<circle cx="426.82" cy="7.25246" r="4" fill="#0" id="circle72"/>
	<circle cx="428.446" cy="558.544" r="4" fill="#0" id="circle73"/>
	<circle cx="441.456" cy="15.3836" r="4" fill="#0" id="circle74"/>
	<circle cx="444.708" cy="558.544" r="4" fill="#0" id="circle75"/>
	<circle cx="457.718" cy="20.2623" r="4" fill="#0" id="circle76"/>
	<circle cx="460.97" cy="550.413" r="4" fill="#0" id="circle77"/>
	<circle cx="472.354" cy="28.3934" r="4" fill="#0" id="circle78"/>
	<circle cx="475.607" cy="542.282" r="4" fill="#0" id="circle79"/>
	<circle cx="488.616" cy="28.3934" r="4" fill="#0" id="circle80"/>
	<circle cx="491.869" cy="545.534" r="4" fill="#0" id="circle81"/>
	<circle cx="503.252" cy="36.5246" r="4" fill="#0" id="circle82"/>
	<circle cx="504.879" cy="534.151" r="4" fill="#0" id="circle83"/>
	<circle cx="519.515" cy="36.5246" r="4" fill="#0" id="circle84"/>
	<circle cx="521.141" cy="532.525" r="4" fill="#0" id="circle85"/>
	<circle cx="535.777" cy="36.5246" r="4" fill="#0" id="circle86"/>
	<circle cx="537.403" cy="526.02" r="4" fill="#0" id="circle87"/>
	<circle cx="550.413" cy="44.6557" r="4" fill="#0" id="circle88"/>
	<circle cx="553.666" cy="524.393" r="4" fill="#0" id="circle89"/>
	<circle cx="563.423" cy="54.4131" r="4" fill="#0" id="circle90"/>
	<circle cx="569.928" cy="516.262" r="4" fill="#0" id="circle91"/>
	<circle cx="578.059" cy="62.5443" r="4" fill="#0" id="circle92"/>
	<circle cx="586.19" cy="508.131" r="4" fill="#0" id="circle93"/>
	<circle cx="594.321" cy="69.0492" r="4" fill="#0" id="circle94"/>
	<circle cx="594.321" cy="491.869" r="4" fill="#0" id="circle95"/>
	<circle cx="608.957" cy="77.1803" r="4" fill="#0" id="circle96"/>
	<circle cx="610.584" cy="485.364" r="4" fill="#0" id="circle97"/>
	<circle cx="623.593" cy="85.3115" r="4" fill="#0" id="circle98"/>
	<circle cx="625.22" cy="477.233" r="4" fill="#0" id="circle99"/>
	<circle cx="636.603" cy="95.0689" r="4" fill="#0" id="circle100"/>
	<circle cx="639.856" cy="469.102" r="4" fill="#0" id="circle101"/>
	<circle cx="651.239" cy="103.2" r="4" fill="#0" id="circle102"/>
	<circle cx="652.866" cy="457.718" r="4" fill="#0" id="circle103"/>
	<circle cx="664.249" cy="114.584" r="4" fill="#0" id="circle104"/>
	<circle cx="669.128" cy="449.587" r="4" fill="#0" id="circle105"/>
	<circle cx="675.633" cy="127.593" r="4" fill="#0" id="circle106"/>
	<circle cx="685.39" cy="441.456" r="4" fill="#0" id="circle107"/>
	<circle cx="688.643" cy="138.977" r="4" fill="#0" id="circle108"/>
	<circle cx="696.774" cy="428.446" r="4" fill="#0" id="circle109"/>
	<circle cx="700.026" cy="151.987" r="4" fill="#0" id="circle110"/>
	<circle cx="704.905" cy="355.266" r="4" fill="#0" id="circle111"/>
	<circle cx="709.784" cy="417.062" r="4" fill="#0" id="circle112"/>
	<circle cx="713.036" cy="163.37" r="4" fill="#0" id="circle113"/>
	<circle cx="713.036" cy="369.902" r="4" fill="#0" id="circle114"/>
	<circle cx="721.167" cy="178.007" r="4" fill="#0" id="circle115"/>
	<circle cx="721.167" cy="355.266" r="4" fill="#0" id="circle116"/>
	<circle cx="721.167" cy="404.052" r="4" fill="#0" id="circle117"/>
	<circle cx="726.046" cy="379.659" r="4" fill="#0" id="circle118"/>
	<circle cx="730.925" cy="191.016" r="4" fill="#0" id="circle119"/>
	<circle cx="737.43" cy="207.279" r="4" fill="#0" id="circle120"/>
	<circle cx="737.43" cy="223.541" r="4" fill="#0" id="circle121"/>
	<circle cx="737.43" cy="358.518" r="4" fill="#0" id="circle122"/>
	<circle cx="753.692" cy="228.42" r="4" fill="#0" id="circle123"/>
	<circle cx="753.692" cy="363.397" r="4" fill="#0" id="circle124"/>
	<circle cx="768.328" cy="371.528" r="4" fill="#0" id="circle125"/>
	<circle cx="769.954" cy="226.793" r="4" fill="#0" id="circle126"/>
	<circle cx="782.964" cy="215.41" r="4" fill="#0" id="circle127"/>
	<circle cx="784.59" cy="371.528" r="4" fill="#0" id="circle128"/>
	<circle cx="794.348" cy="202.4" r="4" fill="#0" id="circle129"/>
	<circle cx="794.348" cy="384.538" r="4" fill="#0" id="circle130"/>
	<circle cx="810.61" cy="194.269" r="4" fill="#0" id="circle131"/>
	<circle cx="810.61" cy="382.911" r="4" fill="#0" id="circle132"/>
	<circle cx="821.993" cy="395.921" r="4" fill="#0" id="circle133"/>
	<circle cx="826.872" cy="186.138" r="4" fill="#0" id="circle134"/>
	<circle cx="838.256" cy="402.426" r="4" fill="#0" id="circle135"/>
	<circle cx="839.882" cy="174.754" r="4" fill="#0" id="circle136"/>
	<circle cx="854.518" cy="166.623" r="4" fill="#0" id="circle137"/>
	<circle cx="854.518" cy="404.052" r="4" fill="#0" id="circle138"/>
	<circle cx="859.397" cy="249.561" r="4" fill="#0" id="circle139"/>
	<circle cx="859.397" cy="265.823" r="4" fill="#0" id="circle140"/>
	<circle cx="859.397" cy="282.085" r="4" fill="#0" id="circle141"/>
	<circle cx="859.397" cy="298.348" r="4" fill="#0" id="circle142"/>
	<circle cx="859.397" cy="314.61" r="4" fill="#0" id="circle143"/>
	<circle cx="862.649" cy="330.872" r="4" fill="#0" id="circle144"/>
	<circle cx="867.528" cy="233.298" r="4" fill="#0" id="circle145"/>
	<circle cx="867.528" cy="347.134" r="4" fill="#0" id="circle146"/>
	<circle cx="869.154" cy="412.184" r="4" fill="#0" id="circle147"/>
	<circle cx="870.78" cy="166.623" r="4" fill="#0" id="circle148"/>
	<circle cx="875.659" cy="361.77" r="4" fill="#0" id="circle149"/>
	<circle cx="880.538" cy="221.915" r="4" fill="#0" id="circle150"/>
	<circle cx="883.79" cy="153.613" r="4" fill="#0" id="circle151"/>
	<circle cx="885.416" cy="417.062" r="4" fill="#0" id="circle152"/>
	<circle cx="891.921" cy="200.774" r="4" fill="#0" id="circle153"/>
	<circle cx="891.921" cy="366.649" r="4" fill="#0" id="circle154"/>
	<circle cx="898.426" cy="382.911" r="4" fill="#0" id="circle155"/>
	<circle cx="898.426" cy="428.446" r="4" fill="#0" id="circle156"/>
	<circle cx="900.052" cy="150.361" r="4" fill="#0" id="circle157"/>
	<circle cx="906.557" cy="192.643" r="4" fill="#0" id="circle158"/>
	<circle cx="911.436" cy="394.295" r="4" fill="#0" id="circle159"/>
	<circle cx="913.062" cy="420.315" r="4" fill="#0" id="circle160"/>
	<circle cx="916.315" cy="147.108" r="4" fill="#0" id="circle161"/>
	<circle cx="919.567" cy="436.577" r="4" fill="#0" id="circle162"/>
	<circle cx="921.193" cy="184.511" r="4" fill="#0" id="circle163"/>
	<circle cx="927.698" cy="394.295" r="4" fill="#0" id="circle164"/>
	<circle cx="930.951" cy="138.977" r="4" fill="#0" id="circle165"/>
	<circle cx="935.83" cy="174.754" r="4" fill="#0" id="circle166"/>
	<circle cx="935.83" cy="436.577" r="4" fill="#0" id="circle167"/>
	<circle cx="942.334" cy="402.426" r="4" fill="#0" id="circle168"/>
	<circle cx="947.213" cy="134.098" r="4" fill="#0" id="circle169"/>
	<circle cx="952.092" cy="166.623" r="4" fill="#0" id="circle170"/>
	<circle cx="952.092" cy="436.577" r="4" fill="#0" id="circle171"/>
	<circle cx="956.97" cy="410.557" r="4" fill="#0" id="circle172"/>
	<circle cx="963.475" cy="134.098" r="4" fill="#0" id="circle173"/>
	<circle cx="965.102" cy="151.987" r="4" fill="#0" id="circle174"/>
	<circle cx="968.354" cy="434.951" r="4" fill="#0" id="circle175"/>
	<circle cx="973.233" cy="415.436" r="4" fill="#0" id="circle176"/>
	<circle cx="979.738" cy="134.098" r="4" fill="#0" id="circle177"/>
	<circle cx="981.364" cy="151.987" r="4" fill="#0" id="circle178"/>
	<circle cx="996" cy="137.351" r="4" fill="#0" id="circle179"/>
	</g>
</svg>