<?xml version="1.0" encoding="UTF-8" standalone="no"?>
<!-- Created with CurveBenchmark -->
<svg
	xmlns:dc="http://purl.org/dc/elements/1.1/"
	xmlns:cc="http://creativecommons.org/ns#"
	xmlns:rdf="http://www.w3.org/1999/02/22-rdf-syntax-ns#"
	xmlns:svg="http://www.w3.org/2000/svg"
	xmlns="http://www.w3.org/2000/svg"
	xmlns:sodipodi="http://sodipodi.sourceforge.net/DTD/sodipodi-0.dtd"
	xmlns:inkscape="http://www.inkscape.org/namespaces/inkscape"
	width="1000"
	height="1000"
	id="svg2"
	version="1.1"
	sodipodi:docname="manifold/gathan1-chopper-02.png.txt">
<defs
	id="defs4" />
<metadata
	id="metadata7">
	<rdf:RDF>
		<cc:Work
			rdf:about="">
			<dc:format>image/svg+xml</dc:format>
			<dc:type
				rdf:resource="http://purl.org/dc/dcmitype/StillImage" />
			<dc:title></dc:title>
		</cc:Work>
	</rdf:RDF>
</metadata>
<g
	inkscape:label="Layer 1"
	inkscape:groupmode="layer"
	id="layer1">
	<path style="fill:none;stroke:red;stroke-width:1px;stroke-linecap:butt;stroke-linejoin:miter;stroke-opacity:1" d="M 129.731,243.742 139.321,238.415 z" id="boundary" inkscape:connector-curvature="0" />
	<path style="fill:none;stroke:red;stroke-width:1px;stroke-linecap:butt;stroke-linejoin:miter;stroke-opacity:1" d="M 148.911,233.087 158.501,225.628 z" id="boundary" inkscape:connector-curvature="0" />
	<path style="fill:none;stroke:red;stroke-width:1px;stroke-linecap:butt;stroke-linejoin:miter;stroke-opacity:1" d="M 158.501,225.628 169.156,220.301 z" id="boundary" inkscape:connector-curvature="0" />
	<path style="fill:none;stroke:red;stroke-width:1px;stroke-linecap:butt;stroke-linejoin:miter;stroke-opacity:1" d="M 148.911,233.087 139.321,238.415 z" id="boundary" inkscape:connector-curvature="0" />
	<path style="fill:none;stroke:red;stroke-width:1px;stroke-linecap:butt;stroke-linejoin:miter;stroke-opacity:1" d="M 177.68,211.777 169.156,220.301 z" id="boundary" inkscape:connector-curvature="0" />
	<path style="fill:none;stroke:red;stroke-width:1px;stroke-linecap:butt;stroke-linejoin:miter;stroke-opacity:1" d="M 87.1106,281.035 97.7658,275.708 z" id="boundary" inkscape:connector-curvature="0" />
	<path style="fill:none;stroke:red;stroke-width:1px;stroke-linecap:butt;stroke-linejoin:miter;stroke-opacity:1" d="M 103.093,265.053 97.7658,275.708 z" id="boundary" inkscape:connector-curvature="0" />
	<path style="fill:none;stroke:red;stroke-width:1px;stroke-linecap:butt;stroke-linejoin:miter;stroke-opacity:1" d="M 120.142,249.07 129.731,243.742 z" id="boundary" inkscape:connector-curvature="0" />
	<path style="fill:none;stroke:red;stroke-width:1px;stroke-linecap:butt;stroke-linejoin:miter;stroke-opacity:1" d="M 111.618,256.528 120.142,249.07 z" id="boundary" inkscape:connector-curvature="0" />
	<path style="fill:none;stroke:red;stroke-width:1px;stroke-linecap:butt;stroke-linejoin:miter;stroke-opacity:1" d="M 111.618,256.528 103.093,265.053 z" id="boundary" inkscape:connector-curvature="0" />
	<path style="fill:none;stroke:red;stroke-width:1px;stroke-linecap:butt;stroke-linejoin:miter;stroke-opacity:1" d="M 240.546,190.466 229.89,190.466 z" id="boundary" inkscape:connector-curvature="0" />
	<path style="fill:none;stroke:red;stroke-width:1px;stroke-linecap:butt;stroke-linejoin:miter;stroke-opacity:1" d="M 250.135,185.139 240.546,190.466 z" id="boundary" inkscape:connector-curvature="0" />
	<path style="fill:none;stroke:red;stroke-width:1px;stroke-linecap:butt;stroke-linejoin:miter;stroke-opacity:1" d="M 260.791,181.942 250.135,185.139 z" id="boundary" inkscape:connector-curvature="0" />
	<path style="fill:none;stroke:red;stroke-width:1px;stroke-linecap:butt;stroke-linejoin:miter;stroke-opacity:1" d="M 260.791,181.942 271.446,179.811 z" id="boundary" inkscape:connector-curvature="0" />
	<path style="fill:none;stroke:red;stroke-width:1px;stroke-linecap:butt;stroke-linejoin:miter;stroke-opacity:1" d="M 271.446,179.811 282.101,179.811 z" id="boundary" inkscape:connector-curvature="0" />
	<path style="fill:none;stroke:red;stroke-width:1px;stroke-linecap:butt;stroke-linejoin:miter;stroke-opacity:1" d="M 188.335,206.449 177.68,211.777 z" id="boundary" inkscape:connector-curvature="0" />
	<path style="fill:none;stroke:red;stroke-width:1px;stroke-linecap:butt;stroke-linejoin:miter;stroke-opacity:1" d="M 198.99,201.121 188.335,206.449 z" id="boundary" inkscape:connector-curvature="0" />
	<path style="fill:none;stroke:red;stroke-width:1px;stroke-linecap:butt;stroke-linejoin:miter;stroke-opacity:1" d="M 229.89,190.466 220.301,195.794 z" id="boundary" inkscape:connector-curvature="0" />
	<path style="fill:none;stroke:red;stroke-width:1px;stroke-linecap:butt;stroke-linejoin:miter;stroke-opacity:1" d="M 220.301,195.794 209.646,195.794 z" id="boundary" inkscape:connector-curvature="0" />
	<path style="fill:none;stroke:red;stroke-width:1px;stroke-linecap:butt;stroke-linejoin:miter;stroke-opacity:1" d="M 198.99,201.121 209.646,195.794 z" id="boundary" inkscape:connector-curvature="0" />
	<path style="fill:none;stroke:red;stroke-width:1px;stroke-linecap:butt;stroke-linejoin:miter;stroke-opacity:1" d="M 46.6208,369.474 46.6208,380.129 z" id="boundary" inkscape:connector-curvature="0" />
	<path style="fill:none;stroke:red;stroke-width:1px;stroke-linecap:butt;stroke-linejoin:miter;stroke-opacity:1" d="M 46.6208,369.474 51.9484,358.818 z" id="boundary" inkscape:connector-curvature="0" />
	<path style="fill:none;stroke:red;stroke-width:1px;stroke-linecap:butt;stroke-linejoin:miter;stroke-opacity:1" d="M 46.6208,390.784 46.6208,401.439 z" id="boundary" inkscape:connector-curvature="0" />
	<path style="fill:none;stroke:red;stroke-width:1px;stroke-linecap:butt;stroke-linejoin:miter;stroke-opacity:1" d="M 46.6208,401.439 46.6208,412.095 z" id="boundary" inkscape:connector-curvature="0" />
	<path style="fill:none;stroke:red;stroke-width:1px;stroke-linecap:butt;stroke-linejoin:miter;stroke-opacity:1" d="M 46.6208,390.784 46.6208,380.129 z" id="boundary" inkscape:connector-curvature="0" />
	<path style="fill:none;stroke:red;stroke-width:1px;stroke-linecap:butt;stroke-linejoin:miter;stroke-opacity:1" d="M 46.6208,422.75 46.6208,433.405 z" id="boundary" inkscape:connector-curvature="0" />
	<path style="fill:none;stroke:red;stroke-width:1px;stroke-linecap:butt;stroke-linejoin:miter;stroke-opacity:1" d="M 46.6208,422.75 46.6208,412.095 z" id="boundary" inkscape:connector-curvature="0" />
	<path style="fill:none;stroke:red;stroke-width:1px;stroke-linecap:butt;stroke-linejoin:miter;stroke-opacity:1" d="M 46.6208,444.06 46.6208,454.715 z" id="boundary" inkscape:connector-curvature="0" />
	<path style="fill:none;stroke:red;stroke-width:1px;stroke-linecap:butt;stroke-linejoin:miter;stroke-opacity:1" d="M 46.6208,444.06 46.6208,433.405 z" id="boundary" inkscape:connector-curvature="0" />
	<path style="fill:none;stroke:red;stroke-width:1px;stroke-linecap:butt;stroke-linejoin:miter;stroke-opacity:1" d="M 46.6208,454.715 46.6208,465.371 z" id="boundary" inkscape:connector-curvature="0" />
	<path style="fill:none;stroke:red;stroke-width:1px;stroke-linecap:butt;stroke-linejoin:miter;stroke-opacity:1" d="M 57.276,337.508 62.6037,321.525 z" id="boundary" inkscape:connector-curvature="0" />
	<path style="fill:none;stroke:red;stroke-width:1px;stroke-linecap:butt;stroke-linejoin:miter;stroke-opacity:1" d="M 62.6037,321.525 67.9313,310.87 z" id="boundary" inkscape:connector-curvature="0" />
	<path style="fill:none;stroke:red;stroke-width:1px;stroke-linecap:butt;stroke-linejoin:miter;stroke-opacity:1" d="M 57.276,337.508 51.9484,348.163 z" id="boundary" inkscape:connector-curvature="0" />
	<path style="fill:none;stroke:red;stroke-width:1px;stroke-linecap:butt;stroke-linejoin:miter;stroke-opacity:1" d="M 67.9313,310.87 73.2589,300.215 z" id="boundary" inkscape:connector-curvature="0" />
	<path style="fill:none;stroke:red;stroke-width:1px;stroke-linecap:butt;stroke-linejoin:miter;stroke-opacity:1" d="M 46.6208,476.026 46.6208,486.681 z" id="boundary" inkscape:connector-curvature="0" />
	<path style="fill:none;stroke:red;stroke-width:1px;stroke-linecap:butt;stroke-linejoin:miter;stroke-opacity:1" d="M 78.5865,289.56 87.1106,281.035 z" id="boundary" inkscape:connector-curvature="0" />
	<path style="fill:none;stroke:red;stroke-width:1px;stroke-linecap:butt;stroke-linejoin:miter;stroke-opacity:1" d="M 73.2589,300.215 78.5865,289.56 z" id="boundary" inkscape:connector-curvature="0" />
	<path style="fill:none;stroke:red;stroke-width:1px;stroke-linecap:butt;stroke-linejoin:miter;stroke-opacity:1" d="M 46.6208,476.026 46.6208,465.371 z" id="boundary" inkscape:connector-curvature="0" />
	<path style="fill:none;stroke:red;stroke-width:1px;stroke-linecap:butt;stroke-linejoin:miter;stroke-opacity:1" d="M 46.6208,486.681 46.6208,497.336 z" id="boundary" inkscape:connector-curvature="0" />
	<path style="fill:none;stroke:red;stroke-width:1px;stroke-linecap:butt;stroke-linejoin:miter;stroke-opacity:1" d="M 51.9484,358.818 51.9484,348.163 z" id="boundary" inkscape:connector-curvature="0" />
	<path style="fill:none;stroke:red;stroke-width:1px;stroke-linecap:butt;stroke-linejoin:miter;stroke-opacity:1" d="M 46.6208,497.336 46.6208,507.991 z" id="boundary" inkscape:connector-curvature="0" />
	<path style="fill:none;stroke:red;stroke-width:1px;stroke-linecap:butt;stroke-linejoin:miter;stroke-opacity:1" d="M 282.101,179.811 292.756,179.811 z" id="boundary" inkscape:connector-curvature="0" />
	<path style="fill:none;stroke:red;stroke-width:1px;stroke-linecap:butt;stroke-linejoin:miter;stroke-opacity:1" d="M 302.346,44.4898 302.346,33.8346 z" id="boundary" inkscape:connector-curvature="0" />
	<path style="fill:none;stroke:red;stroke-width:1px;stroke-linecap:butt;stroke-linejoin:miter;stroke-opacity:1" d="M 302.346,33.8346 310.87,25.3104 z" id="boundary" inkscape:connector-curvature="0" />
	<path style="fill:none;stroke:red;stroke-width:1px;stroke-linecap:butt;stroke-linejoin:miter;stroke-opacity:1" d="M 320.46,19.9828 330.049,14.6552 z" id="boundary" inkscape:connector-curvature="0" />
	<path style="fill:none;stroke:red;stroke-width:1px;stroke-linecap:butt;stroke-linejoin:miter;stroke-opacity:1" d="M 330.049,14.6552 340.705,14.6552 z" id="boundary" inkscape:connector-curvature="0" />
	<path style="fill:none;stroke:red;stroke-width:1px;stroke-linecap:butt;stroke-linejoin:miter;stroke-opacity:1" d="M 310.87,25.3104 320.46,19.9828 z" id="boundary" inkscape:connector-curvature="0" />
	<path style="fill:none;stroke:red;stroke-width:1px;stroke-linecap:butt;stroke-linejoin:miter;stroke-opacity:1" d="M 307.673,54.0795 302.346,44.4898 z" id="boundary" inkscape:connector-curvature="0" />
	<path style="fill:none;stroke:red;stroke-width:1px;stroke-linecap:butt;stroke-linejoin:miter;stroke-opacity:1" d="M 318.329,58.3416 307.673,54.0795 z" id="boundary" inkscape:connector-curvature="0" />
	<path style="fill:none;stroke:red;stroke-width:1px;stroke-linecap:butt;stroke-linejoin:miter;stroke-opacity:1" d="M 338.574,63.6692 327.918,63.6692 z" id="boundary" inkscape:connector-curvature="0" />
	<path style="fill:none;stroke:red;stroke-width:1px;stroke-linecap:butt;stroke-linejoin:miter;stroke-opacity:1" d="M 327.918,63.6692 318.329,58.3416 z" id="boundary" inkscape:connector-curvature="0" />
	<path style="fill:none;stroke:red;stroke-width:1px;stroke-linecap:butt;stroke-linejoin:miter;stroke-opacity:1" d="M 349.229,63.6692 338.574,63.6692 z" id="boundary" inkscape:connector-curvature="0" />
	<path style="fill:none;stroke:red;stroke-width:1px;stroke-linecap:butt;stroke-linejoin:miter;stroke-opacity:1" d="M 360.95,9.3276 371.605,9.3276 z" id="boundary" inkscape:connector-curvature="0" />
	<path style="fill:none;stroke:red;stroke-width:1px;stroke-linecap:butt;stroke-linejoin:miter;stroke-opacity:1" d="M 351.36,14.6552 360.95,9.3276 z" id="boundary" inkscape:connector-curvature="0" />
	<path style="fill:none;stroke:red;stroke-width:1px;stroke-linecap:butt;stroke-linejoin:miter;stroke-opacity:1" d="M 382.26,9.3276 371.605,9.3276 z" id="boundary" inkscape:connector-curvature="0" />
	<path style="fill:none;stroke:red;stroke-width:1px;stroke-linecap:butt;stroke-linejoin:miter;stroke-opacity:1" d="M 392.915,9.3276 402.505,4 z" id="boundary" inkscape:connector-curvature="0" />
	<path style="fill:none;stroke:red;stroke-width:1px;stroke-linecap:butt;stroke-linejoin:miter;stroke-opacity:1" d="M 402.505,4 413.16,4 z" id="boundary" inkscape:connector-curvature="0" />
	<path style="fill:none;stroke:red;stroke-width:1px;stroke-linecap:butt;stroke-linejoin:miter;stroke-opacity:1" d="M 359.884,63.6692 349.229,63.6692 z" id="boundary" inkscape:connector-curvature="0" />
	<path style="fill:none;stroke:red;stroke-width:1px;stroke-linecap:butt;stroke-linejoin:miter;stroke-opacity:1" d="M 340.705,14.6552 351.36,14.6552 z" id="boundary" inkscape:connector-curvature="0" />
	<path style="fill:none;stroke:red;stroke-width:1px;stroke-linecap:butt;stroke-linejoin:miter;stroke-opacity:1" d="M 370.539,63.6692 359.884,63.6692 z" id="boundary" inkscape:connector-curvature="0" />
	<path style="fill:none;stroke:red;stroke-width:1px;stroke-linecap:butt;stroke-linejoin:miter;stroke-opacity:1" d="M 382.26,9.3276 392.915,9.3276 z" id="boundary" inkscape:connector-curvature="0" />
	<path style="fill:none;stroke:red;stroke-width:1px;stroke-linecap:butt;stroke-linejoin:miter;stroke-opacity:1" d="M 430.208,84.9796 420.619,90.3072 z" id="boundary" inkscape:connector-curvature="0" />
	<path style="fill:none;stroke:red;stroke-width:1px;stroke-linecap:butt;stroke-linejoin:miter;stroke-opacity:1" d="M 370.539,63.6692 371.605,74.3244 z" id="boundary" inkscape:connector-curvature="0" />
	<path style="fill:none;stroke:red;stroke-width:1px;stroke-linecap:butt;stroke-linejoin:miter;stroke-opacity:1" d="M 344.967,169.156 334.311,169.156 z" id="boundary" inkscape:connector-curvature="0" />
	<path style="fill:none;stroke:red;stroke-width:1px;stroke-linecap:butt;stroke-linejoin:miter;stroke-opacity:1" d="M 374.801,95.6348 371.605,84.9796 z" id="boundary" inkscape:connector-curvature="0" />
	<path style="fill:none;stroke:red;stroke-width:1px;stroke-linecap:butt;stroke-linejoin:miter;stroke-opacity:1" d="M 371.605,84.9796 371.605,74.3244 z" id="boundary" inkscape:connector-curvature="0" />
	<path style="fill:none;stroke:red;stroke-width:1px;stroke-linecap:butt;stroke-linejoin:miter;stroke-opacity:1" d="M 334.311,169.156 323.656,172.352 z" id="boundary" inkscape:connector-curvature="0" />
	<path style="fill:none;stroke:red;stroke-width:1px;stroke-linecap:butt;stroke-linejoin:miter;stroke-opacity:1" d="M 374.801,95.6348 380.129,105.224 z" id="boundary" inkscape:connector-curvature="0" />
	<path style="fill:none;stroke:red;stroke-width:1px;stroke-linecap:butt;stroke-linejoin:miter;stroke-opacity:1" d="M 292.756,179.811 302.346,174.483 z" id="boundary" inkscape:connector-curvature="0" />
	<path style="fill:none;stroke:red;stroke-width:1px;stroke-linecap:butt;stroke-linejoin:miter;stroke-opacity:1" d="M 302.346,174.483 313.001,174.483 z" id="boundary" inkscape:connector-curvature="0" />
	<path style="fill:none;stroke:red;stroke-width:1px;stroke-linecap:butt;stroke-linejoin:miter;stroke-opacity:1" d="M 323.656,172.352 313.001,174.483 z" id="boundary" inkscape:connector-curvature="0" />
	<path style="fill:none;stroke:red;stroke-width:1px;stroke-linecap:butt;stroke-linejoin:miter;stroke-opacity:1" d="M 344.967,169.156 355.622,169.156 z" id="boundary" inkscape:connector-curvature="0" />
	<path style="fill:none;stroke:red;stroke-width:1px;stroke-linecap:butt;stroke-linejoin:miter;stroke-opacity:1" d="M 365.212,163.828 355.622,169.156 z" id="boundary" inkscape:connector-curvature="0" />
	<path style="fill:none;stroke:red;stroke-width:1px;stroke-linecap:butt;stroke-linejoin:miter;stroke-opacity:1" d="M 365.212,163.828 375.867,163.828 z" id="boundary" inkscape:connector-curvature="0" />
	<path style="fill:none;stroke:red;stroke-width:1px;stroke-linecap:butt;stroke-linejoin:miter;stroke-opacity:1" d="M 389.719,110.552 380.129,105.224 z" id="boundary" inkscape:connector-curvature="0" />
	<path style="fill:none;stroke:red;stroke-width:1px;stroke-linecap:butt;stroke-linejoin:miter;stroke-opacity:1" d="M 403.57,122.273 400.374,111.618 z" id="boundary" inkscape:connector-curvature="0" />
	<path style="fill:none;stroke:red;stroke-width:1px;stroke-linecap:butt;stroke-linejoin:miter;stroke-opacity:1" d="M 400.374,111.618 389.719,110.552 z" id="boundary" inkscape:connector-curvature="0" />
	<path style="fill:none;stroke:red;stroke-width:1px;stroke-linecap:butt;stroke-linejoin:miter;stroke-opacity:1" d="M 403.57,132.928 403.57,122.273 z" id="boundary" inkscape:connector-curvature="0" />
	<path style="fill:none;stroke:red;stroke-width:1px;stroke-linecap:butt;stroke-linejoin:miter;stroke-opacity:1" d="M 403.57,154.238 396.112,169.156 z" id="boundary" inkscape:connector-curvature="0" />
	<path style="fill:none;stroke:red;stroke-width:1px;stroke-linecap:butt;stroke-linejoin:miter;stroke-opacity:1" d="M 396.112,169.156 385.456,169.156 z" id="boundary" inkscape:connector-curvature="0" />
	<path style="fill:none;stroke:red;stroke-width:1px;stroke-linecap:butt;stroke-linejoin:miter;stroke-opacity:1" d="M 385.456,169.156 375.867,163.828 z" id="boundary" inkscape:connector-curvature="0" />
	<path style="fill:none;stroke:red;stroke-width:1px;stroke-linecap:butt;stroke-linejoin:miter;stroke-opacity:1" d="M 403.57,132.928 403.57,143.583 z" id="boundary" inkscape:connector-curvature="0" />
	<path style="fill:none;stroke:red;stroke-width:1px;stroke-linecap:butt;stroke-linejoin:miter;stroke-opacity:1" d="M 403.57,154.238 403.57,143.583 z" id="boundary" inkscape:connector-curvature="0" />
	<path style="fill:none;stroke:red;stroke-width:1px;stroke-linecap:butt;stroke-linejoin:miter;stroke-opacity:1" d="M 420.619,90.3072 425.946,99.8969 z" id="boundary" inkscape:connector-curvature="0" />
	<path style="fill:none;stroke:red;stroke-width:1px;stroke-linecap:butt;stroke-linejoin:miter;stroke-opacity:1" d="M 46.6208,518.647 46.6208,529.302 z" id="boundary" inkscape:connector-curvature="0" />
	<path style="fill:none;stroke:red;stroke-width:1px;stroke-linecap:butt;stroke-linejoin:miter;stroke-opacity:1" d="M 57.276,569.792 51.9484,560.202 z" id="boundary" inkscape:connector-curvature="0" />
	<path style="fill:none;stroke:red;stroke-width:1px;stroke-linecap:butt;stroke-linejoin:miter;stroke-opacity:1" d="M 51.9484,560.202 46.6208,550.612 z" id="boundary" inkscape:connector-curvature="0" />
	<path style="fill:none;stroke:red;stroke-width:1px;stroke-linecap:butt;stroke-linejoin:miter;stroke-opacity:1" d="M 46.6208,550.612 46.6208,539.957 z" id="boundary" inkscape:connector-curvature="0" />
	<path style="fill:none;stroke:red;stroke-width:1px;stroke-linecap:butt;stroke-linejoin:miter;stroke-opacity:1" d="M 46.6208,539.957 46.6208,529.302 z" id="boundary" inkscape:connector-curvature="0" />
	<path style="fill:none;stroke:red;stroke-width:1px;stroke-linecap:butt;stroke-linejoin:miter;stroke-opacity:1" d="M 12.5242,653.968 22.1139,648.64 z" id="boundary" inkscape:connector-curvature="0" />
	<path style="fill:none;stroke:red;stroke-width:1px;stroke-linecap:butt;stroke-linejoin:miter;stroke-opacity:1" d="M 32.7691,644.378 43.4243,643.313 z" id="boundary" inkscape:connector-curvature="0" />
	<path style="fill:none;stroke:red;stroke-width:1px;stroke-linecap:butt;stroke-linejoin:miter;stroke-opacity:1" d="M 54.0795,643.313 43.4243,643.313 z" id="boundary" inkscape:connector-curvature="0" />
	<path style="fill:none;stroke:red;stroke-width:1px;stroke-linecap:butt;stroke-linejoin:miter;stroke-opacity:1" d="M 22.1139,648.64 32.7691,644.378 z" id="boundary" inkscape:connector-curvature="0" />
	<path style="fill:none;stroke:red;stroke-width:1px;stroke-linecap:butt;stroke-linejoin:miter;stroke-opacity:1" d="M 12.5242,653.968 4,662.492 z" id="boundary" inkscape:connector-curvature="0" />
	<path style="fill:none;stroke:red;stroke-width:1px;stroke-linecap:butt;stroke-linejoin:miter;stroke-opacity:1" d="M 60.4726,580.447 65.8002,590.037 z" id="boundary" inkscape:connector-curvature="0" />
	<path style="fill:none;stroke:red;stroke-width:1px;stroke-linecap:butt;stroke-linejoin:miter;stroke-opacity:1" d="M 60.4726,580.447 57.276,569.792 z" id="boundary" inkscape:connector-curvature="0" />
	<path style="fill:none;stroke:red;stroke-width:1px;stroke-linecap:butt;stroke-linejoin:miter;stroke-opacity:1" d="M 83.9141,617.74 75.3899,610.281 z" id="boundary" inkscape:connector-curvature="0" />
	<path style="fill:none;stroke:red;stroke-width:1px;stroke-linecap:butt;stroke-linejoin:miter;stroke-opacity:1" d="M 75.3899,610.281 70.0623,600.692 z" id="boundary" inkscape:connector-curvature="0" />
	<path style="fill:none;stroke:red;stroke-width:1px;stroke-linecap:butt;stroke-linejoin:miter;stroke-opacity:1" d="M 70.0623,600.692 65.8002,590.037 z" id="boundary" inkscape:connector-curvature="0" />
	<path style="fill:none;stroke:red;stroke-width:1px;stroke-linecap:butt;stroke-linejoin:miter;stroke-opacity:1" d="M 68.9968,658.23 63.6692,648.64 z" id="boundary" inkscape:connector-curvature="0" />
	<path style="fill:none;stroke:red;stroke-width:1px;stroke-linecap:butt;stroke-linejoin:miter;stroke-opacity:1" d="M 83.9141,617.74 87.1106,628.395 z" id="boundary" inkscape:connector-curvature="0" />
	<path style="fill:none;stroke:red;stroke-width:1px;stroke-linecap:butt;stroke-linejoin:miter;stroke-opacity:1" d="M 63.6692,648.64 54.0795,643.313 z" id="boundary" inkscape:connector-curvature="0" />
	<path style="fill:none;stroke:red;stroke-width:1px;stroke-linecap:butt;stroke-linejoin:miter;stroke-opacity:1" d="M 95.6348,635.854 87.1106,628.395 z" id="boundary" inkscape:connector-curvature="0" />
	<path style="fill:none;stroke:red;stroke-width:1px;stroke-linecap:butt;stroke-linejoin:miter;stroke-opacity:1" d="M 105.224,641.182 95.6348,635.854 z" id="boundary" inkscape:connector-curvature="0" />
	<path style="fill:none;stroke:red;stroke-width:1px;stroke-linecap:butt;stroke-linejoin:miter;stroke-opacity:1" d="M 74.3244,667.82 68.9968,658.23 z" id="boundary" inkscape:connector-curvature="0" />
	<path style="fill:none;stroke:red;stroke-width:1px;stroke-linecap:butt;stroke-linejoin:miter;stroke-opacity:1" d="M 4,683.802 4,673.147 z" id="boundary" inkscape:connector-curvature="0" />
	<path style="fill:none;stroke:red;stroke-width:1px;stroke-linecap:butt;stroke-linejoin:miter;stroke-opacity:1" d="M 4,705.113 4,694.458 z" id="boundary" inkscape:connector-curvature="0" />
	<path style="fill:none;stroke:red;stroke-width:1px;stroke-linecap:butt;stroke-linejoin:miter;stroke-opacity:1" d="M 9.3276,714.702 4,705.113 z" id="boundary" inkscape:connector-curvature="0" />
	<path style="fill:none;stroke:red;stroke-width:1px;stroke-linecap:butt;stroke-linejoin:miter;stroke-opacity:1" d="M 4,694.458 4,683.802 z" id="boundary" inkscape:connector-curvature="0" />
	<path style="fill:none;stroke:red;stroke-width:1px;stroke-linecap:butt;stroke-linejoin:miter;stroke-opacity:1" d="M 9.3276,714.702 9.3276,725.358 z" id="boundary" inkscape:connector-curvature="0" />
	<path style="fill:none;stroke:red;stroke-width:1px;stroke-linecap:butt;stroke-linejoin:miter;stroke-opacity:1" d="M 14.6552,734.947 9.3276,725.358 z" id="boundary" inkscape:connector-curvature="0" />
	<path style="fill:none;stroke:red;stroke-width:1px;stroke-linecap:butt;stroke-linejoin:miter;stroke-opacity:1" d="M 31.7035,745.603 21.0483,743.472 z" id="boundary" inkscape:connector-curvature="0" />
	<path style="fill:none;stroke:red;stroke-width:1px;stroke-linecap:butt;stroke-linejoin:miter;stroke-opacity:1" d="M 21.0483,743.472 14.6552,734.947 z" id="boundary" inkscape:connector-curvature="0" />
	<path style="fill:none;stroke:red;stroke-width:1px;stroke-linecap:butt;stroke-linejoin:miter;stroke-opacity:1" d="M 42.3588,745.603 31.7035,745.603 z" id="boundary" inkscape:connector-curvature="0" />
	<path style="fill:none;stroke:red;stroke-width:1px;stroke-linecap:butt;stroke-linejoin:miter;stroke-opacity:1" d="M 4,673.147 4,662.492 z" id="boundary" inkscape:connector-curvature="0" />
	<path style="fill:none;stroke:red;stroke-width:1px;stroke-linecap:butt;stroke-linejoin:miter;stroke-opacity:1" d="M 79.652,677.409 74.3244,667.82 z" id="boundary" inkscape:connector-curvature="0" />
	<path style="fill:none;stroke:red;stroke-width:1px;stroke-linecap:butt;stroke-linejoin:miter;stroke-opacity:1" d="M 90.3072,680.606 79.652,677.409 z" id="boundary" inkscape:connector-curvature="0" />
	<path style="fill:none;stroke:red;stroke-width:1px;stroke-linecap:butt;stroke-linejoin:miter;stroke-opacity:1" d="M 90.3072,680.606 100.962,680.606 z" id="boundary" inkscape:connector-curvature="0" />
	<path style="fill:none;stroke:red;stroke-width:1px;stroke-linecap:butt;stroke-linejoin:miter;stroke-opacity:1" d="M 100.962,680.606 111.618,680.606 z" id="boundary" inkscape:connector-curvature="0" />
	<path style="fill:none;stroke:red;stroke-width:1px;stroke-linecap:butt;stroke-linejoin:miter;stroke-opacity:1" d="M 53.014,745.603 42.3588,745.603 z" id="boundary" inkscape:connector-curvature="0" />
	<path style="fill:none;stroke:red;stroke-width:1px;stroke-linecap:butt;stroke-linejoin:miter;stroke-opacity:1" d="M 63.6692,745.603 53.014,745.603 z" id="boundary" inkscape:connector-curvature="0" />
	<path style="fill:none;stroke:red;stroke-width:1px;stroke-linecap:butt;stroke-linejoin:miter;stroke-opacity:1" d="M 84.9796,745.603 74.3244,745.603 z" id="boundary" inkscape:connector-curvature="0" />
	<path style="fill:none;stroke:red;stroke-width:1px;stroke-linecap:butt;stroke-linejoin:miter;stroke-opacity:1" d="M 95.6348,745.603 84.9796,745.603 z" id="boundary" inkscape:connector-curvature="0" />
	<path style="fill:none;stroke:red;stroke-width:1px;stroke-linecap:butt;stroke-linejoin:miter;stroke-opacity:1" d="M 106.29,740.275 95.6348,745.603 z" id="boundary" inkscape:connector-curvature="0" />
	<path style="fill:none;stroke:red;stroke-width:1px;stroke-linecap:butt;stroke-linejoin:miter;stroke-opacity:1" d="M 74.3244,745.603 63.6692,745.603 z" id="boundary" inkscape:connector-curvature="0" />
	<path style="fill:none;stroke:red;stroke-width:1px;stroke-linecap:butt;stroke-linejoin:miter;stroke-opacity:1" d="M 106.29,740.275 116.945,740.275 z" id="boundary" inkscape:connector-curvature="0" />
	<path style="fill:none;stroke:red;stroke-width:1px;stroke-linecap:butt;stroke-linejoin:miter;stroke-opacity:1" d="M 105.224,641.182 115.88,644.378 z" id="boundary" inkscape:connector-curvature="0" />
	<path style="fill:none;stroke:red;stroke-width:1px;stroke-linecap:butt;stroke-linejoin:miter;stroke-opacity:1" d="M 46.6208,507.991 46.6208,518.647 z" id="boundary" inkscape:connector-curvature="0" />
	<path style="fill:none;stroke:red;stroke-width:1px;stroke-linecap:butt;stroke-linejoin:miter;stroke-opacity:1" d="M 115.88,644.378 125.469,639.05 z" id="boundary" inkscape:connector-curvature="0" />
	<path style="fill:none;stroke:red;stroke-width:1px;stroke-linecap:butt;stroke-linejoin:miter;stroke-opacity:1" d="M 125.469,639.05 136.125,639.05 z" id="boundary" inkscape:connector-curvature="0" />
	<path style="fill:none;stroke:red;stroke-width:1px;stroke-linecap:butt;stroke-linejoin:miter;stroke-opacity:1" d="M 146.78,639.05 136.125,639.05 z" id="boundary" inkscape:connector-curvature="0" />
	<path style="fill:none;stroke:red;stroke-width:1px;stroke-linecap:butt;stroke-linejoin:miter;stroke-opacity:1" d="M 157.435,639.05 146.78,639.05 z" id="boundary" inkscape:connector-curvature="0" />
	<path style="fill:none;stroke:red;stroke-width:1px;stroke-linecap:butt;stroke-linejoin:miter;stroke-opacity:1" d="M 111.618,680.606 122.273,680.606 z" id="boundary" inkscape:connector-curvature="0" />
	<path style="fill:none;stroke:red;stroke-width:1px;stroke-linecap:butt;stroke-linejoin:miter;stroke-opacity:1" d="M 132.928,680.606 143.583,680.606 z" id="boundary" inkscape:connector-curvature="0" />
	<path style="fill:none;stroke:red;stroke-width:1px;stroke-linecap:butt;stroke-linejoin:miter;stroke-opacity:1" d="M 163.828,668.885 154.238,680.606 z" id="boundary" inkscape:connector-curvature="0" />
	<path style="fill:none;stroke:red;stroke-width:1px;stroke-linecap:butt;stroke-linejoin:miter;stroke-opacity:1" d="M 154.238,680.606 143.583,680.606 z" id="boundary" inkscape:connector-curvature="0" />
	<path style="fill:none;stroke:red;stroke-width:1px;stroke-linecap:butt;stroke-linejoin:miter;stroke-opacity:1" d="M 132.928,680.606 122.273,680.606 z" id="boundary" inkscape:connector-curvature="0" />
	<path style="fill:none;stroke:red;stroke-width:1px;stroke-linecap:butt;stroke-linejoin:miter;stroke-opacity:1" d="M 157.435,639.05 163.828,647.575 z" id="boundary" inkscape:connector-curvature="0" />
	<path style="fill:none;stroke:red;stroke-width:1px;stroke-linecap:butt;stroke-linejoin:miter;stroke-opacity:1" d="M 163.828,647.575 163.828,658.23 z" id="boundary" inkscape:connector-curvature="0" />
	<path style="fill:none;stroke:red;stroke-width:1px;stroke-linecap:butt;stroke-linejoin:miter;stroke-opacity:1" d="M 163.828,668.885 163.828,658.23 z" id="boundary" inkscape:connector-curvature="0" />
	<path style="fill:none;stroke:red;stroke-width:1px;stroke-linecap:butt;stroke-linejoin:miter;stroke-opacity:1" d="M 428.077,669.951 417.422,675.278 z" id="boundary" inkscape:connector-curvature="0" />
	<path style="fill:none;stroke:red;stroke-width:1px;stroke-linecap:butt;stroke-linejoin:miter;stroke-opacity:1" d="M 417.422,675.278 406.767,676.344 z" id="boundary" inkscape:connector-curvature="0" />
	<path style="fill:none;stroke:red;stroke-width:1px;stroke-linecap:butt;stroke-linejoin:miter;stroke-opacity:1" d="M 344.967,692.327 354.556,686.999 z" id="boundary" inkscape:connector-curvature="0" />
	<path style="fill:none;stroke:red;stroke-width:1px;stroke-linecap:butt;stroke-linejoin:miter;stroke-opacity:1" d="M 354.556,686.999 365.212,684.868 z" id="boundary" inkscape:connector-curvature="0" />
	<path style="fill:none;stroke:red;stroke-width:1px;stroke-linecap:butt;stroke-linejoin:miter;stroke-opacity:1" d="M 375.867,681.671 365.212,684.868 z" id="boundary" inkscape:connector-curvature="0" />
	<path style="fill:none;stroke:red;stroke-width:1px;stroke-linecap:butt;stroke-linejoin:miter;stroke-opacity:1" d="M 396.112,676.344 386.522,681.671 z" id="boundary" inkscape:connector-curvature="0" />
	<path style="fill:none;stroke:red;stroke-width:1px;stroke-linecap:butt;stroke-linejoin:miter;stroke-opacity:1" d="M 386.522,681.671 375.867,681.671 z" id="boundary" inkscape:connector-curvature="0" />
	<path style="fill:none;stroke:red;stroke-width:1px;stroke-linecap:butt;stroke-linejoin:miter;stroke-opacity:1" d="M 396.112,676.344 406.767,676.344 z" id="boundary" inkscape:connector-curvature="0" />
	<path style="fill:none;stroke:red;stroke-width:1px;stroke-linecap:butt;stroke-linejoin:miter;stroke-opacity:1" d="M 344.967,692.327 334.311,694.458 z" id="boundary" inkscape:connector-curvature="0" />
	<path style="fill:none;stroke:red;stroke-width:1px;stroke-linecap:butt;stroke-linejoin:miter;stroke-opacity:1" d="M 178.745,729.62 189.401,729.62 z" id="boundary" inkscape:connector-curvature="0" />
	<path style="fill:none;stroke:red;stroke-width:1px;stroke-linecap:butt;stroke-linejoin:miter;stroke-opacity:1" d="M 169.156,734.947 178.745,729.62 z" id="boundary" inkscape:connector-curvature="0" />
	<path style="fill:none;stroke:red;stroke-width:1px;stroke-linecap:butt;stroke-linejoin:miter;stroke-opacity:1" d="M 200.056,727.489 210.711,724.292 z" id="boundary" inkscape:connector-curvature="0" />
	<path style="fill:none;stroke:red;stroke-width:1px;stroke-linecap:butt;stroke-linejoin:miter;stroke-opacity:1" d="M 210.711,724.292 221.366,724.292 z" id="boundary" inkscape:connector-curvature="0" />
	<path style="fill:none;stroke:red;stroke-width:1px;stroke-linecap:butt;stroke-linejoin:miter;stroke-opacity:1" d="M 200.056,727.489 189.401,729.62 z" id="boundary" inkscape:connector-curvature="0" />
	<path style="fill:none;stroke:red;stroke-width:1px;stroke-linecap:butt;stroke-linejoin:miter;stroke-opacity:1" d="M 230.956,718.965 221.366,724.292 z" id="boundary" inkscape:connector-curvature="0" />
	<path style="fill:none;stroke:red;stroke-width:1px;stroke-linecap:butt;stroke-linejoin:miter;stroke-opacity:1" d="M 116.945,740.275 127.6,740.275 z" id="boundary" inkscape:connector-curvature="0" />
	<path style="fill:none;stroke:red;stroke-width:1px;stroke-linecap:butt;stroke-linejoin:miter;stroke-opacity:1" d="M 138.256,740.275 127.6,740.275 z" id="boundary" inkscape:connector-curvature="0" />
	<path style="fill:none;stroke:red;stroke-width:1px;stroke-linecap:butt;stroke-linejoin:miter;stroke-opacity:1" d="M 148.911,740.275 158.501,734.947 z" id="boundary" inkscape:connector-curvature="0" />
	<path style="fill:none;stroke:red;stroke-width:1px;stroke-linecap:butt;stroke-linejoin:miter;stroke-opacity:1" d="M 158.501,734.947 169.156,734.947 z" id="boundary" inkscape:connector-curvature="0" />
	<path style="fill:none;stroke:red;stroke-width:1px;stroke-linecap:butt;stroke-linejoin:miter;stroke-opacity:1" d="M 148.911,740.275 138.256,740.275 z" id="boundary" inkscape:connector-curvature="0" />
	<path style="fill:none;stroke:red;stroke-width:1px;stroke-linecap:butt;stroke-linejoin:miter;stroke-opacity:1" d="M 282.101,708.309 271.446,708.309 z" id="boundary" inkscape:connector-curvature="0" />
	<path style="fill:none;stroke:red;stroke-width:1px;stroke-linecap:butt;stroke-linejoin:miter;stroke-opacity:1" d="M 314.067,702.982 323.656,697.654 z" id="boundary" inkscape:connector-curvature="0" />
	<path style="fill:none;stroke:red;stroke-width:1px;stroke-linecap:butt;stroke-linejoin:miter;stroke-opacity:1" d="M 323.656,697.654 334.311,694.458 z" id="boundary" inkscape:connector-curvature="0" />
	<path style="fill:none;stroke:red;stroke-width:1px;stroke-linecap:butt;stroke-linejoin:miter;stroke-opacity:1" d="M 314.067,702.982 303.411,702.982 z" id="boundary" inkscape:connector-curvature="0" />
	<path style="fill:none;stroke:red;stroke-width:1px;stroke-linecap:butt;stroke-linejoin:miter;stroke-opacity:1" d="M 292.756,708.309 303.411,702.982 z" id="boundary" inkscape:connector-curvature="0" />
	<path style="fill:none;stroke:red;stroke-width:1px;stroke-linecap:butt;stroke-linejoin:miter;stroke-opacity:1" d="M 251.201,713.637 241.611,718.965 z" id="boundary" inkscape:connector-curvature="0" />
	<path style="fill:none;stroke:red;stroke-width:1px;stroke-linecap:butt;stroke-linejoin:miter;stroke-opacity:1" d="M 241.611,718.965 230.956,718.965 z" id="boundary" inkscape:connector-curvature="0" />
	<path style="fill:none;stroke:red;stroke-width:1px;stroke-linecap:butt;stroke-linejoin:miter;stroke-opacity:1" d="M 251.201,713.637 261.856,713.637 z" id="boundary" inkscape:connector-curvature="0" />
	<path style="fill:none;stroke:red;stroke-width:1px;stroke-linecap:butt;stroke-linejoin:miter;stroke-opacity:1" d="M 282.101,708.309 292.756,708.309 z" id="boundary" inkscape:connector-curvature="0" />
	<path style="fill:none;stroke:red;stroke-width:1px;stroke-linecap:butt;stroke-linejoin:miter;stroke-opacity:1" d="M 271.446,708.309 261.856,713.637 z" id="boundary" inkscape:connector-curvature="0" />
	<path style="fill:none;stroke:red;stroke-width:1px;stroke-linecap:butt;stroke-linejoin:miter;stroke-opacity:1" d="M 413.16,4 423.815,4 z" id="boundary" inkscape:connector-curvature="0" />
	<path style="fill:none;stroke:red;stroke-width:1px;stroke-linecap:butt;stroke-linejoin:miter;stroke-opacity:1" d="M 430.208,84.9796 440.864,84.9796 z" id="boundary" inkscape:connector-curvature="0" />
	<path style="fill:none;stroke:red;stroke-width:1px;stroke-linecap:butt;stroke-linejoin:miter;stroke-opacity:1" d="M 434.47,106.29 425.946,99.8969 z" id="boundary" inkscape:connector-curvature="0" />
	<path style="fill:none;stroke:red;stroke-width:1px;stroke-linecap:butt;stroke-linejoin:miter;stroke-opacity:1" d="M 431.274,116.945 434.47,106.29 z" id="boundary" inkscape:connector-curvature="0" />
	<path style="fill:none;stroke:red;stroke-width:1px;stroke-linecap:butt;stroke-linejoin:miter;stroke-opacity:1" d="M 451.519,81.783 440.864,84.9796 z" id="boundary" inkscape:connector-curvature="0" />
	<path style="fill:none;stroke:red;stroke-width:1px;stroke-linecap:butt;stroke-linejoin:miter;stroke-opacity:1" d="M 423.815,4 434.47,4 z" id="boundary" inkscape:connector-curvature="0" />
	<path style="fill:none;stroke:red;stroke-width:1px;stroke-linecap:butt;stroke-linejoin:miter;stroke-opacity:1" d="M 431.274,116.945 431.274,127.6 z" id="boundary" inkscape:connector-curvature="0" />
	<path style="fill:none;stroke:red;stroke-width:1px;stroke-linecap:butt;stroke-linejoin:miter;stroke-opacity:1" d="M 444.06,153.173 433.405,148.911 z" id="boundary" inkscape:connector-curvature="0" />
	<path style="fill:none;stroke:red;stroke-width:1px;stroke-linecap:butt;stroke-linejoin:miter;stroke-opacity:1" d="M 433.405,148.911 431.274,138.256 z" id="boundary" inkscape:connector-curvature="0" />
	<path style="fill:none;stroke:red;stroke-width:1px;stroke-linecap:butt;stroke-linejoin:miter;stroke-opacity:1" d="M 454.715,153.173 444.06,153.173 z" id="boundary" inkscape:connector-curvature="0" />
	<path style="fill:none;stroke:red;stroke-width:1px;stroke-linecap:butt;stroke-linejoin:miter;stroke-opacity:1" d="M 431.274,138.256 431.274,127.6 z" id="boundary" inkscape:connector-curvature="0" />
	<path style="fill:none;stroke:red;stroke-width:1px;stroke-linecap:butt;stroke-linejoin:miter;stroke-opacity:1" d="M 445.126,4 455.781,4 z" id="boundary" inkscape:connector-curvature="0" />
	<path style="fill:none;stroke:red;stroke-width:1px;stroke-linecap:butt;stroke-linejoin:miter;stroke-opacity:1" d="M 455.781,4 465.371,9.3276 z" id="boundary" inkscape:connector-curvature="0" />
	<path style="fill:none;stroke:red;stroke-width:1px;stroke-linecap:butt;stroke-linejoin:miter;stroke-opacity:1" d="M 465.371,9.3276 473.895,15.7207 z" id="boundary" inkscape:connector-curvature="0" />
	<path style="fill:none;stroke:red;stroke-width:1px;stroke-linecap:butt;stroke-linejoin:miter;stroke-opacity:1" d="M 479.222,25.3104 479.222,35.9656 z" id="boundary" inkscape:connector-curvature="0" />
	<path style="fill:none;stroke:red;stroke-width:1px;stroke-linecap:butt;stroke-linejoin:miter;stroke-opacity:1" d="M 473.895,15.7207 479.222,25.3104 z" id="boundary" inkscape:connector-curvature="0" />
	<path style="fill:none;stroke:red;stroke-width:1px;stroke-linecap:butt;stroke-linejoin:miter;stroke-opacity:1" d="M 462.174,76.4554 451.519,81.783 z" id="boundary" inkscape:connector-curvature="0" />
	<path style="fill:none;stroke:red;stroke-width:1px;stroke-linecap:butt;stroke-linejoin:miter;stroke-opacity:1" d="M 470.698,67.9313 473.895,53.014 z" id="boundary" inkscape:connector-curvature="0" />
	<path style="fill:none;stroke:red;stroke-width:1px;stroke-linecap:butt;stroke-linejoin:miter;stroke-opacity:1" d="M 470.698,67.9313 462.174,76.4554 z" id="boundary" inkscape:connector-curvature="0" />
	<path style="fill:none;stroke:red;stroke-width:1px;stroke-linecap:butt;stroke-linejoin:miter;stroke-opacity:1" d="M 479.222,35.9656 473.895,53.014 z" id="boundary" inkscape:connector-curvature="0" />
	<path style="fill:none;stroke:red;stroke-width:1px;stroke-linecap:butt;stroke-linejoin:miter;stroke-opacity:1" d="M 434.47,4 445.126,4 z" id="boundary" inkscape:connector-curvature="0" />
	<path style="fill:none;stroke:red;stroke-width:1px;stroke-linecap:butt;stroke-linejoin:miter;stroke-opacity:1" d="M 454.715,153.173 464.305,158.501 z" id="boundary" inkscape:connector-curvature="0" />
	<path style="fill:none;stroke:red;stroke-width:1px;stroke-linecap:butt;stroke-linejoin:miter;stroke-opacity:1" d="M 464.305,158.501 474.96,158.501 z" id="boundary" inkscape:connector-curvature="0" />
	<path style="fill:none;stroke:red;stroke-width:1px;stroke-linecap:butt;stroke-linejoin:miter;stroke-opacity:1" d="M 485.615,158.501 496.271,158.501 z" id="boundary" inkscape:connector-curvature="0" />
	<path style="fill:none;stroke:red;stroke-width:1px;stroke-linecap:butt;stroke-linejoin:miter;stroke-opacity:1" d="M 506.926,158.501 496.271,158.501 z" id="boundary" inkscape:connector-curvature="0" />
	<path style="fill:none;stroke:red;stroke-width:1px;stroke-linecap:butt;stroke-linejoin:miter;stroke-opacity:1" d="M 485.615,158.501 474.96,158.501 z" id="boundary" inkscape:connector-curvature="0" />
	<path style="fill:none;stroke:red;stroke-width:1px;stroke-linecap:butt;stroke-linejoin:miter;stroke-opacity:1" d="M 517.581,158.501 528.236,158.501 z" id="boundary" inkscape:connector-curvature="0" />
	<path style="fill:none;stroke:red;stroke-width:1px;stroke-linecap:butt;stroke-linejoin:miter;stroke-opacity:1" d="M 538.892,158.501 549.547,158.501 z" id="boundary" inkscape:connector-curvature="0" />
	<path style="fill:none;stroke:red;stroke-width:1px;stroke-linecap:butt;stroke-linejoin:miter;stroke-opacity:1" d="M 549.547,158.501 559.136,163.828 z" id="boundary" inkscape:connector-curvature="0" />
	<path style="fill:none;stroke:red;stroke-width:1px;stroke-linecap:butt;stroke-linejoin:miter;stroke-opacity:1" d="M 569.792,163.828 559.136,163.828 z" id="boundary" inkscape:connector-curvature="0" />
	<path style="fill:none;stroke:red;stroke-width:1px;stroke-linecap:butt;stroke-linejoin:miter;stroke-opacity:1" d="M 528.236,158.501 538.892,158.501 z" id="boundary" inkscape:connector-curvature="0" />
	<path style="fill:none;stroke:red;stroke-width:1px;stroke-linecap:butt;stroke-linejoin:miter;stroke-opacity:1" d="M 506.926,158.501 517.581,158.501 z" id="boundary" inkscape:connector-curvature="0" />
	<path style="fill:none;stroke:red;stroke-width:1px;stroke-linecap:butt;stroke-linejoin:miter;stroke-opacity:1" d="M 569.792,163.828 580.447,163.828 z" id="boundary" inkscape:connector-curvature="0" />
	<path style="fill:none;stroke:red;stroke-width:1px;stroke-linecap:butt;stroke-linejoin:miter;stroke-opacity:1" d="M 623.068,169.156 612.412,169.156 z" id="boundary" inkscape:connector-curvature="0" />
	<path style="fill:none;stroke:red;stroke-width:1px;stroke-linecap:butt;stroke-linejoin:miter;stroke-opacity:1" d="M 612.412,169.156 601.757,167.025 z" id="boundary" inkscape:connector-curvature="0" />
	<path style="fill:none;stroke:red;stroke-width:1px;stroke-linecap:butt;stroke-linejoin:miter;stroke-opacity:1" d="M 601.757,167.025 591.102,163.828 z" id="boundary" inkscape:connector-curvature="0" />
	<path style="fill:none;stroke:red;stroke-width:1px;stroke-linecap:butt;stroke-linejoin:miter;stroke-opacity:1" d="M 580.447,163.828 591.102,163.828 z" id="boundary" inkscape:connector-curvature="0" />
	<path style="fill:none;stroke:red;stroke-width:1px;stroke-linecap:butt;stroke-linejoin:miter;stroke-opacity:1" d="M 623.068,169.156 632.657,174.483 z" id="boundary" inkscape:connector-curvature="0" />
	<path style="fill:none;stroke:red;stroke-width:1px;stroke-linecap:butt;stroke-linejoin:miter;stroke-opacity:1" d="M 623.068,282.101 623.068,271.446 z" id="boundary" inkscape:connector-curvature="0" />
	<path style="fill:none;stroke:red;stroke-width:1px;stroke-linecap:butt;stroke-linejoin:miter;stroke-opacity:1" d="M 623.068,271.446 633.723,271.446 z" id="boundary" inkscape:connector-curvature="0" />
	<path style="fill:none;stroke:red;stroke-width:1px;stroke-linecap:butt;stroke-linejoin:miter;stroke-opacity:1" d="M 633.723,286.363 623.068,282.101 z" id="boundary" inkscape:connector-curvature="0" />
	<path style="fill:none;stroke:red;stroke-width:1px;stroke-linecap:butt;stroke-linejoin:miter;stroke-opacity:1" d="M 644.378,286.363 633.723,286.363 z" id="boundary" inkscape:connector-curvature="0" />
	<path style="fill:none;stroke:red;stroke-width:1px;stroke-linecap:butt;stroke-linejoin:miter;stroke-opacity:1" d="M 643.313,266.118 633.723,271.446 z" id="boundary" inkscape:connector-curvature="0" />
	<path style="fill:none;stroke:red;stroke-width:1px;stroke-linecap:butt;stroke-linejoin:miter;stroke-opacity:1" d="M 643.313,174.483 632.657,174.483 z" id="boundary" inkscape:connector-curvature="0" />
	<path style="fill:none;stroke:red;stroke-width:1px;stroke-linecap:butt;stroke-linejoin:miter;stroke-opacity:1" d="M 643.313,174.483 653.968,174.483 z" id="boundary" inkscape:connector-curvature="0" />
	<path style="fill:none;stroke:red;stroke-width:1px;stroke-linecap:butt;stroke-linejoin:miter;stroke-opacity:1" d="M 653.968,174.483 664.623,176.614 z" id="boundary" inkscape:connector-curvature="0" />
	<path style="fill:none;stroke:red;stroke-width:1px;stroke-linecap:butt;stroke-linejoin:miter;stroke-opacity:1" d="M 664.623,176.614 671.016,185.139 z" id="boundary" inkscape:connector-curvature="0" />
	<path style="fill:none;stroke:red;stroke-width:1px;stroke-linecap:butt;stroke-linejoin:miter;stroke-opacity:1" d="M 676.344,286.363 665.689,286.363 z" id="boundary" inkscape:connector-curvature="0" />
	<path style="fill:none;stroke:red;stroke-width:1px;stroke-linecap:butt;stroke-linejoin:miter;stroke-opacity:1" d="M 643.313,266.118 653.968,266.118 z" id="boundary" inkscape:connector-curvature="0" />
	<path style="fill:none;stroke:red;stroke-width:1px;stroke-linecap:butt;stroke-linejoin:miter;stroke-opacity:1" d="M 665.689,286.363 655.033,286.363 z" id="boundary" inkscape:connector-curvature="0" />
	<path style="fill:none;stroke:red;stroke-width:1px;stroke-linecap:butt;stroke-linejoin:miter;stroke-opacity:1" d="M 653.968,266.118 663.557,260.791 z" id="boundary" inkscape:connector-curvature="0" />
	<path style="fill:none;stroke:red;stroke-width:1px;stroke-linecap:butt;stroke-linejoin:miter;stroke-opacity:1" d="M 655.033,286.363 644.378,286.363 z" id="boundary" inkscape:connector-curvature="0" />
	<path style="fill:none;stroke:red;stroke-width:1px;stroke-linecap:butt;stroke-linejoin:miter;stroke-opacity:1" d="M 676.344,205.383 676.344,216.039 z" id="boundary" inkscape:connector-curvature="0" />
	<path style="fill:none;stroke:red;stroke-width:1px;stroke-linecap:butt;stroke-linejoin:miter;stroke-opacity:1" d="M 676.344,205.383 676.344,194.728 z" id="boundary" inkscape:connector-curvature="0" />
	<path style="fill:none;stroke:red;stroke-width:1px;stroke-linecap:butt;stroke-linejoin:miter;stroke-opacity:1" d="M 676.344,216.039 681.671,225.628 z" id="boundary" inkscape:connector-curvature="0" />
	<path style="fill:none;stroke:red;stroke-width:1px;stroke-linecap:butt;stroke-linejoin:miter;stroke-opacity:1" d="M 681.671,225.628 678.475,243.742 z" id="boundary" inkscape:connector-curvature="0" />
	<path style="fill:none;stroke:red;stroke-width:1px;stroke-linecap:butt;stroke-linejoin:miter;stroke-opacity:1" d="M 708.309,286.363 697.654,286.363 z" id="boundary" inkscape:connector-curvature="0" />
	<path style="fill:none;stroke:red;stroke-width:1px;stroke-linecap:butt;stroke-linejoin:miter;stroke-opacity:1" d="M 678.475,243.742 673.147,254.397 z" id="boundary" inkscape:connector-curvature="0" />
	<path style="fill:none;stroke:red;stroke-width:1px;stroke-linecap:butt;stroke-linejoin:miter;stroke-opacity:1" d="M 673.147,254.397 663.557,260.791 z" id="boundary" inkscape:connector-curvature="0" />
	<path style="fill:none;stroke:red;stroke-width:1px;stroke-linecap:butt;stroke-linejoin:miter;stroke-opacity:1" d="M 686.999,286.363 676.344,286.363 z" id="boundary" inkscape:connector-curvature="0" />
	<path style="fill:none;stroke:red;stroke-width:1px;stroke-linecap:butt;stroke-linejoin:miter;stroke-opacity:1" d="M 697.654,286.363 686.999,286.363 z" id="boundary" inkscape:connector-curvature="0" />
	<path style="fill:none;stroke:red;stroke-width:1px;stroke-linecap:butt;stroke-linejoin:miter;stroke-opacity:1" d="M 676.344,194.728 671.016,185.139 z" id="boundary" inkscape:connector-curvature="0" />
	<path style="fill:none;stroke:red;stroke-width:1px;stroke-linecap:butt;stroke-linejoin:miter;stroke-opacity:1" d="M 942.724,286.363 932.069,286.363 z" id="boundary" inkscape:connector-curvature="0" />
	<path style="fill:none;stroke:red;stroke-width:1px;stroke-linecap:butt;stroke-linejoin:miter;stroke-opacity:1" d="M 985.345,284.232 974.69,283.166 z" id="boundary" inkscape:connector-curvature="0" />
	<path style="fill:none;stroke:red;stroke-width:1px;stroke-linecap:butt;stroke-linejoin:miter;stroke-opacity:1" d="M 708.309,286.363 718.965,286.363 z" id="boundary" inkscape:connector-curvature="0" />
	<path style="fill:none;stroke:red;stroke-width:1px;stroke-linecap:butt;stroke-linejoin:miter;stroke-opacity:1" d="M 729.62,286.363 740.275,286.363 z" id="boundary" inkscape:connector-curvature="0" />
	<path style="fill:none;stroke:red;stroke-width:1px;stroke-linecap:butt;stroke-linejoin:miter;stroke-opacity:1" d="M 750.93,286.363 740.275,286.363 z" id="boundary" inkscape:connector-curvature="0" />
	<path style="fill:none;stroke:red;stroke-width:1px;stroke-linecap:butt;stroke-linejoin:miter;stroke-opacity:1" d="M 729.62,286.363 718.965,286.363 z" id="boundary" inkscape:connector-curvature="0" />
	<path style="fill:none;stroke:red;stroke-width:1px;stroke-linecap:butt;stroke-linejoin:miter;stroke-opacity:1" d="M 761.585,286.363 772.241,286.363 z" id="boundary" inkscape:connector-curvature="0" />
	<path style="fill:none;stroke:red;stroke-width:1px;stroke-linecap:butt;stroke-linejoin:miter;stroke-opacity:1" d="M 782.896,286.363 772.241,286.363 z" id="boundary" inkscape:connector-curvature="0" />
	<path style="fill:none;stroke:red;stroke-width:1px;stroke-linecap:butt;stroke-linejoin:miter;stroke-opacity:1" d="M 793.551,286.363 804.206,286.363 z" id="boundary" inkscape:connector-curvature="0" />
	<path style="fill:none;stroke:red;stroke-width:1px;stroke-linecap:butt;stroke-linejoin:miter;stroke-opacity:1" d="M 814.861,286.363 804.206,286.363 z" id="boundary" inkscape:connector-curvature="0" />
	<path style="fill:none;stroke:red;stroke-width:1px;stroke-linecap:butt;stroke-linejoin:miter;stroke-opacity:1" d="M 793.551,286.363 782.896,286.363 z" id="boundary" inkscape:connector-curvature="0" />
	<path style="fill:none;stroke:red;stroke-width:1px;stroke-linecap:butt;stroke-linejoin:miter;stroke-opacity:1" d="M 761.585,286.363 750.93,286.363 z" id="boundary" inkscape:connector-curvature="0" />
	<path style="fill:none;stroke:red;stroke-width:1px;stroke-linecap:butt;stroke-linejoin:miter;stroke-opacity:1" d="M 825.517,286.363 836.172,286.363 z" id="boundary" inkscape:connector-curvature="0" />
	<path style="fill:none;stroke:red;stroke-width:1px;stroke-linecap:butt;stroke-linejoin:miter;stroke-opacity:1" d="M 846.827,286.363 857.482,286.363 z" id="boundary" inkscape:connector-curvature="0" />
	<path style="fill:none;stroke:red;stroke-width:1px;stroke-linecap:butt;stroke-linejoin:miter;stroke-opacity:1" d="M 868.137,286.363 857.482,286.363 z" id="boundary" inkscape:connector-curvature="0" />
	<path style="fill:none;stroke:red;stroke-width:1px;stroke-linecap:butt;stroke-linejoin:miter;stroke-opacity:1" d="M 846.827,286.363 836.172,286.363 z" id="boundary" inkscape:connector-curvature="0" />
	<path style="fill:none;stroke:red;stroke-width:1px;stroke-linecap:butt;stroke-linejoin:miter;stroke-opacity:1" d="M 878.793,286.363 889.448,286.363 z" id="boundary" inkscape:connector-curvature="0" />
	<path style="fill:none;stroke:red;stroke-width:1px;stroke-linecap:butt;stroke-linejoin:miter;stroke-opacity:1" d="M 900.103,286.363 889.448,286.363 z" id="boundary" inkscape:connector-curvature="0" />
	<path style="fill:none;stroke:red;stroke-width:1px;stroke-linecap:butt;stroke-linejoin:miter;stroke-opacity:1" d="M 910.758,286.363 921.414,286.363 z" id="boundary" inkscape:connector-curvature="0" />
	<path style="fill:none;stroke:red;stroke-width:1px;stroke-linecap:butt;stroke-linejoin:miter;stroke-opacity:1" d="M 932.069,286.363 921.414,286.363 z" id="boundary" inkscape:connector-curvature="0" />
	<path style="fill:none;stroke:red;stroke-width:1px;stroke-linecap:butt;stroke-linejoin:miter;stroke-opacity:1" d="M 910.758,286.363 900.103,286.363 z" id="boundary" inkscape:connector-curvature="0" />
	<path style="fill:none;stroke:red;stroke-width:1px;stroke-linecap:butt;stroke-linejoin:miter;stroke-opacity:1" d="M 878.793,286.363 868.137,286.363 z" id="boundary" inkscape:connector-curvature="0" />
	<path style="fill:none;stroke:red;stroke-width:1px;stroke-linecap:butt;stroke-linejoin:miter;stroke-opacity:1" d="M 825.517,286.363 814.861,286.363 z" id="boundary" inkscape:connector-curvature="0" />
	<path style="fill:none;stroke:red;stroke-width:1px;stroke-linecap:butt;stroke-linejoin:miter;stroke-opacity:1" d="M 985.345,284.232 992.803,292.756 z" id="boundary" inkscape:connector-curvature="0" />
	<path style="fill:none;stroke:red;stroke-width:1px;stroke-linecap:butt;stroke-linejoin:miter;stroke-opacity:1" d="M 702.982,468.567 702.982,479.222 z" id="boundary" inkscape:connector-curvature="0" />
	<path style="fill:none;stroke:red;stroke-width:1px;stroke-linecap:butt;stroke-linejoin:miter;stroke-opacity:1" d="M 705.113,617.74 695.523,623.068 z" id="boundary" inkscape:connector-curvature="0" />
	<path style="fill:none;stroke:red;stroke-width:1px;stroke-linecap:butt;stroke-linejoin:miter;stroke-opacity:1" d="M 695.523,623.068 684.868,626.264 z" id="boundary" inkscape:connector-curvature="0" />
	<path style="fill:none;stroke:red;stroke-width:1px;stroke-linecap:butt;stroke-linejoin:miter;stroke-opacity:1" d="M 708.309,488.812 702.982,479.222 z" id="boundary" inkscape:connector-curvature="0" />
	<path style="fill:none;stroke:red;stroke-width:1px;stroke-linecap:butt;stroke-linejoin:miter;stroke-opacity:1" d="M 708.309,488.812 713.637,498.402 z" id="boundary" inkscape:connector-curvature="0" />
	<path style="fill:none;stroke:red;stroke-width:1px;stroke-linecap:butt;stroke-linejoin:miter;stroke-opacity:1" d="M 702.982,468.567 713.637,457.912 z" id="boundary" inkscape:connector-curvature="0" />
	<path style="fill:none;stroke:red;stroke-width:1px;stroke-linecap:butt;stroke-linejoin:miter;stroke-opacity:1" d="M 705.113,617.74 715.768,616.675 z" id="boundary" inkscape:connector-curvature="0" />
	<path style="fill:none;stroke:red;stroke-width:1px;stroke-linecap:butt;stroke-linejoin:miter;stroke-opacity:1" d="M 633.723,639.05 623.068,639.05 z" id="boundary" inkscape:connector-curvature="0" />
	<path style="fill:none;stroke:red;stroke-width:1px;stroke-linecap:butt;stroke-linejoin:miter;stroke-opacity:1" d="M 664.623,633.723 674.213,628.395 z" id="boundary" inkscape:connector-curvature="0" />
	<path style="fill:none;stroke:red;stroke-width:1px;stroke-linecap:butt;stroke-linejoin:miter;stroke-opacity:1" d="M 674.213,628.395 684.868,626.264 z" id="boundary" inkscape:connector-curvature="0" />
	<path style="fill:none;stroke:red;stroke-width:1px;stroke-linecap:butt;stroke-linejoin:miter;stroke-opacity:1" d="M 664.623,633.723 653.968,633.723 z" id="boundary" inkscape:connector-curvature="0" />
	<path style="fill:none;stroke:red;stroke-width:1px;stroke-linecap:butt;stroke-linejoin:miter;stroke-opacity:1" d="M 644.378,639.05 653.968,633.723 z" id="boundary" inkscape:connector-curvature="0" />
	<path style="fill:none;stroke:red;stroke-width:1px;stroke-linecap:butt;stroke-linejoin:miter;stroke-opacity:1" d="M 724.292,499.467 713.637,498.402 z" id="boundary" inkscape:connector-curvature="0" />
	<path style="fill:none;stroke:red;stroke-width:1px;stroke-linecap:butt;stroke-linejoin:miter;stroke-opacity:1" d="M 713.637,457.912 722.161,450.453 z" id="boundary" inkscape:connector-curvature="0" />
	<path style="fill:none;stroke:red;stroke-width:1px;stroke-linecap:butt;stroke-linejoin:miter;stroke-opacity:1" d="M 732.816,445.126 722.161,450.453 z" id="boundary" inkscape:connector-curvature="0" />
	<path style="fill:none;stroke:red;stroke-width:1px;stroke-linecap:butt;stroke-linejoin:miter;stroke-opacity:1" d="M 743.472,439.798 732.816,445.126 z" id="boundary" inkscape:connector-curvature="0" />
	<path style="fill:none;stroke:red;stroke-width:1px;stroke-linecap:butt;stroke-linejoin:miter;stroke-opacity:1" d="M 726.423,612.412 715.768,616.675 z" id="boundary" inkscape:connector-curvature="0" />
	<path style="fill:none;stroke:red;stroke-width:1px;stroke-linecap:butt;stroke-linejoin:miter;stroke-opacity:1" d="M 726.423,612.412 737.078,612.412 z" id="boundary" inkscape:connector-curvature="0" />
	<path style="fill:none;stroke:red;stroke-width:1px;stroke-linecap:butt;stroke-linejoin:miter;stroke-opacity:1" d="M 724.292,499.467 734.947,499.467 z" id="boundary" inkscape:connector-curvature="0" />
	<path style="fill:none;stroke:red;stroke-width:1px;stroke-linecap:butt;stroke-linejoin:miter;stroke-opacity:1" d="M 745.603,499.467 734.947,499.467 z" id="boundary" inkscape:connector-curvature="0" />
	<path style="fill:none;stroke:red;stroke-width:1px;stroke-linecap:butt;stroke-linejoin:miter;stroke-opacity:1" d="M 745.603,499.467 754.127,505.86 z" id="boundary" inkscape:connector-curvature="0" />
	<path style="fill:none;stroke:red;stroke-width:1px;stroke-linecap:butt;stroke-linejoin:miter;stroke-opacity:1" d="M 746.668,607.085 737.078,612.412 z" id="boundary" inkscape:connector-curvature="0" />
	<path style="fill:none;stroke:red;stroke-width:1px;stroke-linecap:butt;stroke-linejoin:miter;stroke-opacity:1" d="M 743.472,439.798 754.127,434.47 z" id="boundary" inkscape:connector-curvature="0" />
	<path style="fill:none;stroke:red;stroke-width:1px;stroke-linecap:butt;stroke-linejoin:miter;stroke-opacity:1" d="M 441.929,649.706 452.584,649.706 z" id="boundary" inkscape:connector-curvature="0" />
	<path style="fill:none;stroke:red;stroke-width:1px;stroke-linecap:butt;stroke-linejoin:miter;stroke-opacity:1" d="M 436.602,660.361 441.929,649.706 z" id="boundary" inkscape:connector-curvature="0" />
	<path style="fill:none;stroke:red;stroke-width:1px;stroke-linecap:butt;stroke-linejoin:miter;stroke-opacity:1" d="M 463.24,649.706 473.895,649.706 z" id="boundary" inkscape:connector-curvature="0" />
	<path style="fill:none;stroke:red;stroke-width:1px;stroke-linecap:butt;stroke-linejoin:miter;stroke-opacity:1" d="M 484.55,649.706 473.895,649.706 z" id="boundary" inkscape:connector-curvature="0" />
	<path style="fill:none;stroke:red;stroke-width:1px;stroke-linecap:butt;stroke-linejoin:miter;stroke-opacity:1" d="M 463.24,649.706 452.584,649.706 z" id="boundary" inkscape:connector-curvature="0" />
	<path style="fill:none;stroke:red;stroke-width:1px;stroke-linecap:butt;stroke-linejoin:miter;stroke-opacity:1" d="M 428.077,669.951 436.602,660.361 z" id="boundary" inkscape:connector-curvature="0" />
	<path style="fill:none;stroke:red;stroke-width:1px;stroke-linecap:butt;stroke-linejoin:miter;stroke-opacity:1" d="M 495.205,649.706 505.86,649.706 z" id="boundary" inkscape:connector-curvature="0" />
	<path style="fill:none;stroke:red;stroke-width:1px;stroke-linecap:butt;stroke-linejoin:miter;stroke-opacity:1" d="M 516.516,649.706 505.86,649.706 z" id="boundary" inkscape:connector-curvature="0" />
	<path style="fill:none;stroke:red;stroke-width:1px;stroke-linecap:butt;stroke-linejoin:miter;stroke-opacity:1" d="M 484.55,649.706 495.205,649.706 z" id="boundary" inkscape:connector-curvature="0" />
	<path style="fill:none;stroke:red;stroke-width:1px;stroke-linecap:butt;stroke-linejoin:miter;stroke-opacity:1" d="M 516.516,649.706 527.171,649.706 z" id="boundary" inkscape:connector-curvature="0" />
	<path style="fill:none;stroke:red;stroke-width:1px;stroke-linecap:butt;stroke-linejoin:miter;stroke-opacity:1" d="M 580.447,644.378 591.102,644.378 z" id="boundary" inkscape:connector-curvature="0" />
	<path style="fill:none;stroke:red;stroke-width:1px;stroke-linecap:butt;stroke-linejoin:miter;stroke-opacity:1" d="M 569.792,649.706 580.447,644.378 z" id="boundary" inkscape:connector-curvature="0" />
	<path style="fill:none;stroke:red;stroke-width:1px;stroke-linecap:butt;stroke-linejoin:miter;stroke-opacity:1" d="M 623.068,639.05 612.412,644.378 z" id="boundary" inkscape:connector-curvature="0" />
	<path style="fill:none;stroke:red;stroke-width:1px;stroke-linecap:butt;stroke-linejoin:miter;stroke-opacity:1" d="M 612.412,644.378 601.757,644.378 z" id="boundary" inkscape:connector-curvature="0" />
	<path style="fill:none;stroke:red;stroke-width:1px;stroke-linecap:butt;stroke-linejoin:miter;stroke-opacity:1" d="M 601.757,644.378 591.102,644.378 z" id="boundary" inkscape:connector-curvature="0" />
	<path style="fill:none;stroke:red;stroke-width:1px;stroke-linecap:butt;stroke-linejoin:miter;stroke-opacity:1" d="M 644.378,639.05 633.723,639.05 z" id="boundary" inkscape:connector-curvature="0" />
	<path style="fill:none;stroke:red;stroke-width:1px;stroke-linecap:butt;stroke-linejoin:miter;stroke-opacity:1" d="M 527.171,649.706 537.826,649.706 z" id="boundary" inkscape:connector-curvature="0" />
	<path style="fill:none;stroke:red;stroke-width:1px;stroke-linecap:butt;stroke-linejoin:miter;stroke-opacity:1" d="M 548.481,649.706 537.826,649.706 z" id="boundary" inkscape:connector-curvature="0" />
	<path style="fill:none;stroke:red;stroke-width:1px;stroke-linecap:butt;stroke-linejoin:miter;stroke-opacity:1" d="M 569.792,649.706 559.136,649.706 z" id="boundary" inkscape:connector-curvature="0" />
	<path style="fill:none;stroke:red;stroke-width:1px;stroke-linecap:butt;stroke-linejoin:miter;stroke-opacity:1" d="M 559.136,649.706 548.481,649.706 z" id="boundary" inkscape:connector-curvature="0" />
	<path style="fill:none;stroke:red;stroke-width:1px;stroke-linecap:butt;stroke-linejoin:miter;stroke-opacity:1" d="M 899.038,367.343 908.627,362.015 z" id="boundary" inkscape:connector-curvature="0" />
	<path style="fill:none;stroke:red;stroke-width:1px;stroke-linecap:butt;stroke-linejoin:miter;stroke-opacity:1" d="M 918.217,356.687 927.807,351.36 z" id="boundary" inkscape:connector-curvature="0" />
	<path style="fill:none;stroke:red;stroke-width:1px;stroke-linecap:butt;stroke-linejoin:miter;stroke-opacity:1" d="M 937.396,346.032 927.807,351.36 z" id="boundary" inkscape:connector-curvature="0" />
	<path style="fill:none;stroke:red;stroke-width:1px;stroke-linecap:butt;stroke-linejoin:miter;stroke-opacity:1" d="M 918.217,356.687 908.627,362.015 z" id="boundary" inkscape:connector-curvature="0" />
	<path style="fill:none;stroke:red;stroke-width:1px;stroke-linecap:butt;stroke-linejoin:miter;stroke-opacity:1" d="M 846.827,388.653 857.482,383.325 z" id="boundary" inkscape:connector-curvature="0" />
	<path style="fill:none;stroke:red;stroke-width:1px;stroke-linecap:butt;stroke-linejoin:miter;stroke-opacity:1" d="M 868.137,377.998 878.793,372.67 z" id="boundary" inkscape:connector-curvature="0" />
	<path style="fill:none;stroke:red;stroke-width:1px;stroke-linecap:butt;stroke-linejoin:miter;stroke-opacity:1" d="M 878.793,372.67 889.448,372.67 z" id="boundary" inkscape:connector-curvature="0" />
	<path style="fill:none;stroke:red;stroke-width:1px;stroke-linecap:butt;stroke-linejoin:miter;stroke-opacity:1" d="M 899.038,367.343 889.448,372.67 z" id="boundary" inkscape:connector-curvature="0" />
	<path style="fill:none;stroke:red;stroke-width:1px;stroke-linecap:butt;stroke-linejoin:miter;stroke-opacity:1" d="M 857.482,383.325 868.137,377.998 z" id="boundary" inkscape:connector-curvature="0" />
	<path style="fill:none;stroke:red;stroke-width:1px;stroke-linecap:butt;stroke-linejoin:miter;stroke-opacity:1" d="M 942.724,286.363 953.379,286.363 z" id="boundary" inkscape:connector-curvature="0" />
	<path style="fill:none;stroke:red;stroke-width:1px;stroke-linecap:butt;stroke-linejoin:miter;stroke-opacity:1" d="M 964.034,286.363 974.69,283.166 z" id="boundary" inkscape:connector-curvature="0" />
	<path style="fill:none;stroke:red;stroke-width:1px;stroke-linecap:butt;stroke-linejoin:miter;stroke-opacity:1" d="M 992.803,292.756 996,303.411 z" id="boundary" inkscape:connector-curvature="0" />
	<path style="fill:none;stroke:red;stroke-width:1px;stroke-linecap:butt;stroke-linejoin:miter;stroke-opacity:1" d="M 953.379,286.363 964.034,286.363 z" id="boundary" inkscape:connector-curvature="0" />
	<path style="fill:none;stroke:red;stroke-width:1px;stroke-linecap:butt;stroke-linejoin:miter;stroke-opacity:1" d="M 996,303.411 996,314.067 z" id="boundary" inkscape:connector-curvature="0" />
	<path style="fill:none;stroke:red;stroke-width:1px;stroke-linecap:butt;stroke-linejoin:miter;stroke-opacity:1" d="M 948.052,340.705 958.707,340.705 z" id="boundary" inkscape:connector-curvature="0" />
	<path style="fill:none;stroke:red;stroke-width:1px;stroke-linecap:butt;stroke-linejoin:miter;stroke-opacity:1" d="M 937.396,346.032 948.052,340.705 z" id="boundary" inkscape:connector-curvature="0" />
	<path style="fill:none;stroke:red;stroke-width:1px;stroke-linecap:butt;stroke-linejoin:miter;stroke-opacity:1" d="M 969.362,340.705 958.707,340.705 z" id="boundary" inkscape:connector-curvature="0" />
	<path style="fill:none;stroke:red;stroke-width:1px;stroke-linecap:butt;stroke-linejoin:miter;stroke-opacity:1" d="M 978.952,335.377 969.362,340.705 z" id="boundary" inkscape:connector-curvature="0" />
	<path style="fill:none;stroke:red;stroke-width:1px;stroke-linecap:butt;stroke-linejoin:miter;stroke-opacity:1" d="M 987.476,328.984 978.952,335.377 z" id="boundary" inkscape:connector-curvature="0" />
	<path style="fill:none;stroke:red;stroke-width:1px;stroke-linecap:butt;stroke-linejoin:miter;stroke-opacity:1" d="M 996,314.067 987.476,328.984 z" id="boundary" inkscape:connector-curvature="0" />
	<path style="fill:none;stroke:red;stroke-width:1px;stroke-linecap:butt;stroke-linejoin:miter;stroke-opacity:1" d="M 846.827,388.653 836.172,393.981 z" id="boundary" inkscape:connector-curvature="0" />
	<path style="fill:none;stroke:red;stroke-width:1px;stroke-linecap:butt;stroke-linejoin:miter;stroke-opacity:1" d="M 754.127,505.86 761.585,514.385 z" id="boundary" inkscape:connector-curvature="0" />
	<path style="fill:none;stroke:red;stroke-width:1px;stroke-linecap:butt;stroke-linejoin:miter;stroke-opacity:1" d="M 754.127,434.47 764.782,429.143 z" id="boundary" inkscape:connector-curvature="0" />
	<path style="fill:none;stroke:red;stroke-width:1px;stroke-linecap:butt;stroke-linejoin:miter;stroke-opacity:1" d="M 770.11,520.778 761.585,514.385 z" id="boundary" inkscape:connector-curvature="0" />
	<path style="fill:none;stroke:red;stroke-width:1px;stroke-linecap:butt;stroke-linejoin:miter;stroke-opacity:1" d="M 764.782,429.143 775.437,423.815 z" id="boundary" inkscape:connector-curvature="0" />
	<path style="fill:none;stroke:red;stroke-width:1px;stroke-linecap:butt;stroke-linejoin:miter;stroke-opacity:1" d="M 746.668,607.085 756.258,601.757 z" id="boundary" inkscape:connector-curvature="0" />
	<path style="fill:none;stroke:red;stroke-width:1px;stroke-linecap:butt;stroke-linejoin:miter;stroke-opacity:1" d="M 756.258,601.757 766.913,601.757 z" id="boundary" inkscape:connector-curvature="0" />
	<path style="fill:none;stroke:red;stroke-width:1px;stroke-linecap:butt;stroke-linejoin:miter;stroke-opacity:1" d="M 775.437,594.299 766.913,601.757 z" id="boundary" inkscape:connector-curvature="0" />
	<path style="fill:none;stroke:red;stroke-width:1px;stroke-linecap:butt;stroke-linejoin:miter;stroke-opacity:1" d="M 777.568,529.302 770.11,520.778 z" id="boundary" inkscape:connector-curvature="0" />
	<path style="fill:none;stroke:red;stroke-width:1px;stroke-linecap:butt;stroke-linejoin:miter;stroke-opacity:1" d="M 775.437,423.815 786.092,420.619 z" id="boundary" inkscape:connector-curvature="0" />
	<path style="fill:none;stroke:red;stroke-width:1px;stroke-linecap:butt;stroke-linejoin:miter;stroke-opacity:1" d="M 805.272,409.963 814.861,404.636 z" id="boundary" inkscape:connector-curvature="0" />
	<path style="fill:none;stroke:red;stroke-width:1px;stroke-linecap:butt;stroke-linejoin:miter;stroke-opacity:1" d="M 814.861,404.636 825.517,399.308 z" id="boundary" inkscape:connector-curvature="0" />
	<path style="fill:none;stroke:red;stroke-width:1px;stroke-linecap:butt;stroke-linejoin:miter;stroke-opacity:1" d="M 782.896,538.892 777.568,529.302 z" id="boundary" inkscape:connector-curvature="0" />
	<path style="fill:none;stroke:red;stroke-width:1px;stroke-linecap:butt;stroke-linejoin:miter;stroke-opacity:1" d="M 805.272,409.963 795.682,415.291 z" id="boundary" inkscape:connector-curvature="0" />
	<path style="fill:none;stroke:red;stroke-width:1px;stroke-linecap:butt;stroke-linejoin:miter;stroke-opacity:1" d="M 825.517,399.308 836.172,393.981 z" id="boundary" inkscape:connector-curvature="0" />
	<path style="fill:none;stroke:red;stroke-width:1px;stroke-linecap:butt;stroke-linejoin:miter;stroke-opacity:1" d="M 782.896,538.892 782.896,549.547 z" id="boundary" inkscape:connector-curvature="0" />
	<path style="fill:none;stroke:red;stroke-width:1px;stroke-linecap:butt;stroke-linejoin:miter;stroke-opacity:1" d="M 782.896,549.547 782.896,560.202 z" id="boundary" inkscape:connector-curvature="0" />
	<path style="fill:none;stroke:red;stroke-width:1px;stroke-linecap:butt;stroke-linejoin:miter;stroke-opacity:1" d="M 782.896,570.857 782.896,560.202 z" id="boundary" inkscape:connector-curvature="0" />
	<path style="fill:none;stroke:red;stroke-width:1px;stroke-linecap:butt;stroke-linejoin:miter;stroke-opacity:1" d="M 782.896,570.857 782.896,581.512 z" id="boundary" inkscape:connector-curvature="0" />
	<path style="fill:none;stroke:red;stroke-width:1px;stroke-linecap:butt;stroke-linejoin:miter;stroke-opacity:1" d="M 782.896,581.512 775.437,594.299 z" id="boundary" inkscape:connector-curvature="0" />
	<path style="fill:none;stroke:red;stroke-width:1px;stroke-linecap:butt;stroke-linejoin:miter;stroke-opacity:1" d="M 786.092,420.619 795.682,415.291 z" id="boundary" inkscape:connector-curvature="0" />
	<circle cx="4" cy="662.492" r="4" fill="#0" id="circle0"/>
	<circle cx="4" cy="673.147" r="4" fill="#0" id="circle1"/>
	<circle cx="4" cy="683.802" r="4" fill="#0" id="circle2"/>
	<circle cx="4" cy="694.458" r="4" fill="#0" id="circle3"/>
	<circle cx="4" cy="705.113" r="4" fill="#0" id="circle4"/>
	<circle cx="9.3276" cy="714.702" r="4" fill="#0" id="circle5"/>
	<circle cx="9.3276" cy="725.358" r="4" fill="#0" id="circle6"/>
	<circle cx="12.5242" cy="653.968" r="4" fill="#0" id="circle7"/>
	<circle cx="14.6552" cy="734.947" r="4" fill="#0" id="circle8"/>
	<circle cx="21.0483" cy="743.472" r="4" fill="#0" id="circle9"/>
	<circle cx="22.1139" cy="648.64" r="4" fill="#0" id="circle10"/>
	<circle cx="31.7035" cy="745.603" r="4" fill="#0" id="circle11"/>
	<circle cx="32.7691" cy="644.378" r="4" fill="#0" id="circle12"/>
	<circle cx="42.3588" cy="745.603" r="4" fill="#0" id="circle13"/>
	<circle cx="43.4243" cy="643.313" r="4" fill="#0" id="circle14"/>
	<circle cx="46.6208" cy="369.474" r="4" fill="#0" id="circle15"/>
	<circle cx="46.6208" cy="380.129" r="4" fill="#0" id="circle16"/>
	<circle cx="46.6208" cy="390.784" r="4" fill="#0" id="circle17"/>
	<circle cx="46.6208" cy="401.439" r="4" fill="#0" id="circle18"/>
	<circle cx="46.6208" cy="412.095" r="4" fill="#0" id="circle19"/>
	<circle cx="46.6208" cy="422.75" r="4" fill="#0" id="circle20"/>
	<circle cx="46.6208" cy="433.405" r="4" fill="#0" id="circle21"/>
	<circle cx="46.6208" cy="444.06" r="4" fill="#0" id="circle22"/>
	<circle cx="46.6208" cy="454.715" r="4" fill="#0" id="circle23"/>
	<circle cx="46.6208" cy="465.371" r="4" fill="#0" id="circle24"/>
	<circle cx="46.6208" cy="476.026" r="4" fill="#0" id="circle25"/>
	<circle cx="46.6208" cy="486.681" r="4" fill="#0" id="circle26"/>
	<circle cx="46.6208" cy="497.336" r="4" fill="#0" id="circle27"/>
	<circle cx="46.6208" cy="507.991" r="4" fill="#0" id="circle28"/>
	<circle cx="46.6208" cy="518.647" r="4" fill="#0" id="circle29"/>
	<circle cx="46.6208" cy="529.302" r="4" fill="#0" id="circle30"/>
	<circle cx="46.6208" cy="539.957" r="4" fill="#0" id="circle31"/>
	<circle cx="46.6208" cy="550.612" r="4" fill="#0" id="circle32"/>
	<circle cx="51.9484" cy="348.163" r="4" fill="#0" id="circle33"/>
	<circle cx="51.9484" cy="358.818" r="4" fill="#0" id="circle34"/>
	<circle cx="51.9484" cy="560.202" r="4" fill="#0" id="circle35"/>
	<circle cx="53.014" cy="745.603" r="4" fill="#0" id="circle36"/>
	<circle cx="54.0795" cy="643.313" r="4" fill="#0" id="circle37"/>
	<circle cx="57.276" cy="337.508" r="4" fill="#0" id="circle38"/>
	<circle cx="57.276" cy="569.792" r="4" fill="#0" id="circle39"/>
	<circle cx="60.4726" cy="580.447" r="4" fill="#0" id="circle40"/>
	<circle cx="62.6037" cy="321.525" r="4" fill="#0" id="circle41"/>
	<circle cx="63.6692" cy="648.64" r="4" fill="#0" id="circle42"/>
	<circle cx="63.6692" cy="745.603" r="4" fill="#0" id="circle43"/>
	<circle cx="65.8002" cy="590.037" r="4" fill="#0" id="circle44"/>
	<circle cx="67.9313" cy="310.87" r="4" fill="#0" id="circle45"/>
	<circle cx="68.9968" cy="658.23" r="4" fill="#0" id="circle46"/>
	<circle cx="70.0623" cy="600.692" r="4" fill="#0" id="circle47"/>
	<circle cx="73.2589" cy="300.215" r="4" fill="#0" id="circle48"/>
	<circle cx="74.3244" cy="667.82" r="4" fill="#0" id="circle49"/>
	<circle cx="74.3244" cy="745.603" r="4" fill="#0" id="circle50"/>
	<circle cx="75.3899" cy="610.281" r="4" fill="#0" id="circle51"/>
	<circle cx="78.5865" cy="289.56" r="4" fill="#0" id="circle52"/>
	<circle cx="79.652" cy="677.409" r="4" fill="#0" id="circle53"/>
	<circle cx="83.9141" cy="617.74" r="4" fill="#0" id="circle54"/>
	<circle cx="84.9796" cy="745.603" r="4" fill="#0" id="circle55"/>
	<circle cx="87.1106" cy="281.035" r="4" fill="#0" id="circle56"/>
	<circle cx="87.1106" cy="628.395" r="4" fill="#0" id="circle57"/>
	<circle cx="90.3072" cy="680.606" r="4" fill="#0" id="circle58"/>
	<circle cx="95.6348" cy="635.854" r="4" fill="#0" id="circle59"/>
	<circle cx="95.6348" cy="745.603" r="4" fill="#0" id="circle60"/>
	<circle cx="97.7658" cy="275.708" r="4" fill="#0" id="circle61"/>
	<circle cx="100.962" cy="680.606" r="4" fill="#0" id="circle62"/>
	<circle cx="103.093" cy="265.053" r="4" fill="#0" id="circle63"/>
	<circle cx="105.224" cy="641.182" r="4" fill="#0" id="circle64"/>
	<circle cx="106.29" cy="740.275" r="4" fill="#0" id="circle65"/>
	<circle cx="111.618" cy="256.528" r="4" fill="#0" id="circle66"/>
	<circle cx="111.618" cy="680.606" r="4" fill="#0" id="circle67"/>
	<circle cx="115.88" cy="644.378" r="4" fill="#0" id="circle68"/>
	<circle cx="116.945" cy="740.275" r="4" fill="#0" id="circle69"/>
	<circle cx="120.142" cy="249.07" r="4" fill="#0" id="circle70"/>
	<circle cx="122.273" cy="680.606" r="4" fill="#0" id="circle71"/>
	<circle cx="125.469" cy="639.05" r="4" fill="#0" id="circle72"/>
	<circle cx="127.6" cy="740.275" r="4" fill="#0" id="circle73"/>
	<circle cx="129.731" cy="243.742" r="4" fill="#0" id="circle74"/>
	<circle cx="132.928" cy="680.606" r="4" fill="#0" id="circle75"/>
	<circle cx="136.125" cy="639.05" r="4" fill="#0" id="circle76"/>
	<circle cx="138.256" cy="740.275" r="4" fill="#0" id="circle77"/>
	<circle cx="139.321" cy="238.415" r="4" fill="#0" id="circle78"/>
	<circle cx="143.583" cy="680.606" r="4" fill="#0" id="circle79"/>
	<circle cx="146.78" cy="639.05" r="4" fill="#0" id="circle80"/>
	<circle cx="148.911" cy="233.087" r="4" fill="#0" id="circle81"/>
	<circle cx="148.911" cy="740.275" r="4" fill="#0" id="circle82"/>
	<circle cx="154.238" cy="680.606" r="4" fill="#0" id="circle83"/>
	<circle cx="157.435" cy="639.05" r="4" fill="#0" id="circle84"/>
	<circle cx="158.501" cy="225.628" r="4" fill="#0" id="circle85"/>
	<circle cx="158.501" cy="734.947" r="4" fill="#0" id="circle86"/>
	<circle cx="163.828" cy="647.575" r="4" fill="#0" id="circle87"/>
	<circle cx="163.828" cy="658.23" r="4" fill="#0" id="circle88"/>
	<circle cx="163.828" cy="668.885" r="4" fill="#0" id="circle89"/>
	<circle cx="169.156" cy="220.301" r="4" fill="#0" id="circle90"/>
	<circle cx="169.156" cy="734.947" r="4" fill="#0" id="circle91"/>
	<circle cx="177.68" cy="211.777" r="4" fill="#0" id="circle92"/>
	<circle cx="178.745" cy="729.62" r="4" fill="#0" id="circle93"/>
	<circle cx="188.335" cy="206.449" r="4" fill="#0" id="circle94"/>
	<circle cx="189.401" cy="729.62" r="4" fill="#0" id="circle95"/>
	<circle cx="198.99" cy="201.121" r="4" fill="#0" id="circle96"/>
	<circle cx="200.056" cy="727.489" r="4" fill="#0" id="circle97"/>
	<circle cx="209.646" cy="195.794" r="4" fill="#0" id="circle98"/>
	<circle cx="210.711" cy="724.292" r="4" fill="#0" id="circle99"/>
	<circle cx="220.301" cy="195.794" r="4" fill="#0" id="circle100"/>
	<circle cx="221.366" cy="724.292" r="4" fill="#0" id="circle101"/>
	<circle cx="229.89" cy="190.466" r="4" fill="#0" id="circle102"/>
	<circle cx="230.956" cy="718.965" r="4" fill="#0" id="circle103"/>
	<circle cx="240.546" cy="190.466" r="4" fill="#0" id="circle104"/>
	<circle cx="241.611" cy="718.965" r="4" fill="#0" id="circle105"/>
	<circle cx="250.135" cy="185.139" r="4" fill="#0" id="circle106"/>
	<circle cx="251.201" cy="713.637" r="4" fill="#0" id="circle107"/>
	<circle cx="260.791" cy="181.942" r="4" fill="#0" id="circle108"/>
	<circle cx="261.856" cy="713.637" r="4" fill="#0" id="circle109"/>
	<circle cx="271.446" cy="179.811" r="4" fill="#0" id="circle110"/>
	<circle cx="271.446" cy="708.309" r="4" fill="#0" id="circle111"/>
	<circle cx="282.101" cy="179.811" r="4" fill="#0" id="circle112"/>
	<circle cx="282.101" cy="708.309" r="4" fill="#0" id="circle113"/>
	<circle cx="292.756" cy="179.811" r="4" fill="#0" id="circle114"/>
	<circle cx="292.756" cy="708.309" r="4" fill="#0" id="circle115"/>
	<circle cx="302.346" cy="33.8346" r="4" fill="#0" id="circle116"/>
	<circle cx="302.346" cy="44.4898" r="4" fill="#0" id="circle117"/>
	<circle cx="302.346" cy="174.483" r="4" fill="#0" id="circle118"/>
	<circle cx="303.411" cy="702.982" r="4" fill="#0" id="circle119"/>
	<circle cx="307.673" cy="54.0795" r="4" fill="#0" id="circle120"/>
	<circle cx="310.87" cy="25.3104" r="4" fill="#0" id="circle121"/>
	<circle cx="313.001" cy="174.483" r="4" fill="#0" id="circle122"/>
	<circle cx="314.067" cy="702.982" r="4" fill="#0" id="circle123"/>
	<circle cx="318.329" cy="58.3416" r="4" fill="#0" id="circle124"/>
	<circle cx="320.46" cy="19.9828" r="4" fill="#0" id="circle125"/>
	<circle cx="323.656" cy="172.352" r="4" fill="#0" id="circle126"/>
	<circle cx="323.656" cy="697.654" r="4" fill="#0" id="circle127"/>
	<circle cx="327.918" cy="63.6692" r="4" fill="#0" id="circle128"/>
	<circle cx="330.049" cy="14.6552" r="4" fill="#0" id="circle129"/>
	<circle cx="334.311" cy="169.156" r="4" fill="#0" id="circle130"/>
	<circle cx="334.311" cy="694.458" r="4" fill="#0" id="circle131"/>
	<circle cx="338.574" cy="63.6692" r="4" fill="#0" id="circle132"/>
	<circle cx="340.705" cy="14.6552" r="4" fill="#0" id="circle133"/>
	<circle cx="344.967" cy="169.156" r="4" fill="#0" id="circle134"/>
	<circle cx="344.967" cy="692.327" r="4" fill="#0" id="circle135"/>
	<circle cx="349.229" cy="63.6692" r="4" fill="#0" id="circle136"/>
	<circle cx="351.36" cy="14.6552" r="4" fill="#0" id="circle137"/>
	<circle cx="354.556" cy="686.999" r="4" fill="#0" id="circle138"/>
	<circle cx="355.622" cy="169.156" r="4" fill="#0" id="circle139"/>
	<circle cx="359.884" cy="63.6692" r="4" fill="#0" id="circle140"/>
	<circle cx="360.95" cy="9.3276" r="4" fill="#0" id="circle141"/>
	<circle cx="365.212" cy="163.828" r="4" fill="#0" id="circle142"/>
	<circle cx="365.212" cy="684.868" r="4" fill="#0" id="circle143"/>
	<circle cx="370.539" cy="63.6692" r="4" fill="#0" id="circle144"/>
	<circle cx="371.605" cy="9.3276" r="4" fill="#0" id="circle145"/>
	<circle cx="371.605" cy="74.3244" r="4" fill="#0" id="circle146"/>
	<circle cx="371.605" cy="84.9796" r="4" fill="#0" id="circle147"/>
	<circle cx="374.801" cy="95.6348" r="4" fill="#0" id="circle148"/>
	<circle cx="375.867" cy="163.828" r="4" fill="#0" id="circle149"/>
	<circle cx="375.867" cy="681.671" r="4" fill="#0" id="circle150"/>
	<circle cx="380.129" cy="105.224" r="4" fill="#0" id="circle151"/>
	<circle cx="382.26" cy="9.3276" r="4" fill="#0" id="circle152"/>
	<circle cx="385.456" cy="169.156" r="4" fill="#0" id="circle153"/>
	<circle cx="386.522" cy="681.671" r="4" fill="#0" id="circle154"/>
	<circle cx="389.719" cy="110.552" r="4" fill="#0" id="circle155"/>
	<circle cx="392.915" cy="9.3276" r="4" fill="#0" id="circle156"/>
	<circle cx="396.112" cy="169.156" r="4" fill="#0" id="circle157"/>
	<circle cx="396.112" cy="676.344" r="4" fill="#0" id="circle158"/>
	<circle cx="400.374" cy="111.618" r="4" fill="#0" id="circle159"/>
	<circle cx="402.505" cy="4" r="4" fill="#0" id="circle160"/>
	<circle cx="403.57" cy="122.273" r="4" fill="#0" id="circle161"/>
	<circle cx="403.57" cy="132.928" r="4" fill="#0" id="circle162"/>
	<circle cx="403.57" cy="143.583" r="4" fill="#0" id="circle163"/>
	<circle cx="403.57" cy="154.238" r="4" fill="#0" id="circle164"/>
	<circle cx="406.767" cy="676.344" r="4" fill="#0" id="circle165"/>
	<circle cx="413.16" cy="4" r="4" fill="#0" id="circle166"/>
	<circle cx="417.422" cy="675.278" r="4" fill="#0" id="circle167"/>
	<circle cx="420.619" cy="90.3072" r="4" fill="#0" id="circle168"/>
	<circle cx="423.815" cy="4" r="4" fill="#0" id="circle169"/>
	<circle cx="425.946" cy="99.8969" r="4" fill="#0" id="circle170"/>
	<circle cx="428.077" cy="669.951" r="4" fill="#0" id="circle171"/>
	<circle cx="430.208" cy="84.9796" r="4" fill="#0" id="circle172"/>
	<circle cx="431.274" cy="116.945" r="4" fill="#0" id="circle173"/>
	<circle cx="431.274" cy="127.6" r="4" fill="#0" id="circle174"/>
	<circle cx="431.274" cy="138.256" r="4" fill="#0" id="circle175"/>
	<circle cx="433.405" cy="148.911" r="4" fill="#0" id="circle176"/>
	<circle cx="434.47" cy="4" r="4" fill="#0" id="circle177"/>
	<circle cx="434.47" cy="106.29" r="4" fill="#0" id="circle178"/>
	<circle cx="436.602" cy="660.361" r="4" fill="#0" id="circle179"/>
	<circle cx="440.864" cy="84.9796" r="4" fill="#0" id="circle180"/>
	<circle cx="441.929" cy="649.706" r="4" fill="#0" id="circle181"/>
	<circle cx="444.06" cy="153.173" r="4" fill="#0" id="circle182"/>
	<circle cx="445.126" cy="4" r="4" fill="#0" id="circle183"/>
	<circle cx="451.519" cy="81.783" r="4" fill="#0" id="circle184"/>
	<circle cx="452.584" cy="649.706" r="4" fill="#0" id="circle185"/>
	<circle cx="454.715" cy="153.173" r="4" fill="#0" id="circle186"/>
	<circle cx="455.781" cy="4" r="4" fill="#0" id="circle187"/>
	<circle cx="462.174" cy="76.4554" r="4" fill="#0" id="circle188"/>
	<circle cx="463.24" cy="649.706" r="4" fill="#0" id="circle189"/>
	<circle cx="464.305" cy="158.501" r="4" fill="#0" id="circle190"/>
	<circle cx="465.371" cy="9.3276" r="4" fill="#0" id="circle191"/>
	<circle cx="470.698" cy="67.9313" r="4" fill="#0" id="circle192"/>
	<circle cx="473.895" cy="15.7207" r="4" fill="#0" id="circle193"/>
	<circle cx="473.895" cy="53.014" r="4" fill="#0" id="circle194"/>
	<circle cx="473.895" cy="649.706" r="4" fill="#0" id="circle195"/>
	<circle cx="474.96" cy="158.501" r="4" fill="#0" id="circle196"/>
	<circle cx="479.222" cy="25.3104" r="4" fill="#0" id="circle197"/>
	<circle cx="479.222" cy="35.9656" r="4" fill="#0" id="circle198"/>
	<circle cx="484.55" cy="649.706" r="4" fill="#0" id="circle199"/>
	<circle cx="485.615" cy="158.501" r="4" fill="#0" id="circle200"/>
	<circle cx="495.205" cy="649.706" r="4" fill="#0" id="circle201"/>
	<circle cx="496.271" cy="158.501" r="4" fill="#0" id="circle202"/>
	<circle cx="505.86" cy="649.706" r="4" fill="#0" id="circle203"/>
	<circle cx="506.926" cy="158.501" r="4" fill="#0" id="circle204"/>
	<circle cx="516.516" cy="649.706" r="4" fill="#0" id="circle205"/>
	<circle cx="517.581" cy="158.501" r="4" fill="#0" id="circle206"/>
	<circle cx="527.171" cy="649.706" r="4" fill="#0" id="circle207"/>
	<circle cx="528.236" cy="158.501" r="4" fill="#0" id="circle208"/>
	<circle cx="537.826" cy="649.706" r="4" fill="#0" id="circle209"/>
	<circle cx="538.892" cy="158.501" r="4" fill="#0" id="circle210"/>
	<circle cx="548.481" cy="649.706" r="4" fill="#0" id="circle211"/>
	<circle cx="549.547" cy="158.501" r="4" fill="#0" id="circle212"/>
	<circle cx="559.136" cy="163.828" r="4" fill="#0" id="circle213"/>
	<circle cx="559.136" cy="649.706" r="4" fill="#0" id="circle214"/>
	<circle cx="569.792" cy="163.828" r="4" fill="#0" id="circle215"/>
	<circle cx="569.792" cy="649.706" r="4" fill="#0" id="circle216"/>
	<circle cx="580.447" cy="163.828" r="4" fill="#0" id="circle217"/>
	<circle cx="580.447" cy="644.378" r="4" fill="#0" id="circle218"/>
	<circle cx="591.102" cy="163.828" r="4" fill="#0" id="circle219"/>
	<circle cx="591.102" cy="644.378" r="4" fill="#0" id="circle220"/>
	<circle cx="601.757" cy="167.025" r="4" fill="#0" id="circle221"/>
	<circle cx="601.757" cy="644.378" r="4" fill="#0" id="circle222"/>
	<circle cx="612.412" cy="169.156" r="4" fill="#0" id="circle223"/>
	<circle cx="612.412" cy="644.378" r="4" fill="#0" id="circle224"/>
	<circle cx="623.068" cy="169.156" r="4" fill="#0" id="circle225"/>
	<circle cx="623.068" cy="271.446" r="4" fill="#0" id="circle226"/>
	<circle cx="623.068" cy="282.101" r="4" fill="#0" id="circle227"/>
	<circle cx="623.068" cy="639.05" r="4" fill="#0" id="circle228"/>
	<circle cx="632.657" cy="174.483" r="4" fill="#0" id="circle229"/>
	<circle cx="633.723" cy="271.446" r="4" fill="#0" id="circle230"/>
	<circle cx="633.723" cy="286.363" r="4" fill="#0" id="circle231"/>
	<circle cx="633.723" cy="639.05" r="4" fill="#0" id="circle232"/>
	<circle cx="643.313" cy="174.483" r="4" fill="#0" id="circle233"/>
	<circle cx="643.313" cy="266.118" r="4" fill="#0" id="circle234"/>
	<circle cx="644.378" cy="286.363" r="4" fill="#0" id="circle235"/>
	<circle cx="644.378" cy="639.05" r="4" fill="#0" id="circle236"/>
	<circle cx="653.968" cy="174.483" r="4" fill="#0" id="circle237"/>
	<circle cx="653.968" cy="266.118" r="4" fill="#0" id="circle238"/>
	<circle cx="653.968" cy="633.723" r="4" fill="#0" id="circle239"/>
	<circle cx="655.033" cy="286.363" r="4" fill="#0" id="circle240"/>
	<circle cx="663.557" cy="260.791" r="4" fill="#0" id="circle241"/>
	<circle cx="664.623" cy="176.614" r="4" fill="#0" id="circle242"/>
	<circle cx="664.623" cy="633.723" r="4" fill="#0" id="circle243"/>
	<circle cx="665.689" cy="286.363" r="4" fill="#0" id="circle244"/>
	<circle cx="671.016" cy="185.139" r="4" fill="#0" id="circle245"/>
	<circle cx="673.147" cy="254.397" r="4" fill="#0" id="circle246"/>
	<circle cx="674.213" cy="628.395" r="4" fill="#0" id="circle247"/>
	<circle cx="676.344" cy="194.728" r="4" fill="#0" id="circle248"/>
	<circle cx="676.344" cy="205.383" r="4" fill="#0" id="circle249"/>
	<circle cx="676.344" cy="216.039" r="4" fill="#0" id="circle250"/>
	<circle cx="676.344" cy="286.363" r="4" fill="#0" id="circle251"/>
	<circle cx="678.475" cy="243.742" r="4" fill="#0" id="circle252"/>
	<circle cx="681.671" cy="225.628" r="4" fill="#0" id="circle253"/>
	<circle cx="684.868" cy="626.264" r="4" fill="#0" id="circle254"/>
	<circle cx="686.999" cy="286.363" r="4" fill="#0" id="circle255"/>
	<circle cx="695.523" cy="623.068" r="4" fill="#0" id="circle256"/>
	<circle cx="697.654" cy="286.363" r="4" fill="#0" id="circle257"/>
	<circle cx="702.982" cy="468.567" r="4" fill="#0" id="circle258"/>
	<circle cx="702.982" cy="479.222" r="4" fill="#0" id="circle259"/>
	<circle cx="705.113" cy="617.74" r="4" fill="#0" id="circle260"/>
	<circle cx="708.309" cy="286.363" r="4" fill="#0" id="circle261"/>
	<circle cx="708.309" cy="488.812" r="4" fill="#0" id="circle262"/>
	<circle cx="713.637" cy="457.912" r="4" fill="#0" id="circle263"/>
	<circle cx="713.637" cy="498.402" r="4" fill="#0" id="circle264"/>
	<circle cx="715.768" cy="616.675" r="4" fill="#0" id="circle265"/>
	<circle cx="718.965" cy="286.363" r="4" fill="#0" id="circle266"/>
	<circle cx="722.161" cy="450.453" r="4" fill="#0" id="circle267"/>
	<circle cx="724.292" cy="499.467" r="4" fill="#0" id="circle268"/>
	<circle cx="726.423" cy="612.412" r="4" fill="#0" id="circle269"/>
	<circle cx="729.62" cy="286.363" r="4" fill="#0" id="circle270"/>
	<circle cx="732.816" cy="445.126" r="4" fill="#0" id="circle271"/>
	<circle cx="734.947" cy="499.467" r="4" fill="#0" id="circle272"/>
	<circle cx="737.078" cy="612.412" r="4" fill="#0" id="circle273"/>
	<circle cx="740.275" cy="286.363" r="4" fill="#0" id="circle274"/>
	<circle cx="743.472" cy="439.798" r="4" fill="#0" id="circle275"/>
	<circle cx="745.603" cy="499.467" r="4" fill="#0" id="circle276"/>
	<circle cx="746.668" cy="607.085" r="4" fill="#0" id="circle277"/>
	<circle cx="750.93" cy="286.363" r="4" fill="#0" id="circle278"/>
	<circle cx="754.127" cy="434.47" r="4" fill="#0" id="circle279"/>
	<circle cx="754.127" cy="505.86" r="4" fill="#0" id="circle280"/>
	<circle cx="756.258" cy="601.757" r="4" fill="#0" id="circle281"/>
	<circle cx="761.585" cy="286.363" r="4" fill="#0" id="circle282"/>
	<circle cx="761.585" cy="514.385" r="4" fill="#0" id="circle283"/>
	<circle cx="764.782" cy="429.143" r="4" fill="#0" id="circle284"/>
	<circle cx="766.913" cy="601.757" r="4" fill="#0" id="circle285"/>
	<circle cx="770.11" cy="520.778" r="4" fill="#0" id="circle286"/>
	<circle cx="772.241" cy="286.363" r="4" fill="#0" id="circle287"/>
	<circle cx="775.437" cy="423.815" r="4" fill="#0" id="circle288"/>
	<circle cx="775.437" cy="594.299" r="4" fill="#0" id="circle289"/>
	<circle cx="777.568" cy="529.302" r="4" fill="#0" id="circle290"/>
	<circle cx="782.896" cy="286.363" r="4" fill="#0" id="circle291"/>
	<circle cx="782.896" cy="538.892" r="4" fill="#0" id="circle292"/>
	<circle cx="782.896" cy="549.547" r="4" fill="#0" id="circle293"/>
	<circle cx="782.896" cy="560.202" r="4" fill="#0" id="circle294"/>
	<circle cx="782.896" cy="570.857" r="4" fill="#0" id="circle295"/>
	<circle cx="782.896" cy="581.512" r="4" fill="#0" id="circle296"/>
	<circle cx="786.092" cy="420.619" r="4" fill="#0" id="circle297"/>
	<circle cx="793.551" cy="286.363" r="4" fill="#0" id="circle298"/>
	<circle cx="795.682" cy="415.291" r="4" fill="#0" id="circle299"/>
	<circle cx="804.206" cy="286.363" r="4" fill="#0" id="circle300"/>
	<circle cx="805.272" cy="409.963" r="4" fill="#0" id="circle301"/>
	<circle cx="814.861" cy="286.363" r="4" fill="#0" id="circle302"/>
	<circle cx="814.861" cy="404.636" r="4" fill="#0" id="circle303"/>
	<circle cx="825.517" cy="286.363" r="4" fill="#0" id="circle304"/>
	<circle cx="825.517" cy="399.308" r="4" fill="#0" id="circle305"/>
	<circle cx="836.172" cy="286.363" r="4" fill="#0" id="circle306"/>
	<circle cx="836.172" cy="393.981" r="4" fill="#0" id="circle307"/>
	<circle cx="846.827" cy="286.363" r="4" fill="#0" id="circle308"/>
	<circle cx="846.827" cy="388.653" r="4" fill="#0" id="circle309"/>
	<circle cx="857.482" cy="286.363" r="4" fill="#0" id="circle310"/>
	<circle cx="857.482" cy="383.325" r="4" fill="#0" id="circle311"/>
	<circle cx="868.137" cy="286.363" r="4" fill="#0" id="circle312"/>
	<circle cx="868.137" cy="377.998" r="4" fill="#0" id="circle313"/>
	<circle cx="878.793" cy="286.363" r="4" fill="#0" id="circle314"/>
	<circle cx="878.793" cy="372.67" r="4" fill="#0" id="circle315"/>
	<circle cx="889.448" cy="286.363" r="4" fill="#0" id="circle316"/>
	<circle cx="889.448" cy="372.67" r="4" fill="#0" id="circle317"/>
	<circle cx="899.038" cy="367.343" r="4" fill="#0" id="circle318"/>
	<circle cx="900.103" cy="286.363" r="4" fill="#0" id="circle319"/>
	<circle cx="908.627" cy="362.015" r="4" fill="#0" id="circle320"/>
	<circle cx="910.758" cy="286.363" r="4" fill="#0" id="circle321"/>
	<circle cx="918.217" cy="356.687" r="4" fill="#0" id="circle322"/>
	<circle cx="921.414" cy="286.363" r="4" fill="#0" id="circle323"/>
	<circle cx="927.807" cy="351.36" r="4" fill="#0" id="circle324"/>
	<circle cx="932.069" cy="286.363" r="4" fill="#0" id="circle325"/>
	<circle cx="937.396" cy="346.032" r="4" fill="#0" id="circle326"/>
	<circle cx="942.724" cy="286.363" r="4" fill="#0" id="circle327"/>
	<circle cx="948.052" cy="340.705" r="4" fill="#0" id="circle328"/>
	<circle cx="953.379" cy="286.363" r="4" fill="#0" id="circle329"/>
	<circle cx="958.707" cy="340.705" r="4" fill="#0" id="circle330"/>
	<circle cx="964.034" cy="286.363" r="4" fill="#0" id="circle331"/>
	<circle cx="969.362" cy="340.705" r="4" fill="#0" id="circle332"/>
	<circle cx="974.69" cy="283.166" r="4" fill="#0" id="circle333"/>
	<circle cx="978.952" cy="335.377" r="4" fill="#0" id="circle334"/>
	<circle cx="985.345" cy="284.232" r="4" fill="#0" id="circle335"/>
	<circle cx="987.476" cy="328.984" r="4" fill="#0" id="circle336"/>
	<circle cx="992.803" cy="292.756" r="4" fill="#0" id="circle337"/>
	<circle cx="996" cy="303.411" r="4" fill="#0" id="circle338"/>
	<circle cx="996" cy="314.067" r="4" fill="#0" id="circle339"/>
	</g>
</svg>