<?xml version="1.0" encoding="UTF-8" standalone="no"?>
<!-- Created with CurveBenchmark -->
<svg
	xmlns:dc="http://purl.org/dc/elements/1.1/"
	xmlns:cc="http://creativecommons.org/ns#"
	xmlns:rdf="http://www.w3.org/1999/02/22-rdf-syntax-ns#"
	xmlns:svg="http://www.w3.org/2000/svg"
	xmlns="http://www.w3.org/2000/svg"
	xmlns:sodipodi="http://sodipodi.sourceforge.net/DTD/sodipodi-0.dtd"
	xmlns:inkscape="http://www.inkscape.org/namespaces/inkscape"
	width="1000"
	height="1000"
	id="svg2"
	version="1.1"
	sodipodi:docname="manifold/gathang-mc24.txt">
<defs
	id="defs4" />
<metadata
	id="metadata7">
	<rdf:RDF>
		<cc:Work
			rdf:about="">
			<dc:format>image/svg+xml</dc:format>
			<dc:type
				rdf:resource="http://purl.org/dc/dcmitype/StillImage" />
			<dc:title></dc:title>
		</cc:Work>
	</rdf:RDF>
</metadata>
<g
	inkscape:label="Layer 1"
	inkscape:groupmode="layer"
	id="layer1">
	<path style="fill:none;stroke:red;stroke-width:1px;stroke-linecap:butt;stroke-linejoin:miter;stroke-opacity:1" d="M 14.5782,90.0595 103.905,42.8337 z" id="boundary" inkscape:connector-curvature="0" />
	<path style="fill:none;stroke:red;stroke-width:1px;stroke-linecap:butt;stroke-linejoin:miter;stroke-opacity:1" d="M 4,167.845 14.5782,90.0595 z" id="boundary" inkscape:connector-curvature="0" />
	<path style="fill:none;stroke:red;stroke-width:1px;stroke-linecap:butt;stroke-linejoin:miter;stroke-opacity:1" d="M 53.3649,292.902 4,167.845 z" id="boundary" inkscape:connector-curvature="0" />
	<path style="fill:none;stroke:red;stroke-width:1px;stroke-linecap:butt;stroke-linejoin:miter;stroke-opacity:1" d="M 103.905,42.8337 281.384,4 z" id="boundary" inkscape:connector-curvature="0" />
	<path style="fill:none;stroke:red;stroke-width:1px;stroke-linecap:butt;stroke-linejoin:miter;stroke-opacity:1" d="M 281.384,4 420.076,4.23507 z" id="boundary" inkscape:connector-curvature="0" />
	<path style="fill:none;stroke:red;stroke-width:1px;stroke-linecap:butt;stroke-linejoin:miter;stroke-opacity:1" d="M 270.806,273.485 320.171,244.36 z" id="boundary" inkscape:connector-curvature="0" />
	<path style="fill:none;stroke:red;stroke-width:1px;stroke-linecap:butt;stroke-linejoin:miter;stroke-opacity:1" d="M 250.825,330.631 270.806,273.485 z" id="boundary" inkscape:connector-curvature="0" />
	<path style="fill:none;stroke:red;stroke-width:1px;stroke-linecap:butt;stroke-linejoin:miter;stroke-opacity:1" d="M 400.095,244.36 320.171,244.36 z" id="boundary" inkscape:connector-curvature="0" />
	<path style="fill:none;stroke:red;stroke-width:1px;stroke-linecap:butt;stroke-linejoin:miter;stroke-opacity:1" d="M 438.882,407.735 341.327,417.231 z" id="boundary" inkscape:connector-curvature="0" />
	<path style="fill:none;stroke:red;stroke-width:1px;stroke-linecap:butt;stroke-linejoin:miter;stroke-opacity:1" d="M 125.062,427.269 53.3649,292.902 z" id="boundary" inkscape:connector-curvature="0" />
	<path style="fill:none;stroke:red;stroke-width:1px;stroke-linecap:butt;stroke-linejoin:miter;stroke-opacity:1" d="M 125.062,427.269 213.213,542.665 z" id="boundary" inkscape:connector-curvature="0" />
	<path style="fill:none;stroke:red;stroke-width:1px;stroke-linecap:butt;stroke-linejoin:miter;stroke-opacity:1" d="M 213.213,542.665 320.171,686.505 z" id="boundary" inkscape:connector-curvature="0" />
	<path style="fill:none;stroke:red;stroke-width:1px;stroke-linecap:butt;stroke-linejoin:miter;stroke-opacity:1" d="M 250.825,330.631 273.156,388.6 z" id="boundary" inkscape:connector-curvature="0" />
	<path style="fill:none;stroke:red;stroke-width:1px;stroke-linecap:butt;stroke-linejoin:miter;stroke-opacity:1" d="M 341.327,417.231 273.156,388.6 z" id="boundary" inkscape:connector-curvature="0" />
	<path style="fill:none;stroke:red;stroke-width:1px;stroke-linecap:butt;stroke-linejoin:miter;stroke-opacity:1" d="M 420.076,744.004 320.171,686.505 z" id="boundary" inkscape:connector-curvature="0" />
	<path style="fill:none;stroke:red;stroke-width:1px;stroke-linecap:butt;stroke-linejoin:miter;stroke-opacity:1" d="M 420.076,4.23507 530.559,23.6284 z" id="boundary" inkscape:connector-curvature="0" />
	<path style="fill:none;stroke:red;stroke-width:1px;stroke-linecap:butt;stroke-linejoin:miter;stroke-opacity:1" d="M 480.019,282.818 400.095,244.36 z" id="boundary" inkscape:connector-curvature="0" />
	<path style="fill:none;stroke:red;stroke-width:1px;stroke-linecap:butt;stroke-linejoin:miter;stroke-opacity:1" d="M 649.27,225.319 598.73,119.42 z" id="boundary" inkscape:connector-curvature="0" />
	<path style="fill:none;stroke:red;stroke-width:1px;stroke-linecap:butt;stroke-linejoin:miter;stroke-opacity:1" d="M 807.943,253.998 729.194,301.718 z" id="boundary" inkscape:connector-curvature="0" />
	<path style="fill:none;stroke:red;stroke-width:1px;stroke-linecap:butt;stroke-linejoin:miter;stroke-opacity:1" d="M 729.194,301.718 649.27,225.319 z" id="boundary" inkscape:connector-curvature="0" />
	<path style="fill:none;stroke:red;stroke-width:1px;stroke-linecap:butt;stroke-linejoin:miter;stroke-opacity:1" d="M 856.133,205.879 807.943,253.998 z" id="boundary" inkscape:connector-curvature="0" />
	<path style="fill:none;stroke:red;stroke-width:1px;stroke-linecap:butt;stroke-linejoin:miter;stroke-opacity:1" d="M 598.73,119.42 530.559,23.6284 z" id="boundary" inkscape:connector-curvature="0" />
	<path style="fill:none;stroke:red;stroke-width:1px;stroke-linecap:butt;stroke-linejoin:miter;stroke-opacity:1" d="M 898.445,157.689 957.213,119.443 z" id="boundary" inkscape:connector-curvature="0" />
	<path style="fill:none;stroke:red;stroke-width:1px;stroke-linecap:butt;stroke-linejoin:miter;stroke-opacity:1" d="M 957.213,119.443 987.773,215.188 z" id="boundary" inkscape:connector-curvature="0" />
	<path style="fill:none;stroke:red;stroke-width:1px;stroke-linecap:butt;stroke-linejoin:miter;stroke-opacity:1" d="M 856.133,205.879 898.445,157.689 z" id="boundary" inkscape:connector-curvature="0" />
	<path style="fill:none;stroke:red;stroke-width:1px;stroke-linecap:butt;stroke-linejoin:miter;stroke-opacity:1" d="M 987.773,215.188 996,349.672 z" id="boundary" inkscape:connector-curvature="0" />
	<path style="fill:none;stroke:red;stroke-width:1px;stroke-linecap:butt;stroke-linejoin:miter;stroke-opacity:1" d="M 489.422,349.907 438.882,407.735 z" id="boundary" inkscape:connector-curvature="0" />
	<path style="fill:none;stroke:red;stroke-width:1px;stroke-linecap:butt;stroke-linejoin:miter;stroke-opacity:1" d="M 489.422,349.907 480.019,282.818 z" id="boundary" inkscape:connector-curvature="0" />
	<path style="fill:none;stroke:red;stroke-width:1px;stroke-linecap:butt;stroke-linejoin:miter;stroke-opacity:1" d="M 530.559,734.013 420.076,744.004 z" id="boundary" inkscape:connector-curvature="0" />
	<path style="fill:none;stroke:red;stroke-width:1px;stroke-linecap:butt;stroke-linejoin:miter;stroke-opacity:1" d="M 649.27,686.505 530.559,734.013 z" id="boundary" inkscape:connector-curvature="0" />
	<path style="fill:none;stroke:red;stroke-width:1px;stroke-linecap:butt;stroke-linejoin:miter;stroke-opacity:1" d="M 996,349.672 957.213,455.384 z" id="boundary" inkscape:connector-curvature="0" />
	<path style="fill:none;stroke:red;stroke-width:1px;stroke-linecap:butt;stroke-linejoin:miter;stroke-opacity:1" d="M 818.521,580.394 649.27,686.505 z" id="boundary" inkscape:connector-curvature="0" />
	<path style="fill:none;stroke:red;stroke-width:1px;stroke-linecap:butt;stroke-linejoin:miter;stroke-opacity:1" d="M 957.213,455.384 818.521,580.394 z" id="boundary" inkscape:connector-curvature="0" />
	<circle cx="4" cy="167.845" r="4" fill="#0" id="circle0"/>
	<circle cx="14.5782" cy="90.0595" r="4" fill="#0" id="circle1"/>
	<circle cx="53.3649" cy="292.902" r="4" fill="#0" id="circle2"/>
	<circle cx="103.905" cy="42.8337" r="4" fill="#0" id="circle3"/>
	<circle cx="125.062" cy="427.269" r="4" fill="#0" id="circle4"/>
	<circle cx="213.213" cy="542.665" r="4" fill="#0" id="circle5"/>
	<circle cx="250.825" cy="330.631" r="4" fill="#0" id="circle6"/>
	<circle cx="270.806" cy="273.485" r="4" fill="#0" id="circle7"/>
	<circle cx="273.156" cy="388.6" r="4" fill="#0" id="circle8"/>
	<circle cx="281.384" cy="4" r="4" fill="#0" id="circle9"/>
	<circle cx="320.171" cy="244.36" r="4" fill="#0" id="circle10"/>
	<circle cx="320.171" cy="686.505" r="4" fill="#0" id="circle11"/>
	<circle cx="341.327" cy="417.231" r="4" fill="#0" id="circle12"/>
	<circle cx="400.095" cy="244.36" r="4" fill="#0" id="circle13"/>
	<circle cx="420.076" cy="4.23507" r="4" fill="#0" id="circle14"/>
	<circle cx="420.076" cy="744.004" r="4" fill="#0" id="circle15"/>
	<circle cx="438.882" cy="407.735" r="4" fill="#0" id="circle16"/>
	<circle cx="480.019" cy="282.818" r="4" fill="#0" id="circle17"/>
	<circle cx="489.422" cy="349.907" r="4" fill="#0" id="circle18"/>
	<circle cx="530.559" cy="23.6284" r="4" fill="#0" id="circle19"/>
	<circle cx="530.559" cy="734.013" r="4" fill="#0" id="circle20"/>
	<circle cx="598.73" cy="119.42" r="4" fill="#0" id="circle21"/>
	<circle cx="649.27" cy="225.319" r="4" fill="#0" id="circle22"/>
	<circle cx="649.27" cy="686.505" r="4" fill="#0" id="circle23"/>
	<circle cx="729.194" cy="301.718" r="4" fill="#0" id="circle24"/>
	<circle cx="807.943" cy="253.998" r="4" fill="#0" id="circle25"/>
	<circle cx="818.521" cy="580.394" r="4" fill="#0" id="circle26"/>
	<circle cx="856.133" cy="205.879" r="4" fill="#0" id="circle27"/>
	<circle cx="898.445" cy="157.689" r="4" fill="#0" id="circle28"/>
	<circle cx="957.213" cy="119.443" r="4" fill="#0" id="circle29"/>
	<circle cx="957.213" cy="455.384" r="4" fill="#0" id="circle30"/>
	<circle cx="987.773" cy="215.188" r="4" fill="#0" id="circle31"/>
	<circle cx="996" cy="349.672" r="4" fill="#0" id="circle32"/>
	</g>
</svg>