<?xml version="1.0" encoding="UTF-8" standalone="no"?>
<!-- Created with CurveBenchmark -->
<svg
	xmlns:dc="http://purl.org/dc/elements/1.1/"
	xmlns:cc="http://creativecommons.org/ns#"
	xmlns:rdf="http://www.w3.org/1999/02/22-rdf-syntax-ns#"
	xmlns:svg="http://www.w3.org/2000/svg"
	xmlns="http://www.w3.org/2000/svg"
	xmlns:sodipodi="http://sodipodi.sourceforge.net/DTD/sodipodi-0.dtd"
	xmlns:inkscape="http://www.inkscape.org/namespaces/inkscape"
	width="1000"
	height="1000"
	id="svg2"
	version="1.1"
	sodipodi:docname="manifold/gathan1-bed165.png.txt">
<defs
	id="defs4" />
<metadata
	id="metadata7">
	<rdf:RDF>
		<cc:Work
			rdf:about="">
			<dc:format>image/svg+xml</dc:format>
			<dc:type
				rdf:resource="http://purl.org/dc/dcmitype/StillImage" />
			<dc:title></dc:title>
		</cc:Work>
	</rdf:RDF>
</metadata>
<g
	inkscape:label="Layer 1"
	inkscape:groupmode="layer"
	id="layer1">
	<path style="fill:none;stroke:red;stroke-width:1px;stroke-linecap:butt;stroke-linejoin:miter;stroke-opacity:1" d="M 4,157.253 16.4259,140.685 z" id="boundary" inkscape:connector-curvature="0" />
	<path style="fill:none;stroke:red;stroke-width:1px;stroke-linecap:butt;stroke-linejoin:miter;stroke-opacity:1" d="M 4,177.962 4,157.253 z" id="boundary" inkscape:connector-curvature="0" />
	<path style="fill:none;stroke:red;stroke-width:1px;stroke-linecap:butt;stroke-linejoin:miter;stroke-opacity:1" d="M 4,177.962 14.3549,196.601 z" id="boundary" inkscape:connector-curvature="0" />
	<path style="fill:none;stroke:red;stroke-width:1px;stroke-linecap:butt;stroke-linejoin:miter;stroke-opacity:1" d="M 16.4259,140.685 35.0647,130.33 z" id="boundary" inkscape:connector-curvature="0" />
	<path style="fill:none;stroke:red;stroke-width:1px;stroke-linecap:butt;stroke-linejoin:miter;stroke-opacity:1" d="M 74.4134,111.691 95.1232,107.549 z" id="boundary" inkscape:connector-curvature="0" />
	<path style="fill:none;stroke:red;stroke-width:1px;stroke-linecap:butt;stroke-linejoin:miter;stroke-opacity:1" d="M 55.7745,122.046 74.4134,111.691 z" id="boundary" inkscape:connector-curvature="0" />
	<path style="fill:none;stroke:red;stroke-width:1px;stroke-linecap:butt;stroke-linejoin:miter;stroke-opacity:1" d="M 20.5678,217.311 14.3549,196.601 z" id="boundary" inkscape:connector-curvature="0" />
	<path style="fill:none;stroke:red;stroke-width:1px;stroke-linecap:butt;stroke-linejoin:miter;stroke-opacity:1" d="M 35.0647,130.33 55.7745,122.046 z" id="boundary" inkscape:connector-curvature="0" />
	<path style="fill:none;stroke:red;stroke-width:1px;stroke-linecap:butt;stroke-linejoin:miter;stroke-opacity:1" d="M 20.5678,238.021 20.5678,217.311 z" id="boundary" inkscape:connector-curvature="0" />
	<path style="fill:none;stroke:red;stroke-width:1px;stroke-linecap:butt;stroke-linejoin:miter;stroke-opacity:1" d="M 8.14196,414.054 12.2839,380.919 z" id="boundary" inkscape:connector-curvature="0" />
	<path style="fill:none;stroke:red;stroke-width:1px;stroke-linecap:butt;stroke-linejoin:miter;stroke-opacity:1" d="M 16.4259,356.067 12.2839,380.919 z" id="boundary" inkscape:connector-curvature="0" />
	<path style="fill:none;stroke:red;stroke-width:1px;stroke-linecap:butt;stroke-linejoin:miter;stroke-opacity:1" d="M 8.14196,414.054 8.14196,434.764 z" id="boundary" inkscape:connector-curvature="0" />
	<path style="fill:none;stroke:red;stroke-width:1px;stroke-linecap:butt;stroke-linejoin:miter;stroke-opacity:1" d="M 16.4259,356.067 20.5678,320.86 z" id="boundary" inkscape:connector-curvature="0" />
	<path style="fill:none;stroke:red;stroke-width:1px;stroke-linecap:butt;stroke-linejoin:miter;stroke-opacity:1" d="M 20.5678,258.731 20.5678,279.441 z" id="boundary" inkscape:connector-curvature="0" />
	<path style="fill:none;stroke:red;stroke-width:1px;stroke-linecap:butt;stroke-linejoin:miter;stroke-opacity:1" d="M 20.5678,258.731 20.5678,238.021 z" id="boundary" inkscape:connector-curvature="0" />
	<path style="fill:none;stroke:red;stroke-width:1px;stroke-linecap:butt;stroke-linejoin:miter;stroke-opacity:1" d="M 20.5678,300.15 20.5678,279.441 z" id="boundary" inkscape:connector-curvature="0" />
	<path style="fill:none;stroke:red;stroke-width:1px;stroke-linecap:butt;stroke-linejoin:miter;stroke-opacity:1" d="M 20.5678,320.86 20.5678,300.15 z" id="boundary" inkscape:connector-curvature="0" />
	<path style="fill:none;stroke:red;stroke-width:1px;stroke-linecap:butt;stroke-linejoin:miter;stroke-opacity:1" d="M 95.1232,107.549 115.833,103.407 z" id="boundary" inkscape:connector-curvature="0" />
	<path style="fill:none;stroke:red;stroke-width:1px;stroke-linecap:butt;stroke-linejoin:miter;stroke-opacity:1" d="M 8.14196,434.764 8.14196,455.474 z" id="boundary" inkscape:connector-curvature="0" />
	<path style="fill:none;stroke:red;stroke-width:1px;stroke-linecap:butt;stroke-linejoin:miter;stroke-opacity:1" d="M 314.647,28.8518 331.215,8.14196 z" id="boundary" inkscape:connector-curvature="0" />
	<path style="fill:none;stroke:red;stroke-width:1px;stroke-linecap:butt;stroke-linejoin:miter;stroke-opacity:1" d="M 277.37,49.5616 298.079,41.2777 z" id="boundary" inkscape:connector-curvature="0" />
	<path style="fill:none;stroke:red;stroke-width:1px;stroke-linecap:butt;stroke-linejoin:miter;stroke-opacity:1" d="M 314.647,28.8518 298.079,41.2777 z" id="boundary" inkscape:connector-curvature="0" />
	<path style="fill:none;stroke:red;stroke-width:1px;stroke-linecap:butt;stroke-linejoin:miter;stroke-opacity:1" d="M 277.37,49.5616 256.66,57.8455 z" id="boundary" inkscape:connector-curvature="0" />
	<path style="fill:none;stroke:red;stroke-width:1px;stroke-linecap:butt;stroke-linejoin:miter;stroke-opacity:1" d="M 351.925,4 368.493,18.4969 z" id="boundary" inkscape:connector-curvature="0" />
	<path style="fill:none;stroke:red;stroke-width:1px;stroke-linecap:butt;stroke-linejoin:miter;stroke-opacity:1" d="M 331.215,8.14196 351.925,4 z" id="boundary" inkscape:connector-curvature="0" />
	<path style="fill:none;stroke:red;stroke-width:1px;stroke-linecap:butt;stroke-linejoin:miter;stroke-opacity:1" d="M 422.338,49.5616 401.628,43.3486 z" id="boundary" inkscape:connector-curvature="0" />
	<path style="fill:none;stroke:red;stroke-width:1px;stroke-linecap:butt;stroke-linejoin:miter;stroke-opacity:1" d="M 401.628,43.3486 385.061,30.9228 z" id="boundary" inkscape:connector-curvature="0" />
	<path style="fill:none;stroke:red;stroke-width:1px;stroke-linecap:butt;stroke-linejoin:miter;stroke-opacity:1" d="M 385.061,30.9228 368.493,18.4969 z" id="boundary" inkscape:connector-curvature="0" />
	<path style="fill:none;stroke:red;stroke-width:1px;stroke-linecap:butt;stroke-linejoin:miter;stroke-opacity:1" d="M 440.977,59.9165 422.338,49.5616 z" id="boundary" inkscape:connector-curvature="0" />
	<path style="fill:none;stroke:red;stroke-width:1px;stroke-linecap:butt;stroke-linejoin:miter;stroke-opacity:1" d="M 177.962,90.9812 198.672,82.6973 z" id="boundary" inkscape:connector-curvature="0" />
	<path style="fill:none;stroke:red;stroke-width:1px;stroke-linecap:butt;stroke-linejoin:miter;stroke-opacity:1" d="M 198.672,82.6973 219.382,82.6973 z" id="boundary" inkscape:connector-curvature="0" />
	<path style="fill:none;stroke:red;stroke-width:1px;stroke-linecap:butt;stroke-linejoin:miter;stroke-opacity:1" d="M 177.962,90.9812 157.253,95.1232 z" id="boundary" inkscape:connector-curvature="0" />
	<path style="fill:none;stroke:red;stroke-width:1px;stroke-linecap:butt;stroke-linejoin:miter;stroke-opacity:1" d="M 136.543,99.2651 157.253,95.1232 z" id="boundary" inkscape:connector-curvature="0" />
	<path style="fill:none;stroke:red;stroke-width:1px;stroke-linecap:butt;stroke-linejoin:miter;stroke-opacity:1" d="M 136.543,99.2651 115.833,103.407 z" id="boundary" inkscape:connector-curvature="0" />
	<path style="fill:none;stroke:red;stroke-width:1px;stroke-linecap:butt;stroke-linejoin:miter;stroke-opacity:1" d="M 240.092,74.4134 256.66,57.8455 z" id="boundary" inkscape:connector-curvature="0" />
	<path style="fill:none;stroke:red;stroke-width:1px;stroke-linecap:butt;stroke-linejoin:miter;stroke-opacity:1" d="M 440.977,59.9165 457.545,74.4134 z" id="boundary" inkscape:connector-curvature="0" />
	<path style="fill:none;stroke:red;stroke-width:1px;stroke-linecap:butt;stroke-linejoin:miter;stroke-opacity:1" d="M 219.382,82.6973 240.092,74.4134 z" id="boundary" inkscape:connector-curvature="0" />
	<path style="fill:none;stroke:red;stroke-width:1px;stroke-linecap:butt;stroke-linejoin:miter;stroke-opacity:1" d="M 478.255,78.5553 457.545,74.4134 z" id="boundary" inkscape:connector-curvature="0" />
	<path style="fill:none;stroke:red;stroke-width:1px;stroke-linecap:butt;stroke-linejoin:miter;stroke-opacity:1" d="M 8.14196,455.474 8.14196,476.184 z" id="boundary" inkscape:connector-curvature="0" />
	<path style="fill:none;stroke:red;stroke-width:1px;stroke-linecap:butt;stroke-linejoin:miter;stroke-opacity:1" d="M 8.14196,496.894 8.14196,517.603 z" id="boundary" inkscape:connector-curvature="0" />
	<path style="fill:none;stroke:red;stroke-width:1px;stroke-linecap:butt;stroke-linejoin:miter;stroke-opacity:1" d="M 8.14196,496.894 8.14196,476.184 z" id="boundary" inkscape:connector-curvature="0" />
	<path style="fill:none;stroke:red;stroke-width:1px;stroke-linecap:butt;stroke-linejoin:miter;stroke-opacity:1" d="M 59.9165,556.952 39.2067,559.023 z" id="boundary" inkscape:connector-curvature="0" />
	<path style="fill:none;stroke:red;stroke-width:1px;stroke-linecap:butt;stroke-linejoin:miter;stroke-opacity:1" d="M 8.14196,538.313 8.14196,517.603 z" id="boundary" inkscape:connector-curvature="0" />
	<path style="fill:none;stroke:red;stroke-width:1px;stroke-linecap:butt;stroke-linejoin:miter;stroke-opacity:1" d="M 80.6263,556.952 101.336,556.952 z" id="boundary" inkscape:connector-curvature="0" />
	<path style="fill:none;stroke:red;stroke-width:1px;stroke-linecap:butt;stroke-linejoin:miter;stroke-opacity:1" d="M 80.6263,556.952 59.9165,556.952 z" id="boundary" inkscape:connector-curvature="0" />
	<path style="fill:none;stroke:red;stroke-width:1px;stroke-linecap:butt;stroke-linejoin:miter;stroke-opacity:1" d="M 101.336,556.952 122.046,556.952 z" id="boundary" inkscape:connector-curvature="0" />
	<path style="fill:none;stroke:red;stroke-width:1px;stroke-linecap:butt;stroke-linejoin:miter;stroke-opacity:1" d="M 8.14196,559.023 8.14196,579.733 z" id="boundary" inkscape:connector-curvature="0" />
	<path style="fill:none;stroke:red;stroke-width:1px;stroke-linecap:butt;stroke-linejoin:miter;stroke-opacity:1" d="M 8.14196,600.443 8.14196,629.436 z" id="boundary" inkscape:connector-curvature="0" />
	<path style="fill:none;stroke:red;stroke-width:1px;stroke-linecap:butt;stroke-linejoin:miter;stroke-opacity:1" d="M 8.14196,600.443 8.14196,579.733 z" id="boundary" inkscape:connector-curvature="0" />
	<path style="fill:none;stroke:red;stroke-width:1px;stroke-linecap:butt;stroke-linejoin:miter;stroke-opacity:1" d="M 8.14196,559.023 8.14196,538.313 z" id="boundary" inkscape:connector-curvature="0" />
	<path style="fill:none;stroke:red;stroke-width:1px;stroke-linecap:butt;stroke-linejoin:miter;stroke-opacity:1" d="M 35.0647,604.585 26.7808,639.791 z" id="boundary" inkscape:connector-curvature="0" />
	<path style="fill:none;stroke:red;stroke-width:1px;stroke-linecap:butt;stroke-linejoin:miter;stroke-opacity:1" d="M 26.7808,639.791 8.14196,629.436 z" id="boundary" inkscape:connector-curvature="0" />
	<path style="fill:none;stroke:red;stroke-width:1px;stroke-linecap:butt;stroke-linejoin:miter;stroke-opacity:1" d="M 39.2067,579.733 35.0647,604.585 z" id="boundary" inkscape:connector-curvature="0" />
	<path style="fill:none;stroke:red;stroke-width:1px;stroke-linecap:butt;stroke-linejoin:miter;stroke-opacity:1" d="M 122.046,556.952 142.756,556.952 z" id="boundary" inkscape:connector-curvature="0" />
	<path style="fill:none;stroke:red;stroke-width:1px;stroke-linecap:butt;stroke-linejoin:miter;stroke-opacity:1" d="M 163.466,556.952 184.175,556.952 z" id="boundary" inkscape:connector-curvature="0" />
	<path style="fill:none;stroke:red;stroke-width:1px;stroke-linecap:butt;stroke-linejoin:miter;stroke-opacity:1" d="M 163.466,556.952 142.756,556.952 z" id="boundary" inkscape:connector-curvature="0" />
	<path style="fill:none;stroke:red;stroke-width:1px;stroke-linecap:butt;stroke-linejoin:miter;stroke-opacity:1" d="M 184.175,556.952 204.885,556.952 z" id="boundary" inkscape:connector-curvature="0" />
	<path style="fill:none;stroke:red;stroke-width:1px;stroke-linecap:butt;stroke-linejoin:miter;stroke-opacity:1" d="M 204.885,556.952 219.382,573.52 z" id="boundary" inkscape:connector-curvature="0" />
	<path style="fill:none;stroke:red;stroke-width:1px;stroke-linecap:butt;stroke-linejoin:miter;stroke-opacity:1" d="M 279.441,569.378 258.731,571.449 z" id="boundary" inkscape:connector-curvature="0" />
	<path style="fill:none;stroke:red;stroke-width:1px;stroke-linecap:butt;stroke-linejoin:miter;stroke-opacity:1" d="M 401.628,565.236 422.338,561.094 z" id="boundary" inkscape:connector-curvature="0" />
	<path style="fill:none;stroke:red;stroke-width:1px;stroke-linecap:butt;stroke-linejoin:miter;stroke-opacity:1" d="M 422.338,561.094 443.048,565.236 z" id="boundary" inkscape:connector-curvature="0" />
	<path style="fill:none;stroke:red;stroke-width:1px;stroke-linecap:butt;stroke-linejoin:miter;stroke-opacity:1" d="M 300.15,569.378 279.441,569.378 z" id="boundary" inkscape:connector-curvature="0" />
	<path style="fill:none;stroke:red;stroke-width:1px;stroke-linecap:butt;stroke-linejoin:miter;stroke-opacity:1" d="M 341.57,577.662 320.86,569.378 z" id="boundary" inkscape:connector-curvature="0" />
	<path style="fill:none;stroke:red;stroke-width:1px;stroke-linecap:butt;stroke-linejoin:miter;stroke-opacity:1" d="M 382.99,575.591 401.628,565.236 z" id="boundary" inkscape:connector-curvature="0" />
	<path style="fill:none;stroke:red;stroke-width:1px;stroke-linecap:butt;stroke-linejoin:miter;stroke-opacity:1" d="M 300.15,569.378 320.86,569.378 z" id="boundary" inkscape:connector-curvature="0" />
	<path style="fill:none;stroke:red;stroke-width:1px;stroke-linecap:butt;stroke-linejoin:miter;stroke-opacity:1" d="M 219.382,573.52 219.382,594.23 z" id="boundary" inkscape:connector-curvature="0" />
	<path style="fill:none;stroke:red;stroke-width:1px;stroke-linecap:butt;stroke-linejoin:miter;stroke-opacity:1" d="M 254.589,592.159 250.447,625.294 z" id="boundary" inkscape:connector-curvature="0" />
	<path style="fill:none;stroke:red;stroke-width:1px;stroke-linecap:butt;stroke-linejoin:miter;stroke-opacity:1" d="M 250.447,625.294 235.95,643.933 z" id="boundary" inkscape:connector-curvature="0" />
	<path style="fill:none;stroke:red;stroke-width:1px;stroke-linecap:butt;stroke-linejoin:miter;stroke-opacity:1" d="M 235.95,643.933 219.382,629.436 z" id="boundary" inkscape:connector-curvature="0" />
	<path style="fill:none;stroke:red;stroke-width:1px;stroke-linecap:butt;stroke-linejoin:miter;stroke-opacity:1" d="M 219.382,629.436 219.382,594.23 z" id="boundary" inkscape:connector-curvature="0" />
	<path style="fill:none;stroke:red;stroke-width:1px;stroke-linecap:butt;stroke-linejoin:miter;stroke-opacity:1" d="M 341.57,577.662 362.28,585.946 z" id="boundary" inkscape:connector-curvature="0" />
	<path style="fill:none;stroke:red;stroke-width:1px;stroke-linecap:butt;stroke-linejoin:miter;stroke-opacity:1" d="M 254.589,592.159 258.731,571.449 z" id="boundary" inkscape:connector-curvature="0" />
	<path style="fill:none;stroke:red;stroke-width:1px;stroke-linecap:butt;stroke-linejoin:miter;stroke-opacity:1" d="M 382.99,575.591 362.28,585.946 z" id="boundary" inkscape:connector-curvature="0" />
	<path style="fill:none;stroke:red;stroke-width:1px;stroke-linecap:butt;stroke-linejoin:miter;stroke-opacity:1" d="M 443.048,565.236 463.758,571.449 z" id="boundary" inkscape:connector-curvature="0" />
	<path style="fill:none;stroke:red;stroke-width:1px;stroke-linecap:butt;stroke-linejoin:miter;stroke-opacity:1" d="M 478.255,78.5553 498.965,82.6973 z" id="boundary" inkscape:connector-curvature="0" />
	<path style="fill:none;stroke:red;stroke-width:1px;stroke-linecap:butt;stroke-linejoin:miter;stroke-opacity:1" d="M 519.674,86.8392 540.384,90.9812 z" id="boundary" inkscape:connector-curvature="0" />
	<path style="fill:none;stroke:red;stroke-width:1px;stroke-linecap:butt;stroke-linejoin:miter;stroke-opacity:1" d="M 540.384,90.9812 561.094,99.2651 z" id="boundary" inkscape:connector-curvature="0" />
	<path style="fill:none;stroke:red;stroke-width:1px;stroke-linecap:butt;stroke-linejoin:miter;stroke-opacity:1" d="M 519.674,86.8392 498.965,82.6973 z" id="boundary" inkscape:connector-curvature="0" />
	<path style="fill:none;stroke:red;stroke-width:1px;stroke-linecap:butt;stroke-linejoin:miter;stroke-opacity:1" d="M 561.094,99.2651 581.804,103.407 z" id="boundary" inkscape:connector-curvature="0" />
	<path style="fill:none;stroke:red;stroke-width:1px;stroke-linecap:butt;stroke-linejoin:miter;stroke-opacity:1" d="M 643.933,119.975 623.223,115.833 z" id="boundary" inkscape:connector-curvature="0" />
	<path style="fill:none;stroke:red;stroke-width:1px;stroke-linecap:butt;stroke-linejoin:miter;stroke-opacity:1" d="M 623.223,115.833 602.514,107.549 z" id="boundary" inkscape:connector-curvature="0" />
	<path style="fill:none;stroke:red;stroke-width:1px;stroke-linecap:butt;stroke-linejoin:miter;stroke-opacity:1" d="M 581.804,103.407 602.514,107.549 z" id="boundary" inkscape:connector-curvature="0" />
	<path style="fill:none;stroke:red;stroke-width:1px;stroke-linecap:butt;stroke-linejoin:miter;stroke-opacity:1" d="M 672.927,215.24 672.927,235.95 z" id="boundary" inkscape:connector-curvature="0" />
	<path style="fill:none;stroke:red;stroke-width:1px;stroke-linecap:butt;stroke-linejoin:miter;stroke-opacity:1" d="M 683.282,196.601 672.927,215.24 z" id="boundary" inkscape:connector-curvature="0" />
	<path style="fill:none;stroke:red;stroke-width:1px;stroke-linecap:butt;stroke-linejoin:miter;stroke-opacity:1" d="M 672.927,256.66 670.856,291.866 z" id="boundary" inkscape:connector-curvature="0" />
	<path style="fill:none;stroke:red;stroke-width:1px;stroke-linecap:butt;stroke-linejoin:miter;stroke-opacity:1" d="M 672.927,235.95 672.927,256.66 z" id="boundary" inkscape:connector-curvature="0" />
	<path style="fill:none;stroke:red;stroke-width:1px;stroke-linecap:butt;stroke-linejoin:miter;stroke-opacity:1" d="M 643.933,119.975 662.572,130.33 z" id="boundary" inkscape:connector-curvature="0" />
	<path style="fill:none;stroke:red;stroke-width:1px;stroke-linecap:butt;stroke-linejoin:miter;stroke-opacity:1" d="M 693.637,177.962 683.282,196.601 z" id="boundary" inkscape:connector-curvature="0" />
	<path style="fill:none;stroke:red;stroke-width:1px;stroke-linecap:butt;stroke-linejoin:miter;stroke-opacity:1" d="M 693.637,157.253 681.211,140.685 z" id="boundary" inkscape:connector-curvature="0" />
	<path style="fill:none;stroke:red;stroke-width:1px;stroke-linecap:butt;stroke-linejoin:miter;stroke-opacity:1" d="M 699.85,320.86 681.211,310.505 z" id="boundary" inkscape:connector-curvature="0" />
	<path style="fill:none;stroke:red;stroke-width:1px;stroke-linecap:butt;stroke-linejoin:miter;stroke-opacity:1" d="M 681.211,310.505 670.856,291.866 z" id="boundary" inkscape:connector-curvature="0" />
	<path style="fill:none;stroke:red;stroke-width:1px;stroke-linecap:butt;stroke-linejoin:miter;stroke-opacity:1" d="M 693.637,157.253 693.637,177.962 z" id="boundary" inkscape:connector-curvature="0" />
	<path style="fill:none;stroke:red;stroke-width:1px;stroke-linecap:butt;stroke-linejoin:miter;stroke-opacity:1" d="M 662.572,130.33 681.211,140.685 z" id="boundary" inkscape:connector-curvature="0" />
	<path style="fill:none;stroke:red;stroke-width:1px;stroke-linecap:butt;stroke-linejoin:miter;stroke-opacity:1" d="M 720.559,327.073 699.85,320.86 z" id="boundary" inkscape:connector-curvature="0" />
	<path style="fill:none;stroke:red;stroke-width:1px;stroke-linecap:butt;stroke-linejoin:miter;stroke-opacity:1" d="M 720.559,327.073 741.269,331.215 z" id="boundary" inkscape:connector-curvature="0" />
	<path style="fill:none;stroke:red;stroke-width:1px;stroke-linecap:butt;stroke-linejoin:miter;stroke-opacity:1" d="M 761.979,331.215 741.269,331.215 z" id="boundary" inkscape:connector-curvature="0" />
	<path style="fill:none;stroke:red;stroke-width:1px;stroke-linecap:butt;stroke-linejoin:miter;stroke-opacity:1" d="M 761.979,331.215 782.689,333.286 z" id="boundary" inkscape:connector-curvature="0" />
	<path style="fill:none;stroke:red;stroke-width:1px;stroke-linecap:butt;stroke-linejoin:miter;stroke-opacity:1" d="M 782.689,333.286 803.399,339.499 z" id="boundary" inkscape:connector-curvature="0" />
	<path style="fill:none;stroke:red;stroke-width:1px;stroke-linecap:butt;stroke-linejoin:miter;stroke-opacity:1" d="M 803.399,339.499 824.109,339.499 z" id="boundary" inkscape:connector-curvature="0" />
	<path style="fill:none;stroke:red;stroke-width:1px;stroke-linecap:butt;stroke-linejoin:miter;stroke-opacity:1" d="M 824.109,339.499 844.818,339.499 z" id="boundary" inkscape:connector-curvature="0" />
	<path style="fill:none;stroke:red;stroke-width:1px;stroke-linecap:butt;stroke-linejoin:miter;stroke-opacity:1" d="M 844.818,339.499 865.528,343.641 z" id="boundary" inkscape:connector-curvature="0" />
	<path style="fill:none;stroke:red;stroke-width:1px;stroke-linecap:butt;stroke-linejoin:miter;stroke-opacity:1" d="M 865.528,343.641 886.238,347.783 z" id="boundary" inkscape:connector-curvature="0" />
	<path style="fill:none;stroke:red;stroke-width:1px;stroke-linecap:butt;stroke-linejoin:miter;stroke-opacity:1" d="M 886.238,347.783 906.948,351.925 z" id="boundary" inkscape:connector-curvature="0" />
	<path style="fill:none;stroke:red;stroke-width:1px;stroke-linecap:butt;stroke-linejoin:miter;stroke-opacity:1" d="M 927.658,358.138 906.948,351.925 z" id="boundary" inkscape:connector-curvature="0" />
	<path style="fill:none;stroke:red;stroke-width:1px;stroke-linecap:butt;stroke-linejoin:miter;stroke-opacity:1" d="M 927.658,358.138 948.367,364.351 z" id="boundary" inkscape:connector-curvature="0" />
	<path style="fill:none;stroke:red;stroke-width:1px;stroke-linecap:butt;stroke-linejoin:miter;stroke-opacity:1" d="M 964.935,376.777 983.574,387.132 z" id="boundary" inkscape:connector-curvature="0" />
	<path style="fill:none;stroke:red;stroke-width:1px;stroke-linecap:butt;stroke-linejoin:miter;stroke-opacity:1" d="M 964.935,376.777 948.367,364.351 z" id="boundary" inkscape:connector-curvature="0" />
	<path style="fill:none;stroke:red;stroke-width:1px;stroke-linecap:butt;stroke-linejoin:miter;stroke-opacity:1" d="M 983.574,434.764 971.148,451.332 z" id="boundary" inkscape:connector-curvature="0" />
	<path style="fill:none;stroke:red;stroke-width:1px;stroke-linecap:butt;stroke-linejoin:miter;stroke-opacity:1" d="M 983.574,387.132 996,403.699 z" id="boundary" inkscape:connector-curvature="0" />
	<path style="fill:none;stroke:red;stroke-width:1px;stroke-linecap:butt;stroke-linejoin:miter;stroke-opacity:1" d="M 996,403.699 983.574,434.764 z" id="boundary" inkscape:connector-curvature="0" />
	<path style="fill:none;stroke:red;stroke-width:1px;stroke-linecap:butt;stroke-linejoin:miter;stroke-opacity:1" d="M 971.148,472.042 971.148,451.332 z" id="boundary" inkscape:connector-curvature="0" />
	<path style="fill:none;stroke:red;stroke-width:1px;stroke-linecap:butt;stroke-linejoin:miter;stroke-opacity:1" d="M 484.468,577.662 505.177,585.946 z" id="boundary" inkscape:connector-curvature="0" />
	<path style="fill:none;stroke:red;stroke-width:1px;stroke-linecap:butt;stroke-linejoin:miter;stroke-opacity:1" d="M 484.468,577.662 463.758,571.449 z" id="boundary" inkscape:connector-curvature="0" />
	<path style="fill:none;stroke:red;stroke-width:1px;stroke-linecap:butt;stroke-linejoin:miter;stroke-opacity:1" d="M 505.177,585.946 525.887,594.23 z" id="boundary" inkscape:connector-curvature="0" />
	<path style="fill:none;stroke:red;stroke-width:1px;stroke-linecap:butt;stroke-linejoin:miter;stroke-opacity:1" d="M 730.914,571.449 751.624,565.236 z" id="boundary" inkscape:connector-curvature="0" />
	<path style="fill:none;stroke:red;stroke-width:1px;stroke-linecap:butt;stroke-linejoin:miter;stroke-opacity:1" d="M 772.334,561.094 751.624,565.236 z" id="boundary" inkscape:connector-curvature="0" />
	<path style="fill:none;stroke:red;stroke-width:1px;stroke-linecap:butt;stroke-linejoin:miter;stroke-opacity:1" d="M 689.495,588.017 710.205,579.733 z" id="boundary" inkscape:connector-curvature="0" />
	<path style="fill:none;stroke:red;stroke-width:1px;stroke-linecap:butt;stroke-linejoin:miter;stroke-opacity:1" d="M 650.146,598.372 629.436,602.514 z" id="boundary" inkscape:connector-curvature="0" />
	<path style="fill:none;stroke:red;stroke-width:1px;stroke-linecap:butt;stroke-linejoin:miter;stroke-opacity:1" d="M 710.205,579.733 730.914,571.449 z" id="boundary" inkscape:connector-curvature="0" />
	<path style="fill:none;stroke:red;stroke-width:1px;stroke-linecap:butt;stroke-linejoin:miter;stroke-opacity:1" d="M 546.597,600.443 525.887,594.23 z" id="boundary" inkscape:connector-curvature="0" />
	<path style="fill:none;stroke:red;stroke-width:1px;stroke-linecap:butt;stroke-linejoin:miter;stroke-opacity:1" d="M 567.307,606.656 588.017,606.656 z" id="boundary" inkscape:connector-curvature="0" />
	<path style="fill:none;stroke:red;stroke-width:1px;stroke-linecap:butt;stroke-linejoin:miter;stroke-opacity:1" d="M 567.307,606.656 546.597,600.443 z" id="boundary" inkscape:connector-curvature="0" />
	<path style="fill:none;stroke:red;stroke-width:1px;stroke-linecap:butt;stroke-linejoin:miter;stroke-opacity:1" d="M 608.727,606.656 588.017,606.656 z" id="boundary" inkscape:connector-curvature="0" />
	<path style="fill:none;stroke:red;stroke-width:1px;stroke-linecap:butt;stroke-linejoin:miter;stroke-opacity:1" d="M 629.436,602.514 608.727,606.656 z" id="boundary" inkscape:connector-curvature="0" />
	<path style="fill:none;stroke:red;stroke-width:1px;stroke-linecap:butt;stroke-linejoin:miter;stroke-opacity:1" d="M 662.572,614.939 650.146,598.372 z" id="boundary" inkscape:connector-curvature="0" />
	<path style="fill:none;stroke:red;stroke-width:1px;stroke-linecap:butt;stroke-linejoin:miter;stroke-opacity:1" d="M 666.714,635.649 662.572,614.939 z" id="boundary" inkscape:connector-curvature="0" />
	<path style="fill:none;stroke:red;stroke-width:1px;stroke-linecap:butt;stroke-linejoin:miter;stroke-opacity:1" d="M 685.353,612.868 687.424,635.649 z" id="boundary" inkscape:connector-curvature="0" />
	<path style="fill:none;stroke:red;stroke-width:1px;stroke-linecap:butt;stroke-linejoin:miter;stroke-opacity:1" d="M 687.424,635.649 666.714,635.649 z" id="boundary" inkscape:connector-curvature="0" />
	<path style="fill:none;stroke:red;stroke-width:1px;stroke-linecap:butt;stroke-linejoin:miter;stroke-opacity:1" d="M 772.334,561.094 793.044,565.236 z" id="boundary" inkscape:connector-curvature="0" />
	<path style="fill:none;stroke:red;stroke-width:1px;stroke-linecap:butt;stroke-linejoin:miter;stroke-opacity:1" d="M 892.451,569.378 871.741,573.52 z" id="boundary" inkscape:connector-curvature="0" />
	<path style="fill:none;stroke:red;stroke-width:1px;stroke-linecap:butt;stroke-linejoin:miter;stroke-opacity:1" d="M 913.161,569.378 892.451,569.378 z" id="boundary" inkscape:connector-curvature="0" />
	<path style="fill:none;stroke:red;stroke-width:1px;stroke-linecap:butt;stroke-linejoin:miter;stroke-opacity:1" d="M 913.161,569.378 933.871,569.378 z" id="boundary" inkscape:connector-curvature="0" />
	<path style="fill:none;stroke:red;stroke-width:1px;stroke-linecap:butt;stroke-linejoin:miter;stroke-opacity:1" d="M 933.871,569.378 948.367,585.946 z" id="boundary" inkscape:connector-curvature="0" />
	<path style="fill:none;stroke:red;stroke-width:1px;stroke-linecap:butt;stroke-linejoin:miter;stroke-opacity:1" d="M 971.148,492.752 967.006,513.461 z" id="boundary" inkscape:connector-curvature="0" />
	<path style="fill:none;stroke:red;stroke-width:1px;stroke-linecap:butt;stroke-linejoin:miter;stroke-opacity:1" d="M 971.148,492.752 971.148,472.042 z" id="boundary" inkscape:connector-curvature="0" />
	<path style="fill:none;stroke:red;stroke-width:1px;stroke-linecap:butt;stroke-linejoin:miter;stroke-opacity:1" d="M 971.148,554.881 967.006,534.171 z" id="boundary" inkscape:connector-curvature="0" />
	<path style="fill:none;stroke:red;stroke-width:1px;stroke-linecap:butt;stroke-linejoin:miter;stroke-opacity:1" d="M 967.006,534.171 967.006,513.461 z" id="boundary" inkscape:connector-curvature="0" />
	<path style="fill:none;stroke:red;stroke-width:1px;stroke-linecap:butt;stroke-linejoin:miter;stroke-opacity:1" d="M 977.361,575.591 971.148,554.881 z" id="boundary" inkscape:connector-curvature="0" />
	<path style="fill:none;stroke:red;stroke-width:1px;stroke-linecap:butt;stroke-linejoin:miter;stroke-opacity:1" d="M 811.683,575.591 793.044,565.236 z" id="boundary" inkscape:connector-curvature="0" />
	<path style="fill:none;stroke:red;stroke-width:1px;stroke-linecap:butt;stroke-linejoin:miter;stroke-opacity:1" d="M 871.741,573.52 851.031,577.662 z" id="boundary" inkscape:connector-curvature="0" />
	<path style="fill:none;stroke:red;stroke-width:1px;stroke-linecap:butt;stroke-linejoin:miter;stroke-opacity:1" d="M 830.322,585.946 851.031,577.662 z" id="boundary" inkscape:connector-curvature="0" />
	<path style="fill:none;stroke:red;stroke-width:1px;stroke-linecap:butt;stroke-linejoin:miter;stroke-opacity:1" d="M 830.322,585.946 811.683,575.591 z" id="boundary" inkscape:connector-curvature="0" />
	<path style="fill:none;stroke:red;stroke-width:1px;stroke-linecap:butt;stroke-linejoin:miter;stroke-opacity:1" d="M 952.509,606.656 952.509,627.365 z" id="boundary" inkscape:connector-curvature="0" />
	<path style="fill:none;stroke:red;stroke-width:1px;stroke-linecap:butt;stroke-linejoin:miter;stroke-opacity:1" d="M 948.367,585.946 952.509,606.656 z" id="boundary" inkscape:connector-curvature="0" />
	<path style="fill:none;stroke:red;stroke-width:1px;stroke-linecap:butt;stroke-linejoin:miter;stroke-opacity:1" d="M 977.361,575.591 973.219,614.939 z" id="boundary" inkscape:connector-curvature="0" />
	<path style="fill:none;stroke:red;stroke-width:1px;stroke-linecap:butt;stroke-linejoin:miter;stroke-opacity:1" d="M 973.219,614.939 964.935,643.933 z" id="boundary" inkscape:connector-curvature="0" />
	<path style="fill:none;stroke:red;stroke-width:1px;stroke-linecap:butt;stroke-linejoin:miter;stroke-opacity:1" d="M 964.935,643.933 952.509,627.365 z" id="boundary" inkscape:connector-curvature="0" />
	<circle cx="4" cy="157.253" r="4" fill="#0" id="circle0"/>
	<circle cx="4" cy="177.962" r="4" fill="#0" id="circle1"/>
	<circle cx="8.14196" cy="414.054" r="4" fill="#0" id="circle2"/>
	<circle cx="8.14196" cy="434.764" r="4" fill="#0" id="circle3"/>
	<circle cx="8.14196" cy="455.474" r="4" fill="#0" id="circle4"/>
	<circle cx="8.14196" cy="476.184" r="4" fill="#0" id="circle5"/>
	<circle cx="8.14196" cy="496.894" r="4" fill="#0" id="circle6"/>
	<circle cx="8.14196" cy="517.603" r="4" fill="#0" id="circle7"/>
	<circle cx="8.14196" cy="538.313" r="4" fill="#0" id="circle8"/>
	<circle cx="8.14196" cy="559.023" r="4" fill="#0" id="circle9"/>
	<circle cx="8.14196" cy="579.733" r="4" fill="#0" id="circle10"/>
	<circle cx="8.14196" cy="600.443" r="4" fill="#0" id="circle11"/>
	<circle cx="8.14196" cy="629.436" r="4" fill="#0" id="circle12"/>
	<circle cx="12.2839" cy="380.919" r="4" fill="#0" id="circle13"/>
	<circle cx="14.3549" cy="196.601" r="4" fill="#0" id="circle14"/>
	<circle cx="16.4259" cy="140.685" r="4" fill="#0" id="circle15"/>
	<circle cx="16.4259" cy="356.067" r="4" fill="#0" id="circle16"/>
	<circle cx="20.5678" cy="217.311" r="4" fill="#0" id="circle17"/>
	<circle cx="20.5678" cy="238.021" r="4" fill="#0" id="circle18"/>
	<circle cx="20.5678" cy="258.731" r="4" fill="#0" id="circle19"/>
	<circle cx="20.5678" cy="279.441" r="4" fill="#0" id="circle20"/>
	<circle cx="20.5678" cy="300.15" r="4" fill="#0" id="circle21"/>
	<circle cx="20.5678" cy="320.86" r="4" fill="#0" id="circle22"/>
	<circle cx="26.7808" cy="639.791" r="4" fill="#0" id="circle23"/>
	<circle cx="35.0647" cy="130.33" r="4" fill="#0" id="circle24"/>
	<circle cx="35.0647" cy="604.585" r="4" fill="#0" id="circle25"/>
	<circle cx="39.2067" cy="559.023" r="4" fill="#0" id="circle26"/>
	<circle cx="39.2067" cy="579.733" r="4" fill="#0" id="circle27"/>
	<circle cx="55.7745" cy="122.046" r="4" fill="#0" id="circle28"/>
	<circle cx="59.9165" cy="556.952" r="4" fill="#0" id="circle29"/>
	<circle cx="74.4134" cy="111.691" r="4" fill="#0" id="circle30"/>
	<circle cx="80.6263" cy="556.952" r="4" fill="#0" id="circle31"/>
	<circle cx="95.1232" cy="107.549" r="4" fill="#0" id="circle32"/>
	<circle cx="101.336" cy="556.952" r="4" fill="#0" id="circle33"/>
	<circle cx="115.833" cy="103.407" r="4" fill="#0" id="circle34"/>
	<circle cx="122.046" cy="556.952" r="4" fill="#0" id="circle35"/>
	<circle cx="136.543" cy="99.2651" r="4" fill="#0" id="circle36"/>
	<circle cx="142.756" cy="556.952" r="4" fill="#0" id="circle37"/>
	<circle cx="157.253" cy="95.1232" r="4" fill="#0" id="circle38"/>
	<circle cx="163.466" cy="556.952" r="4" fill="#0" id="circle39"/>
	<circle cx="177.962" cy="90.9812" r="4" fill="#0" id="circle40"/>
	<circle cx="184.175" cy="556.952" r="4" fill="#0" id="circle41"/>
	<circle cx="198.672" cy="82.6973" r="4" fill="#0" id="circle42"/>
	<circle cx="204.885" cy="556.952" r="4" fill="#0" id="circle43"/>
	<circle cx="219.382" cy="82.6973" r="4" fill="#0" id="circle44"/>
	<circle cx="219.382" cy="573.52" r="4" fill="#0" id="circle45"/>
	<circle cx="219.382" cy="594.23" r="4" fill="#0" id="circle46"/>
	<circle cx="219.382" cy="629.436" r="4" fill="#0" id="circle47"/>
	<circle cx="235.95" cy="643.933" r="4" fill="#0" id="circle48"/>
	<circle cx="240.092" cy="74.4134" r="4" fill="#0" id="circle49"/>
	<circle cx="250.447" cy="625.294" r="4" fill="#0" id="circle50"/>
	<circle cx="254.589" cy="592.159" r="4" fill="#0" id="circle51"/>
	<circle cx="256.66" cy="57.8455" r="4" fill="#0" id="circle52"/>
	<circle cx="258.731" cy="571.449" r="4" fill="#0" id="circle53"/>
	<circle cx="277.37" cy="49.5616" r="4" fill="#0" id="circle54"/>
	<circle cx="279.441" cy="569.378" r="4" fill="#0" id="circle55"/>
	<circle cx="298.079" cy="41.2777" r="4" fill="#0" id="circle56"/>
	<circle cx="300.15" cy="569.378" r="4" fill="#0" id="circle57"/>
	<circle cx="314.647" cy="28.8518" r="4" fill="#0" id="circle58"/>
	<circle cx="320.86" cy="569.378" r="4" fill="#0" id="circle59"/>
	<circle cx="331.215" cy="8.14196" r="4" fill="#0" id="circle60"/>
	<circle cx="341.57" cy="577.662" r="4" fill="#0" id="circle61"/>
	<circle cx="351.925" cy="4" r="4" fill="#0" id="circle62"/>
	<circle cx="362.28" cy="585.946" r="4" fill="#0" id="circle63"/>
	<circle cx="368.493" cy="18.4969" r="4" fill="#0" id="circle64"/>
	<circle cx="382.99" cy="575.591" r="4" fill="#0" id="circle65"/>
	<circle cx="385.061" cy="30.9228" r="4" fill="#0" id="circle66"/>
	<circle cx="401.628" cy="43.3486" r="4" fill="#0" id="circle67"/>
	<circle cx="401.628" cy="565.236" r="4" fill="#0" id="circle68"/>
	<circle cx="422.338" cy="49.5616" r="4" fill="#0" id="circle69"/>
	<circle cx="422.338" cy="561.094" r="4" fill="#0" id="circle70"/>
	<circle cx="440.977" cy="59.9165" r="4" fill="#0" id="circle71"/>
	<circle cx="443.048" cy="565.236" r="4" fill="#0" id="circle72"/>
	<circle cx="457.545" cy="74.4134" r="4" fill="#0" id="circle73"/>
	<circle cx="463.758" cy="571.449" r="4" fill="#0" id="circle74"/>
	<circle cx="478.255" cy="78.5553" r="4" fill="#0" id="circle75"/>
	<circle cx="484.468" cy="577.662" r="4" fill="#0" id="circle76"/>
	<circle cx="498.965" cy="82.6973" r="4" fill="#0" id="circle77"/>
	<circle cx="505.177" cy="585.946" r="4" fill="#0" id="circle78"/>
	<circle cx="519.674" cy="86.8392" r="4" fill="#0" id="circle79"/>
	<circle cx="525.887" cy="594.23" r="4" fill="#0" id="circle80"/>
	<circle cx="540.384" cy="90.9812" r="4" fill="#0" id="circle81"/>
	<circle cx="546.597" cy="600.443" r="4" fill="#0" id="circle82"/>
	<circle cx="561.094" cy="99.2651" r="4" fill="#0" id="circle83"/>
	<circle cx="567.307" cy="606.656" r="4" fill="#0" id="circle84"/>
	<circle cx="581.804" cy="103.407" r="4" fill="#0" id="circle85"/>
	<circle cx="588.017" cy="606.656" r="4" fill="#0" id="circle86"/>
	<circle cx="602.514" cy="107.549" r="4" fill="#0" id="circle87"/>
	<circle cx="608.727" cy="606.656" r="4" fill="#0" id="circle88"/>
	<circle cx="623.223" cy="115.833" r="4" fill="#0" id="circle89"/>
	<circle cx="629.436" cy="602.514" r="4" fill="#0" id="circle90"/>
	<circle cx="643.933" cy="119.975" r="4" fill="#0" id="circle91"/>
	<circle cx="650.146" cy="598.372" r="4" fill="#0" id="circle92"/>
	<circle cx="662.572" cy="130.33" r="4" fill="#0" id="circle93"/>
	<circle cx="662.572" cy="614.939" r="4" fill="#0" id="circle94"/>
	<circle cx="666.714" cy="635.649" r="4" fill="#0" id="circle95"/>
	<circle cx="670.856" cy="291.866" r="4" fill="#0" id="circle96"/>
	<circle cx="672.927" cy="215.24" r="4" fill="#0" id="circle97"/>
	<circle cx="672.927" cy="235.95" r="4" fill="#0" id="circle98"/>
	<circle cx="672.927" cy="256.66" r="4" fill="#0" id="circle99"/>
	<circle cx="681.211" cy="140.685" r="4" fill="#0" id="circle100"/>
	<circle cx="681.211" cy="310.505" r="4" fill="#0" id="circle101"/>
	<circle cx="683.282" cy="196.601" r="4" fill="#0" id="circle102"/>
	<circle cx="685.353" cy="612.868" r="4" fill="#0" id="circle103"/>
	<circle cx="687.424" cy="635.649" r="4" fill="#0" id="circle104"/>
	<circle cx="689.495" cy="588.017" r="4" fill="#0" id="circle105"/>
	<circle cx="693.637" cy="157.253" r="4" fill="#0" id="circle106"/>
	<circle cx="693.637" cy="177.962" r="4" fill="#0" id="circle107"/>
	<circle cx="699.85" cy="320.86" r="4" fill="#0" id="circle108"/>
	<circle cx="710.205" cy="579.733" r="4" fill="#0" id="circle109"/>
	<circle cx="720.559" cy="327.073" r="4" fill="#0" id="circle110"/>
	<circle cx="730.914" cy="571.449" r="4" fill="#0" id="circle111"/>
	<circle cx="741.269" cy="331.215" r="4" fill="#0" id="circle112"/>
	<circle cx="751.624" cy="565.236" r="4" fill="#0" id="circle113"/>
	<circle cx="761.979" cy="331.215" r="4" fill="#0" id="circle114"/>
	<circle cx="772.334" cy="561.094" r="4" fill="#0" id="circle115"/>
	<circle cx="782.689" cy="333.286" r="4" fill="#0" id="circle116"/>
	<circle cx="793.044" cy="565.236" r="4" fill="#0" id="circle117"/>
	<circle cx="803.399" cy="339.499" r="4" fill="#0" id="circle118"/>
	<circle cx="811.683" cy="575.591" r="4" fill="#0" id="circle119"/>
	<circle cx="824.109" cy="339.499" r="4" fill="#0" id="circle120"/>
	<circle cx="830.322" cy="585.946" r="4" fill="#0" id="circle121"/>
	<circle cx="844.818" cy="339.499" r="4" fill="#0" id="circle122"/>
	<circle cx="851.031" cy="577.662" r="4" fill="#0" id="circle123"/>
	<circle cx="865.528" cy="343.641" r="4" fill="#0" id="circle124"/>
	<circle cx="871.741" cy="573.52" r="4" fill="#0" id="circle125"/>
	<circle cx="886.238" cy="347.783" r="4" fill="#0" id="circle126"/>
	<circle cx="892.451" cy="569.378" r="4" fill="#0" id="circle127"/>
	<circle cx="906.948" cy="351.925" r="4" fill="#0" id="circle128"/>
	<circle cx="913.161" cy="569.378" r="4" fill="#0" id="circle129"/>
	<circle cx="927.658" cy="358.138" r="4" fill="#0" id="circle130"/>
	<circle cx="933.871" cy="569.378" r="4" fill="#0" id="circle131"/>
	<circle cx="948.367" cy="364.351" r="4" fill="#0" id="circle132"/>
	<circle cx="948.367" cy="585.946" r="4" fill="#0" id="circle133"/>
	<circle cx="952.509" cy="606.656" r="4" fill="#0" id="circle134"/>
	<circle cx="952.509" cy="627.365" r="4" fill="#0" id="circle135"/>
	<circle cx="964.935" cy="376.777" r="4" fill="#0" id="circle136"/>
	<circle cx="964.935" cy="643.933" r="4" fill="#0" id="circle137"/>
	<circle cx="967.006" cy="513.461" r="4" fill="#0" id="circle138"/>
	<circle cx="967.006" cy="534.171" r="4" fill="#0" id="circle139"/>
	<circle cx="971.148" cy="451.332" r="4" fill="#0" id="circle140"/>
	<circle cx="971.148" cy="472.042" r="4" fill="#0" id="circle141"/>
	<circle cx="971.148" cy="492.752" r="4" fill="#0" id="circle142"/>
	<circle cx="971.148" cy="554.881" r="4" fill="#0" id="circle143"/>
	<circle cx="973.219" cy="614.939" r="4" fill="#0" id="circle144"/>
	<circle cx="977.361" cy="575.591" r="4" fill="#0" id="circle145"/>
	<circle cx="983.574" cy="387.132" r="4" fill="#0" id="circle146"/>
	<circle cx="983.574" cy="434.764" r="4" fill="#0" id="circle147"/>
	<circle cx="996" cy="403.699" r="4" fill="#0" id="circle148"/>
	</g>
</svg>