<?xml version="1.0" encoding="UTF-8" standalone="no"?>
<!-- Created with CurveBenchmark -->
<svg
	xmlns:dc="http://purl.org/dc/elements/1.1/"
	xmlns:cc="http://creativecommons.org/ns#"
	xmlns:rdf="http://www.w3.org/1999/02/22-rdf-syntax-ns#"
	xmlns:svg="http://www.w3.org/2000/svg"
	xmlns="http://www.w3.org/2000/svg"
	xmlns:sodipodi="http://sodipodi.sourceforge.net/DTD/sodipodi-0.dtd"
	xmlns:inkscape="http://www.inkscape.org/namespaces/inkscape"
	width="1000"
	height="1000"
	id="svg2"
	version="1.1"
	sodipodi:docname="manifold/gathan1-fish-19.png.txt">
<defs
	id="defs4" />
<metadata
	id="metadata7">
	<rdf:RDF>
		<cc:Work
			rdf:about="">
			<dc:format>image/svg+xml</dc:format>
			<dc:type
				rdf:resource="http://purl.org/dc/dcmitype/StillImage" />
			<dc:title></dc:title>
		</cc:Work>
	</rdf:RDF>
</metadata>
<g
	inkscape:label="Layer 1"
	inkscape:groupmode="layer"
	id="layer1">
	<path style="fill:none;stroke:red;stroke-width:1px;stroke-linecap:butt;stroke-linejoin:miter;stroke-opacity:1" d="M 29.0927,94.3339 35.7841,87.6425 z" id="boundary" inkscape:connector-curvature="0" />
	<path style="fill:none;stroke:red;stroke-width:1px;stroke-linecap:butt;stroke-linejoin:miter;stroke-opacity:1" d="M 35.7841,87.6425 44.1484,87.6425 z" id="boundary" inkscape:connector-curvature="0" />
	<path style="fill:none;stroke:red;stroke-width:1px;stroke-linecap:butt;stroke-linejoin:miter;stroke-opacity:1" d="M 52.5126,87.6425 60.0405,91.8246 z" id="boundary" inkscape:connector-curvature="0" />
	<path style="fill:none;stroke:red;stroke-width:1px;stroke-linecap:butt;stroke-linejoin:miter;stroke-opacity:1" d="M 44.1484,87.6425 52.5126,87.6425 z" id="boundary" inkscape:connector-curvature="0" />
	<path style="fill:none;stroke:red;stroke-width:1px;stroke-linecap:butt;stroke-linejoin:miter;stroke-opacity:1" d="M 23.2378,104.371 29.0927,94.3339 z" id="boundary" inkscape:connector-curvature="0" />
	<path style="fill:none;stroke:red;stroke-width:1px;stroke-linecap:butt;stroke-linejoin:miter;stroke-opacity:1" d="M 23.2378,104.371 16.5464,111.062 z" id="boundary" inkscape:connector-curvature="0" />
	<path style="fill:none;stroke:red;stroke-width:1px;stroke-linecap:butt;stroke-linejoin:miter;stroke-opacity:1" d="M 75.9325,98.516 67.5683,96.0067 z" id="boundary" inkscape:connector-curvature="0" />
	<path style="fill:none;stroke:red;stroke-width:1px;stroke-linecap:butt;stroke-linejoin:miter;stroke-opacity:1" d="M 67.5683,96.0067 60.0405,91.8246 z" id="boundary" inkscape:connector-curvature="0" />
	<path style="fill:none;stroke:red;stroke-width:1px;stroke-linecap:butt;stroke-linejoin:miter;stroke-opacity:1" d="M 84.2968,100.189 75.9325,98.516 z" id="boundary" inkscape:connector-curvature="0" />
	<path style="fill:none;stroke:red;stroke-width:1px;stroke-linecap:butt;stroke-linejoin:miter;stroke-opacity:1" d="M 92.661,100.189 84.2968,100.189 z" id="boundary" inkscape:connector-curvature="0" />
	<path style="fill:none;stroke:red;stroke-width:1px;stroke-linecap:butt;stroke-linejoin:miter;stroke-opacity:1" d="M 179.649,77.6054 179.649,69.2411 z" id="boundary" inkscape:connector-curvature="0" />
	<path style="fill:none;stroke:red;stroke-width:1px;stroke-linecap:butt;stroke-linejoin:miter;stroke-opacity:1" d="M 179.649,69.2411 188.013,66.7319 z" id="boundary" inkscape:connector-curvature="0" />
	<path style="fill:none;stroke:red;stroke-width:1px;stroke-linecap:butt;stroke-linejoin:miter;stroke-opacity:1" d="M 196.378,65.059 204.742,62.5497 z" id="boundary" inkscape:connector-curvature="0" />
	<path style="fill:none;stroke:red;stroke-width:1px;stroke-linecap:butt;stroke-linejoin:miter;stroke-opacity:1" d="M 196.378,65.059 188.013,66.7319 z" id="boundary" inkscape:connector-curvature="0" />
	<path style="fill:none;stroke:red;stroke-width:1px;stroke-linecap:butt;stroke-linejoin:miter;stroke-opacity:1" d="M 183.831,85.1332 183.831,93.4975 z" id="boundary" inkscape:connector-curvature="0" />
	<path style="fill:none;stroke:red;stroke-width:1px;stroke-linecap:butt;stroke-linejoin:miter;stroke-opacity:1" d="M 179.649,77.6054 183.831,85.1332 z" id="boundary" inkscape:connector-curvature="0" />
	<path style="fill:none;stroke:red;stroke-width:1px;stroke-linecap:butt;stroke-linejoin:miter;stroke-opacity:1" d="M 183.831,101.862 183.831,93.4975 z" id="boundary" inkscape:connector-curvature="0" />
	<path style="fill:none;stroke:red;stroke-width:1px;stroke-linecap:butt;stroke-linejoin:miter;stroke-opacity:1" d="M 92.661,100.189 100.189,104.371 z" id="boundary" inkscape:connector-curvature="0" />
	<path style="fill:none;stroke:red;stroke-width:1px;stroke-linecap:butt;stroke-linejoin:miter;stroke-opacity:1" d="M 179.649,111.062 183.831,101.862 z" id="boundary" inkscape:connector-curvature="0" />
	<path style="fill:none;stroke:red;stroke-width:1px;stroke-linecap:butt;stroke-linejoin:miter;stroke-opacity:1" d="M 14.8735,121.099 16.5464,111.062 z" id="boundary" inkscape:connector-curvature="0" />
	<path style="fill:none;stroke:red;stroke-width:1px;stroke-linecap:butt;stroke-linejoin:miter;stroke-opacity:1" d="M 14.8735,121.099 8.18212,127.791 z" id="boundary" inkscape:connector-curvature="0" />
	<path style="fill:none;stroke:red;stroke-width:1px;stroke-linecap:butt;stroke-linejoin:miter;stroke-opacity:1" d="M 108.553,104.371 100.189,104.371 z" id="boundary" inkscape:connector-curvature="0" />
	<path style="fill:none;stroke:red;stroke-width:1px;stroke-linecap:butt;stroke-linejoin:miter;stroke-opacity:1" d="M 4,144.519 4,136.155 z" id="boundary" inkscape:connector-curvature="0" />
	<path style="fill:none;stroke:red;stroke-width:1px;stroke-linecap:butt;stroke-linejoin:miter;stroke-opacity:1" d="M 4,136.155 8.18212,127.791 z" id="boundary" inkscape:connector-curvature="0" />
	<path style="fill:none;stroke:red;stroke-width:1px;stroke-linecap:butt;stroke-linejoin:miter;stroke-opacity:1" d="M 4,152.884 4,144.519 z" id="boundary" inkscape:connector-curvature="0" />
	<path style="fill:none;stroke:red;stroke-width:1px;stroke-linecap:butt;stroke-linejoin:miter;stroke-opacity:1" d="M 4,161.248 4,152.884 z" id="boundary" inkscape:connector-curvature="0" />
	<path style="fill:none;stroke:red;stroke-width:1px;stroke-linecap:butt;stroke-linejoin:miter;stroke-opacity:1" d="M 108.553,104.371 116.917,106.044 z" id="boundary" inkscape:connector-curvature="0" />
	<path style="fill:none;stroke:red;stroke-width:1px;stroke-linecap:butt;stroke-linejoin:miter;stroke-opacity:1" d="M 116.917,106.044 125.282,108.553 z" id="boundary" inkscape:connector-curvature="0" />
	<path style="fill:none;stroke:red;stroke-width:1px;stroke-linecap:butt;stroke-linejoin:miter;stroke-opacity:1" d="M 141.174,114.408 133.646,110.226 z" id="boundary" inkscape:connector-curvature="0" />
	<path style="fill:none;stroke:red;stroke-width:1px;stroke-linecap:butt;stroke-linejoin:miter;stroke-opacity:1" d="M 133.646,110.226 125.282,108.553 z" id="boundary" inkscape:connector-curvature="0" />
	<path style="fill:none;stroke:red;stroke-width:1px;stroke-linecap:butt;stroke-linejoin:miter;stroke-opacity:1" d="M 149.538,117.754 141.174,114.408 z" id="boundary" inkscape:connector-curvature="0" />
	<path style="fill:none;stroke:red;stroke-width:1px;stroke-linecap:butt;stroke-linejoin:miter;stroke-opacity:1" d="M 149.538,117.754 157.902,121.099 z" id="boundary" inkscape:connector-curvature="0" />
	<path style="fill:none;stroke:red;stroke-width:1px;stroke-linecap:butt;stroke-linejoin:miter;stroke-opacity:1" d="M 166.266,121.099 157.902,121.099 z" id="boundary" inkscape:connector-curvature="0" />
	<path style="fill:none;stroke:red;stroke-width:1px;stroke-linecap:butt;stroke-linejoin:miter;stroke-opacity:1" d="M 174.631,121.099 166.266,121.099 z" id="boundary" inkscape:connector-curvature="0" />
	<path style="fill:none;stroke:red;stroke-width:1px;stroke-linecap:butt;stroke-linejoin:miter;stroke-opacity:1" d="M 179.649,111.062 174.631,121.099 z" id="boundary" inkscape:connector-curvature="0" />
	<path style="fill:none;stroke:red;stroke-width:1px;stroke-linecap:butt;stroke-linejoin:miter;stroke-opacity:1" d="M 204.742,62.5497 213.106,62.5497 z" id="boundary" inkscape:connector-curvature="0" />
	<path style="fill:none;stroke:red;stroke-width:1px;stroke-linecap:butt;stroke-linejoin:miter;stroke-opacity:1" d="M 361.99,33.2749 370.354,33.2749 z" id="boundary" inkscape:connector-curvature="0" />
	<path style="fill:none;stroke:red;stroke-width:1px;stroke-linecap:butt;stroke-linejoin:miter;stroke-opacity:1" d="M 353.626,37.457 361.99,33.2749 z" id="boundary" inkscape:connector-curvature="0" />
	<path style="fill:none;stroke:red;stroke-width:1px;stroke-linecap:butt;stroke-linejoin:miter;stroke-opacity:1" d="M 394.61,29.0927 387.083,33.2749 z" id="boundary" inkscape:connector-curvature="0" />
	<path style="fill:none;stroke:red;stroke-width:1px;stroke-linecap:butt;stroke-linejoin:miter;stroke-opacity:1" d="M 387.083,33.2749 378.718,33.2749 z" id="boundary" inkscape:connector-curvature="0" />
	<path style="fill:none;stroke:red;stroke-width:1px;stroke-linecap:butt;stroke-linejoin:miter;stroke-opacity:1" d="M 378.718,33.2749 370.354,33.2749 z" id="boundary" inkscape:connector-curvature="0" />
	<path style="fill:none;stroke:red;stroke-width:1px;stroke-linecap:butt;stroke-linejoin:miter;stroke-opacity:1" d="M 328.533,37.457 336.897,37.457 z" id="boundary" inkscape:connector-curvature="0" />
	<path style="fill:none;stroke:red;stroke-width:1px;stroke-linecap:butt;stroke-linejoin:miter;stroke-opacity:1" d="M 320.169,41.6391 328.533,37.457 z" id="boundary" inkscape:connector-curvature="0" />
	<path style="fill:none;stroke:red;stroke-width:1px;stroke-linecap:butt;stroke-linejoin:miter;stroke-opacity:1" d="M 353.626,37.457 345.261,37.457 z" id="boundary" inkscape:connector-curvature="0" />
	<path style="fill:none;stroke:red;stroke-width:1px;stroke-linecap:butt;stroke-linejoin:miter;stroke-opacity:1" d="M 345.261,37.457 336.897,37.457 z" id="boundary" inkscape:connector-curvature="0" />
	<path style="fill:none;stroke:red;stroke-width:1px;stroke-linecap:butt;stroke-linejoin:miter;stroke-opacity:1" d="M 394.61,29.0927 402.975,29.0927 z" id="boundary" inkscape:connector-curvature="0" />
	<path style="fill:none;stroke:red;stroke-width:1px;stroke-linecap:butt;stroke-linejoin:miter;stroke-opacity:1" d="M 411.339,29.0927 402.975,29.0927 z" id="boundary" inkscape:connector-curvature="0" />
	<path style="fill:none;stroke:red;stroke-width:1px;stroke-linecap:butt;stroke-linejoin:miter;stroke-opacity:1" d="M 419.703,29.0927 427.231,24.9106 z" id="boundary" inkscape:connector-curvature="0" />
	<path style="fill:none;stroke:red;stroke-width:1px;stroke-linecap:butt;stroke-linejoin:miter;stroke-opacity:1" d="M 427.231,24.9106 435.595,24.9106 z" id="boundary" inkscape:connector-curvature="0" />
	<path style="fill:none;stroke:red;stroke-width:1px;stroke-linecap:butt;stroke-linejoin:miter;stroke-opacity:1" d="M 443.96,24.9106 435.595,24.9106 z" id="boundary" inkscape:connector-curvature="0" />
	<path style="fill:none;stroke:red;stroke-width:1px;stroke-linecap:butt;stroke-linejoin:miter;stroke-opacity:1" d="M 443.96,24.9106 451.487,29.0927 z" id="boundary" inkscape:connector-curvature="0" />
	<path style="fill:none;stroke:red;stroke-width:1px;stroke-linecap:butt;stroke-linejoin:miter;stroke-opacity:1" d="M 419.703,29.0927 411.339,29.0927 z" id="boundary" inkscape:connector-curvature="0" />
	<path style="fill:none;stroke:red;stroke-width:1px;stroke-linecap:butt;stroke-linejoin:miter;stroke-opacity:1" d="M 451.487,29.0927 459.852,30.7656 z" id="boundary" inkscape:connector-curvature="0" />
	<path style="fill:none;stroke:red;stroke-width:1px;stroke-linecap:butt;stroke-linejoin:miter;stroke-opacity:1" d="M 459.852,30.7656 467.379,34.9477 z" id="boundary" inkscape:connector-curvature="0" />
	<path style="fill:none;stroke:red;stroke-width:1px;stroke-linecap:butt;stroke-linejoin:miter;stroke-opacity:1" d="M 475.744,37.457 467.379,34.9477 z" id="boundary" inkscape:connector-curvature="0" />
	<path style="fill:none;stroke:red;stroke-width:1px;stroke-linecap:butt;stroke-linejoin:miter;stroke-opacity:1" d="M 254.091,54.1855 245.727,54.1855 z" id="boundary" inkscape:connector-curvature="0" />
	<path style="fill:none;stroke:red;stroke-width:1px;stroke-linecap:butt;stroke-linejoin:miter;stroke-opacity:1" d="M 261.619,50.0034 254.091,54.1855 z" id="boundary" inkscape:connector-curvature="0" />
	<path style="fill:none;stroke:red;stroke-width:1px;stroke-linecap:butt;stroke-linejoin:miter;stroke-opacity:1" d="M 269.983,45.8212 261.619,50.0034 z" id="boundary" inkscape:connector-curvature="0" />
	<path style="fill:none;stroke:red;stroke-width:1px;stroke-linecap:butt;stroke-linejoin:miter;stroke-opacity:1" d="M 269.983,45.8212 278.347,45.8212 z" id="boundary" inkscape:connector-curvature="0" />
	<path style="fill:none;stroke:red;stroke-width:1px;stroke-linecap:butt;stroke-linejoin:miter;stroke-opacity:1" d="M 221.47,60.8769 213.106,62.5497 z" id="boundary" inkscape:connector-curvature="0" />
	<path style="fill:none;stroke:red;stroke-width:1px;stroke-linecap:butt;stroke-linejoin:miter;stroke-opacity:1" d="M 245.727,54.1855 238.199,58.3676 z" id="boundary" inkscape:connector-curvature="0" />
	<path style="fill:none;stroke:red;stroke-width:1px;stroke-linecap:butt;stroke-linejoin:miter;stroke-opacity:1" d="M 238.199,58.3676 229.835,58.3676 z" id="boundary" inkscape:connector-curvature="0" />
	<path style="fill:none;stroke:red;stroke-width:1px;stroke-linecap:butt;stroke-linejoin:miter;stroke-opacity:1" d="M 221.47,60.8769 229.835,58.3676 z" id="boundary" inkscape:connector-curvature="0" />
	<path style="fill:none;stroke:red;stroke-width:1px;stroke-linecap:butt;stroke-linejoin:miter;stroke-opacity:1" d="M 278.347,45.8212 286.712,45.8212 z" id="boundary" inkscape:connector-curvature="0" />
	<path style="fill:none;stroke:red;stroke-width:1px;stroke-linecap:butt;stroke-linejoin:miter;stroke-opacity:1" d="M 303.44,41.6391 311.804,41.6391 z" id="boundary" inkscape:connector-curvature="0" />
	<path style="fill:none;stroke:red;stroke-width:1px;stroke-linecap:butt;stroke-linejoin:miter;stroke-opacity:1" d="M 295.076,45.8212 303.44,41.6391 z" id="boundary" inkscape:connector-curvature="0" />
	<path style="fill:none;stroke:red;stroke-width:1px;stroke-linecap:butt;stroke-linejoin:miter;stroke-opacity:1" d="M 320.169,41.6391 311.804,41.6391 z" id="boundary" inkscape:connector-curvature="0" />
	<path style="fill:none;stroke:red;stroke-width:1px;stroke-linecap:butt;stroke-linejoin:miter;stroke-opacity:1" d="M 475.744,37.457 483.272,41.6391 z" id="boundary" inkscape:connector-curvature="0" />
	<path style="fill:none;stroke:red;stroke-width:1px;stroke-linecap:butt;stroke-linejoin:miter;stroke-opacity:1" d="M 286.712,45.8212 295.076,45.8212 z" id="boundary" inkscape:connector-curvature="0" />
	<path style="fill:none;stroke:red;stroke-width:1px;stroke-linecap:butt;stroke-linejoin:miter;stroke-opacity:1" d="M 491.636,41.6391 483.272,41.6391 z" id="boundary" inkscape:connector-curvature="0" />
	<path style="fill:none;stroke:red;stroke-width:1px;stroke-linecap:butt;stroke-linejoin:miter;stroke-opacity:1" d="M 500,41.6391 491.636,41.6391 z" id="boundary" inkscape:connector-curvature="0" />
	<path style="fill:none;stroke:red;stroke-width:1px;stroke-linecap:butt;stroke-linejoin:miter;stroke-opacity:1" d="M 508.364,37.457 500,41.6391 z" id="boundary" inkscape:connector-curvature="0" />
	<path style="fill:none;stroke:red;stroke-width:1px;stroke-linecap:butt;stroke-linejoin:miter;stroke-opacity:1" d="M 512.546,243.218 504.182,243.218 z" id="boundary" inkscape:connector-curvature="0" />
	<path style="fill:none;stroke:red;stroke-width:1px;stroke-linecap:butt;stroke-linejoin:miter;stroke-opacity:1" d="M 4,177.976 4,169.612 z" id="boundary" inkscape:connector-curvature="0" />
	<path style="fill:none;stroke:red;stroke-width:1px;stroke-linecap:butt;stroke-linejoin:miter;stroke-opacity:1" d="M 8.18212,193.868 4,186.341 z" id="boundary" inkscape:connector-curvature="0" />
	<path style="fill:none;stroke:red;stroke-width:1px;stroke-linecap:butt;stroke-linejoin:miter;stroke-opacity:1" d="M 4,186.341 4,177.976 z" id="boundary" inkscape:connector-curvature="0" />
	<path style="fill:none;stroke:red;stroke-width:1px;stroke-linecap:butt;stroke-linejoin:miter;stroke-opacity:1" d="M 12.3642,201.396 8.18212,193.868 z" id="boundary" inkscape:connector-curvature="0" />
	<path style="fill:none;stroke:red;stroke-width:1px;stroke-linecap:butt;stroke-linejoin:miter;stroke-opacity:1" d="M 12.3642,201.396 17.3828,208.088 z" id="boundary" inkscape:connector-curvature="0" />
	<path style="fill:none;stroke:red;stroke-width:1px;stroke-linecap:butt;stroke-linejoin:miter;stroke-opacity:1" d="M 17.3828,208.088 21.5649,215.616 z" id="boundary" inkscape:connector-curvature="0" />
	<path style="fill:none;stroke:red;stroke-width:1px;stroke-linecap:butt;stroke-linejoin:miter;stroke-opacity:1" d="M 89.3153,213.943 97.6796,213.943 z" id="boundary" inkscape:connector-curvature="0" />
	<path style="fill:none;stroke:red;stroke-width:1px;stroke-linecap:butt;stroke-linejoin:miter;stroke-opacity:1" d="M 81.7875,218.125 89.3153,213.943 z" id="boundary" inkscape:connector-curvature="0" />
	<path style="fill:none;stroke:red;stroke-width:1px;stroke-linecap:butt;stroke-linejoin:miter;stroke-opacity:1" d="M 97.6796,213.943 106.044,213.943 z" id="boundary" inkscape:connector-curvature="0" />
	<path style="fill:none;stroke:red;stroke-width:1px;stroke-linecap:butt;stroke-linejoin:miter;stroke-opacity:1" d="M 113.572,209.761 106.044,213.943 z" id="boundary" inkscape:connector-curvature="0" />
	<path style="fill:none;stroke:red;stroke-width:1px;stroke-linecap:butt;stroke-linejoin:miter;stroke-opacity:1" d="M 4,169.612 4,161.248 z" id="boundary" inkscape:connector-curvature="0" />
	<path style="fill:none;stroke:red;stroke-width:1px;stroke-linecap:butt;stroke-linejoin:miter;stroke-opacity:1" d="M 137.828,205.578 146.192,205.578 z" id="boundary" inkscape:connector-curvature="0" />
	<path style="fill:none;stroke:red;stroke-width:1px;stroke-linecap:butt;stroke-linejoin:miter;stroke-opacity:1" d="M 130.3,209.761 137.828,205.578 z" id="boundary" inkscape:connector-curvature="0" />
	<path style="fill:none;stroke:red;stroke-width:1px;stroke-linecap:butt;stroke-linejoin:miter;stroke-opacity:1" d="M 153.72,201.396 146.192,205.578 z" id="boundary" inkscape:connector-curvature="0" />
	<path style="fill:none;stroke:red;stroke-width:1px;stroke-linecap:butt;stroke-linejoin:miter;stroke-opacity:1" d="M 153.72,201.396 161.248,205.578 z" id="boundary" inkscape:connector-curvature="0" />
	<path style="fill:none;stroke:red;stroke-width:1px;stroke-linecap:butt;stroke-linejoin:miter;stroke-opacity:1" d="M 169.612,205.578 161.248,205.578 z" id="boundary" inkscape:connector-curvature="0" />
	<path style="fill:none;stroke:red;stroke-width:1px;stroke-linecap:butt;stroke-linejoin:miter;stroke-opacity:1" d="M 121.936,209.761 113.572,209.761 z" id="boundary" inkscape:connector-curvature="0" />
	<path style="fill:none;stroke:red;stroke-width:1px;stroke-linecap:butt;stroke-linejoin:miter;stroke-opacity:1" d="M 130.3,209.761 121.936,209.761 z" id="boundary" inkscape:connector-curvature="0" />
	<path style="fill:none;stroke:red;stroke-width:1px;stroke-linecap:butt;stroke-linejoin:miter;stroke-opacity:1" d="M 175.467,212.27 169.612,205.578 z" id="boundary" inkscape:connector-curvature="0" />
	<path style="fill:none;stroke:red;stroke-width:1px;stroke-linecap:butt;stroke-linejoin:miter;stroke-opacity:1" d="M 175.467,212.27 171.285,219.798 z" id="boundary" inkscape:connector-curvature="0" />
	<path style="fill:none;stroke:red;stroke-width:1px;stroke-linecap:butt;stroke-linejoin:miter;stroke-opacity:1" d="M 21.5649,215.616 24.9106,223.98 z" id="boundary" inkscape:connector-curvature="0" />
	<path style="fill:none;stroke:red;stroke-width:1px;stroke-linecap:butt;stroke-linejoin:miter;stroke-opacity:1" d="M 33.2749,226.489 24.9106,223.98 z" id="boundary" inkscape:connector-curvature="0" />
	<path style="fill:none;stroke:red;stroke-width:1px;stroke-linecap:butt;stroke-linejoin:miter;stroke-opacity:1" d="M 65.059,225.653 73.4233,221.47 z" id="boundary" inkscape:connector-curvature="0" />
	<path style="fill:none;stroke:red;stroke-width:1px;stroke-linecap:butt;stroke-linejoin:miter;stroke-opacity:1" d="M 81.7875,218.125 73.4233,221.47 z" id="boundary" inkscape:connector-curvature="0" />
	<path style="fill:none;stroke:red;stroke-width:1px;stroke-linecap:butt;stroke-linejoin:miter;stroke-opacity:1" d="M 33.2749,226.489 40.8027,230.671 z" id="boundary" inkscape:connector-curvature="0" />
	<path style="fill:none;stroke:red;stroke-width:1px;stroke-linecap:butt;stroke-linejoin:miter;stroke-opacity:1" d="M 48.3305,226.489 40.8027,230.671 z" id="boundary" inkscape:connector-curvature="0" />
	<path style="fill:none;stroke:red;stroke-width:1px;stroke-linecap:butt;stroke-linejoin:miter;stroke-opacity:1" d="M 56.6948,226.489 48.3305,226.489 z" id="boundary" inkscape:connector-curvature="0" />
	<path style="fill:none;stroke:red;stroke-width:1px;stroke-linecap:butt;stroke-linejoin:miter;stroke-opacity:1" d="M 56.6948,226.489 65.059,225.653 z" id="boundary" inkscape:connector-curvature="0" />
	<path style="fill:none;stroke:red;stroke-width:1px;stroke-linecap:butt;stroke-linejoin:miter;stroke-opacity:1" d="M 162.921,240.708 162.921,232.344 z" id="boundary" inkscape:connector-curvature="0" />
	<path style="fill:none;stroke:red;stroke-width:1px;stroke-linecap:butt;stroke-linejoin:miter;stroke-opacity:1" d="M 171.285,219.798 171.285,228.162 z" id="boundary" inkscape:connector-curvature="0" />
	<path style="fill:none;stroke:red;stroke-width:1px;stroke-linecap:butt;stroke-linejoin:miter;stroke-opacity:1" d="M 167.939,247.4 162.921,240.708 z" id="boundary" inkscape:connector-curvature="0" />
	<path style="fill:none;stroke:red;stroke-width:1px;stroke-linecap:butt;stroke-linejoin:miter;stroke-opacity:1" d="M 167.939,247.4 176.304,249.073 z" id="boundary" inkscape:connector-curvature="0" />
	<path style="fill:none;stroke:red;stroke-width:1px;stroke-linecap:butt;stroke-linejoin:miter;stroke-opacity:1" d="M 200.56,255.764 192.196,255.764 z" id="boundary" inkscape:connector-curvature="0" />
	<path style="fill:none;stroke:red;stroke-width:1px;stroke-linecap:butt;stroke-linejoin:miter;stroke-opacity:1" d="M 192.196,255.764 184.668,251.582 z" id="boundary" inkscape:connector-curvature="0" />
	<path style="fill:none;stroke:red;stroke-width:1px;stroke-linecap:butt;stroke-linejoin:miter;stroke-opacity:1" d="M 184.668,251.582 176.304,249.073 z" id="boundary" inkscape:connector-curvature="0" />
	<path style="fill:none;stroke:red;stroke-width:1px;stroke-linecap:butt;stroke-linejoin:miter;stroke-opacity:1" d="M 208.924,255.764 200.56,255.764 z" id="boundary" inkscape:connector-curvature="0" />
	<path style="fill:none;stroke:red;stroke-width:1px;stroke-linecap:butt;stroke-linejoin:miter;stroke-opacity:1" d="M 208.924,255.764 217.288,255.764 z" id="boundary" inkscape:connector-curvature="0" />
	<path style="fill:none;stroke:red;stroke-width:1px;stroke-linecap:butt;stroke-linejoin:miter;stroke-opacity:1" d="M 217.288,255.764 224.816,259.946 z" id="boundary" inkscape:connector-curvature="0" />
	<path style="fill:none;stroke:red;stroke-width:1px;stroke-linecap:butt;stroke-linejoin:miter;stroke-opacity:1" d="M 224.816,259.946 233.18,259.946 z" id="boundary" inkscape:connector-curvature="0" />
	<path style="fill:none;stroke:red;stroke-width:1px;stroke-linecap:butt;stroke-linejoin:miter;stroke-opacity:1" d="M 241.545,259.946 233.18,259.946 z" id="boundary" inkscape:connector-curvature="0" />
	<path style="fill:none;stroke:red;stroke-width:1px;stroke-linecap:butt;stroke-linejoin:miter;stroke-opacity:1" d="M 241.545,259.946 249.909,259.946 z" id="boundary" inkscape:connector-curvature="0" />
	<path style="fill:none;stroke:red;stroke-width:1px;stroke-linecap:butt;stroke-linejoin:miter;stroke-opacity:1" d="M 249.909,259.946 257.437,264.128 z" id="boundary" inkscape:connector-curvature="0" />
	<path style="fill:none;stroke:red;stroke-width:1px;stroke-linecap:butt;stroke-linejoin:miter;stroke-opacity:1" d="M 257.437,264.128 265.801,264.128 z" id="boundary" inkscape:connector-curvature="0" />
	<path style="fill:none;stroke:red;stroke-width:1px;stroke-linecap:butt;stroke-linejoin:miter;stroke-opacity:1" d="M 265.801,264.128 274.165,267.474 z" id="boundary" inkscape:connector-curvature="0" />
	<path style="fill:none;stroke:red;stroke-width:1px;stroke-linecap:butt;stroke-linejoin:miter;stroke-opacity:1" d="M 282.53,268.31 274.165,267.474 z" id="boundary" inkscape:connector-curvature="0" />
	<path style="fill:none;stroke:red;stroke-width:1px;stroke-linecap:butt;stroke-linejoin:miter;stroke-opacity:1" d="M 479.926,251.582 487.454,247.4 z" id="boundary" inkscape:connector-curvature="0" />
	<path style="fill:none;stroke:red;stroke-width:1px;stroke-linecap:butt;stroke-linejoin:miter;stroke-opacity:1" d="M 487.454,247.4 495.818,246.563 z" id="boundary" inkscape:connector-curvature="0" />
	<path style="fill:none;stroke:red;stroke-width:1px;stroke-linecap:butt;stroke-linejoin:miter;stroke-opacity:1" d="M 479.926,251.582 471.562,254.091 z" id="boundary" inkscape:connector-curvature="0" />
	<path style="fill:none;stroke:red;stroke-width:1px;stroke-linecap:butt;stroke-linejoin:miter;stroke-opacity:1" d="M 495.818,246.563 504.182,243.218 z" id="boundary" inkscape:connector-curvature="0" />
	<path style="fill:none;stroke:red;stroke-width:1px;stroke-linecap:butt;stroke-linejoin:miter;stroke-opacity:1" d="M 307.622,268.31 299.258,268.31 z" id="boundary" inkscape:connector-curvature="0" />
	<path style="fill:none;stroke:red;stroke-width:1px;stroke-linecap:butt;stroke-linejoin:miter;stroke-opacity:1" d="M 454.833,259.946 447.305,264.128 z" id="boundary" inkscape:connector-curvature="0" />
	<path style="fill:none;stroke:red;stroke-width:1px;stroke-linecap:butt;stroke-linejoin:miter;stroke-opacity:1" d="M 471.562,254.091 463.197,258.273 z" id="boundary" inkscape:connector-curvature="0" />
	<path style="fill:none;stroke:red;stroke-width:1px;stroke-linecap:butt;stroke-linejoin:miter;stroke-opacity:1" d="M 463.197,258.273 454.833,259.946 z" id="boundary" inkscape:connector-curvature="0" />
	<path style="fill:none;stroke:red;stroke-width:1px;stroke-linecap:butt;stroke-linejoin:miter;stroke-opacity:1" d="M 290.894,268.31 282.53,268.31 z" id="boundary" inkscape:connector-curvature="0" />
	<path style="fill:none;stroke:red;stroke-width:1px;stroke-linecap:butt;stroke-linejoin:miter;stroke-opacity:1" d="M 439.777,268.31 447.305,264.128 z" id="boundary" inkscape:connector-curvature="0" />
	<path style="fill:none;stroke:red;stroke-width:1px;stroke-linecap:butt;stroke-linejoin:miter;stroke-opacity:1" d="M 315.987,268.31 307.622,268.31 z" id="boundary" inkscape:connector-curvature="0" />
	<path style="fill:none;stroke:red;stroke-width:1px;stroke-linecap:butt;stroke-linejoin:miter;stroke-opacity:1" d="M 290.894,268.31 299.258,268.31 z" id="boundary" inkscape:connector-curvature="0" />
	<path style="fill:none;stroke:red;stroke-width:1px;stroke-linecap:butt;stroke-linejoin:miter;stroke-opacity:1" d="M 315.987,268.31 323.514,272.492 z" id="boundary" inkscape:connector-curvature="0" />
	<path style="fill:none;stroke:red;stroke-width:1px;stroke-linecap:butt;stroke-linejoin:miter;stroke-opacity:1" d="M 323.514,272.492 331.879,272.492 z" id="boundary" inkscape:connector-curvature="0" />
	<path style="fill:none;stroke:red;stroke-width:1px;stroke-linecap:butt;stroke-linejoin:miter;stroke-opacity:1" d="M 340.243,272.492 348.607,272.492 z" id="boundary" inkscape:connector-curvature="0" />
	<path style="fill:none;stroke:red;stroke-width:1px;stroke-linecap:butt;stroke-linejoin:miter;stroke-opacity:1" d="M 348.607,272.492 356.971,272.492 z" id="boundary" inkscape:connector-curvature="0" />
	<path style="fill:none;stroke:red;stroke-width:1px;stroke-linecap:butt;stroke-linejoin:miter;stroke-opacity:1" d="M 340.243,272.492 331.879,272.492 z" id="boundary" inkscape:connector-curvature="0" />
	<path style="fill:none;stroke:red;stroke-width:1px;stroke-linecap:butt;stroke-linejoin:miter;stroke-opacity:1" d="M 365.336,272.492 373.7,272.492 z" id="boundary" inkscape:connector-curvature="0" />
	<path style="fill:none;stroke:red;stroke-width:1px;stroke-linecap:butt;stroke-linejoin:miter;stroke-opacity:1" d="M 382.064,272.492 373.7,272.492 z" id="boundary" inkscape:connector-curvature="0" />
	<path style="fill:none;stroke:red;stroke-width:1px;stroke-linecap:butt;stroke-linejoin:miter;stroke-opacity:1" d="M 431.413,268.31 423.049,268.31 z" id="boundary" inkscape:connector-curvature="0" />
	<path style="fill:none;stroke:red;stroke-width:1px;stroke-linecap:butt;stroke-linejoin:miter;stroke-opacity:1" d="M 439.777,268.31 431.413,268.31 z" id="boundary" inkscape:connector-curvature="0" />
	<path style="fill:none;stroke:red;stroke-width:1px;stroke-linecap:butt;stroke-linejoin:miter;stroke-opacity:1" d="M 415.521,272.492 423.049,268.31 z" id="boundary" inkscape:connector-curvature="0" />
	<path style="fill:none;stroke:red;stroke-width:1px;stroke-linecap:butt;stroke-linejoin:miter;stroke-opacity:1" d="M 365.336,272.492 356.971,272.492 z" id="boundary" inkscape:connector-curvature="0" />
	<path style="fill:none;stroke:red;stroke-width:1px;stroke-linecap:butt;stroke-linejoin:miter;stroke-opacity:1" d="M 382.064,272.492 390.428,272.492 z" id="boundary" inkscape:connector-curvature="0" />
	<path style="fill:none;stroke:red;stroke-width:1px;stroke-linecap:butt;stroke-linejoin:miter;stroke-opacity:1" d="M 398.793,272.492 407.157,272.492 z" id="boundary" inkscape:connector-curvature="0" />
	<path style="fill:none;stroke:red;stroke-width:1px;stroke-linecap:butt;stroke-linejoin:miter;stroke-opacity:1" d="M 415.521,272.492 407.157,272.492 z" id="boundary" inkscape:connector-curvature="0" />
	<path style="fill:none;stroke:red;stroke-width:1px;stroke-linecap:butt;stroke-linejoin:miter;stroke-opacity:1" d="M 398.793,272.492 390.428,272.492 z" id="boundary" inkscape:connector-curvature="0" />
	<path style="fill:none;stroke:red;stroke-width:1px;stroke-linecap:butt;stroke-linejoin:miter;stroke-opacity:1" d="M 508.364,37.457 516.728,37.457 z" id="boundary" inkscape:connector-curvature="0" />
	<path style="fill:none;stroke:red;stroke-width:1px;stroke-linecap:butt;stroke-linejoin:miter;stroke-opacity:1" d="M 656.411,12.3642 664.776,12.3642 z" id="boundary" inkscape:connector-curvature="0" />
	<path style="fill:none;stroke:red;stroke-width:1px;stroke-linecap:butt;stroke-linejoin:miter;stroke-opacity:1" d="M 648.047,14.8735 656.411,12.3642 z" id="boundary" inkscape:connector-curvature="0" />
	<path style="fill:none;stroke:red;stroke-width:1px;stroke-linecap:butt;stroke-linejoin:miter;stroke-opacity:1" d="M 673.14,10.6914 664.776,12.3642 z" id="boundary" inkscape:connector-curvature="0" />
	<path style="fill:none;stroke:red;stroke-width:1px;stroke-linecap:butt;stroke-linejoin:miter;stroke-opacity:1" d="M 673.14,10.6914 681.504,8.18212 z" id="boundary" inkscape:connector-curvature="0" />
	<path style="fill:none;stroke:red;stroke-width:1px;stroke-linecap:butt;stroke-linejoin:miter;stroke-opacity:1" d="M 681.504,8.18212 689.868,8.18212 z" id="boundary" inkscape:connector-curvature="0" />
	<path style="fill:none;stroke:red;stroke-width:1px;stroke-linecap:butt;stroke-linejoin:miter;stroke-opacity:1" d="M 614.59,19.0556 622.954,16.5464 z" id="boundary" inkscape:connector-curvature="0" />
	<path style="fill:none;stroke:red;stroke-width:1px;stroke-linecap:butt;stroke-linejoin:miter;stroke-opacity:1" d="M 622.954,16.5464 631.319,16.5464 z" id="boundary" inkscape:connector-curvature="0" />
	<path style="fill:none;stroke:red;stroke-width:1px;stroke-linecap:butt;stroke-linejoin:miter;stroke-opacity:1" d="M 648.047,14.8735 639.683,16.5464 z" id="boundary" inkscape:connector-curvature="0" />
	<path style="fill:none;stroke:red;stroke-width:1px;stroke-linecap:butt;stroke-linejoin:miter;stroke-opacity:1" d="M 639.683,16.5464 631.319,16.5464 z" id="boundary" inkscape:connector-curvature="0" />
	<path style="fill:none;stroke:red;stroke-width:1px;stroke-linecap:butt;stroke-linejoin:miter;stroke-opacity:1" d="M 606.226,20.7285 614.59,19.0556 z" id="boundary" inkscape:connector-curvature="0" />
	<path style="fill:none;stroke:red;stroke-width:1px;stroke-linecap:butt;stroke-linejoin:miter;stroke-opacity:1" d="M 689.868,8.18212 698.233,8.18212 z" id="boundary" inkscape:connector-curvature="0" />
	<path style="fill:none;stroke:red;stroke-width:1px;stroke-linecap:butt;stroke-linejoin:miter;stroke-opacity:1" d="M 706.597,8.18212 698.233,8.18212 z" id="boundary" inkscape:connector-curvature="0" />
	<path style="fill:none;stroke:red;stroke-width:1px;stroke-linecap:butt;stroke-linejoin:miter;stroke-opacity:1" d="M 722.489,4 730.853,4 z" id="boundary" inkscape:connector-curvature="0" />
	<path style="fill:none;stroke:red;stroke-width:1px;stroke-linecap:butt;stroke-linejoin:miter;stroke-opacity:1" d="M 730.853,4 738.381,8.18212 z" id="boundary" inkscape:connector-curvature="0" />
	<path style="fill:none;stroke:red;stroke-width:1px;stroke-linecap:butt;stroke-linejoin:miter;stroke-opacity:1" d="M 706.597,8.18212 714.961,8.18212 z" id="boundary" inkscape:connector-curvature="0" />
	<path style="fill:none;stroke:red;stroke-width:1px;stroke-linecap:butt;stroke-linejoin:miter;stroke-opacity:1" d="M 722.489,4 714.961,8.18212 z" id="boundary" inkscape:connector-curvature="0" />
	<path style="fill:none;stroke:red;stroke-width:1px;stroke-linecap:butt;stroke-linejoin:miter;stroke-opacity:1" d="M 738.381,8.18212 745.909,12.3642 z" id="boundary" inkscape:connector-curvature="0" />
	<path style="fill:none;stroke:red;stroke-width:1px;stroke-linecap:butt;stroke-linejoin:miter;stroke-opacity:1" d="M 752.6,18.2192 745.909,12.3642 z" id="boundary" inkscape:connector-curvature="0" />
	<path style="fill:none;stroke:red;stroke-width:1px;stroke-linecap:butt;stroke-linejoin:miter;stroke-opacity:1" d="M 752.6,18.2192 753.437,26.5835 z" id="boundary" inkscape:connector-curvature="0" />
	<path style="fill:none;stroke:red;stroke-width:1px;stroke-linecap:butt;stroke-linejoin:miter;stroke-opacity:1" d="M 548.513,24.9106 556.877,24.9106 z" id="boundary" inkscape:connector-curvature="0" />
	<path style="fill:none;stroke:red;stroke-width:1px;stroke-linecap:butt;stroke-linejoin:miter;stroke-opacity:1" d="M 540.148,26.5835 548.513,24.9106 z" id="boundary" inkscape:connector-curvature="0" />
	<path style="fill:none;stroke:red;stroke-width:1px;stroke-linecap:butt;stroke-linejoin:miter;stroke-opacity:1" d="M 581.133,20.7285 573.605,24.9106 z" id="boundary" inkscape:connector-curvature="0" />
	<path style="fill:none;stroke:red;stroke-width:1px;stroke-linecap:butt;stroke-linejoin:miter;stroke-opacity:1" d="M 573.605,24.9106 565.241,24.9106 z" id="boundary" inkscape:connector-curvature="0" />
	<path style="fill:none;stroke:red;stroke-width:1px;stroke-linecap:butt;stroke-linejoin:miter;stroke-opacity:1" d="M 565.241,24.9106 556.877,24.9106 z" id="boundary" inkscape:connector-curvature="0" />
	<path style="fill:none;stroke:red;stroke-width:1px;stroke-linecap:butt;stroke-linejoin:miter;stroke-opacity:1" d="M 516.728,37.457 524.256,33.2749 z" id="boundary" inkscape:connector-curvature="0" />
	<path style="fill:none;stroke:red;stroke-width:1px;stroke-linecap:butt;stroke-linejoin:miter;stroke-opacity:1" d="M 540.148,26.5835 531.784,29.0927 z" id="boundary" inkscape:connector-curvature="0" />
	<path style="fill:none;stroke:red;stroke-width:1px;stroke-linecap:butt;stroke-linejoin:miter;stroke-opacity:1" d="M 524.256,33.2749 531.784,29.0927 z" id="boundary" inkscape:connector-curvature="0" />
	<path style="fill:none;stroke:red;stroke-width:1px;stroke-linecap:butt;stroke-linejoin:miter;stroke-opacity:1" d="M 581.133,20.7285 589.497,20.7285 z" id="boundary" inkscape:connector-curvature="0" />
	<path style="fill:none;stroke:red;stroke-width:1px;stroke-linecap:butt;stroke-linejoin:miter;stroke-opacity:1" d="M 597.862,20.7285 606.226,20.7285 z" id="boundary" inkscape:connector-curvature="0" />
	<path style="fill:none;stroke:red;stroke-width:1px;stroke-linecap:butt;stroke-linejoin:miter;stroke-opacity:1" d="M 597.862,20.7285 589.497,20.7285 z" id="boundary" inkscape:connector-curvature="0" />
	<path style="fill:none;stroke:red;stroke-width:1px;stroke-linecap:butt;stroke-linejoin:miter;stroke-opacity:1" d="M 757.619,34.1113 759.292,42.4755 z" id="boundary" inkscape:connector-curvature="0" />
	<path style="fill:none;stroke:red;stroke-width:1px;stroke-linecap:butt;stroke-linejoin:miter;stroke-opacity:1" d="M 753.437,26.5835 757.619,34.1113 z" id="boundary" inkscape:connector-curvature="0" />
	<path style="fill:none;stroke:red;stroke-width:1px;stroke-linecap:butt;stroke-linejoin:miter;stroke-opacity:1" d="M 765.983,48.3305 759.292,42.4755 z" id="boundary" inkscape:connector-curvature="0" />
	<path style="fill:none;stroke:red;stroke-width:1px;stroke-linecap:butt;stroke-linejoin:miter;stroke-opacity:1" d="M 784.384,62.5497 776.02,62.5497 z" id="boundary" inkscape:connector-curvature="0" />
	<path style="fill:none;stroke:red;stroke-width:1px;stroke-linecap:butt;stroke-linejoin:miter;stroke-opacity:1" d="M 776.02,62.5497 769.329,56.6948 z" id="boundary" inkscape:connector-curvature="0" />
	<path style="fill:none;stroke:red;stroke-width:1px;stroke-linecap:butt;stroke-linejoin:miter;stroke-opacity:1" d="M 765.983,48.3305 769.329,56.6948 z" id="boundary" inkscape:connector-curvature="0" />
	<path style="fill:none;stroke:red;stroke-width:1px;stroke-linecap:butt;stroke-linejoin:miter;stroke-opacity:1" d="M 817.841,62.5497 809.477,62.5497 z" id="boundary" inkscape:connector-curvature="0" />
	<path style="fill:none;stroke:red;stroke-width:1px;stroke-linecap:butt;stroke-linejoin:miter;stroke-opacity:1" d="M 851.298,58.3676 842.934,58.3676 z" id="boundary" inkscape:connector-curvature="0" />
	<path style="fill:none;stroke:red;stroke-width:1px;stroke-linecap:butt;stroke-linejoin:miter;stroke-opacity:1" d="M 851.298,58.3676 859.663,58.3676 z" id="boundary" inkscape:connector-curvature="0" />
	<path style="fill:none;stroke:red;stroke-width:1px;stroke-linecap:butt;stroke-linejoin:miter;stroke-opacity:1" d="M 868.027,58.3676 859.663,58.3676 z" id="boundary" inkscape:connector-curvature="0" />
	<path style="fill:none;stroke:red;stroke-width:1px;stroke-linecap:butt;stroke-linejoin:miter;stroke-opacity:1" d="M 834.57,62.5497 842.934,58.3676 z" id="boundary" inkscape:connector-curvature="0" />
	<path style="fill:none;stroke:red;stroke-width:1px;stroke-linecap:butt;stroke-linejoin:miter;stroke-opacity:1" d="M 784.384,62.5497 792.749,62.5497 z" id="boundary" inkscape:connector-curvature="0" />
	<path style="fill:none;stroke:red;stroke-width:1px;stroke-linecap:butt;stroke-linejoin:miter;stroke-opacity:1" d="M 809.477,62.5497 801.113,62.5497 z" id="boundary" inkscape:connector-curvature="0" />
	<path style="fill:none;stroke:red;stroke-width:1px;stroke-linecap:butt;stroke-linejoin:miter;stroke-opacity:1" d="M 801.113,62.5497 792.749,62.5497 z" id="boundary" inkscape:connector-curvature="0" />
	<path style="fill:none;stroke:red;stroke-width:1px;stroke-linecap:butt;stroke-linejoin:miter;stroke-opacity:1" d="M 868.027,58.3676 876.391,58.3676 z" id="boundary" inkscape:connector-curvature="0" />
	<path style="fill:none;stroke:red;stroke-width:1px;stroke-linecap:butt;stroke-linejoin:miter;stroke-opacity:1" d="M 898.138,45.8212 906.503,45.8212 z" id="boundary" inkscape:connector-curvature="0" />
	<path style="fill:none;stroke:red;stroke-width:1px;stroke-linecap:butt;stroke-linejoin:miter;stroke-opacity:1" d="M 891.447,51.6762 898.138,45.8212 z" id="boundary" inkscape:connector-curvature="0" />
	<path style="fill:none;stroke:red;stroke-width:1px;stroke-linecap:butt;stroke-linejoin:miter;stroke-opacity:1" d="M 914.03,41.6391 906.503,45.8212 z" id="boundary" inkscape:connector-curvature="0" />
	<path style="fill:none;stroke:red;stroke-width:1px;stroke-linecap:butt;stroke-linejoin:miter;stroke-opacity:1" d="M 914.03,41.6391 921.558,45.8212 z" id="boundary" inkscape:connector-curvature="0" />
	<path style="fill:none;stroke:red;stroke-width:1px;stroke-linecap:butt;stroke-linejoin:miter;stroke-opacity:1" d="M 929.922,45.8212 921.558,45.8212 z" id="boundary" inkscape:connector-curvature="0" />
	<path style="fill:none;stroke:red;stroke-width:1px;stroke-linecap:butt;stroke-linejoin:miter;stroke-opacity:1" d="M 884.755,58.3676 891.447,51.6762 z" id="boundary" inkscape:connector-curvature="0" />
	<path style="fill:none;stroke:red;stroke-width:1px;stroke-linecap:butt;stroke-linejoin:miter;stroke-opacity:1" d="M 884.755,58.3676 876.391,58.3676 z" id="boundary" inkscape:connector-curvature="0" />
	<path style="fill:none;stroke:red;stroke-width:1px;stroke-linecap:butt;stroke-linejoin:miter;stroke-opacity:1" d="M 929.922,45.8212 937.45,50.0034 z" id="boundary" inkscape:connector-curvature="0" />
	<path style="fill:none;stroke:red;stroke-width:1px;stroke-linecap:butt;stroke-linejoin:miter;stroke-opacity:1" d="M 937.45,50.0034 941.632,57.5312 z" id="boundary" inkscape:connector-curvature="0" />
	<path style="fill:none;stroke:red;stroke-width:1px;stroke-linecap:butt;stroke-linejoin:miter;stroke-opacity:1" d="M 941.632,57.5312 945.815,65.059 z" id="boundary" inkscape:connector-curvature="0" />
	<path style="fill:none;stroke:red;stroke-width:1px;stroke-linecap:butt;stroke-linejoin:miter;stroke-opacity:1" d="M 817.841,62.5497 826.206,62.5497 z" id="boundary" inkscape:connector-curvature="0" />
	<path style="fill:none;stroke:red;stroke-width:1px;stroke-linecap:butt;stroke-linejoin:miter;stroke-opacity:1" d="M 826.206,62.5497 834.57,62.5497 z" id="boundary" inkscape:connector-curvature="0" />
	<path style="fill:none;stroke:red;stroke-width:1px;stroke-linecap:butt;stroke-linejoin:miter;stroke-opacity:1" d="M 955.852,79.2782 951.669,71.7504 z" id="boundary" inkscape:connector-curvature="0" />
	<path style="fill:none;stroke:red;stroke-width:1px;stroke-linecap:butt;stroke-linejoin:miter;stroke-opacity:1" d="M 961.707,85.9696 955.852,79.2782 z" id="boundary" inkscape:connector-curvature="0" />
	<path style="fill:none;stroke:red;stroke-width:1px;stroke-linecap:butt;stroke-linejoin:miter;stroke-opacity:1" d="M 968.398,101.025 962.543,94.3339 z" id="boundary" inkscape:connector-curvature="0" />
	<path style="fill:none;stroke:red;stroke-width:1px;stroke-linecap:butt;stroke-linejoin:miter;stroke-opacity:1" d="M 962.543,94.3339 961.707,85.9696 z" id="boundary" inkscape:connector-curvature="0" />
	<path style="fill:none;stroke:red;stroke-width:1px;stroke-linecap:butt;stroke-linejoin:miter;stroke-opacity:1" d="M 972.58,108.553 968.398,101.025 z" id="boundary" inkscape:connector-curvature="0" />
	<path style="fill:none;stroke:red;stroke-width:1px;stroke-linecap:butt;stroke-linejoin:miter;stroke-opacity:1" d="M 945.815,65.059 951.669,71.7504 z" id="boundary" inkscape:connector-curvature="0" />
	<path style="fill:none;stroke:red;stroke-width:1px;stroke-linecap:butt;stroke-linejoin:miter;stroke-opacity:1" d="M 975.089,116.917 972.58,108.553 z" id="boundary" inkscape:connector-curvature="0" />
	<path style="fill:none;stroke:red;stroke-width:1px;stroke-linecap:butt;stroke-linejoin:miter;stroke-opacity:1" d="M 979.272,124.445 985.963,130.3 z" id="boundary" inkscape:connector-curvature="0" />
	<path style="fill:none;stroke:red;stroke-width:1px;stroke-linecap:butt;stroke-linejoin:miter;stroke-opacity:1" d="M 985.963,130.3 989.309,138.664 z" id="boundary" inkscape:connector-curvature="0" />
	<path style="fill:none;stroke:red;stroke-width:1px;stroke-linecap:butt;stroke-linejoin:miter;stroke-opacity:1" d="M 979.272,124.445 975.089,116.917 z" id="boundary" inkscape:connector-curvature="0" />
	<path style="fill:none;stroke:red;stroke-width:1px;stroke-linecap:butt;stroke-linejoin:miter;stroke-opacity:1" d="M 993.491,146.192 989.309,138.664 z" id="boundary" inkscape:connector-curvature="0" />
	<path style="fill:none;stroke:red;stroke-width:1px;stroke-linecap:butt;stroke-linejoin:miter;stroke-opacity:1" d="M 981.781,178.813 987.636,172.121 z" id="boundary" inkscape:connector-curvature="0" />
	<path style="fill:none;stroke:red;stroke-width:1px;stroke-linecap:butt;stroke-linejoin:miter;stroke-opacity:1" d="M 987.636,172.121 994.327,166.266 z" id="boundary" inkscape:connector-curvature="0" />
	<path style="fill:none;stroke:red;stroke-width:1px;stroke-linecap:butt;stroke-linejoin:miter;stroke-opacity:1" d="M 996,154.556 994.327,166.266 z" id="boundary" inkscape:connector-curvature="0" />
	<path style="fill:none;stroke:red;stroke-width:1px;stroke-linecap:butt;stroke-linejoin:miter;stroke-opacity:1" d="M 993.491,146.192 996,154.556 z" id="boundary" inkscape:connector-curvature="0" />
	<path style="fill:none;stroke:red;stroke-width:1px;stroke-linecap:butt;stroke-linejoin:miter;stroke-opacity:1" d="M 512.546,243.218 520.911,246.563 z" id="boundary" inkscape:connector-curvature="0" />
	<path style="fill:none;stroke:red;stroke-width:1px;stroke-linecap:butt;stroke-linejoin:miter;stroke-opacity:1" d="M 529.275,247.4 520.911,246.563 z" id="boundary" inkscape:connector-curvature="0" />
	<path style="fill:none;stroke:red;stroke-width:1px;stroke-linecap:butt;stroke-linejoin:miter;stroke-opacity:1" d="M 529.275,247.4 537.639,247.4 z" id="boundary" inkscape:connector-curvature="0" />
	<path style="fill:none;stroke:red;stroke-width:1px;stroke-linecap:butt;stroke-linejoin:miter;stroke-opacity:1" d="M 546.003,247.4 537.639,247.4 z" id="boundary" inkscape:connector-curvature="0" />
	<path style="fill:none;stroke:red;stroke-width:1px;stroke-linecap:butt;stroke-linejoin:miter;stroke-opacity:1" d="M 546.003,247.4 554.368,247.4 z" id="boundary" inkscape:connector-curvature="0" />
	<path style="fill:none;stroke:red;stroke-width:1px;stroke-linecap:butt;stroke-linejoin:miter;stroke-opacity:1" d="M 562.732,247.4 571.096,247.4 z" id="boundary" inkscape:connector-curvature="0" />
	<path style="fill:none;stroke:red;stroke-width:1px;stroke-linecap:butt;stroke-linejoin:miter;stroke-opacity:1" d="M 562.732,247.4 554.368,247.4 z" id="boundary" inkscape:connector-curvature="0" />
	<path style="fill:none;stroke:red;stroke-width:1px;stroke-linecap:butt;stroke-linejoin:miter;stroke-opacity:1" d="M 571.096,247.4 579.46,247.4 z" id="boundary" inkscape:connector-curvature="0" />
	<path style="fill:none;stroke:red;stroke-width:1px;stroke-linecap:butt;stroke-linejoin:miter;stroke-opacity:1" d="M 579.46,247.4 587.825,250.745 z" id="boundary" inkscape:connector-curvature="0" />
	<path style="fill:none;stroke:red;stroke-width:1px;stroke-linecap:butt;stroke-linejoin:miter;stroke-opacity:1" d="M 746.745,247.4 738.381,250.745 z" id="boundary" inkscape:connector-curvature="0" />
	<path style="fill:none;stroke:red;stroke-width:1px;stroke-linecap:butt;stroke-linejoin:miter;stroke-opacity:1" d="M 604.553,251.582 596.189,251.582 z" id="boundary" inkscape:connector-curvature="0" />
	<path style="fill:none;stroke:red;stroke-width:1px;stroke-linecap:butt;stroke-linejoin:miter;stroke-opacity:1" d="M 755.11,247.4 746.745,247.4 z" id="boundary" inkscape:connector-curvature="0" />
	<path style="fill:none;stroke:red;stroke-width:1px;stroke-linecap:butt;stroke-linejoin:miter;stroke-opacity:1" d="M 731.69,255.764 738.381,250.745 z" id="boundary" inkscape:connector-curvature="0" />
	<path style="fill:none;stroke:red;stroke-width:1px;stroke-linecap:butt;stroke-linejoin:miter;stroke-opacity:1" d="M 596.189,251.582 587.825,250.745 z" id="boundary" inkscape:connector-curvature="0" />
	<path style="fill:none;stroke:red;stroke-width:1px;stroke-linecap:butt;stroke-linejoin:miter;stroke-opacity:1" d="M 612.917,254.927 604.553,251.582 z" id="boundary" inkscape:connector-curvature="0" />
	<path style="fill:none;stroke:red;stroke-width:1px;stroke-linecap:butt;stroke-linejoin:miter;stroke-opacity:1" d="M 724.162,259.946 731.69,255.764 z" id="boundary" inkscape:connector-curvature="0" />
	<path style="fill:none;stroke:red;stroke-width:1px;stroke-linecap:butt;stroke-linejoin:miter;stroke-opacity:1" d="M 724.162,259.946 715.798,264.128 z" id="boundary" inkscape:connector-curvature="0" />
	<path style="fill:none;stroke:red;stroke-width:1px;stroke-linecap:butt;stroke-linejoin:miter;stroke-opacity:1" d="M 612.917,254.927 618.772,261.619 z" id="boundary" inkscape:connector-curvature="0" />
	<path style="fill:none;stroke:red;stroke-width:1px;stroke-linecap:butt;stroke-linejoin:miter;stroke-opacity:1" d="M 618.772,261.619 625.464,267.474 z" id="boundary" inkscape:connector-curvature="0" />
	<path style="fill:none;stroke:red;stroke-width:1px;stroke-linecap:butt;stroke-linejoin:miter;stroke-opacity:1" d="M 632.155,272.492 639.683,276.675 z" id="boundary" inkscape:connector-curvature="0" />
	<path style="fill:none;stroke:red;stroke-width:1px;stroke-linecap:butt;stroke-linejoin:miter;stroke-opacity:1" d="M 639.683,276.675 644.702,283.366 z" id="boundary" inkscape:connector-curvature="0" />
	<path style="fill:none;stroke:red;stroke-width:1px;stroke-linecap:butt;stroke-linejoin:miter;stroke-opacity:1" d="M 632.155,272.492 625.464,267.474 z" id="boundary" inkscape:connector-curvature="0" />
	<path style="fill:none;stroke:red;stroke-width:1px;stroke-linecap:butt;stroke-linejoin:miter;stroke-opacity:1" d="M 644.702,283.366 653.066,285.039 z" id="boundary" inkscape:connector-curvature="0" />
	<path style="fill:none;stroke:red;stroke-width:1px;stroke-linecap:butt;stroke-linejoin:miter;stroke-opacity:1" d="M 677.322,286.712 668.958,289.221 z" id="boundary" inkscape:connector-curvature="0" />
	<path style="fill:none;stroke:red;stroke-width:1px;stroke-linecap:butt;stroke-linejoin:miter;stroke-opacity:1" d="M 668.958,289.221 661.43,285.039 z" id="boundary" inkscape:connector-curvature="0" />
	<path style="fill:none;stroke:red;stroke-width:1px;stroke-linecap:butt;stroke-linejoin:miter;stroke-opacity:1" d="M 653.066,285.039 661.43,285.039 z" id="boundary" inkscape:connector-curvature="0" />
	<path style="fill:none;stroke:red;stroke-width:1px;stroke-linecap:butt;stroke-linejoin:miter;stroke-opacity:1" d="M 700.742,275.838 707.433,268.31 z" id="boundary" inkscape:connector-curvature="0" />
	<path style="fill:none;stroke:red;stroke-width:1px;stroke-linecap:butt;stroke-linejoin:miter;stroke-opacity:1" d="M 700.742,275.838 693.214,280.857 z" id="boundary" inkscape:connector-curvature="0" />
	<path style="fill:none;stroke:red;stroke-width:1px;stroke-linecap:butt;stroke-linejoin:miter;stroke-opacity:1" d="M 752.6,274.165 748.418,286.712 z" id="boundary" inkscape:connector-curvature="0" />
	<path style="fill:none;stroke:red;stroke-width:1px;stroke-linecap:butt;stroke-linejoin:miter;stroke-opacity:1" d="M 756.782,265.801 752.6,274.165 z" id="boundary" inkscape:connector-curvature="0" />
	<path style="fill:none;stroke:red;stroke-width:1px;stroke-linecap:butt;stroke-linejoin:miter;stroke-opacity:1" d="M 707.433,268.31 715.798,264.128 z" id="boundary" inkscape:connector-curvature="0" />
	<path style="fill:none;stroke:red;stroke-width:1px;stroke-linecap:butt;stroke-linejoin:miter;stroke-opacity:1" d="M 685.686,285.039 693.214,280.857 z" id="boundary" inkscape:connector-curvature="0" />
	<path style="fill:none;stroke:red;stroke-width:1px;stroke-linecap:butt;stroke-linejoin:miter;stroke-opacity:1" d="M 685.686,285.039 677.322,286.712 z" id="boundary" inkscape:connector-curvature="0" />
	<path style="fill:none;stroke:red;stroke-width:1px;stroke-linecap:butt;stroke-linejoin:miter;stroke-opacity:1" d="M 753.437,301.767 748.418,295.076 z" id="boundary" inkscape:connector-curvature="0" />
	<path style="fill:none;stroke:red;stroke-width:1px;stroke-linecap:butt;stroke-linejoin:miter;stroke-opacity:1" d="M 748.418,295.076 748.418,286.712 z" id="boundary" inkscape:connector-curvature="0" />
	<path style="fill:none;stroke:red;stroke-width:1px;stroke-linecap:butt;stroke-linejoin:miter;stroke-opacity:1" d="M 753.437,301.767 756.782,311.804 z" id="boundary" inkscape:connector-curvature="0" />
	<path style="fill:none;stroke:red;stroke-width:1px;stroke-linecap:butt;stroke-linejoin:miter;stroke-opacity:1" d="M 763.474,259.11 756.782,265.801 z" id="boundary" inkscape:connector-curvature="0" />
	<path style="fill:none;stroke:red;stroke-width:1px;stroke-linecap:butt;stroke-linejoin:miter;stroke-opacity:1" d="M 884.755,225.653 893.12,222.307 z" id="boundary" inkscape:connector-curvature="0" />
	<path style="fill:none;stroke:red;stroke-width:1px;stroke-linecap:butt;stroke-linejoin:miter;stroke-opacity:1" d="M 900.648,218.125 893.12,222.307 z" id="boundary" inkscape:connector-curvature="0" />
	<path style="fill:none;stroke:red;stroke-width:1px;stroke-linecap:butt;stroke-linejoin:miter;stroke-opacity:1" d="M 900.648,218.125 908.175,213.943 z" id="boundary" inkscape:connector-curvature="0" />
	<path style="fill:none;stroke:red;stroke-width:1px;stroke-linecap:butt;stroke-linejoin:miter;stroke-opacity:1" d="M 908.175,213.943 916.54,213.943 z" id="boundary" inkscape:connector-curvature="0" />
	<path style="fill:none;stroke:red;stroke-width:1px;stroke-linecap:butt;stroke-linejoin:miter;stroke-opacity:1" d="M 884.755,225.653 876.391,226.489 z" id="boundary" inkscape:connector-curvature="0" />
	<path style="fill:none;stroke:red;stroke-width:1px;stroke-linecap:butt;stroke-linejoin:miter;stroke-opacity:1" d="M 835.406,234.853 827.042,234.853 z" id="boundary" inkscape:connector-curvature="0" />
	<path style="fill:none;stroke:red;stroke-width:1px;stroke-linecap:butt;stroke-linejoin:miter;stroke-opacity:1" d="M 876.391,226.489 868.027,229.835 z" id="boundary" inkscape:connector-curvature="0" />
	<path style="fill:none;stroke:red;stroke-width:1px;stroke-linecap:butt;stroke-linejoin:miter;stroke-opacity:1" d="M 868.027,229.835 859.663,230.671 z" id="boundary" inkscape:connector-curvature="0" />
	<path style="fill:none;stroke:red;stroke-width:1px;stroke-linecap:butt;stroke-linejoin:miter;stroke-opacity:1" d="M 859.663,230.671 851.298,230.671 z" id="boundary" inkscape:connector-curvature="0" />
	<path style="fill:none;stroke:red;stroke-width:1px;stroke-linecap:butt;stroke-linejoin:miter;stroke-opacity:1" d="M 843.771,234.853 851.298,230.671 z" id="boundary" inkscape:connector-curvature="0" />
	<path style="fill:none;stroke:red;stroke-width:1px;stroke-linecap:butt;stroke-linejoin:miter;stroke-opacity:1" d="M 956.688,201.396 948.324,201.396 z" id="boundary" inkscape:connector-curvature="0" />
	<path style="fill:none;stroke:red;stroke-width:1px;stroke-linecap:butt;stroke-linejoin:miter;stroke-opacity:1" d="M 958.361,193.032 956.688,201.396 z" id="boundary" inkscape:connector-curvature="0" />
	<path style="fill:none;stroke:red;stroke-width:1px;stroke-linecap:butt;stroke-linejoin:miter;stroke-opacity:1" d="M 958.361,193.032 966.725,188.85 z" id="boundary" inkscape:connector-curvature="0" />
	<path style="fill:none;stroke:red;stroke-width:1px;stroke-linecap:butt;stroke-linejoin:miter;stroke-opacity:1" d="M 966.725,188.85 975.089,184.668 z" id="boundary" inkscape:connector-curvature="0" />
	<path style="fill:none;stroke:red;stroke-width:1px;stroke-linecap:butt;stroke-linejoin:miter;stroke-opacity:1" d="M 916.54,213.943 924.067,209.761 z" id="boundary" inkscape:connector-curvature="0" />
	<path style="fill:none;stroke:red;stroke-width:1px;stroke-linecap:butt;stroke-linejoin:miter;stroke-opacity:1" d="M 924.067,209.761 932.432,207.251 z" id="boundary" inkscape:connector-curvature="0" />
	<path style="fill:none;stroke:red;stroke-width:1px;stroke-linecap:butt;stroke-linejoin:miter;stroke-opacity:1" d="M 948.324,201.396 940.796,205.578 z" id="boundary" inkscape:connector-curvature="0" />
	<path style="fill:none;stroke:red;stroke-width:1px;stroke-linecap:butt;stroke-linejoin:miter;stroke-opacity:1" d="M 940.796,205.578 932.432,207.251 z" id="boundary" inkscape:connector-curvature="0" />
	<path style="fill:none;stroke:red;stroke-width:1px;stroke-linecap:butt;stroke-linejoin:miter;stroke-opacity:1" d="M 975.089,184.668 981.781,178.813 z" id="boundary" inkscape:connector-curvature="0" />
	<path style="fill:none;stroke:red;stroke-width:1px;stroke-linecap:butt;stroke-linejoin:miter;stroke-opacity:1" d="M 786.894,293.403 782.712,305.949 z" id="boundary" inkscape:connector-curvature="0" />
	<path style="fill:none;stroke:red;stroke-width:1px;stroke-linecap:butt;stroke-linejoin:miter;stroke-opacity:1" d="M 763.474,259.11 763.474,247.4 z" id="boundary" inkscape:connector-curvature="0" />
	<path style="fill:none;stroke:red;stroke-width:1px;stroke-linecap:butt;stroke-linejoin:miter;stroke-opacity:1" d="M 782.712,305.949 778.53,314.314 z" id="boundary" inkscape:connector-curvature="0" />
	<path style="fill:none;stroke:red;stroke-width:1px;stroke-linecap:butt;stroke-linejoin:miter;stroke-opacity:1" d="M 756.782,311.804 760.965,319.332 z" id="boundary" inkscape:connector-curvature="0" />
	<path style="fill:none;stroke:red;stroke-width:1px;stroke-linecap:butt;stroke-linejoin:miter;stroke-opacity:1" d="M 775.184,322.678 766.82,326.024 z" id="boundary" inkscape:connector-curvature="0" />
	<path style="fill:none;stroke:red;stroke-width:1px;stroke-linecap:butt;stroke-linejoin:miter;stroke-opacity:1" d="M 766.82,326.024 760.965,319.332 z" id="boundary" inkscape:connector-curvature="0" />
	<path style="fill:none;stroke:red;stroke-width:1px;stroke-linecap:butt;stroke-linejoin:miter;stroke-opacity:1" d="M 778.53,314.314 775.184,322.678 z" id="boundary" inkscape:connector-curvature="0" />
	<path style="fill:none;stroke:red;stroke-width:1px;stroke-linecap:butt;stroke-linejoin:miter;stroke-opacity:1" d="M 755.11,247.4 763.474,247.4 z" id="boundary" inkscape:connector-curvature="0" />
	<path style="fill:none;stroke:red;stroke-width:1px;stroke-linecap:butt;stroke-linejoin:miter;stroke-opacity:1" d="M 799.44,251.582 803.622,243.218 z" id="boundary" inkscape:connector-curvature="0" />
	<path style="fill:none;stroke:red;stroke-width:1px;stroke-linecap:butt;stroke-linejoin:miter;stroke-opacity:1" d="M 803.622,243.218 811.15,239.035 z" id="boundary" inkscape:connector-curvature="0" />
	<path style="fill:none;stroke:red;stroke-width:1px;stroke-linecap:butt;stroke-linejoin:miter;stroke-opacity:1" d="M 819.514,239.035 811.15,239.035 z" id="boundary" inkscape:connector-curvature="0" />
	<path style="fill:none;stroke:red;stroke-width:1px;stroke-linecap:butt;stroke-linejoin:miter;stroke-opacity:1" d="M 827.042,234.853 819.514,239.035 z" id="boundary" inkscape:connector-curvature="0" />
	<path style="fill:none;stroke:red;stroke-width:1px;stroke-linecap:butt;stroke-linejoin:miter;stroke-opacity:1" d="M 843.771,234.853 835.406,234.853 z" id="boundary" inkscape:connector-curvature="0" />
	<path style="fill:none;stroke:red;stroke-width:1px;stroke-linecap:butt;stroke-linejoin:miter;stroke-opacity:1" d="M 791.076,276.675 791.076,285.039 z" id="boundary" inkscape:connector-curvature="0" />
	<path style="fill:none;stroke:red;stroke-width:1px;stroke-linecap:butt;stroke-linejoin:miter;stroke-opacity:1" d="M 791.076,285.039 786.894,293.403 z" id="boundary" inkscape:connector-curvature="0" />
	<path style="fill:none;stroke:red;stroke-width:1px;stroke-linecap:butt;stroke-linejoin:miter;stroke-opacity:1" d="M 795.258,264.128 799.44,251.582 z" id="boundary" inkscape:connector-curvature="0" />
	<path style="fill:none;stroke:red;stroke-width:1px;stroke-linecap:butt;stroke-linejoin:miter;stroke-opacity:1" d="M 791.076,276.675 795.258,264.128 z" id="boundary" inkscape:connector-curvature="0" />
	<circle cx="4" cy="136.155" r="4" fill="#0" id="circle0"/>
	<circle cx="4" cy="144.519" r="4" fill="#0" id="circle1"/>
	<circle cx="4" cy="152.884" r="4" fill="#0" id="circle2"/>
	<circle cx="4" cy="161.248" r="4" fill="#0" id="circle3"/>
	<circle cx="4" cy="169.612" r="4" fill="#0" id="circle4"/>
	<circle cx="4" cy="177.976" r="4" fill="#0" id="circle5"/>
	<circle cx="4" cy="186.341" r="4" fill="#0" id="circle6"/>
	<circle cx="8.18212" cy="127.791" r="4" fill="#0" id="circle7"/>
	<circle cx="8.18212" cy="193.868" r="4" fill="#0" id="circle8"/>
	<circle cx="12.3642" cy="201.396" r="4" fill="#0" id="circle9"/>
	<circle cx="14.8735" cy="121.099" r="4" fill="#0" id="circle10"/>
	<circle cx="16.5464" cy="111.062" r="4" fill="#0" id="circle11"/>
	<circle cx="17.3828" cy="208.088" r="4" fill="#0" id="circle12"/>
	<circle cx="21.5649" cy="215.616" r="4" fill="#0" id="circle13"/>
	<circle cx="23.2378" cy="104.371" r="4" fill="#0" id="circle14"/>
	<circle cx="24.9106" cy="223.98" r="4" fill="#0" id="circle15"/>
	<circle cx="29.0927" cy="94.3339" r="4" fill="#0" id="circle16"/>
	<circle cx="33.2749" cy="226.489" r="4" fill="#0" id="circle17"/>
	<circle cx="35.7841" cy="87.6425" r="4" fill="#0" id="circle18"/>
	<circle cx="40.8027" cy="230.671" r="4" fill="#0" id="circle19"/>
	<circle cx="44.1484" cy="87.6425" r="4" fill="#0" id="circle20"/>
	<circle cx="48.3305" cy="226.489" r="4" fill="#0" id="circle21"/>
	<circle cx="52.5126" cy="87.6425" r="4" fill="#0" id="circle22"/>
	<circle cx="56.6948" cy="226.489" r="4" fill="#0" id="circle23"/>
	<circle cx="60.0405" cy="91.8246" r="4" fill="#0" id="circle24"/>
	<circle cx="65.059" cy="225.653" r="4" fill="#0" id="circle25"/>
	<circle cx="67.5683" cy="96.0067" r="4" fill="#0" id="circle26"/>
	<circle cx="73.4233" cy="221.47" r="4" fill="#0" id="circle27"/>
	<circle cx="75.9325" cy="98.516" r="4" fill="#0" id="circle28"/>
	<circle cx="81.7875" cy="218.125" r="4" fill="#0" id="circle29"/>
	<circle cx="84.2968" cy="100.189" r="4" fill="#0" id="circle30"/>
	<circle cx="89.3153" cy="213.943" r="4" fill="#0" id="circle31"/>
	<circle cx="92.661" cy="100.189" r="4" fill="#0" id="circle32"/>
	<circle cx="97.6796" cy="213.943" r="4" fill="#0" id="circle33"/>
	<circle cx="100.189" cy="104.371" r="4" fill="#0" id="circle34"/>
	<circle cx="106.044" cy="213.943" r="4" fill="#0" id="circle35"/>
	<circle cx="108.553" cy="104.371" r="4" fill="#0" id="circle36"/>
	<circle cx="113.572" cy="209.761" r="4" fill="#0" id="circle37"/>
	<circle cx="116.917" cy="106.044" r="4" fill="#0" id="circle38"/>
	<circle cx="121.936" cy="209.761" r="4" fill="#0" id="circle39"/>
	<circle cx="125.282" cy="108.553" r="4" fill="#0" id="circle40"/>
	<circle cx="130.3" cy="209.761" r="4" fill="#0" id="circle41"/>
	<circle cx="133.646" cy="110.226" r="4" fill="#0" id="circle42"/>
	<circle cx="137.828" cy="205.578" r="4" fill="#0" id="circle43"/>
	<circle cx="141.174" cy="114.408" r="4" fill="#0" id="circle44"/>
	<circle cx="146.192" cy="205.578" r="4" fill="#0" id="circle45"/>
	<circle cx="149.538" cy="117.754" r="4" fill="#0" id="circle46"/>
	<circle cx="153.72" cy="201.396" r="4" fill="#0" id="circle47"/>
	<circle cx="157.902" cy="121.099" r="4" fill="#0" id="circle48"/>
	<circle cx="161.248" cy="205.578" r="4" fill="#0" id="circle49"/>
	<circle cx="162.921" cy="232.344" r="4" fill="#0" id="circle50"/>
	<circle cx="162.921" cy="240.708" r="4" fill="#0" id="circle51"/>
	<circle cx="166.266" cy="121.099" r="4" fill="#0" id="circle52"/>
	<circle cx="167.939" cy="247.4" r="4" fill="#0" id="circle53"/>
	<circle cx="169.612" cy="205.578" r="4" fill="#0" id="circle54"/>
	<circle cx="171.285" cy="219.798" r="4" fill="#0" id="circle55"/>
	<circle cx="171.285" cy="228.162" r="4" fill="#0" id="circle56"/>
	<circle cx="174.631" cy="121.099" r="4" fill="#0" id="circle57"/>
	<circle cx="175.467" cy="212.27" r="4" fill="#0" id="circle58"/>
	<circle cx="176.304" cy="249.073" r="4" fill="#0" id="circle59"/>
	<circle cx="179.649" cy="69.2411" r="4" fill="#0" id="circle60"/>
	<circle cx="179.649" cy="77.6054" r="4" fill="#0" id="circle61"/>
	<circle cx="179.649" cy="111.062" r="4" fill="#0" id="circle62"/>
	<circle cx="183.831" cy="85.1332" r="4" fill="#0" id="circle63"/>
	<circle cx="183.831" cy="93.4975" r="4" fill="#0" id="circle64"/>
	<circle cx="183.831" cy="101.862" r="4" fill="#0" id="circle65"/>
	<circle cx="184.668" cy="251.582" r="4" fill="#0" id="circle66"/>
	<circle cx="188.013" cy="66.7319" r="4" fill="#0" id="circle67"/>
	<circle cx="192.196" cy="255.764" r="4" fill="#0" id="circle68"/>
	<circle cx="196.378" cy="65.059" r="4" fill="#0" id="circle69"/>
	<circle cx="200.56" cy="255.764" r="4" fill="#0" id="circle70"/>
	<circle cx="204.742" cy="62.5497" r="4" fill="#0" id="circle71"/>
	<circle cx="208.924" cy="255.764" r="4" fill="#0" id="circle72"/>
	<circle cx="213.106" cy="62.5497" r="4" fill="#0" id="circle73"/>
	<circle cx="217.288" cy="255.764" r="4" fill="#0" id="circle74"/>
	<circle cx="221.47" cy="60.8769" r="4" fill="#0" id="circle75"/>
	<circle cx="224.816" cy="259.946" r="4" fill="#0" id="circle76"/>
	<circle cx="229.835" cy="58.3676" r="4" fill="#0" id="circle77"/>
	<circle cx="233.18" cy="259.946" r="4" fill="#0" id="circle78"/>
	<circle cx="238.199" cy="58.3676" r="4" fill="#0" id="circle79"/>
	<circle cx="241.545" cy="259.946" r="4" fill="#0" id="circle80"/>
	<circle cx="245.727" cy="54.1855" r="4" fill="#0" id="circle81"/>
	<circle cx="249.909" cy="259.946" r="4" fill="#0" id="circle82"/>
	<circle cx="254.091" cy="54.1855" r="4" fill="#0" id="circle83"/>
	<circle cx="257.437" cy="264.128" r="4" fill="#0" id="circle84"/>
	<circle cx="261.619" cy="50.0034" r="4" fill="#0" id="circle85"/>
	<circle cx="265.801" cy="264.128" r="4" fill="#0" id="circle86"/>
	<circle cx="269.983" cy="45.8212" r="4" fill="#0" id="circle87"/>
	<circle cx="274.165" cy="267.474" r="4" fill="#0" id="circle88"/>
	<circle cx="278.347" cy="45.8212" r="4" fill="#0" id="circle89"/>
	<circle cx="282.53" cy="268.31" r="4" fill="#0" id="circle90"/>
	<circle cx="286.712" cy="45.8212" r="4" fill="#0" id="circle91"/>
	<circle cx="290.894" cy="268.31" r="4" fill="#0" id="circle92"/>
	<circle cx="295.076" cy="45.8212" r="4" fill="#0" id="circle93"/>
	<circle cx="299.258" cy="268.31" r="4" fill="#0" id="circle94"/>
	<circle cx="303.44" cy="41.6391" r="4" fill="#0" id="circle95"/>
	<circle cx="307.622" cy="268.31" r="4" fill="#0" id="circle96"/>
	<circle cx="311.804" cy="41.6391" r="4" fill="#0" id="circle97"/>
	<circle cx="315.987" cy="268.31" r="4" fill="#0" id="circle98"/>
	<circle cx="320.169" cy="41.6391" r="4" fill="#0" id="circle99"/>
	<circle cx="323.514" cy="272.492" r="4" fill="#0" id="circle100"/>
	<circle cx="328.533" cy="37.457" r="4" fill="#0" id="circle101"/>
	<circle cx="331.879" cy="272.492" r="4" fill="#0" id="circle102"/>
	<circle cx="336.897" cy="37.457" r="4" fill="#0" id="circle103"/>
	<circle cx="340.243" cy="272.492" r="4" fill="#0" id="circle104"/>
	<circle cx="345.261" cy="37.457" r="4" fill="#0" id="circle105"/>
	<circle cx="348.607" cy="272.492" r="4" fill="#0" id="circle106"/>
	<circle cx="353.626" cy="37.457" r="4" fill="#0" id="circle107"/>
	<circle cx="356.971" cy="272.492" r="4" fill="#0" id="circle108"/>
	<circle cx="361.99" cy="33.2749" r="4" fill="#0" id="circle109"/>
	<circle cx="365.336" cy="272.492" r="4" fill="#0" id="circle110"/>
	<circle cx="370.354" cy="33.2749" r="4" fill="#0" id="circle111"/>
	<circle cx="373.7" cy="272.492" r="4" fill="#0" id="circle112"/>
	<circle cx="378.718" cy="33.2749" r="4" fill="#0" id="circle113"/>
	<circle cx="382.064" cy="272.492" r="4" fill="#0" id="circle114"/>
	<circle cx="387.083" cy="33.2749" r="4" fill="#0" id="circle115"/>
	<circle cx="390.428" cy="272.492" r="4" fill="#0" id="circle116"/>
	<circle cx="394.61" cy="29.0927" r="4" fill="#0" id="circle117"/>
	<circle cx="398.793" cy="272.492" r="4" fill="#0" id="circle118"/>
	<circle cx="402.975" cy="29.0927" r="4" fill="#0" id="circle119"/>
	<circle cx="407.157" cy="272.492" r="4" fill="#0" id="circle120"/>
	<circle cx="411.339" cy="29.0927" r="4" fill="#0" id="circle121"/>
	<circle cx="415.521" cy="272.492" r="4" fill="#0" id="circle122"/>
	<circle cx="419.703" cy="29.0927" r="4" fill="#0" id="circle123"/>
	<circle cx="423.049" cy="268.31" r="4" fill="#0" id="circle124"/>
	<circle cx="427.231" cy="24.9106" r="4" fill="#0" id="circle125"/>
	<circle cx="431.413" cy="268.31" r="4" fill="#0" id="circle126"/>
	<circle cx="435.595" cy="24.9106" r="4" fill="#0" id="circle127"/>
	<circle cx="439.777" cy="268.31" r="4" fill="#0" id="circle128"/>
	<circle cx="443.96" cy="24.9106" r="4" fill="#0" id="circle129"/>
	<circle cx="447.305" cy="264.128" r="4" fill="#0" id="circle130"/>
	<circle cx="451.487" cy="29.0927" r="4" fill="#0" id="circle131"/>
	<circle cx="454.833" cy="259.946" r="4" fill="#0" id="circle132"/>
	<circle cx="459.852" cy="30.7656" r="4" fill="#0" id="circle133"/>
	<circle cx="463.197" cy="258.273" r="4" fill="#0" id="circle134"/>
	<circle cx="467.379" cy="34.9477" r="4" fill="#0" id="circle135"/>
	<circle cx="471.562" cy="254.091" r="4" fill="#0" id="circle136"/>
	<circle cx="475.744" cy="37.457" r="4" fill="#0" id="circle137"/>
	<circle cx="479.926" cy="251.582" r="4" fill="#0" id="circle138"/>
	<circle cx="483.272" cy="41.6391" r="4" fill="#0" id="circle139"/>
	<circle cx="487.454" cy="247.4" r="4" fill="#0" id="circle140"/>
	<circle cx="491.636" cy="41.6391" r="4" fill="#0" id="circle141"/>
	<circle cx="495.818" cy="246.563" r="4" fill="#0" id="circle142"/>
	<circle cx="500" cy="41.6391" r="4" fill="#0" id="circle143"/>
	<circle cx="504.182" cy="243.218" r="4" fill="#0" id="circle144"/>
	<circle cx="508.364" cy="37.457" r="4" fill="#0" id="circle145"/>
	<circle cx="512.546" cy="243.218" r="4" fill="#0" id="circle146"/>
	<circle cx="516.728" cy="37.457" r="4" fill="#0" id="circle147"/>
	<circle cx="520.911" cy="246.563" r="4" fill="#0" id="circle148"/>
	<circle cx="524.256" cy="33.2749" r="4" fill="#0" id="circle149"/>
	<circle cx="529.275" cy="247.4" r="4" fill="#0" id="circle150"/>
	<circle cx="531.784" cy="29.0927" r="4" fill="#0" id="circle151"/>
	<circle cx="537.639" cy="247.4" r="4" fill="#0" id="circle152"/>
	<circle cx="540.148" cy="26.5835" r="4" fill="#0" id="circle153"/>
	<circle cx="546.003" cy="247.4" r="4" fill="#0" id="circle154"/>
	<circle cx="548.513" cy="24.9106" r="4" fill="#0" id="circle155"/>
	<circle cx="554.368" cy="247.4" r="4" fill="#0" id="circle156"/>
	<circle cx="556.877" cy="24.9106" r="4" fill="#0" id="circle157"/>
	<circle cx="562.732" cy="247.4" r="4" fill="#0" id="circle158"/>
	<circle cx="565.241" cy="24.9106" r="4" fill="#0" id="circle159"/>
	<circle cx="571.096" cy="247.4" r="4" fill="#0" id="circle160"/>
	<circle cx="573.605" cy="24.9106" r="4" fill="#0" id="circle161"/>
	<circle cx="579.46" cy="247.4" r="4" fill="#0" id="circle162"/>
	<circle cx="581.133" cy="20.7285" r="4" fill="#0" id="circle163"/>
	<circle cx="587.825" cy="250.745" r="4" fill="#0" id="circle164"/>
	<circle cx="589.497" cy="20.7285" r="4" fill="#0" id="circle165"/>
	<circle cx="596.189" cy="251.582" r="4" fill="#0" id="circle166"/>
	<circle cx="597.862" cy="20.7285" r="4" fill="#0" id="circle167"/>
	<circle cx="604.553" cy="251.582" r="4" fill="#0" id="circle168"/>
	<circle cx="606.226" cy="20.7285" r="4" fill="#0" id="circle169"/>
	<circle cx="612.917" cy="254.927" r="4" fill="#0" id="circle170"/>
	<circle cx="614.59" cy="19.0556" r="4" fill="#0" id="circle171"/>
	<circle cx="618.772" cy="261.619" r="4" fill="#0" id="circle172"/>
	<circle cx="622.954" cy="16.5464" r="4" fill="#0" id="circle173"/>
	<circle cx="625.464" cy="267.474" r="4" fill="#0" id="circle174"/>
	<circle cx="631.319" cy="16.5464" r="4" fill="#0" id="circle175"/>
	<circle cx="632.155" cy="272.492" r="4" fill="#0" id="circle176"/>
	<circle cx="639.683" cy="16.5464" r="4" fill="#0" id="circle177"/>
	<circle cx="639.683" cy="276.675" r="4" fill="#0" id="circle178"/>
	<circle cx="644.702" cy="283.366" r="4" fill="#0" id="circle179"/>
	<circle cx="648.047" cy="14.8735" r="4" fill="#0" id="circle180"/>
	<circle cx="653.066" cy="285.039" r="4" fill="#0" id="circle181"/>
	<circle cx="656.411" cy="12.3642" r="4" fill="#0" id="circle182"/>
	<circle cx="661.43" cy="285.039" r="4" fill="#0" id="circle183"/>
	<circle cx="664.776" cy="12.3642" r="4" fill="#0" id="circle184"/>
	<circle cx="668.958" cy="289.221" r="4" fill="#0" id="circle185"/>
	<circle cx="673.14" cy="10.6914" r="4" fill="#0" id="circle186"/>
	<circle cx="677.322" cy="286.712" r="4" fill="#0" id="circle187"/>
	<circle cx="681.504" cy="8.18212" r="4" fill="#0" id="circle188"/>
	<circle cx="685.686" cy="285.039" r="4" fill="#0" id="circle189"/>
	<circle cx="689.868" cy="8.18212" r="4" fill="#0" id="circle190"/>
	<circle cx="693.214" cy="280.857" r="4" fill="#0" id="circle191"/>
	<circle cx="698.233" cy="8.18212" r="4" fill="#0" id="circle192"/>
	<circle cx="700.742" cy="275.838" r="4" fill="#0" id="circle193"/>
	<circle cx="706.597" cy="8.18212" r="4" fill="#0" id="circle194"/>
	<circle cx="707.433" cy="268.31" r="4" fill="#0" id="circle195"/>
	<circle cx="714.961" cy="8.18212" r="4" fill="#0" id="circle196"/>
	<circle cx="715.798" cy="264.128" r="4" fill="#0" id="circle197"/>
	<circle cx="722.489" cy="4" r="4" fill="#0" id="circle198"/>
	<circle cx="724.162" cy="259.946" r="4" fill="#0" id="circle199"/>
	<circle cx="730.853" cy="4" r="4" fill="#0" id="circle200"/>
	<circle cx="731.69" cy="255.764" r="4" fill="#0" id="circle201"/>
	<circle cx="738.381" cy="8.18212" r="4" fill="#0" id="circle202"/>
	<circle cx="738.381" cy="250.745" r="4" fill="#0" id="circle203"/>
	<circle cx="745.909" cy="12.3642" r="4" fill="#0" id="circle204"/>
	<circle cx="746.745" cy="247.4" r="4" fill="#0" id="circle205"/>
	<circle cx="748.418" cy="286.712" r="4" fill="#0" id="circle206"/>
	<circle cx="748.418" cy="295.076" r="4" fill="#0" id="circle207"/>
	<circle cx="752.6" cy="18.2192" r="4" fill="#0" id="circle208"/>
	<circle cx="752.6" cy="274.165" r="4" fill="#0" id="circle209"/>
	<circle cx="753.437" cy="26.5835" r="4" fill="#0" id="circle210"/>
	<circle cx="753.437" cy="301.767" r="4" fill="#0" id="circle211"/>
	<circle cx="755.11" cy="247.4" r="4" fill="#0" id="circle212"/>
	<circle cx="756.782" cy="265.801" r="4" fill="#0" id="circle213"/>
	<circle cx="756.782" cy="311.804" r="4" fill="#0" id="circle214"/>
	<circle cx="757.619" cy="34.1113" r="4" fill="#0" id="circle215"/>
	<circle cx="759.292" cy="42.4755" r="4" fill="#0" id="circle216"/>
	<circle cx="760.965" cy="297.585" r="4" fill="#0" id="circle217"/>
	<circle cx="760.965" cy="319.332" r="4" fill="#0" id="circle218"/>
	<circle cx="763.474" cy="247.4" r="4" fill="#0" id="circle219"/>
	<circle cx="763.474" cy="259.11" r="4" fill="#0" id="circle220"/>
	<circle cx="765.983" cy="48.3305" r="4" fill="#0" id="circle221"/>
	<circle cx="766.82" cy="326.024" r="4" fill="#0" id="circle222"/>
	<circle cx="769.329" cy="56.6948" r="4" fill="#0" id="circle223"/>
	<circle cx="775.184" cy="322.678" r="4" fill="#0" id="circle224"/>
	<circle cx="776.02" cy="62.5497" r="4" fill="#0" id="circle225"/>
	<circle cx="778.53" cy="314.314" r="4" fill="#0" id="circle226"/>
	<circle cx="782.712" cy="305.949" r="4" fill="#0" id="circle227"/>
	<circle cx="784.384" cy="62.5497" r="4" fill="#0" id="circle228"/>
	<circle cx="786.894" cy="293.403" r="4" fill="#0" id="circle229"/>
	<circle cx="791.076" cy="276.675" r="4" fill="#0" id="circle230"/>
	<circle cx="791.076" cy="285.039" r="4" fill="#0" id="circle231"/>
	<circle cx="792.749" cy="62.5497" r="4" fill="#0" id="circle232"/>
	<circle cx="795.258" cy="264.128" r="4" fill="#0" id="circle233"/>
	<circle cx="799.44" cy="251.582" r="4" fill="#0" id="circle234"/>
	<circle cx="801.113" cy="62.5497" r="4" fill="#0" id="circle235"/>
	<circle cx="803.622" cy="243.218" r="4" fill="#0" id="circle236"/>
	<circle cx="809.477" cy="62.5497" r="4" fill="#0" id="circle237"/>
	<circle cx="811.15" cy="239.035" r="4" fill="#0" id="circle238"/>
	<circle cx="817.841" cy="62.5497" r="4" fill="#0" id="circle239"/>
	<circle cx="819.514" cy="239.035" r="4" fill="#0" id="circle240"/>
	<circle cx="826.206" cy="62.5497" r="4" fill="#0" id="circle241"/>
	<circle cx="827.042" cy="234.853" r="4" fill="#0" id="circle242"/>
	<circle cx="834.57" cy="62.5497" r="4" fill="#0" id="circle243"/>
	<circle cx="835.406" cy="234.853" r="4" fill="#0" id="circle244"/>
	<circle cx="842.934" cy="58.3676" r="4" fill="#0" id="circle245"/>
	<circle cx="843.771" cy="234.853" r="4" fill="#0" id="circle246"/>
	<circle cx="851.298" cy="58.3676" r="4" fill="#0" id="circle247"/>
	<circle cx="851.298" cy="230.671" r="4" fill="#0" id="circle248"/>
	<circle cx="859.663" cy="58.3676" r="4" fill="#0" id="circle249"/>
	<circle cx="859.663" cy="230.671" r="4" fill="#0" id="circle250"/>
	<circle cx="868.027" cy="58.3676" r="4" fill="#0" id="circle251"/>
	<circle cx="868.027" cy="229.835" r="4" fill="#0" id="circle252"/>
	<circle cx="876.391" cy="58.3676" r="4" fill="#0" id="circle253"/>
	<circle cx="876.391" cy="226.489" r="4" fill="#0" id="circle254"/>
	<circle cx="884.755" cy="58.3676" r="4" fill="#0" id="circle255"/>
	<circle cx="884.755" cy="225.653" r="4" fill="#0" id="circle256"/>
	<circle cx="891.447" cy="51.6762" r="4" fill="#0" id="circle257"/>
	<circle cx="893.12" cy="222.307" r="4" fill="#0" id="circle258"/>
	<circle cx="898.138" cy="45.8212" r="4" fill="#0" id="circle259"/>
	<circle cx="900.648" cy="218.125" r="4" fill="#0" id="circle260"/>
	<circle cx="906.503" cy="45.8212" r="4" fill="#0" id="circle261"/>
	<circle cx="908.175" cy="213.943" r="4" fill="#0" id="circle262"/>
	<circle cx="914.03" cy="41.6391" r="4" fill="#0" id="circle263"/>
	<circle cx="916.54" cy="213.943" r="4" fill="#0" id="circle264"/>
	<circle cx="921.558" cy="45.8212" r="4" fill="#0" id="circle265"/>
	<circle cx="924.067" cy="209.761" r="4" fill="#0" id="circle266"/>
	<circle cx="929.922" cy="45.8212" r="4" fill="#0" id="circle267"/>
	<circle cx="932.432" cy="207.251" r="4" fill="#0" id="circle268"/>
	<circle cx="937.45" cy="50.0034" r="4" fill="#0" id="circle269"/>
	<circle cx="940.796" cy="205.578" r="4" fill="#0" id="circle270"/>
	<circle cx="941.632" cy="57.5312" r="4" fill="#0" id="circle271"/>
	<circle cx="945.815" cy="65.059" r="4" fill="#0" id="circle272"/>
	<circle cx="948.324" cy="201.396" r="4" fill="#0" id="circle273"/>
	<circle cx="951.669" cy="71.7504" r="4" fill="#0" id="circle274"/>
	<circle cx="955.852" cy="79.2782" r="4" fill="#0" id="circle275"/>
	<circle cx="956.688" cy="201.396" r="4" fill="#0" id="circle276"/>
	<circle cx="958.361" cy="193.032" r="4" fill="#0" id="circle277"/>
	<circle cx="961.707" cy="85.9696" r="4" fill="#0" id="circle278"/>
	<circle cx="962.543" cy="94.3339" r="4" fill="#0" id="circle279"/>
	<circle cx="966.725" cy="188.85" r="4" fill="#0" id="circle280"/>
	<circle cx="968.398" cy="101.025" r="4" fill="#0" id="circle281"/>
	<circle cx="972.58" cy="108.553" r="4" fill="#0" id="circle282"/>
	<circle cx="975.089" cy="116.917" r="4" fill="#0" id="circle283"/>
	<circle cx="975.089" cy="184.668" r="4" fill="#0" id="circle284"/>
	<circle cx="979.272" cy="124.445" r="4" fill="#0" id="circle285"/>
	<circle cx="981.781" cy="178.813" r="4" fill="#0" id="circle286"/>
	<circle cx="985.963" cy="130.3" r="4" fill="#0" id="circle287"/>
	<circle cx="987.636" cy="172.121" r="4" fill="#0" id="circle288"/>
	<circle cx="989.309" cy="138.664" r="4" fill="#0" id="circle289"/>
	<circle cx="993.491" cy="146.192" r="4" fill="#0" id="circle290"/>
	<circle cx="994.327" cy="166.266" r="4" fill="#0" id="circle291"/>
	<circle cx="996" cy="154.556" r="4" fill="#0" id="circle292"/>
	</g>
</svg>