<?xml version="1.0" encoding="UTF-8" standalone="no"?>
<!-- Created with CurveBenchmark -->
<svg
	xmlns:dc="http://purl.org/dc/elements/1.1/"
	xmlns:cc="http://creativecommons.org/ns#"
	xmlns:rdf="http://www.w3.org/1999/02/22-rdf-syntax-ns#"
	xmlns:svg="http://www.w3.org/2000/svg"
	xmlns="http://www.w3.org/2000/svg"
	xmlns:sodipodi="http://sodipodi.sourceforge.net/DTD/sodipodi-0.dtd"
	xmlns:inkscape="http://www.inkscape.org/namespaces/inkscape"
	width="1000"
	height="1000"
	id="svg2"
	version="1.1"
	sodipodi:docname="manifold/gathang-key08.png.txt">
<defs
	id="defs4" />
<metadata
	id="metadata7">
	<rdf:RDF>
		<cc:Work
			rdf:about="">
			<dc:format>image/svg+xml</dc:format>
			<dc:type
				rdf:resource="http://purl.org/dc/dcmitype/StillImage" />
			<dc:title></dc:title>
		</cc:Work>
	</rdf:RDF>
</metadata>
<g
	inkscape:label="Layer 1"
	inkscape:groupmode="layer"
	id="layer1">
	<path style="fill:none;stroke:red;stroke-width:1px;stroke-linecap:butt;stroke-linejoin:miter;stroke-opacity:1" d="M 142.806,46.5672 142.806,65.0746 z" id="boundary" inkscape:connector-curvature="0" />
	<path style="fill:none;stroke:red;stroke-width:1px;stroke-linecap:butt;stroke-linejoin:miter;stroke-opacity:1" d="M 142.806,65.0746 129.851,87.2836 z" id="boundary" inkscape:connector-curvature="0" />
	<path style="fill:none;stroke:red;stroke-width:1px;stroke-linecap:butt;stroke-linejoin:miter;stroke-opacity:1" d="M 142.806,46.5672 161.313,41.0149 z" id="boundary" inkscape:connector-curvature="0" />
	<path style="fill:none;stroke:red;stroke-width:1px;stroke-linecap:butt;stroke-linejoin:miter;stroke-opacity:1" d="M 115.045,102.09 129.851,87.2836 z" id="boundary" inkscape:connector-curvature="0" />
	<path style="fill:none;stroke:red;stroke-width:1px;stroke-linecap:butt;stroke-linejoin:miter;stroke-opacity:1" d="M 111.343,133.552 115.045,102.09 z" id="boundary" inkscape:connector-curvature="0" />
	<path style="fill:none;stroke:red;stroke-width:1px;stroke-linecap:butt;stroke-linejoin:miter;stroke-opacity:1" d="M 177.97,31.7612 194.627,22.5075 z" id="boundary" inkscape:connector-curvature="0" />
	<path style="fill:none;stroke:red;stroke-width:1px;stroke-linecap:butt;stroke-linejoin:miter;stroke-opacity:1" d="M 209.433,7.70149 194.627,22.5075 z" id="boundary" inkscape:connector-curvature="0" />
	<path style="fill:none;stroke:red;stroke-width:1px;stroke-linecap:butt;stroke-linejoin:miter;stroke-opacity:1" d="M 161.313,41.0149 177.97,31.7612 z" id="boundary" inkscape:connector-curvature="0" />
	<path style="fill:none;stroke:red;stroke-width:1px;stroke-linecap:butt;stroke-linejoin:miter;stroke-opacity:1" d="M 28.0597,179.821 44.7164,170.567 z" id="boundary" inkscape:connector-curvature="0" />
	<path style="fill:none;stroke:red;stroke-width:1px;stroke-linecap:butt;stroke-linejoin:miter;stroke-opacity:1" d="M 59.5224,157.612 44.7164,170.567 z" id="boundary" inkscape:connector-curvature="0" />
	<path style="fill:none;stroke:red;stroke-width:1px;stroke-linecap:butt;stroke-linejoin:miter;stroke-opacity:1" d="M 4,222.388 13.2537,194.627 z" id="boundary" inkscape:connector-curvature="0" />
	<path style="fill:none;stroke:red;stroke-width:1px;stroke-linecap:butt;stroke-linejoin:miter;stroke-opacity:1" d="M 13.2537,194.627 28.0597,179.821 z" id="boundary" inkscape:connector-curvature="0" />
	<path style="fill:none;stroke:red;stroke-width:1px;stroke-linecap:butt;stroke-linejoin:miter;stroke-opacity:1" d="M 4,240.896 4,222.388 z" id="boundary" inkscape:connector-curvature="0" />
	<path style="fill:none;stroke:red;stroke-width:1px;stroke-linecap:butt;stroke-linejoin:miter;stroke-opacity:1" d="M 92.8358,133.552 111.343,133.552 z" id="boundary" inkscape:connector-curvature="0" />
	<path style="fill:none;stroke:red;stroke-width:1px;stroke-linecap:butt;stroke-linejoin:miter;stroke-opacity:1" d="M 78.0299,148.358 92.8358,133.552 z" id="boundary" inkscape:connector-curvature="0" />
	<path style="fill:none;stroke:red;stroke-width:1px;stroke-linecap:butt;stroke-linejoin:miter;stroke-opacity:1" d="M 78.0299,148.358 59.5224,157.612 z" id="boundary" inkscape:connector-curvature="0" />
	<path style="fill:none;stroke:red;stroke-width:1px;stroke-linecap:butt;stroke-linejoin:miter;stroke-opacity:1" d="M 242.746,15.1045 255.701,29.9104 z" id="boundary" inkscape:connector-curvature="0" />
	<path style="fill:none;stroke:red;stroke-width:1px;stroke-linecap:butt;stroke-linejoin:miter;stroke-opacity:1" d="M 255.701,29.9104 270.507,42.8657 z" id="boundary" inkscape:connector-curvature="0" />
	<path style="fill:none;stroke:red;stroke-width:1px;stroke-linecap:butt;stroke-linejoin:miter;stroke-opacity:1" d="M 270.507,42.8657 274.209,61.3731 z" id="boundary" inkscape:connector-curvature="0" />
	<path style="fill:none;stroke:red;stroke-width:1px;stroke-linecap:butt;stroke-linejoin:miter;stroke-opacity:1" d="M 355.642,92.8358 337.134,90.9851 z" id="boundary" inkscape:connector-curvature="0" />
	<path style="fill:none;stroke:red;stroke-width:1px;stroke-linecap:butt;stroke-linejoin:miter;stroke-opacity:1" d="M 274.209,61.3731 289.015,72.4776 z" id="boundary" inkscape:connector-curvature="0" />
	<path style="fill:none;stroke:red;stroke-width:1px;stroke-linecap:butt;stroke-linejoin:miter;stroke-opacity:1" d="M 289.015,72.4776 301.97,87.2836 z" id="boundary" inkscape:connector-curvature="0" />
	<path style="fill:none;stroke:red;stroke-width:1px;stroke-linecap:butt;stroke-linejoin:miter;stroke-opacity:1" d="M 337.134,90.9851 318.627,96.5373 z" id="boundary" inkscape:connector-curvature="0" />
	<path style="fill:none;stroke:red;stroke-width:1px;stroke-linecap:butt;stroke-linejoin:miter;stroke-opacity:1" d="M 318.627,96.5373 301.97,87.2836 z" id="boundary" inkscape:connector-curvature="0" />
	<path style="fill:none;stroke:red;stroke-width:1px;stroke-linecap:butt;stroke-linejoin:miter;stroke-opacity:1" d="M 209.433,7.70149 227.94,4 z" id="boundary" inkscape:connector-curvature="0" />
	<path style="fill:none;stroke:red;stroke-width:1px;stroke-linecap:butt;stroke-linejoin:miter;stroke-opacity:1" d="M 227.94,4 242.746,15.1045 z" id="boundary" inkscape:connector-curvature="0" />
	<path style="fill:none;stroke:red;stroke-width:1px;stroke-linecap:butt;stroke-linejoin:miter;stroke-opacity:1" d="M 374.149,100.239 381.552,118.746 z" id="boundary" inkscape:connector-curvature="0" />
	<path style="fill:none;stroke:red;stroke-width:1px;stroke-linecap:butt;stroke-linejoin:miter;stroke-opacity:1" d="M 355.642,92.8358 374.149,100.239 z" id="boundary" inkscape:connector-curvature="0" />
	<path style="fill:none;stroke:red;stroke-width:1px;stroke-linecap:butt;stroke-linejoin:miter;stroke-opacity:1" d="M 400.06,124.299 381.552,118.746 z" id="boundary" inkscape:connector-curvature="0" />
	<path style="fill:none;stroke:red;stroke-width:1px;stroke-linecap:butt;stroke-linejoin:miter;stroke-opacity:1" d="M 400.06,124.299 416.716,115.045 z" id="boundary" inkscape:connector-curvature="0" />
	<path style="fill:none;stroke:red;stroke-width:1px;stroke-linecap:butt;stroke-linejoin:miter;stroke-opacity:1" d="M 416.716,115.045 429.672,129.851 z" id="boundary" inkscape:connector-curvature="0" />
	<path style="fill:none;stroke:red;stroke-width:1px;stroke-linecap:butt;stroke-linejoin:miter;stroke-opacity:1" d="M 429.672,129.851 444.478,142.806 z" id="boundary" inkscape:connector-curvature="0" />
	<path style="fill:none;stroke:red;stroke-width:1px;stroke-linecap:butt;stroke-linejoin:miter;stroke-opacity:1" d="M 4,259.403 4,240.896 z" id="boundary" inkscape:connector-curvature="0" />
	<path style="fill:none;stroke:red;stroke-width:1px;stroke-linecap:butt;stroke-linejoin:miter;stroke-opacity:1" d="M 13.2537,276.06 4,259.403 z" id="boundary" inkscape:connector-curvature="0" />
	<path style="fill:none;stroke:red;stroke-width:1px;stroke-linecap:butt;stroke-linejoin:miter;stroke-opacity:1" d="M 22.5075,292.716 13.2537,276.06 z" id="boundary" inkscape:connector-curvature="0" />
	<path style="fill:none;stroke:red;stroke-width:1px;stroke-linecap:butt;stroke-linejoin:miter;stroke-opacity:1" d="M 31.7612,309.373 46.5672,320.478 z" id="boundary" inkscape:connector-curvature="0" />
	<path style="fill:none;stroke:red;stroke-width:1px;stroke-linecap:butt;stroke-linejoin:miter;stroke-opacity:1" d="M 31.7612,309.373 22.5075,292.716 z" id="boundary" inkscape:connector-curvature="0" />
	<path style="fill:none;stroke:red;stroke-width:1px;stroke-linecap:butt;stroke-linejoin:miter;stroke-opacity:1" d="M 65.0746,327.881 81.7313,337.134 z" id="boundary" inkscape:connector-curvature="0" />
	<path style="fill:none;stroke:red;stroke-width:1px;stroke-linecap:butt;stroke-linejoin:miter;stroke-opacity:1" d="M 46.5672,320.478 65.0746,327.881 z" id="boundary" inkscape:connector-curvature="0" />
	<path style="fill:none;stroke:red;stroke-width:1px;stroke-linecap:butt;stroke-linejoin:miter;stroke-opacity:1" d="M 100.239,338.985 81.7313,337.134 z" id="boundary" inkscape:connector-curvature="0" />
	<path style="fill:none;stroke:red;stroke-width:1px;stroke-linecap:butt;stroke-linejoin:miter;stroke-opacity:1" d="M 133.552,357.493 133.552,376 z" id="boundary" inkscape:connector-curvature="0" />
	<path style="fill:none;stroke:red;stroke-width:1px;stroke-linecap:butt;stroke-linejoin:miter;stroke-opacity:1" d="M 116.896,348.239 133.552,357.493 z" id="boundary" inkscape:connector-curvature="0" />
	<path style="fill:none;stroke:red;stroke-width:1px;stroke-linecap:butt;stroke-linejoin:miter;stroke-opacity:1" d="M 133.552,376 139.104,394.507 z" id="boundary" inkscape:connector-curvature="0" />
	<path style="fill:none;stroke:red;stroke-width:1px;stroke-linecap:butt;stroke-linejoin:miter;stroke-opacity:1" d="M 139.104,394.507 157.612,401.91 z" id="boundary" inkscape:connector-curvature="0" />
	<path style="fill:none;stroke:red;stroke-width:1px;stroke-linecap:butt;stroke-linejoin:miter;stroke-opacity:1" d="M 157.612,401.91 161.313,420.418 z" id="boundary" inkscape:connector-curvature="0" />
	<path style="fill:none;stroke:red;stroke-width:1px;stroke-linecap:butt;stroke-linejoin:miter;stroke-opacity:1" d="M 161.313,420.418 165.015,438.925 z" id="boundary" inkscape:connector-curvature="0" />
	<path style="fill:none;stroke:red;stroke-width:1px;stroke-linecap:butt;stroke-linejoin:miter;stroke-opacity:1" d="M 183.522,446.328 165.015,438.925 z" id="boundary" inkscape:connector-curvature="0" />
	<path style="fill:none;stroke:red;stroke-width:1px;stroke-linecap:butt;stroke-linejoin:miter;stroke-opacity:1" d="M 100.239,338.985 116.896,348.239 z" id="boundary" inkscape:connector-curvature="0" />
	<path style="fill:none;stroke:red;stroke-width:1px;stroke-linecap:butt;stroke-linejoin:miter;stroke-opacity:1" d="M 344.537,400.06 357.493,385.254 z" id="boundary" inkscape:connector-curvature="0" />
	<path style="fill:none;stroke:red;stroke-width:1px;stroke-linecap:butt;stroke-linejoin:miter;stroke-opacity:1" d="M 357.493,385.254 376,388.955 z" id="boundary" inkscape:connector-curvature="0" />
	<path style="fill:none;stroke:red;stroke-width:1px;stroke-linecap:butt;stroke-linejoin:miter;stroke-opacity:1" d="M 344.537,400.06 329.731,413.015 z" id="boundary" inkscape:connector-curvature="0" />
	<path style="fill:none;stroke:red;stroke-width:1px;stroke-linecap:butt;stroke-linejoin:miter;stroke-opacity:1" d="M 316.776,427.821 329.731,413.015 z" id="boundary" inkscape:connector-curvature="0" />
	<path style="fill:none;stroke:red;stroke-width:1px;stroke-linecap:butt;stroke-linejoin:miter;stroke-opacity:1" d="M 316.776,427.821 301.97,440.776 z" id="boundary" inkscape:connector-curvature="0" />
	<path style="fill:none;stroke:red;stroke-width:1px;stroke-linecap:butt;stroke-linejoin:miter;stroke-opacity:1" d="M 431.522,366.746 413.015,376 z" id="boundary" inkscape:connector-curvature="0" />
	<path style="fill:none;stroke:red;stroke-width:1px;stroke-linecap:butt;stroke-linejoin:miter;stroke-opacity:1" d="M 413.015,376 394.507,376 z" id="boundary" inkscape:connector-curvature="0" />
	<path style="fill:none;stroke:red;stroke-width:1px;stroke-linecap:butt;stroke-linejoin:miter;stroke-opacity:1" d="M 376,388.955 394.507,376 z" id="boundary" inkscape:connector-curvature="0" />
	<path style="fill:none;stroke:red;stroke-width:1px;stroke-linecap:butt;stroke-linejoin:miter;stroke-opacity:1" d="M 183.522,446.328 200.179,455.582 z" id="boundary" inkscape:connector-curvature="0" />
	<path style="fill:none;stroke:red;stroke-width:1px;stroke-linecap:butt;stroke-linejoin:miter;stroke-opacity:1" d="M 200.179,455.582 214.985,468.537 z" id="boundary" inkscape:connector-curvature="0" />
	<path style="fill:none;stroke:red;stroke-width:1px;stroke-linecap:butt;stroke-linejoin:miter;stroke-opacity:1" d="M 252,468.537 233.493,468.537 z" id="boundary" inkscape:connector-curvature="0" />
	<path style="fill:none;stroke:red;stroke-width:1px;stroke-linecap:butt;stroke-linejoin:miter;stroke-opacity:1" d="M 233.493,468.537 214.985,468.537 z" id="boundary" inkscape:connector-curvature="0" />
	<path style="fill:none;stroke:red;stroke-width:1px;stroke-linecap:butt;stroke-linejoin:miter;stroke-opacity:1" d="M 289.015,455.582 301.97,440.776 z" id="boundary" inkscape:connector-curvature="0" />
	<path style="fill:none;stroke:red;stroke-width:1px;stroke-linecap:butt;stroke-linejoin:miter;stroke-opacity:1" d="M 289.015,455.582 270.507,464.836 z" id="boundary" inkscape:connector-curvature="0" />
	<path style="fill:none;stroke:red;stroke-width:1px;stroke-linecap:butt;stroke-linejoin:miter;stroke-opacity:1" d="M 270.507,464.836 252,468.537 z" id="boundary" inkscape:connector-curvature="0" />
	<path style="fill:none;stroke:red;stroke-width:1px;stroke-linecap:butt;stroke-linejoin:miter;stroke-opacity:1" d="M 448.179,357.493 431.522,366.746 z" id="boundary" inkscape:connector-curvature="0" />
	<path style="fill:none;stroke:red;stroke-width:1px;stroke-linecap:butt;stroke-linejoin:miter;stroke-opacity:1" d="M 444.478,142.806 459.284,153.91 z" id="boundary" inkscape:connector-curvature="0" />
	<path style="fill:none;stroke:red;stroke-width:1px;stroke-linecap:butt;stroke-linejoin:miter;stroke-opacity:1" d="M 531.463,142.806 549.97,142.806 z" id="boundary" inkscape:connector-curvature="0" />
	<path style="fill:none;stroke:red;stroke-width:1px;stroke-linecap:butt;stroke-linejoin:miter;stroke-opacity:1" d="M 514.806,152.06 531.463,142.806 z" id="boundary" inkscape:connector-curvature="0" />
	<path style="fill:none;stroke:red;stroke-width:1px;stroke-linecap:butt;stroke-linejoin:miter;stroke-opacity:1" d="M 549.97,142.806 568.478,142.806 z" id="boundary" inkscape:connector-curvature="0" />
	<path style="fill:none;stroke:red;stroke-width:1px;stroke-linecap:butt;stroke-linejoin:miter;stroke-opacity:1" d="M 586.985,142.806 568.478,142.806 z" id="boundary" inkscape:connector-curvature="0" />
	<path style="fill:none;stroke:red;stroke-width:1px;stroke-linecap:butt;stroke-linejoin:miter;stroke-opacity:1" d="M 698.03,137.254 716.537,133.552 z" id="boundary" inkscape:connector-curvature="0" />
	<path style="fill:none;stroke:red;stroke-width:1px;stroke-linecap:butt;stroke-linejoin:miter;stroke-opacity:1" d="M 716.537,133.552 733.194,142.806 z" id="boundary" inkscape:connector-curvature="0" />
	<path style="fill:none;stroke:red;stroke-width:1px;stroke-linecap:butt;stroke-linejoin:miter;stroke-opacity:1" d="M 698.03,137.254 679.522,139.104 z" id="boundary" inkscape:connector-curvature="0" />
	<path style="fill:none;stroke:red;stroke-width:1px;stroke-linecap:butt;stroke-linejoin:miter;stroke-opacity:1" d="M 624,142.806 605.493,142.806 z" id="boundary" inkscape:connector-curvature="0" />
	<path style="fill:none;stroke:red;stroke-width:1px;stroke-linecap:butt;stroke-linejoin:miter;stroke-opacity:1" d="M 605.493,142.806 586.985,142.806 z" id="boundary" inkscape:connector-curvature="0" />
	<path style="fill:none;stroke:red;stroke-width:1px;stroke-linecap:butt;stroke-linejoin:miter;stroke-opacity:1" d="M 477.791,157.612 459.284,153.91 z" id="boundary" inkscape:connector-curvature="0" />
	<path style="fill:none;stroke:red;stroke-width:1px;stroke-linecap:butt;stroke-linejoin:miter;stroke-opacity:1" d="M 477.791,157.612 496.299,157.612 z" id="boundary" inkscape:connector-curvature="0" />
	<path style="fill:none;stroke:red;stroke-width:1px;stroke-linecap:butt;stroke-linejoin:miter;stroke-opacity:1" d="M 514.806,152.06 496.299,157.612 z" id="boundary" inkscape:connector-curvature="0" />
	<path style="fill:none;stroke:red;stroke-width:1px;stroke-linecap:butt;stroke-linejoin:miter;stroke-opacity:1" d="M 642.507,142.806 624,142.806 z" id="boundary" inkscape:connector-curvature="0" />
	<path style="fill:none;stroke:red;stroke-width:1px;stroke-linecap:butt;stroke-linejoin:miter;stroke-opacity:1" d="M 642.507,142.806 661.015,142.806 z" id="boundary" inkscape:connector-curvature="0" />
	<path style="fill:none;stroke:red;stroke-width:1px;stroke-linecap:butt;stroke-linejoin:miter;stroke-opacity:1" d="M 661.015,142.806 679.522,139.104 z" id="boundary" inkscape:connector-curvature="0" />
	<path style="fill:none;stroke:red;stroke-width:1px;stroke-linecap:butt;stroke-linejoin:miter;stroke-opacity:1" d="M 768.358,133.552 786.866,133.552 z" id="boundary" inkscape:connector-curvature="0" />
	<path style="fill:none;stroke:red;stroke-width:1px;stroke-linecap:butt;stroke-linejoin:miter;stroke-opacity:1" d="M 751.701,142.806 768.358,133.552 z" id="boundary" inkscape:connector-curvature="0" />
	<path style="fill:none;stroke:red;stroke-width:1px;stroke-linecap:butt;stroke-linejoin:miter;stroke-opacity:1" d="M 786.866,133.552 805.373,133.552 z" id="boundary" inkscape:connector-curvature="0" />
	<path style="fill:none;stroke:red;stroke-width:1px;stroke-linecap:butt;stroke-linejoin:miter;stroke-opacity:1" d="M 823.881,133.552 805.373,133.552 z" id="boundary" inkscape:connector-curvature="0" />
	<path style="fill:none;stroke:red;stroke-width:1px;stroke-linecap:butt;stroke-linejoin:miter;stroke-opacity:1" d="M 842.388,133.552 860.896,124.299 z" id="boundary" inkscape:connector-curvature="0" />
	<path style="fill:none;stroke:red;stroke-width:1px;stroke-linecap:butt;stroke-linejoin:miter;stroke-opacity:1" d="M 860.896,124.299 877.552,133.552 z" id="boundary" inkscape:connector-curvature="0" />
	<path style="fill:none;stroke:red;stroke-width:1px;stroke-linecap:butt;stroke-linejoin:miter;stroke-opacity:1" d="M 933.075,126.149 914.567,126.149 z" id="boundary" inkscape:connector-curvature="0" />
	<path style="fill:none;stroke:red;stroke-width:1px;stroke-linecap:butt;stroke-linejoin:miter;stroke-opacity:1" d="M 933.075,126.149 951.582,133.552 z" id="boundary" inkscape:connector-curvature="0" />
	<path style="fill:none;stroke:red;stroke-width:1px;stroke-linecap:butt;stroke-linejoin:miter;stroke-opacity:1" d="M 914.567,126.149 896.06,133.552 z" id="boundary" inkscape:connector-curvature="0" />
	<path style="fill:none;stroke:red;stroke-width:1px;stroke-linecap:butt;stroke-linejoin:miter;stroke-opacity:1" d="M 842.388,133.552 823.881,133.552 z" id="boundary" inkscape:connector-curvature="0" />
	<path style="fill:none;stroke:red;stroke-width:1px;stroke-linecap:butt;stroke-linejoin:miter;stroke-opacity:1" d="M 896.06,133.552 877.552,133.552 z" id="boundary" inkscape:connector-curvature="0" />
	<path style="fill:none;stroke:red;stroke-width:1px;stroke-linecap:butt;stroke-linejoin:miter;stroke-opacity:1" d="M 968.239,142.806 983.045,153.91 z" id="boundary" inkscape:connector-curvature="0" />
	<path style="fill:none;stroke:red;stroke-width:1px;stroke-linecap:butt;stroke-linejoin:miter;stroke-opacity:1" d="M 996,168.716 996,187.224 z" id="boundary" inkscape:connector-curvature="0" />
	<path style="fill:none;stroke:red;stroke-width:1px;stroke-linecap:butt;stroke-linejoin:miter;stroke-opacity:1" d="M 983.045,153.91 996,168.716 z" id="boundary" inkscape:connector-curvature="0" />
	<path style="fill:none;stroke:red;stroke-width:1px;stroke-linecap:butt;stroke-linejoin:miter;stroke-opacity:1" d="M 951.582,133.552 968.239,142.806 z" id="boundary" inkscape:connector-curvature="0" />
	<path style="fill:none;stroke:red;stroke-width:1px;stroke-linecap:butt;stroke-linejoin:miter;stroke-opacity:1" d="M 733.194,142.806 751.701,142.806 z" id="boundary" inkscape:connector-curvature="0" />
	<path style="fill:none;stroke:red;stroke-width:1px;stroke-linecap:butt;stroke-linejoin:miter;stroke-opacity:1" d="M 566.627,292.716 585.134,292.716 z" id="boundary" inkscape:connector-curvature="0" />
	<path style="fill:none;stroke:red;stroke-width:1px;stroke-linecap:butt;stroke-linejoin:miter;stroke-opacity:1" d="M 548.119,298.269 566.627,292.716 z" id="boundary" inkscape:connector-curvature="0" />
	<path style="fill:none;stroke:red;stroke-width:1px;stroke-linecap:butt;stroke-linejoin:miter;stroke-opacity:1" d="M 603.642,292.716 585.134,292.716 z" id="boundary" inkscape:connector-curvature="0" />
	<path style="fill:none;stroke:red;stroke-width:1px;stroke-linecap:butt;stroke-linejoin:miter;stroke-opacity:1" d="M 603.642,292.716 622.149,292.716 z" id="boundary" inkscape:connector-curvature="0" />
	<path style="fill:none;stroke:red;stroke-width:1px;stroke-linecap:butt;stroke-linejoin:miter;stroke-opacity:1" d="M 640.657,292.716 622.149,292.716 z" id="boundary" inkscape:connector-curvature="0" />
	<path style="fill:none;stroke:red;stroke-width:1px;stroke-linecap:butt;stroke-linejoin:miter;stroke-opacity:1" d="M 677.672,292.716 659.164,292.716 z" id="boundary" inkscape:connector-curvature="0" />
	<path style="fill:none;stroke:red;stroke-width:1px;stroke-linecap:butt;stroke-linejoin:miter;stroke-opacity:1" d="M 659.164,292.716 640.657,292.716 z" id="boundary" inkscape:connector-curvature="0" />
	<path style="fill:none;stroke:red;stroke-width:1px;stroke-linecap:butt;stroke-linejoin:miter;stroke-opacity:1" d="M 714.687,289.015 696.179,292.716 z" id="boundary" inkscape:connector-curvature="0" />
	<path style="fill:none;stroke:red;stroke-width:1px;stroke-linecap:butt;stroke-linejoin:miter;stroke-opacity:1" d="M 696.179,292.716 677.672,292.716 z" id="boundary" inkscape:connector-curvature="0" />
	<path style="fill:none;stroke:red;stroke-width:1px;stroke-linecap:butt;stroke-linejoin:miter;stroke-opacity:1" d="M 485.194,351.94 500,337.134 z" id="boundary" inkscape:connector-curvature="0" />
	<path style="fill:none;stroke:red;stroke-width:1px;stroke-linecap:butt;stroke-linejoin:miter;stroke-opacity:1" d="M 485.194,351.94 466.687,357.493 z" id="boundary" inkscape:connector-curvature="0" />
	<path style="fill:none;stroke:red;stroke-width:1px;stroke-linecap:butt;stroke-linejoin:miter;stroke-opacity:1" d="M 448.179,357.493 466.687,357.493 z" id="boundary" inkscape:connector-curvature="0" />
	<path style="fill:none;stroke:red;stroke-width:1px;stroke-linecap:butt;stroke-linejoin:miter;stroke-opacity:1" d="M 514.806,320.478 500,337.134 z" id="boundary" inkscape:connector-curvature="0" />
	<path style="fill:none;stroke:red;stroke-width:1px;stroke-linecap:butt;stroke-linejoin:miter;stroke-opacity:1" d="M 514.806,320.478 529.612,307.522 z" id="boundary" inkscape:connector-curvature="0" />
	<path style="fill:none;stroke:red;stroke-width:1px;stroke-linecap:butt;stroke-linejoin:miter;stroke-opacity:1" d="M 529.612,307.522 548.119,298.269 z" id="boundary" inkscape:connector-curvature="0" />
	<path style="fill:none;stroke:red;stroke-width:1px;stroke-linecap:butt;stroke-linejoin:miter;stroke-opacity:1" d="M 783.164,255.701 801.672,255.701 z" id="boundary" inkscape:connector-curvature="0" />
	<path style="fill:none;stroke:red;stroke-width:1px;stroke-linecap:butt;stroke-linejoin:miter;stroke-opacity:1" d="M 768.358,272.358 783.164,255.701 z" id="boundary" inkscape:connector-curvature="0" />
	<path style="fill:none;stroke:red;stroke-width:1px;stroke-linecap:butt;stroke-linejoin:miter;stroke-opacity:1" d="M 820.179,255.701 838.687,255.701 z" id="boundary" inkscape:connector-curvature="0" />
	<path style="fill:none;stroke:red;stroke-width:1px;stroke-linecap:butt;stroke-linejoin:miter;stroke-opacity:1" d="M 820.179,255.701 801.672,255.701 z" id="boundary" inkscape:connector-curvature="0" />
	<path style="fill:none;stroke:red;stroke-width:1px;stroke-linecap:butt;stroke-linejoin:miter;stroke-opacity:1" d="M 996,205.731 992.299,224.239 z" id="boundary" inkscape:connector-curvature="0" />
	<path style="fill:none;stroke:red;stroke-width:1px;stroke-linecap:butt;stroke-linejoin:miter;stroke-opacity:1" d="M 992.299,224.239 977.493,237.194 z" id="boundary" inkscape:connector-curvature="0" />
	<path style="fill:none;stroke:red;stroke-width:1px;stroke-linecap:butt;stroke-linejoin:miter;stroke-opacity:1" d="M 962.687,253.851 977.493,237.194 z" id="boundary" inkscape:connector-curvature="0" />
	<path style="fill:none;stroke:red;stroke-width:1px;stroke-linecap:butt;stroke-linejoin:miter;stroke-opacity:1" d="M 857.194,255.701 838.687,255.701 z" id="boundary" inkscape:connector-curvature="0" />
	<path style="fill:none;stroke:red;stroke-width:1px;stroke-linecap:butt;stroke-linejoin:miter;stroke-opacity:1" d="M 751.701,283.463 768.358,272.358 z" id="boundary" inkscape:connector-curvature="0" />
	<path style="fill:none;stroke:red;stroke-width:1px;stroke-linecap:butt;stroke-linejoin:miter;stroke-opacity:1" d="M 733.194,283.463 751.701,283.463 z" id="boundary" inkscape:connector-curvature="0" />
	<path style="fill:none;stroke:red;stroke-width:1px;stroke-linecap:butt;stroke-linejoin:miter;stroke-opacity:1" d="M 714.687,289.015 733.194,283.463 z" id="boundary" inkscape:connector-curvature="0" />
	<path style="fill:none;stroke:red;stroke-width:1px;stroke-linecap:butt;stroke-linejoin:miter;stroke-opacity:1" d="M 875.701,255.701 892.358,264.955 z" id="boundary" inkscape:connector-curvature="0" />
	<path style="fill:none;stroke:red;stroke-width:1px;stroke-linecap:butt;stroke-linejoin:miter;stroke-opacity:1" d="M 857.194,255.701 875.701,255.701 z" id="boundary" inkscape:connector-curvature="0" />
	<path style="fill:none;stroke:red;stroke-width:1px;stroke-linecap:butt;stroke-linejoin:miter;stroke-opacity:1" d="M 910.866,264.955 892.358,264.955 z" id="boundary" inkscape:connector-curvature="0" />
	<path style="fill:none;stroke:red;stroke-width:1px;stroke-linecap:butt;stroke-linejoin:miter;stroke-opacity:1" d="M 910.866,264.955 929.373,264.955 z" id="boundary" inkscape:connector-curvature="0" />
	<path style="fill:none;stroke:red;stroke-width:1px;stroke-linecap:butt;stroke-linejoin:miter;stroke-opacity:1" d="M 929.373,264.955 947.881,268.657 z" id="boundary" inkscape:connector-curvature="0" />
	<path style="fill:none;stroke:red;stroke-width:1px;stroke-linecap:butt;stroke-linejoin:miter;stroke-opacity:1" d="M 962.687,253.851 947.881,268.657 z" id="boundary" inkscape:connector-curvature="0" />
	<path style="fill:none;stroke:red;stroke-width:1px;stroke-linecap:butt;stroke-linejoin:miter;stroke-opacity:1" d="M 996,187.224 996,205.731 z" id="boundary" inkscape:connector-curvature="0" />
	<circle cx="4" cy="222.388" r="4" fill="#0" id="circle0"/>
	<circle cx="4" cy="240.896" r="4" fill="#0" id="circle1"/>
	<circle cx="4" cy="259.403" r="4" fill="#0" id="circle2"/>
	<circle cx="13.2537" cy="194.627" r="4" fill="#0" id="circle3"/>
	<circle cx="13.2537" cy="276.06" r="4" fill="#0" id="circle4"/>
	<circle cx="22.5075" cy="292.716" r="4" fill="#0" id="circle5"/>
	<circle cx="28.0597" cy="179.821" r="4" fill="#0" id="circle6"/>
	<circle cx="31.7612" cy="309.373" r="4" fill="#0" id="circle7"/>
	<circle cx="44.7164" cy="170.567" r="4" fill="#0" id="circle8"/>
	<circle cx="46.5672" cy="320.478" r="4" fill="#0" id="circle9"/>
	<circle cx="59.5224" cy="157.612" r="4" fill="#0" id="circle10"/>
	<circle cx="65.0746" cy="327.881" r="4" fill="#0" id="circle11"/>
	<circle cx="78.0299" cy="148.358" r="4" fill="#0" id="circle12"/>
	<circle cx="81.7313" cy="337.134" r="4" fill="#0" id="circle13"/>
	<circle cx="92.8358" cy="133.552" r="4" fill="#0" id="circle14"/>
	<circle cx="100.239" cy="338.985" r="4" fill="#0" id="circle15"/>
	<circle cx="111.343" cy="133.552" r="4" fill="#0" id="circle16"/>
	<circle cx="115.045" cy="102.09" r="4" fill="#0" id="circle17"/>
	<circle cx="116.896" cy="348.239" r="4" fill="#0" id="circle18"/>
	<circle cx="129.851" cy="87.2836" r="4" fill="#0" id="circle19"/>
	<circle cx="133.552" cy="357.493" r="4" fill="#0" id="circle20"/>
	<circle cx="133.552" cy="376" r="4" fill="#0" id="circle21"/>
	<circle cx="139.104" cy="394.507" r="4" fill="#0" id="circle22"/>
	<circle cx="142.806" cy="46.5672" r="4" fill="#0" id="circle23"/>
	<circle cx="142.806" cy="65.0746" r="4" fill="#0" id="circle24"/>
	<circle cx="157.612" cy="401.91" r="4" fill="#0" id="circle25"/>
	<circle cx="161.313" cy="41.0149" r="4" fill="#0" id="circle26"/>
	<circle cx="161.313" cy="420.418" r="4" fill="#0" id="circle27"/>
	<circle cx="165.015" cy="438.925" r="4" fill="#0" id="circle28"/>
	<circle cx="177.97" cy="31.7612" r="4" fill="#0" id="circle29"/>
	<circle cx="183.522" cy="446.328" r="4" fill="#0" id="circle30"/>
	<circle cx="194.627" cy="22.5075" r="4" fill="#0" id="circle31"/>
	<circle cx="200.179" cy="455.582" r="4" fill="#0" id="circle32"/>
	<circle cx="209.433" cy="7.70149" r="4" fill="#0" id="circle33"/>
	<circle cx="214.985" cy="468.537" r="4" fill="#0" id="circle34"/>
	<circle cx="227.94" cy="4" r="4" fill="#0" id="circle35"/>
	<circle cx="233.493" cy="468.537" r="4" fill="#0" id="circle36"/>
	<circle cx="242.746" cy="15.1045" r="4" fill="#0" id="circle37"/>
	<circle cx="252" cy="468.537" r="4" fill="#0" id="circle38"/>
	<circle cx="255.701" cy="29.9104" r="4" fill="#0" id="circle39"/>
	<circle cx="270.507" cy="42.8657" r="4" fill="#0" id="circle40"/>
	<circle cx="270.507" cy="464.836" r="4" fill="#0" id="circle41"/>
	<circle cx="274.209" cy="61.3731" r="4" fill="#0" id="circle42"/>
	<circle cx="289.015" cy="72.4776" r="4" fill="#0" id="circle43"/>
	<circle cx="289.015" cy="455.582" r="4" fill="#0" id="circle44"/>
	<circle cx="301.97" cy="87.2836" r="4" fill="#0" id="circle45"/>
	<circle cx="301.97" cy="440.776" r="4" fill="#0" id="circle46"/>
	<circle cx="316.776" cy="427.821" r="4" fill="#0" id="circle47"/>
	<circle cx="318.627" cy="96.5373" r="4" fill="#0" id="circle48"/>
	<circle cx="329.731" cy="413.015" r="4" fill="#0" id="circle49"/>
	<circle cx="337.134" cy="90.9851" r="4" fill="#0" id="circle50"/>
	<circle cx="344.537" cy="400.06" r="4" fill="#0" id="circle51"/>
	<circle cx="355.642" cy="92.8358" r="4" fill="#0" id="circle52"/>
	<circle cx="357.493" cy="385.254" r="4" fill="#0" id="circle53"/>
	<circle cx="374.149" cy="100.239" r="4" fill="#0" id="circle54"/>
	<circle cx="376" cy="388.955" r="4" fill="#0" id="circle55"/>
	<circle cx="381.552" cy="118.746" r="4" fill="#0" id="circle56"/>
	<circle cx="394.507" cy="376" r="4" fill="#0" id="circle57"/>
	<circle cx="400.06" cy="124.299" r="4" fill="#0" id="circle58"/>
	<circle cx="413.015" cy="376" r="4" fill="#0" id="circle59"/>
	<circle cx="416.716" cy="115.045" r="4" fill="#0" id="circle60"/>
	<circle cx="429.672" cy="129.851" r="4" fill="#0" id="circle61"/>
	<circle cx="431.522" cy="366.746" r="4" fill="#0" id="circle62"/>
	<circle cx="444.478" cy="142.806" r="4" fill="#0" id="circle63"/>
	<circle cx="448.179" cy="357.493" r="4" fill="#0" id="circle64"/>
	<circle cx="459.284" cy="153.91" r="4" fill="#0" id="circle65"/>
	<circle cx="466.687" cy="357.493" r="4" fill="#0" id="circle66"/>
	<circle cx="477.791" cy="157.612" r="4" fill="#0" id="circle67"/>
	<circle cx="485.194" cy="351.94" r="4" fill="#0" id="circle68"/>
	<circle cx="496.299" cy="157.612" r="4" fill="#0" id="circle69"/>
	<circle cx="500" cy="337.134" r="4" fill="#0" id="circle70"/>
	<circle cx="514.806" cy="152.06" r="4" fill="#0" id="circle71"/>
	<circle cx="514.806" cy="320.478" r="4" fill="#0" id="circle72"/>
	<circle cx="529.612" cy="307.522" r="4" fill="#0" id="circle73"/>
	<circle cx="531.463" cy="142.806" r="4" fill="#0" id="circle74"/>
	<circle cx="548.119" cy="298.269" r="4" fill="#0" id="circle75"/>
	<circle cx="549.97" cy="142.806" r="4" fill="#0" id="circle76"/>
	<circle cx="566.627" cy="292.716" r="4" fill="#0" id="circle77"/>
	<circle cx="568.478" cy="142.806" r="4" fill="#0" id="circle78"/>
	<circle cx="585.134" cy="292.716" r="4" fill="#0" id="circle79"/>
	<circle cx="586.985" cy="142.806" r="4" fill="#0" id="circle80"/>
	<circle cx="603.642" cy="292.716" r="4" fill="#0" id="circle81"/>
	<circle cx="605.493" cy="142.806" r="4" fill="#0" id="circle82"/>
	<circle cx="622.149" cy="292.716" r="4" fill="#0" id="circle83"/>
	<circle cx="624" cy="142.806" r="4" fill="#0" id="circle84"/>
	<circle cx="640.657" cy="292.716" r="4" fill="#0" id="circle85"/>
	<circle cx="642.507" cy="142.806" r="4" fill="#0" id="circle86"/>
	<circle cx="659.164" cy="292.716" r="4" fill="#0" id="circle87"/>
	<circle cx="661.015" cy="142.806" r="4" fill="#0" id="circle88"/>
	<circle cx="677.672" cy="292.716" r="4" fill="#0" id="circle89"/>
	<circle cx="679.522" cy="139.104" r="4" fill="#0" id="circle90"/>
	<circle cx="696.179" cy="292.716" r="4" fill="#0" id="circle91"/>
	<circle cx="698.03" cy="137.254" r="4" fill="#0" id="circle92"/>
	<circle cx="714.687" cy="289.015" r="4" fill="#0" id="circle93"/>
	<circle cx="716.537" cy="133.552" r="4" fill="#0" id="circle94"/>
	<circle cx="733.194" cy="142.806" r="4" fill="#0" id="circle95"/>
	<circle cx="733.194" cy="283.463" r="4" fill="#0" id="circle96"/>
	<circle cx="751.701" cy="142.806" r="4" fill="#0" id="circle97"/>
	<circle cx="751.701" cy="283.463" r="4" fill="#0" id="circle98"/>
	<circle cx="768.358" cy="133.552" r="4" fill="#0" id="circle99"/>
	<circle cx="768.358" cy="272.358" r="4" fill="#0" id="circle100"/>
	<circle cx="783.164" cy="255.701" r="4" fill="#0" id="circle101"/>
	<circle cx="786.866" cy="133.552" r="4" fill="#0" id="circle102"/>
	<circle cx="801.672" cy="255.701" r="4" fill="#0" id="circle103"/>
	<circle cx="805.373" cy="133.552" r="4" fill="#0" id="circle104"/>
	<circle cx="820.179" cy="255.701" r="4" fill="#0" id="circle105"/>
	<circle cx="823.881" cy="133.552" r="4" fill="#0" id="circle106"/>
	<circle cx="838.687" cy="255.701" r="4" fill="#0" id="circle107"/>
	<circle cx="842.388" cy="133.552" r="4" fill="#0" id="circle108"/>
	<circle cx="857.194" cy="255.701" r="4" fill="#0" id="circle109"/>
	<circle cx="860.896" cy="124.299" r="4" fill="#0" id="circle110"/>
	<circle cx="875.701" cy="255.701" r="4" fill="#0" id="circle111"/>
	<circle cx="877.552" cy="133.552" r="4" fill="#0" id="circle112"/>
	<circle cx="892.358" cy="264.955" r="4" fill="#0" id="circle113"/>
	<circle cx="896.06" cy="133.552" r="4" fill="#0" id="circle114"/>
	<circle cx="910.866" cy="264.955" r="4" fill="#0" id="circle115"/>
	<circle cx="914.567" cy="126.149" r="4" fill="#0" id="circle116"/>
	<circle cx="929.373" cy="264.955" r="4" fill="#0" id="circle117"/>
	<circle cx="933.075" cy="126.149" r="4" fill="#0" id="circle118"/>
	<circle cx="947.881" cy="268.657" r="4" fill="#0" id="circle119"/>
	<circle cx="951.582" cy="133.552" r="4" fill="#0" id="circle120"/>
	<circle cx="962.687" cy="253.851" r="4" fill="#0" id="circle121"/>
	<circle cx="968.239" cy="142.806" r="4" fill="#0" id="circle122"/>
	<circle cx="977.493" cy="237.194" r="4" fill="#0" id="circle123"/>
	<circle cx="983.045" cy="153.91" r="4" fill="#0" id="circle124"/>
	<circle cx="992.299" cy="224.239" r="4" fill="#0" id="circle125"/>
	<circle cx="996" cy="168.716" r="4" fill="#0" id="circle126"/>
	<circle cx="996" cy="187.224" r="4" fill="#0" id="circle127"/>
	<circle cx="996" cy="205.731" r="4" fill="#0" id="circle128"/>
	</g>
</svg>