<?xml version="1.0" encoding="UTF-8" standalone="no"?>
<!-- Created with CurveBenchmark -->
<svg
	xmlns:dc="http://purl.org/dc/elements/1.1/"
	xmlns:cc="http://creativecommons.org/ns#"
	xmlns:rdf="http://www.w3.org/1999/02/22-rdf-syntax-ns#"
	xmlns:svg="http://www.w3.org/2000/svg"
	xmlns="http://www.w3.org/2000/svg"
	xmlns:sodipodi="http://sodipodi.sourceforge.net/DTD/sodipodi-0.dtd"
	xmlns:inkscape="http://www.inkscape.org/namespaces/inkscape"
	width="1000"
	height="1000"
	id="svg2"
	version="1.1"
	sodipodi:docname="manifold/gathan1-sink125.png.txt">
<defs
	id="defs4" />
<metadata
	id="metadata7">
	<rdf:RDF>
		<cc:Work
			rdf:about="">
			<dc:format>image/svg+xml</dc:format>
			<dc:type
				rdf:resource="http://purl.org/dc/dcmitype/StillImage" />
			<dc:title></dc:title>
		</cc:Work>
	</rdf:RDF>
</metadata>
<g
	inkscape:label="Layer 1"
	inkscape:groupmode="layer"
	id="layer1">
	<path style="fill:none;stroke:red;stroke-width:1px;stroke-linecap:butt;stroke-linejoin:miter;stroke-opacity:1" d="M 33.9095,143.578 83.7588,143.578 z" id="boundary" inkscape:connector-curvature="0" />
	<path style="fill:none;stroke:red;stroke-width:1px;stroke-linecap:butt;stroke-linejoin:miter;stroke-opacity:1" d="M 33.9095,193.427 33.9095,143.578 z" id="boundary" inkscape:connector-curvature="0" />
	<path style="fill:none;stroke:red;stroke-width:1px;stroke-linecap:butt;stroke-linejoin:miter;stroke-opacity:1" d="M 133.608,143.578 83.7588,143.578 z" id="boundary" inkscape:connector-curvature="0" />
	<path style="fill:none;stroke:red;stroke-width:1px;stroke-linecap:butt;stroke-linejoin:miter;stroke-opacity:1" d="M 4,273.186 33.9095,193.427 z" id="boundary" inkscape:connector-curvature="0" />
	<path style="fill:none;stroke:red;stroke-width:1px;stroke-linecap:butt;stroke-linejoin:miter;stroke-opacity:1" d="M 48.8643,298.111 4,273.186 z" id="boundary" inkscape:connector-curvature="0" />
	<path style="fill:none;stroke:red;stroke-width:1px;stroke-linecap:butt;stroke-linejoin:miter;stroke-opacity:1" d="M 48.8643,298.111 98.7136,298.111 z" id="boundary" inkscape:connector-curvature="0" />
	<path style="fill:none;stroke:red;stroke-width:1px;stroke-linecap:butt;stroke-linejoin:miter;stroke-opacity:1" d="M 98.7136,298.111 133.608,337.99 z" id="boundary" inkscape:connector-curvature="0" />
	<path style="fill:none;stroke:red;stroke-width:1px;stroke-linecap:butt;stroke-linejoin:miter;stroke-opacity:1" d="M 133.608,143.578 183.457,143.578 z" id="boundary" inkscape:connector-curvature="0" />
	<path style="fill:none;stroke:red;stroke-width:1px;stroke-linecap:butt;stroke-linejoin:miter;stroke-opacity:1" d="M 183.457,143.578 233.307,148.563 z" id="boundary" inkscape:connector-curvature="0" />
	<path style="fill:none;stroke:red;stroke-width:1px;stroke-linecap:butt;stroke-linejoin:miter;stroke-opacity:1" d="M 352.945,4 352.945,53.8492 z" id="boundary" inkscape:connector-curvature="0" />
	<path style="fill:none;stroke:red;stroke-width:1px;stroke-linecap:butt;stroke-linejoin:miter;stroke-opacity:1" d="M 352.945,4 397.809,28.9246 z" id="boundary" inkscape:connector-curvature="0" />
	<path style="fill:none;stroke:red;stroke-width:1px;stroke-linecap:butt;stroke-linejoin:miter;stroke-opacity:1" d="M 283.156,153.548 233.307,148.563 z" id="boundary" inkscape:connector-curvature="0" />
	<path style="fill:none;stroke:red;stroke-width:1px;stroke-linecap:butt;stroke-linejoin:miter;stroke-opacity:1" d="M 133.608,337.99 163.518,377.869 z" id="boundary" inkscape:connector-curvature="0" />
	<path style="fill:none;stroke:red;stroke-width:1px;stroke-linecap:butt;stroke-linejoin:miter;stroke-opacity:1" d="M 203.397,407.779 163.518,377.869 z" id="boundary" inkscape:connector-curvature="0" />
	<path style="fill:none;stroke:red;stroke-width:1px;stroke-linecap:butt;stroke-linejoin:miter;stroke-opacity:1" d="M 333.005,153.548 283.156,153.548 z" id="boundary" inkscape:connector-curvature="0" />
	<path style="fill:none;stroke:red;stroke-width:1px;stroke-linecap:butt;stroke-linejoin:miter;stroke-opacity:1" d="M 203.397,407.779 253.246,427.719 z" id="boundary" inkscape:connector-curvature="0" />
	<path style="fill:none;stroke:red;stroke-width:1px;stroke-linecap:butt;stroke-linejoin:miter;stroke-opacity:1" d="M 253.246,427.719 273.186,477.568 z" id="boundary" inkscape:connector-curvature="0" />
	<path style="fill:none;stroke:red;stroke-width:1px;stroke-linecap:butt;stroke-linejoin:miter;stroke-opacity:1" d="M 273.186,676.965 273.186,726.814 z" id="boundary" inkscape:connector-curvature="0" />
	<path style="fill:none;stroke:red;stroke-width:1px;stroke-linecap:butt;stroke-linejoin:miter;stroke-opacity:1" d="M 288.141,996 238.291,996 z" id="boundary" inkscape:connector-curvature="0" />
	<path style="fill:none;stroke:red;stroke-width:1px;stroke-linecap:butt;stroke-linejoin:miter;stroke-opacity:1" d="M 238.291,996 213.367,951.136 z" id="boundary" inkscape:connector-curvature="0" />
	<path style="fill:none;stroke:red;stroke-width:1px;stroke-linecap:butt;stroke-linejoin:miter;stroke-opacity:1" d="M 213.367,951.136 243.276,901.286 z" id="boundary" inkscape:connector-curvature="0" />
	<path style="fill:none;stroke:red;stroke-width:1px;stroke-linecap:butt;stroke-linejoin:miter;stroke-opacity:1" d="M 263.216,831.497 243.276,901.286 z" id="boundary" inkscape:connector-curvature="0" />
	<path style="fill:none;stroke:red;stroke-width:1px;stroke-linecap:butt;stroke-linejoin:miter;stroke-opacity:1" d="M 273.186,477.568 273.186,527.417 z" id="boundary" inkscape:connector-curvature="0" />
	<path style="fill:none;stroke:red;stroke-width:1px;stroke-linecap:butt;stroke-linejoin:miter;stroke-opacity:1" d="M 273.186,527.417 273.186,577.266 z" id="boundary" inkscape:connector-curvature="0" />
	<path style="fill:none;stroke:red;stroke-width:1px;stroke-linecap:butt;stroke-linejoin:miter;stroke-opacity:1" d="M 273.186,627.116 273.186,676.965 z" id="boundary" inkscape:connector-curvature="0" />
	<path style="fill:none;stroke:red;stroke-width:1px;stroke-linecap:butt;stroke-linejoin:miter;stroke-opacity:1" d="M 273.186,577.266 273.186,627.116 z" id="boundary" inkscape:connector-curvature="0" />
	<path style="fill:none;stroke:red;stroke-width:1px;stroke-linecap:butt;stroke-linejoin:miter;stroke-opacity:1" d="M 273.186,726.814 273.186,776.663 z" id="boundary" inkscape:connector-curvature="0" />
	<path style="fill:none;stroke:red;stroke-width:1px;stroke-linecap:butt;stroke-linejoin:miter;stroke-opacity:1" d="M 273.186,776.663 263.216,831.497 z" id="boundary" inkscape:connector-curvature="0" />
	<path style="fill:none;stroke:red;stroke-width:1px;stroke-linecap:butt;stroke-linejoin:miter;stroke-opacity:1" d="M 337.99,996 288.141,996 z" id="boundary" inkscape:connector-curvature="0" />
	<path style="fill:none;stroke:red;stroke-width:1px;stroke-linecap:butt;stroke-linejoin:miter;stroke-opacity:1" d="M 352.945,53.8492 372.884,103.698 z" id="boundary" inkscape:connector-curvature="0" />
	<path style="fill:none;stroke:red;stroke-width:1px;stroke-linecap:butt;stroke-linejoin:miter;stroke-opacity:1" d="M 447.658,153.548 397.809,148.563 z" id="boundary" inkscape:connector-curvature="0" />
	<path style="fill:none;stroke:red;stroke-width:1px;stroke-linecap:butt;stroke-linejoin:miter;stroke-opacity:1" d="M 333.005,153.548 397.809,148.563 z" id="boundary" inkscape:connector-curvature="0" />
	<path style="fill:none;stroke:red;stroke-width:1px;stroke-linecap:butt;stroke-linejoin:miter;stroke-opacity:1" d="M 447.658,153.548 497.508,153.548 z" id="boundary" inkscape:connector-curvature="0" />
	<path style="fill:none;stroke:red;stroke-width:1px;stroke-linecap:butt;stroke-linejoin:miter;stroke-opacity:1" d="M 612.161,318.05 582.251,357.93 z" id="boundary" inkscape:connector-curvature="0" />
	<path style="fill:none;stroke:red;stroke-width:1px;stroke-linecap:butt;stroke-linejoin:miter;stroke-opacity:1" d="M 497.508,153.548 547.357,148.563 z" id="boundary" inkscape:connector-curvature="0" />
	<path style="fill:none;stroke:red;stroke-width:1px;stroke-linecap:butt;stroke-linejoin:miter;stroke-opacity:1" d="M 597.206,143.578 547.357,148.563 z" id="boundary" inkscape:connector-curvature="0" />
	<path style="fill:none;stroke:red;stroke-width:1px;stroke-linecap:butt;stroke-linejoin:miter;stroke-opacity:1" d="M 582.251,357.93 542.372,387.839 z" id="boundary" inkscape:connector-curvature="0" />
	<path style="fill:none;stroke:red;stroke-width:1px;stroke-linecap:butt;stroke-linejoin:miter;stroke-opacity:1" d="M 597.206,143.578 647.055,143.578 z" id="boundary" inkscape:connector-curvature="0" />
	<path style="fill:none;stroke:red;stroke-width:1px;stroke-linecap:butt;stroke-linejoin:miter;stroke-opacity:1" d="M 696.905,143.578 726.814,183.457 z" id="boundary" inkscape:connector-curvature="0" />
	<path style="fill:none;stroke:red;stroke-width:1px;stroke-linecap:butt;stroke-linejoin:miter;stroke-opacity:1" d="M 647.055,143.578 696.905,143.578 z" id="boundary" inkscape:connector-curvature="0" />
	<path style="fill:none;stroke:red;stroke-width:1px;stroke-linecap:butt;stroke-linejoin:miter;stroke-opacity:1" d="M 726.814,183.457 726.814,233.307 z" id="boundary" inkscape:connector-curvature="0" />
	<path style="fill:none;stroke:red;stroke-width:1px;stroke-linecap:butt;stroke-linejoin:miter;stroke-opacity:1" d="M 662.01,298.111 711.859,298.111 z" id="boundary" inkscape:connector-curvature="0" />
	<path style="fill:none;stroke:red;stroke-width:1px;stroke-linecap:butt;stroke-linejoin:miter;stroke-opacity:1" d="M 662.01,298.111 612.161,318.05 z" id="boundary" inkscape:connector-curvature="0" />
	<path style="fill:none;stroke:red;stroke-width:1px;stroke-linecap:butt;stroke-linejoin:miter;stroke-opacity:1" d="M 726.814,233.307 711.859,298.111 z" id="boundary" inkscape:connector-curvature="0" />
	<path style="fill:none;stroke:red;stroke-width:1px;stroke-linecap:butt;stroke-linejoin:miter;stroke-opacity:1" d="M 447.658,482.553 447.658,532.402 z" id="boundary" inkscape:connector-curvature="0" />
	<path style="fill:none;stroke:red;stroke-width:1px;stroke-linecap:butt;stroke-linejoin:miter;stroke-opacity:1" d="M 447.658,482.553 447.658,432.704 z" id="boundary" inkscape:connector-curvature="0" />
	<path style="fill:none;stroke:red;stroke-width:1px;stroke-linecap:butt;stroke-linejoin:miter;stroke-opacity:1" d="M 447.658,432.704 497.508,417.749 z" id="boundary" inkscape:connector-curvature="0" />
	<path style="fill:none;stroke:red;stroke-width:1px;stroke-linecap:butt;stroke-linejoin:miter;stroke-opacity:1" d="M 447.658,582.251 447.658,632.101 z" id="boundary" inkscape:connector-curvature="0" />
	<path style="fill:none;stroke:red;stroke-width:1px;stroke-linecap:butt;stroke-linejoin:miter;stroke-opacity:1" d="M 447.658,582.251 447.658,532.402 z" id="boundary" inkscape:connector-curvature="0" />
	<path style="fill:none;stroke:red;stroke-width:1px;stroke-linecap:butt;stroke-linejoin:miter;stroke-opacity:1" d="M 437.688,996 387.839,996 z" id="boundary" inkscape:connector-curvature="0" />
	<path style="fill:none;stroke:red;stroke-width:1px;stroke-linecap:butt;stroke-linejoin:miter;stroke-opacity:1" d="M 447.658,681.95 447.658,731.799 z" id="boundary" inkscape:connector-curvature="0" />
	<path style="fill:none;stroke:red;stroke-width:1px;stroke-linecap:butt;stroke-linejoin:miter;stroke-opacity:1" d="M 447.658,632.101 447.658,681.95 z" id="boundary" inkscape:connector-curvature="0" />
	<path style="fill:none;stroke:red;stroke-width:1px;stroke-linecap:butt;stroke-linejoin:miter;stroke-opacity:1" d="M 447.658,731.799 447.658,781.648 z" id="boundary" inkscape:connector-curvature="0" />
	<path style="fill:none;stroke:red;stroke-width:1px;stroke-linecap:butt;stroke-linejoin:miter;stroke-opacity:1" d="M 447.658,781.648 447.658,831.497 z" id="boundary" inkscape:connector-curvature="0" />
	<path style="fill:none;stroke:red;stroke-width:1px;stroke-linecap:butt;stroke-linejoin:miter;stroke-opacity:1" d="M 497.508,417.749 542.372,387.839 z" id="boundary" inkscape:connector-curvature="0" />
	<path style="fill:none;stroke:red;stroke-width:1px;stroke-linecap:butt;stroke-linejoin:miter;stroke-opacity:1" d="M 387.839,996 337.99,996 z" id="boundary" inkscape:connector-curvature="0" />
	<path style="fill:none;stroke:red;stroke-width:1px;stroke-linecap:butt;stroke-linejoin:miter;stroke-opacity:1" d="M 457.628,881.347 447.658,831.497 z" id="boundary" inkscape:connector-curvature="0" />
	<path style="fill:none;stroke:red;stroke-width:1px;stroke-linecap:butt;stroke-linejoin:miter;stroke-opacity:1" d="M 482.553,926.211 457.628,881.347 z" id="boundary" inkscape:connector-curvature="0" />
	<path style="fill:none;stroke:red;stroke-width:1px;stroke-linecap:butt;stroke-linejoin:miter;stroke-opacity:1" d="M 487.538,996 437.688,996 z" id="boundary" inkscape:connector-curvature="0" />
	<path style="fill:none;stroke:red;stroke-width:1px;stroke-linecap:butt;stroke-linejoin:miter;stroke-opacity:1" d="M 482.553,926.211 487.538,996 z" id="boundary" inkscape:connector-curvature="0" />
	<circle cx="4" cy="273.186" r="4" fill="#0" id="circle0"/>
	<circle cx="33.9095" cy="143.578" r="4" fill="#0" id="circle1"/>
	<circle cx="33.9095" cy="193.427" r="4" fill="#0" id="circle2"/>
	<circle cx="48.8643" cy="298.111" r="4" fill="#0" id="circle3"/>
	<circle cx="83.7588" cy="143.578" r="4" fill="#0" id="circle4"/>
	<circle cx="98.7136" cy="298.111" r="4" fill="#0" id="circle5"/>
	<circle cx="133.608" cy="143.578" r="4" fill="#0" id="circle6"/>
	<circle cx="133.608" cy="337.99" r="4" fill="#0" id="circle7"/>
	<circle cx="163.518" cy="377.869" r="4" fill="#0" id="circle8"/>
	<circle cx="183.457" cy="143.578" r="4" fill="#0" id="circle9"/>
	<circle cx="203.397" cy="407.779" r="4" fill="#0" id="circle10"/>
	<circle cx="213.367" cy="951.136" r="4" fill="#0" id="circle11"/>
	<circle cx="233.307" cy="148.563" r="4" fill="#0" id="circle12"/>
	<circle cx="238.291" cy="996" r="4" fill="#0" id="circle13"/>
	<circle cx="243.276" cy="901.286" r="4" fill="#0" id="circle14"/>
	<circle cx="253.246" cy="427.719" r="4" fill="#0" id="circle15"/>
	<circle cx="263.216" cy="831.497" r="4" fill="#0" id="circle16"/>
	<circle cx="273.186" cy="477.568" r="4" fill="#0" id="circle17"/>
	<circle cx="273.186" cy="527.417" r="4" fill="#0" id="circle18"/>
	<circle cx="273.186" cy="577.266" r="4" fill="#0" id="circle19"/>
	<circle cx="273.186" cy="627.116" r="4" fill="#0" id="circle20"/>
	<circle cx="273.186" cy="676.965" r="4" fill="#0" id="circle21"/>
	<circle cx="273.186" cy="726.814" r="4" fill="#0" id="circle22"/>
	<circle cx="273.186" cy="776.663" r="4" fill="#0" id="circle23"/>
	<circle cx="283.156" cy="153.548" r="4" fill="#0" id="circle24"/>
	<circle cx="288.141" cy="996" r="4" fill="#0" id="circle25"/>
	<circle cx="333.005" cy="153.548" r="4" fill="#0" id="circle26"/>
	<circle cx="337.99" cy="996" r="4" fill="#0" id="circle27"/>
	<circle cx="352.945" cy="4" r="4" fill="#0" id="circle28"/>
	<circle cx="352.945" cy="53.8492" r="4" fill="#0" id="circle29"/>
	<circle cx="372.884" cy="103.698" r="4" fill="#0" id="circle30"/>
	<circle cx="387.839" cy="996" r="4" fill="#0" id="circle31"/>
	<circle cx="397.809" cy="28.9246" r="4" fill="#0" id="circle32"/>
	<circle cx="397.809" cy="148.563" r="4" fill="#0" id="circle33"/>
	<circle cx="437.688" cy="996" r="4" fill="#0" id="circle34"/>
	<circle cx="447.658" cy="153.548" r="4" fill="#0" id="circle35"/>
	<circle cx="447.658" cy="432.704" r="4" fill="#0" id="circle36"/>
	<circle cx="447.658" cy="482.553" r="4" fill="#0" id="circle37"/>
	<circle cx="447.658" cy="532.402" r="4" fill="#0" id="circle38"/>
	<circle cx="447.658" cy="582.251" r="4" fill="#0" id="circle39"/>
	<circle cx="447.658" cy="632.101" r="4" fill="#0" id="circle40"/>
	<circle cx="447.658" cy="681.95" r="4" fill="#0" id="circle41"/>
	<circle cx="447.658" cy="731.799" r="4" fill="#0" id="circle42"/>
	<circle cx="447.658" cy="781.648" r="4" fill="#0" id="circle43"/>
	<circle cx="447.658" cy="831.497" r="4" fill="#0" id="circle44"/>
	<circle cx="457.628" cy="881.347" r="4" fill="#0" id="circle45"/>
	<circle cx="482.553" cy="926.211" r="4" fill="#0" id="circle46"/>
	<circle cx="487.538" cy="996" r="4" fill="#0" id="circle47"/>
	<circle cx="497.508" cy="153.548" r="4" fill="#0" id="circle48"/>
	<circle cx="497.508" cy="417.749" r="4" fill="#0" id="circle49"/>
	<circle cx="542.372" cy="387.839" r="4" fill="#0" id="circle50"/>
	<circle cx="547.357" cy="148.563" r="4" fill="#0" id="circle51"/>
	<circle cx="582.251" cy="357.93" r="4" fill="#0" id="circle52"/>
	<circle cx="597.206" cy="143.578" r="4" fill="#0" id="circle53"/>
	<circle cx="612.161" cy="318.05" r="4" fill="#0" id="circle54"/>
	<circle cx="647.055" cy="143.578" r="4" fill="#0" id="circle55"/>
	<circle cx="662.01" cy="298.111" r="4" fill="#0" id="circle56"/>
	<circle cx="696.905" cy="143.578" r="4" fill="#0" id="circle57"/>
	<circle cx="711.859" cy="298.111" r="4" fill="#0" id="circle58"/>
	<circle cx="726.814" cy="183.457" r="4" fill="#0" id="circle59"/>
	<circle cx="726.814" cy="233.307" r="4" fill="#0" id="circle60"/>
	</g>
</svg>