<?xml version="1.0" encoding="UTF-8" standalone="no"?>
<!-- Created with CurveBenchmark -->
<svg
	xmlns:dc="http://purl.org/dc/elements/1.1/"
	xmlns:cc="http://creativecommons.org/ns#"
	xmlns:rdf="http://www.w3.org/1999/02/22-rdf-syntax-ns#"
	xmlns:svg="http://www.w3.org/2000/svg"
	xmlns="http://www.w3.org/2000/svg"
	xmlns:sodipodi="http://sodipodi.sourceforge.net/DTD/sodipodi-0.dtd"
	xmlns:inkscape="http://www.inkscape.org/namespaces/inkscape"
	width="1000"
	height="1000"
	id="svg2"
	version="1.1"
	sodipodi:docname="manifold/gathan1-fish325.png.txt">
<defs
	id="defs4" />
<metadata
	id="metadata7">
	<rdf:RDF>
		<cc:Work
			rdf:about="">
			<dc:format>image/svg+xml</dc:format>
			<dc:type
				rdf:resource="http://purl.org/dc/dcmitype/StillImage" />
			<dc:title></dc:title>
		</cc:Work>
	</rdf:RDF>
</metadata>
<g
	inkscape:label="Layer 1"
	inkscape:groupmode="layer"
	id="layer1">
	<path style="fill:none;stroke:red;stroke-width:1px;stroke-linecap:butt;stroke-linejoin:miter;stroke-opacity:1" d="M 61.5563,200.369 92.0273,176.669 z" id="boundary" inkscape:connector-curvature="0" />
	<path style="fill:none;stroke:red;stroke-width:1px;stroke-linecap:butt;stroke-linejoin:miter;stroke-opacity:1" d="M 125.884,163.126 92.0273,176.669 z" id="boundary" inkscape:connector-curvature="0" />
	<path style="fill:none;stroke:red;stroke-width:1px;stroke-linecap:butt;stroke-linejoin:miter;stroke-opacity:1" d="M 125.884,163.126 159.741,149.584 z" id="boundary" inkscape:connector-curvature="0" />
	<path style="fill:none;stroke:red;stroke-width:1px;stroke-linecap:butt;stroke-linejoin:miter;stroke-opacity:1" d="M 193.597,136.041 159.741,149.584 z" id="boundary" inkscape:connector-curvature="0" />
	<path style="fill:none;stroke:red;stroke-width:1px;stroke-linecap:butt;stroke-linejoin:miter;stroke-opacity:1" d="M 10.7713,271.468 4,237.611 z" id="boundary" inkscape:connector-curvature="0" />
	<path style="fill:none;stroke:red;stroke-width:1px;stroke-linecap:butt;stroke-linejoin:miter;stroke-opacity:1" d="M 4,237.611 31.0853,217.297 z" id="boundary" inkscape:connector-curvature="0" />
	<path style="fill:none;stroke:red;stroke-width:1px;stroke-linecap:butt;stroke-linejoin:miter;stroke-opacity:1" d="M 31.0853,217.297 61.5563,200.369 z" id="boundary" inkscape:connector-curvature="0" />
	<path style="fill:none;stroke:red;stroke-width:1px;stroke-linecap:butt;stroke-linejoin:miter;stroke-opacity:1" d="M 54.785,325.638 34.471,298.553 z" id="boundary" inkscape:connector-curvature="0" />
	<path style="fill:none;stroke:red;stroke-width:1px;stroke-linecap:butt;stroke-linejoin:miter;stroke-opacity:1" d="M 34.471,298.553 10.7713,271.468 z" id="boundary" inkscape:connector-curvature="0" />
	<path style="fill:none;stroke:red;stroke-width:1px;stroke-linecap:butt;stroke-linejoin:miter;stroke-opacity:1" d="M 329.024,34.471 345.952,4 z" id="boundary" inkscape:connector-curvature="0" />
	<path style="fill:none;stroke:red;stroke-width:1px;stroke-linecap:butt;stroke-linejoin:miter;stroke-opacity:1" d="M 345.952,4 379.809,4 z" id="boundary" inkscape:connector-curvature="0" />
	<path style="fill:none;stroke:red;stroke-width:1px;stroke-linecap:butt;stroke-linejoin:miter;stroke-opacity:1" d="M 329.024,34.471 301.939,54.785 z" id="boundary" inkscape:connector-curvature="0" />
	<path style="fill:none;stroke:red;stroke-width:1px;stroke-linecap:butt;stroke-linejoin:miter;stroke-opacity:1" d="M 379.809,4 413.666,14.157 z" id="boundary" inkscape:connector-curvature="0" />
	<path style="fill:none;stroke:red;stroke-width:1px;stroke-linecap:butt;stroke-linejoin:miter;stroke-opacity:1" d="M 447.522,24.314 413.666,14.157 z" id="boundary" inkscape:connector-curvature="0" />
	<path style="fill:none;stroke:red;stroke-width:1px;stroke-linecap:butt;stroke-linejoin:miter;stroke-opacity:1" d="M 227.454,129.27 261.311,115.727 z" id="boundary" inkscape:connector-curvature="0" />
	<path style="fill:none;stroke:red;stroke-width:1px;stroke-linecap:butt;stroke-linejoin:miter;stroke-opacity:1" d="M 295.167,108.956 261.311,115.727 z" id="boundary" inkscape:connector-curvature="0" />
	<path style="fill:none;stroke:red;stroke-width:1px;stroke-linecap:butt;stroke-linejoin:miter;stroke-opacity:1" d="M 227.454,129.27 193.597,136.041 z" id="boundary" inkscape:connector-curvature="0" />
	<path style="fill:none;stroke:red;stroke-width:1px;stroke-linecap:butt;stroke-linejoin:miter;stroke-opacity:1" d="M 481.379,34.471 447.522,24.314 z" id="boundary" inkscape:connector-curvature="0" />
	<path style="fill:none;stroke:red;stroke-width:1px;stroke-linecap:butt;stroke-linejoin:miter;stroke-opacity:1" d="M 81.8703,349.338 54.785,325.638 z" id="boundary" inkscape:connector-curvature="0" />
	<path style="fill:none;stroke:red;stroke-width:1px;stroke-linecap:butt;stroke-linejoin:miter;stroke-opacity:1" d="M 108.956,369.652 142.812,383.195 z" id="boundary" inkscape:connector-curvature="0" />
	<path style="fill:none;stroke:red;stroke-width:1px;stroke-linecap:butt;stroke-linejoin:miter;stroke-opacity:1" d="M 108.956,369.652 81.8703,349.338 z" id="boundary" inkscape:connector-curvature="0" />
	<path style="fill:none;stroke:red;stroke-width:1px;stroke-linecap:butt;stroke-linejoin:miter;stroke-opacity:1" d="M 142.812,383.195 176.669,396.737 z" id="boundary" inkscape:connector-curvature="0" />
	<path style="fill:none;stroke:red;stroke-width:1px;stroke-linecap:butt;stroke-linejoin:miter;stroke-opacity:1" d="M 210.526,410.28 176.669,396.737 z" id="boundary" inkscape:connector-curvature="0" />
	<path style="fill:none;stroke:red;stroke-width:1px;stroke-linecap:butt;stroke-linejoin:miter;stroke-opacity:1" d="M 210.526,410.28 244.382,423.823 z" id="boundary" inkscape:connector-curvature="0" />
	<path style="fill:none;stroke:red;stroke-width:1px;stroke-linecap:butt;stroke-linejoin:miter;stroke-opacity:1" d="M 298.553,505.078 281.625,474.608 z" id="boundary" inkscape:connector-curvature="0" />
	<path style="fill:none;stroke:red;stroke-width:1px;stroke-linecap:butt;stroke-linejoin:miter;stroke-opacity:1" d="M 281.625,474.608 274.853,440.751 z" id="boundary" inkscape:connector-curvature="0" />
	<path style="fill:none;stroke:red;stroke-width:1px;stroke-linecap:butt;stroke-linejoin:miter;stroke-opacity:1" d="M 244.382,423.823 274.853,440.751 z" id="boundary" inkscape:connector-curvature="0" />
	<path style="fill:none;stroke:red;stroke-width:1px;stroke-linecap:butt;stroke-linejoin:miter;stroke-opacity:1" d="M 298.553,505.078 318.867,532.164 z" id="boundary" inkscape:connector-curvature="0" />
	<path style="fill:none;stroke:red;stroke-width:1px;stroke-linecap:butt;stroke-linejoin:miter;stroke-opacity:1" d="M 413.666,525.392 379.809,522.007 z" id="boundary" inkscape:connector-curvature="0" />
	<path style="fill:none;stroke:red;stroke-width:1px;stroke-linecap:butt;stroke-linejoin:miter;stroke-opacity:1" d="M 488.15,481.379 481.379,447.522 z" id="boundary" inkscape:connector-curvature="0" />
	<path style="fill:none;stroke:red;stroke-width:1px;stroke-linecap:butt;stroke-linejoin:miter;stroke-opacity:1" d="M 481.379,447.522 464.451,417.051 z" id="boundary" inkscape:connector-curvature="0" />
	<path style="fill:none;stroke:red;stroke-width:1px;stroke-linecap:butt;stroke-linejoin:miter;stroke-opacity:1" d="M 464.451,417.051 498.307,417.051 z" id="boundary" inkscape:connector-curvature="0" />
	<path style="fill:none;stroke:red;stroke-width:1px;stroke-linecap:butt;stroke-linejoin:miter;stroke-opacity:1" d="M 498.307,417.051 532.164,410.28 z" id="boundary" inkscape:connector-curvature="0" />
	<path style="fill:none;stroke:red;stroke-width:1px;stroke-linecap:butt;stroke-linejoin:miter;stroke-opacity:1" d="M 379.809,522.007 352.724,542.321 z" id="boundary" inkscape:connector-curvature="0" />
	<path style="fill:none;stroke:red;stroke-width:1px;stroke-linecap:butt;stroke-linejoin:miter;stroke-opacity:1" d="M 352.724,542.321 318.867,532.164 z" id="boundary" inkscape:connector-curvature="0" />
	<path style="fill:none;stroke:red;stroke-width:1px;stroke-linecap:butt;stroke-linejoin:miter;stroke-opacity:1" d="M 447.522,538.935 413.666,525.392 z" id="boundary" inkscape:connector-curvature="0" />
	<path style="fill:none;stroke:red;stroke-width:1px;stroke-linecap:butt;stroke-linejoin:miter;stroke-opacity:1" d="M 488.15,481.379 481.379,522.007 z" id="boundary" inkscape:connector-curvature="0" />
	<path style="fill:none;stroke:red;stroke-width:1px;stroke-linecap:butt;stroke-linejoin:miter;stroke-opacity:1" d="M 481.379,522.007 447.522,538.935 z" id="boundary" inkscape:connector-curvature="0" />
	<path style="fill:none;stroke:red;stroke-width:1px;stroke-linecap:butt;stroke-linejoin:miter;stroke-opacity:1" d="M 481.379,34.471 508.464,54.785 z" id="boundary" inkscape:connector-curvature="0" />
	<path style="fill:none;stroke:red;stroke-width:1px;stroke-linecap:butt;stroke-linejoin:miter;stroke-opacity:1" d="M 535.549,75.099 508.464,54.785 z" id="boundary" inkscape:connector-curvature="0" />
	<path style="fill:none;stroke:red;stroke-width:1px;stroke-linecap:butt;stroke-linejoin:miter;stroke-opacity:1" d="M 654.048,81.8703 620.191,95.413 z" id="boundary" inkscape:connector-curvature="0" />
	<path style="fill:none;stroke:red;stroke-width:1px;stroke-linecap:butt;stroke-linejoin:miter;stroke-opacity:1" d="M 687.904,85.256 654.048,81.8703 z" id="boundary" inkscape:connector-curvature="0" />
	<path style="fill:none;stroke:red;stroke-width:1px;stroke-linecap:butt;stroke-linejoin:miter;stroke-opacity:1" d="M 687.904,85.256 714.99,105.57 z" id="boundary" inkscape:connector-curvature="0" />
	<path style="fill:none;stroke:red;stroke-width:1px;stroke-linecap:butt;stroke-linejoin:miter;stroke-opacity:1" d="M 566.02,92.0273 593.106,115.727 z" id="boundary" inkscape:connector-curvature="0" />
	<path style="fill:none;stroke:red;stroke-width:1px;stroke-linecap:butt;stroke-linejoin:miter;stroke-opacity:1" d="M 535.549,75.099 566.02,92.0273 z" id="boundary" inkscape:connector-curvature="0" />
	<path style="fill:none;stroke:red;stroke-width:1px;stroke-linecap:butt;stroke-linejoin:miter;stroke-opacity:1" d="M 620.191,95.413 593.106,115.727 z" id="boundary" inkscape:connector-curvature="0" />
	<path style="fill:none;stroke:red;stroke-width:1px;stroke-linecap:butt;stroke-linejoin:miter;stroke-opacity:1" d="M 714.99,105.57 738.689,132.655 z" id="boundary" inkscape:connector-curvature="0" />
	<path style="fill:none;stroke:red;stroke-width:1px;stroke-linecap:butt;stroke-linejoin:miter;stroke-opacity:1" d="M 904.587,163.126 870.73,176.669 z" id="boundary" inkscape:connector-curvature="0" />
	<path style="fill:none;stroke:red;stroke-width:1px;stroke-linecap:butt;stroke-linejoin:miter;stroke-opacity:1" d="M 765.775,156.355 738.689,132.655 z" id="boundary" inkscape:connector-curvature="0" />
	<path style="fill:none;stroke:red;stroke-width:1px;stroke-linecap:butt;stroke-linejoin:miter;stroke-opacity:1" d="M 938.444,149.584 972.3,139.427 z" id="boundary" inkscape:connector-curvature="0" />
	<path style="fill:none;stroke:red;stroke-width:1px;stroke-linecap:butt;stroke-linejoin:miter;stroke-opacity:1" d="M 972.3,139.427 996,169.898 z" id="boundary" inkscape:connector-curvature="0" />
	<path style="fill:none;stroke:red;stroke-width:1px;stroke-linecap:butt;stroke-linejoin:miter;stroke-opacity:1" d="M 938.444,149.584 904.587,163.126 z" id="boundary" inkscape:connector-curvature="0" />
	<path style="fill:none;stroke:red;stroke-width:1px;stroke-linecap:butt;stroke-linejoin:miter;stroke-opacity:1" d="M 996,169.898 982.457,224.068 z" id="boundary" inkscape:connector-curvature="0" />
	<path style="fill:none;stroke:red;stroke-width:1px;stroke-linecap:butt;stroke-linejoin:miter;stroke-opacity:1" d="M 765.775,156.355 786.089,183.44 z" id="boundary" inkscape:connector-curvature="0" />
	<path style="fill:none;stroke:red;stroke-width:1px;stroke-linecap:butt;stroke-linejoin:miter;stroke-opacity:1" d="M 806.403,210.526 786.089,183.44 z" id="boundary" inkscape:connector-curvature="0" />
	<path style="fill:none;stroke:red;stroke-width:1px;stroke-linecap:butt;stroke-linejoin:miter;stroke-opacity:1" d="M 840.259,196.983 806.403,210.526 z" id="boundary" inkscape:connector-curvature="0" />
	<path style="fill:none;stroke:red;stroke-width:1px;stroke-linecap:butt;stroke-linejoin:miter;stroke-opacity:1" d="M 840.259,196.983 870.73,176.669 z" id="boundary" inkscape:connector-curvature="0" />
	<path style="fill:none;stroke:red;stroke-width:1px;stroke-linecap:butt;stroke-linejoin:miter;stroke-opacity:1" d="M 982.457,224.068 982.457,257.925 z" id="boundary" inkscape:connector-curvature="0" />
	<path style="fill:none;stroke:red;stroke-width:1px;stroke-linecap:butt;stroke-linejoin:miter;stroke-opacity:1" d="M 566.02,410.28 599.877,410.28 z" id="boundary" inkscape:connector-curvature="0" />
	<path style="fill:none;stroke:red;stroke-width:1px;stroke-linecap:butt;stroke-linejoin:miter;stroke-opacity:1" d="M 566.02,410.28 532.164,410.28 z" id="boundary" inkscape:connector-curvature="0" />
	<path style="fill:none;stroke:red;stroke-width:1px;stroke-linecap:butt;stroke-linejoin:miter;stroke-opacity:1" d="M 786.089,325.638 779.317,373.038 z" id="boundary" inkscape:connector-curvature="0" />
	<path style="fill:none;stroke:red;stroke-width:1px;stroke-linecap:butt;stroke-linejoin:miter;stroke-opacity:1" d="M 633.734,403.509 599.877,410.28 z" id="boundary" inkscape:connector-curvature="0" />
	<path style="fill:none;stroke:red;stroke-width:1px;stroke-linecap:butt;stroke-linejoin:miter;stroke-opacity:1" d="M 786.089,325.638 819.945,322.253 z" id="boundary" inkscape:connector-curvature="0" />
	<path style="fill:none;stroke:red;stroke-width:1px;stroke-linecap:butt;stroke-linejoin:miter;stroke-opacity:1" d="M 633.734,403.509 660.819,423.823 z" id="boundary" inkscape:connector-curvature="0" />
	<path style="fill:none;stroke:red;stroke-width:1px;stroke-linecap:butt;stroke-linejoin:miter;stroke-opacity:1" d="M 728.532,430.594 694.676,430.594 z" id="boundary" inkscape:connector-curvature="0" />
	<path style="fill:none;stroke:red;stroke-width:1px;stroke-linecap:butt;stroke-linejoin:miter;stroke-opacity:1" d="M 694.676,430.594 660.819,423.823 z" id="boundary" inkscape:connector-curvature="0" />
	<path style="fill:none;stroke:red;stroke-width:1px;stroke-linecap:butt;stroke-linejoin:miter;stroke-opacity:1" d="M 728.532,430.594 762.389,417.051 z" id="boundary" inkscape:connector-curvature="0" />
	<path style="fill:none;stroke:red;stroke-width:1px;stroke-linecap:butt;stroke-linejoin:miter;stroke-opacity:1" d="M 779.317,373.038 762.389,417.051 z" id="boundary" inkscape:connector-curvature="0" />
	<path style="fill:none;stroke:red;stroke-width:1px;stroke-linecap:butt;stroke-linejoin:miter;stroke-opacity:1" d="M 850.416,339.181 877.502,362.881 z" id="boundary" inkscape:connector-curvature="0" />
	<path style="fill:none;stroke:red;stroke-width:1px;stroke-linecap:butt;stroke-linejoin:miter;stroke-opacity:1" d="M 850.416,339.181 819.945,322.253 z" id="boundary" inkscape:connector-curvature="0" />
	<path style="fill:none;stroke:red;stroke-width:1px;stroke-linecap:butt;stroke-linejoin:miter;stroke-opacity:1" d="M 989.229,325.638 982.457,291.782 z" id="boundary" inkscape:connector-curvature="0" />
	<path style="fill:none;stroke:red;stroke-width:1px;stroke-linecap:butt;stroke-linejoin:miter;stroke-opacity:1" d="M 982.457,291.782 982.457,257.925 z" id="boundary" inkscape:connector-curvature="0" />
	<path style="fill:none;stroke:red;stroke-width:1px;stroke-linecap:butt;stroke-linejoin:miter;stroke-opacity:1" d="M 877.502,362.881 907.973,379.809 z" id="boundary" inkscape:connector-curvature="0" />
	<path style="fill:none;stroke:red;stroke-width:1px;stroke-linecap:butt;stroke-linejoin:miter;stroke-opacity:1" d="M 996,359.495 975.686,396.737 z" id="boundary" inkscape:connector-curvature="0" />
	<path style="fill:none;stroke:red;stroke-width:1px;stroke-linecap:butt;stroke-linejoin:miter;stroke-opacity:1" d="M 975.686,396.737 941.829,389.966 z" id="boundary" inkscape:connector-curvature="0" />
	<path style="fill:none;stroke:red;stroke-width:1px;stroke-linecap:butt;stroke-linejoin:miter;stroke-opacity:1" d="M 941.829,389.966 907.973,379.809 z" id="boundary" inkscape:connector-curvature="0" />
	<path style="fill:none;stroke:red;stroke-width:1px;stroke-linecap:butt;stroke-linejoin:miter;stroke-opacity:1" d="M 989.229,325.638 996,359.495 z" id="boundary" inkscape:connector-curvature="0" />
	<circle cx="4" cy="237.611" r="4" fill="#0" id="circle0"/>
	<circle cx="10.7713" cy="271.468" r="4" fill="#0" id="circle1"/>
	<circle cx="31.0853" cy="217.297" r="4" fill="#0" id="circle2"/>
	<circle cx="34.471" cy="298.553" r="4" fill="#0" id="circle3"/>
	<circle cx="54.785" cy="325.638" r="4" fill="#0" id="circle4"/>
	<circle cx="61.5563" cy="200.369" r="4" fill="#0" id="circle5"/>
	<circle cx="81.8703" cy="349.338" r="4" fill="#0" id="circle6"/>
	<circle cx="92.0273" cy="176.669" r="4" fill="#0" id="circle7"/>
	<circle cx="108.956" cy="369.652" r="4" fill="#0" id="circle8"/>
	<circle cx="125.884" cy="163.126" r="4" fill="#0" id="circle9"/>
	<circle cx="142.812" cy="383.195" r="4" fill="#0" id="circle10"/>
	<circle cx="159.741" cy="149.584" r="4" fill="#0" id="circle11"/>
	<circle cx="176.669" cy="396.737" r="4" fill="#0" id="circle12"/>
	<circle cx="193.597" cy="136.041" r="4" fill="#0" id="circle13"/>
	<circle cx="210.526" cy="410.28" r="4" fill="#0" id="circle14"/>
	<circle cx="227.454" cy="129.27" r="4" fill="#0" id="circle15"/>
	<circle cx="244.382" cy="423.823" r="4" fill="#0" id="circle16"/>
	<circle cx="261.311" cy="115.727" r="4" fill="#0" id="circle17"/>
	<circle cx="274.853" cy="440.751" r="4" fill="#0" id="circle18"/>
	<circle cx="281.625" cy="474.608" r="4" fill="#0" id="circle19"/>
	<circle cx="295.167" cy="108.956" r="4" fill="#0" id="circle20"/>
	<circle cx="298.553" cy="505.078" r="4" fill="#0" id="circle21"/>
	<circle cx="301.939" cy="54.785" r="4" fill="#0" id="circle22"/>
	<circle cx="318.867" cy="532.164" r="4" fill="#0" id="circle23"/>
	<circle cx="329.024" cy="34.471" r="4" fill="#0" id="circle24"/>
	<circle cx="345.952" cy="4" r="4" fill="#0" id="circle25"/>
	<circle cx="352.724" cy="542.321" r="4" fill="#0" id="circle26"/>
	<circle cx="379.809" cy="4" r="4" fill="#0" id="circle27"/>
	<circle cx="379.809" cy="522.007" r="4" fill="#0" id="circle28"/>
	<circle cx="413.666" cy="14.157" r="4" fill="#0" id="circle29"/>
	<circle cx="413.666" cy="525.392" r="4" fill="#0" id="circle30"/>
	<circle cx="447.522" cy="24.314" r="4" fill="#0" id="circle31"/>
	<circle cx="447.522" cy="538.935" r="4" fill="#0" id="circle32"/>
	<circle cx="464.451" cy="417.051" r="4" fill="#0" id="circle33"/>
	<circle cx="481.379" cy="34.471" r="4" fill="#0" id="circle34"/>
	<circle cx="481.379" cy="447.522" r="4" fill="#0" id="circle35"/>
	<circle cx="481.379" cy="522.007" r="4" fill="#0" id="circle36"/>
	<circle cx="488.15" cy="481.379" r="4" fill="#0" id="circle37"/>
	<circle cx="498.307" cy="417.051" r="4" fill="#0" id="circle38"/>
	<circle cx="508.464" cy="54.785" r="4" fill="#0" id="circle39"/>
	<circle cx="532.164" cy="410.28" r="4" fill="#0" id="circle40"/>
	<circle cx="535.549" cy="75.099" r="4" fill="#0" id="circle41"/>
	<circle cx="566.02" cy="92.0273" r="4" fill="#0" id="circle42"/>
	<circle cx="566.02" cy="410.28" r="4" fill="#0" id="circle43"/>
	<circle cx="593.106" cy="115.727" r="4" fill="#0" id="circle44"/>
	<circle cx="599.877" cy="410.28" r="4" fill="#0" id="circle45"/>
	<circle cx="620.191" cy="95.413" r="4" fill="#0" id="circle46"/>
	<circle cx="633.734" cy="403.509" r="4" fill="#0" id="circle47"/>
	<circle cx="654.048" cy="81.8703" r="4" fill="#0" id="circle48"/>
	<circle cx="660.819" cy="423.823" r="4" fill="#0" id="circle49"/>
	<circle cx="687.904" cy="85.256" r="4" fill="#0" id="circle50"/>
	<circle cx="694.676" cy="430.594" r="4" fill="#0" id="circle51"/>
	<circle cx="714.99" cy="105.57" r="4" fill="#0" id="circle52"/>
	<circle cx="728.532" cy="430.594" r="4" fill="#0" id="circle53"/>
	<circle cx="738.689" cy="132.655" r="4" fill="#0" id="circle54"/>
	<circle cx="762.389" cy="417.051" r="4" fill="#0" id="circle55"/>
	<circle cx="765.775" cy="156.355" r="4" fill="#0" id="circle56"/>
	<circle cx="779.317" cy="373.038" r="4" fill="#0" id="circle57"/>
	<circle cx="786.089" cy="183.44" r="4" fill="#0" id="circle58"/>
	<circle cx="786.089" cy="325.638" r="4" fill="#0" id="circle59"/>
	<circle cx="806.403" cy="210.526" r="4" fill="#0" id="circle60"/>
	<circle cx="819.945" cy="322.253" r="4" fill="#0" id="circle61"/>
	<circle cx="840.259" cy="196.983" r="4" fill="#0" id="circle62"/>
	<circle cx="850.416" cy="339.181" r="4" fill="#0" id="circle63"/>
	<circle cx="870.73" cy="176.669" r="4" fill="#0" id="circle64"/>
	<circle cx="877.502" cy="362.881" r="4" fill="#0" id="circle65"/>
	<circle cx="904.587" cy="163.126" r="4" fill="#0" id="circle66"/>
	<circle cx="907.973" cy="379.809" r="4" fill="#0" id="circle67"/>
	<circle cx="938.444" cy="149.584" r="4" fill="#0" id="circle68"/>
	<circle cx="941.829" cy="389.966" r="4" fill="#0" id="circle69"/>
	<circle cx="972.3" cy="139.427" r="4" fill="#0" id="circle70"/>
	<circle cx="975.686" cy="396.737" r="4" fill="#0" id="circle71"/>
	<circle cx="982.457" cy="224.068" r="4" fill="#0" id="circle72"/>
	<circle cx="982.457" cy="257.925" r="4" fill="#0" id="circle73"/>
	<circle cx="982.457" cy="291.782" r="4" fill="#0" id="circle74"/>
	<circle cx="989.229" cy="325.638" r="4" fill="#0" id="circle75"/>
	<circle cx="996" cy="169.898" r="4" fill="#0" id="circle76"/>
	<circle cx="996" cy="359.495" r="4" fill="#0" id="circle77"/>
	</g>
</svg>