<?xml version="1.0" encoding="UTF-8" standalone="no"?>
<!-- Created with CurveBenchmark -->
<svg
	xmlns:dc="http://purl.org/dc/elements/1.1/"
	xmlns:cc="http://creativecommons.org/ns#"
	xmlns:rdf="http://www.w3.org/1999/02/22-rdf-syntax-ns#"
	xmlns:svg="http://www.w3.org/2000/svg"
	xmlns="http://www.w3.org/2000/svg"
	xmlns:sodipodi="http://sodipodi.sourceforge.net/DTD/sodipodi-0.dtd"
	xmlns:inkscape="http://www.inkscape.org/namespaces/inkscape"
	width="1000"
	height="1000"
	id="svg2"
	version="1.1"
	sodipodi:docname="manifold/gathang-lmfish-4.png.txt">
<defs
	id="defs4" />
<metadata
	id="metadata7">
	<rdf:RDF>
		<cc:Work
			rdf:about="">
			<dc:format>image/svg+xml</dc:format>
			<dc:type
				rdf:resource="http://purl.org/dc/dcmitype/StillImage" />
			<dc:title></dc:title>
		</cc:Work>
	</rdf:RDF>
</metadata>
<g
	inkscape:label="Layer 1"
	inkscape:groupmode="layer"
	id="layer1">
	<path style="fill:none;stroke:red;stroke-width:1px;stroke-linecap:butt;stroke-linejoin:miter;stroke-opacity:1" d="M 216.769,155.978 211.242,161.504 z" id="boundary" inkscape:connector-curvature="0" />
	<path style="fill:none;stroke:red;stroke-width:1px;stroke-linecap:butt;stroke-linejoin:miter;stroke-opacity:1" d="M 211.242,161.504 204.334,162.886 z" id="boundary" inkscape:connector-curvature="0" />
	<path style="fill:none;stroke:red;stroke-width:1px;stroke-linecap:butt;stroke-linejoin:miter;stroke-opacity:1" d="M 204.334,162.886 197.426,162.886 z" id="boundary" inkscape:connector-curvature="0" />
	<path style="fill:none;stroke:red;stroke-width:1px;stroke-linecap:butt;stroke-linejoin:miter;stroke-opacity:1" d="M 216.769,155.978 223.677,155.978 z" id="boundary" inkscape:connector-curvature="0" />
	<path style="fill:none;stroke:red;stroke-width:1px;stroke-linecap:butt;stroke-linejoin:miter;stroke-opacity:1" d="M 230.585,155.978 223.677,155.978 z" id="boundary" inkscape:connector-curvature="0" />
	<path style="fill:none;stroke:red;stroke-width:1px;stroke-linecap:butt;stroke-linejoin:miter;stroke-opacity:1" d="M 236.802,152.524 230.585,155.978 z" id="boundary" inkscape:connector-curvature="0" />
	<path style="fill:none;stroke:red;stroke-width:1px;stroke-linecap:butt;stroke-linejoin:miter;stroke-opacity:1" d="M 164.267,169.794 157.359,169.794 z" id="boundary" inkscape:connector-curvature="0" />
	<path style="fill:none;stroke:red;stroke-width:1px;stroke-linecap:butt;stroke-linejoin:miter;stroke-opacity:1" d="M 171.175,169.794 164.267,169.794 z" id="boundary" inkscape:connector-curvature="0" />
	<path style="fill:none;stroke:red;stroke-width:1px;stroke-linecap:butt;stroke-linejoin:miter;stroke-opacity:1" d="M 177.393,166.34 171.175,169.794 z" id="boundary" inkscape:connector-curvature="0" />
	<path style="fill:none;stroke:red;stroke-width:1px;stroke-linecap:butt;stroke-linejoin:miter;stroke-opacity:1" d="M 151.142,173.248 157.359,169.794 z" id="boundary" inkscape:connector-curvature="0" />
	<path style="fill:none;stroke:red;stroke-width:1px;stroke-linecap:butt;stroke-linejoin:miter;stroke-opacity:1" d="M 197.426,162.886 191.209,166.34 z" id="boundary" inkscape:connector-curvature="0" />
	<path style="fill:none;stroke:red;stroke-width:1px;stroke-linecap:butt;stroke-linejoin:miter;stroke-opacity:1" d="M 191.209,166.34 184.301,166.34 z" id="boundary" inkscape:connector-curvature="0" />
	<path style="fill:none;stroke:red;stroke-width:1px;stroke-linecap:butt;stroke-linejoin:miter;stroke-opacity:1" d="M 184.301,166.34 177.393,166.34 z" id="boundary" inkscape:connector-curvature="0" />
	<path style="fill:none;stroke:red;stroke-width:1px;stroke-linecap:butt;stroke-linejoin:miter;stroke-opacity:1" d="M 263.053,106.24 263.053,113.148 z" id="boundary" inkscape:connector-curvature="0" />
	<path style="fill:none;stroke:red;stroke-width:1px;stroke-linecap:butt;stroke-linejoin:miter;stroke-opacity:1" d="M 263.053,113.148 259.599,120.056 z" id="boundary" inkscape:connector-curvature="0" />
	<path style="fill:none;stroke:red;stroke-width:1px;stroke-linecap:butt;stroke-linejoin:miter;stroke-opacity:1" d="M 263.053,106.24 266.507,99.3315 z" id="boundary" inkscape:connector-curvature="0" />
	<path style="fill:none;stroke:red;stroke-width:1px;stroke-linecap:butt;stroke-linejoin:miter;stroke-opacity:1" d="M 266.507,99.3315 269.961,92.4234 z" id="boundary" inkscape:connector-curvature="0" />
	<path style="fill:none;stroke:red;stroke-width:1px;stroke-linecap:butt;stroke-linejoin:miter;stroke-opacity:1" d="M 269.961,92.4234 275.487,86.8969 z" id="boundary" inkscape:connector-curvature="0" />
	<path style="fill:none;stroke:red;stroke-width:1px;stroke-linecap:butt;stroke-linejoin:miter;stroke-opacity:1" d="M 249.237,144.234 243.71,152.524 z" id="boundary" inkscape:connector-curvature="0" />
	<path style="fill:none;stroke:red;stroke-width:1px;stroke-linecap:butt;stroke-linejoin:miter;stroke-opacity:1" d="M 243.71,152.524 236.802,152.524 z" id="boundary" inkscape:connector-curvature="0" />
	<path style="fill:none;stroke:red;stroke-width:1px;stroke-linecap:butt;stroke-linejoin:miter;stroke-opacity:1" d="M 249.237,144.234 254.763,138.708 z" id="boundary" inkscape:connector-curvature="0" />
	<path style="fill:none;stroke:red;stroke-width:1px;stroke-linecap:butt;stroke-linejoin:miter;stroke-opacity:1" d="M 254.763,138.708 256.145,126.964 z" id="boundary" inkscape:connector-curvature="0" />
	<path style="fill:none;stroke:red;stroke-width:1px;stroke-linecap:butt;stroke-linejoin:miter;stroke-opacity:1" d="M 256.145,126.964 259.599,120.056 z" id="boundary" inkscape:connector-curvature="0" />
	<path style="fill:none;stroke:red;stroke-width:1px;stroke-linecap:butt;stroke-linejoin:miter;stroke-opacity:1" d="M 58.5738,197.426 51.6657,197.426 z" id="boundary" inkscape:connector-curvature="0" />
	<path style="fill:none;stroke:red;stroke-width:1px;stroke-linecap:butt;stroke-linejoin:miter;stroke-opacity:1" d="M 64.7911,193.972 58.5738,197.426 z" id="boundary" inkscape:connector-curvature="0" />
	<path style="fill:none;stroke:red;stroke-width:1px;stroke-linecap:butt;stroke-linejoin:miter;stroke-opacity:1" d="M 78.6072,190.518 71.6992,193.972 z" id="boundary" inkscape:connector-curvature="0" />
	<path style="fill:none;stroke:red;stroke-width:1px;stroke-linecap:butt;stroke-linejoin:miter;stroke-opacity:1" d="M 71.6992,193.972 64.7911,193.972 z" id="boundary" inkscape:connector-curvature="0" />
	<path style="fill:none;stroke:red;stroke-width:1px;stroke-linecap:butt;stroke-linejoin:miter;stroke-opacity:1" d="M 84.8245,187.064 78.6072,190.518 z" id="boundary" inkscape:connector-curvature="0" />
	<path style="fill:none;stroke:red;stroke-width:1px;stroke-linecap:butt;stroke-linejoin:miter;stroke-opacity:1" d="M 84.8245,187.064 91.7326,187.064 z" id="boundary" inkscape:connector-curvature="0" />
	<path style="fill:none;stroke:red;stroke-width:1px;stroke-linecap:butt;stroke-linejoin:miter;stroke-opacity:1" d="M 20.5794,214.696 26.7967,211.242 z" id="boundary" inkscape:connector-curvature="0" />
	<path style="fill:none;stroke:red;stroke-width:1px;stroke-linecap:butt;stroke-linejoin:miter;stroke-opacity:1" d="M 26.7967,211.242 33.0139,207.788 z" id="boundary" inkscape:connector-curvature="0" />
	<path style="fill:none;stroke:red;stroke-width:1px;stroke-linecap:butt;stroke-linejoin:miter;stroke-opacity:1" d="M 39.922,205.025 45.4485,200.88 z" id="boundary" inkscape:connector-curvature="0" />
	<path style="fill:none;stroke:red;stroke-width:1px;stroke-linecap:butt;stroke-linejoin:miter;stroke-opacity:1" d="M 39.922,205.025 33.0139,207.788 z" id="boundary" inkscape:connector-curvature="0" />
	<path style="fill:none;stroke:red;stroke-width:1px;stroke-linecap:butt;stroke-linejoin:miter;stroke-opacity:1" d="M 45.4485,200.88 51.6657,197.426 z" id="boundary" inkscape:connector-curvature="0" />
	<path style="fill:none;stroke:red;stroke-width:1px;stroke-linecap:butt;stroke-linejoin:miter;stroke-opacity:1" d="M 131.109,176.702 124.201,176.702 z" id="boundary" inkscape:connector-curvature="0" />
	<path style="fill:none;stroke:red;stroke-width:1px;stroke-linecap:butt;stroke-linejoin:miter;stroke-opacity:1" d="M 137.326,173.248 131.109,176.702 z" id="boundary" inkscape:connector-curvature="0" />
	<path style="fill:none;stroke:red;stroke-width:1px;stroke-linecap:butt;stroke-linejoin:miter;stroke-opacity:1" d="M 151.142,173.248 144.234,173.248 z" id="boundary" inkscape:connector-curvature="0" />
	<path style="fill:none;stroke:red;stroke-width:1px;stroke-linecap:butt;stroke-linejoin:miter;stroke-opacity:1" d="M 144.234,173.248 137.326,173.248 z" id="boundary" inkscape:connector-curvature="0" />
	<path style="fill:none;stroke:red;stroke-width:1px;stroke-linecap:butt;stroke-linejoin:miter;stroke-opacity:1" d="M 91.7326,187.064 97.9499,183.61 z" id="boundary" inkscape:connector-curvature="0" />
	<path style="fill:none;stroke:red;stroke-width:1px;stroke-linecap:butt;stroke-linejoin:miter;stroke-opacity:1" d="M 97.9499,183.61 104.858,183.61 z" id="boundary" inkscape:connector-curvature="0" />
	<path style="fill:none;stroke:red;stroke-width:1px;stroke-linecap:butt;stroke-linejoin:miter;stroke-opacity:1" d="M 104.858,183.61 111.766,183.61 z" id="boundary" inkscape:connector-curvature="0" />
	<path style="fill:none;stroke:red;stroke-width:1px;stroke-linecap:butt;stroke-linejoin:miter;stroke-opacity:1" d="M 111.766,183.61 117.983,180.156 z" id="boundary" inkscape:connector-curvature="0" />
	<path style="fill:none;stroke:red;stroke-width:1px;stroke-linecap:butt;stroke-linejoin:miter;stroke-opacity:1" d="M 124.201,176.702 117.983,180.156 z" id="boundary" inkscape:connector-curvature="0" />
	<path style="fill:none;stroke:red;stroke-width:1px;stroke-linecap:butt;stroke-linejoin:miter;stroke-opacity:1" d="M 281.014,81.3705 275.487,86.8969 z" id="boundary" inkscape:connector-curvature="0" />
	<path style="fill:none;stroke:red;stroke-width:1px;stroke-linecap:butt;stroke-linejoin:miter;stroke-opacity:1" d="M 426.084,71.0084 431.61,66.1727 z" id="boundary" inkscape:connector-curvature="0" />
	<path style="fill:none;stroke:red;stroke-width:1px;stroke-linecap:butt;stroke-linejoin:miter;stroke-opacity:1" d="M 431.61,66.1727 437.827,62.7187 z" id="boundary" inkscape:connector-curvature="0" />
	<path style="fill:none;stroke:red;stroke-width:1px;stroke-linecap:butt;stroke-linejoin:miter;stroke-opacity:1" d="M 444.045,59.2646 450.262,55.8106 z" id="boundary" inkscape:connector-curvature="0" />
	<path style="fill:none;stroke:red;stroke-width:1px;stroke-linecap:butt;stroke-linejoin:miter;stroke-opacity:1" d="M 450.262,55.8106 457.17,53.7382 z" id="boundary" inkscape:connector-curvature="0" />
	<path style="fill:none;stroke:red;stroke-width:1px;stroke-linecap:butt;stroke-linejoin:miter;stroke-opacity:1" d="M 464.078,50.2841 457.17,53.7382 z" id="boundary" inkscape:connector-curvature="0" />
	<path style="fill:none;stroke:red;stroke-width:1px;stroke-linecap:butt;stroke-linejoin:miter;stroke-opacity:1" d="M 437.827,62.7187 444.045,59.2646 z" id="boundary" inkscape:connector-curvature="0" />
	<path style="fill:none;stroke:red;stroke-width:1px;stroke-linecap:butt;stroke-linejoin:miter;stroke-opacity:1" d="M 420.557,76.5348 426.084,71.0084 z" id="boundary" inkscape:connector-curvature="0" />
	<path style="fill:none;stroke:red;stroke-width:1px;stroke-linecap:butt;stroke-linejoin:miter;stroke-opacity:1" d="M 306.574,69.6267 299.666,73.0808 z" id="boundary" inkscape:connector-curvature="0" />
	<path style="fill:none;stroke:red;stroke-width:1px;stroke-linecap:butt;stroke-linejoin:miter;stroke-opacity:1" d="M 299.666,73.0808 292.758,73.0808 z" id="boundary" inkscape:connector-curvature="0" />
	<path style="fill:none;stroke:red;stroke-width:1px;stroke-linecap:butt;stroke-linejoin:miter;stroke-opacity:1" d="M 286.54,76.5348 292.758,73.0808 z" id="boundary" inkscape:connector-curvature="0" />
	<path style="fill:none;stroke:red;stroke-width:1px;stroke-linecap:butt;stroke-linejoin:miter;stroke-opacity:1" d="M 333.515,73.0808 326.607,70.3175 z" id="boundary" inkscape:connector-curvature="0" />
	<path style="fill:none;stroke:red;stroke-width:1px;stroke-linecap:butt;stroke-linejoin:miter;stroke-opacity:1" d="M 319.699,73.0808 313.482,69.6267 z" id="boundary" inkscape:connector-curvature="0" />
	<path style="fill:none;stroke:red;stroke-width:1px;stroke-linecap:butt;stroke-linejoin:miter;stroke-opacity:1" d="M 326.607,70.3175 319.699,73.0808 z" id="boundary" inkscape:connector-curvature="0" />
	<path style="fill:none;stroke:red;stroke-width:1px;stroke-linecap:butt;stroke-linejoin:miter;stroke-opacity:1" d="M 306.574,69.6267 313.482,69.6267 z" id="boundary" inkscape:connector-curvature="0" />
	<path style="fill:none;stroke:red;stroke-width:1px;stroke-linecap:butt;stroke-linejoin:miter;stroke-opacity:1" d="M 503.454,38.5404 510.362,38.5404 z" id="boundary" inkscape:connector-curvature="0" />
	<path style="fill:none;stroke:red;stroke-width:1px;stroke-linecap:butt;stroke-linejoin:miter;stroke-opacity:1" d="M 497.237,41.9944 503.454,38.5404 z" id="boundary" inkscape:connector-curvature="0" />
	<path style="fill:none;stroke:red;stroke-width:1px;stroke-linecap:butt;stroke-linejoin:miter;stroke-opacity:1" d="M 517.27,38.5404 524.178,35.0864 z" id="boundary" inkscape:connector-curvature="0" />
	<path style="fill:none;stroke:red;stroke-width:1px;stroke-linecap:butt;stroke-linejoin:miter;stroke-opacity:1" d="M 524.178,35.0864 531.086,35.0864 z" id="boundary" inkscape:connector-curvature="0" />
	<path style="fill:none;stroke:red;stroke-width:1px;stroke-linecap:butt;stroke-linejoin:miter;stroke-opacity:1" d="M 517.27,38.5404 510.362,38.5404 z" id="boundary" inkscape:connector-curvature="0" />
	<path style="fill:none;stroke:red;stroke-width:1px;stroke-linecap:butt;stroke-linejoin:miter;stroke-opacity:1" d="M 537.994,31.6323 531.086,35.0864 z" id="boundary" inkscape:connector-curvature="0" />
	<path style="fill:none;stroke:red;stroke-width:1px;stroke-linecap:butt;stroke-linejoin:miter;stroke-opacity:1" d="M 483.421,41.9944 477.894,46.8301 z" id="boundary" inkscape:connector-curvature="0" />
	<path style="fill:none;stroke:red;stroke-width:1px;stroke-linecap:butt;stroke-linejoin:miter;stroke-opacity:1" d="M 477.894,46.8301 470.986,48.9025 z" id="boundary" inkscape:connector-curvature="0" />
	<path style="fill:none;stroke:red;stroke-width:1px;stroke-linecap:butt;stroke-linejoin:miter;stroke-opacity:1" d="M 470.986,48.9025 464.078,50.2841 z" id="boundary" inkscape:connector-curvature="0" />
	<path style="fill:none;stroke:red;stroke-width:1px;stroke-linecap:butt;stroke-linejoin:miter;stroke-opacity:1" d="M 483.421,41.9944 490.329,41.9944 z" id="boundary" inkscape:connector-curvature="0" />
	<path style="fill:none;stroke:red;stroke-width:1px;stroke-linecap:butt;stroke-linejoin:miter;stroke-opacity:1" d="M 497.237,41.9944 490.329,41.9944 z" id="boundary" inkscape:connector-curvature="0" />
	<path style="fill:none;stroke:red;stroke-width:1px;stroke-linecap:butt;stroke-linejoin:miter;stroke-opacity:1" d="M 281.014,81.3705 286.54,76.5348 z" id="boundary" inkscape:connector-curvature="0" />
	<path style="fill:none;stroke:red;stroke-width:1px;stroke-linecap:butt;stroke-linejoin:miter;stroke-opacity:1" d="M 339.733,76.5348 345.259,80.6797 z" id="boundary" inkscape:connector-curvature="0" />
	<path style="fill:none;stroke:red;stroke-width:1px;stroke-linecap:butt;stroke-linejoin:miter;stroke-opacity:1" d="M 339.733,76.5348 333.515,73.0808 z" id="boundary" inkscape:connector-curvature="0" />
	<path style="fill:none;stroke:red;stroke-width:1px;stroke-linecap:butt;stroke-linejoin:miter;stroke-opacity:1" d="M 345.259,80.6797 350.095,86.2061 z" id="boundary" inkscape:connector-curvature="0" />
	<path style="fill:none;stroke:red;stroke-width:1px;stroke-linecap:butt;stroke-linejoin:miter;stroke-opacity:1" d="M 358.384,97.9499 361.838,104.167 z" id="boundary" inkscape:connector-curvature="0" />
	<path style="fill:none;stroke:red;stroke-width:1px;stroke-linecap:butt;stroke-linejoin:miter;stroke-opacity:1" d="M 355.621,91.0418 350.095,86.2061 z" id="boundary" inkscape:connector-curvature="0" />
	<path style="fill:none;stroke:red;stroke-width:1px;stroke-linecap:butt;stroke-linejoin:miter;stroke-opacity:1" d="M 355.621,91.0418 358.384,97.9499 z" id="boundary" inkscape:connector-curvature="0" />
	<path style="fill:none;stroke:red;stroke-width:1px;stroke-linecap:butt;stroke-linejoin:miter;stroke-opacity:1" d="M 367.365,108.312 361.838,104.167 z" id="boundary" inkscape:connector-curvature="0" />
	<path style="fill:none;stroke:red;stroke-width:1px;stroke-linecap:butt;stroke-linejoin:miter;stroke-opacity:1" d="M 403.287,90.351 399.833,97.2591 z" id="boundary" inkscape:connector-curvature="0" />
	<path style="fill:none;stroke:red;stroke-width:1px;stroke-linecap:butt;stroke-linejoin:miter;stroke-opacity:1" d="M 399.833,97.2591 394.306,102.786 z" id="boundary" inkscape:connector-curvature="0" />
	<path style="fill:none;stroke:red;stroke-width:1px;stroke-linecap:butt;stroke-linejoin:miter;stroke-opacity:1" d="M 403.287,90.351 408.813,84.8245 z" id="boundary" inkscape:connector-curvature="0" />
	<path style="fill:none;stroke:red;stroke-width:1px;stroke-linecap:butt;stroke-linejoin:miter;stroke-opacity:1" d="M 392.925,111.075 394.306,102.786 z" id="boundary" inkscape:connector-curvature="0" />
	<path style="fill:none;stroke:red;stroke-width:1px;stroke-linecap:butt;stroke-linejoin:miter;stroke-opacity:1" d="M 408.813,84.8245 414.34,79.9889 z" id="boundary" inkscape:connector-curvature="0" />
	<path style="fill:none;stroke:red;stroke-width:1px;stroke-linecap:butt;stroke-linejoin:miter;stroke-opacity:1" d="M 414.34,79.9889 420.557,76.5348 z" id="boundary" inkscape:connector-curvature="0" />
	<path style="fill:none;stroke:red;stroke-width:1px;stroke-linecap:butt;stroke-linejoin:miter;stroke-opacity:1" d="M 376.345,125.582 370.819,121.437 z" id="boundary" inkscape:connector-curvature="0" />
	<path style="fill:none;stroke:red;stroke-width:1px;stroke-linecap:butt;stroke-linejoin:miter;stroke-opacity:1" d="M 370.819,121.437 370.819,114.529 z" id="boundary" inkscape:connector-curvature="0" />
	<path style="fill:none;stroke:red;stroke-width:1px;stroke-linecap:butt;stroke-linejoin:miter;stroke-opacity:1" d="M 367.365,108.312 370.819,114.529 z" id="boundary" inkscape:connector-curvature="0" />
	<path style="fill:none;stroke:red;stroke-width:1px;stroke-linecap:butt;stroke-linejoin:miter;stroke-opacity:1" d="M 383.253,124.891 387.398,116.602 z" id="boundary" inkscape:connector-curvature="0" />
	<path style="fill:none;stroke:red;stroke-width:1px;stroke-linecap:butt;stroke-linejoin:miter;stroke-opacity:1" d="M 387.398,116.602 392.925,111.075 z" id="boundary" inkscape:connector-curvature="0" />
	<path style="fill:none;stroke:red;stroke-width:1px;stroke-linecap:butt;stroke-linejoin:miter;stroke-opacity:1" d="M 383.253,124.891 376.345,125.582 z" id="boundary" inkscape:connector-curvature="0" />
	<path style="fill:none;stroke:red;stroke-width:1px;stroke-linecap:butt;stroke-linejoin:miter;stroke-opacity:1" d="M 4,230.585 7.45404,236.802 z" id="boundary" inkscape:connector-curvature="0" />
	<path style="fill:none;stroke:red;stroke-width:1px;stroke-linecap:butt;stroke-linejoin:miter;stroke-opacity:1" d="M 4,230.585 9.52646,225.058 z" id="boundary" inkscape:connector-curvature="0" />
	<path style="fill:none;stroke:red;stroke-width:1px;stroke-linecap:butt;stroke-linejoin:miter;stroke-opacity:1" d="M 9.52646,245.783 7.45404,236.802 z" id="boundary" inkscape:connector-curvature="0" />
	<path style="fill:none;stroke:red;stroke-width:1px;stroke-linecap:butt;stroke-linejoin:miter;stroke-opacity:1" d="M 15.0529,219.532 20.5794,214.696 z" id="boundary" inkscape:connector-curvature="0" />
	<path style="fill:none;stroke:red;stroke-width:1px;stroke-linecap:butt;stroke-linejoin:miter;stroke-opacity:1" d="M 9.52646,225.058 15.0529,219.532 z" id="boundary" inkscape:connector-curvature="0" />
	<path style="fill:none;stroke:red;stroke-width:1px;stroke-linecap:butt;stroke-linejoin:miter;stroke-opacity:1" d="M 9.52646,256.145 4,251.309 z" id="boundary" inkscape:connector-curvature="0" />
	<path style="fill:none;stroke:red;stroke-width:1px;stroke-linecap:butt;stroke-linejoin:miter;stroke-opacity:1" d="M 15.7437,259.599 9.52646,256.145 z" id="boundary" inkscape:connector-curvature="0" />
	<path style="fill:none;stroke:red;stroke-width:1px;stroke-linecap:butt;stroke-linejoin:miter;stroke-opacity:1" d="M 15.7437,259.599 21.2702,263.744 z" id="boundary" inkscape:connector-curvature="0" />
	<path style="fill:none;stroke:red;stroke-width:1px;stroke-linecap:butt;stroke-linejoin:miter;stroke-opacity:1" d="M 34.3955,267.198 27.4875,267.198 z" id="boundary" inkscape:connector-curvature="0" />
	<path style="fill:none;stroke:red;stroke-width:1px;stroke-linecap:butt;stroke-linejoin:miter;stroke-opacity:1" d="M 27.4875,267.198 21.2702,263.744 z" id="boundary" inkscape:connector-curvature="0" />
	<path style="fill:none;stroke:red;stroke-width:1px;stroke-linecap:butt;stroke-linejoin:miter;stroke-opacity:1" d="M 34.3955,267.198 40.6128,270.652 z" id="boundary" inkscape:connector-curvature="0" />
	<path style="fill:none;stroke:red;stroke-width:1px;stroke-linecap:butt;stroke-linejoin:miter;stroke-opacity:1" d="M 40.6128,270.652 47.5209,270.652 z" id="boundary" inkscape:connector-curvature="0" />
	<path style="fill:none;stroke:red;stroke-width:1px;stroke-linecap:butt;stroke-linejoin:miter;stroke-opacity:1" d="M 67.5543,274.106 60.6462,274.106 z" id="boundary" inkscape:connector-curvature="0" />
	<path style="fill:none;stroke:red;stroke-width:1px;stroke-linecap:butt;stroke-linejoin:miter;stroke-opacity:1" d="M 60.6462,274.106 54.429,270.652 z" id="boundary" inkscape:connector-curvature="0" />
	<path style="fill:none;stroke:red;stroke-width:1px;stroke-linecap:butt;stroke-linejoin:miter;stroke-opacity:1" d="M 54.429,270.652 47.5209,270.652 z" id="boundary" inkscape:connector-curvature="0" />
	<path style="fill:none;stroke:red;stroke-width:1px;stroke-linecap:butt;stroke-linejoin:miter;stroke-opacity:1" d="M 67.5543,274.106 73.7716,277.56 z" id="boundary" inkscape:connector-curvature="0" />
	<path style="fill:none;stroke:red;stroke-width:1px;stroke-linecap:butt;stroke-linejoin:miter;stroke-opacity:1" d="M 156.669,277.56 163.577,274.106 z" id="boundary" inkscape:connector-curvature="0" />
	<path style="fill:none;stroke:red;stroke-width:1px;stroke-linecap:butt;stroke-linejoin:miter;stroke-opacity:1" d="M 163.577,274.106 170.485,274.106 z" id="boundary" inkscape:connector-curvature="0" />
	<path style="fill:none;stroke:red;stroke-width:1px;stroke-linecap:butt;stroke-linejoin:miter;stroke-opacity:1" d="M 170.485,274.106 177.393,274.106 z" id="boundary" inkscape:connector-curvature="0" />
	<path style="fill:none;stroke:red;stroke-width:1px;stroke-linecap:butt;stroke-linejoin:miter;stroke-opacity:1" d="M 184.301,274.106 191.209,274.106 z" id="boundary" inkscape:connector-curvature="0" />
	<path style="fill:none;stroke:red;stroke-width:1px;stroke-linecap:butt;stroke-linejoin:miter;stroke-opacity:1" d="M 177.393,274.106 184.301,274.106 z" id="boundary" inkscape:connector-curvature="0" />
	<path style="fill:none;stroke:red;stroke-width:1px;stroke-linecap:butt;stroke-linejoin:miter;stroke-opacity:1" d="M 191.209,274.106 198.117,275.487 z" id="boundary" inkscape:connector-curvature="0" />
	<path style="fill:none;stroke:red;stroke-width:1px;stroke-linecap:butt;stroke-linejoin:miter;stroke-opacity:1" d="M 198.117,275.487 202.953,281.014 z" id="boundary" inkscape:connector-curvature="0" />
	<path style="fill:none;stroke:red;stroke-width:1px;stroke-linecap:butt;stroke-linejoin:miter;stroke-opacity:1" d="M 73.7716,277.56 80.6797,277.56 z" id="boundary" inkscape:connector-curvature="0" />
	<path style="fill:none;stroke:red;stroke-width:1px;stroke-linecap:butt;stroke-linejoin:miter;stroke-opacity:1" d="M 94.4958,278.942 87.5877,277.56 z" id="boundary" inkscape:connector-curvature="0" />
	<path style="fill:none;stroke:red;stroke-width:1px;stroke-linecap:butt;stroke-linejoin:miter;stroke-opacity:1" d="M 115.22,281.014 108.312,281.014 z" id="boundary" inkscape:connector-curvature="0" />
	<path style="fill:none;stroke:red;stroke-width:1px;stroke-linecap:butt;stroke-linejoin:miter;stroke-opacity:1" d="M 80.6797,277.56 87.5877,277.56 z" id="boundary" inkscape:connector-curvature="0" />
	<path style="fill:none;stroke:red;stroke-width:1px;stroke-linecap:butt;stroke-linejoin:miter;stroke-opacity:1" d="M 94.4958,278.942 101.404,281.014 z" id="boundary" inkscape:connector-curvature="0" />
	<path style="fill:none;stroke:red;stroke-width:1px;stroke-linecap:butt;stroke-linejoin:miter;stroke-opacity:1" d="M 101.404,281.014 108.312,281.014 z" id="boundary" inkscape:connector-curvature="0" />
	<path style="fill:none;stroke:red;stroke-width:1px;stroke-linecap:butt;stroke-linejoin:miter;stroke-opacity:1" d="M 122.128,281.014 129.036,281.014 z" id="boundary" inkscape:connector-curvature="0" />
	<path style="fill:none;stroke:red;stroke-width:1px;stroke-linecap:butt;stroke-linejoin:miter;stroke-opacity:1" d="M 135.944,281.014 129.036,281.014 z" id="boundary" inkscape:connector-curvature="0" />
	<path style="fill:none;stroke:red;stroke-width:1px;stroke-linecap:butt;stroke-linejoin:miter;stroke-opacity:1" d="M 142.852,277.56 135.944,281.014 z" id="boundary" inkscape:connector-curvature="0" />
	<path style="fill:none;stroke:red;stroke-width:1px;stroke-linecap:butt;stroke-linejoin:miter;stroke-opacity:1" d="M 122.128,281.014 115.22,281.014 z" id="boundary" inkscape:connector-curvature="0" />
	<path style="fill:none;stroke:red;stroke-width:1px;stroke-linecap:butt;stroke-linejoin:miter;stroke-opacity:1" d="M 142.852,277.56 149.76,277.56 z" id="boundary" inkscape:connector-curvature="0" />
	<path style="fill:none;stroke:red;stroke-width:1px;stroke-linecap:butt;stroke-linejoin:miter;stroke-opacity:1" d="M 156.669,277.56 149.76,277.56 z" id="boundary" inkscape:connector-curvature="0" />
	<path style="fill:none;stroke:red;stroke-width:1px;stroke-linecap:butt;stroke-linejoin:miter;stroke-opacity:1" d="M 209.17,284.468 202.953,281.014 z" id="boundary" inkscape:connector-curvature="0" />
	<path style="fill:none;stroke:red;stroke-width:1px;stroke-linecap:butt;stroke-linejoin:miter;stroke-opacity:1" d="M 222.295,284.468 215.387,287.922 z" id="boundary" inkscape:connector-curvature="0" />
	<path style="fill:none;stroke:red;stroke-width:1px;stroke-linecap:butt;stroke-linejoin:miter;stroke-opacity:1" d="M 215.387,287.922 209.17,284.468 z" id="boundary" inkscape:connector-curvature="0" />
	<path style="fill:none;stroke:red;stroke-width:1px;stroke-linecap:butt;stroke-linejoin:miter;stroke-opacity:1" d="M 222.295,284.468 229.203,284.468 z" id="boundary" inkscape:connector-curvature="0" />
	<path style="fill:none;stroke:red;stroke-width:1px;stroke-linecap:butt;stroke-linejoin:miter;stroke-opacity:1" d="M 229.203,284.468 235.421,287.922 z" id="boundary" inkscape:connector-curvature="0" />
	<path style="fill:none;stroke:red;stroke-width:1px;stroke-linecap:butt;stroke-linejoin:miter;stroke-opacity:1" d="M 242.329,285.85 235.421,287.922 z" id="boundary" inkscape:connector-curvature="0" />
	<path style="fill:none;stroke:red;stroke-width:1px;stroke-linecap:butt;stroke-linejoin:miter;stroke-opacity:1" d="M 242.329,285.85 249.237,284.468 z" id="boundary" inkscape:connector-curvature="0" />
	<path style="fill:none;stroke:red;stroke-width:1px;stroke-linecap:butt;stroke-linejoin:miter;stroke-opacity:1" d="M 249.237,284.468 256.145,284.468 z" id="boundary" inkscape:connector-curvature="0" />
	<path style="fill:none;stroke:red;stroke-width:1px;stroke-linecap:butt;stroke-linejoin:miter;stroke-opacity:1" d="M 263.053,282.396 256.145,284.468 z" id="boundary" inkscape:connector-curvature="0" />
	<path style="fill:none;stroke:red;stroke-width:1px;stroke-linecap:butt;stroke-linejoin:miter;stroke-opacity:1" d="M 420.557,225.749 427.465,225.749 z" id="boundary" inkscape:connector-curvature="0" />
	<path style="fill:none;stroke:red;stroke-width:1px;stroke-linecap:butt;stroke-linejoin:miter;stroke-opacity:1" d="M 413.649,228.513 420.557,225.749 z" id="boundary" inkscape:connector-curvature="0" />
	<path style="fill:none;stroke:red;stroke-width:1px;stroke-linecap:butt;stroke-linejoin:miter;stroke-opacity:1" d="M 433.682,222.295 427.465,225.749 z" id="boundary" inkscape:connector-curvature="0" />
	<path style="fill:none;stroke:red;stroke-width:1px;stroke-linecap:butt;stroke-linejoin:miter;stroke-opacity:1" d="M 433.682,222.295 439.9,218.841 z" id="boundary" inkscape:connector-curvature="0" />
	<path style="fill:none;stroke:red;stroke-width:1px;stroke-linecap:butt;stroke-linejoin:miter;stroke-opacity:1" d="M 439.9,218.841 446.808,218.841 z" id="boundary" inkscape:connector-curvature="0" />
	<path style="fill:none;stroke:red;stroke-width:1px;stroke-linecap:butt;stroke-linejoin:miter;stroke-opacity:1" d="M 446.808,218.841 453.025,222.295 z" id="boundary" inkscape:connector-curvature="0" />
	<path style="fill:none;stroke:red;stroke-width:1px;stroke-linecap:butt;stroke-linejoin:miter;stroke-opacity:1" d="M 374.273,239.565 379.799,234.73 z" id="boundary" inkscape:connector-curvature="0" />
	<path style="fill:none;stroke:red;stroke-width:1px;stroke-linecap:butt;stroke-linejoin:miter;stroke-opacity:1" d="M 379.799,234.73 386.708,232.657 z" id="boundary" inkscape:connector-curvature="0" />
	<path style="fill:none;stroke:red;stroke-width:1px;stroke-linecap:butt;stroke-linejoin:miter;stroke-opacity:1" d="M 393.616,232.657 386.708,232.657 z" id="boundary" inkscape:connector-curvature="0" />
	<path style="fill:none;stroke:red;stroke-width:1px;stroke-linecap:butt;stroke-linejoin:miter;stroke-opacity:1" d="M 399.833,229.203 393.616,232.657 z" id="boundary" inkscape:connector-curvature="0" />
	<path style="fill:none;stroke:red;stroke-width:1px;stroke-linecap:butt;stroke-linejoin:miter;stroke-opacity:1" d="M 406.741,229.203 399.833,229.203 z" id="boundary" inkscape:connector-curvature="0" />
	<path style="fill:none;stroke:red;stroke-width:1px;stroke-linecap:butt;stroke-linejoin:miter;stroke-opacity:1" d="M 413.649,228.513 406.741,229.203 z" id="boundary" inkscape:connector-curvature="0" />
	<path style="fill:none;stroke:red;stroke-width:1px;stroke-linecap:butt;stroke-linejoin:miter;stroke-opacity:1" d="M 453.025,222.295 459.242,225.749 z" id="boundary" inkscape:connector-curvature="0" />
	<path style="fill:none;stroke:red;stroke-width:1px;stroke-linecap:butt;stroke-linejoin:miter;stroke-opacity:1" d="M 466.15,225.749 459.242,225.749 z" id="boundary" inkscape:connector-curvature="0" />
	<path style="fill:none;stroke:red;stroke-width:1px;stroke-linecap:butt;stroke-linejoin:miter;stroke-opacity:1" d="M 479.276,229.203 472.368,229.203 z" id="boundary" inkscape:connector-curvature="0" />
	<path style="fill:none;stroke:red;stroke-width:1px;stroke-linecap:butt;stroke-linejoin:miter;stroke-opacity:1" d="M 472.368,229.203 466.15,225.749 z" id="boundary" inkscape:connector-curvature="0" />
	<path style="fill:none;stroke:red;stroke-width:1px;stroke-linecap:butt;stroke-linejoin:miter;stroke-opacity:1" d="M 479.276,229.203 486.184,231.967 z" id="boundary" inkscape:connector-curvature="0" />
	<path style="fill:none;stroke:red;stroke-width:1px;stroke-linecap:butt;stroke-linejoin:miter;stroke-opacity:1" d="M 499.309,236.111 492.401,235.421 z" id="boundary" inkscape:connector-curvature="0" />
	<path style="fill:none;stroke:red;stroke-width:1px;stroke-linecap:butt;stroke-linejoin:miter;stroke-opacity:1" d="M 492.401,235.421 486.184,231.967 z" id="boundary" inkscape:connector-curvature="0" />
	<path style="fill:none;stroke:red;stroke-width:1px;stroke-linecap:butt;stroke-linejoin:miter;stroke-opacity:1" d="M 506.217,236.111 499.309,236.111 z" id="boundary" inkscape:connector-curvature="0" />
	<path style="fill:none;stroke:red;stroke-width:1px;stroke-linecap:butt;stroke-linejoin:miter;stroke-opacity:1" d="M 506.217,236.111 513.125,236.111 z" id="boundary" inkscape:connector-curvature="0" />
	<path style="fill:none;stroke:red;stroke-width:1px;stroke-linecap:butt;stroke-linejoin:miter;stroke-opacity:1" d="M 513.125,236.111 520.033,236.111 z" id="boundary" inkscape:connector-curvature="0" />
	<path style="fill:none;stroke:red;stroke-width:1px;stroke-linecap:butt;stroke-linejoin:miter;stroke-opacity:1" d="M 303.811,274.106 310.719,274.106 z" id="boundary" inkscape:connector-curvature="0" />
	<path style="fill:none;stroke:red;stroke-width:1px;stroke-linecap:butt;stroke-linejoin:miter;stroke-opacity:1" d="M 297.593,277.56 303.811,274.106 z" id="boundary" inkscape:connector-curvature="0" />
	<path style="fill:none;stroke:red;stroke-width:1px;stroke-linecap:butt;stroke-linejoin:miter;stroke-opacity:1" d="M 323.844,270.652 317.627,274.106 z" id="boundary" inkscape:connector-curvature="0" />
	<path style="fill:none;stroke:red;stroke-width:1px;stroke-linecap:butt;stroke-linejoin:miter;stroke-opacity:1" d="M 317.627,274.106 310.719,274.106 z" id="boundary" inkscape:connector-curvature="0" />
	<path style="fill:none;stroke:red;stroke-width:1px;stroke-linecap:butt;stroke-linejoin:miter;stroke-opacity:1" d="M 323.844,270.652 330.752,269.961 z" id="boundary" inkscape:connector-curvature="0" />
	<path style="fill:none;stroke:red;stroke-width:1px;stroke-linecap:butt;stroke-linejoin:miter;stroke-opacity:1" d="M 263.053,282.396 269.961,281.014 z" id="boundary" inkscape:connector-curvature="0" />
	<path style="fill:none;stroke:red;stroke-width:1px;stroke-linecap:butt;stroke-linejoin:miter;stroke-opacity:1" d="M 269.961,281.014 276.869,281.014 z" id="boundary" inkscape:connector-curvature="0" />
	<path style="fill:none;stroke:red;stroke-width:1px;stroke-linecap:butt;stroke-linejoin:miter;stroke-opacity:1" d="M 283.777,278.942 276.869,281.014 z" id="boundary" inkscape:connector-curvature="0" />
	<path style="fill:none;stroke:red;stroke-width:1px;stroke-linecap:butt;stroke-linejoin:miter;stroke-opacity:1" d="M 283.777,278.942 290.685,277.56 z" id="boundary" inkscape:connector-curvature="0" />
	<path style="fill:none;stroke:red;stroke-width:1px;stroke-linecap:butt;stroke-linejoin:miter;stroke-opacity:1" d="M 290.685,277.56 297.593,277.56 z" id="boundary" inkscape:connector-curvature="0" />
	<path style="fill:none;stroke:red;stroke-width:1px;stroke-linecap:butt;stroke-linejoin:miter;stroke-opacity:1" d="M 346.641,243.019 339.733,243.019 z" id="boundary" inkscape:connector-curvature="0" />
	<path style="fill:none;stroke:red;stroke-width:1px;stroke-linecap:butt;stroke-linejoin:miter;stroke-opacity:1" d="M 353.549,243.019 346.641,243.019 z" id="boundary" inkscape:connector-curvature="0" />
	<path style="fill:none;stroke:red;stroke-width:1px;stroke-linecap:butt;stroke-linejoin:miter;stroke-opacity:1" d="M 360.457,239.565 353.549,243.019 z" id="boundary" inkscape:connector-curvature="0" />
	<path style="fill:none;stroke:red;stroke-width:1px;stroke-linecap:butt;stroke-linejoin:miter;stroke-opacity:1" d="M 374.273,239.565 367.365,239.565 z" id="boundary" inkscape:connector-curvature="0" />
	<path style="fill:none;stroke:red;stroke-width:1px;stroke-linecap:butt;stroke-linejoin:miter;stroke-opacity:1" d="M 367.365,239.565 360.457,239.565 z" id="boundary" inkscape:connector-curvature="0" />
	<path style="fill:none;stroke:red;stroke-width:1px;stroke-linecap:butt;stroke-linejoin:miter;stroke-opacity:1" d="M 520.033,236.111 526.942,236.111 z" id="boundary" inkscape:connector-curvature="0" />
	<path style="fill:none;stroke:red;stroke-width:1px;stroke-linecap:butt;stroke-linejoin:miter;stroke-opacity:1" d="M 325.916,246.474 332.825,246.474 z" id="boundary" inkscape:connector-curvature="0" />
	<path style="fill:none;stroke:red;stroke-width:1px;stroke-linecap:butt;stroke-linejoin:miter;stroke-opacity:1" d="M 336.279,263.744 334.897,256.836 z" id="boundary" inkscape:connector-curvature="0" />
	<path style="fill:none;stroke:red;stroke-width:1px;stroke-linecap:butt;stroke-linejoin:miter;stroke-opacity:1" d="M 332.825,246.474 339.733,243.019 z" id="boundary" inkscape:connector-curvature="0" />
	<path style="fill:none;stroke:red;stroke-width:1px;stroke-linecap:butt;stroke-linejoin:miter;stroke-opacity:1" d="M 336.279,263.744 330.752,269.961 z" id="boundary" inkscape:connector-curvature="0" />
	<path style="fill:none;stroke:red;stroke-width:1px;stroke-linecap:butt;stroke-linejoin:miter;stroke-opacity:1" d="M 526.942,236.111 533.85,236.111 z" id="boundary" inkscape:connector-curvature="0" />
	<path style="fill:none;stroke:red;stroke-width:1px;stroke-linecap:butt;stroke-linejoin:miter;stroke-opacity:1" d="M 598.786,22.6518 605.694,21.2702 z" id="boundary" inkscape:connector-curvature="0" />
	<path style="fill:none;stroke:red;stroke-width:1px;stroke-linecap:butt;stroke-linejoin:miter;stroke-opacity:1" d="M 605.694,21.2702 612.602,21.2702 z" id="boundary" inkscape:connector-curvature="0" />
	<path style="fill:none;stroke:red;stroke-width:1px;stroke-linecap:butt;stroke-linejoin:miter;stroke-opacity:1" d="M 612.602,21.2702 618.819,17.8162 z" id="boundary" inkscape:connector-curvature="0" />
	<path style="fill:none;stroke:red;stroke-width:1px;stroke-linecap:butt;stroke-linejoin:miter;stroke-opacity:1" d="M 618.819,17.8162 625.727,17.8162 z" id="boundary" inkscape:connector-curvature="0" />
	<path style="fill:none;stroke:red;stroke-width:1px;stroke-linecap:butt;stroke-linejoin:miter;stroke-opacity:1" d="M 591.877,24.7242 598.786,22.6518 z" id="boundary" inkscape:connector-curvature="0" />
	<path style="fill:none;stroke:red;stroke-width:1px;stroke-linecap:butt;stroke-linejoin:miter;stroke-opacity:1" d="M 544.903,31.6323 537.994,31.6323 z" id="boundary" inkscape:connector-curvature="0" />
	<path style="fill:none;stroke:red;stroke-width:1px;stroke-linecap:butt;stroke-linejoin:miter;stroke-opacity:1" d="M 564.936,28.1783 571.153,24.7242 z" id="boundary" inkscape:connector-curvature="0" />
	<path style="fill:none;stroke:red;stroke-width:1px;stroke-linecap:butt;stroke-linejoin:miter;stroke-opacity:1" d="M 571.153,24.7242 578.061,24.7242 z" id="boundary" inkscape:connector-curvature="0" />
	<path style="fill:none;stroke:red;stroke-width:1px;stroke-linecap:butt;stroke-linejoin:miter;stroke-opacity:1" d="M 578.061,24.7242 584.969,24.7242 z" id="boundary" inkscape:connector-curvature="0" />
	<path style="fill:none;stroke:red;stroke-width:1px;stroke-linecap:butt;stroke-linejoin:miter;stroke-opacity:1" d="M 591.877,24.7242 584.969,24.7242 z" id="boundary" inkscape:connector-curvature="0" />
	<path style="fill:none;stroke:red;stroke-width:1px;stroke-linecap:butt;stroke-linejoin:miter;stroke-opacity:1" d="M 558.719,31.6323 564.936,28.1783 z" id="boundary" inkscape:connector-curvature="0" />
	<path style="fill:none;stroke:red;stroke-width:1px;stroke-linecap:butt;stroke-linejoin:miter;stroke-opacity:1" d="M 632.635,17.8162 639.543,17.8162 z" id="boundary" inkscape:connector-curvature="0" />
	<path style="fill:none;stroke:red;stroke-width:1px;stroke-linecap:butt;stroke-linejoin:miter;stroke-opacity:1" d="M 646.451,17.8162 653.359,17.8162 z" id="boundary" inkscape:connector-curvature="0" />
	<path style="fill:none;stroke:red;stroke-width:1px;stroke-linecap:butt;stroke-linejoin:miter;stroke-opacity:1" d="M 660.267,17.8162 653.359,17.8162 z" id="boundary" inkscape:connector-curvature="0" />
	<path style="fill:none;stroke:red;stroke-width:1px;stroke-linecap:butt;stroke-linejoin:miter;stroke-opacity:1" d="M 646.451,17.8162 639.543,17.8162 z" id="boundary" inkscape:connector-curvature="0" />
	<path style="fill:none;stroke:red;stroke-width:1px;stroke-linecap:butt;stroke-linejoin:miter;stroke-opacity:1" d="M 680.301,21.2702 673.393,21.2702 z" id="boundary" inkscape:connector-curvature="0" />
	<path style="fill:none;stroke:red;stroke-width:1px;stroke-linecap:butt;stroke-linejoin:miter;stroke-opacity:1" d="M 673.393,21.2702 667.175,17.8162 z" id="boundary" inkscape:connector-curvature="0" />
	<path style="fill:none;stroke:red;stroke-width:1px;stroke-linecap:butt;stroke-linejoin:miter;stroke-opacity:1" d="M 680.301,21.2702 686.518,24.7242 z" id="boundary" inkscape:connector-curvature="0" />
	<path style="fill:none;stroke:red;stroke-width:1px;stroke-linecap:butt;stroke-linejoin:miter;stroke-opacity:1" d="M 660.267,17.8162 667.175,17.8162 z" id="boundary" inkscape:connector-curvature="0" />
	<path style="fill:none;stroke:red;stroke-width:1px;stroke-linecap:butt;stroke-linejoin:miter;stroke-opacity:1" d="M 699.643,28.1783 692.735,28.1783 z" id="boundary" inkscape:connector-curvature="0" />
	<path style="fill:none;stroke:red;stroke-width:1px;stroke-linecap:butt;stroke-linejoin:miter;stroke-opacity:1" d="M 692.735,28.1783 686.518,24.7242 z" id="boundary" inkscape:connector-curvature="0" />
	<path style="fill:none;stroke:red;stroke-width:1px;stroke-linecap:butt;stroke-linejoin:miter;stroke-opacity:1" d="M 625.727,17.8162 632.635,17.8162 z" id="boundary" inkscape:connector-curvature="0" />
	<path style="fill:none;stroke:red;stroke-width:1px;stroke-linecap:butt;stroke-linejoin:miter;stroke-opacity:1" d="M 699.643,28.1783 705.17,33.0139 z" id="boundary" inkscape:connector-curvature="0" />
	<path style="fill:none;stroke:red;stroke-width:1px;stroke-linecap:butt;stroke-linejoin:miter;stroke-opacity:1" d="M 551.811,31.6323 558.719,31.6323 z" id="boundary" inkscape:connector-curvature="0" />
	<path style="fill:none;stroke:red;stroke-width:1px;stroke-linecap:butt;stroke-linejoin:miter;stroke-opacity:1" d="M 551.811,31.6323 544.903,31.6323 z" id="boundary" inkscape:connector-curvature="0" />
	<path style="fill:none;stroke:red;stroke-width:1px;stroke-linecap:butt;stroke-linejoin:miter;stroke-opacity:1" d="M 690.663,56.5014 684.446,59.9554 z" id="boundary" inkscape:connector-curvature="0" />
	<path style="fill:none;stroke:red;stroke-width:1px;stroke-linecap:butt;stroke-linejoin:miter;stroke-opacity:1" d="M 671.32,66.8635 666.485,72.39 z" id="boundary" inkscape:connector-curvature="0" />
	<path style="fill:none;stroke:red;stroke-width:1px;stroke-linecap:butt;stroke-linejoin:miter;stroke-opacity:1" d="M 696.88,52.3565 690.663,56.5014 z" id="boundary" inkscape:connector-curvature="0" />
	<path style="fill:none;stroke:red;stroke-width:1px;stroke-linecap:butt;stroke-linejoin:miter;stroke-opacity:1" d="M 660.958,77.2256 666.485,72.39 z" id="boundary" inkscape:connector-curvature="0" />
	<path style="fill:none;stroke:red;stroke-width:1px;stroke-linecap:butt;stroke-linejoin:miter;stroke-opacity:1" d="M 678.228,63.4095 684.446,59.9554 z" id="boundary" inkscape:connector-curvature="0" />
	<path style="fill:none;stroke:red;stroke-width:1px;stroke-linecap:butt;stroke-linejoin:miter;stroke-opacity:1" d="M 678.228,63.4095 671.32,66.8635 z" id="boundary" inkscape:connector-curvature="0" />
	<path style="fill:none;stroke:red;stroke-width:1px;stroke-linecap:butt;stroke-linejoin:miter;stroke-opacity:1" d="M 698.262,76.5348 692.045,79.9889 z" id="boundary" inkscape:connector-curvature="0" />
	<path style="fill:none;stroke:red;stroke-width:1px;stroke-linecap:butt;stroke-linejoin:miter;stroke-opacity:1" d="M 692.045,79.9889 685.136,81.3705 z" id="boundary" inkscape:connector-curvature="0" />
	<path style="fill:none;stroke:red;stroke-width:1px;stroke-linecap:butt;stroke-linejoin:miter;stroke-opacity:1" d="M 705.17,33.0139 707.933,39.922 z" id="boundary" inkscape:connector-curvature="0" />
	<path style="fill:none;stroke:red;stroke-width:1px;stroke-linecap:butt;stroke-linejoin:miter;stroke-opacity:1" d="M 707.933,39.922 703.788,48.9025 z" id="boundary" inkscape:connector-curvature="0" />
	<path style="fill:none;stroke:red;stroke-width:1px;stroke-linecap:butt;stroke-linejoin:miter;stroke-opacity:1" d="M 696.88,52.3565 703.788,48.9025 z" id="boundary" inkscape:connector-curvature="0" />
	<path style="fill:none;stroke:red;stroke-width:1px;stroke-linecap:butt;stroke-linejoin:miter;stroke-opacity:1" d="M 745.928,45.4485 740.401,50.2841 z" id="boundary" inkscape:connector-curvature="0" />
	<path style="fill:none;stroke:red;stroke-width:1px;stroke-linecap:butt;stroke-linejoin:miter;stroke-opacity:1" d="M 740.401,50.2841 735.565,55.8106 z" id="boundary" inkscape:connector-curvature="0" />
	<path style="fill:none;stroke:red;stroke-width:1px;stroke-linecap:butt;stroke-linejoin:miter;stroke-opacity:1" d="M 735.565,55.8106 728.657,55.8106 z" id="boundary" inkscape:connector-curvature="0" />
	<path style="fill:none;stroke:red;stroke-width:1px;stroke-linecap:butt;stroke-linejoin:miter;stroke-opacity:1" d="M 728.657,55.8106 723.131,60.6462 z" id="boundary" inkscape:connector-curvature="0" />
	<path style="fill:none;stroke:red;stroke-width:1px;stroke-linecap:butt;stroke-linejoin:miter;stroke-opacity:1" d="M 704.479,73.0808 698.262,76.5348 z" id="boundary" inkscape:connector-curvature="0" />
	<path style="fill:none;stroke:red;stroke-width:1px;stroke-linecap:butt;stroke-linejoin:miter;stroke-opacity:1" d="M 709.315,67.5543 704.479,73.0808 z" id="boundary" inkscape:connector-curvature="0" />
	<path style="fill:none;stroke:red;stroke-width:1px;stroke-linecap:butt;stroke-linejoin:miter;stroke-opacity:1" d="M 709.315,67.5543 716.223,64.1003 z" id="boundary" inkscape:connector-curvature="0" />
	<path style="fill:none;stroke:red;stroke-width:1px;stroke-linecap:butt;stroke-linejoin:miter;stroke-opacity:1" d="M 716.223,64.1003 723.131,60.6462 z" id="boundary" inkscape:connector-curvature="0" />
	<path style="fill:none;stroke:red;stroke-width:1px;stroke-linecap:butt;stroke-linejoin:miter;stroke-opacity:1" d="M 660.958,77.2256 654.05,80.6797 z" id="boundary" inkscape:connector-curvature="0" />
	<path style="fill:none;stroke:red;stroke-width:1px;stroke-linecap:butt;stroke-linejoin:miter;stroke-opacity:1" d="M 855.766,7.45404 862.674,7.45404 z" id="boundary" inkscape:connector-curvature="0" />
	<path style="fill:none;stroke:red;stroke-width:1px;stroke-linecap:butt;stroke-linejoin:miter;stroke-opacity:1" d="M 848.858,10.9081 855.766,7.45404 z" id="boundary" inkscape:connector-curvature="0" />
	<path style="fill:none;stroke:red;stroke-width:1px;stroke-linecap:butt;stroke-linejoin:miter;stroke-opacity:1" d="M 876.49,7.45404 869.582,7.45404 z" id="boundary" inkscape:connector-curvature="0" />
	<path style="fill:none;stroke:red;stroke-width:1px;stroke-linecap:butt;stroke-linejoin:miter;stroke-opacity:1" d="M 883.398,7.45404 876.49,7.45404 z" id="boundary" inkscape:connector-curvature="0" />
	<path style="fill:none;stroke:red;stroke-width:1px;stroke-linecap:butt;stroke-linejoin:miter;stroke-opacity:1" d="M 869.582,7.45404 862.674,7.45404 z" id="boundary" inkscape:connector-curvature="0" />
	<path style="fill:none;stroke:red;stroke-width:1px;stroke-linecap:butt;stroke-linejoin:miter;stroke-opacity:1" d="M 816.39,19.1978 821.916,14.3621 z" id="boundary" inkscape:connector-curvature="0" />
	<path style="fill:none;stroke:red;stroke-width:1px;stroke-linecap:butt;stroke-linejoin:miter;stroke-opacity:1" d="M 821.916,14.3621 828.825,14.3621 z" id="boundary" inkscape:connector-curvature="0" />
	<path style="fill:none;stroke:red;stroke-width:1px;stroke-linecap:butt;stroke-linejoin:miter;stroke-opacity:1" d="M 816.39,19.1978 809.482,21.2702 z" id="boundary" inkscape:connector-curvature="0" />
	<path style="fill:none;stroke:red;stroke-width:1px;stroke-linecap:butt;stroke-linejoin:miter;stroke-opacity:1" d="M 828.825,14.3621 835.733,14.3621 z" id="boundary" inkscape:connector-curvature="0" />
	<path style="fill:none;stroke:red;stroke-width:1px;stroke-linecap:butt;stroke-linejoin:miter;stroke-opacity:1" d="M 835.733,14.3621 841.95,10.9081 z" id="boundary" inkscape:connector-curvature="0" />
	<path style="fill:none;stroke:red;stroke-width:1px;stroke-linecap:butt;stroke-linejoin:miter;stroke-opacity:1" d="M 841.95,10.9081 848.858,10.9081 z" id="boundary" inkscape:connector-curvature="0" />
	<path style="fill:none;stroke:red;stroke-width:1px;stroke-linecap:butt;stroke-linejoin:miter;stroke-opacity:1" d="M 890.306,7.45404 897.214,4 z" id="boundary" inkscape:connector-curvature="0" />
	<path style="fill:none;stroke:red;stroke-width:1px;stroke-linecap:butt;stroke-linejoin:miter;stroke-opacity:1" d="M 897.214,4 904.123,4 z" id="boundary" inkscape:connector-curvature="0" />
	<path style="fill:none;stroke:red;stroke-width:1px;stroke-linecap:butt;stroke-linejoin:miter;stroke-opacity:1" d="M 890.306,7.45404 883.398,7.45404 z" id="boundary" inkscape:connector-curvature="0" />
	<path style="fill:none;stroke:red;stroke-width:1px;stroke-linecap:butt;stroke-linejoin:miter;stroke-opacity:1" d="M 904.123,4 911.031,4 z" id="boundary" inkscape:connector-curvature="0" />
	<path style="fill:none;stroke:red;stroke-width:1px;stroke-linecap:butt;stroke-linejoin:miter;stroke-opacity:1" d="M 911.031,4 917.248,7.45404 z" id="boundary" inkscape:connector-curvature="0" />
	<path style="fill:none;stroke:red;stroke-width:1px;stroke-linecap:butt;stroke-linejoin:miter;stroke-opacity:1" d="M 924.156,7.45404 917.248,7.45404 z" id="boundary" inkscape:connector-curvature="0" />
	<path style="fill:none;stroke:red;stroke-width:1px;stroke-linecap:butt;stroke-linejoin:miter;stroke-opacity:1" d="M 924.156,7.45404 931.064,7.45404 z" id="boundary" inkscape:connector-curvature="0" />
	<path style="fill:none;stroke:red;stroke-width:1px;stroke-linecap:butt;stroke-linejoin:miter;stroke-opacity:1" d="M 931.064,7.45404 937.281,10.9081 z" id="boundary" inkscape:connector-curvature="0" />
	<path style="fill:none;stroke:red;stroke-width:1px;stroke-linecap:butt;stroke-linejoin:miter;stroke-opacity:1" d="M 944.189,12.9805 937.281,10.9081 z" id="boundary" inkscape:connector-curvature="0" />
	<path style="fill:none;stroke:red;stroke-width:1px;stroke-linecap:butt;stroke-linejoin:miter;stroke-opacity:1" d="M 957.315,17.8162 950.407,16.4345 z" id="boundary" inkscape:connector-curvature="0" />
	<path style="fill:none;stroke:red;stroke-width:1px;stroke-linecap:butt;stroke-linejoin:miter;stroke-opacity:1" d="M 950.407,16.4345 944.189,12.9805 z" id="boundary" inkscape:connector-curvature="0" />
	<path style="fill:none;stroke:red;stroke-width:1px;stroke-linecap:butt;stroke-linejoin:miter;stroke-opacity:1" d="M 957.315,17.8162 963.532,21.2702 z" id="boundary" inkscape:connector-curvature="0" />
	<path style="fill:none;stroke:red;stroke-width:1px;stroke-linecap:butt;stroke-linejoin:miter;stroke-opacity:1" d="M 783.922,28.1783 790.83,28.1783 z" id="boundary" inkscape:connector-curvature="0" />
	<path style="fill:none;stroke:red;stroke-width:1px;stroke-linecap:butt;stroke-linejoin:miter;stroke-opacity:1" d="M 777.705,31.6323 783.922,28.1783 z" id="boundary" inkscape:connector-curvature="0" />
	<path style="fill:none;stroke:red;stroke-width:1px;stroke-linecap:butt;stroke-linejoin:miter;stroke-opacity:1" d="M 795.666,22.6518 790.83,28.1783 z" id="boundary" inkscape:connector-curvature="0" />
	<path style="fill:none;stroke:red;stroke-width:1px;stroke-linecap:butt;stroke-linejoin:miter;stroke-opacity:1" d="M 802.574,21.2702 809.482,21.2702 z" id="boundary" inkscape:connector-curvature="0" />
	<path style="fill:none;stroke:red;stroke-width:1px;stroke-linecap:butt;stroke-linejoin:miter;stroke-opacity:1" d="M 802.574,21.2702 795.666,22.6518 z" id="boundary" inkscape:connector-curvature="0" />
	<path style="fill:none;stroke:red;stroke-width:1px;stroke-linecap:butt;stroke-linejoin:miter;stroke-opacity:1" d="M 759.053,41.9944 752.836,45.4485 z" id="boundary" inkscape:connector-curvature="0" />
	<path style="fill:none;stroke:red;stroke-width:1px;stroke-linecap:butt;stroke-linejoin:miter;stroke-opacity:1" d="M 752.836,45.4485 745.928,45.4485 z" id="boundary" inkscape:connector-curvature="0" />
	<path style="fill:none;stroke:red;stroke-width:1px;stroke-linecap:butt;stroke-linejoin:miter;stroke-opacity:1" d="M 764.579,36.468 759.053,41.9944 z" id="boundary" inkscape:connector-curvature="0" />
	<path style="fill:none;stroke:red;stroke-width:1px;stroke-linecap:butt;stroke-linejoin:miter;stroke-opacity:1" d="M 777.705,31.6323 771.487,35.0864 z" id="boundary" inkscape:connector-curvature="0" />
	<path style="fill:none;stroke:red;stroke-width:1px;stroke-linecap:butt;stroke-linejoin:miter;stroke-opacity:1" d="M 771.487,35.0864 764.579,36.468 z" id="boundary" inkscape:connector-curvature="0" />
	<path style="fill:none;stroke:red;stroke-width:1px;stroke-linecap:butt;stroke-linejoin:miter;stroke-opacity:1" d="M 963.532,21.2702 969.749,24.7242 z" id="boundary" inkscape:connector-curvature="0" />
	<path style="fill:none;stroke:red;stroke-width:1px;stroke-linecap:butt;stroke-linejoin:miter;stroke-opacity:1" d="M 975.967,28.1783 969.749,24.7242 z" id="boundary" inkscape:connector-curvature="0" />
	<path style="fill:none;stroke:red;stroke-width:1px;stroke-linecap:butt;stroke-linejoin:miter;stroke-opacity:1" d="M 982.875,28.1783 975.967,28.1783 z" id="boundary" inkscape:connector-curvature="0" />
	<path style="fill:none;stroke:red;stroke-width:1px;stroke-linecap:butt;stroke-linejoin:miter;stroke-opacity:1" d="M 982.875,28.1783 989.092,31.6323 z" id="boundary" inkscape:connector-curvature="0" />
	<path style="fill:none;stroke:red;stroke-width:1px;stroke-linecap:butt;stroke-linejoin:miter;stroke-opacity:1" d="M 989.092,31.6323 992.546,37.8496 z" id="boundary" inkscape:connector-curvature="0" />
	<path style="fill:none;stroke:red;stroke-width:1px;stroke-linecap:butt;stroke-linejoin:miter;stroke-opacity:1" d="M 987.71,72.39 982.184,77.2256 z" id="boundary" inkscape:connector-curvature="0" />
	<path style="fill:none;stroke:red;stroke-width:1px;stroke-linecap:butt;stroke-linejoin:miter;stroke-opacity:1" d="M 992.546,59.9554 992.546,66.8635 z" id="boundary" inkscape:connector-curvature="0" />
	<path style="fill:none;stroke:red;stroke-width:1px;stroke-linecap:butt;stroke-linejoin:miter;stroke-opacity:1" d="M 992.546,66.8635 987.71,72.39 z" id="boundary" inkscape:connector-curvature="0" />
	<path style="fill:none;stroke:red;stroke-width:1px;stroke-linecap:butt;stroke-linejoin:miter;stroke-opacity:1" d="M 978.73,84.1337 982.184,77.2256 z" id="boundary" inkscape:connector-curvature="0" />
	<path style="fill:none;stroke:red;stroke-width:1px;stroke-linecap:butt;stroke-linejoin:miter;stroke-opacity:1" d="M 992.546,59.9554 996,50.9749 z" id="boundary" inkscape:connector-curvature="0" />
	<path style="fill:none;stroke:red;stroke-width:1px;stroke-linecap:butt;stroke-linejoin:miter;stroke-opacity:1" d="M 996,44.0669 996,50.9749 z" id="boundary" inkscape:connector-curvature="0" />
	<path style="fill:none;stroke:red;stroke-width:1px;stroke-linecap:butt;stroke-linejoin:miter;stroke-opacity:1" d="M 992.546,37.8496 996,44.0669 z" id="boundary" inkscape:connector-curvature="0" />
	<path style="fill:none;stroke:red;stroke-width:1px;stroke-linecap:butt;stroke-linejoin:miter;stroke-opacity:1" d="M 654.05,80.6797 657.504,86.8969 z" id="boundary" inkscape:connector-curvature="0" />
	<path style="fill:none;stroke:red;stroke-width:1px;stroke-linecap:butt;stroke-linejoin:miter;stroke-opacity:1" d="M 664.412,84.8245 671.32,83.4429 z" id="boundary" inkscape:connector-curvature="0" />
	<path style="fill:none;stroke:red;stroke-width:1px;stroke-linecap:butt;stroke-linejoin:miter;stroke-opacity:1" d="M 664.412,84.8245 657.504,86.8969 z" id="boundary" inkscape:connector-curvature="0" />
	<path style="fill:none;stroke:red;stroke-width:1px;stroke-linecap:butt;stroke-linejoin:miter;stroke-opacity:1" d="M 678.228,83.4429 671.32,83.4429 z" id="boundary" inkscape:connector-curvature="0" />
	<path style="fill:none;stroke:red;stroke-width:1px;stroke-linecap:butt;stroke-linejoin:miter;stroke-opacity:1" d="M 664.412,149.76 671.32,146.306 z" id="boundary" inkscape:connector-curvature="0" />
	<path style="fill:none;stroke:red;stroke-width:1px;stroke-linecap:butt;stroke-linejoin:miter;stroke-opacity:1" d="M 667.866,155.978 664.412,149.76 z" id="boundary" inkscape:connector-curvature="0" />
	<path style="fill:none;stroke:red;stroke-width:1px;stroke-linecap:butt;stroke-linejoin:miter;stroke-opacity:1" d="M 674.774,155.978 667.866,155.978 z" id="boundary" inkscape:connector-curvature="0" />
	<path style="fill:none;stroke:red;stroke-width:1px;stroke-linecap:butt;stroke-linejoin:miter;stroke-opacity:1" d="M 684.446,189.136 677.538,191.209 z" id="boundary" inkscape:connector-curvature="0" />
	<path style="fill:none;stroke:red;stroke-width:1px;stroke-linecap:butt;stroke-linejoin:miter;stroke-opacity:1" d="M 671.32,146.306 678.228,146.306 z" id="boundary" inkscape:connector-curvature="0" />
	<path style="fill:none;stroke:red;stroke-width:1px;stroke-linecap:butt;stroke-linejoin:miter;stroke-opacity:1" d="M 681.682,155.978 674.774,155.978 z" id="boundary" inkscape:connector-curvature="0" />
	<path style="fill:none;stroke:red;stroke-width:1px;stroke-linecap:butt;stroke-linejoin:miter;stroke-opacity:1" d="M 677.538,191.209 671.32,194.663 z" id="boundary" inkscape:connector-curvature="0" />
	<path style="fill:none;stroke:red;stroke-width:1px;stroke-linecap:butt;stroke-linejoin:miter;stroke-opacity:1" d="M 685.136,146.306 678.228,146.306 z" id="boundary" inkscape:connector-curvature="0" />
	<path style="fill:none;stroke:red;stroke-width:1px;stroke-linecap:butt;stroke-linejoin:miter;stroke-opacity:1" d="M 678.228,83.4429 685.136,81.3705 z" id="boundary" inkscape:connector-curvature="0" />
	<path style="fill:none;stroke:red;stroke-width:1px;stroke-linecap:butt;stroke-linejoin:miter;stroke-opacity:1" d="M 688.591,155.978 681.682,155.978 z" id="boundary" inkscape:connector-curvature="0" />
	<path style="fill:none;stroke:red;stroke-width:1px;stroke-linecap:butt;stroke-linejoin:miter;stroke-opacity:1" d="M 692.045,146.306 685.136,146.306 z" id="boundary" inkscape:connector-curvature="0" />
	<path style="fill:none;stroke:red;stroke-width:1px;stroke-linecap:butt;stroke-linejoin:miter;stroke-opacity:1" d="M 705.861,142.852 698.953,146.306 z" id="boundary" inkscape:connector-curvature="0" />
	<path style="fill:none;stroke:red;stroke-width:1px;stroke-linecap:butt;stroke-linejoin:miter;stroke-opacity:1" d="M 698.953,146.306 692.045,146.306 z" id="boundary" inkscape:connector-curvature="0" />
	<path style="fill:none;stroke:red;stroke-width:1px;stroke-linecap:butt;stroke-linejoin:miter;stroke-opacity:1" d="M 691.354,185.682 684.446,189.136 z" id="boundary" inkscape:connector-curvature="0" />
	<path style="fill:none;stroke:red;stroke-width:1px;stroke-linecap:butt;stroke-linejoin:miter;stroke-opacity:1" d="M 688.591,155.978 694.808,159.432 z" id="boundary" inkscape:connector-curvature="0" />
	<path style="fill:none;stroke:red;stroke-width:1px;stroke-linecap:butt;stroke-linejoin:miter;stroke-opacity:1" d="M 696.88,180.847 691.354,185.682 z" id="boundary" inkscape:connector-curvature="0" />
	<path style="fill:none;stroke:red;stroke-width:1px;stroke-linecap:butt;stroke-linejoin:miter;stroke-opacity:1" d="M 694.808,159.432 701.716,159.432 z" id="boundary" inkscape:connector-curvature="0" />
	<path style="fill:none;stroke:red;stroke-width:1px;stroke-linecap:butt;stroke-linejoin:miter;stroke-opacity:1" d="M 696.88,180.847 703.788,180.156 z" id="boundary" inkscape:connector-curvature="0" />
	<path style="fill:none;stroke:red;stroke-width:1px;stroke-linecap:butt;stroke-linejoin:miter;stroke-opacity:1" d="M 573.226,224.368 580.134,222.295 z" id="boundary" inkscape:connector-curvature="0" />
	<path style="fill:none;stroke:red;stroke-width:1px;stroke-linecap:butt;stroke-linejoin:miter;stroke-opacity:1" d="M 580.134,222.295 587.042,222.295 z" id="boundary" inkscape:connector-curvature="0" />
	<path style="fill:none;stroke:red;stroke-width:1px;stroke-linecap:butt;stroke-linejoin:miter;stroke-opacity:1" d="M 598.786,215.387 593.95,220.914 z" id="boundary" inkscape:connector-curvature="0" />
	<path style="fill:none;stroke:red;stroke-width:1px;stroke-linecap:butt;stroke-linejoin:miter;stroke-opacity:1" d="M 593.95,220.914 587.042,222.295 z" id="boundary" inkscape:connector-curvature="0" />
	<path style="fill:none;stroke:red;stroke-width:1px;stroke-linecap:butt;stroke-linejoin:miter;stroke-opacity:1" d="M 598.786,215.387 605.694,215.387 z" id="boundary" inkscape:connector-curvature="0" />
	<path style="fill:none;stroke:red;stroke-width:1px;stroke-linecap:butt;stroke-linejoin:miter;stroke-opacity:1" d="M 533.85,236.111 540.067,232.657 z" id="boundary" inkscape:connector-curvature="0" />
	<path style="fill:none;stroke:red;stroke-width:1px;stroke-linecap:butt;stroke-linejoin:miter;stroke-opacity:1" d="M 540.067,232.657 546.975,232.657 z" id="boundary" inkscape:connector-curvature="0" />
	<path style="fill:none;stroke:red;stroke-width:1px;stroke-linecap:butt;stroke-linejoin:miter;stroke-opacity:1" d="M 553.192,229.203 546.975,232.657 z" id="boundary" inkscape:connector-curvature="0" />
	<path style="fill:none;stroke:red;stroke-width:1px;stroke-linecap:butt;stroke-linejoin:miter;stroke-opacity:1" d="M 553.192,229.203 559.409,225.749 z" id="boundary" inkscape:connector-curvature="0" />
	<path style="fill:none;stroke:red;stroke-width:1px;stroke-linecap:butt;stroke-linejoin:miter;stroke-opacity:1" d="M 559.409,225.749 566.318,225.749 z" id="boundary" inkscape:connector-curvature="0" />
	<path style="fill:none;stroke:red;stroke-width:1px;stroke-linecap:butt;stroke-linejoin:miter;stroke-opacity:1" d="M 573.226,224.368 566.318,225.749 z" id="boundary" inkscape:connector-curvature="0" />
	<path style="fill:none;stroke:red;stroke-width:1px;stroke-linecap:butt;stroke-linejoin:miter;stroke-opacity:1" d="M 651.287,201.571 645.07,205.025 z" id="boundary" inkscape:connector-curvature="0" />
	<path style="fill:none;stroke:red;stroke-width:1px;stroke-linecap:butt;stroke-linejoin:miter;stroke-opacity:1" d="M 645.07,205.025 638.162,205.025 z" id="boundary" inkscape:connector-curvature="0" />
	<path style="fill:none;stroke:red;stroke-width:1px;stroke-linecap:butt;stroke-linejoin:miter;stroke-opacity:1" d="M 671.32,194.663 664.412,198.117 z" id="boundary" inkscape:connector-curvature="0" />
	<path style="fill:none;stroke:red;stroke-width:1px;stroke-linecap:butt;stroke-linejoin:miter;stroke-opacity:1" d="M 664.412,198.117 657.504,198.117 z" id="boundary" inkscape:connector-curvature="0" />
	<path style="fill:none;stroke:red;stroke-width:1px;stroke-linecap:butt;stroke-linejoin:miter;stroke-opacity:1" d="M 651.287,201.571 657.504,198.117 z" id="boundary" inkscape:connector-curvature="0" />
	<path style="fill:none;stroke:red;stroke-width:1px;stroke-linecap:butt;stroke-linejoin:miter;stroke-opacity:1" d="M 618.819,211.933 612.602,215.387 z" id="boundary" inkscape:connector-curvature="0" />
	<path style="fill:none;stroke:red;stroke-width:1px;stroke-linecap:butt;stroke-linejoin:miter;stroke-opacity:1" d="M 612.602,215.387 605.694,215.387 z" id="boundary" inkscape:connector-curvature="0" />
	<path style="fill:none;stroke:red;stroke-width:1px;stroke-linecap:butt;stroke-linejoin:miter;stroke-opacity:1" d="M 618.819,211.933 625.727,211.933 z" id="boundary" inkscape:connector-curvature="0" />
	<path style="fill:none;stroke:red;stroke-width:1px;stroke-linecap:butt;stroke-linejoin:miter;stroke-opacity:1" d="M 625.727,211.933 631.253,207.788 z" id="boundary" inkscape:connector-curvature="0" />
	<path style="fill:none;stroke:red;stroke-width:1px;stroke-linecap:butt;stroke-linejoin:miter;stroke-opacity:1" d="M 631.253,207.788 638.162,205.025 z" id="boundary" inkscape:connector-curvature="0" />
	<path style="fill:none;stroke:red;stroke-width:1px;stroke-linecap:butt;stroke-linejoin:miter;stroke-opacity:1" d="M 874.418,132.49 867.51,132.49 z" id="boundary" inkscape:connector-curvature="0" />
	<path style="fill:none;stroke:red;stroke-width:1px;stroke-linecap:butt;stroke-linejoin:miter;stroke-opacity:1" d="M 908.267,124.201 901.359,127.655 z" id="boundary" inkscape:connector-curvature="0" />
	<path style="fill:none;stroke:red;stroke-width:1px;stroke-linecap:butt;stroke-linejoin:miter;stroke-opacity:1" d="M 901.359,127.655 894.451,129.036 z" id="boundary" inkscape:connector-curvature="0" />
	<path style="fill:none;stroke:red;stroke-width:1px;stroke-linecap:butt;stroke-linejoin:miter;stroke-opacity:1" d="M 894.451,129.036 887.543,129.036 z" id="boundary" inkscape:connector-curvature="0" />
	<path style="fill:none;stroke:red;stroke-width:1px;stroke-linecap:butt;stroke-linejoin:miter;stroke-opacity:1" d="M 881.326,132.49 887.543,129.036 z" id="boundary" inkscape:connector-curvature="0" />
	<path style="fill:none;stroke:red;stroke-width:1px;stroke-linecap:butt;stroke-linejoin:miter;stroke-opacity:1" d="M 834.351,139.398 827.443,139.398 z" id="boundary" inkscape:connector-curvature="0" />
	<path style="fill:none;stroke:red;stroke-width:1px;stroke-linecap:butt;stroke-linejoin:miter;stroke-opacity:1" d="M 854.384,135.944 847.476,135.944 z" id="boundary" inkscape:connector-curvature="0" />
	<path style="fill:none;stroke:red;stroke-width:1px;stroke-linecap:butt;stroke-linejoin:miter;stroke-opacity:1" d="M 841.259,139.398 847.476,135.944 z" id="boundary" inkscape:connector-curvature="0" />
	<path style="fill:none;stroke:red;stroke-width:1px;stroke-linecap:butt;stroke-linejoin:miter;stroke-opacity:1" d="M 874.418,132.49 881.326,132.49 z" id="boundary" inkscape:connector-curvature="0" />
	<path style="fill:none;stroke:red;stroke-width:1px;stroke-linecap:butt;stroke-linejoin:miter;stroke-opacity:1" d="M 861.292,135.944 854.384,135.944 z" id="boundary" inkscape:connector-curvature="0" />
	<path style="fill:none;stroke:red;stroke-width:1px;stroke-linecap:butt;stroke-linejoin:miter;stroke-opacity:1" d="M 867.51,132.49 861.292,135.944 z" id="boundary" inkscape:connector-curvature="0" />
	<path style="fill:none;stroke:red;stroke-width:1px;stroke-linecap:butt;stroke-linejoin:miter;stroke-opacity:1" d="M 960.078,97.9499 953.861,101.404 z" id="boundary" inkscape:connector-curvature="0" />
	<path style="fill:none;stroke:red;stroke-width:1px;stroke-linecap:butt;stroke-linejoin:miter;stroke-opacity:1" d="M 978.73,84.1337 973.203,90.351 z" id="boundary" inkscape:connector-curvature="0" />
	<path style="fill:none;stroke:red;stroke-width:1px;stroke-linecap:butt;stroke-linejoin:miter;stroke-opacity:1" d="M 973.203,90.351 966.295,93.805 z" id="boundary" inkscape:connector-curvature="0" />
	<path style="fill:none;stroke:red;stroke-width:1px;stroke-linecap:butt;stroke-linejoin:miter;stroke-opacity:1" d="M 966.295,93.805 960.078,97.9499 z" id="boundary" inkscape:connector-curvature="0" />
	<path style="fill:none;stroke:red;stroke-width:1px;stroke-linecap:butt;stroke-linejoin:miter;stroke-opacity:1" d="M 953.861,101.404 947.643,104.858 z" id="boundary" inkscape:connector-curvature="0" />
	<path style="fill:none;stroke:red;stroke-width:1px;stroke-linecap:butt;stroke-linejoin:miter;stroke-opacity:1" d="M 928.301,114.529 922.084,118.674 z" id="boundary" inkscape:connector-curvature="0" />
	<path style="fill:none;stroke:red;stroke-width:1px;stroke-linecap:butt;stroke-linejoin:miter;stroke-opacity:1" d="M 922.084,118.674 915.175,120.747 z" id="boundary" inkscape:connector-curvature="0" />
	<path style="fill:none;stroke:red;stroke-width:1px;stroke-linecap:butt;stroke-linejoin:miter;stroke-opacity:1" d="M 915.175,120.747 908.267,124.201 z" id="boundary" inkscape:connector-curvature="0" />
	<path style="fill:none;stroke:red;stroke-width:1px;stroke-linecap:butt;stroke-linejoin:miter;stroke-opacity:1" d="M 928.301,114.529 935.209,111.766 z" id="boundary" inkscape:connector-curvature="0" />
	<path style="fill:none;stroke:red;stroke-width:1px;stroke-linecap:butt;stroke-linejoin:miter;stroke-opacity:1" d="M 941.426,108.312 935.209,111.766 z" id="boundary" inkscape:connector-curvature="0" />
	<path style="fill:none;stroke:red;stroke-width:1px;stroke-linecap:butt;stroke-linejoin:miter;stroke-opacity:1" d="M 794.975,142.852 788.067,142.852 z" id="boundary" inkscape:connector-curvature="0" />
	<path style="fill:none;stroke:red;stroke-width:1px;stroke-linecap:butt;stroke-linejoin:miter;stroke-opacity:1" d="M 705.861,142.852 712.769,142.852 z" id="boundary" inkscape:connector-curvature="0" />
	<path style="fill:none;stroke:red;stroke-width:1px;stroke-linecap:butt;stroke-linejoin:miter;stroke-opacity:1" d="M 719.677,144.234 726.585,142.852 z" id="boundary" inkscape:connector-curvature="0" />
	<path style="fill:none;stroke:red;stroke-width:1px;stroke-linecap:butt;stroke-linejoin:miter;stroke-opacity:1" d="M 726.585,142.852 733.493,144.234 z" id="boundary" inkscape:connector-curvature="0" />
	<path style="fill:none;stroke:red;stroke-width:1px;stroke-linecap:butt;stroke-linejoin:miter;stroke-opacity:1" d="M 719.677,144.234 712.769,142.852 z" id="boundary" inkscape:connector-curvature="0" />
	<path style="fill:none;stroke:red;stroke-width:1px;stroke-linecap:butt;stroke-linejoin:miter;stroke-opacity:1" d="M 709.315,170.485 703.788,180.156 z" id="boundary" inkscape:connector-curvature="0" />
	<path style="fill:none;stroke:red;stroke-width:1px;stroke-linecap:butt;stroke-linejoin:miter;stroke-opacity:1" d="M 701.716,159.432 708.624,160.813 z" id="boundary" inkscape:connector-curvature="0" />
	<path style="fill:none;stroke:red;stroke-width:1px;stroke-linecap:butt;stroke-linejoin:miter;stroke-opacity:1" d="M 708.624,160.813 709.315,170.485 z" id="boundary" inkscape:connector-curvature="0" />
	<path style="fill:none;stroke:red;stroke-width:1px;stroke-linecap:butt;stroke-linejoin:miter;stroke-opacity:1" d="M 740.401,146.306 747.309,146.306 z" id="boundary" inkscape:connector-curvature="0" />
	<path style="fill:none;stroke:red;stroke-width:1px;stroke-linecap:butt;stroke-linejoin:miter;stroke-opacity:1" d="M 740.401,146.306 733.493,144.234 z" id="boundary" inkscape:connector-curvature="0" />
	<path style="fill:none;stroke:red;stroke-width:1px;stroke-linecap:butt;stroke-linejoin:miter;stroke-opacity:1" d="M 747.309,146.306 754.217,146.306 z" id="boundary" inkscape:connector-curvature="0" />
	<path style="fill:none;stroke:red;stroke-width:1px;stroke-linecap:butt;stroke-linejoin:miter;stroke-opacity:1" d="M 754.217,146.306 761.125,146.306 z" id="boundary" inkscape:connector-curvature="0" />
	<path style="fill:none;stroke:red;stroke-width:1px;stroke-linecap:butt;stroke-linejoin:miter;stroke-opacity:1" d="M 794.975,142.852 801.192,146.306 z" id="boundary" inkscape:connector-curvature="0" />
	<path style="fill:none;stroke:red;stroke-width:1px;stroke-linecap:butt;stroke-linejoin:miter;stroke-opacity:1" d="M 807.409,142.852 801.192,146.306 z" id="boundary" inkscape:connector-curvature="0" />
	<path style="fill:none;stroke:red;stroke-width:1px;stroke-linecap:butt;stroke-linejoin:miter;stroke-opacity:1" d="M 827.443,139.398 821.226,142.852 z" id="boundary" inkscape:connector-curvature="0" />
	<path style="fill:none;stroke:red;stroke-width:1px;stroke-linecap:butt;stroke-linejoin:miter;stroke-opacity:1" d="M 821.226,142.852 814.318,142.852 z" id="boundary" inkscape:connector-curvature="0" />
	<path style="fill:none;stroke:red;stroke-width:1px;stroke-linecap:butt;stroke-linejoin:miter;stroke-opacity:1" d="M 814.318,142.852 807.409,142.852 z" id="boundary" inkscape:connector-curvature="0" />
	<path style="fill:none;stroke:red;stroke-width:1px;stroke-linecap:butt;stroke-linejoin:miter;stroke-opacity:1" d="M 841.259,139.398 834.351,139.398 z" id="boundary" inkscape:connector-curvature="0" />
	<path style="fill:none;stroke:red;stroke-width:1px;stroke-linecap:butt;stroke-linejoin:miter;stroke-opacity:1" d="M 761.125,146.306 768.033,146.306 z" id="boundary" inkscape:connector-curvature="0" />
	<path style="fill:none;stroke:red;stroke-width:1px;stroke-linecap:butt;stroke-linejoin:miter;stroke-opacity:1" d="M 774.942,146.306 768.033,146.306 z" id="boundary" inkscape:connector-curvature="0" />
	<path style="fill:none;stroke:red;stroke-width:1px;stroke-linecap:butt;stroke-linejoin:miter;stroke-opacity:1" d="M 781.85,146.306 788.067,142.852 z" id="boundary" inkscape:connector-curvature="0" />
	<path style="fill:none;stroke:red;stroke-width:1px;stroke-linecap:butt;stroke-linejoin:miter;stroke-opacity:1" d="M 781.85,146.306 774.942,146.306 z" id="boundary" inkscape:connector-curvature="0" />
	<path style="fill:none;stroke:red;stroke-width:1px;stroke-linecap:butt;stroke-linejoin:miter;stroke-opacity:1" d="M 947.643,104.858 941.426,108.312 z" id="boundary" inkscape:connector-curvature="0" />
	<circle cx="4" cy="230.585" r="4" fill="#0" id="circle0"/>
	<circle cx="4" cy="251.309" r="4" fill="#0" id="circle1"/>
	<circle cx="7.45404" cy="236.802" r="4" fill="#0" id="circle2"/>
	<circle cx="9.52646" cy="225.058" r="4" fill="#0" id="circle3"/>
	<circle cx="9.52646" cy="245.783" r="4" fill="#0" id="circle4"/>
	<circle cx="9.52646" cy="256.145" r="4" fill="#0" id="circle5"/>
	<circle cx="15.0529" cy="219.532" r="4" fill="#0" id="circle6"/>
	<circle cx="15.7437" cy="259.599" r="4" fill="#0" id="circle7"/>
	<circle cx="20.5794" cy="214.696" r="4" fill="#0" id="circle8"/>
	<circle cx="21.2702" cy="263.744" r="4" fill="#0" id="circle9"/>
	<circle cx="26.7967" cy="211.242" r="4" fill="#0" id="circle10"/>
	<circle cx="27.4875" cy="267.198" r="4" fill="#0" id="circle11"/>
	<circle cx="33.0139" cy="207.788" r="4" fill="#0" id="circle12"/>
	<circle cx="34.3955" cy="267.198" r="4" fill="#0" id="circle13"/>
	<circle cx="39.922" cy="205.025" r="4" fill="#0" id="circle14"/>
	<circle cx="40.6128" cy="270.652" r="4" fill="#0" id="circle15"/>
	<circle cx="45.4485" cy="200.88" r="4" fill="#0" id="circle16"/>
	<circle cx="47.5209" cy="270.652" r="4" fill="#0" id="circle17"/>
	<circle cx="51.6657" cy="197.426" r="4" fill="#0" id="circle18"/>
	<circle cx="54.429" cy="270.652" r="4" fill="#0" id="circle19"/>
	<circle cx="58.5738" cy="197.426" r="4" fill="#0" id="circle20"/>
	<circle cx="60.6462" cy="274.106" r="4" fill="#0" id="circle21"/>
	<circle cx="64.7911" cy="193.972" r="4" fill="#0" id="circle22"/>
	<circle cx="67.5543" cy="274.106" r="4" fill="#0" id="circle23"/>
	<circle cx="71.6992" cy="193.972" r="4" fill="#0" id="circle24"/>
	<circle cx="73.7716" cy="277.56" r="4" fill="#0" id="circle25"/>
	<circle cx="78.6072" cy="190.518" r="4" fill="#0" id="circle26"/>
	<circle cx="80.6797" cy="277.56" r="4" fill="#0" id="circle27"/>
	<circle cx="84.8245" cy="187.064" r="4" fill="#0" id="circle28"/>
	<circle cx="87.5877" cy="277.56" r="4" fill="#0" id="circle29"/>
	<circle cx="91.7326" cy="187.064" r="4" fill="#0" id="circle30"/>
	<circle cx="94.4958" cy="278.942" r="4" fill="#0" id="circle31"/>
	<circle cx="97.9499" cy="183.61" r="4" fill="#0" id="circle32"/>
	<circle cx="101.404" cy="281.014" r="4" fill="#0" id="circle33"/>
	<circle cx="104.858" cy="183.61" r="4" fill="#0" id="circle34"/>
	<circle cx="108.312" cy="281.014" r="4" fill="#0" id="circle35"/>
	<circle cx="111.766" cy="183.61" r="4" fill="#0" id="circle36"/>
	<circle cx="115.22" cy="281.014" r="4" fill="#0" id="circle37"/>
	<circle cx="117.983" cy="180.156" r="4" fill="#0" id="circle38"/>
	<circle cx="122.128" cy="281.014" r="4" fill="#0" id="circle39"/>
	<circle cx="124.201" cy="176.702" r="4" fill="#0" id="circle40"/>
	<circle cx="129.036" cy="281.014" r="4" fill="#0" id="circle41"/>
	<circle cx="131.109" cy="176.702" r="4" fill="#0" id="circle42"/>
	<circle cx="135.944" cy="281.014" r="4" fill="#0" id="circle43"/>
	<circle cx="137.326" cy="173.248" r="4" fill="#0" id="circle44"/>
	<circle cx="142.852" cy="277.56" r="4" fill="#0" id="circle45"/>
	<circle cx="144.234" cy="173.248" r="4" fill="#0" id="circle46"/>
	<circle cx="149.76" cy="277.56" r="4" fill="#0" id="circle47"/>
	<circle cx="151.142" cy="173.248" r="4" fill="#0" id="circle48"/>
	<circle cx="156.669" cy="277.56" r="4" fill="#0" id="circle49"/>
	<circle cx="157.359" cy="169.794" r="4" fill="#0" id="circle50"/>
	<circle cx="163.577" cy="274.106" r="4" fill="#0" id="circle51"/>
	<circle cx="164.267" cy="169.794" r="4" fill="#0" id="circle52"/>
	<circle cx="170.485" cy="274.106" r="4" fill="#0" id="circle53"/>
	<circle cx="171.175" cy="169.794" r="4" fill="#0" id="circle54"/>
	<circle cx="177.393" cy="166.34" r="4" fill="#0" id="circle55"/>
	<circle cx="177.393" cy="274.106" r="4" fill="#0" id="circle56"/>
	<circle cx="184.301" cy="166.34" r="4" fill="#0" id="circle57"/>
	<circle cx="184.301" cy="274.106" r="4" fill="#0" id="circle58"/>
	<circle cx="191.209" cy="166.34" r="4" fill="#0" id="circle59"/>
	<circle cx="191.209" cy="274.106" r="4" fill="#0" id="circle60"/>
	<circle cx="197.426" cy="162.886" r="4" fill="#0" id="circle61"/>
	<circle cx="198.117" cy="275.487" r="4" fill="#0" id="circle62"/>
	<circle cx="202.953" cy="281.014" r="4" fill="#0" id="circle63"/>
	<circle cx="204.334" cy="162.886" r="4" fill="#0" id="circle64"/>
	<circle cx="209.17" cy="284.468" r="4" fill="#0" id="circle65"/>
	<circle cx="211.242" cy="161.504" r="4" fill="#0" id="circle66"/>
	<circle cx="215.387" cy="287.922" r="4" fill="#0" id="circle67"/>
	<circle cx="216.769" cy="155.978" r="4" fill="#0" id="circle68"/>
	<circle cx="222.295" cy="284.468" r="4" fill="#0" id="circle69"/>
	<circle cx="223.677" cy="155.978" r="4" fill="#0" id="circle70"/>
	<circle cx="229.203" cy="284.468" r="4" fill="#0" id="circle71"/>
	<circle cx="230.585" cy="155.978" r="4" fill="#0" id="circle72"/>
	<circle cx="235.421" cy="287.922" r="4" fill="#0" id="circle73"/>
	<circle cx="236.802" cy="152.524" r="4" fill="#0" id="circle74"/>
	<circle cx="242.329" cy="285.85" r="4" fill="#0" id="circle75"/>
	<circle cx="243.71" cy="152.524" r="4" fill="#0" id="circle76"/>
	<circle cx="249.237" cy="144.234" r="4" fill="#0" id="circle77"/>
	<circle cx="249.237" cy="284.468" r="4" fill="#0" id="circle78"/>
	<circle cx="254.763" cy="138.708" r="4" fill="#0" id="circle79"/>
	<circle cx="256.145" cy="126.964" r="4" fill="#0" id="circle80"/>
	<circle cx="256.145" cy="284.468" r="4" fill="#0" id="circle81"/>
	<circle cx="259.599" cy="120.056" r="4" fill="#0" id="circle82"/>
	<circle cx="263.053" cy="106.24" r="4" fill="#0" id="circle83"/>
	<circle cx="263.053" cy="113.148" r="4" fill="#0" id="circle84"/>
	<circle cx="263.053" cy="282.396" r="4" fill="#0" id="circle85"/>
	<circle cx="266.507" cy="99.3315" r="4" fill="#0" id="circle86"/>
	<circle cx="269.961" cy="92.4234" r="4" fill="#0" id="circle87"/>
	<circle cx="269.961" cy="281.014" r="4" fill="#0" id="circle88"/>
	<circle cx="275.487" cy="86.8969" r="4" fill="#0" id="circle89"/>
	<circle cx="276.869" cy="281.014" r="4" fill="#0" id="circle90"/>
	<circle cx="281.014" cy="81.3705" r="4" fill="#0" id="circle91"/>
	<circle cx="283.777" cy="278.942" r="4" fill="#0" id="circle92"/>
	<circle cx="286.54" cy="76.5348" r="4" fill="#0" id="circle93"/>
	<circle cx="290.685" cy="277.56" r="4" fill="#0" id="circle94"/>
	<circle cx="292.758" cy="73.0808" r="4" fill="#0" id="circle95"/>
	<circle cx="297.593" cy="277.56" r="4" fill="#0" id="circle96"/>
	<circle cx="299.666" cy="73.0808" r="4" fill="#0" id="circle97"/>
	<circle cx="303.811" cy="274.106" r="4" fill="#0" id="circle98"/>
	<circle cx="306.574" cy="69.6267" r="4" fill="#0" id="circle99"/>
	<circle cx="310.719" cy="274.106" r="4" fill="#0" id="circle100"/>
	<circle cx="313.482" cy="69.6267" r="4" fill="#0" id="circle101"/>
	<circle cx="317.627" cy="274.106" r="4" fill="#0" id="circle102"/>
	<circle cx="319.699" cy="73.0808" r="4" fill="#0" id="circle103"/>
	<circle cx="323.844" cy="270.652" r="4" fill="#0" id="circle104"/>
	<circle cx="325.916" cy="246.474" r="4" fill="#0" id="circle105"/>
	<circle cx="326.607" cy="70.3175" r="4" fill="#0" id="circle106"/>
	<circle cx="329.37" cy="252.691" r="4" fill="#0" id="circle107"/>
	<circle cx="330.752" cy="269.961" r="4" fill="#0" id="circle108"/>
	<circle cx="332.825" cy="246.474" r="4" fill="#0" id="circle109"/>
	<circle cx="333.515" cy="73.0808" r="4" fill="#0" id="circle110"/>
	<circle cx="334.897" cy="256.836" r="4" fill="#0" id="circle111"/>
	<circle cx="336.279" cy="263.744" r="4" fill="#0" id="circle112"/>
	<circle cx="339.733" cy="76.5348" r="4" fill="#0" id="circle113"/>
	<circle cx="339.733" cy="243.019" r="4" fill="#0" id="circle114"/>
	<circle cx="345.259" cy="80.6797" r="4" fill="#0" id="circle115"/>
	<circle cx="346.641" cy="243.019" r="4" fill="#0" id="circle116"/>
	<circle cx="350.095" cy="86.2061" r="4" fill="#0" id="circle117"/>
	<circle cx="353.549" cy="243.019" r="4" fill="#0" id="circle118"/>
	<circle cx="355.621" cy="91.0418" r="4" fill="#0" id="circle119"/>
	<circle cx="358.384" cy="97.9499" r="4" fill="#0" id="circle120"/>
	<circle cx="360.457" cy="239.565" r="4" fill="#0" id="circle121"/>
	<circle cx="361.838" cy="104.167" r="4" fill="#0" id="circle122"/>
	<circle cx="367.365" cy="108.312" r="4" fill="#0" id="circle123"/>
	<circle cx="367.365" cy="239.565" r="4" fill="#0" id="circle124"/>
	<circle cx="370.819" cy="114.529" r="4" fill="#0" id="circle125"/>
	<circle cx="370.819" cy="121.437" r="4" fill="#0" id="circle126"/>
	<circle cx="374.273" cy="239.565" r="4" fill="#0" id="circle127"/>
	<circle cx="376.345" cy="125.582" r="4" fill="#0" id="circle128"/>
	<circle cx="379.799" cy="234.73" r="4" fill="#0" id="circle129"/>
	<circle cx="383.253" cy="124.891" r="4" fill="#0" id="circle130"/>
	<circle cx="386.708" cy="232.657" r="4" fill="#0" id="circle131"/>
	<circle cx="387.398" cy="116.602" r="4" fill="#0" id="circle132"/>
	<circle cx="392.925" cy="111.075" r="4" fill="#0" id="circle133"/>
	<circle cx="393.616" cy="232.657" r="4" fill="#0" id="circle134"/>
	<circle cx="394.306" cy="102.786" r="4" fill="#0" id="circle135"/>
	<circle cx="399.833" cy="97.2591" r="4" fill="#0" id="circle136"/>
	<circle cx="399.833" cy="229.203" r="4" fill="#0" id="circle137"/>
	<circle cx="403.287" cy="90.351" r="4" fill="#0" id="circle138"/>
	<circle cx="406.741" cy="229.203" r="4" fill="#0" id="circle139"/>
	<circle cx="408.813" cy="84.8245" r="4" fill="#0" id="circle140"/>
	<circle cx="413.649" cy="228.513" r="4" fill="#0" id="circle141"/>
	<circle cx="414.34" cy="79.9889" r="4" fill="#0" id="circle142"/>
	<circle cx="420.557" cy="76.5348" r="4" fill="#0" id="circle143"/>
	<circle cx="420.557" cy="225.749" r="4" fill="#0" id="circle144"/>
	<circle cx="426.084" cy="71.0084" r="4" fill="#0" id="circle145"/>
	<circle cx="427.465" cy="225.749" r="4" fill="#0" id="circle146"/>
	<circle cx="431.61" cy="66.1727" r="4" fill="#0" id="circle147"/>
	<circle cx="433.682" cy="222.295" r="4" fill="#0" id="circle148"/>
	<circle cx="437.827" cy="62.7187" r="4" fill="#0" id="circle149"/>
	<circle cx="439.9" cy="218.841" r="4" fill="#0" id="circle150"/>
	<circle cx="444.045" cy="59.2646" r="4" fill="#0" id="circle151"/>
	<circle cx="446.808" cy="218.841" r="4" fill="#0" id="circle152"/>
	<circle cx="450.262" cy="55.8106" r="4" fill="#0" id="circle153"/>
	<circle cx="453.025" cy="222.295" r="4" fill="#0" id="circle154"/>
	<circle cx="457.17" cy="53.7382" r="4" fill="#0" id="circle155"/>
	<circle cx="459.242" cy="225.749" r="4" fill="#0" id="circle156"/>
	<circle cx="464.078" cy="50.2841" r="4" fill="#0" id="circle157"/>
	<circle cx="466.15" cy="225.749" r="4" fill="#0" id="circle158"/>
	<circle cx="470.986" cy="48.9025" r="4" fill="#0" id="circle159"/>
	<circle cx="472.368" cy="229.203" r="4" fill="#0" id="circle160"/>
	<circle cx="477.894" cy="46.8301" r="4" fill="#0" id="circle161"/>
	<circle cx="479.276" cy="229.203" r="4" fill="#0" id="circle162"/>
	<circle cx="483.421" cy="41.9944" r="4" fill="#0" id="circle163"/>
	<circle cx="486.184" cy="231.967" r="4" fill="#0" id="circle164"/>
	<circle cx="490.329" cy="41.9944" r="4" fill="#0" id="circle165"/>
	<circle cx="492.401" cy="235.421" r="4" fill="#0" id="circle166"/>
	<circle cx="497.237" cy="41.9944" r="4" fill="#0" id="circle167"/>
	<circle cx="499.309" cy="236.111" r="4" fill="#0" id="circle168"/>
	<circle cx="503.454" cy="38.5404" r="4" fill="#0" id="circle169"/>
	<circle cx="506.217" cy="236.111" r="4" fill="#0" id="circle170"/>
	<circle cx="510.362" cy="38.5404" r="4" fill="#0" id="circle171"/>
	<circle cx="513.125" cy="236.111" r="4" fill="#0" id="circle172"/>
	<circle cx="517.27" cy="38.5404" r="4" fill="#0" id="circle173"/>
	<circle cx="520.033" cy="236.111" r="4" fill="#0" id="circle174"/>
	<circle cx="524.178" cy="35.0864" r="4" fill="#0" id="circle175"/>
	<circle cx="526.942" cy="236.111" r="4" fill="#0" id="circle176"/>
	<circle cx="531.086" cy="35.0864" r="4" fill="#0" id="circle177"/>
	<circle cx="533.85" cy="236.111" r="4" fill="#0" id="circle178"/>
	<circle cx="537.994" cy="31.6323" r="4" fill="#0" id="circle179"/>
	<circle cx="540.067" cy="232.657" r="4" fill="#0" id="circle180"/>
	<circle cx="544.903" cy="31.6323" r="4" fill="#0" id="circle181"/>
	<circle cx="546.975" cy="232.657" r="4" fill="#0" id="circle182"/>
	<circle cx="551.811" cy="31.6323" r="4" fill="#0" id="circle183"/>
	<circle cx="553.192" cy="229.203" r="4" fill="#0" id="circle184"/>
	<circle cx="558.719" cy="31.6323" r="4" fill="#0" id="circle185"/>
	<circle cx="559.409" cy="225.749" r="4" fill="#0" id="circle186"/>
	<circle cx="564.936" cy="28.1783" r="4" fill="#0" id="circle187"/>
	<circle cx="566.318" cy="225.749" r="4" fill="#0" id="circle188"/>
	<circle cx="571.153" cy="24.7242" r="4" fill="#0" id="circle189"/>
	<circle cx="573.226" cy="224.368" r="4" fill="#0" id="circle190"/>
	<circle cx="578.061" cy="24.7242" r="4" fill="#0" id="circle191"/>
	<circle cx="580.134" cy="222.295" r="4" fill="#0" id="circle192"/>
	<circle cx="584.969" cy="24.7242" r="4" fill="#0" id="circle193"/>
	<circle cx="587.042" cy="222.295" r="4" fill="#0" id="circle194"/>
	<circle cx="591.877" cy="24.7242" r="4" fill="#0" id="circle195"/>
	<circle cx="593.95" cy="220.914" r="4" fill="#0" id="circle196"/>
	<circle cx="598.786" cy="22.6518" r="4" fill="#0" id="circle197"/>
	<circle cx="598.786" cy="215.387" r="4" fill="#0" id="circle198"/>
	<circle cx="605.694" cy="21.2702" r="4" fill="#0" id="circle199"/>
	<circle cx="605.694" cy="215.387" r="4" fill="#0" id="circle200"/>
	<circle cx="612.602" cy="21.2702" r="4" fill="#0" id="circle201"/>
	<circle cx="612.602" cy="215.387" r="4" fill="#0" id="circle202"/>
	<circle cx="618.819" cy="17.8162" r="4" fill="#0" id="circle203"/>
	<circle cx="618.819" cy="211.933" r="4" fill="#0" id="circle204"/>
	<circle cx="625.727" cy="17.8162" r="4" fill="#0" id="circle205"/>
	<circle cx="625.727" cy="211.933" r="4" fill="#0" id="circle206"/>
	<circle cx="631.253" cy="207.788" r="4" fill="#0" id="circle207"/>
	<circle cx="632.635" cy="17.8162" r="4" fill="#0" id="circle208"/>
	<circle cx="638.162" cy="205.025" r="4" fill="#0" id="circle209"/>
	<circle cx="639.543" cy="17.8162" r="4" fill="#0" id="circle210"/>
	<circle cx="645.07" cy="205.025" r="4" fill="#0" id="circle211"/>
	<circle cx="646.451" cy="17.8162" r="4" fill="#0" id="circle212"/>
	<circle cx="651.287" cy="201.571" r="4" fill="#0" id="circle213"/>
	<circle cx="653.359" cy="17.8162" r="4" fill="#0" id="circle214"/>
	<circle cx="654.05" cy="80.6797" r="4" fill="#0" id="circle215"/>
	<circle cx="657.504" cy="86.8969" r="4" fill="#0" id="circle216"/>
	<circle cx="657.504" cy="198.117" r="4" fill="#0" id="circle217"/>
	<circle cx="660.267" cy="17.8162" r="4" fill="#0" id="circle218"/>
	<circle cx="660.958" cy="77.2256" r="4" fill="#0" id="circle219"/>
	<circle cx="664.412" cy="84.8245" r="4" fill="#0" id="circle220"/>
	<circle cx="664.412" cy="149.76" r="4" fill="#0" id="circle221"/>
	<circle cx="664.412" cy="198.117" r="4" fill="#0" id="circle222"/>
	<circle cx="666.485" cy="72.39" r="4" fill="#0" id="circle223"/>
	<circle cx="667.175" cy="17.8162" r="4" fill="#0" id="circle224"/>
	<circle cx="667.866" cy="155.978" r="4" fill="#0" id="circle225"/>
	<circle cx="671.32" cy="66.8635" r="4" fill="#0" id="circle226"/>
	<circle cx="671.32" cy="83.4429" r="4" fill="#0" id="circle227"/>
	<circle cx="671.32" cy="146.306" r="4" fill="#0" id="circle228"/>
	<circle cx="671.32" cy="194.663" r="4" fill="#0" id="circle229"/>
	<circle cx="673.393" cy="21.2702" r="4" fill="#0" id="circle230"/>
	<circle cx="674.774" cy="155.978" r="4" fill="#0" id="circle231"/>
	<circle cx="677.538" cy="191.209" r="4" fill="#0" id="circle232"/>
	<circle cx="678.228" cy="63.4095" r="4" fill="#0" id="circle233"/>
	<circle cx="678.228" cy="83.4429" r="4" fill="#0" id="circle234"/>
	<circle cx="678.228" cy="146.306" r="4" fill="#0" id="circle235"/>
	<circle cx="680.301" cy="21.2702" r="4" fill="#0" id="circle236"/>
	<circle cx="681.682" cy="155.978" r="4" fill="#0" id="circle237"/>
	<circle cx="684.446" cy="59.9554" r="4" fill="#0" id="circle238"/>
	<circle cx="684.446" cy="189.136" r="4" fill="#0" id="circle239"/>
	<circle cx="685.136" cy="81.3705" r="4" fill="#0" id="circle240"/>
	<circle cx="685.136" cy="146.306" r="4" fill="#0" id="circle241"/>
	<circle cx="686.518" cy="24.7242" r="4" fill="#0" id="circle242"/>
	<circle cx="688.591" cy="155.978" r="4" fill="#0" id="circle243"/>
	<circle cx="690.663" cy="56.5014" r="4" fill="#0" id="circle244"/>
	<circle cx="691.354" cy="185.682" r="4" fill="#0" id="circle245"/>
	<circle cx="692.045" cy="79.9889" r="4" fill="#0" id="circle246"/>
	<circle cx="692.045" cy="146.306" r="4" fill="#0" id="circle247"/>
	<circle cx="692.735" cy="28.1783" r="4" fill="#0" id="circle248"/>
	<circle cx="694.808" cy="159.432" r="4" fill="#0" id="circle249"/>
	<circle cx="696.88" cy="52.3565" r="4" fill="#0" id="circle250"/>
	<circle cx="696.88" cy="180.847" r="4" fill="#0" id="circle251"/>
	<circle cx="698.262" cy="76.5348" r="4" fill="#0" id="circle252"/>
	<circle cx="698.953" cy="146.306" r="4" fill="#0" id="circle253"/>
	<circle cx="699.643" cy="28.1783" r="4" fill="#0" id="circle254"/>
	<circle cx="701.716" cy="159.432" r="4" fill="#0" id="circle255"/>
	<circle cx="703.788" cy="48.9025" r="4" fill="#0" id="circle256"/>
	<circle cx="703.788" cy="180.156" r="4" fill="#0" id="circle257"/>
	<circle cx="704.479" cy="73.0808" r="4" fill="#0" id="circle258"/>
	<circle cx="705.17" cy="33.0139" r="4" fill="#0" id="circle259"/>
	<circle cx="705.861" cy="142.852" r="4" fill="#0" id="circle260"/>
	<circle cx="707.933" cy="39.922" r="4" fill="#0" id="circle261"/>
	<circle cx="708.624" cy="160.813" r="4" fill="#0" id="circle262"/>
	<circle cx="709.315" cy="67.5543" r="4" fill="#0" id="circle263"/>
	<circle cx="709.315" cy="170.485" r="4" fill="#0" id="circle264"/>
	<circle cx="712.769" cy="142.852" r="4" fill="#0" id="circle265"/>
	<circle cx="716.223" cy="64.1003" r="4" fill="#0" id="circle266"/>
	<circle cx="719.677" cy="144.234" r="4" fill="#0" id="circle267"/>
	<circle cx="723.131" cy="60.6462" r="4" fill="#0" id="circle268"/>
	<circle cx="726.585" cy="142.852" r="4" fill="#0" id="circle269"/>
	<circle cx="728.657" cy="55.8106" r="4" fill="#0" id="circle270"/>
	<circle cx="733.493" cy="144.234" r="4" fill="#0" id="circle271"/>
	<circle cx="735.565" cy="55.8106" r="4" fill="#0" id="circle272"/>
	<circle cx="740.401" cy="50.2841" r="4" fill="#0" id="circle273"/>
	<circle cx="740.401" cy="146.306" r="4" fill="#0" id="circle274"/>
	<circle cx="745.928" cy="45.4485" r="4" fill="#0" id="circle275"/>
	<circle cx="747.309" cy="146.306" r="4" fill="#0" id="circle276"/>
	<circle cx="752.836" cy="45.4485" r="4" fill="#0" id="circle277"/>
	<circle cx="754.217" cy="146.306" r="4" fill="#0" id="circle278"/>
	<circle cx="759.053" cy="41.9944" r="4" fill="#0" id="circle279"/>
	<circle cx="761.125" cy="146.306" r="4" fill="#0" id="circle280"/>
	<circle cx="764.579" cy="36.468" r="4" fill="#0" id="circle281"/>
	<circle cx="768.033" cy="146.306" r="4" fill="#0" id="circle282"/>
	<circle cx="771.487" cy="35.0864" r="4" fill="#0" id="circle283"/>
	<circle cx="774.942" cy="146.306" r="4" fill="#0" id="circle284"/>
	<circle cx="777.705" cy="31.6323" r="4" fill="#0" id="circle285"/>
	<circle cx="781.85" cy="146.306" r="4" fill="#0" id="circle286"/>
	<circle cx="783.922" cy="28.1783" r="4" fill="#0" id="circle287"/>
	<circle cx="788.067" cy="142.852" r="4" fill="#0" id="circle288"/>
	<circle cx="790.83" cy="28.1783" r="4" fill="#0" id="circle289"/>
	<circle cx="794.975" cy="142.852" r="4" fill="#0" id="circle290"/>
	<circle cx="795.666" cy="22.6518" r="4" fill="#0" id="circle291"/>
	<circle cx="801.192" cy="146.306" r="4" fill="#0" id="circle292"/>
	<circle cx="802.574" cy="21.2702" r="4" fill="#0" id="circle293"/>
	<circle cx="807.409" cy="142.852" r="4" fill="#0" id="circle294"/>
	<circle cx="809.482" cy="21.2702" r="4" fill="#0" id="circle295"/>
	<circle cx="814.318" cy="142.852" r="4" fill="#0" id="circle296"/>
	<circle cx="816.39" cy="19.1978" r="4" fill="#0" id="circle297"/>
	<circle cx="821.226" cy="142.852" r="4" fill="#0" id="circle298"/>
	<circle cx="821.916" cy="14.3621" r="4" fill="#0" id="circle299"/>
	<circle cx="827.443" cy="139.398" r="4" fill="#0" id="circle300"/>
	<circle cx="828.825" cy="14.3621" r="4" fill="#0" id="circle301"/>
	<circle cx="834.351" cy="139.398" r="4" fill="#0" id="circle302"/>
	<circle cx="835.733" cy="14.3621" r="4" fill="#0" id="circle303"/>
	<circle cx="841.259" cy="139.398" r="4" fill="#0" id="circle304"/>
	<circle cx="841.95" cy="10.9081" r="4" fill="#0" id="circle305"/>
	<circle cx="847.476" cy="135.944" r="4" fill="#0" id="circle306"/>
	<circle cx="848.858" cy="10.9081" r="4" fill="#0" id="circle307"/>
	<circle cx="854.384" cy="135.944" r="4" fill="#0" id="circle308"/>
	<circle cx="855.766" cy="7.45404" r="4" fill="#0" id="circle309"/>
	<circle cx="861.292" cy="135.944" r="4" fill="#0" id="circle310"/>
	<circle cx="862.674" cy="7.45404" r="4" fill="#0" id="circle311"/>
	<circle cx="867.51" cy="132.49" r="4" fill="#0" id="circle312"/>
	<circle cx="869.582" cy="7.45404" r="4" fill="#0" id="circle313"/>
	<circle cx="874.418" cy="132.49" r="4" fill="#0" id="circle314"/>
	<circle cx="876.49" cy="7.45404" r="4" fill="#0" id="circle315"/>
	<circle cx="881.326" cy="132.49" r="4" fill="#0" id="circle316"/>
	<circle cx="883.398" cy="7.45404" r="4" fill="#0" id="circle317"/>
	<circle cx="887.543" cy="129.036" r="4" fill="#0" id="circle318"/>
	<circle cx="890.306" cy="7.45404" r="4" fill="#0" id="circle319"/>
	<circle cx="894.451" cy="129.036" r="4" fill="#0" id="circle320"/>
	<circle cx="897.214" cy="4" r="4" fill="#0" id="circle321"/>
	<circle cx="901.359" cy="127.655" r="4" fill="#0" id="circle322"/>
	<circle cx="904.123" cy="4" r="4" fill="#0" id="circle323"/>
	<circle cx="908.267" cy="124.201" r="4" fill="#0" id="circle324"/>
	<circle cx="911.031" cy="4" r="4" fill="#0" id="circle325"/>
	<circle cx="915.175" cy="120.747" r="4" fill="#0" id="circle326"/>
	<circle cx="917.248" cy="7.45404" r="4" fill="#0" id="circle327"/>
	<circle cx="922.084" cy="118.674" r="4" fill="#0" id="circle328"/>
	<circle cx="924.156" cy="7.45404" r="4" fill="#0" id="circle329"/>
	<circle cx="928.301" cy="114.529" r="4" fill="#0" id="circle330"/>
	<circle cx="931.064" cy="7.45404" r="4" fill="#0" id="circle331"/>
	<circle cx="935.209" cy="111.766" r="4" fill="#0" id="circle332"/>
	<circle cx="937.281" cy="10.9081" r="4" fill="#0" id="circle333"/>
	<circle cx="941.426" cy="108.312" r="4" fill="#0" id="circle334"/>
	<circle cx="944.189" cy="12.9805" r="4" fill="#0" id="circle335"/>
	<circle cx="947.643" cy="104.858" r="4" fill="#0" id="circle336"/>
	<circle cx="950.407" cy="16.4345" r="4" fill="#0" id="circle337"/>
	<circle cx="953.861" cy="101.404" r="4" fill="#0" id="circle338"/>
	<circle cx="957.315" cy="17.8162" r="4" fill="#0" id="circle339"/>
	<circle cx="960.078" cy="97.9499" r="4" fill="#0" id="circle340"/>
	<circle cx="963.532" cy="21.2702" r="4" fill="#0" id="circle341"/>
	<circle cx="966.295" cy="93.805" r="4" fill="#0" id="circle342"/>
	<circle cx="969.749" cy="24.7242" r="4" fill="#0" id="circle343"/>
	<circle cx="973.203" cy="90.351" r="4" fill="#0" id="circle344"/>
	<circle cx="975.967" cy="28.1783" r="4" fill="#0" id="circle345"/>
	<circle cx="978.73" cy="84.1337" r="4" fill="#0" id="circle346"/>
	<circle cx="982.184" cy="77.2256" r="4" fill="#0" id="circle347"/>
	<circle cx="982.875" cy="28.1783" r="4" fill="#0" id="circle348"/>
	<circle cx="987.71" cy="72.39" r="4" fill="#0" id="circle349"/>
	<circle cx="989.092" cy="31.6323" r="4" fill="#0" id="circle350"/>
	<circle cx="992.546" cy="37.8496" r="4" fill="#0" id="circle351"/>
	<circle cx="992.546" cy="59.9554" r="4" fill="#0" id="circle352"/>
	<circle cx="992.546" cy="66.8635" r="4" fill="#0" id="circle353"/>
	<circle cx="996" cy="44.0669" r="4" fill="#0" id="circle354"/>
	<circle cx="996" cy="50.9749" r="4" fill="#0" id="circle355"/>
	</g>
</svg>