<?xml version="1.0" encoding="UTF-8" standalone="no"?>
<!-- Created with CurveBenchmark -->
<svg
	xmlns:dc="http://purl.org/dc/elements/1.1/"
	xmlns:cc="http://creativecommons.org/ns#"
	xmlns:rdf="http://www.w3.org/1999/02/22-rdf-syntax-ns#"
	xmlns:svg="http://www.w3.org/2000/svg"
	xmlns="http://www.w3.org/2000/svg"
	xmlns:sodipodi="http://sodipodi.sourceforge.net/DTD/sodipodi-0.dtd"
	xmlns:inkscape="http://www.inkscape.org/namespaces/inkscape"
	width="1000"
	height="1000"
	id="svg2"
	version="1.1"
	sodipodi:docname="manifold/gathang-stef04.png.txt">
<defs
	id="defs4" />
<metadata
	id="metadata7">
	<rdf:RDF>
		<cc:Work
			rdf:about="">
			<dc:format>image/svg+xml</dc:format>
			<dc:type
				rdf:resource="http://purl.org/dc/dcmitype/StillImage" />
			<dc:title></dc:title>
		</cc:Work>
	</rdf:RDF>
</metadata>
<g
	inkscape:label="Layer 1"
	inkscape:groupmode="layer"
	id="layer1">
	<path style="fill:none;stroke:red;stroke-width:1px;stroke-linecap:butt;stroke-linejoin:miter;stroke-opacity:1" d="M 32.2807,4 54.0351,4 z" id="boundary" inkscape:connector-curvature="0" />
	<path style="fill:none;stroke:red;stroke-width:1px;stroke-linecap:butt;stroke-linejoin:miter;stroke-opacity:1" d="M 14.8772,21.4035 32.2807,4 z" id="boundary" inkscape:connector-curvature="0" />
	<path style="fill:none;stroke:red;stroke-width:1px;stroke-linecap:butt;stroke-linejoin:miter;stroke-opacity:1" d="M 4,54.0351 14.8772,21.4035 z" id="boundary" inkscape:connector-curvature="0" />
	<path style="fill:none;stroke:red;stroke-width:1px;stroke-linecap:butt;stroke-linejoin:miter;stroke-opacity:1" d="M 21.4035,101.895 4,86.6667 z" id="boundary" inkscape:connector-curvature="0" />
	<path style="fill:none;stroke:red;stroke-width:1px;stroke-linecap:butt;stroke-linejoin:miter;stroke-opacity:1" d="M 4,86.6667 4,54.0351 z" id="boundary" inkscape:connector-curvature="0" />
	<path style="fill:none;stroke:red;stroke-width:1px;stroke-linecap:butt;stroke-linejoin:miter;stroke-opacity:1" d="M 75.7895,4 97.5439,4 z" id="boundary" inkscape:connector-curvature="0" />
	<path style="fill:none;stroke:red;stroke-width:1px;stroke-linecap:butt;stroke-linejoin:miter;stroke-opacity:1" d="M 145.404,47.5088 125.825,36.6316 z" id="boundary" inkscape:connector-curvature="0" />
	<path style="fill:none;stroke:red;stroke-width:1px;stroke-linecap:butt;stroke-linejoin:miter;stroke-opacity:1" d="M 125.825,36.6316 117.123,14.8772 z" id="boundary" inkscape:connector-curvature="0" />
	<path style="fill:none;stroke:red;stroke-width:1px;stroke-linecap:butt;stroke-linejoin:miter;stroke-opacity:1" d="M 162.807,60.5614 145.404,47.5088 z" id="boundary" inkscape:connector-curvature="0" />
	<path style="fill:none;stroke:red;stroke-width:1px;stroke-linecap:butt;stroke-linejoin:miter;stroke-opacity:1" d="M 97.5439,4 117.123,14.8772 z" id="boundary" inkscape:connector-curvature="0" />
	<path style="fill:none;stroke:red;stroke-width:1px;stroke-linecap:butt;stroke-linejoin:miter;stroke-opacity:1" d="M 54.0351,4 75.7895,4 z" id="boundary" inkscape:connector-curvature="0" />
	<path style="fill:none;stroke:red;stroke-width:1px;stroke-linecap:butt;stroke-linejoin:miter;stroke-opacity:1" d="M 51.8596,121.474 30.1053,123.649 z" id="boundary" inkscape:connector-curvature="0" />
	<path style="fill:none;stroke:red;stroke-width:1px;stroke-linecap:butt;stroke-linejoin:miter;stroke-opacity:1" d="M 30.1053,123.649 21.4035,101.895 z" id="boundary" inkscape:connector-curvature="0" />
	<path style="fill:none;stroke:red;stroke-width:1px;stroke-linecap:butt;stroke-linejoin:miter;stroke-opacity:1" d="M 51.8596,121.474 73.614,125.825 z" id="boundary" inkscape:connector-curvature="0" />
	<path style="fill:none;stroke:red;stroke-width:1px;stroke-linecap:butt;stroke-linejoin:miter;stroke-opacity:1" d="M 73.614,125.825 84.4912,145.404 z" id="boundary" inkscape:connector-curvature="0" />
	<path style="fill:none;stroke:red;stroke-width:1px;stroke-linecap:butt;stroke-linejoin:miter;stroke-opacity:1" d="M 101.895,158.456 84.4912,145.404 z" id="boundary" inkscape:connector-curvature="0" />
	<path style="fill:none;stroke:red;stroke-width:1px;stroke-linecap:butt;stroke-linejoin:miter;stroke-opacity:1" d="M 112.772,178.035 117.123,199.789 z" id="boundary" inkscape:connector-curvature="0" />
	<path style="fill:none;stroke:red;stroke-width:1px;stroke-linecap:butt;stroke-linejoin:miter;stroke-opacity:1" d="M 112.772,178.035 101.895,158.456 z" id="boundary" inkscape:connector-curvature="0" />
	<path style="fill:none;stroke:red;stroke-width:1px;stroke-linecap:butt;stroke-linejoin:miter;stroke-opacity:1" d="M 128,219.368 145.404,234.596 z" id="boundary" inkscape:connector-curvature="0" />
	<path style="fill:none;stroke:red;stroke-width:1px;stroke-linecap:butt;stroke-linejoin:miter;stroke-opacity:1" d="M 145.404,234.596 158.456,252 z" id="boundary" inkscape:connector-curvature="0" />
	<path style="fill:none;stroke:red;stroke-width:1px;stroke-linecap:butt;stroke-linejoin:miter;stroke-opacity:1" d="M 128,219.368 117.123,199.789 z" id="boundary" inkscape:connector-curvature="0" />
	<path style="fill:none;stroke:red;stroke-width:1px;stroke-linecap:butt;stroke-linejoin:miter;stroke-opacity:1" d="M 162.807,60.5614 180.211,75.7895 z" id="boundary" inkscape:connector-curvature="0" />
	<path style="fill:none;stroke:red;stroke-width:1px;stroke-linecap:butt;stroke-linejoin:miter;stroke-opacity:1" d="M 180.211,75.7895 180.211,97.5439 z" id="boundary" inkscape:connector-curvature="0" />
	<path style="fill:none;stroke:red;stroke-width:1px;stroke-linecap:butt;stroke-linejoin:miter;stroke-opacity:1" d="M 195.439,278.105 175.86,267.228 z" id="boundary" inkscape:connector-curvature="0" />
	<path style="fill:none;stroke:red;stroke-width:1px;stroke-linecap:butt;stroke-linejoin:miter;stroke-opacity:1" d="M 180.211,97.5439 199.789,108.421 z" id="boundary" inkscape:connector-curvature="0" />
	<path style="fill:none;stroke:red;stroke-width:1px;stroke-linecap:butt;stroke-linejoin:miter;stroke-opacity:1" d="M 195.439,278.105 212.842,293.333 z" id="boundary" inkscape:connector-curvature="0" />
	<path style="fill:none;stroke:red;stroke-width:1px;stroke-linecap:butt;stroke-linejoin:miter;stroke-opacity:1" d="M 199.789,108.421 221.544,106.246 z" id="boundary" inkscape:connector-curvature="0" />
	<path style="fill:none;stroke:red;stroke-width:1px;stroke-linecap:butt;stroke-linejoin:miter;stroke-opacity:1" d="M 221.544,106.246 243.298,112.772 z" id="boundary" inkscape:connector-curvature="0" />
	<path style="fill:none;stroke:red;stroke-width:1px;stroke-linecap:butt;stroke-linejoin:miter;stroke-opacity:1" d="M 243.298,112.772 262.877,123.649 z" id="boundary" inkscape:connector-curvature="0" />
	<path style="fill:none;stroke:red;stroke-width:1px;stroke-linecap:butt;stroke-linejoin:miter;stroke-opacity:1" d="M 262.877,123.649 282.456,134.526 z" id="boundary" inkscape:connector-curvature="0" />
	<path style="fill:none;stroke:red;stroke-width:1px;stroke-linecap:butt;stroke-linejoin:miter;stroke-opacity:1" d="M 282.456,134.526 302.035,145.404 z" id="boundary" inkscape:connector-curvature="0" />
	<path style="fill:none;stroke:red;stroke-width:1px;stroke-linecap:butt;stroke-linejoin:miter;stroke-opacity:1" d="M 175.86,267.228 158.456,252 z" id="boundary" inkscape:connector-curvature="0" />
	<path style="fill:none;stroke:red;stroke-width:1px;stroke-linecap:butt;stroke-linejoin:miter;stroke-opacity:1" d="M 212.842,293.333 228.07,310.737 z" id="boundary" inkscape:connector-curvature="0" />
	<path style="fill:none;stroke:red;stroke-width:1px;stroke-linecap:butt;stroke-linejoin:miter;stroke-opacity:1" d="M 247.649,321.614 228.07,310.737 z" id="boundary" inkscape:connector-curvature="0" />
	<path style="fill:none;stroke:red;stroke-width:1px;stroke-linecap:butt;stroke-linejoin:miter;stroke-opacity:1" d="M 238.947,482.596 217.193,493.474 z" id="boundary" inkscape:connector-curvature="0" />
	<path style="fill:none;stroke:red;stroke-width:1px;stroke-linecap:butt;stroke-linejoin:miter;stroke-opacity:1" d="M 258.526,471.719 238.947,482.596 z" id="boundary" inkscape:connector-curvature="0" />
	<path style="fill:none;stroke:red;stroke-width:1px;stroke-linecap:butt;stroke-linejoin:miter;stroke-opacity:1" d="M 206.316,515.228 217.193,493.474 z" id="boundary" inkscape:connector-curvature="0" />
	<path style="fill:none;stroke:red;stroke-width:1px;stroke-linecap:butt;stroke-linejoin:miter;stroke-opacity:1" d="M 267.228,332.491 286.807,343.368 z" id="boundary" inkscape:connector-curvature="0" />
	<path style="fill:none;stroke:red;stroke-width:1px;stroke-linecap:butt;stroke-linejoin:miter;stroke-opacity:1" d="M 267.228,332.491 247.649,321.614 z" id="boundary" inkscape:connector-curvature="0" />
	<path style="fill:none;stroke:red;stroke-width:1px;stroke-linecap:butt;stroke-linejoin:miter;stroke-opacity:1" d="M 286.807,343.368 306.386,354.246 z" id="boundary" inkscape:connector-curvature="0" />
	<path style="fill:none;stroke:red;stroke-width:1px;stroke-linecap:butt;stroke-linejoin:miter;stroke-opacity:1" d="M 275.93,456.491 258.526,471.719 z" id="boundary" inkscape:connector-curvature="0" />
	<path style="fill:none;stroke:red;stroke-width:1px;stroke-linecap:butt;stroke-linejoin:miter;stroke-opacity:1" d="M 293.333,439.088 275.93,456.491 z" id="boundary" inkscape:connector-curvature="0" />
	<path style="fill:none;stroke:red;stroke-width:1px;stroke-linecap:butt;stroke-linejoin:miter;stroke-opacity:1" d="M 317.263,534.807 295.509,539.158 z" id="boundary" inkscape:connector-curvature="0" />
	<path style="fill:none;stroke:red;stroke-width:1px;stroke-linecap:butt;stroke-linejoin:miter;stroke-opacity:1" d="M 302.035,145.404 319.439,160.632 z" id="boundary" inkscape:connector-curvature="0" />
	<path style="fill:none;stroke:red;stroke-width:1px;stroke-linecap:butt;stroke-linejoin:miter;stroke-opacity:1" d="M 169.333,832.842 158.456,854.596 z" id="boundary" inkscape:connector-curvature="0" />
	<path style="fill:none;stroke:red;stroke-width:1px;stroke-linecap:butt;stroke-linejoin:miter;stroke-opacity:1" d="M 123.649,793.684 112.772,815.439 z" id="boundary" inkscape:connector-curvature="0" />
	<path style="fill:none;stroke:red;stroke-width:1px;stroke-linecap:butt;stroke-linejoin:miter;stroke-opacity:1" d="M 93.193,852.421 71.4386,856.772 z" id="boundary" inkscape:connector-curvature="0" />
	<path style="fill:none;stroke:red;stroke-width:1px;stroke-linecap:butt;stroke-linejoin:miter;stroke-opacity:1" d="M 112.772,815.439 112.772,837.193 z" id="boundary" inkscape:connector-curvature="0" />
	<path style="fill:none;stroke:red;stroke-width:1px;stroke-linecap:butt;stroke-linejoin:miter;stroke-opacity:1" d="M 112.772,837.193 93.193,852.421 z" id="boundary" inkscape:connector-curvature="0" />
	<path style="fill:none;stroke:red;stroke-width:1px;stroke-linecap:butt;stroke-linejoin:miter;stroke-opacity:1" d="M 54.0351,874.175 71.4386,856.772 z" id="boundary" inkscape:connector-curvature="0" />
	<path style="fill:none;stroke:red;stroke-width:1px;stroke-linecap:butt;stroke-linejoin:miter;stroke-opacity:1" d="M 134.526,761.053 123.649,793.684 z" id="boundary" inkscape:connector-curvature="0" />
	<path style="fill:none;stroke:red;stroke-width:1px;stroke-linecap:butt;stroke-linejoin:miter;stroke-opacity:1" d="M 145.404,728.421 156.281,695.789 z" id="boundary" inkscape:connector-curvature="0" />
	<path style="fill:none;stroke:red;stroke-width:1px;stroke-linecap:butt;stroke-linejoin:miter;stroke-opacity:1" d="M 145.404,728.421 134.526,761.053 z" id="boundary" inkscape:connector-curvature="0" />
	<path style="fill:none;stroke:red;stroke-width:1px;stroke-linecap:butt;stroke-linejoin:miter;stroke-opacity:1" d="M 158.456,876.351 158.456,854.596 z" id="boundary" inkscape:connector-curvature="0" />
	<path style="fill:none;stroke:red;stroke-width:1px;stroke-linecap:butt;stroke-linejoin:miter;stroke-opacity:1" d="M 36.6316,891.579 54.0351,874.175 z" id="boundary" inkscape:connector-curvature="0" />
	<path style="fill:none;stroke:red;stroke-width:1px;stroke-linecap:butt;stroke-linejoin:miter;stroke-opacity:1" d="M 47.5088,911.158 36.6316,891.579 z" id="boundary" inkscape:connector-curvature="0" />
	<path style="fill:none;stroke:red;stroke-width:1px;stroke-linecap:butt;stroke-linejoin:miter;stroke-opacity:1" d="M 77.9649,941.614 58.386,930.737 z" id="boundary" inkscape:connector-curvature="0" />
	<path style="fill:none;stroke:red;stroke-width:1px;stroke-linecap:butt;stroke-linejoin:miter;stroke-opacity:1" d="M 58.386,930.737 47.5088,911.158 z" id="boundary" inkscape:connector-curvature="0" />
	<path style="fill:none;stroke:red;stroke-width:1px;stroke-linecap:butt;stroke-linejoin:miter;stroke-opacity:1" d="M 136.702,919.86 147.579,898.105 z" id="boundary" inkscape:connector-curvature="0" />
	<path style="fill:none;stroke:red;stroke-width:1px;stroke-linecap:butt;stroke-linejoin:miter;stroke-opacity:1" d="M 136.702,941.614 136.702,919.86 z" id="boundary" inkscape:connector-curvature="0" />
	<path style="fill:none;stroke:red;stroke-width:1px;stroke-linecap:butt;stroke-linejoin:miter;stroke-opacity:1" d="M 97.5439,952.491 77.9649,941.614 z" id="boundary" inkscape:connector-curvature="0" />
	<path style="fill:none;stroke:red;stroke-width:1px;stroke-linecap:butt;stroke-linejoin:miter;stroke-opacity:1" d="M 147.579,898.105 158.456,876.351 z" id="boundary" inkscape:connector-curvature="0" />
	<path style="fill:none;stroke:red;stroke-width:1px;stroke-linecap:butt;stroke-linejoin:miter;stroke-opacity:1" d="M 136.702,941.614 119.298,961.193 z" id="boundary" inkscape:connector-curvature="0" />
	<path style="fill:none;stroke:red;stroke-width:1px;stroke-linecap:butt;stroke-linejoin:miter;stroke-opacity:1" d="M 119.298,961.193 97.5439,952.491 z" id="boundary" inkscape:connector-curvature="0" />
	<path style="fill:none;stroke:red;stroke-width:1px;stroke-linecap:butt;stroke-linejoin:miter;stroke-opacity:1" d="M 167.158,608.772 167.158,630.526 z" id="boundary" inkscape:connector-curvature="0" />
	<path style="fill:none;stroke:red;stroke-width:1px;stroke-linecap:butt;stroke-linejoin:miter;stroke-opacity:1" d="M 178.035,554.386 188.912,532.632 z" id="boundary" inkscape:connector-curvature="0" />
	<path style="fill:none;stroke:red;stroke-width:1px;stroke-linecap:butt;stroke-linejoin:miter;stroke-opacity:1" d="M 206.316,515.228 188.912,532.632 z" id="boundary" inkscape:connector-curvature="0" />
	<path style="fill:none;stroke:red;stroke-width:1px;stroke-linecap:butt;stroke-linejoin:miter;stroke-opacity:1" d="M 167.158,608.772 178.035,576.14 z" id="boundary" inkscape:connector-curvature="0" />
	<path style="fill:none;stroke:red;stroke-width:1px;stroke-linecap:butt;stroke-linejoin:miter;stroke-opacity:1" d="M 178.035,554.386 178.035,576.14 z" id="boundary" inkscape:connector-curvature="0" />
	<path style="fill:none;stroke:red;stroke-width:1px;stroke-linecap:butt;stroke-linejoin:miter;stroke-opacity:1" d="M 256.351,560.912 275.93,550.035 z" id="boundary" inkscape:connector-curvature="0" />
	<path style="fill:none;stroke:red;stroke-width:1px;stroke-linecap:butt;stroke-linejoin:miter;stroke-opacity:1" d="M 256.351,560.912 234.596,571.789 z" id="boundary" inkscape:connector-curvature="0" />
	<path style="fill:none;stroke:red;stroke-width:1px;stroke-linecap:butt;stroke-linejoin:miter;stroke-opacity:1" d="M 234.596,593.544 223.719,615.298 z" id="boundary" inkscape:connector-curvature="0" />
	<path style="fill:none;stroke:red;stroke-width:1px;stroke-linecap:butt;stroke-linejoin:miter;stroke-opacity:1" d="M 234.596,571.789 234.596,593.544 z" id="boundary" inkscape:connector-curvature="0" />
	<path style="fill:none;stroke:red;stroke-width:1px;stroke-linecap:butt;stroke-linejoin:miter;stroke-opacity:1" d="M 223.719,637.053 223.719,615.298 z" id="boundary" inkscape:connector-curvature="0" />
	<path style="fill:none;stroke:red;stroke-width:1px;stroke-linecap:butt;stroke-linejoin:miter;stroke-opacity:1" d="M 295.509,539.158 275.93,550.035 z" id="boundary" inkscape:connector-curvature="0" />
	<path style="fill:none;stroke:red;stroke-width:1px;stroke-linecap:butt;stroke-linejoin:miter;stroke-opacity:1" d="M 167.158,652.281 167.158,674.035 z" id="boundary" inkscape:connector-curvature="0" />
	<path style="fill:none;stroke:red;stroke-width:1px;stroke-linecap:butt;stroke-linejoin:miter;stroke-opacity:1" d="M 167.158,674.035 156.281,695.789 z" id="boundary" inkscape:connector-curvature="0" />
	<path style="fill:none;stroke:red;stroke-width:1px;stroke-linecap:butt;stroke-linejoin:miter;stroke-opacity:1" d="M 180.211,734.947 169.333,767.579 z" id="boundary" inkscape:connector-curvature="0" />
	<path style="fill:none;stroke:red;stroke-width:1px;stroke-linecap:butt;stroke-linejoin:miter;stroke-opacity:1" d="M 169.333,767.579 169.333,789.333 z" id="boundary" inkscape:connector-curvature="0" />
	<path style="fill:none;stroke:red;stroke-width:1px;stroke-linecap:butt;stroke-linejoin:miter;stroke-opacity:1" d="M 169.333,811.088 169.333,789.333 z" id="boundary" inkscape:connector-curvature="0" />
	<path style="fill:none;stroke:red;stroke-width:1px;stroke-linecap:butt;stroke-linejoin:miter;stroke-opacity:1" d="M 169.333,811.088 169.333,832.842 z" id="boundary" inkscape:connector-curvature="0" />
	<path style="fill:none;stroke:red;stroke-width:1px;stroke-linecap:butt;stroke-linejoin:miter;stroke-opacity:1" d="M 201.965,691.439 212.842,658.807 z" id="boundary" inkscape:connector-curvature="0" />
	<path style="fill:none;stroke:red;stroke-width:1px;stroke-linecap:butt;stroke-linejoin:miter;stroke-opacity:1" d="M 201.965,691.439 191.088,713.193 z" id="boundary" inkscape:connector-curvature="0" />
	<path style="fill:none;stroke:red;stroke-width:1px;stroke-linecap:butt;stroke-linejoin:miter;stroke-opacity:1" d="M 167.158,652.281 167.158,630.526 z" id="boundary" inkscape:connector-curvature="0" />
	<path style="fill:none;stroke:red;stroke-width:1px;stroke-linecap:butt;stroke-linejoin:miter;stroke-opacity:1" d="M 212.842,658.807 223.719,637.053 z" id="boundary" inkscape:connector-curvature="0" />
	<path style="fill:none;stroke:red;stroke-width:1px;stroke-linecap:butt;stroke-linejoin:miter;stroke-opacity:1" d="M 180.211,734.947 191.088,713.193 z" id="boundary" inkscape:connector-curvature="0" />
	<path style="fill:none;stroke:red;stroke-width:1px;stroke-linecap:butt;stroke-linejoin:miter;stroke-opacity:1" d="M 306.386,354.246 321.614,371.649 z" id="boundary" inkscape:connector-curvature="0" />
	<path style="fill:none;stroke:red;stroke-width:1px;stroke-linecap:butt;stroke-linejoin:miter;stroke-opacity:1" d="M 332.491,178.035 319.439,160.632 z" id="boundary" inkscape:connector-curvature="0" />
	<path style="fill:none;stroke:red;stroke-width:1px;stroke-linecap:butt;stroke-linejoin:miter;stroke-opacity:1" d="M 354.246,184.561 332.491,178.035 z" id="boundary" inkscape:connector-curvature="0" />
	<path style="fill:none;stroke:red;stroke-width:1px;stroke-linecap:butt;stroke-linejoin:miter;stroke-opacity:1" d="M 380.351,221.544 395.579,238.947 z" id="boundary" inkscape:connector-curvature="0" />
	<path style="fill:none;stroke:red;stroke-width:1px;stroke-linecap:butt;stroke-linejoin:miter;stroke-opacity:1" d="M 354.246,184.561 369.474,201.965 z" id="boundary" inkscape:connector-curvature="0" />
	<path style="fill:none;stroke:red;stroke-width:1px;stroke-linecap:butt;stroke-linejoin:miter;stroke-opacity:1" d="M 369.474,201.965 380.351,221.544 z" id="boundary" inkscape:connector-curvature="0" />
	<path style="fill:none;stroke:red;stroke-width:1px;stroke-linecap:butt;stroke-linejoin:miter;stroke-opacity:1" d="M 417.333,247.649 395.579,238.947 z" id="boundary" inkscape:connector-curvature="0" />
	<path style="fill:none;stroke:red;stroke-width:1px;stroke-linecap:butt;stroke-linejoin:miter;stroke-opacity:1" d="M 441.263,286.807 426.035,269.404 z" id="boundary" inkscape:connector-curvature="0" />
	<path style="fill:none;stroke:red;stroke-width:1px;stroke-linecap:butt;stroke-linejoin:miter;stroke-opacity:1" d="M 426.035,269.404 417.333,247.649 z" id="boundary" inkscape:connector-curvature="0" />
	<path style="fill:none;stroke:red;stroke-width:1px;stroke-linecap:butt;stroke-linejoin:miter;stroke-opacity:1" d="M 458.667,299.86 441.263,286.807 z" id="boundary" inkscape:connector-curvature="0" />
	<path style="fill:none;stroke:red;stroke-width:1px;stroke-linecap:butt;stroke-linejoin:miter;stroke-opacity:1" d="M 339.018,386.877 321.614,371.649 z" id="boundary" inkscape:connector-curvature="0" />
	<path style="fill:none;stroke:red;stroke-width:1px;stroke-linecap:butt;stroke-linejoin:miter;stroke-opacity:1" d="M 315.088,428.211 325.965,406.456 z" id="boundary" inkscape:connector-curvature="0" />
	<path style="fill:none;stroke:red;stroke-width:1px;stroke-linecap:butt;stroke-linejoin:miter;stroke-opacity:1" d="M 339.018,386.877 325.965,406.456 z" id="boundary" inkscape:connector-curvature="0" />
	<path style="fill:none;stroke:red;stroke-width:1px;stroke-linecap:butt;stroke-linejoin:miter;stroke-opacity:1" d="M 339.018,523.93 317.263,534.807 z" id="boundary" inkscape:connector-curvature="0" />
	<path style="fill:none;stroke:red;stroke-width:1px;stroke-linecap:butt;stroke-linejoin:miter;stroke-opacity:1" d="M 354.246,506.526 339.018,523.93 z" id="boundary" inkscape:connector-curvature="0" />
	<path style="fill:none;stroke:red;stroke-width:1px;stroke-linecap:butt;stroke-linejoin:miter;stroke-opacity:1" d="M 293.333,439.088 315.088,428.211 z" id="boundary" inkscape:connector-curvature="0" />
	<path style="fill:none;stroke:red;stroke-width:1px;stroke-linecap:butt;stroke-linejoin:miter;stroke-opacity:1" d="M 373.825,517.404 386.877,534.807 z" id="boundary" inkscape:connector-curvature="0" />
	<path style="fill:none;stroke:red;stroke-width:1px;stroke-linecap:butt;stroke-linejoin:miter;stroke-opacity:1" d="M 373.825,517.404 354.246,506.526 z" id="boundary" inkscape:connector-curvature="0" />
	<path style="fill:none;stroke:red;stroke-width:1px;stroke-linecap:butt;stroke-linejoin:miter;stroke-opacity:1" d="M 386.877,534.807 397.754,554.386 z" id="boundary" inkscape:connector-curvature="0" />
	<path style="fill:none;stroke:red;stroke-width:1px;stroke-linecap:butt;stroke-linejoin:miter;stroke-opacity:1" d="M 423.86,591.368 406.456,576.14 z" id="boundary" inkscape:connector-curvature="0" />
	<path style="fill:none;stroke:red;stroke-width:1px;stroke-linecap:butt;stroke-linejoin:miter;stroke-opacity:1" d="M 406.456,576.14 397.754,554.386 z" id="boundary" inkscape:connector-curvature="0" />
	<path style="fill:none;stroke:red;stroke-width:1px;stroke-linecap:butt;stroke-linejoin:miter;stroke-opacity:1" d="M 423.86,591.368 439.088,608.772 z" id="boundary" inkscape:connector-curvature="0" />
	<path style="fill:none;stroke:red;stroke-width:1px;stroke-linecap:butt;stroke-linejoin:miter;stroke-opacity:1" d="M 458.667,299.86 463.018,321.614 z" id="boundary" inkscape:connector-curvature="0" />
	<path style="fill:none;stroke:red;stroke-width:1px;stroke-linecap:butt;stroke-linejoin:miter;stroke-opacity:1" d="M 473.895,341.193 463.018,321.614 z" id="boundary" inkscape:connector-curvature="0" />
	<path style="fill:none;stroke:red;stroke-width:1px;stroke-linecap:butt;stroke-linejoin:miter;stroke-opacity:1" d="M 484.772,360.772 495.649,380.351 z" id="boundary" inkscape:connector-curvature="0" />
	<path style="fill:none;stroke:red;stroke-width:1px;stroke-linecap:butt;stroke-linejoin:miter;stroke-opacity:1" d="M 484.772,360.772 473.895,341.193 z" id="boundary" inkscape:connector-curvature="0" />
	<path style="fill:none;stroke:red;stroke-width:1px;stroke-linecap:butt;stroke-linejoin:miter;stroke-opacity:1" d="M 495.649,380.351 506.526,399.93 z" id="boundary" inkscape:connector-curvature="0" />
	<path style="fill:none;stroke:red;stroke-width:1px;stroke-linecap:butt;stroke-linejoin:miter;stroke-opacity:1" d="M 513.053,421.684 517.404,443.439 z" id="boundary" inkscape:connector-curvature="0" />
	<path style="fill:none;stroke:red;stroke-width:1px;stroke-linecap:butt;stroke-linejoin:miter;stroke-opacity:1" d="M 513.053,421.684 506.526,399.93 z" id="boundary" inkscape:connector-curvature="0" />
	<path style="fill:none;stroke:red;stroke-width:1px;stroke-linecap:butt;stroke-linejoin:miter;stroke-opacity:1" d="M 517.404,443.439 517.404,465.193 z" id="boundary" inkscape:connector-curvature="0" />
	<path style="fill:none;stroke:red;stroke-width:1px;stroke-linecap:butt;stroke-linejoin:miter;stroke-opacity:1" d="M 517.404,465.193 528.281,484.772 z" id="boundary" inkscape:connector-curvature="0" />
	<path style="fill:none;stroke:red;stroke-width:1px;stroke-linecap:butt;stroke-linejoin:miter;stroke-opacity:1" d="M 528.281,484.772 532.632,506.526 z" id="boundary" inkscape:connector-curvature="0" />
	<path style="fill:none;stroke:red;stroke-width:1px;stroke-linecap:butt;stroke-linejoin:miter;stroke-opacity:1" d="M 532.632,506.526 539.158,528.281 z" id="boundary" inkscape:connector-curvature="0" />
	<path style="fill:none;stroke:red;stroke-width:1px;stroke-linecap:butt;stroke-linejoin:miter;stroke-opacity:1" d="M 539.158,528.281 550.035,547.86 z" id="boundary" inkscape:connector-curvature="0" />
	<path style="fill:none;stroke:red;stroke-width:1px;stroke-linecap:butt;stroke-linejoin:miter;stroke-opacity:1" d="M 550.035,547.86 550.035,569.614 z" id="boundary" inkscape:connector-curvature="0" />
	<path style="fill:none;stroke:red;stroke-width:1px;stroke-linecap:butt;stroke-linejoin:miter;stroke-opacity:1" d="M 567.439,582.667 550.035,569.614 z" id="boundary" inkscape:connector-curvature="0" />
	<path style="fill:none;stroke:red;stroke-width:1px;stroke-linecap:butt;stroke-linejoin:miter;stroke-opacity:1" d="M 911.158,569.614 891.579,580.491 z" id="boundary" inkscape:connector-curvature="0" />
	<path style="fill:none;stroke:red;stroke-width:1px;stroke-linecap:butt;stroke-linejoin:miter;stroke-opacity:1" d="M 891.579,580.491 869.825,580.491 z" id="boundary" inkscape:connector-curvature="0" />
	<path style="fill:none;stroke:red;stroke-width:1px;stroke-linecap:butt;stroke-linejoin:miter;stroke-opacity:1" d="M 869.825,580.491 850.246,591.368 z" id="boundary" inkscape:connector-curvature="0" />
	<path style="fill:none;stroke:red;stroke-width:1px;stroke-linecap:butt;stroke-linejoin:miter;stroke-opacity:1" d="M 911.158,569.614 930.737,580.491 z" id="boundary" inkscape:connector-curvature="0" />
	<path style="fill:none;stroke:red;stroke-width:1px;stroke-linecap:butt;stroke-linejoin:miter;stroke-opacity:1" d="M 930.737,580.491 952.491,587.018 z" id="boundary" inkscape:connector-curvature="0" />
	<path style="fill:none;stroke:red;stroke-width:1px;stroke-linecap:butt;stroke-linejoin:miter;stroke-opacity:1" d="M 567.439,582.667 578.316,602.246 z" id="boundary" inkscape:connector-curvature="0" />
	<path style="fill:none;stroke:red;stroke-width:1px;stroke-linecap:butt;stroke-linejoin:miter;stroke-opacity:1" d="M 972.07,597.895 952.491,587.018 z" id="boundary" inkscape:connector-curvature="0" />
	<path style="fill:none;stroke:red;stroke-width:1px;stroke-linecap:butt;stroke-linejoin:miter;stroke-opacity:1" d="M 972.07,597.895 982.947,617.474 z" id="boundary" inkscape:connector-curvature="0" />
	<path style="fill:none;stroke:red;stroke-width:1px;stroke-linecap:butt;stroke-linejoin:miter;stroke-opacity:1" d="M 456.491,624 439.088,608.772 z" id="boundary" inkscape:connector-curvature="0" />
	<path style="fill:none;stroke:red;stroke-width:1px;stroke-linecap:butt;stroke-linejoin:miter;stroke-opacity:1" d="M 482.596,658.807 465.193,645.754 z" id="boundary" inkscape:connector-curvature="0" />
	<path style="fill:none;stroke:red;stroke-width:1px;stroke-linecap:butt;stroke-linejoin:miter;stroke-opacity:1" d="M 465.193,645.754 456.491,624 z" id="boundary" inkscape:connector-curvature="0" />
	<path style="fill:none;stroke:red;stroke-width:1px;stroke-linecap:butt;stroke-linejoin:miter;stroke-opacity:1" d="M 578.316,602.246 593.544,619.649 z" id="boundary" inkscape:connector-curvature="0" />
	<path style="fill:none;stroke:red;stroke-width:1px;stroke-linecap:butt;stroke-linejoin:miter;stroke-opacity:1" d="M 615.298,624 593.544,619.649 z" id="boundary" inkscape:connector-curvature="0" />
	<path style="fill:none;stroke:red;stroke-width:1px;stroke-linecap:butt;stroke-linejoin:miter;stroke-opacity:1" d="M 637.053,624 615.298,624 z" id="boundary" inkscape:connector-curvature="0" />
	<path style="fill:none;stroke:red;stroke-width:1px;stroke-linecap:butt;stroke-linejoin:miter;stroke-opacity:1" d="M 637.053,624 658.807,624 z" id="boundary" inkscape:connector-curvature="0" />
	<path style="fill:none;stroke:red;stroke-width:1px;stroke-linecap:butt;stroke-linejoin:miter;stroke-opacity:1" d="M 680.561,624 658.807,624 z" id="boundary" inkscape:connector-curvature="0" />
	<path style="fill:none;stroke:red;stroke-width:1px;stroke-linecap:butt;stroke-linejoin:miter;stroke-opacity:1" d="M 702.316,624 680.561,624 z" id="boundary" inkscape:connector-curvature="0" />
	<path style="fill:none;stroke:red;stroke-width:1px;stroke-linecap:butt;stroke-linejoin:miter;stroke-opacity:1" d="M 502.175,669.684 482.596,658.807 z" id="boundary" inkscape:connector-curvature="0" />
	<path style="fill:none;stroke:red;stroke-width:1px;stroke-linecap:butt;stroke-linejoin:miter;stroke-opacity:1" d="M 539.158,695.789 521.754,680.561 z" id="boundary" inkscape:connector-curvature="0" />
	<path style="fill:none;stroke:red;stroke-width:1px;stroke-linecap:butt;stroke-linejoin:miter;stroke-opacity:1" d="M 560.912,702.316 539.158,695.789 z" id="boundary" inkscape:connector-curvature="0" />
	<path style="fill:none;stroke:red;stroke-width:1px;stroke-linecap:butt;stroke-linejoin:miter;stroke-opacity:1" d="M 502.175,669.684 521.754,680.561 z" id="boundary" inkscape:connector-curvature="0" />
	<path style="fill:none;stroke:red;stroke-width:1px;stroke-linecap:butt;stroke-linejoin:miter;stroke-opacity:1" d="M 604.421,713.193 582.667,706.667 z" id="boundary" inkscape:connector-curvature="0" />
	<path style="fill:none;stroke:red;stroke-width:1px;stroke-linecap:butt;stroke-linejoin:miter;stroke-opacity:1" d="M 582.667,706.667 560.912,702.316 z" id="boundary" inkscape:connector-curvature="0" />
	<path style="fill:none;stroke:red;stroke-width:1px;stroke-linecap:butt;stroke-linejoin:miter;stroke-opacity:1" d="M 604.421,713.193 626.175,713.193 z" id="boundary" inkscape:connector-curvature="0" />
	<path style="fill:none;stroke:red;stroke-width:1px;stroke-linecap:butt;stroke-linejoin:miter;stroke-opacity:1" d="M 647.93,713.193 669.684,713.193 z" id="boundary" inkscape:connector-curvature="0" />
	<path style="fill:none;stroke:red;stroke-width:1px;stroke-linecap:butt;stroke-linejoin:miter;stroke-opacity:1" d="M 647.93,713.193 626.175,713.193 z" id="boundary" inkscape:connector-curvature="0" />
	<path style="fill:none;stroke:red;stroke-width:1px;stroke-linecap:butt;stroke-linejoin:miter;stroke-opacity:1" d="M 669.684,713.193 691.439,713.193 z" id="boundary" inkscape:connector-curvature="0" />
	<path style="fill:none;stroke:red;stroke-width:1px;stroke-linecap:butt;stroke-linejoin:miter;stroke-opacity:1" d="M 713.193,713.193 691.439,713.193 z" id="boundary" inkscape:connector-curvature="0" />
	<path style="fill:none;stroke:red;stroke-width:1px;stroke-linecap:butt;stroke-linejoin:miter;stroke-opacity:1" d="M 767.579,624 787.158,613.123 z" id="boundary" inkscape:connector-curvature="0" />
	<path style="fill:none;stroke:red;stroke-width:1px;stroke-linecap:butt;stroke-linejoin:miter;stroke-opacity:1" d="M 808.912,608.772 787.158,613.123 z" id="boundary" inkscape:connector-curvature="0" />
	<path style="fill:none;stroke:red;stroke-width:1px;stroke-linecap:butt;stroke-linejoin:miter;stroke-opacity:1" d="M 724.07,624 745.825,624 z" id="boundary" inkscape:connector-curvature="0" />
	<path style="fill:none;stroke:red;stroke-width:1px;stroke-linecap:butt;stroke-linejoin:miter;stroke-opacity:1" d="M 767.579,624 745.825,624 z" id="boundary" inkscape:connector-curvature="0" />
	<path style="fill:none;stroke:red;stroke-width:1px;stroke-linecap:butt;stroke-linejoin:miter;stroke-opacity:1" d="M 724.07,624 702.316,624 z" id="boundary" inkscape:connector-curvature="0" />
	<path style="fill:none;stroke:red;stroke-width:1px;stroke-linecap:butt;stroke-linejoin:miter;stroke-opacity:1" d="M 908.982,680.561 887.228,680.561 z" id="boundary" inkscape:connector-curvature="0" />
	<path style="fill:none;stroke:red;stroke-width:1px;stroke-linecap:butt;stroke-linejoin:miter;stroke-opacity:1" d="M 930.737,680.561 908.982,680.561 z" id="boundary" inkscape:connector-curvature="0" />
	<path style="fill:none;stroke:red;stroke-width:1px;stroke-linecap:butt;stroke-linejoin:miter;stroke-opacity:1" d="M 830.667,602.246 850.246,591.368 z" id="boundary" inkscape:connector-curvature="0" />
	<path style="fill:none;stroke:red;stroke-width:1px;stroke-linecap:butt;stroke-linejoin:miter;stroke-opacity:1" d="M 982.947,617.474 991.649,639.228 z" id="boundary" inkscape:connector-curvature="0" />
	<path style="fill:none;stroke:red;stroke-width:1px;stroke-linecap:butt;stroke-linejoin:miter;stroke-opacity:1" d="M 991.649,639.228 996,660.982 z" id="boundary" inkscape:connector-curvature="0" />
	<path style="fill:none;stroke:red;stroke-width:1px;stroke-linecap:butt;stroke-linejoin:miter;stroke-opacity:1" d="M 996,660.982 974.246,680.561 z" id="boundary" inkscape:connector-curvature="0" />
	<path style="fill:none;stroke:red;stroke-width:1px;stroke-linecap:butt;stroke-linejoin:miter;stroke-opacity:1" d="M 865.474,691.439 887.228,680.561 z" id="boundary" inkscape:connector-curvature="0" />
	<path style="fill:none;stroke:red;stroke-width:1px;stroke-linecap:butt;stroke-linejoin:miter;stroke-opacity:1" d="M 808.912,608.772 830.667,602.246 z" id="boundary" inkscape:connector-curvature="0" />
	<path style="fill:none;stroke:red;stroke-width:1px;stroke-linecap:butt;stroke-linejoin:miter;stroke-opacity:1" d="M 778.456,702.316 800.211,702.316 z" id="boundary" inkscape:connector-curvature="0" />
	<path style="fill:none;stroke:red;stroke-width:1px;stroke-linecap:butt;stroke-linejoin:miter;stroke-opacity:1" d="M 756.702,713.193 778.456,702.316 z" id="boundary" inkscape:connector-curvature="0" />
	<path style="fill:none;stroke:red;stroke-width:1px;stroke-linecap:butt;stroke-linejoin:miter;stroke-opacity:1" d="M 713.193,713.193 734.947,713.193 z" id="boundary" inkscape:connector-curvature="0" />
	<path style="fill:none;stroke:red;stroke-width:1px;stroke-linecap:butt;stroke-linejoin:miter;stroke-opacity:1" d="M 756.702,713.193 734.947,713.193 z" id="boundary" inkscape:connector-curvature="0" />
	<path style="fill:none;stroke:red;stroke-width:1px;stroke-linecap:butt;stroke-linejoin:miter;stroke-opacity:1" d="M 930.737,680.561 952.491,680.561 z" id="boundary" inkscape:connector-curvature="0" />
	<path style="fill:none;stroke:red;stroke-width:1px;stroke-linecap:butt;stroke-linejoin:miter;stroke-opacity:1" d="M 974.246,680.561 952.491,680.561 z" id="boundary" inkscape:connector-curvature="0" />
	<path style="fill:none;stroke:red;stroke-width:1px;stroke-linecap:butt;stroke-linejoin:miter;stroke-opacity:1" d="M 821.965,691.439 843.719,691.439 z" id="boundary" inkscape:connector-curvature="0" />
	<path style="fill:none;stroke:red;stroke-width:1px;stroke-linecap:butt;stroke-linejoin:miter;stroke-opacity:1" d="M 800.211,702.316 821.965,691.439 z" id="boundary" inkscape:connector-curvature="0" />
	<path style="fill:none;stroke:red;stroke-width:1px;stroke-linecap:butt;stroke-linejoin:miter;stroke-opacity:1" d="M 865.474,691.439 843.719,691.439 z" id="boundary" inkscape:connector-curvature="0" />
	<circle cx="4" cy="54.0351" r="4" fill="#0" id="circle0"/>
	<circle cx="4" cy="86.6667" r="4" fill="#0" id="circle1"/>
	<circle cx="14.8772" cy="21.4035" r="4" fill="#0" id="circle2"/>
	<circle cx="21.4035" cy="101.895" r="4" fill="#0" id="circle3"/>
	<circle cx="30.1053" cy="123.649" r="4" fill="#0" id="circle4"/>
	<circle cx="32.2807" cy="4" r="4" fill="#0" id="circle5"/>
	<circle cx="36.6316" cy="891.579" r="4" fill="#0" id="circle6"/>
	<circle cx="47.5088" cy="911.158" r="4" fill="#0" id="circle7"/>
	<circle cx="51.8596" cy="121.474" r="4" fill="#0" id="circle8"/>
	<circle cx="54.0351" cy="4" r="4" fill="#0" id="circle9"/>
	<circle cx="54.0351" cy="874.175" r="4" fill="#0" id="circle10"/>
	<circle cx="58.386" cy="930.737" r="4" fill="#0" id="circle11"/>
	<circle cx="71.4386" cy="856.772" r="4" fill="#0" id="circle12"/>
	<circle cx="73.614" cy="125.825" r="4" fill="#0" id="circle13"/>
	<circle cx="75.7895" cy="4" r="4" fill="#0" id="circle14"/>
	<circle cx="77.9649" cy="941.614" r="4" fill="#0" id="circle15"/>
	<circle cx="84.4912" cy="145.404" r="4" fill="#0" id="circle16"/>
	<circle cx="93.193" cy="852.421" r="4" fill="#0" id="circle17"/>
	<circle cx="97.5439" cy="4" r="4" fill="#0" id="circle18"/>
	<circle cx="97.5439" cy="952.491" r="4" fill="#0" id="circle19"/>
	<circle cx="101.895" cy="158.456" r="4" fill="#0" id="circle20"/>
	<circle cx="112.772" cy="178.035" r="4" fill="#0" id="circle21"/>
	<circle cx="112.772" cy="815.439" r="4" fill="#0" id="circle22"/>
	<circle cx="112.772" cy="837.193" r="4" fill="#0" id="circle23"/>
	<circle cx="117.123" cy="14.8772" r="4" fill="#0" id="circle24"/>
	<circle cx="117.123" cy="199.789" r="4" fill="#0" id="circle25"/>
	<circle cx="119.298" cy="961.193" r="4" fill="#0" id="circle26"/>
	<circle cx="123.649" cy="793.684" r="4" fill="#0" id="circle27"/>
	<circle cx="125.825" cy="36.6316" r="4" fill="#0" id="circle28"/>
	<circle cx="128" cy="219.368" r="4" fill="#0" id="circle29"/>
	<circle cx="134.526" cy="761.053" r="4" fill="#0" id="circle30"/>
	<circle cx="136.702" cy="919.86" r="4" fill="#0" id="circle31"/>
	<circle cx="136.702" cy="941.614" r="4" fill="#0" id="circle32"/>
	<circle cx="145.404" cy="47.5088" r="4" fill="#0" id="circle33"/>
	<circle cx="145.404" cy="234.596" r="4" fill="#0" id="circle34"/>
	<circle cx="145.404" cy="728.421" r="4" fill="#0" id="circle35"/>
	<circle cx="147.579" cy="898.105" r="4" fill="#0" id="circle36"/>
	<circle cx="156.281" cy="695.789" r="4" fill="#0" id="circle37"/>
	<circle cx="158.456" cy="252" r="4" fill="#0" id="circle38"/>
	<circle cx="158.456" cy="854.596" r="4" fill="#0" id="circle39"/>
	<circle cx="158.456" cy="876.351" r="4" fill="#0" id="circle40"/>
	<circle cx="162.807" cy="60.5614" r="4" fill="#0" id="circle41"/>
	<circle cx="167.158" cy="608.772" r="4" fill="#0" id="circle42"/>
	<circle cx="167.158" cy="630.526" r="4" fill="#0" id="circle43"/>
	<circle cx="167.158" cy="652.281" r="4" fill="#0" id="circle44"/>
	<circle cx="167.158" cy="674.035" r="4" fill="#0" id="circle45"/>
	<circle cx="169.333" cy="767.579" r="4" fill="#0" id="circle46"/>
	<circle cx="169.333" cy="789.333" r="4" fill="#0" id="circle47"/>
	<circle cx="169.333" cy="811.088" r="4" fill="#0" id="circle48"/>
	<circle cx="169.333" cy="832.842" r="4" fill="#0" id="circle49"/>
	<circle cx="175.86" cy="267.228" r="4" fill="#0" id="circle50"/>
	<circle cx="178.035" cy="554.386" r="4" fill="#0" id="circle51"/>
	<circle cx="178.035" cy="576.14" r="4" fill="#0" id="circle52"/>
	<circle cx="180.211" cy="75.7895" r="4" fill="#0" id="circle53"/>
	<circle cx="180.211" cy="97.5439" r="4" fill="#0" id="circle54"/>
	<circle cx="180.211" cy="734.947" r="4" fill="#0" id="circle55"/>
	<circle cx="188.912" cy="532.632" r="4" fill="#0" id="circle56"/>
	<circle cx="191.088" cy="713.193" r="4" fill="#0" id="circle57"/>
	<circle cx="195.439" cy="278.105" r="4" fill="#0" id="circle58"/>
	<circle cx="199.789" cy="108.421" r="4" fill="#0" id="circle59"/>
	<circle cx="201.965" cy="691.439" r="4" fill="#0" id="circle60"/>
	<circle cx="206.316" cy="515.228" r="4" fill="#0" id="circle61"/>
	<circle cx="212.842" cy="293.333" r="4" fill="#0" id="circle62"/>
	<circle cx="212.842" cy="658.807" r="4" fill="#0" id="circle63"/>
	<circle cx="217.193" cy="493.474" r="4" fill="#0" id="circle64"/>
	<circle cx="221.544" cy="106.246" r="4" fill="#0" id="circle65"/>
	<circle cx="223.719" cy="615.298" r="4" fill="#0" id="circle66"/>
	<circle cx="223.719" cy="637.053" r="4" fill="#0" id="circle67"/>
	<circle cx="228.07" cy="310.737" r="4" fill="#0" id="circle68"/>
	<circle cx="234.596" cy="571.789" r="4" fill="#0" id="circle69"/>
	<circle cx="234.596" cy="593.544" r="4" fill="#0" id="circle70"/>
	<circle cx="238.947" cy="482.596" r="4" fill="#0" id="circle71"/>
	<circle cx="243.298" cy="112.772" r="4" fill="#0" id="circle72"/>
	<circle cx="247.649" cy="321.614" r="4" fill="#0" id="circle73"/>
	<circle cx="256.351" cy="560.912" r="4" fill="#0" id="circle74"/>
	<circle cx="258.526" cy="471.719" r="4" fill="#0" id="circle75"/>
	<circle cx="262.877" cy="123.649" r="4" fill="#0" id="circle76"/>
	<circle cx="267.228" cy="332.491" r="4" fill="#0" id="circle77"/>
	<circle cx="275.93" cy="456.491" r="4" fill="#0" id="circle78"/>
	<circle cx="275.93" cy="550.035" r="4" fill="#0" id="circle79"/>
	<circle cx="282.456" cy="134.526" r="4" fill="#0" id="circle80"/>
	<circle cx="286.807" cy="343.368" r="4" fill="#0" id="circle81"/>
	<circle cx="293.333" cy="439.088" r="4" fill="#0" id="circle82"/>
	<circle cx="295.509" cy="539.158" r="4" fill="#0" id="circle83"/>
	<circle cx="302.035" cy="145.404" r="4" fill="#0" id="circle84"/>
	<circle cx="306.386" cy="354.246" r="4" fill="#0" id="circle85"/>
	<circle cx="315.088" cy="428.211" r="4" fill="#0" id="circle86"/>
	<circle cx="317.263" cy="534.807" r="4" fill="#0" id="circle87"/>
	<circle cx="319.439" cy="160.632" r="4" fill="#0" id="circle88"/>
	<circle cx="321.614" cy="371.649" r="4" fill="#0" id="circle89"/>
	<circle cx="325.965" cy="406.456" r="4" fill="#0" id="circle90"/>
	<circle cx="332.491" cy="178.035" r="4" fill="#0" id="circle91"/>
	<circle cx="339.018" cy="386.877" r="4" fill="#0" id="circle92"/>
	<circle cx="339.018" cy="523.93" r="4" fill="#0" id="circle93"/>
	<circle cx="354.246" cy="184.561" r="4" fill="#0" id="circle94"/>
	<circle cx="354.246" cy="506.526" r="4" fill="#0" id="circle95"/>
	<circle cx="369.474" cy="201.965" r="4" fill="#0" id="circle96"/>
	<circle cx="373.825" cy="517.404" r="4" fill="#0" id="circle97"/>
	<circle cx="380.351" cy="221.544" r="4" fill="#0" id="circle98"/>
	<circle cx="386.877" cy="534.807" r="4" fill="#0" id="circle99"/>
	<circle cx="395.579" cy="238.947" r="4" fill="#0" id="circle100"/>
	<circle cx="397.754" cy="554.386" r="4" fill="#0" id="circle101"/>
	<circle cx="406.456" cy="576.14" r="4" fill="#0" id="circle102"/>
	<circle cx="417.333" cy="247.649" r="4" fill="#0" id="circle103"/>
	<circle cx="423.86" cy="591.368" r="4" fill="#0" id="circle104"/>
	<circle cx="426.035" cy="269.404" r="4" fill="#0" id="circle105"/>
	<circle cx="439.088" cy="608.772" r="4" fill="#0" id="circle106"/>
	<circle cx="441.263" cy="286.807" r="4" fill="#0" id="circle107"/>
	<circle cx="456.491" cy="624" r="4" fill="#0" id="circle108"/>
	<circle cx="458.667" cy="299.86" r="4" fill="#0" id="circle109"/>
	<circle cx="463.018" cy="321.614" r="4" fill="#0" id="circle110"/>
	<circle cx="465.193" cy="645.754" r="4" fill="#0" id="circle111"/>
	<circle cx="473.895" cy="341.193" r="4" fill="#0" id="circle112"/>
	<circle cx="482.596" cy="658.807" r="4" fill="#0" id="circle113"/>
	<circle cx="484.772" cy="360.772" r="4" fill="#0" id="circle114"/>
	<circle cx="495.649" cy="380.351" r="4" fill="#0" id="circle115"/>
	<circle cx="502.175" cy="669.684" r="4" fill="#0" id="circle116"/>
	<circle cx="506.526" cy="399.93" r="4" fill="#0" id="circle117"/>
	<circle cx="513.053" cy="421.684" r="4" fill="#0" id="circle118"/>
	<circle cx="517.404" cy="443.439" r="4" fill="#0" id="circle119"/>
	<circle cx="517.404" cy="465.193" r="4" fill="#0" id="circle120"/>
	<circle cx="521.754" cy="680.561" r="4" fill="#0" id="circle121"/>
	<circle cx="528.281" cy="484.772" r="4" fill="#0" id="circle122"/>
	<circle cx="532.632" cy="506.526" r="4" fill="#0" id="circle123"/>
	<circle cx="539.158" cy="528.281" r="4" fill="#0" id="circle124"/>
	<circle cx="539.158" cy="695.789" r="4" fill="#0" id="circle125"/>
	<circle cx="550.035" cy="547.86" r="4" fill="#0" id="circle126"/>
	<circle cx="550.035" cy="569.614" r="4" fill="#0" id="circle127"/>
	<circle cx="560.912" cy="702.316" r="4" fill="#0" id="circle128"/>
	<circle cx="567.439" cy="582.667" r="4" fill="#0" id="circle129"/>
	<circle cx="578.316" cy="602.246" r="4" fill="#0" id="circle130"/>
	<circle cx="582.667" cy="706.667" r="4" fill="#0" id="circle131"/>
	<circle cx="593.544" cy="619.649" r="4" fill="#0" id="circle132"/>
	<circle cx="604.421" cy="713.193" r="4" fill="#0" id="circle133"/>
	<circle cx="615.298" cy="624" r="4" fill="#0" id="circle134"/>
	<circle cx="626.175" cy="713.193" r="4" fill="#0" id="circle135"/>
	<circle cx="637.053" cy="624" r="4" fill="#0" id="circle136"/>
	<circle cx="647.93" cy="713.193" r="4" fill="#0" id="circle137"/>
	<circle cx="658.807" cy="624" r="4" fill="#0" id="circle138"/>
	<circle cx="669.684" cy="713.193" r="4" fill="#0" id="circle139"/>
	<circle cx="680.561" cy="624" r="4" fill="#0" id="circle140"/>
	<circle cx="691.439" cy="713.193" r="4" fill="#0" id="circle141"/>
	<circle cx="702.316" cy="624" r="4" fill="#0" id="circle142"/>
	<circle cx="713.193" cy="713.193" r="4" fill="#0" id="circle143"/>
	<circle cx="724.07" cy="624" r="4" fill="#0" id="circle144"/>
	<circle cx="734.947" cy="713.193" r="4" fill="#0" id="circle145"/>
	<circle cx="745.825" cy="624" r="4" fill="#0" id="circle146"/>
	<circle cx="756.702" cy="713.193" r="4" fill="#0" id="circle147"/>
	<circle cx="767.579" cy="624" r="4" fill="#0" id="circle148"/>
	<circle cx="778.456" cy="702.316" r="4" fill="#0" id="circle149"/>
	<circle cx="787.158" cy="613.123" r="4" fill="#0" id="circle150"/>
	<circle cx="800.211" cy="702.316" r="4" fill="#0" id="circle151"/>
	<circle cx="808.912" cy="608.772" r="4" fill="#0" id="circle152"/>
	<circle cx="821.965" cy="691.439" r="4" fill="#0" id="circle153"/>
	<circle cx="830.667" cy="602.246" r="4" fill="#0" id="circle154"/>
	<circle cx="843.719" cy="691.439" r="4" fill="#0" id="circle155"/>
	<circle cx="850.246" cy="591.368" r="4" fill="#0" id="circle156"/>
	<circle cx="865.474" cy="691.439" r="4" fill="#0" id="circle157"/>
	<circle cx="869.825" cy="580.491" r="4" fill="#0" id="circle158"/>
	<circle cx="887.228" cy="680.561" r="4" fill="#0" id="circle159"/>
	<circle cx="891.579" cy="580.491" r="4" fill="#0" id="circle160"/>
	<circle cx="908.982" cy="680.561" r="4" fill="#0" id="circle161"/>
	<circle cx="911.158" cy="569.614" r="4" fill="#0" id="circle162"/>
	<circle cx="930.737" cy="580.491" r="4" fill="#0" id="circle163"/>
	<circle cx="930.737" cy="680.561" r="4" fill="#0" id="circle164"/>
	<circle cx="952.491" cy="587.018" r="4" fill="#0" id="circle165"/>
	<circle cx="952.491" cy="680.561" r="4" fill="#0" id="circle166"/>
	<circle cx="972.07" cy="597.895" r="4" fill="#0" id="circle167"/>
	<circle cx="974.246" cy="680.561" r="4" fill="#0" id="circle168"/>
	<circle cx="982.947" cy="617.474" r="4" fill="#0" id="circle169"/>
	<circle cx="991.649" cy="639.228" r="4" fill="#0" id="circle170"/>
	<circle cx="996" cy="660.982" r="4" fill="#0" id="circle171"/>
	</g>
</svg>