<?xml version="1.0" encoding="UTF-8" standalone="no"?>
<!-- Created with CurveBenchmark -->
<svg
	xmlns:dc="http://purl.org/dc/elements/1.1/"
	xmlns:cc="http://creativecommons.org/ns#"
	xmlns:rdf="http://www.w3.org/1999/02/22-rdf-syntax-ns#"
	xmlns:svg="http://www.w3.org/2000/svg"
	xmlns="http://www.w3.org/2000/svg"
	xmlns:sodipodi="http://sodipodi.sourceforge.net/DTD/sodipodi-0.dtd"
	xmlns:inkscape="http://www.inkscape.org/namespaces/inkscape"
	width="1000"
	height="1000"
	id="svg2"
	version="1.1"
	sodipodi:docname="manifold/gathan1-children07.png.txt">
<defs
	id="defs4" />
<metadata
	id="metadata7">
	<rdf:RDF>
		<cc:Work
			rdf:about="">
			<dc:format>image/svg+xml</dc:format>
			<dc:type
				rdf:resource="http://purl.org/dc/dcmitype/StillImage" />
			<dc:title></dc:title>
		</cc:Work>
	</rdf:RDF>
</metadata>
<g
	inkscape:label="Layer 1"
	inkscape:groupmode="layer"
	id="layer1">
	<path style="fill:none;stroke:red;stroke-width:1px;stroke-linecap:butt;stroke-linejoin:miter;stroke-opacity:1" d="M 20.6443,92.2148 20.6443,108.859 z" id="boundary" inkscape:connector-curvature="0" />
	<path style="fill:none;stroke:red;stroke-width:1px;stroke-linecap:butt;stroke-linejoin:miter;stroke-opacity:1" d="M 28.9664,123.839 20.6443,108.859 z" id="boundary" inkscape:connector-curvature="0" />
	<path style="fill:none;stroke:red;stroke-width:1px;stroke-linecap:butt;stroke-linejoin:miter;stroke-opacity:1" d="M 4,325.235 4,308.591 z" id="boundary" inkscape:connector-curvature="0" />
	<path style="fill:none;stroke:red;stroke-width:1px;stroke-linecap:butt;stroke-linejoin:miter;stroke-opacity:1" d="M 4,308.591 12.3221,291.946 z" id="boundary" inkscape:connector-curvature="0" />
	<path style="fill:none;stroke:red;stroke-width:1px;stroke-linecap:butt;stroke-linejoin:miter;stroke-opacity:1" d="M 20.6443,275.302 12.3221,291.946 z" id="boundary" inkscape:connector-curvature="0" />
	<path style="fill:none;stroke:red;stroke-width:1px;stroke-linecap:butt;stroke-linejoin:miter;stroke-opacity:1" d="M 20.6443,275.302 33.9597,261.987 z" id="boundary" inkscape:connector-curvature="0" />
	<path style="fill:none;stroke:red;stroke-width:1px;stroke-linecap:butt;stroke-linejoin:miter;stroke-opacity:1" d="M 37.2886,138.819 28.9664,123.839 z" id="boundary" inkscape:connector-curvature="0" />
	<path style="fill:none;stroke:red;stroke-width:1px;stroke-linecap:butt;stroke-linejoin:miter;stroke-opacity:1" d="M 20.6443,92.2148 28.9664,67.2483 z" id="boundary" inkscape:connector-curvature="0" />
	<path style="fill:none;stroke:red;stroke-width:1px;stroke-linecap:butt;stroke-linejoin:miter;stroke-opacity:1" d="M 4,341.879 4,325.235 z" id="boundary" inkscape:connector-curvature="0" />
	<path style="fill:none;stroke:red;stroke-width:1px;stroke-linecap:butt;stroke-linejoin:miter;stroke-opacity:1" d="M 4,375.168 4,358.523 z" id="boundary" inkscape:connector-curvature="0" />
	<path style="fill:none;stroke:red;stroke-width:1px;stroke-linecap:butt;stroke-linejoin:miter;stroke-opacity:1" d="M 12.3221,390.148 4,375.168 z" id="boundary" inkscape:connector-curvature="0" />
	<path style="fill:none;stroke:red;stroke-width:1px;stroke-linecap:butt;stroke-linejoin:miter;stroke-opacity:1" d="M 4,358.523 4,341.879 z" id="boundary" inkscape:connector-curvature="0" />
	<path style="fill:none;stroke:red;stroke-width:1px;stroke-linecap:butt;stroke-linejoin:miter;stroke-opacity:1" d="M 12.3221,406.792 12.3221,390.148 z" id="boundary" inkscape:connector-curvature="0" />
	<path style="fill:none;stroke:red;stroke-width:1px;stroke-linecap:butt;stroke-linejoin:miter;stroke-opacity:1" d="M 4,450.067 12.3221,423.436 z" id="boundary" inkscape:connector-curvature="0" />
	<path style="fill:none;stroke:red;stroke-width:1px;stroke-linecap:butt;stroke-linejoin:miter;stroke-opacity:1" d="M 12.3221,465.047 4,450.067 z" id="boundary" inkscape:connector-curvature="0" />
	<path style="fill:none;stroke:red;stroke-width:1px;stroke-linecap:butt;stroke-linejoin:miter;stroke-opacity:1" d="M 12.3221,406.792 12.3221,423.436 z" id="boundary" inkscape:connector-curvature="0" />
	<path style="fill:none;stroke:red;stroke-width:1px;stroke-linecap:butt;stroke-linejoin:miter;stroke-opacity:1" d="M 12.3221,465.047 12.3221,481.691 z" id="boundary" inkscape:connector-curvature="0" />
	<path style="fill:none;stroke:red;stroke-width:1px;stroke-linecap:butt;stroke-linejoin:miter;stroke-opacity:1" d="M 33.9597,261.987 50.604,253.664 z" id="boundary" inkscape:connector-curvature="0" />
	<path style="fill:none;stroke:red;stroke-width:1px;stroke-linecap:butt;stroke-linejoin:miter;stroke-opacity:1" d="M 63.9195,23.9732 77.2349,12.3221 z" id="boundary" inkscape:connector-curvature="0" />
	<path style="fill:none;stroke:red;stroke-width:1px;stroke-linecap:butt;stroke-linejoin:miter;stroke-opacity:1" d="M 50.604,37.2886 63.9195,23.9732 z" id="boundary" inkscape:connector-curvature="0" />
	<path style="fill:none;stroke:red;stroke-width:1px;stroke-linecap:butt;stroke-linejoin:miter;stroke-opacity:1" d="M 77.2349,12.3221 92.2148,4 z" id="boundary" inkscape:connector-curvature="0" />
	<path style="fill:none;stroke:red;stroke-width:1px;stroke-linecap:butt;stroke-linejoin:miter;stroke-opacity:1" d="M 92.2148,4 108.859,4 z" id="boundary" inkscape:connector-curvature="0" />
	<path style="fill:none;stroke:red;stroke-width:1px;stroke-linecap:butt;stroke-linejoin:miter;stroke-opacity:1" d="M 108.859,4 125.503,4 z" id="boundary" inkscape:connector-curvature="0" />
	<path style="fill:none;stroke:red;stroke-width:1px;stroke-linecap:butt;stroke-linejoin:miter;stroke-opacity:1" d="M 125.503,4 142.148,4 z" id="boundary" inkscape:connector-curvature="0" />
	<path style="fill:none;stroke:red;stroke-width:1px;stroke-linecap:butt;stroke-linejoin:miter;stroke-opacity:1" d="M 142.148,4 158.792,4 z" id="boundary" inkscape:connector-curvature="0" />
	<path style="fill:none;stroke:red;stroke-width:1px;stroke-linecap:butt;stroke-linejoin:miter;stroke-opacity:1" d="M 28.9664,67.2483 37.2886,50.604 z" id="boundary" inkscape:connector-curvature="0" />
	<path style="fill:none;stroke:red;stroke-width:1px;stroke-linecap:butt;stroke-linejoin:miter;stroke-opacity:1" d="M 37.2886,50.604 50.604,37.2886 z" id="boundary" inkscape:connector-curvature="0" />
	<path style="fill:none;stroke:red;stroke-width:1px;stroke-linecap:butt;stroke-linejoin:miter;stroke-opacity:1" d="M 62.255,183.758 50.604,170.443 z" id="boundary" inkscape:connector-curvature="0" />
	<path style="fill:none;stroke:red;stroke-width:1px;stroke-linecap:butt;stroke-linejoin:miter;stroke-opacity:1" d="M 50.604,170.443 42.2819,155.463 z" id="boundary" inkscape:connector-curvature="0" />
	<path style="fill:none;stroke:red;stroke-width:1px;stroke-linecap:butt;stroke-linejoin:miter;stroke-opacity:1" d="M 42.2819,155.463 37.2886,138.819 z" id="boundary" inkscape:connector-curvature="0" />
	<path style="fill:none;stroke:red;stroke-width:1px;stroke-linecap:butt;stroke-linejoin:miter;stroke-opacity:1" d="M 62.255,183.758 70.5772,198.738 z" id="boundary" inkscape:connector-curvature="0" />
	<path style="fill:none;stroke:red;stroke-width:1px;stroke-linecap:butt;stroke-linejoin:miter;stroke-opacity:1" d="M 70.5772,198.738 70.5772,215.383 z" id="boundary" inkscape:connector-curvature="0" />
	<path style="fill:none;stroke:red;stroke-width:1px;stroke-linecap:butt;stroke-linejoin:miter;stroke-opacity:1" d="M 62.255,233.691 50.604,253.664 z" id="boundary" inkscape:connector-curvature="0" />
	<path style="fill:none;stroke:red;stroke-width:1px;stroke-linecap:butt;stroke-linejoin:miter;stroke-opacity:1" d="M 70.5772,215.383 62.255,233.691 z" id="boundary" inkscape:connector-curvature="0" />
	<path style="fill:none;stroke:red;stroke-width:1px;stroke-linecap:butt;stroke-linejoin:miter;stroke-opacity:1" d="M 12.3221,481.691 12.3221,498.336 z" id="boundary" inkscape:connector-curvature="0" />
	<path style="fill:none;stroke:red;stroke-width:1px;stroke-linecap:butt;stroke-linejoin:miter;stroke-opacity:1" d="M 20.6443,513.315 12.3221,498.336 z" id="boundary" inkscape:connector-curvature="0" />
	<path style="fill:none;stroke:red;stroke-width:1px;stroke-linecap:butt;stroke-linejoin:miter;stroke-opacity:1" d="M 20.6443,513.315 25.6376,529.96 z" id="boundary" inkscape:connector-curvature="0" />
	<path style="fill:none;stroke:red;stroke-width:1px;stroke-linecap:butt;stroke-linejoin:miter;stroke-opacity:1" d="M 25.6376,529.96 28.9664,546.604 z" id="boundary" inkscape:connector-curvature="0" />
	<path style="fill:none;stroke:red;stroke-width:1px;stroke-linecap:butt;stroke-linejoin:miter;stroke-opacity:1" d="M 28.9664,546.604 37.2886,561.584 z" id="boundary" inkscape:connector-curvature="0" />
	<path style="fill:none;stroke:red;stroke-width:1px;stroke-linecap:butt;stroke-linejoin:miter;stroke-opacity:1" d="M 37.2886,561.584 37.2886,578.228 z" id="boundary" inkscape:connector-curvature="0" />
	<path style="fill:none;stroke:red;stroke-width:1px;stroke-linecap:butt;stroke-linejoin:miter;stroke-opacity:1" d="M 37.2886,578.228 37.2886,594.872 z" id="boundary" inkscape:connector-curvature="0" />
	<path style="fill:none;stroke:red;stroke-width:1px;stroke-linecap:butt;stroke-linejoin:miter;stroke-opacity:1" d="M 103.866,709.718 93.8792,696.403 z" id="boundary" inkscape:connector-curvature="0" />
	<path style="fill:none;stroke:red;stroke-width:1px;stroke-linecap:butt;stroke-linejoin:miter;stroke-opacity:1" d="M 37.2886,594.872 37.2886,611.517 z" id="boundary" inkscape:connector-curvature="0" />
	<path style="fill:none;stroke:red;stroke-width:1px;stroke-linecap:butt;stroke-linejoin:miter;stroke-opacity:1" d="M 37.2886,611.517 45.6107,626.497 z" id="boundary" inkscape:connector-curvature="0" />
	<path style="fill:none;stroke:red;stroke-width:1px;stroke-linecap:butt;stroke-linejoin:miter;stroke-opacity:1" d="M 53.9329,641.477 62.255,656.456 z" id="boundary" inkscape:connector-curvature="0" />
	<path style="fill:none;stroke:red;stroke-width:1px;stroke-linecap:butt;stroke-linejoin:miter;stroke-opacity:1" d="M 53.9329,641.477 45.6107,626.497 z" id="boundary" inkscape:connector-curvature="0" />
	<path style="fill:none;stroke:red;stroke-width:1px;stroke-linecap:butt;stroke-linejoin:miter;stroke-opacity:1" d="M 95.5436,782.953 87.2215,807.919 z" id="boundary" inkscape:connector-curvature="0" />
	<path style="fill:none;stroke:red;stroke-width:1px;stroke-linecap:butt;stroke-linejoin:miter;stroke-opacity:1" d="M 80.5638,684.752 70.5772,671.436 z" id="boundary" inkscape:connector-curvature="0" />
	<path style="fill:none;stroke:red;stroke-width:1px;stroke-linecap:butt;stroke-linejoin:miter;stroke-opacity:1" d="M 93.8792,696.403 80.5638,684.752 z" id="boundary" inkscape:connector-curvature="0" />
	<path style="fill:none;stroke:red;stroke-width:1px;stroke-linecap:butt;stroke-linejoin:miter;stroke-opacity:1" d="M 87.2215,824.564 87.2215,807.919 z" id="boundary" inkscape:connector-curvature="0" />
	<path style="fill:none;stroke:red;stroke-width:1px;stroke-linecap:butt;stroke-linejoin:miter;stroke-opacity:1" d="M 95.5436,839.544 87.2215,824.564 z" id="boundary" inkscape:connector-curvature="0" />
	<path style="fill:none;stroke:red;stroke-width:1px;stroke-linecap:butt;stroke-linejoin:miter;stroke-opacity:1" d="M 70.5772,671.436 62.255,656.456 z" id="boundary" inkscape:connector-curvature="0" />
	<path style="fill:none;stroke:red;stroke-width:1px;stroke-linecap:butt;stroke-linejoin:miter;stroke-opacity:1" d="M 103.866,709.718 103.866,726.362 z" id="boundary" inkscape:connector-curvature="0" />
	<path style="fill:none;stroke:red;stroke-width:1px;stroke-linecap:butt;stroke-linejoin:miter;stroke-opacity:1" d="M 95.5436,839.544 95.5436,856.188 z" id="boundary" inkscape:connector-curvature="0" />
	<path style="fill:none;stroke:red;stroke-width:1px;stroke-linecap:butt;stroke-linejoin:miter;stroke-opacity:1" d="M 103.866,871.168 95.5436,856.188 z" id="boundary" inkscape:connector-curvature="0" />
	<path style="fill:none;stroke:red;stroke-width:1px;stroke-linecap:butt;stroke-linejoin:miter;stroke-opacity:1" d="M 103.866,726.362 103.866,743.007 z" id="boundary" inkscape:connector-curvature="0" />
	<path style="fill:none;stroke:red;stroke-width:1px;stroke-linecap:butt;stroke-linejoin:miter;stroke-opacity:1" d="M 95.5436,782.953 103.866,759.651 z" id="boundary" inkscape:connector-curvature="0" />
	<path style="fill:none;stroke:red;stroke-width:1px;stroke-linecap:butt;stroke-linejoin:miter;stroke-opacity:1" d="M 108.859,887.812 103.866,871.168 z" id="boundary" inkscape:connector-curvature="0" />
	<path style="fill:none;stroke:red;stroke-width:1px;stroke-linecap:butt;stroke-linejoin:miter;stroke-opacity:1" d="M 112.188,904.456 108.859,887.812 z" id="boundary" inkscape:connector-curvature="0" />
	<path style="fill:none;stroke:red;stroke-width:1px;stroke-linecap:butt;stroke-linejoin:miter;stroke-opacity:1" d="M 103.866,759.651 103.866,743.007 z" id="boundary" inkscape:connector-curvature="0" />
	<path style="fill:none;stroke:red;stroke-width:1px;stroke-linecap:butt;stroke-linejoin:miter;stroke-opacity:1" d="M 103.866,924.43 112.188,904.456 z" id="boundary" inkscape:connector-curvature="0" />
	<path style="fill:none;stroke:red;stroke-width:1px;stroke-linecap:butt;stroke-linejoin:miter;stroke-opacity:1" d="M 112.188,956.054 103.866,941.074 z" id="boundary" inkscape:connector-curvature="0" />
	<path style="fill:none;stroke:red;stroke-width:1px;stroke-linecap:butt;stroke-linejoin:miter;stroke-opacity:1" d="M 103.866,941.074 103.866,924.43 z" id="boundary" inkscape:connector-curvature="0" />
	<path style="fill:none;stroke:red;stroke-width:1px;stroke-linecap:butt;stroke-linejoin:miter;stroke-opacity:1" d="M 130.497,984.349 120.51,971.034 z" id="boundary" inkscape:connector-curvature="0" />
	<path style="fill:none;stroke:red;stroke-width:1px;stroke-linecap:butt;stroke-linejoin:miter;stroke-opacity:1" d="M 147.141,987.678 130.497,984.349 z" id="boundary" inkscape:connector-curvature="0" />
	<path style="fill:none;stroke:red;stroke-width:1px;stroke-linecap:butt;stroke-linejoin:miter;stroke-opacity:1" d="M 147.141,987.678 163.785,987.678 z" id="boundary" inkscape:connector-curvature="0" />
	<path style="fill:none;stroke:red;stroke-width:1px;stroke-linecap:butt;stroke-linejoin:miter;stroke-opacity:1" d="M 163.785,987.678 178.765,996 z" id="boundary" inkscape:connector-curvature="0" />
	<path style="fill:none;stroke:red;stroke-width:1px;stroke-linecap:butt;stroke-linejoin:miter;stroke-opacity:1" d="M 195.409,996 178.765,996 z" id="boundary" inkscape:connector-curvature="0" />
	<path style="fill:none;stroke:red;stroke-width:1px;stroke-linecap:butt;stroke-linejoin:miter;stroke-opacity:1" d="M 120.51,971.034 112.188,956.054 z" id="boundary" inkscape:connector-curvature="0" />
	<path style="fill:none;stroke:red;stroke-width:1px;stroke-linecap:butt;stroke-linejoin:miter;stroke-opacity:1" d="M 158.792,4 175.436,4 z" id="boundary" inkscape:connector-curvature="0" />
	<path style="fill:none;stroke:red;stroke-width:1px;stroke-linecap:butt;stroke-linejoin:miter;stroke-opacity:1" d="M 175.436,4 190.416,12.3221 z" id="boundary" inkscape:connector-curvature="0" />
	<path style="fill:none;stroke:red;stroke-width:1px;stroke-linecap:butt;stroke-linejoin:miter;stroke-opacity:1" d="M 190.416,12.3221 207.06,12.3221 z" id="boundary" inkscape:connector-curvature="0" />
	<path style="fill:none;stroke:red;stroke-width:1px;stroke-linecap:butt;stroke-linejoin:miter;stroke-opacity:1" d="M 207.06,12.3221 222.04,20.6443 z" id="boundary" inkscape:connector-curvature="0" />
	<path style="fill:none;stroke:red;stroke-width:1px;stroke-linecap:butt;stroke-linejoin:miter;stroke-opacity:1" d="M 222.04,20.6443 235.356,30.6309 z" id="boundary" inkscape:connector-curvature="0" />
	<path style="fill:none;stroke:red;stroke-width:1px;stroke-linecap:butt;stroke-linejoin:miter;stroke-opacity:1" d="M 235.356,30.6309 247.007,43.9463 z" id="boundary" inkscape:connector-curvature="0" />
	<path style="fill:none;stroke:red;stroke-width:1px;stroke-linecap:butt;stroke-linejoin:miter;stroke-opacity:1" d="M 247.007,43.9463 260.322,55.5973 z" id="boundary" inkscape:connector-curvature="0" />
	<path style="fill:none;stroke:red;stroke-width:1px;stroke-linecap:butt;stroke-linejoin:miter;stroke-opacity:1" d="M 260.322,55.5973 266.98,72.2416 z" id="boundary" inkscape:connector-curvature="0" />
	<path style="fill:none;stroke:red;stroke-width:1px;stroke-linecap:butt;stroke-linejoin:miter;stroke-opacity:1" d="M 271.973,88.8859 271.973,105.53 z" id="boundary" inkscape:connector-curvature="0" />
	<path style="fill:none;stroke:red;stroke-width:1px;stroke-linecap:butt;stroke-linejoin:miter;stroke-opacity:1" d="M 266.98,72.2416 271.973,88.8859 z" id="boundary" inkscape:connector-curvature="0" />
	<path style="fill:none;stroke:red;stroke-width:1px;stroke-linecap:butt;stroke-linejoin:miter;stroke-opacity:1" d="M 276.966,263.651 263.651,253.664 z" id="boundary" inkscape:connector-curvature="0" />
	<path style="fill:none;stroke:red;stroke-width:1px;stroke-linecap:butt;stroke-linejoin:miter;stroke-opacity:1" d="M 263.651,197.074 255.329,222.04 z" id="boundary" inkscape:connector-curvature="0" />
	<path style="fill:none;stroke:red;stroke-width:1px;stroke-linecap:butt;stroke-linejoin:miter;stroke-opacity:1" d="M 263.651,253.664 255.329,238.685 z" id="boundary" inkscape:connector-curvature="0" />
	<path style="fill:none;stroke:red;stroke-width:1px;stroke-linecap:butt;stroke-linejoin:miter;stroke-opacity:1" d="M 255.329,238.685 255.329,222.04 z" id="boundary" inkscape:connector-curvature="0" />
	<path style="fill:none;stroke:red;stroke-width:1px;stroke-linecap:butt;stroke-linejoin:miter;stroke-opacity:1" d="M 271.973,122.174 271.973,138.819 z" id="boundary" inkscape:connector-curvature="0" />
	<path style="fill:none;stroke:red;stroke-width:1px;stroke-linecap:butt;stroke-linejoin:miter;stroke-opacity:1" d="M 271.973,122.174 271.973,105.53 z" id="boundary" inkscape:connector-curvature="0" />
	<path style="fill:none;stroke:red;stroke-width:1px;stroke-linecap:butt;stroke-linejoin:miter;stroke-opacity:1" d="M 271.973,155.463 271.973,138.819 z" id="boundary" inkscape:connector-curvature="0" />
	<path style="fill:none;stroke:red;stroke-width:1px;stroke-linecap:butt;stroke-linejoin:miter;stroke-opacity:1" d="M 271.973,172.107 271.973,155.463 z" id="boundary" inkscape:connector-curvature="0" />
	<path style="fill:none;stroke:red;stroke-width:1px;stroke-linecap:butt;stroke-linejoin:miter;stroke-opacity:1" d="M 271.973,172.107 263.651,197.074 z" id="boundary" inkscape:connector-curvature="0" />
	<path style="fill:none;stroke:red;stroke-width:1px;stroke-linecap:butt;stroke-linejoin:miter;stroke-opacity:1" d="M 280.295,280.295 276.966,263.651 z" id="boundary" inkscape:connector-curvature="0" />
	<path style="fill:none;stroke:red;stroke-width:1px;stroke-linecap:butt;stroke-linejoin:miter;stroke-opacity:1" d="M 288.617,295.275 280.295,280.295 z" id="boundary" inkscape:connector-curvature="0" />
	<path style="fill:none;stroke:red;stroke-width:1px;stroke-linecap:butt;stroke-linejoin:miter;stroke-opacity:1" d="M 288.617,295.275 288.617,311.919 z" id="boundary" inkscape:connector-curvature="0" />
	<path style="fill:none;stroke:red;stroke-width:1px;stroke-linecap:butt;stroke-linejoin:miter;stroke-opacity:1" d="M 288.617,311.919 288.617,328.564 z" id="boundary" inkscape:connector-curvature="0" />
	<path style="fill:none;stroke:red;stroke-width:1px;stroke-linecap:butt;stroke-linejoin:miter;stroke-opacity:1" d="M 288.617,328.564 296.94,343.544 z" id="boundary" inkscape:connector-curvature="0" />
	<path style="fill:none;stroke:red;stroke-width:1px;stroke-linecap:butt;stroke-linejoin:miter;stroke-opacity:1" d="M 296.94,343.544 288.617,363.517 z" id="boundary" inkscape:connector-curvature="0" />
	<path style="fill:none;stroke:red;stroke-width:1px;stroke-linecap:butt;stroke-linejoin:miter;stroke-opacity:1" d="M 291.946,380.161 288.617,363.517 z" id="boundary" inkscape:connector-curvature="0" />
	<path style="fill:none;stroke:red;stroke-width:1px;stroke-linecap:butt;stroke-linejoin:miter;stroke-opacity:1" d="M 296.94,396.805 291.946,380.161 z" id="boundary" inkscape:connector-curvature="0" />
	<path style="fill:none;stroke:red;stroke-width:1px;stroke-linecap:butt;stroke-linejoin:miter;stroke-opacity:1" d="M 305.262,411.785 296.94,396.805 z" id="boundary" inkscape:connector-curvature="0" />
	<path style="fill:none;stroke:red;stroke-width:1px;stroke-linecap:butt;stroke-linejoin:miter;stroke-opacity:1" d="M 305.262,411.785 313.584,426.765 z" id="boundary" inkscape:connector-curvature="0" />
	<path style="fill:none;stroke:red;stroke-width:1px;stroke-linecap:butt;stroke-linejoin:miter;stroke-opacity:1" d="M 313.584,426.765 313.584,443.409 z" id="boundary" inkscape:connector-curvature="0" />
	<path style="fill:none;stroke:red;stroke-width:1px;stroke-linecap:butt;stroke-linejoin:miter;stroke-opacity:1" d="M 313.584,443.409 313.584,460.054 z" id="boundary" inkscape:connector-curvature="0" />
	<path style="fill:none;stroke:red;stroke-width:1px;stroke-linecap:butt;stroke-linejoin:miter;stroke-opacity:1" d="M 321.906,475.034 313.584,460.054 z" id="boundary" inkscape:connector-curvature="0" />
	<path style="fill:none;stroke:red;stroke-width:1px;stroke-linecap:butt;stroke-linejoin:miter;stroke-opacity:1" d="M 321.906,475.034 328.564,491.678 z" id="boundary" inkscape:connector-curvature="0" />
	<path style="fill:none;stroke:red;stroke-width:1px;stroke-linecap:butt;stroke-linejoin:miter;stroke-opacity:1" d="M 328.564,491.678 330.228,508.322 z" id="boundary" inkscape:connector-curvature="0" />
	<path style="fill:none;stroke:red;stroke-width:1px;stroke-linecap:butt;stroke-linejoin:miter;stroke-opacity:1" d="M 338.55,539.946 330.228,524.966 z" id="boundary" inkscape:connector-curvature="0" />
	<path style="fill:none;stroke:red;stroke-width:1px;stroke-linecap:butt;stroke-linejoin:miter;stroke-opacity:1" d="M 330.228,524.966 330.228,508.322 z" id="boundary" inkscape:connector-curvature="0" />
	<path style="fill:none;stroke:red;stroke-width:1px;stroke-linecap:butt;stroke-linejoin:miter;stroke-opacity:1" d="M 343.544,556.591 338.55,539.946 z" id="boundary" inkscape:connector-curvature="0" />
	<path style="fill:none;stroke:red;stroke-width:1px;stroke-linecap:butt;stroke-linejoin:miter;stroke-opacity:1" d="M 263.651,846.201 255.329,862.846 z" id="boundary" inkscape:connector-curvature="0" />
	<path style="fill:none;stroke:red;stroke-width:1px;stroke-linecap:butt;stroke-linejoin:miter;stroke-opacity:1" d="M 255.329,879.49 258.658,896.134 z" id="boundary" inkscape:connector-curvature="0" />
	<path style="fill:none;stroke:red;stroke-width:1px;stroke-linecap:butt;stroke-linejoin:miter;stroke-opacity:1" d="M 255.329,879.49 255.329,862.846 z" id="boundary" inkscape:connector-curvature="0" />
	<path style="fill:none;stroke:red;stroke-width:1px;stroke-linecap:butt;stroke-linejoin:miter;stroke-opacity:1" d="M 271.973,796.268 271.973,812.913 z" id="boundary" inkscape:connector-curvature="0" />
	<path style="fill:none;stroke:red;stroke-width:1px;stroke-linecap:butt;stroke-linejoin:miter;stroke-opacity:1" d="M 271.973,796.268 280.295,779.624 z" id="boundary" inkscape:connector-curvature="0" />
	<path style="fill:none;stroke:red;stroke-width:1px;stroke-linecap:butt;stroke-linejoin:miter;stroke-opacity:1" d="M 271.973,812.913 271.973,829.557 z" id="boundary" inkscape:connector-curvature="0" />
	<path style="fill:none;stroke:red;stroke-width:1px;stroke-linecap:butt;stroke-linejoin:miter;stroke-opacity:1" d="M 271.973,829.557 263.651,846.201 z" id="boundary" inkscape:connector-curvature="0" />
	<path style="fill:none;stroke:red;stroke-width:1px;stroke-linecap:butt;stroke-linejoin:miter;stroke-opacity:1" d="M 212.054,996 195.409,996 z" id="boundary" inkscape:connector-curvature="0" />
	<path style="fill:none;stroke:red;stroke-width:1px;stroke-linecap:butt;stroke-linejoin:miter;stroke-opacity:1" d="M 245.342,996 228.698,996 z" id="boundary" inkscape:connector-curvature="0" />
	<path style="fill:none;stroke:red;stroke-width:1px;stroke-linecap:butt;stroke-linejoin:miter;stroke-opacity:1" d="M 228.698,996 212.054,996 z" id="boundary" inkscape:connector-curvature="0" />
	<path style="fill:none;stroke:red;stroke-width:1px;stroke-linecap:butt;stroke-linejoin:miter;stroke-opacity:1" d="M 261.987,996 245.342,996 z" id="boundary" inkscape:connector-curvature="0" />
	<path style="fill:none;stroke:red;stroke-width:1px;stroke-linecap:butt;stroke-linejoin:miter;stroke-opacity:1" d="M 271.973,907.785 258.658,896.134 z" id="boundary" inkscape:connector-curvature="0" />
	<path style="fill:none;stroke:red;stroke-width:1px;stroke-linecap:butt;stroke-linejoin:miter;stroke-opacity:1" d="M 278.631,991.007 261.987,996 z" id="boundary" inkscape:connector-curvature="0" />
	<path style="fill:none;stroke:red;stroke-width:1px;stroke-linecap:butt;stroke-linejoin:miter;stroke-opacity:1" d="M 271.973,907.785 286.953,916.107 z" id="boundary" inkscape:connector-curvature="0" />
	<path style="fill:none;stroke:red;stroke-width:1px;stroke-linecap:butt;stroke-linejoin:miter;stroke-opacity:1" d="M 286.953,916.107 300.268,927.758 z" id="boundary" inkscape:connector-curvature="0" />
	<path style="fill:none;stroke:red;stroke-width:1px;stroke-linecap:butt;stroke-linejoin:miter;stroke-opacity:1" d="M 288.617,754.658 280.295,779.624 z" id="boundary" inkscape:connector-curvature="0" />
	<path style="fill:none;stroke:red;stroke-width:1px;stroke-linecap:butt;stroke-linejoin:miter;stroke-opacity:1" d="M 296.94,719.705 296.94,703.06 z" id="boundary" inkscape:connector-curvature="0" />
	<path style="fill:none;stroke:red;stroke-width:1px;stroke-linecap:butt;stroke-linejoin:miter;stroke-opacity:1" d="M 318.577,643.141 310.255,659.785 z" id="boundary" inkscape:connector-curvature="0" />
	<path style="fill:none;stroke:red;stroke-width:1px;stroke-linecap:butt;stroke-linejoin:miter;stroke-opacity:1" d="M 310.255,659.785 296.94,671.436 z" id="boundary" inkscape:connector-curvature="0" />
	<path style="fill:none;stroke:red;stroke-width:1px;stroke-linecap:butt;stroke-linejoin:miter;stroke-opacity:1" d="M 288.617,688.081 296.94,703.06 z" id="boundary" inkscape:connector-curvature="0" />
	<path style="fill:none;stroke:red;stroke-width:1px;stroke-linecap:butt;stroke-linejoin:miter;stroke-opacity:1" d="M 343.544,556.591 346.872,573.235 z" id="boundary" inkscape:connector-curvature="0" />
	<path style="fill:none;stroke:red;stroke-width:1px;stroke-linecap:butt;stroke-linejoin:miter;stroke-opacity:1" d="M 346.872,573.235 338.55,588.215 z" id="boundary" inkscape:connector-curvature="0" />
	<path style="fill:none;stroke:red;stroke-width:1px;stroke-linecap:butt;stroke-linejoin:miter;stroke-opacity:1" d="M 338.55,588.215 335.221,609.852 z" id="boundary" inkscape:connector-curvature="0" />
	<path style="fill:none;stroke:red;stroke-width:1px;stroke-linecap:butt;stroke-linejoin:miter;stroke-opacity:1" d="M 335.221,609.852 326.899,626.497 z" id="boundary" inkscape:connector-curvature="0" />
	<path style="fill:none;stroke:red;stroke-width:1px;stroke-linecap:butt;stroke-linejoin:miter;stroke-opacity:1" d="M 326.899,626.497 318.577,643.141 z" id="boundary" inkscape:connector-curvature="0" />
	<path style="fill:none;stroke:red;stroke-width:1px;stroke-linecap:butt;stroke-linejoin:miter;stroke-opacity:1" d="M 296.94,671.436 288.617,688.081 z" id="boundary" inkscape:connector-curvature="0" />
	<path style="fill:none;stroke:red;stroke-width:1px;stroke-linecap:butt;stroke-linejoin:miter;stroke-opacity:1" d="M 296.94,719.705 296.94,736.349 z" id="boundary" inkscape:connector-curvature="0" />
	<path style="fill:none;stroke:red;stroke-width:1px;stroke-linecap:butt;stroke-linejoin:miter;stroke-opacity:1" d="M 296.94,736.349 288.617,754.658 z" id="boundary" inkscape:connector-curvature="0" />
	<path style="fill:none;stroke:red;stroke-width:1px;stroke-linecap:butt;stroke-linejoin:miter;stroke-opacity:1" d="M 295.275,982.685 278.631,991.007 z" id="boundary" inkscape:connector-curvature="0" />
	<path style="fill:none;stroke:red;stroke-width:1px;stroke-linecap:butt;stroke-linejoin:miter;stroke-opacity:1" d="M 300.268,927.758 316.913,927.758 z" id="boundary" inkscape:connector-curvature="0" />
	<path style="fill:none;stroke:red;stroke-width:1px;stroke-linecap:butt;stroke-linejoin:miter;stroke-opacity:1" d="M 316.913,927.758 328.564,941.074 z" id="boundary" inkscape:connector-curvature="0" />
	<path style="fill:none;stroke:red;stroke-width:1px;stroke-linecap:butt;stroke-linejoin:miter;stroke-opacity:1" d="M 328.564,941.074 328.564,966.04 z" id="boundary" inkscape:connector-curvature="0" />
	<path style="fill:none;stroke:red;stroke-width:1px;stroke-linecap:butt;stroke-linejoin:miter;stroke-opacity:1" d="M 328.564,966.04 311.919,974.362 z" id="boundary" inkscape:connector-curvature="0" />
	<path style="fill:none;stroke:red;stroke-width:1px;stroke-linecap:butt;stroke-linejoin:miter;stroke-opacity:1" d="M 311.919,974.362 295.275,982.685 z" id="boundary" inkscape:connector-curvature="0" />
	<circle cx="4" cy="308.591" r="4" fill="#0" id="circle0"/>
	<circle cx="4" cy="325.235" r="4" fill="#0" id="circle1"/>
	<circle cx="4" cy="341.879" r="4" fill="#0" id="circle2"/>
	<circle cx="4" cy="358.523" r="4" fill="#0" id="circle3"/>
	<circle cx="4" cy="375.168" r="4" fill="#0" id="circle4"/>
	<circle cx="4" cy="450.067" r="4" fill="#0" id="circle5"/>
	<circle cx="12.3221" cy="291.946" r="4" fill="#0" id="circle6"/>
	<circle cx="12.3221" cy="390.148" r="4" fill="#0" id="circle7"/>
	<circle cx="12.3221" cy="406.792" r="4" fill="#0" id="circle8"/>
	<circle cx="12.3221" cy="423.436" r="4" fill="#0" id="circle9"/>
	<circle cx="12.3221" cy="465.047" r="4" fill="#0" id="circle10"/>
	<circle cx="12.3221" cy="481.691" r="4" fill="#0" id="circle11"/>
	<circle cx="12.3221" cy="498.336" r="4" fill="#0" id="circle12"/>
	<circle cx="20.6443" cy="92.2148" r="4" fill="#0" id="circle13"/>
	<circle cx="20.6443" cy="108.859" r="4" fill="#0" id="circle14"/>
	<circle cx="20.6443" cy="275.302" r="4" fill="#0" id="circle15"/>
	<circle cx="20.6443" cy="513.315" r="4" fill="#0" id="circle16"/>
	<circle cx="25.6376" cy="529.96" r="4" fill="#0" id="circle17"/>
	<circle cx="28.9664" cy="67.2483" r="4" fill="#0" id="circle18"/>
	<circle cx="28.9664" cy="123.839" r="4" fill="#0" id="circle19"/>
	<circle cx="28.9664" cy="546.604" r="4" fill="#0" id="circle20"/>
	<circle cx="33.9597" cy="261.987" r="4" fill="#0" id="circle21"/>
	<circle cx="37.2886" cy="50.604" r="4" fill="#0" id="circle22"/>
	<circle cx="37.2886" cy="138.819" r="4" fill="#0" id="circle23"/>
	<circle cx="37.2886" cy="561.584" r="4" fill="#0" id="circle24"/>
	<circle cx="37.2886" cy="578.228" r="4" fill="#0" id="circle25"/>
	<circle cx="37.2886" cy="594.872" r="4" fill="#0" id="circle26"/>
	<circle cx="37.2886" cy="611.517" r="4" fill="#0" id="circle27"/>
	<circle cx="42.2819" cy="155.463" r="4" fill="#0" id="circle28"/>
	<circle cx="45.6107" cy="626.497" r="4" fill="#0" id="circle29"/>
	<circle cx="50.604" cy="37.2886" r="4" fill="#0" id="circle30"/>
	<circle cx="50.604" cy="170.443" r="4" fill="#0" id="circle31"/>
	<circle cx="50.604" cy="253.664" r="4" fill="#0" id="circle32"/>
	<circle cx="53.9329" cy="641.477" r="4" fill="#0" id="circle33"/>
	<circle cx="62.255" cy="183.758" r="4" fill="#0" id="circle34"/>
	<circle cx="62.255" cy="233.691" r="4" fill="#0" id="circle35"/>
	<circle cx="62.255" cy="656.456" r="4" fill="#0" id="circle36"/>
	<circle cx="63.9195" cy="23.9732" r="4" fill="#0" id="circle37"/>
	<circle cx="70.5772" cy="198.738" r="4" fill="#0" id="circle38"/>
	<circle cx="70.5772" cy="215.383" r="4" fill="#0" id="circle39"/>
	<circle cx="70.5772" cy="671.436" r="4" fill="#0" id="circle40"/>
	<circle cx="77.2349" cy="12.3221" r="4" fill="#0" id="circle41"/>
	<circle cx="80.5638" cy="684.752" r="4" fill="#0" id="circle42"/>
	<circle cx="87.2215" cy="807.919" r="4" fill="#0" id="circle43"/>
	<circle cx="87.2215" cy="824.564" r="4" fill="#0" id="circle44"/>
	<circle cx="92.2148" cy="4" r="4" fill="#0" id="circle45"/>
	<circle cx="93.8792" cy="696.403" r="4" fill="#0" id="circle46"/>
	<circle cx="95.5436" cy="782.953" r="4" fill="#0" id="circle47"/>
	<circle cx="95.5436" cy="839.544" r="4" fill="#0" id="circle48"/>
	<circle cx="95.5436" cy="856.188" r="4" fill="#0" id="circle49"/>
	<circle cx="103.866" cy="709.718" r="4" fill="#0" id="circle50"/>
	<circle cx="103.866" cy="726.362" r="4" fill="#0" id="circle51"/>
	<circle cx="103.866" cy="743.007" r="4" fill="#0" id="circle52"/>
	<circle cx="103.866" cy="759.651" r="4" fill="#0" id="circle53"/>
	<circle cx="103.866" cy="871.168" r="4" fill="#0" id="circle54"/>
	<circle cx="103.866" cy="924.43" r="4" fill="#0" id="circle55"/>
	<circle cx="103.866" cy="941.074" r="4" fill="#0" id="circle56"/>
	<circle cx="108.859" cy="4" r="4" fill="#0" id="circle57"/>
	<circle cx="108.859" cy="887.812" r="4" fill="#0" id="circle58"/>
	<circle cx="112.188" cy="904.456" r="4" fill="#0" id="circle59"/>
	<circle cx="112.188" cy="956.054" r="4" fill="#0" id="circle60"/>
	<circle cx="120.51" cy="971.034" r="4" fill="#0" id="circle61"/>
	<circle cx="125.503" cy="4" r="4" fill="#0" id="circle62"/>
	<circle cx="130.497" cy="984.349" r="4" fill="#0" id="circle63"/>
	<circle cx="142.148" cy="4" r="4" fill="#0" id="circle64"/>
	<circle cx="147.141" cy="987.678" r="4" fill="#0" id="circle65"/>
	<circle cx="158.792" cy="4" r="4" fill="#0" id="circle66"/>
	<circle cx="163.785" cy="987.678" r="4" fill="#0" id="circle67"/>
	<circle cx="175.436" cy="4" r="4" fill="#0" id="circle68"/>
	<circle cx="178.765" cy="996" r="4" fill="#0" id="circle69"/>
	<circle cx="190.416" cy="12.3221" r="4" fill="#0" id="circle70"/>
	<circle cx="195.409" cy="996" r="4" fill="#0" id="circle71"/>
	<circle cx="207.06" cy="12.3221" r="4" fill="#0" id="circle72"/>
	<circle cx="212.054" cy="996" r="4" fill="#0" id="circle73"/>
	<circle cx="222.04" cy="20.6443" r="4" fill="#0" id="circle74"/>
	<circle cx="228.698" cy="996" r="4" fill="#0" id="circle75"/>
	<circle cx="235.356" cy="30.6309" r="4" fill="#0" id="circle76"/>
	<circle cx="245.342" cy="996" r="4" fill="#0" id="circle77"/>
	<circle cx="247.007" cy="43.9463" r="4" fill="#0" id="circle78"/>
	<circle cx="255.329" cy="222.04" r="4" fill="#0" id="circle79"/>
	<circle cx="255.329" cy="238.685" r="4" fill="#0" id="circle80"/>
	<circle cx="255.329" cy="862.846" r="4" fill="#0" id="circle81"/>
	<circle cx="255.329" cy="879.49" r="4" fill="#0" id="circle82"/>
	<circle cx="258.658" cy="896.134" r="4" fill="#0" id="circle83"/>
	<circle cx="260.322" cy="55.5973" r="4" fill="#0" id="circle84"/>
	<circle cx="261.987" cy="996" r="4" fill="#0" id="circle85"/>
	<circle cx="263.651" cy="197.074" r="4" fill="#0" id="circle86"/>
	<circle cx="263.651" cy="253.664" r="4" fill="#0" id="circle87"/>
	<circle cx="263.651" cy="846.201" r="4" fill="#0" id="circle88"/>
	<circle cx="266.98" cy="72.2416" r="4" fill="#0" id="circle89"/>
	<circle cx="271.973" cy="88.8859" r="4" fill="#0" id="circle90"/>
	<circle cx="271.973" cy="105.53" r="4" fill="#0" id="circle91"/>
	<circle cx="271.973" cy="122.174" r="4" fill="#0" id="circle92"/>
	<circle cx="271.973" cy="138.819" r="4" fill="#0" id="circle93"/>
	<circle cx="271.973" cy="155.463" r="4" fill="#0" id="circle94"/>
	<circle cx="271.973" cy="172.107" r="4" fill="#0" id="circle95"/>
	<circle cx="271.973" cy="796.268" r="4" fill="#0" id="circle96"/>
	<circle cx="271.973" cy="812.913" r="4" fill="#0" id="circle97"/>
	<circle cx="271.973" cy="829.557" r="4" fill="#0" id="circle98"/>
	<circle cx="271.973" cy="907.785" r="4" fill="#0" id="circle99"/>
	<circle cx="276.966" cy="263.651" r="4" fill="#0" id="circle100"/>
	<circle cx="278.631" cy="991.007" r="4" fill="#0" id="circle101"/>
	<circle cx="280.295" cy="280.295" r="4" fill="#0" id="circle102"/>
	<circle cx="280.295" cy="779.624" r="4" fill="#0" id="circle103"/>
	<circle cx="286.953" cy="916.107" r="4" fill="#0" id="circle104"/>
	<circle cx="288.617" cy="295.275" r="4" fill="#0" id="circle105"/>
	<circle cx="288.617" cy="311.919" r="4" fill="#0" id="circle106"/>
	<circle cx="288.617" cy="328.564" r="4" fill="#0" id="circle107"/>
	<circle cx="288.617" cy="363.517" r="4" fill="#0" id="circle108"/>
	<circle cx="288.617" cy="688.081" r="4" fill="#0" id="circle109"/>
	<circle cx="288.617" cy="754.658" r="4" fill="#0" id="circle110"/>
	<circle cx="291.946" cy="380.161" r="4" fill="#0" id="circle111"/>
	<circle cx="295.275" cy="982.685" r="4" fill="#0" id="circle112"/>
	<circle cx="296.94" cy="343.544" r="4" fill="#0" id="circle113"/>
	<circle cx="296.94" cy="396.805" r="4" fill="#0" id="circle114"/>
	<circle cx="296.94" cy="671.436" r="4" fill="#0" id="circle115"/>
	<circle cx="296.94" cy="703.06" r="4" fill="#0" id="circle116"/>
	<circle cx="296.94" cy="719.705" r="4" fill="#0" id="circle117"/>
	<circle cx="296.94" cy="736.349" r="4" fill="#0" id="circle118"/>
	<circle cx="300.268" cy="927.758" r="4" fill="#0" id="circle119"/>
	<circle cx="305.262" cy="411.785" r="4" fill="#0" id="circle120"/>
	<circle cx="310.255" cy="659.785" r="4" fill="#0" id="circle121"/>
	<circle cx="311.919" cy="974.362" r="4" fill="#0" id="circle122"/>
	<circle cx="313.584" cy="426.765" r="4" fill="#0" id="circle123"/>
	<circle cx="313.584" cy="443.409" r="4" fill="#0" id="circle124"/>
	<circle cx="313.584" cy="460.054" r="4" fill="#0" id="circle125"/>
	<circle cx="316.913" cy="927.758" r="4" fill="#0" id="circle126"/>
	<circle cx="318.577" cy="643.141" r="4" fill="#0" id="circle127"/>
	<circle cx="321.906" cy="475.034" r="4" fill="#0" id="circle128"/>
	<circle cx="326.899" cy="626.497" r="4" fill="#0" id="circle129"/>
	<circle cx="328.564" cy="491.678" r="4" fill="#0" id="circle130"/>
	<circle cx="328.564" cy="941.074" r="4" fill="#0" id="circle131"/>
	<circle cx="328.564" cy="966.04" r="4" fill="#0" id="circle132"/>
	<circle cx="330.228" cy="508.322" r="4" fill="#0" id="circle133"/>
	<circle cx="330.228" cy="524.966" r="4" fill="#0" id="circle134"/>
	<circle cx="335.221" cy="609.852" r="4" fill="#0" id="circle135"/>
	<circle cx="338.55" cy="539.946" r="4" fill="#0" id="circle136"/>
	<circle cx="338.55" cy="588.215" r="4" fill="#0" id="circle137"/>
	<circle cx="343.544" cy="556.591" r="4" fill="#0" id="circle138"/>
	<circle cx="346.872" cy="573.235" r="4" fill="#0" id="circle139"/>
	</g>
</svg>