<?xml version="1.0" encoding="UTF-8" standalone="no"?>
<!-- Created with CurveBenchmark -->
<svg
	xmlns:dc="http://purl.org/dc/elements/1.1/"
	xmlns:cc="http://creativecommons.org/ns#"
	xmlns:rdf="http://www.w3.org/1999/02/22-rdf-syntax-ns#"
	xmlns:svg="http://www.w3.org/2000/svg"
	xmlns="http://www.w3.org/2000/svg"
	xmlns:sodipodi="http://sodipodi.sourceforge.net/DTD/sodipodi-0.dtd"
	xmlns:inkscape="http://www.inkscape.org/namespaces/inkscape"
	width="1000"
	height="1000"
	id="svg2"
	version="1.1"
	sodipodi:docname="manifold/gathan1-teddy315.png.txt">
<defs
	id="defs4" />
<metadata
	id="metadata7">
	<rdf:RDF>
		<cc:Work
			rdf:about="">
			<dc:format>image/svg+xml</dc:format>
			<dc:type
				rdf:resource="http://purl.org/dc/dcmitype/StillImage" />
			<dc:title></dc:title>
		</cc:Work>
	</rdf:RDF>
</metadata>
<g
	inkscape:label="Layer 1"
	inkscape:groupmode="layer"
	id="layer1">
	<path style="fill:none;stroke:red;stroke-width:1px;stroke-linecap:butt;stroke-linejoin:miter;stroke-opacity:1" d="M 60.5242,235.749 60.5242,264.011 z" id="boundary" inkscape:connector-curvature="0" />
	<path style="fill:none;stroke:red;stroke-width:1px;stroke-linecap:butt;stroke-linejoin:miter;stroke-opacity:1" d="M 60.5242,235.749 83.1339,218.792 z" id="boundary" inkscape:connector-curvature="0" />
	<path style="fill:none;stroke:red;stroke-width:1px;stroke-linecap:butt;stroke-linejoin:miter;stroke-opacity:1" d="M 83.1339,218.792 105.744,201.835 z" id="boundary" inkscape:connector-curvature="0" />
	<path style="fill:none;stroke:red;stroke-width:1px;stroke-linecap:butt;stroke-linejoin:miter;stroke-opacity:1" d="M 71.8291,297.926 60.5242,264.011 z" id="boundary" inkscape:connector-curvature="0" />
	<path style="fill:none;stroke:red;stroke-width:1px;stroke-linecap:butt;stroke-linejoin:miter;stroke-opacity:1" d="M 74.6553,326.188 71.8291,297.926 z" id="boundary" inkscape:connector-curvature="0" />
	<path style="fill:none;stroke:red;stroke-width:1px;stroke-linecap:butt;stroke-linejoin:miter;stroke-opacity:1" d="M 117.048,362.929 88.7863,351.624 z" id="boundary" inkscape:connector-curvature="0" />
	<path style="fill:none;stroke:red;stroke-width:1px;stroke-linecap:butt;stroke-linejoin:miter;stroke-opacity:1" d="M 88.7863,351.624 74.6553,326.188 z" id="boundary" inkscape:connector-curvature="0" />
	<path style="fill:none;stroke:red;stroke-width:1px;stroke-linecap:butt;stroke-linejoin:miter;stroke-opacity:1" d="M 88.7863,495.761 105.744,467.499 z" id="boundary" inkscape:connector-curvature="0" />
	<path style="fill:none;stroke:red;stroke-width:1px;stroke-linecap:butt;stroke-linejoin:miter;stroke-opacity:1" d="M 88.7863,524.023 88.7863,495.761 z" id="boundary" inkscape:connector-curvature="0" />
	<path style="fill:none;stroke:red;stroke-width:1px;stroke-linecap:butt;stroke-linejoin:miter;stroke-opacity:1" d="M 83.1339,569.242 88.7863,524.023 z" id="boundary" inkscape:connector-curvature="0" />
	<path style="fill:none;stroke:red;stroke-width:1px;stroke-linecap:butt;stroke-linejoin:miter;stroke-opacity:1" d="M 105.744,467.499 131.179,453.368 z" id="boundary" inkscape:connector-curvature="0" />
	<path style="fill:none;stroke:red;stroke-width:1px;stroke-linecap:butt;stroke-linejoin:miter;stroke-opacity:1" d="M 105.744,201.835 134.006,190.53 z" id="boundary" inkscape:connector-curvature="0" />
	<path style="fill:none;stroke:red;stroke-width:1px;stroke-linecap:butt;stroke-linejoin:miter;stroke-opacity:1" d="M 213.14,139.658 190.53,167.92 z" id="boundary" inkscape:connector-curvature="0" />
	<path style="fill:none;stroke:red;stroke-width:1px;stroke-linecap:butt;stroke-linejoin:miter;stroke-opacity:1" d="M 227.271,114.222 213.14,139.658 z" id="boundary" inkscape:connector-curvature="0" />
	<path style="fill:none;stroke:red;stroke-width:1px;stroke-linecap:butt;stroke-linejoin:miter;stroke-opacity:1" d="M 162.268,184.877 190.53,167.92 z" id="boundary" inkscape:connector-curvature="0" />
	<path style="fill:none;stroke:red;stroke-width:1px;stroke-linecap:butt;stroke-linejoin:miter;stroke-opacity:1" d="M 227.271,114.222 244.228,91.6125 z" id="boundary" inkscape:connector-curvature="0" />
	<path style="fill:none;stroke:red;stroke-width:1px;stroke-linecap:butt;stroke-linejoin:miter;stroke-opacity:1" d="M 162.268,184.877 134.006,190.53 z" id="boundary" inkscape:connector-curvature="0" />
	<path style="fill:none;stroke:red;stroke-width:1px;stroke-linecap:butt;stroke-linejoin:miter;stroke-opacity:1" d="M 150.963,427.932 131.179,453.368 z" id="boundary" inkscape:connector-curvature="0" />
	<path style="fill:none;stroke:red;stroke-width:1px;stroke-linecap:butt;stroke-linejoin:miter;stroke-opacity:1" d="M 145.311,371.407 117.048,362.929 z" id="boundary" inkscape:connector-curvature="0" />
	<path style="fill:none;stroke:red;stroke-width:1px;stroke-linecap:butt;stroke-linejoin:miter;stroke-opacity:1" d="M 145.311,371.407 165.094,394.017 z" id="boundary" inkscape:connector-curvature="0" />
	<path style="fill:none;stroke:red;stroke-width:1px;stroke-linecap:butt;stroke-linejoin:miter;stroke-opacity:1" d="M 165.094,394.017 150.963,427.932 z" id="boundary" inkscape:connector-curvature="0" />
	<path style="fill:none;stroke:red;stroke-width:1px;stroke-linecap:butt;stroke-linejoin:miter;stroke-opacity:1" d="M 266.838,69.0028 244.228,91.6125 z" id="boundary" inkscape:connector-curvature="0" />
	<path style="fill:none;stroke:red;stroke-width:1px;stroke-linecap:butt;stroke-linejoin:miter;stroke-opacity:1" d="M 4,800.991 4,772.729 z" id="boundary" inkscape:connector-curvature="0" />
	<path style="fill:none;stroke:red;stroke-width:1px;stroke-linecap:butt;stroke-linejoin:miter;stroke-opacity:1" d="M 4,829.254 4,800.991 z" id="boundary" inkscape:connector-curvature="0" />
	<path style="fill:none;stroke:red;stroke-width:1px;stroke-linecap:butt;stroke-linejoin:miter;stroke-opacity:1" d="M 32.2621,727.51 60.5242,727.51 z" id="boundary" inkscape:connector-curvature="0" />
	<path style="fill:none;stroke:red;stroke-width:1px;stroke-linecap:butt;stroke-linejoin:miter;stroke-opacity:1" d="M 32.2621,727.51 9.65242,744.467 z" id="boundary" inkscape:connector-curvature="0" />
	<path style="fill:none;stroke:red;stroke-width:1px;stroke-linecap:butt;stroke-linejoin:miter;stroke-opacity:1" d="M 4,772.729 9.65242,744.467 z" id="boundary" inkscape:connector-curvature="0" />
	<path style="fill:none;stroke:red;stroke-width:1px;stroke-linecap:butt;stroke-linejoin:miter;stroke-opacity:1" d="M 9.65242,857.516 4,829.254 z" id="boundary" inkscape:connector-curvature="0" />
	<path style="fill:none;stroke:red;stroke-width:1px;stroke-linecap:butt;stroke-linejoin:miter;stroke-opacity:1" d="M 9.65242,857.516 9.65242,885.778 z" id="boundary" inkscape:connector-curvature="0" />
	<path style="fill:none;stroke:red;stroke-width:1px;stroke-linecap:butt;stroke-linejoin:miter;stroke-opacity:1" d="M 9.65242,914.04 9.65242,885.778 z" id="boundary" inkscape:connector-curvature="0" />
	<path style="fill:none;stroke:red;stroke-width:1px;stroke-linecap:butt;stroke-linejoin:miter;stroke-opacity:1" d="M 15.3048,942.302 9.65242,914.04 z" id="boundary" inkscape:connector-curvature="0" />
	<path style="fill:none;stroke:red;stroke-width:1px;stroke-linecap:butt;stroke-linejoin:miter;stroke-opacity:1" d="M 43.567,990.348 20.9573,970.564 z" id="boundary" inkscape:connector-curvature="0" />
	<path style="fill:none;stroke:red;stroke-width:1px;stroke-linecap:butt;stroke-linejoin:miter;stroke-opacity:1" d="M 20.9573,970.564 15.3048,942.302 z" id="boundary" inkscape:connector-curvature="0" />
	<path style="fill:none;stroke:red;stroke-width:1px;stroke-linecap:butt;stroke-linejoin:miter;stroke-opacity:1" d="M 71.8291,996 43.567,990.348 z" id="boundary" inkscape:connector-curvature="0" />
	<path style="fill:none;stroke:red;stroke-width:1px;stroke-linecap:butt;stroke-linejoin:miter;stroke-opacity:1" d="M 77.4815,625.766 77.4815,654.028 z" id="boundary" inkscape:connector-curvature="0" />
	<path style="fill:none;stroke:red;stroke-width:1px;stroke-linecap:butt;stroke-linejoin:miter;stroke-opacity:1" d="M 77.4815,654.028 77.4815,682.291 z" id="boundary" inkscape:connector-curvature="0" />
	<path style="fill:none;stroke:red;stroke-width:1px;stroke-linecap:butt;stroke-linejoin:miter;stroke-opacity:1" d="M 83.1339,710.553 77.4815,682.291 z" id="boundary" inkscape:connector-curvature="0" />
	<path style="fill:none;stroke:red;stroke-width:1px;stroke-linecap:butt;stroke-linejoin:miter;stroke-opacity:1" d="M 213.14,973.39 184.877,973.39 z" id="boundary" inkscape:connector-curvature="0" />
	<path style="fill:none;stroke:red;stroke-width:1px;stroke-linecap:butt;stroke-linejoin:miter;stroke-opacity:1" d="M 184.877,973.39 156.615,984.695 z" id="boundary" inkscape:connector-curvature="0" />
	<path style="fill:none;stroke:red;stroke-width:1px;stroke-linecap:butt;stroke-linejoin:miter;stroke-opacity:1" d="M 60.5242,727.51 83.1339,710.553 z" id="boundary" inkscape:connector-curvature="0" />
	<path style="fill:none;stroke:red;stroke-width:1px;stroke-linecap:butt;stroke-linejoin:miter;stroke-opacity:1" d="M 77.4815,597.504 83.1339,569.242 z" id="boundary" inkscape:connector-curvature="0" />
	<path style="fill:none;stroke:red;stroke-width:1px;stroke-linecap:butt;stroke-linejoin:miter;stroke-opacity:1" d="M 77.4815,625.766 77.4815,597.504 z" id="boundary" inkscape:connector-curvature="0" />
	<path style="fill:none;stroke:red;stroke-width:1px;stroke-linecap:butt;stroke-linejoin:miter;stroke-opacity:1" d="M 100.091,996 71.8291,996 z" id="boundary" inkscape:connector-curvature="0" />
	<path style="fill:none;stroke:red;stroke-width:1px;stroke-linecap:butt;stroke-linejoin:miter;stroke-opacity:1" d="M 128.353,996 100.091,996 z" id="boundary" inkscape:connector-curvature="0" />
	<path style="fill:none;stroke:red;stroke-width:1px;stroke-linecap:butt;stroke-linejoin:miter;stroke-opacity:1" d="M 156.615,984.695 128.353,996 z" id="boundary" inkscape:connector-curvature="0" />
	<path style="fill:none;stroke:red;stroke-width:1px;stroke-linecap:butt;stroke-linejoin:miter;stroke-opacity:1" d="M 213.14,973.39 241.402,979.043 z" id="boundary" inkscape:connector-curvature="0" />
	<path style="fill:none;stroke:red;stroke-width:1px;stroke-linecap:butt;stroke-linejoin:miter;stroke-opacity:1" d="M 269.664,979.043 241.402,979.043 z" id="boundary" inkscape:connector-curvature="0" />
	<path style="fill:none;stroke:red;stroke-width:1px;stroke-linecap:butt;stroke-linejoin:miter;stroke-opacity:1" d="M 266.838,69.0028 292.274,54.8718 z" id="boundary" inkscape:connector-curvature="0" />
	<path style="fill:none;stroke:red;stroke-width:1px;stroke-linecap:butt;stroke-linejoin:miter;stroke-opacity:1" d="M 362.929,4 340.319,23.7835 z" id="boundary" inkscape:connector-curvature="0" />
	<path style="fill:none;stroke:red;stroke-width:1px;stroke-linecap:butt;stroke-linejoin:miter;stroke-opacity:1" d="M 340.319,23.7835 317.709,40.7407 z" id="boundary" inkscape:connector-curvature="0" />
	<path style="fill:none;stroke:red;stroke-width:1px;stroke-linecap:butt;stroke-linejoin:miter;stroke-opacity:1" d="M 317.709,40.7407 292.274,54.8718 z" id="boundary" inkscape:connector-curvature="0" />
	<path style="fill:none;stroke:red;stroke-width:1px;stroke-linecap:butt;stroke-linejoin:miter;stroke-opacity:1" d="M 362.929,4 391.191,9.65242 z" id="boundary" inkscape:connector-curvature="0" />
	<path style="fill:none;stroke:red;stroke-width:1px;stroke-linecap:butt;stroke-linejoin:miter;stroke-opacity:1" d="M 391.191,9.65242 419.453,15.3048 z" id="boundary" inkscape:connector-curvature="0" />
	<path style="fill:none;stroke:red;stroke-width:1px;stroke-linecap:butt;stroke-linejoin:miter;stroke-opacity:1" d="M 419.453,15.3048 430.758,43.567 z" id="boundary" inkscape:connector-curvature="0" />
	<path style="fill:none;stroke:red;stroke-width:1px;stroke-linecap:butt;stroke-linejoin:miter;stroke-opacity:1" d="M 430.758,43.567 447.715,66.1766 z" id="boundary" inkscape:connector-curvature="0" />
	<path style="fill:none;stroke:red;stroke-width:1px;stroke-linecap:butt;stroke-linejoin:miter;stroke-opacity:1" d="M 509.892,377.06 495.761,402.496 z" id="boundary" inkscape:connector-curvature="0" />
	<path style="fill:none;stroke:red;stroke-width:1px;stroke-linecap:butt;stroke-linejoin:miter;stroke-opacity:1" d="M 475.977,71.8291 447.715,66.1766 z" id="boundary" inkscape:connector-curvature="0" />
	<path style="fill:none;stroke:red;stroke-width:1px;stroke-linecap:butt;stroke-linejoin:miter;stroke-opacity:1" d="M 498.587,430.758 498.587,459.02 z" id="boundary" inkscape:connector-curvature="0" />
	<path style="fill:none;stroke:red;stroke-width:1px;stroke-linecap:butt;stroke-linejoin:miter;stroke-opacity:1" d="M 498.587,430.758 495.761,402.496 z" id="boundary" inkscape:connector-curvature="0" />
	<path style="fill:none;stroke:red;stroke-width:1px;stroke-linecap:butt;stroke-linejoin:miter;stroke-opacity:1" d="M 498.587,459.02 498.587,487.282 z" id="boundary" inkscape:connector-curvature="0" />
	<path style="fill:none;stroke:red;stroke-width:1px;stroke-linecap:butt;stroke-linejoin:miter;stroke-opacity:1" d="M 501.413,85.9601 475.977,71.8291 z" id="boundary" inkscape:connector-curvature="0" />
	<path style="fill:none;stroke:red;stroke-width:1px;stroke-linecap:butt;stroke-linejoin:miter;stroke-opacity:1" d="M 521.197,108.57 535.328,134.006 z" id="boundary" inkscape:connector-curvature="0" />
	<path style="fill:none;stroke:red;stroke-width:1px;stroke-linecap:butt;stroke-linejoin:miter;stroke-opacity:1" d="M 535.328,134.006 546.632,162.268 z" id="boundary" inkscape:connector-curvature="0" />
	<path style="fill:none;stroke:red;stroke-width:1px;stroke-linecap:butt;stroke-linejoin:miter;stroke-opacity:1" d="M 555.111,190.53 560.764,218.792 z" id="boundary" inkscape:connector-curvature="0" />
	<path style="fill:none;stroke:red;stroke-width:1px;stroke-linecap:butt;stroke-linejoin:miter;stroke-opacity:1" d="M 546.632,162.268 555.111,190.53 z" id="boundary" inkscape:connector-curvature="0" />
	<path style="fill:none;stroke:red;stroke-width:1px;stroke-linecap:butt;stroke-linejoin:miter;stroke-opacity:1" d="M 509.892,377.06 526.849,354.45 z" id="boundary" inkscape:connector-curvature="0" />
	<path style="fill:none;stroke:red;stroke-width:1px;stroke-linecap:butt;stroke-linejoin:miter;stroke-opacity:1" d="M 543.806,331.84 526.849,354.45 z" id="boundary" inkscape:connector-curvature="0" />
	<path style="fill:none;stroke:red;stroke-width:1px;stroke-linecap:butt;stroke-linejoin:miter;stroke-opacity:1" d="M 566.416,247.054 566.416,275.316 z" id="boundary" inkscape:connector-curvature="0" />
	<path style="fill:none;stroke:red;stroke-width:1px;stroke-linecap:butt;stroke-linejoin:miter;stroke-opacity:1" d="M 566.416,275.316 557.937,306.405 z" id="boundary" inkscape:connector-curvature="0" />
	<path style="fill:none;stroke:red;stroke-width:1px;stroke-linecap:butt;stroke-linejoin:miter;stroke-opacity:1" d="M 557.937,306.405 543.806,331.84 z" id="boundary" inkscape:connector-curvature="0" />
	<path style="fill:none;stroke:red;stroke-width:1px;stroke-linecap:butt;stroke-linejoin:miter;stroke-opacity:1" d="M 560.764,218.792 566.416,247.054 z" id="boundary" inkscape:connector-curvature="0" />
	<path style="fill:none;stroke:red;stroke-width:1px;stroke-linecap:butt;stroke-linejoin:miter;stroke-opacity:1" d="M 501.413,85.9601 521.197,108.57 z" id="boundary" inkscape:connector-curvature="0" />
	<path style="fill:none;stroke:red;stroke-width:1px;stroke-linecap:butt;stroke-linejoin:miter;stroke-opacity:1" d="M 487.282,908.387 481.63,936.65 z" id="boundary" inkscape:connector-curvature="0" />
	<path style="fill:none;stroke:red;stroke-width:1px;stroke-linecap:butt;stroke-linejoin:miter;stroke-opacity:1" d="M 354.45,990.348 326.188,984.695 z" id="boundary" inkscape:connector-curvature="0" />
	<path style="fill:none;stroke:red;stroke-width:1px;stroke-linecap:butt;stroke-linejoin:miter;stroke-opacity:1" d="M 481.63,936.65 467.499,973.39 z" id="boundary" inkscape:connector-curvature="0" />
	<path style="fill:none;stroke:red;stroke-width:1px;stroke-linecap:butt;stroke-linejoin:miter;stroke-opacity:1" d="M 467.499,973.39 439.236,984.695 z" id="boundary" inkscape:connector-curvature="0" />
	<path style="fill:none;stroke:red;stroke-width:1px;stroke-linecap:butt;stroke-linejoin:miter;stroke-opacity:1" d="M 492.934,795.339 492.934,823.601 z" id="boundary" inkscape:connector-curvature="0" />
	<path style="fill:none;stroke:red;stroke-width:1px;stroke-linecap:butt;stroke-linejoin:miter;stroke-opacity:1" d="M 492.934,795.339 509.892,767.077 z" id="boundary" inkscape:connector-curvature="0" />
	<path style="fill:none;stroke:red;stroke-width:1px;stroke-linecap:butt;stroke-linejoin:miter;stroke-opacity:1" d="M 492.934,823.601 492.934,851.863 z" id="boundary" inkscape:connector-curvature="0" />
	<path style="fill:none;stroke:red;stroke-width:1px;stroke-linecap:butt;stroke-linejoin:miter;stroke-opacity:1" d="M 297.926,984.695 326.188,984.695 z" id="boundary" inkscape:connector-curvature="0" />
	<path style="fill:none;stroke:red;stroke-width:1px;stroke-linecap:butt;stroke-linejoin:miter;stroke-opacity:1" d="M 297.926,984.695 269.664,979.043 z" id="boundary" inkscape:connector-curvature="0" />
	<path style="fill:none;stroke:red;stroke-width:1px;stroke-linecap:butt;stroke-linejoin:miter;stroke-opacity:1" d="M 382.712,990.348 354.45,990.348 z" id="boundary" inkscape:connector-curvature="0" />
	<path style="fill:none;stroke:red;stroke-width:1px;stroke-linecap:butt;stroke-linejoin:miter;stroke-opacity:1" d="M 439.236,984.695 410.974,996 z" id="boundary" inkscape:connector-curvature="0" />
	<path style="fill:none;stroke:red;stroke-width:1px;stroke-linecap:butt;stroke-linejoin:miter;stroke-opacity:1" d="M 410.974,996 382.712,990.348 z" id="boundary" inkscape:connector-curvature="0" />
	<path style="fill:none;stroke:red;stroke-width:1px;stroke-linecap:butt;stroke-linejoin:miter;stroke-opacity:1" d="M 492.934,880.125 487.282,908.387 z" id="boundary" inkscape:connector-curvature="0" />
	<path style="fill:none;stroke:red;stroke-width:1px;stroke-linecap:butt;stroke-linejoin:miter;stroke-opacity:1" d="M 498.587,543.806 504.239,572.068 z" id="boundary" inkscape:connector-curvature="0" />
	<path style="fill:none;stroke:red;stroke-width:1px;stroke-linecap:butt;stroke-linejoin:miter;stroke-opacity:1" d="M 498.587,515.544 498.587,487.282 z" id="boundary" inkscape:connector-curvature="0" />
	<path style="fill:none;stroke:red;stroke-width:1px;stroke-linecap:butt;stroke-linejoin:miter;stroke-opacity:1" d="M 498.587,543.806 498.587,515.544 z" id="boundary" inkscape:connector-curvature="0" />
	<path style="fill:none;stroke:red;stroke-width:1px;stroke-linecap:butt;stroke-linejoin:miter;stroke-opacity:1" d="M 504.239,572.068 509.892,600.33 z" id="boundary" inkscape:connector-curvature="0" />
	<path style="fill:none;stroke:red;stroke-width:1px;stroke-linecap:butt;stroke-linejoin:miter;stroke-opacity:1" d="M 509.892,600.33 509.892,628.593 z" id="boundary" inkscape:connector-curvature="0" />
	<path style="fill:none;stroke:red;stroke-width:1px;stroke-linecap:butt;stroke-linejoin:miter;stroke-opacity:1" d="M 515.544,656.855 509.892,628.593 z" id="boundary" inkscape:connector-curvature="0" />
	<path style="fill:none;stroke:red;stroke-width:1px;stroke-linecap:butt;stroke-linejoin:miter;stroke-opacity:1" d="M 492.934,880.125 492.934,851.863 z" id="boundary" inkscape:connector-curvature="0" />
	<path style="fill:none;stroke:red;stroke-width:1px;stroke-linecap:butt;stroke-linejoin:miter;stroke-opacity:1" d="M 509.892,738.815 509.892,767.077 z" id="boundary" inkscape:connector-curvature="0" />
	<path style="fill:none;stroke:red;stroke-width:1px;stroke-linecap:butt;stroke-linejoin:miter;stroke-opacity:1" d="M 509.892,738.815 515.544,685.117 z" id="boundary" inkscape:connector-curvature="0" />
	<path style="fill:none;stroke:red;stroke-width:1px;stroke-linecap:butt;stroke-linejoin:miter;stroke-opacity:1" d="M 515.544,685.117 515.544,656.855 z" id="boundary" inkscape:connector-curvature="0" />
	<circle cx="4" cy="772.729" r="4" fill="#0" id="circle0"/>
	<circle cx="4" cy="800.991" r="4" fill="#0" id="circle1"/>
	<circle cx="4" cy="829.254" r="4" fill="#0" id="circle2"/>
	<circle cx="9.65242" cy="744.467" r="4" fill="#0" id="circle3"/>
	<circle cx="9.65242" cy="857.516" r="4" fill="#0" id="circle4"/>
	<circle cx="9.65242" cy="885.778" r="4" fill="#0" id="circle5"/>
	<circle cx="9.65242" cy="914.04" r="4" fill="#0" id="circle6"/>
	<circle cx="15.3048" cy="942.302" r="4" fill="#0" id="circle7"/>
	<circle cx="20.9573" cy="970.564" r="4" fill="#0" id="circle8"/>
	<circle cx="32.2621" cy="727.51" r="4" fill="#0" id="circle9"/>
	<circle cx="43.567" cy="990.348" r="4" fill="#0" id="circle10"/>
	<circle cx="60.5242" cy="235.749" r="4" fill="#0" id="circle11"/>
	<circle cx="60.5242" cy="264.011" r="4" fill="#0" id="circle12"/>
	<circle cx="60.5242" cy="727.51" r="4" fill="#0" id="circle13"/>
	<circle cx="71.8291" cy="297.926" r="4" fill="#0" id="circle14"/>
	<circle cx="71.8291" cy="996" r="4" fill="#0" id="circle15"/>
	<circle cx="74.6553" cy="326.188" r="4" fill="#0" id="circle16"/>
	<circle cx="77.4815" cy="597.504" r="4" fill="#0" id="circle17"/>
	<circle cx="77.4815" cy="625.766" r="4" fill="#0" id="circle18"/>
	<circle cx="77.4815" cy="654.028" r="4" fill="#0" id="circle19"/>
	<circle cx="77.4815" cy="682.291" r="4" fill="#0" id="circle20"/>
	<circle cx="83.1339" cy="218.792" r="4" fill="#0" id="circle21"/>
	<circle cx="83.1339" cy="569.242" r="4" fill="#0" id="circle22"/>
	<circle cx="83.1339" cy="710.553" r="4" fill="#0" id="circle23"/>
	<circle cx="88.7863" cy="351.624" r="4" fill="#0" id="circle24"/>
	<circle cx="88.7863" cy="495.761" r="4" fill="#0" id="circle25"/>
	<circle cx="88.7863" cy="524.023" r="4" fill="#0" id="circle26"/>
	<circle cx="100.091" cy="996" r="4" fill="#0" id="circle27"/>
	<circle cx="105.744" cy="201.835" r="4" fill="#0" id="circle28"/>
	<circle cx="105.744" cy="467.499" r="4" fill="#0" id="circle29"/>
	<circle cx="117.048" cy="362.929" r="4" fill="#0" id="circle30"/>
	<circle cx="128.353" cy="996" r="4" fill="#0" id="circle31"/>
	<circle cx="131.179" cy="453.368" r="4" fill="#0" id="circle32"/>
	<circle cx="134.006" cy="190.53" r="4" fill="#0" id="circle33"/>
	<circle cx="145.311" cy="371.407" r="4" fill="#0" id="circle34"/>
	<circle cx="150.963" cy="427.932" r="4" fill="#0" id="circle35"/>
	<circle cx="156.615" cy="984.695" r="4" fill="#0" id="circle36"/>
	<circle cx="162.268" cy="184.877" r="4" fill="#0" id="circle37"/>
	<circle cx="165.094" cy="394.017" r="4" fill="#0" id="circle38"/>
	<circle cx="184.877" cy="973.39" r="4" fill="#0" id="circle39"/>
	<circle cx="190.53" cy="167.92" r="4" fill="#0" id="circle40"/>
	<circle cx="213.14" cy="139.658" r="4" fill="#0" id="circle41"/>
	<circle cx="213.14" cy="973.39" r="4" fill="#0" id="circle42"/>
	<circle cx="227.271" cy="114.222" r="4" fill="#0" id="circle43"/>
	<circle cx="241.402" cy="979.043" r="4" fill="#0" id="circle44"/>
	<circle cx="244.228" cy="91.6125" r="4" fill="#0" id="circle45"/>
	<circle cx="266.838" cy="69.0028" r="4" fill="#0" id="circle46"/>
	<circle cx="269.664" cy="979.043" r="4" fill="#0" id="circle47"/>
	<circle cx="292.274" cy="54.8718" r="4" fill="#0" id="circle48"/>
	<circle cx="297.926" cy="984.695" r="4" fill="#0" id="circle49"/>
	<circle cx="317.709" cy="40.7407" r="4" fill="#0" id="circle50"/>
	<circle cx="326.188" cy="984.695" r="4" fill="#0" id="circle51"/>
	<circle cx="340.319" cy="23.7835" r="4" fill="#0" id="circle52"/>
	<circle cx="354.45" cy="990.348" r="4" fill="#0" id="circle53"/>
	<circle cx="362.929" cy="4" r="4" fill="#0" id="circle54"/>
	<circle cx="382.712" cy="990.348" r="4" fill="#0" id="circle55"/>
	<circle cx="391.191" cy="9.65242" r="4" fill="#0" id="circle56"/>
	<circle cx="410.974" cy="996" r="4" fill="#0" id="circle57"/>
	<circle cx="419.453" cy="15.3048" r="4" fill="#0" id="circle58"/>
	<circle cx="430.758" cy="43.567" r="4" fill="#0" id="circle59"/>
	<circle cx="439.236" cy="984.695" r="4" fill="#0" id="circle60"/>
	<circle cx="447.715" cy="66.1766" r="4" fill="#0" id="circle61"/>
	<circle cx="467.499" cy="973.39" r="4" fill="#0" id="circle62"/>
	<circle cx="475.977" cy="71.8291" r="4" fill="#0" id="circle63"/>
	<circle cx="481.63" cy="936.65" r="4" fill="#0" id="circle64"/>
	<circle cx="487.282" cy="908.387" r="4" fill="#0" id="circle65"/>
	<circle cx="492.934" cy="795.339" r="4" fill="#0" id="circle66"/>
	<circle cx="492.934" cy="823.601" r="4" fill="#0" id="circle67"/>
	<circle cx="492.934" cy="851.863" r="4" fill="#0" id="circle68"/>
	<circle cx="492.934" cy="880.125" r="4" fill="#0" id="circle69"/>
	<circle cx="495.761" cy="402.496" r="4" fill="#0" id="circle70"/>
	<circle cx="498.587" cy="430.758" r="4" fill="#0" id="circle71"/>
	<circle cx="498.587" cy="459.02" r="4" fill="#0" id="circle72"/>
	<circle cx="498.587" cy="487.282" r="4" fill="#0" id="circle73"/>
	<circle cx="498.587" cy="515.544" r="4" fill="#0" id="circle74"/>
	<circle cx="498.587" cy="543.806" r="4" fill="#0" id="circle75"/>
	<circle cx="501.413" cy="85.9601" r="4" fill="#0" id="circle76"/>
	<circle cx="504.239" cy="572.068" r="4" fill="#0" id="circle77"/>
	<circle cx="509.892" cy="377.06" r="4" fill="#0" id="circle78"/>
	<circle cx="509.892" cy="600.33" r="4" fill="#0" id="circle79"/>
	<circle cx="509.892" cy="628.593" r="4" fill="#0" id="circle80"/>
	<circle cx="509.892" cy="738.815" r="4" fill="#0" id="circle81"/>
	<circle cx="509.892" cy="767.077" r="4" fill="#0" id="circle82"/>
	<circle cx="515.544" cy="656.855" r="4" fill="#0" id="circle83"/>
	<circle cx="515.544" cy="685.117" r="4" fill="#0" id="circle84"/>
	<circle cx="521.197" cy="108.57" r="4" fill="#0" id="circle85"/>
	<circle cx="526.849" cy="354.45" r="4" fill="#0" id="circle86"/>
	<circle cx="535.328" cy="134.006" r="4" fill="#0" id="circle87"/>
	<circle cx="543.806" cy="331.84" r="4" fill="#0" id="circle88"/>
	<circle cx="546.632" cy="162.268" r="4" fill="#0" id="circle89"/>
	<circle cx="555.111" cy="190.53" r="4" fill="#0" id="circle90"/>
	<circle cx="557.937" cy="306.405" r="4" fill="#0" id="circle91"/>
	<circle cx="560.764" cy="218.792" r="4" fill="#0" id="circle92"/>
	<circle cx="566.416" cy="247.054" r="4" fill="#0" id="circle93"/>
	<circle cx="566.416" cy="275.316" r="4" fill="#0" id="circle94"/>
	</g>
</svg>