<?xml version="1.0" encoding="UTF-8" standalone="no"?>
<!-- Created with CurveBenchmark -->
<svg
	xmlns:dc="http://purl.org/dc/elements/1.1/"
	xmlns:cc="http://creativecommons.org/ns#"
	xmlns:rdf="http://www.w3.org/1999/02/22-rdf-syntax-ns#"
	xmlns:svg="http://www.w3.org/2000/svg"
	xmlns="http://www.w3.org/2000/svg"
	xmlns:sodipodi="http://sodipodi.sourceforge.net/DTD/sodipodi-0.dtd"
	xmlns:inkscape="http://www.inkscape.org/namespaces/inkscape"
	width="1000"
	height="1000"
	id="svg2"
	version="1.1"
	sodipodi:docname="manifold/gathang-face06.png.txt">
<defs
	id="defs4" />
<metadata
	id="metadata7">
	<rdf:RDF>
		<cc:Work
			rdf:about="">
			<dc:format>image/svg+xml</dc:format>
			<dc:type
				rdf:resource="http://purl.org/dc/dcmitype/StillImage" />
			<dc:title></dc:title>
		</cc:Work>
	</rdf:RDF>
</metadata>
<g
	inkscape:label="Layer 1"
	inkscape:groupmode="layer"
	id="layer1">
	<path style="fill:none;stroke:red;stroke-width:1px;stroke-linecap:butt;stroke-linejoin:miter;stroke-opacity:1" d="M 53.1089,287.195 53.1089,303.564 z" id="boundary" inkscape:connector-curvature="0" />
	<path style="fill:none;stroke:red;stroke-width:1px;stroke-linecap:butt;stroke-linejoin:miter;stroke-opacity:1" d="M 53.1089,287.195 61.2937,270.825 z" id="boundary" inkscape:connector-curvature="0" />
	<path style="fill:none;stroke:red;stroke-width:1px;stroke-linecap:butt;stroke-linejoin:miter;stroke-opacity:1" d="M 53.1089,319.934 53.1089,336.304 z" id="boundary" inkscape:connector-curvature="0" />
	<path style="fill:none;stroke:red;stroke-width:1px;stroke-linecap:butt;stroke-linejoin:miter;stroke-opacity:1" d="M 53.1089,319.934 53.1089,303.564 z" id="boundary" inkscape:connector-curvature="0" />
	<path style="fill:none;stroke:red;stroke-width:1px;stroke-linecap:butt;stroke-linejoin:miter;stroke-opacity:1" d="M 77.6634,188.977 77.6634,205.347 z" id="boundary" inkscape:connector-curvature="0" />
	<path style="fill:none;stroke:red;stroke-width:1px;stroke-linecap:butt;stroke-linejoin:miter;stroke-opacity:1" d="M 77.6634,205.347 69.4785,229.901 z" id="boundary" inkscape:connector-curvature="0" />
	<path style="fill:none;stroke:red;stroke-width:1px;stroke-linecap:butt;stroke-linejoin:miter;stroke-opacity:1" d="M 77.6634,188.977 85.8482,164.422 z" id="boundary" inkscape:connector-curvature="0" />
	<path style="fill:none;stroke:red;stroke-width:1px;stroke-linecap:butt;stroke-linejoin:miter;stroke-opacity:1" d="M 69.4785,229.901 69.4785,246.271 z" id="boundary" inkscape:connector-curvature="0" />
	<path style="fill:none;stroke:red;stroke-width:1px;stroke-linecap:butt;stroke-linejoin:miter;stroke-opacity:1" d="M 69.4785,246.271 61.2937,270.825 z" id="boundary" inkscape:connector-curvature="0" />
	<path style="fill:none;stroke:red;stroke-width:1px;stroke-linecap:butt;stroke-linejoin:miter;stroke-opacity:1" d="M 53.1089,352.673 53.1089,336.304 z" id="boundary" inkscape:connector-curvature="0" />
	<path style="fill:none;stroke:red;stroke-width:1px;stroke-linecap:butt;stroke-linejoin:miter;stroke-opacity:1" d="M 53.1089,352.673 53.1089,369.043 z" id="boundary" inkscape:connector-curvature="0" />
	<path style="fill:none;stroke:red;stroke-width:1px;stroke-linecap:butt;stroke-linejoin:miter;stroke-opacity:1" d="M 40.0132,445.98 25.2805,454.165 z" id="boundary" inkscape:connector-curvature="0" />
	<path style="fill:none;stroke:red;stroke-width:1px;stroke-linecap:butt;stroke-linejoin:miter;stroke-opacity:1" d="M 4,483.63 12.1848,467.261 z" id="boundary" inkscape:connector-curvature="0" />
	<path style="fill:none;stroke:red;stroke-width:1px;stroke-linecap:butt;stroke-linejoin:miter;stroke-opacity:1" d="M 25.2805,454.165 12.1848,467.261 z" id="boundary" inkscape:connector-curvature="0" />
	<path style="fill:none;stroke:red;stroke-width:1px;stroke-linecap:butt;stroke-linejoin:miter;stroke-opacity:1" d="M 40.0132,445.98 56.3828,445.98 z" id="boundary" inkscape:connector-curvature="0" />
	<path style="fill:none;stroke:red;stroke-width:1px;stroke-linecap:butt;stroke-linejoin:miter;stroke-opacity:1" d="M 53.1089,369.043 53.1089,385.413 z" id="boundary" inkscape:connector-curvature="0" />
	<path style="fill:none;stroke:red;stroke-width:1px;stroke-linecap:butt;stroke-linejoin:miter;stroke-opacity:1" d="M 61.2937,416.515 56.3828,445.98 z" id="boundary" inkscape:connector-curvature="0" />
	<path style="fill:none;stroke:red;stroke-width:1px;stroke-linecap:butt;stroke-linejoin:miter;stroke-opacity:1" d="M 61.2937,416.515 53.1089,401.782 z" id="boundary" inkscape:connector-curvature="0" />
	<path style="fill:none;stroke:red;stroke-width:1px;stroke-linecap:butt;stroke-linejoin:miter;stroke-opacity:1" d="M 53.1089,401.782 53.1089,385.413 z" id="boundary" inkscape:connector-curvature="0" />
	<path style="fill:none;stroke:red;stroke-width:1px;stroke-linecap:butt;stroke-linejoin:miter;stroke-opacity:1" d="M 202.073,31.8284 215.168,20.3696 z" id="boundary" inkscape:connector-curvature="0" />
	<path style="fill:none;stroke:red;stroke-width:1px;stroke-linecap:butt;stroke-linejoin:miter;stroke-opacity:1" d="M 215.168,20.3696 229.901,12.1848 z" id="boundary" inkscape:connector-curvature="0" />
	<path style="fill:none;stroke:red;stroke-width:1px;stroke-linecap:butt;stroke-linejoin:miter;stroke-opacity:1" d="M 229.901,12.1848 246.271,4 z" id="boundary" inkscape:connector-curvature="0" />
	<path style="fill:none;stroke:red;stroke-width:1px;stroke-linecap:butt;stroke-linejoin:miter;stroke-opacity:1" d="M 246.271,4 262.64,4 z" id="boundary" inkscape:connector-curvature="0" />
	<path style="fill:none;stroke:red;stroke-width:1px;stroke-linecap:butt;stroke-linejoin:miter;stroke-opacity:1" d="M 262.64,4 279.01,4 z" id="boundary" inkscape:connector-curvature="0" />
	<path style="fill:none;stroke:red;stroke-width:1px;stroke-linecap:butt;stroke-linejoin:miter;stroke-opacity:1" d="M 279.01,4 295.38,4 z" id="boundary" inkscape:connector-curvature="0" />
	<path style="fill:none;stroke:red;stroke-width:1px;stroke-linecap:butt;stroke-linejoin:miter;stroke-opacity:1" d="M 190.614,44.9241 202.073,31.8284 z" id="boundary" inkscape:connector-curvature="0" />
	<path style="fill:none;stroke:red;stroke-width:1px;stroke-linecap:butt;stroke-linejoin:miter;stroke-opacity:1" d="M 295.38,4 311.749,4 z" id="boundary" inkscape:connector-curvature="0" />
	<path style="fill:none;stroke:red;stroke-width:1px;stroke-linecap:butt;stroke-linejoin:miter;stroke-opacity:1" d="M 115.314,118.587 128.409,105.492 z" id="boundary" inkscape:connector-curvature="0" />
	<path style="fill:none;stroke:red;stroke-width:1px;stroke-linecap:butt;stroke-linejoin:miter;stroke-opacity:1" d="M 94.033,148.053 102.218,131.683 z" id="boundary" inkscape:connector-curvature="0" />
	<path style="fill:none;stroke:red;stroke-width:1px;stroke-linecap:butt;stroke-linejoin:miter;stroke-opacity:1" d="M 102.218,131.683 115.314,118.587 z" id="boundary" inkscape:connector-curvature="0" />
	<path style="fill:none;stroke:red;stroke-width:1px;stroke-linecap:butt;stroke-linejoin:miter;stroke-opacity:1" d="M 128.409,105.492 141.505,94.033 z" id="boundary" inkscape:connector-curvature="0" />
	<path style="fill:none;stroke:red;stroke-width:1px;stroke-linecap:butt;stroke-linejoin:miter;stroke-opacity:1" d="M 177.518,56.3828 190.614,44.9241 z" id="boundary" inkscape:connector-curvature="0" />
	<path style="fill:none;stroke:red;stroke-width:1px;stroke-linecap:butt;stroke-linejoin:miter;stroke-opacity:1" d="M 141.505,94.033 148.053,77.6634 z" id="boundary" inkscape:connector-curvature="0" />
	<path style="fill:none;stroke:red;stroke-width:1px;stroke-linecap:butt;stroke-linejoin:miter;stroke-opacity:1" d="M 148.053,77.6634 164.422,69.4785 z" id="boundary" inkscape:connector-curvature="0" />
	<path style="fill:none;stroke:red;stroke-width:1px;stroke-linecap:butt;stroke-linejoin:miter;stroke-opacity:1" d="M 177.518,56.3828 164.422,69.4785 z" id="boundary" inkscape:connector-curvature="0" />
	<path style="fill:none;stroke:red;stroke-width:1px;stroke-linecap:butt;stroke-linejoin:miter;stroke-opacity:1" d="M 85.8482,164.422 94.033,148.053 z" id="boundary" inkscape:connector-curvature="0" />
	<path style="fill:none;stroke:red;stroke-width:1px;stroke-linecap:butt;stroke-linejoin:miter;stroke-opacity:1" d="M 4,500 12.1848,514.733 z" id="boundary" inkscape:connector-curvature="0" />
	<path style="fill:none;stroke:red;stroke-width:1px;stroke-linecap:butt;stroke-linejoin:miter;stroke-opacity:1" d="M 20.3696,529.465 12.1848,514.733 z" id="boundary" inkscape:connector-curvature="0" />
	<path style="fill:none;stroke:red;stroke-width:1px;stroke-linecap:butt;stroke-linejoin:miter;stroke-opacity:1" d="M 20.3696,529.465 30.1914,542.561 z" id="boundary" inkscape:connector-curvature="0" />
	<path style="fill:none;stroke:red;stroke-width:1px;stroke-linecap:butt;stroke-linejoin:miter;stroke-opacity:1" d="M 4,500 4,483.63 z" id="boundary" inkscape:connector-curvature="0" />
	<path style="fill:none;stroke:red;stroke-width:1px;stroke-linecap:butt;stroke-linejoin:miter;stroke-opacity:1" d="M 43.2871,554.02 53.1089,567.116 z" id="boundary" inkscape:connector-curvature="0" />
	<path style="fill:none;stroke:red;stroke-width:1px;stroke-linecap:butt;stroke-linejoin:miter;stroke-opacity:1" d="M 43.2871,554.02 30.1914,542.561 z" id="boundary" inkscape:connector-curvature="0" />
	<path style="fill:none;stroke:red;stroke-width:1px;stroke-linecap:butt;stroke-linejoin:miter;stroke-opacity:1" d="M 69.4785,612.95 61.2937,598.218 z" id="boundary" inkscape:connector-curvature="0" />
	<path style="fill:none;stroke:red;stroke-width:1px;stroke-linecap:butt;stroke-linejoin:miter;stroke-opacity:1" d="M 61.2937,598.218 61.2937,581.848 z" id="boundary" inkscape:connector-curvature="0" />
	<path style="fill:none;stroke:red;stroke-width:1px;stroke-linecap:butt;stroke-linejoin:miter;stroke-opacity:1" d="M 80.9373,626.046 69.4785,612.95 z" id="boundary" inkscape:connector-curvature="0" />
	<path style="fill:none;stroke:red;stroke-width:1px;stroke-linecap:butt;stroke-linejoin:miter;stroke-opacity:1" d="M 53.1089,567.116 61.2937,581.848 z" id="boundary" inkscape:connector-curvature="0" />
	<path style="fill:none;stroke:red;stroke-width:1px;stroke-linecap:butt;stroke-linejoin:miter;stroke-opacity:1" d="M 80.9373,626.046 94.033,635.868 z" id="boundary" inkscape:connector-curvature="0" />
	<path style="fill:none;stroke:red;stroke-width:1px;stroke-linecap:butt;stroke-linejoin:miter;stroke-opacity:1" d="M 103.855,648.964 110.403,665.333 z" id="boundary" inkscape:connector-curvature="0" />
	<path style="fill:none;stroke:red;stroke-width:1px;stroke-linecap:butt;stroke-linejoin:miter;stroke-opacity:1" d="M 110.403,665.333 110.403,681.703 z" id="boundary" inkscape:connector-curvature="0" />
	<path style="fill:none;stroke:red;stroke-width:1px;stroke-linecap:butt;stroke-linejoin:miter;stroke-opacity:1" d="M 94.033,635.868 103.855,648.964 z" id="boundary" inkscape:connector-curvature="0" />
	<path style="fill:none;stroke:red;stroke-width:1px;stroke-linecap:butt;stroke-linejoin:miter;stroke-opacity:1" d="M 110.403,681.703 110.403,698.073 z" id="boundary" inkscape:connector-curvature="0" />
	<path style="fill:none;stroke:red;stroke-width:1px;stroke-linecap:butt;stroke-linejoin:miter;stroke-opacity:1" d="M 110.403,698.073 118.587,712.805 z" id="boundary" inkscape:connector-curvature="0" />
	<path style="fill:none;stroke:red;stroke-width:1px;stroke-linecap:butt;stroke-linejoin:miter;stroke-opacity:1" d="M 126.772,727.538 134.957,742.271 z" id="boundary" inkscape:connector-curvature="0" />
	<path style="fill:none;stroke:red;stroke-width:1px;stroke-linecap:butt;stroke-linejoin:miter;stroke-opacity:1" d="M 134.957,742.271 139.868,758.64 z" id="boundary" inkscape:connector-curvature="0" />
	<path style="fill:none;stroke:red;stroke-width:1px;stroke-linecap:butt;stroke-linejoin:miter;stroke-opacity:1" d="M 152.964,770.099 139.868,758.64 z" id="boundary" inkscape:connector-curvature="0" />
	<path style="fill:none;stroke:red;stroke-width:1px;stroke-linecap:butt;stroke-linejoin:miter;stroke-opacity:1" d="M 118.587,712.805 126.772,727.538 z" id="boundary" inkscape:connector-curvature="0" />
	<path style="fill:none;stroke:red;stroke-width:1px;stroke-linecap:butt;stroke-linejoin:miter;stroke-opacity:1" d="M 152.964,770.099 164.422,783.195 z" id="boundary" inkscape:connector-curvature="0" />
	<path style="fill:none;stroke:red;stroke-width:1px;stroke-linecap:butt;stroke-linejoin:miter;stroke-opacity:1" d="M 159.512,819.208 167.696,799.564 z" id="boundary" inkscape:connector-curvature="0" />
	<path style="fill:none;stroke:red;stroke-width:1px;stroke-linecap:butt;stroke-linejoin:miter;stroke-opacity:1" d="M 167.696,833.941 159.512,819.208 z" id="boundary" inkscape:connector-curvature="0" />
	<path style="fill:none;stroke:red;stroke-width:1px;stroke-linecap:butt;stroke-linejoin:miter;stroke-opacity:1" d="M 164.422,783.195 167.696,799.564 z" id="boundary" inkscape:connector-curvature="0" />
	<path style="fill:none;stroke:red;stroke-width:1px;stroke-linecap:butt;stroke-linejoin:miter;stroke-opacity:1" d="M 179.155,847.036 167.696,833.941 z" id="boundary" inkscape:connector-curvature="0" />
	<path style="fill:none;stroke:red;stroke-width:1px;stroke-linecap:butt;stroke-linejoin:miter;stroke-opacity:1" d="M 229.901,889.597 215.168,881.413 z" id="boundary" inkscape:connector-curvature="0" />
	<path style="fill:none;stroke:red;stroke-width:1px;stroke-linecap:butt;stroke-linejoin:miter;stroke-opacity:1" d="M 215.168,881.413 202.073,869.954 z" id="boundary" inkscape:connector-curvature="0" />
	<path style="fill:none;stroke:red;stroke-width:1px;stroke-linecap:butt;stroke-linejoin:miter;stroke-opacity:1" d="M 202.073,869.954 192.251,856.858 z" id="boundary" inkscape:connector-curvature="0" />
	<path style="fill:none;stroke:red;stroke-width:1px;stroke-linecap:butt;stroke-linejoin:miter;stroke-opacity:1" d="M 179.155,847.036 192.251,856.858 z" id="boundary" inkscape:connector-curvature="0" />
	<path style="fill:none;stroke:red;stroke-width:1px;stroke-linecap:butt;stroke-linejoin:miter;stroke-opacity:1" d="M 242.997,901.056 254.455,914.152 z" id="boundary" inkscape:connector-curvature="0" />
	<path style="fill:none;stroke:red;stroke-width:1px;stroke-linecap:butt;stroke-linejoin:miter;stroke-opacity:1" d="M 242.997,901.056 229.901,889.597 z" id="boundary" inkscape:connector-curvature="0" />
	<path style="fill:none;stroke:red;stroke-width:1px;stroke-linecap:butt;stroke-linejoin:miter;stroke-opacity:1" d="M 254.455,914.152 267.551,925.611 z" id="boundary" inkscape:connector-curvature="0" />
	<path style="fill:none;stroke:red;stroke-width:1px;stroke-linecap:butt;stroke-linejoin:miter;stroke-opacity:1" d="M 267.551,925.611 274.099,941.98 z" id="boundary" inkscape:connector-curvature="0" />
	<path style="fill:none;stroke:red;stroke-width:1px;stroke-linecap:butt;stroke-linejoin:miter;stroke-opacity:1" d="M 287.195,953.439 274.099,941.98 z" id="boundary" inkscape:connector-curvature="0" />
	<path style="fill:none;stroke:red;stroke-width:1px;stroke-linecap:butt;stroke-linejoin:miter;stroke-opacity:1" d="M 287.195,953.439 298.653,966.535 z" id="boundary" inkscape:connector-curvature="0" />
	<path style="fill:none;stroke:red;stroke-width:1px;stroke-linecap:butt;stroke-linejoin:miter;stroke-opacity:1" d="M 311.749,977.993 298.653,966.535 z" id="boundary" inkscape:connector-curvature="0" />
	<path style="fill:none;stroke:red;stroke-width:1px;stroke-linecap:butt;stroke-linejoin:miter;stroke-opacity:1" d="M 355.947,991.089 339.578,996 z" id="boundary" inkscape:connector-curvature="0" />
	<path style="fill:none;stroke:red;stroke-width:1px;stroke-linecap:butt;stroke-linejoin:miter;stroke-opacity:1" d="M 339.578,996 323.208,991.089 z" id="boundary" inkscape:connector-curvature="0" />
	<path style="fill:none;stroke:red;stroke-width:1px;stroke-linecap:butt;stroke-linejoin:miter;stroke-opacity:1" d="M 323.208,991.089 311.749,977.993 z" id="boundary" inkscape:connector-curvature="0" />
	<path style="fill:none;stroke:red;stroke-width:1px;stroke-linecap:butt;stroke-linejoin:miter;stroke-opacity:1" d="M 328.119,4 342.851,12.1848 z" id="boundary" inkscape:connector-curvature="0" />
	<path style="fill:none;stroke:red;stroke-width:1px;stroke-linecap:butt;stroke-linejoin:miter;stroke-opacity:1" d="M 311.749,4 328.119,4 z" id="boundary" inkscape:connector-curvature="0" />
	<path style="fill:none;stroke:red;stroke-width:1px;stroke-linecap:butt;stroke-linejoin:miter;stroke-opacity:1" d="M 357.584,20.3696 342.851,12.1848 z" id="boundary" inkscape:connector-curvature="0" />
	<path style="fill:none;stroke:red;stroke-width:1px;stroke-linecap:butt;stroke-linejoin:miter;stroke-opacity:1" d="M 373.954,20.3696 357.584,20.3696 z" id="boundary" inkscape:connector-curvature="0" />
	<path style="fill:none;stroke:red;stroke-width:1px;stroke-linecap:butt;stroke-linejoin:miter;stroke-opacity:1" d="M 373.954,20.3696 390.323,20.3696 z" id="boundary" inkscape:connector-curvature="0" />
	<path style="fill:none;stroke:red;stroke-width:1px;stroke-linecap:butt;stroke-linejoin:miter;stroke-opacity:1" d="M 390.323,20.3696 403.419,30.1914 z" id="boundary" inkscape:connector-curvature="0" />
	<path style="fill:none;stroke:red;stroke-width:1px;stroke-linecap:butt;stroke-linejoin:miter;stroke-opacity:1" d="M 459.076,36.7393 442.706,44.9241 z" id="boundary" inkscape:connector-curvature="0" />
	<path style="fill:none;stroke:red;stroke-width:1px;stroke-linecap:butt;stroke-linejoin:miter;stroke-opacity:1" d="M 475.446,36.7393 491.815,36.7393 z" id="boundary" inkscape:connector-curvature="0" />
	<path style="fill:none;stroke:red;stroke-width:1px;stroke-linecap:butt;stroke-linejoin:miter;stroke-opacity:1" d="M 475.446,36.7393 459.076,36.7393 z" id="boundary" inkscape:connector-curvature="0" />
	<path style="fill:none;stroke:red;stroke-width:1px;stroke-linecap:butt;stroke-linejoin:miter;stroke-opacity:1" d="M 491.815,36.7393 508.185,36.7393 z" id="boundary" inkscape:connector-curvature="0" />
	<path style="fill:none;stroke:red;stroke-width:1px;stroke-linecap:butt;stroke-linejoin:miter;stroke-opacity:1" d="M 508.185,36.7393 522.917,44.9241 z" id="boundary" inkscape:connector-curvature="0" />
	<path style="fill:none;stroke:red;stroke-width:1px;stroke-linecap:butt;stroke-linejoin:miter;stroke-opacity:1" d="M 403.419,30.1914 414.878,43.2871 z" id="boundary" inkscape:connector-curvature="0" />
	<path style="fill:none;stroke:red;stroke-width:1px;stroke-linecap:butt;stroke-linejoin:miter;stroke-opacity:1" d="M 442.706,44.9241 427.974,53.1089 z" id="boundary" inkscape:connector-curvature="0" />
	<path style="fill:none;stroke:red;stroke-width:1px;stroke-linecap:butt;stroke-linejoin:miter;stroke-opacity:1" d="M 427.974,53.1089 414.878,43.2871 z" id="boundary" inkscape:connector-curvature="0" />
	<path style="fill:none;stroke:red;stroke-width:1px;stroke-linecap:butt;stroke-linejoin:miter;stroke-opacity:1" d="M 522.917,44.9241 537.65,53.1089 z" id="boundary" inkscape:connector-curvature="0" />
	<path style="fill:none;stroke:red;stroke-width:1px;stroke-linecap:butt;stroke-linejoin:miter;stroke-opacity:1" d="M 562.205,76.0264 550.746,62.9307 z" id="boundary" inkscape:connector-curvature="0" />
	<path style="fill:none;stroke:red;stroke-width:1px;stroke-linecap:butt;stroke-linejoin:miter;stroke-opacity:1" d="M 575.3,87.4851 562.205,76.0264 z" id="boundary" inkscape:connector-curvature="0" />
	<path style="fill:none;stroke:red;stroke-width:1px;stroke-linecap:butt;stroke-linejoin:miter;stroke-opacity:1" d="M 581.848,103.855 586.759,120.224 z" id="boundary" inkscape:connector-curvature="0" />
	<path style="fill:none;stroke:red;stroke-width:1px;stroke-linecap:butt;stroke-linejoin:miter;stroke-opacity:1" d="M 581.848,103.855 575.3,87.4851 z" id="boundary" inkscape:connector-curvature="0" />
	<path style="fill:none;stroke:red;stroke-width:1px;stroke-linecap:butt;stroke-linejoin:miter;stroke-opacity:1" d="M 594.944,134.957 586.759,120.224 z" id="boundary" inkscape:connector-curvature="0" />
	<path style="fill:none;stroke:red;stroke-width:1px;stroke-linecap:butt;stroke-linejoin:miter;stroke-opacity:1" d="M 537.65,53.1089 550.746,62.9307 z" id="boundary" inkscape:connector-curvature="0" />
	<path style="fill:none;stroke:red;stroke-width:1px;stroke-linecap:butt;stroke-linejoin:miter;stroke-opacity:1" d="M 594.944,134.957 603.129,149.69 z" id="boundary" inkscape:connector-curvature="0" />
	<path style="fill:none;stroke:red;stroke-width:1px;stroke-linecap:butt;stroke-linejoin:miter;stroke-opacity:1" d="M 603.129,149.69 603.129,166.059 z" id="boundary" inkscape:connector-curvature="0" />
	<path style="fill:none;stroke:red;stroke-width:1px;stroke-linecap:butt;stroke-linejoin:miter;stroke-opacity:1" d="M 603.129,166.059 611.314,180.792 z" id="boundary" inkscape:connector-curvature="0" />
	<path style="fill:none;stroke:red;stroke-width:1px;stroke-linecap:butt;stroke-linejoin:miter;stroke-opacity:1" d="M 619.498,195.525 611.314,180.792 z" id="boundary" inkscape:connector-curvature="0" />
	<path style="fill:none;stroke:red;stroke-width:1px;stroke-linecap:butt;stroke-linejoin:miter;stroke-opacity:1" d="M 619.498,195.525 619.498,211.894 z" id="boundary" inkscape:connector-curvature="0" />
	<path style="fill:none;stroke:red;stroke-width:1px;stroke-linecap:butt;stroke-linejoin:miter;stroke-opacity:1" d="M 624.409,228.264 619.498,211.894 z" id="boundary" inkscape:connector-curvature="0" />
	<path style="fill:none;stroke:red;stroke-width:1px;stroke-linecap:butt;stroke-linejoin:miter;stroke-opacity:1" d="M 624.409,228.264 627.683,244.634 z" id="boundary" inkscape:connector-curvature="0" />
	<path style="fill:none;stroke:red;stroke-width:1px;stroke-linecap:butt;stroke-linejoin:miter;stroke-opacity:1" d="M 627.683,244.634 627.683,261.003 z" id="boundary" inkscape:connector-curvature="0" />
	<path style="fill:none;stroke:red;stroke-width:1px;stroke-linecap:butt;stroke-linejoin:miter;stroke-opacity:1" d="M 627.683,277.373 627.683,261.003 z" id="boundary" inkscape:connector-curvature="0" />
	<path style="fill:none;stroke:red;stroke-width:1px;stroke-linecap:butt;stroke-linejoin:miter;stroke-opacity:1" d="M 627.683,277.373 627.683,293.743 z" id="boundary" inkscape:connector-curvature="0" />
	<path style="fill:none;stroke:red;stroke-width:1px;stroke-linecap:butt;stroke-linejoin:miter;stroke-opacity:1" d="M 627.683,310.112 627.683,293.743 z" id="boundary" inkscape:connector-curvature="0" />
	<path style="fill:none;stroke:red;stroke-width:1px;stroke-linecap:butt;stroke-linejoin:miter;stroke-opacity:1" d="M 627.683,310.112 627.683,326.482 z" id="boundary" inkscape:connector-curvature="0" />
	<path style="fill:none;stroke:red;stroke-width:1px;stroke-linecap:butt;stroke-linejoin:miter;stroke-opacity:1" d="M 627.683,342.851 627.683,326.482 z" id="boundary" inkscape:connector-curvature="0" />
	<path style="fill:none;stroke:red;stroke-width:1px;stroke-linecap:butt;stroke-linejoin:miter;stroke-opacity:1" d="M 627.683,359.221 627.683,342.851 z" id="boundary" inkscape:connector-curvature="0" />
	<path style="fill:none;stroke:red;stroke-width:1px;stroke-linecap:butt;stroke-linejoin:miter;stroke-opacity:1" d="M 627.683,359.221 627.683,375.591 z" id="boundary" inkscape:connector-curvature="0" />
	<path style="fill:none;stroke:red;stroke-width:1px;stroke-linecap:butt;stroke-linejoin:miter;stroke-opacity:1" d="M 637.505,421.426 627.683,408.33 z" id="boundary" inkscape:connector-curvature="0" />
	<path style="fill:none;stroke:red;stroke-width:1px;stroke-linecap:butt;stroke-linejoin:miter;stroke-opacity:1" d="M 627.683,408.33 627.683,391.96 z" id="boundary" inkscape:connector-curvature="0" />
	<path style="fill:none;stroke:red;stroke-width:1px;stroke-linecap:butt;stroke-linejoin:miter;stroke-opacity:1" d="M 627.683,391.96 627.683,375.591 z" id="boundary" inkscape:connector-curvature="0" />
	<path style="fill:none;stroke:red;stroke-width:1px;stroke-linecap:butt;stroke-linejoin:miter;stroke-opacity:1" d="M 637.505,421.426 644.053,437.795 z" id="boundary" inkscape:connector-curvature="0" />
	<path style="fill:none;stroke:red;stroke-width:1px;stroke-linecap:butt;stroke-linejoin:miter;stroke-opacity:1" d="M 521.281,856.858 534.376,845.399 z" id="boundary" inkscape:connector-curvature="0" />
	<path style="fill:none;stroke:red;stroke-width:1px;stroke-linecap:butt;stroke-linejoin:miter;stroke-opacity:1" d="M 509.822,869.954 521.281,856.858 z" id="boundary" inkscape:connector-curvature="0" />
	<path style="fill:none;stroke:red;stroke-width:1px;stroke-linecap:butt;stroke-linejoin:miter;stroke-opacity:1" d="M 537.65,824.119 534.376,845.399 z" id="boundary" inkscape:connector-curvature="0" />
	<path style="fill:none;stroke:red;stroke-width:1px;stroke-linecap:butt;stroke-linejoin:miter;stroke-opacity:1" d="M 496.726,881.413 509.822,869.954 z" id="boundary" inkscape:connector-curvature="0" />
	<path style="fill:none;stroke:red;stroke-width:1px;stroke-linecap:butt;stroke-linejoin:miter;stroke-opacity:1" d="M 485.267,902.693 496.726,881.413 z" id="boundary" inkscape:connector-curvature="0" />
	<path style="fill:none;stroke:red;stroke-width:1px;stroke-linecap:butt;stroke-linejoin:miter;stroke-opacity:1" d="M 537.65,758.64 537.65,775.01 z" id="boundary" inkscape:connector-curvature="0" />
	<path style="fill:none;stroke:red;stroke-width:1px;stroke-linecap:butt;stroke-linejoin:miter;stroke-opacity:1" d="M 537.65,758.64 537.65,742.271 z" id="boundary" inkscape:connector-curvature="0" />
	<path style="fill:none;stroke:red;stroke-width:1px;stroke-linecap:butt;stroke-linejoin:miter;stroke-opacity:1" d="M 537.65,742.271 545.835,725.901 z" id="boundary" inkscape:connector-curvature="0" />
	<path style="fill:none;stroke:red;stroke-width:1px;stroke-linecap:butt;stroke-linejoin:miter;stroke-opacity:1" d="M 537.65,775.01 537.65,791.38 z" id="boundary" inkscape:connector-curvature="0" />
	<path style="fill:none;stroke:red;stroke-width:1px;stroke-linecap:butt;stroke-linejoin:miter;stroke-opacity:1" d="M 537.65,807.749 537.65,791.38 z" id="boundary" inkscape:connector-curvature="0" />
	<path style="fill:none;stroke:red;stroke-width:1px;stroke-linecap:butt;stroke-linejoin:miter;stroke-opacity:1" d="M 537.65,807.749 537.65,824.119 z" id="boundary" inkscape:connector-curvature="0" />
	<path style="fill:none;stroke:red;stroke-width:1px;stroke-linecap:butt;stroke-linejoin:miter;stroke-opacity:1" d="M 385.413,977.993 398.508,963.261 z" id="boundary" inkscape:connector-curvature="0" />
	<path style="fill:none;stroke:red;stroke-width:1px;stroke-linecap:butt;stroke-linejoin:miter;stroke-opacity:1" d="M 385.413,977.993 372.317,987.815 z" id="boundary" inkscape:connector-curvature="0" />
	<path style="fill:none;stroke:red;stroke-width:1px;stroke-linecap:butt;stroke-linejoin:miter;stroke-opacity:1" d="M 372.317,987.815 355.947,991.089 z" id="boundary" inkscape:connector-curvature="0" />
	<path style="fill:none;stroke:red;stroke-width:1px;stroke-linecap:butt;stroke-linejoin:miter;stroke-opacity:1" d="M 398.508,963.261 411.604,951.802 z" id="boundary" inkscape:connector-curvature="0" />
	<path style="fill:none;stroke:red;stroke-width:1px;stroke-linecap:butt;stroke-linejoin:miter;stroke-opacity:1" d="M 411.604,951.802 427.974,943.617 z" id="boundary" inkscape:connector-curvature="0" />
	<path style="fill:none;stroke:red;stroke-width:1px;stroke-linecap:butt;stroke-linejoin:miter;stroke-opacity:1" d="M 468.898,910.878 485.267,902.693 z" id="boundary" inkscape:connector-curvature="0" />
	<path style="fill:none;stroke:red;stroke-width:1px;stroke-linecap:butt;stroke-linejoin:miter;stroke-opacity:1" d="M 455.802,922.337 468.898,910.878 z" id="boundary" inkscape:connector-curvature="0" />
	<path style="fill:none;stroke:red;stroke-width:1px;stroke-linecap:butt;stroke-linejoin:miter;stroke-opacity:1" d="M 427.974,943.617 439.432,930.521 z" id="boundary" inkscape:connector-curvature="0" />
	<path style="fill:none;stroke:red;stroke-width:1px;stroke-linecap:butt;stroke-linejoin:miter;stroke-opacity:1" d="M 439.432,930.521 455.802,922.337 z" id="boundary" inkscape:connector-curvature="0" />
	<path style="fill:none;stroke:red;stroke-width:1px;stroke-linecap:butt;stroke-linejoin:miter;stroke-opacity:1" d="M 627.683,521.281 627.683,537.65 z" id="boundary" inkscape:connector-curvature="0" />
	<path style="fill:none;stroke:red;stroke-width:1px;stroke-linecap:butt;stroke-linejoin:miter;stroke-opacity:1" d="M 627.683,537.65 619.498,562.205 z" id="boundary" inkscape:connector-curvature="0" />
	<path style="fill:none;stroke:red;stroke-width:1px;stroke-linecap:butt;stroke-linejoin:miter;stroke-opacity:1" d="M 627.683,521.281 640.779,509.822 z" id="boundary" inkscape:connector-curvature="0" />
	<path style="fill:none;stroke:red;stroke-width:1px;stroke-linecap:butt;stroke-linejoin:miter;stroke-opacity:1" d="M 616.224,591.67 619.498,562.205 z" id="boundary" inkscape:connector-curvature="0" />
	<path style="fill:none;stroke:red;stroke-width:1px;stroke-linecap:butt;stroke-linejoin:miter;stroke-opacity:1" d="M 616.224,591.67 603.129,603.129 z" id="boundary" inkscape:connector-curvature="0" />
	<path style="fill:none;stroke:red;stroke-width:1px;stroke-linecap:butt;stroke-linejoin:miter;stroke-opacity:1" d="M 644.053,437.795 652.238,452.528 z" id="boundary" inkscape:connector-curvature="0" />
	<path style="fill:none;stroke:red;stroke-width:1px;stroke-linecap:butt;stroke-linejoin:miter;stroke-opacity:1" d="M 652.238,452.528 652.238,468.898 z" id="boundary" inkscape:connector-curvature="0" />
	<path style="fill:none;stroke:red;stroke-width:1px;stroke-linecap:butt;stroke-linejoin:miter;stroke-opacity:1" d="M 648.964,493.452 640.779,509.822 z" id="boundary" inkscape:connector-curvature="0" />
	<path style="fill:none;stroke:red;stroke-width:1px;stroke-linecap:butt;stroke-linejoin:miter;stroke-opacity:1" d="M 652.238,468.898 648.964,493.452 z" id="boundary" inkscape:connector-curvature="0" />
	<path style="fill:none;stroke:red;stroke-width:1px;stroke-linecap:butt;stroke-linejoin:miter;stroke-opacity:1" d="M 570.389,627.683 570.389,644.053 z" id="boundary" inkscape:connector-curvature="0" />
	<path style="fill:none;stroke:red;stroke-width:1px;stroke-linecap:butt;stroke-linejoin:miter;stroke-opacity:1" d="M 562.205,693.162 554.02,709.531 z" id="boundary" inkscape:connector-curvature="0" />
	<path style="fill:none;stroke:red;stroke-width:1px;stroke-linecap:butt;stroke-linejoin:miter;stroke-opacity:1" d="M 545.835,725.901 554.02,709.531 z" id="boundary" inkscape:connector-curvature="0" />
	<path style="fill:none;stroke:red;stroke-width:1px;stroke-linecap:butt;stroke-linejoin:miter;stroke-opacity:1" d="M 562.205,693.162 570.389,676.792 z" id="boundary" inkscape:connector-curvature="0" />
	<path style="fill:none;stroke:red;stroke-width:1px;stroke-linecap:butt;stroke-linejoin:miter;stroke-opacity:1" d="M 586.759,619.498 603.129,603.129 z" id="boundary" inkscape:connector-curvature="0" />
	<path style="fill:none;stroke:red;stroke-width:1px;stroke-linecap:butt;stroke-linejoin:miter;stroke-opacity:1" d="M 586.759,619.498 570.389,627.683 z" id="boundary" inkscape:connector-curvature="0" />
	<path style="fill:none;stroke:red;stroke-width:1px;stroke-linecap:butt;stroke-linejoin:miter;stroke-opacity:1" d="M 570.389,644.053 570.389,660.422 z" id="boundary" inkscape:connector-curvature="0" />
	<path style="fill:none;stroke:red;stroke-width:1px;stroke-linecap:butt;stroke-linejoin:miter;stroke-opacity:1" d="M 570.389,676.792 570.389,660.422 z" id="boundary" inkscape:connector-curvature="0" />
	<circle cx="4" cy="483.63" r="4" fill="#0" id="circle0"/>
	<circle cx="4" cy="500" r="4" fill="#0" id="circle1"/>
	<circle cx="12.1848" cy="467.261" r="4" fill="#0" id="circle2"/>
	<circle cx="12.1848" cy="514.733" r="4" fill="#0" id="circle3"/>
	<circle cx="20.3696" cy="529.465" r="4" fill="#0" id="circle4"/>
	<circle cx="25.2805" cy="454.165" r="4" fill="#0" id="circle5"/>
	<circle cx="30.1914" cy="542.561" r="4" fill="#0" id="circle6"/>
	<circle cx="40.0132" cy="445.98" r="4" fill="#0" id="circle7"/>
	<circle cx="43.2871" cy="554.02" r="4" fill="#0" id="circle8"/>
	<circle cx="53.1089" cy="287.195" r="4" fill="#0" id="circle9"/>
	<circle cx="53.1089" cy="303.564" r="4" fill="#0" id="circle10"/>
	<circle cx="53.1089" cy="319.934" r="4" fill="#0" id="circle11"/>
	<circle cx="53.1089" cy="336.304" r="4" fill="#0" id="circle12"/>
	<circle cx="53.1089" cy="352.673" r="4" fill="#0" id="circle13"/>
	<circle cx="53.1089" cy="369.043" r="4" fill="#0" id="circle14"/>
	<circle cx="53.1089" cy="385.413" r="4" fill="#0" id="circle15"/>
	<circle cx="53.1089" cy="401.782" r="4" fill="#0" id="circle16"/>
	<circle cx="53.1089" cy="567.116" r="4" fill="#0" id="circle17"/>
	<circle cx="56.3828" cy="445.98" r="4" fill="#0" id="circle18"/>
	<circle cx="61.2937" cy="270.825" r="4" fill="#0" id="circle19"/>
	<circle cx="61.2937" cy="416.515" r="4" fill="#0" id="circle20"/>
	<circle cx="61.2937" cy="581.848" r="4" fill="#0" id="circle21"/>
	<circle cx="61.2937" cy="598.218" r="4" fill="#0" id="circle22"/>
	<circle cx="69.4785" cy="229.901" r="4" fill="#0" id="circle23"/>
	<circle cx="69.4785" cy="246.271" r="4" fill="#0" id="circle24"/>
	<circle cx="69.4785" cy="612.95" r="4" fill="#0" id="circle25"/>
	<circle cx="77.6634" cy="188.977" r="4" fill="#0" id="circle26"/>
	<circle cx="77.6634" cy="205.347" r="4" fill="#0" id="circle27"/>
	<circle cx="80.9373" cy="626.046" r="4" fill="#0" id="circle28"/>
	<circle cx="85.8482" cy="164.422" r="4" fill="#0" id="circle29"/>
	<circle cx="94.033" cy="148.053" r="4" fill="#0" id="circle30"/>
	<circle cx="94.033" cy="635.868" r="4" fill="#0" id="circle31"/>
	<circle cx="102.218" cy="131.683" r="4" fill="#0" id="circle32"/>
	<circle cx="103.855" cy="648.964" r="4" fill="#0" id="circle33"/>
	<circle cx="110.403" cy="665.333" r="4" fill="#0" id="circle34"/>
	<circle cx="110.403" cy="681.703" r="4" fill="#0" id="circle35"/>
	<circle cx="110.403" cy="698.073" r="4" fill="#0" id="circle36"/>
	<circle cx="115.314" cy="118.587" r="4" fill="#0" id="circle37"/>
	<circle cx="118.587" cy="712.805" r="4" fill="#0" id="circle38"/>
	<circle cx="126.772" cy="727.538" r="4" fill="#0" id="circle39"/>
	<circle cx="128.409" cy="105.492" r="4" fill="#0" id="circle40"/>
	<circle cx="134.957" cy="742.271" r="4" fill="#0" id="circle41"/>
	<circle cx="139.868" cy="758.64" r="4" fill="#0" id="circle42"/>
	<circle cx="141.505" cy="94.033" r="4" fill="#0" id="circle43"/>
	<circle cx="148.053" cy="77.6634" r="4" fill="#0" id="circle44"/>
	<circle cx="152.964" cy="770.099" r="4" fill="#0" id="circle45"/>
	<circle cx="159.512" cy="819.208" r="4" fill="#0" id="circle46"/>
	<circle cx="164.422" cy="69.4785" r="4" fill="#0" id="circle47"/>
	<circle cx="164.422" cy="783.195" r="4" fill="#0" id="circle48"/>
	<circle cx="167.696" cy="799.564" r="4" fill="#0" id="circle49"/>
	<circle cx="167.696" cy="833.941" r="4" fill="#0" id="circle50"/>
	<circle cx="177.518" cy="56.3828" r="4" fill="#0" id="circle51"/>
	<circle cx="179.155" cy="847.036" r="4" fill="#0" id="circle52"/>
	<circle cx="190.614" cy="44.9241" r="4" fill="#0" id="circle53"/>
	<circle cx="192.251" cy="856.858" r="4" fill="#0" id="circle54"/>
	<circle cx="202.073" cy="31.8284" r="4" fill="#0" id="circle55"/>
	<circle cx="202.073" cy="869.954" r="4" fill="#0" id="circle56"/>
	<circle cx="215.168" cy="20.3696" r="4" fill="#0" id="circle57"/>
	<circle cx="215.168" cy="881.413" r="4" fill="#0" id="circle58"/>
	<circle cx="229.901" cy="12.1848" r="4" fill="#0" id="circle59"/>
	<circle cx="229.901" cy="889.597" r="4" fill="#0" id="circle60"/>
	<circle cx="242.997" cy="901.056" r="4" fill="#0" id="circle61"/>
	<circle cx="246.271" cy="4" r="4" fill="#0" id="circle62"/>
	<circle cx="254.455" cy="914.152" r="4" fill="#0" id="circle63"/>
	<circle cx="262.64" cy="4" r="4" fill="#0" id="circle64"/>
	<circle cx="267.551" cy="925.611" r="4" fill="#0" id="circle65"/>
	<circle cx="274.099" cy="941.98" r="4" fill="#0" id="circle66"/>
	<circle cx="279.01" cy="4" r="4" fill="#0" id="circle67"/>
	<circle cx="287.195" cy="953.439" r="4" fill="#0" id="circle68"/>
	<circle cx="295.38" cy="4" r="4" fill="#0" id="circle69"/>
	<circle cx="298.653" cy="966.535" r="4" fill="#0" id="circle70"/>
	<circle cx="311.749" cy="4" r="4" fill="#0" id="circle71"/>
	<circle cx="311.749" cy="977.993" r="4" fill="#0" id="circle72"/>
	<circle cx="323.208" cy="991.089" r="4" fill="#0" id="circle73"/>
	<circle cx="328.119" cy="4" r="4" fill="#0" id="circle74"/>
	<circle cx="339.578" cy="996" r="4" fill="#0" id="circle75"/>
	<circle cx="342.851" cy="12.1848" r="4" fill="#0" id="circle76"/>
	<circle cx="355.947" cy="991.089" r="4" fill="#0" id="circle77"/>
	<circle cx="357.584" cy="20.3696" r="4" fill="#0" id="circle78"/>
	<circle cx="372.317" cy="987.815" r="4" fill="#0" id="circle79"/>
	<circle cx="373.954" cy="20.3696" r="4" fill="#0" id="circle80"/>
	<circle cx="385.413" cy="977.993" r="4" fill="#0" id="circle81"/>
	<circle cx="390.323" cy="20.3696" r="4" fill="#0" id="circle82"/>
	<circle cx="398.508" cy="963.261" r="4" fill="#0" id="circle83"/>
	<circle cx="403.419" cy="30.1914" r="4" fill="#0" id="circle84"/>
	<circle cx="411.604" cy="951.802" r="4" fill="#0" id="circle85"/>
	<circle cx="414.878" cy="43.2871" r="4" fill="#0" id="circle86"/>
	<circle cx="427.974" cy="53.1089" r="4" fill="#0" id="circle87"/>
	<circle cx="427.974" cy="943.617" r="4" fill="#0" id="circle88"/>
	<circle cx="439.432" cy="930.521" r="4" fill="#0" id="circle89"/>
	<circle cx="442.706" cy="44.9241" r="4" fill="#0" id="circle90"/>
	<circle cx="455.802" cy="922.337" r="4" fill="#0" id="circle91"/>
	<circle cx="459.076" cy="36.7393" r="4" fill="#0" id="circle92"/>
	<circle cx="468.898" cy="910.878" r="4" fill="#0" id="circle93"/>
	<circle cx="475.446" cy="36.7393" r="4" fill="#0" id="circle94"/>
	<circle cx="485.267" cy="902.693" r="4" fill="#0" id="circle95"/>
	<circle cx="491.815" cy="36.7393" r="4" fill="#0" id="circle96"/>
	<circle cx="496.726" cy="881.413" r="4" fill="#0" id="circle97"/>
	<circle cx="508.185" cy="36.7393" r="4" fill="#0" id="circle98"/>
	<circle cx="509.822" cy="869.954" r="4" fill="#0" id="circle99"/>
	<circle cx="521.281" cy="856.858" r="4" fill="#0" id="circle100"/>
	<circle cx="522.917" cy="44.9241" r="4" fill="#0" id="circle101"/>
	<circle cx="534.376" cy="845.399" r="4" fill="#0" id="circle102"/>
	<circle cx="537.65" cy="53.1089" r="4" fill="#0" id="circle103"/>
	<circle cx="537.65" cy="742.271" r="4" fill="#0" id="circle104"/>
	<circle cx="537.65" cy="758.64" r="4" fill="#0" id="circle105"/>
	<circle cx="537.65" cy="775.01" r="4" fill="#0" id="circle106"/>
	<circle cx="537.65" cy="791.38" r="4" fill="#0" id="circle107"/>
	<circle cx="537.65" cy="807.749" r="4" fill="#0" id="circle108"/>
	<circle cx="537.65" cy="824.119" r="4" fill="#0" id="circle109"/>
	<circle cx="545.835" cy="725.901" r="4" fill="#0" id="circle110"/>
	<circle cx="550.746" cy="62.9307" r="4" fill="#0" id="circle111"/>
	<circle cx="554.02" cy="709.531" r="4" fill="#0" id="circle112"/>
	<circle cx="562.205" cy="76.0264" r="4" fill="#0" id="circle113"/>
	<circle cx="562.205" cy="693.162" r="4" fill="#0" id="circle114"/>
	<circle cx="570.389" cy="627.683" r="4" fill="#0" id="circle115"/>
	<circle cx="570.389" cy="644.053" r="4" fill="#0" id="circle116"/>
	<circle cx="570.389" cy="660.422" r="4" fill="#0" id="circle117"/>
	<circle cx="570.389" cy="676.792" r="4" fill="#0" id="circle118"/>
	<circle cx="575.3" cy="87.4851" r="4" fill="#0" id="circle119"/>
	<circle cx="581.848" cy="103.855" r="4" fill="#0" id="circle120"/>
	<circle cx="586.759" cy="120.224" r="4" fill="#0" id="circle121"/>
	<circle cx="586.759" cy="619.498" r="4" fill="#0" id="circle122"/>
	<circle cx="594.944" cy="134.957" r="4" fill="#0" id="circle123"/>
	<circle cx="603.129" cy="149.69" r="4" fill="#0" id="circle124"/>
	<circle cx="603.129" cy="166.059" r="4" fill="#0" id="circle125"/>
	<circle cx="603.129" cy="603.129" r="4" fill="#0" id="circle126"/>
	<circle cx="611.314" cy="180.792" r="4" fill="#0" id="circle127"/>
	<circle cx="616.224" cy="591.67" r="4" fill="#0" id="circle128"/>
	<circle cx="619.498" cy="195.525" r="4" fill="#0" id="circle129"/>
	<circle cx="619.498" cy="211.894" r="4" fill="#0" id="circle130"/>
	<circle cx="619.498" cy="562.205" r="4" fill="#0" id="circle131"/>
	<circle cx="624.409" cy="228.264" r="4" fill="#0" id="circle132"/>
	<circle cx="627.683" cy="244.634" r="4" fill="#0" id="circle133"/>
	<circle cx="627.683" cy="261.003" r="4" fill="#0" id="circle134"/>
	<circle cx="627.683" cy="277.373" r="4" fill="#0" id="circle135"/>
	<circle cx="627.683" cy="293.743" r="4" fill="#0" id="circle136"/>
	<circle cx="627.683" cy="310.112" r="4" fill="#0" id="circle137"/>
	<circle cx="627.683" cy="326.482" r="4" fill="#0" id="circle138"/>
	<circle cx="627.683" cy="342.851" r="4" fill="#0" id="circle139"/>
	<circle cx="627.683" cy="359.221" r="4" fill="#0" id="circle140"/>
	<circle cx="627.683" cy="375.591" r="4" fill="#0" id="circle141"/>
	<circle cx="627.683" cy="391.96" r="4" fill="#0" id="circle142"/>
	<circle cx="627.683" cy="408.33" r="4" fill="#0" id="circle143"/>
	<circle cx="627.683" cy="521.281" r="4" fill="#0" id="circle144"/>
	<circle cx="627.683" cy="537.65" r="4" fill="#0" id="circle145"/>
	<circle cx="637.505" cy="421.426" r="4" fill="#0" id="circle146"/>
	<circle cx="640.779" cy="509.822" r="4" fill="#0" id="circle147"/>
	<circle cx="644.053" cy="437.795" r="4" fill="#0" id="circle148"/>
	<circle cx="648.964" cy="493.452" r="4" fill="#0" id="circle149"/>
	<circle cx="652.238" cy="452.528" r="4" fill="#0" id="circle150"/>
	<circle cx="652.238" cy="468.898" r="4" fill="#0" id="circle151"/>
	</g>
</svg>