<?xml version="1.0" encoding="UTF-8" standalone="no"?>
<!-- Created with CurveBenchmark -->
<svg
	xmlns:dc="http://purl.org/dc/elements/1.1/"
	xmlns:cc="http://creativecommons.org/ns#"
	xmlns:rdf="http://www.w3.org/1999/02/22-rdf-syntax-ns#"
	xmlns:svg="http://www.w3.org/2000/svg"
	xmlns="http://www.w3.org/2000/svg"
	xmlns:sodipodi="http://sodipodi.sourceforge.net/DTD/sodipodi-0.dtd"
	xmlns:inkscape="http://www.inkscape.org/namespaces/inkscape"
	width="1000"
	height="1000"
	id="svg2"
	version="1.1"
	sodipodi:docname="manifold/gathang-bird345.png.txt">
<defs
	id="defs4" />
<metadata
	id="metadata7">
	<rdf:RDF>
		<cc:Work
			rdf:about="">
			<dc:format>image/svg+xml</dc:format>
			<dc:type
				rdf:resource="http://purl.org/dc/dcmitype/StillImage" />
			<dc:title></dc:title>
		</cc:Work>
	</rdf:RDF>
</metadata>
<g
	inkscape:label="Layer 1"
	inkscape:groupmode="layer"
	id="layer1">
	<path style="fill:none;stroke:red;stroke-width:1px;stroke-linecap:butt;stroke-linejoin:miter;stroke-opacity:1" d="M 78.3071,234.352 59.7303,267.79 z" id="boundary" inkscape:connector-curvature="0" />
	<path style="fill:none;stroke:red;stroke-width:1px;stroke-linecap:butt;stroke-linejoin:miter;stroke-opacity:1" d="M 59.7303,267.79 37.4382,297.513 z" id="boundary" inkscape:connector-curvature="0" />
	<path style="fill:none;stroke:red;stroke-width:1px;stroke-linecap:butt;stroke-linejoin:miter;stroke-opacity:1" d="M 78.3071,234.352 108.03,204.629 z" id="boundary" inkscape:connector-curvature="0" />
	<path style="fill:none;stroke:red;stroke-width:1px;stroke-linecap:butt;stroke-linejoin:miter;stroke-opacity:1" d="M 108.03,204.629 137.753,174.906 z" id="boundary" inkscape:connector-curvature="0" />
	<path style="fill:none;stroke:red;stroke-width:1px;stroke-linecap:butt;stroke-linejoin:miter;stroke-opacity:1" d="M 137.753,174.906 167.476,145.184 z" id="boundary" inkscape:connector-curvature="0" />
	<path style="fill:none;stroke:red;stroke-width:1px;stroke-linecap:butt;stroke-linejoin:miter;stroke-opacity:1" d="M 22.5768,408.974 4,375.536 z" id="boundary" inkscape:connector-curvature="0" />
	<path style="fill:none;stroke:red;stroke-width:1px;stroke-linecap:butt;stroke-linejoin:miter;stroke-opacity:1" d="M 59.7303,412.689 22.5768,408.974 z" id="boundary" inkscape:connector-curvature="0" />
	<path style="fill:none;stroke:red;stroke-width:1px;stroke-linecap:butt;stroke-linejoin:miter;stroke-opacity:1" d="M 4,375.536 18.8614,330.951 z" id="boundary" inkscape:connector-curvature="0" />
	<path style="fill:none;stroke:red;stroke-width:1px;stroke-linecap:butt;stroke-linejoin:miter;stroke-opacity:1" d="M 96.8839,397.828 59.7303,412.689 z" id="boundary" inkscape:connector-curvature="0" />
	<path style="fill:none;stroke:red;stroke-width:1px;stroke-linecap:butt;stroke-linejoin:miter;stroke-opacity:1" d="M 96.8839,397.828 130.322,416.404 z" id="boundary" inkscape:connector-curvature="0" />
	<path style="fill:none;stroke:red;stroke-width:1px;stroke-linecap:butt;stroke-linejoin:miter;stroke-opacity:1" d="M 18.8614,330.951 37.4382,297.513 z" id="boundary" inkscape:connector-curvature="0" />
	<path style="fill:none;stroke:red;stroke-width:1px;stroke-linecap:butt;stroke-linejoin:miter;stroke-opacity:1" d="M 167.476,145.184 197.199,115.461 z" id="boundary" inkscape:connector-curvature="0" />
	<path style="fill:none;stroke:red;stroke-width:1px;stroke-linecap:butt;stroke-linejoin:miter;stroke-opacity:1" d="M 226.921,93.1685 256.644,63.4457 z" id="boundary" inkscape:connector-curvature="0" />
	<path style="fill:none;stroke:red;stroke-width:1px;stroke-linecap:butt;stroke-linejoin:miter;stroke-opacity:1" d="M 256.644,63.4457 290.082,44.8689 z" id="boundary" inkscape:connector-curvature="0" />
	<path style="fill:none;stroke:red;stroke-width:1px;stroke-linecap:butt;stroke-linejoin:miter;stroke-opacity:1" d="M 290.082,44.8689 323.521,26.2921 z" id="boundary" inkscape:connector-curvature="0" />
	<path style="fill:none;stroke:red;stroke-width:1px;stroke-linecap:butt;stroke-linejoin:miter;stroke-opacity:1" d="M 323.521,26.2921 360.674,18.8614 z" id="boundary" inkscape:connector-curvature="0" />
	<path style="fill:none;stroke:red;stroke-width:1px;stroke-linecap:butt;stroke-linejoin:miter;stroke-opacity:1" d="M 360.674,18.8614 397.828,4 z" id="boundary" inkscape:connector-curvature="0" />
	<path style="fill:none;stroke:red;stroke-width:1px;stroke-linecap:butt;stroke-linejoin:miter;stroke-opacity:1" d="M 397.828,4 434.981,4 z" id="boundary" inkscape:connector-curvature="0" />
	<path style="fill:none;stroke:red;stroke-width:1px;stroke-linecap:butt;stroke-linejoin:miter;stroke-opacity:1" d="M 241.783,386.682 204.629,401.543 z" id="boundary" inkscape:connector-curvature="0" />
	<path style="fill:none;stroke:red;stroke-width:1px;stroke-linecap:butt;stroke-linejoin:miter;stroke-opacity:1" d="M 197.199,115.461 226.921,93.1685 z" id="boundary" inkscape:connector-curvature="0" />
	<path style="fill:none;stroke:red;stroke-width:1px;stroke-linecap:butt;stroke-linejoin:miter;stroke-opacity:1" d="M 278.936,371.82 241.783,386.682 z" id="boundary" inkscape:connector-curvature="0" />
	<path style="fill:none;stroke:red;stroke-width:1px;stroke-linecap:butt;stroke-linejoin:miter;stroke-opacity:1" d="M 312.375,353.243 349.528,342.097 z" id="boundary" inkscape:connector-curvature="0" />
	<path style="fill:none;stroke:red;stroke-width:1px;stroke-linecap:butt;stroke-linejoin:miter;stroke-opacity:1" d="M 349.528,342.097 360.674,379.251 z" id="boundary" inkscape:connector-curvature="0" />
	<path style="fill:none;stroke:red;stroke-width:1px;stroke-linecap:butt;stroke-linejoin:miter;stroke-opacity:1" d="M 278.936,371.82 312.375,353.243 z" id="boundary" inkscape:connector-curvature="0" />
	<path style="fill:none;stroke:red;stroke-width:1px;stroke-linecap:butt;stroke-linejoin:miter;stroke-opacity:1" d="M 360.674,416.404 360.674,379.251 z" id="boundary" inkscape:connector-curvature="0" />
	<path style="fill:none;stroke:red;stroke-width:1px;stroke-linecap:butt;stroke-linejoin:miter;stroke-opacity:1" d="M 204.629,401.543 167.476,416.404 z" id="boundary" inkscape:connector-curvature="0" />
	<path style="fill:none;stroke:red;stroke-width:1px;stroke-linecap:butt;stroke-linejoin:miter;stroke-opacity:1" d="M 130.322,416.404 167.476,416.404 z" id="boundary" inkscape:connector-curvature="0" />
	<path style="fill:none;stroke:red;stroke-width:1px;stroke-linecap:butt;stroke-linejoin:miter;stroke-opacity:1" d="M 360.674,416.404 360.674,453.558 z" id="boundary" inkscape:connector-curvature="0" />
	<path style="fill:none;stroke:red;stroke-width:1px;stroke-linecap:butt;stroke-linejoin:miter;stroke-opacity:1" d="M 360.674,453.558 360.674,490.712 z" id="boundary" inkscape:connector-curvature="0" />
	<path style="fill:none;stroke:red;stroke-width:1px;stroke-linecap:butt;stroke-linejoin:miter;stroke-opacity:1" d="M 360.674,490.712 360.674,527.865 z" id="boundary" inkscape:connector-curvature="0" />
	<path style="fill:none;stroke:red;stroke-width:1px;stroke-linecap:butt;stroke-linejoin:miter;stroke-opacity:1" d="M 360.674,565.019 360.674,527.865 z" id="boundary" inkscape:connector-curvature="0" />
	<path style="fill:none;stroke:red;stroke-width:1px;stroke-linecap:butt;stroke-linejoin:miter;stroke-opacity:1" d="M 360.674,665.333 353.243,628.18 z" id="boundary" inkscape:connector-curvature="0" />
	<path style="fill:none;stroke:red;stroke-width:1px;stroke-linecap:butt;stroke-linejoin:miter;stroke-opacity:1" d="M 360.674,565.019 353.243,628.18 z" id="boundary" inkscape:connector-curvature="0" />
	<path style="fill:none;stroke:red;stroke-width:1px;stroke-linecap:butt;stroke-linejoin:miter;stroke-opacity:1" d="M 360.674,702.487 360.674,665.333 z" id="boundary" inkscape:connector-curvature="0" />
	<path style="fill:none;stroke:red;stroke-width:1px;stroke-linecap:butt;stroke-linejoin:miter;stroke-opacity:1" d="M 360.674,702.487 368.105,739.64 z" id="boundary" inkscape:connector-curvature="0" />
	<path style="fill:none;stroke:red;stroke-width:1px;stroke-linecap:butt;stroke-linejoin:miter;stroke-opacity:1" d="M 382.966,813.948 375.536,776.794 z" id="boundary" inkscape:connector-curvature="0" />
	<path style="fill:none;stroke:red;stroke-width:1px;stroke-linecap:butt;stroke-linejoin:miter;stroke-opacity:1" d="M 375.536,776.794 368.105,739.64 z" id="boundary" inkscape:connector-curvature="0" />
	<path style="fill:none;stroke:red;stroke-width:1px;stroke-linecap:butt;stroke-linejoin:miter;stroke-opacity:1" d="M 468.419,434.981 453.558,494.427 z" id="boundary" inkscape:connector-curvature="0" />
	<path style="fill:none;stroke:red;stroke-width:1px;stroke-linecap:butt;stroke-linejoin:miter;stroke-opacity:1" d="M 382.966,813.948 386.682,851.101 z" id="boundary" inkscape:connector-curvature="0" />
	<path style="fill:none;stroke:red;stroke-width:1px;stroke-linecap:butt;stroke-linejoin:miter;stroke-opacity:1" d="M 431.266,628.18 431.266,665.333 z" id="boundary" inkscape:connector-curvature="0" />
	<path style="fill:none;stroke:red;stroke-width:1px;stroke-linecap:butt;stroke-linejoin:miter;stroke-opacity:1" d="M 431.266,628.18 431.266,591.026 z" id="boundary" inkscape:connector-curvature="0" />
	<path style="fill:none;stroke:red;stroke-width:1px;stroke-linecap:butt;stroke-linejoin:miter;stroke-opacity:1" d="M 431.266,591.026 438.697,553.873 z" id="boundary" inkscape:connector-curvature="0" />
	<path style="fill:none;stroke:red;stroke-width:1px;stroke-linecap:butt;stroke-linejoin:miter;stroke-opacity:1" d="M 431.266,665.333 431.266,702.487 z" id="boundary" inkscape:connector-curvature="0" />
	<path style="fill:none;stroke:red;stroke-width:1px;stroke-linecap:butt;stroke-linejoin:miter;stroke-opacity:1" d="M 438.697,739.64 431.266,702.487 z" id="boundary" inkscape:connector-curvature="0" />
	<path style="fill:none;stroke:red;stroke-width:1px;stroke-linecap:butt;stroke-linejoin:miter;stroke-opacity:1" d="M 453.558,494.427 438.697,553.873 z" id="boundary" inkscape:connector-curvature="0" />
	<path style="fill:none;stroke:red;stroke-width:1px;stroke-linecap:butt;stroke-linejoin:miter;stroke-opacity:1" d="M 386.682,851.101 390.397,888.255 z" id="boundary" inkscape:connector-curvature="0" />
	<path style="fill:none;stroke:red;stroke-width:1px;stroke-linecap:butt;stroke-linejoin:miter;stroke-opacity:1" d="M 390.397,888.255 390.397,925.408 z" id="boundary" inkscape:connector-curvature="0" />
	<path style="fill:none;stroke:red;stroke-width:1px;stroke-linecap:butt;stroke-linejoin:miter;stroke-opacity:1" d="M 420.12,951.416 390.397,925.408 z" id="boundary" inkscape:connector-curvature="0" />
	<path style="fill:none;stroke:red;stroke-width:1px;stroke-linecap:butt;stroke-linejoin:miter;stroke-opacity:1" d="M 446.127,776.794 438.697,739.64 z" id="boundary" inkscape:connector-curvature="0" />
	<path style="fill:none;stroke:red;stroke-width:1px;stroke-linecap:butt;stroke-linejoin:miter;stroke-opacity:1" d="M 453.558,813.948 457.273,851.101 z" id="boundary" inkscape:connector-curvature="0" />
	<path style="fill:none;stroke:red;stroke-width:1px;stroke-linecap:butt;stroke-linejoin:miter;stroke-opacity:1" d="M 453.558,813.948 446.127,776.794 z" id="boundary" inkscape:connector-curvature="0" />
	<path style="fill:none;stroke:red;stroke-width:1px;stroke-linecap:butt;stroke-linejoin:miter;stroke-opacity:1" d="M 472.135,4 509.288,11.4307 z" id="boundary" inkscape:connector-curvature="0" />
	<path style="fill:none;stroke:red;stroke-width:1px;stroke-linecap:butt;stroke-linejoin:miter;stroke-opacity:1" d="M 546.442,18.8614 509.288,11.4307 z" id="boundary" inkscape:connector-curvature="0" />
	<path style="fill:none;stroke:red;stroke-width:1px;stroke-linecap:butt;stroke-linejoin:miter;stroke-opacity:1" d="M 583.596,33.7228 617.034,52.2996 z" id="boundary" inkscape:connector-curvature="0" />
	<path style="fill:none;stroke:red;stroke-width:1px;stroke-linecap:butt;stroke-linejoin:miter;stroke-opacity:1" d="M 617.034,52.2996 639.326,82.0225 z" id="boundary" inkscape:connector-curvature="0" />
	<path style="fill:none;stroke:red;stroke-width:1px;stroke-linecap:butt;stroke-linejoin:miter;stroke-opacity:1" d="M 754.502,78.3071 721.064,96.8839 z" id="boundary" inkscape:connector-curvature="0" />
	<path style="fill:none;stroke:red;stroke-width:1px;stroke-linecap:butt;stroke-linejoin:miter;stroke-opacity:1" d="M 546.442,18.8614 583.596,33.7228 z" id="boundary" inkscape:connector-curvature="0" />
	<path style="fill:none;stroke:red;stroke-width:1px;stroke-linecap:butt;stroke-linejoin:miter;stroke-opacity:1" d="M 572.449,212.06 539.011,230.637 z" id="boundary" inkscape:connector-curvature="0" />
	<path style="fill:none;stroke:red;stroke-width:1px;stroke-linecap:butt;stroke-linejoin:miter;stroke-opacity:1" d="M 639.326,82.0225 654.187,119.176 z" id="boundary" inkscape:connector-curvature="0" />
	<path style="fill:none;stroke:red;stroke-width:1px;stroke-linecap:butt;stroke-linejoin:miter;stroke-opacity:1" d="M 654.187,119.176 669.049,156.33 z" id="boundary" inkscape:connector-curvature="0" />
	<path style="fill:none;stroke:red;stroke-width:1px;stroke-linecap:butt;stroke-linejoin:miter;stroke-opacity:1" d="M 572.449,212.06 598.457,241.783 z" id="boundary" inkscape:connector-curvature="0" />
	<path style="fill:none;stroke:red;stroke-width:1px;stroke-linecap:butt;stroke-linejoin:miter;stroke-opacity:1" d="M 698.772,126.607 669.049,156.33 z" id="boundary" inkscape:connector-curvature="0" />
	<path style="fill:none;stroke:red;stroke-width:1px;stroke-linecap:butt;stroke-linejoin:miter;stroke-opacity:1" d="M 721.064,96.8839 698.772,126.607 z" id="boundary" inkscape:connector-curvature="0" />
	<path style="fill:none;stroke:red;stroke-width:1px;stroke-linecap:butt;stroke-linejoin:miter;stroke-opacity:1" d="M 539.011,230.637 509.288,260.36 z" id="boundary" inkscape:connector-curvature="0" />
	<path style="fill:none;stroke:red;stroke-width:1px;stroke-linecap:butt;stroke-linejoin:miter;stroke-opacity:1" d="M 754.502,78.3071 791.655,70.8764 z" id="boundary" inkscape:connector-curvature="0" />
	<path style="fill:none;stroke:red;stroke-width:1px;stroke-linecap:butt;stroke-linejoin:miter;stroke-opacity:1" d="M 828.809,70.8764 791.655,70.8764 z" id="boundary" inkscape:connector-curvature="0" />
	<path style="fill:none;stroke:red;stroke-width:1px;stroke-linecap:butt;stroke-linejoin:miter;stroke-opacity:1" d="M 865.963,82.0225 899.401,100.599 z" id="boundary" inkscape:connector-curvature="0" />
	<path style="fill:none;stroke:red;stroke-width:1px;stroke-linecap:butt;stroke-linejoin:miter;stroke-opacity:1" d="M 899.401,100.599 914.262,137.753 z" id="boundary" inkscape:connector-curvature="0" />
	<path style="fill:none;stroke:red;stroke-width:1px;stroke-linecap:butt;stroke-linejoin:miter;stroke-opacity:1" d="M 828.809,70.8764 865.963,82.0225 z" id="boundary" inkscape:connector-curvature="0" />
	<path style="fill:none;stroke:red;stroke-width:1px;stroke-linecap:butt;stroke-linejoin:miter;stroke-opacity:1" d="M 765.648,182.337 802.801,178.622 z" id="boundary" inkscape:connector-curvature="0" />
	<path style="fill:none;stroke:red;stroke-width:1px;stroke-linecap:butt;stroke-linejoin:miter;stroke-opacity:1" d="M 765.648,219.491 765.648,182.337 z" id="boundary" inkscape:connector-curvature="0" />
	<path style="fill:none;stroke:red;stroke-width:1px;stroke-linecap:butt;stroke-linejoin:miter;stroke-opacity:1" d="M 802.801,178.622 836.24,197.199 z" id="boundary" inkscape:connector-curvature="0" />
	<path style="fill:none;stroke:red;stroke-width:1px;stroke-linecap:butt;stroke-linejoin:miter;stroke-opacity:1" d="M 873.393,212.06 836.24,197.199 z" id="boundary" inkscape:connector-curvature="0" />
	<path style="fill:none;stroke:red;stroke-width:1px;stroke-linecap:butt;stroke-linejoin:miter;stroke-opacity:1" d="M 932.839,171.191 955.131,200.914 z" id="boundary" inkscape:connector-curvature="0" />
	<path style="fill:none;stroke:red;stroke-width:1px;stroke-linecap:butt;stroke-linejoin:miter;stroke-opacity:1" d="M 906.831,230.637 873.393,212.06 z" id="boundary" inkscape:connector-curvature="0" />
	<path style="fill:none;stroke:red;stroke-width:1px;stroke-linecap:butt;stroke-linejoin:miter;stroke-opacity:1" d="M 932.839,171.191 914.262,137.753 z" id="boundary" inkscape:connector-curvature="0" />
	<path style="fill:none;stroke:red;stroke-width:1px;stroke-linecap:butt;stroke-linejoin:miter;stroke-opacity:1" d="M 765.648,286.367 765.648,219.491 z" id="boundary" inkscape:connector-curvature="0" />
	<path style="fill:none;stroke:red;stroke-width:1px;stroke-linecap:butt;stroke-linejoin:miter;stroke-opacity:1" d="M 977.423,230.637 955.131,200.914 z" id="boundary" inkscape:connector-curvature="0" />
	<path style="fill:none;stroke:red;stroke-width:1px;stroke-linecap:butt;stroke-linejoin:miter;stroke-opacity:1" d="M 483.281,353.243 483.281,390.397 z" id="boundary" inkscape:connector-curvature="0" />
	<path style="fill:none;stroke:red;stroke-width:1px;stroke-linecap:butt;stroke-linejoin:miter;stroke-opacity:1" d="M 483.281,390.397 468.419,434.981 z" id="boundary" inkscape:connector-curvature="0" />
	<path style="fill:none;stroke:red;stroke-width:1px;stroke-linecap:butt;stroke-linejoin:miter;stroke-opacity:1" d="M 483.281,353.243 490.712,293.798 z" id="boundary" inkscape:connector-curvature="0" />
	<path style="fill:none;stroke:red;stroke-width:1px;stroke-linecap:butt;stroke-linejoin:miter;stroke-opacity:1" d="M 509.288,260.36 490.712,293.798 z" id="boundary" inkscape:connector-curvature="0" />
	<path style="fill:none;stroke:red;stroke-width:1px;stroke-linecap:butt;stroke-linejoin:miter;stroke-opacity:1" d="M 494.427,951.416 457.273,951.416 z" id="boundary" inkscape:connector-curvature="0" />
	<path style="fill:none;stroke:red;stroke-width:1px;stroke-linecap:butt;stroke-linejoin:miter;stroke-opacity:1" d="M 457.273,951.416 420.12,951.416 z" id="boundary" inkscape:connector-curvature="0" />
	<path style="fill:none;stroke:red;stroke-width:1px;stroke-linecap:butt;stroke-linejoin:miter;stroke-opacity:1" d="M 460.989,888.255 498.142,903.116 z" id="boundary" inkscape:connector-curvature="0" />
	<path style="fill:none;stroke:red;stroke-width:1px;stroke-linecap:butt;stroke-linejoin:miter;stroke-opacity:1" d="M 498.142,903.116 550.157,910.547 z" id="boundary" inkscape:connector-curvature="0" />
	<path style="fill:none;stroke:red;stroke-width:1px;stroke-linecap:butt;stroke-linejoin:miter;stroke-opacity:1" d="M 460.989,888.255 457.273,851.101 z" id="boundary" inkscape:connector-curvature="0" />
	<path style="fill:none;stroke:red;stroke-width:1px;stroke-linecap:butt;stroke-linejoin:miter;stroke-opacity:1" d="M 531.581,943.985 568.734,943.985 z" id="boundary" inkscape:connector-curvature="0" />
	<path style="fill:none;stroke:red;stroke-width:1px;stroke-linecap:butt;stroke-linejoin:miter;stroke-opacity:1" d="M 494.427,951.416 531.581,943.985 z" id="boundary" inkscape:connector-curvature="0" />
	<path style="fill:none;stroke:red;stroke-width:1px;stroke-linecap:butt;stroke-linejoin:miter;stroke-opacity:1" d="M 605.888,278.936 598.457,241.783 z" id="boundary" inkscape:connector-curvature="0" />
	<path style="fill:none;stroke:red;stroke-width:1px;stroke-linecap:butt;stroke-linejoin:miter;stroke-opacity:1" d="M 962.562,282.652 932.839,260.36 z" id="boundary" inkscape:connector-curvature="0" />
	<path style="fill:none;stroke:red;stroke-width:1px;stroke-linecap:butt;stroke-linejoin:miter;stroke-opacity:1" d="M 932.839,260.36 906.831,230.637 z" id="boundary" inkscape:connector-curvature="0" />
	<path style="fill:none;stroke:red;stroke-width:1px;stroke-linecap:butt;stroke-linejoin:miter;stroke-opacity:1" d="M 996,264.075 962.562,282.652 z" id="boundary" inkscape:connector-curvature="0" />
	<path style="fill:none;stroke:red;stroke-width:1px;stroke-linecap:butt;stroke-linejoin:miter;stroke-opacity:1" d="M 977.423,230.637 996,264.075 z" id="boundary" inkscape:connector-curvature="0" />
	<path style="fill:none;stroke:red;stroke-width:1px;stroke-linecap:butt;stroke-linejoin:miter;stroke-opacity:1" d="M 672.764,356.959 635.61,349.528 z" id="boundary" inkscape:connector-curvature="0" />
	<path style="fill:none;stroke:red;stroke-width:1px;stroke-linecap:butt;stroke-linejoin:miter;stroke-opacity:1" d="M 635.61,349.528 617.034,316.09 z" id="boundary" inkscape:connector-curvature="0" />
	<path style="fill:none;stroke:red;stroke-width:1px;stroke-linecap:butt;stroke-linejoin:miter;stroke-opacity:1" d="M 709.918,349.528 672.764,356.959 z" id="boundary" inkscape:connector-curvature="0" />
	<path style="fill:none;stroke:red;stroke-width:1px;stroke-linecap:butt;stroke-linejoin:miter;stroke-opacity:1" d="M 743.356,330.951 765.648,286.367 z" id="boundary" inkscape:connector-curvature="0" />
	<path style="fill:none;stroke:red;stroke-width:1px;stroke-linecap:butt;stroke-linejoin:miter;stroke-opacity:1" d="M 743.356,330.951 709.918,349.528 z" id="boundary" inkscape:connector-curvature="0" />
	<path style="fill:none;stroke:red;stroke-width:1px;stroke-linecap:butt;stroke-linejoin:miter;stroke-opacity:1" d="M 617.034,316.09 605.888,278.936 z" id="boundary" inkscape:connector-curvature="0" />
	<path style="fill:none;stroke:red;stroke-width:1px;stroke-linecap:butt;stroke-linejoin:miter;stroke-opacity:1" d="M 434.981,4 472.135,4 z" id="boundary" inkscape:connector-curvature="0" />
	<circle cx="4" cy="375.536" r="4" fill="#0" id="circle0"/>
	<circle cx="18.8614" cy="330.951" r="4" fill="#0" id="circle1"/>
	<circle cx="22.5768" cy="408.974" r="4" fill="#0" id="circle2"/>
	<circle cx="37.4382" cy="297.513" r="4" fill="#0" id="circle3"/>
	<circle cx="59.7303" cy="267.79" r="4" fill="#0" id="circle4"/>
	<circle cx="59.7303" cy="412.689" r="4" fill="#0" id="circle5"/>
	<circle cx="78.3071" cy="234.352" r="4" fill="#0" id="circle6"/>
	<circle cx="96.8839" cy="397.828" r="4" fill="#0" id="circle7"/>
	<circle cx="108.03" cy="204.629" r="4" fill="#0" id="circle8"/>
	<circle cx="130.322" cy="416.404" r="4" fill="#0" id="circle9"/>
	<circle cx="137.753" cy="174.906" r="4" fill="#0" id="circle10"/>
	<circle cx="167.476" cy="145.184" r="4" fill="#0" id="circle11"/>
	<circle cx="167.476" cy="416.404" r="4" fill="#0" id="circle12"/>
	<circle cx="197.199" cy="115.461" r="4" fill="#0" id="circle13"/>
	<circle cx="204.629" cy="401.543" r="4" fill="#0" id="circle14"/>
	<circle cx="226.921" cy="93.1685" r="4" fill="#0" id="circle15"/>
	<circle cx="241.783" cy="386.682" r="4" fill="#0" id="circle16"/>
	<circle cx="256.644" cy="63.4457" r="4" fill="#0" id="circle17"/>
	<circle cx="278.936" cy="371.82" r="4" fill="#0" id="circle18"/>
	<circle cx="290.082" cy="44.8689" r="4" fill="#0" id="circle19"/>
	<circle cx="312.375" cy="353.243" r="4" fill="#0" id="circle20"/>
	<circle cx="323.521" cy="26.2921" r="4" fill="#0" id="circle21"/>
	<circle cx="349.528" cy="342.097" r="4" fill="#0" id="circle22"/>
	<circle cx="353.243" cy="628.18" r="4" fill="#0" id="circle23"/>
	<circle cx="360.674" cy="18.8614" r="4" fill="#0" id="circle24"/>
	<circle cx="360.674" cy="379.251" r="4" fill="#0" id="circle25"/>
	<circle cx="360.674" cy="416.404" r="4" fill="#0" id="circle26"/>
	<circle cx="360.674" cy="453.558" r="4" fill="#0" id="circle27"/>
	<circle cx="360.674" cy="490.712" r="4" fill="#0" id="circle28"/>
	<circle cx="360.674" cy="527.865" r="4" fill="#0" id="circle29"/>
	<circle cx="360.674" cy="565.019" r="4" fill="#0" id="circle30"/>
	<circle cx="360.674" cy="665.333" r="4" fill="#0" id="circle31"/>
	<circle cx="360.674" cy="702.487" r="4" fill="#0" id="circle32"/>
	<circle cx="368.105" cy="739.64" r="4" fill="#0" id="circle33"/>
	<circle cx="375.536" cy="776.794" r="4" fill="#0" id="circle34"/>
	<circle cx="382.966" cy="813.948" r="4" fill="#0" id="circle35"/>
	<circle cx="386.682" cy="851.101" r="4" fill="#0" id="circle36"/>
	<circle cx="390.397" cy="888.255" r="4" fill="#0" id="circle37"/>
	<circle cx="390.397" cy="925.408" r="4" fill="#0" id="circle38"/>
	<circle cx="397.828" cy="4" r="4" fill="#0" id="circle39"/>
	<circle cx="420.12" cy="951.416" r="4" fill="#0" id="circle40"/>
	<circle cx="431.266" cy="591.026" r="4" fill="#0" id="circle41"/>
	<circle cx="431.266" cy="628.18" r="4" fill="#0" id="circle42"/>
	<circle cx="431.266" cy="665.333" r="4" fill="#0" id="circle43"/>
	<circle cx="431.266" cy="702.487" r="4" fill="#0" id="circle44"/>
	<circle cx="434.981" cy="4" r="4" fill="#0" id="circle45"/>
	<circle cx="438.697" cy="553.873" r="4" fill="#0" id="circle46"/>
	<circle cx="438.697" cy="739.64" r="4" fill="#0" id="circle47"/>
	<circle cx="446.127" cy="776.794" r="4" fill="#0" id="circle48"/>
	<circle cx="453.558" cy="494.427" r="4" fill="#0" id="circle49"/>
	<circle cx="453.558" cy="813.948" r="4" fill="#0" id="circle50"/>
	<circle cx="457.273" cy="851.101" r="4" fill="#0" id="circle51"/>
	<circle cx="457.273" cy="951.416" r="4" fill="#0" id="circle52"/>
	<circle cx="460.989" cy="888.255" r="4" fill="#0" id="circle53"/>
	<circle cx="468.419" cy="434.981" r="4" fill="#0" id="circle54"/>
	<circle cx="472.135" cy="4" r="4" fill="#0" id="circle55"/>
	<circle cx="483.281" cy="353.243" r="4" fill="#0" id="circle56"/>
	<circle cx="483.281" cy="390.397" r="4" fill="#0" id="circle57"/>
	<circle cx="490.712" cy="293.798" r="4" fill="#0" id="circle58"/>
	<circle cx="494.427" cy="951.416" r="4" fill="#0" id="circle59"/>
	<circle cx="498.142" cy="903.116" r="4" fill="#0" id="circle60"/>
	<circle cx="509.288" cy="11.4307" r="4" fill="#0" id="circle61"/>
	<circle cx="509.288" cy="260.36" r="4" fill="#0" id="circle62"/>
	<circle cx="531.581" cy="943.985" r="4" fill="#0" id="circle63"/>
	<circle cx="539.011" cy="230.637" r="4" fill="#0" id="circle64"/>
	<circle cx="546.442" cy="18.8614" r="4" fill="#0" id="circle65"/>
	<circle cx="550.157" cy="910.547" r="4" fill="#0" id="circle66"/>
	<circle cx="568.734" cy="943.985" r="4" fill="#0" id="circle67"/>
	<circle cx="572.449" cy="212.06" r="4" fill="#0" id="circle68"/>
	<circle cx="583.596" cy="33.7228" r="4" fill="#0" id="circle69"/>
	<circle cx="598.457" cy="241.783" r="4" fill="#0" id="circle70"/>
	<circle cx="605.888" cy="278.936" r="4" fill="#0" id="circle71"/>
	<circle cx="617.034" cy="52.2996" r="4" fill="#0" id="circle72"/>
	<circle cx="617.034" cy="316.09" r="4" fill="#0" id="circle73"/>
	<circle cx="635.61" cy="349.528" r="4" fill="#0" id="circle74"/>
	<circle cx="639.326" cy="82.0225" r="4" fill="#0" id="circle75"/>
	<circle cx="654.187" cy="119.176" r="4" fill="#0" id="circle76"/>
	<circle cx="669.049" cy="156.33" r="4" fill="#0" id="circle77"/>
	<circle cx="672.764" cy="356.959" r="4" fill="#0" id="circle78"/>
	<circle cx="698.772" cy="126.607" r="4" fill="#0" id="circle79"/>
	<circle cx="709.918" cy="349.528" r="4" fill="#0" id="circle80"/>
	<circle cx="721.064" cy="96.8839" r="4" fill="#0" id="circle81"/>
	<circle cx="743.356" cy="330.951" r="4" fill="#0" id="circle82"/>
	<circle cx="754.502" cy="78.3071" r="4" fill="#0" id="circle83"/>
	<circle cx="765.648" cy="182.337" r="4" fill="#0" id="circle84"/>
	<circle cx="765.648" cy="219.491" r="4" fill="#0" id="circle85"/>
	<circle cx="765.648" cy="286.367" r="4" fill="#0" id="circle86"/>
	<circle cx="791.655" cy="70.8764" r="4" fill="#0" id="circle87"/>
	<circle cx="802.801" cy="178.622" r="4" fill="#0" id="circle88"/>
	<circle cx="828.809" cy="70.8764" r="4" fill="#0" id="circle89"/>
	<circle cx="836.24" cy="197.199" r="4" fill="#0" id="circle90"/>
	<circle cx="865.963" cy="82.0225" r="4" fill="#0" id="circle91"/>
	<circle cx="873.393" cy="212.06" r="4" fill="#0" id="circle92"/>
	<circle cx="899.401" cy="100.599" r="4" fill="#0" id="circle93"/>
	<circle cx="906.831" cy="230.637" r="4" fill="#0" id="circle94"/>
	<circle cx="914.262" cy="137.753" r="4" fill="#0" id="circle95"/>
	<circle cx="932.839" cy="171.191" r="4" fill="#0" id="circle96"/>
	<circle cx="932.839" cy="260.36" r="4" fill="#0" id="circle97"/>
	<circle cx="955.131" cy="200.914" r="4" fill="#0" id="circle98"/>
	<circle cx="962.562" cy="282.652" r="4" fill="#0" id="circle99"/>
	<circle cx="977.423" cy="230.637" r="4" fill="#0" id="circle100"/>
	<circle cx="996" cy="264.075" r="4" fill="#0" id="circle101"/>
	</g>
</svg>