<?xml version="1.0" encoding="UTF-8" standalone="no"?>
<!-- Created with CurveBenchmark -->
<svg
	xmlns:dc="http://purl.org/dc/elements/1.1/"
	xmlns:cc="http://creativecommons.org/ns#"
	xmlns:rdf="http://www.w3.org/1999/02/22-rdf-syntax-ns#"
	xmlns:svg="http://www.w3.org/2000/svg"
	xmlns="http://www.w3.org/2000/svg"
	xmlns:sodipodi="http://sodipodi.sourceforge.net/DTD/sodipodi-0.dtd"
	xmlns:inkscape="http://www.inkscape.org/namespaces/inkscape"
	width="1000"
	height="1000"
	id="svg2"
	version="1.1"
	sodipodi:docname="manifold/gathan1-hammer160.png.txt">
<defs
	id="defs4" />
<metadata
	id="metadata7">
	<rdf:RDF>
		<cc:Work
			rdf:about="">
			<dc:format>image/svg+xml</dc:format>
			<dc:type
				rdf:resource="http://purl.org/dc/dcmitype/StillImage" />
			<dc:title></dc:title>
		</cc:Work>
	</rdf:RDF>
</metadata>
<g
	inkscape:label="Layer 1"
	inkscape:groupmode="layer"
	id="layer1">
	<path style="fill:none;stroke:red;stroke-width:1px;stroke-linecap:butt;stroke-linejoin:miter;stroke-opacity:1" d="M 4,38.5043 15.5014,9.75072 z" id="boundary" inkscape:connector-curvature="0" />
	<path style="fill:none;stroke:red;stroke-width:1px;stroke-linecap:butt;stroke-linejoin:miter;stroke-opacity:1" d="M 15.5014,9.75072 44.2551,4 z" id="boundary" inkscape:connector-curvature="0" />
	<path style="fill:none;stroke:red;stroke-width:1px;stroke-linecap:butt;stroke-linejoin:miter;stroke-opacity:1" d="M 101.762,15.5014 73.0087,15.5014 z" id="boundary" inkscape:connector-curvature="0" />
	<path style="fill:none;stroke:red;stroke-width:1px;stroke-linecap:butt;stroke-linejoin:miter;stroke-opacity:1" d="M 73.0087,15.5014 44.2551,4 z" id="boundary" inkscape:connector-curvature="0" />
	<path style="fill:none;stroke:red;stroke-width:1px;stroke-linecap:butt;stroke-linejoin:miter;stroke-opacity:1" d="M 130.516,4 101.762,15.5014 z" id="boundary" inkscape:connector-curvature="0" />
	<path style="fill:none;stroke:red;stroke-width:1px;stroke-linecap:butt;stroke-linejoin:miter;stroke-opacity:1" d="M 9.75072,67.258 4,38.5043 z" id="boundary" inkscape:connector-curvature="0" />
	<path style="fill:none;stroke:red;stroke-width:1px;stroke-linecap:butt;stroke-linejoin:miter;stroke-opacity:1" d="M 55.7565,93.1362 27.0029,90.2609 z" id="boundary" inkscape:connector-curvature="0" />
	<path style="fill:none;stroke:red;stroke-width:1px;stroke-linecap:butt;stroke-linejoin:miter;stroke-opacity:1" d="M 27.0029,90.2609 9.75072,67.258 z" id="boundary" inkscape:connector-curvature="0" />
	<path style="fill:none;stroke:red;stroke-width:1px;stroke-linecap:butt;stroke-linejoin:miter;stroke-opacity:1" d="M 78.7594,75.8841 55.7565,93.1362 z" id="boundary" inkscape:connector-curvature="0" />
	<path style="fill:none;stroke:red;stroke-width:1px;stroke-linecap:butt;stroke-linejoin:miter;stroke-opacity:1" d="M 78.7594,75.8841 107.513,75.8841 z" id="boundary" inkscape:connector-curvature="0" />
	<path style="fill:none;stroke:red;stroke-width:1px;stroke-linecap:butt;stroke-linejoin:miter;stroke-opacity:1" d="M 107.513,75.8841 124.765,98.887 z" id="boundary" inkscape:connector-curvature="0" />
	<path style="fill:none;stroke:red;stroke-width:1px;stroke-linecap:butt;stroke-linejoin:miter;stroke-opacity:1" d="M 124.765,98.887 130.516,127.641 z" id="boundary" inkscape:connector-curvature="0" />
	<path style="fill:none;stroke:red;stroke-width:1px;stroke-linecap:butt;stroke-linejoin:miter;stroke-opacity:1" d="M 130.516,4 159.27,4 z" id="boundary" inkscape:connector-curvature="0" />
	<path style="fill:none;stroke:red;stroke-width:1px;stroke-linecap:butt;stroke-linejoin:miter;stroke-opacity:1" d="M 159.27,4 188.023,4 z" id="boundary" inkscape:connector-curvature="0" />
	<path style="fill:none;stroke:red;stroke-width:1px;stroke-linecap:butt;stroke-linejoin:miter;stroke-opacity:1" d="M 130.516,156.394 130.516,127.641 z" id="boundary" inkscape:connector-curvature="0" />
	<path style="fill:none;stroke:red;stroke-width:1px;stroke-linecap:butt;stroke-linejoin:miter;stroke-opacity:1" d="M 144.893,182.272 130.516,156.394 z" id="boundary" inkscape:connector-curvature="0" />
	<path style="fill:none;stroke:red;stroke-width:1px;stroke-linecap:butt;stroke-linejoin:miter;stroke-opacity:1" d="M 153.519,211.026 144.893,182.272 z" id="boundary" inkscape:connector-curvature="0" />
	<path style="fill:none;stroke:red;stroke-width:1px;stroke-linecap:butt;stroke-linejoin:miter;stroke-opacity:1" d="M 159.27,268.533 153.519,239.78 z" id="boundary" inkscape:connector-curvature="0" />
	<path style="fill:none;stroke:red;stroke-width:1px;stroke-linecap:butt;stroke-linejoin:miter;stroke-opacity:1" d="M 153.519,239.78 153.519,211.026 z" id="boundary" inkscape:connector-curvature="0" />
	<path style="fill:none;stroke:red;stroke-width:1px;stroke-linecap:butt;stroke-linejoin:miter;stroke-opacity:1" d="M 159.27,268.533 159.27,297.287 z" id="boundary" inkscape:connector-curvature="0" />
	<path style="fill:none;stroke:red;stroke-width:1px;stroke-linecap:butt;stroke-linejoin:miter;stroke-opacity:1" d="M 159.27,297.287 159.27,326.041 z" id="boundary" inkscape:connector-curvature="0" />
	<path style="fill:none;stroke:red;stroke-width:1px;stroke-linecap:butt;stroke-linejoin:miter;stroke-opacity:1" d="M 159.27,354.794 159.27,326.041 z" id="boundary" inkscape:connector-curvature="0" />
	<path style="fill:none;stroke:red;stroke-width:1px;stroke-linecap:butt;stroke-linejoin:miter;stroke-opacity:1" d="M 159.27,383.548 159.27,354.794 z" id="boundary" inkscape:connector-curvature="0" />
	<path style="fill:none;stroke:red;stroke-width:1px;stroke-linecap:butt;stroke-linejoin:miter;stroke-opacity:1" d="M 124.765,590.574 124.765,619.328 z" id="boundary" inkscape:connector-curvature="0" />
	<path style="fill:none;stroke:red;stroke-width:1px;stroke-linecap:butt;stroke-linejoin:miter;stroke-opacity:1" d="M 124.765,590.574 124.765,561.82 z" id="boundary" inkscape:connector-curvature="0" />
	<path style="fill:none;stroke:red;stroke-width:1px;stroke-linecap:butt;stroke-linejoin:miter;stroke-opacity:1" d="M 124.765,648.081 124.765,676.835 z" id="boundary" inkscape:connector-curvature="0" />
	<path style="fill:none;stroke:red;stroke-width:1px;stroke-linecap:butt;stroke-linejoin:miter;stroke-opacity:1" d="M 124.765,648.081 124.765,619.328 z" id="boundary" inkscape:connector-curvature="0" />
	<path style="fill:none;stroke:red;stroke-width:1px;stroke-linecap:butt;stroke-linejoin:miter;stroke-opacity:1" d="M 124.765,676.835 124.765,705.588 z" id="boundary" inkscape:connector-curvature="0" />
	<path style="fill:none;stroke:red;stroke-width:1px;stroke-linecap:butt;stroke-linejoin:miter;stroke-opacity:1" d="M 119.014,952.87 113.264,987.374 z" id="boundary" inkscape:connector-curvature="0" />
	<path style="fill:none;stroke:red;stroke-width:1px;stroke-linecap:butt;stroke-linejoin:miter;stroke-opacity:1" d="M 124.765,705.588 124.765,734.342 z" id="boundary" inkscape:connector-curvature="0" />
	<path style="fill:none;stroke:red;stroke-width:1px;stroke-linecap:butt;stroke-linejoin:miter;stroke-opacity:1" d="M 124.765,734.342 124.765,763.096 z" id="boundary" inkscape:connector-curvature="0" />
	<path style="fill:none;stroke:red;stroke-width:1px;stroke-linecap:butt;stroke-linejoin:miter;stroke-opacity:1" d="M 142.017,996 113.264,987.374 z" id="boundary" inkscape:connector-curvature="0" />
	<path style="fill:none;stroke:red;stroke-width:1px;stroke-linecap:butt;stroke-linejoin:miter;stroke-opacity:1" d="M 124.765,791.849 124.765,763.096 z" id="boundary" inkscape:connector-curvature="0" />
	<path style="fill:none;stroke:red;stroke-width:1px;stroke-linecap:butt;stroke-linejoin:miter;stroke-opacity:1" d="M 124.765,820.603 124.765,791.849 z" id="boundary" inkscape:connector-curvature="0" />
	<path style="fill:none;stroke:red;stroke-width:1px;stroke-linecap:butt;stroke-linejoin:miter;stroke-opacity:1" d="M 130.516,533.067 124.765,561.82 z" id="boundary" inkscape:connector-curvature="0" />
	<path style="fill:none;stroke:red;stroke-width:1px;stroke-linecap:butt;stroke-linejoin:miter;stroke-opacity:1" d="M 130.516,504.313 130.516,533.067 z" id="boundary" inkscape:connector-curvature="0" />
	<path style="fill:none;stroke:red;stroke-width:1px;stroke-linecap:butt;stroke-linejoin:miter;stroke-opacity:1" d="M 130.516,504.313 130.516,475.559 z" id="boundary" inkscape:connector-curvature="0" />
	<path style="fill:none;stroke:red;stroke-width:1px;stroke-linecap:butt;stroke-linejoin:miter;stroke-opacity:1" d="M 159.27,383.548 159.27,412.301 z" id="boundary" inkscape:connector-curvature="0" />
	<path style="fill:none;stroke:red;stroke-width:1px;stroke-linecap:butt;stroke-linejoin:miter;stroke-opacity:1" d="M 159.27,412.301 147.768,441.055 z" id="boundary" inkscape:connector-curvature="0" />
	<path style="fill:none;stroke:red;stroke-width:1px;stroke-linecap:butt;stroke-linejoin:miter;stroke-opacity:1" d="M 147.768,441.055 130.516,475.559 z" id="boundary" inkscape:connector-curvature="0" />
	<path style="fill:none;stroke:red;stroke-width:1px;stroke-linecap:butt;stroke-linejoin:miter;stroke-opacity:1" d="M 124.765,820.603 124.765,849.357 z" id="boundary" inkscape:connector-curvature="0" />
	<path style="fill:none;stroke:red;stroke-width:1px;stroke-linecap:butt;stroke-linejoin:miter;stroke-opacity:1" d="M 124.765,878.11 124.765,849.357 z" id="boundary" inkscape:connector-curvature="0" />
	<path style="fill:none;stroke:red;stroke-width:1px;stroke-linecap:butt;stroke-linejoin:miter;stroke-opacity:1" d="M 124.765,906.864 124.765,878.11 z" id="boundary" inkscape:connector-curvature="0" />
	<path style="fill:none;stroke:red;stroke-width:1px;stroke-linecap:butt;stroke-linejoin:miter;stroke-opacity:1" d="M 170.771,996 142.017,996 z" id="boundary" inkscape:connector-curvature="0" />
	<path style="fill:none;stroke:red;stroke-width:1px;stroke-linecap:butt;stroke-linejoin:miter;stroke-opacity:1" d="M 199.525,996 170.771,996 z" id="boundary" inkscape:connector-curvature="0" />
	<path style="fill:none;stroke:red;stroke-width:1px;stroke-linecap:butt;stroke-linejoin:miter;stroke-opacity:1" d="M 119.014,952.87 124.765,906.864 z" id="boundary" inkscape:connector-curvature="0" />
	<path style="fill:none;stroke:red;stroke-width:1px;stroke-linecap:butt;stroke-linejoin:miter;stroke-opacity:1" d="M 216.777,4 245.53,4 z" id="boundary" inkscape:connector-curvature="0" />
	<path style="fill:none;stroke:red;stroke-width:1px;stroke-linecap:butt;stroke-linejoin:miter;stroke-opacity:1" d="M 259.907,124.765 248.406,165.02 z" id="boundary" inkscape:connector-curvature="0" />
	<path style="fill:none;stroke:red;stroke-width:1px;stroke-linecap:butt;stroke-linejoin:miter;stroke-opacity:1" d="M 265.658,90.2609 259.907,124.765 z" id="boundary" inkscape:connector-curvature="0" />
	<path style="fill:none;stroke:red;stroke-width:1px;stroke-linecap:butt;stroke-linejoin:miter;stroke-opacity:1" d="M 236.904,211.026 248.406,165.02 z" id="boundary" inkscape:connector-curvature="0" />
	<path style="fill:none;stroke:red;stroke-width:1px;stroke-linecap:butt;stroke-linejoin:miter;stroke-opacity:1" d="M 245.53,4 274.284,6.87536 z" id="boundary" inkscape:connector-curvature="0" />
	<path style="fill:none;stroke:red;stroke-width:1px;stroke-linecap:butt;stroke-linejoin:miter;stroke-opacity:1" d="M 231.154,303.038 231.154,331.791 z" id="boundary" inkscape:connector-curvature="0" />
	<path style="fill:none;stroke:red;stroke-width:1px;stroke-linecap:butt;stroke-linejoin:miter;stroke-opacity:1" d="M 236.904,389.299 231.154,360.545 z" id="boundary" inkscape:connector-curvature="0" />
	<path style="fill:none;stroke:red;stroke-width:1px;stroke-linecap:butt;stroke-linejoin:miter;stroke-opacity:1" d="M 231.154,360.545 231.154,331.791 z" id="boundary" inkscape:connector-curvature="0" />
	<path style="fill:none;stroke:red;stroke-width:1px;stroke-linecap:butt;stroke-linejoin:miter;stroke-opacity:1" d="M 236.904,239.78 236.904,268.533 z" id="boundary" inkscape:connector-curvature="0" />
	<path style="fill:none;stroke:red;stroke-width:1px;stroke-linecap:butt;stroke-linejoin:miter;stroke-opacity:1" d="M 236.904,239.78 236.904,211.026 z" id="boundary" inkscape:connector-curvature="0" />
	<path style="fill:none;stroke:red;stroke-width:1px;stroke-linecap:butt;stroke-linejoin:miter;stroke-opacity:1" d="M 236.904,268.533 231.154,303.038 z" id="boundary" inkscape:connector-curvature="0" />
	<path style="fill:none;stroke:red;stroke-width:1px;stroke-linecap:butt;stroke-linejoin:miter;stroke-opacity:1" d="M 265.658,90.2609 294.412,98.887 z" id="boundary" inkscape:connector-curvature="0" />
	<path style="fill:none;stroke:red;stroke-width:1px;stroke-linecap:butt;stroke-linejoin:miter;stroke-opacity:1" d="M 300.162,21.2522 320.29,44.2551 z" id="boundary" inkscape:connector-curvature="0" />
	<path style="fill:none;stroke:red;stroke-width:1px;stroke-linecap:butt;stroke-linejoin:miter;stroke-opacity:1" d="M 274.284,6.87536 300.162,21.2522 z" id="boundary" inkscape:connector-curvature="0" />
	<path style="fill:none;stroke:red;stroke-width:1px;stroke-linecap:butt;stroke-linejoin:miter;stroke-opacity:1" d="M 320.29,113.264 294.412,98.887 z" id="boundary" inkscape:connector-curvature="0" />
	<path style="fill:none;stroke:red;stroke-width:1px;stroke-linecap:butt;stroke-linejoin:miter;stroke-opacity:1" d="M 343.293,64.3826 320.29,44.2551 z" id="boundary" inkscape:connector-curvature="0" />
	<path style="fill:none;stroke:red;stroke-width:1px;stroke-linecap:butt;stroke-linejoin:miter;stroke-opacity:1" d="M 343.293,64.3826 363.42,87.3855 z" id="boundary" inkscape:connector-curvature="0" />
	<path style="fill:none;stroke:red;stroke-width:1px;stroke-linecap:butt;stroke-linejoin:miter;stroke-opacity:1" d="M 320.29,113.264 337.542,136.267 z" id="boundary" inkscape:connector-curvature="0" />
	<path style="fill:none;stroke:red;stroke-width:1px;stroke-linecap:butt;stroke-linejoin:miter;stroke-opacity:1" d="M 354.794,159.27 337.542,136.267 z" id="boundary" inkscape:connector-curvature="0" />
	<path style="fill:none;stroke:red;stroke-width:1px;stroke-linecap:butt;stroke-linejoin:miter;stroke-opacity:1" d="M 389.299,142.017 377.797,179.397 z" id="boundary" inkscape:connector-curvature="0" />
	<path style="fill:none;stroke:red;stroke-width:1px;stroke-linecap:butt;stroke-linejoin:miter;stroke-opacity:1" d="M 377.797,179.397 354.794,159.27 z" id="boundary" inkscape:connector-curvature="0" />
	<path style="fill:none;stroke:red;stroke-width:1px;stroke-linecap:butt;stroke-linejoin:miter;stroke-opacity:1" d="M 377.797,113.264 389.299,142.017 z" id="boundary" inkscape:connector-curvature="0" />
	<path style="fill:none;stroke:red;stroke-width:1px;stroke-linecap:butt;stroke-linejoin:miter;stroke-opacity:1" d="M 363.42,87.3855 377.797,113.264 z" id="boundary" inkscape:connector-curvature="0" />
	<path style="fill:none;stroke:red;stroke-width:1px;stroke-linecap:butt;stroke-linejoin:miter;stroke-opacity:1" d="M 259.907,469.809 242.655,446.806 z" id="boundary" inkscape:connector-curvature="0" />
	<path style="fill:none;stroke:red;stroke-width:1px;stroke-linecap:butt;stroke-linejoin:miter;stroke-opacity:1" d="M 242.655,446.806 236.904,418.052 z" id="boundary" inkscape:connector-curvature="0" />
	<path style="fill:none;stroke:red;stroke-width:1px;stroke-linecap:butt;stroke-linejoin:miter;stroke-opacity:1" d="M 236.904,418.052 236.904,389.299 z" id="boundary" inkscape:connector-curvature="0" />
	<path style="fill:none;stroke:red;stroke-width:1px;stroke-linecap:butt;stroke-linejoin:miter;stroke-opacity:1" d="M 265.658,527.316 259.907,498.562 z" id="boundary" inkscape:connector-curvature="0" />
	<path style="fill:none;stroke:red;stroke-width:1px;stroke-linecap:butt;stroke-linejoin:miter;stroke-opacity:1" d="M 259.907,498.562 259.907,469.809 z" id="boundary" inkscape:connector-curvature="0" />
	<path style="fill:none;stroke:red;stroke-width:1px;stroke-linecap:butt;stroke-linejoin:miter;stroke-opacity:1" d="M 265.658,527.316 265.658,556.07 z" id="boundary" inkscape:connector-curvature="0" />
	<path style="fill:none;stroke:red;stroke-width:1px;stroke-linecap:butt;stroke-linejoin:miter;stroke-opacity:1" d="M 228.278,996 199.525,996 z" id="boundary" inkscape:connector-curvature="0" />
	<path style="fill:none;stroke:red;stroke-width:1px;stroke-linecap:butt;stroke-linejoin:miter;stroke-opacity:1" d="M 271.409,958.62 257.032,996 z" id="boundary" inkscape:connector-curvature="0" />
	<path style="fill:none;stroke:red;stroke-width:1px;stroke-linecap:butt;stroke-linejoin:miter;stroke-opacity:1" d="M 257.032,996 228.278,996 z" id="boundary" inkscape:connector-curvature="0" />
	<path style="fill:none;stroke:red;stroke-width:1px;stroke-linecap:butt;stroke-linejoin:miter;stroke-opacity:1" d="M 265.658,584.823 265.658,613.577 z" id="boundary" inkscape:connector-curvature="0" />
	<path style="fill:none;stroke:red;stroke-width:1px;stroke-linecap:butt;stroke-linejoin:miter;stroke-opacity:1" d="M 265.658,584.823 265.658,556.07 z" id="boundary" inkscape:connector-curvature="0" />
	<path style="fill:none;stroke:red;stroke-width:1px;stroke-linecap:butt;stroke-linejoin:miter;stroke-opacity:1" d="M 265.658,642.33 265.658,671.084 z" id="boundary" inkscape:connector-curvature="0" />
	<path style="fill:none;stroke:red;stroke-width:1px;stroke-linecap:butt;stroke-linejoin:miter;stroke-opacity:1" d="M 265.658,613.577 265.658,642.33 z" id="boundary" inkscape:connector-curvature="0" />
	<path style="fill:none;stroke:red;stroke-width:1px;stroke-linecap:butt;stroke-linejoin:miter;stroke-opacity:1" d="M 265.658,671.084 265.658,699.838 z" id="boundary" inkscape:connector-curvature="0" />
	<path style="fill:none;stroke:red;stroke-width:1px;stroke-linecap:butt;stroke-linejoin:miter;stroke-opacity:1" d="M 265.658,699.838 265.658,728.591 z" id="boundary" inkscape:connector-curvature="0" />
	<path style="fill:none;stroke:red;stroke-width:1px;stroke-linecap:butt;stroke-linejoin:miter;stroke-opacity:1" d="M 265.658,757.345 265.658,786.099 z" id="boundary" inkscape:connector-curvature="0" />
	<path style="fill:none;stroke:red;stroke-width:1px;stroke-linecap:butt;stroke-linejoin:miter;stroke-opacity:1" d="M 265.658,757.345 265.658,728.591 z" id="boundary" inkscape:connector-curvature="0" />
	<path style="fill:none;stroke:red;stroke-width:1px;stroke-linecap:butt;stroke-linejoin:miter;stroke-opacity:1" d="M 265.658,786.099 265.658,814.852 z" id="boundary" inkscape:connector-curvature="0" />
	<path style="fill:none;stroke:red;stroke-width:1px;stroke-linecap:butt;stroke-linejoin:miter;stroke-opacity:1" d="M 265.658,843.606 265.658,872.359 z" id="boundary" inkscape:connector-curvature="0" />
	<path style="fill:none;stroke:red;stroke-width:1px;stroke-linecap:butt;stroke-linejoin:miter;stroke-opacity:1" d="M 265.658,843.606 265.658,814.852 z" id="boundary" inkscape:connector-curvature="0" />
	<path style="fill:none;stroke:red;stroke-width:1px;stroke-linecap:butt;stroke-linejoin:miter;stroke-opacity:1" d="M 265.658,872.359 265.658,901.113 z" id="boundary" inkscape:connector-curvature="0" />
	<path style="fill:none;stroke:red;stroke-width:1px;stroke-linecap:butt;stroke-linejoin:miter;stroke-opacity:1" d="M 271.409,929.867 271.409,958.62 z" id="boundary" inkscape:connector-curvature="0" />
	<path style="fill:none;stroke:red;stroke-width:1px;stroke-linecap:butt;stroke-linejoin:miter;stroke-opacity:1" d="M 271.409,929.867 265.658,901.113 z" id="boundary" inkscape:connector-curvature="0" />
	<path style="fill:none;stroke:red;stroke-width:1px;stroke-linecap:butt;stroke-linejoin:miter;stroke-opacity:1" d="M 188.023,4 216.777,4 z" id="boundary" inkscape:connector-curvature="0" />
	<circle cx="4" cy="38.5043" r="4" fill="#0" id="circle0"/>
	<circle cx="9.75072" cy="67.258" r="4" fill="#0" id="circle1"/>
	<circle cx="15.5014" cy="9.75072" r="4" fill="#0" id="circle2"/>
	<circle cx="27.0029" cy="90.2609" r="4" fill="#0" id="circle3"/>
	<circle cx="44.2551" cy="4" r="4" fill="#0" id="circle4"/>
	<circle cx="55.7565" cy="93.1362" r="4" fill="#0" id="circle5"/>
	<circle cx="73.0087" cy="15.5014" r="4" fill="#0" id="circle6"/>
	<circle cx="78.7594" cy="75.8841" r="4" fill="#0" id="circle7"/>
	<circle cx="101.762" cy="15.5014" r="4" fill="#0" id="circle8"/>
	<circle cx="107.513" cy="75.8841" r="4" fill="#0" id="circle9"/>
	<circle cx="113.264" cy="987.374" r="4" fill="#0" id="circle10"/>
	<circle cx="119.014" cy="952.87" r="4" fill="#0" id="circle11"/>
	<circle cx="124.765" cy="98.887" r="4" fill="#0" id="circle12"/>
	<circle cx="124.765" cy="561.82" r="4" fill="#0" id="circle13"/>
	<circle cx="124.765" cy="590.574" r="4" fill="#0" id="circle14"/>
	<circle cx="124.765" cy="619.328" r="4" fill="#0" id="circle15"/>
	<circle cx="124.765" cy="648.081" r="4" fill="#0" id="circle16"/>
	<circle cx="124.765" cy="676.835" r="4" fill="#0" id="circle17"/>
	<circle cx="124.765" cy="705.588" r="4" fill="#0" id="circle18"/>
	<circle cx="124.765" cy="734.342" r="4" fill="#0" id="circle19"/>
	<circle cx="124.765" cy="763.096" r="4" fill="#0" id="circle20"/>
	<circle cx="124.765" cy="791.849" r="4" fill="#0" id="circle21"/>
	<circle cx="124.765" cy="820.603" r="4" fill="#0" id="circle22"/>
	<circle cx="124.765" cy="849.357" r="4" fill="#0" id="circle23"/>
	<circle cx="124.765" cy="878.11" r="4" fill="#0" id="circle24"/>
	<circle cx="124.765" cy="906.864" r="4" fill="#0" id="circle25"/>
	<circle cx="130.516" cy="4" r="4" fill="#0" id="circle26"/>
	<circle cx="130.516" cy="127.641" r="4" fill="#0" id="circle27"/>
	<circle cx="130.516" cy="156.394" r="4" fill="#0" id="circle28"/>
	<circle cx="130.516" cy="475.559" r="4" fill="#0" id="circle29"/>
	<circle cx="130.516" cy="504.313" r="4" fill="#0" id="circle30"/>
	<circle cx="130.516" cy="533.067" r="4" fill="#0" id="circle31"/>
	<circle cx="142.017" cy="996" r="4" fill="#0" id="circle32"/>
	<circle cx="144.893" cy="182.272" r="4" fill="#0" id="circle33"/>
	<circle cx="147.768" cy="441.055" r="4" fill="#0" id="circle34"/>
	<circle cx="153.519" cy="211.026" r="4" fill="#0" id="circle35"/>
	<circle cx="153.519" cy="239.78" r="4" fill="#0" id="circle36"/>
	<circle cx="159.27" cy="4" r="4" fill="#0" id="circle37"/>
	<circle cx="159.27" cy="268.533" r="4" fill="#0" id="circle38"/>
	<circle cx="159.27" cy="297.287" r="4" fill="#0" id="circle39"/>
	<circle cx="159.27" cy="326.041" r="4" fill="#0" id="circle40"/>
	<circle cx="159.27" cy="354.794" r="4" fill="#0" id="circle41"/>
	<circle cx="159.27" cy="383.548" r="4" fill="#0" id="circle42"/>
	<circle cx="159.27" cy="412.301" r="4" fill="#0" id="circle43"/>
	<circle cx="170.771" cy="996" r="4" fill="#0" id="circle44"/>
	<circle cx="188.023" cy="4" r="4" fill="#0" id="circle45"/>
	<circle cx="199.525" cy="996" r="4" fill="#0" id="circle46"/>
	<circle cx="216.777" cy="4" r="4" fill="#0" id="circle47"/>
	<circle cx="228.278" cy="996" r="4" fill="#0" id="circle48"/>
	<circle cx="231.154" cy="303.038" r="4" fill="#0" id="circle49"/>
	<circle cx="231.154" cy="331.791" r="4" fill="#0" id="circle50"/>
	<circle cx="231.154" cy="360.545" r="4" fill="#0" id="circle51"/>
	<circle cx="236.904" cy="211.026" r="4" fill="#0" id="circle52"/>
	<circle cx="236.904" cy="239.78" r="4" fill="#0" id="circle53"/>
	<circle cx="236.904" cy="268.533" r="4" fill="#0" id="circle54"/>
	<circle cx="236.904" cy="389.299" r="4" fill="#0" id="circle55"/>
	<circle cx="236.904" cy="418.052" r="4" fill="#0" id="circle56"/>
	<circle cx="242.655" cy="446.806" r="4" fill="#0" id="circle57"/>
	<circle cx="245.53" cy="4" r="4" fill="#0" id="circle58"/>
	<circle cx="248.406" cy="165.02" r="4" fill="#0" id="circle59"/>
	<circle cx="257.032" cy="996" r="4" fill="#0" id="circle60"/>
	<circle cx="259.907" cy="124.765" r="4" fill="#0" id="circle61"/>
	<circle cx="259.907" cy="469.809" r="4" fill="#0" id="circle62"/>
	<circle cx="259.907" cy="498.562" r="4" fill="#0" id="circle63"/>
	<circle cx="265.658" cy="90.2609" r="4" fill="#0" id="circle64"/>
	<circle cx="265.658" cy="527.316" r="4" fill="#0" id="circle65"/>
	<circle cx="265.658" cy="556.07" r="4" fill="#0" id="circle66"/>
	<circle cx="265.658" cy="584.823" r="4" fill="#0" id="circle67"/>
	<circle cx="265.658" cy="613.577" r="4" fill="#0" id="circle68"/>
	<circle cx="265.658" cy="642.33" r="4" fill="#0" id="circle69"/>
	<circle cx="265.658" cy="671.084" r="4" fill="#0" id="circle70"/>
	<circle cx="265.658" cy="699.838" r="4" fill="#0" id="circle71"/>
	<circle cx="265.658" cy="728.591" r="4" fill="#0" id="circle72"/>
	<circle cx="265.658" cy="757.345" r="4" fill="#0" id="circle73"/>
	<circle cx="265.658" cy="786.099" r="4" fill="#0" id="circle74"/>
	<circle cx="265.658" cy="814.852" r="4" fill="#0" id="circle75"/>
	<circle cx="265.658" cy="843.606" r="4" fill="#0" id="circle76"/>
	<circle cx="265.658" cy="872.359" r="4" fill="#0" id="circle77"/>
	<circle cx="265.658" cy="901.113" r="4" fill="#0" id="circle78"/>
	<circle cx="271.409" cy="929.867" r="4" fill="#0" id="circle79"/>
	<circle cx="271.409" cy="958.62" r="4" fill="#0" id="circle80"/>
	<circle cx="274.284" cy="6.87536" r="4" fill="#0" id="circle81"/>
	<circle cx="294.412" cy="98.887" r="4" fill="#0" id="circle82"/>
	<circle cx="300.162" cy="21.2522" r="4" fill="#0" id="circle83"/>
	<circle cx="320.29" cy="44.2551" r="4" fill="#0" id="circle84"/>
	<circle cx="320.29" cy="113.264" r="4" fill="#0" id="circle85"/>
	<circle cx="337.542" cy="136.267" r="4" fill="#0" id="circle86"/>
	<circle cx="343.293" cy="64.3826" r="4" fill="#0" id="circle87"/>
	<circle cx="354.794" cy="159.27" r="4" fill="#0" id="circle88"/>
	<circle cx="363.42" cy="87.3855" r="4" fill="#0" id="circle89"/>
	<circle cx="377.797" cy="113.264" r="4" fill="#0" id="circle90"/>
	<circle cx="377.797" cy="179.397" r="4" fill="#0" id="circle91"/>
	<circle cx="389.299" cy="142.017" r="4" fill="#0" id="circle92"/>
	</g>
</svg>